RawData/SinglePhotoelectron/L3_2pt2foot_5mV/wave002_Ch4.csv

"Record Length",1000,"Points",-7.72500000e-009,4.48437457e-004
"Sample Interval",2.50000000e-011,s,-7.70000000e-009,4.31249956e-004
"Trigger Point",309,"Samples",-7.67500000e-009,4.14062455e-004
"Trigger Time",9.98417266e-013,s,-7.65000000e-009,4.03124954e-004
"",,,-7.62500000e-009,3.99999954e-004
"Horizontal Offset",-7.72500000e-009,s,-7.60000000e-009,4.14062455e-004
,,,-7.57500000e-009,4.43749957e-004
,,,-7.55000000e-009,4.87499960e-004
,,,-7.52500000e-009,5.43749964e-004
,,,-7.50000000e-009,6.07812469e-004
,,,-7.47500000e-009,6.74999973e-004
,,,-7.45000000e-009,7.40624978e-004
,,,-7.42500000e-009,7.99999982e-004
,,,-7.40000000e-009,8.45312485e-004
,,,-7.37500000e-009,8.74999987e-004
,,,-7.35000000e-009,8.92187489e-004
,,,-7.32500000e-009,8.96874989e-004
,,,-7.30000000e-009,8.87499988e-004
,,,-7.27500000e-009,8.67187487e-004
,,,-7.25000000e-009,8.37499985e-004
,,,-7.22500000e-009,7.99999982e-004
,,,-7.20000000e-009,7.59374979e-004
,,,-7.17500000e-009,7.14062476e-004
,,,-7.15000000e-009,6.65624973e-004
,,,-7.12500000e-009,6.15624969e-004
,,,-7.10000000e-009,5.64062465e-004
,,,-7.07500000e-009,5.09374962e-004
,,,-7.05000000e-009,4.54687458e-004
,,,-7.02500000e-009,3.99999954e-004
,,,-7.00000000e-009,3.51562450e-004
,,,-6.97500000e-009,3.09374947e-004
,,,-6.95000000e-009,2.79687445e-004
,,,-6.92500000e-009,2.65624944e-004
,,,-6.90000000e-009,2.70312445e-004
,,,-6.87500000e-009,2.93749946e-004
,,,-6.85000000e-009,3.39062449e-004
,,,-6.82500000e-009,3.99999954e-004
,,,-6.80000000e-009,4.78124959e-004
,,,-6.77500000e-009,5.64062465e-004
,,,-6.75000000e-009,6.46874971e-004
,,,-6.72500000e-009,7.21874977e-004
,,,-6.70000000e-009,7.81249981e-004
,,,-6.67500000e-009,8.15624983e-004
,,,-6.65000000e-009,8.23437484e-004
,,,-6.62500000e-009,7.99999982e-004
,,,-6.60000000e-009,7.48437478e-004
,,,-6.57500000e-009,6.76562473e-004
,,,-6.55000000e-009,5.95312468e-004
,,,-6.52500000e-009,5.14062462e-004
,,,-6.50000000e-009,4.43749957e-004
,,,-6.47500000e-009,3.96874954e-004
,,,-6.45000000e-009,3.81249952e-004
,,,-6.42500000e-009,3.99999954e-004
,,,-6.40000000e-009,4.60937458e-004
,,,-6.37500000e-009,5.53124965e-004
,,,-6.35000000e-009,6.70312473e-004
,,,-6.32500000e-009,7.98437482e-004
,,,-6.30000000e-009,9.28124991e-004
,,,-6.27500000e-009,1.04531250e-003
,,,-6.25000000e-009,1.13906251e-003
,,,-6.22500000e-009,1.20000001e-003
,,,-6.20000000e-009,1.22031251e-003
,,,-6.17500000e-009,1.20468751e-003
,,,-6.15000000e-009,1.15781251e-003
,,,-6.12500000e-009,1.08906250e-003
,,,-6.10000000e-009,1.00937500e-003
,,,-6.07500000e-009,9.28124991e-004
,,,-6.05000000e-009,8.56249986e-004
,,,-6.02500000e-009,7.99999982e-004
,,,-6.00000000e-009,7.65624980e-004
,,,-5.97500000e-009,7.53124979e-004
,,,-5.95000000e-009,7.59374979e-004
,,,-5.92500000e-009,7.76562480e-004
,,,-5.90000000e-009,7.98437482e-004
,,,-5.87500000e-009,8.14062483e-004
,,,-5.85000000e-009,8.17187483e-004
,,,-5.82500000e-009,7.99999982e-004
,,,-5.80000000e-009,7.60937479e-004
,,,-5.77500000e-009,7.04687475e-004
,,,-5.75000000e-009,6.34374970e-004
,,,-5.72500000e-009,5.60937465e-004
,,,-5.70000000e-009,4.93749960e-004
,,,-5.67500000e-009,4.39062457e-004
,,,-5.65000000e-009,4.06249954e-004
,,,-5.62500000e-009,3.99999954e-004
,,,-5.60000000e-009,4.28124956e-004
,,,-5.57500000e-009,4.79687459e-004
,,,-5.55000000e-009,5.48437464e-004
,,,-5.52500000e-009,6.24999970e-004
,,,-5.50000000e-009,6.98437475e-004
,,,-5.47500000e-009,7.56249979e-004
,,,-5.45000000e-009,7.92187482e-004
,,,-5.42500000e-009,7.99999982e-004
,,,-5.40000000e-009,7.74999980e-004
,,,-5.37500000e-009,7.24999977e-004
,,,-5.35000000e-009,6.54687472e-004
,,,-5.32500000e-009,5.76562466e-004
,,,-5.30000000e-009,5.03124961e-004
,,,-5.27500000e-009,4.43749957e-004
,,,-5.25000000e-009,4.07812454e-004
,,,-5.22500000e-009,3.99999954e-004
,,,-5.20000000e-009,4.28124956e-004
,,,-5.17500000e-009,4.82812460e-004
,,,-5.15000000e-009,5.54687465e-004
,,,-5.12500000e-009,6.32812470e-004
,,,-5.10000000e-009,7.07812476e-004
,,,-5.07500000e-009,7.65624980e-004
,,,-5.05000000e-009,7.98437482e-004
,,,-5.02500000e-009,7.99999982e-004
,,,-5.00000000e-009,7.68749980e-004
,,,-4.97500000e-009,7.07812476e-004
,,,-4.95000000e-009,6.29687470e-004
,,,-4.92500000e-009,5.43749964e-004
,,,-4.90000000e-009,4.67187459e-004
,,,-4.87500000e-009,4.10937455e-004
,,,-4.85000000e-009,3.85937453e-004
,,,-4.82500000e-009,3.99999954e-004
,,,-4.80000000e-009,4.59374958e-004
,,,-4.77500000e-009,5.53124965e-004
,,,-4.75000000e-009,6.73437473e-004
,,,-4.72500000e-009,8.09374983e-004
,,,-4.70000000e-009,9.43749992e-004
,,,-4.67500000e-009,1.06250000e-003
,,,-4.65000000e-009,1.15156251e-003
,,,-4.62500000e-009,1.20000001e-003
,,,-4.60000000e-009,1.19687501e-003
,,,-4.57500000e-009,1.14687501e-003
,,,-4.55000000e-009,1.05625000e-003
,,,-4.52500000e-009,9.35937492e-004
,,,-4.50000000e-009,7.96874982e-004
,,,-4.47500000e-009,6.53124972e-004
,,,-4.45000000e-009,5.17187462e-004
,,,-4.42500000e-009,3.99999954e-004
,,,-4.40000000e-009,3.14062448e-004
,,,-4.37500000e-009,2.59374944e-004
,,,-4.35000000e-009,2.37499942e-004
,,,-4.32500000e-009,2.42187443e-004
,,,-4.30000000e-009,2.68749945e-004
,,,-4.27500000e-009,3.09374947e-004
,,,-4.25000000e-009,3.56249951e-004
,,,-4.22500000e-009,3.99999954e-004
,,,-4.20000000e-009,4.37499956e-004
,,,-4.17500000e-009,4.62499958e-004
,,,-4.15000000e-009,4.73437459e-004
,,,-4.12500000e-009,4.73437459e-004
,,,-4.10000000e-009,4.60937458e-004
,,,-4.07500000e-009,4.42187457e-004
,,,-4.05000000e-009,4.21874955e-004
,,,-4.02500000e-009,3.99999954e-004
,,,-4.00000000e-009,3.87499953e-004
,,,-3.97500000e-009,3.78124952e-004
,,,-3.95000000e-009,3.74999952e-004
,,,-3.92500000e-009,3.76562452e-004
,,,-3.90000000e-009,3.82812453e-004
,,,-3.87500000e-009,3.89062453e-004
,,,-3.85000000e-009,3.95312453e-004
,,,-3.82500000e-009,3.99999954e-004
,,,-3.80000000e-009,4.03124954e-004
,,,-3.77500000e-009,4.03124954e-004
,,,-3.75000000e-009,4.01562454e-004
,,,-3.72500000e-009,3.98437454e-004
,,,-3.70000000e-009,3.96874954e-004
,,,-3.67500000e-009,3.95312453e-004
,,,-3.65000000e-009,3.96874954e-004
,,,-3.62500000e-009,3.99999954e-004
,,,-3.60000000e-009,4.12499955e-004
,,,-3.57500000e-009,4.23437455e-004
,,,-3.55000000e-009,4.34374956e-004
,,,-3.52500000e-009,4.40624957e-004
,,,-3.50000000e-009,4.40624957e-004
,,,-3.47500000e-009,4.34374956e-004
,,,-3.45000000e-009,4.20312455e-004
,,,-3.42500000e-009,3.99999954e-004
,,,-3.40000000e-009,3.78124952e-004
,,,-3.37500000e-009,3.54687451e-004
,,,-3.35000000e-009,3.34374949e-004
,,,-3.32500000e-009,3.20312448e-004
,,,-3.30000000e-009,3.17187448e-004
,,,-3.27500000e-009,3.29687449e-004
,,,-3.25000000e-009,3.57812451e-004
,,,-3.22500000e-009,3.99999954e-004
,,,-3.20000000e-009,4.62499958e-004
,,,-3.17500000e-009,5.32812463e-004
,,,-3.15000000e-009,6.07812469e-004
,,,-3.12500000e-009,6.79687474e-004
,,,-3.10000000e-009,7.40624978e-004
,,,-3.07500000e-009,7.82812481e-004
,,,-3.05000000e-009,8.04687482e-004
,,,-3.02500000e-009,7.99999982e-004
,,,-3.00000000e-009,7.73437480e-004
,,,-2.97500000e-009,7.24999977e-004
,,,-2.95000000e-009,6.62499972e-004
,,,-2.92500000e-009,5.92187467e-004
,,,-2.90000000e-009,5.23437463e-004
,,,-2.87500000e-009,4.64062458e-004
,,,-2.85000000e-009,4.21874955e-004
,,,-2.82500000e-009,3.99999954e-004
,,,-2.80000000e-009,4.06249954e-004
,,,-2.77500000e-009,4.34374956e-004
,,,-2.75000000e-009,4.82812460e-004
,,,-2.72500000e-009,5.46874964e-004
,,,-2.70000000e-009,6.17187469e-004
,,,-2.67500000e-009,6.87499974e-004
,,,-2.65000000e-009,7.49999979e-004
,,,-2.62500000e-009,7.99999982e-004
,,,-2.60000000e-009,8.31249984e-004
,,,-2.57500000e-009,8.46874985e-004
,,,-2.55000000e-009,8.45312485e-004
,,,-2.52500000e-009,8.34374985e-004
,,,-2.50000000e-009,8.18749983e-004
,,,-2.47500000e-009,8.04687482e-004
,,,-2.45000000e-009,7.96874982e-004
,,,-2.42500000e-009,7.99999982e-004
,,,-2.40000000e-009,8.15624983e-004
,,,-2.37500000e-009,8.45312485e-004
,,,-2.35000000e-009,8.89062488e-004
,,,-2.32500000e-009,9.45312492e-004
,,,-2.30000000e-009,1.00937500e-003
,,,-2.27500000e-009,1.07656250e-003
,,,-2.25000000e-009,1.14218751e-003
,,,-2.22500000e-009,1.20000001e-003
,,,-2.20000000e-009,1.24375001e-003
,,,-2.17500000e-009,1.27343752e-003
,,,-2.15000000e-009,1.29062502e-003
,,,-2.12500000e-009,1.29375002e-003
,,,-2.10000000e-009,1.28593752e-003
,,,-2.07500000e-009,1.26562502e-003
,,,-2.05000000e-009,1.23593751e-003
,,,-2.02500000e-009,1.20000001e-003
,,,-2.00000000e-009,1.15468751e-003
,,,-1.97500000e-009,1.10468750e-003
,,,-1.95000000e-009,1.05312500e-003
,,,-1.92500000e-009,1.00312500e-003
,,,-1.90000000e-009,9.51562493e-004
,,,-1.87500000e-009,8.99999989e-004
,,,-1.85000000e-009,8.49999986e-004
,,,-1.82500000e-009,7.99999982e-004
,,,-1.80000000e-009,7.46874978e-004
,,,-1.77500000e-009,6.92187474e-004
,,,-1.75000000e-009,6.39062471e-004
,,,-1.72500000e-009,5.87499967e-004
,,,-1.70000000e-009,5.35937463e-004
,,,-1.67500000e-009,4.87499960e-004
,,,-1.65000000e-009,4.42187457e-004
,,,-1.62500000e-009,3.99999954e-004
,,,-1.60000000e-009,3.59374951e-004
,,,-1.57500000e-009,3.24999948e-004
,,,-1.55000000e-009,2.98437447e-004
,,,-1.52500000e-009,2.85937446e-004
,,,-1.50000000e-009,2.89062446e-004
,,,-1.47500000e-009,3.09374947e-004
,,,-1.45000000e-009,3.46874950e-004
,,,-1.42500000e-009,3.99999954e-004
,,,-1.40000000e-009,4.57812458e-004
,,,-1.37500000e-009,5.21874962e-004
,,,-1.35000000e-009,5.87499967e-004
,,,-1.32500000e-009,6.51562472e-004
,,,-1.30000000e-009,7.09374976e-004
,,,-1.27500000e-009,7.54687479e-004
,,,-1.25000000e-009,7.85937481e-004
,,,-1.22500000e-009,7.99999982e-004
,,,-1.20000000e-009,7.81249981e-004
,,,-1.17500000e-009,7.42187478e-004
,,,-1.15000000e-009,6.89062474e-004
,,,-1.12500000e-009,6.24999970e-004
,,,-1.10000000e-009,5.60937465e-004
,,,-1.07500000e-009,4.98437461e-004
,,,-1.05000000e-009,4.43749957e-004
,,,-1.02500000e-009,3.99999954e-004
,,,-1.00000000e-009,3.46874950e-004
,,,-9.75000000e-010,2.98437447e-004
,,,-9.50000000e-010,2.54687444e-004
,,,-9.25000000e-010,2.14062441e-004
,,,-9.00000000e-010,1.71874938e-004
,,,-8.75000000e-010,1.24999934e-004
,,,-8.50000000e-010,6.87499304e-005
,,,-8.25000000e-010,-7.45058060e-011
,,,-8.00000000e-010,-1.07812582e-004
,,,-7.75000000e-010,-2.37500091e-004
,,,-7.50000000e-010,-3.84375102e-004
,,,-7.25000000e-010,-5.45312613e-004
,,,-7.00000000e-010,-7.12500125e-004
,,,-6.75000000e-010,-8.81250137e-004
,,,-6.50000000e-010,-1.04531265e-003
,,,-6.25000000e-010,-1.20000016e-003
,,,-6.00000000e-010,-1.35468767e-003
,,,-5.75000000e-010,-1.49843768e-003
,,,-5.50000000e-010,-1.62500019e-003
,,,-5.25000000e-010,-1.73281270e-003
,,,-5.00000000e-010,-1.82343770e-003
,,,-4.75000000e-010,-1.89531271e-003
,,,-4.50000000e-010,-1.95312521e-003
,,,-4.25000000e-010,-2.00000022e-003
,,,-4.00000000e-010,-2.05000022e-003
,,,-3.75000000e-010,-2.10625022e-003
,,,-3.50000000e-010,-2.17500023e-003
,,,-3.25000000e-010,-2.25781273e-003
,,,-3.00000000e-010,-2.35937524e-003
,,,-2.75000000e-010,-2.48281275e-003
,,,-2.50000000e-010,-2.62812526e-003
,,,-2.25000000e-010,-2.80000027e-003
,,,-2.00000000e-010,-2.99687529e-003
,,,-1.75000000e-010,-3.22031280e-003
,,,-1.50000000e-010,-3.46562532e-003
,,,-1.25000000e-010,-3.72812534e-003
,,,-1.00000000e-010,-4.00156286e-003
,,,-7.50000000e-011,-4.27500038e-003
,,,-5.00000000e-011,-4.54375040e-003
,,,-2.50000000e-011,-4.80000041e-003
,,,0.00000000e+000,-5.01718793e-003
,,,2.50000000e-011,-5.21718794e-003
,,,5.00000000e-011,-5.39687546e-003
,,,7.50000000e-011,-5.55781297e-003
,,,1.00000000e-010,-5.69687548e-003
,,,1.25000000e-010,-5.81718799e-003
,,,1.50000000e-010,-5.91875049e-003
,,,1.75000000e-010,-6.00000050e-003
,,,2.00000000e-010,-6.03125050e-003
,,,2.25000000e-010,-6.05000050e-003
,,,2.50000000e-010,-6.05937550e-003
,,,2.75000000e-010,-6.06093800e-003
,,,3.00000000e-010,-6.05625050e-003
,,,3.25000000e-010,-6.04218800e-003
,,,3.50000000e-010,-6.02343800e-003
,,,3.75000000e-010,-6.00000050e-003
,,,4.00000000e-010,-5.94375050e-003
,,,4.25000000e-010,-5.89375049e-003
,,,4.50000000e-010,-5.85781299e-003
,,,4.75000000e-010,-5.83906299e-003
,,,5.00000000e-010,-5.84375049e-003
,,,5.25000000e-010,-5.87187549e-003
,,,5.50000000e-010,-5.92343799e-003
,,,5.75000000e-010,-6.00000050e-003
,,,6.00000000e-010,-6.06093800e-003
,,,6.25000000e-010,-6.13437551e-003
,,,6.50000000e-010,-6.21250051e-003
,,,6.75000000e-010,-6.28906302e-003
,,,7.00000000e-010,-6.35468802e-003
,,,7.25000000e-010,-6.39843803e-003
,,,7.50000000e-010,-6.41562553e-003
,,,7.75000000e-010,-6.40000053e-003
,,,8.00000000e-010,-6.31093802e-003
,,,8.25000000e-010,-6.19062551e-003
,,,8.50000000e-010,-6.04375050e-003
,,,8.75000000e-010,-5.87656299e-003
,,,9.00000000e-010,-5.70156298e-003
,,,9.25000000e-010,-5.52500047e-003
,,,9.50000000e-010,-5.35625045e-003
,,,9.75000000e-010,-5.20000044e-003
,,,1.00000000e-009,-5.04375043e-003
,,,1.02500000e-009,-4.90937542e-003
,,,1.05000000e-009,-4.79375041e-003
,,,1.07500000e-009,-4.69687541e-003
,,,1.10000000e-009,-4.61250040e-003
,,,1.12500000e-009,-4.53906290e-003
,,,1.15000000e-009,-4.46875039e-003
,,,1.17500000e-009,-4.40000039e-003
,,,1.20000000e-009,-4.31718788e-003
,,,1.22500000e-009,-4.22500037e-003
,,,1.25000000e-009,-4.12500037e-003
,,,1.27500000e-009,-4.01875036e-003
,,,1.30000000e-009,-3.90937535e-003
,,,1.32500000e-009,-3.80156284e-003
,,,1.35000000e-009,-3.69687534e-003
,,,1.37500000e-009,-3.60000033e-003
,,,1.40000000e-009,-3.50625032e-003
,,,1.42500000e-009,-3.41562532e-003
,,,1.45000000e-009,-3.32500031e-003
,,,1.47500000e-009,-3.23281280e-003
,,,1.50000000e-009,-3.13437530e-003
,,,1.52500000e-009,-3.02968779e-003
,,,1.55000000e-009,-2.91875028e-003
,,,1.57500000e-009,-2.80000027e-003
,,,1.60000000e-009,-2.67812526e-003
,,,1.62500000e-009,-2.55000025e-003
,,,1.65000000e-009,-2.42187525e-003
,,,1.67500000e-009,-2.30000024e-003
,,,1.70000000e-009,-2.19218773e-003
,,,1.72500000e-009,-2.10312522e-003
,,,1.75000000e-009,-2.03750022e-003
,,,1.77500000e-009,-2.00000022e-003
,,,1.80000000e-009,-1.99687522e-003
,,,1.82500000e-009,-2.01093772e-003
,,,1.85000000e-009,-2.03125022e-003
,,,1.87500000e-009,-2.05312522e-003
,,,1.90000000e-009,-2.06562522e-003
,,,1.92500000e-009,-2.06562522e-003
,,,1.95000000e-009,-2.04375022e-003
,,,1.97500000e-009,-2.00000022e-003
,,,2.00000000e-009,-1.93906271e-003
,,,2.02500000e-009,-1.85312521e-003
,,,2.05000000e-009,-1.74687520e-003
,,,2.07500000e-009,-1.62656269e-003
,,,2.10000000e-009,-1.50312518e-003
,,,2.12500000e-009,-1.38593767e-003
,,,2.15000000e-009,-1.28125017e-003
,,,2.17500000e-009,-1.20000016e-003
,,,2.20000000e-009,-1.15312516e-003
,,,2.22500000e-009,-1.12812515e-003
,,,2.25000000e-009,-1.12343765e-003
,,,2.27500000e-009,-1.13281265e-003
,,,2.30000000e-009,-1.15156266e-003
,,,2.32500000e-009,-1.17343766e-003
,,,2.35000000e-009,-1.19062516e-003
,,,2.37500000e-009,-1.20000016e-003
,,,2.40000000e-009,-1.20156266e-003
,,,2.42500000e-009,-1.18437516e-003
,,,2.45000000e-009,-1.14687516e-003
,,,2.47500000e-009,-1.09375015e-003
,,,2.50000000e-009,-1.02656265e-003
,,,2.52500000e-009,-9.50000142e-004
,,,2.55000000e-009,-8.73437636e-004
,,,2.57500000e-009,-8.00000131e-004
,,,2.60000000e-009,-7.43750127e-004
,,,2.62500000e-009,-7.00000124e-004
,,,2.65000000e-009,-6.73437622e-004
,,,2.67500000e-009,-6.62500121e-004
,,,2.70000000e-009,-6.71875122e-004
,,,2.72500000e-009,-6.98437624e-004
,,,2.75000000e-009,-7.42187627e-004
,,,2.77500000e-009,-8.00000131e-004
,,,2.80000000e-009,-8.71875136e-004
,,,2.82500000e-009,-9.46875142e-004
,,,2.85000000e-009,-1.01875015e-003
,,,2.87500000e-009,-1.08437515e-003
,,,2.90000000e-009,-1.13906266e-003
,,,2.92500000e-009,-1.17656266e-003
,,,2.95000000e-009,-1.19843766e-003
,,,2.97500000e-009,-1.20000016e-003
,,,3.00000000e-009,-1.17968766e-003
,,,3.02500000e-009,-1.14062516e-003
,,,3.05000000e-009,-1.08750015e-003
,,,3.07500000e-009,-1.02500015e-003
,,,3.10000000e-009,-9.59375142e-004
,,,3.12500000e-009,-8.96875138e-004
,,,3.15000000e-009,-8.42187634e-004
,,,3.17500000e-009,-8.00000131e-004
,,,3.20000000e-009,-7.68750129e-004
,,,3.22500000e-009,-7.51562628e-004
,,,3.25000000e-009,-7.46875127e-004
,,,3.27500000e-009,-7.51562628e-004
,,,3.30000000e-009,-7.62500128e-004
,,,3.32500000e-009,-7.76562629e-004
,,,3.35000000e-009,-7.89062630e-004
,,,3.37500000e-009,-8.00000131e-004
,,,3.40000000e-009,-8.00000131e-004
,,,3.42500000e-009,-7.95312631e-004
,,,3.45000000e-009,-7.85937630e-004
,,,3.47500000e-009,-7.76562629e-004
,,,3.50000000e-009,-7.70312629e-004
,,,3.52500000e-009,-7.70312629e-004
,,,3.55000000e-009,-7.79687630e-004
,,,3.57500000e-009,-8.00000131e-004
,,,3.60000000e-009,-8.20312633e-004
,,,3.62500000e-009,-8.45312634e-004
,,,3.65000000e-009,-8.70312636e-004
,,,3.67500000e-009,-8.87500137e-004
,,,3.70000000e-009,-8.93750138e-004
,,,3.72500000e-009,-8.84375137e-004
,,,3.75000000e-009,-8.53125135e-004
,,,3.77500000e-009,-8.00000131e-004
,,,3.80000000e-009,-7.15625125e-004
,,,3.82500000e-009,-6.12500118e-004
,,,3.85000000e-009,-4.96875110e-004
,,,3.87500000e-009,-3.75000101e-004
,,,3.90000000e-009,-2.57812593e-004
,,,3.92500000e-009,-1.51562585e-004
,,,3.95000000e-009,-6.40625790e-005
,,,3.97500000e-009,-7.45058060e-011
,,,4.00000000e-009,3.74999281e-005
,,,4.02500000e-009,5.15624291e-005
,,,4.05000000e-009,4.84374289e-005
,,,4.07500000e-009,3.28124278e-005
,,,4.10000000e-009,1.40624265e-005
,,,4.12500000e-009,-1.56257462e-006
,,,4.15000000e-009,-7.81257506e-006
,,,4.17500000e-009,-7.45058060e-011
,,,4.20000000e-009,2.65624274e-005
,,,4.22500000e-009,7.03124305e-005
,,,4.25000000e-009,1.26562434e-004
,,,4.27500000e-009,1.92187439e-004
,,,4.30000000e-009,2.57812444e-004
,,,4.32500000e-009,3.18749948e-004
,,,4.35000000e-009,3.67187451e-004
,,,4.37500000e-009,3.99999954e-004
,,,4.40000000e-009,4.14062455e-004
,,,4.42500000e-009,4.12499955e-004
,,,4.45000000e-009,4.01562454e-004
,,,4.47500000e-009,3.85937453e-004
,,,4.50000000e-009,3.71874952e-004
,,,4.52500000e-009,3.67187451e-004
,,,4.55000000e-009,3.74999952e-004
,,,4.57500000e-009,3.99999954e-004
,,,4.60000000e-009,4.39062457e-004
,,,4.62500000e-009,4.93749960e-004
,,,4.65000000e-009,5.57812465e-004
,,,4.67500000e-009,6.28124970e-004
,,,4.70000000e-009,6.93749975e-004
,,,4.72500000e-009,7.49999979e-004
,,,4.75000000e-009,7.85937481e-004
,,,4.77500000e-009,7.99999982e-004
,,,4.80000000e-009,7.82812481e-004
,,,4.82500000e-009,7.42187478e-004
,,,4.85000000e-009,6.84374974e-004
,,,4.87500000e-009,6.17187469e-004
,,,4.90000000e-009,5.48437464e-004
,,,4.92500000e-009,4.84374960e-004
,,,4.95000000e-009,4.32812456e-004
,,,4.97500000e-009,3.99999954e-004
,,,5.00000000e-009,3.90624953e-004
,,,5.02500000e-009,4.04687454e-004
,,,5.05000000e-009,4.40624957e-004
,,,5.07500000e-009,4.98437461e-004
,,,5.10000000e-009,5.68749966e-004
,,,5.12500000e-009,6.46874971e-004
,,,5.15000000e-009,7.26562477e-004
,,,5.17500000e-009,7.99999982e-004
,,,5.20000000e-009,8.57812486e-004
,,,5.22500000e-009,8.98437489e-004
,,,5.25000000e-009,9.23437491e-004
,,,5.27500000e-009,9.28124991e-004
,,,5.30000000e-009,9.17187490e-004
,,,5.32500000e-009,8.90624989e-004
,,,5.35000000e-009,8.49999986e-004
,,,5.37500000e-009,7.99999982e-004
,,,5.40000000e-009,7.43749978e-004
,,,5.42500000e-009,6.82812474e-004
,,,5.45000000e-009,6.24999970e-004
,,,5.47500000e-009,5.68749966e-004
,,,5.50000000e-009,5.17187462e-004
,,,5.52500000e-009,4.71874959e-004
,,,5.55000000e-009,4.32812456e-004
,,,5.57500000e-009,3.99999954e-004
,,,5.60000000e-009,3.76562452e-004
,,,5.62500000e-009,3.60937451e-004
,,,5.65000000e-009,3.53124950e-004
,,,5.67500000e-009,3.53124950e-004
,,,5.70000000e-009,3.59374951e-004
,,,5.72500000e-009,3.68749952e-004
,,,5.75000000e-009,3.84374953e-004
,,,5.77500000e-009,3.99999954e-004
,,,5.80000000e-009,4.20312455e-004
,,,5.82500000e-009,4.39062457e-004
,,,5.85000000e-009,4.51562457e-004
,,,5.87500000e-009,4.57812458e-004
,,,5.90000000e-009,4.54687458e-004
,,,5.92500000e-009,4.45312457e-004
,,,5.95000000e-009,4.26562456e-004
,,,5.97500000e-009,3.99999954e-004
,,,6.00000000e-009,3.71874952e-004
,,,6.02500000e-009,3.43749950e-004
,,,6.05000000e-009,3.20312448e-004
