RawData/SinglePhotoelectron/L3_2pt2foot_5mV/wave009_Ch4.csv

"Record Length",1000,"Points",-7.72500000e-009,8.24999984e-004
"Sample Interval",2.50000000e-011,s,-7.70000000e-009,8.26562484e-004
"Trigger Point",309,"Samples",-7.67500000e-009,8.23437484e-004
"Trigger Time",5.83818182e-012,s,-7.65000000e-009,8.15624983e-004
"",,,-7.62500000e-009,7.99999982e-004
"Horizontal Offset",-7.72500000e-009,s,-7.60000000e-009,7.84374981e-004
,,,-7.57500000e-009,7.65624980e-004
,,,-7.55000000e-009,7.48437478e-004
,,,-7.52500000e-009,7.35937478e-004
,,,-7.50000000e-009,7.32812477e-004
,,,-7.47500000e-009,7.40624978e-004
,,,-7.45000000e-009,7.62499979e-004
,,,-7.42500000e-009,7.99999982e-004
,,,-7.40000000e-009,8.53124986e-004
,,,-7.37500000e-009,9.15624990e-004
,,,-7.35000000e-009,9.82812495e-004
,,,-7.32500000e-009,1.04843750e-003
,,,-7.30000000e-009,1.10781250e-003
,,,-7.27500000e-009,1.15625001e-003
,,,-7.25000000e-009,1.18906251e-003
,,,-7.22500000e-009,1.20000001e-003
,,,-7.20000000e-009,1.18593751e-003
,,,-7.17500000e-009,1.15312501e-003
,,,-7.15000000e-009,1.10312500e-003
,,,-7.12500000e-009,1.04218750e-003
,,,-7.10000000e-009,9.74999995e-004
,,,-7.07500000e-009,9.09374990e-004
,,,-7.05000000e-009,8.49999986e-004
,,,-7.02500000e-009,7.99999982e-004
,,,-7.00000000e-009,7.65624980e-004
,,,-6.97500000e-009,7.45312478e-004
,,,-6.95000000e-009,7.39062478e-004
,,,-6.92500000e-009,7.43749978e-004
,,,-6.90000000e-009,7.56249979e-004
,,,-6.87500000e-009,7.73437480e-004
,,,-6.85000000e-009,7.89062481e-004
,,,-6.82500000e-009,7.99999982e-004
,,,-6.80000000e-009,8.06249983e-004
,,,-6.77500000e-009,8.06249983e-004
,,,-6.75000000e-009,8.01562482e-004
,,,-6.72500000e-009,7.93749982e-004
,,,-6.70000000e-009,7.87499981e-004
,,,-6.67500000e-009,7.85937481e-004
,,,-6.65000000e-009,7.90624981e-004
,,,-6.62500000e-009,7.99999982e-004
,,,-6.60000000e-009,8.15624983e-004
,,,-6.57500000e-009,8.34374985e-004
,,,-6.55000000e-009,8.51562486e-004
,,,-6.52500000e-009,8.65624987e-004
,,,-6.50000000e-009,8.70312487e-004
,,,-6.47500000e-009,8.62499987e-004
,,,-6.45000000e-009,8.40624985e-004
,,,-6.42500000e-009,7.99999982e-004
,,,-6.40000000e-009,7.45312478e-004
,,,-6.37500000e-009,6.78124973e-004
,,,-6.35000000e-009,6.06249968e-004
,,,-6.32500000e-009,5.35937463e-004
,,,-6.30000000e-009,4.73437459e-004
,,,-6.27500000e-009,4.28124956e-004
,,,-6.25000000e-009,4.03124954e-004
,,,-6.22500000e-009,3.99999954e-004
,,,-6.20000000e-009,4.26562456e-004
,,,-6.17500000e-009,4.71874959e-004
,,,-6.15000000e-009,5.32812463e-004
,,,-6.12500000e-009,5.99999968e-004
,,,-6.10000000e-009,6.68749973e-004
,,,-6.07500000e-009,7.29687477e-004
,,,-6.05000000e-009,7.74999980e-004
,,,-6.02500000e-009,7.99999982e-004
,,,-6.00000000e-009,8.03124982e-004
,,,-5.97500000e-009,7.81249981e-004
,,,-5.95000000e-009,7.39062478e-004
,,,-5.92500000e-009,6.79687474e-004
,,,-5.90000000e-009,6.09374969e-004
,,,-5.87500000e-009,5.35937463e-004
,,,-5.85000000e-009,4.64062458e-004
,,,-5.82500000e-009,3.99999954e-004
,,,-5.80000000e-009,3.54687451e-004
,,,-5.77500000e-009,3.24999948e-004
,,,-5.75000000e-009,3.10937448e-004
,,,-5.72500000e-009,3.12499948e-004
,,,-5.70000000e-009,3.24999948e-004
,,,-5.67500000e-009,3.46874950e-004
,,,-5.65000000e-009,3.73437452e-004
,,,-5.62500000e-009,3.99999954e-004
,,,-5.60000000e-009,4.28124956e-004
,,,-5.57500000e-009,4.48437457e-004
,,,-5.55000000e-009,4.60937458e-004
,,,-5.52500000e-009,4.64062458e-004
,,,-5.50000000e-009,4.57812458e-004
,,,-5.47500000e-009,4.43749957e-004
,,,-5.45000000e-009,4.24999956e-004
,,,-5.42500000e-009,3.99999954e-004
,,,-5.40000000e-009,3.81249952e-004
,,,-5.37500000e-009,3.64062451e-004
,,,-5.35000000e-009,3.51562450e-004
,,,-5.32500000e-009,3.45312450e-004
,,,-5.30000000e-009,3.45312450e-004
,,,-5.27500000e-009,3.54687451e-004
,,,-5.25000000e-009,3.73437452e-004
,,,-5.22500000e-009,3.99999954e-004
,,,-5.20000000e-009,4.39062457e-004
,,,-5.17500000e-009,4.85937460e-004
,,,-5.15000000e-009,5.37499964e-004
,,,-5.12500000e-009,5.92187467e-004
,,,-5.10000000e-009,6.48437471e-004
,,,-5.07500000e-009,7.04687475e-004
,,,-5.05000000e-009,7.56249979e-004
,,,-5.02500000e-009,7.99999982e-004
,,,-5.00000000e-009,8.37499985e-004
,,,-4.97500000e-009,8.64062487e-004
,,,-4.95000000e-009,8.78124988e-004
,,,-4.92500000e-009,8.81249988e-004
,,,-4.90000000e-009,8.73437487e-004
,,,-4.87500000e-009,8.56249986e-004
,,,-4.85000000e-009,8.31249984e-004
,,,-4.82500000e-009,7.99999982e-004
,,,-4.80000000e-009,7.68749980e-004
,,,-4.77500000e-009,7.39062478e-004
,,,-4.75000000e-009,7.17187476e-004
,,,-4.72500000e-009,7.04687475e-004
,,,-4.70000000e-009,7.06249975e-004
,,,-4.67500000e-009,7.21874977e-004
,,,-4.65000000e-009,7.54687479e-004
,,,-4.62500000e-009,7.99999982e-004
,,,-4.60000000e-009,8.59374986e-004
,,,-4.57500000e-009,9.26562491e-004
,,,-4.55000000e-009,9.96874996e-004
,,,-4.52500000e-009,1.06406250e-003
,,,-4.50000000e-009,1.12187500e-003
,,,-4.47500000e-009,1.16718751e-003
,,,-4.45000000e-009,1.19531251e-003
,,,-4.42500000e-009,1.20000001e-003
,,,-4.40000000e-009,1.18281251e-003
,,,-4.37500000e-009,1.14531251e-003
,,,-4.35000000e-009,1.09375000e-003
,,,-4.32500000e-009,1.03281250e-003
,,,-4.30000000e-009,9.68749994e-004
,,,-4.27500000e-009,9.04687490e-004
,,,-4.25000000e-009,8.46874985e-004
,,,-4.22500000e-009,7.99999982e-004
,,,-4.20000000e-009,7.70312480e-004
,,,-4.17500000e-009,7.54687479e-004
,,,-4.15000000e-009,7.53124979e-004
,,,-4.12500000e-009,7.59374979e-004
,,,-4.10000000e-009,7.71874980e-004
,,,-4.07500000e-009,7.85937481e-004
,,,-4.05000000e-009,7.96874982e-004
,,,-4.02500000e-009,7.99999982e-004
,,,-4.00000000e-009,7.98437482e-004
,,,-3.97500000e-009,7.89062481e-004
,,,-3.95000000e-009,7.76562480e-004
,,,-3.92500000e-009,7.64062480e-004
,,,-3.90000000e-009,7.56249979e-004
,,,-3.87500000e-009,7.57812479e-004
,,,-3.85000000e-009,7.71874980e-004
,,,-3.82500000e-009,7.99999982e-004
,,,-3.80000000e-009,8.45312485e-004
,,,-3.77500000e-009,9.03124989e-004
,,,-3.75000000e-009,9.67187494e-004
,,,-3.72500000e-009,1.03281250e-003
,,,-3.70000000e-009,1.09531250e-003
,,,-3.67500000e-009,1.14531251e-003
,,,-3.65000000e-009,1.18125001e-003
,,,-3.62500000e-009,1.20000001e-003
,,,-3.60000000e-009,1.20000001e-003
,,,-3.57500000e-009,1.18593751e-003
,,,-3.55000000e-009,1.16562501e-003
,,,-3.52500000e-009,1.14375001e-003
,,,-3.50000000e-009,1.13125001e-003
,,,-3.47500000e-009,1.13437501e-003
,,,-3.45000000e-009,1.15625001e-003
,,,-3.42500000e-009,1.20000001e-003
,,,-3.40000000e-009,1.26406251e-003
,,,-3.37500000e-009,1.34062502e-003
,,,-3.35000000e-009,1.42500003e-003
,,,-3.32500000e-009,1.50468753e-003
,,,-3.30000000e-009,1.57187504e-003
,,,-3.27500000e-009,1.61406254e-003
,,,-3.25000000e-009,1.62500004e-003
,,,-3.22500000e-009,1.60000004e-003
,,,-3.20000000e-009,1.53281253e-003
,,,-3.17500000e-009,1.43593753e-003
,,,-3.15000000e-009,1.31562502e-003
,,,-3.12500000e-009,1.18593751e-003
,,,-3.10000000e-009,1.05781250e-003
,,,-3.07500000e-009,9.43749992e-004
,,,-3.05000000e-009,8.56249986e-004
,,,-3.02500000e-009,7.99999982e-004
,,,-3.00000000e-009,7.84374981e-004
,,,-2.97500000e-009,8.06249983e-004
,,,-2.95000000e-009,8.56249986e-004
,,,-2.92500000e-009,9.29687491e-004
,,,-2.90000000e-009,1.01093750e-003
,,,-2.87500000e-009,1.09062500e-003
,,,-2.85000000e-009,1.15625001e-003
,,,-2.82500000e-009,1.20000001e-003
,,,-2.80000000e-009,1.21250001e-003
,,,-2.77500000e-009,1.19687501e-003
,,,-2.75000000e-009,1.15312501e-003
,,,-2.72500000e-009,1.08906250e-003
,,,-2.70000000e-009,1.01406250e-003
,,,-2.67500000e-009,9.35937492e-004
,,,-2.65000000e-009,8.62499987e-004
,,,-2.62500000e-009,7.99999982e-004
,,,-2.60000000e-009,7.56249979e-004
,,,-2.57500000e-009,7.31249977e-004
,,,-2.55000000e-009,7.23437477e-004
,,,-2.52500000e-009,7.31249977e-004
,,,-2.50000000e-009,7.46874978e-004
,,,-2.47500000e-009,7.67187480e-004
,,,-2.45000000e-009,7.87499981e-004
,,,-2.42500000e-009,7.99999982e-004
,,,-2.40000000e-009,8.04687482e-004
,,,-2.37500000e-009,7.99999982e-004
,,,-2.35000000e-009,7.89062481e-004
,,,-2.32500000e-009,7.76562480e-004
,,,-2.30000000e-009,7.67187480e-004
,,,-2.27500000e-009,7.64062480e-004
,,,-2.25000000e-009,7.74999980e-004
,,,-2.22500000e-009,7.99999982e-004
,,,-2.20000000e-009,8.42187485e-004
,,,-2.17500000e-009,8.96874989e-004
,,,-2.15000000e-009,9.59374993e-004
,,,-2.12500000e-009,1.02500000e-003
,,,-2.10000000e-009,1.08750000e-003
,,,-2.07500000e-009,1.14062501e-003
,,,-2.05000000e-009,1.17968751e-003
,,,-2.02500000e-009,1.20000001e-003
,,,-2.00000000e-009,1.19531251e-003
,,,-1.97500000e-009,1.17031251e-003
,,,-1.95000000e-009,1.12812501e-003
,,,-1.92500000e-009,1.07031250e-003
,,,-1.90000000e-009,1.00468750e-003
,,,-1.87500000e-009,9.34374992e-004
,,,-1.85000000e-009,8.65624987e-004
,,,-1.82500000e-009,7.99999982e-004
,,,-1.80000000e-009,7.42187478e-004
,,,-1.77500000e-009,6.90624974e-004
,,,-1.75000000e-009,6.43749971e-004
,,,-1.72500000e-009,5.99999968e-004
,,,-1.70000000e-009,5.57812465e-004
,,,-1.67500000e-009,5.10937462e-004
,,,-1.65000000e-009,4.59374958e-004
,,,-1.62500000e-009,3.99999954e-004
,,,-1.60000000e-009,3.34374949e-004
,,,-1.57500000e-009,2.62499944e-004
,,,-1.55000000e-009,1.90624939e-004
,,,-1.52500000e-009,1.24999934e-004
,,,-1.50000000e-009,6.71874302e-005
,,,-1.47500000e-009,2.49999273e-005
,,,-1.45000000e-009,1.56242560e-006
,,,-1.42500000e-009,-7.45058060e-011
,,,-1.40000000e-009,1.87499268e-005
,,,-1.37500000e-009,5.46874294e-005
,,,-1.35000000e-009,1.04687433e-004
,,,-1.32500000e-009,1.65624937e-004
,,,-1.30000000e-009,2.29687442e-004
,,,-1.27500000e-009,2.93749946e-004
,,,-1.25000000e-009,3.51562450e-004
,,,-1.22500000e-009,3.99999954e-004
,,,-1.20000000e-009,4.23437455e-004
,,,-1.17500000e-009,4.29687456e-004
,,,-1.15000000e-009,4.24999956e-004
,,,-1.12500000e-009,4.12499955e-004
,,,-1.10000000e-009,3.98437454e-004
,,,-1.07500000e-009,3.90624953e-004
,,,-1.05000000e-009,3.90624953e-004
,,,-1.02500000e-009,3.99999954e-004
,,,-1.00000000e-009,4.01562454e-004
,,,-9.75000000e-010,4.06249954e-004
,,,-9.50000000e-010,4.14062455e-004
,,,-9.25000000e-010,4.21874955e-004
,,,-9.00000000e-010,4.29687456e-004
,,,-8.75000000e-010,4.29687456e-004
,,,-8.50000000e-010,4.21874955e-004
,,,-8.25000000e-010,3.99999954e-004
,,,-8.00000000e-010,3.31249949e-004
,,,-7.75000000e-010,2.42187443e-004
,,,-7.50000000e-010,1.37499935e-004
,,,-7.25000000e-010,2.34374272e-005
,,,-7.00000000e-010,-9.21875810e-005
,,,-6.75000000e-010,-2.04687589e-004
,,,-6.50000000e-010,-3.07812596e-004
,,,-6.25000000e-010,-4.00000103e-004
,,,-6.00000000e-010,-5.09375111e-004
,,,-5.75000000e-010,-6.10937618e-004
,,,-5.50000000e-010,-7.09375125e-004
,,,-5.25000000e-010,-8.01562631e-004
,,,-5.00000000e-010,-8.93750138e-004
,,,-4.75000000e-010,-9.87500144e-004
,,,-4.50000000e-010,-1.08906265e-003
,,,-4.25000000e-010,-1.20000016e-003
,,,-4.00000000e-010,-1.35468767e-003
,,,-3.75000000e-010,-1.53125018e-003
,,,-3.50000000e-010,-1.72500020e-003
,,,-3.25000000e-010,-1.93125021e-003
,,,-3.00000000e-010,-2.14687523e-003
,,,-2.75000000e-010,-2.36562524e-003
,,,-2.50000000e-010,-2.58281276e-003
,,,-2.25000000e-010,-2.80000027e-003
,,,-2.00000000e-010,-3.02812529e-003
,,,-1.75000000e-010,-3.26093781e-003
,,,-1.50000000e-010,-3.49843782e-003
,,,-1.25000000e-010,-3.74375034e-003
,,,-1.00000000e-010,-3.99531286e-003
,,,-7.50000000e-011,-4.25468788e-003
,,,-5.00000000e-011,-4.52343789e-003
,,,-2.50000000e-011,-4.80000041e-003
,,,0.00000000e+000,-5.07500043e-003
,,,2.50000000e-011,-5.35781295e-003
,,,5.00000000e-011,-5.64062547e-003
,,,7.50000000e-011,-5.91562549e-003
,,,1.00000000e-010,-6.17500051e-003
,,,1.25000000e-010,-6.41250053e-003
,,,1.50000000e-010,-6.62187554e-003
,,,1.75000000e-010,-6.80000056e-003
,,,2.00000000e-010,-6.92187556e-003
,,,2.25000000e-010,-7.02500057e-003
,,,2.50000000e-010,-7.11406308e-003
,,,2.75000000e-010,-7.19687558e-003
,,,3.00000000e-010,-7.28125059e-003
,,,3.25000000e-010,-7.37187560e-003
,,,3.50000000e-010,-7.47812560e-003
,,,3.75000000e-010,-7.60000061e-003
,,,4.00000000e-010,-7.70781312e-003
,,,4.25000000e-010,-7.84062563e-003
,,,4.50000000e-010,-7.99375064e-003
,,,4.75000000e-010,-8.16093815e-003
,,,5.00000000e-010,-8.33437566e-003
,,,5.25000000e-010,-8.50468818e-003
,,,5.50000000e-010,-8.66250069e-003
,,,5.75000000e-010,-8.80000070e-003
,,,6.00000000e-010,-8.86250070e-003
,,,6.25000000e-010,-8.90156320e-003
,,,6.50000000e-010,-8.91875071e-003
,,,6.75000000e-010,-8.91562571e-003
,,,7.00000000e-010,-8.89843820e-003
,,,7.25000000e-010,-8.87187570e-003
,,,7.50000000e-010,-8.83750070e-003
,,,7.75000000e-010,-8.80000070e-003
,,,8.00000000e-010,-8.71875069e-003
,,,8.25000000e-010,-8.64531319e-003
,,,8.50000000e-010,-8.58281318e-003
,,,8.75000000e-010,-8.52968818e-003
,,,9.00000000e-010,-8.48750068e-003
,,,9.25000000e-010,-8.45468817e-003
,,,9.50000000e-010,-8.42500067e-003
,,,9.75000000e-010,-8.40000067e-003
,,,1.00000000e-009,-8.33437566e-003
,,,1.02500000e-009,-8.27031316e-003
,,,1.05000000e-009,-8.20937566e-003
,,,1.07500000e-009,-8.15312565e-003
,,,1.10000000e-009,-8.10312565e-003
,,,1.12500000e-009,-8.06093815e-003
,,,1.15000000e-009,-8.02812564e-003
,,,1.17500000e-009,-8.00000064e-003
,,,1.20000000e-009,-7.94375064e-003
,,,1.22500000e-009,-7.88437563e-003
,,,1.25000000e-009,-7.81406313e-003
,,,1.27500000e-009,-7.73125062e-003
,,,1.30000000e-009,-7.63125061e-003
,,,1.32500000e-009,-7.51093811e-003
,,,1.35000000e-009,-7.36718810e-003
,,,1.37500000e-009,-7.20000058e-003
,,,1.40000000e-009,-6.99218807e-003
,,,1.42500000e-009,-6.77031305e-003
,,,1.45000000e-009,-6.53906304e-003
,,,1.47500000e-009,-6.31250052e-003
,,,1.50000000e-009,-6.09687551e-003
,,,1.52500000e-009,-5.90156299e-003
,,,1.55000000e-009,-5.73593798e-003
,,,1.57500000e-009,-5.60000047e-003
,,,1.60000000e-009,-5.49218796e-003
,,,1.62500000e-009,-5.40468796e-003
,,,1.65000000e-009,-5.32812545e-003
,,,1.67500000e-009,-5.25468795e-003
,,,1.70000000e-009,-5.17187544e-003
,,,1.72500000e-009,-5.07343793e-003
,,,1.75000000e-009,-4.95000042e-003
,,,1.77500000e-009,-4.80000041e-003
,,,1.80000000e-009,-4.62343790e-003
,,,1.82500000e-009,-4.41875039e-003
,,,1.85000000e-009,-4.19375037e-003
,,,1.87500000e-009,-3.95937535e-003
,,,1.90000000e-009,-3.72968784e-003
,,,1.92500000e-009,-3.51875032e-003
,,,1.95000000e-009,-3.33906281e-003
,,,1.97500000e-009,-3.20000030e-003
,,,2.00000000e-009,-3.12187530e-003
,,,2.02500000e-009,-3.08281279e-003
,,,2.05000000e-009,-3.07500029e-003
,,,2.07500000e-009,-3.09218779e-003
,,,2.10000000e-009,-3.12343780e-003
,,,2.12500000e-009,-3.15781280e-003
,,,2.15000000e-009,-3.18593780e-003
,,,2.17500000e-009,-3.20000030e-003
,,,2.20000000e-009,-3.20781280e-003
,,,2.22500000e-009,-3.18906280e-003
,,,2.25000000e-009,-3.14531280e-003
,,,2.27500000e-009,-3.08125029e-003
,,,2.30000000e-009,-3.00625029e-003
,,,2.32500000e-009,-2.92812528e-003
,,,2.35000000e-009,-2.85625028e-003
,,,2.37500000e-009,-2.80000027e-003
,,,2.40000000e-009,-2.77343777e-003
,,,2.42500000e-009,-2.76250027e-003
,,,2.45000000e-009,-2.76250027e-003
,,,2.47500000e-009,-2.77187527e-003
,,,2.50000000e-009,-2.78593777e-003
,,,2.52500000e-009,-2.79687527e-003
,,,2.55000000e-009,-2.80312527e-003
,,,2.57500000e-009,-2.80000027e-003
,,,2.60000000e-009,-2.78750027e-003
,,,2.62500000e-009,-2.75781277e-003
,,,2.65000000e-009,-2.71093777e-003
,,,2.67500000e-009,-2.65156276e-003
,,,2.70000000e-009,-2.58593776e-003
,,,2.72500000e-009,-2.51718775e-003
,,,2.75000000e-009,-2.45312525e-003
,,,2.77500000e-009,-2.40000024e-003
,,,2.80000000e-009,-2.36562524e-003
,,,2.82500000e-009,-2.34375024e-003
,,,2.85000000e-009,-2.33281274e-003
,,,2.87500000e-009,-2.33437524e-003
,,,2.90000000e-009,-2.34375024e-003
,,,2.92500000e-009,-2.35937524e-003
,,,2.95000000e-009,-2.37968774e-003
,,,2.97500000e-009,-2.40000024e-003
,,,3.00000000e-009,-2.41406275e-003
,,,3.02500000e-009,-2.42187525e-003
,,,3.05000000e-009,-2.42500025e-003
,,,3.07500000e-009,-2.42500025e-003
,,,3.10000000e-009,-2.42031275e-003
,,,3.12500000e-009,-2.41562525e-003
,,,3.15000000e-009,-2.40781274e-003
,,,3.17500000e-009,-2.40000024e-003
,,,3.20000000e-009,-2.38281274e-003
,,,3.22500000e-009,-2.36093774e-003
,,,3.25000000e-009,-2.32968774e-003
,,,3.27500000e-009,-2.28750024e-003
,,,3.30000000e-009,-2.23437523e-003
,,,3.32500000e-009,-2.16718773e-003
,,,3.35000000e-009,-2.08906272e-003
,,,3.37500000e-009,-2.00000022e-003
,,,3.40000000e-009,-1.89843771e-003
,,,3.42500000e-009,-1.79687520e-003
,,,3.45000000e-009,-1.70312520e-003
,,,3.47500000e-009,-1.62500019e-003
,,,3.50000000e-009,-1.57031269e-003
,,,3.52500000e-009,-1.54687518e-003
,,,3.55000000e-009,-1.55625018e-003
,,,3.57500000e-009,-1.60000019e-003
,,,3.60000000e-009,-1.67031269e-003
,,,3.62500000e-009,-1.75937520e-003
,,,3.65000000e-009,-1.85468771e-003
,,,3.67500000e-009,-1.94218771e-003
,,,3.70000000e-009,-2.01093772e-003
,,,3.72500000e-009,-2.05000022e-003
,,,3.75000000e-009,-2.04687522e-003
,,,3.77500000e-009,-2.00000022e-003
,,,3.80000000e-009,-1.89687521e-003
,,,3.82500000e-009,-1.75312520e-003
,,,3.85000000e-009,-1.57968769e-003
,,,3.87500000e-009,-1.39218767e-003
,,,3.90000000e-009,-1.20625016e-003
,,,3.92500000e-009,-1.03750015e-003
,,,3.95000000e-009,-8.98437638e-004
,,,3.97500000e-009,-8.00000131e-004
,,,4.00000000e-009,-7.43750127e-004
,,,4.02500000e-009,-7.25000126e-004
,,,4.05000000e-009,-7.37500127e-004
,,,4.07500000e-009,-7.67187629e-004
,,,4.10000000e-009,-8.00000131e-004
,,,4.12500000e-009,-8.25000133e-004
,,,4.15000000e-009,-8.26562633e-004
,,,4.17500000e-009,-8.00000131e-004
,,,4.20000000e-009,-7.39062627e-004
,,,4.22500000e-009,-6.43750120e-004
,,,4.25000000e-009,-5.25000112e-004
,,,4.27500000e-009,-3.90625102e-004
,,,4.30000000e-009,-2.57812593e-004
,,,4.32500000e-009,-1.40625084e-004
,,,4.35000000e-009,-5.15625782e-005
,,,4.37500000e-009,-7.45058060e-011
,,,4.40000000e-009,7.81242605e-006
,,,4.42500000e-009,-2.34375762e-005
,,,4.45000000e-009,-8.28125804e-005
,,,4.47500000e-009,-1.60937586e-004
,,,4.50000000e-009,-2.43750092e-004
,,,4.52500000e-009,-3.18750097e-004
,,,4.55000000e-009,-3.75000101e-004
,,,4.57500000e-009,-4.00000103e-004
,,,4.60000000e-009,-3.85937602e-004
,,,4.62500000e-009,-3.31250098e-004
,,,4.65000000e-009,-2.42187592e-004
,,,4.67500000e-009,-1.23437583e-004
,,,4.70000000e-009,1.09374263e-005
,,,4.72500000e-009,1.51562436e-004
,,,4.75000000e-009,2.84374946e-004
,,,4.77500000e-009,3.99999954e-004
,,,4.80000000e-009,4.81249960e-004
,,,4.82500000e-009,5.32812463e-004
,,,4.85000000e-009,5.56249965e-004
,,,4.87500000e-009,5.54687465e-004
,,,4.90000000e-009,5.31249963e-004
,,,4.92500000e-009,4.93749960e-004
,,,4.95000000e-009,4.48437457e-004
,,,4.97500000e-009,3.99999954e-004
,,,5.00000000e-009,3.57812451e-004
,,,5.02500000e-009,3.26562449e-004
,,,5.05000000e-009,3.07812447e-004
,,,5.07500000e-009,3.04687447e-004
,,,5.10000000e-009,3.14062448e-004
,,,5.12500000e-009,3.35937449e-004
,,,5.15000000e-009,3.65624951e-004
,,,5.17500000e-009,3.99999954e-004
,,,5.20000000e-009,4.35937456e-004
,,,5.22500000e-009,4.76562459e-004
,,,5.25000000e-009,5.21874962e-004
,,,5.27500000e-009,5.70312466e-004
,,,5.30000000e-009,6.23437470e-004
,,,5.32500000e-009,6.79687474e-004
,,,5.35000000e-009,7.40624978e-004
,,,5.37500000e-009,7.99999982e-004
,,,5.40000000e-009,8.54687486e-004
,,,5.42500000e-009,9.01562489e-004
,,,5.45000000e-009,9.35937492e-004
,,,5.47500000e-009,9.54687493e-004
,,,5.50000000e-009,9.51562493e-004
,,,5.52500000e-009,9.24999991e-004
,,,5.55000000e-009,8.74999987e-004
,,,5.57500000e-009,7.99999982e-004
,,,5.60000000e-009,7.03124975e-004
,,,5.62500000e-009,5.96874968e-004
,,,5.65000000e-009,4.96874961e-004
,,,5.67500000e-009,4.10937455e-004
,,,5.70000000e-009,3.51562450e-004
,,,5.72500000e-009,3.26562449e-004
,,,5.75000000e-009,3.42187450e-004
,,,5.77500000e-009,3.99999954e-004
,,,5.80000000e-009,4.98437461e-004
,,,5.82500000e-009,6.24999970e-004
,,,5.85000000e-009,7.68749980e-004
,,,5.87500000e-009,9.10937490e-004
,,,5.90000000e-009,1.03906250e-003
,,,5.92500000e-009,1.13750001e-003
,,,5.95000000e-009,1.19375001e-003
,,,5.97500000e-009,1.20000001e-003
,,,6.00000000e-009,1.15156251e-003
,,,6.02500000e-009,1.05781250e-003
,,,6.05000000e-009,9.34374992e-004
