RawData/SinglePhotoelectron/L3_2pt2foot_5mV/wave003_Ch4.csv

"Record Length",1000,"Points",-7.72500000e-009,7.92187482e-004
"Sample Interval",2.50000000e-011,s,-7.70000000e-009,8.01562482e-004
"Trigger Point",309,"Samples",-7.67500000e-009,8.04687482e-004
"Trigger Time",3.56545455e-012,s,-7.65000000e-009,7.99999982e-004
"",,,-7.62500000e-009,7.92187482e-004
"Horizontal Offset",-7.72500000e-009,s,-7.60000000e-009,7.78124981e-004
,,,-7.57500000e-009,7.60937479e-004
,,,-7.55000000e-009,7.46874978e-004
,,,-7.52500000e-009,7.39062478e-004
,,,-7.50000000e-009,7.42187478e-004
,,,-7.47500000e-009,7.62499979e-004
,,,-7.45000000e-009,7.99999982e-004
,,,-7.42500000e-009,8.54687486e-004
,,,-7.40000000e-009,9.21874991e-004
,,,-7.37500000e-009,9.93749996e-004
,,,-7.35000000e-009,1.06562500e-003
,,,-7.32500000e-009,1.12812501e-003
,,,-7.30000000e-009,1.17500001e-003
,,,-7.27500000e-009,1.20156251e-003
,,,-7.25000000e-009,1.20000001e-003
,,,-7.22500000e-009,1.17187501e-003
,,,-7.20000000e-009,1.12187500e-003
,,,-7.17500000e-009,1.05625000e-003
,,,-7.15000000e-009,9.82812495e-004
,,,-7.12500000e-009,9.14062490e-004
,,,-7.10000000e-009,8.54687486e-004
,,,-7.07500000e-009,8.15624983e-004
,,,-7.05000000e-009,7.99999982e-004
,,,-7.02500000e-009,8.14062483e-004
,,,-7.00000000e-009,8.51562486e-004
,,,-6.97500000e-009,9.07812490e-004
,,,-6.95000000e-009,9.76562495e-004
,,,-6.92500000e-009,1.04843750e-003
,,,-6.90000000e-009,1.11562500e-003
,,,-6.87500000e-009,1.16875001e-003
,,,-6.85000000e-009,1.20000001e-003
,,,-6.82500000e-009,1.20468751e-003
,,,-6.80000000e-009,1.18437501e-003
,,,-6.77500000e-009,1.14218751e-003
,,,-6.75000000e-009,1.08125000e-003
,,,-6.72500000e-009,1.00937500e-003
,,,-6.70000000e-009,9.34374992e-004
,,,-6.67500000e-009,8.62499987e-004
,,,-6.65000000e-009,7.99999982e-004
,,,-6.62500000e-009,7.53124979e-004
,,,-6.60000000e-009,7.23437477e-004
,,,-6.57500000e-009,7.10937476e-004
,,,-6.55000000e-009,7.14062476e-004
,,,-6.52500000e-009,7.28124977e-004
,,,-6.50000000e-009,7.49999979e-004
,,,-6.47500000e-009,7.76562480e-004
,,,-6.45000000e-009,7.99999982e-004
,,,-6.42500000e-009,8.20312484e-004
,,,-6.40000000e-009,8.34374985e-004
,,,-6.37500000e-009,8.40624985e-004
,,,-6.35000000e-009,8.40624985e-004
,,,-6.32500000e-009,8.34374985e-004
,,,-6.30000000e-009,8.23437484e-004
,,,-6.27500000e-009,8.12499983e-004
,,,-6.25000000e-009,7.99999982e-004
,,,-6.22500000e-009,7.92187482e-004
,,,-6.20000000e-009,7.87499981e-004
,,,-6.17500000e-009,7.85937481e-004
,,,-6.15000000e-009,7.85937481e-004
,,,-6.12500000e-009,7.87499981e-004
,,,-6.10000000e-009,7.92187482e-004
,,,-6.07500000e-009,7.96874982e-004
,,,-6.05000000e-009,7.99999982e-004
,,,-6.02500000e-009,8.04687482e-004
,,,-6.00000000e-009,8.06249983e-004
,,,-5.97500000e-009,8.07812483e-004
,,,-5.95000000e-009,8.07812483e-004
,,,-5.92500000e-009,8.06249983e-004
,,,-5.90000000e-009,8.04687482e-004
,,,-5.87500000e-009,8.03124982e-004
,,,-5.85000000e-009,7.99999982e-004
,,,-5.82500000e-009,7.99999982e-004
,,,-5.80000000e-009,8.01562482e-004
,,,-5.77500000e-009,7.99999982e-004
,,,-5.75000000e-009,7.99999982e-004
,,,-5.72500000e-009,7.99999982e-004
,,,-5.70000000e-009,8.01562482e-004
,,,-5.67500000e-009,7.99999982e-004
,,,-5.65000000e-009,7.99999982e-004
,,,-5.62500000e-009,8.03124982e-004
,,,-5.60000000e-009,8.04687482e-004
,,,-5.57500000e-009,8.06249983e-004
,,,-5.55000000e-009,8.07812483e-004
,,,-5.52500000e-009,8.07812483e-004
,,,-5.50000000e-009,8.06249983e-004
,,,-5.47500000e-009,8.04687482e-004
,,,-5.45000000e-009,7.99999982e-004
,,,-5.42500000e-009,7.96874982e-004
,,,-5.40000000e-009,7.92187482e-004
,,,-5.37500000e-009,7.87499981e-004
,,,-5.35000000e-009,7.85937481e-004
,,,-5.32500000e-009,7.85937481e-004
,,,-5.30000000e-009,7.87499981e-004
,,,-5.27500000e-009,7.92187482e-004
,,,-5.25000000e-009,7.99999982e-004
,,,-5.22500000e-009,8.12499983e-004
,,,-5.20000000e-009,8.23437484e-004
,,,-5.17500000e-009,8.34374985e-004
,,,-5.15000000e-009,8.40624985e-004
,,,-5.12500000e-009,8.40624985e-004
,,,-5.10000000e-009,8.34374985e-004
,,,-5.07500000e-009,8.20312484e-004
,,,-5.05000000e-009,7.99999982e-004
,,,-5.02500000e-009,7.78124981e-004
,,,-5.00000000e-009,7.54687479e-004
,,,-4.97500000e-009,7.34374977e-004
,,,-4.95000000e-009,7.20312476e-004
,,,-4.92500000e-009,7.17187476e-004
,,,-4.90000000e-009,7.29687477e-004
,,,-4.87500000e-009,7.57812479e-004
,,,-4.85000000e-009,7.99999982e-004
,,,-4.82500000e-009,8.60937486e-004
,,,-4.80000000e-009,9.29687491e-004
,,,-4.77500000e-009,1.00312500e-003
,,,-4.75000000e-009,1.07187500e-003
,,,-4.72500000e-009,1.13281251e-003
,,,-4.70000000e-009,1.17812501e-003
,,,-4.67500000e-009,1.20156251e-003
,,,-4.65000000e-009,1.20000001e-003
,,,-4.62500000e-009,1.17187501e-003
,,,-4.60000000e-009,1.12187500e-003
,,,-4.57500000e-009,1.05781250e-003
,,,-4.55000000e-009,9.87499995e-004
,,,-4.52500000e-009,9.18749991e-004
,,,-4.50000000e-009,8.59374986e-004
,,,-4.47500000e-009,8.18749983e-004
,,,-4.45000000e-009,7.99999982e-004
,,,-4.42500000e-009,8.09374983e-004
,,,-4.40000000e-009,8.42187485e-004
,,,-4.37500000e-009,8.93749989e-004
,,,-4.35000000e-009,9.59374993e-004
,,,-4.32500000e-009,1.02968750e-003
,,,-4.30000000e-009,1.09843750e-003
,,,-4.27500000e-009,1.15625001e-003
,,,-4.25000000e-009,1.20000001e-003
,,,-4.22500000e-009,1.22343751e-003
,,,-4.20000000e-009,1.22968751e-003
,,,-4.17500000e-009,1.22343751e-003
,,,-4.15000000e-009,1.20937501e-003
,,,-4.12500000e-009,1.19375001e-003
,,,-4.10000000e-009,1.18593751e-003
,,,-4.07500000e-009,1.18593751e-003
,,,-4.05000000e-009,1.20000001e-003
,,,-4.02500000e-009,1.22343751e-003
,,,-4.00000000e-009,1.25468751e-003
,,,-3.97500000e-009,1.28750002e-003
,,,-3.95000000e-009,1.31406252e-003
,,,-3.92500000e-009,1.32500002e-003
,,,-3.90000000e-009,1.31250002e-003
,,,-3.87500000e-009,1.27187502e-003
,,,-3.85000000e-009,1.20000001e-003
,,,-3.82500000e-009,1.09531250e-003
,,,-3.80000000e-009,9.67187494e-004
,,,-3.77500000e-009,8.28124984e-004
,,,-3.75000000e-009,6.89062474e-004
,,,-3.72500000e-009,5.67187466e-004
,,,-3.70000000e-009,4.71874959e-004
,,,-3.67500000e-009,4.14062455e-004
,,,-3.65000000e-009,3.99999954e-004
,,,-3.62500000e-009,4.39062457e-004
,,,-3.60000000e-009,5.18749962e-004
,,,-3.57500000e-009,6.31249970e-004
,,,-3.55000000e-009,7.60937479e-004
,,,-3.52500000e-009,8.96874989e-004
,,,-3.50000000e-009,1.02500000e-003
,,,-3.47500000e-009,1.12812501e-003
,,,-3.45000000e-009,1.20000001e-003
,,,-3.42500000e-009,1.23125001e-003
,,,-3.40000000e-009,1.22187501e-003
,,,-3.37500000e-009,1.17968751e-003
,,,-3.35000000e-009,1.11250000e-003
,,,-3.32500000e-009,1.02968750e-003
,,,-3.30000000e-009,9.42187492e-004
,,,-3.27500000e-009,8.64062487e-004
,,,-3.25000000e-009,7.99999982e-004
,,,-3.22500000e-009,7.56249979e-004
,,,-3.20000000e-009,7.34374977e-004
,,,-3.17500000e-009,7.32812477e-004
,,,-3.15000000e-009,7.46874978e-004
,,,-3.12500000e-009,7.67187480e-004
,,,-3.10000000e-009,7.87499981e-004
,,,-3.07500000e-009,8.01562482e-004
,,,-3.05000000e-009,7.99999982e-004
,,,-3.02500000e-009,7.84374981e-004
,,,-3.00000000e-009,7.51562479e-004
,,,-2.97500000e-009,6.99999975e-004
,,,-2.95000000e-009,6.37499971e-004
,,,-2.92500000e-009,5.70312466e-004
,,,-2.90000000e-009,5.03124961e-004
,,,-2.87500000e-009,4.43749957e-004
,,,-2.85000000e-009,3.99999954e-004
,,,-2.82500000e-009,3.82812453e-004
,,,-2.80000000e-009,3.87499953e-004
,,,-2.77500000e-009,4.15624955e-004
,,,-2.75000000e-009,4.65624958e-004
,,,-2.72500000e-009,5.34374963e-004
,,,-2.70000000e-009,6.17187469e-004
,,,-2.67500000e-009,7.09374976e-004
,,,-2.65000000e-009,7.99999982e-004
,,,-2.62500000e-009,8.82812488e-004
,,,-2.60000000e-009,9.49999993e-004
,,,-2.57500000e-009,9.95312496e-004
,,,-2.55000000e-009,1.01562500e-003
,,,-2.52500000e-009,1.00781250e-003
,,,-2.50000000e-009,9.68749994e-004
,,,-2.47500000e-009,8.98437489e-004
,,,-2.45000000e-009,7.99999982e-004
,,,-2.42500000e-009,6.81249974e-004
,,,-2.40000000e-009,5.48437464e-004
,,,-2.37500000e-009,4.12499955e-004
,,,-2.35000000e-009,2.81249945e-004
,,,-2.32500000e-009,1.67187437e-004
,,,-2.30000000e-009,7.65624309e-005
,,,-2.27500000e-009,2.03124269e-005
,,,-2.25000000e-009,-7.45058060e-011
,,,-2.22500000e-009,2.65624274e-005
,,,-2.20000000e-009,8.74999317e-005
,,,-2.17500000e-009,1.81249938e-004
,,,-2.15000000e-009,2.96874947e-004
,,,-2.12500000e-009,4.26562456e-004
,,,-2.10000000e-009,5.59374965e-004
,,,-2.07500000e-009,6.87499974e-004
,,,-2.05000000e-009,7.99999982e-004
,,,-2.02500000e-009,8.89062488e-004
,,,-2.00000000e-009,9.49999993e-004
,,,-1.97500000e-009,9.81249995e-004
,,,-1.95000000e-009,9.85937495e-004
,,,-1.92500000e-009,9.64062494e-004
,,,-1.90000000e-009,9.23437491e-004
,,,-1.87500000e-009,8.67187487e-004
,,,-1.85000000e-009,7.99999982e-004
,,,-1.82500000e-009,7.24999977e-004
,,,-1.80000000e-009,6.49999972e-004
,,,-1.77500000e-009,5.81249967e-004
,,,-1.75000000e-009,5.21874962e-004
,,,-1.72500000e-009,4.73437459e-004
,,,-1.70000000e-009,4.37499956e-004
,,,-1.67500000e-009,4.14062455e-004
,,,-1.65000000e-009,3.99999954e-004
,,,-1.62500000e-009,3.90624953e-004
,,,-1.60000000e-009,3.85937453e-004
,,,-1.57500000e-009,3.85937453e-004
,,,-1.55000000e-009,3.87499953e-004
,,,-1.52500000e-009,3.90624953e-004
,,,-1.50000000e-009,3.93749953e-004
,,,-1.47500000e-009,3.96874954e-004
,,,-1.45000000e-009,3.99999954e-004
,,,-1.42500000e-009,3.93749953e-004
,,,-1.40000000e-009,3.84374953e-004
,,,-1.37500000e-009,3.73437452e-004
,,,-1.35000000e-009,3.67187451e-004
,,,-1.32500000e-009,3.64062451e-004
,,,-1.30000000e-009,3.68749952e-004
,,,-1.27500000e-009,3.81249952e-004
,,,-1.25000000e-009,3.99999954e-004
,,,-1.22500000e-009,4.07812454e-004
,,,-1.20000000e-009,4.18749955e-004
,,,-1.17500000e-009,4.28124956e-004
,,,-1.15000000e-009,4.35937456e-004
,,,-1.12500000e-009,4.40624957e-004
,,,-1.10000000e-009,4.37499956e-004
,,,-1.07500000e-009,4.24999956e-004
,,,-1.05000000e-009,3.99999954e-004
,,,-1.02500000e-009,3.37499949e-004
,,,-1.00000000e-009,2.57812444e-004
,,,-9.75000000e-010,1.60937437e-004
,,,-9.50000000e-010,5.31249293e-005
,,,-9.25000000e-010,-6.09375788e-005
,,,-9.00000000e-010,-1.76562587e-004
,,,-8.75000000e-010,-2.90625095e-004
,,,-8.50000000e-010,-4.00000103e-004
,,,-8.25000000e-010,-5.20312611e-004
,,,-8.00000000e-010,-6.37500120e-004
,,,-7.75000000e-010,-7.46875127e-004
,,,-7.50000000e-010,-8.51562635e-004
,,,-7.25000000e-010,-9.46875142e-004
,,,-7.00000000e-010,-1.03750015e-003
,,,-6.75000000e-010,-1.12031265e-003
,,,-6.50000000e-010,-1.20000016e-003
,,,-6.25000000e-010,-1.29531267e-003
,,,-6.00000000e-010,-1.39687517e-003
,,,-5.75000000e-010,-1.50000018e-003
,,,-5.50000000e-010,-1.60312519e-003
,,,-5.25000000e-010,-1.70625020e-003
,,,-5.00000000e-010,-1.80625020e-003
,,,-4.75000000e-010,-1.90312521e-003
,,,-4.50000000e-010,-2.00000022e-003
,,,-4.25000000e-010,-2.11093772e-003
,,,-4.00000000e-010,-2.22968773e-003
,,,-3.75000000e-010,-2.35937524e-003
,,,-3.50000000e-010,-2.50156275e-003
,,,-3.25000000e-010,-2.65625026e-003
,,,-3.00000000e-010,-2.82500027e-003
,,,-2.75000000e-010,-3.00625029e-003
,,,-2.50000000e-010,-3.20000030e-003
,,,-2.25000000e-010,-3.40468782e-003
,,,-2.00000000e-010,-3.62031283e-003
,,,-1.75000000e-010,-3.84062535e-003
,,,-1.50000000e-010,-4.05937536e-003
,,,-1.25000000e-010,-4.27031288e-003
,,,-1.00000000e-010,-4.46718789e-003
,,,-7.50000000e-011,-4.64375040e-003
,,,-5.00000000e-011,-4.80000041e-003
,,,-2.50000000e-011,-4.91562542e-003
,,,0.00000000e+000,-5.01875043e-003
,,,2.50000000e-011,-5.10937544e-003
,,,5.00000000e-011,-5.19687544e-003
,,,7.50000000e-011,-5.28437545e-003
,,,1.00000000e-010,-5.37812546e-003
,,,1.25000000e-010,-5.48281296e-003
,,,1.50000000e-010,-5.60000047e-003
,,,1.75000000e-010,-5.71250048e-003
,,,2.00000000e-010,-5.84375049e-003
,,,2.25000000e-010,-5.99375050e-003
,,,2.50000000e-010,-6.15625051e-003
,,,2.75000000e-010,-6.32343802e-003
,,,3.00000000e-010,-6.49218803e-003
,,,3.25000000e-010,-6.65312555e-003
,,,3.50000000e-010,-6.80000056e-003
,,,3.75000000e-010,-6.89375056e-003
,,,4.00000000e-010,-6.97031307e-003
,,,4.25000000e-010,-7.03125057e-003
,,,4.50000000e-010,-7.07968808e-003
,,,4.75000000e-010,-7.12031308e-003
,,,5.00000000e-010,-7.15156308e-003
,,,5.25000000e-010,-7.17812558e-003
,,,5.50000000e-010,-7.20000058e-003
,,,5.75000000e-010,-7.17656308e-003
,,,6.00000000e-010,-7.15000058e-003
,,,6.25000000e-010,-7.11875058e-003
,,,6.50000000e-010,-7.07968808e-003
,,,6.75000000e-010,-7.03125057e-003
,,,7.00000000e-010,-6.97031307e-003
,,,7.25000000e-010,-6.89218806e-003
,,,7.50000000e-010,-6.80000056e-003
,,,7.75000000e-010,-6.65781305e-003
,,,8.00000000e-010,-6.51250054e-003
,,,8.25000000e-010,-6.36875053e-003
,,,8.50000000e-010,-6.23906302e-003
,,,8.75000000e-010,-6.13281301e-003
,,,9.00000000e-010,-6.05468800e-003
,,,9.25000000e-010,-6.00937550e-003
,,,9.50000000e-010,-6.00000050e-003
,,,9.75000000e-010,-5.99531300e-003
,,,1.00000000e-009,-6.01406300e-003
,,,1.02500000e-009,-6.04531300e-003
,,,1.05000000e-009,-6.07812550e-003
,,,1.07500000e-009,-6.10000051e-003
,,,1.10000000e-009,-6.10000051e-003
,,,1.12500000e-009,-6.06875050e-003
,,,1.15000000e-009,-6.00000050e-003
,,,1.17500000e-009,-5.86718799e-003
,,,1.20000000e-009,-5.69375048e-003
,,,1.22500000e-009,-5.48906296e-003
,,,1.25000000e-009,-5.26406295e-003
,,,1.27500000e-009,-5.02968793e-003
,,,1.30000000e-009,-4.80000041e-003
,,,1.32500000e-009,-4.58750040e-003
,,,1.35000000e-009,-4.40000039e-003
,,,1.37500000e-009,-4.23593787e-003
,,,1.40000000e-009,-4.10156286e-003
,,,1.42500000e-009,-3.99218786e-003
,,,1.45000000e-009,-3.90312535e-003
,,,1.47500000e-009,-3.82812535e-003
,,,1.50000000e-009,-3.75781284e-003
,,,1.52500000e-009,-3.68281284e-003
,,,1.55000000e-009,-3.60000033e-003
,,,1.57500000e-009,-3.50156282e-003
,,,1.60000000e-009,-3.38125031e-003
,,,1.62500000e-009,-3.23906280e-003
,,,1.65000000e-009,-3.07812529e-003
,,,1.67500000e-009,-2.90625028e-003
,,,1.70000000e-009,-2.72968777e-003
,,,1.72500000e-009,-2.55781276e-003
,,,1.75000000e-009,-2.40000024e-003
,,,1.77500000e-009,-2.27187524e-003
,,,1.80000000e-009,-2.16562523e-003
,,,1.82500000e-009,-2.08281272e-003
,,,1.85000000e-009,-2.02187522e-003
,,,1.87500000e-009,-1.98593772e-003
,,,1.90000000e-009,-1.97187521e-003
,,,1.92500000e-009,-1.97812521e-003
,,,1.95000000e-009,-2.00000022e-003
,,,1.97500000e-009,-2.03906272e-003
,,,2.00000000e-009,-2.07812522e-003
,,,2.02500000e-009,-2.10625022e-003
,,,2.05000000e-009,-2.12187522e-003
,,,2.07500000e-009,-2.12187522e-003
,,,2.10000000e-009,-2.10156272e-003
,,,2.12500000e-009,-2.05937522e-003
,,,2.15000000e-009,-2.00000022e-003
,,,2.17500000e-009,-1.93125021e-003
,,,2.20000000e-009,-1.84375021e-003
,,,2.22500000e-009,-1.74062520e-003
,,,2.25000000e-009,-1.62656269e-003
,,,2.27500000e-009,-1.50937518e-003
,,,2.30000000e-009,-1.39375017e-003
,,,2.32500000e-009,-1.28906267e-003
,,,2.35000000e-009,-1.20000016e-003
,,,2.37500000e-009,-1.14062516e-003
,,,2.40000000e-009,-1.10000015e-003
,,,2.42500000e-009,-1.07968765e-003
,,,2.45000000e-009,-1.07656265e-003
,,,2.47500000e-009,-1.09062515e-003
,,,2.50000000e-009,-1.11718765e-003
,,,2.52500000e-009,-1.15625016e-003
,,,2.55000000e-009,-1.20000016e-003
,,,2.57500000e-009,-1.25000016e-003
,,,2.60000000e-009,-1.29218767e-003
,,,2.62500000e-009,-1.32187517e-003
,,,2.65000000e-009,-1.33437517e-003
,,,2.67500000e-009,-1.32812517e-003
,,,2.70000000e-009,-1.30312517e-003
,,,2.72500000e-009,-1.25937516e-003
,,,2.75000000e-009,-1.20000016e-003
,,,2.77500000e-009,-1.12968765e-003
,,,2.80000000e-009,-1.05156265e-003
,,,2.82500000e-009,-9.75000144e-004
,,,2.85000000e-009,-9.03125138e-004
,,,2.87500000e-009,-8.45312634e-004
,,,2.90000000e-009,-8.06250132e-004
,,,2.92500000e-009,-7.90625130e-004
,,,2.95000000e-009,-8.00000131e-004
,,,2.97500000e-009,-8.34375134e-004
,,,3.00000000e-009,-8.87500137e-004
,,,3.02500000e-009,-9.51562642e-004
,,,3.05000000e-009,-1.02187515e-003
,,,3.07500000e-009,-1.08750015e-003
,,,3.10000000e-009,-1.14375016e-003
,,,3.12500000e-009,-1.18125016e-003
,,,3.15000000e-009,-1.20000016e-003
,,,3.17500000e-009,-1.19062516e-003
,,,3.20000000e-009,-1.15781266e-003
,,,3.22500000e-009,-1.10625015e-003
,,,3.25000000e-009,-1.04062515e-003
,,,3.27500000e-009,-9.68750143e-004
,,,3.30000000e-009,-9.01562638e-004
,,,3.32500000e-009,-8.42187634e-004
,,,3.35000000e-009,-8.00000131e-004
,,,3.37500000e-009,-7.71875129e-004
,,,3.40000000e-009,-7.59375128e-004
,,,3.42500000e-009,-7.62500128e-004
,,,3.45000000e-009,-7.75000129e-004
,,,3.47500000e-009,-7.90625130e-004
,,,3.50000000e-009,-8.03125131e-004
,,,3.52500000e-009,-8.07812632e-004
,,,3.55000000e-009,-8.00000131e-004
,,,3.57500000e-009,-7.71875129e-004
,,,3.60000000e-009,-7.28125126e-004
,,,3.62500000e-009,-6.71875122e-004
,,,3.65000000e-009,-6.07812618e-004
,,,3.67500000e-009,-5.42187613e-004
,,,3.70000000e-009,-4.82812609e-004
,,,3.72500000e-009,-4.34375105e-004
,,,3.75000000e-009,-4.00000103e-004
,,,3.77500000e-009,-3.78125101e-004
,,,3.80000000e-009,-3.70312601e-004
,,,3.82500000e-009,-3.75000101e-004
,,,3.85000000e-009,-3.85937602e-004
,,,3.87500000e-009,-3.98437603e-004
,,,3.90000000e-009,-4.07812603e-004
,,,3.92500000e-009,-4.09375103e-004
,,,3.95000000e-009,-4.00000103e-004
,,,3.97500000e-009,-3.71875101e-004
,,,4.00000000e-009,-3.29687598e-004
,,,4.02500000e-009,-2.75000094e-004
,,,4.05000000e-009,-2.14062590e-004
,,,4.07500000e-009,-1.51562585e-004
,,,4.10000000e-009,-9.06250809e-005
,,,4.12500000e-009,-3.90625773e-005
,,,4.15000000e-009,-7.45058060e-011
,,,4.17500000e-009,2.34374272e-005
,,,4.20000000e-009,3.43749279e-005
,,,4.22500000e-009,3.43749279e-005
,,,4.25000000e-009,2.65624274e-005
,,,4.27500000e-009,1.56249266e-005
,,,4.30000000e-009,4.68742583e-006
,,,4.32500000e-009,-1.56257462e-006
,,,4.35000000e-009,-7.45058060e-011
,,,4.37500000e-009,1.56249266e-005
,,,4.40000000e-009,4.37499286e-005
,,,4.42500000e-009,8.43749315e-005
,,,4.45000000e-009,1.37499935e-004
,,,4.47500000e-009,1.98437440e-004
,,,4.50000000e-009,2.65624944e-004
,,,4.52500000e-009,3.32812449e-004
,,,4.55000000e-009,3.99999954e-004
,,,4.57500000e-009,4.62499958e-004
,,,4.60000000e-009,5.20312462e-004
,,,4.62500000e-009,5.73437466e-004
,,,4.65000000e-009,6.24999970e-004
,,,4.67500000e-009,6.71874973e-004
,,,4.70000000e-009,7.17187476e-004
,,,4.72500000e-009,7.60937479e-004
,,,4.75000000e-009,7.99999982e-004
,,,4.77500000e-009,8.32812484e-004
,,,4.80000000e-009,8.59374986e-004
,,,4.82500000e-009,8.78124988e-004
,,,4.85000000e-009,8.89062488e-004
,,,4.87500000e-009,8.89062488e-004
,,,4.90000000e-009,8.73437487e-004
,,,4.92500000e-009,8.45312485e-004
,,,4.95000000e-009,7.99999982e-004
,,,4.97500000e-009,7.40624978e-004
,,,5.00000000e-009,6.73437473e-004
,,,5.02500000e-009,6.03124968e-004
,,,5.05000000e-009,5.37499964e-004
,,,5.07500000e-009,4.79687459e-004
,,,5.10000000e-009,4.35937456e-004
,,,5.12500000e-009,4.07812454e-004
,,,5.15000000e-009,3.99999954e-004
,,,5.17500000e-009,4.15624955e-004
,,,5.20000000e-009,4.49999957e-004
,,,5.22500000e-009,4.99999961e-004
,,,5.25000000e-009,5.60937465e-004
,,,5.27500000e-009,6.28124970e-004
,,,5.30000000e-009,6.93749975e-004
,,,5.32500000e-009,7.53124979e-004
,,,5.35000000e-009,7.99999982e-004
,,,5.37500000e-009,8.32812484e-004
,,,5.40000000e-009,8.49999986e-004
,,,5.42500000e-009,8.54687486e-004
,,,5.45000000e-009,8.49999986e-004
,,,5.47500000e-009,8.39062485e-004
,,,5.50000000e-009,8.24999984e-004
,,,5.52500000e-009,8.10937483e-004
,,,5.55000000e-009,7.99999982e-004
,,,5.57500000e-009,7.95312482e-004
,,,5.60000000e-009,7.95312482e-004
,,,5.62500000e-009,7.99999982e-004
,,,5.65000000e-009,8.07812483e-004
,,,5.67500000e-009,8.14062483e-004
,,,5.70000000e-009,8.15624983e-004
,,,5.72500000e-009,8.10937483e-004
,,,5.75000000e-009,7.99999982e-004
,,,5.77500000e-009,7.85937481e-004
,,,5.80000000e-009,7.67187480e-004
,,,5.82500000e-009,7.49999979e-004
,,,5.85000000e-009,7.35937478e-004
,,,5.87500000e-009,7.31249977e-004
,,,5.90000000e-009,7.39062478e-004
,,,5.92500000e-009,7.60937479e-004
,,,5.95000000e-009,7.99999982e-004
,,,5.97500000e-009,8.54687486e-004
,,,6.00000000e-009,9.20312491e-004
,,,6.02500000e-009,9.89062496e-004
,,,6.05000000e-009,1.05937500e-003
