RawData/SinglePhotoelectron/L3_2pt2foot_5mV/wave035_Ch4.csv

"Record Length",1000,"Points",-7.72500000e-009,7.23437477e-004
"Sample Interval",2.50000000e-011,s,-7.70000000e-009,7.99999982e-004
"Trigger Point",309,"Samples",-7.67500000e-009,8.89062488e-004
"Trigger Time",1.60412766e-011,s,-7.65000000e-009,9.79687495e-004
"",,,-7.62500000e-009,1.06406250e-003
"Horizontal Offset",-7.72500000e-009,s,-7.60000000e-009,1.13593751e-003
,,,-7.57500000e-009,1.18906251e-003
,,,-7.55000000e-009,1.21875001e-003
,,,-7.52500000e-009,1.22187501e-003
,,,-7.50000000e-009,1.20000001e-003
,,,-7.47500000e-009,1.15312501e-003
,,,-7.45000000e-009,1.08750000e-003
,,,-7.42500000e-009,1.01406250e-003
,,,-7.40000000e-009,9.39062492e-004
,,,-7.37500000e-009,8.73437487e-004
,,,-7.35000000e-009,8.24999984e-004
,,,-7.32500000e-009,7.99999982e-004
,,,-7.30000000e-009,7.99999982e-004
,,,-7.27500000e-009,8.28124984e-004
,,,-7.25000000e-009,8.79687488e-004
,,,-7.22500000e-009,9.48437493e-004
,,,-7.20000000e-009,1.02343750e-003
,,,-7.17500000e-009,1.09531250e-003
,,,-7.15000000e-009,1.15312501e-003
,,,-7.12500000e-009,1.19062501e-003
,,,-7.10000000e-009,1.20000001e-003
,,,-7.07500000e-009,1.18125001e-003
,,,-7.05000000e-009,1.13437501e-003
,,,-7.02500000e-009,1.06875000e-003
,,,-7.00000000e-009,9.93749996e-004
,,,-6.97500000e-009,9.20312491e-004
,,,-6.95000000e-009,8.57812486e-004
,,,-6.92500000e-009,8.15624983e-004
,,,-6.90000000e-009,7.99999982e-004
,,,-6.87500000e-009,8.17187483e-004
,,,-6.85000000e-009,8.60937486e-004
,,,-6.82500000e-009,9.24999991e-004
,,,-6.80000000e-009,9.99999996e-004
,,,-6.77500000e-009,1.07656250e-003
,,,-6.75000000e-009,1.14062501e-003
,,,-6.72500000e-009,1.18437501e-003
,,,-6.70000000e-009,1.20000001e-003
,,,-6.67500000e-009,1.18437501e-003
,,,-6.65000000e-009,1.14062501e-003
,,,-6.62500000e-009,1.07656250e-003
,,,-6.60000000e-009,9.99999996e-004
,,,-6.57500000e-009,9.24999991e-004
,,,-6.55000000e-009,8.60937486e-004
,,,-6.52500000e-009,8.17187483e-004
,,,-6.50000000e-009,7.99999982e-004
,,,-6.47500000e-009,8.17187483e-004
,,,-6.45000000e-009,8.60937486e-004
,,,-6.42500000e-009,9.24999991e-004
,,,-6.40000000e-009,9.99999996e-004
,,,-6.37500000e-009,1.07656250e-003
,,,-6.35000000e-009,1.14062501e-003
,,,-6.32500000e-009,1.18437501e-003
,,,-6.30000000e-009,1.20000001e-003
,,,-6.27500000e-009,1.18750001e-003
,,,-6.25000000e-009,1.14843751e-003
,,,-6.22500000e-009,1.08750000e-003
,,,-6.20000000e-009,1.01406250e-003
,,,-6.17500000e-009,9.39062492e-004
,,,-6.15000000e-009,8.73437487e-004
,,,-6.12500000e-009,8.24999984e-004
,,,-6.10000000e-009,7.99999982e-004
,,,-6.07500000e-009,8.06249983e-004
,,,-6.05000000e-009,8.39062485e-004
,,,-6.02500000e-009,8.93749989e-004
,,,-6.00000000e-009,9.64062494e-004
,,,-5.97500000e-009,1.03750000e-003
,,,-5.95000000e-009,1.10781250e-003
,,,-5.92500000e-009,1.16562501e-003
,,,-5.90000000e-009,1.20000001e-003
,,,-5.87500000e-009,1.20937501e-003
,,,-5.85000000e-009,1.19218751e-003
,,,-5.82500000e-009,1.15000001e-003
,,,-5.80000000e-009,1.08750000e-003
,,,-5.77500000e-009,1.01406250e-003
,,,-5.75000000e-009,9.35937492e-004
,,,-5.72500000e-009,8.62499987e-004
,,,-5.70000000e-009,7.99999982e-004
,,,-5.67500000e-009,7.60937479e-004
,,,-5.65000000e-009,7.46874978e-004
,,,-5.62500000e-009,7.60937479e-004
,,,-5.60000000e-009,8.03124982e-004
,,,-5.57500000e-009,8.71874987e-004
,,,-5.55000000e-009,9.65624994e-004
,,,-5.52500000e-009,1.07656250e-003
,,,-5.50000000e-009,1.20000001e-003
,,,-5.47500000e-009,1.32343752e-003
,,,-5.45000000e-009,1.43906253e-003
,,,-5.42500000e-009,1.53906253e-003
,,,-5.40000000e-009,1.61562504e-003
,,,-5.37500000e-009,1.66406254e-003
,,,-5.35000000e-009,1.67812504e-003
,,,-5.32500000e-009,1.65625004e-003
,,,-5.30000000e-009,1.60000004e-003
,,,-5.27500000e-009,1.51093753e-003
,,,-5.25000000e-009,1.39843752e-003
,,,-5.22500000e-009,1.27187502e-003
,,,-5.20000000e-009,1.14375001e-003
,,,-5.17500000e-009,1.02343750e-003
,,,-5.15000000e-009,9.21874991e-004
,,,-5.12500000e-009,8.45312485e-004
,,,-5.10000000e-009,7.99999982e-004
,,,-5.07500000e-009,7.90624981e-004
,,,-5.05000000e-009,8.12499983e-004
,,,-5.02500000e-009,8.60937486e-004
,,,-5.00000000e-009,9.29687491e-004
,,,-4.97500000e-009,1.00625000e-003
,,,-4.95000000e-009,1.08437500e-003
,,,-4.92500000e-009,1.15156251e-003
,,,-4.90000000e-009,1.20000001e-003
,,,-4.87500000e-009,1.22656251e-003
,,,-4.85000000e-009,1.22656251e-003
,,,-4.82500000e-009,1.19843751e-003
,,,-4.80000000e-009,1.14375001e-003
,,,-4.77500000e-009,1.07187500e-003
,,,-4.75000000e-009,9.84374995e-004
,,,-4.72500000e-009,8.92187489e-004
,,,-4.70000000e-009,7.99999982e-004
,,,-4.67500000e-009,7.17187476e-004
,,,-4.65000000e-009,6.49999972e-004
,,,-4.62500000e-009,6.06249968e-004
,,,-4.60000000e-009,5.89062467e-004
,,,-4.57500000e-009,6.01562468e-004
,,,-4.55000000e-009,6.43749971e-004
,,,-4.52500000e-009,7.10937476e-004
,,,-4.50000000e-009,7.99999982e-004
,,,-4.47500000e-009,9.04687490e-004
,,,-4.45000000e-009,1.01093750e-003
,,,-4.42500000e-009,1.10937500e-003
,,,-4.40000000e-009,1.19062501e-003
,,,-4.37500000e-009,1.24375001e-003
,,,-4.35000000e-009,1.26562502e-003
,,,-4.32500000e-009,1.25156251e-003
,,,-4.30000000e-009,1.20000001e-003
,,,-4.27500000e-009,1.12187500e-003
,,,-4.25000000e-009,1.02343750e-003
,,,-4.22500000e-009,9.18749991e-004
,,,-4.20000000e-009,8.24999984e-004
,,,-4.17500000e-009,7.54687479e-004
,,,-4.15000000e-009,7.21874977e-004
,,,-4.12500000e-009,7.35937478e-004
,,,-4.10000000e-009,7.99999982e-004
,,,-4.07500000e-009,9.10937490e-004
,,,-4.05000000e-009,1.05468750e-003
,,,-4.02500000e-009,1.21562501e-003
,,,-4.00000000e-009,1.37500002e-003
,,,-3.97500000e-009,1.51093753e-003
,,,-3.95000000e-009,1.60312504e-003
,,,-3.92500000e-009,1.63750004e-003
,,,-3.90000000e-009,1.60000004e-003
,,,-3.87500000e-009,1.48593753e-003
,,,-3.85000000e-009,1.30781252e-003
,,,-3.82500000e-009,1.08125000e-003
,,,-3.80000000e-009,8.26562484e-004
,,,-3.77500000e-009,5.68749966e-004
,,,-3.75000000e-009,3.31249949e-004
,,,-3.72500000e-009,1.35937435e-004
,,,-3.70000000e-009,-7.45058060e-011
,,,-3.67500000e-009,-5.78125786e-005
,,,-3.65000000e-009,-4.37500776e-005
,,,-3.62500000e-009,3.43749279e-005
,,,-3.60000000e-009,1.62499937e-004
,,,-3.57500000e-009,3.21874948e-004
,,,-3.55000000e-009,4.93749960e-004
,,,-3.52500000e-009,6.59374972e-004
,,,-3.50000000e-009,7.99999982e-004
,,,-3.47500000e-009,9.07812490e-004
,,,-3.45000000e-009,9.71874994e-004
,,,-3.42500000e-009,9.95312496e-004
,,,-3.40000000e-009,9.84374995e-004
,,,-3.37500000e-009,9.46874993e-004
,,,-3.35000000e-009,8.96874989e-004
,,,-3.32500000e-009,8.45312485e-004
,,,-3.30000000e-009,7.99999982e-004
,,,-3.27500000e-009,7.71874980e-004
,,,-3.25000000e-009,7.59374979e-004
,,,-3.22500000e-009,7.62499979e-004
,,,-3.20000000e-009,7.76562480e-004
,,,-3.17500000e-009,7.95312482e-004
,,,-3.15000000e-009,8.09374983e-004
,,,-3.12500000e-009,8.12499983e-004
,,,-3.10000000e-009,7.99999982e-004
,,,-3.07500000e-009,7.70312480e-004
,,,-3.05000000e-009,7.24999977e-004
,,,-3.02500000e-009,6.64062472e-004
,,,-3.00000000e-009,5.96874968e-004
,,,-2.97500000e-009,5.29687463e-004
,,,-2.95000000e-009,4.70312459e-004
,,,-2.92500000e-009,4.24999956e-004
,,,-2.90000000e-009,3.99999954e-004
,,,-2.87500000e-009,4.07812454e-004
,,,-2.85000000e-009,4.37499956e-004
,,,-2.82500000e-009,4.84374960e-004
,,,-2.80000000e-009,5.46874964e-004
,,,-2.77500000e-009,6.15624969e-004
,,,-2.75000000e-009,6.84374974e-004
,,,-2.72500000e-009,7.48437478e-004
,,,-2.70000000e-009,7.99999982e-004
,,,-2.67500000e-009,8.35937485e-004
,,,-2.65000000e-009,8.56249986e-004
,,,-2.62500000e-009,8.62499987e-004
,,,-2.60000000e-009,8.57812486e-004
,,,-2.57500000e-009,8.45312485e-004
,,,-2.55000000e-009,8.28124984e-004
,,,-2.52500000e-009,8.12499983e-004
,,,-2.50000000e-009,7.99999982e-004
,,,-2.47500000e-009,7.95312482e-004
,,,-2.45000000e-009,7.95312482e-004
,,,-2.42500000e-009,7.99999982e-004
,,,-2.40000000e-009,8.07812483e-004
,,,-2.37500000e-009,8.14062483e-004
,,,-2.35000000e-009,8.15624983e-004
,,,-2.32500000e-009,8.10937483e-004
,,,-2.30000000e-009,7.99999982e-004
,,,-2.27500000e-009,7.84374981e-004
,,,-2.25000000e-009,7.64062480e-004
,,,-2.22500000e-009,7.43749978e-004
,,,-2.20000000e-009,7.29687477e-004
,,,-2.17500000e-009,7.23437477e-004
,,,-2.15000000e-009,7.32812477e-004
,,,-2.12500000e-009,7.57812479e-004
,,,-2.10000000e-009,7.99999982e-004
,,,-2.07500000e-009,8.60937486e-004
,,,-2.05000000e-009,9.32812492e-004
,,,-2.02500000e-009,1.00781250e-003
,,,-2.00000000e-009,1.08125000e-003
,,,-1.97500000e-009,1.14218751e-003
,,,-1.95000000e-009,1.18593751e-003
,,,-1.92500000e-009,1.20625001e-003
,,,-1.90000000e-009,1.20000001e-003
,,,-1.87500000e-009,1.16250001e-003
,,,-1.85000000e-009,1.10312500e-003
,,,-1.82500000e-009,1.02968750e-003
,,,-1.80000000e-009,9.54687493e-004
,,,-1.77500000e-009,8.85937488e-004
,,,-1.75000000e-009,8.32812484e-004
,,,-1.72500000e-009,8.03124982e-004
,,,-1.70000000e-009,7.99999982e-004
,,,-1.67500000e-009,8.21874984e-004
,,,-1.65000000e-009,8.67187487e-004
,,,-1.62500000e-009,9.31249991e-004
,,,-1.60000000e-009,1.00468750e-003
,,,-1.57500000e-009,1.07656250e-003
,,,-1.55000000e-009,1.13906251e-003
,,,-1.52500000e-009,1.18281251e-003
,,,-1.50000000e-009,1.20000001e-003
,,,-1.47500000e-009,1.17656251e-003
,,,-1.45000000e-009,1.12812501e-003
,,,-1.42500000e-009,1.05937500e-003
,,,-1.40000000e-009,9.81249995e-004
,,,-1.37500000e-009,9.07812490e-004
,,,-1.35000000e-009,8.46874985e-004
,,,-1.32500000e-009,8.09374983e-004
,,,-1.30000000e-009,7.99999982e-004
,,,-1.27500000e-009,8.09374983e-004
,,,-1.25000000e-009,8.43749985e-004
,,,-1.22500000e-009,9.01562489e-004
,,,-1.20000000e-009,9.73437494e-004
,,,-1.17500000e-009,1.04843750e-003
,,,-1.15000000e-009,1.11875000e-003
,,,-1.12500000e-009,1.17187501e-003
,,,-1.10000000e-009,1.20000001e-003
,,,-1.07500000e-009,1.17031251e-003
,,,-1.05000000e-009,1.10625000e-003
,,,-1.02500000e-009,1.01093750e-003
,,,-1.00000000e-009,8.93749989e-004
,,,-9.75000000e-010,7.65624980e-004
,,,-9.50000000e-010,6.35937471e-004
,,,-9.25000000e-010,5.10937462e-004
,,,-9.00000000e-010,3.99999954e-004
,,,-8.75000000e-010,2.79687445e-004
,,,-8.50000000e-010,1.71874938e-004
,,,-8.25000000e-010,7.34374307e-005
,,,-8.00000000e-010,-1.71875757e-005
,,,-7.75000000e-010,-1.04687582e-004
,,,-7.50000000e-010,-1.93750088e-004
,,,-7.25000000e-010,-2.90625095e-004
,,,-7.00000000e-010,-4.00000103e-004
,,,-6.75000000e-010,-5.45312613e-004
,,,-6.50000000e-010,-7.06250124e-004
,,,-6.25000000e-010,-8.78125137e-004
,,,-6.00000000e-010,-1.05156265e-003
,,,-5.75000000e-010,-1.21718766e-003
,,,-5.50000000e-010,-1.36718767e-003
,,,-5.25000000e-010,-1.49531268e-003
,,,-5.00000000e-010,-1.60000019e-003
,,,-4.75000000e-010,-1.69687519e-003
,,,-4.50000000e-010,-1.78281270e-003
,,,-4.25000000e-010,-1.86093771e-003
,,,-4.00000000e-010,-1.93906271e-003
,,,-3.75000000e-010,-2.02500022e-003
,,,-3.50000000e-010,-2.12656273e-003
,,,-3.25000000e-010,-2.25000023e-003
,,,-3.00000000e-010,-2.40000024e-003
,,,-2.75000000e-010,-2.59062526e-003
,,,-2.50000000e-010,-2.81406277e-003
,,,-2.25000000e-010,-3.06718779e-003
,,,-2.00000000e-010,-3.33750031e-003
,,,-1.75000000e-010,-3.61718783e-003
,,,-1.50000000e-010,-3.89375035e-003
,,,-1.25000000e-010,-4.15625037e-003
,,,-1.00000000e-010,-4.40000039e-003
,,,-7.50000000e-011,-4.60625040e-003
,,,-5.00000000e-011,-4.79062541e-003
,,,-2.50000000e-011,-4.95312543e-003
,,,0.00000000e+000,-5.10000044e-003
,,,2.50000000e-011,-5.23281294e-003
,,,5.00000000e-011,-5.35625045e-003
,,,7.50000000e-011,-5.47656296e-003
,,,1.00000000e-010,-5.60000047e-003
,,,1.25000000e-010,-5.70625048e-003
,,,1.50000000e-010,-5.82812549e-003
,,,1.75000000e-010,-5.96562550e-003
,,,2.00000000e-010,-6.11875051e-003
,,,2.25000000e-010,-6.28281302e-003
,,,2.50000000e-010,-6.45468803e-003
,,,2.75000000e-010,-6.62812554e-003
,,,3.00000000e-010,-6.80000056e-003
,,,3.25000000e-010,-6.92968806e-003
,,,3.50000000e-010,-7.05468807e-003
,,,3.75000000e-010,-7.17031308e-003
,,,4.00000000e-010,-7.27812559e-003
,,,4.25000000e-010,-7.37656310e-003
,,,4.50000000e-010,-7.46250060e-003
,,,4.75000000e-010,-7.53750061e-003
,,,5.00000000e-010,-7.60000061e-003
,,,5.25000000e-010,-7.61406311e-003
,,,5.50000000e-010,-7.62031311e-003
,,,5.75000000e-010,-7.62343811e-003
,,,6.00000000e-010,-7.62343811e-003
,,,6.25000000e-010,-7.62187561e-003
,,,6.50000000e-010,-7.61718811e-003
,,,6.75000000e-010,-7.60937561e-003
,,,7.00000000e-010,-7.60000061e-003
,,,7.25000000e-010,-7.54531311e-003
,,,7.50000000e-010,-7.48906310e-003
,,,7.75000000e-010,-7.43593810e-003
,,,8.00000000e-010,-7.38437560e-003
,,,8.25000000e-010,-7.33593809e-003
,,,8.50000000e-010,-7.29062559e-003
,,,8.75000000e-010,-7.24531309e-003
,,,9.00000000e-010,-7.20000058e-003
,,,9.25000000e-010,-7.11875058e-003
,,,9.50000000e-010,-7.03437557e-003
,,,9.75000000e-010,-6.94375057e-003
,,,1.00000000e-009,-6.84687556e-003
,,,1.02500000e-009,-6.74375055e-003
,,,1.05000000e-009,-6.63437554e-003
,,,1.07500000e-009,-6.51875054e-003
,,,1.10000000e-009,-6.40000053e-003
,,,1.12500000e-009,-6.25625052e-003
,,,1.15000000e-009,-6.11406301e-003
,,,1.17500000e-009,-5.98125050e-003
,,,1.20000000e-009,-5.86093799e-003
,,,1.22500000e-009,-5.75937548e-003
,,,1.25000000e-009,-5.68281298e-003
,,,1.27500000e-009,-5.62968797e-003
,,,1.30000000e-009,-5.60000047e-003
,,,1.32500000e-009,-5.57500047e-003
,,,1.35000000e-009,-5.55937547e-003
,,,1.37500000e-009,-5.54375047e-003
,,,1.40000000e-009,-5.52031297e-003
,,,1.42500000e-009,-5.48125046e-003
,,,1.45000000e-009,-5.41718796e-003
,,,1.47500000e-009,-5.32500045e-003
,,,1.50000000e-009,-5.20000044e-003
,,,1.52500000e-009,-5.03437543e-003
,,,1.55000000e-009,-4.83906292e-003
,,,1.57500000e-009,-4.62031290e-003
,,,1.60000000e-009,-4.39062539e-003
,,,1.62500000e-009,-4.16250037e-003
,,,1.65000000e-009,-3.94687535e-003
,,,1.67500000e-009,-3.75625034e-003
,,,1.70000000e-009,-3.60000033e-003
,,,1.72500000e-009,-3.48593782e-003
,,,1.75000000e-009,-3.40468782e-003
,,,1.77500000e-009,-3.35000031e-003
,,,1.80000000e-009,-3.31562531e-003
,,,1.82500000e-009,-3.29218781e-003
,,,1.85000000e-009,-3.26875031e-003
,,,1.87500000e-009,-3.24062530e-003
,,,1.90000000e-009,-3.20000030e-003
,,,1.92500000e-009,-3.14531280e-003
,,,1.95000000e-009,-3.06875029e-003
,,,1.97500000e-009,-2.96875028e-003
,,,2.00000000e-009,-2.85468778e-003
,,,2.02500000e-009,-2.73125027e-003
,,,2.05000000e-009,-2.60937526e-003
,,,2.07500000e-009,-2.49687525e-003
,,,2.10000000e-009,-2.40000024e-003
,,,2.12500000e-009,-2.33125024e-003
,,,2.15000000e-009,-2.27812524e-003
,,,2.17500000e-009,-2.23437523e-003
,,,2.20000000e-009,-2.19687523e-003
,,,2.22500000e-009,-2.15781273e-003
,,,2.25000000e-009,-2.11406272e-003
,,,2.27500000e-009,-2.06250022e-003
,,,2.30000000e-009,-2.00000022e-003
,,,2.32500000e-009,-1.93593771e-003
,,,2.35000000e-009,-1.86250021e-003
,,,2.37500000e-009,-1.78281270e-003
,,,2.40000000e-009,-1.70781270e-003
,,,2.42500000e-009,-1.64375019e-003
,,,2.45000000e-009,-1.60000019e-003
,,,2.47500000e-009,-1.58437519e-003
,,,2.50000000e-009,-1.60000019e-003
,,,2.52500000e-009,-1.65468769e-003
,,,2.55000000e-009,-1.72812520e-003
,,,2.57500000e-009,-1.81250020e-003
,,,2.60000000e-009,-1.89375021e-003
,,,2.62500000e-009,-1.96250021e-003
,,,2.65000000e-009,-2.00781272e-003
,,,2.67500000e-009,-2.02187522e-003
,,,2.70000000e-009,-2.00000022e-003
,,,2.72500000e-009,-1.94062521e-003
,,,2.75000000e-009,-1.84843771e-003
,,,2.77500000e-009,-1.72968770e-003
,,,2.80000000e-009,-1.59687519e-003
,,,2.82500000e-009,-1.46562518e-003
,,,2.85000000e-009,-1.34843767e-003
,,,2.87500000e-009,-1.25625016e-003
,,,2.90000000e-009,-1.20000016e-003
,,,2.92500000e-009,-1.18437516e-003
,,,2.95000000e-009,-1.20625016e-003
,,,2.97500000e-009,-1.25625016e-003
,,,3.00000000e-009,-1.32812517e-003
,,,3.02500000e-009,-1.40781267e-003
,,,3.05000000e-009,-1.48750018e-003
,,,3.07500000e-009,-1.55312518e-003
,,,3.10000000e-009,-1.60000019e-003
,,,3.12500000e-009,-1.61093769e-003
,,,3.15000000e-009,-1.59218769e-003
,,,3.17500000e-009,-1.54687518e-003
,,,3.20000000e-009,-1.48125018e-003
,,,3.22500000e-009,-1.40468767e-003
,,,3.25000000e-009,-1.32500017e-003
,,,3.27500000e-009,-1.25468766e-003
,,,3.30000000e-009,-1.20000016e-003
,,,3.32500000e-009,-1.15937516e-003
,,,3.35000000e-009,-1.13750016e-003
,,,3.37500000e-009,-1.13437515e-003
,,,3.40000000e-009,-1.14375016e-003
,,,3.42500000e-009,-1.16250016e-003
,,,3.45000000e-009,-1.18125016e-003
,,,3.47500000e-009,-1.19531266e-003
,,,3.50000000e-009,-1.20000016e-003
,,,3.52500000e-009,-1.18281266e-003
,,,3.55000000e-009,-1.15000016e-003
,,,3.57500000e-009,-1.10312515e-003
,,,3.60000000e-009,-1.04531265e-003
,,,3.62500000e-009,-9.81250144e-004
,,,3.65000000e-009,-9.15625139e-004
,,,3.67500000e-009,-8.54687635e-004
,,,3.70000000e-009,-8.00000131e-004
,,,3.72500000e-009,-7.53125128e-004
,,,3.75000000e-009,-7.14062625e-004
,,,3.77500000e-009,-6.76562622e-004
,,,3.80000000e-009,-6.39062620e-004
,,,3.82500000e-009,-5.95312617e-004
,,,3.85000000e-009,-5.43750113e-004
,,,3.87500000e-009,-4.78125108e-004
,,,3.90000000e-009,-4.00000103e-004
,,,3.92500000e-009,-3.03125096e-004
,,,3.95000000e-009,-1.95312588e-004
,,,3.97500000e-009,-7.81250800e-005
,,,4.00000000e-009,3.90624283e-005
,,,4.02500000e-009,1.53124936e-004
,,,4.05000000e-009,2.54687444e-004
,,,4.07500000e-009,3.37499949e-004
,,,4.10000000e-009,3.99999954e-004
,,,4.12500000e-009,4.34374956e-004
,,,4.15000000e-009,4.49999957e-004
,,,4.17500000e-009,4.49999957e-004
,,,4.20000000e-009,4.39062457e-004
,,,4.22500000e-009,4.24999956e-004
,,,4.25000000e-009,4.10937455e-004
,,,4.27500000e-009,4.01562454e-004
,,,4.30000000e-009,3.99999954e-004
,,,4.32500000e-009,4.04687454e-004
,,,4.35000000e-009,4.15624955e-004
,,,4.37500000e-009,4.32812456e-004
,,,4.40000000e-009,4.49999957e-004
,,,4.42500000e-009,4.60937458e-004
,,,4.45000000e-009,4.57812458e-004
,,,4.47500000e-009,4.39062457e-004
,,,4.50000000e-009,3.99999954e-004
,,,4.52500000e-009,3.35937449e-004
,,,4.55000000e-009,2.59374944e-004
,,,4.57500000e-009,1.78124938e-004
,,,4.60000000e-009,1.01562433e-004
,,,4.62500000e-009,3.74999281e-005
,,,4.65000000e-009,-4.68757484e-006
,,,4.67500000e-009,-1.87500758e-005
,,,4.70000000e-009,-7.45058060e-011
,,,4.72500000e-009,5.31249293e-005
,,,4.75000000e-009,1.37499935e-004
,,,4.77500000e-009,2.46874943e-004
,,,4.80000000e-009,3.70312452e-004
,,,4.82500000e-009,4.96874961e-004
,,,4.85000000e-009,6.17187469e-004
,,,4.87500000e-009,7.20312476e-004
,,,4.90000000e-009,7.99999982e-004
,,,4.92500000e-009,8.51562486e-004
,,,4.95000000e-009,8.78124988e-004
,,,4.97500000e-009,8.81249988e-004
,,,5.00000000e-009,8.68749987e-004
,,,5.02500000e-009,8.46874985e-004
,,,5.05000000e-009,8.24999984e-004
,,,5.07500000e-009,8.07812483e-004
,,,5.10000000e-009,7.99999982e-004
,,,5.12500000e-009,8.03124982e-004
,,,5.15000000e-009,8.17187483e-004
,,,5.17500000e-009,8.37499985e-004
,,,5.20000000e-009,8.57812486e-004
,,,5.22500000e-009,8.70312487e-004
,,,5.25000000e-009,8.68749987e-004
,,,5.27500000e-009,8.46874985e-004
,,,5.30000000e-009,7.99999982e-004
,,,5.32500000e-009,7.26562477e-004
,,,5.35000000e-009,6.29687470e-004
,,,5.37500000e-009,5.17187462e-004
,,,5.40000000e-009,3.93749953e-004
,,,5.42500000e-009,2.71874945e-004
,,,5.45000000e-009,1.57812437e-004
,,,5.47500000e-009,6.56249301e-005
,,,5.50000000e-009,-7.45058060e-011
,,,5.52500000e-009,-2.18750761e-005
,,,5.55000000e-009,-4.68757484e-006
,,,5.57500000e-009,5.15624291e-005
,,,5.60000000e-009,1.48437436e-004
,,,5.62500000e-009,2.78124945e-004
,,,5.65000000e-009,4.35937456e-004
,,,5.67500000e-009,6.12499969e-004
,,,5.70000000e-009,7.99999982e-004
,,,5.72500000e-009,9.84374995e-004
,,,5.75000000e-009,1.15781251e-003
,,,5.77500000e-009,1.31250002e-003
,,,5.80000000e-009,1.43906253e-003
,,,5.82500000e-009,1.53593753e-003
,,,5.85000000e-009,1.59531254e-003
,,,5.87500000e-009,1.61718754e-003
,,,5.90000000e-009,1.60000004e-003
,,,5.92500000e-009,1.54375003e-003
,,,5.95000000e-009,1.45625003e-003
,,,5.97500000e-009,1.35000002e-003
,,,6.00000000e-009,1.23125001e-003
,,,6.02500000e-009,1.10937500e-003
,,,6.05000000e-009,9.92187496e-004
