RawData/SinglePhotoelectron/L3_2pt2foot_5mV/wave023_Ch4.csv

"Record Length",1000,"Points",-7.72500000e-009,8.01562482e-004
"Sample Interval",2.50000000e-011,s,-7.70000000e-009,7.99999982e-004
"Trigger Point",309,"Samples",-7.67500000e-009,8.29687484e-004
"Trigger Time",1.65731915e-011,s,-7.65000000e-009,8.81249988e-004
"",,,-7.62500000e-009,9.48437493e-004
"Horizontal Offset",-7.72500000e-009,s,-7.60000000e-009,1.02500000e-003
,,,-7.57500000e-009,1.09687500e-003
,,,-7.55000000e-009,1.15625001e-003
,,,-7.52500000e-009,1.19375001e-003
,,,-7.50000000e-009,1.20000001e-003
,,,-7.47500000e-009,1.17031251e-003
,,,-7.45000000e-009,1.10625000e-003
,,,-7.42500000e-009,1.01250000e-003
,,,-7.40000000e-009,8.96874989e-004
,,,-7.37500000e-009,7.67187480e-004
,,,-7.35000000e-009,6.35937471e-004
,,,-7.32500000e-009,5.10937462e-004
,,,-7.30000000e-009,3.99999954e-004
,,,-7.27500000e-009,3.20312448e-004
,,,-7.25000000e-009,2.67187444e-004
,,,-7.22500000e-009,2.42187443e-004
,,,-7.20000000e-009,2.40624943e-004
,,,-7.17500000e-009,2.60937444e-004
,,,-7.15000000e-009,2.96874947e-004
,,,-7.12500000e-009,3.45312450e-004
,,,-7.10000000e-009,3.99999954e-004
,,,-7.07500000e-009,4.65624958e-004
,,,-7.05000000e-009,5.28124963e-004
,,,-7.02500000e-009,5.85937467e-004
,,,-7.00000000e-009,6.39062471e-004
,,,-6.97500000e-009,6.85937474e-004
,,,-6.95000000e-009,7.28124977e-004
,,,-6.92500000e-009,7.67187480e-004
,,,-6.90000000e-009,7.99999982e-004
,,,-6.87500000e-009,8.31249984e-004
,,,-6.85000000e-009,8.56249986e-004
,,,-6.82500000e-009,8.73437487e-004
,,,-6.80000000e-009,8.81249988e-004
,,,-6.77500000e-009,8.78124988e-004
,,,-6.75000000e-009,8.65624987e-004
,,,-6.72500000e-009,8.39062485e-004
,,,-6.70000000e-009,7.99999982e-004
,,,-6.67500000e-009,7.49999979e-004
,,,-6.65000000e-009,6.92187474e-004
,,,-6.62500000e-009,6.31249970e-004
,,,-6.60000000e-009,5.68749966e-004
,,,-6.57500000e-009,5.10937462e-004
,,,-6.55000000e-009,4.60937458e-004
,,,-6.52500000e-009,4.23437455e-004
,,,-6.50000000e-009,3.99999954e-004
,,,-6.47500000e-009,4.03124954e-004
,,,-6.45000000e-009,4.23437455e-004
,,,-6.42500000e-009,4.60937458e-004
,,,-6.40000000e-009,5.12499962e-004
,,,-6.37500000e-009,5.74999966e-004
,,,-6.35000000e-009,6.46874971e-004
,,,-6.32500000e-009,7.21874977e-004
,,,-6.30000000e-009,7.99999982e-004
,,,-6.27500000e-009,8.74999987e-004
,,,-6.25000000e-009,9.45312492e-004
,,,-6.22500000e-009,1.00937500e-003
,,,-6.20000000e-009,1.06562500e-003
,,,-6.17500000e-009,1.11406250e-003
,,,-6.15000000e-009,1.15312501e-003
,,,-6.12500000e-009,1.18281251e-003
,,,-6.10000000e-009,1.20000001e-003
,,,-6.07500000e-009,1.20156251e-003
,,,-6.05000000e-009,1.18906251e-003
,,,-6.02500000e-009,1.16250001e-003
,,,-6.00000000e-009,1.12031250e-003
,,,-5.97500000e-009,1.06250000e-003
,,,-5.95000000e-009,9.87499995e-004
,,,-5.92500000e-009,8.99999989e-004
,,,-5.90000000e-009,7.99999982e-004
,,,-5.87500000e-009,6.93749975e-004
,,,-5.85000000e-009,5.90624967e-004
,,,-5.82500000e-009,4.95312461e-004
,,,-5.80000000e-009,4.18749955e-004
,,,-5.77500000e-009,3.65624951e-004
,,,-5.75000000e-009,3.42187450e-004
,,,-5.72500000e-009,3.54687451e-004
,,,-5.70000000e-009,3.99999954e-004
,,,-5.67500000e-009,4.82812460e-004
,,,-5.65000000e-009,5.90624967e-004
,,,-5.62500000e-009,7.14062476e-004
,,,-5.60000000e-009,8.42187485e-004
,,,-5.57500000e-009,9.64062494e-004
,,,-5.55000000e-009,1.07031250e-003
,,,-5.52500000e-009,1.15156251e-003
,,,-5.50000000e-009,1.20000001e-003
,,,-5.47500000e-009,1.21093751e-003
,,,-5.45000000e-009,1.18906251e-003
,,,-5.42500000e-009,1.13906251e-003
,,,-5.40000000e-009,1.07187500e-003
,,,-5.37500000e-009,9.95312496e-004
,,,-5.35000000e-009,9.20312491e-004
,,,-5.32500000e-009,8.53124986e-004
,,,-5.30000000e-009,7.99999982e-004
,,,-5.27500000e-009,7.70312480e-004
,,,-5.25000000e-009,7.59374979e-004
,,,-5.22500000e-009,7.65624980e-004
,,,-5.20000000e-009,7.81249981e-004
,,,-5.17500000e-009,7.99999982e-004
,,,-5.15000000e-009,8.14062483e-004
,,,-5.12500000e-009,8.15624983e-004
,,,-5.10000000e-009,7.99999982e-004
,,,-5.07500000e-009,7.67187480e-004
,,,-5.05000000e-009,7.14062476e-004
,,,-5.02500000e-009,6.49999972e-004
,,,-5.00000000e-009,5.78124966e-004
,,,-4.97500000e-009,5.10937462e-004
,,,-4.95000000e-009,4.53124958e-004
,,,-4.92500000e-009,4.15624955e-004
,,,-4.90000000e-009,3.99999954e-004
,,,-4.87500000e-009,4.15624955e-004
,,,-4.85000000e-009,4.53124958e-004
,,,-4.82500000e-009,5.10937462e-004
,,,-4.80000000e-009,5.78124966e-004
,,,-4.77500000e-009,6.49999972e-004
,,,-4.75000000e-009,7.14062476e-004
,,,-4.72500000e-009,7.67187480e-004
,,,-4.70000000e-009,7.99999982e-004
,,,-4.67500000e-009,8.14062483e-004
,,,-4.65000000e-009,8.10937483e-004
,,,-4.62500000e-009,7.95312482e-004
,,,-4.60000000e-009,7.74999980e-004
,,,-4.57500000e-009,7.59374979e-004
,,,-4.55000000e-009,7.54687479e-004
,,,-4.52500000e-009,7.67187480e-004
,,,-4.50000000e-009,7.99999982e-004
,,,-4.47500000e-009,8.54687486e-004
,,,-4.45000000e-009,9.24999991e-004
,,,-4.42500000e-009,1.00312500e-003
,,,-4.40000000e-009,1.08125000e-003
,,,-4.37500000e-009,1.14843751e-003
,,,-4.35000000e-009,1.19531251e-003
,,,-4.32500000e-009,1.21562501e-003
,,,-4.30000000e-009,1.20000001e-003
,,,-4.27500000e-009,1.14687501e-003
,,,-4.25000000e-009,1.06093750e-003
,,,-4.22500000e-009,9.49999993e-004
,,,-4.20000000e-009,8.24999984e-004
,,,-4.17500000e-009,6.95312475e-004
,,,-4.15000000e-009,5.74999966e-004
,,,-4.12500000e-009,4.73437459e-004
,,,-4.10000000e-009,3.99999954e-004
,,,-4.07500000e-009,3.65624951e-004
,,,-4.05000000e-009,3.64062451e-004
,,,-4.02500000e-009,3.96874954e-004
,,,-4.00000000e-009,4.57812458e-004
,,,-3.97500000e-009,5.35937463e-004
,,,-3.95000000e-009,6.26562470e-004
,,,-3.92500000e-009,7.17187476e-004
,,,-3.90000000e-009,7.99999982e-004
,,,-3.87500000e-009,8.64062487e-004
,,,-3.85000000e-009,9.07812490e-004
,,,-3.82500000e-009,9.29687491e-004
,,,-3.80000000e-009,9.31249991e-004
,,,-3.77500000e-009,9.15624990e-004
,,,-3.75000000e-009,8.85937488e-004
,,,-3.72500000e-009,8.46874985e-004
,,,-3.70000000e-009,7.99999982e-004
,,,-3.67500000e-009,7.51562479e-004
,,,-3.65000000e-009,6.99999975e-004
,,,-3.62500000e-009,6.49999972e-004
,,,-3.60000000e-009,6.01562468e-004
,,,-3.57500000e-009,5.51562465e-004
,,,-3.55000000e-009,5.01562461e-004
,,,-3.52500000e-009,4.49999957e-004
,,,-3.50000000e-009,3.99999954e-004
,,,-3.47500000e-009,3.57812451e-004
,,,-3.45000000e-009,3.20312448e-004
,,,-3.42500000e-009,2.92187446e-004
,,,-3.40000000e-009,2.78124945e-004
,,,-3.37500000e-009,2.79687445e-004
,,,-3.35000000e-009,2.99999947e-004
,,,-3.32500000e-009,3.40624950e-004
,,,-3.30000000e-009,3.99999954e-004
,,,-3.27500000e-009,4.76562459e-004
,,,-3.25000000e-009,5.57812465e-004
,,,-3.22500000e-009,6.40624971e-004
,,,-3.20000000e-009,7.15624976e-004
,,,-3.17500000e-009,7.74999980e-004
,,,-3.15000000e-009,8.12499983e-004
,,,-3.12500000e-009,8.21874984e-004
,,,-3.10000000e-009,7.99999982e-004
,,,-3.07500000e-009,7.45312478e-004
,,,-3.05000000e-009,6.62499972e-004
,,,-3.02500000e-009,5.59374965e-004
,,,-3.00000000e-009,4.40624957e-004
,,,-2.97500000e-009,3.15624948e-004
,,,-2.95000000e-009,1.95312439e-004
,,,-2.92500000e-009,8.74999317e-005
,,,-2.90000000e-009,-7.45058060e-011
,,,-2.87500000e-009,-5.31250783e-005
,,,-2.85000000e-009,-7.34375797e-005
,,,-2.82500000e-009,-6.09375788e-005
,,,-2.80000000e-009,-1.56250756e-005
,,,-2.77500000e-009,5.78124296e-005
,,,-2.75000000e-009,1.56249937e-004
,,,-2.72500000e-009,2.73437445e-004
,,,-2.70000000e-009,3.99999954e-004
,,,-2.67500000e-009,5.29687463e-004
,,,-2.65000000e-009,6.48437471e-004
,,,-2.62500000e-009,7.48437478e-004
,,,-2.60000000e-009,8.24999984e-004
,,,-2.57500000e-009,8.70312487e-004
,,,-2.55000000e-009,8.81249988e-004
,,,-2.52500000e-009,8.57812486e-004
,,,-2.50000000e-009,7.99999982e-004
,,,-2.47500000e-009,7.14062476e-004
,,,-2.45000000e-009,6.04687468e-004
,,,-2.42500000e-009,4.84374960e-004
,,,-2.40000000e-009,3.59374951e-004
,,,-2.37500000e-009,2.40624943e-004
,,,-2.35000000e-009,1.37499935e-004
,,,-2.32500000e-009,5.46874294e-005
,,,-2.30000000e-009,-7.45058060e-011
,,,-2.27500000e-009,-1.87500758e-005
,,,-2.25000000e-009,-9.37507517e-006
,,,-2.22500000e-009,2.81249275e-005
,,,-2.20000000e-009,8.74999317e-005
,,,-2.17500000e-009,1.62499937e-004
,,,-2.15000000e-009,2.45312443e-004
,,,-2.12500000e-009,3.26562449e-004
,,,-2.10000000e-009,3.99999954e-004
,,,-2.07500000e-009,4.62499958e-004
,,,-2.05000000e-009,5.06249961e-004
,,,-2.02500000e-009,5.28124963e-004
,,,-2.00000000e-009,5.31249963e-004
,,,-1.97500000e-009,5.15624962e-004
,,,-1.95000000e-009,4.84374960e-004
,,,-1.92500000e-009,4.45312457e-004
,,,-1.90000000e-009,3.99999954e-004
,,,-1.87500000e-009,3.51562450e-004
,,,-1.85000000e-009,3.10937448e-004
,,,-1.82500000e-009,2.81249945e-004
,,,-1.80000000e-009,2.67187444e-004
,,,-1.77500000e-009,2.71874945e-004
,,,-1.75000000e-009,2.96874947e-004
,,,-1.72500000e-009,3.40624950e-004
,,,-1.70000000e-009,3.99999954e-004
,,,-1.67500000e-009,4.67187459e-004
,,,-1.65000000e-009,5.40624964e-004
,,,-1.62500000e-009,6.14062469e-004
,,,-1.60000000e-009,6.81249974e-004
,,,-1.57500000e-009,7.37499978e-004
,,,-1.55000000e-009,7.78124981e-004
,,,-1.52500000e-009,7.99999982e-004
,,,-1.50000000e-009,7.99999982e-004
,,,-1.47500000e-009,7.67187480e-004
,,,-1.45000000e-009,7.15624976e-004
,,,-1.42500000e-009,6.51562472e-004
,,,-1.40000000e-009,5.81249967e-004
,,,-1.37500000e-009,5.15624962e-004
,,,-1.35000000e-009,4.59374958e-004
,,,-1.32500000e-009,4.20312455e-004
,,,-1.30000000e-009,3.99999954e-004
,,,-1.27500000e-009,3.81249952e-004
,,,-1.25000000e-009,3.76562452e-004
,,,-1.22500000e-009,3.84374953e-004
,,,-1.20000000e-009,3.98437454e-004
,,,-1.17500000e-009,4.14062455e-004
,,,-1.15000000e-009,4.23437455e-004
,,,-1.12500000e-009,4.20312455e-004
,,,-1.10000000e-009,3.99999954e-004
,,,-1.07500000e-009,3.35937449e-004
,,,-1.05000000e-009,2.46874943e-004
,,,-1.02500000e-009,1.40624935e-004
,,,-1.00000000e-009,2.18749270e-005
,,,-9.75000000e-010,-9.84375815e-005
,,,-9.50000000e-010,-2.12500090e-004
,,,-9.25000000e-010,-3.15625097e-004
,,,-9.00000000e-010,-4.00000103e-004
,,,-8.75000000e-010,-4.84375109e-004
,,,-8.50000000e-010,-5.54687614e-004
,,,-8.25000000e-010,-6.09375118e-004
,,,-8.00000000e-010,-6.51562621e-004
,,,-7.75000000e-010,-6.85937623e-004
,,,-7.50000000e-010,-7.17187625e-004
,,,-7.25000000e-010,-7.53125128e-004
,,,-7.00000000e-010,-8.00000131e-004
,,,-6.75000000e-010,-8.85937637e-004
,,,-6.50000000e-010,-9.96875145e-004
,,,-6.25000000e-010,-1.13125015e-003
,,,-6.00000000e-010,-1.28281267e-003
,,,-5.75000000e-010,-1.45156268e-003
,,,-5.50000000e-010,-1.62968769e-003
,,,-5.25000000e-010,-1.81406270e-003
,,,-5.00000000e-010,-2.00000022e-003
,,,-4.75000000e-010,-2.19843773e-003
,,,-4.50000000e-010,-2.40000024e-003
,,,-4.25000000e-010,-2.60312526e-003
,,,-4.00000000e-010,-2.80625027e-003
,,,-3.75000000e-010,-3.00937529e-003
,,,-3.50000000e-010,-3.20937530e-003
,,,-3.25000000e-010,-3.40625032e-003
,,,-3.00000000e-010,-3.60000033e-003
,,,-2.75000000e-010,-3.78906284e-003
,,,-2.50000000e-010,-3.97500036e-003
,,,-2.25000000e-010,-4.15312537e-003
,,,-2.00000000e-010,-4.32031288e-003
,,,-1.75000000e-010,-4.47187539e-003
,,,-1.50000000e-010,-4.60156290e-003
,,,-1.25000000e-010,-4.71093791e-003
,,,-1.00000000e-010,-4.80000041e-003
,,,-7.50000000e-011,-4.85937542e-003
,,,-5.00000000e-011,-4.91562542e-003
,,,-2.50000000e-011,-4.97812543e-003
,,,0.00000000e+000,-5.05156293e-003
,,,2.50000000e-011,-5.14687544e-003
,,,5.00000000e-011,-5.26718795e-003
,,,7.50000000e-011,-5.41875046e-003
,,,1.00000000e-010,-5.60000047e-003
,,,1.25000000e-010,-5.78750048e-003
,,,1.50000000e-010,-6.00156300e-003
,,,1.75000000e-010,-6.22968802e-003
,,,2.00000000e-010,-6.46406303e-003
,,,2.25000000e-010,-6.68906305e-003
,,,2.50000000e-010,-6.89218806e-003
,,,2.75000000e-010,-7.06562557e-003
,,,3.00000000e-010,-7.20000058e-003
,,,3.25000000e-010,-7.25781309e-003
,,,3.50000000e-010,-7.27968809e-003
,,,3.75000000e-010,-7.27656309e-003
,,,4.00000000e-010,-7.25468809e-003
,,,4.25000000e-010,-7.22656309e-003
,,,4.50000000e-010,-7.20312558e-003
,,,4.75000000e-010,-7.19062558e-003
,,,5.00000000e-010,-7.20000058e-003
,,,5.25000000e-010,-7.19843808e-003
,,,5.50000000e-010,-7.22343809e-003
,,,5.75000000e-010,-7.27343809e-003
,,,6.00000000e-010,-7.34218809e-003
,,,6.25000000e-010,-7.41875060e-003
,,,6.50000000e-010,-7.49375060e-003
,,,6.75000000e-010,-7.55781311e-003
,,,7.00000000e-010,-7.60000061e-003
,,,7.25000000e-010,-7.57500061e-003
,,,7.50000000e-010,-7.51875061e-003
,,,7.75000000e-010,-7.43593810e-003
,,,8.00000000e-010,-7.32812559e-003
,,,8.25000000e-010,-7.20468808e-003
,,,8.50000000e-010,-7.07031307e-003
,,,8.75000000e-010,-6.93281307e-003
,,,9.00000000e-010,-6.80000056e-003
,,,9.25000000e-010,-6.64687554e-003
,,,9.50000000e-010,-6.50781304e-003
,,,9.75000000e-010,-6.38593803e-003
,,,1.00000000e-009,-6.27968802e-003
,,,1.02500000e-009,-6.19062551e-003
,,,1.05000000e-009,-6.11562551e-003
,,,1.07500000e-009,-6.05312550e-003
,,,1.10000000e-009,-6.00000050e-003
,,,1.12500000e-009,-5.93437549e-003
,,,1.15000000e-009,-5.87187549e-003
,,,1.17500000e-009,-5.81406299e-003
,,,1.20000000e-009,-5.76093798e-003
,,,1.22500000e-009,-5.71406298e-003
,,,1.25000000e-009,-5.67031298e-003
,,,1.27500000e-009,-5.63437547e-003
,,,1.30000000e-009,-5.60000047e-003
,,,1.32500000e-009,-5.55312547e-003
,,,1.35000000e-009,-5.49687546e-003
,,,1.37500000e-009,-5.42968796e-003
,,,1.40000000e-009,-5.34375045e-003
,,,1.42500000e-009,-5.24062545e-003
,,,1.45000000e-009,-5.11562544e-003
,,,1.47500000e-009,-4.96875043e-003
,,,1.50000000e-009,-4.80000041e-003
,,,1.52500000e-009,-4.60312540e-003
,,,1.55000000e-009,-4.39062539e-003
,,,1.57500000e-009,-4.16718787e-003
,,,1.60000000e-009,-3.94375035e-003
,,,1.62500000e-009,-3.72500034e-003
,,,1.65000000e-009,-3.52500032e-003
,,,1.67500000e-009,-3.34687531e-003
,,,1.70000000e-009,-3.20000030e-003
,,,1.72500000e-009,-3.09375029e-003
,,,1.75000000e-009,-3.01562529e-003
,,,1.77500000e-009,-2.95781278e-003
,,,1.80000000e-009,-2.91562528e-003
,,,1.82500000e-009,-2.88437528e-003
,,,1.85000000e-009,-2.85781278e-003
,,,1.87500000e-009,-2.83125027e-003
,,,1.90000000e-009,-2.80000027e-003
,,,1.92500000e-009,-2.76718777e-003
,,,1.95000000e-009,-2.72343777e-003
,,,1.97500000e-009,-2.66875026e-003
,,,2.00000000e-009,-2.60625026e-003
,,,2.02500000e-009,-2.54375025e-003
,,,2.05000000e-009,-2.48593775e-003
,,,2.07500000e-009,-2.43593775e-003
,,,2.10000000e-009,-2.40000024e-003
,,,2.12500000e-009,-2.38281274e-003
,,,2.15000000e-009,-2.36875024e-003
,,,2.17500000e-009,-2.35000024e-003
,,,2.20000000e-009,-2.32187524e-003
,,,2.22500000e-009,-2.27656274e-003
,,,2.25000000e-009,-2.20937523e-003
,,,2.27500000e-009,-2.11718772e-003
,,,2.30000000e-009,-2.00000022e-003
,,,2.32500000e-009,-1.86875021e-003
,,,2.35000000e-009,-1.72343770e-003
,,,2.37500000e-009,-1.57187519e-003
,,,2.40000000e-009,-1.42812518e-003
,,,2.42500000e-009,-1.30781267e-003
,,,2.45000000e-009,-1.22500016e-003
,,,2.47500000e-009,-1.18593766e-003
,,,2.50000000e-009,-1.20000016e-003
,,,2.52500000e-009,-1.27500016e-003
,,,2.55000000e-009,-1.38906267e-003
,,,2.57500000e-009,-1.52500018e-003
,,,2.60000000e-009,-1.66875019e-003
,,,2.62500000e-009,-1.80312520e-003
,,,2.65000000e-009,-1.91093771e-003
,,,2.67500000e-009,-1.97968771e-003
,,,2.70000000e-009,-2.00000022e-003
,,,2.72500000e-009,-1.96718771e-003
,,,2.75000000e-009,-1.88750021e-003
,,,2.77500000e-009,-1.76875020e-003
,,,2.80000000e-009,-1.62968769e-003
,,,2.82500000e-009,-1.48593768e-003
,,,2.85000000e-009,-1.35781267e-003
,,,2.87500000e-009,-1.25781266e-003
,,,2.90000000e-009,-1.20000016e-003
,,,2.92500000e-009,-1.18906266e-003
,,,2.95000000e-009,-1.21875016e-003
,,,2.97500000e-009,-1.28281267e-003
,,,3.00000000e-009,-1.36718767e-003
,,,3.02500000e-009,-1.45468768e-003
,,,3.05000000e-009,-1.53125018e-003
,,,3.07500000e-009,-1.58437519e-003
,,,3.10000000e-009,-1.60000019e-003
,,,3.12500000e-009,-1.56875019e-003
,,,3.15000000e-009,-1.49531268e-003
,,,3.17500000e-009,-1.38750017e-003
,,,3.20000000e-009,-1.25625016e-003
,,,3.22500000e-009,-1.11562515e-003
,,,3.25000000e-009,-9.84375144e-004
,,,3.27500000e-009,-8.75000136e-004
,,,3.30000000e-009,-8.00000131e-004
,,,3.32500000e-009,-7.62500128e-004
,,,3.35000000e-009,-7.67187629e-004
,,,3.37500000e-009,-8.06250132e-004
,,,3.40000000e-009,-8.75000136e-004
,,,3.42500000e-009,-9.59375142e-004
,,,3.45000000e-009,-1.05000015e-003
,,,3.47500000e-009,-1.13281265e-003
,,,3.50000000e-009,-1.20000016e-003
,,,3.52500000e-009,-1.23125016e-003
,,,3.55000000e-009,-1.23437516e-003
,,,3.57500000e-009,-1.20468766e-003
,,,3.60000000e-009,-1.15000016e-003
,,,3.62500000e-009,-1.07343765e-003
,,,3.65000000e-009,-9.84375144e-004
,,,3.67500000e-009,-8.90625138e-004
,,,3.70000000e-009,-8.00000131e-004
,,,3.72500000e-009,-7.12500125e-004
,,,3.75000000e-009,-6.35937620e-004
,,,3.77500000e-009,-5.71875115e-004
,,,3.80000000e-009,-5.20312611e-004
,,,3.82500000e-009,-4.79687608e-004
,,,3.85000000e-009,-4.48437606e-004
,,,3.87500000e-009,-4.21875104e-004
,,,3.90000000e-009,-4.00000103e-004
,,,3.92500000e-009,-3.71875101e-004
,,,3.95000000e-009,-3.40625099e-004
,,,3.97500000e-009,-3.01562596e-004
,,,4.00000000e-009,-2.53125092e-004
,,,4.02500000e-009,-1.98437589e-004
,,,4.05000000e-009,-1.37500084e-004
,,,4.07500000e-009,-7.03125795e-005
,,,4.10000000e-009,-7.45058060e-011
,,,4.12500000e-009,7.03124305e-005
,,,4.15000000e-009,1.37499935e-004
,,,4.17500000e-009,2.03124940e-004
,,,4.20000000e-009,2.64062444e-004
,,,4.22500000e-009,3.15624948e-004
,,,4.25000000e-009,3.56249951e-004
,,,4.27500000e-009,3.84374953e-004
,,,4.30000000e-009,3.99999954e-004
,,,4.32500000e-009,4.04687454e-004
,,,4.35000000e-009,4.01562454e-004
,,,4.37500000e-009,3.93749953e-004
,,,4.40000000e-009,3.85937453e-004
,,,4.42500000e-009,3.78124952e-004
,,,4.45000000e-009,3.78124952e-004
,,,4.47500000e-009,3.84374953e-004
,,,4.50000000e-009,3.99999954e-004
,,,4.52500000e-009,4.28124956e-004
,,,4.55000000e-009,4.67187459e-004
,,,4.57500000e-009,5.18749962e-004
,,,4.60000000e-009,5.76562466e-004
,,,4.62500000e-009,6.39062471e-004
,,,4.65000000e-009,6.98437475e-004
,,,4.67500000e-009,7.54687479e-004
,,,4.70000000e-009,7.99999982e-004
,,,4.72500000e-009,8.31249984e-004
,,,4.75000000e-009,8.49999986e-004
,,,4.77500000e-009,8.59374986e-004
,,,4.80000000e-009,8.59374986e-004
,,,4.82500000e-009,8.49999986e-004
,,,4.85000000e-009,8.35937485e-004
,,,4.87500000e-009,8.18749983e-004
,,,4.90000000e-009,7.99999982e-004
,,,4.92500000e-009,7.79687481e-004
,,,4.95000000e-009,7.62499979e-004
,,,4.97500000e-009,7.51562479e-004
,,,5.00000000e-009,7.48437478e-004
,,,5.02500000e-009,7.51562479e-004
,,,5.05000000e-009,7.60937479e-004
,,,5.07500000e-009,7.78124981e-004
,,,5.10000000e-009,7.99999982e-004
,,,5.12500000e-009,8.26562484e-004
,,,5.15000000e-009,8.59374986e-004
,,,5.17500000e-009,8.98437489e-004
,,,5.20000000e-009,9.45312492e-004
,,,5.22500000e-009,9.99999996e-004
,,,5.25000000e-009,1.06093750e-003
,,,5.27500000e-009,1.12812501e-003
,,,5.30000000e-009,1.20000001e-003
,,,5.32500000e-009,1.27031252e-003
,,,5.35000000e-009,1.33906252e-003
,,,5.37500000e-009,1.40468752e-003
,,,5.40000000e-009,1.46562503e-003
,,,5.42500000e-009,1.51718753e-003
,,,5.45000000e-009,1.55937504e-003
,,,5.47500000e-009,1.58750004e-003
,,,5.50000000e-009,1.60000004e-003
,,,5.52500000e-009,1.58906254e-003
,,,5.55000000e-009,1.56250004e-003
,,,5.57500000e-009,1.52343753e-003
,,,5.60000000e-009,1.47187503e-003
,,,5.62500000e-009,1.41250003e-003
,,,5.65000000e-009,1.34531252e-003
,,,5.67500000e-009,1.27343752e-003
,,,5.70000000e-009,1.20000001e-003
,,,5.72500000e-009,1.12500001e-003
,,,5.75000000e-009,1.05312500e-003
,,,5.77500000e-009,9.87499995e-004
,,,5.80000000e-009,9.31249991e-004
,,,5.82500000e-009,8.82812488e-004
,,,5.85000000e-009,8.46874985e-004
,,,5.87500000e-009,8.18749983e-004
,,,5.90000000e-009,7.99999982e-004
,,,5.92500000e-009,7.90624981e-004
,,,5.95000000e-009,7.87499981e-004
,,,5.97500000e-009,7.90624981e-004
,,,6.00000000e-009,7.93749982e-004
,,,6.02500000e-009,7.98437482e-004
,,,6.05000000e-009,8.01562482e-004
