RawData/SinglePhotoelectron/L3_2pt2foot_5mV/wave021_Ch4.csv

"Record Length",1000,"Points",-7.72500000e-009,7.48437478e-004
"Sample Interval",2.50000000e-011,s,-7.70000000e-009,7.99999982e-004
"Trigger Point",309,"Samples",-7.67500000e-009,8.42187485e-004
"Trigger Time",2.00000000e-014,s,-7.65000000e-009,8.68749987e-004
"",,,-7.62500000e-009,8.81249988e-004
"Horizontal Offset",-7.72500000e-009,s,-7.60000000e-009,8.79687488e-004
,,,-7.57500000e-009,8.67187487e-004
,,,-7.55000000e-009,8.48437486e-004
,,,-7.52500000e-009,8.24999984e-004
,,,-7.50000000e-009,7.99999982e-004
,,,-7.47500000e-009,7.79687481e-004
,,,-7.45000000e-009,7.64062480e-004
,,,-7.42500000e-009,7.54687479e-004
,,,-7.40000000e-009,7.53124979e-004
,,,-7.37500000e-009,7.57812479e-004
,,,-7.35000000e-009,7.68749980e-004
,,,-7.32500000e-009,7.82812481e-004
,,,-7.30000000e-009,7.99999982e-004
,,,-7.27500000e-009,8.18749983e-004
,,,-7.25000000e-009,8.32812484e-004
,,,-7.22500000e-009,8.43749985e-004
,,,-7.20000000e-009,8.48437486e-004
,,,-7.17500000e-009,8.46874985e-004
,,,-7.15000000e-009,8.37499985e-004
,,,-7.12500000e-009,8.21874984e-004
,,,-7.10000000e-009,7.99999982e-004
,,,-7.07500000e-009,7.81249981e-004
,,,-7.05000000e-009,7.60937479e-004
,,,-7.02500000e-009,7.45312478e-004
,,,-7.00000000e-009,7.35937478e-004
,,,-6.97500000e-009,7.34374977e-004
,,,-6.95000000e-009,7.45312478e-004
,,,-6.92500000e-009,7.67187480e-004
,,,-6.90000000e-009,7.99999982e-004
,,,-6.87500000e-009,8.45312485e-004
,,,-6.85000000e-009,8.96874989e-004
,,,-6.82500000e-009,9.56249993e-004
,,,-6.80000000e-009,1.01718750e-003
,,,-6.77500000e-009,1.07812500e-003
,,,-6.75000000e-009,1.13125001e-003
,,,-6.72500000e-009,1.17343751e-003
,,,-6.70000000e-009,1.20000001e-003
,,,-6.67500000e-009,1.20937501e-003
,,,-6.65000000e-009,1.19843751e-003
,,,-6.62500000e-009,1.16875001e-003
,,,-6.60000000e-009,1.12031250e-003
,,,-6.57500000e-009,1.05468750e-003
,,,-6.55000000e-009,9.76562495e-004
,,,-6.52500000e-009,8.90624989e-004
,,,-6.50000000e-009,7.99999982e-004
,,,-6.47500000e-009,7.17187476e-004
,,,-6.45000000e-009,6.45312471e-004
,,,-6.42500000e-009,5.93749968e-004
,,,-6.40000000e-009,5.70312466e-004
,,,-6.37500000e-009,5.76562466e-004
,,,-6.35000000e-009,6.18749969e-004
,,,-6.32500000e-009,6.93749975e-004
,,,-6.30000000e-009,7.99999982e-004
,,,-6.27500000e-009,9.34374992e-004
,,,-6.25000000e-009,1.08125000e-003
,,,-6.22500000e-009,1.22968751e-003
,,,-6.20000000e-009,1.36875002e-003
,,,-6.17500000e-009,1.48437503e-003
,,,-6.15000000e-009,1.56562504e-003
,,,-6.12500000e-009,1.60625004e-003
,,,-6.10000000e-009,1.60000004e-003
,,,-6.07500000e-009,1.54375003e-003
,,,-6.05000000e-009,1.45000003e-003
,,,-6.02500000e-009,1.32812502e-003
,,,-6.00000000e-009,1.19375001e-003
,,,-5.97500000e-009,1.06093750e-003
,,,-5.95000000e-009,9.43749992e-004
,,,-5.92500000e-009,8.54687486e-004
,,,-5.90000000e-009,7.99999982e-004
,,,-5.87500000e-009,7.89062481e-004
,,,-5.85000000e-009,8.15624983e-004
,,,-5.82500000e-009,8.73437487e-004
,,,-5.80000000e-009,9.51562493e-004
,,,-5.77500000e-009,1.03437500e-003
,,,-5.75000000e-009,1.11250000e-003
,,,-5.72500000e-009,1.17031251e-003
,,,-5.70000000e-009,1.20000001e-003
,,,-5.67500000e-009,1.19843751e-003
,,,-5.65000000e-009,1.16562501e-003
,,,-5.62500000e-009,1.10781250e-003
,,,-5.60000000e-009,1.03281250e-003
,,,-5.57500000e-009,9.54687493e-004
,,,-5.55000000e-009,8.82812488e-004
,,,-5.52500000e-009,8.28124984e-004
,,,-5.50000000e-009,7.99999982e-004
,,,-5.47500000e-009,8.03124982e-004
,,,-5.45000000e-009,8.35937485e-004
,,,-5.42500000e-009,8.92187489e-004
,,,-5.40000000e-009,9.64062494e-004
,,,-5.37500000e-009,1.04062500e-003
,,,-5.35000000e-009,1.11250000e-003
,,,-5.32500000e-009,1.16875001e-003
,,,-5.30000000e-009,1.20000001e-003
,,,-5.27500000e-009,1.20312501e-003
,,,-5.25000000e-009,1.17812501e-003
,,,-5.22500000e-009,1.12968751e-003
,,,-5.20000000e-009,1.06250000e-003
,,,-5.17500000e-009,9.85937495e-004
,,,-5.15000000e-009,9.12499990e-004
,,,-5.12500000e-009,8.46874985e-004
,,,-5.10000000e-009,7.99999982e-004
,,,-5.07500000e-009,7.81249981e-004
,,,-5.05000000e-009,7.87499981e-004
,,,-5.02500000e-009,8.20312484e-004
,,,-5.00000000e-009,8.74999987e-004
,,,-4.97500000e-009,9.46874993e-004
,,,-4.95000000e-009,1.02968750e-003
,,,-4.92500000e-009,1.11718750e-003
,,,-4.90000000e-009,1.20000001e-003
,,,-4.87500000e-009,1.27343752e-003
,,,-4.85000000e-009,1.32812502e-003
,,,-4.82500000e-009,1.36250002e-003
,,,-4.80000000e-009,1.37500002e-003
,,,-4.77500000e-009,1.36250002e-003
,,,-4.75000000e-009,1.32812502e-003
,,,-4.72500000e-009,1.27343752e-003
,,,-4.70000000e-009,1.20000001e-003
,,,-4.67500000e-009,1.11718750e-003
,,,-4.65000000e-009,1.02968750e-003
,,,-4.62500000e-009,9.46874993e-004
,,,-4.60000000e-009,8.74999987e-004
,,,-4.57500000e-009,8.20312484e-004
,,,-4.55000000e-009,7.87499981e-004
,,,-4.52500000e-009,7.81249981e-004
,,,-4.50000000e-009,7.99999982e-004
,,,-4.47500000e-009,8.46874985e-004
,,,-4.45000000e-009,9.12499990e-004
,,,-4.42500000e-009,9.85937495e-004
,,,-4.40000000e-009,1.06250000e-003
,,,-4.37500000e-009,1.12968751e-003
,,,-4.35000000e-009,1.17812501e-003
,,,-4.32500000e-009,1.20312501e-003
,,,-4.30000000e-009,1.20000001e-003
,,,-4.27500000e-009,1.16875001e-003
,,,-4.25000000e-009,1.11250000e-003
,,,-4.22500000e-009,1.04062500e-003
,,,-4.20000000e-009,9.64062494e-004
,,,-4.17500000e-009,8.92187489e-004
,,,-4.15000000e-009,8.35937485e-004
,,,-4.12500000e-009,8.03124982e-004
,,,-4.10000000e-009,7.99999982e-004
,,,-4.07500000e-009,8.29687484e-004
,,,-4.05000000e-009,8.85937488e-004
,,,-4.02500000e-009,9.59374993e-004
,,,-4.00000000e-009,1.04062500e-003
,,,-3.97500000e-009,1.11406250e-003
,,,-3.95000000e-009,1.17187501e-003
,,,-3.92500000e-009,1.20312501e-003
,,,-3.90000000e-009,1.20000001e-003
,,,-3.87500000e-009,1.16406251e-003
,,,-3.85000000e-009,1.09843750e-003
,,,-3.82500000e-009,1.01718750e-003
,,,-3.80000000e-009,9.29687491e-004
,,,-3.77500000e-009,8.51562486e-004
,,,-3.75000000e-009,7.96874982e-004
,,,-3.72500000e-009,7.78124981e-004
,,,-3.70000000e-009,7.99999982e-004
,,,-3.67500000e-009,8.68749987e-004
,,,-3.65000000e-009,9.71874994e-004
,,,-3.62500000e-009,1.10156250e-003
,,,-3.60000000e-009,1.24218751e-003
,,,-3.57500000e-009,1.37656252e-003
,,,-3.55000000e-009,1.49062503e-003
,,,-3.52500000e-009,1.56875004e-003
,,,-3.50000000e-009,1.60000004e-003
,,,-3.47500000e-009,1.57656254e-003
,,,-3.45000000e-009,1.50468753e-003
,,,-3.42500000e-009,1.39687502e-003
,,,-3.40000000e-009,1.26406251e-003
,,,-3.37500000e-009,1.12187500e-003
,,,-3.35000000e-009,9.89062496e-004
,,,-3.32500000e-009,8.78124988e-004
,,,-3.30000000e-009,7.99999982e-004
,,,-3.27500000e-009,7.68749980e-004
,,,-3.25000000e-009,7.78124981e-004
,,,-3.22500000e-009,8.23437484e-004
,,,-3.20000000e-009,8.96874989e-004
,,,-3.17500000e-009,9.82812495e-004
,,,-3.15000000e-009,1.07187500e-003
,,,-3.12500000e-009,1.14687501e-003
,,,-3.10000000e-009,1.20000001e-003
,,,-3.07500000e-009,1.22031251e-003
,,,-3.05000000e-009,1.20937501e-003
,,,-3.02500000e-009,1.16875001e-003
,,,-3.00000000e-009,1.10468750e-003
,,,-2.97500000e-009,1.02656250e-003
,,,-2.95000000e-009,9.43749992e-004
,,,-2.92500000e-009,8.65624987e-004
,,,-2.90000000e-009,7.99999982e-004
,,,-2.87500000e-009,7.54687479e-004
,,,-2.85000000e-009,7.29687477e-004
,,,-2.82500000e-009,7.23437477e-004
,,,-2.80000000e-009,7.31249977e-004
,,,-2.77500000e-009,7.48437478e-004
,,,-2.75000000e-009,7.70312480e-004
,,,-2.72500000e-009,7.89062481e-004
,,,-2.70000000e-009,7.99999982e-004
,,,-2.67500000e-009,8.04687482e-004
,,,-2.65000000e-009,7.99999982e-004
,,,-2.62500000e-009,7.87499981e-004
,,,-2.60000000e-009,7.74999980e-004
,,,-2.57500000e-009,7.65624980e-004
,,,-2.55000000e-009,7.64062480e-004
,,,-2.52500000e-009,7.74999980e-004
,,,-2.50000000e-009,7.99999982e-004
,,,-2.47500000e-009,8.45312485e-004
,,,-2.45000000e-009,9.01562489e-004
,,,-2.42500000e-009,9.67187494e-004
,,,-2.40000000e-009,1.03281250e-003
,,,-2.37500000e-009,1.09531250e-003
,,,-2.35000000e-009,1.14843751e-003
,,,-2.32500000e-009,1.18437501e-003
,,,-2.30000000e-009,1.20000001e-003
,,,-2.27500000e-009,1.19218751e-003
,,,-2.25000000e-009,1.16250001e-003
,,,-2.22500000e-009,1.11562500e-003
,,,-2.20000000e-009,1.05468750e-003
,,,-2.17500000e-009,9.87499995e-004
,,,-2.15000000e-009,9.18749991e-004
,,,-2.12500000e-009,8.54687486e-004
,,,-2.10000000e-009,7.99999982e-004
,,,-2.07500000e-009,7.60937479e-004
,,,-2.05000000e-009,7.35937478e-004
,,,-2.02500000e-009,7.26562477e-004
,,,-2.00000000e-009,7.29687477e-004
,,,-1.97500000e-009,7.40624978e-004
,,,-1.95000000e-009,7.59374979e-004
,,,-1.92500000e-009,7.81249981e-004
,,,-1.90000000e-009,7.99999982e-004
,,,-1.87500000e-009,8.14062483e-004
,,,-1.85000000e-009,8.20312484e-004
,,,-1.82500000e-009,8.21874984e-004
,,,-1.80000000e-009,8.20312484e-004
,,,-1.77500000e-009,8.14062483e-004
,,,-1.75000000e-009,8.07812483e-004
,,,-1.72500000e-009,8.03124982e-004
,,,-1.70000000e-009,7.99999982e-004
,,,-1.67500000e-009,7.93749982e-004
,,,-1.65000000e-009,7.90624981e-004
,,,-1.62500000e-009,7.89062481e-004
,,,-1.60000000e-009,7.89062481e-004
,,,-1.57500000e-009,7.90624981e-004
,,,-1.55000000e-009,7.93749982e-004
,,,-1.52500000e-009,7.98437482e-004
,,,-1.50000000e-009,7.99999982e-004
,,,-1.47500000e-009,7.89062481e-004
,,,-1.45000000e-009,7.76562480e-004
,,,-1.42500000e-009,7.64062480e-004
,,,-1.40000000e-009,7.56249979e-004
,,,-1.37500000e-009,7.53124979e-004
,,,-1.35000000e-009,7.59374979e-004
,,,-1.32500000e-009,7.74999980e-004
,,,-1.30000000e-009,7.99999982e-004
,,,-1.27500000e-009,8.15624983e-004
,,,-1.25000000e-009,8.29687484e-004
,,,-1.22500000e-009,8.43749985e-004
,,,-1.20000000e-009,8.53124986e-004
,,,-1.17500000e-009,8.56249986e-004
,,,-1.15000000e-009,8.49999986e-004
,,,-1.12500000e-009,8.32812484e-004
,,,-1.10000000e-009,7.99999982e-004
,,,-1.07500000e-009,7.29687477e-004
,,,-1.05000000e-009,6.40624971e-004
,,,-1.02500000e-009,5.39062464e-004
,,,-1.00000000e-009,4.29687456e-004
,,,-9.75000000e-010,3.15624948e-004
,,,-9.50000000e-010,2.04687440e-004
,,,-9.25000000e-010,9.84374325e-005
,,,-9.00000000e-010,-7.45058060e-011
,,,-8.75000000e-010,-1.10937582e-004
,,,-8.50000000e-010,-2.18750090e-004
,,,-8.25000000e-010,-3.20312597e-004
,,,-8.00000000e-010,-4.18750104e-004
,,,-7.75000000e-010,-5.12500111e-004
,,,-7.50000000e-010,-6.06250117e-004
,,,-7.25000000e-010,-7.01562624e-004
,,,-7.00000000e-010,-8.00000131e-004
,,,-6.75000000e-010,-9.23437640e-004
,,,-6.50000000e-010,-1.06093765e-003
,,,-6.25000000e-010,-1.20781266e-003
,,,-6.00000000e-010,-1.36406267e-003
,,,-5.75000000e-010,-1.52343768e-003
,,,-5.50000000e-010,-1.68437519e-003
,,,-5.25000000e-010,-1.84375021e-003
,,,-5.00000000e-010,-2.00000022e-003
,,,-4.75000000e-010,-2.16093773e-003
,,,-4.50000000e-010,-2.32031274e-003
,,,-4.25000000e-010,-2.47656275e-003
,,,-4.00000000e-010,-2.62968776e-003
,,,-3.75000000e-010,-2.77968777e-003
,,,-3.50000000e-010,-2.92343778e-003
,,,-3.25000000e-010,-3.06250029e-003
,,,-3.00000000e-010,-3.20000030e-003
,,,-2.75000000e-010,-3.33281281e-003
,,,-2.50000000e-010,-3.47031282e-003
,,,-2.25000000e-010,-3.61406283e-003
,,,-2.00000000e-010,-3.76406284e-003
,,,-1.75000000e-010,-3.91718785e-003
,,,-1.50000000e-010,-4.07656286e-003
,,,-1.25000000e-010,-4.23750037e-003
,,,-1.00000000e-010,-4.40000039e-003
,,,-7.50000000e-011,-4.54531290e-003
,,,-5.00000000e-011,-4.69687541e-003
,,,-2.50000000e-011,-4.85000042e-003
,,,0.00000000e+000,-5.00625043e-003
,,,2.50000000e-011,-5.16093794e-003
,,,5.00000000e-011,-5.31250045e-003
,,,7.50000000e-011,-5.45937546e-003
,,,1.00000000e-010,-5.60000047e-003
,,,1.25000000e-010,-5.70468798e-003
,,,1.50000000e-010,-5.80781299e-003
,,,1.75000000e-010,-5.90781299e-003
,,,2.00000000e-010,-6.00625050e-003
,,,2.25000000e-010,-6.10625051e-003
,,,2.50000000e-010,-6.20468801e-003
,,,2.75000000e-010,-6.30312552e-003
,,,3.00000000e-010,-6.40000053e-003
,,,3.25000000e-010,-6.45625053e-003
,,,3.50000000e-010,-6.51250054e-003
,,,3.75000000e-010,-6.56875054e-003
,,,4.00000000e-010,-6.62343804e-003
,,,4.25000000e-010,-6.67656305e-003
,,,4.50000000e-010,-6.72500055e-003
,,,4.75000000e-010,-6.76718805e-003
,,,5.00000000e-010,-6.80000056e-003
,,,5.25000000e-010,-6.78281305e-003
,,,5.50000000e-010,-6.75468805e-003
,,,5.75000000e-010,-6.71718805e-003
,,,6.00000000e-010,-6.67031305e-003
,,,6.25000000e-010,-6.61406304e-003
,,,6.50000000e-010,-6.55000054e-003
,,,6.75000000e-010,-6.47812553e-003
,,,7.00000000e-010,-6.40000053e-003
,,,7.25000000e-010,-6.28281302e-003
,,,7.50000000e-010,-6.16562551e-003
,,,7.75000000e-010,-6.05156300e-003
,,,8.00000000e-010,-5.94218800e-003
,,,8.25000000e-010,-5.84218799e-003
,,,8.50000000e-010,-5.75156298e-003
,,,8.75000000e-010,-5.67031298e-003
,,,9.00000000e-010,-5.60000047e-003
,,,9.25000000e-010,-5.50937546e-003
,,,9.50000000e-010,-5.42343796e-003
,,,9.75000000e-010,-5.33593795e-003
,,,1.00000000e-009,-5.24531295e-003
,,,1.02500000e-009,-5.14843794e-003
,,,1.05000000e-009,-5.04375043e-003
,,,1.07500000e-009,-4.92656292e-003
,,,1.10000000e-009,-4.80000041e-003
,,,1.12500000e-009,-4.64531290e-003
,,,1.15000000e-009,-4.47968789e-003
,,,1.17500000e-009,-4.30937538e-003
,,,1.20000000e-009,-4.13906287e-003
,,,1.22500000e-009,-3.97812536e-003
,,,1.25000000e-009,-3.83125035e-003
,,,1.27500000e-009,-3.70312534e-003
,,,1.30000000e-009,-3.60000033e-003
,,,1.32500000e-009,-3.51562532e-003
,,,1.35000000e-009,-3.45000032e-003
,,,1.37500000e-009,-3.40000032e-003
,,,1.40000000e-009,-3.35781281e-003
,,,1.42500000e-009,-3.32187531e-003
,,,1.45000000e-009,-3.28750031e-003
,,,1.47500000e-009,-3.24687530e-003
,,,1.50000000e-009,-3.20000030e-003
,,,1.52500000e-009,-3.14062530e-003
,,,1.55000000e-009,-3.06250029e-003
,,,1.57500000e-009,-2.96875028e-003
,,,1.60000000e-009,-2.86093778e-003
,,,1.62500000e-009,-2.74531277e-003
,,,1.65000000e-009,-2.62656276e-003
,,,1.67500000e-009,-2.50937525e-003
,,,1.70000000e-009,-2.40000024e-003
,,,1.72500000e-009,-2.30156274e-003
,,,1.75000000e-009,-2.20781273e-003
,,,1.77500000e-009,-2.11406272e-003
,,,1.80000000e-009,-2.02031272e-003
,,,1.82500000e-009,-1.92187521e-003
,,,1.85000000e-009,-1.82031270e-003
,,,1.87500000e-009,-1.71250020e-003
,,,1.90000000e-009,-1.60000019e-003
,,,1.92500000e-009,-1.49218768e-003
,,,1.95000000e-009,-1.37968767e-003
,,,1.97500000e-009,-1.26250016e-003
,,,2.00000000e-009,-1.14687516e-003
,,,2.02500000e-009,-1.03750015e-003
,,,2.05000000e-009,-9.40625141e-004
,,,2.07500000e-009,-8.59375135e-004
,,,2.10000000e-009,-8.00000131e-004
,,,2.12500000e-009,-7.75000129e-004
,,,2.15000000e-009,-7.67187629e-004
,,,2.17500000e-009,-7.70312629e-004
,,,2.20000000e-009,-7.81250130e-004
,,,2.22500000e-009,-7.93750131e-004
,,,2.25000000e-009,-8.03125131e-004
,,,2.27500000e-009,-8.06250132e-004
,,,2.30000000e-009,-8.00000131e-004
,,,2.32500000e-009,-7.89062630e-004
,,,2.35000000e-009,-7.60937628e-004
,,,2.37500000e-009,-7.17187625e-004
,,,2.40000000e-009,-6.60937621e-004
,,,2.42500000e-009,-5.96875117e-004
,,,2.45000000e-009,-5.28125112e-004
,,,2.47500000e-009,-4.59375107e-004
,,,2.50000000e-009,-4.00000103e-004
,,,2.52500000e-009,-3.62500100e-004
,,,2.55000000e-009,-3.34375098e-004
,,,2.57500000e-009,-3.20312597e-004
,,,2.60000000e-009,-3.15625097e-004
,,,2.62500000e-009,-3.21875097e-004
,,,2.65000000e-009,-3.39062599e-004
,,,2.67500000e-009,-3.65625100e-004
,,,2.70000000e-009,-4.00000103e-004
,,,2.72500000e-009,-4.45312606e-004
,,,2.75000000e-009,-4.92187609e-004
,,,2.77500000e-009,-5.40625113e-004
,,,2.80000000e-009,-5.90625116e-004
,,,2.82500000e-009,-6.42187620e-004
,,,2.85000000e-009,-6.93750124e-004
,,,2.87500000e-009,-7.46875127e-004
,,,2.90000000e-009,-8.00000131e-004
,,,2.92500000e-009,-8.46875134e-004
,,,2.95000000e-009,-8.85937637e-004
,,,2.97500000e-009,-9.14062639e-004
,,,3.00000000e-009,-9.26562640e-004
,,,3.02500000e-009,-9.23437640e-004
,,,3.05000000e-009,-9.00000138e-004
,,,3.07500000e-009,-8.57812635e-004
,,,3.10000000e-009,-8.00000131e-004
,,,3.12500000e-009,-7.23437626e-004
,,,3.15000000e-009,-6.42187620e-004
,,,3.17500000e-009,-5.59375114e-004
,,,3.20000000e-009,-4.85937609e-004
,,,3.22500000e-009,-4.28125105e-004
,,,3.25000000e-009,-3.92187602e-004
,,,3.27500000e-009,-3.81250101e-004
,,,3.30000000e-009,-4.00000103e-004
,,,3.32500000e-009,-4.40625106e-004
,,,3.35000000e-009,-5.01562610e-004
,,,3.37500000e-009,-5.73437615e-004
,,,3.40000000e-009,-6.48437620e-004
,,,3.42500000e-009,-7.17187625e-004
,,,3.45000000e-009,-7.70312629e-004
,,,3.47500000e-009,-8.00000131e-004
,,,3.50000000e-009,-8.00000131e-004
,,,3.52500000e-009,-7.57812628e-004
,,,3.55000000e-009,-6.82812623e-004
,,,3.57500000e-009,-5.84375116e-004
,,,3.60000000e-009,-4.65625107e-004
,,,3.62500000e-009,-3.39062599e-004
,,,3.65000000e-009,-2.12500090e-004
,,,3.67500000e-009,-9.68750814e-005
,,,3.70000000e-009,-7.45058060e-011
,,,3.72500000e-009,7.34374307e-005
,,,3.75000000e-009,1.20312434e-004
,,,3.77500000e-009,1.40624935e-004
,,,3.80000000e-009,1.37499935e-004
,,,3.82500000e-009,1.15624934e-004
,,,3.85000000e-009,8.12499312e-005
,,,3.87500000e-009,4.06249284e-005
,,,3.90000000e-009,-7.45058060e-011
,,,3.92500000e-009,-3.43750769e-005
,,,3.95000000e-009,-5.78125786e-005
,,,3.97500000e-009,-7.03125795e-005
,,,4.00000000e-009,-7.03125795e-005
,,,4.02500000e-009,-6.25000789e-005
,,,4.05000000e-009,-4.53125777e-005
,,,4.07500000e-009,-2.50000763e-005
,,,4.10000000e-009,-7.45058060e-011
,,,4.12500000e-009,2.96874276e-005
,,,4.15000000e-009,6.24999299e-005
,,,4.17500000e-009,9.99999326e-005
,,,4.20000000e-009,1.43749936e-004
,,,4.22500000e-009,1.95312439e-004
,,,4.25000000e-009,2.56249944e-004
,,,4.27500000e-009,3.24999948e-004
,,,4.30000000e-009,3.99999954e-004
,,,4.32500000e-009,4.79687459e-004
,,,4.35000000e-009,5.60937465e-004
,,,4.37500000e-009,6.37499971e-004
,,,4.40000000e-009,7.06249975e-004
,,,4.42500000e-009,7.60937479e-004
,,,4.45000000e-009,7.96874982e-004
,,,4.47500000e-009,8.10937483e-004
,,,4.50000000e-009,7.99999982e-004
,,,4.52500000e-009,7.62499979e-004
,,,4.55000000e-009,7.09374976e-004
,,,4.57500000e-009,6.45312471e-004
,,,4.60000000e-009,5.76562466e-004
,,,4.62500000e-009,5.12499962e-004
,,,4.65000000e-009,4.57812458e-004
,,,4.67500000e-009,4.18749955e-004
,,,4.70000000e-009,3.99999954e-004
,,,4.72500000e-009,4.06249954e-004
,,,4.75000000e-009,4.35937456e-004
,,,4.77500000e-009,4.82812460e-004
,,,4.80000000e-009,5.43749964e-004
,,,4.82500000e-009,6.12499969e-004
,,,4.85000000e-009,6.82812474e-004
,,,4.87500000e-009,7.46874978e-004
,,,4.90000000e-009,7.99999982e-004
,,,4.92500000e-009,8.35937485e-004
,,,4.95000000e-009,8.57812486e-004
,,,4.97500000e-009,8.64062487e-004
,,,5.00000000e-009,8.59374986e-004
,,,5.02500000e-009,8.46874985e-004
,,,5.05000000e-009,8.29687484e-004
,,,5.07500000e-009,8.14062483e-004
,,,5.10000000e-009,7.99999982e-004
,,,5.12500000e-009,7.93749982e-004
,,,5.15000000e-009,7.93749982e-004
,,,5.17500000e-009,7.99999982e-004
,,,5.20000000e-009,8.07812483e-004
,,,5.22500000e-009,8.14062483e-004
,,,5.25000000e-009,8.17187483e-004
,,,5.27500000e-009,8.12499983e-004
,,,5.30000000e-009,7.99999982e-004
,,,5.32500000e-009,7.79687481e-004
,,,5.35000000e-009,7.54687479e-004
,,,5.37500000e-009,7.31249977e-004
,,,5.40000000e-009,7.14062476e-004
,,,5.42500000e-009,7.07812476e-004
,,,5.45000000e-009,7.18749976e-004
,,,5.47500000e-009,7.49999979e-004
,,,5.50000000e-009,7.99999982e-004
,,,5.52500000e-009,8.70312487e-004
,,,5.55000000e-009,9.51562493e-004
,,,5.57500000e-009,1.03593750e-003
,,,5.60000000e-009,1.11406250e-003
,,,5.62500000e-009,1.17656251e-003
,,,5.65000000e-009,1.21406251e-003
,,,5.67500000e-009,1.22343751e-003
,,,5.70000000e-009,1.20000001e-003
,,,5.72500000e-009,1.14531251e-003
,,,5.75000000e-009,1.06875000e-003
,,,5.77500000e-009,9.82812495e-004
,,,5.80000000e-009,8.96874989e-004
,,,5.82500000e-009,8.24999984e-004
,,,5.85000000e-009,7.79687481e-004
,,,5.87500000e-009,7.70312480e-004
,,,5.90000000e-009,7.99999982e-004
,,,5.92500000e-009,8.74999987e-004
,,,5.95000000e-009,9.84374995e-004
,,,5.97500000e-009,1.11562500e-003
,,,6.00000000e-009,1.25468751e-003
,,,6.02500000e-009,1.38750002e-003
,,,6.05000000e-009,1.49843753e-003
