RawData/SinglePhotoelectron/L3_2pt2foot_5mV/wave020_Ch4.csv

"Record Length",1000,"Points",-7.72500000e-009,-2.65625764e-005
"Sample Interval",2.50000000e-011,s,-7.70000000e-009,-7.45058060e-011
"Trigger Point",309,"Samples",-7.67500000e-009,1.56242560e-006
"Trigger Time",1.99945763e-011,s,-7.65000000e-009,-1.71875757e-005
"",,,-7.62500000e-009,-5.62500785e-005
"Horizontal Offset",-7.72500000e-009,s,-7.60000000e-009,-1.10937582e-004
,,,-7.57500000e-009,-1.78125087e-004
,,,-7.55000000e-009,-2.51562592e-004
,,,-7.52500000e-009,-3.28125098e-004
,,,-7.50000000e-009,-4.00000103e-004
,,,-7.47500000e-009,-4.62500107e-004
,,,-7.45000000e-009,-5.10937611e-004
,,,-7.42500000e-009,-5.40625113e-004
,,,-7.40000000e-009,-5.50000113e-004
,,,-7.37500000e-009,-5.39062613e-004
,,,-7.35000000e-009,-5.07812610e-004
,,,-7.32500000e-009,-4.60937607e-004
,,,-7.30000000e-009,-4.00000103e-004
,,,-7.27500000e-009,-3.28125098e-004
,,,-7.25000000e-009,-2.53125092e-004
,,,-7.22500000e-009,-1.79687587e-004
,,,-7.20000000e-009,-1.12500082e-004
,,,-7.17500000e-009,-5.78125786e-005
,,,-7.15000000e-009,-1.87500758e-005
,,,-7.12500000e-009,1.56242560e-006
,,,-7.10000000e-009,-7.45058060e-011
,,,-7.07500000e-009,-2.34375762e-005
,,,-7.05000000e-009,-6.56250792e-005
,,,-7.02500000e-009,-1.20312583e-004
,,,-7.00000000e-009,-1.82812587e-004
,,,-6.97500000e-009,-2.46875092e-004
,,,-6.95000000e-009,-3.06250096e-004
,,,-6.92500000e-009,-3.59375100e-004
,,,-6.90000000e-009,-4.00000103e-004
,,,-6.87500000e-009,-4.21875104e-004
,,,-6.85000000e-009,-4.31250105e-004
,,,-6.82500000e-009,-4.28125105e-004
,,,-6.80000000e-009,-4.18750104e-004
,,,-6.77500000e-009,-4.06250103e-004
,,,-6.75000000e-009,-3.96875103e-004
,,,-6.72500000e-009,-3.93750102e-004
,,,-6.70000000e-009,-4.00000103e-004
,,,-6.67500000e-009,-4.09375103e-004
,,,-6.65000000e-009,-4.26562605e-004
,,,-6.62500000e-009,-4.45312606e-004
,,,-6.60000000e-009,-4.62500107e-004
,,,-6.57500000e-009,-4.70312608e-004
,,,-6.55000000e-009,-4.64062607e-004
,,,-6.52500000e-009,-4.40625106e-004
,,,-6.50000000e-009,-4.00000103e-004
,,,-6.47500000e-009,-3.37500098e-004
,,,-6.45000000e-009,-2.64062593e-004
,,,-6.42500000e-009,-1.85937588e-004
,,,-6.40000000e-009,-1.10937582e-004
,,,-6.37500000e-009,-4.68750778e-005
,,,-6.35000000e-009,-3.12507473e-006
,,,-6.32500000e-009,1.24999264e-005
,,,-6.30000000e-009,-7.45058060e-011
,,,-6.27500000e-009,-4.06250774e-005
,,,-6.25000000e-009,-1.06250082e-004
,,,-6.22500000e-009,-1.82812587e-004
,,,-6.20000000e-009,-2.64062593e-004
,,,-6.17500000e-009,-3.35937598e-004
,,,-6.15000000e-009,-3.87500102e-004
,,,-6.12500000e-009,-4.10937604e-004
,,,-6.10000000e-009,-4.00000103e-004
,,,-6.07500000e-009,-3.45312599e-004
,,,-6.05000000e-009,-2.57812593e-004
,,,-6.02500000e-009,-1.43750085e-004
,,,-6.00000000e-009,-1.71875757e-005
,,,-5.97500000e-009,1.14062434e-004
,,,-5.95000000e-009,2.34374942e-004
,,,-5.92500000e-009,3.32812449e-004
,,,-5.90000000e-009,3.99999954e-004
,,,-5.87500000e-009,4.26562456e-004
,,,-5.85000000e-009,4.15624955e-004
,,,-5.82500000e-009,3.73437452e-004
,,,-5.80000000e-009,3.06249947e-004
,,,-5.77500000e-009,2.26562442e-004
,,,-5.75000000e-009,1.42187436e-004
,,,-5.72500000e-009,6.40624300e-005
,,,-5.70000000e-009,-7.45058060e-011
,,,-5.67500000e-009,-4.37500776e-005
,,,-5.65000000e-009,-6.56250792e-005
,,,-5.62500000e-009,-6.71875793e-005
,,,-5.60000000e-009,-5.62500785e-005
,,,-5.57500000e-009,-3.59375770e-005
,,,-5.55000000e-009,-1.71875757e-005
,,,-5.52500000e-009,-3.12507473e-006
,,,-5.50000000e-009,-7.45058060e-011
,,,-5.47500000e-009,-9.37507517e-006
,,,-5.45000000e-009,-2.81250765e-005
,,,-5.42500000e-009,-5.00000780e-005
,,,-5.40000000e-009,-7.03125795e-005
,,,-5.37500000e-009,-8.12500803e-005
,,,-5.35000000e-009,-7.65625799e-005
,,,-5.32500000e-009,-5.00000780e-005
,,,-5.30000000e-009,-7.45058060e-011
,,,-5.27500000e-009,7.34374307e-005
,,,-5.25000000e-009,1.60937437e-004
,,,-5.22500000e-009,2.51562443e-004
,,,-5.20000000e-009,3.37499949e-004
,,,-5.17500000e-009,4.04687454e-004
,,,-5.15000000e-009,4.42187457e-004
,,,-5.12500000e-009,4.42187457e-004
,,,-5.10000000e-009,3.99999954e-004
,,,-5.07500000e-009,3.17187448e-004
,,,-5.05000000e-009,2.01562440e-004
,,,-5.02500000e-009,6.71874302e-005
,,,-5.00000000e-009,-7.34375797e-005
,,,-4.97500000e-009,-2.03125089e-004
,,,-4.95000000e-009,-3.07812596e-004
,,,-4.92500000e-009,-3.76562601e-004
,,,-4.90000000e-009,-4.00000103e-004
,,,-4.87500000e-009,-3.67187600e-004
,,,-4.85000000e-009,-2.90625095e-004
,,,-4.82500000e-009,-1.79687587e-004
,,,-4.80000000e-009,-4.68750778e-005
,,,-4.77500000e-009,9.21874320e-005
,,,-4.75000000e-009,2.21874941e-004
,,,-4.72500000e-009,3.28124949e-004
,,,-4.70000000e-009,3.99999954e-004
,,,-4.67500000e-009,4.32812456e-004
,,,-4.65000000e-009,4.24999956e-004
,,,-4.62500000e-009,3.82812453e-004
,,,-4.60000000e-009,3.12499948e-004
,,,-4.57500000e-009,2.26562442e-004
,,,-4.55000000e-009,1.37499935e-004
,,,-4.52500000e-009,5.93749297e-005
,,,-4.50000000e-009,-7.45058060e-011
,,,-4.47500000e-009,-2.65625764e-005
,,,-4.45000000e-009,-2.18750761e-005
,,,-4.42500000e-009,1.24999264e-005
,,,-4.40000000e-009,7.34374307e-005
,,,-4.37500000e-009,1.49999936e-004
,,,-4.35000000e-009,2.37499942e-004
,,,-4.32500000e-009,3.23437448e-004
,,,-4.30000000e-009,3.99999954e-004
,,,-4.27500000e-009,4.62499958e-004
,,,-4.25000000e-009,5.04687461e-004
,,,-4.22500000e-009,5.26562463e-004
,,,-4.20000000e-009,5.26562463e-004
,,,-4.17500000e-009,5.10937462e-004
,,,-4.15000000e-009,4.81249960e-004
,,,-4.12500000e-009,4.42187457e-004
,,,-4.10000000e-009,3.99999954e-004
,,,-4.07500000e-009,3.65624951e-004
,,,-4.05000000e-009,3.37499949e-004
,,,-4.02500000e-009,3.20312448e-004
,,,-4.00000000e-009,3.14062448e-004
,,,-3.97500000e-009,3.18749948e-004
,,,-3.95000000e-009,3.35937449e-004
,,,-3.92500000e-009,3.64062451e-004
,,,-3.90000000e-009,3.99999954e-004
,,,-3.87500000e-009,4.43749957e-004
,,,-3.85000000e-009,4.92187460e-004
,,,-3.82500000e-009,5.45312464e-004
,,,-3.80000000e-009,5.99999968e-004
,,,-3.77500000e-009,6.56249972e-004
,,,-3.75000000e-009,7.09374976e-004
,,,-3.72500000e-009,7.57812479e-004
,,,-3.70000000e-009,7.99999982e-004
,,,-3.67500000e-009,8.35937485e-004
,,,-3.65000000e-009,8.60937486e-004
,,,-3.62500000e-009,8.76562488e-004
,,,-3.60000000e-009,8.81249988e-004
,,,-3.57500000e-009,8.74999987e-004
,,,-3.55000000e-009,8.57812486e-004
,,,-3.52500000e-009,8.32812484e-004
,,,-3.50000000e-009,7.99999982e-004
,,,-3.47500000e-009,7.64062480e-004
,,,-3.45000000e-009,7.29687477e-004
,,,-3.42500000e-009,7.03124975e-004
,,,-3.40000000e-009,6.89062474e-004
,,,-3.37500000e-009,6.90624974e-004
,,,-3.35000000e-009,7.09374976e-004
,,,-3.32500000e-009,7.46874978e-004
,,,-3.30000000e-009,7.99999982e-004
,,,-3.27500000e-009,8.68749987e-004
,,,-3.25000000e-009,9.45312492e-004
,,,-3.22500000e-009,1.02343750e-003
,,,-3.20000000e-009,1.09687500e-003
,,,-3.17500000e-009,1.15625001e-003
,,,-3.15000000e-009,1.19531251e-003
,,,-3.12500000e-009,1.21093751e-003
,,,-3.10000000e-009,1.20000001e-003
,,,-3.07500000e-009,1.16093751e-003
,,,-3.05000000e-009,1.10000000e-003
,,,-3.02500000e-009,1.02968750e-003
,,,-3.00000000e-009,9.54687493e-004
,,,-2.97500000e-009,8.87499988e-004
,,,-2.95000000e-009,8.34374985e-004
,,,-2.92500000e-009,8.04687482e-004
,,,-2.90000000e-009,7.99999982e-004
,,,-2.87500000e-009,8.24999984e-004
,,,-2.85000000e-009,8.74999987e-004
,,,-2.82500000e-009,9.40624992e-004
,,,-2.80000000e-009,1.01562500e-003
,,,-2.77500000e-009,1.08906250e-003
,,,-2.75000000e-009,1.15000001e-003
,,,-2.72500000e-009,1.18906251e-003
,,,-2.70000000e-009,1.20000001e-003
,,,-2.67500000e-009,1.17812501e-003
,,,-2.65000000e-009,1.13125001e-003
,,,-2.62500000e-009,1.06406250e-003
,,,-2.60000000e-009,9.87499995e-004
,,,-2.57500000e-009,9.12499990e-004
,,,-2.55000000e-009,8.51562486e-004
,,,-2.52500000e-009,8.12499983e-004
,,,-2.50000000e-009,7.99999982e-004
,,,-2.47500000e-009,8.20312484e-004
,,,-2.45000000e-009,8.65624987e-004
,,,-2.42500000e-009,9.32812492e-004
,,,-2.40000000e-009,1.00937500e-003
,,,-2.37500000e-009,1.08437500e-003
,,,-2.35000000e-009,1.14687501e-003
,,,-2.32500000e-009,1.18906251e-003
,,,-2.30000000e-009,1.20000001e-003
,,,-2.27500000e-009,1.17656251e-003
,,,-2.25000000e-009,1.12656251e-003
,,,-2.22500000e-009,1.05625000e-003
,,,-2.20000000e-009,9.76562495e-004
,,,-2.17500000e-009,9.01562489e-004
,,,-2.15000000e-009,8.40624985e-004
,,,-2.12500000e-009,8.04687482e-004
,,,-2.10000000e-009,7.99999982e-004
,,,-2.07500000e-009,8.31249984e-004
,,,-2.05000000e-009,8.87499988e-004
,,,-2.02500000e-009,9.64062494e-004
,,,-2.00000000e-009,1.04843750e-003
,,,-1.97500000e-009,1.12656251e-003
,,,-1.95000000e-009,1.18437501e-003
,,,-1.92500000e-009,1.21093751e-003
,,,-1.90000000e-009,1.20000001e-003
,,,-1.87500000e-009,1.14687501e-003
,,,-1.85000000e-009,1.05625000e-003
,,,-1.82500000e-009,9.39062492e-004
,,,-1.80000000e-009,8.07812483e-004
,,,-1.77500000e-009,6.74999973e-004
,,,-1.75000000e-009,5.54687465e-004
,,,-1.72500000e-009,4.60937458e-004
,,,-1.70000000e-009,3.99999954e-004
,,,-1.67500000e-009,3.82812453e-004
,,,-1.65000000e-009,4.01562454e-004
,,,-1.62500000e-009,4.51562457e-004
,,,-1.60000000e-009,5.23437463e-004
,,,-1.57500000e-009,6.07812469e-004
,,,-1.55000000e-009,6.89062474e-004
,,,-1.52500000e-009,7.56249979e-004
,,,-1.50000000e-009,7.99999982e-004
,,,-1.47500000e-009,8.07812483e-004
,,,-1.45000000e-009,7.82812481e-004
,,,-1.42500000e-009,7.31249977e-004
,,,-1.40000000e-009,6.60937472e-004
,,,-1.37500000e-009,5.81249967e-004
,,,-1.35000000e-009,5.06249961e-004
,,,-1.32500000e-009,4.42187457e-004
,,,-1.30000000e-009,3.99999954e-004
,,,-1.27500000e-009,3.76562452e-004
,,,-1.25000000e-009,3.79687452e-004
,,,-1.22500000e-009,4.09374954e-004
,,,-1.20000000e-009,4.62499958e-004
,,,-1.17500000e-009,5.34374963e-004
,,,-1.15000000e-009,6.20312469e-004
,,,-1.12500000e-009,7.10937476e-004
,,,-1.10000000e-009,7.99999982e-004
,,,-1.07500000e-009,8.54687486e-004
,,,-1.05000000e-009,8.92187489e-004
,,,-1.02500000e-009,9.09374990e-004
,,,-1.00000000e-009,9.09374990e-004
,,,-9.75000000e-010,8.95312489e-004
,,,-9.50000000e-010,8.71874987e-004
,,,-9.25000000e-010,8.39062485e-004
,,,-9.00000000e-010,7.99999982e-004
,,,-8.75000000e-010,7.24999977e-004
,,,-8.50000000e-010,6.40624971e-004
,,,-8.25000000e-010,5.46874964e-004
,,,-8.00000000e-010,4.48437457e-004
,,,-7.75000000e-010,3.42187450e-004
,,,-7.50000000e-010,2.32812442e-004
,,,-7.25000000e-010,1.18749934e-004
,,,-7.00000000e-010,-7.45058060e-011
,,,-6.75000000e-010,-1.57812586e-004
,,,-6.50000000e-010,-3.23437597e-004
,,,-6.25000000e-010,-4.92187609e-004
,,,-6.00000000e-010,-6.56250121e-004
,,,-5.75000000e-010,-8.12500132e-004
,,,-5.50000000e-010,-9.56250142e-004
,,,-5.25000000e-010,-1.08437515e-003
,,,-5.00000000e-010,-1.20000016e-003
,,,-4.75000000e-010,-1.32968767e-003
,,,-4.50000000e-010,-1.45937518e-003
,,,-4.25000000e-010,-1.59218769e-003
,,,-4.00000000e-010,-1.72968770e-003
,,,-3.75000000e-010,-1.87656271e-003
,,,-3.50000000e-010,-2.03593772e-003
,,,-3.25000000e-010,-2.20937523e-003
,,,-3.00000000e-010,-2.40000024e-003
,,,-2.75000000e-010,-2.63125026e-003
,,,-2.50000000e-010,-2.88281278e-003
,,,-2.25000000e-010,-3.14843780e-003
,,,-2.00000000e-010,-3.42031282e-003
,,,-1.75000000e-010,-3.68750034e-003
,,,-1.50000000e-010,-3.94375035e-003
,,,-1.25000000e-010,-4.18281287e-003
,,,-1.00000000e-010,-4.40000039e-003
,,,-7.50000000e-011,-4.59843790e-003
,,,-5.00000000e-011,-4.78750041e-003
,,,-2.50000000e-011,-4.97031293e-003
,,,0.00000000e+000,-5.15468794e-003
,,,2.50000000e-011,-5.34531295e-003
,,,5.00000000e-011,-5.54687547e-003
,,,7.50000000e-011,-5.76406298e-003
,,,1.00000000e-010,-6.00000050e-003
,,,1.25000000e-010,-6.24375052e-003
,,,1.50000000e-010,-6.50781304e-003
,,,1.75000000e-010,-6.78593805e-003
,,,2.00000000e-010,-7.06718807e-003
,,,2.25000000e-010,-7.33906309e-003
,,,2.50000000e-010,-7.59218811e-003
,,,2.75000000e-010,-7.81406313e-003
,,,3.00000000e-010,-8.00000064e-003
,,,3.25000000e-010,-8.12343815e-003
,,,3.50000000e-010,-8.22187566e-003
,,,3.75000000e-010,-8.30468816e-003
,,,4.00000000e-010,-8.38125067e-003
,,,4.25000000e-010,-8.46093817e-003
,,,4.50000000e-010,-8.55312568e-003
,,,4.75000000e-010,-8.66406319e-003
,,,5.00000000e-010,-8.80000070e-003
,,,5.25000000e-010,-8.92500071e-003
,,,5.50000000e-010,-9.07812572e-003
,,,5.75000000e-010,-9.25156323e-003
,,,6.00000000e-010,-9.43437574e-003
,,,6.25000000e-010,-9.61250075e-003
,,,6.50000000e-010,-9.77500077e-003
,,,6.75000000e-010,-9.90625078e-003
,,,7.00000000e-010,-1.00000008e-002
,,,7.25000000e-010,-1.00062508e-002
,,,7.50000000e-010,-9.97968828e-003
,,,7.75000000e-010,-9.92343828e-003
,,,8.00000000e-010,-9.85000077e-003
,,,8.25000000e-010,-9.77031327e-003
,,,8.50000000e-010,-9.69531326e-003
,,,8.75000000e-010,-9.63593826e-003
,,,9.00000000e-010,-9.60000075e-003
,,,9.25000000e-010,-9.55625075e-003
,,,9.50000000e-010,-9.54843825e-003
,,,9.75000000e-010,-9.57656325e-003
,,,1.00000000e-009,-9.63437576e-003
,,,1.02500000e-009,-9.71562576e-003
,,,1.05000000e-009,-9.81093827e-003
,,,1.07500000e-009,-9.90937578e-003
,,,1.10000000e-009,-1.00000008e-002
,,,1.12500000e-009,-1.00343758e-002
,,,1.15000000e-009,-1.00453133e-002
,,,1.17500000e-009,-1.00312508e-002
,,,1.20000000e-009,-9.99062578e-003
,,,1.22500000e-009,-9.92343828e-003
,,,1.25000000e-009,-9.83437577e-003
,,,1.27500000e-009,-9.72500076e-003
,,,1.30000000e-009,-9.60000075e-003
,,,1.32500000e-009,-9.43437574e-003
,,,1.35000000e-009,-9.26250073e-003
,,,1.37500000e-009,-9.09062572e-003
,,,1.40000000e-009,-8.92500071e-003
,,,1.42500000e-009,-8.77031320e-003
,,,1.45000000e-009,-8.63125069e-003
,,,1.47500000e-009,-8.50781318e-003
,,,1.50000000e-009,-8.40000067e-003
,,,1.52500000e-009,-8.28437566e-003
,,,1.55000000e-009,-8.17968815e-003
,,,1.57500000e-009,-8.08125065e-003
,,,1.60000000e-009,-7.98750064e-003
,,,1.62500000e-009,-7.89531313e-003
,,,1.65000000e-009,-7.80156313e-003
,,,1.67500000e-009,-7.70312562e-003
,,,1.70000000e-009,-7.60000061e-003
,,,1.72500000e-009,-7.47500060e-003
,,,1.75000000e-009,-7.33593809e-003
,,,1.77500000e-009,-7.18593808e-003
,,,1.80000000e-009,-7.02656307e-003
,,,1.82500000e-009,-6.86406306e-003
,,,1.85000000e-009,-6.70156305e-003
,,,1.87500000e-009,-6.54531304e-003
,,,1.90000000e-009,-6.40000053e-003
,,,1.92500000e-009,-6.26093802e-003
,,,1.95000000e-009,-6.13281301e-003
,,,1.97500000e-009,-6.01562550e-003
,,,2.00000000e-009,-5.91093799e-003
,,,2.02500000e-009,-5.81718799e-003
,,,2.05000000e-009,-5.73593798e-003
,,,2.07500000e-009,-5.66406298e-003
,,,2.10000000e-009,-5.60000047e-003
,,,2.12500000e-009,-5.53906297e-003
,,,2.15000000e-009,-5.47187546e-003
,,,2.17500000e-009,-5.39218796e-003
,,,2.20000000e-009,-5.30000045e-003
,,,2.22500000e-009,-5.19375044e-003
,,,2.25000000e-009,-5.07500043e-003
,,,2.27500000e-009,-4.94218792e-003
,,,2.30000000e-009,-4.80000041e-003
,,,2.32500000e-009,-4.65312540e-003
,,,2.35000000e-009,-4.49531289e-003
,,,2.37500000e-009,-4.33125038e-003
,,,2.40000000e-009,-4.16562537e-003
,,,2.42500000e-009,-4.00312536e-003
,,,2.45000000e-009,-3.85156285e-003
,,,2.47500000e-009,-3.71562534e-003
,,,2.50000000e-009,-3.60000033e-003
,,,2.52500000e-009,-3.51406282e-003
,,,2.55000000e-009,-3.44375032e-003
,,,2.57500000e-009,-3.38750031e-003
,,,2.60000000e-009,-3.33906281e-003
,,,2.62500000e-009,-3.30000031e-003
,,,2.65000000e-009,-3.26562531e-003
,,,2.67500000e-009,-3.23281280e-003
,,,2.70000000e-009,-3.20000030e-003
,,,2.72500000e-009,-3.17187530e-003
,,,2.75000000e-009,-3.13281280e-003
,,,2.77500000e-009,-3.08593779e-003
,,,2.80000000e-009,-3.02968779e-003
,,,2.82500000e-009,-2.97031278e-003
,,,2.85000000e-009,-2.91093778e-003
,,,2.87500000e-009,-2.85312528e-003
,,,2.90000000e-009,-2.80000027e-003
,,,2.92500000e-009,-2.75625027e-003
,,,2.95000000e-009,-2.71250027e-003
,,,2.97500000e-009,-2.66875026e-003
,,,3.00000000e-009,-2.62187526e-003
,,,3.02500000e-009,-2.57187526e-003
,,,3.05000000e-009,-2.51875025e-003
,,,3.07500000e-009,-2.46093775e-003
,,,3.10000000e-009,-2.40000024e-003
,,,3.12500000e-009,-2.34062524e-003
,,,3.15000000e-009,-2.27656274e-003
,,,3.17500000e-009,-2.21093773e-003
,,,3.20000000e-009,-2.14843773e-003
,,,3.22500000e-009,-2.09218772e-003
,,,3.25000000e-009,-2.04687522e-003
,,,3.27500000e-009,-2.01562522e-003
,,,3.30000000e-009,-2.00000022e-003
,,,3.32500000e-009,-2.00312522e-003
,,,3.35000000e-009,-2.01562522e-003
,,,3.37500000e-009,-2.03125022e-003
,,,3.40000000e-009,-2.04531272e-003
,,,3.42500000e-009,-2.05312522e-003
,,,3.45000000e-009,-2.05156272e-003
,,,3.47500000e-009,-2.03437522e-003
,,,3.50000000e-009,-2.00000022e-003
,,,3.52500000e-009,-1.94218771e-003
,,,3.55000000e-009,-1.86250021e-003
,,,3.57500000e-009,-1.76562520e-003
,,,3.60000000e-009,-1.65625019e-003
,,,3.62500000e-009,-1.53750018e-003
,,,3.65000000e-009,-1.41875017e-003
,,,3.67500000e-009,-1.30468767e-003
,,,3.70000000e-009,-1.20000016e-003
,,,3.72500000e-009,-1.10937515e-003
,,,3.75000000e-009,-1.03437515e-003
,,,3.77500000e-009,-9.70312643e-004
,,,3.80000000e-009,-9.18750140e-004
,,,3.82500000e-009,-8.78125137e-004
,,,3.85000000e-009,-8.45312634e-004
,,,3.87500000e-009,-8.20312633e-004
,,,3.90000000e-009,-8.00000131e-004
,,,3.92500000e-009,-7.85937630e-004
,,,3.95000000e-009,-7.75000129e-004
,,,3.97500000e-009,-7.65625129e-004
,,,4.00000000e-009,-7.57812628e-004
,,,4.02500000e-009,-7.56250128e-004
,,,4.05000000e-009,-7.62500128e-004
,,,4.07500000e-009,-7.76562629e-004
,,,4.10000000e-009,-8.00000131e-004
,,,4.12500000e-009,-8.28125133e-004
,,,4.15000000e-009,-8.56250135e-004
,,,4.17500000e-009,-8.79687637e-004
,,,4.20000000e-009,-8.95312638e-004
,,,4.22500000e-009,-8.96875138e-004
,,,4.25000000e-009,-8.84375137e-004
,,,4.27500000e-009,-8.51562635e-004
,,,4.30000000e-009,-8.00000131e-004
,,,4.32500000e-009,-7.26562626e-004
,,,4.35000000e-009,-6.34375119e-004
,,,4.37500000e-009,-5.28125112e-004
,,,4.40000000e-009,-4.12500104e-004
,,,4.42500000e-009,-2.95312595e-004
,,,4.45000000e-009,-1.84375088e-004
,,,4.47500000e-009,-8.28125804e-005
,,,4.50000000e-009,-7.45058060e-011
,,,4.52500000e-009,5.78124296e-005
,,,4.55000000e-009,9.53124322e-005
,,,4.57500000e-009,1.14062434e-004
,,,4.60000000e-009,1.14062434e-004
,,,4.62500000e-009,9.84374325e-005
,,,4.65000000e-009,7.18749306e-005
,,,4.67500000e-009,3.74999281e-005
,,,4.70000000e-009,-7.45058060e-011
,,,4.72500000e-009,-3.59375770e-005
,,,4.75000000e-009,-6.40625790e-005
,,,4.77500000e-009,-8.12500803e-005
,,,4.80000000e-009,-8.75000807e-005
,,,4.82500000e-009,-8.28125804e-005
,,,4.85000000e-009,-6.56250792e-005
,,,4.87500000e-009,-3.59375770e-005
,,,4.90000000e-009,-7.45058060e-011
,,,4.92500000e-009,4.84374289e-005
,,,4.95000000e-009,1.01562433e-004
,,,4.97500000e-009,1.57812437e-004
,,,5.00000000e-009,2.15624941e-004
,,,5.02500000e-009,2.71874945e-004
,,,5.05000000e-009,3.21874948e-004
,,,5.07500000e-009,3.65624951e-004
,,,5.10000000e-009,3.99999954e-004
,,,5.12500000e-009,4.23437455e-004
,,,5.15000000e-009,4.37499956e-004
,,,5.17500000e-009,4.43749957e-004
,,,5.20000000e-009,4.43749957e-004
,,,5.22500000e-009,4.37499956e-004
,,,5.25000000e-009,4.28124956e-004
,,,5.27500000e-009,4.14062455e-004
,,,5.30000000e-009,3.99999954e-004
,,,5.32500000e-009,3.84374953e-004
,,,5.35000000e-009,3.71874952e-004
,,,5.37500000e-009,3.64062451e-004
,,,5.40000000e-009,3.60937451e-004
,,,5.42500000e-009,3.64062451e-004
,,,5.45000000e-009,3.71874952e-004
,,,5.47500000e-009,3.82812453e-004
,,,5.50000000e-009,3.99999954e-004
,,,5.52500000e-009,4.23437455e-004
,,,5.55000000e-009,4.54687458e-004
,,,5.57500000e-009,4.92187460e-004
,,,5.60000000e-009,5.37499964e-004
,,,5.62500000e-009,5.92187467e-004
,,,5.65000000e-009,6.54687472e-004
,,,5.67500000e-009,7.24999977e-004
,,,5.70000000e-009,7.99999982e-004
,,,5.72500000e-009,8.76562488e-004
,,,5.75000000e-009,9.53124993e-004
,,,5.77500000e-009,1.02500000e-003
,,,5.80000000e-009,1.08906250e-003
,,,5.82500000e-009,1.14218751e-003
,,,5.85000000e-009,1.17968751e-003
,,,5.87500000e-009,1.20000001e-003
,,,5.90000000e-009,1.20000001e-003
,,,5.92500000e-009,1.17812501e-003
,,,5.95000000e-009,1.14062501e-003
,,,5.97500000e-009,1.08906250e-003
