RawData/SinglePhotoelectron/L3_2pt2foot_5mV/wave000_Ch4.csv

"Record Length",1000,"Points",-7.72500000e-009,1.29843752e-003
"Sample Interval",2.50000000e-011,s,-7.70000000e-009,1.29843752e-003
"Trigger Point",309,"Samples",-7.67500000e-009,1.28281252e-003
"Trigger Time",2.25129252e-012,s,-7.65000000e-009,1.25000001e-003
"",,,-7.62500000e-009,1.20000001e-003
"Horizontal Offset",-7.72500000e-009,s,-7.60000000e-009,1.13750001e-003
,,,-7.57500000e-009,1.06562500e-003
,,,-7.55000000e-009,9.90624996e-004
,,,-7.52500000e-009,9.20312491e-004
,,,-7.50000000e-009,8.60937486e-004
,,,-7.47500000e-009,8.18749983e-004
,,,-7.45000000e-009,7.98437482e-004
,,,-7.42500000e-009,7.99999982e-004
,,,-7.40000000e-009,8.31249984e-004
,,,-7.37500000e-009,8.81249988e-004
,,,-7.35000000e-009,9.45312492e-004
,,,-7.32500000e-009,1.01406250e-003
,,,-7.30000000e-009,1.08125000e-003
,,,-7.27500000e-009,1.13906251e-003
,,,-7.25000000e-009,1.18125001e-003
,,,-7.22500000e-009,1.20000001e-003
,,,-7.20000000e-009,1.19843751e-003
,,,-7.17500000e-009,1.17187501e-003
,,,-7.15000000e-009,1.12656251e-003
,,,-7.12500000e-009,1.06406250e-003
,,,-7.10000000e-009,9.93749996e-004
,,,-7.07500000e-009,9.21874991e-004
,,,-7.05000000e-009,8.56249986e-004
,,,-7.02500000e-009,7.99999982e-004
,,,-7.00000000e-009,7.62499979e-004
,,,-6.97500000e-009,7.39062478e-004
,,,-6.95000000e-009,7.32812477e-004
,,,-6.92500000e-009,7.37499978e-004
,,,-6.90000000e-009,7.51562479e-004
,,,-6.87500000e-009,7.68749980e-004
,,,-6.85000000e-009,7.87499981e-004
,,,-6.82500000e-009,7.99999982e-004
,,,-6.80000000e-009,8.10937483e-004
,,,-6.77500000e-009,8.12499983e-004
,,,-6.75000000e-009,8.09374983e-004
,,,-6.72500000e-009,8.01562482e-004
,,,-6.70000000e-009,7.92187482e-004
,,,-6.67500000e-009,7.87499981e-004
,,,-6.65000000e-009,7.89062481e-004
,,,-6.62500000e-009,7.99999982e-004
,,,-6.60000000e-009,8.26562484e-004
,,,-6.57500000e-009,8.65624987e-004
,,,-6.55000000e-009,9.12499990e-004
,,,-6.52500000e-009,9.68749994e-004
,,,-6.50000000e-009,1.02812500e-003
,,,-6.47500000e-009,1.08906250e-003
,,,-6.45000000e-009,1.14843751e-003
,,,-6.42500000e-009,1.20000001e-003
,,,-6.40000000e-009,1.24062501e-003
,,,-6.37500000e-009,1.26875002e-003
,,,-6.35000000e-009,1.28437502e-003
,,,-6.32500000e-009,1.28750002e-003
,,,-6.30000000e-009,1.27968752e-003
,,,-6.27500000e-009,1.26250001e-003
,,,-6.25000000e-009,1.23593751e-003
,,,-6.22500000e-009,1.20000001e-003
,,,-6.20000000e-009,1.16093751e-003
,,,-6.17500000e-009,1.11562500e-003
,,,-6.15000000e-009,1.06718750e-003
,,,-6.12500000e-009,1.01562500e-003
,,,-6.10000000e-009,9.62499994e-004
,,,-6.07500000e-009,9.07812490e-004
,,,-6.05000000e-009,8.53124986e-004
,,,-6.02500000e-009,7.99999982e-004
,,,-6.00000000e-009,7.54687479e-004
,,,-5.97500000e-009,7.18749976e-004
,,,-5.95000000e-009,6.92187474e-004
,,,-5.92500000e-009,6.81249974e-004
,,,-5.90000000e-009,6.85937474e-004
,,,-5.87500000e-009,7.07812476e-004
,,,-5.85000000e-009,7.46874978e-004
,,,-5.82500000e-009,7.99999982e-004
,,,-5.80000000e-009,8.68749987e-004
,,,-5.77500000e-009,9.43749992e-004
,,,-5.75000000e-009,1.02031250e-003
,,,-5.72500000e-009,1.08906250e-003
,,,-5.70000000e-009,1.14687501e-003
,,,-5.67500000e-009,1.18750001e-003
,,,-5.65000000e-009,1.20625001e-003
,,,-5.62500000e-009,1.20000001e-003
,,,-5.60000000e-009,1.16875001e-003
,,,-5.57500000e-009,1.11875000e-003
,,,-5.55000000e-009,1.05468750e-003
,,,-5.52500000e-009,9.85937495e-004
,,,-5.50000000e-009,9.18749991e-004
,,,-5.47500000e-009,8.60937486e-004
,,,-5.45000000e-009,8.20312484e-004
,,,-5.42500000e-009,7.99999982e-004
,,,-5.40000000e-009,8.06249983e-004
,,,-5.37500000e-009,8.34374985e-004
,,,-5.35000000e-009,8.82812488e-004
,,,-5.32500000e-009,9.43749992e-004
,,,-5.30000000e-009,1.01406250e-003
,,,-5.27500000e-009,1.08281250e-003
,,,-5.25000000e-009,1.14687501e-003
,,,-5.22500000e-009,1.20000001e-003
,,,-5.20000000e-009,1.23906251e-003
,,,-5.17500000e-009,1.26250001e-003
,,,-5.15000000e-009,1.26875002e-003
,,,-5.12500000e-009,1.26406251e-003
,,,-5.10000000e-009,1.25000001e-003
,,,-5.07500000e-009,1.23281251e-003
,,,-5.05000000e-009,1.21406251e-003
,,,-5.02500000e-009,1.20000001e-003
,,,-5.00000000e-009,1.18906251e-003
,,,-4.97500000e-009,1.18593751e-003
,,,-4.95000000e-009,1.18750001e-003
,,,-4.92500000e-009,1.19375001e-003
,,,-4.90000000e-009,1.20156251e-003
,,,-4.87500000e-009,1.20781251e-003
,,,-4.85000000e-009,1.20937501e-003
,,,-4.82500000e-009,1.20000001e-003
,,,-4.80000000e-009,1.17812501e-003
,,,-4.77500000e-009,1.14531251e-003
,,,-4.75000000e-009,1.10156250e-003
,,,-4.72500000e-009,1.04843750e-003
,,,-4.70000000e-009,9.89062496e-004
,,,-4.67500000e-009,9.24999991e-004
,,,-4.65000000e-009,8.60937486e-004
,,,-4.62500000e-009,7.99999982e-004
,,,-4.60000000e-009,7.49999979e-004
,,,-4.57500000e-009,7.10937476e-004
,,,-4.55000000e-009,6.84374974e-004
,,,-4.52500000e-009,6.74999973e-004
,,,-4.50000000e-009,6.81249974e-004
,,,-4.47500000e-009,7.06249975e-004
,,,-4.45000000e-009,7.46874978e-004
,,,-4.42500000e-009,7.99999982e-004
,,,-4.40000000e-009,8.65624987e-004
,,,-4.37500000e-009,9.35937492e-004
,,,-4.35000000e-009,1.00625000e-003
,,,-4.32500000e-009,1.07187500e-003
,,,-4.30000000e-009,1.12812501e-003
,,,-4.27500000e-009,1.17031251e-003
,,,-4.25000000e-009,1.19531251e-003
,,,-4.22500000e-009,1.20000001e-003
,,,-4.20000000e-009,1.18281251e-003
,,,-4.17500000e-009,1.14531251e-003
,,,-4.15000000e-009,1.09375000e-003
,,,-4.12500000e-009,1.03281250e-003
,,,-4.10000000e-009,9.68749994e-004
,,,-4.07500000e-009,9.04687490e-004
,,,-4.05000000e-009,8.46874985e-004
,,,-4.02500000e-009,7.99999982e-004
,,,-4.00000000e-009,7.65624980e-004
,,,-3.97500000e-009,7.43749978e-004
,,,-3.95000000e-009,7.34374977e-004
,,,-3.92500000e-009,7.37499978e-004
,,,-3.90000000e-009,7.48437478e-004
,,,-3.87500000e-009,7.64062480e-004
,,,-3.85000000e-009,7.82812481e-004
,,,-3.82500000e-009,7.99999982e-004
,,,-3.80000000e-009,8.14062483e-004
,,,-3.77500000e-009,8.23437484e-004
,,,-3.75000000e-009,8.26562484e-004
,,,-3.72500000e-009,8.24999984e-004
,,,-3.70000000e-009,8.18749983e-004
,,,-3.67500000e-009,8.12499983e-004
,,,-3.65000000e-009,8.06249983e-004
,,,-3.62500000e-009,7.99999982e-004
,,,-3.60000000e-009,7.95312482e-004
,,,-3.57500000e-009,7.92187482e-004
,,,-3.55000000e-009,7.92187482e-004
,,,-3.52500000e-009,7.93749982e-004
,,,-3.50000000e-009,7.98437482e-004
,,,-3.47500000e-009,8.01562482e-004
,,,-3.45000000e-009,8.03124982e-004
,,,-3.42500000e-009,7.99999982e-004
,,,-3.40000000e-009,7.89062481e-004
,,,-3.37500000e-009,7.68749980e-004
,,,-3.35000000e-009,7.37499978e-004
,,,-3.32500000e-009,6.95312475e-004
,,,-3.30000000e-009,6.37499971e-004
,,,-3.27500000e-009,5.68749966e-004
,,,-3.25000000e-009,4.89062460e-004
,,,-3.22500000e-009,3.99999954e-004
,,,-3.20000000e-009,3.09374947e-004
,,,-3.17500000e-009,2.20312441e-004
,,,-3.15000000e-009,1.35937435e-004
,,,-3.12500000e-009,6.56249301e-005
,,,-3.10000000e-009,1.40624265e-005
,,,-3.07500000e-009,-1.56250756e-005
,,,-3.05000000e-009,-2.03125759e-005
,,,-3.02500000e-009,-7.45058060e-011
,,,-3.00000000e-009,4.99999290e-005
,,,-2.97500000e-009,1.15624934e-004
,,,-2.95000000e-009,1.90624939e-004
,,,-2.92500000e-009,2.64062444e-004
,,,-2.90000000e-009,3.29687449e-004
,,,-2.87500000e-009,3.78124952e-004
,,,-2.85000000e-009,4.03124954e-004
,,,-2.82500000e-009,3.99999954e-004
,,,-2.80000000e-009,3.71874952e-004
,,,-2.77500000e-009,3.20312448e-004
,,,-2.75000000e-009,2.51562443e-004
,,,-2.72500000e-009,1.76562438e-004
,,,-2.70000000e-009,1.04687433e-004
,,,-2.67500000e-009,4.68749288e-005
,,,-2.65000000e-009,1.09374263e-005
,,,-2.62500000e-009,-7.45058060e-011
,,,-2.60000000e-009,2.49999273e-005
,,,-2.57500000e-009,7.34374307e-005
,,,-2.55000000e-009,1.39062435e-004
,,,-2.52500000e-009,2.14062441e-004
,,,-2.50000000e-009,2.87499946e-004
,,,-2.47500000e-009,3.48437450e-004
,,,-2.45000000e-009,3.87499953e-004
,,,-2.42500000e-009,3.99999954e-004
,,,-2.40000000e-009,3.85937453e-004
,,,-2.37500000e-009,3.43749950e-004
,,,-2.35000000e-009,2.81249945e-004
,,,-2.32500000e-009,2.07812440e-004
,,,-2.30000000e-009,1.32812435e-004
,,,-2.27500000e-009,6.71874302e-005
,,,-2.25000000e-009,2.03124269e-005
,,,-2.22500000e-009,-7.45058060e-011
,,,-2.20000000e-009,1.24999264e-005
,,,-2.17500000e-009,5.15624291e-005
,,,-2.15000000e-009,1.12499933e-004
,,,-2.12500000e-009,1.85937439e-004
,,,-2.10000000e-009,2.60937444e-004
,,,-2.07500000e-009,3.26562449e-004
,,,-2.05000000e-009,3.76562452e-004
,,,-2.02500000e-009,3.99999954e-004
,,,-2.00000000e-009,3.95312453e-004
,,,-1.97500000e-009,3.64062451e-004
,,,-1.95000000e-009,3.09374947e-004
,,,-1.92500000e-009,2.40624943e-004
,,,-1.90000000e-009,1.65624937e-004
,,,-1.87500000e-009,9.53124322e-005
,,,-1.85000000e-009,3.74999281e-005
,,,-1.82500000e-009,-7.45058060e-011
,,,-1.80000000e-009,-7.81257506e-006
,,,-1.77500000e-009,1.09374263e-005
,,,-1.75000000e-009,5.31249293e-005
,,,-1.72500000e-009,1.14062434e-004
,,,-1.70000000e-009,1.85937439e-004
,,,-1.67500000e-009,2.62499944e-004
,,,-1.65000000e-009,3.37499949e-004
,,,-1.62500000e-009,3.99999954e-004
,,,-1.60000000e-009,4.43749957e-004
,,,-1.57500000e-009,4.70312459e-004
,,,-1.55000000e-009,4.79687459e-004
,,,-1.52500000e-009,4.74999959e-004
,,,-1.50000000e-009,4.59374958e-004
,,,-1.47500000e-009,4.39062457e-004
,,,-1.45000000e-009,4.18749955e-004
,,,-1.42500000e-009,3.99999954e-004
,,,-1.40000000e-009,3.79687452e-004
,,,-1.37500000e-009,3.65624951e-004
,,,-1.35000000e-009,3.57812451e-004
,,,-1.32500000e-009,3.57812451e-004
,,,-1.30000000e-009,3.64062451e-004
,,,-1.27500000e-009,3.74999952e-004
,,,-1.25000000e-009,3.87499953e-004
,,,-1.22500000e-009,3.99999954e-004
,,,-1.20000000e-009,3.95312453e-004
,,,-1.17500000e-009,3.85937453e-004
,,,-1.15000000e-009,3.74999952e-004
,,,-1.12500000e-009,3.65624951e-004
,,,-1.10000000e-009,3.62499951e-004
,,,-1.07500000e-009,3.65624951e-004
,,,-1.05000000e-009,3.78124952e-004
,,,-1.02500000e-009,3.99999954e-004
,,,-1.00000000e-009,4.04687454e-004
,,,-9.75000000e-010,4.10937455e-004
,,,-9.50000000e-010,4.18749955e-004
,,,-9.25000000e-010,4.23437455e-004
,,,-9.00000000e-010,4.28124956e-004
,,,-8.75000000e-010,4.26562456e-004
,,,-8.50000000e-010,4.18749955e-004
,,,-8.25000000e-010,3.99999954e-004
,,,-8.00000000e-010,3.34374949e-004
,,,-7.75000000e-010,2.51562443e-004
,,,-7.50000000e-010,1.54687436e-004
,,,-7.25000000e-010,4.84374289e-005
,,,-7.00000000e-010,-6.40625790e-005
,,,-6.75000000e-010,-1.78125087e-004
,,,-6.50000000e-010,-2.89062595e-004
,,,-6.25000000e-010,-4.00000103e-004
,,,-6.00000000e-010,-5.40625113e-004
,,,-5.75000000e-010,-6.87500123e-004
,,,-5.50000000e-010,-8.34375134e-004
,,,-5.25000000e-010,-9.84375144e-004
,,,-5.00000000e-010,-1.13593765e-003
,,,-4.75000000e-010,-1.28750017e-003
,,,-4.50000000e-010,-1.44218768e-003
,,,-4.25000000e-010,-1.60000019e-003
,,,-4.00000000e-010,-1.79062520e-003
,,,-3.75000000e-010,-1.99218772e-003
,,,-3.50000000e-010,-2.20000023e-003
,,,-3.25000000e-010,-2.40937525e-003
,,,-3.00000000e-010,-2.61875026e-003
,,,-2.75000000e-010,-2.82187527e-003
,,,-2.50000000e-010,-3.01562529e-003
,,,-2.25000000e-010,-3.20000030e-003
,,,-2.00000000e-010,-3.39218781e-003
,,,-1.75000000e-010,-3.58437533e-003
,,,-1.50000000e-010,-3.77812534e-003
,,,-1.25000000e-010,-3.97343786e-003
,,,-1.00000000e-010,-4.17187537e-003
,,,-7.50000000e-011,-4.37500038e-003
,,,-5.00000000e-011,-4.58437540e-003
,,,-2.50000000e-011,-4.80000041e-003
,,,0.00000000e+000,-5.02968793e-003
,,,2.50000000e-011,-5.27343795e-003
,,,5.00000000e-011,-5.52968797e-003
,,,7.50000000e-011,-5.79218798e-003
,,,1.00000000e-010,-6.05625050e-003
,,,1.25000000e-010,-6.31406302e-003
,,,1.50000000e-010,-6.56250054e-003
,,,1.75000000e-010,-6.80000056e-003
,,,2.00000000e-010,-7.00781307e-003
,,,2.25000000e-010,-7.20937558e-003
,,,2.50000000e-010,-7.40781310e-003
,,,2.75000000e-010,-7.60625061e-003
,,,3.00000000e-010,-7.80312563e-003
,,,3.25000000e-010,-8.00156314e-003
,,,3.50000000e-010,-8.20000065e-003
,,,3.75000000e-010,-8.40000067e-003
,,,4.00000000e-010,-8.57031318e-003
,,,4.25000000e-010,-8.74375069e-003
,,,4.50000000e-010,-8.91875071e-003
,,,4.75000000e-010,-9.08750072e-003
,,,5.00000000e-010,-9.24531323e-003
,,,5.25000000e-010,-9.38593824e-003
,,,5.50000000e-010,-9.50468825e-003
,,,5.75000000e-010,-9.60000075e-003
,,,6.00000000e-010,-9.63593826e-003
,,,6.25000000e-010,-9.66093826e-003
,,,6.50000000e-010,-9.68437576e-003
,,,6.75000000e-010,-9.71250076e-003
,,,7.00000000e-010,-9.75312576e-003
,,,7.25000000e-010,-9.81406327e-003
,,,7.50000000e-010,-9.89531327e-003
,,,7.75000000e-010,-1.00000008e-002
,,,8.00000000e-010,-1.00859383e-002
,,,8.25000000e-010,-1.01937508e-002
,,,8.50000000e-010,-1.03156258e-002
,,,8.75000000e-010,-1.04421883e-002
,,,9.00000000e-010,-1.05656258e-002
,,,9.25000000e-010,-1.06718758e-002
,,,9.50000000e-010,-1.07531258e-002
,,,9.75000000e-010,-1.08000008e-002
,,,1.00000000e-009,-1.07640633e-002
,,,1.02500000e-009,-1.06937508e-002
,,,1.05000000e-009,-1.05968758e-002
,,,1.07500000e-009,-1.04796883e-002
,,,1.10000000e-009,-1.03531258e-002
,,,1.12500000e-009,-1.02250008e-002
,,,1.15000000e-009,-1.01046883e-002
,,,1.17500000e-009,-1.00000008e-002
,,,1.20000000e-009,-9.87968827e-003
,,,1.22500000e-009,-9.78281327e-003
,,,1.25000000e-009,-9.71250076e-003
,,,1.27500000e-009,-9.66406326e-003
,,,1.30000000e-009,-9.63437576e-003
,,,1.32500000e-009,-9.61875076e-003
,,,1.35000000e-009,-9.60937575e-003
,,,1.37500000e-009,-9.60000075e-003
,,,1.40000000e-009,-9.55312575e-003
,,,1.42500000e-009,-9.49062575e-003
,,,1.45000000e-009,-9.41250074e-003
,,,1.47500000e-009,-9.31718823e-003
,,,1.50000000e-009,-9.20468823e-003
,,,1.52500000e-009,-9.07968822e-003
,,,1.55000000e-009,-8.94375071e-003
,,,1.57500000e-009,-8.80000070e-003
,,,1.60000000e-009,-8.63125069e-003
,,,1.62500000e-009,-8.45781317e-003
,,,1.65000000e-009,-8.28750066e-003
,,,1.67500000e-009,-8.12343815e-003
,,,1.70000000e-009,-7.97031314e-003
,,,1.72500000e-009,-7.83125063e-003
,,,1.75000000e-009,-7.70781312e-003
,,,1.77500000e-009,-7.60000061e-003
,,,1.80000000e-009,-7.49531311e-003
,,,1.82500000e-009,-7.40000060e-003
,,,1.85000000e-009,-7.30625059e-003
,,,1.87500000e-009,-7.21406309e-003
,,,1.90000000e-009,-7.12031308e-003
,,,1.92500000e-009,-7.02187557e-003
,,,1.95000000e-009,-6.91406306e-003
,,,1.97500000e-009,-6.80000056e-003
,,,2.00000000e-009,-6.67187555e-003
,,,2.02500000e-009,-6.53125054e-003
,,,2.05000000e-009,-6.37656303e-003
,,,2.07500000e-009,-6.21406301e-003
,,,2.10000000e-009,-6.05000050e-003
,,,2.12500000e-009,-5.89062549e-003
,,,2.15000000e-009,-5.73906298e-003
,,,2.17500000e-009,-5.60000047e-003
,,,2.20000000e-009,-5.47812546e-003
,,,2.22500000e-009,-5.36718795e-003
,,,2.25000000e-009,-5.26250045e-003
,,,2.27500000e-009,-5.16562544e-003
,,,2.30000000e-009,-5.07187543e-003
,,,2.32500000e-009,-4.98125043e-003
,,,2.35000000e-009,-4.89062542e-003
,,,2.37500000e-009,-4.80000041e-003
,,,2.40000000e-009,-4.71718791e-003
,,,2.42500000e-009,-4.62500040e-003
,,,2.45000000e-009,-4.52500039e-003
,,,2.47500000e-009,-4.41875039e-003
,,,2.50000000e-009,-4.30937538e-003
,,,2.52500000e-009,-4.20000037e-003
,,,2.55000000e-009,-4.09531286e-003
,,,2.57500000e-009,-4.00000036e-003
,,,2.60000000e-009,-3.92500035e-003
,,,2.62500000e-009,-3.85625035e-003
,,,2.65000000e-009,-3.79531284e-003
,,,2.67500000e-009,-3.74218784e-003
,,,2.70000000e-009,-3.69531284e-003
,,,2.72500000e-009,-3.65781283e-003
,,,2.75000000e-009,-3.62500033e-003
,,,2.77500000e-009,-3.60000033e-003
,,,2.80000000e-009,-3.58281283e-003
,,,2.82500000e-009,-3.56093783e-003
,,,2.85000000e-009,-3.52812532e-003
,,,2.87500000e-009,-3.48437532e-003
,,,2.90000000e-009,-3.42968782e-003
,,,2.92500000e-009,-3.36250031e-003
,,,2.95000000e-009,-3.28437531e-003
,,,2.97500000e-009,-3.20000030e-003
,,,3.00000000e-009,-3.11718780e-003
,,,3.02500000e-009,-3.03281279e-003
,,,3.05000000e-009,-2.95000028e-003
,,,3.07500000e-009,-2.87812528e-003
,,,3.10000000e-009,-2.82187527e-003
,,,3.12500000e-009,-2.78750027e-003
,,,3.15000000e-009,-2.77968777e-003
,,,3.17500000e-009,-2.80000027e-003
,,,3.20000000e-009,-2.84843778e-003
,,,3.22500000e-009,-2.91406278e-003
,,,3.25000000e-009,-2.98750029e-003
,,,3.27500000e-009,-3.06093779e-003
,,,3.30000000e-009,-3.12500030e-003
,,,3.32500000e-009,-3.17500030e-003
,,,3.35000000e-009,-3.20156280e-003
,,,3.37500000e-009,-3.20000030e-003
,,,3.40000000e-009,-3.16250030e-003
,,,3.42500000e-009,-3.09218779e-003
,,,3.45000000e-009,-2.99531279e-003
,,,3.47500000e-009,-2.87968778e-003
,,,3.50000000e-009,-2.75312527e-003
,,,3.52500000e-009,-2.62500026e-003
,,,3.55000000e-009,-2.50468775e-003
,,,3.57500000e-009,-2.40000024e-003
,,,3.60000000e-009,-2.31250024e-003
,,,3.62500000e-009,-2.24375023e-003
,,,3.65000000e-009,-2.19062523e-003
,,,3.67500000e-009,-2.15000023e-003
,,,3.70000000e-009,-2.11406272e-003
,,,3.72500000e-009,-2.08125022e-003
,,,3.75000000e-009,-2.04375022e-003
,,,3.77500000e-009,-2.00000022e-003
,,,3.80000000e-009,-1.94687521e-003
,,,3.82500000e-009,-1.88593771e-003
,,,3.85000000e-009,-1.81875020e-003
,,,3.87500000e-009,-1.75156270e-003
,,,3.90000000e-009,-1.69062519e-003
,,,3.92500000e-009,-1.64218769e-003
,,,3.95000000e-009,-1.61093769e-003
,,,3.97500000e-009,-1.60000019e-003
,,,4.00000000e-009,-1.60625019e-003
,,,4.02500000e-009,-1.62500019e-003
,,,4.05000000e-009,-1.65000019e-003
,,,4.07500000e-009,-1.67343769e-003
,,,4.10000000e-009,-1.68593769e-003
,,,4.12500000e-009,-1.68125019e-003
,,,4.15000000e-009,-1.65312519e-003
,,,4.17500000e-009,-1.60000019e-003
,,,4.20000000e-009,-1.51562518e-003
,,,4.22500000e-009,-1.40937517e-003
,,,4.25000000e-009,-1.28750017e-003
,,,4.27500000e-009,-1.15781266e-003
,,,4.30000000e-009,-1.03437515e-003
,,,4.32500000e-009,-9.28125140e-004
,,,4.35000000e-009,-8.46875134e-004
,,,4.37500000e-009,-8.00000131e-004
,,,4.40000000e-009,-7.93750131e-004
,,,4.42500000e-009,-8.20312633e-004
,,,4.45000000e-009,-8.71875136e-004
,,,4.47500000e-009,-9.40625141e-004
,,,4.50000000e-009,-1.01718765e-003
,,,4.52500000e-009,-1.09218765e-003
,,,4.55000000e-009,-1.15468766e-003
,,,4.57500000e-009,-1.20000016e-003
,,,4.60000000e-009,-1.21562516e-003
,,,4.62500000e-009,-1.20312516e-003
,,,4.65000000e-009,-1.16406266e-003
,,,4.67500000e-009,-1.10312515e-003
,,,4.70000000e-009,-1.02968765e-003
,,,4.72500000e-009,-9.50000142e-004
,,,4.75000000e-009,-8.70312636e-004
,,,4.77500000e-009,-8.00000131e-004
,,,4.80000000e-009,-7.39062627e-004
,,,4.82500000e-009,-6.89062623e-004
,,,4.85000000e-009,-6.45312620e-004
,,,4.87500000e-009,-6.06250117e-004
,,,4.90000000e-009,-5.65625115e-004
,,,4.92500000e-009,-5.20312611e-004
,,,4.95000000e-009,-4.65625107e-004
,,,4.97500000e-009,-4.00000103e-004
,,,5.00000000e-009,-3.26562598e-004
,,,5.02500000e-009,-2.48437592e-004
,,,5.05000000e-009,-1.67187586e-004
,,,5.07500000e-009,-9.37500811e-005
,,,5.10000000e-009,-3.28125768e-005
,,,5.12500000e-009,6.24992594e-006
,,,5.15000000e-009,1.71874267e-005
,,,5.17500000e-009,-7.45058060e-011
,,,5.20000000e-009,-4.53125777e-005
,,,5.22500000e-009,-1.10937582e-004
,,,5.25000000e-009,-1.87500088e-004
,,,5.27500000e-009,-2.65625093e-004
,,,5.30000000e-009,-3.35937598e-004
,,,5.32500000e-009,-3.85937602e-004
,,,5.35000000e-009,-4.09375103e-004
,,,5.37500000e-009,-4.00000103e-004
,,,5.40000000e-009,-3.53125100e-004
,,,5.42500000e-009,-2.73437594e-004
,,,5.45000000e-009,-1.68750086e-004
,,,5.47500000e-009,-4.53125777e-005
,,,5.50000000e-009,8.43749315e-005
,,,5.52500000e-009,2.09374940e-004
,,,5.55000000e-009,3.17187448e-004
,,,5.57500000e-009,3.99999954e-004
,,,5.60000000e-009,4.45312457e-004
,,,5.62500000e-009,4.54687458e-004
,,,5.65000000e-009,4.31249956e-004
,,,5.67500000e-009,3.78124952e-004
,,,5.70000000e-009,3.01562447e-004
,,,5.72500000e-009,2.06249940e-004
,,,5.75000000e-009,1.03124933e-004
,,,5.77500000e-009,-7.45058060e-011
,,,5.80000000e-009,-9.06250809e-005
,,,5.82500000e-009,-1.60937586e-004
,,,5.85000000e-009,-2.06250089e-004
,,,5.87500000e-009,-2.23437590e-004
,,,5.90000000e-009,-2.09375089e-004
,,,5.92500000e-009,-1.65625086e-004
,,,5.95000000e-009,-9.37500811e-005
,,,5.97500000e-009,-7.45058060e-011
,,,6.00000000e-009,1.14062434e-004
