RawData/SinglePhotoelectron/L3_2pt2foot_5mV/wave016_Ch4.csv

"Record Length",1000,"Points",-7.72500000e-009,7.87499981e-004
"Sample Interval",2.50000000e-011,s,-7.70000000e-009,7.98437482e-004
"Trigger Point",309,"Samples",-7.67500000e-009,8.15624983e-004
"Trigger Time",1.09560902e-011,s,-7.65000000e-009,8.31249984e-004
"",,,-7.62500000e-009,8.37499985e-004
"Horizontal Offset",-7.72500000e-009,s,-7.60000000e-009,8.28124984e-004
,,,-7.57500000e-009,7.99999982e-004
,,,-7.55000000e-009,7.54687479e-004
,,,-7.52500000e-009,6.95312475e-004
,,,-7.50000000e-009,6.24999970e-004
,,,-7.47500000e-009,5.53124965e-004
,,,-7.45000000e-009,4.87499960e-004
,,,-7.42500000e-009,4.35937456e-004
,,,-7.40000000e-009,4.06249954e-004
,,,-7.37500000e-009,3.99999954e-004
,,,-7.35000000e-009,4.26562456e-004
,,,-7.32500000e-009,4.76562459e-004
,,,-7.30000000e-009,5.42187464e-004
,,,-7.27500000e-009,6.15624969e-004
,,,-7.25000000e-009,6.87499974e-004
,,,-7.22500000e-009,7.46874978e-004
,,,-7.20000000e-009,7.87499981e-004
,,,-7.17500000e-009,7.99999982e-004
,,,-7.15000000e-009,7.84374981e-004
,,,-7.12500000e-009,7.43749978e-004
,,,-7.10000000e-009,6.82812474e-004
,,,-7.07500000e-009,6.09374969e-004
,,,-7.05000000e-009,5.35937463e-004
,,,-7.02500000e-009,4.70312459e-004
,,,-7.00000000e-009,4.23437455e-004
,,,-6.97500000e-009,3.99999954e-004
,,,-6.95000000e-009,4.10937455e-004
,,,-6.92500000e-009,4.45312457e-004
,,,-6.90000000e-009,4.99999961e-004
,,,-6.87500000e-009,5.68749966e-004
,,,-6.85000000e-009,6.40624971e-004
,,,-6.82500000e-009,7.07812476e-004
,,,-6.80000000e-009,7.62499979e-004
,,,-6.77500000e-009,7.99999982e-004
,,,-6.75000000e-009,8.17187483e-004
,,,-6.72500000e-009,8.14062483e-004
,,,-6.70000000e-009,7.98437482e-004
,,,-6.67500000e-009,7.76562480e-004
,,,-6.65000000e-009,7.59374979e-004
,,,-6.62500000e-009,7.53124979e-004
,,,-6.60000000e-009,7.65624980e-004
,,,-6.57500000e-009,7.99999982e-004
,,,-6.55000000e-009,8.57812486e-004
,,,-6.52500000e-009,9.31249991e-004
,,,-6.50000000e-009,1.01406250e-003
,,,-6.47500000e-009,1.09687500e-003
,,,-6.45000000e-009,1.16562501e-003
,,,-6.42500000e-009,1.21093751e-003
,,,-6.40000000e-009,1.22500001e-003
,,,-6.37500000e-009,1.20000001e-003
,,,-6.35000000e-009,1.13437501e-003
,,,-6.32500000e-009,1.03593750e-003
,,,-6.30000000e-009,9.15624990e-004
,,,-6.27500000e-009,7.82812481e-004
,,,-6.25000000e-009,6.54687472e-004
,,,-6.22500000e-009,5.40624964e-004
,,,-6.20000000e-009,4.53124958e-004
,,,-6.17500000e-009,3.99999954e-004
,,,-6.15000000e-009,3.92187453e-004
,,,-6.12500000e-009,4.20312455e-004
,,,-6.10000000e-009,4.76562459e-004
,,,-6.07500000e-009,5.53124965e-004
,,,-6.05000000e-009,6.35937471e-004
,,,-6.02500000e-009,7.10937476e-004
,,,-6.00000000e-009,7.68749980e-004
,,,-5.97500000e-009,7.99999982e-004
,,,-5.95000000e-009,7.99999982e-004
,,,-5.92500000e-009,7.68749980e-004
,,,-5.90000000e-009,7.14062476e-004
,,,-5.87500000e-009,6.42187471e-004
,,,-5.85000000e-009,5.64062465e-004
,,,-5.82500000e-009,4.92187460e-004
,,,-5.80000000e-009,4.34374956e-004
,,,-5.77500000e-009,3.99999954e-004
,,,-5.75000000e-009,3.98437454e-004
,,,-5.72500000e-009,4.23437455e-004
,,,-5.70000000e-009,4.71874959e-004
,,,-5.67500000e-009,5.37499964e-004
,,,-5.65000000e-009,6.12499969e-004
,,,-5.62500000e-009,6.85937474e-004
,,,-5.60000000e-009,7.51562479e-004
,,,-5.57500000e-009,7.99999982e-004
,,,-5.55000000e-009,8.31249984e-004
,,,-5.52500000e-009,8.42187485e-004
,,,-5.50000000e-009,8.37499985e-004
,,,-5.47500000e-009,8.23437484e-004
,,,-5.45000000e-009,8.04687482e-004
,,,-5.42500000e-009,7.90624981e-004
,,,-5.40000000e-009,7.87499981e-004
,,,-5.37500000e-009,7.99999982e-004
,,,-5.35000000e-009,8.34374985e-004
,,,-5.32500000e-009,8.85937488e-004
,,,-5.30000000e-009,9.48437493e-004
,,,-5.27500000e-009,1.01562500e-003
,,,-5.25000000e-009,1.08281250e-003
,,,-5.22500000e-009,1.13906251e-003
,,,-5.20000000e-009,1.18125001e-003
,,,-5.17500000e-009,1.20000001e-003
,,,-5.15000000e-009,1.19375001e-003
,,,-5.12500000e-009,1.16406251e-003
,,,-5.10000000e-009,1.11718750e-003
,,,-5.07500000e-009,1.05468750e-003
,,,-5.05000000e-009,9.85937495e-004
,,,-5.02500000e-009,9.17187490e-004
,,,-5.00000000e-009,8.53124986e-004
,,,-4.97500000e-009,7.99999982e-004
,,,-4.95000000e-009,7.64062480e-004
,,,-4.92500000e-009,7.45312478e-004
,,,-4.90000000e-009,7.39062478e-004
,,,-4.87500000e-009,7.46874978e-004
,,,-4.85000000e-009,7.59374979e-004
,,,-4.82500000e-009,7.76562480e-004
,,,-4.80000000e-009,7.90624981e-004
,,,-4.77500000e-009,7.99999982e-004
,,,-4.75000000e-009,8.01562482e-004
,,,-4.72500000e-009,7.98437482e-004
,,,-4.70000000e-009,7.89062481e-004
,,,-4.67500000e-009,7.78124981e-004
,,,-4.65000000e-009,7.71874980e-004
,,,-4.62500000e-009,7.70312480e-004
,,,-4.60000000e-009,7.79687481e-004
,,,-4.57500000e-009,7.99999982e-004
,,,-4.55000000e-009,8.34374985e-004
,,,-4.52500000e-009,8.79687488e-004
,,,-4.50000000e-009,9.34374992e-004
,,,-4.47500000e-009,9.93749996e-004
,,,-4.45000000e-009,1.05468750e-003
,,,-4.42500000e-009,1.11093750e-003
,,,-4.40000000e-009,1.16093751e-003
,,,-4.37500000e-009,1.20000001e-003
,,,-4.35000000e-009,1.22187501e-003
,,,-4.32500000e-009,1.23281251e-003
,,,-4.30000000e-009,1.23125001e-003
,,,-4.27500000e-009,1.22500001e-003
,,,-4.25000000e-009,1.21406251e-003
,,,-4.22500000e-009,1.20468751e-003
,,,-4.20000000e-009,1.20000001e-003
,,,-4.17500000e-009,1.20000001e-003
,,,-4.15000000e-009,1.20625001e-003
,,,-4.12500000e-009,1.21562501e-003
,,,-4.10000000e-009,1.22812501e-003
,,,-4.07500000e-009,1.23906251e-003
,,,-4.05000000e-009,1.24531251e-003
,,,-4.02500000e-009,1.24375001e-003
,,,-4.00000000e-009,1.22812501e-003
,,,-3.97500000e-009,1.20000001e-003
,,,-3.95000000e-009,1.15312501e-003
,,,-3.92500000e-009,1.09375000e-003
,,,-3.90000000e-009,1.02812500e-003
,,,-3.87500000e-009,9.62499994e-004
,,,-3.85000000e-009,9.03124989e-004
,,,-3.82500000e-009,8.53124986e-004
,,,-3.80000000e-009,8.18749983e-004
,,,-3.77500000e-009,7.99999982e-004
,,,-3.75000000e-009,7.98437482e-004
,,,-3.72500000e-009,8.10937483e-004
,,,-3.70000000e-009,8.29687484e-004
,,,-3.67500000e-009,8.48437486e-004
,,,-3.65000000e-009,8.60937486e-004
,,,-3.62500000e-009,8.59374986e-004
,,,-3.60000000e-009,8.40624985e-004
,,,-3.57500000e-009,7.99999982e-004
,,,-3.55000000e-009,7.42187478e-004
,,,-3.52500000e-009,6.68749973e-004
,,,-3.50000000e-009,5.89062467e-004
,,,-3.47500000e-009,5.12499962e-004
,,,-3.45000000e-009,4.46874957e-004
,,,-3.42500000e-009,4.03124954e-004
,,,-3.40000000e-009,3.85937453e-004
,,,-3.37500000e-009,3.99999954e-004
,,,-3.35000000e-009,4.48437457e-004
,,,-3.32500000e-009,5.20312462e-004
,,,-3.30000000e-009,6.03124968e-004
,,,-3.27500000e-009,6.87499974e-004
,,,-3.25000000e-009,7.60937479e-004
,,,-3.22500000e-009,8.09374983e-004
,,,-3.20000000e-009,8.24999984e-004
,,,-3.17500000e-009,7.99999982e-004
,,,-3.15000000e-009,7.39062478e-004
,,,-3.12500000e-009,6.42187471e-004
,,,-3.10000000e-009,5.18749962e-004
,,,-3.07500000e-009,3.84374953e-004
,,,-3.05000000e-009,2.49999943e-004
,,,-3.02500000e-009,1.34374935e-004
,,,-3.00000000e-009,4.68749288e-005
,,,-2.97500000e-009,-7.45058060e-011
,,,-2.95000000e-009,7.81242605e-006
,,,-2.92500000e-009,6.09374298e-005
,,,-2.90000000e-009,1.51562436e-004
,,,-2.87500000e-009,2.73437445e-004
,,,-2.85000000e-009,4.10937455e-004
,,,-2.82500000e-009,5.53124965e-004
,,,-2.80000000e-009,6.85937474e-004
,,,-2.77500000e-009,7.99999982e-004
,,,-2.75000000e-009,8.87499988e-004
,,,-2.72500000e-009,9.42187492e-004
,,,-2.70000000e-009,9.64062494e-004
,,,-2.67500000e-009,9.59374993e-004
,,,-2.65000000e-009,9.32812492e-004
,,,-2.62500000e-009,8.92187489e-004
,,,-2.60000000e-009,8.45312485e-004
,,,-2.57500000e-009,7.99999982e-004
,,,-2.55000000e-009,7.64062480e-004
,,,-2.52500000e-009,7.39062478e-004
,,,-2.50000000e-009,7.28124977e-004
,,,-2.47500000e-009,7.28124977e-004
,,,-2.45000000e-009,7.40624978e-004
,,,-2.42500000e-009,7.59374979e-004
,,,-2.40000000e-009,7.79687481e-004
,,,-2.37500000e-009,7.99999982e-004
,,,-2.35000000e-009,8.17187483e-004
,,,-2.32500000e-009,8.26562484e-004
,,,-2.30000000e-009,8.31249984e-004
,,,-2.27500000e-009,8.31249984e-004
,,,-2.25000000e-009,8.26562484e-004
,,,-2.22500000e-009,8.18749983e-004
,,,-2.20000000e-009,8.09374983e-004
,,,-2.17500000e-009,7.99999982e-004
,,,-2.15000000e-009,7.93749982e-004
,,,-2.12500000e-009,7.89062481e-004
,,,-2.10000000e-009,7.87499981e-004
,,,-2.07500000e-009,7.87499981e-004
,,,-2.05000000e-009,7.89062481e-004
,,,-2.02500000e-009,7.93749982e-004
,,,-2.00000000e-009,7.96874982e-004
,,,-1.97500000e-009,7.99999982e-004
,,,-1.95000000e-009,7.99999982e-004
,,,-1.92500000e-009,8.01562482e-004
,,,-1.90000000e-009,7.99999982e-004
,,,-1.87500000e-009,7.99999982e-004
,,,-1.85000000e-009,7.99999982e-004
,,,-1.82500000e-009,8.01562482e-004
,,,-1.80000000e-009,7.99999982e-004
,,,-1.77500000e-009,7.99999982e-004
,,,-1.75000000e-009,8.03124982e-004
,,,-1.72500000e-009,8.04687482e-004
,,,-1.70000000e-009,8.06249983e-004
,,,-1.67500000e-009,8.07812483e-004
,,,-1.65000000e-009,8.07812483e-004
,,,-1.62500000e-009,8.06249983e-004
,,,-1.60000000e-009,8.04687482e-004
,,,-1.57500000e-009,7.99999982e-004
,,,-1.55000000e-009,7.93749982e-004
,,,-1.52500000e-009,7.87499981e-004
,,,-1.50000000e-009,7.82812481e-004
,,,-1.47500000e-009,7.78124981e-004
,,,-1.45000000e-009,7.78124981e-004
,,,-1.42500000e-009,7.81249981e-004
,,,-1.40000000e-009,7.89062481e-004
,,,-1.37500000e-009,7.99999982e-004
,,,-1.35000000e-009,8.07812483e-004
,,,-1.32500000e-009,8.14062483e-004
,,,-1.30000000e-009,8.18749983e-004
,,,-1.27500000e-009,8.21874984e-004
,,,-1.25000000e-009,8.21874984e-004
,,,-1.22500000e-009,8.18749983e-004
,,,-1.20000000e-009,8.10937483e-004
,,,-1.17500000e-009,7.99999982e-004
,,,-1.15000000e-009,7.73437480e-004
,,,-1.12500000e-009,7.45312478e-004
,,,-1.10000000e-009,7.20312476e-004
,,,-1.07500000e-009,7.03124975e-004
,,,-1.05000000e-009,6.99999975e-004
,,,-1.02500000e-009,7.14062476e-004
,,,-1.00000000e-009,7.46874978e-004
,,,-9.75000000e-010,7.99999982e-004
,,,-9.50000000e-010,8.40624985e-004
,,,-9.25000000e-010,8.89062488e-004
,,,-9.00000000e-010,9.43749992e-004
,,,-8.75000000e-010,1.00312500e-003
,,,-8.50000000e-010,1.06406250e-003
,,,-8.25000000e-010,1.11875000e-003
,,,-8.00000000e-010,1.16718751e-003
,,,-7.75000000e-010,1.20000001e-003
,,,-7.50000000e-010,1.16562501e-003
,,,-7.25000000e-010,1.10312500e-003
,,,-7.00000000e-010,1.01562500e-003
,,,-6.75000000e-010,9.09374990e-004
,,,-6.50000000e-010,7.89062481e-004
,,,-6.25000000e-010,6.60937472e-004
,,,-6.00000000e-010,5.29687463e-004
,,,-5.75000000e-010,3.99999954e-004
,,,-5.50000000e-010,2.17187441e-004
,,,-5.25000000e-010,3.12499277e-005
,,,-5.00000000e-010,-1.46875085e-004
,,,-4.75000000e-010,-3.14062597e-004
,,,-4.50000000e-010,-4.62500107e-004
,,,-4.25000000e-010,-5.92187616e-004
,,,-4.00000000e-010,-7.03125124e-004
,,,-3.75000000e-010,-8.00000131e-004
,,,-3.50000000e-010,-9.53125142e-004
,,,-3.25000000e-010,-1.11718765e-003
,,,-3.00000000e-010,-1.29218767e-003
,,,-2.75000000e-010,-1.48125018e-003
,,,-2.50000000e-010,-1.68437519e-003
,,,-2.25000000e-010,-1.90468771e-003
,,,-2.00000000e-010,-2.14218773e-003
,,,-1.75000000e-010,-2.40000024e-003
,,,-1.50000000e-010,-2.74062527e-003
,,,-1.25000000e-010,-3.11562530e-003
,,,-1.00000000e-010,-3.51562532e-003
,,,-7.50000000e-011,-3.93437535e-003
,,,-5.00000000e-011,-4.35937538e-003
,,,-2.50000000e-011,-4.78281291e-003
,,,0.00000000e+000,-5.19843794e-003
,,,2.50000000e-011,-5.60000047e-003
,,,5.00000000e-011,-6.02812550e-003
,,,7.50000000e-011,-6.45468803e-003
,,,1.00000000e-010,-6.87343806e-003
,,,1.25000000e-010,-7.28125059e-003
,,,1.50000000e-010,-7.67812562e-003
,,,1.75000000e-010,-8.06250065e-003
,,,2.00000000e-010,-8.43437567e-003
,,,2.25000000e-010,-8.80000070e-003
,,,2.50000000e-010,-9.17968822e-003
,,,2.75000000e-010,-9.57968825e-003
,,,3.00000000e-010,-1.00031258e-002
,,,3.25000000e-010,-1.04484383e-002
,,,3.50000000e-010,-1.09156258e-002
,,,3.75000000e-010,-1.14000009e-002
,,,4.00000000e-010,-1.18968759e-002
,,,4.25000000e-010,-1.24000010e-002
,,,4.50000000e-010,-1.28921885e-002
,,,4.75000000e-010,-1.33937510e-002
,,,5.00000000e-010,-1.38937511e-002
,,,5.25000000e-010,-1.43812511e-002
,,,5.50000000e-010,-1.48453136e-002
,,,5.75000000e-010,-1.52734387e-002
,,,6.00000000e-010,-1.56593762e-002
,,,6.25000000e-010,-1.60000012e-002
,,,6.50000000e-010,-1.62546887e-002
,,,6.75000000e-010,-1.64906262e-002
,,,7.00000000e-010,-1.67156263e-002
,,,7.25000000e-010,-1.69421888e-002
,,,7.50000000e-010,-1.71765638e-002
,,,7.75000000e-010,-1.74296888e-002
,,,8.00000000e-010,-1.77031263e-002
,,,8.25000000e-010,-1.80000013e-002
,,,8.50000000e-010,-1.82593764e-002
,,,8.75000000e-010,-1.85531264e-002
,,,9.00000000e-010,-1.88734389e-002
,,,9.25000000e-010,-1.92093764e-002
,,,9.50000000e-010,-1.95453140e-002
,,,9.75000000e-010,-1.98656265e-002
,,,1.00000000e-009,-2.01531265e-002
,,,1.02500000e-009,-2.04000015e-002
,,,1.05000000e-009,-2.05187515e-002
,,,1.07500000e-009,-2.06000015e-002
,,,1.10000000e-009,-2.06531265e-002
,,,1.12500000e-009,-2.06843765e-002
,,,1.15000000e-009,-2.07062515e-002
,,,1.17500000e-009,-2.07281265e-002
,,,1.20000000e-009,-2.07578140e-002
,,,1.22500000e-009,-2.08000015e-002
,,,1.25000000e-009,-2.07828140e-002
,,,1.27500000e-009,-2.07921890e-002
,,,1.30000000e-009,-2.08296890e-002
,,,1.32500000e-009,-2.08921891e-002
,,,1.35000000e-009,-2.09703141e-002
,,,1.37500000e-009,-2.10546891e-002
,,,1.40000000e-009,-2.11343766e-002
,,,1.42500000e-009,-2.12000016e-002
,,,1.45000000e-009,-2.11640641e-002
,,,1.47500000e-009,-2.11046891e-002
,,,1.50000000e-009,-2.10203141e-002
,,,1.52500000e-009,-2.09187516e-002
,,,1.55000000e-009,-2.08015640e-002
,,,1.57500000e-009,-2.06750015e-002
,,,1.60000000e-009,-2.05390640e-002
,,,1.62500000e-009,-2.04000015e-002
,,,1.65000000e-009,-2.01921890e-002
,,,1.67500000e-009,-1.99843765e-002
,,,1.70000000e-009,-1.97765640e-002
,,,1.72500000e-009,-1.95750015e-002
,,,1.75000000e-009,-1.93765639e-002
,,,1.77500000e-009,-1.91828139e-002
,,,1.80000000e-009,-1.89906264e-002
,,,1.82500000e-009,-1.88000014e-002
,,,1.85000000e-009,-1.85562514e-002
,,,1.87500000e-009,-1.83046889e-002
,,,1.90000000e-009,-1.80500014e-002
,,,1.92500000e-009,-1.77921888e-002
,,,1.95000000e-009,-1.75359388e-002
,,,1.97500000e-009,-1.72828138e-002
,,,2.00000000e-009,-1.70375013e-002
,,,2.02500000e-009,-1.68000013e-002
,,,2.05000000e-009,-1.65406262e-002
,,,2.07500000e-009,-1.62812512e-002
,,,2.10000000e-009,-1.60218762e-002
,,,2.12500000e-009,-1.57656262e-002
,,,2.15000000e-009,-1.55140637e-002
,,,2.17500000e-009,-1.52687512e-002
,,,2.20000000e-009,-1.50296886e-002
,,,2.22500000e-009,-1.48000011e-002
,,,2.25000000e-009,-1.45593761e-002
,,,2.27500000e-009,-1.43140636e-002
,,,2.30000000e-009,-1.40625011e-002
,,,2.32500000e-009,-1.38078136e-002
,,,2.35000000e-009,-1.35515635e-002
,,,2.37500000e-009,-1.32968760e-002
,,,2.40000000e-009,-1.30453135e-002
,,,2.42500000e-009,-1.28000010e-002
,,,2.45000000e-009,-1.25578135e-002
,,,2.47500000e-009,-1.23093759e-002
,,,2.50000000e-009,-1.20546884e-002
,,,2.52500000e-009,-1.17968759e-002
,,,2.55000000e-009,-1.15375009e-002
,,,2.57500000e-009,-1.12828134e-002
,,,2.60000000e-009,-1.10359384e-002
,,,2.62500000e-009,-1.08000008e-002
,,,2.65000000e-009,-1.05828133e-002
,,,2.67500000e-009,-1.03671883e-002
,,,2.70000000e-009,-1.01515633e-002
,,,2.72500000e-009,-9.94062578e-003
,,,2.75000000e-009,-9.73593826e-003
,,,2.77500000e-009,-9.54375075e-003
,,,2.80000000e-009,-9.36406324e-003
,,,2.82500000e-009,-9.20000073e-003
,,,2.85000000e-009,-9.06406322e-003
,,,2.87500000e-009,-8.92812571e-003
,,,2.90000000e-009,-8.78750070e-003
,,,2.92500000e-009,-8.64062569e-003
,,,2.95000000e-009,-8.48750068e-003
,,,2.97500000e-009,-8.32812566e-003
,,,3.00000000e-009,-8.16562565e-003
,,,3.02500000e-009,-8.00000064e-003
,,,3.05000000e-009,-7.84843813e-003
,,,3.07500000e-009,-7.68750062e-003
,,,3.10000000e-009,-7.52031311e-003
,,,3.12500000e-009,-7.35312559e-003
,,,3.15000000e-009,-7.19218808e-003
,,,3.17500000e-009,-7.04375057e-003
,,,3.20000000e-009,-6.91250056e-003
,,,3.22500000e-009,-6.80000056e-003
,,,3.25000000e-009,-6.71875055e-003
,,,3.27500000e-009,-6.64062554e-003
,,,3.30000000e-009,-6.56093804e-003
,,,3.32500000e-009,-6.47500053e-003
,,,3.35000000e-009,-6.37812553e-003
,,,3.37500000e-009,-6.26718802e-003
,,,3.40000000e-009,-6.14062551e-003
,,,3.42500000e-009,-6.00000050e-003
,,,3.45000000e-009,-5.85468799e-003
,,,3.47500000e-009,-5.69218798e-003
,,,3.50000000e-009,-5.51718797e-003
,,,3.52500000e-009,-5.33906295e-003
,,,3.55000000e-009,-5.16875044e-003
,,,3.57500000e-009,-5.01718793e-003
,,,3.60000000e-009,-4.89218792e-003
,,,3.62500000e-009,-4.80000041e-003
,,,3.65000000e-009,-4.75312541e-003
,,,3.67500000e-009,-4.73437541e-003
,,,3.70000000e-009,-4.73437541e-003
,,,3.72500000e-009,-4.74843791e-003
,,,3.75000000e-009,-4.76875041e-003
,,,3.77500000e-009,-4.78906291e-003
,,,3.80000000e-009,-4.80156291e-003
,,,3.82500000e-009,-4.80000041e-003
,,,3.85000000e-009,-4.77812541e-003
,,,3.87500000e-009,-4.72656291e-003
,,,3.90000000e-009,-4.64687540e-003
,,,3.92500000e-009,-4.54062540e-003
,,,3.95000000e-009,-4.41562539e-003
,,,3.97500000e-009,-4.27968788e-003
,,,4.00000000e-009,-4.13906287e-003
,,,4.02500000e-009,-4.00000036e-003
,,,4.05000000e-009,-3.87031285e-003
,,,4.07500000e-009,-3.74687534e-003
,,,4.10000000e-009,-3.63125033e-003
,,,4.12500000e-009,-3.52500032e-003
,,,4.15000000e-009,-3.42968782e-003
,,,4.17500000e-009,-3.34375031e-003
,,,4.20000000e-009,-3.26718781e-003
,,,4.22500000e-009,-3.20000030e-003
,,,4.25000000e-009,-3.14062530e-003
,,,4.27500000e-009,-3.08437529e-003
,,,4.30000000e-009,-3.02812529e-003
,,,4.32500000e-009,-2.97343778e-003
,,,4.35000000e-009,-2.92187528e-003
,,,4.37500000e-009,-2.87500028e-003
,,,4.40000000e-009,-2.83437528e-003
,,,4.42500000e-009,-2.80000027e-003
,,,4.45000000e-009,-2.77187527e-003
,,,4.47500000e-009,-2.74062527e-003
,,,4.50000000e-009,-2.70468777e-003
,,,4.52500000e-009,-2.66250026e-003
,,,4.55000000e-009,-2.61093776e-003
,,,4.57500000e-009,-2.55156276e-003
,,,4.60000000e-009,-2.47968775e-003
,,,4.62500000e-009,-2.40000024e-003
,,,4.65000000e-009,-2.31093774e-003
,,,4.67500000e-009,-2.21250023e-003
,,,4.70000000e-009,-2.10625022e-003
,,,4.72500000e-009,-1.99531272e-003
,,,4.75000000e-009,-1.88593771e-003
,,,4.77500000e-009,-1.78125020e-003
,,,4.80000000e-009,-1.68437519e-003
,,,4.82500000e-009,-1.60000019e-003
,,,4.85000000e-009,-1.53593768e-003
,,,4.87500000e-009,-1.48125018e-003
,,,4.90000000e-009,-1.43281268e-003
,,,4.92500000e-009,-1.38750017e-003
,,,4.95000000e-009,-1.34375017e-003
,,,4.97500000e-009,-1.29843767e-003
,,,5.00000000e-009,-1.25156266e-003
,,,5.02500000e-009,-1.20000016e-003
,,,5.05000000e-009,-1.15312516e-003
,,,5.07500000e-009,-1.10000015e-003
,,,5.10000000e-009,-1.04218765e-003
,,,5.12500000e-009,-9.82812644e-004
,,,5.15000000e-009,-9.25000140e-004
,,,5.17500000e-009,-8.73437636e-004
,,,5.20000000e-009,-8.31250133e-004
,,,5.22500000e-009,-8.00000131e-004
,,,5.25000000e-009,-7.87500130e-004
,,,5.27500000e-009,-7.82812630e-004
,,,5.30000000e-009,-7.85937630e-004
,,,5.32500000e-009,-7.90625130e-004
,,,5.35000000e-009,-7.96875131e-004
,,,5.37500000e-009,-8.01562631e-004
,,,5.40000000e-009,-8.03125131e-004
,,,5.42500000e-009,-8.00000131e-004
,,,5.45000000e-009,-7.95312631e-004
,,,5.47500000e-009,-7.84375130e-004
,,,5.50000000e-009,-7.70312629e-004
,,,5.52500000e-009,-7.57812628e-004
,,,5.55000000e-009,-7.51562628e-004
,,,5.57500000e-009,-7.53125128e-004
,,,5.60000000e-009,-7.68750129e-004
,,,5.62500000e-009,-8.00000131e-004
,,,5.65000000e-009,-8.46875134e-004
,,,5.67500000e-009,-9.03125138e-004
,,,5.70000000e-009,-9.65625143e-004
,,,5.72500000e-009,-1.02968765e-003
,,,5.75000000e-009,-1.08906265e-003
,,,5.77500000e-009,-1.14062516e-003
,,,5.80000000e-009,-1.17812516e-003
,,,5.82500000e-009,-1.20000016e-003
,,,5.85000000e-009,-1.19531266e-003
,,,5.87500000e-009,-1.17031266e-003
,,,5.90000000e-009,-1.12812515e-003
,,,5.92500000e-009,-1.07031265e-003
,,,5.95000000e-009,-1.00468765e-003
,,,5.97500000e-009,-9.34375141e-004
,,,6.00000000e-009,-8.64062636e-004
