RawData/SinglePhotoelectron/L3_2pt2foot_5mV/wave015_Ch4.csv

"Record Length",1000,"Points",-7.72500000e-009,7.81249981e-004
"Sample Interval",2.50000000e-011,s,-7.70000000e-009,7.35937478e-004
"Trigger Point",309,"Samples",-7.67500000e-009,6.74999973e-004
"Trigger Time",2.20099497e-011,s,-7.65000000e-009,6.03124968e-004
"",,,-7.62500000e-009,5.28124963e-004
"Horizontal Offset",-7.72500000e-009,s,-7.60000000e-009,4.59374958e-004
,,,-7.57500000e-009,3.99999954e-004
,,,-7.55000000e-009,3.59374951e-004
,,,-7.52500000e-009,3.35937449e-004
,,,-7.50000000e-009,3.29687449e-004
,,,-7.47500000e-009,3.35937449e-004
,,,-7.45000000e-009,3.51562450e-004
,,,-7.42500000e-009,3.70312452e-004
,,,-7.40000000e-009,3.87499953e-004
,,,-7.37500000e-009,3.99999954e-004
,,,-7.35000000e-009,4.10937455e-004
,,,-7.32500000e-009,4.14062455e-004
,,,-7.30000000e-009,4.07812454e-004
,,,-7.27500000e-009,3.98437454e-004
,,,-7.25000000e-009,3.89062453e-004
,,,-7.22500000e-009,3.84374953e-004
,,,-7.20000000e-009,3.87499953e-004
,,,-7.17500000e-009,3.99999954e-004
,,,-7.15000000e-009,4.32812456e-004
,,,-7.12500000e-009,4.74999959e-004
,,,-7.10000000e-009,5.26562463e-004
,,,-7.07500000e-009,5.85937467e-004
,,,-7.05000000e-009,6.45312471e-004
,,,-7.02500000e-009,7.04687475e-004
,,,-7.00000000e-009,7.57812479e-004
,,,-6.97500000e-009,7.99999982e-004
,,,-6.95000000e-009,8.31249984e-004
,,,-6.92500000e-009,8.49999986e-004
,,,-6.90000000e-009,8.57812486e-004
,,,-6.87500000e-009,8.54687486e-004
,,,-6.85000000e-009,8.45312485e-004
,,,-6.82500000e-009,8.31249984e-004
,,,-6.80000000e-009,8.15624983e-004
,,,-6.77500000e-009,7.99999982e-004
,,,-6.75000000e-009,7.89062481e-004
,,,-6.72500000e-009,7.79687481e-004
,,,-6.70000000e-009,7.76562480e-004
,,,-6.67500000e-009,7.76562480e-004
,,,-6.65000000e-009,7.81249981e-004
,,,-6.62500000e-009,7.85937481e-004
,,,-6.60000000e-009,7.93749982e-004
,,,-6.57500000e-009,7.99999982e-004
,,,-6.55000000e-009,8.03124982e-004
,,,-6.52500000e-009,8.04687482e-004
,,,-6.50000000e-009,8.03124982e-004
,,,-6.47500000e-009,8.03124982e-004
,,,-6.45000000e-009,8.01562482e-004
,,,-6.42500000e-009,7.99999982e-004
,,,-6.40000000e-009,7.99999982e-004
,,,-6.37500000e-009,7.99999982e-004
,,,-6.35000000e-009,8.01562482e-004
,,,-6.32500000e-009,8.03124982e-004
,,,-6.30000000e-009,8.06249983e-004
,,,-6.27500000e-009,8.09374983e-004
,,,-6.25000000e-009,8.10937483e-004
,,,-6.22500000e-009,8.09374983e-004
,,,-6.20000000e-009,8.06249983e-004
,,,-6.17500000e-009,7.99999982e-004
,,,-6.15000000e-009,7.90624981e-004
,,,-6.12500000e-009,7.81249981e-004
,,,-6.10000000e-009,7.73437480e-004
,,,-6.07500000e-009,7.68749980e-004
,,,-6.05000000e-009,7.67187480e-004
,,,-6.02500000e-009,7.73437480e-004
,,,-6.00000000e-009,7.84374981e-004
,,,-5.97500000e-009,7.99999982e-004
,,,-5.95000000e-009,8.20312484e-004
,,,-5.92500000e-009,8.42187485e-004
,,,-5.90000000e-009,8.60937486e-004
,,,-5.87500000e-009,8.71874987e-004
,,,-5.85000000e-009,8.74999987e-004
,,,-5.82500000e-009,8.65624987e-004
,,,-5.80000000e-009,8.40624985e-004
,,,-5.77500000e-009,7.99999982e-004
,,,-5.75000000e-009,7.48437478e-004
,,,-5.72500000e-009,6.85937474e-004
,,,-5.70000000e-009,6.18749969e-004
,,,-5.67500000e-009,5.53124965e-004
,,,-5.65000000e-009,4.93749960e-004
,,,-5.62500000e-009,4.45312457e-004
,,,-5.60000000e-009,4.12499955e-004
,,,-5.57500000e-009,3.99999954e-004
,,,-5.55000000e-009,4.10937455e-004
,,,-5.52500000e-009,4.40624957e-004
,,,-5.50000000e-009,4.87499960e-004
,,,-5.47500000e-009,5.46874964e-004
,,,-5.45000000e-009,6.12499969e-004
,,,-5.42500000e-009,6.79687474e-004
,,,-5.40000000e-009,7.45312478e-004
,,,-5.37500000e-009,7.99999982e-004
,,,-5.35000000e-009,8.48437486e-004
,,,-5.32500000e-009,8.81249988e-004
,,,-5.30000000e-009,8.98437489e-004
,,,-5.27500000e-009,9.01562489e-004
,,,-5.25000000e-009,8.90624989e-004
,,,-5.22500000e-009,8.67187487e-004
,,,-5.20000000e-009,8.35937485e-004
,,,-5.17500000e-009,7.99999982e-004
,,,-5.15000000e-009,7.65624980e-004
,,,-5.12500000e-009,7.35937478e-004
,,,-5.10000000e-009,7.14062476e-004
,,,-5.07500000e-009,7.04687475e-004
,,,-5.05000000e-009,7.09374976e-004
,,,-5.02500000e-009,7.28124977e-004
,,,-5.00000000e-009,7.59374979e-004
,,,-4.97500000e-009,7.99999982e-004
,,,-4.95000000e-009,8.48437486e-004
,,,-4.92500000e-009,8.93749989e-004
,,,-4.90000000e-009,9.31249991e-004
,,,-4.87500000e-009,9.53124993e-004
,,,-4.85000000e-009,9.54687493e-004
,,,-4.82500000e-009,9.29687491e-004
,,,-4.80000000e-009,8.78124988e-004
,,,-4.77500000e-009,7.99999982e-004
,,,-4.75000000e-009,7.04687475e-004
,,,-4.72500000e-009,5.98437468e-004
,,,-4.70000000e-009,4.93749960e-004
,,,-4.67500000e-009,4.03124954e-004
,,,-4.65000000e-009,3.39062449e-004
,,,-4.62500000e-009,3.12499948e-004
,,,-4.60000000e-009,3.32812449e-004
,,,-4.57500000e-009,3.99999954e-004
,,,-4.55000000e-009,5.18749962e-004
,,,-4.52500000e-009,6.73437473e-004
,,,-4.50000000e-009,8.56249986e-004
,,,-4.47500000e-009,1.04843750e-003
,,,-4.45000000e-009,1.23437501e-003
,,,-4.42500000e-009,1.39843752e-003
,,,-4.40000000e-009,1.52343753e-003
,,,-4.37500000e-009,1.60000004e-003
,,,-4.35000000e-009,1.61562504e-003
,,,-4.32500000e-009,1.57656254e-003
,,,-4.30000000e-009,1.49062503e-003
,,,-4.27500000e-009,1.36875002e-003
,,,-4.25000000e-009,1.22343751e-003
,,,-4.22500000e-009,1.07187500e-003
,,,-4.20000000e-009,9.26562491e-004
,,,-4.17500000e-009,7.99999982e-004
,,,-4.15000000e-009,7.04687475e-004
,,,-4.12500000e-009,6.45312471e-004
,,,-4.10000000e-009,6.18749969e-004
,,,-4.07500000e-009,6.24999970e-004
,,,-4.05000000e-009,6.54687472e-004
,,,-4.02500000e-009,6.98437475e-004
,,,-4.00000000e-009,7.51562479e-004
,,,-3.97500000e-009,7.99999982e-004
,,,-3.95000000e-009,8.40624985e-004
,,,-3.92500000e-009,8.65624987e-004
,,,-3.90000000e-009,8.76562488e-004
,,,-3.87500000e-009,8.74999987e-004
,,,-3.85000000e-009,8.60937486e-004
,,,-3.82500000e-009,8.42187485e-004
,,,-3.80000000e-009,8.20312484e-004
,,,-3.77500000e-009,7.99999982e-004
,,,-3.75000000e-009,7.85937481e-004
,,,-3.72500000e-009,7.78124981e-004
,,,-3.70000000e-009,7.74999980e-004
,,,-3.67500000e-009,7.78124981e-004
,,,-3.65000000e-009,7.84374981e-004
,,,-3.62500000e-009,7.92187482e-004
,,,-3.60000000e-009,7.98437482e-004
,,,-3.57500000e-009,7.99999982e-004
,,,-3.55000000e-009,7.96874982e-004
,,,-3.52500000e-009,7.89062481e-004
,,,-3.50000000e-009,7.81249981e-004
,,,-3.47500000e-009,7.74999980e-004
,,,-3.45000000e-009,7.71874980e-004
,,,-3.42500000e-009,7.74999980e-004
,,,-3.40000000e-009,7.84374981e-004
,,,-3.37500000e-009,7.99999982e-004
,,,-3.35000000e-009,8.24999984e-004
,,,-3.32500000e-009,8.51562486e-004
,,,-3.30000000e-009,8.73437487e-004
,,,-3.27500000e-009,8.87499988e-004
,,,-3.25000000e-009,8.90624989e-004
,,,-3.22500000e-009,8.78124988e-004
,,,-3.20000000e-009,8.48437486e-004
,,,-3.17500000e-009,7.99999982e-004
,,,-3.15000000e-009,7.39062478e-004
,,,-3.12500000e-009,6.67187473e-004
,,,-3.10000000e-009,5.92187467e-004
,,,-3.07500000e-009,5.20312462e-004
,,,-3.05000000e-009,4.59374958e-004
,,,-3.02500000e-009,4.17187455e-004
,,,-3.00000000e-009,3.96874954e-004
,,,-2.97500000e-009,3.99999954e-004
,,,-2.95000000e-009,4.32812456e-004
,,,-2.92500000e-009,4.85937460e-004
,,,-2.90000000e-009,5.53124965e-004
,,,-2.87500000e-009,6.24999970e-004
,,,-2.85000000e-009,6.93749975e-004
,,,-2.82500000e-009,7.49999979e-004
,,,-2.80000000e-009,7.87499981e-004
,,,-2.77500000e-009,7.99999982e-004
,,,-2.75000000e-009,7.85937481e-004
,,,-2.72500000e-009,7.46874978e-004
,,,-2.70000000e-009,6.87499974e-004
,,,-2.67500000e-009,6.18749969e-004
,,,-2.65000000e-009,5.45312464e-004
,,,-2.62500000e-009,4.79687459e-004
,,,-2.60000000e-009,4.29687456e-004
,,,-2.57500000e-009,3.99999954e-004
,,,-2.55000000e-009,3.99999954e-004
,,,-2.52500000e-009,4.26562456e-004
,,,-2.50000000e-009,4.73437459e-004
,,,-2.47500000e-009,5.35937463e-004
,,,-2.45000000e-009,6.07812469e-004
,,,-2.42500000e-009,6.79687474e-004
,,,-2.40000000e-009,7.46874978e-004
,,,-2.37500000e-009,7.99999982e-004
,,,-2.35000000e-009,8.39062485e-004
,,,-2.32500000e-009,8.59374986e-004
,,,-2.30000000e-009,8.62499987e-004
,,,-2.27500000e-009,8.54687486e-004
,,,-2.25000000e-009,8.40624985e-004
,,,-2.22500000e-009,8.23437484e-004
,,,-2.20000000e-009,8.09374983e-004
,,,-2.17500000e-009,7.99999982e-004
,,,-2.15000000e-009,8.01562482e-004
,,,-2.12500000e-009,8.07812483e-004
,,,-2.10000000e-009,8.20312484e-004
,,,-2.07500000e-009,8.32812484e-004
,,,-2.05000000e-009,8.42187485e-004
,,,-2.02500000e-009,8.42187485e-004
,,,-2.00000000e-009,8.29687484e-004
,,,-1.97500000e-009,7.99999982e-004
,,,-1.95000000e-009,7.54687479e-004
,,,-1.92500000e-009,6.95312475e-004
,,,-1.90000000e-009,6.29687470e-004
,,,-1.87500000e-009,5.60937465e-004
,,,-1.85000000e-009,4.98437461e-004
,,,-1.82500000e-009,4.48437457e-004
,,,-1.80000000e-009,4.14062455e-004
,,,-1.77500000e-009,3.99999954e-004
,,,-1.75000000e-009,4.12499955e-004
,,,-1.72500000e-009,4.43749957e-004
,,,-1.70000000e-009,4.93749960e-004
,,,-1.67500000e-009,5.54687465e-004
,,,-1.65000000e-009,6.21874970e-004
,,,-1.62500000e-009,6.89062474e-004
,,,-1.60000000e-009,7.49999979e-004
,,,-1.57500000e-009,7.99999982e-004
,,,-1.55000000e-009,8.28124984e-004
,,,-1.52500000e-009,8.39062485e-004
,,,-1.50000000e-009,8.37499985e-004
,,,-1.47500000e-009,8.28124984e-004
,,,-1.45000000e-009,8.15624983e-004
,,,-1.42500000e-009,8.03124982e-004
,,,-1.40000000e-009,7.98437482e-004
,,,-1.37500000e-009,7.99999982e-004
,,,-1.35000000e-009,8.01562482e-004
,,,-1.32500000e-009,8.07812483e-004
,,,-1.30000000e-009,8.17187483e-004
,,,-1.27500000e-009,8.28124984e-004
,,,-1.25000000e-009,8.34374985e-004
,,,-1.22500000e-009,8.34374985e-004
,,,-1.20000000e-009,8.23437484e-004
,,,-1.17500000e-009,7.99999982e-004
,,,-1.15000000e-009,7.45312478e-004
,,,-1.12500000e-009,6.78124973e-004
,,,-1.10000000e-009,6.04687468e-004
,,,-1.07500000e-009,5.34374963e-004
,,,-1.05000000e-009,4.71874959e-004
,,,-1.02500000e-009,4.24999956e-004
,,,-1.00000000e-009,4.01562454e-004
,,,-9.75000000e-010,3.99999954e-004
,,,-9.50000000e-010,3.95312453e-004
,,,-9.25000000e-010,4.01562454e-004
,,,-9.00000000e-010,4.17187455e-004
,,,-8.75000000e-010,4.34374956e-004
,,,-8.50000000e-010,4.48437457e-004
,,,-8.25000000e-010,4.51562457e-004
,,,-8.00000000e-010,4.37499956e-004
,,,-7.75000000e-010,3.99999954e-004
,,,-7.50000000e-010,2.95312446e-004
,,,-7.25000000e-010,1.59374937e-004
,,,-7.00000000e-010,-7.45058060e-011
,,,-6.75000000e-010,-1.71875087e-004
,,,-6.50000000e-010,-3.48437599e-004
,,,-6.25000000e-010,-5.17187611e-004
,,,-6.00000000e-010,-6.68750122e-004
,,,-5.75000000e-010,-8.00000131e-004
,,,-5.50000000e-010,-9.45312641e-004
,,,-5.25000000e-010,-1.07656265e-003
,,,-5.00000000e-010,-1.18906266e-003
,,,-4.75000000e-010,-1.28593767e-003
,,,-4.50000000e-010,-1.37031267e-003
,,,-4.25000000e-010,-1.44687518e-003
,,,-4.00000000e-010,-1.52031268e-003
,,,-3.75000000e-010,-1.60000019e-003
,,,-3.50000000e-010,-1.72968770e-003
,,,-3.25000000e-010,-1.88593771e-003
,,,-3.00000000e-010,-2.06562522e-003
,,,-2.75000000e-010,-2.26718773e-003
,,,-2.50000000e-010,-2.48593775e-003
,,,-2.25000000e-010,-2.71562527e-003
,,,-2.00000000e-010,-2.95468778e-003
,,,-1.75000000e-010,-3.20000030e-003
,,,-1.50000000e-010,-3.47500032e-003
,,,-1.25000000e-010,-3.76093784e-003
,,,-1.00000000e-010,-4.05781286e-003
,,,-7.50000000e-011,-4.35937538e-003
,,,-5.00000000e-011,-4.66562540e-003
,,,-2.50000000e-011,-4.97500043e-003
,,,0.00000000e+000,-5.28593795e-003
,,,2.50000000e-011,-5.60000047e-003
,,,5.00000000e-011,-5.92656299e-003
,,,7.50000000e-011,-6.26406302e-003
,,,1.00000000e-010,-6.61406304e-003
,,,1.25000000e-010,-6.97031307e-003
,,,1.50000000e-010,-7.33125059e-003
,,,1.75000000e-010,-7.69218812e-003
,,,2.00000000e-010,-8.04843814e-003
,,,2.25000000e-010,-8.40000067e-003
,,,2.50000000e-010,-8.72343819e-003
,,,2.75000000e-010,-9.04531321e-003
,,,3.00000000e-010,-9.36250074e-003
,,,3.25000000e-010,-9.67500076e-003
,,,3.50000000e-010,-9.97812578e-003
,,,3.75000000e-010,-1.02687508e-002
,,,4.00000000e-010,-1.05437508e-002
,,,4.25000000e-010,-1.08000008e-002
,,,4.50000000e-010,-1.09921884e-002
,,,4.75000000e-010,-1.11734384e-002
,,,5.00000000e-010,-1.13421884e-002
,,,5.25000000e-010,-1.14984384e-002
,,,5.50000000e-010,-1.16437509e-002
,,,5.75000000e-010,-1.17765634e-002
,,,6.00000000e-010,-1.18953134e-002
,,,6.25000000e-010,-1.20000009e-002
,,,6.50000000e-010,-1.20375009e-002
,,,6.75000000e-010,-1.20750009e-002
,,,7.00000000e-010,-1.21140634e-002
,,,7.25000000e-010,-1.21578134e-002
,,,7.50000000e-010,-1.22093759e-002
,,,7.75000000e-010,-1.22671884e-002
,,,8.00000000e-010,-1.23312509e-002
,,,8.25000000e-010,-1.24000010e-002
,,,8.50000000e-010,-1.24109385e-002
,,,8.75000000e-010,-1.24328135e-002
,,,9.00000000e-010,-1.24671885e-002
,,,9.25000000e-010,-1.25140635e-002
,,,9.50000000e-010,-1.25750010e-002
,,,9.75000000e-010,-1.26468760e-002
,,,1.00000000e-009,-1.27234385e-002
,,,1.02500000e-009,-1.28000010e-002
,,,1.05000000e-009,-1.28078135e-002
,,,1.07500000e-009,-1.28046885e-002
,,,1.10000000e-009,-1.27890635e-002
,,,1.12500000e-009,-1.27562510e-002
,,,1.15000000e-009,-1.27046885e-002
,,,1.17500000e-009,-1.26281260e-002
,,,1.20000000e-009,-1.25265635e-002
,,,1.22500000e-009,-1.24000010e-002
,,,1.25000000e-009,-1.21984384e-002
,,,1.27500000e-009,-1.19781259e-002
,,,1.30000000e-009,-1.17515634e-002
,,,1.32500000e-009,-1.15265634e-002
,,,1.35000000e-009,-1.13125009e-002
,,,1.37500000e-009,-1.11171884e-002
,,,1.40000000e-009,-1.09453133e-002
,,,1.42500000e-009,-1.08000008e-002
,,,1.45000000e-009,-1.06437508e-002
,,,1.47500000e-009,-1.05031258e-002
,,,1.50000000e-009,-1.03734383e-002
,,,1.52500000e-009,-1.02453133e-002
,,,1.55000000e-009,-1.01109383e-002
,,,1.57500000e-009,-9.96406328e-003
,,,1.60000000e-009,-9.79531327e-003
,,,1.62500000e-009,-9.60000075e-003
,,,1.65000000e-009,-9.35468824e-003
,,,1.67500000e-009,-9.07812572e-003
,,,1.70000000e-009,-8.77343820e-003
,,,1.72500000e-009,-8.45000067e-003
,,,1.75000000e-009,-8.12031315e-003
,,,1.77500000e-009,-7.79531313e-003
,,,1.80000000e-009,-7.48437560e-003
,,,1.82500000e-009,-7.20000058e-003
,,,1.85000000e-009,-6.94843807e-003
,,,1.87500000e-009,-6.72812555e-003
,,,1.90000000e-009,-6.54062554e-003
,,,1.92500000e-009,-6.38281303e-003
,,,1.95000000e-009,-6.25468802e-003
,,,1.97500000e-009,-6.15156301e-003
,,,2.00000000e-009,-6.06875050e-003
,,,2.02500000e-009,-6.00000050e-003
,,,2.05000000e-009,-5.95000050e-003
,,,2.07500000e-009,-5.89218799e-003
,,,2.10000000e-009,-5.82031299e-003
,,,2.12500000e-009,-5.72968798e-003
,,,2.15000000e-009,-5.62031297e-003
,,,2.17500000e-009,-5.49531296e-003
,,,2.20000000e-009,-5.35312545e-003
,,,2.22500000e-009,-5.20000044e-003
,,,2.25000000e-009,-5.05312543e-003
,,,2.27500000e-009,-4.89531292e-003
,,,2.30000000e-009,-4.72968791e-003
,,,2.32500000e-009,-4.56250040e-003
,,,2.35000000e-009,-4.40000039e-003
,,,2.37500000e-009,-4.24843788e-003
,,,2.40000000e-009,-4.11406287e-003
,,,2.42500000e-009,-4.00000036e-003
,,,2.45000000e-009,-3.92656285e-003
,,,2.47500000e-009,-3.86562535e-003
,,,2.50000000e-009,-3.81406284e-003
,,,2.52500000e-009,-3.76875034e-003
,,,2.55000000e-009,-3.72656284e-003
,,,2.57500000e-009,-3.68593784e-003
,,,2.60000000e-009,-3.64375033e-003
,,,2.62500000e-009,-3.60000033e-003
,,,2.65000000e-009,-3.56718783e-003
,,,2.67500000e-009,-3.52500032e-003
,,,2.70000000e-009,-3.47187532e-003
,,,2.72500000e-009,-3.41093782e-003
,,,2.75000000e-009,-3.35000031e-003
,,,2.77500000e-009,-3.29062531e-003
,,,2.80000000e-009,-3.23906280e-003
,,,2.82500000e-009,-3.20000030e-003
,,,2.85000000e-009,-3.18593780e-003
,,,2.87500000e-009,-3.17968780e-003
,,,2.90000000e-009,-3.18125030e-003
,,,2.92500000e-009,-3.18750030e-003
,,,2.95000000e-009,-3.19531280e-003
,,,2.97500000e-009,-3.20156280e-003
,,,3.00000000e-009,-3.20468780e-003
,,,3.02500000e-009,-3.20000030e-003
,,,3.05000000e-009,-3.18750030e-003
,,,3.07500000e-009,-3.16250030e-003
,,,3.10000000e-009,-3.12187530e-003
,,,3.12500000e-009,-3.06875029e-003
,,,3.15000000e-009,-3.00781279e-003
,,,3.17500000e-009,-2.93906278e-003
,,,3.20000000e-009,-2.86875028e-003
,,,3.22500000e-009,-2.80000027e-003
,,,3.25000000e-009,-2.73593777e-003
,,,3.27500000e-009,-2.67343776e-003
,,,3.30000000e-009,-2.61406276e-003
,,,3.32500000e-009,-2.55937526e-003
,,,3.35000000e-009,-2.51093775e-003
,,,3.37500000e-009,-2.46718775e-003
,,,3.40000000e-009,-2.42968775e-003
,,,3.42500000e-009,-2.40000024e-003
,,,3.45000000e-009,-2.37500024e-003
,,,3.47500000e-009,-2.35468774e-003
,,,3.50000000e-009,-2.34218774e-003
,,,3.52500000e-009,-2.33593774e-003
,,,3.55000000e-009,-2.33906274e-003
,,,3.57500000e-009,-2.35000024e-003
,,,3.60000000e-009,-2.37031274e-003
,,,3.62500000e-009,-2.40000024e-003
,,,3.65000000e-009,-2.42968775e-003
,,,3.67500000e-009,-2.45781275e-003
,,,3.70000000e-009,-2.48125025e-003
,,,3.72500000e-009,-2.49531275e-003
,,,3.75000000e-009,-2.49531275e-003
,,,3.77500000e-009,-2.48125025e-003
,,,3.80000000e-009,-2.45000025e-003
,,,3.82500000e-009,-2.40000024e-003
,,,3.85000000e-009,-2.32656274e-003
,,,3.87500000e-009,-2.23593773e-003
,,,3.90000000e-009,-2.13281273e-003
,,,3.92500000e-009,-2.02187522e-003
,,,3.95000000e-009,-1.90781271e-003
,,,3.97500000e-009,-1.79531270e-003
,,,4.00000000e-009,-1.69218769e-003
,,,4.02500000e-009,-1.60000019e-003
,,,4.05000000e-009,-1.52031268e-003
,,,4.07500000e-009,-1.45468768e-003
,,,4.10000000e-009,-1.39843767e-003
,,,4.12500000e-009,-1.35156267e-003
,,,4.15000000e-009,-1.31093767e-003
,,,4.17500000e-009,-1.27343766e-003
,,,4.20000000e-009,-1.23750016e-003
,,,4.22500000e-009,-1.20000016e-003
,,,4.25000000e-009,-1.15625016e-003
,,,4.27500000e-009,-1.10625015e-003
,,,4.30000000e-009,-1.05156265e-003
,,,4.32500000e-009,-9.95312645e-004
,,,4.35000000e-009,-9.37500141e-004
,,,4.37500000e-009,-8.82812637e-004
,,,4.40000000e-009,-8.35937634e-004
,,,4.42500000e-009,-8.00000131e-004
,,,4.45000000e-009,-7.78125130e-004
,,,4.47500000e-009,-7.65625129e-004
,,,4.50000000e-009,-7.62500128e-004
,,,4.52500000e-009,-7.65625129e-004
,,,4.55000000e-009,-7.71875129e-004
,,,4.57500000e-009,-7.81250130e-004
,,,4.60000000e-009,-7.90625130e-004
,,,4.62500000e-009,-8.00000131e-004
,,,4.65000000e-009,-8.06250132e-004
,,,4.67500000e-009,-8.09375132e-004
,,,4.70000000e-009,-8.07812632e-004
,,,4.72500000e-009,-8.04687631e-004
,,,4.75000000e-009,-8.00000131e-004
,,,4.77500000e-009,-7.98437631e-004
,,,4.80000000e-009,-7.98437631e-004
,,,4.82500000e-009,-8.00000131e-004
,,,4.85000000e-009,-8.01562631e-004
,,,4.87500000e-009,-7.98437631e-004
,,,4.90000000e-009,-7.81250130e-004
,,,4.92500000e-009,-7.50000128e-004
,,,4.95000000e-009,-6.96875124e-004
,,,4.97500000e-009,-6.20312618e-004
,,,5.00000000e-009,-5.21875111e-004
,,,5.02500000e-009,-4.00000103e-004
,,,5.05000000e-009,-2.64062593e-004
,,,5.07500000e-009,-1.18750083e-004
,,,5.10000000e-009,2.65624274e-005
,,,5.12500000e-009,1.60937437e-004
,,,5.15000000e-009,2.74999945e-004
,,,5.17500000e-009,3.56249951e-004
,,,5.20000000e-009,3.99999954e-004
,,,5.22500000e-009,3.99999954e-004
,,,5.25000000e-009,3.49999950e-004
,,,5.27500000e-009,2.65624944e-004
,,,5.30000000e-009,1.53124936e-004
,,,5.32500000e-009,2.49999273e-005
,,,5.35000000e-009,-1.06250082e-004
,,,5.37500000e-009,-2.28125091e-004
,,,5.40000000e-009,-3.28125098e-004
,,,5.42500000e-009,-4.00000103e-004
,,,5.45000000e-009,-4.34375105e-004
,,,5.47500000e-009,-4.32812605e-004
,,,5.50000000e-009,-3.96875103e-004
,,,5.52500000e-009,-3.34375098e-004
,,,5.55000000e-009,-2.53125092e-004
,,,5.57500000e-009,-1.64062586e-004
,,,5.60000000e-009,-7.65625799e-005
,,,5.62500000e-009,-7.45058060e-011
,,,5.65000000e-009,6.09374298e-005
,,,5.67500000e-009,1.01562433e-004
,,,5.70000000e-009,1.20312434e-004
,,,5.72500000e-009,1.20312434e-004
,,,5.75000000e-009,1.03124933e-004
,,,5.77500000e-009,7.34374307e-005
,,,5.80000000e-009,3.74999281e-005
,,,5.82500000e-009,-7.45058060e-011
,,,5.85000000e-009,-3.28125768e-005
,,,5.87500000e-009,-5.62500785e-005
,,,5.90000000e-009,-6.87500794e-005
,,,5.92500000e-009,-7.03125795e-005
,,,5.95000000e-009,-6.25000789e-005
,,,5.97500000e-009,-4.53125777e-005
,,,6.00000000e-009,-2.34375762e-005
