RawData/SinglePhotoelectron/L3_2pt2foot_5mV/wave006_Ch4.csv

"Record Length",1000,"Points",-7.72500000e-009,7.48437478e-004
"Sample Interval",2.50000000e-011,s,-7.70000000e-009,6.74999973e-004
"Trigger Point",309,"Samples",-7.67500000e-009,5.89062467e-004
"Trigger Time",5.13111111e-012,s,-7.65000000e-009,5.03124961e-004
"",,,-7.62500000e-009,4.31249956e-004
"Horizontal Offset",-7.72500000e-009,s,-7.60000000e-009,3.84374953e-004
,,,-7.57500000e-009,3.71874952e-004
,,,-7.55000000e-009,3.99999954e-004
,,,-7.52500000e-009,4.73437459e-004
,,,-7.50000000e-009,5.79687467e-004
,,,-7.47500000e-009,7.09374976e-004
,,,-7.45000000e-009,8.48437486e-004
,,,-7.42500000e-009,9.81249995e-004
,,,-7.40000000e-009,1.09218750e-003
,,,-7.37500000e-009,1.16875001e-003
,,,-7.35000000e-009,1.20000001e-003
,,,-7.32500000e-009,1.17968751e-003
,,,-7.30000000e-009,1.11406250e-003
,,,-7.27500000e-009,1.00937500e-003
,,,-7.25000000e-009,8.81249988e-004
,,,-7.22500000e-009,7.40624978e-004
,,,-7.20000000e-009,6.06249968e-004
,,,-7.17500000e-009,4.89062460e-004
,,,-7.15000000e-009,3.99999954e-004
,,,-7.12500000e-009,3.54687451e-004
,,,-7.10000000e-009,3.51562450e-004
,,,-7.07500000e-009,3.84374953e-004
,,,-7.05000000e-009,4.48437457e-004
,,,-7.02500000e-009,5.34374963e-004
,,,-7.00000000e-009,6.28124970e-004
,,,-6.97500000e-009,7.20312476e-004
,,,-6.95000000e-009,7.99999982e-004
,,,-6.92500000e-009,8.57812486e-004
,,,-6.90000000e-009,8.93749989e-004
,,,-6.87500000e-009,9.04687490e-004
,,,-6.85000000e-009,8.98437489e-004
,,,-6.82500000e-009,8.78124988e-004
,,,-6.80000000e-009,8.51562486e-004
,,,-6.77500000e-009,8.23437484e-004
,,,-6.75000000e-009,7.99999982e-004
,,,-6.72500000e-009,7.85937481e-004
,,,-6.70000000e-009,7.81249981e-004
,,,-6.67500000e-009,7.85937481e-004
,,,-6.65000000e-009,7.93749982e-004
,,,-6.62500000e-009,8.03124982e-004
,,,-6.60000000e-009,8.09374983e-004
,,,-6.57500000e-009,8.09374983e-004
,,,-6.55000000e-009,7.99999982e-004
,,,-6.52500000e-009,7.81249981e-004
,,,-6.50000000e-009,7.56249979e-004
,,,-6.47500000e-009,7.31249977e-004
,,,-6.45000000e-009,7.12499976e-004
,,,-6.42500000e-009,7.04687475e-004
,,,-6.40000000e-009,7.15624976e-004
,,,-6.37500000e-009,7.46874978e-004
,,,-6.35000000e-009,7.99999982e-004
,,,-6.32500000e-009,8.74999987e-004
,,,-6.30000000e-009,9.59374993e-004
,,,-6.27500000e-009,1.04843750e-003
,,,-6.25000000e-009,1.12812501e-003
,,,-6.22500000e-009,1.19218751e-003
,,,-6.20000000e-009,1.22968751e-003
,,,-6.17500000e-009,1.23437501e-003
,,,-6.15000000e-009,1.20000001e-003
,,,-6.12500000e-009,1.12500001e-003
,,,-6.10000000e-009,1.01875000e-003
,,,-6.07500000e-009,8.93749989e-004
,,,-6.05000000e-009,7.60937479e-004
,,,-6.02500000e-009,6.34374970e-004
,,,-6.00000000e-009,5.24999963e-004
,,,-5.97500000e-009,4.45312457e-004
,,,-5.95000000e-009,3.99999954e-004
,,,-5.92500000e-009,3.99999954e-004
,,,-5.90000000e-009,4.34374956e-004
,,,-5.87500000e-009,4.96874961e-004
,,,-5.85000000e-009,5.74999966e-004
,,,-5.82500000e-009,6.56249972e-004
,,,-5.80000000e-009,7.28124977e-004
,,,-5.77500000e-009,7.78124981e-004
,,,-5.75000000e-009,7.99999982e-004
,,,-5.72500000e-009,7.89062481e-004
,,,-5.70000000e-009,7.46874978e-004
,,,-5.67500000e-009,6.81249974e-004
,,,-5.65000000e-009,6.03124968e-004
,,,-5.62500000e-009,5.24999963e-004
,,,-5.60000000e-009,4.57812458e-004
,,,-5.57500000e-009,4.14062455e-004
,,,-5.55000000e-009,3.99999954e-004
,,,-5.52500000e-009,4.21874955e-004
,,,-5.50000000e-009,4.73437459e-004
,,,-5.47500000e-009,5.43749964e-004
,,,-5.45000000e-009,6.24999970e-004
,,,-5.42500000e-009,7.01562475e-004
,,,-5.40000000e-009,7.62499979e-004
,,,-5.37500000e-009,7.98437482e-004
,,,-5.35000000e-009,7.99999982e-004
,,,-5.32500000e-009,7.68749980e-004
,,,-5.30000000e-009,7.09374976e-004
,,,-5.27500000e-009,6.29687470e-004
,,,-5.25000000e-009,5.42187464e-004
,,,-5.22500000e-009,4.64062458e-004
,,,-5.20000000e-009,4.06249954e-004
,,,-5.17500000e-009,3.82812453e-004
,,,-5.15000000e-009,3.99999954e-004
,,,-5.12500000e-009,4.65624958e-004
,,,-5.10000000e-009,5.67187466e-004
,,,-5.07500000e-009,6.93749975e-004
,,,-5.05000000e-009,8.32812484e-004
,,,-5.02500000e-009,9.68749994e-004
,,,-5.00000000e-009,1.08281250e-003
,,,-4.97500000e-009,1.16406251e-003
,,,-4.95000000e-009,1.20000001e-003
,,,-4.92500000e-009,1.18593751e-003
,,,-4.90000000e-009,1.12343751e-003
,,,-4.87500000e-009,1.02187500e-003
,,,-4.85000000e-009,8.95312489e-004
,,,-4.82500000e-009,7.53124979e-004
,,,-4.80000000e-009,6.15624969e-004
,,,-4.77500000e-009,4.93749960e-004
,,,-4.75000000e-009,3.99999954e-004
,,,-4.72500000e-009,3.51562450e-004
,,,-4.70000000e-009,3.42187450e-004
,,,-4.67500000e-009,3.71874952e-004
,,,-4.65000000e-009,4.32812456e-004
,,,-4.62500000e-009,5.18749962e-004
,,,-4.60000000e-009,6.14062469e-004
,,,-4.57500000e-009,7.12499976e-004
,,,-4.55000000e-009,7.99999982e-004
,,,-4.52500000e-009,8.71874987e-004
,,,-4.50000000e-009,9.20312491e-004
,,,-4.47500000e-009,9.43749992e-004
,,,-4.45000000e-009,9.43749992e-004
,,,-4.42500000e-009,9.24999991e-004
,,,-4.40000000e-009,8.90624989e-004
,,,-4.37500000e-009,8.46874985e-004
,,,-4.35000000e-009,7.99999982e-004
,,,-4.32500000e-009,7.59374979e-004
,,,-4.30000000e-009,7.26562477e-004
,,,-4.27500000e-009,7.06249975e-004
,,,-4.25000000e-009,6.98437475e-004
,,,-4.22500000e-009,7.04687475e-004
,,,-4.20000000e-009,7.24999977e-004
,,,-4.17500000e-009,7.57812479e-004
,,,-4.15000000e-009,7.99999982e-004
,,,-4.12500000e-009,8.48437486e-004
,,,-4.10000000e-009,8.99999989e-004
,,,-4.07500000e-009,9.54687493e-004
,,,-4.05000000e-009,1.00937500e-003
,,,-4.02500000e-009,1.06250000e-003
,,,-4.00000000e-009,1.11406250e-003
,,,-3.97500000e-009,1.16093751e-003
,,,-3.95000000e-009,1.20000001e-003
,,,-3.92500000e-009,1.22968751e-003
,,,-3.90000000e-009,1.24843751e-003
,,,-3.87500000e-009,1.25781251e-003
,,,-3.85000000e-009,1.25937501e-003
,,,-3.82500000e-009,1.25156251e-003
,,,-3.80000000e-009,1.23906251e-003
,,,-3.77500000e-009,1.22031251e-003
,,,-3.75000000e-009,1.20000001e-003
,,,-3.72500000e-009,1.17656251e-003
,,,-3.70000000e-009,1.15625001e-003
,,,-3.67500000e-009,1.14218751e-003
,,,-3.65000000e-009,1.13593751e-003
,,,-3.62500000e-009,1.13906251e-003
,,,-3.60000000e-009,1.15156251e-003
,,,-3.57500000e-009,1.17187501e-003
,,,-3.55000000e-009,1.20000001e-003
,,,-3.52500000e-009,1.22968751e-003
,,,-3.50000000e-009,1.25781251e-003
,,,-3.47500000e-009,1.28125002e-003
,,,-3.45000000e-009,1.29687502e-003
,,,-3.42500000e-009,1.29843752e-003
,,,-3.40000000e-009,1.28593752e-003
,,,-3.37500000e-009,1.25312501e-003
,,,-3.35000000e-009,1.20000001e-003
,,,-3.32500000e-009,1.12343751e-003
,,,-3.30000000e-009,1.02968750e-003
,,,-3.27500000e-009,9.24999991e-004
,,,-3.25000000e-009,8.10937483e-004
,,,-3.22500000e-009,6.96874975e-004
,,,-3.20000000e-009,5.85937467e-004
,,,-3.17500000e-009,4.85937460e-004
,,,-3.15000000e-009,3.99999954e-004
,,,-3.12500000e-009,3.37499949e-004
,,,-3.10000000e-009,2.95312446e-004
,,,-3.07500000e-009,2.74999945e-004
,,,-3.05000000e-009,2.73437445e-004
,,,-3.02500000e-009,2.87499946e-004
,,,-3.00000000e-009,3.15624948e-004
,,,-2.97500000e-009,3.54687451e-004
,,,-2.95000000e-009,3.99999954e-004
,,,-2.92500000e-009,4.57812458e-004
,,,-2.90000000e-009,5.14062462e-004
,,,-2.87500000e-009,5.70312466e-004
,,,-2.85000000e-009,6.23437470e-004
,,,-2.82500000e-009,6.73437473e-004
,,,-2.80000000e-009,7.20312476e-004
,,,-2.77500000e-009,7.62499979e-004
,,,-2.75000000e-009,7.99999982e-004
,,,-2.72500000e-009,8.32812484e-004
,,,-2.70000000e-009,8.57812486e-004
,,,-2.67500000e-009,8.74999987e-004
,,,-2.65000000e-009,8.81249988e-004
,,,-2.62500000e-009,8.78124988e-004
,,,-2.60000000e-009,8.62499987e-004
,,,-2.57500000e-009,8.37499985e-004
,,,-2.55000000e-009,7.99999982e-004
,,,-2.52500000e-009,7.56249979e-004
,,,-2.50000000e-009,7.04687475e-004
,,,-2.47500000e-009,6.48437471e-004
,,,-2.45000000e-009,5.90624967e-004
,,,-2.42500000e-009,5.32812463e-004
,,,-2.40000000e-009,4.79687459e-004
,,,-2.37500000e-009,4.34374956e-004
,,,-2.35000000e-009,3.99999954e-004
,,,-2.32500000e-009,3.84374953e-004
,,,-2.30000000e-009,3.84374953e-004
,,,-2.27500000e-009,4.03124954e-004
,,,-2.25000000e-009,4.43749957e-004
,,,-2.22500000e-009,5.04687461e-004
,,,-2.20000000e-009,5.87499967e-004
,,,-2.17500000e-009,6.87499974e-004
,,,-2.15000000e-009,7.99999982e-004
,,,-2.12500000e-009,9.14062490e-004
,,,-2.10000000e-009,1.02500000e-003
,,,-2.07500000e-009,1.12343751e-003
,,,-2.05000000e-009,1.20156251e-003
,,,-2.02500000e-009,1.25312501e-003
,,,-2.00000000e-009,1.27187502e-003
,,,-1.97500000e-009,1.25468751e-003
,,,-1.95000000e-009,1.20000001e-003
,,,-1.92500000e-009,1.10156250e-003
,,,-1.90000000e-009,9.78124995e-004
,,,-1.87500000e-009,8.42187485e-004
,,,-1.85000000e-009,7.06249975e-004
,,,-1.82500000e-009,5.84374967e-004
,,,-1.80000000e-009,4.87499960e-004
,,,-1.77500000e-009,4.23437455e-004
,,,-1.75000000e-009,3.99999954e-004
,,,-1.72500000e-009,4.07812454e-004
,,,-1.70000000e-009,4.46874957e-004
,,,-1.67500000e-009,5.10937462e-004
,,,-1.65000000e-009,5.89062467e-004
,,,-1.62500000e-009,6.68749973e-004
,,,-1.60000000e-009,7.37499978e-004
,,,-1.57500000e-009,7.84374981e-004
,,,-1.55000000e-009,7.99999982e-004
,,,-1.52500000e-009,7.65624980e-004
,,,-1.50000000e-009,6.95312475e-004
,,,-1.47500000e-009,5.92187467e-004
,,,-1.45000000e-009,4.68749959e-004
,,,-1.42500000e-009,3.35937449e-004
,,,-1.40000000e-009,2.06249940e-004
,,,-1.37500000e-009,9.21874320e-005
,,,-1.35000000e-009,-7.45058060e-011
,,,-1.32500000e-009,-7.65625799e-005
,,,-1.30000000e-009,-1.25000083e-004
,,,-1.27500000e-009,-1.45312585e-004
,,,-1.25000000e-009,-1.37500084e-004
,,,-1.22500000e-009,-1.10937582e-004
,,,-1.20000000e-009,-7.34375797e-005
,,,-1.17500000e-009,-3.28125768e-005
,,,-1.15000000e-009,-7.45058060e-011
,,,-1.12500000e-009,-3.12507473e-006
,,,-1.10000000e-009,-3.43750769e-005
,,,-1.07500000e-009,-9.68750814e-005
,,,-1.05000000e-009,-1.89062588e-004
,,,-1.02500000e-009,-3.10937597e-004
,,,-1.00000000e-009,-4.56250107e-004
,,,-9.75000000e-010,-6.21875119e-004
,,,-9.50000000e-010,-8.00000131e-004
,,,-9.25000000e-010,-9.95312645e-004
,,,-9.00000000e-010,-1.19218766e-003
,,,-8.75000000e-010,-1.38125017e-003
,,,-8.50000000e-010,-1.55625018e-003
,,,-8.25000000e-010,-1.70937520e-003
,,,-8.00000000e-010,-1.83593770e-003
,,,-7.75000000e-010,-1.93281271e-003
,,,-7.50000000e-010,-2.00000022e-003
,,,-7.25000000e-010,-2.05000022e-003
,,,-7.00000000e-010,-2.08593772e-003
,,,-6.75000000e-010,-2.11406272e-003
,,,-6.50000000e-010,-2.14375023e-003
,,,-6.25000000e-010,-2.17812523e-003
,,,-6.00000000e-010,-2.22968773e-003
,,,-5.75000000e-010,-2.30156274e-003
,,,-5.50000000e-010,-2.40000024e-003
,,,-5.25000000e-010,-2.52968775e-003
,,,-5.00000000e-010,-2.69531277e-003
,,,-4.75000000e-010,-2.88750028e-003
,,,-4.50000000e-010,-3.10312529e-003
,,,-4.25000000e-010,-3.33125031e-003
,,,-4.00000000e-010,-3.56406283e-003
,,,-3.75000000e-010,-3.78906284e-003
,,,-3.50000000e-010,-4.00000036e-003
,,,-3.25000000e-010,-4.17812537e-003
,,,-3.00000000e-010,-4.33437538e-003
,,,-2.75000000e-010,-4.46562539e-003
,,,-2.50000000e-010,-4.57187540e-003
,,,-2.25000000e-010,-4.65468790e-003
,,,-2.00000000e-010,-4.71718791e-003
,,,-1.75000000e-010,-4.76406291e-003
,,,-1.50000000e-010,-4.80000041e-003
,,,-1.25000000e-010,-4.81093792e-003
,,,-1.00000000e-010,-4.82656292e-003
,,,-7.50000000e-011,-4.85312542e-003
,,,-5.00000000e-011,-4.89218792e-003
,,,-2.50000000e-011,-4.94687542e-003
,,,0.00000000e+000,-5.01718793e-003
,,,2.50000000e-011,-5.10156294e-003
,,,5.00000000e-011,-5.20000044e-003
,,,7.50000000e-011,-5.28281295e-003
,,,1.00000000e-010,-5.37812546e-003
,,,1.25000000e-010,-5.48125046e-003
,,,1.50000000e-010,-5.59062547e-003
,,,1.75000000e-010,-5.70000048e-003
,,,2.00000000e-010,-5.80781299e-003
,,,2.25000000e-010,-5.90937549e-003
,,,2.50000000e-010,-6.00000050e-003
,,,2.75000000e-010,-6.04843800e-003
,,,3.00000000e-010,-6.08437551e-003
,,,3.25000000e-010,-6.10468801e-003
,,,3.50000000e-010,-6.10937551e-003
,,,3.75000000e-010,-6.10000051e-003
,,,4.00000000e-010,-6.07812550e-003
,,,4.25000000e-010,-6.04375050e-003
,,,4.50000000e-010,-6.00000050e-003
,,,4.75000000e-010,-5.92031299e-003
,,,5.00000000e-010,-5.84218799e-003
,,,5.25000000e-010,-5.77031298e-003
,,,5.50000000e-010,-5.70781298e-003
,,,5.75000000e-010,-5.65937548e-003
,,,6.00000000e-010,-5.62500047e-003
,,,6.25000000e-010,-5.60625047e-003
,,,6.50000000e-010,-5.60000047e-003
,,,6.75000000e-010,-5.57812547e-003
,,,7.00000000e-010,-5.56093797e-003
,,,7.25000000e-010,-5.53906297e-003
,,,7.50000000e-010,-5.50781296e-003
,,,7.75000000e-010,-5.46250046e-003
,,,8.00000000e-010,-5.39843796e-003
,,,8.25000000e-010,-5.31093795e-003
,,,8.50000000e-010,-5.20000044e-003
,,,8.75000000e-010,-5.04843793e-003
,,,9.00000000e-010,-4.87968792e-003
,,,9.25000000e-010,-4.70156291e-003
,,,9.50000000e-010,-4.52343789e-003
,,,9.75000000e-010,-4.35625038e-003
,,,1.00000000e-009,-4.20781287e-003
,,,1.02500000e-009,-4.08750036e-003
,,,1.05000000e-009,-4.00000036e-003
,,,1.07500000e-009,-3.94062535e-003
,,,1.10000000e-009,-3.91406285e-003
,,,1.12500000e-009,-3.91093785e-003
,,,1.15000000e-009,-3.92812535e-003
,,,1.17500000e-009,-3.95312535e-003
,,,1.20000000e-009,-3.97968786e-003
,,,1.22500000e-009,-3.99687536e-003
,,,1.25000000e-009,-4.00000036e-003
,,,1.27500000e-009,-3.97343786e-003
,,,1.30000000e-009,-3.91718785e-003
,,,1.32500000e-009,-3.83437535e-003
,,,1.35000000e-009,-3.72812534e-003
,,,1.37500000e-009,-3.60312533e-003
,,,1.40000000e-009,-3.47031282e-003
,,,1.42500000e-009,-3.33281281e-003
,,,1.45000000e-009,-3.20000030e-003
,,,1.47500000e-009,-3.07500029e-003
,,,1.50000000e-009,-2.95937528e-003
,,,1.52500000e-009,-2.85000028e-003
,,,1.55000000e-009,-2.75000027e-003
,,,1.57500000e-009,-2.65625026e-003
,,,1.60000000e-009,-2.56718776e-003
,,,1.62500000e-009,-2.48125025e-003
,,,1.65000000e-009,-2.40000024e-003
,,,1.67500000e-009,-2.32656274e-003
,,,1.70000000e-009,-2.25625023e-003
,,,1.72500000e-009,-2.18750023e-003
,,,1.75000000e-009,-2.12343772e-003
,,,1.77500000e-009,-2.07031272e-003
,,,1.80000000e-009,-2.03125022e-003
,,,1.82500000e-009,-2.00625022e-003
,,,1.85000000e-009,-2.00000022e-003
,,,1.87500000e-009,-2.01562522e-003
,,,1.90000000e-009,-2.03750022e-003
,,,1.92500000e-009,-2.05937522e-003
,,,1.95000000e-009,-2.07812522e-003
,,,1.97500000e-009,-2.08593772e-003
,,,2.00000000e-009,-2.07656272e-003
,,,2.02500000e-009,-2.04843772e-003
,,,2.05000000e-009,-2.00000022e-003
,,,2.07500000e-009,-1.93281271e-003
,,,2.10000000e-009,-1.84687521e-003
,,,2.12500000e-009,-1.74218770e-003
,,,2.15000000e-009,-1.62656269e-003
,,,2.17500000e-009,-1.50781268e-003
,,,2.20000000e-009,-1.39218767e-003
,,,2.22500000e-009,-1.28750017e-003
,,,2.25000000e-009,-1.20000016e-003
,,,2.27500000e-009,-1.14375016e-003
,,,2.30000000e-009,-1.10781265e-003
,,,2.32500000e-009,-1.09218765e-003
,,,2.35000000e-009,-1.09375015e-003
,,,2.37500000e-009,-1.10937515e-003
,,,2.40000000e-009,-1.13437515e-003
,,,2.42500000e-009,-1.16562516e-003
,,,2.45000000e-009,-1.20000016e-003
,,,2.47500000e-009,-1.23437516e-003
,,,2.50000000e-009,-1.26250016e-003
,,,2.52500000e-009,-1.27656266e-003
,,,2.55000000e-009,-1.27968767e-003
,,,2.57500000e-009,-1.27187516e-003
,,,2.60000000e-009,-1.25312516e-003
,,,2.62500000e-009,-1.22812516e-003
,,,2.65000000e-009,-1.20000016e-003
,,,2.67500000e-009,-1.17031266e-003
,,,2.70000000e-009,-1.14531266e-003
,,,2.72500000e-009,-1.12343765e-003
,,,2.75000000e-009,-1.11250015e-003
,,,2.77500000e-009,-1.11250015e-003
,,,2.80000000e-009,-1.12656265e-003
,,,2.82500000e-009,-1.15468766e-003
,,,2.85000000e-009,-1.20000016e-003
,,,2.87500000e-009,-1.25468766e-003
,,,2.90000000e-009,-1.31718767e-003
,,,2.92500000e-009,-1.38125017e-003
,,,2.95000000e-009,-1.44531268e-003
,,,2.97500000e-009,-1.50156268e-003
,,,3.00000000e-009,-1.55000018e-003
,,,3.02500000e-009,-1.58281269e-003
,,,3.05000000e-009,-1.60000019e-003
,,,3.07500000e-009,-1.59218769e-003
,,,3.10000000e-009,-1.56406269e-003
,,,3.12500000e-009,-1.52031268e-003
,,,3.15000000e-009,-1.46406268e-003
,,,3.17500000e-009,-1.39843767e-003
,,,3.20000000e-009,-1.33125017e-003
,,,3.22500000e-009,-1.26250016e-003
,,,3.25000000e-009,-1.20000016e-003
,,,3.27500000e-009,-1.13281265e-003
,,,3.30000000e-009,-1.07187515e-003
,,,3.32500000e-009,-1.01875015e-003
,,,3.35000000e-009,-9.70312643e-004
,,,3.37500000e-009,-9.26562640e-004
,,,3.40000000e-009,-8.84375137e-004
,,,3.42500000e-009,-8.42187634e-004
,,,3.45000000e-009,-8.00000131e-004
,,,3.47500000e-009,-7.50000128e-004
,,,3.50000000e-009,-6.95312624e-004
,,,3.52500000e-009,-6.40625120e-004
,,,3.55000000e-009,-5.84375116e-004
,,,3.57500000e-009,-5.29687612e-004
,,,3.60000000e-009,-4.78125108e-004
,,,3.62500000e-009,-4.34375105e-004
,,,3.65000000e-009,-4.00000103e-004
,,,3.67500000e-009,-3.71875101e-004
,,,3.70000000e-009,-3.53125100e-004
,,,3.72500000e-009,-3.43750099e-004
,,,3.75000000e-009,-3.45312599e-004
,,,3.77500000e-009,-3.53125100e-004
,,,3.80000000e-009,-3.65625100e-004
,,,3.82500000e-009,-3.82812602e-004
,,,3.85000000e-009,-4.00000103e-004
,,,3.87500000e-009,-4.07812603e-004
,,,3.90000000e-009,-4.04687603e-004
,,,3.92500000e-009,-3.85937602e-004
,,,3.95000000e-009,-3.50000099e-004
,,,3.97500000e-009,-2.92187595e-004
,,,4.00000000e-009,-2.14062590e-004
,,,4.02500000e-009,-1.15625083e-004
,,,4.05000000e-009,-7.45058060e-011
,,,4.07500000e-009,1.29687435e-004
,,,4.10000000e-009,2.65624944e-004
,,,4.12500000e-009,4.01562454e-004
,,,4.15000000e-009,5.28124963e-004
,,,4.17500000e-009,6.39062471e-004
,,,4.20000000e-009,7.23437477e-004
,,,4.22500000e-009,7.79687481e-004
,,,4.25000000e-009,7.99999982e-004
,,,4.27500000e-009,7.79687481e-004
,,,4.30000000e-009,7.34374977e-004
,,,4.32500000e-009,6.68749973e-004
,,,4.35000000e-009,5.95312468e-004
,,,4.37500000e-009,5.23437463e-004
,,,4.40000000e-009,4.62499958e-004
,,,4.42500000e-009,4.18749955e-004
,,,4.45000000e-009,3.99999954e-004
,,,4.47500000e-009,4.07812454e-004
,,,4.50000000e-009,4.42187457e-004
,,,4.52500000e-009,4.98437461e-004
,,,4.55000000e-009,5.68749966e-004
,,,4.57500000e-009,6.42187471e-004
,,,4.60000000e-009,7.09374976e-004
,,,4.62500000e-009,7.64062480e-004
,,,4.65000000e-009,7.99999982e-004
,,,4.67500000e-009,8.10937483e-004
,,,4.70000000e-009,8.04687482e-004
,,,4.72500000e-009,7.85937481e-004
,,,4.75000000e-009,7.62499979e-004
,,,4.77500000e-009,7.46874978e-004
,,,4.80000000e-009,7.43749978e-004
,,,4.82500000e-009,7.59374979e-004
,,,4.85000000e-009,7.99999982e-004
,,,4.87500000e-009,8.59374986e-004
,,,4.90000000e-009,9.35937492e-004
,,,4.92500000e-009,1.02187500e-003
,,,4.95000000e-009,1.10625000e-003
,,,4.97500000e-009,1.17656251e-003
,,,5.00000000e-009,1.22187501e-003
,,,5.02500000e-009,1.23125001e-003
,,,5.05000000e-009,1.20000001e-003
,,,5.07500000e-009,1.12343751e-003
,,,5.10000000e-009,1.01406250e-003
,,,5.12500000e-009,8.82812488e-004
,,,5.15000000e-009,7.43749978e-004
,,,5.17500000e-009,6.12499969e-004
,,,5.20000000e-009,5.04687461e-004
,,,5.22500000e-009,4.29687456e-004
,,,5.25000000e-009,3.99999954e-004
,,,5.27500000e-009,4.20312455e-004
,,,5.30000000e-009,4.85937460e-004
,,,5.32500000e-009,5.87499967e-004
,,,5.35000000e-009,7.15624976e-004
,,,5.37500000e-009,8.54687486e-004
,,,5.40000000e-009,9.90624996e-004
,,,5.42500000e-009,1.11093750e-003
,,,5.45000000e-009,1.20000001e-003
,,,5.47500000e-009,1.24687501e-003
,,,5.50000000e-009,1.25312501e-003
,,,5.52500000e-009,1.22343751e-003
,,,5.55000000e-009,1.16093751e-003
,,,5.57500000e-009,1.07812500e-003
,,,5.60000000e-009,9.82812495e-004
,,,5.62500000e-009,8.87499988e-004
,,,5.65000000e-009,7.99999982e-004
,,,5.67500000e-009,7.29687477e-004
,,,5.70000000e-009,6.81249974e-004
,,,5.72500000e-009,6.57812472e-004
,,,5.75000000e-009,6.57812472e-004
,,,5.77500000e-009,6.76562473e-004
,,,5.80000000e-009,7.10937476e-004
,,,5.82500000e-009,7.54687479e-004
,,,5.85000000e-009,7.99999982e-004
,,,5.87500000e-009,8.43749985e-004
,,,5.90000000e-009,8.78124988e-004
,,,5.92500000e-009,9.01562489e-004
,,,5.95000000e-009,9.09374990e-004
,,,5.97500000e-009,9.03124989e-004
,,,6.00000000e-009,8.82812488e-004
,,,6.02500000e-009,8.46874985e-004
