RawData/SinglePhotoelectron/L3_2pt2foot_5mV/wave032_Ch4.csv

"Record Length",1000,"Points",-7.72500000e-009,1.63593754e-003
"Sample Interval",2.50000000e-011,s,-7.70000000e-009,1.64218754e-003
"Trigger Point",309,"Samples",-7.67500000e-009,1.64218754e-003
"Trigger Time",2.29102804e-012,s,-7.65000000e-009,1.63593754e-003
"",,,-7.62500000e-009,1.62656254e-003
"Horizontal Offset",-7.72500000e-009,s,-7.60000000e-009,1.61406254e-003
,,,-7.57500000e-009,1.60000004e-003
,,,-7.55000000e-009,1.58125004e-003
,,,-7.52500000e-009,1.56406254e-003
,,,-7.50000000e-009,1.55156254e-003
,,,-7.47500000e-009,1.54531253e-003
,,,-7.45000000e-009,1.54843754e-003
,,,-7.42500000e-009,1.55781254e-003
,,,-7.40000000e-009,1.57656254e-003
,,,-7.37500000e-009,1.60000004e-003
,,,-7.35000000e-009,1.62656254e-003
,,,-7.32500000e-009,1.65312504e-003
,,,-7.30000000e-009,1.67500004e-003
,,,-7.27500000e-009,1.68750004e-003
,,,-7.25000000e-009,1.68906255e-003
,,,-7.22500000e-009,1.67500004e-003
,,,-7.20000000e-009,1.64531254e-003
,,,-7.17500000e-009,1.60000004e-003
,,,-7.15000000e-009,1.53750003e-003
,,,-7.12500000e-009,1.46562503e-003
,,,-7.10000000e-009,1.39062502e-003
,,,-7.07500000e-009,1.32187502e-003
,,,-7.05000000e-009,1.26406251e-003
,,,-7.02500000e-009,1.22343751e-003
,,,-7.00000000e-009,1.20156251e-003
,,,-6.97500000e-009,1.20000001e-003
,,,-6.95000000e-009,1.21875001e-003
,,,-6.92500000e-009,1.24843751e-003
,,,-6.90000000e-009,1.28281252e-003
,,,-6.87500000e-009,1.31250002e-003
,,,-6.85000000e-009,1.32500002e-003
,,,-6.82500000e-009,1.31562502e-003
,,,-6.80000000e-009,1.27500002e-003
,,,-6.77500000e-009,1.20000001e-003
,,,-6.75000000e-009,1.09687500e-003
,,,-6.72500000e-009,9.68749994e-004
,,,-6.70000000e-009,8.29687484e-004
,,,-6.67500000e-009,6.90624974e-004
,,,-6.65000000e-009,5.65624966e-004
,,,-6.62500000e-009,4.68749959e-004
,,,-6.60000000e-009,4.12499955e-004
,,,-6.57500000e-009,3.99999954e-004
,,,-6.55000000e-009,4.43749957e-004
,,,-6.52500000e-009,5.28124963e-004
,,,-6.50000000e-009,6.43749971e-004
,,,-6.47500000e-009,7.76562480e-004
,,,-6.45000000e-009,9.14062490e-004
,,,-6.42500000e-009,1.03750000e-003
,,,-6.40000000e-009,1.13750001e-003
,,,-6.37500000e-009,1.20000001e-003
,,,-6.35000000e-009,1.22343751e-003
,,,-6.32500000e-009,1.20625001e-003
,,,-6.30000000e-009,1.15468751e-003
,,,-6.27500000e-009,1.07968750e-003
,,,-6.25000000e-009,9.93749996e-004
,,,-6.22500000e-009,9.10937490e-004
,,,-6.20000000e-009,8.42187485e-004
,,,-6.17500000e-009,7.99999982e-004
,,,-6.15000000e-009,7.92187482e-004
,,,-6.12500000e-009,8.15624983e-004
,,,-6.10000000e-009,8.65624987e-004
,,,-6.07500000e-009,9.35937492e-004
,,,-6.05000000e-009,1.01406250e-003
,,,-6.02500000e-009,1.09062500e-003
,,,-6.00000000e-009,1.15625001e-003
,,,-5.97500000e-009,1.20000001e-003
,,,-5.95000000e-009,1.21718751e-003
,,,-5.92500000e-009,1.20312501e-003
,,,-5.90000000e-009,1.16406251e-003
,,,-5.87500000e-009,1.10312500e-003
,,,-5.85000000e-009,1.02812500e-003
,,,-5.82500000e-009,9.46874993e-004
,,,-5.80000000e-009,8.68749987e-004
,,,-5.77500000e-009,7.99999982e-004
,,,-5.75000000e-009,7.49999979e-004
,,,-5.72500000e-009,7.17187476e-004
,,,-5.70000000e-009,7.04687475e-004
,,,-5.67500000e-009,7.06249975e-004
,,,-5.65000000e-009,7.23437477e-004
,,,-5.62500000e-009,7.46874978e-004
,,,-5.60000000e-009,7.74999980e-004
,,,-5.57500000e-009,7.99999982e-004
,,,-5.55000000e-009,8.18749983e-004
,,,-5.52500000e-009,8.31249984e-004
,,,-5.50000000e-009,8.35937485e-004
,,,-5.47500000e-009,8.32812484e-004
,,,-5.45000000e-009,8.26562484e-004
,,,-5.42500000e-009,8.17187483e-004
,,,-5.40000000e-009,8.07812483e-004
,,,-5.37500000e-009,7.99999982e-004
,,,-5.35000000e-009,7.95312482e-004
,,,-5.32500000e-009,7.92187482e-004
,,,-5.30000000e-009,7.92187482e-004
,,,-5.27500000e-009,7.93749982e-004
,,,-5.25000000e-009,7.96874982e-004
,,,-5.22500000e-009,7.98437482e-004
,,,-5.20000000e-009,7.99999982e-004
,,,-5.17500000e-009,7.99999982e-004
,,,-5.15000000e-009,7.99999982e-004
,,,-5.12500000e-009,7.96874982e-004
,,,-5.10000000e-009,7.93749982e-004
,,,-5.07500000e-009,7.90624981e-004
,,,-5.05000000e-009,7.89062481e-004
,,,-5.02500000e-009,7.90624981e-004
,,,-5.00000000e-009,7.93749982e-004
,,,-4.97500000e-009,7.99999982e-004
,,,-4.95000000e-009,8.15624983e-004
,,,-4.92500000e-009,8.31249984e-004
,,,-4.90000000e-009,8.43749985e-004
,,,-4.87500000e-009,8.53124986e-004
,,,-4.85000000e-009,8.56249986e-004
,,,-4.82500000e-009,8.48437486e-004
,,,-4.80000000e-009,8.31249984e-004
,,,-4.77500000e-009,7.99999982e-004
,,,-4.75000000e-009,7.59374979e-004
,,,-4.72500000e-009,7.09374976e-004
,,,-4.70000000e-009,6.53124972e-004
,,,-4.67500000e-009,5.93749968e-004
,,,-4.65000000e-009,5.35937463e-004
,,,-4.62500000e-009,4.82812460e-004
,,,-4.60000000e-009,4.37499956e-004
,,,-4.57500000e-009,3.99999954e-004
,,,-4.55000000e-009,3.81249952e-004
,,,-4.52500000e-009,3.71874952e-004
,,,-4.50000000e-009,3.71874952e-004
,,,-4.47500000e-009,3.76562452e-004
,,,-4.45000000e-009,3.84374953e-004
,,,-4.42500000e-009,3.92187453e-004
,,,-4.40000000e-009,3.96874954e-004
,,,-4.37500000e-009,3.99999954e-004
,,,-4.35000000e-009,4.07812454e-004
,,,-4.32500000e-009,4.17187455e-004
,,,-4.30000000e-009,4.35937456e-004
,,,-4.27500000e-009,4.65624958e-004
,,,-4.25000000e-009,5.15624962e-004
,,,-4.22500000e-009,5.85937467e-004
,,,-4.20000000e-009,6.81249974e-004
,,,-4.17500000e-009,7.99999982e-004
,,,-4.15000000e-009,9.40624992e-004
,,,-4.12500000e-009,1.08906250e-003
,,,-4.10000000e-009,1.23750001e-003
,,,-4.07500000e-009,1.37500002e-003
,,,-4.05000000e-009,1.48906253e-003
,,,-4.02500000e-009,1.56875004e-003
,,,-4.00000000e-009,1.60781254e-003
,,,-3.97500000e-009,1.60000004e-003
,,,-3.95000000e-009,1.54218753e-003
,,,-3.92500000e-009,1.44843753e-003
,,,-3.90000000e-009,1.32656252e-003
,,,-3.87500000e-009,1.19218751e-003
,,,-3.85000000e-009,1.05937500e-003
,,,-3.82500000e-009,9.42187492e-004
,,,-3.80000000e-009,8.53124986e-004
,,,-3.77500000e-009,7.99999982e-004
,,,-3.75000000e-009,7.85937481e-004
,,,-3.72500000e-009,8.09374983e-004
,,,-3.70000000e-009,8.64062487e-004
,,,-3.67500000e-009,9.39062492e-004
,,,-3.65000000e-009,1.02187500e-003
,,,-3.62500000e-009,1.10156250e-003
,,,-3.60000000e-009,1.16406251e-003
,,,-3.57500000e-009,1.20000001e-003
,,,-3.55000000e-009,1.20468751e-003
,,,-3.52500000e-009,1.17812501e-003
,,,-3.50000000e-009,1.12656251e-003
,,,-3.47500000e-009,1.05781250e-003
,,,-3.45000000e-009,9.79687495e-004
,,,-3.42500000e-009,9.04687490e-004
,,,-3.40000000e-009,8.42187485e-004
,,,-3.37500000e-009,7.99999982e-004
,,,-3.35000000e-009,7.82812481e-004
,,,-3.32500000e-009,7.93749982e-004
,,,-3.30000000e-009,8.31249984e-004
,,,-3.27500000e-009,8.92187489e-004
,,,-3.25000000e-009,9.67187494e-004
,,,-3.22500000e-009,1.05000000e-003
,,,-3.20000000e-009,1.13125001e-003
,,,-3.17500000e-009,1.20000001e-003
,,,-3.15000000e-009,1.24687501e-003
,,,-3.12500000e-009,1.26562502e-003
,,,-3.10000000e-009,1.25468751e-003
,,,-3.07500000e-009,1.21406251e-003
,,,-3.05000000e-009,1.14375001e-003
,,,-3.02500000e-009,1.04687500e-003
,,,-3.00000000e-009,9.31249991e-004
,,,-2.97500000e-009,7.99999982e-004
,,,-2.95000000e-009,6.68749973e-004
,,,-2.92500000e-009,5.45312464e-004
,,,-2.90000000e-009,4.37499956e-004
,,,-2.87500000e-009,3.54687451e-004
,,,-2.85000000e-009,3.06249947e-004
,,,-2.82500000e-009,2.96874947e-004
,,,-2.80000000e-009,3.28124949e-004
,,,-2.77500000e-009,3.99999954e-004
,,,-2.75000000e-009,5.12499962e-004
,,,-2.72500000e-009,6.46874971e-004
,,,-2.70000000e-009,7.92187482e-004
,,,-2.67500000e-009,9.34374992e-004
,,,-2.65000000e-009,1.05625000e-003
,,,-2.62500000e-009,1.14843751e-003
,,,-2.60000000e-009,1.19843751e-003
,,,-2.57500000e-009,1.20000001e-003
,,,-2.55000000e-009,1.15312501e-003
,,,-2.52500000e-009,1.06562500e-003
,,,-2.50000000e-009,9.45312492e-004
,,,-2.47500000e-009,8.09374983e-004
,,,-2.45000000e-009,6.73437473e-004
,,,-2.42500000e-009,5.49999964e-004
,,,-2.40000000e-009,4.56249958e-004
,,,-2.37500000e-009,3.99999954e-004
,,,-2.35000000e-009,3.92187453e-004
,,,-2.32500000e-009,4.23437455e-004
,,,-2.30000000e-009,4.85937460e-004
,,,-2.27500000e-009,5.67187466e-004
,,,-2.25000000e-009,6.51562472e-004
,,,-2.22500000e-009,7.28124977e-004
,,,-2.20000000e-009,7.79687481e-004
,,,-2.17500000e-009,7.99999982e-004
,,,-2.15000000e-009,7.89062481e-004
,,,-2.12500000e-009,7.45312478e-004
,,,-2.10000000e-009,6.74999973e-004
,,,-2.07500000e-009,5.92187467e-004
,,,-2.05000000e-009,5.09374962e-004
,,,-2.02500000e-009,4.42187457e-004
,,,-2.00000000e-009,4.03124954e-004
,,,-1.97500000e-009,3.99999954e-004
,,,-1.95000000e-009,4.40624957e-004
,,,-1.92500000e-009,5.18749962e-004
,,,-1.90000000e-009,6.28124970e-004
,,,-1.87500000e-009,7.56249979e-004
,,,-1.85000000e-009,8.92187489e-004
,,,-1.82500000e-009,1.01875000e-003
,,,-1.80000000e-009,1.12500001e-003
,,,-1.77500000e-009,1.20000001e-003
,,,-1.75000000e-009,1.22500001e-003
,,,-1.72500000e-009,1.21093751e-003
,,,-1.70000000e-009,1.16406251e-003
,,,-1.67500000e-009,1.09062500e-003
,,,-1.65000000e-009,1.00625000e-003
,,,-1.62500000e-009,9.21874991e-004
,,,-1.60000000e-009,8.49999986e-004
,,,-1.57500000e-009,7.99999982e-004
,,,-1.55000000e-009,7.71874980e-004
,,,-1.52500000e-009,7.73437480e-004
,,,-1.50000000e-009,8.04687482e-004
,,,-1.47500000e-009,8.60937486e-004
,,,-1.45000000e-009,9.35937492e-004
,,,-1.42500000e-009,1.02343750e-003
,,,-1.40000000e-009,1.11406250e-003
,,,-1.37500000e-009,1.20000001e-003
,,,-1.35000000e-009,1.25468751e-003
,,,-1.32500000e-009,1.29062502e-003
,,,-1.30000000e-009,1.30781252e-003
,,,-1.27500000e-009,1.30781252e-003
,,,-1.25000000e-009,1.29375002e-003
,,,-1.22500000e-009,1.27031252e-003
,,,-1.20000000e-009,1.23906251e-003
,,,-1.17500000e-009,1.20000001e-003
,,,-1.15000000e-009,1.13125001e-003
,,,-1.12500000e-009,1.05312500e-003
,,,-1.10000000e-009,9.67187494e-004
,,,-1.07500000e-009,8.71874987e-004
,,,-1.05000000e-009,7.68749980e-004
,,,-1.02500000e-009,6.56249972e-004
,,,-1.00000000e-009,5.32812463e-004
,,,-9.75000000e-010,3.99999954e-004
,,,-9.50000000e-010,2.32812442e-004
,,,-9.25000000e-010,5.78124296e-005
,,,-9.00000000e-010,-1.18750083e-004
,,,-8.75000000e-010,-2.90625095e-004
,,,-8.50000000e-010,-4.50000106e-004
,,,-8.25000000e-010,-5.89062616e-004
,,,-8.00000000e-010,-7.07812625e-004
,,,-7.75000000e-010,-8.00000131e-004
,,,-7.50000000e-010,-8.84375137e-004
,,,-7.25000000e-010,-9.53125142e-004
,,,-7.00000000e-010,-1.00625015e-003
,,,-6.75000000e-010,-1.04843765e-003
,,,-6.50000000e-010,-1.08437515e-003
,,,-6.25000000e-010,-1.11718765e-003
,,,-6.00000000e-010,-1.15312516e-003
,,,-5.75000000e-010,-1.20000016e-003
,,,-5.50000000e-010,-1.27656266e-003
,,,-5.25000000e-010,-1.37656267e-003
,,,-5.00000000e-010,-1.50000018e-003
,,,-4.75000000e-010,-1.64687519e-003
,,,-4.50000000e-010,-1.81406270e-003
,,,-4.25000000e-010,-1.99843772e-003
,,,-4.00000000e-010,-2.19531273e-003
,,,-3.75000000e-010,-2.40000024e-003
,,,-3.50000000e-010,-2.61250026e-003
,,,-3.25000000e-010,-2.82968777e-003
,,,-3.00000000e-010,-3.04687529e-003
,,,-2.75000000e-010,-3.25937531e-003
,,,-2.50000000e-010,-3.46406282e-003
,,,-2.25000000e-010,-3.65625033e-003
,,,-2.00000000e-010,-3.83437535e-003
,,,-1.75000000e-010,-4.00000036e-003
,,,-1.50000000e-010,-4.13906287e-003
,,,-1.25000000e-010,-4.27343788e-003
,,,-1.00000000e-010,-4.40937539e-003
,,,-7.50000000e-011,-4.55000040e-003
,,,-5.00000000e-011,-4.69687541e-003
,,,-2.50000000e-011,-4.85468792e-003
,,,0.00000000e+000,-5.02187543e-003
,,,2.50000000e-011,-5.20000044e-003
,,,5.00000000e-011,-5.36093795e-003
,,,7.50000000e-011,-5.53125047e-003
,,,1.00000000e-010,-5.70468798e-003
,,,1.25000000e-010,-5.87500049e-003
,,,1.50000000e-010,-6.03593800e-003
,,,1.75000000e-010,-6.18125051e-003
,,,2.00000000e-010,-6.30312552e-003
,,,2.25000000e-010,-6.40000053e-003
,,,2.50000000e-010,-6.43281303e-003
,,,2.75000000e-010,-6.44375053e-003
,,,3.00000000e-010,-6.43750053e-003
,,,3.25000000e-010,-6.42343803e-003
,,,3.50000000e-010,-6.40781303e-003
,,,3.75000000e-010,-6.39531303e-003
,,,4.00000000e-010,-6.39062553e-003
,,,4.25000000e-010,-6.40000053e-003
,,,4.50000000e-010,-6.38437553e-003
,,,4.75000000e-010,-6.38281303e-003
,,,5.00000000e-010,-6.39218803e-003
,,,5.25000000e-010,-6.40937553e-003
,,,5.50000000e-010,-6.42500053e-003
,,,5.75000000e-010,-6.43281303e-003
,,,6.00000000e-010,-6.42500053e-003
,,,6.25000000e-010,-6.40000053e-003
,,,6.50000000e-010,-6.31562552e-003
,,,6.75000000e-010,-6.21562551e-003
,,,7.00000000e-010,-6.10156301e-003
,,,7.25000000e-010,-5.98281300e-003
,,,7.50000000e-010,-5.86718799e-003
,,,7.75000000e-010,-5.76093798e-003
,,,8.00000000e-010,-5.67031298e-003
,,,8.25000000e-010,-5.60000047e-003
,,,8.50000000e-010,-5.52343797e-003
,,,8.75000000e-010,-5.46562546e-003
,,,9.00000000e-010,-5.42343796e-003
,,,9.25000000e-010,-5.38906296e-003
,,,9.50000000e-010,-5.35625045e-003
,,,9.75000000e-010,-5.31875045e-003
,,,1.00000000e-009,-5.26718795e-003
,,,1.02500000e-009,-5.20000044e-003
,,,1.05000000e-009,-5.09218793e-003
,,,1.07500000e-009,-4.96250043e-003
,,,1.10000000e-009,-4.81250042e-003
,,,1.12500000e-009,-4.64843790e-003
,,,1.15000000e-009,-4.47812539e-003
,,,1.17500000e-009,-4.30937538e-003
,,,1.20000000e-009,-4.14843787e-003
,,,1.22500000e-009,-4.00000036e-003
,,,1.25000000e-009,-3.86562535e-003
,,,1.27500000e-009,-3.74531284e-003
,,,1.30000000e-009,-3.63906283e-003
,,,1.32500000e-009,-3.54375033e-003
,,,1.35000000e-009,-3.45468782e-003
,,,1.37500000e-009,-3.37031281e-003
,,,1.40000000e-009,-3.28593781e-003
,,,1.42500000e-009,-3.20000030e-003
,,,1.45000000e-009,-3.11250029e-003
,,,1.47500000e-009,-3.01718779e-003
,,,1.50000000e-009,-2.91406278e-003
,,,1.52500000e-009,-2.80468777e-003
,,,1.55000000e-009,-2.69531277e-003
,,,1.57500000e-009,-2.58750026e-003
,,,1.60000000e-009,-2.48750025e-003
,,,1.62500000e-009,-2.40000024e-003
,,,1.65000000e-009,-2.33281274e-003
,,,1.67500000e-009,-2.27343774e-003
,,,1.70000000e-009,-2.22187523e-003
,,,1.72500000e-009,-2.17343773e-003
,,,1.75000000e-009,-2.12968773e-003
,,,1.77500000e-009,-2.08750022e-003
,,,1.80000000e-009,-2.04375022e-003
,,,1.82500000e-009,-2.00000022e-003
,,,1.85000000e-009,-1.96250021e-003
,,,1.87500000e-009,-1.91875021e-003
,,,1.90000000e-009,-1.86718771e-003
,,,1.92500000e-009,-1.81093770e-003
,,,1.95000000e-009,-1.75312520e-003
,,,1.97500000e-009,-1.69687519e-003
,,,2.00000000e-009,-1.64375019e-003
,,,2.02500000e-009,-1.60000019e-003
,,,2.05000000e-009,-1.57656269e-003
,,,2.07500000e-009,-1.55937518e-003
,,,2.10000000e-009,-1.55000018e-003
,,,2.12500000e-009,-1.54843768e-003
,,,2.15000000e-009,-1.55312518e-003
,,,2.17500000e-009,-1.56250019e-003
,,,2.20000000e-009,-1.57968769e-003
,,,2.22500000e-009,-1.60000019e-003
,,,2.25000000e-009,-1.62656269e-003
,,,2.27500000e-009,-1.64843769e-003
,,,2.30000000e-009,-1.66250019e-003
,,,2.32500000e-009,-1.66875019e-003
,,,2.35000000e-009,-1.66562519e-003
,,,2.37500000e-009,-1.65312519e-003
,,,2.40000000e-009,-1.63125019e-003
,,,2.42500000e-009,-1.60000019e-003
,,,2.45000000e-009,-1.56250019e-003
,,,2.47500000e-009,-1.51562518e-003
,,,2.50000000e-009,-1.46250018e-003
,,,2.52500000e-009,-1.40625017e-003
,,,2.55000000e-009,-1.34843767e-003
,,,2.57500000e-009,-1.29218767e-003
,,,2.60000000e-009,-1.24218766e-003
,,,2.62500000e-009,-1.20000016e-003
,,,2.65000000e-009,-1.16718766e-003
,,,2.67500000e-009,-1.14375016e-003
,,,2.70000000e-009,-1.13125015e-003
,,,2.72500000e-009,-1.12812515e-003
,,,2.75000000e-009,-1.13437515e-003
,,,2.77500000e-009,-1.15000016e-003
,,,2.80000000e-009,-1.17187516e-003
,,,2.82500000e-009,-1.20000016e-003
,,,2.85000000e-009,-1.22500016e-003
,,,2.87500000e-009,-1.24843766e-003
,,,2.90000000e-009,-1.26406266e-003
,,,2.92500000e-009,-1.27343766e-003
,,,2.95000000e-009,-1.27031266e-003
,,,2.97500000e-009,-1.25781266e-003
,,,3.00000000e-009,-1.23437516e-003
,,,3.02500000e-009,-1.20000016e-003
,,,3.05000000e-009,-1.15156266e-003
,,,3.07500000e-009,-1.09531265e-003
,,,3.10000000e-009,-1.03593765e-003
,,,3.12500000e-009,-9.75000144e-004
,,,3.15000000e-009,-9.18750140e-004
,,,3.17500000e-009,-8.68750136e-004
,,,3.20000000e-009,-8.28125133e-004
,,,3.22500000e-009,-8.00000131e-004
,,,3.25000000e-009,-7.81250130e-004
,,,3.27500000e-009,-7.75000129e-004
,,,3.30000000e-009,-7.75000129e-004
,,,3.32500000e-009,-7.81250130e-004
,,,3.35000000e-009,-7.90625130e-004
,,,3.37500000e-009,-7.98437631e-004
,,,3.40000000e-009,-8.03125131e-004
,,,3.42500000e-009,-8.00000131e-004
,,,3.45000000e-009,-7.84375130e-004
,,,3.47500000e-009,-7.56250128e-004
,,,3.50000000e-009,-7.15625125e-004
,,,3.52500000e-009,-6.64062622e-004
,,,3.55000000e-009,-6.04687617e-004
,,,3.57500000e-009,-5.37500113e-004
,,,3.60000000e-009,-4.68750108e-004
,,,3.62500000e-009,-4.00000103e-004
,,,3.65000000e-009,-3.29687598e-004
,,,3.67500000e-009,-2.62500093e-004
,,,3.70000000e-009,-2.00000089e-004
,,,3.72500000e-009,-1.45312585e-004
,,,3.75000000e-009,-9.68750814e-005
,,,3.77500000e-009,-5.62500785e-005
,,,3.80000000e-009,-2.34375762e-005
,,,3.82500000e-009,-7.45058060e-011
,,,3.85000000e-009,1.40624265e-005
,,,3.87500000e-009,2.34374272e-005
,,,3.90000000e-009,2.65624274e-005
,,,3.92500000e-009,2.65624274e-005
,,,3.95000000e-009,2.34374272e-005
,,,3.97500000e-009,1.71874267e-005
,,,4.00000000e-009,9.37492616e-006
,,,4.02500000e-009,-7.45058060e-011
,,,4.05000000e-009,-9.37507517e-006
,,,4.07500000e-009,-1.71875757e-005
,,,4.10000000e-009,-2.18750761e-005
,,,4.12500000e-009,-2.34375762e-005
,,,4.15000000e-009,-2.18750761e-005
,,,4.17500000e-009,-1.71875757e-005
,,,4.20000000e-009,-1.09375753e-005
,,,4.22500000e-009,-7.45058060e-011
,,,4.25000000e-009,1.56249266e-005
,,,4.27500000e-009,3.90624283e-005
,,,4.30000000e-009,7.18749306e-005
,,,4.32500000e-009,1.15624934e-004
,,,4.35000000e-009,1.70312438e-004
,,,4.37500000e-009,2.37499942e-004
,,,4.40000000e-009,3.14062448e-004
,,,4.42500000e-009,3.99999954e-004
,,,4.45000000e-009,4.84374960e-004
,,,4.47500000e-009,5.68749966e-004
,,,4.50000000e-009,6.46874971e-004
,,,4.52500000e-009,7.15624976e-004
,,,4.55000000e-009,7.68749980e-004
,,,4.57500000e-009,8.01562482e-004
,,,4.60000000e-009,8.12499983e-004
,,,4.62500000e-009,7.99999982e-004
,,,4.65000000e-009,7.62499979e-004
,,,4.67500000e-009,7.07812476e-004
,,,4.70000000e-009,6.42187471e-004
,,,4.72500000e-009,5.74999966e-004
,,,4.75000000e-009,5.10937462e-004
,,,4.77500000e-009,4.56249958e-004
,,,4.80000000e-009,4.18749955e-004
,,,4.82500000e-009,3.99999954e-004
,,,4.85000000e-009,4.06249954e-004
,,,4.87500000e-009,4.34374956e-004
,,,4.90000000e-009,4.81249960e-004
,,,4.92500000e-009,5.43749964e-004
,,,4.95000000e-009,6.14062469e-004
,,,4.97500000e-009,6.85937474e-004
,,,5.00000000e-009,7.49999979e-004
,,,5.02500000e-009,7.99999982e-004
,,,5.05000000e-009,8.28124984e-004
,,,5.07500000e-009,8.34374985e-004
,,,5.10000000e-009,8.14062483e-004
,,,5.12500000e-009,7.70312480e-004
,,,5.15000000e-009,7.03124975e-004
,,,5.17500000e-009,6.15624969e-004
,,,5.20000000e-009,5.12499962e-004
,,,5.22500000e-009,3.99999954e-004
,,,5.25000000e-009,2.87499946e-004
,,,5.27500000e-009,1.81249938e-004
,,,5.30000000e-009,9.06249319e-005
,,,5.32500000e-009,1.87499268e-005
,,,5.35000000e-009,-2.96875766e-005
,,,5.37500000e-009,-4.84375779e-005
,,,5.40000000e-009,-3.90625773e-005
,,,5.42500000e-009,-7.45058060e-011
,,,5.45000000e-009,7.18749306e-005
,,,5.47500000e-009,1.65624937e-004
,,,5.50000000e-009,2.74999945e-004
,,,5.52500000e-009,3.92187453e-004
,,,5.55000000e-009,5.10937462e-004
,,,5.57500000e-009,6.21874970e-004
,,,5.60000000e-009,7.20312476e-004
,,,5.62500000e-009,7.99999982e-004
,,,5.65000000e-009,8.59374986e-004
,,,5.67500000e-009,8.95312489e-004
,,,5.70000000e-009,9.09374990e-004
,,,5.72500000e-009,9.04687490e-004
,,,5.75000000e-009,8.87499988e-004
,,,5.77500000e-009,8.60937486e-004
,,,5.80000000e-009,8.29687484e-004
,,,5.82500000e-009,7.99999982e-004
,,,5.85000000e-009,7.74999980e-004
,,,5.87500000e-009,7.57812479e-004
,,,5.90000000e-009,7.49999979e-004
,,,5.92500000e-009,7.51562479e-004
,,,5.95000000e-009,7.59374979e-004
,,,5.97500000e-009,7.71874980e-004
,,,6.00000000e-009,7.85937481e-004
,,,6.02500000e-009,7.99999982e-004
,,,6.05000000e-009,8.12499983e-004
