RawData/SinglePhotoelectron/L3_2pt2foot_5mV/wave005_Ch4.csv

"Record Length",1000,"Points",-7.72500000e-009,7.32812477e-004
"Sample Interval",2.50000000e-011,s,-7.70000000e-009,7.99999982e-004
"Trigger Point",309,"Samples",-7.67500000e-009,8.85937488e-004
"Trigger Time",1.04039286e-011,s,-7.65000000e-009,9.81249995e-004
"",,,-7.62500000e-009,1.07656250e-003
"Horizontal Offset",-7.72500000e-009,s,-7.60000000e-009,1.15937501e-003
,,,-7.57500000e-009,1.22187501e-003
,,,-7.55000000e-009,1.25312501e-003
,,,-7.52500000e-009,1.24687501e-003
,,,-7.50000000e-009,1.20000001e-003
,,,-7.47500000e-009,1.11406250e-003
,,,-7.45000000e-009,9.96874996e-004
,,,-7.42500000e-009,8.62499987e-004
,,,-7.40000000e-009,7.21874977e-004
,,,-7.37500000e-009,5.93749968e-004
,,,-7.35000000e-009,4.89062460e-004
,,,-7.32500000e-009,4.21874955e-004
,,,-7.30000000e-009,3.99999954e-004
,,,-7.27500000e-009,4.32812456e-004
,,,-7.25000000e-009,5.07812461e-004
,,,-7.22500000e-009,6.18749969e-004
,,,-7.20000000e-009,7.51562479e-004
,,,-7.17500000e-009,8.90624989e-004
,,,-7.15000000e-009,1.02031250e-003
,,,-7.12500000e-009,1.12656251e-003
,,,-7.10000000e-009,1.20000001e-003
,,,-7.07500000e-009,1.23437501e-003
,,,-7.05000000e-009,1.22812501e-003
,,,-7.02500000e-009,1.18750001e-003
,,,-7.00000000e-009,1.11875000e-003
,,,-6.97500000e-009,1.03437500e-003
,,,-6.95000000e-009,9.46874993e-004
,,,-6.92500000e-009,8.65624987e-004
,,,-6.90000000e-009,7.99999982e-004
,,,-6.87500000e-009,7.57812479e-004
,,,-6.85000000e-009,7.37499978e-004
,,,-6.82500000e-009,7.39062478e-004
,,,-6.80000000e-009,7.54687479e-004
,,,-6.77500000e-009,7.76562480e-004
,,,-6.75000000e-009,7.96874982e-004
,,,-6.72500000e-009,8.07812483e-004
,,,-6.70000000e-009,7.99999982e-004
,,,-6.67500000e-009,7.74999980e-004
,,,-6.65000000e-009,7.29687477e-004
,,,-6.62500000e-009,6.70312473e-004
,,,-6.60000000e-009,6.01562468e-004
,,,-6.57500000e-009,5.31249963e-004
,,,-6.55000000e-009,4.68749959e-004
,,,-6.52500000e-009,4.21874955e-004
,,,-6.50000000e-009,3.99999954e-004
,,,-6.47500000e-009,4.14062455e-004
,,,-6.45000000e-009,4.57812458e-004
,,,-6.42500000e-009,5.32812463e-004
,,,-6.40000000e-009,6.34374970e-004
,,,-6.37500000e-009,7.59374979e-004
,,,-6.35000000e-009,9.01562489e-004
,,,-6.32500000e-009,1.05156250e-003
,,,-6.30000000e-009,1.20000001e-003
,,,-6.27500000e-009,1.33750002e-003
,,,-6.25000000e-009,1.45625003e-003
,,,-6.22500000e-009,1.55312504e-003
,,,-6.20000000e-009,1.62187504e-003
,,,-6.17500000e-009,1.66250004e-003
,,,-6.15000000e-009,1.67187504e-003
,,,-6.12500000e-009,1.65156254e-003
,,,-6.10000000e-009,1.60000004e-003
,,,-6.07500000e-009,1.51875003e-003
,,,-6.05000000e-009,1.41718753e-003
,,,-6.02500000e-009,1.30312502e-003
,,,-6.00000000e-009,1.18437501e-003
,,,-5.97500000e-009,1.07031250e-003
,,,-5.95000000e-009,9.64062494e-004
,,,-5.92500000e-009,8.71874987e-004
,,,-5.90000000e-009,7.99999982e-004
,,,-5.87500000e-009,7.49999979e-004
,,,-5.85000000e-009,7.21874977e-004
,,,-5.82500000e-009,7.14062476e-004
,,,-5.80000000e-009,7.20312476e-004
,,,-5.77500000e-009,7.37499978e-004
,,,-5.75000000e-009,7.59374979e-004
,,,-5.72500000e-009,7.81249981e-004
,,,-5.70000000e-009,7.99999982e-004
,,,-5.67500000e-009,8.12499983e-004
,,,-5.65000000e-009,8.18749983e-004
,,,-5.62500000e-009,8.17187483e-004
,,,-5.60000000e-009,8.10937483e-004
,,,-5.57500000e-009,8.04687482e-004
,,,-5.55000000e-009,7.98437482e-004
,,,-5.52500000e-009,7.96874982e-004
,,,-5.50000000e-009,7.99999982e-004
,,,-5.47500000e-009,8.09374983e-004
,,,-5.45000000e-009,8.21874984e-004
,,,-5.42500000e-009,8.35937485e-004
,,,-5.40000000e-009,8.48437486e-004
,,,-5.37500000e-009,8.54687486e-004
,,,-5.35000000e-009,8.51562486e-004
,,,-5.32500000e-009,8.32812484e-004
,,,-5.30000000e-009,7.99999982e-004
,,,-5.27500000e-009,7.54687479e-004
,,,-5.25000000e-009,6.98437475e-004
,,,-5.22500000e-009,6.32812470e-004
,,,-5.20000000e-009,5.67187466e-004
,,,-5.17500000e-009,5.04687461e-004
,,,-5.15000000e-009,4.53124958e-004
,,,-5.12500000e-009,4.17187455e-004
,,,-5.10000000e-009,3.99999954e-004
,,,-5.07500000e-009,4.12499955e-004
,,,-5.05000000e-009,4.45312457e-004
,,,-5.02500000e-009,4.93749960e-004
,,,-5.00000000e-009,5.53124965e-004
,,,-4.97500000e-009,6.18749969e-004
,,,-4.95000000e-009,6.85937474e-004
,,,-4.92500000e-009,7.48437478e-004
,,,-4.90000000e-009,7.99999982e-004
,,,-4.87500000e-009,8.40624985e-004
,,,-4.85000000e-009,8.65624987e-004
,,,-4.82500000e-009,8.74999987e-004
,,,-4.80000000e-009,8.71874987e-004
,,,-4.77500000e-009,8.60937486e-004
,,,-4.75000000e-009,8.42187485e-004
,,,-4.72500000e-009,8.20312484e-004
,,,-4.70000000e-009,7.99999982e-004
,,,-4.67500000e-009,7.82812481e-004
,,,-4.65000000e-009,7.68749980e-004
,,,-4.62500000e-009,7.62499979e-004
,,,-4.60000000e-009,7.60937479e-004
,,,-4.57500000e-009,7.65624980e-004
,,,-4.55000000e-009,7.74999980e-004
,,,-4.52500000e-009,7.87499981e-004
,,,-4.50000000e-009,7.99999982e-004
,,,-4.47500000e-009,8.12499983e-004
,,,-4.45000000e-009,8.23437484e-004
,,,-4.42500000e-009,8.29687484e-004
,,,-4.40000000e-009,8.31249984e-004
,,,-4.37500000e-009,8.29687484e-004
,,,-4.35000000e-009,8.23437484e-004
,,,-4.32500000e-009,8.12499983e-004
,,,-4.30000000e-009,7.99999982e-004
,,,-4.27500000e-009,7.85937481e-004
,,,-4.25000000e-009,7.71874980e-004
,,,-4.22500000e-009,7.60937479e-004
,,,-4.20000000e-009,7.54687479e-004
,,,-4.17500000e-009,7.54687479e-004
,,,-4.15000000e-009,7.62499979e-004
,,,-4.12500000e-009,7.78124981e-004
,,,-4.10000000e-009,7.99999982e-004
,,,-4.07500000e-009,8.24999984e-004
,,,-4.05000000e-009,8.51562486e-004
,,,-4.02500000e-009,8.73437487e-004
,,,-4.00000000e-009,8.87499988e-004
,,,-3.97500000e-009,8.90624989e-004
,,,-3.95000000e-009,8.78124988e-004
,,,-3.92500000e-009,8.48437486e-004
,,,-3.90000000e-009,7.99999982e-004
,,,-3.87500000e-009,7.39062478e-004
,,,-3.85000000e-009,6.67187473e-004
,,,-3.82500000e-009,5.92187467e-004
,,,-3.80000000e-009,5.20312462e-004
,,,-3.77500000e-009,4.59374958e-004
,,,-3.75000000e-009,4.17187455e-004
,,,-3.72500000e-009,3.96874954e-004
,,,-3.70000000e-009,3.99999954e-004
,,,-3.67500000e-009,4.32812456e-004
,,,-3.65000000e-009,4.85937460e-004
,,,-3.62500000e-009,5.53124965e-004
,,,-3.60000000e-009,6.24999970e-004
,,,-3.57500000e-009,6.93749975e-004
,,,-3.55000000e-009,7.49999979e-004
,,,-3.52500000e-009,7.87499981e-004
,,,-3.50000000e-009,7.99999982e-004
,,,-3.47500000e-009,7.85937481e-004
,,,-3.45000000e-009,7.46874978e-004
,,,-3.42500000e-009,6.87499974e-004
,,,-3.40000000e-009,6.18749969e-004
,,,-3.37500000e-009,5.45312464e-004
,,,-3.35000000e-009,4.79687459e-004
,,,-3.32500000e-009,4.29687456e-004
,,,-3.30000000e-009,3.99999954e-004
,,,-3.27500000e-009,4.03124954e-004
,,,-3.25000000e-009,4.29687456e-004
,,,-3.22500000e-009,4.78124959e-004
,,,-3.20000000e-009,5.42187464e-004
,,,-3.17500000e-009,6.14062469e-004
,,,-3.15000000e-009,6.85937474e-004
,,,-3.12500000e-009,7.49999979e-004
,,,-3.10000000e-009,7.99999982e-004
,,,-3.07500000e-009,8.34374985e-004
,,,-3.05000000e-009,8.49999986e-004
,,,-3.02500000e-009,8.49999986e-004
,,,-3.00000000e-009,8.40624985e-004
,,,-2.97500000e-009,8.24999984e-004
,,,-2.95000000e-009,8.09374983e-004
,,,-2.92500000e-009,8.01562482e-004
,,,-2.90000000e-009,7.99999982e-004
,,,-2.87500000e-009,8.12499983e-004
,,,-2.85000000e-009,8.31249984e-004
,,,-2.82500000e-009,8.53124986e-004
,,,-2.80000000e-009,8.71874987e-004
,,,-2.77500000e-009,8.81249988e-004
,,,-2.75000000e-009,8.74999987e-004
,,,-2.72500000e-009,8.48437486e-004
,,,-2.70000000e-009,7.99999982e-004
,,,-2.67500000e-009,7.31249977e-004
,,,-2.65000000e-009,6.48437471e-004
,,,-2.62500000e-009,5.62499965e-004
,,,-2.60000000e-009,4.81249960e-004
,,,-2.57500000e-009,4.15624955e-004
,,,-2.55000000e-009,3.76562452e-004
,,,-2.52500000e-009,3.70312452e-004
,,,-2.50000000e-009,3.99999954e-004
,,,-2.47500000e-009,4.73437459e-004
,,,-2.45000000e-009,5.76562466e-004
,,,-2.42500000e-009,6.99999975e-004
,,,-2.40000000e-009,8.32812484e-004
,,,-2.37500000e-009,9.60937494e-004
,,,-2.35000000e-009,1.07187500e-003
,,,-2.32500000e-009,1.15468751e-003
,,,-2.30000000e-009,1.20000001e-003
,,,-2.27500000e-009,1.20000001e-003
,,,-2.25000000e-009,1.16250001e-003
,,,-2.22500000e-009,1.09843750e-003
,,,-2.20000000e-009,1.02031250e-003
,,,-2.17500000e-009,9.37499992e-004
,,,-2.15000000e-009,8.67187487e-004
,,,-2.12500000e-009,8.18749983e-004
,,,-2.10000000e-009,7.99999982e-004
,,,-2.07500000e-009,8.14062483e-004
,,,-2.05000000e-009,8.56249986e-004
,,,-2.02500000e-009,9.21874991e-004
,,,-2.00000000e-009,9.99999996e-004
,,,-1.97500000e-009,1.07812500e-003
,,,-1.95000000e-009,1.14531251e-003
,,,-1.92500000e-009,1.18750001e-003
,,,-1.90000000e-009,1.20000001e-003
,,,-1.87500000e-009,1.17656251e-003
,,,-1.85000000e-009,1.12343751e-003
,,,-1.82500000e-009,1.05000000e-003
,,,-1.80000000e-009,9.67187494e-004
,,,-1.77500000e-009,8.90624989e-004
,,,-1.75000000e-009,8.31249984e-004
,,,-1.72500000e-009,7.98437482e-004
,,,-1.70000000e-009,7.99999982e-004
,,,-1.67500000e-009,8.34374985e-004
,,,-1.65000000e-009,8.96874989e-004
,,,-1.62500000e-009,9.78124995e-004
,,,-1.60000000e-009,1.06718750e-003
,,,-1.57500000e-009,1.14687501e-003
,,,-1.55000000e-009,1.20468751e-003
,,,-1.52500000e-009,1.22500001e-003
,,,-1.50000000e-009,1.20000001e-003
,,,-1.47500000e-009,1.11562500e-003
,,,-1.45000000e-009,9.85937495e-004
,,,-1.42500000e-009,8.20312484e-004
,,,-1.40000000e-009,6.34374970e-004
,,,-1.37500000e-009,4.43749957e-004
,,,-1.35000000e-009,2.65624944e-004
,,,-1.32500000e-009,1.14062434e-004
,,,-1.30000000e-009,-7.45058060e-011
,,,-1.27500000e-009,-7.03125795e-005
,,,-1.25000000e-009,-9.53125813e-005
,,,-1.22500000e-009,-7.50000798e-005
,,,-1.20000000e-009,-1.56250756e-005
,,,-1.17500000e-009,7.18749306e-005
,,,-1.15000000e-009,1.79687438e-004
,,,-1.12500000e-009,2.92187446e-004
,,,-1.10000000e-009,3.99999954e-004
,,,-1.07500000e-009,4.73437459e-004
,,,-1.05000000e-009,5.18749962e-004
,,,-1.02500000e-009,5.39062464e-004
,,,-1.00000000e-009,5.35937463e-004
,,,-9.75000000e-010,5.14062462e-004
,,,-9.50000000e-010,4.79687459e-004
,,,-9.25000000e-010,4.40624957e-004
,,,-9.00000000e-010,3.99999954e-004
,,,-8.75000000e-010,3.35937449e-004
,,,-8.50000000e-010,2.71874945e-004
,,,-8.25000000e-010,2.12499941e-004
,,,-8.00000000e-010,1.59374937e-004
,,,-7.75000000e-010,1.12499933e-004
,,,-7.50000000e-010,7.18749306e-005
,,,-7.25000000e-010,3.59374280e-005
,,,-7.00000000e-010,-7.45058060e-011
,,,-6.75000000e-010,-7.50000798e-005
,,,-6.50000000e-010,-1.62500086e-004
,,,-6.25000000e-010,-2.57812593e-004
,,,-6.00000000e-010,-3.60937600e-004
,,,-5.75000000e-010,-4.68750108e-004
,,,-5.50000000e-010,-5.76562615e-004
,,,-5.25000000e-010,-6.87500123e-004
,,,-5.00000000e-010,-8.00000131e-004
,,,-4.75000000e-010,-9.53125142e-004
,,,-4.50000000e-010,-1.12187515e-003
,,,-4.25000000e-010,-1.30625017e-003
,,,-4.00000000e-010,-1.50312518e-003
,,,-3.75000000e-010,-1.71250020e-003
,,,-3.50000000e-010,-1.93281271e-003
,,,-3.25000000e-010,-2.16250023e-003
,,,-3.00000000e-010,-2.40000024e-003
,,,-2.75000000e-010,-2.67656276e-003
,,,-2.50000000e-010,-2.96250028e-003
,,,-2.25000000e-010,-3.24531280e-003
,,,-2.00000000e-010,-3.52187532e-003
,,,-1.75000000e-010,-3.77968784e-003
,,,-1.50000000e-010,-4.01250036e-003
,,,-1.25000000e-010,-4.22031287e-003
,,,-1.00000000e-010,-4.40000039e-003
,,,-7.50000000e-011,-4.57187540e-003
,,,-5.00000000e-011,-4.73906291e-003
,,,-2.50000000e-011,-4.90468792e-003
,,,0.00000000e+000,-5.07968793e-003
,,,2.50000000e-011,-5.27031295e-003
,,,5.00000000e-011,-5.48437546e-003
,,,7.50000000e-011,-5.72656298e-003
,,,1.00000000e-010,-6.00000050e-003
,,,1.25000000e-010,-6.30781302e-003
,,,1.50000000e-010,-6.65000055e-003
,,,1.75000000e-010,-7.02031307e-003
,,,2.00000000e-010,-7.40156310e-003
,,,2.25000000e-010,-7.78437563e-003
,,,2.50000000e-010,-8.15156315e-003
,,,2.75000000e-010,-8.49375068e-003
,,,3.00000000e-010,-8.80000070e-003
,,,3.25000000e-010,-9.04375071e-003
,,,3.50000000e-010,-9.26093823e-003
,,,3.75000000e-010,-9.45625074e-003
,,,4.00000000e-010,-9.63906326e-003
,,,4.25000000e-010,-9.81718827e-003
,,,4.50000000e-010,-1.00000008e-002
,,,4.75000000e-010,-1.01921883e-002
,,,5.00000000e-010,-1.04000008e-002
,,,5.25000000e-010,-1.05859383e-002
,,,5.50000000e-010,-1.07937508e-002
,,,5.75000000e-010,-1.10171884e-002
,,,6.00000000e-010,-1.12484384e-002
,,,6.25000000e-010,-1.14750009e-002
,,,6.50000000e-010,-1.16828134e-002
,,,6.75000000e-010,-1.18609384e-002
,,,7.00000000e-010,-1.20000009e-002
,,,7.25000000e-010,-1.20421884e-002
,,,7.50000000e-010,-1.20515634e-002
,,,7.75000000e-010,-1.20390634e-002
,,,8.00000000e-010,-1.20140634e-002
,,,8.25000000e-010,-1.19875009e-002
,,,8.50000000e-010,-1.19703134e-002
,,,8.75000000e-010,-1.19734384e-002
,,,9.00000000e-010,-1.20000009e-002
,,,9.25000000e-010,-1.19968759e-002
,,,9.50000000e-010,-1.20234384e-002
,,,9.75000000e-010,-1.20750009e-002
,,,1.00000000e-009,-1.21453134e-002
,,,1.02500000e-009,-1.22234384e-002
,,,1.05000000e-009,-1.23000009e-002
,,,1.07500000e-009,-1.23609384e-002
,,,1.10000000e-009,-1.24000010e-002
,,,1.12500000e-009,-1.23484384e-002
,,,1.15000000e-009,-1.22703134e-002
,,,1.17500000e-009,-1.21671884e-002
,,,1.20000000e-009,-1.20515634e-002
,,,1.22500000e-009,-1.19281259e-002
,,,1.25000000e-009,-1.18078134e-002
,,,1.27500000e-009,-1.16968759e-002
,,,1.30000000e-009,-1.16000009e-002
,,,1.32500000e-009,-1.14750009e-002
,,,1.35000000e-009,-1.13656259e-002
,,,1.37500000e-009,-1.12687509e-002
,,,1.40000000e-009,-1.11828134e-002
,,,1.42500000e-009,-1.11000009e-002
,,,1.45000000e-009,-1.10140634e-002
,,,1.47500000e-009,-1.09156258e-002
,,,1.50000000e-009,-1.08000008e-002
,,,1.52500000e-009,-1.06218758e-002
,,,1.55000000e-009,-1.04156258e-002
,,,1.57500000e-009,-1.01812508e-002
,,,1.60000000e-009,-9.92343828e-003
,,,1.62500000e-009,-9.65000076e-003
,,,1.65000000e-009,-9.36718824e-003
,,,1.67500000e-009,-9.08125072e-003
,,,1.70000000e-009,-8.80000070e-003
,,,1.72500000e-009,-8.51093818e-003
,,,1.75000000e-009,-8.22968816e-003
,,,1.77500000e-009,-7.95781314e-003
,,,1.80000000e-009,-7.69843812e-003
,,,1.82500000e-009,-7.45156310e-003
,,,1.85000000e-009,-7.22031309e-003
,,,1.87500000e-009,-7.00156307e-003
,,,1.90000000e-009,-6.80000056e-003
,,,1.92500000e-009,-6.61093804e-003
,,,1.95000000e-009,-6.42968803e-003
,,,1.97500000e-009,-6.25781302e-003
,,,2.00000000e-009,-6.09531301e-003
,,,2.02500000e-009,-5.94687550e-003
,,,2.05000000e-009,-5.81406299e-003
,,,2.07500000e-009,-5.69843798e-003
,,,2.10000000e-009,-5.60000047e-003
,,,2.12500000e-009,-5.52500047e-003
,,,2.15000000e-009,-5.45000046e-003
,,,2.17500000e-009,-5.37187545e-003
,,,2.20000000e-009,-5.28281295e-003
,,,2.22500000e-009,-5.18437544e-003
,,,2.25000000e-009,-5.07031293e-003
,,,2.27500000e-009,-4.94218792e-003
,,,2.30000000e-009,-4.80000041e-003
,,,2.32500000e-009,-4.65937540e-003
,,,2.35000000e-009,-4.50468789e-003
,,,2.37500000e-009,-4.33750038e-003
,,,2.40000000e-009,-4.16718787e-003
,,,2.42500000e-009,-4.00000036e-003
,,,2.45000000e-009,-3.84531285e-003
,,,2.47500000e-009,-3.71093784e-003
,,,2.50000000e-009,-3.60000033e-003
,,,2.52500000e-009,-3.53750032e-003
,,,2.55000000e-009,-3.48906282e-003
,,,2.57500000e-009,-3.45000032e-003
,,,2.60000000e-009,-3.41562532e-003
,,,2.62500000e-009,-3.37656281e-003
,,,2.65000000e-009,-3.33125031e-003
,,,2.67500000e-009,-3.27187531e-003
,,,2.70000000e-009,-3.20000030e-003
,,,2.72500000e-009,-3.12812530e-003
,,,2.75000000e-009,-3.03750029e-003
,,,2.77500000e-009,-2.92968778e-003
,,,2.80000000e-009,-2.81250027e-003
,,,2.82500000e-009,-2.69218777e-003
,,,2.85000000e-009,-2.57812526e-003
,,,2.87500000e-009,-2.47812525e-003
,,,2.90000000e-009,-2.40000024e-003
,,,2.92500000e-009,-2.36093774e-003
,,,2.95000000e-009,-2.34218774e-003
,,,2.97500000e-009,-2.33906274e-003
,,,3.00000000e-009,-2.34843774e-003
,,,3.02500000e-009,-2.36406274e-003
,,,3.05000000e-009,-2.37968774e-003
,,,3.07500000e-009,-2.39218774e-003
,,,3.10000000e-009,-2.40000024e-003
,,,3.12500000e-009,-2.41093775e-003
,,,3.15000000e-009,-2.40937525e-003
,,,3.17500000e-009,-2.40156274e-003
,,,3.20000000e-009,-2.38750024e-003
,,,3.22500000e-009,-2.37500024e-003
,,,3.25000000e-009,-2.37031274e-003
,,,3.27500000e-009,-2.37656274e-003
,,,3.30000000e-009,-2.40000024e-003
,,,3.32500000e-009,-2.44062525e-003
,,,3.35000000e-009,-2.49375025e-003
,,,3.37500000e-009,-2.55312526e-003
,,,3.40000000e-009,-2.61562526e-003
,,,3.42500000e-009,-2.67656276e-003
,,,3.45000000e-009,-2.73125027e-003
,,,3.47500000e-009,-2.77343777e-003
,,,3.50000000e-009,-2.80000027e-003
,,,3.52500000e-009,-2.80156277e-003
,,,3.55000000e-009,-2.78281277e-003
,,,3.57500000e-009,-2.74218777e-003
,,,3.60000000e-009,-2.68593776e-003
,,,3.62500000e-009,-2.61718776e-003
,,,3.65000000e-009,-2.54375025e-003
,,,3.67500000e-009,-2.46875025e-003
,,,3.70000000e-009,-2.40000024e-003
,,,3.72500000e-009,-2.33750024e-003
,,,3.75000000e-009,-2.28906274e-003
,,,3.77500000e-009,-2.25937523e-003
,,,3.80000000e-009,-2.24843773e-003
,,,3.82500000e-009,-2.25937523e-003
,,,3.85000000e-009,-2.29062524e-003
,,,3.87500000e-009,-2.33750024e-003
,,,3.90000000e-009,-2.40000024e-003
,,,3.92500000e-009,-2.45468775e-003
,,,3.95000000e-009,-2.50625025e-003
,,,3.97500000e-009,-2.54687525e-003
,,,4.00000000e-009,-2.57031276e-003
,,,4.02500000e-009,-2.57031276e-003
,,,4.05000000e-009,-2.54375025e-003
,,,4.07500000e-009,-2.48750025e-003
,,,4.10000000e-009,-2.40000024e-003
,,,4.12500000e-009,-2.27031274e-003
,,,4.15000000e-009,-2.11562522e-003
,,,4.17500000e-009,-1.94531271e-003
,,,4.20000000e-009,-1.77031270e-003
,,,4.22500000e-009,-1.59843769e-003
,,,4.25000000e-009,-1.44062518e-003
,,,4.27500000e-009,-1.30468767e-003
,,,4.30000000e-009,-1.20000016e-003
,,,4.32500000e-009,-1.12500015e-003
,,,4.35000000e-009,-1.08281265e-003
,,,4.37500000e-009,-1.06875015e-003
,,,4.40000000e-009,-1.07812515e-003
,,,4.42500000e-009,-1.10312515e-003
,,,4.45000000e-009,-1.13750016e-003
,,,4.47500000e-009,-1.17187516e-003
,,,4.50000000e-009,-1.20000016e-003
,,,4.52500000e-009,-1.21093766e-003
,,,4.55000000e-009,-1.20156266e-003
,,,4.57500000e-009,-1.17031266e-003
,,,4.60000000e-009,-1.12031265e-003
,,,4.62500000e-009,-1.05468765e-003
,,,4.65000000e-009,-9.76562644e-004
,,,4.67500000e-009,-8.89062637e-004
,,,4.70000000e-009,-8.00000131e-004
,,,4.72500000e-009,-7.06250124e-004
,,,4.75000000e-009,-6.10937618e-004
,,,4.77500000e-009,-5.14062611e-004
,,,4.80000000e-009,-4.14062604e-004
,,,4.82500000e-009,-3.14062597e-004
,,,4.85000000e-009,-2.10937589e-004
,,,4.87500000e-009,-1.04687582e-004
,,,4.90000000e-009,-7.45058060e-011
,,,4.92500000e-009,9.84374325e-005
,,,4.95000000e-009,1.92187439e-004
,,,4.97500000e-009,2.76562445e-004
,,,5.00000000e-009,3.46874950e-004
,,,5.02500000e-009,3.98437454e-004
,,,5.05000000e-009,4.26562456e-004
,,,5.07500000e-009,4.26562456e-004
,,,5.10000000e-009,3.99999954e-004
,,,5.12500000e-009,3.42187450e-004
,,,5.15000000e-009,2.68749945e-004
,,,5.17500000e-009,1.89062439e-004
,,,5.20000000e-009,1.14062434e-004
,,,5.22500000e-009,4.99999290e-005
,,,5.25000000e-009,4.68742583e-006
,,,5.27500000e-009,-1.25000754e-005
,,,5.30000000e-009,-7.45058060e-011
,,,5.32500000e-009,4.37499286e-005
,,,5.35000000e-009,1.15624934e-004
,,,5.37500000e-009,2.15624941e-004
,,,5.40000000e-009,3.32812449e-004
,,,5.42500000e-009,4.59374958e-004
,,,5.45000000e-009,5.84374967e-004
,,,5.47500000e-009,7.01562475e-004
,,,5.50000000e-009,7.99999982e-004
,,,5.52500000e-009,8.68749987e-004
,,,5.55000000e-009,9.12499990e-004
,,,5.57500000e-009,9.32812492e-004
,,,5.60000000e-009,9.31249991e-004
,,,5.62500000e-009,9.10937490e-004
,,,5.65000000e-009,8.79687488e-004
,,,5.67500000e-009,8.40624985e-004
,,,5.70000000e-009,7.99999982e-004
,,,5.72500000e-009,7.56249979e-004
,,,5.75000000e-009,7.23437477e-004
,,,5.77500000e-009,7.03124975e-004
,,,5.80000000e-009,6.98437475e-004
,,,5.82500000e-009,7.07812476e-004
,,,5.85000000e-009,7.29687477e-004
,,,5.87500000e-009,7.62499979e-004
,,,5.90000000e-009,7.99999982e-004
,,,5.92500000e-009,8.34374985e-004
,,,5.95000000e-009,8.64062487e-004
,,,5.97500000e-009,8.85937488e-004
,,,6.00000000e-009,8.98437489e-004
,,,6.02500000e-009,8.96874989e-004
