RawData/SinglePhotoelectron/L3_2pt2foot_5mV/wave026_Ch4.csv

"Record Length",1000,"Points",-7.72500000e-009,4.39062457e-004
"Sample Interval",2.50000000e-011,s,-7.70000000e-009,4.65624958e-004
"Trigger Point",309,"Samples",-7.67500000e-009,4.79687459e-004
"Trigger Time",1.96892913e-011,s,-7.65000000e-009,4.81249960e-004
"",,,-7.62500000e-009,4.71874959e-004
"Horizontal Offset",-7.72500000e-009,s,-7.60000000e-009,4.53124958e-004
,,,-7.57500000e-009,4.29687456e-004
,,,-7.55000000e-009,3.99999954e-004
,,,-7.52500000e-009,3.74999952e-004
,,,-7.50000000e-009,3.51562450e-004
,,,-7.47500000e-009,3.35937449e-004
,,,-7.45000000e-009,3.26562449e-004
,,,-7.42500000e-009,3.29687449e-004
,,,-7.40000000e-009,3.42187450e-004
,,,-7.37500000e-009,3.65624951e-004
,,,-7.35000000e-009,3.99999954e-004
,,,-7.32500000e-009,4.45312457e-004
,,,-7.30000000e-009,4.96874961e-004
,,,-7.27500000e-009,5.53124965e-004
,,,-7.25000000e-009,6.09374969e-004
,,,-7.22500000e-009,6.64062472e-004
,,,-7.20000000e-009,7.15624976e-004
,,,-7.17500000e-009,7.62499979e-004
,,,-7.15000000e-009,7.99999982e-004
,,,-7.12500000e-009,8.28124984e-004
,,,-7.10000000e-009,8.46874985e-004
,,,-7.07500000e-009,8.56249986e-004
,,,-7.05000000e-009,8.56249986e-004
,,,-7.02500000e-009,8.49999986e-004
,,,-7.00000000e-009,8.37499985e-004
,,,-6.97500000e-009,8.20312484e-004
,,,-6.95000000e-009,7.99999982e-004
,,,-6.92500000e-009,7.79687481e-004
,,,-6.90000000e-009,7.60937479e-004
,,,-6.87500000e-009,7.48437478e-004
,,,-6.85000000e-009,7.43749978e-004
,,,-6.82500000e-009,7.46874978e-004
,,,-6.80000000e-009,7.59374979e-004
,,,-6.77500000e-009,7.76562480e-004
,,,-6.75000000e-009,7.99999982e-004
,,,-6.72500000e-009,8.23437484e-004
,,,-6.70000000e-009,8.45312485e-004
,,,-6.67500000e-009,8.64062487e-004
,,,-6.65000000e-009,8.74999987e-004
,,,-6.62500000e-009,8.74999987e-004
,,,-6.60000000e-009,8.64062487e-004
,,,-6.57500000e-009,8.39062485e-004
,,,-6.55000000e-009,7.99999982e-004
,,,-6.52500000e-009,7.45312478e-004
,,,-6.50000000e-009,6.81249974e-004
,,,-6.47500000e-009,6.14062469e-004
,,,-6.45000000e-009,5.48437464e-004
,,,-6.42500000e-009,4.89062460e-004
,,,-6.40000000e-009,4.42187457e-004
,,,-6.37500000e-009,4.12499955e-004
,,,-6.35000000e-009,3.99999954e-004
,,,-6.32500000e-009,4.10937455e-004
,,,-6.30000000e-009,4.39062457e-004
,,,-6.27500000e-009,4.85937460e-004
,,,-6.25000000e-009,5.43749964e-004
,,,-6.22500000e-009,6.10937469e-004
,,,-6.20000000e-009,6.78124973e-004
,,,-6.17500000e-009,7.43749978e-004
,,,-6.15000000e-009,7.99999982e-004
,,,-6.12500000e-009,8.43749985e-004
,,,-6.10000000e-009,8.73437487e-004
,,,-6.07500000e-009,8.87499988e-004
,,,-6.05000000e-009,8.87499988e-004
,,,-6.02500000e-009,8.76562488e-004
,,,-6.00000000e-009,8.57812486e-004
,,,-5.97500000e-009,8.31249984e-004
,,,-5.95000000e-009,7.99999982e-004
,,,-5.92500000e-009,7.65624980e-004
,,,-5.90000000e-009,7.26562477e-004
,,,-5.87500000e-009,6.85937474e-004
,,,-5.85000000e-009,6.40624971e-004
,,,-5.82500000e-009,5.89062467e-004
,,,-5.80000000e-009,5.32812463e-004
,,,-5.77500000e-009,4.70312459e-004
,,,-5.75000000e-009,3.99999954e-004
,,,-5.72500000e-009,3.31249949e-004
,,,-5.70000000e-009,2.59374944e-004
,,,-5.67500000e-009,1.90624939e-004
,,,-5.65000000e-009,1.28124935e-004
,,,-5.62500000e-009,7.34374307e-005
,,,-5.60000000e-009,3.28124278e-005
,,,-5.57500000e-009,7.81242605e-006
,,,-5.55000000e-009,-7.45058060e-011
,,,-5.52500000e-009,1.71874267e-005
,,,-5.50000000e-009,4.99999290e-005
,,,-5.47500000e-009,9.84374325e-005
,,,-5.45000000e-009,1.54687436e-004
,,,-5.42500000e-009,2.18749941e-004
,,,-5.40000000e-009,2.82812446e-004
,,,-5.37500000e-009,3.45312450e-004
,,,-5.35000000e-009,3.99999954e-004
,,,-5.32500000e-009,4.45312457e-004
,,,-5.30000000e-009,4.76562459e-004
,,,-5.27500000e-009,4.93749960e-004
,,,-5.25000000e-009,4.96874961e-004
,,,-5.22500000e-009,4.85937460e-004
,,,-5.20000000e-009,4.64062458e-004
,,,-5.17500000e-009,4.35937456e-004
,,,-5.15000000e-009,3.99999954e-004
,,,-5.12500000e-009,3.68749952e-004
,,,-5.10000000e-009,3.42187450e-004
,,,-5.07500000e-009,3.20312448e-004
,,,-5.05000000e-009,3.09374947e-004
,,,-5.02500000e-009,3.12499948e-004
,,,-5.00000000e-009,3.28124949e-004
,,,-4.97500000e-009,3.57812451e-004
,,,-4.95000000e-009,3.99999954e-004
,,,-4.92500000e-009,4.59374958e-004
,,,-4.90000000e-009,5.23437463e-004
,,,-4.87500000e-009,5.90624967e-004
,,,-4.85000000e-009,6.54687472e-004
,,,-4.82500000e-009,7.12499976e-004
,,,-4.80000000e-009,7.57812479e-004
,,,-4.77500000e-009,7.89062481e-004
,,,-4.75000000e-009,7.99999982e-004
,,,-4.72500000e-009,7.90624981e-004
,,,-4.70000000e-009,7.60937479e-004
,,,-4.67500000e-009,7.15624976e-004
,,,-4.65000000e-009,6.59374972e-004
,,,-4.62500000e-009,5.93749968e-004
,,,-4.60000000e-009,5.26562463e-004
,,,-4.57500000e-009,4.60937458e-004
,,,-4.55000000e-009,3.99999954e-004
,,,-4.52500000e-009,3.53124950e-004
,,,-4.50000000e-009,3.18749948e-004
,,,-4.47500000e-009,2.99999947e-004
,,,-4.45000000e-009,2.96874947e-004
,,,-4.42500000e-009,3.06249947e-004
,,,-4.40000000e-009,3.29687449e-004
,,,-4.37500000e-009,3.60937451e-004
,,,-4.35000000e-009,3.99999954e-004
,,,-4.32500000e-009,4.46874957e-004
,,,-4.30000000e-009,4.96874961e-004
,,,-4.27500000e-009,5.48437464e-004
,,,-4.25000000e-009,5.99999968e-004
,,,-4.22500000e-009,6.53124972e-004
,,,-4.20000000e-009,7.04687475e-004
,,,-4.17500000e-009,7.54687479e-004
,,,-4.15000000e-009,7.99999982e-004
,,,-4.12500000e-009,8.40624985e-004
,,,-4.10000000e-009,8.71874987e-004
,,,-4.07500000e-009,8.95312489e-004
,,,-4.05000000e-009,9.04687490e-004
,,,-4.02500000e-009,9.01562489e-004
,,,-4.00000000e-009,8.82812488e-004
,,,-3.97500000e-009,8.48437486e-004
,,,-3.95000000e-009,7.99999982e-004
,,,-3.92500000e-009,7.37499978e-004
,,,-3.90000000e-009,6.67187473e-004
,,,-3.87500000e-009,5.96874968e-004
,,,-3.85000000e-009,5.29687463e-004
,,,-3.82500000e-009,4.71874959e-004
,,,-3.80000000e-009,4.28124956e-004
,,,-3.77500000e-009,4.04687454e-004
,,,-3.75000000e-009,3.99999954e-004
,,,-3.72500000e-009,4.21874955e-004
,,,-3.70000000e-009,4.60937458e-004
,,,-3.67500000e-009,5.14062462e-004
,,,-3.65000000e-009,5.76562466e-004
,,,-3.62500000e-009,6.42187471e-004
,,,-3.60000000e-009,7.04687475e-004
,,,-3.57500000e-009,7.57812479e-004
,,,-3.55000000e-009,7.99999982e-004
,,,-3.52500000e-009,8.26562484e-004
,,,-3.50000000e-009,8.39062485e-004
,,,-3.47500000e-009,8.40624985e-004
,,,-3.45000000e-009,8.32812484e-004
,,,-3.42500000e-009,8.21874984e-004
,,,-3.40000000e-009,8.10937483e-004
,,,-3.37500000e-009,8.03124982e-004
,,,-3.35000000e-009,7.99999982e-004
,,,-3.32500000e-009,8.06249983e-004
,,,-3.30000000e-009,8.18749983e-004
,,,-3.27500000e-009,8.32812484e-004
,,,-3.25000000e-009,8.46874985e-004
,,,-3.22500000e-009,8.54687486e-004
,,,-3.20000000e-009,8.51562486e-004
,,,-3.17500000e-009,8.34374985e-004
,,,-3.15000000e-009,7.99999982e-004
,,,-3.12500000e-009,7.49999979e-004
,,,-3.10000000e-009,6.85937474e-004
,,,-3.07500000e-009,6.17187469e-004
,,,-3.05000000e-009,5.46874964e-004
,,,-3.02500000e-009,4.82812460e-004
,,,-3.00000000e-009,4.34374956e-004
,,,-2.97500000e-009,4.06249954e-004
,,,-2.95000000e-009,3.99999954e-004
,,,-2.92500000e-009,4.23437455e-004
,,,-2.90000000e-009,4.67187459e-004
,,,-2.87500000e-009,5.26562463e-004
,,,-2.85000000e-009,5.93749968e-004
,,,-2.82500000e-009,6.62499972e-004
,,,-2.80000000e-009,7.23437477e-004
,,,-2.77500000e-009,7.70312480e-004
,,,-2.75000000e-009,7.99999982e-004
,,,-2.72500000e-009,8.10937483e-004
,,,-2.70000000e-009,8.04687482e-004
,,,-2.67500000e-009,7.87499981e-004
,,,-2.65000000e-009,7.68749980e-004
,,,-2.62500000e-009,7.53124979e-004
,,,-2.60000000e-009,7.49999979e-004
,,,-2.57500000e-009,7.65624980e-004
,,,-2.55000000e-009,7.99999982e-004
,,,-2.52500000e-009,8.56249986e-004
,,,-2.50000000e-009,9.28124991e-004
,,,-2.47500000e-009,1.00937500e-003
,,,-2.45000000e-009,1.08750000e-003
,,,-2.42500000e-009,1.15468751e-003
,,,-2.40000000e-009,1.20156251e-003
,,,-2.37500000e-009,1.21875001e-003
,,,-2.35000000e-009,1.20000001e-003
,,,-2.32500000e-009,1.14531251e-003
,,,-2.30000000e-009,1.05937500e-003
,,,-2.27500000e-009,9.48437493e-004
,,,-2.25000000e-009,8.23437484e-004
,,,-2.22500000e-009,6.93749975e-004
,,,-2.20000000e-009,5.74999966e-004
,,,-2.17500000e-009,4.73437459e-004
,,,-2.15000000e-009,3.99999954e-004
,,,-2.12500000e-009,3.65624951e-004
,,,-2.10000000e-009,3.65624951e-004
,,,-2.07500000e-009,3.98437454e-004
,,,-2.05000000e-009,4.59374958e-004
,,,-2.02500000e-009,5.39062464e-004
,,,-2.00000000e-009,6.28124970e-004
,,,-1.97500000e-009,7.18749976e-004
,,,-1.95000000e-009,7.99999982e-004
,,,-1.92500000e-009,8.64062487e-004
,,,-1.90000000e-009,9.07812490e-004
,,,-1.87500000e-009,9.29687491e-004
,,,-1.85000000e-009,9.31249991e-004
,,,-1.82500000e-009,9.14062490e-004
,,,-1.80000000e-009,8.82812488e-004
,,,-1.77500000e-009,8.43749985e-004
,,,-1.75000000e-009,7.99999982e-004
,,,-1.72500000e-009,7.56249979e-004
,,,-1.70000000e-009,7.20312476e-004
,,,-1.67500000e-009,6.93749975e-004
,,,-1.65000000e-009,6.82812474e-004
,,,-1.62500000e-009,6.87499974e-004
,,,-1.60000000e-009,7.09374976e-004
,,,-1.57500000e-009,7.48437478e-004
,,,-1.55000000e-009,7.99999982e-004
,,,-1.52500000e-009,8.56249986e-004
,,,-1.50000000e-009,9.17187490e-004
,,,-1.47500000e-009,9.79687495e-004
,,,-1.45000000e-009,1.04218750e-003
,,,-1.42500000e-009,1.09687500e-003
,,,-1.40000000e-009,1.14375001e-003
,,,-1.37500000e-009,1.17968751e-003
,,,-1.35000000e-009,1.20000001e-003
,,,-1.32500000e-009,1.19062501e-003
,,,-1.30000000e-009,1.16250001e-003
,,,-1.27500000e-009,1.11875000e-003
,,,-1.25000000e-009,1.06250000e-003
,,,-1.22500000e-009,9.98437496e-004
,,,-1.20000000e-009,9.31249991e-004
,,,-1.17500000e-009,8.64062487e-004
,,,-1.15000000e-009,7.99999982e-004
,,,-1.12500000e-009,7.18749976e-004
,,,-1.10000000e-009,6.43749971e-004
,,,-1.07500000e-009,5.76562466e-004
,,,-1.05000000e-009,5.20312462e-004
,,,-1.02500000e-009,4.74999959e-004
,,,-1.00000000e-009,4.40624957e-004
,,,-9.75000000e-010,4.17187455e-004
,,,-9.50000000e-010,3.99999954e-004
,,,-9.25000000e-010,3.60937451e-004
,,,-9.00000000e-010,3.18749948e-004
,,,-8.75000000e-010,2.73437445e-004
,,,-8.50000000e-010,2.23437441e-004
,,,-8.25000000e-010,1.71874938e-004
,,,-8.00000000e-010,1.17187434e-004
,,,-7.75000000e-010,6.09374298e-005
,,,-7.50000000e-010,-7.45058060e-011
,,,-7.25000000e-010,-9.53125813e-005
,,,-7.00000000e-010,-1.98437589e-004
,,,-6.75000000e-010,-3.06250096e-004
,,,-6.50000000e-010,-4.15625104e-004
,,,-6.25000000e-010,-5.20312611e-004
,,,-6.00000000e-010,-6.20312618e-004
,,,-5.75000000e-010,-7.12500125e-004
,,,-5.50000000e-010,-8.00000131e-004
,,,-5.25000000e-010,-9.12500139e-004
,,,-5.00000000e-010,-1.03281265e-003
,,,-4.75000000e-010,-1.16093766e-003
,,,-4.50000000e-010,-1.30156267e-003
,,,-4.25000000e-010,-1.45312518e-003
,,,-4.00000000e-010,-1.62031269e-003
,,,-3.75000000e-010,-1.80156270e-003
,,,-3.50000000e-010,-2.00000022e-003
,,,-3.25000000e-010,-2.23281273e-003
,,,-3.00000000e-010,-2.48593775e-003
,,,-2.75000000e-010,-2.75156277e-003
,,,-2.50000000e-010,-3.02187529e-003
,,,-2.25000000e-010,-3.28906281e-003
,,,-2.00000000e-010,-3.54375033e-003
,,,-1.75000000e-010,-3.78125034e-003
,,,-1.50000000e-010,-4.00000036e-003
,,,-1.25000000e-010,-4.20468787e-003
,,,-1.00000000e-010,-4.39843789e-003
,,,-7.50000000e-011,-4.58750040e-003
,,,-5.00000000e-011,-4.77500041e-003
,,,-2.50000000e-011,-4.96562543e-003
,,,0.00000000e+000,-5.16406294e-003
,,,2.50000000e-011,-5.37500045e-003
,,,5.00000000e-011,-5.60000047e-003
,,,7.50000000e-011,-5.82968799e-003
,,,1.00000000e-010,-6.07812550e-003
,,,1.25000000e-010,-6.34062552e-003
,,,1.50000000e-010,-6.61250054e-003
,,,1.75000000e-010,-6.88281306e-003
,,,2.00000000e-010,-7.14218808e-003
,,,2.25000000e-010,-7.38437560e-003
,,,2.50000000e-010,-7.60000061e-003
,,,2.75000000e-010,-7.75781312e-003
,,,3.00000000e-010,-7.89218813e-003
,,,3.25000000e-010,-8.00625064e-003
,,,3.50000000e-010,-8.10312565e-003
,,,3.75000000e-010,-8.18593815e-003
,,,4.00000000e-010,-8.25937566e-003
,,,4.25000000e-010,-8.32968816e-003
,,,4.50000000e-010,-8.40000067e-003
,,,4.75000000e-010,-8.43750067e-003
,,,5.00000000e-010,-8.49062568e-003
,,,5.25000000e-010,-8.56406318e-003
,,,5.50000000e-010,-8.65937569e-003
,,,5.75000000e-010,-8.77500070e-003
,,,6.00000000e-010,-8.90781321e-003
,,,6.25000000e-010,-9.05156322e-003
,,,6.50000000e-010,-9.20000073e-003
,,,6.75000000e-010,-9.29843823e-003
,,,7.00000000e-010,-9.39218824e-003
,,,7.25000000e-010,-9.47656325e-003
,,,7.50000000e-010,-9.54687575e-003
,,,7.75000000e-010,-9.59687575e-003
,,,8.00000000e-010,-9.62500076e-003
,,,8.25000000e-010,-9.62500076e-003
,,,8.50000000e-010,-9.60000075e-003
,,,8.75000000e-010,-9.50156325e-003
,,,9.00000000e-010,-9.38437574e-003
,,,9.25000000e-010,-9.26093823e-003
,,,9.50000000e-010,-9.13906322e-003
,,,9.75000000e-010,-9.02500071e-003
,,,1.00000000e-009,-8.92812571e-003
,,,1.02500000e-009,-8.85156320e-003
,,,1.05000000e-009,-8.80000070e-003
,,,1.07500000e-009,-8.73125069e-003
,,,1.10000000e-009,-8.67968819e-003
,,,1.12500000e-009,-8.64375069e-003
,,,1.15000000e-009,-8.61406318e-003
,,,1.17500000e-009,-8.58281318e-003
,,,1.20000000e-009,-8.54218818e-003
,,,1.22500000e-009,-8.48281317e-003
,,,1.25000000e-009,-8.40000067e-003
,,,1.27500000e-009,-8.25937566e-003
,,,1.30000000e-009,-8.08750065e-003
,,,1.32500000e-009,-7.89062563e-003
,,,1.35000000e-009,-7.67500062e-003
,,,1.37500000e-009,-7.45000060e-003
,,,1.40000000e-009,-7.22343809e-003
,,,1.42500000e-009,-7.00468807e-003
,,,1.45000000e-009,-6.80000056e-003
,,,1.47500000e-009,-6.60000054e-003
,,,1.50000000e-009,-6.41718803e-003
,,,1.52500000e-009,-6.25312552e-003
,,,1.55000000e-009,-6.10468801e-003
,,,1.57500000e-009,-5.97031300e-003
,,,1.60000000e-009,-5.84375049e-003
,,,1.62500000e-009,-5.72187548e-003
,,,1.65000000e-009,-5.60000047e-003
,,,1.67500000e-009,-5.47500046e-003
,,,1.70000000e-009,-5.33906295e-003
,,,1.72500000e-009,-5.19218794e-003
,,,1.75000000e-009,-5.03750043e-003
,,,1.77500000e-009,-4.87656292e-003
,,,1.80000000e-009,-4.71250041e-003
,,,1.82500000e-009,-4.55312540e-003
,,,1.85000000e-009,-4.40000039e-003
,,,1.87500000e-009,-4.26562538e-003
,,,1.90000000e-009,-4.13906287e-003
,,,1.92500000e-009,-4.02031286e-003
,,,1.95000000e-009,-3.91093785e-003
,,,1.97500000e-009,-3.81406284e-003
,,,2.00000000e-009,-3.72968784e-003
,,,2.02500000e-009,-3.65781283e-003
,,,2.05000000e-009,-3.60000033e-003
,,,2.07500000e-009,-3.56250033e-003
,,,2.10000000e-009,-3.52656282e-003
,,,2.12500000e-009,-3.48750032e-003
,,,2.15000000e-009,-3.44218782e-003
,,,2.17500000e-009,-3.39062531e-003
,,,2.20000000e-009,-3.33281281e-003
,,,2.22500000e-009,-3.26875031e-003
,,,2.25000000e-009,-3.20000030e-003
,,,2.27500000e-009,-3.14218780e-003
,,,2.30000000e-009,-3.07812529e-003
,,,2.32500000e-009,-3.01093779e-003
,,,2.35000000e-009,-2.94687528e-003
,,,2.37500000e-009,-2.88906278e-003
,,,2.40000000e-009,-2.84375028e-003
,,,2.42500000e-009,-2.81250027e-003
,,,2.45000000e-009,-2.80000027e-003
,,,2.47500000e-009,-2.81093777e-003
,,,2.50000000e-009,-2.82968777e-003
,,,2.52500000e-009,-2.85156278e-003
,,,2.55000000e-009,-2.86718778e-003
,,,2.57500000e-009,-2.87500028e-003
,,,2.60000000e-009,-2.86875028e-003
,,,2.62500000e-009,-2.84375028e-003
,,,2.65000000e-009,-2.80000027e-003
,,,2.67500000e-009,-2.73437527e-003
,,,2.70000000e-009,-2.64687526e-003
,,,2.72500000e-009,-2.54062525e-003
,,,2.75000000e-009,-2.42343775e-003
,,,2.77500000e-009,-2.30156274e-003
,,,2.80000000e-009,-2.18593773e-003
,,,2.82500000e-009,-2.08281272e-003
,,,2.85000000e-009,-2.00000022e-003
,,,2.87500000e-009,-1.94218771e-003
,,,2.90000000e-009,-1.90781271e-003
,,,2.92500000e-009,-1.89218771e-003
,,,2.95000000e-009,-1.89531271e-003
,,,2.97500000e-009,-1.91093771e-003
,,,3.00000000e-009,-1.93750021e-003
,,,3.02500000e-009,-1.96875021e-003
,,,3.05000000e-009,-2.00000022e-003
,,,3.07500000e-009,-2.02656272e-003
,,,3.10000000e-009,-2.04531272e-003
,,,3.12500000e-009,-2.05468772e-003
,,,3.15000000e-009,-2.05312522e-003
,,,3.17500000e-009,-2.04687522e-003
,,,3.20000000e-009,-2.03281272e-003
,,,3.22500000e-009,-2.01718772e-003
,,,3.25000000e-009,-2.00000022e-003
,,,3.27500000e-009,-1.97656271e-003
,,,3.30000000e-009,-1.94843771e-003
,,,3.32500000e-009,-1.91250021e-003
,,,3.35000000e-009,-1.87031271e-003
,,,3.37500000e-009,-1.81875020e-003
,,,3.40000000e-009,-1.75781270e-003
,,,3.42500000e-009,-1.68437519e-003
,,,3.45000000e-009,-1.60000019e-003
,,,3.47500000e-009,-1.50312518e-003
,,,3.50000000e-009,-1.39843767e-003
,,,3.52500000e-009,-1.28593767e-003
,,,3.55000000e-009,-1.17343766e-003
,,,3.57500000e-009,-1.06406265e-003
,,,3.60000000e-009,-9.62500143e-004
,,,3.62500000e-009,-8.71875136e-004
,,,3.65000000e-009,-8.00000131e-004
,,,3.67500000e-009,-7.48437627e-004
,,,3.70000000e-009,-7.15625125e-004
,,,3.72500000e-009,-6.98437624e-004
,,,3.75000000e-009,-6.96875124e-004
,,,3.77500000e-009,-7.09375125e-004
,,,3.80000000e-009,-7.32812626e-004
,,,3.82500000e-009,-7.64062629e-004
,,,3.85000000e-009,-8.00000131e-004
,,,3.87500000e-009,-8.35937634e-004
,,,3.90000000e-009,-8.65625136e-004
,,,3.92500000e-009,-8.85937637e-004
,,,3.95000000e-009,-8.95312638e-004
,,,3.97500000e-009,-8.90625138e-004
,,,4.00000000e-009,-8.73437636e-004
,,,4.02500000e-009,-8.42187634e-004
,,,4.05000000e-009,-8.00000131e-004
,,,4.07500000e-009,-7.48437627e-004
,,,4.10000000e-009,-6.89062623e-004
,,,4.12500000e-009,-6.26562619e-004
,,,4.15000000e-009,-5.65625115e-004
,,,4.17500000e-009,-5.07812610e-004
,,,4.20000000e-009,-4.59375107e-004
,,,4.22500000e-009,-4.23437604e-004
,,,4.25000000e-009,-4.00000103e-004
,,,4.27500000e-009,-3.93750102e-004
,,,4.30000000e-009,-3.98437603e-004
,,,4.32500000e-009,-4.07812603e-004
,,,4.35000000e-009,-4.20312604e-004
,,,4.37500000e-009,-4.28125105e-004
,,,4.40000000e-009,-4.29687605e-004
,,,4.42500000e-009,-4.20312604e-004
,,,4.45000000e-009,-4.00000103e-004
,,,4.47500000e-009,-3.65625100e-004
,,,4.50000000e-009,-3.20312597e-004
,,,4.52500000e-009,-2.62500093e-004
,,,4.55000000e-009,-2.01562589e-004
,,,4.57500000e-009,-1.39062584e-004
,,,4.60000000e-009,-8.12500803e-005
,,,4.62500000e-009,-3.43750769e-005
,,,4.65000000e-009,-7.45058060e-011
,,,4.67500000e-009,1.87499268e-005
,,,4.70000000e-009,2.34374272e-005
,,,4.72500000e-009,1.87499268e-005
,,,4.75000000e-009,9.37492616e-006
,,,4.77500000e-009,-1.56257462e-006
,,,4.80000000e-009,-7.81257506e-006
,,,4.82500000e-009,-7.81257506e-006
,,,4.85000000e-009,-7.45058060e-011
,,,4.87500000e-009,1.71874267e-005
,,,4.90000000e-009,3.90624283e-005
,,,4.92500000e-009,6.24999299e-005
,,,4.95000000e-009,8.12499312e-005
,,,4.97500000e-009,8.90624318e-005
,,,5.00000000e-009,8.12499312e-005
,,,5.02500000e-009,5.15624291e-005
,,,5.05000000e-009,-7.45058060e-011
,,,5.07500000e-009,-7.18750796e-005
,,,5.10000000e-009,-1.56250086e-004
,,,5.12500000e-009,-2.43750092e-004
,,,5.15000000e-009,-3.25000098e-004
,,,5.17500000e-009,-3.89062602e-004
,,,5.20000000e-009,-4.28125105e-004
,,,5.22500000e-009,-4.31250105e-004
,,,5.25000000e-009,-4.00000103e-004
,,,5.27500000e-009,-3.28125098e-004
,,,5.30000000e-009,-2.28125091e-004
,,,5.32500000e-009,-1.04687582e-004
,,,5.35000000e-009,2.65624274e-005
,,,5.37500000e-009,1.54687436e-004
,,,5.40000000e-009,2.65624944e-004
,,,5.42500000e-009,3.49999950e-004
,,,5.45000000e-009,3.99999954e-004
,,,5.47500000e-009,4.07812454e-004
,,,5.50000000e-009,3.79687452e-004
,,,5.52500000e-009,3.23437448e-004
,,,5.55000000e-009,2.48437443e-004
,,,5.57500000e-009,1.67187437e-004
,,,5.60000000e-009,9.21874320e-005
,,,5.62500000e-009,3.43749279e-005
,,,5.65000000e-009,-7.45058060e-011
,,,5.67500000e-009,-3.12507473e-006
,,,5.70000000e-009,2.34374272e-005
,,,5.72500000e-009,7.49999308e-005
,,,5.75000000e-009,1.43749936e-004
,,,5.77500000e-009,2.21874941e-004
,,,5.80000000e-009,2.96874947e-004
,,,5.82500000e-009,3.59374951e-004
,,,5.85000000e-009,3.99999954e-004
,,,5.87500000e-009,4.15624955e-004
,,,5.90000000e-009,4.01562454e-004
,,,5.92500000e-009,3.62499951e-004
,,,5.95000000e-009,3.03124947e-004
,,,5.97500000e-009,2.29687442e-004
,,,6.00000000e-009,1.49999936e-004
,,,6.02500000e-009,7.03124305e-005
