RawData/SinglePhotoelectron/L3_2pt2foot_5mV/wave027_Ch4.csv

"Record Length",1000,"Points",-7.72500000e-009,9.42187492e-004
"Sample Interval",2.50000000e-011,s,-7.70000000e-009,1.01562500e-003
"Trigger Point",309,"Samples",-7.67500000e-009,1.08750000e-003
"Trigger Time",2.42318644e-011,s,-7.65000000e-009,1.14687501e-003
"",,,-7.62500000e-009,1.18750001e-003
"Horizontal Offset",-7.72500000e-009,s,-7.60000000e-009,1.20000001e-003
,,,-7.57500000e-009,1.18437501e-003
,,,-7.55000000e-009,1.14375001e-003
,,,-7.52500000e-009,1.08125000e-003
,,,-7.50000000e-009,1.00937500e-003
,,,-7.47500000e-009,9.35937492e-004
,,,-7.45000000e-009,8.70312487e-004
,,,-7.42500000e-009,8.23437484e-004
,,,-7.40000000e-009,7.99999982e-004
,,,-7.37500000e-009,8.07812483e-004
,,,-7.35000000e-009,8.42187485e-004
,,,-7.32500000e-009,8.98437489e-004
,,,-7.30000000e-009,9.68749994e-004
,,,-7.27500000e-009,1.04375000e-003
,,,-7.25000000e-009,1.11250000e-003
,,,-7.22500000e-009,1.16718751e-003
,,,-7.20000000e-009,1.20000001e-003
,,,-7.17500000e-009,1.20625001e-003
,,,-7.15000000e-009,1.18593751e-003
,,,-7.12500000e-009,1.14062501e-003
,,,-7.10000000e-009,1.07968750e-003
,,,-7.07500000e-009,1.00625000e-003
,,,-7.05000000e-009,9.31249991e-004
,,,-7.02500000e-009,8.60937486e-004
,,,-7.00000000e-009,7.99999982e-004
,,,-6.97500000e-009,7.57812479e-004
,,,-6.95000000e-009,7.34374977e-004
,,,-6.92500000e-009,7.24999977e-004
,,,-6.90000000e-009,7.31249977e-004
,,,-6.87500000e-009,7.45312478e-004
,,,-6.85000000e-009,7.65624980e-004
,,,-6.82500000e-009,7.84374981e-004
,,,-6.80000000e-009,7.99999982e-004
,,,-6.77500000e-009,8.10937483e-004
,,,-6.75000000e-009,8.12499983e-004
,,,-6.72500000e-009,8.09374983e-004
,,,-6.70000000e-009,8.01562482e-004
,,,-6.67500000e-009,7.92187482e-004
,,,-6.65000000e-009,7.87499981e-004
,,,-6.62500000e-009,7.89062481e-004
,,,-6.60000000e-009,7.99999982e-004
,,,-6.57500000e-009,8.24999984e-004
,,,-6.55000000e-009,8.60937486e-004
,,,-6.52500000e-009,9.07812490e-004
,,,-6.50000000e-009,9.60937494e-004
,,,-6.47500000e-009,1.02187500e-003
,,,-6.45000000e-009,1.08437500e-003
,,,-6.42500000e-009,1.14531251e-003
,,,-6.40000000e-009,1.20000001e-003
,,,-6.37500000e-009,1.24531251e-003
,,,-6.35000000e-009,1.27656252e-003
,,,-6.32500000e-009,1.29687502e-003
,,,-6.30000000e-009,1.30312502e-003
,,,-6.27500000e-009,1.29531252e-003
,,,-6.25000000e-009,1.27500002e-003
,,,-6.22500000e-009,1.24375001e-003
,,,-6.20000000e-009,1.20000001e-003
,,,-6.17500000e-009,1.14843751e-003
,,,-6.15000000e-009,1.09218750e-003
,,,-6.12500000e-009,1.03437500e-003
,,,-6.10000000e-009,9.76562495e-004
,,,-6.07500000e-009,9.21874991e-004
,,,-6.05000000e-009,8.73437487e-004
,,,-6.02500000e-009,8.32812484e-004
,,,-6.00000000e-009,7.99999982e-004
,,,-5.97500000e-009,7.79687481e-004
,,,-5.95000000e-009,7.68749980e-004
,,,-5.92500000e-009,7.65624980e-004
,,,-5.90000000e-009,7.68749980e-004
,,,-5.87500000e-009,7.74999980e-004
,,,-5.85000000e-009,7.84374981e-004
,,,-5.82500000e-009,7.93749982e-004
,,,-5.80000000e-009,7.99999982e-004
,,,-5.77500000e-009,8.07812483e-004
,,,-5.75000000e-009,8.10937483e-004
,,,-5.72500000e-009,8.10937483e-004
,,,-5.70000000e-009,8.09374983e-004
,,,-5.67500000e-009,8.06249983e-004
,,,-5.65000000e-009,8.03124982e-004
,,,-5.62500000e-009,8.01562482e-004
,,,-5.60000000e-009,7.99999982e-004
,,,-5.57500000e-009,8.03124982e-004
,,,-5.55000000e-009,8.07812483e-004
,,,-5.52500000e-009,8.12499983e-004
,,,-5.50000000e-009,8.15624983e-004
,,,-5.47500000e-009,8.18749983e-004
,,,-5.45000000e-009,8.17187483e-004
,,,-5.42500000e-009,8.10937483e-004
,,,-5.40000000e-009,7.99999982e-004
,,,-5.37500000e-009,7.90624981e-004
,,,-5.35000000e-009,7.79687481e-004
,,,-5.32500000e-009,7.68749980e-004
,,,-5.30000000e-009,7.59374979e-004
,,,-5.27500000e-009,7.56249979e-004
,,,-5.25000000e-009,7.60937479e-004
,,,-5.22500000e-009,7.74999980e-004
,,,-5.20000000e-009,7.99999982e-004
,,,-5.17500000e-009,8.37499985e-004
,,,-5.15000000e-009,8.84374988e-004
,,,-5.12500000e-009,9.37499992e-004
,,,-5.10000000e-009,9.93749996e-004
,,,-5.07500000e-009,1.05156250e-003
,,,-5.05000000e-009,1.10781250e-003
,,,-5.02500000e-009,1.15781251e-003
,,,-5.00000000e-009,1.20000001e-003
,,,-4.97500000e-009,1.22968751e-003
,,,-4.95000000e-009,1.25000001e-003
,,,-4.92500000e-009,1.25781251e-003
,,,-4.90000000e-009,1.25625001e-003
,,,-4.87500000e-009,1.24843751e-003
,,,-4.85000000e-009,1.23437501e-003
,,,-4.82500000e-009,1.21875001e-003
,,,-4.80000000e-009,1.20000001e-003
,,,-4.77500000e-009,1.18125001e-003
,,,-4.75000000e-009,1.16562501e-003
,,,-4.72500000e-009,1.15625001e-003
,,,-4.70000000e-009,1.15312501e-003
,,,-4.67500000e-009,1.15625001e-003
,,,-4.65000000e-009,1.16562501e-003
,,,-4.62500000e-009,1.18125001e-003
,,,-4.60000000e-009,1.20000001e-003
,,,-4.57500000e-009,1.21875001e-003
,,,-4.55000000e-009,1.23437501e-003
,,,-4.52500000e-009,1.24843751e-003
,,,-4.50000000e-009,1.25625001e-003
,,,-4.47500000e-009,1.25781251e-003
,,,-4.45000000e-009,1.25000001e-003
,,,-4.42500000e-009,1.22968751e-003
,,,-4.40000000e-009,1.20000001e-003
,,,-4.37500000e-009,1.15781251e-003
,,,-4.35000000e-009,1.10781250e-003
,,,-4.32500000e-009,1.05156250e-003
,,,-4.30000000e-009,9.93749996e-004
,,,-4.27500000e-009,9.37499992e-004
,,,-4.25000000e-009,8.84374988e-004
,,,-4.22500000e-009,8.37499985e-004
,,,-4.20000000e-009,7.99999982e-004
,,,-4.17500000e-009,7.73437480e-004
,,,-4.15000000e-009,7.57812479e-004
,,,-4.12500000e-009,7.51562479e-004
,,,-4.10000000e-009,7.53124979e-004
,,,-4.07500000e-009,7.60937479e-004
,,,-4.05000000e-009,7.73437480e-004
,,,-4.02500000e-009,7.87499981e-004
,,,-4.00000000e-009,7.99999982e-004
,,,-3.97500000e-009,8.09374983e-004
,,,-3.95000000e-009,8.14062483e-004
,,,-3.92500000e-009,8.14062483e-004
,,,-3.90000000e-009,8.10937483e-004
,,,-3.87500000e-009,8.07812483e-004
,,,-3.85000000e-009,8.03124982e-004
,,,-3.82500000e-009,7.99999982e-004
,,,-3.80000000e-009,7.99999982e-004
,,,-3.77500000e-009,8.04687482e-004
,,,-3.75000000e-009,8.10937483e-004
,,,-3.72500000e-009,8.17187483e-004
,,,-3.70000000e-009,8.23437484e-004
,,,-3.67500000e-009,8.24999984e-004
,,,-3.65000000e-009,8.21874984e-004
,,,-3.62500000e-009,8.14062483e-004
,,,-3.60000000e-009,7.99999982e-004
,,,-3.57500000e-009,7.85937481e-004
,,,-3.55000000e-009,7.68749980e-004
,,,-3.52500000e-009,7.53124979e-004
,,,-3.50000000e-009,7.42187478e-004
,,,-3.47500000e-009,7.40624978e-004
,,,-3.45000000e-009,7.48437478e-004
,,,-3.42500000e-009,7.68749980e-004
,,,-3.40000000e-009,7.99999982e-004
,,,-3.37500000e-009,8.40624985e-004
,,,-3.35000000e-009,8.82812488e-004
,,,-3.32500000e-009,9.20312491e-004
,,,-3.30000000e-009,9.43749992e-004
,,,-3.27500000e-009,9.49999993e-004
,,,-3.25000000e-009,9.29687491e-004
,,,-3.22500000e-009,8.79687488e-004
,,,-3.20000000e-009,7.99999982e-004
,,,-3.17500000e-009,6.93749975e-004
,,,-3.15000000e-009,5.67187466e-004
,,,-3.12500000e-009,4.32812456e-004
,,,-3.10000000e-009,2.98437447e-004
,,,-3.07500000e-009,1.78124938e-004
,,,-3.05000000e-009,8.28124314e-005
,,,-3.02500000e-009,2.18749270e-005
,,,-3.00000000e-009,-7.45058060e-011
,,,-2.97500000e-009,3.12499277e-005
,,,-2.95000000e-009,1.01562433e-004
,,,-2.92500000e-009,2.03124940e-004
,,,-2.90000000e-009,3.28124949e-004
,,,-2.87500000e-009,4.60937458e-004
,,,-2.85000000e-009,5.90624967e-004
,,,-2.82500000e-009,7.07812476e-004
,,,-2.80000000e-009,7.99999982e-004
,,,-2.77500000e-009,8.65624987e-004
,,,-2.75000000e-009,9.01562489e-004
,,,-2.72500000e-009,9.09374990e-004
,,,-2.70000000e-009,8.96874989e-004
,,,-2.67500000e-009,8.71874987e-004
,,,-2.65000000e-009,8.42187485e-004
,,,-2.62500000e-009,8.17187483e-004
,,,-2.60000000e-009,7.99999982e-004
,,,-2.57500000e-009,7.95312482e-004
,,,-2.55000000e-009,8.01562482e-004
,,,-2.52500000e-009,8.15624983e-004
,,,-2.50000000e-009,8.32812484e-004
,,,-2.47500000e-009,8.46874985e-004
,,,-2.45000000e-009,8.48437486e-004
,,,-2.42500000e-009,8.34374985e-004
,,,-2.40000000e-009,7.99999982e-004
,,,-2.37500000e-009,7.48437478e-004
,,,-2.35000000e-009,6.79687474e-004
,,,-2.32500000e-009,6.03124968e-004
,,,-2.30000000e-009,5.26562463e-004
,,,-2.27500000e-009,4.59374958e-004
,,,-2.25000000e-009,4.10937455e-004
,,,-2.22500000e-009,3.90624953e-004
,,,-2.20000000e-009,3.99999954e-004
,,,-2.17500000e-009,4.45312457e-004
,,,-2.15000000e-009,5.20312462e-004
,,,-2.12500000e-009,6.21874970e-004
,,,-2.10000000e-009,7.40624978e-004
,,,-2.07500000e-009,8.68749987e-004
,,,-2.05000000e-009,9.95312496e-004
,,,-2.02500000e-009,1.10781250e-003
,,,-2.00000000e-009,1.20000001e-003
,,,-1.97500000e-009,1.25468751e-003
,,,-1.95000000e-009,1.27656252e-003
,,,-1.92500000e-009,1.26250001e-003
,,,-1.90000000e-009,1.21562501e-003
,,,-1.87500000e-009,1.14062501e-003
,,,-1.85000000e-009,1.04062500e-003
,,,-1.82500000e-009,9.24999991e-004
,,,-1.80000000e-009,7.99999982e-004
,,,-1.77500000e-009,6.71874973e-004
,,,-1.75000000e-009,5.53124965e-004
,,,-1.72500000e-009,4.53124958e-004
,,,-1.70000000e-009,3.78124952e-004
,,,-1.67500000e-009,3.34374949e-004
,,,-1.65000000e-009,3.23437448e-004
,,,-1.62500000e-009,3.46874950e-004
,,,-1.60000000e-009,3.99999954e-004
,,,-1.57500000e-009,4.71874959e-004
,,,-1.55000000e-009,5.56249965e-004
,,,-1.52500000e-009,6.43749971e-004
,,,-1.50000000e-009,7.23437477e-004
,,,-1.47500000e-009,7.87499981e-004
,,,-1.45000000e-009,8.24999984e-004
,,,-1.42500000e-009,8.29687484e-004
,,,-1.40000000e-009,7.99999982e-004
,,,-1.37500000e-009,7.20312476e-004
,,,-1.35000000e-009,6.09374969e-004
,,,-1.32500000e-009,4.79687459e-004
,,,-1.30000000e-009,3.43749950e-004
,,,-1.27500000e-009,2.17187441e-004
,,,-1.25000000e-009,1.09374933e-004
,,,-1.22500000e-009,3.59374280e-005
,,,-1.20000000e-009,-7.45058060e-011
,,,-1.17500000e-009,-1.09375753e-005
,,,-1.15000000e-009,1.40624265e-005
,,,-1.12500000e-009,6.71874302e-005
,,,-1.10000000e-009,1.40624935e-004
,,,-1.07500000e-009,2.21874941e-004
,,,-1.05000000e-009,2.99999947e-004
,,,-1.02500000e-009,3.62499951e-004
,,,-1.00000000e-009,3.99999954e-004
,,,-9.75000000e-010,3.82812453e-004
,,,-9.50000000e-010,3.24999948e-004
,,,-9.25000000e-010,2.32812442e-004
,,,-9.00000000e-010,1.15624934e-004
,,,-8.75000000e-010,-1.56250756e-005
,,,-8.50000000e-010,-1.51562585e-004
,,,-8.25000000e-010,-2.82812595e-004
,,,-8.00000000e-010,-4.00000103e-004
,,,-7.75000000e-010,-5.25000112e-004
,,,-7.50000000e-010,-6.35937620e-004
,,,-7.25000000e-010,-7.35937627e-004
,,,-7.00000000e-010,-8.25000133e-004
,,,-6.75000000e-010,-9.10937639e-004
,,,-6.50000000e-010,-9.96875145e-004
,,,-6.25000000e-010,-1.09062515e-003
,,,-6.00000000e-010,-1.20000016e-003
,,,-5.75000000e-010,-1.35000017e-003
,,,-5.50000000e-010,-1.52343768e-003
,,,-5.25000000e-010,-1.72031270e-003
,,,-5.00000000e-010,-1.93281271e-003
,,,-4.75000000e-010,-2.15468773e-003
,,,-4.50000000e-010,-2.37812524e-003
,,,-4.25000000e-010,-2.59375026e-003
,,,-4.00000000e-010,-2.80000027e-003
,,,-3.75000000e-010,-3.00000029e-003
,,,-3.50000000e-010,-3.18750030e-003
,,,-3.25000000e-010,-3.35937531e-003
,,,-3.00000000e-010,-3.51562532e-003
,,,-2.75000000e-010,-3.65625033e-003
,,,-2.50000000e-010,-3.78125034e-003
,,,-2.25000000e-010,-3.89375035e-003
,,,-2.00000000e-010,-4.00000036e-003
,,,-1.75000000e-010,-4.10625037e-003
,,,-1.50000000e-010,-4.22187537e-003
,,,-1.25000000e-010,-4.34843788e-003
,,,-1.00000000e-010,-4.48906289e-003
,,,-7.50000000e-011,-4.64687540e-003
,,,-5.00000000e-011,-4.81718792e-003
,,,-2.50000000e-011,-5.00156293e-003
,,,0.00000000e+000,-5.20000044e-003
,,,2.50000000e-011,-5.39531296e-003
,,,5.00000000e-011,-5.60468797e-003
,,,7.50000000e-011,-5.82031299e-003
,,,1.00000000e-010,-6.03593800e-003
,,,1.25000000e-010,-6.24843802e-003
,,,1.50000000e-010,-6.45000053e-003
,,,1.75000000e-010,-6.63437554e-003
,,,2.00000000e-010,-6.80000056e-003
,,,2.25000000e-010,-6.92031306e-003
,,,2.50000000e-010,-7.02656307e-003
,,,2.75000000e-010,-7.12343808e-003
,,,3.00000000e-010,-7.21562559e-003
,,,3.25000000e-010,-7.30625059e-003
,,,3.50000000e-010,-7.39843810e-003
,,,3.75000000e-010,-7.49531311e-003
,,,4.00000000e-010,-7.60000061e-003
,,,4.25000000e-010,-7.67812562e-003
,,,4.50000000e-010,-7.77031312e-003
,,,4.75000000e-010,-7.87187563e-003
,,,5.00000000e-010,-7.98281314e-003
,,,5.25000000e-010,-8.09687565e-003
,,,5.50000000e-010,-8.20781316e-003
,,,5.75000000e-010,-8.30937566e-003
,,,6.00000000e-010,-8.40000067e-003
,,,6.25000000e-010,-8.43437567e-003
,,,6.50000000e-010,-8.45312567e-003
,,,6.75000000e-010,-8.45937567e-003
,,,7.00000000e-010,-8.45625067e-003
,,,7.25000000e-010,-8.44687567e-003
,,,7.50000000e-010,-8.43281317e-003
,,,7.75000000e-010,-8.41562567e-003
,,,8.00000000e-010,-8.40000067e-003
,,,8.25000000e-010,-8.34687567e-003
,,,8.50000000e-010,-8.29843816e-003
,,,8.75000000e-010,-8.25156316e-003
,,,9.00000000e-010,-8.20625066e-003
,,,9.25000000e-010,-8.16250065e-003
,,,9.50000000e-010,-8.11406315e-003
,,,9.75000000e-010,-8.06093815e-003
,,,1.00000000e-009,-8.00000064e-003
,,,1.02500000e-009,-7.89687563e-003
,,,1.05000000e-009,-7.78906313e-003
,,,1.07500000e-009,-7.67656312e-003
,,,1.10000000e-009,-7.56562561e-003
,,,1.12500000e-009,-7.46093810e-003
,,,1.15000000e-009,-7.36406310e-003
,,,1.17500000e-009,-7.27656309e-003
,,,1.20000000e-009,-7.20000058e-003
,,,1.22500000e-009,-7.10781308e-003
,,,1.25000000e-009,-7.02031307e-003
,,,1.27500000e-009,-6.93437557e-003
,,,1.30000000e-009,-6.84531306e-003
,,,1.32500000e-009,-6.75000055e-003
,,,1.35000000e-009,-6.64531304e-003
,,,1.37500000e-009,-6.52968804e-003
,,,1.40000000e-009,-6.40000053e-003
,,,1.42500000e-009,-6.24062552e-003
,,,1.45000000e-009,-6.07187550e-003
,,,1.47500000e-009,-5.89531299e-003
,,,1.50000000e-009,-5.72187548e-003
,,,1.52500000e-009,-5.55937547e-003
,,,1.55000000e-009,-5.41406296e-003
,,,1.57500000e-009,-5.29375045e-003
,,,1.60000000e-009,-5.20000044e-003
,,,1.62500000e-009,-5.12968794e-003
,,,1.65000000e-009,-5.07812543e-003
,,,1.67500000e-009,-5.03906293e-003
,,,1.70000000e-009,-5.00625043e-003
,,,1.72500000e-009,-4.97187543e-003
,,,1.75000000e-009,-4.93125042e-003
,,,1.77500000e-009,-4.87500042e-003
,,,1.80000000e-009,-4.80000041e-003
,,,1.82500000e-009,-4.69843791e-003
,,,1.85000000e-009,-4.57187540e-003
,,,1.87500000e-009,-4.42031289e-003
,,,1.90000000e-009,-4.25468788e-003
,,,1.92500000e-009,-4.07968786e-003
,,,1.95000000e-009,-3.90781285e-003
,,,1.97500000e-009,-3.74531284e-003
,,,2.00000000e-009,-3.60000033e-003
,,,2.02500000e-009,-3.47812532e-003
,,,2.05000000e-009,-3.36875031e-003
,,,2.07500000e-009,-3.27187531e-003
,,,2.10000000e-009,-3.18125030e-003
,,,2.12500000e-009,-3.09218779e-003
,,,2.15000000e-009,-3.00156279e-003
,,,2.17500000e-009,-2.90468778e-003
,,,2.20000000e-009,-2.80000027e-003
,,,2.22500000e-009,-2.69218777e-003
,,,2.25000000e-009,-2.57343776e-003
,,,2.27500000e-009,-2.45000025e-003
,,,2.30000000e-009,-2.32656274e-003
,,,2.32500000e-009,-2.21250023e-003
,,,2.35000000e-009,-2.11562522e-003
,,,2.37500000e-009,-2.04375022e-003
,,,2.40000000e-009,-2.00000022e-003
,,,2.42500000e-009,-1.99375022e-003
,,,2.45000000e-009,-2.00625022e-003
,,,2.47500000e-009,-2.02812522e-003
,,,2.50000000e-009,-2.05312522e-003
,,,2.52500000e-009,-2.06875022e-003
,,,2.55000000e-009,-2.06875022e-003
,,,2.57500000e-009,-2.04687522e-003
,,,2.60000000e-009,-2.00000022e-003
,,,2.62500000e-009,-1.92812521e-003
,,,2.65000000e-009,-1.82812520e-003
,,,2.67500000e-009,-1.70937520e-003
,,,2.70000000e-009,-1.58125019e-003
,,,2.72500000e-009,-1.45468768e-003
,,,2.75000000e-009,-1.34375017e-003
,,,2.77500000e-009,-1.25625016e-003
,,,2.80000000e-009,-1.20000016e-003
,,,2.82500000e-009,-1.18281266e-003
,,,2.85000000e-009,-1.18750016e-003
,,,2.87500000e-009,-1.20937516e-003
,,,2.90000000e-009,-1.23750016e-003
,,,2.92500000e-009,-1.25781266e-003
,,,2.95000000e-009,-1.26406266e-003
,,,2.97500000e-009,-1.24687516e-003
,,,3.00000000e-009,-1.20000016e-003
,,,3.02500000e-009,-1.12343765e-003
,,,3.05000000e-009,-1.01875015e-003
,,,3.07500000e-009,-8.92187638e-004
,,,3.10000000e-009,-7.57812628e-004
,,,3.12500000e-009,-6.29687619e-004
,,,3.15000000e-009,-5.18750111e-004
,,,3.17500000e-009,-4.40625106e-004
,,,3.20000000e-009,-4.00000103e-004
,,,3.22500000e-009,-4.04687603e-004
,,,3.25000000e-009,-4.45312606e-004
,,,3.27500000e-009,-5.10937611e-004
,,,3.30000000e-009,-5.90625116e-004
,,,3.32500000e-009,-6.71875122e-004
,,,3.35000000e-009,-7.42187627e-004
,,,3.37500000e-009,-7.87500130e-004
,,,3.40000000e-009,-8.00000131e-004
,,,3.42500000e-009,-7.70312629e-004
,,,3.45000000e-009,-7.03125124e-004
,,,3.47500000e-009,-6.01562617e-004
,,,3.50000000e-009,-4.78125108e-004
,,,3.52500000e-009,-3.43750099e-004
,,,3.55000000e-009,-2.10937589e-004
,,,3.57500000e-009,-9.21875810e-005
,,,3.60000000e-009,-7.45058060e-011
,,,3.62500000e-009,5.62499295e-005
,,,3.65000000e-009,8.28124314e-005
,,,3.67500000e-009,8.43749315e-005
,,,3.70000000e-009,6.71874302e-005
,,,3.72500000e-009,4.21874285e-005
,,,3.75000000e-009,1.71874267e-005
,,,3.77500000e-009,-7.45058060e-011
,,,3.80000000e-009,-7.45058060e-011
,,,3.82500000e-009,1.71874267e-005
,,,3.85000000e-009,5.62499295e-005
,,,3.87500000e-009,1.10937433e-004
,,,3.90000000e-009,1.78124938e-004
,,,3.92500000e-009,2.48437443e-004
,,,3.95000000e-009,3.14062448e-004
,,,3.97500000e-009,3.65624951e-004
,,,4.00000000e-009,3.99999954e-004
,,,4.02500000e-009,4.07812454e-004
,,,4.05000000e-009,3.99999954e-004
,,,4.07500000e-009,3.81249952e-004
,,,4.10000000e-009,3.60937451e-004
,,,4.12500000e-009,3.45312450e-004
,,,4.15000000e-009,3.43749950e-004
,,,4.17500000e-009,3.60937451e-004
,,,4.20000000e-009,3.99999954e-004
,,,4.22500000e-009,4.57812458e-004
,,,4.25000000e-009,5.32812463e-004
,,,4.27500000e-009,6.15624969e-004
,,,4.30000000e-009,6.98437475e-004
,,,4.32500000e-009,7.67187480e-004
,,,4.35000000e-009,8.12499983e-004
,,,4.37500000e-009,8.24999984e-004
,,,4.40000000e-009,7.99999982e-004
,,,4.42500000e-009,7.31249977e-004
,,,4.45000000e-009,6.29687470e-004
,,,4.47500000e-009,5.07812461e-004
,,,4.50000000e-009,3.76562452e-004
,,,4.52500000e-009,2.48437443e-004
,,,4.55000000e-009,1.35937435e-004
,,,4.57500000e-009,5.15624291e-005
,,,4.60000000e-009,-7.45058060e-011
,,,4.62500000e-009,-9.37507517e-006
,,,4.65000000e-009,1.56249266e-005
,,,4.67500000e-009,7.18749306e-005
,,,4.70000000e-009,1.46874936e-004
,,,4.72500000e-009,2.28124942e-004
,,,4.75000000e-009,3.04687447e-004
,,,4.77500000e-009,3.65624951e-004
,,,4.80000000e-009,3.99999954e-004
,,,4.82500000e-009,4.04687454e-004
,,,4.85000000e-009,3.78124952e-004
,,,4.87500000e-009,3.26562449e-004
,,,4.90000000e-009,2.57812444e-004
,,,4.92500000e-009,1.79687438e-004
,,,4.95000000e-009,1.04687433e-004
,,,4.97500000e-009,4.21874285e-005
,,,5.00000000e-009,-7.45058060e-011
,,,5.02500000e-009,-9.37507517e-006
,,,5.05000000e-009,7.81242605e-006
,,,5.07500000e-009,4.99999290e-005
,,,5.10000000e-009,1.12499933e-004
,,,5.12500000e-009,1.85937439e-004
,,,5.15000000e-009,2.64062444e-004
,,,5.17500000e-009,3.37499949e-004
,,,5.20000000e-009,3.99999954e-004
,,,5.22500000e-009,4.46874957e-004
,,,5.25000000e-009,4.74999959e-004
,,,5.27500000e-009,4.84374960e-004
,,,5.30000000e-009,4.79687459e-004
,,,5.32500000e-009,4.64062458e-004
,,,5.35000000e-009,4.42187457e-004
,,,5.37500000e-009,4.18749955e-004
,,,5.40000000e-009,3.99999954e-004
,,,5.42500000e-009,3.92187453e-004
,,,5.45000000e-009,3.90624953e-004
,,,5.47500000e-009,3.93749953e-004
,,,5.50000000e-009,3.99999954e-004
,,,5.52500000e-009,4.07812454e-004
,,,5.55000000e-009,4.10937455e-004
,,,5.57500000e-009,4.09374954e-004
,,,5.60000000e-009,3.99999954e-004
,,,5.62500000e-009,3.85937453e-004
,,,5.65000000e-009,3.67187451e-004
,,,5.67500000e-009,3.49999950e-004
,,,5.70000000e-009,3.35937449e-004
,,,5.72500000e-009,3.31249949e-004
,,,5.75000000e-009,3.39062449e-004
,,,5.77500000e-009,3.60937451e-004
,,,5.80000000e-009,3.99999954e-004
,,,5.82500000e-009,4.56249958e-004
,,,5.85000000e-009,5.23437463e-004
,,,5.87500000e-009,5.95312468e-004
,,,5.90000000e-009,6.65624973e-004
,,,5.92500000e-009,7.28124977e-004
,,,5.95000000e-009,7.73437480e-004
,,,5.97500000e-009,7.98437482e-004
,,,6.00000000e-009,7.99999982e-004
,,,6.02500000e-009,7.74999980e-004
,,,6.05000000e-009,7.29687477e-004
