RawData/DifferentLengths/R3/R3_2pt2B_5mV/wave000_Ch2.csv

"Record Length",1000,"Points",-7.72500000e-009,5.54687539e-005
"Sample Interval",2.50000000e-011,s,-7.70000000e-009,5.31250038e-005
"Trigger Point",309,"Samples",-7.67500000e-009,4.29687530e-005
"Trigger Time",2.40200000e-011,s,-7.65000000e-009,2.50000018e-005
"",,,-7.62500000e-009,0.00000000e+000
"Horizontal Offset",-7.72500000e-009,s,-7.60000000e-009,-2.89062520e-005
,,,-7.57500000e-009,-6.17187544e-005
,,,-7.55000000e-009,-9.53125067e-005
,,,-7.52500000e-009,-1.27343759e-004
,,,-7.50000000e-009,-1.56250011e-004
,,,-7.47500000e-009,-1.78906263e-004
,,,-7.45000000e-009,-1.93750014e-004
,,,-7.42500000e-009,-2.00000014e-004
,,,-7.40000000e-009,-1.92968764e-004
,,,-7.37500000e-009,-1.77343763e-004
,,,-7.35000000e-009,-1.53906261e-004
,,,-7.32500000e-009,-1.24218759e-004
,,,-7.30000000e-009,-9.14062565e-005
,,,-7.27500000e-009,-5.85937541e-005
,,,-7.25000000e-009,-2.73437519e-005
,,,-7.22500000e-009,0.00000000e+000
,,,-7.20000000e-009,2.34375017e-005
,,,-7.17500000e-009,4.06250029e-005
,,,-7.15000000e-009,5.00000035e-005
,,,-7.12500000e-009,5.07812536e-005
,,,-7.10000000e-009,4.53125032e-005
,,,-7.07500000e-009,3.35937524e-005
,,,-7.05000000e-009,1.79687513e-005
,,,-7.02500000e-009,0.00000000e+000
,,,-7.00000000e-009,-1.56250011e-005
,,,-6.97500000e-009,-2.96875021e-005
,,,-6.95000000e-009,-3.90625028e-005
,,,-6.92500000e-009,-4.37500031e-005
,,,-6.90000000e-009,-4.21875030e-005
,,,-6.87500000e-009,-3.43750024e-005
,,,-6.85000000e-009,-2.03125014e-005
,,,-6.82500000e-009,0.00000000e+000
,,,-6.80000000e-009,2.65625019e-005
,,,-6.77500000e-009,5.70312540e-005
,,,-6.75000000e-009,8.82812562e-005
,,,-6.72500000e-009,1.19531258e-004
,,,-6.70000000e-009,1.46875010e-004
,,,-6.67500000e-009,1.70312512e-004
,,,-6.65000000e-009,1.88281263e-004
,,,-6.62500000e-009,2.00000014e-004
,,,-6.60000000e-009,2.03125014e-004
,,,-6.57500000e-009,2.00781264e-004
,,,-6.55000000e-009,1.95312514e-004
,,,-6.52500000e-009,1.89062513e-004
,,,-6.50000000e-009,1.84375013e-004
,,,-6.47500000e-009,1.83593763e-004
,,,-6.45000000e-009,1.88281263e-004
,,,-6.42500000e-009,2.00000014e-004
,,,-6.40000000e-009,2.15625015e-004
,,,-6.37500000e-009,2.38281267e-004
,,,-6.35000000e-009,2.65625019e-004
,,,-6.32500000e-009,2.96093771e-004
,,,-6.30000000e-009,3.27343773e-004
,,,-6.27500000e-009,3.56250025e-004
,,,-6.25000000e-009,3.80468777e-004
,,,-6.22500000e-009,4.00000028e-004
,,,-6.20000000e-009,4.07031279e-004
,,,-6.17500000e-009,4.08593779e-004
,,,-6.15000000e-009,4.05468779e-004
,,,-6.12500000e-009,4.00000028e-004
,,,-6.10000000e-009,3.94531278e-004
,,,-6.07500000e-009,3.92187528e-004
,,,-6.05000000e-009,3.92968778e-004
,,,-6.02500000e-009,4.00000028e-004
,,,-6.00000000e-009,4.06250029e-004
,,,-5.97500000e-009,4.15625029e-004
,,,-5.95000000e-009,4.26562530e-004
,,,-5.92500000e-009,4.35937531e-004
,,,-5.90000000e-009,4.40625031e-004
,,,-5.87500000e-009,4.37500031e-004
,,,-5.85000000e-009,4.24218780e-004
,,,-5.82500000e-009,4.00000028e-004
,,,-5.80000000e-009,3.60156275e-004
,,,-5.77500000e-009,3.10937522e-004
,,,-5.75000000e-009,2.54687518e-004
,,,-5.72500000e-009,1.95312514e-004
,,,-5.70000000e-009,1.36718760e-004
,,,-5.67500000e-009,8.20312558e-005
,,,-5.65000000e-009,3.59375025e-005
,,,-5.62500000e-009,0.00000000e+000
,,,-5.60000000e-009,-2.34375017e-005
,,,-5.57500000e-009,-3.51562525e-005
,,,-5.55000000e-009,-3.67187526e-005
,,,-5.52500000e-009,-3.12500022e-005
,,,-5.50000000e-009,-2.10937515e-005
,,,-5.47500000e-009,-1.01562507e-005
,,,-5.45000000e-009,-2.34375017e-006
,,,-5.42500000e-009,0.00000000e+000
,,,-5.40000000e-009,-3.12500022e-006
,,,-5.37500000e-009,-1.56250011e-005
,,,-5.35000000e-009,-3.59375025e-005
,,,-5.32500000e-009,-6.32812545e-005
,,,-5.30000000e-009,-9.60937568e-005
,,,-5.27500000e-009,-1.31250009e-004
,,,-5.25000000e-009,-1.66406262e-004
,,,-5.22500000e-009,-2.00000014e-004
,,,-5.20000000e-009,-2.24218766e-004
,,,-5.17500000e-009,-2.42187517e-004
,,,-5.15000000e-009,-2.53125018e-004
,,,-5.12500000e-009,-2.55468768e-004
,,,-5.10000000e-009,-2.51562518e-004
,,,-5.07500000e-009,-2.39843767e-004
,,,-5.05000000e-009,-2.22656266e-004
,,,-5.02500000e-009,-2.00000014e-004
,,,-5.00000000e-009,-1.70312512e-004
,,,-4.97500000e-009,-1.39843760e-004
,,,-4.95000000e-009,-1.09375008e-004
,,,-4.92500000e-009,-8.04687557e-005
,,,-4.90000000e-009,-5.46875039e-005
,,,-4.87500000e-009,-3.20312523e-005
,,,-4.85000000e-009,-1.40625010e-005
,,,-4.82500000e-009,0.00000000e+000
,,,-4.80000000e-009,1.09375008e-005
,,,-4.77500000e-009,1.79687513e-005
,,,-4.75000000e-009,2.03125014e-005
,,,-4.72500000e-009,1.95312514e-005
,,,-4.70000000e-009,1.56250011e-005
,,,-4.67500000e-009,1.09375008e-005
,,,-4.65000000e-009,4.68750033e-006
,,,-4.62500000e-009,0.00000000e+000
,,,-4.60000000e-009,-3.90625028e-006
,,,-4.57500000e-009,-7.03125050e-006
,,,-4.55000000e-009,-8.59375061e-006
,,,-4.52500000e-009,-8.59375061e-006
,,,-4.50000000e-009,-7.03125050e-006
,,,-4.47500000e-009,-4.68750033e-006
,,,-4.45000000e-009,-2.34375017e-006
,,,-4.42500000e-009,0.00000000e+000
,,,-4.40000000e-009,1.56250011e-006
,,,-4.37500000e-009,3.12500022e-006
,,,-4.35000000e-009,3.90625028e-006
,,,-4.32500000e-009,3.90625028e-006
,,,-4.30000000e-009,3.12500022e-006
,,,-4.27500000e-009,2.34375017e-006
,,,-4.25000000e-009,7.81250055e-007
,,,-4.22500000e-009,0.00000000e+000
,,,-4.20000000e-009,-1.56250011e-006
,,,-4.17500000e-009,-2.34375017e-006
,,,-4.15000000e-009,-3.12500022e-006
,,,-4.12500000e-009,-3.12500022e-006
,,,-4.10000000e-009,-2.34375017e-006
,,,-4.07500000e-009,-1.56250011e-006
,,,-4.05000000e-009,-7.81250055e-007
,,,-4.02500000e-009,0.00000000e+000
,,,-4.00000000e-009,0.00000000e+000
,,,-3.97500000e-009,0.00000000e+000
,,,-3.95000000e-009,0.00000000e+000
,,,-3.92500000e-009,0.00000000e+000
,,,-3.90000000e-009,0.00000000e+000
,,,-3.87500000e-009,0.00000000e+000
,,,-3.85000000e-009,0.00000000e+000
,,,-3.82500000e-009,0.00000000e+000
,,,-3.80000000e-009,0.00000000e+000
,,,-3.77500000e-009,0.00000000e+000
,,,-3.75000000e-009,0.00000000e+000
,,,-3.72500000e-009,0.00000000e+000
,,,-3.70000000e-009,0.00000000e+000
,,,-3.67500000e-009,0.00000000e+000
,,,-3.65000000e-009,0.00000000e+000
,,,-3.62500000e-009,0.00000000e+000
,,,-3.60000000e-009,0.00000000e+000
,,,-3.57500000e-009,0.00000000e+000
,,,-3.55000000e-009,0.00000000e+000
,,,-3.52500000e-009,0.00000000e+000
,,,-3.50000000e-009,0.00000000e+000
,,,-3.47500000e-009,0.00000000e+000
,,,-3.45000000e-009,0.00000000e+000
,,,-3.42500000e-009,0.00000000e+000
,,,-3.40000000e-009,0.00000000e+000
,,,-3.37500000e-009,0.00000000e+000
,,,-3.35000000e-009,0.00000000e+000
,,,-3.32500000e-009,0.00000000e+000
,,,-3.30000000e-009,0.00000000e+000
,,,-3.27500000e-009,0.00000000e+000
,,,-3.25000000e-009,0.00000000e+000
,,,-3.22500000e-009,0.00000000e+000
,,,-3.20000000e-009,7.81250055e-007
,,,-3.17500000e-009,1.56250011e-006
,,,-3.15000000e-009,2.34375017e-006
,,,-3.12500000e-009,3.12500022e-006
,,,-3.10000000e-009,3.12500022e-006
,,,-3.07500000e-009,2.34375017e-006
,,,-3.05000000e-009,1.56250011e-006
,,,-3.02500000e-009,0.00000000e+000
,,,-3.00000000e-009,-7.81250055e-007
,,,-2.97500000e-009,-2.34375017e-006
,,,-2.95000000e-009,-3.12500022e-006
,,,-2.92500000e-009,-3.90625028e-006
,,,-2.90000000e-009,-3.90625028e-006
,,,-2.87500000e-009,-3.12500022e-006
,,,-2.85000000e-009,-1.56250011e-006
,,,-2.82500000e-009,0.00000000e+000
,,,-2.80000000e-009,1.56250011e-006
,,,-2.77500000e-009,3.12500022e-006
,,,-2.75000000e-009,3.90625028e-006
,,,-2.72500000e-009,4.68750033e-006
,,,-2.70000000e-009,4.68750033e-006
,,,-2.67500000e-009,3.90625028e-006
,,,-2.65000000e-009,2.34375017e-006
,,,-2.62500000e-009,0.00000000e+000
,,,-2.60000000e-009,-4.68750033e-006
,,,-2.57500000e-009,-1.01562507e-005
,,,-2.55000000e-009,-1.48437511e-005
,,,-2.52500000e-009,-1.87500013e-005
,,,-2.50000000e-009,-1.95312514e-005
,,,-2.47500000e-009,-1.71875012e-005
,,,-2.45000000e-009,-1.09375008e-005
,,,-2.42500000e-009,0.00000000e+000
,,,-2.40000000e-009,1.09375008e-005
,,,-2.37500000e-009,2.57812518e-005
,,,-2.35000000e-009,4.53125032e-005
,,,-2.32500000e-009,6.95312549e-005
,,,-2.30000000e-009,9.76562569e-005
,,,-2.27500000e-009,1.29687509e-004
,,,-2.25000000e-009,1.64062512e-004
,,,-2.22500000e-009,2.00000014e-004
,,,-2.20000000e-009,2.25000016e-004
,,,-2.17500000e-009,2.45312517e-004
,,,-2.15000000e-009,2.58593768e-004
,,,-2.12500000e-009,2.64843769e-004
,,,-2.10000000e-009,2.62500019e-004
,,,-2.07500000e-009,2.50781268e-004
,,,-2.05000000e-009,2.29687516e-004
,,,-2.02500000e-009,2.00000014e-004
,,,-2.00000000e-009,1.50781261e-004
,,,-1.97500000e-009,9.53125067e-005
,,,-1.95000000e-009,3.59375025e-005
,,,-1.92500000e-009,-2.18750015e-005
,,,-1.90000000e-009,-7.81250055e-005
,,,-1.87500000e-009,-1.27343759e-004
,,,-1.85000000e-009,-1.67968762e-004
,,,-1.82500000e-009,-2.00000014e-004
,,,-1.80000000e-009,-2.29687516e-004
,,,-1.77500000e-009,-2.53906268e-004
,,,-1.75000000e-009,-2.72656269e-004
,,,-1.72500000e-009,-2.90625021e-004
,,,-1.70000000e-009,-3.09375022e-004
,,,-1.67500000e-009,-3.32031274e-004
,,,-1.65000000e-009,-3.60937526e-004
,,,-1.62500000e-009,-4.00000028e-004
,,,-1.60000000e-009,-4.57812532e-004
,,,-1.57500000e-009,-5.27343787e-004
,,,-1.55000000e-009,-6.05468793e-004
,,,-1.52500000e-009,-6.88281299e-004
,,,-1.50000000e-009,-7.73437555e-004
,,,-1.47500000e-009,-8.55468811e-004
,,,-1.45000000e-009,-9.31250066e-004
,,,-1.42500000e-009,-1.00000007e-003
,,,-1.40000000e-009,-1.06640633e-003
,,,-1.37500000e-009,-1.12656258e-003
,,,-1.35000000e-009,-1.18046883e-003
,,,-1.32500000e-009,-1.22890634e-003
,,,-1.30000000e-009,-1.27265634e-003
,,,-1.27500000e-009,-1.31484384e-003
,,,-1.25000000e-009,-1.35703135e-003
,,,-1.22500000e-009,-1.40000010e-003
,,,-1.20000000e-009,-1.45078135e-003
,,,-1.17500000e-009,-1.50781261e-003
,,,-1.15000000e-009,-1.56718761e-003
,,,-1.12500000e-009,-1.62578137e-003
,,,-1.10000000e-009,-1.68203137e-003
,,,-1.07500000e-009,-1.73125012e-003
,,,-1.05000000e-009,-1.77031263e-003
,,,-1.02500000e-009,-1.80000013e-003
,,,-1.00000000e-009,-1.82578138e-003
,,,-9.75000000e-010,-1.84843763e-003
,,,-9.50000000e-010,-1.86718763e-003
,,,-9.25000000e-010,-1.88593763e-003
,,,-9.00000000e-010,-1.90625013e-003
,,,-8.75000000e-010,-1.93046889e-003
,,,-8.50000000e-010,-1.96015639e-003
,,,-8.25000000e-010,-2.00000014e-003
,,,-8.00000000e-010,-2.06015640e-003
,,,-7.75000000e-010,-2.13671890e-003
,,,-7.50000000e-010,-2.22812516e-003
,,,-7.25000000e-010,-2.33125017e-003
,,,-7.00000000e-010,-2.44453142e-003
,,,-6.75000000e-010,-2.56171893e-003
,,,-6.50000000e-010,-2.68125019e-003
,,,-6.25000000e-010,-2.80000020e-003
,,,-6.00000000e-010,-2.91640646e-003
,,,-5.75000000e-010,-3.03046896e-003
,,,-5.50000000e-010,-3.14062522e-003
,,,-5.25000000e-010,-3.24531273e-003
,,,-5.00000000e-010,-3.34375024e-003
,,,-4.75000000e-010,-3.43515649e-003
,,,-4.50000000e-010,-3.52031275e-003
,,,-4.25000000e-010,-3.60000025e-003
,,,-4.00000000e-010,-3.67265651e-003
,,,-3.75000000e-010,-3.74531277e-003
,,,-3.50000000e-010,-3.81875027e-003
,,,-3.25000000e-010,-3.89296903e-003
,,,-3.00000000e-010,-3.96796903e-003
,,,-2.75000000e-010,-4.04375029e-003
,,,-2.50000000e-010,-4.12109404e-003
,,,-2.25000000e-010,-4.20000030e-003
,,,-2.00000000e-010,-4.27500030e-003
,,,-1.75000000e-010,-4.35781281e-003
,,,-1.50000000e-010,-4.44765656e-003
,,,-1.25000000e-010,-4.54531282e-003
,,,-1.00000000e-010,-4.65078158e-003
,,,-7.50000000e-011,-4.76328159e-003
,,,-5.00000000e-011,-4.88046910e-003
,,,-2.50000000e-011,-5.00000035e-003
,,,0.00000000e+000,-5.10390661e-003
,,,2.50000000e-011,-5.20625037e-003
,,,5.00000000e-011,-5.30390663e-003
,,,7.50000000e-011,-5.39218788e-003
,,,1.00000000e-010,-5.46875039e-003
,,,1.25000000e-010,-5.53046914e-003
,,,1.50000000e-010,-5.57421914e-003
,,,1.75000000e-010,-5.60000040e-003
,,,2.00000000e-010,-5.58671915e-003
,,,2.25000000e-010,-5.56171914e-003
,,,2.50000000e-010,-5.52890664e-003
,,,2.75000000e-010,-5.49218789e-003
,,,3.00000000e-010,-5.45781289e-003
,,,3.25000000e-010,-5.42812538e-003
,,,3.50000000e-010,-5.40859413e-003
,,,3.75000000e-010,-5.40000038e-003
,,,4.00000000e-010,-5.38593788e-003
,,,4.25000000e-010,-5.38750038e-003
,,,4.50000000e-010,-5.40390663e-003
,,,4.75000000e-010,-5.43281288e-003
,,,5.00000000e-010,-5.47109414e-003
,,,5.25000000e-010,-5.51406289e-003
,,,5.50000000e-010,-5.55859414e-003
,,,5.75000000e-010,-5.60000040e-003
,,,6.00000000e-010,-5.61171915e-003
,,,6.25000000e-010,-5.61328165e-003
,,,6.50000000e-010,-5.60312540e-003
,,,6.75000000e-010,-5.58125040e-003
,,,7.00000000e-010,-5.54921914e-003
,,,7.25000000e-010,-5.50703164e-003
,,,7.50000000e-010,-5.45703164e-003
,,,7.75000000e-010,-5.40000038e-003
,,,8.00000000e-010,-5.31875038e-003
,,,8.25000000e-010,-5.23437537e-003
,,,8.50000000e-010,-5.14921911e-003
,,,8.75000000e-010,-5.06796911e-003
,,,9.00000000e-010,-4.99062535e-003
,,,9.25000000e-010,-4.91953160e-003
,,,9.50000000e-010,-4.85625034e-003
,,,9.75000000e-010,-4.80000034e-003
,,,1.00000000e-009,-4.73593784e-003
,,,1.02500000e-009,-4.67578158e-003
,,,1.05000000e-009,-4.62109408e-003
,,,1.07500000e-009,-4.57031282e-003
,,,1.10000000e-009,-4.52343782e-003
,,,1.12500000e-009,-4.48046907e-003
,,,1.15000000e-009,-4.43984406e-003
,,,1.17500000e-009,-4.40000031e-003
,,,1.20000000e-009,-4.34843781e-003
,,,1.22500000e-009,-4.29062530e-003
,,,1.25000000e-009,-4.22578155e-003
,,,1.27500000e-009,-4.15312529e-003
,,,1.30000000e-009,-4.07343779e-003
,,,1.32500000e-009,-3.98750028e-003
,,,1.35000000e-009,-3.89609403e-003
,,,1.37500000e-009,-3.80000027e-003
,,,1.40000000e-009,-3.69140651e-003
,,,1.42500000e-009,-3.57968775e-003
,,,1.45000000e-009,-3.46718775e-003
,,,1.47500000e-009,-3.35703149e-003
,,,1.50000000e-009,-3.25312523e-003
,,,1.52500000e-009,-3.15781272e-003
,,,1.55000000e-009,-3.07343772e-003
,,,1.57500000e-009,-3.00000021e-003
,,,1.60000000e-009,-2.93437521e-003
,,,1.62500000e-009,-2.87187520e-003
,,,1.65000000e-009,-2.80859395e-003
,,,1.67500000e-009,-2.74218769e-003
,,,1.70000000e-009,-2.67031269e-003
,,,1.72500000e-009,-2.58906268e-003
,,,1.75000000e-009,-2.49921893e-003
,,,1.77500000e-009,-2.40000017e-003
,,,1.80000000e-009,-2.29296891e-003
,,,1.82500000e-009,-2.17734390e-003
,,,1.85000000e-009,-2.05781265e-003
,,,1.87500000e-009,-1.93906264e-003
,,,1.90000000e-009,-1.82890638e-003
,,,1.92500000e-009,-1.73281262e-003
,,,1.95000000e-009,-1.65546887e-003
,,,1.97500000e-009,-1.60000011e-003
,,,2.00000000e-009,-1.57109386e-003
,,,2.02500000e-009,-1.55546886e-003
,,,2.05000000e-009,-1.54765636e-003
,,,2.07500000e-009,-1.54062511e-003
,,,2.10000000e-009,-1.52812511e-003
,,,2.12500000e-009,-1.50312511e-003
,,,2.15000000e-009,-1.46093760e-003
,,,2.17500000e-009,-1.40000010e-003
,,,2.20000000e-009,-1.32500009e-003
,,,2.22500000e-009,-1.22890634e-003
,,,2.25000000e-009,-1.11718758e-003
,,,2.27500000e-009,-9.96093821e-004
,,,2.30000000e-009,-8.76562562e-004
,,,2.32500000e-009,-7.64843804e-004
,,,2.35000000e-009,-6.71093798e-004
,,,2.37500000e-009,-6.00000042e-004
,,,2.40000000e-009,-5.64062540e-004
,,,2.42500000e-009,-5.50000039e-004
,,,2.45000000e-009,-5.52343789e-004
,,,2.47500000e-009,-5.65625040e-004
,,,2.50000000e-009,-5.83593791e-004
,,,2.52500000e-009,-5.99218792e-004
,,,2.55000000e-009,-6.06250043e-004
,,,2.57500000e-009,-6.00000042e-004
,,,2.60000000e-009,-5.84375041e-004
,,,2.62500000e-009,-5.50781289e-004
,,,2.65000000e-009,-5.00000035e-004
,,,2.67500000e-009,-4.37500031e-004
,,,2.70000000e-009,-3.69531276e-004
,,,2.72500000e-009,-3.02343771e-004
,,,2.75000000e-009,-2.43750017e-004
,,,2.77500000e-009,-2.00000014e-004
,,,2.80000000e-009,-1.82031263e-004
,,,2.82500000e-009,-1.81250013e-004
,,,2.85000000e-009,-1.96875014e-004
,,,2.87500000e-009,-2.26562516e-004
,,,2.90000000e-009,-2.65625019e-004
,,,2.92500000e-009,-3.10156272e-004
,,,2.95000000e-009,-3.56250025e-004
,,,2.97500000e-009,-4.00000028e-004
,,,3.00000000e-009,-4.39062531e-004
,,,3.02500000e-009,-4.67187533e-004
,,,3.05000000e-009,-4.82812534e-004
,,,3.07500000e-009,-4.85156284e-004
,,,3.10000000e-009,-4.75781284e-004
,,,3.12500000e-009,-4.57031282e-004
,,,3.15000000e-009,-4.30468780e-004
,,,3.17500000e-009,-4.00000028e-004
,,,3.20000000e-009,-3.69531276e-004
,,,3.22500000e-009,-3.38281274e-004
,,,3.25000000e-009,-3.07812522e-004
,,,3.27500000e-009,-2.78906270e-004
,,,3.30000000e-009,-2.53125018e-004
,,,3.32500000e-009,-2.31250016e-004
,,,3.35000000e-009,-2.13281265e-004
,,,3.37500000e-009,-2.00000014e-004
,,,3.40000000e-009,-1.92968764e-004
,,,3.42500000e-009,-1.89062513e-004
,,,3.45000000e-009,-1.89062513e-004
,,,3.47500000e-009,-1.89843763e-004
,,,3.50000000e-009,-1.92968764e-004
,,,3.52500000e-009,-1.95312514e-004
,,,3.55000000e-009,-1.97656264e-004
,,,3.57500000e-009,-2.00000014e-004
,,,3.60000000e-009,-2.01562514e-004
,,,3.62500000e-009,-2.02343764e-004
,,,3.65000000e-009,-2.02343764e-004
,,,3.67500000e-009,-2.00781264e-004
,,,3.70000000e-009,-1.99218764e-004
,,,3.72500000e-009,-1.98437514e-004
,,,3.75000000e-009,-1.98437514e-004
,,,3.77500000e-009,-2.00000014e-004
,,,3.80000000e-009,-2.03125014e-004
,,,3.82500000e-009,-2.07812515e-004
,,,3.85000000e-009,-2.11718765e-004
,,,3.87500000e-009,-2.14843765e-004
,,,3.90000000e-009,-2.16406265e-004
,,,3.92500000e-009,-2.14062515e-004
,,,3.95000000e-009,-2.08593765e-004
,,,3.97500000e-009,-2.00000014e-004
,,,4.00000000e-009,-1.90625013e-004
,,,4.02500000e-009,-1.81250013e-004
,,,4.05000000e-009,-1.72656262e-004
,,,4.07500000e-009,-1.66406262e-004
,,,4.10000000e-009,-1.64843762e-004
,,,4.12500000e-009,-1.68750012e-004
,,,4.15000000e-009,-1.80468763e-004
,,,4.17500000e-009,-2.00000014e-004
,,,4.20000000e-009,-2.26562516e-004
,,,4.22500000e-009,-2.57812518e-004
,,,4.25000000e-009,-2.91406271e-004
,,,4.27500000e-009,-3.24218773e-004
,,,4.30000000e-009,-3.54687525e-004
,,,4.32500000e-009,-3.78125027e-004
,,,4.35000000e-009,-3.93750028e-004
,,,4.37500000e-009,-4.00000028e-004
,,,4.40000000e-009,-3.92968778e-004
,,,4.42500000e-009,-3.75781277e-004
,,,4.45000000e-009,-3.50781275e-004
,,,4.47500000e-009,-3.20312523e-004
,,,4.50000000e-009,-2.85937520e-004
,,,4.52500000e-009,-2.52343768e-004
,,,4.55000000e-009,-2.22656266e-004
,,,4.57500000e-009,-2.00000014e-004
,,,4.60000000e-009,-1.85937513e-004
,,,4.62500000e-009,-1.83593763e-004
,,,4.65000000e-009,-1.93750014e-004
,,,4.67500000e-009,-2.15625015e-004
,,,4.70000000e-009,-2.49218768e-004
,,,4.72500000e-009,-2.92968771e-004
,,,4.75000000e-009,-3.43750024e-004
,,,4.77500000e-009,-4.00000028e-004
,,,4.80000000e-009,-4.53125032e-004
,,,4.82500000e-009,-5.03906286e-004
,,,4.85000000e-009,-5.48437539e-004
,,,4.87500000e-009,-5.84375041e-004
,,,4.90000000e-009,-6.08593793e-004
,,,4.92500000e-009,-6.19531294e-004
,,,4.95000000e-009,-6.16406294e-004
,,,4.97500000e-009,-6.00000042e-004
,,,5.00000000e-009,-5.64843790e-004
,,,5.02500000e-009,-5.19531287e-004
,,,5.05000000e-009,-4.65625033e-004
,,,5.07500000e-009,-4.07812529e-004
,,,5.10000000e-009,-3.49218775e-004
,,,5.12500000e-009,-2.92968771e-004
,,,5.15000000e-009,-2.42187517e-004
,,,5.17500000e-009,-2.00000014e-004
,,,5.20000000e-009,-1.66406262e-004
,,,5.22500000e-009,-1.45312510e-004
,,,5.25000000e-009,-1.35156260e-004
,,,5.27500000e-009,-1.35156260e-004
,,,5.30000000e-009,-1.44531260e-004
,,,5.32500000e-009,-1.59375011e-004
,,,5.35000000e-009,-1.78906263e-004
,,,5.37500000e-009,-2.00000014e-004
,,,5.40000000e-009,-2.18750015e-004
,,,5.42500000e-009,-2.34375017e-004
,,,5.45000000e-009,-2.44531267e-004
,,,5.47500000e-009,-2.48437518e-004
,,,5.50000000e-009,-2.45312517e-004
,,,5.52500000e-009,-2.35937517e-004
,,,5.55000000e-009,-2.20312516e-004
,,,5.57500000e-009,-2.00000014e-004
,,,5.60000000e-009,-1.74218762e-004
,,,5.62500000e-009,-1.46093760e-004
,,,5.65000000e-009,-1.16406258e-004
,,,5.67500000e-009,-8.75000062e-005
,,,5.70000000e-009,-6.09375043e-005
,,,5.72500000e-009,-3.67187526e-005
,,,5.75000000e-009,-1.56250011e-005
,,,5.77500000e-009,0.00000000e+000
,,,5.80000000e-009,9.37500066e-006
,,,5.82500000e-009,1.56250011e-005
,,,5.85000000e-009,1.71875012e-005
,,,5.87500000e-009,1.64062512e-005
,,,5.90000000e-009,1.32812509e-005
,,,5.92500000e-009,9.37500066e-006
