RawData/DifferentLengths/R3/R3_2pt2B_5mV/wave008_Ch2.csv

"Record Length",1000,"Points",-7.72500000e-009,4.05468779e-004
"Sample Interval",2.50000000e-011,s,-7.70000000e-009,4.07812529e-004
"Trigger Point",309,"Samples",-7.67500000e-009,4.00000028e-004
"Trigger Time",2.56477612e-012,s,-7.65000000e-009,3.78125027e-004
"",,,-7.62500000e-009,3.50000025e-004
"Horizontal Offset",-7.72500000e-009,s,-7.60000000e-009,3.17968773e-004
,,,-7.57500000e-009,2.85156270e-004
,,,-7.55000000e-009,2.53906268e-004
,,,-7.52500000e-009,2.28125016e-004
,,,-7.50000000e-009,2.09375015e-004
,,,-7.47500000e-009,2.00000014e-004
,,,-7.45000000e-009,1.98437514e-004
,,,-7.42500000e-009,2.07812515e-004
,,,-7.40000000e-009,2.27343766e-004
,,,-7.37500000e-009,2.54687518e-004
,,,-7.35000000e-009,2.88281270e-004
,,,-7.32500000e-009,3.25781273e-004
,,,-7.30000000e-009,3.63281276e-004
,,,-7.27500000e-009,4.00000028e-004
,,,-7.25000000e-009,4.28125030e-004
,,,-7.22500000e-009,4.50000032e-004
,,,-7.20000000e-009,4.63281283e-004
,,,-7.17500000e-009,4.67968783e-004
,,,-7.15000000e-009,4.63281283e-004
,,,-7.12500000e-009,4.50000032e-004
,,,-7.10000000e-009,4.28906280e-004
,,,-7.07500000e-009,4.00000028e-004
,,,-7.05000000e-009,3.60156275e-004
,,,-7.02500000e-009,3.15625022e-004
,,,-7.00000000e-009,2.67187519e-004
,,,-6.97500000e-009,2.15625015e-004
,,,-6.95000000e-009,1.62500012e-004
,,,-6.92500000e-009,1.07812508e-004
,,,-6.90000000e-009,5.31250038e-005
,,,-6.87500000e-009,0.00000000e+000
,,,-6.85000000e-009,-4.92187535e-005
,,,-6.82500000e-009,-9.37500066e-005
,,,-6.80000000e-009,-1.32031259e-004
,,,-6.77500000e-009,-1.63281262e-004
,,,-6.75000000e-009,-1.86718763e-004
,,,-6.72500000e-009,-2.00000014e-004
,,,-6.70000000e-009,-2.04687514e-004
,,,-6.67500000e-009,-2.00000014e-004
,,,-6.65000000e-009,-1.82812513e-004
,,,-6.62500000e-009,-1.60156261e-004
,,,-6.60000000e-009,-1.32812509e-004
,,,-6.57500000e-009,-1.03125007e-004
,,,-6.55000000e-009,-7.26562551e-005
,,,-6.52500000e-009,-4.45312532e-005
,,,-6.50000000e-009,-1.95312514e-005
,,,-6.47500000e-009,0.00000000e+000
,,,-6.45000000e-009,1.48437511e-005
,,,-6.42500000e-009,2.42187517e-005
,,,-6.40000000e-009,2.81250020e-005
,,,-6.37500000e-009,2.73437519e-005
,,,-6.35000000e-009,2.18750015e-005
,,,-6.32500000e-009,1.48437511e-005
,,,-6.30000000e-009,7.03125050e-006
,,,-6.27500000e-009,0.00000000e+000
,,,-6.25000000e-009,-5.46875039e-006
,,,-6.22500000e-009,-9.37500066e-006
,,,-6.20000000e-009,-1.17187508e-005
,,,-6.17500000e-009,-1.25000009e-005
,,,-6.15000000e-009,-1.09375008e-005
,,,-6.12500000e-009,-8.59375061e-006
,,,-6.10000000e-009,-3.90625028e-006
,,,-6.07500000e-009,0.00000000e+000
,,,-6.05000000e-009,5.46875039e-006
,,,-6.02500000e-009,1.09375008e-005
,,,-6.00000000e-009,1.40625010e-005
,,,-5.97500000e-009,1.48437511e-005
,,,-5.95000000e-009,1.40625010e-005
,,,-5.92500000e-009,1.09375008e-005
,,,-5.90000000e-009,5.46875039e-006
,,,-5.87500000e-009,0.00000000e+000
,,,-5.85000000e-009,-6.25000044e-006
,,,-5.82500000e-009,-1.25000009e-005
,,,-5.80000000e-009,-1.71875012e-005
,,,-5.77500000e-009,-1.95312514e-005
,,,-5.75000000e-009,-1.87500013e-005
,,,-5.72500000e-009,-1.56250011e-005
,,,-5.70000000e-009,-8.59375061e-006
,,,-5.67500000e-009,0.00000000e+000
,,,-5.65000000e-009,1.09375008e-005
,,,-5.62500000e-009,2.18750015e-005
,,,-5.60000000e-009,3.20312523e-005
,,,-5.57500000e-009,3.90625028e-005
,,,-5.55000000e-009,3.98437528e-005
,,,-5.52500000e-009,3.43750024e-005
,,,-5.50000000e-009,2.10937515e-005
,,,-5.47500000e-009,0.00000000e+000
,,,-5.45000000e-009,-2.81250020e-005
,,,-5.42500000e-009,-6.17187544e-005
,,,-5.40000000e-009,-9.68750069e-005
,,,-5.37500000e-009,-1.31250009e-004
,,,-5.35000000e-009,-1.60937511e-004
,,,-5.32500000e-009,-1.84375013e-004
,,,-5.30000000e-009,-1.97656264e-004
,,,-5.27500000e-009,-2.00000014e-004
,,,-5.25000000e-009,-1.89062513e-004
,,,-5.22500000e-009,-1.67968762e-004
,,,-5.20000000e-009,-1.39843760e-004
,,,-5.17500000e-009,-1.07031258e-004
,,,-5.15000000e-009,-7.34375052e-005
,,,-5.12500000e-009,-4.29687530e-005
,,,-5.10000000e-009,-1.71875012e-005
,,,-5.07500000e-009,0.00000000e+000
,,,-5.05000000e-009,1.01562507e-005
,,,-5.02500000e-009,1.32812509e-005
,,,-5.00000000e-009,9.37500066e-006
,,,-4.97500000e-009,3.12500022e-006
,,,-4.95000000e-009,-3.12500022e-006
,,,-4.92500000e-009,-7.81250055e-006
,,,-4.90000000e-009,-7.81250055e-006
,,,-4.87500000e-009,0.00000000e+000
,,,-4.85000000e-009,1.56250011e-005
,,,-4.82500000e-009,3.82812527e-005
,,,-4.80000000e-009,6.71875048e-005
,,,-4.77500000e-009,9.92187570e-005
,,,-4.75000000e-009,1.32031259e-004
,,,-4.72500000e-009,1.61718761e-004
,,,-4.70000000e-009,1.85156263e-004
,,,-4.67500000e-009,2.00000014e-004
,,,-4.65000000e-009,2.02343764e-004
,,,-4.62500000e-009,1.93750014e-004
,,,-4.60000000e-009,1.75000012e-004
,,,-4.57500000e-009,1.47656260e-004
,,,-4.55000000e-009,1.13281258e-004
,,,-4.52500000e-009,7.50000053e-005
,,,-4.50000000e-009,3.67187526e-005
,,,-4.47500000e-009,0.00000000e+000
,,,-4.45000000e-009,-3.12500022e-005
,,,-4.42500000e-009,-5.54687539e-005
,,,-4.40000000e-009,-7.03125050e-005
,,,-4.37500000e-009,-7.50000053e-005
,,,-4.35000000e-009,-6.95312549e-005
,,,-4.32500000e-009,-5.39062538e-005
,,,-4.30000000e-009,-3.04687522e-005
,,,-4.27500000e-009,0.00000000e+000
,,,-4.25000000e-009,3.35937524e-005
,,,-4.22500000e-009,6.87500049e-005
,,,-4.20000000e-009,1.03906257e-004
,,,-4.17500000e-009,1.36718760e-004
,,,-4.15000000e-009,1.64062512e-004
,,,-4.12500000e-009,1.84375013e-004
,,,-4.10000000e-009,1.96093764e-004
,,,-4.07500000e-009,2.00000014e-004
,,,-4.05000000e-009,1.90625013e-004
,,,-4.02500000e-009,1.73437512e-004
,,,-4.00000000e-009,1.49218761e-004
,,,-3.97500000e-009,1.20312509e-004
,,,-3.95000000e-009,8.82812562e-005
,,,-3.92500000e-009,5.62500040e-005
,,,-3.90000000e-009,2.57812518e-005
,,,-3.87500000e-009,0.00000000e+000
,,,-3.85000000e-009,-2.03125014e-005
,,,-3.82500000e-009,-3.35937524e-005
,,,-3.80000000e-009,-4.06250029e-005
,,,-3.77500000e-009,-4.06250029e-005
,,,-3.75000000e-009,-3.51562525e-005
,,,-3.72500000e-009,-2.57812518e-005
,,,-3.70000000e-009,-1.32812509e-005
,,,-3.67500000e-009,0.00000000e+000
,,,-3.65000000e-009,1.32812509e-005
,,,-3.62500000e-009,2.42187517e-005
,,,-3.60000000e-009,3.20312523e-005
,,,-3.57500000e-009,3.51562525e-005
,,,-3.55000000e-009,3.35937524e-005
,,,-3.52500000e-009,2.73437519e-005
,,,-3.50000000e-009,1.56250011e-005
,,,-3.47500000e-009,0.00000000e+000
,,,-3.45000000e-009,-1.95312514e-005
,,,-3.42500000e-009,-4.29687530e-005
,,,-3.40000000e-009,-6.79687548e-005
,,,-3.37500000e-009,-9.53125067e-005
,,,-3.35000000e-009,-1.22656259e-004
,,,-3.32500000e-009,-1.50000011e-004
,,,-3.30000000e-009,-1.75781262e-004
,,,-3.27500000e-009,-2.00000014e-004
,,,-3.25000000e-009,-2.17968765e-004
,,,-3.22500000e-009,-2.32031266e-004
,,,-3.20000000e-009,-2.40625017e-004
,,,-3.17500000e-009,-2.43750017e-004
,,,-3.15000000e-009,-2.41406267e-004
,,,-3.12500000e-009,-2.32812516e-004
,,,-3.10000000e-009,-2.18750015e-004
,,,-3.07500000e-009,-2.00000014e-004
,,,-3.05000000e-009,-1.75000012e-004
,,,-3.02500000e-009,-1.47656260e-004
,,,-3.00000000e-009,-1.19531258e-004
,,,-2.97500000e-009,-9.06250064e-005
,,,-2.95000000e-009,-6.40625045e-005
,,,-2.92500000e-009,-3.90625028e-005
,,,-2.90000000e-009,-1.71875012e-005
,,,-2.87500000e-009,0.00000000e+000
,,,-2.85000000e-009,1.32812509e-005
,,,-2.82500000e-009,2.18750015e-005
,,,-2.80000000e-009,2.65625019e-005
,,,-2.77500000e-009,2.65625019e-005
,,,-2.75000000e-009,2.34375017e-005
,,,-2.72500000e-009,1.71875012e-005
,,,-2.70000000e-009,8.59375061e-006
,,,-2.67500000e-009,0.00000000e+000
,,,-2.65000000e-009,-8.59375061e-006
,,,-2.62500000e-009,-1.64062512e-005
,,,-2.60000000e-009,-2.18750015e-005
,,,-2.57500000e-009,-2.42187517e-005
,,,-2.55000000e-009,-2.34375017e-005
,,,-2.52500000e-009,-1.87500013e-005
,,,-2.50000000e-009,-1.01562507e-005
,,,-2.47500000e-009,0.00000000e+000
,,,-2.45000000e-009,1.17187508e-005
,,,-2.42500000e-009,2.34375017e-005
,,,-2.40000000e-009,3.35937524e-005
,,,-2.37500000e-009,3.98437528e-005
,,,-2.35000000e-009,4.06250029e-005
,,,-2.32500000e-009,3.43750024e-005
,,,-2.30000000e-009,2.03125014e-005
,,,-2.27500000e-009,0.00000000e+000
,,,-2.25000000e-009,-2.73437519e-005
,,,-2.22500000e-009,-6.01562543e-005
,,,-2.20000000e-009,-9.37500066e-005
,,,-2.17500000e-009,-1.26562509e-004
,,,-2.15000000e-009,-1.56250011e-004
,,,-2.12500000e-009,-1.79687513e-004
,,,-2.10000000e-009,-1.94531264e-004
,,,-2.07500000e-009,-2.00000014e-004
,,,-2.05000000e-009,-1.92187514e-004
,,,-2.02500000e-009,-1.75781262e-004
,,,-2.00000000e-009,-1.50781261e-004
,,,-1.97500000e-009,-1.20312509e-004
,,,-1.95000000e-009,-8.67187561e-005
,,,-1.92500000e-009,-5.39062538e-005
,,,-1.90000000e-009,-2.42187517e-005
,,,-1.87500000e-009,0.00000000e+000
,,,-1.85000000e-009,1.71875012e-005
,,,-1.82500000e-009,2.73437519e-005
,,,-1.80000000e-009,3.04687522e-005
,,,-1.77500000e-009,2.81250020e-005
,,,-1.75000000e-009,2.18750015e-005
,,,-1.72500000e-009,1.32812509e-005
,,,-1.70000000e-009,5.46875039e-006
,,,-1.67500000e-009,0.00000000e+000
,,,-1.65000000e-009,-5.46875039e-006
,,,-1.62500000e-009,-7.81250055e-006
,,,-1.60000000e-009,-7.81250055e-006
,,,-1.57500000e-009,-6.25000044e-006
,,,-1.55000000e-009,-3.90625028e-006
,,,-1.52500000e-009,-1.56250011e-006
,,,-1.50000000e-009,0.00000000e+000
,,,-1.47500000e-009,0.00000000e+000
,,,-1.45000000e-009,-8.59375061e-006
,,,-1.42500000e-009,-2.03125014e-005
,,,-1.40000000e-009,-3.12500022e-005
,,,-1.37500000e-009,-3.98437528e-005
,,,-1.35000000e-009,-4.29687530e-005
,,,-1.32500000e-009,-3.75000027e-005
,,,-1.30000000e-009,-2.34375017e-005
,,,-1.27500000e-009,0.00000000e+000
,,,-1.25000000e-009,1.87500013e-005
,,,-1.22500000e-009,4.29687530e-005
,,,-1.20000000e-009,7.10937550e-005
,,,-1.17500000e-009,1.00781257e-004
,,,-1.15000000e-009,1.31250009e-004
,,,-1.12500000e-009,1.58593761e-004
,,,-1.10000000e-009,1.82031263e-004
,,,-1.07500000e-009,2.00000014e-004
,,,-1.05000000e-009,1.85937513e-004
,,,-1.02500000e-009,1.61718761e-004
,,,-1.00000000e-009,1.31250009e-004
,,,-9.75000000e-010,9.76562569e-005
,,,-9.50000000e-010,6.48437546e-005
,,,-9.25000000e-010,3.59375025e-005
,,,-9.00000000e-010,1.40625010e-005
,,,-8.75000000e-010,0.00000000e+000
,,,-8.50000000e-010,-3.75000027e-005
,,,-8.25000000e-010,-7.57812554e-005
,,,-8.00000000e-010,-1.14843758e-004
,,,-7.75000000e-010,-1.57812511e-004
,,,-7.50000000e-010,-2.05468765e-004
,,,-7.25000000e-010,-2.59375018e-004
,,,-7.00000000e-010,-3.23437523e-004
,,,-6.75000000e-010,-4.00000028e-004
,,,-6.50000000e-010,-5.20312537e-004
,,,-6.25000000e-010,-6.57812547e-004
,,,-6.00000000e-010,-8.10156307e-004
,,,-5.75000000e-010,-9.70312569e-004
,,,-5.50000000e-010,-1.13437508e-003
,,,-5.25000000e-010,-1.29609384e-003
,,,-5.00000000e-010,-1.45234385e-003
,,,-4.75000000e-010,-1.60000011e-003
,,,-4.50000000e-010,-1.76015637e-003
,,,-4.25000000e-010,-1.91718764e-003
,,,-4.00000000e-010,-2.06875015e-003
,,,-3.75000000e-010,-2.21640641e-003
,,,-3.50000000e-010,-2.36171892e-003
,,,-3.25000000e-010,-2.50546893e-003
,,,-3.00000000e-010,-2.65078144e-003
,,,-2.75000000e-010,-2.80000020e-003
,,,-2.50000000e-010,-2.96718771e-003
,,,-2.25000000e-010,-3.14843772e-003
,,,-2.00000000e-010,-3.34140649e-003
,,,-1.75000000e-010,-3.54453150e-003
,,,-1.50000000e-010,-3.75468777e-003
,,,-1.25000000e-010,-3.96953153e-003
,,,-1.00000000e-010,-4.18515655e-003
,,,-7.50000000e-011,-4.40000031e-003
,,,-5.00000000e-011,-4.61015658e-003
,,,-2.50000000e-011,-4.82031284e-003
,,,0.00000000e+000,-5.02968786e-003
,,,2.50000000e-011,-5.23671912e-003
,,,5.00000000e-011,-5.43828163e-003
,,,7.50000000e-011,-5.63359415e-003
,,,1.00000000e-010,-5.82109416e-003
,,,1.25000000e-010,-6.00000042e-003
,,,1.50000000e-010,-6.15703169e-003
,,,1.75000000e-010,-6.31328170e-003
,,,2.00000000e-010,-6.46796921e-003
,,,2.25000000e-010,-6.62265672e-003
,,,2.50000000e-010,-6.77500048e-003
,,,2.75000000e-010,-6.92343799e-003
,,,3.00000000e-010,-7.06562550e-003
,,,3.25000000e-010,-7.20000051e-003
,,,3.50000000e-010,-7.29843802e-003
,,,3.75000000e-010,-7.39296927e-003
,,,4.00000000e-010,-7.48281303e-003
,,,4.25000000e-010,-7.56640679e-003
,,,4.50000000e-010,-7.64140679e-003
,,,4.75000000e-010,-7.70703180e-003
,,,5.00000000e-010,-7.76015680e-003
,,,5.25000000e-010,-7.80000055e-003
,,,5.50000000e-010,-7.80000055e-003
,,,5.75000000e-010,-7.79609430e-003
,,,6.00000000e-010,-7.78984430e-003
,,,6.25000000e-010,-7.78359430e-003
,,,6.50000000e-010,-7.78046930e-003
,,,6.75000000e-010,-7.78046930e-003
,,,7.00000000e-010,-7.78671930e-003
,,,7.25000000e-010,-7.80000055e-003
,,,7.50000000e-010,-7.79375055e-003
,,,7.75000000e-010,-7.80312555e-003
,,,8.00000000e-010,-7.82968805e-003
,,,8.25000000e-010,-7.87343806e-003
,,,8.50000000e-010,-7.93593806e-003
,,,8.75000000e-010,-8.01328182e-003
,,,9.00000000e-010,-8.10312557e-003
,,,9.25000000e-010,-8.20000058e-003
,,,9.50000000e-010,-8.26796934e-003
,,,9.75000000e-010,-8.33203184e-003
,,,1.00000000e-009,-8.38828184e-003
,,,1.02500000e-009,-8.43125060e-003
,,,1.05000000e-009,-8.45703185e-003
,,,1.07500000e-009,-8.46171935e-003
,,,1.10000000e-009,-8.44296935e-003
,,,1.12500000e-009,-8.40000059e-003
,,,1.15000000e-009,-8.30390684e-003
,,,1.17500000e-009,-8.19062558e-003
,,,1.20000000e-009,-8.06796932e-003
,,,1.22500000e-009,-7.94531306e-003
,,,1.25000000e-009,-7.83046930e-003
,,,1.27500000e-009,-7.73125055e-003
,,,1.30000000e-009,-7.65312554e-003
,,,1.32500000e-009,-7.60000054e-003
,,,1.35000000e-009,-7.54843803e-003
,,,1.37500000e-009,-7.51640678e-003
,,,1.40000000e-009,-7.50000053e-003
,,,1.42500000e-009,-7.49140678e-003
,,,1.45000000e-009,-7.48437553e-003
,,,1.47500000e-009,-7.47187553e-003
,,,1.50000000e-009,-7.44531303e-003
,,,1.52500000e-009,-7.40000052e-003
,,,1.55000000e-009,-7.30859427e-003
,,,1.57500000e-009,-7.18906301e-003
,,,1.60000000e-009,-7.04609425e-003
,,,1.62500000e-009,-6.88359424e-003
,,,1.65000000e-009,-6.71093798e-003
,,,1.67500000e-009,-6.53437546e-003
,,,1.70000000e-009,-6.36250045e-003
,,,1.72500000e-009,-6.20000044e-003
,,,1.75000000e-009,-6.03828168e-003
,,,1.77500000e-009,-5.88906292e-003
,,,1.80000000e-009,-5.75312541e-003
,,,1.82500000e-009,-5.62968790e-003
,,,1.85000000e-009,-5.51484414e-003
,,,1.87500000e-009,-5.40781288e-003
,,,1.90000000e-009,-5.30390663e-003
,,,1.92500000e-009,-5.20000037e-003
,,,1.95000000e-009,-5.08671911e-003
,,,1.97500000e-009,-4.96562535e-003
,,,2.00000000e-009,-4.83750034e-003
,,,2.02500000e-009,-4.70390658e-003
,,,2.05000000e-009,-4.56953157e-003
,,,2.07500000e-009,-4.43906281e-003
,,,2.10000000e-009,-4.31484406e-003
,,,2.12500000e-009,-4.20000030e-003
,,,2.15000000e-009,-4.09687529e-003
,,,2.17500000e-009,-3.99765653e-003
,,,2.20000000e-009,-3.90000028e-003
,,,2.22500000e-009,-3.80312527e-003
,,,2.25000000e-009,-3.70546901e-003
,,,2.27500000e-009,-3.60625026e-003
,,,2.30000000e-009,-3.50468775e-003
,,,2.32500000e-009,-3.40000024e-003
,,,2.35000000e-009,-3.29531273e-003
,,,2.37500000e-009,-3.18515648e-003
,,,2.40000000e-009,-3.07109397e-003
,,,2.42500000e-009,-2.95703146e-003
,,,2.45000000e-009,-2.84921895e-003
,,,2.47500000e-009,-2.75156269e-003
,,,2.50000000e-009,-2.66796894e-003
,,,2.52500000e-009,-2.60000018e-003
,,,2.55000000e-009,-2.55625018e-003
,,,2.57500000e-009,-2.51796893e-003
,,,2.60000000e-009,-2.48203143e-003
,,,2.62500000e-009,-2.44453142e-003
,,,2.65000000e-009,-2.40000017e-003
,,,2.67500000e-009,-2.34531267e-003
,,,2.70000000e-009,-2.27890641e-003
,,,2.72500000e-009,-2.20000016e-003
,,,2.75000000e-009,-2.11328140e-003
,,,2.77500000e-009,-2.01171889e-003
,,,2.80000000e-009,-1.89843763e-003
,,,2.82500000e-009,-1.78125013e-003
,,,2.85000000e-009,-1.66562512e-003
,,,2.87500000e-009,-1.56015636e-003
,,,2.90000000e-009,-1.47031260e-003
,,,2.92500000e-009,-1.40000010e-003
,,,2.95000000e-009,-1.35937510e-003
,,,2.97500000e-009,-1.33281259e-003
,,,3.00000000e-009,-1.31640634e-003
,,,3.02500000e-009,-1.30468759e-003
,,,3.05000000e-009,-1.29218759e-003
,,,3.07500000e-009,-1.27343759e-003
,,,3.10000000e-009,-1.24375009e-003
,,,3.12500000e-009,-1.20000008e-003
,,,3.15000000e-009,-1.14765633e-003
,,,3.17500000e-009,-1.07890633e-003
,,,3.20000000e-009,-9.96093821e-004
,,,3.22500000e-009,-9.04687564e-004
,,,3.25000000e-009,-8.13281308e-004
,,,3.27500000e-009,-7.27343801e-004
,,,3.30000000e-009,-6.54687546e-004
,,,3.32500000e-009,-6.00000042e-004
,,,3.35000000e-009,-5.73437541e-004
,,,3.37500000e-009,-5.63281290e-004
,,,3.40000000e-009,-5.66406290e-004
,,,3.42500000e-009,-5.77343791e-004
,,,3.45000000e-009,-5.91406292e-004
,,,3.47500000e-009,-6.03125043e-004
,,,3.50000000e-009,-6.07031293e-004
,,,3.52500000e-009,-6.00000042e-004
,,,3.55000000e-009,-5.85156291e-004
,,,3.57500000e-009,-5.53125039e-004
,,,3.60000000e-009,-5.07031286e-004
,,,3.62500000e-009,-4.48437532e-004
,,,3.65000000e-009,-3.82812527e-004
,,,3.67500000e-009,-3.16406272e-004
,,,3.70000000e-009,-2.53906268e-004
,,,3.72500000e-009,-2.00000014e-004
,,,3.75000000e-009,-1.65625012e-004
,,,3.77500000e-009,-1.43750010e-004
,,,3.80000000e-009,-1.34375010e-004
,,,3.82500000e-009,-1.35156260e-004
,,,3.85000000e-009,-1.44531260e-004
,,,3.87500000e-009,-1.60156261e-004
,,,3.90000000e-009,-1.79687513e-004
,,,3.92500000e-009,-2.00000014e-004
,,,3.95000000e-009,-2.21875016e-004
,,,3.97500000e-009,-2.39062517e-004
,,,4.00000000e-009,-2.48437518e-004
,,,4.02500000e-009,-2.50000018e-004
,,,4.05000000e-009,-2.44531267e-004
,,,4.07500000e-009,-2.33593767e-004
,,,4.10000000e-009,-2.17968765e-004
,,,4.12500000e-009,-2.00000014e-004
,,,4.15000000e-009,-1.84375013e-004
,,,4.17500000e-009,-1.69531262e-004
,,,4.20000000e-009,-1.58593761e-004
,,,4.22500000e-009,-1.51562511e-004
,,,4.25000000e-009,-1.51562511e-004
,,,4.27500000e-009,-1.59375011e-004
,,,4.30000000e-009,-1.75781262e-004
,,,4.32500000e-009,-2.00000014e-004
,,,4.35000000e-009,-2.32031266e-004
,,,4.37500000e-009,-2.67187519e-004
,,,4.40000000e-009,-3.03906272e-004
,,,4.42500000e-009,-3.38281274e-004
,,,4.45000000e-009,-3.67187526e-004
,,,4.47500000e-009,-3.88281277e-004
,,,4.50000000e-009,-3.99218778e-004
,,,4.52500000e-009,-4.00000028e-004
,,,4.55000000e-009,-3.89062528e-004
,,,4.57500000e-009,-3.67968776e-004
,,,4.60000000e-009,-3.39843774e-004
,,,4.62500000e-009,-3.07031272e-004
,,,4.65000000e-009,-2.73437519e-004
,,,4.67500000e-009,-2.42968767e-004
,,,4.70000000e-009,-2.17187515e-004
,,,4.72500000e-009,-2.00000014e-004
,,,4.75000000e-009,-1.89062513e-004
,,,4.77500000e-009,-1.85937513e-004
,,,4.80000000e-009,-1.89843763e-004
,,,4.82500000e-009,-1.96093764e-004
,,,4.85000000e-009,-2.03125014e-004
,,,4.87500000e-009,-2.07812515e-004
,,,4.90000000e-009,-2.07812515e-004
,,,4.92500000e-009,-2.00000014e-004
,,,4.95000000e-009,-1.82812513e-004
,,,4.97500000e-009,-1.58593761e-004
,,,5.00000000e-009,-1.28906259e-004
,,,5.02500000e-009,-9.60937568e-005
,,,5.05000000e-009,-6.40625045e-005
,,,5.07500000e-009,-3.51562525e-005
,,,5.10000000e-009,-1.25000009e-005
,,,5.12500000e-009,0.00000000e+000
,,,5.15000000e-009,7.81250055e-007
,,,5.17500000e-009,-7.81250055e-006
,,,5.20000000e-009,-2.81250020e-005
,,,5.22500000e-009,-5.62500040e-005
,,,5.25000000e-009,-9.06250064e-005
,,,5.27500000e-009,-1.27343759e-004
,,,5.30000000e-009,-1.64843762e-004
,,,5.32500000e-009,-2.00000014e-004
,,,5.35000000e-009,-2.28125016e-004
,,,5.37500000e-009,-2.48437518e-004
,,,5.40000000e-009,-2.60156268e-004
,,,5.42500000e-009,-2.62500019e-004
,,,5.45000000e-009,-2.57031268e-004
,,,5.47500000e-009,-2.43750017e-004
,,,5.50000000e-009,-2.24218766e-004
,,,5.52500000e-009,-2.00000014e-004
,,,5.55000000e-009,-1.71875012e-004
,,,5.57500000e-009,-1.42187510e-004
,,,5.60000000e-009,-1.11718758e-004
,,,5.62500000e-009,-8.35937559e-005
,,,5.65000000e-009,-5.70312540e-005
,,,5.67500000e-009,-3.35937524e-005
,,,5.70000000e-009,-1.48437511e-005
,,,5.72500000e-009,0.00000000e+000
,,,5.75000000e-009,8.59375061e-006
,,,5.77500000e-009,1.25000009e-005
,,,5.80000000e-009,1.40625010e-005
,,,5.82500000e-009,1.25000009e-005
,,,5.85000000e-009,9.37500066e-006
,,,5.87500000e-009,5.46875039e-006
,,,5.90000000e-009,2.34375017e-006
,,,5.92500000e-009,0.00000000e+000
