RawData/DifferentLengths/R3/R3_2pt2B_5mV/wave016_Ch2.csv

"Record Length",1000,"Points",-7.72500000e-009,1.56250011e-006
"Sample Interval",2.50000000e-011,s,-7.70000000e-009,7.81250055e-007
"Trigger Point",309,"Samples",-7.67500000e-009,7.81250055e-007
"Trigger Time",1.11566279e-011,s,-7.65000000e-009,0.00000000e+000
"",,,-7.62500000e-009,0.00000000e+000
"Horizontal Offset",-7.72500000e-009,s,-7.60000000e-009,0.00000000e+000
,,,-7.57500000e-009,0.00000000e+000
,,,-7.55000000e-009,0.00000000e+000
,,,-7.52500000e-009,7.81250055e-007
,,,-7.50000000e-009,2.34375017e-006
,,,-7.47500000e-009,3.90625028e-006
,,,-7.45000000e-009,4.68750033e-006
,,,-7.42500000e-009,3.90625028e-006
,,,-7.40000000e-009,2.34375017e-006
,,,-7.37500000e-009,0.00000000e+000
,,,-7.35000000e-009,-4.68750033e-006
,,,-7.32500000e-009,-9.37500066e-006
,,,-7.30000000e-009,-1.32812509e-005
,,,-7.27500000e-009,-1.56250011e-005
,,,-7.25000000e-009,-1.64062512e-005
,,,-7.22500000e-009,-1.32812509e-005
,,,-7.20000000e-009,-7.81250055e-006
,,,-7.17500000e-009,0.00000000e+000
,,,-7.15000000e-009,9.37500066e-006
,,,-7.12500000e-009,2.03125014e-005
,,,-7.10000000e-009,2.96875021e-005
,,,-7.07500000e-009,3.51562525e-005
,,,-7.05000000e-009,3.67187526e-005
,,,-7.02500000e-009,3.20312523e-005
,,,-7.00000000e-009,1.95312514e-005
,,,-6.97500000e-009,0.00000000e+000
,,,-6.95000000e-009,-2.57812518e-005
,,,-6.92500000e-009,-5.70312540e-005
,,,-6.90000000e-009,-9.06250064e-005
,,,-6.87500000e-009,-1.23437509e-004
,,,-6.85000000e-009,-1.53125011e-004
,,,-6.82500000e-009,-1.77343763e-004
,,,-6.80000000e-009,-1.93750014e-004
,,,-6.77500000e-009,-2.00000014e-004
,,,-6.75000000e-009,-1.93750014e-004
,,,-6.72500000e-009,-1.77343763e-004
,,,-6.70000000e-009,-1.53125011e-004
,,,-6.67500000e-009,-1.23437509e-004
,,,-6.65000000e-009,-9.06250064e-005
,,,-6.62500000e-009,-5.70312540e-005
,,,-6.60000000e-009,-2.57812518e-005
,,,-6.57500000e-009,0.00000000e+000
,,,-6.55000000e-009,2.03125014e-005
,,,-6.52500000e-009,3.35937524e-005
,,,-6.50000000e-009,3.98437528e-005
,,,-6.47500000e-009,3.90625028e-005
,,,-6.45000000e-009,3.28125023e-005
,,,-6.42500000e-009,2.34375017e-005
,,,-6.40000000e-009,1.17187508e-005
,,,-6.37500000e-009,0.00000000e+000
,,,-6.35000000e-009,-8.59375061e-006
,,,-6.32500000e-009,-1.40625010e-005
,,,-6.30000000e-009,-1.71875012e-005
,,,-6.27500000e-009,-1.64062512e-005
,,,-6.25000000e-009,-1.40625010e-005
,,,-6.22500000e-009,-1.01562507e-005
,,,-6.20000000e-009,-4.68750033e-006
,,,-6.17500000e-009,0.00000000e+000
,,,-6.15000000e-009,4.68750033e-006
,,,-6.12500000e-009,8.59375061e-006
,,,-6.10000000e-009,1.09375008e-005
,,,-6.07500000e-009,1.17187508e-005
,,,-6.05000000e-009,1.01562507e-005
,,,-6.02500000e-009,7.81250055e-006
,,,-6.00000000e-009,3.90625028e-006
,,,-5.97500000e-009,0.00000000e+000
,,,-5.95000000e-009,-3.12500022e-006
,,,-5.92500000e-009,-6.25000044e-006
,,,-5.90000000e-009,-9.37500066e-006
,,,-5.87500000e-009,-1.09375008e-005
,,,-5.85000000e-009,-1.09375008e-005
,,,-5.82500000e-009,-9.37500066e-006
,,,-5.80000000e-009,-5.46875039e-006
,,,-5.77500000e-009,0.00000000e+000
,,,-5.75000000e-009,7.81250055e-006
,,,-5.72500000e-009,2.10937515e-005
,,,-5.70000000e-009,3.82812527e-005
,,,-5.67500000e-009,6.01562543e-005
,,,-5.65000000e-009,8.82812562e-005
,,,-5.62500000e-009,1.21093759e-004
,,,-5.60000000e-009,1.58593761e-004
,,,-5.57500000e-009,2.00000014e-004
,,,-5.55000000e-009,2.40625017e-004
,,,-5.52500000e-009,2.81250020e-004
,,,-5.50000000e-009,3.18750023e-004
,,,-5.47500000e-009,3.51562525e-004
,,,-5.45000000e-009,3.77343777e-004
,,,-5.42500000e-009,3.94531278e-004
,,,-5.40000000e-009,4.02343778e-004
,,,-5.37500000e-009,4.00000028e-004
,,,-5.35000000e-009,3.82812527e-004
,,,-5.32500000e-009,3.58593775e-004
,,,-5.30000000e-009,3.28125023e-004
,,,-5.27500000e-009,2.96093771e-004
,,,-5.25000000e-009,2.64843769e-004
,,,-5.22500000e-009,2.36718767e-004
,,,-5.20000000e-009,2.14062515e-004
,,,-5.17500000e-009,2.00000014e-004
,,,-5.15000000e-009,1.90625013e-004
,,,-5.12500000e-009,1.89062513e-004
,,,-5.10000000e-009,1.92968764e-004
,,,-5.07500000e-009,1.99218764e-004
,,,-5.05000000e-009,2.06250015e-004
,,,-5.02500000e-009,2.10156265e-004
,,,-5.00000000e-009,2.08593765e-004
,,,-4.97500000e-009,2.00000014e-004
,,,-4.95000000e-009,1.82031263e-004
,,,-4.92500000e-009,1.57031261e-004
,,,-4.90000000e-009,1.28125009e-004
,,,-4.87500000e-009,9.60937568e-005
,,,-4.85000000e-009,6.48437546e-005
,,,-4.82500000e-009,3.67187526e-005
,,,-4.80000000e-009,1.48437511e-005
,,,-4.77500000e-009,0.00000000e+000
,,,-4.75000000e-009,-7.03125050e-006
,,,-4.72500000e-009,-7.03125050e-006
,,,-4.70000000e-009,-2.34375017e-006
,,,-4.67500000e-009,3.90625028e-006
,,,-4.65000000e-009,1.09375008e-005
,,,-4.62500000e-009,1.32812509e-005
,,,-4.60000000e-009,1.01562507e-005
,,,-4.57500000e-009,0.00000000e+000
,,,-4.55000000e-009,-1.79687513e-005
,,,-4.52500000e-009,-4.37500031e-005
,,,-4.50000000e-009,-7.42187553e-005
,,,-4.47500000e-009,-1.07812508e-004
,,,-4.45000000e-009,-1.40625010e-004
,,,-4.42500000e-009,-1.68750012e-004
,,,-4.40000000e-009,-1.89062513e-004
,,,-4.37500000e-009,-2.00000014e-004
,,,-4.35000000e-009,-1.94531264e-004
,,,-4.32500000e-009,-1.78906263e-004
,,,-4.30000000e-009,-1.54687511e-004
,,,-4.27500000e-009,-1.24218759e-004
,,,-4.25000000e-009,-9.06250064e-005
,,,-4.22500000e-009,-5.62500040e-005
,,,-4.20000000e-009,-2.50000018e-005
,,,-4.17500000e-009,0.00000000e+000
,,,-4.15000000e-009,1.87500013e-005
,,,-4.12500000e-009,3.04687522e-005
,,,-4.10000000e-009,3.35937524e-005
,,,-4.07500000e-009,3.12500022e-005
,,,-4.05000000e-009,2.42187517e-005
,,,-4.02500000e-009,1.56250011e-005
,,,-4.00000000e-009,7.03125050e-006
,,,-3.97500000e-009,0.00000000e+000
,,,-3.95000000e-009,-3.90625028e-006
,,,-3.92500000e-009,-6.25000044e-006
,,,-3.90000000e-009,-5.46875039e-006
,,,-3.87500000e-009,-3.12500022e-006
,,,-3.85000000e-009,0.00000000e+000
,,,-3.82500000e-009,7.81250055e-007
,,,-3.80000000e-009,1.56250011e-006
,,,-3.77500000e-009,0.00000000e+000
,,,-3.75000000e-009,-3.90625028e-006
,,,-3.72500000e-009,-9.37500066e-006
,,,-3.70000000e-009,-1.48437511e-005
,,,-3.67500000e-009,-2.03125014e-005
,,,-3.65000000e-009,-2.26562516e-005
,,,-3.62500000e-009,-2.03125014e-005
,,,-3.60000000e-009,-1.32812509e-005
,,,-3.57500000e-009,0.00000000e+000
,,,-3.55000000e-009,1.87500013e-005
,,,-3.52500000e-009,4.21875030e-005
,,,-3.50000000e-009,7.03125050e-005
,,,-3.47500000e-009,1.00781257e-004
,,,-3.45000000e-009,1.30468759e-004
,,,-3.42500000e-009,1.58593761e-004
,,,-3.40000000e-009,1.82812513e-004
,,,-3.37500000e-009,2.00000014e-004
,,,-3.35000000e-009,2.04687514e-004
,,,-3.32500000e-009,2.00781264e-004
,,,-3.30000000e-009,1.86718763e-004
,,,-3.27500000e-009,1.63281262e-004
,,,-3.25000000e-009,1.32031259e-004
,,,-3.22500000e-009,9.21875065e-005
,,,-3.20000000e-009,4.76562534e-005
,,,-3.17500000e-009,0.00000000e+000
,,,-3.15000000e-009,-4.92187535e-005
,,,-3.12500000e-009,-9.60937568e-005
,,,-3.10000000e-009,-1.37500010e-004
,,,-3.07500000e-009,-1.71093762e-004
,,,-3.05000000e-009,-1.95312514e-004
,,,-3.02500000e-009,-2.08593765e-004
,,,-3.00000000e-009,-2.10156265e-004
,,,-2.97500000e-009,-2.00000014e-004
,,,-2.95000000e-009,-1.77343763e-004
,,,-2.92500000e-009,-1.48437511e-004
,,,-2.90000000e-009,-1.14062508e-004
,,,-2.87500000e-009,-7.96875056e-005
,,,-2.85000000e-009,-4.84375034e-005
,,,-2.82500000e-009,-2.26562516e-005
,,,-2.80000000e-009,-5.46875039e-006
,,,-2.77500000e-009,0.00000000e+000
,,,-2.75000000e-009,-5.46875039e-006
,,,-2.72500000e-009,-2.26562516e-005
,,,-2.70000000e-009,-4.76562534e-005
,,,-2.67500000e-009,-7.89062556e-005
,,,-2.65000000e-009,-1.13281258e-004
,,,-2.62500000e-009,-1.46093760e-004
,,,-2.60000000e-009,-1.75781262e-004
,,,-2.57500000e-009,-2.00000014e-004
,,,-2.55000000e-009,-2.14843765e-004
,,,-2.52500000e-009,-2.22656266e-004
,,,-2.50000000e-009,-2.24218766e-004
,,,-2.47500000e-009,-2.20312516e-004
,,,-2.45000000e-009,-2.13281265e-004
,,,-2.42500000e-009,-2.07031265e-004
,,,-2.40000000e-009,-2.01562514e-004
,,,-2.37500000e-009,-2.00000014e-004
,,,-2.35000000e-009,-1.98437514e-004
,,,-2.32500000e-009,-2.01562514e-004
,,,-2.30000000e-009,-2.06250015e-004
,,,-2.27500000e-009,-2.12500015e-004
,,,-2.25000000e-009,-2.16406265e-004
,,,-2.22500000e-009,-2.17187515e-004
,,,-2.20000000e-009,-2.11718765e-004
,,,-2.17500000e-009,-2.00000014e-004
,,,-2.15000000e-009,-1.78125013e-004
,,,-2.12500000e-009,-1.51562511e-004
,,,-2.10000000e-009,-1.20312509e-004
,,,-2.07500000e-009,-8.75000062e-005
,,,-2.05000000e-009,-5.62500040e-005
,,,-2.02500000e-009,-2.96875021e-005
,,,-2.00000000e-009,-1.01562507e-005
,,,-1.97500000e-009,0.00000000e+000
,,,-1.95000000e-009,-7.81250055e-007
,,,-1.92500000e-009,-1.17187508e-005
,,,-1.90000000e-009,-3.20312523e-005
,,,-1.87500000e-009,-6.01562543e-005
,,,-1.85000000e-009,-9.37500066e-005
,,,-1.82500000e-009,-1.29687509e-004
,,,-1.80000000e-009,-1.66406262e-004
,,,-1.77500000e-009,-2.00000014e-004
,,,-1.75000000e-009,-2.25781266e-004
,,,-1.72500000e-009,-2.45312517e-004
,,,-1.70000000e-009,-2.56250018e-004
,,,-1.67500000e-009,-2.59375018e-004
,,,-1.65000000e-009,-2.54687518e-004
,,,-1.62500000e-009,-2.42187517e-004
,,,-1.60000000e-009,-2.23437516e-004
,,,-1.57500000e-009,-2.00000014e-004
,,,-1.55000000e-009,-1.73437512e-004
,,,-1.52500000e-009,-1.46093760e-004
,,,-1.50000000e-009,-1.17968758e-004
,,,-1.47500000e-009,-8.98437564e-005
,,,-1.45000000e-009,-6.40625045e-005
,,,-1.42500000e-009,-3.98437528e-005
,,,-1.40000000e-009,-1.79687513e-005
,,,-1.37500000e-009,0.00000000e+000
,,,-1.35000000e-009,7.81250055e-006
,,,-1.32500000e-009,1.17187508e-005
,,,-1.30000000e-009,1.25000009e-005
,,,-1.27500000e-009,1.09375008e-005
,,,-1.25000000e-009,7.81250055e-006
,,,-1.22500000e-009,3.90625028e-006
,,,-1.20000000e-009,7.81250055e-007
,,,-1.17500000e-009,0.00000000e+000
,,,-1.15000000e-009,-1.56250011e-005
,,,-1.12500000e-009,-3.04687522e-005
,,,-1.10000000e-009,-4.21875030e-005
,,,-1.07500000e-009,-4.92187535e-005
,,,-1.05000000e-009,-4.92187535e-005
,,,-1.02500000e-009,-4.06250029e-005
,,,-1.00000000e-009,-2.42187517e-005
,,,-9.75000000e-010,0.00000000e+000
,,,-9.50000000e-010,3.12500022e-006
,,,-9.25000000e-010,6.25000044e-006
,,,-9.00000000e-010,7.81250055e-006
,,,-8.75000000e-010,8.59375061e-006
,,,-8.50000000e-010,8.59375061e-006
,,,-8.25000000e-010,7.81250055e-006
,,,-8.00000000e-010,4.68750033e-006
,,,-7.75000000e-010,0.00000000e+000
,,,-7.50000000e-010,-4.68750033e-005
,,,-7.25000000e-010,-1.02343757e-004
,,,-7.00000000e-010,-1.61718761e-004
,,,-6.75000000e-010,-2.21875016e-004
,,,-6.50000000e-010,-2.78125020e-004
,,,-6.25000000e-010,-3.26562523e-004
,,,-6.00000000e-010,-3.67187526e-004
,,,-5.75000000e-010,-4.00000028e-004
,,,-5.50000000e-010,-4.71875033e-004
,,,-5.25000000e-010,-5.49218789e-004
,,,-5.00000000e-010,-6.32812545e-004
,,,-4.75000000e-010,-7.24218801e-004
,,,-4.50000000e-010,-8.24218808e-004
,,,-4.25000000e-010,-9.35156316e-004
,,,-4.00000000e-010,-1.05937507e-003
,,,-3.75000000e-010,-1.20000008e-003
,,,-3.50000000e-010,-1.39921885e-003
,,,-3.25000000e-010,-1.62343761e-003
,,,-3.00000000e-010,-1.86796888e-003
,,,-2.75000000e-010,-2.12734390e-003
,,,-2.50000000e-010,-2.39531267e-003
,,,-2.25000000e-010,-2.66640644e-003
,,,-2.00000000e-010,-2.93593771e-003
,,,-1.75000000e-010,-3.20000023e-003
,,,-1.50000000e-010,-3.48203150e-003
,,,-1.25000000e-010,-3.76250027e-003
,,,-1.00000000e-010,-4.04218779e-003
,,,-7.50000000e-011,-4.31796906e-003
,,,-5.00000000e-011,-4.59140657e-003
,,,-2.50000000e-011,-4.86171909e-003
,,,0.00000000e+000,-5.13046911e-003
,,,2.50000000e-011,-5.40000038e-003
,,,5.00000000e-011,-5.67421915e-003
,,,7.50000000e-011,-5.95937542e-003
,,,1.00000000e-010,-6.25390669e-003
,,,1.25000000e-010,-6.55859421e-003
,,,1.50000000e-010,-6.86796924e-003
,,,1.75000000e-010,-7.18125051e-003
,,,2.00000000e-010,-7.49296928e-003
,,,2.25000000e-010,-7.80000055e-003
,,,2.50000000e-010,-8.07890682e-003
,,,2.75000000e-010,-8.35546934e-003
,,,3.00000000e-010,-8.62578186e-003
,,,3.25000000e-010,-8.88906313e-003
,,,3.50000000e-010,-9.14062565e-003
,,,3.75000000e-010,-9.37812566e-003
,,,4.00000000e-010,-9.59843818e-003
,,,4.25000000e-010,-9.80000069e-003
,,,4.50000000e-010,-9.94296945e-003
,,,4.75000000e-010,-1.00773445e-002
,,,5.00000000e-010,-1.02054695e-002
,,,5.25000000e-010,-1.03296882e-002
,,,5.50000000e-010,-1.04515632e-002
,,,5.75000000e-010,-1.05710945e-002
,,,6.00000000e-010,-1.06875008e-002
,,,6.25000000e-010,-1.08000008e-002
,,,6.50000000e-010,-1.08562508e-002
,,,6.75000000e-010,-1.09140633e-002
,,,7.00000000e-010,-1.09734383e-002
,,,7.25000000e-010,-1.10328133e-002
,,,7.50000000e-010,-1.10882820e-002
,,,7.75000000e-010,-1.11375008e-002
,,,8.00000000e-010,-1.11757820e-002
,,,8.25000000e-010,-1.12000008e-002
,,,8.50000000e-010,-1.11562508e-002
,,,8.75000000e-010,-1.11046883e-002
,,,9.00000000e-010,-1.10476570e-002
,,,9.25000000e-010,-1.09898445e-002
,,,9.50000000e-010,-1.09343758e-002
,,,9.75000000e-010,-1.08835945e-002
,,,1.00000000e-009,-1.08382820e-002
,,,1.02500000e-009,-1.08000008e-002
,,,1.05000000e-009,-1.07226570e-002
,,,1.07500000e-009,-1.06539070e-002
,,,1.10000000e-009,-1.05960945e-002
,,,1.12500000e-009,-1.05476570e-002
,,,1.15000000e-009,-1.05070320e-002
,,,1.17500000e-009,-1.04710945e-002
,,,1.20000000e-009,-1.04367195e-002
,,,1.22500000e-009,-1.04000007e-002
,,,1.25000000e-009,-1.03187507e-002
,,,1.27500000e-009,-1.02296882e-002
,,,1.30000000e-009,-1.01335945e-002
,,,1.32500000e-009,-1.00312507e-002
,,,1.35000000e-009,-9.92578195e-003
,,,1.37500000e-009,-9.81875069e-003
,,,1.40000000e-009,-9.70937569e-003
,,,1.42500000e-009,-9.60000068e-003
,,,1.45000000e-009,-9.46250067e-003
,,,1.47500000e-009,-9.31953191e-003
,,,1.50000000e-009,-9.17343815e-003
,,,1.52500000e-009,-9.02343814e-003
,,,1.55000000e-009,-8.87031313e-003
,,,1.57500000e-009,-8.71562562e-003
,,,1.60000000e-009,-8.55859436e-003
,,,1.62500000e-009,-8.40000059e-003
,,,1.65000000e-009,-8.22265683e-003
,,,1.67500000e-009,-8.03984432e-003
,,,1.70000000e-009,-7.85468806e-003
,,,1.72500000e-009,-7.66953179e-003
,,,1.75000000e-009,-7.48906303e-003
,,,1.77500000e-009,-7.31562552e-003
,,,1.80000000e-009,-7.15234426e-003
,,,1.82500000e-009,-7.00000050e-003
,,,1.85000000e-009,-6.85156298e-003
,,,1.87500000e-009,-6.70546922e-003
,,,1.90000000e-009,-6.56015671e-003
,,,1.92500000e-009,-6.41250045e-003
,,,1.95000000e-009,-6.26328169e-003
,,,1.97500000e-009,-6.11171918e-003
,,,2.00000000e-009,-5.95703167e-003
,,,2.02500000e-009,-5.80000041e-003
,,,2.05000000e-009,-5.64140665e-003
,,,2.07500000e-009,-5.47656289e-003
,,,2.10000000e-009,-5.30859413e-003
,,,2.12500000e-009,-5.14296911e-003
,,,2.15000000e-009,-4.98437535e-003
,,,2.17500000e-009,-4.83828159e-003
,,,2.20000000e-009,-4.70937533e-003
,,,2.22500000e-009,-4.60000033e-003
,,,2.25000000e-009,-4.51718782e-003
,,,2.27500000e-009,-4.44296906e-003
,,,2.30000000e-009,-4.37500031e-003
,,,2.32500000e-009,-4.30859405e-003
,,,2.35000000e-009,-4.24062530e-003
,,,2.37500000e-009,-4.16796905e-003
,,,2.40000000e-009,-4.08828154e-003
,,,2.42500000e-009,-4.00000028e-003
,,,2.45000000e-009,-3.90781278e-003
,,,2.47500000e-009,-3.79765652e-003
,,,2.50000000e-009,-3.67187526e-003
,,,2.52500000e-009,-3.53593775e-003
,,,2.55000000e-009,-3.39375024e-003
,,,2.57500000e-009,-3.25390648e-003
,,,2.60000000e-009,-3.12109397e-003
,,,2.62500000e-009,-3.00000021e-003
,,,2.65000000e-009,-2.90468771e-003
,,,2.67500000e-009,-2.81875020e-003
,,,2.70000000e-009,-2.73984394e-003
,,,2.72500000e-009,-2.66718769e-003
,,,2.75000000e-009,-2.59843768e-003
,,,2.77500000e-009,-2.53203143e-003
,,,2.80000000e-009,-2.46640642e-003
,,,2.82500000e-009,-2.40000017e-003
,,,2.85000000e-009,-2.33984392e-003
,,,2.87500000e-009,-2.27109391e-003
,,,2.90000000e-009,-2.19453141e-003
,,,2.92500000e-009,-2.11250015e-003
,,,2.95000000e-009,-2.02890639e-003
,,,2.97500000e-009,-1.94609389e-003
,,,3.00000000e-009,-1.86953138e-003
,,,3.02500000e-009,-1.80000013e-003
,,,3.05000000e-009,-1.74843762e-003
,,,3.07500000e-009,-1.70078137e-003
,,,3.10000000e-009,-1.65546887e-003
,,,3.12500000e-009,-1.60937511e-003
,,,3.15000000e-009,-1.56171886e-003
,,,3.17500000e-009,-1.51171886e-003
,,,3.20000000e-009,-1.45781260e-003
,,,3.22500000e-009,-1.40000010e-003
,,,3.25000000e-009,-1.34609385e-003
,,,3.27500000e-009,-1.28750009e-003
,,,3.30000000e-009,-1.22578134e-003
,,,3.32500000e-009,-1.16484383e-003
,,,3.35000000e-009,-1.10781258e-003
,,,3.37500000e-009,-1.05937507e-003
,,,3.40000000e-009,-1.02265632e-003
,,,3.42500000e-009,-1.00000007e-003
,,,3.45000000e-009,-9.98437571e-004
,,,3.47500000e-009,-1.00468757e-003
,,,3.50000000e-009,-1.01484382e-003
,,,3.52500000e-009,-1.02500007e-003
,,,3.55000000e-009,-1.03203132e-003
,,,3.57500000e-009,-1.03203132e-003
,,,3.60000000e-009,-1.02187507e-003
,,,3.62500000e-009,-1.00000007e-003
,,,3.65000000e-009,-9.71093819e-004
,,,3.67500000e-009,-9.29687566e-004
,,,3.70000000e-009,-8.76562562e-004
,,,3.72500000e-009,-8.16406308e-004
,,,3.75000000e-009,-7.54687553e-004
,,,3.77500000e-009,-6.94531299e-004
,,,3.80000000e-009,-6.42187545e-004
,,,3.82500000e-009,-6.00000042e-004
,,,3.85000000e-009,-5.77343791e-004
,,,3.87500000e-009,-5.65625040e-004
,,,3.90000000e-009,-5.64062540e-004
,,,3.92500000e-009,-5.69531290e-004
,,,3.95000000e-009,-5.78906291e-004
,,,3.97500000e-009,-5.89843792e-004
,,,4.00000000e-009,-5.96875042e-004
,,,4.02500000e-009,-6.00000042e-004
,,,4.05000000e-009,-5.98437542e-004
,,,4.07500000e-009,-5.87500042e-004
,,,4.10000000e-009,-5.67187540e-004
,,,4.12500000e-009,-5.39062538e-004
,,,4.15000000e-009,-5.05468786e-004
,,,4.17500000e-009,-4.68750033e-004
,,,4.20000000e-009,-4.32812531e-004
,,,4.22500000e-009,-4.00000028e-004
,,,4.25000000e-009,-3.77343777e-004
,,,4.27500000e-009,-3.61718776e-004
,,,4.30000000e-009,-3.53125025e-004
,,,4.32500000e-009,-3.50781275e-004
,,,4.35000000e-009,-3.55468775e-004
,,,4.37500000e-009,-3.65625026e-004
,,,4.40000000e-009,-3.80468777e-004
,,,4.42500000e-009,-4.00000028e-004
,,,4.45000000e-009,-4.24218780e-004
,,,4.47500000e-009,-4.50000032e-004
,,,4.50000000e-009,-4.75781284e-004
,,,4.52500000e-009,-5.02343786e-004
,,,4.55000000e-009,-5.28125037e-004
,,,4.57500000e-009,-5.53125039e-004
,,,4.60000000e-009,-5.77343791e-004
,,,4.62500000e-009,-6.00000042e-004
,,,4.65000000e-009,-6.20312544e-004
,,,4.67500000e-009,-6.36718795e-004
,,,4.70000000e-009,-6.46875046e-004
,,,4.72500000e-009,-6.51562546e-004
,,,4.75000000e-009,-6.49218796e-004
,,,4.77500000e-009,-6.39843795e-004
,,,4.80000000e-009,-6.22656294e-004
,,,4.82500000e-009,-6.00000042e-004
,,,4.85000000e-009,-5.69531290e-004
,,,4.87500000e-009,-5.35156288e-004
,,,4.90000000e-009,-5.00781285e-004
,,,4.92500000e-009,-4.67968783e-004
,,,4.95000000e-009,-4.39062531e-004
,,,4.97500000e-009,-4.17187530e-004
,,,5.00000000e-009,-4.03125029e-004
,,,5.02500000e-009,-4.00000028e-004
,,,5.05000000e-009,-4.04687529e-004
,,,5.07500000e-009,-4.18750030e-004
,,,5.10000000e-009,-4.40625031e-004
,,,5.12500000e-009,-4.68750033e-004
,,,5.15000000e-009,-5.00781285e-004
,,,5.17500000e-009,-5.35156288e-004
,,,5.20000000e-009,-5.68750040e-004
,,,5.22500000e-009,-6.00000042e-004
,,,5.25000000e-009,-6.22656294e-004
,,,5.27500000e-009,-6.39843795e-004
,,,5.30000000e-009,-6.49218796e-004
,,,5.32500000e-009,-6.51562546e-004
,,,5.35000000e-009,-6.46875046e-004
,,,5.37500000e-009,-6.35937545e-004
,,,5.40000000e-009,-6.20312544e-004
,,,5.42500000e-009,-6.00000042e-004
,,,5.45000000e-009,-5.72656291e-004
,,,5.47500000e-009,-5.43750038e-004
,,,5.50000000e-009,-5.14843786e-004
,,,5.52500000e-009,-4.87500035e-004
,,,5.55000000e-009,-4.61718783e-004
,,,5.57500000e-009,-4.38281281e-004
,,,5.60000000e-009,-4.17968780e-004
,,,5.62500000e-009,-4.00000028e-004
,,,5.65000000e-009,-3.82812527e-004
,,,5.67500000e-009,-3.65625026e-004
,,,5.70000000e-009,-3.47656275e-004
,,,5.72500000e-009,-3.26562523e-004
,,,5.75000000e-009,-3.02343771e-004
,,,5.77500000e-009,-2.72656269e-004
,,,5.80000000e-009,-2.38281267e-004
,,,5.82500000e-009,-2.00000014e-004
,,,5.85000000e-009,-1.59375011e-004
,,,5.87500000e-009,-1.18750008e-004
,,,5.90000000e-009,-7.89062556e-005
