RawData/DifferentLengths/R3/R3_2pt2B_5mV/wave015_Ch2.csv

"Record Length",1000,"Points",-7.72500000e-009,2.57812518e-004
"Sample Interval",2.50000000e-011,s,-7.70000000e-009,2.63281269e-004
"Trigger Point",309,"Samples",-7.67500000e-009,2.60937518e-004
"Trigger Time",2.08630034e-011,s,-7.65000000e-009,2.48437518e-004
"",,,-7.62500000e-009,2.28125016e-004
"Horizontal Offset",-7.72500000e-009,s,-7.60000000e-009,2.00000014e-004
,,,-7.57500000e-009,1.62500012e-004
,,,-7.55000000e-009,1.22656259e-004
,,,-7.52500000e-009,8.35937559e-005
,,,-7.50000000e-009,4.84375034e-005
,,,-7.47500000e-009,1.95312514e-005
,,,-7.45000000e-009,1.56250011e-006
,,,-7.42500000e-009,-4.68750033e-006
,,,-7.40000000e-009,0.00000000e+000
,,,-7.37500000e-009,1.56250011e-005
,,,-7.35000000e-009,4.14062529e-005
,,,-7.32500000e-009,7.34375052e-005
,,,-7.30000000e-009,1.07812508e-004
,,,-7.27500000e-009,1.41406260e-004
,,,-7.25000000e-009,1.70312512e-004
,,,-7.22500000e-009,1.90625013e-004
,,,-7.20000000e-009,2.00000014e-004
,,,-7.17500000e-009,1.94531264e-004
,,,-7.15000000e-009,1.78125013e-004
,,,-7.12500000e-009,1.52343761e-004
,,,-7.10000000e-009,1.20312509e-004
,,,-7.07500000e-009,8.51562560e-005
,,,-7.05000000e-009,5.15625036e-005
,,,-7.02500000e-009,2.18750015e-005
,,,-7.00000000e-009,0.00000000e+000
,,,-6.97500000e-009,-1.40625010e-005
,,,-6.95000000e-009,-1.95312514e-005
,,,-6.92500000e-009,-1.87500013e-005
,,,-6.90000000e-009,-1.25000009e-005
,,,-6.87500000e-009,-4.68750033e-006
,,,-6.85000000e-009,7.81250055e-007
,,,-6.82500000e-009,3.90625028e-006
,,,-6.80000000e-009,0.00000000e+000
,,,-6.77500000e-009,-1.01562507e-005
,,,-6.75000000e-009,-2.89062520e-005
,,,-6.72500000e-009,-5.39062538e-005
,,,-6.70000000e-009,-8.43750060e-005
,,,-6.67500000e-009,-1.16406258e-004
,,,-6.65000000e-009,-1.47656260e-004
,,,-6.62500000e-009,-1.76562512e-004
,,,-6.60000000e-009,-2.00000014e-004
,,,-6.57500000e-009,-2.13281265e-004
,,,-6.55000000e-009,-2.21093766e-004
,,,-6.52500000e-009,-2.21875016e-004
,,,-6.50000000e-009,-2.18750015e-004
,,,-6.47500000e-009,-2.13281265e-004
,,,-6.45000000e-009,-2.07031265e-004
,,,-6.42500000e-009,-2.02343764e-004
,,,-6.40000000e-009,-2.00000014e-004
,,,-6.37500000e-009,-1.97656264e-004
,,,-6.35000000e-009,-1.97656264e-004
,,,-6.32500000e-009,-2.00781264e-004
,,,-6.30000000e-009,-2.04687514e-004
,,,-6.27500000e-009,-2.07812515e-004
,,,-6.25000000e-009,-2.09375015e-004
,,,-6.22500000e-009,-2.07031265e-004
,,,-6.20000000e-009,-2.00000014e-004
,,,-6.17500000e-009,-1.83593763e-004
,,,-6.15000000e-009,-1.61718761e-004
,,,-6.12500000e-009,-1.36718760e-004
,,,-6.10000000e-009,-1.07812508e-004
,,,-6.07500000e-009,-7.81250055e-005
,,,-6.05000000e-009,-4.92187535e-005
,,,-6.02500000e-009,-2.26562516e-005
,,,-6.00000000e-009,0.00000000e+000
,,,-5.97500000e-009,1.95312514e-005
,,,-5.95000000e-009,3.35937524e-005
,,,-5.92500000e-009,4.06250029e-005
,,,-5.90000000e-009,4.21875030e-005
,,,-5.87500000e-009,3.75000027e-005
,,,-5.85000000e-009,2.81250020e-005
,,,-5.82500000e-009,1.48437511e-005
,,,-5.80000000e-009,0.00000000e+000
,,,-5.77500000e-009,-1.40625010e-005
,,,-5.75000000e-009,-2.57812518e-005
,,,-5.72500000e-009,-3.51562525e-005
,,,-5.70000000e-009,-3.98437528e-005
,,,-5.67500000e-009,-3.90625028e-005
,,,-5.65000000e-009,-3.20312523e-005
,,,-5.62500000e-009,-1.87500013e-005
,,,-5.60000000e-009,0.00000000e+000
,,,-5.57500000e-009,2.42187517e-005
,,,-5.55000000e-009,5.23437537e-005
,,,-5.52500000e-009,8.20312558e-005
,,,-5.50000000e-009,1.12500008e-004
,,,-5.47500000e-009,1.40625010e-004
,,,-5.45000000e-009,1.65625012e-004
,,,-5.42500000e-009,1.85937513e-004
,,,-5.40000000e-009,2.00000014e-004
,,,-5.37500000e-009,2.06250015e-004
,,,-5.35000000e-009,2.07031265e-004
,,,-5.32500000e-009,2.04687514e-004
,,,-5.30000000e-009,2.00781264e-004
,,,-5.27500000e-009,1.96093764e-004
,,,-5.25000000e-009,1.92968764e-004
,,,-5.22500000e-009,1.93750014e-004
,,,-5.20000000e-009,2.00000014e-004
,,,-5.17500000e-009,2.11718765e-004
,,,-5.15000000e-009,2.29687516e-004
,,,-5.12500000e-009,2.53906268e-004
,,,-5.10000000e-009,2.82031270e-004
,,,-5.07500000e-009,3.13281272e-004
,,,-5.05000000e-009,3.44531274e-004
,,,-5.02500000e-009,3.74218776e-004
,,,-5.00000000e-009,4.00000028e-004
,,,-4.97500000e-009,4.19531280e-004
,,,-4.95000000e-009,4.33593781e-004
,,,-4.92500000e-009,4.41406281e-004
,,,-4.90000000e-009,4.42968781e-004
,,,-4.87500000e-009,4.39062531e-004
,,,-4.85000000e-009,4.30468780e-004
,,,-4.82500000e-009,4.16406279e-004
,,,-4.80000000e-009,4.00000028e-004
,,,-4.77500000e-009,3.77343777e-004
,,,-4.75000000e-009,3.53125025e-004
,,,-4.72500000e-009,3.27343773e-004
,,,-4.70000000e-009,3.01562521e-004
,,,-4.67500000e-009,2.75000019e-004
,,,-4.65000000e-009,2.49218768e-004
,,,-4.62500000e-009,2.23437516e-004
,,,-4.60000000e-009,2.00000014e-004
,,,-4.57500000e-009,1.76562512e-004
,,,-4.55000000e-009,1.57812511e-004
,,,-4.52500000e-009,1.43750010e-004
,,,-4.50000000e-009,1.37500010e-004
,,,-4.47500000e-009,1.39062510e-004
,,,-4.45000000e-009,1.49218761e-004
,,,-4.42500000e-009,1.69531262e-004
,,,-4.40000000e-009,2.00000014e-004
,,,-4.37500000e-009,2.37500017e-004
,,,-4.35000000e-009,2.82812520e-004
,,,-4.32500000e-009,3.33593774e-004
,,,-4.30000000e-009,3.88281277e-004
,,,-4.27500000e-009,4.44531281e-004
,,,-4.25000000e-009,5.00000035e-004
,,,-4.22500000e-009,5.52343789e-004
,,,-4.20000000e-009,6.00000042e-004
,,,-4.17500000e-009,6.33593795e-004
,,,-4.15000000e-009,6.57812547e-004
,,,-4.12500000e-009,6.71875048e-004
,,,-4.10000000e-009,6.75000048e-004
,,,-4.07500000e-009,6.69531297e-004
,,,-4.05000000e-009,6.54687546e-004
,,,-4.02500000e-009,6.30468795e-004
,,,-4.00000000e-009,6.00000042e-004
,,,-3.97500000e-009,5.58593790e-004
,,,-3.95000000e-009,5.12500036e-004
,,,-3.92500000e-009,4.62500033e-004
,,,-3.90000000e-009,4.10156279e-004
,,,-3.87500000e-009,3.57031275e-004
,,,-3.85000000e-009,3.03125021e-004
,,,-3.82500000e-009,2.50000018e-004
,,,-3.80000000e-009,2.00000014e-004
,,,-3.77500000e-009,1.52343761e-004
,,,-3.75000000e-009,1.10156258e-004
,,,-3.72500000e-009,7.34375052e-005
,,,-3.70000000e-009,4.37500031e-005
,,,-3.67500000e-009,2.18750015e-005
,,,-3.65000000e-009,7.03125050e-006
,,,-3.62500000e-009,0.00000000e+000
,,,-3.60000000e-009,0.00000000e+000
,,,-3.57500000e-009,4.68750033e-006
,,,-3.55000000e-009,1.32812509e-005
,,,-3.52500000e-009,2.18750015e-005
,,,-3.50000000e-009,2.89062520e-005
,,,-3.47500000e-009,3.12500022e-005
,,,-3.45000000e-009,2.81250020e-005
,,,-3.42500000e-009,1.79687513e-005
,,,-3.40000000e-009,0.00000000e+000
,,,-3.37500000e-009,-2.42187517e-005
,,,-3.35000000e-009,-5.39062538e-005
,,,-3.32500000e-009,-8.67187561e-005
,,,-3.30000000e-009,-1.20312509e-004
,,,-3.27500000e-009,-1.50781261e-004
,,,-3.25000000e-009,-1.75781262e-004
,,,-3.22500000e-009,-1.92187514e-004
,,,-3.20000000e-009,-2.00000014e-004
,,,-3.17500000e-009,-1.92187514e-004
,,,-3.15000000e-009,-1.75000012e-004
,,,-3.12500000e-009,-1.50781261e-004
,,,-3.10000000e-009,-1.21093759e-004
,,,-3.07500000e-009,-8.82812562e-005
,,,-3.05000000e-009,-5.54687539e-005
,,,-3.02500000e-009,-2.50000018e-005
,,,-3.00000000e-009,0.00000000e+000
,,,-2.97500000e-009,2.10937515e-005
,,,-2.95000000e-009,3.43750024e-005
,,,-2.92500000e-009,3.98437528e-005
,,,-2.90000000e-009,3.90625028e-005
,,,-2.87500000e-009,3.20312523e-005
,,,-2.85000000e-009,2.18750015e-005
,,,-2.82500000e-009,1.09375008e-005
,,,-2.80000000e-009,0.00000000e+000
,,,-2.77500000e-009,-7.03125050e-006
,,,-2.75000000e-009,-1.17187508e-005
,,,-2.72500000e-009,-1.32812509e-005
,,,-2.70000000e-009,-1.25000009e-005
,,,-2.67500000e-009,-1.01562507e-005
,,,-2.65000000e-009,-6.25000044e-006
,,,-2.62500000e-009,-2.34375017e-006
,,,-2.60000000e-009,0.00000000e+000
,,,-2.57500000e-009,1.56250011e-006
,,,-2.55000000e-009,1.56250011e-006
,,,-2.52500000e-009,7.81250055e-007
,,,-2.50000000e-009,0.00000000e+000
,,,-2.47500000e-009,-7.81250055e-007
,,,-2.45000000e-009,-1.56250011e-006
,,,-2.42500000e-009,-1.56250011e-006
,,,-2.40000000e-009,0.00000000e+000
,,,-2.37500000e-009,2.34375017e-006
,,,-2.35000000e-009,6.25000044e-006
,,,-2.32500000e-009,1.01562507e-005
,,,-2.30000000e-009,1.25000009e-005
,,,-2.27500000e-009,1.32812509e-005
,,,-2.25000000e-009,1.17187508e-005
,,,-2.22500000e-009,7.03125050e-006
,,,-2.20000000e-009,0.00000000e+000
,,,-2.17500000e-009,-9.37500066e-006
,,,-2.15000000e-009,-2.03125014e-005
,,,-2.12500000e-009,-2.96875021e-005
,,,-2.10000000e-009,-3.51562525e-005
,,,-2.07500000e-009,-3.67187526e-005
,,,-2.05000000e-009,-3.20312523e-005
,,,-2.02500000e-009,-1.95312514e-005
,,,-2.00000000e-009,0.00000000e+000
,,,-1.97500000e-009,2.57812518e-005
,,,-1.95000000e-009,5.70312540e-005
,,,-1.92500000e-009,9.06250064e-005
,,,-1.90000000e-009,1.23437509e-004
,,,-1.87500000e-009,1.53125011e-004
,,,-1.85000000e-009,1.77343763e-004
,,,-1.82500000e-009,1.93750014e-004
,,,-1.80000000e-009,2.00000014e-004
,,,-1.77500000e-009,1.92187514e-004
,,,-1.75000000e-009,1.75781262e-004
,,,-1.72500000e-009,1.50781261e-004
,,,-1.70000000e-009,1.20312509e-004
,,,-1.67500000e-009,8.67187561e-005
,,,-1.65000000e-009,5.39062538e-005
,,,-1.62500000e-009,2.42187517e-005
,,,-1.60000000e-009,0.00000000e+000
,,,-1.57500000e-009,-2.03125014e-005
,,,-1.55000000e-009,-3.28125023e-005
,,,-1.52500000e-009,-3.90625028e-005
,,,-1.50000000e-009,-3.82812527e-005
,,,-1.47500000e-009,-3.20312523e-005
,,,-1.45000000e-009,-2.26562516e-005
,,,-1.42500000e-009,-1.09375008e-005
,,,-1.40000000e-009,0.00000000e+000
,,,-1.37500000e-009,1.56250011e-006
,,,-1.35000000e-009,0.00000000e+000
,,,-1.32500000e-009,-3.12500022e-006
,,,-1.30000000e-009,-7.03125050e-006
,,,-1.27500000e-009,-1.01562507e-005
,,,-1.25000000e-009,-1.09375008e-005
,,,-1.22500000e-009,-7.81250055e-006
,,,-1.20000000e-009,0.00000000e+000
,,,-1.17500000e-009,-3.90625028e-006
,,,-1.15000000e-009,-7.03125050e-006
,,,-1.12500000e-009,-8.59375061e-006
,,,-1.10000000e-009,-9.37500066e-006
,,,-1.07500000e-009,-7.81250055e-006
,,,-1.05000000e-009,-5.46875039e-006
,,,-1.02500000e-009,-2.34375017e-006
,,,-1.00000000e-009,0.00000000e+000
,,,-9.75000000e-010,-2.34375017e-005
,,,-9.50000000e-010,-5.31250038e-005
,,,-9.25000000e-010,-8.51562560e-005
,,,-9.00000000e-010,-1.17187508e-004
,,,-8.75000000e-010,-1.46875010e-004
,,,-8.50000000e-010,-1.70312512e-004
,,,-8.25000000e-010,-1.88281263e-004
,,,-8.00000000e-010,-2.00000014e-004
,,,-7.75000000e-010,-2.36718767e-004
,,,-7.50000000e-010,-2.76562520e-004
,,,-7.25000000e-010,-3.19531273e-004
,,,-7.00000000e-010,-3.65625026e-004
,,,-6.75000000e-010,-4.14843779e-004
,,,-6.50000000e-010,-4.69531283e-004
,,,-6.25000000e-010,-5.30468788e-004
,,,-6.00000000e-010,-6.00000042e-004
,,,-5.75000000e-010,-7.11718800e-004
,,,-5.50000000e-010,-8.39843809e-004
,,,-5.25000000e-010,-9.82031320e-004
,,,-5.00000000e-010,-1.13593758e-003
,,,-4.75000000e-010,-1.29687509e-003
,,,-4.50000000e-010,-1.46250010e-003
,,,-4.25000000e-010,-1.63046887e-003
,,,-4.00000000e-010,-1.80000013e-003
,,,-3.75000000e-010,-1.99296889e-003
,,,-3.50000000e-010,-2.19062516e-003
,,,-3.25000000e-010,-2.39140642e-003
,,,-3.00000000e-010,-2.59375018e-003
,,,-2.75000000e-010,-2.79609395e-003
,,,-2.50000000e-010,-2.99765646e-003
,,,-2.25000000e-010,-3.19843773e-003
,,,-2.00000000e-010,-3.40000024e-003
,,,-1.75000000e-010,-3.61015651e-003
,,,-1.50000000e-010,-3.82656277e-003
,,,-1.25000000e-010,-4.04921904e-003
,,,-1.00000000e-010,-4.27656280e-003
,,,-7.50000000e-011,-4.50703157e-003
,,,-5.00000000e-011,-4.73984409e-003
,,,-2.50000000e-011,-4.97109410e-003
,,,0.00000000e+000,-5.20000037e-003
,,,2.50000000e-011,-5.41796913e-003
,,,5.00000000e-011,-5.63593790e-003
,,,7.50000000e-011,-5.85078166e-003
,,,1.00000000e-010,-6.06093793e-003
,,,1.25000000e-010,-6.26406294e-003
,,,1.50000000e-010,-6.45546921e-003
,,,1.75000000e-010,-6.63437547e-003
,,,2.00000000e-010,-6.80000048e-003
,,,2.25000000e-010,-6.93125049e-003
,,,2.50000000e-010,-7.05781300e-003
,,,2.75000000e-010,-7.18125051e-003
,,,3.00000000e-010,-7.30468802e-003
,,,3.25000000e-010,-7.42812553e-003
,,,3.50000000e-010,-7.55234428e-003
,,,3.75000000e-010,-7.67656304e-003
,,,4.00000000e-010,-7.80000055e-003
,,,4.25000000e-010,-7.88828181e-003
,,,4.50000000e-010,-7.97890681e-003
,,,4.75000000e-010,-8.06953182e-003
,,,5.00000000e-010,-8.15703183e-003
,,,5.25000000e-010,-8.23750058e-003
,,,5.50000000e-010,-8.30781309e-003
,,,5.75000000e-010,-8.36250059e-003
,,,6.00000000e-010,-8.40000059e-003
,,,6.25000000e-010,-8.38125059e-003
,,,6.50000000e-010,-8.35156309e-003
,,,6.75000000e-010,-8.31640684e-003
,,,7.00000000e-010,-8.27968809e-003
,,,7.25000000e-010,-8.24609433e-003
,,,7.50000000e-010,-8.21953183e-003
,,,7.75000000e-010,-8.20312558e-003
,,,8.00000000e-010,-8.20000058e-003
,,,8.25000000e-010,-8.17656308e-003
,,,8.50000000e-010,-8.17031308e-003
,,,8.75000000e-010,-8.18203183e-003
,,,9.00000000e-010,-8.20937558e-003
,,,9.25000000e-010,-8.24921933e-003
,,,9.50000000e-010,-8.29765684e-003
,,,9.75000000e-010,-8.35000059e-003
,,,1.00000000e-009,-8.40000059e-003
,,,1.02500000e-009,-8.40937560e-003
,,,1.05000000e-009,-8.40937560e-003
,,,1.07500000e-009,-8.39921934e-003
,,,1.10000000e-009,-8.37812559e-003
,,,1.12500000e-009,-8.34765684e-003
,,,1.15000000e-009,-8.30781309e-003
,,,1.17500000e-009,-8.25859433e-003
,,,1.20000000e-009,-8.20000058e-003
,,,1.22500000e-009,-8.10234432e-003
,,,1.25000000e-009,-7.99453182e-003
,,,1.27500000e-009,-7.87734431e-003
,,,1.30000000e-009,-7.75234430e-003
,,,1.32500000e-009,-7.62109429e-003
,,,1.35000000e-009,-7.48437553e-003
,,,1.37500000e-009,-7.34375052e-003
,,,1.40000000e-009,-7.20000051e-003
,,,1.42500000e-009,-7.03437550e-003
,,,1.45000000e-009,-6.86718799e-003
,,,1.47500000e-009,-6.70000047e-003
,,,1.50000000e-009,-6.53828171e-003
,,,1.52500000e-009,-6.38515670e-003
,,,1.55000000e-009,-6.24375044e-003
,,,1.57500000e-009,-6.11484418e-003
,,,1.60000000e-009,-6.00000042e-003
,,,1.62500000e-009,-5.88750042e-003
,,,1.65000000e-009,-5.78125041e-003
,,,1.67500000e-009,-5.68046915e-003
,,,1.70000000e-009,-5.58359415e-003
,,,1.72500000e-009,-5.48828164e-003
,,,1.75000000e-009,-5.39375038e-003
,,,1.77500000e-009,-5.29765662e-003
,,,1.80000000e-009,-5.20000037e-003
,,,1.82500000e-009,-5.08906286e-003
,,,1.85000000e-009,-4.96953160e-003
,,,1.87500000e-009,-4.84218784e-003
,,,1.90000000e-009,-4.70937533e-003
,,,1.92500000e-009,-4.57500032e-003
,,,1.95000000e-009,-4.44375031e-003
,,,1.97500000e-009,-4.31796906e-003
,,,2.00000000e-009,-4.20000030e-003
,,,2.02500000e-009,-4.08984404e-003
,,,2.05000000e-009,-3.98281278e-003
,,,2.07500000e-009,-3.87890652e-003
,,,2.10000000e-009,-3.77734402e-003
,,,2.12500000e-009,-3.67890651e-003
,,,2.15000000e-009,-3.58359400e-003
,,,2.17500000e-009,-3.49062525e-003
,,,2.20000000e-009,-3.40000024e-003
,,,2.22500000e-009,-3.31562523e-003
,,,2.25000000e-009,-3.22578148e-003
,,,2.27500000e-009,-3.12890647e-003
,,,2.30000000e-009,-3.02656271e-003
,,,2.32500000e-009,-2.92109396e-003
,,,2.35000000e-009,-2.81250020e-003
,,,2.37500000e-009,-2.70546894e-003
,,,2.40000000e-009,-2.60000018e-003
,,,2.42500000e-009,-2.50625018e-003
,,,2.45000000e-009,-2.41093767e-003
,,,2.47500000e-009,-2.31250016e-003
,,,2.50000000e-009,-2.21171891e-003
,,,2.52500000e-009,-2.10937515e-003
,,,2.55000000e-009,-2.00625014e-003
,,,2.57500000e-009,-1.90312513e-003
,,,2.60000000e-009,-1.80000013e-003
,,,2.62500000e-009,-1.70781262e-003
,,,2.65000000e-009,-1.61171886e-003
,,,2.67500000e-009,-1.51171886e-003
,,,2.70000000e-009,-1.40859385e-003
,,,2.72500000e-009,-1.30390634e-003
,,,2.75000000e-009,-1.19921883e-003
,,,2.77500000e-009,-1.09687508e-003
,,,2.80000000e-009,-1.00000007e-003
,,,2.82500000e-009,-9.24218815e-004
,,,2.85000000e-009,-8.53125060e-004
,,,2.87500000e-009,-7.87500056e-004
,,,2.90000000e-009,-7.28906302e-004
,,,2.92500000e-009,-6.79687548e-004
,,,2.95000000e-009,-6.40625045e-004
,,,2.97500000e-009,-6.14062543e-004
,,,3.00000000e-009,-6.00000042e-004
,,,3.02500000e-009,-6.10937543e-004
,,,3.05000000e-009,-6.29687545e-004
,,,3.07500000e-009,-6.53906296e-004
,,,3.10000000e-009,-6.81250048e-004
,,,3.12500000e-009,-7.10937550e-004
,,,3.15000000e-009,-7.41406302e-004
,,,3.17500000e-009,-7.71093805e-004
,,,3.20000000e-009,-8.00000057e-004
,,,3.22500000e-009,-8.31250059e-004
,,,3.25000000e-009,-8.53906310e-004
,,,3.27500000e-009,-8.66406311e-004
,,,3.30000000e-009,-8.68750061e-004
,,,3.32500000e-009,-8.62500061e-004
,,,3.35000000e-009,-8.47656310e-004
,,,3.37500000e-009,-8.25781308e-004
,,,3.40000000e-009,-8.00000057e-004
,,,3.42500000e-009,-7.76562555e-004
,,,3.45000000e-009,-7.49218803e-004
,,,3.47500000e-009,-7.21093801e-004
,,,3.50000000e-009,-6.91406299e-004
,,,3.52500000e-009,-6.63281297e-004
,,,3.55000000e-009,-6.38281295e-004
,,,3.57500000e-009,-6.16406294e-004
,,,3.60000000e-009,-6.00000042e-004
,,,3.62500000e-009,-5.93750042e-004
,,,3.65000000e-009,-5.90625042e-004
,,,3.67500000e-009,-5.91406292e-004
,,,3.70000000e-009,-5.93750042e-004
,,,3.72500000e-009,-5.96875042e-004
,,,3.75000000e-009,-5.99218792e-004
,,,3.77500000e-009,-6.00781293e-004
,,,3.80000000e-009,-6.00000042e-004
,,,3.82500000e-009,-5.97656292e-004
,,,3.85000000e-009,-5.90625042e-004
,,,3.87500000e-009,-5.76562541e-004
,,,3.90000000e-009,-5.55468789e-004
,,,3.92500000e-009,-5.26562537e-004
,,,3.95000000e-009,-4.89843785e-004
,,,3.97500000e-009,-4.47656282e-004
,,,4.00000000e-009,-4.00000028e-004
,,,4.02500000e-009,-3.53125025e-004
,,,4.05000000e-009,-3.07812522e-004
,,,4.07500000e-009,-2.66406269e-004
,,,4.10000000e-009,-2.31250016e-004
,,,4.12500000e-009,-2.05468765e-004
,,,4.15000000e-009,-1.90625013e-004
,,,4.17500000e-009,-1.88281263e-004
,,,4.20000000e-009,-2.00000014e-004
,,,4.22500000e-009,-2.28906266e-004
,,,4.25000000e-009,-2.70312519e-004
,,,4.27500000e-009,-3.20312523e-004
,,,4.30000000e-009,-3.75781277e-004
,,,4.32500000e-009,-4.34375031e-004
,,,4.35000000e-009,-4.92968785e-004
,,,4.37500000e-009,-5.49218789e-004
,,,4.40000000e-009,-6.00000042e-004
,,,4.42500000e-009,-6.45312546e-004
,,,4.45000000e-009,-6.82812548e-004
,,,4.47500000e-009,-7.12500050e-004
,,,4.50000000e-009,-7.35156302e-004
,,,4.52500000e-009,-7.53906303e-004
,,,4.55000000e-009,-7.69531304e-004
,,,4.57500000e-009,-7.84375056e-004
,,,4.60000000e-009,-8.00000057e-004
,,,4.62500000e-009,-8.14062558e-004
,,,4.65000000e-009,-8.31250059e-004
,,,4.67500000e-009,-8.51562560e-004
,,,4.70000000e-009,-8.76562562e-004
,,,4.72500000e-009,-9.04687564e-004
,,,4.75000000e-009,-9.35156316e-004
,,,4.77500000e-009,-9.67968819e-004
,,,4.80000000e-009,-1.00000007e-003
,,,4.82500000e-009,-1.02343757e-003
,,,4.85000000e-009,-1.04218757e-003
,,,4.87500000e-009,-1.05468757e-003
,,,4.90000000e-009,-1.06015633e-003
,,,4.92500000e-009,-1.05703132e-003
,,,4.95000000e-009,-1.04531257e-003
,,,4.97500000e-009,-1.02578132e-003
,,,5.00000000e-009,-1.00000007e-003
,,,5.02500000e-009,-9.61718818e-004
,,,5.05000000e-009,-9.21875065e-004
,,,5.07500000e-009,-8.83593813e-004
,,,5.10000000e-009,-8.49218810e-004
,,,5.12500000e-009,-8.21875058e-004
,,,5.15000000e-009,-8.03906307e-004
,,,5.17500000e-009,-7.96875056e-004
,,,5.20000000e-009,-8.00000057e-004
,,,5.22500000e-009,-8.06250057e-004
,,,5.25000000e-009,-8.19531308e-004
,,,5.27500000e-009,-8.34375059e-004
,,,5.30000000e-009,-8.48437560e-004
,,,5.32500000e-009,-8.55468811e-004
,,,5.35000000e-009,-8.51562560e-004
,,,5.37500000e-009,-8.33593809e-004
,,,5.40000000e-009,-8.00000057e-004
,,,5.42500000e-009,-7.43750053e-004
,,,5.45000000e-009,-6.74218798e-004
,,,5.47500000e-009,-5.92187542e-004
,,,5.50000000e-009,-5.04687536e-004
,,,5.52500000e-009,-4.16406279e-004
,,,5.55000000e-009,-3.32812524e-004
,,,5.57500000e-009,-2.59375018e-004
,,,5.60000000e-009,-2.00000014e-004
,,,5.62500000e-009,-1.57812511e-004
,,,5.65000000e-009,-1.33593759e-004
,,,5.67500000e-009,-1.24218759e-004
,,,5.70000000e-009,-1.28125009e-004
,,,5.72500000e-009,-1.41406260e-004
,,,5.75000000e-009,-1.60156261e-004
,,,5.77500000e-009,-1.80468763e-004
,,,5.80000000e-009,-2.00000014e-004
,,,5.82500000e-009,-2.16406265e-004
,,,5.85000000e-009,-2.26562516e-004
,,,5.87500000e-009,-2.29687516e-004
,,,5.90000000e-009,-2.27343766e-004
,,,5.92500000e-009,-2.20312516e-004
