RawData/DifferentLengths/R3/R3_2pt2B_5mV/wave003_Ch2.csv

"Record Length",1000,"Points",-7.72500000e-009,-1.39062510e-004
"Sample Interval",2.50000000e-011,s,-7.70000000e-009,-1.07031258e-004
"Trigger Point",309,"Samples",-7.67500000e-009,-7.73437555e-005
"Trigger Time",5.77000000e-012,s,-7.65000000e-009,-5.07812536e-005
"",,,-7.62500000e-009,-2.81250020e-005
"Horizontal Offset",-7.72500000e-009,s,-7.60000000e-009,-1.09375008e-005
,,,-7.57500000e-009,0.00000000e+000
,,,-7.55000000e-009,7.03125050e-006
,,,-7.52500000e-009,8.59375061e-006
,,,-7.50000000e-009,7.03125050e-006
,,,-7.47500000e-009,3.90625028e-006
,,,-7.45000000e-009,0.00000000e+000
,,,-7.42500000e-009,-1.56250011e-006
,,,-7.40000000e-009,-2.34375017e-006
,,,-7.37500000e-009,0.00000000e+000
,,,-7.35000000e-009,4.68750033e-006
,,,-7.32500000e-009,1.17187508e-005
,,,-7.30000000e-009,1.79687513e-005
,,,-7.27500000e-009,2.34375017e-005
,,,-7.25000000e-009,2.50000018e-005
,,,-7.22500000e-009,2.26562516e-005
,,,-7.20000000e-009,1.40625010e-005
,,,-7.17500000e-009,0.00000000e+000
,,,-7.15000000e-009,-1.87500013e-005
,,,-7.12500000e-009,-3.90625028e-005
,,,-7.10000000e-009,-5.78125041e-005
,,,-7.07500000e-009,-7.03125050e-005
,,,-7.05000000e-009,-7.34375052e-005
,,,-7.02500000e-009,-6.40625045e-005
,,,-7.00000000e-009,-3.98437528e-005
,,,-6.97500000e-009,0.00000000e+000
,,,-6.95000000e-009,5.15625036e-005
,,,-6.92500000e-009,1.14062508e-004
,,,-6.90000000e-009,1.81250013e-004
,,,-6.87500000e-009,2.48437518e-004
,,,-6.85000000e-009,3.08593772e-004
,,,-6.82500000e-009,3.57031275e-004
,,,-6.80000000e-009,3.88281277e-004
,,,-6.77500000e-009,4.00000028e-004
,,,-6.75000000e-009,3.82812527e-004
,,,-6.72500000e-009,3.46875025e-004
,,,-6.70000000e-009,2.94531271e-004
,,,-6.67500000e-009,2.32031266e-004
,,,-6.65000000e-009,1.65625012e-004
,,,-6.62500000e-009,1.00781257e-004
,,,-6.60000000e-009,4.45312532e-005
,,,-6.57500000e-009,0.00000000e+000
,,,-6.55000000e-009,-3.04687522e-005
,,,-6.52500000e-009,-4.53125032e-005
,,,-6.50000000e-009,-4.76562534e-005
,,,-6.47500000e-009,-3.98437528e-005
,,,-6.45000000e-009,-2.65625019e-005
,,,-6.42500000e-009,-1.25000009e-005
,,,-6.40000000e-009,-2.34375017e-006
,,,-6.37500000e-009,0.00000000e+000
,,,-6.35000000e-009,-6.25000044e-006
,,,-6.32500000e-009,-2.34375017e-005
,,,-6.30000000e-009,-4.84375034e-005
,,,-6.27500000e-009,-7.96875056e-005
,,,-6.25000000e-009,-1.14062508e-004
,,,-6.22500000e-009,-1.47656260e-004
,,,-6.20000000e-009,-1.77343763e-004
,,,-6.17500000e-009,-2.00000014e-004
,,,-6.15000000e-009,-2.12500015e-004
,,,-6.12500000e-009,-2.16406265e-004
,,,-6.10000000e-009,-2.14062515e-004
,,,-6.07500000e-009,-2.07031265e-004
,,,-6.05000000e-009,-1.99218764e-004
,,,-6.02500000e-009,-1.93750014e-004
,,,-6.00000000e-009,-1.92968764e-004
,,,-5.97500000e-009,-2.00000014e-004
,,,-5.95000000e-009,-2.12500015e-004
,,,-5.92500000e-009,-2.33593767e-004
,,,-5.90000000e-009,-2.60937518e-004
,,,-5.87500000e-009,-2.92968771e-004
,,,-5.85000000e-009,-3.25781273e-004
,,,-5.82500000e-009,-3.56250025e-004
,,,-5.80000000e-009,-3.82031277e-004
,,,-5.77500000e-009,-4.00000028e-004
,,,-5.75000000e-009,-4.00000028e-004
,,,-5.72500000e-009,-3.90625028e-004
,,,-5.70000000e-009,-3.71875026e-004
,,,-5.67500000e-009,-3.44531274e-004
,,,-5.65000000e-009,-3.11718772e-004
,,,-5.62500000e-009,-2.75000019e-004
,,,-5.60000000e-009,-2.37500017e-004
,,,-5.57500000e-009,-2.00000014e-004
,,,-5.55000000e-009,-1.61718761e-004
,,,-5.52500000e-009,-1.28125009e-004
,,,-5.50000000e-009,-9.76562569e-005
,,,-5.47500000e-009,-7.18750051e-005
,,,-5.45000000e-009,-5.00000035e-005
,,,-5.42500000e-009,-3.12500022e-005
,,,-5.40000000e-009,-1.40625010e-005
,,,-5.37500000e-009,0.00000000e+000
,,,-5.35000000e-009,1.32812509e-005
,,,-5.32500000e-009,2.42187517e-005
,,,-5.30000000e-009,3.20312523e-005
,,,-5.27500000e-009,3.51562525e-005
,,,-5.25000000e-009,3.43750024e-005
,,,-5.22500000e-009,2.81250020e-005
,,,-5.20000000e-009,1.64062512e-005
,,,-5.17500000e-009,0.00000000e+000
,,,-5.15000000e-009,-1.79687513e-005
,,,-5.12500000e-009,-3.59375025e-005
,,,-5.10000000e-009,-5.07812536e-005
,,,-5.07500000e-009,-6.01562543e-005
,,,-5.05000000e-009,-6.17187544e-005
,,,-5.02500000e-009,-5.31250038e-005
,,,-5.00000000e-009,-3.20312523e-005
,,,-4.97500000e-009,0.00000000e+000
,,,-4.95000000e-009,4.37500031e-005
,,,-4.92500000e-009,9.68750069e-005
,,,-4.90000000e-009,1.55468761e-004
,,,-4.87500000e-009,2.16406265e-004
,,,-4.85000000e-009,2.75781270e-004
,,,-4.82500000e-009,3.28125023e-004
,,,-4.80000000e-009,3.70312526e-004
,,,-4.77500000e-009,4.00000028e-004
,,,-4.75000000e-009,4.09375029e-004
,,,-4.72500000e-009,4.03906279e-004
,,,-4.70000000e-009,3.85937527e-004
,,,-4.67500000e-009,3.57031275e-004
,,,-4.65000000e-009,3.20312523e-004
,,,-4.62500000e-009,2.79687520e-004
,,,-4.60000000e-009,2.38281267e-004
,,,-4.57500000e-009,2.00000014e-004
,,,-4.55000000e-009,1.64843762e-004
,,,-4.52500000e-009,1.39062510e-004
,,,-4.50000000e-009,1.24218759e-004
,,,-4.47500000e-009,1.20312509e-004
,,,-4.45000000e-009,1.26562509e-004
,,,-4.42500000e-009,1.43750010e-004
,,,-4.40000000e-009,1.68750012e-004
,,,-4.37500000e-009,2.00000014e-004
,,,-4.35000000e-009,2.33593767e-004
,,,-4.32500000e-009,2.69531269e-004
,,,-4.30000000e-009,3.03906272e-004
,,,-4.27500000e-009,3.35156274e-004
,,,-4.25000000e-009,3.61718776e-004
,,,-4.22500000e-009,3.82031277e-004
,,,-4.20000000e-009,3.95312528e-004
,,,-4.17500000e-009,4.00000028e-004
,,,-4.15000000e-009,3.93750028e-004
,,,-4.12500000e-009,3.81250027e-004
,,,-4.10000000e-009,3.60937526e-004
,,,-4.07500000e-009,3.35156274e-004
,,,-4.05000000e-009,3.05468772e-004
,,,-4.02500000e-009,2.71875019e-004
,,,-4.00000000e-009,2.35937517e-004
,,,-3.97500000e-009,2.00000014e-004
,,,-3.95000000e-009,1.63281262e-004
,,,-3.92500000e-009,1.29687509e-004
,,,-3.90000000e-009,9.84375070e-005
,,,-3.87500000e-009,7.18750051e-005
,,,-3.85000000e-009,4.84375034e-005
,,,-3.82500000e-009,2.81250020e-005
,,,-3.80000000e-009,1.25000009e-005
,,,-3.77500000e-009,0.00000000e+000
,,,-3.75000000e-009,-5.46875039e-006
,,,-3.72500000e-009,-9.37500066e-006
,,,-3.70000000e-009,-1.09375008e-005
,,,-3.67500000e-009,-1.17187508e-005
,,,-3.65000000e-009,-1.01562507e-005
,,,-3.62500000e-009,-8.59375061e-006
,,,-3.60000000e-009,-4.68750033e-006
,,,-3.57500000e-009,0.00000000e+000
,,,-3.55000000e-009,9.37500066e-006
,,,-3.52500000e-009,2.18750015e-005
,,,-3.50000000e-009,3.90625028e-005
,,,-3.47500000e-009,6.01562543e-005
,,,-3.45000000e-009,8.75000062e-005
,,,-3.42500000e-009,1.19531258e-004
,,,-3.40000000e-009,1.57812511e-004
,,,-3.37500000e-009,2.00000014e-004
,,,-3.35000000e-009,2.43750017e-004
,,,-3.32500000e-009,2.87500020e-004
,,,-3.30000000e-009,3.28125023e-004
,,,-3.27500000e-009,3.62500026e-004
,,,-3.25000000e-009,3.89062528e-004
,,,-3.22500000e-009,4.04687529e-004
,,,-3.20000000e-009,4.07812529e-004
,,,-3.17500000e-009,4.00000028e-004
,,,-3.15000000e-009,3.78125027e-004
,,,-3.12500000e-009,3.47656275e-004
,,,-3.10000000e-009,3.11718772e-004
,,,-3.07500000e-009,2.75781270e-004
,,,-3.05000000e-009,2.42187517e-004
,,,-3.02500000e-009,2.16406265e-004
,,,-3.00000000e-009,2.01562514e-004
,,,-2.97500000e-009,2.00000014e-004
,,,-2.95000000e-009,2.10156265e-004
,,,-2.92500000e-009,2.32812516e-004
,,,-2.90000000e-009,2.64062519e-004
,,,-2.87500000e-009,2.99218771e-004
,,,-2.85000000e-009,3.35156274e-004
,,,-2.82500000e-009,3.66406276e-004
,,,-2.80000000e-009,3.88281277e-004
,,,-2.77500000e-009,4.00000028e-004
,,,-2.75000000e-009,3.94531278e-004
,,,-2.72500000e-009,3.77343777e-004
,,,-2.70000000e-009,3.50000025e-004
,,,-2.67500000e-009,3.16406272e-004
,,,-2.65000000e-009,2.81250020e-004
,,,-2.62500000e-009,2.47656268e-004
,,,-2.60000000e-009,2.19531266e-004
,,,-2.57500000e-009,2.00000014e-004
,,,-2.55000000e-009,1.87500013e-004
,,,-2.52500000e-009,1.84375013e-004
,,,-2.50000000e-009,1.88281263e-004
,,,-2.47500000e-009,1.96093764e-004
,,,-2.45000000e-009,2.04687514e-004
,,,-2.42500000e-009,2.10156265e-004
,,,-2.40000000e-009,2.09375015e-004
,,,-2.37500000e-009,2.00000014e-004
,,,-2.35000000e-009,1.79687513e-004
,,,-2.32500000e-009,1.52343761e-004
,,,-2.30000000e-009,1.18750008e-004
,,,-2.27500000e-009,8.35937559e-005
,,,-2.25000000e-009,5.00000035e-005
,,,-2.22500000e-009,2.26562516e-005
,,,-2.20000000e-009,5.46875039e-006
,,,-2.17500000e-009,0.00000000e+000
,,,-2.15000000e-009,8.59375061e-006
,,,-2.12500000e-009,2.89062520e-005
,,,-2.10000000e-009,5.78125041e-005
,,,-2.07500000e-009,9.21875065e-005
,,,-2.05000000e-009,1.27343759e-004
,,,-2.02500000e-009,1.59375011e-004
,,,-2.00000000e-009,1.84375013e-004
,,,-1.97500000e-009,2.00000014e-004
,,,-1.95000000e-009,2.01562514e-004
,,,-1.92500000e-009,1.90625013e-004
,,,-1.90000000e-009,1.69531262e-004
,,,-1.87500000e-009,1.39062510e-004
,,,-1.85000000e-009,1.03125007e-004
,,,-1.82500000e-009,6.56250046e-005
,,,-1.80000000e-009,3.04687522e-005
,,,-1.77500000e-009,0.00000000e+000
,,,-1.75000000e-009,-2.10937515e-005
,,,-1.72500000e-009,-3.51562525e-005
,,,-1.70000000e-009,-4.14062529e-005
,,,-1.67500000e-009,-3.98437528e-005
,,,-1.65000000e-009,-3.28125023e-005
,,,-1.62500000e-009,-2.26562516e-005
,,,-1.60000000e-009,-1.09375008e-005
,,,-1.57500000e-009,0.00000000e+000
,,,-1.55000000e-009,8.59375061e-006
,,,-1.52500000e-009,1.48437511e-005
,,,-1.50000000e-009,1.71875012e-005
,,,-1.47500000e-009,1.56250011e-005
,,,-1.45000000e-009,1.25000009e-005
,,,-1.42500000e-009,7.81250055e-006
,,,-1.40000000e-009,3.12500022e-006
,,,-1.37500000e-009,0.00000000e+000
,,,-1.35000000e-009,-7.03125050e-006
,,,-1.32500000e-009,-1.32812509e-005
,,,-1.30000000e-009,-1.79687513e-005
,,,-1.27500000e-009,-2.03125014e-005
,,,-1.25000000e-009,-1.95312514e-005
,,,-1.22500000e-009,-1.56250011e-005
,,,-1.20000000e-009,-8.59375061e-006
,,,-1.17500000e-009,0.00000000e+000
,,,-1.15000000e-009,-3.90625028e-006
,,,-1.12500000e-009,-8.59375061e-006
,,,-1.10000000e-009,-1.32812509e-005
,,,-1.07500000e-009,-1.71875012e-005
,,,-1.05000000e-009,-1.87500013e-005
,,,-1.02500000e-009,-1.64062512e-005
,,,-1.00000000e-009,-1.01562507e-005
,,,-9.75000000e-010,0.00000000e+000
,,,-9.50000000e-010,-1.01562507e-005
,,,-9.25000000e-010,-2.18750015e-005
,,,-9.00000000e-010,-3.20312523e-005
,,,-8.75000000e-010,-3.82812527e-005
,,,-8.50000000e-010,-3.90625028e-005
,,,-8.25000000e-010,-3.28125023e-005
,,,-8.00000000e-010,-1.95312514e-005
,,,-7.75000000e-010,0.00000000e+000
,,,-7.50000000e-010,-1.56250011e-005
,,,-7.25000000e-010,-3.59375025e-005
,,,-7.00000000e-010,-5.93750042e-005
,,,-6.75000000e-010,-8.51562560e-005
,,,-6.50000000e-010,-1.11718758e-004
,,,-6.25000000e-010,-1.39062510e-004
,,,-6.00000000e-010,-1.67187512e-004
,,,-5.75000000e-010,-2.00000014e-004
,,,-5.50000000e-010,-2.87500020e-004
,,,-5.25000000e-010,-3.90625028e-004
,,,-5.00000000e-010,-5.07031286e-004
,,,-4.75000000e-010,-6.34375045e-004
,,,-4.50000000e-010,-7.68750054e-004
,,,-4.25000000e-010,-9.08593814e-004
,,,-4.00000000e-010,-1.05234382e-003
,,,-3.75000000e-010,-1.20000008e-003
,,,-3.50000000e-010,-1.39765635e-003
,,,-3.25000000e-010,-1.60937511e-003
,,,-3.00000000e-010,-1.83046888e-003
,,,-2.75000000e-010,-2.05859390e-003
,,,-2.50000000e-010,-2.29062516e-003
,,,-2.25000000e-010,-2.52578143e-003
,,,-2.00000000e-010,-2.76171895e-003
,,,-1.75000000e-010,-3.00000021e-003
,,,-1.50000000e-010,-3.27265648e-003
,,,-1.25000000e-010,-3.55703150e-003
,,,-1.00000000e-010,-3.85156277e-003
,,,-7.50000000e-011,-4.15312529e-003
,,,-5.00000000e-011,-4.46093782e-003
,,,-2.50000000e-011,-4.77187534e-003
,,,0.00000000e+000,-5.08437536e-003
,,,2.50000000e-011,-5.40000038e-003
,,,5.00000000e-011,-5.72734416e-003
,,,7.50000000e-011,-6.06484418e-003
,,,1.00000000e-010,-6.41093795e-003
,,,1.25000000e-010,-6.76484423e-003
,,,1.50000000e-010,-7.12421925e-003
,,,1.75000000e-010,-7.48515678e-003
,,,2.00000000e-010,-7.84453181e-003
,,,2.25000000e-010,-8.20000058e-003
,,,2.50000000e-010,-8.53125060e-003
,,,2.75000000e-010,-8.86015688e-003
,,,3.00000000e-010,-9.18437565e-003
,,,3.25000000e-010,-9.50078192e-003
,,,3.50000000e-010,-9.80468819e-003
,,,3.75000000e-010,-1.00914070e-002
,,,4.00000000e-010,-1.03570320e-002
,,,4.25000000e-010,-1.06000008e-002
,,,4.50000000e-010,-1.07765633e-002
,,,4.75000000e-010,-1.09398445e-002
,,,5.00000000e-010,-1.10945320e-002
,,,5.25000000e-010,-1.12421883e-002
,,,5.50000000e-010,-1.13867196e-002
,,,5.75000000e-010,-1.15273446e-002
,,,6.00000000e-010,-1.16656258e-002
,,,6.25000000e-010,-1.18000008e-002
,,,6.50000000e-010,-1.18742196e-002
,,,6.75000000e-010,-1.19523446e-002
,,,7.00000000e-010,-1.20343759e-002
,,,7.25000000e-010,-1.21187509e-002
,,,7.50000000e-010,-1.22015634e-002
,,,7.75000000e-010,-1.22789071e-002
,,,8.00000000e-010,-1.23460946e-002
,,,8.25000000e-010,-1.24000009e-002
,,,8.50000000e-010,-1.23765634e-002
,,,8.75000000e-010,-1.23453134e-002
,,,9.00000000e-010,-1.23109384e-002
,,,9.25000000e-010,-1.22773446e-002
,,,9.50000000e-010,-1.22476571e-002
,,,9.75000000e-010,-1.22242196e-002
,,,1.00000000e-009,-1.22085946e-002
,,,1.02500000e-009,-1.22000009e-002
,,,1.05000000e-009,-1.21382821e-002
,,,1.07500000e-009,-1.20843759e-002
,,,1.10000000e-009,-1.20367196e-002
,,,1.12500000e-009,-1.19945321e-002
,,,1.15000000e-009,-1.19539071e-002
,,,1.17500000e-009,-1.19109383e-002
,,,1.20000000e-009,-1.18609383e-002
,,,1.22500000e-009,-1.18000008e-002
,,,1.25000000e-009,-1.16750008e-002
,,,1.27500000e-009,-1.15351571e-002
,,,1.30000000e-009,-1.13835946e-002
,,,1.32500000e-009,-1.12250008e-002
,,,1.35000000e-009,-1.10640633e-002
,,,1.37500000e-009,-1.09046883e-002
,,,1.40000000e-009,-1.07492195e-002
,,,1.42500000e-009,-1.06000008e-002
,,,1.45000000e-009,-1.04203132e-002
,,,1.47500000e-009,-1.02429695e-002
,,,1.50000000e-009,-1.00671882e-002
,,,1.52500000e-009,-9.89375070e-003
,,,1.55000000e-009,-9.72187569e-003
,,,1.57500000e-009,-9.55000068e-003
,,,1.60000000e-009,-9.37656316e-003
,,,1.62500000e-009,-9.20000065e-003
,,,1.65000000e-009,-8.99296939e-003
,,,1.67500000e-009,-8.77421937e-003
,,,1.70000000e-009,-8.54609435e-003
,,,1.72500000e-009,-8.31171934e-003
,,,1.75000000e-009,-8.07578182e-003
,,,1.77500000e-009,-7.84296931e-003
,,,1.80000000e-009,-7.61640679e-003
,,,1.82500000e-009,-7.40000052e-003
,,,1.85000000e-009,-7.18437551e-003
,,,1.87500000e-009,-6.97265674e-003
,,,1.90000000e-009,-6.76484423e-003
,,,1.92500000e-009,-6.56015671e-003
,,,1.95000000e-009,-6.36171920e-003
,,,1.97500000e-009,-6.16796919e-003
,,,2.00000000e-009,-5.98125042e-003
,,,2.02500000e-009,-5.80000041e-003
,,,2.05000000e-009,-5.62421915e-003
,,,2.07500000e-009,-5.44453164e-003
,,,2.10000000e-009,-5.26171912e-003
,,,2.12500000e-009,-5.07812536e-003
,,,2.15000000e-009,-4.89687535e-003
,,,2.17500000e-009,-4.72187533e-003
,,,2.20000000e-009,-4.55546907e-003
,,,2.22500000e-009,-4.40000031e-003
,,,2.25000000e-009,-4.26406280e-003
,,,2.27500000e-009,-4.12656279e-003
,,,2.30000000e-009,-3.98515653e-003
,,,2.32500000e-009,-3.83828152e-003
,,,2.35000000e-009,-3.68593776e-003
,,,2.37500000e-009,-3.52812525e-003
,,,2.40000000e-009,-3.36562524e-003
,,,2.42500000e-009,-3.20000023e-003
,,,2.45000000e-009,-3.05000022e-003
,,,2.47500000e-009,-2.89140645e-003
,,,2.50000000e-009,-2.72812519e-003
,,,2.52500000e-009,-2.56406268e-003
,,,2.55000000e-009,-2.40390642e-003
,,,2.57500000e-009,-2.25390641e-003
,,,2.60000000e-009,-2.11796890e-003
,,,2.62500000e-009,-2.00000014e-003
,,,2.65000000e-009,-1.92109389e-003
,,,2.67500000e-009,-1.85078138e-003
,,,2.70000000e-009,-1.78359388e-003
,,,2.72500000e-009,-1.71718762e-003
,,,2.75000000e-009,-1.64765637e-003
,,,2.77500000e-009,-1.57265636e-003
,,,2.80000000e-009,-1.49062511e-003
,,,2.82500000e-009,-1.40000010e-003
,,,2.85000000e-009,-1.32109384e-003
,,,2.87500000e-009,-1.22812509e-003
,,,2.90000000e-009,-1.12343758e-003
,,,2.92500000e-009,-1.01015632e-003
,,,2.95000000e-009,-8.96093813e-004
,,,2.97500000e-009,-7.85156306e-004
,,,3.00000000e-009,-6.84375048e-004
,,,3.02500000e-009,-6.00000042e-004
,,,3.05000000e-009,-5.55468789e-004
,,,3.07500000e-009,-5.26562537e-004
,,,3.10000000e-009,-5.12500036e-004
,,,3.12500000e-009,-5.10937536e-004
,,,3.15000000e-009,-5.21875037e-004
,,,3.17500000e-009,-5.41406288e-004
,,,3.20000000e-009,-5.67968790e-004
,,,3.22500000e-009,-6.00000042e-004
,,,3.25000000e-009,-6.47656296e-004
,,,3.27500000e-009,-6.89843799e-004
,,,3.30000000e-009,-7.25000051e-004
,,,3.32500000e-009,-7.52343803e-004
,,,3.35000000e-009,-7.71875055e-004
,,,3.37500000e-009,-7.85156306e-004
,,,3.40000000e-009,-7.93750056e-004
,,,3.42500000e-009,-8.00000057e-004
,,,3.45000000e-009,-8.10156307e-004
,,,3.47500000e-009,-8.16406308e-004
,,,3.50000000e-009,-8.18750058e-004
,,,3.52500000e-009,-8.17187558e-004
,,,3.55000000e-009,-8.14062558e-004
,,,3.57500000e-009,-8.09375057e-004
,,,3.60000000e-009,-8.04687557e-004
,,,3.62500000e-009,-8.00000057e-004
,,,3.65000000e-009,-7.98437557e-004
,,,3.67500000e-009,-7.96875056e-004
,,,3.70000000e-009,-7.94531306e-004
,,,3.72500000e-009,-7.93750056e-004
,,,3.75000000e-009,-7.92968806e-004
,,,3.77500000e-009,-7.93750056e-004
,,,3.80000000e-009,-7.96093806e-004
,,,3.82500000e-009,-8.00000057e-004
,,,3.85000000e-009,-8.03906307e-004
,,,3.87500000e-009,-8.07812557e-004
,,,3.90000000e-009,-8.10937557e-004
,,,3.92500000e-009,-8.12500058e-004
,,,3.95000000e-009,-8.12500058e-004
,,,3.97500000e-009,-8.10156307e-004
,,,4.00000000e-009,-8.06250057e-004
,,,4.02500000e-009,-8.00000057e-004
,,,4.05000000e-009,-7.85937556e-004
,,,4.07500000e-009,-7.68750054e-004
,,,4.10000000e-009,-7.48437553e-004
,,,4.12500000e-009,-7.24218801e-004
,,,4.15000000e-009,-6.96875049e-004
,,,4.17500000e-009,-6.66406297e-004
,,,4.20000000e-009,-6.34375045e-004
,,,4.22500000e-009,-6.00000042e-004
,,,4.25000000e-009,-5.64062540e-004
,,,4.27500000e-009,-5.28906287e-004
,,,4.30000000e-009,-4.96093785e-004
,,,4.32500000e-009,-4.67187533e-004
,,,4.35000000e-009,-4.42187531e-004
,,,4.37500000e-009,-4.22656280e-004
,,,4.40000000e-009,-4.08593779e-004
,,,4.42500000e-009,-4.00000028e-004
,,,4.45000000e-009,-3.98437528e-004
,,,4.47500000e-009,-4.01562528e-004
,,,4.50000000e-009,-4.06250029e-004
,,,4.52500000e-009,-4.10937529e-004
,,,4.55000000e-009,-4.14062529e-004
,,,4.57500000e-009,-4.14062529e-004
,,,4.60000000e-009,-4.09375029e-004
,,,4.62500000e-009,-4.00000028e-004
,,,4.65000000e-009,-3.88281277e-004
,,,4.67500000e-009,-3.71093776e-004
,,,4.70000000e-009,-3.48437525e-004
,,,4.72500000e-009,-3.21875023e-004
,,,4.75000000e-009,-2.92187521e-004
,,,4.77500000e-009,-2.60937518e-004
,,,4.80000000e-009,-2.28906266e-004
,,,4.82500000e-009,-2.00000014e-004
,,,4.85000000e-009,-1.80468763e-004
,,,4.87500000e-009,-1.65625012e-004
,,,4.90000000e-009,-1.57031261e-004
,,,4.92500000e-009,-1.54687511e-004
,,,4.95000000e-009,-1.57812511e-004
,,,4.97500000e-009,-1.67187512e-004
,,,5.00000000e-009,-1.81250013e-004
,,,5.02500000e-009,-2.00000014e-004
,,,5.05000000e-009,-2.25781266e-004
,,,5.07500000e-009,-2.53125018e-004
,,,5.10000000e-009,-2.81250020e-004
,,,5.12500000e-009,-3.08593772e-004
,,,5.15000000e-009,-3.34375024e-004
,,,5.17500000e-009,-3.57812525e-004
,,,5.20000000e-009,-3.79687527e-004
,,,5.22500000e-009,-4.00000028e-004
,,,5.25000000e-009,-4.18750030e-004
,,,5.27500000e-009,-4.37500031e-004
,,,5.30000000e-009,-4.56250032e-004
,,,5.32500000e-009,-4.76562534e-004
,,,5.35000000e-009,-5.00000035e-004
,,,5.37500000e-009,-5.27343787e-004
,,,5.40000000e-009,-5.60937540e-004
,,,5.42500000e-009,-6.00000042e-004
,,,5.45000000e-009,-6.42187545e-004
,,,5.47500000e-009,-6.89843799e-004
,,,5.50000000e-009,-7.41406302e-004
,,,5.52500000e-009,-7.95312556e-004
,,,5.55000000e-009,-8.50000060e-004
,,,5.57500000e-009,-9.03125064e-004
,,,5.60000000e-009,-9.53906318e-004
,,,5.62500000e-009,-1.00000007e-003
,,,5.65000000e-009,-1.03046882e-003
,,,5.67500000e-009,-1.05234382e-003
,,,5.70000000e-009,-1.06484383e-003
,,,5.72500000e-009,-1.06875008e-003
,,,5.75000000e-009,-1.06328133e-003
,,,5.77500000e-009,-1.04921882e-003
,,,5.80000000e-009,-1.02812507e-003
,,,5.82500000e-009,-1.00000007e-003
,,,5.85000000e-009,-9.57031318e-004
,,,5.87500000e-009,-9.10937564e-004
,,,5.90000000e-009,-8.60937561e-004
,,,5.92500000e-009,-8.08593807e-004
