RawData/DifferentLengths/R3/R3_2pt2B_5mV/wave025_Ch2.csv

"Record Length",1000,"Points",-7.72500000e-009,-3.35937524e-005
"Sample Interval",2.50000000e-011,s,-7.70000000e-009,-1.09375008e-005
"Trigger Point",309,"Samples",-7.67500000e-009,0.00000000e+000
"Trigger Time",1.91419512e-011,s,-7.65000000e-009,0.00000000e+000
"",,,-7.62500000e-009,-1.25000009e-005
"Horizontal Offset",-7.72500000e-009,s,-7.60000000e-009,-3.51562525e-005
,,,-7.57500000e-009,-6.56250046e-005
,,,-7.55000000e-009,-1.00000007e-004
,,,-7.52500000e-009,-1.33593759e-004
,,,-7.50000000e-009,-1.64062512e-004
,,,-7.47500000e-009,-1.86718763e-004
,,,-7.45000000e-009,-2.00000014e-004
,,,-7.42500000e-009,-2.00000014e-004
,,,-7.40000000e-009,-1.88281263e-004
,,,-7.37500000e-009,-1.65625012e-004
,,,-7.35000000e-009,-1.35156260e-004
,,,-7.32500000e-009,-1.00781257e-004
,,,-7.30000000e-009,-6.40625045e-005
,,,-7.27500000e-009,-2.96875021e-005
,,,-7.25000000e-009,0.00000000e+000
,,,-7.22500000e-009,2.10937515e-005
,,,-7.20000000e-009,3.51562525e-005
,,,-7.17500000e-009,4.14062529e-005
,,,-7.15000000e-009,3.98437528e-005
,,,-7.12500000e-009,3.28125023e-005
,,,-7.10000000e-009,2.26562516e-005
,,,-7.07500000e-009,1.09375008e-005
,,,-7.05000000e-009,0.00000000e+000
,,,-7.02500000e-009,-9.37500066e-006
,,,-7.00000000e-009,-1.64062512e-005
,,,-6.97500000e-009,-1.95312514e-005
,,,-6.95000000e-009,-1.95312514e-005
,,,-6.92500000e-009,-1.64062512e-005
,,,-6.90000000e-009,-1.09375008e-005
,,,-6.87500000e-009,-5.46875039e-006
,,,-6.85000000e-009,0.00000000e+000
,,,-6.82500000e-009,2.34375017e-006
,,,-6.80000000e-009,3.90625028e-006
,,,-6.77500000e-009,4.68750033e-006
,,,-6.75000000e-009,3.90625028e-006
,,,-6.72500000e-009,2.34375017e-006
,,,-6.70000000e-009,7.81250055e-007
,,,-6.67500000e-009,0.00000000e+000
,,,-6.65000000e-009,0.00000000e+000
,,,-6.62500000e-009,0.00000000e+000
,,,-6.60000000e-009,7.81250055e-007
,,,-6.57500000e-009,2.34375017e-006
,,,-6.55000000e-009,3.90625028e-006
,,,-6.52500000e-009,4.68750033e-006
,,,-6.50000000e-009,3.90625028e-006
,,,-6.47500000e-009,2.34375017e-006
,,,-6.45000000e-009,0.00000000e+000
,,,-6.42500000e-009,-5.46875039e-006
,,,-6.40000000e-009,-1.09375008e-005
,,,-6.37500000e-009,-1.64062512e-005
,,,-6.35000000e-009,-1.95312514e-005
,,,-6.32500000e-009,-1.95312514e-005
,,,-6.30000000e-009,-1.64062512e-005
,,,-6.27500000e-009,-9.37500066e-006
,,,-6.25000000e-009,0.00000000e+000
,,,-6.22500000e-009,1.17187508e-005
,,,-6.20000000e-009,2.50000018e-005
,,,-6.17500000e-009,3.59375025e-005
,,,-6.15000000e-009,4.29687530e-005
,,,-6.12500000e-009,4.45312532e-005
,,,-6.10000000e-009,3.82812527e-005
,,,-6.07500000e-009,2.34375017e-005
,,,-6.05000000e-009,0.00000000e+000
,,,-6.02500000e-009,-3.28125023e-005
,,,-6.00000000e-009,-7.03125050e-005
,,,-5.97500000e-009,-1.09375008e-004
,,,-5.95000000e-009,-1.46875010e-004
,,,-5.92500000e-009,-1.77343763e-004
,,,-5.90000000e-009,-1.97656264e-004
,,,-5.87500000e-009,-2.05468765e-004
,,,-5.85000000e-009,-2.00000014e-004
,,,-5.82500000e-009,-1.79687513e-004
,,,-5.80000000e-009,-1.50000011e-004
,,,-5.77500000e-009,-1.13281258e-004
,,,-5.75000000e-009,-7.57812554e-005
,,,-5.72500000e-009,-4.14062529e-005
,,,-5.70000000e-009,-1.48437511e-005
,,,-5.67500000e-009,0.00000000e+000
,,,-5.65000000e-009,0.00000000e+000
,,,-5.62500000e-009,-1.40625010e-005
,,,-5.60000000e-009,-4.14062529e-005
,,,-5.57500000e-009,-7.73437555e-005
,,,-5.55000000e-009,-1.15625008e-004
,,,-5.52500000e-009,-1.52343761e-004
,,,-5.50000000e-009,-1.81250013e-004
,,,-5.47500000e-009,-1.97656264e-004
,,,-5.45000000e-009,-2.00000014e-004
,,,-5.42500000e-009,-1.85156263e-004
,,,-5.40000000e-009,-1.57031261e-004
,,,-5.37500000e-009,-1.20312509e-004
,,,-5.35000000e-009,-7.96875056e-005
,,,-5.32500000e-009,-4.21875030e-005
,,,-5.30000000e-009,-1.25000009e-005
,,,-5.27500000e-009,1.56250011e-006
,,,-5.25000000e-009,0.00000000e+000
,,,-5.22500000e-009,-2.18750015e-005
,,,-5.20000000e-009,-6.17187544e-005
,,,-5.17500000e-009,-1.16406258e-004
,,,-5.15000000e-009,-1.79687513e-004
,,,-5.12500000e-009,-2.46093767e-004
,,,-5.10000000e-009,-3.08593772e-004
,,,-5.07500000e-009,-3.61718776e-004
,,,-5.05000000e-009,-4.00000028e-004
,,,-5.02500000e-009,-4.16406279e-004
,,,-5.00000000e-009,-4.14062529e-004
,,,-4.97500000e-009,-3.95312528e-004
,,,-4.95000000e-009,-3.63281276e-004
,,,-4.92500000e-009,-3.23437523e-004
,,,-4.90000000e-009,-2.78906270e-004
,,,-4.87500000e-009,-2.36718767e-004
,,,-4.85000000e-009,-2.00000014e-004
,,,-4.82500000e-009,-1.71093762e-004
,,,-4.80000000e-009,-1.53125011e-004
,,,-4.77500000e-009,-1.46093760e-004
,,,-4.75000000e-009,-1.48437511e-004
,,,-4.72500000e-009,-1.57812511e-004
,,,-4.70000000e-009,-1.71093762e-004
,,,-4.67500000e-009,-1.85937513e-004
,,,-4.65000000e-009,-2.00000014e-004
,,,-4.62500000e-009,-2.08593765e-004
,,,-4.60000000e-009,-2.13281265e-004
,,,-4.57500000e-009,-2.14062515e-004
,,,-4.55000000e-009,-2.11718765e-004
,,,-4.52500000e-009,-2.07812515e-004
,,,-4.50000000e-009,-2.03125014e-004
,,,-4.47500000e-009,-2.00000014e-004
,,,-4.45000000e-009,-2.00000014e-004
,,,-4.42500000e-009,-2.00781264e-004
,,,-4.40000000e-009,-2.03906264e-004
,,,-4.37500000e-009,-2.07812515e-004
,,,-4.35000000e-009,-2.12500015e-004
,,,-4.32500000e-009,-2.15625015e-004
,,,-4.30000000e-009,-2.14843765e-004
,,,-4.27500000e-009,-2.10156265e-004
,,,-4.25000000e-009,-2.00000014e-004
,,,-4.22500000e-009,-1.82031263e-004
,,,-4.20000000e-009,-1.58593761e-004
,,,-4.17500000e-009,-1.32031259e-004
,,,-4.15000000e-009,-1.03125007e-004
,,,-4.12500000e-009,-7.34375052e-005
,,,-4.10000000e-009,-4.53125032e-005
,,,-4.07500000e-009,-2.03125014e-005
,,,-4.05000000e-009,0.00000000e+000
,,,-4.02500000e-009,1.32812509e-005
,,,-4.00000000e-009,2.10937515e-005
,,,-3.97500000e-009,2.42187517e-005
,,,-3.95000000e-009,2.34375017e-005
,,,-3.92500000e-009,1.95312514e-005
,,,-3.90000000e-009,1.32812509e-005
,,,-3.87500000e-009,6.25000044e-006
,,,-3.85000000e-009,0.00000000e+000
,,,-3.82500000e-009,-5.46875039e-006
,,,-3.80000000e-009,-1.01562507e-005
,,,-3.77500000e-009,-1.17187508e-005
,,,-3.75000000e-009,-1.17187508e-005
,,,-3.72500000e-009,-9.37500066e-006
,,,-3.70000000e-009,-7.03125050e-006
,,,-3.67500000e-009,-3.12500022e-006
,,,-3.65000000e-009,0.00000000e+000
,,,-3.62500000e-009,1.56250011e-006
,,,-3.60000000e-009,3.12500022e-006
,,,-3.57500000e-009,3.90625028e-006
,,,-3.55000000e-009,3.90625028e-006
,,,-3.52500000e-009,3.12500022e-006
,,,-3.50000000e-009,2.34375017e-006
,,,-3.47500000e-009,7.81250055e-007
,,,-3.45000000e-009,0.00000000e+000
,,,-3.42500000e-009,-1.56250011e-006
,,,-3.40000000e-009,-2.34375017e-006
,,,-3.37500000e-009,-3.12500022e-006
,,,-3.35000000e-009,-3.12500022e-006
,,,-3.32500000e-009,-2.34375017e-006
,,,-3.30000000e-009,-1.56250011e-006
,,,-3.27500000e-009,-7.81250055e-007
,,,-3.25000000e-009,0.00000000e+000
,,,-3.22500000e-009,-7.81250055e-007
,,,-3.20000000e-009,-1.56250011e-006
,,,-3.17500000e-009,-2.34375017e-006
,,,-3.15000000e-009,-3.12500022e-006
,,,-3.12500000e-009,-3.12500022e-006
,,,-3.10000000e-009,-2.34375017e-006
,,,-3.07500000e-009,-1.56250011e-006
,,,-3.05000000e-009,0.00000000e+000
,,,-3.02500000e-009,1.56250011e-006
,,,-3.00000000e-009,3.90625028e-006
,,,-2.97500000e-009,6.25000044e-006
,,,-2.95000000e-009,7.03125050e-006
,,,-2.92500000e-009,7.03125050e-006
,,,-2.90000000e-009,6.25000044e-006
,,,-2.87500000e-009,3.90625028e-006
,,,-2.85000000e-009,0.00000000e+000
,,,-2.82500000e-009,-3.12500022e-006
,,,-2.80000000e-009,-7.03125050e-006
,,,-2.77500000e-009,-1.01562507e-005
,,,-2.75000000e-009,-1.25000009e-005
,,,-2.72500000e-009,-1.25000009e-005
,,,-2.70000000e-009,-1.09375008e-005
,,,-2.67500000e-009,-6.25000044e-006
,,,-2.65000000e-009,0.00000000e+000
,,,-2.62500000e-009,7.81250055e-006
,,,-2.60000000e-009,1.56250011e-005
,,,-2.57500000e-009,2.26562516e-005
,,,-2.55000000e-009,2.81250020e-005
,,,-2.52500000e-009,2.89062520e-005
,,,-2.50000000e-009,2.50000018e-005
,,,-2.47500000e-009,1.56250011e-005
,,,-2.45000000e-009,0.00000000e+000
,,,-2.42500000e-009,-2.10937515e-005
,,,-2.40000000e-009,-4.76562534e-005
,,,-2.37500000e-009,-7.65625054e-005
,,,-2.35000000e-009,-1.07031258e-004
,,,-2.32500000e-009,-1.36718760e-004
,,,-2.30000000e-009,-1.63281262e-004
,,,-2.27500000e-009,-1.85156263e-004
,,,-2.25000000e-009,-2.00000014e-004
,,,-2.22500000e-009,-2.03906264e-004
,,,-2.20000000e-009,-1.98437514e-004
,,,-2.17500000e-009,-1.83593763e-004
,,,-2.15000000e-009,-1.59375011e-004
,,,-2.12500000e-009,-1.27343759e-004
,,,-2.10000000e-009,-8.90625063e-005
,,,-2.07500000e-009,-4.53125032e-005
,,,-2.05000000e-009,0.00000000e+000
,,,-2.02500000e-009,4.53125032e-005
,,,-2.00000000e-009,8.90625063e-005
,,,-1.97500000e-009,1.27343759e-004
,,,-1.95000000e-009,1.59375011e-004
,,,-1.92500000e-009,1.83593763e-004
,,,-1.90000000e-009,1.98437514e-004
,,,-1.87500000e-009,2.03906264e-004
,,,-1.85000000e-009,2.00000014e-004
,,,-1.82500000e-009,1.84375013e-004
,,,-1.80000000e-009,1.61718761e-004
,,,-1.77500000e-009,1.34375010e-004
,,,-1.75000000e-009,1.03906257e-004
,,,-1.72500000e-009,7.34375052e-005
,,,-1.70000000e-009,4.45312532e-005
,,,-1.67500000e-009,1.95312514e-005
,,,-1.65000000e-009,0.00000000e+000
,,,-1.62500000e-009,-1.64062512e-005
,,,-1.60000000e-009,-2.65625019e-005
,,,-1.57500000e-009,-3.12500022e-005
,,,-1.55000000e-009,-3.04687522e-005
,,,-1.52500000e-009,-2.57812518e-005
,,,-1.50000000e-009,-1.79687513e-005
,,,-1.47500000e-009,-8.59375061e-006
,,,-1.45000000e-009,0.00000000e+000
,,,-1.42500000e-009,1.56250011e-006
,,,-1.40000000e-009,7.81250055e-007
,,,-1.37500000e-009,-7.81250055e-007
,,,-1.35000000e-009,-3.90625028e-006
,,,-1.32500000e-009,-6.25000044e-006
,,,-1.30000000e-009,-7.03125050e-006
,,,-1.27500000e-009,-4.68750033e-006
,,,-1.25000000e-009,0.00000000e+000
,,,-1.22500000e-009,-6.25000044e-006
,,,-1.20000000e-009,-1.25000009e-005
,,,-1.17500000e-009,-1.64062512e-005
,,,-1.15000000e-009,-1.79687513e-005
,,,-1.12500000e-009,-1.64062512e-005
,,,-1.10000000e-009,-1.25000009e-005
,,,-1.07500000e-009,-6.25000044e-006
,,,-1.05000000e-009,0.00000000e+000
,,,-1.02500000e-009,-1.64062512e-005
,,,-1.00000000e-009,-3.90625028e-005
,,,-9.75000000e-010,-6.48437546e-005
,,,-9.50000000e-010,-9.29687566e-005
,,,-9.25000000e-010,-1.21875009e-004
,,,-9.00000000e-010,-1.50000011e-004
,,,-8.75000000e-010,-1.75781262e-004
,,,-8.50000000e-010,-2.00000014e-004
,,,-8.25000000e-010,-2.48437518e-004
,,,-8.00000000e-010,-3.00000021e-004
,,,-7.75000000e-010,-3.53125025e-004
,,,-7.50000000e-010,-4.06250029e-004
,,,-7.25000000e-010,-4.57812532e-004
,,,-7.00000000e-010,-5.07031286e-004
,,,-6.75000000e-010,-5.53906289e-004
,,,-6.50000000e-010,-6.00000042e-004
,,,-6.25000000e-010,-6.75000048e-004
,,,-6.00000000e-010,-7.57031304e-004
,,,-5.75000000e-010,-8.47656310e-004
,,,-5.50000000e-010,-9.44531317e-004
,,,-5.25000000e-010,-1.04765632e-003
,,,-5.00000000e-010,-1.15703133e-003
,,,-4.75000000e-010,-1.27421884e-003
,,,-4.50000000e-010,-1.40000010e-003
,,,-4.25000000e-010,-1.55859386e-003
,,,-4.00000000e-010,-1.73281262e-003
,,,-3.75000000e-010,-1.92109389e-003
,,,-3.50000000e-010,-2.12187515e-003
,,,-3.25000000e-010,-2.33203142e-003
,,,-3.00000000e-010,-2.55000018e-003
,,,-2.75000000e-010,-2.77343770e-003
,,,-2.50000000e-010,-3.00000021e-003
,,,-2.25000000e-010,-3.23906273e-003
,,,-2.00000000e-010,-3.48203150e-003
,,,-1.75000000e-010,-3.72421901e-003
,,,-1.50000000e-010,-3.96171903e-003
,,,-1.25000000e-010,-4.19140655e-003
,,,-1.00000000e-010,-4.40859406e-003
,,,-7.50000000e-011,-4.61171908e-003
,,,-5.00000000e-011,-4.80000034e-003
,,,-2.50000000e-011,-4.96875035e-003
,,,0.00000000e+000,-5.12890661e-003
,,,2.50000000e-011,-5.28281287e-003
,,,5.00000000e-011,-5.43203163e-003
,,,7.50000000e-011,-5.57812539e-003
,,,1.00000000e-010,-5.72031290e-003
,,,1.25000000e-010,-5.86093791e-003
,,,1.50000000e-010,-6.00000042e-003
,,,1.75000000e-010,-6.12500043e-003
,,,2.00000000e-010,-6.25468794e-003
,,,2.25000000e-010,-6.38828170e-003
,,,2.50000000e-010,-6.52265671e-003
,,,2.75000000e-010,-6.65468797e-003
,,,3.00000000e-010,-6.77968798e-003
,,,3.25000000e-010,-6.89531299e-003
,,,3.50000000e-010,-7.00000050e-003
,,,3.75000000e-010,-7.07031300e-003
,,,4.00000000e-010,-7.13671926e-003
,,,4.25000000e-010,-7.20312551e-003
,,,4.50000000e-010,-7.27187551e-003
,,,4.75000000e-010,-7.34453177e-003
,,,5.00000000e-010,-7.42343803e-003
,,,5.25000000e-010,-7.50859428e-003
,,,5.50000000e-010,-7.60000054e-003
,,,5.75000000e-010,-7.66875054e-003
,,,6.00000000e-010,-7.74609430e-003
,,,6.25000000e-010,-7.83046930e-003
,,,6.50000000e-010,-7.91718806e-003
,,,6.75000000e-010,-8.00234432e-003
,,,7.00000000e-010,-8.08046932e-003
,,,7.25000000e-010,-8.14765683e-003
,,,7.50000000e-010,-8.20000058e-003
,,,7.75000000e-010,-8.20546933e-003
,,,8.00000000e-010,-8.20156308e-003
,,,8.25000000e-010,-8.19140683e-003
,,,8.50000000e-010,-8.17968808e-003
,,,8.75000000e-010,-8.17109433e-003
,,,9.00000000e-010,-8.16953183e-003
,,,9.25000000e-010,-8.17890683e-003
,,,9.50000000e-010,-8.20000058e-003
,,,9.75000000e-010,-8.20312558e-003
,,,1.00000000e-009,-8.21875058e-003
,,,1.02500000e-009,-8.24531308e-003
,,,1.05000000e-009,-8.27968809e-003
,,,1.07500000e-009,-8.31718809e-003
,,,1.10000000e-009,-8.35312559e-003
,,,1.12500000e-009,-8.38203184e-003
,,,1.15000000e-009,-8.40000059e-003
,,,1.17500000e-009,-8.37031309e-003
,,,1.20000000e-009,-8.32343809e-003
,,,1.22500000e-009,-8.25937558e-003
,,,1.25000000e-009,-8.18203183e-003
,,,1.27500000e-009,-8.09375057e-003
,,,1.30000000e-009,-7.99843807e-003
,,,1.32500000e-009,-7.89921931e-003
,,,1.35000000e-009,-7.80000055e-003
,,,1.37500000e-009,-7.67578179e-003
,,,1.40000000e-009,-7.55468803e-003
,,,1.42500000e-009,-7.43984428e-003
,,,1.45000000e-009,-7.33359427e-003
,,,1.47500000e-009,-7.23593801e-003
,,,1.50000000e-009,-7.14921926e-003
,,,1.52500000e-009,-7.07109425e-003
,,,1.55000000e-009,-7.00000050e-003
,,,1.57500000e-009,-6.91250049e-003
,,,1.60000000e-009,-6.82343798e-003
,,,1.62500000e-009,-6.73125048e-003
,,,1.65000000e-009,-6.63515672e-003
,,,1.67500000e-009,-6.53437546e-003
,,,1.70000000e-009,-6.42890671e-003
,,,1.72500000e-009,-6.31718795e-003
,,,1.75000000e-009,-6.20000044e-003
,,,1.77500000e-009,-6.06328168e-003
,,,1.80000000e-009,-5.91640667e-003
,,,1.82500000e-009,-5.76328166e-003
,,,1.85000000e-009,-5.60546915e-003
,,,1.87500000e-009,-5.44687539e-003
,,,1.90000000e-009,-5.29218787e-003
,,,1.92500000e-009,-5.14218786e-003
,,,1.95000000e-009,-5.00000035e-003
,,,1.97500000e-009,-4.86171909e-003
,,,2.00000000e-009,-4.72734408e-003
,,,2.02500000e-009,-4.59687533e-003
,,,2.05000000e-009,-4.47031282e-003
,,,2.07500000e-009,-4.34843781e-003
,,,2.10000000e-009,-4.22968780e-003
,,,2.12500000e-009,-4.11328154e-003
,,,2.15000000e-009,-4.00000028e-003
,,,2.17500000e-009,-3.89062528e-003
,,,2.20000000e-009,-3.77500027e-003
,,,2.22500000e-009,-3.65312526e-003
,,,2.25000000e-009,-3.52578150e-003
,,,2.27500000e-009,-3.39375024e-003
,,,2.30000000e-009,-3.26093773e-003
,,,2.32500000e-009,-3.12890647e-003
,,,2.35000000e-009,-3.00000021e-003
,,,2.37500000e-009,-2.88515645e-003
,,,2.40000000e-009,-2.77187520e-003
,,,2.42500000e-009,-2.66015644e-003
,,,2.45000000e-009,-2.55312518e-003
,,,2.47500000e-009,-2.45156267e-003
,,,2.50000000e-009,-2.35781267e-003
,,,2.52500000e-009,-2.27421891e-003
,,,2.55000000e-009,-2.20000016e-003
,,,2.57500000e-009,-2.14609390e-003
,,,2.60000000e-009,-2.09531265e-003
,,,2.62500000e-009,-2.04609389e-003
,,,2.65000000e-009,-1.99687514e-003
,,,2.67500000e-009,-1.94765639e-003
,,,2.70000000e-009,-1.89765638e-003
,,,2.72500000e-009,-1.84843763e-003
,,,2.75000000e-009,-1.80000013e-003
,,,2.77500000e-009,-1.76171887e-003
,,,2.80000000e-009,-1.71875012e-003
,,,2.82500000e-009,-1.66953137e-003
,,,2.85000000e-009,-1.61640636e-003
,,,2.87500000e-009,-1.56015636e-003
,,,2.90000000e-009,-1.50390636e-003
,,,2.92500000e-009,-1.45000010e-003
,,,2.95000000e-009,-1.40000010e-003
,,,2.97500000e-009,-1.36328135e-003
,,,3.00000000e-009,-1.32890634e-003
,,,3.02500000e-009,-1.29765634e-003
,,,3.05000000e-009,-1.26875009e-003
,,,3.07500000e-009,-1.24453134e-003
,,,3.10000000e-009,-1.22500009e-003
,,,3.12500000e-009,-1.21015634e-003
,,,3.15000000e-009,-1.20000008e-003
,,,3.17500000e-009,-1.19687508e-003
,,,3.20000000e-009,-1.18984383e-003
,,,3.22500000e-009,-1.17734383e-003
,,,3.25000000e-009,-1.15781258e-003
,,,3.27500000e-009,-1.13046883e-003
,,,3.30000000e-009,-1.09453133e-003
,,,3.32500000e-009,-1.05078132e-003
,,,3.35000000e-009,-1.00000007e-003
,,,3.37500000e-009,-9.47656317e-004
,,,3.40000000e-009,-8.89843813e-004
,,,3.42500000e-009,-8.29687559e-004
,,,3.45000000e-009,-7.69531304e-004
,,,3.47500000e-009,-7.14062551e-004
,,,3.50000000e-009,-6.65625047e-004
,,,3.52500000e-009,-6.26562544e-004
,,,3.55000000e-009,-6.00000042e-004
,,,3.57500000e-009,-5.89843792e-004
,,,3.60000000e-009,-5.88281292e-004
,,,3.62500000e-009,-5.92968792e-004
,,,3.65000000e-009,-6.01562543e-004
,,,3.67500000e-009,-6.09375043e-004
,,,3.70000000e-009,-6.13281293e-004
,,,3.72500000e-009,-6.10937543e-004
,,,3.75000000e-009,-6.00000042e-004
,,,3.77500000e-009,-5.81250041e-004
,,,3.80000000e-009,-5.50000039e-004
,,,3.82500000e-009,-5.07812536e-004
,,,3.85000000e-009,-4.54687532e-004
,,,3.87500000e-009,-3.93750028e-004
,,,3.90000000e-009,-3.28906273e-004
,,,3.92500000e-009,-2.63281269e-004
,,,3.95000000e-009,-2.00000014e-004
,,,3.97500000e-009,-1.46875010e-004
,,,4.00000000e-009,-1.01562507e-004
,,,4.02500000e-009,-6.40625045e-005
,,,4.05000000e-009,-3.51562525e-005
,,,4.07500000e-009,-1.40625010e-005
,,,4.10000000e-009,-1.56250011e-006
,,,4.12500000e-009,2.34375017e-006
,,,4.15000000e-009,0.00000000e+000
,,,4.17500000e-009,-1.48437511e-005
,,,4.20000000e-009,-3.43750024e-005
,,,4.22500000e-009,-5.78125041e-005
,,,4.25000000e-009,-8.28125059e-005
,,,4.27500000e-009,-1.10156258e-004
,,,4.30000000e-009,-1.38281260e-004
,,,4.32500000e-009,-1.68750012e-004
,,,4.35000000e-009,-2.00000014e-004
,,,4.37500000e-009,-2.35937517e-004
,,,4.40000000e-009,-2.70312519e-004
,,,4.42500000e-009,-3.02343771e-004
,,,4.45000000e-009,-3.30468773e-004
,,,4.47500000e-009,-3.54687525e-004
,,,4.50000000e-009,-3.74218776e-004
,,,4.52500000e-009,-3.89062528e-004
,,,4.55000000e-009,-4.00000028e-004
,,,4.57500000e-009,-4.06250029e-004
,,,4.60000000e-009,-4.08593779e-004
,,,4.62500000e-009,-4.08593779e-004
,,,4.65000000e-009,-4.06250029e-004
,,,4.67500000e-009,-4.03125029e-004
,,,4.70000000e-009,-4.00781278e-004
,,,4.72500000e-009,-3.99218778e-004
,,,4.75000000e-009,-4.00000028e-004
,,,4.77500000e-009,-4.03125029e-004
,,,4.80000000e-009,-4.07031279e-004
,,,4.82500000e-009,-4.11718779e-004
,,,4.85000000e-009,-4.14843779e-004
,,,4.87500000e-009,-4.15625029e-004
,,,4.90000000e-009,-4.14062529e-004
,,,4.92500000e-009,-4.08593779e-004
,,,4.95000000e-009,-4.00000028e-004
,,,4.97500000e-009,-3.86718777e-004
,,,5.00000000e-009,-3.73437526e-004
,,,5.02500000e-009,-3.61718776e-004
,,,5.05000000e-009,-3.53906275e-004
,,,5.07500000e-009,-3.52343775e-004
,,,5.10000000e-009,-3.58593775e-004
,,,5.12500000e-009,-3.74218776e-004
,,,5.15000000e-009,-4.00000028e-004
,,,5.17500000e-009,-4.30468780e-004
,,,5.20000000e-009,-4.65625033e-004
,,,5.22500000e-009,-5.03906286e-004
,,,5.25000000e-009,-5.40625038e-004
,,,5.27500000e-009,-5.71093790e-004
,,,5.30000000e-009,-5.92968792e-004
,,,5.32500000e-009,-6.03125043e-004
,,,5.35000000e-009,-6.00000042e-004
,,,5.37500000e-009,-5.78906291e-004
,,,5.40000000e-009,-5.47656289e-004
,,,5.42500000e-009,-5.10937536e-004
,,,5.45000000e-009,-4.71875033e-004
,,,5.47500000e-009,-4.37500031e-004
,,,5.50000000e-009,-4.11718779e-004
,,,5.52500000e-009,-3.98437528e-004
,,,5.55000000e-009,-4.00000028e-004
,,,5.57500000e-009,-4.14062529e-004
,,,5.60000000e-009,-4.40625031e-004
,,,5.62500000e-009,-4.76562534e-004
,,,5.65000000e-009,-5.15625036e-004
,,,5.67500000e-009,-5.53125039e-004
,,,5.70000000e-009,-5.82031291e-004
,,,5.72500000e-009,-5.99218792e-004
,,,5.75000000e-009,-6.00000042e-004
,,,5.77500000e-009,-5.79687541e-004
,,,5.80000000e-009,-5.42968788e-004
,,,5.82500000e-009,-4.91406285e-004
,,,5.85000000e-009,-4.31250031e-004
,,,5.87500000e-009,-3.66406276e-004
