RawData/DifferentLengths/R3/R3_2pt2B_5mV/wave022_Ch2.csv

"Record Length",1000,"Points",-7.72500000e-009,3.56250025e-004
"Sample Interval",2.50000000e-011,s,-7.70000000e-009,3.06250022e-004
"Trigger Point",309,"Samples",-7.67500000e-009,2.51562518e-004
"Trigger Time",3.87961123e-012,s,-7.65000000e-009,1.95312514e-004
"",,,-7.62500000e-009,1.39062510e-004
"Horizontal Offset",-7.72500000e-009,s,-7.60000000e-009,8.67187561e-005
,,,-7.57500000e-009,3.90625028e-005
,,,-7.55000000e-009,0.00000000e+000
,,,-7.52500000e-009,-2.81250020e-005
,,,-7.50000000e-009,-4.68750033e-005
,,,-7.47500000e-009,-5.62500040e-005
,,,-7.45000000e-009,-5.62500040e-005
,,,-7.42500000e-009,-4.84375034e-005
,,,-7.40000000e-009,-3.51562525e-005
,,,-7.37500000e-009,-1.79687513e-005
,,,-7.35000000e-009,0.00000000e+000
,,,-7.32500000e-009,1.87500013e-005
,,,-7.30000000e-009,3.51562525e-005
,,,-7.27500000e-009,4.68750033e-005
,,,-7.25000000e-009,5.15625036e-005
,,,-7.22500000e-009,5.00000035e-005
,,,-7.20000000e-009,4.06250029e-005
,,,-7.17500000e-009,2.34375017e-005
,,,-7.15000000e-009,0.00000000e+000
,,,-7.12500000e-009,-2.57812518e-005
,,,-7.10000000e-009,-5.54687539e-005
,,,-7.07500000e-009,-8.59375061e-005
,,,-7.05000000e-009,-1.16406258e-004
,,,-7.02500000e-009,-1.44531260e-004
,,,-7.00000000e-009,-1.69531262e-004
,,,-6.97500000e-009,-1.88281263e-004
,,,-6.95000000e-009,-2.00000014e-004
,,,-6.92500000e-009,-1.97656264e-004
,,,-6.90000000e-009,-1.87500013e-004
,,,-6.87500000e-009,-1.69531262e-004
,,,-6.85000000e-009,-1.44531260e-004
,,,-6.82500000e-009,-1.14062508e-004
,,,-6.80000000e-009,-7.81250055e-005
,,,-6.77500000e-009,-3.98437528e-005
,,,-6.75000000e-009,0.00000000e+000
,,,-6.72500000e-009,4.14062529e-005
,,,-6.70000000e-009,8.04687557e-005
,,,-6.67500000e-009,1.14843758e-004
,,,-6.65000000e-009,1.43750010e-004
,,,-6.62500000e-009,1.67187512e-004
,,,-6.60000000e-009,1.83593763e-004
,,,-6.57500000e-009,1.94531264e-004
,,,-6.55000000e-009,2.00000014e-004
,,,-6.52500000e-009,2.00000014e-004
,,,-6.50000000e-009,1.98437514e-004
,,,-6.47500000e-009,1.94531264e-004
,,,-6.45000000e-009,1.90625013e-004
,,,-6.42500000e-009,1.88281263e-004
,,,-6.40000000e-009,1.88281263e-004
,,,-6.37500000e-009,1.92187514e-004
,,,-6.35000000e-009,2.00000014e-004
,,,-6.32500000e-009,2.10937515e-004
,,,-6.30000000e-009,2.28125016e-004
,,,-6.27500000e-009,2.50000018e-004
,,,-6.25000000e-009,2.75781270e-004
,,,-6.22500000e-009,3.04687522e-004
,,,-6.20000000e-009,3.36718774e-004
,,,-6.17500000e-009,3.68750026e-004
,,,-6.15000000e-009,4.00000028e-004
,,,-6.12500000e-009,4.25000030e-004
,,,-6.10000000e-009,4.45312532e-004
,,,-6.07500000e-009,4.58593782e-004
,,,-6.05000000e-009,4.64843783e-004
,,,-6.02500000e-009,4.61718783e-004
,,,-6.00000000e-009,4.49218782e-004
,,,-5.97500000e-009,4.28125030e-004
,,,-5.95000000e-009,4.00000028e-004
,,,-5.92500000e-009,3.62500026e-004
,,,-5.90000000e-009,3.24218773e-004
,,,-5.87500000e-009,2.85937520e-004
,,,-5.85000000e-009,2.51562518e-004
,,,-5.82500000e-009,2.24218766e-004
,,,-5.80000000e-009,2.05468765e-004
,,,-5.77500000e-009,1.96875014e-004
,,,-5.75000000e-009,2.00000014e-004
,,,-5.72500000e-009,2.13281265e-004
,,,-5.70000000e-009,2.35937517e-004
,,,-5.67500000e-009,2.66406269e-004
,,,-5.65000000e-009,3.00000021e-004
,,,-5.62500000e-009,3.32812524e-004
,,,-5.60000000e-009,3.63281276e-004
,,,-5.57500000e-009,3.85937527e-004
,,,-5.55000000e-009,4.00000028e-004
,,,-5.52500000e-009,4.02343778e-004
,,,-5.50000000e-009,3.93750028e-004
,,,-5.47500000e-009,3.75000027e-004
,,,-5.45000000e-009,3.47656275e-004
,,,-5.42500000e-009,3.13281272e-004
,,,-5.40000000e-009,2.75000019e-004
,,,-5.37500000e-009,2.36718767e-004
,,,-5.35000000e-009,2.00000014e-004
,,,-5.32500000e-009,1.69531262e-004
,,,-5.30000000e-009,1.47656260e-004
,,,-5.27500000e-009,1.35156260e-004
,,,-5.25000000e-009,1.31250009e-004
,,,-5.22500000e-009,1.36718760e-004
,,,-5.20000000e-009,1.51562511e-004
,,,-5.17500000e-009,1.72656262e-004
,,,-5.15000000e-009,2.00000014e-004
,,,-5.12500000e-009,2.32031266e-004
,,,-5.10000000e-009,2.65625019e-004
,,,-5.07500000e-009,2.97656271e-004
,,,-5.05000000e-009,3.28125023e-004
,,,-5.02500000e-009,3.53906275e-004
,,,-5.00000000e-009,3.75000027e-004
,,,-4.97500000e-009,3.89843778e-004
,,,-4.95000000e-009,4.00000028e-004
,,,-4.92500000e-009,4.05468779e-004
,,,-4.90000000e-009,4.07812529e-004
,,,-4.87500000e-009,4.06250029e-004
,,,-4.85000000e-009,4.03125029e-004
,,,-4.82500000e-009,3.99218778e-004
,,,-4.80000000e-009,3.96875028e-004
,,,-4.77500000e-009,3.96093778e-004
,,,-4.75000000e-009,4.00000028e-004
,,,-4.72500000e-009,4.07812529e-004
,,,-4.70000000e-009,4.21875030e-004
,,,-4.67500000e-009,4.41406281e-004
,,,-4.65000000e-009,4.67187533e-004
,,,-4.62500000e-009,4.96875035e-004
,,,-4.60000000e-009,5.30468788e-004
,,,-4.57500000e-009,5.64843790e-004
,,,-4.55000000e-009,6.00000042e-004
,,,-4.52500000e-009,6.28906295e-004
,,,-4.50000000e-009,6.53125046e-004
,,,-4.47500000e-009,6.69531297e-004
,,,-4.45000000e-009,6.76562548e-004
,,,-4.42500000e-009,6.73437548e-004
,,,-4.40000000e-009,6.58593797e-004
,,,-4.37500000e-009,6.33593795e-004
,,,-4.35000000e-009,6.00000042e-004
,,,-4.32500000e-009,5.57031289e-004
,,,-4.30000000e-009,5.12500036e-004
,,,-4.27500000e-009,4.69531283e-004
,,,-4.25000000e-009,4.32031281e-004
,,,-4.22500000e-009,4.03125029e-004
,,,-4.20000000e-009,3.87500027e-004
,,,-4.17500000e-009,3.85156277e-004
,,,-4.15000000e-009,4.00000028e-004
,,,-4.12500000e-009,4.29687530e-004
,,,-4.10000000e-009,4.72656283e-004
,,,-4.07500000e-009,5.27343787e-004
,,,-4.05000000e-009,5.87500042e-004
,,,-4.02500000e-009,6.50000046e-004
,,,-4.00000000e-009,7.08593800e-004
,,,-3.97500000e-009,7.60156304e-004
,,,-3.95000000e-009,8.00000057e-004
,,,-3.92500000e-009,8.21875058e-004
,,,-3.90000000e-009,8.27343809e-004
,,,-3.87500000e-009,8.17187558e-004
,,,-3.85000000e-009,7.92187556e-004
,,,-3.82500000e-009,7.54687553e-004
,,,-3.80000000e-009,7.07812550e-004
,,,-3.77500000e-009,6.54687546e-004
,,,-3.75000000e-009,6.00000042e-004
,,,-3.72500000e-009,5.44531289e-004
,,,-3.70000000e-009,4.94531285e-004
,,,-3.67500000e-009,4.52343782e-004
,,,-3.65000000e-009,4.20312530e-004
,,,-3.62500000e-009,3.98437528e-004
,,,-3.60000000e-009,3.88281277e-004
,,,-3.57500000e-009,3.89062528e-004
,,,-3.55000000e-009,4.00000028e-004
,,,-3.52500000e-009,4.19531280e-004
,,,-3.50000000e-009,4.44531281e-004
,,,-3.47500000e-009,4.73437534e-004
,,,-3.45000000e-009,5.03906286e-004
,,,-3.42500000e-009,5.33593788e-004
,,,-3.40000000e-009,5.60156290e-004
,,,-3.37500000e-009,5.82031291e-004
,,,-3.35000000e-009,6.00000042e-004
,,,-3.32500000e-009,6.10156293e-004
,,,-3.30000000e-009,6.14843794e-004
,,,-3.27500000e-009,6.15625044e-004
,,,-3.25000000e-009,6.12500043e-004
,,,-3.22500000e-009,6.07812543e-004
,,,-3.20000000e-009,6.03125043e-004
,,,-3.17500000e-009,6.00781293e-004
,,,-3.15000000e-009,6.00000042e-004
,,,-3.12500000e-009,5.97656292e-004
,,,-3.10000000e-009,5.98437542e-004
,,,-3.07500000e-009,6.00781293e-004
,,,-3.05000000e-009,6.03906293e-004
,,,-3.02500000e-009,6.06250043e-004
,,,-3.00000000e-009,6.07812543e-004
,,,-2.97500000e-009,6.05468793e-004
,,,-2.95000000e-009,6.00000042e-004
,,,-2.92500000e-009,5.87500042e-004
,,,-2.90000000e-009,5.69531290e-004
,,,-2.87500000e-009,5.46093789e-004
,,,-2.85000000e-009,5.18750037e-004
,,,-2.82500000e-009,4.89062535e-004
,,,-2.80000000e-009,4.57812532e-004
,,,-2.77500000e-009,4.27343780e-004
,,,-2.75000000e-009,4.00000028e-004
,,,-2.72500000e-009,3.77343777e-004
,,,-2.70000000e-009,3.60156275e-004
,,,-2.67500000e-009,3.50000025e-004
,,,-2.65000000e-009,3.47656275e-004
,,,-2.62500000e-009,3.51562525e-004
,,,-2.60000000e-009,3.62500026e-004
,,,-2.57500000e-009,3.79687527e-004
,,,-2.55000000e-009,4.00000028e-004
,,,-2.52500000e-009,4.20312530e-004
,,,-2.50000000e-009,4.39843781e-004
,,,-2.47500000e-009,4.54687532e-004
,,,-2.45000000e-009,4.64062533e-004
,,,-2.42500000e-009,4.64062533e-004
,,,-2.40000000e-009,4.53906282e-004
,,,-2.37500000e-009,4.32812531e-004
,,,-2.35000000e-009,4.00000028e-004
,,,-2.32500000e-009,3.55468775e-004
,,,-2.30000000e-009,3.02343771e-004
,,,-2.27500000e-009,2.44531267e-004
,,,-2.25000000e-009,1.84375013e-004
,,,-2.22500000e-009,1.26562509e-004
,,,-2.20000000e-009,7.34375052e-005
,,,-2.17500000e-009,3.04687522e-005
,,,-2.15000000e-009,0.00000000e+000
,,,-2.12500000e-009,-1.40625010e-005
,,,-2.10000000e-009,-1.40625010e-005
,,,-2.07500000e-009,-7.81250055e-007
,,,-2.05000000e-009,2.34375017e-005
,,,-2.02500000e-009,5.93750042e-005
,,,-2.00000000e-009,1.02343757e-004
,,,-1.97500000e-009,1.50000011e-004
,,,-1.95000000e-009,2.00000014e-004
,,,-1.92500000e-009,2.49218768e-004
,,,-1.90000000e-009,2.94531271e-004
,,,-1.87500000e-009,3.32031274e-004
,,,-1.85000000e-009,3.62500026e-004
,,,-1.82500000e-009,3.84375027e-004
,,,-1.80000000e-009,3.97656278e-004
,,,-1.77500000e-009,4.02343778e-004
,,,-1.75000000e-009,4.00000028e-004
,,,-1.72500000e-009,3.88281277e-004
,,,-1.70000000e-009,3.71093776e-004
,,,-1.67500000e-009,3.48437525e-004
,,,-1.65000000e-009,3.22656273e-004
,,,-1.62500000e-009,2.93750021e-004
,,,-1.60000000e-009,2.63281269e-004
,,,-1.57500000e-009,2.31250016e-004
,,,-1.55000000e-009,2.00000014e-004
,,,-1.52500000e-009,1.67187512e-004
,,,-1.50000000e-009,1.36718760e-004
,,,-1.47500000e-009,1.07031258e-004
,,,-1.45000000e-009,7.96875056e-005
,,,-1.42500000e-009,5.54687539e-005
,,,-1.40000000e-009,3.35937524e-005
,,,-1.37500000e-009,1.48437511e-005
,,,-1.35000000e-009,0.00000000e+000
,,,-1.32500000e-009,-1.48437511e-005
,,,-1.30000000e-009,-2.65625019e-005
,,,-1.27500000e-009,-3.51562525e-005
,,,-1.25000000e-009,-3.98437528e-005
,,,-1.22500000e-009,-3.82812527e-005
,,,-1.20000000e-009,-3.20312523e-005
,,,-1.17500000e-009,-1.87500013e-005
,,,-1.15000000e-009,0.00000000e+000
,,,-1.12500000e-009,1.01562507e-005
,,,-1.10000000e-009,2.34375017e-005
,,,-1.07500000e-009,4.14062529e-005
,,,-1.05000000e-009,6.32812545e-005
,,,-1.02500000e-009,8.98437564e-005
,,,-1.00000000e-009,1.22656259e-004
,,,-9.75000000e-010,1.59375011e-004
,,,-9.50000000e-010,2.00000014e-004
,,,-9.25000000e-010,2.11718765e-004
,,,-9.00000000e-010,2.17187515e-004
,,,-8.75000000e-010,2.18750015e-004
,,,-8.50000000e-010,2.17187515e-004
,,,-8.25000000e-010,2.13281265e-004
,,,-8.00000000e-010,2.09375015e-004
,,,-7.75000000e-010,2.04687514e-004
,,,-7.50000000e-010,2.00000014e-004
,,,-7.25000000e-010,1.51562511e-004
,,,-7.00000000e-010,9.60937568e-005
,,,-6.75000000e-010,3.75000027e-005
,,,-6.50000000e-010,-2.10937515e-005
,,,-6.25000000e-010,-7.65625054e-005
,,,-6.00000000e-010,-1.25000009e-004
,,,-5.75000000e-010,-1.65625012e-004
,,,-5.50000000e-010,-2.00000014e-004
,,,-5.25000000e-010,-2.76562520e-004
,,,-5.00000000e-010,-3.60156275e-004
,,,-4.75000000e-010,-4.49218782e-004
,,,-4.50000000e-010,-5.43750038e-004
,,,-4.25000000e-010,-6.45312546e-004
,,,-4.00000000e-010,-7.53125053e-004
,,,-3.75000000e-010,-8.70312562e-004
,,,-3.50000000e-010,-1.00000007e-003
,,,-3.25000000e-010,-1.18984383e-003
,,,-3.00000000e-010,-1.40390635e-003
,,,-2.75000000e-010,-1.63906262e-003
,,,-2.50000000e-010,-1.89062513e-003
,,,-2.25000000e-010,-2.15625015e-003
,,,-2.00000000e-010,-2.43046892e-003
,,,-1.75000000e-010,-2.71250019e-003
,,,-1.50000000e-010,-3.00000021e-003
,,,-1.25000000e-010,-3.32187524e-003
,,,-1.00000000e-010,-3.65546901e-003
,,,-7.50000000e-011,-3.99921903e-003
,,,-5.00000000e-011,-4.35078156e-003
,,,-2.50000000e-011,-4.70859408e-003
,,,0.00000000e+000,-5.07031286e-003
,,,2.50000000e-011,-5.43437538e-003
,,,5.00000000e-011,-5.80000041e-003
,,,7.50000000e-011,-6.16640669e-003
,,,1.00000000e-010,-6.53671921e-003
,,,1.25000000e-010,-6.90703174e-003
,,,1.50000000e-010,-7.27343801e-003
,,,1.75000000e-010,-7.63046929e-003
,,,2.00000000e-010,-7.97265681e-003
,,,2.25000000e-010,-8.29687559e-003
,,,2.50000000e-010,-8.60000061e-003
,,,2.75000000e-010,-8.85546938e-003
,,,3.00000000e-010,-9.09921939e-003
,,,3.25000000e-010,-9.33203191e-003
,,,3.50000000e-010,-9.55703193e-003
,,,3.75000000e-010,-9.77578194e-003
,,,4.00000000e-010,-9.98906321e-003
,,,4.25000000e-010,-1.01968757e-002
,,,4.50000000e-010,-1.04000007e-002
,,,4.75000000e-010,-1.05539070e-002
,,,5.00000000e-010,-1.07101570e-002
,,,5.25000000e-010,-1.08703133e-002
,,,5.50000000e-010,-1.10312508e-002
,,,5.75000000e-010,-1.11890633e-002
,,,6.00000000e-010,-1.13398446e-002
,,,6.25000000e-010,-1.14781258e-002
,,,6.50000000e-010,-1.16000008e-002
,,,6.75000000e-010,-1.16453133e-002
,,,7.00000000e-010,-1.16804696e-002
,,,7.25000000e-010,-1.17085946e-002
,,,7.50000000e-010,-1.17320321e-002
,,,7.75000000e-010,-1.17515633e-002
,,,8.00000000e-010,-1.17695321e-002
,,,8.25000000e-010,-1.17859383e-002
,,,8.50000000e-010,-1.18000008e-002
,,,8.75000000e-010,-1.17539071e-002
,,,9.00000000e-010,-1.17140633e-002
,,,9.25000000e-010,-1.16812508e-002
,,,9.50000000e-010,-1.16562508e-002
,,,9.75000000e-010,-1.16382821e-002
,,,1.00000000e-009,-1.16250008e-002
,,,1.02500000e-009,-1.16132821e-002
,,,1.05000000e-009,-1.16000008e-002
,,,1.07500000e-009,-1.15304696e-002
,,,1.10000000e-009,-1.14578133e-002
,,,1.12500000e-009,-1.13835946e-002
,,,1.15000000e-009,-1.13070321e-002
,,,1.17500000e-009,-1.12312508e-002
,,,1.20000000e-009,-1.11546883e-002
,,,1.22500000e-009,-1.10781258e-002
,,,1.25000000e-009,-1.10000008e-002
,,,1.27500000e-009,-1.08789070e-002
,,,1.30000000e-009,-1.07539070e-002
,,,1.32500000e-009,-1.06273445e-002
,,,1.35000000e-009,-1.05000007e-002
,,,1.37500000e-009,-1.03734382e-002
,,,1.40000000e-009,-1.02484382e-002
,,,1.42500000e-009,-1.01242195e-002
,,,1.45000000e-009,-1.00000007e-002
,,,1.47500000e-009,-9.84296945e-003
,,,1.50000000e-009,-9.67890694e-003
,,,1.52500000e-009,-9.50859442e-003
,,,1.55000000e-009,-9.33281316e-003
,,,1.57500000e-009,-9.15234440e-003
,,,1.60000000e-009,-8.97031313e-003
,,,1.62500000e-009,-8.78593812e-003
,,,1.65000000e-009,-8.60000061e-003
,,,1.67500000e-009,-8.39531309e-003
,,,1.70000000e-009,-8.18593808e-003
,,,1.72500000e-009,-7.97421931e-003
,,,1.75000000e-009,-7.76250055e-003
,,,1.77500000e-009,-7.55703178e-003
,,,1.80000000e-009,-7.35937552e-003
,,,1.82500000e-009,-7.17265676e-003
,,,1.85000000e-009,-7.00000050e-003
,,,1.87500000e-009,-6.83359423e-003
,,,1.90000000e-009,-6.67265672e-003
,,,1.92500000e-009,-6.51640671e-003
,,,1.95000000e-009,-6.36406295e-003
,,,1.97500000e-009,-6.21640669e-003
,,,2.00000000e-009,-6.07343793e-003
,,,2.02500000e-009,-5.93515667e-003
,,,2.05000000e-009,-5.80000041e-003
,,,2.07500000e-009,-5.66562540e-003
,,,2.10000000e-009,-5.52343789e-003
,,,2.12500000e-009,-5.37343788e-003
,,,2.15000000e-009,-5.21875037e-003
,,,2.17500000e-009,-5.06093786e-003
,,,2.20000000e-009,-4.90390660e-003
,,,2.22500000e-009,-4.74921909e-003
,,,2.25000000e-009,-4.60000033e-003
,,,2.27500000e-009,-4.46093782e-003
,,,2.30000000e-009,-4.31796906e-003
,,,2.32500000e-009,-4.17109405e-003
,,,2.35000000e-009,-4.01953153e-003
,,,2.37500000e-009,-3.86484402e-003
,,,2.40000000e-009,-3.70937526e-003
,,,2.42500000e-009,-3.55312525e-003
,,,2.45000000e-009,-3.40000024e-003
,,,2.47500000e-009,-3.26250023e-003
,,,2.50000000e-009,-3.12265647e-003
,,,2.52500000e-009,-2.98281271e-003
,,,2.55000000e-009,-2.84609395e-003
,,,2.57500000e-009,-2.71640644e-003
,,,2.60000000e-009,-2.59687518e-003
,,,2.62500000e-009,-2.49062518e-003
,,,2.65000000e-009,-2.40000017e-003
,,,2.67500000e-009,-2.33671892e-003
,,,2.70000000e-009,-2.27656266e-003
,,,2.72500000e-009,-2.21640641e-003
,,,2.75000000e-009,-2.15156265e-003
,,,2.77500000e-009,-2.07890640e-003
,,,2.80000000e-009,-1.99687514e-003
,,,2.82500000e-009,-1.90390638e-003
,,,2.85000000e-009,-1.80000013e-003
,,,2.87500000e-009,-1.69843762e-003
,,,2.90000000e-009,-1.58203136e-003
,,,2.92500000e-009,-1.45234385e-003
,,,2.95000000e-009,-1.31484384e-003
,,,2.97500000e-009,-1.17421883e-003
,,,3.00000000e-009,-1.03750007e-003
,,,3.02500000e-009,-9.10937564e-004
,,,3.05000000e-009,-8.00000057e-004
,,,3.07500000e-009,-7.25000051e-004
,,,3.10000000e-009,-6.66406297e-004
,,,3.12500000e-009,-6.24218794e-004
,,,3.15000000e-009,-5.96093792e-004
,,,3.17500000e-009,-5.81250041e-004
,,,3.20000000e-009,-5.78906291e-004
,,,3.22500000e-009,-5.85937541e-004
,,,3.25000000e-009,-6.00000042e-004
,,,3.27500000e-009,-6.31250045e-004
,,,3.30000000e-009,-6.57031297e-004
,,,3.32500000e-009,-6.74218798e-004
,,,3.35000000e-009,-6.80468798e-004
,,,3.37500000e-009,-6.75000048e-004
,,,3.40000000e-009,-6.59375047e-004
,,,3.42500000e-009,-6.33593795e-004
,,,3.45000000e-009,-6.00000042e-004
,,,3.47500000e-009,-5.69531290e-004
,,,3.50000000e-009,-5.34375038e-004
,,,3.52500000e-009,-4.96875035e-004
,,,3.55000000e-009,-4.60937533e-004
,,,3.57500000e-009,-4.30468780e-004
,,,3.60000000e-009,-4.08593779e-004
,,,3.62500000e-009,-3.97656278e-004
,,,3.65000000e-009,-4.00000028e-004
,,,3.67500000e-009,-4.20312530e-004
,,,3.70000000e-009,-4.49218782e-004
,,,3.72500000e-009,-4.82031284e-004
,,,3.75000000e-009,-5.16406287e-004
,,,3.77500000e-009,-5.48437539e-004
,,,3.80000000e-009,-5.75000041e-004
,,,3.82500000e-009,-5.92187542e-004
,,,3.85000000e-009,-6.00000042e-004
,,,3.87500000e-009,-5.99218792e-004
,,,3.90000000e-009,-5.85937541e-004
,,,3.92500000e-009,-5.61718790e-004
,,,3.95000000e-009,-5.30468788e-004
,,,3.97500000e-009,-4.94531285e-004
,,,4.00000000e-009,-4.58593782e-004
,,,4.02500000e-009,-4.25781280e-004
,,,4.05000000e-009,-4.00000028e-004
,,,4.07500000e-009,-3.82031277e-004
,,,4.10000000e-009,-3.73437526e-004
,,,4.12500000e-009,-3.71093776e-004
,,,4.15000000e-009,-3.75781277e-004
,,,4.17500000e-009,-3.83593777e-004
,,,4.20000000e-009,-3.91406278e-004
,,,4.22500000e-009,-3.97656278e-004
,,,4.25000000e-009,-4.00000028e-004
,,,4.27500000e-009,-3.96093778e-004
,,,4.30000000e-009,-3.84375027e-004
,,,4.32500000e-009,-3.64843776e-004
,,,4.35000000e-009,-3.39062524e-004
,,,4.37500000e-009,-3.07031272e-004
,,,4.40000000e-009,-2.71875019e-004
,,,4.42500000e-009,-2.35156267e-004
,,,4.45000000e-009,-2.00000014e-004
,,,4.47500000e-009,-1.71875012e-004
,,,4.50000000e-009,-1.50000011e-004
,,,4.52500000e-009,-1.36718760e-004
,,,4.55000000e-009,-1.31250009e-004
,,,4.57500000e-009,-1.35937510e-004
,,,4.60000000e-009,-1.49218761e-004
,,,4.62500000e-009,-1.71093762e-004
,,,4.65000000e-009,-2.00000014e-004
,,,4.67500000e-009,-2.35156267e-004
,,,4.70000000e-009,-2.72656269e-004
,,,4.72500000e-009,-3.09375022e-004
,,,4.75000000e-009,-3.42968774e-004
,,,4.77500000e-009,-3.71093776e-004
,,,4.80000000e-009,-3.90625028e-004
,,,4.82500000e-009,-4.00000028e-004
,,,4.85000000e-009,-4.00000028e-004
,,,4.87500000e-009,-3.89843778e-004
,,,4.90000000e-009,-3.70312526e-004
,,,4.92500000e-009,-3.42968774e-004
,,,4.95000000e-009,-3.11718772e-004
,,,4.97500000e-009,-2.78125020e-004
,,,5.00000000e-009,-2.46875017e-004
,,,5.02500000e-009,-2.19531266e-004
,,,5.05000000e-009,-2.00000014e-004
,,,5.07500000e-009,-1.90625013e-004
,,,5.10000000e-009,-1.91406264e-004
,,,5.12500000e-009,-2.04687514e-004
,,,5.15000000e-009,-2.28125016e-004
,,,5.17500000e-009,-2.60937518e-004
,,,5.20000000e-009,-3.02343771e-004
,,,5.22500000e-009,-3.49218775e-004
,,,5.25000000e-009,-4.00000028e-004
,,,5.27500000e-009,-4.48437532e-004
,,,5.30000000e-009,-4.92968785e-004
,,,5.32500000e-009,-5.32812538e-004
,,,5.35000000e-009,-5.64843790e-004
,,,5.37500000e-009,-5.87500042e-004
,,,5.40000000e-009,-6.01562543e-004
,,,5.42500000e-009,-6.05468793e-004
,,,5.45000000e-009,-6.00000042e-004
,,,5.47500000e-009,-5.81250041e-004
,,,5.50000000e-009,-5.56250039e-004
,,,5.52500000e-009,-5.26562537e-004
,,,5.55000000e-009,-4.96093785e-004
,,,5.57500000e-009,-4.65625033e-004
,,,5.60000000e-009,-4.38281281e-004
,,,5.62500000e-009,-4.16406279e-004
,,,5.65000000e-009,-4.00000028e-004
,,,5.67500000e-009,-3.86718777e-004
,,,5.70000000e-009,-3.80468777e-004
,,,5.72500000e-009,-3.79687527e-004
,,,5.75000000e-009,-3.82812527e-004
,,,5.77500000e-009,-3.89062528e-004
,,,5.80000000e-009,-3.94531278e-004
,,,5.82500000e-009,-3.99218778e-004
,,,5.85000000e-009,-4.00000028e-004
,,,5.87500000e-009,-3.92187528e-004
,,,5.90000000e-009,-3.78125027e-004
,,,5.92500000e-009,-3.58593775e-004
,,,5.95000000e-009,-3.32812524e-004
,,,5.97500000e-009,-3.03125021e-004
