RawData/DifferentLengths/R3/R3_2pt2B_5mV/wave014_Ch2.csv

"Record Length",1000,"Points",-7.72500000e-009,-3.12500022e-006
"Sample Interval",2.50000000e-011,s,-7.70000000e-009,0.00000000e+000
"Trigger Point",309,"Samples",-7.67500000e-009,7.81250055e-007
"Trigger Time",2.40200000e-011,s,-7.65000000e-009,1.56250011e-006
"",,,-7.62500000e-009,0.00000000e+000
"Horizontal Offset",-7.72500000e-009,s,-7.60000000e-009,-3.90625028e-006
,,,-7.57500000e-009,-9.37500066e-006
,,,-7.55000000e-009,-1.48437511e-005
,,,-7.52500000e-009,-2.03125014e-005
,,,-7.50000000e-009,-2.26562516e-005
,,,-7.47500000e-009,-2.03125014e-005
,,,-7.45000000e-009,-1.32812509e-005
,,,-7.42500000e-009,0.00000000e+000
,,,-7.40000000e-009,1.87500013e-005
,,,-7.37500000e-009,4.21875030e-005
,,,-7.35000000e-009,7.03125050e-005
,,,-7.32500000e-009,1.00781257e-004
,,,-7.30000000e-009,1.30468759e-004
,,,-7.27500000e-009,1.58593761e-004
,,,-7.25000000e-009,1.82812513e-004
,,,-7.22500000e-009,2.00000014e-004
,,,-7.20000000e-009,2.04687514e-004
,,,-7.17500000e-009,2.00781264e-004
,,,-7.15000000e-009,1.86718763e-004
,,,-7.12500000e-009,1.63281262e-004
,,,-7.10000000e-009,1.32031259e-004
,,,-7.07500000e-009,9.21875065e-005
,,,-7.05000000e-009,4.76562534e-005
,,,-7.02500000e-009,0.00000000e+000
,,,-7.00000000e-009,-4.84375034e-005
,,,-6.97500000e-009,-9.37500066e-005
,,,-6.95000000e-009,-1.34375010e-004
,,,-6.92500000e-009,-1.67968762e-004
,,,-6.90000000e-009,-1.92187514e-004
,,,-6.87500000e-009,-2.05468765e-004
,,,-6.85000000e-009,-2.07812515e-004
,,,-6.82500000e-009,-2.00000014e-004
,,,-6.80000000e-009,-1.79687513e-004
,,,-6.77500000e-009,-1.52343761e-004
,,,-6.75000000e-009,-1.21093759e-004
,,,-6.72500000e-009,-8.75000062e-005
,,,-6.70000000e-009,-5.62500040e-005
,,,-6.67500000e-009,-2.89062520e-005
,,,-6.65000000e-009,-9.37500066e-006
,,,-6.62500000e-009,0.00000000e+000
,,,-6.60000000e-009,0.00000000e+000
,,,-6.57500000e-009,-1.09375008e-005
,,,-6.55000000e-009,-3.12500022e-005
,,,-6.52500000e-009,-5.93750042e-005
,,,-6.50000000e-009,-9.29687566e-005
,,,-6.47500000e-009,-1.29687509e-004
,,,-6.45000000e-009,-1.65625012e-004
,,,-6.42500000e-009,-2.00000014e-004
,,,-6.40000000e-009,-2.26562516e-004
,,,-6.37500000e-009,-2.46093767e-004
,,,-6.35000000e-009,-2.57031268e-004
,,,-6.32500000e-009,-2.60156268e-004
,,,-6.30000000e-009,-2.54687518e-004
,,,-6.27500000e-009,-2.42187517e-004
,,,-6.25000000e-009,-2.23437516e-004
,,,-6.22500000e-009,-2.00000014e-004
,,,-6.20000000e-009,-1.69531262e-004
,,,-6.17500000e-009,-1.39062510e-004
,,,-6.15000000e-009,-1.08593758e-004
,,,-6.12500000e-009,-7.96875056e-005
,,,-6.10000000e-009,-5.39062538e-005
,,,-6.07500000e-009,-3.20312523e-005
,,,-6.05000000e-009,-1.32812509e-005
,,,-6.02500000e-009,0.00000000e+000
,,,-6.00000000e-009,9.37500066e-006
,,,-5.97500000e-009,1.48437511e-005
,,,-5.95000000e-009,1.64062512e-005
,,,-5.92500000e-009,1.56250011e-005
,,,-5.90000000e-009,1.32812509e-005
,,,-5.87500000e-009,8.59375061e-006
,,,-5.85000000e-009,3.90625028e-006
,,,-5.82500000e-009,0.00000000e+000
,,,-5.80000000e-009,-3.90625028e-006
,,,-5.77500000e-009,-7.03125050e-006
,,,-5.75000000e-009,-8.59375061e-006
,,,-5.72500000e-009,-8.59375061e-006
,,,-5.70000000e-009,-7.03125050e-006
,,,-5.67500000e-009,-4.68750033e-006
,,,-5.65000000e-009,-2.34375017e-006
,,,-5.62500000e-009,0.00000000e+000
,,,-5.60000000e-009,1.56250011e-006
,,,-5.57500000e-009,3.12500022e-006
,,,-5.55000000e-009,3.90625028e-006
,,,-5.52500000e-009,3.90625028e-006
,,,-5.50000000e-009,3.12500022e-006
,,,-5.47500000e-009,2.34375017e-006
,,,-5.45000000e-009,7.81250055e-007
,,,-5.42500000e-009,0.00000000e+000
,,,-5.40000000e-009,-1.56250011e-006
,,,-5.37500000e-009,-2.34375017e-006
,,,-5.35000000e-009,-3.12500022e-006
,,,-5.32500000e-009,-3.12500022e-006
,,,-5.30000000e-009,-2.34375017e-006
,,,-5.27500000e-009,-1.56250011e-006
,,,-5.25000000e-009,-7.81250055e-007
,,,-5.22500000e-009,0.00000000e+000
,,,-5.20000000e-009,0.00000000e+000
,,,-5.17500000e-009,0.00000000e+000
,,,-5.15000000e-009,0.00000000e+000
,,,-5.12500000e-009,0.00000000e+000
,,,-5.10000000e-009,0.00000000e+000
,,,-5.07500000e-009,0.00000000e+000
,,,-5.05000000e-009,0.00000000e+000
,,,-5.02500000e-009,0.00000000e+000
,,,-5.00000000e-009,0.00000000e+000
,,,-4.97500000e-009,0.00000000e+000
,,,-4.95000000e-009,0.00000000e+000
,,,-4.92500000e-009,0.00000000e+000
,,,-4.90000000e-009,0.00000000e+000
,,,-4.87500000e-009,0.00000000e+000
,,,-4.85000000e-009,0.00000000e+000
,,,-4.82500000e-009,0.00000000e+000
,,,-4.80000000e-009,0.00000000e+000
,,,-4.77500000e-009,0.00000000e+000
,,,-4.75000000e-009,0.00000000e+000
,,,-4.72500000e-009,0.00000000e+000
,,,-4.70000000e-009,0.00000000e+000
,,,-4.67500000e-009,0.00000000e+000
,,,-4.65000000e-009,0.00000000e+000
,,,-4.62500000e-009,0.00000000e+000
,,,-4.60000000e-009,0.00000000e+000
,,,-4.57500000e-009,0.00000000e+000
,,,-4.55000000e-009,0.00000000e+000
,,,-4.52500000e-009,0.00000000e+000
,,,-4.50000000e-009,0.00000000e+000
,,,-4.47500000e-009,0.00000000e+000
,,,-4.45000000e-009,0.00000000e+000
,,,-4.42500000e-009,0.00000000e+000
,,,-4.40000000e-009,7.81250055e-007
,,,-4.37500000e-009,1.56250011e-006
,,,-4.35000000e-009,2.34375017e-006
,,,-4.32500000e-009,3.12500022e-006
,,,-4.30000000e-009,3.12500022e-006
,,,-4.27500000e-009,2.34375017e-006
,,,-4.25000000e-009,1.56250011e-006
,,,-4.22500000e-009,0.00000000e+000
,,,-4.20000000e-009,0.00000000e+000
,,,-4.17500000e-009,0.00000000e+000
,,,-4.15000000e-009,0.00000000e+000
,,,-4.12500000e-009,-7.81250055e-007
,,,-4.10000000e-009,-7.81250055e-007
,,,-4.07500000e-009,0.00000000e+000
,,,-4.05000000e-009,0.00000000e+000
,,,-4.02500000e-009,0.00000000e+000
,,,-4.00000000e-009,3.12500022e-006
,,,-3.97500000e-009,6.25000044e-006
,,,-3.95000000e-009,8.59375061e-006
,,,-3.92500000e-009,1.09375008e-005
,,,-3.90000000e-009,1.09375008e-005
,,,-3.87500000e-009,9.37500066e-006
,,,-3.85000000e-009,5.46875039e-006
,,,-3.82500000e-009,0.00000000e+000
,,,-3.80000000e-009,-4.68750033e-006
,,,-3.77500000e-009,-1.09375008e-005
,,,-3.75000000e-009,-1.56250011e-005
,,,-3.72500000e-009,-1.87500013e-005
,,,-3.70000000e-009,-2.03125014e-005
,,,-3.67500000e-009,-1.71875012e-005
,,,-3.65000000e-009,-1.09375008e-005
,,,-3.62500000e-009,0.00000000e+000
,,,-3.60000000e-009,1.71875012e-005
,,,-3.57500000e-009,3.90625028e-005
,,,-3.55000000e-009,6.48437546e-005
,,,-3.52500000e-009,9.21875065e-005
,,,-3.50000000e-009,1.20312509e-004
,,,-3.47500000e-009,1.48437511e-004
,,,-3.45000000e-009,1.75000012e-004
,,,-3.42500000e-009,2.00000014e-004
,,,-3.40000000e-009,2.21875016e-004
,,,-3.37500000e-009,2.42187517e-004
,,,-3.35000000e-009,2.63281269e-004
,,,-3.32500000e-009,2.84375020e-004
,,,-3.30000000e-009,3.07812522e-004
,,,-3.27500000e-009,3.34375024e-004
,,,-3.25000000e-009,3.64843776e-004
,,,-3.22500000e-009,4.00000028e-004
,,,-3.20000000e-009,4.33593781e-004
,,,-3.17500000e-009,4.68750033e-004
,,,-3.15000000e-009,5.03906286e-004
,,,-3.12500000e-009,5.35937538e-004
,,,-3.10000000e-009,5.64062540e-004
,,,-3.07500000e-009,5.84375041e-004
,,,-3.05000000e-009,5.96875042e-004
,,,-3.02500000e-009,6.00000042e-004
,,,-3.00000000e-009,5.87500042e-004
,,,-2.97500000e-009,5.66406290e-004
,,,-2.95000000e-009,5.39062538e-004
,,,-2.92500000e-009,5.07812536e-004
,,,-2.90000000e-009,4.75781284e-004
,,,-2.87500000e-009,4.45312532e-004
,,,-2.85000000e-009,4.19531280e-004
,,,-2.82500000e-009,4.00000028e-004
,,,-2.80000000e-009,3.83593777e-004
,,,-2.77500000e-009,3.75000027e-004
,,,-2.75000000e-009,3.72656276e-004
,,,-2.72500000e-009,3.76562527e-004
,,,-2.70000000e-009,3.83593777e-004
,,,-2.67500000e-009,3.90625028e-004
,,,-2.65000000e-009,3.96875028e-004
,,,-2.62500000e-009,4.00000028e-004
,,,-2.60000000e-009,3.92968778e-004
,,,-2.57500000e-009,3.80468777e-004
,,,-2.55000000e-009,3.60937526e-004
,,,-2.52500000e-009,3.36718774e-004
,,,-2.50000000e-009,3.06250022e-004
,,,-2.47500000e-009,2.72656269e-004
,,,-2.45000000e-009,2.36718767e-004
,,,-2.42500000e-009,2.00000014e-004
,,,-2.40000000e-009,1.62500012e-004
,,,-2.37500000e-009,1.27343759e-004
,,,-2.35000000e-009,9.60937568e-005
,,,-2.32500000e-009,6.79687548e-005
,,,-2.30000000e-009,4.45312532e-005
,,,-2.27500000e-009,2.50000018e-005
,,,-2.25000000e-009,1.01562507e-005
,,,-2.22500000e-009,0.00000000e+000
,,,-2.20000000e-009,-6.25000044e-006
,,,-2.17500000e-009,-1.01562507e-005
,,,-2.15000000e-009,-1.17187508e-005
,,,-2.12500000e-009,-1.17187508e-005
,,,-2.10000000e-009,-1.01562507e-005
,,,-2.07500000e-009,-7.03125050e-006
,,,-2.05000000e-009,-3.90625028e-006
,,,-2.02500000e-009,0.00000000e+000
,,,-2.00000000e-009,3.12500022e-006
,,,-1.97500000e-009,4.68750033e-006
,,,-1.95000000e-009,5.46875039e-006
,,,-1.92500000e-009,4.68750033e-006
,,,-1.90000000e-009,3.12500022e-006
,,,-1.87500000e-009,1.56250011e-006
,,,-1.85000000e-009,7.81250055e-007
,,,-1.82500000e-009,0.00000000e+000
,,,-1.80000000e-009,-3.90625028e-006
,,,-1.77500000e-009,-7.81250055e-006
,,,-1.75000000e-009,-1.17187508e-005
,,,-1.72500000e-009,-1.40625010e-005
,,,-1.70000000e-009,-1.48437511e-005
,,,-1.67500000e-009,-1.25000009e-005
,,,-1.65000000e-009,-7.03125050e-006
,,,-1.62500000e-009,0.00000000e+000
,,,-1.60000000e-009,-7.81250055e-007
,,,-1.57500000e-009,-3.12500022e-006
,,,-1.55000000e-009,-5.46875039e-006
,,,-1.52500000e-009,-7.81250055e-006
,,,-1.50000000e-009,-7.81250055e-006
,,,-1.47500000e-009,-7.03125050e-006
,,,-1.45000000e-009,-3.90625028e-006
,,,-1.42500000e-009,0.00000000e+000
,,,-1.40000000e-009,-1.32812509e-005
,,,-1.37500000e-009,-3.12500022e-005
,,,-1.35000000e-009,-5.31250038e-005
,,,-1.32500000e-009,-7.89062556e-005
,,,-1.30000000e-009,-1.06250008e-004
,,,-1.27500000e-009,-1.35937510e-004
,,,-1.25000000e-009,-1.67187512e-004
,,,-1.22500000e-009,-2.00000014e-004
,,,-1.20000000e-009,-2.53125018e-004
,,,-1.17500000e-009,-3.10156272e-004
,,,-1.15000000e-009,-3.67968776e-004
,,,-1.12500000e-009,-4.24218780e-004
,,,-1.10000000e-009,-4.76562534e-004
,,,-1.07500000e-009,-5.23437537e-004
,,,-1.05000000e-009,-5.64062540e-004
,,,-1.02500000e-009,-6.00000042e-004
,,,-1.00000000e-009,-6.50781296e-004
,,,-9.75000000e-010,-7.05468800e-004
,,,-9.50000000e-010,-7.64062554e-004
,,,-9.25000000e-010,-8.30468809e-004
,,,-9.00000000e-010,-9.04687564e-004
,,,-8.75000000e-010,-9.89843820e-004
,,,-8.50000000e-010,-1.08750008e-003
,,,-8.25000000e-010,-1.20000008e-003
,,,-8.00000000e-010,-1.33906259e-003
,,,-7.75000000e-010,-1.49531261e-003
,,,-7.50000000e-010,-1.66640637e-003
,,,-7.25000000e-010,-1.84765638e-003
,,,-7.00000000e-010,-2.03593764e-003
,,,-6.75000000e-010,-2.22656266e-003
,,,-6.50000000e-010,-2.41562517e-003
,,,-6.25000000e-010,-2.60000018e-003
,,,-6.00000000e-010,-2.77500020e-003
,,,-5.75000000e-010,-2.94296896e-003
,,,-5.50000000e-010,-3.10390647e-003
,,,-5.25000000e-010,-3.25781273e-003
,,,-5.00000000e-010,-3.40312524e-003
,,,-4.75000000e-010,-3.54218775e-003
,,,-4.50000000e-010,-3.67421901e-003
,,,-4.25000000e-010,-3.80000027e-003
,,,-4.00000000e-010,-3.90625028e-003
,,,-3.75000000e-010,-4.01093778e-003
,,,-3.50000000e-010,-4.11562529e-003
,,,-3.25000000e-010,-4.21875030e-003
,,,-3.00000000e-010,-4.31953156e-003
,,,-2.75000000e-010,-4.41796906e-003
,,,-2.50000000e-010,-4.51171907e-003
,,,-2.25000000e-010,-4.60000033e-003
,,,-2.00000000e-010,-4.65703158e-003
,,,-1.75000000e-010,-4.71093783e-003
,,,-1.50000000e-010,-4.76328159e-003
,,,-1.25000000e-010,-4.81328159e-003
,,,-1.00000000e-010,-4.86250034e-003
,,,-7.50000000e-011,-4.91015660e-003
,,,-5.00000000e-011,-4.95625035e-003
,,,-2.50000000e-011,-5.00000035e-003
,,,0.00000000e+000,-5.01171910e-003
,,,2.50000000e-011,-5.02187536e-003
,,,5.00000000e-011,-5.02968786e-003
,,,7.50000000e-011,-5.03515661e-003
,,,1.00000000e-010,-5.03593786e-003
,,,1.25000000e-010,-5.03125036e-003
,,,1.50000000e-010,-5.01953161e-003
,,,1.75000000e-010,-5.00000035e-003
,,,2.00000000e-010,-4.94453160e-003
,,,2.25000000e-010,-4.88593785e-003
,,,2.50000000e-010,-4.82734409e-003
,,,2.75000000e-010,-4.77031284e-003
,,,3.00000000e-010,-4.71796908e-003
,,,3.25000000e-010,-4.67187533e-003
,,,3.50000000e-010,-4.63281283e-003
,,,3.75000000e-010,-4.60000033e-003
,,,4.00000000e-010,-4.55000032e-003
,,,4.25000000e-010,-4.50390657e-003
,,,4.50000000e-010,-4.46015657e-003
,,,4.75000000e-010,-4.41718781e-003
,,,5.00000000e-010,-4.37187531e-003
,,,5.25000000e-010,-4.32265656e-003
,,,5.50000000e-010,-4.26562530e-003
,,,5.75000000e-010,-4.20000030e-003
,,,6.00000000e-010,-4.10937529e-003
,,,6.25000000e-010,-4.01015653e-003
,,,6.50000000e-010,-3.90390653e-003
,,,6.75000000e-010,-3.79453152e-003
,,,7.00000000e-010,-3.68593776e-003
,,,7.25000000e-010,-3.58125025e-003
,,,7.50000000e-010,-3.48515650e-003
,,,7.75000000e-010,-3.40000024e-003
,,,8.00000000e-010,-3.32031274e-003
,,,8.25000000e-010,-3.25156273e-003
,,,8.50000000e-010,-3.19296898e-003
,,,8.75000000e-010,-3.14375022e-003
,,,9.00000000e-010,-3.10234397e-003
,,,9.25000000e-010,-3.06640647e-003
,,,9.50000000e-010,-3.03281271e-003
,,,9.75000000e-010,-3.00000021e-003
,,,1.00000000e-009,-2.96015646e-003
,,,1.02500000e-009,-2.91093771e-003
,,,1.05000000e-009,-2.85078145e-003
,,,1.07500000e-009,-2.77890645e-003
,,,1.10000000e-009,-2.69687519e-003
,,,1.12500000e-009,-2.60468768e-003
,,,1.15000000e-009,-2.50546893e-003
,,,1.17500000e-009,-2.40000017e-003
,,,1.20000000e-009,-2.29140641e-003
,,,1.22500000e-009,-2.17968765e-003
,,,1.25000000e-009,-2.06640640e-003
,,,1.27500000e-009,-1.95546889e-003
,,,1.30000000e-009,-1.85078138e-003
,,,1.32500000e-009,-1.75468762e-003
,,,1.35000000e-009,-1.67031262e-003
,,,1.37500000e-009,-1.60000011e-003
,,,1.40000000e-009,-1.54843761e-003
,,,1.42500000e-009,-1.50703136e-003
,,,1.45000000e-009,-1.47500010e-003
,,,1.47500000e-009,-1.45000010e-003
,,,1.50000000e-009,-1.43203135e-003
,,,1.52500000e-009,-1.41796885e-003
,,,1.55000000e-009,-1.40781260e-003
,,,1.57500000e-009,-1.40000010e-003
,,,1.60000000e-009,-1.39531260e-003
,,,1.62500000e-009,-1.38437510e-003
,,,1.65000000e-009,-1.36640635e-003
,,,1.67500000e-009,-1.34218760e-003
,,,1.70000000e-009,-1.31250009e-003
,,,1.72500000e-009,-1.27734384e-003
,,,1.75000000e-009,-1.23984384e-003
,,,1.77500000e-009,-1.20000008e-003
,,,1.80000000e-009,-1.16093758e-003
,,,1.82500000e-009,-1.11796883e-003
,,,1.85000000e-009,-1.07109383e-003
,,,1.87500000e-009,-1.02109382e-003
,,,1.90000000e-009,-9.67968819e-004
,,,1.92500000e-009,-9.13281315e-004
,,,1.95000000e-009,-8.57031311e-004
,,,1.97500000e-009,-8.00000057e-004
,,,2.00000000e-009,-7.47656303e-004
,,,2.02500000e-009,-6.93750049e-004
,,,2.05000000e-009,-6.39062545e-004
,,,2.07500000e-009,-5.85156291e-004
,,,2.10000000e-009,-5.32812538e-004
,,,2.12500000e-009,-4.83593784e-004
,,,2.15000000e-009,-4.39062531e-004
,,,2.17500000e-009,-4.00000028e-004
,,,2.20000000e-009,-3.71875026e-004
,,,2.22500000e-009,-3.46093774e-004
,,,2.25000000e-009,-3.21875023e-004
,,,2.27500000e-009,-2.99218771e-004
,,,2.30000000e-009,-2.75781270e-004
,,,2.32500000e-009,-2.51562518e-004
,,,2.35000000e-009,-2.26562516e-004
,,,2.37500000e-009,-2.00000014e-004
,,,2.40000000e-009,-1.76562512e-004
,,,2.42500000e-009,-1.50781261e-004
,,,2.45000000e-009,-1.23437509e-004
,,,2.47500000e-009,-9.45312567e-005
,,,2.50000000e-009,-6.71875048e-005
,,,2.52500000e-009,-4.06250029e-005
,,,2.55000000e-009,-1.79687513e-005
,,,2.57500000e-009,0.00000000e+000
,,,2.60000000e-009,8.59375061e-006
,,,2.62500000e-009,1.40625010e-005
,,,2.65000000e-009,1.64062512e-005
,,,2.67500000e-009,1.64062512e-005
,,,2.70000000e-009,1.40625010e-005
,,,2.72500000e-009,1.01562507e-005
,,,2.75000000e-009,5.46875039e-006
,,,2.77500000e-009,0.00000000e+000
,,,2.80000000e-009,-9.37500066e-006
,,,2.82500000e-009,-1.64062512e-005
,,,2.85000000e-009,-2.10937515e-005
,,,2.87500000e-009,-2.18750015e-005
,,,2.90000000e-009,-1.95312514e-005
,,,2.92500000e-009,-1.48437511e-005
,,,2.95000000e-009,-7.81250055e-006
,,,2.97500000e-009,0.00000000e+000
,,,3.00000000e-009,4.68750033e-006
,,,3.02500000e-009,1.01562507e-005
,,,3.05000000e-009,1.40625010e-005
,,,3.07500000e-009,1.64062512e-005
,,,3.10000000e-009,1.71875012e-005
,,,3.12500000e-009,1.40625010e-005
,,,3.15000000e-009,8.59375061e-006
,,,3.17500000e-009,0.00000000e+000
,,,3.20000000e-009,-1.17187508e-005
,,,3.22500000e-009,-2.34375017e-005
,,,3.25000000e-009,-3.28125023e-005
,,,3.27500000e-009,-3.90625028e-005
,,,3.30000000e-009,-3.98437528e-005
,,,3.32500000e-009,-3.35937524e-005
,,,3.35000000e-009,-2.03125014e-005
,,,3.37500000e-009,0.00000000e+000
,,,3.40000000e-009,2.65625019e-005
,,,3.42500000e-009,5.85937541e-005
,,,3.45000000e-009,9.29687566e-005
,,,3.47500000e-009,1.26562509e-004
,,,3.50000000e-009,1.57031261e-004
,,,3.52500000e-009,1.80468763e-004
,,,3.55000000e-009,1.95312514e-004
,,,3.57500000e-009,2.00000014e-004
,,,3.60000000e-009,1.91406264e-004
,,,3.62500000e-009,1.73437512e-004
,,,3.65000000e-009,1.46875010e-004
,,,3.67500000e-009,1.15625008e-004
,,,3.70000000e-009,8.28125059e-005
,,,3.72500000e-009,5.00000035e-005
,,,3.75000000e-009,2.18750015e-005
,,,3.77500000e-009,0.00000000e+000
,,,3.80000000e-009,-1.48437511e-005
,,,3.82500000e-009,-2.18750015e-005
,,,3.85000000e-009,-2.26562516e-005
,,,3.87500000e-009,-1.95312514e-005
,,,3.90000000e-009,-1.25000009e-005
,,,3.92500000e-009,-6.25000044e-006
,,,3.95000000e-009,-1.56250011e-006
,,,3.97500000e-009,0.00000000e+000
,,,4.00000000e-009,-1.56250011e-006
,,,4.02500000e-009,-6.25000044e-006
,,,4.05000000e-009,-1.25000009e-005
,,,4.07500000e-009,-1.95312514e-005
,,,4.10000000e-009,-2.26562516e-005
,,,4.12500000e-009,-2.18750015e-005
,,,4.15000000e-009,-1.48437511e-005
,,,4.17500000e-009,0.00000000e+000
,,,4.20000000e-009,2.10937515e-005
,,,4.22500000e-009,4.84375034e-005
,,,4.25000000e-009,7.96875056e-005
,,,4.27500000e-009,1.12500008e-004
,,,4.30000000e-009,1.43750010e-004
,,,4.32500000e-009,1.70312512e-004
,,,4.35000000e-009,1.89843763e-004
,,,4.37500000e-009,2.00000014e-004
,,,4.40000000e-009,1.97656264e-004
,,,4.42500000e-009,1.85156263e-004
,,,4.45000000e-009,1.63281262e-004
,,,4.47500000e-009,1.34375010e-004
,,,4.50000000e-009,1.00781257e-004
,,,4.52500000e-009,6.56250046e-005
,,,4.55000000e-009,3.04687522e-005
,,,4.57500000e-009,0.00000000e+000
,,,4.60000000e-009,-2.50000018e-005
,,,4.62500000e-009,-4.29687530e-005
,,,4.65000000e-009,-5.31250038e-005
,,,4.67500000e-009,-5.54687539e-005
,,,4.70000000e-009,-4.92187535e-005
,,,4.72500000e-009,-3.75000027e-005
,,,4.75000000e-009,-1.95312514e-005
,,,4.77500000e-009,0.00000000e+000
,,,4.80000000e-009,2.10937515e-005
,,,4.82500000e-009,4.06250029e-005
,,,4.85000000e-009,5.54687539e-005
,,,4.87500000e-009,6.25000044e-005
,,,4.90000000e-009,6.17187544e-005
,,,4.92500000e-009,5.07812536e-005
,,,4.95000000e-009,2.96875021e-005
,,,4.97500000e-009,0.00000000e+000
,,,5.00000000e-009,-3.67187526e-005
,,,5.02500000e-009,-7.73437555e-005
,,,5.05000000e-009,-1.17968758e-004
,,,5.07500000e-009,-1.54687511e-004
,,,5.10000000e-009,-1.84375013e-004
,,,5.12500000e-009,-2.02343764e-004
,,,5.15000000e-009,-2.07812515e-004
,,,5.17500000e-009,-2.00000014e-004
,,,5.20000000e-009,-1.75781262e-004
,,,5.22500000e-009,-1.42187510e-004
,,,5.25000000e-009,-1.03906257e-004
,,,5.27500000e-009,-6.48437546e-005
,,,5.30000000e-009,-3.04687522e-005
,,,5.32500000e-009,-6.25000044e-006
,,,5.35000000e-009,3.90625028e-006
,,,5.37500000e-009,0.00000000e+000
,,,5.40000000e-009,-1.87500013e-005
,,,5.42500000e-009,-5.00000035e-005
,,,5.45000000e-009,-8.90625063e-005
,,,5.47500000e-009,-1.31250009e-004
,,,5.50000000e-009,-1.68750012e-004
,,,5.52500000e-009,-1.95312514e-004
,,,5.55000000e-009,-2.07031265e-004
,,,5.57500000e-009,-2.00000014e-004
,,,5.60000000e-009,-1.71875012e-004
,,,5.62500000e-009,-1.26562509e-004
,,,5.65000000e-009,-6.87500049e-005
,,,5.67500000e-009,-3.12500022e-006
,,,5.70000000e-009,6.17187544e-005
,,,5.72500000e-009,1.21875009e-004
,,,5.75000000e-009,1.68750012e-004
,,,5.77500000e-009,2.00000014e-004
,,,5.80000000e-009,2.08593765e-004
,,,5.82500000e-009,1.98437514e-004
,,,5.85000000e-009,1.71875012e-004
,,,5.87500000e-009,1.35156260e-004
,,,5.90000000e-009,9.37500066e-005
,,,5.92500000e-009,5.31250038e-005
,,,5.95000000e-009,2.03125014e-005
,,,5.97500000e-009,0.00000000e+000
