RawData/DifferentLengths/R3/R3_2pt2B_5mV/wave010_Ch2.csv

"Record Length",1000,"Points",-7.72500000e-009,1.87500013e-004
"Sample Interval",2.50000000e-011,s,-7.70000000e-009,2.00000014e-004
"Trigger Point",309,"Samples",-7.67500000e-009,2.03906264e-004
"Trigger Time",2.99727273e-012,s,-7.65000000e-009,2.03125014e-004
"",,,-7.62500000e-009,1.98437514e-004
"Horizontal Offset",-7.72500000e-009,s,-7.60000000e-009,1.92187514e-004
,,,-7.57500000e-009,1.86718763e-004
,,,-7.55000000e-009,1.84375013e-004
,,,-7.52500000e-009,1.88281263e-004
,,,-7.50000000e-009,2.00000014e-004
,,,-7.47500000e-009,2.16406265e-004
,,,-7.45000000e-009,2.39843767e-004
,,,-7.42500000e-009,2.67968769e-004
,,,-7.40000000e-009,2.99218771e-004
,,,-7.37500000e-009,3.31250023e-004
,,,-7.35000000e-009,3.60156275e-004
,,,-7.32500000e-009,3.83593777e-004
,,,-7.30000000e-009,4.00000028e-004
,,,-7.27500000e-009,4.02343778e-004
,,,-7.25000000e-009,3.94531278e-004
,,,-7.22500000e-009,3.77343777e-004
,,,-7.20000000e-009,3.51562525e-004
,,,-7.17500000e-009,3.18750023e-004
,,,-7.15000000e-009,2.81250020e-004
,,,-7.12500000e-009,2.40625017e-004
,,,-7.10000000e-009,2.00000014e-004
,,,-7.07500000e-009,1.59375011e-004
,,,-7.05000000e-009,1.22656259e-004
,,,-7.02500000e-009,9.06250064e-005
,,,-7.00000000e-009,6.40625045e-005
,,,-6.97500000e-009,4.14062529e-005
,,,-6.95000000e-009,2.34375017e-005
,,,-6.92500000e-009,1.01562507e-005
,,,-6.90000000e-009,0.00000000e+000
,,,-6.87500000e-009,-5.46875039e-006
,,,-6.85000000e-009,-7.81250055e-006
,,,-6.82500000e-009,-8.59375061e-006
,,,-6.80000000e-009,-7.81250055e-006
,,,-6.77500000e-009,-6.25000044e-006
,,,-6.75000000e-009,-3.90625028e-006
,,,-6.72500000e-009,-1.56250011e-006
,,,-6.70000000e-009,0.00000000e+000
,,,-6.67500000e-009,4.68750033e-006
,,,-6.65000000e-009,1.01562507e-005
,,,-6.62500000e-009,1.32812509e-005
,,,-6.60000000e-009,1.48437511e-005
,,,-6.57500000e-009,1.48437511e-005
,,,-6.55000000e-009,1.17187508e-005
,,,-6.52500000e-009,7.03125050e-006
,,,-6.50000000e-009,0.00000000e+000
,,,-6.47500000e-009,-4.68750033e-006
,,,-6.45000000e-009,-9.37500066e-006
,,,-6.42500000e-009,-1.32812509e-005
,,,-6.40000000e-009,-1.64062512e-005
,,,-6.37500000e-009,-1.71875012e-005
,,,-6.35000000e-009,-1.48437511e-005
,,,-6.32500000e-009,-9.37500066e-006
,,,-6.30000000e-009,0.00000000e+000
,,,-6.27500000e-009,1.79687513e-005
,,,-6.25000000e-009,3.98437528e-005
,,,-6.22500000e-009,6.48437546e-005
,,,-6.20000000e-009,9.14062565e-005
,,,-6.17500000e-009,1.18750008e-004
,,,-6.15000000e-009,1.46093760e-004
,,,-6.12500000e-009,1.73437512e-004
,,,-6.10000000e-009,2.00000014e-004
,,,-6.07500000e-009,2.25000016e-004
,,,-6.05000000e-009,2.49218768e-004
,,,-6.02500000e-009,2.72656269e-004
,,,-6.00000000e-009,2.96093771e-004
,,,-5.97500000e-009,3.19531273e-004
,,,-5.95000000e-009,3.44531274e-004
,,,-5.92500000e-009,3.71093776e-004
,,,-5.90000000e-009,4.00000028e-004
,,,-5.87500000e-009,4.28125030e-004
,,,-5.85000000e-009,4.57031282e-004
,,,-5.82500000e-009,4.86718784e-004
,,,-5.80000000e-009,5.15625036e-004
,,,-5.77500000e-009,5.42187538e-004
,,,-5.75000000e-009,5.65625040e-004
,,,-5.72500000e-009,5.85156291e-004
,,,-5.70000000e-009,6.00000042e-004
,,,-5.67500000e-009,6.03906293e-004
,,,-5.65000000e-009,6.03906293e-004
,,,-5.62500000e-009,6.00781293e-004
,,,-5.60000000e-009,5.96875042e-004
,,,-5.57500000e-009,5.93750042e-004
,,,-5.55000000e-009,5.92187542e-004
,,,-5.52500000e-009,5.94531292e-004
,,,-5.50000000e-009,6.00000042e-004
,,,-5.47500000e-009,6.03125043e-004
,,,-5.45000000e-009,6.08593793e-004
,,,-5.42500000e-009,6.14843794e-004
,,,-5.40000000e-009,6.21093794e-004
,,,-5.37500000e-009,6.23437544e-004
,,,-5.35000000e-009,6.21875044e-004
,,,-5.32500000e-009,6.14062543e-004
,,,-5.30000000e-009,6.00000042e-004
,,,-5.27500000e-009,5.73437541e-004
,,,-5.25000000e-009,5.42187538e-004
,,,-5.22500000e-009,5.09375036e-004
,,,-5.20000000e-009,4.76562534e-004
,,,-5.17500000e-009,4.46875032e-004
,,,-5.15000000e-009,4.23437530e-004
,,,-5.12500000e-009,4.07031279e-004
,,,-5.10000000e-009,4.00000028e-004
,,,-5.07500000e-009,3.97656278e-004
,,,-5.05000000e-009,4.02343778e-004
,,,-5.02500000e-009,4.10937529e-004
,,,-5.00000000e-009,4.20312530e-004
,,,-4.97500000e-009,4.26562530e-004
,,,-4.95000000e-009,4.27343780e-004
,,,-4.92500000e-009,4.18750030e-004
,,,-4.90000000e-009,4.00000028e-004
,,,-4.87500000e-009,3.68750026e-004
,,,-4.85000000e-009,3.26562523e-004
,,,-4.82500000e-009,2.75781270e-004
,,,-4.80000000e-009,2.18750015e-004
,,,-4.77500000e-009,1.58593761e-004
,,,-4.75000000e-009,1.00000007e-004
,,,-4.72500000e-009,4.60937533e-005
,,,-4.70000000e-009,0.00000000e+000
,,,-4.67500000e-009,-3.20312523e-005
,,,-4.65000000e-009,-5.39062538e-005
,,,-4.62500000e-009,-6.32812545e-005
,,,-4.60000000e-009,-6.32812545e-005
,,,-4.57500000e-009,-5.46875039e-005
,,,-4.55000000e-009,-3.90625028e-005
,,,-4.52500000e-009,-2.03125014e-005
,,,-4.50000000e-009,0.00000000e+000
,,,-4.47500000e-009,2.18750015e-005
,,,-4.45000000e-009,3.98437528e-005
,,,-4.42500000e-009,5.15625036e-005
,,,-4.40000000e-009,5.54687539e-005
,,,-4.37500000e-009,5.15625036e-005
,,,-4.35000000e-009,3.98437528e-005
,,,-4.32500000e-009,2.18750015e-005
,,,-4.30000000e-009,0.00000000e+000
,,,-4.27500000e-009,-2.03125014e-005
,,,-4.25000000e-009,-4.06250029e-005
,,,-4.22500000e-009,-5.78125041e-005
,,,-4.20000000e-009,-6.79687548e-005
,,,-4.17500000e-009,-6.87500049e-005
,,,-4.15000000e-009,-5.85937541e-005
,,,-4.12500000e-009,-3.51562525e-005
,,,-4.10000000e-009,0.00000000e+000
,,,-4.07500000e-009,4.92187535e-005
,,,-4.05000000e-009,1.06250008e-004
,,,-4.02500000e-009,1.67968762e-004
,,,-4.00000000e-009,2.30468766e-004
,,,-3.97500000e-009,2.88281270e-004
,,,-3.95000000e-009,3.37500024e-004
,,,-3.92500000e-009,3.75781277e-004
,,,-3.90000000e-009,4.00000028e-004
,,,-3.87500000e-009,4.06250029e-004
,,,-3.85000000e-009,3.97656278e-004
,,,-3.82500000e-009,3.75781277e-004
,,,-3.80000000e-009,3.43750024e-004
,,,-3.77500000e-009,3.06250022e-004
,,,-3.75000000e-009,2.67187519e-004
,,,-3.72500000e-009,2.30468766e-004
,,,-3.70000000e-009,2.00000014e-004
,,,-3.67500000e-009,1.75000012e-004
,,,-3.65000000e-009,1.59375011e-004
,,,-3.62500000e-009,1.53906261e-004
,,,-3.60000000e-009,1.56250011e-004
,,,-3.57500000e-009,1.64062512e-004
,,,-3.55000000e-009,1.75781262e-004
,,,-3.52500000e-009,1.88281263e-004
,,,-3.50000000e-009,2.00000014e-004
,,,-3.47500000e-009,2.06250015e-004
,,,-3.45000000e-009,2.10156265e-004
,,,-3.42500000e-009,2.10156265e-004
,,,-3.40000000e-009,2.07812515e-004
,,,-3.37500000e-009,2.04687514e-004
,,,-3.35000000e-009,2.01562514e-004
,,,-3.32500000e-009,1.99218764e-004
,,,-3.30000000e-009,2.00000014e-004
,,,-3.27500000e-009,2.00781264e-004
,,,-3.25000000e-009,2.03906264e-004
,,,-3.22500000e-009,2.07812515e-004
,,,-3.20000000e-009,2.12500015e-004
,,,-3.17500000e-009,2.15625015e-004
,,,-3.15000000e-009,2.14843765e-004
,,,-3.12500000e-009,2.10156265e-004
,,,-3.10000000e-009,2.00000014e-004
,,,-3.07500000e-009,1.82812513e-004
,,,-3.05000000e-009,1.60937511e-004
,,,-3.02500000e-009,1.35156260e-004
,,,-3.00000000e-009,1.06250008e-004
,,,-2.97500000e-009,7.65625054e-005
,,,-2.95000000e-009,4.84375034e-005
,,,-2.92500000e-009,2.18750015e-005
,,,-2.90000000e-009,0.00000000e+000
,,,-2.87500000e-009,-1.40625010e-005
,,,-2.85000000e-009,-2.42187517e-005
,,,-2.82500000e-009,-2.81250020e-005
,,,-2.80000000e-009,-2.73437519e-005
,,,-2.77500000e-009,-2.34375017e-005
,,,-2.75000000e-009,-1.64062512e-005
,,,-2.72500000e-009,-8.59375061e-006
,,,-2.70000000e-009,0.00000000e+000
,,,-2.67500000e-009,8.59375061e-006
,,,-2.65000000e-009,1.48437511e-005
,,,-2.62500000e-009,1.95312514e-005
,,,-2.60000000e-009,2.03125014e-005
,,,-2.57500000e-009,1.87500013e-005
,,,-2.55000000e-009,1.40625010e-005
,,,-2.52500000e-009,7.81250055e-006
,,,-2.50000000e-009,0.00000000e+000
,,,-2.47500000e-009,-7.81250055e-006
,,,-2.45000000e-009,-1.64062512e-005
,,,-2.42500000e-009,-2.26562516e-005
,,,-2.40000000e-009,-2.65625019e-005
,,,-2.37500000e-009,-2.73437519e-005
,,,-2.35000000e-009,-2.34375017e-005
,,,-2.32500000e-009,-1.40625010e-005
,,,-2.30000000e-009,0.00000000e+000
,,,-2.27500000e-009,1.87500013e-005
,,,-2.25000000e-009,4.14062529e-005
,,,-2.22500000e-009,6.79687548e-005
,,,-2.20000000e-009,9.53125067e-005
,,,-2.17500000e-009,1.23437509e-004
,,,-2.15000000e-009,1.50781261e-004
,,,-2.12500000e-009,1.76562512e-004
,,,-2.10000000e-009,2.00000014e-004
,,,-2.07500000e-009,2.17187515e-004
,,,-2.05000000e-009,2.29687516e-004
,,,-2.02500000e-009,2.36718767e-004
,,,-2.00000000e-009,2.39062517e-004
,,,-1.97500000e-009,2.35156267e-004
,,,-1.95000000e-009,2.27343766e-004
,,,-1.92500000e-009,2.15625015e-004
,,,-1.90000000e-009,2.00000014e-004
,,,-1.87500000e-009,1.78125013e-004
,,,-1.85000000e-009,1.54687511e-004
,,,-1.82500000e-009,1.29687509e-004
,,,-1.80000000e-009,1.03906257e-004
,,,-1.77500000e-009,7.73437555e-005
,,,-1.75000000e-009,5.15625036e-005
,,,-1.72500000e-009,2.57812518e-005
,,,-1.70000000e-009,0.00000000e+000
,,,-1.67500000e-009,-2.89062520e-005
,,,-1.65000000e-009,-5.78125041e-005
,,,-1.62500000e-009,-8.59375061e-005
,,,-1.60000000e-009,-1.13281258e-004
,,,-1.57500000e-009,-1.38281260e-004
,,,-1.55000000e-009,-1.61718761e-004
,,,-1.52500000e-009,-1.82031263e-004
,,,-1.50000000e-009,-2.00000014e-004
,,,-1.47500000e-009,-2.21093766e-004
,,,-1.45000000e-009,-2.38281267e-004
,,,-1.42500000e-009,-2.51562518e-004
,,,-1.40000000e-009,-2.58593768e-004
,,,-1.37500000e-009,-2.57031268e-004
,,,-1.35000000e-009,-2.46875017e-004
,,,-1.32500000e-009,-2.28125016e-004
,,,-1.30000000e-009,-2.00000014e-004
,,,-1.27500000e-009,-1.77343763e-004
,,,-1.25000000e-009,-1.51562511e-004
,,,-1.22500000e-009,-1.24218759e-004
,,,-1.20000000e-009,-9.53125067e-005
,,,-1.17500000e-009,-6.79687548e-005
,,,-1.15000000e-009,-4.14062529e-005
,,,-1.12500000e-009,-1.79687513e-005
,,,-1.10000000e-009,0.00000000e+000
,,,-1.07500000e-009,-7.81250055e-006
,,,-1.05000000e-009,-2.50000018e-005
,,,-1.02500000e-009,-5.00000035e-005
,,,-1.00000000e-009,-7.96875056e-005
,,,-9.75000000e-010,-1.11718758e-004
,,,-9.50000000e-010,-1.42968760e-004
,,,-9.25000000e-010,-1.71875012e-004
,,,-9.00000000e-010,-2.00000014e-004
,,,-8.75000000e-010,-2.50000018e-004
,,,-8.50000000e-010,-3.06250022e-004
,,,-8.25000000e-010,-3.67968776e-004
,,,-8.00000000e-010,-4.36718781e-004
,,,-7.75000000e-010,-5.12500036e-004
,,,-7.50000000e-010,-5.98437542e-004
,,,-7.25000000e-010,-6.93750049e-004
,,,-7.00000000e-010,-8.00000057e-004
,,,-6.75000000e-010,-9.36718816e-004
,,,-6.50000000e-010,-1.08593758e-003
,,,-6.25000000e-010,-1.24375009e-003
,,,-6.00000000e-010,-1.40546885e-003
,,,-5.75000000e-010,-1.56562511e-003
,,,-5.50000000e-010,-1.72031262e-003
,,,-5.25000000e-010,-1.86562513e-003
,,,-5.00000000e-010,-2.00000014e-003
,,,-4.75000000e-010,-2.13671890e-003
,,,-4.50000000e-010,-2.26718766e-003
,,,-4.25000000e-010,-2.39218767e-003
,,,-4.00000000e-010,-2.51250018e-003
,,,-3.75000000e-010,-2.63125019e-003
,,,-3.50000000e-010,-2.75000019e-003
,,,-3.25000000e-010,-2.87187520e-003
,,,-3.00000000e-010,-3.00000021e-003
,,,-2.75000000e-010,-3.14140647e-003
,,,-2.50000000e-010,-3.29609398e-003
,,,-2.25000000e-010,-3.46484400e-003
,,,-2.00000000e-010,-3.64375026e-003
,,,-1.75000000e-010,-3.83125027e-003
,,,-1.50000000e-010,-4.02265653e-003
,,,-1.25000000e-010,-4.21328155e-003
,,,-1.00000000e-010,-4.40000031e-003
,,,-7.50000000e-011,-4.56953157e-003
,,,-5.00000000e-011,-4.73203158e-003
,,,-2.50000000e-011,-4.88437535e-003
,,,0.00000000e+000,-5.02187536e-003
,,,2.50000000e-011,-5.14375036e-003
,,,5.00000000e-011,-5.24765662e-003
,,,7.50000000e-011,-5.33281288e-003
,,,1.00000000e-010,-5.40000038e-003
,,,1.25000000e-010,-5.43515663e-003
,,,1.50000000e-010,-5.46562539e-003
,,,1.75000000e-010,-5.49687539e-003
,,,2.00000000e-010,-5.53359414e-003
,,,2.25000000e-010,-5.57968789e-003
,,,2.50000000e-010,-5.63906290e-003
,,,2.75000000e-010,-5.71171915e-003
,,,3.00000000e-010,-5.80000041e-003
,,,3.25000000e-010,-5.87968792e-003
,,,3.50000000e-010,-5.97578167e-003
,,,3.75000000e-010,-6.08359418e-003
,,,4.00000000e-010,-6.19843794e-003
,,,4.25000000e-010,-6.31328170e-003
,,,4.50000000e-010,-6.42265670e-003
,,,4.75000000e-010,-6.51953171e-003
,,,5.00000000e-010,-6.60000047e-003
,,,5.25000000e-010,-6.63125047e-003
,,,5.50000000e-010,-6.64687547e-003
,,,5.75000000e-010,-6.64843797e-003
,,,6.00000000e-010,-6.63984422e-003
,,,6.25000000e-010,-6.62734422e-003
,,,6.50000000e-010,-6.61406297e-003
,,,6.75000000e-010,-6.60390672e-003
,,,7.00000000e-010,-6.60000047e-003
,,,7.25000000e-010,-6.57421922e-003
,,,7.50000000e-010,-6.55937546e-003
,,,7.75000000e-010,-6.55468796e-003
,,,8.00000000e-010,-6.55859421e-003
,,,8.25000000e-010,-6.56953171e-003
,,,8.50000000e-010,-6.58203172e-003
,,,8.75000000e-010,-6.59375047e-003
,,,9.00000000e-010,-6.60000047e-003
,,,9.25000000e-010,-6.57031297e-003
,,,9.50000000e-010,-6.53046921e-003
,,,9.75000000e-010,-6.48281296e-003
,,,1.00000000e-009,-6.42890671e-003
,,,1.02500000e-009,-6.37109420e-003
,,,1.05000000e-009,-6.31250045e-003
,,,1.07500000e-009,-6.25546919e-003
,,,1.10000000e-009,-6.20000044e-003
,,,1.12500000e-009,-6.12265668e-003
,,,1.15000000e-009,-6.04609418e-003
,,,1.17500000e-009,-5.97109417e-003
,,,1.20000000e-009,-5.89765667e-003
,,,1.22500000e-009,-5.82500041e-003
,,,1.25000000e-009,-5.75234416e-003
,,,1.27500000e-009,-5.67812540e-003
,,,1.30000000e-009,-5.60000040e-003
,,,1.32500000e-009,-5.49687539e-003
,,,1.35000000e-009,-5.38437538e-003
,,,1.37500000e-009,-5.26484412e-003
,,,1.40000000e-009,-5.13750036e-003
,,,1.42500000e-009,-5.00546910e-003
,,,1.45000000e-009,-4.87109409e-003
,,,1.47500000e-009,-4.73515659e-003
,,,1.50000000e-009,-4.60000033e-003
,,,1.52500000e-009,-4.45703157e-003
,,,1.55000000e-009,-4.31406281e-003
,,,1.57500000e-009,-4.17500030e-003
,,,1.60000000e-009,-4.04140654e-003
,,,1.62500000e-009,-3.91562528e-003
,,,1.65000000e-009,-3.80000027e-003
,,,1.67500000e-009,-3.69453151e-003
,,,1.70000000e-009,-3.60000025e-003
,,,1.72500000e-009,-3.51171900e-003
,,,1.75000000e-009,-3.42421899e-003
,,,1.77500000e-009,-3.33515649e-003
,,,1.80000000e-009,-3.24218773e-003
,,,1.82500000e-009,-3.14375022e-003
,,,1.85000000e-009,-3.03671896e-003
,,,1.87500000e-009,-2.92265646e-003
,,,1.90000000e-009,-2.80000020e-003
,,,1.92500000e-009,-2.67265644e-003
,,,1.95000000e-009,-2.53671893e-003
,,,1.97500000e-009,-2.39609392e-003
,,,2.00000000e-009,-2.25468766e-003
,,,2.02500000e-009,-2.11953140e-003
,,,2.05000000e-009,-1.99609389e-003
,,,2.07500000e-009,-1.88828138e-003
,,,2.10000000e-009,-1.80000013e-003
,,,2.12500000e-009,-1.73906262e-003
,,,2.15000000e-009,-1.68984387e-003
,,,2.17500000e-009,-1.64765637e-003
,,,2.20000000e-009,-1.60859386e-003
,,,2.22500000e-009,-1.56718761e-003
,,,2.25000000e-009,-1.52031261e-003
,,,2.27500000e-009,-1.46484385e-003
,,,2.30000000e-009,-1.40000010e-003
,,,2.32500000e-009,-1.33437509e-003
,,,2.35000000e-009,-1.25625009e-003
,,,2.37500000e-009,-1.16796883e-003
,,,2.40000000e-009,-1.07578133e-003
,,,2.42500000e-009,-9.86718820e-004
,,,2.45000000e-009,-9.07812564e-004
,,,2.47500000e-009,-8.43750060e-004
,,,2.50000000e-009,-8.00000057e-004
,,,2.52500000e-009,-7.86718806e-004
,,,2.55000000e-009,-7.87500056e-004
,,,2.57500000e-009,-7.98437557e-004
,,,2.60000000e-009,-8.12500058e-004
,,,2.62500000e-009,-8.25000058e-004
,,,2.65000000e-009,-8.30468809e-004
,,,2.67500000e-009,-8.23437558e-004
,,,2.70000000e-009,-8.00000057e-004
,,,2.72500000e-009,-7.66406304e-004
,,,2.75000000e-009,-7.11718800e-004
,,,2.77500000e-009,-6.38281295e-004
,,,2.80000000e-009,-5.51562539e-004
,,,2.82500000e-009,-4.57812532e-004
,,,2.85000000e-009,-3.63281276e-004
,,,2.87500000e-009,-2.75000019e-004
,,,2.90000000e-009,-2.00000014e-004
,,,2.92500000e-009,-1.51562511e-004
,,,2.95000000e-009,-1.20312509e-004
,,,2.97500000e-009,-1.05468757e-004
,,,3.00000000e-009,-1.05468757e-004
,,,3.02500000e-009,-1.18750008e-004
,,,3.05000000e-009,-1.41406260e-004
,,,3.07500000e-009,-1.69531262e-004
,,,3.10000000e-009,-2.00000014e-004
,,,3.12500000e-009,-2.33593767e-004
,,,3.15000000e-009,-2.60156268e-004
,,,3.17500000e-009,-2.76562520e-004
,,,3.20000000e-009,-2.82031270e-004
,,,3.22500000e-009,-2.75781270e-004
,,,3.25000000e-009,-2.58593768e-004
,,,3.27500000e-009,-2.32812516e-004
,,,3.30000000e-009,-2.00000014e-004
,,,3.32500000e-009,-1.67968762e-004
,,,3.35000000e-009,-1.33593759e-004
,,,3.37500000e-009,-9.92187570e-005
,,,3.40000000e-009,-6.64062547e-005
,,,3.42500000e-009,-3.82812527e-005
,,,3.45000000e-009,-1.71875012e-005
,,,3.47500000e-009,-3.90625028e-006
,,,3.50000000e-009,0.00000000e+000
,,,3.52500000e-009,-1.01562507e-005
,,,3.55000000e-009,-2.81250020e-005
,,,3.57500000e-009,-5.23437537e-005
,,,3.60000000e-009,-8.20312558e-005
,,,3.62500000e-009,-1.13281258e-004
,,,3.65000000e-009,-1.44531260e-004
,,,3.67500000e-009,-1.74218762e-004
,,,3.70000000e-009,-2.00000014e-004
,,,3.72500000e-009,-2.22656266e-004
,,,3.75000000e-009,-2.39062517e-004
,,,3.77500000e-009,-2.46875017e-004
,,,3.80000000e-009,-2.47656268e-004
,,,3.82500000e-009,-2.41406267e-004
,,,3.85000000e-009,-2.30468766e-004
,,,3.87500000e-009,-2.15625015e-004
,,,3.90000000e-009,-2.00000014e-004
,,,3.92500000e-009,-1.84375013e-004
,,,3.95000000e-009,-1.71875012e-004
,,,3.97500000e-009,-1.63281262e-004
,,,4.00000000e-009,-1.59375011e-004
,,,4.02500000e-009,-1.60937511e-004
,,,4.05000000e-009,-1.67968762e-004
,,,4.07500000e-009,-1.81250013e-004
,,,4.10000000e-009,-2.00000014e-004
,,,4.12500000e-009,-2.21875016e-004
,,,4.15000000e-009,-2.47656268e-004
,,,4.17500000e-009,-2.75781270e-004
,,,4.20000000e-009,-3.03906272e-004
,,,4.22500000e-009,-3.31250023e-004
,,,4.25000000e-009,-3.57031275e-004
,,,4.27500000e-009,-3.80468777e-004
,,,4.30000000e-009,-4.00000028e-004
,,,4.32500000e-009,-4.11718779e-004
,,,4.35000000e-009,-4.18750030e-004
,,,4.37500000e-009,-4.21875030e-004
,,,4.40000000e-009,-4.21093780e-004
,,,4.42500000e-009,-4.17187530e-004
,,,4.45000000e-009,-4.11718779e-004
,,,4.47500000e-009,-4.05468779e-004
,,,4.50000000e-009,-4.00000028e-004
,,,4.52500000e-009,-3.89843778e-004
,,,4.55000000e-009,-3.82812527e-004
,,,4.57500000e-009,-3.78125027e-004
,,,4.60000000e-009,-3.76562527e-004
,,,4.62500000e-009,-3.78125027e-004
,,,4.65000000e-009,-3.82812527e-004
,,,4.67500000e-009,-3.90625028e-004
,,,4.70000000e-009,-4.00000028e-004
,,,4.72500000e-009,-4.07031279e-004
,,,4.75000000e-009,-4.14062529e-004
,,,4.77500000e-009,-4.19531280e-004
,,,4.80000000e-009,-4.23437530e-004
,,,4.82500000e-009,-4.23437530e-004
,,,4.85000000e-009,-4.20312530e-004
,,,4.87500000e-009,-4.12500029e-004
,,,4.90000000e-009,-4.00000028e-004
,,,4.92500000e-009,-3.79687527e-004
,,,4.95000000e-009,-3.57031275e-004
,,,4.97500000e-009,-3.31250023e-004
,,,5.00000000e-009,-3.03906272e-004
,,,5.02500000e-009,-2.75781270e-004
,,,5.05000000e-009,-2.49218768e-004
,,,5.07500000e-009,-2.23437516e-004
,,,5.10000000e-009,-2.00000014e-004
,,,5.12500000e-009,-1.76562512e-004
,,,5.15000000e-009,-1.54687511e-004
,,,5.17500000e-009,-1.33593759e-004
,,,5.20000000e-009,-1.11718758e-004
,,,5.22500000e-009,-8.82812562e-005
,,,5.25000000e-009,-6.17187544e-005
,,,5.27500000e-009,-3.20312523e-005
,,,5.30000000e-009,0.00000000e+000
,,,5.32500000e-009,3.35937524e-005
,,,5.35000000e-009,6.79687548e-005
,,,5.37500000e-009,1.03125007e-004
,,,5.40000000e-009,1.35156260e-004
,,,5.42500000e-009,1.63281262e-004
,,,5.45000000e-009,1.84375013e-004
,,,5.47500000e-009,1.96875014e-004
,,,5.50000000e-009,2.00000014e-004
,,,5.52500000e-009,1.89062513e-004
,,,5.55000000e-009,1.71093762e-004
,,,5.57500000e-009,1.45312510e-004
,,,5.60000000e-009,1.15625008e-004
,,,5.62500000e-009,8.35937559e-005
,,,5.65000000e-009,5.23437537e-005
,,,5.67500000e-009,2.34375017e-005
,,,5.70000000e-009,0.00000000e+000
,,,5.72500000e-009,-1.71875012e-005
,,,5.75000000e-009,-2.73437519e-005
,,,5.77500000e-009,-3.04687522e-005
,,,5.80000000e-009,-2.81250020e-005
,,,5.82500000e-009,-2.18750015e-005
,,,5.85000000e-009,-1.40625010e-005
,,,5.87500000e-009,-5.46875039e-006
,,,5.90000000e-009,0.00000000e+000
,,,5.92500000e-009,3.90625028e-006
,,,5.95000000e-009,5.46875039e-006
