RawData/DifferentLengths/R3/R3_2pt2B_5mV/wave013_Ch2.csv

"Record Length",1000,"Points",-7.72500000e-009,3.84375027e-004
"Sample Interval",2.50000000e-011,s,-7.70000000e-009,4.02343778e-004
"Trigger Point",309,"Samples",-7.67500000e-009,4.07812529e-004
"Trigger Time",2.32200000e-011,s,-7.65000000e-009,4.00000028e-004
"",,,-7.62500000e-009,3.72656276e-004
"Horizontal Offset",-7.72500000e-009,s,-7.60000000e-009,3.33593774e-004
,,,-7.57500000e-009,2.83593770e-004
,,,-7.55000000e-009,2.26562516e-004
,,,-7.52500000e-009,1.66406262e-004
,,,-7.50000000e-009,1.05468757e-004
,,,-7.47500000e-009,4.92187535e-005
,,,-7.45000000e-009,0.00000000e+000
,,,-7.42500000e-009,-3.90625028e-005
,,,-7.40000000e-009,-6.64062547e-005
,,,-7.37500000e-009,-8.12500058e-005
,,,-7.35000000e-009,-8.35937559e-005
,,,-7.32500000e-009,-7.42187553e-005
,,,-7.30000000e-009,-5.54687539e-005
,,,-7.27500000e-009,-2.96875021e-005
,,,-7.25000000e-009,0.00000000e+000
,,,-7.22500000e-009,2.89062520e-005
,,,-7.20000000e-009,5.46875039e-005
,,,-7.17500000e-009,7.42187553e-005
,,,-7.15000000e-009,8.43750060e-005
,,,-7.12500000e-009,8.28125059e-005
,,,-7.10000000e-009,6.79687548e-005
,,,-7.07500000e-009,3.98437528e-005
,,,-7.05000000e-009,0.00000000e+000
,,,-7.02500000e-009,-5.15625036e-005
,,,-7.00000000e-009,-1.10937508e-004
,,,-6.97500000e-009,-1.73437512e-004
,,,-6.95000000e-009,-2.35156267e-004
,,,-6.92500000e-009,-2.92187521e-004
,,,-6.90000000e-009,-3.40625024e-004
,,,-6.87500000e-009,-3.77343777e-004
,,,-6.85000000e-009,-4.00000028e-004
,,,-6.82500000e-009,-4.03125029e-004
,,,-6.80000000e-009,-3.92968778e-004
,,,-6.77500000e-009,-3.71093776e-004
,,,-6.75000000e-009,-3.40625024e-004
,,,-6.72500000e-009,-3.04687522e-004
,,,-6.70000000e-009,-2.66406269e-004
,,,-6.67500000e-009,-2.30468766e-004
,,,-6.65000000e-009,-2.00000014e-004
,,,-6.62500000e-009,-1.73437512e-004
,,,-6.60000000e-009,-1.57031261e-004
,,,-6.57500000e-009,-1.50000011e-004
,,,-6.55000000e-009,-1.51562511e-004
,,,-6.52500000e-009,-1.59375011e-004
,,,-6.50000000e-009,-1.71875012e-004
,,,-6.47500000e-009,-1.85937513e-004
,,,-6.45000000e-009,-2.00000014e-004
,,,-6.42500000e-009,-2.10156265e-004
,,,-6.40000000e-009,-2.17187515e-004
,,,-6.37500000e-009,-2.20312516e-004
,,,-6.35000000e-009,-2.20312516e-004
,,,-6.32500000e-009,-2.17187515e-004
,,,-6.30000000e-009,-2.11718765e-004
,,,-6.27500000e-009,-2.05468765e-004
,,,-6.25000000e-009,-2.00000014e-004
,,,-6.22500000e-009,-1.93750014e-004
,,,-6.20000000e-009,-1.89843763e-004
,,,-6.17500000e-009,-1.88281263e-004
,,,-6.15000000e-009,-1.88281263e-004
,,,-6.12500000e-009,-1.90625013e-004
,,,-6.10000000e-009,-1.92968764e-004
,,,-6.07500000e-009,-1.96093764e-004
,,,-6.05000000e-009,-2.00000014e-004
,,,-6.02500000e-009,-2.01562514e-004
,,,-6.00000000e-009,-2.02343764e-004
,,,-5.97500000e-009,-2.03125014e-004
,,,-5.95000000e-009,-2.03125014e-004
,,,-5.92500000e-009,-2.02343764e-004
,,,-5.90000000e-009,-2.01562514e-004
,,,-5.87500000e-009,-2.00781264e-004
,,,-5.85000000e-009,-2.00000014e-004
,,,-5.82500000e-009,-2.00781264e-004
,,,-5.80000000e-009,-2.01562514e-004
,,,-5.77500000e-009,-2.02343764e-004
,,,-5.75000000e-009,-2.03125014e-004
,,,-5.72500000e-009,-2.03125014e-004
,,,-5.70000000e-009,-2.02343764e-004
,,,-5.67500000e-009,-2.01562514e-004
,,,-5.65000000e-009,-2.00000014e-004
,,,-5.62500000e-009,-1.98437514e-004
,,,-5.60000000e-009,-1.96875014e-004
,,,-5.57500000e-009,-1.96093764e-004
,,,-5.55000000e-009,-1.95312514e-004
,,,-5.52500000e-009,-1.95312514e-004
,,,-5.50000000e-009,-1.96093764e-004
,,,-5.47500000e-009,-1.97656264e-004
,,,-5.45000000e-009,-2.00000014e-004
,,,-5.42500000e-009,-2.03906264e-004
,,,-5.40000000e-009,-2.08593765e-004
,,,-5.37500000e-009,-2.12500015e-004
,,,-5.35000000e-009,-2.14843765e-004
,,,-5.32500000e-009,-2.15625015e-004
,,,-5.30000000e-009,-2.13281265e-004
,,,-5.27500000e-009,-2.07812515e-004
,,,-5.25000000e-009,-2.00000014e-004
,,,-5.22500000e-009,-1.89062513e-004
,,,-5.20000000e-009,-1.77343763e-004
,,,-5.17500000e-009,-1.67968762e-004
,,,-5.15000000e-009,-1.60937511e-004
,,,-5.12500000e-009,-1.60156261e-004
,,,-5.10000000e-009,-1.65625012e-004
,,,-5.07500000e-009,-1.78906263e-004
,,,-5.05000000e-009,-2.00000014e-004
,,,-5.02500000e-009,-2.27343766e-004
,,,-5.00000000e-009,-2.60156268e-004
,,,-4.97500000e-009,-2.94531271e-004
,,,-4.95000000e-009,-3.28125023e-004
,,,-4.92500000e-009,-3.57031275e-004
,,,-4.90000000e-009,-3.79687527e-004
,,,-4.87500000e-009,-3.94531278e-004
,,,-4.85000000e-009,-4.00000028e-004
,,,-4.82500000e-009,-3.93750028e-004
,,,-4.80000000e-009,-3.82031277e-004
,,,-4.77500000e-009,-3.67968776e-004
,,,-4.75000000e-009,-3.56250025e-004
,,,-4.72500000e-009,-3.50000025e-004
,,,-4.70000000e-009,-3.53906275e-004
,,,-4.67500000e-009,-3.70312526e-004
,,,-4.65000000e-009,-4.00000028e-004
,,,-4.62500000e-009,-4.38281281e-004
,,,-4.60000000e-009,-4.85156284e-004
,,,-4.57500000e-009,-5.34375038e-004
,,,-4.55000000e-009,-5.78906291e-004
,,,-4.52500000e-009,-6.13281293e-004
,,,-4.50000000e-009,-6.30468795e-004
,,,-4.47500000e-009,-6.27343794e-004
,,,-4.45000000e-009,-6.00000042e-004
,,,-4.42500000e-009,-5.45312539e-004
,,,-4.40000000e-009,-4.70312533e-004
,,,-4.37500000e-009,-3.82031277e-004
,,,-4.35000000e-009,-2.87500020e-004
,,,-4.32500000e-009,-1.94531264e-004
,,,-4.30000000e-009,-1.10937508e-004
,,,-4.27500000e-009,-4.45312532e-005
,,,-4.25000000e-009,0.00000000e+000
,,,-4.22500000e-009,1.95312514e-005
,,,-4.20000000e-009,1.56250011e-005
,,,-4.17500000e-009,-7.03125050e-006
,,,-4.15000000e-009,-4.53125032e-005
,,,-4.12500000e-009,-8.98437564e-005
,,,-4.10000000e-009,-1.35156260e-004
,,,-4.07500000e-009,-1.73437512e-004
,,,-4.05000000e-009,-2.00000014e-004
,,,-4.02500000e-009,-2.08593765e-004
,,,-4.00000000e-009,-2.00781264e-004
,,,-3.97500000e-009,-1.78125013e-004
,,,-3.95000000e-009,-1.44531260e-004
,,,-3.92500000e-009,-1.03906257e-004
,,,-3.90000000e-009,-6.25000044e-005
,,,-3.87500000e-009,-2.65625019e-005
,,,-3.85000000e-009,0.00000000e+000
,,,-3.82500000e-009,1.17187508e-005
,,,-3.80000000e-009,8.59375061e-006
,,,-3.77500000e-009,-7.03125050e-006
,,,-3.75000000e-009,-3.59375025e-005
,,,-3.72500000e-009,-7.26562551e-005
,,,-3.70000000e-009,-1.15625008e-004
,,,-3.67500000e-009,-1.58593761e-004
,,,-3.65000000e-009,-2.00000014e-004
,,,-3.62500000e-009,-2.33593767e-004
,,,-3.60000000e-009,-2.57812518e-004
,,,-3.57500000e-009,-2.71093769e-004
,,,-3.55000000e-009,-2.73437519e-004
,,,-3.52500000e-009,-2.66406269e-004
,,,-3.50000000e-009,-2.50000018e-004
,,,-3.47500000e-009,-2.27343766e-004
,,,-3.45000000e-009,-2.00000014e-004
,,,-3.42500000e-009,-1.69531262e-004
,,,-3.40000000e-009,-1.39062510e-004
,,,-3.37500000e-009,-1.08593758e-004
,,,-3.35000000e-009,-7.96875056e-005
,,,-3.32500000e-009,-5.39062538e-005
,,,-3.30000000e-009,-3.20312523e-005
,,,-3.27500000e-009,-1.32812509e-005
,,,-3.25000000e-009,0.00000000e+000
,,,-3.22500000e-009,9.37500066e-006
,,,-3.20000000e-009,1.48437511e-005
,,,-3.17500000e-009,1.64062512e-005
,,,-3.15000000e-009,1.56250011e-005
,,,-3.12500000e-009,1.32812509e-005
,,,-3.10000000e-009,8.59375061e-006
,,,-3.07500000e-009,3.90625028e-006
,,,-3.05000000e-009,0.00000000e+000
,,,-3.02500000e-009,-4.68750033e-006
,,,-3.00000000e-009,-8.59375061e-006
,,,-2.97500000e-009,-1.09375008e-005
,,,-2.95000000e-009,-1.17187508e-005
,,,-2.92500000e-009,-1.01562507e-005
,,,-2.90000000e-009,-7.81250055e-006
,,,-2.87500000e-009,-3.90625028e-006
,,,-2.85000000e-009,0.00000000e+000
,,,-2.82500000e-009,3.90625028e-006
,,,-2.80000000e-009,7.81250055e-006
,,,-2.77500000e-009,1.01562507e-005
,,,-2.75000000e-009,1.17187508e-005
,,,-2.72500000e-009,1.09375008e-005
,,,-2.70000000e-009,8.59375061e-006
,,,-2.67500000e-009,4.68750033e-006
,,,-2.65000000e-009,0.00000000e+000
,,,-2.62500000e-009,-6.25000044e-006
,,,-2.60000000e-009,-1.25000009e-005
,,,-2.57500000e-009,-1.71875012e-005
,,,-2.55000000e-009,-1.95312514e-005
,,,-2.52500000e-009,-1.87500013e-005
,,,-2.50000000e-009,-1.56250011e-005
,,,-2.47500000e-009,-8.59375061e-006
,,,-2.45000000e-009,0.00000000e+000
,,,-2.42500000e-009,9.37500066e-006
,,,-2.40000000e-009,2.03125014e-005
,,,-2.37500000e-009,2.96875021e-005
,,,-2.35000000e-009,3.51562525e-005
,,,-2.32500000e-009,3.67187526e-005
,,,-2.30000000e-009,3.20312523e-005
,,,-2.27500000e-009,1.95312514e-005
,,,-2.25000000e-009,0.00000000e+000
,,,-2.22500000e-009,-2.57812518e-005
,,,-2.20000000e-009,-5.70312540e-005
,,,-2.17500000e-009,-9.06250064e-005
,,,-2.15000000e-009,-1.23437509e-004
,,,-2.12500000e-009,-1.53125011e-004
,,,-2.10000000e-009,-1.77343763e-004
,,,-2.07500000e-009,-1.93750014e-004
,,,-2.05000000e-009,-2.00000014e-004
,,,-2.02500000e-009,-1.93750014e-004
,,,-2.00000000e-009,-1.77343763e-004
,,,-1.97500000e-009,-1.53125011e-004
,,,-1.95000000e-009,-1.23437509e-004
,,,-1.92500000e-009,-9.06250064e-005
,,,-1.90000000e-009,-5.70312540e-005
,,,-1.87500000e-009,-2.57812518e-005
,,,-1.85000000e-009,0.00000000e+000
,,,-1.82500000e-009,1.87500013e-005
,,,-1.80000000e-009,2.96875021e-005
,,,-1.77500000e-009,3.35937524e-005
,,,-1.75000000e-009,3.20312523e-005
,,,-1.72500000e-009,2.57812518e-005
,,,-1.70000000e-009,1.71875012e-005
,,,-1.67500000e-009,7.81250055e-006
,,,-1.65000000e-009,0.00000000e+000
,,,-1.62500000e-009,-7.81250055e-006
,,,-1.60000000e-009,-1.32812509e-005
,,,-1.57500000e-009,-1.56250011e-005
,,,-1.55000000e-009,-1.48437511e-005
,,,-1.52500000e-009,-1.25000009e-005
,,,-1.50000000e-009,-8.59375061e-006
,,,-1.47500000e-009,-3.90625028e-006
,,,-1.45000000e-009,0.00000000e+000
,,,-1.42500000e-009,-3.90625028e-006
,,,-1.40000000e-009,-9.37500066e-006
,,,-1.37500000e-009,-1.56250011e-005
,,,-1.35000000e-009,-2.03125014e-005
,,,-1.32500000e-009,-2.18750015e-005
,,,-1.30000000e-009,-1.95312514e-005
,,,-1.27500000e-009,-1.25000009e-005
,,,-1.25000000e-009,0.00000000e+000
,,,-1.22500000e-009,7.81250055e-007
,,,-1.20000000e-009,2.34375017e-006
,,,-1.17500000e-009,4.68750033e-006
,,,-1.15000000e-009,6.25000044e-006
,,,-1.12500000e-009,7.03125050e-006
,,,-1.10000000e-009,7.03125050e-006
,,,-1.07500000e-009,4.68750033e-006
,,,-1.05000000e-009,0.00000000e+000
,,,-1.02500000e-009,-3.12500022e-005
,,,-1.00000000e-009,-6.71875048e-005
,,,-9.75000000e-010,-1.05468757e-004
,,,-9.50000000e-010,-1.41406260e-004
,,,-9.25000000e-010,-1.71093762e-004
,,,-9.00000000e-010,-1.91406264e-004
,,,-8.75000000e-010,-2.00781264e-004
,,,-8.50000000e-010,-2.00000014e-004
,,,-8.25000000e-010,-2.17187515e-004
,,,-8.00000000e-010,-2.33593767e-004
,,,-7.75000000e-010,-2.49218768e-004
,,,-7.50000000e-010,-2.66406269e-004
,,,-7.25000000e-010,-2.86718770e-004
,,,-7.00000000e-010,-3.14062522e-004
,,,-6.75000000e-010,-3.50000025e-004
,,,-6.50000000e-010,-4.00000028e-004
,,,-6.25000000e-010,-4.94531285e-004
,,,-6.00000000e-010,-6.11718793e-004
,,,-5.75000000e-010,-7.47656303e-004
,,,-5.50000000e-010,-9.00781314e-004
,,,-5.25000000e-010,-1.06562508e-003
,,,-5.00000000e-010,-1.23984384e-003
,,,-4.75000000e-010,-1.41796885e-003
,,,-4.50000000e-010,-1.60000011e-003
,,,-4.25000000e-010,-1.80390638e-003
,,,-4.00000000e-010,-2.01171889e-003
,,,-3.75000000e-010,-2.21953141e-003
,,,-3.50000000e-010,-2.42500017e-003
,,,-3.25000000e-010,-2.62656269e-003
,,,-3.00000000e-010,-2.82265645e-003
,,,-2.75000000e-010,-3.01328146e-003
,,,-2.50000000e-010,-3.20000023e-003
,,,-2.25000000e-010,-3.39218774e-003
,,,-2.00000000e-010,-3.58671900e-003
,,,-1.75000000e-010,-3.78515652e-003
,,,-1.50000000e-010,-3.98671903e-003
,,,-1.25000000e-010,-4.18984405e-003
,,,-1.00000000e-010,-4.39453156e-003
,,,-7.50000000e-011,-4.59765658e-003
,,,-5.00000000e-011,-4.80000034e-003
,,,-2.50000000e-011,-4.99375035e-003
,,,0.00000000e+000,-5.18906287e-003
,,,2.50000000e-011,-5.38125038e-003
,,,5.00000000e-011,-5.56796914e-003
,,,7.50000000e-011,-5.74609416e-003
,,,1.00000000e-010,-5.91250042e-003
,,,1.25000000e-010,-6.06406293e-003
,,,1.50000000e-010,-6.20000044e-003
,,,1.75000000e-010,-6.30234420e-003
,,,2.00000000e-010,-6.39921920e-003
,,,2.25000000e-010,-6.49296921e-003
,,,2.50000000e-010,-6.58593797e-003
,,,2.75000000e-010,-6.68203172e-003
,,,3.00000000e-010,-6.78281298e-003
,,,3.25000000e-010,-6.88828174e-003
,,,3.50000000e-010,-7.00000050e-003
,,,3.75000000e-010,-7.09062550e-003
,,,4.00000000e-010,-7.19140676e-003
,,,4.25000000e-010,-7.29921927e-003
,,,4.50000000e-010,-7.41171927e-003
,,,4.75000000e-010,-7.52265678e-003
,,,5.00000000e-010,-7.62734429e-003
,,,5.25000000e-010,-7.72109430e-003
,,,5.50000000e-010,-7.80000055e-003
,,,5.75000000e-010,-7.82968805e-003
,,,6.00000000e-010,-7.85078181e-003
,,,6.25000000e-010,-7.86640681e-003
,,,6.50000000e-010,-7.88125056e-003
,,,6.75000000e-010,-7.89921931e-003
,,,7.00000000e-010,-7.92343806e-003
,,,7.25000000e-010,-7.95703181e-003
,,,7.50000000e-010,-8.00000057e-003
,,,7.75000000e-010,-8.02109432e-003
,,,8.00000000e-010,-8.05234432e-003
,,,8.25000000e-010,-8.09062557e-003
,,,8.50000000e-010,-8.13046933e-003
,,,8.75000000e-010,-8.16718808e-003
,,,9.00000000e-010,-8.19453183e-003
,,,9.25000000e-010,-8.20625058e-003
,,,9.50000000e-010,-8.20000058e-003
,,,9.75000000e-010,-8.14296933e-003
,,,1.00000000e-009,-8.06953182e-003
,,,1.02500000e-009,-7.98437557e-003
,,,1.05000000e-009,-7.89375056e-003
,,,1.07500000e-009,-7.80468805e-003
,,,1.10000000e-009,-7.72343805e-003
,,,1.12500000e-009,-7.65468804e-003
,,,1.15000000e-009,-7.60000054e-003
,,,1.17500000e-009,-7.53671928e-003
,,,1.20000000e-009,-7.48671928e-003
,,,1.22500000e-009,-7.44609428e-003
,,,1.25000000e-009,-7.40937552e-003
,,,1.27500000e-009,-7.37187552e-003
,,,1.30000000e-009,-7.32812552e-003
,,,1.32500000e-009,-7.27187551e-003
,,,1.35000000e-009,-7.20000051e-003
,,,1.37500000e-009,-7.08906300e-003
,,,1.40000000e-009,-6.96171924e-003
,,,1.42500000e-009,-6.82109423e-003
,,,1.45000000e-009,-6.67656297e-003
,,,1.47500000e-009,-6.53437546e-003
,,,1.50000000e-009,-6.40390670e-003
,,,1.52500000e-009,-6.29140670e-003
,,,1.55000000e-009,-6.20000044e-003
,,,1.57500000e-009,-6.11875043e-003
,,,1.60000000e-009,-6.05468793e-003
,,,1.62500000e-009,-6.00625043e-003
,,,1.65000000e-009,-5.96718792e-003
,,,1.67500000e-009,-5.93281292e-003
,,,1.70000000e-009,-5.89687542e-003
,,,1.72500000e-009,-5.85468791e-003
,,,1.75000000e-009,-5.80000041e-003
,,,1.77500000e-009,-5.71953165e-003
,,,1.80000000e-009,-5.61796915e-003
,,,1.82500000e-009,-5.49765664e-003
,,,1.85000000e-009,-5.36250038e-003
,,,1.87500000e-009,-5.21953162e-003
,,,1.90000000e-009,-5.07343786e-003
,,,1.92500000e-009,-4.93203160e-003
,,,1.95000000e-009,-4.80000034e-003
,,,1.97500000e-009,-4.67656283e-003
,,,2.00000000e-009,-4.56093782e-003
,,,2.02500000e-009,-4.45390657e-003
,,,2.05000000e-009,-4.35546906e-003
,,,2.07500000e-009,-4.26250030e-003
,,,2.10000000e-009,-4.17421905e-003
,,,2.12500000e-009,-4.08750029e-003
,,,2.15000000e-009,-4.00000028e-003
,,,2.17500000e-009,-3.90859403e-003
,,,2.20000000e-009,-3.80625027e-003
,,,2.22500000e-009,-3.69140651e-003
,,,2.25000000e-009,-3.56562525e-003
,,,2.27500000e-009,-3.43046899e-003
,,,2.30000000e-009,-3.28828148e-003
,,,2.32500000e-009,-3.14375022e-003
,,,2.35000000e-009,-3.00000021e-003
,,,2.37500000e-009,-2.86875020e-003
,,,2.40000000e-009,-2.74062519e-003
,,,2.42500000e-009,-2.61875019e-003
,,,2.45000000e-009,-2.50625018e-003
,,,2.47500000e-009,-2.40546892e-003
,,,2.50000000e-009,-2.32031266e-003
,,,2.52500000e-009,-2.25156266e-003
,,,2.55000000e-009,-2.20000016e-003
,,,2.57500000e-009,-2.17343765e-003
,,,2.60000000e-009,-2.15468765e-003
,,,2.62500000e-009,-2.13984390e-003
,,,2.65000000e-009,-2.12421890e-003
,,,2.67500000e-009,-2.10468765e-003
,,,2.70000000e-009,-2.07890640e-003
,,,2.72500000e-009,-2.04453139e-003
,,,2.75000000e-009,-2.00000014e-003
,,,2.77500000e-009,-1.95390639e-003
,,,2.80000000e-009,-1.89375013e-003
,,,2.82500000e-009,-1.82031263e-003
,,,2.85000000e-009,-1.73671887e-003
,,,2.87500000e-009,-1.64843762e-003
,,,2.90000000e-009,-1.55937511e-003
,,,2.92500000e-009,-1.47500010e-003
,,,2.95000000e-009,-1.40000010e-003
,,,2.97500000e-009,-1.34609385e-003
,,,3.00000000e-009,-1.30234384e-003
,,,3.02500000e-009,-1.26718759e-003
,,,3.05000000e-009,-1.24062509e-003
,,,3.07500000e-009,-1.22187509e-003
,,,3.10000000e-009,-1.21015634e-003
,,,3.12500000e-009,-1.20312509e-003
,,,3.15000000e-009,-1.20000008e-003
,,,3.17500000e-009,-1.20703134e-003
,,,3.20000000e-009,-1.21250009e-003
,,,3.22500000e-009,-1.21484384e-003
,,,3.25000000e-009,-1.21328134e-003
,,,3.27500000e-009,-1.21015634e-003
,,,3.30000000e-009,-1.20546884e-003
,,,3.32500000e-009,-1.20156259e-003
,,,3.35000000e-009,-1.20000008e-003
,,,3.37500000e-009,-1.20312509e-003
,,,3.40000000e-009,-1.20703134e-003
,,,3.42500000e-009,-1.20937509e-003
,,,3.45000000e-009,-1.21093759e-003
,,,3.47500000e-009,-1.21093759e-003
,,,3.50000000e-009,-1.20937509e-003
,,,3.52500000e-009,-1.20625009e-003
,,,3.55000000e-009,-1.20000008e-003
,,,3.57500000e-009,-1.18984383e-003
,,,3.60000000e-009,-1.17500008e-003
,,,3.62500000e-009,-1.15546883e-003
,,,3.65000000e-009,-1.13046883e-003
,,,3.67500000e-009,-1.10156258e-003
,,,3.70000000e-009,-1.06875008e-003
,,,3.72500000e-009,-1.03437507e-003
,,,3.75000000e-009,-1.00000007e-003
,,,3.77500000e-009,-9.65625068e-004
,,,3.80000000e-009,-9.32812566e-004
,,,3.82500000e-009,-9.00781314e-004
,,,3.85000000e-009,-8.71093812e-004
,,,3.87500000e-009,-8.46093810e-004
,,,3.90000000e-009,-8.25000058e-004
,,,3.92500000e-009,-8.09375057e-004
,,,3.95000000e-009,-8.00000057e-004
,,,3.97500000e-009,-7.95312556e-004
,,,4.00000000e-009,-7.94531306e-004
,,,4.02500000e-009,-7.96875056e-004
,,,4.05000000e-009,-7.99218807e-004
,,,4.07500000e-009,-8.02343807e-004
,,,4.10000000e-009,-8.04687557e-004
,,,4.12500000e-009,-8.03906307e-004
,,,4.15000000e-009,-8.00000057e-004
,,,4.17500000e-009,-7.89843806e-004
,,,4.20000000e-009,-7.74218805e-004
,,,4.22500000e-009,-7.53125053e-004
,,,4.25000000e-009,-7.28125052e-004
,,,4.27500000e-009,-6.98437549e-004
,,,4.30000000e-009,-6.66406297e-004
,,,4.32500000e-009,-6.33593795e-004
,,,4.35000000e-009,-6.00000042e-004
,,,4.37500000e-009,-5.67968790e-004
,,,4.40000000e-009,-5.38281288e-004
,,,4.42500000e-009,-5.09375036e-004
,,,4.45000000e-009,-4.82812534e-004
,,,4.47500000e-009,-4.57812532e-004
,,,4.50000000e-009,-4.35937531e-004
,,,4.52500000e-009,-4.16406279e-004
,,,4.55000000e-009,-4.00000028e-004
,,,4.57500000e-009,-3.89062528e-004
,,,4.60000000e-009,-3.82031277e-004
,,,4.62500000e-009,-3.76562527e-004
,,,4.65000000e-009,-3.75000027e-004
,,,4.67500000e-009,-3.76562527e-004
,,,4.70000000e-009,-3.81250027e-004
,,,4.72500000e-009,-3.89062528e-004
,,,4.75000000e-009,-4.00000028e-004
,,,4.77500000e-009,-4.14843779e-004
,,,4.80000000e-009,-4.28906280e-004
,,,4.82500000e-009,-4.39843781e-004
,,,4.85000000e-009,-4.46875032e-004
,,,4.87500000e-009,-4.46875032e-004
,,,4.90000000e-009,-4.39062531e-004
,,,4.92500000e-009,-4.23437530e-004
,,,4.95000000e-009,-4.00000028e-004
,,,4.97500000e-009,-3.71093776e-004
,,,5.00000000e-009,-3.37500024e-004
,,,5.02500000e-009,-3.01562521e-004
,,,5.05000000e-009,-2.67187519e-004
,,,5.07500000e-009,-2.37500017e-004
,,,5.10000000e-009,-2.14843765e-004
,,,5.12500000e-009,-2.01562514e-004
,,,5.15000000e-009,-2.00000014e-004
,,,5.17500000e-009,-2.10937515e-004
,,,5.20000000e-009,-2.32031266e-004
,,,5.22500000e-009,-2.60156268e-004
,,,5.25000000e-009,-2.92187521e-004
,,,5.27500000e-009,-3.25000023e-004
,,,5.30000000e-009,-3.55468775e-004
,,,5.32500000e-009,-3.80468777e-004
,,,5.35000000e-009,-4.00000028e-004
,,,5.37500000e-009,-4.10156279e-004
,,,5.40000000e-009,-4.13281279e-004
,,,5.42500000e-009,-4.10156279e-004
,,,5.45000000e-009,-4.03906279e-004
,,,5.47500000e-009,-3.96875028e-004
,,,5.50000000e-009,-3.91406278e-004
,,,5.52500000e-009,-3.92187528e-004
,,,5.55000000e-009,-4.00000028e-004
,,,5.57500000e-009,-4.14062529e-004
,,,5.60000000e-009,-4.35937531e-004
,,,5.62500000e-009,-4.64062533e-004
,,,5.65000000e-009,-4.95312535e-004
,,,5.67500000e-009,-5.27343787e-004
,,,5.70000000e-009,-5.57812539e-004
,,,5.72500000e-009,-5.82812541e-004
,,,5.75000000e-009,-6.00000042e-004
,,,5.77500000e-009,-6.03125043e-004
,,,5.80000000e-009,-5.96093792e-004
,,,5.82500000e-009,-5.78125041e-004
,,,5.85000000e-009,-5.51562539e-004
