RawData/WithScintilator/L6_2pt2C_15mV/wave025_Ch3.csv

"Record Length",1000,"Points",-7.72500000e-009,-4.87499811e-004
"Sample Interval",2.50000000e-011,s,-7.70000000e-009,-4.93749811e-004
"Trigger Point",309,"Samples",-7.67500000e-009,-4.84374811e-004
"Trigger Time",1.84450871e-011,s,-7.65000000e-009,-4.53124809e-004
"",,,-7.62500000e-009,-3.99999805e-004
"Horizontal Offset",-7.72500000e-009,s,-7.60000000e-009,-3.31249800e-004
,,,-7.57500000e-009,-2.43749794e-004
,,,-7.55000000e-009,-1.39062286e-004
,,,-7.52500000e-009,-2.49997783e-005
,,,-7.50000000e-009,9.21877300e-005
,,,-7.47500000e-009,2.07812738e-004
,,,-7.45000000e-009,3.12500246e-004
,,,-7.42500000e-009,4.00000252e-004
,,,-7.40000000e-009,4.53125256e-004
,,,-7.37500000e-009,4.76562757e-004
,,,-7.35000000e-009,4.70312757e-004
,,,-7.32500000e-009,4.31250254e-004
,,,-7.30000000e-009,3.60937749e-004
,,,-7.27500000e-009,2.62500242e-004
,,,-7.25000000e-009,1.40625233e-004
,,,-7.22500000e-009,2.23517420e-010
,,,-7.20000000e-009,-1.57812288e-004
,,,-7.17500000e-009,-3.12499799e-004
,,,-7.15000000e-009,-4.57812309e-004
,,,-7.12500000e-009,-5.84374818e-004
,,,-7.10000000e-009,-6.84374825e-004
,,,-7.07500000e-009,-7.56249830e-004
,,,-7.05000000e-009,-7.95312333e-004
,,,-7.02500000e-009,-7.99999833e-004
,,,-7.00000000e-009,-7.74999831e-004
,,,-6.97500000e-009,-7.23437328e-004
,,,-6.95000000e-009,-6.56249823e-004
,,,-6.92500000e-009,-5.82812318e-004
,,,-6.90000000e-009,-5.12499813e-004
,,,-6.87500000e-009,-4.54687309e-004
,,,-6.85000000e-009,-4.15624806e-004
,,,-6.82500000e-009,-3.99999805e-004
,,,-6.80000000e-009,-4.17187306e-004
,,,-6.77500000e-009,-4.57812309e-004
,,,-6.75000000e-009,-5.17187313e-004
,,,-6.72500000e-009,-5.89062318e-004
,,,-6.70000000e-009,-6.60937323e-004
,,,-6.67500000e-009,-7.26562328e-004
,,,-6.65000000e-009,-7.74999831e-004
,,,-6.62500000e-009,-7.99999833e-004
,,,-6.60000000e-009,-8.01562333e-004
,,,-6.57500000e-009,-7.76562331e-004
,,,-6.55000000e-009,-7.28124828e-004
,,,-6.52500000e-009,-6.65624824e-004
,,,-6.50000000e-009,-5.93749819e-004
,,,-6.47500000e-009,-5.21874813e-004
,,,-6.45000000e-009,-4.54687309e-004
,,,-6.42500000e-009,-3.99999805e-004
,,,-6.40000000e-009,-3.62499802e-004
,,,-6.37500000e-009,-3.42187301e-004
,,,-6.35000000e-009,-3.39062300e-004
,,,-6.32500000e-009,-3.48437301e-004
,,,-6.30000000e-009,-3.64062302e-004
,,,-6.27500000e-009,-3.82812304e-004
,,,-6.25000000e-009,-3.95312304e-004
,,,-6.22500000e-009,-3.99999805e-004
,,,-6.20000000e-009,-3.96874805e-004
,,,-6.17500000e-009,-3.85937304e-004
,,,-6.15000000e-009,-3.68749803e-004
,,,-6.12500000e-009,-3.53124801e-004
,,,-6.10000000e-009,-3.42187301e-004
,,,-6.07500000e-009,-3.43749801e-004
,,,-6.05000000e-009,-3.62499802e-004
,,,-6.02500000e-009,-3.99999805e-004
,,,-6.00000000e-009,-4.64062309e-004
,,,-5.97500000e-009,-5.48437315e-004
,,,-5.95000000e-009,-6.48437322e-004
,,,-5.92500000e-009,-7.60937330e-004
,,,-5.90000000e-009,-8.79687339e-004
,,,-5.87500000e-009,-9.96874847e-004
,,,-5.85000000e-009,-1.10468735e-003
,,,-5.82500000e-009,-1.19999986e-003
,,,-5.80000000e-009,-1.27187487e-003
,,,-5.77500000e-009,-1.32031237e-003
,,,-5.75000000e-009,-1.34687487e-003
,,,-5.72500000e-009,-1.34999987e-003
,,,-5.70000000e-009,-1.33437487e-003
,,,-5.67500000e-009,-1.30156237e-003
,,,-5.65000000e-009,-1.25624987e-003
,,,-5.62500000e-009,-1.19999986e-003
,,,-5.60000000e-009,-1.13437486e-003
,,,-5.57500000e-009,-1.06874985e-003
,,,-5.55000000e-009,-1.00468735e-003
,,,-5.52500000e-009,-9.45312343e-004
,,,-5.50000000e-009,-8.95312340e-004
,,,-5.47500000e-009,-8.54687337e-004
,,,-5.45000000e-009,-8.21874835e-004
,,,-5.42500000e-009,-7.99999833e-004
,,,-5.40000000e-009,-7.85937332e-004
,,,-5.37500000e-009,-7.81249832e-004
,,,-5.35000000e-009,-7.81249832e-004
,,,-5.32500000e-009,-7.85937332e-004
,,,-5.30000000e-009,-7.90624832e-004
,,,-5.27500000e-009,-7.96874833e-004
,,,-5.25000000e-009,-7.99999833e-004
,,,-5.22500000e-009,-7.99999833e-004
,,,-5.20000000e-009,-7.95312333e-004
,,,-5.17500000e-009,-7.85937332e-004
,,,-5.15000000e-009,-7.78124832e-004
,,,-5.12500000e-009,-7.71874831e-004
,,,-5.10000000e-009,-7.70312331e-004
,,,-5.07500000e-009,-7.73437331e-004
,,,-5.05000000e-009,-7.84374832e-004
,,,-5.02500000e-009,-7.99999833e-004
,,,-5.00000000e-009,-8.23437335e-004
,,,-4.97500000e-009,-8.46874836e-004
,,,-4.95000000e-009,-8.70312338e-004
,,,-4.92500000e-009,-8.85937339e-004
,,,-4.90000000e-009,-8.90624840e-004
,,,-4.87500000e-009,-8.79687339e-004
,,,-4.85000000e-009,-8.48437337e-004
,,,-4.82500000e-009,-7.99999833e-004
,,,-4.80000000e-009,-7.37499829e-004
,,,-4.77500000e-009,-6.64062323e-004
,,,-4.75000000e-009,-5.85937318e-004
,,,-4.72500000e-009,-5.12499813e-004
,,,-4.70000000e-009,-4.49999808e-004
,,,-4.67500000e-009,-4.07812305e-004
,,,-4.65000000e-009,-3.90624804e-004
,,,-4.62500000e-009,-3.99999805e-004
,,,-4.60000000e-009,-4.45312308e-004
,,,-4.57500000e-009,-5.09374813e-004
,,,-4.55000000e-009,-5.85937318e-004
,,,-4.52500000e-009,-6.64062323e-004
,,,-4.50000000e-009,-7.34374828e-004
,,,-4.47500000e-009,-7.84374832e-004
,,,-4.45000000e-009,-8.07812334e-004
,,,-4.42500000e-009,-7.99999833e-004
,,,-4.40000000e-009,-7.60937330e-004
,,,-4.37500000e-009,-6.96874826e-004
,,,-4.35000000e-009,-6.15624820e-004
,,,-4.32500000e-009,-5.31249814e-004
,,,-4.30000000e-009,-4.56249809e-004
,,,-4.27500000e-009,-4.03124805e-004
,,,-4.25000000e-009,-3.82812304e-004
,,,-4.22500000e-009,-3.99999805e-004
,,,-4.20000000e-009,-4.59374809e-004
,,,-4.17500000e-009,-5.51562316e-004
,,,-4.15000000e-009,-6.70312324e-004
,,,-4.12500000e-009,-8.03124833e-004
,,,-4.10000000e-009,-9.34374843e-004
,,,-4.07500000e-009,-1.05156235e-003
,,,-4.05000000e-009,-1.14374986e-003
,,,-4.02500000e-009,-1.19999986e-003
,,,-4.00000000e-009,-1.21249986e-003
,,,-3.97500000e-009,-1.18749986e-003
,,,-3.95000000e-009,-1.13124986e-003
,,,-3.92500000e-009,-1.05468735e-003
,,,-3.90000000e-009,-9.71874845e-004
,,,-3.87500000e-009,-8.93749840e-004
,,,-3.85000000e-009,-8.34374836e-004
,,,-3.82500000e-009,-7.99999833e-004
,,,-3.80000000e-009,-7.99999833e-004
,,,-3.77500000e-009,-8.29687335e-004
,,,-3.75000000e-009,-8.85937339e-004
,,,-3.72500000e-009,-9.59374844e-004
,,,-3.70000000e-009,-1.03906235e-003
,,,-3.67500000e-009,-1.11406236e-003
,,,-3.65000000e-009,-1.17031236e-003
,,,-3.62500000e-009,-1.19999986e-003
,,,-3.60000000e-009,-1.18906236e-003
,,,-3.57500000e-009,-1.14218736e-003
,,,-3.55000000e-009,-1.06249985e-003
,,,-3.52500000e-009,-9.53124844e-004
,,,-3.50000000e-009,-8.23437335e-004
,,,-3.47500000e-009,-6.81249825e-004
,,,-3.45000000e-009,-5.37499815e-004
,,,-3.42500000e-009,-3.99999805e-004
,,,-3.40000000e-009,-2.82812297e-004
,,,-3.37500000e-009,-1.85937290e-004
,,,-3.35000000e-009,-1.10937284e-004
,,,-3.32500000e-009,-5.78122806e-005
,,,-3.30000000e-009,-2.18747780e-005
,,,-3.27500000e-009,-3.12477670e-006
,,,-3.25000000e-009,3.12522374e-006
,,,-3.22500000e-009,2.23517420e-010
,,,-3.20000000e-009,-2.03122779e-005
,,,-3.17500000e-009,-4.84372799e-005
,,,-3.15000000e-009,-8.43747825e-005
,,,-3.12500000e-009,-1.28124786e-004
,,,-3.10000000e-009,-1.81249789e-004
,,,-3.07500000e-009,-2.45312294e-004
,,,-3.05000000e-009,-3.18749799e-004
,,,-3.02500000e-009,-3.99999805e-004
,,,-3.00000000e-009,-4.92187311e-004
,,,-2.97500000e-009,-5.82812318e-004
,,,-2.95000000e-009,-6.67187324e-004
,,,-2.92500000e-009,-7.37499829e-004
,,,-2.90000000e-009,-7.90624832e-004
,,,-2.87500000e-009,-8.18749834e-004
,,,-2.85000000e-009,-8.23437335e-004
,,,-2.82500000e-009,-7.99999833e-004
,,,-2.80000000e-009,-7.56249830e-004
,,,-2.77500000e-009,-6.95312326e-004
,,,-2.75000000e-009,-6.23437321e-004
,,,-2.72500000e-009,-5.49999815e-004
,,,-2.70000000e-009,-4.82812311e-004
,,,-2.67500000e-009,-4.29687307e-004
,,,-2.65000000e-009,-4.01562305e-004
,,,-2.62500000e-009,-3.99999805e-004
,,,-2.60000000e-009,-4.39062308e-004
,,,-2.57500000e-009,-5.06249812e-004
,,,-2.55000000e-009,-5.98437319e-004
,,,-2.52500000e-009,-7.10937327e-004
,,,-2.50000000e-009,-8.37499836e-004
,,,-2.47500000e-009,-9.65624845e-004
,,,-2.45000000e-009,-1.08906235e-003
,,,-2.42500000e-009,-1.19999986e-003
,,,-2.40000000e-009,-1.28749987e-003
,,,-2.37500000e-009,-1.34999987e-003
,,,-2.35000000e-009,-1.38593737e-003
,,,-2.32500000e-009,-1.39374988e-003
,,,-2.30000000e-009,-1.37499987e-003
,,,-2.27500000e-009,-1.33437487e-003
,,,-2.25000000e-009,-1.27499987e-003
,,,-2.22500000e-009,-1.19999986e-003
,,,-2.20000000e-009,-1.11406236e-003
,,,-2.17500000e-009,-1.02812485e-003
,,,-2.15000000e-009,-9.48437344e-004
,,,-2.12500000e-009,-8.82812339e-004
,,,-2.10000000e-009,-8.32812335e-004
,,,-2.07500000e-009,-8.01562333e-004
,,,-2.05000000e-009,-7.90624832e-004
,,,-2.02500000e-009,-7.99999833e-004
,,,-2.00000000e-009,-8.29687335e-004
,,,-1.97500000e-009,-8.73437338e-004
,,,-1.95000000e-009,-9.29687342e-004
,,,-1.92500000e-009,-9.92187347e-004
,,,-1.90000000e-009,-1.05468735e-003
,,,-1.87500000e-009,-1.11249986e-003
,,,-1.85000000e-009,-1.16249986e-003
,,,-1.82500000e-009,-1.19999986e-003
,,,-1.80000000e-009,-1.22343736e-003
,,,-1.77500000e-009,-1.23437486e-003
,,,-1.75000000e-009,-1.23437486e-003
,,,-1.72500000e-009,-1.22656236e-003
,,,-1.70000000e-009,-1.21562486e-003
,,,-1.67500000e-009,-1.20624986e-003
,,,-1.65000000e-009,-1.19999986e-003
,,,-1.62500000e-009,-1.19999986e-003
,,,-1.60000000e-009,-1.20781236e-003
,,,-1.57500000e-009,-1.22187486e-003
,,,-1.55000000e-009,-1.23906236e-003
,,,-1.52500000e-009,-1.25312487e-003
,,,-1.50000000e-009,-1.26093737e-003
,,,-1.47500000e-009,-1.25781237e-003
,,,-1.45000000e-009,-1.23749986e-003
,,,-1.42500000e-009,-1.19999986e-003
,,,-1.40000000e-009,-1.16093736e-003
,,,-1.37500000e-009,-1.10937486e-003
,,,-1.35000000e-009,-1.04843735e-003
,,,-1.32500000e-009,-9.85937346e-004
,,,-1.30000000e-009,-9.23437342e-004
,,,-1.27500000e-009,-8.68749838e-004
,,,-1.25000000e-009,-8.26562335e-004
,,,-1.22500000e-009,-7.99999833e-004
,,,-1.20000000e-009,-8.29687335e-004
,,,-1.17500000e-009,-8.81249839e-004
,,,-1.15000000e-009,-9.46874844e-004
,,,-1.12500000e-009,-1.02031235e-003
,,,-1.10000000e-009,-1.08906235e-003
,,,-1.07500000e-009,-1.14687486e-003
,,,-1.05000000e-009,-1.18593736e-003
,,,-1.02500000e-009,-1.19999986e-003
,,,-1.00000000e-009,-1.25624987e-003
,,,-9.75000000e-010,-1.29687487e-003
,,,-9.50000000e-010,-1.32187487e-003
,,,-9.25000000e-010,-1.32812487e-003
,,,-9.00000000e-010,-1.31562487e-003
,,,-8.75000000e-010,-1.28749987e-003
,,,-8.50000000e-010,-1.24687486e-003
,,,-8.25000000e-010,-1.19999986e-003
,,,-8.00000000e-010,-1.25781237e-003
,,,-7.75000000e-010,-1.33749987e-003
,,,-7.50000000e-010,-1.43593738e-003
,,,-7.25000000e-010,-1.54843739e-003
,,,-7.00000000e-010,-1.66562489e-003
,,,-6.75000000e-010,-1.78124990e-003
,,,-6.50000000e-010,-1.89218741e-003
,,,-6.25000000e-010,-1.99999992e-003
,,,-6.00000000e-010,-2.22656243e-003
,,,-5.75000000e-010,-2.47031245e-003
,,,-5.50000000e-010,-2.72656247e-003
,,,-5.25000000e-010,-2.98593749e-003
,,,-5.00000000e-010,-3.24375001e-003
,,,-4.75000000e-010,-3.49843752e-003
,,,-4.50000000e-010,-3.74843754e-003
,,,-4.25000000e-010,-4.00000006e-003
,,,-4.00000000e-010,-4.37500009e-003
,,,-3.75000000e-010,-4.78750012e-003
,,,-3.50000000e-010,-5.23593765e-003
,,,-3.25000000e-010,-5.72187518e-003
,,,-3.00000000e-010,-6.24062522e-003
,,,-2.75000000e-010,-6.79218776e-003
,,,-2.50000000e-010,-7.37812530e-003
,,,-2.25000000e-010,-8.00000034e-003
,,,-2.00000000e-010,-8.72656289e-003
,,,-1.75000000e-010,-9.50625045e-003
,,,-1.50000000e-010,-1.03296880e-002
,,,-1.25000000e-010,-1.11890631e-002
,,,-1.00000000e-010,-1.20765631e-002
,,,-7.50000000e-011,-1.29781257e-002
,,,-5.00000000e-011,-1.38890633e-002
,,,-2.50000000e-011,-1.48000008e-002
,,,0.00000000e+000,-1.56968759e-002
,,,2.50000000e-011,-1.65984385e-002
,,,5.00000000e-011,-1.75031260e-002
,,,7.50000000e-011,-1.84093761e-002
,,,1.00000000e-010,-1.93171886e-002
,,,1.25000000e-010,-2.02218762e-002
,,,1.50000000e-010,-2.11171888e-002
,,,1.75000000e-010,-2.20000013e-002
,,,2.00000000e-010,-2.27656264e-002
,,,2.25000000e-010,-2.35187514e-002
,,,2.50000000e-010,-2.42609390e-002
,,,2.75000000e-010,-2.49875015e-002
,,,3.00000000e-010,-2.56937516e-002
,,,3.25000000e-010,-2.63703141e-002
,,,3.50000000e-010,-2.70093767e-002
,,,3.75000000e-010,-2.76000017e-002
,,,4.00000000e-010,-2.79703143e-002
,,,4.25000000e-010,-2.82953143e-002
,,,4.50000000e-010,-2.85843768e-002
,,,4.75000000e-010,-2.88437518e-002
,,,5.00000000e-010,-2.90750018e-002
,,,5.25000000e-010,-2.92812518e-002
,,,5.50000000e-010,-2.94578144e-002
,,,5.75000000e-010,-2.96000019e-002
,,,6.00000000e-010,-2.95156269e-002
,,,6.25000000e-010,-2.94078144e-002
,,,6.50000000e-010,-2.92828143e-002
,,,6.75000000e-010,-2.91453143e-002
,,,7.00000000e-010,-2.89937518e-002
,,,7.25000000e-010,-2.88234393e-002
,,,7.50000000e-010,-2.86296893e-002
,,,7.75000000e-010,-2.84000018e-002
,,,8.00000000e-010,-2.79562518e-002
,,,8.25000000e-010,-2.74828142e-002
,,,8.50000000e-010,-2.69921892e-002
,,,8.75000000e-010,-2.64875017e-002
,,,9.00000000e-010,-2.59750016e-002
,,,9.25000000e-010,-2.54578141e-002
,,,9.50000000e-010,-2.49328140e-002
,,,9.75000000e-010,-2.44000015e-002
,,,1.00000000e-009,-2.37375015e-002
,,,1.02500000e-009,-2.30718764e-002
,,,1.05000000e-009,-2.24062514e-002
,,,1.07500000e-009,-2.17468763e-002
,,,1.10000000e-009,-2.10953138e-002
,,,1.12500000e-009,-2.04546887e-002
,,,1.15000000e-009,-1.98234387e-002
,,,1.17500000e-009,-1.92000011e-002
,,,1.20000000e-009,-1.85375011e-002
,,,1.22500000e-009,-1.78812510e-002
,,,1.25000000e-009,-1.72359385e-002
,,,1.27500000e-009,-1.66109385e-002
,,,1.30000000e-009,-1.60093759e-002
,,,1.32500000e-009,-1.54390634e-002
,,,1.35000000e-009,-1.49031258e-002
,,,1.37500000e-009,-1.44000008e-002
,,,1.40000000e-009,-1.39359383e-002
,,,1.42500000e-009,-1.34796882e-002
,,,1.45000000e-009,-1.30296882e-002
,,,1.47500000e-009,-1.25828132e-002
,,,1.50000000e-009,-1.21359381e-002
,,,1.52500000e-009,-1.16890631e-002
,,,1.55000000e-009,-1.12437506e-002
,,,1.57500000e-009,-1.08000005e-002
,,,1.60000000e-009,-1.04015630e-002
,,,1.62500000e-009,-9.98437548e-003
,,,1.65000000e-009,-9.55625045e-003
,,,1.67500000e-009,-9.12500042e-003
,,,1.70000000e-009,-8.70000039e-003
,,,1.72500000e-009,-8.29843786e-003
,,,1.75000000e-009,-7.92812534e-003
,,,1.77500000e-009,-7.60000031e-003
,,,1.80000000e-009,-7.38125030e-003
,,,1.82500000e-009,-7.18593779e-003
,,,1.85000000e-009,-7.01093777e-003
,,,1.87500000e-009,-6.85468776e-003
,,,1.90000000e-009,-6.71718775e-003
,,,1.92500000e-009,-6.59687524e-003
,,,1.95000000e-009,-6.49218774e-003
,,,1.97500000e-009,-6.40000023e-003
,,,2.00000000e-009,-6.37343773e-003
,,,2.02500000e-009,-6.32500022e-003
,,,2.05000000e-009,-6.25468772e-003
,,,2.07500000e-009,-6.15937521e-003
,,,2.10000000e-009,-6.04062520e-003
,,,2.12500000e-009,-5.90468769e-003
,,,2.15000000e-009,-5.75625018e-003
,,,2.17500000e-009,-5.60000017e-003
,,,2.20000000e-009,-5.48125016e-003
,,,2.22500000e-009,-5.34531265e-003
,,,2.25000000e-009,-5.19531264e-003
,,,2.27500000e-009,-5.03593763e-003
,,,2.30000000e-009,-4.87031262e-003
,,,2.32500000e-009,-4.70625011e-003
,,,2.35000000e-009,-4.54843760e-003
,,,2.37500000e-009,-4.40000009e-003
,,,2.40000000e-009,-4.29531258e-003
,,,2.42500000e-009,-4.19062507e-003
,,,2.45000000e-009,-4.08750007e-003
,,,2.47500000e-009,-3.98437506e-003
,,,2.50000000e-009,-3.88281255e-003
,,,2.52500000e-009,-3.78281254e-003
,,,2.55000000e-009,-3.68906254e-003
,,,2.57500000e-009,-3.60000003e-003
,,,2.60000000e-009,-3.54218753e-003
,,,2.62500000e-009,-3.48281252e-003
,,,2.65000000e-009,-3.42343752e-003
,,,2.67500000e-009,-3.36562501e-003
,,,2.70000000e-009,-3.31093751e-003
,,,2.72500000e-009,-3.26406251e-003
,,,2.75000000e-009,-3.22656250e-003
,,,2.77500000e-009,-3.20000000e-003
,,,2.80000000e-009,-3.19687500e-003
,,,2.82500000e-009,-3.19843750e-003
,,,2.85000000e-009,-3.20156250e-003
,,,2.87500000e-009,-3.20625000e-003
,,,2.90000000e-009,-3.20937500e-003
,,,2.92500000e-009,-3.21093750e-003
,,,2.95000000e-009,-3.20937500e-003
,,,2.97500000e-009,-3.20000000e-003
,,,3.00000000e-009,-3.19218750e-003
,,,3.02500000e-009,-3.17031250e-003
,,,3.05000000e-009,-3.13281250e-003
,,,3.07500000e-009,-3.08437499e-003
,,,3.10000000e-009,-3.02343749e-003
,,,3.12500000e-009,-2.95468749e-003
,,,3.15000000e-009,-2.87968748e-003
,,,3.17500000e-009,-2.79999997e-003
,,,3.20000000e-009,-2.72812497e-003
,,,3.22500000e-009,-2.65624996e-003
,,,3.25000000e-009,-2.58906246e-003
,,,3.27500000e-009,-2.52656246e-003
,,,3.30000000e-009,-2.47656245e-003
,,,3.32500000e-009,-2.43749995e-003
,,,3.35000000e-009,-2.41249995e-003
,,,3.37500000e-009,-2.39999995e-003
,,,3.40000000e-009,-2.40312495e-003
,,,3.42500000e-009,-2.41249995e-003
,,,3.45000000e-009,-2.42343745e-003
,,,3.47500000e-009,-2.43281245e-003
,,,3.50000000e-009,-2.43906245e-003
,,,3.52500000e-009,-2.43593745e-003
,,,3.55000000e-009,-2.42343745e-003
,,,3.57500000e-009,-2.39999995e-003
,,,3.60000000e-009,-2.36562494e-003
,,,3.62500000e-009,-2.31718744e-003
,,,3.65000000e-009,-2.26093744e-003
,,,3.67500000e-009,-2.19999993e-003
,,,3.70000000e-009,-2.14062493e-003
,,,3.72500000e-009,-2.08437492e-003
,,,3.75000000e-009,-2.03593742e-003
,,,3.77500000e-009,-1.99999992e-003
,,,3.80000000e-009,-1.97812492e-003
,,,3.82500000e-009,-1.96562492e-003
,,,3.85000000e-009,-1.96249992e-003
,,,3.87500000e-009,-1.96874992e-003
,,,3.90000000e-009,-1.97812492e-003
,,,3.92500000e-009,-1.98906242e-003
,,,3.95000000e-009,-1.99843742e-003
,,,3.97500000e-009,-1.99999992e-003
,,,4.00000000e-009,-1.99531242e-003
,,,4.02500000e-009,-1.97656242e-003
,,,4.05000000e-009,-1.94218741e-003
,,,4.07500000e-009,-1.89531241e-003
,,,4.10000000e-009,-1.83437491e-003
,,,4.12500000e-009,-1.76249990e-003
,,,4.15000000e-009,-1.68437490e-003
,,,4.17500000e-009,-1.59999989e-003
,,,4.20000000e-009,-1.52031238e-003
,,,4.22500000e-009,-1.44374988e-003
,,,4.25000000e-009,-1.37343737e-003
,,,4.27500000e-009,-1.31249987e-003
,,,4.30000000e-009,-1.26249987e-003
,,,4.32500000e-009,-1.22812486e-003
,,,4.35000000e-009,-1.20781236e-003
,,,4.37500000e-009,-1.19999986e-003
,,,4.40000000e-009,-1.21406236e-003
,,,4.42500000e-009,-1.23281236e-003
,,,4.45000000e-009,-1.25312487e-003
,,,4.47500000e-009,-1.26874987e-003
,,,4.50000000e-009,-1.27499987e-003
,,,4.52500000e-009,-1.26718737e-003
,,,4.55000000e-009,-1.24374986e-003
,,,4.57500000e-009,-1.19999986e-003
,,,4.60000000e-009,-1.14999986e-003
,,,4.62500000e-009,-1.08593735e-003
,,,4.65000000e-009,-1.01562485e-003
,,,4.67500000e-009,-9.45312343e-004
,,,4.70000000e-009,-8.81249839e-004
,,,4.72500000e-009,-8.34374836e-004
,,,4.75000000e-009,-8.04687333e-004
,,,4.77500000e-009,-7.99999833e-004
,,,4.80000000e-009,-8.26562335e-004
,,,4.82500000e-009,-8.73437338e-004
,,,4.85000000e-009,-9.32812343e-004
,,,4.87500000e-009,-1.00156235e-003
,,,4.90000000e-009,-1.06874985e-003
,,,4.92500000e-009,-1.12812486e-003
,,,4.95000000e-009,-1.17343736e-003
,,,4.97500000e-009,-1.19999986e-003
,,,5.00000000e-009,-1.21249986e-003
,,,5.02500000e-009,-1.20781236e-003
,,,5.05000000e-009,-1.19062486e-003
,,,5.07500000e-009,-1.16874986e-003
,,,5.10000000e-009,-1.14999986e-003
,,,5.12500000e-009,-1.14531236e-003
,,,5.15000000e-009,-1.16093736e-003
,,,5.17500000e-009,-1.19999986e-003
,,,5.20000000e-009,-1.26874987e-003
,,,5.22500000e-009,-1.36093737e-003
,,,5.25000000e-009,-1.47031238e-003
,,,5.27500000e-009,-1.59218739e-003
,,,5.30000000e-009,-1.71406240e-003
,,,5.32500000e-009,-1.82968741e-003
,,,5.35000000e-009,-1.92812491e-003
,,,5.37500000e-009,-1.99999992e-003
,,,5.40000000e-009,-2.03437492e-003
,,,5.42500000e-009,-2.03593742e-003
,,,5.45000000e-009,-2.00781242e-003
,,,5.47500000e-009,-1.95312491e-003
,,,5.50000000e-009,-1.87656241e-003
,,,5.52500000e-009,-1.78906240e-003
,,,5.55000000e-009,-1.69374990e-003
,,,5.57500000e-009,-1.59999989e-003
,,,5.60000000e-009,-1.50781238e-003
,,,5.62500000e-009,-1.42812488e-003
,,,5.65000000e-009,-1.36093737e-003
,,,5.67500000e-009,-1.30624987e-003
,,,5.70000000e-009,-1.26562487e-003
,,,5.72500000e-009,-1.23593736e-003
,,,5.75000000e-009,-1.21562486e-003
,,,5.77500000e-009,-1.19999986e-003
,,,5.80000000e-009,-1.18906236e-003
,,,5.82500000e-009,-1.18281236e-003
