RawData/WithScintilator/L6_2pt2C_15mV/wave012_Ch3.csv

"Record Length",1000,"Points",-7.72500000e-009,-7.49999830e-004
"Sample Interval",2.50000000e-011,s,-7.70000000e-009,-6.87499825e-004
"Trigger Point",309,"Samples",-7.67500000e-009,-6.20312320e-004
"Trigger Time",3.78117048e-014,s,-7.65000000e-009,-5.53124816e-004
"",,,-7.62500000e-009,-4.90624811e-004
"Horizontal Offset",-7.72500000e-009,s,-7.60000000e-009,-4.42187308e-004
,,,-7.57500000e-009,-4.10937306e-004
,,,-7.55000000e-009,-3.99999805e-004
,,,-7.52500000e-009,-4.12499806e-004
,,,-7.50000000e-009,-4.46874808e-004
,,,-7.47500000e-009,-4.98437312e-004
,,,-7.45000000e-009,-5.60937316e-004
,,,-7.42500000e-009,-6.29687321e-004
,,,-7.40000000e-009,-6.98437326e-004
,,,-7.37500000e-009,-7.56249830e-004
,,,-7.35000000e-009,-7.99999833e-004
,,,-7.32500000e-009,-8.23437335e-004
,,,-7.30000000e-009,-8.21874835e-004
,,,-7.27500000e-009,-7.98437333e-004
,,,-7.25000000e-009,-7.51562330e-004
,,,-7.22500000e-009,-6.84374825e-004
,,,-7.20000000e-009,-5.99999819e-004
,,,-7.17500000e-009,-5.03124812e-004
,,,-7.15000000e-009,-3.99999805e-004
,,,-7.12500000e-009,-3.01562298e-004
,,,-7.10000000e-009,-2.09374791e-004
,,,-7.07500000e-009,-1.29687286e-004
,,,-7.05000000e-009,-6.40622810e-005
,,,-7.02500000e-009,-1.71872777e-005
,,,-7.00000000e-009,9.37522418e-006
,,,-6.97500000e-009,1.40627245e-005
,,,-6.95000000e-009,2.23517420e-010
,,,-6.92500000e-009,-4.21872795e-005
,,,-6.90000000e-009,-9.68747833e-005
,,,-6.87500000e-009,-1.59374788e-004
,,,-6.85000000e-009,-2.23437292e-004
,,,-6.82500000e-009,-2.84374797e-004
,,,-6.80000000e-009,-3.35937300e-004
,,,-6.77500000e-009,-3.74999803e-004
,,,-6.75000000e-009,-3.99999805e-004
,,,-6.72500000e-009,-4.12499806e-004
,,,-6.70000000e-009,-4.12499806e-004
,,,-6.67500000e-009,-4.01562305e-004
,,,-6.65000000e-009,-3.87499804e-004
,,,-6.62500000e-009,-3.74999803e-004
,,,-6.60000000e-009,-3.70312303e-004
,,,-6.57500000e-009,-3.78124803e-004
,,,-6.55000000e-009,-3.99999805e-004
,,,-6.52500000e-009,-4.39062308e-004
,,,-6.50000000e-009,-4.90624811e-004
,,,-6.47500000e-009,-5.51562316e-004
,,,-6.45000000e-009,-6.15624820e-004
,,,-6.42500000e-009,-6.78124824e-004
,,,-6.40000000e-009,-7.32812328e-004
,,,-6.37500000e-009,-7.74999831e-004
,,,-6.35000000e-009,-7.99999833e-004
,,,-6.32500000e-009,-8.10937334e-004
,,,-6.30000000e-009,-8.06249834e-004
,,,-6.27500000e-009,-7.92187333e-004
,,,-6.25000000e-009,-7.74999831e-004
,,,-6.22500000e-009,-7.60937330e-004
,,,-6.20000000e-009,-7.57812330e-004
,,,-6.17500000e-009,-7.70312331e-004
,,,-6.15000000e-009,-7.99999833e-004
,,,-6.12500000e-009,-8.48437337e-004
,,,-6.10000000e-009,-9.10937341e-004
,,,-6.07500000e-009,-9.82812346e-004
,,,-6.05000000e-009,-1.05624985e-003
,,,-6.02500000e-009,-1.12343736e-003
,,,-6.00000000e-009,-1.17499986e-003
,,,-5.97500000e-009,-1.20312486e-003
,,,-5.95000000e-009,-1.19999986e-003
,,,-5.92500000e-009,-1.16093736e-003
,,,-5.90000000e-009,-1.09062485e-003
,,,-5.87500000e-009,-9.95312347e-004
,,,-5.85000000e-009,-8.81249839e-004
,,,-5.82500000e-009,-7.56249830e-004
,,,-5.80000000e-009,-6.28124821e-004
,,,-5.77500000e-009,-5.07812312e-004
,,,-5.75000000e-009,-3.99999805e-004
,,,-5.72500000e-009,-3.15624799e-004
,,,-5.70000000e-009,-2.56249795e-004
,,,-5.67500000e-009,-2.24999792e-004
,,,-5.65000000e-009,-2.20312292e-004
,,,-5.62500000e-009,-2.39062293e-004
,,,-5.60000000e-009,-2.79687296e-004
,,,-5.57500000e-009,-3.34374800e-004
,,,-5.55000000e-009,-3.99999805e-004
,,,-5.52500000e-009,-4.73437310e-004
,,,-5.50000000e-009,-5.45312315e-004
,,,-5.47500000e-009,-6.12499820e-004
,,,-5.45000000e-009,-6.73437324e-004
,,,-5.42500000e-009,-7.21874828e-004
,,,-5.40000000e-009,-7.59374830e-004
,,,-5.37500000e-009,-7.85937332e-004
,,,-5.35000000e-009,-7.99999833e-004
,,,-5.32500000e-009,-8.04687333e-004
,,,-5.30000000e-009,-8.01562333e-004
,,,-5.27500000e-009,-7.93749833e-004
,,,-5.25000000e-009,-7.85937332e-004
,,,-5.22500000e-009,-7.79687332e-004
,,,-5.20000000e-009,-7.79687332e-004
,,,-5.17500000e-009,-7.87499832e-004
,,,-5.15000000e-009,-7.99999833e-004
,,,-5.12500000e-009,-8.21874835e-004
,,,-5.10000000e-009,-8.45312336e-004
,,,-5.07500000e-009,-8.68749838e-004
,,,-5.05000000e-009,-8.84374839e-004
,,,-5.02500000e-009,-8.89062339e-004
,,,-5.00000000e-009,-8.78124839e-004
,,,-4.97500000e-009,-8.48437337e-004
,,,-4.95000000e-009,-7.99999833e-004
,,,-4.92500000e-009,-7.39062329e-004
,,,-4.90000000e-009,-6.65624824e-004
,,,-4.87500000e-009,-5.87499818e-004
,,,-4.85000000e-009,-5.14062313e-004
,,,-4.82500000e-009,-4.51562308e-004
,,,-4.80000000e-009,-4.09374805e-004
,,,-4.77500000e-009,-3.90624804e-004
,,,-4.75000000e-009,-3.99999805e-004
,,,-4.72500000e-009,-4.40624808e-004
,,,-4.70000000e-009,-5.03124812e-004
,,,-4.67500000e-009,-5.78124817e-004
,,,-4.65000000e-009,-6.57812323e-004
,,,-4.62500000e-009,-7.28124828e-004
,,,-4.60000000e-009,-7.79687332e-004
,,,-4.57500000e-009,-8.06249834e-004
,,,-4.55000000e-009,-7.99999833e-004
,,,-4.52500000e-009,-7.65624831e-004
,,,-4.50000000e-009,-7.04687326e-004
,,,-4.47500000e-009,-6.26562321e-004
,,,-4.45000000e-009,-5.45312315e-004
,,,-4.42500000e-009,-4.70312310e-004
,,,-4.40000000e-009,-4.14062306e-004
,,,-4.37500000e-009,-3.89062304e-004
,,,-4.35000000e-009,-3.99999805e-004
,,,-4.32500000e-009,-4.56249809e-004
,,,-4.30000000e-009,-5.45312315e-004
,,,-4.27500000e-009,-6.60937323e-004
,,,-4.25000000e-009,-7.92187333e-004
,,,-4.22500000e-009,-9.23437342e-004
,,,-4.20000000e-009,-1.04374985e-003
,,,-4.17500000e-009,-1.13906236e-003
,,,-4.15000000e-009,-1.19999986e-003
,,,-4.12500000e-009,-1.22031236e-003
,,,-4.10000000e-009,-1.20312486e-003
,,,-4.07500000e-009,-1.15312486e-003
,,,-4.05000000e-009,-1.08124985e-003
,,,-4.02500000e-009,-9.98437347e-004
,,,-4.00000000e-009,-9.15624841e-004
,,,-3.97500000e-009,-8.46874836e-004
,,,-3.95000000e-009,-7.99999833e-004
,,,-3.92500000e-009,-7.84374832e-004
,,,-3.90000000e-009,-7.99999833e-004
,,,-3.87500000e-009,-8.40624836e-004
,,,-3.85000000e-009,-9.04687341e-004
,,,-3.82500000e-009,-9.81249846e-004
,,,-3.80000000e-009,-1.06249985e-003
,,,-3.77500000e-009,-1.13749986e-003
,,,-3.75000000e-009,-1.19999986e-003
,,,-3.72500000e-009,-1.24062486e-003
,,,-3.70000000e-009,-1.26249987e-003
,,,-3.67500000e-009,-1.26562487e-003
,,,-3.65000000e-009,-1.25624987e-003
,,,-3.62500000e-009,-1.24062486e-003
,,,-3.60000000e-009,-1.22187486e-003
,,,-3.57500000e-009,-1.20781236e-003
,,,-3.55000000e-009,-1.19999986e-003
,,,-3.52500000e-009,-1.19843736e-003
,,,-3.50000000e-009,-1.20312486e-003
,,,-3.47500000e-009,-1.21562486e-003
,,,-3.45000000e-009,-1.22812486e-003
,,,-3.42500000e-009,-1.23749986e-003
,,,-3.40000000e-009,-1.23906236e-003
,,,-3.37500000e-009,-1.22812486e-003
,,,-3.35000000e-009,-1.19999986e-003
,,,-3.32500000e-009,-1.15312486e-003
,,,-3.30000000e-009,-1.09374985e-003
,,,-3.27500000e-009,-1.02812485e-003
,,,-3.25000000e-009,-9.59374844e-004
,,,-3.22500000e-009,-8.96874840e-004
,,,-3.20000000e-009,-8.46874836e-004
,,,-3.17500000e-009,-8.12499834e-004
,,,-3.15000000e-009,-7.99999833e-004
,,,-3.12500000e-009,-8.12499834e-004
,,,-3.10000000e-009,-8.46874836e-004
,,,-3.07500000e-009,-8.98437340e-004
,,,-3.05000000e-009,-9.60937344e-004
,,,-3.02500000e-009,-1.02968735e-003
,,,-3.00000000e-009,-1.09843735e-003
,,,-2.97500000e-009,-1.15624986e-003
,,,-2.95000000e-009,-1.19999986e-003
,,,-2.92500000e-009,-1.21874986e-003
,,,-2.90000000e-009,-1.21406236e-003
,,,-2.87500000e-009,-1.18749986e-003
,,,-2.85000000e-009,-1.13749986e-003
,,,-2.82500000e-009,-1.07031235e-003
,,,-2.80000000e-009,-9.87499846e-004
,,,-2.77500000e-009,-8.96874840e-004
,,,-2.75000000e-009,-7.99999833e-004
,,,-2.72500000e-009,-7.09374827e-004
,,,-2.70000000e-009,-6.23437321e-004
,,,-2.67500000e-009,-5.49999815e-004
,,,-2.65000000e-009,-4.87499811e-004
,,,-2.62500000e-009,-4.42187308e-004
,,,-2.60000000e-009,-4.10937306e-004
,,,-2.57500000e-009,-3.98437305e-004
,,,-2.55000000e-009,-3.99999805e-004
,,,-2.52500000e-009,-4.23437306e-004
,,,-2.50000000e-009,-4.59374809e-004
,,,-2.47500000e-009,-5.06249812e-004
,,,-2.45000000e-009,-5.59374816e-004
,,,-2.42500000e-009,-6.18749820e-004
,,,-2.40000000e-009,-6.81249825e-004
,,,-2.37500000e-009,-7.42187329e-004
,,,-2.35000000e-009,-7.99999833e-004
,,,-2.32500000e-009,-8.54687337e-004
,,,-2.30000000e-009,-8.96874840e-004
,,,-2.27500000e-009,-9.24999842e-004
,,,-2.25000000e-009,-9.35937343e-004
,,,-2.22500000e-009,-9.28124842e-004
,,,-2.20000000e-009,-9.03124840e-004
,,,-2.17500000e-009,-8.59374837e-004
,,,-2.15000000e-009,-7.99999833e-004
,,,-2.12500000e-009,-7.31249828e-004
,,,-2.10000000e-009,-6.54687323e-004
,,,-2.07500000e-009,-5.79687318e-004
,,,-2.05000000e-009,-5.12499813e-004
,,,-2.02500000e-009,-4.56249809e-004
,,,-2.00000000e-009,-4.17187306e-004
,,,-1.97500000e-009,-3.96874805e-004
,,,-1.95000000e-009,-3.99999805e-004
,,,-1.92500000e-009,-4.29687307e-004
,,,-1.90000000e-009,-4.76562310e-004
,,,-1.87500000e-009,-5.35937314e-004
,,,-1.85000000e-009,-6.01562319e-004
,,,-1.82500000e-009,-6.65624824e-004
,,,-1.80000000e-009,-7.23437328e-004
,,,-1.77500000e-009,-7.68749831e-004
,,,-1.75000000e-009,-7.99999833e-004
,,,-1.72500000e-009,-8.17187334e-004
,,,-1.70000000e-009,-8.17187334e-004
,,,-1.67500000e-009,-8.07812334e-004
,,,-1.65000000e-009,-7.93749833e-004
,,,-1.62500000e-009,-7.81249832e-004
,,,-1.60000000e-009,-7.73437331e-004
,,,-1.57500000e-009,-7.79687332e-004
,,,-1.55000000e-009,-7.99999833e-004
,,,-1.52500000e-009,-8.40624836e-004
,,,-1.50000000e-009,-8.95312340e-004
,,,-1.47500000e-009,-9.60937344e-004
,,,-1.45000000e-009,-1.02968735e-003
,,,-1.42500000e-009,-1.09531235e-003
,,,-1.40000000e-009,-1.14999986e-003
,,,-1.37500000e-009,-1.18593736e-003
,,,-1.35000000e-009,-1.19999986e-003
,,,-1.32500000e-009,-1.20156236e-003
,,,-1.30000000e-009,-1.17968736e-003
,,,-1.27500000e-009,-1.13749986e-003
,,,-1.25000000e-009,-1.08124985e-003
,,,-1.22500000e-009,-1.01249985e-003
,,,-1.20000000e-009,-9.39062343e-004
,,,-1.17500000e-009,-8.67187338e-004
,,,-1.15000000e-009,-7.99999833e-004
,,,-1.12500000e-009,-7.81249832e-004
,,,-1.10000000e-009,-7.79687332e-004
,,,-1.07500000e-009,-7.92187333e-004
,,,-1.05000000e-009,-8.09374834e-004
,,,-1.02500000e-009,-8.24999835e-004
,,,-1.00000000e-009,-8.32812335e-004
,,,-9.75000000e-010,-8.24999835e-004
,,,-9.50000000e-010,-7.99999833e-004
,,,-9.25000000e-010,-8.39062336e-004
,,,-9.00000000e-010,-8.73437338e-004
,,,-8.75000000e-010,-8.99999840e-004
,,,-8.50000000e-010,-9.12499841e-004
,,,-8.25000000e-010,-9.07812341e-004
,,,-8.00000000e-010,-8.87499839e-004
,,,-7.75000000e-010,-8.48437337e-004
,,,-7.50000000e-010,-7.99999833e-004
,,,-7.25000000e-010,-8.96874840e-004
,,,-7.00000000e-010,-1.01718735e-003
,,,-6.75000000e-010,-1.14687486e-003
,,,-6.50000000e-010,-1.27812487e-003
,,,-6.25000000e-010,-1.39531238e-003
,,,-6.00000000e-010,-1.49062488e-003
,,,-5.75000000e-010,-1.55781239e-003
,,,-5.50000000e-010,-1.59999989e-003
,,,-5.25000000e-010,-1.84687491e-003
,,,-5.00000000e-010,-2.11249993e-003
,,,-4.75000000e-010,-2.39062495e-003
,,,-4.50000000e-010,-2.66562497e-003
,,,-4.25000000e-010,-2.92656248e-003
,,,-4.00000000e-010,-3.16875000e-003
,,,-3.75000000e-010,-3.38906252e-003
,,,-3.50000000e-010,-3.60000003e-003
,,,-3.25000000e-010,-4.08437507e-003
,,,-3.00000000e-010,-4.62187510e-003
,,,-2.75000000e-010,-5.20468764e-003
,,,-2.50000000e-010,-5.81875019e-003
,,,-2.25000000e-010,-6.45000023e-003
,,,-2.00000000e-010,-7.09062528e-003
,,,-1.75000000e-010,-7.73906282e-003
,,,-1.50000000e-010,-8.40000037e-003
,,,-1.25000000e-010,-9.35000044e-003
,,,-1.00000000e-010,-1.03765630e-002
,,,-7.50000000e-011,-1.14734381e-002
,,,-5.00000000e-011,-1.26265632e-002
,,,-2.50000000e-011,-1.38218758e-002
,,,0.00000000e+000,-1.50500008e-002
,,,2.50000000e-011,-1.63078134e-002
,,,5.00000000e-011,-1.76000010e-002
,,,7.50000000e-011,-1.91093761e-002
,,,1.00000000e-010,-2.07062512e-002
,,,1.25000000e-010,-2.23828139e-002
,,,1.50000000e-010,-2.41312515e-002
,,,1.75000000e-010,-2.59390641e-002
,,,2.00000000e-010,-2.77921892e-002
,,,2.25000000e-010,-2.96796894e-002
,,,2.50000000e-010,-3.16000020e-002
,,,2.75000000e-010,-3.35578147e-002
,,,3.00000000e-010,-3.55671898e-002
,,,3.25000000e-010,-3.76218774e-002
,,,3.50000000e-010,-3.97046901e-002
,,,3.75000000e-010,-4.18031277e-002
,,,4.00000000e-010,-4.38953154e-002
,,,4.25000000e-010,-4.59656280e-002
,,,4.50000000e-010,-4.80000032e-002
,,,4.75000000e-010,-4.98046908e-002
,,,5.00000000e-010,-5.15843784e-002
,,,5.25000000e-010,-5.33406286e-002
,,,5.50000000e-010,-5.50734412e-002
,,,5.75000000e-010,-5.67765663e-002
,,,6.00000000e-010,-5.84406289e-002
,,,6.25000000e-010,-6.00546915e-002
,,,6.50000000e-010,-6.16000041e-002
,,,6.75000000e-010,-6.27343792e-002
,,,7.00000000e-010,-6.38156293e-002
,,,7.25000000e-010,-6.48531294e-002
,,,7.50000000e-010,-6.58484419e-002
,,,7.75000000e-010,-6.67968795e-002
,,,8.00000000e-010,-6.76828171e-002
,,,8.25000000e-010,-6.84906296e-002
,,,8.50000000e-010,-6.92000047e-002
,,,8.75000000e-010,-6.93796922e-002
,,,9.00000000e-010,-6.94765672e-002
,,,9.25000000e-010,-6.95093797e-002
,,,9.50000000e-010,-6.94859422e-002
,,,9.75000000e-010,-6.94109422e-002
,,,1.00000000e-009,-6.92781297e-002
,,,1.02500000e-009,-6.90796922e-002
,,,1.05000000e-009,-6.88000046e-002
,,,1.07500000e-009,-6.80296921e-002
,,,1.10000000e-009,-6.72046920e-002
,,,1.12500000e-009,-6.63390670e-002
,,,1.15000000e-009,-6.54468794e-002
,,,1.17500000e-009,-6.45281293e-002
,,,1.20000000e-009,-6.35859418e-002
,,,1.22500000e-009,-6.26125042e-002
,,,1.25000000e-009,-6.16000041e-002
,,,1.27500000e-009,-6.02437540e-002
,,,1.30000000e-009,-5.88734414e-002
,,,1.32500000e-009,-5.75078163e-002
,,,1.35000000e-009,-5.61656288e-002
,,,1.37500000e-009,-5.48578162e-002
,,,1.40000000e-009,-5.35937536e-002
,,,1.42500000e-009,-5.23750035e-002
,,,1.45000000e-009,-5.12000034e-002
,,,1.47500000e-009,-4.98953158e-002
,,,1.50000000e-009,-4.86187532e-002
,,,1.52500000e-009,-4.73734406e-002
,,,1.55000000e-009,-4.61593780e-002
,,,1.57500000e-009,-4.49781280e-002
,,,1.60000000e-009,-4.38265654e-002
,,,1.62500000e-009,-4.27015653e-002
,,,1.65000000e-009,-4.16000027e-002
,,,1.67500000e-009,-4.04750026e-002
,,,1.70000000e-009,-3.93375026e-002
,,,1.72500000e-009,-3.81921900e-002
,,,1.75000000e-009,-3.70500024e-002
,,,1.77500000e-009,-3.59265648e-002
,,,1.80000000e-009,-3.48343772e-002
,,,1.82500000e-009,-3.37890647e-002
,,,1.85000000e-009,-3.28000021e-002
,,,1.87500000e-009,-3.19187520e-002
,,,1.90000000e-009,-3.10531270e-002
,,,1.92500000e-009,-3.02031269e-002
,,,1.95000000e-009,-2.93734394e-002
,,,1.97500000e-009,-2.85718768e-002
,,,2.00000000e-009,-2.78046892e-002
,,,2.02500000e-009,-2.70812517e-002
,,,2.05000000e-009,-2.64000016e-002
,,,2.07500000e-009,-2.58500016e-002
,,,2.10000000e-009,-2.52796891e-002
,,,2.12500000e-009,-2.46859390e-002
,,,2.15000000e-009,-2.40687515e-002
,,,2.17500000e-009,-2.34406264e-002
,,,2.20000000e-009,-2.28109389e-002
,,,2.22500000e-009,-2.21937513e-002
,,,2.25000000e-009,-2.16000013e-002
,,,2.27500000e-009,-2.11328138e-002
,,,2.30000000e-009,-2.06500012e-002
,,,2.32500000e-009,-2.01578137e-002
,,,2.35000000e-009,-1.96671887e-002
,,,2.37500000e-009,-1.91921886e-002
,,,2.40000000e-009,-1.87484386e-002
,,,2.42500000e-009,-1.83500011e-002
,,,2.45000000e-009,-1.80000011e-002
,,,2.47500000e-009,-1.77796885e-002
,,,2.50000000e-009,-1.75593760e-002
,,,2.52500000e-009,-1.73328135e-002
,,,2.55000000e-009,-1.70937510e-002
,,,2.57500000e-009,-1.68421885e-002
,,,2.60000000e-009,-1.65765634e-002
,,,2.62500000e-009,-1.62953134e-002
,,,2.65000000e-009,-1.60000009e-002
,,,2.67500000e-009,-1.57375009e-002
,,,2.70000000e-009,-1.54203134e-002
,,,2.72500000e-009,-1.50515633e-002
,,,2.75000000e-009,-1.46375008e-002
,,,2.77500000e-009,-1.41906258e-002
,,,2.80000000e-009,-1.37265632e-002
,,,2.82500000e-009,-1.32578132e-002
,,,2.85000000e-009,-1.28000007e-002
,,,2.87500000e-009,-1.24062507e-002
,,,2.90000000e-009,-1.20140631e-002
,,,2.92500000e-009,-1.16296881e-002
,,,2.95000000e-009,-1.12578131e-002
,,,2.97500000e-009,-1.09046880e-002
,,,3.00000000e-009,-1.05750005e-002
,,,3.02500000e-009,-1.02734380e-002
,,,3.05000000e-009,-1.00000005e-002
,,,3.07500000e-009,-9.79218797e-003
,,,3.10000000e-009,-9.58906296e-003
,,,3.12500000e-009,-9.38750044e-003
,,,3.15000000e-009,-9.18437543e-003
,,,3.17500000e-009,-8.98281291e-003
,,,3.20000000e-009,-8.78437540e-003
,,,3.22500000e-009,-8.59062538e-003
,,,3.25000000e-009,-8.40000037e-003
,,,3.27500000e-009,-8.24531286e-003
,,,3.30000000e-009,-8.07656285e-003
,,,3.32500000e-009,-7.89062533e-003
,,,3.35000000e-009,-7.68906282e-003
,,,3.37500000e-009,-7.47500031e-003
,,,3.40000000e-009,-7.25156279e-003
,,,3.42500000e-009,-7.02500027e-003
,,,3.45000000e-009,-6.80000026e-003
,,,3.47500000e-009,-6.61250024e-003
,,,3.50000000e-009,-6.42500023e-003
,,,3.52500000e-009,-6.24218772e-003
,,,3.55000000e-009,-6.07031271e-003
,,,3.57500000e-009,-5.91406270e-003
,,,3.60000000e-009,-5.78281269e-003
,,,3.62500000e-009,-5.67812518e-003
,,,3.65000000e-009,-5.60000017e-003
,,,3.67500000e-009,-5.57968767e-003
,,,3.70000000e-009,-5.56562517e-003
,,,3.72500000e-009,-5.54687517e-003
,,,3.75000000e-009,-5.51875017e-003
,,,3.77500000e-009,-5.47500016e-003
,,,3.80000000e-009,-5.40781266e-003
,,,3.82500000e-009,-5.31718765e-003
,,,3.85000000e-009,-5.20000014e-003
,,,3.87500000e-009,-5.07812514e-003
,,,3.90000000e-009,-4.92656263e-003
,,,3.92500000e-009,-4.75468761e-003
,,,3.95000000e-009,-4.57343760e-003
,,,3.97500000e-009,-4.39687509e-003
,,,4.00000000e-009,-4.23593758e-003
,,,4.02500000e-009,-4.10156257e-003
,,,4.05000000e-009,-4.00000006e-003
,,,4.07500000e-009,-3.95156256e-003
,,,4.10000000e-009,-3.93125005e-003
,,,4.12500000e-009,-3.93281255e-003
,,,4.15000000e-009,-3.95000006e-003
,,,4.17500000e-009,-3.97187506e-003
,,,4.20000000e-009,-3.99375006e-003
,,,4.22500000e-009,-4.00468756e-003
,,,4.25000000e-009,-4.00000006e-003
,,,4.27500000e-009,-3.98593756e-003
,,,4.30000000e-009,-3.94843756e-003
,,,4.32500000e-009,-3.89062505e-003
,,,4.35000000e-009,-3.82187505e-003
,,,4.37500000e-009,-3.74843754e-003
,,,4.40000000e-009,-3.68281254e-003
,,,4.42500000e-009,-3.63125003e-003
,,,4.45000000e-009,-3.60000003e-003
,,,4.47500000e-009,-3.59531253e-003
,,,4.50000000e-009,-3.60468753e-003
,,,4.52500000e-009,-3.62500003e-003
,,,4.55000000e-009,-3.64687503e-003
,,,4.57500000e-009,-3.66406254e-003
,,,4.60000000e-009,-3.66562504e-003
,,,4.62500000e-009,-3.64687503e-003
,,,4.65000000e-009,-3.60000003e-003
,,,4.67500000e-009,-3.52187503e-003
,,,4.70000000e-009,-3.40937502e-003
,,,4.72500000e-009,-3.26718751e-003
,,,4.75000000e-009,-3.10156250e-003
,,,4.77500000e-009,-2.92187498e-003
,,,4.80000000e-009,-2.73906247e-003
,,,4.82500000e-009,-2.56249996e-003
,,,4.85000000e-009,-2.39999995e-003
,,,4.87500000e-009,-2.26718744e-003
,,,4.90000000e-009,-2.15781243e-003
,,,4.92500000e-009,-2.07499992e-003
,,,4.95000000e-009,-2.01874992e-003
,,,4.97500000e-009,-1.98593742e-003
,,,5.00000000e-009,-1.97499992e-003
,,,5.02500000e-009,-1.98124992e-003
,,,5.05000000e-009,-1.99999992e-003
,,,5.07500000e-009,-2.03281242e-003
,,,5.10000000e-009,-2.06093742e-003
,,,5.12500000e-009,-2.08437492e-003
,,,5.15000000e-009,-2.09531242e-003
,,,5.17500000e-009,-2.09374992e-003
,,,5.20000000e-009,-2.07656242e-003
,,,5.22500000e-009,-2.04531242e-003
,,,5.25000000e-009,-1.99999992e-003
,,,5.27500000e-009,-1.94843741e-003
,,,5.30000000e-009,-1.88593741e-003
,,,5.32500000e-009,-1.81874991e-003
,,,5.35000000e-009,-1.75312490e-003
,,,5.37500000e-009,-1.69374990e-003
,,,5.40000000e-009,-1.64687489e-003
,,,5.42500000e-009,-1.61562489e-003
,,,5.45000000e-009,-1.59999989e-003
,,,5.47500000e-009,-1.60781239e-003
,,,5.50000000e-009,-1.62343739e-003
,,,5.52500000e-009,-1.64218739e-003
,,,5.55000000e-009,-1.66093739e-003
,,,5.57500000e-009,-1.66874989e-003
,,,5.60000000e-009,-1.66406239e-003
,,,5.62500000e-009,-1.64218739e-003
,,,5.65000000e-009,-1.59999989e-003
,,,5.67500000e-009,-1.54999989e-003
,,,5.70000000e-009,-1.48281238e-003
,,,5.72500000e-009,-1.40937488e-003
,,,5.75000000e-009,-1.33437487e-003
,,,5.77500000e-009,-1.26874987e-003
,,,5.80000000e-009,-1.22031236e-003
