RawData/WithScintilator/L6_2pt2C_15mV/wave023_Ch3.csv

"Record Length",1000,"Points",-7.72500000e-009,-6.53124823e-004
"Sample Interval",2.50000000e-011,s,-7.70000000e-009,-6.42187322e-004
"Trigger Point",309,"Samples",-7.67500000e-009,-6.53124823e-004
"Trigger Time",6.44459397e-012,s,-7.65000000e-009,-6.84374825e-004
"",,,-7.62500000e-009,-7.34374828e-004
"Horizontal Offset",-7.72500000e-009,s,-7.60000000e-009,-7.99999833e-004
,,,-7.57500000e-009,-8.78124839e-004
,,,-7.55000000e-009,-9.57812344e-004
,,,-7.52500000e-009,-1.03437485e-003
,,,-7.50000000e-009,-1.10312485e-003
,,,-7.47500000e-009,-1.15781236e-003
,,,-7.45000000e-009,-1.19218736e-003
,,,-7.42500000e-009,-1.20781236e-003
,,,-7.40000000e-009,-1.19999986e-003
,,,-7.37500000e-009,-1.17187486e-003
,,,-7.35000000e-009,-1.12499986e-003
,,,-7.32500000e-009,-1.06562485e-003
,,,-7.30000000e-009,-9.99999847e-004
,,,-7.27500000e-009,-9.35937343e-004
,,,-7.25000000e-009,-8.78124839e-004
,,,-7.22500000e-009,-8.32812335e-004
,,,-7.20000000e-009,-7.99999833e-004
,,,-7.17500000e-009,-7.84374832e-004
,,,-7.15000000e-009,-7.84374832e-004
,,,-7.12500000e-009,-7.93749833e-004
,,,-7.10000000e-009,-8.07812334e-004
,,,-7.07500000e-009,-8.20312335e-004
,,,-7.05000000e-009,-8.28124835e-004
,,,-7.02500000e-009,-8.21874835e-004
,,,-7.00000000e-009,-7.99999833e-004
,,,-6.97500000e-009,-7.67187331e-004
,,,-6.95000000e-009,-7.17187327e-004
,,,-6.92500000e-009,-6.57812323e-004
,,,-6.90000000e-009,-5.92187318e-004
,,,-6.87500000e-009,-5.28124814e-004
,,,-6.85000000e-009,-4.70312310e-004
,,,-6.82500000e-009,-4.26562307e-004
,,,-6.80000000e-009,-3.99999805e-004
,,,-6.77500000e-009,-3.98437305e-004
,,,-6.75000000e-009,-4.18749806e-004
,,,-6.72500000e-009,-4.59374809e-004
,,,-6.70000000e-009,-5.15624813e-004
,,,-6.67500000e-009,-5.84374818e-004
,,,-6.65000000e-009,-6.57812323e-004
,,,-6.62500000e-009,-7.32812328e-004
,,,-6.60000000e-009,-7.99999833e-004
,,,-6.57500000e-009,-8.56249837e-004
,,,-6.55000000e-009,-8.95312340e-004
,,,-6.52500000e-009,-9.17187341e-004
,,,-6.50000000e-009,-9.20312342e-004
,,,-6.47500000e-009,-9.07812341e-004
,,,-6.45000000e-009,-8.81249839e-004
,,,-6.42500000e-009,-8.43749836e-004
,,,-6.40000000e-009,-7.99999833e-004
,,,-6.37500000e-009,-7.54687330e-004
,,,-6.35000000e-009,-7.14062327e-004
,,,-6.32500000e-009,-6.82812325e-004
,,,-6.30000000e-009,-6.65624824e-004
,,,-6.27500000e-009,-6.67187324e-004
,,,-6.25000000e-009,-6.90624825e-004
,,,-6.22500000e-009,-7.35937329e-004
,,,-6.20000000e-009,-7.99999833e-004
,,,-6.17500000e-009,-8.78124839e-004
,,,-6.15000000e-009,-9.64062345e-004
,,,-6.12500000e-009,-1.04999985e-003
,,,-6.10000000e-009,-1.12656236e-003
,,,-6.07500000e-009,-1.18593736e-003
,,,-6.05000000e-009,-1.22187486e-003
,,,-6.02500000e-009,-1.22812486e-003
,,,-6.00000000e-009,-1.19999986e-003
,,,-5.97500000e-009,-1.13437486e-003
,,,-5.95000000e-009,-1.04062485e-003
,,,-5.92500000e-009,-9.26562342e-004
,,,-5.90000000e-009,-8.03124833e-004
,,,-5.87500000e-009,-6.78124824e-004
,,,-5.85000000e-009,-5.65624817e-004
,,,-5.82500000e-009,-4.70312310e-004
,,,-5.80000000e-009,-3.99999805e-004
,,,-5.77500000e-009,-3.60937302e-004
,,,-5.75000000e-009,-3.46874801e-004
,,,-5.72500000e-009,-3.54687302e-004
,,,-5.70000000e-009,-3.74999803e-004
,,,-5.67500000e-009,-3.98437305e-004
,,,-5.65000000e-009,-4.15624806e-004
,,,-5.62500000e-009,-4.18749806e-004
,,,-5.60000000e-009,-3.99999805e-004
,,,-5.57500000e-009,-3.60937302e-004
,,,-5.55000000e-009,-3.03124798e-004
,,,-5.52500000e-009,-2.31249793e-004
,,,-5.50000000e-009,-1.54687287e-004
,,,-5.47500000e-009,-8.43747825e-005
,,,-5.45000000e-009,-3.12497787e-005
,,,-5.42500000e-009,-1.56227659e-006
,,,-5.40000000e-009,2.23517420e-010
,,,-5.37500000e-009,-3.74997791e-005
,,,-5.35000000e-009,-9.84372835e-005
,,,-5.32500000e-009,-1.74999789e-004
,,,-5.30000000e-009,-2.56249795e-004
,,,-5.27500000e-009,-3.29687300e-004
,,,-5.25000000e-009,-3.82812304e-004
,,,-5.22500000e-009,-4.09374805e-004
,,,-5.20000000e-009,-3.99999805e-004
,,,-5.17500000e-009,-3.60937302e-004
,,,-5.15000000e-009,-2.92187297e-004
,,,-5.12500000e-009,-2.07812291e-004
,,,-5.10000000e-009,-1.18749785e-004
,,,-5.07500000e-009,-4.06247794e-005
,,,-5.05000000e-009,1.09377243e-005
,,,-5.02500000e-009,2.65627254e-005
,,,-5.00000000e-009,2.23517420e-010
,,,-4.97500000e-009,-8.12497822e-005
,,,-4.95000000e-009,-1.95312290e-004
,,,-4.92500000e-009,-3.34374800e-004
,,,-4.90000000e-009,-4.79687310e-004
,,,-4.87500000e-009,-6.14062320e-004
,,,-4.85000000e-009,-7.20312327e-004
,,,-4.82500000e-009,-7.85937332e-004
,,,-4.80000000e-009,-7.99999833e-004
,,,-4.77500000e-009,-7.59374830e-004
,,,-4.75000000e-009,-6.68749824e-004
,,,-4.72500000e-009,-5.43749815e-004
,,,-4.70000000e-009,-3.99999805e-004
,,,-4.67500000e-009,-2.57812295e-004
,,,-4.65000000e-009,-1.32812286e-004
,,,-4.62500000e-009,-4.21872795e-005
,,,-4.60000000e-009,2.23517420e-010
,,,-4.57500000e-009,-1.56247776e-005
,,,-4.55000000e-009,-8.12497822e-005
,,,-4.52500000e-009,-1.87499790e-004
,,,-4.50000000e-009,-3.21874799e-004
,,,-4.47500000e-009,-4.67187310e-004
,,,-4.45000000e-009,-6.06249819e-004
,,,-4.42500000e-009,-7.20312327e-004
,,,-4.40000000e-009,-7.99999833e-004
,,,-4.37500000e-009,-8.32812335e-004
,,,-4.35000000e-009,-8.20312335e-004
,,,-4.32500000e-009,-7.71874831e-004
,,,-4.30000000e-009,-6.96874826e-004
,,,-4.27500000e-009,-6.07812320e-004
,,,-4.25000000e-009,-5.20312313e-004
,,,-4.22500000e-009,-4.48437308e-004
,,,-4.20000000e-009,-3.99999805e-004
,,,-4.17500000e-009,-3.87499804e-004
,,,-4.15000000e-009,-4.07812305e-004
,,,-4.12500000e-009,-4.57812309e-004
,,,-4.10000000e-009,-5.28124814e-004
,,,-4.07500000e-009,-6.09374820e-004
,,,-4.05000000e-009,-6.89062325e-004
,,,-4.02500000e-009,-7.56249830e-004
,,,-4.00000000e-009,-7.99999833e-004
,,,-3.97500000e-009,-8.14062334e-004
,,,-3.95000000e-009,-7.98437333e-004
,,,-3.92500000e-009,-7.56249830e-004
,,,-3.90000000e-009,-6.95312326e-004
,,,-3.87500000e-009,-6.18749820e-004
,,,-3.85000000e-009,-5.40624815e-004
,,,-3.82500000e-009,-4.64062309e-004
,,,-3.80000000e-009,-3.99999805e-004
,,,-3.77500000e-009,-3.54687302e-004
,,,-3.75000000e-009,-3.28124800e-004
,,,-3.72500000e-009,-3.18749799e-004
,,,-3.70000000e-009,-3.23437299e-004
,,,-3.67500000e-009,-3.40624801e-004
,,,-3.65000000e-009,-3.60937302e-004
,,,-3.62500000e-009,-3.82812304e-004
,,,-3.60000000e-009,-3.99999805e-004
,,,-3.57500000e-009,-4.12499806e-004
,,,-3.55000000e-009,-4.15624806e-004
,,,-3.52500000e-009,-4.14062306e-004
,,,-3.50000000e-009,-4.07812305e-004
,,,-3.47500000e-009,-3.99999805e-004
,,,-3.45000000e-009,-3.93749804e-004
,,,-3.42500000e-009,-3.92187304e-004
,,,-3.40000000e-009,-3.99999805e-004
,,,-3.37500000e-009,-4.20312306e-004
,,,-3.35000000e-009,-4.51562308e-004
,,,-3.32500000e-009,-4.93749811e-004
,,,-3.30000000e-009,-5.46874815e-004
,,,-3.27500000e-009,-6.06249819e-004
,,,-3.25000000e-009,-6.70312324e-004
,,,-3.22500000e-009,-7.37499829e-004
,,,-3.20000000e-009,-7.99999833e-004
,,,-3.17500000e-009,-8.54687337e-004
,,,-3.15000000e-009,-8.96874840e-004
,,,-3.12500000e-009,-9.24999842e-004
,,,-3.10000000e-009,-9.35937343e-004
,,,-3.07500000e-009,-9.28124842e-004
,,,-3.05000000e-009,-9.03124840e-004
,,,-3.02500000e-009,-8.59374837e-004
,,,-3.00000000e-009,-7.99999833e-004
,,,-2.97500000e-009,-7.32812328e-004
,,,-2.95000000e-009,-6.59374823e-004
,,,-2.92500000e-009,-5.85937318e-004
,,,-2.90000000e-009,-5.18749813e-004
,,,-2.87500000e-009,-4.62499809e-004
,,,-2.85000000e-009,-4.21874806e-004
,,,-2.82500000e-009,-4.01562305e-004
,,,-2.80000000e-009,-3.99999805e-004
,,,-2.77500000e-009,-4.23437306e-004
,,,-2.75000000e-009,-4.65624809e-004
,,,-2.72500000e-009,-5.20312313e-004
,,,-2.70000000e-009,-5.85937318e-004
,,,-2.67500000e-009,-6.51562323e-004
,,,-2.65000000e-009,-7.14062327e-004
,,,-2.62500000e-009,-7.65624831e-004
,,,-2.60000000e-009,-7.99999833e-004
,,,-2.57500000e-009,-8.14062334e-004
,,,-2.55000000e-009,-8.04687333e-004
,,,-2.52500000e-009,-7.73437331e-004
,,,-2.50000000e-009,-7.21874828e-004
,,,-2.47500000e-009,-6.54687323e-004
,,,-2.45000000e-009,-5.73437317e-004
,,,-2.42500000e-009,-4.87499811e-004
,,,-2.40000000e-009,-3.99999805e-004
,,,-2.37500000e-009,-3.24999799e-004
,,,-2.35000000e-009,-2.65624795e-004
,,,-2.32500000e-009,-2.24999792e-004
,,,-2.30000000e-009,-2.07812291e-004
,,,-2.27500000e-009,-2.17187292e-004
,,,-2.25000000e-009,-2.53124794e-004
,,,-2.22500000e-009,-3.15624799e-004
,,,-2.20000000e-009,-3.99999805e-004
,,,-2.17500000e-009,-5.07812312e-004
,,,-2.15000000e-009,-6.28124821e-004
,,,-2.12500000e-009,-7.51562330e-004
,,,-2.10000000e-009,-8.71874838e-004
,,,-2.07500000e-009,-9.84374846e-004
,,,-2.05000000e-009,-1.07968735e-003
,,,-2.02500000e-009,-1.15312486e-003
,,,-2.00000000e-009,-1.19999986e-003
,,,-1.97500000e-009,-1.21718736e-003
,,,-1.95000000e-009,-1.20624986e-003
,,,-1.92500000e-009,-1.17031236e-003
,,,-1.90000000e-009,-1.11406236e-003
,,,-1.87500000e-009,-1.04218735e-003
,,,-1.85000000e-009,-9.60937344e-004
,,,-1.82500000e-009,-8.78124839e-004
,,,-1.80000000e-009,-7.99999833e-004
,,,-1.77500000e-009,-7.35937329e-004
,,,-1.75000000e-009,-6.89062325e-004
,,,-1.72500000e-009,-6.60937323e-004
,,,-1.70000000e-009,-6.53124823e-004
,,,-1.67500000e-009,-6.65624824e-004
,,,-1.65000000e-009,-6.96874826e-004
,,,-1.62500000e-009,-7.43749829e-004
,,,-1.60000000e-009,-7.99999833e-004
,,,-1.57500000e-009,-8.78124839e-004
,,,-1.55000000e-009,-9.59374844e-004
,,,-1.52500000e-009,-1.03749985e-003
,,,-1.50000000e-009,-1.10624985e-003
,,,-1.47500000e-009,-1.16093736e-003
,,,-1.45000000e-009,-1.19687486e-003
,,,-1.42500000e-009,-1.20937486e-003
,,,-1.40000000e-009,-1.19999986e-003
,,,-1.37500000e-009,-1.19062486e-003
,,,-1.35000000e-009,-1.16406236e-003
,,,-1.32500000e-009,-1.12499986e-003
,,,-1.30000000e-009,-1.07343735e-003
,,,-1.27500000e-009,-1.01093735e-003
,,,-1.25000000e-009,-9.43749843e-004
,,,-1.22500000e-009,-8.71874838e-004
,,,-1.20000000e-009,-7.99999833e-004
,,,-1.17500000e-009,-7.74999831e-004
,,,-1.15000000e-009,-7.64062331e-004
,,,-1.12500000e-009,-7.64062331e-004
,,,-1.10000000e-009,-7.70312331e-004
,,,-1.07500000e-009,-7.81249832e-004
,,,-1.05000000e-009,-7.90624832e-004
,,,-1.02500000e-009,-7.96874833e-004
,,,-1.00000000e-009,-7.99999833e-004
,,,-9.75000000e-010,-8.74999838e-004
,,,-9.50000000e-010,-9.62499845e-004
,,,-9.25000000e-010,-1.05624985e-003
,,,-9.00000000e-010,-1.15781236e-003
,,,-8.75000000e-010,-1.26249987e-003
,,,-8.50000000e-010,-1.37031237e-003
,,,-8.25000000e-010,-1.48281238e-003
,,,-8.00000000e-010,-1.59999989e-003
,,,-7.75000000e-010,-1.81249990e-003
,,,-7.50000000e-010,-2.04843742e-003
,,,-7.25000000e-010,-2.30156244e-003
,,,-7.00000000e-010,-2.56718746e-003
,,,-6.75000000e-010,-2.83437498e-003
,,,-6.50000000e-010,-3.09843750e-003
,,,-6.25000000e-010,-3.35468751e-003
,,,-6.00000000e-010,-3.60000003e-003
,,,-5.75000000e-010,-3.91875005e-003
,,,-5.50000000e-010,-4.24062508e-003
,,,-5.25000000e-010,-4.56093760e-003
,,,-5.00000000e-010,-4.87343762e-003
,,,-4.75000000e-010,-5.17343764e-003
,,,-4.50000000e-010,-5.46093766e-003
,,,-4.25000000e-010,-5.73437518e-003
,,,-4.00000000e-010,-6.00000020e-003
,,,-3.75000000e-010,-6.33750023e-003
,,,-3.50000000e-010,-6.70156275e-003
,,,-3.25000000e-010,-7.09531278e-003
,,,-3.00000000e-010,-7.52500031e-003
,,,-2.75000000e-010,-7.98750034e-003
,,,-2.50000000e-010,-8.48906288e-003
,,,-2.25000000e-010,-9.02656292e-003
,,,-2.00000000e-010,-9.60000046e-003
,,,-1.75000000e-010,-1.02390630e-002
,,,-1.50000000e-010,-1.09187505e-002
,,,-1.25000000e-010,-1.16296881e-002
,,,-1.00000000e-010,-1.23609382e-002
,,,-7.50000000e-011,-1.30953132e-002
,,,-5.00000000e-011,-1.38218758e-002
,,,-2.50000000e-011,-1.45265633e-002
,,,0.00000000e+000,-1.52000009e-002
,,,2.50000000e-011,-1.58031259e-002
,,,5.00000000e-011,-1.63812509e-002
,,,7.50000000e-011,-1.69390635e-002
,,,1.00000000e-010,-1.74828135e-002
,,,1.25000000e-010,-1.80171886e-002
,,,1.50000000e-010,-1.85468761e-002
,,,1.75000000e-010,-1.90750011e-002
,,,2.00000000e-010,-1.96000012e-002
,,,2.25000000e-010,-2.00343762e-002
,,,2.50000000e-010,-2.04796887e-002
,,,2.75000000e-010,-2.09359388e-002
,,,3.00000000e-010,-2.14031263e-002
,,,3.25000000e-010,-2.18718763e-002
,,,3.50000000e-010,-2.23359389e-002
,,,3.75000000e-010,-2.27828139e-002
,,,4.00000000e-010,-2.32000014e-002
,,,4.25000000e-010,-2.34500014e-002
,,,4.50000000e-010,-2.36656265e-002
,,,4.75000000e-010,-2.38531265e-002
,,,5.00000000e-010,-2.40125015e-002
,,,5.25000000e-010,-2.41484390e-002
,,,5.50000000e-010,-2.42593765e-002
,,,5.75000000e-010,-2.43437515e-002
,,,6.00000000e-010,-2.44000015e-002
,,,6.25000000e-010,-2.42843765e-002
,,,6.50000000e-010,-2.41500015e-002
,,,6.75000000e-010,-2.40046890e-002
,,,7.00000000e-010,-2.38562515e-002
,,,7.25000000e-010,-2.37046890e-002
,,,7.50000000e-010,-2.35484389e-002
,,,7.75000000e-010,-2.33828139e-002
,,,8.00000000e-010,-2.32000014e-002
,,,8.25000000e-010,-2.28640639e-002
,,,8.50000000e-010,-2.25062514e-002
,,,8.75000000e-010,-2.21312513e-002
,,,9.00000000e-010,-2.17406263e-002
,,,9.25000000e-010,-2.13328138e-002
,,,9.50000000e-010,-2.09078138e-002
,,,9.75000000e-010,-2.04640637e-002
,,,1.00000000e-009,-2.00000012e-002
,,,1.02500000e-009,-1.94328137e-002
,,,1.05000000e-009,-1.88531261e-002
,,,1.07500000e-009,-1.82687511e-002
,,,1.10000000e-009,-1.76906260e-002
,,,1.12500000e-009,-1.71281260e-002
,,,1.15000000e-009,-1.65890635e-002
,,,1.17500000e-009,-1.60781259e-002
,,,1.20000000e-009,-1.56000009e-002
,,,1.22500000e-009,-1.51250008e-002
,,,1.25000000e-009,-1.46734383e-002
,,,1.27500000e-009,-1.42484383e-002
,,,1.30000000e-009,-1.38453133e-002
,,,1.32500000e-009,-1.34640632e-002
,,,1.35000000e-009,-1.31000007e-002
,,,1.37500000e-009,-1.27468757e-002
,,,1.40000000e-009,-1.24000007e-002
,,,1.42500000e-009,-1.20578131e-002
,,,1.45000000e-009,-1.16968756e-002
,,,1.47500000e-009,-1.13140631e-002
,,,1.50000000e-009,-1.09109380e-002
,,,1.52500000e-009,-1.04906255e-002
,,,1.55000000e-009,-1.00625005e-002
,,,1.57500000e-009,-9.62968796e-003
,,,1.60000000e-009,-9.20000043e-003
,,,1.62500000e-009,-8.81406290e-003
,,,1.65000000e-009,-8.42656287e-003
,,,1.67500000e-009,-8.04062535e-003
,,,1.70000000e-009,-7.66250032e-003
,,,1.72500000e-009,-7.30156279e-003
,,,1.75000000e-009,-6.96718777e-003
,,,1.77500000e-009,-6.66406275e-003
,,,1.80000000e-009,-6.40000023e-003
,,,1.82500000e-009,-6.22968772e-003
,,,1.85000000e-009,-6.08125021e-003
,,,1.87500000e-009,-5.95312520e-003
,,,1.90000000e-009,-5.84375019e-003
,,,1.92500000e-009,-5.75312518e-003
,,,1.95000000e-009,-5.68437518e-003
,,,1.97500000e-009,-5.63437518e-003
,,,2.00000000e-009,-5.60000017e-003
,,,2.02500000e-009,-5.62187517e-003
,,,2.05000000e-009,-5.62968767e-003
,,,2.07500000e-009,-5.61718767e-003
,,,2.10000000e-009,-5.58125017e-003
,,,2.12500000e-009,-5.52031267e-003
,,,2.15000000e-009,-5.43437516e-003
,,,2.17500000e-009,-5.32656265e-003
,,,2.20000000e-009,-5.20000014e-003
,,,2.22500000e-009,-5.08593764e-003
,,,2.25000000e-009,-4.94843763e-003
,,,2.27500000e-009,-4.79062512e-003
,,,2.30000000e-009,-4.62187510e-003
,,,2.32500000e-009,-4.45000009e-003
,,,2.35000000e-009,-4.28437508e-003
,,,2.37500000e-009,-4.13281257e-003
,,,2.40000000e-009,-4.00000006e-003
,,,2.42500000e-009,-3.91406255e-003
,,,2.45000000e-009,-3.84062505e-003
,,,2.47500000e-009,-3.78125004e-003
,,,2.50000000e-009,-3.73125004e-003
,,,2.52500000e-009,-3.69062504e-003
,,,2.55000000e-009,-3.65625004e-003
,,,2.57500000e-009,-3.62656253e-003
,,,2.60000000e-009,-3.60000003e-003
,,,2.62500000e-009,-3.58437503e-003
,,,2.65000000e-009,-3.55625003e-003
,,,2.67500000e-009,-3.51562503e-003
,,,2.70000000e-009,-3.46406252e-003
,,,2.72500000e-009,-3.40312502e-003
,,,2.75000000e-009,-3.33750001e-003
,,,2.77500000e-009,-3.26875001e-003
,,,2.80000000e-009,-3.20000000e-003
,,,2.82500000e-009,-3.13906250e-003
,,,2.85000000e-009,-3.07812499e-003
,,,2.87500000e-009,-3.02031249e-003
,,,2.90000000e-009,-2.96718749e-003
,,,2.92500000e-009,-2.91718748e-003
,,,2.95000000e-009,-2.87343748e-003
,,,2.97500000e-009,-2.83437498e-003
,,,3.00000000e-009,-2.79999997e-003
,,,3.02500000e-009,-2.77343747e-003
,,,3.05000000e-009,-2.74062497e-003
,,,3.07500000e-009,-2.70468747e-003
,,,3.10000000e-009,-2.66093746e-003
,,,3.12500000e-009,-2.60781246e-003
,,,3.15000000e-009,-2.54843746e-003
,,,3.17500000e-009,-2.47812495e-003
,,,3.20000000e-009,-2.39999995e-003
,,,3.22500000e-009,-2.32031244e-003
,,,3.25000000e-009,-2.22968743e-003
,,,3.27500000e-009,-2.12968743e-003
,,,3.30000000e-009,-2.02343742e-003
,,,3.32500000e-009,-1.91406241e-003
,,,3.35000000e-009,-1.80468740e-003
,,,3.37500000e-009,-1.69999990e-003
,,,3.40000000e-009,-1.59999989e-003
,,,3.42500000e-009,-1.51874988e-003
,,,3.45000000e-009,-1.44531238e-003
,,,3.47500000e-009,-1.38281237e-003
,,,3.50000000e-009,-1.32812487e-003
,,,3.52500000e-009,-1.28281237e-003
,,,3.55000000e-009,-1.24687486e-003
,,,3.57500000e-009,-1.22031236e-003
,,,3.60000000e-009,-1.19999986e-003
,,,3.62500000e-009,-1.19843736e-003
,,,3.65000000e-009,-1.19687486e-003
,,,3.67500000e-009,-1.19843736e-003
,,,3.70000000e-009,-1.19999986e-003
,,,3.72500000e-009,-1.19999986e-003
,,,3.75000000e-009,-1.19999986e-003
,,,3.77500000e-009,-1.20156236e-003
,,,3.80000000e-009,-1.19999986e-003
,,,3.82500000e-009,-1.20624986e-003
,,,3.85000000e-009,-1.20937486e-003
,,,3.87500000e-009,-1.20937486e-003
,,,3.90000000e-009,-1.20781236e-003
,,,3.92500000e-009,-1.20468736e-003
,,,3.95000000e-009,-1.20312486e-003
,,,3.97500000e-009,-1.20156236e-003
,,,4.00000000e-009,-1.19999986e-003
,,,4.02500000e-009,-1.20781236e-003
,,,4.05000000e-009,-1.21406236e-003
,,,4.07500000e-009,-1.21874986e-003
,,,4.10000000e-009,-1.22187486e-003
,,,4.12500000e-009,-1.22031236e-003
,,,4.15000000e-009,-1.21718736e-003
,,,4.17500000e-009,-1.20937486e-003
,,,4.20000000e-009,-1.19999986e-003
,,,4.22500000e-009,-1.19531236e-003
,,,4.25000000e-009,-1.18749986e-003
,,,4.27500000e-009,-1.17968736e-003
,,,4.30000000e-009,-1.17499986e-003
,,,4.32500000e-009,-1.17343736e-003
,,,4.35000000e-009,-1.17656236e-003
,,,4.37500000e-009,-1.18593736e-003
,,,4.40000000e-009,-1.19999986e-003
,,,4.42500000e-009,-1.21874986e-003
,,,4.45000000e-009,-1.23749986e-003
,,,4.47500000e-009,-1.25468737e-003
,,,4.50000000e-009,-1.26562487e-003
,,,4.52500000e-009,-1.26874987e-003
,,,4.55000000e-009,-1.25937487e-003
,,,4.57500000e-009,-1.23593736e-003
,,,4.60000000e-009,-1.19999986e-003
,,,4.62500000e-009,-1.14999986e-003
,,,4.65000000e-009,-1.09062485e-003
,,,4.67500000e-009,-1.02656235e-003
,,,4.70000000e-009,-9.60937344e-004
,,,4.72500000e-009,-9.01562340e-004
,,,4.75000000e-009,-8.51562337e-004
,,,4.77500000e-009,-8.17187334e-004
,,,4.80000000e-009,-7.99999833e-004
,,,4.82500000e-009,-8.06249834e-004
,,,4.85000000e-009,-8.31249835e-004
,,,4.87500000e-009,-8.73437338e-004
,,,4.90000000e-009,-9.29687342e-004
,,,4.92500000e-009,-9.95312347e-004
,,,4.95000000e-009,-1.06562485e-003
,,,4.97500000e-009,-1.13593736e-003
,,,5.00000000e-009,-1.19999986e-003
,,,5.02500000e-009,-1.25156237e-003
,,,5.05000000e-009,-1.28749987e-003
,,,5.07500000e-009,-1.30937487e-003
,,,5.10000000e-009,-1.31406237e-003
,,,5.12500000e-009,-1.30312487e-003
,,,5.15000000e-009,-1.27968737e-003
,,,5.17500000e-009,-1.24531236e-003
,,,5.20000000e-009,-1.19999986e-003
,,,5.22500000e-009,-1.14843736e-003
,,,5.25000000e-009,-1.09374985e-003
,,,5.27500000e-009,-1.03906235e-003
,,,5.30000000e-009,-9.82812346e-004
,,,5.32500000e-009,-9.31249842e-004
,,,5.35000000e-009,-8.82812339e-004
,,,5.37500000e-009,-8.39062336e-004
,,,5.40000000e-009,-7.99999833e-004
,,,5.42500000e-009,-7.71874831e-004
,,,5.45000000e-009,-7.51562330e-004
,,,5.47500000e-009,-7.39062329e-004
,,,5.50000000e-009,-7.35937329e-004
,,,5.52500000e-009,-7.40624829e-004
,,,5.55000000e-009,-7.54687330e-004
,,,5.57500000e-009,-7.74999831e-004
,,,5.60000000e-009,-7.99999833e-004
,,,5.62500000e-009,-8.29687335e-004
,,,5.65000000e-009,-8.56249837e-004
,,,5.67500000e-009,-8.78124839e-004
,,,5.70000000e-009,-8.89062339e-004
,,,5.72500000e-009,-8.89062339e-004
,,,5.75000000e-009,-8.74999838e-004
,,,5.77500000e-009,-8.45312336e-004
,,,5.80000000e-009,-7.99999833e-004
