RawData/WithScintilator/L6_2pt2C_15mV/wave001_Ch3.csv

"Record Length",1000,"Points",-7.72500000e-009,-2.71874796e-004
"Sample Interval",2.50000000e-011,s,-7.70000000e-009,-3.42187301e-004
"Trigger Point",309,"Samples",-7.67500000e-009,-3.99999805e-004
"Trigger Time",1.52826263e-011,s,-7.65000000e-009,-4.42187308e-004
"",,,-7.62500000e-009,-4.62499809e-004
"Horizontal Offset",-7.72500000e-009,s,-7.60000000e-009,-4.67187310e-004
,,,-7.57500000e-009,-4.57812309e-004
,,,-7.55000000e-009,-4.39062308e-004
,,,-7.52500000e-009,-4.20312306e-004
,,,-7.50000000e-009,-4.04687305e-004
,,,-7.47500000e-009,-3.99999805e-004
,,,-7.45000000e-009,-4.09374805e-004
,,,-7.42500000e-009,-4.34374807e-004
,,,-7.40000000e-009,-4.74999810e-004
,,,-7.37500000e-009,-5.31249814e-004
,,,-7.35000000e-009,-5.95312319e-004
,,,-7.32500000e-009,-6.65624824e-004
,,,-7.30000000e-009,-7.35937329e-004
,,,-7.27500000e-009,-7.99999833e-004
,,,-7.25000000e-009,-8.51562337e-004
,,,-7.22500000e-009,-8.89062339e-004
,,,-7.20000000e-009,-9.10937341e-004
,,,-7.17500000e-009,-9.18749842e-004
,,,-7.15000000e-009,-9.09374841e-004
,,,-7.12500000e-009,-8.85937339e-004
,,,-7.10000000e-009,-8.48437337e-004
,,,-7.07500000e-009,-7.99999833e-004
,,,-7.05000000e-009,-7.40624829e-004
,,,-7.02500000e-009,-6.78124824e-004
,,,-7.00000000e-009,-6.14062320e-004
,,,-6.97500000e-009,-5.54687316e-004
,,,-6.95000000e-009,-5.01562312e-004
,,,-6.92500000e-009,-4.57812309e-004
,,,-6.90000000e-009,-4.23437306e-004
,,,-6.87500000e-009,-3.99999805e-004
,,,-6.85000000e-009,-3.89062304e-004
,,,-6.82500000e-009,-3.87499804e-004
,,,-6.80000000e-009,-3.92187304e-004
,,,-6.77500000e-009,-4.01562305e-004
,,,-6.75000000e-009,-4.09374805e-004
,,,-6.72500000e-009,-4.12499806e-004
,,,-6.70000000e-009,-4.10937306e-004
,,,-6.67500000e-009,-3.99999805e-004
,,,-6.65000000e-009,-3.82812304e-004
,,,-6.62500000e-009,-3.60937302e-004
,,,-6.60000000e-009,-3.40624801e-004
,,,-6.57500000e-009,-3.23437299e-004
,,,-6.55000000e-009,-3.18749799e-004
,,,-6.52500000e-009,-3.28124800e-004
,,,-6.50000000e-009,-3.54687302e-004
,,,-6.47500000e-009,-3.99999805e-004
,,,-6.45000000e-009,-4.62499809e-004
,,,-6.42500000e-009,-5.35937314e-004
,,,-6.40000000e-009,-6.14062320e-004
,,,-6.37500000e-009,-6.87499825e-004
,,,-6.35000000e-009,-7.49999830e-004
,,,-6.32500000e-009,-7.92187333e-004
,,,-6.30000000e-009,-8.10937334e-004
,,,-6.27500000e-009,-7.99999833e-004
,,,-6.25000000e-009,-7.60937330e-004
,,,-6.22500000e-009,-6.98437326e-004
,,,-6.20000000e-009,-6.23437321e-004
,,,-6.17500000e-009,-5.43749815e-004
,,,-6.15000000e-009,-4.73437310e-004
,,,-6.12500000e-009,-4.21874806e-004
,,,-6.10000000e-009,-3.95312304e-004
,,,-6.07500000e-009,-3.99999805e-004
,,,-6.05000000e-009,-4.40624808e-004
,,,-6.02500000e-009,-5.04687312e-004
,,,-6.00000000e-009,-5.85937318e-004
,,,-5.97500000e-009,-6.70312324e-004
,,,-5.95000000e-009,-7.45312329e-004
,,,-5.92500000e-009,-7.98437333e-004
,,,-5.90000000e-009,-8.18749834e-004
,,,-5.87500000e-009,-7.99999833e-004
,,,-5.85000000e-009,-7.40624829e-004
,,,-5.82500000e-009,-6.45312322e-004
,,,-5.80000000e-009,-5.24999814e-004
,,,-5.77500000e-009,-3.92187304e-004
,,,-5.75000000e-009,-2.60937295e-004
,,,-5.72500000e-009,-1.43749787e-004
,,,-5.70000000e-009,-5.46872804e-005
,,,-5.67500000e-009,2.23517420e-010
,,,-5.65000000e-009,1.09377243e-005
,,,-5.62500000e-009,-1.56247776e-005
,,,-5.60000000e-009,-7.18747816e-005
,,,-5.57500000e-009,-1.48437287e-004
,,,-5.55000000e-009,-2.31249793e-004
,,,-5.52500000e-009,-3.09374798e-004
,,,-5.50000000e-009,-3.68749803e-004
,,,-5.47500000e-009,-3.99999805e-004
,,,-5.45000000e-009,-4.03124805e-004
,,,-5.42500000e-009,-3.74999803e-004
,,,-5.40000000e-009,-3.20312299e-004
,,,-5.37500000e-009,-2.46874794e-004
,,,-5.35000000e-009,-1.67187288e-004
,,,-5.32500000e-009,-9.21872830e-005
,,,-5.30000000e-009,-3.28122788e-005
,,,-5.27500000e-009,2.23517420e-010
,,,-5.25000000e-009,-6.24977692e-006
,,,-5.22500000e-009,-4.84372799e-005
,,,-5.20000000e-009,-1.26562285e-004
,,,-5.17500000e-009,-2.32812293e-004
,,,-5.15000000e-009,-3.64062302e-004
,,,-5.12500000e-009,-5.09374813e-004
,,,-5.10000000e-009,-6.57812323e-004
,,,-5.07500000e-009,-7.99999833e-004
,,,-5.05000000e-009,-9.21874842e-004
,,,-5.02500000e-009,-1.01406235e-003
,,,-5.00000000e-009,-1.07343735e-003
,,,-4.97500000e-009,-1.09374985e-003
,,,-4.95000000e-009,-1.07499985e-003
,,,-4.92500000e-009,-1.01718735e-003
,,,-4.90000000e-009,-9.23437342e-004
,,,-4.87500000e-009,-7.99999833e-004
,,,-4.85000000e-009,-6.57812323e-004
,,,-4.82500000e-009,-5.06249812e-004
,,,-4.80000000e-009,-3.59374802e-004
,,,-4.77500000e-009,-2.24999792e-004
,,,-4.75000000e-009,-1.14062285e-004
,,,-4.72500000e-009,-3.74997791e-005
,,,-4.70000000e-009,1.56272363e-006
,,,-4.67500000e-009,2.23517420e-010
,,,-4.65000000e-009,-4.68747798e-005
,,,-4.62500000e-009,-1.28124786e-004
,,,-4.60000000e-009,-2.35937293e-004
,,,-4.57500000e-009,-3.60937302e-004
,,,-4.55000000e-009,-4.92187311e-004
,,,-4.52500000e-009,-6.15624820e-004
,,,-4.50000000e-009,-7.21874828e-004
,,,-4.47500000e-009,-7.99999833e-004
,,,-4.45000000e-009,-8.45312336e-004
,,,-4.42500000e-009,-8.53124837e-004
,,,-4.40000000e-009,-8.26562335e-004
,,,-4.37500000e-009,-7.70312331e-004
,,,-4.35000000e-009,-6.90624825e-004
,,,-4.32500000e-009,-5.96874819e-004
,,,-4.30000000e-009,-4.96874812e-004
,,,-4.27500000e-009,-3.99999805e-004
,,,-4.25000000e-009,-3.15624799e-004
,,,-4.22500000e-009,-2.51562294e-004
,,,-4.20000000e-009,-2.12499792e-004
,,,-4.17500000e-009,-2.01562291e-004
,,,-4.15000000e-009,-2.17187292e-004
,,,-4.12500000e-009,-2.57812295e-004
,,,-4.10000000e-009,-3.21874799e-004
,,,-4.07500000e-009,-3.99999805e-004
,,,-4.05000000e-009,-4.92187311e-004
,,,-4.02500000e-009,-5.85937318e-004
,,,-4.00000000e-009,-6.70312324e-004
,,,-3.97500000e-009,-7.42187329e-004
,,,-3.95000000e-009,-7.93749833e-004
,,,-3.92500000e-009,-8.21874835e-004
,,,-3.90000000e-009,-8.24999835e-004
,,,-3.87500000e-009,-7.99999833e-004
,,,-3.85000000e-009,-7.53124830e-004
,,,-3.82500000e-009,-6.87499825e-004
,,,-3.80000000e-009,-6.14062320e-004
,,,-3.77500000e-009,-5.39062315e-004
,,,-3.75000000e-009,-4.73437310e-004
,,,-3.72500000e-009,-4.24999807e-004
,,,-3.70000000e-009,-3.99999805e-004
,,,-3.67500000e-009,-3.99999805e-004
,,,-3.65000000e-009,-4.28124807e-004
,,,-3.62500000e-009,-4.79687310e-004
,,,-3.60000000e-009,-5.48437315e-004
,,,-3.57500000e-009,-6.23437321e-004
,,,-3.55000000e-009,-6.95312326e-004
,,,-3.52500000e-009,-7.53124830e-004
,,,-3.50000000e-009,-7.90624832e-004
,,,-3.47500000e-009,-7.99999833e-004
,,,-3.45000000e-009,-7.81249832e-004
,,,-3.42500000e-009,-7.34374828e-004
,,,-3.40000000e-009,-6.68749824e-004
,,,-3.37500000e-009,-5.93749819e-004
,,,-3.35000000e-009,-5.20312313e-004
,,,-3.32500000e-009,-4.57812309e-004
,,,-3.30000000e-009,-4.15624806e-004
,,,-3.27500000e-009,-3.99999805e-004
,,,-3.25000000e-009,-4.14062306e-004
,,,-3.22500000e-009,-4.53124809e-004
,,,-3.20000000e-009,-5.14062313e-004
,,,-3.17500000e-009,-5.87499818e-004
,,,-3.15000000e-009,-6.62499823e-004
,,,-3.12500000e-009,-7.28124828e-004
,,,-3.10000000e-009,-7.76562331e-004
,,,-3.07500000e-009,-7.99999833e-004
,,,-3.05000000e-009,-7.92187333e-004
,,,-3.02500000e-009,-7.57812330e-004
,,,-3.00000000e-009,-7.01562326e-004
,,,-2.97500000e-009,-6.31249821e-004
,,,-2.95000000e-009,-5.56249816e-004
,,,-2.92500000e-009,-4.87499811e-004
,,,-2.90000000e-009,-4.32812307e-004
,,,-2.87500000e-009,-3.99999805e-004
,,,-2.85000000e-009,-3.95312304e-004
,,,-2.82500000e-009,-4.15624806e-004
,,,-2.80000000e-009,-4.59374809e-004
,,,-2.77500000e-009,-5.21874813e-004
,,,-2.75000000e-009,-5.95312319e-004
,,,-2.72500000e-009,-6.73437324e-004
,,,-2.70000000e-009,-7.43749829e-004
,,,-2.67500000e-009,-7.99999833e-004
,,,-2.65000000e-009,-8.32812335e-004
,,,-2.62500000e-009,-8.40624836e-004
,,,-2.60000000e-009,-8.20312335e-004
,,,-2.57500000e-009,-7.74999831e-004
,,,-2.55000000e-009,-7.04687326e-004
,,,-2.52500000e-009,-6.15624820e-004
,,,-2.50000000e-009,-5.12499813e-004
,,,-2.47500000e-009,-3.99999805e-004
,,,-2.45000000e-009,-2.93749797e-004
,,,-2.42500000e-009,-1.93749790e-004
,,,-2.40000000e-009,-1.07812284e-004
,,,-2.37500000e-009,-4.06247794e-005
,,,-2.35000000e-009,4.68772385e-006
,,,-2.32500000e-009,2.65627254e-005
,,,-2.30000000e-009,2.50002253e-005
,,,-2.27500000e-009,2.23517420e-010
,,,-2.25000000e-009,-5.15622801e-005
,,,-2.22500000e-009,-1.14062285e-004
,,,-2.20000000e-009,-1.85937290e-004
,,,-2.17500000e-009,-2.56249795e-004
,,,-2.15000000e-009,-3.18749799e-004
,,,-2.12500000e-009,-3.65624802e-004
,,,-2.10000000e-009,-3.95312304e-004
,,,-2.07500000e-009,-3.99999805e-004
,,,-2.05000000e-009,-3.87499804e-004
,,,-2.02500000e-009,-3.51562301e-004
,,,-2.00000000e-009,-2.98437298e-004
,,,-1.97500000e-009,-2.34374793e-004
,,,-1.95000000e-009,-1.64062288e-004
,,,-1.92500000e-009,-9.84372835e-005
,,,-1.90000000e-009,-4.06247794e-005
,,,-1.87500000e-009,2.23517420e-010
,,,-1.85000000e-009,1.09377243e-005
,,,-1.82500000e-009,2.23517420e-010
,,,-1.80000000e-009,-3.28122788e-005
,,,-1.77500000e-009,-8.59372826e-005
,,,-1.75000000e-009,-1.54687287e-004
,,,-1.72500000e-009,-2.32812293e-004
,,,-1.70000000e-009,-3.17187299e-004
,,,-1.67500000e-009,-3.99999805e-004
,,,-1.65000000e-009,-4.89062311e-004
,,,-1.62500000e-009,-5.68749817e-004
,,,-1.60000000e-009,-6.37499822e-004
,,,-1.57500000e-009,-6.92187325e-004
,,,-1.55000000e-009,-7.35937329e-004
,,,-1.52500000e-009,-7.68749831e-004
,,,-1.50000000e-009,-7.89062332e-004
,,,-1.47500000e-009,-7.99999833e-004
,,,-1.45000000e-009,-8.18749834e-004
,,,-1.42500000e-009,-8.34374836e-004
,,,-1.40000000e-009,-8.45312336e-004
,,,-1.37500000e-009,-8.49999837e-004
,,,-1.35000000e-009,-8.49999837e-004
,,,-1.32500000e-009,-8.40624836e-004
,,,-1.30000000e-009,-8.24999835e-004
,,,-1.27500000e-009,-7.99999833e-004
,,,-1.25000000e-009,-8.01562333e-004
,,,-1.22500000e-009,-8.04687333e-004
,,,-1.20000000e-009,-8.07812334e-004
,,,-1.17500000e-009,-8.10937334e-004
,,,-1.15000000e-009,-8.12499834e-004
,,,-1.12500000e-009,-8.10937334e-004
,,,-1.10000000e-009,-8.06249834e-004
,,,-1.07500000e-009,-7.99999833e-004
,,,-1.05000000e-009,-8.53124837e-004
,,,-1.02500000e-009,-9.15624841e-004
,,,-1.00000000e-009,-9.81249846e-004
,,,-9.75000000e-010,-1.04531235e-003
,,,-9.50000000e-010,-1.10312485e-003
,,,-9.25000000e-010,-1.14999986e-003
,,,-9.00000000e-010,-1.18124986e-003
,,,-8.75000000e-010,-1.19999986e-003
,,,-8.50000000e-010,-1.29218737e-003
,,,-8.25000000e-010,-1.39218738e-003
,,,-8.00000000e-010,-1.49687488e-003
,,,-7.75000000e-010,-1.60312489e-003
,,,-7.50000000e-010,-1.70624990e-003
,,,-7.25000000e-010,-1.80624990e-003
,,,-7.00000000e-010,-1.90312491e-003
,,,-6.75000000e-010,-1.99999992e-003
,,,-6.50000000e-010,-2.19531243e-003
,,,-6.25000000e-010,-2.41406245e-003
,,,-6.00000000e-010,-2.65156246e-003
,,,-5.75000000e-010,-2.90624998e-003
,,,-5.50000000e-010,-3.17031250e-003
,,,-5.25000000e-010,-3.44218752e-003
,,,-5.00000000e-010,-3.71875004e-003
,,,-4.75000000e-010,-4.00000006e-003
,,,-4.50000000e-010,-4.36875009e-003
,,,-4.25000000e-010,-4.76250011e-003
,,,-4.00000000e-010,-5.18281264e-003
,,,-3.75000000e-010,-5.62500017e-003
,,,-3.50000000e-010,-6.08750021e-003
,,,-3.25000000e-010,-6.57031274e-003
,,,-3.00000000e-010,-7.07500028e-003
,,,-2.75000000e-010,-7.60000031e-003
,,,-2.50000000e-010,-8.18281286e-003
,,,-2.25000000e-010,-8.80468790e-003
,,,-2.00000000e-010,-9.46250045e-003
,,,-1.75000000e-010,-1.01562505e-002
,,,-1.50000000e-010,-1.08812505e-002
,,,-1.25000000e-010,-1.16343756e-002
,,,-1.00000000e-010,-1.24093757e-002
,,,-7.50000000e-011,-1.32000007e-002
,,,-5.00000000e-011,-1.39609383e-002
,,,-2.50000000e-011,-1.47296883e-002
,,,0.00000000e+000,-1.55031259e-002
,,,2.50000000e-011,-1.62750009e-002
,,,5.00000000e-011,-1.70406260e-002
,,,7.50000000e-011,-1.77890635e-002
,,,1.00000000e-010,-1.85125011e-002
,,,1.25000000e-010,-1.92000011e-002
,,,1.50000000e-010,-1.97359387e-002
,,,1.75000000e-010,-2.02296887e-002
,,,2.00000000e-010,-2.06843762e-002
,,,2.25000000e-010,-2.11031263e-002
,,,2.50000000e-010,-2.14859388e-002
,,,2.75000000e-010,-2.18312513e-002
,,,3.00000000e-010,-2.21375013e-002
,,,3.25000000e-010,-2.24000014e-002
,,,3.50000000e-010,-2.24703139e-002
,,,3.75000000e-010,-2.25078139e-002
,,,4.00000000e-010,-2.25234389e-002
,,,4.25000000e-010,-2.25250014e-002
,,,4.50000000e-010,-2.25140639e-002
,,,4.75000000e-010,-2.24921889e-002
,,,5.00000000e-010,-2.24562514e-002
,,,5.25000000e-010,-2.24000014e-002
,,,5.50000000e-010,-2.21671888e-002
,,,5.75000000e-010,-2.19140638e-002
,,,6.00000000e-010,-2.16453138e-002
,,,6.25000000e-010,-2.13609388e-002
,,,6.50000000e-010,-2.10578138e-002
,,,6.75000000e-010,-2.07343762e-002
,,,7.00000000e-010,-2.03828137e-002
,,,7.25000000e-010,-2.00000012e-002
,,,7.50000000e-010,-1.94671887e-002
,,,7.75000000e-010,-1.89125011e-002
,,,8.00000000e-010,-1.83468761e-002
,,,8.25000000e-010,-1.77781260e-002
,,,8.50000000e-010,-1.72140635e-002
,,,8.75000000e-010,-1.66609385e-002
,,,9.00000000e-010,-1.61234384e-002
,,,9.25000000e-010,-1.56000009e-002
,,,9.50000000e-010,-1.50359383e-002
,,,9.75000000e-010,-1.44906258e-002
,,,1.00000000e-009,-1.39656258e-002
,,,1.02500000e-009,-1.34609382e-002
,,,1.05000000e-009,-1.29750007e-002
,,,1.07500000e-009,-1.25062507e-002
,,,1.10000000e-009,-1.20484381e-002
,,,1.12500000e-009,-1.16000006e-002
,,,1.15000000e-009,-1.11531256e-002
,,,1.17500000e-009,-1.07000005e-002
,,,1.20000000e-009,-1.02406255e-002
,,,1.22500000e-009,-9.77656297e-003
,,,1.25000000e-009,-9.31562544e-003
,,,1.27500000e-009,-8.86250040e-003
,,,1.30000000e-009,-8.42187537e-003
,,,1.32500000e-009,-8.00000034e-003
,,,1.35000000e-009,-7.64218782e-003
,,,1.37500000e-009,-7.29375029e-003
,,,1.40000000e-009,-6.95781277e-003
,,,1.42500000e-009,-6.63906275e-003
,,,1.45000000e-009,-6.33906273e-003
,,,1.47500000e-009,-6.06406271e-003
,,,1.50000000e-009,-5.81718769e-003
,,,1.52500000e-009,-5.60000017e-003
,,,1.55000000e-009,-5.47031266e-003
,,,1.57500000e-009,-5.35000016e-003
,,,1.60000000e-009,-5.23750015e-003
,,,1.62500000e-009,-5.13125014e-003
,,,1.65000000e-009,-5.03281263e-003
,,,1.67500000e-009,-4.94375013e-003
,,,1.70000000e-009,-4.86562512e-003
,,,1.72500000e-009,-4.80000012e-003
,,,1.75000000e-009,-4.79687512e-003
,,,1.77500000e-009,-4.78281262e-003
,,,1.80000000e-009,-4.75312511e-003
,,,1.82500000e-009,-4.70625011e-003
,,,1.85000000e-009,-4.64375011e-003
,,,1.87500000e-009,-4.57031260e-003
,,,1.90000000e-009,-4.48750009e-003
,,,1.92500000e-009,-4.40000009e-003
,,,1.95000000e-009,-4.34843758e-003
,,,1.97500000e-009,-4.28593758e-003
,,,2.00000000e-009,-4.21718757e-003
,,,2.02500000e-009,-4.15000007e-003
,,,2.05000000e-009,-4.08906257e-003
,,,2.07500000e-009,-4.04062506e-003
,,,2.10000000e-009,-4.01093756e-003
,,,2.12500000e-009,-4.00000006e-003
,,,2.15000000e-009,-4.02812506e-003
,,,2.17500000e-009,-4.05937506e-003
,,,2.20000000e-009,-4.08750007e-003
,,,2.22500000e-009,-4.10625007e-003
,,,2.25000000e-009,-4.11093757e-003
,,,2.27500000e-009,-4.09687507e-003
,,,2.30000000e-009,-4.05937506e-003
,,,2.32500000e-009,-4.00000006e-003
,,,2.35000000e-009,-3.92656255e-003
,,,2.37500000e-009,-3.82812505e-003
,,,2.40000000e-009,-3.71250004e-003
,,,2.42500000e-009,-3.59062503e-003
,,,2.45000000e-009,-3.46875002e-003
,,,2.47500000e-009,-3.35781251e-003
,,,2.50000000e-009,-3.26718751e-003
,,,2.52500000e-009,-3.20000000e-003
,,,2.55000000e-009,-3.16562500e-003
,,,2.57500000e-009,-3.15312500e-003
,,,2.60000000e-009,-3.15781250e-003
,,,2.62500000e-009,-3.17500000e-003
,,,2.65000000e-009,-3.19531250e-003
,,,2.67500000e-009,-3.21093750e-003
,,,2.70000000e-009,-3.21562500e-003
,,,2.72500000e-009,-3.20000000e-003
,,,2.75000000e-009,-3.15781250e-003
,,,2.77500000e-009,-3.08906250e-003
,,,2.80000000e-009,-2.99531249e-003
,,,2.82500000e-009,-2.88281248e-003
,,,2.85000000e-009,-2.75937497e-003
,,,2.87500000e-009,-2.63281246e-003
,,,2.90000000e-009,-2.51093745e-003
,,,2.92500000e-009,-2.39999995e-003
,,,2.95000000e-009,-2.30781244e-003
,,,2.97500000e-009,-2.23124993e-003
,,,3.00000000e-009,-2.16874993e-003
,,,3.02500000e-009,-2.12031243e-003
,,,3.05000000e-009,-2.08281242e-003
,,,3.07500000e-009,-2.05156242e-003
,,,3.10000000e-009,-2.02499992e-003
,,,3.12500000e-009,-1.99999992e-003
,,,3.15000000e-009,-1.98281242e-003
,,,3.17500000e-009,-1.96249992e-003
,,,3.20000000e-009,-1.94531241e-003
,,,3.22500000e-009,-1.93437491e-003
,,,3.25000000e-009,-1.93124991e-003
,,,3.27500000e-009,-1.94062491e-003
,,,3.30000000e-009,-1.96406242e-003
,,,3.32500000e-009,-1.99999992e-003
,,,3.35000000e-009,-2.04999992e-003
,,,3.37500000e-009,-2.09843743e-003
,,,3.40000000e-009,-2.14062493e-003
,,,3.42500000e-009,-2.16874993e-003
,,,3.45000000e-009,-2.17343743e-003
,,,3.47500000e-009,-2.14999993e-003
,,,3.50000000e-009,-2.09218742e-003
,,,3.52500000e-009,-1.99999992e-003
,,,3.55000000e-009,-1.87343741e-003
,,,3.57500000e-009,-1.71718740e-003
,,,3.60000000e-009,-1.54218739e-003
,,,3.62500000e-009,-1.35937487e-003
,,,3.65000000e-009,-1.18281236e-003
,,,3.67500000e-009,-1.02343735e-003
,,,3.70000000e-009,-8.93749840e-004
,,,3.72500000e-009,-7.99999833e-004
,,,3.75000000e-009,-7.59374830e-004
,,,3.77500000e-009,-7.59374830e-004
,,,3.80000000e-009,-7.93749833e-004
,,,3.82500000e-009,-8.56249837e-004
,,,3.85000000e-009,-9.37499843e-004
,,,3.87500000e-009,-1.02812485e-003
,,,3.90000000e-009,-1.11874986e-003
,,,3.92500000e-009,-1.19999986e-003
,,,3.95000000e-009,-1.26874987e-003
,,,3.97500000e-009,-1.31406237e-003
,,,4.00000000e-009,-1.33593737e-003
,,,4.02500000e-009,-1.33593737e-003
,,,4.05000000e-009,-1.31718737e-003
,,,4.07500000e-009,-1.28593737e-003
,,,4.10000000e-009,-1.24531236e-003
,,,4.12500000e-009,-1.19999986e-003
,,,4.15000000e-009,-1.15624986e-003
,,,4.17500000e-009,-1.11249986e-003
,,,4.20000000e-009,-1.06874985e-003
,,,4.22500000e-009,-1.02343735e-003
,,,4.25000000e-009,-9.74999845e-004
,,,4.27500000e-009,-9.23437342e-004
,,,4.30000000e-009,-8.65624838e-004
,,,4.32500000e-009,-7.99999833e-004
,,,4.35000000e-009,-7.35937329e-004
,,,4.37500000e-009,-6.67187324e-004
,,,4.40000000e-009,-5.98437319e-004
,,,4.42500000e-009,-5.34374814e-004
,,,4.45000000e-009,-4.78124810e-004
,,,4.47500000e-009,-4.34374807e-004
,,,4.50000000e-009,-4.07812305e-004
,,,4.52500000e-009,-3.99999805e-004
,,,4.55000000e-009,-4.21874806e-004
,,,4.57500000e-009,-4.59374809e-004
,,,4.60000000e-009,-5.10937313e-004
,,,4.62500000e-009,-5.70312317e-004
,,,4.65000000e-009,-6.34374821e-004
,,,4.67500000e-009,-6.96874826e-004
,,,4.70000000e-009,-7.53124830e-004
,,,4.72500000e-009,-7.99999833e-004
,,,4.75000000e-009,-8.37499836e-004
,,,4.77500000e-009,-8.60937337e-004
,,,4.80000000e-009,-8.71874838e-004
,,,4.82500000e-009,-8.70312338e-004
,,,4.85000000e-009,-8.60937337e-004
,,,4.87500000e-009,-8.42187336e-004
,,,4.90000000e-009,-8.21874835e-004
,,,4.92500000e-009,-7.99999833e-004
,,,4.95000000e-009,-7.82812332e-004
,,,4.97500000e-009,-7.70312331e-004
,,,5.00000000e-009,-7.62499830e-004
,,,5.02500000e-009,-7.59374830e-004
,,,5.05000000e-009,-7.64062331e-004
,,,5.07500000e-009,-7.71874831e-004
,,,5.10000000e-009,-7.85937332e-004
,,,5.12500000e-009,-7.99999833e-004
,,,5.15000000e-009,-8.18749834e-004
,,,5.17500000e-009,-8.32812335e-004
,,,5.20000000e-009,-8.43749836e-004
,,,5.22500000e-009,-8.48437337e-004
,,,5.25000000e-009,-8.46874836e-004
,,,5.27500000e-009,-8.37499836e-004
,,,5.30000000e-009,-8.21874835e-004
,,,5.32500000e-009,-7.99999833e-004
,,,5.35000000e-009,-7.76562331e-004
,,,5.37500000e-009,-7.53124830e-004
,,,5.40000000e-009,-7.34374828e-004
,,,5.42500000e-009,-7.21874828e-004
,,,5.45000000e-009,-7.20312327e-004
,,,5.47500000e-009,-7.32812328e-004
,,,5.50000000e-009,-7.59374830e-004
,,,5.52500000e-009,-7.99999833e-004
,,,5.55000000e-009,-8.49999837e-004
,,,5.57500000e-009,-9.07812341e-004
,,,5.60000000e-009,-9.70312345e-004
,,,5.62500000e-009,-1.03437485e-003
,,,5.65000000e-009,-1.09531235e-003
,,,5.67500000e-009,-1.14531236e-003
,,,5.70000000e-009,-1.18124986e-003
,,,5.72500000e-009,-1.19999986e-003
,,,5.75000000e-009,-1.19531236e-003
,,,5.77500000e-009,-1.17031236e-003
,,,5.80000000e-009,-1.12812486e-003
,,,5.82500000e-009,-1.07187485e-003
