RawData/WithScintilator/L6_2pt2C_15mV/wave008_Ch3.csv

"Record Length",1000,"Points",-7.72500000e-009,-4.24999807e-004
"Sample Interval",2.50000000e-011,s,-7.70000000e-009,-4.51562308e-004
"Trigger Point",309,"Samples",-7.67500000e-009,-4.73437310e-004
"Trigger Time",1.22526007e-011,s,-7.65000000e-009,-4.87499811e-004
"",,,-7.62500000e-009,-4.90624811e-004
"Horizontal Offset",-7.72500000e-009,s,-7.60000000e-009,-4.78124810e-004
,,,-7.57500000e-009,-4.48437308e-004
,,,-7.55000000e-009,-3.99999805e-004
,,,-7.52500000e-009,-3.40624801e-004
,,,-7.50000000e-009,-2.70312296e-004
,,,-7.47500000e-009,-1.96874790e-004
,,,-7.45000000e-009,-1.26562285e-004
,,,-7.42500000e-009,-6.71872812e-005
,,,-7.40000000e-009,-2.34372781e-005
,,,-7.37500000e-009,2.23517420e-010
,,,-7.35000000e-009,2.23517420e-010
,,,-7.32500000e-009,-3.12497787e-005
,,,-7.30000000e-009,-8.12497822e-005
,,,-7.27500000e-009,-1.45312287e-004
,,,-7.25000000e-009,-2.15624792e-004
,,,-7.22500000e-009,-2.84374797e-004
,,,-7.20000000e-009,-3.43749801e-004
,,,-7.17500000e-009,-3.82812304e-004
,,,-7.15000000e-009,-3.99999805e-004
,,,-7.12500000e-009,-3.92187304e-004
,,,-7.10000000e-009,-3.60937302e-004
,,,-7.07500000e-009,-3.07812298e-004
,,,-7.05000000e-009,-2.42187294e-004
,,,-7.02500000e-009,-1.70312289e-004
,,,-7.00000000e-009,-1.01562284e-004
,,,-6.97500000e-009,-4.21872795e-005
,,,-6.95000000e-009,2.23517420e-010
,,,-6.92500000e-009,1.25002244e-005
,,,-6.90000000e-009,1.56272363e-006
,,,-6.87500000e-009,-3.28122788e-005
,,,-6.85000000e-009,-8.74997827e-005
,,,-6.82500000e-009,-1.57812288e-004
,,,-6.80000000e-009,-2.37499793e-004
,,,-6.77500000e-009,-3.18749799e-004
,,,-6.75000000e-009,-3.99999805e-004
,,,-6.72500000e-009,-4.76562310e-004
,,,-6.70000000e-009,-5.42187315e-004
,,,-6.67500000e-009,-5.99999819e-004
,,,-6.65000000e-009,-6.48437322e-004
,,,-6.62500000e-009,-6.90624825e-004
,,,-6.60000000e-009,-7.29687328e-004
,,,-6.57500000e-009,-7.65624831e-004
,,,-6.55000000e-009,-7.99999833e-004
,,,-6.52500000e-009,-8.28124835e-004
,,,-6.50000000e-009,-8.53124837e-004
,,,-6.47500000e-009,-8.71874838e-004
,,,-6.45000000e-009,-8.82812339e-004
,,,-6.42500000e-009,-8.82812339e-004
,,,-6.40000000e-009,-8.70312338e-004
,,,-6.37500000e-009,-8.42187336e-004
,,,-6.35000000e-009,-7.99999833e-004
,,,-6.32500000e-009,-7.40624829e-004
,,,-6.30000000e-009,-6.73437324e-004
,,,-6.27500000e-009,-6.03124819e-004
,,,-6.25000000e-009,-5.35937314e-004
,,,-6.22500000e-009,-4.76562310e-004
,,,-6.20000000e-009,-4.32812307e-004
,,,-6.17500000e-009,-4.06249805e-004
,,,-6.15000000e-009,-3.99999805e-004
,,,-6.12500000e-009,-4.15624806e-004
,,,-6.10000000e-009,-4.49999808e-004
,,,-6.07500000e-009,-5.01562312e-004
,,,-6.05000000e-009,-5.62499816e-004
,,,-6.02500000e-009,-6.31249821e-004
,,,-6.00000000e-009,-6.96874826e-004
,,,-5.97500000e-009,-7.56249830e-004
,,,-5.95000000e-009,-7.99999833e-004
,,,-5.92500000e-009,-8.20312335e-004
,,,-5.90000000e-009,-8.17187334e-004
,,,-5.87500000e-009,-7.92187333e-004
,,,-5.85000000e-009,-7.45312329e-004
,,,-5.82500000e-009,-6.79687325e-004
,,,-5.80000000e-009,-5.96874819e-004
,,,-5.77500000e-009,-5.01562312e-004
,,,-5.75000000e-009,-3.99999805e-004
,,,-5.72500000e-009,-2.96874797e-004
,,,-5.70000000e-009,-2.01562291e-004
,,,-5.67500000e-009,-1.15624785e-004
,,,-5.65000000e-009,-4.84372799e-005
,,,-5.62500000e-009,-1.56227659e-006
,,,-5.60000000e-009,2.18752251e-005
,,,-5.57500000e-009,2.18752251e-005
,,,-5.55000000e-009,2.23517420e-010
,,,-5.52500000e-009,-4.84372799e-005
,,,-5.50000000e-009,-1.09374784e-004
,,,-5.47500000e-009,-1.78124789e-004
,,,-5.45000000e-009,-2.46874794e-004
,,,-5.42500000e-009,-3.09374798e-004
,,,-5.40000000e-009,-3.57812302e-004
,,,-5.37500000e-009,-3.90624804e-004
,,,-5.35000000e-009,-3.99999805e-004
,,,-5.32500000e-009,-3.89062304e-004
,,,-5.30000000e-009,-3.54687302e-004
,,,-5.27500000e-009,-3.04687298e-004
,,,-5.25000000e-009,-2.42187294e-004
,,,-5.22500000e-009,-1.73437289e-004
,,,-5.20000000e-009,-1.07812284e-004
,,,-5.17500000e-009,-4.84372799e-005
,,,-5.15000000e-009,2.23517420e-010
,,,-5.12500000e-009,2.81252255e-005
,,,-5.10000000e-009,4.21877265e-005
,,,-5.07500000e-009,4.21877265e-005
,,,-5.05000000e-009,3.28127258e-005
,,,-5.02500000e-009,2.03127250e-005
,,,-5.00000000e-009,7.81272407e-006
,,,-4.97500000e-009,2.23517420e-010
,,,-4.95000000e-009,2.23517420e-010
,,,-4.92500000e-009,1.56272363e-006
,,,-4.90000000e-009,1.09377243e-005
,,,-4.87500000e-009,2.65627254e-005
,,,-4.85000000e-009,4.06252264e-005
,,,-4.82500000e-009,4.84377269e-005
,,,-4.80000000e-009,4.68752268e-005
,,,-4.77500000e-009,3.12502257e-005
,,,-4.75000000e-009,2.23517420e-010
,,,-4.72500000e-009,-5.31247802e-005
,,,-4.70000000e-009,-1.15624785e-004
,,,-4.67500000e-009,-1.87499790e-004
,,,-4.65000000e-009,-2.57812295e-004
,,,-4.62500000e-009,-3.20312299e-004
,,,-4.60000000e-009,-3.68749803e-004
,,,-4.57500000e-009,-3.96874805e-004
,,,-4.55000000e-009,-3.99999805e-004
,,,-4.52500000e-009,-3.78124803e-004
,,,-4.50000000e-009,-3.35937300e-004
,,,-4.47500000e-009,-2.76562296e-004
,,,-4.45000000e-009,-2.07812291e-004
,,,-4.42500000e-009,-1.37499786e-004
,,,-4.40000000e-009,-7.65622819e-005
,,,-4.37500000e-009,-2.81247785e-005
,,,-4.35000000e-009,2.23517420e-010
,,,-4.32500000e-009,1.56272363e-006
,,,-4.30000000e-009,-2.03122779e-005
,,,-4.27500000e-009,-6.24997809e-005
,,,-4.25000000e-009,-1.21874785e-004
,,,-4.22500000e-009,-1.92187290e-004
,,,-4.20000000e-009,-2.65624795e-004
,,,-4.17500000e-009,-3.37499800e-004
,,,-4.15000000e-009,-3.99999805e-004
,,,-4.12500000e-009,-4.46874808e-004
,,,-4.10000000e-009,-4.76562310e-004
,,,-4.07500000e-009,-4.90624811e-004
,,,-4.05000000e-009,-4.89062311e-004
,,,-4.02500000e-009,-4.76562310e-004
,,,-4.00000000e-009,-4.54687309e-004
,,,-3.97500000e-009,-4.28124807e-004
,,,-3.95000000e-009,-3.99999805e-004
,,,-3.92500000e-009,-3.74999803e-004
,,,-3.90000000e-009,-3.56249802e-004
,,,-3.87500000e-009,-3.46874801e-004
,,,-3.85000000e-009,-3.43749801e-004
,,,-3.82500000e-009,-3.49999801e-004
,,,-3.80000000e-009,-3.62499802e-004
,,,-3.77500000e-009,-3.81249803e-004
,,,-3.75000000e-009,-3.99999805e-004
,,,-3.72500000e-009,-4.17187306e-004
,,,-3.70000000e-009,-4.32812307e-004
,,,-3.67500000e-009,-4.42187308e-004
,,,-3.65000000e-009,-4.48437308e-004
,,,-3.62500000e-009,-4.48437308e-004
,,,-3.60000000e-009,-4.40624808e-004
,,,-3.57500000e-009,-4.24999807e-004
,,,-3.55000000e-009,-3.99999805e-004
,,,-3.52500000e-009,-3.67187302e-004
,,,-3.50000000e-009,-3.26562300e-004
,,,-3.47500000e-009,-2.79687296e-004
,,,-3.45000000e-009,-2.26562293e-004
,,,-3.42500000e-009,-1.70312289e-004
,,,-3.40000000e-009,-1.12499784e-004
,,,-3.37500000e-009,-5.46872804e-005
,,,-3.35000000e-009,2.23517420e-010
,,,-3.32500000e-009,4.53127267e-005
,,,-3.30000000e-009,7.96877292e-005
,,,-3.27500000e-009,1.03125231e-004
,,,-3.25000000e-009,1.12500231e-004
,,,-3.22500000e-009,1.06250231e-004
,,,-3.20000000e-009,8.43752295e-005
,,,-3.17500000e-009,4.84377269e-005
,,,-3.15000000e-009,2.23517420e-010
,,,-3.12500000e-009,-6.24997809e-005
,,,-3.10000000e-009,-1.31249786e-004
,,,-3.07500000e-009,-1.99999791e-004
,,,-3.05000000e-009,-2.64062295e-004
,,,-3.02500000e-009,-3.20312299e-004
,,,-3.00000000e-009,-3.64062302e-004
,,,-2.97500000e-009,-3.90624804e-004
,,,-2.95000000e-009,-3.99999805e-004
,,,-2.92500000e-009,-3.93749804e-004
,,,-2.90000000e-009,-3.67187302e-004
,,,-2.87500000e-009,-3.26562300e-004
,,,-2.85000000e-009,-2.70312296e-004
,,,-2.82500000e-009,-2.06249791e-004
,,,-2.80000000e-009,-1.37499786e-004
,,,-2.77500000e-009,-6.71872812e-005
,,,-2.75000000e-009,2.23517420e-010
,,,-2.72500000e-009,5.31252273e-005
,,,-2.70000000e-009,9.37502302e-005
,,,-2.67500000e-009,1.18750232e-004
,,,-2.65000000e-009,1.26562732e-004
,,,-2.62500000e-009,1.18750232e-004
,,,-2.60000000e-009,9.37502302e-005
,,,-2.57500000e-009,5.31252273e-005
,,,-2.55000000e-009,2.23517420e-010
,,,-2.52500000e-009,-6.56247811e-005
,,,-2.50000000e-009,-1.35937286e-004
,,,-2.47500000e-009,-2.03124791e-004
,,,-2.45000000e-009,-2.65624795e-004
,,,-2.42500000e-009,-3.18749799e-004
,,,-2.40000000e-009,-3.60937302e-004
,,,-2.37500000e-009,-3.87499804e-004
,,,-2.35000000e-009,-3.99999805e-004
,,,-2.32500000e-009,-4.03124805e-004
,,,-2.30000000e-009,-3.96874805e-004
,,,-2.27500000e-009,-3.85937304e-004
,,,-2.25000000e-009,-3.74999803e-004
,,,-2.22500000e-009,-3.67187302e-004
,,,-2.20000000e-009,-3.67187302e-004
,,,-2.17500000e-009,-3.76562303e-004
,,,-2.15000000e-009,-3.99999805e-004
,,,-2.12500000e-009,-4.37499807e-004
,,,-2.10000000e-009,-4.85937311e-004
,,,-2.07500000e-009,-5.45312315e-004
,,,-2.05000000e-009,-6.07812320e-004
,,,-2.02500000e-009,-6.70312324e-004
,,,-2.00000000e-009,-7.26562328e-004
,,,-1.97500000e-009,-7.71874831e-004
,,,-1.95000000e-009,-7.99999833e-004
,,,-1.92500000e-009,-8.10937334e-004
,,,-1.90000000e-009,-8.01562333e-004
,,,-1.87500000e-009,-7.70312331e-004
,,,-1.85000000e-009,-7.20312327e-004
,,,-1.82500000e-009,-6.53124823e-004
,,,-1.80000000e-009,-5.74999817e-004
,,,-1.77500000e-009,-4.89062311e-004
,,,-1.75000000e-009,-3.99999805e-004
,,,-1.72500000e-009,-3.21874799e-004
,,,-1.70000000e-009,-2.57812295e-004
,,,-1.67500000e-009,-2.14062292e-004
,,,-1.65000000e-009,-1.93749790e-004
,,,-1.62500000e-009,-2.03124791e-004
,,,-1.60000000e-009,-2.40624794e-004
,,,-1.57500000e-009,-3.07812298e-004
,,,-1.55000000e-009,-3.99999805e-004
,,,-1.52500000e-009,-5.24999814e-004
,,,-1.50000000e-009,-6.64062323e-004
,,,-1.47500000e-009,-8.06249834e-004
,,,-1.45000000e-009,-9.39062343e-004
,,,-1.42500000e-009,-1.05312485e-003
,,,-1.40000000e-009,-1.13906236e-003
,,,-1.37500000e-009,-1.18906236e-003
,,,-1.35000000e-009,-1.19999986e-003
,,,-1.32500000e-009,-1.19687486e-003
,,,-1.30000000e-009,-1.16562486e-003
,,,-1.27500000e-009,-1.11249986e-003
,,,-1.25000000e-009,-1.04531235e-003
,,,-1.22500000e-009,-9.71874845e-004
,,,-1.20000000e-009,-9.01562340e-004
,,,-1.17500000e-009,-8.42187336e-004
,,,-1.15000000e-009,-7.99999833e-004
,,,-1.12500000e-009,-8.28124835e-004
,,,-1.10000000e-009,-8.82812339e-004
,,,-1.07500000e-009,-9.56249844e-004
,,,-1.05000000e-009,-1.03906235e-003
,,,-1.02500000e-009,-1.11562486e-003
,,,-1.00000000e-009,-1.17343736e-003
,,,-9.75000000e-010,-1.20312486e-003
,,,-9.50000000e-010,-1.19999986e-003
,,,-9.25000000e-010,-1.24062486e-003
,,,-9.00000000e-010,-1.26406237e-003
,,,-8.75000000e-010,-1.26874987e-003
,,,-8.50000000e-010,-1.25937487e-003
,,,-8.25000000e-010,-1.23906236e-003
,,,-8.00000000e-010,-1.21562486e-003
,,,-7.75000000e-010,-1.19999986e-003
,,,-7.50000000e-010,-1.19999986e-003
,,,-7.25000000e-010,-1.33437487e-003
,,,-7.00000000e-010,-1.51874988e-003
,,,-6.75000000e-010,-1.74687490e-003
,,,-6.50000000e-010,-2.01093742e-003
,,,-6.25000000e-010,-2.29687494e-003
,,,-6.00000000e-010,-2.59687496e-003
,,,-5.75000000e-010,-2.89999998e-003
,,,-5.50000000e-010,-3.20000000e-003
,,,-5.25000000e-010,-3.60312503e-003
,,,-5.00000000e-010,-4.01718756e-003
,,,-4.75000000e-010,-4.43281259e-003
,,,-4.50000000e-010,-4.84687512e-003
,,,-4.25000000e-010,-5.25156265e-003
,,,-4.00000000e-010,-5.64375018e-003
,,,-3.75000000e-010,-6.02500020e-003
,,,-3.50000000e-010,-6.40000023e-003
,,,-3.25000000e-010,-6.86875026e-003
,,,-3.00000000e-010,-7.36250030e-003
,,,-2.75000000e-010,-7.88281283e-003
,,,-2.50000000e-010,-8.42656287e-003
,,,-2.25000000e-010,-8.99062541e-003
,,,-2.00000000e-010,-9.57500045e-003
,,,-1.75000000e-010,-1.01781255e-002
,,,-1.50000000e-010,-1.08000005e-002
,,,-1.25000000e-010,-1.14843756e-002
,,,-1.00000000e-010,-1.22078131e-002
,,,-7.50000000e-011,-1.29703132e-002
,,,-5.00000000e-011,-1.37703133e-002
,,,-2.50000000e-011,-1.45984383e-002
,,,0.00000000e+000,-1.54515634e-002
,,,2.50000000e-011,-1.63218759e-002
,,,5.00000000e-011,-1.72000010e-002
,,,7.50000000e-011,-1.80484386e-002
,,,1.00000000e-010,-1.89015636e-002
,,,1.25000000e-010,-1.97515637e-002
,,,1.50000000e-010,-2.05875012e-002
,,,1.75000000e-010,-2.13984388e-002
,,,2.00000000e-010,-2.21781263e-002
,,,2.25000000e-010,-2.29125014e-002
,,,2.50000000e-010,-2.36000014e-002
,,,2.75000000e-010,-2.41406265e-002
,,,3.00000000e-010,-2.46531265e-002
,,,3.25000000e-010,-2.51500016e-002
,,,3.50000000e-010,-2.56390641e-002
,,,3.75000000e-010,-2.61281266e-002
,,,4.00000000e-010,-2.66187517e-002
,,,4.25000000e-010,-2.71109392e-002
,,,4.50000000e-010,-2.76000017e-002
,,,4.75000000e-010,-2.79390643e-002
,,,5.00000000e-010,-2.82734393e-002
,,,5.25000000e-010,-2.85968768e-002
,,,5.50000000e-010,-2.89015643e-002
,,,5.75000000e-010,-2.91687518e-002
,,,6.00000000e-010,-2.93859394e-002
,,,6.25000000e-010,-2.95343769e-002
,,,6.50000000e-010,-2.96000019e-002
,,,6.75000000e-010,-2.94312519e-002
,,,7.00000000e-010,-2.91953143e-002
,,,7.25000000e-010,-2.89078143e-002
,,,7.50000000e-010,-2.85843768e-002
,,,7.75000000e-010,-2.82406268e-002
,,,8.00000000e-010,-2.78875018e-002
,,,8.25000000e-010,-2.75390642e-002
,,,8.50000000e-010,-2.72000017e-002
,,,8.75000000e-010,-2.67593767e-002
,,,9.00000000e-010,-2.63593766e-002
,,,9.25000000e-010,-2.60046891e-002
,,,9.50000000e-010,-2.56984391e-002
,,,9.75000000e-010,-2.54359391e-002
,,,1.00000000e-009,-2.52062516e-002
,,,1.02500000e-009,-2.50000015e-002
,,,1.05000000e-009,-2.48000015e-002
,,,1.07500000e-009,-2.45078140e-002
,,,1.10000000e-009,-2.42015640e-002
,,,1.12500000e-009,-2.38781265e-002
,,,1.15000000e-009,-2.35375014e-002
,,,1.17500000e-009,-2.31781264e-002
,,,1.20000000e-009,-2.28000014e-002
,,,1.22500000e-009,-2.24078139e-002
,,,1.25000000e-009,-2.20000013e-002
,,,1.27500000e-009,-2.15390638e-002
,,,1.30000000e-009,-2.10734388e-002
,,,1.32500000e-009,-2.06125012e-002
,,,1.35000000e-009,-2.01718762e-002
,,,1.37500000e-009,-1.97625012e-002
,,,1.40000000e-009,-1.93937511e-002
,,,1.42500000e-009,-1.90734386e-002
,,,1.45000000e-009,-1.88000011e-002
,,,1.47500000e-009,-1.85578136e-002
,,,1.50000000e-009,-1.83390636e-002
,,,1.52500000e-009,-1.81390636e-002
,,,1.55000000e-009,-1.79531260e-002
,,,1.57500000e-009,-1.77734385e-002
,,,1.60000000e-009,-1.75921885e-002
,,,1.62500000e-009,-1.74046885e-002
,,,1.65000000e-009,-1.72000010e-002
,,,1.67500000e-009,-1.69703135e-002
,,,1.70000000e-009,-1.66921885e-002
,,,1.72500000e-009,-1.63687509e-002
,,,1.75000000e-009,-1.60062509e-002
,,,1.77500000e-009,-1.56156259e-002
,,,1.80000000e-009,-1.52093759e-002
,,,1.82500000e-009,-1.48015633e-002
,,,1.85000000e-009,-1.44000008e-002
,,,1.87500000e-009,-1.40250008e-002
,,,1.90000000e-009,-1.36562507e-002
,,,1.92500000e-009,-1.33062507e-002
,,,1.95000000e-009,-1.29781257e-002
,,,1.97500000e-009,-1.26812507e-002
,,,2.00000000e-009,-1.24187507e-002
,,,2.02500000e-009,-1.21921881e-002
,,,2.05000000e-009,-1.20000006e-002
,,,2.07500000e-009,-1.18484381e-002
,,,2.10000000e-009,-1.16953131e-002
,,,2.12500000e-009,-1.15312506e-002
,,,2.15000000e-009,-1.13531256e-002
,,,2.17500000e-009,-1.11531256e-002
,,,2.20000000e-009,-1.09281255e-002
,,,2.22500000e-009,-1.06781255e-002
,,,2.25000000e-009,-1.04000005e-002
,,,2.27500000e-009,-1.01093755e-002
,,,2.30000000e-009,-9.78125047e-003
,,,2.32500000e-009,-9.42187544e-003
,,,2.35000000e-009,-9.04375042e-003
,,,2.37500000e-009,-8.65937539e-003
,,,2.40000000e-009,-8.28437536e-003
,,,2.42500000e-009,-7.92812534e-003
,,,2.45000000e-009,-7.60000031e-003
,,,2.47500000e-009,-7.32968780e-003
,,,2.50000000e-009,-7.08281278e-003
,,,2.52500000e-009,-6.86093776e-003
,,,2.55000000e-009,-6.65781275e-003
,,,2.57500000e-009,-6.47343773e-003
,,,2.60000000e-009,-6.30625022e-003
,,,2.62500000e-009,-6.14843771e-003
,,,2.65000000e-009,-6.00000020e-003
,,,2.67500000e-009,-5.88750019e-003
,,,2.70000000e-009,-5.76093768e-003
,,,2.72500000e-009,-5.61875017e-003
,,,2.75000000e-009,-5.46250016e-003
,,,2.77500000e-009,-5.29843765e-003
,,,2.80000000e-009,-5.12812514e-003
,,,2.82500000e-009,-4.96093763e-003
,,,2.85000000e-009,-4.80000012e-003
,,,2.87500000e-009,-4.67812511e-003
,,,2.90000000e-009,-4.55937510e-003
,,,2.92500000e-009,-4.44531259e-003
,,,2.95000000e-009,-4.33906258e-003
,,,2.97500000e-009,-4.23906258e-003
,,,3.00000000e-009,-4.15000007e-003
,,,3.02500000e-009,-4.07187506e-003
,,,3.05000000e-009,-4.00000006e-003
,,,3.07500000e-009,-3.95625006e-003
,,,3.10000000e-009,-3.90312505e-003
,,,3.12500000e-009,-3.83281255e-003
,,,3.15000000e-009,-3.74531254e-003
,,,3.17500000e-009,-3.63593753e-003
,,,3.20000000e-009,-3.50781252e-003
,,,3.22500000e-009,-3.36093751e-003
,,,3.25000000e-009,-3.20000000e-003
,,,3.27500000e-009,-3.05781249e-003
,,,3.30000000e-009,-2.90937498e-003
,,,3.32500000e-009,-2.76249997e-003
,,,3.35000000e-009,-2.62656246e-003
,,,3.37500000e-009,-2.51406245e-003
,,,3.40000000e-009,-2.43437495e-003
,,,3.42500000e-009,-2.39531245e-003
,,,3.45000000e-009,-2.39999995e-003
,,,3.47500000e-009,-2.46562495e-003
,,,3.50000000e-009,-2.56093746e-003
,,,3.52500000e-009,-2.67812497e-003
,,,3.55000000e-009,-2.80624998e-003
,,,3.57500000e-009,-2.93281248e-003
,,,3.60000000e-009,-3.04843749e-003
,,,3.62500000e-009,-3.14062500e-003
,,,3.65000000e-009,-3.20000000e-003
,,,3.67500000e-009,-3.22500000e-003
,,,3.70000000e-009,-3.20312500e-003
,,,3.72500000e-009,-3.13593750e-003
,,,3.75000000e-009,-3.02968749e-003
,,,3.77500000e-009,-2.89218748e-003
,,,3.80000000e-009,-2.73437497e-003
,,,3.82500000e-009,-2.56718746e-003
,,,3.85000000e-009,-2.39999995e-003
,,,3.87500000e-009,-2.24999994e-003
,,,3.90000000e-009,-2.12031243e-003
,,,3.92500000e-009,-2.01562492e-003
,,,3.95000000e-009,-1.94374991e-003
,,,3.97500000e-009,-1.90781241e-003
,,,4.00000000e-009,-1.90624991e-003
,,,4.02500000e-009,-1.93906241e-003
,,,4.05000000e-009,-1.99999992e-003
,,,4.07500000e-009,-2.08437492e-003
,,,4.10000000e-009,-2.17656243e-003
,,,4.12500000e-009,-2.26562494e-003
,,,4.15000000e-009,-2.34374994e-003
,,,4.17500000e-009,-2.40156245e-003
,,,4.20000000e-009,-2.43281245e-003
,,,4.22500000e-009,-2.43437495e-003
,,,4.25000000e-009,-2.39999995e-003
,,,4.27500000e-009,-2.33281244e-003
,,,4.30000000e-009,-2.23593743e-003
,,,4.32500000e-009,-2.11874993e-003
,,,4.35000000e-009,-1.99374992e-003
,,,4.37500000e-009,-1.87031241e-003
,,,4.40000000e-009,-1.75781240e-003
,,,4.42500000e-009,-1.66562489e-003
,,,4.45000000e-009,-1.59999989e-003
,,,4.47500000e-009,-1.56562489e-003
,,,4.50000000e-009,-1.55624989e-003
,,,4.52500000e-009,-1.56718739e-003
,,,4.55000000e-009,-1.58906239e-003
,,,4.57500000e-009,-1.61249989e-003
,,,4.60000000e-009,-1.62812489e-003
,,,4.62500000e-009,-1.62656239e-003
,,,4.65000000e-009,-1.59999989e-003
,,,4.67500000e-009,-1.55156239e-003
,,,4.70000000e-009,-1.47499988e-003
,,,4.72500000e-009,-1.37343737e-003
,,,4.75000000e-009,-1.25624987e-003
,,,4.77500000e-009,-1.12968736e-003
,,,4.80000000e-009,-1.00624985e-003
,,,4.82500000e-009,-8.93749840e-004
,,,4.85000000e-009,-7.99999833e-004
,,,4.87500000e-009,-7.39062329e-004
,,,4.90000000e-009,-7.03124826e-004
,,,4.92500000e-009,-6.92187325e-004
,,,4.95000000e-009,-6.98437326e-004
,,,4.97500000e-009,-7.18749827e-004
,,,5.00000000e-009,-7.46874829e-004
,,,5.02500000e-009,-7.76562331e-004
,,,5.05000000e-009,-7.99999833e-004
,,,5.07500000e-009,-8.20312335e-004
,,,5.10000000e-009,-8.28124835e-004
,,,5.12500000e-009,-8.26562335e-004
,,,5.15000000e-009,-8.17187334e-004
,,,5.17500000e-009,-8.04687333e-004
,,,5.20000000e-009,-7.95312333e-004
,,,5.22500000e-009,-7.92187333e-004
,,,5.25000000e-009,-7.99999833e-004
,,,5.27500000e-009,-8.26562335e-004
,,,5.30000000e-009,-8.64062338e-004
,,,5.32500000e-009,-9.12499841e-004
,,,5.35000000e-009,-9.68749845e-004
,,,5.37500000e-009,-1.02812485e-003
,,,5.40000000e-009,-1.08906235e-003
,,,5.42500000e-009,-1.14843736e-003
,,,5.45000000e-009,-1.19999986e-003
,,,5.47500000e-009,-1.24062486e-003
,,,5.50000000e-009,-1.26874987e-003
,,,5.52500000e-009,-1.28437487e-003
,,,5.55000000e-009,-1.28593737e-003
,,,5.57500000e-009,-1.27656237e-003
,,,5.60000000e-009,-1.25781237e-003
,,,5.62500000e-009,-1.23281236e-003
,,,5.65000000e-009,-1.19999986e-003
,,,5.67500000e-009,-1.16406236e-003
,,,5.70000000e-009,-1.12343736e-003
,,,5.72500000e-009,-1.07968735e-003
,,,5.75000000e-009,-1.03124985e-003
,,,5.77500000e-009,-9.79687346e-004
,,,5.80000000e-009,-9.23437342e-004
,,,5.82500000e-009,-8.64062338e-004
