RawData/WithScintilator/L6_2pt2C_15mV/wave026_Ch3.csv

"Record Length",1000,"Points",-7.72500000e-009,1.15625232e-004
"Sample Interval",2.50000000e-011,s,-7.70000000e-009,1.62500235e-004
"Trigger Point",309,"Samples",-7.67500000e-009,2.06250238e-004
"Trigger Time",9.62975610e-012,s,-7.65000000e-009,2.48437741e-004
"",,,-7.62500000e-009,2.92187744e-004
"Horizontal Offset",-7.72500000e-009,s,-7.60000000e-009,3.42187748e-004
,,,-7.57500000e-009,4.00000252e-004
,,,-7.55000000e-009,4.56250256e-004
,,,-7.52500000e-009,5.18750260e-004
,,,-7.50000000e-009,5.84375265e-004
,,,-7.47500000e-009,6.48437769e-004
,,,-7.45000000e-009,7.07812774e-004
,,,-7.42500000e-009,7.56250277e-004
,,,-7.40000000e-009,7.87500279e-004
,,,-7.37500000e-009,8.00000280e-004
,,,-7.35000000e-009,7.76562778e-004
,,,-7.32500000e-009,7.29687775e-004
,,,-7.30000000e-009,6.56250270e-004
,,,-7.27500000e-009,5.57812763e-004
,,,-7.25000000e-009,4.37500254e-004
,,,-7.22500000e-009,3.01562745e-004
,,,-7.20000000e-009,1.53125234e-004
,,,-7.17500000e-009,2.23517420e-010
,,,-7.15000000e-009,-1.51562287e-004
,,,-7.12500000e-009,-2.85937297e-004
,,,-7.10000000e-009,-3.96874805e-004
,,,-7.07500000e-009,-4.78124810e-004
,,,-7.05000000e-009,-5.20312313e-004
,,,-7.02500000e-009,-5.21874813e-004
,,,-7.00000000e-009,-4.81249811e-004
,,,-6.97500000e-009,-3.99999805e-004
,,,-6.95000000e-009,-2.85937297e-004
,,,-6.92500000e-009,-1.49999787e-004
,,,-6.90000000e-009,-4.68727681e-006
,,,-6.87500000e-009,1.35937733e-004
,,,-6.85000000e-009,2.57812742e-004
,,,-6.82500000e-009,3.46875248e-004
,,,-6.80000000e-009,3.96875252e-004
,,,-6.77500000e-009,4.00000252e-004
,,,-6.75000000e-009,3.53125249e-004
,,,-6.72500000e-009,2.65625242e-004
,,,-6.70000000e-009,1.48437734e-004
,,,-6.67500000e-009,1.40627245e-005
,,,-6.65000000e-009,-1.20312285e-004
,,,-6.62500000e-009,-2.42187294e-004
,,,-6.60000000e-009,-3.39062300e-004
,,,-6.57500000e-009,-3.99999805e-004
,,,-6.55000000e-009,-4.18749806e-004
,,,-6.52500000e-009,-3.99999805e-004
,,,-6.50000000e-009,-3.48437301e-004
,,,-6.47500000e-009,-2.74999796e-004
,,,-6.45000000e-009,-1.90624790e-004
,,,-6.42500000e-009,-1.09374784e-004
,,,-6.40000000e-009,-4.37497796e-005
,,,-6.37500000e-009,2.23517420e-010
,,,-6.35000000e-009,1.25002244e-005
,,,-6.32500000e-009,-4.68727681e-006
,,,-6.30000000e-009,-5.15622801e-005
,,,-6.27500000e-009,-1.20312285e-004
,,,-6.25000000e-009,-1.99999791e-004
,,,-6.22500000e-009,-2.79687296e-004
,,,-6.20000000e-009,-3.49999801e-004
,,,-6.17500000e-009,-3.99999805e-004
,,,-6.15000000e-009,-4.23437306e-004
,,,-6.12500000e-009,-4.17187306e-004
,,,-6.10000000e-009,-3.84374804e-004
,,,-6.07500000e-009,-3.26562300e-004
,,,-6.05000000e-009,-2.53124794e-004
,,,-6.02500000e-009,-1.67187288e-004
,,,-6.00000000e-009,-8.12497822e-005
,,,-5.97500000e-009,2.23517420e-010
,,,-5.95000000e-009,6.56252282e-005
,,,-5.92500000e-009,1.14062732e-004
,,,-5.90000000e-009,1.40625233e-004
,,,-5.87500000e-009,1.46875234e-004
,,,-5.85000000e-009,1.34375233e-004
,,,-5.82500000e-009,1.03125231e-004
,,,-5.80000000e-009,5.62502275e-005
,,,-5.77500000e-009,2.23517420e-010
,,,-5.75000000e-009,-6.71872812e-005
,,,-5.72500000e-009,-1.34374786e-004
,,,-5.70000000e-009,-2.01562291e-004
,,,-5.67500000e-009,-2.62499795e-004
,,,-5.65000000e-009,-3.14062299e-004
,,,-5.62500000e-009,-3.54687302e-004
,,,-5.60000000e-009,-3.84374804e-004
,,,-5.57500000e-009,-3.99999805e-004
,,,-5.55000000e-009,-4.06249805e-004
,,,-5.52500000e-009,-4.03124805e-004
,,,-5.50000000e-009,-3.95312304e-004
,,,-5.47500000e-009,-3.85937304e-004
,,,-5.45000000e-009,-3.78124803e-004
,,,-5.42500000e-009,-3.78124803e-004
,,,-5.40000000e-009,-3.85937304e-004
,,,-5.37500000e-009,-3.99999805e-004
,,,-5.35000000e-009,-4.23437306e-004
,,,-5.32500000e-009,-4.49999808e-004
,,,-5.30000000e-009,-4.76562310e-004
,,,-5.27500000e-009,-4.95312312e-004
,,,-5.25000000e-009,-4.99999812e-004
,,,-5.22500000e-009,-4.89062311e-004
,,,-5.20000000e-009,-4.54687309e-004
,,,-5.17500000e-009,-3.99999805e-004
,,,-5.15000000e-009,-3.29687300e-004
,,,-5.12500000e-009,-2.46874794e-004
,,,-5.10000000e-009,-1.60937288e-004
,,,-5.07500000e-009,-8.12497822e-005
,,,-5.05000000e-009,-1.71872777e-005
,,,-5.02500000e-009,2.18752251e-005
,,,-5.00000000e-009,2.81252255e-005
,,,-4.97500000e-009,2.23517420e-010
,,,-4.95000000e-009,-6.71872812e-005
,,,-4.92500000e-009,-1.64062288e-004
,,,-4.90000000e-009,-2.82812297e-004
,,,-4.87500000e-009,-4.10937306e-004
,,,-4.85000000e-009,-5.39062315e-004
,,,-4.82500000e-009,-6.53124823e-004
,,,-4.80000000e-009,-7.42187329e-004
,,,-4.77500000e-009,-7.99999833e-004
,,,-4.75000000e-009,-8.18749834e-004
,,,-4.72500000e-009,-8.03124833e-004
,,,-4.70000000e-009,-7.56249830e-004
,,,-4.67500000e-009,-6.87499825e-004
,,,-4.65000000e-009,-6.07812320e-004
,,,-4.62500000e-009,-5.26562314e-004
,,,-4.60000000e-009,-4.54687309e-004
,,,-4.57500000e-009,-3.99999805e-004
,,,-4.55000000e-009,-3.70312303e-004
,,,-4.52500000e-009,-3.68749803e-004
,,,-4.50000000e-009,-3.96874805e-004
,,,-4.47500000e-009,-4.49999808e-004
,,,-4.45000000e-009,-5.24999814e-004
,,,-4.42500000e-009,-6.12499820e-004
,,,-4.40000000e-009,-7.07812327e-004
,,,-4.37500000e-009,-7.99999833e-004
,,,-4.35000000e-009,-8.78124839e-004
,,,-4.32500000e-009,-9.35937343e-004
,,,-4.30000000e-009,-9.73437345e-004
,,,-4.27500000e-009,-9.84374846e-004
,,,-4.25000000e-009,-9.71874845e-004
,,,-4.22500000e-009,-9.34374843e-004
,,,-4.20000000e-009,-8.76562339e-004
,,,-4.17500000e-009,-7.99999833e-004
,,,-4.15000000e-009,-7.10937327e-004
,,,-4.12500000e-009,-6.18749820e-004
,,,-4.10000000e-009,-5.31249814e-004
,,,-4.07500000e-009,-4.59374809e-004
,,,-4.05000000e-009,-4.04687305e-004
,,,-4.02500000e-009,-3.76562303e-004
,,,-4.00000000e-009,-3.74999803e-004
,,,-3.97500000e-009,-3.99999805e-004
,,,-3.95000000e-009,-4.51562308e-004
,,,-3.92500000e-009,-5.20312313e-004
,,,-3.90000000e-009,-5.98437319e-004
,,,-3.87500000e-009,-6.78124824e-004
,,,-3.85000000e-009,-7.45312329e-004
,,,-3.82500000e-009,-7.93749833e-004
,,,-3.80000000e-009,-8.14062334e-004
,,,-3.77500000e-009,-7.99999833e-004
,,,-3.75000000e-009,-7.53124830e-004
,,,-3.72500000e-009,-6.73437324e-004
,,,-3.70000000e-009,-5.70312317e-004
,,,-3.67500000e-009,-4.48437308e-004
,,,-3.65000000e-009,-3.21874799e-004
,,,-3.62500000e-009,-1.98437291e-004
,,,-3.60000000e-009,-8.90622828e-005
,,,-3.57500000e-009,2.23517420e-010
,,,-3.55000000e-009,5.62502275e-005
,,,-3.52500000e-009,8.59377296e-005
,,,-3.50000000e-009,9.06252299e-005
,,,-3.47500000e-009,7.96877292e-005
,,,-3.45000000e-009,5.62502275e-005
,,,-3.42500000e-009,3.12502257e-005
,,,-3.40000000e-009,1.09377243e-005
,,,-3.37500000e-009,2.23517420e-010
,,,-3.35000000e-009,-9.37477715e-006
,,,-3.32500000e-009,-4.68727681e-006
,,,-3.30000000e-009,7.81272407e-006
,,,-3.27500000e-009,2.50002253e-005
,,,-3.25000000e-009,3.90627263e-005
,,,-3.22500000e-009,4.37502266e-005
,,,-3.20000000e-009,3.12502257e-005
,,,-3.17500000e-009,2.23517420e-010
,,,-3.15000000e-009,-6.24997809e-005
,,,-3.12500000e-009,-1.46874787e-004
,,,-3.10000000e-009,-2.48437294e-004
,,,-3.07500000e-009,-3.62499802e-004
,,,-3.05000000e-009,-4.81249811e-004
,,,-3.02500000e-009,-5.98437319e-004
,,,-3.00000000e-009,-7.07812327e-004
,,,-2.97500000e-009,-7.99999833e-004
,,,-2.95000000e-009,-8.70312338e-004
,,,-2.92500000e-009,-9.14062341e-004
,,,-2.90000000e-009,-9.35937343e-004
,,,-2.87500000e-009,-9.35937343e-004
,,,-2.85000000e-009,-9.17187341e-004
,,,-2.82500000e-009,-8.84374839e-004
,,,-2.80000000e-009,-8.43749836e-004
,,,-2.77500000e-009,-7.99999833e-004
,,,-2.75000000e-009,-7.59374830e-004
,,,-2.72500000e-009,-7.26562328e-004
,,,-2.70000000e-009,-7.04687326e-004
,,,-2.67500000e-009,-6.96874826e-004
,,,-2.65000000e-009,-7.01562326e-004
,,,-2.62500000e-009,-7.21874828e-004
,,,-2.60000000e-009,-7.54687330e-004
,,,-2.57500000e-009,-7.99999833e-004
,,,-2.55000000e-009,-8.49999837e-004
,,,-2.52500000e-009,-9.06249841e-004
,,,-2.50000000e-009,-9.65624845e-004
,,,-2.47500000e-009,-1.02656235e-003
,,,-2.45000000e-009,-1.08281235e-003
,,,-2.42500000e-009,-1.13281236e-003
,,,-2.40000000e-009,-1.17343736e-003
,,,-2.37500000e-009,-1.19999986e-003
,,,-2.35000000e-009,-1.20624986e-003
,,,-2.32500000e-009,-1.19531236e-003
,,,-2.30000000e-009,-1.16718736e-003
,,,-2.27500000e-009,-1.12187486e-003
,,,-2.25000000e-009,-1.06093735e-003
,,,-2.22500000e-009,-9.84374846e-004
,,,-2.20000000e-009,-8.96874840e-004
,,,-2.17500000e-009,-7.99999833e-004
,,,-2.15000000e-009,-6.99999826e-004
,,,-2.12500000e-009,-6.03124819e-004
,,,-2.10000000e-009,-5.17187313e-004
,,,-2.07500000e-009,-4.48437308e-004
,,,-2.05000000e-009,-3.99999805e-004
,,,-2.02500000e-009,-3.74999803e-004
,,,-2.00000000e-009,-3.76562303e-004
,,,-1.97500000e-009,-3.99999805e-004
,,,-1.95000000e-009,-4.49999808e-004
,,,-1.92500000e-009,-5.14062313e-004
,,,-1.90000000e-009,-5.85937318e-004
,,,-1.87500000e-009,-6.57812323e-004
,,,-1.85000000e-009,-7.20312327e-004
,,,-1.82500000e-009,-7.68749831e-004
,,,-1.80000000e-009,-7.96874833e-004
,,,-1.77500000e-009,-7.99999833e-004
,,,-1.75000000e-009,-7.84374832e-004
,,,-1.72500000e-009,-7.45312329e-004
,,,-1.70000000e-009,-6.89062325e-004
,,,-1.67500000e-009,-6.23437321e-004
,,,-1.65000000e-009,-5.53124816e-004
,,,-1.62500000e-009,-4.89062311e-004
,,,-1.60000000e-009,-4.35937307e-004
,,,-1.57500000e-009,-3.99999805e-004
,,,-1.55000000e-009,-3.98437305e-004
,,,-1.52500000e-009,-4.20312306e-004
,,,-1.50000000e-009,-4.64062309e-004
,,,-1.47500000e-009,-5.23437314e-004
,,,-1.45000000e-009,-5.93749819e-004
,,,-1.42500000e-009,-6.68749824e-004
,,,-1.40000000e-009,-7.39062329e-004
,,,-1.37500000e-009,-7.99999833e-004
,,,-1.35000000e-009,-8.70312338e-004
,,,-1.32500000e-009,-9.23437342e-004
,,,-1.30000000e-009,-9.56249844e-004
,,,-1.27500000e-009,-9.67187345e-004
,,,-1.25000000e-009,-9.53124844e-004
,,,-1.22500000e-009,-9.18749842e-004
,,,-1.20000000e-009,-8.67187338e-004
,,,-1.17500000e-009,-7.99999833e-004
,,,-1.15000000e-009,-7.71874831e-004
,,,-1.12500000e-009,-7.48437329e-004
,,,-1.10000000e-009,-7.34374828e-004
,,,-1.07500000e-009,-7.29687328e-004
,,,-1.05000000e-009,-7.34374828e-004
,,,-1.02500000e-009,-7.46874829e-004
,,,-1.00000000e-009,-7.68749831e-004
,,,-9.75000000e-010,-7.99999833e-004
,,,-9.50000000e-010,-9.14062341e-004
,,,-9.25000000e-010,-1.04374985e-003
,,,-9.00000000e-010,-1.17968736e-003
,,,-8.75000000e-010,-1.31093737e-003
,,,-8.50000000e-010,-1.42499988e-003
,,,-8.25000000e-010,-1.51406238e-003
,,,-8.00000000e-010,-1.57343739e-003
,,,-7.75000000e-010,-1.59999989e-003
,,,-7.50000000e-010,-1.71093740e-003
,,,-7.25000000e-010,-1.81874991e-003
,,,-7.00000000e-010,-1.92031241e-003
,,,-6.75000000e-010,-2.01874992e-003
,,,-6.50000000e-010,-2.11093743e-003
,,,-6.25000000e-010,-2.20156243e-003
,,,-6.00000000e-010,-2.29531244e-003
,,,-5.75000000e-010,-2.39999995e-003
,,,-5.50000000e-010,-2.65468746e-003
,,,-5.25000000e-010,-2.95312499e-003
,,,-5.00000000e-010,-3.29062501e-003
,,,-4.75000000e-010,-3.65625004e-003
,,,-4.50000000e-010,-4.03750006e-003
,,,-4.25000000e-010,-4.42656259e-003
,,,-4.00000000e-010,-4.81406262e-003
,,,-3.75000000e-010,-5.20000014e-003
,,,-3.50000000e-010,-5.70156268e-003
,,,-3.25000000e-010,-6.22343772e-003
,,,-3.00000000e-010,-6.76093776e-003
,,,-2.75000000e-010,-7.31093779e-003
,,,-2.50000000e-010,-7.86875033e-003
,,,-2.25000000e-010,-8.43437537e-003
,,,-2.00000000e-010,-9.00937541e-003
,,,-1.75000000e-010,-9.60000046e-003
,,,-1.50000000e-010,-1.02859380e-002
,,,-1.25000000e-010,-1.10203131e-002
,,,-1.00000000e-010,-1.18062506e-002
,,,-7.50000000e-011,-1.26406257e-002
,,,-5.00000000e-011,-1.35234382e-002
,,,-2.50000000e-011,-1.44468758e-002
,,,0.00000000e+000,-1.54078134e-002
,,,2.50000000e-011,-1.64000009e-002
,,,5.00000000e-011,-1.74078135e-002
,,,7.50000000e-011,-1.84453136e-002
,,,1.00000000e-010,-1.95093762e-002
,,,1.25000000e-010,-2.05875012e-002
,,,1.50000000e-010,-2.16687513e-002
,,,1.75000000e-010,-2.27390639e-002
,,,2.00000000e-010,-2.37875015e-002
,,,2.25000000e-010,-2.48000015e-002
,,,2.50000000e-010,-2.56640641e-002
,,,2.75000000e-010,-2.64906267e-002
,,,3.00000000e-010,-2.72875017e-002
,,,3.25000000e-010,-2.80531268e-002
,,,3.50000000e-010,-2.87906268e-002
,,,3.75000000e-010,-2.94984394e-002
,,,4.00000000e-010,-3.01671894e-002
,,,4.25000000e-010,-3.08000020e-002
,,,4.50000000e-010,-3.12062520e-002
,,,4.75000000e-010,-3.15796895e-002
,,,5.00000000e-010,-3.19281270e-002
,,,5.25000000e-010,-3.22515646e-002
,,,5.50000000e-010,-3.25484396e-002
,,,5.75000000e-010,-3.28109396e-002
,,,6.00000000e-010,-3.30312521e-002
,,,6.25000000e-010,-3.32000021e-002
,,,6.50000000e-010,-3.31015646e-002
,,,6.75000000e-010,-3.29593771e-002
,,,7.00000000e-010,-3.27859396e-002
,,,7.25000000e-010,-3.25875021e-002
,,,7.50000000e-010,-3.23687521e-002
,,,7.75000000e-010,-3.21328146e-002
,,,8.00000000e-010,-3.18781270e-002
,,,8.25000000e-010,-3.16000020e-002
,,,8.50000000e-010,-3.11062520e-002
,,,8.75000000e-010,-3.06031269e-002
,,,9.00000000e-010,-3.00984394e-002
,,,9.25000000e-010,-2.95968769e-002
,,,9.50000000e-010,-2.90984393e-002
,,,9.75000000e-010,-2.86031268e-002
,,,1.00000000e-009,-2.81062518e-002
,,,1.02500000e-009,-2.76000017e-002
,,,1.05000000e-009,-2.69468767e-002
,,,1.07500000e-009,-2.62843766e-002
,,,1.10000000e-009,-2.56203141e-002
,,,1.12500000e-009,-2.49593765e-002
,,,1.15000000e-009,-2.43046890e-002
,,,1.17500000e-009,-2.36593765e-002
,,,1.20000000e-009,-2.30265639e-002
,,,1.22500000e-009,-2.24000014e-002
,,,1.25000000e-009,-2.17187513e-002
,,,1.27500000e-009,-2.10359388e-002
,,,1.30000000e-009,-2.03609387e-002
,,,1.32500000e-009,-1.96937512e-002
,,,1.35000000e-009,-1.90421886e-002
,,,1.37500000e-009,-1.84078136e-002
,,,1.40000000e-009,-1.77937510e-002
,,,1.42500000e-009,-1.72000010e-002
,,,1.45000000e-009,-1.66265635e-002
,,,1.47500000e-009,-1.60531259e-002
,,,1.50000000e-009,-1.54828134e-002
,,,1.52500000e-009,-1.49171883e-002
,,,1.55000000e-009,-1.43609383e-002
,,,1.57500000e-009,-1.38203133e-002
,,,1.60000000e-009,-1.32984382e-002
,,,1.62500000e-009,-1.28000007e-002
,,,1.65000000e-009,-1.23671882e-002
,,,1.67500000e-009,-1.19359381e-002
,,,1.70000000e-009,-1.15062506e-002
,,,1.72500000e-009,-1.10843756e-002
,,,1.75000000e-009,-1.06765630e-002
,,,1.77500000e-009,-1.02906255e-002
,,,1.80000000e-009,-9.92968798e-003
,,,1.82500000e-009,-9.60000046e-003
,,,1.85000000e-009,-9.35937544e-003
,,,1.87500000e-009,-9.11875042e-003
,,,1.90000000e-009,-8.87343790e-003
,,,1.92500000e-009,-8.62343789e-003
,,,1.95000000e-009,-8.36718787e-003
,,,1.97500000e-009,-8.10937535e-003
,,,2.00000000e-009,-7.85312533e-003
,,,2.02500000e-009,-7.60000031e-003
,,,2.05000000e-009,-7.41093780e-003
,,,2.07500000e-009,-7.20625029e-003
,,,2.10000000e-009,-6.99062527e-003
,,,2.12500000e-009,-6.76718776e-003
,,,2.15000000e-009,-6.54843774e-003
,,,2.17500000e-009,-6.34375023e-003
,,,2.20000000e-009,-6.15937521e-003
,,,2.22500000e-009,-6.00000020e-003
,,,2.25000000e-009,-5.91875020e-003
,,,2.27500000e-009,-5.84062519e-003
,,,2.30000000e-009,-5.76093768e-003
,,,2.32500000e-009,-5.67343768e-003
,,,2.35000000e-009,-5.57500017e-003
,,,2.37500000e-009,-5.46406266e-003
,,,2.40000000e-009,-5.33906265e-003
,,,2.42500000e-009,-5.20000014e-003
,,,2.45000000e-009,-5.07968764e-003
,,,2.47500000e-009,-4.93281263e-003
,,,2.50000000e-009,-4.76718761e-003
,,,2.52500000e-009,-4.59218760e-003
,,,2.55000000e-009,-4.41875009e-003
,,,2.57500000e-009,-4.25625008e-003
,,,2.60000000e-009,-4.11406257e-003
,,,2.62500000e-009,-4.00000006e-003
,,,2.65000000e-009,-3.94218756e-003
,,,2.67500000e-009,-3.89843755e-003
,,,2.70000000e-009,-3.86562505e-003
,,,2.72500000e-009,-3.83281255e-003
,,,2.75000000e-009,-3.79687505e-003
,,,2.77500000e-009,-3.74843754e-003
,,,2.80000000e-009,-3.68437504e-003
,,,2.82500000e-009,-3.60000003e-003
,,,2.85000000e-009,-3.51250003e-003
,,,2.87500000e-009,-3.40312502e-003
,,,2.90000000e-009,-3.27812501e-003
,,,2.92500000e-009,-3.14843750e-003
,,,2.95000000e-009,-3.02499999e-003
,,,2.97500000e-009,-2.92187498e-003
,,,3.00000000e-009,-2.84531248e-003
,,,3.02500000e-009,-2.79999997e-003
,,,3.05000000e-009,-2.80312497e-003
,,,3.07500000e-009,-2.82499998e-003
,,,3.10000000e-009,-2.85937498e-003
,,,3.12500000e-009,-2.89374998e-003
,,,3.15000000e-009,-2.91406248e-003
,,,3.17500000e-009,-2.91093748e-003
,,,3.20000000e-009,-2.87499998e-003
,,,3.22500000e-009,-2.79999997e-003
,,,3.25000000e-009,-2.69218747e-003
,,,3.27500000e-009,-2.54531246e-003
,,,3.30000000e-009,-2.37031244e-003
,,,3.32500000e-009,-2.18281243e-003
,,,3.35000000e-009,-1.99531242e-003
,,,3.37500000e-009,-1.82812491e-003
,,,3.40000000e-009,-1.69218740e-003
,,,3.42500000e-009,-1.59999989e-003
,,,3.45000000e-009,-1.56718739e-003
,,,3.47500000e-009,-1.57812489e-003
,,,3.50000000e-009,-1.62499989e-003
,,,3.52500000e-009,-1.69687490e-003
,,,3.55000000e-009,-1.78281240e-003
,,,3.57500000e-009,-1.87031241e-003
,,,3.60000000e-009,-1.94687491e-003
,,,3.62500000e-009,-1.99999992e-003
,,,3.65000000e-009,-2.02812492e-003
,,,3.67500000e-009,-2.02187492e-003
,,,3.70000000e-009,-1.98281242e-003
,,,3.72500000e-009,-1.91874991e-003
,,,3.75000000e-009,-1.83749991e-003
,,,3.77500000e-009,-1.75156240e-003
,,,3.80000000e-009,-1.67031239e-003
,,,3.82500000e-009,-1.59999989e-003
,,,3.85000000e-009,-1.55312489e-003
,,,3.87500000e-009,-1.52499988e-003
,,,3.90000000e-009,-1.51406238e-003
,,,3.92500000e-009,-1.52031238e-003
,,,3.95000000e-009,-1.53749989e-003
,,,3.97500000e-009,-1.56093739e-003
,,,4.00000000e-009,-1.58437489e-003
,,,4.02500000e-009,-1.59999989e-003
,,,4.05000000e-009,-1.60624989e-003
,,,4.07500000e-009,-1.59531239e-003
,,,4.10000000e-009,-1.56562489e-003
,,,4.12500000e-009,-1.51718738e-003
,,,4.15000000e-009,-1.45312488e-003
,,,4.17500000e-009,-1.37499987e-003
,,,4.20000000e-009,-1.29062487e-003
,,,4.22500000e-009,-1.19999986e-003
,,,4.25000000e-009,-1.11718736e-003
,,,4.27500000e-009,-1.03749985e-003
,,,4.30000000e-009,-9.65624845e-004
,,,4.32500000e-009,-9.04687341e-004
,,,4.35000000e-009,-8.57812337e-004
,,,4.37500000e-009,-8.24999835e-004
,,,4.40000000e-009,-8.06249834e-004
,,,4.42500000e-009,-7.99999833e-004
,,,4.45000000e-009,-8.09374834e-004
,,,4.47500000e-009,-8.24999835e-004
,,,4.50000000e-009,-8.42187336e-004
,,,4.52500000e-009,-8.56249837e-004
,,,4.55000000e-009,-8.60937337e-004
,,,4.57500000e-009,-8.56249837e-004
,,,4.60000000e-009,-8.35937336e-004
,,,4.62500000e-009,-7.99999833e-004
,,,4.65000000e-009,-7.56249830e-004
,,,4.67500000e-009,-6.99999826e-004
,,,4.70000000e-009,-6.35937321e-004
,,,4.72500000e-009,-5.68749817e-004
,,,4.75000000e-009,-5.06249812e-004
,,,4.77500000e-009,-4.54687309e-004
,,,4.80000000e-009,-4.17187306e-004
,,,4.82500000e-009,-3.99999805e-004
,,,4.85000000e-009,-4.14062306e-004
,,,4.87500000e-009,-4.46874808e-004
,,,4.90000000e-009,-4.96874812e-004
,,,4.92500000e-009,-5.57812316e-004
,,,4.95000000e-009,-6.24999821e-004
,,,4.97500000e-009,-6.90624825e-004
,,,5.00000000e-009,-7.51562330e-004
,,,5.02500000e-009,-7.99999833e-004
,,,5.05000000e-009,-8.39062336e-004
,,,5.07500000e-009,-8.62499838e-004
,,,5.10000000e-009,-8.68749838e-004
,,,5.12500000e-009,-8.64062338e-004
,,,5.15000000e-009,-8.49999837e-004
,,,5.17500000e-009,-8.32812335e-004
,,,5.20000000e-009,-8.15624834e-004
,,,5.22500000e-009,-7.99999833e-004
,,,5.25000000e-009,-7.92187333e-004
,,,5.27500000e-009,-7.87499832e-004
,,,5.30000000e-009,-7.89062332e-004
,,,5.32500000e-009,-7.93749833e-004
,,,5.35000000e-009,-7.99999833e-004
,,,5.37500000e-009,-8.03124833e-004
,,,5.40000000e-009,-8.04687333e-004
,,,5.42500000e-009,-7.99999833e-004
,,,5.45000000e-009,-7.90624832e-004
,,,5.47500000e-009,-7.78124832e-004
,,,5.50000000e-009,-7.64062331e-004
,,,5.52500000e-009,-7.53124830e-004
,,,5.55000000e-009,-7.48437329e-004
,,,5.57500000e-009,-7.53124830e-004
,,,5.60000000e-009,-7.70312331e-004
,,,5.62500000e-009,-7.99999833e-004
,,,5.65000000e-009,-8.40624836e-004
,,,5.67500000e-009,-8.92187340e-004
,,,5.70000000e-009,-9.49999844e-004
,,,5.72500000e-009,-1.01093735e-003
,,,5.75000000e-009,-1.07187485e-003
,,,5.77500000e-009,-1.12656236e-003
,,,5.80000000e-009,-1.17031236e-003
,,,5.82500000e-009,-1.19999986e-003
,,,5.85000000e-009,-1.20468736e-003
