RawData/WithScintilator/L6_2pt2C_15mV/wave029_Ch3.csv

"Record Length",1000,"Points",-7.72500000e-009,-7.79687332e-004
"Sample Interval",2.50000000e-011,s,-7.70000000e-009,-7.57812330e-004
"Trigger Point",309,"Samples",-7.67500000e-009,-7.37499829e-004
"Trigger Time",1.85312782e-011,s,-7.65000000e-009,-7.21874828e-004
"",,,-7.62500000e-009,-7.18749827e-004
"Horizontal Offset",-7.72500000e-009,s,-7.60000000e-009,-7.28124828e-004
,,,-7.57500000e-009,-7.56249830e-004
,,,-7.55000000e-009,-7.99999833e-004
,,,-7.52500000e-009,-8.60937337e-004
,,,-7.50000000e-009,-9.32812343e-004
,,,-7.47500000e-009,-1.00781235e-003
,,,-7.45000000e-009,-1.08124985e-003
,,,-7.42500000e-009,-1.14218736e-003
,,,-7.40000000e-009,-1.18593736e-003
,,,-7.37500000e-009,-1.20624986e-003
,,,-7.35000000e-009,-1.19999986e-003
,,,-7.32500000e-009,-1.16406236e-003
,,,-7.30000000e-009,-1.10624985e-003
,,,-7.27500000e-009,-1.03593735e-003
,,,-7.25000000e-009,-9.60937344e-004
,,,-7.22500000e-009,-8.92187340e-004
,,,-7.20000000e-009,-8.37499836e-004
,,,-7.17500000e-009,-8.06249834e-004
,,,-7.15000000e-009,-7.99999833e-004
,,,-7.12500000e-009,-8.20312335e-004
,,,-7.10000000e-009,-8.62499838e-004
,,,-7.07500000e-009,-9.23437342e-004
,,,-7.05000000e-009,-9.95312347e-004
,,,-7.02500000e-009,-1.06874985e-003
,,,-7.00000000e-009,-1.13124986e-003
,,,-6.97500000e-009,-1.17812486e-003
,,,-6.95000000e-009,-1.19999986e-003
,,,-6.92500000e-009,-1.19062486e-003
,,,-6.90000000e-009,-1.15312486e-003
,,,-6.87500000e-009,-1.09687485e-003
,,,-6.85000000e-009,-1.02656235e-003
,,,-6.82500000e-009,-9.53124844e-004
,,,-6.80000000e-009,-8.84374839e-004
,,,-6.77500000e-009,-8.31249835e-004
,,,-6.75000000e-009,-7.99999833e-004
,,,-6.72500000e-009,-7.92187333e-004
,,,-6.70000000e-009,-8.09374834e-004
,,,-6.67500000e-009,-8.51562337e-004
,,,-6.65000000e-009,-9.14062341e-004
,,,-6.62500000e-009,-9.87499846e-004
,,,-6.60000000e-009,-1.06562485e-003
,,,-6.57500000e-009,-1.13906236e-003
,,,-6.55000000e-009,-1.19999986e-003
,,,-6.52500000e-009,-1.23593736e-003
,,,-6.50000000e-009,-1.24531236e-003
,,,-6.47500000e-009,-1.22656236e-003
,,,-6.45000000e-009,-1.18281236e-003
,,,-6.42500000e-009,-1.11406236e-003
,,,-6.40000000e-009,-1.02499985e-003
,,,-6.37500000e-009,-9.18749842e-004
,,,-6.35000000e-009,-7.99999833e-004
,,,-6.32500000e-009,-6.76562324e-004
,,,-6.30000000e-009,-5.53124816e-004
,,,-6.27500000e-009,-4.32812307e-004
,,,-6.25000000e-009,-3.20312299e-004
,,,-6.22500000e-009,-2.18749792e-004
,,,-6.20000000e-009,-1.31249786e-004
,,,-6.17500000e-009,-5.78122806e-005
,,,-6.15000000e-009,2.23517420e-010
,,,-6.12500000e-009,3.59377261e-005
,,,-6.10000000e-009,5.78127276e-005
,,,-6.07500000e-009,6.56252282e-005
,,,-6.05000000e-009,6.40627281e-005
,,,-6.02500000e-009,5.31252273e-005
,,,-6.00000000e-009,3.75002262e-005
,,,-5.97500000e-009,1.87502248e-005
,,,-5.95000000e-009,2.23517420e-010
,,,-5.92500000e-009,-2.65622784e-005
,,,-5.90000000e-009,-4.68747798e-005
,,,-5.87500000e-009,-5.93747807e-005
,,,-5.85000000e-009,-6.40622810e-005
,,,-5.82500000e-009,-5.93747807e-005
,,,-5.80000000e-009,-4.68747798e-005
,,,-5.77500000e-009,-2.65622784e-005
,,,-5.75000000e-009,2.23517420e-010
,,,-5.72500000e-009,2.18752251e-005
,,,-5.70000000e-009,4.37502266e-005
,,,-5.67500000e-009,6.09377278e-005
,,,-5.65000000e-009,7.18752286e-005
,,,-5.62500000e-009,7.34377287e-005
,,,-5.60000000e-009,6.25002279e-005
,,,-5.57500000e-009,3.75002262e-005
,,,-5.55000000e-009,2.23517420e-010
,,,-5.52500000e-009,-5.78122806e-005
,,,-5.50000000e-009,-1.23437285e-004
,,,-5.47500000e-009,-1.89062290e-004
,,,-5.45000000e-009,-2.53124794e-004
,,,-5.42500000e-009,-3.09374798e-004
,,,-5.40000000e-009,-3.54687302e-004
,,,-5.37500000e-009,-3.85937304e-004
,,,-5.35000000e-009,-3.99999805e-004
,,,-5.32500000e-009,-4.03124805e-004
,,,-5.30000000e-009,-3.93749804e-004
,,,-5.27500000e-009,-3.78124803e-004
,,,-5.25000000e-009,-3.60937302e-004
,,,-5.22500000e-009,-3.49999801e-004
,,,-5.20000000e-009,-3.49999801e-004
,,,-5.17500000e-009,-3.67187302e-004
,,,-5.15000000e-009,-3.99999805e-004
,,,-5.12500000e-009,-4.49999808e-004
,,,-5.10000000e-009,-5.14062313e-004
,,,-5.07500000e-009,-5.84374818e-004
,,,-5.05000000e-009,-6.56249823e-004
,,,-5.02500000e-009,-7.21874828e-004
,,,-5.00000000e-009,-7.70312331e-004
,,,-4.97500000e-009,-7.98437333e-004
,,,-4.95000000e-009,-7.99999833e-004
,,,-4.92500000e-009,-7.71874831e-004
,,,-4.90000000e-009,-7.23437328e-004
,,,-4.87500000e-009,-6.57812323e-004
,,,-4.85000000e-009,-5.85937318e-004
,,,-4.82500000e-009,-5.15624813e-004
,,,-4.80000000e-009,-4.56249809e-004
,,,-4.77500000e-009,-4.15624806e-004
,,,-4.75000000e-009,-3.99999805e-004
,,,-4.72500000e-009,-4.12499806e-004
,,,-4.70000000e-009,-4.48437308e-004
,,,-4.67500000e-009,-5.06249812e-004
,,,-4.65000000e-009,-5.76562317e-004
,,,-4.62500000e-009,-6.49999822e-004
,,,-4.60000000e-009,-7.17187327e-004
,,,-4.57500000e-009,-7.70312331e-004
,,,-4.55000000e-009,-7.99999833e-004
,,,-4.52500000e-009,-8.03124833e-004
,,,-4.50000000e-009,-7.79687332e-004
,,,-4.47500000e-009,-7.34374828e-004
,,,-4.45000000e-009,-6.71874824e-004
,,,-4.42500000e-009,-6.01562319e-004
,,,-4.40000000e-009,-5.26562314e-004
,,,-4.37500000e-009,-4.57812309e-004
,,,-4.35000000e-009,-3.99999805e-004
,,,-4.32500000e-009,-3.60937302e-004
,,,-4.30000000e-009,-3.37499800e-004
,,,-4.27500000e-009,-3.31249800e-004
,,,-4.25000000e-009,-3.37499800e-004
,,,-4.22500000e-009,-3.53124801e-004
,,,-4.20000000e-009,-3.71874803e-004
,,,-4.17500000e-009,-3.89062304e-004
,,,-4.15000000e-009,-3.99999805e-004
,,,-4.12500000e-009,-4.07812305e-004
,,,-4.10000000e-009,-4.07812305e-004
,,,-4.07500000e-009,-4.01562305e-004
,,,-4.05000000e-009,-3.92187304e-004
,,,-4.02500000e-009,-3.84374804e-004
,,,-4.00000000e-009,-3.79687303e-004
,,,-3.97500000e-009,-3.84374804e-004
,,,-3.95000000e-009,-3.99999805e-004
,,,-3.92500000e-009,-4.32812307e-004
,,,-3.90000000e-009,-4.74999810e-004
,,,-3.87500000e-009,-5.26562314e-004
,,,-3.85000000e-009,-5.85937318e-004
,,,-3.82500000e-009,-6.45312322e-004
,,,-3.80000000e-009,-7.04687326e-004
,,,-3.77500000e-009,-7.57812330e-004
,,,-3.75000000e-009,-7.99999833e-004
,,,-3.72500000e-009,-8.29687335e-004
,,,-3.70000000e-009,-8.46874836e-004
,,,-3.67500000e-009,-8.51562337e-004
,,,-3.65000000e-009,-8.48437337e-004
,,,-3.62500000e-009,-8.39062336e-004
,,,-3.60000000e-009,-8.26562335e-004
,,,-3.57500000e-009,-8.12499834e-004
,,,-3.55000000e-009,-7.99999833e-004
,,,-3.52500000e-009,-7.90624832e-004
,,,-3.50000000e-009,-7.84374832e-004
,,,-3.47500000e-009,-7.82812332e-004
,,,-3.45000000e-009,-7.85937332e-004
,,,-3.42500000e-009,-7.89062332e-004
,,,-3.40000000e-009,-7.93749833e-004
,,,-3.37500000e-009,-7.98437333e-004
,,,-3.35000000e-009,-7.99999833e-004
,,,-3.32500000e-009,-7.96874833e-004
,,,-3.30000000e-009,-7.90624832e-004
,,,-3.27500000e-009,-7.82812332e-004
,,,-3.25000000e-009,-7.78124832e-004
,,,-3.22500000e-009,-7.76562331e-004
,,,-3.20000000e-009,-7.79687332e-004
,,,-3.17500000e-009,-7.87499832e-004
,,,-3.15000000e-009,-7.99999833e-004
,,,-3.12500000e-009,-8.15624834e-004
,,,-3.10000000e-009,-8.31249835e-004
,,,-3.07500000e-009,-8.45312336e-004
,,,-3.05000000e-009,-8.56249837e-004
,,,-3.02500000e-009,-8.60937337e-004
,,,-3.00000000e-009,-8.53124837e-004
,,,-2.97500000e-009,-8.34374836e-004
,,,-2.95000000e-009,-7.99999833e-004
,,,-2.92500000e-009,-7.51562330e-004
,,,-2.90000000e-009,-6.93749826e-004
,,,-2.87500000e-009,-6.31249821e-004
,,,-2.85000000e-009,-5.68749817e-004
,,,-2.82500000e-009,-5.09374813e-004
,,,-2.80000000e-009,-4.60937309e-004
,,,-2.77500000e-009,-4.23437306e-004
,,,-2.75000000e-009,-3.99999805e-004
,,,-2.72500000e-009,-3.93749804e-004
,,,-2.70000000e-009,-3.98437305e-004
,,,-2.67500000e-009,-4.10937306e-004
,,,-2.65000000e-009,-4.24999807e-004
,,,-2.62500000e-009,-4.35937307e-004
,,,-2.60000000e-009,-4.37499807e-004
,,,-2.57500000e-009,-4.26562307e-004
,,,-2.55000000e-009,-3.99999805e-004
,,,-2.52500000e-009,-3.60937302e-004
,,,-2.50000000e-009,-3.06249798e-004
,,,-2.47500000e-009,-2.43749794e-004
,,,-2.45000000e-009,-1.76562289e-004
,,,-2.42500000e-009,-1.14062285e-004
,,,-2.40000000e-009,-5.93747807e-005
,,,-2.37500000e-009,-2.03122779e-005
,,,-2.35000000e-009,2.23517420e-010
,,,-2.32500000e-009,-1.09372773e-005
,,,-2.30000000e-009,-4.21872795e-005
,,,-2.27500000e-009,-9.06247829e-005
,,,-2.25000000e-009,-1.51562287e-004
,,,-2.22500000e-009,-2.18749792e-004
,,,-2.20000000e-009,-2.87499797e-004
,,,-2.17500000e-009,-3.49999801e-004
,,,-2.15000000e-009,-3.99999805e-004
,,,-2.12500000e-009,-4.39062308e-004
,,,-2.10000000e-009,-4.62499809e-004
,,,-2.07500000e-009,-4.68749810e-004
,,,-2.05000000e-009,-4.64062309e-004
,,,-2.02500000e-009,-4.49999808e-004
,,,-2.00000000e-009,-4.32812307e-004
,,,-1.97500000e-009,-4.15624806e-004
,,,-1.95000000e-009,-3.99999805e-004
,,,-1.92500000e-009,-3.93749804e-004
,,,-1.90000000e-009,-3.92187304e-004
,,,-1.87500000e-009,-3.95312304e-004
,,,-1.85000000e-009,-3.99999805e-004
,,,-1.82500000e-009,-4.06249805e-004
,,,-1.80000000e-009,-4.09374805e-004
,,,-1.77500000e-009,-4.07812305e-004
,,,-1.75000000e-009,-3.99999805e-004
,,,-1.72500000e-009,-3.90624804e-004
,,,-1.70000000e-009,-3.76562303e-004
,,,-1.67500000e-009,-3.62499802e-004
,,,-1.65000000e-009,-3.51562301e-004
,,,-1.62500000e-009,-3.46874801e-004
,,,-1.60000000e-009,-3.51562301e-004
,,,-1.57500000e-009,-3.68749803e-004
,,,-1.55000000e-009,-3.99999805e-004
,,,-1.52500000e-009,-4.51562308e-004
,,,-1.50000000e-009,-5.12499813e-004
,,,-1.47500000e-009,-5.79687318e-004
,,,-1.45000000e-009,-6.46874822e-004
,,,-1.42500000e-009,-7.07812327e-004
,,,-1.40000000e-009,-7.57812330e-004
,,,-1.37500000e-009,-7.89062332e-004
,,,-1.35000000e-009,-7.99999833e-004
,,,-1.32500000e-009,-8.01562333e-004
,,,-1.30000000e-009,-7.84374832e-004
,,,-1.27500000e-009,-7.48437329e-004
,,,-1.25000000e-009,-6.96874826e-004
,,,-1.22500000e-009,-6.31249821e-004
,,,-1.20000000e-009,-5.57812316e-004
,,,-1.17500000e-009,-4.78124810e-004
,,,-1.15000000e-009,-3.99999805e-004
,,,-1.12500000e-009,-3.74999803e-004
,,,-1.10000000e-009,-3.65624802e-004
,,,-1.07500000e-009,-3.68749803e-004
,,,-1.05000000e-009,-3.79687303e-004
,,,-1.02500000e-009,-3.93749804e-004
,,,-1.00000000e-009,-4.03124805e-004
,,,-9.75000000e-010,-4.06249805e-004
,,,-9.50000000e-010,-3.99999805e-004
,,,-9.25000000e-010,-4.71874810e-004
,,,-9.00000000e-010,-5.48437315e-004
,,,-8.75000000e-010,-6.23437321e-004
,,,-8.50000000e-010,-6.90624825e-004
,,,-8.25000000e-010,-7.43749829e-004
,,,-8.00000000e-010,-7.81249832e-004
,,,-7.75000000e-010,-7.98437333e-004
,,,-7.50000000e-010,-7.99999833e-004
,,,-7.25000000e-010,-9.26562342e-004
,,,-7.00000000e-010,-1.06249985e-003
,,,-6.75000000e-010,-1.19999986e-003
,,,-6.50000000e-010,-1.32812487e-003
,,,-6.25000000e-010,-1.43593738e-003
,,,-6.00000000e-010,-1.51562488e-003
,,,-5.75000000e-010,-1.56874989e-003
,,,-5.50000000e-010,-1.59999989e-003
,,,-5.25000000e-010,-1.80156240e-003
,,,-5.00000000e-010,-2.03281242e-003
,,,-4.75000000e-010,-2.29531244e-003
,,,-4.50000000e-010,-2.58281246e-003
,,,-4.25000000e-010,-2.89687498e-003
,,,-4.00000000e-010,-3.23593751e-003
,,,-3.75000000e-010,-3.60156253e-003
,,,-3.50000000e-010,-4.00000006e-003
,,,-3.25000000e-010,-4.62812510e-003
,,,-3.00000000e-010,-5.32343765e-003
,,,-2.75000000e-010,-6.07187521e-003
,,,-2.50000000e-010,-6.85468776e-003
,,,-2.25000000e-010,-7.65156282e-003
,,,-2.00000000e-010,-8.44687537e-003
,,,-1.75000000e-010,-9.23125043e-003
,,,-1.50000000e-010,-1.00000005e-002
,,,-1.25000000e-010,-1.09015630e-002
,,,-1.00000000e-010,-1.18281256e-002
,,,-7.50000000e-011,-1.27828132e-002
,,,-5.00000000e-011,-1.37625008e-002
,,,-2.50000000e-011,-1.47718758e-002
,,,0.00000000e+000,-1.58109384e-002
,,,2.50000000e-011,-1.68843760e-002
,,,5.00000000e-011,-1.80000011e-002
,,,7.50000000e-011,-1.92171886e-002
,,,1.00000000e-010,-2.05093762e-002
,,,1.25000000e-010,-2.18703138e-002
,,,1.50000000e-010,-2.32875014e-002
,,,1.75000000e-010,-2.47468765e-002
,,,2.00000000e-010,-2.62296891e-002
,,,2.25000000e-010,-2.77203142e-002
,,,2.50000000e-010,-2.92000018e-002
,,,2.75000000e-010,-3.05875019e-002
,,,3.00000000e-010,-3.19640645e-002
,,,3.25000000e-010,-3.33234396e-002
,,,3.50000000e-010,-3.46593772e-002
,,,3.75000000e-010,-3.59640648e-002
,,,4.00000000e-010,-3.72281274e-002
,,,4.25000000e-010,-3.84421900e-002
,,,4.50000000e-010,-3.96000026e-002
,,,4.75000000e-010,-4.05140651e-002
,,,5.00000000e-010,-4.13921902e-002
,,,5.25000000e-010,-4.22406278e-002
,,,5.50000000e-010,-4.30640653e-002
,,,5.75000000e-010,-4.38609404e-002
,,,6.00000000e-010,-4.46218779e-002
,,,6.25000000e-010,-4.53390655e-002
,,,6.50000000e-010,-4.60000030e-002
,,,6.75000000e-010,-4.63468781e-002
,,,7.00000000e-010,-4.66515656e-002
,,,7.25000000e-010,-4.69203156e-002
,,,7.50000000e-010,-4.71546906e-002
,,,7.75000000e-010,-4.73484406e-002
,,,8.00000000e-010,-4.74953156e-002
,,,8.25000000e-010,-4.75828156e-002
,,,8.50000000e-010,-4.76000031e-002
,,,8.75000000e-010,-4.72859406e-002
,,,9.00000000e-010,-4.69281281e-002
,,,9.25000000e-010,-4.65390656e-002
,,,9.50000000e-010,-4.61312530e-002
,,,9.75000000e-010,-4.57125030e-002
,,,1.00000000e-009,-4.52843780e-002
,,,1.02500000e-009,-4.48468780e-002
,,,1.05000000e-009,-4.44000029e-002
,,,1.07500000e-009,-4.37343779e-002
,,,1.10000000e-009,-4.30812528e-002
,,,1.12500000e-009,-4.24484403e-002
,,,1.15000000e-009,-4.18406277e-002
,,,1.17500000e-009,-4.12578152e-002
,,,1.20000000e-009,-4.06937527e-002
,,,1.22500000e-009,-4.01437526e-002
,,,1.25000000e-009,-3.96000026e-002
,,,1.27500000e-009,-3.89171900e-002
,,,1.30000000e-009,-3.82359400e-002
,,,1.32500000e-009,-3.75609399e-002
,,,1.35000000e-009,-3.68968774e-002
,,,1.37500000e-009,-3.62468773e-002
,,,1.40000000e-009,-3.56140648e-002
,,,1.42500000e-009,-3.50000023e-002
,,,1.45000000e-009,-3.44000022e-002
,,,1.47500000e-009,-3.37453147e-002
,,,1.50000000e-009,-3.30875021e-002
,,,1.52500000e-009,-3.24265646e-002
,,,1.55000000e-009,-3.17671895e-002
,,,1.57500000e-009,-3.11093770e-002
,,,1.60000000e-009,-3.04609394e-002
,,,1.62500000e-009,-2.98234394e-002
,,,1.65000000e-009,-2.92000018e-002
,,,1.67500000e-009,-2.85875018e-002
,,,1.70000000e-009,-2.79703143e-002
,,,1.72500000e-009,-2.73609392e-002
,,,1.75000000e-009,-2.67671892e-002
,,,1.77500000e-009,-2.62031266e-002
,,,1.80000000e-009,-2.56812516e-002
,,,1.82500000e-009,-2.52125016e-002
,,,1.85000000e-009,-2.48000015e-002
,,,1.87500000e-009,-2.44656265e-002
,,,1.90000000e-009,-2.41484390e-002
,,,1.92500000e-009,-2.38421890e-002
,,,1.95000000e-009,-2.35453139e-002
,,,1.97500000e-009,-2.32546889e-002
,,,2.00000000e-009,-2.29703139e-002
,,,2.02500000e-009,-2.26859389e-002
,,,2.05000000e-009,-2.24000014e-002
,,,2.07500000e-009,-2.21265638e-002
,,,2.10000000e-009,-2.18046888e-002
,,,2.12500000e-009,-2.14375013e-002
,,,2.15000000e-009,-2.10281263e-002
,,,2.17500000e-009,-2.05890637e-002
,,,2.20000000e-009,-2.01296887e-002
,,,2.22500000e-009,-1.96625012e-002
,,,2.25000000e-009,-1.92000011e-002
,,,2.27500000e-009,-1.87703136e-002
,,,2.30000000e-009,-1.83312511e-002
,,,2.32500000e-009,-1.78921885e-002
,,,2.35000000e-009,-1.74609385e-002
,,,2.37500000e-009,-1.70484385e-002
,,,2.40000000e-009,-1.66640635e-002
,,,2.42500000e-009,-1.63156259e-002
,,,2.45000000e-009,-1.60000009e-002
,,,2.47500000e-009,-1.57421884e-002
,,,2.50000000e-009,-1.54843759e-002
,,,2.52500000e-009,-1.52156259e-002
,,,2.55000000e-009,-1.49328133e-002
,,,2.57500000e-009,-1.46296883e-002
,,,2.60000000e-009,-1.43078133e-002
,,,2.62500000e-009,-1.39640633e-002
,,,2.65000000e-009,-1.36000007e-002
,,,2.67500000e-009,-1.32328132e-002
,,,2.70000000e-009,-1.28312507e-002
,,,2.72500000e-009,-1.24046882e-002
,,,2.75000000e-009,-1.19656256e-002
,,,2.77500000e-009,-1.15328131e-002
,,,2.80000000e-009,-1.11187506e-002
,,,2.82500000e-009,-1.07390630e-002
,,,2.85000000e-009,-1.04000005e-002
,,,2.87500000e-009,-1.01312505e-002
,,,2.90000000e-009,-9.88125048e-003
,,,2.92500000e-009,-9.64687546e-003
,,,2.95000000e-009,-9.41562544e-003
,,,2.97500000e-009,-9.18125043e-003
,,,3.00000000e-009,-8.93593791e-003
,,,3.02500000e-009,-8.67656289e-003
,,,3.05000000e-009,-8.40000037e-003
,,,3.07500000e-009,-8.14062535e-003
,,,3.10000000e-009,-7.85468783e-003
,,,3.12500000e-009,-7.55468781e-003
,,,3.15000000e-009,-7.25468779e-003
,,,3.17500000e-009,-6.97343777e-003
,,,3.20000000e-009,-6.72968775e-003
,,,3.22500000e-009,-6.53593774e-003
,,,3.25000000e-009,-6.40000023e-003
,,,3.27500000e-009,-6.35781273e-003
,,,3.30000000e-009,-6.34531273e-003
,,,3.32500000e-009,-6.34843773e-003
,,,3.35000000e-009,-6.35000023e-003
,,,3.37500000e-009,-6.33125022e-003
,,,3.40000000e-009,-6.27343772e-003
,,,3.42500000e-009,-6.16718771e-003
,,,3.45000000e-009,-6.00000020e-003
,,,3.47500000e-009,-5.79687519e-003
,,,3.50000000e-009,-5.52500017e-003
,,,3.52500000e-009,-5.20312514e-003
,,,3.55000000e-009,-4.84687512e-003
,,,3.57500000e-009,-4.48593759e-003
,,,3.60000000e-009,-4.14218757e-003
,,,3.62500000e-009,-3.84062505e-003
,,,3.65000000e-009,-3.60000003e-003
,,,3.67500000e-009,-3.46562502e-003
,,,3.70000000e-009,-3.39218752e-003
,,,3.72500000e-009,-3.37187502e-003
,,,3.75000000e-009,-3.39531252e-003
,,,3.77500000e-009,-3.44375002e-003
,,,3.80000000e-009,-3.50468752e-003
,,,3.82500000e-009,-3.56093753e-003
,,,3.85000000e-009,-3.60000003e-003
,,,3.87500000e-009,-3.63125003e-003
,,,3.90000000e-009,-3.62343753e-003
,,,3.92500000e-009,-3.57968753e-003
,,,3.95000000e-009,-3.50937502e-003
,,,3.97500000e-009,-3.42187502e-003
,,,4.00000000e-009,-3.33437501e-003
,,,4.02500000e-009,-3.25625001e-003
,,,4.05000000e-009,-3.20000000e-003
,,,4.07500000e-009,-3.18125000e-003
,,,4.10000000e-009,-3.18125000e-003
,,,4.12500000e-009,-3.19375000e-003
,,,4.15000000e-009,-3.21406250e-003
,,,4.17500000e-009,-3.23437501e-003
,,,4.20000000e-009,-3.24218751e-003
,,,4.22500000e-009,-3.23437501e-003
,,,4.25000000e-009,-3.20000000e-003
,,,4.27500000e-009,-3.14531250e-003
,,,4.30000000e-009,-3.05937499e-003
,,,4.32500000e-009,-2.94999999e-003
,,,4.35000000e-009,-2.82656248e-003
,,,4.37500000e-009,-2.69843747e-003
,,,4.40000000e-009,-2.57968746e-003
,,,4.42500000e-009,-2.47656245e-003
,,,4.45000000e-009,-2.39999995e-003
,,,4.47500000e-009,-2.36249994e-003
,,,4.50000000e-009,-2.34687494e-003
,,,4.52500000e-009,-2.35156244e-003
,,,4.55000000e-009,-2.36874994e-003
,,,4.57500000e-009,-2.39062495e-003
,,,4.60000000e-009,-2.40781245e-003
,,,4.62500000e-009,-2.41406245e-003
,,,4.65000000e-009,-2.39999995e-003
,,,4.67500000e-009,-2.36406244e-003
,,,4.70000000e-009,-2.29999994e-003
,,,4.72500000e-009,-2.21249993e-003
,,,4.75000000e-009,-2.10312493e-003
,,,4.77500000e-009,-1.98124992e-003
,,,4.80000000e-009,-1.85156241e-003
,,,4.82500000e-009,-1.72187490e-003
,,,4.85000000e-009,-1.59999989e-003
,,,4.87500000e-009,-1.49687488e-003
,,,4.90000000e-009,-1.40781238e-003
,,,4.92500000e-009,-1.33593737e-003
,,,4.95000000e-009,-1.28124987e-003
,,,4.97500000e-009,-1.24218736e-003
,,,5.00000000e-009,-1.21874986e-003
,,,5.02500000e-009,-1.20468736e-003
,,,5.05000000e-009,-1.19999986e-003
,,,5.07500000e-009,-1.20781236e-003
,,,5.10000000e-009,-1.21562486e-003
,,,5.12500000e-009,-1.22187486e-003
,,,5.15000000e-009,-1.22343736e-003
,,,5.17500000e-009,-1.22187486e-003
,,,5.20000000e-009,-1.21718736e-003
,,,5.22500000e-009,-1.20937486e-003
,,,5.25000000e-009,-1.19999986e-003
,,,5.27500000e-009,-1.19843736e-003
,,,5.30000000e-009,-1.19374986e-003
,,,5.32500000e-009,-1.18749986e-003
,,,5.35000000e-009,-1.18437486e-003
,,,5.37500000e-009,-1.18281236e-003
,,,5.40000000e-009,-1.18437486e-003
,,,5.42500000e-009,-1.19062486e-003
,,,5.45000000e-009,-1.19999986e-003
,,,5.47500000e-009,-1.21249986e-003
,,,5.50000000e-009,-1.22499986e-003
,,,5.52500000e-009,-1.23437486e-003
,,,5.55000000e-009,-1.24062486e-003
,,,5.57500000e-009,-1.24062486e-003
,,,5.60000000e-009,-1.23437486e-003
,,,5.62500000e-009,-1.22187486e-003
,,,5.65000000e-009,-1.19999986e-003
,,,5.67500000e-009,-1.17187486e-003
,,,5.70000000e-009,-1.13281236e-003
,,,5.72500000e-009,-1.08593735e-003
,,,5.75000000e-009,-1.03124985e-003
,,,5.77500000e-009,-9.71874845e-004
,,,5.80000000e-009,-9.12499841e-004
,,,5.82500000e-009,-8.54687337e-004
