RawData/WithScintilator/L6_2pt2C_15mV/wave018_Ch3.csv

"Record Length",1000,"Points",-7.72500000e-009,-3.62499802e-004
"Sample Interval",2.50000000e-011,s,-7.70000000e-009,-3.15624799e-004
"Trigger Point",309,"Samples",-7.67500000e-009,-2.57812295e-004
"Trigger Time",2.38707463e-011,s,-7.65000000e-009,-1.90624790e-004
"",,,-7.62500000e-009,-1.23437285e-004
"Horizontal Offset",-7.72500000e-009,s,-7.60000000e-009,-5.78122806e-005
,,,-7.57500000e-009,2.23517420e-010
,,,-7.55000000e-009,4.21877265e-005
,,,-7.52500000e-009,7.18752286e-005
,,,-7.50000000e-009,8.59377296e-005
,,,-7.47500000e-009,8.59377296e-005
,,,-7.45000000e-009,7.50002288e-005
,,,-7.42500000e-009,5.62502275e-005
,,,-7.40000000e-009,2.96877256e-005
,,,-7.37500000e-009,2.23517420e-010
,,,-7.35000000e-009,-3.90622792e-005
,,,-7.32500000e-009,-7.81247820e-005
,,,-7.30000000e-009,-1.21874785e-004
,,,-7.27500000e-009,-1.68749788e-004
,,,-7.25000000e-009,-2.18749792e-004
,,,-7.22500000e-009,-2.74999796e-004
,,,-7.20000000e-009,-3.34374800e-004
,,,-7.17500000e-009,-3.99999805e-004
,,,-7.15000000e-009,-4.68749810e-004
,,,-7.12500000e-009,-5.37499815e-004
,,,-7.10000000e-009,-6.03124819e-004
,,,-7.07500000e-009,-6.65624824e-004
,,,-7.05000000e-009,-7.18749827e-004
,,,-7.02500000e-009,-7.62499830e-004
,,,-7.00000000e-009,-7.89062332e-004
,,,-6.97500000e-009,-7.99999833e-004
,,,-6.95000000e-009,-7.89062332e-004
,,,-6.92500000e-009,-7.60937330e-004
,,,-6.90000000e-009,-7.18749827e-004
,,,-6.87500000e-009,-6.64062323e-004
,,,-6.85000000e-009,-5.99999819e-004
,,,-6.82500000e-009,-5.32812314e-004
,,,-6.80000000e-009,-4.65624809e-004
,,,-6.77500000e-009,-3.99999805e-004
,,,-6.75000000e-009,-3.46874801e-004
,,,-6.72500000e-009,-3.06249798e-004
,,,-6.70000000e-009,-2.81249796e-004
,,,-6.67500000e-009,-2.71874796e-004
,,,-6.65000000e-009,-2.81249796e-004
,,,-6.62500000e-009,-3.06249798e-004
,,,-6.60000000e-009,-3.46874801e-004
,,,-6.57500000e-009,-3.99999805e-004
,,,-6.55000000e-009,-4.64062309e-004
,,,-6.52500000e-009,-5.32812314e-004
,,,-6.50000000e-009,-6.01562319e-004
,,,-6.47500000e-009,-6.65624824e-004
,,,-6.45000000e-009,-7.21874828e-004
,,,-6.42500000e-009,-7.64062331e-004
,,,-6.40000000e-009,-7.92187333e-004
,,,-6.37500000e-009,-7.99999833e-004
,,,-6.35000000e-009,-7.85937332e-004
,,,-6.32500000e-009,-7.53124830e-004
,,,-6.30000000e-009,-7.07812327e-004
,,,-6.27500000e-009,-6.49999822e-004
,,,-6.25000000e-009,-5.87499818e-004
,,,-6.22500000e-009,-5.21874813e-004
,,,-6.20000000e-009,-4.57812309e-004
,,,-6.17500000e-009,-3.99999805e-004
,,,-6.15000000e-009,-3.49999801e-004
,,,-6.12500000e-009,-3.12499799e-004
,,,-6.10000000e-009,-2.90624797e-004
,,,-6.07500000e-009,-2.82812297e-004
,,,-6.05000000e-009,-2.92187297e-004
,,,-6.02500000e-009,-3.15624799e-004
,,,-6.00000000e-009,-3.53124801e-004
,,,-5.97500000e-009,-3.99999805e-004
,,,-5.95000000e-009,-4.56249809e-004
,,,-5.92500000e-009,-5.15624813e-004
,,,-5.90000000e-009,-5.74999817e-004
,,,-5.87500000e-009,-6.32812321e-004
,,,-5.85000000e-009,-6.85937325e-004
,,,-5.82500000e-009,-7.32812328e-004
,,,-5.80000000e-009,-7.70312331e-004
,,,-5.77500000e-009,-7.99999833e-004
,,,-5.75000000e-009,-8.18749834e-004
,,,-5.72500000e-009,-8.28124835e-004
,,,-5.70000000e-009,-8.32812335e-004
,,,-5.67500000e-009,-8.31249835e-004
,,,-5.65000000e-009,-8.26562335e-004
,,,-5.62500000e-009,-8.20312335e-004
,,,-5.60000000e-009,-8.10937334e-004
,,,-5.57500000e-009,-7.99999833e-004
,,,-5.55000000e-009,-7.81249832e-004
,,,-5.52500000e-009,-7.57812330e-004
,,,-5.50000000e-009,-7.28124828e-004
,,,-5.47500000e-009,-6.87499825e-004
,,,-5.45000000e-009,-6.35937321e-004
,,,-5.42500000e-009,-5.71874817e-004
,,,-5.40000000e-009,-4.93749811e-004
,,,-5.37500000e-009,-3.99999805e-004
,,,-5.35000000e-009,-2.95312297e-004
,,,-5.32500000e-009,-1.81249789e-004
,,,-5.30000000e-009,-6.40622810e-005
,,,-5.27500000e-009,5.31252273e-005
,,,-5.25000000e-009,1.64062735e-004
,,,-5.22500000e-009,2.62500242e-004
,,,-5.20000000e-009,3.42187748e-004
,,,-5.17500000e-009,4.00000252e-004
,,,-5.15000000e-009,4.25000254e-004
,,,-5.12500000e-009,4.25000254e-004
,,,-5.10000000e-009,3.98437752e-004
,,,-5.07500000e-009,3.48437748e-004
,,,-5.05000000e-009,2.79687743e-004
,,,-5.02500000e-009,1.95312737e-004
,,,-5.00000000e-009,1.00000231e-004
,,,-4.97500000e-009,2.23517420e-010
,,,-4.95000000e-009,-1.01562284e-004
,,,-4.92500000e-009,-1.92187290e-004
,,,-4.90000000e-009,-2.71874796e-004
,,,-4.87500000e-009,-3.35937300e-004
,,,-4.85000000e-009,-3.81249803e-004
,,,-4.82500000e-009,-4.07812305e-004
,,,-4.80000000e-009,-4.14062306e-004
,,,-4.77500000e-009,-3.99999805e-004
,,,-4.75000000e-009,-3.68749803e-004
,,,-4.72500000e-009,-3.23437299e-004
,,,-4.70000000e-009,-2.68749796e-004
,,,-4.67500000e-009,-2.07812291e-004
,,,-4.65000000e-009,-1.46874787e-004
,,,-4.62500000e-009,-8.90622828e-005
,,,-4.60000000e-009,-3.90622792e-005
,,,-4.57500000e-009,2.23517420e-010
,,,-4.55000000e-009,2.03127250e-005
,,,-4.52500000e-009,3.12502257e-005
,,,-4.50000000e-009,3.28127258e-005
,,,-4.47500000e-009,2.65627254e-005
,,,-4.45000000e-009,1.71877247e-005
,,,-4.42500000e-009,7.81272407e-006
,,,-4.40000000e-009,1.56272363e-006
,,,-4.37500000e-009,2.23517420e-010
,,,-4.35000000e-009,-1.56227659e-006
,,,-4.32500000e-009,1.56272363e-006
,,,-4.30000000e-009,7.81272407e-006
,,,-4.27500000e-009,1.40627245e-005
,,,-4.25000000e-009,1.87502248e-005
,,,-4.22500000e-009,1.87502248e-005
,,,-4.20000000e-009,1.25002244e-005
,,,-4.17500000e-009,2.23517420e-010
,,,-4.15000000e-009,-2.03122779e-005
,,,-4.12500000e-009,-4.37497796e-005
,,,-4.10000000e-009,-6.56247811e-005
,,,-4.07500000e-009,-8.12497822e-005
,,,-4.05000000e-009,-8.59372826e-005
,,,-4.02500000e-009,-7.65622819e-005
,,,-4.00000000e-009,-4.84372799e-005
,,,-3.97500000e-009,2.23517420e-010
,,,-3.95000000e-009,6.09377278e-005
,,,-3.92500000e-009,1.34375233e-004
,,,-3.90000000e-009,2.12500239e-004
,,,-3.87500000e-009,2.87500244e-004
,,,-3.85000000e-009,3.51562748e-004
,,,-3.82500000e-009,3.95312751e-004
,,,-3.80000000e-009,4.12500253e-004
,,,-3.77500000e-009,4.00000252e-004
,,,-3.75000000e-009,3.48437748e-004
,,,-3.72500000e-009,2.67187742e-004
,,,-3.70000000e-009,1.65625235e-004
,,,-3.67500000e-009,4.68752268e-005
,,,-3.65000000e-009,-7.65622819e-005
,,,-3.62500000e-009,-1.98437291e-004
,,,-3.60000000e-009,-3.09374798e-004
,,,-3.57500000e-009,-3.99999805e-004
,,,-3.55000000e-009,-4.65624809e-004
,,,-3.52500000e-009,-5.04687312e-004
,,,-3.50000000e-009,-5.18749813e-004
,,,-3.47500000e-009,-5.14062313e-004
,,,-3.45000000e-009,-4.92187311e-004
,,,-3.42500000e-009,-4.62499809e-004
,,,-3.40000000e-009,-4.31249807e-004
,,,-3.37500000e-009,-3.99999805e-004
,,,-3.35000000e-009,-3.74999803e-004
,,,-3.32500000e-009,-3.57812302e-004
,,,-3.30000000e-009,-3.49999801e-004
,,,-3.27500000e-009,-3.53124801e-004
,,,-3.25000000e-009,-3.62499802e-004
,,,-3.22500000e-009,-3.74999803e-004
,,,-3.20000000e-009,-3.89062304e-004
,,,-3.17500000e-009,-3.99999805e-004
,,,-3.15000000e-009,-4.07812305e-004
,,,-3.12500000e-009,-4.10937306e-004
,,,-3.10000000e-009,-4.10937306e-004
,,,-3.07500000e-009,-4.07812305e-004
,,,-3.05000000e-009,-4.03124805e-004
,,,-3.02500000e-009,-3.99999805e-004
,,,-3.00000000e-009,-3.98437305e-004
,,,-2.97500000e-009,-3.99999805e-004
,,,-2.95000000e-009,-4.03124805e-004
,,,-2.92500000e-009,-4.07812305e-004
,,,-2.90000000e-009,-4.14062306e-004
,,,-2.87500000e-009,-4.20312306e-004
,,,-2.85000000e-009,-4.23437306e-004
,,,-2.82500000e-009,-4.23437306e-004
,,,-2.80000000e-009,-4.15624806e-004
,,,-2.77500000e-009,-3.99999805e-004
,,,-2.75000000e-009,-3.73437303e-004
,,,-2.72500000e-009,-3.35937300e-004
,,,-2.70000000e-009,-2.92187297e-004
,,,-2.67500000e-009,-2.40624794e-004
,,,-2.65000000e-009,-1.82812289e-004
,,,-2.62500000e-009,-1.21874785e-004
,,,-2.60000000e-009,-6.09372808e-005
,,,-2.57500000e-009,2.23517420e-010
,,,-2.55000000e-009,4.84377269e-005
,,,-2.52500000e-009,8.90627298e-005
,,,-2.50000000e-009,1.15625232e-004
,,,-2.47500000e-009,1.26562732e-004
,,,-2.45000000e-009,1.21875232e-004
,,,-2.42500000e-009,9.68752304e-005
,,,-2.40000000e-009,5.62502275e-005
,,,-2.37500000e-009,2.23517420e-010
,,,-2.35000000e-009,-7.49997818e-005
,,,-2.32500000e-009,-1.54687287e-004
,,,-2.30000000e-009,-2.32812293e-004
,,,-2.27500000e-009,-3.03124798e-004
,,,-2.25000000e-009,-3.60937302e-004
,,,-2.22500000e-009,-3.96874805e-004
,,,-2.20000000e-009,-4.10937306e-004
,,,-2.17500000e-009,-3.99999805e-004
,,,-2.15000000e-009,-3.67187302e-004
,,,-2.12500000e-009,-3.14062299e-004
,,,-2.10000000e-009,-2.48437294e-004
,,,-2.07500000e-009,-1.76562289e-004
,,,-2.05000000e-009,-1.09374784e-004
,,,-2.02500000e-009,-5.31247802e-005
,,,-2.00000000e-009,-1.56247776e-005
,,,-1.97500000e-009,2.23517420e-010
,,,-1.95000000e-009,-1.71872777e-005
,,,-1.92500000e-009,-5.62497805e-005
,,,-1.90000000e-009,-1.14062285e-004
,,,-1.87500000e-009,-1.81249789e-004
,,,-1.85000000e-009,-2.51562294e-004
,,,-1.82500000e-009,-3.15624799e-004
,,,-1.80000000e-009,-3.67187302e-004
,,,-1.77500000e-009,-3.99999805e-004
,,,-1.75000000e-009,-4.23437306e-004
,,,-1.72500000e-009,-4.28124807e-004
,,,-1.70000000e-009,-4.20312306e-004
,,,-1.67500000e-009,-4.06249805e-004
,,,-1.65000000e-009,-3.90624804e-004
,,,-1.62500000e-009,-3.79687303e-004
,,,-1.60000000e-009,-3.82812304e-004
,,,-1.57500000e-009,-3.99999805e-004
,,,-1.55000000e-009,-4.51562308e-004
,,,-1.52500000e-009,-5.18749813e-004
,,,-1.50000000e-009,-5.96874819e-004
,,,-1.47500000e-009,-6.74999824e-004
,,,-1.45000000e-009,-7.42187329e-004
,,,-1.42500000e-009,-7.90624832e-004
,,,-1.40000000e-009,-8.10937334e-004
,,,-1.37500000e-009,-7.99999833e-004
,,,-1.35000000e-009,-7.89062332e-004
,,,-1.32500000e-009,-7.53124830e-004
,,,-1.30000000e-009,-6.99999826e-004
,,,-1.27500000e-009,-6.34374821e-004
,,,-1.25000000e-009,-5.64062316e-004
,,,-1.22500000e-009,-4.96874812e-004
,,,-1.20000000e-009,-4.39062308e-004
,,,-1.17500000e-009,-3.99999805e-004
,,,-1.15000000e-009,-4.40624808e-004
,,,-1.12500000e-009,-5.15624813e-004
,,,-1.10000000e-009,-6.17187320e-004
,,,-1.07500000e-009,-7.39062329e-004
,,,-1.05000000e-009,-8.67187338e-004
,,,-1.02500000e-009,-9.92187347e-004
,,,-1.00000000e-009,-1.10468735e-003
,,,-9.75000000e-010,-1.19999986e-003
,,,-9.50000000e-010,-1.34218737e-003
,,,-9.25000000e-010,-1.47499988e-003
,,,-9.00000000e-010,-1.59218739e-003
,,,-8.75000000e-010,-1.69687490e-003
,,,-8.50000000e-010,-1.78593740e-003
,,,-8.25000000e-010,-1.86093741e-003
,,,-8.00000000e-010,-1.93124991e-003
,,,-7.75000000e-010,-1.99999992e-003
,,,-7.50000000e-010,-2.15156243e-003
,,,-7.25000000e-010,-2.33124994e-003
,,,-7.00000000e-010,-2.54374996e-003
,,,-6.75000000e-010,-2.78437497e-003
,,,-6.50000000e-010,-3.05312499e-003
,,,-6.25000000e-010,-3.34687501e-003
,,,-6.00000000e-010,-3.66406254e-003
,,,-5.75000000e-010,-4.00000006e-003
,,,-5.50000000e-010,-4.41093759e-003
,,,-5.25000000e-010,-4.84687512e-003
,,,-5.00000000e-010,-5.30156265e-003
,,,-4.75000000e-010,-5.76718768e-003
,,,-4.50000000e-010,-6.23437522e-003
,,,-4.25000000e-010,-6.69843775e-003
,,,-4.00000000e-010,-7.15312528e-003
,,,-3.75000000e-010,-7.60000031e-003
,,,-3.50000000e-010,-8.05625035e-003
,,,-3.25000000e-010,-8.51718788e-003
,,,-3.00000000e-010,-8.98750041e-003
,,,-2.75000000e-010,-9.47343795e-003
,,,-2.50000000e-010,-9.97500048e-003
,,,-2.25000000e-010,-1.04968755e-002
,,,-2.00000000e-010,-1.10390631e-002
,,,-1.75000000e-010,-1.16000006e-002
,,,-1.50000000e-010,-1.21453131e-002
,,,-1.25000000e-010,-1.27109382e-002
,,,-1.00000000e-010,-1.32875007e-002
,,,-7.50000000e-011,-1.38687508e-002
,,,-5.00000000e-011,-1.44421883e-002
,,,-2.50000000e-011,-1.49968758e-002
,,,0.00000000e+000,-1.55203134e-002
,,,2.50000000e-011,-1.60000009e-002
,,,5.00000000e-011,-1.63531259e-002
,,,7.50000000e-011,-1.66640635e-002
,,,1.00000000e-010,-1.69390635e-002
,,,1.25000000e-010,-1.71875010e-002
,,,1.50000000e-010,-1.74125010e-002
,,,1.75000000e-010,-1.76218760e-002
,,,2.00000000e-010,-1.78171885e-002
,,,2.25000000e-010,-1.80000011e-002
,,,2.50000000e-010,-1.80687511e-002
,,,2.75000000e-010,-1.81359386e-002
,,,3.00000000e-010,-1.82031261e-002
,,,3.25000000e-010,-1.82703136e-002
,,,3.50000000e-010,-1.83312511e-002
,,,3.75000000e-010,-1.83796886e-002
,,,4.00000000e-010,-1.84046886e-002
,,,4.25000000e-010,-1.84000011e-002
,,,4.50000000e-010,-1.82515636e-002
,,,4.75000000e-010,-1.80765636e-002
,,,5.00000000e-010,-1.78812510e-002
,,,5.25000000e-010,-1.76734385e-002
,,,5.50000000e-010,-1.74578135e-002
,,,5.75000000e-010,-1.72390635e-002
,,,6.00000000e-010,-1.70203135e-002
,,,6.25000000e-010,-1.68000010e-002
,,,6.50000000e-010,-1.64921884e-002
,,,6.75000000e-010,-1.61859384e-002
,,,7.00000000e-010,-1.58859384e-002
,,,7.25000000e-010,-1.55906259e-002
,,,7.50000000e-010,-1.52984384e-002
,,,7.75000000e-010,-1.50046883e-002
,,,8.00000000e-010,-1.47078133e-002
,,,8.25000000e-010,-1.44000008e-002
,,,8.50000000e-010,-1.40296883e-002
,,,8.75000000e-010,-1.36515632e-002
,,,9.00000000e-010,-1.32718757e-002
,,,9.25000000e-010,-1.29000007e-002
,,,9.50000000e-010,-1.25406257e-002
,,,9.75000000e-010,-1.22031256e-002
,,,1.00000000e-009,-1.18890631e-002
,,,1.02500000e-009,-1.16000006e-002
,,,1.05000000e-009,-1.13187506e-002
,,,1.07500000e-009,-1.10531256e-002
,,,1.10000000e-009,-1.08000005e-002
,,,1.12500000e-009,-1.05578130e-002
,,,1.15000000e-009,-1.03187505e-002
,,,1.17500000e-009,-1.00828130e-002
,,,1.20000000e-009,-9.84531297e-003
,,,1.22500000e-009,-9.60000046e-003
,,,1.25000000e-009,-9.35156294e-003
,,,1.27500000e-009,-9.07968792e-003
,,,1.30000000e-009,-8.78593790e-003
,,,1.32500000e-009,-8.47500038e-003
,,,1.35000000e-009,-8.15312535e-003
,,,1.37500000e-009,-7.82812533e-003
,,,1.40000000e-009,-7.50781281e-003
,,,1.42500000e-009,-7.20000029e-003
,,,1.45000000e-009,-6.93593777e-003
,,,1.47500000e-009,-6.68281275e-003
,,,1.50000000e-009,-6.44531273e-003
,,,1.52500000e-009,-6.22500022e-003
,,,1.55000000e-009,-6.02968770e-003
,,,1.57500000e-009,-5.85937519e-003
,,,1.60000000e-009,-5.71718768e-003
,,,1.62500000e-009,-5.60000017e-003
,,,1.65000000e-009,-5.53906267e-003
,,,1.67500000e-009,-5.47656266e-003
,,,1.70000000e-009,-5.40781266e-003
,,,1.72500000e-009,-5.32656265e-003
,,,1.75000000e-009,-5.22500015e-003
,,,1.77500000e-009,-5.10468764e-003
,,,1.80000000e-009,-4.96250013e-003
,,,1.82500000e-009,-4.80000012e-003
,,,1.85000000e-009,-4.65000011e-003
,,,1.87500000e-009,-4.47968759e-003
,,,1.90000000e-009,-4.29687508e-003
,,,1.92500000e-009,-4.11406257e-003
,,,1.95000000e-009,-3.94218756e-003
,,,1.97500000e-009,-3.79375005e-003
,,,2.00000000e-009,-3.67812504e-003
,,,2.02500000e-009,-3.60000003e-003
,,,2.05000000e-009,-3.58750003e-003
,,,2.07500000e-009,-3.59687503e-003
,,,2.10000000e-009,-3.62187503e-003
,,,2.12500000e-009,-3.64843753e-003
,,,2.15000000e-009,-3.66875004e-003
,,,2.17500000e-009,-3.67343754e-003
,,,2.20000000e-009,-3.65156253e-003
,,,2.22500000e-009,-3.60000003e-003
,,,2.25000000e-009,-3.53593753e-003
,,,2.27500000e-009,-3.43750002e-003
,,,2.30000000e-009,-3.31562501e-003
,,,2.32500000e-009,-3.18125000e-003
,,,2.35000000e-009,-3.04843749e-003
,,,2.37500000e-009,-2.93281248e-003
,,,2.40000000e-009,-2.84687498e-003
,,,2.42500000e-009,-2.79999997e-003
,,,2.45000000e-009,-2.80937498e-003
,,,2.47500000e-009,-2.85156248e-003
,,,2.50000000e-009,-2.91718748e-003
,,,2.52500000e-009,-2.99687499e-003
,,,2.55000000e-009,-3.07812499e-003
,,,2.57500000e-009,-3.14531250e-003
,,,2.60000000e-009,-3.18906250e-003
,,,2.62500000e-009,-3.20000000e-003
,,,2.65000000e-009,-3.17187500e-003
,,,2.67500000e-009,-3.10312500e-003
,,,2.70000000e-009,-2.99843749e-003
,,,2.72500000e-009,-2.87187498e-003
,,,2.75000000e-009,-2.73593747e-003
,,,2.77500000e-009,-2.60468746e-003
,,,2.80000000e-009,-2.48906245e-003
,,,2.82500000e-009,-2.39999995e-003
,,,2.85000000e-009,-2.34687494e-003
,,,2.87500000e-009,-2.32031244e-003
,,,2.90000000e-009,-2.32031244e-003
,,,2.92500000e-009,-2.33749994e-003
,,,2.95000000e-009,-2.36249994e-003
,,,2.97500000e-009,-2.38749995e-003
,,,3.00000000e-009,-2.40156245e-003
,,,3.02500000e-009,-2.39999995e-003
,,,3.05000000e-009,-2.37499994e-003
,,,3.07500000e-009,-2.32812494e-003
,,,3.10000000e-009,-2.26406244e-003
,,,3.12500000e-009,-2.19218743e-003
,,,3.15000000e-009,-2.12187493e-003
,,,3.17500000e-009,-2.06093742e-003
,,,3.20000000e-009,-2.02031242e-003
,,,3.22500000e-009,-1.99999992e-003
,,,3.25000000e-009,-2.00156242e-003
,,,3.27500000e-009,-2.01874992e-003
,,,3.30000000e-009,-2.04687492e-003
,,,3.32500000e-009,-2.07343742e-003
,,,3.35000000e-009,-2.09218742e-003
,,,3.37500000e-009,-2.09062492e-003
,,,3.40000000e-009,-2.06249992e-003
,,,3.42500000e-009,-1.99999992e-003
,,,3.45000000e-009,-1.89999991e-003
,,,3.47500000e-009,-1.76562490e-003
,,,3.50000000e-009,-1.60624989e-003
,,,3.52500000e-009,-1.42968738e-003
,,,3.55000000e-009,-1.24999986e-003
,,,3.57500000e-009,-1.07812485e-003
,,,3.60000000e-009,-9.24999842e-004
,,,3.62500000e-009,-7.99999833e-004
,,,3.65000000e-009,-7.20312327e-004
,,,3.67500000e-009,-6.74999824e-004
,,,3.70000000e-009,-6.60937323e-004
,,,3.72500000e-009,-6.70312324e-004
,,,3.75000000e-009,-6.98437326e-004
,,,3.77500000e-009,-7.35937329e-004
,,,3.80000000e-009,-7.71874831e-004
,,,3.82500000e-009,-7.99999833e-004
,,,3.85000000e-009,-8.20312335e-004
,,,3.87500000e-009,-8.17187334e-004
,,,3.90000000e-009,-7.92187333e-004
,,,3.92500000e-009,-7.43749829e-004
,,,3.95000000e-009,-6.74999824e-004
,,,3.97500000e-009,-5.90624818e-004
,,,4.00000000e-009,-4.98437312e-004
,,,4.02500000e-009,-3.99999805e-004
,,,4.05000000e-009,-3.15624799e-004
,,,4.07500000e-009,-2.35937293e-004
,,,4.10000000e-009,-1.64062288e-004
,,,4.12500000e-009,-1.04687284e-004
,,,4.15000000e-009,-5.62497805e-005
,,,4.17500000e-009,-2.34372781e-005
,,,4.20000000e-009,-4.68727681e-006
,,,4.22500000e-009,2.23517420e-010
,,,4.25000000e-009,-2.03122779e-005
,,,4.27500000e-009,-5.31247802e-005
,,,4.30000000e-009,-9.37497831e-005
,,,4.32500000e-009,-1.42187287e-004
,,,4.35000000e-009,-1.99999791e-004
,,,4.37500000e-009,-2.62499795e-004
,,,4.40000000e-009,-3.29687300e-004
,,,4.42500000e-009,-3.99999805e-004
,,,4.45000000e-009,-4.81249811e-004
,,,4.47500000e-009,-5.57812316e-004
,,,4.50000000e-009,-6.26562321e-004
,,,4.52500000e-009,-6.85937325e-004
,,,4.55000000e-009,-7.34374828e-004
,,,4.57500000e-009,-7.68749831e-004
,,,4.60000000e-009,-7.90624832e-004
,,,4.62500000e-009,-7.99999833e-004
,,,4.65000000e-009,-8.03124833e-004
,,,4.67500000e-009,-7.98437333e-004
,,,4.70000000e-009,-7.90624832e-004
,,,4.72500000e-009,-7.81249832e-004
,,,4.75000000e-009,-7.76562331e-004
,,,4.77500000e-009,-7.78124832e-004
,,,4.80000000e-009,-7.85937332e-004
,,,4.82500000e-009,-7.99999833e-004
,,,4.85000000e-009,-8.20312335e-004
,,,4.87500000e-009,-8.40624836e-004
,,,4.90000000e-009,-8.60937337e-004
,,,4.92500000e-009,-8.74999838e-004
,,,4.95000000e-009,-8.78124839e-004
,,,4.97500000e-009,-8.68749838e-004
,,,5.00000000e-009,-8.42187336e-004
,,,5.02500000e-009,-7.99999833e-004
,,,5.05000000e-009,-7.40624829e-004
,,,5.07500000e-009,-6.70312324e-004
,,,5.10000000e-009,-5.95312319e-004
,,,5.12500000e-009,-5.23437314e-004
,,,5.15000000e-009,-4.62499809e-004
,,,5.17500000e-009,-4.17187306e-004
,,,5.20000000e-009,-3.95312304e-004
,,,5.22500000e-009,-3.99999805e-004
,,,5.25000000e-009,-4.34374807e-004
,,,5.27500000e-009,-4.98437312e-004
,,,5.30000000e-009,-5.87499818e-004
,,,5.32500000e-009,-6.98437326e-004
,,,5.35000000e-009,-8.23437335e-004
,,,5.37500000e-009,-9.53124844e-004
,,,5.40000000e-009,-1.08281235e-003
,,,5.42500000e-009,-1.19999986e-003
,,,5.45000000e-009,-1.29531237e-003
,,,5.47500000e-009,-1.36562487e-003
,,,5.50000000e-009,-1.40937488e-003
,,,5.52500000e-009,-1.42187488e-003
,,,5.55000000e-009,-1.40624988e-003
,,,5.57500000e-009,-1.36249987e-003
,,,5.60000000e-009,-1.29218737e-003
,,,5.62500000e-009,-1.19999986e-003
,,,5.65000000e-009,-1.09062485e-003
,,,5.67500000e-009,-9.71874845e-004
,,,5.70000000e-009,-8.51562337e-004
,,,5.72500000e-009,-7.35937329e-004
,,,5.75000000e-009,-6.28124821e-004
,,,5.77500000e-009,-5.35937314e-004
,,,5.80000000e-009,-4.59374809e-004
,,,5.82500000e-009,-3.99999805e-004
,,,5.85000000e-009,-3.65624802e-004
