RawData/WithScintilator/L6_2pt2C_15mV/wave007_Ch3.csv

"Record Length",1000,"Points",-7.72500000e-009,-4.12499806e-004
"Sample Interval",2.50000000e-011,s,-7.70000000e-009,-3.99999805e-004
"Trigger Point",309,"Samples",-7.67500000e-009,-3.43749801e-004
"Trigger Time",1.30962463e-011,s,-7.65000000e-009,-2.46874794e-004
"",,,-7.62500000e-009,-1.18749785e-004
"Horizontal Offset",-7.72500000e-009,s,-7.60000000e-009,2.34377252e-005
,,,-7.57500000e-009,1.62500235e-004
,,,-7.55000000e-009,2.81250243e-004
,,,-7.52500000e-009,3.64062749e-004
,,,-7.50000000e-009,4.00000252e-004
,,,-7.47500000e-009,3.76562750e-004
,,,-7.45000000e-009,3.06250245e-004
,,,-7.42500000e-009,1.96875237e-004
,,,-7.40000000e-009,6.25002279e-005
,,,-7.37500000e-009,-8.12497822e-005
,,,-7.35000000e-009,-2.15624792e-004
,,,-7.32500000e-009,-3.24999799e-004
,,,-7.30000000e-009,-3.99999805e-004
,,,-7.27500000e-009,-4.31249807e-004
,,,-7.25000000e-009,-4.18749806e-004
,,,-7.22500000e-009,-3.70312303e-004
,,,-7.20000000e-009,-2.95312297e-004
,,,-7.17500000e-009,-2.06249791e-004
,,,-7.15000000e-009,-1.18749785e-004
,,,-7.12500000e-009,-4.68747798e-005
,,,-7.10000000e-009,2.23517420e-010
,,,-7.07500000e-009,1.09377243e-005
,,,-7.05000000e-009,-1.09372773e-005
,,,-7.02500000e-009,-5.93747807e-005
,,,-7.00000000e-009,-1.28124786e-004
,,,-6.97500000e-009,-2.09374791e-004
,,,-6.95000000e-009,-2.87499797e-004
,,,-6.92500000e-009,-3.54687302e-004
,,,-6.90000000e-009,-3.99999805e-004
,,,-6.87500000e-009,-4.17187306e-004
,,,-6.85000000e-009,-4.03124805e-004
,,,-6.82500000e-009,-3.64062302e-004
,,,-6.80000000e-009,-3.03124798e-004
,,,-6.77500000e-009,-2.28124793e-004
,,,-6.75000000e-009,-1.46874787e-004
,,,-6.72500000e-009,-6.87497813e-005
,,,-6.70000000e-009,2.23517420e-010
,,,-6.67500000e-009,4.68752268e-005
,,,-6.65000000e-009,7.50002288e-005
,,,-6.62500000e-009,8.43752295e-005
,,,-6.60000000e-009,7.96877292e-005
,,,-6.57500000e-009,6.40627281e-005
,,,-6.55000000e-009,4.06252264e-005
,,,-6.52500000e-009,1.87502248e-005
,,,-6.50000000e-009,2.23517420e-010
,,,-6.47500000e-009,-1.56247776e-005
,,,-6.45000000e-009,-2.49997783e-005
,,,-6.42500000e-009,-2.65622784e-005
,,,-6.40000000e-009,-2.34372781e-005
,,,-6.37500000e-009,-1.71872777e-005
,,,-6.35000000e-009,-9.37477715e-006
,,,-6.32500000e-009,-3.12477670e-006
,,,-6.30000000e-009,2.23517420e-010
,,,-6.27500000e-009,-6.24977692e-006
,,,-6.25000000e-009,-1.56247776e-005
,,,-6.22500000e-009,-2.49997783e-005
,,,-6.20000000e-009,-3.43747789e-005
,,,-6.17500000e-009,-3.74997791e-005
,,,-6.15000000e-009,-3.28122788e-005
,,,-6.12500000e-009,-2.18747780e-005
,,,-6.10000000e-009,2.23517420e-010
,,,-6.07500000e-009,2.18752251e-005
,,,-6.05000000e-009,4.68752268e-005
,,,-6.02500000e-009,7.03127285e-005
,,,-6.00000000e-009,8.75002297e-005
,,,-5.97500000e-009,9.37502302e-005
,,,-5.95000000e-009,8.28127294e-005
,,,-5.92500000e-009,5.15627272e-005
,,,-5.90000000e-009,2.23517420e-010
,,,-5.87500000e-009,-7.81247820e-005
,,,-5.85000000e-009,-1.71874789e-004
,,,-5.82500000e-009,-2.79687296e-004
,,,-5.80000000e-009,-3.93749804e-004
,,,-5.77500000e-009,-5.09374813e-004
,,,-5.75000000e-009,-6.20312320e-004
,,,-5.72500000e-009,-7.18749827e-004
,,,-5.70000000e-009,-7.99999833e-004
,,,-5.67500000e-009,-8.56249837e-004
,,,-5.65000000e-009,-8.89062339e-004
,,,-5.62500000e-009,-9.01562340e-004
,,,-5.60000000e-009,-8.98437340e-004
,,,-5.57500000e-009,-8.81249839e-004
,,,-5.55000000e-009,-8.56249837e-004
,,,-5.52500000e-009,-8.28124835e-004
,,,-5.50000000e-009,-7.99999833e-004
,,,-5.47500000e-009,-7.74999831e-004
,,,-5.45000000e-009,-7.57812330e-004
,,,-5.42500000e-009,-7.49999830e-004
,,,-5.40000000e-009,-7.49999830e-004
,,,-5.37500000e-009,-7.57812330e-004
,,,-5.35000000e-009,-7.70312331e-004
,,,-5.32500000e-009,-7.85937332e-004
,,,-5.30000000e-009,-7.99999833e-004
,,,-5.27500000e-009,-8.10937334e-004
,,,-5.25000000e-009,-8.18749834e-004
,,,-5.22500000e-009,-8.23437335e-004
,,,-5.20000000e-009,-8.24999835e-004
,,,-5.17500000e-009,-8.23437335e-004
,,,-5.15000000e-009,-8.18749834e-004
,,,-5.12500000e-009,-8.12499834e-004
,,,-5.10000000e-009,-7.99999833e-004
,,,-5.07500000e-009,-7.81249832e-004
,,,-5.05000000e-009,-7.56249830e-004
,,,-5.02500000e-009,-7.24999828e-004
,,,-5.00000000e-009,-6.82812325e-004
,,,-4.97500000e-009,-6.29687321e-004
,,,-4.95000000e-009,-5.65624817e-004
,,,-4.92500000e-009,-4.87499811e-004
,,,-4.90000000e-009,-3.99999805e-004
,,,-4.87500000e-009,-3.06249798e-004
,,,-4.85000000e-009,-2.12499792e-004
,,,-4.82500000e-009,-1.24999785e-004
,,,-4.80000000e-009,-5.15622801e-005
,,,-4.77500000e-009,3.12522374e-006
,,,-4.75000000e-009,3.12502257e-005
,,,-4.72500000e-009,3.12502257e-005
,,,-4.70000000e-009,2.23517420e-010
,,,-4.67500000e-009,-6.87497813e-005
,,,-4.65000000e-009,-1.62499788e-004
,,,-4.62500000e-009,-2.71874796e-004
,,,-4.60000000e-009,-3.92187304e-004
,,,-4.57500000e-009,-5.12499813e-004
,,,-4.55000000e-009,-6.26562321e-004
,,,-4.52500000e-009,-7.23437328e-004
,,,-4.50000000e-009,-7.99999833e-004
,,,-4.47500000e-009,-8.53124837e-004
,,,-4.45000000e-009,-8.81249839e-004
,,,-4.42500000e-009,-8.89062339e-004
,,,-4.40000000e-009,-8.79687339e-004
,,,-4.37500000e-009,-8.59374837e-004
,,,-4.35000000e-009,-8.35937336e-004
,,,-4.32500000e-009,-8.15624834e-004
,,,-4.30000000e-009,-7.99999833e-004
,,,-4.27500000e-009,-7.95312333e-004
,,,-4.25000000e-009,-7.99999833e-004
,,,-4.22500000e-009,-8.09374834e-004
,,,-4.20000000e-009,-8.23437335e-004
,,,-4.17500000e-009,-8.32812335e-004
,,,-4.15000000e-009,-8.35937336e-004
,,,-4.12500000e-009,-8.24999835e-004
,,,-4.10000000e-009,-7.99999833e-004
,,,-4.07500000e-009,-7.60937330e-004
,,,-4.05000000e-009,-7.06249826e-004
,,,-4.02500000e-009,-6.43749822e-004
,,,-4.00000000e-009,-5.76562317e-004
,,,-3.97500000e-009,-5.12499813e-004
,,,-3.95000000e-009,-4.59374809e-004
,,,-3.92500000e-009,-4.20312306e-004
,,,-3.90000000e-009,-3.99999805e-004
,,,-3.87500000e-009,-4.04687305e-004
,,,-3.85000000e-009,-4.29687307e-004
,,,-3.82500000e-009,-4.73437310e-004
,,,-3.80000000e-009,-5.32812314e-004
,,,-3.77500000e-009,-6.01562319e-004
,,,-3.75000000e-009,-6.71874824e-004
,,,-3.72500000e-009,-7.40624829e-004
,,,-3.70000000e-009,-7.99999833e-004
,,,-3.67500000e-009,-8.40624836e-004
,,,-3.65000000e-009,-8.65624838e-004
,,,-3.62500000e-009,-8.76562339e-004
,,,-3.60000000e-009,-8.74999838e-004
,,,-3.57500000e-009,-8.62499838e-004
,,,-3.55000000e-009,-8.43749836e-004
,,,-3.52500000e-009,-8.21874835e-004
,,,-3.50000000e-009,-7.99999833e-004
,,,-3.47500000e-009,-7.81249832e-004
,,,-3.45000000e-009,-7.67187331e-004
,,,-3.42500000e-009,-7.60937330e-004
,,,-3.40000000e-009,-7.59374830e-004
,,,-3.37500000e-009,-7.64062331e-004
,,,-3.35000000e-009,-7.73437331e-004
,,,-3.32500000e-009,-7.87499832e-004
,,,-3.30000000e-009,-7.99999833e-004
,,,-3.27500000e-009,-8.12499834e-004
,,,-3.25000000e-009,-8.21874835e-004
,,,-3.22500000e-009,-8.28124835e-004
,,,-3.20000000e-009,-8.31249835e-004
,,,-3.17500000e-009,-8.29687335e-004
,,,-3.15000000e-009,-8.24999835e-004
,,,-3.12500000e-009,-8.15624834e-004
,,,-3.10000000e-009,-7.99999833e-004
,,,-3.07500000e-009,-7.78124832e-004
,,,-3.05000000e-009,-7.48437329e-004
,,,-3.02500000e-009,-7.10937327e-004
,,,-3.00000000e-009,-6.65624824e-004
,,,-2.97500000e-009,-6.10937320e-004
,,,-2.95000000e-009,-5.48437315e-004
,,,-2.92500000e-009,-4.78124810e-004
,,,-2.90000000e-009,-3.99999805e-004
,,,-2.87500000e-009,-3.23437299e-004
,,,-2.85000000e-009,-2.46874794e-004
,,,-2.82500000e-009,-1.74999789e-004
,,,-2.80000000e-009,-1.12499784e-004
,,,-2.77500000e-009,-6.09372808e-005
,,,-2.75000000e-009,-2.34372781e-005
,,,-2.72500000e-009,-3.12477670e-006
,,,-2.70000000e-009,2.23517420e-010
,,,-2.67500000e-009,-2.03122779e-005
,,,-2.65000000e-009,-5.62497805e-005
,,,-2.62500000e-009,-1.04687284e-004
,,,-2.60000000e-009,-1.62499788e-004
,,,-2.57500000e-009,-2.23437292e-004
,,,-2.55000000e-009,-2.87499797e-004
,,,-2.52500000e-009,-3.46874801e-004
,,,-2.50000000e-009,-3.99999805e-004
,,,-2.47500000e-009,-4.43749808e-004
,,,-2.45000000e-009,-4.73437310e-004
,,,-2.42500000e-009,-4.87499811e-004
,,,-2.40000000e-009,-4.89062311e-004
,,,-2.37500000e-009,-4.79687310e-004
,,,-2.35000000e-009,-4.59374809e-004
,,,-2.32500000e-009,-4.31249807e-004
,,,-2.30000000e-009,-3.99999805e-004
,,,-2.27500000e-009,-3.71874803e-004
,,,-2.25000000e-009,-3.46874801e-004
,,,-2.22500000e-009,-3.28124800e-004
,,,-2.20000000e-009,-3.18749799e-004
,,,-2.17500000e-009,-3.20312299e-004
,,,-2.15000000e-009,-3.34374800e-004
,,,-2.12500000e-009,-3.60937302e-004
,,,-2.10000000e-009,-3.99999805e-004
,,,-2.07500000e-009,-4.49999808e-004
,,,-2.05000000e-009,-5.04687312e-004
,,,-2.02500000e-009,-5.64062316e-004
,,,-2.00000000e-009,-6.24999821e-004
,,,-1.97500000e-009,-6.81249825e-004
,,,-1.95000000e-009,-7.31249828e-004
,,,-1.92500000e-009,-7.73437331e-004
,,,-1.90000000e-009,-7.99999833e-004
,,,-1.87500000e-009,-8.09374834e-004
,,,-1.85000000e-009,-8.01562333e-004
,,,-1.82500000e-009,-7.73437331e-004
,,,-1.80000000e-009,-7.28124828e-004
,,,-1.77500000e-009,-6.65624824e-004
,,,-1.75000000e-009,-5.89062318e-004
,,,-1.72500000e-009,-4.98437312e-004
,,,-1.70000000e-009,-3.99999805e-004
,,,-1.67500000e-009,-3.03124798e-004
,,,-1.65000000e-009,-2.10937291e-004
,,,-1.62500000e-009,-1.29687286e-004
,,,-1.60000000e-009,-6.24997809e-005
,,,-1.57500000e-009,-1.40622775e-005
,,,-1.55000000e-009,1.25002244e-005
,,,-1.52500000e-009,1.71877247e-005
,,,-1.50000000e-009,2.23517420e-010
,,,-1.47500000e-009,-5.31247802e-005
,,,-1.45000000e-009,-1.18749785e-004
,,,-1.42500000e-009,-1.93749790e-004
,,,-1.40000000e-009,-2.67187295e-004
,,,-1.37500000e-009,-3.31249800e-004
,,,-1.35000000e-009,-3.78124803e-004
,,,-1.32500000e-009,-4.03124805e-004
,,,-1.30000000e-009,-3.99999805e-004
,,,-1.27500000e-009,-3.98437305e-004
,,,-1.25000000e-009,-3.76562303e-004
,,,-1.22500000e-009,-3.34374800e-004
,,,-1.20000000e-009,-2.78124796e-004
,,,-1.17500000e-009,-2.10937291e-004
,,,-1.15000000e-009,-1.37499786e-004
,,,-1.12500000e-009,-6.56247811e-005
,,,-1.10000000e-009,2.23517420e-010
,,,-1.07500000e-009,-7.81227704e-006
,,,-1.05000000e-009,-3.90622792e-005
,,,-1.02500000e-009,-9.06247829e-005
,,,-1.00000000e-009,-1.54687287e-004
,,,-9.75000000e-010,-2.24999792e-004
,,,-9.50000000e-010,-2.92187297e-004
,,,-9.25000000e-010,-3.51562301e-004
,,,-9.00000000e-010,-3.99999805e-004
,,,-8.75000000e-010,-5.34374814e-004
,,,-8.50000000e-010,-6.68749824e-004
,,,-8.25000000e-010,-7.96874833e-004
,,,-8.00000000e-010,-9.12499841e-004
,,,-7.75000000e-010,-1.01249985e-003
,,,-7.50000000e-010,-1.09218735e-003
,,,-7.25000000e-010,-1.15312486e-003
,,,-7.00000000e-010,-1.19999986e-003
,,,-6.75000000e-010,-1.37031237e-003
,,,-6.50000000e-010,-1.56093739e-003
,,,-6.25000000e-010,-1.76406240e-003
,,,-6.00000000e-010,-1.97656242e-003
,,,-5.75000000e-010,-2.18906243e-003
,,,-5.50000000e-010,-2.39843745e-003
,,,-5.25000000e-010,-2.60156246e-003
,,,-5.00000000e-010,-2.79999997e-003
,,,-4.75000000e-010,-3.14531250e-003
,,,-4.50000000e-010,-3.51875003e-003
,,,-4.25000000e-010,-3.91562505e-003
,,,-4.00000000e-010,-4.32656258e-003
,,,-3.75000000e-010,-4.74375011e-003
,,,-3.50000000e-010,-5.16093764e-003
,,,-3.25000000e-010,-5.57812517e-003
,,,-3.00000000e-010,-6.00000020e-003
,,,-2.75000000e-010,-6.56406274e-003
,,,-2.50000000e-010,-7.17187528e-003
,,,-2.25000000e-010,-7.82187533e-003
,,,-2.00000000e-010,-8.51093788e-003
,,,-1.75000000e-010,-9.23593793e-003
,,,-1.50000000e-010,-9.99218798e-003
,,,-1.25000000e-010,-1.07796880e-002
,,,-1.00000000e-010,-1.16000006e-002
,,,-7.50000000e-011,-1.25265632e-002
,,,-5.00000000e-011,-1.35062507e-002
,,,-2.50000000e-011,-1.45343758e-002
,,,0.00000000e+000,-1.56000009e-002
,,,2.50000000e-011,-1.66906260e-002
,,,5.00000000e-011,-1.77937510e-002
,,,7.50000000e-011,-1.89000011e-002
,,,1.00000000e-010,-2.00000012e-002
,,,1.25000000e-010,-2.10718763e-002
,,,1.50000000e-010,-2.21468763e-002
,,,1.75000000e-010,-2.32203139e-002
,,,2.00000000e-010,-2.42890640e-002
,,,2.25000000e-010,-2.53484391e-002
,,,2.50000000e-010,-2.63906266e-002
,,,2.75000000e-010,-2.74093767e-002
,,,3.00000000e-010,-2.84000018e-002
,,,3.25000000e-010,-2.92468768e-002
,,,3.50000000e-010,-3.00781269e-002
,,,3.75000000e-010,-3.09015645e-002
,,,4.00000000e-010,-3.17187520e-002
,,,4.25000000e-010,-3.25250021e-002
,,,4.50000000e-010,-3.33125021e-002
,,,4.75000000e-010,-3.40750022e-002
,,,5.00000000e-010,-3.48000022e-002
,,,5.25000000e-010,-3.52890648e-002
,,,5.50000000e-010,-3.57421898e-002
,,,5.75000000e-010,-3.61625023e-002
,,,6.00000000e-010,-3.65468774e-002
,,,6.25000000e-010,-3.68890649e-002
,,,6.50000000e-010,-3.71843774e-002
,,,6.75000000e-010,-3.74234399e-002
,,,7.00000000e-010,-3.76000024e-002
,,,7.25000000e-010,-3.74921899e-002
,,,7.50000000e-010,-3.73468774e-002
,,,7.75000000e-010,-3.71812524e-002
,,,8.00000000e-010,-3.70093774e-002
,,,8.25000000e-010,-3.68437524e-002
,,,8.50000000e-010,-3.66859399e-002
,,,8.75000000e-010,-3.65406274e-002
,,,9.00000000e-010,-3.64000024e-002
,,,9.25000000e-010,-3.60546898e-002
,,,9.50000000e-010,-3.57203148e-002
,,,9.75000000e-010,-3.53937523e-002
,,,1.00000000e-009,-3.50703148e-002
,,,1.02500000e-009,-3.47421897e-002
,,,1.05000000e-009,-3.43968772e-002
,,,1.07500000e-009,-3.40203147e-002
,,,1.10000000e-009,-3.36000022e-002
,,,1.12500000e-009,-3.29671896e-002
,,,1.15000000e-009,-3.22906271e-002
,,,1.17500000e-009,-3.15796895e-002
,,,1.20000000e-009,-3.08500020e-002
,,,1.22500000e-009,-3.01156269e-002
,,,1.25000000e-009,-2.93921894e-002
,,,1.27500000e-009,-2.86843768e-002
,,,1.30000000e-009,-2.80000018e-002
,,,1.32500000e-009,-2.72609392e-002
,,,1.35000000e-009,-2.65468767e-002
,,,1.37500000e-009,-2.58593766e-002
,,,1.40000000e-009,-2.52015641e-002
,,,1.42500000e-009,-2.45703140e-002
,,,1.45000000e-009,-2.39625015e-002
,,,1.47500000e-009,-2.33750014e-002
,,,1.50000000e-009,-2.28000014e-002
,,,1.52500000e-009,-2.22109388e-002
,,,1.55000000e-009,-2.16062513e-002
,,,1.57500000e-009,-2.09906263e-002
,,,1.60000000e-009,-2.03703137e-002
,,,1.62500000e-009,-1.97515637e-002
,,,1.65000000e-009,-1.91453136e-002
,,,1.67500000e-009,-1.85609386e-002
,,,1.70000000e-009,-1.80000011e-002
,,,1.72500000e-009,-1.74921885e-002
,,,1.75000000e-009,-1.69843760e-002
,,,1.77500000e-009,-1.64765634e-002
,,,1.80000000e-009,-1.59687509e-002
,,,1.82500000e-009,-1.54640634e-002
,,,1.85000000e-009,-1.49656258e-002
,,,1.87500000e-009,-1.44765633e-002
,,,1.90000000e-009,-1.40000008e-002
,,,1.92500000e-009,-1.35859382e-002
,,,1.95000000e-009,-1.31609382e-002
,,,1.97500000e-009,-1.27281257e-002
,,,2.00000000e-009,-1.22968756e-002
,,,2.02500000e-009,-1.18781256e-002
,,,2.05000000e-009,-1.14828131e-002
,,,2.07500000e-009,-1.11218756e-002
,,,2.10000000e-009,-1.08000005e-002
,,,2.12500000e-009,-1.05796880e-002
,,,2.15000000e-009,-1.03703130e-002
,,,2.17500000e-009,-1.01687505e-002
,,,2.20000000e-009,-9.97031298e-003
,,,2.22500000e-009,-9.77343797e-003
,,,2.25000000e-009,-9.57968795e-003
,,,2.27500000e-009,-9.38906294e-003
,,,2.30000000e-009,-9.20000043e-003
,,,2.32500000e-009,-9.05781292e-003
,,,2.35000000e-009,-8.88906291e-003
,,,2.37500000e-009,-8.69531289e-003
,,,2.40000000e-009,-8.48125038e-003
,,,2.42500000e-009,-8.25625036e-003
,,,2.45000000e-009,-8.02968784e-003
,,,2.47500000e-009,-7.80781283e-003
,,,2.50000000e-009,-7.60000031e-003
,,,2.52500000e-009,-7.45000030e-003
,,,2.55000000e-009,-7.29843779e-003
,,,2.57500000e-009,-7.14687528e-003
,,,2.60000000e-009,-6.99375027e-003
,,,2.62500000e-009,-6.84218776e-003
,,,2.65000000e-009,-6.69218775e-003
,,,2.67500000e-009,-6.54531274e-003
,,,2.70000000e-009,-6.40000023e-003
,,,2.72500000e-009,-6.28281272e-003
,,,2.75000000e-009,-6.15156271e-003
,,,2.77500000e-009,-6.00625020e-003
,,,2.80000000e-009,-5.84843769e-003
,,,2.82500000e-009,-5.68593768e-003
,,,2.85000000e-009,-5.52031267e-003
,,,2.87500000e-009,-5.35781266e-003
,,,2.90000000e-009,-5.20000014e-003
,,,2.92500000e-009,-5.07031264e-003
,,,2.95000000e-009,-4.93437513e-003
,,,2.97500000e-009,-4.79218762e-003
,,,3.00000000e-009,-4.64375011e-003
,,,3.02500000e-009,-4.48906259e-003
,,,3.05000000e-009,-4.32812508e-003
,,,3.07500000e-009,-4.16406257e-003
,,,3.10000000e-009,-4.00000006e-003
,,,3.12500000e-009,-3.85625005e-003
,,,3.15000000e-009,-3.71406254e-003
,,,3.17500000e-009,-3.57656253e-003
,,,3.20000000e-009,-3.45312502e-003
,,,3.22500000e-009,-3.34843751e-003
,,,3.25000000e-009,-3.26875001e-003
,,,3.27500000e-009,-3.22031250e-003
,,,3.30000000e-009,-3.20000000e-003
,,,3.32500000e-009,-3.22343750e-003
,,,3.35000000e-009,-3.25781251e-003
,,,3.37500000e-009,-3.29531251e-003
,,,3.40000000e-009,-3.32343751e-003
,,,3.42500000e-009,-3.33593751e-003
,,,3.45000000e-009,-3.32343751e-003
,,,3.47500000e-009,-3.27812501e-003
,,,3.50000000e-009,-3.20000000e-003
,,,3.52500000e-009,-3.09843750e-003
,,,3.55000000e-009,-2.96249999e-003
,,,3.57500000e-009,-2.79843747e-003
,,,3.60000000e-009,-2.62031246e-003
,,,3.62500000e-009,-2.43749995e-003
,,,3.65000000e-009,-2.26718744e-003
,,,3.67500000e-009,-2.11874993e-003
,,,3.70000000e-009,-1.99999992e-003
,,,3.72500000e-009,-1.93437491e-003
,,,3.75000000e-009,-1.90156241e-003
,,,3.77500000e-009,-1.89531241e-003
,,,3.80000000e-009,-1.90937491e-003
,,,3.82500000e-009,-1.93437491e-003
,,,3.85000000e-009,-1.96406242e-003
,,,3.87500000e-009,-1.98906242e-003
,,,3.90000000e-009,-1.99999992e-003
,,,3.92500000e-009,-1.99999992e-003
,,,3.95000000e-009,-1.97499992e-003
,,,3.97500000e-009,-1.92968741e-003
,,,4.00000000e-009,-1.86562491e-003
,,,4.02500000e-009,-1.79374990e-003
,,,4.05000000e-009,-1.72031240e-003
,,,4.07500000e-009,-1.65468739e-003
,,,4.10000000e-009,-1.59999989e-003
,,,4.12500000e-009,-1.57031239e-003
,,,4.15000000e-009,-1.55468739e-003
,,,4.17500000e-009,-1.55312489e-003
,,,4.20000000e-009,-1.55937489e-003
,,,4.22500000e-009,-1.57187489e-003
,,,4.25000000e-009,-1.58593739e-003
,,,4.27500000e-009,-1.59687489e-003
,,,4.30000000e-009,-1.59999989e-003
,,,4.32500000e-009,-1.59843739e-003
,,,4.35000000e-009,-1.58749989e-003
,,,4.37500000e-009,-1.57343739e-003
,,,4.40000000e-009,-1.55781239e-003
,,,4.42500000e-009,-1.54843739e-003
,,,4.45000000e-009,-1.55156239e-003
,,,4.47500000e-009,-1.56874989e-003
,,,4.50000000e-009,-1.59999989e-003
,,,4.52500000e-009,-1.64843739e-003
,,,4.55000000e-009,-1.69843740e-003
,,,4.57500000e-009,-1.74374990e-003
,,,4.60000000e-009,-1.77499990e-003
,,,4.62500000e-009,-1.78281240e-003
,,,4.65000000e-009,-1.75937490e-003
,,,4.67500000e-009,-1.69999990e-003
,,,4.70000000e-009,-1.59999989e-003
,,,4.72500000e-009,-1.46249988e-003
,,,4.75000000e-009,-1.29374987e-003
,,,4.77500000e-009,-1.10937486e-003
,,,4.80000000e-009,-9.20312342e-004
,,,4.82500000e-009,-7.42187329e-004
,,,4.85000000e-009,-5.89062318e-004
,,,4.87500000e-009,-4.73437310e-004
,,,4.90000000e-009,-3.99999805e-004
,,,4.92500000e-009,-3.82812304e-004
,,,4.95000000e-009,-4.07812305e-004
,,,4.97500000e-009,-4.65624809e-004
,,,5.00000000e-009,-5.45312315e-004
,,,5.02500000e-009,-6.29687321e-004
,,,5.05000000e-009,-7.09374827e-004
,,,5.07500000e-009,-7.68749831e-004
,,,5.10000000e-009,-7.99999833e-004
,,,5.12500000e-009,-8.01562333e-004
,,,5.15000000e-009,-7.68749831e-004
,,,5.17500000e-009,-7.09374827e-004
,,,5.20000000e-009,-6.34374821e-004
,,,5.22500000e-009,-5.53124816e-004
,,,5.25000000e-009,-4.81249811e-004
,,,5.27500000e-009,-4.26562307e-004
,,,5.30000000e-009,-3.99999805e-004
,,,5.32500000e-009,-4.12499806e-004
,,,5.35000000e-009,-4.53124809e-004
,,,5.37500000e-009,-5.15624813e-004
,,,5.40000000e-009,-5.90624818e-004
,,,5.42500000e-009,-6.67187324e-004
,,,5.45000000e-009,-7.34374828e-004
,,,5.47500000e-009,-7.81249832e-004
,,,5.50000000e-009,-7.99999833e-004
,,,5.52500000e-009,-7.90624832e-004
,,,5.55000000e-009,-7.51562330e-004
,,,5.57500000e-009,-6.90624825e-004
,,,5.60000000e-009,-6.14062320e-004
,,,5.62500000e-009,-5.37499815e-004
,,,5.65000000e-009,-4.68749810e-004
,,,5.67500000e-009,-4.21874806e-004
,,,5.70000000e-009,-3.99999805e-004
,,,5.72500000e-009,-4.15624806e-004
,,,5.75000000e-009,-4.57812309e-004
,,,5.77500000e-009,-5.20312313e-004
,,,5.80000000e-009,-5.93749819e-004
,,,5.82500000e-009,-6.68749824e-004
