RawData/WithScintilator/L6_2pt2C_15mV/wave006_Ch3.csv

"Record Length",1000,"Points",-7.72500000e-009,-1.59999989e-003
"Sample Interval",2.50000000e-011,s,-7.70000000e-009,-1.50156238e-003
"Trigger Point",309,"Samples",-7.67500000e-009,-1.38437487e-003
"Trigger Time",2.88435331e-012,s,-7.65000000e-009,-1.25937487e-003
"",,,-7.62500000e-009,-1.13593736e-003
"Horizontal Offset",-7.72500000e-009,s,-7.60000000e-009,-1.02031235e-003
,,,-7.57500000e-009,-9.21874842e-004
,,,-7.55000000e-009,-8.48437337e-004
,,,-7.52500000e-009,-7.99999833e-004
,,,-7.50000000e-009,-7.81249832e-004
,,,-7.47500000e-009,-7.82812332e-004
,,,-7.45000000e-009,-8.01562333e-004
,,,-7.42500000e-009,-8.26562335e-004
,,,-7.40000000e-009,-8.46874836e-004
,,,-7.37500000e-009,-8.54687337e-004
,,,-7.35000000e-009,-8.42187336e-004
,,,-7.32500000e-009,-7.99999833e-004
,,,-7.30000000e-009,-7.31249828e-004
,,,-7.27500000e-009,-6.37499822e-004
,,,-7.25000000e-009,-5.24999814e-004
,,,-7.22500000e-009,-4.01562305e-004
,,,-7.20000000e-009,-2.76562296e-004
,,,-7.17500000e-009,-1.62499788e-004
,,,-7.15000000e-009,-6.71872812e-005
,,,-7.12500000e-009,2.23517420e-010
,,,-7.10000000e-009,2.34377252e-005
,,,-7.07500000e-009,1.40627245e-005
,,,-7.05000000e-009,-2.49997783e-005
,,,-7.02500000e-009,-8.59372826e-005
,,,-7.00000000e-009,-1.64062288e-004
,,,-6.97500000e-009,-2.48437294e-004
,,,-6.95000000e-009,-3.29687300e-004
,,,-6.92500000e-009,-3.99999805e-004
,,,-6.90000000e-009,-4.64062309e-004
,,,-6.87500000e-009,-5.06249812e-004
,,,-6.85000000e-009,-5.26562314e-004
,,,-6.82500000e-009,-5.24999814e-004
,,,-6.80000000e-009,-5.07812312e-004
,,,-6.77500000e-009,-4.78124810e-004
,,,-6.75000000e-009,-4.40624808e-004
,,,-6.72500000e-009,-3.99999805e-004
,,,-6.70000000e-009,-3.74999803e-004
,,,-6.67500000e-009,-3.56249802e-004
,,,-6.65000000e-009,-3.45312301e-004
,,,-6.62500000e-009,-3.42187301e-004
,,,-6.60000000e-009,-3.48437301e-004
,,,-6.57500000e-009,-3.59374802e-004
,,,-6.55000000e-009,-3.78124803e-004
,,,-6.52500000e-009,-3.99999805e-004
,,,-6.50000000e-009,-4.31249807e-004
,,,-6.47500000e-009,-4.67187310e-004
,,,-6.45000000e-009,-5.07812312e-004
,,,-6.42500000e-009,-5.53124816e-004
,,,-6.40000000e-009,-6.04687319e-004
,,,-6.37500000e-009,-6.64062323e-004
,,,-6.35000000e-009,-7.29687328e-004
,,,-6.32500000e-009,-7.99999833e-004
,,,-6.30000000e-009,-8.78124839e-004
,,,-6.27500000e-009,-9.53124844e-004
,,,-6.25000000e-009,-1.02656235e-003
,,,-6.22500000e-009,-1.08906235e-003
,,,-6.20000000e-009,-1.14062486e-003
,,,-6.17500000e-009,-1.17812486e-003
,,,-6.15000000e-009,-1.19687486e-003
,,,-6.12500000e-009,-1.19999986e-003
,,,-6.10000000e-009,-1.18437486e-003
,,,-6.07500000e-009,-1.15937486e-003
,,,-6.05000000e-009,-1.13281236e-003
,,,-6.02500000e-009,-1.11406236e-003
,,,-6.00000000e-009,-1.10624985e-003
,,,-5.97500000e-009,-1.11562486e-003
,,,-5.95000000e-009,-1.14687486e-003
,,,-5.92500000e-009,-1.19999986e-003
,,,-5.90000000e-009,-1.26718737e-003
,,,-5.87500000e-009,-1.34843737e-003
,,,-5.85000000e-009,-1.43281238e-003
,,,-5.82500000e-009,-1.51249988e-003
,,,-5.80000000e-009,-1.57812489e-003
,,,-5.77500000e-009,-1.61874989e-003
,,,-5.75000000e-009,-1.62812489e-003
,,,-5.72500000e-009,-1.59999989e-003
,,,-5.70000000e-009,-1.52968738e-003
,,,-5.67500000e-009,-1.42968738e-003
,,,-5.65000000e-009,-1.30781237e-003
,,,-5.62500000e-009,-1.17812486e-003
,,,-5.60000000e-009,-1.05156235e-003
,,,-5.57500000e-009,-9.40624843e-004
,,,-5.55000000e-009,-8.53124837e-004
,,,-5.52500000e-009,-7.99999833e-004
,,,-5.50000000e-009,-7.84374832e-004
,,,-5.47500000e-009,-8.06249834e-004
,,,-5.45000000e-009,-8.56249837e-004
,,,-5.42500000e-009,-9.29687342e-004
,,,-5.40000000e-009,-1.01093735e-003
,,,-5.37500000e-009,-1.09062485e-003
,,,-5.35000000e-009,-1.15624986e-003
,,,-5.32500000e-009,-1.19999986e-003
,,,-5.30000000e-009,-1.21562486e-003
,,,-5.27500000e-009,-1.19999986e-003
,,,-5.25000000e-009,-1.15937486e-003
,,,-5.22500000e-009,-1.09687485e-003
,,,-5.20000000e-009,-1.02187485e-003
,,,-5.17500000e-009,-9.42187343e-004
,,,-5.15000000e-009,-8.65624838e-004
,,,-5.12500000e-009,-7.99999833e-004
,,,-5.10000000e-009,-7.57812330e-004
,,,-5.07500000e-009,-7.34374828e-004
,,,-5.05000000e-009,-7.28124828e-004
,,,-5.02500000e-009,-7.35937329e-004
,,,-5.00000000e-009,-7.53124830e-004
,,,-4.97500000e-009,-7.71874831e-004
,,,-4.95000000e-009,-7.89062332e-004
,,,-4.92500000e-009,-7.99999833e-004
,,,-4.90000000e-009,-8.04687333e-004
,,,-4.87500000e-009,-7.99999833e-004
,,,-4.85000000e-009,-7.90624832e-004
,,,-4.82500000e-009,-7.76562331e-004
,,,-4.80000000e-009,-7.67187331e-004
,,,-4.77500000e-009,-7.65624831e-004
,,,-4.75000000e-009,-7.74999831e-004
,,,-4.72500000e-009,-7.99999833e-004
,,,-4.70000000e-009,-8.45312336e-004
,,,-4.67500000e-009,-9.03124840e-004
,,,-4.65000000e-009,-9.67187345e-004
,,,-4.62500000e-009,-1.03281235e-003
,,,-4.60000000e-009,-1.09531235e-003
,,,-4.57500000e-009,-1.14531236e-003
,,,-4.55000000e-009,-1.18124986e-003
,,,-4.52500000e-009,-1.19999986e-003
,,,-4.50000000e-009,-1.19999986e-003
,,,-4.47500000e-009,-1.18593736e-003
,,,-4.45000000e-009,-1.16562486e-003
,,,-4.42500000e-009,-1.14374986e-003
,,,-4.40000000e-009,-1.13124986e-003
,,,-4.37500000e-009,-1.13437486e-003
,,,-4.35000000e-009,-1.15624986e-003
,,,-4.32500000e-009,-1.19999986e-003
,,,-4.30000000e-009,-1.26562487e-003
,,,-4.27500000e-009,-1.34531237e-003
,,,-4.25000000e-009,-1.42968738e-003
,,,-4.22500000e-009,-1.51093738e-003
,,,-4.20000000e-009,-1.57812489e-003
,,,-4.17500000e-009,-1.62031239e-003
,,,-4.15000000e-009,-1.62968739e-003
,,,-4.12500000e-009,-1.59999989e-003
,,,-4.10000000e-009,-1.52968738e-003
,,,-4.07500000e-009,-1.42656238e-003
,,,-4.05000000e-009,-1.30312487e-003
,,,-4.02500000e-009,-1.17031236e-003
,,,-4.00000000e-009,-1.04218735e-003
,,,-3.97500000e-009,-9.31249842e-004
,,,-3.95000000e-009,-8.48437337e-004
,,,-3.92500000e-009,-7.99999833e-004
,,,-3.90000000e-009,-7.95312333e-004
,,,-3.87500000e-009,-8.24999835e-004
,,,-3.85000000e-009,-8.84374839e-004
,,,-3.82500000e-009,-9.60937344e-004
,,,-3.80000000e-009,-1.04374985e-003
,,,-3.77500000e-009,-1.11874986e-003
,,,-3.75000000e-009,-1.17343736e-003
,,,-3.72500000e-009,-1.19999986e-003
,,,-3.70000000e-009,-1.19374986e-003
,,,-3.67500000e-009,-1.15468736e-003
,,,-3.65000000e-009,-1.09374985e-003
,,,-3.62500000e-009,-1.01874985e-003
,,,-3.60000000e-009,-9.40624843e-004
,,,-3.57500000e-009,-8.71874838e-004
,,,-3.55000000e-009,-8.21874835e-004
,,,-3.52500000e-009,-7.99999833e-004
,,,-3.50000000e-009,-8.12499834e-004
,,,-3.47500000e-009,-8.54687337e-004
,,,-3.45000000e-009,-9.17187341e-004
,,,-3.42500000e-009,-9.92187347e-004
,,,-3.40000000e-009,-1.06874985e-003
,,,-3.37500000e-009,-1.13593736e-003
,,,-3.35000000e-009,-1.18124986e-003
,,,-3.32500000e-009,-1.19999986e-003
,,,-3.30000000e-009,-1.18906236e-003
,,,-3.27500000e-009,-1.14999986e-003
,,,-3.25000000e-009,-1.08906235e-003
,,,-3.22500000e-009,-1.01406235e-003
,,,-3.20000000e-009,-9.37499843e-004
,,,-3.17500000e-009,-8.70312338e-004
,,,-3.15000000e-009,-8.23437335e-004
,,,-3.12500000e-009,-7.99999833e-004
,,,-3.10000000e-009,-8.12499834e-004
,,,-3.07500000e-009,-8.51562337e-004
,,,-3.05000000e-009,-9.12499841e-004
,,,-3.02500000e-009,-9.85937346e-004
,,,-3.00000000e-009,-1.06093735e-003
,,,-2.97500000e-009,-1.12656236e-003
,,,-2.95000000e-009,-1.17656236e-003
,,,-2.92500000e-009,-1.19999986e-003
,,,-2.90000000e-009,-1.19531236e-003
,,,-2.87500000e-009,-1.16406236e-003
,,,-2.85000000e-009,-1.10937486e-003
,,,-2.82500000e-009,-1.04062485e-003
,,,-2.80000000e-009,-9.65624845e-004
,,,-2.77500000e-009,-8.95312340e-004
,,,-2.75000000e-009,-8.37499836e-004
,,,-2.72500000e-009,-7.99999833e-004
,,,-2.70000000e-009,-7.90624832e-004
,,,-2.67500000e-009,-8.07812334e-004
,,,-2.65000000e-009,-8.46874836e-004
,,,-2.62500000e-009,-9.06249841e-004
,,,-2.60000000e-009,-9.79687346e-004
,,,-2.57500000e-009,-1.05781235e-003
,,,-2.55000000e-009,-1.13281236e-003
,,,-2.52500000e-009,-1.19999986e-003
,,,-2.50000000e-009,-1.25312487e-003
,,,-2.47500000e-009,-1.28749987e-003
,,,-2.45000000e-009,-1.30312487e-003
,,,-2.42500000e-009,-1.30312487e-003
,,,-2.40000000e-009,-1.28906237e-003
,,,-2.37500000e-009,-1.26406237e-003
,,,-2.35000000e-009,-1.23281236e-003
,,,-2.32500000e-009,-1.19999986e-003
,,,-2.30000000e-009,-1.17031236e-003
,,,-2.27500000e-009,-1.14843736e-003
,,,-2.25000000e-009,-1.13281236e-003
,,,-2.22500000e-009,-1.12812486e-003
,,,-2.20000000e-009,-1.13437486e-003
,,,-2.17500000e-009,-1.14999986e-003
,,,-2.15000000e-009,-1.17343736e-003
,,,-2.12500000e-009,-1.19999986e-003
,,,-2.10000000e-009,-1.22812486e-003
,,,-2.07500000e-009,-1.25468737e-003
,,,-2.05000000e-009,-1.27656237e-003
,,,-2.02500000e-009,-1.28749987e-003
,,,-2.00000000e-009,-1.28749987e-003
,,,-1.97500000e-009,-1.27343737e-003
,,,-1.95000000e-009,-1.24531236e-003
,,,-1.92500000e-009,-1.19999986e-003
,,,-1.90000000e-009,-1.14218736e-003
,,,-1.87500000e-009,-1.07656235e-003
,,,-1.85000000e-009,-1.00624985e-003
,,,-1.82500000e-009,-9.39062343e-004
,,,-1.80000000e-009,-8.79687339e-004
,,,-1.77500000e-009,-8.34374836e-004
,,,-1.75000000e-009,-8.07812334e-004
,,,-1.72500000e-009,-7.99999833e-004
,,,-1.70000000e-009,-8.17187334e-004
,,,-1.67500000e-009,-8.53124837e-004
,,,-1.65000000e-009,-9.06249841e-004
,,,-1.62500000e-009,-9.68749845e-004
,,,-1.60000000e-009,-1.03437485e-003
,,,-1.57500000e-009,-1.09999985e-003
,,,-1.55000000e-009,-1.15624986e-003
,,,-1.52500000e-009,-1.19999986e-003
,,,-1.50000000e-009,-1.24374986e-003
,,,-1.47500000e-009,-1.27343737e-003
,,,-1.45000000e-009,-1.28749987e-003
,,,-1.42500000e-009,-1.28749987e-003
,,,-1.40000000e-009,-1.27656237e-003
,,,-1.37500000e-009,-1.25624987e-003
,,,-1.35000000e-009,-1.22968736e-003
,,,-1.32500000e-009,-1.19999986e-003
,,,-1.30000000e-009,-1.20312486e-003
,,,-1.27500000e-009,-1.21406236e-003
,,,-1.25000000e-009,-1.22812486e-003
,,,-1.22500000e-009,-1.24218736e-003
,,,-1.20000000e-009,-1.24999986e-003
,,,-1.17500000e-009,-1.24843736e-003
,,,-1.15000000e-009,-1.23281236e-003
,,,-1.12500000e-009,-1.19999986e-003
,,,-1.10000000e-009,-1.20468736e-003
,,,-1.07500000e-009,-1.19999986e-003
,,,-1.05000000e-009,-1.17968736e-003
,,,-1.02500000e-009,-1.14218736e-003
,,,-1.00000000e-009,-1.08437485e-003
,,,-9.75000000e-010,-1.00468735e-003
,,,-9.50000000e-010,-9.07812341e-004
,,,-9.25000000e-010,-7.99999833e-004
,,,-9.00000000e-010,-7.68749831e-004
,,,-8.75000000e-010,-7.54687330e-004
,,,-8.50000000e-010,-7.62499830e-004
,,,-8.25000000e-010,-7.95312333e-004
,,,-8.00000000e-010,-8.53124837e-004
,,,-7.75000000e-010,-9.37499843e-004
,,,-7.50000000e-010,-1.05312485e-003
,,,-7.25000000e-010,-1.19999986e-003
,,,-7.00000000e-010,-1.46406238e-003
,,,-6.75000000e-010,-1.77187490e-003
,,,-6.50000000e-010,-2.11406243e-003
,,,-6.25000000e-010,-2.48124995e-003
,,,-6.00000000e-010,-2.86093748e-003
,,,-5.75000000e-010,-3.24531251e-003
,,,-5.50000000e-010,-3.62656253e-003
,,,-5.25000000e-010,-4.00000006e-003
,,,-5.00000000e-010,-4.42500009e-003
,,,-4.75000000e-010,-4.85468762e-003
,,,-4.50000000e-010,-5.28906265e-003
,,,-4.25000000e-010,-5.72812518e-003
,,,-4.00000000e-010,-6.17500021e-003
,,,-3.75000000e-010,-6.63437525e-003
,,,-3.50000000e-010,-7.10781278e-003
,,,-3.25000000e-010,-7.60000031e-003
,,,-3.00000000e-010,-8.12812535e-003
,,,-2.75000000e-010,-8.68593789e-003
,,,-2.50000000e-010,-9.27031293e-003
,,,-2.25000000e-010,-9.87968798e-003
,,,-2.00000000e-010,-1.05046880e-002
,,,-1.75000000e-010,-1.11390631e-002
,,,-1.50000000e-010,-1.17734381e-002
,,,-1.25000000e-010,-1.24000007e-002
,,,-1.00000000e-010,-1.29703132e-002
,,,-7.50000000e-011,-1.35265632e-002
,,,-5.00000000e-011,-1.40640633e-002
,,,-2.50000000e-011,-1.45812508e-002
,,,0.00000000e+000,-1.50765633e-002
,,,2.50000000e-011,-1.55468759e-002
,,,5.00000000e-011,-1.59890634e-002
,,,7.50000000e-011,-1.64000009e-002
,,,1.00000000e-010,-1.66875010e-002
,,,1.25000000e-010,-1.69546885e-002
,,,1.50000000e-010,-1.72093760e-002
,,,1.75000000e-010,-1.74562510e-002
,,,2.00000000e-010,-1.77015635e-002
,,,2.25000000e-010,-1.79421885e-002
,,,2.50000000e-010,-1.81781261e-002
,,,2.75000000e-010,-1.84000011e-002
,,,3.00000000e-010,-1.84828136e-002
,,,3.25000000e-010,-1.85484386e-002
,,,3.50000000e-010,-1.85984386e-002
,,,3.75000000e-010,-1.86250011e-002
,,,4.00000000e-010,-1.86265636e-002
,,,4.25000000e-010,-1.85937511e-002
,,,4.50000000e-010,-1.85203136e-002
,,,4.75000000e-010,-1.84000011e-002
,,,5.00000000e-010,-1.81156261e-002
,,,5.25000000e-010,-1.78015635e-002
,,,5.50000000e-010,-1.74718760e-002
,,,5.75000000e-010,-1.71406260e-002
,,,6.00000000e-010,-1.68187510e-002
,,,6.25000000e-010,-1.65203134e-002
,,,6.50000000e-010,-1.62468759e-002
,,,6.75000000e-010,-1.60000009e-002
,,,7.00000000e-010,-1.56906259e-002
,,,7.25000000e-010,-1.54015634e-002
,,,7.50000000e-010,-1.51265633e-002
,,,7.75000000e-010,-1.48593758e-002
,,,8.00000000e-010,-1.45843758e-002
,,,8.25000000e-010,-1.42906258e-002
,,,8.50000000e-010,-1.39656258e-002
,,,8.75000000e-010,-1.36000007e-002
,,,9.00000000e-010,-1.31421882e-002
,,,9.25000000e-010,-1.26437507e-002
,,,9.50000000e-010,-1.21171881e-002
,,,9.75000000e-010,-1.15765631e-002
,,,1.00000000e-009,-1.10406256e-002
,,,1.02500000e-009,-1.05234380e-002
,,,1.05000000e-009,-1.00406255e-002
,,,1.07500000e-009,-9.60000046e-003
,,,1.10000000e-009,-9.20937543e-003
,,,1.12500000e-009,-8.85781290e-003
,,,1.15000000e-009,-8.54375038e-003
,,,1.17500000e-009,-8.25625036e-003
,,,1.20000000e-009,-7.98906284e-003
,,,1.22500000e-009,-7.72968782e-003
,,,1.25000000e-009,-7.46875031e-003
,,,1.27500000e-009,-7.20000029e-003
,,,1.30000000e-009,-6.94375027e-003
,,,1.32500000e-009,-6.65937525e-003
,,,1.35000000e-009,-6.35156273e-003
,,,1.37500000e-009,-6.02500020e-003
,,,1.40000000e-009,-5.69375018e-003
,,,1.42500000e-009,-5.37031266e-003
,,,1.45000000e-009,-5.06875014e-003
,,,1.47500000e-009,-4.80000012e-003
,,,1.50000000e-009,-4.61718760e-003
,,,1.52500000e-009,-4.46250009e-003
,,,1.55000000e-009,-4.33437508e-003
,,,1.57500000e-009,-4.23125008e-003
,,,1.60000000e-009,-4.15000007e-003
,,,1.62500000e-009,-4.08750007e-003
,,,1.65000000e-009,-4.03906256e-003
,,,1.67500000e-009,-4.00000006e-003
,,,1.70000000e-009,-4.00781256e-003
,,,1.72500000e-009,-3.99843756e-003
,,,1.75000000e-009,-3.97031256e-003
,,,1.77500000e-009,-3.92343755e-003
,,,1.80000000e-009,-3.85781255e-003
,,,1.82500000e-009,-3.77812504e-003
,,,1.85000000e-009,-3.69062504e-003
,,,1.87500000e-009,-3.60000003e-003
,,,1.90000000e-009,-3.54843753e-003
,,,1.92500000e-009,-3.48906252e-003
,,,1.95000000e-009,-3.42812502e-003
,,,1.97500000e-009,-3.36718751e-003
,,,2.00000000e-009,-3.31093751e-003
,,,2.02500000e-009,-3.26250001e-003
,,,2.05000000e-009,-3.22500000e-003
,,,2.07500000e-009,-3.20000000e-003
,,,2.10000000e-009,-3.20625000e-003
,,,2.12500000e-009,-3.21406250e-003
,,,2.15000000e-009,-3.22343750e-003
,,,2.17500000e-009,-3.22812500e-003
,,,2.20000000e-009,-3.22968751e-003
,,,2.22500000e-009,-3.22656250e-003
,,,2.25000000e-009,-3.21718750e-003
,,,2.27500000e-009,-3.20000000e-003
,,,2.30000000e-009,-3.18437500e-003
,,,2.32500000e-009,-3.15312500e-003
,,,2.35000000e-009,-3.10937500e-003
,,,2.37500000e-009,-3.05468749e-003
,,,2.40000000e-009,-2.99218749e-003
,,,2.42500000e-009,-2.92656248e-003
,,,2.45000000e-009,-2.86093748e-003
,,,2.47500000e-009,-2.79999997e-003
,,,2.50000000e-009,-2.74843747e-003
,,,2.52500000e-009,-2.70624997e-003
,,,2.55000000e-009,-2.67812497e-003
,,,2.57500000e-009,-2.66562497e-003
,,,2.60000000e-009,-2.67187497e-003
,,,2.62500000e-009,-2.69843747e-003
,,,2.65000000e-009,-2.74218747e-003
,,,2.67500000e-009,-2.79999997e-003
,,,2.70000000e-009,-2.86093748e-003
,,,2.72500000e-009,-2.91874998e-003
,,,2.75000000e-009,-2.96406249e-003
,,,2.77500000e-009,-2.99218749e-003
,,,2.80000000e-009,-2.99374999e-003
,,,2.82500000e-009,-2.96406249e-003
,,,2.85000000e-009,-2.89999998e-003
,,,2.87500000e-009,-2.79999997e-003
,,,2.90000000e-009,-2.66406247e-003
,,,2.92500000e-009,-2.50312495e-003
,,,2.95000000e-009,-2.32499994e-003
,,,2.97500000e-009,-2.14374993e-003
,,,3.00000000e-009,-1.97031242e-003
,,,3.02500000e-009,-1.81718741e-003
,,,3.05000000e-009,-1.69218740e-003
,,,3.07500000e-009,-1.59999989e-003
,,,3.10000000e-009,-1.54999989e-003
,,,3.12500000e-009,-1.53124988e-003
,,,3.15000000e-009,-1.53749989e-003
,,,3.17500000e-009,-1.55937489e-003
,,,3.20000000e-009,-1.58749989e-003
,,,3.22500000e-009,-1.61093739e-003
,,,3.25000000e-009,-1.61718739e-003
,,,3.27500000e-009,-1.59999989e-003
,,,3.30000000e-009,-1.55937489e-003
,,,3.32500000e-009,-1.48749988e-003
,,,3.35000000e-009,-1.39062487e-003
,,,3.37500000e-009,-1.27343737e-003
,,,3.40000000e-009,-1.14531236e-003
,,,3.42500000e-009,-1.01874985e-003
,,,3.45000000e-009,-8.99999840e-004
,,,3.47500000e-009,-7.99999833e-004
,,,3.50000000e-009,-7.34374828e-004
,,,3.52500000e-009,-6.92187325e-004
,,,3.55000000e-009,-6.74999824e-004
,,,3.57500000e-009,-6.79687325e-004
,,,3.60000000e-009,-6.99999826e-004
,,,3.62500000e-009,-7.31249828e-004
,,,3.65000000e-009,-7.67187331e-004
,,,3.67500000e-009,-7.99999833e-004
,,,3.70000000e-009,-8.37499836e-004
,,,3.72500000e-009,-8.64062338e-004
,,,3.75000000e-009,-8.76562339e-004
,,,3.77500000e-009,-8.76562339e-004
,,,3.80000000e-009,-8.65624838e-004
,,,3.82500000e-009,-8.46874836e-004
,,,3.85000000e-009,-8.23437335e-004
,,,3.87500000e-009,-7.99999833e-004
,,,3.90000000e-009,-7.87499832e-004
,,,3.92500000e-009,-7.78124832e-004
,,,3.95000000e-009,-7.70312331e-004
,,,3.97500000e-009,-7.68749831e-004
,,,4.00000000e-009,-7.70312331e-004
,,,4.02500000e-009,-7.78124832e-004
,,,4.05000000e-009,-7.87499832e-004
,,,4.07500000e-009,-7.99999833e-004
,,,4.10000000e-009,-8.17187334e-004
,,,4.12500000e-009,-8.31249835e-004
,,,4.15000000e-009,-8.42187336e-004
,,,4.17500000e-009,-8.46874836e-004
,,,4.20000000e-009,-8.45312336e-004
,,,4.22500000e-009,-8.35937336e-004
,,,4.25000000e-009,-8.21874835e-004
,,,4.27500000e-009,-7.99999833e-004
,,,4.30000000e-009,-7.82812332e-004
,,,4.32500000e-009,-7.64062331e-004
,,,4.35000000e-009,-7.46874829e-004
,,,4.37500000e-009,-7.35937329e-004
,,,4.40000000e-009,-7.32812328e-004
,,,4.42500000e-009,-7.42187329e-004
,,,4.45000000e-009,-7.65624831e-004
,,,4.47500000e-009,-7.99999833e-004
,,,4.50000000e-009,-8.48437337e-004
,,,4.52500000e-009,-9.06249841e-004
,,,4.55000000e-009,-9.68749845e-004
,,,4.57500000e-009,-1.03281235e-003
,,,4.60000000e-009,-1.09218735e-003
,,,4.62500000e-009,-1.14374986e-003
,,,4.65000000e-009,-1.18124986e-003
,,,4.67500000e-009,-1.19999986e-003
,,,4.70000000e-009,-1.19687486e-003
,,,4.72500000e-009,-1.17187486e-003
,,,4.75000000e-009,-1.12968736e-003
,,,4.77500000e-009,-1.07499985e-003
,,,4.80000000e-009,-1.00781235e-003
,,,4.82500000e-009,-9.37499843e-004
,,,4.85000000e-009,-8.67187338e-004
,,,4.87500000e-009,-7.99999833e-004
,,,4.90000000e-009,-7.45312329e-004
,,,4.92500000e-009,-7.04687326e-004
,,,4.95000000e-009,-6.79687325e-004
,,,4.97500000e-009,-6.71874824e-004
,,,5.00000000e-009,-6.82812325e-004
,,,5.02500000e-009,-7.09374827e-004
,,,5.05000000e-009,-7.48437329e-004
,,,5.07500000e-009,-7.99999833e-004
,,,5.10000000e-009,-8.59374837e-004
,,,5.12500000e-009,-9.20312342e-004
,,,5.15000000e-009,-9.82812346e-004
,,,5.17500000e-009,-1.04218735e-003
,,,5.20000000e-009,-1.09531235e-003
,,,5.22500000e-009,-1.14218736e-003
,,,5.25000000e-009,-1.17812486e-003
,,,5.27500000e-009,-1.19999986e-003
,,,5.30000000e-009,-1.20468736e-003
,,,5.32500000e-009,-1.19374986e-003
,,,5.35000000e-009,-1.16562486e-003
,,,5.37500000e-009,-1.12031236e-003
,,,5.40000000e-009,-1.05937485e-003
,,,5.42500000e-009,-9.84374846e-004
,,,5.45000000e-009,-8.96874840e-004
,,,5.47500000e-009,-7.99999833e-004
,,,5.50000000e-009,-7.01562326e-004
,,,5.52500000e-009,-6.04687319e-004
,,,5.55000000e-009,-5.18749813e-004
,,,5.57500000e-009,-4.48437308e-004
,,,5.60000000e-009,-3.98437305e-004
,,,5.62500000e-009,-3.73437303e-004
,,,5.65000000e-009,-3.74999803e-004
,,,5.67500000e-009,-3.99999805e-004
,,,5.70000000e-009,-4.54687309e-004
,,,5.72500000e-009,-5.23437314e-004
,,,5.75000000e-009,-5.98437319e-004
,,,5.77500000e-009,-6.73437324e-004
,,,5.80000000e-009,-7.35937329e-004
