RawData/WithScintilator/L6_2pt2C_15mV/wave024_Ch3.csv

"Record Length",1000,"Points",-7.72500000e-009,-4.53124809e-004
"Sample Interval",2.50000000e-011,s,-7.70000000e-009,-4.67187310e-004
"Trigger Point",309,"Samples",-7.67500000e-009,-4.70312310e-004
"Trigger Time",6.50175182e-012,s,-7.65000000e-009,-4.65624809e-004
"",,,-7.62500000e-009,-4.49999808e-004
"Horizontal Offset",-7.72500000e-009,s,-7.60000000e-009,-4.28124807e-004
,,,-7.57500000e-009,-3.99999805e-004
,,,-7.55000000e-009,-3.76562303e-004
,,,-7.52500000e-009,-3.56249802e-004
,,,-7.50000000e-009,-3.39062300e-004
,,,-7.47500000e-009,-3.29687300e-004
,,,-7.45000000e-009,-3.29687300e-004
,,,-7.42500000e-009,-3.40624801e-004
,,,-7.40000000e-009,-3.65624802e-004
,,,-7.37500000e-009,-3.99999805e-004
,,,-7.35000000e-009,-4.48437308e-004
,,,-7.32500000e-009,-5.04687312e-004
,,,-7.30000000e-009,-5.64062316e-004
,,,-7.27500000e-009,-6.24999821e-004
,,,-7.25000000e-009,-6.81249825e-004
,,,-7.22500000e-009,-7.31249828e-004
,,,-7.20000000e-009,-7.71874831e-004
,,,-7.17500000e-009,-7.99999833e-004
,,,-7.15000000e-009,-8.17187334e-004
,,,-7.12500000e-009,-8.21874835e-004
,,,-7.10000000e-009,-8.18749834e-004
,,,-7.07500000e-009,-8.09374834e-004
,,,-7.05000000e-009,-7.98437333e-004
,,,-7.02500000e-009,-7.92187333e-004
,,,-7.00000000e-009,-7.90624832e-004
,,,-6.97500000e-009,-7.99999833e-004
,,,-6.95000000e-009,-8.17187334e-004
,,,-6.92500000e-009,-8.45312336e-004
,,,-6.90000000e-009,-8.87499839e-004
,,,-6.87500000e-009,-9.39062343e-004
,,,-6.85000000e-009,-9.99999847e-004
,,,-6.82500000e-009,-1.06718735e-003
,,,-6.80000000e-009,-1.13437486e-003
,,,-6.77500000e-009,-1.19999986e-003
,,,-6.75000000e-009,-1.25156237e-003
,,,-6.72500000e-009,-1.29218737e-003
,,,-6.70000000e-009,-1.31874987e-003
,,,-6.67500000e-009,-1.32812487e-003
,,,-6.65000000e-009,-1.32187487e-003
,,,-6.62500000e-009,-1.29687487e-003
,,,-6.60000000e-009,-1.25624987e-003
,,,-6.57500000e-009,-1.19999986e-003
,,,-6.55000000e-009,-1.12656236e-003
,,,-6.52500000e-009,-1.04999985e-003
,,,-6.50000000e-009,-9.73437345e-004
,,,-6.47500000e-009,-9.06249841e-004
,,,-6.45000000e-009,-8.53124837e-004
,,,-6.42500000e-009,-8.15624834e-004
,,,-6.40000000e-009,-7.98437333e-004
,,,-6.37500000e-009,-7.99999833e-004
,,,-6.35000000e-009,-8.14062334e-004
,,,-6.32500000e-009,-8.37499836e-004
,,,-6.30000000e-009,-8.65624838e-004
,,,-6.27500000e-009,-8.89062339e-004
,,,-6.25000000e-009,-9.01562340e-004
,,,-6.22500000e-009,-8.93749840e-004
,,,-6.20000000e-009,-8.60937337e-004
,,,-6.17500000e-009,-7.99999833e-004
,,,-6.15000000e-009,-7.10937327e-004
,,,-6.12500000e-009,-5.99999819e-004
,,,-6.10000000e-009,-4.74999810e-004
,,,-6.07500000e-009,-3.46874801e-004
,,,-6.05000000e-009,-2.24999792e-004
,,,-6.02500000e-009,-1.21874785e-004
,,,-6.00000000e-009,-4.53122797e-005
,,,-5.97500000e-009,2.23517420e-010
,,,-5.95000000e-009,4.68772385e-006
,,,-5.92500000e-009,-2.18747780e-005
,,,-5.90000000e-009,-7.34372817e-005
,,,-5.87500000e-009,-1.45312287e-004
,,,-5.85000000e-009,-2.21874792e-004
,,,-5.82500000e-009,-2.96874797e-004
,,,-5.80000000e-009,-3.59374802e-004
,,,-5.77500000e-009,-3.99999805e-004
,,,-5.75000000e-009,-4.18749806e-004
,,,-5.72500000e-009,-4.07812305e-004
,,,-5.70000000e-009,-3.70312303e-004
,,,-5.67500000e-009,-3.10937298e-004
,,,-5.65000000e-009,-2.35937293e-004
,,,-5.62500000e-009,-1.53124787e-004
,,,-5.60000000e-009,-7.34372817e-005
,,,-5.57500000e-009,2.23517420e-010
,,,-5.55000000e-009,5.00002271e-005
,,,-5.52500000e-009,8.28127294e-005
,,,-5.50000000e-009,9.84377305e-005
,,,-5.47500000e-009,9.68752304e-005
,,,-5.45000000e-009,8.12502293e-005
,,,-5.42500000e-009,5.78127276e-005
,,,-5.40000000e-009,2.81252255e-005
,,,-5.37500000e-009,2.23517420e-010
,,,-5.35000000e-009,-3.28122788e-005
,,,-5.32500000e-009,-5.78122806e-005
,,,-5.30000000e-009,-7.34372817e-005
,,,-5.27500000e-009,-7.81247820e-005
,,,-5.25000000e-009,-7.03122815e-005
,,,-5.22500000e-009,-5.46872804e-005
,,,-5.20000000e-009,-2.96872786e-005
,,,-5.17500000e-009,2.23517420e-010
,,,-5.15000000e-009,2.50002253e-005
,,,-5.12500000e-009,4.84377269e-005
,,,-5.10000000e-009,6.71877283e-005
,,,-5.07500000e-009,7.81252290e-005
,,,-5.05000000e-009,7.81252290e-005
,,,-5.02500000e-009,6.40627281e-005
,,,-5.00000000e-009,3.90627263e-005
,,,-4.97500000e-009,2.23517420e-010
,,,-4.95000000e-009,-5.46872804e-005
,,,-4.92500000e-009,-1.17187285e-004
,,,-4.90000000e-009,-1.82812289e-004
,,,-4.87500000e-009,-2.46874794e-004
,,,-4.85000000e-009,-3.04687298e-004
,,,-4.82500000e-009,-3.51562301e-004
,,,-4.80000000e-009,-3.82812304e-004
,,,-4.77500000e-009,-3.99999805e-004
,,,-4.75000000e-009,-4.03124805e-004
,,,-4.72500000e-009,-3.93749804e-004
,,,-4.70000000e-009,-3.78124803e-004
,,,-4.67500000e-009,-3.60937302e-004
,,,-4.65000000e-009,-3.49999801e-004
,,,-4.62500000e-009,-3.49999801e-004
,,,-4.60000000e-009,-3.67187302e-004
,,,-4.57500000e-009,-3.99999805e-004
,,,-4.55000000e-009,-4.51562308e-004
,,,-4.52500000e-009,-5.17187313e-004
,,,-4.50000000e-009,-5.90624818e-004
,,,-4.47500000e-009,-6.64062323e-004
,,,-4.45000000e-009,-7.28124828e-004
,,,-4.42500000e-009,-7.76562331e-004
,,,-4.40000000e-009,-8.01562333e-004
,,,-4.37500000e-009,-7.99999833e-004
,,,-4.35000000e-009,-7.65624831e-004
,,,-4.32500000e-009,-7.09374827e-004
,,,-4.30000000e-009,-6.39062322e-004
,,,-4.27500000e-009,-5.62499816e-004
,,,-4.25000000e-009,-4.92187311e-004
,,,-4.22500000e-009,-4.37499807e-004
,,,-4.20000000e-009,-4.04687305e-004
,,,-4.17500000e-009,-3.99999805e-004
,,,-4.15000000e-009,-4.23437306e-004
,,,-4.12500000e-009,-4.73437310e-004
,,,-4.10000000e-009,-5.40624815e-004
,,,-4.07500000e-009,-6.17187320e-004
,,,-4.05000000e-009,-6.92187325e-004
,,,-4.02500000e-009,-7.53124830e-004
,,,-4.00000000e-009,-7.90624832e-004
,,,-3.97500000e-009,-7.99999833e-004
,,,-3.95000000e-009,-7.74999831e-004
,,,-3.92500000e-009,-7.24999828e-004
,,,-3.90000000e-009,-6.54687323e-004
,,,-3.87500000e-009,-5.76562317e-004
,,,-3.85000000e-009,-5.01562312e-004
,,,-3.82500000e-009,-4.42187308e-004
,,,-3.80000000e-009,-4.06249805e-004
,,,-3.77500000e-009,-3.99999805e-004
,,,-3.75000000e-009,-4.28124807e-004
,,,-3.72500000e-009,-4.82812311e-004
,,,-3.70000000e-009,-5.57812316e-004
,,,-3.67500000e-009,-6.40624822e-004
,,,-3.65000000e-009,-7.17187327e-004
,,,-3.62500000e-009,-7.76562331e-004
,,,-3.60000000e-009,-8.06249834e-004
,,,-3.57500000e-009,-7.99999833e-004
,,,-3.55000000e-009,-7.49999830e-004
,,,-3.52500000e-009,-6.62499823e-004
,,,-3.50000000e-009,-5.48437315e-004
,,,-3.47500000e-009,-4.18749806e-004
,,,-3.45000000e-009,-2.84374797e-004
,,,-3.42500000e-009,-1.64062288e-004
,,,-3.40000000e-009,-6.56247811e-005
,,,-3.37500000e-009,2.23517420e-010
,,,-3.35000000e-009,2.03127250e-005
,,,-3.32500000e-009,4.68772385e-006
,,,-3.30000000e-009,-4.37497796e-005
,,,-3.27500000e-009,-1.14062285e-004
,,,-3.25000000e-009,-1.95312290e-004
,,,-3.22500000e-009,-2.76562296e-004
,,,-3.20000000e-009,-3.48437301e-004
,,,-3.17500000e-009,-3.99999805e-004
,,,-3.15000000e-009,-4.28124807e-004
,,,-3.12500000e-009,-4.34374807e-004
,,,-3.10000000e-009,-4.21874806e-004
,,,-3.07500000e-009,-3.99999805e-004
,,,-3.05000000e-009,-3.79687303e-004
,,,-3.02500000e-009,-3.67187302e-004
,,,-3.00000000e-009,-3.73437303e-004
,,,-2.97500000e-009,-3.99999805e-004
,,,-2.95000000e-009,-4.53124809e-004
,,,-2.92500000e-009,-5.24999814e-004
,,,-2.90000000e-009,-6.06249819e-004
,,,-2.87500000e-009,-6.87499825e-004
,,,-2.85000000e-009,-7.57812330e-004
,,,-2.82500000e-009,-8.06249834e-004
,,,-2.80000000e-009,-8.21874835e-004
,,,-2.77500000e-009,-7.99999833e-004
,,,-2.75000000e-009,-7.35937329e-004
,,,-2.72500000e-009,-6.37499822e-004
,,,-2.70000000e-009,-5.17187313e-004
,,,-2.67500000e-009,-3.82812304e-004
,,,-2.65000000e-009,-2.53124794e-004
,,,-2.62500000e-009,-1.39062286e-004
,,,-2.60000000e-009,-5.15622801e-005
,,,-2.57500000e-009,2.23517420e-010
,,,-2.55000000e-009,4.68772385e-006
,,,-2.52500000e-009,-2.49997783e-005
,,,-2.50000000e-009,-8.43747825e-005
,,,-2.47500000e-009,-1.60937288e-004
,,,-2.45000000e-009,-2.43749794e-004
,,,-2.42500000e-009,-3.18749799e-004
,,,-2.40000000e-009,-3.73437303e-004
,,,-2.37500000e-009,-3.99999805e-004
,,,-2.35000000e-009,-3.93749804e-004
,,,-2.32500000e-009,-3.54687302e-004
,,,-2.30000000e-009,-2.93749797e-004
,,,-2.27500000e-009,-2.18749792e-004
,,,-2.25000000e-009,-1.40624786e-004
,,,-2.22500000e-009,-7.18747816e-005
,,,-2.20000000e-009,-2.18747780e-005
,,,-2.17500000e-009,2.23517420e-010
,,,-2.15000000e-009,-1.09372773e-005
,,,-2.12500000e-009,-4.99997800e-005
,,,-2.10000000e-009,-1.10937284e-004
,,,-2.07500000e-009,-1.85937290e-004
,,,-2.05000000e-009,-2.62499795e-004
,,,-2.02500000e-009,-3.29687300e-004
,,,-2.00000000e-009,-3.78124803e-004
,,,-1.97500000e-009,-3.99999805e-004
,,,-1.95000000e-009,-3.93749804e-004
,,,-1.92500000e-009,-3.59374802e-004
,,,-1.90000000e-009,-3.01562298e-004
,,,-1.87500000e-009,-2.29687293e-004
,,,-1.85000000e-009,-1.53124787e-004
,,,-1.82500000e-009,-8.43747825e-005
,,,-1.80000000e-009,-3.12497787e-005
,,,-1.77500000e-009,2.23517420e-010
,,,-1.75000000e-009,-1.56227659e-006
,,,-1.72500000e-009,-2.96872786e-005
,,,-1.70000000e-009,-7.96872821e-005
,,,-1.67500000e-009,-1.46874787e-004
,,,-1.65000000e-009,-2.20312292e-004
,,,-1.62500000e-009,-2.93749797e-004
,,,-1.60000000e-009,-3.56249802e-004
,,,-1.57500000e-009,-3.99999805e-004
,,,-1.55000000e-009,-4.23437306e-004
,,,-1.52500000e-009,-4.21874806e-004
,,,-1.50000000e-009,-3.92187304e-004
,,,-1.47500000e-009,-3.40624801e-004
,,,-1.45000000e-009,-2.68749796e-004
,,,-1.42500000e-009,-1.84374790e-004
,,,-1.40000000e-009,-9.21872830e-005
,,,-1.37500000e-009,2.23517420e-010
,,,-1.35000000e-009,6.25002279e-005
,,,-1.32500000e-009,1.09375231e-004
,,,-1.30000000e-009,1.35937733e-004
,,,-1.27500000e-009,1.42187734e-004
,,,-1.25000000e-009,1.29687733e-004
,,,-1.22500000e-009,1.00000231e-004
,,,-1.20000000e-009,5.46877274e-005
,,,-1.17500000e-009,2.23517420e-010
,,,-1.15000000e-009,-1.01562284e-004
,,,-1.12500000e-009,-2.07812291e-004
,,,-1.10000000e-009,-3.07812298e-004
,,,-1.07500000e-009,-3.90624804e-004
,,,-1.05000000e-009,-4.46874808e-004
,,,-1.02500000e-009,-4.70312310e-004
,,,-1.00000000e-009,-4.54687309e-004
,,,-9.75000000e-010,-3.99999805e-004
,,,-9.50000000e-010,-3.90624804e-004
,,,-9.25000000e-010,-3.64062302e-004
,,,-9.00000000e-010,-3.23437299e-004
,,,-8.75000000e-010,-2.68749796e-004
,,,-8.50000000e-010,-2.03124791e-004
,,,-8.25000000e-010,-1.32812286e-004
,,,-8.00000000e-010,-6.24997809e-005
,,,-7.75000000e-010,2.23517420e-010
,,,-7.50000000e-010,-7.96872821e-005
,,,-7.25000000e-010,-1.99999791e-004
,,,-7.00000000e-010,-3.51562301e-004
,,,-6.75000000e-010,-5.24999814e-004
,,,-6.50000000e-010,-7.04687326e-004
,,,-6.25000000e-010,-8.81249839e-004
,,,-6.00000000e-010,-1.04687485e-003
,,,-5.75000000e-010,-1.19999986e-003
,,,-5.50000000e-010,-1.49687488e-003
,,,-5.25000000e-010,-1.80624990e-003
,,,-5.00000000e-010,-2.12031243e-003
,,,-4.75000000e-010,-2.43281245e-003
,,,-4.50000000e-010,-2.73593747e-003
,,,-4.25000000e-010,-3.02812499e-003
,,,-4.00000000e-010,-3.31406251e-003
,,,-3.75000000e-010,-3.60000003e-003
,,,-3.50000000e-010,-4.05312506e-003
,,,-3.25000000e-010,-4.55468760e-003
,,,-3.00000000e-010,-5.10468764e-003
,,,-2.75000000e-010,-5.69531268e-003
,,,-2.50000000e-010,-6.32343772e-003
,,,-2.25000000e-010,-6.98437527e-003
,,,-2.00000000e-010,-7.67656282e-003
,,,-1.75000000e-010,-8.40000037e-003
,,,-1.50000000e-010,-9.26250043e-003
,,,-1.25000000e-010,-1.01812505e-002
,,,-1.00000000e-010,-1.11484381e-002
,,,-7.50000000e-011,-1.21546881e-002
,,,-5.00000000e-011,-1.31921882e-002
,,,-2.50000000e-011,-1.42500008e-002
,,,0.00000000e+000,-1.53203134e-002
,,,2.50000000e-011,-1.64000009e-002
,,,5.00000000e-011,-1.74984385e-002
,,,7.50000000e-011,-1.86156261e-002
,,,1.00000000e-010,-1.97546887e-002
,,,1.25000000e-010,-2.09109388e-002
,,,1.50000000e-010,-2.20781263e-002
,,,1.75000000e-010,-2.32531264e-002
,,,2.00000000e-010,-2.44281265e-002
,,,2.25000000e-010,-2.56000016e-002
,,,2.50000000e-010,-2.66578142e-002
,,,2.75000000e-010,-2.77187517e-002
,,,3.00000000e-010,-2.87828143e-002
,,,3.25000000e-010,-2.98515644e-002
,,,3.50000000e-010,-3.09171895e-002
,,,3.75000000e-010,-3.19734395e-002
,,,4.00000000e-010,-3.30046896e-002
,,,4.25000000e-010,-3.40000022e-002
,,,4.50000000e-010,-3.47359397e-002
,,,4.75000000e-010,-3.54250023e-002
,,,5.00000000e-010,-3.60656273e-002
,,,5.25000000e-010,-3.66593774e-002
,,,5.50000000e-010,-3.71968774e-002
,,,5.75000000e-010,-3.76734399e-002
,,,6.00000000e-010,-3.80765650e-002
,,,6.25000000e-010,-3.84000025e-002
,,,6.50000000e-010,-3.83796900e-002
,,,6.75000000e-010,-3.82968775e-002
,,,7.00000000e-010,-3.81687525e-002
,,,7.25000000e-010,-3.80109400e-002
,,,7.50000000e-010,-3.78328150e-002
,,,7.75000000e-010,-3.76390649e-002
,,,8.00000000e-010,-3.74296899e-002
,,,8.25000000e-010,-3.72000024e-002
,,,8.50000000e-010,-3.67015649e-002
,,,8.75000000e-010,-3.61906273e-002
,,,9.00000000e-010,-3.56734398e-002
,,,9.25000000e-010,-3.51453148e-002
,,,9.50000000e-010,-3.46031272e-002
,,,9.75000000e-010,-3.40390647e-002
,,,1.00000000e-009,-3.34406271e-002
,,,1.02500000e-009,-3.28000021e-002
,,,1.05000000e-009,-3.19281270e-002
,,,1.07500000e-009,-3.10218770e-002
,,,1.10000000e-009,-3.00937519e-002
,,,1.12500000e-009,-2.91609393e-002
,,,1.15000000e-009,-2.82343768e-002
,,,1.17500000e-009,-2.73281267e-002
,,,1.20000000e-009,-2.64484391e-002
,,,1.22500000e-009,-2.56000016e-002
,,,1.25000000e-009,-2.47000015e-002
,,,1.27500000e-009,-2.38312515e-002
,,,1.30000000e-009,-2.29937514e-002
,,,1.32500000e-009,-2.21890638e-002
,,,1.35000000e-009,-2.14109388e-002
,,,1.37500000e-009,-2.06562512e-002
,,,1.40000000e-009,-1.99218762e-002
,,,1.42500000e-009,-1.92000011e-002
,,,1.45000000e-009,-1.84875011e-002
,,,1.47500000e-009,-1.77625010e-002
,,,1.50000000e-009,-1.70312510e-002
,,,1.52500000e-009,-1.63015634e-002
,,,1.55000000e-009,-1.55812509e-002
,,,1.57500000e-009,-1.48843758e-002
,,,1.60000000e-009,-1.42218758e-002
,,,1.62500000e-009,-1.36000007e-002
,,,1.65000000e-009,-1.30859382e-002
,,,1.67500000e-009,-1.25906257e-002
,,,1.70000000e-009,-1.21109381e-002
,,,1.72500000e-009,-1.16484381e-002
,,,1.75000000e-009,-1.12046881e-002
,,,1.77500000e-009,-1.07796880e-002
,,,1.80000000e-009,-1.03781255e-002
,,,1.82500000e-009,-1.00000005e-002
,,,1.85000000e-009,-9.72500046e-003
,,,1.87500000e-009,-9.43593794e-003
,,,1.90000000e-009,-9.13281292e-003
,,,1.92500000e-009,-8.81718790e-003
,,,1.95000000e-009,-8.49687538e-003
,,,1.97500000e-009,-8.18125036e-003
,,,2.00000000e-009,-7.87968783e-003
,,,2.02500000e-009,-7.60000031e-003
,,,2.05000000e-009,-7.43125030e-003
,,,2.07500000e-009,-7.26406279e-003
,,,2.10000000e-009,-7.09531278e-003
,,,2.12500000e-009,-6.93125027e-003
,,,2.15000000e-009,-6.77343776e-003
,,,2.17500000e-009,-6.62968775e-003
,,,2.20000000e-009,-6.50468774e-003
,,,2.22500000e-009,-6.40000023e-003
,,,2.25000000e-009,-6.37812523e-003
,,,2.27500000e-009,-6.34843773e-003
,,,2.30000000e-009,-6.31093772e-003
,,,2.32500000e-009,-6.26250022e-003
,,,2.35000000e-009,-6.20625022e-003
,,,2.37500000e-009,-6.14218771e-003
,,,2.40000000e-009,-6.07187521e-003
,,,2.42500000e-009,-6.00000020e-003
,,,2.45000000e-009,-5.96406270e-003
,,,2.47500000e-009,-5.90468769e-003
,,,2.50000000e-009,-5.82500019e-003
,,,2.52500000e-009,-5.72343768e-003
,,,2.55000000e-009,-5.60625017e-003
,,,2.57500000e-009,-5.47656266e-003
,,,2.60000000e-009,-5.33906265e-003
,,,2.62500000e-009,-5.20000014e-003
,,,2.65000000e-009,-5.08593764e-003
,,,2.67500000e-009,-4.96875013e-003
,,,2.70000000e-009,-4.85156262e-003
,,,2.72500000e-009,-4.73750011e-003
,,,2.75000000e-009,-4.63281260e-003
,,,2.77500000e-009,-4.54062510e-003
,,,2.80000000e-009,-4.46250009e-003
,,,2.82500000e-009,-4.40000009e-003
,,,2.85000000e-009,-4.36406259e-003
,,,2.87500000e-009,-4.32968758e-003
,,,2.90000000e-009,-4.29531258e-003
,,,2.92500000e-009,-4.25625008e-003
,,,2.95000000e-009,-4.20781257e-003
,,,2.97500000e-009,-4.15156257e-003
,,,3.00000000e-009,-4.08125007e-003
,,,3.02500000e-009,-4.00000006e-003
,,,3.05000000e-009,-3.91250005e-003
,,,3.07500000e-009,-3.81093755e-003
,,,3.10000000e-009,-3.70000004e-003
,,,3.12500000e-009,-3.58437503e-003
,,,3.15000000e-009,-3.47031252e-003
,,,3.17500000e-009,-3.36406251e-003
,,,3.20000000e-009,-3.27343751e-003
,,,3.22500000e-009,-3.20000000e-003
,,,3.25000000e-009,-3.15468750e-003
,,,3.27500000e-009,-3.12656250e-003
,,,3.30000000e-009,-3.11562500e-003
,,,3.32500000e-009,-3.11875000e-003
,,,3.35000000e-009,-3.13281250e-003
,,,3.37500000e-009,-3.15468750e-003
,,,3.40000000e-009,-3.17812500e-003
,,,3.42500000e-009,-3.20000000e-003
,,,3.45000000e-009,-3.21562500e-003
,,,3.47500000e-009,-3.21406250e-003
,,,3.50000000e-009,-3.19375000e-003
,,,3.52500000e-009,-3.15156250e-003
,,,3.55000000e-009,-3.08906250e-003
,,,3.57500000e-009,-3.00781249e-003
,,,3.60000000e-009,-2.91093748e-003
,,,3.62500000e-009,-2.79999997e-003
,,,3.65000000e-009,-2.68593747e-003
,,,3.67500000e-009,-2.56562496e-003
,,,3.70000000e-009,-2.44374995e-003
,,,3.72500000e-009,-2.32656244e-003
,,,3.75000000e-009,-2.22031243e-003
,,,3.77500000e-009,-2.12968743e-003
,,,3.80000000e-009,-2.05468742e-003
,,,3.82500000e-009,-1.99999992e-003
,,,3.85000000e-009,-1.97031242e-003
,,,3.87500000e-009,-1.95624991e-003
,,,3.90000000e-009,-1.95312491e-003
,,,3.92500000e-009,-1.95937492e-003
,,,3.95000000e-009,-1.97187492e-003
,,,3.97500000e-009,-1.98593742e-003
,,,4.00000000e-009,-1.99687492e-003
,,,4.02500000e-009,-1.99999992e-003
,,,4.05000000e-009,-1.99999992e-003
,,,4.07500000e-009,-1.98281242e-003
,,,4.10000000e-009,-1.95156241e-003
,,,4.12500000e-009,-1.90312491e-003
,,,4.15000000e-009,-1.84218741e-003
,,,4.17500000e-009,-1.76874990e-003
,,,4.20000000e-009,-1.68593740e-003
,,,4.22500000e-009,-1.59999989e-003
,,,4.25000000e-009,-1.51874988e-003
,,,4.27500000e-009,-1.43906238e-003
,,,4.30000000e-009,-1.36562487e-003
,,,4.32500000e-009,-1.30312487e-003
,,,4.35000000e-009,-1.25468737e-003
,,,4.37500000e-009,-1.22187486e-003
,,,4.40000000e-009,-1.20312486e-003
,,,4.42500000e-009,-1.19999986e-003
,,,4.45000000e-009,-1.21562486e-003
,,,4.47500000e-009,-1.23593736e-003
,,,4.50000000e-009,-1.25624987e-003
,,,4.52500000e-009,-1.27031237e-003
,,,4.55000000e-009,-1.27499987e-003
,,,4.57500000e-009,-1.26718737e-003
,,,4.60000000e-009,-1.24218736e-003
,,,4.62500000e-009,-1.19999986e-003
,,,4.65000000e-009,-1.14687486e-003
,,,4.67500000e-009,-1.08124985e-003
,,,4.70000000e-009,-1.00937485e-003
,,,4.72500000e-009,-9.37499843e-004
,,,4.75000000e-009,-8.74999838e-004
,,,4.77500000e-009,-8.26562335e-004
,,,4.80000000e-009,-8.01562333e-004
,,,4.82500000e-009,-7.99999833e-004
,,,4.85000000e-009,-8.29687335e-004
,,,4.87500000e-009,-8.79687339e-004
,,,4.90000000e-009,-9.43749843e-004
,,,4.92500000e-009,-1.01406235e-003
,,,4.95000000e-009,-1.08281235e-003
,,,4.97500000e-009,-1.14218736e-003
,,,5.00000000e-009,-1.18281236e-003
,,,5.02500000e-009,-1.19999986e-003
,,,5.05000000e-009,-1.19531236e-003
,,,5.07500000e-009,-1.16406236e-003
,,,5.10000000e-009,-1.11249986e-003
,,,5.12500000e-009,-1.04687485e-003
,,,5.15000000e-009,-9.74999845e-004
,,,5.17500000e-009,-9.06249841e-004
,,,5.20000000e-009,-8.45312336e-004
,,,5.22500000e-009,-7.99999833e-004
,,,5.25000000e-009,-7.76562331e-004
,,,5.27500000e-009,-7.70312331e-004
,,,5.30000000e-009,-7.78124832e-004
,,,5.32500000e-009,-7.92187333e-004
,,,5.35000000e-009,-8.07812334e-004
,,,5.37500000e-009,-8.18749834e-004
,,,5.40000000e-009,-8.17187334e-004
,,,5.42500000e-009,-7.99999833e-004
,,,5.45000000e-009,-7.68749831e-004
,,,5.47500000e-009,-7.20312327e-004
,,,5.50000000e-009,-6.59374823e-004
,,,5.52500000e-009,-5.92187318e-004
,,,5.55000000e-009,-5.26562314e-004
,,,5.57500000e-009,-4.67187310e-004
,,,5.60000000e-009,-4.24999807e-004
,,,5.62500000e-009,-3.99999805e-004
,,,5.65000000e-009,-4.04687305e-004
,,,5.67500000e-009,-4.31249807e-004
,,,5.70000000e-009,-4.78124810e-004
,,,5.72500000e-009,-5.37499815e-004
,,,5.75000000e-009,-6.06249819e-004
,,,5.77500000e-009,-6.76562324e-004
,,,5.80000000e-009,-7.43749829e-004
,,,5.82500000e-009,-7.99999833e-004
