RawData/SinglePhotoelectron/L2_2pt2C_5mV/wave023_Ch3.csv

"Record Length",1000,"Points",-7.72500000e-009,-1.02343897e-004
"Sample Interval",2.50000000e-011,s,-7.70000000e-009,-1.05468897e-004
"Trigger Point",309,"Samples",-7.67500000e-009,-1.05468897e-004
"Trigger Time",2.04072832e-011,s,-7.65000000e-009,-1.00000147e-004
"",,,-7.62500000e-009,-8.82813959e-005
"Horizontal Offset",-7.72500000e-009,s,-7.60000000e-009,-7.03126447e-005
,,,-7.57500000e-009,-4.60938930e-005
,,,-7.55000000e-009,-1.87501410e-005
,,,-7.52500000e-009,1.24998612e-005
,,,-7.50000000e-009,4.37498634e-005
,,,-7.47500000e-009,7.34373655e-005
,,,-7.45000000e-009,9.99998674e-005
,,,-7.42500000e-009,1.18749869e-004
,,,-7.40000000e-009,1.30468620e-004
,,,-7.37500000e-009,1.36718620e-004
,,,-7.35000000e-009,1.36718620e-004
,,,-7.32500000e-009,1.32031120e-004
,,,-7.30000000e-009,1.23437369e-004
,,,-7.27500000e-009,1.12499868e-004
,,,-7.25000000e-009,9.99998674e-005
,,,-7.22500000e-009,8.67186164e-005
,,,-7.20000000e-009,7.49998656e-005
,,,-7.17500000e-009,6.71873651e-005
,,,-7.15000000e-009,6.40623648e-005
,,,-7.12500000e-009,6.64061150e-005
,,,-7.10000000e-009,7.34373655e-005
,,,-7.07500000e-009,8.51561163e-005
,,,-7.05000000e-009,9.99998674e-005
,,,-7.02500000e-009,1.14843618e-004
,,,-7.00000000e-009,1.28906119e-004
,,,-6.97500000e-009,1.40624870e-004
,,,-6.95000000e-009,1.48437371e-004
,,,-6.92500000e-009,1.49218621e-004
,,,-6.90000000e-009,1.42968620e-004
,,,-6.87500000e-009,1.26562369e-004
,,,-6.85000000e-009,9.99998674e-005
,,,-6.82500000e-009,6.40623648e-005
,,,-6.80000000e-009,1.87498616e-005
,,,-6.77500000e-009,-3.20313920e-005
,,,-6.75000000e-009,-8.75001459e-005
,,,-6.72500000e-009,-1.44531400e-004
,,,-6.70000000e-009,-2.00781404e-004
,,,-6.67500000e-009,-2.53125158e-004
,,,-6.65000000e-009,-3.00000161e-004
,,,-6.62500000e-009,-3.34375163e-004
,,,-6.60000000e-009,-3.59375165e-004
,,,-6.57500000e-009,-3.72656416e-004
,,,-6.55000000e-009,-3.75781416e-004
,,,-6.52500000e-009,-3.67968916e-004
,,,-6.50000000e-009,-3.52343915e-004
,,,-6.47500000e-009,-3.28906413e-004
,,,-6.45000000e-009,-3.00000161e-004
,,,-6.42500000e-009,-2.64843908e-004
,,,-6.40000000e-009,-2.30468906e-004
,,,-6.37500000e-009,-1.96875154e-004
,,,-6.35000000e-009,-1.67187652e-004
,,,-6.32500000e-009,-1.41406400e-004
,,,-6.30000000e-009,-1.21875148e-004
,,,-6.27500000e-009,-1.07812647e-004
,,,-6.25000000e-009,-1.00000147e-004
,,,-6.22500000e-009,-9.45313964e-005
,,,-6.20000000e-009,-9.45313964e-005
,,,-6.17500000e-009,-9.68751466e-005
,,,-6.15000000e-009,-1.00781397e-004
,,,-6.12500000e-009,-1.03906397e-004
,,,-6.10000000e-009,-1.06250147e-004
,,,-6.07500000e-009,-1.05468897e-004
,,,-6.05000000e-009,-1.00000147e-004
,,,-6.02500000e-009,-8.75001459e-005
,,,-6.00000000e-009,-6.95313946e-005
,,,-5.97500000e-009,-4.76563931e-005
,,,-5.95000000e-009,-2.10938912e-005
,,,-5.92500000e-009,8.59361091e-006
,,,-5.90000000e-009,3.98436131e-005
,,,-5.87500000e-009,7.10936153e-005
,,,-5.85000000e-009,9.99998674e-005
,,,-5.82500000e-009,1.26562369e-004
,,,-5.80000000e-009,1.46093621e-004
,,,-5.77500000e-009,1.59374872e-004
,,,-5.75000000e-009,1.64062372e-004
,,,-5.72500000e-009,1.60937372e-004
,,,-5.70000000e-009,1.48437371e-004
,,,-5.67500000e-009,1.28124869e-004
,,,-5.65000000e-009,9.99998674e-005
,,,-5.62500000e-009,6.71873651e-005
,,,-5.60000000e-009,3.20311126e-005
,,,-5.57500000e-009,-3.12513992e-006
,,,-5.55000000e-009,-3.51563922e-005
,,,-5.52500000e-009,-6.32813942e-005
,,,-5.50000000e-009,-8.35938956e-005
,,,-5.47500000e-009,-9.60938965e-005
,,,-5.45000000e-009,-1.00000147e-004
,,,-5.42500000e-009,-9.37501463e-005
,,,-5.40000000e-009,-7.81251452e-005
,,,-5.37500000e-009,-5.54688936e-005
,,,-5.35000000e-009,-2.65626416e-005
,,,-5.32500000e-009,5.46861069e-006
,,,-5.30000000e-009,3.90623631e-005
,,,-5.27500000e-009,7.10936153e-005
,,,-5.25000000e-009,9.99998674e-005
,,,-5.22500000e-009,1.23437369e-004
,,,-5.20000000e-009,1.39062370e-004
,,,-5.17500000e-009,1.47656121e-004
,,,-5.15000000e-009,1.49218621e-004
,,,-5.12500000e-009,1.43749870e-004
,,,-5.10000000e-009,1.32812370e-004
,,,-5.07500000e-009,1.17968619e-004
,,,-5.05000000e-009,9.99998674e-005
,,,-5.02500000e-009,8.28123662e-005
,,,-5.00000000e-009,6.79686151e-005
,,,-4.97500000e-009,5.70311143e-005
,,,-4.95000000e-009,5.15623640e-005
,,,-4.92500000e-009,5.31248641e-005
,,,-4.90000000e-009,6.17186147e-005
,,,-4.87500000e-009,7.73436158e-005
,,,-4.85000000e-009,9.99998674e-005
,,,-4.82500000e-009,1.29687369e-004
,,,-4.80000000e-009,1.61718622e-004
,,,-4.77500000e-009,1.95312374e-004
,,,-4.75000000e-009,2.27343626e-004
,,,-4.72500000e-009,2.56249878e-004
,,,-4.70000000e-009,2.78906130e-004
,,,-4.67500000e-009,2.94531131e-004
,,,-4.65000000e-009,2.99999882e-004
,,,-4.62500000e-009,2.95312381e-004
,,,-4.60000000e-009,2.80468630e-004
,,,-4.57500000e-009,2.57812379e-004
,,,-4.55000000e-009,2.29687377e-004
,,,-4.52500000e-009,1.96874874e-004
,,,-4.50000000e-009,1.63281122e-004
,,,-4.47500000e-009,1.30468620e-004
,,,-4.45000000e-009,9.99998674e-005
,,,-4.42500000e-009,7.65623657e-005
,,,-4.40000000e-009,5.93748645e-005
,,,-4.37500000e-009,4.99998638e-005
,,,-4.35000000e-009,4.84373637e-005
,,,-4.32500000e-009,5.31248641e-005
,,,-4.30000000e-009,6.48436149e-005
,,,-4.27500000e-009,8.04686160e-005
,,,-4.25000000e-009,9.99998674e-005
,,,-4.22500000e-009,1.23437369e-004
,,,-4.20000000e-009,1.48437371e-004
,,,-4.17500000e-009,1.74218623e-004
,,,-4.15000000e-009,1.99999874e-004
,,,-4.12500000e-009,2.26562376e-004
,,,-4.10000000e-009,2.52343628e-004
,,,-4.07500000e-009,2.77343630e-004
,,,-4.05000000e-009,2.99999882e-004
,,,-4.02500000e-009,3.20312383e-004
,,,-4.00000000e-009,3.35937384e-004
,,,-3.97500000e-009,3.47656135e-004
,,,-3.95000000e-009,3.52343635e-004
,,,-3.92500000e-009,3.50781135e-004
,,,-3.90000000e-009,3.41406134e-004
,,,-3.87500000e-009,3.24218633e-004
,,,-3.85000000e-009,2.99999882e-004
,,,-3.82500000e-009,2.68749879e-004
,,,-3.80000000e-009,2.33593627e-004
,,,-3.77500000e-009,1.98437374e-004
,,,-3.75000000e-009,1.64843622e-004
,,,-3.72500000e-009,1.35937370e-004
,,,-3.70000000e-009,1.14062368e-004
,,,-3.67500000e-009,1.02343618e-004
,,,-3.65000000e-009,9.99998674e-005
,,,-3.62500000e-009,1.08593618e-004
,,,-3.60000000e-009,1.26562369e-004
,,,-3.57500000e-009,1.51562371e-004
,,,-3.55000000e-009,1.81249873e-004
,,,-3.52500000e-009,2.14062375e-004
,,,-3.50000000e-009,2.46093628e-004
,,,-3.47500000e-009,2.75781130e-004
,,,-3.45000000e-009,2.99999882e-004
,,,-3.42500000e-009,3.17187383e-004
,,,-3.40000000e-009,3.26562383e-004
,,,-3.37500000e-009,3.30468634e-004
,,,-3.35000000e-009,3.28124884e-004
,,,-3.32500000e-009,3.22656133e-004
,,,-3.30000000e-009,3.15624883e-004
,,,-3.27500000e-009,3.07031132e-004
,,,-3.25000000e-009,2.99999882e-004
,,,-3.22500000e-009,2.92187381e-004
,,,-3.20000000e-009,2.86718631e-004
,,,-3.17500000e-009,2.84374880e-004
,,,-3.15000000e-009,2.85156130e-004
,,,-3.12500000e-009,2.88281131e-004
,,,-3.10000000e-009,2.92968631e-004
,,,-3.07500000e-009,2.97656131e-004
,,,-3.05000000e-009,2.99999882e-004
,,,-3.02500000e-009,2.97656131e-004
,,,-3.00000000e-009,2.89062381e-004
,,,-2.97500000e-009,2.74218630e-004
,,,-2.95000000e-009,2.52343628e-004
,,,-2.92500000e-009,2.23437376e-004
,,,-2.90000000e-009,1.87499874e-004
,,,-2.87500000e-009,1.46093621e-004
,,,-2.85000000e-009,9.99998674e-005
,,,-2.82500000e-009,5.31248641e-005
,,,-2.80000000e-009,6.24986074e-006
,,,-2.77500000e-009,-3.59376422e-005
,,,-2.75000000e-009,-7.10938947e-005
,,,-2.72500000e-009,-9.68751466e-005
,,,-2.70000000e-009,-1.10937648e-004
,,,-2.67500000e-009,-1.11718898e-004
,,,-2.65000000e-009,-1.00000147e-004
,,,-2.62500000e-009,-7.65626451e-005
,,,-2.60000000e-009,-4.45313929e-005
,,,-2.57500000e-009,-8.59389031e-006
,,,-2.55000000e-009,2.89061123e-005
,,,-2.52500000e-009,6.17186147e-005
,,,-2.50000000e-009,8.67186164e-005
,,,-2.47500000e-009,1.00781117e-004
,,,-2.45000000e-009,9.99998674e-005
,,,-2.42500000e-009,8.43748663e-005
,,,-2.40000000e-009,5.31248641e-005
,,,-2.37500000e-009,7.81236085e-006
,,,-2.35000000e-009,-4.84376431e-005
,,,-2.32500000e-009,-1.10937648e-004
,,,-2.30000000e-009,-1.77343902e-004
,,,-2.27500000e-009,-2.41406407e-004
,,,-2.25000000e-009,-3.00000161e-004
,,,-2.22500000e-009,-3.45312664e-004
,,,-2.20000000e-009,-3.78906417e-004
,,,-2.17500000e-009,-3.98437668e-004
,,,-2.15000000e-009,-4.03906418e-004
,,,-2.12500000e-009,-3.94531418e-004
,,,-2.10000000e-009,-3.72656416e-004
,,,-2.07500000e-009,-3.40625164e-004
,,,-2.05000000e-009,-3.00000161e-004
,,,-2.02500000e-009,-2.50781407e-004
,,,-2.00000000e-009,-2.01562654e-004
,,,-1.97500000e-009,-1.57031401e-004
,,,-1.95000000e-009,-1.21093898e-004
,,,-1.92500000e-009,-9.53126464e-005
,,,-1.90000000e-009,-8.28126456e-005
,,,-1.87500000e-009,-8.43751457e-005
,,,-1.85000000e-009,-1.00000147e-004
,,,-1.82500000e-009,-1.26562649e-004
,,,-1.80000000e-009,-1.60937651e-004
,,,-1.77500000e-009,-2.00781404e-004
,,,-1.75000000e-009,-2.39062657e-004
,,,-1.72500000e-009,-2.71875159e-004
,,,-1.70000000e-009,-2.94531411e-004
,,,-1.67500000e-009,-3.04687661e-004
,,,-1.65000000e-009,-3.00000161e-004
,,,-1.62500000e-009,-2.81250160e-004
,,,-1.60000000e-009,-2.51562658e-004
,,,-1.57500000e-009,-2.14843905e-004
,,,-1.55000000e-009,-1.75781402e-004
,,,-1.52500000e-009,-1.40625150e-004
,,,-1.50000000e-009,-1.13281398e-004
,,,-1.47500000e-009,-9.92188967e-005
,,,-1.45000000e-009,-1.00000147e-004
,,,-1.42500000e-009,-1.17968898e-004
,,,-1.40000000e-009,-1.50000150e-004
,,,-1.37500000e-009,-1.90625153e-004
,,,-1.35000000e-009,-2.33593906e-004
,,,-1.32500000e-009,-2.71875159e-004
,,,-1.30000000e-009,-2.99218911e-004
,,,-1.27500000e-009,-3.09375162e-004
,,,-1.25000000e-009,-3.00000161e-004
,,,-1.22500000e-009,-2.78906409e-004
,,,-1.20000000e-009,-2.41406407e-004
,,,-1.17500000e-009,-1.88281403e-004
,,,-1.15000000e-009,-1.25781399e-004
,,,-1.12500000e-009,-5.93751439e-005
,,,-1.10000000e-009,4.68736063e-006
,,,-1.07500000e-009,5.93748645e-005
,,,-1.05000000e-009,9.99998674e-005
,,,-1.02500000e-009,9.76561172e-005
,,,-1.00000000e-009,7.10936153e-005
,,,-9.75000000e-010,2.49998621e-005
,,,-9.50000000e-010,-3.59376422e-005
,,,-9.25000000e-010,-1.05468897e-004
,,,-9.00000000e-010,-1.76562652e-004
,,,-8.75000000e-010,-2.42968907e-004
,,,-8.50000000e-010,-3.00000161e-004
,,,-8.25000000e-010,-3.75781416e-004
,,,-8.00000000e-010,-4.40625171e-004
,,,-7.75000000e-010,-4.91406424e-004
,,,-7.50000000e-010,-5.25000177e-004
,,,-7.25000000e-010,-5.40625178e-004
,,,-7.00000000e-010,-5.39843928e-004
,,,-6.75000000e-010,-5.24218927e-004
,,,-6.50000000e-010,-5.00000175e-004
,,,-6.25000000e-010,-5.20312677e-004
,,,-6.00000000e-010,-5.49218929e-004
,,,-5.75000000e-010,-5.87500181e-004
,,,-5.50000000e-010,-6.35156435e-004
,,,-5.25000000e-010,-6.89843939e-004
,,,-5.00000000e-010,-7.51562693e-004
,,,-4.75000000e-010,-8.21093948e-004
,,,-4.50000000e-010,-9.00000203e-004
,,,-4.25000000e-010,-1.04531271e-003
,,,-4.00000000e-010,-1.21250023e-003
,,,-3.75000000e-010,-1.39921899e-003
,,,-3.50000000e-010,-1.60234400e-003
,,,-3.25000000e-010,-1.81640652e-003
,,,-3.00000000e-010,-2.03906278e-003
,,,-2.75000000e-010,-2.26718780e-003
,,,-2.50000000e-010,-2.50000032e-003
,,,-2.25000000e-010,-2.77812534e-003
,,,-2.00000000e-010,-3.06484411e-003
,,,-1.75000000e-010,-3.35390663e-003
,,,-1.50000000e-010,-3.64140665e-003
,,,-1.25000000e-010,-3.92187542e-003
,,,-1.00000000e-010,-4.19140669e-003
,,,-7.50000000e-011,-4.45000045e-003
,,,-5.00000000e-011,-4.70000047e-003
,,,-2.50000000e-011,-4.96093799e-003
,,,0.00000000e+000,-5.23125051e-003
,,,2.50000000e-011,-5.51640678e-003
,,,5.00000000e-011,-5.82109430e-003
,,,7.50000000e-011,-6.14921932e-003
,,,1.00000000e-010,-6.50468810e-003
,,,1.25000000e-010,-6.88750063e-003
,,,1.50000000e-010,-7.30000066e-003
,,,1.75000000e-010,-7.72109444e-003
,,,2.00000000e-010,-8.16718822e-003
,,,2.25000000e-010,-8.63203200e-003
,,,2.50000000e-010,-9.10625078e-003
,,,2.75000000e-010,-9.58046957e-003
,,,3.00000000e-010,-1.00437509e-002
,,,3.25000000e-010,-1.04867196e-002
,,,3.50000000e-010,-1.09000009e-002
,,,3.75000000e-010,-1.12203134e-002
,,,4.00000000e-010,-1.15101572e-002
,,,4.25000000e-010,-1.17742197e-002
,,,4.50000000e-010,-1.20187510e-002
,,,4.75000000e-010,-1.22492198e-002
,,,5.00000000e-010,-1.24710948e-002
,,,5.25000000e-010,-1.26875010e-002
,,,5.50000000e-010,-1.29000011e-002
,,,5.75000000e-010,-1.30226573e-002
,,,6.00000000e-010,-1.31453136e-002
,,,6.25000000e-010,-1.32679698e-002
,,,6.50000000e-010,-1.33875011e-002
,,,6.75000000e-010,-1.34984386e-002
,,,7.00000000e-010,-1.35929699e-002
,,,7.25000000e-010,-1.36632824e-002
,,,7.50000000e-010,-1.37000011e-002
,,,7.75000000e-010,-1.36078136e-002
,,,8.00000000e-010,-1.34812511e-002
,,,8.25000000e-010,-1.33265636e-002
,,,8.50000000e-010,-1.31484386e-002
,,,8.75000000e-010,-1.29515636e-002
,,,9.00000000e-010,-1.27429698e-002
,,,9.25000000e-010,-1.25250010e-002
,,,9.50000000e-010,-1.23000010e-002
,,,9.75000000e-010,-1.19976572e-002
,,,1.00000000e-009,-1.16984385e-002
,,,1.02500000e-009,-1.14085947e-002
,,,1.05000000e-009,-1.11289072e-002
,,,1.07500000e-009,-1.08609384e-002
,,,1.10000000e-009,-1.06015634e-002
,,,1.12500000e-009,-1.03492196e-002
,,,1.15000000e-009,-1.01000009e-002
,,,1.17500000e-009,-9.80078208e-003
,,,1.20000000e-009,-9.50000081e-003
,,,1.22500000e-009,-9.19765704e-003
,,,1.25000000e-009,-8.89453202e-003
,,,1.27500000e-009,-8.59218825e-003
,,,1.30000000e-009,-8.29140698e-003
,,,1.32500000e-009,-7.99375071e-003
,,,1.35000000e-009,-7.70000068e-003
,,,1.37500000e-009,-7.39765691e-003
,,,1.40000000e-009,-7.09765689e-003
,,,1.42500000e-009,-6.80156312e-003
,,,1.45000000e-009,-6.51406310e-003
,,,1.47500000e-009,-6.23750058e-003
,,,1.50000000e-009,-5.97421931e-003
,,,1.52500000e-009,-5.72812555e-003
,,,1.55000000e-009,-5.50000053e-003
,,,1.57500000e-009,-5.30234427e-003
,,,1.60000000e-009,-5.11328175e-003
,,,1.62500000e-009,-4.93046924e-003
,,,1.65000000e-009,-4.75390673e-003
,,,1.67500000e-009,-4.58203171e-003
,,,1.70000000e-009,-4.41640670e-003
,,,1.72500000e-009,-4.25546919e-003
,,,1.75000000e-009,-4.10000043e-003
,,,1.77500000e-009,-3.97500042e-003
,,,1.80000000e-009,-3.84062541e-003
,,,1.82500000e-009,-3.69687540e-003
,,,1.85000000e-009,-3.54375039e-003
,,,1.87500000e-009,-3.38281288e-003
,,,1.90000000e-009,-3.21953162e-003
,,,1.92500000e-009,-3.05703161e-003
,,,1.95000000e-009,-2.90000034e-003
,,,1.97500000e-009,-2.78046909e-003
,,,2.00000000e-009,-2.66171908e-003
,,,2.02500000e-009,-2.54453157e-003
,,,2.05000000e-009,-2.43203156e-003
,,,2.07500000e-009,-2.32812530e-003
,,,2.10000000e-009,-2.23593780e-003
,,,2.12500000e-009,-2.15937529e-003
,,,2.15000000e-009,-2.10000029e-003
,,,2.17500000e-009,-2.08515654e-003
,,,2.20000000e-009,-2.07812529e-003
,,,2.22500000e-009,-2.07578154e-003
,,,2.25000000e-009,-2.07734404e-003
,,,2.27500000e-009,-2.08046904e-003
,,,2.30000000e-009,-2.08515654e-003
,,,2.32500000e-009,-2.09218779e-003
,,,2.35000000e-009,-2.10000029e-003
,,,2.37500000e-009,-2.12343779e-003
,,,2.40000000e-009,-2.13828154e-003
,,,2.42500000e-009,-2.14453154e-003
,,,2.45000000e-009,-2.14296904e-003
,,,2.47500000e-009,-2.13593779e-003
,,,2.50000000e-009,-2.12500029e-003
,,,2.52500000e-009,-2.11250029e-003
,,,2.55000000e-009,-2.10000029e-003
,,,2.57500000e-009,-2.09453154e-003
,,,2.60000000e-009,-2.08437529e-003
,,,2.62500000e-009,-2.06875029e-003
,,,2.65000000e-009,-2.04687528e-003
,,,2.67500000e-009,-2.01953153e-003
,,,2.70000000e-009,-1.98515653e-003
,,,2.72500000e-009,-1.94531278e-003
,,,2.75000000e-009,-1.90000027e-003
,,,2.77500000e-009,-1.85078152e-003
,,,2.80000000e-009,-1.79609402e-003
,,,2.82500000e-009,-1.73750026e-003
,,,2.85000000e-009,-1.67890651e-003
,,,2.87500000e-009,-1.62343775e-003
,,,2.90000000e-009,-1.57343775e-003
,,,2.92500000e-009,-1.53203150e-003
,,,2.95000000e-009,-1.50000025e-003
,,,2.97500000e-009,-1.47500024e-003
,,,3.00000000e-009,-1.45546899e-003
,,,3.02500000e-009,-1.43828149e-003
,,,3.05000000e-009,-1.42109399e-003
,,,3.07500000e-009,-1.40078149e-003
,,,3.10000000e-009,-1.37421899e-003
,,,3.12500000e-009,-1.34140648e-003
,,,3.15000000e-009,-1.30000023e-003
,,,3.17500000e-009,-1.24687523e-003
,,,3.20000000e-009,-1.18671897e-003
,,,3.22500000e-009,-1.12343772e-003
,,,3.25000000e-009,-1.06015646e-003
,,,3.27500000e-009,-1.00234396e-003
,,,3.30000000e-009,-9.54687707e-004
,,,3.32500000e-009,-9.19531455e-004
,,,3.35000000e-009,-9.00000203e-004
,,,3.37500000e-009,-8.93750203e-004
,,,3.40000000e-009,-8.98437703e-004
,,,3.42500000e-009,-9.09375204e-004
,,,3.45000000e-009,-9.22656455e-004
,,,3.47500000e-009,-9.32812706e-004
,,,3.50000000e-009,-9.35156456e-004
,,,3.52500000e-009,-9.25000205e-004
,,,3.55000000e-009,-9.00000203e-004
,,,3.57500000e-009,-8.54687700e-004
,,,3.60000000e-009,-7.92187696e-004
,,,3.62500000e-009,-7.14843940e-004
,,,3.65000000e-009,-6.28125184e-004
,,,3.67500000e-009,-5.37500178e-004
,,,3.70000000e-009,-4.48437671e-004
,,,3.72500000e-009,-3.67968916e-004
,,,3.75000000e-009,-3.00000161e-004
,,,3.77500000e-009,-2.49218907e-004
,,,3.80000000e-009,-2.11718905e-004
,,,3.82500000e-009,-1.85156403e-004
,,,3.85000000e-009,-1.66406401e-004
,,,3.87500000e-009,-1.51562650e-004
,,,3.90000000e-009,-1.38281399e-004
,,,3.92500000e-009,-1.21093898e-004
,,,3.95000000e-009,-1.00000147e-004
,,,3.97500000e-009,-7.57813951e-005
,,,4.00000000e-009,-4.53126429e-005
,,,4.02500000e-009,-1.01563904e-005
,,,4.05000000e-009,2.57811121e-005
,,,4.07500000e-009,5.85936144e-005
,,,4.10000000e-009,8.35936162e-005
,,,4.12500000e-009,9.76561172e-005
,,,4.15000000e-009,9.99998674e-005
,,,4.17500000e-009,8.74998665e-005
,,,4.20000000e-009,6.79686151e-005
,,,4.22500000e-009,4.68748636e-005
,,,4.25000000e-009,2.96873624e-005
,,,4.27500000e-009,2.18748618e-005
,,,4.30000000e-009,2.89061123e-005
,,,4.32500000e-009,5.39061141e-005
,,,4.35000000e-009,9.99998674e-005
,,,4.37500000e-009,1.63281122e-004
,,,4.40000000e-009,2.42968627e-004
,,,4.42500000e-009,3.34374884e-004
,,,4.45000000e-009,4.30468641e-004
,,,4.47500000e-009,5.21874897e-004
,,,4.50000000e-009,6.02343653e-004
,,,4.52500000e-009,6.63281157e-004
,,,4.55000000e-009,6.99999910e-004
,,,4.57500000e-009,7.02343660e-004
,,,4.60000000e-009,6.78906158e-004
,,,4.62500000e-009,6.33593655e-004
,,,4.65000000e-009,5.72656151e-004
,,,4.67500000e-009,5.02343646e-004
,,,4.70000000e-009,4.28906141e-004
,,,4.72500000e-009,3.60156136e-004
,,,4.75000000e-009,2.99999882e-004
,,,4.77500000e-009,2.52343628e-004
,,,4.80000000e-009,2.21093626e-004
,,,4.82500000e-009,2.07812375e-004
,,,4.85000000e-009,2.10156125e-004
,,,4.87500000e-009,2.24218626e-004
,,,4.90000000e-009,2.46874878e-004
,,,4.92500000e-009,2.74218630e-004
,,,4.95000000e-009,2.99999882e-004
,,,4.97500000e-009,3.20312383e-004
,,,5.00000000e-009,3.34374884e-004
,,,5.02500000e-009,3.41406134e-004
,,,5.05000000e-009,3.41406134e-004
,,,5.07500000e-009,3.35937384e-004
,,,5.10000000e-009,3.25781133e-004
,,,5.12500000e-009,3.13281132e-004
,,,5.15000000e-009,2.99999882e-004
,,,5.17500000e-009,2.88281131e-004
,,,5.20000000e-009,2.78906130e-004
,,,5.22500000e-009,2.74218630e-004
,,,5.25000000e-009,2.73437380e-004
,,,5.27500000e-009,2.75781130e-004
,,,5.30000000e-009,2.82031130e-004
,,,5.32500000e-009,2.90624881e-004
,,,5.35000000e-009,2.99999882e-004
,,,5.37500000e-009,3.09374882e-004
,,,5.40000000e-009,3.17187383e-004
,,,5.42500000e-009,3.23437383e-004
,,,5.45000000e-009,3.26562383e-004
,,,5.47500000e-009,3.26562383e-004
,,,5.50000000e-009,3.22656133e-004
,,,5.52500000e-009,3.14062383e-004
,,,5.55000000e-009,2.99999882e-004
,,,5.57500000e-009,2.85156130e-004
,,,5.60000000e-009,2.65624879e-004
,,,5.62500000e-009,2.42187377e-004
,,,5.65000000e-009,2.15624876e-004
,,,5.67500000e-009,1.87499874e-004
,,,5.70000000e-009,1.57812371e-004
,,,5.72500000e-009,1.28124869e-004
,,,5.75000000e-009,9.99998674e-005
,,,5.77500000e-009,7.89061159e-005
,,,5.80000000e-009,6.24998647e-005
,,,5.82500000e-009,5.23436140e-005
,,,5.85000000e-009,4.84373637e-005
,,,5.87500000e-009,5.15623640e-005
,,,5.90000000e-009,6.17186147e-005
,,,5.92500000e-009,7.81248658e-005
,,,5.95000000e-009,9.99998674e-005
,,,5.97500000e-009,1.29687369e-004
