RawData/SinglePhotoelectron/L2_2pt2C_5mV/wave016_Ch3.csv

"Record Length",1000,"Points",-7.72500000e-009,-8.35938956e-005
"Sample Interval",2.50000000e-011,s,-7.70000000e-009,-1.25001406e-005
"Trigger Point",309,"Samples",-7.67500000e-009,4.60936136e-005
"Trigger Time",1.60200000e-011,s,-7.65000000e-009,8.59373664e-005
"",,,-7.62500000e-009,9.99998674e-005
"Horizontal Offset",-7.72500000e-009,s,-7.60000000e-009,8.59373664e-005
,,,-7.57500000e-009,4.60936136e-005
,,,-7.55000000e-009,-1.25001406e-005
,,,-7.52500000e-009,-8.35938956e-005
,,,-7.50000000e-009,-1.56250151e-004
,,,-7.47500000e-009,-2.21875155e-004
,,,-7.45000000e-009,-2.71875159e-004
,,,-7.42500000e-009,-3.00000161e-004
,,,-7.40000000e-009,-2.98437661e-004
,,,-7.37500000e-009,-2.71093909e-004
,,,-7.35000000e-009,-2.21093905e-004
,,,-7.32500000e-009,-1.56250151e-004
,,,-7.30000000e-009,-8.28126456e-005
,,,-7.27500000e-009,-1.09376405e-005
,,,-7.25000000e-009,5.31248641e-005
,,,-7.22500000e-009,9.99998674e-005
,,,-7.20000000e-009,1.26562369e-004
,,,-7.17500000e-009,1.31249870e-004
,,,-7.15000000e-009,1.15624868e-004
,,,-7.12500000e-009,8.35936162e-005
,,,-7.10000000e-009,3.98436131e-005
,,,-7.07500000e-009,-9.37514036e-006
,,,-7.05000000e-009,-5.78126438e-005
,,,-7.02500000e-009,-1.00000147e-004
,,,-7.00000000e-009,-1.32031399e-004
,,,-6.97500000e-009,-1.51562650e-004
,,,-6.95000000e-009,-1.60156401e-004
,,,-6.92500000e-009,-1.57812651e-004
,,,-6.90000000e-009,-1.46875150e-004
,,,-6.87500000e-009,-1.32031399e-004
,,,-6.85000000e-009,-1.14843898e-004
,,,-6.82500000e-009,-1.00000147e-004
,,,-6.80000000e-009,-9.14063962e-005
,,,-6.77500000e-009,-8.82813959e-005
,,,-6.75000000e-009,-8.98438961e-005
,,,-6.72500000e-009,-9.45313964e-005
,,,-6.70000000e-009,-1.00000147e-004
,,,-6.67500000e-009,-1.03906397e-004
,,,-6.65000000e-009,-1.04687647e-004
,,,-6.62500000e-009,-1.00000147e-004
,,,-6.60000000e-009,-8.98438961e-005
,,,-6.57500000e-009,-7.42188950e-005
,,,-6.55000000e-009,-5.31251435e-005
,,,-6.52500000e-009,-2.65626416e-005
,,,-6.50000000e-009,3.90611058e-006
,,,-6.47500000e-009,3.67186129e-005
,,,-6.45000000e-009,6.95311152e-005
,,,-6.42500000e-009,9.99998674e-005
,,,-6.40000000e-009,1.21874869e-004
,,,-6.37500000e-009,1.38281120e-004
,,,-6.35000000e-009,1.47656121e-004
,,,-6.32500000e-009,1.51562371e-004
,,,-6.30000000e-009,1.48437371e-004
,,,-6.27500000e-009,1.38281120e-004
,,,-6.25000000e-009,1.22656119e-004
,,,-6.22500000e-009,9.99998674e-005
,,,-6.20000000e-009,6.79686151e-005
,,,-6.17500000e-009,2.96873624e-005
,,,-6.15000000e-009,-1.48438907e-005
,,,-6.12500000e-009,-6.40626442e-005
,,,-6.10000000e-009,-1.17968898e-004
,,,-6.07500000e-009,-1.75781402e-004
,,,-6.05000000e-009,-2.36718906e-004
,,,-6.02500000e-009,-3.00000161e-004
,,,-6.00000000e-009,-3.64062665e-004
,,,-5.97500000e-009,-4.26562670e-004
,,,-5.95000000e-009,-4.87500174e-004
,,,-5.92500000e-009,-5.42968928e-004
,,,-5.90000000e-009,-5.92968932e-004
,,,-5.87500000e-009,-6.36718935e-004
,,,-5.85000000e-009,-6.72656437e-004
,,,-5.82500000e-009,-7.00000189e-004
,,,-5.80000000e-009,-7.16406440e-004
,,,-5.77500000e-009,-7.25000191e-004
,,,-5.75000000e-009,-7.28125191e-004
,,,-5.72500000e-009,-7.26562691e-004
,,,-5.70000000e-009,-7.21875191e-004
,,,-5.67500000e-009,-7.14843940e-004
,,,-5.65000000e-009,-7.07031440e-004
,,,-5.62500000e-009,-7.00000189e-004
,,,-5.60000000e-009,-6.91406439e-004
,,,-5.57500000e-009,-6.85937688e-004
,,,-5.55000000e-009,-6.83593938e-004
,,,-5.52500000e-009,-6.84375188e-004
,,,-5.50000000e-009,-6.86718938e-004
,,,-5.47500000e-009,-6.90625189e-004
,,,-5.45000000e-009,-6.95312689e-004
,,,-5.42500000e-009,-7.00000189e-004
,,,-5.40000000e-009,-7.00000189e-004
,,,-5.37500000e-009,-7.00781439e-004
,,,-5.35000000e-009,-7.01562689e-004
,,,-5.32500000e-009,-7.01562689e-004
,,,-5.30000000e-009,-7.00781439e-004
,,,-5.27500000e-009,-7.00781439e-004
,,,-5.25000000e-009,-7.00000189e-004
,,,-5.22500000e-009,-7.00000189e-004
,,,-5.20000000e-009,-6.95312689e-004
,,,-5.17500000e-009,-6.91406439e-004
,,,-5.15000000e-009,-6.89843939e-004
,,,-5.12500000e-009,-6.89062688e-004
,,,-5.10000000e-009,-6.90625189e-004
,,,-5.07500000e-009,-6.92968939e-004
,,,-5.05000000e-009,-6.96093939e-004
,,,-5.02500000e-009,-7.00000189e-004
,,,-5.00000000e-009,-7.00000189e-004
,,,-4.97500000e-009,-7.00000189e-004
,,,-4.95000000e-009,-7.00000189e-004
,,,-4.92500000e-009,-7.00781439e-004
,,,-4.90000000e-009,-7.00781439e-004
,,,-4.87500000e-009,-7.00000189e-004
,,,-4.85000000e-009,-7.00000189e-004
,,,-4.82500000e-009,-7.00000189e-004
,,,-4.80000000e-009,-6.96093939e-004
,,,-4.77500000e-009,-6.92968939e-004
,,,-4.75000000e-009,-6.90625189e-004
,,,-4.72500000e-009,-6.88281438e-004
,,,-4.70000000e-009,-6.88281438e-004
,,,-4.67500000e-009,-6.89843939e-004
,,,-4.65000000e-009,-6.93750189e-004
,,,-4.62500000e-009,-7.00000189e-004
,,,-4.60000000e-009,-7.03125189e-004
,,,-4.57500000e-009,-7.07031440e-004
,,,-4.55000000e-009,-7.10156440e-004
,,,-4.52500000e-009,-7.12500190e-004
,,,-4.50000000e-009,-7.13281440e-004
,,,-4.47500000e-009,-7.11718940e-004
,,,-4.45000000e-009,-7.07031440e-004
,,,-4.42500000e-009,-7.00000189e-004
,,,-4.40000000e-009,-6.85156438e-004
,,,-4.37500000e-009,-6.67187687e-004
,,,-4.35000000e-009,-6.44531435e-004
,,,-4.32500000e-009,-6.18750183e-004
,,,-4.30000000e-009,-5.91406432e-004
,,,-4.27500000e-009,-5.60937679e-004
,,,-4.25000000e-009,-5.30468927e-004
,,,-4.22500000e-009,-5.00000175e-004
,,,-4.20000000e-009,-4.67968923e-004
,,,-4.17500000e-009,-4.38281421e-004
,,,-4.15000000e-009,-4.09375169e-004
,,,-4.12500000e-009,-3.83593917e-004
,,,-4.10000000e-009,-3.59375165e-004
,,,-4.07500000e-009,-3.37500164e-004
,,,-4.05000000e-009,-3.17968912e-004
,,,-4.02500000e-009,-3.00000161e-004
,,,-4.00000000e-009,-2.83593910e-004
,,,-3.97500000e-009,-2.67187659e-004
,,,-3.95000000e-009,-2.48437657e-004
,,,-3.92500000e-009,-2.27343906e-004
,,,-3.90000000e-009,-2.01562654e-004
,,,-3.87500000e-009,-1.71875152e-004
,,,-3.85000000e-009,-1.37500149e-004
,,,-3.82500000e-009,-1.00000147e-004
,,,-3.80000000e-009,-6.25001441e-005
,,,-3.77500000e-009,-2.50001415e-005
,,,-3.75000000e-009,1.17186111e-005
,,,-3.72500000e-009,4.45311135e-005
,,,-3.70000000e-009,7.18748654e-005
,,,-3.67500000e-009,9.06248667e-005
,,,-3.65000000e-009,1.00781117e-004
,,,-3.62500000e-009,9.99998674e-005
,,,-3.60000000e-009,8.59373664e-005
,,,-3.57500000e-009,6.32811148e-005
,,,-3.55000000e-009,3.51561128e-005
,,,-3.52500000e-009,4.68736063e-006
,,,-3.50000000e-009,-2.73438916e-005
,,,-3.47500000e-009,-5.62501437e-005
,,,-3.45000000e-009,-8.12501454e-005
,,,-3.42500000e-009,-1.00000147e-004
,,,-3.40000000e-009,-1.13281398e-004
,,,-3.37500000e-009,-1.20312648e-004
,,,-3.35000000e-009,-1.19531398e-004
,,,-3.32500000e-009,-1.14843898e-004
,,,-3.30000000e-009,-1.07812647e-004
,,,-3.27500000e-009,-1.01562647e-004
,,,-3.25000000e-009,-9.76563966e-005
,,,-3.22500000e-009,-1.00000147e-004
,,,-3.20000000e-009,-1.10156397e-004
,,,-3.17500000e-009,-1.27343899e-004
,,,-3.15000000e-009,-1.50000150e-004
,,,-3.12500000e-009,-1.78125152e-004
,,,-3.10000000e-009,-2.08593904e-004
,,,-3.07500000e-009,-2.40625157e-004
,,,-3.05000000e-009,-2.71875159e-004
,,,-3.02500000e-009,-3.00000161e-004
,,,-3.00000000e-009,-3.22656413e-004
,,,-2.97500000e-009,-3.39062664e-004
,,,-2.95000000e-009,-3.48437664e-004
,,,-2.92500000e-009,-3.50781415e-004
,,,-2.90000000e-009,-3.46093914e-004
,,,-2.87500000e-009,-3.35937663e-004
,,,-2.85000000e-009,-3.19531412e-004
,,,-2.82500000e-009,-3.00000161e-004
,,,-2.80000000e-009,-2.74218909e-004
,,,-2.77500000e-009,-2.47656407e-004
,,,-2.75000000e-009,-2.20312655e-004
,,,-2.72500000e-009,-1.92968903e-004
,,,-2.70000000e-009,-1.66406401e-004
,,,-2.67500000e-009,-1.41406400e-004
,,,-2.65000000e-009,-1.19531398e-004
,,,-2.62500000e-009,-1.00000147e-004
,,,-2.60000000e-009,-8.35938956e-005
,,,-2.57500000e-009,-7.26563948e-005
,,,-2.55000000e-009,-6.56251443e-005
,,,-2.52500000e-009,-6.40626442e-005
,,,-2.50000000e-009,-6.64063944e-005
,,,-2.47500000e-009,-7.34376449e-005
,,,-2.45000000e-009,-8.43751457e-005
,,,-2.42500000e-009,-1.00000147e-004
,,,-2.40000000e-009,-1.18750148e-004
,,,-2.37500000e-009,-1.41406400e-004
,,,-2.35000000e-009,-1.65625151e-004
,,,-2.32500000e-009,-1.92187653e-004
,,,-2.30000000e-009,-2.19531405e-004
,,,-2.27500000e-009,-2.46875157e-004
,,,-2.25000000e-009,-2.74218909e-004
,,,-2.22500000e-009,-3.00000161e-004
,,,-2.20000000e-009,-3.21093912e-004
,,,-2.17500000e-009,-3.38281414e-004
,,,-2.15000000e-009,-3.50000164e-004
,,,-2.12500000e-009,-3.55468915e-004
,,,-2.10000000e-009,-3.53125165e-004
,,,-2.07500000e-009,-3.42968914e-004
,,,-2.05000000e-009,-3.25000163e-004
,,,-2.02500000e-009,-3.00000161e-004
,,,-2.00000000e-009,-2.67187659e-004
,,,-1.97500000e-009,-2.31250156e-004
,,,-1.95000000e-009,-1.94531403e-004
,,,-1.92500000e-009,-1.60156401e-004
,,,-1.90000000e-009,-1.31250149e-004
,,,-1.87500000e-009,-1.10937648e-004
,,,-1.85000000e-009,-9.92188967e-005
,,,-1.82500000e-009,-1.00000147e-004
,,,-1.80000000e-009,-1.10937648e-004
,,,-1.77500000e-009,-1.32031399e-004
,,,-1.75000000e-009,-1.60156401e-004
,,,-1.72500000e-009,-1.92187653e-004
,,,-1.70000000e-009,-2.24218906e-004
,,,-1.67500000e-009,-2.54687658e-004
,,,-1.65000000e-009,-2.80468910e-004
,,,-1.62500000e-009,-3.00000161e-004
,,,-1.60000000e-009,-3.10156412e-004
,,,-1.57500000e-009,-3.14062662e-004
,,,-1.55000000e-009,-3.12500162e-004
,,,-1.52500000e-009,-3.07031411e-004
,,,-1.50000000e-009,-3.01562661e-004
,,,-1.47500000e-009,-2.96875161e-004
,,,-1.45000000e-009,-2.96093911e-004
,,,-1.42500000e-009,-3.00000161e-004
,,,-1.40000000e-009,-3.10937662e-004
,,,-1.37500000e-009,-3.25000163e-004
,,,-1.35000000e-009,-3.40625164e-004
,,,-1.32500000e-009,-3.52343915e-004
,,,-1.30000000e-009,-3.57812665e-004
,,,-1.27500000e-009,-3.52343915e-004
,,,-1.25000000e-009,-3.32812663e-004
,,,-1.22500000e-009,-3.00000161e-004
,,,-1.20000000e-009,-2.63281408e-004
,,,-1.17500000e-009,-2.17968905e-004
,,,-1.15000000e-009,-1.64062651e-004
,,,-1.12500000e-009,-1.05468897e-004
,,,-1.10000000e-009,-4.60938930e-005
,,,-1.07500000e-009,1.01561110e-005
,,,-1.05000000e-009,6.01561146e-005
,,,-1.02500000e-009,9.99998674e-005
,,,-1.00000000e-009,1.01562367e-004
,,,-9.75000000e-010,8.74998665e-005
,,,-9.50000000e-010,5.93748645e-005
,,,-9.25000000e-010,2.42186120e-005
,,,-9.00000000e-010,-1.48438907e-005
,,,-8.75000000e-010,-5.07813933e-005
,,,-8.50000000e-010,-7.96876453e-005
,,,-8.25000000e-010,-1.00000147e-004
,,,-8.00000000e-010,-1.46093900e-004
,,,-7.75000000e-010,-1.87500153e-004
,,,-7.50000000e-010,-2.21875155e-004
,,,-7.25000000e-010,-2.49218907e-004
,,,-7.00000000e-010,-2.68750159e-004
,,,-6.75000000e-010,-2.81250160e-004
,,,-6.50000000e-010,-2.90625160e-004
,,,-6.25000000e-010,-3.00000161e-004
,,,-6.00000000e-010,-3.61718915e-004
,,,-5.75000000e-010,-4.38281421e-004
,,,-5.50000000e-010,-5.28125177e-004
,,,-5.25000000e-010,-6.28906434e-004
,,,-5.00000000e-010,-7.39062692e-004
,,,-4.75000000e-010,-8.54687700e-004
,,,-4.50000000e-010,-9.75000209e-004
,,,-4.25000000e-010,-1.10000022e-003
,,,-4.00000000e-010,-1.27656273e-003
,,,-3.75000000e-010,-1.46640649e-003
,,,-3.50000000e-010,-1.66484401e-003
,,,-3.25000000e-010,-1.86875027e-003
,,,-3.00000000e-010,-2.07578154e-003
,,,-2.75000000e-010,-2.28359405e-003
,,,-2.50000000e-010,-2.49140657e-003
,,,-2.25000000e-010,-2.70000033e-003
,,,-2.00000000e-010,-2.94218785e-003
,,,-1.75000000e-010,-3.19609412e-003
,,,-1.50000000e-010,-3.45937538e-003
,,,-1.25000000e-010,-3.73281290e-003
,,,-1.00000000e-010,-4.01328167e-003
,,,-7.50000000e-011,-4.30156294e-003
,,,-5.00000000e-011,-4.59687547e-003
,,,-2.50000000e-011,-4.90000049e-003
,,,0.00000000e+000,-5.21250051e-003
,,,2.50000000e-011,-5.53984428e-003
,,,5.00000000e-011,-5.87890681e-003
,,,7.50000000e-011,-6.23046933e-003
,,,1.00000000e-010,-6.59140686e-003
,,,1.25000000e-010,-6.95781313e-003
,,,1.50000000e-010,-7.32890691e-003
,,,1.75000000e-010,-7.70000068e-003
,,,2.00000000e-010,-8.03750071e-003
,,,2.25000000e-010,-8.37421948e-003
,,,2.50000000e-010,-8.70937576e-003
,,,2.75000000e-010,-9.04296953e-003
,,,3.00000000e-010,-9.37109455e-003
,,,3.25000000e-010,-9.69218833e-003
,,,3.50000000e-010,-1.00031258e-002
,,,3.75000000e-010,-1.03000009e-002
,,,4.00000000e-010,-1.05164071e-002
,,,4.25000000e-010,-1.07195321e-002
,,,4.50000000e-010,-1.09117197e-002
,,,4.75000000e-010,-1.10937509e-002
,,,5.00000000e-010,-1.12648447e-002
,,,5.25000000e-010,-1.14250009e-002
,,,5.50000000e-010,-1.15710947e-002
,,,5.75000000e-010,-1.17000010e-002
,,,6.00000000e-010,-1.17289072e-002
,,,6.25000000e-010,-1.17414072e-002
,,,6.50000000e-010,-1.17382822e-002
,,,6.75000000e-010,-1.17226572e-002
,,,7.00000000e-010,-1.16921885e-002
,,,7.25000000e-010,-1.16460947e-002
,,,7.50000000e-010,-1.15828135e-002
,,,7.75000000e-010,-1.15000010e-002
,,,8.00000000e-010,-1.13203134e-002
,,,8.25000000e-010,-1.11273447e-002
,,,8.50000000e-010,-1.09250009e-002
,,,8.75000000e-010,-1.07187509e-002
,,,9.00000000e-010,-1.05117196e-002
,,,9.25000000e-010,-1.03062509e-002
,,,9.50000000e-010,-1.01023446e-002
,,,9.75000000e-010,-9.90000084e-003
,,,1.00000000e-009,-9.64140707e-003
,,,1.02500000e-009,-9.38515705e-003
,,,1.05000000e-009,-9.13281329e-003
,,,1.07500000e-009,-8.88437577e-003
,,,1.10000000e-009,-8.63828200e-003
,,,1.12500000e-009,-8.39375073e-003
,,,1.15000000e-009,-8.14843822e-003
,,,1.17500000e-009,-7.90000070e-003
,,,1.20000000e-009,-7.61875068e-003
,,,1.22500000e-009,-7.33437566e-003
,,,1.25000000e-009,-7.04687564e-003
,,,1.27500000e-009,-6.76171937e-003
,,,1.30000000e-009,-6.48125060e-003
,,,1.32500000e-009,-6.20859433e-003
,,,1.35000000e-009,-5.94765681e-003
,,,1.37500000e-009,-5.70000054e-003
,,,1.40000000e-009,-5.46718803e-003
,,,1.42500000e-009,-5.24453176e-003
,,,1.45000000e-009,-5.03046925e-003
,,,1.47500000e-009,-4.82578173e-003
,,,1.50000000e-009,-4.63125047e-003
,,,1.52500000e-009,-4.44531295e-003
,,,1.55000000e-009,-4.26875044e-003
,,,1.57500000e-009,-4.10000043e-003
,,,1.60000000e-009,-3.95546917e-003
,,,1.62500000e-009,-3.80859416e-003
,,,1.65000000e-009,-3.65703165e-003
,,,1.67500000e-009,-3.50234414e-003
,,,1.70000000e-009,-3.34609413e-003
,,,1.72500000e-009,-3.19218787e-003
,,,1.75000000e-009,-3.04218786e-003
,,,1.77500000e-009,-2.90000034e-003
,,,1.80000000e-009,-2.79296909e-003
,,,1.82500000e-009,-2.68593783e-003
,,,1.85000000e-009,-2.57890657e-003
,,,1.87500000e-009,-2.47265656e-003
,,,1.90000000e-009,-2.36875031e-003
,,,1.92500000e-009,-2.27031280e-003
,,,1.95000000e-009,-2.17968779e-003
,,,1.97500000e-009,-2.10000029e-003
,,,2.00000000e-009,-2.05859404e-003
,,,2.02500000e-009,-2.02109403e-003
,,,2.05000000e-009,-1.98593778e-003
,,,2.07500000e-009,-1.95546903e-003
,,,2.10000000e-009,-1.93046903e-003
,,,2.12500000e-009,-1.91171903e-003
,,,2.15000000e-009,-1.90156277e-003
,,,2.17500000e-009,-1.90000027e-003
,,,2.20000000e-009,-1.92500028e-003
,,,2.22500000e-009,-1.94687528e-003
,,,2.25000000e-009,-1.96250028e-003
,,,2.27500000e-009,-1.96953153e-003
,,,2.30000000e-009,-1.96796903e-003
,,,2.32500000e-009,-1.95546903e-003
,,,2.35000000e-009,-1.93203153e-003
,,,2.37500000e-009,-1.90000027e-003
,,,2.40000000e-009,-1.87031277e-003
,,,2.42500000e-009,-1.82812527e-003
,,,2.45000000e-009,-1.77734402e-003
,,,2.47500000e-009,-1.71953151e-003
,,,2.50000000e-009,-1.65859401e-003
,,,2.52500000e-009,-1.59921900e-003
,,,2.55000000e-009,-1.54531275e-003
,,,2.57500000e-009,-1.50000025e-003
,,,2.60000000e-009,-1.47343774e-003
,,,2.62500000e-009,-1.45546899e-003
,,,2.65000000e-009,-1.44687524e-003
,,,2.67500000e-009,-1.44609399e-003
,,,2.70000000e-009,-1.45234399e-003
,,,2.72500000e-009,-1.46406274e-003
,,,2.75000000e-009,-1.48125024e-003
,,,2.77500000e-009,-1.50000025e-003
,,,2.80000000e-009,-1.51953150e-003
,,,2.82500000e-009,-1.53515650e-003
,,,2.85000000e-009,-1.54531275e-003
,,,2.87500000e-009,-1.54843775e-003
,,,2.90000000e-009,-1.54453150e-003
,,,2.92500000e-009,-1.53515650e-003
,,,2.95000000e-009,-1.51953150e-003
,,,2.97500000e-009,-1.50000025e-003
,,,3.00000000e-009,-1.47578149e-003
,,,3.02500000e-009,-1.44843774e-003
,,,3.05000000e-009,-1.41953149e-003
,,,3.07500000e-009,-1.39062524e-003
,,,3.10000000e-009,-1.36328149e-003
,,,3.12500000e-009,-1.33828148e-003
,,,3.15000000e-009,-1.31640648e-003
,,,3.17500000e-009,-1.30000023e-003
,,,3.20000000e-009,-1.28593773e-003
,,,3.22500000e-009,-1.27656273e-003
,,,3.25000000e-009,-1.27187523e-003
,,,3.27500000e-009,-1.27109398e-003
,,,3.30000000e-009,-1.27500023e-003
,,,3.32500000e-009,-1.28125023e-003
,,,3.35000000e-009,-1.29062523e-003
,,,3.37500000e-009,-1.30000023e-003
,,,3.40000000e-009,-1.30468773e-003
,,,3.42500000e-009,-1.30312523e-003
,,,3.45000000e-009,-1.29453148e-003
,,,3.47500000e-009,-1.27656273e-003
,,,3.50000000e-009,-1.24765648e-003
,,,3.52500000e-009,-1.20859398e-003
,,,3.55000000e-009,-1.15859397e-003
,,,3.57500000e-009,-1.10000022e-003
,,,3.60000000e-009,-1.03203146e-003
,,,3.62500000e-009,-9.61718958e-004
,,,3.65000000e-009,-8.92187703e-004
,,,3.67500000e-009,-8.28125198e-004
,,,3.70000000e-009,-7.73437694e-004
,,,3.72500000e-009,-7.32031442e-004
,,,3.75000000e-009,-7.07031440e-004
,,,3.77500000e-009,-7.00000189e-004
,,,3.80000000e-009,-7.10156440e-004
,,,3.82500000e-009,-7.33593942e-004
,,,3.85000000e-009,-7.65625194e-004
,,,3.87500000e-009,-8.03125197e-004
,,,3.90000000e-009,-8.39843949e-004
,,,3.92500000e-009,-8.71093951e-004
,,,3.95000000e-009,-8.92187703e-004
,,,3.97500000e-009,-9.00000203e-004
,,,4.00000000e-009,-8.89843953e-004
,,,4.02500000e-009,-8.62500201e-004
,,,4.05000000e-009,-8.19531448e-004
,,,4.07500000e-009,-7.64062694e-004
,,,4.10000000e-009,-6.99218939e-004
,,,4.12500000e-009,-6.31250184e-004
,,,4.15000000e-009,-5.63281430e-004
,,,4.17500000e-009,-5.00000175e-004
,,,4.20000000e-009,-4.45312671e-004
,,,4.22500000e-009,-4.00781418e-004
,,,4.25000000e-009,-3.64843916e-004
,,,4.27500000e-009,-3.39062664e-004
,,,4.30000000e-009,-3.21093912e-004
,,,4.32500000e-009,-3.09375162e-004
,,,4.35000000e-009,-3.03125161e-004
,,,4.37500000e-009,-3.00000161e-004
,,,4.40000000e-009,-3.00781411e-004
,,,4.42500000e-009,-3.00781411e-004
,,,4.45000000e-009,-3.00000161e-004
,,,4.47500000e-009,-2.98437661e-004
,,,4.50000000e-009,-2.96875161e-004
,,,4.52500000e-009,-2.96093911e-004
,,,4.55000000e-009,-2.96875161e-004
,,,4.57500000e-009,-3.00000161e-004
,,,4.60000000e-009,-3.07031411e-004
,,,4.62500000e-009,-3.15625162e-004
,,,4.65000000e-009,-3.22656413e-004
,,,4.67500000e-009,-3.27343913e-004
,,,4.70000000e-009,-3.28125163e-004
,,,4.72500000e-009,-3.24218913e-004
,,,4.75000000e-009,-3.14843912e-004
,,,4.77500000e-009,-3.00000161e-004
,,,4.80000000e-009,-2.78125159e-004
,,,4.82500000e-009,-2.51562658e-004
,,,4.85000000e-009,-2.21875155e-004
,,,4.87500000e-009,-1.91406403e-004
,,,4.90000000e-009,-1.61718901e-004
,,,4.92500000e-009,-1.35156399e-004
,,,4.95000000e-009,-1.14062648e-004
,,,4.97500000e-009,-1.00000147e-004
,,,5.00000000e-009,-9.45313964e-005
,,,5.02500000e-009,-9.45313964e-005
,,,5.05000000e-009,-9.84376467e-005
,,,5.07500000e-009,-1.03125147e-004
,,,5.10000000e-009,-1.07031397e-004
,,,5.12500000e-009,-1.08593897e-004
,,,5.15000000e-009,-1.06250147e-004
,,,5.17500000e-009,-1.00000147e-004
,,,5.20000000e-009,-9.06251461e-005
,,,5.22500000e-009,-7.96876453e-005
,,,5.25000000e-009,-6.79688945e-005
,,,5.27500000e-009,-5.93751439e-005
,,,5.30000000e-009,-5.62501437e-005
,,,5.32500000e-009,-6.09376440e-005
,,,5.35000000e-009,-7.50001450e-005
,,,5.37500000e-009,-1.00000147e-004
,,,5.40000000e-009,-1.33593899e-004
,,,5.42500000e-009,-1.74218902e-004
,,,5.45000000e-009,-2.15625155e-004
,,,5.47500000e-009,-2.55468908e-004
,,,5.50000000e-009,-2.86718910e-004
,,,5.52500000e-009,-3.07031411e-004
,,,5.55000000e-009,-3.11718912e-004
,,,5.57500000e-009,-3.00000161e-004
,,,5.60000000e-009,-2.67968909e-004
,,,5.62500000e-009,-2.21093905e-004
,,,5.65000000e-009,-1.63281401e-004
,,,5.67500000e-009,-1.00000147e-004
,,,5.70000000e-009,-3.59376422e-005
,,,5.72500000e-009,2.18748618e-005
,,,5.75000000e-009,6.87498652e-005
,,,5.77500000e-009,9.99998674e-005
,,,5.80000000e-009,1.12499868e-004
,,,5.82500000e-009,1.07812368e-004
,,,5.85000000e-009,8.74998665e-005
