RawData/SinglePhotoelectron/L2_2pt2C_5mV/wave015_Ch3.csv

"Record Length",1000,"Points",-7.72500000e-009,-3.00000161e-004
"Sample Interval",2.50000000e-011,s,-7.70000000e-009,-2.67187659e-004
"Trigger Point",309,"Samples",-7.67500000e-009,-2.32812656e-004
"Trigger Time",1.09518182e-011,s,-7.65000000e-009,-1.97656404e-004
"",,,-7.62500000e-009,-1.64843901e-004
"Horizontal Offset",-7.72500000e-009,s,-7.60000000e-009,-1.35937649e-004
,,,-7.57500000e-009,-1.14843898e-004
,,,-7.55000000e-009,-1.01562647e-004
,,,-7.52500000e-009,-1.00000147e-004
,,,-7.50000000e-009,-1.08593897e-004
,,,-7.47500000e-009,-1.26562649e-004
,,,-7.45000000e-009,-1.52343900e-004
,,,-7.42500000e-009,-1.83593903e-004
,,,-7.40000000e-009,-2.16406405e-004
,,,-7.37500000e-009,-2.49218907e-004
,,,-7.35000000e-009,-2.77343909e-004
,,,-7.32500000e-009,-3.00000161e-004
,,,-7.30000000e-009,-3.11718912e-004
,,,-7.27500000e-009,-3.11718912e-004
,,,-7.25000000e-009,-3.00781411e-004
,,,-7.22500000e-009,-2.78125159e-004
,,,-7.20000000e-009,-2.45312657e-004
,,,-7.17500000e-009,-2.03125154e-004
,,,-7.15000000e-009,-1.53906401e-004
,,,-7.12500000e-009,-1.00000147e-004
,,,-7.10000000e-009,-4.37501428e-005
,,,-7.07500000e-009,1.32811112e-005
,,,-7.05000000e-009,7.03123653e-005
,,,-7.02500000e-009,1.24999869e-004
,,,-7.00000000e-009,1.76562373e-004
,,,-6.97500000e-009,2.23437376e-004
,,,-6.95000000e-009,2.65624879e-004
,,,-6.92500000e-009,2.99999882e-004
,,,-6.90000000e-009,3.24999883e-004
,,,-6.87500000e-009,3.42187385e-004
,,,-6.85000000e-009,3.52343635e-004
,,,-6.82500000e-009,3.55468635e-004
,,,-6.80000000e-009,3.51562385e-004
,,,-6.77500000e-009,3.40624884e-004
,,,-6.75000000e-009,3.23437383e-004
,,,-6.72500000e-009,2.99999882e-004
,,,-6.70000000e-009,2.70312379e-004
,,,-6.67500000e-009,2.38281127e-004
,,,-6.65000000e-009,2.06249875e-004
,,,-6.62500000e-009,1.76562373e-004
,,,-6.60000000e-009,1.49999871e-004
,,,-6.57500000e-009,1.28124869e-004
,,,-6.55000000e-009,1.11718618e-004
,,,-6.52500000e-009,9.99998674e-005
,,,-6.50000000e-009,9.53123670e-005
,,,-6.47500000e-009,9.45311170e-005
,,,-6.45000000e-009,9.68748672e-005
,,,-6.42500000e-009,1.01562367e-004
,,,-6.40000000e-009,1.04687368e-004
,,,-6.37500000e-009,1.07031118e-004
,,,-6.35000000e-009,1.05468618e-004
,,,-6.32500000e-009,9.99998674e-005
,,,-6.30000000e-009,9.06248667e-005
,,,-6.27500000e-009,7.96873659e-005
,,,-6.25000000e-009,6.95311152e-005
,,,-6.22500000e-009,6.17186147e-005
,,,-6.20000000e-009,6.01561146e-005
,,,-6.17500000e-009,6.48436149e-005
,,,-6.15000000e-009,7.81248658e-005
,,,-6.12500000e-009,9.99998674e-005
,,,-6.10000000e-009,1.28124869e-004
,,,-6.07500000e-009,1.61718622e-004
,,,-6.05000000e-009,1.97656124e-004
,,,-6.02500000e-009,2.32812377e-004
,,,-6.00000000e-009,2.64062379e-004
,,,-5.97500000e-009,2.86718631e-004
,,,-5.95000000e-009,2.99218631e-004
,,,-5.92500000e-009,2.99999882e-004
,,,-5.90000000e-009,2.85156130e-004
,,,-5.87500000e-009,2.59374879e-004
,,,-5.85000000e-009,2.25781126e-004
,,,-5.82500000e-009,1.89062374e-004
,,,-5.80000000e-009,1.53906121e-004
,,,-5.77500000e-009,1.24999869e-004
,,,-5.75000000e-009,1.06249868e-004
,,,-5.72500000e-009,9.99998674e-005
,,,-5.70000000e-009,1.06249868e-004
,,,-5.67500000e-009,1.23437369e-004
,,,-5.65000000e-009,1.50781121e-004
,,,-5.62500000e-009,1.85156123e-004
,,,-5.60000000e-009,2.21093626e-004
,,,-5.57500000e-009,2.54687378e-004
,,,-5.55000000e-009,2.82031130e-004
,,,-5.52500000e-009,2.99999882e-004
,,,-5.50000000e-009,3.02343632e-004
,,,-5.47500000e-009,2.91406131e-004
,,,-5.45000000e-009,2.70312379e-004
,,,-5.42500000e-009,2.40624877e-004
,,,-5.40000000e-009,2.05468625e-004
,,,-5.37500000e-009,1.67968622e-004
,,,-5.35000000e-009,1.32812370e-004
,,,-5.32500000e-009,9.99998674e-005
,,,-5.30000000e-009,7.03123653e-005
,,,-5.27500000e-009,4.53123635e-005
,,,-5.25000000e-009,2.42186120e-005
,,,-5.22500000e-009,4.68736063e-006
,,,-5.20000000e-009,-1.48438907e-005
,,,-5.17500000e-009,-3.75001424e-005
,,,-5.15000000e-009,-6.48438943e-005
,,,-5.12500000e-009,-1.00000147e-004
,,,-5.10000000e-009,-1.44531400e-004
,,,-5.07500000e-009,-1.96093904e-004
,,,-5.05000000e-009,-2.52343908e-004
,,,-5.02500000e-009,-3.10937662e-004
,,,-5.00000000e-009,-3.67968916e-004
,,,-4.97500000e-009,-4.20312669e-004
,,,-4.95000000e-009,-4.64843923e-004
,,,-4.92500000e-009,-5.00000175e-004
,,,-4.90000000e-009,-5.20312677e-004
,,,-4.87500000e-009,-5.30468927e-004
,,,-4.85000000e-009,-5.32031427e-004
,,,-4.82500000e-009,-5.27343927e-004
,,,-4.80000000e-009,-5.19531426e-004
,,,-4.77500000e-009,-5.10937676e-004
,,,-4.75000000e-009,-5.03906425e-004
,,,-4.72500000e-009,-5.00000175e-004
,,,-4.70000000e-009,-4.96875175e-004
,,,-4.67500000e-009,-4.98437675e-004
,,,-4.65000000e-009,-5.03125175e-004
,,,-4.62500000e-009,-5.08593926e-004
,,,-4.60000000e-009,-5.13281426e-004
,,,-4.57500000e-009,-5.14062676e-004
,,,-4.55000000e-009,-5.09375176e-004
,,,-4.52500000e-009,-5.00000175e-004
,,,-4.50000000e-009,-4.81250174e-004
,,,-4.47500000e-009,-4.60937672e-004
,,,-4.45000000e-009,-4.42187671e-004
,,,-4.42500000e-009,-4.29687670e-004
,,,-4.40000000e-009,-4.26562670e-004
,,,-4.37500000e-009,-4.35937671e-004
,,,-4.35000000e-009,-4.60156422e-004
,,,-4.32500000e-009,-5.00000175e-004
,,,-4.30000000e-009,-5.50000179e-004
,,,-4.27500000e-009,-6.10937683e-004
,,,-4.25000000e-009,-6.77343938e-004
,,,-4.22500000e-009,-7.44531442e-004
,,,-4.20000000e-009,-8.06250197e-004
,,,-4.17500000e-009,-8.55468950e-004
,,,-4.15000000e-009,-8.87500203e-004
,,,-4.12500000e-009,-9.00000203e-004
,,,-4.10000000e-009,-8.83593952e-004
,,,-4.07500000e-009,-8.48437700e-004
,,,-4.05000000e-009,-7.96875196e-004
,,,-4.02500000e-009,-7.35156442e-004
,,,-4.00000000e-009,-6.68750187e-004
,,,-3.97500000e-009,-6.03906432e-004
,,,-3.95000000e-009,-5.46093928e-004
,,,-3.92500000e-009,-5.00000175e-004
,,,-3.90000000e-009,-4.67968923e-004
,,,-3.87500000e-009,-4.50781422e-004
,,,-3.85000000e-009,-4.47656421e-004
,,,-3.82500000e-009,-4.55468922e-004
,,,-3.80000000e-009,-4.68750173e-004
,,,-3.77500000e-009,-4.82812674e-004
,,,-3.75000000e-009,-4.94531425e-004
,,,-3.72500000e-009,-5.00000175e-004
,,,-3.70000000e-009,-4.95312675e-004
,,,-3.67500000e-009,-4.81250174e-004
,,,-3.65000000e-009,-4.57812672e-004
,,,-3.62500000e-009,-4.28125170e-004
,,,-3.60000000e-009,-3.93750168e-004
,,,-3.57500000e-009,-3.58593915e-004
,,,-3.55000000e-009,-3.26562663e-004
,,,-3.52500000e-009,-3.00000161e-004
,,,-3.50000000e-009,-2.82031410e-004
,,,-3.47500000e-009,-2.71875159e-004
,,,-3.45000000e-009,-2.69531409e-004
,,,-3.42500000e-009,-2.72656409e-004
,,,-3.40000000e-009,-2.79687659e-004
,,,-3.37500000e-009,-2.87500160e-004
,,,-3.35000000e-009,-2.94531411e-004
,,,-3.32500000e-009,-3.00000161e-004
,,,-3.30000000e-009,-3.01562661e-004
,,,-3.27500000e-009,-3.00781411e-004
,,,-3.25000000e-009,-2.96093911e-004
,,,-3.22500000e-009,-2.91406410e-004
,,,-3.20000000e-009,-2.86718910e-004
,,,-3.17500000e-009,-2.85937660e-004
,,,-3.15000000e-009,-2.89843910e-004
,,,-3.12500000e-009,-3.00000161e-004
,,,-3.10000000e-009,-3.18750162e-004
,,,-3.07500000e-009,-3.42187664e-004
,,,-3.05000000e-009,-3.70312666e-004
,,,-3.02500000e-009,-3.99218918e-004
,,,-3.00000000e-009,-4.28906420e-004
,,,-2.97500000e-009,-4.57031422e-004
,,,-2.95000000e-009,-4.80468924e-004
,,,-2.92500000e-009,-5.00000175e-004
,,,-2.90000000e-009,-5.10156426e-004
,,,-2.87500000e-009,-5.15625176e-004
,,,-2.85000000e-009,-5.14843926e-004
,,,-2.82500000e-009,-5.11718926e-004
,,,-2.80000000e-009,-5.06250176e-004
,,,-2.77500000e-009,-5.01562675e-004
,,,-2.75000000e-009,-4.99218925e-004
,,,-2.72500000e-009,-5.00000175e-004
,,,-2.70000000e-009,-5.02343925e-004
,,,-2.67500000e-009,-5.07031426e-004
,,,-2.65000000e-009,-5.13281426e-004
,,,-2.62500000e-009,-5.18750176e-004
,,,-2.60000000e-009,-5.21875177e-004
,,,-2.57500000e-009,-5.21093927e-004
,,,-2.55000000e-009,-5.13281426e-004
,,,-2.52500000e-009,-5.00000175e-004
,,,-2.50000000e-009,-4.75781423e-004
,,,-2.47500000e-009,-4.46093921e-004
,,,-2.45000000e-009,-4.13281419e-004
,,,-2.42500000e-009,-3.80468917e-004
,,,-2.40000000e-009,-3.50781415e-004
,,,-2.37500000e-009,-3.25781413e-004
,,,-2.35000000e-009,-3.08593912e-004
,,,-2.32500000e-009,-3.00000161e-004
,,,-2.30000000e-009,-2.98437661e-004
,,,-2.27500000e-009,-3.04687661e-004
,,,-2.25000000e-009,-3.14062662e-004
,,,-2.22500000e-009,-3.23437663e-004
,,,-2.20000000e-009,-3.29687663e-004
,,,-2.17500000e-009,-3.28906413e-004
,,,-2.15000000e-009,-3.19531412e-004
,,,-2.12500000e-009,-3.00000161e-004
,,,-2.10000000e-009,-2.70312659e-004
,,,-2.07500000e-009,-2.33593906e-004
,,,-2.05000000e-009,-1.93750153e-004
,,,-2.02500000e-009,-1.55468901e-004
,,,-2.00000000e-009,-1.22656398e-004
,,,-1.97500000e-009,-1.00781397e-004
,,,-1.95000000e-009,-9.21876462e-005
,,,-1.92500000e-009,-1.00000147e-004
,,,-1.90000000e-009,-1.26562649e-004
,,,-1.87500000e-009,-1.64843901e-004
,,,-1.85000000e-009,-2.09375155e-004
,,,-1.82500000e-009,-2.53125158e-004
,,,-1.80000000e-009,-2.89843910e-004
,,,-1.77500000e-009,-3.12500162e-004
,,,-1.75000000e-009,-3.17187662e-004
,,,-1.72500000e-009,-3.00000161e-004
,,,-1.70000000e-009,-2.67968909e-004
,,,-1.67500000e-009,-2.17968905e-004
,,,-1.65000000e-009,-1.56250151e-004
,,,-1.62500000e-009,-8.82813959e-005
,,,-1.60000000e-009,-2.18751412e-005
,,,-1.57500000e-009,3.59373628e-005
,,,-1.55000000e-009,7.81248658e-005
,,,-1.52500000e-009,9.99998674e-005
,,,-1.50000000e-009,8.28123662e-005
,,,-1.47500000e-009,4.29686133e-005
,,,-1.45000000e-009,-1.48438907e-005
,,,-1.42500000e-009,-8.28126456e-005
,,,-1.40000000e-009,-1.53125151e-004
,,,-1.37500000e-009,-2.16406405e-004
,,,-1.35000000e-009,-2.67187659e-004
,,,-1.32500000e-009,-3.00000161e-004
,,,-1.30000000e-009,-3.27343913e-004
,,,-1.27500000e-009,-3.39062664e-004
,,,-1.25000000e-009,-3.35937663e-004
,,,-1.22500000e-009,-3.24218913e-004
,,,-1.20000000e-009,-3.07812661e-004
,,,-1.17500000e-009,-2.95312661e-004
,,,-1.15000000e-009,-2.90625160e-004
,,,-1.12500000e-009,-3.00000161e-004
,,,-1.10000000e-009,-3.46875164e-004
,,,-1.07500000e-009,-4.12500169e-004
,,,-1.05000000e-009,-4.93750175e-004
,,,-1.02500000e-009,-5.83593931e-004
,,,-1.00000000e-009,-6.75781438e-004
,,,-9.75000000e-010,-7.61718944e-004
,,,-9.50000000e-010,-8.37500199e-004
,,,-9.25000000e-010,-9.00000203e-004
,,,-9.00000000e-010,-9.65625208e-004
,,,-8.75000000e-010,-1.02421896e-003
,,,-8.50000000e-010,-1.07968772e-003
,,,-8.25000000e-010,-1.13671897e-003
,,,-8.00000000e-010,-1.20234397e-003
,,,-7.75000000e-010,-1.28125023e-003
,,,-7.50000000e-010,-1.37968774e-003
,,,-7.25000000e-010,-1.50000025e-003
,,,-7.00000000e-010,-1.65390651e-003
,,,-6.75000000e-010,-1.83046902e-003
,,,-6.50000000e-010,-2.02187528e-003
,,,-6.25000000e-010,-2.22031280e-003
,,,-6.00000000e-010,-2.41562531e-003
,,,-5.75000000e-010,-2.59843782e-003
,,,-5.50000000e-010,-2.76171909e-003
,,,-5.25000000e-010,-2.90000034e-003
,,,-5.00000000e-010,-3.00546910e-003
,,,-4.75000000e-010,-3.08984411e-003
,,,-4.50000000e-010,-3.15703161e-003
,,,-4.25000000e-010,-3.21406287e-003
,,,-4.00000000e-010,-3.26953162e-003
,,,-3.75000000e-010,-3.33125038e-003
,,,-3.50000000e-010,-3.40625038e-003
,,,-3.25000000e-010,-3.50000039e-003
,,,-3.00000000e-010,-3.60468789e-003
,,,-2.75000000e-010,-3.73281290e-003
,,,-2.50000000e-010,-3.88281291e-003
,,,-2.25000000e-010,-4.04765668e-003
,,,-2.00000000e-010,-4.22031294e-003
,,,-1.75000000e-010,-4.39140670e-003
,,,-1.50000000e-010,-4.55390671e-003
,,,-1.25000000e-010,-4.70000047e-003
,,,-1.00000000e-010,-4.79843798e-003
,,,-7.50000000e-011,-4.87656298e-003
,,,-5.00000000e-011,-4.93671924e-003
,,,-2.50000000e-011,-4.98203174e-003
,,,0.00000000e+000,-5.01640674e-003
,,,2.50000000e-011,-5.04531300e-003
,,,5.00000000e-011,-5.07265675e-003
,,,7.50000000e-011,-5.10000050e-003
,,,1.00000000e-010,-5.10000050e-003
,,,1.25000000e-010,-5.10390675e-003
,,,1.50000000e-010,-5.11250050e-003
,,,1.75000000e-010,-5.12265675e-003
,,,2.00000000e-010,-5.13046925e-003
,,,2.25000000e-010,-5.13203175e-003
,,,2.50000000e-010,-5.12265675e-003
,,,2.75000000e-010,-5.10000050e-003
,,,3.00000000e-010,-5.03281300e-003
,,,3.25000000e-010,-4.95390674e-003
,,,3.50000000e-010,-4.86875048e-003
,,,3.75000000e-010,-4.78125048e-003
,,,4.00000000e-010,-4.69687547e-003
,,,4.25000000e-010,-4.61953172e-003
,,,4.50000000e-010,-4.55312546e-003
,,,4.75000000e-010,-4.50000046e-003
,,,5.00000000e-010,-4.43671920e-003
,,,5.25000000e-010,-4.38437545e-003
,,,5.50000000e-010,-4.34062545e-003
,,,5.75000000e-010,-4.30156294e-003
,,,6.00000000e-010,-4.26328169e-003
,,,6.25000000e-010,-4.21953169e-003
,,,6.50000000e-010,-4.16640668e-003
,,,6.75000000e-010,-4.10000043e-003
,,,7.00000000e-010,-4.00078167e-003
,,,7.25000000e-010,-3.88593791e-003
,,,7.50000000e-010,-3.75859416e-003
,,,7.75000000e-010,-3.62265665e-003
,,,8.00000000e-010,-3.48359414e-003
,,,8.25000000e-010,-3.34765663e-003
,,,8.50000000e-010,-3.21796912e-003
,,,8.75000000e-010,-3.10000036e-003
,,,9.00000000e-010,-2.99140660e-003
,,,9.25000000e-010,-2.89609409e-003
,,,9.50000000e-010,-2.81250034e-003
,,,9.75000000e-010,-2.73906283e-003
,,,1.00000000e-009,-2.67343783e-003
,,,1.02500000e-009,-2.61406282e-003
,,,1.05000000e-009,-2.55703157e-003
,,,1.07500000e-009,-2.50000032e-003
,,,1.10000000e-009,-2.44218781e-003
,,,1.12500000e-009,-2.37656281e-003
,,,1.15000000e-009,-2.30468780e-003
,,,1.17500000e-009,-2.22656280e-003
,,,1.20000000e-009,-2.14453154e-003
,,,1.22500000e-009,-2.06093779e-003
,,,1.25000000e-009,-1.97890653e-003
,,,1.27500000e-009,-1.90000027e-003
,,,1.30000000e-009,-1.83046902e-003
,,,1.32500000e-009,-1.76171901e-003
,,,1.35000000e-009,-1.69062526e-003
,,,1.37500000e-009,-1.61796900e-003
,,,1.40000000e-009,-1.54218775e-003
,,,1.42500000e-009,-1.46328149e-003
,,,1.45000000e-009,-1.38203149e-003
,,,1.47500000e-009,-1.30000023e-003
,,,1.50000000e-009,-1.22812523e-003
,,,1.52500000e-009,-1.15625022e-003
,,,1.55000000e-009,-1.08671897e-003
,,,1.57500000e-009,-1.02343771e-003
,,,1.60000000e-009,-9.70312708e-004
,,,1.62500000e-009,-9.30468956e-004
,,,1.65000000e-009,-9.06250204e-004
,,,1.67500000e-009,-9.00000203e-004
,,,1.70000000e-009,-9.21093955e-004
,,,1.72500000e-009,-9.51562707e-004
,,,1.75000000e-009,-9.88281460e-004
,,,1.77500000e-009,-1.02578146e-003
,,,1.80000000e-009,-1.05937521e-003
,,,1.82500000e-009,-1.08515647e-003
,,,1.85000000e-009,-1.09921897e-003
,,,1.87500000e-009,-1.10000022e-003
,,,1.90000000e-009,-1.08906272e-003
,,,1.92500000e-009,-1.06015646e-003
,,,1.95000000e-009,-1.01562521e-003
,,,1.97500000e-009,-9.57812707e-004
,,,2.00000000e-009,-8.92187703e-004
,,,2.02500000e-009,-8.24218948e-004
,,,2.05000000e-009,-7.57812693e-004
,,,2.07500000e-009,-7.00000189e-004
,,,2.10000000e-009,-6.58593936e-004
,,,2.12500000e-009,-6.29687684e-004
,,,2.15000000e-009,-6.13281433e-004
,,,2.17500000e-009,-6.10156433e-004
,,,2.20000000e-009,-6.18750183e-004
,,,2.22500000e-009,-6.37500185e-004
,,,2.25000000e-009,-6.65625187e-004
,,,2.27500000e-009,-7.00000189e-004
,,,2.30000000e-009,-7.39843942e-004
,,,2.32500000e-009,-7.78125195e-004
,,,2.35000000e-009,-8.13281447e-004
,,,2.37500000e-009,-8.42968949e-004
,,,2.40000000e-009,-8.67187701e-004
,,,2.42500000e-009,-8.85156452e-004
,,,2.45000000e-009,-8.95312703e-004
,,,2.47500000e-009,-9.00000203e-004
,,,2.50000000e-009,-8.95312703e-004
,,,2.52500000e-009,-8.83593952e-004
,,,2.55000000e-009,-8.64843951e-004
,,,2.57500000e-009,-8.39843949e-004
,,,2.60000000e-009,-8.09375197e-004
,,,2.62500000e-009,-7.75000195e-004
,,,2.65000000e-009,-7.38281442e-004
,,,2.67500000e-009,-7.00000189e-004
,,,2.70000000e-009,-6.59375186e-004
,,,2.72500000e-009,-6.21093934e-004
,,,2.75000000e-009,-5.85156431e-004
,,,2.77500000e-009,-5.55468929e-004
,,,2.80000000e-009,-5.30468927e-004
,,,2.82500000e-009,-5.13281426e-004
,,,2.85000000e-009,-5.03125175e-004
,,,2.87500000e-009,-5.00000175e-004
,,,2.90000000e-009,-5.01562675e-004
,,,2.92500000e-009,-5.06250176e-004
,,,2.95000000e-009,-5.11718926e-004
,,,2.97500000e-009,-5.16406426e-004
,,,3.00000000e-009,-5.19531426e-004
,,,3.02500000e-009,-5.17968926e-004
,,,3.05000000e-009,-5.11718926e-004
,,,3.07500000e-009,-5.00000175e-004
,,,3.10000000e-009,-4.79687674e-004
,,,3.12500000e-009,-4.55468922e-004
,,,3.15000000e-009,-4.26562670e-004
,,,3.17500000e-009,-3.96093918e-004
,,,3.20000000e-009,-3.66406416e-004
,,,3.22500000e-009,-3.39062664e-004
,,,3.25000000e-009,-3.16406412e-004
,,,3.27500000e-009,-3.00000161e-004
,,,3.30000000e-009,-2.89843910e-004
,,,3.32500000e-009,-2.85937660e-004
,,,3.35000000e-009,-2.85937660e-004
,,,3.37500000e-009,-2.89843910e-004
,,,3.40000000e-009,-2.95312661e-004
,,,3.42500000e-009,-3.00000161e-004
,,,3.45000000e-009,-3.01562661e-004
,,,3.47500000e-009,-3.00000161e-004
,,,3.50000000e-009,-2.92187660e-004
,,,3.52500000e-009,-2.78125159e-004
,,,3.55000000e-009,-2.57812658e-004
,,,3.57500000e-009,-2.31250156e-004
,,,3.60000000e-009,-2.00781404e-004
,,,3.62500000e-009,-1.67187652e-004
,,,3.65000000e-009,-1.33593899e-004
,,,3.67500000e-009,-1.00000147e-004
,,,3.70000000e-009,-7.03126447e-005
,,,3.72500000e-009,-4.21876427e-005
,,,3.75000000e-009,-1.56251408e-005
,,,3.77500000e-009,8.59361091e-006
,,,3.80000000e-009,3.28123626e-005
,,,3.82500000e-009,5.54686142e-005
,,,3.85000000e-009,7.81248658e-005
,,,3.87500000e-009,9.99998674e-005
,,,3.90000000e-009,1.17968619e-004
,,,3.92500000e-009,1.33593620e-004
,,,3.95000000e-009,1.46093621e-004
,,,3.97500000e-009,1.52343621e-004
,,,4.00000000e-009,1.52343621e-004
,,,4.02500000e-009,1.43749870e-004
,,,4.05000000e-009,1.26562369e-004
,,,4.07500000e-009,9.99998674e-005
,,,4.10000000e-009,6.56248649e-005
,,,4.12500000e-009,2.65623622e-005
,,,4.15000000e-009,-1.17188905e-005
,,,4.17500000e-009,-4.76563931e-005
,,,4.20000000e-009,-7.65626451e-005
,,,4.22500000e-009,-9.60938965e-005
,,,4.25000000e-009,-1.03906397e-004
,,,4.27500000e-009,-1.00000147e-004
,,,4.30000000e-009,-8.43751457e-005
,,,4.32500000e-009,-5.85938938e-005
,,,4.35000000e-009,-2.57813915e-005
,,,4.37500000e-009,1.01561110e-005
,,,4.40000000e-009,4.37498634e-005
,,,4.42500000e-009,7.26561154e-005
,,,4.45000000e-009,9.21873668e-005
,,,4.47500000e-009,9.99998674e-005
,,,4.50000000e-009,9.29686169e-005
,,,4.52500000e-009,7.49998656e-005
,,,4.55000000e-009,4.68748636e-005
,,,4.57500000e-009,1.32811112e-005
,,,4.60000000e-009,-2.18751412e-005
,,,4.62500000e-009,-5.54688936e-005
,,,4.65000000e-009,-8.20313955e-005
,,,4.67500000e-009,-1.00000147e-004
,,,4.70000000e-009,-1.05468897e-004
,,,4.72500000e-009,-9.84376467e-005
,,,4.75000000e-009,-8.04688954e-005
,,,4.77500000e-009,-5.15626433e-005
,,,4.80000000e-009,-1.64063909e-005
,,,4.82500000e-009,2.34373620e-005
,,,4.85000000e-009,6.32811148e-005
,,,4.87500000e-009,9.99998674e-005
,,,4.90000000e-009,1.30468620e-004
,,,4.92500000e-009,1.52343621e-004
,,,4.95000000e-009,1.64843622e-004
,,,4.97500000e-009,1.67968622e-004
,,,5.00000000e-009,1.61718622e-004
,,,5.02500000e-009,1.46874871e-004
,,,5.05000000e-009,1.26562369e-004
,,,5.07500000e-009,9.99998674e-005
,,,5.10000000e-009,7.18748654e-005
,,,5.12500000e-009,4.14061132e-005
,,,5.15000000e-009,1.24998612e-005
,,,5.17500000e-009,-1.56251408e-005
,,,5.20000000e-009,-4.14063926e-005
,,,5.22500000e-009,-6.40626442e-005
,,,5.25000000e-009,-8.35938956e-005
,,,5.27500000e-009,-1.00000147e-004
,,,5.30000000e-009,-1.10156397e-004
,,,5.32500000e-009,-1.17187648e-004
,,,5.35000000e-009,-1.20312648e-004
,,,5.37500000e-009,-1.20312648e-004
,,,5.40000000e-009,-1.17187648e-004
,,,5.42500000e-009,-1.12500148e-004
,,,5.45000000e-009,-1.06250147e-004
,,,5.47500000e-009,-1.00000147e-004
,,,5.50000000e-009,-9.14063962e-005
,,,5.52500000e-009,-8.51563957e-005
,,,5.55000000e-009,-8.04688954e-005
,,,5.57500000e-009,-7.89063953e-005
,,,5.60000000e-009,-7.96876453e-005
,,,5.62500000e-009,-8.43751457e-005
,,,5.65000000e-009,-9.06251461e-005
,,,5.67500000e-009,-1.00000147e-004
,,,5.70000000e-009,-1.07812647e-004
,,,5.72500000e-009,-1.14843898e-004
,,,5.75000000e-009,-1.21093898e-004
,,,5.77500000e-009,-1.24218898e-004
,,,5.80000000e-009,-1.24218898e-004
,,,5.82500000e-009,-1.21093898e-004
,,,5.85000000e-009,-1.12500148e-004
,,,5.87500000e-009,-1.00000147e-004
