RawData/SinglePhotoelectron/L2_2pt2C_5mV/wave011_Ch3.csv

"Record Length",1000,"Points",-7.72500000e-009,1.14062368e-004
"Sample Interval",2.50000000e-011,s,-7.70000000e-009,1.37499870e-004
"Trigger Point",309,"Samples",-7.67500000e-009,1.67968622e-004
"Trigger Time",2.45980347e-011,s,-7.65000000e-009,2.03124875e-004
"",,,-7.62500000e-009,2.37499877e-004
"Horizontal Offset",-7.72500000e-009,s,-7.60000000e-009,2.67187379e-004
,,,-7.57500000e-009,2.89062381e-004
,,,-7.55000000e-009,2.99999882e-004
,,,-7.52500000e-009,2.99999882e-004
,,,-7.50000000e-009,2.87499881e-004
,,,-7.47500000e-009,2.63281129e-004
,,,-7.45000000e-009,2.32031127e-004
,,,-7.42500000e-009,1.96093624e-004
,,,-7.40000000e-009,1.60156122e-004
,,,-7.37500000e-009,1.27343619e-004
,,,-7.35000000e-009,9.99998674e-005
,,,-7.32500000e-009,8.43748663e-005
,,,-7.30000000e-009,7.65623657e-005
,,,-7.27500000e-009,7.57811157e-005
,,,-7.25000000e-009,7.96873659e-005
,,,-7.22500000e-009,8.67186164e-005
,,,-7.20000000e-009,9.45311170e-005
,,,-7.17500000e-009,9.92186173e-005
,,,-7.15000000e-009,9.99998674e-005
,,,-7.12500000e-009,9.99998674e-005
,,,-7.10000000e-009,9.60936171e-005
,,,-7.07500000e-009,8.98436167e-005
,,,-7.05000000e-009,8.35936162e-005
,,,-7.02500000e-009,7.89061159e-005
,,,-7.00000000e-009,7.89061159e-005
,,,-6.97500000e-009,8.59373664e-005
,,,-6.95000000e-009,9.99998674e-005
,,,-6.92500000e-009,1.25781119e-004
,,,-6.90000000e-009,1.57812371e-004
,,,-6.87500000e-009,1.92968624e-004
,,,-6.85000000e-009,2.28124876e-004
,,,-6.82500000e-009,2.59374879e-004
,,,-6.80000000e-009,2.83593630e-004
,,,-6.77500000e-009,2.97656131e-004
,,,-6.75000000e-009,2.99999882e-004
,,,-6.72500000e-009,2.89843631e-004
,,,-6.70000000e-009,2.68749879e-004
,,,-6.67500000e-009,2.39062377e-004
,,,-6.65000000e-009,2.04687375e-004
,,,-6.62500000e-009,1.70312372e-004
,,,-6.60000000e-009,1.39062370e-004
,,,-6.57500000e-009,1.14843618e-004
,,,-6.55000000e-009,9.99998674e-005
,,,-6.52500000e-009,9.99998674e-005
,,,-6.50000000e-009,1.10937368e-004
,,,-6.47500000e-009,1.32031120e-004
,,,-6.45000000e-009,1.60937372e-004
,,,-6.42500000e-009,1.95312374e-004
,,,-6.40000000e-009,2.32031127e-004
,,,-6.37500000e-009,2.67187379e-004
,,,-6.35000000e-009,2.99999882e-004
,,,-6.32500000e-009,3.28124884e-004
,,,-6.30000000e-009,3.52343635e-004
,,,-6.27500000e-009,3.72656137e-004
,,,-6.25000000e-009,3.92968638e-004
,,,-6.22500000e-009,4.13281140e-004
,,,-6.20000000e-009,4.37499891e-004
,,,-6.17500000e-009,4.66406143e-004
,,,-6.15000000e-009,4.99999896e-004
,,,-6.12500000e-009,5.35937398e-004
,,,-6.10000000e-009,5.74218651e-004
,,,-6.07500000e-009,6.12499904e-004
,,,-6.05000000e-009,6.49218656e-004
,,,-6.02500000e-009,6.78906158e-004
,,,-6.00000000e-009,6.99218660e-004
,,,-5.97500000e-009,7.07031160e-004
,,,-5.95000000e-009,6.99999910e-004
,,,-5.92500000e-009,6.74218658e-004
,,,-5.90000000e-009,6.35156155e-004
,,,-5.87500000e-009,5.85156152e-004
,,,-5.85000000e-009,5.27343648e-004
,,,-5.82500000e-009,4.66406143e-004
,,,-5.80000000e-009,4.05468639e-004
,,,-5.77500000e-009,3.49218635e-004
,,,-5.75000000e-009,2.99999882e-004
,,,-5.72500000e-009,2.61718629e-004
,,,-5.70000000e-009,2.35937377e-004
,,,-5.67500000e-009,2.22656126e-004
,,,-5.65000000e-009,2.21874876e-004
,,,-5.62500000e-009,2.32031127e-004
,,,-5.60000000e-009,2.49999878e-004
,,,-5.57500000e-009,2.74218630e-004
,,,-5.55000000e-009,2.99999882e-004
,,,-5.52500000e-009,3.25781133e-004
,,,-5.50000000e-009,3.46874885e-004
,,,-5.47500000e-009,3.61718636e-004
,,,-5.45000000e-009,3.68749886e-004
,,,-5.42500000e-009,3.66406136e-004
,,,-5.40000000e-009,3.53906135e-004
,,,-5.37500000e-009,3.31249884e-004
,,,-5.35000000e-009,2.99999882e-004
,,,-5.32500000e-009,2.63281129e-004
,,,-5.30000000e-009,2.23437376e-004
,,,-5.27500000e-009,1.83593623e-004
,,,-5.25000000e-009,1.48437371e-004
,,,-5.22500000e-009,1.20312369e-004
,,,-5.20000000e-009,1.01562367e-004
,,,-5.17500000e-009,9.45311170e-005
,,,-5.15000000e-009,9.99998674e-005
,,,-5.12500000e-009,1.20312369e-004
,,,-5.10000000e-009,1.49218621e-004
,,,-5.07500000e-009,1.83593623e-004
,,,-5.05000000e-009,2.19531126e-004
,,,-5.02500000e-009,2.52343628e-004
,,,-5.00000000e-009,2.78906130e-004
,,,-4.97500000e-009,2.96093631e-004
,,,-4.95000000e-009,2.99999882e-004
,,,-4.92500000e-009,2.93749881e-004
,,,-4.90000000e-009,2.74999880e-004
,,,-4.87500000e-009,2.46874878e-004
,,,-4.85000000e-009,2.12499875e-004
,,,-4.82500000e-009,1.76562373e-004
,,,-4.80000000e-009,1.42968620e-004
,,,-4.77500000e-009,1.16406119e-004
,,,-4.75000000e-009,9.99998674e-005
,,,-4.72500000e-009,9.68748672e-005
,,,-4.70000000e-009,1.06249868e-004
,,,-4.67500000e-009,1.27343619e-004
,,,-4.65000000e-009,1.57031121e-004
,,,-4.62500000e-009,1.92187374e-004
,,,-4.60000000e-009,2.30468627e-004
,,,-4.57500000e-009,2.67968629e-004
,,,-4.55000000e-009,2.99999882e-004
,,,-4.52500000e-009,3.26562383e-004
,,,-4.50000000e-009,3.43749885e-004
,,,-4.47500000e-009,3.51562385e-004
,,,-4.45000000e-009,3.51562385e-004
,,,-4.42500000e-009,3.44531135e-004
,,,-4.40000000e-009,3.32031134e-004
,,,-4.37500000e-009,3.16406133e-004
,,,-4.35000000e-009,2.99999882e-004
,,,-4.32500000e-009,2.86718631e-004
,,,-4.30000000e-009,2.75781130e-004
,,,-4.27500000e-009,2.69531129e-004
,,,-4.25000000e-009,2.67968629e-004
,,,-4.22500000e-009,2.71093629e-004
,,,-4.20000000e-009,2.78124880e-004
,,,-4.17500000e-009,2.88281131e-004
,,,-4.15000000e-009,2.99999882e-004
,,,-4.12500000e-009,3.12499882e-004
,,,-4.10000000e-009,3.23437383e-004
,,,-4.07500000e-009,3.31249884e-004
,,,-4.05000000e-009,3.35937384e-004
,,,-4.02500000e-009,3.35937384e-004
,,,-4.00000000e-009,3.30468634e-004
,,,-3.97500000e-009,3.18749883e-004
,,,-3.95000000e-009,2.99999882e-004
,,,-3.92500000e-009,2.77343630e-004
,,,-3.90000000e-009,2.49999878e-004
,,,-3.87500000e-009,2.19531126e-004
,,,-3.85000000e-009,1.89062374e-004
,,,-3.82500000e-009,1.60156122e-004
,,,-3.80000000e-009,1.34374870e-004
,,,-3.77500000e-009,1.14062368e-004
,,,-3.75000000e-009,9.99998674e-005
,,,-3.72500000e-009,9.60936171e-005
,,,-3.70000000e-009,1.01562367e-004
,,,-3.67500000e-009,1.16406119e-004
,,,-3.65000000e-009,1.40624870e-004
,,,-3.62500000e-009,1.72656123e-004
,,,-3.60000000e-009,2.10937375e-004
,,,-3.57500000e-009,2.54687378e-004
,,,-3.55000000e-009,2.99999882e-004
,,,-3.52500000e-009,3.45312385e-004
,,,-3.50000000e-009,3.87499888e-004
,,,-3.47500000e-009,4.25781140e-004
,,,-3.45000000e-009,4.57031143e-004
,,,-3.42500000e-009,4.80468644e-004
,,,-3.40000000e-009,4.96093645e-004
,,,-3.37500000e-009,5.02343646e-004
,,,-3.35000000e-009,4.99999896e-004
,,,-3.32500000e-009,4.87499895e-004
,,,-3.30000000e-009,4.67187393e-004
,,,-3.27500000e-009,4.41406142e-004
,,,-3.25000000e-009,4.12499889e-004
,,,-3.22500000e-009,3.82031137e-004
,,,-3.20000000e-009,3.51562385e-004
,,,-3.17500000e-009,3.24218633e-004
,,,-3.15000000e-009,2.99999882e-004
,,,-3.12500000e-009,2.80468630e-004
,,,-3.10000000e-009,2.65624879e-004
,,,-3.07500000e-009,2.57812379e-004
,,,-3.05000000e-009,2.57031128e-004
,,,-3.02500000e-009,2.60937379e-004
,,,-3.00000000e-009,2.71093629e-004
,,,-2.97500000e-009,2.84374880e-004
,,,-2.95000000e-009,2.99999882e-004
,,,-2.92500000e-009,3.14843633e-004
,,,-2.90000000e-009,3.27343633e-004
,,,-2.87500000e-009,3.36718634e-004
,,,-2.85000000e-009,3.41406134e-004
,,,-2.82500000e-009,3.40624884e-004
,,,-2.80000000e-009,3.33593634e-004
,,,-2.77500000e-009,3.19531133e-004
,,,-2.75000000e-009,2.99999882e-004
,,,-2.72500000e-009,2.71093629e-004
,,,-2.70000000e-009,2.39062377e-004
,,,-2.67500000e-009,2.05468625e-004
,,,-2.65000000e-009,1.74218623e-004
,,,-2.62500000e-009,1.46093621e-004
,,,-2.60000000e-009,1.23437369e-004
,,,-2.57500000e-009,1.07812368e-004
,,,-2.55000000e-009,9.99998674e-005
,,,-2.52500000e-009,9.84373673e-005
,,,-2.50000000e-009,1.02343618e-004
,,,-2.47500000e-009,1.08593618e-004
,,,-2.45000000e-009,1.15624868e-004
,,,-2.42500000e-009,1.20312369e-004
,,,-2.40000000e-009,1.20312369e-004
,,,-2.37500000e-009,1.14062368e-004
,,,-2.35000000e-009,9.99998674e-005
,,,-2.32500000e-009,7.96873659e-005
,,,-2.30000000e-009,5.23436140e-005
,,,-2.27500000e-009,2.03123617e-005
,,,-2.25000000e-009,-1.25001406e-005
,,,-2.22500000e-009,-4.37501428e-005
,,,-2.20000000e-009,-7.03126447e-005
,,,-2.17500000e-009,-8.90626460e-005
,,,-2.15000000e-009,-1.00000147e-004
,,,-2.12500000e-009,-9.92188967e-005
,,,-2.10000000e-009,-9.14063962e-005
,,,-2.07500000e-009,-7.96876453e-005
,,,-2.05000000e-009,-6.87501446e-005
,,,-2.02500000e-009,-6.17188941e-005
,,,-2.00000000e-009,-6.25001441e-005
,,,-1.97500000e-009,-7.42188950e-005
,,,-1.95000000e-009,-1.00000147e-004
,,,-1.92500000e-009,-1.35937649e-004
,,,-1.90000000e-009,-1.84375153e-004
,,,-1.87500000e-009,-2.42187657e-004
,,,-1.85000000e-009,-3.03906411e-004
,,,-1.82500000e-009,-3.64843916e-004
,,,-1.80000000e-009,-4.21093920e-004
,,,-1.77500000e-009,-4.67187673e-004
,,,-1.75000000e-009,-5.00000175e-004
,,,-1.72500000e-009,-5.11718926e-004
,,,-1.70000000e-009,-5.08593926e-004
,,,-1.67500000e-009,-4.91406424e-004
,,,-1.65000000e-009,-4.62500172e-004
,,,-1.62500000e-009,-4.25781420e-004
,,,-1.60000000e-009,-3.83593917e-004
,,,-1.57500000e-009,-3.40625164e-004
,,,-1.55000000e-009,-3.00000161e-004
,,,-1.52500000e-009,-2.65625158e-004
,,,-1.50000000e-009,-2.38281407e-004
,,,-1.47500000e-009,-2.16406405e-004
,,,-1.45000000e-009,-1.96875154e-004
,,,-1.42500000e-009,-1.78125152e-004
,,,-1.40000000e-009,-1.57031401e-004
,,,-1.37500000e-009,-1.31250149e-004
,,,-1.35000000e-009,-1.00000147e-004
,,,-1.32500000e-009,-7.34376449e-005
,,,-1.30000000e-009,-4.45313929e-005
,,,-1.27500000e-009,-1.40626407e-005
,,,-1.25000000e-009,1.64061115e-005
,,,-1.22500000e-009,4.53123635e-005
,,,-1.20000000e-009,6.95311152e-005
,,,-1.17500000e-009,8.90623666e-005
,,,-1.15000000e-009,9.99998674e-005
,,,-1.12500000e-009,8.51561163e-005
,,,-1.10000000e-009,5.93748645e-005
,,,-1.07500000e-009,2.73436122e-005
,,,-1.05000000e-009,-7.81264025e-006
,,,-1.02500000e-009,-4.14063926e-005
,,,-1.00000000e-009,-6.95313946e-005
,,,-9.75000000e-010,-8.90626460e-005
,,,-9.50000000e-010,-1.00000147e-004
,,,-9.25000000e-010,-1.28125149e-004
,,,-9.00000000e-010,-1.53906401e-004
,,,-8.75000000e-010,-1.75781402e-004
,,,-8.50000000e-010,-1.96093904e-004
,,,-8.25000000e-010,-2.15625155e-004
,,,-8.00000000e-010,-2.37500157e-004
,,,-7.75000000e-010,-2.64062658e-004
,,,-7.50000000e-010,-3.00000161e-004
,,,-7.25000000e-010,-3.76562666e-004
,,,-7.00000000e-010,-4.71093923e-004
,,,-6.75000000e-010,-5.82031431e-004
,,,-6.50000000e-010,-7.07031440e-004
,,,-6.25000000e-010,-8.45312700e-004
,,,-6.00000000e-010,-9.91406460e-004
,,,-5.75000000e-010,-1.14375022e-003
,,,-5.50000000e-010,-1.30000023e-003
,,,-5.25000000e-010,-1.47734399e-003
,,,-5.00000000e-010,-1.65390651e-003
,,,-4.75000000e-010,-1.82656277e-003
,,,-4.50000000e-010,-1.98906278e-003
,,,-4.25000000e-010,-2.13906279e-003
,,,-4.00000000e-010,-2.27343780e-003
,,,-3.75000000e-010,-2.39296906e-003
,,,-3.50000000e-010,-2.50000032e-003
,,,-3.25000000e-010,-2.60859407e-003
,,,-3.00000000e-010,-2.71953158e-003
,,,-2.75000000e-010,-2.83750034e-003
,,,-2.50000000e-010,-2.96796910e-003
,,,-2.25000000e-010,-3.11718786e-003
,,,-2.00000000e-010,-3.28671912e-003
,,,-1.75000000e-010,-3.48125039e-003
,,,-1.50000000e-010,-3.70000040e-003
,,,-1.25000000e-010,-3.93515667e-003
,,,-1.00000000e-010,-4.19062544e-003
,,,-7.50000000e-011,-4.46093796e-003
,,,-5.00000000e-011,-4.73593797e-003
,,,-2.50000000e-011,-5.00625049e-003
,,,0.00000000e+000,-5.26328176e-003
,,,2.50000000e-011,-5.49609428e-003
,,,5.00000000e-011,-5.70000054e-003
,,,7.50000000e-011,-5.84218805e-003
,,,1.00000000e-010,-5.95468806e-003
,,,1.25000000e-010,-6.04140682e-003
,,,1.50000000e-010,-6.10703182e-003
,,,1.75000000e-010,-6.15937558e-003
,,,2.00000000e-010,-6.20468808e-003
,,,2.25000000e-010,-6.25000058e-003
,,,2.50000000e-010,-6.30000059e-003
,,,2.75000000e-010,-6.32187559e-003
,,,3.00000000e-010,-6.36015684e-003
,,,3.25000000e-010,-6.41718809e-003
,,,3.50000000e-010,-6.49296935e-003
,,,3.75000000e-010,-6.58515686e-003
,,,4.00000000e-010,-6.68750061e-003
,,,4.25000000e-010,-6.79453187e-003
,,,4.50000000e-010,-6.90000063e-003
,,,4.75000000e-010,-6.95078188e-003
,,,5.00000000e-010,-6.99062563e-003
,,,5.25000000e-010,-7.01562564e-003
,,,5.50000000e-010,-7.02578189e-003
,,,5.75000000e-010,-7.01953189e-003
,,,6.00000000e-010,-6.99687563e-003
,,,6.25000000e-010,-6.95703188e-003
,,,6.50000000e-010,-6.90000063e-003
,,,6.75000000e-010,-6.78359437e-003
,,,7.00000000e-010,-6.65703186e-003
,,,7.25000000e-010,-6.52343810e-003
,,,7.50000000e-010,-6.38906309e-003
,,,7.75000000e-010,-6.25781308e-003
,,,8.00000000e-010,-6.13125057e-003
,,,8.25000000e-010,-6.01171932e-003
,,,8.50000000e-010,-5.90000056e-003
,,,8.75000000e-010,-5.76171930e-003
,,,9.00000000e-010,-5.62890679e-003
,,,9.25000000e-010,-5.50234428e-003
,,,9.50000000e-010,-5.38125052e-003
,,,9.75000000e-010,-5.26250051e-003
,,,1.00000000e-009,-5.14453175e-003
,,,1.02500000e-009,-5.02500050e-003
,,,1.05000000e-009,-4.90000049e-003
,,,1.07500000e-009,-4.74921923e-003
,,,1.10000000e-009,-4.58671921e-003
,,,1.12500000e-009,-4.41484420e-003
,,,1.15000000e-009,-4.23515669e-003
,,,1.17500000e-009,-4.05078168e-003
,,,1.20000000e-009,-3.86484416e-003
,,,1.22500000e-009,-3.68046915e-003
,,,1.25000000e-009,-3.50000039e-003
,,,1.27500000e-009,-3.32109412e-003
,,,1.30000000e-009,-3.14843786e-003
,,,1.32500000e-009,-2.98203160e-003
,,,1.35000000e-009,-2.82421909e-003
,,,1.37500000e-009,-2.67656283e-003
,,,1.40000000e-009,-2.53984407e-003
,,,1.42500000e-009,-2.41406281e-003
,,,1.45000000e-009,-2.30000030e-003
,,,1.47500000e-009,-2.20234405e-003
,,,1.50000000e-009,-2.10625029e-003
,,,1.52500000e-009,-2.01015653e-003
,,,1.55000000e-009,-1.91171903e-003
,,,1.57500000e-009,-1.81171902e-003
,,,1.60000000e-009,-1.70937526e-003
,,,1.62500000e-009,-1.60546900e-003
,,,1.65000000e-009,-1.50000025e-003
,,,1.67500000e-009,-1.40859399e-003
,,,1.70000000e-009,-1.31171898e-003
,,,1.72500000e-009,-1.20859398e-003
,,,1.75000000e-009,-1.10234397e-003
,,,1.77500000e-009,-9.95312710e-004
,,,1.80000000e-009,-8.90625203e-004
,,,1.82500000e-009,-7.91406446e-004
,,,1.85000000e-009,-7.00000189e-004
,,,1.87500000e-009,-6.35937685e-004
,,,1.90000000e-009,-5.76562681e-004
,,,1.92500000e-009,-5.21875177e-004
,,,1.95000000e-009,-4.70312673e-004
,,,1.97500000e-009,-4.21875170e-004
,,,2.00000000e-009,-3.77343916e-004
,,,2.02500000e-009,-3.36718914e-004
,,,2.05000000e-009,-3.00000161e-004
,,,2.07500000e-009,-2.83593910e-004
,,,2.10000000e-009,-2.64062658e-004
,,,2.12500000e-009,-2.41406407e-004
,,,2.15000000e-009,-2.15625155e-004
,,,2.17500000e-009,-1.86718903e-004
,,,2.20000000e-009,-1.56250151e-004
,,,2.22500000e-009,-1.26562649e-004
,,,2.25000000e-009,-1.00000147e-004
,,,2.27500000e-009,-9.06251461e-005
,,,2.30000000e-009,-8.28126456e-005
,,,2.32500000e-009,-7.65626451e-005
,,,2.35000000e-009,-7.26563948e-005
,,,2.37500000e-009,-7.18751448e-005
,,,2.40000000e-009,-7.57813951e-005
,,,2.42500000e-009,-8.51563957e-005
,,,2.45000000e-009,-1.00000147e-004
,,,2.47500000e-009,-1.28906399e-004
,,,2.50000000e-009,-1.60156401e-004
,,,2.52500000e-009,-1.91406403e-004
,,,2.55000000e-009,-2.20312655e-004
,,,2.57500000e-009,-2.46093907e-004
,,,2.60000000e-009,-2.68750159e-004
,,,2.62500000e-009,-2.86718910e-004
,,,2.65000000e-009,-3.00000161e-004
,,,2.67500000e-009,-3.13281412e-004
,,,2.70000000e-009,-3.21093912e-004
,,,2.72500000e-009,-3.23437663e-004
,,,2.75000000e-009,-3.21875162e-004
,,,2.77500000e-009,-3.17187662e-004
,,,2.80000000e-009,-3.10937662e-004
,,,2.82500000e-009,-3.04687661e-004
,,,2.85000000e-009,-3.00000161e-004
,,,2.87500000e-009,-2.97656411e-004
,,,2.90000000e-009,-2.97656411e-004
,,,2.92500000e-009,-2.98437661e-004
,,,2.95000000e-009,-3.00000161e-004
,,,2.97500000e-009,-3.00781411e-004
,,,3.00000000e-009,-3.01562661e-004
,,,3.02500000e-009,-3.01562661e-004
,,,3.05000000e-009,-3.00000161e-004
,,,3.07500000e-009,-2.95312661e-004
,,,3.10000000e-009,-2.89843910e-004
,,,3.12500000e-009,-2.85156410e-004
,,,3.15000000e-009,-2.80468910e-004
,,,3.17500000e-009,-2.78906409e-004
,,,3.20000000e-009,-2.81250160e-004
,,,3.22500000e-009,-2.87500160e-004
,,,3.25000000e-009,-3.00000161e-004
,,,3.27500000e-009,-3.14062662e-004
,,,3.30000000e-009,-3.33593913e-004
,,,3.32500000e-009,-3.57812665e-004
,,,3.35000000e-009,-3.85156417e-004
,,,3.37500000e-009,-4.14062669e-004
,,,3.40000000e-009,-4.44531421e-004
,,,3.42500000e-009,-4.73437673e-004
,,,3.45000000e-009,-5.00000175e-004
,,,3.47500000e-009,-5.18750176e-004
,,,3.50000000e-009,-5.32031427e-004
,,,3.52500000e-009,-5.40625178e-004
,,,3.55000000e-009,-5.42968928e-004
,,,3.57500000e-009,-5.39843928e-004
,,,3.60000000e-009,-5.31250177e-004
,,,3.62500000e-009,-5.17187676e-004
,,,3.65000000e-009,-5.00000175e-004
,,,3.67500000e-009,-4.76562673e-004
,,,3.70000000e-009,-4.51562672e-004
,,,3.72500000e-009,-4.25000170e-004
,,,3.75000000e-009,-3.98437668e-004
,,,3.77500000e-009,-3.72656416e-004
,,,3.80000000e-009,-3.46875164e-004
,,,3.82500000e-009,-3.22656413e-004
,,,3.85000000e-009,-3.00000161e-004
,,,3.87500000e-009,-2.77343909e-004
,,,3.90000000e-009,-2.56250158e-004
,,,3.92500000e-009,-2.34375156e-004
,,,3.95000000e-009,-2.11718905e-004
,,,3.97500000e-009,-1.87500153e-004
,,,4.00000000e-009,-1.60937651e-004
,,,4.02500000e-009,-1.31250149e-004
,,,4.05000000e-009,-1.00000147e-004
,,,4.07500000e-009,-6.64063944e-005
,,,4.10000000e-009,-3.28126420e-005
,,,4.12500000e-009,-1.39698386e-010
,,,4.15000000e-009,3.04686125e-005
,,,4.17500000e-009,5.78123644e-005
,,,4.20000000e-009,7.96873659e-005
,,,4.22500000e-009,9.37498669e-005
,,,4.25000000e-009,9.99998674e-005
,,,4.27500000e-009,9.45311170e-005
,,,4.30000000e-009,8.04686160e-005
,,,4.32500000e-009,5.93748645e-005
,,,4.35000000e-009,3.28123626e-005
,,,4.37500000e-009,1.56236041e-006
,,,4.40000000e-009,-3.20313920e-005
,,,4.42500000e-009,-6.56251443e-005
,,,4.45000000e-009,-1.00000147e-004
,,,4.47500000e-009,-1.33593899e-004
,,,4.50000000e-009,-1.64843901e-004
,,,4.52500000e-009,-1.92968903e-004
,,,4.55000000e-009,-2.18750155e-004
,,,4.57500000e-009,-2.41406407e-004
,,,4.60000000e-009,-2.61718908e-004
,,,4.62500000e-009,-2.81250160e-004
,,,4.65000000e-009,-3.00000161e-004
,,,4.67500000e-009,-3.16406412e-004
,,,4.70000000e-009,-3.31250163e-004
,,,4.72500000e-009,-3.41406414e-004
,,,4.75000000e-009,-3.46093914e-004
,,,4.77500000e-009,-3.45312664e-004
,,,4.80000000e-009,-3.37500164e-004
,,,4.82500000e-009,-3.21875162e-004
,,,4.85000000e-009,-3.00000161e-004
,,,4.87500000e-009,-2.71093909e-004
,,,4.90000000e-009,-2.38281407e-004
,,,4.92500000e-009,-2.04687654e-004
,,,4.95000000e-009,-1.71093902e-004
,,,4.97500000e-009,-1.42187650e-004
,,,5.00000000e-009,-1.18750148e-004
,,,5.02500000e-009,-1.04687647e-004
,,,5.05000000e-009,-1.00000147e-004
,,,5.07500000e-009,-1.06250147e-004
,,,5.10000000e-009,-1.21875148e-004
,,,5.12500000e-009,-1.46875150e-004
,,,5.15000000e-009,-1.76562652e-004
,,,5.17500000e-009,-2.09375155e-004
,,,5.20000000e-009,-2.42968907e-004
,,,5.22500000e-009,-2.73437659e-004
,,,5.25000000e-009,-3.00000161e-004
,,,5.27500000e-009,-3.15625162e-004
,,,5.30000000e-009,-3.25000163e-004
,,,5.32500000e-009,-3.27343913e-004
,,,5.35000000e-009,-3.25000163e-004
,,,5.37500000e-009,-3.19531412e-004
,,,5.40000000e-009,-3.12500162e-004
,,,5.42500000e-009,-3.05468911e-004
,,,5.45000000e-009,-3.00000161e-004
,,,5.47500000e-009,-2.93750160e-004
,,,5.50000000e-009,-2.90625160e-004
,,,5.52500000e-009,-2.90625160e-004
,,,5.55000000e-009,-2.92187660e-004
,,,5.57500000e-009,-2.94531411e-004
,,,5.60000000e-009,-2.96875161e-004
,,,5.62500000e-009,-2.99218911e-004
,,,5.65000000e-009,-3.00000161e-004
,,,5.67500000e-009,-2.96875161e-004
,,,5.70000000e-009,-2.92187660e-004
,,,5.72500000e-009,-2.87500160e-004
,,,5.75000000e-009,-2.82812660e-004
,,,5.77500000e-009,-2.81250160e-004
,,,5.80000000e-009,-2.83593910e-004
,,,5.82500000e-009,-2.89062660e-004
,,,5.85000000e-009,-3.00000161e-004
,,,5.87500000e-009,-3.10156412e-004
,,,5.90000000e-009,-3.21875162e-004
,,,5.92500000e-009,-3.32812663e-004
,,,5.95000000e-009,-3.40625164e-004
,,,5.97500000e-009,-3.42968914e-004
