RawData/SinglePhotoelectron/L2_2pt2C_5mV/wave000_Ch3.csv

"Record Length",1000,"Points",-7.72500000e-009,-1.51562650e-004
"Sample Interval",2.50000000e-011,s,-7.70000000e-009,-1.17968898e-004
"Trigger Point",309,"Samples",-7.67500000e-009,-1.00000147e-004
"Trigger Time",1.39666192e-011,s,-7.65000000e-009,-9.84376467e-005
"",,,-7.62500000e-009,-1.10937648e-004
"Horizontal Offset",-7.72500000e-009,s,-7.60000000e-009,-1.35937649e-004
,,,-7.57500000e-009,-1.68750152e-004
,,,-7.55000000e-009,-2.05468904e-004
,,,-7.52500000e-009,-2.42187657e-004
,,,-7.50000000e-009,-2.74218909e-004
,,,-7.47500000e-009,-3.00000161e-004
,,,-7.45000000e-009,-3.14062662e-004
,,,-7.42500000e-009,-3.18750162e-004
,,,-7.40000000e-009,-3.16406412e-004
,,,-7.37500000e-009,-3.09375162e-004
,,,-7.35000000e-009,-3.00000161e-004
,,,-7.32500000e-009,-2.93750160e-004
,,,-7.30000000e-009,-2.92968910e-004
,,,-7.27500000e-009,-3.00000161e-004
,,,-7.25000000e-009,-3.13281412e-004
,,,-7.22500000e-009,-3.35156413e-004
,,,-7.20000000e-009,-3.63281415e-004
,,,-7.17500000e-009,-3.95312668e-004
,,,-7.15000000e-009,-4.28125170e-004
,,,-7.12500000e-009,-4.58593922e-004
,,,-7.10000000e-009,-4.83593924e-004
,,,-7.07500000e-009,-5.00000175e-004
,,,-7.05000000e-009,-5.02343925e-004
,,,-7.02500000e-009,-4.93750175e-004
,,,-7.00000000e-009,-4.74218923e-004
,,,-6.97500000e-009,-4.46093921e-004
,,,-6.95000000e-009,-4.12500169e-004
,,,-6.92500000e-009,-3.75000166e-004
,,,-6.90000000e-009,-3.36718914e-004
,,,-6.87500000e-009,-3.00000161e-004
,,,-6.85000000e-009,-2.64843908e-004
,,,-6.82500000e-009,-2.34375156e-004
,,,-6.80000000e-009,-2.07812654e-004
,,,-6.77500000e-009,-1.84375153e-004
,,,-6.75000000e-009,-1.63281401e-004
,,,-6.72500000e-009,-1.42187650e-004
,,,-6.70000000e-009,-1.21875148e-004
,,,-6.67500000e-009,-1.00000147e-004
,,,-6.65000000e-009,-7.50001450e-005
,,,-6.62500000e-009,-4.84376431e-005
,,,-6.60000000e-009,-2.03126411e-005
,,,-6.57500000e-009,7.81236085e-006
,,,-6.55000000e-009,3.51561128e-005
,,,-6.52500000e-009,6.09373646e-005
,,,-6.50000000e-009,8.28123662e-005
,,,-6.47500000e-009,9.99998674e-005
,,,-6.45000000e-009,1.11718618e-004
,,,-6.42500000e-009,1.17968619e-004
,,,-6.40000000e-009,1.21093619e-004
,,,-6.37500000e-009,1.19531119e-004
,,,-6.35000000e-009,1.16406119e-004
,,,-6.32500000e-009,1.11718618e-004
,,,-6.30000000e-009,1.05468618e-004
,,,-6.27500000e-009,9.99998674e-005
,,,-6.25000000e-009,9.37498669e-005
,,,-6.22500000e-009,8.90623666e-005
,,,-6.20000000e-009,8.59373664e-005
,,,-6.17500000e-009,8.59373664e-005
,,,-6.15000000e-009,8.74998665e-005
,,,-6.12500000e-009,9.06248667e-005
,,,-6.10000000e-009,9.53123670e-005
,,,-6.07500000e-009,9.99998674e-005
,,,-6.05000000e-009,1.03124868e-004
,,,-6.02500000e-009,1.05468618e-004
,,,-6.00000000e-009,1.07812368e-004
,,,-5.97500000e-009,1.08593618e-004
,,,-5.95000000e-009,1.08593618e-004
,,,-5.92500000e-009,1.07812368e-004
,,,-5.90000000e-009,1.04687368e-004
,,,-5.87500000e-009,9.99998674e-005
,,,-5.85000000e-009,9.45311170e-005
,,,-5.82500000e-009,8.98436167e-005
,,,-5.80000000e-009,8.59373664e-005
,,,-5.77500000e-009,8.43748663e-005
,,,-5.75000000e-009,8.43748663e-005
,,,-5.72500000e-009,8.74998665e-005
,,,-5.70000000e-009,9.29686169e-005
,,,-5.67500000e-009,9.99998674e-005
,,,-5.65000000e-009,1.08593618e-004
,,,-5.62500000e-009,1.16406119e-004
,,,-5.60000000e-009,1.23437369e-004
,,,-5.57500000e-009,1.28906119e-004
,,,-5.55000000e-009,1.29687369e-004
,,,-5.52500000e-009,1.25781119e-004
,,,-5.50000000e-009,1.16406119e-004
,,,-5.47500000e-009,9.99998674e-005
,,,-5.45000000e-009,7.96873659e-005
,,,-5.42500000e-009,5.46873642e-005
,,,-5.40000000e-009,2.65623622e-005
,,,-5.37500000e-009,-3.90638997e-006
,,,-5.35000000e-009,-3.35938921e-005
,,,-5.32500000e-009,-6.09376440e-005
,,,-5.30000000e-009,-8.35938956e-005
,,,-5.27500000e-009,-1.00000147e-004
,,,-5.25000000e-009,-1.05468897e-004
,,,-5.22500000e-009,-1.02343897e-004
,,,-5.20000000e-009,-8.98438961e-005
,,,-5.17500000e-009,-6.71876445e-005
,,,-5.15000000e-009,-3.51563922e-005
,,,-5.12500000e-009,4.68736063e-006
,,,-5.10000000e-009,5.07811139e-005
,,,-5.07500000e-009,9.99998674e-005
,,,-5.05000000e-009,1.50781121e-004
,,,-5.02500000e-009,1.99218624e-004
,,,-5.00000000e-009,2.42187377e-004
,,,-4.97500000e-009,2.76562380e-004
,,,-4.95000000e-009,3.00781132e-004
,,,-4.92500000e-009,3.13281132e-004
,,,-4.90000000e-009,3.12499882e-004
,,,-4.87500000e-009,2.99999882e-004
,,,-4.85000000e-009,2.75781130e-004
,,,-4.82500000e-009,2.43749878e-004
,,,-4.80000000e-009,2.07812375e-004
,,,-4.77500000e-009,1.71874872e-004
,,,-4.75000000e-009,1.40624870e-004
,,,-4.72500000e-009,1.16406119e-004
,,,-4.70000000e-009,1.02343618e-004
,,,-4.67500000e-009,9.99998674e-005
,,,-4.65000000e-009,1.11718618e-004
,,,-4.62500000e-009,1.34374870e-004
,,,-4.60000000e-009,1.64843622e-004
,,,-4.57500000e-009,1.99218624e-004
,,,-4.55000000e-009,2.34374877e-004
,,,-4.52500000e-009,2.64843629e-004
,,,-4.50000000e-009,2.88281131e-004
,,,-4.47500000e-009,2.99999882e-004
,,,-4.45000000e-009,2.98437381e-004
,,,-4.42500000e-009,2.85156130e-004
,,,-4.40000000e-009,2.60937379e-004
,,,-4.37500000e-009,2.29687377e-004
,,,-4.35000000e-009,1.94531124e-004
,,,-4.32500000e-009,1.58593622e-004
,,,-4.30000000e-009,1.26562369e-004
,,,-4.27500000e-009,9.99998674e-005
,,,-4.25000000e-009,8.20311161e-005
,,,-4.22500000e-009,7.34373655e-005
,,,-4.20000000e-009,7.18748654e-005
,,,-4.17500000e-009,7.65623657e-005
,,,-4.15000000e-009,8.43748663e-005
,,,-4.12500000e-009,9.21873668e-005
,,,-4.10000000e-009,9.84373673e-005
,,,-4.07500000e-009,9.99998674e-005
,,,-4.05000000e-009,9.84373673e-005
,,,-4.02500000e-009,9.21873668e-005
,,,-4.00000000e-009,8.43748663e-005
,,,-3.97500000e-009,7.65623657e-005
,,,-3.95000000e-009,7.18748654e-005
,,,-3.92500000e-009,7.34373655e-005
,,,-3.90000000e-009,8.20311161e-005
,,,-3.87500000e-009,9.99998674e-005
,,,-3.85000000e-009,1.27343619e-004
,,,-3.82500000e-009,1.60937372e-004
,,,-3.80000000e-009,1.96874874e-004
,,,-3.77500000e-009,2.32812377e-004
,,,-3.75000000e-009,2.64062379e-004
,,,-3.72500000e-009,2.87499881e-004
,,,-3.70000000e-009,3.00781132e-004
,,,-3.67500000e-009,2.99999882e-004
,,,-3.65000000e-009,2.85937381e-004
,,,-3.62500000e-009,2.60937379e-004
,,,-3.60000000e-009,2.28124876e-004
,,,-3.57500000e-009,1.91406124e-004
,,,-3.55000000e-009,1.57031121e-004
,,,-3.52500000e-009,1.27343619e-004
,,,-3.50000000e-009,1.07812368e-004
,,,-3.47500000e-009,9.99998674e-005
,,,-3.45000000e-009,1.06249868e-004
,,,-3.42500000e-009,1.23437369e-004
,,,-3.40000000e-009,1.50781121e-004
,,,-3.37500000e-009,1.85156123e-004
,,,-3.35000000e-009,2.21093626e-004
,,,-3.32500000e-009,2.54687378e-004
,,,-3.30000000e-009,2.82031130e-004
,,,-3.27500000e-009,2.99999882e-004
,,,-3.25000000e-009,3.03906132e-004
,,,-3.22500000e-009,2.94531131e-004
,,,-3.20000000e-009,2.74218630e-004
,,,-3.17500000e-009,2.44531128e-004
,,,-3.15000000e-009,2.09374875e-004
,,,-3.12500000e-009,1.71093622e-004
,,,-3.10000000e-009,1.33593620e-004
,,,-3.07500000e-009,9.99998674e-005
,,,-3.05000000e-009,7.26561154e-005
,,,-3.02500000e-009,5.31248641e-005
,,,-3.00000000e-009,4.21873633e-005
,,,-2.97500000e-009,4.14061132e-005
,,,-2.95000000e-009,4.84373637e-005
,,,-2.92500000e-009,6.17186147e-005
,,,-2.90000000e-009,8.04686160e-005
,,,-2.87500000e-009,9.99998674e-005
,,,-2.85000000e-009,1.18749869e-004
,,,-2.82500000e-009,1.33593620e-004
,,,-2.80000000e-009,1.43749870e-004
,,,-2.77500000e-009,1.48437371e-004
,,,-2.75000000e-009,1.46093621e-004
,,,-2.72500000e-009,1.37499870e-004
,,,-2.70000000e-009,1.21874869e-004
,,,-2.67500000e-009,9.99998674e-005
,,,-2.65000000e-009,7.10936153e-005
,,,-2.62500000e-009,3.90623631e-005
,,,-2.60000000e-009,5.46861069e-006
,,,-2.57500000e-009,-2.57813915e-005
,,,-2.55000000e-009,-5.39063935e-005
,,,-2.52500000e-009,-7.65626451e-005
,,,-2.50000000e-009,-9.21876462e-005
,,,-2.47500000e-009,-1.00000147e-004
,,,-2.45000000e-009,-1.02343897e-004
,,,-2.42500000e-009,-1.00000147e-004
,,,-2.40000000e-009,-9.37501463e-005
,,,-2.37500000e-009,-8.75001459e-005
,,,-2.35000000e-009,-8.28126456e-005
,,,-2.32500000e-009,-8.20313955e-005
,,,-2.30000000e-009,-8.75001459e-005
,,,-2.27500000e-009,-1.00000147e-004
,,,-2.25000000e-009,-1.21093898e-004
,,,-2.22500000e-009,-1.49218900e-004
,,,-2.20000000e-009,-1.81250153e-004
,,,-2.17500000e-009,-2.14843905e-004
,,,-2.15000000e-009,-2.46093907e-004
,,,-2.12500000e-009,-2.72656409e-004
,,,-2.10000000e-009,-2.90625160e-004
,,,-2.07500000e-009,-3.00000161e-004
,,,-2.05000000e-009,-3.00000161e-004
,,,-2.02500000e-009,-2.92968910e-004
,,,-2.00000000e-009,-2.82812660e-004
,,,-1.97500000e-009,-2.72656409e-004
,,,-1.95000000e-009,-2.65625158e-004
,,,-1.92500000e-009,-2.65625158e-004
,,,-1.90000000e-009,-2.76562659e-004
,,,-1.87500000e-009,-3.00000161e-004
,,,-1.85000000e-009,-3.35937663e-004
,,,-1.82500000e-009,-3.83593917e-004
,,,-1.80000000e-009,-4.39843921e-004
,,,-1.77500000e-009,-5.00781425e-004
,,,-1.75000000e-009,-5.60937679e-004
,,,-1.72500000e-009,-6.17187683e-004
,,,-1.70000000e-009,-6.64062687e-004
,,,-1.67500000e-009,-7.00000189e-004
,,,-1.65000000e-009,-7.20312691e-004
,,,-1.62500000e-009,-7.29687691e-004
,,,-1.60000000e-009,-7.29687691e-004
,,,-1.57500000e-009,-7.22656441e-004
,,,-1.55000000e-009,-7.12500190e-004
,,,-1.52500000e-009,-7.03125189e-004
,,,-1.50000000e-009,-6.97656439e-004
,,,-1.47500000e-009,-7.00000189e-004
,,,-1.45000000e-009,-7.14062690e-004
,,,-1.42500000e-009,-7.38281442e-004
,,,-1.40000000e-009,-7.69531444e-004
,,,-1.37500000e-009,-8.04687697e-004
,,,-1.35000000e-009,-8.39062699e-004
,,,-1.32500000e-009,-8.69531451e-004
,,,-1.30000000e-009,-8.90625203e-004
,,,-1.27500000e-009,-9.00000203e-004
,,,-1.25000000e-009,-9.03906454e-004
,,,-1.22500000e-009,-8.97656453e-004
,,,-1.20000000e-009,-8.81250202e-004
,,,-1.17500000e-009,-8.55468950e-004
,,,-1.15000000e-009,-8.21093948e-004
,,,-1.12500000e-009,-7.82812695e-004
,,,-1.10000000e-009,-7.40625192e-004
,,,-1.07500000e-009,-7.00000189e-004
,,,-1.05000000e-009,-6.78906438e-004
,,,-1.02500000e-009,-6.66406437e-004
,,,-1.00000000e-009,-6.61718937e-004
,,,-9.75000000e-010,-6.64062687e-004
,,,-9.50000000e-010,-6.71093937e-004
,,,-9.25000000e-010,-6.79687688e-004
,,,-9.00000000e-010,-6.89062688e-004
,,,-8.75000000e-010,-7.00000189e-004
,,,-8.50000000e-010,-7.35156442e-004
,,,-8.25000000e-010,-7.75781445e-004
,,,-8.00000000e-010,-8.21093948e-004
,,,-7.75000000e-010,-8.70312701e-004
,,,-7.50000000e-010,-9.22656455e-004
,,,-7.25000000e-010,-9.77343959e-004
,,,-7.00000000e-010,-1.03593771e-003
,,,-6.75000000e-010,-1.10000022e-003
,,,-6.50000000e-010,-1.19375022e-003
,,,-6.25000000e-010,-1.30000023e-003
,,,-6.00000000e-010,-1.41640649e-003
,,,-5.75000000e-010,-1.54140650e-003
,,,-5.50000000e-010,-1.67421901e-003
,,,-5.25000000e-010,-1.81250027e-003
,,,-5.00000000e-010,-1.95468778e-003
,,,-4.75000000e-010,-2.10000029e-003
,,,-4.50000000e-010,-2.26093780e-003
,,,-4.25000000e-010,-2.42500031e-003
,,,-4.00000000e-010,-2.58750032e-003
,,,-3.75000000e-010,-2.74609408e-003
,,,-3.50000000e-010,-2.89765659e-003
,,,-3.25000000e-010,-3.04140660e-003
,,,-3.00000000e-010,-3.17421911e-003
,,,-2.75000000e-010,-3.30000037e-003
,,,-2.50000000e-010,-3.42187538e-003
,,,-2.25000000e-010,-3.54531289e-003
,,,-2.00000000e-010,-3.67343790e-003
,,,-1.75000000e-010,-3.81015666e-003
,,,-1.50000000e-010,-3.95859417e-003
,,,-1.25000000e-010,-4.12265668e-003
,,,-1.00000000e-010,-4.30312544e-003
,,,-7.50000000e-011,-4.50000046e-003
,,,-5.00000000e-011,-4.69921922e-003
,,,-2.50000000e-011,-4.91171924e-003
,,,0.00000000e+000,-5.13125050e-003
,,,2.50000000e-011,-5.35156302e-003
,,,5.00000000e-011,-5.56640678e-003
,,,7.50000000e-011,-5.76640680e-003
,,,1.00000000e-010,-5.94609431e-003
,,,1.25000000e-010,-6.10000057e-003
,,,1.50000000e-010,-6.19375058e-003
,,,1.75000000e-010,-6.26484433e-003
,,,2.00000000e-010,-6.31640684e-003
,,,2.25000000e-010,-6.35546934e-003
,,,2.50000000e-010,-6.38906309e-003
,,,2.75000000e-010,-6.42109434e-003
,,,3.00000000e-010,-6.45703185e-003
,,,3.25000000e-010,-6.50000060e-003
,,,3.50000000e-010,-6.51328185e-003
,,,3.75000000e-010,-6.53750060e-003
,,,4.00000000e-010,-6.56953185e-003
,,,4.25000000e-010,-6.60781311e-003
,,,4.50000000e-010,-6.64531311e-003
,,,4.75000000e-010,-6.67734436e-003
,,,5.00000000e-010,-6.69687561e-003
,,,5.25000000e-010,-6.70000061e-003
,,,5.50000000e-010,-6.64296936e-003
,,,5.75000000e-010,-6.57031310e-003
,,,6.00000000e-010,-6.48593810e-003
,,,6.25000000e-010,-6.39687559e-003
,,,6.50000000e-010,-6.30937559e-003
,,,6.75000000e-010,-6.22812558e-003
,,,7.00000000e-010,-6.15781308e-003
,,,7.25000000e-010,-6.10000057e-003
,,,7.50000000e-010,-6.02031307e-003
,,,7.75000000e-010,-5.95000056e-003
,,,8.00000000e-010,-5.88828181e-003
,,,8.25000000e-010,-5.82812555e-003
,,,8.50000000e-010,-5.76484430e-003
,,,8.75000000e-010,-5.69296929e-003
,,,9.00000000e-010,-5.60546929e-003
,,,9.25000000e-010,-5.50000053e-003
,,,9.50000000e-010,-5.34921927e-003
,,,9.75000000e-010,-5.17890676e-003
,,,1.00000000e-009,-4.99453174e-003
,,,1.02500000e-009,-4.80156298e-003
,,,1.05000000e-009,-4.60937547e-003
,,,1.07500000e-009,-4.42421920e-003
,,,1.10000000e-009,-4.25234419e-003
,,,1.12500000e-009,-4.10000043e-003
,,,1.15000000e-009,-3.95937542e-003
,,,1.17500000e-009,-3.83750041e-003
,,,1.20000000e-009,-3.73125040e-003
,,,1.22500000e-009,-3.63750040e-003
,,,1.25000000e-009,-3.55234414e-003
,,,1.27500000e-009,-3.47109414e-003
,,,1.30000000e-009,-3.38906288e-003
,,,1.32500000e-009,-3.30000037e-003
,,,1.35000000e-009,-3.19921912e-003
,,,1.37500000e-009,-3.08046911e-003
,,,1.40000000e-009,-2.94375035e-003
,,,1.42500000e-009,-2.79062534e-003
,,,1.45000000e-009,-2.62421908e-003
,,,1.47500000e-009,-2.45000031e-003
,,,1.50000000e-009,-2.27343780e-003
,,,1.52500000e-009,-2.10000029e-003
,,,1.55000000e-009,-1.94687528e-003
,,,1.57500000e-009,-1.80312527e-003
,,,1.60000000e-009,-1.67187526e-003
,,,1.62500000e-009,-1.55625025e-003
,,,1.65000000e-009,-1.46015649e-003
,,,1.67500000e-009,-1.38515649e-003
,,,1.70000000e-009,-1.33203148e-003
,,,1.72500000e-009,-1.30000023e-003
,,,1.75000000e-009,-1.30156273e-003
,,,1.77500000e-009,-1.31250023e-003
,,,1.80000000e-009,-1.32578148e-003
,,,1.82500000e-009,-1.33828148e-003
,,,1.85000000e-009,-1.34531273e-003
,,,1.87500000e-009,-1.34218773e-003
,,,1.90000000e-009,-1.32812523e-003
,,,1.92500000e-009,-1.30000023e-003
,,,1.95000000e-009,-1.27109398e-003
,,,1.97500000e-009,-1.22265648e-003
,,,2.00000000e-009,-1.15625022e-003
,,,2.02500000e-009,-1.07500022e-003
,,,2.05000000e-009,-9.83593959e-004
,,,2.07500000e-009,-8.86718952e-004
,,,2.10000000e-009,-7.90625196e-004
,,,2.12500000e-009,-7.00000189e-004
,,,2.15000000e-009,-6.30468934e-004
,,,2.17500000e-009,-5.72656430e-004
,,,2.20000000e-009,-5.25781427e-004
,,,2.22500000e-009,-4.92968925e-004
,,,2.25000000e-009,-4.74218923e-004
,,,2.27500000e-009,-4.70312673e-004
,,,2.30000000e-009,-4.78906424e-004
,,,2.32500000e-009,-5.00000175e-004
,,,2.35000000e-009,-5.38281428e-004
,,,2.37500000e-009,-5.78906431e-004
,,,2.40000000e-009,-6.17187683e-004
,,,2.42500000e-009,-6.50000186e-004
,,,2.45000000e-009,-6.75781438e-004
,,,2.47500000e-009,-6.92187689e-004
,,,2.50000000e-009,-7.00000189e-004
,,,2.52500000e-009,-7.00000189e-004
,,,2.55000000e-009,-6.94531439e-004
,,,2.57500000e-009,-6.84375188e-004
,,,2.60000000e-009,-6.71093937e-004
,,,2.62500000e-009,-6.59375186e-004
,,,2.65000000e-009,-6.53906436e-004
,,,2.67500000e-009,-6.57031436e-004
,,,2.70000000e-009,-6.71875187e-004
,,,2.72500000e-009,-7.00000189e-004
,,,2.75000000e-009,-7.38281442e-004
,,,2.77500000e-009,-7.83593945e-004
,,,2.80000000e-009,-8.29687698e-004
,,,2.82500000e-009,-8.72656451e-004
,,,2.85000000e-009,-9.05468954e-004
,,,2.87500000e-009,-9.23437705e-004
,,,2.90000000e-009,-9.22656455e-004
,,,2.92500000e-009,-9.00000203e-004
,,,2.95000000e-009,-8.53125200e-004
,,,2.97500000e-009,-7.87500195e-004
,,,3.00000000e-009,-7.05468940e-004
,,,3.02500000e-009,-6.14843933e-004
,,,3.05000000e-009,-5.21875177e-004
,,,3.07500000e-009,-4.35156420e-004
,,,3.10000000e-009,-3.59375165e-004
,,,3.12500000e-009,-3.00000161e-004
,,,3.15000000e-009,-2.60937658e-004
,,,3.17500000e-009,-2.41406407e-004
,,,3.20000000e-009,-2.39062657e-004
,,,3.22500000e-009,-2.48437657e-004
,,,3.25000000e-009,-2.64843908e-004
,,,3.27500000e-009,-2.82031410e-004
,,,3.30000000e-009,-2.95312661e-004
,,,3.32500000e-009,-3.00000161e-004
,,,3.35000000e-009,-2.92968910e-004
,,,3.37500000e-009,-2.75000159e-004
,,,3.40000000e-009,-2.46875157e-004
,,,3.42500000e-009,-2.12500155e-004
,,,3.45000000e-009,-1.76562652e-004
,,,3.47500000e-009,-1.42187650e-004
,,,3.50000000e-009,-1.15625148e-004
,,,3.52500000e-009,-1.00000147e-004
,,,3.55000000e-009,-1.00000147e-004
,,,3.57500000e-009,-1.12500148e-004
,,,3.60000000e-009,-1.35937649e-004
,,,3.62500000e-009,-1.67187652e-004
,,,3.65000000e-009,-2.03125154e-004
,,,3.67500000e-009,-2.39062657e-004
,,,3.70000000e-009,-2.72656409e-004
,,,3.72500000e-009,-3.00000161e-004
,,,3.75000000e-009,-3.21875162e-004
,,,3.77500000e-009,-3.35156413e-004
,,,3.80000000e-009,-3.39062664e-004
,,,3.82500000e-009,-3.35937663e-004
,,,3.85000000e-009,-3.28125163e-004
,,,3.87500000e-009,-3.17968912e-004
,,,3.90000000e-009,-3.07812661e-004
,,,3.92500000e-009,-3.00000161e-004
,,,3.95000000e-009,-2.97656411e-004
,,,3.97500000e-009,-2.99218911e-004
,,,4.00000000e-009,-3.03125161e-004
,,,4.02500000e-009,-3.07031411e-004
,,,4.05000000e-009,-3.10937662e-004
,,,4.07500000e-009,-3.11718912e-004
,,,4.10000000e-009,-3.08593912e-004
,,,4.12500000e-009,-3.00000161e-004
,,,4.15000000e-009,-2.85156410e-004
,,,4.17500000e-009,-2.65625158e-004
,,,4.20000000e-009,-2.40625157e-004
,,,4.22500000e-009,-2.11718905e-004
,,,4.25000000e-009,-1.81250153e-004
,,,4.27500000e-009,-1.50000150e-004
,,,4.30000000e-009,-1.22656398e-004
,,,4.32500000e-009,-1.00000147e-004
,,,4.35000000e-009,-8.75001459e-005
,,,4.37500000e-009,-8.43751457e-005
,,,4.40000000e-009,-9.29688963e-005
,,,4.42500000e-009,-1.12500148e-004
,,,4.45000000e-009,-1.43750150e-004
,,,4.47500000e-009,-1.86718903e-004
,,,4.50000000e-009,-2.39062657e-004
,,,4.52500000e-009,-3.00000161e-004
,,,4.55000000e-009,-3.65625166e-004
,,,4.57500000e-009,-4.32812670e-004
,,,4.60000000e-009,-4.98437675e-004
,,,4.62500000e-009,-5.59375179e-004
,,,4.65000000e-009,-6.12500183e-004
,,,4.67500000e-009,-6.54687686e-004
,,,4.70000000e-009,-6.83593938e-004
,,,4.72500000e-009,-7.00000189e-004
,,,4.75000000e-009,-6.98437689e-004
,,,4.77500000e-009,-6.85156438e-004
,,,4.80000000e-009,-6.61718937e-004
,,,4.82500000e-009,-6.31250184e-004
,,,4.85000000e-009,-5.96093932e-004
,,,4.87500000e-009,-5.60937679e-004
,,,4.90000000e-009,-5.28125177e-004
,,,4.92500000e-009,-5.00000175e-004
,,,4.95000000e-009,-4.78906424e-004
,,,4.97500000e-009,-4.65625173e-004
,,,5.00000000e-009,-4.60937672e-004
,,,5.02500000e-009,-4.62500172e-004
,,,5.05000000e-009,-4.69531423e-004
,,,5.07500000e-009,-4.79687674e-004
,,,5.10000000e-009,-4.89843924e-004
,,,5.12500000e-009,-5.00000175e-004
,,,5.15000000e-009,-5.07031426e-004
,,,5.17500000e-009,-5.11718926e-004
,,,5.20000000e-009,-5.13281426e-004
,,,5.22500000e-009,-5.12500176e-004
,,,5.25000000e-009,-5.10156426e-004
,,,5.27500000e-009,-5.06250176e-004
,,,5.30000000e-009,-5.02343925e-004
,,,5.32500000e-009,-5.00000175e-004
,,,5.35000000e-009,-4.95312675e-004
,,,5.37500000e-009,-4.92968925e-004
,,,5.40000000e-009,-4.92968925e-004
,,,5.42500000e-009,-4.93750175e-004
,,,5.45000000e-009,-4.95312675e-004
,,,5.47500000e-009,-4.97656425e-004
,,,5.50000000e-009,-4.99218925e-004
,,,5.52500000e-009,-5.00000175e-004
,,,5.55000000e-009,-4.95312675e-004
,,,5.57500000e-009,-4.89843924e-004
,,,5.60000000e-009,-4.85156424e-004
,,,5.62500000e-009,-4.80468924e-004
,,,5.65000000e-009,-4.78906424e-004
,,,5.67500000e-009,-4.81250174e-004
,,,5.70000000e-009,-4.87500174e-004
,,,5.72500000e-009,-5.00000175e-004
,,,5.75000000e-009,-5.14843926e-004
,,,5.77500000e-009,-5.34375178e-004
,,,5.80000000e-009,-5.57812679e-004
,,,5.82500000e-009,-5.84375181e-004
,,,5.85000000e-009,-6.12500183e-004
,,,5.87500000e-009,-6.42187685e-004
,,,5.90000000e-009,-6.71875187e-004
