RawData/SinglePhotoelectron/L2_2pt2C_5mV/wave014_Ch3.csv

"Record Length",1000,"Points",-7.72500000e-009,-3.03906411e-004
"Sample Interval",2.50000000e-011,s,-7.70000000e-009,-3.00000161e-004
"Trigger Point",309,"Samples",-7.67500000e-009,-2.88281410e-004
"Trigger Time",1.57188417e-011,s,-7.65000000e-009,-2.71093909e-004
"",,,-7.62500000e-009,-2.50000157e-004
"Horizontal Offset",-7.72500000e-009,s,-7.60000000e-009,-2.24218906e-004
,,,-7.57500000e-009,-1.95312654e-004
,,,-7.55000000e-009,-1.64062651e-004
,,,-7.52500000e-009,-1.32031399e-004
,,,-7.50000000e-009,-1.00000147e-004
,,,-7.47500000e-009,-6.64063944e-005
,,,-7.45000000e-009,-3.43751421e-005
,,,-7.42500000e-009,-5.46889009e-006
,,,-7.40000000e-009,2.10936118e-005
,,,-7.37500000e-009,4.45311135e-005
,,,-7.35000000e-009,6.48436149e-005
,,,-7.32500000e-009,8.35936162e-005
,,,-7.30000000e-009,9.99998674e-005
,,,-7.27500000e-009,1.15624868e-004
,,,-7.25000000e-009,1.32031120e-004
,,,-7.22500000e-009,1.50781121e-004
,,,-7.20000000e-009,1.72656123e-004
,,,-7.17500000e-009,1.99218624e-004
,,,-7.15000000e-009,2.28906127e-004
,,,-7.12500000e-009,2.63281129e-004
,,,-7.10000000e-009,2.99999882e-004
,,,-7.07500000e-009,3.35156134e-004
,,,-7.05000000e-009,3.70312387e-004
,,,-7.02500000e-009,4.05468639e-004
,,,-7.00000000e-009,4.36718641e-004
,,,-6.97500000e-009,4.64062393e-004
,,,-6.95000000e-009,4.84374895e-004
,,,-6.92500000e-009,4.96874895e-004
,,,-6.90000000e-009,4.99999896e-004
,,,-6.87500000e-009,4.89843645e-004
,,,-6.85000000e-009,4.71093644e-004
,,,-6.82500000e-009,4.46093642e-004
,,,-6.80000000e-009,4.17187390e-004
,,,-6.77500000e-009,3.85937388e-004
,,,-6.75000000e-009,3.54687385e-004
,,,-6.72500000e-009,3.25781133e-004
,,,-6.70000000e-009,2.99999882e-004
,,,-6.67500000e-009,2.77343630e-004
,,,-6.65000000e-009,2.61718629e-004
,,,-6.62500000e-009,2.53906128e-004
,,,-6.60000000e-009,2.53124878e-004
,,,-6.57500000e-009,2.59374879e-004
,,,-6.55000000e-009,2.70312379e-004
,,,-6.52500000e-009,2.84374880e-004
,,,-6.50000000e-009,2.99999882e-004
,,,-6.47500000e-009,3.12499882e-004
,,,-6.45000000e-009,3.22656133e-004
,,,-6.42500000e-009,3.30468634e-004
,,,-6.40000000e-009,3.33593634e-004
,,,-6.37500000e-009,3.32812384e-004
,,,-6.35000000e-009,3.26562383e-004
,,,-6.32500000e-009,3.15624883e-004
,,,-6.30000000e-009,2.99999882e-004
,,,-6.27500000e-009,2.78124880e-004
,,,-6.25000000e-009,2.52343628e-004
,,,-6.22500000e-009,2.24999876e-004
,,,-6.20000000e-009,1.96874874e-004
,,,-6.17500000e-009,1.69531122e-004
,,,-6.15000000e-009,1.42968620e-004
,,,-6.12500000e-009,1.20312369e-004
,,,-6.10000000e-009,9.99998674e-005
,,,-6.07500000e-009,8.35936162e-005
,,,-6.05000000e-009,7.10936153e-005
,,,-6.02500000e-009,6.32811148e-005
,,,-6.00000000e-009,6.09373646e-005
,,,-5.97500000e-009,6.40623648e-005
,,,-5.95000000e-009,7.26561154e-005
,,,-5.92500000e-009,8.51561163e-005
,,,-5.90000000e-009,9.99998674e-005
,,,-5.87500000e-009,1.16406119e-004
,,,-5.85000000e-009,1.31249870e-004
,,,-5.82500000e-009,1.42187370e-004
,,,-5.80000000e-009,1.48437371e-004
,,,-5.77500000e-009,1.47656121e-004
,,,-5.75000000e-009,1.39062370e-004
,,,-5.72500000e-009,1.23437369e-004
,,,-5.70000000e-009,9.99998674e-005
,,,-5.67500000e-009,7.26561154e-005
,,,-5.65000000e-009,4.06248632e-005
,,,-5.62500000e-009,7.03111080e-006
,,,-5.60000000e-009,-2.50001415e-005
,,,-5.57500000e-009,-5.39063935e-005
,,,-5.55000000e-009,-7.65626451e-005
,,,-5.52500000e-009,-9.21876462e-005
,,,-5.50000000e-009,-1.00000147e-004
,,,-5.47500000e-009,-9.68751466e-005
,,,-5.45000000e-009,-8.90626460e-005
,,,-5.42500000e-009,-7.89063953e-005
,,,-5.40000000e-009,-6.87501446e-005
,,,-5.37500000e-009,-6.32813942e-005
,,,-5.35000000e-009,-6.48438943e-005
,,,-5.32500000e-009,-7.65626451e-005
,,,-5.30000000e-009,-1.00000147e-004
,,,-5.27500000e-009,-1.31250149e-004
,,,-5.25000000e-009,-1.74218902e-004
,,,-5.22500000e-009,-2.25781406e-004
,,,-5.20000000e-009,-2.83593910e-004
,,,-5.17500000e-009,-3.44531414e-004
,,,-5.15000000e-009,-4.03125168e-004
,,,-5.12500000e-009,-4.56250172e-004
,,,-5.10000000e-009,-5.00000175e-004
,,,-5.07500000e-009,-5.23437677e-004
,,,-5.05000000e-009,-5.32812677e-004
,,,-5.02500000e-009,-5.25781427e-004
,,,-5.00000000e-009,-5.03906425e-004
,,,-4.97500000e-009,-4.67968923e-004
,,,-4.95000000e-009,-4.20312669e-004
,,,-4.92500000e-009,-3.63281415e-004
,,,-4.90000000e-009,-3.00000161e-004
,,,-4.87500000e-009,-2.29687656e-004
,,,-4.85000000e-009,-1.61718901e-004
,,,-4.82500000e-009,-9.76563966e-005
,,,-4.80000000e-009,-3.98438925e-005
,,,-4.77500000e-009,1.01561110e-005
,,,-4.75000000e-009,4.99998638e-005
,,,-4.72500000e-009,7.96873659e-005
,,,-4.70000000e-009,9.99998674e-005
,,,-4.67500000e-009,1.11718618e-004
,,,-4.65000000e-009,1.15624868e-004
,,,-4.62500000e-009,1.13281118e-004
,,,-4.60000000e-009,1.07812368e-004
,,,-4.57500000e-009,1.01562367e-004
,,,-4.55000000e-009,9.76561172e-005
,,,-4.52500000e-009,9.60936171e-005
,,,-4.50000000e-009,9.99998674e-005
,,,-4.47500000e-009,1.07031118e-004
,,,-4.45000000e-009,1.20312369e-004
,,,-4.42500000e-009,1.39843620e-004
,,,-4.40000000e-009,1.64843622e-004
,,,-4.37500000e-009,1.95312374e-004
,,,-4.35000000e-009,2.29687377e-004
,,,-4.32500000e-009,2.65624879e-004
,,,-4.30000000e-009,2.99999882e-004
,,,-4.27500000e-009,3.28906134e-004
,,,-4.25000000e-009,3.51562385e-004
,,,-4.22500000e-009,3.66406136e-004
,,,-4.20000000e-009,3.72656137e-004
,,,-4.17500000e-009,3.69531136e-004
,,,-4.15000000e-009,3.55468635e-004
,,,-4.12500000e-009,3.32031134e-004
,,,-4.10000000e-009,2.99999882e-004
,,,-4.07500000e-009,2.60156129e-004
,,,-4.05000000e-009,2.17968626e-004
,,,-4.02500000e-009,1.78124873e-004
,,,-4.00000000e-009,1.43749870e-004
,,,-3.97500000e-009,1.17187369e-004
,,,-3.95000000e-009,1.00781117e-004
,,,-3.92500000e-009,9.53123670e-005
,,,-3.90000000e-009,9.99998674e-005
,,,-3.87500000e-009,1.12499868e-004
,,,-3.85000000e-009,1.30468620e-004
,,,-3.82500000e-009,1.49218621e-004
,,,-3.80000000e-009,1.64843622e-004
,,,-3.77500000e-009,1.71093622e-004
,,,-3.75000000e-009,1.64843622e-004
,,,-3.72500000e-009,1.42187370e-004
,,,-3.70000000e-009,9.99998674e-005
,,,-3.67500000e-009,4.14061132e-005
,,,-3.65000000e-009,-3.20313920e-005
,,,-3.62500000e-009,-1.16406398e-004
,,,-3.60000000e-009,-2.07031404e-004
,,,-3.57500000e-009,-2.96875161e-004
,,,-3.55000000e-009,-3.79687667e-004
,,,-3.52500000e-009,-4.49218921e-004
,,,-3.50000000e-009,-5.00000175e-004
,,,-3.47500000e-009,-5.21093927e-004
,,,-3.45000000e-009,-5.17187676e-004
,,,-3.42500000e-009,-4.89843924e-004
,,,-3.40000000e-009,-4.39062671e-004
,,,-3.37500000e-009,-3.70312666e-004
,,,-3.35000000e-009,-2.87500160e-004
,,,-3.32500000e-009,-1.95312654e-004
,,,-3.30000000e-009,-1.00000147e-004
,,,-3.27500000e-009,-1.56263981e-006
,,,-3.25000000e-009,8.74998665e-005
,,,-3.22500000e-009,1.64843622e-004
,,,-3.20000000e-009,2.26562376e-004
,,,-3.17500000e-009,2.71874880e-004
,,,-3.15000000e-009,2.98437381e-004
,,,-3.12500000e-009,3.07031132e-004
,,,-3.10000000e-009,2.99999882e-004
,,,-3.07500000e-009,2.80468630e-004
,,,-3.05000000e-009,2.50781128e-004
,,,-3.02500000e-009,2.15624876e-004
,,,-3.00000000e-009,1.79687373e-004
,,,-2.97500000e-009,1.46874871e-004
,,,-2.95000000e-009,1.21093619e-004
,,,-2.92500000e-009,1.05468618e-004
,,,-2.90000000e-009,9.99998674e-005
,,,-2.87500000e-009,1.08593618e-004
,,,-2.85000000e-009,1.27343619e-004
,,,-2.82500000e-009,1.54687371e-004
,,,-2.80000000e-009,1.87499874e-004
,,,-2.77500000e-009,2.21874876e-004
,,,-2.75000000e-009,2.53906128e-004
,,,-2.72500000e-009,2.80468630e-004
,,,-2.70000000e-009,2.99999882e-004
,,,-2.67500000e-009,3.09374882e-004
,,,-2.65000000e-009,3.10937382e-004
,,,-2.62500000e-009,3.06249882e-004
,,,-2.60000000e-009,2.98437381e-004
,,,-2.57500000e-009,2.91406131e-004
,,,-2.55000000e-009,2.87499881e-004
,,,-2.52500000e-009,2.89843631e-004
,,,-2.50000000e-009,2.99999882e-004
,,,-2.47500000e-009,3.14843633e-004
,,,-2.45000000e-009,3.38281134e-004
,,,-2.42500000e-009,3.68749886e-004
,,,-2.40000000e-009,4.02343639e-004
,,,-2.37500000e-009,4.35937391e-004
,,,-2.35000000e-009,4.65624893e-004
,,,-2.32500000e-009,4.88281145e-004
,,,-2.30000000e-009,4.99999896e-004
,,,-2.27500000e-009,4.96874895e-004
,,,-2.25000000e-009,4.82031144e-004
,,,-2.22500000e-009,4.58593643e-004
,,,-2.20000000e-009,4.27343641e-004
,,,-2.17500000e-009,3.92968638e-004
,,,-2.15000000e-009,3.58593636e-004
,,,-2.12500000e-009,3.26562383e-004
,,,-2.10000000e-009,2.99999882e-004
,,,-2.07500000e-009,2.79687380e-004
,,,-2.05000000e-009,2.67187379e-004
,,,-2.02500000e-009,2.63281129e-004
,,,-2.00000000e-009,2.65624879e-004
,,,-1.97500000e-009,2.72656130e-004
,,,-1.95000000e-009,2.82812380e-004
,,,-1.92500000e-009,2.92968631e-004
,,,-1.90000000e-009,2.99999882e-004
,,,-1.87500000e-009,3.00781132e-004
,,,-1.85000000e-009,2.93749881e-004
,,,-1.82500000e-009,2.78906130e-004
,,,-1.80000000e-009,2.57031128e-004
,,,-1.77500000e-009,2.26562376e-004
,,,-1.75000000e-009,1.89062374e-004
,,,-1.72500000e-009,1.46874871e-004
,,,-1.70000000e-009,9.99998674e-005
,,,-1.67500000e-009,5.15623640e-005
,,,-1.65000000e-009,3.90611058e-006
,,,-1.62500000e-009,-3.90626425e-005
,,,-1.60000000e-009,-7.34376449e-005
,,,-1.57500000e-009,-9.84376467e-005
,,,-1.55000000e-009,-1.11718898e-004
,,,-1.52500000e-009,-1.11718898e-004
,,,-1.50000000e-009,-1.00000147e-004
,,,-1.47500000e-009,-8.04688954e-005
,,,-1.45000000e-009,-5.31251435e-005
,,,-1.42500000e-009,-2.18751412e-005
,,,-1.40000000e-009,1.09373611e-005
,,,-1.37500000e-009,4.21873633e-005
,,,-1.35000000e-009,6.87498652e-005
,,,-1.32500000e-009,8.90623666e-005
,,,-1.30000000e-009,9.99998674e-005
,,,-1.27500000e-009,9.06248667e-005
,,,-1.25000000e-009,6.95311152e-005
,,,-1.22500000e-009,3.90623631e-005
,,,-1.20000000e-009,4.68736063e-006
,,,-1.17500000e-009,-3.04688919e-005
,,,-1.15000000e-009,-6.17188941e-005
,,,-1.12500000e-009,-8.59376458e-005
,,,-1.10000000e-009,-1.00000147e-004
,,,-1.07500000e-009,-1.21093898e-004
,,,-1.05000000e-009,-1.35937649e-004
,,,-1.02500000e-009,-1.42187650e-004
,,,-1.00000000e-009,-1.42187650e-004
,,,-9.75000000e-010,-1.35156399e-004
,,,-9.50000000e-010,-1.24218898e-004
,,,-9.25000000e-010,-1.10937648e-004
,,,-9.00000000e-010,-1.00000147e-004
,,,-8.75000000e-010,-1.19531398e-004
,,,-8.50000000e-010,-1.51562650e-004
,,,-8.25000000e-010,-1.93750153e-004
,,,-8.00000000e-010,-2.45312657e-004
,,,-7.75000000e-010,-3.03906411e-004
,,,-7.50000000e-010,-3.67187666e-004
,,,-7.25000000e-010,-4.32812670e-004
,,,-7.00000000e-010,-5.00000175e-004
,,,-6.75000000e-010,-5.97656432e-004
,,,-6.50000000e-010,-7.00000189e-004
,,,-6.25000000e-010,-8.05468947e-004
,,,-6.00000000e-010,-9.10156454e-004
,,,-5.75000000e-010,-1.01250021e-003
,,,-5.50000000e-010,-1.11093772e-003
,,,-5.25000000e-010,-1.20625023e-003
,,,-5.00000000e-010,-1.30000023e-003
,,,-4.75000000e-010,-1.42187524e-003
,,,-4.50000000e-010,-1.55156275e-003
,,,-4.25000000e-010,-1.68984401e-003
,,,-4.00000000e-010,-1.83671902e-003
,,,-3.75000000e-010,-1.99062528e-003
,,,-3.50000000e-010,-2.15234404e-003
,,,-3.25000000e-010,-2.32187530e-003
,,,-3.00000000e-010,-2.50000032e-003
,,,-2.75000000e-010,-2.70234408e-003
,,,-2.50000000e-010,-2.91796910e-003
,,,-2.25000000e-010,-3.14296911e-003
,,,-2.00000000e-010,-3.37500038e-003
,,,-1.75000000e-010,-3.61015665e-003
,,,-1.50000000e-010,-3.84453166e-003
,,,-1.25000000e-010,-4.07500043e-003
,,,-1.00000000e-010,-4.30000044e-003
,,,-7.50000000e-011,-4.51484421e-003
,,,-5.00000000e-011,-4.72578172e-003
,,,-2.50000000e-011,-4.93281299e-003
,,,0.00000000e+000,-5.13515675e-003
,,,2.50000000e-011,-5.33359427e-003
,,,5.00000000e-011,-5.52656303e-003
,,,7.50000000e-011,-5.71484429e-003
,,,1.00000000e-010,-5.90000056e-003
,,,1.25000000e-010,-6.05859432e-003
,,,1.50000000e-010,-6.22031308e-003
,,,1.75000000e-010,-6.38750059e-003
,,,2.00000000e-010,-6.56015685e-003
,,,2.25000000e-010,-6.73984437e-003
,,,2.50000000e-010,-6.92421938e-003
,,,2.75000000e-010,-7.11171939e-003
,,,3.00000000e-010,-7.30000066e-003
,,,3.25000000e-010,-7.44453192e-003
,,,3.50000000e-010,-7.58750068e-003
,,,3.75000000e-010,-7.72734444e-003
,,,4.00000000e-010,-7.86250070e-003
,,,4.25000000e-010,-7.98984446e-003
,,,4.50000000e-010,-8.10703196e-003
,,,4.75000000e-010,-8.21171947e-003
,,,5.00000000e-010,-8.30000073e-003
,,,5.25000000e-010,-8.32031323e-003
,,,5.50000000e-010,-8.32812573e-003
,,,5.75000000e-010,-8.32734448e-003
,,,6.00000000e-010,-8.32265698e-003
,,,6.25000000e-010,-8.31640698e-003
,,,6.50000000e-010,-8.31015698e-003
,,,6.75000000e-010,-8.30546948e-003
,,,7.00000000e-010,-8.30000073e-003
,,,7.25000000e-010,-8.24140697e-003
,,,7.50000000e-010,-8.18281322e-003
,,,7.75000000e-010,-8.12187571e-003
,,,8.00000000e-010,-8.05703196e-003
,,,8.25000000e-010,-7.98671946e-003
,,,8.50000000e-010,-7.90546945e-003
,,,8.75000000e-010,-7.81093819e-003
,,,9.00000000e-010,-7.70000068e-003
,,,9.25000000e-010,-7.52890692e-003
,,,9.50000000e-010,-7.34140691e-003
,,,9.75000000e-010,-7.14062565e-003
,,,1.00000000e-009,-6.93125063e-003
,,,1.02500000e-009,-6.71875062e-003
,,,1.05000000e-009,-6.50703185e-003
,,,1.07500000e-009,-6.29921934e-003
,,,1.10000000e-009,-6.10000057e-003
,,,1.12500000e-009,-5.88671931e-003
,,,1.15000000e-009,-5.68359429e-003
,,,1.17500000e-009,-5.49218803e-003
,,,1.20000000e-009,-5.31328177e-003
,,,1.22500000e-009,-5.14609425e-003
,,,1.25000000e-009,-4.98906299e-003
,,,1.27500000e-009,-4.84140673e-003
,,,1.30000000e-009,-4.70000047e-003
,,,1.32500000e-009,-4.55546921e-003
,,,1.35000000e-009,-4.40937545e-003
,,,1.37500000e-009,-4.26015669e-003
,,,1.40000000e-009,-4.10859418e-003
,,,1.42500000e-009,-3.95546917e-003
,,,1.45000000e-009,-3.80156291e-003
,,,1.47500000e-009,-3.64921915e-003
,,,1.50000000e-009,-3.50000039e-003
,,,1.52500000e-009,-3.36250038e-003
,,,1.55000000e-009,-3.22500037e-003
,,,1.57500000e-009,-3.08906286e-003
,,,1.60000000e-009,-2.95625035e-003
,,,1.62500000e-009,-2.82968784e-003
,,,1.65000000e-009,-2.70937533e-003
,,,1.67500000e-009,-2.59921907e-003
,,,1.70000000e-009,-2.50000032e-003
,,,1.72500000e-009,-2.42578156e-003
,,,1.75000000e-009,-2.35390656e-003
,,,1.77500000e-009,-2.28203155e-003
,,,1.80000000e-009,-2.20937530e-003
,,,1.82500000e-009,-2.13437529e-003
,,,1.85000000e-009,-2.05781279e-003
,,,1.87500000e-009,-1.97968778e-003
,,,1.90000000e-009,-1.90000027e-003
,,,1.92500000e-009,-1.83750027e-003
,,,1.95000000e-009,-1.76796901e-003
,,,1.97500000e-009,-1.69140651e-003
,,,2.00000000e-009,-1.61015650e-003
,,,2.02500000e-009,-1.52734400e-003
,,,2.05000000e-009,-1.44531274e-003
,,,2.07500000e-009,-1.36875024e-003
,,,2.10000000e-009,-1.30000023e-003
,,,2.12500000e-009,-1.25781273e-003
,,,2.15000000e-009,-1.22187523e-003
,,,2.17500000e-009,-1.18984397e-003
,,,2.20000000e-009,-1.16328147e-003
,,,2.22500000e-009,-1.14062522e-003
,,,2.25000000e-009,-1.12265647e-003
,,,2.27500000e-009,-1.10937522e-003
,,,2.30000000e-009,-1.10000022e-003
,,,2.32500000e-009,-1.10625022e-003
,,,2.35000000e-009,-1.11093772e-003
,,,2.37500000e-009,-1.11328147e-003
,,,2.40000000e-009,-1.11250022e-003
,,,2.42500000e-009,-1.11015647e-003
,,,2.45000000e-009,-1.10625022e-003
,,,2.47500000e-009,-1.10234397e-003
,,,2.50000000e-009,-1.10000022e-003
,,,2.52500000e-009,-1.10390647e-003
,,,2.55000000e-009,-1.10703147e-003
,,,2.57500000e-009,-1.10703147e-003
,,,2.60000000e-009,-1.10625022e-003
,,,2.62500000e-009,-1.10468772e-003
,,,2.65000000e-009,-1.10234397e-003
,,,2.67500000e-009,-1.10078147e-003
,,,2.70000000e-009,-1.10000022e-003
,,,2.72500000e-009,-1.10078147e-003
,,,2.75000000e-009,-1.10078147e-003
,,,2.77500000e-009,-1.10000022e-003
,,,2.80000000e-009,-1.09843772e-003
,,,2.82500000e-009,-1.09765647e-003
,,,2.85000000e-009,-1.09687522e-003
,,,2.87500000e-009,-1.09765647e-003
,,,2.90000000e-009,-1.10000022e-003
,,,2.92500000e-009,-1.10156272e-003
,,,2.95000000e-009,-1.10234397e-003
,,,2.97500000e-009,-1.10312522e-003
,,,3.00000000e-009,-1.10390647e-003
,,,3.02500000e-009,-1.10390647e-003
,,,3.05000000e-009,-1.10312522e-003
,,,3.07500000e-009,-1.10234397e-003
,,,3.10000000e-009,-1.10000022e-003
,,,3.12500000e-009,-1.09062522e-003
,,,3.15000000e-009,-1.07812522e-003
,,,3.17500000e-009,-1.06171896e-003
,,,3.20000000e-009,-1.03984396e-003
,,,3.22500000e-009,-1.01250021e-003
,,,3.25000000e-009,-9.79687709e-004
,,,3.27500000e-009,-9.42187706e-004
,,,3.30000000e-009,-9.00000203e-004
,,,3.32500000e-009,-8.50000200e-004
,,,3.35000000e-009,-7.96875196e-004
,,,3.37500000e-009,-7.42187692e-004
,,,3.40000000e-009,-6.87500188e-004
,,,3.42500000e-009,-6.34375185e-004
,,,3.45000000e-009,-5.85156431e-004
,,,3.47500000e-009,-5.39843928e-004
,,,3.50000000e-009,-5.00000175e-004
,,,3.52500000e-009,-4.64062673e-004
,,,3.55000000e-009,-4.32812670e-004
,,,3.57500000e-009,-4.05468918e-004
,,,3.60000000e-009,-3.81250167e-004
,,,3.62500000e-009,-3.59375165e-004
,,,3.65000000e-009,-3.39062664e-004
,,,3.67500000e-009,-3.19531412e-004
,,,3.70000000e-009,-3.00000161e-004
,,,3.72500000e-009,-2.81250160e-004
,,,3.75000000e-009,-2.60156408e-004
,,,3.77500000e-009,-2.36718906e-004
,,,3.80000000e-009,-2.10937655e-004
,,,3.82500000e-009,-1.82812653e-004
,,,3.85000000e-009,-1.54687651e-004
,,,3.87500000e-009,-1.26562649e-004
,,,3.90000000e-009,-1.00000147e-004
,,,3.92500000e-009,-8.04688954e-005
,,,3.95000000e-009,-6.48438943e-005
,,,3.97500000e-009,-5.46876436e-005
,,,4.00000000e-009,-5.00001432e-005
,,,4.02500000e-009,-5.23438934e-005
,,,4.05000000e-009,-6.25001441e-005
,,,4.07500000e-009,-7.81251452e-005
,,,4.10000000e-009,-1.00000147e-004
,,,4.12500000e-009,-1.26562649e-004
,,,4.15000000e-009,-1.51562650e-004
,,,4.17500000e-009,-1.71093902e-004
,,,4.20000000e-009,-1.82812653e-004
,,,4.22500000e-009,-1.82812653e-004
,,,4.25000000e-009,-1.69531402e-004
,,,4.27500000e-009,-1.41406400e-004
,,,4.30000000e-009,-1.00000147e-004
,,,4.32500000e-009,-5.00001432e-005
,,,4.35000000e-009,9.37486097e-006
,,,4.37500000e-009,7.34373655e-005
,,,4.40000000e-009,1.38281120e-004
,,,4.42500000e-009,1.97656124e-004
,,,4.45000000e-009,2.47656128e-004
,,,4.47500000e-009,2.82812380e-004
,,,4.50000000e-009,2.99999882e-004
,,,4.52500000e-009,2.92968631e-004
,,,4.55000000e-009,2.67187379e-004
,,,4.57500000e-009,2.24999876e-004
,,,4.60000000e-009,1.68749872e-004
,,,4.62500000e-009,1.03124868e-004
,,,4.65000000e-009,3.35936127e-005
,,,4.67500000e-009,-3.59376422e-005
,,,4.70000000e-009,-1.00000147e-004
,,,4.72500000e-009,-1.54687651e-004
,,,4.75000000e-009,-1.96093904e-004
,,,4.77500000e-009,-2.20312655e-004
,,,4.80000000e-009,-2.27343906e-004
,,,4.82500000e-009,-2.16406405e-004
,,,4.85000000e-009,-1.89843903e-004
,,,4.87500000e-009,-1.50000150e-004
,,,4.90000000e-009,-1.00000147e-004
,,,4.92500000e-009,-4.53126429e-005
,,,4.95000000e-009,8.59361091e-006
,,,4.97500000e-009,5.78123644e-005
,,,5.00000000e-009,9.68748672e-005
,,,5.02500000e-009,1.23437369e-004
,,,5.05000000e-009,1.32812370e-004
,,,5.07500000e-009,1.25781119e-004
,,,5.10000000e-009,9.99998674e-005
,,,5.12500000e-009,5.93748645e-005
,,,5.15000000e-009,7.03111080e-006
,,,5.17500000e-009,-5.39063935e-005
,,,5.20000000e-009,-1.16406398e-004
,,,5.22500000e-009,-1.77343902e-004
,,,5.25000000e-009,-2.30468906e-004
,,,5.27500000e-009,-2.72656409e-004
,,,5.30000000e-009,-3.00000161e-004
,,,5.32500000e-009,-3.05468911e-004
,,,5.35000000e-009,-2.96093911e-004
,,,5.37500000e-009,-2.71875159e-004
,,,5.40000000e-009,-2.38281407e-004
,,,5.42500000e-009,-1.99218904e-004
,,,5.45000000e-009,-1.59375151e-004
,,,5.47500000e-009,-1.25000149e-004
,,,5.50000000e-009,-1.00000147e-004
,,,5.52500000e-009,-8.12501454e-005
,,,5.55000000e-009,-7.65626451e-005
,,,5.57500000e-009,-8.75001459e-005
,,,5.60000000e-009,-1.12500148e-004
,,,5.62500000e-009,-1.49218900e-004
,,,5.65000000e-009,-1.95312654e-004
,,,5.67500000e-009,-2.46875157e-004
,,,5.70000000e-009,-3.00000161e-004
,,,5.72500000e-009,-3.42968914e-004
,,,5.75000000e-009,-3.78125166e-004
,,,5.77500000e-009,-4.01562668e-004
,,,5.80000000e-009,-4.10937669e-004
,,,5.82500000e-009,-4.06250168e-004
,,,5.85000000e-009,-3.85937667e-004
,,,5.87500000e-009,-3.50000164e-004
,,,5.90000000e-009,-3.00000161e-004
,,,5.92500000e-009,-2.32812656e-004
,,,5.95000000e-009,-1.57031401e-004
