RawData/SinglePhotoelectron/L2_2pt2C_5mV/wave009_Ch3.csv

"Record Length",1000,"Points",-7.72500000e-009,3.53124885e-004
"Sample Interval",2.50000000e-011,s,-7.70000000e-009,4.07812389e-004
"Trigger Point",309,"Samples",-7.67500000e-009,4.57031143e-004
"Trigger Time",6.58880734e-012,s,-7.65000000e-009,4.99999896e-004
"",,,-7.62500000e-009,5.29687398e-004
"Horizontal Offset",-7.72500000e-009,s,-7.60000000e-009,5.49218649e-004
,,,-7.57500000e-009,5.60156150e-004
,,,-7.55000000e-009,5.61718650e-004
,,,-7.52500000e-009,5.55468650e-004
,,,-7.50000000e-009,5.42187399e-004
,,,-7.47500000e-009,5.23437397e-004
,,,-7.45000000e-009,4.99999896e-004
,,,-7.42500000e-009,4.68749893e-004
,,,-7.40000000e-009,4.36718641e-004
,,,-7.37500000e-009,4.05468639e-004
,,,-7.35000000e-009,3.77343637e-004
,,,-7.32500000e-009,3.52343635e-004
,,,-7.30000000e-009,3.30468634e-004
,,,-7.27500000e-009,3.13281132e-004
,,,-7.25000000e-009,2.99999882e-004
,,,-7.22500000e-009,2.89062381e-004
,,,-7.20000000e-009,2.81249880e-004
,,,-7.17500000e-009,2.77343630e-004
,,,-7.15000000e-009,2.77343630e-004
,,,-7.12500000e-009,2.79687380e-004
,,,-7.10000000e-009,2.85156130e-004
,,,-7.07500000e-009,2.92187381e-004
,,,-7.05000000e-009,2.99999882e-004
,,,-7.02500000e-009,3.07031132e-004
,,,-7.00000000e-009,3.13281132e-004
,,,-6.97500000e-009,3.17968633e-004
,,,-6.95000000e-009,3.21093633e-004
,,,-6.92500000e-009,3.21093633e-004
,,,-6.90000000e-009,3.17968633e-004
,,,-6.87500000e-009,3.10937382e-004
,,,-6.85000000e-009,2.99999882e-004
,,,-6.82500000e-009,2.82812380e-004
,,,-6.80000000e-009,2.62499879e-004
,,,-6.77500000e-009,2.38281127e-004
,,,-6.75000000e-009,2.12499875e-004
,,,-6.72500000e-009,1.85156123e-004
,,,-6.70000000e-009,1.57031121e-004
,,,-6.67500000e-009,1.28124869e-004
,,,-6.65000000e-009,9.99998674e-005
,,,-6.62500000e-009,7.57811157e-005
,,,-6.60000000e-009,5.15623640e-005
,,,-6.57500000e-009,2.73436122e-005
,,,-6.55000000e-009,3.12486052e-006
,,,-6.52500000e-009,-2.18751412e-005
,,,-6.50000000e-009,-4.76563931e-005
,,,-6.47500000e-009,-7.34376449e-005
,,,-6.45000000e-009,-1.00000147e-004
,,,-6.42500000e-009,-1.19531398e-004
,,,-6.40000000e-009,-1.36718899e-004
,,,-6.37500000e-009,-1.49218900e-004
,,,-6.35000000e-009,-1.55468901e-004
,,,-6.32500000e-009,-1.54687651e-004
,,,-6.30000000e-009,-1.45312650e-004
,,,-6.27500000e-009,-1.26562649e-004
,,,-6.25000000e-009,-1.00000147e-004
,,,-6.22500000e-009,-6.25001441e-005
,,,-6.20000000e-009,-2.10938912e-005
,,,-6.17500000e-009,1.95311117e-005
,,,-6.15000000e-009,5.62498643e-005
,,,-6.12500000e-009,8.51561163e-005
,,,-6.10000000e-009,1.03906118e-004
,,,-6.07500000e-009,1.08593618e-004
,,,-6.05000000e-009,9.99998674e-005
,,,-6.02500000e-009,8.12498661e-005
,,,-6.00000000e-009,5.23436140e-005
,,,-5.97500000e-009,1.71873615e-005
,,,-5.95000000e-009,-2.10938912e-005
,,,-5.92500000e-009,-5.62501437e-005
,,,-5.90000000e-009,-8.35938956e-005
,,,-5.87500000e-009,-9.92188967e-005
,,,-5.85000000e-009,-1.00000147e-004
,,,-5.82500000e-009,-8.04688954e-005
,,,-5.80000000e-009,-4.53126429e-005
,,,-5.77500000e-009,2.34361047e-006
,,,-5.75000000e-009,6.01561146e-005
,,,-5.72500000e-009,1.23437369e-004
,,,-5.70000000e-009,1.87499874e-004
,,,-5.67500000e-009,2.47656128e-004
,,,-5.65000000e-009,2.99999882e-004
,,,-5.62500000e-009,3.40624884e-004
,,,-5.60000000e-009,3.67187386e-004
,,,-5.57500000e-009,3.80468637e-004
,,,-5.55000000e-009,3.80468637e-004
,,,-5.52500000e-009,3.70312387e-004
,,,-5.50000000e-009,3.50781135e-004
,,,-5.47500000e-009,3.26562383e-004
,,,-5.45000000e-009,2.99999882e-004
,,,-5.42500000e-009,2.72656130e-004
,,,-5.40000000e-009,2.50781128e-004
,,,-5.37500000e-009,2.35156127e-004
,,,-5.35000000e-009,2.29687377e-004
,,,-5.32500000e-009,2.32812377e-004
,,,-5.30000000e-009,2.46874878e-004
,,,-5.27500000e-009,2.69531129e-004
,,,-5.25000000e-009,2.99999882e-004
,,,-5.22500000e-009,3.32812384e-004
,,,-5.20000000e-009,3.68749886e-004
,,,-5.17500000e-009,4.03906139e-004
,,,-5.15000000e-009,4.36718641e-004
,,,-5.12500000e-009,4.64843643e-004
,,,-5.10000000e-009,4.85937395e-004
,,,-5.07500000e-009,4.98437396e-004
,,,-5.05000000e-009,4.99999896e-004
,,,-5.02500000e-009,4.88281145e-004
,,,-5.00000000e-009,4.67968643e-004
,,,-4.97500000e-009,4.40624891e-004
,,,-4.95000000e-009,4.09374889e-004
,,,-4.92500000e-009,3.77343637e-004
,,,-4.90000000e-009,3.46874885e-004
,,,-4.87500000e-009,3.21093633e-004
,,,-4.85000000e-009,2.99999882e-004
,,,-4.82500000e-009,2.84374880e-004
,,,-4.80000000e-009,2.76562380e-004
,,,-4.77500000e-009,2.75781130e-004
,,,-4.75000000e-009,2.79687380e-004
,,,-4.72500000e-009,2.86718631e-004
,,,-4.70000000e-009,2.93749881e-004
,,,-4.67500000e-009,2.99218631e-004
,,,-4.65000000e-009,2.99999882e-004
,,,-4.62500000e-009,2.93749881e-004
,,,-4.60000000e-009,2.79687380e-004
,,,-4.57500000e-009,2.59374879e-004
,,,-4.55000000e-009,2.32812377e-004
,,,-4.52500000e-009,2.02343625e-004
,,,-4.50000000e-009,1.68749872e-004
,,,-4.47500000e-009,1.34374870e-004
,,,-4.45000000e-009,9.99998674e-005
,,,-4.42500000e-009,6.87498652e-005
,,,-4.40000000e-009,3.98436131e-005
,,,-4.37500000e-009,1.32811112e-005
,,,-4.35000000e-009,-1.17188905e-005
,,,-4.32500000e-009,-3.43751421e-005
,,,-4.30000000e-009,-5.70313937e-005
,,,-4.27500000e-009,-7.89063953e-005
,,,-4.25000000e-009,-1.00000147e-004
,,,-4.22500000e-009,-1.16406398e-004
,,,-4.20000000e-009,-1.31250149e-004
,,,-4.17500000e-009,-1.42187650e-004
,,,-4.15000000e-009,-1.48437650e-004
,,,-4.12500000e-009,-1.47656400e-004
,,,-4.10000000e-009,-1.39843900e-004
,,,-4.07500000e-009,-1.23437648e-004
,,,-4.05000000e-009,-1.00000147e-004
,,,-4.02500000e-009,-6.56251443e-005
,,,-4.00000000e-009,-2.89063917e-005
,,,-3.97500000e-009,9.37486097e-006
,,,-3.95000000e-009,4.37498634e-005
,,,-3.92500000e-009,7.26561154e-005
,,,-3.90000000e-009,9.29686169e-005
,,,-3.87500000e-009,1.02343618e-004
,,,-3.85000000e-009,9.99998674e-005
,,,-3.82500000e-009,8.67186164e-005
,,,-3.80000000e-009,6.24998647e-005
,,,-3.77500000e-009,3.12498625e-005
,,,-3.75000000e-009,-3.90638997e-006
,,,-3.72500000e-009,-3.82813924e-005
,,,-3.70000000e-009,-6.71876445e-005
,,,-3.67500000e-009,-8.90626460e-005
,,,-3.65000000e-009,-1.00000147e-004
,,,-3.62500000e-009,-9.60938965e-005
,,,-3.60000000e-009,-8.04688954e-005
,,,-3.57500000e-009,-5.54688936e-005
,,,-3.55000000e-009,-2.42188914e-005
,,,-3.52500000e-009,1.01561110e-005
,,,-3.50000000e-009,4.45311135e-005
,,,-3.47500000e-009,7.57811157e-005
,,,-3.45000000e-009,9.99998674e-005
,,,-3.42500000e-009,1.15624868e-004
,,,-3.40000000e-009,1.22656119e-004
,,,-3.37500000e-009,1.22656119e-004
,,,-3.35000000e-009,1.17187369e-004
,,,-3.32500000e-009,1.10156118e-004
,,,-3.30000000e-009,1.03906118e-004
,,,-3.27500000e-009,9.99998674e-005
,,,-3.25000000e-009,9.99998674e-005
,,,-3.22500000e-009,1.03124868e-004
,,,-3.20000000e-009,1.09374868e-004
,,,-3.17500000e-009,1.17187369e-004
,,,-3.15000000e-009,1.24999869e-004
,,,-3.12500000e-009,1.29687369e-004
,,,-3.10000000e-009,1.28124869e-004
,,,-3.07500000e-009,1.18749869e-004
,,,-3.05000000e-009,9.99998674e-005
,,,-3.02500000e-009,7.26561154e-005
,,,-3.00000000e-009,3.90623631e-005
,,,-2.97500000e-009,3.12486052e-006
,,,-2.95000000e-009,-3.28126420e-005
,,,-2.92500000e-009,-6.48438943e-005
,,,-2.90000000e-009,-8.75001459e-005
,,,-2.87500000e-009,-1.00000147e-004
,,,-2.85000000e-009,-1.00000147e-004
,,,-2.82500000e-009,-8.43751457e-005
,,,-2.80000000e-009,-5.85938938e-005
,,,-2.77500000e-009,-2.50001415e-005
,,,-2.75000000e-009,1.24998612e-005
,,,-2.72500000e-009,4.76561137e-005
,,,-2.70000000e-009,7.73436158e-005
,,,-2.67500000e-009,9.60936171e-005
,,,-2.65000000e-009,9.99998674e-005
,,,-2.62500000e-009,8.67186164e-005
,,,-2.60000000e-009,5.70311143e-005
,,,-2.57500000e-009,1.24998612e-005
,,,-2.55000000e-009,-4.29688927e-005
,,,-2.52500000e-009,-1.07031397e-004
,,,-2.50000000e-009,-1.73437652e-004
,,,-2.47500000e-009,-2.39843907e-004
,,,-2.45000000e-009,-3.00000161e-004
,,,-2.42500000e-009,-3.47656414e-004
,,,-2.40000000e-009,-3.83593917e-004
,,,-2.37500000e-009,-4.04687668e-004
,,,-2.35000000e-009,-4.10156419e-004
,,,-2.32500000e-009,-4.01562668e-004
,,,-2.30000000e-009,-3.78906417e-004
,,,-2.27500000e-009,-3.44531414e-004
,,,-2.25000000e-009,-3.00000161e-004
,,,-2.22500000e-009,-2.46093907e-004
,,,-2.20000000e-009,-1.89062653e-004
,,,-2.17500000e-009,-1.32031399e-004
,,,-2.15000000e-009,-7.57813951e-005
,,,-2.12500000e-009,-2.26563913e-005
,,,-2.10000000e-009,2.49998621e-005
,,,-2.07500000e-009,6.64061150e-005
,,,-2.05000000e-009,9.99998674e-005
,,,-2.02500000e-009,1.23437369e-004
,,,-2.00000000e-009,1.38281120e-004
,,,-1.97500000e-009,1.44531121e-004
,,,-1.95000000e-009,1.44531121e-004
,,,-1.92500000e-009,1.39062370e-004
,,,-1.90000000e-009,1.28906119e-004
,,,-1.87500000e-009,1.15624868e-004
,,,-1.85000000e-009,9.99998674e-005
,,,-1.82500000e-009,7.89061159e-005
,,,-1.80000000e-009,5.62498643e-005
,,,-1.77500000e-009,3.20311126e-005
,,,-1.75000000e-009,7.81236085e-006
,,,-1.72500000e-009,-1.71876409e-005
,,,-1.70000000e-009,-4.37501428e-005
,,,-1.67500000e-009,-7.10938947e-005
,,,-1.65000000e-009,-1.00000147e-004
,,,-1.62500000e-009,-1.32031399e-004
,,,-1.60000000e-009,-1.64062651e-004
,,,-1.57500000e-009,-1.96093904e-004
,,,-1.55000000e-009,-2.25781406e-004
,,,-1.52500000e-009,-2.52343908e-004
,,,-1.50000000e-009,-2.74218909e-004
,,,-1.47500000e-009,-2.89843910e-004
,,,-1.45000000e-009,-3.00000161e-004
,,,-1.42500000e-009,-3.10937662e-004
,,,-1.40000000e-009,-3.17968912e-004
,,,-1.37500000e-009,-3.20312662e-004
,,,-1.35000000e-009,-3.18750162e-004
,,,-1.32500000e-009,-3.15625162e-004
,,,-1.30000000e-009,-3.10156412e-004
,,,-1.27500000e-009,-3.03906411e-004
,,,-1.25000000e-009,-3.00000161e-004
,,,-1.22500000e-009,-3.11718912e-004
,,,-1.20000000e-009,-3.28906413e-004
,,,-1.17500000e-009,-3.52343915e-004
,,,-1.15000000e-009,-3.78906417e-004
,,,-1.12500000e-009,-4.08593919e-004
,,,-1.10000000e-009,-4.39843921e-004
,,,-1.07500000e-009,-4.70312673e-004
,,,-1.05000000e-009,-5.00000175e-004
,,,-1.02500000e-009,-5.43750178e-004
,,,-1.00000000e-009,-5.87500181e-004
,,,-9.75000000e-010,-6.28125184e-004
,,,-9.50000000e-010,-6.62500187e-004
,,,-9.25000000e-010,-6.87500188e-004
,,,-9.00000000e-010,-7.02343939e-004
,,,-8.75000000e-010,-7.05468940e-004
,,,-8.50000000e-010,-7.00000189e-004
,,,-8.25000000e-010,-7.07031440e-004
,,,-8.00000000e-010,-7.15625190e-004
,,,-7.75000000e-010,-7.27343941e-004
,,,-7.50000000e-010,-7.43750192e-004
,,,-7.25000000e-010,-7.67187694e-004
,,,-7.00000000e-010,-8.00000196e-004
,,,-6.75000000e-010,-8.43750199e-004
,,,-6.50000000e-010,-9.00000203e-004
,,,-6.25000000e-010,-9.87500210e-004
,,,-6.00000000e-010,-1.09218772e-003
,,,-5.75000000e-010,-1.21093773e-003
,,,-5.50000000e-010,-1.34062523e-003
,,,-5.25000000e-010,-1.47812524e-003
,,,-5.00000000e-010,-1.61875025e-003
,,,-4.75000000e-010,-1.75937526e-003
,,,-4.50000000e-010,-1.90000027e-003
,,,-4.25000000e-010,-2.04375028e-003
,,,-4.00000000e-010,-2.18671904e-003
,,,-3.75000000e-010,-2.33046905e-003
,,,-3.50000000e-010,-2.47500031e-003
,,,-3.25000000e-010,-2.62265658e-003
,,,-3.00000000e-010,-2.77500034e-003
,,,-2.75000000e-010,-2.93281285e-003
,,,-2.50000000e-010,-3.10000036e-003
,,,-2.25000000e-010,-3.26640662e-003
,,,-2.00000000e-010,-3.44453163e-003
,,,-1.75000000e-010,-3.63437540e-003
,,,-1.50000000e-010,-3.83593791e-003
,,,-1.25000000e-010,-4.04609418e-003
,,,-1.00000000e-010,-4.26328169e-003
,,,-7.50000000e-011,-4.48203171e-003
,,,-5.00000000e-011,-4.70000047e-003
,,,-2.50000000e-011,-4.88125049e-003
,,,0.00000000e+000,-5.05156300e-003
,,,2.50000000e-011,-5.20859426e-003
,,,5.00000000e-011,-5.34843802e-003
,,,7.50000000e-011,-5.47031303e-003
,,,1.00000000e-010,-5.57031303e-003
,,,1.25000000e-010,-5.64687554e-003
,,,1.50000000e-010,-5.70000054e-003
,,,1.75000000e-010,-5.68750054e-003
,,,2.00000000e-010,-5.65546929e-003
,,,2.25000000e-010,-5.60859429e-003
,,,2.50000000e-010,-5.55078178e-003
,,,2.75000000e-010,-5.48828178e-003
,,,3.00000000e-010,-5.42421927e-003
,,,3.25000000e-010,-5.36015677e-003
,,,3.50000000e-010,-5.30000051e-003
,,,3.75000000e-010,-5.20546926e-003
,,,4.00000000e-010,-5.11796925e-003
,,,4.25000000e-010,-5.03906300e-003
,,,4.50000000e-010,-4.96718799e-003
,,,4.75000000e-010,-4.90000049e-003
,,,5.00000000e-010,-4.83515673e-003
,,,5.25000000e-010,-4.76953173e-003
,,,5.50000000e-010,-4.70000047e-003
,,,5.75000000e-010,-4.59375046e-003
,,,6.00000000e-010,-4.47968796e-003
,,,6.25000000e-010,-4.36015670e-003
,,,6.50000000e-010,-4.23437544e-003
,,,6.75000000e-010,-4.10468793e-003
,,,7.00000000e-010,-3.97187542e-003
,,,7.25000000e-010,-3.83671916e-003
,,,7.50000000e-010,-3.70000040e-003
,,,7.75000000e-010,-3.54609414e-003
,,,8.00000000e-010,-3.39218788e-003
,,,8.25000000e-010,-3.23906287e-003
,,,8.50000000e-010,-3.08671911e-003
,,,8.75000000e-010,-2.93750035e-003
,,,9.00000000e-010,-2.78906284e-003
,,,9.25000000e-010,-2.64296908e-003
,,,9.50000000e-010,-2.50000032e-003
,,,9.75000000e-010,-2.35937531e-003
,,,1.00000000e-009,-2.22031280e-003
,,,1.02500000e-009,-2.08359404e-003
,,,1.05000000e-009,-1.95078153e-003
,,,1.07500000e-009,-1.82421902e-003
,,,1.10000000e-009,-1.70546901e-003
,,,1.12500000e-009,-1.59687525e-003
,,,1.15000000e-009,-1.50000025e-003
,,,1.17500000e-009,-1.42812524e-003
,,,1.20000000e-009,-1.36484399e-003
,,,1.22500000e-009,-1.30781273e-003
,,,1.25000000e-009,-1.25703148e-003
,,,1.27500000e-009,-1.21015648e-003
,,,1.30000000e-009,-1.16953147e-003
,,,1.32500000e-009,-1.13203147e-003
,,,1.35000000e-009,-1.10000022e-003
,,,1.37500000e-009,-1.08515647e-003
,,,1.40000000e-009,-1.06875022e-003
,,,1.42500000e-009,-1.04765646e-003
,,,1.45000000e-009,-1.02343771e-003
,,,1.47500000e-009,-9.95312710e-004
,,,1.50000000e-009,-9.64062708e-004
,,,1.52500000e-009,-9.32031456e-004
,,,1.55000000e-009,-9.00000203e-004
,,,1.57500000e-009,-8.83593952e-004
,,,1.60000000e-009,-8.64062701e-004
,,,1.62500000e-009,-8.40625199e-004
,,,1.65000000e-009,-8.14062697e-004
,,,1.67500000e-009,-7.85937695e-004
,,,1.70000000e-009,-7.56250193e-004
,,,1.72500000e-009,-7.27343941e-004
,,,1.75000000e-009,-7.00000189e-004
,,,1.77500000e-009,-6.88281438e-004
,,,1.80000000e-009,-6.78125188e-004
,,,1.82500000e-009,-6.69531437e-004
,,,1.85000000e-009,-6.64843937e-004
,,,1.87500000e-009,-6.64062687e-004
,,,1.90000000e-009,-6.69531437e-004
,,,1.92500000e-009,-6.81250188e-004
,,,1.95000000e-009,-7.00000189e-004
,,,1.97500000e-009,-7.30468941e-004
,,,2.00000000e-009,-7.63281444e-004
,,,2.02500000e-009,-7.96093946e-004
,,,2.05000000e-009,-8.27343948e-004
,,,2.07500000e-009,-8.53906450e-004
,,,2.10000000e-009,-8.75000202e-004
,,,2.12500000e-009,-8.90625203e-004
,,,2.15000000e-009,-9.00000203e-004
,,,2.17500000e-009,-9.04687704e-004
,,,2.20000000e-009,-9.04687704e-004
,,,2.22500000e-009,-9.00000203e-004
,,,2.25000000e-009,-8.94531453e-004
,,,2.27500000e-009,-8.89062703e-004
,,,2.30000000e-009,-8.86718952e-004
,,,2.32500000e-009,-8.89843953e-004
,,,2.35000000e-009,-9.00000203e-004
,,,2.37500000e-009,-9.14062704e-004
,,,2.40000000e-009,-9.34375206e-004
,,,2.42500000e-009,-9.59375208e-004
,,,2.45000000e-009,-9.88281460e-004
,,,2.47500000e-009,-1.01953146e-003
,,,2.50000000e-009,-1.05000021e-003
,,,2.52500000e-009,-1.07734397e-003
,,,2.55000000e-009,-1.10000022e-003
,,,2.57500000e-009,-1.10781272e-003
,,,2.60000000e-009,-1.10546897e-003
,,,2.62500000e-009,-1.09296897e-003
,,,2.65000000e-009,-1.06953147e-003
,,,2.67500000e-009,-1.03671896e-003
,,,2.70000000e-009,-9.96093960e-004
,,,2.72500000e-009,-9.50000207e-004
,,,2.75000000e-009,-9.00000203e-004
,,,2.77500000e-009,-8.43750199e-004
,,,2.80000000e-009,-7.91406446e-004
,,,2.82500000e-009,-7.45312692e-004
,,,2.85000000e-009,-7.08593940e-004
,,,2.87500000e-009,-6.85156438e-004
,,,2.90000000e-009,-6.75000187e-004
,,,2.92500000e-009,-6.80468938e-004
,,,2.95000000e-009,-7.00000189e-004
,,,2.97500000e-009,-7.25781441e-004
,,,3.00000000e-009,-7.60156444e-004
,,,3.02500000e-009,-7.98437696e-004
,,,3.05000000e-009,-8.35937699e-004
,,,3.07500000e-009,-8.69531451e-004
,,,3.10000000e-009,-8.93750203e-004
,,,3.12500000e-009,-9.04687704e-004
,,,3.15000000e-009,-9.00000203e-004
,,,3.17500000e-009,-8.71093951e-004
,,,3.20000000e-009,-8.23437698e-004
,,,3.22500000e-009,-7.58593943e-004
,,,3.25000000e-009,-6.79687688e-004
,,,3.27500000e-009,-5.89843931e-004
,,,3.30000000e-009,-4.93750175e-004
,,,3.32500000e-009,-3.96093918e-004
,,,3.35000000e-009,-3.00000161e-004
,,,3.37500000e-009,-2.10937655e-004
,,,3.40000000e-009,-1.31250149e-004
,,,3.42500000e-009,-6.25001441e-005
,,,3.45000000e-009,-6.25014014e-006
,,,3.47500000e-009,3.67186129e-005
,,,3.50000000e-009,6.87498652e-005
,,,3.52500000e-009,8.90623666e-005
,,,3.55000000e-009,9.99998674e-005
,,,3.57500000e-009,9.84373673e-005
,,,3.60000000e-009,9.29686169e-005
,,,3.62500000e-009,8.67186164e-005
,,,3.65000000e-009,8.12498661e-005
,,,3.67500000e-009,7.89061159e-005
,,,3.70000000e-009,8.04686160e-005
,,,3.72500000e-009,8.74998665e-005
,,,3.75000000e-009,9.99998674e-005
,,,3.77500000e-009,1.13281118e-004
,,,3.80000000e-009,1.32812370e-004
,,,3.82500000e-009,1.57031121e-004
,,,3.85000000e-009,1.84374873e-004
,,,3.87500000e-009,2.14843626e-004
,,,3.90000000e-009,2.45312378e-004
,,,3.92500000e-009,2.74218630e-004
,,,3.95000000e-009,2.99999882e-004
,,,3.97500000e-009,3.15624883e-004
,,,4.00000000e-009,3.26562383e-004
,,,4.02500000e-009,3.32812384e-004
,,,4.05000000e-009,3.34374884e-004
,,,4.07500000e-009,3.31249884e-004
,,,4.10000000e-009,3.24218633e-004
,,,4.12500000e-009,3.14062383e-004
,,,4.15000000e-009,2.99999882e-004
,,,4.17500000e-009,2.78906130e-004
,,,4.20000000e-009,2.56249878e-004
,,,4.22500000e-009,2.32812377e-004
,,,4.25000000e-009,2.08593625e-004
,,,4.27500000e-009,1.84374873e-004
,,,4.30000000e-009,1.57812371e-004
,,,4.32500000e-009,1.29687369e-004
,,,4.35000000e-009,9.99998674e-005
,,,4.37500000e-009,6.71873651e-005
,,,4.40000000e-009,3.43748627e-005
,,,4.42500000e-009,2.34361047e-006
,,,4.45000000e-009,-2.65626416e-005
,,,4.47500000e-009,-5.23438934e-005
,,,4.50000000e-009,-7.34376449e-005
,,,4.52500000e-009,-8.90626460e-005
,,,4.55000000e-009,-1.00000147e-004
,,,4.57500000e-009,-1.03906397e-004
,,,4.60000000e-009,-1.04687647e-004
,,,4.62500000e-009,-1.02343897e-004
,,,4.65000000e-009,-9.84376467e-005
,,,4.67500000e-009,-9.53126464e-005
,,,4.70000000e-009,-9.37501463e-005
,,,4.72500000e-009,-9.53126464e-005
,,,4.75000000e-009,-1.00000147e-004
,,,4.77500000e-009,-1.05468897e-004
,,,4.80000000e-009,-1.13281398e-004
,,,4.82500000e-009,-1.21093898e-004
,,,4.85000000e-009,-1.27343899e-004
,,,4.87500000e-009,-1.30468899e-004
,,,4.90000000e-009,-1.27343899e-004
,,,4.92500000e-009,-1.17187648e-004
,,,4.95000000e-009,-1.00000147e-004
,,,4.97500000e-009,-7.34376449e-005
,,,5.00000000e-009,-4.29688927e-005
,,,5.02500000e-009,-9.37514036e-006
,,,5.05000000e-009,2.34373620e-005
,,,5.07500000e-009,5.31248641e-005
,,,5.10000000e-009,7.81248658e-005
,,,5.12500000e-009,9.37498669e-005
,,,5.15000000e-009,9.99998674e-005
,,,5.17500000e-009,9.53123670e-005
,,,5.20000000e-009,7.96873659e-005
,,,5.22500000e-009,5.46873642e-005
,,,5.25000000e-009,2.42186120e-005
,,,5.27500000e-009,-9.37514036e-006
,,,5.30000000e-009,-4.29688927e-005
,,,5.32500000e-009,-7.42188950e-005
,,,5.35000000e-009,-1.00000147e-004
,,,5.37500000e-009,-1.17187648e-004
,,,5.40000000e-009,-1.27343899e-004
,,,5.42500000e-009,-1.30468899e-004
,,,5.45000000e-009,-1.28125149e-004
,,,5.47500000e-009,-1.21875148e-004
,,,5.50000000e-009,-1.13281398e-004
,,,5.52500000e-009,-1.05468897e-004
,,,5.55000000e-009,-1.00000147e-004
,,,5.57500000e-009,-9.60938965e-005
,,,5.60000000e-009,-9.53126464e-005
,,,5.62500000e-009,-9.68751466e-005
,,,5.65000000e-009,-1.00000147e-004
,,,5.67500000e-009,-1.02343897e-004
,,,5.70000000e-009,-1.03906397e-004
,,,5.72500000e-009,-1.03125147e-004
,,,5.75000000e-009,-1.00000147e-004
,,,5.77500000e-009,-9.45313964e-005
,,,5.80000000e-009,-8.75001459e-005
,,,5.82500000e-009,-8.04688954e-005
,,,5.85000000e-009,-7.50001450e-005
,,,5.87500000e-009,-7.26563948e-005
,,,5.90000000e-009,-7.50001450e-005
,,,5.92500000e-009,-8.35938956e-005
,,,5.95000000e-009,-1.00000147e-004
