RawData/SinglePhotoelectron/L2_2pt2C_5mV/wave005_Ch3.csv

"Record Length",1000,"Points",-7.72500000e-009,2.28906127e-004
"Sample Interval",2.50000000e-011,s,-7.70000000e-009,1.90624874e-004
"Trigger Point",309,"Samples",-7.67500000e-009,1.55468621e-004
"Trigger Time",1.34991667e-011,s,-7.65000000e-009,1.27343619e-004
"",,,-7.62500000e-009,1.07031118e-004
"Horizontal Offset",-7.72500000e-009,s,-7.60000000e-009,9.76561172e-005
,,,-7.57500000e-009,9.99998674e-005
,,,-7.55000000e-009,1.15624868e-004
,,,-7.52500000e-009,1.39843620e-004
,,,-7.50000000e-009,1.70312372e-004
,,,-7.47500000e-009,2.04687375e-004
,,,-7.45000000e-009,2.38281127e-004
,,,-7.42500000e-009,2.67187379e-004
,,,-7.40000000e-009,2.89062381e-004
,,,-7.37500000e-009,2.99999882e-004
,,,-7.35000000e-009,2.98437381e-004
,,,-7.32500000e-009,2.85937381e-004
,,,-7.30000000e-009,2.63281129e-004
,,,-7.27500000e-009,2.32812377e-004
,,,-7.25000000e-009,1.98437374e-004
,,,-7.22500000e-009,1.62499872e-004
,,,-7.20000000e-009,1.28906119e-004
,,,-7.17500000e-009,9.99998674e-005
,,,-7.15000000e-009,7.96873659e-005
,,,-7.12500000e-009,6.64061150e-005
,,,-7.10000000e-009,6.17186147e-005
,,,-7.07500000e-009,6.32811148e-005
,,,-7.05000000e-009,7.03123653e-005
,,,-7.02500000e-009,8.04686160e-005
,,,-7.00000000e-009,9.06248667e-005
,,,-6.97500000e-009,9.99998674e-005
,,,-6.95000000e-009,1.09374868e-004
,,,-6.92500000e-009,1.14843618e-004
,,,-6.90000000e-009,1.17187369e-004
,,,-6.87500000e-009,1.15624868e-004
,,,-6.85000000e-009,1.12499868e-004
,,,-6.82500000e-009,1.08593618e-004
,,,-6.80000000e-009,1.03906118e-004
,,,-6.77500000e-009,9.99998674e-005
,,,-6.75000000e-009,9.99998674e-005
,,,-6.72500000e-009,1.00781117e-004
,,,-6.70000000e-009,1.02343618e-004
,,,-6.67500000e-009,1.04687368e-004
,,,-6.65000000e-009,1.06249868e-004
,,,-6.62500000e-009,1.06249868e-004
,,,-6.60000000e-009,1.04687368e-004
,,,-6.57500000e-009,9.99998674e-005
,,,-6.55000000e-009,9.53123670e-005
,,,-6.52500000e-009,8.98436167e-005
,,,-6.50000000e-009,8.43748663e-005
,,,-6.47500000e-009,7.96873659e-005
,,,-6.45000000e-009,7.81248658e-005
,,,-6.42500000e-009,8.04686160e-005
,,,-6.40000000e-009,8.74998665e-005
,,,-6.37500000e-009,9.99998674e-005
,,,-6.35000000e-009,1.18749869e-004
,,,-6.32500000e-009,1.42187370e-004
,,,-6.30000000e-009,1.68749872e-004
,,,-6.27500000e-009,1.96874874e-004
,,,-6.25000000e-009,2.25781126e-004
,,,-6.22500000e-009,2.53906128e-004
,,,-6.20000000e-009,2.78906130e-004
,,,-6.17500000e-009,2.99999882e-004
,,,-6.15000000e-009,3.14062383e-004
,,,-6.12500000e-009,3.22656133e-004
,,,-6.10000000e-009,3.25781133e-004
,,,-6.07500000e-009,3.24999883e-004
,,,-6.05000000e-009,3.21093633e-004
,,,-6.02500000e-009,3.14843633e-004
,,,-6.00000000e-009,3.07031132e-004
,,,-5.97500000e-009,2.99999882e-004
,,,-5.95000000e-009,2.92968631e-004
,,,-5.92500000e-009,2.87499881e-004
,,,-5.90000000e-009,2.84374880e-004
,,,-5.87500000e-009,2.83593630e-004
,,,-5.85000000e-009,2.85937381e-004
,,,-5.82500000e-009,2.89843631e-004
,,,-5.80000000e-009,2.94531131e-004
,,,-5.77500000e-009,2.99999882e-004
,,,-5.75000000e-009,3.04687382e-004
,,,-5.72500000e-009,3.07812382e-004
,,,-5.70000000e-009,3.10937382e-004
,,,-5.67500000e-009,3.12499882e-004
,,,-5.65000000e-009,3.12499882e-004
,,,-5.62500000e-009,3.10937382e-004
,,,-5.60000000e-009,3.07031132e-004
,,,-5.57500000e-009,2.99999882e-004
,,,-5.55000000e-009,2.89843631e-004
,,,-5.52500000e-009,2.76562380e-004
,,,-5.50000000e-009,2.58593629e-004
,,,-5.47500000e-009,2.35937377e-004
,,,-5.45000000e-009,2.09374875e-004
,,,-5.42500000e-009,1.77343623e-004
,,,-5.40000000e-009,1.40624870e-004
,,,-5.37500000e-009,9.99998674e-005
,,,-5.35000000e-009,5.93748645e-005
,,,-5.32500000e-009,1.87498616e-005
,,,-5.30000000e-009,-1.87501410e-005
,,,-5.27500000e-009,-5.15626433e-005
,,,-5.25000000e-009,-7.73438952e-005
,,,-5.22500000e-009,-9.45313964e-005
,,,-5.20000000e-009,-1.02343897e-004
,,,-5.17500000e-009,-1.00000147e-004
,,,-5.15000000e-009,-8.51563957e-005
,,,-5.12500000e-009,-6.25001441e-005
,,,-5.10000000e-009,-3.35938921e-005
,,,-5.07500000e-009,-3.12513992e-006
,,,-5.05000000e-009,2.89061123e-005
,,,-5.02500000e-009,5.78123644e-005
,,,-5.00000000e-009,8.20311161e-005
,,,-4.97500000e-009,9.99998674e-005
,,,-4.95000000e-009,1.13281118e-004
,,,-4.92500000e-009,1.19531119e-004
,,,-4.90000000e-009,1.20312369e-004
,,,-4.87500000e-009,1.15624868e-004
,,,-4.85000000e-009,1.09374868e-004
,,,-4.82500000e-009,1.03124868e-004
,,,-4.80000000e-009,9.99998674e-005
,,,-4.77500000e-009,9.99998674e-005
,,,-4.75000000e-009,1.09374868e-004
,,,-4.72500000e-009,1.25781119e-004
,,,-4.70000000e-009,1.47656121e-004
,,,-4.67500000e-009,1.74999873e-004
,,,-4.65000000e-009,2.05468625e-004
,,,-4.62500000e-009,2.38281127e-004
,,,-4.60000000e-009,2.70312379e-004
,,,-4.57500000e-009,2.99999882e-004
,,,-4.55000000e-009,3.24999883e-004
,,,-4.52500000e-009,3.42968635e-004
,,,-4.50000000e-009,3.53906135e-004
,,,-4.47500000e-009,3.57031136e-004
,,,-4.45000000e-009,3.52343635e-004
,,,-4.42500000e-009,3.40624884e-004
,,,-4.40000000e-009,3.23437383e-004
,,,-4.37500000e-009,2.99999882e-004
,,,-4.35000000e-009,2.71874880e-004
,,,-4.32500000e-009,2.42187377e-004
,,,-4.30000000e-009,2.10937375e-004
,,,-4.27500000e-009,1.81249873e-004
,,,-4.25000000e-009,1.54687371e-004
,,,-4.22500000e-009,1.31249870e-004
,,,-4.20000000e-009,1.12499868e-004
,,,-4.17500000e-009,9.99998674e-005
,,,-4.15000000e-009,9.53123670e-005
,,,-4.12500000e-009,9.84373673e-005
,,,-4.10000000e-009,1.10937368e-004
,,,-4.07500000e-009,1.32812370e-004
,,,-4.05000000e-009,1.64062372e-004
,,,-4.02500000e-009,2.03124875e-004
,,,-4.00000000e-009,2.49218628e-004
,,,-3.97500000e-009,2.99999882e-004
,,,-3.95000000e-009,3.51562385e-004
,,,-3.92500000e-009,3.99999889e-004
,,,-3.90000000e-009,4.44531142e-004
,,,-3.87500000e-009,4.80468644e-004
,,,-3.85000000e-009,5.06249896e-004
,,,-3.82500000e-009,5.18749897e-004
,,,-3.80000000e-009,5.17187397e-004
,,,-3.77500000e-009,4.99999896e-004
,,,-3.75000000e-009,4.65624893e-004
,,,-3.72500000e-009,4.18749890e-004
,,,-3.70000000e-009,3.64062386e-004
,,,-3.67500000e-009,3.04687382e-004
,,,-3.65000000e-009,2.45312378e-004
,,,-3.62500000e-009,1.89062374e-004
,,,-3.60000000e-009,1.39843620e-004
,,,-3.57500000e-009,9.99998674e-005
,,,-3.55000000e-009,7.26561154e-005
,,,-3.52500000e-009,5.54686142e-005
,,,-3.50000000e-009,4.99998638e-005
,,,-3.47500000e-009,5.23436140e-005
,,,-3.45000000e-009,6.17186147e-005
,,,-3.42500000e-009,7.42186156e-005
,,,-3.40000000e-009,8.82811166e-005
,,,-3.37500000e-009,9.99998674e-005
,,,-3.35000000e-009,1.09374868e-004
,,,-3.32500000e-009,1.14843618e-004
,,,-3.30000000e-009,1.15624868e-004
,,,-3.27500000e-009,1.13281118e-004
,,,-3.25000000e-009,1.09374868e-004
,,,-3.22500000e-009,1.04687368e-004
,,,-3.20000000e-009,1.01562367e-004
,,,-3.17500000e-009,9.99998674e-005
,,,-3.15000000e-009,1.00781117e-004
,,,-3.12500000e-009,1.03906118e-004
,,,-3.10000000e-009,1.07812368e-004
,,,-3.07500000e-009,1.12499868e-004
,,,-3.05000000e-009,1.15624868e-004
,,,-3.02500000e-009,1.14843618e-004
,,,-3.00000000e-009,1.10156118e-004
,,,-2.97500000e-009,9.99998674e-005
,,,-2.95000000e-009,8.51561163e-005
,,,-2.92500000e-009,6.48436149e-005
,,,-2.90000000e-009,3.90623631e-005
,,,-2.87500000e-009,1.09373611e-005
,,,-2.85000000e-009,-1.95313911e-005
,,,-2.82500000e-009,-4.92188932e-005
,,,-2.80000000e-009,-7.65626451e-005
,,,-2.77500000e-009,-1.00000147e-004
,,,-2.75000000e-009,-1.16406398e-004
,,,-2.72500000e-009,-1.27343899e-004
,,,-2.70000000e-009,-1.33593899e-004
,,,-2.67500000e-009,-1.34375149e-004
,,,-2.65000000e-009,-1.30468899e-004
,,,-2.62500000e-009,-1.22656398e-004
,,,-2.60000000e-009,-1.11718898e-004
,,,-2.57500000e-009,-1.00000147e-004
,,,-2.55000000e-009,-8.67188958e-005
,,,-2.52500000e-009,-7.50001450e-005
,,,-2.50000000e-009,-6.71876445e-005
,,,-2.47500000e-009,-6.32813942e-005
,,,-2.45000000e-009,-6.48438943e-005
,,,-2.42500000e-009,-7.18751448e-005
,,,-2.40000000e-009,-8.35938956e-005
,,,-2.37500000e-009,-1.00000147e-004
,,,-2.35000000e-009,-1.17187648e-004
,,,-2.32500000e-009,-1.35156399e-004
,,,-2.30000000e-009,-1.50000150e-004
,,,-2.27500000e-009,-1.59375151e-004
,,,-2.25000000e-009,-1.60156401e-004
,,,-2.22500000e-009,-1.50781400e-004
,,,-2.20000000e-009,-1.30468899e-004
,,,-2.17500000e-009,-1.00000147e-004
,,,-2.15000000e-009,-5.85938938e-005
,,,-2.12500000e-009,-1.25001406e-005
,,,-2.10000000e-009,3.35936127e-005
,,,-2.07500000e-009,7.42186156e-005
,,,-2.05000000e-009,1.05468618e-004
,,,-2.02500000e-009,1.21874869e-004
,,,-2.00000000e-009,1.20312369e-004
,,,-1.97500000e-009,9.99998674e-005
,,,-1.95000000e-009,6.09373646e-005
,,,-1.92500000e-009,7.03111080e-006
,,,-1.90000000e-009,-5.62501437e-005
,,,-1.87500000e-009,-1.23437648e-004
,,,-1.85000000e-009,-1.86718903e-004
,,,-1.82500000e-009,-2.40625157e-004
,,,-1.80000000e-009,-2.79687659e-004
,,,-1.77500000e-009,-3.00000161e-004
,,,-1.75000000e-009,-3.00000161e-004
,,,-1.72500000e-009,-2.83593910e-004
,,,-1.70000000e-009,-2.52343908e-004
,,,-1.67500000e-009,-2.14062655e-004
,,,-1.65000000e-009,-1.73437652e-004
,,,-1.62500000e-009,-1.37500149e-004
,,,-1.60000000e-009,-1.11718898e-004
,,,-1.57500000e-009,-1.00000147e-004
,,,-1.55000000e-009,-1.09375147e-004
,,,-1.52500000e-009,-1.34375149e-004
,,,-1.50000000e-009,-1.70312652e-004
,,,-1.47500000e-009,-2.12500155e-004
,,,-1.45000000e-009,-2.52343908e-004
,,,-1.42500000e-009,-2.84375160e-004
,,,-1.40000000e-009,-3.01562661e-004
,,,-1.37500000e-009,-3.00000161e-004
,,,-1.35000000e-009,-2.87500160e-004
,,,-1.32500000e-009,-2.56250158e-004
,,,-1.30000000e-009,-2.10156405e-004
,,,-1.27500000e-009,-1.50781400e-004
,,,-1.25000000e-009,-8.51563957e-005
,,,-1.22500000e-009,-1.71876409e-005
,,,-1.20000000e-009,4.68748636e-005
,,,-1.17500000e-009,9.99998674e-005
,,,-1.15000000e-009,1.20312369e-004
,,,-1.12500000e-009,1.20312369e-004
,,,-1.10000000e-009,1.03124868e-004
,,,-1.07500000e-009,7.26561154e-005
,,,-1.05000000e-009,3.20311126e-005
,,,-1.02500000e-009,-1.25001406e-005
,,,-1.00000000e-009,-5.78126438e-005
,,,-9.75000000e-010,-1.00000147e-004
,,,-9.50000000e-010,-1.60937651e-004
,,,-9.25000000e-010,-2.20312655e-004
,,,-9.00000000e-010,-2.75000159e-004
,,,-8.75000000e-010,-3.25781413e-004
,,,-8.50000000e-010,-3.71875166e-004
,,,-8.25000000e-010,-4.14843919e-004
,,,-8.00000000e-010,-4.57031422e-004
,,,-7.75000000e-010,-5.00000175e-004
,,,-7.50000000e-010,-5.75781430e-004
,,,-7.25000000e-010,-6.61718937e-004
,,,-7.00000000e-010,-7.56250193e-004
,,,-6.75000000e-010,-8.58593950e-004
,,,-6.50000000e-010,-9.65625208e-004
,,,-6.25000000e-010,-1.07578147e-003
,,,-6.00000000e-010,-1.18671897e-003
,,,-5.75000000e-010,-1.30000023e-003
,,,-5.50000000e-010,-1.43593774e-003
,,,-5.25000000e-010,-1.57812525e-003
,,,-5.00000000e-010,-1.72578151e-003
,,,-4.75000000e-010,-1.87656277e-003
,,,-4.50000000e-010,-2.02968778e-003
,,,-4.25000000e-010,-2.18515654e-003
,,,-4.00000000e-010,-2.34140656e-003
,,,-3.75000000e-010,-2.50000032e-003
,,,-3.50000000e-010,-2.67187533e-003
,,,-3.25000000e-010,-2.84843784e-003
,,,-3.00000000e-010,-3.02812535e-003
,,,-2.75000000e-010,-3.20859412e-003
,,,-2.50000000e-010,-3.38750038e-003
,,,-2.25000000e-010,-3.56328164e-003
,,,-2.00000000e-010,-3.73359415e-003
,,,-1.75000000e-010,-3.90000042e-003
,,,-1.50000000e-010,-4.06015668e-003
,,,-1.25000000e-010,-4.22343794e-003
,,,-1.00000000e-010,-4.38984420e-003
,,,-7.50000000e-011,-4.56171921e-003
,,,-5.00000000e-011,-4.73828173e-003
,,,-2.50000000e-011,-4.92109424e-003
,,,0.00000000e+000,-5.10859425e-003
,,,2.50000000e-011,-5.30000051e-003
,,,5.00000000e-011,-5.47656303e-003
,,,7.50000000e-011,-5.65781304e-003
,,,1.00000000e-010,-5.84375055e-003
,,,1.25000000e-010,-6.02968807e-003
,,,1.50000000e-010,-6.21250058e-003
,,,1.75000000e-010,-6.38828184e-003
,,,2.00000000e-010,-6.55156310e-003
,,,2.25000000e-010,-6.70000061e-003
,,,2.50000000e-010,-6.79609437e-003
,,,2.75000000e-010,-6.87656313e-003
,,,3.00000000e-010,-6.94296938e-003
,,,3.25000000e-010,-6.99609438e-003
,,,3.50000000e-010,-7.03671939e-003
,,,3.75000000e-010,-7.06640689e-003
,,,4.00000000e-010,-7.08750064e-003
,,,4.25000000e-010,-7.10000064e-003
,,,4.50000000e-010,-7.06796939e-003
,,,4.75000000e-010,-7.03906314e-003
,,,5.00000000e-010,-7.01718814e-003
,,,5.25000000e-010,-7.00625064e-003
,,,5.50000000e-010,-7.00937564e-003
,,,5.75000000e-010,-7.02656314e-003
,,,6.00000000e-010,-7.05781314e-003
,,,6.25000000e-010,-7.10000064e-003
,,,6.50000000e-010,-7.10859439e-003
,,,6.75000000e-010,-7.12187564e-003
,,,7.00000000e-010,-7.13671939e-003
,,,7.25000000e-010,-7.15000065e-003
,,,7.50000000e-010,-7.15703190e-003
,,,7.75000000e-010,-7.15390690e-003
,,,8.00000000e-010,-7.13593814e-003
,,,8.25000000e-010,-7.10000064e-003
,,,8.50000000e-010,-7.00390689e-003
,,,8.75000000e-010,-6.88906313e-003
,,,9.00000000e-010,-6.76093812e-003
,,,9.25000000e-010,-6.62421936e-003
,,,9.50000000e-010,-6.48593810e-003
,,,9.75000000e-010,-6.35000059e-003
,,,1.00000000e-009,-6.22031308e-003
,,,1.02500000e-009,-6.10000057e-003
,,,1.05000000e-009,-5.96015681e-003
,,,1.07500000e-009,-5.82812555e-003
,,,1.10000000e-009,-5.70312554e-003
,,,1.12500000e-009,-5.58359428e-003
,,,1.15000000e-009,-5.46640678e-003
,,,1.17500000e-009,-5.34921927e-003
,,,1.20000000e-009,-5.22812551e-003
,,,1.22500000e-009,-5.10000050e-003
,,,1.25000000e-009,-4.94687549e-003
,,,1.27500000e-009,-4.78125048e-003
,,,1.30000000e-009,-4.60468797e-003
,,,1.32500000e-009,-4.42109420e-003
,,,1.35000000e-009,-4.23437544e-003
,,,1.37500000e-009,-4.04921918e-003
,,,1.40000000e-009,-3.87031291e-003
,,,1.42500000e-009,-3.70000040e-003
,,,1.45000000e-009,-3.53671914e-003
,,,1.47500000e-009,-3.37968788e-003
,,,1.50000000e-009,-3.22734412e-003
,,,1.52500000e-009,-3.07968786e-003
,,,1.55000000e-009,-2.93359410e-003
,,,1.57500000e-009,-2.78984409e-003
,,,1.60000000e-009,-2.64531283e-003
,,,1.62500000e-009,-2.50000032e-003
,,,1.65000000e-009,-2.35859406e-003
,,,1.67500000e-009,-2.21015655e-003
,,,1.70000000e-009,-2.05546904e-003
,,,1.72500000e-009,-1.89687527e-003
,,,1.75000000e-009,-1.73750026e-003
,,,1.77500000e-009,-1.58281275e-003
,,,1.80000000e-009,-1.43515649e-003
,,,1.82500000e-009,-1.30000023e-003
,,,1.85000000e-009,-1.19609397e-003
,,,1.87500000e-009,-1.10078147e-003
,,,1.90000000e-009,-1.01406271e-003
,,,1.92500000e-009,-9.35156456e-004
,,,1.95000000e-009,-8.64843951e-004
,,,1.97500000e-009,-8.01562696e-004
,,,2.00000000e-009,-7.46875193e-004
,,,2.02500000e-009,-7.00000189e-004
,,,2.05000000e-009,-6.78125188e-004
,,,2.07500000e-009,-6.56250186e-004
,,,2.10000000e-009,-6.32031434e-004
,,,2.12500000e-009,-6.06250183e-004
,,,2.15000000e-009,-5.78906431e-004
,,,2.17500000e-009,-5.51562679e-004
,,,2.20000000e-009,-5.25000177e-004
,,,2.22500000e-009,-5.00000175e-004
,,,2.25000000e-009,-4.92187675e-004
,,,2.27500000e-009,-4.80468924e-004
,,,2.30000000e-009,-4.62500172e-004
,,,2.32500000e-009,-4.39062671e-004
,,,2.35000000e-009,-4.10156419e-004
,,,2.37500000e-009,-3.76562666e-004
,,,2.40000000e-009,-3.39062664e-004
,,,2.42500000e-009,-3.00000161e-004
,,,2.45000000e-009,-2.72656409e-004
,,,2.47500000e-009,-2.42187657e-004
,,,2.50000000e-009,-2.10937655e-004
,,,2.52500000e-009,-1.78906402e-004
,,,2.55000000e-009,-1.50000150e-004
,,,2.57500000e-009,-1.25781399e-004
,,,2.60000000e-009,-1.08593897e-004
,,,2.62500000e-009,-1.00000147e-004
,,,2.65000000e-009,-1.10156397e-004
,,,2.67500000e-009,-1.27343899e-004
,,,2.70000000e-009,-1.50781400e-004
,,,2.72500000e-009,-1.77343902e-004
,,,2.75000000e-009,-2.07031404e-004
,,,2.77500000e-009,-2.39062657e-004
,,,2.80000000e-009,-2.70312659e-004
,,,2.82500000e-009,-3.00000161e-004
,,,2.85000000e-009,-3.28906413e-004
,,,2.87500000e-009,-3.51562665e-004
,,,2.90000000e-009,-3.65625166e-004
,,,2.92500000e-009,-3.70312666e-004
,,,2.95000000e-009,-3.65625166e-004
,,,2.97500000e-009,-3.51562665e-004
,,,3.00000000e-009,-3.28906413e-004
,,,3.02500000e-009,-3.00000161e-004
,,,3.05000000e-009,-2.66406409e-004
,,,3.07500000e-009,-2.31250156e-004
,,,3.10000000e-009,-1.96093904e-004
,,,3.12500000e-009,-1.62500151e-004
,,,3.15000000e-009,-1.35156399e-004
,,,3.17500000e-009,-1.14062648e-004
,,,3.20000000e-009,-1.01562647e-004
,,,3.22500000e-009,-1.00000147e-004
,,,3.25000000e-009,-1.08593897e-004
,,,3.27500000e-009,-1.26562649e-004
,,,3.30000000e-009,-1.50781400e-004
,,,3.32500000e-009,-1.79687652e-004
,,,3.35000000e-009,-2.11718905e-004
,,,3.37500000e-009,-2.43750157e-004
,,,3.40000000e-009,-2.73437659e-004
,,,3.42500000e-009,-3.00000161e-004
,,,3.45000000e-009,-3.17968912e-004
,,,3.47500000e-009,-3.28906413e-004
,,,3.50000000e-009,-3.34375163e-004
,,,3.52500000e-009,-3.32812663e-004
,,,3.55000000e-009,-3.27343913e-004
,,,3.57500000e-009,-3.18750162e-004
,,,3.60000000e-009,-3.09375162e-004
,,,3.62500000e-009,-3.00000161e-004
,,,3.65000000e-009,-2.89843910e-004
,,,3.67500000e-009,-2.82812660e-004
,,,3.70000000e-009,-2.79687659e-004
,,,3.72500000e-009,-2.78906409e-004
,,,3.75000000e-009,-2.81250160e-004
,,,3.77500000e-009,-2.85937660e-004
,,,3.80000000e-009,-2.92968910e-004
,,,3.82500000e-009,-3.00000161e-004
,,,3.85000000e-009,-3.04687661e-004
,,,3.87500000e-009,-3.08593912e-004
,,,3.90000000e-009,-3.10937662e-004
,,,3.92500000e-009,-3.11718912e-004
,,,3.95000000e-009,-3.10937662e-004
,,,3.97500000e-009,-3.08593912e-004
,,,4.00000000e-009,-3.05468911e-004
,,,4.02500000e-009,-3.00000161e-004
,,,4.05000000e-009,-2.88281410e-004
,,,4.07500000e-009,-2.74218909e-004
,,,4.10000000e-009,-2.55468908e-004
,,,4.12500000e-009,-2.32812656e-004
,,,4.15000000e-009,-2.05468904e-004
,,,4.17500000e-009,-1.74218902e-004
,,,4.20000000e-009,-1.38281399e-004
,,,4.22500000e-009,-1.00000147e-004
,,,4.25000000e-009,-5.85938938e-005
,,,4.27500000e-009,-1.79688910e-005
,,,4.30000000e-009,1.95311117e-005
,,,4.32500000e-009,5.23436140e-005
,,,4.35000000e-009,7.81248658e-005
,,,4.37500000e-009,9.53123670e-005
,,,4.40000000e-009,1.03124868e-004
,,,4.42500000e-009,9.99998674e-005
,,,4.45000000e-009,8.90623666e-005
,,,4.47500000e-009,6.95311152e-005
,,,4.50000000e-009,4.45311135e-005
,,,4.52500000e-009,1.48436114e-005
,,,4.55000000e-009,-1.71876409e-005
,,,4.57500000e-009,-4.84376431e-005
,,,4.60000000e-009,-7.65626451e-005
,,,4.62500000e-009,-1.00000147e-004
,,,4.65000000e-009,-1.13281398e-004
,,,4.67500000e-009,-1.16406398e-004
,,,4.70000000e-009,-1.07812647e-004
,,,4.72500000e-009,-8.67188958e-005
,,,4.75000000e-009,-5.39063935e-005
,,,4.77500000e-009,-1.01563904e-005
,,,4.80000000e-009,4.21873633e-005
,,,4.82500000e-009,9.99998674e-005
,,,4.85000000e-009,1.60937372e-004
,,,4.87500000e-009,2.18749876e-004
,,,4.90000000e-009,2.69531129e-004
,,,4.92500000e-009,3.08593632e-004
,,,4.95000000e-009,3.33593634e-004
,,,4.97500000e-009,3.40624884e-004
,,,5.00000000e-009,3.29687384e-004
,,,5.02500000e-009,2.99999882e-004
,,,5.05000000e-009,2.55468628e-004
,,,5.07500000e-009,2.02343625e-004
,,,5.10000000e-009,1.48437371e-004
,,,5.12500000e-009,1.01562367e-004
,,,5.15000000e-009,6.79686151e-005
,,,5.17500000e-009,5.39061141e-005
,,,5.20000000e-009,6.40623648e-005
,,,5.22500000e-009,9.99998674e-005
,,,5.25000000e-009,1.60937372e-004
,,,5.27500000e-009,2.40624877e-004
,,,5.30000000e-009,3.34374884e-004
,,,5.32500000e-009,4.32812391e-004
,,,5.35000000e-009,5.26562398e-004
,,,5.37500000e-009,6.07031153e-004
,,,5.40000000e-009,6.67187408e-004
,,,5.42500000e-009,6.99999910e-004
,,,5.45000000e-009,6.97656160e-004
,,,5.47500000e-009,6.67187408e-004
,,,5.50000000e-009,6.14062404e-004
,,,5.52500000e-009,5.46093649e-004
,,,5.55000000e-009,4.72656144e-004
,,,5.57500000e-009,4.01562389e-004
,,,5.60000000e-009,3.42187385e-004
,,,5.62500000e-009,2.99999882e-004
,,,5.65000000e-009,2.75781130e-004
,,,5.67500000e-009,2.74999880e-004
,,,5.70000000e-009,2.93749881e-004
,,,5.72500000e-009,3.28906134e-004
,,,5.75000000e-009,3.74218637e-004
,,,5.77500000e-009,4.22656140e-004
,,,5.80000000e-009,4.66406143e-004
,,,5.82500000e-009,4.99999896e-004
,,,5.85000000e-009,5.14843647e-004
,,,5.87500000e-009,5.12499897e-004
,,,5.90000000e-009,4.94531145e-004
,,,5.92500000e-009,4.64062393e-004
,,,5.95000000e-009,4.24999890e-004
,,,5.97500000e-009,3.82031137e-004
