RawData/SinglePhotoelectron/L2_2pt2C_5mV/wave020_Ch3.csv

"Record Length",1000,"Points",-7.72500000e-009,-1.24218898e-004
"Sample Interval",2.50000000e-011,s,-7.70000000e-009,-8.04688954e-005
"Trigger Point",309,"Samples",-7.67500000e-009,-5.15626433e-005
"Trigger Time",1.44789372e-011,s,-7.65000000e-009,-4.37501428e-005
"",,,-7.62500000e-009,-5.93751439e-005
"Horizontal Offset",-7.72500000e-009,s,-7.60000000e-009,-1.00000147e-004
,,,-7.57500000e-009,-1.62500151e-004
,,,-7.55000000e-009,-2.42968907e-004
,,,-7.52500000e-009,-3.33593913e-004
,,,-7.50000000e-009,-4.28906420e-004
,,,-7.47500000e-009,-5.19531426e-004
,,,-7.45000000e-009,-5.99218932e-004
,,,-7.42500000e-009,-6.60937686e-004
,,,-7.40000000e-009,-7.00000189e-004
,,,-7.37500000e-009,-7.06250190e-004
,,,-7.35000000e-009,-6.86718938e-004
,,,-7.32500000e-009,-6.44531435e-004
,,,-7.30000000e-009,-5.84375181e-004
,,,-7.27500000e-009,-5.12500176e-004
,,,-7.25000000e-009,-4.36718921e-004
,,,-7.22500000e-009,-3.63281415e-004
,,,-7.20000000e-009,-3.00000161e-004
,,,-7.17500000e-009,-2.48437657e-004
,,,-7.15000000e-009,-2.14843905e-004
,,,-7.12500000e-009,-1.98437654e-004
,,,-7.10000000e-009,-1.98437654e-004
,,,-7.07500000e-009,-2.12500155e-004
,,,-7.05000000e-009,-2.36718906e-004
,,,-7.02500000e-009,-2.67187659e-004
,,,-7.00000000e-009,-3.00000161e-004
,,,-6.97500000e-009,-3.28906413e-004
,,,-6.95000000e-009,-3.51562665e-004
,,,-6.92500000e-009,-3.66406416e-004
,,,-6.90000000e-009,-3.71093916e-004
,,,-6.87500000e-009,-3.66406416e-004
,,,-6.85000000e-009,-3.52343915e-004
,,,-6.82500000e-009,-3.29687663e-004
,,,-6.80000000e-009,-3.00000161e-004
,,,-6.77500000e-009,-2.60937658e-004
,,,-6.75000000e-009,-2.16406405e-004
,,,-6.72500000e-009,-1.67968902e-004
,,,-6.70000000e-009,-1.17187648e-004
,,,-6.67500000e-009,-6.32813942e-005
,,,-6.65000000e-009,-8.59389031e-006
,,,-6.62500000e-009,4.68748636e-005
,,,-6.60000000e-009,9.99998674e-005
,,,-6.57500000e-009,1.49218621e-004
,,,-6.55000000e-009,1.92968624e-004
,,,-6.52500000e-009,2.31249877e-004
,,,-6.50000000e-009,2.61718629e-004
,,,-6.47500000e-009,2.84374880e-004
,,,-6.45000000e-009,2.98437381e-004
,,,-6.42500000e-009,3.03906132e-004
,,,-6.40000000e-009,2.99999882e-004
,,,-6.37500000e-009,2.84374880e-004
,,,-6.35000000e-009,2.62499879e-004
,,,-6.32500000e-009,2.35937377e-004
,,,-6.30000000e-009,2.07812375e-004
,,,-6.27500000e-009,1.78906123e-004
,,,-6.25000000e-009,1.49999871e-004
,,,-6.22500000e-009,1.23437369e-004
,,,-6.20000000e-009,9.99998674e-005
,,,-6.17500000e-009,7.81248658e-005
,,,-6.15000000e-009,6.17186147e-005
,,,-6.12500000e-009,5.23436140e-005
,,,-6.10000000e-009,4.99998638e-005
,,,-6.07500000e-009,5.39061141e-005
,,,-6.05000000e-009,6.48436149e-005
,,,-6.02500000e-009,8.12498661e-005
,,,-6.00000000e-009,9.99998674e-005
,,,-5.97500000e-009,1.18749869e-004
,,,-5.95000000e-009,1.35937370e-004
,,,-5.92500000e-009,1.49999871e-004
,,,-5.90000000e-009,1.57812371e-004
,,,-5.87500000e-009,1.57812371e-004
,,,-5.85000000e-009,1.48437371e-004
,,,-5.82500000e-009,1.28906119e-004
,,,-5.80000000e-009,9.99998674e-005
,,,-5.77500000e-009,6.32811148e-005
,,,-5.75000000e-009,2.18748618e-005
,,,-5.72500000e-009,-1.87501410e-005
,,,-5.70000000e-009,-5.62501437e-005
,,,-5.67500000e-009,-8.51563957e-005
,,,-5.65000000e-009,-1.03125147e-004
,,,-5.62500000e-009,-1.08593897e-004
,,,-5.60000000e-009,-1.00000147e-004
,,,-5.57500000e-009,-7.65626451e-005
,,,-5.55000000e-009,-4.29688927e-005
,,,-5.52500000e-009,-3.90638997e-006
,,,-5.50000000e-009,3.51561128e-005
,,,-5.47500000e-009,7.03123653e-005
,,,-5.45000000e-009,9.53123670e-005
,,,-5.42500000e-009,1.06249868e-004
,,,-5.40000000e-009,9.99998674e-005
,,,-5.37500000e-009,7.89061159e-005
,,,-5.35000000e-009,4.06248632e-005
,,,-5.32500000e-009,-1.09376405e-005
,,,-5.30000000e-009,-7.18751448e-005
,,,-5.27500000e-009,-1.36718899e-004
,,,-5.25000000e-009,-2.00000154e-004
,,,-5.22500000e-009,-2.55468908e-004
,,,-5.20000000e-009,-3.00000161e-004
,,,-5.17500000e-009,-3.23437663e-004
,,,-5.15000000e-009,-3.28906413e-004
,,,-5.12500000e-009,-3.17968912e-004
,,,-5.10000000e-009,-2.91406410e-004
,,,-5.07500000e-009,-2.53125158e-004
,,,-5.05000000e-009,-2.05468904e-004
,,,-5.02500000e-009,-1.53125151e-004
,,,-5.00000000e-009,-1.00000147e-004
,,,-4.97500000e-009,-4.68751430e-005
,,,-4.95000000e-009,-1.39698386e-010
,,,-4.92500000e-009,3.82811130e-005
,,,-4.90000000e-009,6.79686151e-005
,,,-4.87500000e-009,8.82811166e-005
,,,-4.85000000e-009,9.92186173e-005
,,,-4.82500000e-009,1.02343618e-004
,,,-4.80000000e-009,9.99998674e-005
,,,-4.77500000e-009,9.53123670e-005
,,,-4.75000000e-009,8.82811166e-005
,,,-4.72500000e-009,8.12498661e-005
,,,-4.70000000e-009,7.65623657e-005
,,,-4.67500000e-009,7.49998656e-005
,,,-4.65000000e-009,7.81248658e-005
,,,-4.62500000e-009,8.67186164e-005
,,,-4.60000000e-009,9.99998674e-005
,,,-4.57500000e-009,1.19531119e-004
,,,-4.55000000e-009,1.42968620e-004
,,,-4.52500000e-009,1.70312372e-004
,,,-4.50000000e-009,1.99218624e-004
,,,-4.47500000e-009,2.28124876e-004
,,,-4.45000000e-009,2.56249878e-004
,,,-4.42500000e-009,2.80468630e-004
,,,-4.40000000e-009,2.99999882e-004
,,,-4.37500000e-009,3.12499882e-004
,,,-4.35000000e-009,3.18749883e-004
,,,-4.32500000e-009,3.20312383e-004
,,,-4.30000000e-009,3.17968633e-004
,,,-4.27500000e-009,3.14062383e-004
,,,-4.25000000e-009,3.08593632e-004
,,,-4.22500000e-009,3.03906132e-004
,,,-4.20000000e-009,2.99999882e-004
,,,-4.17500000e-009,2.96093631e-004
,,,-4.15000000e-009,2.93749881e-004
,,,-4.12500000e-009,2.94531131e-004
,,,-4.10000000e-009,2.96874881e-004
,,,-4.07500000e-009,2.99218631e-004
,,,-4.05000000e-009,3.01562382e-004
,,,-4.02500000e-009,3.02343632e-004
,,,-4.00000000e-009,2.99999882e-004
,,,-3.97500000e-009,2.92187381e-004
,,,-3.95000000e-009,2.83593630e-004
,,,-3.92500000e-009,2.74999880e-004
,,,-3.90000000e-009,2.69531129e-004
,,,-3.87500000e-009,2.67968629e-004
,,,-3.85000000e-009,2.72656130e-004
,,,-3.82500000e-009,2.83593630e-004
,,,-3.80000000e-009,2.99999882e-004
,,,-3.77500000e-009,3.17968633e-004
,,,-3.75000000e-009,3.36718634e-004
,,,-3.72500000e-009,3.53906135e-004
,,,-3.70000000e-009,3.65624886e-004
,,,-3.67500000e-009,3.67968636e-004
,,,-3.65000000e-009,3.59374886e-004
,,,-3.62500000e-009,3.36718634e-004
,,,-3.60000000e-009,2.99999882e-004
,,,-3.57500000e-009,2.49218628e-004
,,,-3.55000000e-009,1.89062374e-004
,,,-3.52500000e-009,1.24218619e-004
,,,-3.50000000e-009,5.93748645e-005
,,,-3.47500000e-009,-1.39698386e-010
,,,-3.45000000e-009,-4.84376431e-005
,,,-3.42500000e-009,-8.28126456e-005
,,,-3.40000000e-009,-1.00000147e-004
,,,-3.37500000e-009,-9.68751466e-005
,,,-3.35000000e-009,-7.89063953e-005
,,,-3.32500000e-009,-4.92188932e-005
,,,-3.30000000e-009,-1.17188905e-005
,,,-3.27500000e-009,2.73436122e-005
,,,-3.25000000e-009,6.24998647e-005
,,,-3.22500000e-009,8.82811166e-005
,,,-3.20000000e-009,9.99998674e-005
,,,-3.17500000e-009,9.53123670e-005
,,,-3.15000000e-009,7.18748654e-005
,,,-3.12500000e-009,3.12498625e-005
,,,-3.10000000e-009,-2.34376414e-005
,,,-3.07500000e-009,-8.90626460e-005
,,,-3.05000000e-009,-1.60156401e-004
,,,-3.02500000e-009,-2.32031406e-004
,,,-3.00000000e-009,-3.00000161e-004
,,,-2.97500000e-009,-3.53906415e-004
,,,-2.95000000e-009,-3.94531418e-004
,,,-2.92500000e-009,-4.19531419e-004
,,,-2.90000000e-009,-4.27343920e-004
,,,-2.87500000e-009,-4.17968919e-004
,,,-2.85000000e-009,-3.92187667e-004
,,,-2.82500000e-009,-3.52343915e-004
,,,-2.80000000e-009,-3.00000161e-004
,,,-2.77500000e-009,-2.34375156e-004
,,,-2.75000000e-009,-1.66406401e-004
,,,-2.72500000e-009,-9.92188967e-005
,,,-2.70000000e-009,-3.75001424e-005
,,,-2.67500000e-009,1.64061115e-005
,,,-2.65000000e-009,5.78123644e-005
,,,-2.62500000e-009,8.67186164e-005
,,,-2.60000000e-009,9.99998674e-005
,,,-2.57500000e-009,1.00781117e-004
,,,-2.55000000e-009,8.74998665e-005
,,,-2.52500000e-009,6.32811148e-005
,,,-2.50000000e-009,3.20311126e-005
,,,-2.47500000e-009,-3.12513992e-006
,,,-2.45000000e-009,-3.90626425e-005
,,,-2.42500000e-009,-7.18751448e-005
,,,-2.40000000e-009,-1.00000147e-004
,,,-2.37500000e-009,-1.17187648e-004
,,,-2.35000000e-009,-1.27343899e-004
,,,-2.32500000e-009,-1.28906399e-004
,,,-2.30000000e-009,-1.25000149e-004
,,,-2.27500000e-009,-1.17968898e-004
,,,-2.25000000e-009,-1.10156397e-004
,,,-2.22500000e-009,-1.03125147e-004
,,,-2.20000000e-009,-1.00000147e-004
,,,-2.17500000e-009,-9.76563966e-005
,,,-2.15000000e-009,-1.00000147e-004
,,,-2.12500000e-009,-1.04687647e-004
,,,-2.10000000e-009,-1.10937648e-004
,,,-2.07500000e-009,-1.14843898e-004
,,,-2.05000000e-009,-1.15625148e-004
,,,-2.02500000e-009,-1.10937648e-004
,,,-2.00000000e-009,-1.00000147e-004
,,,-1.97500000e-009,-8.28126456e-005
,,,-1.95000000e-009,-5.93751439e-005
,,,-1.92500000e-009,-3.20313920e-005
,,,-1.90000000e-009,-7.81389754e-007
,,,-1.87500000e-009,2.96873624e-005
,,,-1.85000000e-009,5.85936144e-005
,,,-1.82500000e-009,8.20311161e-005
,,,-1.80000000e-009,9.99998674e-005
,,,-1.77500000e-009,1.07031118e-004
,,,-1.75000000e-009,1.07812368e-004
,,,-1.72500000e-009,1.03124868e-004
,,,-1.70000000e-009,9.68748672e-005
,,,-1.67500000e-009,9.06248667e-005
,,,-1.65000000e-009,8.82811166e-005
,,,-1.62500000e-009,9.06248667e-005
,,,-1.60000000e-009,9.99998674e-005
,,,-1.57500000e-009,1.10156118e-004
,,,-1.55000000e-009,1.25781119e-004
,,,-1.52500000e-009,1.48437371e-004
,,,-1.50000000e-009,1.75781123e-004
,,,-1.47500000e-009,2.06249875e-004
,,,-1.45000000e-009,2.39062377e-004
,,,-1.42500000e-009,2.71874880e-004
,,,-1.40000000e-009,2.99999882e-004
,,,-1.37500000e-009,3.07812382e-004
,,,-1.35000000e-009,3.04687382e-004
,,,-1.32500000e-009,2.91406131e-004
,,,-1.30000000e-009,2.68749879e-004
,,,-1.27500000e-009,2.35937377e-004
,,,-1.25000000e-009,1.96093624e-004
,,,-1.22500000e-009,1.50781121e-004
,,,-1.20000000e-009,9.99998674e-005
,,,-1.17500000e-009,2.96873624e-005
,,,-1.15000000e-009,-4.29688927e-005
,,,-1.12500000e-009,-1.12500148e-004
,,,-1.10000000e-009,-1.74218902e-004
,,,-1.07500000e-009,-2.25781406e-004
,,,-1.05000000e-009,-2.64843908e-004
,,,-1.02500000e-009,-2.89062660e-004
,,,-1.00000000e-009,-3.00000161e-004
,,,-9.75000000e-010,-3.21093912e-004
,,,-9.50000000e-010,-3.39062664e-004
,,,-9.25000000e-010,-3.53906415e-004
,,,-9.00000000e-010,-3.70312666e-004
,,,-8.75000000e-010,-3.89843917e-004
,,,-8.50000000e-010,-4.15625169e-004
,,,-8.25000000e-010,-4.51562672e-004
,,,-8.00000000e-010,-5.00000175e-004
,,,-7.75000000e-010,-5.85937681e-004
,,,-7.50000000e-010,-6.90625189e-004
,,,-7.25000000e-010,-8.10937697e-004
,,,-7.00000000e-010,-9.43750206e-004
,,,-6.75000000e-010,-1.08359397e-003
,,,-6.50000000e-010,-1.22500023e-003
,,,-6.25000000e-010,-1.36484399e-003
,,,-6.00000000e-010,-1.50000025e-003
,,,-5.75000000e-010,-1.64375026e-003
,,,-5.50000000e-010,-1.78281277e-003
,,,-5.25000000e-010,-1.91562528e-003
,,,-5.00000000e-010,-2.04296903e-003
,,,-4.75000000e-010,-2.16328154e-003
,,,-4.50000000e-010,-2.27812530e-003
,,,-4.25000000e-010,-2.38984406e-003
,,,-4.00000000e-010,-2.50000032e-003
,,,-3.75000000e-010,-2.61875033e-003
,,,-3.50000000e-010,-2.74687533e-003
,,,-3.25000000e-010,-2.88437534e-003
,,,-3.00000000e-010,-3.03203160e-003
,,,-2.75000000e-010,-3.18906287e-003
,,,-2.50000000e-010,-3.35390663e-003
,,,-2.25000000e-010,-3.52421914e-003
,,,-2.00000000e-010,-3.70000040e-003
,,,-1.75000000e-010,-3.87187541e-003
,,,-1.50000000e-010,-4.04921918e-003
,,,-1.25000000e-010,-4.22968794e-003
,,,-1.00000000e-010,-4.41093795e-003
,,,-7.50000000e-011,-4.59218796e-003
,,,-5.00000000e-011,-4.76875048e-003
,,,-2.50000000e-011,-4.93828174e-003
,,,0.00000000e+000,-5.10000050e-003
,,,2.50000000e-011,-5.22734426e-003
,,,5.00000000e-011,-5.34609427e-003
,,,7.50000000e-011,-5.45625053e-003
,,,1.00000000e-010,-5.55937553e-003
,,,1.25000000e-010,-5.65546929e-003
,,,1.50000000e-010,-5.74375055e-003
,,,1.75000000e-010,-5.82500055e-003
,,,2.00000000e-010,-5.90000056e-003
,,,2.25000000e-010,-5.93359431e-003
,,,2.50000000e-010,-5.96796931e-003
,,,2.75000000e-010,-6.00546931e-003
,,,3.00000000e-010,-6.04921932e-003
,,,3.25000000e-010,-6.10078182e-003
,,,3.50000000e-010,-6.16015683e-003
,,,3.75000000e-010,-6.22734433e-003
,,,4.00000000e-010,-6.30000059e-003
,,,4.25000000e-010,-6.33515684e-003
,,,4.50000000e-010,-6.37265684e-003
,,,4.75000000e-010,-6.40937559e-003
,,,5.00000000e-010,-6.44453185e-003
,,,5.25000000e-010,-6.47421935e-003
,,,5.50000000e-010,-6.49609435e-003
,,,5.75000000e-010,-6.50546935e-003
,,,6.00000000e-010,-6.50000060e-003
,,,6.25000000e-010,-6.43671935e-003
,,,6.50000000e-010,-6.35781309e-003
,,,6.75000000e-010,-6.26562558e-003
,,,7.00000000e-010,-6.16250058e-003
,,,7.25000000e-010,-6.05234432e-003
,,,7.50000000e-010,-5.93750056e-003
,,,7.75000000e-010,-5.81953180e-003
,,,8.00000000e-010,-5.70000054e-003
,,,8.25000000e-010,-5.54765678e-003
,,,8.50000000e-010,-5.39453177e-003
,,,8.75000000e-010,-5.24296926e-003
,,,9.00000000e-010,-5.09296925e-003
,,,9.25000000e-010,-4.94453174e-003
,,,9.50000000e-010,-4.79687548e-003
,,,9.75000000e-010,-4.64921922e-003
,,,1.00000000e-009,-4.50000046e-003
,,,1.02500000e-009,-4.33046920e-003
,,,1.05000000e-009,-4.15703168e-003
,,,1.07500000e-009,-3.97890667e-003
,,,1.10000000e-009,-3.79843791e-003
,,,1.12500000e-009,-3.61875040e-003
,,,1.15000000e-009,-3.43984413e-003
,,,1.17500000e-009,-3.26640662e-003
,,,1.20000000e-009,-3.10000036e-003
,,,1.22500000e-009,-2.93984410e-003
,,,1.25000000e-009,-2.78671909e-003
,,,1.27500000e-009,-2.64218783e-003
,,,1.30000000e-009,-2.50859407e-003
,,,1.32500000e-009,-2.38671906e-003
,,,1.35000000e-009,-2.27812530e-003
,,,1.37500000e-009,-2.18281279e-003
,,,1.40000000e-009,-2.10000029e-003
,,,1.42500000e-009,-2.03359403e-003
,,,1.45000000e-009,-1.97031278e-003
,,,1.47500000e-009,-1.90546902e-003
,,,1.50000000e-009,-1.83671902e-003
,,,1.52500000e-009,-1.76250026e-003
,,,1.55000000e-009,-1.68203151e-003
,,,1.57500000e-009,-1.59453150e-003
,,,1.60000000e-009,-1.50000025e-003
,,,1.62500000e-009,-1.41171899e-003
,,,1.65000000e-009,-1.31328148e-003
,,,1.67500000e-009,-1.20625023e-003
,,,1.70000000e-009,-1.09453147e-003
,,,1.72500000e-009,-9.83593959e-004
,,,1.75000000e-009,-8.78125202e-004
,,,1.77500000e-009,-7.82031445e-004
,,,1.80000000e-009,-7.00000189e-004
,,,1.82500000e-009,-6.50000186e-004
,,,1.85000000e-009,-6.10937683e-004
,,,1.87500000e-009,-5.81250181e-004
,,,1.90000000e-009,-5.57812679e-004
,,,1.92500000e-009,-5.39843928e-004
,,,1.95000000e-009,-5.25781427e-004
,,,1.97500000e-009,-5.12500176e-004
,,,2.00000000e-009,-5.00000175e-004
,,,2.02500000e-009,-5.00000175e-004
,,,2.05000000e-009,-4.92187675e-004
,,,2.07500000e-009,-4.75781423e-004
,,,2.10000000e-009,-4.50781422e-004
,,,2.12500000e-009,-4.18750169e-004
,,,2.15000000e-009,-3.81250167e-004
,,,2.17500000e-009,-3.40625164e-004
,,,2.20000000e-009,-3.00000161e-004
,,,2.22500000e-009,-2.71875159e-004
,,,2.25000000e-009,-2.43750157e-004
,,,2.27500000e-009,-2.15625155e-004
,,,2.30000000e-009,-1.89062653e-004
,,,2.32500000e-009,-1.63281401e-004
,,,2.35000000e-009,-1.39062650e-004
,,,2.37500000e-009,-1.17968898e-004
,,,2.40000000e-009,-1.00000147e-004
,,,2.42500000e-009,-9.53126464e-005
,,,2.45000000e-009,-9.21876462e-005
,,,2.47500000e-009,-8.98438961e-005
,,,2.50000000e-009,-8.90626460e-005
,,,2.52500000e-009,-8.82813959e-005
,,,2.55000000e-009,-8.98438961e-005
,,,2.57500000e-009,-9.37501463e-005
,,,2.60000000e-009,-1.00000147e-004
,,,2.62500000e-009,-1.17187648e-004
,,,2.65000000e-009,-1.36718899e-004
,,,2.67500000e-009,-1.58593901e-004
,,,2.70000000e-009,-1.82812653e-004
,,,2.72500000e-009,-2.08593904e-004
,,,2.75000000e-009,-2.36718906e-004
,,,2.77500000e-009,-2.67187659e-004
,,,2.80000000e-009,-3.00000161e-004
,,,2.82500000e-009,-3.34375163e-004
,,,2.85000000e-009,-3.67968916e-004
,,,2.87500000e-009,-3.99218918e-004
,,,2.90000000e-009,-4.28125170e-004
,,,2.92500000e-009,-4.53125172e-004
,,,2.95000000e-009,-4.73437673e-004
,,,2.97500000e-009,-4.89062674e-004
,,,3.00000000e-009,-5.00000175e-004
,,,3.02500000e-009,-5.03906425e-004
,,,3.05000000e-009,-5.03125175e-004
,,,3.07500000e-009,-5.00781425e-004
,,,3.10000000e-009,-4.96093925e-004
,,,3.12500000e-009,-4.92187675e-004
,,,3.15000000e-009,-4.90625174e-004
,,,3.17500000e-009,-4.92968925e-004
,,,3.20000000e-009,-5.00000175e-004
,,,3.22500000e-009,-5.08593926e-004
,,,3.25000000e-009,-5.23437677e-004
,,,3.27500000e-009,-5.42968928e-004
,,,3.30000000e-009,-5.68750180e-004
,,,3.32500000e-009,-5.98437682e-004
,,,3.35000000e-009,-6.31250184e-004
,,,3.37500000e-009,-6.65625187e-004
,,,3.40000000e-009,-7.00000189e-004
,,,3.42500000e-009,-7.24218941e-004
,,,3.45000000e-009,-7.44531442e-004
,,,3.47500000e-009,-7.57812693e-004
,,,3.50000000e-009,-7.64062694e-004
,,,3.52500000e-009,-7.61718944e-004
,,,3.55000000e-009,-7.50781443e-004
,,,3.57500000e-009,-7.29687691e-004
,,,3.60000000e-009,-7.00000189e-004
,,,3.62500000e-009,-6.54687686e-004
,,,3.65000000e-009,-6.03125182e-004
,,,3.67500000e-009,-5.48437679e-004
,,,3.70000000e-009,-4.92968925e-004
,,,3.72500000e-009,-4.37500171e-004
,,,3.75000000e-009,-3.86718917e-004
,,,3.77500000e-009,-3.39843914e-004
,,,3.80000000e-009,-3.00000161e-004
,,,3.82500000e-009,-2.62500158e-004
,,,3.85000000e-009,-2.32031406e-004
,,,3.87500000e-009,-2.06250154e-004
,,,3.90000000e-009,-1.84375153e-004
,,,3.92500000e-009,-1.64062651e-004
,,,3.95000000e-009,-1.43750150e-004
,,,3.97500000e-009,-1.22656398e-004
,,,4.00000000e-009,-1.00000147e-004
,,,4.02500000e-009,-7.42188950e-005
,,,4.05000000e-009,-4.68751430e-005
,,,4.07500000e-009,-1.71876409e-005
,,,4.10000000e-009,1.24998612e-005
,,,4.12500000e-009,4.06248632e-005
,,,4.15000000e-009,6.56248649e-005
,,,4.17500000e-009,8.59373664e-005
,,,4.20000000e-009,9.99998674e-005
,,,4.22500000e-009,1.05468618e-004
,,,4.25000000e-009,1.06249868e-004
,,,4.27500000e-009,1.02343618e-004
,,,4.30000000e-009,9.76561172e-005
,,,4.32500000e-009,9.29686169e-005
,,,4.35000000e-009,9.06248667e-005
,,,4.37500000e-009,9.29686169e-005
,,,4.40000000e-009,9.99998674e-005
,,,4.42500000e-009,1.09374868e-004
,,,4.45000000e-009,1.24999869e-004
,,,4.47500000e-009,1.46874871e-004
,,,4.50000000e-009,1.74999873e-004
,,,4.52500000e-009,2.05468625e-004
,,,4.55000000e-009,2.38281127e-004
,,,4.57500000e-009,2.71093629e-004
,,,4.60000000e-009,2.99999882e-004
,,,4.62500000e-009,3.20312383e-004
,,,4.65000000e-009,3.35937384e-004
,,,4.67500000e-009,3.44531135e-004
,,,4.70000000e-009,3.47656135e-004
,,,4.72500000e-009,3.44531135e-004
,,,4.75000000e-009,3.35156134e-004
,,,4.77500000e-009,3.20312383e-004
,,,4.80000000e-009,2.99999882e-004
,,,4.82500000e-009,2.73437380e-004
,,,4.85000000e-009,2.44531128e-004
,,,4.87500000e-009,2.16406126e-004
,,,4.90000000e-009,1.88281124e-004
,,,4.92500000e-009,1.62499872e-004
,,,4.95000000e-009,1.39062370e-004
,,,4.97500000e-009,1.18749869e-004
,,,5.00000000e-009,9.99998674e-005
,,,5.02500000e-009,8.35936162e-005
,,,5.05000000e-009,6.79686151e-005
,,,5.07500000e-009,5.15623640e-005
,,,5.10000000e-009,3.20311126e-005
,,,5.12500000e-009,7.81236085e-006
,,,5.15000000e-009,-2.18751412e-005
,,,5.17500000e-009,-5.78126438e-005
,,,5.20000000e-009,-1.00000147e-004
,,,5.22500000e-009,-1.42968900e-004
,,,5.25000000e-009,-1.87500153e-004
,,,5.27500000e-009,-2.29687656e-004
,,,5.30000000e-009,-2.67187659e-004
,,,5.32500000e-009,-2.95312661e-004
,,,5.35000000e-009,-3.10937662e-004
,,,5.37500000e-009,-3.13281412e-004
,,,5.40000000e-009,-3.00000161e-004
,,,5.42500000e-009,-2.67187659e-004
,,,5.45000000e-009,-2.21875155e-004
,,,5.47500000e-009,-1.67187652e-004
,,,5.50000000e-009,-1.07031397e-004
,,,5.52500000e-009,-4.60938930e-005
,,,5.55000000e-009,1.09373611e-005
,,,5.57500000e-009,6.09373646e-005
,,,5.60000000e-009,9.99998674e-005
,,,5.62500000e-009,1.28906119e-004
,,,5.65000000e-009,1.44531121e-004
,,,5.67500000e-009,1.48437371e-004
,,,5.70000000e-009,1.42968620e-004
,,,5.72500000e-009,1.32031120e-004
,,,5.75000000e-009,1.18749869e-004
,,,5.77500000e-009,1.07031118e-004
,,,5.80000000e-009,9.99998674e-005
,,,5.82500000e-009,1.01562367e-004
,,,5.85000000e-009,1.10937368e-004
,,,5.87500000e-009,1.29687369e-004
,,,5.90000000e-009,1.55468621e-004
,,,5.92500000e-009,1.88281124e-004
,,,5.95000000e-009,2.24999876e-004
