RawData/SinglePhotoelectron/L2_2pt2C_5mV/wave004_Ch3.csv

"Record Length",1000,"Points",-7.72500000e-009,-7.34376449e-005
"Sample Interval",2.50000000e-011,s,-7.70000000e-009,-1.09376405e-005
"Trigger Point",309,"Samples",-7.67500000e-009,4.84373637e-005
"Trigger Time",2.22018182e-011,s,-7.65000000e-009,9.99998674e-005
"",,,-7.62500000e-009,1.39062370e-004
"Horizontal Offset",-7.72500000e-009,s,-7.60000000e-009,1.64062372e-004
,,,-7.57500000e-009,1.76562373e-004
,,,-7.55000000e-009,1.76562373e-004
,,,-7.52500000e-009,1.66406122e-004
,,,-7.50000000e-009,1.48437371e-004
,,,-7.47500000e-009,1.25781119e-004
,,,-7.45000000e-009,9.99998674e-005
,,,-7.42500000e-009,7.10936153e-005
,,,-7.40000000e-009,4.29686133e-005
,,,-7.37500000e-009,1.71873615e-005
,,,-7.35000000e-009,-7.81264025e-006
,,,-7.32500000e-009,-3.04688919e-005
,,,-7.30000000e-009,-5.31251435e-005
,,,-7.27500000e-009,-7.57813951e-005
,,,-7.25000000e-009,-1.00000147e-004
,,,-7.22500000e-009,-1.26562649e-004
,,,-7.20000000e-009,-1.54687651e-004
,,,-7.17500000e-009,-1.83593903e-004
,,,-7.15000000e-009,-2.11718905e-004
,,,-7.12500000e-009,-2.38281407e-004
,,,-7.10000000e-009,-2.62500158e-004
,,,-7.07500000e-009,-2.82812660e-004
,,,-7.05000000e-009,-3.00000161e-004
,,,-7.02500000e-009,-3.09375162e-004
,,,-7.00000000e-009,-3.14843912e-004
,,,-6.97500000e-009,-3.16406412e-004
,,,-6.95000000e-009,-3.14843912e-004
,,,-6.92500000e-009,-3.11718912e-004
,,,-6.90000000e-009,-3.07031411e-004
,,,-6.87500000e-009,-3.03125161e-004
,,,-6.85000000e-009,-3.00000161e-004
,,,-6.82500000e-009,-2.97656411e-004
,,,-6.80000000e-009,-2.97656411e-004
,,,-6.77500000e-009,-2.98437661e-004
,,,-6.75000000e-009,-2.99218911e-004
,,,-6.72500000e-009,-3.00781411e-004
,,,-6.70000000e-009,-3.01562661e-004
,,,-6.67500000e-009,-3.01562661e-004
,,,-6.65000000e-009,-3.00000161e-004
,,,-6.62500000e-009,-2.95312661e-004
,,,-6.60000000e-009,-2.90625160e-004
,,,-6.57500000e-009,-2.86718910e-004
,,,-6.55000000e-009,-2.84375160e-004
,,,-6.52500000e-009,-2.83593910e-004
,,,-6.50000000e-009,-2.85937660e-004
,,,-6.47500000e-009,-2.91406410e-004
,,,-6.45000000e-009,-3.00000161e-004
,,,-6.42500000e-009,-3.07812661e-004
,,,-6.40000000e-009,-3.17187662e-004
,,,-6.37500000e-009,-3.25781413e-004
,,,-6.35000000e-009,-3.32031413e-004
,,,-6.32500000e-009,-3.33593913e-004
,,,-6.30000000e-009,-3.29687663e-004
,,,-6.27500000e-009,-3.18750162e-004
,,,-6.25000000e-009,-3.00000161e-004
,,,-6.22500000e-009,-2.72656409e-004
,,,-6.20000000e-009,-2.40625157e-004
,,,-6.17500000e-009,-2.06250154e-004
,,,-6.15000000e-009,-1.72656402e-004
,,,-6.12500000e-009,-1.42187650e-004
,,,-6.10000000e-009,-1.18750148e-004
,,,-6.07500000e-009,-1.03906397e-004
,,,-6.05000000e-009,-1.00000147e-004
,,,-6.02500000e-009,-1.07812647e-004
,,,-6.00000000e-009,-1.25781399e-004
,,,-5.97500000e-009,-1.52343900e-004
,,,-5.95000000e-009,-1.83593903e-004
,,,-5.92500000e-009,-2.16406405e-004
,,,-5.90000000e-009,-2.49218907e-004
,,,-5.87500000e-009,-2.77343909e-004
,,,-5.85000000e-009,-3.00000161e-004
,,,-5.82500000e-009,-3.14843912e-004
,,,-5.80000000e-009,-3.21875162e-004
,,,-5.77500000e-009,-3.22656413e-004
,,,-5.75000000e-009,-3.19531412e-004
,,,-5.72500000e-009,-3.12500162e-004
,,,-5.70000000e-009,-3.06250161e-004
,,,-5.67500000e-009,-3.01562661e-004
,,,-5.65000000e-009,-3.00000161e-004
,,,-5.62500000e-009,-3.01562661e-004
,,,-5.60000000e-009,-3.06250161e-004
,,,-5.57500000e-009,-3.12500162e-004
,,,-5.55000000e-009,-3.19531412e-004
,,,-5.52500000e-009,-3.22656413e-004
,,,-5.50000000e-009,-3.21875162e-004
,,,-5.47500000e-009,-3.14843912e-004
,,,-5.45000000e-009,-3.00000161e-004
,,,-5.42500000e-009,-2.76562659e-004
,,,-5.40000000e-009,-2.46875157e-004
,,,-5.37500000e-009,-2.14062655e-004
,,,-5.35000000e-009,-1.79687652e-004
,,,-5.32500000e-009,-1.48437650e-004
,,,-5.30000000e-009,-1.23437648e-004
,,,-5.27500000e-009,-1.06250147e-004
,,,-5.25000000e-009,-1.00000147e-004
,,,-5.22500000e-009,-1.05468897e-004
,,,-5.20000000e-009,-1.21093898e-004
,,,-5.17500000e-009,-1.46093900e-004
,,,-5.15000000e-009,-1.76562652e-004
,,,-5.12500000e-009,-2.10156405e-004
,,,-5.10000000e-009,-2.43750157e-004
,,,-5.07500000e-009,-2.74218909e-004
,,,-5.05000000e-009,-3.00000161e-004
,,,-5.02500000e-009,-3.15625162e-004
,,,-5.00000000e-009,-3.24218913e-004
,,,-4.97500000e-009,-3.26562663e-004
,,,-4.95000000e-009,-3.23437663e-004
,,,-4.92500000e-009,-3.17187662e-004
,,,-4.90000000e-009,-3.10156412e-004
,,,-4.87500000e-009,-3.03906411e-004
,,,-4.85000000e-009,-3.00000161e-004
,,,-4.82500000e-009,-2.97656411e-004
,,,-4.80000000e-009,-2.99218911e-004
,,,-4.77500000e-009,-3.03125161e-004
,,,-4.75000000e-009,-3.07031411e-004
,,,-4.72500000e-009,-3.10937662e-004
,,,-4.70000000e-009,-3.11718912e-004
,,,-4.67500000e-009,-3.08593912e-004
,,,-4.65000000e-009,-3.00000161e-004
,,,-4.62500000e-009,-2.85937660e-004
,,,-4.60000000e-009,-2.66406409e-004
,,,-4.57500000e-009,-2.42187657e-004
,,,-4.55000000e-009,-2.14062655e-004
,,,-4.52500000e-009,-1.84375153e-004
,,,-4.50000000e-009,-1.53906401e-004
,,,-4.47500000e-009,-1.25000149e-004
,,,-4.45000000e-009,-1.00000147e-004
,,,-4.42500000e-009,-8.04688954e-005
,,,-4.40000000e-009,-6.79688945e-005
,,,-4.37500000e-009,-6.09376440e-005
,,,-4.35000000e-009,-6.01563940e-005
,,,-4.32500000e-009,-6.48438943e-005
,,,-4.30000000e-009,-7.42188950e-005
,,,-4.27500000e-009,-8.59376458e-005
,,,-4.25000000e-009,-1.00000147e-004
,,,-4.22500000e-009,-1.12500148e-004
,,,-4.20000000e-009,-1.22656398e-004
,,,-4.17500000e-009,-1.29687649e-004
,,,-4.15000000e-009,-1.32812649e-004
,,,-4.12500000e-009,-1.31250149e-004
,,,-4.10000000e-009,-1.25000149e-004
,,,-4.07500000e-009,-1.14062648e-004
,,,-4.05000000e-009,-1.00000147e-004
,,,-4.02500000e-009,-8.43751457e-005
,,,-4.00000000e-009,-6.87501446e-005
,,,-3.97500000e-009,-5.54688936e-005
,,,-3.95000000e-009,-4.76563931e-005
,,,-3.92500000e-009,-4.60938930e-005
,,,-3.90000000e-009,-5.31251435e-005
,,,-3.87500000e-009,-7.10938947e-005
,,,-3.85000000e-009,-1.00000147e-004
,,,-3.82500000e-009,-1.38281399e-004
,,,-3.80000000e-009,-1.85156403e-004
,,,-3.77500000e-009,-2.38281407e-004
,,,-3.75000000e-009,-2.95312661e-004
,,,-3.72500000e-009,-3.53125165e-004
,,,-3.70000000e-009,-4.08593919e-004
,,,-3.67500000e-009,-4.58593922e-004
,,,-3.65000000e-009,-5.00000175e-004
,,,-3.62500000e-009,-5.25000177e-004
,,,-3.60000000e-009,-5.35937678e-004
,,,-3.57500000e-009,-5.31250177e-004
,,,-3.55000000e-009,-5.11718926e-004
,,,-3.52500000e-009,-4.76562673e-004
,,,-3.50000000e-009,-4.28125170e-004
,,,-3.47500000e-009,-3.67968916e-004
,,,-3.45000000e-009,-3.00000161e-004
,,,-3.42500000e-009,-2.23437656e-004
,,,-3.40000000e-009,-1.46875150e-004
,,,-3.37500000e-009,-7.57813951e-005
,,,-3.35000000e-009,-1.25001406e-005
,,,-3.32500000e-009,3.90623631e-005
,,,-3.30000000e-009,7.57811157e-005
,,,-3.27500000e-009,9.60936171e-005
,,,-3.25000000e-009,9.99998674e-005
,,,-3.22500000e-009,8.82811166e-005
,,,-3.20000000e-009,6.48436149e-005
,,,-3.17500000e-009,3.20311126e-005
,,,-3.15000000e-009,-3.90638997e-006
,,,-3.12500000e-009,-3.90626425e-005
,,,-3.10000000e-009,-6.87501446e-005
,,,-3.07500000e-009,-8.98438961e-005
,,,-3.05000000e-009,-1.00000147e-004
,,,-3.02500000e-009,-9.45313964e-005
,,,-3.00000000e-009,-7.73438952e-005
,,,-2.97500000e-009,-5.00001432e-005
,,,-2.95000000e-009,-1.71876409e-005
,,,-2.92500000e-009,1.87498616e-005
,,,-2.90000000e-009,5.23436140e-005
,,,-2.87500000e-009,8.04686160e-005
,,,-2.85000000e-009,9.99998674e-005
,,,-2.82500000e-009,1.10937368e-004
,,,-2.80000000e-009,1.13281118e-004
,,,-2.77500000e-009,1.09374868e-004
,,,-2.75000000e-009,1.01562367e-004
,,,-2.72500000e-009,9.29686169e-005
,,,-2.70000000e-009,8.82811166e-005
,,,-2.67500000e-009,8.98436167e-005
,,,-2.65000000e-009,9.99998674e-005
,,,-2.62500000e-009,1.17968619e-004
,,,-2.60000000e-009,1.44531121e-004
,,,-2.57500000e-009,1.77343623e-004
,,,-2.55000000e-009,2.13281125e-004
,,,-2.52500000e-009,2.46874878e-004
,,,-2.50000000e-009,2.74999880e-004
,,,-2.47500000e-009,2.93749881e-004
,,,-2.45000000e-009,2.99999882e-004
,,,-2.42500000e-009,2.91406131e-004
,,,-2.40000000e-009,2.71093629e-004
,,,-2.37500000e-009,2.42187377e-004
,,,-2.35000000e-009,2.07812375e-004
,,,-2.32500000e-009,1.72656123e-004
,,,-2.30000000e-009,1.40624870e-004
,,,-2.27500000e-009,1.15624868e-004
,,,-2.25000000e-009,9.99998674e-005
,,,-2.22500000e-009,9.76561172e-005
,,,-2.20000000e-009,1.07031118e-004
,,,-2.17500000e-009,1.28124869e-004
,,,-2.15000000e-009,1.57812371e-004
,,,-2.12500000e-009,1.92968624e-004
,,,-2.10000000e-009,2.31249877e-004
,,,-2.07500000e-009,2.67968629e-004
,,,-2.05000000e-009,2.99999882e-004
,,,-2.02500000e-009,3.23437383e-004
,,,-2.00000000e-009,3.38281134e-004
,,,-1.97500000e-009,3.45312385e-004
,,,-1.95000000e-009,3.44531135e-004
,,,-1.92500000e-009,3.38281134e-004
,,,-1.90000000e-009,3.27343633e-004
,,,-1.87500000e-009,3.14062383e-004
,,,-1.85000000e-009,2.99999882e-004
,,,-1.82500000e-009,2.83593630e-004
,,,-1.80000000e-009,2.70312379e-004
,,,-1.77500000e-009,2.61718629e-004
,,,-1.75000000e-009,2.58593629e-004
,,,-1.72500000e-009,2.60937379e-004
,,,-1.70000000e-009,2.69531129e-004
,,,-1.67500000e-009,2.82812380e-004
,,,-1.65000000e-009,2.99999882e-004
,,,-1.62500000e-009,3.10937382e-004
,,,-1.60000000e-009,3.20312383e-004
,,,-1.57500000e-009,3.27343633e-004
,,,-1.55000000e-009,3.31249884e-004
,,,-1.52500000e-009,3.30468634e-004
,,,-1.50000000e-009,3.25781133e-004
,,,-1.47500000e-009,3.15624883e-004
,,,-1.45000000e-009,2.99999882e-004
,,,-1.42500000e-009,2.67968629e-004
,,,-1.40000000e-009,2.31249877e-004
,,,-1.37500000e-009,1.92968624e-004
,,,-1.35000000e-009,1.57812371e-004
,,,-1.32500000e-009,1.28124869e-004
,,,-1.30000000e-009,1.07812368e-004
,,,-1.27500000e-009,9.84373673e-005
,,,-1.25000000e-009,9.99998674e-005
,,,-1.22500000e-009,9.45311170e-005
,,,-1.20000000e-009,9.45311170e-005
,,,-1.17500000e-009,9.84373673e-005
,,,-1.15000000e-009,1.05468618e-004
,,,-1.12500000e-009,1.10937368e-004
,,,-1.10000000e-009,1.14062368e-004
,,,-1.07500000e-009,1.11718618e-004
,,,-1.05000000e-009,9.99998674e-005
,,,-1.02500000e-009,5.46873642e-005
,,,-1.00000000e-009,-5.46889009e-006
,,,-9.75000000e-010,-7.81251452e-005
,,,-9.50000000e-010,-1.59375151e-004
,,,-9.25000000e-010,-2.45312657e-004
,,,-9.00000000e-010,-3.32812663e-004
,,,-8.75000000e-010,-4.17968919e-004
,,,-8.50000000e-010,-5.00000175e-004
,,,-8.25000000e-010,-5.97656432e-004
,,,-8.00000000e-010,-6.95312689e-004
,,,-7.75000000e-010,-7.92187696e-004
,,,-7.50000000e-010,-8.89062703e-004
,,,-7.25000000e-010,-9.86718960e-004
,,,-7.00000000e-010,-1.08671897e-003
,,,-6.75000000e-010,-1.19062522e-003
,,,-6.50000000e-010,-1.30000023e-003
,,,-6.25000000e-010,-1.43125024e-003
,,,-6.00000000e-010,-1.57421900e-003
,,,-5.75000000e-010,-1.72500026e-003
,,,-5.50000000e-010,-1.88203152e-003
,,,-5.25000000e-010,-2.04062528e-003
,,,-5.00000000e-010,-2.19843780e-003
,,,-4.75000000e-010,-2.35156281e-003
,,,-4.50000000e-010,-2.50000032e-003
,,,-4.25000000e-010,-2.64843783e-003
,,,-4.00000000e-010,-2.79609409e-003
,,,-3.75000000e-010,-2.94296910e-003
,,,-3.50000000e-010,-3.09062536e-003
,,,-3.25000000e-010,-3.23984412e-003
,,,-3.00000000e-010,-3.39062538e-003
,,,-2.75000000e-010,-3.54375039e-003
,,,-2.50000000e-010,-3.70000040e-003
,,,-2.25000000e-010,-3.85000041e-003
,,,-2.00000000e-010,-4.00625042e-003
,,,-1.75000000e-010,-4.16484418e-003
,,,-1.50000000e-010,-4.32421920e-003
,,,-1.25000000e-010,-4.48046921e-003
,,,-1.00000000e-010,-4.63046922e-003
,,,-7.50000000e-011,-4.77109423e-003
,,,-5.00000000e-011,-4.90000049e-003
,,,-2.50000000e-011,-4.99375049e-003
,,,0.00000000e+000,-5.07968800e-003
,,,2.50000000e-011,-5.15703175e-003
,,,5.00000000e-011,-5.22968801e-003
,,,7.50000000e-011,-5.29843801e-003
,,,1.00000000e-010,-5.36562552e-003
,,,1.25000000e-010,-5.43203177e-003
,,,1.50000000e-010,-5.50000053e-003
,,,1.75000000e-010,-5.54140678e-003
,,,2.00000000e-010,-5.59140679e-003
,,,2.25000000e-010,-5.65234429e-003
,,,2.50000000e-010,-5.72421929e-003
,,,2.75000000e-010,-5.80781305e-003
,,,3.00000000e-010,-5.90000056e-003
,,,3.25000000e-010,-5.99843806e-003
,,,3.50000000e-010,-6.10000057e-003
,,,3.75000000e-010,-6.16250058e-003
,,,4.00000000e-010,-6.21953183e-003
,,,4.25000000e-010,-6.26953183e-003
,,,4.50000000e-010,-6.30781309e-003
,,,4.75000000e-010,-6.33281309e-003
,,,5.00000000e-010,-6.34140684e-003
,,,5.25000000e-010,-6.33046934e-003
,,,5.50000000e-010,-6.30000059e-003
,,,5.75000000e-010,-6.21250058e-003
,,,6.00000000e-010,-6.10937557e-003
,,,6.25000000e-010,-5.99765681e-003
,,,6.50000000e-010,-5.88359431e-003
,,,6.75000000e-010,-5.77187555e-003
,,,7.00000000e-010,-5.66875054e-003
,,,7.25000000e-010,-5.57734428e-003
,,,7.50000000e-010,-5.50000053e-003
,,,7.75000000e-010,-5.40625052e-003
,,,8.00000000e-010,-5.32421927e-003
,,,8.25000000e-010,-5.25156301e-003
,,,8.50000000e-010,-5.18515676e-003
,,,8.75000000e-010,-5.12187550e-003
,,,9.00000000e-010,-5.05625050e-003
,,,9.25000000e-010,-4.98359424e-003
,,,9.50000000e-010,-4.90000049e-003
,,,9.75000000e-010,-4.78125048e-003
,,,1.00000000e-009,-4.64687547e-003
,,,1.02500000e-009,-4.49843796e-003
,,,1.05000000e-009,-4.33984420e-003
,,,1.07500000e-009,-4.17578169e-003
,,,1.10000000e-009,-4.01171917e-003
,,,1.12500000e-009,-3.85156291e-003
,,,1.15000000e-009,-3.70000040e-003
,,,1.17500000e-009,-3.54921914e-003
,,,1.20000000e-009,-3.40703163e-003
,,,1.22500000e-009,-3.27343787e-003
,,,1.25000000e-009,-3.14843786e-003
,,,1.27500000e-009,-3.03046910e-003
,,,1.30000000e-009,-2.91718785e-003
,,,1.32500000e-009,-2.80781284e-003
,,,1.35000000e-009,-2.70000033e-003
,,,1.37500000e-009,-2.59296907e-003
,,,1.40000000e-009,-2.48046907e-003
,,,1.42500000e-009,-2.35937531e-003
,,,1.45000000e-009,-2.23203155e-003
,,,1.47500000e-009,-2.10000029e-003
,,,1.50000000e-009,-1.96562528e-003
,,,1.52500000e-009,-1.83125027e-003
,,,1.55000000e-009,-1.70000026e-003
,,,1.57500000e-009,-1.58437525e-003
,,,1.60000000e-009,-1.47109399e-003
,,,1.62500000e-009,-1.36015649e-003
,,,1.65000000e-009,-1.25312523e-003
,,,1.67500000e-009,-1.15234397e-003
,,,1.70000000e-009,-1.05937521e-003
,,,1.72500000e-009,-9.75000209e-004
,,,1.75000000e-009,-9.00000203e-004
,,,1.77500000e-009,-8.49218950e-004
,,,1.80000000e-009,-8.01562696e-004
,,,1.82500000e-009,-7.54687693e-004
,,,1.85000000e-009,-7.07031440e-004
,,,1.87500000e-009,-6.57031436e-004
,,,1.90000000e-009,-6.05468933e-004
,,,1.92500000e-009,-5.53125179e-004
,,,1.95000000e-009,-5.00000175e-004
,,,1.97500000e-009,-4.63281422e-004
,,,2.00000000e-009,-4.25781420e-004
,,,2.02500000e-009,-3.87500167e-004
,,,2.05000000e-009,-3.52343915e-004
,,,2.07500000e-009,-3.22656413e-004
,,,2.10000000e-009,-3.03125161e-004
,,,2.12500000e-009,-2.94531411e-004
,,,2.15000000e-009,-3.00000161e-004
,,,2.17500000e-009,-3.30468913e-004
,,,2.20000000e-009,-3.67968916e-004
,,,2.22500000e-009,-4.07031419e-004
,,,2.25000000e-009,-4.42968921e-004
,,,2.27500000e-009,-4.73437673e-004
,,,2.30000000e-009,-4.94531425e-004
,,,2.32500000e-009,-5.03906425e-004
,,,2.35000000e-009,-5.00000175e-004
,,,2.37500000e-009,-4.92187675e-004
,,,2.40000000e-009,-4.71093923e-004
,,,2.42500000e-009,-4.40625171e-004
,,,2.45000000e-009,-4.03906418e-004
,,,2.47500000e-009,-3.66406416e-004
,,,2.50000000e-009,-3.34375163e-004
,,,2.52500000e-009,-3.10937662e-004
,,,2.55000000e-009,-3.00000161e-004
,,,2.57500000e-009,-3.08593912e-004
,,,2.60000000e-009,-3.29687663e-004
,,,2.62500000e-009,-3.59375165e-004
,,,2.65000000e-009,-3.94531418e-004
,,,2.67500000e-009,-4.30468920e-004
,,,2.70000000e-009,-4.62500172e-004
,,,2.72500000e-009,-4.85937674e-004
,,,2.75000000e-009,-5.00000175e-004
,,,2.77500000e-009,-5.02343925e-004
,,,2.80000000e-009,-4.92187675e-004
,,,2.82500000e-009,-4.70312673e-004
,,,2.85000000e-009,-4.39062671e-004
,,,2.87500000e-009,-4.02343918e-004
,,,2.90000000e-009,-3.63281415e-004
,,,2.92500000e-009,-3.28125163e-004
,,,2.95000000e-009,-3.00000161e-004
,,,2.97500000e-009,-2.82031410e-004
,,,3.00000000e-009,-2.77343909e-004
,,,3.02500000e-009,-2.86718910e-004
,,,3.05000000e-009,-3.09375162e-004
,,,3.07500000e-009,-3.43750164e-004
,,,3.10000000e-009,-3.89062667e-004
,,,3.12500000e-009,-4.42187671e-004
,,,3.15000000e-009,-5.00000175e-004
,,,3.17500000e-009,-5.55468929e-004
,,,3.20000000e-009,-6.07812683e-004
,,,3.22500000e-009,-6.52343936e-004
,,,3.25000000e-009,-6.87500188e-004
,,,3.27500000e-009,-7.10156440e-004
,,,3.30000000e-009,-7.20312691e-004
,,,3.32500000e-009,-7.16406440e-004
,,,3.35000000e-009,-7.00000189e-004
,,,3.37500000e-009,-6.69531437e-004
,,,3.40000000e-009,-6.32812684e-004
,,,3.42500000e-009,-5.93750182e-004
,,,3.45000000e-009,-5.56250179e-004
,,,3.47500000e-009,-5.24218927e-004
,,,3.50000000e-009,-5.03125175e-004
,,,3.52500000e-009,-4.94531425e-004
,,,3.55000000e-009,-5.00000175e-004
,,,3.57500000e-009,-5.18750176e-004
,,,3.60000000e-009,-5.49218929e-004
,,,3.62500000e-009,-5.85937681e-004
,,,3.65000000e-009,-6.25781434e-004
,,,3.67500000e-009,-6.61718937e-004
,,,3.70000000e-009,-6.89062688e-004
,,,3.72500000e-009,-7.02343939e-004
,,,3.75000000e-009,-7.00000189e-004
,,,3.77500000e-009,-6.77343938e-004
,,,3.80000000e-009,-6.37500185e-004
,,,3.82500000e-009,-5.85156431e-004
,,,3.85000000e-009,-5.24218927e-004
,,,3.87500000e-009,-4.60156422e-004
,,,3.90000000e-009,-3.98437668e-004
,,,3.92500000e-009,-3.42968914e-004
,,,3.95000000e-009,-3.00000161e-004
,,,3.97500000e-009,-2.71875159e-004
,,,4.00000000e-009,-2.57812658e-004
,,,4.02500000e-009,-2.56250158e-004
,,,4.05000000e-009,-2.64062658e-004
,,,4.07500000e-009,-2.75781409e-004
,,,4.10000000e-009,-2.88281410e-004
,,,4.12500000e-009,-2.96875161e-004
,,,4.15000000e-009,-3.00000161e-004
,,,4.17500000e-009,-2.96875161e-004
,,,4.20000000e-009,-2.88281410e-004
,,,4.22500000e-009,-2.75781409e-004
,,,4.25000000e-009,-2.64062658e-004
,,,4.27500000e-009,-2.56250158e-004
,,,4.30000000e-009,-2.57812658e-004
,,,4.32500000e-009,-2.71875159e-004
,,,4.35000000e-009,-3.00000161e-004
,,,4.37500000e-009,-3.42968914e-004
,,,4.40000000e-009,-3.98437668e-004
,,,4.42500000e-009,-4.60156422e-004
,,,4.45000000e-009,-5.24218927e-004
,,,4.47500000e-009,-5.85156431e-004
,,,4.50000000e-009,-6.37500185e-004
,,,4.52500000e-009,-6.77343938e-004
,,,4.55000000e-009,-7.00000189e-004
,,,4.57500000e-009,-7.01562689e-004
,,,4.60000000e-009,-6.87500188e-004
,,,4.62500000e-009,-6.59375186e-004
,,,4.65000000e-009,-6.22656434e-004
,,,4.67500000e-009,-5.82812681e-004
,,,4.70000000e-009,-5.46093928e-004
,,,4.72500000e-009,-5.17187676e-004
,,,4.75000000e-009,-5.00000175e-004
,,,4.77500000e-009,-4.95312675e-004
,,,4.80000000e-009,-5.05468925e-004
,,,4.82500000e-009,-5.28125177e-004
,,,4.85000000e-009,-5.60156429e-004
,,,4.87500000e-009,-5.97656432e-004
,,,4.90000000e-009,-6.36718935e-004
,,,4.92500000e-009,-6.71875187e-004
,,,4.95000000e-009,-7.00000189e-004
,,,4.97500000e-009,-7.11718940e-004
,,,5.00000000e-009,-7.10937690e-004
,,,5.02500000e-009,-6.97656439e-004
,,,5.05000000e-009,-6.71875187e-004
,,,5.07500000e-009,-6.36718935e-004
,,,5.10000000e-009,-5.94531432e-004
,,,5.12500000e-009,-5.47656428e-004
,,,5.15000000e-009,-5.00000175e-004
,,,5.17500000e-009,-4.50781422e-004
,,,5.20000000e-009,-4.07031419e-004
,,,5.22500000e-009,-3.70312666e-004
,,,5.25000000e-009,-3.40625164e-004
,,,5.27500000e-009,-3.19531412e-004
,,,5.30000000e-009,-3.06250161e-004
,,,5.32500000e-009,-3.00000161e-004
,,,5.35000000e-009,-3.00000161e-004
,,,5.37500000e-009,-3.03125161e-004
,,,5.40000000e-009,-3.08593912e-004
,,,5.42500000e-009,-3.14062662e-004
,,,5.45000000e-009,-3.19531412e-004
,,,5.47500000e-009,-3.21093912e-004
,,,5.50000000e-009,-3.19531412e-004
,,,5.52500000e-009,-3.12500162e-004
,,,5.55000000e-009,-3.00000161e-004
,,,5.57500000e-009,-2.82031410e-004
,,,5.60000000e-009,-2.59375158e-004
,,,5.62500000e-009,-2.32812656e-004
,,,5.65000000e-009,-2.03906404e-004
,,,5.67500000e-009,-1.74218902e-004
,,,5.70000000e-009,-1.46093900e-004
,,,5.72500000e-009,-1.20312648e-004
,,,5.75000000e-009,-1.00000147e-004
,,,5.77500000e-009,-8.59376458e-005
,,,5.80000000e-009,-7.73438952e-005
,,,5.82500000e-009,-7.42188950e-005
,,,5.85000000e-009,-7.50001450e-005
,,,5.87500000e-009,-7.89063953e-005
