RawData/SinglePhotoelectron/R3_2pt2B_5mV/wave024_Ch2.csv

"Record Length",1000,"Points",-7.72500000e-009,3.79687527e-004
"Sample Interval",2.50000000e-011,s,-7.70000000e-009,4.43750031e-004
"Trigger Point",309,"Samples",-7.67500000e-009,5.05468786e-004
"Trigger Time",2.40200000e-011,s,-7.65000000e-009,5.58593790e-004
"",,,-7.62500000e-009,6.00000042e-004
"Horizontal Offset",-7.72500000e-009,s,-7.60000000e-009,6.20312544e-004
,,,-7.57500000e-009,6.23437544e-004
,,,-7.55000000e-009,6.10937543e-004
,,,-7.52500000e-009,5.84375041e-004
,,,-7.50000000e-009,5.46093789e-004
,,,-7.47500000e-009,5.00000035e-004
,,,-7.45000000e-009,4.50000032e-004
,,,-7.42500000e-009,4.00000028e-004
,,,-7.40000000e-009,3.49218775e-004
,,,-7.37500000e-009,3.04687522e-004
,,,-7.35000000e-009,2.68750019e-004
,,,-7.32500000e-009,2.40625017e-004
,,,-7.30000000e-009,2.21093766e-004
,,,-7.27500000e-009,2.08593765e-004
,,,-7.25000000e-009,2.01562514e-004
,,,-7.22500000e-009,2.00000014e-004
,,,-7.20000000e-009,1.99218764e-004
,,,-7.17500000e-009,2.00781264e-004
,,,-7.15000000e-009,2.02343764e-004
,,,-7.12500000e-009,2.03906264e-004
,,,-7.10000000e-009,2.04687514e-004
,,,-7.07500000e-009,2.03906264e-004
,,,-7.05000000e-009,2.02343764e-004
,,,-7.02500000e-009,2.00000014e-004
,,,-7.00000000e-009,1.97656264e-004
,,,-6.97500000e-009,1.95312514e-004
,,,-6.95000000e-009,1.92968764e-004
,,,-6.92500000e-009,1.92187514e-004
,,,-6.90000000e-009,1.91406264e-004
,,,-6.87500000e-009,1.92968764e-004
,,,-6.85000000e-009,1.95312514e-004
,,,-6.82500000e-009,2.00000014e-004
,,,-6.80000000e-009,2.03906264e-004
,,,-6.77500000e-009,2.07812515e-004
,,,-6.75000000e-009,2.11718765e-004
,,,-6.72500000e-009,2.14843765e-004
,,,-6.70000000e-009,2.15625015e-004
,,,-6.67500000e-009,2.14062515e-004
,,,-6.65000000e-009,2.08593765e-004
,,,-6.62500000e-009,2.00000014e-004
,,,-6.60000000e-009,1.87500013e-004
,,,-6.57500000e-009,1.70312512e-004
,,,-6.55000000e-009,1.48437511e-004
,,,-6.52500000e-009,1.22656259e-004
,,,-6.50000000e-009,9.37500066e-005
,,,-6.47500000e-009,6.25000044e-005
,,,-6.45000000e-009,3.04687522e-005
,,,-6.42500000e-009,0.00000000e+000
,,,-6.40000000e-009,-2.57812518e-005
,,,-6.37500000e-009,-4.60937533e-005
,,,-6.35000000e-009,-6.09375043e-005
,,,-6.32500000e-009,-6.71875048e-005
,,,-6.30000000e-009,-6.40625045e-005
,,,-6.27500000e-009,-5.15625036e-005
,,,-6.25000000e-009,-2.96875021e-005
,,,-6.22500000e-009,0.00000000e+000
,,,-6.20000000e-009,3.75000027e-005
,,,-6.17500000e-009,7.89062556e-005
,,,-6.15000000e-009,1.18750008e-004
,,,-6.12500000e-009,1.55468761e-004
,,,-6.10000000e-009,1.83593763e-004
,,,-6.07500000e-009,2.01562514e-004
,,,-6.05000000e-009,2.07031265e-004
,,,-6.02500000e-009,2.00000014e-004
,,,-6.00000000e-009,1.79687513e-004
,,,-5.97500000e-009,1.50781261e-004
,,,-5.95000000e-009,1.15625008e-004
,,,-5.92500000e-009,7.89062556e-005
,,,-5.90000000e-009,4.53125032e-005
,,,-5.87500000e-009,1.87500013e-005
,,,-5.85000000e-009,3.12500022e-006
,,,-5.82500000e-009,0.00000000e+000
,,,-5.80000000e-009,1.25000009e-005
,,,-5.77500000e-009,3.67187526e-005
,,,-5.75000000e-009,6.95312549e-005
,,,-5.72500000e-009,1.06250008e-004
,,,-5.70000000e-009,1.42187510e-004
,,,-5.67500000e-009,1.71875012e-004
,,,-5.65000000e-009,1.92187514e-004
,,,-5.62500000e-009,2.00000014e-004
,,,-5.60000000e-009,1.93750014e-004
,,,-5.57500000e-009,1.75781262e-004
,,,-5.55000000e-009,1.46875010e-004
,,,-5.52500000e-009,1.11718758e-004
,,,-5.50000000e-009,7.50000053e-005
,,,-5.47500000e-009,4.14062529e-005
,,,-5.45000000e-009,1.48437511e-005
,,,-5.42500000e-009,0.00000000e+000
,,,-5.40000000e-009,0.00000000e+000
,,,-5.37500000e-009,1.40625010e-005
,,,-5.35000000e-009,3.82812527e-005
,,,-5.32500000e-009,7.18750051e-005
,,,-5.30000000e-009,1.07812508e-004
,,,-5.27500000e-009,1.43750010e-004
,,,-5.25000000e-009,1.75781262e-004
,,,-5.22500000e-009,2.00000014e-004
,,,-5.20000000e-009,2.15625015e-004
,,,-5.17500000e-009,2.21875016e-004
,,,-5.15000000e-009,2.21093766e-004
,,,-5.12500000e-009,2.14843765e-004
,,,-5.10000000e-009,2.07031265e-004
,,,-5.07500000e-009,1.99218764e-004
,,,-5.05000000e-009,1.96093764e-004
,,,-5.02500000e-009,2.00000014e-004
,,,-5.00000000e-009,2.12500015e-004
,,,-4.97500000e-009,2.33593767e-004
,,,-4.95000000e-009,2.60937518e-004
,,,-4.92500000e-009,2.92187521e-004
,,,-4.90000000e-009,3.24218773e-004
,,,-4.87500000e-009,3.54687525e-004
,,,-4.85000000e-009,3.80468777e-004
,,,-4.82500000e-009,4.00000028e-004
,,,-4.80000000e-009,4.10156279e-004
,,,-4.77500000e-009,4.14062529e-004
,,,-4.75000000e-009,4.12500029e-004
,,,-4.72500000e-009,4.07031279e-004
,,,-4.70000000e-009,4.00781278e-004
,,,-4.67500000e-009,3.96093778e-004
,,,-4.65000000e-009,3.94531278e-004
,,,-4.62500000e-009,4.00000028e-004
,,,-4.60000000e-009,4.12500029e-004
,,,-4.57500000e-009,4.32031281e-004
,,,-4.55000000e-009,4.57812532e-004
,,,-4.52500000e-009,4.87500035e-004
,,,-4.50000000e-009,5.18750037e-004
,,,-4.47500000e-009,5.50000039e-004
,,,-4.45000000e-009,5.77343791e-004
,,,-4.42500000e-009,6.00000042e-004
,,,-4.40000000e-009,6.13281293e-004
,,,-4.37500000e-009,6.20312544e-004
,,,-4.35000000e-009,6.22656294e-004
,,,-4.32500000e-009,6.20312544e-004
,,,-4.30000000e-009,6.14843794e-004
,,,-4.27500000e-009,6.09375043e-004
,,,-4.25000000e-009,6.03906293e-004
,,,-4.22500000e-009,6.00000042e-004
,,,-4.20000000e-009,5.97656292e-004
,,,-4.17500000e-009,5.97656292e-004
,,,-4.15000000e-009,6.00781293e-004
,,,-4.12500000e-009,6.03906293e-004
,,,-4.10000000e-009,6.07031293e-004
,,,-4.07500000e-009,6.07812543e-004
,,,-4.05000000e-009,6.05468793e-004
,,,-4.02500000e-009,6.00000042e-004
,,,-4.00000000e-009,5.88281292e-004
,,,-3.97500000e-009,5.76562541e-004
,,,-3.95000000e-009,5.64843790e-004
,,,-3.92500000e-009,5.57031289e-004
,,,-3.90000000e-009,5.54687539e-004
,,,-3.87500000e-009,5.60156290e-004
,,,-3.85000000e-009,5.75781291e-004
,,,-3.82500000e-009,6.00000042e-004
,,,-3.80000000e-009,6.31250045e-004
,,,-3.77500000e-009,6.67968797e-004
,,,-3.75000000e-009,7.07031300e-004
,,,-3.72500000e-009,7.43750053e-004
,,,-3.70000000e-009,7.75000055e-004
,,,-3.67500000e-009,7.96093806e-004
,,,-3.65000000e-009,8.04687557e-004
,,,-3.62500000e-009,8.00000057e-004
,,,-3.60000000e-009,7.77343805e-004
,,,-3.57500000e-009,7.45312553e-004
,,,-3.55000000e-009,7.07031300e-004
,,,-3.52500000e-009,6.67968797e-004
,,,-3.50000000e-009,6.32812545e-004
,,,-3.47500000e-009,6.07812543e-004
,,,-3.45000000e-009,5.96093792e-004
,,,-3.42500000e-009,6.00000042e-004
,,,-3.40000000e-009,6.18750044e-004
,,,-3.37500000e-009,6.50000046e-004
,,,-3.35000000e-009,6.89062549e-004
,,,-3.32500000e-009,7.31250052e-004
,,,-3.30000000e-009,7.68750054e-004
,,,-3.27500000e-009,7.95312556e-004
,,,-3.25000000e-009,8.07031307e-004
,,,-3.22500000e-009,8.00000057e-004
,,,-3.20000000e-009,7.71093805e-004
,,,-3.17500000e-009,7.25000051e-004
,,,-3.15000000e-009,6.65625047e-004
,,,-3.12500000e-009,6.00000042e-004
,,,-3.10000000e-009,5.33593788e-004
,,,-3.07500000e-009,4.74218784e-004
,,,-3.05000000e-009,4.28125030e-004
,,,-3.02500000e-009,4.00000028e-004
,,,-3.00000000e-009,3.92187528e-004
,,,-2.97500000e-009,4.03906279e-004
,,,-2.95000000e-009,4.30468780e-004
,,,-2.92500000e-009,4.67968783e-004
,,,-2.90000000e-009,5.10156286e-004
,,,-2.87500000e-009,5.49218789e-004
,,,-2.85000000e-009,5.80468791e-004
,,,-2.82500000e-009,6.00000042e-004
,,,-2.80000000e-009,6.03125043e-004
,,,-2.77500000e-009,5.91406292e-004
,,,-2.75000000e-009,5.66406290e-004
,,,-2.72500000e-009,5.31250038e-004
,,,-2.70000000e-009,4.92187535e-004
,,,-2.67500000e-009,4.53906282e-004
,,,-2.65000000e-009,4.21875030e-004
,,,-2.62500000e-009,4.00000028e-004
,,,-2.60000000e-009,3.92187528e-004
,,,-2.57500000e-009,3.99218778e-004
,,,-2.55000000e-009,4.18750030e-004
,,,-2.52500000e-009,4.48437532e-004
,,,-2.50000000e-009,4.85156284e-004
,,,-2.47500000e-009,5.25000037e-004
,,,-2.45000000e-009,5.64843790e-004
,,,-2.42500000e-009,6.00000042e-004
,,,-2.40000000e-009,6.25000044e-004
,,,-2.37500000e-009,6.41406295e-004
,,,-2.35000000e-009,6.48437546e-004
,,,-2.32500000e-009,6.47656296e-004
,,,-2.30000000e-009,6.39062545e-004
,,,-2.27500000e-009,6.27343794e-004
,,,-2.25000000e-009,6.13281293e-004
,,,-2.22500000e-009,6.00000042e-004
,,,-2.20000000e-009,5.85156291e-004
,,,-2.17500000e-009,5.74218791e-004
,,,-2.15000000e-009,5.67187540e-004
,,,-2.12500000e-009,5.65625040e-004
,,,-2.10000000e-009,5.67968790e-004
,,,-2.07500000e-009,5.75781291e-004
,,,-2.05000000e-009,5.85937541e-004
,,,-2.02500000e-009,6.00000042e-004
,,,-2.00000000e-009,6.06250043e-004
,,,-1.97500000e-009,6.11718793e-004
,,,-1.95000000e-009,6.15625044e-004
,,,-1.92500000e-009,6.17187544e-004
,,,-1.90000000e-009,6.16406294e-004
,,,-1.87500000e-009,6.14062543e-004
,,,-1.85000000e-009,6.07812543e-004
,,,-1.82500000e-009,6.00000042e-004
,,,-1.80000000e-009,5.75781291e-004
,,,-1.77500000e-009,5.48437539e-004
,,,-1.75000000e-009,5.18750037e-004
,,,-1.72500000e-009,4.88281285e-004
,,,-1.70000000e-009,4.60156283e-004
,,,-1.67500000e-009,4.35156281e-004
,,,-1.65000000e-009,4.14843779e-004
,,,-1.62500000e-009,4.00000028e-004
,,,-1.60000000e-009,3.72656276e-004
,,,-1.57500000e-009,3.47656275e-004
,,,-1.55000000e-009,3.22656273e-004
,,,-1.52500000e-009,2.99218771e-004
,,,-1.50000000e-009,2.75781270e-004
,,,-1.47500000e-009,2.51562518e-004
,,,-1.45000000e-009,2.26562516e-004
,,,-1.42500000e-009,2.00000014e-004
,,,-1.40000000e-009,1.52343761e-004
,,,-1.37500000e-009,9.92187570e-005
,,,-1.35000000e-009,4.37500031e-005
,,,-1.32500000e-009,-1.17187508e-005
,,,-1.30000000e-009,-6.64062547e-005
,,,-1.27500000e-009,-1.16406258e-004
,,,-1.25000000e-009,-1.60156261e-004
,,,-1.22500000e-009,-2.00000014e-004
,,,-1.20000000e-009,-2.53125018e-004
,,,-1.17500000e-009,-3.09375022e-004
,,,-1.15000000e-009,-3.70312526e-004
,,,-1.12500000e-009,-4.36718781e-004
,,,-1.10000000e-009,-5.11718786e-004
,,,-1.07500000e-009,-5.96093792e-004
,,,-1.05000000e-009,-6.91406299e-004
,,,-1.02500000e-009,-8.00000057e-004
,,,-1.00000000e-009,-9.33593816e-004
,,,-9.75000000e-010,-1.08203133e-003
,,,-9.50000000e-010,-1.23984384e-003
,,,-9.25000000e-010,-1.40234385e-003
,,,-9.00000000e-010,-1.56484386e-003
,,,-8.75000000e-010,-1.72109387e-003
,,,-8.50000000e-010,-1.86640638e-003
,,,-8.25000000e-010,-2.00000014e-003
,,,-8.00000000e-010,-2.12187515e-003
,,,-7.75000000e-010,-2.23359391e-003
,,,-7.50000000e-010,-2.33593767e-003
,,,-7.25000000e-010,-2.43203142e-003
,,,-7.00000000e-010,-2.52343768e-003
,,,-6.75000000e-010,-2.61328143e-003
,,,-6.50000000e-010,-2.70468769e-003
,,,-6.25000000e-010,-2.80000020e-003
,,,-6.00000000e-010,-2.89843771e-003
,,,-5.75000000e-010,-3.00781271e-003
,,,-5.50000000e-010,-3.12812522e-003
,,,-5.25000000e-010,-3.25781273e-003
,,,-5.00000000e-010,-3.39296899e-003
,,,-4.75000000e-010,-3.53046900e-003
,,,-4.50000000e-010,-3.66718776e-003
,,,-4.25000000e-010,-3.80000027e-003
,,,-4.00000000e-010,-3.91250028e-003
,,,-3.75000000e-010,-4.02109403e-003
,,,-3.50000000e-010,-4.12656279e-003
,,,-3.25000000e-010,-4.22812530e-003
,,,-3.00000000e-010,-4.32656281e-003
,,,-2.75000000e-010,-4.42109406e-003
,,,-2.50000000e-010,-4.51250032e-003
,,,-2.25000000e-010,-4.60000033e-003
,,,-2.00000000e-010,-4.66171908e-003
,,,-1.75000000e-010,-4.72265658e-003
,,,-1.50000000e-010,-4.78125034e-003
,,,-1.25000000e-010,-4.83750034e-003
,,,-1.00000000e-010,-4.88906285e-003
,,,-7.50000000e-011,-4.93437535e-003
,,,-5.00000000e-011,-4.97187535e-003
,,,-2.50000000e-011,-5.00000035e-003
,,,0.00000000e+000,-4.99375035e-003
,,,2.50000000e-011,-4.98359410e-003
,,,5.00000000e-011,-4.97343785e-003
,,,7.50000000e-011,-4.96562535e-003
,,,1.00000000e-010,-4.96328160e-003
,,,1.25000000e-010,-4.96796910e-003
,,,1.50000000e-010,-4.97968785e-003
,,,1.75000000e-010,-5.00000035e-003
,,,2.00000000e-010,-5.00312535e-003
,,,2.25000000e-010,-5.01093785e-003
,,,2.50000000e-010,-5.02265661e-003
,,,2.75000000e-010,-5.03359411e-003
,,,3.00000000e-010,-5.03984411e-003
,,,3.25000000e-010,-5.03906286e-003
,,,3.50000000e-010,-5.02578161e-003
,,,3.75000000e-010,-5.00000035e-003
,,,4.00000000e-010,-4.93515660e-003
,,,4.25000000e-010,-4.85781284e-003
,,,4.50000000e-010,-4.77343784e-003
,,,4.75000000e-010,-4.68593783e-003
,,,5.00000000e-010,-4.60078158e-003
,,,5.25000000e-010,-4.52265657e-003
,,,5.50000000e-010,-4.45468782e-003
,,,5.75000000e-010,-4.40000031e-003
,,,6.00000000e-010,-4.33906281e-003
,,,6.25000000e-010,-4.28828155e-003
,,,6.50000000e-010,-4.24375030e-003
,,,6.75000000e-010,-4.20390655e-003
,,,7.00000000e-010,-4.16328154e-003
,,,7.25000000e-010,-4.11796904e-003
,,,7.50000000e-010,-4.06406279e-003
,,,7.75000000e-010,-4.00000028e-003
,,,8.00000000e-010,-3.91015653e-003
,,,8.25000000e-010,-3.80781277e-003
,,,8.50000000e-010,-3.69609401e-003
,,,8.75000000e-010,-3.58125025e-003
,,,9.00000000e-010,-3.46875025e-003
,,,9.25000000e-010,-3.36484399e-003
,,,9.50000000e-010,-3.27421898e-003
,,,9.75000000e-010,-3.20000023e-003
,,,1.00000000e-009,-3.13671897e-003
,,,1.02500000e-009,-3.08515647e-003
,,,1.05000000e-009,-3.04218772e-003
,,,1.07500000e-009,-3.00390646e-003
,,,1.10000000e-009,-2.96484396e-003
,,,1.12500000e-009,-2.92109396e-003
,,,1.15000000e-009,-2.86718770e-003
,,,1.17500000e-009,-2.80000020e-003
,,,1.20000000e-009,-2.71250019e-003
,,,1.22500000e-009,-2.60546893e-003
,,,1.25000000e-009,-2.48203143e-003
,,,1.27500000e-009,-2.34687517e-003
,,,1.30000000e-009,-2.20468766e-003
,,,1.32500000e-009,-2.06250015e-003
,,,1.35000000e-009,-1.92578139e-003
,,,1.37500000e-009,-1.80000013e-003
,,,1.40000000e-009,-1.69296887e-003
,,,1.42500000e-009,-1.59687511e-003
,,,1.45000000e-009,-1.51250011e-003
,,,1.47500000e-009,-1.43828135e-003
,,,1.50000000e-009,-1.37187510e-003
,,,1.52500000e-009,-1.31093759e-003
,,,1.55000000e-009,-1.25468759e-003
,,,1.57500000e-009,-1.20000008e-003
,,,1.60000000e-009,-1.15234383e-003
,,,1.62500000e-009,-1.10078133e-003
,,,1.65000000e-009,-1.04609382e-003
,,,1.67500000e-009,-9.89843820e-004
,,,1.70000000e-009,-9.34375066e-004
,,,1.72500000e-009,-8.82812562e-004
,,,1.75000000e-009,-8.36718809e-004
,,,1.77500000e-009,-8.00000057e-004
,,,1.80000000e-009,-7.78125055e-004
,,,1.82500000e-009,-7.59375054e-004
,,,1.85000000e-009,-7.41406302e-004
,,,1.87500000e-009,-7.21875051e-004
,,,1.90000000e-009,-7.00000050e-004
,,,1.92500000e-009,-6.72656298e-004
,,,1.95000000e-009,-6.39843795e-004
,,,1.97500000e-009,-6.00000042e-004
,,,2.00000000e-009,-5.59375040e-004
,,,2.02500000e-009,-5.10937536e-004
,,,2.05000000e-009,-4.55468782e-004
,,,2.07500000e-009,-3.96093778e-004
,,,2.10000000e-009,-3.37500024e-004
,,,2.12500000e-009,-2.82812520e-004
,,,2.15000000e-009,-2.35937517e-004
,,,2.17500000e-009,-2.00000014e-004
,,,2.20000000e-009,-1.82031263e-004
,,,2.22500000e-009,-1.72656262e-004
,,,2.25000000e-009,-1.71093762e-004
,,,2.27500000e-009,-1.74218762e-004
,,,2.30000000e-009,-1.80468763e-004
,,,2.32500000e-009,-1.89062513e-004
,,,2.35000000e-009,-1.96093764e-004
,,,2.37500000e-009,-2.00000014e-004
,,,2.40000000e-009,-2.02343764e-004
,,,2.42500000e-009,-1.96875014e-004
,,,2.45000000e-009,-1.82031263e-004
,,,2.47500000e-009,-1.57812511e-004
,,,2.50000000e-009,-1.25781259e-004
,,,2.52500000e-009,-8.67187561e-005
,,,2.55000000e-009,-4.45312532e-005
,,,2.57500000e-009,0.00000000e+000
,,,2.60000000e-009,4.06250029e-005
,,,2.62500000e-009,8.04687557e-005
,,,2.65000000e-009,1.17187508e-004
,,,2.67500000e-009,1.48437511e-004
,,,2.70000000e-009,1.72656262e-004
,,,2.72500000e-009,1.89062513e-004
,,,2.75000000e-009,1.98437514e-004
,,,2.77500000e-009,2.00000014e-004
,,,2.80000000e-009,1.92968764e-004
,,,2.82500000e-009,1.83593763e-004
,,,2.85000000e-009,1.75000012e-004
,,,2.87500000e-009,1.67968762e-004
,,,2.90000000e-009,1.65625012e-004
,,,2.92500000e-009,1.69531262e-004
,,,2.95000000e-009,1.80468763e-004
,,,2.97500000e-009,2.00000014e-004
,,,3.00000000e-009,2.23437516e-004
,,,3.02500000e-009,2.53125018e-004
,,,3.05000000e-009,2.85937520e-004
,,,3.07500000e-009,3.20312523e-004
,,,3.10000000e-009,3.51562525e-004
,,,3.12500000e-009,3.76562527e-004
,,,3.15000000e-009,3.93750028e-004
,,,3.17500000e-009,4.00000028e-004
,,,3.20000000e-009,3.92968778e-004
,,,3.22500000e-009,3.75781277e-004
,,,3.25000000e-009,3.50781275e-004
,,,3.27500000e-009,3.20312523e-004
,,,3.30000000e-009,2.85937520e-004
,,,3.32500000e-009,2.52343768e-004
,,,3.35000000e-009,2.22656266e-004
,,,3.37500000e-009,2.00000014e-004
,,,3.40000000e-009,1.85156263e-004
,,,3.42500000e-009,1.83593763e-004
,,,3.45000000e-009,1.93750014e-004
,,,3.47500000e-009,2.16406265e-004
,,,3.50000000e-009,2.50781268e-004
,,,3.52500000e-009,2.94531271e-004
,,,3.55000000e-009,3.45312524e-004
,,,3.57500000e-009,4.00000028e-004
,,,3.60000000e-009,4.52343782e-004
,,,3.62500000e-009,5.02343786e-004
,,,3.65000000e-009,5.45312539e-004
,,,3.67500000e-009,5.79687541e-004
,,,3.70000000e-009,6.03125043e-004
,,,3.72500000e-009,6.14843794e-004
,,,3.75000000e-009,6.13281293e-004
,,,3.77500000e-009,6.00000042e-004
,,,3.80000000e-009,5.73437541e-004
,,,3.82500000e-009,5.39843788e-004
,,,3.85000000e-009,5.03906286e-004
,,,3.87500000e-009,4.67968783e-004
,,,3.90000000e-009,4.36718781e-004
,,,3.92500000e-009,4.13281279e-004
,,,3.95000000e-009,4.00781278e-004
,,,3.97500000e-009,4.00000028e-004
,,,4.00000000e-009,4.10156279e-004
,,,4.02500000e-009,4.31250031e-004
,,,4.05000000e-009,4.60937533e-004
,,,4.07500000e-009,4.95312535e-004
,,,4.10000000e-009,5.29687537e-004
,,,4.12500000e-009,5.61718790e-004
,,,4.15000000e-009,5.85937541e-004
,,,4.17500000e-009,6.00000042e-004
,,,4.20000000e-009,6.00000042e-004
,,,4.22500000e-009,5.88281292e-004
,,,4.25000000e-009,5.66406290e-004
,,,4.27500000e-009,5.36718788e-004
,,,4.30000000e-009,5.01562536e-004
,,,4.32500000e-009,4.64843783e-004
,,,4.35000000e-009,4.29687530e-004
,,,4.37500000e-009,4.00000028e-004
,,,4.40000000e-009,3.75781277e-004
,,,4.42500000e-009,3.60937526e-004
,,,4.45000000e-009,3.54687525e-004
,,,4.47500000e-009,3.56250025e-004
,,,4.50000000e-009,3.63281276e-004
,,,4.52500000e-009,3.74218776e-004
,,,4.55000000e-009,3.87500027e-004
,,,4.57500000e-009,4.00000028e-004
,,,4.60000000e-009,4.09375029e-004
,,,4.62500000e-009,4.16406279e-004
,,,4.65000000e-009,4.19531280e-004
,,,4.67500000e-009,4.19531280e-004
,,,4.70000000e-009,4.16406279e-004
,,,4.72500000e-009,4.10937529e-004
,,,4.75000000e-009,4.05468779e-004
,,,4.77500000e-009,4.00000028e-004
,,,4.80000000e-009,3.95312528e-004
,,,4.82500000e-009,3.92968778e-004
,,,4.85000000e-009,3.92187528e-004
,,,4.87500000e-009,3.92187528e-004
,,,4.90000000e-009,3.92968778e-004
,,,4.92500000e-009,3.95312528e-004
,,,4.95000000e-009,3.97656278e-004
,,,4.97500000e-009,4.00000028e-004
,,,5.00000000e-009,3.99218778e-004
,,,5.02500000e-009,3.98437528e-004
,,,5.05000000e-009,3.97656278e-004
,,,5.07500000e-009,3.96093778e-004
,,,5.10000000e-009,3.95312528e-004
,,,5.12500000e-009,3.95312528e-004
,,,5.15000000e-009,3.96875028e-004
,,,5.17500000e-009,4.00000028e-004
,,,5.20000000e-009,4.02343778e-004
,,,5.22500000e-009,4.04687529e-004
,,,5.25000000e-009,4.07031279e-004
,,,5.27500000e-009,4.07812529e-004
,,,5.30000000e-009,4.07812529e-004
,,,5.32500000e-009,4.07031279e-004
,,,5.35000000e-009,4.03906279e-004
,,,5.37500000e-009,4.00000028e-004
,,,5.40000000e-009,3.92968778e-004
,,,5.42500000e-009,3.85156277e-004
,,,5.45000000e-009,3.79687527e-004
,,,5.47500000e-009,3.75781277e-004
,,,5.50000000e-009,3.75000027e-004
,,,5.52500000e-009,3.78906277e-004
,,,5.55000000e-009,3.87500027e-004
,,,5.57500000e-009,4.00000028e-004
,,,5.60000000e-009,4.12500029e-004
,,,5.62500000e-009,4.26562530e-004
,,,5.65000000e-009,4.39062531e-004
,,,5.67500000e-009,4.47656282e-004
,,,5.70000000e-009,4.49218782e-004
,,,5.72500000e-009,4.42968781e-004
,,,5.75000000e-009,4.26562530e-004
,,,5.77500000e-009,4.00000028e-004
,,,5.80000000e-009,3.60937526e-004
,,,5.82500000e-009,3.14062522e-004
,,,5.85000000e-009,2.60156268e-004
,,,5.87500000e-009,2.03125014e-004
,,,5.90000000e-009,1.45312510e-004
,,,5.92500000e-009,8.98437564e-005
,,,5.95000000e-009,4.06250029e-005
,,,5.97500000e-009,0.00000000e+000
,,,6.00000000e-009,-2.73437519e-005
,,,6.02500000e-009,-4.37500031e-005
,,,6.05000000e-009,-5.00000035e-005
,,,6.07500000e-009,-4.84375034e-005
