RawData/SinglePhotoelectron/R3_2pt2B_5mV/wave023_Ch2.csv

"Record Length",1000,"Points",-7.72500000e-009,1.64843762e-004
"Sample Interval",2.50000000e-011,s,-7.70000000e-009,2.00000014e-004
"Trigger Point",309,"Samples",-7.67500000e-009,2.28125016e-004
"Trigger Time",2.45750000e-012,s,-7.65000000e-009,2.48437518e-004
"",,,-7.62500000e-009,2.60156268e-004
"Horizontal Offset",-7.72500000e-009,s,-7.60000000e-009,2.62500019e-004
,,,-7.57500000e-009,2.57031268e-004
,,,-7.55000000e-009,2.43750017e-004
,,,-7.52500000e-009,2.24218766e-004
,,,-7.50000000e-009,2.00000014e-004
,,,-7.47500000e-009,1.71875012e-004
,,,-7.45000000e-009,1.42187510e-004
,,,-7.42500000e-009,1.11718758e-004
,,,-7.40000000e-009,8.35937559e-005
,,,-7.37500000e-009,5.70312540e-005
,,,-7.35000000e-009,3.35937524e-005
,,,-7.32500000e-009,1.48437511e-005
,,,-7.30000000e-009,0.00000000e+000
,,,-7.27500000e-009,-8.59375061e-006
,,,-7.25000000e-009,-1.25000009e-005
,,,-7.22500000e-009,-1.40625010e-005
,,,-7.20000000e-009,-1.25000009e-005
,,,-7.17500000e-009,-9.37500066e-006
,,,-7.15000000e-009,-5.46875039e-006
,,,-7.12500000e-009,-2.34375017e-006
,,,-7.10000000e-009,0.00000000e+000
,,,-7.07500000e-009,3.12500022e-006
,,,-7.05000000e-009,4.68750033e-006
,,,-7.02500000e-009,4.68750033e-006
,,,-7.00000000e-009,3.90625028e-006
,,,-6.97500000e-009,2.34375017e-006
,,,-6.95000000e-009,7.81250055e-007
,,,-6.92500000e-009,0.00000000e+000
,,,-6.90000000e-009,0.00000000e+000
,,,-6.87500000e-009,0.00000000e+000
,,,-6.85000000e-009,7.81250055e-007
,,,-6.82500000e-009,2.34375017e-006
,,,-6.80000000e-009,3.90625028e-006
,,,-6.77500000e-009,4.68750033e-006
,,,-6.75000000e-009,4.68750033e-006
,,,-6.72500000e-009,3.12500022e-006
,,,-6.70000000e-009,0.00000000e+000
,,,-6.67500000e-009,-3.12500022e-006
,,,-6.65000000e-009,-7.81250055e-006
,,,-6.62500000e-009,-1.25000009e-005
,,,-6.60000000e-009,-1.56250011e-005
,,,-6.57500000e-009,-1.71875012e-005
,,,-6.55000000e-009,-1.56250011e-005
,,,-6.52500000e-009,-1.01562507e-005
,,,-6.50000000e-009,0.00000000e+000
,,,-6.47500000e-009,1.56250011e-005
,,,-6.45000000e-009,3.59375025e-005
,,,-6.42500000e-009,6.01562543e-005
,,,-6.40000000e-009,8.75000062e-005
,,,-6.37500000e-009,1.16406258e-004
,,,-6.35000000e-009,1.45312510e-004
,,,-6.32500000e-009,1.73437512e-004
,,,-6.30000000e-009,2.00000014e-004
,,,-6.27500000e-009,2.21093766e-004
,,,-6.25000000e-009,2.36718767e-004
,,,-6.22500000e-009,2.46875017e-004
,,,-6.20000000e-009,2.50781268e-004
,,,-6.17500000e-009,2.47656268e-004
,,,-6.15000000e-009,2.37500017e-004
,,,-6.12500000e-009,2.21875016e-004
,,,-6.10000000e-009,2.00000014e-004
,,,-6.07500000e-009,1.71875012e-004
,,,-6.05000000e-009,1.41406260e-004
,,,-6.02500000e-009,1.10156258e-004
,,,-6.00000000e-009,7.96875056e-005
,,,-5.97500000e-009,5.31250038e-005
,,,-5.95000000e-009,2.96875021e-005
,,,-5.92500000e-009,1.17187508e-005
,,,-5.90000000e-009,0.00000000e+000
,,,-5.87500000e-009,-6.25000044e-006
,,,-5.85000000e-009,-7.81250055e-006
,,,-5.82500000e-009,-6.25000044e-006
,,,-5.80000000e-009,-3.12500022e-006
,,,-5.77500000e-009,0.00000000e+000
,,,-5.75000000e-009,2.34375017e-006
,,,-5.72500000e-009,2.34375017e-006
,,,-5.70000000e-009,0.00000000e+000
,,,-5.67500000e-009,-5.46875039e-006
,,,-5.65000000e-009,-1.25000009e-005
,,,-5.62500000e-009,-2.03125014e-005
,,,-5.60000000e-009,-2.65625019e-005
,,,-5.57500000e-009,-2.96875021e-005
,,,-5.55000000e-009,-2.65625019e-005
,,,-5.52500000e-009,-1.71875012e-005
,,,-5.50000000e-009,0.00000000e+000
,,,-5.47500000e-009,2.34375017e-005
,,,-5.45000000e-009,5.31250038e-005
,,,-5.42500000e-009,8.59375061e-005
,,,-5.40000000e-009,1.19531258e-004
,,,-5.37500000e-009,1.50000011e-004
,,,-5.35000000e-009,1.75000012e-004
,,,-5.32500000e-009,1.92187514e-004
,,,-5.30000000e-009,2.00000014e-004
,,,-5.27500000e-009,1.95312514e-004
,,,-5.25000000e-009,1.80468763e-004
,,,-5.22500000e-009,1.57031261e-004
,,,-5.20000000e-009,1.26562509e-004
,,,-5.17500000e-009,9.29687566e-005
,,,-5.15000000e-009,5.85937541e-005
,,,-5.12500000e-009,2.65625019e-005
,,,-5.10000000e-009,0.00000000e+000
,,,-5.07500000e-009,-1.95312514e-005
,,,-5.05000000e-009,-3.20312523e-005
,,,-5.02500000e-009,-3.67187526e-005
,,,-5.00000000e-009,-3.51562525e-005
,,,-4.97500000e-009,-2.96875021e-005
,,,-4.95000000e-009,-2.03125014e-005
,,,-4.92500000e-009,-9.37500066e-006
,,,-4.90000000e-009,0.00000000e+000
,,,-4.87500000e-009,7.81250055e-006
,,,-4.85000000e-009,1.32812509e-005
,,,-4.82500000e-009,1.64062512e-005
,,,-4.80000000e-009,1.56250011e-005
,,,-4.77500000e-009,1.32812509e-005
,,,-4.75000000e-009,9.37500066e-006
,,,-4.72500000e-009,4.68750033e-006
,,,-4.70000000e-009,0.00000000e+000
,,,-4.67500000e-009,-4.68750033e-006
,,,-4.65000000e-009,-7.81250055e-006
,,,-4.62500000e-009,-1.01562507e-005
,,,-4.60000000e-009,-1.09375008e-005
,,,-4.57500000e-009,-9.37500066e-006
,,,-4.55000000e-009,-7.03125050e-006
,,,-4.52500000e-009,-3.90625028e-006
,,,-4.50000000e-009,0.00000000e+000
,,,-4.47500000e-009,2.34375017e-006
,,,-4.45000000e-009,5.46875039e-006
,,,-4.42500000e-009,7.03125050e-006
,,,-4.40000000e-009,7.03125050e-006
,,,-4.37500000e-009,7.03125050e-006
,,,-4.35000000e-009,5.46875039e-006
,,,-4.32500000e-009,2.34375017e-006
,,,-4.30000000e-009,0.00000000e+000
,,,-4.27500000e-009,-3.90625028e-006
,,,-4.25000000e-009,-8.59375061e-006
,,,-4.22500000e-009,-1.25000009e-005
,,,-4.20000000e-009,-1.48437511e-005
,,,-4.17500000e-009,-1.56250011e-005
,,,-4.15000000e-009,-1.32812509e-005
,,,-4.12500000e-009,-7.81250055e-006
,,,-4.10000000e-009,0.00000000e+000
,,,-4.07500000e-009,7.81250055e-006
,,,-4.05000000e-009,1.56250011e-005
,,,-4.02500000e-009,2.26562516e-005
,,,-4.00000000e-009,2.73437519e-005
,,,-3.97500000e-009,2.89062520e-005
,,,-3.95000000e-009,2.50000018e-005
,,,-3.92500000e-009,1.56250011e-005
,,,-3.90000000e-009,0.00000000e+000
,,,-3.87500000e-009,-2.18750015e-005
,,,-3.85000000e-009,-4.84375034e-005
,,,-3.82500000e-009,-7.81250055e-005
,,,-3.80000000e-009,-1.08593758e-004
,,,-3.77500000e-009,-1.37500010e-004
,,,-3.75000000e-009,-1.63281262e-004
,,,-3.72500000e-009,-1.84375013e-004
,,,-3.70000000e-009,-2.00000014e-004
,,,-3.67500000e-009,-2.08593765e-004
,,,-3.65000000e-009,-2.12500015e-004
,,,-3.62500000e-009,-2.10937515e-004
,,,-3.60000000e-009,-2.07031265e-004
,,,-3.57500000e-009,-2.02343764e-004
,,,-3.55000000e-009,-1.97656264e-004
,,,-3.52500000e-009,-1.96875014e-004
,,,-3.50000000e-009,-2.00000014e-004
,,,-3.47500000e-009,-2.07031265e-004
,,,-3.45000000e-009,-2.21875016e-004
,,,-3.42500000e-009,-2.42187517e-004
,,,-3.40000000e-009,-2.67968769e-004
,,,-3.37500000e-009,-2.98437521e-004
,,,-3.35000000e-009,-3.32031274e-004
,,,-3.32500000e-009,-3.66406276e-004
,,,-3.30000000e-009,-4.00000028e-004
,,,-3.27500000e-009,-4.25781280e-004
,,,-3.25000000e-009,-4.46093782e-004
,,,-3.22500000e-009,-4.59375033e-004
,,,-3.20000000e-009,-4.64843783e-004
,,,-3.17500000e-009,-4.60937533e-004
,,,-3.15000000e-009,-4.48437532e-004
,,,-3.12500000e-009,-4.27343780e-004
,,,-3.10000000e-009,-4.00000028e-004
,,,-3.07500000e-009,-3.63281276e-004
,,,-3.05000000e-009,-3.24218773e-004
,,,-3.02500000e-009,-2.86718770e-004
,,,-3.00000000e-009,-2.52343768e-004
,,,-2.97500000e-009,-2.25000016e-004
,,,-2.95000000e-009,-2.06250015e-004
,,,-2.92500000e-009,-1.96875014e-004
,,,-2.90000000e-009,-2.00000014e-004
,,,-2.87500000e-009,-2.10937515e-004
,,,-2.85000000e-009,-2.32031266e-004
,,,-2.82500000e-009,-2.59375018e-004
,,,-2.80000000e-009,-2.92187521e-004
,,,-2.77500000e-009,-3.25000023e-004
,,,-2.75000000e-009,-3.56250025e-004
,,,-2.72500000e-009,-3.82031277e-004
,,,-2.70000000e-009,-4.00000028e-004
,,,-2.67500000e-009,-4.03906279e-004
,,,-2.65000000e-009,-3.96875028e-004
,,,-2.62500000e-009,-3.78906277e-004
,,,-2.60000000e-009,-3.52343775e-004
,,,-2.57500000e-009,-3.18750023e-004
,,,-2.55000000e-009,-2.80468770e-004
,,,-2.52500000e-009,-2.39843767e-004
,,,-2.50000000e-009,-2.00000014e-004
,,,-2.47500000e-009,-1.60156261e-004
,,,-2.45000000e-009,-1.25000009e-004
,,,-2.42500000e-009,-9.37500066e-005
,,,-2.40000000e-009,-6.71875048e-005
,,,-2.37500000e-009,-4.53125032e-005
,,,-2.35000000e-009,-2.65625019e-005
,,,-2.32500000e-009,-1.17187508e-005
,,,-2.30000000e-009,0.00000000e+000
,,,-2.27500000e-009,7.03125050e-006
,,,-2.25000000e-009,1.17187508e-005
,,,-2.22500000e-009,1.56250011e-005
,,,-2.20000000e-009,1.64062512e-005
,,,-2.17500000e-009,1.56250011e-005
,,,-2.15000000e-009,1.25000009e-005
,,,-2.12500000e-009,7.03125050e-006
,,,-2.10000000e-009,0.00000000e+000
,,,-2.07500000e-009,-1.25000009e-005
,,,-2.05000000e-009,-2.50000018e-005
,,,-2.02500000e-009,-3.59375025e-005
,,,-2.00000000e-009,-4.21875030e-005
,,,-1.97500000e-009,-4.29687530e-005
,,,-1.95000000e-009,-3.67187526e-005
,,,-1.92500000e-009,-2.18750015e-005
,,,-1.90000000e-009,0.00000000e+000
,,,-1.87500000e-009,2.03125014e-005
,,,-1.85000000e-009,4.60937533e-005
,,,-1.82500000e-009,7.42187553e-005
,,,-1.80000000e-009,1.03906257e-004
,,,-1.77500000e-009,1.32812509e-004
,,,-1.75000000e-009,1.60156261e-004
,,,-1.72500000e-009,1.82812513e-004
,,,-1.70000000e-009,2.00000014e-004
,,,-1.67500000e-009,1.93750014e-004
,,,-1.65000000e-009,1.78906263e-004
,,,-1.62500000e-009,1.56250011e-004
,,,-1.60000000e-009,1.27343759e-004
,,,-1.57500000e-009,9.53125067e-005
,,,-1.55000000e-009,6.17187544e-005
,,,-1.52500000e-009,2.96875021e-005
,,,-1.50000000e-009,0.00000000e+000
,,,-1.47500000e-009,-4.21875030e-005
,,,-1.45000000e-009,-8.12500058e-005
,,,-1.42500000e-009,-1.15625008e-004
,,,-1.40000000e-009,-1.44531260e-004
,,,-1.37500000e-009,-1.66406262e-004
,,,-1.35000000e-009,-1.82031263e-004
,,,-1.32500000e-009,-1.92187514e-004
,,,-1.30000000e-009,-2.00000014e-004
,,,-1.27500000e-009,-2.25781266e-004
,,,-1.25000000e-009,-2.57031268e-004
,,,-1.22500000e-009,-2.94531271e-004
,,,-1.20000000e-009,-3.39062524e-004
,,,-1.17500000e-009,-3.92187528e-004
,,,-1.15000000e-009,-4.52343782e-004
,,,-1.12500000e-009,-5.21093787e-004
,,,-1.10000000e-009,-6.00000042e-004
,,,-1.07500000e-009,-7.04687550e-004
,,,-1.05000000e-009,-8.21093808e-004
,,,-1.02500000e-009,-9.46093817e-004
,,,-1.00000000e-009,-1.07656258e-003
,,,-9.75000000e-010,-1.21093759e-003
,,,-9.50000000e-010,-1.34453135e-003
,,,-9.25000000e-010,-1.47500010e-003
,,,-9.00000000e-010,-1.60000011e-003
,,,-8.75000000e-010,-1.72734387e-003
,,,-8.50000000e-010,-1.85000013e-003
,,,-8.25000000e-010,-1.96484389e-003
,,,-8.00000000e-010,-2.07109390e-003
,,,-7.75000000e-010,-2.16718765e-003
,,,-7.50000000e-010,-2.25312516e-003
,,,-7.25000000e-010,-2.32968766e-003
,,,-7.00000000e-010,-2.40000017e-003
,,,-6.75000000e-010,-2.46796892e-003
,,,-6.50000000e-010,-2.53984393e-003
,,,-6.25000000e-010,-2.61953144e-003
,,,-6.00000000e-010,-2.70937519e-003
,,,-5.75000000e-010,-2.81093770e-003
,,,-5.50000000e-010,-2.92734396e-003
,,,-5.25000000e-010,-3.05703147e-003
,,,-5.00000000e-010,-3.20000023e-003
,,,-4.75000000e-010,-3.34921899e-003
,,,-4.50000000e-010,-3.50937525e-003
,,,-4.25000000e-010,-3.67500026e-003
,,,-4.00000000e-010,-3.84218777e-003
,,,-3.75000000e-010,-4.00312528e-003
,,,-3.50000000e-010,-4.15312529e-003
,,,-3.25000000e-010,-4.28593780e-003
,,,-3.00000000e-010,-4.40000031e-003
,,,-2.75000000e-010,-4.47578157e-003
,,,-2.50000000e-010,-4.53515657e-003
,,,-2.25000000e-010,-4.58359407e-003
,,,-2.00000000e-010,-4.62500033e-003
,,,-1.75000000e-010,-4.66328158e-003
,,,-1.50000000e-010,-4.70312533e-003
,,,-1.25000000e-010,-4.74765659e-003
,,,-1.00000000e-010,-4.80000034e-003
,,,-7.50000000e-011,-4.83906284e-003
,,,-5.00000000e-011,-4.88828160e-003
,,,-2.50000000e-011,-4.94609410e-003
,,,0.00000000e+000,-5.00859410e-003
,,,2.50000000e-011,-5.07031286e-003
,,,5.00000000e-011,-5.12578161e-003
,,,7.50000000e-011,-5.17031287e-003
,,,1.00000000e-010,-5.20000037e-003
,,,1.25000000e-010,-5.18828162e-003
,,,1.50000000e-010,-5.16406287e-003
,,,1.75000000e-010,-5.13125036e-003
,,,2.00000000e-010,-5.09375036e-003
,,,2.25000000e-010,-5.05781286e-003
,,,2.50000000e-010,-5.02812536e-003
,,,2.75000000e-010,-5.00781285e-003
,,,3.00000000e-010,-5.00000035e-003
,,,3.25000000e-010,-4.98125035e-003
,,,3.50000000e-010,-4.97578160e-003
,,,3.75000000e-010,-4.97968785e-003
,,,4.00000000e-010,-4.99062535e-003
,,,4.25000000e-010,-5.00312535e-003
,,,4.50000000e-010,-5.01250035e-003
,,,4.75000000e-010,-5.01250035e-003
,,,5.00000000e-010,-5.00000035e-003
,,,5.25000000e-010,-4.95078160e-003
,,,5.50000000e-010,-4.88671910e-003
,,,5.75000000e-010,-4.81093784e-003
,,,6.00000000e-010,-4.72656283e-003
,,,6.25000000e-010,-4.63906283e-003
,,,6.50000000e-010,-4.55234407e-003
,,,6.75000000e-010,-4.47187532e-003
,,,7.00000000e-010,-4.40000031e-003
,,,7.25000000e-010,-4.32500031e-003
,,,7.50000000e-010,-4.26015655e-003
,,,7.75000000e-010,-4.20546905e-003
,,,8.00000000e-010,-4.15859404e-003
,,,8.25000000e-010,-4.11796904e-003
,,,8.50000000e-010,-4.08046904e-003
,,,8.75000000e-010,-4.04218779e-003
,,,9.00000000e-010,-4.00000028e-003
,,,9.25000000e-010,-3.93828153e-003
,,,9.50000000e-010,-3.86406277e-003
,,,9.75000000e-010,-3.77656277e-003
,,,1.00000000e-009,-3.67734401e-003
,,,1.02500000e-009,-3.56718775e-003
,,,1.05000000e-009,-3.44921899e-003
,,,1.07500000e-009,-3.32500024e-003
,,,1.10000000e-009,-3.20000023e-003
,,,1.12500000e-009,-3.07109397e-003
,,,1.15000000e-009,-2.94375021e-003
,,,1.17500000e-009,-2.82187520e-003
,,,1.20000000e-009,-2.70937519e-003
,,,1.22500000e-009,-2.60859393e-003
,,,1.25000000e-009,-2.52265643e-003
,,,1.27500000e-009,-2.45234392e-003
,,,1.30000000e-009,-2.40000017e-003
,,,1.32500000e-009,-2.36328142e-003
,,,1.35000000e-009,-2.33671892e-003
,,,1.37500000e-009,-2.31562516e-003
,,,1.40000000e-009,-2.29765641e-003
,,,1.42500000e-009,-2.28046891e-003
,,,1.45000000e-009,-2.25937516e-003
,,,1.47500000e-009,-2.23359391e-003
,,,1.50000000e-009,-2.20000016e-003
,,,1.52500000e-009,-2.16015640e-003
,,,1.55000000e-009,-2.10625015e-003
,,,1.57500000e-009,-2.03906264e-003
,,,1.60000000e-009,-1.96093764e-003
,,,1.62500000e-009,-1.87500013e-003
,,,1.65000000e-009,-1.78359388e-003
,,,1.67500000e-009,-1.69140637e-003
,,,1.70000000e-009,-1.60000011e-003
,,,1.72500000e-009,-1.51718761e-003
,,,1.75000000e-009,-1.43593760e-003
,,,1.77500000e-009,-1.35781260e-003
,,,1.80000000e-009,-1.28125009e-003
,,,1.82500000e-009,-1.20703134e-003
,,,1.85000000e-009,-1.13515633e-003
,,,1.87500000e-009,-1.06640633e-003
,,,1.90000000e-009,-1.00000007e-003
,,,1.92500000e-009,-9.45312567e-004
,,,1.95000000e-009,-8.90625063e-004
,,,1.97500000e-009,-8.35937559e-004
,,,2.00000000e-009,-7.81250055e-004
,,,2.02500000e-009,-7.28125052e-004
,,,2.05000000e-009,-6.79687548e-004
,,,2.07500000e-009,-6.35937545e-004
,,,2.10000000e-009,-6.00000042e-004
,,,2.12500000e-009,-5.82031291e-004
,,,2.15000000e-009,-5.69531290e-004
,,,2.17500000e-009,-5.63281290e-004
,,,2.20000000e-009,-5.62500040e-004
,,,2.22500000e-009,-5.66406290e-004
,,,2.25000000e-009,-5.74218791e-004
,,,2.27500000e-009,-5.85937541e-004
,,,2.30000000e-009,-6.00000042e-004
,,,2.32500000e-009,-6.20312544e-004
,,,2.35000000e-009,-6.36718795e-004
,,,2.37500000e-009,-6.48437546e-004
,,,2.40000000e-009,-6.53906296e-004
,,,2.42500000e-009,-6.50781296e-004
,,,2.45000000e-009,-6.41406295e-004
,,,2.47500000e-009,-6.23437544e-004
,,,2.50000000e-009,-6.00000042e-004
,,,2.52500000e-009,-5.75000041e-004
,,,2.55000000e-009,-5.44531289e-004
,,,2.57500000e-009,-5.11718786e-004
,,,2.60000000e-009,-4.78125034e-004
,,,2.62500000e-009,-4.47656282e-004
,,,2.65000000e-009,-4.23437530e-004
,,,2.67500000e-009,-4.06250029e-004
,,,2.70000000e-009,-4.00000028e-004
,,,2.72500000e-009,-4.06250029e-004
,,,2.75000000e-009,-4.21093780e-004
,,,2.77500000e-009,-4.43750031e-004
,,,2.80000000e-009,-4.71093783e-004
,,,2.82500000e-009,-5.03125036e-004
,,,2.85000000e-009,-5.36718788e-004
,,,2.87500000e-009,-5.69531290e-004
,,,2.90000000e-009,-6.00000042e-004
,,,2.92500000e-009,-6.23437544e-004
,,,2.95000000e-009,-6.40625045e-004
,,,2.97500000e-009,-6.50000046e-004
,,,3.00000000e-009,-6.51562546e-004
,,,3.02500000e-009,-6.46093796e-004
,,,3.05000000e-009,-6.35156295e-004
,,,3.07500000e-009,-6.19531294e-004
,,,3.10000000e-009,-6.00000042e-004
,,,3.12500000e-009,-5.74218791e-004
,,,3.15000000e-009,-5.46875039e-004
,,,3.17500000e-009,-5.18750037e-004
,,,3.20000000e-009,-4.91406285e-004
,,,3.22500000e-009,-4.66406283e-004
,,,3.25000000e-009,-4.42187531e-004
,,,3.27500000e-009,-4.20312530e-004
,,,3.30000000e-009,-4.00000028e-004
,,,3.32500000e-009,-3.78125027e-004
,,,3.35000000e-009,-3.57031275e-004
,,,3.37500000e-009,-3.34375024e-004
,,,3.40000000e-009,-3.11718772e-004
,,,3.42500000e-009,-2.86718770e-004
,,,3.45000000e-009,-2.59375018e-004
,,,3.47500000e-009,-2.30468766e-004
,,,3.50000000e-009,-2.00000014e-004
,,,3.52500000e-009,-1.67187512e-004
,,,3.55000000e-009,-1.34375010e-004
,,,3.57500000e-009,-1.02343757e-004
,,,3.60000000e-009,-7.26562551e-005
,,,3.62500000e-009,-4.60937533e-005
,,,3.65000000e-009,-2.42187517e-005
,,,3.67500000e-009,-8.59375061e-006
,,,3.70000000e-009,0.00000000e+000
,,,3.72500000e-009,1.56250011e-006
,,,3.75000000e-009,0.00000000e+000
,,,3.77500000e-009,-5.46875039e-006
,,,3.80000000e-009,-1.09375008e-005
,,,3.82500000e-009,-1.48437511e-005
,,,3.85000000e-009,-1.56250011e-005
,,,3.87500000e-009,-1.09375008e-005
,,,3.90000000e-009,0.00000000e+000
,,,3.92500000e-009,1.40625010e-005
,,,3.95000000e-009,3.43750024e-005
,,,3.97500000e-009,6.01562543e-005
,,,4.00000000e-009,8.90625063e-005
,,,4.02500000e-009,1.20312509e-004
,,,4.05000000e-009,1.50000011e-004
,,,4.07500000e-009,1.77343763e-004
,,,4.10000000e-009,2.00000014e-004
,,,4.12500000e-009,2.10937515e-004
,,,4.15000000e-009,2.17187515e-004
,,,4.17500000e-009,2.18750015e-004
,,,4.20000000e-009,2.16406265e-004
,,,4.22500000e-009,2.12500015e-004
,,,4.25000000e-009,2.07031265e-004
,,,4.27500000e-009,2.02343764e-004
,,,4.30000000e-009,2.00000014e-004
,,,4.32500000e-009,1.94531264e-004
,,,4.35000000e-009,1.92968764e-004
,,,4.37500000e-009,1.93750014e-004
,,,4.40000000e-009,1.96093764e-004
,,,4.42500000e-009,1.99218764e-004
,,,4.45000000e-009,2.02343764e-004
,,,4.47500000e-009,2.02343764e-004
,,,4.50000000e-009,2.00000014e-004
,,,4.52500000e-009,1.89062513e-004
,,,4.55000000e-009,1.72656262e-004
,,,4.57500000e-009,1.52343761e-004
,,,4.60000000e-009,1.27343759e-004
,,,4.62500000e-009,9.92187570e-005
,,,4.65000000e-009,6.71875048e-005
,,,4.67500000e-009,3.43750024e-005
,,,4.70000000e-009,0.00000000e+000
,,,4.72500000e-009,-3.35937524e-005
,,,4.75000000e-009,-6.64062547e-005
,,,4.77500000e-009,-9.60937568e-005
,,,4.80000000e-009,-1.23437509e-004
,,,4.82500000e-009,-1.47656260e-004
,,,4.85000000e-009,-1.68750012e-004
,,,4.87500000e-009,-1.85937513e-004
,,,4.90000000e-009,-2.00000014e-004
,,,4.92500000e-009,-2.08593765e-004
,,,4.95000000e-009,-2.13281265e-004
,,,4.97500000e-009,-2.15625015e-004
,,,5.00000000e-009,-2.15625015e-004
,,,5.02500000e-009,-2.13281265e-004
,,,5.05000000e-009,-2.09375015e-004
,,,5.07500000e-009,-2.04687514e-004
,,,5.10000000e-009,-2.00000014e-004
,,,5.12500000e-009,-1.92187514e-004
,,,5.15000000e-009,-1.85937513e-004
,,,5.17500000e-009,-1.81250013e-004
,,,5.20000000e-009,-1.79687513e-004
,,,5.22500000e-009,-1.80468763e-004
,,,5.25000000e-009,-1.84375013e-004
,,,5.27500000e-009,-1.91406264e-004
,,,5.30000000e-009,-2.00000014e-004
,,,5.32500000e-009,-2.06250015e-004
,,,5.35000000e-009,-2.14062515e-004
,,,5.37500000e-009,-2.20312516e-004
,,,5.40000000e-009,-2.24218766e-004
,,,5.42500000e-009,-2.25000016e-004
,,,5.45000000e-009,-2.21875016e-004
,,,5.47500000e-009,-2.13281265e-004
,,,5.50000000e-009,-2.00000014e-004
,,,5.52500000e-009,-1.78906263e-004
,,,5.55000000e-009,-1.54687511e-004
,,,5.57500000e-009,-1.28125009e-004
,,,5.60000000e-009,-9.92187570e-005
,,,5.62500000e-009,-7.10937550e-005
,,,5.65000000e-009,-4.45312532e-005
,,,5.67500000e-009,-2.03125014e-005
,,,5.70000000e-009,0.00000000e+000
,,,5.72500000e-009,1.25000009e-005
,,,5.75000000e-009,2.03125014e-005
,,,5.77500000e-009,2.26562516e-005
,,,5.80000000e-009,2.10937515e-005
,,,5.82500000e-009,1.64062512e-005
,,,5.85000000e-009,1.09375008e-005
,,,5.87500000e-009,4.68750033e-006
,,,5.90000000e-009,0.00000000e+000
,,,5.92500000e-009,-5.46875039e-006
