RawData/SinglePhotoelectron/R3_2pt2B_5mV/wave007_Ch2.csv

"Record Length",1000,"Points",-7.72500000e-009,-5.85937541e-005
"Sample Interval",2.50000000e-011,s,-7.70000000e-009,-5.78125041e-005
"Trigger Point",309,"Samples",-7.67500000e-009,-4.84375034e-005
"Trigger Time",2.40200000e-011,s,-7.65000000e-009,-2.89062520e-005
"",,,-7.62500000e-009,0.00000000e+000
"Horizontal Offset",-7.72500000e-009,s,-7.60000000e-009,3.51562525e-005
,,,-7.57500000e-009,7.42187553e-005
,,,-7.55000000e-009,1.14843758e-004
,,,-7.52500000e-009,1.51562511e-004
,,,-7.50000000e-009,1.81250013e-004
,,,-7.47500000e-009,2.00781264e-004
,,,-7.45000000e-009,2.07031265e-004
,,,-7.42500000e-009,2.00000014e-004
,,,-7.40000000e-009,1.75781262e-004
,,,-7.37500000e-009,1.42187510e-004
,,,-7.35000000e-009,1.03906257e-004
,,,-7.32500000e-009,6.48437546e-005
,,,-7.30000000e-009,3.04687522e-005
,,,-7.27500000e-009,6.25000044e-006
,,,-7.25000000e-009,-3.90625028e-006
,,,-7.22500000e-009,0.00000000e+000
,,,-7.20000000e-009,1.71875012e-005
,,,-7.17500000e-009,4.76562534e-005
,,,-7.15000000e-009,8.67187561e-005
,,,-7.12500000e-009,1.27343759e-004
,,,-7.10000000e-009,1.64843762e-004
,,,-7.07500000e-009,1.92968764e-004
,,,-7.05000000e-009,2.05468765e-004
,,,-7.02500000e-009,2.00000014e-004
,,,-7.00000000e-009,1.71875012e-004
,,,-6.97500000e-009,1.27343759e-004
,,,-6.95000000e-009,6.95312549e-005
,,,-6.92500000e-009,3.90625028e-006
,,,-6.90000000e-009,-6.09375043e-005
,,,-6.87500000e-009,-1.21093759e-004
,,,-6.85000000e-009,-1.68750012e-004
,,,-6.82500000e-009,-2.00000014e-004
,,,-6.80000000e-009,-2.10156265e-004
,,,-6.77500000e-009,-2.02343764e-004
,,,-6.75000000e-009,-1.78906263e-004
,,,-6.72500000e-009,-1.42968760e-004
,,,-6.70000000e-009,-1.01562507e-004
,,,-6.67500000e-009,-6.01562543e-005
,,,-6.65000000e-009,-2.50000018e-005
,,,-6.62500000e-009,0.00000000e+000
,,,-6.60000000e-009,1.01562507e-005
,,,-6.57500000e-009,4.68750033e-006
,,,-6.55000000e-009,-1.32812509e-005
,,,-6.52500000e-009,-4.37500031e-005
,,,-6.50000000e-009,-8.20312558e-005
,,,-6.47500000e-009,-1.23437509e-004
,,,-6.45000000e-009,-1.64062512e-004
,,,-6.42500000e-009,-2.00000014e-004
,,,-6.40000000e-009,-2.24218766e-004
,,,-6.37500000e-009,-2.39843767e-004
,,,-6.35000000e-009,-2.46093767e-004
,,,-6.32500000e-009,-2.43750017e-004
,,,-6.30000000e-009,-2.35937517e-004
,,,-6.27500000e-009,-2.24218766e-004
,,,-6.25000000e-009,-2.11718765e-004
,,,-6.22500000e-009,-2.00000014e-004
,,,-6.20000000e-009,-1.89062513e-004
,,,-6.17500000e-009,-1.82031263e-004
,,,-6.15000000e-009,-1.79687513e-004
,,,-6.12500000e-009,-1.80468763e-004
,,,-6.10000000e-009,-1.84375013e-004
,,,-6.07500000e-009,-1.89843763e-004
,,,-6.05000000e-009,-1.95312514e-004
,,,-6.02500000e-009,-2.00000014e-004
,,,-6.00000000e-009,-2.00000014e-004
,,,-5.97500000e-009,-1.99218764e-004
,,,-5.95000000e-009,-1.97656264e-004
,,,-5.92500000e-009,-1.95312514e-004
,,,-5.90000000e-009,-1.93750014e-004
,,,-5.87500000e-009,-1.93750014e-004
,,,-5.85000000e-009,-1.95312514e-004
,,,-5.82500000e-009,-2.00000014e-004
,,,-5.80000000e-009,-2.04687514e-004
,,,-5.77500000e-009,-2.10156265e-004
,,,-5.75000000e-009,-2.15625015e-004
,,,-5.72500000e-009,-2.20312516e-004
,,,-5.70000000e-009,-2.21875016e-004
,,,-5.67500000e-009,-2.19531266e-004
,,,-5.65000000e-009,-2.12500015e-004
,,,-5.62500000e-009,-2.00000014e-004
,,,-5.60000000e-009,-1.81250013e-004
,,,-5.57500000e-009,-1.57812511e-004
,,,-5.55000000e-009,-1.31250009e-004
,,,-5.52500000e-009,-1.03125007e-004
,,,-5.50000000e-009,-7.42187553e-005
,,,-5.47500000e-009,-4.60937533e-005
,,,-5.45000000e-009,-2.10937515e-005
,,,-5.42500000e-009,0.00000000e+000
,,,-5.40000000e-009,1.40625010e-005
,,,-5.37500000e-009,2.42187517e-005
,,,-5.35000000e-009,2.81250020e-005
,,,-5.32500000e-009,2.73437519e-005
,,,-5.30000000e-009,2.34375017e-005
,,,-5.27500000e-009,1.64062512e-005
,,,-5.25000000e-009,8.59375061e-006
,,,-5.22500000e-009,0.00000000e+000
,,,-5.20000000e-009,-8.59375061e-006
,,,-5.17500000e-009,-1.48437511e-005
,,,-5.15000000e-009,-1.95312514e-005
,,,-5.12500000e-009,-2.03125014e-005
,,,-5.10000000e-009,-1.87500013e-005
,,,-5.07500000e-009,-1.40625010e-005
,,,-5.05000000e-009,-7.81250055e-006
,,,-5.02500000e-009,0.00000000e+000
,,,-5.00000000e-009,6.25000044e-006
,,,-4.97500000e-009,1.25000009e-005
,,,-4.95000000e-009,1.71875012e-005
,,,-4.92500000e-009,2.03125014e-005
,,,-4.90000000e-009,2.03125014e-005
,,,-4.87500000e-009,1.71875012e-005
,,,-4.85000000e-009,1.01562507e-005
,,,-4.82500000e-009,0.00000000e+000
,,,-4.80000000e-009,-1.56250011e-005
,,,-4.77500000e-009,-3.51562525e-005
,,,-4.75000000e-009,-5.78125041e-005
,,,-4.72500000e-009,-8.35937559e-005
,,,-4.70000000e-009,-1.11718758e-004
,,,-4.67500000e-009,-1.40625010e-004
,,,-4.65000000e-009,-1.71093762e-004
,,,-4.62500000e-009,-2.00000014e-004
,,,-4.60000000e-009,-2.25781266e-004
,,,-4.57500000e-009,-2.46093767e-004
,,,-4.55000000e-009,-2.60937518e-004
,,,-4.52500000e-009,-2.67187519e-004
,,,-4.50000000e-009,-2.64062519e-004
,,,-4.47500000e-009,-2.51562518e-004
,,,-4.45000000e-009,-2.29687516e-004
,,,-4.42500000e-009,-2.00000014e-004
,,,-4.40000000e-009,-1.60156261e-004
,,,-4.37500000e-009,-1.18750008e-004
,,,-4.35000000e-009,-7.73437555e-005
,,,-4.32500000e-009,-4.06250029e-005
,,,-4.30000000e-009,-1.25000009e-005
,,,-4.27500000e-009,4.68750033e-006
,,,-4.25000000e-009,8.59375061e-006
,,,-4.22500000e-009,0.00000000e+000
,,,-4.20000000e-009,-2.10937515e-005
,,,-4.17500000e-009,-5.31250038e-005
,,,-4.15000000e-009,-8.98437564e-005
,,,-4.12500000e-009,-1.28125009e-004
,,,-4.10000000e-009,-1.61718761e-004
,,,-4.07500000e-009,-1.86718763e-004
,,,-4.05000000e-009,-2.00000014e-004
,,,-4.02500000e-009,-2.00000014e-004
,,,-4.00000000e-009,-1.85156263e-004
,,,-3.97500000e-009,-1.58593761e-004
,,,-3.95000000e-009,-1.24218759e-004
,,,-3.92500000e-009,-8.67187561e-005
,,,-3.90000000e-009,-5.07812536e-005
,,,-3.87500000e-009,-2.18750015e-005
,,,-3.85000000e-009,-3.90625028e-006
,,,-3.82500000e-009,0.00000000e+000
,,,-3.80000000e-009,-1.09375008e-005
,,,-3.77500000e-009,-3.51562525e-005
,,,-3.75000000e-009,-6.87500049e-005
,,,-3.72500000e-009,-1.07031258e-004
,,,-3.70000000e-009,-1.45312510e-004
,,,-3.67500000e-009,-1.76562512e-004
,,,-3.65000000e-009,-1.96093764e-004
,,,-3.62500000e-009,-2.00000014e-004
,,,-3.60000000e-009,-1.85937513e-004
,,,-3.57500000e-009,-1.53906261e-004
,,,-3.55000000e-009,-1.06250008e-004
,,,-3.52500000e-009,-4.76562534e-005
,,,-3.50000000e-009,1.71875012e-005
,,,-3.47500000e-009,8.43750060e-005
,,,-3.45000000e-009,1.46875010e-004
,,,-3.42500000e-009,2.00000014e-004
,,,-3.40000000e-009,2.35156267e-004
,,,-3.37500000e-009,2.52343768e-004
,,,-3.35000000e-009,2.50781268e-004
,,,-3.32500000e-009,2.30468766e-004
,,,-3.30000000e-009,1.92187514e-004
,,,-3.27500000e-009,1.39062510e-004
,,,-3.25000000e-009,7.34375052e-005
,,,-3.22500000e-009,0.00000000e+000
,,,-3.20000000e-009,-7.65625054e-005
,,,-3.17500000e-009,-1.52343761e-004
,,,-3.15000000e-009,-2.21875016e-004
,,,-3.12500000e-009,-2.83593770e-004
,,,-3.10000000e-009,-3.32812524e-004
,,,-3.07500000e-009,-3.69531276e-004
,,,-3.05000000e-009,-3.91406278e-004
,,,-3.02500000e-009,-4.00000028e-004
,,,-3.00000000e-009,-3.91406278e-004
,,,-2.97500000e-009,-3.71875026e-004
,,,-2.95000000e-009,-3.43750024e-004
,,,-2.92500000e-009,-3.11718772e-004
,,,-2.90000000e-009,-2.77343770e-004
,,,-2.87500000e-009,-2.46093767e-004
,,,-2.85000000e-009,-2.19531266e-004
,,,-2.82500000e-009,-2.00000014e-004
,,,-2.80000000e-009,-1.85937513e-004
,,,-2.77500000e-009,-1.80468763e-004
,,,-2.75000000e-009,-1.81250013e-004
,,,-2.72500000e-009,-1.86718763e-004
,,,-2.70000000e-009,-1.93750014e-004
,,,-2.67500000e-009,-2.00000014e-004
,,,-2.65000000e-009,-2.02343764e-004
,,,-2.62500000e-009,-2.00000014e-004
,,,-2.60000000e-009,-1.89843763e-004
,,,-2.57500000e-009,-1.72656262e-004
,,,-2.55000000e-009,-1.48437511e-004
,,,-2.52500000e-009,-1.20312509e-004
,,,-2.50000000e-009,-8.82812562e-005
,,,-2.47500000e-009,-5.62500040e-005
,,,-2.45000000e-009,-2.57812518e-005
,,,-2.42500000e-009,0.00000000e+000
,,,-2.40000000e-009,1.95312514e-005
,,,-2.37500000e-009,3.12500022e-005
,,,-2.35000000e-009,3.67187526e-005
,,,-2.32500000e-009,3.51562525e-005
,,,-2.30000000e-009,2.96875021e-005
,,,-2.27500000e-009,2.03125014e-005
,,,-2.25000000e-009,9.37500066e-006
,,,-2.22500000e-009,0.00000000e+000
,,,-2.20000000e-009,-1.09375008e-005
,,,-2.17500000e-009,-1.95312514e-005
,,,-2.15000000e-009,-2.50000018e-005
,,,-2.12500000e-009,-2.65625019e-005
,,,-2.10000000e-009,-2.42187517e-005
,,,-2.07500000e-009,-1.79687513e-005
,,,-2.05000000e-009,-1.01562507e-005
,,,-2.02500000e-009,0.00000000e+000
,,,-2.00000000e-009,3.12500022e-006
,,,-1.97500000e-009,6.25000044e-006
,,,-1.95000000e-009,8.59375061e-006
,,,-1.92500000e-009,9.37500066e-006
,,,-1.90000000e-009,9.37500066e-006
,,,-1.87500000e-009,7.81250055e-006
,,,-1.85000000e-009,4.68750033e-006
,,,-1.82500000e-009,0.00000000e+000
,,,-1.80000000e-009,-1.71875012e-005
,,,-1.77500000e-009,-3.82812527e-005
,,,-1.75000000e-009,-6.25000044e-005
,,,-1.72500000e-009,-8.82812562e-005
,,,-1.70000000e-009,-1.16406258e-004
,,,-1.67500000e-009,-1.44531260e-004
,,,-1.65000000e-009,-1.72656262e-004
,,,-1.62500000e-009,-2.00000014e-004
,,,-1.60000000e-009,-2.37500017e-004
,,,-1.57500000e-009,-2.75000019e-004
,,,-1.55000000e-009,-3.09375022e-004
,,,-1.52500000e-009,-3.39843774e-004
,,,-1.50000000e-009,-3.64843776e-004
,,,-1.47500000e-009,-3.82812527e-004
,,,-1.45000000e-009,-3.94531278e-004
,,,-1.42500000e-009,-4.00000028e-004
,,,-1.40000000e-009,-4.14843779e-004
,,,-1.37500000e-009,-4.30468780e-004
,,,-1.35000000e-009,-4.47656282e-004
,,,-1.32500000e-009,-4.67968783e-004
,,,-1.30000000e-009,-4.92968785e-004
,,,-1.27500000e-009,-5.21875037e-004
,,,-1.25000000e-009,-5.57812539e-004
,,,-1.22500000e-009,-6.00000042e-004
,,,-1.20000000e-009,-6.63281297e-004
,,,-1.17500000e-009,-7.35937552e-004
,,,-1.15000000e-009,-8.14843808e-004
,,,-1.12500000e-009,-8.97656314e-004
,,,-1.10000000e-009,-9.79687569e-004
,,,-1.07500000e-009,-1.05859382e-003
,,,-1.05000000e-009,-1.13203133e-003
,,,-1.02500000e-009,-1.20000008e-003
,,,-1.00000000e-009,-1.27421884e-003
,,,-9.75000000e-010,-1.34687510e-003
,,,-9.50000000e-010,-1.41875010e-003
,,,-9.25000000e-010,-1.48984386e-003
,,,-9.00000000e-010,-1.56171886e-003
,,,-8.75000000e-010,-1.63671887e-003
,,,-8.50000000e-010,-1.71484387e-003
,,,-8.25000000e-010,-1.80000013e-003
,,,-8.00000000e-010,-1.90000013e-003
,,,-7.75000000e-010,-2.01171889e-003
,,,-7.50000000e-010,-2.13359390e-003
,,,-7.25000000e-010,-2.26328141e-003
,,,-7.00000000e-010,-2.39765642e-003
,,,-6.75000000e-010,-2.53359393e-003
,,,-6.50000000e-010,-2.66875019e-003
,,,-6.25000000e-010,-2.80000020e-003
,,,-6.00000000e-010,-2.92578146e-003
,,,-5.75000000e-010,-3.04687522e-003
,,,-5.50000000e-010,-3.16171897e-003
,,,-5.25000000e-010,-3.26796898e-003
,,,-5.00000000e-010,-3.36484399e-003
,,,-4.75000000e-010,-3.45234399e-003
,,,-4.50000000e-010,-3.53046900e-003
,,,-4.25000000e-010,-3.60000025e-003
,,,-4.00000000e-010,-3.65781276e-003
,,,-3.75000000e-010,-3.71640651e-003
,,,-3.50000000e-010,-3.77812527e-003
,,,-3.25000000e-010,-3.84609402e-003
,,,-3.00000000e-010,-3.92187528e-003
,,,-2.75000000e-010,-4.00625028e-003
,,,-2.50000000e-010,-4.09843779e-003
,,,-2.25000000e-010,-4.20000030e-003
,,,-2.00000000e-010,-4.29687530e-003
,,,-1.75000000e-010,-4.40156281e-003
,,,-1.50000000e-010,-4.51171907e-003
,,,-1.25000000e-010,-4.62343783e-003
,,,-1.00000000e-010,-4.73203158e-003
,,,-7.50000000e-011,-4.83281284e-003
,,,-5.00000000e-011,-4.92343785e-003
,,,-2.50000000e-011,-5.00000035e-003
,,,0.00000000e+000,-5.04296911e-003
,,,2.50000000e-011,-5.07500036e-003
,,,5.00000000e-011,-5.09843786e-003
,,,7.50000000e-011,-5.11718786e-003
,,,1.00000000e-010,-5.13359411e-003
,,,1.25000000e-010,-5.15156286e-003
,,,1.50000000e-010,-5.17343787e-003
,,,1.75000000e-010,-5.20000037e-003
,,,2.00000000e-010,-5.21015662e-003
,,,2.25000000e-010,-5.22890662e-003
,,,2.50000000e-010,-5.25468787e-003
,,,2.75000000e-010,-5.28515662e-003
,,,3.00000000e-010,-5.31875038e-003
,,,3.25000000e-010,-5.35156288e-003
,,,3.50000000e-010,-5.37890663e-003
,,,3.75000000e-010,-5.40000038e-003
,,,4.00000000e-010,-5.38750038e-003
,,,4.25000000e-010,-5.36718788e-003
,,,4.50000000e-010,-5.34062538e-003
,,,4.75000000e-010,-5.30937538e-003
,,,5.00000000e-010,-5.27734412e-003
,,,5.25000000e-010,-5.24687537e-003
,,,5.50000000e-010,-5.22109412e-003
,,,5.75000000e-010,-5.20000037e-003
,,,6.00000000e-010,-5.16328162e-003
,,,6.25000000e-010,-5.13203161e-003
,,,6.50000000e-010,-5.10625036e-003
,,,6.75000000e-010,-5.08437536e-003
,,,7.00000000e-010,-5.06562536e-003
,,,7.25000000e-010,-5.04687536e-003
,,,7.50000000e-010,-5.02578161e-003
,,,7.75000000e-010,-5.00000035e-003
,,,8.00000000e-010,-4.94609410e-003
,,,8.25000000e-010,-4.88359410e-003
,,,8.50000000e-010,-4.81250034e-003
,,,8.75000000e-010,-4.73515659e-003
,,,9.00000000e-010,-4.65312533e-003
,,,9.25000000e-010,-4.56953157e-003
,,,9.50000000e-010,-4.48437532e-003
,,,9.75000000e-010,-4.40000031e-003
,,,1.00000000e-009,-4.30078155e-003
,,,1.02500000e-009,-4.20078155e-003
,,,1.05000000e-009,-4.10000029e-003
,,,1.07500000e-009,-3.99843778e-003
,,,1.10000000e-009,-3.89765653e-003
,,,1.12500000e-009,-3.79765652e-003
,,,1.15000000e-009,-3.69843776e-003
,,,1.17500000e-009,-3.60000025e-003
,,,1.20000000e-009,-3.49453150e-003
,,,1.22500000e-009,-3.38828149e-003
,,,1.25000000e-009,-3.28125023e-003
,,,1.27500000e-009,-3.17578147e-003
,,,1.30000000e-009,-3.07343772e-003
,,,1.32500000e-009,-2.97578146e-003
,,,1.35000000e-009,-2.88437520e-003
,,,1.37500000e-009,-2.80000020e-003
,,,1.40000000e-009,-2.72187519e-003
,,,1.42500000e-009,-2.64609394e-003
,,,1.45000000e-009,-2.57187518e-003
,,,1.47500000e-009,-2.49921893e-003
,,,1.50000000e-009,-2.42578142e-003
,,,1.52500000e-009,-2.35234392e-003
,,,1.55000000e-009,-2.27734391e-003
,,,1.57500000e-009,-2.20000016e-003
,,,1.60000000e-009,-2.12421890e-003
,,,1.62500000e-009,-2.04062514e-003
,,,1.65000000e-009,-1.94843764e-003
,,,1.67500000e-009,-1.84843763e-003
,,,1.70000000e-009,-1.74140637e-003
,,,1.72500000e-009,-1.62968762e-003
,,,1.75000000e-009,-1.51484386e-003
,,,1.77500000e-009,-1.40000010e-003
,,,1.80000000e-009,-1.29765634e-003
,,,1.82500000e-009,-1.19843758e-003
,,,1.85000000e-009,-1.10390633e-003
,,,1.87500000e-009,-1.01718757e-003
,,,1.90000000e-009,-9.41406317e-004
,,,1.92500000e-009,-8.78906312e-004
,,,1.95000000e-009,-8.31250059e-004
,,,1.97500000e-009,-8.00000057e-004
,,,2.00000000e-009,-7.96093806e-004
,,,2.02500000e-009,-8.00000057e-004
,,,2.05000000e-009,-8.08593807e-004
,,,2.07500000e-009,-8.17187558e-004
,,,2.10000000e-009,-8.22656308e-004
,,,2.12500000e-009,-8.22656308e-004
,,,2.15000000e-009,-8.15625058e-004
,,,2.17500000e-009,-8.00000057e-004
,,,2.20000000e-009,-7.84375056e-004
,,,2.22500000e-009,-7.58593804e-004
,,,2.25000000e-009,-7.25781301e-004
,,,2.27500000e-009,-6.89843799e-004
,,,2.30000000e-009,-6.54687546e-004
,,,2.32500000e-009,-6.25000044e-004
,,,2.35000000e-009,-6.06250043e-004
,,,2.37500000e-009,-6.00000042e-004
,,,2.40000000e-009,-6.14062543e-004
,,,2.42500000e-009,-6.39062545e-004
,,,2.45000000e-009,-6.70312547e-004
,,,2.47500000e-009,-7.04687550e-004
,,,2.50000000e-009,-7.38281302e-004
,,,2.52500000e-009,-7.67968804e-004
,,,2.55000000e-009,-7.89062556e-004
,,,2.57500000e-009,-8.00000057e-004
,,,2.60000000e-009,-8.00781307e-004
,,,2.62500000e-009,-7.87500056e-004
,,,2.65000000e-009,-7.63281304e-004
,,,2.67500000e-009,-7.30468802e-004
,,,2.70000000e-009,-6.92968799e-004
,,,2.72500000e-009,-6.56250046e-004
,,,2.75000000e-009,-6.24218794e-004
,,,2.77500000e-009,-6.00000042e-004
,,,2.80000000e-009,-5.84375041e-004
,,,2.82500000e-009,-5.78125041e-004
,,,2.85000000e-009,-5.78906291e-004
,,,2.87500000e-009,-5.84375041e-004
,,,2.90000000e-009,-5.92187542e-004
,,,2.92500000e-009,-5.98437542e-004
,,,2.95000000e-009,-6.02343793e-004
,,,2.97500000e-009,-6.00000042e-004
,,,3.00000000e-009,-5.89062542e-004
,,,3.02500000e-009,-5.70312540e-004
,,,3.05000000e-009,-5.44531289e-004
,,,3.07500000e-009,-5.14843786e-004
,,,3.10000000e-009,-4.82812534e-004
,,,3.12500000e-009,-4.50781282e-004
,,,3.15000000e-009,-4.22656280e-004
,,,3.17500000e-009,-4.00000028e-004
,,,3.20000000e-009,-3.84375027e-004
,,,3.22500000e-009,-3.75000027e-004
,,,3.25000000e-009,-3.72656276e-004
,,,3.27500000e-009,-3.75781277e-004
,,,3.30000000e-009,-3.82031277e-004
,,,3.32500000e-009,-3.89062528e-004
,,,3.35000000e-009,-3.96093778e-004
,,,3.37500000e-009,-4.00000028e-004
,,,3.40000000e-009,-3.96875028e-004
,,,3.42500000e-009,-3.87500027e-004
,,,3.45000000e-009,-3.71093776e-004
,,,3.47500000e-009,-3.47656275e-004
,,,3.50000000e-009,-3.17187522e-004
,,,3.52500000e-009,-2.81250020e-004
,,,3.55000000e-009,-2.41406267e-004
,,,3.57500000e-009,-2.00000014e-004
,,,3.60000000e-009,-1.60156261e-004
,,,3.62500000e-009,-1.21093759e-004
,,,3.65000000e-009,-8.59375061e-005
,,,3.67500000e-009,-5.54687539e-005
,,,3.70000000e-009,-3.04687522e-005
,,,3.72500000e-009,-1.25000009e-005
,,,3.75000000e-009,-1.56250011e-006
,,,3.77500000e-009,0.00000000e+000
,,,3.80000000e-009,-8.59375061e-006
,,,3.82500000e-009,-2.50000018e-005
,,,3.85000000e-009,-4.76562534e-005
,,,3.87500000e-009,-7.50000053e-005
,,,3.90000000e-009,-1.05468757e-004
,,,3.92500000e-009,-1.37500010e-004
,,,3.95000000e-009,-1.69531262e-004
,,,3.97500000e-009,-2.00000014e-004
,,,4.00000000e-009,-2.27343766e-004
,,,4.02500000e-009,-2.48437518e-004
,,,4.05000000e-009,-2.62500019e-004
,,,4.07500000e-009,-2.67187519e-004
,,,4.10000000e-009,-2.63281269e-004
,,,4.12500000e-009,-2.50000018e-004
,,,4.15000000e-009,-2.28125016e-004
,,,4.17500000e-009,-2.00000014e-004
,,,4.20000000e-009,-1.66406262e-004
,,,4.22500000e-009,-1.31250009e-004
,,,4.25000000e-009,-9.60937568e-005
,,,4.27500000e-009,-6.25000044e-005
,,,4.30000000e-009,-3.51562525e-005
,,,4.32500000e-009,-1.40625010e-005
,,,4.35000000e-009,-1.56250011e-006
,,,4.37500000e-009,0.00000000e+000
,,,4.40000000e-009,-9.37500066e-006
,,,4.42500000e-009,-2.81250020e-005
,,,4.45000000e-009,-5.39062538e-005
,,,4.47500000e-009,-8.35937559e-005
,,,4.50000000e-009,-1.15625008e-004
,,,4.52500000e-009,-1.46875010e-004
,,,4.55000000e-009,-1.75781262e-004
,,,4.57500000e-009,-2.00000014e-004
,,,4.60000000e-009,-2.17187515e-004
,,,4.62500000e-009,-2.28906266e-004
,,,4.65000000e-009,-2.33593767e-004
,,,4.67500000e-009,-2.32031266e-004
,,,4.70000000e-009,-2.26562516e-004
,,,4.72500000e-009,-2.17968765e-004
,,,4.75000000e-009,-2.08593765e-004
,,,4.77500000e-009,-2.00000014e-004
,,,4.80000000e-009,-1.90625013e-004
,,,4.82500000e-009,-1.83593763e-004
,,,4.85000000e-009,-1.80468763e-004
,,,4.87500000e-009,-1.79687513e-004
,,,4.90000000e-009,-1.82031263e-004
,,,4.92500000e-009,-1.86718763e-004
,,,4.95000000e-009,-1.92968764e-004
,,,4.97500000e-009,-2.00000014e-004
,,,5.00000000e-009,-2.04687514e-004
,,,5.02500000e-009,-2.08593765e-004
,,,5.05000000e-009,-2.10937515e-004
,,,5.07500000e-009,-2.11718765e-004
,,,5.10000000e-009,-2.10156265e-004
,,,5.12500000e-009,-2.07812515e-004
,,,5.15000000e-009,-2.03906264e-004
,,,5.17500000e-009,-2.00000014e-004
,,,5.20000000e-009,-1.94531264e-004
,,,5.22500000e-009,-1.89843763e-004
,,,5.25000000e-009,-1.85937513e-004
,,,5.27500000e-009,-1.84375013e-004
,,,5.30000000e-009,-1.84375013e-004
,,,5.32500000e-009,-1.87500013e-004
,,,5.35000000e-009,-1.92187514e-004
,,,5.37500000e-009,-2.00000014e-004
,,,5.40000000e-009,-2.07031265e-004
,,,5.42500000e-009,-2.14843765e-004
,,,5.45000000e-009,-2.21875016e-004
,,,5.47500000e-009,-2.26562516e-004
,,,5.50000000e-009,-2.28125016e-004
,,,5.52500000e-009,-2.24218766e-004
,,,5.55000000e-009,-2.14843765e-004
,,,5.57500000e-009,-2.00000014e-004
,,,5.60000000e-009,-1.80468763e-004
,,,5.62500000e-009,-1.57031261e-004
,,,5.65000000e-009,-1.30468759e-004
,,,5.67500000e-009,-1.02343757e-004
,,,5.70000000e-009,-7.34375052e-005
,,,5.72500000e-009,-4.53125032e-005
,,,5.75000000e-009,-2.10937515e-005
,,,5.77500000e-009,0.00000000e+000
,,,5.80000000e-009,1.40625010e-005
,,,5.82500000e-009,2.34375017e-005
,,,5.85000000e-009,2.73437519e-005
,,,5.87500000e-009,2.65625019e-005
