RawData/SinglePhotoelectron/R3_2pt2B_5mV/wave005_Ch2.csv

"Record Length",1000,"Points",-7.72500000e-009,-4.39062531e-004
"Sample Interval",2.50000000e-011,s,-7.70000000e-009,-4.29687530e-004
"Trigger Point",309,"Samples",-7.67500000e-009,-4.16406279e-004
"Trigger Time",1.02078453e-011,s,-7.65000000e-009,-4.00000028e-004
"",,,-7.62500000e-009,-3.78906277e-004
"Horizontal Offset",-7.72500000e-009,s,-7.60000000e-009,-3.57812525e-004
,,,-7.57500000e-009,-3.34375024e-004
,,,-7.55000000e-009,-3.10937522e-004
,,,-7.52500000e-009,-2.85156270e-004
,,,-7.50000000e-009,-2.58593768e-004
,,,-7.47500000e-009,-2.29687516e-004
,,,-7.45000000e-009,-2.00000014e-004
,,,-7.42500000e-009,-1.68750012e-004
,,,-7.40000000e-009,-1.38281260e-004
,,,-7.37500000e-009,-1.07812508e-004
,,,-7.35000000e-009,-7.89062556e-005
,,,-7.32500000e-009,-5.31250038e-005
,,,-7.30000000e-009,-3.04687522e-005
,,,-7.27500000e-009,-1.25000009e-005
,,,-7.25000000e-009,0.00000000e+000
,,,-7.22500000e-009,4.68750033e-006
,,,-7.20000000e-009,4.68750033e-006
,,,-7.17500000e-009,3.12500022e-006
,,,-7.15000000e-009,0.00000000e+000
,,,-7.12500000e-009,-3.12500022e-006
,,,-7.10000000e-009,-4.68750033e-006
,,,-7.07500000e-009,-3.12500022e-006
,,,-7.05000000e-009,0.00000000e+000
,,,-7.02500000e-009,3.12500022e-006
,,,-7.00000000e-009,8.59375061e-006
,,,-6.97500000e-009,1.48437511e-005
,,,-6.95000000e-009,2.03125014e-005
,,,-6.92500000e-009,2.18750015e-005
,,,-6.90000000e-009,2.03125014e-005
,,,-6.87500000e-009,1.32812509e-005
,,,-6.85000000e-009,0.00000000e+000
,,,-6.82500000e-009,-2.10937515e-005
,,,-6.80000000e-009,-4.76562534e-005
,,,-6.77500000e-009,-7.73437555e-005
,,,-6.75000000e-009,-1.07031258e-004
,,,-6.72500000e-009,-1.36718760e-004
,,,-6.70000000e-009,-1.62500012e-004
,,,-6.67500000e-009,-1.84375013e-004
,,,-6.65000000e-009,-2.00000014e-004
,,,-6.62500000e-009,-2.08593765e-004
,,,-6.60000000e-009,-2.10937515e-004
,,,-6.57500000e-009,-2.09375015e-004
,,,-6.55000000e-009,-2.03906264e-004
,,,-6.52500000e-009,-1.97656264e-004
,,,-6.50000000e-009,-1.93750014e-004
,,,-6.47500000e-009,-1.93750014e-004
,,,-6.45000000e-009,-2.00000014e-004
,,,-6.42500000e-009,-2.10937515e-004
,,,-6.40000000e-009,-2.28125016e-004
,,,-6.37500000e-009,-2.51562518e-004
,,,-6.35000000e-009,-2.79687520e-004
,,,-6.32500000e-009,-3.10156272e-004
,,,-6.30000000e-009,-3.42187524e-004
,,,-6.27500000e-009,-3.72656276e-004
,,,-6.25000000e-009,-4.00000028e-004
,,,-6.22500000e-009,-4.19531280e-004
,,,-6.20000000e-009,-4.33593781e-004
,,,-6.17500000e-009,-4.41406281e-004
,,,-6.15000000e-009,-4.42968781e-004
,,,-6.12500000e-009,-4.39062531e-004
,,,-6.10000000e-009,-4.29687530e-004
,,,-6.07500000e-009,-4.16406279e-004
,,,-6.05000000e-009,-4.00000028e-004
,,,-6.02500000e-009,-3.77343777e-004
,,,-6.00000000e-009,-3.53906275e-004
,,,-5.97500000e-009,-3.28906273e-004
,,,-5.95000000e-009,-3.03906272e-004
,,,-5.92500000e-009,-2.78125020e-004
,,,-5.90000000e-009,-2.52343768e-004
,,,-5.87500000e-009,-2.26562516e-004
,,,-5.85000000e-009,-2.00000014e-004
,,,-5.82500000e-009,-1.71875012e-004
,,,-5.80000000e-009,-1.44531260e-004
,,,-5.77500000e-009,-1.17968758e-004
,,,-5.75000000e-009,-9.21875065e-005
,,,-5.72500000e-009,-6.64062547e-005
,,,-5.70000000e-009,-4.29687530e-005
,,,-5.67500000e-009,-2.03125014e-005
,,,-5.65000000e-009,0.00000000e+000
,,,-5.62500000e-009,1.56250011e-005
,,,-5.60000000e-009,2.73437519e-005
,,,-5.57500000e-009,3.51562525e-005
,,,-5.55000000e-009,3.90625028e-005
,,,-5.52500000e-009,3.67187526e-005
,,,-5.50000000e-009,2.96875021e-005
,,,-5.47500000e-009,1.71875012e-005
,,,-5.45000000e-009,0.00000000e+000
,,,-5.42500000e-009,-2.34375017e-005
,,,-5.40000000e-009,-5.00000035e-005
,,,-5.37500000e-009,-7.89062556e-005
,,,-5.35000000e-009,-1.07031258e-004
,,,-5.32500000e-009,-1.35156260e-004
,,,-5.30000000e-009,-1.60156261e-004
,,,-5.27500000e-009,-1.82031263e-004
,,,-5.25000000e-009,-2.00000014e-004
,,,-5.22500000e-009,-2.12500015e-004
,,,-5.20000000e-009,-2.20312516e-004
,,,-5.17500000e-009,-2.23437516e-004
,,,-5.15000000e-009,-2.22656266e-004
,,,-5.12500000e-009,-2.18750015e-004
,,,-5.10000000e-009,-2.12500015e-004
,,,-5.07500000e-009,-2.06250015e-004
,,,-5.05000000e-009,-2.00000014e-004
,,,-5.02500000e-009,-1.95312514e-004
,,,-5.00000000e-009,-1.92187514e-004
,,,-4.97500000e-009,-1.90625013e-004
,,,-4.95000000e-009,-1.90625013e-004
,,,-4.92500000e-009,-1.92187514e-004
,,,-4.90000000e-009,-1.94531264e-004
,,,-4.87500000e-009,-1.96875014e-004
,,,-4.85000000e-009,-2.00000014e-004
,,,-4.82500000e-009,-2.01562514e-004
,,,-4.80000000e-009,-2.03125014e-004
,,,-4.77500000e-009,-2.03906264e-004
,,,-4.75000000e-009,-2.03906264e-004
,,,-4.72500000e-009,-2.03125014e-004
,,,-4.70000000e-009,-2.02343764e-004
,,,-4.67500000e-009,-2.00781264e-004
,,,-4.65000000e-009,-2.00000014e-004
,,,-4.62500000e-009,-1.96875014e-004
,,,-4.60000000e-009,-1.94531264e-004
,,,-4.57500000e-009,-1.92968764e-004
,,,-4.55000000e-009,-1.92968764e-004
,,,-4.52500000e-009,-1.92968764e-004
,,,-4.50000000e-009,-1.94531264e-004
,,,-4.47500000e-009,-1.96875014e-004
,,,-4.45000000e-009,-2.00000014e-004
,,,-4.42500000e-009,-2.00000014e-004
,,,-4.40000000e-009,-2.00000014e-004
,,,-4.37500000e-009,-2.00000014e-004
,,,-4.35000000e-009,-2.00781264e-004
,,,-4.32500000e-009,-2.00781264e-004
,,,-4.30000000e-009,-2.00000014e-004
,,,-4.27500000e-009,-2.00000014e-004
,,,-4.25000000e-009,-2.00000014e-004
,,,-4.22500000e-009,-1.98437514e-004
,,,-4.20000000e-009,-1.96875014e-004
,,,-4.17500000e-009,-1.96093764e-004
,,,-4.15000000e-009,-1.95312514e-004
,,,-4.12500000e-009,-1.95312514e-004
,,,-4.10000000e-009,-1.96093764e-004
,,,-4.07500000e-009,-1.97656264e-004
,,,-4.05000000e-009,-2.00000014e-004
,,,-4.02500000e-009,-2.01562514e-004
,,,-4.00000000e-009,-2.03906264e-004
,,,-3.97500000e-009,-2.05468765e-004
,,,-3.95000000e-009,-2.07031265e-004
,,,-3.92500000e-009,-2.07812515e-004
,,,-3.90000000e-009,-2.07031265e-004
,,,-3.87500000e-009,-2.04687514e-004
,,,-3.85000000e-009,-2.00000014e-004
,,,-3.82500000e-009,-1.89843763e-004
,,,-3.80000000e-009,-1.76562512e-004
,,,-3.77500000e-009,-1.58593761e-004
,,,-3.75000000e-009,-1.35156260e-004
,,,-3.72500000e-009,-1.07812508e-004
,,,-3.70000000e-009,-7.50000053e-005
,,,-3.67500000e-009,-3.90625028e-005
,,,-3.65000000e-009,0.00000000e+000
,,,-3.62500000e-009,3.90625028e-005
,,,-3.60000000e-009,7.89062556e-005
,,,-3.57500000e-009,1.14843758e-004
,,,-3.55000000e-009,1.47656260e-004
,,,-3.52500000e-009,1.73437512e-004
,,,-3.50000000e-009,1.91406264e-004
,,,-3.47500000e-009,2.00000014e-004
,,,-3.45000000e-009,2.00000014e-004
,,,-3.42500000e-009,1.87500013e-004
,,,-3.40000000e-009,1.67187512e-004
,,,-3.37500000e-009,1.41406260e-004
,,,-3.35000000e-009,1.11718758e-004
,,,-3.32500000e-009,8.04687557e-005
,,,-3.30000000e-009,5.00000035e-005
,,,-3.27500000e-009,2.26562516e-005
,,,-3.25000000e-009,0.00000000e+000
,,,-3.22500000e-009,-1.79687513e-005
,,,-3.20000000e-009,-2.96875021e-005
,,,-3.17500000e-009,-3.51562525e-005
,,,-3.15000000e-009,-3.43750024e-005
,,,-3.12500000e-009,-2.96875021e-005
,,,-3.10000000e-009,-2.03125014e-005
,,,-3.07500000e-009,-1.01562507e-005
,,,-3.05000000e-009,0.00000000e+000
,,,-3.02500000e-009,7.03125050e-006
,,,-3.00000000e-009,1.32812509e-005
,,,-2.97500000e-009,1.64062512e-005
,,,-2.95000000e-009,1.64062512e-005
,,,-2.92500000e-009,1.48437511e-005
,,,-2.90000000e-009,1.09375008e-005
,,,-2.87500000e-009,5.46875039e-006
,,,-2.85000000e-009,0.00000000e+000
,,,-2.82500000e-009,-7.03125050e-006
,,,-2.80000000e-009,-1.32812509e-005
,,,-2.77500000e-009,-1.71875012e-005
,,,-2.75000000e-009,-1.95312514e-005
,,,-2.72500000e-009,-1.79687513e-005
,,,-2.70000000e-009,-1.40625010e-005
,,,-2.67500000e-009,-7.81250055e-006
,,,-2.65000000e-009,0.00000000e+000
,,,-2.62500000e-009,7.81250055e-006
,,,-2.60000000e-009,1.64062512e-005
,,,-2.57500000e-009,2.26562516e-005
,,,-2.55000000e-009,2.65625019e-005
,,,-2.52500000e-009,2.73437519e-005
,,,-2.50000000e-009,2.34375017e-005
,,,-2.47500000e-009,1.40625010e-005
,,,-2.45000000e-009,0.00000000e+000
,,,-2.42500000e-009,-2.03125014e-005
,,,-2.40000000e-009,-4.53125032e-005
,,,-2.37500000e-009,-7.34375052e-005
,,,-2.35000000e-009,-1.03125007e-004
,,,-2.32500000e-009,-1.32031259e-004
,,,-2.30000000e-009,-1.58593761e-004
,,,-2.27500000e-009,-1.82031263e-004
,,,-2.25000000e-009,-2.00000014e-004
,,,-2.22500000e-009,-2.10937515e-004
,,,-2.20000000e-009,-2.17187515e-004
,,,-2.17500000e-009,-2.17968765e-004
,,,-2.15000000e-009,-2.15625015e-004
,,,-2.12500000e-009,-2.11718765e-004
,,,-2.10000000e-009,-2.06250015e-004
,,,-2.07500000e-009,-2.02343764e-004
,,,-2.05000000e-009,-2.00000014e-004
,,,-2.02500000e-009,-1.98437514e-004
,,,-2.00000000e-009,-1.99218764e-004
,,,-1.97500000e-009,-2.00781264e-004
,,,-1.95000000e-009,-2.03906264e-004
,,,-1.92500000e-009,-2.06250015e-004
,,,-1.90000000e-009,-2.06250015e-004
,,,-1.87500000e-009,-2.04687514e-004
,,,-1.85000000e-009,-2.00000014e-004
,,,-1.82500000e-009,-1.92187514e-004
,,,-1.80000000e-009,-1.84375013e-004
,,,-1.77500000e-009,-1.76562512e-004
,,,-1.75000000e-009,-1.71093762e-004
,,,-1.72500000e-009,-1.69531262e-004
,,,-1.70000000e-009,-1.72656262e-004
,,,-1.67500000e-009,-1.82812513e-004
,,,-1.65000000e-009,-2.00000014e-004
,,,-1.62500000e-009,-2.25781266e-004
,,,-1.60000000e-009,-2.57031268e-004
,,,-1.57500000e-009,-2.91406271e-004
,,,-1.55000000e-009,-3.25781273e-004
,,,-1.52500000e-009,-3.57031275e-004
,,,-1.50000000e-009,-3.81250027e-004
,,,-1.47500000e-009,-3.96093778e-004
,,,-1.45000000e-009,-4.00000028e-004
,,,-1.42500000e-009,-4.00000028e-004
,,,-1.40000000e-009,-3.90625028e-004
,,,-1.37500000e-009,-3.72656276e-004
,,,-1.35000000e-009,-3.46875025e-004
,,,-1.32500000e-009,-3.14062522e-004
,,,-1.30000000e-009,-2.77343770e-004
,,,-1.27500000e-009,-2.38281267e-004
,,,-1.25000000e-009,-2.00000014e-004
,,,-1.22500000e-009,-1.82812513e-004
,,,-1.20000000e-009,-1.73437512e-004
,,,-1.17500000e-009,-1.70312512e-004
,,,-1.15000000e-009,-1.73437512e-004
,,,-1.12500000e-009,-1.79687513e-004
,,,-1.10000000e-009,-1.86718763e-004
,,,-1.07500000e-009,-1.93750014e-004
,,,-1.05000000e-009,-2.00000014e-004
,,,-1.02500000e-009,-2.25781266e-004
,,,-1.00000000e-009,-2.53906268e-004
,,,-9.75000000e-010,-2.81250020e-004
,,,-9.50000000e-010,-3.07812522e-004
,,,-9.25000000e-010,-3.32812524e-004
,,,-9.00000000e-010,-3.55468775e-004
,,,-8.75000000e-010,-3.77343777e-004
,,,-8.50000000e-010,-4.00000028e-004
,,,-8.25000000e-010,-4.50000032e-004
,,,-8.00000000e-010,-5.09375036e-004
,,,-7.75000000e-010,-5.75781291e-004
,,,-7.50000000e-010,-6.48437546e-004
,,,-7.25000000e-010,-7.27343801e-004
,,,-7.00000000e-010,-8.11718807e-004
,,,-6.75000000e-010,-9.02343814e-004
,,,-6.50000000e-010,-1.00000007e-003
,,,-6.25000000e-010,-1.12890633e-003
,,,-6.00000000e-010,-1.27187509e-003
,,,-5.75000000e-010,-1.42968760e-003
,,,-5.50000000e-010,-1.60078136e-003
,,,-5.25000000e-010,-1.78515638e-003
,,,-5.00000000e-010,-1.98125014e-003
,,,-4.75000000e-010,-2.18671890e-003
,,,-4.50000000e-010,-2.40000017e-003
,,,-4.25000000e-010,-2.62812519e-003
,,,-4.00000000e-010,-2.85937520e-003
,,,-3.75000000e-010,-3.08750022e-003
,,,-3.50000000e-010,-3.30625023e-003
,,,-3.25000000e-010,-3.51093775e-003
,,,-3.00000000e-010,-3.69687526e-003
,,,-2.75000000e-010,-3.86015652e-003
,,,-2.50000000e-010,-4.00000028e-003
,,,-2.25000000e-010,-4.11250029e-003
,,,-2.00000000e-010,-4.21171905e-003
,,,-1.75000000e-010,-4.30234405e-003
,,,-1.50000000e-010,-4.38906281e-003
,,,-1.25000000e-010,-4.47734407e-003
,,,-1.00000000e-010,-4.57343782e-003
,,,-7.50000000e-011,-4.67968783e-003
,,,-5.00000000e-011,-4.80000034e-003
,,,-2.50000000e-011,-4.92187535e-003
,,,0.00000000e+000,-5.06328161e-003
,,,2.50000000e-011,-5.21875037e-003
,,,5.00000000e-011,-5.38359413e-003
,,,7.50000000e-011,-5.55156289e-003
,,,1.00000000e-010,-5.71406290e-003
,,,1.25000000e-010,-5.86562542e-003
,,,1.50000000e-010,-6.00000042e-003
,,,1.75000000e-010,-6.08828168e-003
,,,2.00000000e-010,-6.16015669e-003
,,,2.25000000e-010,-6.21718794e-003
,,,2.50000000e-010,-6.26328169e-003
,,,2.75000000e-010,-6.30078170e-003
,,,3.00000000e-010,-6.33437545e-003
,,,3.25000000e-010,-6.36640670e-003
,,,3.50000000e-010,-6.40000045e-003
,,,3.75000000e-010,-6.40546920e-003
,,,4.00000000e-010,-6.41953170e-003
,,,4.25000000e-010,-6.44218796e-003
,,,4.50000000e-010,-6.47265671e-003
,,,4.75000000e-010,-6.50703171e-003
,,,5.00000000e-010,-6.54218796e-003
,,,5.25000000e-010,-6.57421922e-003
,,,5.50000000e-010,-6.60000047e-003
,,,5.75000000e-010,-6.58671922e-003
,,,6.00000000e-010,-6.56562546e-003
,,,6.25000000e-010,-6.53984421e-003
,,,6.50000000e-010,-6.51015671e-003
,,,6.75000000e-010,-6.47968796e-003
,,,7.00000000e-010,-6.45000046e-003
,,,7.25000000e-010,-6.42265670e-003
,,,7.50000000e-010,-6.40000045e-003
,,,7.75000000e-010,-6.35703170e-003
,,,8.00000000e-010,-6.32031295e-003
,,,8.25000000e-010,-6.28984420e-003
,,,8.50000000e-010,-6.26562544e-003
,,,8.75000000e-010,-6.24687544e-003
,,,9.00000000e-010,-6.23125044e-003
,,,9.25000000e-010,-6.21640669e-003
,,,9.50000000e-010,-6.20000044e-003
,,,9.75000000e-010,-6.15625044e-003
,,,1.00000000e-009,-6.10468793e-003
,,,1.02500000e-009,-6.04453168e-003
,,,1.05000000e-009,-5.97421917e-003
,,,1.07500000e-009,-5.89453167e-003
,,,1.10000000e-009,-5.80546916e-003
,,,1.12500000e-009,-5.70703165e-003
,,,1.15000000e-009,-5.60000040e-003
,,,1.17500000e-009,-5.47187539e-003
,,,1.20000000e-009,-5.33828163e-003
,,,1.22500000e-009,-5.20156287e-003
,,,1.25000000e-009,-5.06640661e-003
,,,1.27500000e-009,-4.93515660e-003
,,,1.30000000e-009,-4.81250034e-003
,,,1.32500000e-009,-4.70000033e-003
,,,1.35000000e-009,-4.60000033e-003
,,,1.37500000e-009,-4.50859407e-003
,,,1.40000000e-009,-4.42656281e-003
,,,1.42500000e-009,-4.35078156e-003
,,,1.45000000e-009,-4.27890655e-003
,,,1.47500000e-009,-4.21015655e-003
,,,1.50000000e-009,-4.14218779e-003
,,,1.52500000e-009,-4.07187529e-003
,,,1.55000000e-009,-4.00000028e-003
,,,1.57500000e-009,-3.92500028e-003
,,,1.60000000e-009,-3.84453152e-003
,,,1.62500000e-009,-3.76093777e-003
,,,1.65000000e-009,-3.67578151e-003
,,,1.67500000e-009,-3.59453150e-003
,,,1.70000000e-009,-3.51953150e-003
,,,1.72500000e-009,-3.45468774e-003
,,,1.75000000e-009,-3.40000024e-003
,,,1.77500000e-009,-3.35703149e-003
,,,1.80000000e-009,-3.31875023e-003
,,,1.82500000e-009,-3.28046898e-003
,,,1.85000000e-009,-3.23906273e-003
,,,1.87500000e-009,-3.19296898e-003
,,,1.90000000e-009,-3.13828147e-003
,,,1.92500000e-009,-3.07421897e-003
,,,1.95000000e-009,-3.00000021e-003
,,,1.97500000e-009,-2.92109396e-003
,,,2.00000000e-009,-2.83281270e-003
,,,2.02500000e-009,-2.73906269e-003
,,,2.05000000e-009,-2.64531269e-003
,,,2.07500000e-009,-2.55859393e-003
,,,2.10000000e-009,-2.48515643e-003
,,,2.12500000e-009,-2.43125017e-003
,,,2.15000000e-009,-2.40000017e-003
,,,2.17500000e-009,-2.39843767e-003
,,,2.20000000e-009,-2.41484392e-003
,,,2.22500000e-009,-2.44375017e-003
,,,2.25000000e-009,-2.48125018e-003
,,,2.27500000e-009,-2.52187518e-003
,,,2.30000000e-009,-2.55859393e-003
,,,2.32500000e-009,-2.58671893e-003
,,,2.35000000e-009,-2.60000018e-003
,,,2.37500000e-009,-2.59375018e-003
,,,2.40000000e-009,-2.56406268e-003
,,,2.42500000e-009,-2.51015643e-003
,,,2.45000000e-009,-2.43359392e-003
,,,2.47500000e-009,-2.33906267e-003
,,,2.50000000e-009,-2.23203141e-003
,,,2.52500000e-009,-2.11718765e-003
,,,2.55000000e-009,-2.00000014e-003
,,,2.57500000e-009,-1.88906263e-003
,,,2.60000000e-009,-1.78359388e-003
,,,2.62500000e-009,-1.68750012e-003
,,,2.65000000e-009,-1.60234386e-003
,,,2.67500000e-009,-1.53046886e-003
,,,2.70000000e-009,-1.47265635e-003
,,,2.72500000e-009,-1.42890635e-003
,,,2.75000000e-009,-1.40000010e-003
,,,2.77500000e-009,-1.38593760e-003
,,,2.80000000e-009,-1.38046885e-003
,,,2.82500000e-009,-1.38046885e-003
,,,2.85000000e-009,-1.38359385e-003
,,,2.87500000e-009,-1.38828135e-003
,,,2.90000000e-009,-1.39375010e-003
,,,2.92500000e-009,-1.39765635e-003
,,,2.95000000e-009,-1.40000010e-003
,,,2.97500000e-009,-1.40156260e-003
,,,3.00000000e-009,-1.39531260e-003
,,,3.02500000e-009,-1.38125010e-003
,,,3.05000000e-009,-1.35859385e-003
,,,3.07500000e-009,-1.32812509e-003
,,,3.10000000e-009,-1.28984384e-003
,,,3.12500000e-009,-1.24609384e-003
,,,3.15000000e-009,-1.20000008e-003
,,,3.17500000e-009,-1.15468758e-003
,,,3.20000000e-009,-1.11093758e-003
,,,3.22500000e-009,-1.07109383e-003
,,,3.25000000e-009,-1.03750007e-003
,,,3.27500000e-009,-1.01171882e-003
,,,3.30000000e-009,-9.96875071e-004
,,,3.32500000e-009,-9.92968820e-004
,,,3.35000000e-009,-1.00000007e-003
,,,3.37500000e-009,-1.02109382e-003
,,,3.40000000e-009,-1.04453132e-003
,,,3.42500000e-009,-1.06640633e-003
,,,3.45000000e-009,-1.08046883e-003
,,,3.47500000e-009,-1.08437508e-003
,,,3.50000000e-009,-1.07265633e-003
,,,3.52500000e-009,-1.04453132e-003
,,,3.55000000e-009,-1.00000007e-003
,,,3.57500000e-009,-9.45312567e-004
,,,3.60000000e-009,-8.79687562e-004
,,,3.62500000e-009,-8.08593807e-004
,,,3.65000000e-009,-7.39062552e-004
,,,3.67500000e-009,-6.77343798e-004
,,,3.70000000e-009,-6.30468795e-004
,,,3.72500000e-009,-6.03906293e-004
,,,3.75000000e-009,-6.00000042e-004
,,,3.77500000e-009,-6.24218794e-004
,,,3.80000000e-009,-6.68750047e-004
,,,3.82500000e-009,-7.28125052e-004
,,,3.85000000e-009,-7.95312556e-004
,,,3.87500000e-009,-8.63281311e-004
,,,3.90000000e-009,-9.24218815e-004
,,,3.92500000e-009,-9.71093819e-004
,,,3.95000000e-009,-1.00000007e-003
,,,3.97500000e-009,-1.00937507e-003
,,,4.00000000e-009,-9.98437571e-004
,,,4.02500000e-009,-9.70312569e-004
,,,4.05000000e-009,-9.31250066e-004
,,,4.07500000e-009,-8.87500063e-004
,,,4.10000000e-009,-8.46875060e-004
,,,4.12500000e-009,-8.15625058e-004
,,,4.15000000e-009,-8.00000057e-004
,,,4.17500000e-009,-8.05468807e-004
,,,4.20000000e-009,-8.30468809e-004
,,,4.22500000e-009,-8.73437562e-004
,,,4.25000000e-009,-9.31250066e-004
,,,4.27500000e-009,-9.98437571e-004
,,,4.30000000e-009,-1.06875008e-003
,,,4.32500000e-009,-1.13828133e-003
,,,4.35000000e-009,-1.20000008e-003
,,,4.37500000e-009,-1.24765634e-003
,,,4.40000000e-009,-1.27968759e-003
,,,4.42500000e-009,-1.29687509e-003
,,,4.45000000e-009,-1.29843759e-003
,,,4.47500000e-009,-1.28671884e-003
,,,4.50000000e-009,-1.26406259e-003
,,,4.52500000e-009,-1.23437509e-003
,,,4.55000000e-009,-1.20000008e-003
,,,4.57500000e-009,-1.16093758e-003
,,,4.60000000e-009,-1.12343758e-003
,,,4.62500000e-009,-1.08984383e-003
,,,4.65000000e-009,-1.06093758e-003
,,,4.67500000e-009,-1.03750007e-003
,,,4.70000000e-009,-1.01953132e-003
,,,4.72500000e-009,-1.00703132e-003
,,,4.75000000e-009,-1.00000007e-003
,,,4.77500000e-009,-9.91406320e-004
,,,4.80000000e-009,-9.86718820e-004
,,,4.82500000e-009,-9.84375070e-004
,,,4.85000000e-009,-9.85156320e-004
,,,4.87500000e-009,-9.87500070e-004
,,,4.90000000e-009,-9.90625070e-004
,,,4.92500000e-009,-9.95312570e-004
,,,4.95000000e-009,-1.00000007e-003
,,,4.97500000e-009,-1.00156257e-003
,,,5.00000000e-009,-1.00234382e-003
,,,5.02500000e-009,-1.00156257e-003
,,,5.05000000e-009,-1.00156257e-003
,,,5.07500000e-009,-1.00078132e-003
,,,5.10000000e-009,-1.00000007e-003
,,,5.12500000e-009,-9.99218821e-004
,,,5.15000000e-009,-1.00000007e-003
,,,5.17500000e-009,-9.95312570e-004
,,,5.20000000e-009,-9.91406320e-004
,,,5.22500000e-009,-9.89062570e-004
,,,5.25000000e-009,-9.88281320e-004
,,,5.27500000e-009,-9.89062570e-004
,,,5.30000000e-009,-9.92187570e-004
,,,5.32500000e-009,-9.96093821e-004
,,,5.35000000e-009,-1.00000007e-003
,,,5.37500000e-009,-9.97656321e-004
,,,5.40000000e-009,-9.90625070e-004
,,,5.42500000e-009,-9.78906319e-004
,,,5.45000000e-009,-9.59375068e-004
,,,5.47500000e-009,-9.32031316e-004
,,,5.50000000e-009,-8.96093813e-004
,,,5.52500000e-009,-8.51562560e-004
,,,5.55000000e-009,-8.00000057e-004
,,,5.57500000e-009,-7.39843802e-004
,,,5.60000000e-009,-6.76562548e-004
,,,5.62500000e-009,-6.12500043e-004
,,,5.65000000e-009,-5.51562539e-004
,,,5.67500000e-009,-4.97656285e-004
,,,5.70000000e-009,-4.53125032e-004
,,,5.72500000e-009,-4.19531280e-004
,,,5.75000000e-009,-4.00000028e-004
,,,5.77500000e-009,-3.92187528e-004
,,,5.80000000e-009,-3.93750028e-004
,,,5.82500000e-009,-4.01562528e-004
,,,5.85000000e-009,-4.11718779e-004
