RawData/SinglePhotoelectron/R3_2pt2B_5mV/wave027_Ch2.csv

"Record Length",1000,"Points",-7.72500000e-009,0.00000000e+000
"Sample Interval",2.50000000e-011,s,-7.70000000e-009,4.68750033e-006
"Trigger Point",309,"Samples",-7.67500000e-009,1.09375008e-005
"Trigger Time",9.75943662e-012,s,-7.65000000e-009,1.56250011e-005
"",,,-7.62500000e-009,1.95312514e-005
"Horizontal Offset",-7.72500000e-009,s,-7.60000000e-009,2.03125014e-005
,,,-7.57500000e-009,1.79687513e-005
,,,-7.55000000e-009,1.09375008e-005
,,,-7.52500000e-009,0.00000000e+000
,,,-7.50000000e-009,-1.48437511e-005
,,,-7.47500000e-009,-3.43750024e-005
,,,-7.45000000e-009,-5.78125041e-005
,,,-7.42500000e-009,-8.43750060e-005
,,,-7.40000000e-009,-1.12500008e-004
,,,-7.37500000e-009,-1.42187510e-004
,,,-7.35000000e-009,-1.71875012e-004
,,,-7.32500000e-009,-2.00000014e-004
,,,-7.30000000e-009,-2.21875016e-004
,,,-7.27500000e-009,-2.39062517e-004
,,,-7.25000000e-009,-2.50781268e-004
,,,-7.22500000e-009,-2.54687518e-004
,,,-7.20000000e-009,-2.52343768e-004
,,,-7.17500000e-009,-2.41406267e-004
,,,-7.15000000e-009,-2.23437516e-004
,,,-7.12500000e-009,-2.00000014e-004
,,,-7.10000000e-009,-1.67968762e-004
,,,-7.07500000e-009,-1.34375010e-004
,,,-7.05000000e-009,-1.00000007e-004
,,,-7.02500000e-009,-6.79687548e-005
,,,-7.00000000e-009,-4.06250029e-005
,,,-6.97500000e-009,-1.95312514e-005
,,,-6.95000000e-009,-5.46875039e-006
,,,-6.92500000e-009,0.00000000e+000
,,,-6.90000000e-009,-7.81250055e-007
,,,-6.87500000e-009,-6.25000044e-006
,,,-6.85000000e-009,-1.48437511e-005
,,,-6.82500000e-009,-2.34375017e-005
,,,-6.80000000e-009,-2.81250020e-005
,,,-6.77500000e-009,-2.73437519e-005
,,,-6.75000000e-009,-1.79687513e-005
,,,-6.72500000e-009,0.00000000e+000
,,,-6.70000000e-009,2.73437519e-005
,,,-6.67500000e-009,6.09375043e-005
,,,-6.65000000e-009,9.84375070e-005
,,,-6.62500000e-009,1.34375010e-004
,,,-6.60000000e-009,1.66406262e-004
,,,-6.57500000e-009,1.89062513e-004
,,,-6.55000000e-009,2.00781264e-004
,,,-6.52500000e-009,2.00000014e-004
,,,-6.50000000e-009,1.83593763e-004
,,,-6.47500000e-009,1.56250011e-004
,,,-6.45000000e-009,1.21875009e-004
,,,-6.42500000e-009,8.43750060e-005
,,,-6.40000000e-009,4.92187535e-005
,,,-6.37500000e-009,2.10937515e-005
,,,-6.35000000e-009,3.12500022e-006
,,,-6.32500000e-009,0.00000000e+000
,,,-6.30000000e-009,9.37500066e-006
,,,-6.27500000e-009,3.12500022e-005
,,,-6.25000000e-009,6.32812545e-005
,,,-6.22500000e-009,1.00781257e-004
,,,-6.20000000e-009,1.37500010e-004
,,,-6.17500000e-009,1.68750012e-004
,,,-6.15000000e-009,1.90625013e-004
,,,-6.12500000e-009,2.00000014e-004
,,,-6.10000000e-009,1.91406264e-004
,,,-6.07500000e-009,1.71093762e-004
,,,-6.05000000e-009,1.39843760e-004
,,,-6.02500000e-009,1.03906257e-004
,,,-6.00000000e-009,6.71875048e-005
,,,-5.97500000e-009,3.43750024e-005
,,,-5.95000000e-009,1.09375008e-005
,,,-5.92500000e-009,0.00000000e+000
,,,-5.90000000e-009,2.34375017e-006
,,,-5.87500000e-009,1.79687513e-005
,,,-5.85000000e-009,4.53125032e-005
,,,-5.82500000e-009,7.96875056e-005
,,,-5.80000000e-009,1.17187508e-004
,,,-5.77500000e-009,1.52343761e-004
,,,-5.75000000e-009,1.81250013e-004
,,,-5.72500000e-009,2.00000014e-004
,,,-5.70000000e-009,2.03906264e-004
,,,-5.67500000e-009,1.94531264e-004
,,,-5.65000000e-009,1.73437512e-004
,,,-5.62500000e-009,1.42968760e-004
,,,-5.60000000e-009,1.07031258e-004
,,,-5.57500000e-009,6.87500049e-005
,,,-5.55000000e-009,3.12500022e-005
,,,-5.52500000e-009,0.00000000e+000
,,,-5.50000000e-009,-2.34375017e-005
,,,-5.47500000e-009,-3.82812527e-005
,,,-5.45000000e-009,-4.45312532e-005
,,,-5.42500000e-009,-4.29687530e-005
,,,-5.40000000e-009,-3.59375025e-005
,,,-5.37500000e-009,-2.50000018e-005
,,,-5.35000000e-009,-1.17187508e-005
,,,-5.32500000e-009,0.00000000e+000
,,,-5.30000000e-009,9.37500066e-006
,,,-5.27500000e-009,1.64062512e-005
,,,-5.25000000e-009,1.95312514e-005
,,,-5.22500000e-009,1.95312514e-005
,,,-5.20000000e-009,1.64062512e-005
,,,-5.17500000e-009,1.09375008e-005
,,,-5.15000000e-009,5.46875039e-006
,,,-5.12500000e-009,0.00000000e+000
,,,-5.10000000e-009,-3.90625028e-006
,,,-5.07500000e-009,-6.25000044e-006
,,,-5.05000000e-009,-7.03125050e-006
,,,-5.02500000e-009,-7.03125050e-006
,,,-5.00000000e-009,-6.25000044e-006
,,,-4.97500000e-009,-3.90625028e-006
,,,-4.95000000e-009,-1.56250011e-006
,,,-4.92500000e-009,0.00000000e+000
,,,-4.90000000e-009,7.81250055e-007
,,,-4.87500000e-009,7.81250055e-007
,,,-4.85000000e-009,0.00000000e+000
,,,-4.82500000e-009,0.00000000e+000
,,,-4.80000000e-009,0.00000000e+000
,,,-4.77500000e-009,-7.81250055e-007
,,,-4.75000000e-009,-7.81250055e-007
,,,-4.72500000e-009,0.00000000e+000
,,,-4.70000000e-009,1.56250011e-006
,,,-4.67500000e-009,3.90625028e-006
,,,-4.65000000e-009,6.25000044e-006
,,,-4.62500000e-009,7.03125050e-006
,,,-4.60000000e-009,7.03125050e-006
,,,-4.57500000e-009,6.25000044e-006
,,,-4.55000000e-009,3.90625028e-006
,,,-4.52500000e-009,0.00000000e+000
,,,-4.50000000e-009,-5.46875039e-006
,,,-4.47500000e-009,-1.09375008e-005
,,,-4.45000000e-009,-1.64062512e-005
,,,-4.42500000e-009,-1.95312514e-005
,,,-4.40000000e-009,-1.95312514e-005
,,,-4.37500000e-009,-1.64062512e-005
,,,-4.35000000e-009,-9.37500066e-006
,,,-4.32500000e-009,0.00000000e+000
,,,-4.30000000e-009,1.09375008e-005
,,,-4.27500000e-009,2.26562516e-005
,,,-4.25000000e-009,3.28125023e-005
,,,-4.22500000e-009,3.98437528e-005
,,,-4.20000000e-009,4.14062529e-005
,,,-4.17500000e-009,3.51562525e-005
,,,-4.15000000e-009,2.10937515e-005
,,,-4.12500000e-009,0.00000000e+000
,,,-4.10000000e-009,-2.96875021e-005
,,,-4.07500000e-009,-6.40625045e-005
,,,-4.05000000e-009,-1.00781257e-004
,,,-4.02500000e-009,-1.35156260e-004
,,,-4.00000000e-009,-1.65625012e-004
,,,-3.97500000e-009,-1.88281263e-004
,,,-3.95000000e-009,-2.00000014e-004
,,,-3.92500000e-009,-2.00000014e-004
,,,-3.90000000e-009,-1.86718763e-004
,,,-3.87500000e-009,-1.64062512e-004
,,,-3.85000000e-009,-1.33593759e-004
,,,-3.82500000e-009,-1.00000007e-004
,,,-3.80000000e-009,-6.56250046e-005
,,,-3.77500000e-009,-3.51562525e-005
,,,-3.75000000e-009,-1.25000009e-005
,,,-3.72500000e-009,0.00000000e+000
,,,-3.70000000e-009,0.00000000e+000
,,,-3.67500000e-009,-1.09375008e-005
,,,-3.65000000e-009,-3.35937524e-005
,,,-3.62500000e-009,-6.40625045e-005
,,,-3.60000000e-009,-9.84375070e-005
,,,-3.57500000e-009,-1.35156260e-004
,,,-3.55000000e-009,-1.69531262e-004
,,,-3.52500000e-009,-2.00000014e-004
,,,-3.50000000e-009,-2.20312516e-004
,,,-3.47500000e-009,-2.33593767e-004
,,,-3.45000000e-009,-2.38281267e-004
,,,-3.42500000e-009,-2.36718767e-004
,,,-3.40000000e-009,-2.29687516e-004
,,,-3.37500000e-009,-2.19531266e-004
,,,-3.35000000e-009,-2.09375015e-004
,,,-3.32500000e-009,-2.00000014e-004
,,,-3.30000000e-009,-1.91406264e-004
,,,-3.27500000e-009,-1.87500013e-004
,,,-3.25000000e-009,-1.85937513e-004
,,,-3.22500000e-009,-1.87500013e-004
,,,-3.20000000e-009,-1.90625013e-004
,,,-3.17500000e-009,-1.94531264e-004
,,,-3.15000000e-009,-1.97656264e-004
,,,-3.12500000e-009,-2.00000014e-004
,,,-3.10000000e-009,-1.98437514e-004
,,,-3.07500000e-009,-1.96875014e-004
,,,-3.05000000e-009,-1.93750014e-004
,,,-3.02500000e-009,-1.90625013e-004
,,,-3.00000000e-009,-1.89843763e-004
,,,-2.97500000e-009,-1.89843763e-004
,,,-2.95000000e-009,-1.93750014e-004
,,,-2.92500000e-009,-2.00000014e-004
,,,-2.90000000e-009,-2.08593765e-004
,,,-2.87500000e-009,-2.19531266e-004
,,,-2.85000000e-009,-2.28906266e-004
,,,-2.82500000e-009,-2.35156267e-004
,,,-2.80000000e-009,-2.37500017e-004
,,,-2.77500000e-009,-2.32812516e-004
,,,-2.75000000e-009,-2.20312516e-004
,,,-2.72500000e-009,-2.00000014e-004
,,,-2.70000000e-009,-1.71093762e-004
,,,-2.67500000e-009,-1.37500010e-004
,,,-2.65000000e-009,-1.02343757e-004
,,,-2.62500000e-009,-6.79687548e-005
,,,-2.60000000e-009,-3.82812527e-005
,,,-2.57500000e-009,-1.48437511e-005
,,,-2.55000000e-009,-1.56250011e-006
,,,-2.52500000e-009,0.00000000e+000
,,,-2.50000000e-009,-1.25000009e-005
,,,-2.47500000e-009,-3.51562525e-005
,,,-2.45000000e-009,-6.48437546e-005
,,,-2.42500000e-009,-9.84375070e-005
,,,-2.40000000e-009,-1.32031259e-004
,,,-2.37500000e-009,-1.62500012e-004
,,,-2.35000000e-009,-1.85156263e-004
,,,-2.32500000e-009,-2.00000014e-004
,,,-2.30000000e-009,-2.05468765e-004
,,,-2.27500000e-009,-2.03906264e-004
,,,-2.25000000e-009,-1.96875014e-004
,,,-2.22500000e-009,-1.87500013e-004
,,,-2.20000000e-009,-1.80468763e-004
,,,-2.17500000e-009,-1.78125013e-004
,,,-2.15000000e-009,-1.83593763e-004
,,,-2.12500000e-009,-2.00000014e-004
,,,-2.10000000e-009,-2.26562516e-004
,,,-2.07500000e-009,-2.61718769e-004
,,,-2.05000000e-009,-3.00781271e-004
,,,-2.02500000e-009,-3.39062524e-004
,,,-2.00000000e-009,-3.71875026e-004
,,,-1.97500000e-009,-3.95312528e-004
,,,-1.95000000e-009,-4.04687529e-004
,,,-1.92500000e-009,-4.00000028e-004
,,,-1.90000000e-009,-3.81250027e-004
,,,-1.87500000e-009,-3.51562525e-004
,,,-1.85000000e-009,-3.14062522e-004
,,,-1.82500000e-009,-2.74218769e-004
,,,-1.80000000e-009,-2.37500017e-004
,,,-1.77500000e-009,-2.10156265e-004
,,,-1.75000000e-009,-1.96093764e-004
,,,-1.72500000e-009,-2.00000014e-004
,,,-1.70000000e-009,-2.28906266e-004
,,,-1.67500000e-009,-2.75781270e-004
,,,-1.65000000e-009,-3.35156274e-004
,,,-1.62500000e-009,-4.01562528e-004
,,,-1.60000000e-009,-4.67187533e-004
,,,-1.57500000e-009,-5.26562537e-004
,,,-1.55000000e-009,-5.71875040e-004
,,,-1.52500000e-009,-6.00000042e-004
,,,-1.50000000e-009,-6.15625044e-004
,,,-1.47500000e-009,-6.13281293e-004
,,,-1.45000000e-009,-5.95312542e-004
,,,-1.42500000e-009,-5.64062540e-004
,,,-1.40000000e-009,-5.23437537e-004
,,,-1.37500000e-009,-4.79687534e-004
,,,-1.35000000e-009,-4.36718781e-004
,,,-1.32500000e-009,-4.00000028e-004
,,,-1.30000000e-009,-3.89843778e-004
,,,-1.27500000e-009,-3.94531278e-004
,,,-1.25000000e-009,-4.13281279e-004
,,,-1.22500000e-009,-4.43750031e-004
,,,-1.20000000e-009,-4.81250034e-004
,,,-1.17500000e-009,-5.21875037e-004
,,,-1.15000000e-009,-5.61718790e-004
,,,-1.12500000e-009,-6.00000042e-004
,,,-1.10000000e-009,-6.50781296e-004
,,,-1.07500000e-009,-7.00781300e-004
,,,-1.05000000e-009,-7.49218803e-004
,,,-1.02500000e-009,-7.96875056e-004
,,,-1.00000000e-009,-8.43750060e-004
,,,-9.75000000e-010,-8.92187563e-004
,,,-9.50000000e-010,-9.42968817e-004
,,,-9.25000000e-010,-1.00000007e-003
,,,-9.00000000e-010,-1.08125008e-003
,,,-8.75000000e-010,-1.17265633e-003
,,,-8.50000000e-010,-1.27265634e-003
,,,-8.25000000e-010,-1.37812510e-003
,,,-8.00000000e-010,-1.48593761e-003
,,,-7.75000000e-010,-1.59296886e-003
,,,-7.50000000e-010,-1.69765637e-003
,,,-7.25000000e-010,-1.80000013e-003
,,,-7.00000000e-010,-1.91171889e-003
,,,-6.75000000e-010,-2.02656264e-003
,,,-6.50000000e-010,-2.14375015e-003
,,,-6.25000000e-010,-2.26484391e-003
,,,-6.00000000e-010,-2.38984392e-003
,,,-5.75000000e-010,-2.52109393e-003
,,,-5.50000000e-010,-2.65703144e-003
,,,-5.25000000e-010,-2.80000020e-003
,,,-5.00000000e-010,-2.95390646e-003
,,,-4.75000000e-010,-3.11562522e-003
,,,-4.50000000e-010,-3.27968773e-003
,,,-4.25000000e-010,-3.44296899e-003
,,,-4.00000000e-010,-3.60078150e-003
,,,-3.75000000e-010,-3.74843777e-003
,,,-3.50000000e-010,-3.88203152e-003
,,,-3.25000000e-010,-4.00000028e-003
,,,-3.00000000e-010,-4.09687529e-003
,,,-2.75000000e-010,-4.18203155e-003
,,,-2.50000000e-010,-4.25859405e-003
,,,-2.25000000e-010,-4.32890656e-003
,,,-2.00000000e-010,-4.39609406e-003
,,,-1.75000000e-010,-4.46093782e-003
,,,-1.50000000e-010,-4.52812532e-003
,,,-1.25000000e-010,-4.60000033e-003
,,,-1.00000000e-010,-4.66562533e-003
,,,-7.50000000e-011,-4.74453159e-003
,,,-5.00000000e-011,-4.83515659e-003
,,,-2.50000000e-011,-4.93671910e-003
,,,0.00000000e+000,-5.04765661e-003
,,,2.50000000e-011,-5.16406287e-003
,,,5.00000000e-011,-5.28281287e-003
,,,7.50000000e-011,-5.40000038e-003
,,,1.00000000e-010,-5.49296914e-003
,,,1.25000000e-010,-5.58359415e-003
,,,1.50000000e-010,-5.66953165e-003
,,,1.75000000e-010,-5.74921916e-003
,,,2.00000000e-010,-5.82343791e-003
,,,2.25000000e-010,-5.88984417e-003
,,,2.50000000e-010,-5.94843792e-003
,,,2.75000000e-010,-6.00000042e-003
,,,3.00000000e-010,-6.01875043e-003
,,,3.25000000e-010,-6.03593793e-003
,,,3.50000000e-010,-6.05390668e-003
,,,3.75000000e-010,-6.07421918e-003
,,,4.00000000e-010,-6.09921918e-003
,,,4.25000000e-010,-6.12812543e-003
,,,4.50000000e-010,-6.16250044e-003
,,,4.75000000e-010,-6.20000044e-003
,,,5.00000000e-010,-6.21250044e-003
,,,5.25000000e-010,-6.22656294e-003
,,,5.50000000e-010,-6.23906294e-003
,,,5.75000000e-010,-6.24843794e-003
,,,6.00000000e-010,-6.25156294e-003
,,,6.25000000e-010,-6.24609419e-003
,,,6.50000000e-010,-6.22968794e-003
,,,6.75000000e-010,-6.20000044e-003
,,,7.00000000e-010,-6.13515668e-003
,,,7.25000000e-010,-6.05937543e-003
,,,7.50000000e-010,-5.97734417e-003
,,,7.75000000e-010,-5.89218792e-003
,,,8.00000000e-010,-5.80859416e-003
,,,8.25000000e-010,-5.73046916e-003
,,,8.50000000e-010,-5.66015665e-003
,,,8.75000000e-010,-5.60000040e-003
,,,9.00000000e-010,-5.53281289e-003
,,,9.25000000e-010,-5.47578164e-003
,,,9.50000000e-010,-5.42656288e-003
,,,9.75000000e-010,-5.38281288e-003
,,,1.00000000e-009,-5.34218788e-003
,,,1.02500000e-009,-5.30000038e-003
,,,1.05000000e-009,-5.25390662e-003
,,,1.07500000e-009,-5.20000037e-003
,,,1.10000000e-009,-5.12265661e-003
,,,1.12500000e-009,-5.03281286e-003
,,,1.15000000e-009,-4.93359410e-003
,,,1.17500000e-009,-4.82734409e-003
,,,1.20000000e-009,-4.71640658e-003
,,,1.22500000e-009,-4.60625033e-003
,,,1.25000000e-009,-4.50000032e-003
,,,1.27500000e-009,-4.40000031e-003
,,,1.30000000e-009,-4.30078155e-003
,,,1.32500000e-009,-4.20859405e-003
,,,1.35000000e-009,-4.12343779e-003
,,,1.37500000e-009,-4.04609404e-003
,,,1.40000000e-009,-3.97500028e-003
,,,1.42500000e-009,-3.91171903e-003
,,,1.45000000e-009,-3.85312527e-003
,,,1.47500000e-009,-3.80000027e-003
,,,1.50000000e-009,-3.74765652e-003
,,,1.52500000e-009,-3.69453151e-003
,,,1.55000000e-009,-3.64062526e-003
,,,1.57500000e-009,-3.58671900e-003
,,,1.60000000e-009,-3.53437525e-003
,,,1.62500000e-009,-3.48515650e-003
,,,1.65000000e-009,-3.44062524e-003
,,,1.67500000e-009,-3.40000024e-003
,,,1.70000000e-009,-3.36328149e-003
,,,1.72500000e-009,-3.32500024e-003
,,,1.75000000e-009,-3.28359398e-003
,,,1.77500000e-009,-3.23828148e-003
,,,1.80000000e-009,-3.18750023e-003
,,,1.82500000e-009,-3.13125022e-003
,,,1.85000000e-009,-3.06875022e-003
,,,1.87500000e-009,-3.00000021e-003
,,,1.90000000e-009,-2.92343771e-003
,,,1.92500000e-009,-2.83750020e-003
,,,1.95000000e-009,-2.74140644e-003
,,,1.97500000e-009,-2.63750019e-003
,,,2.00000000e-009,-2.52812518e-003
,,,2.02500000e-009,-2.41718767e-003
,,,2.05000000e-009,-2.30703141e-003
,,,2.07500000e-009,-2.20000016e-003
,,,2.10000000e-009,-2.10312515e-003
,,,2.12500000e-009,-2.01093764e-003
,,,2.15000000e-009,-1.92343764e-003
,,,2.17500000e-009,-1.84296888e-003
,,,2.20000000e-009,-1.76875013e-003
,,,2.22500000e-009,-1.70312512e-003
,,,2.25000000e-009,-1.64687512e-003
,,,2.27500000e-009,-1.60000011e-003
,,,2.30000000e-009,-1.56718761e-003
,,,2.32500000e-009,-1.53828136e-003
,,,2.35000000e-009,-1.51171886e-003
,,,2.37500000e-009,-1.48750011e-003
,,,2.40000000e-009,-1.46406260e-003
,,,2.42500000e-009,-1.44140635e-003
,,,2.45000000e-009,-1.42031260e-003
,,,2.47500000e-009,-1.40000010e-003
,,,2.50000000e-009,-1.38437510e-003
,,,2.52500000e-009,-1.36562510e-003
,,,2.55000000e-009,-1.34375010e-003
,,,2.57500000e-009,-1.31796884e-003
,,,2.60000000e-009,-1.28984384e-003
,,,2.62500000e-009,-1.25937509e-003
,,,2.65000000e-009,-1.22968759e-003
,,,2.67500000e-009,-1.20000008e-003
,,,2.70000000e-009,-1.17656258e-003
,,,2.72500000e-009,-1.15234383e-003
,,,2.75000000e-009,-1.12656258e-003
,,,2.77500000e-009,-1.10078133e-003
,,,2.80000000e-009,-1.07421883e-003
,,,2.82500000e-009,-1.04843757e-003
,,,2.85000000e-009,-1.02343757e-003
,,,2.87500000e-009,-1.00000007e-003
,,,2.90000000e-009,-9.82812570e-004
,,,2.92500000e-009,-9.63281318e-004
,,,2.95000000e-009,-9.42187567e-004
,,,2.97500000e-009,-9.17187565e-004
,,,3.00000000e-009,-8.90625063e-004
,,,3.02500000e-009,-8.61718811e-004
,,,3.05000000e-009,-8.31250059e-004
,,,3.07500000e-009,-8.00000057e-004
,,,3.10000000e-009,-7.71875055e-004
,,,3.12500000e-009,-7.43750053e-004
,,,3.15000000e-009,-7.14843801e-004
,,,3.17500000e-009,-6.86718799e-004
,,,3.20000000e-009,-6.60156297e-004
,,,3.22500000e-009,-6.35937545e-004
,,,3.25000000e-009,-6.15625044e-004
,,,3.27500000e-009,-6.00000042e-004
,,,3.30000000e-009,-5.92187542e-004
,,,3.32500000e-009,-5.87500042e-004
,,,3.35000000e-009,-5.85937541e-004
,,,3.37500000e-009,-5.86718792e-004
,,,3.40000000e-009,-5.89062542e-004
,,,3.42500000e-009,-5.92187542e-004
,,,3.45000000e-009,-5.96093792e-004
,,,3.47500000e-009,-6.00000042e-004
,,,3.50000000e-009,-6.04687543e-004
,,,3.52500000e-009,-6.07031293e-004
,,,3.55000000e-009,-6.08593793e-004
,,,3.57500000e-009,-6.07031293e-004
,,,3.60000000e-009,-6.05468793e-004
,,,3.62500000e-009,-6.03125043e-004
,,,3.65000000e-009,-6.00781293e-004
,,,3.67500000e-009,-6.00000042e-004
,,,3.70000000e-009,-6.01562543e-004
,,,3.72500000e-009,-6.03125043e-004
,,,3.75000000e-009,-6.05468793e-004
,,,3.77500000e-009,-6.06250043e-004
,,,3.80000000e-009,-6.06250043e-004
,,,3.82500000e-009,-6.05468793e-004
,,,3.85000000e-009,-6.03125043e-004
,,,3.87500000e-009,-6.00000042e-004
,,,3.90000000e-009,-5.94531292e-004
,,,3.92500000e-009,-5.89062542e-004
,,,3.95000000e-009,-5.83593791e-004
,,,3.97500000e-009,-5.79687541e-004
,,,4.00000000e-009,-5.78906291e-004
,,,4.02500000e-009,-5.82031291e-004
,,,4.05000000e-009,-5.88281292e-004
,,,4.07500000e-009,-6.00000042e-004
,,,4.10000000e-009,-6.13281293e-004
,,,4.12500000e-009,-6.27343794e-004
,,,4.15000000e-009,-6.39062545e-004
,,,4.17500000e-009,-6.47656296e-004
,,,4.20000000e-009,-6.48437546e-004
,,,4.22500000e-009,-6.42187545e-004
,,,4.25000000e-009,-6.25781294e-004
,,,4.27500000e-009,-6.00000042e-004
,,,4.30000000e-009,-5.64843790e-004
,,,4.32500000e-009,-5.25781287e-004
,,,4.35000000e-009,-4.85156284e-004
,,,4.37500000e-009,-4.47656282e-004
,,,4.40000000e-009,-4.17187530e-004
,,,4.42500000e-009,-3.97656278e-004
,,,4.45000000e-009,-3.91406278e-004
,,,4.47500000e-009,-4.00000028e-004
,,,4.50000000e-009,-4.21875030e-004
,,,4.52500000e-009,-4.53906282e-004
,,,4.55000000e-009,-4.92187535e-004
,,,4.57500000e-009,-5.32031288e-004
,,,4.60000000e-009,-5.67187540e-004
,,,4.62500000e-009,-5.92968792e-004
,,,4.65000000e-009,-6.04687543e-004
,,,4.67500000e-009,-6.00000042e-004
,,,4.70000000e-009,-5.75000041e-004
,,,4.72500000e-009,-5.32812538e-004
,,,4.75000000e-009,-4.78906284e-004
,,,4.77500000e-009,-4.15625029e-004
,,,4.80000000e-009,-3.50781275e-004
,,,4.82500000e-009,-2.89843771e-004
,,,4.85000000e-009,-2.37500017e-004
,,,4.87500000e-009,-2.00000014e-004
,,,4.90000000e-009,-1.79687513e-004
,,,4.92500000e-009,-1.77343763e-004
,,,4.95000000e-009,-1.91406264e-004
,,,4.97500000e-009,-2.20312516e-004
,,,5.00000000e-009,-2.60156268e-004
,,,5.02500000e-009,-3.06250022e-004
,,,5.05000000e-009,-3.53906275e-004
,,,5.07500000e-009,-4.00000028e-004
,,,5.10000000e-009,-4.38281281e-004
,,,5.12500000e-009,-4.66406283e-004
,,,5.15000000e-009,-4.82812534e-004
,,,5.17500000e-009,-4.86718784e-004
,,,5.20000000e-009,-4.78906284e-004
,,,5.22500000e-009,-4.60156283e-004
,,,5.25000000e-009,-4.32812531e-004
,,,5.27500000e-009,-4.00000028e-004
,,,5.30000000e-009,-3.63281276e-004
,,,5.32500000e-009,-3.25781273e-004
,,,5.35000000e-009,-2.90625021e-004
,,,5.37500000e-009,-2.59375018e-004
,,,5.40000000e-009,-2.34375017e-004
,,,5.42500000e-009,-2.15625015e-004
,,,5.45000000e-009,-2.03906264e-004
,,,5.47500000e-009,-2.00000014e-004
,,,5.50000000e-009,-2.01562514e-004
,,,5.52500000e-009,-2.07812515e-004
,,,5.55000000e-009,-2.15625015e-004
,,,5.57500000e-009,-2.22656266e-004
,,,5.60000000e-009,-2.26562516e-004
,,,5.62500000e-009,-2.24218766e-004
,,,5.65000000e-009,-2.15625015e-004
,,,5.67500000e-009,-2.00000014e-004
,,,5.70000000e-009,-1.77343763e-004
,,,5.72500000e-009,-1.50000011e-004
,,,5.75000000e-009,-1.17968758e-004
,,,5.77500000e-009,-8.43750060e-005
,,,5.80000000e-009,-5.31250038e-005
,,,5.82500000e-009,-2.65625019e-005
,,,5.85000000e-009,-8.59375061e-006
,,,5.87500000e-009,0.00000000e+000
