RawData/SinglePhotoelectron/R3_2pt2B_5mV/wave020_Ch2.csv

"Record Length",1000,"Points",-7.72500000e-009,5.46875039e-006
"Sample Interval",2.50000000e-011,s,-7.70000000e-009,7.81250055e-006
"Trigger Point",309,"Samples",-7.67500000e-009,8.59375061e-006
"Trigger Time",1.95929167e-011,s,-7.65000000e-009,7.81250055e-006
"",,,-7.62500000e-009,6.25000044e-006
"Horizontal Offset",-7.72500000e-009,s,-7.60000000e-009,3.90625028e-006
,,,-7.57500000e-009,1.56250011e-006
,,,-7.55000000e-009,0.00000000e+000
,,,-7.52500000e-009,-3.90625028e-006
,,,-7.50000000e-009,-6.25000044e-006
,,,-7.47500000e-009,-7.81250055e-006
,,,-7.45000000e-009,-7.03125050e-006
,,,-7.42500000e-009,-6.25000044e-006
,,,-7.40000000e-009,-3.90625028e-006
,,,-7.37500000e-009,-1.56250011e-006
,,,-7.35000000e-009,0.00000000e+000
,,,-7.32500000e-009,0.00000000e+000
,,,-7.30000000e-009,0.00000000e+000
,,,-7.27500000e-009,7.81250055e-007
,,,-7.25000000e-009,7.81250055e-007
,,,-7.22500000e-009,0.00000000e+000
,,,-7.20000000e-009,0.00000000e+000
,,,-7.17500000e-009,0.00000000e+000
,,,-7.15000000e-009,0.00000000e+000
,,,-7.12500000e-009,-1.56250011e-006
,,,-7.10000000e-009,-2.34375017e-006
,,,-7.07500000e-009,-3.12500022e-006
,,,-7.05000000e-009,-3.12500022e-006
,,,-7.02500000e-009,-2.34375017e-006
,,,-7.00000000e-009,-1.56250011e-006
,,,-6.97500000e-009,-7.81250055e-007
,,,-6.95000000e-009,0.00000000e+000
,,,-6.92500000e-009,0.00000000e+000
,,,-6.90000000e-009,0.00000000e+000
,,,-6.87500000e-009,0.00000000e+000
,,,-6.85000000e-009,0.00000000e+000
,,,-6.82500000e-009,0.00000000e+000
,,,-6.80000000e-009,0.00000000e+000
,,,-6.77500000e-009,0.00000000e+000
,,,-6.75000000e-009,0.00000000e+000
,,,-6.72500000e-009,0.00000000e+000
,,,-6.70000000e-009,0.00000000e+000
,,,-6.67500000e-009,0.00000000e+000
,,,-6.65000000e-009,0.00000000e+000
,,,-6.62500000e-009,0.00000000e+000
,,,-6.60000000e-009,0.00000000e+000
,,,-6.57500000e-009,0.00000000e+000
,,,-6.55000000e-009,0.00000000e+000
,,,-6.52500000e-009,0.00000000e+000
,,,-6.50000000e-009,0.00000000e+000
,,,-6.47500000e-009,0.00000000e+000
,,,-6.45000000e-009,0.00000000e+000
,,,-6.42500000e-009,0.00000000e+000
,,,-6.40000000e-009,0.00000000e+000
,,,-6.37500000e-009,0.00000000e+000
,,,-6.35000000e-009,0.00000000e+000
,,,-6.32500000e-009,0.00000000e+000
,,,-6.30000000e-009,0.00000000e+000
,,,-6.27500000e-009,0.00000000e+000
,,,-6.25000000e-009,0.00000000e+000
,,,-6.22500000e-009,0.00000000e+000
,,,-6.20000000e-009,0.00000000e+000
,,,-6.17500000e-009,0.00000000e+000
,,,-6.15000000e-009,0.00000000e+000
,,,-6.12500000e-009,-7.81250055e-007
,,,-6.10000000e-009,-1.56250011e-006
,,,-6.07500000e-009,-2.34375017e-006
,,,-6.05000000e-009,-3.12500022e-006
,,,-6.02500000e-009,-3.12500022e-006
,,,-6.00000000e-009,-2.34375017e-006
,,,-5.97500000e-009,-1.56250011e-006
,,,-5.95000000e-009,0.00000000e+000
,,,-5.92500000e-009,0.00000000e+000
,,,-5.90000000e-009,-7.81250055e-007
,,,-5.87500000e-009,-1.56250011e-006
,,,-5.85000000e-009,-2.34375017e-006
,,,-5.82500000e-009,-2.34375017e-006
,,,-5.80000000e-009,-2.34375017e-006
,,,-5.77500000e-009,-7.81250055e-007
,,,-5.75000000e-009,0.00000000e+000
,,,-5.72500000e-009,7.81250055e-007
,,,-5.70000000e-009,1.56250011e-006
,,,-5.67500000e-009,2.34375017e-006
,,,-5.65000000e-009,3.12500022e-006
,,,-5.62500000e-009,3.12500022e-006
,,,-5.60000000e-009,2.34375017e-006
,,,-5.57500000e-009,1.56250011e-006
,,,-5.55000000e-009,0.00000000e+000
,,,-5.52500000e-009,-3.12500022e-006
,,,-5.50000000e-009,-7.03125050e-006
,,,-5.47500000e-009,-1.01562507e-005
,,,-5.45000000e-009,-1.17187508e-005
,,,-5.42500000e-009,-1.09375008e-005
,,,-5.40000000e-009,-8.59375061e-006
,,,-5.37500000e-009,-4.68750033e-006
,,,-5.35000000e-009,0.00000000e+000
,,,-5.32500000e-009,2.34375017e-006
,,,-5.30000000e-009,1.56250011e-006
,,,-5.27500000e-009,-4.68750033e-006
,,,-5.25000000e-009,-2.03125014e-005
,,,-5.22500000e-009,-4.68750033e-005
,,,-5.20000000e-009,-8.51562560e-005
,,,-5.17500000e-009,-1.36718760e-004
,,,-5.15000000e-009,-2.00000014e-004
,,,-5.12500000e-009,-2.69531269e-004
,,,-5.10000000e-009,-3.43750024e-004
,,,-5.07500000e-009,-4.17187530e-004
,,,-5.05000000e-009,-4.84375034e-004
,,,-5.02500000e-009,-5.39843788e-004
,,,-5.00000000e-009,-5.79687541e-004
,,,-4.97500000e-009,-6.00781293e-004
,,,-4.95000000e-009,-6.00000042e-004
,,,-4.92500000e-009,-5.72656291e-004
,,,-4.90000000e-009,-5.27343787e-004
,,,-4.87500000e-009,-4.68750033e-004
,,,-4.85000000e-009,-4.03906279e-004
,,,-4.82500000e-009,-3.38281274e-004
,,,-4.80000000e-009,-2.78906270e-004
,,,-4.77500000e-009,-2.31250016e-004
,,,-4.75000000e-009,-2.00000014e-004
,,,-4.72500000e-009,-1.85156263e-004
,,,-4.70000000e-009,-1.89062513e-004
,,,-4.67500000e-009,-2.10156265e-004
,,,-4.65000000e-009,-2.43750017e-004
,,,-4.62500000e-009,-2.85156270e-004
,,,-4.60000000e-009,-3.28906273e-004
,,,-4.57500000e-009,-3.67968776e-004
,,,-4.55000000e-009,-4.00000028e-004
,,,-4.52500000e-009,-4.14843779e-004
,,,-4.50000000e-009,-4.16406279e-004
,,,-4.47500000e-009,-4.02343778e-004
,,,-4.45000000e-009,-3.76562527e-004
,,,-4.42500000e-009,-3.39843774e-004
,,,-4.40000000e-009,-2.96093771e-004
,,,-4.37500000e-009,-2.47656268e-004
,,,-4.35000000e-009,-2.00000014e-004
,,,-4.32500000e-009,-1.53125011e-004
,,,-4.30000000e-009,-1.12500008e-004
,,,-4.27500000e-009,-7.89062556e-005
,,,-4.25000000e-009,-5.15625036e-005
,,,-4.22500000e-009,-3.12500022e-005
,,,-4.20000000e-009,-1.64062512e-005
,,,-4.17500000e-009,-6.25000044e-006
,,,-4.15000000e-009,0.00000000e+000
,,,-4.12500000e-009,2.34375017e-006
,,,-4.10000000e-009,3.90625028e-006
,,,-4.07500000e-009,4.68750033e-006
,,,-4.05000000e-009,4.68750033e-006
,,,-4.02500000e-009,3.90625028e-006
,,,-4.00000000e-009,3.12500022e-006
,,,-3.97500000e-009,1.56250011e-006
,,,-3.95000000e-009,0.00000000e+000
,,,-3.92500000e-009,-5.46875039e-006
,,,-3.90000000e-009,-1.01562507e-005
,,,-3.87500000e-009,-1.40625010e-005
,,,-3.85000000e-009,-1.64062512e-005
,,,-3.82500000e-009,-1.56250011e-005
,,,-3.80000000e-009,-1.25000009e-005
,,,-3.77500000e-009,-7.03125050e-006
,,,-3.75000000e-009,0.00000000e+000
,,,-3.72500000e-009,6.25000044e-006
,,,-3.70000000e-009,1.40625010e-005
,,,-3.67500000e-009,2.03125014e-005
,,,-3.65000000e-009,2.42187517e-005
,,,-3.62500000e-009,2.50000018e-005
,,,-3.60000000e-009,2.18750015e-005
,,,-3.57500000e-009,1.32812509e-005
,,,-3.55000000e-009,0.00000000e+000
,,,-3.52500000e-009,-2.18750015e-005
,,,-3.50000000e-009,-4.84375034e-005
,,,-3.47500000e-009,-7.65625054e-005
,,,-3.45000000e-009,-1.06250008e-004
,,,-3.42500000e-009,-1.35156260e-004
,,,-3.40000000e-009,-1.60937511e-004
,,,-3.37500000e-009,-1.82812513e-004
,,,-3.35000000e-009,-2.00000014e-004
,,,-3.32500000e-009,-2.12500015e-004
,,,-3.30000000e-009,-2.21093766e-004
,,,-3.27500000e-009,-2.23437516e-004
,,,-3.25000000e-009,-2.22656266e-004
,,,-3.22500000e-009,-2.18750015e-004
,,,-3.20000000e-009,-2.12500015e-004
,,,-3.17500000e-009,-2.06250015e-004
,,,-3.15000000e-009,-2.00000014e-004
,,,-3.12500000e-009,-1.93750014e-004
,,,-3.10000000e-009,-1.89843763e-004
,,,-3.07500000e-009,-1.88281263e-004
,,,-3.05000000e-009,-1.88281263e-004
,,,-3.02500000e-009,-1.90625013e-004
,,,-3.00000000e-009,-1.92968764e-004
,,,-2.97500000e-009,-1.96875014e-004
,,,-2.95000000e-009,-2.00000014e-004
,,,-2.92500000e-009,-2.00781264e-004
,,,-2.90000000e-009,-2.01562514e-004
,,,-2.87500000e-009,-2.01562514e-004
,,,-2.85000000e-009,-2.00781264e-004
,,,-2.82500000e-009,-1.99218764e-004
,,,-2.80000000e-009,-1.97656264e-004
,,,-2.77500000e-009,-1.97656264e-004
,,,-2.75000000e-009,-2.00000014e-004
,,,-2.72500000e-009,-2.03906264e-004
,,,-2.70000000e-009,-2.12500015e-004
,,,-2.67500000e-009,-2.27343766e-004
,,,-2.65000000e-009,-2.48437518e-004
,,,-2.62500000e-009,-2.76562520e-004
,,,-2.60000000e-009,-3.11718772e-004
,,,-2.57500000e-009,-3.53125025e-004
,,,-2.55000000e-009,-4.00000028e-004
,,,-2.52500000e-009,-4.46093782e-004
,,,-2.50000000e-009,-4.92187535e-004
,,,-2.47500000e-009,-5.35156288e-004
,,,-2.45000000e-009,-5.71093790e-004
,,,-2.42500000e-009,-5.97656292e-004
,,,-2.40000000e-009,-6.12500043e-004
,,,-2.37500000e-009,-6.14062543e-004
,,,-2.35000000e-009,-6.00000042e-004
,,,-2.32500000e-009,-5.68750040e-004
,,,-2.30000000e-009,-5.25781287e-004
,,,-2.27500000e-009,-4.72656283e-004
,,,-2.25000000e-009,-4.14843779e-004
,,,-2.22500000e-009,-3.54687525e-004
,,,-2.20000000e-009,-2.96875021e-004
,,,-2.17500000e-009,-2.43750017e-004
,,,-2.15000000e-009,-2.00000014e-004
,,,-2.12500000e-009,-1.67968762e-004
,,,-2.10000000e-009,-1.49218761e-004
,,,-2.07500000e-009,-1.41406260e-004
,,,-2.05000000e-009,-1.42968760e-004
,,,-2.02500000e-009,-1.53125011e-004
,,,-2.00000000e-009,-1.67187512e-004
,,,-1.97500000e-009,-1.83593763e-004
,,,-1.95000000e-009,-2.00000014e-004
,,,-1.92500000e-009,-2.16406265e-004
,,,-1.90000000e-009,-2.29687516e-004
,,,-1.87500000e-009,-2.36718767e-004
,,,-1.85000000e-009,-2.39062517e-004
,,,-1.82500000e-009,-2.35156267e-004
,,,-1.80000000e-009,-2.27343766e-004
,,,-1.77500000e-009,-2.14843765e-004
,,,-1.75000000e-009,-2.00000014e-004
,,,-1.72500000e-009,-1.89843763e-004
,,,-1.70000000e-009,-1.82031263e-004
,,,-1.67500000e-009,-1.76562512e-004
,,,-1.65000000e-009,-1.74218762e-004
,,,-1.62500000e-009,-1.75000012e-004
,,,-1.60000000e-009,-1.79687513e-004
,,,-1.57500000e-009,-1.88281263e-004
,,,-1.55000000e-009,-2.00000014e-004
,,,-1.52500000e-009,-2.24218766e-004
,,,-1.50000000e-009,-2.52343768e-004
,,,-1.47500000e-009,-2.82031270e-004
,,,-1.45000000e-009,-3.11718772e-004
,,,-1.42500000e-009,-3.39062524e-004
,,,-1.40000000e-009,-3.63281276e-004
,,,-1.37500000e-009,-3.83593777e-004
,,,-1.35000000e-009,-4.00000028e-004
,,,-1.32500000e-009,-4.28125030e-004
,,,-1.30000000e-009,-4.55468782e-004
,,,-1.27500000e-009,-4.82031284e-004
,,,-1.25000000e-009,-5.06250036e-004
,,,-1.22500000e-009,-5.30468788e-004
,,,-1.20000000e-009,-5.53125039e-004
,,,-1.17500000e-009,-5.75781291e-004
,,,-1.15000000e-009,-6.00000042e-004
,,,-1.12500000e-009,-6.42968796e-004
,,,-1.10000000e-009,-6.91406299e-004
,,,-1.07500000e-009,-7.44531303e-004
,,,-1.05000000e-009,-7.99218807e-004
,,,-1.02500000e-009,-8.53906310e-004
,,,-1.00000000e-009,-9.06250064e-004
,,,-9.75000000e-010,-9.55468818e-004
,,,-9.50000000e-010,-1.00000007e-003
,,,-9.25000000e-010,-1.05625007e-003
,,,-9.00000000e-010,-1.11250008e-003
,,,-8.75000000e-010,-1.16640633e-003
,,,-8.50000000e-010,-1.21718759e-003
,,,-8.25000000e-010,-1.26562509e-003
,,,-8.00000000e-010,-1.31093759e-003
,,,-7.75000000e-010,-1.35546885e-003
,,,-7.50000000e-010,-1.40000010e-003
,,,-7.25000000e-010,-1.46171885e-003
,,,-7.00000000e-010,-1.53281261e-003
,,,-6.75000000e-010,-1.61484386e-003
,,,-6.50000000e-010,-1.70781262e-003
,,,-6.25000000e-010,-1.81328138e-003
,,,-6.00000000e-010,-1.93046889e-003
,,,-5.75000000e-010,-2.05937515e-003
,,,-5.50000000e-010,-2.20000016e-003
,,,-5.25000000e-010,-2.35625017e-003
,,,-5.00000000e-010,-2.52500018e-003
,,,-4.75000000e-010,-2.70234394e-003
,,,-4.50000000e-010,-2.88515645e-003
,,,-4.25000000e-010,-3.06953147e-003
,,,-4.00000000e-010,-3.25234398e-003
,,,-3.75000000e-010,-3.42968774e-003
,,,-3.50000000e-010,-3.60000025e-003
,,,-3.25000000e-010,-3.75234402e-003
,,,-3.00000000e-010,-3.89687528e-003
,,,-2.75000000e-010,-4.03359404e-003
,,,-2.50000000e-010,-4.16171904e-003
,,,-2.25000000e-010,-4.28203155e-003
,,,-2.00000000e-010,-4.39453156e-003
,,,-1.75000000e-010,-4.50000032e-003
,,,-1.50000000e-010,-4.60000033e-003
,,,-1.25000000e-010,-4.67812533e-003
,,,-1.00000000e-010,-4.75546909e-003
,,,-7.50000000e-011,-4.83281284e-003
,,,-5.00000000e-011,-4.91015660e-003
,,,-2.50000000e-011,-4.98671910e-003
,,,0.00000000e+000,-5.06171911e-003
,,,2.50000000e-011,-5.13281286e-003
,,,5.00000000e-011,-5.20000037e-003
,,,7.50000000e-011,-5.23828162e-003
,,,1.00000000e-010,-5.27343787e-003
,,,1.25000000e-010,-5.30468788e-003
,,,1.50000000e-010,-5.33281288e-003
,,,1.75000000e-010,-5.35703163e-003
,,,2.00000000e-010,-5.37734413e-003
,,,2.25000000e-010,-5.39140663e-003
,,,2.50000000e-010,-5.40000038e-003
,,,2.75000000e-010,-5.37500038e-003
,,,3.00000000e-010,-5.34843788e-003
,,,3.25000000e-010,-5.32031288e-003
,,,3.50000000e-010,-5.29218787e-003
,,,3.75000000e-010,-5.26640662e-003
,,,4.00000000e-010,-5.24218787e-003
,,,4.25000000e-010,-5.21953162e-003
,,,4.50000000e-010,-5.20000037e-003
,,,4.75000000e-010,-5.15781287e-003
,,,5.00000000e-010,-5.12109411e-003
,,,5.25000000e-010,-5.08828161e-003
,,,5.50000000e-010,-5.06171911e-003
,,,5.75000000e-010,-5.03984411e-003
,,,6.00000000e-010,-5.02343786e-003
,,,6.25000000e-010,-5.01015660e-003
,,,6.50000000e-010,-5.00000035e-003
,,,6.75000000e-010,-4.97187535e-003
,,,7.00000000e-010,-4.94375035e-003
,,,7.25000000e-010,-4.91718785e-003
,,,7.50000000e-010,-4.89140660e-003
,,,7.75000000e-010,-4.86796909e-003
,,,8.00000000e-010,-4.84531284e-003
,,,8.25000000e-010,-4.82343784e-003
,,,8.50000000e-010,-4.80000034e-003
,,,8.75000000e-010,-4.75625034e-003
,,,9.00000000e-010,-4.70546908e-003
,,,9.25000000e-010,-4.64687533e-003
,,,9.50000000e-010,-4.57812532e-003
,,,9.75000000e-010,-4.49921907e-003
,,,1.00000000e-009,-4.40937531e-003
,,,1.02500000e-009,-4.30937531e-003
,,,1.05000000e-009,-4.20000030e-003
,,,1.07500000e-009,-4.07109404e-003
,,,1.10000000e-009,-3.93515653e-003
,,,1.12500000e-009,-3.79531277e-003
,,,1.15000000e-009,-3.65703151e-003
,,,1.17500000e-009,-3.52421900e-003
,,,1.20000000e-009,-3.40156274e-003
,,,1.22500000e-009,-3.29218773e-003
,,,1.25000000e-009,-3.20000023e-003
,,,1.27500000e-009,-3.11953147e-003
,,,1.30000000e-009,-3.05234397e-003
,,,1.32500000e-009,-2.99687521e-003
,,,1.35000000e-009,-2.94921896e-003
,,,1.37500000e-009,-2.90859396e-003
,,,1.40000000e-009,-2.87265645e-003
,,,1.42500000e-009,-2.83671895e-003
,,,1.45000000e-009,-2.80000020e-003
,,,1.47500000e-009,-2.75546895e-003
,,,1.50000000e-009,-2.70078144e-003
,,,1.52500000e-009,-2.63515644e-003
,,,1.55000000e-009,-2.55937518e-003
,,,1.57500000e-009,-2.47578143e-003
,,,1.60000000e-009,-2.38593767e-003
,,,1.62500000e-009,-2.29296891e-003
,,,1.65000000e-009,-2.20000016e-003
,,,1.67500000e-009,-2.11093765e-003
,,,1.70000000e-009,-2.02343764e-003
,,,1.72500000e-009,-1.93828139e-003
,,,1.75000000e-009,-1.85703138e-003
,,,1.77500000e-009,-1.78203138e-003
,,,1.80000000e-009,-1.71328137e-003
,,,1.82500000e-009,-1.65312512e-003
,,,1.85000000e-009,-1.60000011e-003
,,,1.87500000e-009,-1.55937511e-003
,,,1.90000000e-009,-1.51953136e-003
,,,1.92500000e-009,-1.47734385e-003
,,,1.95000000e-009,-1.43203135e-003
,,,1.97500000e-009,-1.38203135e-003
,,,2.00000000e-009,-1.32734384e-003
,,,2.02500000e-009,-1.26640634e-003
,,,2.05000000e-009,-1.20000008e-003
,,,2.07500000e-009,-1.13593758e-003
,,,2.10000000e-009,-1.06484383e-003
,,,2.12500000e-009,-9.87500070e-004
,,,2.15000000e-009,-9.06250064e-004
,,,2.17500000e-009,-8.23437558e-004
,,,2.20000000e-009,-7.42968803e-004
,,,2.22500000e-009,-6.67187547e-004
,,,2.25000000e-009,-6.00000042e-004
,,,2.27500000e-009,-5.50000039e-004
,,,2.30000000e-009,-5.07812536e-004
,,,2.32500000e-009,-4.73437534e-004
,,,2.35000000e-009,-4.46093782e-004
,,,2.37500000e-009,-4.25781280e-004
,,,2.40000000e-009,-4.11718779e-004
,,,2.42500000e-009,-4.03906279e-004
,,,2.45000000e-009,-4.00000028e-004
,,,2.47500000e-009,-4.07031279e-004
,,,2.50000000e-009,-4.13281279e-004
,,,2.52500000e-009,-4.17187530e-004
,,,2.55000000e-009,-4.17968780e-004
,,,2.57500000e-009,-4.15625029e-004
,,,2.60000000e-009,-4.11718779e-004
,,,2.62500000e-009,-4.06250029e-004
,,,2.65000000e-009,-4.00000028e-004
,,,2.67500000e-009,-3.99218778e-004
,,,2.70000000e-009,-3.97656278e-004
,,,2.72500000e-009,-3.96093778e-004
,,,2.75000000e-009,-3.93750028e-004
,,,2.77500000e-009,-3.92187528e-004
,,,2.80000000e-009,-3.92968778e-004
,,,2.82500000e-009,-3.95312528e-004
,,,2.85000000e-009,-4.00000028e-004
,,,2.87500000e-009,-4.08593779e-004
,,,2.90000000e-009,-4.16406279e-004
,,,2.92500000e-009,-4.22656280e-004
,,,2.95000000e-009,-4.25781280e-004
,,,2.97500000e-009,-4.25781280e-004
,,,3.00000000e-009,-4.21875030e-004
,,,3.02500000e-009,-4.13281279e-004
,,,3.05000000e-009,-4.00000028e-004
,,,3.07500000e-009,-3.83593777e-004
,,,3.10000000e-009,-3.63281276e-004
,,,3.12500000e-009,-3.38281274e-004
,,,3.15000000e-009,-3.10937522e-004
,,,3.17500000e-009,-2.81250020e-004
,,,3.20000000e-009,-2.51562518e-004
,,,3.22500000e-009,-2.24218766e-004
,,,3.25000000e-009,-2.00000014e-004
,,,3.27500000e-009,-1.81250013e-004
,,,3.30000000e-009,-1.67968762e-004
,,,3.32500000e-009,-1.60937511e-004
,,,3.35000000e-009,-1.59375011e-004
,,,3.37500000e-009,-1.63281262e-004
,,,3.40000000e-009,-1.71875012e-004
,,,3.42500000e-009,-1.84375013e-004
,,,3.45000000e-009,-2.00000014e-004
,,,3.47500000e-009,-2.15625015e-004
,,,3.50000000e-009,-2.30468766e-004
,,,3.52500000e-009,-2.41406267e-004
,,,3.55000000e-009,-2.47656268e-004
,,,3.57500000e-009,-2.46875017e-004
,,,3.60000000e-009,-2.39062517e-004
,,,3.62500000e-009,-2.22656266e-004
,,,3.65000000e-009,-2.00000014e-004
,,,3.67500000e-009,-1.71875012e-004
,,,3.70000000e-009,-1.40625010e-004
,,,3.72500000e-009,-1.07812508e-004
,,,3.75000000e-009,-7.50000053e-005
,,,3.77500000e-009,-4.53125032e-005
,,,3.80000000e-009,-2.18750015e-005
,,,3.82500000e-009,-6.25000044e-006
,,,3.85000000e-009,0.00000000e+000
,,,3.87500000e-009,-5.46875039e-006
,,,3.90000000e-009,-2.03125014e-005
,,,3.92500000e-009,-4.29687530e-005
,,,3.95000000e-009,-7.18750051e-005
,,,3.97500000e-009,-1.03906257e-004
,,,4.00000000e-009,-1.37500010e-004
,,,4.02500000e-009,-1.70312512e-004
,,,4.05000000e-009,-2.00000014e-004
,,,4.07500000e-009,-2.23437516e-004
,,,4.10000000e-009,-2.39062517e-004
,,,4.12500000e-009,-2.47656268e-004
,,,4.15000000e-009,-2.48437518e-004
,,,4.17500000e-009,-2.42187517e-004
,,,4.20000000e-009,-2.31250016e-004
,,,4.22500000e-009,-2.16406265e-004
,,,4.25000000e-009,-2.00000014e-004
,,,4.27500000e-009,-1.83593763e-004
,,,4.30000000e-009,-1.69531262e-004
,,,4.32500000e-009,-1.59375011e-004
,,,4.35000000e-009,-1.55468761e-004
,,,4.37500000e-009,-1.56250011e-004
,,,4.40000000e-009,-1.64843762e-004
,,,4.42500000e-009,-1.78906263e-004
,,,4.45000000e-009,-2.00000014e-004
,,,4.47500000e-009,-2.25000016e-004
,,,4.50000000e-009,-2.53906268e-004
,,,4.52500000e-009,-2.84375020e-004
,,,4.55000000e-009,-3.14843772e-004
,,,4.57500000e-009,-3.42968774e-004
,,,4.60000000e-009,-3.67968776e-004
,,,4.62500000e-009,-3.87500027e-004
,,,4.65000000e-009,-4.00000028e-004
,,,4.67500000e-009,-4.00000028e-004
,,,4.70000000e-009,-3.91406278e-004
,,,4.72500000e-009,-3.74218776e-004
,,,4.75000000e-009,-3.49218775e-004
,,,4.77500000e-009,-3.17968773e-004
,,,4.80000000e-009,-2.81250020e-004
,,,4.82500000e-009,-2.41406267e-004
,,,4.85000000e-009,-2.00000014e-004
,,,4.87500000e-009,-1.56250011e-004
,,,4.90000000e-009,-1.15625008e-004
,,,4.92500000e-009,-7.89062556e-005
,,,4.95000000e-009,-4.84375034e-005
,,,4.97500000e-009,-2.42187517e-005
,,,5.00000000e-009,-8.59375061e-006
,,,5.02500000e-009,0.00000000e+000
,,,5.05000000e-009,0.00000000e+000
,,,5.07500000e-009,-7.03125050e-006
,,,5.10000000e-009,-2.10937515e-005
,,,5.12500000e-009,-4.21875030e-005
,,,5.15000000e-009,-6.79687548e-005
,,,5.17500000e-009,-9.84375070e-005
,,,5.20000000e-009,-1.31250009e-004
,,,5.22500000e-009,-1.65625012e-004
,,,5.25000000e-009,-2.00000014e-004
,,,5.27500000e-009,-2.29687516e-004
,,,5.30000000e-009,-2.53906268e-004
,,,5.32500000e-009,-2.71093769e-004
,,,5.35000000e-009,-2.78906270e-004
,,,5.37500000e-009,-2.76562520e-004
,,,5.40000000e-009,-2.62500019e-004
,,,5.42500000e-009,-2.36718767e-004
,,,5.45000000e-009,-2.00000014e-004
,,,5.47500000e-009,-1.52343761e-004
,,,5.50000000e-009,-9.84375070e-005
,,,5.52500000e-009,-4.06250029e-005
,,,5.55000000e-009,1.64062512e-005
,,,5.57500000e-009,7.26562551e-005
,,,5.60000000e-009,1.23437509e-004
,,,5.62500000e-009,1.66406262e-004
,,,5.65000000e-009,2.00000014e-004
,,,5.67500000e-009,2.20312516e-004
,,,5.70000000e-009,2.31250016e-004
,,,5.72500000e-009,2.34375017e-004
,,,5.75000000e-009,2.31250016e-004
,,,5.77500000e-009,2.24218766e-004
,,,5.80000000e-009,2.14843765e-004
,,,5.82500000e-009,2.06250015e-004
,,,5.85000000e-009,2.00000014e-004
,,,5.87500000e-009,1.93750014e-004
