RawData/DifferentLengths/L4/L4_2pt2C_5mV/wave020_Ch3.csv

"Record Length",1000,"Points",-7.72500000e-009,-7.81251452e-005
"Sample Interval",2.50000000e-011,s,-7.70000000e-009,-7.10938947e-005
"Trigger Point",309,"Samples",-7.67500000e-009,-6.87501446e-005
"Trigger Time",1.42098734e-011,s,-7.65000000e-009,-7.03126447e-005
"",,,-7.62500000e-009,-7.57813951e-005
"Horizontal Offset",-7.72500000e-009,s,-7.60000000e-009,-8.59376458e-005
,,,-7.57500000e-009,-1.00000147e-004
,,,-7.55000000e-009,-1.15625148e-004
,,,-7.52500000e-009,-1.34375149e-004
,,,-7.50000000e-009,-1.57812651e-004
,,,-7.47500000e-009,-1.82812653e-004
,,,-7.45000000e-009,-2.10937655e-004
,,,-7.42500000e-009,-2.40625157e-004
,,,-7.40000000e-009,-2.70312659e-004
,,,-7.37500000e-009,-3.00000161e-004
,,,-7.35000000e-009,-3.23437663e-004
,,,-7.32500000e-009,-3.42968914e-004
,,,-7.30000000e-009,-3.57031415e-004
,,,-7.27500000e-009,-3.63281415e-004
,,,-7.25000000e-009,-3.61718915e-004
,,,-7.22500000e-009,-3.50781415e-004
,,,-7.20000000e-009,-3.30468913e-004
,,,-7.17500000e-009,-3.00000161e-004
,,,-7.15000000e-009,-2.57031408e-004
,,,-7.12500000e-009,-2.07031404e-004
,,,-7.10000000e-009,-1.52343900e-004
,,,-7.07500000e-009,-9.60938965e-005
,,,-7.05000000e-009,-4.06251426e-005
,,,-7.02500000e-009,1.24998612e-005
,,,-7.00000000e-009,6.01561146e-005
,,,-6.97500000e-009,9.99998674e-005
,,,-6.95000000e-009,1.30468620e-004
,,,-6.92500000e-009,1.51562371e-004
,,,-6.90000000e-009,1.61718622e-004
,,,-6.87500000e-009,1.63281122e-004
,,,-6.85000000e-009,1.57031121e-004
,,,-6.82500000e-009,1.42968620e-004
,,,-6.80000000e-009,1.23437369e-004
,,,-6.77500000e-009,9.99998674e-005
,,,-6.75000000e-009,7.26561154e-005
,,,-6.72500000e-009,4.37498634e-005
,,,-6.70000000e-009,1.56248614e-005
,,,-6.67500000e-009,-1.17188905e-005
,,,-6.65000000e-009,-3.75001424e-005
,,,-6.62500000e-009,-6.09376440e-005
,,,-6.60000000e-009,-8.12501454e-005
,,,-6.57500000e-009,-1.00000147e-004
,,,-6.55000000e-009,-1.12500148e-004
,,,-6.52500000e-009,-1.21093898e-004
,,,-6.50000000e-009,-1.26562649e-004
,,,-6.47500000e-009,-1.28125149e-004
,,,-6.45000000e-009,-1.25781399e-004
,,,-6.42500000e-009,-1.20312648e-004
,,,-6.40000000e-009,-1.11718898e-004
,,,-6.37500000e-009,-1.00000147e-004
,,,-6.35000000e-009,-8.35938956e-005
,,,-6.32500000e-009,-6.32813942e-005
,,,-6.30000000e-009,-4.06251426e-005
,,,-6.27500000e-009,-1.48438907e-005
,,,-6.25000000e-009,1.32811112e-005
,,,-6.22500000e-009,4.21873633e-005
,,,-6.20000000e-009,7.18748654e-005
,,,-6.17500000e-009,9.99998674e-005
,,,-6.15000000e-009,1.26562369e-004
,,,-6.12500000e-009,1.48437371e-004
,,,-6.10000000e-009,1.64062372e-004
,,,-6.07500000e-009,1.71093622e-004
,,,-6.05000000e-009,1.69531122e-004
,,,-6.02500000e-009,1.57031121e-004
,,,-6.00000000e-009,1.33593620e-004
,,,-5.97500000e-009,9.99998674e-005
,,,-5.95000000e-009,6.09373646e-005
,,,-5.92500000e-009,1.79686116e-005
,,,-5.90000000e-009,-2.50001415e-005
,,,-5.87500000e-009,-6.32813942e-005
,,,-5.85000000e-009,-9.37501463e-005
,,,-5.82500000e-009,-1.10937648e-004
,,,-5.80000000e-009,-1.13281398e-004
,,,-5.77500000e-009,-1.00000147e-004
,,,-5.75000000e-009,-6.71876445e-005
,,,-5.72500000e-009,-2.03126411e-005
,,,-5.70000000e-009,3.59373628e-005
,,,-5.67500000e-009,9.68748672e-005
,,,-5.65000000e-009,1.58593622e-004
,,,-5.62500000e-009,2.15624876e-004
,,,-5.60000000e-009,2.64062379e-004
,,,-5.57500000e-009,2.99999882e-004
,,,-5.55000000e-009,3.21093633e-004
,,,-5.52500000e-009,3.28906134e-004
,,,-5.50000000e-009,3.26562383e-004
,,,-5.47500000e-009,3.17187383e-004
,,,-5.45000000e-009,3.06249882e-004
,,,-5.42500000e-009,2.97656131e-004
,,,-5.40000000e-009,2.94531131e-004
,,,-5.37500000e-009,2.99999882e-004
,,,-5.35000000e-009,3.14062383e-004
,,,-5.32500000e-009,3.37499884e-004
,,,-5.30000000e-009,3.68749886e-004
,,,-5.27500000e-009,4.03906139e-004
,,,-5.25000000e-009,4.38281141e-004
,,,-5.22500000e-009,4.67968643e-004
,,,-5.20000000e-009,4.89843645e-004
,,,-5.17500000e-009,4.99999896e-004
,,,-5.15000000e-009,4.94531145e-004
,,,-5.12500000e-009,4.77343644e-004
,,,-5.10000000e-009,4.49999892e-004
,,,-5.07500000e-009,4.16406140e-004
,,,-5.05000000e-009,3.81249887e-004
,,,-5.02500000e-009,3.47656135e-004
,,,-5.00000000e-009,3.20312383e-004
,,,-4.97500000e-009,2.99999882e-004
,,,-4.95000000e-009,2.88281131e-004
,,,-4.92500000e-009,2.85156130e-004
,,,-4.90000000e-009,2.89843631e-004
,,,-4.87500000e-009,2.97656131e-004
,,,-4.85000000e-009,3.06249882e-004
,,,-4.82500000e-009,3.11718632e-004
,,,-4.80000000e-009,3.10156132e-004
,,,-4.77500000e-009,2.99999882e-004
,,,-4.75000000e-009,2.77343630e-004
,,,-4.72500000e-009,2.46093628e-004
,,,-4.70000000e-009,2.10156125e-004
,,,-4.67500000e-009,1.74218623e-004
,,,-4.65000000e-009,1.41406120e-004
,,,-4.62500000e-009,1.15624868e-004
,,,-4.60000000e-009,1.01562367e-004
,,,-4.57500000e-009,9.99998674e-005
,,,-4.55000000e-009,1.13281118e-004
,,,-4.52500000e-009,1.38281120e-004
,,,-4.50000000e-009,1.71093622e-004
,,,-4.47500000e-009,2.07812375e-004
,,,-4.45000000e-009,2.43749878e-004
,,,-4.42500000e-009,2.73437380e-004
,,,-4.40000000e-009,2.92968631e-004
,,,-4.37500000e-009,2.99999882e-004
,,,-4.35000000e-009,2.92187381e-004
,,,-4.32500000e-009,2.70312379e-004
,,,-4.30000000e-009,2.39843627e-004
,,,-4.27500000e-009,2.03906125e-004
,,,-4.25000000e-009,1.67187372e-004
,,,-4.22500000e-009,1.35937370e-004
,,,-4.20000000e-009,1.12499868e-004
,,,-4.17500000e-009,9.99998674e-005
,,,-4.15000000e-009,1.00781117e-004
,,,-4.12500000e-009,1.10156118e-004
,,,-4.10000000e-009,1.24999869e-004
,,,-4.07500000e-009,1.39843620e-004
,,,-4.05000000e-009,1.49218621e-004
,,,-4.02500000e-009,1.47656121e-004
,,,-4.00000000e-009,1.32812370e-004
,,,-3.97500000e-009,9.99998674e-005
,,,-3.95000000e-009,5.31248641e-005
,,,-3.92500000e-009,-7.03139020e-006
,,,-3.90000000e-009,-7.50001450e-005
,,,-3.87500000e-009,-1.43750150e-004
,,,-3.85000000e-009,-2.07031404e-004
,,,-3.82500000e-009,-2.57812658e-004
,,,-3.80000000e-009,-2.89843910e-004
,,,-3.77500000e-009,-3.00000161e-004
,,,-3.75000000e-009,-2.82031410e-004
,,,-3.72500000e-009,-2.43750157e-004
,,,-3.70000000e-009,-1.88281403e-004
,,,-3.67500000e-009,-1.22656398e-004
,,,-3.65000000e-009,-5.39063935e-005
,,,-3.62500000e-009,1.01561110e-005
,,,-3.60000000e-009,6.32811148e-005
,,,-3.57500000e-009,9.99998674e-005
,,,-3.55000000e-009,1.17187369e-004
,,,-3.52500000e-009,1.14843618e-004
,,,-3.50000000e-009,9.37498669e-005
,,,-3.47500000e-009,5.93748645e-005
,,,-3.45000000e-009,1.64061115e-005
,,,-3.42500000e-009,-2.81251417e-005
,,,-3.40000000e-009,-6.87501446e-005
,,,-3.37500000e-009,-1.00000147e-004
,,,-3.35000000e-009,-1.14843898e-004
,,,-3.32500000e-009,-1.14843898e-004
,,,-3.30000000e-009,-1.00000147e-004
,,,-3.27500000e-009,-7.26563948e-005
,,,-3.25000000e-009,-3.43751421e-005
,,,-3.22500000e-009,1.01561110e-005
,,,-3.20000000e-009,5.62498643e-005
,,,-3.17500000e-009,9.99998674e-005
,,,-3.15000000e-009,1.37499870e-004
,,,-3.12500000e-009,1.64062372e-004
,,,-3.10000000e-009,1.79687373e-004
,,,-3.07500000e-009,1.84374873e-004
,,,-3.05000000e-009,1.76562373e-004
,,,-3.02500000e-009,1.58593622e-004
,,,-3.00000000e-009,1.32812370e-004
,,,-2.97500000e-009,9.99998674e-005
,,,-2.95000000e-009,6.40623648e-005
,,,-2.92500000e-009,2.73436122e-005
,,,-2.90000000e-009,-7.81264025e-006
,,,-2.87500000e-009,-3.90626425e-005
,,,-2.85000000e-009,-6.48438943e-005
,,,-2.82500000e-009,-8.43751457e-005
,,,-2.80000000e-009,-9.60938965e-005
,,,-2.77500000e-009,-1.00000147e-004
,,,-2.75000000e-009,-9.45313964e-005
,,,-2.72500000e-009,-8.04688954e-005
,,,-2.70000000e-009,-5.93751439e-005
,,,-2.67500000e-009,-3.20313920e-005
,,,-2.65000000e-009,-7.81389754e-007
,,,-2.62500000e-009,3.35936127e-005
,,,-2.60000000e-009,6.79686151e-005
,,,-2.57500000e-009,9.99998674e-005
,,,-2.55000000e-009,1.28124869e-004
,,,-2.52500000e-009,1.49999871e-004
,,,-2.50000000e-009,1.64062372e-004
,,,-2.47500000e-009,1.68749872e-004
,,,-2.45000000e-009,1.64843622e-004
,,,-2.42500000e-009,1.50781121e-004
,,,-2.40000000e-009,1.29687369e-004
,,,-2.37500000e-009,9.99998674e-005
,,,-2.35000000e-009,6.48436149e-005
,,,-2.32500000e-009,2.73436122e-005
,,,-2.30000000e-009,-9.37514036e-006
,,,-2.27500000e-009,-4.29688927e-005
,,,-2.25000000e-009,-7.03126447e-005
,,,-2.22500000e-009,-8.98438961e-005
,,,-2.20000000e-009,-1.00000147e-004
,,,-2.17500000e-009,-1.00000147e-004
,,,-2.15000000e-009,-8.75001459e-005
,,,-2.12500000e-009,-6.64063944e-005
,,,-2.10000000e-009,-3.90626425e-005
,,,-2.07500000e-009,-7.81264025e-006
,,,-2.05000000e-009,2.42186120e-005
,,,-2.02500000e-009,5.39061141e-005
,,,-2.00000000e-009,8.04686160e-005
,,,-1.97500000e-009,9.99998674e-005
,,,-1.95000000e-009,1.11718618e-004
,,,-1.92500000e-009,1.16406119e-004
,,,-1.90000000e-009,1.14843618e-004
,,,-1.87500000e-009,1.10156118e-004
,,,-1.85000000e-009,1.03906118e-004
,,,-1.82500000e-009,9.92186173e-005
,,,-1.80000000e-009,9.76561172e-005
,,,-1.77500000e-009,9.99998674e-005
,,,-1.75000000e-009,1.03906118e-004
,,,-1.72500000e-009,1.10156118e-004
,,,-1.70000000e-009,1.17968619e-004
,,,-1.67500000e-009,1.24999869e-004
,,,-1.65000000e-009,1.28906119e-004
,,,-1.62500000e-009,1.27343619e-004
,,,-1.60000000e-009,1.17968619e-004
,,,-1.57500000e-009,9.99998674e-005
,,,-1.55000000e-009,6.87498652e-005
,,,-1.52500000e-009,3.04686125e-005
,,,-1.50000000e-009,-1.01563904e-005
,,,-1.47500000e-009,-4.92188932e-005
,,,-1.45000000e-009,-8.12501454e-005
,,,-1.42500000e-009,-1.02343897e-004
,,,-1.40000000e-009,-1.08593897e-004
,,,-1.37500000e-009,-1.00000147e-004
,,,-1.35000000e-009,-8.59376458e-005
,,,-1.32500000e-009,-6.17188941e-005
,,,-1.30000000e-009,-3.04688919e-005
,,,-1.27500000e-009,5.46861069e-006
,,,-1.25000000e-009,4.06248632e-005
,,,-1.22500000e-009,7.10936153e-005
,,,-1.20000000e-009,9.21873668e-005
,,,-1.17500000e-009,9.99998674e-005
,,,-1.15000000e-009,7.42186156e-005
,,,-1.12500000e-009,3.20311126e-005
,,,-1.10000000e-009,-2.34376414e-005
,,,-1.07500000e-009,-8.59376458e-005
,,,-1.05000000e-009,-1.50781400e-004
,,,-1.02500000e-009,-2.10156405e-004
,,,-1.00000000e-009,-2.60937658e-004
,,,-9.75000000e-010,-3.00000161e-004
,,,-9.50000000e-010,-3.46875164e-004
,,,-9.25000000e-010,-3.85156417e-004
,,,-9.00000000e-010,-4.13281419e-004
,,,-8.75000000e-010,-4.34375170e-004
,,,-8.50000000e-010,-4.50000172e-004
,,,-8.25000000e-010,-4.63281422e-004
,,,-8.00000000e-010,-4.78125174e-004
,,,-7.75000000e-010,-5.00000175e-004
,,,-7.50000000e-010,-5.57031429e-004
,,,-7.25000000e-010,-6.31250184e-004
,,,-7.00000000e-010,-7.21093941e-004
,,,-6.75000000e-010,-8.23437698e-004
,,,-6.50000000e-010,-9.35937706e-004
,,,-6.25000000e-010,-1.05468771e-003
,,,-6.00000000e-010,-1.17656272e-003
,,,-5.75000000e-010,-1.30000023e-003
,,,-5.50000000e-010,-1.44296899e-003
,,,-5.25000000e-010,-1.58984400e-003
,,,-5.00000000e-010,-1.73906276e-003
,,,-4.75000000e-010,-1.88984402e-003
,,,-4.50000000e-010,-2.04140653e-003
,,,-4.25000000e-010,-2.19296904e-003
,,,-4.00000000e-010,-2.34531281e-003
,,,-3.75000000e-010,-2.50000032e-003
,,,-3.50000000e-010,-2.66250033e-003
,,,-3.25000000e-010,-2.83125034e-003
,,,-3.00000000e-010,-3.00546910e-003
,,,-2.75000000e-010,-3.18281286e-003
,,,-2.50000000e-010,-3.36250038e-003
,,,-2.25000000e-010,-3.54296914e-003
,,,-2.00000000e-010,-3.72187540e-003
,,,-1.75000000e-010,-3.90000042e-003
,,,-1.50000000e-010,-4.06328168e-003
,,,-1.25000000e-010,-4.22890669e-003
,,,-1.00000000e-010,-4.39687545e-003
,,,-7.50000000e-011,-4.56953171e-003
,,,-5.00000000e-011,-4.74609423e-003
,,,-2.50000000e-011,-4.92734424e-003
,,,0.00000000e+000,-5.11250050e-003
,,,2.50000000e-011,-5.30000051e-003
,,,5.00000000e-011,-5.45937553e-003
,,,7.50000000e-011,-5.62031304e-003
,,,1.00000000e-010,-5.78046930e-003
,,,1.25000000e-010,-5.93984431e-003
,,,1.50000000e-010,-6.09375057e-003
,,,1.75000000e-010,-6.24140683e-003
,,,2.00000000e-010,-6.37734434e-003
,,,2.25000000e-010,-6.50000060e-003
,,,2.50000000e-010,-6.56250060e-003
,,,2.75000000e-010,-6.61015686e-003
,,,3.00000000e-010,-6.64609436e-003
,,,3.25000000e-010,-6.67265686e-003
,,,3.50000000e-010,-6.68984436e-003
,,,3.75000000e-010,-6.70078186e-003
,,,4.00000000e-010,-6.70390686e-003
,,,4.25000000e-010,-6.70000061e-003
,,,4.50000000e-010,-6.64296936e-003
,,,4.75000000e-010,-6.58046936e-003
,,,5.00000000e-010,-6.51406310e-003
,,,5.25000000e-010,-6.44375060e-003
,,,5.50000000e-010,-6.36796934e-003
,,,5.75000000e-010,-6.28671933e-003
,,,6.00000000e-010,-6.19765683e-003
,,,6.25000000e-010,-6.10000057e-003
,,,6.50000000e-010,-5.95468806e-003
,,,6.75000000e-010,-5.80312555e-003
,,,7.00000000e-010,-5.64765679e-003
,,,7.25000000e-010,-5.49140678e-003
,,,7.50000000e-010,-5.33671927e-003
,,,7.75000000e-010,-5.18593801e-003
,,,8.00000000e-010,-5.03984425e-003
,,,8.25000000e-010,-4.90000049e-003
,,,8.50000000e-010,-4.74375048e-003
,,,8.75000000e-010,-4.59140671e-003
,,,9.00000000e-010,-4.44296920e-003
,,,9.25000000e-010,-4.29609419e-003
,,,9.50000000e-010,-4.15000043e-003
,,,9.75000000e-010,-4.00312542e-003
,,,1.00000000e-009,-3.85312541e-003
,,,1.02500000e-009,-3.70000040e-003
,,,1.05000000e-009,-3.53671914e-003
,,,1.07500000e-009,-3.37109413e-003
,,,1.10000000e-009,-3.20468787e-003
,,,1.12500000e-009,-3.04140660e-003
,,,1.15000000e-009,-2.88593784e-003
,,,1.17500000e-009,-2.74140658e-003
,,,1.20000000e-009,-2.61250032e-003
,,,1.22500000e-009,-2.50000032e-003
,,,1.25000000e-009,-2.41250031e-003
,,,1.27500000e-009,-2.33515655e-003
,,,1.30000000e-009,-2.26484405e-003
,,,1.32500000e-009,-2.19687530e-003
,,,1.35000000e-009,-2.12890654e-003
,,,1.37500000e-009,-2.05781279e-003
,,,1.40000000e-009,-1.98203153e-003
,,,1.42500000e-009,-1.90000027e-003
,,,1.45000000e-009,-1.82500027e-003
,,,1.47500000e-009,-1.74140651e-003
,,,1.50000000e-009,-1.65078151e-003
,,,1.52500000e-009,-1.56015650e-003
,,,1.55000000e-009,-1.47421899e-003
,,,1.57500000e-009,-1.39921899e-003
,,,1.60000000e-009,-1.33984398e-003
,,,1.62500000e-009,-1.30000023e-003
,,,1.65000000e-009,-1.29375023e-003
,,,1.67500000e-009,-1.29921898e-003
,,,1.70000000e-009,-1.31093773e-003
,,,1.72500000e-009,-1.32421898e-003
,,,1.75000000e-009,-1.33359398e-003
,,,1.77500000e-009,-1.33437523e-003
,,,1.80000000e-009,-1.32421898e-003
,,,1.82500000e-009,-1.30000023e-003
,,,1.85000000e-009,-1.27109398e-003
,,,1.87500000e-009,-1.22500023e-003
,,,1.90000000e-009,-1.16562522e-003
,,,1.92500000e-009,-1.10000022e-003
,,,1.95000000e-009,-1.03281271e-003
,,,1.97500000e-009,-9.73437709e-004
,,,2.00000000e-009,-9.27343955e-004
,,,2.02500000e-009,-9.00000203e-004
,,,2.05000000e-009,-9.01562704e-004
,,,2.07500000e-009,-9.20312705e-004
,,,2.10000000e-009,-9.50781457e-004
,,,2.12500000e-009,-9.88281460e-004
,,,2.15000000e-009,-1.02812521e-003
,,,2.17500000e-009,-1.06328146e-003
,,,2.20000000e-009,-1.08828147e-003
,,,2.22500000e-009,-1.10000022e-003
,,,2.25000000e-009,-1.09687522e-003
,,,2.27500000e-009,-1.07421897e-003
,,,2.30000000e-009,-1.03359396e-003
,,,2.32500000e-009,-9.77343959e-004
,,,2.35000000e-009,-9.10937704e-004
,,,2.37500000e-009,-8.38281449e-004
,,,2.40000000e-009,-7.66406444e-004
,,,2.42500000e-009,-7.00000189e-004
,,,2.45000000e-009,-6.45312685e-004
,,,2.47500000e-009,-6.00000182e-004
,,,2.50000000e-009,-5.65625180e-004
,,,2.52500000e-009,-5.39843928e-004
,,,2.55000000e-009,-5.22656427e-004
,,,2.57500000e-009,-5.11718926e-004
,,,2.60000000e-009,-5.04687675e-004
,,,2.62500000e-009,-5.00000175e-004
,,,2.65000000e-009,-4.97656425e-004
,,,2.67500000e-009,-4.95312675e-004
,,,2.70000000e-009,-4.91406424e-004
,,,2.72500000e-009,-4.87500174e-004
,,,2.75000000e-009,-4.85156424e-004
,,,2.77500000e-009,-4.85156424e-004
,,,2.80000000e-009,-4.89843924e-004
,,,2.82500000e-009,-5.00000175e-004
,,,2.85000000e-009,-5.16406426e-004
,,,2.87500000e-009,-5.36718928e-004
,,,2.90000000e-009,-5.61718929e-004
,,,2.92500000e-009,-5.88281431e-004
,,,2.95000000e-009,-6.17187683e-004
,,,2.97500000e-009,-6.46093935e-004
,,,3.00000000e-009,-6.74218937e-004
,,,3.02500000e-009,-7.00000189e-004
,,,3.05000000e-009,-7.18750191e-004
,,,3.07500000e-009,-7.32812692e-004
,,,3.10000000e-009,-7.40625192e-004
,,,3.12500000e-009,-7.42187692e-004
,,,3.15000000e-009,-7.38281442e-004
,,,3.17500000e-009,-7.29687691e-004
,,,3.20000000e-009,-7.16406440e-004
,,,3.22500000e-009,-7.00000189e-004
,,,3.25000000e-009,-6.79687688e-004
,,,3.27500000e-009,-6.57031436e-004
,,,3.30000000e-009,-6.32031434e-004
,,,3.32500000e-009,-6.06250183e-004
,,,3.35000000e-009,-5.79687681e-004
,,,3.37500000e-009,-5.52343929e-004
,,,3.40000000e-009,-5.25781427e-004
,,,3.42500000e-009,-5.00000175e-004
,,,3.45000000e-009,-4.72656423e-004
,,,3.47500000e-009,-4.46875171e-004
,,,3.50000000e-009,-4.21093920e-004
,,,3.52500000e-009,-3.96093918e-004
,,,3.55000000e-009,-3.71875166e-004
,,,3.57500000e-009,-3.47656414e-004
,,,3.60000000e-009,-3.23437663e-004
,,,3.62500000e-009,-3.00000161e-004
,,,3.65000000e-009,-2.75781409e-004
,,,3.67500000e-009,-2.50781407e-004
,,,3.70000000e-009,-2.25781406e-004
,,,3.72500000e-009,-2.00781404e-004
,,,3.75000000e-009,-1.75000152e-004
,,,3.77500000e-009,-1.49218900e-004
,,,3.80000000e-009,-1.23437648e-004
,,,3.82500000e-009,-1.00000147e-004
,,,3.85000000e-009,-7.89063953e-005
,,,3.87500000e-009,-6.17188941e-005
,,,3.90000000e-009,-5.00001432e-005
,,,3.92500000e-009,-4.45313929e-005
,,,3.95000000e-009,-4.60938930e-005
,,,3.97500000e-009,-5.54688936e-005
,,,4.00000000e-009,-7.34376449e-005
,,,4.02500000e-009,-1.00000147e-004
,,,4.05000000e-009,-1.32812649e-004
,,,4.07500000e-009,-1.68750152e-004
,,,4.10000000e-009,-2.05468904e-004
,,,4.12500000e-009,-2.39062657e-004
,,,4.15000000e-009,-2.67187659e-004
,,,4.17500000e-009,-2.87500160e-004
,,,4.20000000e-009,-2.98437661e-004
,,,4.22500000e-009,-3.00000161e-004
,,,4.25000000e-009,-2.90625160e-004
,,,4.27500000e-009,-2.71875159e-004
,,,4.30000000e-009,-2.45312657e-004
,,,4.32500000e-009,-2.14062655e-004
,,,4.35000000e-009,-1.80468902e-004
,,,4.37500000e-009,-1.49218900e-004
,,,4.40000000e-009,-1.21093898e-004
,,,4.42500000e-009,-1.00000147e-004
,,,4.45000000e-009,-8.59376458e-005
,,,4.47500000e-009,-7.96876453e-005
,,,4.50000000e-009,-7.89063953e-005
,,,4.52500000e-009,-8.35938956e-005
,,,4.55000000e-009,-8.98438961e-005
,,,4.57500000e-009,-9.60938965e-005
,,,4.60000000e-009,-1.00000147e-004
,,,4.62500000e-009,-1.00000147e-004
,,,4.65000000e-009,-9.37501463e-005
,,,4.67500000e-009,-8.12501454e-005
,,,4.70000000e-009,-6.17188941e-005
,,,4.72500000e-009,-3.59376422e-005
,,,4.75000000e-009,-4.68764003e-006
,,,4.77500000e-009,3.04686125e-005
,,,4.80000000e-009,6.56248649e-005
,,,4.82500000e-009,9.99998674e-005
,,,4.85000000e-009,1.28124869e-004
,,,4.87500000e-009,1.49999871e-004
,,,4.90000000e-009,1.63281122e-004
,,,4.92500000e-009,1.68749872e-004
,,,4.95000000e-009,1.64062372e-004
,,,4.97500000e-009,1.50781121e-004
,,,5.00000000e-009,1.28906119e-004
,,,5.02500000e-009,9.99998674e-005
,,,5.05000000e-009,6.48436149e-005
,,,5.07500000e-009,2.73436122e-005
,,,5.10000000e-009,-9.37514036e-006
,,,5.12500000e-009,-4.29688927e-005
,,,5.15000000e-009,-7.10938947e-005
,,,5.17500000e-009,-9.06251461e-005
,,,5.20000000e-009,-1.00000147e-004
,,,5.22500000e-009,-1.00000147e-004
,,,5.25000000e-009,-9.06251461e-005
,,,5.27500000e-009,-7.18751448e-005
,,,5.30000000e-009,-4.60938930e-005
,,,5.32500000e-009,-1.48438907e-005
,,,5.35000000e-009,1.79686116e-005
,,,5.37500000e-009,5.07811139e-005
,,,5.40000000e-009,7.89061159e-005
,,,5.42500000e-009,9.99998674e-005
,,,5.45000000e-009,1.10937368e-004
,,,5.47500000e-009,1.10937368e-004
,,,5.50000000e-009,9.92186173e-005
,,,5.52500000e-009,7.65623657e-005
,,,5.55000000e-009,4.29686133e-005
,,,5.57500000e-009,1.56236041e-006
,,,5.60000000e-009,-4.68751430e-005
,,,5.62500000e-009,-1.00000147e-004
,,,5.65000000e-009,-1.51562650e-004
,,,5.67500000e-009,-2.00000154e-004
,,,5.70000000e-009,-2.42968907e-004
,,,5.72500000e-009,-2.76562659e-004
,,,5.75000000e-009,-3.00000161e-004
,,,5.77500000e-009,-3.11718912e-004
,,,5.80000000e-009,-3.11718912e-004
,,,5.82500000e-009,-3.00000161e-004
,,,5.85000000e-009,-2.73437659e-004
,,,5.87500000e-009,-2.40625157e-004
,,,5.90000000e-009,-2.04687654e-004
,,,5.92500000e-009,-1.68750152e-004
