RawData/DifferentLengths/L4/L4_2pt2C_5mV/wave023_Ch3.csv

"Record Length",1000,"Points",-7.72500000e-009,-3.52343915e-004
"Sample Interval",2.50000000e-011,s,-7.70000000e-009,-4.12500169e-004
"Trigger Point",309,"Samples",-7.67500000e-009,-4.60156422e-004
"Trigger Time",1.79777778e-012,s,-7.65000000e-009,-4.89843924e-004
"",,,-7.62500000e-009,-5.00000175e-004
"Horizontal Offset",-7.72500000e-009,s,-7.60000000e-009,-4.85937674e-004
,,,-7.57500000e-009,-4.53125172e-004
,,,-7.55000000e-009,-4.03125168e-004
,,,-7.52500000e-009,-3.42187664e-004
,,,-7.50000000e-009,-2.75000159e-004
,,,-7.47500000e-009,-2.08593904e-004
,,,-7.45000000e-009,-1.48437650e-004
,,,-7.42500000e-009,-1.00000147e-004
,,,-7.40000000e-009,-6.79688945e-005
,,,-7.37500000e-009,-5.54688936e-005
,,,-7.35000000e-009,-6.25001441e-005
,,,-7.32500000e-009,-8.75001459e-005
,,,-7.30000000e-009,-1.28125149e-004
,,,-7.27500000e-009,-1.80468902e-004
,,,-7.25000000e-009,-2.39062657e-004
,,,-7.22500000e-009,-3.00000161e-004
,,,-7.20000000e-009,-3.54687665e-004
,,,-7.17500000e-009,-4.00000168e-004
,,,-7.15000000e-009,-4.31250170e-004
,,,-7.12500000e-009,-4.43750171e-004
,,,-7.10000000e-009,-4.37500171e-004
,,,-7.07500000e-009,-4.10156419e-004
,,,-7.05000000e-009,-3.63281415e-004
,,,-7.02500000e-009,-3.00000161e-004
,,,-7.00000000e-009,-2.22656405e-004
,,,-6.97500000e-009,-1.40625150e-004
,,,-6.95000000e-009,-6.09376440e-005
,,,-6.92500000e-009,1.09373611e-005
,,,-6.90000000e-009,6.79686151e-005
,,,-6.87500000e-009,1.04687368e-004
,,,-6.85000000e-009,1.15624868e-004
,,,-6.82500000e-009,9.99998674e-005
,,,-6.80000000e-009,5.62498643e-005
,,,-6.77500000e-009,-1.01563904e-005
,,,-6.75000000e-009,-9.37501463e-005
,,,-6.72500000e-009,-1.86718903e-004
,,,-6.70000000e-009,-2.81250160e-004
,,,-6.67500000e-009,-3.69531416e-004
,,,-6.65000000e-009,-4.43750171e-004
,,,-6.62500000e-009,-5.00000175e-004
,,,-6.60000000e-009,-5.31250177e-004
,,,-6.57500000e-009,-5.39062678e-004
,,,-6.55000000e-009,-5.24218927e-004
,,,-6.52500000e-009,-4.92187675e-004
,,,-6.50000000e-009,-4.46875171e-004
,,,-6.47500000e-009,-3.96093918e-004
,,,-6.45000000e-009,-3.45312664e-004
,,,-6.42500000e-009,-3.00000161e-004
,,,-6.40000000e-009,-2.61718908e-004
,,,-6.37500000e-009,-2.35937656e-004
,,,-6.35000000e-009,-2.23437656e-004
,,,-6.32500000e-009,-2.24218906e-004
,,,-6.30000000e-009,-2.35156406e-004
,,,-6.27500000e-009,-2.53906408e-004
,,,-6.25000000e-009,-2.76562659e-004
,,,-6.22500000e-009,-3.00000161e-004
,,,-6.20000000e-009,-3.17968912e-004
,,,-6.17500000e-009,-3.32031413e-004
,,,-6.15000000e-009,-3.39062664e-004
,,,-6.12500000e-009,-3.39843914e-004
,,,-6.10000000e-009,-3.34375163e-004
,,,-6.07500000e-009,-3.25000163e-004
,,,-6.05000000e-009,-3.13281412e-004
,,,-6.02500000e-009,-3.00000161e-004
,,,-6.00000000e-009,-2.85156410e-004
,,,-5.97500000e-009,-2.72656409e-004
,,,-5.95000000e-009,-2.64843908e-004
,,,-5.92500000e-009,-2.60937658e-004
,,,-5.90000000e-009,-2.63281408e-004
,,,-5.87500000e-009,-2.70312659e-004
,,,-5.85000000e-009,-2.82812660e-004
,,,-5.82500000e-009,-3.00000161e-004
,,,-5.80000000e-009,-3.15625162e-004
,,,-5.77500000e-009,-3.31250163e-004
,,,-5.75000000e-009,-3.45312664e-004
,,,-5.72500000e-009,-3.53906415e-004
,,,-5.70000000e-009,-3.55468915e-004
,,,-5.67500000e-009,-3.47656414e-004
,,,-5.65000000e-009,-3.29687663e-004
,,,-5.62500000e-009,-3.00000161e-004
,,,-5.60000000e-009,-2.60156408e-004
,,,-5.57500000e-009,-2.11718905e-004
,,,-5.55000000e-009,-1.57031401e-004
,,,-5.52500000e-009,-9.84376467e-005
,,,-5.50000000e-009,-4.06251426e-005
,,,-5.47500000e-009,1.32811112e-005
,,,-5.45000000e-009,6.17186147e-005
,,,-5.42500000e-009,9.99998674e-005
,,,-5.40000000e-009,1.24999869e-004
,,,-5.37500000e-009,1.39062370e-004
,,,-5.35000000e-009,1.43749870e-004
,,,-5.32500000e-009,1.40624870e-004
,,,-5.30000000e-009,1.32031120e-004
,,,-5.27500000e-009,1.21093619e-004
,,,-5.25000000e-009,1.09374868e-004
,,,-5.22500000e-009,9.99998674e-005
,,,-5.20000000e-009,9.14061168e-005
,,,-5.17500000e-009,8.59373664e-005
,,,-5.15000000e-009,8.51561163e-005
,,,-5.12500000e-009,8.82811166e-005
,,,-5.10000000e-009,9.29686169e-005
,,,-5.07500000e-009,9.76561172e-005
,,,-5.05000000e-009,1.00781117e-004
,,,-5.02500000e-009,9.99998674e-005
,,,-5.00000000e-009,9.14061168e-005
,,,-4.97500000e-009,7.73436158e-005
,,,-4.95000000e-009,5.78123644e-005
,,,-4.92500000e-009,3.28123626e-005
,,,-4.90000000e-009,3.12486052e-006
,,,-4.87500000e-009,-2.89063917e-005
,,,-4.85000000e-009,-6.40626442e-005
,,,-4.82500000e-009,-1.00000147e-004
,,,-4.80000000e-009,-1.36718899e-004
,,,-4.77500000e-009,-1.71093902e-004
,,,-4.75000000e-009,-2.02343904e-004
,,,-4.72500000e-009,-2.30468906e-004
,,,-4.70000000e-009,-2.53906408e-004
,,,-4.67500000e-009,-2.73437659e-004
,,,-4.65000000e-009,-2.88281410e-004
,,,-4.62500000e-009,-3.00000161e-004
,,,-4.60000000e-009,-3.05468911e-004
,,,-4.57500000e-009,-3.07031411e-004
,,,-4.55000000e-009,-3.06250161e-004
,,,-4.52500000e-009,-3.04687661e-004
,,,-4.50000000e-009,-3.02343911e-004
,,,-4.47500000e-009,-3.00000161e-004
,,,-4.45000000e-009,-2.99218911e-004
,,,-4.42500000e-009,-3.00000161e-004
,,,-4.40000000e-009,-2.97656411e-004
,,,-4.37500000e-009,-2.97656411e-004
,,,-4.35000000e-009,-2.99218911e-004
,,,-4.32500000e-009,-3.00000161e-004
,,,-4.30000000e-009,-3.01562661e-004
,,,-4.27500000e-009,-3.02343911e-004
,,,-4.25000000e-009,-3.01562661e-004
,,,-4.22500000e-009,-3.00000161e-004
,,,-4.20000000e-009,-2.93750160e-004
,,,-4.17500000e-009,-2.88281410e-004
,,,-4.15000000e-009,-2.82812660e-004
,,,-4.12500000e-009,-2.79687659e-004
,,,-4.10000000e-009,-2.79687659e-004
,,,-4.07500000e-009,-2.82812660e-004
,,,-4.05000000e-009,-2.89062660e-004
,,,-4.02500000e-009,-3.00000161e-004
,,,-4.00000000e-009,-3.10156412e-004
,,,-3.97500000e-009,-3.21093912e-004
,,,-3.95000000e-009,-3.32031413e-004
,,,-3.92500000e-009,-3.39843914e-004
,,,-3.90000000e-009,-3.42187664e-004
,,,-3.87500000e-009,-3.37500164e-004
,,,-3.85000000e-009,-3.23437663e-004
,,,-3.82500000e-009,-3.00000161e-004
,,,-3.80000000e-009,-2.64843908e-004
,,,-3.77500000e-009,-2.21093905e-004
,,,-3.75000000e-009,-1.70312652e-004
,,,-3.72500000e-009,-1.14843898e-004
,,,-3.70000000e-009,-5.70313937e-005
,,,-3.67500000e-009,-1.39698386e-010
,,,-3.65000000e-009,5.31248641e-005
,,,-3.62500000e-009,9.99998674e-005
,,,-3.60000000e-009,1.35156120e-004
,,,-3.57500000e-009,1.60156122e-004
,,,-3.55000000e-009,1.73437373e-004
,,,-3.52500000e-009,1.76562373e-004
,,,-3.50000000e-009,1.68749872e-004
,,,-3.47500000e-009,1.53124871e-004
,,,-3.45000000e-009,1.29687369e-004
,,,-3.42500000e-009,9.99998674e-005
,,,-3.40000000e-009,6.48436149e-005
,,,-3.37500000e-009,2.89061123e-005
,,,-3.35000000e-009,-5.46889009e-006
,,,-3.32500000e-009,-3.59376422e-005
,,,-3.30000000e-009,-6.09376440e-005
,,,-3.27500000e-009,-8.04688954e-005
,,,-3.25000000e-009,-9.29688963e-005
,,,-3.22500000e-009,-1.00000147e-004
,,,-3.20000000e-009,-1.01562647e-004
,,,-3.17500000e-009,-9.84376467e-005
,,,-3.15000000e-009,-9.37501463e-005
,,,-3.12500000e-009,-8.75001459e-005
,,,-3.10000000e-009,-8.35938956e-005
,,,-3.07500000e-009,-8.35938956e-005
,,,-3.05000000e-009,-8.82813959e-005
,,,-3.02500000e-009,-1.00000147e-004
,,,-3.00000000e-009,-1.18750148e-004
,,,-2.97500000e-009,-1.43750150e-004
,,,-2.95000000e-009,-1.71875152e-004
,,,-2.92500000e-009,-2.02343904e-004
,,,-2.90000000e-009,-2.32031406e-004
,,,-2.87500000e-009,-2.59375158e-004
,,,-2.85000000e-009,-2.82031410e-004
,,,-2.82500000e-009,-3.00000161e-004
,,,-2.80000000e-009,-3.09375162e-004
,,,-2.77500000e-009,-3.13281412e-004
,,,-2.75000000e-009,-3.12500162e-004
,,,-2.72500000e-009,-3.07812661e-004
,,,-2.70000000e-009,-3.03125161e-004
,,,-2.67500000e-009,-2.98437661e-004
,,,-2.65000000e-009,-2.97656411e-004
,,,-2.62500000e-009,-3.00000161e-004
,,,-2.60000000e-009,-3.03906411e-004
,,,-2.57500000e-009,-3.11718912e-004
,,,-2.55000000e-009,-3.20312662e-004
,,,-2.52500000e-009,-3.27343913e-004
,,,-2.50000000e-009,-3.31250163e-004
,,,-2.47500000e-009,-3.28906413e-004
,,,-2.45000000e-009,-3.18750162e-004
,,,-2.42500000e-009,-3.00000161e-004
,,,-2.40000000e-009,-2.71093909e-004
,,,-2.37500000e-009,-2.36718906e-004
,,,-2.35000000e-009,-1.99218904e-004
,,,-2.32500000e-009,-1.64062651e-004
,,,-2.30000000e-009,-1.32812649e-004
,,,-2.27500000e-009,-1.10156397e-004
,,,-2.25000000e-009,-9.84376467e-005
,,,-2.22500000e-009,-1.00000147e-004
,,,-2.20000000e-009,-1.15625148e-004
,,,-2.17500000e-009,-1.42968900e-004
,,,-2.15000000e-009,-1.77343902e-004
,,,-2.12500000e-009,-2.14843905e-004
,,,-2.10000000e-009,-2.50000157e-004
,,,-2.07500000e-009,-2.78125159e-004
,,,-2.05000000e-009,-2.95312661e-004
,,,-2.02500000e-009,-3.00000161e-004
,,,-2.00000000e-009,-2.90625160e-004
,,,-1.97500000e-009,-2.69531409e-004
,,,-1.95000000e-009,-2.39062657e-004
,,,-1.92500000e-009,-2.03125154e-004
,,,-1.90000000e-009,-1.67187652e-004
,,,-1.87500000e-009,-1.35156399e-004
,,,-1.85000000e-009,-1.11718898e-004
,,,-1.82500000e-009,-1.00000147e-004
,,,-1.80000000e-009,-1.05468897e-004
,,,-1.77500000e-009,-1.23437648e-004
,,,-1.75000000e-009,-1.52343900e-004
,,,-1.72500000e-009,-1.86718903e-004
,,,-1.70000000e-009,-2.23437656e-004
,,,-1.67500000e-009,-2.56250158e-004
,,,-1.65000000e-009,-2.82812660e-004
,,,-1.62500000e-009,-3.00000161e-004
,,,-1.60000000e-009,-3.11718912e-004
,,,-1.57500000e-009,-3.14062662e-004
,,,-1.55000000e-009,-3.10156412e-004
,,,-1.52500000e-009,-3.01562661e-004
,,,-1.50000000e-009,-2.92187660e-004
,,,-1.47500000e-009,-2.86718910e-004
,,,-1.45000000e-009,-2.88281410e-004
,,,-1.42500000e-009,-3.00000161e-004
,,,-1.40000000e-009,-3.32031413e-004
,,,-1.37500000e-009,-3.77343916e-004
,,,-1.35000000e-009,-4.32031420e-004
,,,-1.32500000e-009,-4.92968925e-004
,,,-1.30000000e-009,-5.54687679e-004
,,,-1.27500000e-009,-6.11718933e-004
,,,-1.25000000e-009,-6.61718937e-004
,,,-1.22500000e-009,-7.00000189e-004
,,,-1.20000000e-009,-7.35937692e-004
,,,-1.17500000e-009,-7.60937694e-004
,,,-1.15000000e-009,-7.73437694e-004
,,,-1.12500000e-009,-7.74218944e-004
,,,-1.10000000e-009,-7.64843944e-004
,,,-1.07500000e-009,-7.46875193e-004
,,,-1.05000000e-009,-7.24218941e-004
,,,-1.02500000e-009,-7.00000189e-004
,,,-1.00000000e-009,-6.96093939e-004
,,,-9.75000000e-010,-7.01562689e-004
,,,-9.50000000e-010,-7.15625190e-004
,,,-9.25000000e-010,-7.39062692e-004
,,,-9.00000000e-010,-7.71093944e-004
,,,-8.75000000e-010,-8.08593947e-004
,,,-8.50000000e-010,-8.52343950e-004
,,,-8.25000000e-010,-9.00000203e-004
,,,-8.00000000e-010,-9.71875208e-004
,,,-7.75000000e-010,-1.04921896e-003
,,,-7.50000000e-010,-1.13046897e-003
,,,-7.25000000e-010,-1.21250023e-003
,,,-7.00000000e-010,-1.29140648e-003
,,,-6.75000000e-010,-1.36562524e-003
,,,-6.50000000e-010,-1.43515649e-003
,,,-6.25000000e-010,-1.50000025e-003
,,,-6.00000000e-010,-1.58046900e-003
,,,-5.75000000e-010,-1.66406276e-003
,,,-5.50000000e-010,-1.75234401e-003
,,,-5.25000000e-010,-1.84687527e-003
,,,-5.00000000e-010,-1.94687528e-003
,,,-4.75000000e-010,-2.05546904e-003
,,,-4.50000000e-010,-2.17265654e-003
,,,-4.25000000e-010,-2.30000030e-003
,,,-4.00000000e-010,-2.44687531e-003
,,,-3.75000000e-010,-2.60781282e-003
,,,-3.50000000e-010,-2.77968784e-003
,,,-3.25000000e-010,-2.96093785e-003
,,,-3.00000000e-010,-3.14687536e-003
,,,-2.75000000e-010,-3.33359413e-003
,,,-2.50000000e-010,-3.51875039e-003
,,,-2.25000000e-010,-3.70000040e-003
,,,-2.00000000e-010,-3.86718791e-003
,,,-1.75000000e-010,-4.02890667e-003
,,,-1.50000000e-010,-4.18515669e-003
,,,-1.25000000e-010,-4.33593795e-003
,,,-1.00000000e-010,-4.48203171e-003
,,,-7.50000000e-011,-4.62421922e-003
,,,-5.00000000e-011,-4.76328173e-003
,,,-2.50000000e-011,-4.90000049e-003
,,,0.00000000e+000,-5.01250049e-003
,,,2.50000000e-011,-5.12812550e-003
,,,5.00000000e-011,-5.24687551e-003
,,,7.50000000e-011,-5.37031302e-003
,,,1.00000000e-010,-5.49921928e-003
,,,1.25000000e-010,-5.63125054e-003
,,,1.50000000e-010,-5.76562555e-003
,,,1.75000000e-010,-5.90000056e-003
,,,2.00000000e-010,-5.99609431e-003
,,,2.25000000e-010,-6.08984432e-003
,,,2.50000000e-010,-6.17890683e-003
,,,2.75000000e-010,-6.26250058e-003
,,,3.00000000e-010,-6.33828184e-003
,,,3.25000000e-010,-6.40468809e-003
,,,3.50000000e-010,-6.45937560e-003
,,,3.75000000e-010,-6.50000060e-003
,,,4.00000000e-010,-6.48359435e-003
,,,4.25000000e-010,-6.45390685e-003
,,,4.50000000e-010,-6.41328184e-003
,,,4.75000000e-010,-6.36328184e-003
,,,5.00000000e-010,-6.30625059e-003
,,,5.25000000e-010,-6.24296933e-003
,,,5.50000000e-010,-6.17421933e-003
,,,5.75000000e-010,-6.10000057e-003
,,,6.00000000e-010,-5.98437556e-003
,,,6.25000000e-010,-5.86562555e-003
,,,6.50000000e-010,-5.74531305e-003
,,,6.75000000e-010,-5.62187554e-003
,,,7.00000000e-010,-5.49687553e-003
,,,7.25000000e-010,-5.36796927e-003
,,,7.50000000e-010,-5.23593801e-003
,,,7.75000000e-010,-5.10000050e-003
,,,8.00000000e-010,-4.93906299e-003
,,,8.25000000e-010,-4.77656298e-003
,,,8.50000000e-010,-4.61406297e-003
,,,8.75000000e-010,-4.45625046e-003
,,,9.00000000e-010,-4.30312544e-003
,,,9.25000000e-010,-4.15859418e-003
,,,9.50000000e-010,-4.02421917e-003
,,,9.75000000e-010,-3.90000042e-003
,,,1.00000000e-009,-3.77812541e-003
,,,1.02500000e-009,-3.66406290e-003
,,,1.05000000e-009,-3.55859414e-003
,,,1.07500000e-009,-3.45937538e-003
,,,1.10000000e-009,-3.36484413e-003
,,,1.12500000e-009,-3.27500037e-003
,,,1.15000000e-009,-3.18671912e-003
,,,1.17500000e-009,-3.10000036e-003
,,,1.20000000e-009,-3.01406285e-003
,,,1.22500000e-009,-2.92265660e-003
,,,1.25000000e-009,-2.82500034e-003
,,,1.27500000e-009,-2.72265658e-003
,,,1.30000000e-009,-2.61562532e-003
,,,1.32500000e-009,-2.50781282e-003
,,,1.35000000e-009,-2.40156281e-003
,,,1.37500000e-009,-2.30000030e-003
,,,1.40000000e-009,-2.21406280e-003
,,,1.42500000e-009,-2.13281279e-003
,,,1.45000000e-009,-2.06015654e-003
,,,1.47500000e-009,-1.99765653e-003
,,,1.50000000e-009,-1.94843778e-003
,,,1.52500000e-009,-1.91562528e-003
,,,1.55000000e-009,-1.90000027e-003
,,,1.57500000e-009,-1.90000027e-003
,,,1.60000000e-009,-1.92187528e-003
,,,1.62500000e-009,-1.94687528e-003
,,,1.65000000e-009,-1.96953153e-003
,,,1.67500000e-009,-1.98437528e-003
,,,1.70000000e-009,-1.98750028e-003
,,,1.72500000e-009,-1.97500028e-003
,,,1.75000000e-009,-1.94609403e-003
,,,1.77500000e-009,-1.90000027e-003
,,,1.80000000e-009,-1.84140652e-003
,,,1.82500000e-009,-1.76562526e-003
,,,1.85000000e-009,-1.67812526e-003
,,,1.87500000e-009,-1.58515650e-003
,,,1.90000000e-009,-1.49375025e-003
,,,1.92500000e-009,-1.41250024e-003
,,,1.95000000e-009,-1.34609398e-003
,,,1.97500000e-009,-1.30000023e-003
,,,2.00000000e-009,-1.27734398e-003
,,,2.02500000e-009,-1.27109398e-003
,,,2.05000000e-009,-1.27734398e-003
,,,2.07500000e-009,-1.28984398e-003
,,,2.10000000e-009,-1.30468773e-003
,,,2.12500000e-009,-1.31406273e-003
,,,2.15000000e-009,-1.31406273e-003
,,,2.17500000e-009,-1.30000023e-003
,,,2.20000000e-009,-1.27031273e-003
,,,2.22500000e-009,-1.22109398e-003
,,,2.25000000e-009,-1.15234397e-003
,,,2.27500000e-009,-1.06953147e-003
,,,2.30000000e-009,-9.76562709e-004
,,,2.32500000e-009,-8.80468952e-004
,,,2.35000000e-009,-7.85937695e-004
,,,2.37500000e-009,-7.00000189e-004
,,,2.40000000e-009,-6.31250184e-004
,,,2.42500000e-009,-5.76562681e-004
,,,2.45000000e-009,-5.35937678e-004
,,,2.47500000e-009,-5.10156426e-004
,,,2.50000000e-009,-4.96093925e-004
,,,2.52500000e-009,-4.92187675e-004
,,,2.55000000e-009,-4.94531425e-004
,,,2.57500000e-009,-5.00000175e-004
,,,2.60000000e-009,-5.08593926e-004
,,,2.62500000e-009,-5.10937676e-004
,,,2.65000000e-009,-5.03906425e-004
,,,2.67500000e-009,-4.85937674e-004
,,,2.70000000e-009,-4.56250172e-004
,,,2.72500000e-009,-4.14062669e-004
,,,2.75000000e-009,-3.61718915e-004
,,,2.77500000e-009,-3.00000161e-004
,,,2.80000000e-009,-2.39843907e-004
,,,2.82500000e-009,-1.76562652e-004
,,,2.85000000e-009,-1.11718898e-004
,,,2.87500000e-009,-5.00001432e-005
,,,2.90000000e-009,4.68736063e-006
,,,2.92500000e-009,5.07811139e-005
,,,2.95000000e-009,8.28123662e-005
,,,2.97500000e-009,9.99998674e-005
,,,3.00000000e-009,9.29686169e-005
,,,3.02500000e-009,7.03123653e-005
,,,3.05000000e-009,3.20311126e-005
,,,3.07500000e-009,-1.87501410e-005
,,,3.10000000e-009,-8.04688954e-005
,,,3.12500000e-009,-1.50000150e-004
,,,3.15000000e-009,-2.24218906e-004
,,,3.17500000e-009,-3.00000161e-004
,,,3.20000000e-009,-3.75781416e-004
,,,3.22500000e-009,-4.41406421e-004
,,,3.25000000e-009,-4.93750175e-004
,,,3.27500000e-009,-5.30468927e-004
,,,3.30000000e-009,-5.49218929e-004
,,,3.32500000e-009,-5.49218929e-004
,,,3.35000000e-009,-5.32031427e-004
,,,3.37500000e-009,-5.00000175e-004
,,,3.40000000e-009,-4.55468922e-004
,,,3.42500000e-009,-4.04687668e-004
,,,3.45000000e-009,-3.54687665e-004
,,,3.47500000e-009,-3.11718912e-004
,,,3.50000000e-009,-2.80468910e-004
,,,3.52500000e-009,-2.66406409e-004
,,,3.55000000e-009,-2.71875159e-004
,,,3.57500000e-009,-3.00000161e-004
,,,3.60000000e-009,-3.45312664e-004
,,,3.62500000e-009,-4.05468918e-004
,,,3.65000000e-009,-4.74218923e-004
,,,3.67500000e-009,-5.43750178e-004
,,,3.70000000e-009,-6.07812683e-004
,,,3.72500000e-009,-6.58593936e-004
,,,3.75000000e-009,-6.90625189e-004
,,,3.77500000e-009,-7.00000189e-004
,,,3.80000000e-009,-6.82031438e-004
,,,3.82500000e-009,-6.42187685e-004
,,,3.85000000e-009,-5.85937681e-004
,,,3.87500000e-009,-5.20312677e-004
,,,3.90000000e-009,-4.50781422e-004
,,,3.92500000e-009,-3.86718917e-004
,,,3.95000000e-009,-3.35156413e-004
,,,3.97500000e-009,-3.00000161e-004
,,,4.00000000e-009,-2.81250160e-004
,,,4.02500000e-009,-2.83593910e-004
,,,4.05000000e-009,-3.04687661e-004
,,,4.07500000e-009,-3.40625164e-004
,,,4.10000000e-009,-3.84375167e-004
,,,4.12500000e-009,-4.30468920e-004
,,,4.15000000e-009,-4.70312673e-004
,,,4.17500000e-009,-5.00000175e-004
,,,4.20000000e-009,-5.08593926e-004
,,,4.22500000e-009,-4.97656425e-004
,,,4.25000000e-009,-4.66406423e-004
,,,4.27500000e-009,-4.15625169e-004
,,,4.30000000e-009,-3.49218914e-004
,,,4.32500000e-009,-2.71093909e-004
,,,4.35000000e-009,-1.85937653e-004
,,,4.37500000e-009,-1.00000147e-004
,,,4.40000000e-009,-1.95313911e-005
,,,4.42500000e-009,4.99998638e-005
,,,4.45000000e-009,1.05468618e-004
,,,4.47500000e-009,1.43749870e-004
,,,4.50000000e-009,1.62499872e-004
,,,4.52500000e-009,1.60937372e-004
,,,4.55000000e-009,1.39843620e-004
,,,4.57500000e-009,9.99998674e-005
,,,4.60000000e-009,4.37498634e-005
,,,4.62500000e-009,-2.18751412e-005
,,,4.65000000e-009,-9.14063962e-005
,,,4.67500000e-009,-1.57812651e-004
,,,4.70000000e-009,-2.16406405e-004
,,,4.72500000e-009,-2.61718908e-004
,,,4.75000000e-009,-2.90625160e-004
,,,4.77500000e-009,-3.00000161e-004
,,,4.80000000e-009,-2.89843910e-004
,,,4.82500000e-009,-2.60156408e-004
,,,4.85000000e-009,-2.14062655e-004
,,,4.87500000e-009,-1.55468901e-004
,,,4.90000000e-009,-8.90626460e-005
,,,4.92500000e-009,-2.10938912e-005
,,,4.95000000e-009,4.37498634e-005
,,,4.97500000e-009,9.99998674e-005
,,,5.00000000e-009,1.40624870e-004
,,,5.02500000e-009,1.66406122e-004
,,,5.05000000e-009,1.78906123e-004
,,,5.07500000e-009,1.78124873e-004
,,,5.10000000e-009,1.67187372e-004
,,,5.12500000e-009,1.48437371e-004
,,,5.15000000e-009,1.25781119e-004
,,,5.17500000e-009,9.99998674e-005
,,,5.20000000e-009,7.03123653e-005
,,,5.22500000e-009,4.21873633e-005
,,,5.25000000e-009,1.64061115e-005
,,,5.27500000e-009,-7.81264025e-006
,,,5.30000000e-009,-2.96876418e-005
,,,5.32500000e-009,-5.15626433e-005
,,,5.35000000e-009,-7.50001450e-005
,,,5.37500000e-009,-1.00000147e-004
,,,5.40000000e-009,-1.27343899e-004
,,,5.42500000e-009,-1.57031401e-004
,,,5.45000000e-009,-1.87500153e-004
,,,5.47500000e-009,-2.17187655e-004
,,,5.50000000e-009,-2.44531407e-004
,,,5.52500000e-009,-2.67968909e-004
,,,5.55000000e-009,-2.86718910e-004
,,,5.57500000e-009,-3.00000161e-004
,,,5.60000000e-009,-3.03906411e-004
,,,5.62500000e-009,-3.03906411e-004
,,,5.65000000e-009,-3.00000161e-004
,,,5.67500000e-009,-2.95312661e-004
,,,5.70000000e-009,-2.90625160e-004
,,,5.72500000e-009,-2.89062660e-004
,,,5.75000000e-009,-2.91406410e-004
,,,5.77500000e-009,-3.00000161e-004
,,,5.80000000e-009,-3.14062662e-004
,,,5.82500000e-009,-3.34375163e-004
,,,5.85000000e-009,-3.58593915e-004
