RawData/SinglePhotoelectron/R3_50foot_5mV/wave026_Ch2.csv

"Record Length",1000,"Points",-7.72500000e-009,2.26562516e-004
"Sample Interval",2.50000000e-011,s,-7.70000000e-009,2.52343768e-004
"Trigger Point",309,"Samples",-7.67500000e-009,2.75781270e-004
"Trigger Time",1.46898565e-011,s,-7.65000000e-009,2.99218771e-004
"",,,-7.62500000e-009,3.23437523e-004
"Horizontal Offset",-7.72500000e-009,s,-7.60000000e-009,3.47656275e-004
,,,-7.57500000e-009,3.73437526e-004
,,,-7.55000000e-009,4.00000028e-004
,,,-7.52500000e-009,4.22656280e-004
,,,-7.50000000e-009,4.42187531e-004
,,,-7.47500000e-009,4.57812532e-004
,,,-7.45000000e-009,4.67187533e-004
,,,-7.42500000e-009,4.66406283e-004
,,,-7.40000000e-009,4.56250032e-004
,,,-7.37500000e-009,4.33593781e-004
,,,-7.35000000e-009,4.00000028e-004
,,,-7.32500000e-009,3.51562525e-004
,,,-7.30000000e-009,2.96093771e-004
,,,-7.27500000e-009,2.35937517e-004
,,,-7.25000000e-009,1.75781262e-004
,,,-7.22500000e-009,1.18750008e-004
,,,-7.20000000e-009,6.87500049e-005
,,,-7.17500000e-009,2.81250020e-005
,,,-7.15000000e-009,0.00000000e+000
,,,-7.12500000e-009,-1.71875012e-005
,,,-7.10000000e-009,-2.34375017e-005
,,,-7.07500000e-009,-2.18750015e-005
,,,-7.05000000e-009,-1.40625010e-005
,,,-7.02500000e-009,-4.68750033e-006
,,,-7.00000000e-009,2.34375017e-006
,,,-6.97500000e-009,4.68750033e-006
,,,-6.95000000e-009,0.00000000e+000
,,,-6.92500000e-009,-1.40625010e-005
,,,-6.90000000e-009,-3.67187526e-005
,,,-6.87500000e-009,-6.56250046e-005
,,,-6.85000000e-009,-9.84375070e-005
,,,-6.82500000e-009,-1.32031259e-004
,,,-6.80000000e-009,-1.61718761e-004
,,,-6.77500000e-009,-1.85156263e-004
,,,-6.75000000e-009,-2.00000014e-004
,,,-6.72500000e-009,-2.01562514e-004
,,,-6.70000000e-009,-1.92187514e-004
,,,-6.67500000e-009,-1.71875012e-004
,,,-6.65000000e-009,-1.43750010e-004
,,,-6.62500000e-009,-1.09375008e-004
,,,-6.60000000e-009,-7.18750051e-005
,,,-6.57500000e-009,-3.43750024e-005
,,,-6.55000000e-009,0.00000000e+000
,,,-6.52500000e-009,2.96875021e-005
,,,-6.50000000e-009,5.07812536e-005
,,,-6.47500000e-009,6.32812545e-005
,,,-6.45000000e-009,6.64062547e-005
,,,-6.42500000e-009,6.01562543e-005
,,,-6.40000000e-009,4.60937533e-005
,,,-6.37500000e-009,2.50000018e-005
,,,-6.35000000e-009,0.00000000e+000
,,,-6.32500000e-009,-2.73437519e-005
,,,-6.30000000e-009,-5.70312540e-005
,,,-6.27500000e-009,-8.75000062e-005
,,,-6.25000000e-009,-1.15625008e-004
,,,-6.22500000e-009,-1.42187510e-004
,,,-6.20000000e-009,-1.65625012e-004
,,,-6.17500000e-009,-1.84375013e-004
,,,-6.15000000e-009,-2.00000014e-004
,,,-6.12500000e-009,-2.09375015e-004
,,,-6.10000000e-009,-2.14843765e-004
,,,-6.07500000e-009,-2.16406265e-004
,,,-6.05000000e-009,-2.15625015e-004
,,,-6.02500000e-009,-2.13281265e-004
,,,-6.00000000e-009,-2.08593765e-004
,,,-5.97500000e-009,-2.03906264e-004
,,,-5.95000000e-009,-2.00000014e-004
,,,-5.92500000e-009,-1.94531264e-004
,,,-5.90000000e-009,-1.90625013e-004
,,,-5.87500000e-009,-1.88281263e-004
,,,-5.85000000e-009,-1.87500013e-004
,,,-5.82500000e-009,-1.89062513e-004
,,,-5.80000000e-009,-1.91406264e-004
,,,-5.77500000e-009,-1.95312514e-004
,,,-5.75000000e-009,-2.00000014e-004
,,,-5.72500000e-009,-2.00781264e-004
,,,-5.70000000e-009,-2.01562514e-004
,,,-5.67500000e-009,-2.01562514e-004
,,,-5.65000000e-009,-2.01562514e-004
,,,-5.62500000e-009,-2.00781264e-004
,,,-5.60000000e-009,-2.00000014e-004
,,,-5.57500000e-009,-1.99218764e-004
,,,-5.55000000e-009,-2.00000014e-004
,,,-5.52500000e-009,-1.98437514e-004
,,,-5.50000000e-009,-1.98437514e-004
,,,-5.47500000e-009,-1.98437514e-004
,,,-5.45000000e-009,-1.99218764e-004
,,,-5.42500000e-009,-2.00000014e-004
,,,-5.40000000e-009,-2.00781264e-004
,,,-5.37500000e-009,-2.00000014e-004
,,,-5.35000000e-009,-2.00000014e-004
,,,-5.32500000e-009,-1.96093764e-004
,,,-5.30000000e-009,-1.92187514e-004
,,,-5.27500000e-009,-1.89062513e-004
,,,-5.25000000e-009,-1.87500013e-004
,,,-5.22500000e-009,-1.88281263e-004
,,,-5.20000000e-009,-1.90625013e-004
,,,-5.17500000e-009,-1.94531264e-004
,,,-5.15000000e-009,-2.00000014e-004
,,,-5.12500000e-009,-2.02343764e-004
,,,-5.10000000e-009,-2.01562514e-004
,,,-5.07500000e-009,-1.94531264e-004
,,,-5.05000000e-009,-1.78906263e-004
,,,-5.02500000e-009,-1.52343761e-004
,,,-5.00000000e-009,-1.14062508e-004
,,,-4.97500000e-009,-6.25000044e-005
,,,-4.95000000e-009,0.00000000e+000
,,,-4.92500000e-009,7.03125050e-005
,,,-4.90000000e-009,1.45312510e-004
,,,-4.87500000e-009,2.19531266e-004
,,,-4.85000000e-009,2.87500020e-004
,,,-4.82500000e-009,3.43750024e-004
,,,-4.80000000e-009,3.82812527e-004
,,,-4.77500000e-009,4.02343778e-004
,,,-4.75000000e-009,4.00000028e-004
,,,-4.72500000e-009,3.71093776e-004
,,,-4.70000000e-009,3.24218773e-004
,,,-4.67500000e-009,2.65625019e-004
,,,-4.65000000e-009,1.99218764e-004
,,,-4.62500000e-009,1.33593759e-004
,,,-4.60000000e-009,7.50000053e-005
,,,-4.57500000e-009,2.89062520e-005
,,,-4.55000000e-009,0.00000000e+000
,,,-4.52500000e-009,-1.09375008e-005
,,,-4.50000000e-009,-3.12500022e-006
,,,-4.47500000e-009,2.03125014e-005
,,,-4.45000000e-009,5.62500040e-005
,,,-4.42500000e-009,9.76562569e-005
,,,-4.40000000e-009,1.39062510e-004
,,,-4.37500000e-009,1.74218762e-004
,,,-4.35000000e-009,2.00000014e-004
,,,-4.32500000e-009,2.09375015e-004
,,,-4.30000000e-009,2.04687514e-004
,,,-4.27500000e-009,1.85937513e-004
,,,-4.25000000e-009,1.56250011e-004
,,,-4.22500000e-009,1.18750008e-004
,,,-4.20000000e-009,7.73437555e-005
,,,-4.17500000e-009,3.59375025e-005
,,,-4.15000000e-009,0.00000000e+000
,,,-4.12500000e-009,-2.81250020e-005
,,,-4.10000000e-009,-4.76562534e-005
,,,-4.07500000e-009,-5.62500040e-005
,,,-4.05000000e-009,-5.46875039e-005
,,,-4.02500000e-009,-4.68750033e-005
,,,-4.00000000e-009,-3.28125023e-005
,,,-3.97500000e-009,-1.64062512e-005
,,,-3.95000000e-009,0.00000000e+000
,,,-3.92500000e-009,1.40625010e-005
,,,-3.90000000e-009,2.42187517e-005
,,,-3.87500000e-009,3.04687522e-005
,,,-3.85000000e-009,3.12500022e-005
,,,-3.82500000e-009,2.73437519e-005
,,,-3.80000000e-009,2.03125014e-005
,,,-3.77500000e-009,1.09375008e-005
,,,-3.75000000e-009,0.00000000e+000
,,,-3.72500000e-009,-8.59375061e-006
,,,-3.70000000e-009,-1.71875012e-005
,,,-3.67500000e-009,-2.34375017e-005
,,,-3.65000000e-009,-2.65625019e-005
,,,-3.62500000e-009,-2.65625019e-005
,,,-3.60000000e-009,-2.18750015e-005
,,,-3.57500000e-009,-1.32812509e-005
,,,-3.55000000e-009,0.00000000e+000
,,,-3.52500000e-009,1.71875012e-005
,,,-3.50000000e-009,3.90625028e-005
,,,-3.47500000e-009,6.40625045e-005
,,,-3.45000000e-009,9.06250064e-005
,,,-3.42500000e-009,1.19531258e-004
,,,-3.40000000e-009,1.47656260e-004
,,,-3.37500000e-009,1.75000012e-004
,,,-3.35000000e-009,2.00000014e-004
,,,-3.32500000e-009,2.21093766e-004
,,,-3.30000000e-009,2.36718767e-004
,,,-3.27500000e-009,2.46875017e-004
,,,-3.25000000e-009,2.50781268e-004
,,,-3.22500000e-009,2.47656268e-004
,,,-3.20000000e-009,2.37500017e-004
,,,-3.17500000e-009,2.21875016e-004
,,,-3.15000000e-009,2.00000014e-004
,,,-3.12500000e-009,1.71875012e-004
,,,-3.10000000e-009,1.41406260e-004
,,,-3.07500000e-009,1.10156258e-004
,,,-3.05000000e-009,7.96875056e-005
,,,-3.02500000e-009,5.31250038e-005
,,,-3.00000000e-009,2.96875021e-005
,,,-2.97500000e-009,1.17187508e-005
,,,-2.95000000e-009,0.00000000e+000
,,,-2.92500000e-009,-7.03125050e-006
,,,-2.90000000e-009,-1.01562507e-005
,,,-2.87500000e-009,-9.37500066e-006
,,,-2.85000000e-009,-6.25000044e-006
,,,-2.82500000e-009,-2.34375017e-006
,,,-2.80000000e-009,0.00000000e+000
,,,-2.77500000e-009,7.81250055e-007
,,,-2.75000000e-009,0.00000000e+000
,,,-2.72500000e-009,-3.90625028e-006
,,,-2.70000000e-009,-1.01562507e-005
,,,-2.67500000e-009,-1.71875012e-005
,,,-2.65000000e-009,-2.26562516e-005
,,,-2.62500000e-009,-2.50000018e-005
,,,-2.60000000e-009,-2.26562516e-005
,,,-2.57500000e-009,-1.48437511e-005
,,,-2.55000000e-009,0.00000000e+000
,,,-2.52500000e-009,2.03125014e-005
,,,-2.50000000e-009,4.60937533e-005
,,,-2.47500000e-009,7.57812554e-005
,,,-2.45000000e-009,1.07031258e-004
,,,-2.42500000e-009,1.37500010e-004
,,,-2.40000000e-009,1.64843762e-004
,,,-2.37500000e-009,1.85937513e-004
,,,-2.35000000e-009,2.00000014e-004
,,,-2.32500000e-009,2.03125014e-004
,,,-2.30000000e-009,1.96093764e-004
,,,-2.27500000e-009,1.79687513e-004
,,,-2.25000000e-009,1.53906261e-004
,,,-2.22500000e-009,1.21875009e-004
,,,-2.20000000e-009,8.35937559e-005
,,,-2.17500000e-009,4.21875030e-005
,,,-2.15000000e-009,0.00000000e+000
,,,-2.12500000e-009,-4.14062529e-005
,,,-2.10000000e-009,-7.96875056e-005
,,,-2.07500000e-009,-1.14062508e-004
,,,-2.05000000e-009,-1.42968760e-004
,,,-2.02500000e-009,-1.66406262e-004
,,,-2.00000000e-009,-1.82812513e-004
,,,-1.97500000e-009,-1.93750014e-004
,,,-1.95000000e-009,-2.00000014e-004
,,,-1.92500000e-009,-2.00781264e-004
,,,-1.90000000e-009,-2.00000014e-004
,,,-1.87500000e-009,-1.96875014e-004
,,,-1.85000000e-009,-1.94531264e-004
,,,-1.82500000e-009,-1.92187514e-004
,,,-1.80000000e-009,-1.92968764e-004
,,,-1.77500000e-009,-1.95312514e-004
,,,-1.75000000e-009,-2.00000014e-004
,,,-1.72500000e-009,-2.10937515e-004
,,,-1.70000000e-009,-2.23437516e-004
,,,-1.67500000e-009,-2.35156267e-004
,,,-1.65000000e-009,-2.43750017e-004
,,,-1.62500000e-009,-2.46093767e-004
,,,-1.60000000e-009,-2.40625017e-004
,,,-1.57500000e-009,-2.25000016e-004
,,,-1.55000000e-009,-2.00000014e-004
,,,-1.52500000e-009,-1.75000012e-004
,,,-1.50000000e-009,-1.45312510e-004
,,,-1.47500000e-009,-1.13281258e-004
,,,-1.45000000e-009,-8.12500058e-005
,,,-1.42500000e-009,-5.15625036e-005
,,,-1.40000000e-009,-2.65625019e-005
,,,-1.37500000e-009,-8.59375061e-006
,,,-1.35000000e-009,0.00000000e+000
,,,-1.32500000e-009,-1.56250011e-005
,,,-1.30000000e-009,-4.21875030e-005
,,,-1.27500000e-009,-7.57812554e-005
,,,-1.25000000e-009,-1.11718758e-004
,,,-1.22500000e-009,-1.46093760e-004
,,,-1.20000000e-009,-1.73437512e-004
,,,-1.17500000e-009,-1.92187514e-004
,,,-1.15000000e-009,-2.00000014e-004
,,,-1.12500000e-009,-2.16406265e-004
,,,-1.10000000e-009,-2.28906266e-004
,,,-1.07500000e-009,-2.39843767e-004
,,,-1.05000000e-009,-2.52343768e-004
,,,-1.02500000e-009,-2.71093769e-004
,,,-1.00000000e-009,-3.00000021e-004
,,,-9.75000000e-010,-3.41406274e-004
,,,-9.50000000e-010,-4.00000028e-004
,,,-9.25000000e-010,-4.98437535e-004
,,,-9.00000000e-010,-6.15625044e-004
,,,-8.75000000e-010,-7.47656303e-004
,,,-8.50000000e-010,-8.87500063e-004
,,,-8.25000000e-010,-1.02812507e-003
,,,-8.00000000e-010,-1.16328133e-003
,,,-7.75000000e-010,-1.28828134e-003
,,,-7.50000000e-010,-1.40000010e-003
,,,-7.25000000e-010,-1.51406261e-003
,,,-7.00000000e-010,-1.61875011e-003
,,,-6.75000000e-010,-1.71562512e-003
,,,-6.50000000e-010,-1.80781263e-003
,,,-6.25000000e-010,-1.89843763e-003
,,,-6.00000000e-010,-1.99140639e-003
,,,-5.75000000e-010,-2.09062515e-003
,,,-5.50000000e-010,-2.20000016e-003
,,,-5.25000000e-010,-2.33437517e-003
,,,-5.00000000e-010,-2.48359393e-003
,,,-4.75000000e-010,-2.64375019e-003
,,,-4.50000000e-010,-2.80937520e-003
,,,-4.25000000e-010,-2.97343771e-003
,,,-4.00000000e-010,-3.12968772e-003
,,,-3.75000000e-010,-3.27265648e-003
,,,-3.50000000e-010,-3.40000024e-003
,,,-3.25000000e-010,-3.51562525e-003
,,,-3.00000000e-010,-3.62109401e-003
,,,-2.75000000e-010,-3.71875026e-003
,,,-2.50000000e-010,-3.81093777e-003
,,,-2.25000000e-010,-3.90156278e-003
,,,-2.00000000e-010,-3.99375028e-003
,,,-1.75000000e-010,-4.09218779e-003
,,,-1.50000000e-010,-4.20000030e-003
,,,-1.25000000e-010,-4.32031281e-003
,,,-1.00000000e-010,-4.45859407e-003
,,,-7.50000000e-011,-4.61093783e-003
,,,-5.00000000e-011,-4.77265659e-003
,,,-2.50000000e-011,-4.93906285e-003
,,,0.00000000e+000,-5.10234411e-003
,,,2.50000000e-011,-5.25703162e-003
,,,5.00000000e-011,-5.40000038e-003
,,,7.50000000e-011,-5.52031289e-003
,,,1.00000000e-010,-5.63281290e-003
,,,1.25000000e-010,-5.73671916e-003
,,,1.50000000e-010,-5.83437541e-003
,,,1.75000000e-010,-5.92812542e-003
,,,2.00000000e-010,-6.01875043e-003
,,,2.25000000e-010,-6.10859418e-003
,,,2.50000000e-010,-6.20000044e-003
,,,2.75000000e-010,-6.28437544e-003
,,,3.00000000e-010,-6.37812545e-003
,,,3.25000000e-010,-6.48046921e-003
,,,3.50000000e-010,-6.58750047e-003
,,,3.75000000e-010,-6.69687547e-003
,,,4.00000000e-010,-6.80390673e-003
,,,4.25000000e-010,-6.90546924e-003
,,,4.50000000e-010,-7.00000050e-003
,,,4.75000000e-010,-7.07187550e-003
,,,5.00000000e-010,-7.14062551e-003
,,,5.25000000e-010,-7.20937551e-003
,,,5.50000000e-010,-7.27968802e-003
,,,5.75000000e-010,-7.35234427e-003
,,,6.00000000e-010,-7.42968803e-003
,,,6.25000000e-010,-7.51250053e-003
,,,6.50000000e-010,-7.60000054e-003
,,,6.75000000e-010,-7.67500054e-003
,,,7.00000000e-010,-7.75703180e-003
,,,7.25000000e-010,-7.84296931e-003
,,,7.50000000e-010,-7.92890681e-003
,,,7.75000000e-010,-8.01250057e-003
,,,8.00000000e-010,-8.08750057e-003
,,,8.25000000e-010,-8.15078183e-003
,,,8.50000000e-010,-8.20000058e-003
,,,8.75000000e-010,-8.21250058e-003
,,,9.00000000e-010,-8.21484433e-003
,,,9.25000000e-010,-8.20937558e-003
,,,9.50000000e-010,-8.20078183e-003
,,,9.75000000e-010,-8.19218808e-003
,,,1.00000000e-009,-8.18750058e-003
,,,1.02500000e-009,-8.18906308e-003
,,,1.05000000e-009,-8.20000058e-003
,,,1.07500000e-009,-8.20078183e-003
,,,1.10000000e-009,-8.21250058e-003
,,,1.12500000e-009,-8.23437558e-003
,,,1.15000000e-009,-8.26484433e-003
,,,1.17500000e-009,-8.30078184e-003
,,,1.20000000e-009,-8.33750059e-003
,,,1.22500000e-009,-8.37187559e-003
,,,1.25000000e-009,-8.40000059e-003
,,,1.27500000e-009,-8.39843809e-003
,,,1.30000000e-009,-8.38750059e-003
,,,1.32500000e-009,-8.36718809e-003
,,,1.35000000e-009,-8.33984434e-003
,,,1.37500000e-009,-8.30781309e-003
,,,1.40000000e-009,-8.27265684e-003
,,,1.42500000e-009,-8.23671933e-003
,,,1.45000000e-009,-8.20000058e-003
,,,1.47500000e-009,-8.14453183e-003
,,,1.50000000e-009,-8.09062557e-003
,,,1.52500000e-009,-8.03828182e-003
,,,1.55000000e-009,-7.98828182e-003
,,,1.57500000e-009,-7.94062556e-003
,,,1.60000000e-009,-7.89375056e-003
,,,1.62500000e-009,-7.84765681e-003
,,,1.65000000e-009,-7.80000055e-003
,,,1.67500000e-009,-7.73281305e-003
,,,1.70000000e-009,-7.66093804e-003
,,,1.72500000e-009,-7.58515679e-003
,,,1.75000000e-009,-7.50703178e-003
,,,1.77500000e-009,-7.42812553e-003
,,,1.80000000e-009,-7.35000052e-003
,,,1.82500000e-009,-7.27343801e-003
,,,1.85000000e-009,-7.20000051e-003
,,,1.87500000e-009,-7.11640675e-003
,,,1.90000000e-009,-7.03437550e-003
,,,1.92500000e-009,-6.95312549e-003
,,,1.95000000e-009,-6.87500049e-003
,,,1.97500000e-009,-6.80000048e-003
,,,2.00000000e-009,-6.72890673e-003
,,,2.02500000e-009,-6.66250047e-003
,,,2.05000000e-009,-6.60000047e-003
,,,2.07500000e-009,-6.52890671e-003
,,,2.10000000e-009,-6.45546921e-003
,,,2.12500000e-009,-6.38125045e-003
,,,2.15000000e-009,-6.30546920e-003
,,,2.17500000e-009,-6.22890669e-003
,,,2.20000000e-009,-6.15234419e-003
,,,2.22500000e-009,-6.07656293e-003
,,,2.25000000e-009,-6.00000042e-003
,,,2.27500000e-009,-5.91640667e-003
,,,2.30000000e-009,-5.82656291e-003
,,,2.32500000e-009,-5.73203166e-003
,,,2.35000000e-009,-5.63125040e-003
,,,2.37500000e-009,-5.52656289e-003
,,,2.40000000e-009,-5.41875038e-003
,,,2.42500000e-009,-5.30937538e-003
,,,2.45000000e-009,-5.20000037e-003
,,,2.47500000e-009,-5.08984411e-003
,,,2.50000000e-009,-4.97812535e-003
,,,2.52500000e-009,-4.86718784e-003
,,,2.55000000e-009,-4.75859409e-003
,,,2.57500000e-009,-4.65625033e-003
,,,2.60000000e-009,-4.56093782e-003
,,,2.62500000e-009,-4.47578157e-003
,,,2.65000000e-009,-4.40000031e-003
,,,2.67500000e-009,-4.33515656e-003
,,,2.70000000e-009,-4.27109405e-003
,,,2.72500000e-009,-4.20625030e-003
,,,2.75000000e-009,-4.13828154e-003
,,,2.77500000e-009,-4.06484404e-003
,,,2.80000000e-009,-3.98359403e-003
,,,2.82500000e-009,-3.89531278e-003
,,,2.85000000e-009,-3.80000027e-003
,,,2.87500000e-009,-3.70078151e-003
,,,2.90000000e-009,-3.59375025e-003
,,,2.92500000e-009,-3.48046900e-003
,,,2.95000000e-009,-3.36640649e-003
,,,2.97500000e-009,-3.25703148e-003
,,,3.00000000e-009,-3.15625022e-003
,,,3.02500000e-009,-3.06953147e-003
,,,3.05000000e-009,-3.00000021e-003
,,,3.07500000e-009,-2.95312521e-003
,,,3.10000000e-009,-2.91875021e-003
,,,3.12500000e-009,-2.89375020e-003
,,,3.15000000e-009,-2.87421895e-003
,,,3.17500000e-009,-2.85859395e-003
,,,3.20000000e-009,-2.84218770e-003
,,,3.22500000e-009,-2.82343770e-003
,,,3.25000000e-009,-2.80000020e-003
,,,3.27500000e-009,-2.77343770e-003
,,,3.30000000e-009,-2.73515644e-003
,,,3.32500000e-009,-2.68671894e-003
,,,3.35000000e-009,-2.62968769e-003
,,,3.37500000e-009,-2.56875018e-003
,,,3.40000000e-009,-2.50703143e-003
,,,3.42500000e-009,-2.45000017e-003
,,,3.45000000e-009,-2.40000017e-003
,,,3.47500000e-009,-2.36171892e-003
,,,3.50000000e-009,-2.32890641e-003
,,,3.52500000e-009,-2.30156266e-003
,,,3.55000000e-009,-2.27812516e-003
,,,3.57500000e-009,-2.25781266e-003
,,,3.60000000e-009,-2.23906266e-003
,,,3.62500000e-009,-2.22031266e-003
,,,3.65000000e-009,-2.20000016e-003
,,,3.67500000e-009,-2.17656265e-003
,,,3.70000000e-009,-2.14453140e-003
,,,3.72500000e-009,-2.10312515e-003
,,,3.75000000e-009,-2.05312515e-003
,,,3.77500000e-009,-1.99609389e-003
,,,3.80000000e-009,-1.93281264e-003
,,,3.82500000e-009,-1.86718763e-003
,,,3.85000000e-009,-1.80000013e-003
,,,3.87500000e-009,-1.73750012e-003
,,,3.90000000e-009,-1.67656262e-003
,,,3.92500000e-009,-1.61718761e-003
,,,3.95000000e-009,-1.56171886e-003
,,,3.97500000e-009,-1.51171886e-003
,,,4.00000000e-009,-1.46796885e-003
,,,4.02500000e-009,-1.43046885e-003
,,,4.05000000e-009,-1.40000010e-003
,,,4.07500000e-009,-1.37890635e-003
,,,4.10000000e-009,-1.36015635e-003
,,,4.12500000e-009,-1.34140634e-003
,,,4.15000000e-009,-1.32187509e-003
,,,4.17500000e-009,-1.29921884e-003
,,,4.20000000e-009,-1.27187509e-003
,,,4.22500000e-009,-1.23828134e-003
,,,4.25000000e-009,-1.20000008e-003
,,,4.27500000e-009,-1.16015633e-003
,,,4.30000000e-009,-1.11406258e-003
,,,4.32500000e-009,-1.06250008e-003
,,,4.35000000e-009,-1.00703132e-003
,,,4.37500000e-009,-9.50000067e-004
,,,4.40000000e-009,-8.94531313e-004
,,,4.42500000e-009,-8.43750060e-004
,,,4.45000000e-009,-8.00000057e-004
,,,4.47500000e-009,-7.70312555e-004
,,,4.50000000e-009,-7.50000053e-004
,,,4.52500000e-009,-7.38281302e-004
,,,4.55000000e-009,-7.35156302e-004
,,,4.57500000e-009,-7.40625052e-004
,,,4.60000000e-009,-7.53906303e-004
,,,4.62500000e-009,-7.74218805e-004
,,,4.65000000e-009,-8.00000057e-004
,,,4.67500000e-009,-8.34375059e-004
,,,4.70000000e-009,-8.68750061e-004
,,,4.72500000e-009,-9.01562564e-004
,,,4.75000000e-009,-9.30468816e-004
,,,4.77500000e-009,-9.55468818e-004
,,,4.80000000e-009,-9.75000069e-004
,,,4.82500000e-009,-9.89843820e-004
,,,4.85000000e-009,-1.00000007e-003
,,,4.87500000e-009,-1.00703132e-003
,,,4.90000000e-009,-1.01015632e-003
,,,4.92500000e-009,-1.00937507e-003
,,,4.95000000e-009,-1.00625007e-003
,,,4.97500000e-009,-1.00234382e-003
,,,5.00000000e-009,-1.00000007e-003
,,,5.02500000e-009,-9.98437571e-004
,,,5.05000000e-009,-1.00000007e-003
,,,5.07500000e-009,-1.00390632e-003
,,,5.10000000e-009,-1.00859382e-003
,,,5.12500000e-009,-1.01406257e-003
,,,5.15000000e-009,-1.01796882e-003
,,,5.17500000e-009,-1.02031257e-003
,,,5.20000000e-009,-1.01796882e-003
,,,5.22500000e-009,-1.01171882e-003
,,,5.25000000e-009,-1.00000007e-003
,,,5.27500000e-009,-9.81250069e-004
,,,5.30000000e-009,-9.57812568e-004
,,,5.32500000e-009,-9.29687566e-004
,,,5.35000000e-009,-9.00781314e-004
,,,5.37500000e-009,-8.71093812e-004
,,,5.40000000e-009,-8.42968810e-004
,,,5.42500000e-009,-8.18750058e-004
,,,5.45000000e-009,-8.00000057e-004
,,,5.47500000e-009,-7.86718806e-004
,,,5.50000000e-009,-7.79687555e-004
,,,5.52500000e-009,-7.77343805e-004
,,,5.55000000e-009,-7.79687555e-004
,,,5.57500000e-009,-7.85156306e-004
,,,5.60000000e-009,-7.90625056e-004
,,,5.62500000e-009,-7.96093806e-004
,,,5.65000000e-009,-8.00000057e-004
,,,5.67500000e-009,-8.00000057e-004
,,,5.70000000e-009,-7.98437557e-004
,,,5.72500000e-009,-7.95312556e-004
,,,5.75000000e-009,-7.92187556e-004
,,,5.77500000e-009,-7.89843806e-004
,,,5.80000000e-009,-7.89843806e-004
,,,5.82500000e-009,-7.92968806e-004
,,,5.85000000e-009,-8.00000057e-004
,,,5.87500000e-009,-8.10156307e-004
,,,5.90000000e-009,-8.21093808e-004
