RawData/SinglePhotoelectron/R3_50foot_5mV/wave011_Ch2.csv

"Record Length",1000,"Points",-7.72500000e-009,7.51562553e-004
"Sample Interval",2.50000000e-011,s,-7.70000000e-009,7.78125055e-004
"Trigger Point",309,"Samples",-7.67500000e-009,8.00000057e-004
"Trigger Time",1.69295597e-012,s,-7.65000000e-009,8.07031307e-004
"",,,-7.62500000e-009,8.03906307e-004
"Horizontal Offset",-7.72500000e-009,s,-7.60000000e-009,7.91406306e-004
,,,-7.57500000e-009,7.67968804e-004
,,,-7.55000000e-009,7.35156302e-004
,,,-7.52500000e-009,6.95312549e-004
,,,-7.50000000e-009,6.49218796e-004
,,,-7.47500000e-009,6.00000042e-004
,,,-7.45000000e-009,5.50781289e-004
,,,-7.42500000e-009,5.04687536e-004
,,,-7.40000000e-009,4.63281283e-004
,,,-7.37500000e-009,4.30468780e-004
,,,-7.35000000e-009,4.06250029e-004
,,,-7.32500000e-009,3.92968778e-004
,,,-7.30000000e-009,3.90625028e-004
,,,-7.27500000e-009,4.00000028e-004
,,,-7.25000000e-009,4.17968780e-004
,,,-7.22500000e-009,4.44531281e-004
,,,-7.20000000e-009,4.75000034e-004
,,,-7.17500000e-009,5.07812536e-004
,,,-7.15000000e-009,5.40625038e-004
,,,-7.12500000e-009,5.67968790e-004
,,,-7.10000000e-009,5.89062542e-004
,,,-7.07500000e-009,6.00000042e-004
,,,-7.05000000e-009,5.96093792e-004
,,,-7.02500000e-009,5.77343791e-004
,,,-7.00000000e-009,5.43750038e-004
,,,-6.97500000e-009,4.96093785e-004
,,,-6.95000000e-009,4.35156281e-004
,,,-6.92500000e-009,3.63281276e-004
,,,-6.90000000e-009,2.83593770e-004
,,,-6.87500000e-009,2.00000014e-004
,,,-6.85000000e-009,1.18750008e-004
,,,-6.82500000e-009,4.45312532e-005
,,,-6.80000000e-009,-1.56250011e-005
,,,-6.77500000e-009,-5.93750042e-005
,,,-6.75000000e-009,-8.12500058e-005
,,,-6.72500000e-009,-7.96875056e-005
,,,-6.70000000e-009,-5.15625036e-005
,,,-6.67500000e-009,0.00000000e+000
,,,-6.65000000e-009,7.57812554e-005
,,,-6.62500000e-009,1.65625012e-004
,,,-6.60000000e-009,2.63281269e-004
,,,-6.57500000e-009,3.59375025e-004
,,,-6.55000000e-009,4.47656282e-004
,,,-6.52500000e-009,5.20312537e-004
,,,-6.50000000e-009,5.72656291e-004
,,,-6.47500000e-009,6.00000042e-004
,,,-6.45000000e-009,5.96093792e-004
,,,-6.42500000e-009,5.66406290e-004
,,,-6.40000000e-009,5.16406287e-004
,,,-6.37500000e-009,4.52343782e-004
,,,-6.35000000e-009,3.81250027e-004
,,,-6.32500000e-009,3.11718772e-004
,,,-6.30000000e-009,2.49218768e-004
,,,-6.27500000e-009,2.00000014e-004
,,,-6.25000000e-009,1.65625012e-004
,,,-6.22500000e-009,1.47656260e-004
,,,-6.20000000e-009,1.45312510e-004
,,,-6.17500000e-009,1.53906261e-004
,,,-6.15000000e-009,1.68750012e-004
,,,-6.12500000e-009,1.84375013e-004
,,,-6.10000000e-009,1.96093764e-004
,,,-6.07500000e-009,2.00000014e-004
,,,-6.05000000e-009,1.90625013e-004
,,,-6.02500000e-009,1.69531262e-004
,,,-6.00000000e-009,1.39843760e-004
,,,-5.97500000e-009,1.04687507e-004
,,,-5.95000000e-009,6.87500049e-005
,,,-5.92500000e-009,3.67187526e-005
,,,-5.90000000e-009,1.25000009e-005
,,,-5.87500000e-009,0.00000000e+000
,,,-5.85000000e-009,-3.90625028e-006
,,,-5.82500000e-009,7.81250055e-007
,,,-5.80000000e-009,1.25000009e-005
,,,-5.77500000e-009,2.50000018e-005
,,,-5.75000000e-009,3.51562525e-005
,,,-5.72500000e-009,3.59375025e-005
,,,-5.70000000e-009,2.50000018e-005
,,,-5.67500000e-009,0.00000000e+000
,,,-5.65000000e-009,-4.37500031e-005
,,,-5.62500000e-009,-1.00781257e-004
,,,-5.60000000e-009,-1.64843762e-004
,,,-5.57500000e-009,-2.32031266e-004
,,,-5.55000000e-009,-2.94531271e-004
,,,-5.52500000e-009,-3.46875025e-004
,,,-5.50000000e-009,-3.82812527e-004
,,,-5.47500000e-009,-4.00000028e-004
,,,-5.45000000e-009,-3.93750028e-004
,,,-5.42500000e-009,-3.71093776e-004
,,,-5.40000000e-009,-3.36718774e-004
,,,-5.37500000e-009,-2.96093771e-004
,,,-5.35000000e-009,-2.56250018e-004
,,,-5.32500000e-009,-2.22656266e-004
,,,-5.30000000e-009,-2.03125014e-004
,,,-5.27500000e-009,-2.00000014e-004
,,,-5.25000000e-009,-2.17187515e-004
,,,-5.22500000e-009,-2.53125018e-004
,,,-5.20000000e-009,-3.05468772e-004
,,,-5.17500000e-009,-3.67968776e-004
,,,-5.15000000e-009,-4.35156281e-004
,,,-5.12500000e-009,-4.99218785e-004
,,,-5.10000000e-009,-5.56250039e-004
,,,-5.07500000e-009,-6.00000042e-004
,,,-5.05000000e-009,-6.25000044e-004
,,,-5.02500000e-009,-6.35156295e-004
,,,-5.00000000e-009,-6.34375045e-004
,,,-4.97500000e-009,-6.24218794e-004
,,,-4.95000000e-009,-6.11718793e-004
,,,-4.92500000e-009,-6.00000042e-004
,,,-4.90000000e-009,-5.95312542e-004
,,,-4.87500000e-009,-6.00000042e-004
,,,-4.85000000e-009,-6.12500043e-004
,,,-4.82500000e-009,-6.35937545e-004
,,,-4.80000000e-009,-6.67968797e-004
,,,-4.77500000e-009,-7.04687550e-004
,,,-4.75000000e-009,-7.40625052e-004
,,,-4.72500000e-009,-7.71093805e-004
,,,-4.70000000e-009,-7.91406306e-004
,,,-4.67500000e-009,-8.00000057e-004
,,,-4.65000000e-009,-7.89062556e-004
,,,-4.62500000e-009,-7.67187554e-004
,,,-4.60000000e-009,-7.35937552e-004
,,,-4.57500000e-009,-6.99218799e-004
,,,-4.55000000e-009,-6.63281297e-004
,,,-4.52500000e-009,-6.32031295e-004
,,,-4.50000000e-009,-6.09375043e-004
,,,-4.47500000e-009,-6.00000042e-004
,,,-4.45000000e-009,-6.02343793e-004
,,,-4.42500000e-009,-6.18750044e-004
,,,-4.40000000e-009,-6.46093796e-004
,,,-4.37500000e-009,-6.80468798e-004
,,,-4.35000000e-009,-7.17968801e-004
,,,-4.32500000e-009,-7.53125053e-004
,,,-4.30000000e-009,-7.81250055e-004
,,,-4.27500000e-009,-8.00000057e-004
,,,-4.25000000e-009,-8.03125057e-004
,,,-4.22500000e-009,-7.93750056e-004
,,,-4.20000000e-009,-7.72656305e-004
,,,-4.17500000e-009,-7.42968803e-004
,,,-4.15000000e-009,-7.07812550e-004
,,,-4.12500000e-009,-6.69531297e-004
,,,-4.10000000e-009,-6.32031295e-004
,,,-4.07500000e-009,-6.00000042e-004
,,,-4.05000000e-009,-5.75000041e-004
,,,-4.02500000e-009,-5.58593790e-004
,,,-4.00000000e-009,-5.50781289e-004
,,,-3.97500000e-009,-5.51562539e-004
,,,-3.95000000e-009,-5.59375040e-004
,,,-3.92500000e-009,-5.71093790e-004
,,,-3.90000000e-009,-5.85156291e-004
,,,-3.87500000e-009,-6.00000042e-004
,,,-3.85000000e-009,-6.13281293e-004
,,,-3.82500000e-009,-6.23437544e-004
,,,-3.80000000e-009,-6.29687545e-004
,,,-3.77500000e-009,-6.31250045e-004
,,,-3.75000000e-009,-6.28125044e-004
,,,-3.72500000e-009,-6.21093794e-004
,,,-3.70000000e-009,-6.11718793e-004
,,,-3.67500000e-009,-6.00000042e-004
,,,-3.65000000e-009,-5.89843792e-004
,,,-3.62500000e-009,-5.81250041e-004
,,,-3.60000000e-009,-5.75000041e-004
,,,-3.57500000e-009,-5.71875040e-004
,,,-3.55000000e-009,-5.71875040e-004
,,,-3.52500000e-009,-5.76562541e-004
,,,-3.50000000e-009,-5.85937541e-004
,,,-3.47500000e-009,-6.00000042e-004
,,,-3.45000000e-009,-6.19531294e-004
,,,-3.42500000e-009,-6.43750046e-004
,,,-3.40000000e-009,-6.70312547e-004
,,,-3.37500000e-009,-6.98437549e-004
,,,-3.35000000e-009,-7.27343801e-004
,,,-3.32500000e-009,-7.53906303e-004
,,,-3.30000000e-009,-7.78906305e-004
,,,-3.27500000e-009,-8.00000057e-004
,,,-3.25000000e-009,-8.17968808e-004
,,,-3.22500000e-009,-8.30468809e-004
,,,-3.20000000e-009,-8.37500059e-004
,,,-3.17500000e-009,-8.39062559e-004
,,,-3.15000000e-009,-8.35156309e-004
,,,-3.12500000e-009,-8.26562559e-004
,,,-3.10000000e-009,-8.14062558e-004
,,,-3.07500000e-009,-8.00000057e-004
,,,-3.05000000e-009,-7.85156306e-004
,,,-3.02500000e-009,-7.73437555e-004
,,,-3.00000000e-009,-7.64062554e-004
,,,-2.97500000e-009,-7.59375054e-004
,,,-2.95000000e-009,-7.60156304e-004
,,,-2.92500000e-009,-7.67187554e-004
,,,-2.90000000e-009,-7.80468805e-004
,,,-2.87500000e-009,-8.00000057e-004
,,,-2.85000000e-009,-8.25781308e-004
,,,-2.82500000e-009,-8.56250061e-004
,,,-2.80000000e-009,-8.87500063e-004
,,,-2.77500000e-009,-9.19531315e-004
,,,-2.75000000e-009,-9.47656317e-004
,,,-2.72500000e-009,-9.71875069e-004
,,,-2.70000000e-009,-9.89062570e-004
,,,-2.67500000e-009,-1.00000007e-003
,,,-2.65000000e-009,-1.00234382e-003
,,,-2.62500000e-009,-1.00000007e-003
,,,-2.60000000e-009,-9.94531320e-004
,,,-2.57500000e-009,-9.88281320e-004
,,,-2.55000000e-009,-9.83593820e-004
,,,-2.52500000e-009,-9.82812570e-004
,,,-2.50000000e-009,-9.87500070e-004
,,,-2.47500000e-009,-1.00000007e-003
,,,-2.45000000e-009,-1.01718757e-003
,,,-2.42500000e-009,-1.04062507e-003
,,,-2.40000000e-009,-1.06953133e-003
,,,-2.37500000e-009,-1.10078133e-003
,,,-2.35000000e-009,-1.13125008e-003
,,,-2.32500000e-009,-1.16015633e-003
,,,-2.30000000e-009,-1.18281258e-003
,,,-2.27500000e-009,-1.20000008e-003
,,,-2.25000000e-009,-1.20859384e-003
,,,-2.22500000e-009,-1.21093759e-003
,,,-2.20000000e-009,-1.20781259e-003
,,,-2.17500000e-009,-1.20312509e-003
,,,-2.15000000e-009,-1.19687508e-003
,,,-2.12500000e-009,-1.19296883e-003
,,,-2.10000000e-009,-1.19375008e-003
,,,-2.07500000e-009,-1.20000008e-003
,,,-2.05000000e-009,-1.21093759e-003
,,,-2.02500000e-009,-1.22968759e-003
,,,-2.00000000e-009,-1.25468759e-003
,,,-1.97500000e-009,-1.28437509e-003
,,,-1.95000000e-009,-1.31640634e-003
,,,-1.92500000e-009,-1.34843760e-003
,,,-1.90000000e-009,-1.37656260e-003
,,,-1.87500000e-009,-1.40000010e-003
,,,-1.85000000e-009,-1.41015635e-003
,,,-1.82500000e-009,-1.41171885e-003
,,,-1.80000000e-009,-1.40156260e-003
,,,-1.77500000e-009,-1.37968760e-003
,,,-1.75000000e-009,-1.34765635e-003
,,,-1.72500000e-009,-1.30546884e-003
,,,-1.70000000e-009,-1.25546884e-003
,,,-1.67500000e-009,-1.20000008e-003
,,,-1.65000000e-009,-1.14375008e-003
,,,-1.62500000e-009,-1.09062508e-003
,,,-1.60000000e-009,-1.04375007e-003
,,,-1.57500000e-009,-1.00703132e-003
,,,-1.55000000e-009,-9.82812570e-004
,,,-1.52500000e-009,-9.72656319e-004
,,,-1.50000000e-009,-9.78125069e-004
,,,-1.47500000e-009,-1.00000007e-003
,,,-1.45000000e-009,-1.04062507e-003
,,,-1.42500000e-009,-1.09375008e-003
,,,-1.40000000e-009,-1.15390633e-003
,,,-1.37500000e-009,-1.21718759e-003
,,,-1.35000000e-009,-1.27812509e-003
,,,-1.32500000e-009,-1.33125009e-003
,,,-1.30000000e-009,-1.37343760e-003
,,,-1.27500000e-009,-1.40000010e-003
,,,-1.25000000e-009,-1.41640635e-003
,,,-1.22500000e-009,-1.41718760e-003
,,,-1.20000000e-009,-1.40390635e-003
,,,-1.17500000e-009,-1.37656260e-003
,,,-1.15000000e-009,-1.33906259e-003
,,,-1.12500000e-009,-1.29453134e-003
,,,-1.10000000e-009,-1.24687509e-003
,,,-1.07500000e-009,-1.20000008e-003
,,,-1.05000000e-009,-1.17343758e-003
,,,-1.02500000e-009,-1.15625008e-003
,,,-1.00000000e-009,-1.14843758e-003
,,,-9.75000000e-010,-1.14921883e-003
,,,-9.50000000e-010,-1.15625008e-003
,,,-9.25000000e-010,-1.16796883e-003
,,,-9.00000000e-010,-1.18281258e-003
,,,-8.75000000e-010,-1.20000008e-003
,,,-8.50000000e-010,-1.23984384e-003
,,,-8.25000000e-010,-1.28437509e-003
,,,-8.00000000e-010,-1.33281259e-003
,,,-7.75000000e-010,-1.38281260e-003
,,,-7.50000000e-010,-1.43515635e-003
,,,-7.25000000e-010,-1.48828136e-003
,,,-7.00000000e-010,-1.54296886e-003
,,,-6.75000000e-010,-1.60000011e-003
,,,-6.50000000e-010,-1.68281262e-003
,,,-6.25000000e-010,-1.76953138e-003
,,,-6.00000000e-010,-1.85781263e-003
,,,-5.75000000e-010,-1.94296889e-003
,,,-5.50000000e-010,-2.02187514e-003
,,,-5.25000000e-010,-2.09062515e-003
,,,-5.00000000e-010,-2.15000015e-003
,,,-4.75000000e-010,-2.20000016e-003
,,,-4.50000000e-010,-2.26796891e-003
,,,-4.25000000e-010,-2.34062517e-003
,,,-4.00000000e-010,-2.41875017e-003
,,,-3.75000000e-010,-2.50625018e-003
,,,-3.50000000e-010,-2.60625018e-003
,,,-3.25000000e-010,-2.72031269e-003
,,,-3.00000000e-010,-2.85078145e-003
,,,-2.75000000e-010,-3.00000021e-003
,,,-2.50000000e-010,-3.18750023e-003
,,,-2.25000000e-010,-3.39375024e-003
,,,-2.00000000e-010,-3.61171901e-003
,,,-1.75000000e-010,-3.83281277e-003
,,,-1.50000000e-010,-4.04843779e-003
,,,-1.25000000e-010,-4.25234405e-003
,,,-1.00000000e-010,-4.43750031e-003
,,,-7.50000000e-011,-4.60000033e-003
,,,-5.00000000e-011,-4.75156284e-003
,,,-2.50000000e-011,-4.88906285e-003
,,,0.00000000e+000,-5.01328160e-003
,,,2.50000000e-011,-5.12968786e-003
,,,5.00000000e-011,-5.24140662e-003
,,,7.50000000e-011,-5.35390663e-003
,,,1.00000000e-010,-5.47187539e-003
,,,1.25000000e-010,-5.60000040e-003
,,,1.50000000e-010,-5.74609416e-003
,,,1.75000000e-010,-5.91484417e-003
,,,2.00000000e-010,-6.10546918e-003
,,,2.25000000e-010,-6.31328170e-003
,,,2.50000000e-010,-6.53281296e-003
,,,2.75000000e-010,-6.75859423e-003
,,,3.00000000e-010,-6.98281299e-003
,,,3.25000000e-010,-7.20000051e-003
,,,3.50000000e-010,-7.39765677e-003
,,,3.75000000e-010,-7.58593804e-003
,,,4.00000000e-010,-7.76171930e-003
,,,4.25000000e-010,-7.92187556e-003
,,,4.50000000e-010,-8.06640682e-003
,,,4.75000000e-010,-8.19375058e-003
,,,5.00000000e-010,-8.30390684e-003
,,,5.25000000e-010,-8.40000059e-003
,,,5.50000000e-010,-8.46953185e-003
,,,5.75000000e-010,-8.54140685e-003
,,,6.00000000e-010,-8.62031311e-003
,,,6.25000000e-010,-8.70937562e-003
,,,6.50000000e-010,-8.81171937e-003
,,,6.75000000e-010,-8.92812563e-003
,,,7.00000000e-010,-9.05781314e-003
,,,7.25000000e-010,-9.20000065e-003
,,,7.50000000e-010,-9.32968816e-003
,,,7.75000000e-010,-9.46953192e-003
,,,8.00000000e-010,-9.61562568e-003
,,,8.25000000e-010,-9.76171944e-003
,,,8.50000000e-010,-9.89921945e-003
,,,8.75000000e-010,-1.00218757e-002
,,,9.00000000e-010,-1.01234382e-002
,,,9.25000000e-010,-1.02000007e-002
,,,9.50000000e-010,-1.02250007e-002
,,,9.75000000e-010,-1.02312507e-002
,,,1.00000000e-009,-1.02250007e-002
,,,1.02500000e-009,-1.02109382e-002
,,,1.05000000e-009,-1.01960945e-002
,,,1.07500000e-009,-1.01859382e-002
,,,1.10000000e-009,-1.01859382e-002
,,,1.12500000e-009,-1.02000007e-002
,,,1.15000000e-009,-1.02039070e-002
,,,1.17500000e-009,-1.02289070e-002
,,,1.20000000e-009,-1.02718757e-002
,,,1.22500000e-009,-1.03304695e-002
,,,1.25000000e-009,-1.03992195e-002
,,,1.27500000e-009,-1.04718757e-002
,,,1.30000000e-009,-1.05406257e-002
,,,1.32500000e-009,-1.06000008e-002
,,,1.35000000e-009,-1.06179695e-002
,,,1.37500000e-009,-1.06203133e-002
,,,1.40000000e-009,-1.06078133e-002
,,,1.42500000e-009,-1.05820320e-002
,,,1.45000000e-009,-1.05453132e-002
,,,1.47500000e-009,-1.05007820e-002
,,,1.50000000e-009,-1.04507820e-002
,,,1.52500000e-009,-1.04000007e-002
,,,1.55000000e-009,-1.03265632e-002
,,,1.57500000e-009,-1.02578132e-002
,,,1.60000000e-009,-1.01953132e-002
,,,1.62500000e-009,-1.01414070e-002
,,,1.65000000e-009,-1.00953132e-002
,,,1.67500000e-009,-1.00570320e-002
,,,1.70000000e-009,-1.00257820e-002
,,,1.72500000e-009,-1.00000007e-002
,,,1.75000000e-009,-9.95625070e-003
,,,1.77500000e-009,-9.91171945e-003
,,,1.80000000e-009,-9.86640695e-003
,,,1.82500000e-009,-9.81875069e-003
,,,1.85000000e-009,-9.76875069e-003
,,,1.87500000e-009,-9.71640694e-003
,,,1.90000000e-009,-9.66015693e-003
,,,1.92500000e-009,-9.60000068e-003
,,,1.95000000e-009,-9.51796942e-003
,,,1.97500000e-009,-9.42812567e-003
,,,2.00000000e-009,-9.33046941e-003
,,,2.02500000e-009,-9.22734440e-003
,,,2.05000000e-009,-9.12109440e-003
,,,2.07500000e-009,-9.01328189e-003
,,,2.10000000e-009,-8.90546938e-003
,,,2.12500000e-009,-8.80000062e-003
,,,2.15000000e-009,-8.68671936e-003
,,,2.17500000e-009,-8.57500061e-003
,,,2.20000000e-009,-8.46562560e-003
,,,2.22500000e-009,-8.36015684e-003
,,,2.25000000e-009,-8.26015683e-003
,,,2.27500000e-009,-8.16640683e-003
,,,2.30000000e-009,-8.07968807e-003
,,,2.32500000e-009,-8.00000057e-003
,,,2.35000000e-009,-7.92265681e-003
,,,2.37500000e-009,-7.84609431e-003
,,,2.40000000e-009,-7.77031305e-003
,,,2.42500000e-009,-7.69531304e-003
,,,2.45000000e-009,-7.62109429e-003
,,,2.47500000e-009,-7.54687553e-003
,,,2.50000000e-009,-7.47343803e-003
,,,2.52500000e-009,-7.40000052e-003
,,,2.55000000e-009,-7.32343802e-003
,,,2.57500000e-009,-7.24062551e-003
,,,2.60000000e-009,-7.15000051e-003
,,,2.62500000e-009,-7.05078175e-003
,,,2.65000000e-009,-6.94531299e-003
,,,2.67500000e-009,-6.83359423e-003
,,,2.70000000e-009,-6.71796923e-003
,,,2.72500000e-009,-6.60000047e-003
,,,2.75000000e-009,-6.48359421e-003
,,,2.77500000e-009,-6.36484420e-003
,,,2.80000000e-009,-6.24765669e-003
,,,2.82500000e-009,-6.13515668e-003
,,,2.85000000e-009,-6.03046918e-003
,,,2.87500000e-009,-5.93828167e-003
,,,2.90000000e-009,-5.86093791e-003
,,,2.92500000e-009,-5.80000041e-003
,,,2.95000000e-009,-5.76093791e-003
,,,2.97500000e-009,-5.73203166e-003
,,,3.00000000e-009,-5.70937540e-003
,,,3.02500000e-009,-5.68984415e-003
,,,3.05000000e-009,-5.67109415e-003
,,,3.07500000e-009,-5.65078165e-003
,,,3.10000000e-009,-5.62812540e-003
,,,3.12500000e-009,-5.60000040e-003
,,,3.15000000e-009,-5.57031289e-003
,,,3.17500000e-009,-5.53046914e-003
,,,3.20000000e-009,-5.48125039e-003
,,,3.22500000e-009,-5.42500038e-003
,,,3.25000000e-009,-5.36640663e-003
,,,3.27500000e-009,-5.30703163e-003
,,,3.30000000e-009,-5.25078162e-003
,,,3.32500000e-009,-5.20000037e-003
,,,3.35000000e-009,-5.15859412e-003
,,,3.37500000e-009,-5.11796911e-003
,,,3.40000000e-009,-5.07656286e-003
,,,3.42500000e-009,-5.03281286e-003
,,,3.45000000e-009,-4.98437535e-003
,,,3.47500000e-009,-4.93046910e-003
,,,3.50000000e-009,-4.86875034e-003
,,,3.52500000e-009,-4.80000034e-003
,,,3.55000000e-009,-4.72812533e-003
,,,3.57500000e-009,-4.64765658e-003
,,,3.60000000e-009,-4.56171907e-003
,,,3.62500000e-009,-4.47421907e-003
,,,3.65000000e-009,-4.38984406e-003
,,,3.67500000e-009,-4.31328156e-003
,,,3.70000000e-009,-4.24921905e-003
,,,3.72500000e-009,-4.20000030e-003
,,,3.75000000e-009,-4.17109405e-003
,,,3.77500000e-009,-4.15625029e-003
,,,3.80000000e-009,-4.15156279e-003
,,,3.82500000e-009,-4.15625029e-003
,,,3.85000000e-009,-4.16640654e-003
,,,3.87500000e-009,-4.17890655e-003
,,,3.90000000e-009,-4.19140655e-003
,,,3.92500000e-009,-4.20000030e-003
,,,3.95000000e-009,-4.20312530e-003
,,,3.97500000e-009,-4.19687530e-003
,,,4.00000000e-009,-4.18046905e-003
,,,4.02500000e-009,-4.15468779e-003
,,,4.05000000e-009,-4.12031279e-003
,,,4.07500000e-009,-4.08203154e-003
,,,4.10000000e-009,-4.04062529e-003
,,,4.12500000e-009,-4.00000028e-003
,,,4.15000000e-009,-3.96250028e-003
,,,4.17500000e-009,-3.92656278e-003
,,,4.20000000e-009,-3.89453153e-003
,,,4.22500000e-009,-3.86640652e-003
,,,4.25000000e-009,-3.84296902e-003
,,,4.27500000e-009,-3.82421902e-003
,,,4.30000000e-009,-3.81015652e-003
,,,4.32500000e-009,-3.80000027e-003
,,,4.35000000e-009,-3.79218777e-003
,,,4.37500000e-009,-3.78281277e-003
,,,4.40000000e-009,-3.76953152e-003
,,,4.42500000e-009,-3.75000027e-003
,,,4.45000000e-009,-3.72343776e-003
,,,4.47500000e-009,-3.68984401e-003
,,,4.50000000e-009,-3.64843776e-003
,,,4.52500000e-009,-3.60000025e-003
,,,4.55000000e-009,-3.54531275e-003
,,,4.57500000e-009,-3.48593775e-003
,,,4.60000000e-009,-3.42500024e-003
,,,4.62500000e-009,-3.36484399e-003
,,,4.65000000e-009,-3.30937523e-003
,,,4.67500000e-009,-3.26171898e-003
,,,4.70000000e-009,-3.22500023e-003
,,,4.72500000e-009,-3.20000023e-003
,,,4.75000000e-009,-3.18750023e-003
,,,4.77500000e-009,-3.18437523e-003
,,,4.80000000e-009,-3.18828148e-003
,,,4.82500000e-009,-3.19531273e-003
,,,4.85000000e-009,-3.20312523e-003
,,,4.87500000e-009,-3.20781273e-003
,,,4.90000000e-009,-3.20703148e-003
,,,4.92500000e-009,-3.20000023e-003
,,,4.95000000e-009,-3.18437523e-003
,,,4.97500000e-009,-3.16015647e-003
,,,5.00000000e-009,-3.12890647e-003
,,,5.02500000e-009,-3.09531272e-003
,,,5.05000000e-009,-3.06250022e-003
,,,5.07500000e-009,-3.03359396e-003
,,,5.10000000e-009,-3.01171896e-003
,,,5.12500000e-009,-3.00000021e-003
,,,5.15000000e-009,-2.99687521e-003
,,,5.17500000e-009,-3.00156271e-003
,,,5.20000000e-009,-3.01015646e-003
,,,5.22500000e-009,-3.01953146e-003
,,,5.25000000e-009,-3.02578146e-003
,,,5.27500000e-009,-3.02734396e-003
,,,5.30000000e-009,-3.01875021e-003
,,,5.32500000e-009,-3.00000021e-003
,,,5.35000000e-009,-2.96796896e-003
,,,5.37500000e-009,-2.92421896e-003
,,,5.40000000e-009,-2.87031270e-003
,,,5.42500000e-009,-2.81093770e-003
,,,5.45000000e-009,-2.74921894e-003
,,,5.47500000e-009,-2.69140644e-003
,,,5.50000000e-009,-2.63984394e-003
,,,5.52500000e-009,-2.60000018e-003
,,,5.55000000e-009,-2.57343768e-003
,,,5.57500000e-009,-2.55937518e-003
,,,5.60000000e-009,-2.55546893e-003
,,,5.62500000e-009,-2.55937518e-003
,,,5.65000000e-009,-2.56953143e-003
,,,5.67500000e-009,-2.58125018e-003
,,,5.70000000e-009,-2.59218768e-003
,,,5.72500000e-009,-2.60000018e-003
,,,5.75000000e-009,-2.59921893e-003
,,,5.77500000e-009,-2.58906268e-003
,,,5.80000000e-009,-2.57031268e-003
,,,5.82500000e-009,-2.54453143e-003
,,,5.85000000e-009,-2.51171893e-003
