RawData/SinglePhotoelectron/R3_50foot_5mV/wave008_Ch2.csv

"Record Length",1000,"Points",-7.72500000e-009,0.00000000e+000
"Sample Interval",2.50000000e-011,s,-7.70000000e-009,-7.81250055e-007
"Trigger Point",309,"Samples",-7.67500000e-009,-7.81250055e-007
"Trigger Time",2.19258883e-012,s,-7.65000000e-009,0.00000000e+000
"",,,-7.62500000e-009,0.00000000e+000
"Horizontal Offset",-7.72500000e-009,s,-7.60000000e-009,0.00000000e+000
,,,-7.57500000e-009,7.81250055e-007
,,,-7.55000000e-009,7.81250055e-007
,,,-7.52500000e-009,0.00000000e+000
,,,-7.50000000e-009,-7.81250055e-007
,,,-7.47500000e-009,-2.34375017e-006
,,,-7.45000000e-009,-3.12500022e-006
,,,-7.42500000e-009,-3.90625028e-006
,,,-7.40000000e-009,-3.90625028e-006
,,,-7.37500000e-009,-3.12500022e-006
,,,-7.35000000e-009,-1.56250011e-006
,,,-7.32500000e-009,0.00000000e+000
,,,-7.30000000e-009,2.34375017e-006
,,,-7.27500000e-009,4.68750033e-006
,,,-7.25000000e-009,7.03125050e-006
,,,-7.22500000e-009,8.59375061e-006
,,,-7.20000000e-009,8.59375061e-006
,,,-7.17500000e-009,7.03125050e-006
,,,-7.15000000e-009,3.90625028e-006
,,,-7.12500000e-009,0.00000000e+000
,,,-7.10000000e-009,-4.68750033e-006
,,,-7.07500000e-009,-1.09375008e-005
,,,-7.05000000e-009,-1.56250011e-005
,,,-7.02500000e-009,-1.95312514e-005
,,,-7.00000000e-009,-2.03125014e-005
,,,-6.97500000e-009,-1.79687513e-005
,,,-6.95000000e-009,-1.09375008e-005
,,,-6.92500000e-009,0.00000000e+000
,,,-6.90000000e-009,1.79687513e-005
,,,-6.87500000e-009,3.98437528e-005
,,,-6.85000000e-009,6.64062547e-005
,,,-6.82500000e-009,9.45312567e-005
,,,-6.80000000e-009,1.23437509e-004
,,,-6.77500000e-009,1.51562511e-004
,,,-6.75000000e-009,1.77343763e-004
,,,-6.72500000e-009,2.00000014e-004
,,,-6.70000000e-009,2.15625015e-004
,,,-6.67500000e-009,2.25781266e-004
,,,-6.65000000e-009,2.31250016e-004
,,,-6.62500000e-009,2.32031266e-004
,,,-6.60000000e-009,2.28906266e-004
,,,-6.57500000e-009,2.21875016e-004
,,,-6.55000000e-009,2.11718765e-004
,,,-6.52500000e-009,2.00000014e-004
,,,-6.50000000e-009,1.83593763e-004
,,,-6.47500000e-009,1.64843762e-004
,,,-6.45000000e-009,1.43750010e-004
,,,-6.42500000e-009,1.20312509e-004
,,,-6.40000000e-009,9.37500066e-005
,,,-6.37500000e-009,6.40625045e-005
,,,-6.35000000e-009,3.28125023e-005
,,,-6.32500000e-009,0.00000000e+000
,,,-6.30000000e-009,-3.12500022e-005
,,,-6.27500000e-009,-5.85937541e-005
,,,-6.25000000e-009,-7.96875056e-005
,,,-6.22500000e-009,-9.06250064e-005
,,,-6.20000000e-009,-8.98437564e-005
,,,-6.17500000e-009,-7.50000053e-005
,,,-6.15000000e-009,-4.45312532e-005
,,,-6.12500000e-009,0.00000000e+000
,,,-6.10000000e-009,5.78125041e-005
,,,-6.07500000e-009,1.23437509e-004
,,,-6.05000000e-009,1.92968764e-004
,,,-6.02500000e-009,2.59375018e-004
,,,-6.00000000e-009,3.17968773e-004
,,,-5.97500000e-009,3.63281276e-004
,,,-5.95000000e-009,3.91406278e-004
,,,-5.92500000e-009,4.00000028e-004
,,,-5.90000000e-009,3.82812527e-004
,,,-5.87500000e-009,3.47656275e-004
,,,-5.85000000e-009,2.96875021e-004
,,,-5.82500000e-009,2.35156267e-004
,,,-5.80000000e-009,1.69531262e-004
,,,-5.77500000e-009,1.05468757e-004
,,,-5.75000000e-009,4.68750033e-005
,,,-5.72500000e-009,0.00000000e+000
,,,-5.70000000e-009,-3.12500022e-005
,,,-5.67500000e-009,-4.92187535e-005
,,,-5.65000000e-009,-5.39062538e-005
,,,-5.62500000e-009,-4.84375034e-005
,,,-5.60000000e-009,-3.67187526e-005
,,,-5.57500000e-009,-2.18750015e-005
,,,-5.55000000e-009,-8.59375061e-006
,,,-5.52500000e-009,0.00000000e+000
,,,-5.50000000e-009,4.68750033e-006
,,,-5.47500000e-009,4.68750033e-006
,,,-5.45000000e-009,0.00000000e+000
,,,-5.42500000e-009,-7.03125050e-006
,,,-5.40000000e-009,-1.32812509e-005
,,,-5.37500000e-009,-1.64062512e-005
,,,-5.35000000e-009,-1.17187508e-005
,,,-5.32500000e-009,0.00000000e+000
,,,-5.30000000e-009,2.18750015e-005
,,,-5.27500000e-009,5.07812536e-005
,,,-5.25000000e-009,8.51562560e-005
,,,-5.22500000e-009,1.20312509e-004
,,,-5.20000000e-009,1.53125011e-004
,,,-5.17500000e-009,1.78906263e-004
,,,-5.15000000e-009,1.95312514e-004
,,,-5.12500000e-009,2.00000014e-004
,,,-5.10000000e-009,1.89843763e-004
,,,-5.07500000e-009,1.67968762e-004
,,,-5.05000000e-009,1.38281260e-004
,,,-5.02500000e-009,1.03125007e-004
,,,-5.00000000e-009,6.79687548e-005
,,,-4.97500000e-009,3.59375025e-005
,,,-4.95000000e-009,1.25000009e-005
,,,-4.92500000e-009,0.00000000e+000
,,,-4.90000000e-009,1.56250011e-006
,,,-4.87500000e-009,1.56250011e-005
,,,-4.85000000e-009,3.98437528e-005
,,,-4.82500000e-009,7.10937550e-005
,,,-4.80000000e-009,1.06250008e-004
,,,-4.77500000e-009,1.42187510e-004
,,,-4.75000000e-009,1.73437512e-004
,,,-4.72500000e-009,2.00000014e-004
,,,-4.70000000e-009,2.15625015e-004
,,,-4.67500000e-009,2.23437516e-004
,,,-4.65000000e-009,2.24218766e-004
,,,-4.62500000e-009,2.20312516e-004
,,,-4.60000000e-009,2.13281265e-004
,,,-4.57500000e-009,2.05468765e-004
,,,-4.55000000e-009,2.00781264e-004
,,,-4.52500000e-009,2.00000014e-004
,,,-4.50000000e-009,2.00000014e-004
,,,-4.47500000e-009,2.03906264e-004
,,,-4.45000000e-009,2.10156265e-004
,,,-4.42500000e-009,2.16406265e-004
,,,-4.40000000e-009,2.21093766e-004
,,,-4.37500000e-009,2.21093766e-004
,,,-4.35000000e-009,2.14062515e-004
,,,-4.32500000e-009,2.00000014e-004
,,,-4.30000000e-009,1.75781262e-004
,,,-4.27500000e-009,1.46093760e-004
,,,-4.25000000e-009,1.13281258e-004
,,,-4.22500000e-009,7.89062556e-005
,,,-4.20000000e-009,4.76562534e-005
,,,-4.17500000e-009,2.26562516e-005
,,,-4.15000000e-009,5.46875039e-006
,,,-4.12500000e-009,0.00000000e+000
,,,-4.10000000e-009,5.46875039e-006
,,,-4.07500000e-009,2.26562516e-005
,,,-4.05000000e-009,4.84375034e-005
,,,-4.02500000e-009,7.96875056e-005
,,,-4.00000000e-009,1.14062508e-004
,,,-3.97500000e-009,1.48437511e-004
,,,-3.95000000e-009,1.77343763e-004
,,,-3.92500000e-009,2.00000014e-004
,,,-3.90000000e-009,2.10937515e-004
,,,-3.87500000e-009,2.10156265e-004
,,,-3.85000000e-009,1.98437514e-004
,,,-3.82500000e-009,1.75000012e-004
,,,-3.80000000e-009,1.41406260e-004
,,,-3.77500000e-009,9.92187570e-005
,,,-3.75000000e-009,5.07812536e-005
,,,-3.72500000e-009,0.00000000e+000
,,,-3.70000000e-009,-5.00000035e-005
,,,-3.67500000e-009,-9.68750069e-005
,,,-3.65000000e-009,-1.38281260e-004
,,,-3.62500000e-009,-1.71093762e-004
,,,-3.60000000e-009,-1.94531264e-004
,,,-3.57500000e-009,-2.07031265e-004
,,,-3.55000000e-009,-2.08593765e-004
,,,-3.52500000e-009,-2.00000014e-004
,,,-3.50000000e-009,-1.78906263e-004
,,,-3.47500000e-009,-1.50781261e-004
,,,-3.45000000e-009,-1.19531258e-004
,,,-3.42500000e-009,-8.75000062e-005
,,,-3.40000000e-009,-5.70312540e-005
,,,-3.37500000e-009,-3.12500022e-005
,,,-3.35000000e-009,-1.17187508e-005
,,,-3.32500000e-009,0.00000000e+000
,,,-3.30000000e-009,4.68750033e-006
,,,-3.27500000e-009,2.34375017e-006
,,,-3.25000000e-009,-3.12500022e-006
,,,-3.22500000e-009,-1.09375008e-005
,,,-3.20000000e-009,-1.71875012e-005
,,,-3.17500000e-009,-1.87500013e-005
,,,-3.15000000e-009,-1.32812509e-005
,,,-3.12500000e-009,0.00000000e+000
,,,-3.10000000e-009,2.18750015e-005
,,,-3.07500000e-009,5.00000035e-005
,,,-3.05000000e-009,8.35937559e-005
,,,-3.02500000e-009,1.17968758e-004
,,,-3.00000000e-009,1.50000011e-004
,,,-2.97500000e-009,1.76562512e-004
,,,-2.95000000e-009,1.93750014e-004
,,,-2.92500000e-009,2.00000014e-004
,,,-2.90000000e-009,1.91406264e-004
,,,-2.87500000e-009,1.72656262e-004
,,,-2.85000000e-009,1.44531260e-004
,,,-2.82500000e-009,1.11718758e-004
,,,-2.80000000e-009,7.65625054e-005
,,,-2.77500000e-009,4.45312532e-005
,,,-2.75000000e-009,1.79687513e-005
,,,-2.72500000e-009,0.00000000e+000
,,,-2.70000000e-009,-8.59375061e-006
,,,-2.67500000e-009,-9.37500066e-006
,,,-2.65000000e-009,-3.90625028e-006
,,,-2.62500000e-009,3.90625028e-006
,,,-2.60000000e-009,1.17187508e-005
,,,-2.57500000e-009,1.56250011e-005
,,,-2.55000000e-009,1.25000009e-005
,,,-2.52500000e-009,0.00000000e+000
,,,-2.50000000e-009,-2.26562516e-005
,,,-2.47500000e-009,-5.23437537e-005
,,,-2.45000000e-009,-8.75000062e-005
,,,-2.42500000e-009,-1.23437509e-004
,,,-2.40000000e-009,-1.56250011e-004
,,,-2.37500000e-009,-1.82031263e-004
,,,-2.35000000e-009,-1.96875014e-004
,,,-2.32500000e-009,-2.00000014e-004
,,,-2.30000000e-009,-1.87500013e-004
,,,-2.27500000e-009,-1.63281262e-004
,,,-2.25000000e-009,-1.31250009e-004
,,,-2.22500000e-009,-9.53125067e-005
,,,-2.20000000e-009,-5.93750042e-005
,,,-2.17500000e-009,-2.96875021e-005
,,,-2.15000000e-009,-8.59375061e-006
,,,-2.12500000e-009,0.00000000e+000
,,,-2.10000000e-009,-5.46875039e-006
,,,-2.07500000e-009,-2.34375017e-005
,,,-2.05000000e-009,-5.23437537e-005
,,,-2.02500000e-009,-8.75000062e-005
,,,-2.00000000e-009,-1.24218759e-004
,,,-1.97500000e-009,-1.57812511e-004
,,,-1.95000000e-009,-1.84375013e-004
,,,-1.92500000e-009,-2.00000014e-004
,,,-1.90000000e-009,-2.02343764e-004
,,,-1.87500000e-009,-1.92968764e-004
,,,-1.85000000e-009,-1.71875012e-004
,,,-1.82500000e-009,-1.42187510e-004
,,,-1.80000000e-009,-1.07031258e-004
,,,-1.77500000e-009,-6.87500049e-005
,,,-1.75000000e-009,-3.20312523e-005
,,,-1.72500000e-009,0.00000000e+000
,,,-1.70000000e-009,2.03125014e-005
,,,-1.67500000e-009,3.20312523e-005
,,,-1.65000000e-009,3.59375025e-005
,,,-1.62500000e-009,3.28125023e-005
,,,-1.60000000e-009,2.50000018e-005
,,,-1.57500000e-009,1.56250011e-005
,,,-1.55000000e-009,6.25000044e-006
,,,-1.52500000e-009,0.00000000e+000
,,,-1.50000000e-009,-1.25000009e-005
,,,-1.47500000e-009,-2.18750015e-005
,,,-1.45000000e-009,-2.73437519e-005
,,,-1.42500000e-009,-2.81250020e-005
,,,-1.40000000e-009,-2.42187517e-005
,,,-1.37500000e-009,-1.79687513e-005
,,,-1.35000000e-009,-8.59375061e-006
,,,-1.32500000e-009,0.00000000e+000
,,,-1.30000000e-009,-7.81250055e-006
,,,-1.27500000e-009,-2.10937515e-005
,,,-1.25000000e-009,-3.98437528e-005
,,,-1.22500000e-009,-6.40625045e-005
,,,-1.20000000e-009,-9.29687566e-005
,,,-1.17500000e-009,-1.25781259e-004
,,,-1.15000000e-009,-1.61718761e-004
,,,-1.12500000e-009,-2.00000014e-004
,,,-1.10000000e-009,-2.57812518e-004
,,,-1.07500000e-009,-3.18750023e-004
,,,-1.05000000e-009,-3.80468777e-004
,,,-1.02500000e-009,-4.38281281e-004
,,,-1.00000000e-009,-4.90625035e-004
,,,-9.75000000e-010,-5.35937538e-004
,,,-9.50000000e-010,-5.71875040e-004
,,,-9.25000000e-010,-6.00000042e-004
,,,-9.00000000e-010,-6.42187545e-004
,,,-8.75000000e-010,-6.84375048e-004
,,,-8.50000000e-010,-7.26562551e-004
,,,-8.25000000e-010,-7.71093805e-004
,,,-8.00000000e-010,-8.18750058e-004
,,,-7.75000000e-010,-8.71875062e-004
,,,-7.50000000e-010,-9.31250066e-004
,,,-7.25000000e-010,-1.00000007e-003
,,,-7.00000000e-010,-1.09765633e-003
,,,-6.75000000e-010,-1.21015634e-003
,,,-6.50000000e-010,-1.33359384e-003
,,,-6.25000000e-010,-1.46484385e-003
,,,-6.00000000e-010,-1.60078136e-003
,,,-5.75000000e-010,-1.73750012e-003
,,,-5.50000000e-010,-1.87109388e-003
,,,-5.25000000e-010,-2.00000014e-003
,,,-5.00000000e-010,-2.13671890e-003
,,,-4.75000000e-010,-2.27187516e-003
,,,-4.50000000e-010,-2.40312517e-003
,,,-4.25000000e-010,-2.52968768e-003
,,,-4.00000000e-010,-2.65234394e-003
,,,-3.75000000e-010,-2.77031270e-003
,,,-3.50000000e-010,-2.88593770e-003
,,,-3.25000000e-010,-3.00000021e-003
,,,-3.00000000e-010,-3.12187522e-003
,,,-2.75000000e-010,-3.25156273e-003
,,,-2.50000000e-010,-3.39140649e-003
,,,-2.25000000e-010,-3.53984400e-003
,,,-2.00000000e-010,-3.69687526e-003
,,,-1.75000000e-010,-3.86015652e-003
,,,-1.50000000e-010,-4.02890654e-003
,,,-1.25000000e-010,-4.20000030e-003
,,,-1.00000000e-010,-4.36640656e-003
,,,-7.50000000e-011,-4.53593782e-003
,,,-5.00000000e-011,-4.70312533e-003
,,,-2.50000000e-011,-4.86562534e-003
,,,0.00000000e+000,-5.01953161e-003
,,,2.50000000e-011,-5.16171912e-003
,,,5.00000000e-011,-5.28828162e-003
,,,7.50000000e-011,-5.40000038e-003
,,,1.00000000e-010,-5.48203164e-003
,,,1.25000000e-010,-5.55546914e-003
,,,1.50000000e-010,-5.62500040e-003
,,,1.75000000e-010,-5.69218790e-003
,,,2.00000000e-010,-5.76171916e-003
,,,2.25000000e-010,-5.83437541e-003
,,,2.50000000e-010,-5.91328167e-003
,,,2.75000000e-010,-6.00000042e-003
,,,3.00000000e-010,-6.07421918e-003
,,,3.25000000e-010,-6.16015669e-003
,,,3.50000000e-010,-6.25859419e-003
,,,3.75000000e-010,-6.36562545e-003
,,,4.00000000e-010,-6.47812546e-003
,,,4.25000000e-010,-6.59140672e-003
,,,4.50000000e-010,-6.70000047e-003
,,,4.75000000e-010,-6.80000048e-003
,,,5.00000000e-010,-6.86093799e-003
,,,5.25000000e-010,-6.91093799e-003
,,,5.50000000e-010,-6.95000049e-003
,,,5.75000000e-010,-6.97812549e-003
,,,6.00000000e-010,-6.99687550e-003
,,,6.25000000e-010,-7.00546925e-003
,,,6.50000000e-010,-7.00625050e-003
,,,6.75000000e-010,-7.00000050e-003
,,,7.00000000e-010,-6.96171924e-003
,,,7.25000000e-010,-6.92343799e-003
,,,7.50000000e-010,-6.88828174e-003
,,,7.75000000e-010,-6.85781299e-003
,,,8.00000000e-010,-6.83437548e-003
,,,8.25000000e-010,-6.81718798e-003
,,,8.50000000e-010,-6.80625048e-003
,,,8.75000000e-010,-6.80000048e-003
,,,9.00000000e-010,-6.77343798e-003
,,,9.25000000e-010,-6.75078173e-003
,,,9.50000000e-010,-6.72890673e-003
,,,9.75000000e-010,-6.70859422e-003
,,,1.00000000e-009,-6.68671922e-003
,,,1.02500000e-009,-6.66328172e-003
,,,1.05000000e-009,-6.63437547e-003
,,,1.07500000e-009,-6.60000047e-003
,,,1.10000000e-009,-6.53984421e-003
,,,1.12500000e-009,-6.47187546e-003
,,,1.15000000e-009,-6.39843795e-003
,,,1.17500000e-009,-6.31953170e-003
,,,1.20000000e-009,-6.23906294e-003
,,,1.22500000e-009,-6.15781294e-003
,,,1.25000000e-009,-6.07812543e-003
,,,1.27500000e-009,-6.00000042e-003
,,,1.30000000e-009,-5.90937542e-003
,,,1.32500000e-009,-5.82187541e-003
,,,1.35000000e-009,-5.73828166e-003
,,,1.37500000e-009,-5.65937540e-003
,,,1.40000000e-009,-5.58671915e-003
,,,1.42500000e-009,-5.51953164e-003
,,,1.45000000e-009,-5.45703164e-003
,,,1.47500000e-009,-5.40000038e-003
,,,1.50000000e-009,-5.33515663e-003
,,,1.52500000e-009,-5.26875037e-003
,,,1.55000000e-009,-5.19921912e-003
,,,1.57500000e-009,-5.12500036e-003
,,,1.60000000e-009,-5.04765661e-003
,,,1.62500000e-009,-4.96718785e-003
,,,1.65000000e-009,-4.88437535e-003
,,,1.67500000e-009,-4.80000034e-003
,,,1.70000000e-009,-4.71015658e-003
,,,1.72500000e-009,-4.61953158e-003
,,,1.75000000e-009,-4.52968782e-003
,,,1.77500000e-009,-4.44375031e-003
,,,1.80000000e-009,-4.36640656e-003
,,,1.82500000e-009,-4.29843780e-003
,,,1.85000000e-009,-4.24296905e-003
,,,1.87500000e-009,-4.20000030e-003
,,,1.90000000e-009,-4.16484404e-003
,,,1.92500000e-009,-4.13281279e-003
,,,1.95000000e-009,-4.10000029e-003
,,,1.97500000e-009,-4.06171904e-003
,,,2.00000000e-009,-4.01562528e-003
,,,2.02500000e-009,-3.95781278e-003
,,,2.05000000e-009,-3.88671903e-003
,,,2.07500000e-009,-3.80000027e-003
,,,2.10000000e-009,-3.69843776e-003
,,,2.12500000e-009,-3.58046900e-003
,,,2.15000000e-009,-3.44921899e-003
,,,2.17500000e-009,-3.31015648e-003
,,,2.20000000e-009,-3.16953147e-003
,,,2.22500000e-009,-3.03359396e-003
,,,2.25000000e-009,-2.90937521e-003
,,,2.27500000e-009,-2.80000020e-003
,,,2.30000000e-009,-2.71484394e-003
,,,2.32500000e-009,-2.64531269e-003
,,,2.35000000e-009,-2.58828143e-003
,,,2.37500000e-009,-2.54140643e-003
,,,2.40000000e-009,-2.50312518e-003
,,,2.42500000e-009,-2.46875017e-003
,,,2.45000000e-009,-2.43515642e-003
,,,2.47500000e-009,-2.40000017e-003
,,,2.50000000e-009,-2.36640642e-003
,,,2.52500000e-009,-2.32500016e-003
,,,2.55000000e-009,-2.27500016e-003
,,,2.57500000e-009,-2.21875016e-003
,,,2.60000000e-009,-2.16015640e-003
,,,2.62500000e-009,-2.10156265e-003
,,,2.65000000e-009,-2.04687514e-003
,,,2.67500000e-009,-2.00000014e-003
,,,2.70000000e-009,-1.96640639e-003
,,,2.72500000e-009,-1.93750014e-003
,,,2.75000000e-009,-1.91250014e-003
,,,2.77500000e-009,-1.89062513e-003
,,,2.80000000e-009,-1.86953138e-003
,,,2.82500000e-009,-1.84765638e-003
,,,2.85000000e-009,-1.82500013e-003
,,,2.87500000e-009,-1.80000013e-003
,,,2.90000000e-009,-1.77890638e-003
,,,2.92500000e-009,-1.75312512e-003
,,,2.95000000e-009,-1.72343762e-003
,,,2.97500000e-009,-1.69218762e-003
,,,3.00000000e-009,-1.66171887e-003
,,,3.02500000e-009,-1.63437512e-003
,,,3.05000000e-009,-1.61328136e-003
,,,3.07500000e-009,-1.60000011e-003
,,,3.10000000e-009,-1.60000011e-003
,,,3.12500000e-009,-1.60468761e-003
,,,3.15000000e-009,-1.61093761e-003
,,,3.17500000e-009,-1.61718761e-003
,,,3.20000000e-009,-1.62187511e-003
,,,3.22500000e-009,-1.62109386e-003
,,,3.25000000e-009,-1.61484386e-003
,,,3.27500000e-009,-1.60000011e-003
,,,3.30000000e-009,-1.57734386e-003
,,,3.32500000e-009,-1.54375011e-003
,,,3.35000000e-009,-1.49921886e-003
,,,3.37500000e-009,-1.44687510e-003
,,,3.40000000e-009,-1.38750010e-003
,,,3.42500000e-009,-1.32421884e-003
,,,3.45000000e-009,-1.26093759e-003
,,,3.47500000e-009,-1.20000008e-003
,,,3.50000000e-009,-1.14609383e-003
,,,3.52500000e-009,-1.09921883e-003
,,,3.55000000e-009,-1.05937507e-003
,,,3.57500000e-009,-1.02812507e-003
,,,3.60000000e-009,-1.00625007e-003
,,,3.62500000e-009,-9.94531320e-004
,,,3.65000000e-009,-9.92187570e-004
,,,3.67500000e-009,-1.00000007e-003
,,,3.70000000e-009,-1.01875007e-003
,,,3.72500000e-009,-1.04296882e-003
,,,3.75000000e-009,-1.07031258e-003
,,,3.77500000e-009,-1.09843758e-003
,,,3.80000000e-009,-1.12734383e-003
,,,3.82500000e-009,-1.15468758e-003
,,,3.85000000e-009,-1.17890633e-003
,,,3.87500000e-009,-1.20000008e-003
,,,3.90000000e-009,-1.21640634e-003
,,,3.92500000e-009,-1.22656259e-003
,,,3.95000000e-009,-1.23125009e-003
,,,3.97500000e-009,-1.23125009e-003
,,,4.00000000e-009,-1.22734384e-003
,,,4.02500000e-009,-1.22031259e-003
,,,4.05000000e-009,-1.21093759e-003
,,,4.07500000e-009,-1.20000008e-003
,,,4.10000000e-009,-1.18593758e-003
,,,4.12500000e-009,-1.16875008e-003
,,,4.15000000e-009,-1.14921883e-003
,,,4.17500000e-009,-1.12656258e-003
,,,4.20000000e-009,-1.10078133e-003
,,,4.22500000e-009,-1.07031258e-003
,,,4.25000000e-009,-1.03671882e-003
,,,4.27500000e-009,-1.00000007e-003
,,,4.30000000e-009,-9.61718818e-004
,,,4.32500000e-009,-9.22656315e-004
,,,4.35000000e-009,-8.85156313e-004
,,,4.37500000e-009,-8.51562560e-004
,,,4.40000000e-009,-8.24218808e-004
,,,4.42500000e-009,-8.05468807e-004
,,,4.45000000e-009,-7.96875056e-004
,,,4.47500000e-009,-8.00000057e-004
,,,4.50000000e-009,-8.12500058e-004
,,,4.52500000e-009,-8.33593809e-004
,,,4.55000000e-009,-8.60937561e-004
,,,4.57500000e-009,-8.92968813e-004
,,,4.60000000e-009,-9.25000065e-004
,,,4.62500000e-009,-9.55468818e-004
,,,4.65000000e-009,-9.81250069e-004
,,,4.67500000e-009,-1.00000007e-003
,,,4.70000000e-009,-1.00468757e-003
,,,4.72500000e-009,-9.98437571e-004
,,,4.75000000e-009,-9.82031320e-004
,,,4.77500000e-009,-9.56250068e-004
,,,4.80000000e-009,-9.22656315e-004
,,,4.82500000e-009,-8.83593813e-004
,,,4.85000000e-009,-8.42187560e-004
,,,4.87500000e-009,-8.00000057e-004
,,,4.90000000e-009,-7.58593804e-004
,,,4.92500000e-009,-7.20312551e-004
,,,4.95000000e-009,-6.86718799e-004
,,,4.97500000e-009,-6.58593797e-004
,,,5.00000000e-009,-6.35937545e-004
,,,5.02500000e-009,-6.18750044e-004
,,,5.05000000e-009,-6.06250043e-004
,,,5.07500000e-009,-6.00000042e-004
,,,5.10000000e-009,-5.98437542e-004
,,,5.12500000e-009,-5.98437542e-004
,,,5.15000000e-009,-6.00781293e-004
,,,5.17500000e-009,-6.03125043e-004
,,,5.20000000e-009,-6.04687543e-004
,,,5.22500000e-009,-6.05468793e-004
,,,5.25000000e-009,-6.03906293e-004
,,,5.27500000e-009,-6.00000042e-004
,,,5.30000000e-009,-5.92187542e-004
,,,5.32500000e-009,-5.80468791e-004
,,,5.35000000e-009,-5.62500040e-004
,,,5.37500000e-009,-5.39843788e-004
,,,5.40000000e-009,-5.11718786e-004
,,,5.42500000e-009,-4.78125034e-004
,,,5.45000000e-009,-4.40625031e-004
,,,5.47500000e-009,-4.00000028e-004
,,,5.50000000e-009,-3.60156275e-004
,,,5.52500000e-009,-3.21875023e-004
,,,5.55000000e-009,-2.85937520e-004
,,,5.57500000e-009,-2.54687518e-004
,,,5.60000000e-009,-2.28906266e-004
,,,5.62500000e-009,-2.10156265e-004
,,,5.65000000e-009,-2.00781264e-004
,,,5.67500000e-009,-2.00000014e-004
,,,5.70000000e-009,-2.11718765e-004
,,,5.72500000e-009,-2.30468766e-004
,,,5.75000000e-009,-2.54687518e-004
,,,5.77500000e-009,-2.83593770e-004
,,,5.80000000e-009,-3.14062522e-004
,,,5.82500000e-009,-3.44531274e-004
,,,5.85000000e-009,-3.74218776e-004
,,,5.87500000e-009,-4.00000028e-004
,,,5.90000000e-009,-4.21875030e-004
,,,5.92500000e-009,-4.37500031e-004
