RawData/SinglePhotoelectron/R3_50foot_5mV/wave020_Ch2.csv

"Record Length",1000,"Points",-7.72500000e-009,6.17187544e-005
"Sample Interval",2.50000000e-011,s,-7.70000000e-009,1.14062508e-004
"Trigger Point",309,"Samples",-7.67500000e-009,1.75781262e-004
"Trigger Time",2.21618919e-011,s,-7.65000000e-009,2.40625017e-004
"",,,-7.62500000e-009,3.03125021e-004
"Horizontal Offset",-7.72500000e-009,s,-7.60000000e-009,3.57812525e-004
,,,-7.57500000e-009,4.00000028e-004
,,,-7.55000000e-009,4.21875030e-004
,,,-7.52500000e-009,4.26562530e-004
,,,-7.50000000e-009,4.14843779e-004
,,,-7.47500000e-009,3.87500027e-004
,,,-7.45000000e-009,3.48437525e-004
,,,-7.42500000e-009,3.01562521e-004
,,,-7.40000000e-009,2.50781268e-004
,,,-7.37500000e-009,2.00000014e-004
,,,-7.35000000e-009,1.50000011e-004
,,,-7.32500000e-009,1.07031258e-004
,,,-7.30000000e-009,7.10937550e-005
,,,-7.27500000e-009,4.37500031e-005
,,,-7.25000000e-009,2.42187517e-005
,,,-7.22500000e-009,1.09375008e-005
,,,-7.20000000e-009,3.12500022e-006
,,,-7.17500000e-009,0.00000000e+000
,,,-7.15000000e-009,-7.81250055e-007
,,,-7.12500000e-009,-7.81250055e-007
,,,-7.10000000e-009,0.00000000e+000
,,,-7.07500000e-009,0.00000000e+000
,,,-7.05000000e-009,0.00000000e+000
,,,-7.02500000e-009,0.00000000e+000
,,,-7.00000000e-009,0.00000000e+000
,,,-6.97500000e-009,0.00000000e+000
,,,-6.95000000e-009,0.00000000e+000
,,,-6.92500000e-009,7.81250055e-007
,,,-6.90000000e-009,7.81250055e-007
,,,-6.87500000e-009,7.81250055e-007
,,,-6.85000000e-009,7.81250055e-007
,,,-6.82500000e-009,0.00000000e+000
,,,-6.80000000e-009,0.00000000e+000
,,,-6.77500000e-009,0.00000000e+000
,,,-6.75000000e-009,0.00000000e+000
,,,-6.72500000e-009,0.00000000e+000
,,,-6.70000000e-009,-7.81250055e-007
,,,-6.67500000e-009,-7.81250055e-007
,,,-6.65000000e-009,0.00000000e+000
,,,-6.62500000e-009,0.00000000e+000
,,,-6.60000000e-009,0.00000000e+000
,,,-6.57500000e-009,0.00000000e+000
,,,-6.55000000e-009,3.12500022e-006
,,,-6.52500000e-009,6.25000044e-006
,,,-6.50000000e-009,8.59375061e-006
,,,-6.47500000e-009,1.01562507e-005
,,,-6.45000000e-009,9.37500066e-006
,,,-6.42500000e-009,7.81250055e-006
,,,-6.40000000e-009,3.90625028e-006
,,,-6.37500000e-009,0.00000000e+000
,,,-6.35000000e-009,-3.12500022e-006
,,,-6.32500000e-009,-6.25000044e-006
,,,-6.30000000e-009,-9.37500066e-006
,,,-6.27500000e-009,-1.17187508e-005
,,,-6.25000000e-009,-1.17187508e-005
,,,-6.22500000e-009,-1.01562507e-005
,,,-6.20000000e-009,-5.46875039e-006
,,,-6.17500000e-009,0.00000000e+000
,,,-6.15000000e-009,7.03125050e-006
,,,-6.12500000e-009,1.40625010e-005
,,,-6.10000000e-009,2.03125014e-005
,,,-6.07500000e-009,2.42187517e-005
,,,-6.05000000e-009,2.50000018e-005
,,,-6.02500000e-009,2.10937515e-005
,,,-6.00000000e-009,1.25000009e-005
,,,-5.97500000e-009,0.00000000e+000
,,,-5.95000000e-009,-1.48437511e-005
,,,-5.92500000e-009,-3.12500022e-005
,,,-5.90000000e-009,-4.53125032e-005
,,,-5.87500000e-009,-5.54687539e-005
,,,-5.85000000e-009,-5.70312540e-005
,,,-5.82500000e-009,-5.00000035e-005
,,,-5.80000000e-009,-3.04687522e-005
,,,-5.77500000e-009,0.00000000e+000
,,,-5.75000000e-009,4.21875030e-005
,,,-5.72500000e-009,9.37500066e-005
,,,-5.70000000e-009,1.51562511e-004
,,,-5.67500000e-009,2.11718765e-004
,,,-5.65000000e-009,2.70312519e-004
,,,-5.62500000e-009,3.23437523e-004
,,,-5.60000000e-009,3.67968776e-004
,,,-5.57500000e-009,4.00000028e-004
,,,-5.55000000e-009,4.14062529e-004
,,,-5.52500000e-009,4.12500029e-004
,,,-5.50000000e-009,3.97656278e-004
,,,-5.47500000e-009,3.71093776e-004
,,,-5.45000000e-009,3.35156274e-004
,,,-5.42500000e-009,2.92187521e-004
,,,-5.40000000e-009,2.46093767e-004
,,,-5.37500000e-009,2.00000014e-004
,,,-5.35000000e-009,1.53906261e-004
,,,-5.32500000e-009,1.13281258e-004
,,,-5.30000000e-009,7.89062556e-005
,,,-5.27500000e-009,5.15625036e-005
,,,-5.25000000e-009,3.04687522e-005
,,,-5.22500000e-009,1.56250011e-005
,,,-5.20000000e-009,5.46875039e-006
,,,-5.17500000e-009,0.00000000e+000
,,,-5.15000000e-009,-2.34375017e-006
,,,-5.12500000e-009,-3.90625028e-006
,,,-5.10000000e-009,-3.90625028e-006
,,,-5.07500000e-009,-3.12500022e-006
,,,-5.05000000e-009,-2.34375017e-006
,,,-5.02500000e-009,-7.81250055e-007
,,,-5.00000000e-009,0.00000000e+000
,,,-4.97500000e-009,0.00000000e+000
,,,-4.95000000e-009,0.00000000e+000
,,,-4.92500000e-009,7.81250055e-007
,,,-4.90000000e-009,7.81250055e-007
,,,-4.87500000e-009,7.81250055e-007
,,,-4.85000000e-009,7.81250055e-007
,,,-4.82500000e-009,0.00000000e+000
,,,-4.80000000e-009,0.00000000e+000
,,,-4.77500000e-009,0.00000000e+000
,,,-4.75000000e-009,0.00000000e+000
,,,-4.72500000e-009,0.00000000e+000
,,,-4.70000000e-009,-7.81250055e-007
,,,-4.67500000e-009,-7.81250055e-007
,,,-4.65000000e-009,0.00000000e+000
,,,-4.62500000e-009,0.00000000e+000
,,,-4.60000000e-009,0.00000000e+000
,,,-4.57500000e-009,0.00000000e+000
,,,-4.55000000e-009,1.56250011e-006
,,,-4.52500000e-009,2.34375017e-006
,,,-4.50000000e-009,3.12500022e-006
,,,-4.47500000e-009,3.12500022e-006
,,,-4.45000000e-009,2.34375017e-006
,,,-4.42500000e-009,1.56250011e-006
,,,-4.40000000e-009,7.81250055e-007
,,,-4.37500000e-009,0.00000000e+000
,,,-4.35000000e-009,-7.81250055e-007
,,,-4.32500000e-009,-1.56250011e-006
,,,-4.30000000e-009,-2.34375017e-006
,,,-4.27500000e-009,-3.12500022e-006
,,,-4.25000000e-009,-3.12500022e-006
,,,-4.22500000e-009,-2.34375017e-006
,,,-4.20000000e-009,-1.56250011e-006
,,,-4.17500000e-009,0.00000000e+000
,,,-4.15000000e-009,1.56250011e-006
,,,-4.12500000e-009,3.90625028e-006
,,,-4.10000000e-009,6.25000044e-006
,,,-4.07500000e-009,7.03125050e-006
,,,-4.05000000e-009,7.03125050e-006
,,,-4.02500000e-009,6.25000044e-006
,,,-4.00000000e-009,3.90625028e-006
,,,-3.97500000e-009,0.00000000e+000
,,,-3.95000000e-009,-5.46875039e-006
,,,-3.92500000e-009,-1.09375008e-005
,,,-3.90000000e-009,-1.64062512e-005
,,,-3.87500000e-009,-1.95312514e-005
,,,-3.85000000e-009,-1.95312514e-005
,,,-3.82500000e-009,-1.64062512e-005
,,,-3.80000000e-009,-9.37500066e-006
,,,-3.77500000e-009,0.00000000e+000
,,,-3.75000000e-009,1.17187508e-005
,,,-3.72500000e-009,2.50000018e-005
,,,-3.70000000e-009,3.59375025e-005
,,,-3.67500000e-009,4.29687530e-005
,,,-3.65000000e-009,4.45312532e-005
,,,-3.62500000e-009,3.82812527e-005
,,,-3.60000000e-009,2.34375017e-005
,,,-3.57500000e-009,0.00000000e+000
,,,-3.55000000e-009,-3.04687522e-005
,,,-3.52500000e-009,-6.64062547e-005
,,,-3.50000000e-009,-1.03906257e-004
,,,-3.47500000e-009,-1.39843760e-004
,,,-3.45000000e-009,-1.70312512e-004
,,,-3.42500000e-009,-1.91406264e-004
,,,-3.40000000e-009,-2.01562514e-004
,,,-3.37500000e-009,-2.00000014e-004
,,,-3.35000000e-009,-1.82812513e-004
,,,-3.32500000e-009,-1.54687511e-004
,,,-3.30000000e-009,-1.21093759e-004
,,,-3.27500000e-009,-8.43750060e-005
,,,-3.25000000e-009,-5.00000035e-005
,,,-3.22500000e-009,-2.18750015e-005
,,,-3.20000000e-009,-4.68750033e-006
,,,-3.17500000e-009,0.00000000e+000
,,,-3.15000000e-009,-7.03125050e-006
,,,-3.12500000e-009,-2.73437519e-005
,,,-3.10000000e-009,-5.70312540e-005
,,,-3.07500000e-009,-9.21875065e-005
,,,-3.05000000e-009,-1.28125009e-004
,,,-3.02500000e-009,-1.60937511e-004
,,,-3.00000000e-009,-1.85156263e-004
,,,-2.97500000e-009,-2.00000014e-004
,,,-2.95000000e-009,-1.98437514e-004
,,,-2.92500000e-009,-1.84375013e-004
,,,-2.90000000e-009,-1.60156261e-004
,,,-2.87500000e-009,-1.27343759e-004
,,,-2.85000000e-009,-9.14062565e-005
,,,-2.82500000e-009,-5.62500040e-005
,,,-2.80000000e-009,-2.42187517e-005
,,,-2.77500000e-009,0.00000000e+000
,,,-2.75000000e-009,1.64062512e-005
,,,-2.72500000e-009,2.50000018e-005
,,,-2.70000000e-009,2.50000018e-005
,,,-2.67500000e-009,1.95312514e-005
,,,-2.65000000e-009,1.09375008e-005
,,,-2.62500000e-009,3.12500022e-006
,,,-2.60000000e-009,-7.81250055e-007
,,,-2.57500000e-009,0.00000000e+000
,,,-2.55000000e-009,9.37500066e-006
,,,-2.52500000e-009,2.65625019e-005
,,,-2.50000000e-009,5.07812536e-005
,,,-2.47500000e-009,7.96875056e-005
,,,-2.45000000e-009,1.11718758e-004
,,,-2.42500000e-009,1.44531260e-004
,,,-2.40000000e-009,1.74218762e-004
,,,-2.37500000e-009,2.00000014e-004
,,,-2.35000000e-009,2.17187515e-004
,,,-2.32500000e-009,2.28125016e-004
,,,-2.30000000e-009,2.32031266e-004
,,,-2.27500000e-009,2.31250016e-004
,,,-2.25000000e-009,2.25781266e-004
,,,-2.22500000e-009,2.17968765e-004
,,,-2.20000000e-009,2.08593765e-004
,,,-2.17500000e-009,2.00000014e-004
,,,-2.15000000e-009,1.90625013e-004
,,,-2.12500000e-009,1.84375013e-004
,,,-2.10000000e-009,1.81250013e-004
,,,-2.07500000e-009,1.80468763e-004
,,,-2.05000000e-009,1.82812513e-004
,,,-2.02500000e-009,1.87500013e-004
,,,-2.00000000e-009,1.93750014e-004
,,,-1.97500000e-009,2.00000014e-004
,,,-1.95000000e-009,2.00000014e-004
,,,-1.92500000e-009,2.00000014e-004
,,,-1.90000000e-009,1.99218764e-004
,,,-1.87500000e-009,1.97656264e-004
,,,-1.85000000e-009,1.96875014e-004
,,,-1.82500000e-009,1.96875014e-004
,,,-1.80000000e-009,1.97656264e-004
,,,-1.77500000e-009,2.00000014e-004
,,,-1.75000000e-009,1.94531264e-004
,,,-1.72500000e-009,1.89062513e-004
,,,-1.70000000e-009,1.85156263e-004
,,,-1.67500000e-009,1.83593763e-004
,,,-1.65000000e-009,1.83593763e-004
,,,-1.62500000e-009,1.85937513e-004
,,,-1.60000000e-009,1.91406264e-004
,,,-1.57500000e-009,2.00000014e-004
,,,-1.55000000e-009,1.96093764e-004
,,,-1.52500000e-009,1.92187514e-004
,,,-1.50000000e-009,1.89062513e-004
,,,-1.47500000e-009,1.87500013e-004
,,,-1.45000000e-009,1.87500013e-004
,,,-1.42500000e-009,1.89843763e-004
,,,-1.40000000e-009,1.94531264e-004
,,,-1.37500000e-009,2.00000014e-004
,,,-1.35000000e-009,1.86718763e-004
,,,-1.32500000e-009,1.69531262e-004
,,,-1.30000000e-009,1.48437511e-004
,,,-1.27500000e-009,1.24218759e-004
,,,-1.25000000e-009,9.68750069e-005
,,,-1.22500000e-009,6.71875048e-005
,,,-1.20000000e-009,3.51562525e-005
,,,-1.17500000e-009,0.00000000e+000
,,,-1.15000000e-009,-5.85937541e-005
,,,-1.12500000e-009,-1.24218759e-004
,,,-1.10000000e-009,-1.96093764e-004
,,,-1.07500000e-009,-2.72656269e-004
,,,-1.05000000e-009,-3.52343775e-004
,,,-1.02500000e-009,-4.34375031e-004
,,,-1.00000000e-009,-5.16406287e-004
,,,-9.75000000e-010,-6.00000042e-004
,,,-9.50000000e-010,-7.01562550e-004
,,,-9.25000000e-010,-8.06250057e-004
,,,-9.00000000e-010,-9.11718815e-004
,,,-8.75000000e-010,-1.01640632e-003
,,,-8.50000000e-010,-1.11796883e-003
,,,-8.25000000e-010,-1.21562509e-003
,,,-8.00000000e-010,-1.30937509e-003
,,,-7.75000000e-010,-1.40000010e-003
,,,-7.50000000e-010,-1.50000011e-003
,,,-7.25000000e-010,-1.60468761e-003
,,,-7.00000000e-010,-1.71640637e-003
,,,-6.75000000e-010,-1.83515638e-003
,,,-6.50000000e-010,-1.96250014e-003
,,,-6.25000000e-010,-2.09921890e-003
,,,-6.00000000e-010,-2.24531266e-003
,,,-5.75000000e-010,-2.40000017e-003
,,,-5.50000000e-010,-2.56328143e-003
,,,-5.25000000e-010,-2.73359394e-003
,,,-5.00000000e-010,-2.90468771e-003
,,,-4.75000000e-010,-3.07187522e-003
,,,-4.50000000e-010,-3.22968773e-003
,,,-4.25000000e-010,-3.37187524e-003
,,,-4.00000000e-010,-3.49609400e-003
,,,-3.75000000e-010,-3.60000025e-003
,,,-3.50000000e-010,-3.67734401e-003
,,,-3.25000000e-010,-3.74453152e-003
,,,-3.00000000e-010,-3.80546902e-003
,,,-2.75000000e-010,-3.86562527e-003
,,,-2.50000000e-010,-3.93125028e-003
,,,-2.25000000e-010,-4.00625028e-003
,,,-2.00000000e-010,-4.09531279e-003
,,,-1.75000000e-010,-4.20000030e-003
,,,-1.50000000e-010,-4.30703155e-003
,,,-1.25000000e-010,-4.43281281e-003
,,,-1.00000000e-010,-4.57109407e-003
,,,-7.50000000e-011,-4.71562533e-003
,,,-5.00000000e-011,-4.85859409e-003
,,,-2.50000000e-011,-4.99140660e-003
,,,0.00000000e+000,-5.10703161e-003
,,,2.50000000e-011,-5.20000037e-003
,,,5.00000000e-011,-5.24531287e-003
,,,7.50000000e-011,-5.26875037e-003
,,,1.00000000e-010,-5.27421912e-003
,,,1.25000000e-010,-5.26484412e-003
,,,1.50000000e-010,-5.24765662e-003
,,,1.75000000e-010,-5.22734412e-003
,,,2.00000000e-010,-5.21015662e-003
,,,2.25000000e-010,-5.20000037e-003
,,,2.50000000e-010,-5.18203162e-003
,,,2.75000000e-010,-5.18046912e-003
,,,3.00000000e-010,-5.19531287e-003
,,,3.25000000e-010,-5.22500037e-003
,,,3.50000000e-010,-5.26484412e-003
,,,3.75000000e-010,-5.31015663e-003
,,,4.00000000e-010,-5.35703163e-003
,,,4.25000000e-010,-5.40000038e-003
,,,4.50000000e-010,-5.41640663e-003
,,,4.75000000e-010,-5.42656288e-003
,,,5.00000000e-010,-5.42968788e-003
,,,5.25000000e-010,-5.42812538e-003
,,,5.50000000e-010,-5.42265663e-003
,,,5.75000000e-010,-5.41562538e-003
,,,6.00000000e-010,-5.40781288e-003
,,,6.25000000e-010,-5.40000038e-003
,,,6.50000000e-010,-5.37656288e-003
,,,6.75000000e-010,-5.35468788e-003
,,,7.00000000e-010,-5.33359413e-003
,,,7.25000000e-010,-5.31250038e-003
,,,7.50000000e-010,-5.28984412e-003
,,,7.75000000e-010,-5.26484412e-003
,,,8.00000000e-010,-5.23515662e-003
,,,8.25000000e-010,-5.20000037e-003
,,,8.50000000e-010,-5.14531286e-003
,,,8.75000000e-010,-5.08750036e-003
,,,9.00000000e-010,-5.02812536e-003
,,,9.25000000e-010,-4.96953160e-003
,,,9.50000000e-010,-4.91562535e-003
,,,9.75000000e-010,-4.86796909e-003
,,,1.00000000e-009,-4.82890659e-003
,,,1.02500000e-009,-4.80000034e-003
,,,1.05000000e-009,-4.77109409e-003
,,,1.07500000e-009,-4.74765659e-003
,,,1.10000000e-009,-4.72812533e-003
,,,1.12500000e-009,-4.70937533e-003
,,,1.15000000e-009,-4.69062533e-003
,,,1.17500000e-009,-4.66718783e-003
,,,1.20000000e-009,-4.63750033e-003
,,,1.22500000e-009,-4.60000033e-003
,,,1.25000000e-009,-4.54296907e-003
,,,1.27500000e-009,-4.47578157e-003
,,,1.30000000e-009,-4.40000031e-003
,,,1.32500000e-009,-4.31718781e-003
,,,1.35000000e-009,-4.23281280e-003
,,,1.37500000e-009,-4.15000029e-003
,,,1.40000000e-009,-4.07109404e-003
,,,1.42500000e-009,-4.00000028e-003
,,,1.45000000e-009,-3.93046903e-003
,,,1.47500000e-009,-3.86796902e-003
,,,1.50000000e-009,-3.81171902e-003
,,,1.52500000e-009,-3.76093777e-003
,,,1.55000000e-009,-3.71640651e-003
,,,1.57500000e-009,-3.67500026e-003
,,,1.60000000e-009,-3.63671901e-003
,,,1.62500000e-009,-3.60000025e-003
,,,1.65000000e-009,-3.55781275e-003
,,,1.67500000e-009,-3.51171900e-003
,,,1.70000000e-009,-3.46171900e-003
,,,1.72500000e-009,-3.40781274e-003
,,,1.75000000e-009,-3.35390649e-003
,,,1.77500000e-009,-3.30000023e-003
,,,1.80000000e-009,-3.24843773e-003
,,,1.82500000e-009,-3.20000023e-003
,,,1.85000000e-009,-3.15312522e-003
,,,1.87500000e-009,-3.10625022e-003
,,,1.90000000e-009,-3.05859397e-003
,,,1.92500000e-009,-3.01093771e-003
,,,1.95000000e-009,-2.96093771e-003
,,,1.97500000e-009,-2.91015646e-003
,,,2.00000000e-009,-2.85625020e-003
,,,2.02500000e-009,-2.80000020e-003
,,,2.05000000e-009,-2.73906269e-003
,,,2.07500000e-009,-2.67187519e-003
,,,2.10000000e-009,-2.59921893e-003
,,,2.12500000e-009,-2.52187518e-003
,,,2.15000000e-009,-2.44140642e-003
,,,2.17500000e-009,-2.36015642e-003
,,,2.20000000e-009,-2.27890641e-003
,,,2.22500000e-009,-2.20000016e-003
,,,2.25000000e-009,-2.12656265e-003
,,,2.27500000e-009,-2.05234390e-003
,,,2.30000000e-009,-1.97812514e-003
,,,2.32500000e-009,-1.90234388e-003
,,,2.35000000e-009,-1.82656263e-003
,,,2.37500000e-009,-1.75000012e-003
,,,2.40000000e-009,-1.67421887e-003
,,,2.42500000e-009,-1.60000011e-003
,,,2.45000000e-009,-1.53437511e-003
,,,2.47500000e-009,-1.46953135e-003
,,,2.50000000e-009,-1.40781260e-003
,,,2.52500000e-009,-1.35000010e-003
,,,2.55000000e-009,-1.29921884e-003
,,,2.57500000e-009,-1.25625009e-003
,,,2.60000000e-009,-1.22265634e-003
,,,2.62500000e-009,-1.20000008e-003
,,,2.65000000e-009,-1.19609383e-003
,,,2.67500000e-009,-1.19765633e-003
,,,2.70000000e-009,-1.20312509e-003
,,,2.72500000e-009,-1.20937509e-003
,,,2.75000000e-009,-1.21406259e-003
,,,2.77500000e-009,-1.21484384e-003
,,,2.80000000e-009,-1.21015634e-003
,,,2.82500000e-009,-1.20000008e-003
,,,2.85000000e-009,-1.18984383e-003
,,,2.87500000e-009,-1.17187508e-003
,,,2.90000000e-009,-1.14687508e-003
,,,2.92500000e-009,-1.11718758e-003
,,,2.95000000e-009,-1.08437508e-003
,,,2.97500000e-009,-1.05234382e-003
,,,3.00000000e-009,-1.02343757e-003
,,,3.02500000e-009,-1.00000007e-003
,,,3.05000000e-009,-9.90625070e-004
,,,3.07500000e-009,-9.86718820e-004
,,,3.10000000e-009,-9.86718820e-004
,,,3.12500000e-009,-9.89843820e-004
,,,3.15000000e-009,-9.93750070e-004
,,,3.17500000e-009,-9.96875071e-004
,,,3.20000000e-009,-9.99218821e-004
,,,3.22500000e-009,-1.00000007e-003
,,,3.25000000e-009,-1.00078132e-003
,,,3.27500000e-009,-9.98437571e-004
,,,3.30000000e-009,-9.93750070e-004
,,,3.32500000e-009,-9.87500070e-004
,,,3.35000000e-009,-9.83593820e-004
,,,3.37500000e-009,-9.82812570e-004
,,,3.40000000e-009,-9.87500070e-004
,,,3.42500000e-009,-1.00000007e-003
,,,3.45000000e-009,-1.02031257e-003
,,,3.47500000e-009,-1.04687507e-003
,,,3.50000000e-009,-1.07656258e-003
,,,3.52500000e-009,-1.10703133e-003
,,,3.55000000e-009,-1.13671883e-003
,,,3.57500000e-009,-1.16328133e-003
,,,3.60000000e-009,-1.18437508e-003
,,,3.62500000e-009,-1.20000008e-003
,,,3.65000000e-009,-1.20468759e-003
,,,3.67500000e-009,-1.20390634e-003
,,,3.70000000e-009,-1.19843758e-003
,,,3.72500000e-009,-1.19140633e-003
,,,3.75000000e-009,-1.18671883e-003
,,,3.77500000e-009,-1.18515633e-003
,,,3.80000000e-009,-1.18906258e-003
,,,3.82500000e-009,-1.20000008e-003
,,,3.85000000e-009,-1.21328134e-003
,,,3.87500000e-009,-1.23046884e-003
,,,3.90000000e-009,-1.24687509e-003
,,,3.92500000e-009,-1.25937509e-003
,,,3.95000000e-009,-1.26328134e-003
,,,3.97500000e-009,-1.25625009e-003
,,,4.00000000e-009,-1.23515634e-003
,,,4.02500000e-009,-1.20000008e-003
,,,4.05000000e-009,-1.14843758e-003
,,,4.07500000e-009,-1.08750008e-003
,,,4.10000000e-009,-1.02109382e-003
,,,4.12500000e-009,-9.55468818e-004
,,,4.15000000e-009,-8.95312563e-004
,,,4.17500000e-009,-8.46875060e-004
,,,4.20000000e-009,-8.14062558e-004
,,,4.22500000e-009,-8.00000057e-004
,,,4.25000000e-009,-8.04687557e-004
,,,4.27500000e-009,-8.26562559e-004
,,,4.30000000e-009,-8.60156311e-004
,,,4.32500000e-009,-9.00781314e-004
,,,4.35000000e-009,-9.40625067e-004
,,,4.37500000e-009,-9.74218819e-004
,,,4.40000000e-009,-9.95312570e-004
,,,4.42500000e-009,-1.00000007e-003
,,,4.45000000e-009,-9.84375070e-004
,,,4.47500000e-009,-9.50781317e-004
,,,4.50000000e-009,-9.00781314e-004
,,,4.52500000e-009,-8.39843809e-004
,,,4.55000000e-009,-7.73437555e-004
,,,4.57500000e-009,-7.07031300e-004
,,,4.60000000e-009,-6.47656296e-004
,,,4.62500000e-009,-6.00000042e-004
,,,4.65000000e-009,-5.70312540e-004
,,,4.67500000e-009,-5.60156290e-004
,,,4.70000000e-009,-5.67187540e-004
,,,4.72500000e-009,-5.92187542e-004
,,,4.75000000e-009,-6.31250045e-004
,,,4.77500000e-009,-6.82031298e-004
,,,4.80000000e-009,-7.39062552e-004
,,,4.82500000e-009,-8.00000057e-004
,,,4.85000000e-009,-8.58593811e-004
,,,4.87500000e-009,-9.11718815e-004
,,,4.90000000e-009,-9.54687568e-004
,,,4.92500000e-009,-9.86718820e-004
,,,4.95000000e-009,-1.00703132e-003
,,,4.97500000e-009,-1.01562507e-003
,,,5.00000000e-009,-1.01250007e-003
,,,5.02500000e-009,-1.00000007e-003
,,,5.05000000e-009,-9.78125069e-004
,,,5.07500000e-009,-9.50000067e-004
,,,5.10000000e-009,-9.18750065e-004
,,,5.12500000e-009,-8.87500063e-004
,,,5.15000000e-009,-8.57812561e-004
,,,5.17500000e-009,-8.32812559e-004
,,,5.20000000e-009,-8.12500058e-004
,,,5.22500000e-009,-8.00000057e-004
,,,5.25000000e-009,-7.91406306e-004
,,,5.27500000e-009,-7.89062556e-004
,,,5.30000000e-009,-7.90625056e-004
,,,5.32500000e-009,-7.95312556e-004
,,,5.35000000e-009,-8.00781307e-004
,,,5.37500000e-009,-8.03906307e-004
,,,5.40000000e-009,-8.04687557e-004
,,,5.42500000e-009,-8.00000057e-004
,,,5.45000000e-009,-7.89062556e-004
,,,5.47500000e-009,-7.71093805e-004
,,,5.50000000e-009,-7.47656303e-004
,,,5.52500000e-009,-7.20312551e-004
,,,5.55000000e-009,-6.89062549e-004
,,,5.57500000e-009,-6.57812547e-004
,,,5.60000000e-009,-6.27343794e-004
,,,5.62500000e-009,-6.00000042e-004
,,,5.65000000e-009,-5.76562541e-004
,,,5.67500000e-009,-5.60156290e-004
,,,5.70000000e-009,-5.50781289e-004
,,,5.72500000e-009,-5.48437539e-004
,,,5.75000000e-009,-5.53125039e-004
,,,5.77500000e-009,-5.64843790e-004
,,,5.80000000e-009,-5.80468791e-004
,,,5.82500000e-009,-6.00000042e-004
,,,5.85000000e-009,-6.18750044e-004
,,,5.87500000e-009,-6.35937545e-004
,,,5.90000000e-009,-6.48437546e-004
,,,5.92500000e-009,-6.55468796e-004
,,,5.95000000e-009,-6.53906296e-004
