RawData/SinglePhotoelectron/R3_50foot_5mV/wave005_Ch2.csv

"Record Length",1000,"Points",-7.72500000e-009,1.87500013e-005
"Sample Interval",2.50000000e-011,s,-7.70000000e-009,3.98437528e-005
"Trigger Point",309,"Samples",-7.67500000e-009,6.17187544e-005
"Trigger Time",6.43150442e-012,s,-7.65000000e-009,8.51562560e-005
"",,,-7.62500000e-009,1.10156258e-004
"Horizontal Offset",-7.72500000e-009,s,-7.60000000e-009,1.37500010e-004
,,,-7.57500000e-009,1.67187512e-004
,,,-7.55000000e-009,2.00000014e-004
,,,-7.52500000e-009,2.31250016e-004
,,,-7.50000000e-009,2.63281269e-004
,,,-7.47500000e-009,2.94531271e-004
,,,-7.45000000e-009,3.24218773e-004
,,,-7.42500000e-009,3.50781275e-004
,,,-7.40000000e-009,3.71875026e-004
,,,-7.37500000e-009,3.88281277e-004
,,,-7.35000000e-009,4.00000028e-004
,,,-7.32500000e-009,4.01562528e-004
,,,-7.30000000e-009,4.00000028e-004
,,,-7.27500000e-009,3.95312528e-004
,,,-7.25000000e-009,3.90625028e-004
,,,-7.22500000e-009,3.87500027e-004
,,,-7.20000000e-009,3.87500027e-004
,,,-7.17500000e-009,3.91406278e-004
,,,-7.15000000e-009,4.00000028e-004
,,,-7.12500000e-009,4.07812529e-004
,,,-7.10000000e-009,4.17968780e-004
,,,-7.07500000e-009,4.28125030e-004
,,,-7.05000000e-009,4.35937531e-004
,,,-7.02500000e-009,4.39062531e-004
,,,-7.00000000e-009,4.35156281e-004
,,,-6.97500000e-009,4.22656280e-004
,,,-6.95000000e-009,4.00000028e-004
,,,-6.92500000e-009,3.62500026e-004
,,,-6.90000000e-009,3.17187522e-004
,,,-6.87500000e-009,2.64843769e-004
,,,-6.85000000e-009,2.07812515e-004
,,,-6.82500000e-009,1.50000011e-004
,,,-6.80000000e-009,9.45312567e-005
,,,-6.77500000e-009,4.29687530e-005
,,,-6.75000000e-009,0.00000000e+000
,,,-6.72500000e-009,-3.35937524e-005
,,,-6.70000000e-009,-5.54687539e-005
,,,-6.67500000e-009,-6.64062547e-005
,,,-6.65000000e-009,-6.71875048e-005
,,,-6.62500000e-009,-5.85937541e-005
,,,-6.60000000e-009,-4.29687530e-005
,,,-6.57500000e-009,-2.18750015e-005
,,,-6.55000000e-009,0.00000000e+000
,,,-6.52500000e-009,2.10937515e-005
,,,-6.50000000e-009,3.90625028e-005
,,,-6.47500000e-009,5.07812536e-005
,,,-6.45000000e-009,5.62500040e-005
,,,-6.42500000e-009,5.31250038e-005
,,,-6.40000000e-009,4.29687530e-005
,,,-6.37500000e-009,2.42187517e-005
,,,-6.35000000e-009,0.00000000e+000
,,,-6.32500000e-009,-2.96875021e-005
,,,-6.30000000e-009,-6.32812545e-005
,,,-6.27500000e-009,-9.84375070e-005
,,,-6.25000000e-009,-1.31250009e-004
,,,-6.22500000e-009,-1.60156261e-004
,,,-6.20000000e-009,-1.82031263e-004
,,,-6.17500000e-009,-1.95312514e-004
,,,-6.15000000e-009,-2.00000014e-004
,,,-6.12500000e-009,-1.91406264e-004
,,,-6.10000000e-009,-1.74218762e-004
,,,-6.07500000e-009,-1.50000011e-004
,,,-6.05000000e-009,-1.21093759e-004
,,,-6.02500000e-009,-8.90625063e-005
,,,-6.00000000e-009,-5.70312540e-005
,,,-5.97500000e-009,-2.65625019e-005
,,,-5.95000000e-009,0.00000000e+000
,,,-5.92500000e-009,2.10937515e-005
,,,-5.90000000e-009,3.59375025e-005
,,,-5.87500000e-009,4.29687530e-005
,,,-5.85000000e-009,4.29687530e-005
,,,-5.82500000e-009,3.75000027e-005
,,,-5.80000000e-009,2.81250020e-005
,,,-5.77500000e-009,1.48437511e-005
,,,-5.75000000e-009,0.00000000e+000
,,,-5.72500000e-009,-1.71875012e-005
,,,-5.70000000e-009,-3.67187526e-005
,,,-5.67500000e-009,-5.70312540e-005
,,,-5.65000000e-009,-7.96875056e-005
,,,-5.62500000e-009,-1.05468757e-004
,,,-5.60000000e-009,-1.33593759e-004
,,,-5.57500000e-009,-1.64843762e-004
,,,-5.55000000e-009,-2.00000014e-004
,,,-5.52500000e-009,-2.34375017e-004
,,,-5.50000000e-009,-2.70312519e-004
,,,-5.47500000e-009,-3.04687522e-004
,,,-5.45000000e-009,-3.35937524e-004
,,,-5.42500000e-009,-3.63281276e-004
,,,-5.40000000e-009,-3.83593777e-004
,,,-5.37500000e-009,-3.96093778e-004
,,,-5.35000000e-009,-4.00000028e-004
,,,-5.32500000e-009,-3.90625028e-004
,,,-5.30000000e-009,-3.72656276e-004
,,,-5.27500000e-009,-3.48437525e-004
,,,-5.25000000e-009,-3.18750023e-004
,,,-5.22500000e-009,-2.87500020e-004
,,,-5.20000000e-009,-2.55468768e-004
,,,-5.17500000e-009,-2.25781266e-004
,,,-5.15000000e-009,-2.00000014e-004
,,,-5.12500000e-009,-1.78906263e-004
,,,-5.10000000e-009,-1.64062512e-004
,,,-5.07500000e-009,-1.57031261e-004
,,,-5.05000000e-009,-1.56250011e-004
,,,-5.02500000e-009,-1.60937511e-004
,,,-5.00000000e-009,-1.71093762e-004
,,,-4.97500000e-009,-1.84375013e-004
,,,-4.95000000e-009,-2.00000014e-004
,,,-4.92500000e-009,-2.11718765e-004
,,,-4.90000000e-009,-2.21875016e-004
,,,-4.87500000e-009,-2.29687516e-004
,,,-4.85000000e-009,-2.32812516e-004
,,,-4.82500000e-009,-2.32031266e-004
,,,-4.80000000e-009,-2.25781266e-004
,,,-4.77500000e-009,-2.14843765e-004
,,,-4.75000000e-009,-2.00000014e-004
,,,-4.72500000e-009,-1.78125013e-004
,,,-4.70000000e-009,-1.53906261e-004
,,,-4.67500000e-009,-1.27343759e-004
,,,-4.65000000e-009,-1.00000007e-004
,,,-4.62500000e-009,-7.18750051e-005
,,,-4.60000000e-009,-4.53125032e-005
,,,-4.57500000e-009,-2.10937515e-005
,,,-4.55000000e-009,0.00000000e+000
,,,-4.52500000e-009,1.64062512e-005
,,,-4.50000000e-009,2.81250020e-005
,,,-4.47500000e-009,3.43750024e-005
,,,-4.45000000e-009,3.67187526e-005
,,,-4.42500000e-009,3.28125023e-005
,,,-4.40000000e-009,2.50000018e-005
,,,-4.37500000e-009,1.32812509e-005
,,,-4.35000000e-009,0.00000000e+000
,,,-4.32500000e-009,-1.56250011e-005
,,,-4.30000000e-009,-3.04687522e-005
,,,-4.27500000e-009,-4.14062529e-005
,,,-4.25000000e-009,-4.76562534e-005
,,,-4.22500000e-009,-4.68750033e-005
,,,-4.20000000e-009,-3.90625028e-005
,,,-4.17500000e-009,-2.26562516e-005
,,,-4.15000000e-009,0.00000000e+000
,,,-4.12500000e-009,2.73437519e-005
,,,-4.10000000e-009,5.85937541e-005
,,,-4.07500000e-009,9.14062565e-005
,,,-4.05000000e-009,1.24218759e-004
,,,-4.02500000e-009,1.53906261e-004
,,,-4.00000000e-009,1.77343763e-004
,,,-3.97500000e-009,1.92968764e-004
,,,-3.95000000e-009,2.00000014e-004
,,,-3.92500000e-009,1.93750014e-004
,,,-3.90000000e-009,1.78906263e-004
,,,-3.87500000e-009,1.56250011e-004
,,,-3.85000000e-009,1.27343759e-004
,,,-3.82500000e-009,9.53125067e-005
,,,-3.80000000e-009,6.17187544e-005
,,,-3.77500000e-009,2.89062520e-005
,,,-3.75000000e-009,0.00000000e+000
,,,-3.72500000e-009,-2.42187517e-005
,,,-3.70000000e-009,-4.14062529e-005
,,,-3.67500000e-009,-5.07812536e-005
,,,-3.65000000e-009,-5.15625036e-005
,,,-3.62500000e-009,-4.60937533e-005
,,,-3.60000000e-009,-3.43750024e-005
,,,-3.57500000e-009,-1.79687513e-005
,,,-3.55000000e-009,0.00000000e+000
,,,-3.52500000e-009,1.79687513e-005
,,,-3.50000000e-009,3.43750024e-005
,,,-3.47500000e-009,4.60937533e-005
,,,-3.45000000e-009,5.15625036e-005
,,,-3.42500000e-009,5.07812536e-005
,,,-3.40000000e-009,4.14062529e-005
,,,-3.37500000e-009,2.42187517e-005
,,,-3.35000000e-009,0.00000000e+000
,,,-3.32500000e-009,-3.04687522e-005
,,,-3.30000000e-009,-6.56250046e-005
,,,-3.27500000e-009,-1.00781257e-004
,,,-3.25000000e-009,-1.34375010e-004
,,,-3.22500000e-009,-1.63281262e-004
,,,-3.20000000e-009,-1.85156263e-004
,,,-3.17500000e-009,-1.97656264e-004
,,,-3.15000000e-009,-2.00000014e-004
,,,-3.12500000e-009,-1.89843763e-004
,,,-3.10000000e-009,-1.70312512e-004
,,,-3.07500000e-009,-1.43750010e-004
,,,-3.05000000e-009,-1.12500008e-004
,,,-3.02500000e-009,-7.96875056e-005
,,,-3.00000000e-009,-4.84375034e-005
,,,-2.97500000e-009,-2.10937515e-005
,,,-2.95000000e-009,0.00000000e+000
,,,-2.92500000e-009,1.48437511e-005
,,,-2.90000000e-009,2.18750015e-005
,,,-2.87500000e-009,2.26562516e-005
,,,-2.85000000e-009,1.95312514e-005
,,,-2.82500000e-009,1.25000009e-005
,,,-2.80000000e-009,6.25000044e-006
,,,-2.77500000e-009,1.56250011e-006
,,,-2.75000000e-009,0.00000000e+000
,,,-2.72500000e-009,1.56250011e-006
,,,-2.70000000e-009,6.25000044e-006
,,,-2.67500000e-009,1.25000009e-005
,,,-2.65000000e-009,1.95312514e-005
,,,-2.62500000e-009,2.26562516e-005
,,,-2.60000000e-009,2.18750015e-005
,,,-2.57500000e-009,1.48437511e-005
,,,-2.55000000e-009,0.00000000e+000
,,,-2.52500000e-009,-2.18750015e-005
,,,-2.50000000e-009,-5.00000035e-005
,,,-2.47500000e-009,-8.28125059e-005
,,,-2.45000000e-009,-1.15625008e-004
,,,-2.42500000e-009,-1.46875010e-004
,,,-2.40000000e-009,-1.73437512e-004
,,,-2.37500000e-009,-1.91406264e-004
,,,-2.35000000e-009,-2.00000014e-004
,,,-2.32500000e-009,-1.95312514e-004
,,,-2.30000000e-009,-1.80468763e-004
,,,-2.27500000e-009,-1.57031261e-004
,,,-2.25000000e-009,-1.26562509e-004
,,,-2.22500000e-009,-9.29687566e-005
,,,-2.20000000e-009,-5.85937541e-005
,,,-2.17500000e-009,-2.65625019e-005
,,,-2.15000000e-009,0.00000000e+000
,,,-2.12500000e-009,1.87500013e-005
,,,-2.10000000e-009,2.96875021e-005
,,,-2.07500000e-009,3.35937524e-005
,,,-2.05000000e-009,3.20312523e-005
,,,-2.02500000e-009,2.57812518e-005
,,,-2.00000000e-009,1.71875012e-005
,,,-1.97500000e-009,7.81250055e-006
,,,-1.95000000e-009,0.00000000e+000
,,,-1.92500000e-009,-8.59375061e-006
,,,-1.90000000e-009,-1.48437511e-005
,,,-1.87500000e-009,-1.79687513e-005
,,,-1.85000000e-009,-1.87500013e-005
,,,-1.82500000e-009,-1.56250011e-005
,,,-1.80000000e-009,-1.17187508e-005
,,,-1.77500000e-009,-5.46875039e-006
,,,-1.75000000e-009,0.00000000e+000
,,,-1.72500000e-009,7.81250055e-007
,,,-1.70000000e-009,0.00000000e+000
,,,-1.67500000e-009,-7.81250055e-007
,,,-1.65000000e-009,-2.34375017e-006
,,,-1.62500000e-009,-3.90625028e-006
,,,-1.60000000e-009,-3.90625028e-006
,,,-1.57500000e-009,-3.12500022e-006
,,,-1.55000000e-009,0.00000000e+000
,,,-1.52500000e-009,-2.34375017e-006
,,,-1.50000000e-009,-3.90625028e-006
,,,-1.47500000e-009,-4.68750033e-006
,,,-1.45000000e-009,-4.68750033e-006
,,,-1.42500000e-009,-3.90625028e-006
,,,-1.40000000e-009,-2.34375017e-006
,,,-1.37500000e-009,-7.81250055e-007
,,,-1.35000000e-009,0.00000000e+000
,,,-1.32500000e-009,-1.40625010e-005
,,,-1.30000000e-009,-3.28125023e-005
,,,-1.27500000e-009,-5.46875039e-005
,,,-1.25000000e-009,-8.04687557e-005
,,,-1.22500000e-009,-1.07812508e-004
,,,-1.20000000e-009,-1.37500010e-004
,,,-1.17500000e-009,-1.67968762e-004
,,,-1.15000000e-009,-2.00000014e-004
,,,-1.12500000e-009,-2.50000018e-004
,,,-1.10000000e-009,-3.03906272e-004
,,,-1.07500000e-009,-3.59375025e-004
,,,-1.05000000e-009,-4.14062529e-004
,,,-1.02500000e-009,-4.67187533e-004
,,,-1.00000000e-009,-5.16406287e-004
,,,-9.75000000e-010,-5.60156290e-004
,,,-9.50000000e-010,-6.00000042e-004
,,,-9.25000000e-010,-6.55468796e-004
,,,-9.00000000e-010,-7.10937550e-004
,,,-8.75000000e-010,-7.65625054e-004
,,,-8.50000000e-010,-8.17968808e-004
,,,-8.25000000e-010,-8.67968811e-004
,,,-8.00000000e-010,-9.14062565e-004
,,,-7.75000000e-010,-9.57812568e-004
,,,-7.50000000e-010,-1.00000007e-003
,,,-7.25000000e-010,-1.06328133e-003
,,,-7.00000000e-010,-1.13281258e-003
,,,-6.75000000e-010,-1.20625009e-003
,,,-6.50000000e-010,-1.28281259e-003
,,,-6.25000000e-010,-1.36171885e-003
,,,-6.00000000e-010,-1.44062510e-003
,,,-5.75000000e-010,-1.51953136e-003
,,,-5.50000000e-010,-1.60000011e-003
,,,-5.25000000e-010,-1.70156262e-003
,,,-5.00000000e-010,-1.81250013e-003
,,,-4.75000000e-010,-1.92968764e-003
,,,-4.50000000e-010,-2.05390640e-003
,,,-4.25000000e-010,-2.18359390e-003
,,,-4.00000000e-010,-2.31796891e-003
,,,-3.75000000e-010,-2.45703142e-003
,,,-3.50000000e-010,-2.60000018e-003
,,,-3.25000000e-010,-2.76171895e-003
,,,-3.00000000e-010,-2.93203146e-003
,,,-2.75000000e-010,-3.10937522e-003
,,,-2.50000000e-010,-3.29062523e-003
,,,-2.25000000e-010,-3.47265650e-003
,,,-2.00000000e-010,-3.65234401e-003
,,,-1.75000000e-010,-3.82812527e-003
,,,-1.50000000e-010,-4.00000028e-003
,,,-1.25000000e-010,-4.17265655e-003
,,,-1.00000000e-010,-4.34609406e-003
,,,-7.50000000e-011,-4.52187532e-003
,,,-5.00000000e-011,-4.69843783e-003
,,,-2.50000000e-011,-4.87578160e-003
,,,0.00000000e+000,-5.05234411e-003
,,,2.50000000e-011,-5.22734412e-003
,,,5.00000000e-011,-5.40000038e-003
,,,7.50000000e-011,-5.56562539e-003
,,,1.00000000e-010,-5.73281291e-003
,,,1.25000000e-010,-5.89843792e-003
,,,1.50000000e-010,-6.06093793e-003
,,,1.75000000e-010,-6.21484419e-003
,,,2.00000000e-010,-6.35781295e-003
,,,2.25000000e-010,-6.48671921e-003
,,,2.50000000e-010,-6.60000047e-003
,,,2.75000000e-010,-6.68203172e-003
,,,3.00000000e-010,-6.75781298e-003
,,,3.25000000e-010,-6.82812548e-003
,,,3.50000000e-010,-6.89765674e-003
,,,3.75000000e-010,-6.96718799e-003
,,,4.00000000e-010,-7.03984425e-003
,,,4.25000000e-010,-7.11718800e-003
,,,4.50000000e-010,-7.20000051e-003
,,,4.75000000e-010,-7.27031301e-003
,,,5.00000000e-010,-7.35390677e-003
,,,5.25000000e-010,-7.44921928e-003
,,,5.50000000e-010,-7.55468803e-003
,,,5.75000000e-010,-7.66640679e-003
,,,6.00000000e-010,-7.77968805e-003
,,,6.25000000e-010,-7.89218806e-003
,,,6.50000000e-010,-8.00000057e-003
,,,6.75000000e-010,-8.07421932e-003
,,,7.00000000e-010,-8.14531308e-003
,,,7.25000000e-010,-8.21640683e-003
,,,7.50000000e-010,-8.28828184e-003
,,,7.75000000e-010,-8.36171934e-003
,,,8.00000000e-010,-8.43906310e-003
,,,8.25000000e-010,-8.51875060e-003
,,,8.50000000e-010,-8.60000061e-003
,,,8.75000000e-010,-8.65078186e-003
,,,9.00000000e-010,-8.70078187e-003
,,,9.25000000e-010,-8.74687562e-003
,,,9.50000000e-010,-8.78593812e-003
,,,9.75000000e-010,-8.81406312e-003
,,,1.00000000e-009,-8.82812562e-003
,,,1.02500000e-009,-8.82343812e-003
,,,1.05000000e-009,-8.80000062e-003
,,,1.07500000e-009,-8.72812562e-003
,,,1.10000000e-009,-8.64296936e-003
,,,1.12500000e-009,-8.55000061e-003
,,,1.15000000e-009,-8.45703185e-003
,,,1.17500000e-009,-8.37031309e-003
,,,1.20000000e-009,-8.29609434e-003
,,,1.22500000e-009,-8.23906308e-003
,,,1.25000000e-009,-8.20000058e-003
,,,1.27500000e-009,-8.15703183e-003
,,,1.30000000e-009,-8.13046933e-003
,,,1.32500000e-009,-8.11484432e-003
,,,1.35000000e-009,-8.10546932e-003
,,,1.37500000e-009,-8.09531307e-003
,,,1.40000000e-009,-8.07812557e-003
,,,1.42500000e-009,-8.04843807e-003
,,,1.45000000e-009,-8.00000057e-003
,,,1.47500000e-009,-7.91015681e-003
,,,1.50000000e-009,-7.79921930e-003
,,,1.52500000e-009,-7.67109429e-003
,,,1.55000000e-009,-7.53203178e-003
,,,1.57500000e-009,-7.38828177e-003
,,,1.60000000e-009,-7.24843801e-003
,,,1.62500000e-009,-7.11718800e-003
,,,1.65000000e-009,-7.00000050e-003
,,,1.67500000e-009,-6.88593799e-003
,,,1.70000000e-009,-6.78750048e-003
,,,1.72500000e-009,-6.70312547e-003
,,,1.75000000e-009,-6.63125047e-003
,,,1.77500000e-009,-6.56875046e-003
,,,1.80000000e-009,-6.51250046e-003
,,,1.82500000e-009,-6.45703171e-003
,,,1.85000000e-009,-6.40000045e-003
,,,1.87500000e-009,-6.32734420e-003
,,,1.90000000e-009,-6.24296919e-003
,,,1.92500000e-009,-6.14609419e-003
,,,1.95000000e-009,-6.04062543e-003
,,,1.97500000e-009,-5.92890667e-003
,,,2.00000000e-009,-5.81562541e-003
,,,2.02500000e-009,-5.70468790e-003
,,,2.05000000e-009,-5.60000040e-003
,,,2.07500000e-009,-5.50078164e-003
,,,2.10000000e-009,-5.40625038e-003
,,,2.12500000e-009,-5.31953163e-003
,,,2.15000000e-009,-5.23984412e-003
,,,2.17500000e-009,-5.16875037e-003
,,,2.20000000e-009,-5.10546911e-003
,,,2.22500000e-009,-5.05000036e-003
,,,2.25000000e-009,-5.00000035e-003
,,,2.27500000e-009,-4.95234410e-003
,,,2.30000000e-009,-4.90000035e-003
,,,2.32500000e-009,-4.84062534e-003
,,,2.35000000e-009,-4.77187534e-003
,,,2.37500000e-009,-4.69375033e-003
,,,2.40000000e-009,-4.60546908e-003
,,,2.42500000e-009,-4.50703157e-003
,,,2.45000000e-009,-4.40000031e-003
,,,2.47500000e-009,-4.28750030e-003
,,,2.50000000e-009,-4.16406279e-003
,,,2.52500000e-009,-4.03281279e-003
,,,2.55000000e-009,-3.89843778e-003
,,,2.57500000e-009,-3.76328152e-003
,,,2.60000000e-009,-3.63281276e-003
,,,2.62500000e-009,-3.51093775e-003
,,,2.65000000e-009,-3.40000024e-003
,,,2.67500000e-009,-3.30703148e-003
,,,2.70000000e-009,-3.22187523e-003
,,,2.72500000e-009,-3.14375022e-003
,,,2.75000000e-009,-3.07031272e-003
,,,2.77500000e-009,-3.00000021e-003
,,,2.80000000e-009,-2.93203146e-003
,,,2.82500000e-009,-2.86562520e-003
,,,2.85000000e-009,-2.80000020e-003
,,,2.87500000e-009,-2.74375019e-003
,,,2.90000000e-009,-2.68515644e-003
,,,2.92500000e-009,-2.62500019e-003
,,,2.95000000e-009,-2.56562518e-003
,,,2.97500000e-009,-2.51093768e-003
,,,3.00000000e-009,-2.46328142e-003
,,,3.02500000e-009,-2.42500017e-003
,,,3.05000000e-009,-2.40000017e-003
,,,3.07500000e-009,-2.39375017e-003
,,,3.10000000e-009,-2.39453142e-003
,,,3.12500000e-009,-2.39921892e-003
,,,3.15000000e-009,-2.40546892e-003
,,,3.17500000e-009,-2.41171892e-003
,,,3.20000000e-009,-2.41406267e-003
,,,3.22500000e-009,-2.41093767e-003
,,,3.25000000e-009,-2.40000017e-003
,,,3.27500000e-009,-2.38437517e-003
,,,3.30000000e-009,-2.35546892e-003
,,,3.32500000e-009,-2.31328141e-003
,,,3.35000000e-009,-2.26015641e-003
,,,3.37500000e-009,-2.19843766e-003
,,,3.40000000e-009,-2.13203140e-003
,,,3.42500000e-009,-2.06484390e-003
,,,3.45000000e-009,-2.00000014e-003
,,,3.47500000e-009,-1.94609389e-003
,,,3.50000000e-009,-1.89843763e-003
,,,3.52500000e-009,-1.85781263e-003
,,,3.55000000e-009,-1.82578138e-003
,,,3.57500000e-009,-1.80468763e-003
,,,3.60000000e-009,-1.79375013e-003
,,,3.62500000e-009,-1.79218763e-003
,,,3.65000000e-009,-1.80000013e-003
,,,3.67500000e-009,-1.81484388e-003
,,,3.70000000e-009,-1.83046888e-003
,,,3.72500000e-009,-1.84375013e-003
,,,3.75000000e-009,-1.85156263e-003
,,,3.77500000e-009,-1.85312513e-003
,,,3.80000000e-009,-1.84531263e-003
,,,3.82500000e-009,-1.82734388e-003
,,,3.85000000e-009,-1.80000013e-003
,,,3.87500000e-009,-1.76250012e-003
,,,3.90000000e-009,-1.71484387e-003
,,,3.92500000e-009,-1.66093762e-003
,,,3.95000000e-009,-1.60312511e-003
,,,3.97500000e-009,-1.54453136e-003
,,,4.00000000e-009,-1.48906261e-003
,,,4.02500000e-009,-1.43984385e-003
,,,4.05000000e-009,-1.40000010e-003
,,,4.07500000e-009,-1.37265635e-003
,,,4.10000000e-009,-1.35546885e-003
,,,4.12500000e-009,-1.34843760e-003
,,,4.15000000e-009,-1.35000010e-003
,,,4.17500000e-009,-1.35859385e-003
,,,4.20000000e-009,-1.37109385e-003
,,,4.22500000e-009,-1.38593760e-003
,,,4.25000000e-009,-1.40000010e-003
,,,4.27500000e-009,-1.41093760e-003
,,,4.30000000e-009,-1.41406260e-003
,,,4.32500000e-009,-1.40625010e-003
,,,4.35000000e-009,-1.38671885e-003
,,,4.37500000e-009,-1.35546885e-003
,,,4.40000000e-009,-1.31328134e-003
,,,4.42500000e-009,-1.26015634e-003
,,,4.45000000e-009,-1.20000008e-003
,,,4.47500000e-009,-1.13593758e-003
,,,4.50000000e-009,-1.06953133e-003
,,,4.52500000e-009,-1.00468757e-003
,,,4.55000000e-009,-9.43750067e-004
,,,4.57500000e-009,-8.89843813e-004
,,,4.60000000e-009,-8.46875060e-004
,,,4.62500000e-009,-8.16406308e-004
,,,4.65000000e-009,-8.00000057e-004
,,,4.67500000e-009,-8.03125057e-004
,,,4.70000000e-009,-8.17968808e-004
,,,4.72500000e-009,-8.42968810e-004
,,,4.75000000e-009,-8.74218812e-004
,,,4.77500000e-009,-9.08593814e-004
,,,4.80000000e-009,-9.42968817e-004
,,,4.82500000e-009,-9.74218819e-004
,,,4.85000000e-009,-1.00000007e-003
,,,4.87500000e-009,-1.02031257e-003
,,,4.90000000e-009,-1.03203132e-003
,,,4.92500000e-009,-1.03515632e-003
,,,4.95000000e-009,-1.03203132e-003
,,,4.97500000e-009,-1.02500007e-003
,,,5.00000000e-009,-1.01484382e-003
,,,5.02500000e-009,-1.00625007e-003
,,,5.05000000e-009,-1.00000007e-003
,,,5.07500000e-009,-9.97656321e-004
,,,5.10000000e-009,-9.99218821e-004
,,,5.12500000e-009,-1.00234382e-003
,,,5.15000000e-009,-1.00625007e-003
,,,5.17500000e-009,-1.00937507e-003
,,,5.20000000e-009,-1.01015632e-003
,,,5.22500000e-009,-1.00703132e-003
,,,5.25000000e-009,-1.00000007e-003
,,,5.27500000e-009,-9.89843820e-004
,,,5.30000000e-009,-9.77343819e-004
,,,5.32500000e-009,-9.64843818e-004
,,,5.35000000e-009,-9.55468818e-004
,,,5.37500000e-009,-9.51562567e-004
,,,5.40000000e-009,-9.57031318e-004
,,,5.42500000e-009,-9.72656319e-004
,,,5.45000000e-009,-1.00000007e-003
,,,5.47500000e-009,-1.03437507e-003
,,,5.50000000e-009,-1.07500008e-003
,,,5.52500000e-009,-1.11718758e-003
,,,5.55000000e-009,-1.15703133e-003
,,,5.57500000e-009,-1.18828133e-003
,,,5.60000000e-009,-1.20859384e-003
,,,5.62500000e-009,-1.21250009e-003
,,,5.65000000e-009,-1.20000008e-003
,,,5.67500000e-009,-1.16406258e-003
,,,5.70000000e-009,-1.11406258e-003
,,,5.72500000e-009,-1.05312507e-003
,,,5.75000000e-009,-9.88281320e-004
,,,5.77500000e-009,-9.25000065e-004
,,,5.80000000e-009,-8.69531312e-004
,,,5.82500000e-009,-8.25781308e-004
,,,5.85000000e-009,-8.00000057e-004
,,,5.87500000e-009,-7.89062556e-004
,,,5.90000000e-009,-7.96875056e-004
