RawData/SinglePhotoelectron/R3_50foot_5mV/wave003_Ch2.csv

"Record Length",1000,"Points",-7.72500000e-009,0.00000000e+000
"Sample Interval",2.50000000e-011,s,-7.70000000e-009,-1.95312514e-005
"Trigger Point",309,"Samples",-7.67500000e-009,-3.82812527e-005
"Trigger Time",1.51184848e-011,s,-7.65000000e-009,-5.39062538e-005
"",,,-7.62500000e-009,-6.32812545e-005
"Horizontal Offset",-7.72500000e-009,s,-7.60000000e-009,-6.48437546e-005
,,,-7.57500000e-009,-5.46875039e-005
,,,-7.55000000e-009,-3.35937524e-005
,,,-7.52500000e-009,0.00000000e+000
,,,-7.50000000e-009,4.53125032e-005
,,,-7.47500000e-009,9.92187570e-005
,,,-7.45000000e-009,1.58593761e-004
,,,-7.42500000e-009,2.17968765e-004
,,,-7.40000000e-009,2.75781270e-004
,,,-7.37500000e-009,3.27343773e-004
,,,-7.35000000e-009,3.69531276e-004
,,,-7.32500000e-009,4.00000028e-004
,,,-7.30000000e-009,4.12500029e-004
,,,-7.27500000e-009,4.10937529e-004
,,,-7.25000000e-009,3.95312528e-004
,,,-7.22500000e-009,3.67968776e-004
,,,-7.20000000e-009,3.31250023e-004
,,,-7.17500000e-009,2.89062520e-004
,,,-7.15000000e-009,2.44531267e-004
,,,-7.12500000e-009,2.00000014e-004
,,,-7.10000000e-009,1.54687511e-004
,,,-7.07500000e-009,1.14062508e-004
,,,-7.05000000e-009,7.96875056e-005
,,,-7.02500000e-009,5.23437537e-005
,,,-7.00000000e-009,3.12500022e-005
,,,-6.97500000e-009,1.64062512e-005
,,,-6.95000000e-009,6.25000044e-006
,,,-6.92500000e-009,0.00000000e+000
,,,-6.90000000e-009,-3.90625028e-006
,,,-6.87500000e-009,-6.25000044e-006
,,,-6.85000000e-009,-7.03125050e-006
,,,-6.82500000e-009,-7.03125050e-006
,,,-6.80000000e-009,-6.25000044e-006
,,,-6.77500000e-009,-4.68750033e-006
,,,-6.75000000e-009,-2.34375017e-006
,,,-6.72500000e-009,0.00000000e+000
,,,-6.70000000e-009,3.12500022e-006
,,,-6.67500000e-009,6.25000044e-006
,,,-6.65000000e-009,9.37500066e-006
,,,-6.62500000e-009,1.17187508e-005
,,,-6.60000000e-009,1.25000009e-005
,,,-6.57500000e-009,1.09375008e-005
,,,-6.55000000e-009,7.03125050e-006
,,,-6.52500000e-009,0.00000000e+000
,,,-6.50000000e-009,-1.09375008e-005
,,,-6.47500000e-009,-2.57812518e-005
,,,-6.45000000e-009,-4.53125032e-005
,,,-6.42500000e-009,-6.87500049e-005
,,,-6.40000000e-009,-9.68750069e-005
,,,-6.37500000e-009,-1.28125009e-004
,,,-6.35000000e-009,-1.62500012e-004
,,,-6.32500000e-009,-2.00000014e-004
,,,-6.30000000e-009,-2.34375017e-004
,,,-6.27500000e-009,-2.68750019e-004
,,,-6.25000000e-009,-3.01562521e-004
,,,-6.22500000e-009,-3.32031274e-004
,,,-6.20000000e-009,-3.57812525e-004
,,,-6.17500000e-009,-3.78906277e-004
,,,-6.15000000e-009,-3.92968778e-004
,,,-6.12500000e-009,-4.00000028e-004
,,,-6.10000000e-009,-3.93750028e-004
,,,-6.07500000e-009,-3.80468777e-004
,,,-6.05000000e-009,-3.60937526e-004
,,,-6.02500000e-009,-3.35156274e-004
,,,-6.00000000e-009,-3.05468772e-004
,,,-5.97500000e-009,-2.71875019e-004
,,,-5.95000000e-009,-2.35937517e-004
,,,-5.92500000e-009,-2.00000014e-004
,,,-5.90000000e-009,-1.62500012e-004
,,,-5.87500000e-009,-1.27343759e-004
,,,-5.85000000e-009,-9.60937568e-005
,,,-5.82500000e-009,-6.79687548e-005
,,,-5.80000000e-009,-4.45312532e-005
,,,-5.77500000e-009,-2.50000018e-005
,,,-5.75000000e-009,-1.01562507e-005
,,,-5.72500000e-009,0.00000000e+000
,,,-5.70000000e-009,7.81250055e-006
,,,-5.67500000e-009,1.25000009e-005
,,,-5.65000000e-009,1.40625010e-005
,,,-5.62500000e-009,1.40625010e-005
,,,-5.60000000e-009,1.17187508e-005
,,,-5.57500000e-009,8.59375061e-006
,,,-5.55000000e-009,3.90625028e-006
,,,-5.52500000e-009,0.00000000e+000
,,,-5.50000000e-009,-3.12500022e-006
,,,-5.47500000e-009,-6.25000044e-006
,,,-5.45000000e-009,-7.81250055e-006
,,,-5.42500000e-009,-8.59375061e-006
,,,-5.40000000e-009,-7.81250055e-006
,,,-5.37500000e-009,-5.46875039e-006
,,,-5.35000000e-009,-3.12500022e-006
,,,-5.32500000e-009,0.00000000e+000
,,,-5.30000000e-009,2.34375017e-006
,,,-5.27500000e-009,5.46875039e-006
,,,-5.25000000e-009,7.81250055e-006
,,,-5.22500000e-009,9.37500066e-006
,,,-5.20000000e-009,9.37500066e-006
,,,-5.17500000e-009,7.81250055e-006
,,,-5.15000000e-009,4.68750033e-006
,,,-5.12500000e-009,0.00000000e+000
,,,-5.10000000e-009,-5.46875039e-006
,,,-5.07500000e-009,-1.17187508e-005
,,,-5.05000000e-009,-1.64062512e-005
,,,-5.02500000e-009,-1.95312514e-005
,,,-5.00000000e-009,-1.95312514e-005
,,,-4.97500000e-009,-1.64062512e-005
,,,-4.95000000e-009,-1.01562507e-005
,,,-4.92500000e-009,0.00000000e+000
,,,-4.90000000e-009,1.56250011e-005
,,,-4.87500000e-009,3.59375025e-005
,,,-4.85000000e-009,5.93750042e-005
,,,-4.82500000e-009,8.67187561e-005
,,,-4.80000000e-009,1.15625008e-004
,,,-4.77500000e-009,1.44531260e-004
,,,-4.75000000e-009,1.73437512e-004
,,,-4.72500000e-009,2.00000014e-004
,,,-4.70000000e-009,2.21875016e-004
,,,-4.67500000e-009,2.39062517e-004
,,,-4.65000000e-009,2.50781268e-004
,,,-4.62500000e-009,2.55468768e-004
,,,-4.60000000e-009,2.52343768e-004
,,,-4.57500000e-009,2.41406267e-004
,,,-4.55000000e-009,2.24218766e-004
,,,-4.52500000e-009,2.00000014e-004
,,,-4.50000000e-009,1.69531262e-004
,,,-4.47500000e-009,1.36718760e-004
,,,-4.45000000e-009,1.03906257e-004
,,,-4.42500000e-009,7.26562551e-005
,,,-4.40000000e-009,4.45312532e-005
,,,-4.37500000e-009,2.18750015e-005
,,,-4.35000000e-009,6.25000044e-006
,,,-4.32500000e-009,0.00000000e+000
,,,-4.30000000e-009,1.56250011e-006
,,,-4.27500000e-009,1.25000009e-005
,,,-4.25000000e-009,3.12500022e-005
,,,-4.22500000e-009,5.70312540e-005
,,,-4.20000000e-009,8.82812562e-005
,,,-4.17500000e-009,1.23437509e-004
,,,-4.15000000e-009,1.61718761e-004
,,,-4.12500000e-009,2.00000014e-004
,,,-4.10000000e-009,2.35156267e-004
,,,-4.07500000e-009,2.67968769e-004
,,,-4.05000000e-009,2.97656271e-004
,,,-4.02500000e-009,3.24218773e-004
,,,-4.00000000e-009,3.47656275e-004
,,,-3.97500000e-009,3.67968776e-004
,,,-3.95000000e-009,3.85156277e-004
,,,-3.92500000e-009,4.00000028e-004
,,,-3.90000000e-009,4.07031279e-004
,,,-3.87500000e-009,4.11718779e-004
,,,-3.85000000e-009,4.14843779e-004
,,,-3.82500000e-009,4.15625029e-004
,,,-3.80000000e-009,4.14843779e-004
,,,-3.77500000e-009,4.11718779e-004
,,,-3.75000000e-009,4.07031279e-004
,,,-3.72500000e-009,4.00000028e-004
,,,-3.70000000e-009,3.86718777e-004
,,,-3.67500000e-009,3.70312526e-004
,,,-3.65000000e-009,3.50000025e-004
,,,-3.62500000e-009,3.26562523e-004
,,,-3.60000000e-009,2.99218771e-004
,,,-3.57500000e-009,2.68750019e-004
,,,-3.55000000e-009,2.35156267e-004
,,,-3.52500000e-009,2.00000014e-004
,,,-3.50000000e-009,1.60937511e-004
,,,-3.47500000e-009,1.23437509e-004
,,,-3.45000000e-009,8.82812562e-005
,,,-3.42500000e-009,5.70312540e-005
,,,-3.40000000e-009,3.20312523e-005
,,,-3.37500000e-009,1.32812509e-005
,,,-3.35000000e-009,3.12500022e-006
,,,-3.32500000e-009,0.00000000e+000
,,,-3.30000000e-009,1.56250011e-006
,,,-3.27500000e-009,8.59375061e-006
,,,-3.25000000e-009,1.71875012e-005
,,,-3.22500000e-009,2.42187517e-005
,,,-3.20000000e-009,2.89062520e-005
,,,-3.17500000e-009,2.65625019e-005
,,,-3.15000000e-009,1.71875012e-005
,,,-3.12500000e-009,0.00000000e+000
,,,-3.10000000e-009,-2.34375017e-005
,,,-3.07500000e-009,-5.31250038e-005
,,,-3.05000000e-009,-8.67187561e-005
,,,-3.02500000e-009,-1.21093759e-004
,,,-3.00000000e-009,-1.52343761e-004
,,,-2.97500000e-009,-1.77343763e-004
,,,-2.95000000e-009,-1.93750014e-004
,,,-2.92500000e-009,-2.00000014e-004
,,,-2.90000000e-009,-1.90625013e-004
,,,-2.87500000e-009,-1.71875012e-004
,,,-2.85000000e-009,-1.44531260e-004
,,,-2.82500000e-009,-1.12500008e-004
,,,-2.80000000e-009,-7.81250055e-005
,,,-2.77500000e-009,-4.60937533e-005
,,,-2.75000000e-009,-1.87500013e-005
,,,-2.72500000e-009,0.00000000e+000
,,,-2.70000000e-009,9.37500066e-006
,,,-2.67500000e-009,7.81250055e-006
,,,-2.65000000e-009,-6.25000044e-006
,,,-2.62500000e-009,-3.20312523e-005
,,,-2.60000000e-009,-6.71875048e-005
,,,-2.57500000e-009,-1.09375008e-004
,,,-2.55000000e-009,-1.54687511e-004
,,,-2.52500000e-009,-2.00000014e-004
,,,-2.50000000e-009,-2.38281267e-004
,,,-2.47500000e-009,-2.69531269e-004
,,,-2.45000000e-009,-2.90625021e-004
,,,-2.42500000e-009,-2.99218771e-004
,,,-2.40000000e-009,-2.95312521e-004
,,,-2.37500000e-009,-2.76562520e-004
,,,-2.35000000e-009,-2.44531267e-004
,,,-2.32500000e-009,-2.00000014e-004
,,,-2.30000000e-009,-1.43750010e-004
,,,-2.27500000e-009,-8.20312558e-005
,,,-2.25000000e-009,-1.79687513e-005
,,,-2.22500000e-009,4.29687530e-005
,,,-2.20000000e-009,9.92187570e-005
,,,-2.17500000e-009,1.45312510e-004
,,,-2.15000000e-009,1.79687513e-004
,,,-2.12500000e-009,2.00000014e-004
,,,-2.10000000e-009,2.02343764e-004
,,,-2.07500000e-009,1.90625013e-004
,,,-2.05000000e-009,1.67968762e-004
,,,-2.02500000e-009,1.35937510e-004
,,,-2.00000000e-009,1.00000007e-004
,,,-1.97500000e-009,6.32812545e-005
,,,-1.95000000e-009,2.89062520e-005
,,,-1.92500000e-009,0.00000000e+000
,,,-1.90000000e-009,-2.42187517e-005
,,,-1.87500000e-009,-4.06250029e-005
,,,-1.85000000e-009,-4.76562534e-005
,,,-1.82500000e-009,-4.68750033e-005
,,,-1.80000000e-009,-3.90625028e-005
,,,-1.77500000e-009,-2.73437519e-005
,,,-1.75000000e-009,-1.40625010e-005
,,,-1.72500000e-009,0.00000000e+000
,,,-1.70000000e-009,4.68750033e-006
,,,-1.67500000e-009,5.46875039e-006
,,,-1.65000000e-009,3.12500022e-006
,,,-1.62500000e-009,0.00000000e+000
,,,-1.60000000e-009,-3.12500022e-006
,,,-1.57500000e-009,-5.46875039e-006
,,,-1.55000000e-009,-4.68750033e-006
,,,-1.52500000e-009,0.00000000e+000
,,,-1.50000000e-009,-3.12500022e-006
,,,-1.47500000e-009,-4.68750033e-006
,,,-1.45000000e-009,-4.68750033e-006
,,,-1.42500000e-009,-3.12500022e-006
,,,-1.40000000e-009,-7.81250055e-007
,,,-1.37500000e-009,0.00000000e+000
,,,-1.35000000e-009,7.81250055e-007
,,,-1.32500000e-009,0.00000000e+000
,,,-1.30000000e-009,-2.26562516e-005
,,,-1.27500000e-009,-5.00000035e-005
,,,-1.25000000e-009,-8.12500058e-005
,,,-1.22500000e-009,-1.11718758e-004
,,,-1.20000000e-009,-1.40625010e-004
,,,-1.17500000e-009,-1.65625012e-004
,,,-1.15000000e-009,-1.85156263e-004
,,,-1.12500000e-009,-2.00000014e-004
,,,-1.10000000e-009,-2.30468766e-004
,,,-1.07500000e-009,-2.64062519e-004
,,,-1.05000000e-009,-3.00781271e-004
,,,-1.02500000e-009,-3.43750024e-004
,,,-1.00000000e-009,-3.93750028e-004
,,,-9.75000000e-010,-4.51562532e-004
,,,-9.50000000e-010,-5.20312537e-004
,,,-9.25000000e-010,-6.00000042e-004
,,,-9.00000000e-010,-7.10937550e-004
,,,-8.75000000e-010,-8.34375059e-004
,,,-8.50000000e-010,-9.67187568e-004
,,,-8.25000000e-010,-1.10468758e-003
,,,-8.00000000e-010,-1.23984384e-003
,,,-7.75000000e-010,-1.37031260e-003
,,,-7.50000000e-010,-1.49062511e-003
,,,-7.25000000e-010,-1.60000011e-003
,,,-7.00000000e-010,-1.71250012e-003
,,,-6.75000000e-010,-1.81796888e-003
,,,-6.50000000e-010,-1.91718764e-003
,,,-6.25000000e-010,-2.01250014e-003
,,,-6.00000000e-010,-2.10625015e-003
,,,-5.75000000e-010,-2.20000016e-003
,,,-5.50000000e-010,-2.29687516e-003
,,,-5.25000000e-010,-2.40000017e-003
,,,-5.00000000e-010,-2.52031268e-003
,,,-4.75000000e-010,-2.65390644e-003
,,,-4.50000000e-010,-2.80000020e-003
,,,-4.25000000e-010,-2.95546896e-003
,,,-4.00000000e-010,-3.11718772e-003
,,,-3.75000000e-010,-3.28046898e-003
,,,-3.50000000e-010,-3.44296899e-003
,,,-3.25000000e-010,-3.60000025e-003
,,,-3.00000000e-010,-3.74765652e-003
,,,-2.75000000e-010,-3.89062528e-003
,,,-2.50000000e-010,-4.02734404e-003
,,,-2.25000000e-010,-4.15781279e-003
,,,-2.00000000e-010,-4.27968780e-003
,,,-1.75000000e-010,-4.39375031e-003
,,,-1.50000000e-010,-4.50000032e-003
,,,-1.25000000e-010,-4.60000033e-003
,,,-1.00000000e-010,-4.68515658e-003
,,,-7.50000000e-011,-4.77343784e-003
,,,-5.00000000e-011,-4.86562534e-003
,,,-2.50000000e-011,-4.96328160e-003
,,,0.00000000e+000,-5.06640661e-003
,,,2.50000000e-011,-5.17421912e-003
,,,5.00000000e-011,-5.28515662e-003
,,,7.50000000e-011,-5.40000038e-003
,,,1.00000000e-010,-5.49921914e-003
,,,1.25000000e-010,-5.60390665e-003
,,,1.50000000e-010,-5.71093790e-003
,,,1.75000000e-010,-5.81953166e-003
,,,2.00000000e-010,-5.92578167e-003
,,,2.25000000e-010,-6.02656293e-003
,,,2.50000000e-010,-6.11875043e-003
,,,2.75000000e-010,-6.20000044e-003
,,,3.00000000e-010,-6.24687544e-003
,,,3.25000000e-010,-6.28593794e-003
,,,3.50000000e-010,-6.31718795e-003
,,,3.75000000e-010,-6.34218795e-003
,,,4.00000000e-010,-6.36171920e-003
,,,4.25000000e-010,-6.37734420e-003
,,,4.50000000e-010,-6.38984420e-003
,,,4.75000000e-010,-6.40000045e-003
,,,5.00000000e-010,-6.38437545e-003
,,,5.25000000e-010,-6.37187545e-003
,,,5.50000000e-010,-6.36484420e-003
,,,5.75000000e-010,-6.36250045e-003
,,,6.00000000e-010,-6.36562545e-003
,,,6.25000000e-010,-6.37421920e-003
,,,6.50000000e-010,-6.38593795e-003
,,,6.75000000e-010,-6.40000045e-003
,,,7.00000000e-010,-6.39218795e-003
,,,7.25000000e-010,-6.38671920e-003
,,,7.50000000e-010,-6.38281295e-003
,,,7.75000000e-010,-6.38203170e-003
,,,8.00000000e-010,-6.38359420e-003
,,,8.25000000e-010,-6.38828170e-003
,,,8.50000000e-010,-6.39375045e-003
,,,8.75000000e-010,-6.40000045e-003
,,,9.00000000e-010,-6.38515670e-003
,,,9.25000000e-010,-6.36796920e-003
,,,9.50000000e-010,-6.34921920e-003
,,,9.75000000e-010,-6.32734420e-003
,,,1.00000000e-009,-6.30234420e-003
,,,1.02500000e-009,-6.27343794e-003
,,,1.05000000e-009,-6.23906294e-003
,,,1.07500000e-009,-6.20000044e-003
,,,1.10000000e-009,-6.13593793e-003
,,,1.12500000e-009,-6.06640668e-003
,,,1.15000000e-009,-5.99140667e-003
,,,1.17500000e-009,-5.91406292e-003
,,,1.20000000e-009,-5.83437541e-003
,,,1.22500000e-009,-5.75546916e-003
,,,1.25000000e-009,-5.67734415e-003
,,,1.27500000e-009,-5.60000040e-003
,,,1.30000000e-009,-5.51250039e-003
,,,1.32500000e-009,-5.42265663e-003
,,,1.35000000e-009,-5.32968788e-003
,,,1.37500000e-009,-5.23281287e-003
,,,1.40000000e-009,-5.13125036e-003
,,,1.42500000e-009,-5.02500036e-003
,,,1.45000000e-009,-4.91406285e-003
,,,1.47500000e-009,-4.80000034e-003
,,,1.50000000e-009,-4.67890658e-003
,,,1.52500000e-009,-4.55625032e-003
,,,1.55000000e-009,-4.43593781e-003
,,,1.57500000e-009,-4.32109406e-003
,,,1.60000000e-009,-4.21718780e-003
,,,1.62500000e-009,-4.12734404e-003
,,,1.65000000e-009,-4.05468779e-003
,,,1.67500000e-009,-4.00000028e-003
,,,1.70000000e-009,-3.96484403e-003
,,,1.72500000e-009,-3.94140653e-003
,,,1.75000000e-009,-3.92500028e-003
,,,1.77500000e-009,-3.91093778e-003
,,,1.80000000e-009,-3.89531278e-003
,,,1.82500000e-009,-3.87343777e-003
,,,1.85000000e-009,-3.84296902e-003
,,,1.87500000e-009,-3.80000027e-003
,,,1.90000000e-009,-3.74609402e-003
,,,1.92500000e-009,-3.67812526e-003
,,,1.95000000e-009,-3.59765650e-003
,,,1.97500000e-009,-3.51015650e-003
,,,2.00000000e-009,-3.42109399e-003
,,,2.02500000e-009,-3.33671899e-003
,,,2.05000000e-009,-3.26093773e-003
,,,2.07500000e-009,-3.20000023e-003
,,,2.10000000e-009,-3.15703147e-003
,,,2.12500000e-009,-3.12500022e-003
,,,2.15000000e-009,-3.10078147e-003
,,,2.17500000e-009,-3.08281272e-003
,,,2.20000000e-009,-3.06640647e-003
,,,2.22500000e-009,-3.04921897e-003
,,,2.25000000e-009,-3.02734396e-003
,,,2.27500000e-009,-3.00000021e-003
,,,2.30000000e-009,-2.96718771e-003
,,,2.32500000e-009,-2.92343771e-003
,,,2.35000000e-009,-2.86953145e-003
,,,2.37500000e-009,-2.81015645e-003
,,,2.40000000e-009,-2.74843769e-003
,,,2.42500000e-009,-2.68984394e-003
,,,2.45000000e-009,-2.63906269e-003
,,,2.47500000e-009,-2.60000018e-003
,,,2.50000000e-009,-2.57343768e-003
,,,2.52500000e-009,-2.55703143e-003
,,,2.55000000e-009,-2.55078143e-003
,,,2.57500000e-009,-2.55234393e-003
,,,2.60000000e-009,-2.56171893e-003
,,,2.62500000e-009,-2.57421893e-003
,,,2.65000000e-009,-2.58828143e-003
,,,2.67500000e-009,-2.60000018e-003
,,,2.70000000e-009,-2.60156268e-003
,,,2.72500000e-009,-2.59062518e-003
,,,2.75000000e-009,-2.56484393e-003
,,,2.77500000e-009,-2.52187518e-003
,,,2.80000000e-009,-2.46171892e-003
,,,2.82500000e-009,-2.38671892e-003
,,,2.85000000e-009,-2.29843766e-003
,,,2.87500000e-009,-2.20000016e-003
,,,2.90000000e-009,-2.09375015e-003
,,,2.92500000e-009,-1.98593764e-003
,,,2.95000000e-009,-1.88203138e-003
,,,2.97500000e-009,-1.78750013e-003
,,,3.00000000e-009,-1.70859387e-003
,,,3.02500000e-009,-1.65000012e-003
,,,3.05000000e-009,-1.61328136e-003
,,,3.07500000e-009,-1.60000011e-003
,,,3.10000000e-009,-1.60859386e-003
,,,3.12500000e-009,-1.62968762e-003
,,,3.15000000e-009,-1.65546887e-003
,,,3.17500000e-009,-1.67812512e-003
,,,3.20000000e-009,-1.69062512e-003
,,,3.22500000e-009,-1.68437512e-003
,,,3.25000000e-009,-1.65468762e-003
,,,3.27500000e-009,-1.60000011e-003
,,,3.30000000e-009,-1.52109386e-003
,,,3.32500000e-009,-1.42031260e-003
,,,3.35000000e-009,-1.30312509e-003
,,,3.37500000e-009,-1.17812508e-003
,,,3.40000000e-009,-1.05703132e-003
,,,3.42500000e-009,-9.47656317e-004
,,,3.45000000e-009,-8.60156311e-004
,,,3.47500000e-009,-8.00000057e-004
,,,3.50000000e-009,-7.78906305e-004
,,,3.52500000e-009,-7.85156306e-004
,,,3.55000000e-009,-8.14062558e-004
,,,3.57500000e-009,-8.57031311e-004
,,,3.60000000e-009,-9.06250064e-004
,,,3.62500000e-009,-9.50781317e-004
,,,3.65000000e-009,-9.84375070e-004
,,,3.67500000e-009,-1.00000007e-003
,,,3.70000000e-009,-9.98437571e-004
,,,3.72500000e-009,-9.73437569e-004
,,,3.75000000e-009,-9.25781316e-004
,,,3.77500000e-009,-8.62500061e-004
,,,3.80000000e-009,-7.89843806e-004
,,,3.82500000e-009,-7.16406301e-004
,,,3.85000000e-009,-6.50781296e-004
,,,3.87500000e-009,-6.00000042e-004
,,,3.90000000e-009,-5.75781291e-004
,,,3.92500000e-009,-5.71093790e-004
,,,3.95000000e-009,-5.85156291e-004
,,,3.97500000e-009,-6.15625044e-004
,,,4.00000000e-009,-6.56250046e-004
,,,4.02500000e-009,-7.03906300e-004
,,,4.05000000e-009,-7.53125053e-004
,,,4.07500000e-009,-8.00000057e-004
,,,4.10000000e-009,-8.44531310e-004
,,,4.12500000e-009,-8.80468812e-004
,,,4.15000000e-009,-9.08593814e-004
,,,4.17500000e-009,-9.29687566e-004
,,,4.20000000e-009,-9.46093817e-004
,,,4.22500000e-009,-9.61718818e-004
,,,4.25000000e-009,-9.78906319e-004
,,,4.27500000e-009,-1.00000007e-003
,,,4.30000000e-009,-1.02656257e-003
,,,4.32500000e-009,-1.05625007e-003
,,,4.35000000e-009,-1.08828133e-003
,,,4.37500000e-009,-1.12031258e-003
,,,4.40000000e-009,-1.14921883e-003
,,,4.42500000e-009,-1.17421883e-003
,,,4.45000000e-009,-1.19140633e-003
,,,4.47500000e-009,-1.20000008e-003
,,,4.50000000e-009,-1.19218758e-003
,,,4.52500000e-009,-1.17578133e-003
,,,4.55000000e-009,-1.15078133e-003
,,,4.57500000e-009,-1.12031258e-003
,,,4.60000000e-009,-1.08671883e-003
,,,4.62500000e-009,-1.05390632e-003
,,,4.65000000e-009,-1.02421882e-003
,,,4.67500000e-009,-1.00000007e-003
,,,4.70000000e-009,-9.80468819e-004
,,,4.72500000e-009,-9.67968819e-004
,,,4.75000000e-009,-9.63281318e-004
,,,4.77500000e-009,-9.64062568e-004
,,,4.80000000e-009,-9.70312569e-004
,,,4.82500000e-009,-9.79687569e-004
,,,4.85000000e-009,-9.89843820e-004
,,,4.87500000e-009,-1.00000007e-003
,,,4.90000000e-009,-1.00390632e-003
,,,4.92500000e-009,-1.00546882e-003
,,,4.95000000e-009,-1.00546882e-003
,,,4.97500000e-009,-1.00468757e-003
,,,5.00000000e-009,-1.00312507e-003
,,,5.02500000e-009,-1.00156257e-003
,,,5.05000000e-009,-1.00078132e-003
,,,5.07500000e-009,-1.00000007e-003
,,,5.10000000e-009,-9.93750070e-004
,,,5.12500000e-009,-9.85937570e-004
,,,5.15000000e-009,-9.74218819e-004
,,,5.17500000e-009,-9.56250068e-004
,,,5.20000000e-009,-9.30468816e-004
,,,5.22500000e-009,-8.96093813e-004
,,,5.25000000e-009,-8.52343810e-004
,,,5.27500000e-009,-8.00000057e-004
,,,5.30000000e-009,-7.37500052e-004
,,,5.32500000e-009,-6.71093798e-004
,,,5.35000000e-009,-6.03906293e-004
,,,5.37500000e-009,-5.39843788e-004
,,,5.40000000e-009,-4.84375034e-004
,,,5.42500000e-009,-4.40625031e-004
,,,5.45000000e-009,-4.11718779e-004
,,,5.47500000e-009,-4.00000028e-004
,,,5.50000000e-009,-4.05468779e-004
,,,5.52500000e-009,-4.24218780e-004
,,,5.55000000e-009,-4.53906282e-004
,,,5.57500000e-009,-4.88281285e-004
,,,5.60000000e-009,-5.25000037e-004
,,,5.62500000e-009,-5.57812539e-004
,,,5.65000000e-009,-5.84375041e-004
,,,5.67500000e-009,-6.00000042e-004
,,,5.70000000e-009,-6.01562543e-004
,,,5.72500000e-009,-5.89843792e-004
,,,5.75000000e-009,-5.67187540e-004
,,,5.77500000e-009,-5.35156288e-004
,,,5.80000000e-009,-4.99218785e-004
,,,5.82500000e-009,-4.61718783e-004
,,,5.85000000e-009,-4.27343780e-004
,,,5.87500000e-009,-4.00000028e-004
,,,5.90000000e-009,-3.81250027e-004
