RawData/SinglePhotoelectron/R3_50foot_5mV/wave022_Ch2.csv

"Record Length",1000,"Points",-7.72500000e-009,2.42187517e-005
"Sample Interval",2.50000000e-011,s,-7.70000000e-009,0.00000000e+000
"Trigger Point",309,"Samples",-7.67500000e-009,-2.89062520e-005
"Trigger Time",1.81866667e-011,s,-7.65000000e-009,-5.93750042e-005
"",,,-7.62500000e-009,-8.98437564e-005
"Horizontal Offset",-7.72500000e-009,s,-7.60000000e-009,-1.18750008e-004
,,,-7.57500000e-009,-1.44531260e-004
,,,-7.55000000e-009,-1.67187512e-004
,,,-7.52500000e-009,-1.85156263e-004
,,,-7.50000000e-009,-2.00000014e-004
,,,-7.47500000e-009,-2.10156265e-004
,,,-7.45000000e-009,-2.15625015e-004
,,,-7.42500000e-009,-2.17187515e-004
,,,-7.40000000e-009,-2.15625015e-004
,,,-7.37500000e-009,-2.12500015e-004
,,,-7.35000000e-009,-2.07812515e-004
,,,-7.32500000e-009,-2.03125014e-004
,,,-7.30000000e-009,-2.00000014e-004
,,,-7.27500000e-009,-1.95312514e-004
,,,-7.25000000e-009,-1.92968764e-004
,,,-7.22500000e-009,-1.91406264e-004
,,,-7.20000000e-009,-1.92187514e-004
,,,-7.17500000e-009,-1.92968764e-004
,,,-7.15000000e-009,-1.95312514e-004
,,,-7.12500000e-009,-1.97656264e-004
,,,-7.10000000e-009,-2.00000014e-004
,,,-7.07500000e-009,-1.99218764e-004
,,,-7.05000000e-009,-1.98437514e-004
,,,-7.02500000e-009,-1.97656264e-004
,,,-7.00000000e-009,-1.96093764e-004
,,,-6.97500000e-009,-1.95312514e-004
,,,-6.95000000e-009,-1.95312514e-004
,,,-6.92500000e-009,-1.96875014e-004
,,,-6.90000000e-009,-2.00000014e-004
,,,-6.87500000e-009,-2.00781264e-004
,,,-6.85000000e-009,-2.03125014e-004
,,,-6.82500000e-009,-2.05468765e-004
,,,-6.80000000e-009,-2.07812515e-004
,,,-6.77500000e-009,-2.09375015e-004
,,,-6.75000000e-009,-2.09375015e-004
,,,-6.72500000e-009,-2.06250015e-004
,,,-6.70000000e-009,-2.00000014e-004
,,,-6.67500000e-009,-1.86718763e-004
,,,-6.65000000e-009,-1.69531262e-004
,,,-6.62500000e-009,-1.48437511e-004
,,,-6.60000000e-009,-1.23437509e-004
,,,-6.57500000e-009,-9.53125067e-005
,,,-6.55000000e-009,-6.48437546e-005
,,,-6.52500000e-009,-3.28125023e-005
,,,-6.50000000e-009,0.00000000e+000
,,,-6.47500000e-009,3.28125023e-005
,,,-6.45000000e-009,6.48437546e-005
,,,-6.42500000e-009,9.53125067e-005
,,,-6.40000000e-009,1.23437509e-004
,,,-6.37500000e-009,1.48437511e-004
,,,-6.35000000e-009,1.69531262e-004
,,,-6.32500000e-009,1.86718763e-004
,,,-6.30000000e-009,2.00000014e-004
,,,-6.27500000e-009,2.06250015e-004
,,,-6.25000000e-009,2.09375015e-004
,,,-6.22500000e-009,2.09375015e-004
,,,-6.20000000e-009,2.07812515e-004
,,,-6.17500000e-009,2.05468765e-004
,,,-6.15000000e-009,2.03125014e-004
,,,-6.12500000e-009,2.00781264e-004
,,,-6.10000000e-009,2.00000014e-004
,,,-6.07500000e-009,1.96875014e-004
,,,-6.05000000e-009,1.95312514e-004
,,,-6.02500000e-009,1.95312514e-004
,,,-6.00000000e-009,1.96093764e-004
,,,-5.97500000e-009,1.97656264e-004
,,,-5.95000000e-009,1.98437514e-004
,,,-5.92500000e-009,1.99218764e-004
,,,-5.90000000e-009,2.00000014e-004
,,,-5.87500000e-009,1.96093764e-004
,,,-5.85000000e-009,1.92968764e-004
,,,-5.82500000e-009,1.90625013e-004
,,,-5.80000000e-009,1.88281263e-004
,,,-5.77500000e-009,1.88281263e-004
,,,-5.75000000e-009,1.89843763e-004
,,,-5.72500000e-009,1.93750014e-004
,,,-5.70000000e-009,2.00000014e-004
,,,-5.67500000e-009,2.03125014e-004
,,,-5.65000000e-009,2.08593765e-004
,,,-5.62500000e-009,2.13281265e-004
,,,-5.60000000e-009,2.16406265e-004
,,,-5.57500000e-009,2.17968765e-004
,,,-5.55000000e-009,2.16406265e-004
,,,-5.52500000e-009,2.10156265e-004
,,,-5.50000000e-009,2.00000014e-004
,,,-5.47500000e-009,1.82031263e-004
,,,-5.45000000e-009,1.60156261e-004
,,,-5.42500000e-009,1.35156260e-004
,,,-5.40000000e-009,1.07031258e-004
,,,-5.37500000e-009,7.81250055e-005
,,,-5.35000000e-009,5.00000035e-005
,,,-5.32500000e-009,2.34375017e-005
,,,-5.30000000e-009,0.00000000e+000
,,,-5.27500000e-009,-1.79687513e-005
,,,-5.25000000e-009,-3.12500022e-005
,,,-5.22500000e-009,-3.82812527e-005
,,,-5.20000000e-009,-3.98437528e-005
,,,-5.17500000e-009,-3.59375025e-005
,,,-5.15000000e-009,-2.73437519e-005
,,,-5.12500000e-009,-1.48437511e-005
,,,-5.10000000e-009,0.00000000e+000
,,,-5.07500000e-009,1.56250011e-005
,,,-5.05000000e-009,3.04687522e-005
,,,-5.02500000e-009,4.14062529e-005
,,,-5.00000000e-009,4.76562534e-005
,,,-4.97500000e-009,4.68750033e-005
,,,-4.95000000e-009,3.90625028e-005
,,,-4.92500000e-009,2.26562516e-005
,,,-4.90000000e-009,0.00000000e+000
,,,-4.87500000e-009,-2.73437519e-005
,,,-4.85000000e-009,-5.85937541e-005
,,,-4.82500000e-009,-9.14062565e-005
,,,-4.80000000e-009,-1.24218759e-004
,,,-4.77500000e-009,-1.53906261e-004
,,,-4.75000000e-009,-1.77343763e-004
,,,-4.72500000e-009,-1.92968764e-004
,,,-4.70000000e-009,-2.00000014e-004
,,,-4.67500000e-009,-1.93750014e-004
,,,-4.65000000e-009,-1.78906263e-004
,,,-4.62500000e-009,-1.56250011e-004
,,,-4.60000000e-009,-1.27343759e-004
,,,-4.57500000e-009,-9.53125067e-005
,,,-4.55000000e-009,-6.17187544e-005
,,,-4.52500000e-009,-2.89062520e-005
,,,-4.50000000e-009,0.00000000e+000
,,,-4.47500000e-009,2.42187517e-005
,,,-4.45000000e-009,4.14062529e-005
,,,-4.42500000e-009,5.07812536e-005
,,,-4.40000000e-009,5.15625036e-005
,,,-4.37500000e-009,4.60937533e-005
,,,-4.35000000e-009,3.43750024e-005
,,,-4.32500000e-009,1.79687513e-005
,,,-4.30000000e-009,0.00000000e+000
,,,-4.27500000e-009,-1.79687513e-005
,,,-4.25000000e-009,-3.43750024e-005
,,,-4.22500000e-009,-4.60937533e-005
,,,-4.20000000e-009,-5.15625036e-005
,,,-4.17500000e-009,-5.07812536e-005
,,,-4.15000000e-009,-4.14062529e-005
,,,-4.12500000e-009,-2.42187517e-005
,,,-4.10000000e-009,0.00000000e+000
,,,-4.07500000e-009,2.96875021e-005
,,,-4.05000000e-009,6.32812545e-005
,,,-4.02500000e-009,9.84375070e-005
,,,-4.00000000e-009,1.31250009e-004
,,,-3.97500000e-009,1.60156261e-004
,,,-3.95000000e-009,1.82031263e-004
,,,-3.92500000e-009,1.95312514e-004
,,,-3.90000000e-009,2.00000014e-004
,,,-3.87500000e-009,1.90625013e-004
,,,-3.85000000e-009,1.72656262e-004
,,,-3.82500000e-009,1.46875010e-004
,,,-3.80000000e-009,1.16406258e-004
,,,-3.77500000e-009,8.43750060e-005
,,,-3.75000000e-009,5.23437537e-005
,,,-3.72500000e-009,2.34375017e-005
,,,-3.70000000e-009,0.00000000e+000
,,,-3.67500000e-009,-1.79687513e-005
,,,-3.65000000e-009,-2.89062520e-005
,,,-3.62500000e-009,-3.28125023e-005
,,,-3.60000000e-009,-3.12500022e-005
,,,-3.57500000e-009,-2.50000018e-005
,,,-3.55000000e-009,-1.64062512e-005
,,,-3.52500000e-009,-7.81250055e-006
,,,-3.50000000e-009,0.00000000e+000
,,,-3.47500000e-009,4.68750033e-006
,,,-3.45000000e-009,6.25000044e-006
,,,-3.42500000e-009,6.25000044e-006
,,,-3.40000000e-009,3.90625028e-006
,,,-3.37500000e-009,7.81250055e-007
,,,-3.35000000e-009,0.00000000e+000
,,,-3.32500000e-009,-7.81250055e-007
,,,-3.30000000e-009,0.00000000e+000
,,,-3.27500000e-009,3.12500022e-006
,,,-3.25000000e-009,8.59375061e-006
,,,-3.22500000e-009,1.40625010e-005
,,,-3.20000000e-009,1.95312514e-005
,,,-3.17500000e-009,2.18750015e-005
,,,-3.15000000e-009,1.95312514e-005
,,,-3.12500000e-009,1.25000009e-005
,,,-3.10000000e-009,0.00000000e+000
,,,-3.07500000e-009,-1.87500013e-005
,,,-3.05000000e-009,-4.29687530e-005
,,,-3.02500000e-009,-7.10937550e-005
,,,-3.00000000e-009,-1.00781257e-004
,,,-2.97500000e-009,-1.29687509e-004
,,,-2.95000000e-009,-1.57812511e-004
,,,-2.92500000e-009,-1.81250013e-004
,,,-2.90000000e-009,-2.00000014e-004
,,,-2.87500000e-009,-2.08593765e-004
,,,-2.85000000e-009,-2.12500015e-004
,,,-2.82500000e-009,-2.11718765e-004
,,,-2.80000000e-009,-2.07812515e-004
,,,-2.77500000e-009,-2.03906264e-004
,,,-2.75000000e-009,-2.00000014e-004
,,,-2.72500000e-009,-1.98437514e-004
,,,-2.70000000e-009,-2.00000014e-004
,,,-2.67500000e-009,-2.02343764e-004
,,,-2.65000000e-009,-2.07031265e-004
,,,-2.62500000e-009,-2.13281265e-004
,,,-2.60000000e-009,-2.18750015e-004
,,,-2.57500000e-009,-2.21875016e-004
,,,-2.55000000e-009,-2.21093766e-004
,,,-2.52500000e-009,-2.13281265e-004
,,,-2.50000000e-009,-2.00000014e-004
,,,-2.47500000e-009,-1.77343763e-004
,,,-2.45000000e-009,-1.50000011e-004
,,,-2.42500000e-009,-1.19531258e-004
,,,-2.40000000e-009,-8.75000062e-005
,,,-2.37500000e-009,-5.78125041e-005
,,,-2.35000000e-009,-3.20312523e-005
,,,-2.32500000e-009,-1.25000009e-005
,,,-2.30000000e-009,0.00000000e+000
,,,-2.27500000e-009,3.12500022e-006
,,,-2.25000000e-009,0.00000000e+000
,,,-2.22500000e-009,-7.03125050e-006
,,,-2.20000000e-009,-1.48437511e-005
,,,-2.17500000e-009,-2.10937515e-005
,,,-2.15000000e-009,-2.18750015e-005
,,,-2.12500000e-009,-1.56250011e-005
,,,-2.10000000e-009,0.00000000e+000
,,,-2.07500000e-009,1.95312514e-005
,,,-2.05000000e-009,4.60937533e-005
,,,-2.02500000e-009,7.65625054e-005
,,,-2.00000000e-009,1.09375008e-004
,,,-1.97500000e-009,1.41406260e-004
,,,-1.95000000e-009,1.68750012e-004
,,,-1.92500000e-009,1.89062513e-004
,,,-1.90000000e-009,2.00000014e-004
,,,-1.87500000e-009,1.87500013e-004
,,,-1.85000000e-009,1.64843762e-004
,,,-1.82500000e-009,1.34375010e-004
,,,-1.80000000e-009,9.92187570e-005
,,,-1.77500000e-009,6.48437546e-005
,,,-1.75000000e-009,3.43750024e-005
,,,-1.72500000e-009,1.25000009e-005
,,,-1.70000000e-009,0.00000000e+000
,,,-1.67500000e-009,-1.48437511e-005
,,,-1.65000000e-009,-2.18750015e-005
,,,-1.62500000e-009,-2.18750015e-005
,,,-1.60000000e-009,-1.64062512e-005
,,,-1.57500000e-009,-7.81250055e-006
,,,-1.55000000e-009,-7.81250055e-007
,,,-1.52500000e-009,2.34375017e-006
,,,-1.50000000e-009,0.00000000e+000
,,,-1.47500000e-009,-2.89062520e-005
,,,-1.45000000e-009,-6.95312549e-005
,,,-1.42500000e-009,-1.20312509e-004
,,,-1.40000000e-009,-1.75781262e-004
,,,-1.37500000e-009,-2.35156267e-004
,,,-1.35000000e-009,-2.92968771e-004
,,,-1.32500000e-009,-3.48437525e-004
,,,-1.30000000e-009,-4.00000028e-004
,,,-1.27500000e-009,-4.62500033e-004
,,,-1.25000000e-009,-5.25781287e-004
,,,-1.22500000e-009,-5.89843792e-004
,,,-1.20000000e-009,-6.57031297e-004
,,,-1.17500000e-009,-7.30468802e-004
,,,-1.15000000e-009,-8.10156307e-004
,,,-1.12500000e-009,-9.00000064e-004
,,,-1.10000000e-009,-1.00000007e-003
,,,-1.07500000e-009,-1.12343758e-003
,,,-1.05000000e-009,-1.25703134e-003
,,,-1.02500000e-009,-1.39687510e-003
,,,-1.00000000e-009,-1.53750011e-003
,,,-9.75000000e-010,-1.67265637e-003
,,,-9.50000000e-010,-1.79687513e-003
,,,-9.25000000e-010,-1.90625013e-003
,,,-9.00000000e-010,-2.00000014e-003
,,,-8.75000000e-010,-2.08281265e-003
,,,-8.50000000e-010,-2.15546890e-003
,,,-8.25000000e-010,-2.22187516e-003
,,,-8.00000000e-010,-2.28593766e-003
,,,-7.75000000e-010,-2.35156267e-003
,,,-7.50000000e-010,-2.42343767e-003
,,,-7.25000000e-010,-2.50546893e-003
,,,-7.00000000e-010,-2.60000018e-003
,,,-6.75000000e-010,-2.70937519e-003
,,,-6.50000000e-010,-2.83437520e-003
,,,-6.25000000e-010,-2.97109396e-003
,,,-6.00000000e-010,-3.11250022e-003
,,,-5.75000000e-010,-3.25234398e-003
,,,-5.50000000e-010,-3.38359399e-003
,,,-5.25000000e-010,-3.50078150e-003
,,,-5.00000000e-010,-3.60000025e-003
,,,-4.75000000e-010,-3.67187526e-003
,,,-4.50000000e-010,-3.72890651e-003
,,,-4.25000000e-010,-3.77578152e-003
,,,-4.00000000e-010,-3.81484402e-003
,,,-3.75000000e-010,-3.85234402e-003
,,,-3.50000000e-010,-3.89296903e-003
,,,-3.25000000e-010,-3.94062528e-003
,,,-3.00000000e-010,-4.00000028e-003
,,,-2.75000000e-010,-4.06328154e-003
,,,-2.50000000e-010,-4.14453154e-003
,,,-2.25000000e-010,-4.24218780e-003
,,,-2.00000000e-010,-4.35156281e-003
,,,-1.75000000e-010,-4.46796907e-003
,,,-1.50000000e-010,-4.58515657e-003
,,,-1.25000000e-010,-4.69687533e-003
,,,-1.00000000e-010,-4.80000034e-003
,,,-7.50000000e-011,-4.87343784e-003
,,,-5.00000000e-011,-4.93593785e-003
,,,-2.50000000e-011,-4.98906285e-003
,,,0.00000000e+000,-5.03593786e-003
,,,2.50000000e-011,-5.07812536e-003
,,,5.00000000e-011,-5.11796911e-003
,,,7.50000000e-011,-5.15781287e-003
,,,1.00000000e-010,-5.20000037e-003
,,,1.25000000e-010,-5.22343787e-003
,,,1.50000000e-010,-5.25078162e-003
,,,1.75000000e-010,-5.28203162e-003
,,,2.00000000e-010,-5.31406288e-003
,,,2.25000000e-010,-5.34453163e-003
,,,2.50000000e-010,-5.37031288e-003
,,,2.75000000e-010,-5.38984413e-003
,,,3.00000000e-010,-5.40000038e-003
,,,3.25000000e-010,-5.37968788e-003
,,,3.50000000e-010,-5.35234413e-003
,,,3.75000000e-010,-5.32031288e-003
,,,4.00000000e-010,-5.28671912e-003
,,,4.25000000e-010,-5.25546912e-003
,,,4.50000000e-010,-5.22968787e-003
,,,4.75000000e-010,-5.21015662e-003
,,,5.00000000e-010,-5.20000037e-003
,,,5.25000000e-010,-5.18359412e-003
,,,5.50000000e-010,-5.17578162e-003
,,,5.75000000e-010,-5.17656287e-003
,,,6.00000000e-010,-5.18281287e-003
,,,6.25000000e-010,-5.19218787e-003
,,,6.50000000e-010,-5.20078162e-003
,,,6.75000000e-010,-5.20468787e-003
,,,7.00000000e-010,-5.20000037e-003
,,,7.25000000e-010,-5.16718787e-003
,,,7.50000000e-010,-5.12031286e-003
,,,7.75000000e-010,-5.06015661e-003
,,,8.00000000e-010,-4.98671910e-003
,,,8.25000000e-010,-4.90156285e-003
,,,8.50000000e-010,-4.80781284e-003
,,,8.75000000e-010,-4.70625033e-003
,,,9.00000000e-010,-4.60000033e-003
,,,9.25000000e-010,-4.48125032e-003
,,,9.50000000e-010,-4.36328156e-003
,,,9.75000000e-010,-4.24765655e-003
,,,1.00000000e-009,-4.13828154e-003
,,,1.02500000e-009,-4.03671904e-003
,,,1.05000000e-009,-3.94531278e-003
,,,1.07500000e-009,-3.86640652e-003
,,,1.10000000e-009,-3.80000027e-003
,,,1.12500000e-009,-3.74375026e-003
,,,1.15000000e-009,-3.69843776e-003
,,,1.17500000e-009,-3.66328151e-003
,,,1.20000000e-009,-3.63671901e-003
,,,1.22500000e-009,-3.61796901e-003
,,,1.25000000e-009,-3.60703151e-003
,,,1.27500000e-009,-3.60156275e-003
,,,1.30000000e-009,-3.60000025e-003
,,,1.32500000e-009,-3.59687525e-003
,,,1.35000000e-009,-3.58984400e-003
,,,1.37500000e-009,-3.57656275e-003
,,,1.40000000e-009,-3.55625025e-003
,,,1.42500000e-009,-3.52812525e-003
,,,1.45000000e-009,-3.49218775e-003
,,,1.47500000e-009,-3.45000024e-003
,,,1.50000000e-009,-3.40000024e-003
,,,1.52500000e-009,-3.34062524e-003
,,,1.55000000e-009,-3.27265648e-003
,,,1.57500000e-009,-3.19765648e-003
,,,1.60000000e-009,-3.11875022e-003
,,,1.62500000e-009,-3.03671896e-003
,,,1.65000000e-009,-2.95468771e-003
,,,1.67500000e-009,-2.87500020e-003
,,,1.70000000e-009,-2.80000020e-003
,,,1.72500000e-009,-2.73125019e-003
,,,1.75000000e-009,-2.66640644e-003
,,,1.77500000e-009,-2.60546893e-003
,,,1.80000000e-009,-2.55078143e-003
,,,1.82500000e-009,-2.50234393e-003
,,,1.85000000e-009,-2.46093767e-003
,,,1.87500000e-009,-2.42656267e-003
,,,1.90000000e-009,-2.40000017e-003
,,,1.92500000e-009,-2.37968767e-003
,,,1.95000000e-009,-2.36093767e-003
,,,1.97500000e-009,-2.34140642e-003
,,,2.00000000e-009,-2.31953141e-003
,,,2.02500000e-009,-2.29453141e-003
,,,2.05000000e-009,-2.26640641e-003
,,,2.07500000e-009,-2.23515641e-003
,,,2.10000000e-009,-2.20000016e-003
,,,2.12500000e-009,-2.16093765e-003
,,,2.15000000e-009,-2.11640640e-003
,,,2.17500000e-009,-2.06718765e-003
,,,2.20000000e-009,-2.01406264e-003
,,,2.22500000e-009,-1.95937514e-003
,,,2.25000000e-009,-1.90468763e-003
,,,2.27500000e-009,-1.85078138e-003
,,,2.30000000e-009,-1.80000013e-003
,,,2.32500000e-009,-1.75468762e-003
,,,2.35000000e-009,-1.71015637e-003
,,,2.37500000e-009,-1.66406262e-003
,,,2.40000000e-009,-1.61640636e-003
,,,2.42500000e-009,-1.56718761e-003
,,,2.45000000e-009,-1.51406261e-003
,,,2.47500000e-009,-1.45859385e-003
,,,2.50000000e-009,-1.40000010e-003
,,,2.52500000e-009,-1.34296885e-003
,,,2.55000000e-009,-1.28359384e-003
,,,2.57500000e-009,-1.22265634e-003
,,,2.60000000e-009,-1.16406258e-003
,,,2.62500000e-009,-1.11015633e-003
,,,2.65000000e-009,-1.06328133e-003
,,,2.67500000e-009,-1.02578132e-003
,,,2.70000000e-009,-1.00000007e-003
,,,2.72500000e-009,-9.90625070e-004
,,,2.75000000e-009,-9.89062570e-004
,,,2.77500000e-009,-9.92968820e-004
,,,2.80000000e-009,-9.99218821e-004
,,,2.82500000e-009,-1.00468757e-003
,,,2.85000000e-009,-1.00781257e-003
,,,2.87500000e-009,-1.00625007e-003
,,,2.90000000e-009,-1.00000007e-003
,,,2.92500000e-009,-9.92187570e-004
,,,2.95000000e-009,-9.79687569e-004
,,,2.97500000e-009,-9.66406318e-004
,,,3.00000000e-009,-9.54687568e-004
,,,3.02500000e-009,-9.49218817e-004
,,,3.05000000e-009,-9.53125067e-004
,,,3.07500000e-009,-9.70312569e-004
,,,3.10000000e-009,-1.00000007e-003
,,,3.12500000e-009,-1.04218757e-003
,,,3.15000000e-009,-1.09062508e-003
,,,3.17500000e-009,-1.13906258e-003
,,,3.20000000e-009,-1.18203133e-003
,,,3.22500000e-009,-1.21484384e-003
,,,3.25000000e-009,-1.23046884e-003
,,,3.27500000e-009,-1.22656259e-003
,,,3.30000000e-009,-1.20000008e-003
,,,3.32500000e-009,-1.14765633e-003
,,,3.35000000e-009,-1.07578133e-003
,,,3.37500000e-009,-9.89062570e-004
,,,3.40000000e-009,-8.95312563e-004
,,,3.42500000e-009,-8.01562557e-004
,,,3.45000000e-009,-7.17187551e-004
,,,3.47500000e-009,-6.47656296e-004
,,,3.50000000e-009,-6.00000042e-004
,,,3.52500000e-009,-5.76562541e-004
,,,3.55000000e-009,-5.76562541e-004
,,,3.57500000e-009,-5.96875042e-004
,,,3.60000000e-009,-6.32031295e-004
,,,3.62500000e-009,-6.76562548e-004
,,,3.65000000e-009,-7.23437551e-004
,,,3.67500000e-009,-7.66406304e-004
,,,3.70000000e-009,-8.00000057e-004
,,,3.72500000e-009,-8.19531308e-004
,,,3.75000000e-009,-8.22656308e-004
,,,3.77500000e-009,-8.09375057e-004
,,,3.80000000e-009,-7.82812555e-004
,,,3.82500000e-009,-7.43750053e-004
,,,3.85000000e-009,-6.97656299e-004
,,,3.87500000e-009,-6.48437546e-004
,,,3.90000000e-009,-6.00000042e-004
,,,3.92500000e-009,-5.56250039e-004
,,,3.95000000e-009,-5.18750037e-004
,,,3.97500000e-009,-4.87500035e-004
,,,4.00000000e-009,-4.63281283e-004
,,,4.02500000e-009,-4.43750031e-004
,,,4.05000000e-009,-4.28125030e-004
,,,4.07500000e-009,-4.14062529e-004
,,,4.10000000e-009,-4.00000028e-004
,,,4.12500000e-009,-3.85937527e-004
,,,4.15000000e-009,-3.69531276e-004
,,,4.17500000e-009,-3.48437525e-004
,,,4.20000000e-009,-3.22656273e-004
,,,4.22500000e-009,-2.93750021e-004
,,,4.25000000e-009,-2.62500019e-004
,,,4.27500000e-009,-2.30468766e-004
,,,4.30000000e-009,-2.00000014e-004
,,,4.32500000e-009,-1.75000012e-004
,,,4.35000000e-009,-1.55468761e-004
,,,4.37500000e-009,-1.40625010e-004
,,,4.40000000e-009,-1.33593759e-004
,,,4.42500000e-009,-1.34375010e-004
,,,4.45000000e-009,-1.46093760e-004
,,,4.47500000e-009,-1.67187512e-004
,,,4.50000000e-009,-2.00000014e-004
,,,4.52500000e-009,-2.42187517e-004
,,,4.55000000e-009,-2.92187521e-004
,,,4.57500000e-009,-3.46875025e-004
,,,4.60000000e-009,-4.03125029e-004
,,,4.62500000e-009,-4.58593782e-004
,,,4.65000000e-009,-5.11718786e-004
,,,4.67500000e-009,-5.59375040e-004
,,,4.70000000e-009,-6.00000042e-004
,,,4.72500000e-009,-6.29687545e-004
,,,4.75000000e-009,-6.49218796e-004
,,,4.77500000e-009,-6.57812547e-004
,,,4.80000000e-009,-6.58593797e-004
,,,4.82500000e-009,-6.50781296e-004
,,,4.85000000e-009,-6.37500045e-004
,,,4.87500000e-009,-6.20312544e-004
,,,4.90000000e-009,-6.00000042e-004
,,,4.92500000e-009,-5.75781291e-004
,,,4.95000000e-009,-5.51562539e-004
,,,4.97500000e-009,-5.27343787e-004
,,,5.00000000e-009,-5.03125036e-004
,,,5.02500000e-009,-4.78125034e-004
,,,5.05000000e-009,-4.53125032e-004
,,,5.07500000e-009,-4.26562530e-004
,,,5.10000000e-009,-4.00000028e-004
,,,5.12500000e-009,-3.70312526e-004
,,,5.15000000e-009,-3.41406274e-004
,,,5.17500000e-009,-3.12500022e-004
,,,5.20000000e-009,-2.84375020e-004
,,,5.22500000e-009,-2.57812518e-004
,,,5.25000000e-009,-2.35156267e-004
,,,5.27500000e-009,-2.14843765e-004
,,,5.30000000e-009,-2.00000014e-004
,,,5.32500000e-009,-1.87500013e-004
,,,5.35000000e-009,-1.80468763e-004
,,,5.37500000e-009,-1.77343763e-004
,,,5.40000000e-009,-1.77343763e-004
,,,5.42500000e-009,-1.81250013e-004
,,,5.45000000e-009,-1.85937513e-004
,,,5.47500000e-009,-1.92968764e-004
,,,5.50000000e-009,-2.00000014e-004
,,,5.52500000e-009,-2.04687514e-004
,,,5.55000000e-009,-2.08593765e-004
,,,5.57500000e-009,-2.10937515e-004
,,,5.60000000e-009,-2.11718765e-004
,,,5.62500000e-009,-2.10156265e-004
,,,5.65000000e-009,-2.07812515e-004
,,,5.67500000e-009,-2.03906264e-004
,,,5.70000000e-009,-2.00000014e-004
,,,5.72500000e-009,-1.96875014e-004
,,,5.75000000e-009,-1.93750014e-004
,,,5.77500000e-009,-1.91406264e-004
,,,5.80000000e-009,-1.89843763e-004
,,,5.82500000e-009,-1.89843763e-004
,,,5.85000000e-009,-1.91406264e-004
,,,5.87500000e-009,-1.94531264e-004
,,,5.90000000e-009,-2.00000014e-004
