RawData/DifferentLengths/L4/L4_50_5mV/wave000_Ch2.csv

"Record Length",1000,"Points",-7.72500000e-009,3.03125953e-004
"Sample Interval",2.50000000e-011,s,-7.70000000e-009,3.71875958e-004
"Trigger Point",309,"Samples",-7.67500000e-009,4.15625961e-004
"Trigger Time",3.16296296e-013,s,-7.65000000e-009,4.26563462e-004
"",,,-7.62500000e-009,4.00000960e-004
"Horizontal Offset",-7.72500000e-009,s,-7.60000000e-009,3.28125955e-004
,,,-7.57500000e-009,2.26563447e-004
,,,-7.55000000e-009,1.03125939e-004
,,,-7.52500000e-009,-2.96865708e-005
,,,-7.50000000e-009,-1.57811580e-004
,,,-7.47500000e-009,-2.70311588e-004
,,,-7.45000000e-009,-3.53124094e-004
,,,-7.42500000e-009,-3.99999097e-004
,,,-7.40000000e-009,-4.07811598e-004
,,,-7.37500000e-009,-3.78124095e-004
,,,-7.35000000e-009,-3.18749091e-004
,,,-7.32500000e-009,-2.42186586e-004
,,,-7.30000000e-009,-1.59374080e-004
,,,-7.27500000e-009,-8.43740746e-005
,,,-7.25000000e-009,-2.81240707e-005
,,,-7.22500000e-009,9.31322575e-010
,,,-7.20000000e-009,-4.68656901e-006
,,,-7.17500000e-009,-4.06240716e-005
,,,-7.15000000e-009,-1.01561576e-004
,,,-7.12500000e-009,-1.76561581e-004
,,,-7.10000000e-009,-2.56249087e-004
,,,-7.07500000e-009,-3.26561592e-004
,,,-7.05000000e-009,-3.76561595e-004
,,,-7.02500000e-009,-3.99999097e-004
,,,-7.00000000e-009,-3.90624096e-004
,,,-6.97500000e-009,-3.51561594e-004
,,,-6.95000000e-009,-2.90624089e-004
,,,-6.92500000e-009,-2.15624084e-004
,,,-6.90000000e-009,-1.39061579e-004
,,,-6.87500000e-009,-7.18740738e-005
,,,-6.85000000e-009,-2.34365703e-005
,,,-6.82500000e-009,9.31322575e-010
,,,-6.80000000e-009,-7.81156923e-006
,,,-6.77500000e-009,-4.21865717e-005
,,,-6.75000000e-009,-9.99990758e-005
,,,-6.72500000e-009,-1.71874081e-004
,,,-6.70000000e-009,-2.48436586e-004
,,,-6.67500000e-009,-3.17186591e-004
,,,-6.65000000e-009,-3.70311595e-004
,,,-6.62500000e-009,-3.99999097e-004
,,,-6.60000000e-009,-3.98436597e-004
,,,-6.57500000e-009,-3.68749095e-004
,,,-6.55000000e-009,-3.15624091e-004
,,,-6.52500000e-009,-2.48436586e-004
,,,-6.50000000e-009,-1.73436581e-004
,,,-6.47500000e-009,-1.01561576e-004
,,,-6.45000000e-009,-4.21865717e-005
,,,-6.42500000e-009,9.31322575e-010
,,,-6.40000000e-009,1.40634323e-005
,,,-6.37500000e-009,3.12593154e-006
,,,-6.35000000e-009,-3.28115710e-005
,,,-6.32500000e-009,-8.90615750e-005
,,,-6.30000000e-009,-1.62499080e-004
,,,-6.27500000e-009,-2.42186586e-004
,,,-6.25000000e-009,-3.24999092e-004
,,,-6.22500000e-009,-3.99999097e-004
,,,-6.20000000e-009,-4.59374101e-004
,,,-6.17500000e-009,-5.01561604e-004
,,,-6.15000000e-009,-5.24999106e-004
,,,-6.12500000e-009,-5.28124106e-004
,,,-6.10000000e-009,-5.15624105e-004
,,,-6.07500000e-009,-4.89061603e-004
,,,-6.05000000e-009,-4.48436600e-004
,,,-6.02500000e-009,-3.99999097e-004
,,,-6.00000000e-009,-3.45311593e-004
,,,-5.97500000e-009,-2.89061589e-004
,,,-5.95000000e-009,-2.31249085e-004
,,,-5.92500000e-009,-1.76561581e-004
,,,-5.90000000e-009,-1.24999078e-004
,,,-5.87500000e-009,-7.81240742e-005
,,,-5.85000000e-009,-3.59365712e-005
,,,-5.82500000e-009,9.31322575e-010
,,,-5.80000000e-009,2.81259333e-005
,,,-5.77500000e-009,4.84384348e-005
,,,-5.75000000e-009,6.09384356e-005
,,,-5.72500000e-009,6.40634359e-005
,,,-5.70000000e-009,5.93759355e-005
,,,-5.67500000e-009,4.53134345e-005
,,,-5.65000000e-009,2.50009331e-005
,,,-5.62500000e-009,9.31322575e-010
,,,-5.60000000e-009,-3.12490709e-005
,,,-5.57500000e-009,-6.09365730e-005
,,,-5.55000000e-009,-8.28115745e-005
,,,-5.52500000e-009,-9.68740755e-005
,,,-5.50000000e-009,-9.68740755e-005
,,,-5.47500000e-009,-8.12490744e-005
,,,-5.45000000e-009,-4.84365721e-005
,,,-5.42500000e-009,9.31322575e-010
,,,-5.40000000e-009,6.09384356e-005
,,,-5.37500000e-009,1.29688441e-004
,,,-5.35000000e-009,2.01563446e-004
,,,-5.32500000e-009,2.70313450e-004
,,,-5.30000000e-009,3.29688455e-004
,,,-5.27500000e-009,3.73438458e-004
,,,-5.25000000e-009,3.96875959e-004
,,,-5.22500000e-009,4.00000960e-004
,,,-5.20000000e-009,3.73438458e-004
,,,-5.17500000e-009,3.29688455e-004
,,,-5.15000000e-009,2.71875951e-004
,,,-5.12500000e-009,2.07813446e-004
,,,-5.10000000e-009,1.42188441e-004
,,,-5.07500000e-009,8.28134372e-005
,,,-5.05000000e-009,3.28134336e-005
,,,-5.02500000e-009,9.31322575e-010
,,,-5.00000000e-009,-2.03115701e-005
,,,-4.97500000e-009,-2.34365703e-005
,,,-4.95000000e-009,-1.56240698e-005
,,,-4.92500000e-009,9.31322575e-010
,,,-4.90000000e-009,1.40634323e-005
,,,-4.87500000e-009,2.18759329e-005
,,,-4.85000000e-009,1.87509326e-005
,,,-4.82500000e-009,9.31322575e-010
,,,-4.80000000e-009,-3.59365712e-005
,,,-4.77500000e-009,-8.74990749e-005
,,,-4.75000000e-009,-1.48436579e-004
,,,-4.72500000e-009,-2.15624084e-004
,,,-4.70000000e-009,-2.81249089e-004
,,,-4.67500000e-009,-3.37499093e-004
,,,-4.65000000e-009,-3.79686596e-004
,,,-4.62500000e-009,-3.99999097e-004
,,,-4.60000000e-009,-3.96874097e-004
,,,-4.57500000e-009,-3.70311595e-004
,,,-4.55000000e-009,-3.23436592e-004
,,,-4.52500000e-009,-2.64061587e-004
,,,-4.50000000e-009,-1.95311583e-004
,,,-4.47500000e-009,-1.24999078e-004
,,,-4.45000000e-009,-5.78115728e-005
,,,-4.42500000e-009,9.31322575e-010
,,,-4.40000000e-009,4.37509344e-005
,,,-4.37500000e-009,7.34384365e-005
,,,-4.35000000e-009,8.59384374e-005
,,,-4.32500000e-009,8.43759373e-005
,,,-4.30000000e-009,7.18759364e-005
,,,-4.27500000e-009,5.00009349e-005
,,,-4.25000000e-009,2.50009331e-005
,,,-4.22500000e-009,9.31322575e-010
,,,-4.20000000e-009,-2.18740702e-005
,,,-4.17500000e-009,-3.74990713e-005
,,,-4.15000000e-009,-4.68740720e-005
,,,-4.12500000e-009,-4.84365721e-005
,,,-4.10000000e-009,-4.37490718e-005
,,,-4.07500000e-009,-3.28115710e-005
,,,-4.05000000e-009,-1.87490700e-005
,,,-4.02500000e-009,9.31322575e-010
,,,-4.00000000e-009,1.40634323e-005
,,,-3.97500000e-009,2.81259333e-005
,,,-3.95000000e-009,3.59384339e-005
,,,-3.92500000e-009,4.06259342e-005
,,,-3.90000000e-009,3.75009340e-005
,,,-3.87500000e-009,2.96884334e-005
,,,-3.85000000e-009,1.71884325e-005
,,,-3.82500000e-009,9.31322575e-010
,,,-3.80000000e-009,-2.18740702e-005
,,,-3.77500000e-009,-4.21865717e-005
,,,-3.75000000e-009,-6.09365730e-005
,,,-3.72500000e-009,-7.03115737e-005
,,,-3.70000000e-009,-7.18740738e-005
,,,-3.67500000e-009,-6.09365730e-005
,,,-3.65000000e-009,-3.74990713e-005
,,,-3.62500000e-009,9.31322575e-010
,,,-3.60000000e-009,4.68759346e-005
,,,-3.57500000e-009,1.03125939e-004
,,,-3.55000000e-009,1.65625943e-004
,,,-3.52500000e-009,2.29688448e-004
,,,-3.50000000e-009,2.89063452e-004
,,,-3.47500000e-009,3.40625955e-004
,,,-3.45000000e-009,3.78125958e-004
,,,-3.42500000e-009,4.00000960e-004
,,,-3.40000000e-009,3.98438460e-004
,,,-3.37500000e-009,3.76563458e-004
,,,-3.35000000e-009,3.39063455e-004
,,,-3.32500000e-009,2.85938452e-004
,,,-3.30000000e-009,2.21875947e-004
,,,-3.27500000e-009,1.50000942e-004
,,,-3.25000000e-009,7.50009366e-005
,,,-3.22500000e-009,9.31322575e-010
,,,-3.20000000e-009,-7.18740738e-005
,,,-3.17500000e-009,-1.37499078e-004
,,,-3.15000000e-009,-1.96874083e-004
,,,-3.12500000e-009,-2.48436586e-004
,,,-3.10000000e-009,-2.93749089e-004
,,,-3.07500000e-009,-3.34374092e-004
,,,-3.05000000e-009,-3.68749095e-004
,,,-3.02500000e-009,-3.99999097e-004
,,,-3.00000000e-009,-4.24999099e-004
,,,-2.97500000e-009,-4.43749100e-004
,,,-2.95000000e-009,-4.56249101e-004
,,,-2.92500000e-009,-4.64061602e-004
,,,-2.90000000e-009,-4.62499101e-004
,,,-2.87500000e-009,-4.51561601e-004
,,,-2.85000000e-009,-4.31249099e-004
,,,-2.82500000e-009,-3.99999097e-004
,,,-2.80000000e-009,-3.56249094e-004
,,,-2.77500000e-009,-3.06249090e-004
,,,-2.75000000e-009,-2.49999086e-004
,,,-2.72500000e-009,-1.92186582e-004
,,,-2.70000000e-009,-1.35936578e-004
,,,-2.67500000e-009,-8.28115745e-005
,,,-2.65000000e-009,-3.74990713e-005
,,,-2.62500000e-009,9.31322575e-010
,,,-2.60000000e-009,2.50009331e-005
,,,-2.57500000e-009,4.06259342e-005
,,,-2.55000000e-009,4.68759346e-005
,,,-2.52500000e-009,4.53134345e-005
,,,-2.50000000e-009,3.75009340e-005
,,,-2.47500000e-009,2.50009331e-005
,,,-2.45000000e-009,1.25009322e-005
,,,-2.42500000e-009,9.31322575e-010
,,,-2.40000000e-009,-1.09365695e-005
,,,-2.37500000e-009,-1.87490700e-005
,,,-2.35000000e-009,-2.34365703e-005
,,,-2.32500000e-009,-2.49990704e-005
,,,-2.30000000e-009,-2.18740702e-005
,,,-2.27500000e-009,-1.71865699e-005
,,,-2.25000000e-009,-9.37406934e-006
,,,-2.22500000e-009,9.31322575e-010
,,,-2.20000000e-009,7.81343188e-006
,,,-2.17500000e-009,1.56259324e-005
,,,-2.15000000e-009,2.03134328e-005
,,,-2.12500000e-009,2.34384330e-005
,,,-2.10000000e-009,2.18759329e-005
,,,-2.07500000e-009,1.71884325e-005
,,,-2.05000000e-009,9.37593199e-006
,,,-2.02500000e-009,9.31322575e-010
,,,-2.00000000e-009,-1.40615697e-005
,,,-1.97500000e-009,-2.65615706e-005
,,,-1.95000000e-009,-3.59365712e-005
,,,-1.92500000e-009,-4.06240716e-005
,,,-1.90000000e-009,-3.90615714e-005
,,,-1.87500000e-009,-3.28115710e-005
,,,-1.85000000e-009,-1.87490700e-005
,,,-1.82500000e-009,9.31322575e-010
,,,-1.80000000e-009,1.56259324e-005
,,,-1.77500000e-009,3.28134336e-005
,,,-1.75000000e-009,4.68759346e-005
,,,-1.72500000e-009,5.78134354e-005
,,,-1.70000000e-009,5.93759355e-005
,,,-1.67500000e-009,5.15634350e-005
,,,-1.65000000e-009,3.12509335e-005
,,,-1.62500000e-009,9.31322575e-010
,,,-1.60000000e-009,-4.84365721e-005
,,,-1.57500000e-009,-1.04686576e-004
,,,-1.55000000e-009,-1.67186581e-004
,,,-1.52500000e-009,-2.31249085e-004
,,,-1.50000000e-009,-2.90624089e-004
,,,-1.47500000e-009,-3.42186593e-004
,,,-1.45000000e-009,-3.79686596e-004
,,,-1.42500000e-009,-3.99999097e-004
,,,-1.40000000e-009,-4.07811598e-004
,,,-1.37500000e-009,-3.96874097e-004
,,,-1.35000000e-009,-3.65624095e-004
,,,-1.32500000e-009,-3.17186591e-004
,,,-1.30000000e-009,-2.51561586e-004
,,,-1.27500000e-009,-1.74999081e-004
,,,-1.25000000e-009,-8.90615750e-005
,,,-1.22500000e-009,9.31322575e-010
,,,-1.20000000e-009,6.56259360e-005
,,,-1.17500000e-009,1.17188440e-004
,,,-1.15000000e-009,1.51563442e-004
,,,-1.12500000e-009,1.64063443e-004
,,,-1.10000000e-009,1.56250942e-004
,,,-1.07500000e-009,1.25000940e-004
,,,-1.05000000e-009,7.18759364e-005
,,,-1.02500000e-009,9.31322575e-010
,,,-1.00000000e-009,-1.12499077e-004
,,,-9.75000000e-010,-2.37499085e-004
,,,-9.50000000e-010,-3.67186595e-004
,,,-9.25000000e-010,-4.92186604e-004
,,,-9.00000000e-010,-6.04686611e-004
,,,-8.75000000e-010,-6.96874118e-004
,,,-8.50000000e-010,-7.62499123e-004
,,,-8.25000000e-010,-7.99999125e-004
,,,-8.00000000e-010,-8.37499128e-004
,,,-7.75000000e-010,-8.54686629e-004
,,,-7.50000000e-010,-8.54686629e-004
,,,-7.25000000e-010,-8.42186628e-004
,,,-7.00000000e-010,-8.24999127e-004
,,,-6.75000000e-010,-8.06249126e-004
,,,-6.50000000e-010,-7.96874125e-004
,,,-6.25000000e-010,-7.99999125e-004
,,,-6.00000000e-010,-8.56249129e-004
,,,-5.75000000e-010,-9.43749135e-004
,,,-5.50000000e-010,-1.06406164e-003
,,,-5.25000000e-010,-1.21249915e-003
,,,-5.00000000e-010,-1.38593667e-003
,,,-4.75000000e-010,-1.57812418e-003
,,,-4.50000000e-010,-1.78593670e-003
,,,-4.25000000e-010,-1.99999921e-003
,,,-4.00000000e-010,-2.23749923e-003
,,,-3.75000000e-010,-2.47499924e-003
,,,-3.50000000e-010,-2.70468676e-003
,,,-3.25000000e-010,-2.92187428e-003
,,,-3.00000000e-010,-3.12031179e-003
,,,-2.75000000e-010,-3.30156180e-003
,,,-2.50000000e-010,-3.46093681e-003
,,,-2.25000000e-010,-3.59999932e-003
,,,-2.00000000e-010,-3.72968683e-003
,,,-1.75000000e-010,-3.85624934e-003
,,,-1.50000000e-010,-3.98281185e-003
,,,-1.25000000e-010,-4.11562436e-003
,,,-1.00000000e-010,-4.26093687e-003
,,,-7.50000000e-011,-4.42031188e-003
,,,-5.00000000e-011,-4.59999939e-003
,,,-2.50000000e-011,-4.79999941e-003
,,,0.00000000e+000,-5.01093692e-003
,,,2.50000000e-011,-5.24531194e-003
,,,5.00000000e-011,-5.49843696e-003
,,,7.50000000e-011,-5.76406198e-003
,,,1.00000000e-010,-6.03593700e-003
,,,1.25000000e-010,-6.30468701e-003
,,,1.50000000e-010,-6.56249953e-003
,,,1.75000000e-010,-6.79999955e-003
,,,2.00000000e-010,-6.98593706e-003
,,,2.25000000e-010,-7.14374957e-003
,,,2.50000000e-010,-7.27656208e-003
,,,2.75000000e-010,-7.38437459e-003
,,,3.00000000e-010,-7.46718710e-003
,,,3.25000000e-010,-7.52968710e-003
,,,3.50000000e-010,-7.57343710e-003
,,,3.75000000e-010,-7.59999961e-003
,,,4.00000000e-010,-7.58124961e-003
,,,4.25000000e-010,-7.55937460e-003
,,,4.50000000e-010,-7.54374960e-003
,,,4.75000000e-010,-7.53593710e-003
,,,5.00000000e-010,-7.53906210e-003
,,,5.25000000e-010,-7.55156210e-003
,,,5.50000000e-010,-7.57187460e-003
,,,5.75000000e-010,-7.59999961e-003
,,,6.00000000e-010,-7.59531211e-003
,,,6.25000000e-010,-7.59687461e-003
,,,6.50000000e-010,-7.60312461e-003
,,,6.75000000e-010,-7.61093711e-003
,,,7.00000000e-010,-7.61718711e-003
,,,7.25000000e-010,-7.62031211e-003
,,,7.50000000e-010,-7.61718711e-003
,,,7.75000000e-010,-7.59999961e-003
,,,8.00000000e-010,-7.53749960e-003
,,,8.25000000e-010,-7.46249960e-003
,,,8.50000000e-010,-7.37343709e-003
,,,8.75000000e-010,-7.27343708e-003
,,,9.00000000e-010,-7.16562458e-003
,,,9.25000000e-010,-7.04843707e-003
,,,9.50000000e-010,-6.92656206e-003
,,,9.75000000e-010,-6.79999955e-003
,,,1.00000000e-009,-6.65312454e-003
,,,1.02500000e-009,-6.51249953e-003
,,,1.05000000e-009,-6.38281202e-003
,,,1.07500000e-009,-6.26874951e-003
,,,1.10000000e-009,-6.17343701e-003
,,,1.12500000e-009,-6.09687450e-003
,,,1.15000000e-009,-6.03906200e-003
,,,1.17500000e-009,-5.99999949e-003
,,,1.20000000e-009,-5.96562449e-003
,,,1.22500000e-009,-5.93593699e-003
,,,1.25000000e-009,-5.90781199e-003
,,,1.27500000e-009,-5.87499948e-003
,,,1.30000000e-009,-5.83124948e-003
,,,1.32500000e-009,-5.77343698e-003
,,,1.35000000e-009,-5.69687447e-003
,,,1.37500000e-009,-5.59999947e-003
,,,1.40000000e-009,-5.48124946e-003
,,,1.42500000e-009,-5.34062445e-003
,,,1.45000000e-009,-5.18281194e-003
,,,1.47500000e-009,-5.01562442e-003
,,,1.50000000e-009,-4.84687441e-003
,,,1.52500000e-009,-4.68437440e-003
,,,1.55000000e-009,-4.53281189e-003
,,,1.57500000e-009,-4.39999938e-003
,,,1.60000000e-009,-4.29687437e-003
,,,1.62500000e-009,-4.21406187e-003
,,,1.65000000e-009,-4.14999936e-003
,,,1.67500000e-009,-4.10156186e-003
,,,1.70000000e-009,-4.06718686e-003
,,,1.72500000e-009,-4.04218685e-003
,,,1.75000000e-009,-4.02031185e-003
,,,1.77500000e-009,-3.99999935e-003
,,,1.80000000e-009,-3.98593685e-003
,,,1.82500000e-009,-3.95937435e-003
,,,1.85000000e-009,-3.92187435e-003
,,,1.87500000e-009,-3.87187434e-003
,,,1.90000000e-009,-3.81093684e-003
,,,1.92500000e-009,-3.74374933e-003
,,,1.95000000e-009,-3.67187433e-003
,,,1.97500000e-009,-3.59999932e-003
,,,2.00000000e-009,-3.53749932e-003
,,,2.02500000e-009,-3.47656181e-003
,,,2.05000000e-009,-3.41562431e-003
,,,2.07500000e-009,-3.35937431e-003
,,,2.10000000e-009,-3.30937430e-003
,,,2.12500000e-009,-3.26562430e-003
,,,2.15000000e-009,-3.22812430e-003
,,,2.17500000e-009,-3.19999930e-003
,,,2.20000000e-009,-3.18749929e-003
,,,2.22500000e-009,-3.17968679e-003
,,,2.25000000e-009,-3.17499929e-003
,,,2.27500000e-009,-3.17343679e-003
,,,2.30000000e-009,-3.17499929e-003
,,,2.32500000e-009,-3.18124929e-003
,,,2.35000000e-009,-3.18906179e-003
,,,2.37500000e-009,-3.19999930e-003
,,,2.40000000e-009,-3.21718680e-003
,,,2.42500000e-009,-3.22968680e-003
,,,2.45000000e-009,-3.23749930e-003
,,,2.47500000e-009,-3.24062430e-003
,,,2.50000000e-009,-3.23749930e-003
,,,2.52500000e-009,-3.23124930e-003
,,,2.55000000e-009,-3.21874930e-003
,,,2.57500000e-009,-3.19999930e-003
,,,2.60000000e-009,-3.17343679e-003
,,,2.62500000e-009,-3.13593679e-003
,,,2.65000000e-009,-3.09218679e-003
,,,2.67500000e-009,-3.04218678e-003
,,,2.70000000e-009,-2.98593678e-003
,,,2.72500000e-009,-2.92656178e-003
,,,2.75000000e-009,-2.86406177e-003
,,,2.77500000e-009,-2.79999927e-003
,,,2.80000000e-009,-2.73593676e-003
,,,2.82500000e-009,-2.67187426e-003
,,,2.85000000e-009,-2.60937425e-003
,,,2.87500000e-009,-2.55312425e-003
,,,2.90000000e-009,-2.50156175e-003
,,,2.92500000e-009,-2.45937424e-003
,,,2.95000000e-009,-2.42499924e-003
,,,2.97500000e-009,-2.39999924e-003
,,,3.00000000e-009,-2.38593674e-003
,,,3.02500000e-009,-2.37656174e-003
,,,3.05000000e-009,-2.37499924e-003
,,,3.07500000e-009,-2.37656174e-003
,,,3.10000000e-009,-2.38281174e-003
,,,3.12500000e-009,-2.39062424e-003
,,,3.15000000e-009,-2.39687424e-003
,,,3.17500000e-009,-2.39999924e-003
,,,3.20000000e-009,-2.39687424e-003
,,,3.22500000e-009,-2.38124924e-003
,,,3.25000000e-009,-2.35312424e-003
,,,3.27500000e-009,-2.31249923e-003
,,,3.30000000e-009,-2.25468673e-003
,,,3.32500000e-009,-2.18437422e-003
,,,3.35000000e-009,-2.09843672e-003
,,,3.37500000e-009,-1.99999921e-003
,,,3.40000000e-009,-1.89218670e-003
,,,3.42500000e-009,-1.77656169e-003
,,,3.45000000e-009,-1.65937419e-003
,,,3.47500000e-009,-1.54531168e-003
,,,3.50000000e-009,-1.43749917e-003
,,,3.52500000e-009,-1.34218666e-003
,,,3.55000000e-009,-1.26249916e-003
,,,3.57500000e-009,-1.19999915e-003
,,,3.60000000e-009,-1.16718665e-003
,,,3.62500000e-009,-1.14999915e-003
,,,3.65000000e-009,-1.14531165e-003
,,,3.67500000e-009,-1.15156165e-003
,,,3.70000000e-009,-1.16406165e-003
,,,3.72500000e-009,-1.17812415e-003
,,,3.75000000e-009,-1.19062415e-003
,,,3.77500000e-009,-1.19999915e-003
,,,3.80000000e-009,-1.20937415e-003
,,,3.82500000e-009,-1.21249915e-003
,,,3.85000000e-009,-1.20781165e-003
,,,3.87500000e-009,-1.20156165e-003
,,,3.90000000e-009,-1.19374915e-003
,,,3.92500000e-009,-1.19062415e-003
,,,3.95000000e-009,-1.19218665e-003
,,,3.97500000e-009,-1.19999915e-003
,,,4.00000000e-009,-1.22031166e-003
,,,4.02500000e-009,-1.24218666e-003
,,,4.05000000e-009,-1.26249916e-003
,,,4.07500000e-009,-1.27812416e-003
,,,4.10000000e-009,-1.28124916e-003
,,,4.12500000e-009,-1.27187416e-003
,,,4.15000000e-009,-1.24531166e-003
,,,4.17500000e-009,-1.19999915e-003
,,,4.20000000e-009,-1.14374915e-003
,,,4.22500000e-009,-1.07499914e-003
,,,4.25000000e-009,-9.99999139e-004
,,,4.27500000e-009,-9.26561634e-004
,,,4.30000000e-009,-8.64061630e-004
,,,4.32500000e-009,-8.18749127e-004
,,,4.35000000e-009,-7.96874125e-004
,,,4.37500000e-009,-7.99999125e-004
,,,4.40000000e-009,-8.37499128e-004
,,,4.42500000e-009,-8.95311632e-004
,,,4.45000000e-009,-9.65624137e-004
,,,4.47500000e-009,-1.04062414e-003
,,,4.50000000e-009,-1.10937415e-003
,,,4.52500000e-009,-1.16406165e-003
,,,4.55000000e-009,-1.19531165e-003
,,,4.57500000e-009,-1.19999915e-003
,,,4.60000000e-009,-1.17656165e-003
,,,4.62500000e-009,-1.12656165e-003
,,,4.65000000e-009,-1.06093664e-003
,,,4.67500000e-009,-9.85936638e-004
,,,4.70000000e-009,-9.12499133e-004
,,,4.72500000e-009,-8.51561629e-004
,,,4.75000000e-009,-8.12499126e-004
,,,4.77500000e-009,-7.99999125e-004
,,,4.80000000e-009,-8.17186627e-004
,,,4.82500000e-009,-8.59374130e-004
,,,4.85000000e-009,-9.21874134e-004
,,,4.87500000e-009,-9.93749139e-004
,,,4.90000000e-009,-1.06718664e-003
,,,4.92500000e-009,-1.13281165e-003
,,,4.95000000e-009,-1.17968665e-003
,,,4.97500000e-009,-1.19999915e-003
,,,5.00000000e-009,-1.19218665e-003
,,,5.02500000e-009,-1.15781165e-003
,,,5.05000000e-009,-1.10156165e-003
,,,5.07500000e-009,-1.03124914e-003
,,,5.10000000e-009,-9.56249136e-004
,,,5.12500000e-009,-8.87499131e-004
,,,5.15000000e-009,-8.32811628e-004
,,,5.17500000e-009,-7.99999125e-004
,,,5.20000000e-009,-7.96874125e-004
,,,5.22500000e-009,-8.18749127e-004
,,,5.25000000e-009,-8.65624130e-004
,,,5.27500000e-009,-9.28124134e-004
,,,5.30000000e-009,-1.00312414e-003
,,,5.32500000e-009,-1.07812414e-003
,,,5.35000000e-009,-1.14687415e-003
,,,5.37500000e-009,-1.19999915e-003
,,,5.40000000e-009,-1.22968666e-003
,,,5.42500000e-009,-1.23124916e-003
,,,5.45000000e-009,-1.20781165e-003
,,,5.47500000e-009,-1.15937415e-003
,,,5.50000000e-009,-1.08906165e-003
,,,5.52500000e-009,-1.00312414e-003
,,,5.55000000e-009,-9.04686633e-004
,,,5.57500000e-009,-7.99999125e-004
,,,5.60000000e-009,-7.01561618e-004
,,,5.62500000e-009,-6.09374112e-004
,,,5.65000000e-009,-5.29686606e-004
,,,5.67500000e-009,-4.65624102e-004
,,,5.70000000e-009,-4.20311598e-004
,,,5.72500000e-009,-3.95311597e-004
,,,5.75000000e-009,-3.89061596e-004
,,,5.77500000e-009,-3.99999097e-004
,,,5.80000000e-009,-4.31249099e-004
,,,5.82500000e-009,-4.74999102e-004
,,,5.85000000e-009,-5.28124106e-004
,,,5.87500000e-009,-5.85936610e-004
