RawData/DifferentLengths/L4/L4_50_5mV/wave003_Ch2.csv

"Record Length",1000,"Points",-7.72500000e-009,-2.46874552e-004
"Sample Interval",2.50000000e-011,s,-7.70000000e-009,-2.23437050e-004
"Trigger Point",309,"Samples",-7.67500000e-009,-1.99999548e-004
"Trigger Time",4.58994819e-012,s,-7.65000000e-009,-1.78905797e-004
"",,,-7.62500000e-009,-1.57030795e-004
"Horizontal Offset",-7.72500000e-009,s,-7.60000000e-009,-1.35155794e-004
,,,-7.57500000e-009,-1.11718292e-004
,,,-7.55000000e-009,-8.67182905e-005
,,,-7.52500000e-009,-6.01557886e-005
,,,-7.50000000e-009,-3.12495366e-005
,,,-7.47500000e-009,4.65661287e-010
,,,-7.45000000e-009,2.73442176e-005
,,,-7.42500000e-009,5.62504696e-005
,,,-7.40000000e-009,8.51567217e-005
,,,-7.37500000e-009,1.13281724e-004
,,,-7.35000000e-009,1.39844226e-004
,,,-7.32500000e-009,1.63281727e-004
,,,-7.30000000e-009,1.83594229e-004
,,,-7.27500000e-009,2.00000480e-004
,,,-7.25000000e-009,2.04687980e-004
,,,-7.22500000e-009,2.07031730e-004
,,,-7.20000000e-009,2.06250480e-004
,,,-7.17500000e-009,2.04687980e-004
,,,-7.15000000e-009,2.02344230e-004
,,,-7.12500000e-009,2.00000480e-004
,,,-7.10000000e-009,1.99219230e-004
,,,-7.07500000e-009,2.00000480e-004
,,,-7.05000000e-009,1.96875480e-004
,,,-7.02500000e-009,1.96094230e-004
,,,-7.00000000e-009,1.97656730e-004
,,,-6.97500000e-009,2.00000480e-004
,,,-6.95000000e-009,2.03125480e-004
,,,-6.92500000e-009,2.04687980e-004
,,,-6.90000000e-009,2.03906730e-004
,,,-6.87500000e-009,2.00000480e-004
,,,-6.85000000e-009,1.86719229e-004
,,,-6.82500000e-009,1.70312978e-004
,,,-6.80000000e-009,1.49219226e-004
,,,-6.77500000e-009,1.24219224e-004
,,,-6.75000000e-009,9.60942225e-005
,,,-6.72500000e-009,6.56254703e-005
,,,-6.70000000e-009,3.28129680e-005
,,,-6.67500000e-009,4.65661287e-010
,,,-6.65000000e-009,-3.59370369e-005
,,,-6.62500000e-009,-7.10932894e-005
,,,-6.60000000e-009,-1.02343292e-004
,,,-6.57500000e-009,-1.31249544e-004
,,,-6.55000000e-009,-1.55468295e-004
,,,-6.52500000e-009,-1.74999547e-004
,,,-6.50000000e-009,-1.89843298e-004
,,,-6.47500000e-009,-1.99999548e-004
,,,-6.45000000e-009,-2.04687049e-004
,,,-6.42500000e-009,-2.05468299e-004
,,,-6.40000000e-009,-2.03905799e-004
,,,-6.37500000e-009,-2.01562049e-004
,,,-6.35000000e-009,-1.98437048e-004
,,,-6.32500000e-009,-1.97655798e-004
,,,-6.30000000e-009,-1.97655798e-004
,,,-6.27500000e-009,-1.99999548e-004
,,,-6.25000000e-009,-2.03124549e-004
,,,-6.22500000e-009,-2.07812049e-004
,,,-6.20000000e-009,-2.12499549e-004
,,,-6.17500000e-009,-2.16405800e-004
,,,-6.15000000e-009,-2.17968300e-004
,,,-6.12500000e-009,-2.16405800e-004
,,,-6.10000000e-009,-2.10155799e-004
,,,-6.07500000e-009,-1.99999548e-004
,,,-6.05000000e-009,-1.85155797e-004
,,,-6.02500000e-009,-1.68749546e-004
,,,-6.00000000e-009,-1.54687045e-004
,,,-5.97500000e-009,-1.45312045e-004
,,,-5.95000000e-009,-1.43749545e-004
,,,-5.92500000e-009,-1.52343295e-004
,,,-5.90000000e-009,-1.71093296e-004
,,,-5.87500000e-009,-1.99999548e-004
,,,-5.85000000e-009,-2.37499551e-004
,,,-5.82500000e-009,-2.79687054e-004
,,,-5.80000000e-009,-3.23437057e-004
,,,-5.77500000e-009,-3.64062060e-004
,,,-5.75000000e-009,-3.96093312e-004
,,,-5.72500000e-009,-4.14843314e-004
,,,-5.70000000e-009,-4.17187064e-004
,,,-5.67500000e-009,-3.99999563e-004
,,,-5.65000000e-009,-3.63280810e-004
,,,-5.62500000e-009,-3.11718306e-004
,,,-5.60000000e-009,-2.49999552e-004
,,,-5.57500000e-009,-1.84374547e-004
,,,-5.55000000e-009,-1.21093293e-004
,,,-5.52500000e-009,-6.56245390e-005
,,,-5.50000000e-009,-2.42182861e-005
,,,-5.47500000e-009,4.65661287e-010
,,,-5.45000000e-009,2.34421583e-006
,,,-5.42500000e-009,-1.32807853e-005
,,,-5.40000000e-009,-4.21870373e-005
,,,-5.37500000e-009,-7.96870400e-005
,,,-5.35000000e-009,-1.20312043e-004
,,,-5.32500000e-009,-1.57812046e-004
,,,-5.30000000e-009,-1.85155797e-004
,,,-5.27500000e-009,-1.99999548e-004
,,,-5.25000000e-009,-1.99999548e-004
,,,-5.22500000e-009,-1.84374547e-004
,,,-5.20000000e-009,-1.57030795e-004
,,,-5.17500000e-009,-1.21093293e-004
,,,-5.15000000e-009,-8.20307901e-005
,,,-5.12500000e-009,-4.60932876e-005
,,,-5.10000000e-009,-1.71870356e-005
,,,-5.07500000e-009,4.65661287e-010
,,,-5.05000000e-009,7.81715717e-007
,,,-5.02500000e-009,-1.17182852e-005
,,,-5.00000000e-009,-3.59370369e-005
,,,-4.97500000e-009,-6.87495392e-005
,,,-4.95000000e-009,-1.06249542e-004
,,,-4.92500000e-009,-1.42968294e-004
,,,-4.90000000e-009,-1.75780797e-004
,,,-4.87500000e-009,-1.99999548e-004
,,,-4.85000000e-009,-2.15624550e-004
,,,-4.82500000e-009,-2.21093300e-004
,,,-4.80000000e-009,-2.18749550e-004
,,,-4.77500000e-009,-2.11718299e-004
,,,-4.75000000e-009,-2.02343299e-004
,,,-4.72500000e-009,-1.95312048e-004
,,,-4.70000000e-009,-1.93749548e-004
,,,-4.67500000e-009,-1.99999548e-004
,,,-4.65000000e-009,-2.16405800e-004
,,,-4.62500000e-009,-2.40624551e-004
,,,-4.60000000e-009,-2.71093304e-004
,,,-4.57500000e-009,-3.04687056e-004
,,,-4.55000000e-009,-3.37499558e-004
,,,-4.52500000e-009,-3.67187060e-004
,,,-4.50000000e-009,-3.88280812e-004
,,,-4.47500000e-009,-3.99999563e-004
,,,-4.45000000e-009,-3.96874562e-004
,,,-4.42500000e-009,-3.82812061e-004
,,,-4.40000000e-009,-3.59374560e-004
,,,-4.37500000e-009,-3.28124558e-004
,,,-4.35000000e-009,-2.93749555e-004
,,,-4.32500000e-009,-2.59374553e-004
,,,-4.30000000e-009,-2.27343300e-004
,,,-4.27500000e-009,-1.99999548e-004
,,,-4.25000000e-009,-1.80468297e-004
,,,-4.22500000e-009,-1.67968296e-004
,,,-4.20000000e-009,-1.63280796e-004
,,,-4.17500000e-009,-1.65624546e-004
,,,-4.15000000e-009,-1.71874547e-004
,,,-4.12500000e-009,-1.81249547e-004
,,,-4.10000000e-009,-1.91405798e-004
,,,-4.07500000e-009,-1.99999548e-004
,,,-4.05000000e-009,-2.03905799e-004
,,,-4.02500000e-009,-2.05468299e-004
,,,-4.00000000e-009,-2.03905799e-004
,,,-3.97500000e-009,-2.01562049e-004
,,,-3.95000000e-009,-1.98437048e-004
,,,-3.92500000e-009,-1.96874548e-004
,,,-3.90000000e-009,-1.96874548e-004
,,,-3.87500000e-009,-1.99999548e-004
,,,-3.85000000e-009,-2.06249549e-004
,,,-3.82500000e-009,-2.14062049e-004
,,,-3.80000000e-009,-2.21874550e-004
,,,-3.77500000e-009,-2.27343300e-004
,,,-3.75000000e-009,-2.30468301e-004
,,,-3.72500000e-009,-2.27343300e-004
,,,-3.70000000e-009,-2.17187050e-004
,,,-3.67500000e-009,-1.99999548e-004
,,,-3.65000000e-009,-1.74999547e-004
,,,-3.62500000e-009,-1.43749545e-004
,,,-3.60000000e-009,-1.10155792e-004
,,,-3.57500000e-009,-7.65620398e-005
,,,-3.55000000e-009,-4.60932876e-005
,,,-3.52500000e-009,-2.26557859e-005
,,,-3.50000000e-009,-7.03078484e-006
,,,-3.47500000e-009,4.65661287e-010
,,,-3.45000000e-009,-4.68703467e-006
,,,-3.42500000e-009,-1.56245354e-005
,,,-3.40000000e-009,-2.81245363e-005
,,,-3.37500000e-009,-3.98432872e-005
,,,-3.35000000e-009,-4.53120375e-005
,,,-3.32500000e-009,-4.21870373e-005
,,,-3.30000000e-009,-2.73432863e-005
,,,-3.27500000e-009,4.65661287e-010
,,,-3.25000000e-009,3.67192183e-005
,,,-3.22500000e-009,8.12504714e-005
,,,-3.20000000e-009,1.28125475e-004
,,,-3.17500000e-009,1.71094228e-004
,,,-3.15000000e-009,2.04687980e-004
,,,-3.12500000e-009,2.23437981e-004
,,,-3.10000000e-009,2.21875481e-004
,,,-3.07500000e-009,2.00000480e-004
,,,-3.05000000e-009,1.55469227e-004
,,,-3.02500000e-009,9.53129724e-005
,,,-3.00000000e-009,2.65629675e-005
,,,-2.97500000e-009,-4.45307875e-005
,,,-2.95000000e-009,-1.10155792e-004
,,,-2.92500000e-009,-1.61718296e-004
,,,-2.90000000e-009,-1.92968298e-004
,,,-2.87500000e-009,-1.99999548e-004
,,,-2.85000000e-009,-1.79687047e-004
,,,-2.82500000e-009,-1.35937044e-004
,,,-2.80000000e-009,-7.49995396e-005
,,,-2.77500000e-009,-4.68703467e-006
,,,-2.75000000e-009,6.64067204e-005
,,,-2.72500000e-009,1.28906725e-004
,,,-2.70000000e-009,1.75781728e-004
,,,-2.67500000e-009,2.00000480e-004
,,,-2.65000000e-009,1.95312979e-004
,,,-2.62500000e-009,1.67187977e-004
,,,-2.60000000e-009,1.17187974e-004
,,,-2.57500000e-009,5.31254694e-005
,,,-2.55000000e-009,-1.87495357e-005
,,,-2.52500000e-009,-8.98432907e-005
,,,-2.50000000e-009,-1.52343295e-004
,,,-2.47500000e-009,-1.99999548e-004
,,,-2.45000000e-009,-2.26562050e-004
,,,-2.42500000e-009,-2.32030801e-004
,,,-2.40000000e-009,-2.17968300e-004
,,,-2.37500000e-009,-1.87499548e-004
,,,-2.35000000e-009,-1.45312045e-004
,,,-2.32500000e-009,-9.68745412e-005
,,,-2.30000000e-009,-4.68745377e-005
,,,-2.27500000e-009,4.65661287e-010
,,,-2.25000000e-009,3.82817184e-005
,,,-2.22500000e-009,6.95317206e-005
,,,-2.20000000e-009,9.29692222e-005
,,,-2.17500000e-009,1.11719224e-004
,,,-2.15000000e-009,1.28125475e-004
,,,-2.12500000e-009,1.46875476e-004
,,,-2.10000000e-009,1.70312978e-004
,,,-2.07500000e-009,2.00000480e-004
,,,-2.05000000e-009,2.33594232e-004
,,,-2.02500000e-009,2.71094235e-004
,,,-2.00000000e-009,3.10937988e-004
,,,-1.97500000e-009,3.48437990e-004
,,,-1.95000000e-009,3.79687993e-004
,,,-1.92500000e-009,4.00781744e-004
,,,-1.90000000e-009,4.07812995e-004
,,,-1.87500000e-009,4.00000494e-004
,,,-1.85000000e-009,3.67969242e-004
,,,-1.82500000e-009,3.21875488e-004
,,,-1.80000000e-009,2.65625484e-004
,,,-1.77500000e-009,2.03906730e-004
,,,-1.75000000e-009,1.41406726e-004
,,,-1.72500000e-009,8.35942216e-005
,,,-1.70000000e-009,3.51567181e-005
,,,-1.67500000e-009,4.65661287e-010
,,,-1.65000000e-009,-2.73432863e-005
,,,-1.62500000e-009,-4.06245372e-005
,,,-1.60000000e-009,-4.29682874e-005
,,,-1.57500000e-009,-3.74995370e-005
,,,-1.55000000e-009,-2.57807862e-005
,,,-1.52500000e-009,-1.40620353e-005
,,,-1.50000000e-009,-4.68703467e-006
,,,-1.47500000e-009,4.65661287e-010
,,,-1.45000000e-009,-1.40620353e-005
,,,-1.42500000e-009,-3.74995370e-005
,,,-1.40000000e-009,-6.71870391e-005
,,,-1.37500000e-009,-9.99995414e-005
,,,-1.35000000e-009,-1.33593294e-004
,,,-1.32500000e-009,-1.64062046e-004
,,,-1.30000000e-009,-1.86718298e-004
,,,-1.27500000e-009,-1.99999548e-004
,,,-1.25000000e-009,-2.18749550e-004
,,,-1.22500000e-009,-2.29687051e-004
,,,-1.20000000e-009,-2.33593301e-004
,,,-1.17500000e-009,-2.31249551e-004
,,,-1.15000000e-009,-2.24218300e-004
,,,-1.12500000e-009,-2.14843300e-004
,,,-1.10000000e-009,-2.06249549e-004
,,,-1.07500000e-009,-1.99999548e-004
,,,-1.05000000e-009,-2.21093300e-004
,,,-1.02500000e-009,-2.53124552e-004
,,,-1.00000000e-009,-2.96093305e-004
,,,-9.75000000e-010,-3.48437059e-004
,,,-9.50000000e-010,-4.07812063e-004
,,,-9.25000000e-010,-4.71093318e-004
,,,-9.00000000e-010,-5.35937072e-004
,,,-8.75000000e-010,-5.99999577e-004
,,,-8.50000000e-010,-6.84374583e-004
,,,-8.25000000e-010,-7.70312089e-004
,,,-8.00000000e-010,-8.54687095e-004
,,,-7.75000000e-010,-9.35937101e-004
,,,-7.50000000e-010,-1.01171836e-003
,,,-7.25000000e-010,-1.08046836e-003
,,,-7.00000000e-010,-1.14296837e-003
,,,-6.75000000e-010,-1.19999962e-003
,,,-6.50000000e-010,-1.27499962e-003
,,,-6.25000000e-010,-1.35468713e-003
,,,-6.00000000e-010,-1.44062464e-003
,,,-5.75000000e-010,-1.53437464e-003
,,,-5.50000000e-010,-1.63593715e-003
,,,-5.25000000e-010,-1.74765591e-003
,,,-5.00000000e-010,-1.86874967e-003
,,,-4.75000000e-010,-1.99999968e-003
,,,-4.50000000e-010,-2.15624969e-003
,,,-4.25000000e-010,-2.32499970e-003
,,,-4.00000000e-010,-2.50390596e-003
,,,-3.75000000e-010,-2.68828097e-003
,,,-3.50000000e-010,-2.87343724e-003
,,,-3.25000000e-010,-3.05624975e-003
,,,-3.00000000e-010,-3.23281226e-003
,,,-2.75000000e-010,-3.39999977e-003
,,,-2.50000000e-010,-3.56093729e-003
,,,-2.25000000e-010,-3.71562480e-003
,,,-2.00000000e-010,-3.86640606e-003
,,,-1.75000000e-010,-4.01406232e-003
,,,-1.50000000e-010,-4.16015608e-003
,,,-1.25000000e-010,-4.30546859e-003
,,,-1.00000000e-010,-4.45234360e-003
,,,-7.50000000e-011,-4.59999986e-003
,,,-5.00000000e-011,-4.73828112e-003
,,,-2.50000000e-011,-4.88281238e-003
,,,0.00000000e+000,-5.03359364e-003
,,,2.50000000e-011,-5.18984365e-003
,,,5.00000000e-011,-5.34765616e-003
,,,7.50000000e-011,-5.50468742e-003
,,,1.00000000e-010,-5.65624993e-003
,,,1.25000000e-010,-5.79999994e-003
,,,1.50000000e-010,-5.90859370e-003
,,,1.75000000e-010,-6.00859371e-003
,,,2.00000000e-010,-6.09765622e-003
,,,2.25000000e-010,-6.17812497e-003
,,,2.50000000e-010,-6.24843748e-003
,,,2.75000000e-010,-6.30859373e-003
,,,3.00000000e-010,-6.35859373e-003
,,,3.25000000e-010,-6.39999999e-003
,,,3.50000000e-010,-6.40624999e-003
,,,3.75000000e-010,-6.41171874e-003
,,,4.00000000e-010,-6.42187499e-003
,,,4.25000000e-010,-6.43984374e-003
,,,4.50000000e-010,-6.46640624e-003
,,,4.75000000e-010,-6.50312499e-003
,,,5.00000000e-010,-6.54843750e-003
,,,5.25000000e-010,-6.60000000e-003
,,,5.50000000e-010,-6.62421875e-003
,,,5.75000000e-010,-6.65000001e-003
,,,6.00000000e-010,-6.67421876e-003
,,,6.25000000e-010,-6.69140626e-003
,,,6.50000000e-010,-6.69687501e-003
,,,6.75000000e-010,-6.68593751e-003
,,,7.00000000e-010,-6.65468751e-003
,,,7.25000000e-010,-6.60000000e-003
,,,7.50000000e-010,-6.49531249e-003
,,,7.75000000e-010,-6.37187499e-003
,,,8.00000000e-010,-6.23593748e-003
,,,8.25000000e-010,-6.09453122e-003
,,,8.50000000e-010,-5.95468746e-003
,,,8.75000000e-010,-5.82187495e-003
,,,9.00000000e-010,-5.70312494e-003
,,,9.25000000e-010,-5.59999993e-003
,,,9.50000000e-010,-5.50234367e-003
,,,9.75000000e-010,-5.42421867e-003
,,,1.00000000e-009,-5.36406241e-003
,,,1.02500000e-009,-5.32031241e-003
,,,1.05000000e-009,-5.28671866e-003
,,,1.07500000e-009,-5.25859366e-003
,,,1.10000000e-009,-5.23124990e-003
,,,1.12500000e-009,-5.19999990e-003
,,,1.15000000e-009,-5.15312490e-003
,,,1.17500000e-009,-5.09453114e-003
,,,1.20000000e-009,-5.02499989e-003
,,,1.22500000e-009,-4.94609363e-003
,,,1.25000000e-009,-4.86093738e-003
,,,1.27500000e-009,-4.77265612e-003
,,,1.30000000e-009,-4.68515612e-003
,,,1.32500000e-009,-4.59999986e-003
,,,1.35000000e-009,-4.51953110e-003
,,,1.37500000e-009,-4.44062485e-003
,,,1.40000000e-009,-4.36562484e-003
,,,1.42500000e-009,-4.29218734e-003
,,,1.45000000e-009,-4.21953108e-003
,,,1.47500000e-009,-4.14765608e-003
,,,1.50000000e-009,-4.07499982e-003
,,,1.52500000e-009,-3.99999982e-003
,,,1.55000000e-009,-3.92734356e-003
,,,1.57500000e-009,-3.84999981e-003
,,,1.60000000e-009,-3.76874980e-003
,,,1.62500000e-009,-3.68593730e-003
,,,1.65000000e-009,-3.60546854e-003
,,,1.67500000e-009,-3.52890603e-003
,,,1.70000000e-009,-3.46015603e-003
,,,1.72500000e-009,-3.39999977e-003
,,,1.75000000e-009,-3.35859352e-003
,,,1.77500000e-009,-3.32265602e-003
,,,1.80000000e-009,-3.29296852e-003
,,,1.82500000e-009,-3.26796852e-003
,,,1.85000000e-009,-3.24765601e-003
,,,1.87500000e-009,-3.22968726e-003
,,,1.90000000e-009,-3.21484351e-003
,,,1.92500000e-009,-3.19999976e-003
,,,1.95000000e-009,-3.19062476e-003
,,,1.97500000e-009,-3.17578101e-003
,,,2.00000000e-009,-3.15546851e-003
,,,2.02500000e-009,-3.13046851e-003
,,,2.05000000e-009,-3.10078100e-003
,,,2.07500000e-009,-3.06874975e-003
,,,2.10000000e-009,-3.03437475e-003
,,,2.12500000e-009,-2.99999975e-003
,,,2.15000000e-009,-2.97109349e-003
,,,2.17500000e-009,-2.94062474e-003
,,,2.20000000e-009,-2.91093724e-003
,,,2.22500000e-009,-2.88203099e-003
,,,2.25000000e-009,-2.85624974e-003
,,,2.27500000e-009,-2.83359348e-003
,,,2.30000000e-009,-2.81562473e-003
,,,2.32500000e-009,-2.79999973e-003
,,,2.35000000e-009,-2.78906223e-003
,,,2.37500000e-009,-2.77656223e-003
,,,2.40000000e-009,-2.76015598e-003
,,,2.42500000e-009,-2.73984348e-003
,,,2.45000000e-009,-2.71406223e-003
,,,2.47500000e-009,-2.68203097e-003
,,,2.50000000e-009,-2.64374972e-003
,,,2.52500000e-009,-2.59999972e-003
,,,2.55000000e-009,-2.55156221e-003
,,,2.57500000e-009,-2.49687471e-003
,,,2.60000000e-009,-2.43906221e-003
,,,2.62500000e-009,-2.38046845e-003
,,,2.65000000e-009,-2.32499970e-003
,,,2.67500000e-009,-2.27499970e-003
,,,2.70000000e-009,-2.23281219e-003
,,,2.72500000e-009,-2.19999969e-003
,,,2.75000000e-009,-2.17968719e-003
,,,2.77500000e-009,-2.16874969e-003
,,,2.80000000e-009,-2.16484344e-003
,,,2.82500000e-009,-2.16796844e-003
,,,2.85000000e-009,-2.17499969e-003
,,,2.87500000e-009,-2.18437469e-003
,,,2.90000000e-009,-2.19374969e-003
,,,2.92500000e-009,-2.19999969e-003
,,,2.95000000e-009,-2.20078094e-003
,,,2.97500000e-009,-2.19296844e-003
,,,3.00000000e-009,-2.17656219e-003
,,,3.02500000e-009,-2.15234344e-003
,,,3.05000000e-009,-2.12109343e-003
,,,3.07500000e-009,-2.08515593e-003
,,,3.10000000e-009,-2.04374968e-003
,,,3.12500000e-009,-1.99999968e-003
,,,3.15000000e-009,-1.95312467e-003
,,,3.17500000e-009,-1.90390592e-003
,,,3.20000000e-009,-1.85234342e-003
,,,3.22500000e-009,-1.80078091e-003
,,,3.25000000e-009,-1.74843716e-003
,,,3.27500000e-009,-1.69687465e-003
,,,3.30000000e-009,-1.64765590e-003
,,,3.32500000e-009,-1.59999965e-003
,,,3.35000000e-009,-1.55859339e-003
,,,3.37500000e-009,-1.51953089e-003
,,,3.40000000e-009,-1.48515589e-003
,,,3.42500000e-009,-1.45468714e-003
,,,3.45000000e-009,-1.43124964e-003
,,,3.47500000e-009,-1.41406213e-003
,,,3.50000000e-009,-1.40390588e-003
,,,3.52500000e-009,-1.39999963e-003
,,,3.55000000e-009,-1.40546838e-003
,,,3.57500000e-009,-1.41328088e-003
,,,3.60000000e-009,-1.42109338e-003
,,,3.62500000e-009,-1.42812464e-003
,,,3.65000000e-009,-1.43046839e-003
,,,3.67500000e-009,-1.42812464e-003
,,,3.70000000e-009,-1.41796838e-003
,,,3.72500000e-009,-1.39999963e-003
,,,3.75000000e-009,-1.37265588e-003
,,,3.77500000e-009,-1.33593713e-003
,,,3.80000000e-009,-1.28984338e-003
,,,3.82500000e-009,-1.23671837e-003
,,,3.85000000e-009,-1.17812462e-003
,,,3.87500000e-009,-1.11796836e-003
,,,3.90000000e-009,-1.05781211e-003
,,,3.92500000e-009,-9.99999605e-004
,,,3.95000000e-009,-9.50780852e-004
,,,3.97500000e-009,-9.07030849e-004
,,,4.00000000e-009,-8.69530846e-004
,,,4.02500000e-009,-8.39843344e-004
,,,4.05000000e-009,-8.17968342e-004
,,,4.07500000e-009,-8.03905841e-004
,,,4.10000000e-009,-7.98437091e-004
,,,4.12500000e-009,-7.99999591e-004
,,,4.15000000e-009,-8.14843342e-004
,,,4.17500000e-009,-8.33593343e-004
,,,4.20000000e-009,-8.57030845e-004
,,,4.22500000e-009,-8.83593347e-004
,,,4.25000000e-009,-9.11718349e-004
,,,4.27500000e-009,-9.41405851e-004
,,,4.30000000e-009,-9.71093353e-004
,,,4.32500000e-009,-9.99999605e-004
,,,4.35000000e-009,-1.02656211e-003
,,,4.37500000e-009,-1.04765586e-003
,,,4.40000000e-009,-1.06171836e-003
,,,4.42500000e-009,-1.06796836e-003
,,,4.45000000e-009,-1.06484336e-003
,,,4.47500000e-009,-1.05312461e-003
,,,4.50000000e-009,-1.03124961e-003
,,,4.52500000e-009,-9.99999605e-004
,,,4.55000000e-009,-9.60937102e-004
,,,4.57500000e-009,-9.14843349e-004
,,,4.60000000e-009,-8.62499595e-004
,,,4.62500000e-009,-8.07030841e-004
,,,4.65000000e-009,-7.50780837e-004
,,,4.67500000e-009,-6.96093334e-004
,,,4.70000000e-009,-6.45312080e-004
,,,4.72500000e-009,-5.99999577e-004
,,,4.75000000e-009,-5.66405824e-004
,,,4.77500000e-009,-5.40624573e-004
,,,4.80000000e-009,-5.25780822e-004
,,,4.82500000e-009,-5.21093321e-004
,,,4.85000000e-009,-5.26562072e-004
,,,4.87500000e-009,-5.42968323e-004
,,,4.90000000e-009,-5.67968325e-004
,,,4.92500000e-009,-5.99999577e-004
,,,4.95000000e-009,-6.36718329e-004
,,,4.97500000e-009,-6.74218332e-004
,,,5.00000000e-009,-7.10155835e-004
,,,5.02500000e-009,-7.42187087e-004
,,,5.05000000e-009,-7.68749589e-004
,,,5.07500000e-009,-7.88280840e-004
,,,5.10000000e-009,-7.99218341e-004
,,,5.12500000e-009,-7.99999591e-004
,,,5.15000000e-009,-7.88280840e-004
,,,5.17500000e-009,-7.67187089e-004
,,,5.20000000e-009,-7.39843337e-004
,,,5.22500000e-009,-7.08593334e-004
,,,5.25000000e-009,-6.76562082e-004
,,,5.27500000e-009,-6.46874580e-004
,,,5.30000000e-009,-6.20312078e-004
,,,5.32500000e-009,-5.99999577e-004
,,,5.35000000e-009,-5.84374576e-004
,,,5.37500000e-009,-5.74218325e-004
,,,5.40000000e-009,-5.70312075e-004
,,,5.42500000e-009,-5.71874575e-004
,,,5.45000000e-009,-5.77343325e-004
,,,5.47500000e-009,-5.85155826e-004
,,,5.50000000e-009,-5.93749576e-004
,,,5.52500000e-009,-5.99999577e-004
,,,5.55000000e-009,-6.00780827e-004
,,,5.57500000e-009,-5.95312076e-004
,,,5.60000000e-009,-5.81249575e-004
,,,5.62500000e-009,-5.60155824e-004
,,,5.65000000e-009,-5.30468322e-004
,,,5.67500000e-009,-4.92968319e-004
,,,5.70000000e-009,-4.49218316e-004
,,,5.72500000e-009,-3.99999563e-004
,,,5.75000000e-009,-3.46093309e-004
,,,5.77500000e-009,-2.90624555e-004
,,,5.80000000e-009,-2.34374551e-004
,,,5.82500000e-009,-1.79687047e-004
,,,5.85000000e-009,-1.28124543e-004
,,,5.87500000e-009,-8.04682900e-005
