RawData/DifferentLengths/L4/L4_50_5mV/wave024_Ch2.csv

"Record Length",1000,"Points",-7.72500000e-009,1.53906727e-004
"Sample Interval",2.50000000e-011,s,-7.70000000e-009,2.17187981e-004
"Trigger Point",309,"Samples",-7.67500000e-009,2.82031736e-004
"Trigger Time",2.40200000e-011,s,-7.65000000e-009,3.43750490e-004
"",,,-7.62500000e-009,4.00000494e-004
"Horizontal Offset",-7.72500000e-009,s,-7.60000000e-009,4.49219247e-004
,,,-7.57500000e-009,4.88281750e-004
,,,-7.55000000e-009,5.17969252e-004
,,,-7.52500000e-009,5.39063004e-004
,,,-7.50000000e-009,5.54688005e-004
,,,-7.47500000e-009,5.67969256e-004
,,,-7.45000000e-009,5.82031757e-004
,,,-7.42500000e-009,6.00000508e-004
,,,-7.40000000e-009,6.20313010e-004
,,,-7.37500000e-009,6.45313011e-004
,,,-7.35000000e-009,6.74219263e-004
,,,-7.32500000e-009,7.04688016e-004
,,,-7.30000000e-009,7.34375518e-004
,,,-7.27500000e-009,7.61719270e-004
,,,-7.25000000e-009,7.83594271e-004
,,,-7.22500000e-009,8.00000522e-004
,,,-7.20000000e-009,8.03125523e-004
,,,-7.17500000e-009,8.00781772e-004
,,,-7.15000000e-009,7.95313022e-004
,,,-7.12500000e-009,7.88281771e-004
,,,-7.10000000e-009,7.82813021e-004
,,,-7.07500000e-009,7.82031771e-004
,,,-7.05000000e-009,7.86719271e-004
,,,-7.02500000e-009,8.00000522e-004
,,,-7.00000000e-009,8.16406773e-004
,,,-6.97500000e-009,8.39844275e-004
,,,-6.95000000e-009,8.68750527e-004
,,,-6.92500000e-009,9.00781779e-004
,,,-6.90000000e-009,9.33594282e-004
,,,-6.87500000e-009,9.62500534e-004
,,,-6.85000000e-009,9.85156785e-004
,,,-6.82500000e-009,1.00000054e-003
,,,-6.80000000e-009,9.96875536e-004
,,,-6.77500000e-009,9.84375535e-004
,,,-6.75000000e-009,9.64063034e-004
,,,-6.72500000e-009,9.35938032e-004
,,,-6.70000000e-009,9.03906780e-004
,,,-6.67500000e-009,8.68750527e-004
,,,-6.65000000e-009,8.33594275e-004
,,,-6.62500000e-009,8.00000522e-004
,,,-6.60000000e-009,7.64063020e-004
,,,-6.57500000e-009,7.32813018e-004
,,,-6.55000000e-009,7.04688016e-004
,,,-6.52500000e-009,6.80469264e-004
,,,-6.50000000e-009,6.59375512e-004
,,,-6.47500000e-009,6.39844261e-004
,,,-6.45000000e-009,6.20313010e-004
,,,-6.42500000e-009,6.00000508e-004
,,,-6.40000000e-009,5.76563006e-004
,,,-6.37500000e-009,5.52344255e-004
,,,-6.35000000e-009,5.26563003e-004
,,,-6.32500000e-009,5.00000501e-004
,,,-6.30000000e-009,4.72656749e-004
,,,-6.27500000e-009,4.46094247e-004
,,,-6.25000000e-009,4.21094245e-004
,,,-6.22500000e-009,4.00000494e-004
,,,-6.20000000e-009,3.82812993e-004
,,,-6.17500000e-009,3.70312992e-004
,,,-6.15000000e-009,3.62500491e-004
,,,-6.12500000e-009,3.60156741e-004
,,,-6.10000000e-009,3.63281741e-004
,,,-6.07500000e-009,3.71875492e-004
,,,-6.05000000e-009,3.84375493e-004
,,,-6.02500000e-009,4.00000494e-004
,,,-6.00000000e-009,4.17969245e-004
,,,-5.97500000e-009,4.34375496e-004
,,,-5.95000000e-009,4.46875497e-004
,,,-5.92500000e-009,4.54687998e-004
,,,-5.90000000e-009,4.53906748e-004
,,,-5.87500000e-009,4.44531747e-004
,,,-5.85000000e-009,4.26562996e-004
,,,-5.82500000e-009,4.00000494e-004
,,,-5.80000000e-009,3.66406742e-004
,,,-5.77500000e-009,3.28125489e-004
,,,-5.75000000e-009,2.89062986e-004
,,,-5.72500000e-009,2.51562983e-004
,,,-5.70000000e-009,2.21094231e-004
,,,-5.67500000e-009,2.01562980e-004
,,,-5.65000000e-009,1.93750479e-004
,,,-5.62500000e-009,2.00000480e-004
,,,-5.60000000e-009,2.21094231e-004
,,,-5.57500000e-009,2.52344234e-004
,,,-5.55000000e-009,2.89062986e-004
,,,-5.52500000e-009,3.26562989e-004
,,,-5.50000000e-009,3.60937991e-004
,,,-5.47500000e-009,3.86719243e-004
,,,-5.45000000e-009,4.00000494e-004
,,,-5.42500000e-009,4.00000494e-004
,,,-5.40000000e-009,3.85156743e-004
,,,-5.37500000e-009,3.57812991e-004
,,,-5.35000000e-009,3.21875488e-004
,,,-5.32500000e-009,2.83594236e-004
,,,-5.30000000e-009,2.46875483e-004
,,,-5.27500000e-009,2.17969231e-004
,,,-5.25000000e-009,2.01562980e-004
,,,-5.22500000e-009,2.00000480e-004
,,,-5.20000000e-009,2.14062981e-004
,,,-5.17500000e-009,2.42187983e-004
,,,-5.15000000e-009,2.78906735e-004
,,,-5.12500000e-009,3.19531738e-004
,,,-5.10000000e-009,3.57031741e-004
,,,-5.07500000e-009,3.86719243e-004
,,,-5.05000000e-009,4.01562994e-004
,,,-5.02500000e-009,4.00000494e-004
,,,-5.00000000e-009,3.77344242e-004
,,,-4.97500000e-009,3.37500490e-004
,,,-4.95000000e-009,2.82812986e-004
,,,-4.92500000e-009,2.19531731e-004
,,,-4.90000000e-009,1.53125476e-004
,,,-4.87500000e-009,9.06254721e-005
,,,-4.85000000e-009,3.75004683e-005
,,,-4.82500000e-009,4.65661287e-010
,,,-4.80000000e-009,-1.79682856e-005
,,,-4.77500000e-009,-1.71870356e-005
,,,-4.75000000e-009,7.81715717e-007
,,,-4.72500000e-009,3.20317179e-005
,,,-4.70000000e-009,7.26567208e-005
,,,-4.67500000e-009,1.17187974e-004
,,,-4.65000000e-009,1.60937977e-004
,,,-4.62500000e-009,2.00000480e-004
,,,-4.60000000e-009,2.29687982e-004
,,,-4.57500000e-009,2.48437983e-004
,,,-4.55000000e-009,2.57031734e-004
,,,-4.52500000e-009,2.55469234e-004
,,,-4.50000000e-009,2.46094233e-004
,,,-4.47500000e-009,2.32031732e-004
,,,-4.45000000e-009,2.15625481e-004
,,,-4.42500000e-009,2.00000480e-004
,,,-4.40000000e-009,1.87500479e-004
,,,-4.37500000e-009,1.78906728e-004
,,,-4.35000000e-009,1.75000478e-004
,,,-4.32500000e-009,1.75781728e-004
,,,-4.30000000e-009,1.79687978e-004
,,,-4.27500000e-009,1.85937979e-004
,,,-4.25000000e-009,1.92969229e-004
,,,-4.22500000e-009,2.00000480e-004
,,,-4.20000000e-009,2.05469230e-004
,,,-4.17500000e-009,2.09375480e-004
,,,-4.15000000e-009,2.10937981e-004
,,,-4.12500000e-009,2.10937981e-004
,,,-4.10000000e-009,2.08594230e-004
,,,-4.07500000e-009,2.06250480e-004
,,,-4.05000000e-009,2.03125480e-004
,,,-4.02500000e-009,2.00000480e-004
,,,-4.00000000e-009,1.96875480e-004
,,,-3.97500000e-009,1.94531729e-004
,,,-3.95000000e-009,1.92969229e-004
,,,-3.92500000e-009,1.92969229e-004
,,,-3.90000000e-009,1.92969229e-004
,,,-3.87500000e-009,1.94531729e-004
,,,-3.85000000e-009,1.96875480e-004
,,,-3.82500000e-009,2.00000480e-004
,,,-3.80000000e-009,1.99219230e-004
,,,-3.77500000e-009,1.98437980e-004
,,,-3.75000000e-009,1.97656730e-004
,,,-3.72500000e-009,1.96875480e-004
,,,-3.70000000e-009,1.96875480e-004
,,,-3.67500000e-009,1.96875480e-004
,,,-3.65000000e-009,1.98437980e-004
,,,-3.62500000e-009,2.00000480e-004
,,,-3.60000000e-009,1.97656730e-004
,,,-3.57500000e-009,1.95312979e-004
,,,-3.55000000e-009,1.93750479e-004
,,,-3.52500000e-009,1.92969229e-004
,,,-3.50000000e-009,1.92187979e-004
,,,-3.47500000e-009,1.93750479e-004
,,,-3.45000000e-009,1.96094230e-004
,,,-3.42500000e-009,2.00000480e-004
,,,-3.40000000e-009,2.00781730e-004
,,,-3.37500000e-009,2.01562980e-004
,,,-3.35000000e-009,2.02344230e-004
,,,-3.32500000e-009,2.03906730e-004
,,,-3.30000000e-009,2.04687980e-004
,,,-3.27500000e-009,2.03906730e-004
,,,-3.25000000e-009,2.03125480e-004
,,,-3.22500000e-009,2.00000480e-004
,,,-3.20000000e-009,1.91406729e-004
,,,-3.17500000e-009,1.79687978e-004
,,,-3.15000000e-009,1.63281727e-004
,,,-3.12500000e-009,1.42187976e-004
,,,-3.10000000e-009,1.14844224e-004
,,,-3.07500000e-009,8.20317215e-005
,,,-3.05000000e-009,4.37504688e-005
,,,-3.02500000e-009,4.65661287e-010
,,,-3.00000000e-009,-4.84370378e-005
,,,-2.97500000e-009,-9.92182914e-005
,,,-2.95000000e-009,-1.52343295e-004
,,,-2.92500000e-009,-2.05468299e-004
,,,-2.90000000e-009,-2.58593303e-004
,,,-2.87500000e-009,-3.09374556e-004
,,,-2.85000000e-009,-3.57030810e-004
,,,-2.82500000e-009,-3.99999563e-004
,,,-2.80000000e-009,-4.34374565e-004
,,,-2.77500000e-009,-4.63280817e-004
,,,-2.75000000e-009,-4.89843319e-004
,,,-2.72500000e-009,-5.12499571e-004
,,,-2.70000000e-009,-5.35155822e-004
,,,-2.67500000e-009,-5.57030824e-004
,,,-2.65000000e-009,-5.78124575e-004
,,,-2.62500000e-009,-5.99999577e-004
,,,-2.60000000e-009,-6.14062078e-004
,,,-2.57500000e-009,-6.25780829e-004
,,,-2.55000000e-009,-6.35155829e-004
,,,-2.52500000e-009,-6.40624580e-004
,,,-2.50000000e-009,-6.41405830e-004
,,,-2.47500000e-009,-6.35937079e-004
,,,-2.45000000e-009,-6.22655828e-004
,,,-2.42500000e-009,-5.99999577e-004
,,,-2.40000000e-009,-5.61718324e-004
,,,-2.37500000e-009,-5.15624571e-004
,,,-2.35000000e-009,-4.64062067e-004
,,,-2.32500000e-009,-4.09374563e-004
,,,-2.30000000e-009,-3.53905809e-004
,,,-2.27500000e-009,-2.99218306e-004
,,,-2.25000000e-009,-2.46874552e-004
,,,-2.22500000e-009,-1.99999548e-004
,,,-2.20000000e-009,-1.59374546e-004
,,,-2.17500000e-009,-1.24999543e-004
,,,-2.15000000e-009,-9.76557913e-005
,,,-2.12500000e-009,-7.57807897e-005
,,,-2.10000000e-009,-5.62495383e-005
,,,-2.07500000e-009,-3.90620371e-005
,,,-2.05000000e-009,-2.03120358e-005
,,,-2.02500000e-009,4.65661287e-010
,,,-2.00000000e-009,1.79692169e-005
,,,-1.97500000e-009,3.82817184e-005
,,,-1.95000000e-009,6.09379700e-005
,,,-1.92500000e-009,8.59379717e-005
,,,-1.90000000e-009,1.12500474e-004
,,,-1.87500000e-009,1.41406726e-004
,,,-1.85000000e-009,1.70312978e-004
,,,-1.82500000e-009,2.00000480e-004
,,,-1.80000000e-009,2.17187981e-004
,,,-1.77500000e-009,2.33594232e-004
,,,-1.75000000e-009,2.50781733e-004
,,,-1.72500000e-009,2.71094235e-004
,,,-1.70000000e-009,2.95312987e-004
,,,-1.67500000e-009,3.25000489e-004
,,,-1.65000000e-009,3.60156741e-004
,,,-1.62500000e-009,4.00000494e-004
,,,-1.60000000e-009,4.23437996e-004
,,,-1.57500000e-009,4.46094247e-004
,,,-1.55000000e-009,4.64062999e-004
,,,-1.52500000e-009,4.75000499e-004
,,,-1.50000000e-009,4.76562999e-004
,,,-1.47500000e-009,4.66406749e-004
,,,-1.45000000e-009,4.40625497e-004
,,,-1.42500000e-009,4.00000494e-004
,,,-1.40000000e-009,3.19531738e-004
,,,-1.37500000e-009,2.23437981e-004
,,,-1.35000000e-009,1.16406724e-004
,,,-1.32500000e-009,3.90671594e-006
,,,-1.30000000e-009,-1.07812042e-004
,,,-1.27500000e-009,-2.14843300e-004
,,,-1.25000000e-009,-3.13280807e-004
,,,-1.22500000e-009,-3.99999563e-004
,,,-1.20000000e-009,-4.93749569e-004
,,,-1.17500000e-009,-5.77343325e-004
,,,-1.15000000e-009,-6.53905831e-004
,,,-1.12500000e-009,-7.23437086e-004
,,,-1.10000000e-009,-7.90624590e-004
,,,-1.07500000e-009,-8.57030845e-004
,,,-1.05000000e-009,-9.26562100e-004
,,,-1.02500000e-009,-9.99999605e-004
,,,-1.00000000e-009,-1.09531211e-003
,,,-9.75000000e-010,-1.19921837e-003
,,,-9.50000000e-010,-1.30937463e-003
,,,-9.25000000e-010,-1.42109338e-003
,,,-9.00000000e-010,-1.52968714e-003
,,,-8.75000000e-010,-1.63124965e-003
,,,-8.50000000e-010,-1.72187466e-003
,,,-8.25000000e-010,-1.79999966e-003
,,,-8.00000000e-010,-1.87421842e-003
,,,-7.75000000e-010,-1.94140592e-003
,,,-7.50000000e-010,-2.00468718e-003
,,,-7.25000000e-010,-2.06874968e-003
,,,-7.00000000e-010,-2.13671844e-003
,,,-6.75000000e-010,-2.21249969e-003
,,,-6.50000000e-010,-2.29921845e-003
,,,-6.25000000e-010,-2.39999970e-003
,,,-6.00000000e-010,-2.51718721e-003
,,,-5.75000000e-010,-2.65234347e-003
,,,-5.50000000e-010,-2.80234348e-003
,,,-5.25000000e-010,-2.96328099e-003
,,,-5.00000000e-010,-3.12968726e-003
,,,-4.75000000e-010,-3.29453102e-003
,,,-4.50000000e-010,-3.45312478e-003
,,,-4.25000000e-010,-3.59999979e-003
,,,-4.00000000e-010,-3.72421855e-003
,,,-3.75000000e-010,-3.83749981e-003
,,,-3.50000000e-010,-3.94218731e-003
,,,-3.25000000e-010,-4.03906232e-003
,,,-3.00000000e-010,-4.13203108e-003
,,,-2.75000000e-010,-4.22187483e-003
,,,-2.50000000e-010,-4.31093734e-003
,,,-2.25000000e-010,-4.39999985e-003
,,,-2.00000000e-010,-4.47421860e-003
,,,-1.75000000e-010,-4.55234361e-003
,,,-1.50000000e-010,-4.63359361e-003
,,,-1.25000000e-010,-4.71718737e-003
,,,-1.00000000e-010,-4.79843737e-003
,,,-7.50000000e-011,-4.87578113e-003
,,,-5.00000000e-011,-4.94374988e-003
,,,-2.50000000e-011,-4.99999989e-003
,,,0.00000000e+000,-5.02187489e-003
,,,2.50000000e-011,-5.03359364e-003
,,,5.00000000e-011,-5.03671864e-003
,,,7.50000000e-011,-5.03281239e-003
,,,1.00000000e-010,-5.02578114e-003
,,,1.25000000e-010,-5.01640614e-003
,,,1.50000000e-010,-5.00781239e-003
,,,1.75000000e-010,-4.99999989e-003
,,,2.00000000e-010,-4.97734364e-003
,,,2.25000000e-010,-4.96171864e-003
,,,2.50000000e-010,-4.95390613e-003
,,,2.75000000e-010,-4.95390613e-003
,,,3.00000000e-010,-4.96093739e-003
,,,3.25000000e-010,-4.97265614e-003
,,,3.50000000e-010,-4.98671864e-003
,,,3.75000000e-010,-4.99999989e-003
,,,4.00000000e-010,-4.99140614e-003
,,,4.25000000e-010,-4.97890614e-003
,,,4.50000000e-010,-4.96249989e-003
,,,4.75000000e-010,-4.94140613e-003
,,,5.00000000e-010,-4.91484363e-003
,,,5.25000000e-010,-4.88281238e-003
,,,5.50000000e-010,-4.84531238e-003
,,,5.75000000e-010,-4.79999987e-003
,,,6.00000000e-010,-4.73515612e-003
,,,6.25000000e-010,-4.66406236e-003
,,,6.50000000e-010,-4.58906236e-003
,,,6.75000000e-010,-4.51171860e-003
,,,7.00000000e-010,-4.43203110e-003
,,,7.25000000e-010,-4.35312484e-003
,,,7.50000000e-010,-4.27578109e-003
,,,7.75000000e-010,-4.19999983e-003
,,,8.00000000e-010,-4.12187483e-003
,,,8.25000000e-010,-4.04921857e-003
,,,8.50000000e-010,-3.98359357e-003
,,,8.75000000e-010,-3.92578106e-003
,,,9.00000000e-010,-3.87890606e-003
,,,9.25000000e-010,-3.84296856e-003
,,,9.50000000e-010,-3.81718730e-003
,,,9.75000000e-010,-3.79999980e-003
,,,1.00000000e-009,-3.78906230e-003
,,,1.02500000e-009,-3.77968730e-003
,,,1.05000000e-009,-3.76796855e-003
,,,1.07500000e-009,-3.75234355e-003
,,,1.10000000e-009,-3.72968730e-003
,,,1.12500000e-009,-3.69765605e-003
,,,1.15000000e-009,-3.65468729e-003
,,,1.17500000e-009,-3.59999979e-003
,,,1.20000000e-009,-3.53437478e-003
,,,1.22500000e-009,-3.45781228e-003
,,,1.25000000e-009,-3.37421852e-003
,,,1.27500000e-009,-3.28749977e-003
,,,1.30000000e-009,-3.20312476e-003
,,,1.32500000e-009,-3.12421851e-003
,,,1.35000000e-009,-3.05624975e-003
,,,1.37500000e-009,-2.99999975e-003
,,,1.40000000e-009,-2.96093724e-003
,,,1.42500000e-009,-2.93124974e-003
,,,1.45000000e-009,-2.90937474e-003
,,,1.47500000e-009,-2.89140599e-003
,,,1.50000000e-009,-2.87421849e-003
,,,1.52500000e-009,-2.85546849e-003
,,,1.55000000e-009,-2.83124973e-003
,,,1.57500000e-009,-2.79999973e-003
,,,1.60000000e-009,-2.76406223e-003
,,,1.62500000e-009,-2.71796848e-003
,,,1.65000000e-009,-2.66328097e-003
,,,1.67500000e-009,-2.60390597e-003
,,,1.70000000e-009,-2.54374971e-003
,,,1.72500000e-009,-2.48749971e-003
,,,1.75000000e-009,-2.43828096e-003
,,,1.77500000e-009,-2.39999970e-003
,,,1.80000000e-009,-2.37812470e-003
,,,1.82500000e-009,-2.36640595e-003
,,,1.85000000e-009,-2.36406220e-003
,,,1.87500000e-009,-2.36796845e-003
,,,1.90000000e-009,-2.37656220e-003
,,,1.92500000e-009,-2.38671845e-003
,,,1.95000000e-009,-2.39531220e-003
,,,1.97500000e-009,-2.39999970e-003
,,,2.00000000e-009,-2.40078095e-003
,,,2.02500000e-009,-2.39140595e-003
,,,2.05000000e-009,-2.37343720e-003
,,,2.07500000e-009,-2.34609345e-003
,,,2.10000000e-009,-2.31328095e-003
,,,2.12500000e-009,-2.27656220e-003
,,,2.15000000e-009,-2.23828094e-003
,,,2.17500000e-009,-2.19999969e-003
,,,2.20000000e-009,-2.16718719e-003
,,,2.22500000e-009,-2.13515594e-003
,,,2.25000000e-009,-2.10624968e-003
,,,2.27500000e-009,-2.07968718e-003
,,,2.30000000e-009,-2.05624968e-003
,,,2.32500000e-009,-2.03593718e-003
,,,2.35000000e-009,-2.01718718e-003
,,,2.37500000e-009,-1.99999968e-003
,,,2.40000000e-009,-1.98515592e-003
,,,2.42500000e-009,-1.96718717e-003
,,,2.45000000e-009,-1.94687467e-003
,,,2.47500000e-009,-1.92343717e-003
,,,2.50000000e-009,-1.89687467e-003
,,,2.52500000e-009,-1.86718717e-003
,,,2.55000000e-009,-1.83437466e-003
,,,2.57500000e-009,-1.79999966e-003
,,,2.60000000e-009,-1.76796841e-003
,,,2.62500000e-009,-1.73437466e-003
,,,2.65000000e-009,-1.70234340e-003
,,,2.67500000e-009,-1.67265590e-003
,,,2.70000000e-009,-1.64609340e-003
,,,2.72500000e-009,-1.62499965e-003
,,,2.75000000e-009,-1.60937465e-003
,,,2.77500000e-009,-1.59999965e-003
,,,2.80000000e-009,-1.59921840e-003
,,,2.82500000e-009,-1.60156215e-003
,,,2.85000000e-009,-1.60624965e-003
,,,2.87500000e-009,-1.61171840e-003
,,,2.90000000e-009,-1.61484340e-003
,,,2.92500000e-009,-1.61484340e-003
,,,2.95000000e-009,-1.61015590e-003
,,,2.97500000e-009,-1.59999965e-003
,,,3.00000000e-009,-1.58749965e-003
,,,3.02500000e-009,-1.56796840e-003
,,,3.05000000e-009,-1.54374964e-003
,,,3.07500000e-009,-1.51484339e-003
,,,3.10000000e-009,-1.48437464e-003
,,,3.12500000e-009,-1.45390589e-003
,,,3.15000000e-009,-1.42499964e-003
,,,3.17500000e-009,-1.39999963e-003
,,,3.20000000e-009,-1.38437463e-003
,,,3.22500000e-009,-1.37343713e-003
,,,3.25000000e-009,-1.36796838e-003
,,,3.27500000e-009,-1.36796838e-003
,,,3.30000000e-009,-1.37187463e-003
,,,3.32500000e-009,-1.37968713e-003
,,,3.35000000e-009,-1.38984338e-003
,,,3.37500000e-009,-1.39999963e-003
,,,3.40000000e-009,-1.41249963e-003
,,,3.42500000e-009,-1.42109338e-003
,,,3.45000000e-009,-1.42734339e-003
,,,3.47500000e-009,-1.42890589e-003
,,,3.50000000e-009,-1.42656214e-003
,,,3.52500000e-009,-1.42031213e-003
,,,3.55000000e-009,-1.41171838e-003
,,,3.57500000e-009,-1.39999963e-003
,,,3.60000000e-009,-1.38828088e-003
,,,3.62500000e-009,-1.37656213e-003
,,,3.65000000e-009,-1.36718713e-003
,,,3.67500000e-009,-1.36093713e-003
,,,3.70000000e-009,-1.36015588e-003
,,,3.72500000e-009,-1.36640588e-003
,,,3.75000000e-009,-1.37968713e-003
,,,3.77500000e-009,-1.39999963e-003
,,,3.80000000e-009,-1.42734339e-003
,,,3.82500000e-009,-1.45781214e-003
,,,3.85000000e-009,-1.49062464e-003
,,,3.87500000e-009,-1.52343714e-003
,,,3.90000000e-009,-1.55234339e-003
,,,3.92500000e-009,-1.57656215e-003
,,,3.95000000e-009,-1.59296840e-003
,,,3.97500000e-009,-1.59999965e-003
,,,4.00000000e-009,-1.59609340e-003
,,,4.02500000e-009,-1.58203090e-003
,,,4.05000000e-009,-1.56015589e-003
,,,4.07500000e-009,-1.53203089e-003
,,,4.10000000e-009,-1.49921839e-003
,,,4.12500000e-009,-1.46562464e-003
,,,4.15000000e-009,-1.43203089e-003
,,,4.17500000e-009,-1.39999963e-003
,,,4.20000000e-009,-1.37109338e-003
,,,4.22500000e-009,-1.34531213e-003
,,,4.25000000e-009,-1.32187463e-003
,,,4.27500000e-009,-1.29999963e-003
,,,4.30000000e-009,-1.27890587e-003
,,,4.32500000e-009,-1.25546837e-003
,,,4.35000000e-009,-1.22968712e-003
,,,4.37500000e-009,-1.19999962e-003
,,,4.40000000e-009,-1.16874962e-003
,,,4.42500000e-009,-1.13515586e-003
,,,4.45000000e-009,-1.10156211e-003
,,,4.47500000e-009,-1.06874961e-003
,,,4.50000000e-009,-1.04062461e-003
,,,4.52500000e-009,-1.01874961e-003
,,,4.55000000e-009,-1.00468711e-003
,,,4.57500000e-009,-9.99999605e-004
,,,4.60000000e-009,-1.00781211e-003
,,,4.62500000e-009,-1.02421836e-003
,,,4.65000000e-009,-1.04843711e-003
,,,4.67500000e-009,-1.07734336e-003
,,,4.70000000e-009,-1.11015586e-003
,,,4.72500000e-009,-1.14296837e-003
,,,4.75000000e-009,-1.17343712e-003
,,,4.77500000e-009,-1.19999962e-003
,,,4.80000000e-009,-1.22187462e-003
,,,4.82500000e-009,-1.23593712e-003
,,,4.85000000e-009,-1.24296837e-003
,,,4.87500000e-009,-1.24296837e-003
,,,4.90000000e-009,-1.23749962e-003
,,,4.92500000e-009,-1.22734337e-003
,,,4.95000000e-009,-1.21406212e-003
,,,4.97500000e-009,-1.19999962e-003
,,,5.00000000e-009,-1.18828087e-003
,,,5.02500000e-009,-1.17812462e-003
,,,5.05000000e-009,-1.17109337e-003
,,,5.07500000e-009,-1.16796837e-003
,,,5.10000000e-009,-1.16953087e-003
,,,5.12500000e-009,-1.17578087e-003
,,,5.15000000e-009,-1.18671837e-003
,,,5.17500000e-009,-1.19999962e-003
,,,5.20000000e-009,-1.21562462e-003
,,,5.22500000e-009,-1.22968712e-003
,,,5.25000000e-009,-1.24140587e-003
,,,5.27500000e-009,-1.24843712e-003
,,,5.30000000e-009,-1.24843712e-003
,,,5.32500000e-009,-1.24062462e-003
,,,5.35000000e-009,-1.22421837e-003
,,,5.37500000e-009,-1.19999962e-003
,,,5.40000000e-009,-1.16796837e-003
,,,5.42500000e-009,-1.13124961e-003
,,,5.45000000e-009,-1.09296836e-003
,,,5.47500000e-009,-1.05781211e-003
,,,5.50000000e-009,-1.02812461e-003
,,,5.52500000e-009,-1.00703086e-003
,,,5.55000000e-009,-9.97655855e-004
,,,5.57500000e-009,-9.99999605e-004
,,,5.60000000e-009,-1.01328086e-003
,,,5.62500000e-009,-1.03671836e-003
,,,5.65000000e-009,-1.06718711e-003
,,,5.67500000e-009,-1.10156211e-003
,,,5.70000000e-009,-1.13515586e-003
,,,5.72500000e-009,-1.16562462e-003
,,,5.75000000e-009,-1.18828087e-003
,,,5.77500000e-009,-1.19999962e-003
,,,5.80000000e-009,-1.19843712e-003
,,,5.82500000e-009,-1.18437462e-003
,,,5.85000000e-009,-1.16015587e-003
,,,5.87500000e-009,-1.12812461e-003
,,,5.90000000e-009,-1.09296836e-003
,,,5.92500000e-009,-1.05781211e-003
,,,5.95000000e-009,-1.02578086e-003
