RawData/DifferentLengths/L4/L4_50_5mV/wave008_Ch2.csv

"Record Length",1000,"Points",-7.72500000e-009,4.65661287e-010
"Sample Interval",2.50000000e-011,s,-7.70000000e-009,-5.46828473e-006
"Trigger Point",309,"Samples",-7.67500000e-009,-1.17182852e-005
"Trigger Time",2.59142857e-012,s,-7.65000000e-009,-1.71870356e-005
"",,,-7.62500000e-009,-2.10932858e-005
"Horizontal Offset",-7.72500000e-009,s,-7.60000000e-009,-2.18745359e-005
,,,-7.57500000e-009,-1.87495357e-005
,,,-7.55000000e-009,-1.17182852e-005
,,,-7.52500000e-009,4.65661287e-010
,,,-7.50000000e-009,1.56254668e-005
,,,-7.47500000e-009,3.20317179e-005
,,,-7.45000000e-009,4.60942189e-005
,,,-7.42500000e-009,5.54692196e-005
,,,-7.40000000e-009,5.70317197e-005
,,,-7.37500000e-009,4.84379691e-005
,,,-7.35000000e-009,2.96879678e-005
,,,-7.32500000e-009,4.65661287e-010
,,,-7.30000000e-009,-3.82807870e-005
,,,-7.27500000e-009,-8.04682900e-005
,,,-7.25000000e-009,-1.24218293e-004
,,,-7.22500000e-009,-1.64062046e-004
,,,-7.20000000e-009,-1.95312048e-004
,,,-7.17500000e-009,-2.14062049e-004
,,,-7.15000000e-009,-2.16405800e-004
,,,-7.12500000e-009,-1.99999548e-004
,,,-7.10000000e-009,-1.65624546e-004
,,,-7.07500000e-009,-1.15624543e-004
,,,-7.05000000e-009,-5.62495383e-005
,,,-7.02500000e-009,8.59421627e-006
,,,-7.00000000e-009,7.18754707e-005
,,,-6.97500000e-009,1.27344225e-004
,,,-6.95000000e-009,1.71875478e-004
,,,-6.92500000e-009,2.00000480e-004
,,,-6.90000000e-009,2.07812980e-004
,,,-6.87500000e-009,1.98437980e-004
,,,-6.85000000e-009,1.74219228e-004
,,,-6.82500000e-009,1.39844226e-004
,,,-6.80000000e-009,9.92192227e-005
,,,-6.77500000e-009,5.93754699e-005
,,,-6.75000000e-009,2.42192174e-005
,,,-6.72500000e-009,4.65661287e-010
,,,-6.70000000e-009,-1.24995352e-005
,,,-6.67500000e-009,-9.37453500e-006
,,,-6.65000000e-009,7.03171616e-006
,,,-6.62500000e-009,3.51567181e-005
,,,-6.60000000e-009,7.26567208e-005
,,,-6.57500000e-009,1.15625474e-004
,,,-6.55000000e-009,1.58594227e-004
,,,-6.52500000e-009,2.00000480e-004
,,,-6.50000000e-009,2.32031732e-004
,,,-6.47500000e-009,2.55469234e-004
,,,-6.45000000e-009,2.68750485e-004
,,,-6.42500000e-009,2.71094235e-004
,,,-6.40000000e-009,2.64062984e-004
,,,-6.37500000e-009,2.49219233e-004
,,,-6.35000000e-009,2.26562982e-004
,,,-6.32500000e-009,2.00000480e-004
,,,-6.30000000e-009,1.70312978e-004
,,,-6.27500000e-009,1.39844226e-004
,,,-6.25000000e-009,1.10937974e-004
,,,-6.22500000e-009,8.35942216e-005
,,,-6.20000000e-009,5.85942198e-005
,,,-6.17500000e-009,3.59379682e-005
,,,-6.15000000e-009,1.64067168e-005
,,,-6.12500000e-009,4.65661287e-010
,,,-6.10000000e-009,-1.32807853e-005
,,,-6.07500000e-009,-2.26557859e-005
,,,-6.05000000e-009,-2.73432863e-005
,,,-6.02500000e-009,-2.81245363e-005
,,,-6.00000000e-009,-2.57807862e-005
,,,-5.97500000e-009,-1.95307857e-005
,,,-5.95000000e-009,-1.09370351e-005
,,,-5.92500000e-009,4.65661287e-010
,,,-5.90000000e-009,1.09379664e-005
,,,-5.87500000e-009,2.18754672e-005
,,,-5.85000000e-009,2.96879678e-005
,,,-5.82500000e-009,3.28129680e-005
,,,-5.80000000e-009,3.20317179e-005
,,,-5.77500000e-009,2.57817175e-005
,,,-5.75000000e-009,1.48442167e-005
,,,-5.72500000e-009,4.65661287e-010
,,,-5.70000000e-009,-1.79682856e-005
,,,-5.67500000e-009,-3.59370369e-005
,,,-5.65000000e-009,-5.07807879e-005
,,,-5.62500000e-009,-6.01557886e-005
,,,-5.60000000e-009,-6.17182887e-005
,,,-5.57500000e-009,-5.31245381e-005
,,,-5.55000000e-009,-3.28120367e-005
,,,-5.52500000e-009,4.65661287e-010
,,,-5.50000000e-009,4.37504688e-005
,,,-5.47500000e-009,9.68754725e-005
,,,-5.45000000e-009,1.54687977e-004
,,,-5.42500000e-009,2.14844231e-004
,,,-5.40000000e-009,2.72656735e-004
,,,-5.37500000e-009,3.25781739e-004
,,,-5.35000000e-009,3.68750492e-004
,,,-5.32500000e-009,4.00000494e-004
,,,-5.30000000e-009,4.14844245e-004
,,,-5.27500000e-009,4.14844245e-004
,,,-5.25000000e-009,4.00781744e-004
,,,-5.22500000e-009,3.74219242e-004
,,,-5.20000000e-009,3.38281740e-004
,,,-5.17500000e-009,2.95312987e-004
,,,-5.15000000e-009,2.47656733e-004
,,,-5.12500000e-009,2.00000480e-004
,,,-5.10000000e-009,1.53125476e-004
,,,-5.07500000e-009,1.10937974e-004
,,,-5.05000000e-009,7.57817210e-005
,,,-5.02500000e-009,4.76567190e-005
,,,-5.00000000e-009,2.65629675e-005
,,,-4.97500000e-009,1.17192165e-005
,,,-4.95000000e-009,3.90671594e-006
,,,-4.92500000e-009,4.65661287e-010
,,,-4.90000000e-009,4.65661287e-010
,,,-4.87500000e-009,2.34421583e-006
,,,-4.85000000e-009,5.46921605e-006
,,,-4.82500000e-009,8.59421627e-006
,,,-4.80000000e-009,9.37546632e-006
,,,-4.77500000e-009,8.59421627e-006
,,,-4.75000000e-009,5.46921605e-006
,,,-4.72500000e-009,4.65661287e-010
,,,-4.70000000e-009,-6.24953478e-006
,,,-4.67500000e-009,-1.32807853e-005
,,,-4.65000000e-009,-1.87495357e-005
,,,-4.62500000e-009,-2.34370360e-005
,,,-4.60000000e-009,-2.42182861e-005
,,,-4.57500000e-009,-2.10932858e-005
,,,-4.55000000e-009,-1.32807853e-005
,,,-4.52500000e-009,4.65661287e-010
,,,-4.50000000e-009,1.87504670e-005
,,,-4.47500000e-009,4.29692187e-005
,,,-4.45000000e-009,6.95317206e-005
,,,-4.42500000e-009,9.84379726e-005
,,,-4.40000000e-009,1.28125475e-004
,,,-4.37500000e-009,1.55469227e-004
,,,-4.35000000e-009,1.79687978e-004
,,,-4.32500000e-009,2.00000480e-004
,,,-4.30000000e-009,2.14062981e-004
,,,-4.27500000e-009,2.22656731e-004
,,,-4.25000000e-009,2.25000482e-004
,,,-4.22500000e-009,2.23437981e-004
,,,-4.20000000e-009,2.18750481e-004
,,,-4.17500000e-009,2.12500481e-004
,,,-4.15000000e-009,2.05469230e-004
,,,-4.12500000e-009,2.00000480e-004
,,,-4.10000000e-009,1.95312979e-004
,,,-4.07500000e-009,1.93750479e-004
,,,-4.05000000e-009,1.93750479e-004
,,,-4.02500000e-009,1.95312979e-004
,,,-4.00000000e-009,1.97656730e-004
,,,-3.97500000e-009,1.99219230e-004
,,,-3.95000000e-009,2.00000480e-004
,,,-3.92500000e-009,2.00000480e-004
,,,-3.90000000e-009,1.95312979e-004
,,,-3.87500000e-009,1.89844229e-004
,,,-3.85000000e-009,1.84375479e-004
,,,-3.82500000e-009,1.80469228e-004
,,,-3.80000000e-009,1.79687978e-004
,,,-3.77500000e-009,1.82031729e-004
,,,-3.75000000e-009,1.89062979e-004
,,,-3.72500000e-009,2.00000480e-004
,,,-3.70000000e-009,2.12500481e-004
,,,-3.67500000e-009,2.25781732e-004
,,,-3.65000000e-009,2.39062983e-004
,,,-3.62500000e-009,2.47656733e-004
,,,-3.60000000e-009,2.49219233e-004
,,,-3.57500000e-009,2.42969233e-004
,,,-3.55000000e-009,2.26562982e-004
,,,-3.52500000e-009,2.00000480e-004
,,,-3.50000000e-009,1.61719227e-004
,,,-3.47500000e-009,1.19531724e-004
,,,-3.45000000e-009,7.57817210e-005
,,,-3.42500000e-009,3.67192183e-005
,,,-3.40000000e-009,5.46921605e-006
,,,-3.37500000e-009,-1.24995352e-005
,,,-3.35000000e-009,-1.48432854e-005
,,,-3.32500000e-009,4.65661287e-010
,,,-3.30000000e-009,2.81254677e-005
,,,-3.27500000e-009,6.79692205e-005
,,,-3.25000000e-009,1.12500474e-004
,,,-3.22500000e-009,1.56250477e-004
,,,-3.20000000e-009,1.91406729e-004
,,,-3.17500000e-009,2.13281731e-004
,,,-3.15000000e-009,2.17187981e-004
,,,-3.12500000e-009,2.00000480e-004
,,,-3.10000000e-009,1.60156727e-004
,,,-3.07500000e-009,1.03125473e-004
,,,-3.05000000e-009,3.51567181e-005
,,,-3.02500000e-009,-3.59370369e-005
,,,-3.00000000e-009,-1.03124542e-004
,,,-2.97500000e-009,-1.56249545e-004
,,,-2.95000000e-009,-1.90624548e-004
,,,-2.92500000e-009,-1.99999548e-004
,,,-2.90000000e-009,-1.82030797e-004
,,,-2.87500000e-009,-1.41405794e-004
,,,-2.85000000e-009,-8.28120402e-005
,,,-2.82500000e-009,-1.32807853e-005
,,,-2.80000000e-009,5.78129698e-005
,,,-2.77500000e-009,1.21875474e-004
,,,-2.75000000e-009,1.71094228e-004
,,,-2.72500000e-009,2.00000480e-004
,,,-2.70000000e-009,2.02344230e-004
,,,-2.67500000e-009,1.80469228e-004
,,,-2.65000000e-009,1.35937975e-004
,,,-2.62500000e-009,7.50004710e-005
,,,-2.60000000e-009,3.12546588e-006
,,,-2.57500000e-009,-7.10932894e-005
,,,-2.55000000e-009,-1.40624544e-004
,,,-2.52500000e-009,-1.99999548e-004
,,,-2.50000000e-009,-2.41405801e-004
,,,-2.47500000e-009,-2.65624553e-004
,,,-2.45000000e-009,-2.73437054e-004
,,,-2.42500000e-009,-2.68749553e-004
,,,-2.40000000e-009,-2.53905802e-004
,,,-2.37500000e-009,-2.35155801e-004
,,,-2.35000000e-009,-2.16405800e-004
,,,-2.32500000e-009,-1.99999548e-004
,,,-2.30000000e-009,-1.88280798e-004
,,,-2.27500000e-009,-1.82812047e-004
,,,-2.25000000e-009,-1.83593297e-004
,,,-2.22500000e-009,-1.89062048e-004
,,,-2.20000000e-009,-1.96874548e-004
,,,-2.17500000e-009,-2.02343299e-004
,,,-2.15000000e-009,-2.04687049e-004
,,,-2.12500000e-009,-1.99999548e-004
,,,-2.10000000e-009,-1.85937047e-004
,,,-2.07500000e-009,-1.64843296e-004
,,,-2.05000000e-009,-1.37499544e-004
,,,-2.02500000e-009,-1.07030792e-004
,,,-2.00000000e-009,-7.57807897e-005
,,,-1.97500000e-009,-4.53120375e-005
,,,-1.95000000e-009,-2.03120358e-005
,,,-1.92500000e-009,4.65661287e-010
,,,-1.90000000e-009,1.17192165e-005
,,,-1.87500000e-009,1.64067168e-005
,,,-1.85000000e-009,1.56254668e-005
,,,-1.82500000e-009,1.09379664e-005
,,,-1.80000000e-009,4.68796599e-006
,,,-1.77500000e-009,-7.80784394e-007
,,,-1.75000000e-009,-3.12453456e-006
,,,-1.72500000e-009,4.65661287e-010
,,,-1.70000000e-009,7.03171616e-006
,,,-1.67500000e-009,2.03129671e-005
,,,-1.65000000e-009,3.98442185e-005
,,,-1.62500000e-009,6.56254703e-005
,,,-1.60000000e-009,9.60942225e-005
,,,-1.57500000e-009,1.29687975e-004
,,,-1.55000000e-009,1.64844227e-004
,,,-1.52500000e-009,2.00000480e-004
,,,-1.50000000e-009,2.21094231e-004
,,,-1.47500000e-009,2.35937982e-004
,,,-1.45000000e-009,2.45312983e-004
,,,-1.42500000e-009,2.47656733e-004
,,,-1.40000000e-009,2.42969233e-004
,,,-1.37500000e-009,2.33594232e-004
,,,-1.35000000e-009,2.18750481e-004
,,,-1.32500000e-009,2.00000480e-004
,,,-1.30000000e-009,1.61719227e-004
,,,-1.27500000e-009,1.22656724e-004
,,,-1.25000000e-009,8.35942216e-005
,,,-1.22500000e-009,4.92192191e-005
,,,-1.20000000e-009,2.18754672e-005
,,,-1.17500000e-009,3.12546588e-006
,,,-1.15000000e-009,-3.90578462e-006
,,,-1.12500000e-009,4.65661287e-010
,,,-1.10000000e-009,-8.59328495e-006
,,,-1.07500000e-009,-1.17182852e-005
,,,-1.05000000e-009,-1.09370351e-005
,,,-1.02500000e-009,-7.03078484e-006
,,,-1.00000000e-009,-1.56203445e-006
,,,-9.75000000e-010,3.12546588e-006
,,,-9.50000000e-010,3.90671594e-006
,,,-9.25000000e-010,4.65661287e-010
,,,-9.00000000e-010,-3.98432872e-005
,,,-8.75000000e-010,-9.29682909e-005
,,,-8.50000000e-010,-1.58593296e-004
,,,-8.25000000e-010,-2.35155801e-004
,,,-8.00000000e-010,-3.20312057e-004
,,,-7.75000000e-010,-4.10155813e-004
,,,-7.50000000e-010,-5.03905820e-004
,,,-7.25000000e-010,-5.99999577e-004
,,,-7.00000000e-010,-7.19530835e-004
,,,-6.75000000e-010,-8.42968344e-004
,,,-6.50000000e-010,-9.68749603e-004
,,,-6.25000000e-010,-1.09531211e-003
,,,-6.00000000e-010,-1.22187462e-003
,,,-5.75000000e-010,-1.34843713e-003
,,,-5.50000000e-010,-1.47421839e-003
,,,-5.25000000e-010,-1.59999965e-003
,,,-5.00000000e-010,-1.73828091e-003
,,,-4.75000000e-010,-1.88046842e-003
,,,-4.50000000e-010,-2.02734343e-003
,,,-4.25000000e-010,-2.17734344e-003
,,,-4.00000000e-010,-2.33124970e-003
,,,-3.75000000e-010,-2.48593721e-003
,,,-3.50000000e-010,-2.64296847e-003
,,,-3.25000000e-010,-2.79999973e-003
,,,-3.00000000e-010,-2.95781224e-003
,,,-2.75000000e-010,-3.12031226e-003
,,,-2.50000000e-010,-3.28828102e-003
,,,-2.25000000e-010,-3.46249978e-003
,,,-2.00000000e-010,-3.64218729e-003
,,,-1.75000000e-010,-3.82578106e-003
,,,-1.50000000e-010,-4.01249982e-003
,,,-1.25000000e-010,-4.19999983e-003
,,,-1.00000000e-010,-4.37109359e-003
,,,-7.50000000e-011,-4.54062486e-003
,,,-5.00000000e-011,-4.70703112e-003
,,,-2.50000000e-011,-4.86874988e-003
,,,0.00000000e+000,-5.02187489e-003
,,,2.50000000e-011,-5.16328115e-003
,,,5.00000000e-011,-5.29062491e-003
,,,7.50000000e-011,-5.39999992e-003
,,,1.00000000e-010,-5.46328117e-003
,,,1.25000000e-010,-5.51171867e-003
,,,1.50000000e-010,-5.54765618e-003
,,,1.75000000e-010,-5.57343743e-003
,,,2.00000000e-010,-5.59062493e-003
,,,2.25000000e-010,-5.59999993e-003
,,,2.50000000e-010,-5.60312493e-003
,,,2.75000000e-010,-5.59999993e-003
,,,3.00000000e-010,-5.56249993e-003
,,,3.25000000e-010,-5.52656243e-003
,,,3.50000000e-010,-5.49453117e-003
,,,3.75000000e-010,-5.46796867e-003
,,,4.00000000e-010,-5.44609367e-003
,,,4.25000000e-010,-5.42890617e-003
,,,4.50000000e-010,-5.41406242e-003
,,,4.75000000e-010,-5.39999992e-003
,,,5.00000000e-010,-5.35781241e-003
,,,5.25000000e-010,-5.31406241e-003
,,,5.50000000e-010,-5.27031241e-003
,,,5.75000000e-010,-5.22421865e-003
,,,6.00000000e-010,-5.17499990e-003
,,,6.25000000e-010,-5.12187490e-003
,,,6.50000000e-010,-5.06328114e-003
,,,6.75000000e-010,-4.99999989e-003
,,,7.00000000e-010,-4.91406238e-003
,,,7.25000000e-010,-4.82578113e-003
,,,7.50000000e-010,-4.73906237e-003
,,,7.75000000e-010,-4.65703111e-003
,,,8.00000000e-010,-4.58046861e-003
,,,8.25000000e-010,-4.51171860e-003
,,,8.50000000e-010,-4.45156235e-003
,,,8.75000000e-010,-4.39999985e-003
,,,9.00000000e-010,-4.34687484e-003
,,,9.25000000e-010,-4.29843734e-003
,,,9.50000000e-010,-4.25312484e-003
,,,9.75000000e-010,-4.21015608e-003
,,,1.00000000e-009,-4.16562483e-003
,,,1.02500000e-009,-4.11718733e-003
,,,1.05000000e-009,-4.06249982e-003
,,,1.07500000e-009,-3.99999982e-003
,,,1.10000000e-009,-3.92578106e-003
,,,1.12500000e-009,-3.83906231e-003
,,,1.15000000e-009,-3.74218730e-003
,,,1.17500000e-009,-3.63671854e-003
,,,1.20000000e-009,-3.52578103e-003
,,,1.22500000e-009,-3.41406228e-003
,,,1.25000000e-009,-3.30390602e-003
,,,1.27500000e-009,-3.19999976e-003
,,,1.30000000e-009,-3.11015600e-003
,,,1.32500000e-009,-3.02812475e-003
,,,1.35000000e-009,-2.95781224e-003
,,,1.37500000e-009,-2.89999974e-003
,,,1.40000000e-009,-2.85546849e-003
,,,1.42500000e-009,-2.82421848e-003
,,,1.45000000e-009,-2.80624973e-003
,,,1.47500000e-009,-2.79999973e-003
,,,1.50000000e-009,-2.80937473e-003
,,,1.52500000e-009,-2.82031223e-003
,,,1.55000000e-009,-2.83124973e-003
,,,1.57500000e-009,-2.83906224e-003
,,,1.60000000e-009,-2.84140599e-003
,,,1.62500000e-009,-2.83593724e-003
,,,1.65000000e-009,-2.82265598e-003
,,,1.67500000e-009,-2.79999973e-003
,,,1.70000000e-009,-2.77109348e-003
,,,1.72500000e-009,-2.73046848e-003
,,,1.75000000e-009,-2.68046847e-003
,,,1.77500000e-009,-2.62343722e-003
,,,1.80000000e-009,-2.56406222e-003
,,,1.82500000e-009,-2.50468721e-003
,,,1.85000000e-009,-2.44921846e-003
,,,1.87500000e-009,-2.39999970e-003
,,,1.90000000e-009,-2.36093720e-003
,,,1.92500000e-009,-2.32734345e-003
,,,1.95000000e-009,-2.29921845e-003
,,,1.97500000e-009,-2.27499970e-003
,,,2.00000000e-009,-2.25390594e-003
,,,2.02500000e-009,-2.23515594e-003
,,,2.05000000e-009,-2.21796844e-003
,,,2.07500000e-009,-2.19999969e-003
,,,2.10000000e-009,-2.18437469e-003
,,,2.12500000e-009,-2.16328094e-003
,,,2.15000000e-009,-2.13906219e-003
,,,2.17500000e-009,-2.11171843e-003
,,,2.20000000e-009,-2.08203093e-003
,,,2.22500000e-009,-2.05312468e-003
,,,2.25000000e-009,-2.02578093e-003
,,,2.27500000e-009,-1.99999968e-003
,,,2.30000000e-009,-1.97812467e-003
,,,2.32500000e-009,-1.95624967e-003
,,,2.35000000e-009,-1.93437467e-003
,,,2.37500000e-009,-1.91249967e-003
,,,2.40000000e-009,-1.88906217e-003
,,,2.42500000e-009,-1.86249967e-003
,,,2.45000000e-009,-1.83359341e-003
,,,2.47500000e-009,-1.79999966e-003
,,,2.50000000e-009,-1.76328091e-003
,,,2.52500000e-009,-1.72031216e-003
,,,2.55000000e-009,-1.67187465e-003
,,,2.57500000e-009,-1.61953090e-003
,,,2.60000000e-009,-1.56406215e-003
,,,2.62500000e-009,-1.50781214e-003
,,,2.65000000e-009,-1.45312464e-003
,,,2.67500000e-009,-1.39999963e-003
,,,2.70000000e-009,-1.35468713e-003
,,,2.72500000e-009,-1.31406213e-003
,,,2.75000000e-009,-1.27812462e-003
,,,2.77500000e-009,-1.24843712e-003
,,,2.80000000e-009,-1.22578087e-003
,,,2.82500000e-009,-1.21015587e-003
,,,2.85000000e-009,-1.20234337e-003
,,,2.87500000e-009,-1.19999962e-003
,,,2.90000000e-009,-1.20703087e-003
,,,2.92500000e-009,-1.21484337e-003
,,,2.95000000e-009,-1.22265587e-003
,,,2.97500000e-009,-1.22812462e-003
,,,3.00000000e-009,-1.22968712e-003
,,,3.02500000e-009,-1.22578087e-003
,,,3.05000000e-009,-1.21640587e-003
,,,3.07500000e-009,-1.19999962e-003
,,,3.10000000e-009,-1.18124962e-003
,,,3.12500000e-009,-1.15546837e-003
,,,3.15000000e-009,-1.12656211e-003
,,,3.17500000e-009,-1.09531211e-003
,,,3.20000000e-009,-1.06484336e-003
,,,3.22500000e-009,-1.03749961e-003
,,,3.25000000e-009,-1.01562461e-003
,,,3.27500000e-009,-9.99999605e-004
,,,3.30000000e-009,-9.93749605e-004
,,,3.32500000e-009,-9.92968355e-004
,,,3.35000000e-009,-9.95312105e-004
,,,3.37500000e-009,-9.99218355e-004
,,,3.40000000e-009,-1.00390586e-003
,,,3.42500000e-009,-1.00703086e-003
,,,3.45000000e-009,-1.00624961e-003
,,,3.47500000e-009,-9.99999605e-004
,,,3.50000000e-009,-9.89062104e-004
,,,3.52500000e-009,-9.70312103e-004
,,,3.55000000e-009,-9.46093351e-004
,,,3.57500000e-009,-9.16405849e-004
,,,3.60000000e-009,-8.85155847e-004
,,,3.62500000e-009,-8.53905845e-004
,,,3.65000000e-009,-8.24999593e-004
,,,3.67500000e-009,-7.99999591e-004
,,,3.70000000e-009,-7.81249590e-004
,,,3.72500000e-009,-7.68749589e-004
,,,3.75000000e-009,-7.61718338e-004
,,,3.77500000e-009,-7.60937088e-004
,,,3.80000000e-009,-7.65624589e-004
,,,3.82500000e-009,-7.74999589e-004
,,,3.85000000e-009,-7.86718340e-004
,,,3.87500000e-009,-7.99999591e-004
,,,3.90000000e-009,-8.10937092e-004
,,,3.92500000e-009,-8.18749592e-004
,,,3.95000000e-009,-8.23437093e-004
,,,3.97500000e-009,-8.24999593e-004
,,,4.00000000e-009,-8.23437093e-004
,,,4.02500000e-009,-8.18749592e-004
,,,4.05000000e-009,-8.10937092e-004
,,,4.07500000e-009,-7.99999591e-004
,,,4.10000000e-009,-7.85937090e-004
,,,4.12500000e-009,-7.68749589e-004
,,,4.15000000e-009,-7.47655837e-004
,,,4.17500000e-009,-7.23437086e-004
,,,4.20000000e-009,-6.96093334e-004
,,,4.22500000e-009,-6.66405832e-004
,,,4.25000000e-009,-6.34374579e-004
,,,4.27500000e-009,-5.99999577e-004
,,,4.30000000e-009,-5.66405824e-004
,,,4.32500000e-009,-5.32030822e-004
,,,4.35000000e-009,-4.99999570e-004
,,,4.37500000e-009,-4.71093318e-004
,,,4.40000000e-009,-4.46093316e-004
,,,4.42500000e-009,-4.26562065e-004
,,,4.45000000e-009,-4.10937063e-004
,,,4.47500000e-009,-3.99999563e-004
,,,4.50000000e-009,-3.93749562e-004
,,,4.52500000e-009,-3.86718312e-004
,,,4.55000000e-009,-3.76562061e-004
,,,4.57500000e-009,-3.60155810e-004
,,,4.60000000e-009,-3.35937058e-004
,,,4.62500000e-009,-3.01562056e-004
,,,4.65000000e-009,-2.56249552e-004
,,,4.67500000e-009,-1.99999548e-004
,,,4.70000000e-009,-1.39062044e-004
,,,4.72500000e-009,-7.26557895e-005
,,,4.75000000e-009,-4.68703467e-006
,,,4.77500000e-009,6.01567199e-005
,,,4.80000000e-009,1.17187974e-004
,,,4.82500000e-009,1.61719227e-004
,,,4.85000000e-009,1.89844229e-004
,,,4.87500000e-009,2.00000480e-004
,,,4.90000000e-009,1.83594229e-004
,,,4.92500000e-009,1.50000476e-004
,,,4.95000000e-009,1.02344223e-004
,,,4.97500000e-009,4.37504688e-005
,,,5.00000000e-009,-2.03120358e-005
,,,5.02500000e-009,-8.59370404e-005
,,,5.05000000e-009,-1.46874545e-004
,,,5.07500000e-009,-1.99999548e-004
,,,5.10000000e-009,-2.44530802e-004
,,,5.12500000e-009,-2.73437054e-004
,,,5.15000000e-009,-2.87499555e-004
,,,5.17500000e-009,-2.87499555e-004
,,,5.20000000e-009,-2.75780804e-004
,,,5.22500000e-009,-2.54687052e-004
,,,5.25000000e-009,-2.28905801e-004
,,,5.27500000e-009,-1.99999548e-004
,,,5.30000000e-009,-1.75780797e-004
,,,5.32500000e-009,-1.54687045e-004
,,,5.35000000e-009,-1.40624544e-004
,,,5.37500000e-009,-1.35155794e-004
,,,5.40000000e-009,-1.39062044e-004
,,,5.42500000e-009,-1.50780795e-004
,,,5.45000000e-009,-1.71874547e-004
,,,5.47500000e-009,-1.99999548e-004
,,,5.50000000e-009,-2.34374551e-004
,,,5.52500000e-009,-2.71093304e-004
,,,5.55000000e-009,-3.07030806e-004
,,,5.57500000e-009,-3.39843308e-004
,,,5.60000000e-009,-3.67187060e-004
,,,5.62500000e-009,-3.87499562e-004
,,,5.65000000e-009,-3.98437063e-004
,,,5.67500000e-009,-3.99999563e-004
,,,5.70000000e-009,-3.90624562e-004
,,,5.72500000e-009,-3.72655811e-004
,,,5.75000000e-009,-3.47655809e-004
,,,5.77500000e-009,-3.17187057e-004
,,,5.80000000e-009,-2.85155805e-004
,,,5.82500000e-009,-2.53905802e-004
,,,5.85000000e-009,-2.24999550e-004
,,,5.87500000e-009,-1.99999548e-004
,,,5.90000000e-009,-1.80468297e-004
,,,5.92500000e-009,-1.67968296e-004
,,,5.95000000e-009,-1.63280796e-004
