RawData/DifferentLengths/L4/L4_50_5mV/wave006_Ch2.csv

"Record Length",1000,"Points",-7.72500000e-009,-1.99999548e-004
"Sample Interval",2.50000000e-011,s,-7.70000000e-009,-1.75780797e-004
"Trigger Point",309,"Samples",-7.67500000e-009,-1.51562045e-004
"Trigger Time",1.24951773e-011,s,-7.65000000e-009,-1.28905793e-004
"",,,-7.62500000e-009,-1.05468292e-004
"Horizontal Offset",-7.72500000e-009,s,-7.60000000e-009,-8.20307901e-005
,,,-7.57500000e-009,-5.62495383e-005
,,,-7.55000000e-009,-2.96870364e-005
,,,-7.52500000e-009,4.65661287e-010
,,,-7.50000000e-009,3.12504679e-005
,,,-7.47500000e-009,6.32817201e-005
,,,-7.45000000e-009,9.53129724e-005
,,,-7.42500000e-009,1.25781725e-004
,,,-7.40000000e-009,1.53125476e-004
,,,-7.37500000e-009,1.75000478e-004
,,,-7.35000000e-009,1.91406729e-004
,,,-7.32500000e-009,2.00000480e-004
,,,-7.30000000e-009,1.98437980e-004
,,,-7.27500000e-009,1.89062979e-004
,,,-7.25000000e-009,1.71875478e-004
,,,-7.22500000e-009,1.47656726e-004
,,,-7.20000000e-009,1.16406724e-004
,,,-7.17500000e-009,8.04692214e-005
,,,-7.15000000e-009,4.14067186e-005
,,,-7.12500000e-009,4.65661287e-010
,,,-7.10000000e-009,-4.29682874e-005
,,,-7.07500000e-009,-8.20307901e-005
,,,-7.05000000e-009,-1.17187043e-004
,,,-7.02500000e-009,-1.46874545e-004
,,,-7.00000000e-009,-1.71093296e-004
,,,-6.97500000e-009,-1.88280798e-004
,,,-6.95000000e-009,-1.97655798e-004
,,,-6.92500000e-009,-1.99999548e-004
,,,-6.90000000e-009,-1.92187048e-004
,,,-6.87500000e-009,-1.77343297e-004
,,,-6.85000000e-009,-1.55468295e-004
,,,-6.82500000e-009,-1.28124543e-004
,,,-6.80000000e-009,-9.84370413e-005
,,,-6.77500000e-009,-6.56245390e-005
,,,-6.75000000e-009,-3.28120367e-005
,,,-6.72500000e-009,4.65661287e-010
,,,-6.70000000e-009,3.20317179e-005
,,,-6.67500000e-009,6.17192200e-005
,,,-6.65000000e-009,8.98442220e-005
,,,-6.62500000e-009,1.15625474e-004
,,,-6.60000000e-009,1.39844226e-004
,,,-6.57500000e-009,1.61719227e-004
,,,-6.55000000e-009,1.82031729e-004
,,,-6.52500000e-009,2.00000480e-004
,,,-6.50000000e-009,2.13281731e-004
,,,-6.47500000e-009,2.23437981e-004
,,,-6.45000000e-009,2.29687982e-004
,,,-6.42500000e-009,2.32031732e-004
,,,-6.40000000e-009,2.30469232e-004
,,,-6.37500000e-009,2.24219232e-004
,,,-6.35000000e-009,2.13281731e-004
,,,-6.32500000e-009,2.00000480e-004
,,,-6.30000000e-009,1.82812979e-004
,,,-6.27500000e-009,1.66406727e-004
,,,-6.25000000e-009,1.53125476e-004
,,,-6.22500000e-009,1.43750476e-004
,,,-6.20000000e-009,1.42187976e-004
,,,-6.17500000e-009,1.50781726e-004
,,,-6.15000000e-009,1.69531728e-004
,,,-6.12500000e-009,2.00000480e-004
,,,-6.10000000e-009,2.39062983e-004
,,,-6.07500000e-009,2.87500486e-004
,,,-6.05000000e-009,3.42187990e-004
,,,-6.02500000e-009,4.00000494e-004
,,,-6.00000000e-009,4.58594248e-004
,,,-5.97500000e-009,5.14063002e-004
,,,-5.95000000e-009,5.61719255e-004
,,,-5.92500000e-009,6.00000508e-004
,,,-5.90000000e-009,6.19531760e-004
,,,-5.87500000e-009,6.25000510e-004
,,,-5.85000000e-009,6.17188009e-004
,,,-5.82500000e-009,5.95313008e-004
,,,-5.80000000e-009,5.60156755e-004
,,,-5.77500000e-009,5.14844252e-004
,,,-5.75000000e-009,4.60156748e-004
,,,-5.72500000e-009,4.00000494e-004
,,,-5.70000000e-009,3.35937989e-004
,,,-5.67500000e-009,2.73437985e-004
,,,-5.65000000e-009,2.13281731e-004
,,,-5.62500000e-009,1.57812977e-004
,,,-5.60000000e-009,1.07812973e-004
,,,-5.57500000e-009,6.48442203e-005
,,,-5.55000000e-009,2.89067177e-005
,,,-5.52500000e-009,4.65661287e-010
,,,-5.50000000e-009,-1.71870356e-005
,,,-5.47500000e-009,-2.65620362e-005
,,,-5.45000000e-009,-2.96870364e-005
,,,-5.42500000e-009,-2.81245363e-005
,,,-5.40000000e-009,-2.34370360e-005
,,,-5.37500000e-009,-1.56245354e-005
,,,-5.35000000e-009,-7.81203489e-006
,,,-5.32500000e-009,4.65661287e-010
,,,-5.30000000e-009,1.17192165e-005
,,,-5.27500000e-009,2.18754672e-005
,,,-5.25000000e-009,2.89067177e-005
,,,-5.22500000e-009,3.20317179e-005
,,,-5.20000000e-009,2.96879678e-005
,,,-5.17500000e-009,2.26567173e-005
,,,-5.15000000e-009,1.17192165e-005
,,,-5.12500000e-009,4.65661287e-010
,,,-5.10000000e-009,-6.24953478e-006
,,,-5.07500000e-009,-8.59328495e-006
,,,-5.05000000e-009,-3.90578462e-006
,,,-5.02500000e-009,1.09379664e-005
,,,-5.00000000e-009,3.75004683e-005
,,,-4.97500000e-009,7.73442211e-005
,,,-4.95000000e-009,1.32031725e-004
,,,-4.92500000e-009,2.00000480e-004
,,,-4.90000000e-009,2.85156736e-004
,,,-4.87500000e-009,3.77344242e-004
,,,-4.85000000e-009,4.71094249e-004
,,,-4.82500000e-009,5.61719255e-004
,,,-4.80000000e-009,6.43750511e-004
,,,-4.77500000e-009,7.13281766e-004
,,,-4.75000000e-009,7.65625520e-004
,,,-4.72500000e-009,8.00000522e-004
,,,-4.70000000e-009,8.14063023e-004
,,,-4.67500000e-009,8.14063023e-004
,,,-4.65000000e-009,8.03125523e-004
,,,-4.62500000e-009,7.88281771e-004
,,,-4.60000000e-009,7.75000521e-004
,,,-4.57500000e-009,7.69531770e-004
,,,-4.55000000e-009,7.77344271e-004
,,,-4.52500000e-009,8.00000522e-004
,,,-4.50000000e-009,8.34375525e-004
,,,-4.47500000e-009,8.83594278e-004
,,,-4.45000000e-009,9.43750532e-004
,,,-4.42500000e-009,1.00859429e-003
,,,-4.40000000e-009,1.07265679e-003
,,,-4.37500000e-009,1.12968805e-003
,,,-4.35000000e-009,1.17343805e-003
,,,-4.32500000e-009,1.20000055e-003
,,,-4.30000000e-009,1.20000055e-003
,,,-4.27500000e-009,1.18359430e-003
,,,-4.25000000e-009,1.15390680e-003
,,,-4.22500000e-009,1.11640679e-003
,,,-4.20000000e-009,1.07656304e-003
,,,-4.17500000e-009,1.03984429e-003
,,,-4.15000000e-009,1.01328179e-003
,,,-4.12500000e-009,1.00000054e-003
,,,-4.10000000e-009,9.95313036e-004
,,,-4.07500000e-009,1.00781304e-003
,,,-4.05000000e-009,1.03359429e-003
,,,-4.02500000e-009,1.06953179e-003
,,,-4.00000000e-009,1.11015679e-003
,,,-3.97500000e-009,1.14921930e-003
,,,-3.95000000e-009,1.18046930e-003
,,,-3.92500000e-009,1.20000055e-003
,,,-3.90000000e-009,1.19375055e-003
,,,-3.87500000e-009,1.17031305e-003
,,,-3.85000000e-009,1.13125055e-003
,,,-3.82500000e-009,1.07734429e-003
,,,-3.80000000e-009,1.01328179e-003
,,,-3.77500000e-009,9.42188032e-004
,,,-3.75000000e-009,8.69531777e-004
,,,-3.72500000e-009,8.00000522e-004
,,,-3.70000000e-009,7.33594268e-004
,,,-3.67500000e-009,6.77344264e-004
,,,-3.65000000e-009,6.32813010e-004
,,,-3.62500000e-009,6.01563008e-004
,,,-3.60000000e-009,5.83594257e-004
,,,-3.57500000e-009,5.78125507e-004
,,,-3.55000000e-009,5.83594257e-004
,,,-3.52500000e-009,6.00000508e-004
,,,-3.50000000e-009,6.21094260e-004
,,,-3.47500000e-009,6.46094261e-004
,,,-3.45000000e-009,6.75000513e-004
,,,-3.42500000e-009,7.03906765e-004
,,,-3.40000000e-009,7.32813018e-004
,,,-3.37500000e-009,7.58594269e-004
,,,-3.35000000e-009,7.82031771e-004
,,,-3.32500000e-009,8.00000522e-004
,,,-3.30000000e-009,8.07813023e-004
,,,-3.27500000e-009,8.07031773e-004
,,,-3.25000000e-009,7.96875522e-004
,,,-3.22500000e-009,7.75781771e-004
,,,-3.20000000e-009,7.44531768e-004
,,,-3.17500000e-009,7.03906765e-004
,,,-3.15000000e-009,6.55469262e-004
,,,-3.12500000e-009,6.00000508e-004
,,,-3.10000000e-009,5.36719254e-004
,,,-3.07500000e-009,4.71875499e-004
,,,-3.05000000e-009,4.07031744e-004
,,,-3.02500000e-009,3.47656740e-004
,,,-3.00000000e-009,2.94531737e-004
,,,-2.97500000e-009,2.51562983e-004
,,,-2.95000000e-009,2.19531731e-004
,,,-2.92500000e-009,2.00000480e-004
,,,-2.90000000e-009,1.90625479e-004
,,,-2.87500000e-009,1.89844229e-004
,,,-2.85000000e-009,1.93750479e-004
,,,-2.82500000e-009,2.00781730e-004
,,,-2.80000000e-009,2.07031730e-004
,,,-2.77500000e-009,2.10156731e-004
,,,-2.75000000e-009,2.07812980e-004
,,,-2.72500000e-009,2.00000480e-004
,,,-2.70000000e-009,1.82031729e-004
,,,-2.67500000e-009,1.56250477e-004
,,,-2.65000000e-009,1.25781725e-004
,,,-2.62500000e-009,9.29692222e-005
,,,-2.60000000e-009,6.09379700e-005
,,,-2.57500000e-009,3.28129680e-005
,,,-2.55000000e-009,1.17192165e-005
,,,-2.52500000e-009,4.65661287e-010
,,,-2.50000000e-009,-5.46828473e-006
,,,-2.47500000e-009,-3.90578462e-006
,,,-2.45000000e-009,2.34421583e-006
,,,-2.42500000e-009,1.09379664e-005
,,,-2.40000000e-009,1.71879669e-005
,,,-2.37500000e-009,1.95317170e-005
,,,-2.35000000e-009,1.48442167e-005
,,,-2.32500000e-009,4.65661287e-010
,,,-2.30000000e-009,-2.73432863e-005
,,,-2.27500000e-009,-6.71870391e-005
,,,-2.25000000e-009,-1.16405793e-004
,,,-2.22500000e-009,-1.73437047e-004
,,,-2.20000000e-009,-2.33593301e-004
,,,-2.17500000e-009,-2.93749555e-004
,,,-2.15000000e-009,-3.49999559e-004
,,,-2.12500000e-009,-3.99999563e-004
,,,-2.10000000e-009,-4.40624566e-004
,,,-2.07500000e-009,-4.73437068e-004
,,,-2.05000000e-009,-4.99218320e-004
,,,-2.02500000e-009,-5.21093321e-004
,,,-2.00000000e-009,-5.39843323e-004
,,,-1.97500000e-009,-5.57812074e-004
,,,-1.95000000e-009,-5.78124575e-004
,,,-1.92500000e-009,-5.99999577e-004
,,,-1.90000000e-009,-6.24218329e-004
,,,-1.87500000e-009,-6.51562080e-004
,,,-1.85000000e-009,-6.82030833e-004
,,,-1.82500000e-009,-7.13280835e-004
,,,-1.80000000e-009,-7.42187087e-004
,,,-1.77500000e-009,-7.67968339e-004
,,,-1.75000000e-009,-7.87499590e-004
,,,-1.72500000e-009,-7.99999591e-004
,,,-1.70000000e-009,-8.03124591e-004
,,,-1.67500000e-009,-7.99999591e-004
,,,-1.65000000e-009,-7.94530841e-004
,,,-1.62500000e-009,-7.88280840e-004
,,,-1.60000000e-009,-7.83593340e-004
,,,-1.57500000e-009,-7.82812090e-004
,,,-1.55000000e-009,-7.88280840e-004
,,,-1.52500000e-009,-7.99999591e-004
,,,-1.50000000e-009,-8.19530842e-004
,,,-1.47500000e-009,-8.46093344e-004
,,,-1.45000000e-009,-8.78124596e-004
,,,-1.42500000e-009,-9.12499599e-004
,,,-1.40000000e-009,-9.44530851e-004
,,,-1.37500000e-009,-9.72655853e-004
,,,-1.35000000e-009,-9.91405855e-004
,,,-1.32500000e-009,-9.99999605e-004
,,,-1.30000000e-009,-9.99218355e-004
,,,-1.27500000e-009,-9.89062104e-004
,,,-1.25000000e-009,-9.69530853e-004
,,,-1.22500000e-009,-9.42187101e-004
,,,-1.20000000e-009,-9.09374599e-004
,,,-1.17500000e-009,-8.73437096e-004
,,,-1.15000000e-009,-8.35937094e-004
,,,-1.12500000e-009,-7.99999591e-004
,,,-1.10000000e-009,-7.82812090e-004
,,,-1.07500000e-009,-7.73437089e-004
,,,-1.05000000e-009,-7.71093339e-004
,,,-1.02500000e-009,-7.74999589e-004
,,,-1.00000000e-009,-7.81249590e-004
,,,-9.75000000e-010,-7.89062090e-004
,,,-9.50000000e-010,-7.96093341e-004
,,,-9.25000000e-010,-7.99999591e-004
,,,-9.00000000e-010,-8.26562093e-004
,,,-8.75000000e-010,-8.53905845e-004
,,,-8.50000000e-010,-8.82030847e-004
,,,-8.25000000e-010,-9.09374599e-004
,,,-8.00000000e-010,-9.35155851e-004
,,,-7.75000000e-010,-9.58593352e-004
,,,-7.50000000e-010,-9.79687104e-004
,,,-7.25000000e-010,-9.99999605e-004
,,,-7.00000000e-010,-1.05234336e-003
,,,-6.75000000e-010,-1.10937461e-003
,,,-6.50000000e-010,-1.16796837e-003
,,,-6.25000000e-010,-1.22499962e-003
,,,-6.00000000e-010,-1.27890587e-003
,,,-5.75000000e-010,-1.32578088e-003
,,,-5.50000000e-010,-1.36562463e-003
,,,-5.25000000e-010,-1.39999963e-003
,,,-5.00000000e-010,-1.46640589e-003
,,,-4.75000000e-010,-1.53906214e-003
,,,-4.50000000e-010,-1.62031215e-003
,,,-4.25000000e-010,-1.71093716e-003
,,,-4.00000000e-010,-1.81249966e-003
,,,-3.75000000e-010,-1.92734342e-003
,,,-3.50000000e-010,-2.05546843e-003
,,,-3.25000000e-010,-2.19999969e-003
,,,-3.00000000e-010,-2.38984345e-003
,,,-2.75000000e-010,-2.59921847e-003
,,,-2.50000000e-010,-2.82421848e-003
,,,-2.25000000e-010,-3.05937475e-003
,,,-2.00000000e-010,-3.29921852e-003
,,,-1.75000000e-010,-3.53906228e-003
,,,-1.50000000e-010,-3.77343730e-003
,,,-1.25000000e-010,-3.99999982e-003
,,,-1.00000000e-010,-4.22968733e-003
,,,-7.50000000e-011,-4.45468735e-003
,,,-5.00000000e-011,-4.67734362e-003
,,,-2.50000000e-011,-4.89843738e-003
,,,0.00000000e+000,-5.11874990e-003
,,,2.50000000e-011,-5.34218741e-003
,,,5.00000000e-011,-5.56874993e-003
,,,7.50000000e-011,-5.79999994e-003
,,,1.00000000e-010,-6.02890621e-003
,,,1.25000000e-010,-6.26874998e-003
,,,1.50000000e-010,-6.51875000e-003
,,,1.75000000e-010,-6.77656251e-003
,,,2.00000000e-010,-7.03828128e-003
,,,2.25000000e-010,-7.29921880e-003
,,,2.50000000e-010,-7.55546882e-003
,,,2.75000000e-010,-7.80000009e-003
,,,3.00000000e-010,-8.00000010e-003
,,,3.25000000e-010,-8.18671886e-003
,,,3.50000000e-010,-8.36015638e-003
,,,3.75000000e-010,-8.51953139e-003
,,,4.00000000e-010,-8.66406265e-003
,,,4.25000000e-010,-8.79218766e-003
,,,4.50000000e-010,-8.90468766e-003
,,,4.75000000e-010,-9.00000017e-003
,,,5.00000000e-010,-9.03828142e-003
,,,5.25000000e-010,-9.06875018e-003
,,,5.50000000e-010,-9.09453143e-003
,,,5.75000000e-010,-9.11796893e-003
,,,6.00000000e-010,-9.13984393e-003
,,,6.25000000e-010,-9.16171893e-003
,,,6.50000000e-010,-9.18281268e-003
,,,6.75000000e-010,-9.20000019e-003
,,,7.00000000e-010,-9.16953143e-003
,,,7.25000000e-010,-9.14062518e-003
,,,7.50000000e-010,-9.11406268e-003
,,,7.75000000e-010,-9.09140643e-003
,,,8.00000000e-010,-9.07109393e-003
,,,8.25000000e-010,-9.05078142e-003
,,,8.50000000e-010,-9.02890642e-003
,,,8.75000000e-010,-9.00000017e-003
,,,9.00000000e-010,-8.92734392e-003
,,,9.25000000e-010,-8.84687516e-003
,,,9.50000000e-010,-8.75937515e-003
,,,9.75000000e-010,-8.66484390e-003
,,,1.00000000e-009,-8.56171889e-003
,,,1.02500000e-009,-8.44921888e-003
,,,1.05000000e-009,-8.32890637e-003
,,,1.07500000e-009,-8.20000011e-003
,,,1.10000000e-009,-8.04296885e-003
,,,1.12500000e-009,-7.88515634e-003
,,,1.15000000e-009,-7.73437508e-003
,,,1.17500000e-009,-7.59375007e-003
,,,1.20000000e-009,-7.46796881e-003
,,,1.22500000e-009,-7.36015631e-003
,,,1.25000000e-009,-7.27109380e-003
,,,1.27500000e-009,-7.20000004e-003
,,,1.30000000e-009,-7.13593754e-003
,,,1.32500000e-009,-7.07968754e-003
,,,1.35000000e-009,-7.02656253e-003
,,,1.37500000e-009,-6.96953128e-003
,,,1.40000000e-009,-6.90312502e-003
,,,1.42500000e-009,-6.82187502e-003
,,,1.45000000e-009,-6.72187501e-003
,,,1.47500000e-009,-6.60000000e-003
,,,1.50000000e-009,-6.45937499e-003
,,,1.52500000e-009,-6.29999998e-003
,,,1.55000000e-009,-6.12734372e-003
,,,1.57500000e-009,-5.95234371e-003
,,,1.60000000e-009,-5.78281244e-003
,,,1.62500000e-009,-5.62890618e-003
,,,1.65000000e-009,-5.49999992e-003
,,,1.67500000e-009,-5.39999992e-003
,,,1.70000000e-009,-5.34296866e-003
,,,1.72500000e-009,-5.31406241e-003
,,,1.75000000e-009,-5.30781241e-003
,,,1.77500000e-009,-5.31874991e-003
,,,1.80000000e-009,-5.34062491e-003
,,,1.82500000e-009,-5.36640616e-003
,,,1.85000000e-009,-5.38828117e-003
,,,1.87500000e-009,-5.39999992e-003
,,,1.90000000e-009,-5.40468742e-003
,,,1.92500000e-009,-5.38671867e-003
,,,1.95000000e-009,-5.34765616e-003
,,,1.97500000e-009,-5.29062491e-003
,,,2.00000000e-009,-5.22031240e-003
,,,2.02500000e-009,-5.14531240e-003
,,,2.05000000e-009,-5.06953114e-003
,,,2.07500000e-009,-4.99999989e-003
,,,2.10000000e-009,-4.94765613e-003
,,,2.12500000e-009,-4.90312488e-003
,,,2.15000000e-009,-4.86796863e-003
,,,2.17500000e-009,-4.84218738e-003
,,,2.20000000e-009,-4.82421863e-003
,,,2.22500000e-009,-4.81328113e-003
,,,2.25000000e-009,-4.80546862e-003
,,,2.27500000e-009,-4.79999987e-003
,,,2.30000000e-009,-4.79687487e-003
,,,2.32500000e-009,-4.78671862e-003
,,,2.35000000e-009,-4.76953112e-003
,,,2.37500000e-009,-4.74531237e-003
,,,2.40000000e-009,-4.71484362e-003
,,,2.42500000e-009,-4.67968737e-003
,,,2.45000000e-009,-4.64140611e-003
,,,2.47500000e-009,-4.59999986e-003
,,,2.50000000e-009,-4.55859361e-003
,,,2.52500000e-009,-4.51328110e-003
,,,2.55000000e-009,-4.46406235e-003
,,,2.57500000e-009,-4.41328110e-003
,,,2.60000000e-009,-4.36015609e-003
,,,2.62500000e-009,-4.30703109e-003
,,,2.65000000e-009,-4.25390609e-003
,,,2.67500000e-009,-4.19999983e-003
,,,2.70000000e-009,-4.14609358e-003
,,,2.72500000e-009,-4.09140607e-003
,,,2.75000000e-009,-4.03749982e-003
,,,2.77500000e-009,-3.98437482e-003
,,,2.80000000e-009,-3.93281231e-003
,,,2.82500000e-009,-3.88437481e-003
,,,2.85000000e-009,-3.84062481e-003
,,,2.87500000e-009,-3.79999980e-003
,,,2.90000000e-009,-3.76562480e-003
,,,2.92500000e-009,-3.73359355e-003
,,,2.95000000e-009,-3.70312480e-003
,,,2.97500000e-009,-3.67656229e-003
,,,3.00000000e-009,-3.65234354e-003
,,,3.02500000e-009,-3.63203104e-003
,,,3.05000000e-009,-3.61484354e-003
,,,3.07500000e-009,-3.59999979e-003
,,,3.10000000e-009,-3.58593729e-003
,,,3.12500000e-009,-3.57031229e-003
,,,3.15000000e-009,-3.55078104e-003
,,,3.17500000e-009,-3.52890603e-003
,,,3.20000000e-009,-3.50234353e-003
,,,3.22500000e-009,-3.47265603e-003
,,,3.25000000e-009,-3.43828103e-003
,,,3.27500000e-009,-3.39999977e-003
,,,3.30000000e-009,-3.35859352e-003
,,,3.32500000e-009,-3.31171852e-003
,,,3.35000000e-009,-3.26093727e-003
,,,3.37500000e-009,-3.20703101e-003
,,,3.40000000e-009,-3.15234351e-003
,,,3.42500000e-009,-3.09843725e-003
,,,3.45000000e-009,-3.04765600e-003
,,,3.47500000e-009,-2.99999975e-003
,,,3.50000000e-009,-2.96015599e-003
,,,3.52500000e-009,-2.92343724e-003
,,,3.55000000e-009,-2.89140599e-003
,,,3.57500000e-009,-2.86328099e-003
,,,3.60000000e-009,-2.84140599e-003
,,,3.62500000e-009,-2.82343723e-003
,,,3.65000000e-009,-2.81015598e-003
,,,3.67500000e-009,-2.79999973e-003
,,,3.70000000e-009,-2.79218723e-003
,,,3.72500000e-009,-2.78046848e-003
,,,3.75000000e-009,-2.76562473e-003
,,,3.77500000e-009,-2.74453098e-003
,,,3.80000000e-009,-2.71796848e-003
,,,3.82500000e-009,-2.68515597e-003
,,,3.85000000e-009,-2.64609347e-003
,,,3.87500000e-009,-2.59999972e-003
,,,3.90000000e-009,-2.54921846e-003
,,,3.92500000e-009,-2.49374971e-003
,,,3.95000000e-009,-2.43515596e-003
,,,3.97500000e-009,-2.37656220e-003
,,,4.00000000e-009,-2.32109345e-003
,,,4.02500000e-009,-2.27187470e-003
,,,4.05000000e-009,-2.23124969e-003
,,,4.07500000e-009,-2.19999969e-003
,,,4.10000000e-009,-2.17968719e-003
,,,4.12500000e-009,-2.16796844e-003
,,,4.15000000e-009,-2.16328094e-003
,,,4.17500000e-009,-2.16484344e-003
,,,4.20000000e-009,-2.17109344e-003
,,,4.22500000e-009,-2.18046844e-003
,,,4.25000000e-009,-2.19062469e-003
,,,4.27500000e-009,-2.19999969e-003
,,,4.30000000e-009,-2.20624969e-003
,,,4.32500000e-009,-2.20390594e-003
,,,4.35000000e-009,-2.19218719e-003
,,,4.37500000e-009,-2.17109344e-003
,,,4.40000000e-009,-2.14062469e-003
,,,4.42500000e-009,-2.10078093e-003
,,,4.45000000e-009,-2.05390593e-003
,,,4.47500000e-009,-1.99999968e-003
,,,4.50000000e-009,-1.94374967e-003
,,,4.52500000e-009,-1.88359342e-003
,,,4.55000000e-009,-1.82421841e-003
,,,4.57500000e-009,-1.76718716e-003
,,,4.60000000e-009,-1.71484341e-003
,,,4.62500000e-009,-1.66874965e-003
,,,4.65000000e-009,-1.63046840e-003
,,,4.67500000e-009,-1.59999965e-003
,,,4.70000000e-009,-1.57890590e-003
,,,4.72500000e-009,-1.56171839e-003
,,,4.75000000e-009,-1.54531214e-003
,,,4.77500000e-009,-1.52812464e-003
,,,4.80000000e-009,-1.50624964e-003
,,,4.82500000e-009,-1.47890589e-003
,,,4.85000000e-009,-1.44374964e-003
,,,4.87500000e-009,-1.39999963e-003
,,,4.90000000e-009,-1.35156213e-003
,,,4.92500000e-009,-1.29531213e-003
,,,4.95000000e-009,-1.23437462e-003
,,,4.97500000e-009,-1.17343712e-003
,,,5.00000000e-009,-1.11562461e-003
,,,5.02500000e-009,-1.06484336e-003
,,,5.05000000e-009,-1.02578086e-003
,,,5.07500000e-009,-9.99999605e-004
,,,5.10000000e-009,-9.95312105e-004
,,,5.12500000e-009,-1.00390586e-003
,,,5.15000000e-009,-1.02499961e-003
,,,5.17500000e-009,-1.05546836e-003
,,,5.20000000e-009,-1.09140586e-003
,,,5.22500000e-009,-1.12968711e-003
,,,5.25000000e-009,-1.16718712e-003
,,,5.27500000e-009,-1.19999962e-003
,,,5.30000000e-009,-1.22968712e-003
,,,5.32500000e-009,-1.24921837e-003
,,,5.35000000e-009,-1.25859337e-003
,,,5.37500000e-009,-1.25859337e-003
,,,5.40000000e-009,-1.25078087e-003
,,,5.42500000e-009,-1.23749962e-003
,,,5.45000000e-009,-1.21953087e-003
,,,5.47500000e-009,-1.19999962e-003
,,,5.50000000e-009,-1.17968712e-003
,,,5.52500000e-009,-1.15703087e-003
,,,5.55000000e-009,-1.13359336e-003
,,,5.57500000e-009,-1.10859336e-003
,,,5.60000000e-009,-1.08359336e-003
,,,5.62500000e-009,-1.05703086e-003
,,,5.65000000e-009,-1.02968711e-003
,,,5.67500000e-009,-9.99999605e-004
,,,5.70000000e-009,-9.71093353e-004
,,,5.72500000e-009,-9.40624601e-004
,,,5.75000000e-009,-9.09374599e-004
,,,5.77500000e-009,-8.79687097e-004
,,,5.80000000e-009,-8.52343345e-004
,,,5.82500000e-009,-8.28905843e-004
,,,5.85000000e-009,-8.10937092e-004
,,,5.87500000e-009,-7.99999591e-004
,,,5.90000000e-009,-7.97655841e-004
,,,5.92500000e-009,-8.02343341e-004
