RawData/DifferentLengths/L4/L4_50_5mV/wave019_Ch2.csv

"Record Length",1000,"Points",-7.72500000e-009,-2.21093300e-004
"Sample Interval",2.50000000e-011,s,-7.70000000e-009,-2.13280799e-004
"Trigger Point",309,"Samples",-7.67500000e-009,-1.99999548e-004
"Trigger Time",1.87624893e-011,s,-7.65000000e-009,-1.78124547e-004
"",,,-7.62500000e-009,-1.52343295e-004
"Horizontal Offset",-7.72500000e-009,s,-7.60000000e-009,-1.22655793e-004
,,,-7.57500000e-009,-9.29682909e-005
,,,-7.55000000e-009,-6.32807888e-005
,,,-7.52500000e-009,-3.74995370e-005
,,,-7.50000000e-009,-1.56245354e-005
,,,-7.47500000e-009,4.65661287e-010
,,,-7.45000000e-009,7.03171616e-006
,,,-7.42500000e-009,9.37546632e-006
,,,-7.40000000e-009,6.25046610e-006
,,,-7.37500000e-009,1.56296577e-006
,,,-7.35000000e-009,-3.90578462e-006
,,,-7.32500000e-009,-7.03078484e-006
,,,-7.30000000e-009,-6.24953478e-006
,,,-7.27500000e-009,4.65661287e-010
,,,-7.25000000e-009,1.09379664e-005
,,,-7.22500000e-009,2.89067177e-005
,,,-7.20000000e-009,5.23442194e-005
,,,-7.17500000e-009,7.96879713e-005
,,,-7.15000000e-009,1.10156723e-004
,,,-7.12500000e-009,1.40625476e-004
,,,-7.10000000e-009,1.71094228e-004
,,,-7.07500000e-009,2.00000480e-004
,,,-7.05000000e-009,2.22656731e-004
,,,-7.02500000e-009,2.42969233e-004
,,,-7.00000000e-009,2.63281734e-004
,,,-6.97500000e-009,2.83594236e-004
,,,-6.95000000e-009,3.07031737e-004
,,,-6.92500000e-009,3.34375489e-004
,,,-6.90000000e-009,3.65625492e-004
,,,-6.87500000e-009,4.00000494e-004
,,,-6.85000000e-009,4.28906746e-004
,,,-6.82500000e-009,4.56250498e-004
,,,-6.80000000e-009,4.78906750e-004
,,,-6.77500000e-009,4.92188000e-004
,,,-6.75000000e-009,4.93750501e-004
,,,-6.72500000e-009,4.80469250e-004
,,,-6.70000000e-009,4.49219247e-004
,,,-6.67500000e-009,4.00000494e-004
,,,-6.65000000e-009,3.27344239e-004
,,,-6.62500000e-009,2.43750483e-004
,,,-6.60000000e-009,1.52344226e-004
,,,-6.57500000e-009,6.01567199e-005
,,,-6.55000000e-009,-2.65620362e-005
,,,-6.52500000e-009,-1.02343292e-004
,,,-6.50000000e-009,-1.60937046e-004
,,,-6.47500000e-009,-1.99999548e-004
,,,-6.45000000e-009,-2.17187050e-004
,,,-6.42500000e-009,-2.12499549e-004
,,,-6.40000000e-009,-1.90624548e-004
,,,-6.37500000e-009,-1.56249545e-004
,,,-6.35000000e-009,-1.13280792e-004
,,,-6.32500000e-009,-6.95307893e-005
,,,-6.30000000e-009,-3.04682865e-005
,,,-6.27500000e-009,4.65661287e-010
,,,-6.25000000e-009,1.56254668e-005
,,,-6.22500000e-009,1.64067168e-005
,,,-6.20000000e-009,3.12546588e-006
,,,-6.17500000e-009,-2.42182861e-005
,,,-6.15000000e-009,-6.17182887e-005
,,,-6.12500000e-009,-1.05468292e-004
,,,-6.10000000e-009,-1.53124545e-004
,,,-6.07500000e-009,-1.99999548e-004
,,,-6.05000000e-009,-2.42968302e-004
,,,-6.02500000e-009,-2.79687054e-004
,,,-6.00000000e-009,-3.10937056e-004
,,,-5.97500000e-009,-3.36718308e-004
,,,-5.95000000e-009,-3.57812060e-004
,,,-5.92500000e-009,-3.74218311e-004
,,,-5.90000000e-009,-3.88280812e-004
,,,-5.87500000e-009,-3.99999563e-004
,,,-5.85000000e-009,-4.07030813e-004
,,,-5.82500000e-009,-4.12499564e-004
,,,-5.80000000e-009,-4.17968314e-004
,,,-5.77500000e-009,-4.21874564e-004
,,,-5.75000000e-009,-4.22655814e-004
,,,-5.72500000e-009,-4.20312064e-004
,,,-5.70000000e-009,-4.13280814e-004
,,,-5.67500000e-009,-3.99999563e-004
,,,-5.65000000e-009,-3.79687061e-004
,,,-5.62500000e-009,-3.54687059e-004
,,,-5.60000000e-009,-3.27343308e-004
,,,-5.57500000e-009,-2.99218306e-004
,,,-5.55000000e-009,-2.71093304e-004
,,,-5.52500000e-009,-2.44530802e-004
,,,-5.50000000e-009,-2.20312050e-004
,,,-5.47500000e-009,-1.99999548e-004
,,,-5.45000000e-009,-1.85937047e-004
,,,-5.42500000e-009,-1.76562047e-004
,,,-5.40000000e-009,-1.72655797e-004
,,,-5.37500000e-009,-1.73437047e-004
,,,-5.35000000e-009,-1.77343297e-004
,,,-5.32500000e-009,-1.83593297e-004
,,,-5.30000000e-009,-1.92187048e-004
,,,-5.27500000e-009,-1.99999548e-004
,,,-5.25000000e-009,-2.07030799e-004
,,,-5.22500000e-009,-2.12499549e-004
,,,-5.20000000e-009,-2.16405800e-004
,,,-5.17500000e-009,-2.17968300e-004
,,,-5.15000000e-009,-2.16405800e-004
,,,-5.12500000e-009,-2.12499549e-004
,,,-5.10000000e-009,-2.07030799e-004
,,,-5.07500000e-009,-1.99999548e-004
,,,-5.05000000e-009,-1.92968298e-004
,,,-5.02500000e-009,-1.85937047e-004
,,,-5.00000000e-009,-1.79687047e-004
,,,-4.97500000e-009,-1.76562047e-004
,,,-4.95000000e-009,-1.76562047e-004
,,,-4.92500000e-009,-1.79687047e-004
,,,-4.90000000e-009,-1.87499548e-004
,,,-4.87500000e-009,-1.99999548e-004
,,,-4.85000000e-009,-2.17187050e-004
,,,-4.82500000e-009,-2.38280801e-004
,,,-4.80000000e-009,-2.61718303e-004
,,,-4.77500000e-009,-2.88280805e-004
,,,-4.75000000e-009,-3.16405807e-004
,,,-4.72500000e-009,-3.45312059e-004
,,,-4.70000000e-009,-3.73437061e-004
,,,-4.67500000e-009,-3.99999563e-004
,,,-4.65000000e-009,-4.23437064e-004
,,,-4.62500000e-009,-4.42187066e-004
,,,-4.60000000e-009,-4.53905816e-004
,,,-4.57500000e-009,-4.59374567e-004
,,,-4.55000000e-009,-4.56249567e-004
,,,-4.52500000e-009,-4.45312066e-004
,,,-4.50000000e-009,-4.26562065e-004
,,,-4.47500000e-009,-3.99999563e-004
,,,-4.45000000e-009,-3.66405810e-004
,,,-4.42500000e-009,-3.30468308e-004
,,,-4.40000000e-009,-2.94530805e-004
,,,-4.37500000e-009,-2.60937053e-004
,,,-4.35000000e-009,-2.33593301e-004
,,,-4.32500000e-009,-2.13280799e-004
,,,-4.30000000e-009,-2.02343299e-004
,,,-4.27500000e-009,-1.99999548e-004
,,,-4.25000000e-009,-2.06249549e-004
,,,-4.22500000e-009,-2.17187050e-004
,,,-4.20000000e-009,-2.29687051e-004
,,,-4.17500000e-009,-2.40624551e-004
,,,-4.15000000e-009,-2.46093302e-004
,,,-4.12500000e-009,-2.42187051e-004
,,,-4.10000000e-009,-2.27343300e-004
,,,-4.07500000e-009,-1.99999548e-004
,,,-4.05000000e-009,-1.64843296e-004
,,,-4.02500000e-009,-1.21874543e-004
,,,-4.00000000e-009,-7.81245399e-005
,,,-3.97500000e-009,-3.67182869e-005
,,,-3.95000000e-009,-3.90578462e-006
,,,-3.92500000e-009,1.56254668e-005
,,,-3.90000000e-009,1.71879669e-005
,,,-3.87500000e-009,4.65661287e-010
,,,-3.85000000e-009,-3.98432872e-005
,,,-3.82500000e-009,-9.45307910e-005
,,,-3.80000000e-009,-1.59374546e-004
,,,-3.77500000e-009,-2.28124550e-004
,,,-3.75000000e-009,-2.92968305e-004
,,,-3.72500000e-009,-3.46874559e-004
,,,-3.70000000e-009,-3.84374562e-004
,,,-3.67500000e-009,-3.99999563e-004
,,,-3.65000000e-009,-3.92187062e-004
,,,-3.62500000e-009,-3.60937060e-004
,,,-3.60000000e-009,-3.11718306e-004
,,,-3.57500000e-009,-2.48437052e-004
,,,-3.55000000e-009,-1.78905797e-004
,,,-3.52500000e-009,-1.09374542e-004
,,,-3.50000000e-009,-4.84370378e-005
,,,-3.47500000e-009,4.65661287e-010
,,,-3.45000000e-009,2.57817175e-005
,,,-3.42500000e-009,3.28129680e-005
,,,-3.40000000e-009,2.03129671e-005
,,,-3.37500000e-009,-7.81203489e-006
,,,-3.35000000e-009,-4.92182878e-005
,,,-3.32500000e-009,-9.76557913e-005
,,,-3.30000000e-009,-1.49999545e-004
,,,-3.27500000e-009,-1.99999548e-004
,,,-3.25000000e-009,-2.47655802e-004
,,,-3.22500000e-009,-2.86718305e-004
,,,-3.20000000e-009,-3.19530807e-004
,,,-3.17500000e-009,-3.43749559e-004
,,,-3.15000000e-009,-3.62499560e-004
,,,-3.12500000e-009,-3.77343311e-004
,,,-3.10000000e-009,-3.89843312e-004
,,,-3.07500000e-009,-3.99999563e-004
,,,-3.05000000e-009,-4.10155813e-004
,,,-3.02500000e-009,-4.19530814e-004
,,,-3.00000000e-009,-4.27343315e-004
,,,-2.97500000e-009,-4.32812065e-004
,,,-2.95000000e-009,-4.34374565e-004
,,,-2.92500000e-009,-4.29687065e-004
,,,-2.90000000e-009,-4.18749564e-004
,,,-2.87500000e-009,-3.99999563e-004
,,,-2.85000000e-009,-3.74218311e-004
,,,-2.82500000e-009,-3.44530809e-004
,,,-2.80000000e-009,-3.11718306e-004
,,,-2.77500000e-009,-2.78905804e-004
,,,-2.75000000e-009,-2.49218302e-004
,,,-2.72500000e-009,-2.24999550e-004
,,,-2.70000000e-009,-2.07812049e-004
,,,-2.67500000e-009,-1.99999548e-004
,,,-2.65000000e-009,-2.04687049e-004
,,,-2.62500000e-009,-2.18749550e-004
,,,-2.60000000e-009,-2.40624551e-004
,,,-2.57500000e-009,-2.69530803e-004
,,,-2.55000000e-009,-3.02343306e-004
,,,-2.52500000e-009,-3.37499558e-004
,,,-2.50000000e-009,-3.70312061e-004
,,,-2.47500000e-009,-3.99999563e-004
,,,-2.45000000e-009,-4.23437064e-004
,,,-2.42500000e-009,-4.39062065e-004
,,,-2.40000000e-009,-4.47655816e-004
,,,-2.37500000e-009,-4.49218316e-004
,,,-2.35000000e-009,-4.43749566e-004
,,,-2.32500000e-009,-4.32812065e-004
,,,-2.30000000e-009,-4.17968314e-004
,,,-2.27500000e-009,-3.99999563e-004
,,,-2.25000000e-009,-3.82030811e-004
,,,-2.22500000e-009,-3.65624560e-004
,,,-2.20000000e-009,-3.53905809e-004
,,,-2.17500000e-009,-3.48437059e-004
,,,-2.15000000e-009,-3.49218309e-004
,,,-2.12500000e-009,-3.58593310e-004
,,,-2.10000000e-009,-3.75780811e-004
,,,-2.07500000e-009,-3.99999563e-004
,,,-2.05000000e-009,-4.29687065e-004
,,,-2.02500000e-009,-4.62499567e-004
,,,-2.00000000e-009,-4.96093319e-004
,,,-1.97500000e-009,-5.28124572e-004
,,,-1.95000000e-009,-5.57030824e-004
,,,-1.92500000e-009,-5.79687075e-004
,,,-1.90000000e-009,-5.94530826e-004
,,,-1.87500000e-009,-5.99999577e-004
,,,-1.85000000e-009,-5.96874577e-004
,,,-1.82500000e-009,-5.83593326e-004
,,,-1.80000000e-009,-5.62499574e-004
,,,-1.77500000e-009,-5.35155822e-004
,,,-1.75000000e-009,-5.03124570e-004
,,,-1.72500000e-009,-4.67968317e-004
,,,-1.70000000e-009,-4.33593315e-004
,,,-1.67500000e-009,-3.99999563e-004
,,,-1.65000000e-009,-3.74218311e-004
,,,-1.62500000e-009,-3.55468309e-004
,,,-1.60000000e-009,-3.45312059e-004
,,,-1.57500000e-009,-3.42968309e-004
,,,-1.55000000e-009,-3.49218309e-004
,,,-1.52500000e-009,-3.61718310e-004
,,,-1.50000000e-009,-3.79687061e-004
,,,-1.47500000e-009,-3.99999563e-004
,,,-1.45000000e-009,-4.28905815e-004
,,,-1.42500000e-009,-4.56249567e-004
,,,-1.40000000e-009,-4.77343318e-004
,,,-1.37500000e-009,-4.89062069e-004
,,,-1.35000000e-009,-4.89062069e-004
,,,-1.32500000e-009,-4.74218318e-004
,,,-1.30000000e-009,-4.43749566e-004
,,,-1.27500000e-009,-3.99999563e-004
,,,-1.25000000e-009,-3.60155810e-004
,,,-1.22500000e-009,-3.15624557e-004
,,,-1.20000000e-009,-2.71874554e-004
,,,-1.17500000e-009,-2.32030801e-004
,,,-1.15000000e-009,-2.02343299e-004
,,,-1.12500000e-009,-1.84374547e-004
,,,-1.10000000e-009,-1.83593297e-004
,,,-1.07500000e-009,-1.99999548e-004
,,,-1.05000000e-009,-2.57812053e-004
,,,-1.02500000e-009,-3.32812058e-004
,,,-1.00000000e-009,-4.21093314e-004
,,,-9.75000000e-010,-5.14843321e-004
,,,-9.50000000e-010,-6.05468327e-004
,,,-9.25000000e-010,-6.86718333e-004
,,,-9.00000000e-010,-7.53124588e-004
,,,-8.75000000e-010,-7.99999591e-004
,,,-8.50000000e-010,-8.52343345e-004
,,,-8.25000000e-010,-8.89843347e-004
,,,-8.00000000e-010,-9.14843349e-004
,,,-7.75000000e-010,-9.31249600e-004
,,,-7.50000000e-010,-9.42187101e-004
,,,-7.25000000e-010,-9.53124602e-004
,,,-7.00000000e-010,-9.71093353e-004
,,,-6.75000000e-010,-9.99999605e-004
,,,-6.50000000e-010,-1.07109336e-003
,,,-6.25000000e-010,-1.16406212e-003
,,,-6.00000000e-010,-1.27812462e-003
,,,-5.75000000e-010,-1.40859338e-003
,,,-5.50000000e-010,-1.55156214e-003
,,,-5.25000000e-010,-1.70078090e-003
,,,-5.00000000e-010,-1.85156217e-003
,,,-4.75000000e-010,-1.99999968e-003
,,,-4.50000000e-010,-2.16171844e-003
,,,-4.25000000e-010,-2.32109345e-003
,,,-4.00000000e-010,-2.47656221e-003
,,,-3.75000000e-010,-2.62734347e-003
,,,-3.50000000e-010,-2.77421848e-003
,,,-3.25000000e-010,-2.91718724e-003
,,,-3.00000000e-010,-3.05859350e-003
,,,-2.75000000e-010,-3.19999976e-003
,,,-2.50000000e-010,-3.34921852e-003
,,,-2.25000000e-010,-3.50703103e-003
,,,-2.00000000e-010,-3.67265604e-003
,,,-1.75000000e-010,-3.84765606e-003
,,,-1.50000000e-010,-4.02968732e-003
,,,-1.25000000e-010,-4.21718733e-003
,,,-1.00000000e-010,-4.40781235e-003
,,,-7.50000000e-011,-4.59999986e-003
,,,-5.00000000e-011,-4.78046862e-003
,,,-2.50000000e-011,-4.96171864e-003
,,,0.00000000e+000,-5.14374990e-003
,,,2.50000000e-011,-5.32421866e-003
,,,5.00000000e-011,-5.50312492e-003
,,,7.50000000e-011,-5.67656244e-003
,,,1.00000000e-010,-5.84296870e-003
,,,1.25000000e-010,-5.99999996e-003
,,,1.50000000e-010,-6.12187497e-003
,,,1.75000000e-010,-6.23593748e-003
,,,2.00000000e-010,-6.34453123e-003
,,,2.25000000e-010,-6.44687499e-003
,,,2.50000000e-010,-6.54453125e-003
,,,2.75000000e-010,-6.63671875e-003
,,,3.00000000e-010,-6.72187501e-003
,,,3.25000000e-010,-6.80000002e-003
,,,3.50000000e-010,-6.83750002e-003
,,,3.75000000e-010,-6.87109377e-003
,,,4.00000000e-010,-6.90234377e-003
,,,4.25000000e-010,-6.93046877e-003
,,,4.50000000e-010,-6.95625003e-003
,,,4.75000000e-010,-6.97812503e-003
,,,5.00000000e-010,-6.99296878e-003
,,,5.25000000e-010,-7.00000003e-003
,,,5.50000000e-010,-6.96484378e-003
,,,5.75000000e-010,-6.92265627e-003
,,,6.00000000e-010,-6.87656252e-003
,,,6.25000000e-010,-6.82734377e-003
,,,6.50000000e-010,-6.77578126e-003
,,,6.75000000e-010,-6.72109376e-003
,,,7.00000000e-010,-6.66250001e-003
,,,7.25000000e-010,-6.60000000e-003
,,,7.50000000e-010,-6.50468749e-003
,,,7.75000000e-010,-6.40703124e-003
,,,8.00000000e-010,-6.30781248e-003
,,,8.25000000e-010,-6.20781247e-003
,,,8.50000000e-010,-6.10703122e-003
,,,8.75000000e-010,-6.00546871e-003
,,,9.00000000e-010,-5.90312495e-003
,,,9.25000000e-010,-5.79999994e-003
,,,9.50000000e-010,-5.68046869e-003
,,,9.75000000e-010,-5.56249993e-003
,,,1.00000000e-009,-5.44843742e-003
,,,1.02500000e-009,-5.34062491e-003
,,,1.05000000e-009,-5.24062491e-003
,,,1.07500000e-009,-5.14999990e-003
,,,1.10000000e-009,-5.07031239e-003
,,,1.12500000e-009,-4.99999989e-003
,,,1.15000000e-009,-4.93515613e-003
,,,1.17500000e-009,-4.87734363e-003
,,,1.20000000e-009,-4.82499988e-003
,,,1.22500000e-009,-4.77734362e-003
,,,1.25000000e-009,-4.73281237e-003
,,,1.27500000e-009,-4.68984362e-003
,,,1.30000000e-009,-4.64609361e-003
,,,1.32500000e-009,-4.59999986e-003
,,,1.35000000e-009,-4.55078111e-003
,,,1.37500000e-009,-4.49296860e-003
,,,1.40000000e-009,-4.42578110e-003
,,,1.42500000e-009,-4.35078109e-003
,,,1.45000000e-009,-4.26874984e-003
,,,1.47500000e-009,-4.18203108e-003
,,,1.50000000e-009,-4.09140607e-003
,,,1.52500000e-009,-3.99999982e-003
,,,1.55000000e-009,-3.91562481e-003
,,,1.57500000e-009,-3.82968731e-003
,,,1.60000000e-009,-3.74453105e-003
,,,1.62500000e-009,-3.66249979e-003
,,,1.65000000e-009,-3.58515604e-003
,,,1.67500000e-009,-3.51484353e-003
,,,1.70000000e-009,-3.45312478e-003
,,,1.72500000e-009,-3.39999977e-003
,,,1.75000000e-009,-3.36484352e-003
,,,1.77500000e-009,-3.33437477e-003
,,,1.80000000e-009,-3.30703102e-003
,,,1.82500000e-009,-3.28281227e-003
,,,1.85000000e-009,-3.26015602e-003
,,,1.87500000e-009,-3.23906226e-003
,,,1.90000000e-009,-3.21953101e-003
,,,1.92500000e-009,-3.19999976e-003
,,,1.95000000e-009,-3.18671851e-003
,,,1.97500000e-009,-3.16796851e-003
,,,2.00000000e-009,-3.14531226e-003
,,,2.02500000e-009,-3.11953101e-003
,,,2.05000000e-009,-3.09062475e-003
,,,2.07500000e-009,-3.06015600e-003
,,,2.10000000e-009,-3.02968725e-003
,,,2.12500000e-009,-2.99999975e-003
,,,2.15000000e-009,-2.97734350e-003
,,,2.17500000e-009,-2.95468724e-003
,,,2.20000000e-009,-2.93046849e-003
,,,2.22500000e-009,-2.90546849e-003
,,,2.25000000e-009,-2.87968724e-003
,,,2.27500000e-009,-2.85390599e-003
,,,2.30000000e-009,-2.82734348e-003
,,,2.32500000e-009,-2.79999973e-003
,,,2.35000000e-009,-2.77734348e-003
,,,2.37500000e-009,-2.75234348e-003
,,,2.40000000e-009,-2.72578098e-003
,,,2.42500000e-009,-2.69843723e-003
,,,2.45000000e-009,-2.67187472e-003
,,,2.47500000e-009,-2.64609347e-003
,,,2.50000000e-009,-2.62187472e-003
,,,2.52500000e-009,-2.59999972e-003
,,,2.55000000e-009,-2.58437472e-003
,,,2.57500000e-009,-2.56796847e-003
,,,2.60000000e-009,-2.54921846e-003
,,,2.62500000e-009,-2.52812471e-003
,,,2.65000000e-009,-2.50234346e-003
,,,2.67500000e-009,-2.47265596e-003
,,,2.70000000e-009,-2.43828096e-003
,,,2.72500000e-009,-2.39999970e-003
,,,2.75000000e-009,-2.36015595e-003
,,,2.77500000e-009,-2.31796845e-003
,,,2.80000000e-009,-2.27734345e-003
,,,2.82500000e-009,-2.24140594e-003
,,,2.85000000e-009,-2.21328094e-003
,,,2.87500000e-009,-2.19609344e-003
,,,2.90000000e-009,-2.19140594e-003
,,,2.92500000e-009,-2.19999969e-003
,,,2.95000000e-009,-2.22109344e-003
,,,2.97500000e-009,-2.24921844e-003
,,,3.00000000e-009,-2.28281220e-003
,,,3.02500000e-009,-2.31718720e-003
,,,3.05000000e-009,-2.34999970e-003
,,,3.07500000e-009,-2.37578095e-003
,,,3.10000000e-009,-2.39374970e-003
,,,3.12500000e-009,-2.39999970e-003
,,,3.15000000e-009,-2.39140595e-003
,,,3.17500000e-009,-2.37031220e-003
,,,3.20000000e-009,-2.33984345e-003
,,,3.22500000e-009,-2.30468720e-003
,,,3.25000000e-009,-2.26874969e-003
,,,3.27500000e-009,-2.23749969e-003
,,,3.30000000e-009,-2.21406219e-003
,,,3.32500000e-009,-2.19999969e-003
,,,3.35000000e-009,-2.19531219e-003
,,,3.37500000e-009,-2.19843719e-003
,,,3.40000000e-009,-2.20781219e-003
,,,3.42500000e-009,-2.21874969e-003
,,,3.45000000e-009,-2.22812469e-003
,,,3.47500000e-009,-2.23046844e-003
,,,3.50000000e-009,-2.22187469e-003
,,,3.52500000e-009,-2.19999969e-003
,,,3.55000000e-009,-2.16015594e-003
,,,3.57500000e-009,-2.10390593e-003
,,,3.60000000e-009,-2.03281218e-003
,,,3.62500000e-009,-1.95156217e-003
,,,3.65000000e-009,-1.86328092e-003
,,,3.67500000e-009,-1.77265591e-003
,,,3.70000000e-009,-1.68359340e-003
,,,3.72500000e-009,-1.59999965e-003
,,,3.75000000e-009,-1.52578089e-003
,,,3.77500000e-009,-1.46015589e-003
,,,3.80000000e-009,-1.40312463e-003
,,,3.82500000e-009,-1.35390588e-003
,,,3.85000000e-009,-1.31093713e-003
,,,3.87500000e-009,-1.27187462e-003
,,,3.90000000e-009,-1.23593712e-003
,,,3.92500000e-009,-1.19999962e-003
,,,3.95000000e-009,-1.16953087e-003
,,,3.97500000e-009,-1.13828086e-003
,,,4.00000000e-009,-1.10624961e-003
,,,4.02500000e-009,-1.07578086e-003
,,,4.05000000e-009,-1.04843711e-003
,,,4.07500000e-009,-1.02499961e-003
,,,4.10000000e-009,-1.00859336e-003
,,,4.12500000e-009,-9.99999605e-004
,,,4.15000000e-009,-1.00703086e-003
,,,4.17500000e-009,-1.02109336e-003
,,,4.20000000e-009,-1.04140586e-003
,,,4.22500000e-009,-1.06796836e-003
,,,4.25000000e-009,-1.09921836e-003
,,,4.27500000e-009,-1.13281211e-003
,,,4.30000000e-009,-1.16718712e-003
,,,4.32500000e-009,-1.19999962e-003
,,,4.35000000e-009,-1.23203087e-003
,,,4.37500000e-009,-1.25546837e-003
,,,4.40000000e-009,-1.27031212e-003
,,,4.42500000e-009,-1.27499962e-003
,,,4.45000000e-009,-1.26953087e-003
,,,4.47500000e-009,-1.25468712e-003
,,,4.50000000e-009,-1.23124962e-003
,,,4.52500000e-009,-1.19999962e-003
,,,4.55000000e-009,-1.16796837e-003
,,,4.57500000e-009,-1.13281211e-003
,,,4.60000000e-009,-1.09609336e-003
,,,4.62500000e-009,-1.06249961e-003
,,,4.65000000e-009,-1.03437461e-003
,,,4.67500000e-009,-1.01328086e-003
,,,4.70000000e-009,-1.00156211e-003
,,,4.72500000e-009,-9.99999605e-004
,,,4.75000000e-009,-1.01249961e-003
,,,4.77500000e-009,-1.03281211e-003
,,,4.80000000e-009,-1.06015586e-003
,,,4.82500000e-009,-1.09140586e-003
,,,4.85000000e-009,-1.12421836e-003
,,,4.87500000e-009,-1.15546837e-003
,,,4.90000000e-009,-1.18124962e-003
,,,4.92500000e-009,-1.19999962e-003
,,,4.95000000e-009,-1.20703087e-003
,,,4.97500000e-009,-1.20234337e-003
,,,5.00000000e-009,-1.18749962e-003
,,,5.02500000e-009,-1.16171837e-003
,,,5.05000000e-009,-1.12890586e-003
,,,5.07500000e-009,-1.08906211e-003
,,,5.10000000e-009,-1.04531211e-003
,,,5.12500000e-009,-9.99999605e-004
,,,5.15000000e-009,-9.54687102e-004
,,,5.17500000e-009,-9.12499599e-004
,,,5.20000000e-009,-8.75780846e-004
,,,5.22500000e-009,-8.44530844e-004
,,,5.25000000e-009,-8.21874593e-004
,,,5.27500000e-009,-8.06249591e-004
,,,5.30000000e-009,-7.99218341e-004
,,,5.32500000e-009,-7.99999591e-004
,,,5.35000000e-009,-8.08593342e-004
,,,5.37500000e-009,-8.23437093e-004
,,,5.40000000e-009,-8.43749594e-004
,,,5.42500000e-009,-8.68749596e-004
,,,5.45000000e-009,-8.98437098e-004
,,,5.47500000e-009,-9.31249600e-004
,,,5.50000000e-009,-9.65624603e-004
,,,5.52500000e-009,-9.99999605e-004
,,,5.55000000e-009,-1.02890586e-003
,,,5.57500000e-009,-1.05156211e-003
,,,5.60000000e-009,-1.06718711e-003
,,,5.62500000e-009,-1.07343711e-003
,,,5.65000000e-009,-1.07109336e-003
,,,5.67500000e-009,-1.05781211e-003
,,,5.70000000e-009,-1.03359336e-003
,,,5.72500000e-009,-9.99999605e-004
,,,5.75000000e-009,-9.54687102e-004
,,,5.77500000e-009,-9.01562098e-004
,,,5.80000000e-009,-8.45312094e-004
,,,5.82500000e-009,-7.87499590e-004
