RawData/SinglePhotoelectron/R2_2pt2D_5mV/wave029_Ch4.csv

"Record Length",1000,"Points",-7.72500000e-009,9.74999995e-004
"Sample Interval",2.50000000e-011,s,-7.70000000e-009,1.05625000e-003
"Trigger Point",309,"Samples",-7.67500000e-009,1.13437501e-003
"Trigger Time",1.34067925e-011,s,-7.65000000e-009,1.20000001e-003
"",,,-7.62500000e-009,1.24375001e-003
"Horizontal Offset",-7.72500000e-009,s,-7.60000000e-009,1.26718752e-003
,,,-7.57500000e-009,1.27343752e-003
,,,-7.55000000e-009,1.26562502e-003
,,,-7.52500000e-009,1.24843751e-003
,,,-7.50000000e-009,1.22968751e-003
,,,-7.47500000e-009,1.21250001e-003
,,,-7.45000000e-009,1.20000001e-003
,,,-7.42500000e-009,1.19531251e-003
,,,-7.40000000e-009,1.19687501e-003
,,,-7.37500000e-009,1.20625001e-003
,,,-7.35000000e-009,1.21718751e-003
,,,-7.32500000e-009,1.22812501e-003
,,,-7.30000000e-009,1.22968751e-003
,,,-7.27500000e-009,1.22187501e-003
,,,-7.25000000e-009,1.20000001e-003
,,,-7.22500000e-009,1.15937501e-003
,,,-7.20000000e-009,1.10781250e-003
,,,-7.17500000e-009,1.04687500e-003
,,,-7.15000000e-009,9.82812495e-004
,,,-7.12500000e-009,9.21874991e-004
,,,-7.10000000e-009,8.68749987e-004
,,,-7.07500000e-009,8.28124984e-004
,,,-7.05000000e-009,7.99999982e-004
,,,-7.02500000e-009,7.89062481e-004
,,,-7.00000000e-009,7.89062481e-004
,,,-6.97500000e-009,7.98437482e-004
,,,-6.95000000e-009,8.10937483e-004
,,,-6.92500000e-009,8.23437484e-004
,,,-6.90000000e-009,8.28124984e-004
,,,-6.87500000e-009,8.21874984e-004
,,,-6.85000000e-009,7.99999982e-004
,,,-6.82500000e-009,7.62499979e-004
,,,-6.80000000e-009,7.12499976e-004
,,,-6.77500000e-009,6.51562472e-004
,,,-6.75000000e-009,5.85937467e-004
,,,-6.72500000e-009,5.21874962e-004
,,,-6.70000000e-009,4.65624958e-004
,,,-6.67500000e-009,4.24999956e-004
,,,-6.65000000e-009,3.99999954e-004
,,,-6.62500000e-009,4.01562454e-004
,,,-6.60000000e-009,4.23437455e-004
,,,-6.57500000e-009,4.64062458e-004
,,,-6.55000000e-009,5.20312462e-004
,,,-6.52500000e-009,5.87499967e-004
,,,-6.50000000e-009,6.60937472e-004
,,,-6.47500000e-009,7.32812477e-004
,,,-6.45000000e-009,7.99999982e-004
,,,-6.42500000e-009,8.57812486e-004
,,,-6.40000000e-009,8.98437489e-004
,,,-6.37500000e-009,9.21874991e-004
,,,-6.35000000e-009,9.26562491e-004
,,,-6.32500000e-009,9.15624990e-004
,,,-6.30000000e-009,8.89062488e-004
,,,-6.27500000e-009,8.49999986e-004
,,,-6.25000000e-009,7.99999982e-004
,,,-6.22500000e-009,7.46874978e-004
,,,-6.20000000e-009,6.89062474e-004
,,,-6.17500000e-009,6.31249970e-004
,,,-6.15000000e-009,5.74999966e-004
,,,-6.12500000e-009,5.21874962e-004
,,,-6.10000000e-009,4.74999959e-004
,,,-6.07500000e-009,4.34374956e-004
,,,-6.05000000e-009,3.99999954e-004
,,,-6.02500000e-009,3.79687452e-004
,,,-6.00000000e-009,3.65624951e-004
,,,-5.97500000e-009,3.59374951e-004
,,,-5.95000000e-009,3.59374951e-004
,,,-5.92500000e-009,3.65624951e-004
,,,-5.90000000e-009,3.74999952e-004
,,,-5.87500000e-009,3.87499953e-004
,,,-5.85000000e-009,3.99999954e-004
,,,-5.82500000e-009,4.17187455e-004
,,,-5.80000000e-009,4.29687456e-004
,,,-5.77500000e-009,4.39062457e-004
,,,-5.75000000e-009,4.42187457e-004
,,,-5.72500000e-009,4.40624957e-004
,,,-5.70000000e-009,4.31249956e-004
,,,-5.67500000e-009,4.18749955e-004
,,,-5.65000000e-009,3.99999954e-004
,,,-5.62500000e-009,3.79687452e-004
,,,-5.60000000e-009,3.59374951e-004
,,,-5.57500000e-009,3.42187450e-004
,,,-5.55000000e-009,3.31249949e-004
,,,-5.52500000e-009,3.29687449e-004
,,,-5.50000000e-009,3.40624950e-004
,,,-5.47500000e-009,3.64062451e-004
,,,-5.45000000e-009,3.99999954e-004
,,,-5.42500000e-009,4.49999957e-004
,,,-5.40000000e-009,5.07812461e-004
,,,-5.37500000e-009,5.70312466e-004
,,,-5.35000000e-009,6.31249970e-004
,,,-5.32500000e-009,6.89062474e-004
,,,-5.30000000e-009,7.37499978e-004
,,,-5.27500000e-009,7.74999980e-004
,,,-5.25000000e-009,7.99999982e-004
,,,-5.22500000e-009,8.10937483e-004
,,,-5.20000000e-009,8.10937483e-004
,,,-5.17500000e-009,8.03124982e-004
,,,-5.15000000e-009,7.92187482e-004
,,,-5.12500000e-009,7.82812481e-004
,,,-5.10000000e-009,7.79687481e-004
,,,-5.07500000e-009,7.84374981e-004
,,,-5.05000000e-009,7.99999982e-004
,,,-5.02500000e-009,8.21874984e-004
,,,-5.00000000e-009,8.48437486e-004
,,,-4.97500000e-009,8.74999987e-004
,,,-4.95000000e-009,8.96874989e-004
,,,-4.92500000e-009,9.04687490e-004
,,,-4.90000000e-009,8.93749989e-004
,,,-4.87500000e-009,8.60937486e-004
,,,-4.85000000e-009,7.99999982e-004
,,,-4.82500000e-009,7.12499976e-004
,,,-4.80000000e-009,6.06249968e-004
,,,-4.77500000e-009,4.85937460e-004
,,,-4.75000000e-009,3.60937451e-004
,,,-4.72500000e-009,2.42187443e-004
,,,-4.70000000e-009,1.37499935e-004
,,,-4.67500000e-009,5.46874294e-005
,,,-4.65000000e-009,-7.45058060e-011
,,,-4.62500000e-009,-1.71875757e-005
,,,-4.60000000e-009,-4.68757484e-006
,,,-4.57500000e-009,3.59374280e-005
,,,-4.55000000e-009,9.84374325e-005
,,,-4.52500000e-009,1.74999938e-004
,,,-4.50000000e-009,2.54687444e-004
,,,-4.47500000e-009,3.32812449e-004
,,,-4.45000000e-009,3.99999954e-004
,,,-4.42500000e-009,4.53124958e-004
,,,-4.40000000e-009,4.85937460e-004
,,,-4.37500000e-009,4.99999961e-004
,,,-4.35000000e-009,4.96874961e-004
,,,-4.32500000e-009,4.81249960e-004
,,,-4.30000000e-009,4.56249958e-004
,,,-4.27500000e-009,4.28124956e-004
,,,-4.25000000e-009,3.99999954e-004
,,,-4.22500000e-009,3.81249952e-004
,,,-4.20000000e-009,3.70312452e-004
,,,-4.17500000e-009,3.64062451e-004
,,,-4.15000000e-009,3.67187451e-004
,,,-4.12500000e-009,3.73437452e-004
,,,-4.10000000e-009,3.82812453e-004
,,,-4.07500000e-009,3.92187453e-004
,,,-4.05000000e-009,3.99999954e-004
,,,-4.02500000e-009,4.06249954e-004
,,,-4.00000000e-009,4.07812454e-004
,,,-3.97500000e-009,4.04687454e-004
,,,-3.95000000e-009,3.99999954e-004
,,,-3.92500000e-009,3.96874954e-004
,,,-3.90000000e-009,3.93749953e-004
,,,-3.87500000e-009,3.95312453e-004
,,,-3.85000000e-009,3.99999954e-004
,,,-3.82500000e-009,4.10937455e-004
,,,-3.80000000e-009,4.23437455e-004
,,,-3.77500000e-009,4.34374956e-004
,,,-3.75000000e-009,4.42187457e-004
,,,-3.72500000e-009,4.43749957e-004
,,,-3.70000000e-009,4.37499956e-004
,,,-3.67500000e-009,4.23437455e-004
,,,-3.65000000e-009,3.99999954e-004
,,,-3.62500000e-009,3.73437452e-004
,,,-3.60000000e-009,3.43749950e-004
,,,-3.57500000e-009,3.18749948e-004
,,,-3.55000000e-009,3.03124947e-004
,,,-3.52500000e-009,2.99999947e-004
,,,-3.50000000e-009,3.14062448e-004
,,,-3.47500000e-009,3.48437450e-004
,,,-3.45000000e-009,3.99999954e-004
,,,-3.42500000e-009,4.70312459e-004
,,,-3.40000000e-009,5.51562465e-004
,,,-3.37500000e-009,6.34374970e-004
,,,-3.35000000e-009,7.12499976e-004
,,,-3.32500000e-009,7.73437480e-004
,,,-3.30000000e-009,8.14062483e-004
,,,-3.27500000e-009,8.23437484e-004
,,,-3.25000000e-009,7.99999982e-004
,,,-3.22500000e-009,7.45312478e-004
,,,-3.20000000e-009,6.59374972e-004
,,,-3.17500000e-009,5.53124965e-004
,,,-3.15000000e-009,4.31249956e-004
,,,-3.12500000e-009,3.06249947e-004
,,,-3.10000000e-009,1.85937439e-004
,,,-3.07500000e-009,8.12499312e-005
,,,-3.05000000e-009,-7.45058060e-011
,,,-3.02500000e-009,-4.21875775e-005
,,,-3.00000000e-009,-5.15625782e-005
,,,-2.97500000e-009,-2.81250765e-005
,,,-2.95000000e-009,2.49999273e-005
,,,-2.92500000e-009,1.01562433e-004
,,,-2.90000000e-009,1.93749939e-004
,,,-2.87500000e-009,2.96874947e-004
,,,-2.85000000e-009,3.99999954e-004
,,,-2.82500000e-009,5.01562461e-004
,,,-2.80000000e-009,5.90624967e-004
,,,-2.77500000e-009,6.64062472e-004
,,,-2.75000000e-009,7.21874977e-004
,,,-2.72500000e-009,7.62499979e-004
,,,-2.70000000e-009,7.89062481e-004
,,,-2.67500000e-009,7.99999982e-004
,,,-2.65000000e-009,7.99999982e-004
,,,-2.62500000e-009,7.93749982e-004
,,,-2.60000000e-009,7.84374981e-004
,,,-2.57500000e-009,7.74999980e-004
,,,-2.55000000e-009,7.68749980e-004
,,,-2.52500000e-009,7.65624980e-004
,,,-2.50000000e-009,7.70312480e-004
,,,-2.47500000e-009,7.81249981e-004
,,,-2.45000000e-009,7.99999982e-004
,,,-2.42500000e-009,8.29687484e-004
,,,-2.40000000e-009,8.67187487e-004
,,,-2.37500000e-009,9.14062490e-004
,,,-2.35000000e-009,9.65624994e-004
,,,-2.32500000e-009,1.02343750e-003
,,,-2.30000000e-009,1.08437500e-003
,,,-2.27500000e-009,1.14375001e-003
,,,-2.25000000e-009,1.20000001e-003
,,,-2.22500000e-009,1.24687501e-003
,,,-2.20000000e-009,1.28281252e-003
,,,-2.17500000e-009,1.30625002e-003
,,,-2.15000000e-009,1.31562502e-003
,,,-2.12500000e-009,1.30937502e-003
,,,-2.10000000e-009,1.28750002e-003
,,,-2.07500000e-009,1.25000001e-003
,,,-2.05000000e-009,1.20000001e-003
,,,-2.02500000e-009,1.13281251e-003
,,,-2.00000000e-009,1.06093750e-003
,,,-1.97500000e-009,9.89062496e-004
,,,-1.95000000e-009,9.23437491e-004
,,,-1.92500000e-009,8.68749987e-004
,,,-1.90000000e-009,8.28124984e-004
,,,-1.87500000e-009,8.04687482e-004
,,,-1.85000000e-009,7.99999982e-004
,,,-1.82500000e-009,8.10937483e-004
,,,-1.80000000e-009,8.39062485e-004
,,,-1.77500000e-009,8.82812488e-004
,,,-1.75000000e-009,9.39062492e-004
,,,-1.72500000e-009,1.00312500e-003
,,,-1.70000000e-009,1.07187500e-003
,,,-1.67500000e-009,1.13906251e-003
,,,-1.65000000e-009,1.20000001e-003
,,,-1.62500000e-009,1.23906251e-003
,,,-1.60000000e-009,1.26562502e-003
,,,-1.57500000e-009,1.27812502e-003
,,,-1.55000000e-009,1.27812502e-003
,,,-1.52500000e-009,1.26718752e-003
,,,-1.50000000e-009,1.25000001e-003
,,,-1.47500000e-009,1.22812501e-003
,,,-1.45000000e-009,1.20000001e-003
,,,-1.42500000e-009,1.15468751e-003
,,,-1.40000000e-009,1.10625000e-003
,,,-1.37500000e-009,1.05468750e-003
,,,-1.35000000e-009,1.00312500e-003
,,,-1.32500000e-009,9.53124993e-004
,,,-1.30000000e-009,9.01562489e-004
,,,-1.27500000e-009,8.51562486e-004
,,,-1.25000000e-009,7.99999982e-004
,,,-1.22500000e-009,7.29687477e-004
,,,-1.20000000e-009,6.57812472e-004
,,,-1.17500000e-009,5.89062467e-004
,,,-1.15000000e-009,5.26562463e-004
,,,-1.12500000e-009,4.74999959e-004
,,,-1.10000000e-009,4.35937456e-004
,,,-1.07500000e-009,4.12499955e-004
,,,-1.05000000e-009,3.99999954e-004
,,,-1.02500000e-009,3.78124952e-004
,,,-1.00000000e-009,3.54687451e-004
,,,-9.75000000e-010,3.28124949e-004
,,,-9.50000000e-010,2.93749946e-004
,,,-9.25000000e-010,2.46874943e-004
,,,-9.00000000e-010,1.84374939e-004
,,,-8.75000000e-010,1.03124933e-004
,,,-8.50000000e-010,-7.45058060e-011
,,,-8.25000000e-010,-1.46875085e-004
,,,-8.00000000e-010,-3.14062597e-004
,,,-7.75000000e-010,-4.89062609e-004
,,,-7.50000000e-010,-6.67187622e-004
,,,-7.25000000e-010,-8.32812633e-004
,,,-7.00000000e-010,-9.81250144e-004
,,,-6.75000000e-010,-1.10312515e-003
,,,-6.50000000e-010,-1.20000016e-003
,,,-6.25000000e-010,-1.28906267e-003
,,,-6.00000000e-010,-1.36562517e-003
,,,-5.75000000e-010,-1.43593768e-003
,,,-5.50000000e-010,-1.50937518e-003
,,,-5.25000000e-010,-1.59375019e-003
,,,-5.00000000e-010,-1.70000019e-003
,,,-4.75000000e-010,-1.83281270e-003
,,,-4.50000000e-010,-2.00000022e-003
,,,-4.25000000e-010,-2.21250023e-003
,,,-4.00000000e-010,-2.45937525e-003
,,,-3.75000000e-010,-2.73125027e-003
,,,-3.50000000e-010,-3.01406279e-003
,,,-3.25000000e-010,-3.29687531e-003
,,,-3.00000000e-010,-3.56250033e-003
,,,-2.75000000e-010,-3.80000034e-003
,,,-2.50000000e-010,-4.00000036e-003
,,,-2.25000000e-010,-4.15312537e-003
,,,-2.00000000e-010,-4.27187538e-003
,,,-1.75000000e-010,-4.36718788e-003
,,,-1.50000000e-010,-4.44375039e-003
,,,-1.25000000e-010,-4.51406289e-003
,,,-1.00000000e-010,-4.59218790e-003
,,,-7.50000000e-011,-4.68281291e-003
,,,-5.00000000e-011,-4.80000041e-003
,,,-2.50000000e-011,-4.92968792e-003
,,,0.00000000e+000,-5.09531294e-003
,,,2.50000000e-011,-5.29062545e-003
,,,5.00000000e-011,-5.50937546e-003
,,,7.50000000e-011,-5.74062548e-003
,,,1.00000000e-010,-5.97343800e-003
,,,1.25000000e-010,-6.19687551e-003
,,,1.50000000e-010,-6.40000053e-003
,,,1.75000000e-010,-6.54687554e-003
,,,2.00000000e-010,-6.67187555e-003
,,,2.25000000e-010,-6.77812555e-003
,,,2.50000000e-010,-6.87031306e-003
,,,2.75000000e-010,-6.95312557e-003
,,,3.00000000e-010,-7.03281307e-003
,,,3.25000000e-010,-7.11406308e-003
,,,3.50000000e-010,-7.20000058e-003
,,,3.75000000e-010,-7.25312559e-003
,,,4.00000000e-010,-7.31406309e-003
,,,4.25000000e-010,-7.38125060e-003
,,,4.50000000e-010,-7.45000060e-003
,,,4.75000000e-010,-7.51250061e-003
,,,5.00000000e-010,-7.56250061e-003
,,,5.25000000e-010,-7.59375061e-003
,,,5.50000000e-010,-7.60000061e-003
,,,5.75000000e-010,-7.53437561e-003
,,,6.00000000e-010,-7.44531310e-003
,,,6.25000000e-010,-7.33906309e-003
,,,6.50000000e-010,-7.22343809e-003
,,,6.75000000e-010,-7.10468808e-003
,,,7.00000000e-010,-6.99062557e-003
,,,7.25000000e-010,-6.88750056e-003
,,,7.50000000e-010,-6.80000056e-003
,,,7.75000000e-010,-6.69687555e-003
,,,8.00000000e-010,-6.61406304e-003
,,,8.25000000e-010,-6.55000054e-003
,,,8.50000000e-010,-6.50468803e-003
,,,8.75000000e-010,-6.47187553e-003
,,,9.00000000e-010,-6.44687553e-003
,,,9.25000000e-010,-6.42500053e-003
,,,9.50000000e-010,-6.40000053e-003
,,,9.75000000e-010,-6.33750052e-003
,,,1.00000000e-009,-6.26250052e-003
,,,1.02500000e-009,-6.17500051e-003
,,,1.05000000e-009,-6.07500050e-003
,,,1.07500000e-009,-5.96562550e-003
,,,1.10000000e-009,-5.84843799e-003
,,,1.12500000e-009,-5.72656298e-003
,,,1.15000000e-009,-5.60000047e-003
,,,1.17500000e-009,-5.45312546e-003
,,,1.20000000e-009,-5.30468795e-003
,,,1.22500000e-009,-5.15312544e-003
,,,1.25000000e-009,-5.00156293e-003
,,,1.27500000e-009,-4.84843792e-003
,,,1.30000000e-009,-4.69843791e-003
,,,1.32500000e-009,-4.54843790e-003
,,,1.35000000e-009,-4.40000039e-003
,,,1.37500000e-009,-4.24843788e-003
,,,1.40000000e-009,-4.09375036e-003
,,,1.42500000e-009,-3.93750035e-003
,,,1.45000000e-009,-3.78281284e-003
,,,1.47500000e-009,-3.62812533e-003
,,,1.50000000e-009,-3.47812532e-003
,,,1.52500000e-009,-3.33437531e-003
,,,1.55000000e-009,-3.20000030e-003
,,,1.57500000e-009,-3.07656279e-003
,,,1.60000000e-009,-2.95781278e-003
,,,1.62500000e-009,-2.84375028e-003
,,,1.65000000e-009,-2.73593777e-003
,,,1.67500000e-009,-2.63750026e-003
,,,1.70000000e-009,-2.54687525e-003
,,,1.72500000e-009,-2.46718775e-003
,,,1.75000000e-009,-2.40000024e-003
,,,1.77500000e-009,-2.34843774e-003
,,,1.80000000e-009,-2.30000024e-003
,,,1.82500000e-009,-2.25312523e-003
,,,1.85000000e-009,-2.20468773e-003
,,,1.87500000e-009,-2.15468773e-003
,,,1.90000000e-009,-2.10468772e-003
,,,1.92500000e-009,-2.05312522e-003
,,,1.95000000e-009,-2.00000022e-003
,,,1.97500000e-009,-1.95468771e-003
,,,2.00000000e-009,-1.90468771e-003
,,,2.02500000e-009,-1.85000021e-003
,,,2.05000000e-009,-1.79375020e-003
,,,2.07500000e-009,-1.73906270e-003
,,,2.10000000e-009,-1.68593769e-003
,,,2.12500000e-009,-1.63906269e-003
,,,2.15000000e-009,-1.60000019e-003
,,,2.17500000e-009,-1.57187519e-003
,,,2.20000000e-009,-1.54218768e-003
,,,2.22500000e-009,-1.50937518e-003
,,,2.25000000e-009,-1.46718768e-003
,,,2.27500000e-009,-1.41718767e-003
,,,2.30000000e-009,-1.35625017e-003
,,,2.32500000e-009,-1.28281267e-003
,,,2.35000000e-009,-1.20000016e-003
,,,2.37500000e-009,-1.10781265e-003
,,,2.40000000e-009,-1.00312515e-003
,,,2.42500000e-009,-8.90625138e-004
,,,2.45000000e-009,-7.75000129e-004
,,,2.47500000e-009,-6.62500121e-004
,,,2.50000000e-009,-5.59375114e-004
,,,2.52500000e-009,-4.70312608e-004
,,,2.55000000e-009,-4.00000103e-004
,,,2.57500000e-009,-3.54687600e-004
,,,2.60000000e-009,-3.28125098e-004
,,,2.62500000e-009,-3.17187597e-004
,,,2.65000000e-009,-3.18750097e-004
,,,2.67500000e-009,-3.31250098e-004
,,,2.70000000e-009,-3.51562599e-004
,,,2.72500000e-009,-3.75000101e-004
,,,2.75000000e-009,-4.00000103e-004
,,,2.77500000e-009,-4.25000105e-004
,,,2.80000000e-009,-4.42187606e-004
,,,2.82500000e-009,-4.51562606e-004
,,,2.85000000e-009,-4.51562606e-004
,,,2.87500000e-009,-4.45312606e-004
,,,2.90000000e-009,-4.34375105e-004
,,,2.92500000e-009,-4.18750104e-004
,,,2.95000000e-009,-4.00000103e-004
,,,2.97500000e-009,-3.76562601e-004
,,,3.00000000e-009,-3.48437599e-004
,,,3.02500000e-009,-3.12500097e-004
,,,3.05000000e-009,-2.68750094e-004
,,,3.07500000e-009,-2.17187590e-004
,,,3.10000000e-009,-1.54687585e-004
,,,3.12500000e-009,-8.12500803e-005
,,,3.15000000e-009,-7.45058060e-011
,,,3.17500000e-009,9.06249319e-005
,,,3.20000000e-009,1.87499939e-004
,,,3.22500000e-009,2.93749946e-004
,,,3.25000000e-009,4.03124954e-004
,,,3.27500000e-009,5.12499962e-004
,,,3.30000000e-009,6.17187469e-004
,,,3.32500000e-009,7.15624976e-004
,,,3.35000000e-009,7.99999982e-004
,,,3.37500000e-009,8.64062487e-004
,,,3.40000000e-009,9.12499990e-004
,,,3.42500000e-009,9.40624992e-004
,,,3.45000000e-009,9.49999993e-004
,,,3.47500000e-009,9.40624992e-004
,,,3.50000000e-009,9.10937490e-004
,,,3.52500000e-009,8.64062487e-004
,,,3.55000000e-009,7.99999982e-004
,,,3.57500000e-009,7.23437477e-004
,,,3.60000000e-009,6.43749971e-004
,,,3.62500000e-009,5.65624966e-004
,,,3.65000000e-009,4.98437461e-004
,,,3.67500000e-009,4.43749957e-004
,,,3.70000000e-009,4.07812454e-004
,,,3.72500000e-009,3.93749953e-004
,,,3.75000000e-009,3.99999954e-004
,,,3.77500000e-009,4.28124956e-004
,,,3.80000000e-009,4.71874959e-004
,,,3.82500000e-009,5.31249963e-004
,,,3.85000000e-009,5.95312468e-004
,,,3.87500000e-009,6.60937472e-004
,,,3.90000000e-009,7.20312476e-004
,,,3.92500000e-009,7.67187480e-004
,,,3.95000000e-009,7.99999982e-004
,,,3.97500000e-009,8.12499983e-004
,,,4.00000000e-009,8.12499983e-004
,,,4.02500000e-009,8.01562482e-004
,,,4.05000000e-009,7.87499981e-004
,,,4.07500000e-009,7.74999980e-004
,,,4.10000000e-009,7.70312480e-004
,,,4.12500000e-009,7.78124981e-004
,,,4.15000000e-009,7.99999982e-004
,,,4.17500000e-009,8.35937485e-004
,,,4.20000000e-009,8.87499988e-004
,,,4.22500000e-009,9.48437493e-004
,,,4.25000000e-009,1.01562500e-003
,,,4.27500000e-009,1.08125000e-003
,,,4.30000000e-009,1.13750001e-003
,,,4.32500000e-009,1.17968751e-003
,,,4.35000000e-009,1.20000001e-003
,,,4.37500000e-009,1.19687501e-003
,,,4.40000000e-009,1.17031251e-003
,,,4.42500000e-009,1.12343751e-003
,,,4.45000000e-009,1.06406250e-003
,,,4.47500000e-009,9.95312496e-004
,,,4.50000000e-009,9.24999991e-004
,,,4.52500000e-009,8.57812486e-004
,,,4.55000000e-009,7.99999982e-004
,,,4.57500000e-009,7.56249979e-004
,,,4.60000000e-009,7.26562477e-004
,,,4.62500000e-009,7.14062476e-004
,,,4.65000000e-009,7.15624976e-004
,,,4.67500000e-009,7.28124977e-004
,,,4.70000000e-009,7.49999979e-004
,,,4.72500000e-009,7.74999980e-004
,,,4.75000000e-009,7.99999982e-004
,,,4.77500000e-009,8.21874984e-004
,,,4.80000000e-009,8.37499985e-004
,,,4.82500000e-009,8.46874985e-004
,,,4.85000000e-009,8.48437486e-004
,,,4.87500000e-009,8.43749985e-004
,,,4.90000000e-009,8.32812484e-004
,,,4.92500000e-009,8.18749983e-004
,,,4.95000000e-009,7.99999982e-004
,,,4.97500000e-009,7.82812481e-004
,,,5.00000000e-009,7.68749980e-004
,,,5.02500000e-009,7.57812479e-004
,,,5.05000000e-009,7.53124979e-004
,,,5.07500000e-009,7.54687479e-004
,,,5.10000000e-009,7.64062480e-004
,,,5.12500000e-009,7.79687481e-004
,,,5.15000000e-009,7.99999982e-004
,,,5.17500000e-009,8.24999984e-004
,,,5.20000000e-009,8.48437486e-004
,,,5.22500000e-009,8.67187487e-004
,,,5.25000000e-009,8.79687488e-004
,,,5.27500000e-009,8.81249988e-004
,,,5.30000000e-009,8.68749987e-004
,,,5.32500000e-009,8.42187485e-004
,,,5.35000000e-009,7.99999982e-004
,,,5.37500000e-009,7.48437478e-004
,,,5.40000000e-009,6.85937474e-004
,,,5.42500000e-009,6.18749969e-004
,,,5.45000000e-009,5.53124965e-004
,,,5.47500000e-009,4.93749960e-004
,,,5.50000000e-009,4.45312457e-004
,,,5.52500000e-009,4.12499955e-004
,,,5.55000000e-009,3.99999954e-004
,,,5.57500000e-009,4.12499955e-004
,,,5.60000000e-009,4.45312457e-004
,,,5.62500000e-009,4.93749960e-004
,,,5.65000000e-009,5.53124965e-004
,,,5.67500000e-009,6.18749969e-004
,,,5.70000000e-009,6.85937474e-004
,,,5.72500000e-009,7.48437478e-004
,,,5.75000000e-009,7.99999982e-004
,,,5.77500000e-009,8.40624985e-004
,,,5.80000000e-009,8.65624987e-004
,,,5.82500000e-009,8.74999987e-004
,,,5.85000000e-009,8.71874987e-004
,,,5.87500000e-009,8.60937486e-004
,,,5.90000000e-009,8.42187485e-004
,,,5.92500000e-009,8.20312484e-004
,,,5.95000000e-009,7.99999982e-004
,,,5.97500000e-009,7.84374981e-004
,,,6.00000000e-009,7.73437480e-004
,,,6.02500000e-009,7.67187480e-004
,,,6.05000000e-009,7.68749980e-004
,,,6.07500000e-009,7.73437480e-004
