RawData/SinglePhotoelectron/R2_2pt2D_5mV/wave018_Ch4.csv

"Record Length",1000,"Points",-7.72500000e-009,8.85937488e-004
"Sample Interval",2.50000000e-011,s,-7.70000000e-009,8.92187489e-004
"Trigger Point",309,"Samples",-7.67500000e-009,8.81249988e-004
"Trigger Time",1.86300917e-011,s,-7.65000000e-009,8.59374986e-004
"",,,-7.62500000e-009,8.35937485e-004
"Horizontal Offset",-7.72500000e-009,s,-7.60000000e-009,8.14062483e-004
,,,-7.57500000e-009,7.99999982e-004
,,,-7.55000000e-009,7.93749982e-004
,,,-7.52500000e-009,7.98437482e-004
,,,-7.50000000e-009,8.09374983e-004
,,,-7.47500000e-009,8.24999984e-004
,,,-7.45000000e-009,8.35937485e-004
,,,-7.42500000e-009,8.39062485e-004
,,,-7.40000000e-009,8.28124984e-004
,,,-7.37500000e-009,7.99999982e-004
,,,-7.35000000e-009,7.53124979e-004
,,,-7.32500000e-009,6.92187474e-004
,,,-7.30000000e-009,6.23437470e-004
,,,-7.27500000e-009,5.53124965e-004
,,,-7.25000000e-009,4.89062460e-004
,,,-7.22500000e-009,4.37499956e-004
,,,-7.20000000e-009,4.07812454e-004
,,,-7.17500000e-009,3.99999954e-004
,,,-7.15000000e-009,4.18749955e-004
,,,-7.12500000e-009,4.59374958e-004
,,,-7.10000000e-009,5.18749962e-004
,,,-7.07500000e-009,5.87499967e-004
,,,-7.05000000e-009,6.57812472e-004
,,,-7.02500000e-009,7.21874977e-004
,,,-7.00000000e-009,7.71874980e-004
,,,-6.97500000e-009,7.99999982e-004
,,,-6.95000000e-009,8.01562482e-004
,,,-6.92500000e-009,7.78124981e-004
,,,-6.90000000e-009,7.32812477e-004
,,,-6.87500000e-009,6.71874973e-004
,,,-6.85000000e-009,6.03124968e-004
,,,-6.82500000e-009,5.29687463e-004
,,,-6.80000000e-009,4.60937458e-004
,,,-6.77500000e-009,3.99999954e-004
,,,-6.75000000e-009,3.57812451e-004
,,,-6.72500000e-009,3.29687449e-004
,,,-6.70000000e-009,3.17187448e-004
,,,-6.67500000e-009,3.20312448e-004
,,,-6.65000000e-009,3.34374949e-004
,,,-6.62500000e-009,3.54687451e-004
,,,-6.60000000e-009,3.78124952e-004
,,,-6.57500000e-009,3.99999954e-004
,,,-6.55000000e-009,4.20312455e-004
,,,-6.52500000e-009,4.34374956e-004
,,,-6.50000000e-009,4.40624957e-004
,,,-6.47500000e-009,4.40624957e-004
,,,-6.45000000e-009,4.34374956e-004
,,,-6.42500000e-009,4.23437455e-004
,,,-6.40000000e-009,4.12499955e-004
,,,-6.37500000e-009,3.99999954e-004
,,,-6.35000000e-009,3.92187453e-004
,,,-6.32500000e-009,3.87499953e-004
,,,-6.30000000e-009,3.85937453e-004
,,,-6.27500000e-009,3.85937453e-004
,,,-6.25000000e-009,3.87499953e-004
,,,-6.22500000e-009,3.92187453e-004
,,,-6.20000000e-009,3.96874954e-004
,,,-6.17500000e-009,3.99999954e-004
,,,-6.15000000e-009,4.04687454e-004
,,,-6.12500000e-009,4.06249954e-004
,,,-6.10000000e-009,4.07812454e-004
,,,-6.07500000e-009,4.07812454e-004
,,,-6.05000000e-009,4.06249954e-004
,,,-6.02500000e-009,4.04687454e-004
,,,-6.00000000e-009,4.03124954e-004
,,,-5.97500000e-009,3.99999954e-004
,,,-5.95000000e-009,4.01562454e-004
,,,-5.92500000e-009,4.01562454e-004
,,,-5.90000000e-009,3.99999954e-004
,,,-5.87500000e-009,3.99999954e-004
,,,-5.85000000e-009,3.99999954e-004
,,,-5.82500000e-009,4.01562454e-004
,,,-5.80000000e-009,3.99999954e-004
,,,-5.77500000e-009,3.99999954e-004
,,,-5.75000000e-009,4.03124954e-004
,,,-5.72500000e-009,4.04687454e-004
,,,-5.70000000e-009,4.06249954e-004
,,,-5.67500000e-009,4.07812454e-004
,,,-5.65000000e-009,4.07812454e-004
,,,-5.62500000e-009,4.06249954e-004
,,,-5.60000000e-009,4.04687454e-004
,,,-5.57500000e-009,3.99999954e-004
,,,-5.55000000e-009,3.99999954e-004
,,,-5.52500000e-009,3.99999954e-004
,,,-5.50000000e-009,3.99999954e-004
,,,-5.47500000e-009,3.98437454e-004
,,,-5.45000000e-009,3.98437454e-004
,,,-5.42500000e-009,3.99999954e-004
,,,-5.40000000e-009,3.99999954e-004
,,,-5.37500000e-009,3.99999954e-004
,,,-5.35000000e-009,4.03124954e-004
,,,-5.32500000e-009,4.06249954e-004
,,,-5.30000000e-009,4.07812454e-004
,,,-5.27500000e-009,4.09374954e-004
,,,-5.25000000e-009,4.09374954e-004
,,,-5.22500000e-009,4.07812454e-004
,,,-5.20000000e-009,4.04687454e-004
,,,-5.17500000e-009,3.99999954e-004
,,,-5.15000000e-009,3.96874954e-004
,,,-5.12500000e-009,3.92187453e-004
,,,-5.10000000e-009,3.89062453e-004
,,,-5.07500000e-009,3.85937453e-004
,,,-5.05000000e-009,3.84374953e-004
,,,-5.02500000e-009,3.85937453e-004
,,,-5.00000000e-009,3.90624953e-004
,,,-4.97500000e-009,3.99999954e-004
,,,-4.95000000e-009,4.20312455e-004
,,,-4.92500000e-009,4.46874957e-004
,,,-4.90000000e-009,4.82812460e-004
,,,-4.87500000e-009,5.29687463e-004
,,,-4.85000000e-009,5.84374967e-004
,,,-4.82500000e-009,6.49999972e-004
,,,-4.80000000e-009,7.21874977e-004
,,,-4.77500000e-009,7.99999982e-004
,,,-4.75000000e-009,8.78124988e-004
,,,-4.72500000e-009,9.54687493e-004
,,,-4.70000000e-009,1.02656250e-003
,,,-4.67500000e-009,1.08906250e-003
,,,-4.65000000e-009,1.14062501e-003
,,,-4.62500000e-009,1.17812501e-003
,,,-4.60000000e-009,1.19843751e-003
,,,-4.57500000e-009,1.20000001e-003
,,,-4.55000000e-009,1.17812501e-003
,,,-4.52500000e-009,1.14062501e-003
,,,-4.50000000e-009,1.09062500e-003
,,,-4.47500000e-009,1.03281250e-003
,,,-4.45000000e-009,9.70312494e-004
,,,-4.42500000e-009,9.07812490e-004
,,,-4.40000000e-009,8.49999986e-004
,,,-4.37500000e-009,7.99999982e-004
,,,-4.35000000e-009,7.59374979e-004
,,,-4.32500000e-009,7.29687477e-004
,,,-4.30000000e-009,7.15624976e-004
,,,-4.27500000e-009,7.14062476e-004
,,,-4.25000000e-009,7.23437477e-004
,,,-4.22500000e-009,7.43749978e-004
,,,-4.20000000e-009,7.70312480e-004
,,,-4.17500000e-009,7.99999982e-004
,,,-4.15000000e-009,8.24999984e-004
,,,-4.12500000e-009,8.45312485e-004
,,,-4.10000000e-009,8.60937486e-004
,,,-4.07500000e-009,8.67187487e-004
,,,-4.05000000e-009,8.65624987e-004
,,,-4.02500000e-009,8.53124986e-004
,,,-4.00000000e-009,8.31249984e-004
,,,-3.97500000e-009,7.99999982e-004
,,,-3.95000000e-009,7.57812479e-004
,,,-3.92500000e-009,7.09374976e-004
,,,-3.90000000e-009,6.56249972e-004
,,,-3.87500000e-009,5.99999968e-004
,,,-3.85000000e-009,5.45312464e-004
,,,-3.82500000e-009,4.92187460e-004
,,,-3.80000000e-009,4.43749957e-004
,,,-3.77500000e-009,3.99999954e-004
,,,-3.75000000e-009,3.67187451e-004
,,,-3.72500000e-009,3.43749950e-004
,,,-3.70000000e-009,3.31249949e-004
,,,-3.67500000e-009,3.26562449e-004
,,,-3.65000000e-009,3.34374949e-004
,,,-3.62500000e-009,3.49999950e-004
,,,-3.60000000e-009,3.73437452e-004
,,,-3.57500000e-009,3.99999954e-004
,,,-3.55000000e-009,4.31249956e-004
,,,-3.52500000e-009,4.59374958e-004
,,,-3.50000000e-009,4.79687459e-004
,,,-3.47500000e-009,4.89062460e-004
,,,-3.45000000e-009,4.89062460e-004
,,,-3.42500000e-009,4.73437459e-004
,,,-3.40000000e-009,4.43749957e-004
,,,-3.37500000e-009,3.99999954e-004
,,,-3.35000000e-009,3.48437450e-004
,,,-3.32500000e-009,2.87499946e-004
,,,-3.30000000e-009,2.23437441e-004
,,,-3.27500000e-009,1.59374937e-004
,,,-3.25000000e-009,1.01562433e-004
,,,-3.22500000e-009,5.31249293e-005
,,,-3.20000000e-009,1.87499268e-005
,,,-3.17500000e-009,-7.45058060e-011
,,,-3.15000000e-009,7.81242605e-006
,,,-3.12500000e-009,3.12499277e-005
,,,-3.10000000e-009,7.18749306e-005
,,,-3.07500000e-009,1.26562434e-004
,,,-3.05000000e-009,1.92187439e-004
,,,-3.02500000e-009,2.62499944e-004
,,,-3.00000000e-009,3.32812449e-004
,,,-2.97500000e-009,3.99999954e-004
,,,-2.95000000e-009,4.60937458e-004
,,,-2.92500000e-009,5.06249961e-004
,,,-2.90000000e-009,5.34374963e-004
,,,-2.87500000e-009,5.43749964e-004
,,,-2.85000000e-009,5.34374963e-004
,,,-2.82500000e-009,5.06249961e-004
,,,-2.80000000e-009,4.60937458e-004
,,,-2.77500000e-009,3.99999954e-004
,,,-2.75000000e-009,3.31249949e-004
,,,-2.72500000e-009,2.57812444e-004
,,,-2.70000000e-009,1.85937439e-004
,,,-2.67500000e-009,1.20312434e-004
,,,-2.65000000e-009,6.56249301e-005
,,,-2.62500000e-009,2.49999273e-005
,,,-2.60000000e-009,3.12492572e-006
,,,-2.57500000e-009,-7.45058060e-011
,,,-2.55000000e-009,2.03124269e-005
,,,-2.52500000e-009,5.78124296e-005
,,,-2.50000000e-009,1.09374933e-004
,,,-2.47500000e-009,1.68749937e-004
,,,-2.45000000e-009,2.32812442e-004
,,,-2.42500000e-009,2.95312446e-004
,,,-2.40000000e-009,3.53124950e-004
,,,-2.37500000e-009,3.99999954e-004
,,,-2.35000000e-009,4.39062457e-004
,,,-2.32500000e-009,4.62499958e-004
,,,-2.30000000e-009,4.73437459e-004
,,,-2.27500000e-009,4.71874959e-004
,,,-2.25000000e-009,4.62499958e-004
,,,-2.22500000e-009,4.43749957e-004
,,,-2.20000000e-009,4.23437455e-004
,,,-2.17500000e-009,3.99999954e-004
,,,-2.15000000e-009,3.81249952e-004
,,,-2.12500000e-009,3.67187451e-004
,,,-2.10000000e-009,3.60937451e-004
,,,-2.07500000e-009,3.59374951e-004
,,,-2.05000000e-009,3.64062451e-004
,,,-2.02500000e-009,3.74999952e-004
,,,-2.00000000e-009,3.87499953e-004
,,,-1.97500000e-009,3.99999954e-004
,,,-1.95000000e-009,4.14062455e-004
,,,-1.92500000e-009,4.23437455e-004
,,,-1.90000000e-009,4.31249956e-004
,,,-1.87500000e-009,4.32812456e-004
,,,-1.85000000e-009,4.31249956e-004
,,,-1.82500000e-009,4.24999956e-004
,,,-1.80000000e-009,4.14062455e-004
,,,-1.77500000e-009,3.99999954e-004
,,,-1.75000000e-009,3.82812453e-004
,,,-1.72500000e-009,3.65624951e-004
,,,-1.70000000e-009,3.49999950e-004
,,,-1.67500000e-009,3.40624950e-004
,,,-1.65000000e-009,3.40624950e-004
,,,-1.62500000e-009,3.48437450e-004
,,,-1.60000000e-009,3.68749952e-004
,,,-1.57500000e-009,3.99999954e-004
,,,-1.55000000e-009,4.34374956e-004
,,,-1.52500000e-009,4.76562459e-004
,,,-1.50000000e-009,5.24999963e-004
,,,-1.47500000e-009,5.79687467e-004
,,,-1.45000000e-009,6.37499971e-004
,,,-1.42500000e-009,6.95312475e-004
,,,-1.40000000e-009,7.49999979e-004
,,,-1.37500000e-009,7.99999982e-004
,,,-1.35000000e-009,8.26562484e-004
,,,-1.32500000e-009,8.42187485e-004
,,,-1.30000000e-009,8.46874985e-004
,,,-1.27500000e-009,8.45312485e-004
,,,-1.25000000e-009,8.37499985e-004
,,,-1.22500000e-009,8.26562484e-004
,,,-1.20000000e-009,8.14062483e-004
,,,-1.17500000e-009,7.99999982e-004
,,,-1.15000000e-009,7.65624980e-004
,,,-1.12500000e-009,7.26562477e-004
,,,-1.10000000e-009,6.82812474e-004
,,,-1.07500000e-009,6.35937471e-004
,,,-1.05000000e-009,5.84374967e-004
,,,-1.02500000e-009,5.29687463e-004
,,,-1.00000000e-009,4.68749959e-004
,,,-9.75000000e-010,3.99999954e-004
,,,-9.50000000e-010,2.98437447e-004
,,,-9.25000000e-010,1.89062439e-004
,,,-9.00000000e-010,7.34374307e-005
,,,-8.75000000e-010,-3.90625773e-005
,,,-8.50000000e-010,-1.45312585e-004
,,,-8.25000000e-010,-2.42187592e-004
,,,-8.00000000e-010,-3.26562598e-004
,,,-7.75000000e-010,-4.00000103e-004
,,,-7.50000000e-010,-4.92187609e-004
,,,-7.25000000e-010,-5.82812616e-004
,,,-7.00000000e-010,-6.73437622e-004
,,,-6.75000000e-010,-7.65625129e-004
,,,-6.50000000e-010,-8.62500136e-004
,,,-6.25000000e-010,-9.65625143e-004
,,,-6.00000000e-010,-1.07812515e-003
,,,-5.75000000e-010,-1.20000016e-003
,,,-5.50000000e-010,-1.35937517e-003
,,,-5.25000000e-010,-1.53125018e-003
,,,-5.00000000e-010,-1.70781270e-003
,,,-4.75000000e-010,-1.88125021e-003
,,,-4.50000000e-010,-2.04375022e-003
,,,-4.25000000e-010,-2.18750023e-003
,,,-4.00000000e-010,-2.30625024e-003
,,,-3.75000000e-010,-2.40000024e-003
,,,-3.50000000e-010,-2.48906275e-003
,,,-3.25000000e-010,-2.56875026e-003
,,,-3.00000000e-010,-2.64218776e-003
,,,-2.75000000e-010,-2.72031277e-003
,,,-2.50000000e-010,-2.80625027e-003
,,,-2.25000000e-010,-2.91093778e-003
,,,-2.00000000e-010,-3.03906279e-003
,,,-1.75000000e-010,-3.20000030e-003
,,,-1.50000000e-010,-3.40625032e-003
,,,-1.25000000e-010,-3.65312533e-003
,,,-1.00000000e-010,-3.93750035e-003
,,,-7.50000000e-011,-4.25156288e-003
,,,-5.00000000e-011,-4.58437540e-003
,,,-2.50000000e-011,-4.92656292e-003
,,,0.00000000e+000,-5.26718795e-003
,,,2.50000000e-011,-5.60000047e-003
,,,5.00000000e-011,-5.90625049e-003
,,,7.50000000e-011,-6.19843801e-003
,,,1.00000000e-010,-6.47343803e-003
,,,1.25000000e-010,-6.72968805e-003
,,,1.50000000e-010,-6.97031307e-003
,,,1.75000000e-010,-7.19375058e-003
,,,2.00000000e-010,-7.40312560e-003
,,,2.25000000e-010,-7.60000061e-003
,,,2.50000000e-010,-7.75937562e-003
,,,2.75000000e-010,-7.91562563e-003
,,,3.00000000e-010,-8.07343815e-003
,,,3.25000000e-010,-8.22812566e-003
,,,3.50000000e-010,-8.38281317e-003
,,,3.75000000e-010,-8.53125068e-003
,,,4.00000000e-010,-8.67031319e-003
,,,4.25000000e-010,-8.80000070e-003
,,,4.50000000e-010,-8.87187570e-003
,,,4.75000000e-010,-8.93593821e-003
,,,5.00000000e-010,-8.99218821e-003
,,,5.25000000e-010,-9.04218821e-003
,,,5.50000000e-010,-9.08750072e-003
,,,5.75000000e-010,-9.12968822e-003
,,,6.00000000e-010,-9.16718822e-003
,,,6.25000000e-010,-9.20000073e-003
,,,6.50000000e-010,-9.18125072e-003
,,,6.75000000e-010,-9.16562572e-003
,,,7.00000000e-010,-9.15468822e-003
,,,7.25000000e-010,-9.15000072e-003
,,,7.50000000e-010,-9.15312572e-003
,,,7.75000000e-010,-9.16250072e-003
,,,8.00000000e-010,-9.17812572e-003
,,,8.25000000e-010,-9.20000073e-003
,,,8.50000000e-010,-9.17500072e-003
,,,8.75000000e-010,-9.15781322e-003
,,,9.00000000e-010,-9.14843822e-003
,,,9.25000000e-010,-9.14687572e-003
,,,9.50000000e-010,-9.15468822e-003
,,,9.75000000e-010,-9.16875072e-003
,,,1.00000000e-009,-9.18437572e-003
,,,1.02500000e-009,-9.20000073e-003
,,,1.05000000e-009,-9.15937572e-003
,,,1.07500000e-009,-9.10625072e-003
,,,1.10000000e-009,-9.03750071e-003
,,,1.12500000e-009,-8.95156321e-003
,,,1.15000000e-009,-8.84687570e-003
,,,1.17500000e-009,-8.72031319e-003
,,,1.20000000e-009,-8.57187568e-003
,,,1.22500000e-009,-8.40000067e-003
,,,1.25000000e-009,-8.17031315e-003
,,,1.27500000e-009,-7.92031314e-003
,,,1.30000000e-009,-7.65781312e-003
,,,1.32500000e-009,-7.38906310e-003
,,,1.35000000e-009,-7.12187558e-003
,,,1.37500000e-009,-6.86406306e-003
,,,1.40000000e-009,-6.62187554e-003
,,,1.42500000e-009,-6.40000053e-003
,,,1.45000000e-009,-6.18593801e-003
,,,1.47500000e-009,-5.99218800e-003
,,,1.50000000e-009,-5.81875049e-003
,,,1.52500000e-009,-5.66562548e-003
,,,1.55000000e-009,-5.53125047e-003
,,,1.57500000e-009,-5.41093796e-003
,,,1.60000000e-009,-5.30156295e-003
,,,1.62500000e-009,-5.20000044e-003
,,,1.65000000e-009,-5.08750043e-003
,,,1.67500000e-009,-4.96562543e-003
,,,1.70000000e-009,-4.83125042e-003
,,,1.72500000e-009,-4.68281291e-003
,,,1.75000000e-009,-4.52500039e-003
,,,1.77500000e-009,-4.35625038e-003
,,,1.80000000e-009,-4.18125037e-003
,,,1.82500000e-009,-4.00000036e-003
,,,1.85000000e-009,-3.81562534e-003
,,,1.87500000e-009,-3.62187533e-003
,,,1.90000000e-009,-3.41875032e-003
,,,1.92500000e-009,-3.21093780e-003
,,,1.95000000e-009,-3.00156279e-003
,,,1.97500000e-009,-2.79375027e-003
,,,2.00000000e-009,-2.59062526e-003
,,,2.02500000e-009,-2.40000024e-003
,,,2.05000000e-009,-2.23750023e-003
,,,2.07500000e-009,-2.08593772e-003
,,,2.10000000e-009,-1.95000021e-003
,,,2.12500000e-009,-1.83125020e-003
,,,2.15000000e-009,-1.73593770e-003
,,,2.17500000e-009,-1.66562519e-003
,,,2.20000000e-009,-1.62031269e-003
,,,2.22500000e-009,-1.60000019e-003
,,,2.25000000e-009,-1.61093769e-003
,,,2.27500000e-009,-1.62187519e-003
,,,2.30000000e-009,-1.62343769e-003
,,,2.32500000e-009,-1.60312519e-003
,,,2.35000000e-009,-1.55468768e-003
,,,2.37500000e-009,-1.47343768e-003
,,,2.40000000e-009,-1.35468767e-003
,,,2.42500000e-009,-1.20000016e-003
,,,2.45000000e-009,-1.02500015e-003
,,,2.47500000e-009,-8.18750132e-004
,,,2.50000000e-009,-5.90625116e-004
,,,2.52500000e-009,-3.53125100e-004
,,,2.55000000e-009,-1.21875083e-004
,,,2.57500000e-009,8.90624318e-005
,,,2.60000000e-009,2.67187444e-004
,,,2.62500000e-009,3.99999954e-004
,,,2.65000000e-009,4.62499958e-004
,,,2.67500000e-009,4.79687459e-004
,,,2.70000000e-009,4.56249958e-004
,,,2.72500000e-009,3.96874954e-004
,,,2.75000000e-009,3.12499948e-004
,,,2.77500000e-009,2.10937440e-004
,,,2.80000000e-009,1.03124933e-004
,,,2.82500000e-009,-7.45058060e-011
,,,2.85000000e-009,-1.00000082e-004
,,,2.87500000e-009,-1.71875087e-004
,,,2.90000000e-009,-2.14062590e-004
,,,2.92500000e-009,-2.21875090e-004
,,,2.95000000e-009,-2.00000089e-004
,,,2.97500000e-009,-1.51562585e-004
,,,3.00000000e-009,-8.12500803e-005
,,,3.02500000e-009,-7.45058060e-011
,,,3.05000000e-009,7.96874311e-005
,,,3.07500000e-009,1.60937437e-004
,,,3.10000000e-009,2.35937442e-004
,,,3.12500000e-009,3.01562447e-004
,,,3.15000000e-009,3.53124950e-004
,,,3.17500000e-009,3.89062453e-004
,,,3.20000000e-009,4.04687454e-004
,,,3.22500000e-009,3.99999954e-004
,,,3.25000000e-009,3.70312452e-004
,,,3.27500000e-009,3.26562449e-004
,,,3.30000000e-009,2.73437445e-004
,,,3.32500000e-009,2.12499941e-004
,,,3.35000000e-009,1.51562436e-004
,,,3.37500000e-009,9.21874320e-005
,,,3.40000000e-009,4.06249284e-005
,,,3.42500000e-009,-7.45058060e-011
,,,3.45000000e-009,-2.50000763e-005
,,,3.47500000e-009,-2.96875766e-005
,,,3.50000000e-009,-1.09375753e-005
,,,3.52500000e-009,3.12499277e-005
,,,3.55000000e-009,9.68749324e-005
,,,3.57500000e-009,1.84374939e-004
,,,3.60000000e-009,2.87499946e-004
,,,3.62500000e-009,3.99999954e-004
,,,3.65000000e-009,5.17187462e-004
,,,3.67500000e-009,6.28124970e-004
,,,3.70000000e-009,7.24999977e-004
,,,3.72500000e-009,7.99999982e-004
,,,3.75000000e-009,8.49999986e-004
,,,3.77500000e-009,8.67187487e-004
,,,3.80000000e-009,8.49999986e-004
,,,3.82500000e-009,7.99999982e-004
,,,3.85000000e-009,7.15624976e-004
,,,3.87500000e-009,6.07812469e-004
,,,3.90000000e-009,4.87499960e-004
,,,3.92500000e-009,3.60937451e-004
,,,3.95000000e-009,2.42187443e-004
,,,3.97500000e-009,1.35937435e-004
,,,4.00000000e-009,5.46874294e-005
,,,4.02500000e-009,-7.45058060e-011
,,,4.05000000e-009,-1.71875757e-005
,,,4.07500000e-009,-1.56257462e-006
,,,4.10000000e-009,4.06249284e-005
,,,4.12500000e-009,1.03124933e-004
,,,4.15000000e-009,1.79687438e-004
,,,4.17500000e-009,2.59374944e-004
,,,4.20000000e-009,3.35937449e-004
,,,4.22500000e-009,3.99999954e-004
,,,4.25000000e-009,4.48437457e-004
,,,4.27500000e-009,4.78124959e-004
,,,4.30000000e-009,4.89062460e-004
,,,4.32500000e-009,4.82812460e-004
,,,4.35000000e-009,4.67187459e-004
,,,4.37500000e-009,4.43749957e-004
,,,4.40000000e-009,4.20312455e-004
,,,4.42500000e-009,3.99999954e-004
,,,4.45000000e-009,3.84374953e-004
,,,4.47500000e-009,3.74999952e-004
,,,4.50000000e-009,3.73437452e-004
,,,4.52500000e-009,3.78124952e-004
,,,4.55000000e-009,3.85937453e-004
,,,4.57500000e-009,3.95312453e-004
,,,4.60000000e-009,3.99999954e-004
,,,4.62500000e-009,3.99999954e-004
,,,4.65000000e-009,3.98437454e-004
,,,4.67500000e-009,3.92187453e-004
,,,4.70000000e-009,3.82812453e-004
,,,4.72500000e-009,3.73437452e-004
,,,4.75000000e-009,3.67187451e-004
,,,4.77500000e-009,3.68749952e-004
,,,4.80000000e-009,3.79687452e-004
,,,4.82500000e-009,3.99999954e-004
,,,4.85000000e-009,4.35937456e-004
,,,4.87500000e-009,4.81249960e-004
,,,4.90000000e-009,5.34374963e-004
,,,4.92500000e-009,5.93749968e-004
,,,4.95000000e-009,6.54687472e-004
,,,4.97500000e-009,7.12499976e-004
,,,5.00000000e-009,7.62499979e-004
,,,5.02500000e-009,7.99999982e-004
,,,5.05000000e-009,8.20312484e-004
,,,5.07500000e-009,8.20312484e-004
,,,5.10000000e-009,8.01562482e-004
,,,5.12500000e-009,7.59374979e-004
,,,5.15000000e-009,6.96874975e-004
,,,5.17500000e-009,6.12499969e-004
,,,5.20000000e-009,5.12499962e-004
,,,5.22500000e-009,3.99999954e-004
,,,5.25000000e-009,2.85937446e-004
,,,5.27500000e-009,1.76562438e-004
,,,5.30000000e-009,7.81249310e-005
,,,5.32500000e-009,1.56242560e-006
,,,5.35000000e-009,-5.00000780e-005
,,,5.37500000e-009,-6.71875793e-005
,,,5.40000000e-009,-5.15625782e-005
,,,5.42500000e-009,-7.45058060e-011
,,,5.45000000e-009,8.90624318e-005
,,,5.47500000e-009,2.01562440e-004
,,,5.50000000e-009,3.28124949e-004
,,,5.52500000e-009,4.57812458e-004
,,,5.55000000e-009,5.79687467e-004
,,,5.57500000e-009,6.81249974e-004
,,,5.60000000e-009,7.57812479e-004
,,,5.62500000e-009,7.99999982e-004
,,,5.65000000e-009,8.04687482e-004
,,,5.67500000e-009,7.76562480e-004
,,,5.70000000e-009,7.21874977e-004
,,,5.72500000e-009,6.49999972e-004
,,,5.75000000e-009,5.71874966e-004
,,,5.77500000e-009,4.98437461e-004
,,,5.80000000e-009,4.39062457e-004
,,,5.82500000e-009,3.99999954e-004
,,,5.85000000e-009,3.92187453e-004
,,,5.87500000e-009,4.10937455e-004
,,,5.90000000e-009,4.54687458e-004
,,,5.92500000e-009,5.18749962e-004
,,,5.95000000e-009,5.92187467e-004
,,,5.97500000e-009,6.70312473e-004
,,,6.00000000e-009,7.42187478e-004
,,,6.02500000e-009,7.99999982e-004
,,,6.05000000e-009,8.42187485e-004
,,,6.07500000e-009,8.65624987e-004
