RawData/SinglePhotoelectron/R2_2pt2D_5mV/wave011_Ch4.csv

"Record Length",1000,"Points",-7.72500000e-009,6.95312475e-004
"Sample Interval",2.50000000e-011,s,-7.70000000e-009,7.23437477e-004
"Trigger Point",309,"Samples",-7.67500000e-009,7.59374979e-004
"Trigger Time",2.24575000e-011,s,-7.65000000e-009,7.99999982e-004
"",,,-7.62500000e-009,8.43749985e-004
"Horizontal Offset",-7.72500000e-009,s,-7.60000000e-009,8.79687488e-004
,,,-7.57500000e-009,9.06249990e-004
,,,-7.55000000e-009,9.18749991e-004
,,,-7.52500000e-009,9.15624990e-004
,,,-7.50000000e-009,8.93749989e-004
,,,-7.47500000e-009,8.54687486e-004
,,,-7.45000000e-009,7.99999982e-004
,,,-7.42500000e-009,7.37499978e-004
,,,-7.40000000e-009,6.68749973e-004
,,,-7.37500000e-009,5.96874968e-004
,,,-7.35000000e-009,5.29687463e-004
,,,-7.32500000e-009,4.71874959e-004
,,,-7.30000000e-009,4.28124956e-004
,,,-7.27500000e-009,4.04687454e-004
,,,-7.25000000e-009,3.99999954e-004
,,,-7.22500000e-009,4.21874955e-004
,,,-7.20000000e-009,4.60937458e-004
,,,-7.17500000e-009,5.14062462e-004
,,,-7.15000000e-009,5.76562466e-004
,,,-7.12500000e-009,6.42187471e-004
,,,-7.10000000e-009,7.04687475e-004
,,,-7.07500000e-009,7.59374979e-004
,,,-7.05000000e-009,7.99999982e-004
,,,-7.02500000e-009,8.31249984e-004
,,,-7.00000000e-009,8.46874985e-004
,,,-6.97500000e-009,8.48437486e-004
,,,-6.95000000e-009,8.40624985e-004
,,,-6.92500000e-009,8.26562484e-004
,,,-6.90000000e-009,8.10937483e-004
,,,-6.87500000e-009,8.01562482e-004
,,,-6.85000000e-009,7.99999982e-004
,,,-6.82500000e-009,8.12499983e-004
,,,-6.80000000e-009,8.37499985e-004
,,,-6.77500000e-009,8.76562488e-004
,,,-6.75000000e-009,9.28124991e-004
,,,-6.72500000e-009,9.90624996e-004
,,,-6.70000000e-009,1.06093750e-003
,,,-6.67500000e-009,1.13125001e-003
,,,-6.65000000e-009,1.20000001e-003
,,,-6.62500000e-009,1.25781251e-003
,,,-6.60000000e-009,1.30312502e-003
,,,-6.57500000e-009,1.33281252e-003
,,,-6.55000000e-009,1.34375002e-003
,,,-6.52500000e-009,1.33593752e-003
,,,-6.50000000e-009,1.30781252e-003
,,,-6.47500000e-009,1.26250001e-003
,,,-6.45000000e-009,1.20000001e-003
,,,-6.42500000e-009,1.12656251e-003
,,,-6.40000000e-009,1.05000000e-003
,,,-6.37500000e-009,9.73437494e-004
,,,-6.35000000e-009,9.04687490e-004
,,,-6.32500000e-009,8.49999986e-004
,,,-6.30000000e-009,8.12499983e-004
,,,-6.27500000e-009,7.95312482e-004
,,,-6.25000000e-009,7.99999982e-004
,,,-6.22500000e-009,8.26562484e-004
,,,-6.20000000e-009,8.70312487e-004
,,,-6.17500000e-009,9.28124991e-004
,,,-6.15000000e-009,9.93749996e-004
,,,-6.12500000e-009,1.06093750e-003
,,,-6.10000000e-009,1.12187500e-003
,,,-6.07500000e-009,1.17031251e-003
,,,-6.05000000e-009,1.20000001e-003
,,,-6.02500000e-009,1.20625001e-003
,,,-6.00000000e-009,1.19062501e-003
,,,-5.97500000e-009,1.15312501e-003
,,,-5.95000000e-009,1.09843750e-003
,,,-5.92500000e-009,1.02968750e-003
,,,-5.90000000e-009,9.53124993e-004
,,,-5.87500000e-009,8.74999987e-004
,,,-5.85000000e-009,7.99999982e-004
,,,-5.82500000e-009,7.34374977e-004
,,,-5.80000000e-009,6.84374974e-004
,,,-5.77500000e-009,6.53124972e-004
,,,-5.75000000e-009,6.42187471e-004
,,,-5.72500000e-009,6.53124972e-004
,,,-5.70000000e-009,6.84374974e-004
,,,-5.67500000e-009,7.34374977e-004
,,,-5.65000000e-009,7.99999982e-004
,,,-5.62500000e-009,8.76562488e-004
,,,-5.60000000e-009,9.54687493e-004
,,,-5.57500000e-009,1.02968750e-003
,,,-5.55000000e-009,1.09687500e-003
,,,-5.52500000e-009,1.15000001e-003
,,,-5.50000000e-009,1.18750001e-003
,,,-5.47500000e-009,1.20468751e-003
,,,-5.45000000e-009,1.20000001e-003
,,,-5.42500000e-009,1.17500001e-003
,,,-5.40000000e-009,1.13281251e-003
,,,-5.37500000e-009,1.07812500e-003
,,,-5.35000000e-009,1.01562500e-003
,,,-5.32500000e-009,9.51562493e-004
,,,-5.30000000e-009,8.92187489e-004
,,,-5.27500000e-009,8.40624985e-004
,,,-5.25000000e-009,7.99999982e-004
,,,-5.22500000e-009,7.73437480e-004
,,,-5.20000000e-009,7.60937479e-004
,,,-5.17500000e-009,7.59374979e-004
,,,-5.15000000e-009,7.68749980e-004
,,,-5.12500000e-009,7.81249981e-004
,,,-5.10000000e-009,7.93749982e-004
,,,-5.07500000e-009,8.01562482e-004
,,,-5.05000000e-009,7.99999982e-004
,,,-5.02500000e-009,7.89062481e-004
,,,-5.00000000e-009,7.64062480e-004
,,,-4.97500000e-009,7.24999977e-004
,,,-4.95000000e-009,6.73437473e-004
,,,-4.92500000e-009,6.10937469e-004
,,,-4.90000000e-009,5.40624964e-004
,,,-4.87500000e-009,4.70312459e-004
,,,-4.85000000e-009,3.99999954e-004
,,,-4.82500000e-009,3.43749950e-004
,,,-4.80000000e-009,2.98437447e-004
,,,-4.77500000e-009,2.68749945e-004
,,,-4.75000000e-009,2.57812444e-004
,,,-4.72500000e-009,2.65624944e-004
,,,-4.70000000e-009,2.93749946e-004
,,,-4.67500000e-009,3.39062449e-004
,,,-4.65000000e-009,3.99999954e-004
,,,-4.62500000e-009,4.76562459e-004
,,,-4.60000000e-009,5.56249965e-004
,,,-4.57500000e-009,6.34374970e-004
,,,-4.55000000e-009,7.03124975e-004
,,,-4.52500000e-009,7.59374979e-004
,,,-4.50000000e-009,7.95312482e-004
,,,-4.47500000e-009,8.09374983e-004
,,,-4.45000000e-009,7.99999982e-004
,,,-4.42500000e-009,7.70312480e-004
,,,-4.40000000e-009,7.21874977e-004
,,,-4.37500000e-009,6.60937472e-004
,,,-4.35000000e-009,5.92187467e-004
,,,-4.32500000e-009,5.24999963e-004
,,,-4.30000000e-009,4.67187459e-004
,,,-4.27500000e-009,4.23437455e-004
,,,-4.25000000e-009,3.99999954e-004
,,,-4.22500000e-009,4.04687454e-004
,,,-4.20000000e-009,4.29687456e-004
,,,-4.17500000e-009,4.74999959e-004
,,,-4.15000000e-009,5.35937463e-004
,,,-4.12500000e-009,6.04687468e-004
,,,-4.10000000e-009,6.76562473e-004
,,,-4.07500000e-009,7.43749978e-004
,,,-4.05000000e-009,7.99999982e-004
,,,-4.02500000e-009,8.40624985e-004
,,,-4.00000000e-009,8.64062487e-004
,,,-3.97500000e-009,8.71874987e-004
,,,-3.95000000e-009,8.67187487e-004
,,,-3.92500000e-009,8.53124986e-004
,,,-3.90000000e-009,8.34374985e-004
,,,-3.87500000e-009,8.15624983e-004
,,,-3.85000000e-009,7.99999982e-004
,,,-3.82500000e-009,7.89062481e-004
,,,-3.80000000e-009,7.84374981e-004
,,,-3.77500000e-009,7.85937481e-004
,,,-3.75000000e-009,7.92187482e-004
,,,-3.72500000e-009,7.98437482e-004
,,,-3.70000000e-009,8.04687482e-004
,,,-3.67500000e-009,8.04687482e-004
,,,-3.65000000e-009,7.99999982e-004
,,,-3.62500000e-009,7.87499981e-004
,,,-3.60000000e-009,7.71874980e-004
,,,-3.57500000e-009,7.56249979e-004
,,,-3.55000000e-009,7.43749978e-004
,,,-3.52500000e-009,7.40624978e-004
,,,-3.50000000e-009,7.48437478e-004
,,,-3.47500000e-009,7.68749980e-004
,,,-3.45000000e-009,7.99999982e-004
,,,-3.42500000e-009,8.42187485e-004
,,,-3.40000000e-009,8.85937488e-004
,,,-3.37500000e-009,9.26562491e-004
,,,-3.35000000e-009,9.53124993e-004
,,,-3.32500000e-009,9.59374993e-004
,,,-3.30000000e-009,9.37499992e-004
,,,-3.27500000e-009,8.85937488e-004
,,,-3.25000000e-009,7.99999982e-004
,,,-3.22500000e-009,6.84374974e-004
,,,-3.20000000e-009,5.48437464e-004
,,,-3.17500000e-009,4.04687454e-004
,,,-3.15000000e-009,2.65624944e-004
,,,-3.12500000e-009,1.45312436e-004
,,,-3.10000000e-009,5.46874294e-005
,,,-3.07500000e-009,4.68742583e-006
,,,-3.05000000e-009,-7.45058060e-011
,,,-3.02500000e-009,4.99999290e-005
,,,-3.00000000e-009,1.39062435e-004
,,,-2.97500000e-009,2.57812444e-004
,,,-2.95000000e-009,3.92187453e-004
,,,-2.92500000e-009,5.28124963e-004
,,,-2.90000000e-009,6.48437471e-004
,,,-2.87500000e-009,7.42187478e-004
,,,-2.85000000e-009,7.99999982e-004
,,,-2.82500000e-009,8.17187483e-004
,,,-2.80000000e-009,7.95312482e-004
,,,-2.77500000e-009,7.40624978e-004
,,,-2.75000000e-009,6.64062472e-004
,,,-2.72500000e-009,5.79687467e-004
,,,-2.70000000e-009,4.99999961e-004
,,,-2.67500000e-009,4.37499956e-004
,,,-2.65000000e-009,3.99999954e-004
,,,-2.62500000e-009,3.99999954e-004
,,,-2.60000000e-009,4.29687456e-004
,,,-2.57500000e-009,4.85937460e-004
,,,-2.55000000e-009,5.59374965e-004
,,,-2.52500000e-009,6.39062471e-004
,,,-2.50000000e-009,7.12499976e-004
,,,-2.47500000e-009,7.68749980e-004
,,,-2.45000000e-009,7.99999982e-004
,,,-2.42500000e-009,8.01562482e-004
,,,-2.40000000e-009,7.73437480e-004
,,,-2.37500000e-009,7.18749976e-004
,,,-2.35000000e-009,6.48437471e-004
,,,-2.32500000e-009,5.71874966e-004
,,,-2.30000000e-009,4.98437461e-004
,,,-2.27500000e-009,4.39062457e-004
,,,-2.25000000e-009,3.99999954e-004
,,,-2.22500000e-009,3.92187453e-004
,,,-2.20000000e-009,4.09374954e-004
,,,-2.17500000e-009,4.53124958e-004
,,,-2.15000000e-009,5.15624962e-004
,,,-2.12500000e-009,5.89062467e-004
,,,-2.10000000e-009,6.67187473e-004
,,,-2.07500000e-009,7.39062478e-004
,,,-2.05000000e-009,7.99999982e-004
,,,-2.02500000e-009,8.40624985e-004
,,,-2.00000000e-009,8.64062487e-004
,,,-1.97500000e-009,8.70312487e-004
,,,-1.95000000e-009,8.64062487e-004
,,,-1.92500000e-009,8.48437486e-004
,,,-1.90000000e-009,8.29687484e-004
,,,-1.87500000e-009,8.12499983e-004
,,,-1.85000000e-009,7.99999982e-004
,,,-1.82500000e-009,7.92187482e-004
,,,-1.80000000e-009,7.90624981e-004
,,,-1.77500000e-009,7.93749982e-004
,,,-1.75000000e-009,8.03124982e-004
,,,-1.72500000e-009,8.10937483e-004
,,,-1.70000000e-009,8.15624983e-004
,,,-1.67500000e-009,8.12499983e-004
,,,-1.65000000e-009,7.99999982e-004
,,,-1.62500000e-009,7.65624980e-004
,,,-1.60000000e-009,7.20312476e-004
,,,-1.57500000e-009,6.64062472e-004
,,,-1.55000000e-009,6.04687468e-004
,,,-1.52500000e-009,5.43749964e-004
,,,-1.50000000e-009,4.85937460e-004
,,,-1.47500000e-009,4.37499956e-004
,,,-1.45000000e-009,3.99999954e-004
,,,-1.42500000e-009,3.65624951e-004
,,,-1.40000000e-009,3.40624950e-004
,,,-1.37500000e-009,3.28124949e-004
,,,-1.35000000e-009,3.26562449e-004
,,,-1.32500000e-009,3.35937449e-004
,,,-1.30000000e-009,3.53124950e-004
,,,-1.27500000e-009,3.74999952e-004
,,,-1.25000000e-009,3.99999954e-004
,,,-1.22500000e-009,4.04687454e-004
,,,-1.20000000e-009,4.06249954e-004
,,,-1.17500000e-009,4.03124954e-004
,,,-1.15000000e-009,3.98437454e-004
,,,-1.12500000e-009,3.95312453e-004
,,,-1.10000000e-009,3.93749953e-004
,,,-1.07500000e-009,3.96874954e-004
,,,-1.05000000e-009,3.99999954e-004
,,,-1.02500000e-009,3.82812453e-004
,,,-1.00000000e-009,3.57812451e-004
,,,-9.75000000e-010,3.24999948e-004
,,,-9.50000000e-010,2.84374946e-004
,,,-9.25000000e-010,2.31249942e-004
,,,-9.00000000e-010,1.68749937e-004
,,,-8.75000000e-010,9.21874320e-005
,,,-8.50000000e-010,-7.45058060e-011
,,,-8.25000000e-010,-1.32812584e-004
,,,-8.00000000e-010,-2.82812595e-004
,,,-7.75000000e-010,-4.45312606e-004
,,,-7.50000000e-010,-6.10937618e-004
,,,-7.25000000e-010,-7.73437629e-004
,,,-7.00000000e-010,-9.28125140e-004
,,,-6.75000000e-010,-1.07031265e-003
,,,-6.50000000e-010,-1.20000016e-003
,,,-6.25000000e-010,-1.33593767e-003
,,,-6.00000000e-010,-1.47031268e-003
,,,-5.75000000e-010,-1.60312519e-003
,,,-5.50000000e-010,-1.74062520e-003
,,,-5.25000000e-010,-1.88437521e-003
,,,-5.00000000e-010,-2.04218772e-003
,,,-4.75000000e-010,-2.21250023e-003
,,,-4.50000000e-010,-2.40000024e-003
,,,-4.25000000e-010,-2.61250026e-003
,,,-4.00000000e-010,-2.83906278e-003
,,,-3.75000000e-010,-3.07343779e-003
,,,-3.50000000e-010,-3.30156281e-003
,,,-3.25000000e-010,-3.51718782e-003
,,,-3.00000000e-010,-3.70937534e-003
,,,-2.75000000e-010,-3.87031285e-003
,,,-2.50000000e-010,-4.00000036e-003
,,,-2.25000000e-010,-4.09843786e-003
,,,-2.00000000e-010,-4.17812537e-003
,,,-1.75000000e-010,-4.25000038e-003
,,,-1.50000000e-010,-4.32031288e-003
,,,-1.25000000e-010,-4.40156289e-003
,,,-1.00000000e-010,-4.50468789e-003
,,,-7.50000000e-011,-4.63437540e-003
,,,-5.00000000e-011,-4.80000041e-003
,,,-2.50000000e-011,-4.98593793e-003
,,,0.00000000e+000,-5.21093794e-003
,,,2.50000000e-011,-5.46718796e-003
,,,5.00000000e-011,-5.74375048e-003
,,,7.50000000e-011,-6.02968800e-003
,,,1.00000000e-010,-6.30937552e-003
,,,1.25000000e-010,-6.57031304e-003
,,,1.50000000e-010,-6.80000056e-003
,,,1.75000000e-010,-6.95781307e-003
,,,2.00000000e-010,-7.07656308e-003
,,,2.25000000e-010,-7.15781308e-003
,,,2.50000000e-010,-7.20625058e-003
,,,2.75000000e-010,-7.22812559e-003
,,,3.00000000e-010,-7.22812559e-003
,,,3.25000000e-010,-7.21562559e-003
,,,3.50000000e-010,-7.20000058e-003
,,,3.75000000e-010,-7.15781308e-003
,,,4.00000000e-010,-7.13437558e-003
,,,4.25000000e-010,-7.13906308e-003
,,,4.50000000e-010,-7.17343808e-003
,,,4.75000000e-010,-7.24062559e-003
,,,5.00000000e-010,-7.33750059e-003
,,,5.25000000e-010,-7.45937560e-003
,,,5.50000000e-010,-7.60000061e-003
,,,5.75000000e-010,-7.70781312e-003
,,,6.00000000e-010,-7.81718813e-003
,,,6.25000000e-010,-7.91718813e-003
,,,6.50000000e-010,-8.00000064e-003
,,,6.75000000e-010,-8.05625064e-003
,,,7.00000000e-010,-8.07812565e-003
,,,7.25000000e-010,-8.06093815e-003
,,,7.50000000e-010,-8.00000064e-003
,,,7.75000000e-010,-7.85312563e-003
,,,8.00000000e-010,-7.67031312e-003
,,,8.25000000e-010,-7.46093810e-003
,,,8.50000000e-010,-7.23437559e-003
,,,8.75000000e-010,-7.00468807e-003
,,,9.00000000e-010,-6.78125055e-003
,,,9.25000000e-010,-6.57656304e-003
,,,9.50000000e-010,-6.40000053e-003
,,,9.75000000e-010,-6.22656302e-003
,,,1.00000000e-009,-6.09218801e-003
,,,1.02500000e-009,-5.99843800e-003
,,,1.05000000e-009,-5.94218800e-003
,,,1.07500000e-009,-5.92187549e-003
,,,1.10000000e-009,-5.92968799e-003
,,,1.12500000e-009,-5.95937550e-003
,,,1.15000000e-009,-6.00000050e-003
,,,1.17500000e-009,-6.02031300e-003
,,,1.20000000e-009,-6.02968800e-003
,,,1.22500000e-009,-6.02031300e-003
,,,1.25000000e-009,-5.98750050e-003
,,,1.27500000e-009,-5.92812549e-003
,,,1.30000000e-009,-5.84375049e-003
,,,1.32500000e-009,-5.73437548e-003
,,,1.35000000e-009,-5.60000047e-003
,,,1.37500000e-009,-5.42656296e-003
,,,1.40000000e-009,-5.23281294e-003
,,,1.42500000e-009,-5.02343793e-003
,,,1.45000000e-009,-4.80781291e-003
,,,1.47500000e-009,-4.59062540e-003
,,,1.50000000e-009,-4.38125038e-003
,,,1.52500000e-009,-4.18281287e-003
,,,1.55000000e-009,-4.00000036e-003
,,,1.57500000e-009,-3.82656285e-003
,,,1.60000000e-009,-3.66562533e-003
,,,1.62500000e-009,-3.51093782e-003
,,,1.65000000e-009,-3.36562531e-003
,,,1.67500000e-009,-3.22343780e-003
,,,1.70000000e-009,-3.08281279e-003
,,,1.72500000e-009,-2.94218778e-003
,,,1.75000000e-009,-2.80000027e-003
,,,1.77500000e-009,-2.65781276e-003
,,,1.80000000e-009,-2.50781275e-003
,,,1.82500000e-009,-2.34843774e-003
,,,1.85000000e-009,-2.18437523e-003
,,,1.87500000e-009,-2.02187522e-003
,,,1.90000000e-009,-1.86718771e-003
,,,1.92500000e-009,-1.72500020e-003
,,,1.95000000e-009,-1.60000019e-003
,,,1.97500000e-009,-1.50625018e-003
,,,2.00000000e-009,-1.42812518e-003
,,,2.02500000e-009,-1.36562517e-003
,,,2.05000000e-009,-1.31562517e-003
,,,2.07500000e-009,-1.27656266e-003
,,,2.10000000e-009,-1.24687516e-003
,,,2.12500000e-009,-1.22187516e-003
,,,2.15000000e-009,-1.20000016e-003
,,,2.17500000e-009,-1.18437516e-003
,,,2.20000000e-009,-1.15937516e-003
,,,2.22500000e-009,-1.12343765e-003
,,,2.25000000e-009,-1.07500015e-003
,,,2.27500000e-009,-1.01562515e-003
,,,2.30000000e-009,-9.50000142e-004
,,,2.32500000e-009,-8.76562637e-004
,,,2.35000000e-009,-8.00000131e-004
,,,2.37500000e-009,-7.31250126e-004
,,,2.40000000e-009,-6.53125121e-004
,,,2.42500000e-009,-5.64062614e-004
,,,2.45000000e-009,-4.65625107e-004
,,,2.47500000e-009,-3.57812600e-004
,,,2.50000000e-009,-2.42187592e-004
,,,2.52500000e-009,-1.21875083e-004
,,,2.55000000e-009,-7.45058060e-011
,,,2.57500000e-009,1.09374933e-004
,,,2.60000000e-009,2.12499941e-004
,,,2.62500000e-009,3.03124947e-004
,,,2.65000000e-009,3.78124952e-004
,,,2.67500000e-009,4.28124956e-004
,,,2.70000000e-009,4.49999957e-004
,,,2.72500000e-009,4.40624957e-004
,,,2.75000000e-009,3.99999954e-004
,,,2.77500000e-009,3.21874948e-004
,,,2.80000000e-009,2.31249942e-004
,,,2.82500000e-009,1.35937435e-004
,,,2.85000000e-009,5.15624291e-005
,,,2.87500000e-009,-1.25000754e-005
,,,2.90000000e-009,-4.53125777e-005
,,,2.92500000e-009,-4.21875775e-005
,,,2.95000000e-009,-7.45058060e-011
,,,2.97500000e-009,7.96874311e-005
,,,3.00000000e-009,1.89062439e-004
,,,3.02500000e-009,3.20312448e-004
,,,3.05000000e-009,4.59374958e-004
,,,3.07500000e-009,5.89062467e-004
,,,3.10000000e-009,6.95312475e-004
,,,3.12500000e-009,7.68749980e-004
,,,3.15000000e-009,7.99999982e-004
,,,3.17500000e-009,7.82812481e-004
,,,3.20000000e-009,7.28124977e-004
,,,3.22500000e-009,6.51562472e-004
,,,3.25000000e-009,5.62499965e-004
,,,3.27500000e-009,4.81249960e-004
,,,3.30000000e-009,4.18749955e-004
,,,3.32500000e-009,3.89062453e-004
,,,3.35000000e-009,3.99999954e-004
,,,3.37500000e-009,4.53124958e-004
,,,3.40000000e-009,5.46874964e-004
,,,3.42500000e-009,6.70312473e-004
,,,3.45000000e-009,8.09374983e-004
,,,3.47500000e-009,9.48437493e-004
,,,3.50000000e-009,1.06875000e-003
,,,3.52500000e-009,1.15781251e-003
,,,3.55000000e-009,1.20000001e-003
,,,3.57500000e-009,1.18593751e-003
,,,3.60000000e-009,1.12343751e-003
,,,3.62500000e-009,1.02031250e-003
,,,3.65000000e-009,8.89062488e-004
,,,3.67500000e-009,7.46874978e-004
,,,3.70000000e-009,6.09374969e-004
,,,3.72500000e-009,4.89062460e-004
,,,3.75000000e-009,3.99999954e-004
,,,3.77500000e-009,3.56249951e-004
,,,3.80000000e-009,3.53124950e-004
,,,3.82500000e-009,3.90624953e-004
,,,3.85000000e-009,4.57812458e-004
,,,3.87500000e-009,5.43749964e-004
,,,3.90000000e-009,6.37499971e-004
,,,3.92500000e-009,7.26562477e-004
,,,3.95000000e-009,7.99999982e-004
,,,3.97500000e-009,8.51562486e-004
,,,4.00000000e-009,8.78124988e-004
,,,4.02500000e-009,8.82812488e-004
,,,4.05000000e-009,8.71874987e-004
,,,4.07500000e-009,8.51562486e-004
,,,4.10000000e-009,8.29687484e-004
,,,4.12500000e-009,8.10937483e-004
,,,4.15000000e-009,7.99999982e-004
,,,4.17500000e-009,7.99999982e-004
,,,4.20000000e-009,8.10937483e-004
,,,4.22500000e-009,8.26562484e-004
,,,4.25000000e-009,8.43749985e-004
,,,4.27500000e-009,8.54687486e-004
,,,4.30000000e-009,8.54687486e-004
,,,4.32500000e-009,8.37499985e-004
,,,4.35000000e-009,7.99999982e-004
,,,4.37500000e-009,7.45312478e-004
,,,4.40000000e-009,6.76562473e-004
,,,4.42500000e-009,5.99999968e-004
,,,4.45000000e-009,5.24999963e-004
,,,4.47500000e-009,4.59374958e-004
,,,4.50000000e-009,4.12499955e-004
,,,4.52500000e-009,3.90624953e-004
,,,4.55000000e-009,3.99999954e-004
,,,4.57500000e-009,4.46874957e-004
,,,4.60000000e-009,5.21874962e-004
,,,4.62500000e-009,6.21874970e-004
,,,4.65000000e-009,7.39062478e-004
,,,4.67500000e-009,8.65624987e-004
,,,4.70000000e-009,9.90624996e-004
,,,4.72500000e-009,1.10625000e-003
,,,4.75000000e-009,1.20000001e-003
,,,4.77500000e-009,1.26250001e-003
,,,4.80000000e-009,1.29062502e-003
,,,4.82500000e-009,1.28281252e-003
,,,4.85000000e-009,1.24062501e-003
,,,4.87500000e-009,1.16406251e-003
,,,4.90000000e-009,1.06093750e-003
,,,4.92500000e-009,9.37499992e-004
,,,4.95000000e-009,7.99999982e-004
,,,4.97500000e-009,6.62499972e-004
,,,5.00000000e-009,5.34374963e-004
,,,5.02500000e-009,4.24999956e-004
,,,5.05000000e-009,3.43749950e-004
,,,5.07500000e-009,2.98437447e-004
,,,5.10000000e-009,2.92187446e-004
,,,5.12500000e-009,3.26562449e-004
,,,5.15000000e-009,3.99999954e-004
,,,5.17500000e-009,5.06249961e-004
,,,5.20000000e-009,6.34374970e-004
,,,5.22500000e-009,7.71874980e-004
,,,5.25000000e-009,9.06249990e-004
,,,5.27500000e-009,1.02812500e-003
,,,5.30000000e-009,1.12187500e-003
,,,5.32500000e-009,1.18281251e-003
,,,5.35000000e-009,1.20000001e-003
,,,5.37500000e-009,1.17343751e-003
,,,5.40000000e-009,1.10468750e-003
,,,5.42500000e-009,1.00468750e-003
,,,5.45000000e-009,8.81249988e-004
,,,5.47500000e-009,7.46874978e-004
,,,5.50000000e-009,6.14062469e-004
,,,5.52500000e-009,4.95312461e-004
,,,5.55000000e-009,3.99999954e-004
,,,5.57500000e-009,3.39062449e-004
,,,5.60000000e-009,3.17187448e-004
,,,5.62500000e-009,3.32812449e-004
,,,5.65000000e-009,3.84374953e-004
,,,5.67500000e-009,4.65624958e-004
,,,5.70000000e-009,5.68749966e-004
,,,5.72500000e-009,6.82812474e-004
,,,5.75000000e-009,7.99999982e-004
,,,5.77500000e-009,9.07812490e-004
,,,5.80000000e-009,9.93749996e-004
,,,5.82500000e-009,1.05000000e-003
,,,5.85000000e-009,1.07187500e-003
,,,5.87500000e-009,1.05781250e-003
,,,5.90000000e-009,1.00468750e-003
,,,5.92500000e-009,9.18749991e-004
,,,5.95000000e-009,7.99999982e-004
,,,5.97500000e-009,6.62499972e-004
,,,6.00000000e-009,5.14062462e-004
,,,6.02500000e-009,3.67187451e-004
,,,6.05000000e-009,2.32812442e-004
,,,6.07500000e-009,1.21874934e-004
,,,6.10000000e-009,4.21874285e-005
