RawData/SinglePhotoelectron/R2_2pt2D_5mV/wave008_Ch4.csv

"Record Length",1000,"Points",-7.72500000e-009,7.99999982e-004
"Sample Interval",2.50000000e-011,s,-7.70000000e-009,7.73437480e-004
"Trigger Point",309,"Samples",-7.67500000e-009,7.46874978e-004
"Trigger Time",2.67384615e-012,s,-7.65000000e-009,7.24999977e-004
"",,,-7.62500000e-009,7.14062476e-004
"Horizontal Offset",-7.72500000e-009,s,-7.60000000e-009,7.14062476e-004
,,,-7.57500000e-009,7.28124977e-004
,,,-7.55000000e-009,7.56249979e-004
,,,-7.52500000e-009,7.99999982e-004
,,,-7.50000000e-009,8.56249986e-004
,,,-7.47500000e-009,9.21874991e-004
,,,-7.45000000e-009,9.89062496e-004
,,,-7.42500000e-009,1.05468750e-003
,,,-7.40000000e-009,1.11406250e-003
,,,-7.37500000e-009,1.16093751e-003
,,,-7.35000000e-009,1.19062501e-003
,,,-7.32500000e-009,1.20000001e-003
,,,-7.30000000e-009,1.18906251e-003
,,,-7.27500000e-009,1.15625001e-003
,,,-7.25000000e-009,1.10781250e-003
,,,-7.22500000e-009,1.04843750e-003
,,,-7.20000000e-009,9.82812495e-004
,,,-7.17500000e-009,9.15624990e-004
,,,-7.15000000e-009,8.53124986e-004
,,,-7.12500000e-009,7.99999982e-004
,,,-7.10000000e-009,7.59374979e-004
,,,-7.07500000e-009,7.32812477e-004
,,,-7.05000000e-009,7.20312476e-004
,,,-7.02500000e-009,7.21874977e-004
,,,-7.00000000e-009,7.34374977e-004
,,,-6.97500000e-009,7.53124979e-004
,,,-6.95000000e-009,7.76562480e-004
,,,-6.92500000e-009,7.99999982e-004
,,,-6.90000000e-009,8.20312484e-004
,,,-6.87500000e-009,8.34374985e-004
,,,-6.85000000e-009,8.40624985e-004
,,,-6.82500000e-009,8.42187485e-004
,,,-6.80000000e-009,8.37499985e-004
,,,-6.77500000e-009,8.26562484e-004
,,,-6.75000000e-009,8.14062483e-004
,,,-6.72500000e-009,7.99999982e-004
,,,-6.70000000e-009,7.87499981e-004
,,,-6.67500000e-009,7.78124981e-004
,,,-6.65000000e-009,7.70312480e-004
,,,-6.62500000e-009,7.68749980e-004
,,,-6.60000000e-009,7.70312480e-004
,,,-6.57500000e-009,7.76562480e-004
,,,-6.55000000e-009,7.87499981e-004
,,,-6.52500000e-009,7.99999982e-004
,,,-6.50000000e-009,8.15624983e-004
,,,-6.47500000e-009,8.28124984e-004
,,,-6.45000000e-009,8.40624985e-004
,,,-6.42500000e-009,8.46874985e-004
,,,-6.40000000e-009,8.46874985e-004
,,,-6.37500000e-009,8.40624985e-004
,,,-6.35000000e-009,8.24999984e-004
,,,-6.32500000e-009,7.99999982e-004
,,,-6.30000000e-009,7.68749980e-004
,,,-6.27500000e-009,7.28124977e-004
,,,-6.25000000e-009,6.79687474e-004
,,,-6.22500000e-009,6.24999970e-004
,,,-6.20000000e-009,5.67187466e-004
,,,-6.17500000e-009,5.09374962e-004
,,,-6.15000000e-009,4.53124958e-004
,,,-6.12500000e-009,3.99999954e-004
,,,-6.10000000e-009,3.60937451e-004
,,,-6.07500000e-009,3.29687449e-004
,,,-6.05000000e-009,3.10937448e-004
,,,-6.02500000e-009,3.04687447e-004
,,,-6.00000000e-009,3.10937448e-004
,,,-5.97500000e-009,3.29687449e-004
,,,-5.95000000e-009,3.60937451e-004
,,,-5.92500000e-009,3.99999954e-004
,,,-5.90000000e-009,4.54687458e-004
,,,-5.87500000e-009,5.12499962e-004
,,,-5.85000000e-009,5.73437466e-004
,,,-5.82500000e-009,6.31249970e-004
,,,-5.80000000e-009,6.85937474e-004
,,,-5.77500000e-009,7.32812477e-004
,,,-5.75000000e-009,7.71874980e-004
,,,-5.72500000e-009,7.99999982e-004
,,,-5.70000000e-009,8.18749983e-004
,,,-5.67500000e-009,8.28124984e-004
,,,-5.65000000e-009,8.29687484e-004
,,,-5.62500000e-009,8.24999984e-004
,,,-5.60000000e-009,8.17187483e-004
,,,-5.57500000e-009,8.09374983e-004
,,,-5.55000000e-009,8.03124982e-004
,,,-5.52500000e-009,7.99999982e-004
,,,-5.50000000e-009,8.01562482e-004
,,,-5.47500000e-009,8.04687482e-004
,,,-5.45000000e-009,8.10937483e-004
,,,-5.42500000e-009,8.15624983e-004
,,,-5.40000000e-009,8.18749983e-004
,,,-5.37500000e-009,8.18749983e-004
,,,-5.35000000e-009,8.12499983e-004
,,,-5.32500000e-009,7.99999982e-004
,,,-5.30000000e-009,7.84374981e-004
,,,-5.27500000e-009,7.67187480e-004
,,,-5.25000000e-009,7.49999979e-004
,,,-5.22500000e-009,7.37499978e-004
,,,-5.20000000e-009,7.34374977e-004
,,,-5.17500000e-009,7.42187478e-004
,,,-5.15000000e-009,7.64062480e-004
,,,-5.12500000e-009,7.99999982e-004
,,,-5.10000000e-009,8.49999986e-004
,,,-5.07500000e-009,9.09374990e-004
,,,-5.05000000e-009,9.74999995e-004
,,,-5.02500000e-009,1.04218750e-003
,,,-5.00000000e-009,1.10312500e-003
,,,-4.97500000e-009,1.15312501e-003
,,,-4.95000000e-009,1.18593751e-003
,,,-4.92500000e-009,1.20000001e-003
,,,-4.90000000e-009,1.18593751e-003
,,,-4.87500000e-009,1.15312501e-003
,,,-4.85000000e-009,1.10312500e-003
,,,-4.82500000e-009,1.04218750e-003
,,,-4.80000000e-009,9.74999995e-004
,,,-4.77500000e-009,9.09374990e-004
,,,-4.75000000e-009,8.49999986e-004
,,,-4.72500000e-009,7.99999982e-004
,,,-4.70000000e-009,7.65624980e-004
,,,-4.67500000e-009,7.45312478e-004
,,,-4.65000000e-009,7.39062478e-004
,,,-4.62500000e-009,7.43749978e-004
,,,-4.60000000e-009,7.56249979e-004
,,,-4.57500000e-009,7.73437480e-004
,,,-4.55000000e-009,7.89062481e-004
,,,-4.52500000e-009,7.99999982e-004
,,,-4.50000000e-009,8.07812483e-004
,,,-4.47500000e-009,8.09374983e-004
,,,-4.45000000e-009,8.06249983e-004
,,,-4.42500000e-009,7.99999982e-004
,,,-4.40000000e-009,7.95312482e-004
,,,-4.37500000e-009,7.92187482e-004
,,,-4.35000000e-009,7.93749982e-004
,,,-4.32500000e-009,7.99999982e-004
,,,-4.30000000e-009,8.15624983e-004
,,,-4.27500000e-009,8.32812484e-004
,,,-4.25000000e-009,8.49999986e-004
,,,-4.22500000e-009,8.64062487e-004
,,,-4.20000000e-009,8.68749987e-004
,,,-4.17500000e-009,8.62499987e-004
,,,-4.15000000e-009,8.39062485e-004
,,,-4.12500000e-009,7.99999982e-004
,,,-4.10000000e-009,7.46874978e-004
,,,-4.07500000e-009,6.82812474e-004
,,,-4.05000000e-009,6.14062469e-004
,,,-4.02500000e-009,5.45312464e-004
,,,-4.00000000e-009,4.82812460e-004
,,,-3.97500000e-009,4.35937456e-004
,,,-3.95000000e-009,4.07812454e-004
,,,-3.92500000e-009,3.99999954e-004
,,,-3.90000000e-009,4.24999956e-004
,,,-3.87500000e-009,4.67187459e-004
,,,-3.85000000e-009,5.26562463e-004
,,,-3.82500000e-009,5.92187467e-004
,,,-3.80000000e-009,6.59374972e-004
,,,-3.77500000e-009,7.20312476e-004
,,,-3.75000000e-009,7.68749980e-004
,,,-3.72500000e-009,7.99999982e-004
,,,-3.70000000e-009,8.15624983e-004
,,,-3.67500000e-009,8.14062483e-004
,,,-3.65000000e-009,8.03124982e-004
,,,-3.62500000e-009,7.85937481e-004
,,,-3.60000000e-009,7.70312480e-004
,,,-3.57500000e-009,7.64062480e-004
,,,-3.55000000e-009,7.73437480e-004
,,,-3.52500000e-009,7.99999982e-004
,,,-3.50000000e-009,8.46874985e-004
,,,-3.47500000e-009,9.06249990e-004
,,,-3.45000000e-009,9.76562495e-004
,,,-3.42500000e-009,1.04843750e-003
,,,-3.40000000e-009,1.11406250e-003
,,,-3.37500000e-009,1.16562501e-003
,,,-3.35000000e-009,1.19531251e-003
,,,-3.32500000e-009,1.20000001e-003
,,,-3.30000000e-009,1.17500001e-003
,,,-3.27500000e-009,1.12500001e-003
,,,-3.25000000e-009,1.05937500e-003
,,,-3.22500000e-009,9.85937495e-004
,,,-3.20000000e-009,9.14062490e-004
,,,-3.17500000e-009,8.54687486e-004
,,,-3.15000000e-009,8.14062483e-004
,,,-3.12500000e-009,7.99999982e-004
,,,-3.10000000e-009,8.12499983e-004
,,,-3.07500000e-009,8.49999986e-004
,,,-3.05000000e-009,9.07812490e-004
,,,-3.02500000e-009,9.78124995e-004
,,,-3.00000000e-009,1.05156250e-003
,,,-2.97500000e-009,1.11875000e-003
,,,-2.95000000e-009,1.17031251e-003
,,,-2.92500000e-009,1.20000001e-003
,,,-2.90000000e-009,1.20000001e-003
,,,-2.87500000e-009,1.17500001e-003
,,,-2.85000000e-009,1.12656251e-003
,,,-2.82500000e-009,1.06406250e-003
,,,-2.80000000e-009,9.92187496e-004
,,,-2.77500000e-009,9.20312491e-004
,,,-2.75000000e-009,8.54687486e-004
,,,-2.72500000e-009,7.99999982e-004
,,,-2.70000000e-009,7.64062480e-004
,,,-2.67500000e-009,7.45312478e-004
,,,-2.65000000e-009,7.43749978e-004
,,,-2.62500000e-009,7.53124979e-004
,,,-2.60000000e-009,7.70312480e-004
,,,-2.57500000e-009,7.87499981e-004
,,,-2.55000000e-009,7.98437482e-004
,,,-2.52500000e-009,7.99999982e-004
,,,-2.50000000e-009,7.89062481e-004
,,,-2.47500000e-009,7.60937479e-004
,,,-2.45000000e-009,7.18749976e-004
,,,-2.42500000e-009,6.64062472e-004
,,,-2.40000000e-009,5.99999968e-004
,,,-2.37500000e-009,5.31249963e-004
,,,-2.35000000e-009,4.64062458e-004
,,,-2.32500000e-009,3.99999954e-004
,,,-2.30000000e-009,3.53124950e-004
,,,-2.27500000e-009,3.17187448e-004
,,,-2.25000000e-009,2.95312446e-004
,,,-2.22500000e-009,2.90624946e-004
,,,-2.20000000e-009,2.98437447e-004
,,,-2.17500000e-009,3.21874948e-004
,,,-2.15000000e-009,3.56249951e-004
,,,-2.12500000e-009,3.99999954e-004
,,,-2.10000000e-009,4.54687458e-004
,,,-2.07500000e-009,5.10937462e-004
,,,-2.05000000e-009,5.68749966e-004
,,,-2.02500000e-009,6.24999970e-004
,,,-2.00000000e-009,6.78124973e-004
,,,-1.97500000e-009,7.24999977e-004
,,,-1.95000000e-009,7.67187480e-004
,,,-1.92500000e-009,7.99999982e-004
,,,-1.90000000e-009,8.26562484e-004
,,,-1.87500000e-009,8.42187485e-004
,,,-1.85000000e-009,8.48437486e-004
,,,-1.82500000e-009,8.48437486e-004
,,,-1.80000000e-009,8.42187485e-004
,,,-1.77500000e-009,8.29687484e-004
,,,-1.75000000e-009,8.15624983e-004
,,,-1.72500000e-009,7.99999982e-004
,,,-1.70000000e-009,7.81249981e-004
,,,-1.67500000e-009,7.64062480e-004
,,,-1.65000000e-009,7.51562479e-004
,,,-1.62500000e-009,7.45312478e-004
,,,-1.60000000e-009,7.48437478e-004
,,,-1.57500000e-009,7.57812479e-004
,,,-1.55000000e-009,7.76562480e-004
,,,-1.52500000e-009,7.99999982e-004
,,,-1.50000000e-009,8.18749983e-004
,,,-1.47500000e-009,8.37499985e-004
,,,-1.45000000e-009,8.51562486e-004
,,,-1.42500000e-009,8.60937486e-004
,,,-1.40000000e-009,8.60937486e-004
,,,-1.37500000e-009,8.51562486e-004
,,,-1.35000000e-009,8.31249984e-004
,,,-1.32500000e-009,7.99999982e-004
,,,-1.30000000e-009,7.43749978e-004
,,,-1.27500000e-009,6.78124973e-004
,,,-1.25000000e-009,6.09374969e-004
,,,-1.22500000e-009,5.42187464e-004
,,,-1.20000000e-009,4.84374960e-004
,,,-1.17500000e-009,4.39062457e-004
,,,-1.15000000e-009,4.10937455e-004
,,,-1.12500000e-009,3.99999954e-004
,,,-1.10000000e-009,3.85937453e-004
,,,-1.07500000e-009,3.82812453e-004
,,,-1.05000000e-009,3.89062453e-004
,,,-1.02500000e-009,3.98437454e-004
,,,-1.00000000e-009,4.09374954e-004
,,,-9.75000000e-010,4.17187455e-004
,,,-9.50000000e-010,4.15624955e-004
,,,-9.25000000e-010,3.99999954e-004
,,,-9.00000000e-010,3.42187450e-004
,,,-8.75000000e-010,2.62499944e-004
,,,-8.50000000e-010,1.65624937e-004
,,,-8.25000000e-010,5.46874294e-005
,,,-8.00000000e-010,-6.25000789e-005
,,,-7.75000000e-010,-1.79687587e-004
,,,-7.50000000e-010,-2.93750095e-004
,,,-7.25000000e-010,-4.00000103e-004
,,,-7.00000000e-010,-5.21875111e-004
,,,-6.75000000e-010,-6.39062620e-004
,,,-6.50000000e-010,-7.48437627e-004
,,,-6.25000000e-010,-8.50000135e-004
,,,-6.00000000e-010,-9.43750141e-004
,,,-5.75000000e-010,-1.03125015e-003
,,,-5.50000000e-010,-1.11562515e-003
,,,-5.25000000e-010,-1.20000016e-003
,,,-5.00000000e-010,-1.31562517e-003
,,,-4.75000000e-010,-1.44531268e-003
,,,-4.50000000e-010,-1.58593769e-003
,,,-4.25000000e-010,-1.73906270e-003
,,,-4.00000000e-010,-1.89843771e-003
,,,-3.75000000e-010,-2.06250022e-003
,,,-3.50000000e-010,-2.22968773e-003
,,,-3.25000000e-010,-2.40000024e-003
,,,-3.00000000e-010,-2.58593776e-003
,,,-2.75000000e-010,-2.77968777e-003
,,,-2.50000000e-010,-2.97968779e-003
,,,-2.25000000e-010,-3.18281280e-003
,,,-2.00000000e-010,-3.38750031e-003
,,,-1.75000000e-010,-3.59218783e-003
,,,-1.50000000e-010,-3.79687534e-003
,,,-1.25000000e-010,-4.00000036e-003
,,,-1.00000000e-010,-4.20312537e-003
,,,-7.50000000e-011,-4.41093789e-003
,,,-5.00000000e-011,-4.62031290e-003
,,,-2.50000000e-011,-4.82656292e-003
,,,0.00000000e+000,-5.02968793e-003
,,,2.50000000e-011,-5.22656294e-003
,,,5.00000000e-011,-5.41718796e-003
,,,7.50000000e-011,-5.60000047e-003
,,,1.00000000e-010,-5.76250048e-003
,,,1.25000000e-010,-5.92968799e-003
,,,1.50000000e-010,-6.10625051e-003
,,,1.75000000e-010,-6.29375052e-003
,,,2.00000000e-010,-6.49843803e-003
,,,2.25000000e-010,-6.71718805e-003
,,,2.50000000e-010,-6.95156307e-003
,,,2.75000000e-010,-7.20000058e-003
,,,3.00000000e-010,-7.42656310e-003
,,,3.25000000e-010,-7.66250062e-003
,,,3.50000000e-010,-7.89843813e-003
,,,3.75000000e-010,-8.12656315e-003
,,,4.00000000e-010,-8.33750066e-003
,,,4.25000000e-010,-8.52500068e-003
,,,4.50000000e-010,-8.68125069e-003
,,,4.75000000e-010,-8.80000070e-003
,,,5.00000000e-010,-8.83437570e-003
,,,5.25000000e-010,-8.84218820e-003
,,,5.50000000e-010,-8.83125070e-003
,,,5.75000000e-010,-8.80937570e-003
,,,6.00000000e-010,-8.78906320e-003
,,,6.25000000e-010,-8.77656320e-003
,,,6.50000000e-010,-8.77968820e-003
,,,6.75000000e-010,-8.80000070e-003
,,,7.00000000e-010,-8.78906320e-003
,,,7.25000000e-010,-8.79687570e-003
,,,7.50000000e-010,-8.81718820e-003
,,,7.75000000e-010,-8.84218820e-003
,,,8.00000000e-010,-8.86250070e-003
,,,8.25000000e-010,-8.86718820e-003
,,,8.50000000e-010,-8.84843820e-003
,,,8.75000000e-010,-8.80000070e-003
,,,9.00000000e-010,-8.67187569e-003
,,,9.25000000e-010,-8.51562568e-003
,,,9.50000000e-010,-8.34218816e-003
,,,9.75000000e-010,-8.16250065e-003
,,,1.00000000e-009,-7.98750064e-003
,,,1.02500000e-009,-7.83125063e-003
,,,1.05000000e-009,-7.69843812e-003
,,,1.07500000e-009,-7.60000061e-003
,,,1.10000000e-009,-7.49843811e-003
,,,1.12500000e-009,-7.42656310e-003
,,,1.15000000e-009,-7.38125060e-003
,,,1.17500000e-009,-7.35312559e-003
,,,1.20000000e-009,-7.33125059e-003
,,,1.22500000e-009,-7.30468809e-003
,,,1.25000000e-009,-7.26406309e-003
,,,1.27500000e-009,-7.20000058e-003
,,,1.30000000e-009,-7.07500058e-003
,,,1.32500000e-009,-6.91406306e-003
,,,1.35000000e-009,-6.72187555e-003
,,,1.37500000e-009,-6.50625054e-003
,,,1.40000000e-009,-6.27656302e-003
,,,1.42500000e-009,-6.04218800e-003
,,,1.45000000e-009,-5.81406299e-003
,,,1.47500000e-009,-5.60000047e-003
,,,1.50000000e-009,-5.39375046e-003
,,,1.52500000e-009,-5.20781294e-003
,,,1.55000000e-009,-5.03906293e-003
,,,1.57500000e-009,-4.88750042e-003
,,,1.60000000e-009,-4.75312541e-003
,,,1.62500000e-009,-4.62812540e-003
,,,1.65000000e-009,-4.51250039e-003
,,,1.67500000e-009,-4.40000039e-003
,,,1.70000000e-009,-4.28437538e-003
,,,1.72500000e-009,-4.15781287e-003
,,,1.75000000e-009,-4.01875036e-003
,,,1.77500000e-009,-3.86718785e-003
,,,1.80000000e-009,-3.70625034e-003
,,,1.82500000e-009,-3.53906283e-003
,,,1.85000000e-009,-3.36875031e-003
,,,1.87500000e-009,-3.20000030e-003
,,,1.90000000e-009,-3.04062529e-003
,,,1.92500000e-009,-2.88125028e-003
,,,1.95000000e-009,-2.72343777e-003
,,,1.97500000e-009,-2.56562526e-003
,,,2.00000000e-009,-2.41250025e-003
,,,2.02500000e-009,-2.26718773e-003
,,,2.05000000e-009,-2.12812523e-003
,,,2.07500000e-009,-2.00000022e-003
,,,2.10000000e-009,-1.89218771e-003
,,,2.12500000e-009,-1.78593770e-003
,,,2.15000000e-009,-1.68281269e-003
,,,2.17500000e-009,-1.57968769e-003
,,,2.20000000e-009,-1.47812518e-003
,,,2.22500000e-009,-1.37968767e-003
,,,2.25000000e-009,-1.28750017e-003
,,,2.27500000e-009,-1.20000016e-003
,,,2.30000000e-009,-1.13593765e-003
,,,2.32500000e-009,-1.07343765e-003
,,,2.35000000e-009,-1.01250015e-003
,,,2.37500000e-009,-9.54687642e-004
,,,2.40000000e-009,-9.03125138e-004
,,,2.42500000e-009,-8.57812635e-004
,,,2.45000000e-009,-8.23437633e-004
,,,2.47500000e-009,-8.00000131e-004
,,,2.50000000e-009,-8.00000131e-004
,,,2.52500000e-009,-8.03125131e-004
,,,2.55000000e-009,-8.07812632e-004
,,,2.57500000e-009,-8.10937632e-004
,,,2.60000000e-009,-8.14062632e-004
,,,2.62500000e-009,-8.14062632e-004
,,,2.65000000e-009,-8.09375132e-004
,,,2.67500000e-009,-8.00000131e-004
,,,2.70000000e-009,-7.90625130e-004
,,,2.72500000e-009,-7.68750129e-004
,,,2.75000000e-009,-7.31250126e-004
,,,2.77500000e-009,-6.82812623e-004
,,,2.80000000e-009,-6.21875119e-004
,,,2.82500000e-009,-5.53125114e-004
,,,2.85000000e-009,-4.78125108e-004
,,,2.87500000e-009,-4.00000103e-004
,,,2.90000000e-009,-3.28125098e-004
,,,2.92500000e-009,-2.59375093e-004
,,,2.95000000e-009,-1.92187588e-004
,,,2.97500000e-009,-1.32812584e-004
,,,3.00000000e-009,-8.12500803e-005
,,,3.02500000e-009,-4.21875775e-005
,,,3.05000000e-009,-1.40625755e-005
,,,3.07500000e-009,-7.45058060e-011
,,,3.10000000e-009,-7.45058060e-011
,,,3.12500000e-009,-6.25007495e-006
,,,3.15000000e-009,-1.40625755e-005
,,,3.17500000e-009,-2.34375762e-005
,,,3.20000000e-009,-2.81250765e-005
,,,3.22500000e-009,-2.81250765e-005
,,,3.25000000e-009,-1.87500758e-005
,,,3.27500000e-009,-7.45058060e-011
,,,3.30000000e-009,2.96874276e-005
,,,3.32500000e-009,7.03124305e-005
,,,3.35000000e-009,1.20312434e-004
,,,3.37500000e-009,1.76562438e-004
,,,3.40000000e-009,2.37499942e-004
,,,3.42500000e-009,2.96874947e-004
,,,3.45000000e-009,3.53124950e-004
,,,3.47500000e-009,3.99999954e-004
,,,3.50000000e-009,4.34374956e-004
,,,3.52500000e-009,4.56249958e-004
,,,3.55000000e-009,4.67187459e-004
,,,3.57500000e-009,4.67187459e-004
,,,3.60000000e-009,4.59374958e-004
,,,3.62500000e-009,4.43749957e-004
,,,3.65000000e-009,4.23437455e-004
,,,3.67500000e-009,3.99999954e-004
,,,3.70000000e-009,3.78124952e-004
,,,3.72500000e-009,3.59374951e-004
,,,3.75000000e-009,3.48437450e-004
,,,3.77500000e-009,3.43749950e-004
,,,3.80000000e-009,3.48437450e-004
,,,3.82500000e-009,3.57812451e-004
,,,3.85000000e-009,3.76562452e-004
,,,3.87500000e-009,3.99999954e-004
,,,3.90000000e-009,4.28124956e-004
,,,3.92500000e-009,4.64062458e-004
,,,3.95000000e-009,5.06249961e-004
,,,3.97500000e-009,5.54687465e-004
,,,4.00000000e-009,6.10937469e-004
,,,4.02500000e-009,6.71874973e-004
,,,4.05000000e-009,7.35937478e-004
,,,4.07500000e-009,7.99999982e-004
,,,4.10000000e-009,8.56249986e-004
,,,4.12500000e-009,9.03124989e-004
,,,4.15000000e-009,9.37499992e-004
,,,4.17500000e-009,9.54687493e-004
,,,4.20000000e-009,9.49999993e-004
,,,4.22500000e-009,9.23437491e-004
,,,4.25000000e-009,8.71874987e-004
,,,4.27500000e-009,7.99999982e-004
,,,4.30000000e-009,7.09374976e-004
,,,4.32500000e-009,6.10937469e-004
,,,4.35000000e-009,5.15624962e-004
,,,4.37500000e-009,4.32812456e-004
,,,4.40000000e-009,3.73437452e-004
,,,4.42500000e-009,3.45312450e-004
,,,4.45000000e-009,3.54687451e-004
,,,4.47500000e-009,3.99999954e-004
,,,4.50000000e-009,4.84374960e-004
,,,4.52500000e-009,5.96874968e-004
,,,4.55000000e-009,7.28124977e-004
,,,4.57500000e-009,8.64062487e-004
,,,4.60000000e-009,9.90624996e-004
,,,4.62500000e-009,1.09687500e-003
,,,4.65000000e-009,1.16875001e-003
,,,4.67500000e-009,1.20000001e-003
,,,4.70000000e-009,1.18125001e-003
,,,4.72500000e-009,1.11875000e-003
,,,4.75000000e-009,1.02031250e-003
,,,4.77500000e-009,8.98437489e-004
,,,4.80000000e-009,7.62499979e-004
,,,4.82500000e-009,6.26562470e-004
,,,4.85000000e-009,5.03124961e-004
,,,4.87500000e-009,3.99999954e-004
,,,4.90000000e-009,3.29687449e-004
,,,4.92500000e-009,2.89062446e-004
,,,4.95000000e-009,2.76562445e-004
,,,4.97500000e-009,2.87499946e-004
,,,5.00000000e-009,3.14062448e-004
,,,5.02500000e-009,3.46874950e-004
,,,5.05000000e-009,3.78124952e-004
,,,5.07500000e-009,3.99999954e-004
,,,5.10000000e-009,4.12499955e-004
,,,5.12500000e-009,4.12499955e-004
,,,5.15000000e-009,4.01562454e-004
,,,5.17500000e-009,3.85937453e-004
,,,5.20000000e-009,3.71874952e-004
,,,5.22500000e-009,3.65624951e-004
,,,5.25000000e-009,3.74999952e-004
,,,5.27500000e-009,3.99999954e-004
,,,5.30000000e-009,4.48437457e-004
,,,5.32500000e-009,5.12499962e-004
,,,5.35000000e-009,5.84374967e-004
,,,5.37500000e-009,6.57812472e-004
,,,5.40000000e-009,7.23437477e-004
,,,5.42500000e-009,7.73437480e-004
,,,5.45000000e-009,7.99999982e-004
,,,5.47500000e-009,7.99999982e-004
,,,5.50000000e-009,7.73437480e-004
,,,5.52500000e-009,7.21874977e-004
,,,5.55000000e-009,6.56249972e-004
,,,5.57500000e-009,5.81249967e-004
,,,5.60000000e-009,5.10937462e-004
,,,5.62500000e-009,4.51562457e-004
,,,5.65000000e-009,4.14062455e-004
,,,5.67500000e-009,3.99999954e-004
,,,5.70000000e-009,4.18749955e-004
,,,5.72500000e-009,4.60937458e-004
,,,5.75000000e-009,5.21874962e-004
,,,5.77500000e-009,5.93749968e-004
,,,5.80000000e-009,6.65624973e-004
,,,5.82500000e-009,7.29687477e-004
,,,5.85000000e-009,7.76562480e-004
,,,5.87500000e-009,7.99999982e-004
,,,5.90000000e-009,7.93749982e-004
,,,5.92500000e-009,7.62499979e-004
,,,5.95000000e-009,7.09374976e-004
,,,5.97500000e-009,6.42187471e-004
,,,6.00000000e-009,5.68749966e-004
,,,6.02500000e-009,4.98437461e-004
,,,6.05000000e-009,4.40624957e-004
,,,6.07500000e-009,3.99999954e-004
