RawData/SinglePhotoelectron/R2_2pt2D_5mV/wave002_Ch4.csv

"Record Length",1000,"Points",-7.72500000e-009,3.01562447e-004
"Sample Interval",2.50000000e-011,s,-7.70000000e-009,2.31249942e-004
"Trigger Point",309,"Samples",-7.67500000e-009,1.59374937e-004
"Trigger Time",1.63276923e-011,s,-7.65000000e-009,9.37499321e-005
"",,,-7.62500000e-009,4.06249284e-005
"Horizontal Offset",-7.72500000e-009,s,-7.60000000e-009,7.81242605e-006
,,,-7.57500000e-009,-7.45058060e-011
,,,-7.55000000e-009,2.65624274e-005
,,,-7.52500000e-009,7.65624309e-005
,,,-7.50000000e-009,1.42187436e-004
,,,-7.47500000e-009,2.15624941e-004
,,,-7.45000000e-009,2.87499946e-004
,,,-7.42500000e-009,3.46874950e-004
,,,-7.40000000e-009,3.87499953e-004
,,,-7.37500000e-009,3.99999954e-004
,,,-7.35000000e-009,3.89062453e-004
,,,-7.32500000e-009,3.51562450e-004
,,,-7.30000000e-009,2.93749946e-004
,,,-7.27500000e-009,2.23437441e-004
,,,-7.25000000e-009,1.49999936e-004
,,,-7.22500000e-009,8.28124314e-005
,,,-7.20000000e-009,3.12499277e-005
,,,-7.17500000e-009,-7.45058060e-011
,,,-7.15000000e-009,1.56242560e-006
,,,-7.12500000e-009,2.65624274e-005
,,,-7.10000000e-009,7.49999308e-005
,,,-7.07500000e-009,1.37499935e-004
,,,-7.05000000e-009,2.09374940e-004
,,,-7.02500000e-009,2.81249945e-004
,,,-7.00000000e-009,3.46874950e-004
,,,-6.97500000e-009,3.99999954e-004
,,,-6.95000000e-009,4.37499956e-004
,,,-6.92500000e-009,4.56249958e-004
,,,-6.90000000e-009,4.57812458e-004
,,,-6.87500000e-009,4.48437457e-004
,,,-6.85000000e-009,4.31249956e-004
,,,-6.82500000e-009,4.14062455e-004
,,,-6.80000000e-009,4.03124954e-004
,,,-6.77500000e-009,3.99999954e-004
,,,-6.75000000e-009,4.12499955e-004
,,,-6.72500000e-009,4.40624957e-004
,,,-6.70000000e-009,4.82812460e-004
,,,-6.67500000e-009,5.37499964e-004
,,,-6.65000000e-009,6.01562468e-004
,,,-6.62500000e-009,6.70312473e-004
,,,-6.60000000e-009,7.37499978e-004
,,,-6.57500000e-009,7.99999982e-004
,,,-6.55000000e-009,8.48437486e-004
,,,-6.52500000e-009,8.84374988e-004
,,,-6.50000000e-009,9.06249990e-004
,,,-6.47500000e-009,9.10937490e-004
,,,-6.45000000e-009,9.03124989e-004
,,,-6.42500000e-009,8.79687488e-004
,,,-6.40000000e-009,8.45312485e-004
,,,-6.37500000e-009,7.99999982e-004
,,,-6.35000000e-009,7.46874978e-004
,,,-6.32500000e-009,6.90624974e-004
,,,-6.30000000e-009,6.32812470e-004
,,,-6.27500000e-009,5.76562466e-004
,,,-6.25000000e-009,5.23437463e-004
,,,-6.22500000e-009,4.76562459e-004
,,,-6.20000000e-009,4.34374956e-004
,,,-6.17500000e-009,3.99999954e-004
,,,-6.15000000e-009,3.74999952e-004
,,,-6.12500000e-009,3.59374951e-004
,,,-6.10000000e-009,3.53124950e-004
,,,-6.07500000e-009,3.53124950e-004
,,,-6.05000000e-009,3.59374951e-004
,,,-6.02500000e-009,3.71874952e-004
,,,-6.00000000e-009,3.85937453e-004
,,,-5.97500000e-009,3.99999954e-004
,,,-5.95000000e-009,4.17187455e-004
,,,-5.92500000e-009,4.29687456e-004
,,,-5.90000000e-009,4.39062457e-004
,,,-5.87500000e-009,4.42187457e-004
,,,-5.85000000e-009,4.40624957e-004
,,,-5.82500000e-009,4.31249956e-004
,,,-5.80000000e-009,4.18749955e-004
,,,-5.77500000e-009,3.99999954e-004
,,,-5.75000000e-009,3.81249952e-004
,,,-5.72500000e-009,3.62499951e-004
,,,-5.70000000e-009,3.46874950e-004
,,,-5.67500000e-009,3.37499949e-004
,,,-5.65000000e-009,3.37499949e-004
,,,-5.62500000e-009,3.46874950e-004
,,,-5.60000000e-009,3.67187451e-004
,,,-5.57500000e-009,3.99999954e-004
,,,-5.55000000e-009,4.46874957e-004
,,,-5.52500000e-009,4.98437461e-004
,,,-5.50000000e-009,5.56249965e-004
,,,-5.47500000e-009,6.15624969e-004
,,,-5.45000000e-009,6.73437473e-004
,,,-5.42500000e-009,7.24999977e-004
,,,-5.40000000e-009,7.67187480e-004
,,,-5.37500000e-009,7.99999982e-004
,,,-5.35000000e-009,8.20312484e-004
,,,-5.32500000e-009,8.29687484e-004
,,,-5.30000000e-009,8.29687484e-004
,,,-5.27500000e-009,8.24999984e-004
,,,-5.25000000e-009,8.15624983e-004
,,,-5.22500000e-009,8.07812483e-004
,,,-5.20000000e-009,8.01562482e-004
,,,-5.17500000e-009,7.99999982e-004
,,,-5.15000000e-009,8.01562482e-004
,,,-5.12500000e-009,8.07812483e-004
,,,-5.10000000e-009,8.15624983e-004
,,,-5.07500000e-009,8.24999984e-004
,,,-5.05000000e-009,8.29687484e-004
,,,-5.02500000e-009,8.29687484e-004
,,,-5.00000000e-009,8.20312484e-004
,,,-4.97500000e-009,7.99999982e-004
,,,-4.95000000e-009,7.67187480e-004
,,,-4.92500000e-009,7.24999977e-004
,,,-4.90000000e-009,6.73437473e-004
,,,-4.87500000e-009,6.15624969e-004
,,,-4.85000000e-009,5.56249965e-004
,,,-4.82500000e-009,4.98437461e-004
,,,-4.80000000e-009,4.46874957e-004
,,,-4.77500000e-009,3.99999954e-004
,,,-4.75000000e-009,3.65624951e-004
,,,-4.72500000e-009,3.42187450e-004
,,,-4.70000000e-009,3.31249949e-004
,,,-4.67500000e-009,3.31249949e-004
,,,-4.65000000e-009,3.40624950e-004
,,,-4.62500000e-009,3.56249951e-004
,,,-4.60000000e-009,3.78124952e-004
,,,-4.57500000e-009,3.99999954e-004
,,,-4.55000000e-009,4.21874955e-004
,,,-4.52500000e-009,4.40624957e-004
,,,-4.50000000e-009,4.53124958e-004
,,,-4.47500000e-009,4.57812458e-004
,,,-4.45000000e-009,4.54687458e-004
,,,-4.42500000e-009,4.42187457e-004
,,,-4.40000000e-009,4.24999956e-004
,,,-4.37500000e-009,3.99999954e-004
,,,-4.35000000e-009,3.78124952e-004
,,,-4.32500000e-009,3.56249951e-004
,,,-4.30000000e-009,3.37499949e-004
,,,-4.27500000e-009,3.26562449e-004
,,,-4.25000000e-009,3.26562449e-004
,,,-4.22500000e-009,3.37499949e-004
,,,-4.20000000e-009,3.62499951e-004
,,,-4.17500000e-009,3.99999954e-004
,,,-4.15000000e-009,4.54687458e-004
,,,-4.12500000e-009,5.15624962e-004
,,,-4.10000000e-009,5.81249967e-004
,,,-4.07500000e-009,6.46874971e-004
,,,-4.05000000e-009,7.06249975e-004
,,,-4.02500000e-009,7.53124979e-004
,,,-4.00000000e-009,7.85937481e-004
,,,-3.97500000e-009,7.99999982e-004
,,,-3.95000000e-009,7.95312482e-004
,,,-3.92500000e-009,7.70312480e-004
,,,-3.90000000e-009,7.28124977e-004
,,,-3.87500000e-009,6.71874973e-004
,,,-3.85000000e-009,6.06249968e-004
,,,-3.82500000e-009,5.35937463e-004
,,,-3.80000000e-009,4.65624958e-004
,,,-3.77500000e-009,3.99999954e-004
,,,-3.75000000e-009,3.46874950e-004
,,,-3.72500000e-009,3.06249947e-004
,,,-3.70000000e-009,2.81249945e-004
,,,-3.67500000e-009,2.74999945e-004
,,,-3.65000000e-009,2.84374946e-004
,,,-3.62500000e-009,3.10937448e-004
,,,-3.60000000e-009,3.49999950e-004
,,,-3.57500000e-009,3.99999954e-004
,,,-3.55000000e-009,4.60937458e-004
,,,-3.52500000e-009,5.24999963e-004
,,,-3.50000000e-009,5.89062467e-004
,,,-3.47500000e-009,6.48437471e-004
,,,-3.45000000e-009,7.01562475e-004
,,,-3.42500000e-009,7.45312478e-004
,,,-3.40000000e-009,7.78124981e-004
,,,-3.37500000e-009,7.99999982e-004
,,,-3.35000000e-009,8.09374983e-004
,,,-3.32500000e-009,8.07812483e-004
,,,-3.30000000e-009,8.01562482e-004
,,,-3.27500000e-009,7.93749982e-004
,,,-3.25000000e-009,7.87499981e-004
,,,-3.22500000e-009,7.85937481e-004
,,,-3.20000000e-009,7.89062481e-004
,,,-3.17500000e-009,7.99999982e-004
,,,-3.15000000e-009,8.17187483e-004
,,,-3.12500000e-009,8.35937485e-004
,,,-3.10000000e-009,8.56249986e-004
,,,-3.07500000e-009,8.70312487e-004
,,,-3.05000000e-009,8.76562488e-004
,,,-3.02500000e-009,8.67187487e-004
,,,-3.00000000e-009,8.43749985e-004
,,,-2.97500000e-009,7.99999982e-004
,,,-2.95000000e-009,7.43749978e-004
,,,-2.92500000e-009,6.74999973e-004
,,,-2.90000000e-009,5.99999968e-004
,,,-2.87500000e-009,5.29687463e-004
,,,-2.85000000e-009,4.67187459e-004
,,,-2.82500000e-009,4.21874955e-004
,,,-2.80000000e-009,3.98437454e-004
,,,-2.77500000e-009,3.99999954e-004
,,,-2.75000000e-009,4.29687456e-004
,,,-2.72500000e-009,4.79687459e-004
,,,-2.70000000e-009,5.45312464e-004
,,,-2.67500000e-009,6.18749969e-004
,,,-2.65000000e-009,6.87499974e-004
,,,-2.62500000e-009,7.46874978e-004
,,,-2.60000000e-009,7.85937481e-004
,,,-2.57500000e-009,7.99999982e-004
,,,-2.55000000e-009,7.85937481e-004
,,,-2.52500000e-009,7.46874978e-004
,,,-2.50000000e-009,6.87499974e-004
,,,-2.47500000e-009,6.18749969e-004
,,,-2.45000000e-009,5.45312464e-004
,,,-2.42500000e-009,4.79687459e-004
,,,-2.40000000e-009,4.29687456e-004
,,,-2.37500000e-009,3.99999954e-004
,,,-2.35000000e-009,3.98437454e-004
,,,-2.32500000e-009,4.21874955e-004
,,,-2.30000000e-009,4.67187459e-004
,,,-2.27500000e-009,5.29687463e-004
,,,-2.25000000e-009,5.99999968e-004
,,,-2.22500000e-009,6.74999973e-004
,,,-2.20000000e-009,7.43749978e-004
,,,-2.17500000e-009,7.99999982e-004
,,,-2.15000000e-009,8.39062485e-004
,,,-2.12500000e-009,8.59374986e-004
,,,-2.10000000e-009,8.64062487e-004
,,,-2.07500000e-009,8.56249986e-004
,,,-2.05000000e-009,8.42187485e-004
,,,-2.02500000e-009,8.24999984e-004
,,,-2.00000000e-009,8.09374983e-004
,,,-1.97500000e-009,7.99999982e-004
,,,-1.95000000e-009,7.98437482e-004
,,,-1.92500000e-009,8.03124982e-004
,,,-1.90000000e-009,8.12499983e-004
,,,-1.87500000e-009,8.24999984e-004
,,,-1.85000000e-009,8.32812484e-004
,,,-1.82500000e-009,8.34374985e-004
,,,-1.80000000e-009,8.24999984e-004
,,,-1.77500000e-009,7.99999982e-004
,,,-1.75000000e-009,7.56249979e-004
,,,-1.72500000e-009,6.99999975e-004
,,,-1.70000000e-009,6.35937471e-004
,,,-1.67500000e-009,5.70312466e-004
,,,-1.65000000e-009,5.09374962e-004
,,,-1.62500000e-009,4.57812458e-004
,,,-1.60000000e-009,4.20312455e-004
,,,-1.57500000e-009,3.99999954e-004
,,,-1.55000000e-009,3.89062453e-004
,,,-1.52500000e-009,3.90624953e-004
,,,-1.50000000e-009,4.01562454e-004
,,,-1.47500000e-009,4.14062455e-004
,,,-1.45000000e-009,4.26562456e-004
,,,-1.42500000e-009,4.29687456e-004
,,,-1.40000000e-009,4.23437455e-004
,,,-1.37500000e-009,3.99999954e-004
,,,-1.35000000e-009,3.49999950e-004
,,,-1.32500000e-009,2.85937446e-004
,,,-1.30000000e-009,2.14062441e-004
,,,-1.27500000e-009,1.40624935e-004
,,,-1.25000000e-009,7.65624309e-005
,,,-1.22500000e-009,2.65624274e-005
,,,-1.20000000e-009,1.56242560e-006
,,,-1.17500000e-009,-7.45058060e-011
,,,-1.15000000e-009,1.40624265e-005
,,,-1.12500000e-009,4.84374289e-005
,,,-1.10000000e-009,9.99999326e-005
,,,-1.07500000e-009,1.64062437e-004
,,,-1.05000000e-009,2.34374942e-004
,,,-1.02500000e-009,3.03124947e-004
,,,-1.00000000e-009,3.60937451e-004
,,,-9.75000000e-010,3.99999954e-004
,,,-9.50000000e-010,3.90624953e-004
,,,-9.25000000e-010,3.48437450e-004
,,,-9.00000000e-010,2.74999945e-004
,,,-8.75000000e-010,1.73437438e-004
,,,-8.50000000e-010,4.84374289e-005
,,,-8.25000000e-010,-9.21875810e-005
,,,-8.00000000e-010,-2.43750092e-004
,,,-7.75000000e-010,-4.00000103e-004
,,,-7.50000000e-010,-5.75000115e-004
,,,-7.25000000e-010,-7.48437627e-004
,,,-7.00000000e-010,-9.17187639e-004
,,,-6.75000000e-010,-1.07656265e-003
,,,-6.50000000e-010,-1.22656266e-003
,,,-6.25000000e-010,-1.36250017e-003
,,,-6.00000000e-010,-1.48750018e-003
,,,-5.75000000e-010,-1.60000019e-003
,,,-5.50000000e-010,-1.72031270e-003
,,,-5.25000000e-010,-1.83593770e-003
,,,-5.00000000e-010,-1.94687521e-003
,,,-4.75000000e-010,-2.05000022e-003
,,,-4.50000000e-010,-2.14843773e-003
,,,-4.25000000e-010,-2.23750023e-003
,,,-4.00000000e-010,-2.32031274e-003
,,,-3.75000000e-010,-2.40000024e-003
,,,-3.50000000e-010,-2.48906275e-003
,,,-3.25000000e-010,-2.58906276e-003
,,,-3.00000000e-010,-2.70468777e-003
,,,-2.75000000e-010,-2.83906278e-003
,,,-2.50000000e-010,-2.99531279e-003
,,,-2.25000000e-010,-3.17500030e-003
,,,-2.00000000e-010,-3.37656281e-003
,,,-1.75000000e-010,-3.60000033e-003
,,,-1.50000000e-010,-3.83593785e-003
,,,-1.25000000e-010,-4.08125036e-003
,,,-1.00000000e-010,-4.32812538e-003
,,,-7.50000000e-011,-4.56250040e-003
,,,-5.00000000e-011,-4.77500041e-003
,,,-2.50000000e-011,-4.95625043e-003
,,,0.00000000e+000,-5.09843794e-003
,,,2.50000000e-011,-5.20000044e-003
,,,5.00000000e-011,-5.24375045e-003
,,,7.50000000e-011,-5.26406295e-003
,,,1.00000000e-010,-5.27343795e-003
,,,1.25000000e-010,-5.28593795e-003
,,,1.50000000e-010,-5.31406295e-003
,,,1.75000000e-010,-5.37031295e-003
,,,2.00000000e-010,-5.46406296e-003
,,,2.25000000e-010,-5.60000047e-003
,,,2.50000000e-010,-5.75156298e-003
,,,2.75000000e-010,-5.94531300e-003
,,,3.00000000e-010,-6.16718801e-003
,,,3.25000000e-010,-6.40625053e-003
,,,3.50000000e-010,-6.64531304e-003
,,,3.75000000e-010,-6.86718806e-003
,,,4.00000000e-010,-7.05625057e-003
,,,4.25000000e-010,-7.20000058e-003
,,,4.50000000e-010,-7.25312559e-003
,,,4.75000000e-010,-7.25937559e-003
,,,5.00000000e-010,-7.22031309e-003
,,,5.25000000e-010,-7.15000058e-003
,,,5.50000000e-010,-7.06093807e-003
,,,5.75000000e-010,-6.96406307e-003
,,,6.00000000e-010,-6.87343806e-003
,,,6.25000000e-010,-6.80000056e-003
,,,6.50000000e-010,-6.71562555e-003
,,,6.75000000e-010,-6.66250055e-003
,,,7.00000000e-010,-6.64062554e-003
,,,7.25000000e-010,-6.64843805e-003
,,,7.50000000e-010,-6.67656305e-003
,,,7.75000000e-010,-6.71875055e-003
,,,8.00000000e-010,-6.76406305e-003
,,,8.25000000e-010,-6.80000056e-003
,,,8.50000000e-010,-6.78281305e-003
,,,8.75000000e-010,-6.74218805e-003
,,,9.00000000e-010,-6.67500055e-003
,,,9.25000000e-010,-6.58125054e-003
,,,9.50000000e-010,-6.46250053e-003
,,,9.75000000e-010,-6.32343802e-003
,,,1.00000000e-009,-6.16718801e-003
,,,1.02500000e-009,-6.00000050e-003
,,,1.05000000e-009,-5.80000049e-003
,,,1.07500000e-009,-5.60156297e-003
,,,1.10000000e-009,-5.41250046e-003
,,,1.12500000e-009,-5.24062545e-003
,,,1.15000000e-009,-5.08906293e-003
,,,1.17500000e-009,-4.96406293e-003
,,,1.20000000e-009,-4.86875042e-003
,,,1.22500000e-009,-4.80000041e-003
,,,1.25000000e-009,-4.73906291e-003
,,,1.27500000e-009,-4.69375041e-003
,,,1.30000000e-009,-4.65781290e-003
,,,1.32500000e-009,-4.62500040e-003
,,,1.35000000e-009,-4.58906290e-003
,,,1.37500000e-009,-4.54218790e-003
,,,1.40000000e-009,-4.47968789e-003
,,,1.42500000e-009,-4.40000039e-003
,,,1.45000000e-009,-4.28750038e-003
,,,1.47500000e-009,-4.15000037e-003
,,,1.50000000e-009,-3.99375036e-003
,,,1.52500000e-009,-3.82500035e-003
,,,1.55000000e-009,-3.65312533e-003
,,,1.57500000e-009,-3.48750032e-003
,,,1.60000000e-009,-3.33437531e-003
,,,1.62500000e-009,-3.20000030e-003
,,,1.65000000e-009,-3.08437529e-003
,,,1.67500000e-009,-2.98281279e-003
,,,1.70000000e-009,-2.89062528e-003
,,,1.72500000e-009,-2.80468777e-003
,,,1.75000000e-009,-2.71718777e-003
,,,1.77500000e-009,-2.62343776e-003
,,,1.80000000e-009,-2.51875025e-003
,,,1.82500000e-009,-2.40000024e-003
,,,1.85000000e-009,-2.27031274e-003
,,,1.87500000e-009,-2.12187522e-003
,,,1.90000000e-009,-1.95781271e-003
,,,1.92500000e-009,-1.78750020e-003
,,,1.95000000e-009,-1.61718769e-003
,,,1.97500000e-009,-1.45781268e-003
,,,2.00000000e-009,-1.31718767e-003
,,,2.02500000e-009,-1.20000016e-003
,,,2.05000000e-009,-1.11718765e-003
,,,2.07500000e-009,-1.05312515e-003
,,,2.10000000e-009,-1.00625015e-003
,,,2.12500000e-009,-9.67187643e-004
,,,2.15000000e-009,-9.32812641e-004
,,,2.17500000e-009,-8.96875138e-004
,,,2.20000000e-009,-8.54687635e-004
,,,2.22500000e-009,-8.00000131e-004
,,,2.25000000e-009,-7.39062627e-004
,,,2.27500000e-009,-6.60937621e-004
,,,2.30000000e-009,-5.62500114e-004
,,,2.32500000e-009,-4.51562606e-004
,,,2.35000000e-009,-3.31250098e-004
,,,2.37500000e-009,-2.10937589e-004
,,,2.40000000e-009,-9.84375815e-005
,,,2.42500000e-009,-7.45058060e-011
,,,2.45000000e-009,6.71874302e-005
,,,2.47500000e-009,1.14062434e-004
,,,2.50000000e-009,1.40624935e-004
,,,2.52500000e-009,1.46874936e-004
,,,2.55000000e-009,1.34374935e-004
,,,2.57500000e-009,1.03124933e-004
,,,2.60000000e-009,5.62499295e-005
,,,2.62500000e-009,-7.45058060e-011
,,,2.65000000e-009,-6.87500794e-005
,,,2.67500000e-009,-1.28125084e-004
,,,2.70000000e-009,-1.71875087e-004
,,,2.72500000e-009,-1.93750088e-004
,,,2.75000000e-009,-1.89062588e-004
,,,2.77500000e-009,-1.54687585e-004
,,,2.80000000e-009,-9.06250809e-005
,,,2.82500000e-009,-7.45058060e-011
,,,2.85000000e-009,1.09374933e-004
,,,2.87500000e-009,2.34374942e-004
,,,2.90000000e-009,3.67187451e-004
,,,2.92500000e-009,4.98437461e-004
,,,2.95000000e-009,6.15624969e-004
,,,2.97500000e-009,7.09374976e-004
,,,3.00000000e-009,7.71874980e-004
,,,3.02500000e-009,7.99999982e-004
,,,3.05000000e-009,7.85937481e-004
,,,3.07500000e-009,7.42187478e-004
,,,3.10000000e-009,6.78124973e-004
,,,3.12500000e-009,6.03124968e-004
,,,3.15000000e-009,5.28124963e-004
,,,3.17500000e-009,4.64062458e-004
,,,3.20000000e-009,4.18749955e-004
,,,3.22500000e-009,3.99999954e-004
,,,3.25000000e-009,4.07812454e-004
,,,3.27500000e-009,4.45312457e-004
,,,3.30000000e-009,5.03124961e-004
,,,3.32500000e-009,5.76562466e-004
,,,3.35000000e-009,6.53124972e-004
,,,3.37500000e-009,7.21874977e-004
,,,3.40000000e-009,7.73437480e-004
,,,3.42500000e-009,7.99999982e-004
,,,3.45000000e-009,7.93749982e-004
,,,3.47500000e-009,7.60937479e-004
,,,3.50000000e-009,7.04687475e-004
,,,3.52500000e-009,6.34374970e-004
,,,3.55000000e-009,5.59374965e-004
,,,3.57500000e-009,4.90624960e-004
,,,3.60000000e-009,4.34374956e-004
,,,3.62500000e-009,3.99999954e-004
,,,3.65000000e-009,3.92187453e-004
,,,3.67500000e-009,4.09374954e-004
,,,3.70000000e-009,4.53124958e-004
,,,3.72500000e-009,5.15624962e-004
,,,3.75000000e-009,5.89062467e-004
,,,3.77500000e-009,6.67187473e-004
,,,3.80000000e-009,7.39062478e-004
,,,3.82500000e-009,7.99999982e-004
,,,3.85000000e-009,8.40624985e-004
,,,3.87500000e-009,8.64062487e-004
,,,3.90000000e-009,8.70312487e-004
,,,3.92500000e-009,8.64062487e-004
,,,3.95000000e-009,8.48437486e-004
,,,3.97500000e-009,8.29687484e-004
,,,4.00000000e-009,8.12499983e-004
,,,4.02500000e-009,7.99999982e-004
,,,4.05000000e-009,7.95312482e-004
,,,4.07500000e-009,7.98437482e-004
,,,4.10000000e-009,8.06249983e-004
,,,4.12500000e-009,8.15624983e-004
,,,4.15000000e-009,8.24999984e-004
,,,4.17500000e-009,8.26562484e-004
,,,4.20000000e-009,8.20312484e-004
,,,4.22500000e-009,7.99999982e-004
,,,4.25000000e-009,7.65624980e-004
,,,4.27500000e-009,7.17187476e-004
,,,4.30000000e-009,6.60937472e-004
,,,4.32500000e-009,5.99999968e-004
,,,4.35000000e-009,5.40624964e-004
,,,4.37500000e-009,4.84374960e-004
,,,4.40000000e-009,4.35937456e-004
,,,4.42500000e-009,3.99999954e-004
,,,4.45000000e-009,3.81249952e-004
,,,4.47500000e-009,3.74999952e-004
,,,4.50000000e-009,3.76562452e-004
,,,4.52500000e-009,3.85937453e-004
,,,4.55000000e-009,3.95312453e-004
,,,4.57500000e-009,4.03124954e-004
,,,4.60000000e-009,4.06249954e-004
,,,4.62500000e-009,3.99999954e-004
,,,4.65000000e-009,3.89062453e-004
,,,4.67500000e-009,3.71874952e-004
,,,4.70000000e-009,3.53124950e-004
,,,4.72500000e-009,3.37499949e-004
,,,4.75000000e-009,3.31249949e-004
,,,4.77500000e-009,3.37499949e-004
,,,4.80000000e-009,3.60937451e-004
,,,4.82500000e-009,3.99999954e-004
,,,4.85000000e-009,4.57812458e-004
,,,4.87500000e-009,5.26562463e-004
,,,4.90000000e-009,6.01562468e-004
,,,4.92500000e-009,6.71874973e-004
,,,4.95000000e-009,7.34374977e-004
,,,4.97500000e-009,7.79687481e-004
,,,5.00000000e-009,8.03124982e-004
,,,5.02500000e-009,7.99999982e-004
,,,5.05000000e-009,7.71874980e-004
,,,5.07500000e-009,7.21874977e-004
,,,5.10000000e-009,6.56249972e-004
,,,5.12500000e-009,5.82812467e-004
,,,5.15000000e-009,5.14062462e-004
,,,5.17500000e-009,4.54687458e-004
,,,5.20000000e-009,4.15624955e-004
,,,5.22500000e-009,3.99999954e-004
,,,5.25000000e-009,4.14062455e-004
,,,5.27500000e-009,4.51562457e-004
,,,5.30000000e-009,5.07812461e-004
,,,5.32500000e-009,5.76562466e-004
,,,5.35000000e-009,6.48437471e-004
,,,5.37500000e-009,7.15624976e-004
,,,5.40000000e-009,7.68749980e-004
,,,5.42500000e-009,7.99999982e-004
,,,5.45000000e-009,8.04687482e-004
,,,5.47500000e-009,7.84374981e-004
,,,5.50000000e-009,7.42187478e-004
,,,5.52500000e-009,6.81249974e-004
,,,5.55000000e-009,6.09374969e-004
,,,5.57500000e-009,5.34374963e-004
,,,5.60000000e-009,4.62499958e-004
,,,5.62500000e-009,3.99999954e-004
,,,5.65000000e-009,3.53124950e-004
,,,5.67500000e-009,3.23437448e-004
,,,5.70000000e-009,3.10937448e-004
,,,5.72500000e-009,3.14062448e-004
,,,5.75000000e-009,3.28124949e-004
,,,5.77500000e-009,3.49999950e-004
,,,5.80000000e-009,3.76562452e-004
,,,5.82500000e-009,3.99999954e-004
,,,5.85000000e-009,4.20312455e-004
,,,5.87500000e-009,4.34374956e-004
,,,5.90000000e-009,4.40624957e-004
,,,5.92500000e-009,4.40624957e-004
,,,5.95000000e-009,4.34374956e-004
,,,5.97500000e-009,4.23437455e-004
,,,6.00000000e-009,4.12499955e-004
,,,6.02500000e-009,3.99999954e-004
,,,6.05000000e-009,3.90624953e-004
,,,6.07500000e-009,3.84374953e-004
,,,6.10000000e-009,3.79687452e-004
