RawData/SinglePhotoelectron/R2_2pt2D_5mV/wave028_Ch4.csv

"Record Length",1000,"Points",-7.72500000e-009,5.14062462e-004
"Sample Interval",2.50000000e-011,s,-7.70000000e-009,5.68749966e-004
"Trigger Point",309,"Samples",-7.67500000e-009,6.26562470e-004
"Trigger Time",2.03533333e-011,s,-7.65000000e-009,6.87499974e-004
"",,,-7.62500000e-009,7.46874978e-004
"Horizontal Offset",-7.72500000e-009,s,-7.60000000e-009,7.99999982e-004
,,,-7.57500000e-009,8.45312485e-004
,,,-7.55000000e-009,8.76562488e-004
,,,-7.52500000e-009,8.96874989e-004
,,,-7.50000000e-009,9.03124989e-004
,,,-7.47500000e-009,8.95312489e-004
,,,-7.45000000e-009,8.74999987e-004
,,,-7.42500000e-009,8.43749985e-004
,,,-7.40000000e-009,7.99999982e-004
,,,-7.37500000e-009,7.48437478e-004
,,,-7.35000000e-009,6.92187474e-004
,,,-7.32500000e-009,6.34374970e-004
,,,-7.30000000e-009,5.76562466e-004
,,,-7.27500000e-009,5.21874962e-004
,,,-7.25000000e-009,4.73437459e-004
,,,-7.22500000e-009,4.32812456e-004
,,,-7.20000000e-009,3.99999954e-004
,,,-7.17500000e-009,3.79687452e-004
,,,-7.15000000e-009,3.68749952e-004
,,,-7.12500000e-009,3.65624951e-004
,,,-7.10000000e-009,3.68749952e-004
,,,-7.07500000e-009,3.74999952e-004
,,,-7.05000000e-009,3.84374953e-004
,,,-7.02500000e-009,3.93749953e-004
,,,-7.00000000e-009,3.99999954e-004
,,,-6.97500000e-009,4.07812454e-004
,,,-6.95000000e-009,4.10937455e-004
,,,-6.92500000e-009,4.10937455e-004
,,,-6.90000000e-009,4.09374954e-004
,,,-6.87500000e-009,4.06249954e-004
,,,-6.85000000e-009,4.03124954e-004
,,,-6.82500000e-009,4.01562454e-004
,,,-6.80000000e-009,3.99999954e-004
,,,-6.77500000e-009,4.03124954e-004
,,,-6.75000000e-009,4.07812454e-004
,,,-6.72500000e-009,4.12499955e-004
,,,-6.70000000e-009,4.15624955e-004
,,,-6.67500000e-009,4.18749955e-004
,,,-6.65000000e-009,4.17187455e-004
,,,-6.62500000e-009,4.10937455e-004
,,,-6.60000000e-009,3.99999954e-004
,,,-6.57500000e-009,3.89062453e-004
,,,-6.55000000e-009,3.74999952e-004
,,,-6.52500000e-009,3.62499951e-004
,,,-6.50000000e-009,3.53124950e-004
,,,-6.47500000e-009,3.49999950e-004
,,,-6.45000000e-009,3.54687451e-004
,,,-6.42500000e-009,3.71874952e-004
,,,-6.40000000e-009,3.99999954e-004
,,,-6.37500000e-009,4.43749957e-004
,,,-6.35000000e-009,4.96874961e-004
,,,-6.32500000e-009,5.56249965e-004
,,,-6.30000000e-009,6.15624969e-004
,,,-6.27500000e-009,6.74999973e-004
,,,-6.25000000e-009,7.26562477e-004
,,,-6.22500000e-009,7.68749980e-004
,,,-6.20000000e-009,7.99999982e-004
,,,-6.17500000e-009,8.17187483e-004
,,,-6.15000000e-009,8.21874984e-004
,,,-6.12500000e-009,8.17187483e-004
,,,-6.10000000e-009,8.09374983e-004
,,,-6.07500000e-009,7.99999982e-004
,,,-6.05000000e-009,7.93749982e-004
,,,-6.02500000e-009,7.93749982e-004
,,,-6.00000000e-009,7.99999982e-004
,,,-5.97500000e-009,8.09374983e-004
,,,-5.95000000e-009,8.21874984e-004
,,,-5.92500000e-009,8.37499985e-004
,,,-5.90000000e-009,8.49999986e-004
,,,-5.87500000e-009,8.56249986e-004
,,,-5.85000000e-009,8.51562486e-004
,,,-5.82500000e-009,8.34374985e-004
,,,-5.80000000e-009,7.99999982e-004
,,,-5.77500000e-009,7.53124979e-004
,,,-5.75000000e-009,6.95312475e-004
,,,-5.72500000e-009,6.31249970e-004
,,,-5.70000000e-009,5.65624966e-004
,,,-5.67500000e-009,5.04687461e-004
,,,-5.65000000e-009,4.54687458e-004
,,,-5.62500000e-009,4.18749955e-004
,,,-5.60000000e-009,3.99999954e-004
,,,-5.57500000e-009,4.04687454e-004
,,,-5.55000000e-009,4.29687456e-004
,,,-5.52500000e-009,4.71874959e-004
,,,-5.50000000e-009,5.31249963e-004
,,,-5.47500000e-009,5.99999968e-004
,,,-5.45000000e-009,6.71874973e-004
,,,-5.42500000e-009,7.40624978e-004
,,,-5.40000000e-009,7.99999982e-004
,,,-5.37500000e-009,8.42187485e-004
,,,-5.35000000e-009,8.60937486e-004
,,,-5.32500000e-009,8.53124986e-004
,,,-5.30000000e-009,8.15624983e-004
,,,-5.27500000e-009,7.49999979e-004
,,,-5.25000000e-009,6.54687472e-004
,,,-5.22500000e-009,5.35937463e-004
,,,-5.20000000e-009,3.99999954e-004
,,,-5.17500000e-009,2.60937444e-004
,,,-5.15000000e-009,1.28124935e-004
,,,-5.12500000e-009,9.37492616e-006
,,,-5.10000000e-009,-7.96875801e-005
,,,-5.07500000e-009,-1.31250084e-004
,,,-5.05000000e-009,-1.37500084e-004
,,,-5.02500000e-009,-9.21875810e-005
,,,-5.00000000e-009,-7.45058060e-011
,,,-4.97500000e-009,1.46874936e-004
,,,-4.95000000e-009,3.24999948e-004
,,,-4.92500000e-009,5.21874962e-004
,,,-4.90000000e-009,7.18749976e-004
,,,-4.87500000e-009,8.99999989e-004
,,,-4.85000000e-009,1.04843750e-003
,,,-4.82500000e-009,1.15156251e-003
,,,-4.80000000e-009,1.20000001e-003
,,,-4.77500000e-009,1.19062501e-003
,,,-4.75000000e-009,1.12812501e-003
,,,-4.72500000e-009,1.02343750e-003
,,,-4.70000000e-009,8.89062488e-004
,,,-4.67500000e-009,7.45312478e-004
,,,-4.65000000e-009,6.06249968e-004
,,,-4.62500000e-009,4.87499960e-004
,,,-4.60000000e-009,3.99999954e-004
,,,-4.57500000e-009,3.57812451e-004
,,,-4.55000000e-009,3.57812451e-004
,,,-4.52500000e-009,3.95312453e-004
,,,-4.50000000e-009,4.64062458e-004
,,,-4.47500000e-009,5.51562465e-004
,,,-4.45000000e-009,6.43749971e-004
,,,-4.42500000e-009,7.29687477e-004
,,,-4.40000000e-009,7.99999982e-004
,,,-4.37500000e-009,8.48437486e-004
,,,-4.35000000e-009,8.71874987e-004
,,,-4.32500000e-009,8.71874987e-004
,,,-4.30000000e-009,8.57812486e-004
,,,-4.27500000e-009,8.32812484e-004
,,,-4.25000000e-009,8.10937483e-004
,,,-4.22500000e-009,7.98437482e-004
,,,-4.20000000e-009,7.99999982e-004
,,,-4.17500000e-009,8.21874984e-004
,,,-4.15000000e-009,8.62499987e-004
,,,-4.12500000e-009,9.20312491e-004
,,,-4.10000000e-009,9.87499995e-004
,,,-4.07500000e-009,1.05625000e-003
,,,-4.05000000e-009,1.12031250e-003
,,,-4.02500000e-009,1.17031251e-003
,,,-4.00000000e-009,1.20000001e-003
,,,-3.97500000e-009,1.19843751e-003
,,,-3.95000000e-009,1.17187501e-003
,,,-3.92500000e-009,1.12500001e-003
,,,-3.90000000e-009,1.06406250e-003
,,,-3.87500000e-009,9.93749996e-004
,,,-3.85000000e-009,9.21874991e-004
,,,-3.82500000e-009,8.56249986e-004
,,,-3.80000000e-009,7.99999982e-004
,,,-3.77500000e-009,7.60937479e-004
,,,-3.75000000e-009,7.35937478e-004
,,,-3.72500000e-009,7.26562477e-004
,,,-3.70000000e-009,7.31249977e-004
,,,-3.67500000e-009,7.43749978e-004
,,,-3.65000000e-009,7.62499979e-004
,,,-3.62500000e-009,7.82812481e-004
,,,-3.60000000e-009,7.99999982e-004
,,,-3.57500000e-009,8.12499983e-004
,,,-3.55000000e-009,8.18749983e-004
,,,-3.52500000e-009,8.18749983e-004
,,,-3.50000000e-009,8.15624983e-004
,,,-3.47500000e-009,8.10937483e-004
,,,-3.45000000e-009,8.04687482e-004
,,,-3.42500000e-009,8.01562482e-004
,,,-3.40000000e-009,7.99999982e-004
,,,-3.37500000e-009,8.01562482e-004
,,,-3.35000000e-009,8.06249983e-004
,,,-3.32500000e-009,8.12499983e-004
,,,-3.30000000e-009,8.17187483e-004
,,,-3.27500000e-009,8.21874984e-004
,,,-3.25000000e-009,8.21874984e-004
,,,-3.22500000e-009,8.15624983e-004
,,,-3.20000000e-009,7.99999982e-004
,,,-3.17500000e-009,7.76562480e-004
,,,-3.15000000e-009,7.42187478e-004
,,,-3.12500000e-009,6.98437475e-004
,,,-3.10000000e-009,6.46874971e-004
,,,-3.07500000e-009,5.89062467e-004
,,,-3.05000000e-009,5.26562463e-004
,,,-3.02500000e-009,4.62499958e-004
,,,-3.00000000e-009,3.99999954e-004
,,,-2.97500000e-009,3.51562450e-004
,,,-2.95000000e-009,3.10937448e-004
,,,-2.92500000e-009,2.84374946e-004
,,,-2.90000000e-009,2.73437445e-004
,,,-2.87500000e-009,2.78124945e-004
,,,-2.85000000e-009,3.03124947e-004
,,,-2.82500000e-009,3.43749950e-004
,,,-2.80000000e-009,3.99999954e-004
,,,-2.77500000e-009,4.70312459e-004
,,,-2.75000000e-009,5.46874964e-004
,,,-2.72500000e-009,6.21874970e-004
,,,-2.70000000e-009,6.89062474e-004
,,,-2.67500000e-009,7.46874978e-004
,,,-2.65000000e-009,7.85937481e-004
,,,-2.62500000e-009,8.04687482e-004
,,,-2.60000000e-009,7.99999982e-004
,,,-2.57500000e-009,7.76562480e-004
,,,-2.55000000e-009,7.35937478e-004
,,,-2.52500000e-009,6.79687474e-004
,,,-2.50000000e-009,6.14062469e-004
,,,-2.47500000e-009,5.48437464e-004
,,,-2.45000000e-009,4.85937460e-004
,,,-2.42500000e-009,4.35937456e-004
,,,-2.40000000e-009,3.99999954e-004
,,,-2.37500000e-009,3.89062453e-004
,,,-2.35000000e-009,3.98437454e-004
,,,-2.32500000e-009,4.29687456e-004
,,,-2.30000000e-009,4.81249960e-004
,,,-2.27500000e-009,5.48437464e-004
,,,-2.25000000e-009,6.29687470e-004
,,,-2.22500000e-009,7.15624976e-004
,,,-2.20000000e-009,7.99999982e-004
,,,-2.17500000e-009,8.76562488e-004
,,,-2.15000000e-009,9.37499992e-004
,,,-2.12500000e-009,9.78124995e-004
,,,-2.10000000e-009,9.93749996e-004
,,,-2.07500000e-009,9.82812495e-004
,,,-2.05000000e-009,9.46874993e-004
,,,-2.02500000e-009,8.84374988e-004
,,,-2.00000000e-009,7.99999982e-004
,,,-1.97500000e-009,7.01562475e-004
,,,-1.95000000e-009,5.96874968e-004
,,,-1.92500000e-009,4.99999961e-004
,,,-1.90000000e-009,4.17187455e-004
,,,-1.87500000e-009,3.60937451e-004
,,,-1.85000000e-009,3.37499949e-004
,,,-1.82500000e-009,3.49999950e-004
,,,-1.80000000e-009,3.99999954e-004
,,,-1.77500000e-009,4.84374960e-004
,,,-1.75000000e-009,5.95312468e-004
,,,-1.72500000e-009,7.23437477e-004
,,,-1.70000000e-009,8.56249986e-004
,,,-1.67500000e-009,9.82812495e-004
,,,-1.65000000e-009,1.08906250e-003
,,,-1.62500000e-009,1.16406251e-003
,,,-1.60000000e-009,1.20000001e-003
,,,-1.57500000e-009,1.18593751e-003
,,,-1.55000000e-009,1.12812501e-003
,,,-1.52500000e-009,1.03593750e-003
,,,-1.50000000e-009,9.15624990e-004
,,,-1.47500000e-009,7.79687481e-004
,,,-1.45000000e-009,6.40624971e-004
,,,-1.42500000e-009,5.10937462e-004
,,,-1.40000000e-009,3.99999954e-004
,,,-1.37500000e-009,3.09374947e-004
,,,-1.35000000e-009,2.48437443e-004
,,,-1.32500000e-009,2.18749941e-004
,,,-1.30000000e-009,2.20312441e-004
,,,-1.27500000e-009,2.43749943e-004
,,,-1.25000000e-009,2.87499946e-004
,,,-1.22500000e-009,3.42187450e-004
,,,-1.20000000e-009,3.99999954e-004
,,,-1.17500000e-009,4.39062457e-004
,,,-1.15000000e-009,4.65624958e-004
,,,-1.12500000e-009,4.79687459e-004
,,,-1.10000000e-009,4.79687459e-004
,,,-1.07500000e-009,4.68749959e-004
,,,-1.05000000e-009,4.49999957e-004
,,,-1.02500000e-009,4.26562456e-004
,,,-1.00000000e-009,3.99999954e-004
,,,-9.75000000e-010,3.48437450e-004
,,,-9.50000000e-010,2.92187446e-004
,,,-9.25000000e-010,2.34374942e-004
,,,-9.00000000e-010,1.78124938e-004
,,,-8.75000000e-010,1.26562434e-004
,,,-8.50000000e-010,7.81249310e-005
,,,-8.25000000e-010,3.74999281e-005
,,,-8.00000000e-010,-7.45058060e-011
,,,-7.75000000e-010,-6.25000789e-005
,,,-7.50000000e-010,-1.25000083e-004
,,,-7.25000000e-010,-1.85937588e-004
,,,-7.00000000e-010,-2.42187592e-004
,,,-6.75000000e-010,-2.93750095e-004
,,,-6.50000000e-010,-3.35937598e-004
,,,-6.25000000e-010,-3.70312601e-004
,,,-6.00000000e-010,-4.00000103e-004
,,,-5.75000000e-010,-4.54687607e-004
,,,-5.50000000e-010,-5.20312611e-004
,,,-5.25000000e-010,-5.95312617e-004
,,,-5.00000000e-010,-6.84375123e-004
,,,-4.75000000e-010,-7.87500130e-004
,,,-4.50000000e-010,-9.06250139e-004
,,,-4.25000000e-010,-1.04375015e-003
,,,-4.00000000e-010,-1.20000016e-003
,,,-3.75000000e-010,-1.40625017e-003
,,,-3.50000000e-010,-1.63593769e-003
,,,-3.25000000e-010,-1.88593771e-003
,,,-3.00000000e-010,-2.14687523e-003
,,,-2.75000000e-010,-2.41406275e-003
,,,-2.50000000e-010,-2.68281276e-003
,,,-2.25000000e-010,-2.94531278e-003
,,,-2.00000000e-010,-3.20000030e-003
,,,-1.75000000e-010,-3.46406282e-003
,,,-1.50000000e-010,-3.72500034e-003
,,,-1.25000000e-010,-3.98281286e-003
,,,-1.00000000e-010,-4.23437537e-003
,,,-7.50000000e-011,-4.48281289e-003
,,,-5.00000000e-011,-4.72656291e-003
,,,-2.50000000e-011,-4.96562543e-003
,,,0.00000000e+000,-5.20000044e-003
,,,2.50000000e-011,-5.42812546e-003
,,,5.00000000e-011,-5.65781297e-003
,,,7.50000000e-011,-5.88437549e-003
,,,1.00000000e-010,-6.10312551e-003
,,,1.25000000e-010,-6.30781302e-003
,,,1.50000000e-010,-6.49531303e-003
,,,1.75000000e-010,-6.65937555e-003
,,,2.00000000e-010,-6.80000056e-003
,,,2.25000000e-010,-6.90312556e-003
,,,2.50000000e-010,-6.99531307e-003
,,,2.75000000e-010,-7.08125058e-003
,,,3.00000000e-010,-7.16562558e-003
,,,3.25000000e-010,-7.25625059e-003
,,,3.50000000e-010,-7.35625060e-003
,,,3.75000000e-010,-7.46875060e-003
,,,4.00000000e-010,-7.60000061e-003
,,,4.25000000e-010,-7.72968812e-003
,,,4.50000000e-010,-7.88750063e-003
,,,4.75000000e-010,-8.07343815e-003
,,,5.00000000e-010,-8.28125066e-003
,,,5.25000000e-010,-8.50468818e-003
,,,5.50000000e-010,-8.73750069e-003
,,,5.75000000e-010,-8.97031321e-003
,,,6.00000000e-010,-9.20000073e-003
,,,6.25000000e-010,-9.37812574e-003
,,,6.50000000e-010,-9.55000075e-003
,,,6.75000000e-010,-9.71250076e-003
,,,7.00000000e-010,-9.86718827e-003
,,,7.25000000e-010,-1.00140633e-002
,,,7.50000000e-010,-1.01531258e-002
,,,7.75000000e-010,-1.02812508e-002
,,,8.00000000e-010,-1.04000008e-002
,,,8.25000000e-010,-1.04593758e-002
,,,8.50000000e-010,-1.05078133e-002
,,,8.75000000e-010,-1.05421883e-002
,,,9.00000000e-010,-1.05578133e-002
,,,9.25000000e-010,-1.05546883e-002
,,,9.50000000e-010,-1.05281258e-002
,,,9.75000000e-010,-1.04765633e-002
,,,1.00000000e-009,-1.04000008e-002
,,,1.02500000e-009,-1.02578133e-002
,,,1.05000000e-009,-1.01078133e-002
,,,1.07500000e-009,-9.95937578e-003
,,,1.10000000e-009,-9.82500077e-003
,,,1.12500000e-009,-9.71562576e-003
,,,1.15000000e-009,-9.63906326e-003
,,,1.17500000e-009,-9.60000075e-003
,,,1.20000000e-009,-9.60000075e-003
,,,1.22500000e-009,-9.59687575e-003
,,,1.25000000e-009,-9.61875076e-003
,,,1.27500000e-009,-9.65312576e-003
,,,1.30000000e-009,-9.69062576e-003
,,,1.32500000e-009,-9.71562576e-003
,,,1.35000000e-009,-9.71562576e-003
,,,1.37500000e-009,-9.67968826e-003
,,,1.40000000e-009,-9.60000075e-003
,,,1.42500000e-009,-9.44062574e-003
,,,1.45000000e-009,-9.24062573e-003
,,,1.47500000e-009,-9.01250071e-003
,,,1.50000000e-009,-8.77343820e-003
,,,1.52500000e-009,-8.53750068e-003
,,,1.55000000e-009,-8.32187566e-003
,,,1.57500000e-009,-8.13906315e-003
,,,1.60000000e-009,-8.00000064e-003
,,,1.62500000e-009,-7.88593813e-003
,,,1.65000000e-009,-7.81093813e-003
,,,1.67500000e-009,-7.76718812e-003
,,,1.70000000e-009,-7.74531312e-003
,,,1.72500000e-009,-7.73281312e-003
,,,1.75000000e-009,-7.71250062e-003
,,,1.77500000e-009,-7.67187562e-003
,,,1.80000000e-009,-7.60000061e-003
,,,1.82500000e-009,-7.46718810e-003
,,,1.85000000e-009,-7.28437559e-003
,,,1.87500000e-009,-7.05312557e-003
,,,1.90000000e-009,-6.78593805e-003
,,,1.92500000e-009,-6.49218803e-003
,,,1.95000000e-009,-6.18750051e-003
,,,1.97500000e-009,-5.88437549e-003
,,,2.00000000e-009,-5.60000047e-003
,,,2.02500000e-009,-5.33750045e-003
,,,2.05000000e-009,-5.10312544e-003
,,,2.07500000e-009,-4.90312542e-003
,,,2.10000000e-009,-4.73750041e-003
,,,2.12500000e-009,-4.60781290e-003
,,,2.15000000e-009,-4.51093789e-003
,,,2.17500000e-009,-4.44375039e-003
,,,2.20000000e-009,-4.40000039e-003
,,,2.22500000e-009,-4.37656288e-003
,,,2.25000000e-009,-4.35468788e-003
,,,2.27500000e-009,-4.32656288e-003
,,,2.30000000e-009,-4.28906288e-003
,,,2.32500000e-009,-4.23906287e-003
,,,2.35000000e-009,-4.17500037e-003
,,,2.37500000e-009,-4.09531286e-003
,,,2.40000000e-009,-4.00000036e-003
,,,2.42500000e-009,-3.89375035e-003
,,,2.45000000e-009,-3.76562534e-003
,,,2.47500000e-009,-3.62031283e-003
,,,2.50000000e-009,-3.46093782e-003
,,,2.52500000e-009,-3.29375031e-003
,,,2.55000000e-009,-3.12500030e-003
,,,2.57500000e-009,-2.95937528e-003
,,,2.60000000e-009,-2.80000027e-003
,,,2.62500000e-009,-2.65625026e-003
,,,2.65000000e-009,-2.51406275e-003
,,,2.67500000e-009,-2.37031274e-003
,,,2.70000000e-009,-2.22500023e-003
,,,2.72500000e-009,-2.07500022e-003
,,,2.75000000e-009,-1.92031271e-003
,,,2.77500000e-009,-1.76093770e-003
,,,2.80000000e-009,-1.60000019e-003
,,,2.82500000e-009,-1.45312518e-003
,,,2.85000000e-009,-1.30781267e-003
,,,2.87500000e-009,-1.16562516e-003
,,,2.90000000e-009,-1.03750015e-003
,,,2.92500000e-009,-9.29687640e-004
,,,2.95000000e-009,-8.51562635e-004
,,,2.97500000e-009,-8.06250132e-004
,,,3.00000000e-009,-8.00000131e-004
,,,3.02500000e-009,-8.40625134e-004
,,,3.05000000e-009,-9.06250139e-004
,,,3.07500000e-009,-9.82812644e-004
,,,3.10000000e-009,-1.06093765e-003
,,,3.12500000e-009,-1.13125015e-003
,,,3.15000000e-009,-1.18281266e-003
,,,3.17500000e-009,-1.20781266e-003
,,,3.20000000e-009,-1.20000016e-003
,,,3.22500000e-009,-1.16406266e-003
,,,3.25000000e-009,-1.09062515e-003
,,,3.27500000e-009,-9.89062645e-004
,,,3.30000000e-009,-8.65625136e-004
,,,3.32500000e-009,-7.34375126e-004
,,,3.35000000e-009,-6.04687617e-004
,,,3.37500000e-009,-4.90625109e-004
,,,3.40000000e-009,-4.00000103e-004
,,,3.42500000e-009,-3.46875099e-004
,,,3.45000000e-009,-3.18750097e-004
,,,3.47500000e-009,-3.12500097e-004
,,,3.50000000e-009,-3.23437597e-004
,,,3.52500000e-009,-3.45312599e-004
,,,3.55000000e-009,-3.70312601e-004
,,,3.57500000e-009,-3.90625102e-004
,,,3.60000000e-009,-4.00000103e-004
,,,3.62500000e-009,-3.96875103e-004
,,,3.65000000e-009,-3.73437601e-004
,,,3.67500000e-009,-3.29687598e-004
,,,3.70000000e-009,-2.71875094e-004
,,,3.72500000e-009,-2.01562589e-004
,,,3.75000000e-009,-1.29687584e-004
,,,3.77500000e-009,-5.93750787e-005
,,,3.80000000e-009,-7.45058060e-011
,,,3.82500000e-009,4.37499286e-005
,,,3.85000000e-009,7.34374307e-005
,,,3.87500000e-009,8.74999317e-005
,,,3.90000000e-009,8.74999317e-005
,,,3.92500000e-009,7.65624309e-005
,,,3.95000000e-009,5.46874294e-005
,,,3.97500000e-009,2.96874276e-005
,,,4.00000000e-009,-7.45058060e-011
,,,4.02500000e-009,-2.65625764e-005
,,,4.05000000e-009,-4.84375779e-005
,,,4.07500000e-009,-6.25000789e-005
,,,4.10000000e-009,-6.71875793e-005
,,,4.12500000e-009,-6.25000789e-005
,,,4.15000000e-009,-5.00000780e-005
,,,4.17500000e-009,-2.81250765e-005
,,,4.20000000e-009,-7.45058060e-011
,,,4.22500000e-009,3.59374280e-005
,,,4.25000000e-009,7.65624309e-005
,,,4.27500000e-009,1.24999934e-004
,,,4.30000000e-009,1.76562438e-004
,,,4.32500000e-009,2.31249942e-004
,,,4.35000000e-009,2.87499946e-004
,,,4.37500000e-009,3.45312450e-004
,,,4.40000000e-009,3.99999954e-004
,,,4.42500000e-009,4.54687458e-004
,,,4.45000000e-009,5.06249961e-004
,,,4.47500000e-009,5.57812465e-004
,,,4.50000000e-009,6.09374969e-004
,,,4.52500000e-009,6.59374972e-004
,,,4.55000000e-009,7.09374976e-004
,,,4.57500000e-009,7.56249979e-004
,,,4.60000000e-009,7.99999982e-004
,,,4.62500000e-009,8.35937485e-004
,,,4.65000000e-009,8.64062487e-004
,,,4.67500000e-009,8.85937488e-004
,,,4.70000000e-009,8.96874989e-004
,,,4.72500000e-009,8.93749989e-004
,,,4.75000000e-009,8.78124988e-004
,,,4.77500000e-009,8.46874985e-004
,,,4.80000000e-009,7.99999982e-004
,,,4.82500000e-009,7.37499978e-004
,,,4.85000000e-009,6.68749973e-004
,,,4.87500000e-009,5.98437468e-004
,,,4.90000000e-009,5.31249963e-004
,,,4.92500000e-009,4.73437459e-004
,,,4.95000000e-009,4.29687456e-004
,,,4.97500000e-009,4.04687454e-004
,,,5.00000000e-009,3.99999954e-004
,,,5.02500000e-009,4.18749955e-004
,,,5.05000000e-009,4.54687458e-004
,,,5.07500000e-009,5.07812461e-004
,,,5.10000000e-009,5.70312466e-004
,,,5.12500000e-009,6.35937471e-004
,,,5.15000000e-009,6.99999975e-004
,,,5.17500000e-009,7.56249979e-004
,,,5.20000000e-009,7.99999982e-004
,,,5.22500000e-009,8.24999984e-004
,,,5.25000000e-009,8.35937485e-004
,,,5.27500000e-009,8.34374985e-004
,,,5.30000000e-009,8.26562484e-004
,,,5.32500000e-009,8.14062483e-004
,,,5.35000000e-009,8.04687482e-004
,,,5.37500000e-009,7.98437482e-004
,,,5.40000000e-009,7.99999982e-004
,,,5.42500000e-009,8.06249983e-004
,,,5.45000000e-009,8.18749983e-004
,,,5.47500000e-009,8.34374985e-004
,,,5.50000000e-009,8.48437486e-004
,,,5.52500000e-009,8.56249986e-004
,,,5.55000000e-009,8.53124986e-004
,,,5.57500000e-009,8.34374985e-004
,,,5.60000000e-009,7.99999982e-004
,,,5.62500000e-009,7.48437478e-004
,,,5.65000000e-009,6.85937474e-004
,,,5.67500000e-009,6.14062469e-004
,,,5.70000000e-009,5.43749964e-004
,,,5.72500000e-009,4.81249960e-004
,,,5.75000000e-009,4.32812456e-004
,,,5.77500000e-009,4.04687454e-004
,,,5.80000000e-009,3.99999954e-004
,,,5.82500000e-009,4.23437455e-004
,,,5.85000000e-009,4.65624958e-004
,,,5.87500000e-009,5.24999963e-004
,,,5.90000000e-009,5.93749968e-004
,,,5.92500000e-009,6.64062472e-004
,,,5.95000000e-009,7.24999977e-004
,,,5.97500000e-009,7.73437480e-004
,,,6.00000000e-009,7.99999982e-004
,,,6.02500000e-009,8.01562482e-004
,,,6.05000000e-009,7.78124981e-004
