RawData/SinglePhotoelectron/R2_2pt2D_5mV/wave003_Ch4.csv

"Record Length",1000,"Points",-7.72500000e-009,8.31249984e-004
"Sample Interval",2.50000000e-011,s,-7.70000000e-009,8.32812484e-004
"Trigger Point",309,"Samples",-7.67500000e-009,8.26562484e-004
"Trigger Time",2.06866667e-011,s,-7.65000000e-009,8.17187483e-004
"",,,-7.62500000e-009,8.09374983e-004
"Horizontal Offset",-7.72500000e-009,s,-7.60000000e-009,8.03124982e-004
,,,-7.57500000e-009,7.99999982e-004
,,,-7.55000000e-009,8.01562482e-004
,,,-7.52500000e-009,8.07812483e-004
,,,-7.50000000e-009,8.17187483e-004
,,,-7.47500000e-009,8.24999984e-004
,,,-7.45000000e-009,8.29687484e-004
,,,-7.42500000e-009,8.28124984e-004
,,,-7.40000000e-009,8.18749983e-004
,,,-7.37500000e-009,7.99999982e-004
,,,-7.35000000e-009,7.76562480e-004
,,,-7.32500000e-009,7.51562479e-004
,,,-7.30000000e-009,7.28124977e-004
,,,-7.27500000e-009,7.12499976e-004
,,,-7.25000000e-009,7.07812476e-004
,,,-7.22500000e-009,7.20312476e-004
,,,-7.20000000e-009,7.49999979e-004
,,,-7.17500000e-009,7.99999982e-004
,,,-7.15000000e-009,8.64062487e-004
,,,-7.12500000e-009,9.37499992e-004
,,,-7.10000000e-009,1.01562500e-003
,,,-7.07500000e-009,1.09218750e-003
,,,-7.05000000e-009,1.15468751e-003
,,,-7.02500000e-009,1.19843751e-003
,,,-7.00000000e-009,1.21406251e-003
,,,-6.97500000e-009,1.20000001e-003
,,,-6.95000000e-009,1.15000001e-003
,,,-6.92500000e-009,1.07031250e-003
,,,-6.90000000e-009,9.67187494e-004
,,,-6.87500000e-009,8.48437486e-004
,,,-6.85000000e-009,7.23437477e-004
,,,-6.82500000e-009,5.99999968e-004
,,,-6.80000000e-009,4.90624960e-004
,,,-6.77500000e-009,3.99999954e-004
,,,-6.75000000e-009,3.42187450e-004
,,,-6.72500000e-009,3.17187448e-004
,,,-6.70000000e-009,3.26562449e-004
,,,-6.67500000e-009,3.70312452e-004
,,,-6.65000000e-009,4.45312457e-004
,,,-6.62500000e-009,5.46874964e-004
,,,-6.60000000e-009,6.68749973e-004
,,,-6.57500000e-009,7.99999982e-004
,,,-6.55000000e-009,9.34374992e-004
,,,-6.52500000e-009,1.05781250e-003
,,,-6.50000000e-009,1.16250001e-003
,,,-6.47500000e-009,1.24062501e-003
,,,-6.45000000e-009,1.28593752e-003
,,,-6.42500000e-009,1.29375002e-003
,,,-6.40000000e-009,1.26562502e-003
,,,-6.37500000e-009,1.20000001e-003
,,,-6.35000000e-009,1.10156250e-003
,,,-6.32500000e-009,9.81249995e-004
,,,-6.30000000e-009,8.51562486e-004
,,,-6.27500000e-009,7.20312476e-004
,,,-6.25000000e-009,6.01562468e-004
,,,-6.22500000e-009,5.03124961e-004
,,,-6.20000000e-009,4.34374956e-004
,,,-6.17500000e-009,3.99999954e-004
,,,-6.15000000e-009,4.04687454e-004
,,,-6.12500000e-009,4.40624957e-004
,,,-6.10000000e-009,5.01562461e-004
,,,-6.07500000e-009,5.74999966e-004
,,,-6.05000000e-009,6.53124972e-004
,,,-6.02500000e-009,7.21874977e-004
,,,-6.00000000e-009,7.73437480e-004
,,,-5.97500000e-009,7.99999982e-004
,,,-5.95000000e-009,7.98437482e-004
,,,-5.92500000e-009,7.68749980e-004
,,,-5.90000000e-009,7.14062476e-004
,,,-5.87500000e-009,6.43749971e-004
,,,-5.85000000e-009,5.67187466e-004
,,,-5.82500000e-009,4.95312461e-004
,,,-5.80000000e-009,4.37499956e-004
,,,-5.77500000e-009,3.99999954e-004
,,,-5.75000000e-009,3.92187453e-004
,,,-5.72500000e-009,4.12499955e-004
,,,-5.70000000e-009,4.57812458e-004
,,,-5.67500000e-009,5.20312462e-004
,,,-5.65000000e-009,5.95312468e-004
,,,-5.62500000e-009,6.71874973e-004
,,,-5.60000000e-009,7.42187478e-004
,,,-5.57500000e-009,7.99999982e-004
,,,-5.55000000e-009,8.42187485e-004
,,,-5.52500000e-009,8.64062487e-004
,,,-5.50000000e-009,8.70312487e-004
,,,-5.47500000e-009,8.62499987e-004
,,,-5.45000000e-009,8.45312485e-004
,,,-5.42500000e-009,8.26562484e-004
,,,-5.40000000e-009,8.10937483e-004
,,,-5.37500000e-009,7.99999982e-004
,,,-5.35000000e-009,8.01562482e-004
,,,-5.32500000e-009,8.07812483e-004
,,,-5.30000000e-009,8.20312484e-004
,,,-5.27500000e-009,8.32812484e-004
,,,-5.25000000e-009,8.42187485e-004
,,,-5.22500000e-009,8.42187485e-004
,,,-5.20000000e-009,8.29687484e-004
,,,-5.17500000e-009,7.99999982e-004
,,,-5.15000000e-009,7.54687479e-004
,,,-5.12500000e-009,6.95312475e-004
,,,-5.10000000e-009,6.29687470e-004
,,,-5.07500000e-009,5.60937465e-004
,,,-5.05000000e-009,4.98437461e-004
,,,-5.02500000e-009,4.48437457e-004
,,,-5.00000000e-009,4.14062455e-004
,,,-4.97500000e-009,3.99999954e-004
,,,-4.95000000e-009,4.14062455e-004
,,,-4.92500000e-009,4.48437457e-004
,,,-4.90000000e-009,4.98437461e-004
,,,-4.87500000e-009,5.60937465e-004
,,,-4.85000000e-009,6.29687470e-004
,,,-4.82500000e-009,6.95312475e-004
,,,-4.80000000e-009,7.54687479e-004
,,,-4.77500000e-009,7.99999982e-004
,,,-4.75000000e-009,8.29687484e-004
,,,-4.72500000e-009,8.42187485e-004
,,,-4.70000000e-009,8.42187485e-004
,,,-4.67500000e-009,8.32812484e-004
,,,-4.65000000e-009,8.20312484e-004
,,,-4.62500000e-009,8.07812483e-004
,,,-4.60000000e-009,8.01562482e-004
,,,-4.57500000e-009,7.99999982e-004
,,,-4.55000000e-009,8.09374983e-004
,,,-4.52500000e-009,8.23437484e-004
,,,-4.50000000e-009,8.40624985e-004
,,,-4.47500000e-009,8.54687486e-004
,,,-4.45000000e-009,8.62499987e-004
,,,-4.42500000e-009,8.59374986e-004
,,,-4.40000000e-009,8.39062485e-004
,,,-4.37500000e-009,7.99999982e-004
,,,-4.35000000e-009,7.46874978e-004
,,,-4.32500000e-009,6.79687474e-004
,,,-4.30000000e-009,6.07812469e-004
,,,-4.27500000e-009,5.35937463e-004
,,,-4.25000000e-009,4.73437459e-004
,,,-4.22500000e-009,4.26562456e-004
,,,-4.20000000e-009,3.99999954e-004
,,,-4.17500000e-009,3.99999954e-004
,,,-4.15000000e-009,4.29687456e-004
,,,-4.12500000e-009,4.79687459e-004
,,,-4.10000000e-009,5.45312464e-004
,,,-4.07500000e-009,6.18749969e-004
,,,-4.05000000e-009,6.87499974e-004
,,,-4.02500000e-009,7.46874978e-004
,,,-4.00000000e-009,7.85937481e-004
,,,-3.97500000e-009,7.99999982e-004
,,,-3.95000000e-009,7.87499981e-004
,,,-3.92500000e-009,7.49999979e-004
,,,-3.90000000e-009,6.93749975e-004
,,,-3.87500000e-009,6.24999970e-004
,,,-3.85000000e-009,5.53124965e-004
,,,-3.82500000e-009,4.85937460e-004
,,,-3.80000000e-009,4.32812456e-004
,,,-3.77500000e-009,3.99999954e-004
,,,-3.75000000e-009,3.96874954e-004
,,,-3.72500000e-009,4.17187455e-004
,,,-3.70000000e-009,4.59374958e-004
,,,-3.67500000e-009,5.20312462e-004
,,,-3.65000000e-009,5.92187467e-004
,,,-3.62500000e-009,6.67187473e-004
,,,-3.60000000e-009,7.39062478e-004
,,,-3.57500000e-009,7.99999982e-004
,,,-3.55000000e-009,8.46874985e-004
,,,-3.52500000e-009,8.73437487e-004
,,,-3.50000000e-009,8.84374988e-004
,,,-3.47500000e-009,8.81249988e-004
,,,-3.45000000e-009,8.65624987e-004
,,,-3.42500000e-009,8.45312485e-004
,,,-3.40000000e-009,8.21874984e-004
,,,-3.37500000e-009,7.99999982e-004
,,,-3.35000000e-009,7.84374981e-004
,,,-3.32500000e-009,7.76562480e-004
,,,-3.30000000e-009,7.73437480e-004
,,,-3.27500000e-009,7.76562480e-004
,,,-3.25000000e-009,7.82812481e-004
,,,-3.22500000e-009,7.90624981e-004
,,,-3.20000000e-009,7.96874982e-004
,,,-3.17500000e-009,7.99999982e-004
,,,-3.15000000e-009,7.98437482e-004
,,,-3.12500000e-009,7.95312482e-004
,,,-3.10000000e-009,7.89062481e-004
,,,-3.07500000e-009,7.82812481e-004
,,,-3.05000000e-009,7.81249981e-004
,,,-3.02500000e-009,7.81249981e-004
,,,-3.00000000e-009,7.89062481e-004
,,,-2.97500000e-009,7.99999982e-004
,,,-2.95000000e-009,8.15624983e-004
,,,-2.92500000e-009,8.32812484e-004
,,,-2.90000000e-009,8.48437486e-004
,,,-2.87500000e-009,8.59374986e-004
,,,-2.85000000e-009,8.62499987e-004
,,,-2.82500000e-009,8.54687486e-004
,,,-2.80000000e-009,8.34374985e-004
,,,-2.77500000e-009,7.99999982e-004
,,,-2.75000000e-009,7.49999979e-004
,,,-2.72500000e-009,6.90624974e-004
,,,-2.70000000e-009,6.26562470e-004
,,,-2.67500000e-009,5.60937465e-004
,,,-2.65000000e-009,5.01562461e-004
,,,-2.62500000e-009,4.51562457e-004
,,,-2.60000000e-009,4.17187455e-004
,,,-2.57500000e-009,3.99999954e-004
,,,-2.55000000e-009,4.04687454e-004
,,,-2.52500000e-009,4.26562456e-004
,,,-2.50000000e-009,4.67187459e-004
,,,-2.47500000e-009,5.21874962e-004
,,,-2.45000000e-009,5.87499967e-004
,,,-2.42500000e-009,6.59374972e-004
,,,-2.40000000e-009,7.32812477e-004
,,,-2.37500000e-009,7.99999982e-004
,,,-2.35000000e-009,8.57812486e-004
,,,-2.32500000e-009,9.01562489e-004
,,,-2.30000000e-009,9.26562491e-004
,,,-2.27500000e-009,9.35937492e-004
,,,-2.25000000e-009,9.24999991e-004
,,,-2.22500000e-009,8.98437489e-004
,,,-2.20000000e-009,8.56249986e-004
,,,-2.17500000e-009,7.99999982e-004
,,,-2.15000000e-009,7.35937478e-004
,,,-2.12500000e-009,6.65624973e-004
,,,-2.10000000e-009,5.98437468e-004
,,,-2.07500000e-009,5.35937463e-004
,,,-2.05000000e-009,4.82812460e-004
,,,-2.02500000e-009,4.40624957e-004
,,,-2.00000000e-009,4.14062455e-004
,,,-1.97500000e-009,3.99999954e-004
,,,-1.95000000e-009,3.99999954e-004
,,,-1.92500000e-009,4.07812454e-004
,,,-1.90000000e-009,4.20312455e-004
,,,-1.87500000e-009,4.32812456e-004
,,,-1.85000000e-009,4.42187457e-004
,,,-1.82500000e-009,4.40624957e-004
,,,-1.80000000e-009,4.28124956e-004
,,,-1.77500000e-009,3.99999954e-004
,,,-1.75000000e-009,3.57812451e-004
,,,-1.72500000e-009,3.01562447e-004
,,,-1.70000000e-009,2.39062442e-004
,,,-1.67500000e-009,1.71874938e-004
,,,-1.65000000e-009,1.09374933e-004
,,,-1.62500000e-009,5.62499295e-005
,,,-1.60000000e-009,1.87499268e-005
,,,-1.57500000e-009,-7.45058060e-011
,,,-1.55000000e-009,-3.12507473e-006
,,,-1.52500000e-009,1.24999264e-005
,,,-1.50000000e-009,4.84374289e-005
,,,-1.47500000e-009,1.01562433e-004
,,,-1.45000000e-009,1.68749937e-004
,,,-1.42500000e-009,2.43749943e-004
,,,-1.40000000e-009,3.23437448e-004
,,,-1.37500000e-009,3.99999954e-004
,,,-1.35000000e-009,4.56249958e-004
,,,-1.32500000e-009,4.96874961e-004
,,,-1.30000000e-009,5.18749962e-004
,,,-1.27500000e-009,5.23437463e-004
,,,-1.25000000e-009,5.10937462e-004
,,,-1.22500000e-009,4.85937460e-004
,,,-1.20000000e-009,4.46874957e-004
,,,-1.17500000e-009,3.99999954e-004
,,,-1.15000000e-009,3.29687449e-004
,,,-1.12500000e-009,2.54687444e-004
,,,-1.10000000e-009,1.81249938e-004
,,,-1.07500000e-009,1.15624934e-004
,,,-1.05000000e-009,6.40624300e-005
,,,-1.02500000e-009,2.65624274e-005
,,,-1.00000000e-009,6.24992594e-006
,,,-9.75000000e-010,-7.45058060e-011
,,,-9.50000000e-010,-1.71875757e-005
,,,-9.25000000e-010,-3.28125768e-005
,,,-9.00000000e-010,-5.31250783e-005
,,,-8.75000000e-010,-8.43750805e-005
,,,-8.50000000e-010,-1.28125084e-004
,,,-8.25000000e-010,-1.93750088e-004
,,,-8.00000000e-010,-2.82812595e-004
,,,-7.75000000e-010,-4.00000103e-004
,,,-7.50000000e-010,-5.64062614e-004
,,,-7.25000000e-010,-7.54687628e-004
,,,-7.00000000e-010,-9.65625143e-004
,,,-6.75000000e-010,-1.18750016e-003
,,,-6.50000000e-010,-1.41093767e-003
,,,-6.25000000e-010,-1.62656269e-003
,,,-6.00000000e-010,-1.82343770e-003
,,,-5.75000000e-010,-2.00000022e-003
,,,-5.50000000e-010,-2.16093773e-003
,,,-5.25000000e-010,-2.29843774e-003
,,,-5.00000000e-010,-2.41250025e-003
,,,-4.75000000e-010,-2.50937525e-003
,,,-4.50000000e-010,-2.58906276e-003
,,,-4.25000000e-010,-2.65937526e-003
,,,-4.00000000e-010,-2.72812527e-003
,,,-3.75000000e-010,-2.80000027e-003
,,,-3.50000000e-010,-2.88593778e-003
,,,-3.25000000e-010,-2.99375029e-003
,,,-3.00000000e-010,-3.12187530e-003
,,,-2.75000000e-010,-3.27031281e-003
,,,-2.50000000e-010,-3.43750032e-003
,,,-2.25000000e-010,-3.61718783e-003
,,,-2.00000000e-010,-3.80625034e-003
,,,-1.75000000e-010,-4.00000036e-003
,,,-1.50000000e-010,-4.18125037e-003
,,,-1.25000000e-010,-4.36093788e-003
,,,-1.00000000e-010,-4.53593790e-003
,,,-7.50000000e-011,-4.70000041e-003
,,,-5.00000000e-011,-4.85000042e-003
,,,-2.50000000e-011,-4.98437543e-003
,,,0.00000000e+000,-5.10156294e-003
,,,2.50000000e-011,-5.20000044e-003
,,,5.00000000e-011,-5.26093795e-003
,,,7.50000000e-011,-5.31093795e-003
,,,1.00000000e-010,-5.35625045e-003
,,,1.25000000e-010,-5.39843796e-003
,,,1.50000000e-010,-5.44218796e-003
,,,1.75000000e-010,-5.48750046e-003
,,,2.00000000e-010,-5.53906297e-003
,,,2.25000000e-010,-5.60000047e-003
,,,2.50000000e-010,-5.64375047e-003
,,,2.75000000e-010,-5.70312548e-003
,,,3.00000000e-010,-5.78125048e-003
,,,3.25000000e-010,-5.87968799e-003
,,,3.50000000e-010,-5.99375050e-003
,,,3.75000000e-010,-6.12031301e-003
,,,4.00000000e-010,-6.25781302e-003
,,,4.25000000e-010,-6.40000053e-003
,,,4.50000000e-010,-6.50781304e-003
,,,4.75000000e-010,-6.60781304e-003
,,,5.00000000e-010,-6.69531305e-003
,,,5.25000000e-010,-6.76562555e-003
,,,5.50000000e-010,-6.81406306e-003
,,,5.75000000e-010,-6.83750056e-003
,,,6.00000000e-010,-6.83281306e-003
,,,6.25000000e-010,-6.80000056e-003
,,,6.50000000e-010,-6.70781305e-003
,,,6.75000000e-010,-6.59843804e-003
,,,7.00000000e-010,-6.47812553e-003
,,,7.25000000e-010,-6.35781302e-003
,,,7.50000000e-010,-6.24375052e-003
,,,7.75000000e-010,-6.14375051e-003
,,,8.00000000e-010,-6.06093800e-003
,,,8.25000000e-010,-6.00000050e-003
,,,8.50000000e-010,-5.93281299e-003
,,,8.75000000e-010,-5.88281299e-003
,,,9.00000000e-010,-5.84375049e-003
,,,9.25000000e-010,-5.81250049e-003
,,,9.50000000e-010,-5.77968798e-003
,,,9.75000000e-010,-5.73593798e-003
,,,1.00000000e-009,-5.67812548e-003
,,,1.02500000e-009,-5.60000047e-003
,,,1.05000000e-009,-5.47656296e-003
,,,1.07500000e-009,-5.33125045e-003
,,,1.10000000e-009,-5.16875044e-003
,,,1.12500000e-009,-4.99687543e-003
,,,1.15000000e-009,-4.82656292e-003
,,,1.17500000e-009,-4.66406290e-003
,,,1.20000000e-009,-4.52031289e-003
,,,1.22500000e-009,-4.40000039e-003
,,,1.25000000e-009,-4.29531288e-003
,,,1.27500000e-009,-4.21406287e-003
,,,1.30000000e-009,-4.15468787e-003
,,,1.32500000e-009,-4.11406287e-003
,,,1.35000000e-009,-4.08437536e-003
,,,1.37500000e-009,-4.05937536e-003
,,,1.40000000e-009,-4.03281286e-003
,,,1.42500000e-009,-4.00000036e-003
,,,1.45000000e-009,-3.94687535e-003
,,,1.47500000e-009,-3.87500035e-003
,,,1.50000000e-009,-3.78437534e-003
,,,1.52500000e-009,-3.67812533e-003
,,,1.55000000e-009,-3.56093783e-003
,,,1.57500000e-009,-3.43906282e-003
,,,1.60000000e-009,-3.31718781e-003
,,,1.62500000e-009,-3.20000030e-003
,,,1.65000000e-009,-3.09218779e-003
,,,1.67500000e-009,-2.98750029e-003
,,,1.70000000e-009,-2.88750028e-003
,,,1.72500000e-009,-2.78906277e-003
,,,1.75000000e-009,-2.69218777e-003
,,,1.77500000e-009,-2.59687526e-003
,,,1.80000000e-009,-2.49843775e-003
,,,1.82500000e-009,-2.40000024e-003
,,,1.85000000e-009,-2.30000024e-003
,,,1.87500000e-009,-2.19531273e-003
,,,1.90000000e-009,-2.08437522e-003
,,,1.92500000e-009,-1.97343771e-003
,,,1.95000000e-009,-1.86562521e-003
,,,1.97500000e-009,-1.76562520e-003
,,,2.00000000e-009,-1.67656269e-003
,,,2.02500000e-009,-1.60000019e-003
,,,2.05000000e-009,-1.54531268e-003
,,,2.07500000e-009,-1.49843768e-003
,,,2.10000000e-009,-1.45625018e-003
,,,2.12500000e-009,-1.41250017e-003
,,,2.15000000e-009,-1.36875017e-003
,,,2.17500000e-009,-1.31875017e-003
,,,2.20000000e-009,-1.26250016e-003
,,,2.22500000e-009,-1.20000016e-003
,,,2.25000000e-009,-1.13593765e-003
,,,2.27500000e-009,-1.06562515e-003
,,,2.30000000e-009,-9.93750145e-004
,,,2.32500000e-009,-9.26562640e-004
,,,2.35000000e-009,-8.67187636e-004
,,,2.37500000e-009,-8.25000133e-004
,,,2.40000000e-009,-8.01562631e-004
,,,2.42500000e-009,-8.00000131e-004
,,,2.45000000e-009,-8.20312633e-004
,,,2.47500000e-009,-8.48437635e-004
,,,2.50000000e-009,-8.78125137e-004
,,,2.52500000e-009,-9.01562638e-004
,,,2.55000000e-009,-9.10937639e-004
,,,2.57500000e-009,-9.00000138e-004
,,,2.60000000e-009,-8.62500136e-004
,,,2.62500000e-009,-8.00000131e-004
,,,2.65000000e-009,-7.10937625e-004
,,,2.67500000e-009,-6.00000117e-004
,,,2.70000000e-009,-4.71875108e-004
,,,2.72500000e-009,-3.40625099e-004
,,,2.75000000e-009,-2.17187590e-004
,,,2.77500000e-009,-1.14062583e-004
,,,2.80000000e-009,-3.90625773e-005
,,,2.82500000e-009,-7.45058060e-011
,,,2.85000000e-009,-3.12507473e-006
,,,2.87500000e-009,-3.90625773e-005
,,,2.90000000e-009,-9.84375815e-005
,,,2.92500000e-009,-1.73437587e-004
,,,2.95000000e-009,-2.51562592e-004
,,,2.97500000e-009,-3.21875097e-004
,,,3.00000000e-009,-3.75000101e-004
,,,3.02500000e-009,-4.00000103e-004
,,,3.05000000e-009,-3.89062602e-004
,,,3.07500000e-009,-3.42187599e-004
,,,3.10000000e-009,-2.60937593e-004
,,,3.12500000e-009,-1.50000085e-004
,,,3.15000000e-009,-1.87500758e-005
,,,3.17500000e-009,1.23437434e-004
,,,3.20000000e-009,2.65624944e-004
,,,3.22500000e-009,3.99999954e-004
,,,3.25000000e-009,5.15624962e-004
,,,3.27500000e-009,6.09374969e-004
,,,3.30000000e-009,6.84374974e-004
,,,3.32500000e-009,7.37499978e-004
,,,3.35000000e-009,7.71874980e-004
,,,3.37500000e-009,7.92187482e-004
,,,3.40000000e-009,7.99999982e-004
,,,3.42500000e-009,7.99999982e-004
,,,3.45000000e-009,7.92187482e-004
,,,3.47500000e-009,7.84374981e-004
,,,3.50000000e-009,7.79687481e-004
,,,3.52500000e-009,7.78124981e-004
,,,3.55000000e-009,7.81249981e-004
,,,3.57500000e-009,7.87499981e-004
,,,3.60000000e-009,7.93749982e-004
,,,3.62500000e-009,7.99999982e-004
,,,3.65000000e-009,7.98437482e-004
,,,3.67500000e-009,7.96874982e-004
,,,3.70000000e-009,7.95312482e-004
,,,3.72500000e-009,7.93749982e-004
,,,3.75000000e-009,7.93749982e-004
,,,3.77500000e-009,7.95312482e-004
,,,3.80000000e-009,7.96874982e-004
,,,3.82500000e-009,7.99999982e-004
,,,3.85000000e-009,8.01562482e-004
,,,3.87500000e-009,8.04687482e-004
,,,3.90000000e-009,8.07812483e-004
,,,3.92500000e-009,8.10937483e-004
,,,3.95000000e-009,8.12499983e-004
,,,3.97500000e-009,8.10937483e-004
,,,4.00000000e-009,8.07812483e-004
,,,4.02500000e-009,7.99999982e-004
,,,4.05000000e-009,7.87499981e-004
,,,4.07500000e-009,7.74999980e-004
,,,4.10000000e-009,7.65624980e-004
,,,4.12500000e-009,7.60937479e-004
,,,4.15000000e-009,7.62499979e-004
,,,4.17500000e-009,7.68749980e-004
,,,4.20000000e-009,7.82812481e-004
,,,4.22500000e-009,7.99999982e-004
,,,4.25000000e-009,8.20312484e-004
,,,4.27500000e-009,8.42187485e-004
,,,4.30000000e-009,8.60937486e-004
,,,4.32500000e-009,8.71874987e-004
,,,4.35000000e-009,8.74999987e-004
,,,4.37500000e-009,8.65624987e-004
,,,4.40000000e-009,8.40624985e-004
,,,4.42500000e-009,7.99999982e-004
,,,4.45000000e-009,7.48437478e-004
,,,4.47500000e-009,6.85937474e-004
,,,4.50000000e-009,6.18749969e-004
,,,4.52500000e-009,5.53124965e-004
,,,4.55000000e-009,4.93749960e-004
,,,4.57500000e-009,4.45312457e-004
,,,4.60000000e-009,4.12499955e-004
,,,4.62500000e-009,3.99999954e-004
,,,4.65000000e-009,4.12499955e-004
,,,4.67500000e-009,4.45312457e-004
,,,4.70000000e-009,4.93749960e-004
,,,4.72500000e-009,5.53124965e-004
,,,4.75000000e-009,6.18749969e-004
,,,4.77500000e-009,6.85937474e-004
,,,4.80000000e-009,7.48437478e-004
,,,4.82500000e-009,7.99999982e-004
,,,4.85000000e-009,8.40624985e-004
,,,4.87500000e-009,8.65624987e-004
,,,4.90000000e-009,8.74999987e-004
,,,4.92500000e-009,8.71874987e-004
,,,4.95000000e-009,8.60937486e-004
,,,4.97500000e-009,8.42187485e-004
,,,5.00000000e-009,8.20312484e-004
,,,5.02500000e-009,7.99999982e-004
,,,5.05000000e-009,7.82812481e-004
,,,5.07500000e-009,7.68749980e-004
,,,5.10000000e-009,7.62499979e-004
,,,5.12500000e-009,7.60937479e-004
,,,5.15000000e-009,7.65624980e-004
,,,5.17500000e-009,7.74999980e-004
,,,5.20000000e-009,7.87499981e-004
,,,5.22500000e-009,7.99999982e-004
,,,5.25000000e-009,8.10937483e-004
,,,5.27500000e-009,8.18749983e-004
,,,5.30000000e-009,8.23437484e-004
,,,5.32500000e-009,8.24999984e-004
,,,5.35000000e-009,8.21874984e-004
,,,5.37500000e-009,8.17187483e-004
,,,5.40000000e-009,8.09374983e-004
,,,5.42500000e-009,7.99999982e-004
,,,5.45000000e-009,7.90624981e-004
,,,5.47500000e-009,7.81249981e-004
,,,5.50000000e-009,7.73437480e-004
,,,5.52500000e-009,7.70312480e-004
,,,5.55000000e-009,7.70312480e-004
,,,5.57500000e-009,7.76562480e-004
,,,5.60000000e-009,7.85937481e-004
,,,5.62500000e-009,7.99999982e-004
,,,5.65000000e-009,8.15624983e-004
,,,5.67500000e-009,8.31249984e-004
,,,5.70000000e-009,8.45312485e-004
,,,5.72500000e-009,8.54687486e-004
,,,5.75000000e-009,8.57812486e-004
,,,5.77500000e-009,8.49999986e-004
,,,5.80000000e-009,8.31249984e-004
,,,5.82500000e-009,7.99999982e-004
,,,5.85000000e-009,7.59374979e-004
,,,5.87500000e-009,7.07812476e-004
,,,5.90000000e-009,6.51562472e-004
,,,5.92500000e-009,5.92187467e-004
,,,5.95000000e-009,5.34374963e-004
,,,5.97500000e-009,4.81249960e-004
,,,6.00000000e-009,4.35937456e-004
,,,6.02500000e-009,3.99999954e-004
,,,6.05000000e-009,3.76562452e-004
,,,6.07500000e-009,3.64062451e-004
