RawData/SinglePhotoelectron/R2_2pt2D_5mV/wave020_Ch4.csv

"Record Length",1000,"Points",-7.72500000e-009,1.32812435e-004
"Sample Interval",2.50000000e-011,s,-7.70000000e-009,2.07812440e-004
"Trigger Point",309,"Samples",-7.67500000e-009,2.81249945e-004
"Trigger Time",1.81816766e-011,s,-7.65000000e-009,3.43749950e-004
"",,,-7.62500000e-009,3.85937453e-004
"Horizontal Offset",-7.72500000e-009,s,-7.60000000e-009,3.99999954e-004
,,,-7.57500000e-009,3.87499953e-004
,,,-7.55000000e-009,3.48437450e-004
,,,-7.52500000e-009,2.87499946e-004
,,,-7.50000000e-009,2.14062441e-004
,,,-7.47500000e-009,1.39062435e-004
,,,-7.45000000e-009,7.34374307e-005
,,,-7.42500000e-009,2.49999273e-005
,,,-7.40000000e-009,-7.45058060e-011
,,,-7.37500000e-009,1.09374263e-005
,,,-7.35000000e-009,4.68749288e-005
,,,-7.32500000e-009,1.04687433e-004
,,,-7.30000000e-009,1.76562438e-004
,,,-7.27500000e-009,2.51562443e-004
,,,-7.25000000e-009,3.20312448e-004
,,,-7.22500000e-009,3.71874952e-004
,,,-7.20000000e-009,3.99999954e-004
,,,-7.17500000e-009,3.99999954e-004
,,,-7.15000000e-009,3.73437452e-004
,,,-7.12500000e-009,3.23437448e-004
,,,-7.10000000e-009,2.57812444e-004
,,,-7.07500000e-009,1.82812438e-004
,,,-7.05000000e-009,1.09374933e-004
,,,-7.02500000e-009,4.68749288e-005
,,,-7.00000000e-009,-7.45058060e-011
,,,-6.97500000e-009,-1.56250756e-005
,,,-6.95000000e-009,-7.81257506e-006
,,,-6.92500000e-009,2.65624274e-005
,,,-6.90000000e-009,8.12499312e-005
,,,-6.87500000e-009,1.51562436e-004
,,,-6.85000000e-009,2.32812442e-004
,,,-6.82500000e-009,3.17187448e-004
,,,-6.80000000e-009,3.99999954e-004
,,,-6.77500000e-009,4.78124959e-004
,,,-6.75000000e-009,5.46874964e-004
,,,-6.72500000e-009,6.04687468e-004
,,,-6.70000000e-009,6.54687472e-004
,,,-6.67500000e-009,6.98437475e-004
,,,-6.65000000e-009,7.35937478e-004
,,,-6.62500000e-009,7.68749980e-004
,,,-6.60000000e-009,7.99999982e-004
,,,-6.57500000e-009,8.29687484e-004
,,,-6.55000000e-009,8.56249986e-004
,,,-6.52500000e-009,8.74999987e-004
,,,-6.50000000e-009,8.87499988e-004
,,,-6.47500000e-009,8.89062488e-004
,,,-6.45000000e-009,8.74999987e-004
,,,-6.42500000e-009,8.45312485e-004
,,,-6.40000000e-009,7.99999982e-004
,,,-6.37500000e-009,7.39062478e-004
,,,-6.35000000e-009,6.70312473e-004
,,,-6.32500000e-009,5.96874968e-004
,,,-6.30000000e-009,5.29687463e-004
,,,-6.27500000e-009,4.70312459e-004
,,,-6.25000000e-009,4.26562456e-004
,,,-6.22500000e-009,4.03124954e-004
,,,-6.20000000e-009,3.99999954e-004
,,,-6.17500000e-009,4.23437455e-004
,,,-6.15000000e-009,4.65624958e-004
,,,-6.12500000e-009,5.21874962e-004
,,,-6.10000000e-009,5.87499967e-004
,,,-6.07500000e-009,6.54687472e-004
,,,-6.05000000e-009,7.15624976e-004
,,,-6.02500000e-009,7.65624980e-004
,,,-6.00000000e-009,7.99999982e-004
,,,-5.97500000e-009,8.14062483e-004
,,,-5.95000000e-009,8.14062483e-004
,,,-5.92500000e-009,8.03124982e-004
,,,-5.90000000e-009,7.87499981e-004
,,,-5.87500000e-009,7.73437480e-004
,,,-5.85000000e-009,7.68749980e-004
,,,-5.82500000e-009,7.76562480e-004
,,,-5.80000000e-009,7.99999982e-004
,,,-5.77500000e-009,8.39062485e-004
,,,-5.75000000e-009,8.92187489e-004
,,,-5.72500000e-009,9.56249993e-004
,,,-5.70000000e-009,1.02500000e-003
,,,-5.67500000e-009,1.08906250e-003
,,,-5.65000000e-009,1.14531251e-003
,,,-5.62500000e-009,1.18281251e-003
,,,-5.60000000e-009,1.20000001e-003
,,,-5.57500000e-009,1.18906251e-003
,,,-5.55000000e-009,1.15625001e-003
,,,-5.52500000e-009,1.10312500e-003
,,,-5.50000000e-009,1.03906250e-003
,,,-5.47500000e-009,9.70312494e-004
,,,-5.45000000e-009,9.03124989e-004
,,,-5.42500000e-009,8.45312485e-004
,,,-5.40000000e-009,7.99999982e-004
,,,-5.37500000e-009,7.73437480e-004
,,,-5.35000000e-009,7.62499979e-004
,,,-5.32500000e-009,7.64062480e-004
,,,-5.30000000e-009,7.76562480e-004
,,,-5.27500000e-009,7.92187482e-004
,,,-5.25000000e-009,8.04687482e-004
,,,-5.22500000e-009,8.09374983e-004
,,,-5.20000000e-009,7.99999982e-004
,,,-5.17500000e-009,7.74999980e-004
,,,-5.15000000e-009,7.35937478e-004
,,,-5.12500000e-009,6.84374974e-004
,,,-5.10000000e-009,6.24999970e-004
,,,-5.07500000e-009,5.60937465e-004
,,,-5.05000000e-009,4.99999961e-004
,,,-5.02500000e-009,4.45312457e-004
,,,-5.00000000e-009,3.99999954e-004
,,,-4.97500000e-009,3.73437452e-004
,,,-4.95000000e-009,3.57812451e-004
,,,-4.92500000e-009,3.56249951e-004
,,,-4.90000000e-009,3.62499951e-004
,,,-4.87500000e-009,3.73437452e-004
,,,-4.85000000e-009,3.85937453e-004
,,,-4.82500000e-009,3.95312453e-004
,,,-4.80000000e-009,3.99999954e-004
,,,-4.77500000e-009,4.01562454e-004
,,,-4.75000000e-009,3.96874954e-004
,,,-4.72500000e-009,3.87499953e-004
,,,-4.70000000e-009,3.76562452e-004
,,,-4.67500000e-009,3.70312452e-004
,,,-4.65000000e-009,3.68749952e-004
,,,-4.62500000e-009,3.79687452e-004
,,,-4.60000000e-009,3.99999954e-004
,,,-4.57500000e-009,4.35937456e-004
,,,-4.55000000e-009,4.82812460e-004
,,,-4.52500000e-009,5.35937463e-004
,,,-4.50000000e-009,5.93749968e-004
,,,-4.47500000e-009,6.53124972e-004
,,,-4.45000000e-009,7.09374976e-004
,,,-4.42500000e-009,7.59374979e-004
,,,-4.40000000e-009,7.99999982e-004
,,,-4.37500000e-009,8.26562484e-004
,,,-4.35000000e-009,8.40624985e-004
,,,-4.32500000e-009,8.43749985e-004
,,,-4.30000000e-009,8.39062485e-004
,,,-4.27500000e-009,8.29687484e-004
,,,-4.25000000e-009,8.18749983e-004
,,,-4.22500000e-009,8.07812483e-004
,,,-4.20000000e-009,7.99999982e-004
,,,-4.17500000e-009,7.98437482e-004
,,,-4.15000000e-009,8.01562482e-004
,,,-4.12500000e-009,8.06249983e-004
,,,-4.10000000e-009,8.14062483e-004
,,,-4.07500000e-009,8.20312484e-004
,,,-4.05000000e-009,8.21874984e-004
,,,-4.02500000e-009,8.15624983e-004
,,,-4.00000000e-009,7.99999982e-004
,,,-3.97500000e-009,7.71874980e-004
,,,-3.95000000e-009,7.34374977e-004
,,,-3.92500000e-009,6.85937474e-004
,,,-3.90000000e-009,6.32812470e-004
,,,-3.87500000e-009,5.74999966e-004
,,,-3.85000000e-009,5.15624962e-004
,,,-3.82500000e-009,4.57812458e-004
,,,-3.80000000e-009,3.99999954e-004
,,,-3.77500000e-009,3.46874950e-004
,,,-3.75000000e-009,2.96874947e-004
,,,-3.72500000e-009,2.49999943e-004
,,,-3.70000000e-009,2.03124940e-004
,,,-3.67500000e-009,1.54687436e-004
,,,-3.65000000e-009,1.06249933e-004
,,,-3.62500000e-009,5.46874294e-005
,,,-3.60000000e-009,-7.45058060e-011
,,,-3.57500000e-009,-4.68750778e-005
,,,-3.55000000e-009,-9.06250809e-005
,,,-3.52500000e-009,-1.23437583e-004
,,,-3.50000000e-009,-1.42187585e-004
,,,-3.47500000e-009,-1.42187585e-004
,,,-3.45000000e-009,-1.20312583e-004
,,,-3.42500000e-009,-7.18750796e-005
,,,-3.40000000e-009,-7.45058060e-011
,,,-3.37500000e-009,9.99999326e-005
,,,-3.35000000e-009,2.15624941e-004
,,,-3.32500000e-009,3.40624950e-004
,,,-3.30000000e-009,4.64062458e-004
,,,-3.27500000e-009,5.79687467e-004
,,,-3.25000000e-009,6.78124973e-004
,,,-3.22500000e-009,7.53124979e-004
,,,-3.20000000e-009,7.99999982e-004
,,,-3.17500000e-009,8.17187483e-004
,,,-3.15000000e-009,8.03124982e-004
,,,-3.12500000e-009,7.62499979e-004
,,,-3.10000000e-009,7.01562475e-004
,,,-3.07500000e-009,6.26562470e-004
,,,-3.05000000e-009,5.46874964e-004
,,,-3.02500000e-009,4.70312459e-004
,,,-3.00000000e-009,3.99999954e-004
,,,-2.97500000e-009,3.49999950e-004
,,,-2.95000000e-009,3.17187448e-004
,,,-2.92500000e-009,3.01562447e-004
,,,-2.90000000e-009,3.03124947e-004
,,,-2.87500000e-009,3.18749948e-004
,,,-2.85000000e-009,3.42187450e-004
,,,-2.82500000e-009,3.71874952e-004
,,,-2.80000000e-009,3.99999954e-004
,,,-2.77500000e-009,4.26562456e-004
,,,-2.75000000e-009,4.45312457e-004
,,,-2.72500000e-009,4.56249958e-004
,,,-2.70000000e-009,4.59374958e-004
,,,-2.67500000e-009,4.53124958e-004
,,,-2.65000000e-009,4.39062457e-004
,,,-2.62500000e-009,4.21874955e-004
,,,-2.60000000e-009,3.99999954e-004
,,,-2.57500000e-009,3.82812453e-004
,,,-2.55000000e-009,3.67187451e-004
,,,-2.52500000e-009,3.57812451e-004
,,,-2.50000000e-009,3.53124950e-004
,,,-2.47500000e-009,3.54687451e-004
,,,-2.45000000e-009,3.64062451e-004
,,,-2.42500000e-009,3.78124952e-004
,,,-2.40000000e-009,3.99999954e-004
,,,-2.37500000e-009,4.29687456e-004
,,,-2.35000000e-009,4.65624958e-004
,,,-2.32500000e-009,5.09374962e-004
,,,-2.30000000e-009,5.59374965e-004
,,,-2.27500000e-009,6.15624969e-004
,,,-2.25000000e-009,6.76562473e-004
,,,-2.22500000e-009,7.39062478e-004
,,,-2.20000000e-009,7.99999982e-004
,,,-2.17500000e-009,8.59374986e-004
,,,-2.15000000e-009,9.07812490e-004
,,,-2.12500000e-009,9.43749992e-004
,,,-2.10000000e-009,9.59374993e-004
,,,-2.07500000e-009,9.54687493e-004
,,,-2.05000000e-009,9.26562491e-004
,,,-2.02500000e-009,8.73437487e-004
,,,-2.00000000e-009,7.99999982e-004
,,,-1.97500000e-009,7.10937476e-004
,,,-1.95000000e-009,6.15624969e-004
,,,-1.92500000e-009,5.21874962e-004
,,,-1.90000000e-009,4.42187457e-004
,,,-1.87500000e-009,3.82812453e-004
,,,-1.85000000e-009,3.53124950e-004
,,,-1.82500000e-009,3.59374951e-004
,,,-1.80000000e-009,3.99999954e-004
,,,-1.77500000e-009,4.79687459e-004
,,,-1.75000000e-009,5.85937467e-004
,,,-1.72500000e-009,7.10937476e-004
,,,-1.70000000e-009,8.42187485e-004
,,,-1.67500000e-009,9.67187494e-004
,,,-1.65000000e-009,1.07500000e-003
,,,-1.62500000e-009,1.15468751e-003
,,,-1.60000000e-009,1.20000001e-003
,,,-1.57500000e-009,1.19843751e-003
,,,-1.55000000e-009,1.16250001e-003
,,,-1.52500000e-009,1.10000000e-003
,,,-1.50000000e-009,1.02187500e-003
,,,-1.47500000e-009,9.40624992e-004
,,,-1.45000000e-009,8.70312487e-004
,,,-1.42500000e-009,8.21874984e-004
,,,-1.40000000e-009,7.99999982e-004
,,,-1.37500000e-009,8.01562482e-004
,,,-1.35000000e-009,8.31249984e-004
,,,-1.32500000e-009,8.84374988e-004
,,,-1.30000000e-009,9.56249993e-004
,,,-1.27500000e-009,1.03281250e-003
,,,-1.25000000e-009,1.10625000e-003
,,,-1.22500000e-009,1.16406251e-003
,,,-1.20000000e-009,1.20000001e-003
,,,-1.17500000e-009,1.18906251e-003
,,,-1.15000000e-009,1.15000001e-003
,,,-1.12500000e-009,1.08750000e-003
,,,-1.10000000e-009,1.01406250e-003
,,,-1.07500000e-009,9.37499992e-004
,,,-1.05000000e-009,8.71874987e-004
,,,-1.02500000e-009,8.24999984e-004
,,,-1.00000000e-009,7.99999982e-004
,,,-9.75000000e-010,7.74999980e-004
,,,-9.50000000e-010,7.67187480e-004
,,,-9.25000000e-010,7.76562480e-004
,,,-9.00000000e-010,7.95312482e-004
,,,-8.75000000e-010,8.15624983e-004
,,,-8.50000000e-010,8.28124984e-004
,,,-8.25000000e-010,8.26562484e-004
,,,-8.00000000e-010,7.99999982e-004
,,,-7.75000000e-010,7.07812476e-004
,,,-7.50000000e-010,5.81249967e-004
,,,-7.25000000e-010,4.28124956e-004
,,,-7.00000000e-010,2.56249944e-004
,,,-6.75000000e-010,7.81249310e-005
,,,-6.50000000e-010,-9.68750814e-005
,,,-6.25000000e-010,-2.57812593e-004
,,,-6.00000000e-010,-4.00000103e-004
,,,-5.75000000e-010,-5.56250114e-004
,,,-5.50000000e-010,-6.95312624e-004
,,,-5.25000000e-010,-8.15625132e-004
,,,-5.00000000e-010,-9.15625139e-004
,,,-4.75000000e-010,-1.00000015e-003
,,,-4.50000000e-010,-1.07031265e-003
,,,-4.25000000e-010,-1.13437515e-003
,,,-4.00000000e-010,-1.20000016e-003
,,,-3.75000000e-010,-1.32031267e-003
,,,-3.50000000e-010,-1.46718768e-003
,,,-3.25000000e-010,-1.64062519e-003
,,,-3.00000000e-010,-1.83750020e-003
,,,-2.75000000e-010,-2.05625022e-003
,,,-2.50000000e-010,-2.29218774e-003
,,,-2.25000000e-010,-2.54062525e-003
,,,-2.00000000e-010,-2.80000027e-003
,,,-1.75000000e-010,-3.10000029e-003
,,,-1.50000000e-010,-3.41406282e-003
,,,-1.25000000e-010,-3.73281284e-003
,,,-1.00000000e-010,-4.05156286e-003
,,,-7.50000000e-011,-4.36250038e-003
,,,-5.00000000e-011,-4.65937540e-003
,,,-2.50000000e-011,-4.93906292e-003
,,,0.00000000e+000,-5.20000044e-003
,,,2.50000000e-011,-5.46250046e-003
,,,5.00000000e-011,-5.72187548e-003
,,,7.50000000e-011,-5.97500050e-003
,,,1.00000000e-010,-6.22343802e-003
,,,1.25000000e-010,-6.46875053e-003
,,,1.50000000e-010,-6.71093805e-003
,,,1.75000000e-010,-6.95312557e-003
,,,2.00000000e-010,-7.20000058e-003
,,,2.25000000e-010,-7.45937560e-003
,,,2.50000000e-010,-7.74531312e-003
,,,2.75000000e-010,-8.05937564e-003
,,,3.00000000e-010,-8.40312567e-003
,,,3.25000000e-010,-8.77343820e-003
,,,3.50000000e-010,-9.16562572e-003
,,,3.75000000e-010,-9.57656325e-003
,,,4.00000000e-010,-1.00000008e-002
,,,4.25000000e-010,-1.04015633e-002
,,,4.50000000e-010,-1.08078133e-002
,,,4.75000000e-010,-1.12078134e-002
,,,5.00000000e-010,-1.15937509e-002
,,,5.25000000e-010,-1.19531259e-002
,,,5.50000000e-010,-1.22781259e-002
,,,5.75000000e-010,-1.25625010e-002
,,,6.00000000e-010,-1.28000010e-002
,,,6.25000000e-010,-1.29406260e-002
,,,6.50000000e-010,-1.30515635e-002
,,,6.75000000e-010,-1.31421885e-002
,,,7.00000000e-010,-1.32218760e-002
,,,7.25000000e-010,-1.33000010e-002
,,,7.50000000e-010,-1.33843760e-002
,,,7.75000000e-010,-1.34828135e-002
,,,8.00000000e-010,-1.36000010e-002
,,,8.25000000e-010,-1.36718760e-002
,,,8.50000000e-010,-1.37750010e-002
,,,8.75000000e-010,-1.39078136e-002
,,,9.00000000e-010,-1.40656261e-002
,,,9.25000000e-010,-1.42437511e-002
,,,9.50000000e-010,-1.44328136e-002
,,,9.75000000e-010,-1.46218761e-002
,,,1.00000000e-009,-1.48000011e-002
,,,1.02500000e-009,-1.48812511e-002
,,,1.05000000e-009,-1.49375011e-002
,,,1.07500000e-009,-1.49703136e-002
,,,1.10000000e-009,-1.49781261e-002
,,,1.12500000e-009,-1.49640636e-002
,,,1.15000000e-009,-1.49281261e-002
,,,1.17500000e-009,-1.48734386e-002
,,,1.20000000e-009,-1.48000011e-002
,,,1.22500000e-009,-1.46390636e-002
,,,1.25000000e-009,-1.44703136e-002
,,,1.27500000e-009,-1.43031261e-002
,,,1.30000000e-009,-1.41406261e-002
,,,1.32500000e-009,-1.39890636e-002
,,,1.35000000e-009,-1.38484386e-002
,,,1.37500000e-009,-1.37203135e-002
,,,1.40000000e-009,-1.36000010e-002
,,,1.42500000e-009,-1.34203135e-002
,,,1.45000000e-009,-1.32390635e-002
,,,1.47500000e-009,-1.30562510e-002
,,,1.50000000e-009,-1.28671885e-002
,,,1.52500000e-009,-1.26687510e-002
,,,1.55000000e-009,-1.24609385e-002
,,,1.57500000e-009,-1.22390634e-002
,,,1.60000000e-009,-1.20000009e-002
,,,1.62500000e-009,-1.16968759e-002
,,,1.65000000e-009,-1.13687509e-002
,,,1.67500000e-009,-1.10203134e-002
,,,1.70000000e-009,-1.06578133e-002
,,,1.72500000e-009,-1.02859383e-002
,,,1.75000000e-009,-9.91406328e-003
,,,1.77500000e-009,-9.55000075e-003
,,,1.80000000e-009,-9.20000073e-003
,,,1.82500000e-009,-8.85312570e-003
,,,1.85000000e-009,-8.52656318e-003
,,,1.87500000e-009,-8.22500066e-003
,,,1.90000000e-009,-7.95312564e-003
,,,1.92500000e-009,-7.71406312e-003
,,,1.95000000e-009,-7.50937561e-003
,,,1.97500000e-009,-7.33906309e-003
,,,2.00000000e-009,-7.20000058e-003
,,,2.02500000e-009,-7.08281308e-003
,,,2.05000000e-009,-6.97187557e-003
,,,2.07500000e-009,-6.85312556e-003
,,,2.10000000e-009,-6.72500055e-003
,,,2.12500000e-009,-6.57812554e-003
,,,2.15000000e-009,-6.41093803e-003
,,,2.17500000e-009,-6.21718801e-003
,,,2.20000000e-009,-6.00000050e-003
,,,2.22500000e-009,-5.76406298e-003
,,,2.25000000e-009,-5.49375046e-003
,,,2.27500000e-009,-5.19375044e-003
,,,2.30000000e-009,-4.87343792e-003
,,,2.32500000e-009,-4.54218790e-003
,,,2.35000000e-009,-4.21093787e-003
,,,2.37500000e-009,-3.89375035e-003
,,,2.40000000e-009,-3.60000033e-003
,,,2.42500000e-009,-3.36093781e-003
,,,2.45000000e-009,-3.14843780e-003
,,,2.47500000e-009,-2.95937528e-003
,,,2.50000000e-009,-2.79843777e-003
,,,2.52500000e-009,-2.66250026e-003
,,,2.55000000e-009,-2.55312526e-003
,,,2.57500000e-009,-2.46562525e-003
,,,2.60000000e-009,-2.40000024e-003
,,,2.62500000e-009,-2.37812524e-003
,,,2.65000000e-009,-2.35312524e-003
,,,2.67500000e-009,-2.32187524e-003
,,,2.70000000e-009,-2.27968774e-003
,,,2.72500000e-009,-2.22656273e-003
,,,2.75000000e-009,-2.16093773e-003
,,,2.77500000e-009,-2.08437522e-003
,,,2.80000000e-009,-2.00000022e-003
,,,2.82500000e-009,-1.92656271e-003
,,,2.85000000e-009,-1.84062520e-003
,,,2.87500000e-009,-1.74218770e-003
,,,2.90000000e-009,-1.63437519e-003
,,,2.92500000e-009,-1.52187518e-003
,,,2.95000000e-009,-1.40781267e-003
,,,2.97500000e-009,-1.30000017e-003
,,,3.00000000e-009,-1.20000016e-003
,,,3.02500000e-009,-1.12812515e-003
,,,3.05000000e-009,-1.06093765e-003
,,,3.07500000e-009,-1.00000015e-003
,,,3.10000000e-009,-9.45312641e-004
,,,3.12500000e-009,-8.96875138e-004
,,,3.15000000e-009,-8.56250135e-004
,,,3.17500000e-009,-8.23437633e-004
,,,3.20000000e-009,-8.00000131e-004
,,,3.22500000e-009,-8.00000131e-004
,,,3.25000000e-009,-8.03125131e-004
,,,3.27500000e-009,-8.03125131e-004
,,,3.30000000e-009,-8.03125131e-004
,,,3.32500000e-009,-8.01562631e-004
,,,3.35000000e-009,-8.00000131e-004
,,,3.37500000e-009,-7.98437631e-004
,,,3.40000000e-009,-8.00000131e-004
,,,3.42500000e-009,-8.07812632e-004
,,,3.45000000e-009,-8.15625132e-004
,,,3.47500000e-009,-8.20312633e-004
,,,3.50000000e-009,-8.21875133e-004
,,,3.52500000e-009,-8.20312633e-004
,,,3.55000000e-009,-8.17187632e-004
,,,3.57500000e-009,-8.09375132e-004
,,,3.60000000e-009,-8.00000131e-004
,,,3.62500000e-009,-7.85937630e-004
,,,3.65000000e-009,-7.62500128e-004
,,,3.67500000e-009,-7.29687626e-004
,,,3.70000000e-009,-6.84375123e-004
,,,3.72500000e-009,-6.28125119e-004
,,,3.75000000e-009,-5.60937614e-004
,,,3.77500000e-009,-4.82812609e-004
,,,3.80000000e-009,-4.00000103e-004
,,,3.82500000e-009,-3.14062597e-004
,,,3.85000000e-009,-2.29687591e-004
,,,3.87500000e-009,-1.48437585e-004
,,,3.90000000e-009,-7.96875801e-005
,,,3.92500000e-009,-2.65625764e-005
,,,3.95000000e-009,6.24992594e-006
,,,3.97500000e-009,1.56249266e-005
,,,4.00000000e-009,-7.45058060e-011
,,,4.02500000e-009,-3.90625773e-005
,,,4.05000000e-009,-9.53125813e-005
,,,4.07500000e-009,-1.62500086e-004
,,,4.10000000e-009,-2.31250091e-004
,,,4.12500000e-009,-2.96875096e-004
,,,4.15000000e-009,-3.50000099e-004
,,,4.17500000e-009,-3.84375102e-004
,,,4.20000000e-009,-4.00000103e-004
,,,4.22500000e-009,-3.87500102e-004
,,,4.25000000e-009,-3.54687600e-004
,,,4.27500000e-009,-3.03125096e-004
,,,4.30000000e-009,-2.39062591e-004
,,,4.32500000e-009,-1.68750086e-004
,,,4.35000000e-009,-1.01562582e-004
,,,4.37500000e-009,-4.37500776e-005
,,,4.40000000e-009,-7.45058060e-011
,,,4.42500000e-009,2.81249275e-005
,,,4.45000000e-009,3.90624283e-005
,,,4.47500000e-009,3.74999281e-005
,,,4.50000000e-009,2.65624274e-005
,,,4.52500000e-009,1.24999264e-005
,,,4.55000000e-009,-7.45058060e-011
,,,4.57500000e-009,-6.25007495e-006
,,,4.60000000e-009,-7.45058060e-011
,,,4.62500000e-009,2.03124269e-005
,,,4.65000000e-009,5.46874294e-005
,,,4.67500000e-009,1.03124933e-004
,,,4.70000000e-009,1.60937437e-004
,,,4.72500000e-009,2.24999941e-004
,,,4.75000000e-009,2.90624946e-004
,,,4.77500000e-009,3.49999950e-004
,,,4.80000000e-009,3.99999954e-004
,,,4.82500000e-009,4.35937456e-004
,,,4.85000000e-009,4.57812458e-004
,,,4.87500000e-009,4.65624958e-004
,,,4.90000000e-009,4.64062458e-004
,,,4.92500000e-009,4.53124958e-004
,,,4.95000000e-009,4.37499956e-004
,,,4.97500000e-009,4.18749955e-004
,,,5.00000000e-009,3.99999954e-004
,,,5.02500000e-009,3.85937453e-004
,,,5.05000000e-009,3.78124952e-004
,,,5.07500000e-009,3.74999952e-004
,,,5.10000000e-009,3.76562452e-004
,,,5.12500000e-009,3.81249952e-004
,,,5.15000000e-009,3.89062453e-004
,,,5.17500000e-009,3.95312453e-004
,,,5.20000000e-009,3.99999954e-004
,,,5.22500000e-009,3.99999954e-004
,,,5.25000000e-009,3.98437454e-004
,,,5.27500000e-009,3.96874954e-004
,,,5.30000000e-009,3.93749953e-004
,,,5.32500000e-009,3.92187453e-004
,,,5.35000000e-009,3.92187453e-004
,,,5.37500000e-009,3.95312453e-004
,,,5.40000000e-009,3.99999954e-004
,,,5.42500000e-009,4.06249954e-004
,,,5.45000000e-009,4.14062455e-004
,,,5.47500000e-009,4.21874955e-004
,,,5.50000000e-009,4.26562456e-004
,,,5.52500000e-009,4.28124956e-004
,,,5.55000000e-009,4.24999956e-004
,,,5.57500000e-009,4.15624955e-004
,,,5.60000000e-009,3.99999954e-004
,,,5.62500000e-009,3.81249952e-004
,,,5.65000000e-009,3.59374951e-004
,,,5.67500000e-009,3.40624950e-004
,,,5.70000000e-009,3.29687449e-004
,,,5.72500000e-009,3.26562449e-004
,,,5.75000000e-009,3.35937449e-004
,,,5.77500000e-009,3.60937451e-004
,,,5.80000000e-009,3.99999954e-004
,,,5.82500000e-009,4.53124958e-004
,,,5.85000000e-009,5.15624962e-004
,,,5.87500000e-009,5.82812467e-004
,,,5.90000000e-009,6.48437471e-004
,,,5.92500000e-009,7.07812476e-004
,,,5.95000000e-009,7.56249979e-004
,,,5.97500000e-009,7.89062481e-004
,,,6.00000000e-009,7.99999982e-004
,,,6.02500000e-009,7.89062481e-004
