RawData/SinglePhotoelectron/R2_2pt2D_5mV/wave012_Ch4.csv

"Record Length",1000,"Points",-7.72500000e-009,8.48437486e-004
"Sample Interval",2.50000000e-011,s,-7.70000000e-009,7.07812476e-004
"Trigger Point",309,"Samples",-7.67500000e-009,5.78124966e-004
"Trigger Time",8.31594203e-013,s,-7.65000000e-009,4.70312459e-004
"",,,-7.62500000e-009,3.99999954e-004
"Horizontal Offset",-7.72500000e-009,s,-7.60000000e-009,3.79687452e-004
,,,-7.57500000e-009,4.07812454e-004
,,,-7.55000000e-009,4.79687459e-004
,,,-7.52500000e-009,5.92187467e-004
,,,-7.50000000e-009,7.32812477e-004
,,,-7.47500000e-009,8.89062488e-004
,,,-7.45000000e-009,1.05000000e-003
,,,-7.42500000e-009,1.20000001e-003
,,,-7.40000000e-009,1.32500002e-003
,,,-7.37500000e-009,1.41718753e-003
,,,-7.35000000e-009,1.47187503e-003
,,,-7.32500000e-009,1.48750003e-003
,,,-7.30000000e-009,1.46406253e-003
,,,-7.27500000e-009,1.40468752e-003
,,,-7.25000000e-009,1.31406252e-003
,,,-7.22500000e-009,1.20000001e-003
,,,-7.20000000e-009,1.07031250e-003
,,,-7.17500000e-009,9.34374992e-004
,,,-7.15000000e-009,8.03124982e-004
,,,-7.12500000e-009,6.81249974e-004
,,,-7.10000000e-009,5.76562466e-004
,,,-7.07500000e-009,4.92187460e-004
,,,-7.05000000e-009,4.32812456e-004
,,,-7.02500000e-009,3.99999954e-004
,,,-7.00000000e-009,3.96874954e-004
,,,-6.97500000e-009,4.18749955e-004
,,,-6.95000000e-009,4.60937458e-004
,,,-6.92500000e-009,5.20312462e-004
,,,-6.90000000e-009,5.90624967e-004
,,,-6.87500000e-009,6.64062472e-004
,,,-6.85000000e-009,7.35937478e-004
,,,-6.82500000e-009,7.99999982e-004
,,,-6.80000000e-009,8.56249986e-004
,,,-6.77500000e-009,8.96874989e-004
,,,-6.75000000e-009,9.18749991e-004
,,,-6.72500000e-009,9.21874991e-004
,,,-6.70000000e-009,9.09374990e-004
,,,-6.67500000e-009,8.82812488e-004
,,,-6.65000000e-009,8.43749985e-004
,,,-6.62500000e-009,7.99999982e-004
,,,-6.60000000e-009,7.54687479e-004
,,,-6.57500000e-009,7.15624976e-004
,,,-6.55000000e-009,6.85937474e-004
,,,-6.52500000e-009,6.73437473e-004
,,,-6.50000000e-009,6.76562473e-004
,,,-6.47500000e-009,6.99999975e-004
,,,-6.45000000e-009,7.42187478e-004
,,,-6.42500000e-009,7.99999982e-004
,,,-6.40000000e-009,8.78124988e-004
,,,-6.37500000e-009,9.60937494e-004
,,,-6.35000000e-009,1.04375000e-003
,,,-6.32500000e-009,1.11718750e-003
,,,-6.30000000e-009,1.17343751e-003
,,,-6.27500000e-009,1.20937501e-003
,,,-6.25000000e-009,1.21875001e-003
,,,-6.22500000e-009,1.20000001e-003
,,,-6.20000000e-009,1.15625001e-003
,,,-6.17500000e-009,1.09218750e-003
,,,-6.15000000e-009,1.01562500e-003
,,,-6.12500000e-009,9.39062492e-004
,,,-6.10000000e-009,8.71874987e-004
,,,-6.07500000e-009,8.21874984e-004
,,,-6.05000000e-009,7.96874982e-004
,,,-6.02500000e-009,7.99999982e-004
,,,-6.00000000e-009,8.34374985e-004
,,,-5.97500000e-009,8.93749989e-004
,,,-5.95000000e-009,9.68749994e-004
,,,-5.92500000e-009,1.04843750e-003
,,,-5.90000000e-009,1.12187500e-003
,,,-5.87500000e-009,1.17656251e-003
,,,-5.85000000e-009,1.20468751e-003
,,,-5.82500000e-009,1.20000001e-003
,,,-5.80000000e-009,1.16093751e-003
,,,-5.77500000e-009,1.09375000e-003
,,,-5.75000000e-009,1.00937500e-003
,,,-5.72500000e-009,9.21874991e-004
,,,-5.70000000e-009,8.45312485e-004
,,,-5.67500000e-009,7.93749982e-004
,,,-5.65000000e-009,7.76562480e-004
,,,-5.62500000e-009,7.99999982e-004
,,,-5.60000000e-009,8.68749987e-004
,,,-5.57500000e-009,9.71874994e-004
,,,-5.55000000e-009,1.10156250e-003
,,,-5.52500000e-009,1.24218751e-003
,,,-5.50000000e-009,1.37656252e-003
,,,-5.47500000e-009,1.49062503e-003
,,,-5.45000000e-009,1.56875004e-003
,,,-5.42500000e-009,1.60000004e-003
,,,-5.40000000e-009,1.57656254e-003
,,,-5.37500000e-009,1.50468753e-003
,,,-5.35000000e-009,1.39687502e-003
,,,-5.32500000e-009,1.26406251e-003
,,,-5.30000000e-009,1.12187500e-003
,,,-5.27500000e-009,9.89062496e-004
,,,-5.25000000e-009,8.78124988e-004
,,,-5.22500000e-009,7.99999982e-004
,,,-5.20000000e-009,7.68749980e-004
,,,-5.17500000e-009,7.78124981e-004
,,,-5.15000000e-009,8.23437484e-004
,,,-5.12500000e-009,8.96874989e-004
,,,-5.10000000e-009,9.82812495e-004
,,,-5.07500000e-009,1.07187500e-003
,,,-5.05000000e-009,1.14687501e-003
,,,-5.02500000e-009,1.20000001e-003
,,,-5.00000000e-009,1.22031251e-003
,,,-4.97500000e-009,1.20937501e-003
,,,-4.95000000e-009,1.16875001e-003
,,,-4.92500000e-009,1.10468750e-003
,,,-4.90000000e-009,1.02656250e-003
,,,-4.87500000e-009,9.43749992e-004
,,,-4.85000000e-009,8.65624987e-004
,,,-4.82500000e-009,7.99999982e-004
,,,-4.80000000e-009,7.54687479e-004
,,,-4.77500000e-009,7.29687477e-004
,,,-4.75000000e-009,7.23437477e-004
,,,-4.72500000e-009,7.31249977e-004
,,,-4.70000000e-009,7.48437478e-004
,,,-4.67500000e-009,7.70312480e-004
,,,-4.65000000e-009,7.89062481e-004
,,,-4.62500000e-009,7.99999982e-004
,,,-4.60000000e-009,8.06249983e-004
,,,-4.57500000e-009,8.03124982e-004
,,,-4.55000000e-009,7.93749982e-004
,,,-4.52500000e-009,7.81249981e-004
,,,-4.50000000e-009,7.71874980e-004
,,,-4.47500000e-009,7.68749980e-004
,,,-4.45000000e-009,7.78124981e-004
,,,-4.42500000e-009,7.99999982e-004
,,,-4.40000000e-009,8.43749985e-004
,,,-4.37500000e-009,8.96874989e-004
,,,-4.35000000e-009,9.59374993e-004
,,,-4.32500000e-009,1.02500000e-003
,,,-4.30000000e-009,1.08750000e-003
,,,-4.27500000e-009,1.14062501e-003
,,,-4.25000000e-009,1.17968751e-003
,,,-4.22500000e-009,1.20000001e-003
,,,-4.20000000e-009,1.19531251e-003
,,,-4.17500000e-009,1.16875001e-003
,,,-4.15000000e-009,1.12500001e-003
,,,-4.12500000e-009,1.06562500e-003
,,,-4.10000000e-009,9.98437496e-004
,,,-4.07500000e-009,9.28124991e-004
,,,-4.05000000e-009,8.60937486e-004
,,,-4.02500000e-009,7.99999982e-004
,,,-4.00000000e-009,7.56249979e-004
,,,-3.97500000e-009,7.28124977e-004
,,,-3.95000000e-009,7.12499976e-004
,,,-3.92500000e-009,7.12499976e-004
,,,-3.90000000e-009,7.21874977e-004
,,,-3.87500000e-009,7.42187478e-004
,,,-3.85000000e-009,7.68749980e-004
,,,-3.82500000e-009,7.99999982e-004
,,,-3.80000000e-009,8.35937485e-004
,,,-3.77500000e-009,8.73437487e-004
,,,-3.75000000e-009,9.15624990e-004
,,,-3.72500000e-009,9.60937494e-004
,,,-3.70000000e-009,1.01250000e-003
,,,-3.67500000e-009,1.07031250e-003
,,,-3.65000000e-009,1.13437501e-003
,,,-3.62500000e-009,1.20000001e-003
,,,-3.60000000e-009,1.26562502e-003
,,,-3.57500000e-009,1.32187502e-003
,,,-3.55000000e-009,1.36718752e-003
,,,-3.52500000e-009,1.39218752e-003
,,,-3.50000000e-009,1.39062502e-003
,,,-3.47500000e-009,1.36093752e-003
,,,-3.45000000e-009,1.29687502e-003
,,,-3.42500000e-009,1.20000001e-003
,,,-3.40000000e-009,1.07500000e-003
,,,-3.37500000e-009,9.34374992e-004
,,,-3.35000000e-009,7.87499981e-004
,,,-3.32500000e-009,6.48437471e-004
,,,-3.30000000e-009,5.31249963e-004
,,,-3.27500000e-009,4.45312457e-004
,,,-3.25000000e-009,3.99999954e-004
,,,-3.22500000e-009,3.99999954e-004
,,,-3.20000000e-009,4.51562457e-004
,,,-3.17500000e-009,5.42187464e-004
,,,-3.15000000e-009,6.60937472e-004
,,,-3.12500000e-009,7.93749982e-004
,,,-3.10000000e-009,9.28124991e-004
,,,-3.07500000e-009,1.04843750e-003
,,,-3.05000000e-009,1.14218751e-003
,,,-3.02500000e-009,1.20000001e-003
,,,-3.00000000e-009,1.21718751e-003
,,,-2.97500000e-009,1.19375001e-003
,,,-2.95000000e-009,1.14062501e-003
,,,-2.92500000e-009,1.06562500e-003
,,,-2.90000000e-009,9.82812495e-004
,,,-2.87500000e-009,9.03124989e-004
,,,-2.85000000e-009,8.39062485e-004
,,,-2.82500000e-009,7.99999982e-004
,,,-2.80000000e-009,7.92187482e-004
,,,-2.77500000e-009,8.15624983e-004
,,,-2.75000000e-009,8.65624987e-004
,,,-2.72500000e-009,9.35937492e-004
,,,-2.70000000e-009,1.01406250e-003
,,,-2.67500000e-009,1.09062500e-003
,,,-2.65000000e-009,1.15625001e-003
,,,-2.62500000e-009,1.20000001e-003
,,,-2.60000000e-009,1.21718751e-003
,,,-2.57500000e-009,1.20312501e-003
,,,-2.55000000e-009,1.16406251e-003
,,,-2.52500000e-009,1.10312500e-003
,,,-2.50000000e-009,1.02812500e-003
,,,-2.47500000e-009,9.46874993e-004
,,,-2.45000000e-009,8.68749987e-004
,,,-2.42500000e-009,7.99999982e-004
,,,-2.40000000e-009,7.49999979e-004
,,,-2.37500000e-009,7.17187476e-004
,,,-2.35000000e-009,7.04687475e-004
,,,-2.32500000e-009,7.06249975e-004
,,,-2.30000000e-009,7.23437477e-004
,,,-2.27500000e-009,7.46874978e-004
,,,-2.25000000e-009,7.74999980e-004
,,,-2.22500000e-009,7.99999982e-004
,,,-2.20000000e-009,8.17187483e-004
,,,-2.17500000e-009,8.26562484e-004
,,,-2.15000000e-009,8.29687484e-004
,,,-2.12500000e-009,8.26562484e-004
,,,-2.10000000e-009,8.20312484e-004
,,,-2.07500000e-009,8.12499983e-004
,,,-2.05000000e-009,8.04687482e-004
,,,-2.02500000e-009,7.99999982e-004
,,,-2.00000000e-009,7.99999982e-004
,,,-1.97500000e-009,8.01562482e-004
,,,-1.95000000e-009,8.04687482e-004
,,,-1.92500000e-009,8.09374983e-004
,,,-1.90000000e-009,8.12499983e-004
,,,-1.87500000e-009,8.12499983e-004
,,,-1.85000000e-009,8.07812483e-004
,,,-1.82500000e-009,7.99999982e-004
,,,-1.80000000e-009,7.85937481e-004
,,,-1.77500000e-009,7.70312480e-004
,,,-1.75000000e-009,7.54687479e-004
,,,-1.72500000e-009,7.43749978e-004
,,,-1.70000000e-009,7.42187478e-004
,,,-1.67500000e-009,7.49999979e-004
,,,-1.65000000e-009,7.70312480e-004
,,,-1.62500000e-009,7.99999982e-004
,,,-1.60000000e-009,8.32812484e-004
,,,-1.57500000e-009,8.65624987e-004
,,,-1.55000000e-009,8.95312489e-004
,,,-1.52500000e-009,9.15624990e-004
,,,-1.50000000e-009,9.18749991e-004
,,,-1.47500000e-009,9.03124989e-004
,,,-1.45000000e-009,8.64062487e-004
,,,-1.42500000e-009,7.99999982e-004
,,,-1.40000000e-009,7.01562475e-004
,,,-1.37500000e-009,5.82812467e-004
,,,-1.35000000e-009,4.54687458e-004
,,,-1.32500000e-009,3.24999948e-004
,,,-1.30000000e-009,2.06249940e-004
,,,-1.27500000e-009,1.07812433e-004
,,,-1.25000000e-009,3.74999281e-005
,,,-1.22500000e-009,-7.45058060e-011
,,,-1.20000000e-009,-1.25000754e-005
,,,-1.17500000e-009,3.12492572e-006
,,,-1.15000000e-009,4.68749288e-005
,,,-1.12500000e-009,1.09374933e-004
,,,-1.10000000e-009,1.85937439e-004
,,,-1.07500000e-009,2.65624944e-004
,,,-1.05000000e-009,3.39062449e-004
,,,-1.02500000e-009,3.99999954e-004
,,,-1.00000000e-009,4.18749955e-004
,,,-9.75000000e-010,4.09374954e-004
,,,-9.50000000e-010,3.74999952e-004
,,,-9.25000000e-010,3.18749948e-004
,,,-9.00000000e-010,2.46874943e-004
,,,-8.75000000e-010,1.65624937e-004
,,,-8.50000000e-010,8.28124314e-005
,,,-8.25000000e-010,-7.45058060e-011
,,,-8.00000000e-010,-1.04687582e-004
,,,-7.75000000e-010,-2.09375089e-004
,,,-7.50000000e-010,-3.10937597e-004
,,,-7.25000000e-010,-4.10937604e-004
,,,-7.00000000e-010,-5.06250110e-004
,,,-6.75000000e-010,-6.03125117e-004
,,,-6.50000000e-010,-6.98437624e-004
,,,-6.25000000e-010,-8.00000131e-004
,,,-6.00000000e-010,-9.28125140e-004
,,,-5.75000000e-010,-1.06718765e-003
,,,-5.50000000e-010,-1.21718766e-003
,,,-5.25000000e-010,-1.37500017e-003
,,,-5.00000000e-010,-1.53437518e-003
,,,-4.75000000e-010,-1.69375019e-003
,,,-4.50000000e-010,-1.85000021e-003
,,,-4.25000000e-010,-2.00000022e-003
,,,-4.00000000e-010,-2.15625023e-003
,,,-3.75000000e-010,-2.31093774e-003
,,,-3.50000000e-010,-2.46250025e-003
,,,-3.25000000e-010,-2.61250026e-003
,,,-3.00000000e-010,-2.76093777e-003
,,,-2.75000000e-010,-2.90625028e-003
,,,-2.50000000e-010,-3.05156279e-003
,,,-2.25000000e-010,-3.20000030e-003
,,,-2.00000000e-010,-3.36093781e-003
,,,-1.75000000e-010,-3.53437532e-003
,,,-1.50000000e-010,-3.72031284e-003
,,,-1.25000000e-010,-3.91875035e-003
,,,-1.00000000e-010,-4.12812537e-003
,,,-7.50000000e-011,-4.34687538e-003
,,,-5.00000000e-011,-4.57031290e-003
,,,-2.50000000e-011,-4.80000041e-003
,,,0.00000000e+000,-5.01562543e-003
,,,2.50000000e-011,-5.23593795e-003
,,,5.00000000e-011,-5.45468796e-003
,,,7.50000000e-011,-5.66875048e-003
,,,1.00000000e-010,-5.87500049e-003
,,,1.25000000e-010,-6.06718800e-003
,,,1.50000000e-010,-6.24375052e-003
,,,1.75000000e-010,-6.40000053e-003
,,,2.00000000e-010,-6.50625054e-003
,,,2.25000000e-010,-6.59375054e-003
,,,2.50000000e-010,-6.66406305e-003
,,,2.75000000e-010,-6.71875055e-003
,,,3.00000000e-010,-6.75625055e-003
,,,3.25000000e-010,-6.78125055e-003
,,,3.50000000e-010,-6.79375056e-003
,,,3.75000000e-010,-6.80000056e-003
,,,4.00000000e-010,-6.77187555e-003
,,,4.25000000e-010,-6.75468805e-003
,,,4.50000000e-010,-6.75781305e-003
,,,4.75000000e-010,-6.78437555e-003
,,,5.00000000e-010,-6.84218806e-003
,,,5.25000000e-010,-6.93125057e-003
,,,5.50000000e-010,-7.05156307e-003
,,,5.75000000e-010,-7.20000058e-003
,,,6.00000000e-010,-7.32968809e-003
,,,6.25000000e-010,-7.47187560e-003
,,,6.50000000e-010,-7.61718811e-003
,,,6.75000000e-010,-7.75468812e-003
,,,7.00000000e-010,-7.87031313e-003
,,,7.25000000e-010,-7.95468814e-003
,,,7.50000000e-010,-8.00000064e-003
,,,7.75000000e-010,-8.00000064e-003
,,,8.00000000e-010,-7.90937563e-003
,,,8.25000000e-010,-7.77812563e-003
,,,8.50000000e-010,-7.61718811e-003
,,,8.75000000e-010,-7.43906310e-003
,,,9.00000000e-010,-7.25625059e-003
,,,9.25000000e-010,-7.08281308e-003
,,,9.50000000e-010,-6.92656306e-003
,,,9.75000000e-010,-6.80000056e-003
,,,1.00000000e-009,-6.67500055e-003
,,,1.02500000e-009,-6.58281304e-003
,,,1.05000000e-009,-6.52031304e-003
,,,1.07500000e-009,-6.48437553e-003
,,,1.10000000e-009,-6.46250053e-003
,,,1.12500000e-009,-6.44843803e-003
,,,1.15000000e-009,-6.43125053e-003
,,,1.17500000e-009,-6.40000053e-003
,,,1.20000000e-009,-6.32343802e-003
,,,1.22500000e-009,-6.21875051e-003
,,,1.25000000e-009,-6.08750051e-003
,,,1.27500000e-009,-5.93281299e-003
,,,1.30000000e-009,-5.75937548e-003
,,,1.32500000e-009,-5.57500047e-003
,,,1.35000000e-009,-5.38593796e-003
,,,1.37500000e-009,-5.20000044e-003
,,,1.40000000e-009,-5.00937543e-003
,,,1.42500000e-009,-4.82968792e-003
,,,1.45000000e-009,-4.66093790e-003
,,,1.47500000e-009,-4.50468789e-003
,,,1.50000000e-009,-4.36250038e-003
,,,1.52500000e-009,-4.23125037e-003
,,,1.55000000e-009,-4.11093787e-003
,,,1.57500000e-009,-4.00000036e-003
,,,1.60000000e-009,-3.89375035e-003
,,,1.62500000e-009,-3.78906284e-003
,,,1.65000000e-009,-3.68437534e-003
,,,1.67500000e-009,-3.58125033e-003
,,,1.70000000e-009,-3.47968782e-003
,,,1.72500000e-009,-3.38125031e-003
,,,1.75000000e-009,-3.28750031e-003
,,,1.77500000e-009,-3.20000030e-003
,,,1.80000000e-009,-3.12343780e-003
,,,1.82500000e-009,-3.04375029e-003
,,,1.85000000e-009,-2.95625028e-003
,,,1.87500000e-009,-2.86093778e-003
,,,1.90000000e-009,-2.75781277e-003
,,,1.92500000e-009,-2.64531276e-003
,,,1.95000000e-009,-2.52500025e-003
,,,1.97500000e-009,-2.40000024e-003
,,,2.00000000e-009,-2.27812524e-003
,,,2.02500000e-009,-2.15312523e-003
,,,2.05000000e-009,-2.02812522e-003
,,,2.07500000e-009,-1.90937521e-003
,,,2.10000000e-009,-1.80156270e-003
,,,2.12500000e-009,-1.71250020e-003
,,,2.15000000e-009,-1.64375019e-003
,,,2.17500000e-009,-1.60000019e-003
,,,2.20000000e-009,-1.59062519e-003
,,,2.22500000e-009,-1.59375019e-003
,,,2.25000000e-009,-1.60625019e-003
,,,2.27500000e-009,-1.62031269e-003
,,,2.30000000e-009,-1.62968769e-003
,,,2.32500000e-009,-1.63281269e-003
,,,2.35000000e-009,-1.62343769e-003
,,,2.37500000e-009,-1.60000019e-003
,,,2.40000000e-009,-1.56562519e-003
,,,2.42500000e-009,-1.51406268e-003
,,,2.45000000e-009,-1.45156268e-003
,,,2.47500000e-009,-1.38281267e-003
,,,2.50000000e-009,-1.31562517e-003
,,,2.52500000e-009,-1.25937516e-003
,,,2.55000000e-009,-1.21875016e-003
,,,2.57500000e-009,-1.20000016e-003
,,,2.60000000e-009,-1.20468766e-003
,,,2.62500000e-009,-1.22187516e-003
,,,2.65000000e-009,-1.24531266e-003
,,,2.67500000e-009,-1.26718766e-003
,,,2.70000000e-009,-1.27968767e-003
,,,2.72500000e-009,-1.27656266e-003
,,,2.75000000e-009,-1.25156266e-003
,,,2.77500000e-009,-1.20000016e-003
,,,2.80000000e-009,-1.12187515e-003
,,,2.82500000e-009,-1.02031265e-003
,,,2.85000000e-009,-9.00000138e-004
,,,2.87500000e-009,-7.73437629e-004
,,,2.90000000e-009,-6.50000121e-004
,,,2.92500000e-009,-5.42187613e-004
,,,2.95000000e-009,-4.56250107e-004
,,,2.97500000e-009,-4.00000103e-004
,,,3.00000000e-009,-3.76562601e-004
,,,3.02500000e-009,-3.78125101e-004
,,,3.05000000e-009,-3.96875103e-004
,,,3.07500000e-009,-4.23437604e-004
,,,3.10000000e-009,-4.45312606e-004
,,,3.12500000e-009,-4.54687607e-004
,,,3.15000000e-009,-4.40625106e-004
,,,3.17500000e-009,-4.00000103e-004
,,,3.20000000e-009,-3.28125098e-004
,,,3.22500000e-009,-2.29687591e-004
,,,3.25000000e-009,-1.10937582e-004
,,,3.27500000e-009,1.71874267e-005
,,,3.30000000e-009,1.45312436e-004
,,,3.32500000e-009,2.57812444e-004
,,,3.35000000e-009,3.45312450e-004
,,,3.37500000e-009,3.99999954e-004
,,,3.40000000e-009,4.12499955e-004
,,,3.42500000e-009,3.90624953e-004
,,,3.45000000e-009,3.42187450e-004
,,,3.47500000e-009,2.71874945e-004
,,,3.50000000e-009,1.93749939e-004
,,,3.52500000e-009,1.15624934e-004
,,,3.55000000e-009,4.84374289e-005
,,,3.57500000e-009,-7.45058060e-011
,,,3.60000000e-009,-2.34375762e-005
,,,3.62500000e-009,-1.71875757e-005
,,,3.65000000e-009,1.71874267e-005
,,,3.67500000e-009,7.65624309e-005
,,,3.70000000e-009,1.51562436e-004
,,,3.72500000e-009,2.37499942e-004
,,,3.75000000e-009,3.23437448e-004
,,,3.77500000e-009,3.99999954e-004
,,,3.80000000e-009,4.59374958e-004
,,,3.82500000e-009,5.01562461e-004
,,,3.85000000e-009,5.24999963e-004
,,,3.87500000e-009,5.28124963e-004
,,,3.90000000e-009,5.14062462e-004
,,,3.92500000e-009,4.85937460e-004
,,,3.95000000e-009,4.46874957e-004
,,,3.97500000e-009,3.99999954e-004
,,,4.00000000e-009,3.53124950e-004
,,,4.02500000e-009,3.10937448e-004
,,,4.05000000e-009,2.81249945e-004
,,,4.07500000e-009,2.67187444e-004
,,,4.10000000e-009,2.71874945e-004
,,,4.12500000e-009,2.96874947e-004
,,,4.15000000e-009,3.40624950e-004
,,,4.17500000e-009,3.99999954e-004
,,,4.20000000e-009,4.68749959e-004
,,,4.22500000e-009,5.43749964e-004
,,,4.25000000e-009,6.20312469e-004
,,,4.27500000e-009,6.89062474e-004
,,,4.30000000e-009,7.46874978e-004
,,,4.32500000e-009,7.87499981e-004
,,,4.35000000e-009,8.06249983e-004
,,,4.37500000e-009,7.99999982e-004
,,,4.40000000e-009,7.68749980e-004
,,,4.42500000e-009,7.18749976e-004
,,,4.45000000e-009,6.54687472e-004
,,,4.47500000e-009,5.85937467e-004
,,,4.50000000e-009,5.17187462e-004
,,,4.52500000e-009,4.60937458e-004
,,,4.55000000e-009,4.20312455e-004
,,,4.57500000e-009,3.99999954e-004
,,,4.60000000e-009,4.03124954e-004
,,,4.62500000e-009,4.28124956e-004
,,,4.65000000e-009,4.74999959e-004
,,,4.67500000e-009,5.37499964e-004
,,,4.70000000e-009,6.09374969e-004
,,,4.72500000e-009,6.81249974e-004
,,,4.75000000e-009,7.48437478e-004
,,,4.77500000e-009,7.99999982e-004
,,,4.80000000e-009,8.28124984e-004
,,,4.82500000e-009,8.31249984e-004
,,,4.85000000e-009,8.07812483e-004
,,,4.87500000e-009,7.60937479e-004
,,,4.90000000e-009,6.92187474e-004
,,,4.92500000e-009,6.06249968e-004
,,,4.95000000e-009,5.06249961e-004
,,,4.97500000e-009,3.99999954e-004
,,,5.00000000e-009,2.95312446e-004
,,,5.02500000e-009,1.98437440e-004
,,,5.05000000e-009,1.15624934e-004
,,,5.07500000e-009,4.84374289e-005
,,,5.10000000e-009,3.12492572e-006
,,,5.12500000e-009,-2.03125759e-005
,,,5.15000000e-009,-2.03125759e-005
,,,5.17500000e-009,-7.45058060e-011
,,,5.20000000e-009,4.37499286e-005
,,,5.22500000e-009,9.99999326e-005
,,,5.25000000e-009,1.65624937e-004
,,,5.27500000e-009,2.31249942e-004
,,,5.30000000e-009,2.93749946e-004
,,,5.32500000e-009,3.45312450e-004
,,,5.35000000e-009,3.82812453e-004
,,,5.37500000e-009,3.99999954e-004
,,,5.40000000e-009,3.99999954e-004
,,,5.42500000e-009,3.78124952e-004
,,,5.45000000e-009,3.37499949e-004
,,,5.47500000e-009,2.81249945e-004
,,,5.50000000e-009,2.14062441e-004
,,,5.52500000e-009,1.40624935e-004
,,,5.55000000e-009,6.87499304e-005
,,,5.57500000e-009,-7.45058060e-011
,,,5.60000000e-009,-5.31250783e-005
,,,5.62500000e-009,-9.21875810e-005
,,,5.65000000e-009,-1.14062583e-004
,,,5.67500000e-009,-1.20312583e-004
,,,5.70000000e-009,-1.09375082e-004
,,,5.72500000e-009,-8.43750805e-005
,,,5.75000000e-009,-4.68750778e-005
,,,5.77500000e-009,-7.45058060e-011
,,,5.80000000e-009,6.24999299e-005
,,,5.82500000e-009,1.26562434e-004
,,,5.85000000e-009,1.89062439e-004
,,,5.87500000e-009,2.46874943e-004
,,,5.90000000e-009,2.98437447e-004
,,,5.92500000e-009,3.42187450e-004
,,,5.95000000e-009,3.76562452e-004
,,,5.97500000e-009,3.99999954e-004
,,,6.00000000e-009,4.18749955e-004
,,,6.02500000e-009,4.29687456e-004
,,,6.05000000e-009,4.32812456e-004
,,,6.07500000e-009,4.31249956e-004
