RawData/SinglePhotoelectron/R2_2pt2D_5mV/wave025_Ch4.csv

"Record Length",1000,"Points",-7.72500000e-009,7.99999982e-004
"Sample Interval",2.50000000e-011,s,-7.70000000e-009,7.40624978e-004
"Trigger Point",309,"Samples",-7.67500000e-009,6.71874973e-004
"Trigger Time",2.49346341e-011,s,-7.65000000e-009,6.01562468e-004
"",,,-7.62500000e-009,5.32812463e-004
"Horizontal Offset",-7.72500000e-009,s,-7.60000000e-009,4.73437459e-004
,,,-7.57500000e-009,4.29687456e-004
,,,-7.55000000e-009,4.04687454e-004
,,,-7.52500000e-009,3.99999954e-004
,,,-7.50000000e-009,4.21874955e-004
,,,-7.47500000e-009,4.62499958e-004
,,,-7.45000000e-009,5.18749962e-004
,,,-7.42500000e-009,5.84374967e-004
,,,-7.40000000e-009,6.49999972e-004
,,,-7.37500000e-009,7.12499976e-004
,,,-7.35000000e-009,7.64062480e-004
,,,-7.32500000e-009,7.99999982e-004
,,,-7.30000000e-009,8.18749983e-004
,,,-7.27500000e-009,8.23437484e-004
,,,-7.25000000e-009,8.14062483e-004
,,,-7.22500000e-009,7.99999982e-004
,,,-7.20000000e-009,7.87499981e-004
,,,-7.17500000e-009,7.79687481e-004
,,,-7.15000000e-009,7.84374981e-004
,,,-7.12500000e-009,7.99999982e-004
,,,-7.10000000e-009,8.29687484e-004
,,,-7.07500000e-009,8.64062487e-004
,,,-7.05000000e-009,8.99999989e-004
,,,-7.02500000e-009,9.26562491e-004
,,,-7.00000000e-009,9.37499992e-004
,,,-6.97500000e-009,9.23437491e-004
,,,-6.95000000e-009,8.78124988e-004
,,,-6.92500000e-009,7.99999982e-004
,,,-6.90000000e-009,6.93749975e-004
,,,-6.87500000e-009,5.65624966e-004
,,,-6.85000000e-009,4.26562456e-004
,,,-6.82500000e-009,2.87499946e-004
,,,-6.80000000e-009,1.65624937e-004
,,,-6.77500000e-009,7.03124305e-005
,,,-6.75000000e-009,1.24999264e-005
,,,-6.72500000e-009,-7.45058060e-011
,,,-6.70000000e-009,4.21874285e-005
,,,-6.67500000e-009,1.23437434e-004
,,,-6.65000000e-009,2.37499942e-004
,,,-6.62500000e-009,3.70312452e-004
,,,-6.60000000e-009,5.06249961e-004
,,,-6.57500000e-009,6.31249970e-004
,,,-6.55000000e-009,7.32812477e-004
,,,-6.52500000e-009,7.99999982e-004
,,,-6.50000000e-009,8.24999984e-004
,,,-6.47500000e-009,8.10937483e-004
,,,-6.45000000e-009,7.62499979e-004
,,,-6.42500000e-009,6.89062474e-004
,,,-6.40000000e-009,6.04687468e-004
,,,-6.37500000e-009,5.21874962e-004
,,,-6.35000000e-009,4.49999957e-004
,,,-6.32500000e-009,3.99999954e-004
,,,-6.30000000e-009,3.84374953e-004
,,,-6.27500000e-009,3.98437454e-004
,,,-6.25000000e-009,4.39062457e-004
,,,-6.22500000e-009,5.03124961e-004
,,,-6.20000000e-009,5.79687467e-004
,,,-6.17500000e-009,6.60937472e-004
,,,-6.15000000e-009,7.37499978e-004
,,,-6.12500000e-009,7.99999982e-004
,,,-6.10000000e-009,8.45312485e-004
,,,-6.07500000e-009,8.68749987e-004
,,,-6.05000000e-009,8.73437487e-004
,,,-6.02500000e-009,8.64062487e-004
,,,-6.00000000e-009,8.45312485e-004
,,,-5.97500000e-009,8.26562484e-004
,,,-5.95000000e-009,8.09374983e-004
,,,-5.92500000e-009,7.99999982e-004
,,,-5.90000000e-009,8.01562482e-004
,,,-5.87500000e-009,8.10937483e-004
,,,-5.85000000e-009,8.26562484e-004
,,,-5.82500000e-009,8.42187485e-004
,,,-5.80000000e-009,8.51562486e-004
,,,-5.77500000e-009,8.51562486e-004
,,,-5.75000000e-009,8.34374985e-004
,,,-5.72500000e-009,7.99999982e-004
,,,-5.70000000e-009,7.45312478e-004
,,,-5.67500000e-009,6.76562473e-004
,,,-5.65000000e-009,6.01562468e-004
,,,-5.62500000e-009,5.29687463e-004
,,,-5.60000000e-009,4.65624958e-004
,,,-5.57500000e-009,4.20312455e-004
,,,-5.55000000e-009,3.96874954e-004
,,,-5.52500000e-009,3.99999954e-004
,,,-5.50000000e-009,4.32812456e-004
,,,-5.47500000e-009,4.84374960e-004
,,,-5.45000000e-009,5.53124965e-004
,,,-5.42500000e-009,6.26562470e-004
,,,-5.40000000e-009,6.96874975e-004
,,,-5.37500000e-009,7.53124979e-004
,,,-5.35000000e-009,7.90624981e-004
,,,-5.32500000e-009,7.99999982e-004
,,,-5.30000000e-009,7.81249981e-004
,,,-5.27500000e-009,7.35937478e-004
,,,-5.25000000e-009,6.73437473e-004
,,,-5.22500000e-009,5.99999968e-004
,,,-5.20000000e-009,5.28124963e-004
,,,-5.17500000e-009,4.65624958e-004
,,,-5.15000000e-009,4.20312455e-004
,,,-5.12500000e-009,3.99999954e-004
,,,-5.10000000e-009,4.09374954e-004
,,,-5.07500000e-009,4.43749957e-004
,,,-5.05000000e-009,4.99999961e-004
,,,-5.02500000e-009,5.68749966e-004
,,,-5.00000000e-009,6.42187471e-004
,,,-4.97500000e-009,7.10937476e-004
,,,-4.95000000e-009,7.65624980e-004
,,,-4.92500000e-009,7.99999982e-004
,,,-4.90000000e-009,8.10937483e-004
,,,-4.87500000e-009,7.93749982e-004
,,,-4.85000000e-009,7.54687479e-004
,,,-4.82500000e-009,6.95312475e-004
,,,-4.80000000e-009,6.21874970e-004
,,,-4.77500000e-009,5.43749964e-004
,,,-4.75000000e-009,4.68749959e-004
,,,-4.72500000e-009,3.99999954e-004
,,,-4.70000000e-009,3.53124950e-004
,,,-4.67500000e-009,3.21874948e-004
,,,-4.65000000e-009,3.09374947e-004
,,,-4.62500000e-009,3.12499948e-004
,,,-4.60000000e-009,3.26562449e-004
,,,-4.57500000e-009,3.49999950e-004
,,,-4.55000000e-009,3.74999952e-004
,,,-4.52500000e-009,3.99999954e-004
,,,-4.50000000e-009,4.23437455e-004
,,,-4.47500000e-009,4.39062457e-004
,,,-4.45000000e-009,4.48437457e-004
,,,-4.42500000e-009,4.48437457e-004
,,,-4.40000000e-009,4.42187457e-004
,,,-4.37500000e-009,4.31249956e-004
,,,-4.35000000e-009,4.17187455e-004
,,,-4.32500000e-009,3.99999954e-004
,,,-4.30000000e-009,3.89062453e-004
,,,-4.27500000e-009,3.79687452e-004
,,,-4.25000000e-009,3.73437452e-004
,,,-4.22500000e-009,3.70312452e-004
,,,-4.20000000e-009,3.71874952e-004
,,,-4.17500000e-009,3.76562452e-004
,,,-4.15000000e-009,3.85937453e-004
,,,-4.12500000e-009,3.99999954e-004
,,,-4.10000000e-009,4.24999956e-004
,,,-4.07500000e-009,4.56249958e-004
,,,-4.05000000e-009,4.95312461e-004
,,,-4.02500000e-009,5.42187464e-004
,,,-4.00000000e-009,5.96874968e-004
,,,-3.97500000e-009,6.59374972e-004
,,,-3.95000000e-009,7.28124977e-004
,,,-3.92500000e-009,7.99999982e-004
,,,-3.90000000e-009,8.76562488e-004
,,,-3.87500000e-009,9.49999993e-004
,,,-3.85000000e-009,1.01875000e-003
,,,-3.82500000e-009,1.08125000e-003
,,,-3.80000000e-009,1.13281251e-003
,,,-3.77500000e-009,1.17031251e-003
,,,-3.75000000e-009,1.19375001e-003
,,,-3.72500000e-009,1.20000001e-003
,,,-3.70000000e-009,1.18437501e-003
,,,-3.67500000e-009,1.15156251e-003
,,,-3.65000000e-009,1.10625000e-003
,,,-3.62500000e-009,1.05000000e-003
,,,-3.60000000e-009,9.87499995e-004
,,,-3.57500000e-009,9.23437491e-004
,,,-3.55000000e-009,8.59374986e-004
,,,-3.52500000e-009,7.99999982e-004
,,,-3.50000000e-009,7.49999979e-004
,,,-3.47500000e-009,7.10937476e-004
,,,-3.45000000e-009,6.89062474e-004
,,,-3.42500000e-009,6.81249974e-004
,,,-3.40000000e-009,6.89062474e-004
,,,-3.37500000e-009,7.14062476e-004
,,,-3.35000000e-009,7.51562479e-004
,,,-3.32500000e-009,7.99999982e-004
,,,-3.30000000e-009,8.54687486e-004
,,,-3.27500000e-009,9.14062490e-004
,,,-3.25000000e-009,9.74999995e-004
,,,-3.22500000e-009,1.03437500e-003
,,,-3.20000000e-009,1.09062500e-003
,,,-3.17500000e-009,1.13750001e-003
,,,-3.15000000e-009,1.17656251e-003
,,,-3.12500000e-009,1.20000001e-003
,,,-3.10000000e-009,1.20468751e-003
,,,-3.07500000e-009,1.19375001e-003
,,,-3.05000000e-009,1.16562501e-003
,,,-3.02500000e-009,1.12031250e-003
,,,-3.00000000e-009,1.05937500e-003
,,,-2.97500000e-009,9.84374995e-004
,,,-2.95000000e-009,8.96874989e-004
,,,-2.92500000e-009,7.99999982e-004
,,,-2.90000000e-009,7.01562475e-004
,,,-2.87500000e-009,6.04687468e-004
,,,-2.85000000e-009,5.18749962e-004
,,,-2.82500000e-009,4.48437457e-004
,,,-2.80000000e-009,3.98437454e-004
,,,-2.77500000e-009,3.73437452e-004
,,,-2.75000000e-009,3.74999952e-004
,,,-2.72500000e-009,3.99999954e-004
,,,-2.70000000e-009,4.53124958e-004
,,,-2.67500000e-009,5.18749962e-004
,,,-2.65000000e-009,5.92187467e-004
,,,-2.62500000e-009,6.65624973e-004
,,,-2.60000000e-009,7.29687477e-004
,,,-2.57500000e-009,7.76562480e-004
,,,-2.55000000e-009,8.01562482e-004
,,,-2.52500000e-009,7.99999982e-004
,,,-2.50000000e-009,7.73437480e-004
,,,-2.47500000e-009,7.23437477e-004
,,,-2.45000000e-009,6.57812472e-004
,,,-2.42500000e-009,5.85937467e-004
,,,-2.40000000e-009,5.15624962e-004
,,,-2.37500000e-009,4.56249958e-004
,,,-2.35000000e-009,4.17187455e-004
,,,-2.32500000e-009,3.99999954e-004
,,,-2.30000000e-009,4.12499955e-004
,,,-2.27500000e-009,4.49999957e-004
,,,-2.25000000e-009,5.06249961e-004
,,,-2.22500000e-009,5.74999966e-004
,,,-2.20000000e-009,6.46874971e-004
,,,-2.17500000e-009,7.14062476e-004
,,,-2.15000000e-009,7.67187480e-004
,,,-2.12500000e-009,7.99999982e-004
,,,-2.10000000e-009,8.06249983e-004
,,,-2.07500000e-009,7.85937481e-004
,,,-2.05000000e-009,7.42187478e-004
,,,-2.02500000e-009,6.81249974e-004
,,,-2.00000000e-009,6.07812469e-004
,,,-1.97500000e-009,5.32812463e-004
,,,-1.95000000e-009,4.60937458e-004
,,,-1.92500000e-009,3.99999954e-004
,,,-1.90000000e-009,3.57812451e-004
,,,-1.87500000e-009,3.32812449e-004
,,,-1.85000000e-009,3.23437448e-004
,,,-1.82500000e-009,3.29687449e-004
,,,-1.80000000e-009,3.43749950e-004
,,,-1.77500000e-009,3.64062451e-004
,,,-1.75000000e-009,3.84374953e-004
,,,-1.72500000e-009,3.99999954e-004
,,,-1.70000000e-009,4.09374954e-004
,,,-1.67500000e-009,4.10937455e-004
,,,-1.65000000e-009,4.07812454e-004
,,,-1.62500000e-009,3.99999954e-004
,,,-1.60000000e-009,3.93749953e-004
,,,-1.57500000e-009,3.90624953e-004
,,,-1.55000000e-009,3.92187453e-004
,,,-1.52500000e-009,3.99999954e-004
,,,-1.50000000e-009,4.14062455e-004
,,,-1.47500000e-009,4.29687456e-004
,,,-1.45000000e-009,4.46874957e-004
,,,-1.42500000e-009,4.59374958e-004
,,,-1.40000000e-009,4.64062458e-004
,,,-1.37500000e-009,4.57812458e-004
,,,-1.35000000e-009,4.35937456e-004
,,,-1.32500000e-009,3.99999954e-004
,,,-1.30000000e-009,3.39062449e-004
,,,-1.27500000e-009,2.67187444e-004
,,,-1.25000000e-009,1.90624939e-004
,,,-1.22500000e-009,1.17187434e-004
,,,-1.20000000e-009,5.46874294e-005
,,,-1.17500000e-009,1.09374263e-005
,,,-1.15000000e-009,-7.81257506e-006
,,,-1.12500000e-009,-7.45058060e-011
,,,-1.10000000e-009,2.03124269e-005
,,,-1.07500000e-009,5.78124296e-005
,,,-1.05000000e-009,1.12499933e-004
,,,-1.02500000e-009,1.76562438e-004
,,,-1.00000000e-009,2.43749943e-004
,,,-9.75000000e-010,3.07812447e-004
,,,-9.50000000e-010,3.62499951e-004
,,,-9.25000000e-010,3.99999954e-004
,,,-9.00000000e-010,3.89062453e-004
,,,-8.75000000e-010,3.53124950e-004
,,,-8.50000000e-010,2.98437447e-004
,,,-8.25000000e-010,2.32812442e-004
,,,-8.00000000e-010,1.62499937e-004
,,,-7.75000000e-010,9.68749324e-005
,,,-7.50000000e-010,4.06249284e-005
,,,-7.25000000e-010,-7.45058060e-011
,,,-7.00000000e-010,-6.40625790e-005
,,,-6.75000000e-010,-1.21875083e-004
,,,-6.50000000e-010,-1.71875087e-004
,,,-6.25000000e-010,-2.14062590e-004
,,,-6.00000000e-010,-2.53125092e-004
,,,-5.75000000e-010,-2.93750095e-004
,,,-5.50000000e-010,-3.40625099e-004
,,,-5.25000000e-010,-4.00000103e-004
,,,-5.00000000e-010,-5.31250112e-004
,,,-4.75000000e-010,-6.93750124e-004
,,,-4.50000000e-010,-8.81250137e-004
,,,-4.25000000e-010,-1.09062515e-003
,,,-4.00000000e-010,-1.31406267e-003
,,,-3.75000000e-010,-1.54218768e-003
,,,-3.50000000e-010,-1.77343770e-003
,,,-3.25000000e-010,-2.00000022e-003
,,,-3.00000000e-010,-2.27031274e-003
,,,-2.75000000e-010,-2.54375025e-003
,,,-2.50000000e-010,-2.81406277e-003
,,,-2.25000000e-010,-3.07500029e-003
,,,-2.00000000e-010,-3.32656281e-003
,,,-1.75000000e-010,-3.56406283e-003
,,,-1.50000000e-010,-3.78750034e-003
,,,-1.25000000e-010,-4.00000036e-003
,,,-1.00000000e-010,-4.24687538e-003
,,,-7.50000000e-011,-4.49843789e-003
,,,-5.00000000e-011,-4.75312541e-003
,,,-2.50000000e-011,-5.00937543e-003
,,,0.00000000e+000,-5.26250045e-003
,,,2.50000000e-011,-5.51093796e-003
,,,5.00000000e-011,-5.75625048e-003
,,,7.50000000e-011,-6.00000050e-003
,,,1.00000000e-010,-6.27500052e-003
,,,1.25000000e-010,-6.57187554e-003
,,,1.50000000e-010,-6.88906306e-003
,,,1.75000000e-010,-7.23125059e-003
,,,2.00000000e-010,-7.59375061e-003
,,,2.25000000e-010,-7.97812564e-003
,,,2.50000000e-010,-8.37968817e-003
,,,2.75000000e-010,-8.80000070e-003
,,,3.00000000e-010,-9.24062573e-003
,,,3.25000000e-010,-9.70156326e-003
,,,3.50000000e-010,-1.01750008e-002
,,,3.75000000e-010,-1.06515633e-002
,,,4.00000000e-010,-1.11218759e-002
,,,4.25000000e-010,-1.15750009e-002
,,,4.50000000e-010,-1.20031259e-002
,,,4.75000000e-010,-1.24000010e-002
,,,5.00000000e-010,-1.27328135e-002
,,,5.25000000e-010,-1.30484385e-002
,,,5.50000000e-010,-1.33500010e-002
,,,5.75000000e-010,-1.36421885e-002
,,,6.00000000e-010,-1.39312511e-002
,,,6.25000000e-010,-1.42187511e-002
,,,6.50000000e-010,-1.45078136e-002
,,,6.75000000e-010,-1.48000011e-002
,,,7.00000000e-010,-1.50437511e-002
,,,7.25000000e-010,-1.53000012e-002
,,,7.50000000e-010,-1.55656262e-002
,,,7.75000000e-010,-1.58359387e-002
,,,8.00000000e-010,-1.61031262e-002
,,,8.25000000e-010,-1.63578137e-002
,,,8.50000000e-010,-1.65921887e-002
,,,8.75000000e-010,-1.68000013e-002
,,,9.00000000e-010,-1.69078138e-002
,,,9.25000000e-010,-1.69984388e-002
,,,9.50000000e-010,-1.70812513e-002
,,,9.75000000e-010,-1.71625013e-002
,,,1.00000000e-009,-1.72515638e-002
,,,1.02500000e-009,-1.73531263e-002
,,,1.05000000e-009,-1.74687513e-002
,,,1.07500000e-009,-1.76000013e-002
,,,1.10000000e-009,-1.76593763e-002
,,,1.12500000e-009,-1.77328138e-002
,,,1.15000000e-009,-1.78125013e-002
,,,1.17500000e-009,-1.78937513e-002
,,,1.20000000e-009,-1.79625013e-002
,,,1.22500000e-009,-1.80093763e-002
,,,1.25000000e-009,-1.80250014e-002
,,,1.27500000e-009,-1.80000013e-002
,,,1.30000000e-009,-1.78437513e-002
,,,1.32500000e-009,-1.76515638e-002
,,,1.35000000e-009,-1.74328138e-002
,,,1.37500000e-009,-1.72031263e-002
,,,1.40000000e-009,-1.69734388e-002
,,,1.42500000e-009,-1.67578138e-002
,,,1.45000000e-009,-1.65640637e-002
,,,1.47500000e-009,-1.64000012e-002
,,,1.50000000e-009,-1.61984387e-002
,,,1.52500000e-009,-1.60250012e-002
,,,1.55000000e-009,-1.58750012e-002
,,,1.57500000e-009,-1.57421887e-002
,,,1.60000000e-009,-1.56171887e-002
,,,1.62500000e-009,-1.54921887e-002
,,,1.65000000e-009,-1.53562512e-002
,,,1.67500000e-009,-1.52000012e-002
,,,1.70000000e-009,-1.49578136e-002
,,,1.72500000e-009,-1.46828136e-002
,,,1.75000000e-009,-1.43796886e-002
,,,1.77500000e-009,-1.40578136e-002
,,,1.80000000e-009,-1.37296885e-002
,,,1.82500000e-009,-1.34046885e-002
,,,1.85000000e-009,-1.30937510e-002
,,,1.87500000e-009,-1.28000010e-002
,,,1.90000000e-009,-1.24937510e-002
,,,1.92500000e-009,-1.21968759e-002
,,,1.95000000e-009,-1.19062509e-002
,,,1.97500000e-009,-1.16187509e-002
,,,2.00000000e-009,-1.13296884e-002
,,,2.02500000e-009,-1.10328134e-002
,,,2.05000000e-009,-1.07234383e-002
,,,2.07500000e-009,-1.04000008e-002
,,,2.10000000e-009,-1.00500008e-002
,,,2.12500000e-009,-9.67812576e-003
,,,2.15000000e-009,-9.29531323e-003
,,,2.17500000e-009,-8.90937571e-003
,,,2.20000000e-009,-8.53437568e-003
,,,2.22500000e-009,-8.18593815e-003
,,,2.25000000e-009,-7.87187563e-003
,,,2.27500000e-009,-7.60000061e-003
,,,2.30000000e-009,-7.38281310e-003
,,,2.32500000e-009,-7.18906308e-003
,,,2.35000000e-009,-7.00937557e-003
,,,2.37500000e-009,-6.83437556e-003
,,,2.40000000e-009,-6.65312555e-003
,,,2.42500000e-009,-6.45937553e-003
,,,2.45000000e-009,-6.24218802e-003
,,,2.47500000e-009,-6.00000050e-003
,,,2.50000000e-009,-5.74843798e-003
,,,2.52500000e-009,-5.45937546e-003
,,,2.55000000e-009,-5.14218794e-003
,,,2.57500000e-009,-4.80781291e-003
,,,2.60000000e-009,-4.47031289e-003
,,,2.62500000e-009,-4.14687537e-003
,,,2.65000000e-009,-3.85312535e-003
,,,2.67500000e-009,-3.60000033e-003
,,,2.70000000e-009,-3.42968782e-003
,,,2.72500000e-009,-3.29531281e-003
,,,2.75000000e-009,-3.18750030e-003
,,,2.77500000e-009,-3.10156279e-003
,,,2.80000000e-009,-3.02656279e-003
,,,2.82500000e-009,-2.95625028e-003
,,,2.85000000e-009,-2.88281278e-003
,,,2.87500000e-009,-2.80000027e-003
,,,2.90000000e-009,-2.73906277e-003
,,,2.92500000e-009,-2.65468776e-003
,,,2.95000000e-009,-2.55000025e-003
,,,2.97500000e-009,-2.42968775e-003
,,,3.00000000e-009,-2.30312524e-003
,,,3.02500000e-009,-2.18437523e-003
,,,3.05000000e-009,-2.07968772e-003
,,,3.07500000e-009,-2.00000022e-003
,,,3.10000000e-009,-1.97812521e-003
,,,3.12500000e-009,-1.97500021e-003
,,,3.15000000e-009,-1.98437521e-003
,,,3.17500000e-009,-2.00000022e-003
,,,3.20000000e-009,-2.01406272e-003
,,,3.22500000e-009,-2.02343772e-003
,,,3.25000000e-009,-2.01875022e-003
,,,3.27500000e-009,-2.00000022e-003
,,,3.30000000e-009,-1.98281271e-003
,,,3.32500000e-009,-1.94375021e-003
,,,3.35000000e-009,-1.88593771e-003
,,,3.37500000e-009,-1.81718770e-003
,,,3.40000000e-009,-1.74375020e-003
,,,3.42500000e-009,-1.67812519e-003
,,,3.45000000e-009,-1.62812519e-003
,,,3.47500000e-009,-1.60000019e-003
,,,3.50000000e-009,-1.61250019e-003
,,,3.52500000e-009,-1.64531269e-003
,,,3.55000000e-009,-1.69531269e-003
,,,3.57500000e-009,-1.75625020e-003
,,,3.60000000e-009,-1.82343770e-003
,,,3.62500000e-009,-1.88906271e-003
,,,3.65000000e-009,-1.95000021e-003
,,,3.67500000e-009,-2.00000022e-003
,,,3.70000000e-009,-2.03437522e-003
,,,3.72500000e-009,-2.05312522e-003
,,,3.75000000e-009,-2.05625022e-003
,,,3.77500000e-009,-2.04687522e-003
,,,3.80000000e-009,-2.03125022e-003
,,,3.82500000e-009,-2.01562522e-003
,,,3.85000000e-009,-2.00312522e-003
,,,3.87500000e-009,-2.00000022e-003
,,,3.90000000e-009,-2.00312522e-003
,,,3.92500000e-009,-2.01250022e-003
,,,3.95000000e-009,-2.02500022e-003
,,,3.97500000e-009,-2.03750022e-003
,,,4.00000000e-009,-2.04531272e-003
,,,4.02500000e-009,-2.04375022e-003
,,,4.05000000e-009,-2.02968772e-003
,,,4.07500000e-009,-2.00000022e-003
,,,4.10000000e-009,-1.94531271e-003
,,,4.12500000e-009,-1.87968771e-003
,,,4.15000000e-009,-1.80781270e-003
,,,4.17500000e-009,-1.73750020e-003
,,,4.20000000e-009,-1.67500019e-003
,,,4.22500000e-009,-1.62968769e-003
,,,4.25000000e-009,-1.60312519e-003
,,,4.27500000e-009,-1.60000019e-003
,,,4.30000000e-009,-1.60937519e-003
,,,4.32500000e-009,-1.63281269e-003
,,,4.35000000e-009,-1.66250019e-003
,,,4.37500000e-009,-1.68906269e-003
,,,4.40000000e-009,-1.70468770e-003
,,,4.42500000e-009,-1.69687519e-003
,,,4.45000000e-009,-1.66406269e-003
,,,4.47500000e-009,-1.60000019e-003
,,,4.50000000e-009,-1.49843768e-003
,,,4.52500000e-009,-1.37500017e-003
,,,4.55000000e-009,-1.23906266e-003
,,,4.57500000e-009,-1.10312515e-003
,,,4.60000000e-009,-9.79687644e-004
,,,4.62500000e-009,-8.82812637e-004
,,,4.65000000e-009,-8.20312633e-004
,,,4.67500000e-009,-8.00000131e-004
,,,4.70000000e-009,-8.20312633e-004
,,,4.72500000e-009,-8.73437636e-004
,,,4.75000000e-009,-9.51562642e-004
,,,4.77500000e-009,-1.03906265e-003
,,,4.80000000e-009,-1.12031265e-003
,,,4.82500000e-009,-1.18281266e-003
,,,4.85000000e-009,-1.21250016e-003
,,,4.87500000e-009,-1.20000016e-003
,,,4.90000000e-009,-1.13750016e-003
,,,4.92500000e-009,-1.02812515e-003
,,,4.95000000e-009,-8.78125137e-004
,,,4.97500000e-009,-7.01562624e-004
,,,5.00000000e-009,-5.10937611e-004
,,,5.02500000e-009,-3.20312597e-004
,,,5.05000000e-009,-1.46875085e-004
,,,5.07500000e-009,-7.45058060e-011
,,,5.10000000e-009,1.01562433e-004
,,,5.12500000e-009,1.62499937e-004
,,,5.15000000e-009,1.85937439e-004
,,,5.17500000e-009,1.78124938e-004
,,,5.20000000e-009,1.46874936e-004
,,,5.22500000e-009,9.99999326e-005
,,,5.25000000e-009,4.84374289e-005
,,,5.27500000e-009,-7.45058060e-011
,,,5.30000000e-009,-4.37500776e-005
,,,5.32500000e-009,-7.18750796e-005
,,,5.35000000e-009,-8.28125804e-005
,,,5.37500000e-009,-7.81250800e-005
,,,5.40000000e-009,-6.25000789e-005
,,,5.42500000e-009,-4.06250774e-005
,,,5.45000000e-009,-1.87500758e-005
,,,5.47500000e-009,-7.45058060e-011
,,,5.50000000e-009,7.81242605e-006
,,,5.52500000e-009,9.37492616e-006
,,,5.55000000e-009,6.24992594e-006
,,,5.57500000e-009,-7.45058060e-011
,,,5.60000000e-009,-4.68757484e-006
,,,5.62500000e-009,-7.81257506e-006
,,,5.65000000e-009,-6.25007495e-006
,,,5.67500000e-009,-7.45058060e-011
,,,5.70000000e-009,1.09374263e-005
,,,5.72500000e-009,2.34374272e-005
,,,5.75000000e-009,3.90624283e-005
,,,5.77500000e-009,5.15624291e-005
,,,5.80000000e-009,5.78124296e-005
,,,5.82500000e-009,5.31249293e-005
,,,5.85000000e-009,3.43749279e-005
,,,5.87500000e-009,-7.45058060e-011
,,,5.90000000e-009,-5.31250783e-005
,,,5.92500000e-009,-1.17187583e-004
,,,5.95000000e-009,-1.85937588e-004
,,,5.97500000e-009,-2.53125092e-004
,,,6.00000000e-009,-3.14062597e-004
