RawData/SinglePhotoelectron/R2_2pt2D_5mV/wave004_Ch4.csv

"Record Length",1000,"Points",-7.72500000e-009,8.26562484e-004
"Sample Interval",2.50000000e-011,s,-7.70000000e-009,8.43749985e-004
"Trigger Point",309,"Samples",-7.67500000e-009,8.56249986e-004
"Trigger Time",1.15178295e-012,s,-7.65000000e-009,8.64062487e-004
"",,,-7.62500000e-009,8.57812486e-004
"Horizontal Offset",-7.72500000e-009,s,-7.60000000e-009,8.37499985e-004
,,,-7.57500000e-009,7.99999982e-004
,,,-7.55000000e-009,7.45312478e-004
,,,-7.52500000e-009,6.79687474e-004
,,,-7.50000000e-009,6.07812469e-004
,,,-7.47500000e-009,5.37499964e-004
,,,-7.45000000e-009,4.74999959e-004
,,,-7.42500000e-009,4.29687456e-004
,,,-7.40000000e-009,4.03124954e-004
,,,-7.37500000e-009,3.99999954e-004
,,,-7.35000000e-009,4.20312455e-004
,,,-7.32500000e-009,4.62499958e-004
,,,-7.30000000e-009,5.20312462e-004
,,,-7.27500000e-009,5.87499967e-004
,,,-7.25000000e-009,6.56249972e-004
,,,-7.22500000e-009,7.20312476e-004
,,,-7.20000000e-009,7.70312480e-004
,,,-7.17500000e-009,7.99999982e-004
,,,-7.15000000e-009,8.03124982e-004
,,,-7.12500000e-009,7.82812481e-004
,,,-7.10000000e-009,7.40624978e-004
,,,-7.07500000e-009,6.81249974e-004
,,,-7.05000000e-009,6.10937469e-004
,,,-7.02500000e-009,5.35937463e-004
,,,-7.00000000e-009,4.64062458e-004
,,,-6.97500000e-009,3.99999954e-004
,,,-6.95000000e-009,3.51562450e-004
,,,-6.92500000e-009,3.18749948e-004
,,,-6.90000000e-009,3.03124947e-004
,,,-6.87500000e-009,3.03124947e-004
,,,-6.85000000e-009,3.17187448e-004
,,,-6.82500000e-009,3.39062449e-004
,,,-6.80000000e-009,3.68749952e-004
,,,-6.77500000e-009,3.99999954e-004
,,,-6.75000000e-009,4.29687456e-004
,,,-6.72500000e-009,4.53124958e-004
,,,-6.70000000e-009,4.67187459e-004
,,,-6.67500000e-009,4.71874959e-004
,,,-6.65000000e-009,4.68749959e-004
,,,-6.62500000e-009,4.54687458e-004
,,,-6.60000000e-009,4.31249956e-004
,,,-6.57500000e-009,3.99999954e-004
,,,-6.55000000e-009,3.62499951e-004
,,,-6.52500000e-009,3.18749948e-004
,,,-6.50000000e-009,2.70312445e-004
,,,-6.47500000e-009,2.18749941e-004
,,,-6.45000000e-009,1.62499937e-004
,,,-6.42500000e-009,1.07812433e-004
,,,-6.40000000e-009,5.31249293e-005
,,,-6.37500000e-009,-7.45058060e-011
,,,-6.35000000e-009,-4.06250774e-005
,,,-6.32500000e-009,-7.34375797e-005
,,,-6.30000000e-009,-9.53125813e-005
,,,-6.27500000e-009,-1.04687582e-004
,,,-6.25000000e-009,-1.00000082e-004
,,,-6.22500000e-009,-8.12500803e-005
,,,-6.20000000e-009,-4.68750778e-005
,,,-6.17500000e-009,-7.45058060e-011
,,,-6.15000000e-009,6.24999299e-005
,,,-6.12500000e-009,1.31249935e-004
,,,-6.10000000e-009,1.99999940e-004
,,,-6.07500000e-009,2.64062444e-004
,,,-6.05000000e-009,3.20312448e-004
,,,-6.02500000e-009,3.64062451e-004
,,,-6.00000000e-009,3.90624953e-004
,,,-5.97500000e-009,3.99999954e-004
,,,-5.95000000e-009,3.90624953e-004
,,,-5.92500000e-009,3.64062451e-004
,,,-5.90000000e-009,3.20312448e-004
,,,-5.87500000e-009,2.64062444e-004
,,,-5.85000000e-009,1.99999940e-004
,,,-5.82500000e-009,1.31249935e-004
,,,-5.80000000e-009,6.24999299e-005
,,,-5.77500000e-009,-7.45058060e-011
,,,-5.75000000e-009,-4.53125777e-005
,,,-5.72500000e-009,-7.65625799e-005
,,,-5.70000000e-009,-9.53125813e-005
,,,-5.67500000e-009,-9.84375815e-005
,,,-5.65000000e-009,-8.90625808e-005
,,,-5.62500000e-009,-6.87500794e-005
,,,-5.60000000e-009,-3.75000772e-005
,,,-5.57500000e-009,-7.45058060e-011
,,,-5.55000000e-009,4.99999290e-005
,,,-5.52500000e-009,1.01562433e-004
,,,-5.50000000e-009,1.56249937e-004
,,,-5.47500000e-009,2.09374940e-004
,,,-5.45000000e-009,2.62499944e-004
,,,-5.42500000e-009,3.12499948e-004
,,,-5.40000000e-009,3.59374951e-004
,,,-5.37500000e-009,3.99999954e-004
,,,-5.35000000e-009,4.35937456e-004
,,,-5.32500000e-009,4.64062458e-004
,,,-5.30000000e-009,4.82812460e-004
,,,-5.27500000e-009,4.89062460e-004
,,,-5.25000000e-009,4.84374960e-004
,,,-5.22500000e-009,4.67187459e-004
,,,-5.20000000e-009,4.39062457e-004
,,,-5.17500000e-009,3.99999954e-004
,,,-5.15000000e-009,3.57812451e-004
,,,-5.12500000e-009,3.17187448e-004
,,,-5.10000000e-009,2.84374946e-004
,,,-5.07500000e-009,2.64062444e-004
,,,-5.05000000e-009,2.62499944e-004
,,,-5.02500000e-009,2.82812446e-004
,,,-5.00000000e-009,3.29687449e-004
,,,-4.97500000e-009,3.99999954e-004
,,,-4.95000000e-009,4.96874961e-004
,,,-4.92500000e-009,6.09374969e-004
,,,-4.90000000e-009,7.32812477e-004
,,,-4.87500000e-009,8.56249986e-004
,,,-4.85000000e-009,9.73437494e-004
,,,-4.82500000e-009,1.07500000e-003
,,,-4.80000000e-009,1.15156251e-003
,,,-4.77500000e-009,1.20000001e-003
,,,-4.75000000e-009,1.21093751e-003
,,,-4.72500000e-009,1.19062501e-003
,,,-4.70000000e-009,1.14531251e-003
,,,-4.67500000e-009,1.08281250e-003
,,,-4.65000000e-009,1.00937500e-003
,,,-4.62500000e-009,9.32812492e-004
,,,-4.60000000e-009,8.60937486e-004
,,,-4.57500000e-009,7.99999982e-004
,,,-4.55000000e-009,7.53124979e-004
,,,-4.52500000e-009,7.24999977e-004
,,,-4.50000000e-009,7.15624976e-004
,,,-4.47500000e-009,7.20312476e-004
,,,-4.45000000e-009,7.35937478e-004
,,,-4.42500000e-009,7.57812479e-004
,,,-4.40000000e-009,7.81249981e-004
,,,-4.37500000e-009,7.99999982e-004
,,,-4.35000000e-009,8.10937483e-004
,,,-4.32500000e-009,8.12499983e-004
,,,-4.30000000e-009,8.09374983e-004
,,,-4.27500000e-009,8.03124982e-004
,,,-4.25000000e-009,7.95312482e-004
,,,-4.22500000e-009,7.90624981e-004
,,,-4.20000000e-009,7.92187482e-004
,,,-4.17500000e-009,7.99999982e-004
,,,-4.15000000e-009,8.14062483e-004
,,,-4.12500000e-009,8.31249984e-004
,,,-4.10000000e-009,8.49999986e-004
,,,-4.07500000e-009,8.65624987e-004
,,,-4.05000000e-009,8.71874987e-004
,,,-4.02500000e-009,8.65624987e-004
,,,-4.00000000e-009,8.42187485e-004
,,,-3.97500000e-009,7.99999982e-004
,,,-3.95000000e-009,7.42187478e-004
,,,-3.92500000e-009,6.73437473e-004
,,,-3.90000000e-009,5.98437468e-004
,,,-3.87500000e-009,5.26562463e-004
,,,-3.85000000e-009,4.65624958e-004
,,,-3.82500000e-009,4.20312455e-004
,,,-3.80000000e-009,3.98437454e-004
,,,-3.77500000e-009,3.99999954e-004
,,,-3.75000000e-009,4.32812456e-004
,,,-3.72500000e-009,4.85937460e-004
,,,-3.70000000e-009,5.53124965e-004
,,,-3.67500000e-009,6.24999970e-004
,,,-3.65000000e-009,6.93749975e-004
,,,-3.62500000e-009,7.49999979e-004
,,,-3.60000000e-009,7.87499981e-004
,,,-3.57500000e-009,7.99999982e-004
,,,-3.55000000e-009,7.85937481e-004
,,,-3.52500000e-009,7.46874978e-004
,,,-3.50000000e-009,6.87499974e-004
,,,-3.47500000e-009,6.18749969e-004
,,,-3.45000000e-009,5.45312464e-004
,,,-3.42500000e-009,4.79687459e-004
,,,-3.40000000e-009,4.29687456e-004
,,,-3.37500000e-009,3.99999954e-004
,,,-3.35000000e-009,3.99999954e-004
,,,-3.32500000e-009,4.26562456e-004
,,,-3.30000000e-009,4.73437459e-004
,,,-3.27500000e-009,5.35937463e-004
,,,-3.25000000e-009,6.07812469e-004
,,,-3.22500000e-009,6.79687474e-004
,,,-3.20000000e-009,7.46874978e-004
,,,-3.17500000e-009,7.99999982e-004
,,,-3.15000000e-009,8.37499985e-004
,,,-3.12500000e-009,8.54687486e-004
,,,-3.10000000e-009,8.57812486e-004
,,,-3.07500000e-009,8.48437486e-004
,,,-3.05000000e-009,8.32812484e-004
,,,-3.02500000e-009,8.17187483e-004
,,,-3.00000000e-009,8.04687482e-004
,,,-2.97500000e-009,7.99999982e-004
,,,-2.95000000e-009,8.03124982e-004
,,,-2.92500000e-009,8.12499983e-004
,,,-2.90000000e-009,8.28124984e-004
,,,-2.87500000e-009,8.42187485e-004
,,,-2.85000000e-009,8.49999986e-004
,,,-2.82500000e-009,8.48437486e-004
,,,-2.80000000e-009,8.32812484e-004
,,,-2.77500000e-009,7.99999982e-004
,,,-2.75000000e-009,7.46874978e-004
,,,-2.72500000e-009,6.81249974e-004
,,,-2.70000000e-009,6.09374969e-004
,,,-2.67500000e-009,5.37499964e-004
,,,-2.65000000e-009,4.74999959e-004
,,,-2.62500000e-009,4.26562456e-004
,,,-2.60000000e-009,4.01562454e-004
,,,-2.57500000e-009,3.99999954e-004
,,,-2.55000000e-009,4.26562456e-004
,,,-2.52500000e-009,4.74999959e-004
,,,-2.50000000e-009,5.37499964e-004
,,,-2.47500000e-009,6.09374969e-004
,,,-2.45000000e-009,6.79687474e-004
,,,-2.42500000e-009,7.39062478e-004
,,,-2.40000000e-009,7.81249981e-004
,,,-2.37500000e-009,7.99999982e-004
,,,-2.35000000e-009,7.93749982e-004
,,,-2.32500000e-009,7.62499979e-004
,,,-2.30000000e-009,7.10937476e-004
,,,-2.27500000e-009,6.46874971e-004
,,,-2.25000000e-009,5.76562466e-004
,,,-2.22500000e-009,5.07812461e-004
,,,-2.20000000e-009,4.46874957e-004
,,,-2.17500000e-009,3.99999954e-004
,,,-2.15000000e-009,3.74999952e-004
,,,-2.12500000e-009,3.65624951e-004
,,,-2.10000000e-009,3.70312452e-004
,,,-2.07500000e-009,3.84374953e-004
,,,-2.05000000e-009,3.99999954e-004
,,,-2.02500000e-009,4.10937455e-004
,,,-2.00000000e-009,4.12499955e-004
,,,-1.97500000e-009,3.99999954e-004
,,,-1.95000000e-009,3.71874952e-004
,,,-1.92500000e-009,3.26562449e-004
,,,-1.90000000e-009,2.68749945e-004
,,,-1.87500000e-009,2.03124940e-004
,,,-1.85000000e-009,1.35937435e-004
,,,-1.82500000e-009,7.65624309e-005
,,,-1.80000000e-009,2.96874276e-005
,,,-1.77500000e-009,-7.45058060e-011
,,,-1.75000000e-009,-4.68757484e-006
,,,-1.72500000e-009,1.09374263e-005
,,,-1.70000000e-009,4.68749288e-005
,,,-1.67500000e-009,9.99999326e-005
,,,-1.65000000e-009,1.67187437e-004
,,,-1.62500000e-009,2.42187443e-004
,,,-1.60000000e-009,3.21874948e-004
,,,-1.57500000e-009,3.99999954e-004
,,,-1.55000000e-009,4.70312459e-004
,,,-1.52500000e-009,5.31249963e-004
,,,-1.50000000e-009,5.84374967e-004
,,,-1.47500000e-009,6.32812470e-004
,,,-1.45000000e-009,6.76562473e-004
,,,-1.42500000e-009,7.18749976e-004
,,,-1.40000000e-009,7.59374979e-004
,,,-1.37500000e-009,7.99999982e-004
,,,-1.35000000e-009,8.24999984e-004
,,,-1.32500000e-009,8.45312485e-004
,,,-1.30000000e-009,8.60937486e-004
,,,-1.27500000e-009,8.68749987e-004
,,,-1.25000000e-009,8.68749987e-004
,,,-1.22500000e-009,8.57812486e-004
,,,-1.20000000e-009,8.35937485e-004
,,,-1.17500000e-009,7.99999982e-004
,,,-1.15000000e-009,7.28124977e-004
,,,-1.12500000e-009,6.39062471e-004
,,,-1.10000000e-009,5.39062464e-004
,,,-1.07500000e-009,4.29687456e-004
,,,-1.05000000e-009,3.15624948e-004
,,,-1.02500000e-009,2.04687440e-004
,,,-1.00000000e-009,9.84374325e-005
,,,-9.75000000e-010,-7.45058060e-011
,,,-9.50000000e-010,-1.06250082e-004
,,,-9.25000000e-010,-2.01562589e-004
,,,-9.00000000e-010,-2.81250094e-004
,,,-8.75000000e-010,-3.43750099e-004
,,,-8.50000000e-010,-3.84375102e-004
,,,-8.25000000e-010,-4.06250103e-004
,,,-8.00000000e-010,-4.09375103e-004
,,,-7.75000000e-010,-4.00000103e-004
,,,-7.50000000e-010,-4.06250103e-004
,,,-7.25000000e-010,-4.15625104e-004
,,,-7.00000000e-010,-4.34375105e-004
,,,-6.75000000e-010,-4.67187608e-004
,,,-6.50000000e-010,-5.15625111e-004
,,,-6.25000000e-010,-5.85937616e-004
,,,-6.00000000e-010,-6.79687623e-004
,,,-5.75000000e-010,-8.00000131e-004
,,,-5.50000000e-010,-9.67187643e-004
,,,-5.25000000e-010,-1.15937516e-003
,,,-5.00000000e-010,-1.37031267e-003
,,,-4.75000000e-010,-1.58906269e-003
,,,-4.50000000e-010,-1.80937520e-003
,,,-4.25000000e-010,-2.02187522e-003
,,,-4.00000000e-010,-2.22031273e-003
,,,-3.75000000e-010,-2.40000024e-003
,,,-3.50000000e-010,-2.57031276e-003
,,,-3.25000000e-010,-2.72812527e-003
,,,-3.00000000e-010,-2.87500028e-003
,,,-2.75000000e-010,-3.01406279e-003
,,,-2.50000000e-010,-3.15312530e-003
,,,-2.25000000e-010,-3.29375031e-003
,,,-2.00000000e-010,-3.44062532e-003
,,,-1.75000000e-010,-3.60000033e-003
,,,-1.50000000e-010,-3.77187534e-003
,,,-1.25000000e-010,-3.96250035e-003
,,,-1.00000000e-010,-4.16718787e-003
,,,-7.50000000e-011,-4.38281288e-003
,,,-5.00000000e-011,-4.60156290e-003
,,,-2.50000000e-011,-4.81562542e-003
,,,0.00000000e+000,-5.01718793e-003
,,,2.50000000e-011,-5.20000044e-003
,,,5.00000000e-011,-5.34843795e-003
,,,7.50000000e-011,-5.47812546e-003
,,,1.00000000e-010,-5.59218797e-003
,,,1.25000000e-010,-5.69062548e-003
,,,1.50000000e-010,-5.77812548e-003
,,,1.75000000e-010,-5.85468799e-003
,,,2.00000000e-010,-5.92812549e-003
,,,2.25000000e-010,-6.00000050e-003
,,,2.50000000e-010,-6.05468800e-003
,,,2.75000000e-010,-6.12343801e-003
,,,3.00000000e-010,-6.20625051e-003
,,,3.25000000e-010,-6.30312552e-003
,,,3.50000000e-010,-6.41406303e-003
,,,3.75000000e-010,-6.53593804e-003
,,,4.00000000e-010,-6.66562555e-003
,,,4.25000000e-010,-6.80000056e-003
,,,4.50000000e-010,-6.90312556e-003
,,,4.75000000e-010,-7.00937557e-003
,,,5.00000000e-010,-7.11718808e-003
,,,5.25000000e-010,-7.22343809e-003
,,,5.50000000e-010,-7.32812559e-003
,,,5.75000000e-010,-7.42812560e-003
,,,6.00000000e-010,-7.51875061e-003
,,,6.25000000e-010,-7.60000061e-003
,,,6.50000000e-010,-7.63125061e-003
,,,6.75000000e-010,-7.65156312e-003
,,,7.00000000e-010,-7.66250062e-003
,,,7.25000000e-010,-7.66562562e-003
,,,7.50000000e-010,-7.65937562e-003
,,,7.75000000e-010,-7.64687562e-003
,,,8.00000000e-010,-7.62656311e-003
,,,8.25000000e-010,-7.60000061e-003
,,,8.50000000e-010,-7.53125061e-003
,,,8.75000000e-010,-7.46093810e-003
,,,9.00000000e-010,-7.39531310e-003
,,,9.25000000e-010,-7.33437559e-003
,,,9.50000000e-010,-7.28437559e-003
,,,9.75000000e-010,-7.24531309e-003
,,,1.00000000e-009,-7.21718809e-003
,,,1.02500000e-009,-7.20000058e-003
,,,1.05000000e-009,-7.15625058e-003
,,,1.07500000e-009,-7.11718808e-003
,,,1.10000000e-009,-7.07812558e-003
,,,1.12500000e-009,-7.03750057e-003
,,,1.15000000e-009,-6.99218807e-003
,,,1.17500000e-009,-6.93906307e-003
,,,1.20000000e-009,-6.87656306e-003
,,,1.22500000e-009,-6.80000056e-003
,,,1.25000000e-009,-6.68125055e-003
,,,1.27500000e-009,-6.54687554e-003
,,,1.30000000e-009,-6.40000053e-003
,,,1.32500000e-009,-6.24375052e-003
,,,1.35000000e-009,-6.08125050e-003
,,,1.37500000e-009,-5.91718799e-003
,,,1.40000000e-009,-5.75625048e-003
,,,1.42500000e-009,-5.60000047e-003
,,,1.45000000e-009,-5.42968796e-003
,,,1.47500000e-009,-5.26250045e-003
,,,1.50000000e-009,-5.10156294e-003
,,,1.52500000e-009,-4.94843792e-003
,,,1.55000000e-009,-4.80156291e-003
,,,1.57500000e-009,-4.66093790e-003
,,,1.60000000e-009,-4.52812540e-003
,,,1.62500000e-009,-4.40000039e-003
,,,1.65000000e-009,-4.26562538e-003
,,,1.67500000e-009,-4.12812537e-003
,,,1.70000000e-009,-3.98281286e-003
,,,1.72500000e-009,-3.83125035e-003
,,,1.75000000e-009,-3.67500033e-003
,,,1.77500000e-009,-3.51562532e-003
,,,1.80000000e-009,-3.35625031e-003
,,,1.82500000e-009,-3.20000030e-003
,,,1.85000000e-009,-3.05000029e-003
,,,1.87500000e-009,-2.90781278e-003
,,,1.90000000e-009,-2.77343777e-003
,,,1.92500000e-009,-2.65468776e-003
,,,1.95000000e-009,-2.55468776e-003
,,,1.97500000e-009,-2.47812525e-003
,,,2.00000000e-009,-2.42812525e-003
,,,2.02500000e-009,-2.40000024e-003
,,,2.05000000e-009,-2.39687524e-003
,,,2.07500000e-009,-2.39687524e-003
,,,2.10000000e-009,-2.39062524e-003
,,,2.12500000e-009,-2.37031274e-003
,,,2.15000000e-009,-2.32656274e-003
,,,2.17500000e-009,-2.25156273e-003
,,,2.20000000e-009,-2.14375023e-003
,,,2.22500000e-009,-2.00000022e-003
,,,2.25000000e-009,-1.82812520e-003
,,,2.27500000e-009,-1.62500019e-003
,,,2.30000000e-009,-1.40000017e-003
,,,2.32500000e-009,-1.16406266e-003
,,,2.35000000e-009,-9.32812641e-004
,,,2.37500000e-009,-7.20312625e-004
,,,2.40000000e-009,-5.39062613e-004
,,,2.42500000e-009,-4.00000103e-004
,,,2.45000000e-009,-3.23437597e-004
,,,2.47500000e-009,-2.85937595e-004
,,,2.50000000e-009,-2.81250094e-004
,,,2.52500000e-009,-2.98437596e-004
,,,2.55000000e-009,-3.29687598e-004
,,,2.57500000e-009,-3.62500100e-004
,,,2.60000000e-009,-3.89062602e-004
,,,2.62500000e-009,-4.00000103e-004
,,,2.65000000e-009,-4.01562603e-004
,,,2.67500000e-009,-3.76562601e-004
,,,2.70000000e-009,-3.28125098e-004
,,,2.72500000e-009,-2.60937593e-004
,,,2.75000000e-009,-1.85937588e-004
,,,2.77500000e-009,-1.12500082e-004
,,,2.80000000e-009,-4.68750778e-005
,,,2.82500000e-009,-7.45058060e-011
,,,2.85000000e-009,2.03124269e-005
,,,2.87500000e-009,2.49999273e-005
,,,2.90000000e-009,1.71874267e-005
,,,2.92500000e-009,1.56242560e-006
,,,2.95000000e-009,-1.25000754e-005
,,,2.97500000e-009,-2.18750761e-005
,,,3.00000000e-009,-1.87500758e-005
,,,3.02500000e-009,-7.45058060e-011
,,,3.05000000e-009,3.12499277e-005
,,,3.07500000e-009,7.96874311e-005
,,,3.10000000e-009,1.42187436e-004
,,,3.12500000e-009,2.12499941e-004
,,,3.15000000e-009,2.81249945e-004
,,,3.17500000e-009,3.40624950e-004
,,,3.20000000e-009,3.82812453e-004
,,,3.22500000e-009,3.99999954e-004
,,,3.25000000e-009,3.84374953e-004
,,,3.27500000e-009,3.46874950e-004
,,,3.30000000e-009,2.92187446e-004
,,,3.32500000e-009,2.26562442e-004
,,,3.35000000e-009,1.57812437e-004
,,,3.37500000e-009,9.21874320e-005
,,,3.40000000e-009,3.74999281e-005
,,,3.42500000e-009,-7.45058060e-011
,,,3.45000000e-009,-1.25000754e-005
,,,3.47500000e-009,-7.45058060e-011
,,,3.50000000e-009,3.43749279e-005
,,,3.52500000e-009,8.90624318e-005
,,,3.55000000e-009,1.59374937e-004
,,,3.57500000e-009,2.37499942e-004
,,,3.60000000e-009,3.20312448e-004
,,,3.62500000e-009,3.99999954e-004
,,,3.65000000e-009,4.74999959e-004
,,,3.67500000e-009,5.40624964e-004
,,,3.70000000e-009,5.98437468e-004
,,,3.72500000e-009,6.48437471e-004
,,,3.75000000e-009,6.92187474e-004
,,,3.77500000e-009,7.31249977e-004
,,,3.80000000e-009,7.67187480e-004
,,,3.82500000e-009,7.99999982e-004
,,,3.85000000e-009,8.29687484e-004
,,,3.87500000e-009,8.56249986e-004
,,,3.90000000e-009,8.74999987e-004
,,,3.92500000e-009,8.87499988e-004
,,,3.95000000e-009,8.89062488e-004
,,,3.97500000e-009,8.74999987e-004
,,,4.00000000e-009,8.45312485e-004
,,,4.02500000e-009,7.99999982e-004
,,,4.05000000e-009,7.39062478e-004
,,,4.07500000e-009,6.70312473e-004
,,,4.10000000e-009,5.96874968e-004
,,,4.12500000e-009,5.29687463e-004
,,,4.15000000e-009,4.70312459e-004
,,,4.17500000e-009,4.26562456e-004
,,,4.20000000e-009,4.03124954e-004
,,,4.22500000e-009,3.99999954e-004
,,,4.25000000e-009,4.23437455e-004
,,,4.27500000e-009,4.65624958e-004
,,,4.30000000e-009,5.21874962e-004
,,,4.32500000e-009,5.87499967e-004
,,,4.35000000e-009,6.54687472e-004
,,,4.37500000e-009,7.15624976e-004
,,,4.40000000e-009,7.65624980e-004
,,,4.42500000e-009,7.99999982e-004
,,,4.45000000e-009,8.17187483e-004
,,,4.47500000e-009,8.17187483e-004
,,,4.50000000e-009,8.07812483e-004
,,,4.52500000e-009,7.93749982e-004
,,,4.55000000e-009,7.81249981e-004
,,,4.57500000e-009,7.73437480e-004
,,,4.60000000e-009,7.79687481e-004
,,,4.62500000e-009,7.99999982e-004
,,,4.65000000e-009,8.35937485e-004
,,,4.67500000e-009,8.87499988e-004
,,,4.70000000e-009,9.48437493e-004
,,,4.72500000e-009,1.01562500e-003
,,,4.75000000e-009,1.08125000e-003
,,,4.77500000e-009,1.13750001e-003
,,,4.80000000e-009,1.17968751e-003
,,,4.82500000e-009,1.20000001e-003
,,,4.85000000e-009,1.19375001e-003
,,,4.87500000e-009,1.16562501e-003
,,,4.90000000e-009,1.11875000e-003
,,,4.92500000e-009,1.05625000e-003
,,,4.95000000e-009,9.87499995e-004
,,,4.97500000e-009,9.18749991e-004
,,,5.00000000e-009,8.54687486e-004
,,,5.02500000e-009,7.99999982e-004
,,,5.05000000e-009,7.64062480e-004
,,,5.07500000e-009,7.43749978e-004
,,,5.10000000e-009,7.37499978e-004
,,,5.12500000e-009,7.43749978e-004
,,,5.15000000e-009,7.57812479e-004
,,,5.17500000e-009,7.74999980e-004
,,,5.20000000e-009,7.90624981e-004
,,,5.22500000e-009,7.99999982e-004
,,,5.25000000e-009,8.06249983e-004
,,,5.27500000e-009,8.04687482e-004
,,,5.30000000e-009,7.99999982e-004
,,,5.32500000e-009,7.92187482e-004
,,,5.35000000e-009,7.85937481e-004
,,,5.37500000e-009,7.84374981e-004
,,,5.40000000e-009,7.89062481e-004
,,,5.42500000e-009,7.99999982e-004
,,,5.45000000e-009,8.18749983e-004
,,,5.47500000e-009,8.39062485e-004
,,,5.50000000e-009,8.59374986e-004
,,,5.52500000e-009,8.74999987e-004
,,,5.55000000e-009,8.79687488e-004
,,,5.57500000e-009,8.70312487e-004
,,,5.60000000e-009,8.45312485e-004
,,,5.62500000e-009,7.99999982e-004
,,,5.65000000e-009,7.39062478e-004
,,,5.67500000e-009,6.65624973e-004
,,,5.70000000e-009,5.89062467e-004
,,,5.72500000e-009,5.14062462e-004
,,,5.75000000e-009,4.49999957e-004
,,,5.77500000e-009,4.06249954e-004
,,,5.80000000e-009,3.89062453e-004
,,,5.82500000e-009,3.99999954e-004
,,,5.85000000e-009,4.51562457e-004
,,,5.87500000e-009,5.31249963e-004
,,,5.90000000e-009,6.32812470e-004
,,,5.92500000e-009,7.51562479e-004
,,,5.95000000e-009,8.74999987e-004
,,,5.97500000e-009,9.96874996e-004
,,,6.00000000e-009,1.10781250e-003
,,,6.02500000e-009,1.20000001e-003
,,,6.05000000e-009,1.26718752e-003
,,,6.07500000e-009,1.30781252e-003
