RawData/SinglePhotoelectron/R2_2pt2D_5mV/wave005_Ch4.csv

"Record Length",1000,"Points",-7.72500000e-009,7.01562475e-004
"Sample Interval",2.50000000e-011,s,-7.70000000e-009,7.51562479e-004
"Trigger Point",309,"Samples",-7.67500000e-009,7.85937481e-004
"Trigger Time",2.02886567e-011,s,-7.65000000e-009,7.99999982e-004
"",,,-7.62500000e-009,7.93749982e-004
"Horizontal Offset",-7.72500000e-009,s,-7.60000000e-009,7.67187480e-004
,,,-7.57500000e-009,7.21874977e-004
,,,-7.55000000e-009,6.62499972e-004
,,,-7.52500000e-009,5.95312468e-004
,,,-7.50000000e-009,5.24999963e-004
,,,-7.47500000e-009,4.59374958e-004
,,,-7.45000000e-009,3.99999954e-004
,,,-7.42500000e-009,3.59374951e-004
,,,-7.40000000e-009,3.31249949e-004
,,,-7.37500000e-009,3.18749948e-004
,,,-7.35000000e-009,3.20312448e-004
,,,-7.32500000e-009,3.32812449e-004
,,,-7.30000000e-009,3.53124950e-004
,,,-7.27500000e-009,3.76562452e-004
,,,-7.25000000e-009,3.99999954e-004
,,,-7.22500000e-009,4.24999956e-004
,,,-7.20000000e-009,4.42187457e-004
,,,-7.17500000e-009,4.54687458e-004
,,,-7.15000000e-009,4.57812458e-004
,,,-7.12500000e-009,4.53124958e-004
,,,-7.10000000e-009,4.40624957e-004
,,,-7.07500000e-009,4.21874955e-004
,,,-7.05000000e-009,3.99999954e-004
,,,-7.02500000e-009,3.79687452e-004
,,,-7.00000000e-009,3.60937451e-004
,,,-6.97500000e-009,3.45312450e-004
,,,-6.95000000e-009,3.37499949e-004
,,,-6.92500000e-009,3.37499949e-004
,,,-6.90000000e-009,3.48437450e-004
,,,-6.87500000e-009,3.68749952e-004
,,,-6.85000000e-009,3.99999954e-004
,,,-6.82500000e-009,4.42187457e-004
,,,-6.80000000e-009,4.90624960e-004
,,,-6.77500000e-009,5.43749964e-004
,,,-6.75000000e-009,5.99999968e-004
,,,-6.72500000e-009,6.57812472e-004
,,,-6.70000000e-009,7.10937476e-004
,,,-6.67500000e-009,7.59374979e-004
,,,-6.65000000e-009,7.99999982e-004
,,,-6.62500000e-009,8.32812484e-004
,,,-6.60000000e-009,8.53124986e-004
,,,-6.57500000e-009,8.64062487e-004
,,,-6.55000000e-009,8.64062487e-004
,,,-6.52500000e-009,8.56249986e-004
,,,-6.50000000e-009,8.40624985e-004
,,,-6.47500000e-009,8.21874984e-004
,,,-6.45000000e-009,7.99999982e-004
,,,-6.42500000e-009,7.79687481e-004
,,,-6.40000000e-009,7.60937479e-004
,,,-6.37500000e-009,7.48437478e-004
,,,-6.35000000e-009,7.43749978e-004
,,,-6.32500000e-009,7.46874978e-004
,,,-6.30000000e-009,7.59374979e-004
,,,-6.27500000e-009,7.76562480e-004
,,,-6.25000000e-009,7.99999982e-004
,,,-6.22500000e-009,8.23437484e-004
,,,-6.20000000e-009,8.45312485e-004
,,,-6.17500000e-009,8.64062487e-004
,,,-6.15000000e-009,8.74999987e-004
,,,-6.12500000e-009,8.74999987e-004
,,,-6.10000000e-009,8.64062487e-004
,,,-6.07500000e-009,8.39062485e-004
,,,-6.05000000e-009,7.99999982e-004
,,,-6.02500000e-009,7.46874978e-004
,,,-6.00000000e-009,6.85937474e-004
,,,-5.97500000e-009,6.20312469e-004
,,,-5.95000000e-009,5.54687465e-004
,,,-5.92500000e-009,4.95312461e-004
,,,-5.90000000e-009,4.48437457e-004
,,,-5.87500000e-009,4.15624955e-004
,,,-5.85000000e-009,3.99999954e-004
,,,-5.82500000e-009,4.04687454e-004
,,,-5.80000000e-009,4.26562456e-004
,,,-5.77500000e-009,4.67187459e-004
,,,-5.75000000e-009,5.21874962e-004
,,,-5.72500000e-009,5.87499967e-004
,,,-5.70000000e-009,6.59374972e-004
,,,-5.67500000e-009,7.32812477e-004
,,,-5.65000000e-009,7.99999982e-004
,,,-5.62500000e-009,8.56249986e-004
,,,-5.60000000e-009,8.96874989e-004
,,,-5.57500000e-009,9.21874991e-004
,,,-5.55000000e-009,9.28124991e-004
,,,-5.52500000e-009,9.18749991e-004
,,,-5.50000000e-009,8.92187489e-004
,,,-5.47500000e-009,8.53124986e-004
,,,-5.45000000e-009,7.99999982e-004
,,,-5.42500000e-009,7.37499978e-004
,,,-5.40000000e-009,6.71874973e-004
,,,-5.37500000e-009,6.04687468e-004
,,,-5.35000000e-009,5.43749964e-004
,,,-5.32500000e-009,4.90624960e-004
,,,-5.30000000e-009,4.48437457e-004
,,,-5.27500000e-009,4.18749955e-004
,,,-5.25000000e-009,3.99999954e-004
,,,-5.22500000e-009,3.95312453e-004
,,,-5.20000000e-009,3.96874954e-004
,,,-5.17500000e-009,4.06249954e-004
,,,-5.15000000e-009,4.15624955e-004
,,,-5.12500000e-009,4.23437455e-004
,,,-5.10000000e-009,4.26562456e-004
,,,-5.07500000e-009,4.18749955e-004
,,,-5.05000000e-009,3.99999954e-004
,,,-5.02500000e-009,3.70312452e-004
,,,-5.00000000e-009,3.28124949e-004
,,,-4.97500000e-009,2.76562445e-004
,,,-4.95000000e-009,2.18749941e-004
,,,-4.92500000e-009,1.57812437e-004
,,,-4.90000000e-009,9.84374325e-005
,,,-4.87500000e-009,4.53124287e-005
,,,-4.85000000e-009,-7.45058060e-011
,,,-4.82500000e-009,-2.65625764e-005
,,,-4.80000000e-009,-4.21875775e-005
,,,-4.77500000e-009,-4.68750778e-005
,,,-4.75000000e-009,-4.21875775e-005
,,,-4.72500000e-009,-3.12500767e-005
,,,-4.70000000e-009,-1.87500758e-005
,,,-4.67500000e-009,-7.81257506e-006
,,,-4.65000000e-009,-7.45058060e-011
,,,-4.62500000e-009,1.40624265e-005
,,,-4.60000000e-009,2.18749270e-005
,,,-4.57500000e-009,2.34374272e-005
,,,-4.55000000e-009,2.18749270e-005
,,,-4.52500000e-009,1.71874267e-005
,,,-4.50000000e-009,1.09374263e-005
,,,-4.47500000e-009,4.68742583e-006
,,,-4.45000000e-009,-7.45058060e-011
,,,-4.42500000e-009,6.24992594e-006
,,,-4.40000000e-009,1.24999264e-005
,,,-4.37500000e-009,2.03124269e-005
,,,-4.35000000e-009,2.49999273e-005
,,,-4.32500000e-009,2.65624274e-005
,,,-4.30000000e-009,2.34374272e-005
,,,-4.27500000e-009,1.56249266e-005
,,,-4.25000000e-009,-7.45058060e-011
,,,-4.22500000e-009,-1.25000754e-005
,,,-4.20000000e-009,-2.81250765e-005
,,,-4.17500000e-009,-4.37500776e-005
,,,-4.15000000e-009,-5.46875784e-005
,,,-4.12500000e-009,-5.93750787e-005
,,,-4.10000000e-009,-5.46875784e-005
,,,-4.07500000e-009,-3.43750769e-005
,,,-4.05000000e-009,-7.45058060e-011
,,,-4.02500000e-009,5.46874294e-005
,,,-4.00000000e-009,1.26562434e-004
,,,-3.97500000e-009,2.14062441e-004
,,,-3.95000000e-009,3.15624948e-004
,,,-3.92500000e-009,4.28124956e-004
,,,-3.90000000e-009,5.49999964e-004
,,,-3.87500000e-009,6.74999973e-004
,,,-3.85000000e-009,7.99999982e-004
,,,-3.82500000e-009,9.12499990e-004
,,,-3.80000000e-009,1.01250000e-003
,,,-3.77500000e-009,1.09687500e-003
,,,-3.75000000e-009,1.16093751e-003
,,,-3.72500000e-009,1.20468751e-003
,,,-3.70000000e-009,1.22500001e-003
,,,-3.67500000e-009,1.22343751e-003
,,,-3.65000000e-009,1.20000001e-003
,,,-3.62500000e-009,1.15156251e-003
,,,-3.60000000e-009,1.09062500e-003
,,,-3.57500000e-009,1.02500000e-003
,,,-3.55000000e-009,9.59374993e-004
,,,-3.52500000e-009,8.99999989e-004
,,,-3.50000000e-009,8.51562486e-004
,,,-3.47500000e-009,8.18749983e-004
,,,-3.45000000e-009,7.99999982e-004
,,,-3.42500000e-009,7.93749982e-004
,,,-3.40000000e-009,7.99999982e-004
,,,-3.37500000e-009,8.15624983e-004
,,,-3.35000000e-009,8.32812484e-004
,,,-3.32500000e-009,8.46874985e-004
,,,-3.30000000e-009,8.49999986e-004
,,,-3.27500000e-009,8.35937485e-004
,,,-3.25000000e-009,7.99999982e-004
,,,-3.22500000e-009,7.39062478e-004
,,,-3.20000000e-009,6.56249972e-004
,,,-3.17500000e-009,5.56249965e-004
,,,-3.15000000e-009,4.43749957e-004
,,,-3.12500000e-009,3.24999948e-004
,,,-3.10000000e-009,2.07812440e-004
,,,-3.07500000e-009,9.68749324e-005
,,,-3.05000000e-009,-7.45058060e-011
,,,-3.02500000e-009,-7.50000798e-005
,,,-3.00000000e-009,-1.26562583e-004
,,,-2.97500000e-009,-1.53125085e-004
,,,-2.95000000e-009,-1.57812586e-004
,,,-2.92500000e-009,-1.40625084e-004
,,,-2.90000000e-009,-1.06250082e-004
,,,-2.87500000e-009,-5.78125786e-005
,,,-2.85000000e-009,-7.45058060e-011
,,,-2.82500000e-009,6.87499304e-005
,,,-2.80000000e-009,1.35937435e-004
,,,-2.77500000e-009,1.98437440e-004
,,,-2.75000000e-009,2.56249944e-004
,,,-2.72500000e-009,3.04687447e-004
,,,-2.70000000e-009,3.45312450e-004
,,,-2.67500000e-009,3.76562452e-004
,,,-2.65000000e-009,3.99999954e-004
,,,-2.62500000e-009,4.18749955e-004
,,,-2.60000000e-009,4.29687456e-004
,,,-2.57500000e-009,4.32812456e-004
,,,-2.55000000e-009,4.31249956e-004
,,,-2.52500000e-009,4.26562456e-004
,,,-2.50000000e-009,4.17187455e-004
,,,-2.47500000e-009,4.09374954e-004
,,,-2.45000000e-009,3.99999954e-004
,,,-2.42500000e-009,3.95312453e-004
,,,-2.40000000e-009,3.92187453e-004
,,,-2.37500000e-009,3.90624953e-004
,,,-2.35000000e-009,3.90624953e-004
,,,-2.32500000e-009,3.92187453e-004
,,,-2.30000000e-009,3.93749953e-004
,,,-2.27500000e-009,3.96874954e-004
,,,-2.25000000e-009,3.99999954e-004
,,,-2.22500000e-009,4.06249954e-004
,,,-2.20000000e-009,4.12499955e-004
,,,-2.17500000e-009,4.15624955e-004
,,,-2.15000000e-009,4.15624955e-004
,,,-2.12500000e-009,4.15624955e-004
,,,-2.10000000e-009,4.12499955e-004
,,,-2.07500000e-009,4.06249954e-004
,,,-2.05000000e-009,3.99999954e-004
,,,-2.02500000e-009,3.90624953e-004
,,,-2.00000000e-009,3.82812453e-004
,,,-1.97500000e-009,3.74999952e-004
,,,-1.95000000e-009,3.71874952e-004
,,,-1.92500000e-009,3.71874952e-004
,,,-1.90000000e-009,3.78124952e-004
,,,-1.87500000e-009,3.87499953e-004
,,,-1.85000000e-009,3.99999954e-004
,,,-1.82500000e-009,4.12499955e-004
,,,-1.80000000e-009,4.24999956e-004
,,,-1.77500000e-009,4.35937456e-004
,,,-1.75000000e-009,4.42187457e-004
,,,-1.72500000e-009,4.42187457e-004
,,,-1.70000000e-009,4.35937456e-004
,,,-1.67500000e-009,4.21874955e-004
,,,-1.65000000e-009,3.99999954e-004
,,,-1.62500000e-009,3.65624951e-004
,,,-1.60000000e-009,3.29687449e-004
,,,-1.57500000e-009,2.98437447e-004
,,,-1.55000000e-009,2.78124945e-004
,,,-1.52500000e-009,2.73437445e-004
,,,-1.50000000e-009,2.92187446e-004
,,,-1.47500000e-009,3.34374949e-004
,,,-1.45000000e-009,3.99999954e-004
,,,-1.42500000e-009,4.73437459e-004
,,,-1.40000000e-009,5.54687465e-004
,,,-1.37500000e-009,6.39062471e-004
,,,-1.35000000e-009,7.17187476e-004
,,,-1.32500000e-009,7.78124981e-004
,,,-1.30000000e-009,8.17187483e-004
,,,-1.27500000e-009,8.24999984e-004
,,,-1.25000000e-009,7.99999982e-004
,,,-1.22500000e-009,7.18749976e-004
,,,-1.20000000e-009,6.07812469e-004
,,,-1.17500000e-009,4.76562459e-004
,,,-1.15000000e-009,3.42187450e-004
,,,-1.12500000e-009,2.15624941e-004
,,,-1.10000000e-009,1.10937433e-004
,,,-1.07500000e-009,3.74999281e-005
,,,-1.05000000e-009,-7.45058060e-011
,,,-1.02500000e-009,-2.03125759e-005
,,,-1.00000000e-009,-1.40625755e-005
,,,-9.75000000e-010,1.09374263e-005
,,,-9.50000000e-010,4.37499286e-005
,,,-9.25000000e-010,7.18749306e-005
,,,-9.00000000e-010,8.12499312e-005
,,,-8.75000000e-010,6.09374298e-005
,,,-8.50000000e-010,-7.45058060e-011
,,,-8.25000000e-010,-1.32812584e-004
,,,-8.00000000e-010,-3.12500097e-004
,,,-7.75000000e-010,-5.26562612e-004
,,,-7.50000000e-010,-7.60937628e-004
,,,-7.25000000e-010,-1.00000015e-003
,,,-7.00000000e-010,-1.22656266e-003
,,,-6.75000000e-010,-1.42968768e-003
,,,-6.50000000e-010,-1.60000019e-003
,,,-6.25000000e-010,-1.75312520e-003
,,,-6.00000000e-010,-1.87500021e-003
,,,-5.75000000e-010,-1.97031271e-003
,,,-5.50000000e-010,-2.04843772e-003
,,,-5.25000000e-010,-2.12031272e-003
,,,-5.00000000e-010,-2.19687523e-003
,,,-4.75000000e-010,-2.28593774e-003
,,,-4.50000000e-010,-2.40000024e-003
,,,-4.25000000e-010,-2.55781276e-003
,,,-4.00000000e-010,-2.75000027e-003
,,,-3.75000000e-010,-2.96718778e-003
,,,-3.50000000e-010,-3.19843780e-003
,,,-3.25000000e-010,-3.42812532e-003
,,,-3.00000000e-010,-3.64687533e-003
,,,-2.75000000e-010,-3.83906285e-003
,,,-2.50000000e-010,-4.00000036e-003
,,,-2.25000000e-010,-4.12812537e-003
,,,-2.00000000e-010,-4.23125037e-003
,,,-1.75000000e-010,-4.31718788e-003
,,,-1.50000000e-010,-4.39218789e-003
,,,-1.25000000e-010,-4.46875039e-003
,,,-1.00000000e-010,-4.55468790e-003
,,,-7.50000000e-011,-4.66250040e-003
,,,-5.00000000e-011,-4.80000041e-003
,,,-2.50000000e-011,-4.96875043e-003
,,,0.00000000e+000,-5.17812544e-003
,,,2.50000000e-011,-5.42187546e-003
,,,5.00000000e-011,-5.69375048e-003
,,,7.50000000e-011,-5.97812550e-003
,,,1.00000000e-010,-6.26562552e-003
,,,1.25000000e-010,-6.54218804e-003
,,,1.50000000e-010,-6.80000056e-003
,,,1.75000000e-010,-7.00312557e-003
,,,2.00000000e-010,-7.18437558e-003
,,,2.25000000e-010,-7.34375059e-003
,,,2.50000000e-010,-7.48750060e-003
,,,2.75000000e-010,-7.61875061e-003
,,,3.00000000e-010,-7.74531312e-003
,,,3.25000000e-010,-7.87187563e-003
,,,3.50000000e-010,-8.00000064e-003
,,,3.75000000e-010,-8.10000065e-003
,,,4.00000000e-010,-8.20781316e-003
,,,4.25000000e-010,-8.32187566e-003
,,,4.50000000e-010,-8.43906317e-003
,,,4.75000000e-010,-8.55156318e-003
,,,5.00000000e-010,-8.65312569e-003
,,,5.25000000e-010,-8.73593819e-003
,,,5.50000000e-010,-8.80000070e-003
,,,5.75000000e-010,-8.79687570e-003
,,,6.00000000e-010,-8.78125070e-003
,,,6.25000000e-010,-8.75781319e-003
,,,6.50000000e-010,-8.73593819e-003
,,,6.75000000e-010,-8.72500069e-003
,,,7.00000000e-010,-8.72968819e-003
,,,7.25000000e-010,-8.75468819e-003
,,,7.50000000e-010,-8.80000070e-003
,,,7.75000000e-010,-8.82187570e-003
,,,8.00000000e-010,-8.85625070e-003
,,,8.25000000e-010,-8.89531320e-003
,,,8.50000000e-010,-8.92968821e-003
,,,8.75000000e-010,-8.94687571e-003
,,,9.00000000e-010,-8.93593821e-003
,,,9.25000000e-010,-8.88906320e-003
,,,9.50000000e-010,-8.80000070e-003
,,,9.75000000e-010,-8.62187568e-003
,,,1.00000000e-009,-8.41093817e-003
,,,1.02500000e-009,-8.17812565e-003
,,,1.05000000e-009,-7.93750064e-003
,,,1.07500000e-009,-7.70625062e-003
,,,1.10000000e-009,-7.49843811e-003
,,,1.12500000e-009,-7.32812559e-003
,,,1.15000000e-009,-7.20000058e-003
,,,1.17500000e-009,-7.08750058e-003
,,,1.20000000e-009,-7.01562557e-003
,,,1.22500000e-009,-6.97343807e-003
,,,1.25000000e-009,-6.95156307e-003
,,,1.27500000e-009,-6.93593807e-003
,,,1.30000000e-009,-6.91406306e-003
,,,1.32500000e-009,-6.87187556e-003
,,,1.35000000e-009,-6.80000056e-003
,,,1.37500000e-009,-6.66718805e-003
,,,1.40000000e-009,-6.49375053e-003
,,,1.42500000e-009,-6.28750052e-003
,,,1.45000000e-009,-6.05937550e-003
,,,1.47500000e-009,-5.82187549e-003
,,,1.50000000e-009,-5.59218797e-003
,,,1.52500000e-009,-5.38125046e-003
,,,1.55000000e-009,-5.20000044e-003
,,,1.57500000e-009,-5.04531293e-003
,,,1.60000000e-009,-4.91875042e-003
,,,1.62500000e-009,-4.81718792e-003
,,,1.65000000e-009,-4.73437541e-003
,,,1.67500000e-009,-4.65937540e-003
,,,1.70000000e-009,-4.58593790e-003
,,,1.72500000e-009,-4.50156289e-003
,,,1.75000000e-009,-4.40000039e-003
,,,1.77500000e-009,-4.26875038e-003
,,,1.80000000e-009,-4.10781287e-003
,,,1.82500000e-009,-3.91562535e-003
,,,1.85000000e-009,-3.70000034e-003
,,,1.87500000e-009,-3.47187532e-003
,,,1.90000000e-009,-3.23906280e-003
,,,1.92500000e-009,-3.01250029e-003
,,,1.95000000e-009,-2.80000027e-003
,,,1.97500000e-009,-2.61718776e-003
,,,2.00000000e-009,-2.45000025e-003
,,,2.02500000e-009,-2.29375024e-003
,,,2.05000000e-009,-2.14843773e-003
,,,2.07500000e-009,-2.00937522e-003
,,,2.10000000e-009,-1.87187521e-003
,,,2.12500000e-009,-1.73593770e-003
,,,2.15000000e-009,-1.60000019e-003
,,,2.17500000e-009,-1.47656268e-003
,,,2.20000000e-009,-1.34843767e-003
,,,2.22500000e-009,-1.22187516e-003
,,,2.25000000e-009,-1.09843765e-003
,,,2.27500000e-009,-9.89062645e-004
,,,2.30000000e-009,-9.00000138e-004
,,,2.32500000e-009,-8.35937634e-004
,,,2.35000000e-009,-8.00000131e-004
,,,2.37500000e-009,-8.07812632e-004
,,,2.40000000e-009,-8.31250133e-004
,,,2.42500000e-009,-8.59375135e-004
,,,2.45000000e-009,-8.82812637e-004
,,,2.47500000e-009,-8.96875138e-004
,,,2.50000000e-009,-8.89062637e-004
,,,2.52500000e-009,-8.57812635e-004
,,,2.55000000e-009,-8.00000131e-004
,,,2.57500000e-009,-7.25000126e-004
,,,2.60000000e-009,-6.23437619e-004
,,,2.62500000e-009,-5.01562610e-004
,,,2.65000000e-009,-3.70312601e-004
,,,2.67500000e-009,-2.43750092e-004
,,,2.70000000e-009,-1.32812584e-004
,,,2.72500000e-009,-4.84375779e-005
,,,2.75000000e-009,-7.45058060e-011
,,,2.77500000e-009,-4.68757484e-006
,,,2.80000000e-009,-3.90625773e-005
,,,2.82500000e-009,-9.84375815e-005
,,,2.85000000e-009,-1.70312587e-004
,,,2.87500000e-009,-2.46875092e-004
,,,2.90000000e-009,-3.15625097e-004
,,,2.92500000e-009,-3.68750101e-004
,,,2.95000000e-009,-4.00000103e-004
,,,2.97500000e-009,-4.07812603e-004
,,,3.00000000e-009,-3.85937602e-004
,,,3.02500000e-009,-3.37500098e-004
,,,3.05000000e-009,-2.68750094e-004
,,,3.07500000e-009,-1.92187588e-004
,,,3.10000000e-009,-1.15625083e-004
,,,3.12500000e-009,-5.00000780e-005
,,,3.15000000e-009,-7.45058060e-011
,,,3.17500000e-009,2.65624274e-005
,,,3.20000000e-009,3.28124278e-005
,,,3.22500000e-009,2.49999273e-005
,,,3.25000000e-009,9.37492616e-006
,,,3.27500000e-009,-7.81257506e-006
,,,3.30000000e-009,-1.87500758e-005
,,,3.32500000e-009,-1.71875757e-005
,,,3.35000000e-009,-7.45058060e-011
,,,3.37500000e-009,3.59374280e-005
,,,3.40000000e-009,8.90624318e-005
,,,3.42500000e-009,1.54687436e-004
,,,3.45000000e-009,2.26562442e-004
,,,3.47500000e-009,2.93749946e-004
,,,3.50000000e-009,3.49999950e-004
,,,3.52500000e-009,3.87499953e-004
,,,3.55000000e-009,3.99999954e-004
,,,3.57500000e-009,3.84374953e-004
,,,3.60000000e-009,3.46874950e-004
,,,3.62500000e-009,2.90624946e-004
,,,3.65000000e-009,2.23437441e-004
,,,3.67500000e-009,1.51562436e-004
,,,3.70000000e-009,8.74999317e-005
,,,3.72500000e-009,3.43749279e-005
,,,3.75000000e-009,-7.45058060e-011
,,,3.77500000e-009,-4.68757484e-006
,,,3.80000000e-009,1.24999264e-005
,,,3.82500000e-009,5.46874294e-005
,,,3.85000000e-009,1.14062434e-004
,,,3.87500000e-009,1.84374939e-004
,,,3.90000000e-009,2.60937444e-004
,,,3.92500000e-009,3.34374949e-004
,,,3.95000000e-009,3.99999954e-004
,,,3.97500000e-009,4.49999957e-004
,,,4.00000000e-009,4.82812460e-004
,,,4.02500000e-009,4.98437461e-004
,,,4.05000000e-009,4.98437461e-004
,,,4.07500000e-009,4.84374960e-004
,,,4.10000000e-009,4.62499958e-004
,,,4.12500000e-009,4.32812456e-004
,,,4.15000000e-009,3.99999954e-004
,,,4.17500000e-009,3.71874952e-004
,,,4.20000000e-009,3.48437450e-004
,,,4.22500000e-009,3.34374949e-004
,,,4.25000000e-009,3.29687449e-004
,,,4.27500000e-009,3.32812449e-004
,,,4.30000000e-009,3.46874950e-004
,,,4.32500000e-009,3.70312452e-004
,,,4.35000000e-009,3.99999954e-004
,,,4.37500000e-009,4.35937456e-004
,,,4.40000000e-009,4.78124959e-004
,,,4.42500000e-009,5.24999963e-004
,,,4.45000000e-009,5.76562466e-004
,,,4.47500000e-009,6.31249970e-004
,,,4.50000000e-009,6.89062474e-004
,,,4.52500000e-009,7.45312478e-004
,,,4.55000000e-009,7.99999982e-004
,,,4.57500000e-009,8.46874985e-004
,,,4.60000000e-009,8.84374988e-004
,,,4.62500000e-009,9.10937490e-004
,,,4.65000000e-009,9.21874991e-004
,,,4.67500000e-009,9.17187490e-004
,,,4.70000000e-009,8.95312489e-004
,,,4.72500000e-009,8.56249986e-004
,,,4.75000000e-009,7.99999982e-004
,,,4.77500000e-009,7.26562477e-004
,,,4.80000000e-009,6.46874971e-004
,,,4.82500000e-009,5.68749966e-004
,,,4.85000000e-009,4.98437461e-004
,,,4.87500000e-009,4.40624957e-004
,,,4.90000000e-009,4.04687454e-004
,,,4.92500000e-009,3.90624953e-004
,,,4.95000000e-009,3.99999954e-004
,,,4.97500000e-009,4.34374956e-004
,,,5.00000000e-009,4.87499960e-004
,,,5.02500000e-009,5.53124965e-004
,,,5.05000000e-009,6.24999970e-004
,,,5.07500000e-009,6.92187474e-004
,,,5.10000000e-009,7.48437478e-004
,,,5.12500000e-009,7.85937481e-004
,,,5.15000000e-009,7.99999982e-004
,,,5.17500000e-009,7.87499981e-004
,,,5.20000000e-009,7.51562479e-004
,,,5.22500000e-009,6.98437475e-004
,,,5.25000000e-009,6.32812470e-004
,,,5.27500000e-009,5.64062465e-004
,,,5.30000000e-009,4.98437461e-004
,,,5.32500000e-009,4.42187457e-004
,,,5.35000000e-009,3.99999954e-004
,,,5.37500000e-009,3.76562452e-004
,,,5.40000000e-009,3.70312452e-004
,,,5.42500000e-009,3.78124952e-004
,,,5.45000000e-009,3.92187453e-004
,,,5.47500000e-009,4.07812454e-004
,,,5.50000000e-009,4.18749955e-004
,,,5.52500000e-009,4.17187455e-004
,,,5.55000000e-009,3.99999954e-004
,,,5.57500000e-009,3.68749952e-004
,,,5.60000000e-009,3.20312448e-004
,,,5.62500000e-009,2.59374944e-004
,,,5.65000000e-009,1.92187439e-004
,,,5.67500000e-009,1.26562434e-004
,,,5.70000000e-009,6.71874302e-005
,,,5.72500000e-009,2.49999273e-005
,,,5.75000000e-009,-7.45058060e-011
,,,5.77500000e-009,4.68742583e-006
,,,5.80000000e-009,3.12499277e-005
,,,5.82500000e-009,7.81249310e-005
,,,5.85000000e-009,1.37499935e-004
,,,5.87500000e-009,2.06249940e-004
,,,5.90000000e-009,2.76562445e-004
,,,5.92500000e-009,3.43749950e-004
,,,5.95000000e-009,3.99999954e-004
,,,5.97500000e-009,4.43749957e-004
,,,6.00000000e-009,4.70312459e-004
,,,6.02500000e-009,4.81249960e-004
,,,6.05000000e-009,4.79687459e-004
