RawData/SinglePhotoelectron/R2_2pt2D_5mV/wave022_Ch4.csv

"Record Length",1000,"Points",-7.72500000e-009,8.09374983e-004
"Sample Interval",2.50000000e-011,s,-7.70000000e-009,8.14062483e-004
"Trigger Point",309,"Samples",-7.67500000e-009,8.15624983e-004
"Trigger Time",2.29995918e-011,s,-7.65000000e-009,8.15624983e-004
"",,,-7.62500000e-009,8.14062483e-004
"Horizontal Offset",-7.72500000e-009,s,-7.60000000e-009,8.09374983e-004
,,,-7.57500000e-009,8.04687482e-004
,,,-7.55000000e-009,7.99999982e-004
,,,-7.52500000e-009,7.96874982e-004
,,,-7.50000000e-009,7.95312482e-004
,,,-7.47500000e-009,7.93749982e-004
,,,-7.45000000e-009,7.93749982e-004
,,,-7.42500000e-009,7.95312482e-004
,,,-7.40000000e-009,7.96874982e-004
,,,-7.37500000e-009,7.98437482e-004
,,,-7.35000000e-009,7.99999982e-004
,,,-7.32500000e-009,8.03124982e-004
,,,-7.30000000e-009,8.04687482e-004
,,,-7.27500000e-009,8.06249983e-004
,,,-7.25000000e-009,8.07812483e-004
,,,-7.22500000e-009,8.07812483e-004
,,,-7.20000000e-009,8.06249983e-004
,,,-7.17500000e-009,8.04687482e-004
,,,-7.15000000e-009,7.99999982e-004
,,,-7.12500000e-009,7.96874982e-004
,,,-7.10000000e-009,7.92187482e-004
,,,-7.07500000e-009,7.87499981e-004
,,,-7.05000000e-009,7.85937481e-004
,,,-7.02500000e-009,7.85937481e-004
,,,-7.00000000e-009,7.87499981e-004
,,,-6.97500000e-009,7.92187482e-004
,,,-6.95000000e-009,7.99999982e-004
,,,-6.92500000e-009,8.10937483e-004
,,,-6.90000000e-009,8.20312484e-004
,,,-6.87500000e-009,8.28124984e-004
,,,-6.85000000e-009,8.32812484e-004
,,,-6.82500000e-009,8.34374985e-004
,,,-6.80000000e-009,8.28124984e-004
,,,-6.77500000e-009,8.17187483e-004
,,,-6.75000000e-009,7.99999982e-004
,,,-6.72500000e-009,7.81249981e-004
,,,-6.70000000e-009,7.59374979e-004
,,,-6.67500000e-009,7.40624978e-004
,,,-6.65000000e-009,7.29687477e-004
,,,-6.62500000e-009,7.26562477e-004
,,,-6.60000000e-009,7.35937478e-004
,,,-6.57500000e-009,7.60937479e-004
,,,-6.55000000e-009,7.99999982e-004
,,,-6.52500000e-009,8.54687486e-004
,,,-6.50000000e-009,9.18749991e-004
,,,-6.47500000e-009,9.87499995e-004
,,,-6.45000000e-009,1.05468750e-003
,,,-6.42500000e-009,1.11562500e-003
,,,-6.40000000e-009,1.16250001e-003
,,,-6.37500000e-009,1.19218751e-003
,,,-6.35000000e-009,1.20000001e-003
,,,-6.32500000e-009,1.18437501e-003
,,,-6.30000000e-009,1.14843751e-003
,,,-6.27500000e-009,1.09531250e-003
,,,-6.25000000e-009,1.03281250e-003
,,,-6.22500000e-009,9.67187494e-004
,,,-6.20000000e-009,9.01562489e-004
,,,-6.17500000e-009,8.45312485e-004
,,,-6.15000000e-009,7.99999982e-004
,,,-6.12500000e-009,7.71874980e-004
,,,-6.10000000e-009,7.59374979e-004
,,,-6.07500000e-009,7.59374979e-004
,,,-6.05000000e-009,7.68749980e-004
,,,-6.02500000e-009,7.81249981e-004
,,,-6.00000000e-009,7.93749982e-004
,,,-5.97500000e-009,7.99999982e-004
,,,-5.95000000e-009,7.99999982e-004
,,,-5.92500000e-009,7.95312482e-004
,,,-5.90000000e-009,7.82812481e-004
,,,-5.87500000e-009,7.67187480e-004
,,,-5.85000000e-009,7.53124979e-004
,,,-5.82500000e-009,7.45312478e-004
,,,-5.80000000e-009,7.48437478e-004
,,,-5.77500000e-009,7.67187480e-004
,,,-5.75000000e-009,7.99999982e-004
,,,-5.72500000e-009,8.49999986e-004
,,,-5.70000000e-009,9.12499990e-004
,,,-5.67500000e-009,9.81249995e-004
,,,-5.65000000e-009,1.05000000e-003
,,,-5.62500000e-009,1.11250000e-003
,,,-5.60000000e-009,1.16250001e-003
,,,-5.57500000e-009,1.19375001e-003
,,,-5.55000000e-009,1.20000001e-003
,,,-5.52500000e-009,1.18125001e-003
,,,-5.50000000e-009,1.14062501e-003
,,,-5.47500000e-009,1.08281250e-003
,,,-5.45000000e-009,1.01562500e-003
,,,-5.42500000e-009,9.46874993e-004
,,,-5.40000000e-009,8.82812488e-004
,,,-5.37500000e-009,8.32812484e-004
,,,-5.35000000e-009,7.99999982e-004
,,,-5.32500000e-009,7.93749982e-004
,,,-5.30000000e-009,8.09374983e-004
,,,-5.27500000e-009,8.48437486e-004
,,,-5.25000000e-009,9.04687490e-004
,,,-5.22500000e-009,9.74999995e-004
,,,-5.20000000e-009,1.05156250e-003
,,,-5.17500000e-009,1.12812501e-003
,,,-5.15000000e-009,1.20000001e-003
,,,-5.12500000e-009,1.25781251e-003
,,,-5.10000000e-009,1.29843752e-003
,,,-5.07500000e-009,1.32343752e-003
,,,-5.05000000e-009,1.32812502e-003
,,,-5.02500000e-009,1.31718752e-003
,,,-5.00000000e-009,1.29062502e-003
,,,-4.97500000e-009,1.25000001e-003
,,,-4.95000000e-009,1.20000001e-003
,,,-4.92500000e-009,1.14062501e-003
,,,-4.90000000e-009,1.07968750e-003
,,,-4.87500000e-009,1.01875000e-003
,,,-4.85000000e-009,9.60937494e-004
,,,-4.82500000e-009,9.09374990e-004
,,,-4.80000000e-009,8.65624987e-004
,,,-4.77500000e-009,8.28124984e-004
,,,-4.75000000e-009,7.99999982e-004
,,,-4.72500000e-009,7.81249981e-004
,,,-4.70000000e-009,7.70312480e-004
,,,-4.67500000e-009,7.67187480e-004
,,,-4.65000000e-009,7.68749980e-004
,,,-4.62500000e-009,7.73437480e-004
,,,-4.60000000e-009,7.82812481e-004
,,,-4.57500000e-009,7.92187482e-004
,,,-4.55000000e-009,7.99999982e-004
,,,-4.52500000e-009,8.09374983e-004
,,,-4.50000000e-009,8.15624983e-004
,,,-4.47500000e-009,8.18749983e-004
,,,-4.45000000e-009,8.18749983e-004
,,,-4.42500000e-009,8.15624983e-004
,,,-4.40000000e-009,8.10937483e-004
,,,-4.37500000e-009,8.06249983e-004
,,,-4.35000000e-009,7.99999982e-004
,,,-4.32500000e-009,7.96874982e-004
,,,-4.30000000e-009,7.93749982e-004
,,,-4.27500000e-009,7.92187482e-004
,,,-4.25000000e-009,7.92187482e-004
,,,-4.22500000e-009,7.93749982e-004
,,,-4.20000000e-009,7.95312482e-004
,,,-4.17500000e-009,7.98437482e-004
,,,-4.15000000e-009,7.99999982e-004
,,,-4.12500000e-009,8.06249983e-004
,,,-4.10000000e-009,8.10937483e-004
,,,-4.07500000e-009,8.14062483e-004
,,,-4.05000000e-009,8.14062483e-004
,,,-4.02500000e-009,8.14062483e-004
,,,-4.00000000e-009,8.10937483e-004
,,,-3.97500000e-009,8.06249983e-004
,,,-3.95000000e-009,7.99999982e-004
,,,-3.92500000e-009,7.96874982e-004
,,,-3.90000000e-009,7.92187482e-004
,,,-3.87500000e-009,7.87499981e-004
,,,-3.85000000e-009,7.85937481e-004
,,,-3.82500000e-009,7.85937481e-004
,,,-3.80000000e-009,7.87499981e-004
,,,-3.77500000e-009,7.92187482e-004
,,,-3.75000000e-009,7.99999982e-004
,,,-3.72500000e-009,8.10937483e-004
,,,-3.70000000e-009,8.20312484e-004
,,,-3.67500000e-009,8.28124984e-004
,,,-3.65000000e-009,8.32812484e-004
,,,-3.62500000e-009,8.34374985e-004
,,,-3.60000000e-009,8.28124984e-004
,,,-3.57500000e-009,8.17187483e-004
,,,-3.55000000e-009,7.99999982e-004
,,,-3.52500000e-009,7.84374981e-004
,,,-3.50000000e-009,7.67187480e-004
,,,-3.47500000e-009,7.53124979e-004
,,,-3.45000000e-009,7.42187478e-004
,,,-3.42500000e-009,7.40624978e-004
,,,-3.40000000e-009,7.48437478e-004
,,,-3.37500000e-009,7.68749980e-004
,,,-3.35000000e-009,7.99999982e-004
,,,-3.32500000e-009,8.46874985e-004
,,,-3.30000000e-009,9.01562489e-004
,,,-3.27500000e-009,9.62499994e-004
,,,-3.25000000e-009,1.02500000e-003
,,,-3.22500000e-009,1.08437500e-003
,,,-3.20000000e-009,1.13593751e-003
,,,-3.17500000e-009,1.17656251e-003
,,,-3.15000000e-009,1.20000001e-003
,,,-3.12500000e-009,1.20312501e-003
,,,-3.10000000e-009,1.18593751e-003
,,,-3.07500000e-009,1.15000001e-003
,,,-3.05000000e-009,1.09843750e-003
,,,-3.02500000e-009,1.03281250e-003
,,,-3.00000000e-009,9.57812493e-004
,,,-2.97500000e-009,8.78124988e-004
,,,-2.95000000e-009,7.99999982e-004
,,,-2.92500000e-009,7.29687477e-004
,,,-2.90000000e-009,6.73437473e-004
,,,-2.87500000e-009,6.34374970e-004
,,,-2.85000000e-009,6.18749969e-004
,,,-2.82500000e-009,6.24999970e-004
,,,-2.80000000e-009,6.59374972e-004
,,,-2.77500000e-009,7.18749976e-004
,,,-2.75000000e-009,7.99999982e-004
,,,-2.72500000e-009,9.06249990e-004
,,,-2.70000000e-009,1.02500000e-003
,,,-2.67500000e-009,1.14843751e-003
,,,-2.65000000e-009,1.27031252e-003
,,,-2.62500000e-009,1.38281252e-003
,,,-2.60000000e-009,1.47968753e-003
,,,-2.57500000e-009,1.55312504e-003
,,,-2.55000000e-009,1.60000004e-003
,,,-2.52500000e-009,1.61250004e-003
,,,-2.50000000e-009,1.59687504e-003
,,,-2.47500000e-009,1.55625004e-003
,,,-2.45000000e-009,1.49843753e-003
,,,-2.42500000e-009,1.42812503e-003
,,,-2.40000000e-009,1.35000002e-003
,,,-2.37500000e-009,1.27343752e-003
,,,-2.35000000e-009,1.20000001e-003
,,,-2.32500000e-009,1.13281251e-003
,,,-2.30000000e-009,1.07343750e-003
,,,-2.27500000e-009,1.02187500e-003
,,,-2.25000000e-009,9.76562495e-004
,,,-2.22500000e-009,9.34374992e-004
,,,-2.20000000e-009,8.92187489e-004
,,,-2.17500000e-009,8.48437486e-004
,,,-2.15000000e-009,7.99999982e-004
,,,-2.12500000e-009,7.54687479e-004
,,,-2.10000000e-009,7.09374976e-004
,,,-2.07500000e-009,6.73437473e-004
,,,-2.05000000e-009,6.49999972e-004
,,,-2.02500000e-009,6.46874971e-004
,,,-2.00000000e-009,6.70312473e-004
,,,-1.97500000e-009,7.20312476e-004
,,,-1.95000000e-009,7.99999982e-004
,,,-1.92500000e-009,9.04687490e-004
,,,-1.90000000e-009,1.02812500e-003
,,,-1.87500000e-009,1.15937501e-003
,,,-1.85000000e-009,1.29218752e-003
,,,-1.82500000e-009,1.41093753e-003
,,,-1.80000000e-009,1.50781253e-003
,,,-1.77500000e-009,1.57343754e-003
,,,-1.75000000e-009,1.60000004e-003
,,,-1.72500000e-009,1.57500004e-003
,,,-1.70000000e-009,1.50937503e-003
,,,-1.67500000e-009,1.41093753e-003
,,,-1.65000000e-009,1.28906252e-003
,,,-1.62500000e-009,1.15625001e-003
,,,-1.60000000e-009,1.02343750e-003
,,,-1.57500000e-009,9.03124989e-004
,,,-1.55000000e-009,7.99999982e-004
,,,-1.52500000e-009,7.17187476e-004
,,,-1.50000000e-009,6.62499972e-004
,,,-1.47500000e-009,6.35937471e-004
,,,-1.45000000e-009,6.35937471e-004
,,,-1.42500000e-009,6.59374972e-004
,,,-1.40000000e-009,6.98437475e-004
,,,-1.37500000e-009,7.46874978e-004
,,,-1.35000000e-009,7.99999982e-004
,,,-1.32500000e-009,8.35937485e-004
,,,-1.30000000e-009,8.59374986e-004
,,,-1.27500000e-009,8.70312487e-004
,,,-1.25000000e-009,8.70312487e-004
,,,-1.22500000e-009,8.60937486e-004
,,,-1.20000000e-009,8.45312485e-004
,,,-1.17500000e-009,8.23437484e-004
,,,-1.15000000e-009,7.99999982e-004
,,,-1.12500000e-009,7.51562479e-004
,,,-1.10000000e-009,6.98437475e-004
,,,-1.07500000e-009,6.45312471e-004
,,,-1.05000000e-009,5.92187467e-004
,,,-1.02500000e-009,5.40624964e-004
,,,-1.00000000e-009,4.93749960e-004
,,,-9.75000000e-010,4.46874957e-004
,,,-9.50000000e-010,3.99999954e-004
,,,-9.25000000e-010,3.26562449e-004
,,,-9.00000000e-010,2.45312443e-004
,,,-8.75000000e-010,1.56249937e-004
,,,-8.50000000e-010,5.78124296e-005
,,,-8.25000000e-010,-4.68750778e-005
,,,-8.00000000e-010,-1.57812586e-004
,,,-7.75000000e-010,-2.76562594e-004
,,,-7.50000000e-010,-4.00000103e-004
,,,-7.25000000e-010,-5.45312613e-004
,,,-7.00000000e-010,-7.00000124e-004
,,,-6.75000000e-010,-8.59375135e-004
,,,-6.50000000e-010,-1.02031265e-003
,,,-6.25000000e-010,-1.17656266e-003
,,,-6.00000000e-010,-1.32656267e-003
,,,-5.75000000e-010,-1.46718768e-003
,,,-5.50000000e-010,-1.60000019e-003
,,,-5.25000000e-010,-1.73906270e-003
,,,-5.00000000e-010,-1.87968771e-003
,,,-4.75000000e-010,-2.02031272e-003
,,,-4.50000000e-010,-2.16406273e-003
,,,-4.25000000e-010,-2.31093774e-003
,,,-4.00000000e-010,-2.46562525e-003
,,,-3.75000000e-010,-2.62812526e-003
,,,-3.50000000e-010,-2.80000027e-003
,,,-3.25000000e-010,-2.98593779e-003
,,,-3.00000000e-010,-3.18437530e-003
,,,-2.75000000e-010,-3.39375031e-003
,,,-2.50000000e-010,-3.60781283e-003
,,,-2.25000000e-010,-3.82031284e-003
,,,-2.00000000e-010,-4.02812536e-003
,,,-1.75000000e-010,-4.22187537e-003
,,,-1.50000000e-010,-4.40000039e-003
,,,-1.25000000e-010,-4.54843790e-003
,,,-1.00000000e-010,-4.68281291e-003
,,,-7.50000000e-011,-4.80312541e-003
,,,-5.00000000e-011,-4.90625042e-003
,,,-2.50000000e-011,-4.99687543e-003
,,,0.00000000e+000,-5.07343793e-003
,,,2.50000000e-011,-5.13906294e-003
,,,5.00000000e-011,-5.20000044e-003
,,,7.50000000e-011,-5.24062545e-003
,,,1.00000000e-010,-5.29218795e-003
,,,1.25000000e-010,-5.36093795e-003
,,,1.50000000e-010,-5.44687546e-003
,,,1.75000000e-010,-5.55468797e-003
,,,2.00000000e-010,-5.68281298e-003
,,,2.25000000e-010,-5.83281299e-003
,,,2.50000000e-010,-6.00000050e-003
,,,2.75000000e-010,-6.15625051e-003
,,,3.00000000e-010,-6.32343802e-003
,,,3.25000000e-010,-6.49843803e-003
,,,3.50000000e-010,-6.67031305e-003
,,,3.75000000e-010,-6.83281306e-003
,,,4.00000000e-010,-6.97968807e-003
,,,4.25000000e-010,-7.10312558e-003
,,,4.50000000e-010,-7.20000058e-003
,,,4.75000000e-010,-7.23281309e-003
,,,5.00000000e-010,-7.24375059e-003
,,,5.25000000e-010,-7.23906309e-003
,,,5.50000000e-010,-7.22343809e-003
,,,5.75000000e-010,-7.20781308e-003
,,,6.00000000e-010,-7.19531308e-003
,,,6.25000000e-010,-7.19062558e-003
,,,6.50000000e-010,-7.20000058e-003
,,,6.75000000e-010,-7.18437558e-003
,,,7.00000000e-010,-7.18281308e-003
,,,7.25000000e-010,-7.19218808e-003
,,,7.50000000e-010,-7.20625058e-003
,,,7.75000000e-010,-7.22187559e-003
,,,8.00000000e-010,-7.22968809e-003
,,,8.25000000e-010,-7.22343809e-003
,,,8.50000000e-010,-7.20000058e-003
,,,8.75000000e-010,-7.12031308e-003
,,,9.00000000e-010,-7.02187557e-003
,,,9.25000000e-010,-6.91093806e-003
,,,9.50000000e-010,-6.79218806e-003
,,,9.75000000e-010,-6.67500055e-003
,,,1.00000000e-009,-6.56718804e-003
,,,1.02500000e-009,-6.47343803e-003
,,,1.05000000e-009,-6.40000053e-003
,,,1.07500000e-009,-6.31875052e-003
,,,1.10000000e-009,-6.25781302e-003
,,,1.12500000e-009,-6.20937551e-003
,,,1.15000000e-009,-6.17343801e-003
,,,1.17500000e-009,-6.14062551e-003
,,,1.20000000e-009,-6.10468801e-003
,,,1.22500000e-009,-6.05937550e-003
,,,1.25000000e-009,-6.00000050e-003
,,,1.27500000e-009,-5.89687549e-003
,,,1.30000000e-009,-5.77031298e-003
,,,1.32500000e-009,-5.62500047e-003
,,,1.35000000e-009,-5.46562546e-003
,,,1.37500000e-009,-5.29687545e-003
,,,1.40000000e-009,-5.12656294e-003
,,,1.42500000e-009,-4.95937543e-003
,,,1.45000000e-009,-4.80000041e-003
,,,1.47500000e-009,-4.64218790e-003
,,,1.50000000e-009,-4.49062539e-003
,,,1.52500000e-009,-4.34375038e-003
,,,1.55000000e-009,-4.20000037e-003
,,,1.57500000e-009,-4.05468786e-003
,,,1.60000000e-009,-3.90781285e-003
,,,1.62500000e-009,-3.75625034e-003
,,,1.65000000e-009,-3.60000033e-003
,,,1.67500000e-009,-3.43750032e-003
,,,1.70000000e-009,-3.26875031e-003
,,,1.72500000e-009,-3.09531279e-003
,,,1.75000000e-009,-2.92656278e-003
,,,1.77500000e-009,-2.76562527e-003
,,,1.80000000e-009,-2.62187526e-003
,,,1.82500000e-009,-2.49843775e-003
,,,1.85000000e-009,-2.40000024e-003
,,,1.87500000e-009,-2.33437524e-003
,,,1.90000000e-009,-2.28281274e-003
,,,1.92500000e-009,-2.24218773e-003
,,,1.95000000e-009,-2.20625023e-003
,,,1.97500000e-009,-2.16875023e-003
,,,2.00000000e-009,-2.12500022e-003
,,,2.02500000e-009,-2.06875022e-003
,,,2.05000000e-009,-2.00000022e-003
,,,2.07500000e-009,-1.92187521e-003
,,,2.10000000e-009,-1.82656270e-003
,,,2.12500000e-009,-1.71562520e-003
,,,2.15000000e-009,-1.59687519e-003
,,,2.17500000e-009,-1.47656268e-003
,,,2.20000000e-009,-1.36718767e-003
,,,2.22500000e-009,-1.27187516e-003
,,,2.25000000e-009,-1.20000016e-003
,,,2.27500000e-009,-1.16250016e-003
,,,2.30000000e-009,-1.14375016e-003
,,,2.32500000e-009,-1.14062516e-003
,,,2.35000000e-009,-1.14843766e-003
,,,2.37500000e-009,-1.16250016e-003
,,,2.40000000e-009,-1.17968766e-003
,,,2.42500000e-009,-1.19375016e-003
,,,2.45000000e-009,-1.20000016e-003
,,,2.47500000e-009,-1.20000016e-003
,,,2.50000000e-009,-1.18125016e-003
,,,2.52500000e-009,-1.14531266e-003
,,,2.55000000e-009,-1.09062515e-003
,,,2.57500000e-009,-1.02500015e-003
,,,2.60000000e-009,-9.51562642e-004
,,,2.62500000e-009,-8.75000136e-004
,,,2.65000000e-009,-8.00000131e-004
,,,2.67500000e-009,-7.34375126e-004
,,,2.70000000e-009,-6.73437622e-004
,,,2.72500000e-009,-6.15625118e-004
,,,2.75000000e-009,-5.65625115e-004
,,,2.77500000e-009,-5.18750111e-004
,,,2.80000000e-009,-4.76562608e-004
,,,2.82500000e-009,-4.37500105e-004
,,,2.85000000e-009,-4.00000103e-004
,,,2.87500000e-009,-3.67187600e-004
,,,2.90000000e-009,-3.31250098e-004
,,,2.92500000e-009,-2.90625095e-004
,,,2.95000000e-009,-2.43750092e-004
,,,2.97500000e-009,-1.90625088e-004
,,,3.00000000e-009,-1.31250084e-004
,,,3.02500000e-009,-6.71875793e-005
,,,3.05000000e-009,-7.45058060e-011
,,,3.07500000e-009,6.40624300e-005
,,,3.10000000e-009,1.26562434e-004
,,,3.12500000e-009,1.89062439e-004
,,,3.15000000e-009,2.48437443e-004
,,,3.17500000e-009,2.99999947e-004
,,,3.20000000e-009,3.43749950e-004
,,,3.22500000e-009,3.78124952e-004
,,,3.25000000e-009,3.99999954e-004
,,,3.27500000e-009,4.09374954e-004
,,,3.30000000e-009,4.09374954e-004
,,,3.32500000e-009,4.06249954e-004
,,,3.35000000e-009,3.99999954e-004
,,,3.37500000e-009,3.95312453e-004
,,,3.40000000e-009,3.93749953e-004
,,,3.42500000e-009,3.95312453e-004
,,,3.45000000e-009,3.99999954e-004
,,,3.47500000e-009,4.06249954e-004
,,,3.50000000e-009,4.17187455e-004
,,,3.52500000e-009,4.29687456e-004
,,,3.55000000e-009,4.42187457e-004
,,,3.57500000e-009,4.48437457e-004
,,,3.60000000e-009,4.45312457e-004
,,,3.62500000e-009,4.29687456e-004
,,,3.65000000e-009,3.99999954e-004
,,,3.67500000e-009,3.56249951e-004
,,,3.70000000e-009,3.01562447e-004
,,,3.72500000e-009,2.40624943e-004
,,,3.75000000e-009,1.78124938e-004
,,,3.77500000e-009,1.18749934e-004
,,,3.80000000e-009,6.71874302e-005
,,,3.82500000e-009,2.65624274e-005
,,,3.85000000e-009,-7.45058060e-011
,,,3.87500000e-009,-3.12507473e-006
,,,3.90000000e-009,1.24999264e-005
,,,3.92500000e-009,4.68749288e-005
,,,3.95000000e-009,9.84374325e-005
,,,3.97500000e-009,1.64062437e-004
,,,4.00000000e-009,2.39062442e-004
,,,4.02500000e-009,3.18749948e-004
,,,4.05000000e-009,3.99999954e-004
,,,4.07500000e-009,4.78124959e-004
,,,4.10000000e-009,5.48437464e-004
,,,4.12500000e-009,6.10937469e-004
,,,4.15000000e-009,6.65624973e-004
,,,4.17500000e-009,7.10937476e-004
,,,4.20000000e-009,7.48437478e-004
,,,4.22500000e-009,7.78124981e-004
,,,4.25000000e-009,7.99999982e-004
,,,4.27500000e-009,8.15624983e-004
,,,4.30000000e-009,8.24999984e-004
,,,4.32500000e-009,8.29687484e-004
,,,4.35000000e-009,8.31249984e-004
,,,4.37500000e-009,8.28124984e-004
,,,4.40000000e-009,8.21874984e-004
,,,4.42500000e-009,8.12499983e-004
,,,4.45000000e-009,7.99999982e-004
,,,4.47500000e-009,7.84374981e-004
,,,4.50000000e-009,7.70312480e-004
,,,4.52500000e-009,7.59374979e-004
,,,4.55000000e-009,7.53124979e-004
,,,4.57500000e-009,7.53124979e-004
,,,4.60000000e-009,7.62499979e-004
,,,4.62500000e-009,7.78124981e-004
,,,4.65000000e-009,7.99999982e-004
,,,4.67500000e-009,8.21874984e-004
,,,4.70000000e-009,8.43749985e-004
,,,4.72500000e-009,8.64062487e-004
,,,4.75000000e-009,8.76562488e-004
,,,4.77500000e-009,8.78124988e-004
,,,4.80000000e-009,8.67187487e-004
,,,4.82500000e-009,8.42187485e-004
,,,4.85000000e-009,7.99999982e-004
,,,4.87500000e-009,7.42187478e-004
,,,4.90000000e-009,6.74999973e-004
,,,4.92500000e-009,6.04687468e-004
,,,4.95000000e-009,5.37499964e-004
,,,4.97500000e-009,4.78124959e-004
,,,5.00000000e-009,4.32812456e-004
,,,5.02500000e-009,4.06249954e-004
,,,5.05000000e-009,3.99999954e-004
,,,5.07500000e-009,4.15624955e-004
,,,5.10000000e-009,4.48437457e-004
,,,5.12500000e-009,4.99999961e-004
,,,5.15000000e-009,5.60937465e-004
,,,5.17500000e-009,6.29687470e-004
,,,5.20000000e-009,6.95312475e-004
,,,5.22500000e-009,7.54687479e-004
,,,5.25000000e-009,7.99999982e-004
,,,5.27500000e-009,8.24999984e-004
,,,5.30000000e-009,8.28124984e-004
,,,5.32500000e-009,8.04687482e-004
,,,5.35000000e-009,7.59374979e-004
,,,5.37500000e-009,6.92187474e-004
,,,5.40000000e-009,6.06249968e-004
,,,5.42500000e-009,5.07812461e-004
,,,5.45000000e-009,3.99999954e-004
,,,5.47500000e-009,2.95312446e-004
,,,5.50000000e-009,1.95312439e-004
,,,5.52500000e-009,1.09374933e-004
,,,5.55000000e-009,4.06249284e-005
,,,5.57500000e-009,-6.25007495e-006
,,,5.60000000e-009,-2.96875766e-005
,,,5.62500000e-009,-2.65625764e-005
,,,5.65000000e-009,-7.45058060e-011
,,,5.67500000e-009,5.46874294e-005
,,,5.70000000e-009,1.23437434e-004
,,,5.72500000e-009,1.98437440e-004
,,,5.75000000e-009,2.70312445e-004
,,,5.77500000e-009,3.34374949e-004
,,,5.80000000e-009,3.79687452e-004
,,,5.82500000e-009,4.03124954e-004
,,,5.85000000e-009,3.99999954e-004
,,,5.87500000e-009,3.74999952e-004
,,,5.90000000e-009,3.28124949e-004
,,,5.92500000e-009,2.65624944e-004
,,,5.95000000e-009,1.93749939e-004
,,,5.97500000e-009,1.24999934e-004
,,,6.00000000e-009,6.40624300e-005
,,,6.02500000e-009,2.03124269e-005
,,,6.05000000e-009,-7.45058060e-011
,,,6.07500000e-009,9.37492616e-006
