RawData/SinglePhotoelectron/R2_2pt2D_5mV/wave027_Ch4.csv

"Record Length",1000,"Points",-7.72500000e-009,4.23437455e-004
"Sample Interval",2.50000000e-011,s,-7.70000000e-009,4.10937455e-004
"Trigger Point",309,"Samples",-7.67500000e-009,3.99999954e-004
"Trigger Time",2.40200000e-011,s,-7.65000000e-009,3.92187453e-004
"",,,-7.62500000e-009,3.85937453e-004
"Horizontal Offset",-7.72500000e-009,s,-7.60000000e-009,3.82812453e-004
,,,-7.57500000e-009,3.82812453e-004
,,,-7.55000000e-009,3.85937453e-004
,,,-7.52500000e-009,3.90624953e-004
,,,-7.50000000e-009,3.95312453e-004
,,,-7.47500000e-009,3.99999954e-004
,,,-7.45000000e-009,4.03124954e-004
,,,-7.42500000e-009,4.04687454e-004
,,,-7.40000000e-009,4.03124954e-004
,,,-7.37500000e-009,4.03124954e-004
,,,-7.35000000e-009,4.01562454e-004
,,,-7.32500000e-009,3.99999954e-004
,,,-7.30000000e-009,3.99999954e-004
,,,-7.27500000e-009,3.99999954e-004
,,,-7.25000000e-009,4.01562454e-004
,,,-7.22500000e-009,4.03124954e-004
,,,-7.20000000e-009,4.06249954e-004
,,,-7.17500000e-009,4.09374954e-004
,,,-7.15000000e-009,4.10937455e-004
,,,-7.12500000e-009,4.09374954e-004
,,,-7.10000000e-009,4.06249954e-004
,,,-7.07500000e-009,3.99999954e-004
,,,-7.05000000e-009,3.93749953e-004
,,,-7.02500000e-009,3.85937453e-004
,,,-7.00000000e-009,3.79687452e-004
,,,-6.97500000e-009,3.74999952e-004
,,,-6.95000000e-009,3.74999952e-004
,,,-6.92500000e-009,3.78124952e-004
,,,-6.90000000e-009,3.87499953e-004
,,,-6.87500000e-009,3.99999954e-004
,,,-6.85000000e-009,4.17187455e-004
,,,-6.82500000e-009,4.32812456e-004
,,,-6.80000000e-009,4.46874957e-004
,,,-6.77500000e-009,4.57812458e-004
,,,-6.75000000e-009,4.59374958e-004
,,,-6.72500000e-009,4.51562457e-004
,,,-6.70000000e-009,4.32812456e-004
,,,-6.67500000e-009,3.99999954e-004
,,,-6.65000000e-009,3.57812451e-004
,,,-6.62500000e-009,3.04687447e-004
,,,-6.60000000e-009,2.46874943e-004
,,,-6.57500000e-009,1.85937439e-004
,,,-6.55000000e-009,1.26562434e-004
,,,-6.52500000e-009,7.34374307e-005
,,,-6.50000000e-009,2.96874276e-005
,,,-6.47500000e-009,-7.45058060e-011
,,,-6.45000000e-009,-7.81257506e-006
,,,-6.42500000e-009,3.12492572e-006
,,,-6.40000000e-009,3.28124278e-005
,,,-6.37500000e-009,8.12499312e-005
,,,-6.35000000e-009,1.45312436e-004
,,,-6.32500000e-009,2.21874941e-004
,,,-6.30000000e-009,3.09374947e-004
,,,-6.27500000e-009,3.99999954e-004
,,,-6.25000000e-009,4.92187460e-004
,,,-6.22500000e-009,5.79687467e-004
,,,-6.20000000e-009,6.56249972e-004
,,,-6.17500000e-009,7.20312476e-004
,,,-6.15000000e-009,7.68749980e-004
,,,-6.12500000e-009,7.98437482e-004
,,,-6.10000000e-009,8.09374983e-004
,,,-6.07500000e-009,7.99999982e-004
,,,-6.05000000e-009,7.73437480e-004
,,,-6.02500000e-009,7.32812477e-004
,,,-6.00000000e-009,6.81249974e-004
,,,-5.97500000e-009,6.23437470e-004
,,,-5.95000000e-009,5.62499965e-004
,,,-5.92500000e-009,5.01562461e-004
,,,-5.90000000e-009,4.46874957e-004
,,,-5.87500000e-009,3.99999954e-004
,,,-5.85000000e-009,3.64062451e-004
,,,-5.82500000e-009,3.40624950e-004
,,,-5.80000000e-009,3.29687449e-004
,,,-5.77500000e-009,3.29687449e-004
,,,-5.75000000e-009,3.39062449e-004
,,,-5.72500000e-009,3.54687451e-004
,,,-5.70000000e-009,3.76562452e-004
,,,-5.67500000e-009,3.99999954e-004
,,,-5.65000000e-009,4.24999956e-004
,,,-5.62500000e-009,4.45312457e-004
,,,-5.60000000e-009,4.59374958e-004
,,,-5.57500000e-009,4.65624958e-004
,,,-5.55000000e-009,4.62499958e-004
,,,-5.52500000e-009,4.49999957e-004
,,,-5.50000000e-009,4.28124956e-004
,,,-5.47500000e-009,3.99999954e-004
,,,-5.45000000e-009,3.71874952e-004
,,,-5.42500000e-009,3.45312450e-004
,,,-5.40000000e-009,3.23437448e-004
,,,-5.37500000e-009,3.12499948e-004
,,,-5.35000000e-009,3.12499948e-004
,,,-5.32500000e-009,3.26562449e-004
,,,-5.30000000e-009,3.56249951e-004
,,,-5.27500000e-009,3.99999954e-004
,,,-5.25000000e-009,4.64062458e-004
,,,-5.22500000e-009,5.34374963e-004
,,,-5.20000000e-009,6.07812469e-004
,,,-5.17500000e-009,6.78124973e-004
,,,-5.15000000e-009,7.37499978e-004
,,,-5.12500000e-009,7.79687481e-004
,,,-5.10000000e-009,8.01562482e-004
,,,-5.07500000e-009,7.99999982e-004
,,,-5.05000000e-009,7.78124981e-004
,,,-5.02500000e-009,7.34374977e-004
,,,-5.00000000e-009,6.76562473e-004
,,,-4.97500000e-009,6.09374969e-004
,,,-4.95000000e-009,5.40624964e-004
,,,-4.92500000e-009,4.79687459e-004
,,,-4.90000000e-009,4.31249956e-004
,,,-4.87500000e-009,3.99999954e-004
,,,-4.85000000e-009,3.96874954e-004
,,,-4.82500000e-009,4.15624955e-004
,,,-4.80000000e-009,4.56249958e-004
,,,-4.77500000e-009,5.14062462e-004
,,,-4.75000000e-009,5.82812467e-004
,,,-4.72500000e-009,6.56249972e-004
,,,-4.70000000e-009,7.31249977e-004
,,,-4.67500000e-009,7.99999982e-004
,,,-4.65000000e-009,8.60937486e-004
,,,-4.62500000e-009,9.14062490e-004
,,,-4.60000000e-009,9.60937494e-004
,,,-4.57500000e-009,1.00312500e-003
,,,-4.55000000e-009,1.04375000e-003
,,,-4.52500000e-009,1.08906250e-003
,,,-4.50000000e-009,1.14062501e-003
,,,-4.47500000e-009,1.20000001e-003
,,,-4.45000000e-009,1.26250001e-003
,,,-4.42500000e-009,1.32968752e-003
,,,-4.40000000e-009,1.39843752e-003
,,,-4.37500000e-009,1.46562503e-003
,,,-4.35000000e-009,1.52343753e-003
,,,-4.32500000e-009,1.56875004e-003
,,,-4.30000000e-009,1.59531254e-003
,,,-4.27500000e-009,1.60000004e-003
,,,-4.25000000e-009,1.57656254e-003
,,,-4.22500000e-009,1.53437503e-003
,,,-4.20000000e-009,1.47968753e-003
,,,-4.17500000e-009,1.41562503e-003
,,,-4.15000000e-009,1.35000002e-003
,,,-4.12500000e-009,1.28906252e-003
,,,-4.10000000e-009,1.23906251e-003
,,,-4.07500000e-009,1.20000001e-003
,,,-4.05000000e-009,1.17500001e-003
,,,-4.02500000e-009,1.16562501e-003
,,,-4.00000000e-009,1.16718751e-003
,,,-3.97500000e-009,1.17812501e-003
,,,-3.95000000e-009,1.19218751e-003
,,,-3.92500000e-009,1.20468751e-003
,,,-3.90000000e-009,1.20781251e-003
,,,-3.87500000e-009,1.20000001e-003
,,,-3.85000000e-009,1.17500001e-003
,,,-3.82500000e-009,1.13593751e-003
,,,-3.80000000e-009,1.08437500e-003
,,,-3.77500000e-009,1.02656250e-003
,,,-3.75000000e-009,9.64062494e-004
,,,-3.72500000e-009,9.03124989e-004
,,,-3.70000000e-009,8.48437486e-004
,,,-3.67500000e-009,7.99999982e-004
,,,-3.65000000e-009,7.64062480e-004
,,,-3.62500000e-009,7.40624978e-004
,,,-3.60000000e-009,7.29687477e-004
,,,-3.57500000e-009,7.31249977e-004
,,,-3.55000000e-009,7.42187478e-004
,,,-3.52500000e-009,7.59374979e-004
,,,-3.50000000e-009,7.79687481e-004
,,,-3.47500000e-009,7.99999982e-004
,,,-3.45000000e-009,8.21874984e-004
,,,-3.42500000e-009,8.35937485e-004
,,,-3.40000000e-009,8.45312485e-004
,,,-3.37500000e-009,8.46874985e-004
,,,-3.35000000e-009,8.42187485e-004
,,,-3.32500000e-009,8.31249984e-004
,,,-3.30000000e-009,8.17187483e-004
,,,-3.27500000e-009,7.99999982e-004
,,,-3.25000000e-009,7.87499981e-004
,,,-3.22500000e-009,7.74999980e-004
,,,-3.20000000e-009,7.64062480e-004
,,,-3.17500000e-009,7.59374979e-004
,,,-3.15000000e-009,7.60937479e-004
,,,-3.12500000e-009,7.67187480e-004
,,,-3.10000000e-009,7.81249981e-004
,,,-3.07500000e-009,7.99999982e-004
,,,-3.05000000e-009,8.24999984e-004
,,,-3.02500000e-009,8.48437486e-004
,,,-3.00000000e-009,8.67187487e-004
,,,-2.97500000e-009,8.79687488e-004
,,,-2.95000000e-009,8.81249988e-004
,,,-2.92500000e-009,8.68749987e-004
,,,-2.90000000e-009,8.42187485e-004
,,,-2.87500000e-009,7.99999982e-004
,,,-2.85000000e-009,7.48437478e-004
,,,-2.82500000e-009,6.85937474e-004
,,,-2.80000000e-009,6.18749969e-004
,,,-2.77500000e-009,5.53124965e-004
,,,-2.75000000e-009,4.93749960e-004
,,,-2.72500000e-009,4.45312457e-004
,,,-2.70000000e-009,4.12499955e-004
,,,-2.67500000e-009,3.99999954e-004
,,,-2.65000000e-009,4.12499955e-004
,,,-2.62500000e-009,4.45312457e-004
,,,-2.60000000e-009,4.93749960e-004
,,,-2.57500000e-009,5.53124965e-004
,,,-2.55000000e-009,6.18749969e-004
,,,-2.52500000e-009,6.85937474e-004
,,,-2.50000000e-009,7.48437478e-004
,,,-2.47500000e-009,7.99999982e-004
,,,-2.45000000e-009,8.42187485e-004
,,,-2.42500000e-009,8.68749987e-004
,,,-2.40000000e-009,8.81249988e-004
,,,-2.37500000e-009,8.79687488e-004
,,,-2.35000000e-009,8.67187487e-004
,,,-2.32500000e-009,8.48437486e-004
,,,-2.30000000e-009,8.24999984e-004
,,,-2.27500000e-009,7.99999982e-004
,,,-2.25000000e-009,7.79687481e-004
,,,-2.22500000e-009,7.64062480e-004
,,,-2.20000000e-009,7.54687479e-004
,,,-2.17500000e-009,7.53124979e-004
,,,-2.15000000e-009,7.57812479e-004
,,,-2.12500000e-009,7.68749980e-004
,,,-2.10000000e-009,7.82812481e-004
,,,-2.07500000e-009,7.99999982e-004
,,,-2.05000000e-009,8.15624983e-004
,,,-2.02500000e-009,8.29687484e-004
,,,-2.00000000e-009,8.37499985e-004
,,,-1.97500000e-009,8.42187485e-004
,,,-1.95000000e-009,8.39062485e-004
,,,-1.92500000e-009,8.31249984e-004
,,,-1.90000000e-009,8.18749983e-004
,,,-1.87500000e-009,7.99999982e-004
,,,-1.85000000e-009,7.79687481e-004
,,,-1.82500000e-009,7.59374979e-004
,,,-1.80000000e-009,7.40624978e-004
,,,-1.77500000e-009,7.31249977e-004
,,,-1.75000000e-009,7.29687477e-004
,,,-1.72500000e-009,7.40624978e-004
,,,-1.70000000e-009,7.64062480e-004
,,,-1.67500000e-009,7.99999982e-004
,,,-1.65000000e-009,8.40624985e-004
,,,-1.62500000e-009,8.89062488e-004
,,,-1.60000000e-009,9.45312492e-004
,,,-1.57500000e-009,1.00468750e-003
,,,-1.55000000e-009,1.06250000e-003
,,,-1.52500000e-009,1.11875000e-003
,,,-1.50000000e-009,1.16562501e-003
,,,-1.47500000e-009,1.20000001e-003
,,,-1.45000000e-009,1.20625001e-003
,,,-1.42500000e-009,1.19062501e-003
,,,-1.40000000e-009,1.15781251e-003
,,,-1.37500000e-009,1.10781250e-003
,,,-1.35000000e-009,1.04375000e-003
,,,-1.32500000e-009,9.68749994e-004
,,,-1.30000000e-009,8.85937488e-004
,,,-1.27500000e-009,7.99999982e-004
,,,-1.25000000e-009,6.98437475e-004
,,,-1.22500000e-009,6.01562468e-004
,,,-1.20000000e-009,5.15624962e-004
,,,-1.17500000e-009,4.46874957e-004
,,,-1.15000000e-009,3.98437454e-004
,,,-1.12500000e-009,3.74999952e-004
,,,-1.10000000e-009,3.76562452e-004
,,,-1.07500000e-009,3.99999954e-004
,,,-1.05000000e-009,4.18749955e-004
,,,-1.02500000e-009,4.42187457e-004
,,,-1.00000000e-009,4.67187459e-004
,,,-9.75000000e-010,4.87499960e-004
,,,-9.50000000e-010,4.95312461e-004
,,,-9.25000000e-010,4.85937460e-004
,,,-9.00000000e-010,4.56249958e-004
,,,-8.75000000e-010,3.99999954e-004
,,,-8.50000000e-010,2.90624946e-004
,,,-8.25000000e-010,1.51562436e-004
,,,-8.00000000e-010,-6.25007495e-006
,,,-7.75000000e-010,-1.78125087e-004
,,,-7.50000000e-010,-3.50000099e-004
,,,-7.25000000e-010,-5.17187611e-004
,,,-7.00000000e-010,-6.67187622e-004
,,,-6.75000000e-010,-8.00000131e-004
,,,-6.50000000e-010,-9.39062641e-004
,,,-6.25000000e-010,-1.06250015e-003
,,,-6.00000000e-010,-1.17031266e-003
,,,-5.75000000e-010,-1.26406266e-003
,,,-5.50000000e-010,-1.35000017e-003
,,,-5.25000000e-010,-1.42968768e-003
,,,-5.00000000e-010,-1.51093768e-003
,,,-4.75000000e-010,-1.60000019e-003
,,,-4.50000000e-010,-1.72500020e-003
,,,-4.25000000e-010,-1.87500021e-003
,,,-4.00000000e-010,-2.05156272e-003
,,,-3.75000000e-010,-2.25312523e-003
,,,-3.50000000e-010,-2.47343775e-003
,,,-3.25000000e-010,-2.70781277e-003
,,,-3.00000000e-010,-2.95312528e-003
,,,-2.75000000e-010,-3.20000030e-003
,,,-2.50000000e-010,-3.45468782e-003
,,,-2.25000000e-010,-3.70468784e-003
,,,-2.00000000e-010,-3.94531285e-003
,,,-1.75000000e-010,-4.16718787e-003
,,,-1.50000000e-010,-4.36562538e-003
,,,-1.25000000e-010,-4.53750040e-003
,,,-1.00000000e-010,-4.68125041e-003
,,,-7.50000000e-011,-4.80000041e-003
,,,-5.00000000e-011,-4.90000042e-003
,,,-2.50000000e-011,-5.00000043e-003
,,,0.00000000e+000,-5.10468794e-003
,,,2.50000000e-011,-5.22656294e-003
,,,5.00000000e-011,-5.37187545e-003
,,,7.50000000e-011,-5.54687547e-003
,,,1.00000000e-010,-5.75468798e-003
,,,1.25000000e-010,-6.00000050e-003
,,,1.50000000e-010,-6.26406302e-003
,,,1.75000000e-010,-6.56250054e-003
,,,2.00000000e-010,-6.88593806e-003
,,,2.25000000e-010,-7.22031309e-003
,,,2.50000000e-010,-7.55312561e-003
,,,2.75000000e-010,-7.87031313e-003
,,,3.00000000e-010,-8.15468815e-003
,,,3.25000000e-010,-8.40000067e-003
,,,3.50000000e-010,-8.55937568e-003
,,,3.75000000e-010,-8.67500069e-003
,,,4.00000000e-010,-8.75156319e-003
,,,4.25000000e-010,-8.79375070e-003
,,,4.50000000e-010,-8.80937570e-003
,,,4.75000000e-010,-8.81093820e-003
,,,5.00000000e-010,-8.80468820e-003
,,,5.25000000e-010,-8.80000070e-003
,,,5.50000000e-010,-8.76250069e-003
,,,5.75000000e-010,-8.74843819e-003
,,,6.00000000e-010,-8.76093819e-003
,,,6.25000000e-010,-8.80312570e-003
,,,6.50000000e-010,-8.87343820e-003
,,,6.75000000e-010,-8.96718821e-003
,,,7.00000000e-010,-9.07812572e-003
,,,7.25000000e-010,-9.20000073e-003
,,,7.50000000e-010,-9.27968823e-003
,,,7.75000000e-010,-9.35937574e-003
,,,8.00000000e-010,-9.43281324e-003
,,,8.25000000e-010,-9.49687575e-003
,,,8.50000000e-010,-9.54843825e-003
,,,8.75000000e-010,-9.58437575e-003
,,,9.00000000e-010,-9.60312575e-003
,,,9.25000000e-010,-9.60000075e-003
,,,9.50000000e-010,-9.52812575e-003
,,,9.75000000e-010,-9.43750074e-003
,,,1.00000000e-009,-9.33593824e-003
,,,1.02500000e-009,-9.22812573e-003
,,,1.05000000e-009,-9.11718822e-003
,,,1.07500000e-009,-9.00781321e-003
,,,1.10000000e-009,-8.90156320e-003
,,,1.12500000e-009,-8.80000070e-003
,,,1.15000000e-009,-8.66093819e-003
,,,1.17500000e-009,-8.52343818e-003
,,,1.20000000e-009,-8.38593817e-003
,,,1.22500000e-009,-8.24531316e-003
,,,1.25000000e-009,-8.09843815e-003
,,,1.27500000e-009,-7.94375064e-003
,,,1.30000000e-009,-7.77812563e-003
,,,1.32500000e-009,-7.60000061e-003
,,,1.35000000e-009,-7.38593810e-003
,,,1.37500000e-009,-7.16250058e-003
,,,1.40000000e-009,-6.93281307e-003
,,,1.42500000e-009,-6.70781305e-003
,,,1.45000000e-009,-6.49531303e-003
,,,1.47500000e-009,-6.30312552e-003
,,,1.50000000e-009,-6.13750051e-003
,,,1.52500000e-009,-6.00000050e-003
,,,1.55000000e-009,-5.87968799e-003
,,,1.57500000e-009,-5.77812548e-003
,,,1.60000000e-009,-5.69062548e-003
,,,1.62500000e-009,-5.60937547e-003
,,,1.65000000e-009,-5.52656297e-003
,,,1.67500000e-009,-5.43437546e-003
,,,1.70000000e-009,-5.32812545e-003
,,,1.72500000e-009,-5.20000044e-003
,,,1.75000000e-009,-5.04375043e-003
,,,1.77500000e-009,-4.85937542e-003
,,,1.80000000e-009,-4.65156290e-003
,,,1.82500000e-009,-4.42968789e-003
,,,1.85000000e-009,-4.20468787e-003
,,,1.87500000e-009,-3.98437536e-003
,,,1.90000000e-009,-3.78125034e-003
,,,1.92500000e-009,-3.60000033e-003
,,,1.95000000e-009,-3.45312532e-003
,,,1.97500000e-009,-3.32656281e-003
,,,2.00000000e-009,-3.21875030e-003
,,,2.02500000e-009,-3.12500030e-003
,,,2.05000000e-009,-3.03906279e-003
,,,2.07500000e-009,-2.95937528e-003
,,,2.10000000e-009,-2.88125028e-003
,,,2.12500000e-009,-2.80000027e-003
,,,2.15000000e-009,-2.72031277e-003
,,,2.17500000e-009,-2.62500026e-003
,,,2.20000000e-009,-2.51875025e-003
,,,2.22500000e-009,-2.40468774e-003
,,,2.25000000e-009,-2.28906274e-003
,,,2.27500000e-009,-2.17968773e-003
,,,2.30000000e-009,-2.08125022e-003
,,,2.32500000e-009,-2.00000022e-003
,,,2.35000000e-009,-1.94687521e-003
,,,2.37500000e-009,-1.90312521e-003
,,,2.40000000e-009,-1.86406271e-003
,,,2.42500000e-009,-1.82656270e-003
,,,2.45000000e-009,-1.78437520e-003
,,,2.47500000e-009,-1.73437520e-003
,,,2.50000000e-009,-1.67343769e-003
,,,2.52500000e-009,-1.60000019e-003
,,,2.55000000e-009,-1.51718768e-003
,,,2.57500000e-009,-1.41718767e-003
,,,2.60000000e-009,-1.30625017e-003
,,,2.62500000e-009,-1.18750016e-003
,,,2.65000000e-009,-1.07031265e-003
,,,2.67500000e-009,-9.64062643e-004
,,,2.70000000e-009,-8.71875136e-004
,,,2.72500000e-009,-8.00000131e-004
,,,2.75000000e-009,-7.57812628e-004
,,,2.77500000e-009,-7.25000126e-004
,,,2.80000000e-009,-6.98437624e-004
,,,2.82500000e-009,-6.67187622e-004
,,,2.85000000e-009,-6.28125119e-004
,,,2.87500000e-009,-5.71875115e-004
,,,2.90000000e-009,-4.96875110e-004
,,,2.92500000e-009,-4.00000103e-004
,,,2.95000000e-009,-2.89062595e-004
,,,2.97500000e-009,-1.62500086e-004
,,,3.00000000e-009,-2.65625764e-005
,,,3.02500000e-009,1.06249933e-004
,,,3.05000000e-009,2.26562442e-004
,,,3.07500000e-009,3.20312448e-004
,,,3.10000000e-009,3.79687452e-004
,,,3.12500000e-009,3.99999954e-004
,,,3.15000000e-009,3.68749952e-004
,,,3.17500000e-009,3.06249947e-004
,,,3.20000000e-009,2.26562442e-004
,,,3.22500000e-009,1.40624935e-004
,,,3.25000000e-009,6.40624300e-005
,,,3.27500000e-009,7.81242605e-006
,,,3.30000000e-009,-1.56250756e-005
,,,3.32500000e-009,-7.45058060e-011
,,,3.35000000e-009,5.15624291e-005
,,,3.37500000e-009,1.40624935e-004
,,,3.40000000e-009,2.60937444e-004
,,,3.42500000e-009,3.95312453e-004
,,,3.45000000e-009,5.31249963e-004
,,,3.47500000e-009,6.51562472e-004
,,,3.50000000e-009,7.45312478e-004
,,,3.52500000e-009,7.99999982e-004
,,,3.55000000e-009,8.01562482e-004
,,,3.57500000e-009,7.65624980e-004
,,,3.60000000e-009,6.99999975e-004
,,,3.62500000e-009,6.18749969e-004
,,,3.65000000e-009,5.35937463e-004
,,,3.67500000e-009,4.64062458e-004
,,,3.70000000e-009,4.17187455e-004
,,,3.72500000e-009,3.99999954e-004
,,,3.75000000e-009,4.12499955e-004
,,,3.77500000e-009,4.57812458e-004
,,,3.80000000e-009,5.28124963e-004
,,,3.82500000e-009,6.10937469e-004
,,,3.85000000e-009,6.93749975e-004
,,,3.87500000e-009,7.59374979e-004
,,,3.90000000e-009,7.98437482e-004
,,,3.92500000e-009,7.99999982e-004
,,,3.95000000e-009,7.54687479e-004
,,,3.97500000e-009,6.73437473e-004
,,,4.00000000e-009,5.60937465e-004
,,,4.02500000e-009,4.31249956e-004
,,,4.05000000e-009,2.96874947e-004
,,,4.07500000e-009,1.73437438e-004
,,,4.10000000e-009,7.03124305e-005
,,,4.12500000e-009,-7.45058060e-011
,,,4.15000000e-009,-2.65625764e-005
,,,4.17500000e-009,-1.56250756e-005
,,,4.20000000e-009,2.81249275e-005
,,,4.22500000e-009,9.84374325e-005
,,,4.25000000e-009,1.82812438e-004
,,,4.27500000e-009,2.68749945e-004
,,,4.30000000e-009,3.45312450e-004
,,,4.32500000e-009,3.99999954e-004
,,,4.35000000e-009,4.26562456e-004
,,,4.37500000e-009,4.21874955e-004
,,,4.40000000e-009,3.87499953e-004
,,,4.42500000e-009,3.29687449e-004
,,,4.45000000e-009,2.53124943e-004
,,,4.47500000e-009,1.67187437e-004
,,,4.50000000e-009,8.12499312e-005
,,,4.52500000e-009,-7.45058060e-011
,,,4.55000000e-009,-5.93750787e-005
,,,4.57500000e-009,-1.01562582e-004
,,,4.60000000e-009,-1.23437583e-004
,,,4.62500000e-009,-1.26562583e-004
,,,4.65000000e-009,-1.12500082e-004
,,,4.67500000e-009,-8.43750805e-005
,,,4.70000000e-009,-4.53125777e-005
,,,4.72500000e-009,-7.45058060e-011
,,,4.75000000e-009,5.46874294e-005
,,,4.77500000e-009,1.09374933e-004
,,,4.80000000e-009,1.62499937e-004
,,,4.82500000e-009,2.14062441e-004
,,,4.85000000e-009,2.64062444e-004
,,,4.87500000e-009,3.12499948e-004
,,,4.90000000e-009,3.57812451e-004
,,,4.92500000e-009,3.99999954e-004
,,,4.95000000e-009,4.39062457e-004
,,,4.97500000e-009,4.68749959e-004
,,,5.00000000e-009,4.89062460e-004
,,,5.02500000e-009,4.98437461e-004
,,,5.05000000e-009,4.95312461e-004
,,,5.07500000e-009,4.76562459e-004
,,,5.10000000e-009,4.45312457e-004
,,,5.12500000e-009,3.99999954e-004
,,,5.15000000e-009,3.40624950e-004
,,,5.17500000e-009,2.71874945e-004
,,,5.20000000e-009,2.03124940e-004
,,,5.22500000e-009,1.37499935e-004
,,,5.25000000e-009,7.96874311e-005
,,,5.27500000e-009,3.59374280e-005
,,,5.30000000e-009,7.81242605e-006
,,,5.32500000e-009,-7.45058060e-011
,,,5.35000000e-009,1.40624265e-005
,,,5.37500000e-009,4.68749288e-005
,,,5.40000000e-009,9.37499321e-005
,,,5.42500000e-009,1.53124936e-004
,,,5.45000000e-009,2.17187441e-004
,,,5.47500000e-009,2.84374946e-004
,,,5.50000000e-009,3.46874950e-004
,,,5.52500000e-009,3.99999954e-004
,,,5.55000000e-009,4.40624957e-004
,,,5.57500000e-009,4.67187459e-004
,,,5.60000000e-009,4.79687459e-004
,,,5.62500000e-009,4.81249960e-004
,,,5.65000000e-009,4.71874959e-004
,,,5.67500000e-009,4.53124958e-004
,,,5.70000000e-009,4.29687456e-004
,,,5.72500000e-009,3.99999954e-004
,,,5.75000000e-009,3.65624951e-004
,,,5.77500000e-009,3.26562449e-004
,,,5.80000000e-009,2.85937446e-004
,,,5.82500000e-009,2.40624943e-004
,,,5.85000000e-009,1.89062439e-004
,,,5.87500000e-009,1.32812435e-004
,,,5.90000000e-009,7.03124305e-005
,,,5.92500000e-009,-7.45058060e-011
,,,5.95000000e-009,-6.87500794e-005
,,,5.97500000e-009,-1.40625084e-004
,,,6.00000000e-009,-2.09375089e-004
,,,6.02500000e-009,-2.71875094e-004
,,,6.05000000e-009,-3.26562598e-004
,,,6.07500000e-009,-3.67187600e-004
