RawData/DifferentLengths/R4/R4_25foot_5mV/wave024_Ch1.csv

"Record Length",1000,"Points",-7.72500000e-009,3.00000664e-004
"Sample Interval",2.50000000e-011,s,-7.70000000e-009,2.98125664e-004
"Trigger Point",309,"Samples",-7.67500000e-009,2.89219414e-004
"Trigger Time",7.27471698e-012,s,-7.65000000e-009,2.74219414e-004
"",,,-7.62500000e-009,2.54531913e-004
"Horizontal Offset",-7.72500000e-009,s,-7.60000000e-009,2.32969413e-004
,,,-7.57500000e-009,2.11875663e-004
,,,-7.55000000e-009,1.93594413e-004
,,,-7.52500000e-009,1.80000663e-004
,,,-7.50000000e-009,1.70156913e-004
,,,-7.47500000e-009,1.65938163e-004
,,,-7.45000000e-009,1.66875663e-004
,,,-7.42500000e-009,1.71094413e-004
,,,-7.40000000e-009,1.76250663e-004
,,,-7.37500000e-009,1.80938163e-004
,,,-7.35000000e-009,1.82344413e-004
,,,-7.32500000e-009,1.80000663e-004
,,,-7.30000000e-009,1.69688163e-004
,,,-7.27500000e-009,1.55156913e-004
,,,-7.25000000e-009,1.37344412e-004
,,,-7.22500000e-009,1.17656912e-004
,,,-7.20000000e-009,9.84381621e-005
,,,-7.17500000e-009,8.15631619e-005
,,,-7.15000000e-009,6.84381618e-005
,,,-7.12500000e-009,6.00006618e-005
,,,-7.10000000e-009,5.67194117e-005
,,,-7.07500000e-009,5.76569117e-005
,,,-7.05000000e-009,6.18756618e-005
,,,-7.02500000e-009,6.70319118e-005
,,,-7.00000000e-009,7.12506619e-005
,,,-6.97500000e-009,7.21881619e-005
,,,-6.95000000e-009,6.84381618e-005
,,,-6.92500000e-009,6.00006618e-005
,,,-6.90000000e-009,4.59381616e-005
,,,-6.87500000e-009,2.76569115e-005
,,,-6.85000000e-009,6.56316130e-006
,,,-6.82500000e-009,-1.49993389e-005
,,,-6.80000000e-009,-3.46868391e-005
,,,-6.77500000e-009,-5.01555892e-005
,,,-6.75000000e-009,-5.90618393e-005
,,,-6.72500000e-009,-5.99993393e-005
,,,-6.70000000e-009,-5.10930892e-005
,,,-6.67500000e-009,-3.56243391e-005
,,,-6.65000000e-009,-1.54680889e-005
,,,-6.62500000e-009,6.56316130e-006
,,,-6.60000000e-009,2.76569115e-005
,,,-6.57500000e-009,4.50006616e-005
,,,-6.55000000e-009,5.62506617e-005
,,,-6.52500000e-009,6.00006618e-005
,,,-6.50000000e-009,5.62506617e-005
,,,-6.47500000e-009,4.50006616e-005
,,,-6.45000000e-009,2.76569115e-005
,,,-6.42500000e-009,6.56316130e-006
,,,-6.40000000e-009,-1.54680889e-005
,,,-6.37500000e-009,-3.56243391e-005
,,,-6.35000000e-009,-5.10930892e-005
,,,-6.32500000e-009,-5.99993393e-005
,,,-6.30000000e-009,-5.95305893e-005
,,,-6.27500000e-009,-5.10930892e-005
,,,-6.25000000e-009,-3.65618391e-005
,,,-6.22500000e-009,-1.68743389e-005
,,,-6.20000000e-009,4.68816128e-006
,,,-6.17500000e-009,2.57819115e-005
,,,-6.15000000e-009,4.50006616e-005
,,,-6.12500000e-009,6.00006618e-005
,,,-6.10000000e-009,6.93756618e-005
,,,-6.07500000e-009,7.35944119e-005
,,,-6.05000000e-009,7.31256619e-005
,,,-6.02500000e-009,6.93756618e-005
,,,-6.00000000e-009,6.46881618e-005
,,,-5.97500000e-009,6.00006618e-005
,,,-5.95000000e-009,5.81256617e-005
,,,-5.92500000e-009,6.00006618e-005
,,,-5.90000000e-009,6.70319118e-005
,,,-5.87500000e-009,7.87506619e-005
,,,-5.85000000e-009,9.42194121e-005
,,,-5.82500000e-009,1.12500662e-004
,,,-5.80000000e-009,1.31719412e-004
,,,-5.77500000e-009,1.50469413e-004
,,,-5.75000000e-009,1.66875663e-004
,,,-5.72500000e-009,1.80000663e-004
,,,-5.70000000e-009,1.87031913e-004
,,,-5.67500000e-009,1.89844413e-004
,,,-5.65000000e-009,1.89375663e-004
,,,-5.62500000e-009,1.87031913e-004
,,,-5.60000000e-009,1.83281913e-004
,,,-5.57500000e-009,1.80469413e-004
,,,-5.55000000e-009,1.79063163e-004
,,,-5.52500000e-009,1.80000663e-004
,,,-5.50000000e-009,1.81406913e-004
,,,-5.47500000e-009,1.84688163e-004
,,,-5.45000000e-009,1.88906913e-004
,,,-5.42500000e-009,1.92656913e-004
,,,-5.40000000e-009,1.94531913e-004
,,,-5.37500000e-009,1.94063163e-004
,,,-5.35000000e-009,1.89375663e-004
,,,-5.32500000e-009,1.80000663e-004
,,,-5.30000000e-009,1.63594413e-004
,,,-5.27500000e-009,1.43438162e-004
,,,-5.25000000e-009,1.22344412e-004
,,,-5.22500000e-009,1.01250662e-004
,,,-5.20000000e-009,8.29694120e-005
,,,-5.17500000e-009,6.84381618e-005
,,,-5.15000000e-009,6.04694118e-005
,,,-5.12500000e-009,6.00006618e-005
,,,-5.10000000e-009,6.51569118e-005
,,,-5.07500000e-009,7.64069119e-005
,,,-5.05000000e-009,9.32819120e-005
,,,-5.02500000e-009,1.12969412e-004
,,,-5.00000000e-009,1.33594412e-004
,,,-4.97500000e-009,1.53281913e-004
,,,-4.95000000e-009,1.69219413e-004
,,,-4.92500000e-009,1.80000663e-004
,,,-4.90000000e-009,1.81875663e-004
,,,-4.87500000e-009,1.76719413e-004
,,,-4.85000000e-009,1.65000663e-004
,,,-4.82500000e-009,1.48594413e-004
,,,-4.80000000e-009,1.27969412e-004
,,,-4.77500000e-009,1.05000662e-004
,,,-4.75000000e-009,8.20319120e-005
,,,-4.72500000e-009,6.00006618e-005
,,,-4.70000000e-009,3.93756616e-005
,,,-4.67500000e-009,2.15631614e-005
,,,-4.65000000e-009,5.62566129e-006
,,,-4.62500000e-009,-7.96808883e-006
,,,-4.60000000e-009,-2.06243389e-005
,,,-4.57500000e-009,-3.32805891e-005
,,,-4.55000000e-009,-4.59368392e-005
,,,-4.52500000e-009,-5.99993393e-005
,,,-4.50000000e-009,-7.49993394e-005
,,,-4.47500000e-009,-9.09368396e-005
,,,-4.45000000e-009,-1.07811840e-004
,,,-4.42500000e-009,-1.25155590e-004
,,,-4.40000000e-009,-1.42030590e-004
,,,-4.37500000e-009,-1.57499340e-004
,,,-4.35000000e-009,-1.70155590e-004
,,,-4.32500000e-009,-1.79999340e-004
,,,-4.30000000e-009,-1.84218090e-004
,,,-4.27500000e-009,-1.85624340e-004
,,,-4.25000000e-009,-1.84686840e-004
,,,-4.22500000e-009,-1.82811840e-004
,,,-4.20000000e-009,-1.80468090e-004
,,,-4.17500000e-009,-1.78593090e-004
,,,-4.15000000e-009,-1.78593090e-004
,,,-4.12500000e-009,-1.79999340e-004
,,,-4.10000000e-009,-1.81874340e-004
,,,-4.07500000e-009,-1.85155590e-004
,,,-4.05000000e-009,-1.88905590e-004
,,,-4.02500000e-009,-1.92655590e-004
,,,-4.00000000e-009,-1.94061840e-004
,,,-3.97500000e-009,-1.93124340e-004
,,,-3.95000000e-009,-1.88905590e-004
,,,-3.92500000e-009,-1.79999340e-004
,,,-3.90000000e-009,-1.65936840e-004
,,,-3.87500000e-009,-1.48593090e-004
,,,-3.85000000e-009,-1.29843090e-004
,,,-3.82500000e-009,-1.11093090e-004
,,,-3.80000000e-009,-9.32805896e-005
,,,-3.77500000e-009,-7.82805894e-005
,,,-3.75000000e-009,-6.70305893e-005
,,,-3.72500000e-009,-5.99993393e-005
,,,-3.70000000e-009,-5.76555893e-005
,,,-3.67500000e-009,-5.90618393e-005
,,,-3.65000000e-009,-6.28118393e-005
,,,-3.62500000e-009,-6.74993393e-005
,,,-3.60000000e-009,-7.12493394e-005
,,,-3.57500000e-009,-7.17180894e-005
,,,-3.55000000e-009,-6.84368394e-005
,,,-3.52500000e-009,-5.99993393e-005
,,,-3.50000000e-009,-4.68743392e-005
,,,-3.47500000e-009,-2.95305890e-005
,,,-3.45000000e-009,-9.37433884e-006
,,,-3.42500000e-009,1.12506613e-005
,,,-3.40000000e-009,3.04694115e-005
,,,-3.37500000e-009,4.64069116e-005
,,,-3.35000000e-009,5.62506617e-005
,,,-3.32500000e-009,6.00006618e-005
,,,-3.30000000e-009,5.39069117e-005
,,,-3.27500000e-009,4.17194116e-005
,,,-3.25000000e-009,2.48444115e-005
,,,-3.22500000e-009,4.68816128e-006
,,,-3.20000000e-009,-1.54680889e-005
,,,-3.17500000e-009,-3.46868391e-005
,,,-3.15000000e-009,-4.96868392e-005
,,,-3.12500000e-009,-5.99993393e-005
,,,-3.10000000e-009,-6.56243393e-005
,,,-3.07500000e-009,-6.60930893e-005
,,,-3.05000000e-009,-6.28118393e-005
,,,-3.02500000e-009,-5.76555893e-005
,,,-3.00000000e-009,-5.29680892e-005
,,,-2.97500000e-009,-5.06243392e-005
,,,-2.95000000e-009,-5.24993392e-005
,,,-2.92500000e-009,-5.99993393e-005
,,,-2.90000000e-009,-7.49993394e-005
,,,-2.87500000e-009,-9.42180896e-005
,,,-2.85000000e-009,-1.16249340e-004
,,,-2.82500000e-009,-1.38749340e-004
,,,-2.80000000e-009,-1.58436840e-004
,,,-2.77500000e-009,-1.72968090e-004
,,,-2.75000000e-009,-1.80936840e-004
,,,-2.72500000e-009,-1.79999340e-004
,,,-2.70000000e-009,-1.70155590e-004
,,,-2.67500000e-009,-1.53280590e-004
,,,-2.65000000e-009,-1.31718090e-004
,,,-2.62500000e-009,-1.08280590e-004
,,,-2.60000000e-009,-8.67180895e-005
,,,-2.57500000e-009,-7.03118394e-005
,,,-2.55000000e-009,-6.09368393e-005
,,,-2.52500000e-009,-5.99993393e-005
,,,-2.50000000e-009,-6.98430894e-005
,,,-2.47500000e-009,-8.71868395e-005
,,,-2.45000000e-009,-1.10155590e-004
,,,-2.42500000e-009,-1.34530590e-004
,,,-2.40000000e-009,-1.57030590e-004
,,,-2.37500000e-009,-1.73905590e-004
,,,-2.35000000e-009,-1.81874340e-004
,,,-2.32500000e-009,-1.79999340e-004
,,,-2.30000000e-009,-1.67343090e-004
,,,-2.27500000e-009,-1.46249340e-004
,,,-2.25000000e-009,-1.20936840e-004
,,,-2.22500000e-009,-9.42180896e-005
,,,-2.20000000e-009,-7.12493394e-005
,,,-2.17500000e-009,-5.57805892e-005
,,,-2.15000000e-009,-5.15618392e-005
,,,-2.12500000e-009,-5.99993393e-005
,,,-2.10000000e-009,-8.34368395e-005
,,,-2.07500000e-009,-1.18124340e-004
,,,-2.05000000e-009,-1.59843090e-004
,,,-2.02500000e-009,-2.03905591e-004
,,,-2.00000000e-009,-2.44686841e-004
,,,-1.97500000e-009,-2.77030591e-004
,,,-1.95000000e-009,-2.96249341e-004
,,,-1.92500000e-009,-2.99999341e-004
,,,-1.90000000e-009,-2.89218091e-004
,,,-1.87500000e-009,-2.63905591e-004
,,,-1.85000000e-009,-2.27811841e-004
,,,-1.82500000e-009,-1.85624340e-004
,,,-1.80000000e-009,-1.42968090e-004
,,,-1.77500000e-009,-1.04530590e-004
,,,-1.75000000e-009,-7.59368394e-005
,,,-1.72500000e-009,-5.99993393e-005
,,,-1.70000000e-009,-6.70305893e-005
,,,-1.67500000e-009,-8.95305895e-005
,,,-1.65000000e-009,-1.23749340e-004
,,,-1.62500000e-009,-1.65936840e-004
,,,-1.60000000e-009,-2.09999341e-004
,,,-1.57500000e-009,-2.49843091e-004
,,,-1.55000000e-009,-2.81249341e-004
,,,-1.52500000e-009,-2.99999341e-004
,,,-1.50000000e-009,-3.13593091e-004
,,,-1.47500000e-009,-3.14061841e-004
,,,-1.45000000e-009,-3.02811841e-004
,,,-1.42500000e-009,-2.82655591e-004
,,,-1.40000000e-009,-2.55936841e-004
,,,-1.37500000e-009,-2.27343091e-004
,,,-1.35000000e-009,-2.01093091e-004
,,,-1.32500000e-009,-1.79999340e-004
,,,-1.30000000e-009,-1.84686840e-004
,,,-1.27500000e-009,-2.01561841e-004
,,,-1.25000000e-009,-2.29218091e-004
,,,-1.22500000e-009,-2.65311841e-004
,,,-1.20000000e-009,-3.05624341e-004
,,,-1.17500000e-009,-3.46874342e-004
,,,-1.15000000e-009,-3.85311842e-004
,,,-1.12500000e-009,-4.19999342e-004
,,,-1.10000000e-009,-4.67343093e-004
,,,-1.07500000e-009,-5.12811843e-004
,,,-1.05000000e-009,-5.56405594e-004
,,,-1.02500000e-009,-5.98593094e-004
,,,-1.00000000e-009,-6.40311844e-004
,,,-9.75000000e-010,-6.83436845e-004
,,,-9.50000000e-010,-7.29374345e-004
,,,-9.25000000e-010,-7.79999346e-004
,,,-9.00000000e-010,-8.57343096e-004
,,,-8.75000000e-010,-9.44061847e-004
,,,-8.50000000e-010,-1.03734310e-003
,,,-8.25000000e-010,-1.13437435e-003
,,,-8.00000000e-010,-1.23187435e-003
,,,-7.75000000e-010,-1.32656185e-003
,,,-7.50000000e-010,-1.41609310e-003
,,,-7.25000000e-010,-1.49999935e-003
,,,-7.00000000e-010,-1.59234310e-003
,,,-6.75000000e-010,-1.68421810e-003
,,,-6.50000000e-010,-1.77843685e-003
,,,-6.25000000e-010,-1.87593686e-003
,,,-6.00000000e-010,-1.97953061e-003
,,,-5.75000000e-010,-2.09062436e-003
,,,-5.50000000e-010,-2.21062436e-003
,,,-5.25000000e-010,-2.33999936e-003
,,,-5.00000000e-010,-2.48437436e-003
,,,-4.75000000e-010,-2.63812436e-003
,,,-4.50000000e-010,-2.79890561e-003
,,,-4.25000000e-010,-2.96156186e-003
,,,-4.00000000e-010,-3.12093687e-003
,,,-3.75000000e-010,-3.27281187e-003
,,,-3.50000000e-010,-3.41296812e-003
,,,-3.25000000e-010,-3.53999937e-003
,,,-3.00000000e-010,-3.64546812e-003
,,,-2.75000000e-010,-3.74249937e-003
,,,-2.50000000e-010,-3.83531187e-003
,,,-2.25000000e-010,-3.92812437e-003
,,,-2.00000000e-010,-4.02562437e-003
,,,-1.75000000e-010,-4.13203062e-003
,,,-1.50000000e-010,-4.24968688e-003
,,,-1.25000000e-010,-4.37999938e-003
,,,-1.00000000e-010,-4.50468688e-003
,,,-7.50000000e-011,-4.64203063e-003
,,,-5.00000000e-011,-4.78874938e-003
,,,-2.50000000e-011,-4.94015563e-003
,,,0.00000000e+000,-5.08921813e-003
,,,2.50000000e-011,-5.22984313e-003
,,,5.00000000e-011,-5.35546814e-003
,,,7.50000000e-011,-5.45999939e-003
,,,1.00000000e-010,-5.51062439e-003
,,,1.25000000e-010,-5.53921814e-003
,,,1.50000000e-010,-5.54859314e-003
,,,1.75000000e-010,-5.54343689e-003
,,,2.00000000e-010,-5.52749939e-003
,,,2.25000000e-010,-5.50640564e-003
,,,2.50000000e-010,-5.48296814e-003
,,,2.75000000e-010,-5.45999939e-003
,,,3.00000000e-010,-5.40984314e-003
,,,3.25000000e-010,-5.36671814e-003
,,,3.50000000e-010,-5.33203064e-003
,,,3.75000000e-010,-5.30437438e-003
,,,4.00000000e-010,-5.28281188e-003
,,,4.25000000e-010,-5.26406188e-003
,,,4.50000000e-010,-5.24437438e-003
,,,4.75000000e-010,-5.21999938e-003
,,,5.00000000e-010,-5.16046813e-003
,,,5.25000000e-010,-5.09390563e-003
,,,5.50000000e-010,-5.02078063e-003
,,,5.75000000e-010,-4.94343688e-003
,,,6.00000000e-010,-4.86281188e-003
,,,6.25000000e-010,-4.78171813e-003
,,,6.50000000e-010,-4.70015563e-003
,,,6.75000000e-010,-4.61999938e-003
,,,7.00000000e-010,-4.52249938e-003
,,,7.25000000e-010,-4.42640563e-003
,,,7.50000000e-010,-4.33312438e-003
,,,7.75000000e-010,-4.24312438e-003
,,,8.00000000e-010,-4.15546812e-003
,,,8.25000000e-010,-4.07015562e-003
,,,8.50000000e-010,-3.98531187e-003
,,,8.75000000e-010,-3.89999937e-003
,,,9.00000000e-010,-3.80343687e-003
,,,9.25000000e-010,-3.70265562e-003
,,,9.50000000e-010,-3.59906187e-003
,,,9.75000000e-010,-3.49265562e-003
,,,1.00000000e-009,-3.38437437e-003
,,,1.02500000e-009,-3.27609312e-003
,,,1.05000000e-009,-3.16781187e-003
,,,1.07500000e-009,-3.05999937e-003
,,,1.10000000e-009,-2.95406186e-003
,,,1.12500000e-009,-2.84671811e-003
,,,1.15000000e-009,-2.73843686e-003
,,,1.17500000e-009,-2.63015561e-003
,,,1.20000000e-009,-2.52328061e-003
,,,1.22500000e-009,-2.41828061e-003
,,,1.25000000e-009,-2.31703061e-003
,,,1.27500000e-009,-2.21999936e-003
,,,1.30000000e-009,-2.13468686e-003
,,,1.32500000e-009,-2.05124936e-003
,,,1.35000000e-009,-1.96921811e-003
,,,1.37500000e-009,-1.88999936e-003
,,,1.40000000e-009,-1.81406185e-003
,,,1.42500000e-009,-1.74328060e-003
,,,1.45000000e-009,-1.67812435e-003
,,,1.47500000e-009,-1.61999935e-003
,,,1.50000000e-009,-1.57874935e-003
,,,1.52500000e-009,-1.54031185e-003
,,,1.55000000e-009,-1.50468685e-003
,,,1.57500000e-009,-1.47187435e-003
,,,1.60000000e-009,-1.44281185e-003
,,,1.62500000e-009,-1.41749935e-003
,,,1.65000000e-009,-1.39640560e-003
,,,1.67500000e-009,-1.37999935e-003
,,,1.70000000e-009,-1.37624935e-003
,,,1.72500000e-009,-1.37015560e-003
,,,1.75000000e-009,-1.36124935e-003
,,,1.77500000e-009,-1.34859310e-003
,,,1.80000000e-009,-1.33171810e-003
,,,1.82500000e-009,-1.31156185e-003
,,,1.85000000e-009,-1.28718685e-003
,,,1.87500000e-009,-1.25999935e-003
,,,1.90000000e-009,-1.23656185e-003
,,,1.92500000e-009,-1.20749935e-003
,,,1.95000000e-009,-1.17515560e-003
,,,1.97500000e-009,-1.13999935e-003
,,,2.00000000e-009,-1.10531185e-003
,,,2.02500000e-009,-1.07296810e-003
,,,2.05000000e-009,-1.04390560e-003
,,,2.07500000e-009,-1.01999935e-003
,,,2.10000000e-009,-1.00546810e-003
,,,2.12500000e-009,-9.92811847e-004
,,,2.15000000e-009,-9.80624347e-004
,,,2.17500000e-009,-9.68436847e-004
,,,2.20000000e-009,-9.54843097e-004
,,,2.22500000e-009,-9.39843097e-004
,,,2.25000000e-009,-9.21561847e-004
,,,2.27500000e-009,-8.99999347e-004
,,,2.30000000e-009,-8.77968096e-004
,,,2.32500000e-009,-8.50780596e-004
,,,2.35000000e-009,-8.19843096e-004
,,,2.37500000e-009,-7.86561846e-004
,,,2.40000000e-009,-7.51874345e-004
,,,2.42500000e-009,-7.18593095e-004
,,,2.45000000e-009,-6.87655595e-004
,,,2.47500000e-009,-6.59999344e-004
,,,2.50000000e-009,-6.38905594e-004
,,,2.52500000e-009,-6.21093094e-004
,,,2.55000000e-009,-6.05624344e-004
,,,2.57500000e-009,-5.92499344e-004
,,,2.60000000e-009,-5.80311844e-004
,,,2.62500000e-009,-5.68593094e-004
,,,2.65000000e-009,-5.55468094e-004
,,,2.67500000e-009,-5.39999343e-004
,,,2.70000000e-009,-5.23593093e-004
,,,2.72500000e-009,-5.02499343e-004
,,,2.75000000e-009,-4.76249343e-004
,,,2.77500000e-009,-4.45780593e-004
,,,2.80000000e-009,-4.12030592e-004
,,,2.82500000e-009,-3.75468092e-004
,,,2.85000000e-009,-3.37499342e-004
,,,2.87500000e-009,-2.99999341e-004
,,,2.90000000e-009,-2.68124341e-004
,,,2.92500000e-009,-2.39061841e-004
,,,2.95000000e-009,-2.14218091e-004
,,,2.97500000e-009,-1.94061840e-004
,,,3.00000000e-009,-1.80468090e-004
,,,3.02500000e-009,-1.73436840e-004
,,,3.05000000e-009,-1.73436840e-004
,,,3.07500000e-009,-1.79999340e-004
,,,3.10000000e-009,-1.94530590e-004
,,,3.12500000e-009,-2.11874341e-004
,,,3.15000000e-009,-2.31093091e-004
,,,3.17500000e-009,-2.50311841e-004
,,,3.20000000e-009,-2.67655591e-004
,,,3.22500000e-009,-2.82655591e-004
,,,3.25000000e-009,-2.93905591e-004
,,,3.27500000e-009,-2.99999341e-004
,,,3.30000000e-009,-3.00936841e-004
,,,3.32500000e-009,-2.95311841e-004
,,,3.35000000e-009,-2.83124341e-004
,,,3.37500000e-009,-2.66249341e-004
,,,3.40000000e-009,-2.45624341e-004
,,,3.42500000e-009,-2.23593091e-004
,,,3.45000000e-009,-2.01093091e-004
,,,3.47500000e-009,-1.79999340e-004
,,,3.50000000e-009,-1.63124340e-004
,,,3.52500000e-009,-1.49530590e-004
,,,3.55000000e-009,-1.41561840e-004
,,,3.57500000e-009,-1.38749340e-004
,,,3.60000000e-009,-1.41561840e-004
,,,3.62500000e-009,-1.49999340e-004
,,,3.65000000e-009,-1.63593090e-004
,,,3.67500000e-009,-1.79999340e-004
,,,3.70000000e-009,-1.98749340e-004
,,,3.72500000e-009,-2.16093091e-004
,,,3.75000000e-009,-2.29218091e-004
,,,3.77500000e-009,-2.37186841e-004
,,,3.80000000e-009,-2.37186841e-004
,,,3.82500000e-009,-2.27811841e-004
,,,3.85000000e-009,-2.09061841e-004
,,,3.87500000e-009,-1.79999340e-004
,,,3.90000000e-009,-1.41561840e-004
,,,3.92500000e-009,-9.60930896e-005
,,,3.95000000e-009,-4.54680892e-005
,,,3.97500000e-009,7.03191130e-006
,,,4.00000000e-009,5.81256617e-005
,,,4.02500000e-009,1.05938162e-004
,,,4.05000000e-009,1.47188163e-004
,,,4.07500000e-009,1.80000663e-004
,,,4.10000000e-009,2.00625663e-004
,,,4.12500000e-009,2.11875663e-004
,,,4.15000000e-009,2.14688163e-004
,,,4.17500000e-009,2.11406913e-004
,,,4.20000000e-009,2.03906913e-004
,,,4.22500000e-009,1.95000663e-004
,,,4.25000000e-009,1.86563163e-004
,,,4.27500000e-009,1.80000663e-004
,,,4.30000000e-009,1.72969413e-004
,,,4.32500000e-009,1.69688163e-004
,,,4.35000000e-009,1.70156913e-004
,,,4.37500000e-009,1.72969413e-004
,,,4.40000000e-009,1.77188163e-004
,,,4.42500000e-009,1.80469413e-004
,,,4.45000000e-009,1.81875663e-004
,,,4.47500000e-009,1.80000663e-004
,,,4.50000000e-009,1.71094413e-004
,,,4.52500000e-009,1.58438163e-004
,,,4.55000000e-009,1.42500662e-004
,,,4.57500000e-009,1.24688162e-004
,,,4.60000000e-009,1.05938162e-004
,,,4.62500000e-009,8.81256620e-005
,,,4.65000000e-009,7.26569119e-005
,,,4.67500000e-009,6.00006618e-005
,,,4.70000000e-009,4.92194117e-005
,,,4.72500000e-009,4.26569116e-005
,,,4.75000000e-009,4.03131616e-005
,,,4.77500000e-009,4.17194116e-005
,,,4.80000000e-009,4.59381616e-005
,,,4.82500000e-009,5.10944117e-005
,,,4.85000000e-009,5.62506617e-005
,,,4.87500000e-009,6.00006618e-005
,,,4.90000000e-009,5.85944117e-005
,,,4.92500000e-009,5.34381617e-005
,,,4.95000000e-009,4.45319116e-005
,,,4.97500000e-009,3.09381615e-005
,,,5.00000000e-009,1.31256614e-005
,,,5.02500000e-009,-8.43683883e-006
,,,5.05000000e-009,-3.32805891e-005
,,,5.07500000e-009,-5.99993393e-005
,,,5.10000000e-009,-8.67180895e-005
,,,5.12500000e-009,-1.12968090e-004
,,,5.15000000e-009,-1.36405590e-004
,,,5.17500000e-009,-1.56561840e-004
,,,5.20000000e-009,-1.71561840e-004
,,,5.22500000e-009,-1.80936840e-004
,,,5.25000000e-009,-1.83749340e-004
,,,5.27500000e-009,-1.79999340e-004
,,,5.30000000e-009,-1.68749340e-004
,,,5.32500000e-009,-1.52343090e-004
,,,5.35000000e-009,-1.33593090e-004
,,,5.37500000e-009,-1.13436840e-004
,,,5.40000000e-009,-9.46868396e-005
,,,5.42500000e-009,-7.82805894e-005
,,,5.45000000e-009,-6.65618393e-005
,,,5.47500000e-009,-5.99993393e-005
,,,5.50000000e-009,-5.85930893e-005
,,,5.52500000e-009,-6.42180893e-005
,,,5.55000000e-009,-7.54680894e-005
,,,5.57500000e-009,-9.18743396e-005
,,,5.60000000e-009,-1.12499340e-004
,,,5.62500000e-009,-1.34999340e-004
,,,5.65000000e-009,-1.58436840e-004
,,,5.67500000e-009,-1.79999340e-004
,,,5.70000000e-009,-1.96874340e-004
,,,5.72500000e-009,-2.09530591e-004
,,,5.75000000e-009,-2.17030591e-004
,,,5.77500000e-009,-2.19374341e-004
,,,5.80000000e-009,-2.16093091e-004
,,,5.82500000e-009,-2.08124341e-004
,,,5.85000000e-009,-1.95936840e-004
,,,5.87500000e-009,-1.79999340e-004
,,,5.90000000e-009,-1.59374340e-004
,,,5.92500000e-009,-1.37343090e-004
