RawData/DifferentLengths/R4/R4_25foot_5mV/wave012_Ch1.csv

"Record Length",1000,"Points",-7.72500000e-009,5.44219416e-004
"Sample Interval",2.50000000e-011,s,-7.70000000e-009,5.40000666e-004
"Trigger Point",309,"Samples",-7.67500000e-009,5.32969416e-004
"Trigger Time",4.12961877e-013,s,-7.65000000e-009,5.30156916e-004
"",,,-7.62500000e-009,5.32031916e-004
"Horizontal Offset",-7.72500000e-009,s,-7.60000000e-009,5.36250666e-004
,,,-7.57500000e-009,5.41875666e-004
,,,-7.55000000e-009,5.45625666e-004
,,,-7.52500000e-009,5.45625666e-004
,,,-7.50000000e-009,5.40000666e-004
,,,-7.47500000e-009,5.19844416e-004
,,,-7.45000000e-009,4.93594416e-004
,,,-7.42500000e-009,4.62656915e-004
,,,-7.40000000e-009,4.28438165e-004
,,,-7.37500000e-009,3.92813165e-004
,,,-7.35000000e-009,3.58125664e-004
,,,-7.32500000e-009,3.26250664e-004
,,,-7.30000000e-009,3.00000664e-004
,,,-7.27500000e-009,2.76094414e-004
,,,-7.25000000e-009,2.60156914e-004
,,,-7.22500000e-009,2.52188163e-004
,,,-7.20000000e-009,2.51719413e-004
,,,-7.17500000e-009,2.57813163e-004
,,,-7.15000000e-009,2.69063164e-004
,,,-7.12500000e-009,2.83594414e-004
,,,-7.10000000e-009,3.00000664e-004
,,,-7.07500000e-009,3.12656914e-004
,,,-7.05000000e-009,3.23438164e-004
,,,-7.02500000e-009,3.31406914e-004
,,,-7.00000000e-009,3.35625664e-004
,,,-6.97500000e-009,3.34688164e-004
,,,-6.95000000e-009,3.28594414e-004
,,,-6.92500000e-009,3.16875664e-004
,,,-6.90000000e-009,3.00000664e-004
,,,-6.87500000e-009,2.77031914e-004
,,,-6.85000000e-009,2.49375663e-004
,,,-6.82500000e-009,2.18906913e-004
,,,-6.80000000e-009,1.86563163e-004
,,,-6.77500000e-009,1.52813163e-004
,,,-6.75000000e-009,1.20000662e-004
,,,-6.72500000e-009,8.85944120e-005
,,,-6.70000000e-009,6.00006618e-005
,,,-6.67500000e-009,3.51569115e-005
,,,-6.65000000e-009,1.40631614e-005
,,,-6.62500000e-009,-4.21808880e-006
,,,-6.60000000e-009,-1.96868389e-005
,,,-6.57500000e-009,-3.28118390e-005
,,,-6.55000000e-009,-4.35930891e-005
,,,-6.52500000e-009,-5.24993392e-005
,,,-6.50000000e-009,-5.99993393e-005
,,,-6.47500000e-009,-6.46868393e-005
,,,-6.45000000e-009,-6.84368394e-005
,,,-6.42500000e-009,-7.17180894e-005
,,,-6.40000000e-009,-7.40618394e-005
,,,-6.37500000e-009,-7.45305894e-005
,,,-6.35000000e-009,-7.26555894e-005
,,,-6.32500000e-009,-6.79680894e-005
,,,-6.30000000e-009,-5.99993393e-005
,,,-6.27500000e-009,-4.87493392e-005
,,,-6.25000000e-009,-3.46868391e-005
,,,-6.22500000e-009,-1.92180889e-005
,,,-6.20000000e-009,-2.81183879e-006
,,,-6.17500000e-009,1.40631614e-005
,,,-6.15000000e-009,3.04694115e-005
,,,-6.12500000e-009,4.59381616e-005
,,,-6.10000000e-009,6.00006618e-005
,,,-6.07500000e-009,7.07819119e-005
,,,-6.05000000e-009,7.82819119e-005
,,,-6.02500000e-009,8.20319120e-005
,,,-6.00000000e-009,8.25006620e-005
,,,-5.97500000e-009,8.06256619e-005
,,,-5.95000000e-009,7.54694119e-005
,,,-5.92500000e-009,6.84381618e-005
,,,-5.90000000e-009,6.00006618e-005
,,,-5.87500000e-009,4.92194117e-005
,,,-5.85000000e-009,3.70319116e-005
,,,-5.82500000e-009,2.39069114e-005
,,,-5.80000000e-009,8.90691132e-006
,,,-5.77500000e-009,-7.03058882e-006
,,,-5.75000000e-009,-2.39055890e-005
,,,-5.72500000e-009,-4.17180891e-005
,,,-5.70000000e-009,-5.99993393e-005
,,,-5.67500000e-009,-7.82805894e-005
,,,-5.65000000e-009,-9.60930896e-005
,,,-5.62500000e-009,-1.13436840e-004
,,,-5.60000000e-009,-1.29843090e-004
,,,-5.57500000e-009,-1.45311840e-004
,,,-5.55000000e-009,-1.58905590e-004
,,,-5.52500000e-009,-1.70624340e-004
,,,-5.50000000e-009,-1.79999340e-004
,,,-5.47500000e-009,-1.86561840e-004
,,,-5.45000000e-009,-1.90311840e-004
,,,-5.42500000e-009,-1.92186840e-004
,,,-5.40000000e-009,-1.91718090e-004
,,,-5.37500000e-009,-1.90311840e-004
,,,-5.35000000e-009,-1.87499340e-004
,,,-5.32500000e-009,-1.83749340e-004
,,,-5.30000000e-009,-1.79999340e-004
,,,-5.27500000e-009,-1.75780590e-004
,,,-5.25000000e-009,-1.72030590e-004
,,,-5.22500000e-009,-1.69218090e-004
,,,-5.20000000e-009,-1.68280590e-004
,,,-5.17500000e-009,-1.68749340e-004
,,,-5.15000000e-009,-1.71093090e-004
,,,-5.12500000e-009,-1.75311840e-004
,,,-5.10000000e-009,-1.79999340e-004
,,,-5.07500000e-009,-1.85155590e-004
,,,-5.05000000e-009,-1.89843090e-004
,,,-5.02500000e-009,-1.94061840e-004
,,,-5.00000000e-009,-1.96874340e-004
,,,-4.97500000e-009,-1.97811840e-004
,,,-4.95000000e-009,-1.95468090e-004
,,,-4.92500000e-009,-1.89843090e-004
,,,-4.90000000e-009,-1.79999340e-004
,,,-4.87500000e-009,-1.66405590e-004
,,,-4.85000000e-009,-1.50936840e-004
,,,-4.82500000e-009,-1.33593090e-004
,,,-4.80000000e-009,-1.15780590e-004
,,,-4.77500000e-009,-9.84368396e-005
,,,-4.75000000e-009,-8.29680895e-005
,,,-4.72500000e-009,-7.03118394e-005
,,,-4.70000000e-009,-5.99993393e-005
,,,-4.67500000e-009,-5.43743392e-005
,,,-4.65000000e-009,-5.15618392e-005
,,,-4.62500000e-009,-5.15618392e-005
,,,-4.60000000e-009,-5.29680892e-005
,,,-4.57500000e-009,-5.57805892e-005
,,,-4.55000000e-009,-5.81243393e-005
,,,-4.52500000e-009,-5.99993393e-005
,,,-4.50000000e-009,-5.99993393e-005
,,,-4.47500000e-009,-5.90618393e-005
,,,-4.45000000e-009,-5.57805892e-005
,,,-4.42500000e-009,-5.24993392e-005
,,,-4.40000000e-009,-4.92180892e-005
,,,-4.37500000e-009,-4.73430892e-005
,,,-4.35000000e-009,-4.78118392e-005
,,,-4.32500000e-009,-5.20305892e-005
,,,-4.30000000e-009,-5.99993393e-005
,,,-4.27500000e-009,-7.26555894e-005
,,,-4.25000000e-009,-8.85930895e-005
,,,-4.22500000e-009,-1.06405590e-004
,,,-4.20000000e-009,-1.24686840e-004
,,,-4.17500000e-009,-1.42499340e-004
,,,-4.15000000e-009,-1.58436840e-004
,,,-4.12500000e-009,-1.71093090e-004
,,,-4.10000000e-009,-1.79999340e-004
,,,-4.07500000e-009,-1.83749340e-004
,,,-4.05000000e-009,-1.83749340e-004
,,,-4.02500000e-009,-1.81405590e-004
,,,-4.00000000e-009,-1.77655590e-004
,,,-3.97500000e-009,-1.74374340e-004
,,,-3.95000000e-009,-1.72968090e-004
,,,-3.92500000e-009,-1.74843090e-004
,,,-3.90000000e-009,-1.79999340e-004
,,,-3.87500000e-009,-1.88436840e-004
,,,-3.85000000e-009,-1.98280590e-004
,,,-3.82500000e-009,-2.08124341e-004
,,,-3.80000000e-009,-2.15624341e-004
,,,-3.77500000e-009,-2.17968091e-004
,,,-3.75000000e-009,-2.13749341e-004
,,,-3.72500000e-009,-2.01561841e-004
,,,-3.70000000e-009,-1.79999340e-004
,,,-3.67500000e-009,-1.50468090e-004
,,,-3.65000000e-009,-1.14374340e-004
,,,-3.62500000e-009,-7.54680894e-005
,,,-3.60000000e-009,-3.60930891e-005
,,,-3.57500000e-009,6.61239028e-010
,,,-3.55000000e-009,2.95319115e-005
,,,-3.52500000e-009,4.96881617e-005
,,,-3.50000000e-009,6.00006618e-005
,,,-3.47500000e-009,5.71881617e-005
,,,-3.45000000e-009,4.45319116e-005
,,,-3.42500000e-009,2.53131615e-005
,,,-3.40000000e-009,1.87566126e-006
,,,-3.37500000e-009,-2.20305890e-005
,,,-3.35000000e-009,-4.21868391e-005
,,,-3.32500000e-009,-5.53118392e-005
,,,-3.30000000e-009,-5.99993393e-005
,,,-3.27500000e-009,-5.62493392e-005
,,,-3.25000000e-009,-4.31243391e-005
,,,-3.22500000e-009,-2.34368390e-005
,,,-3.20000000e-009,-4.68088765e-007
,,,-3.17500000e-009,2.29694114e-005
,,,-3.15000000e-009,4.31256616e-005
,,,-3.12500000e-009,5.62506617e-005
,,,-3.10000000e-009,6.00006618e-005
,,,-3.07500000e-009,5.10944117e-005
,,,-3.05000000e-009,3.18756615e-005
,,,-3.02500000e-009,3.75066127e-006
,,,-3.00000000e-009,-3.14055890e-005
,,,-2.97500000e-009,-7.07805894e-005
,,,-2.95000000e-009,-1.10624340e-004
,,,-2.92500000e-009,-1.48124340e-004
,,,-2.90000000e-009,-1.79999340e-004
,,,-2.87500000e-009,-2.04843091e-004
,,,-2.85000000e-009,-2.20780591e-004
,,,-2.82500000e-009,-2.27811841e-004
,,,-2.80000000e-009,-2.27343091e-004
,,,-2.77500000e-009,-2.20311841e-004
,,,-2.75000000e-009,-2.08593091e-004
,,,-2.72500000e-009,-1.94530590e-004
,,,-2.70000000e-009,-1.79999340e-004
,,,-2.67500000e-009,-1.68280590e-004
,,,-2.65000000e-009,-1.59374340e-004
,,,-2.62500000e-009,-1.54218090e-004
,,,-2.60000000e-009,-1.53280590e-004
,,,-2.57500000e-009,-1.56561840e-004
,,,-2.55000000e-009,-1.62655590e-004
,,,-2.52500000e-009,-1.70624340e-004
,,,-2.50000000e-009,-1.79999340e-004
,,,-2.47500000e-009,-1.88436840e-004
,,,-2.45000000e-009,-1.95936840e-004
,,,-2.42500000e-009,-2.01561841e-004
,,,-2.40000000e-009,-2.04374341e-004
,,,-2.37500000e-009,-2.03905591e-004
,,,-2.35000000e-009,-1.99686840e-004
,,,-2.32500000e-009,-1.91718090e-004
,,,-2.30000000e-009,-1.79999340e-004
,,,-2.27500000e-009,-1.65936840e-004
,,,-2.25000000e-009,-1.49061840e-004
,,,-2.22500000e-009,-1.31718090e-004
,,,-2.20000000e-009,-1.13436840e-004
,,,-2.17500000e-009,-9.65618396e-005
,,,-2.15000000e-009,-8.10930895e-005
,,,-2.12500000e-009,-6.89055894e-005
,,,-2.10000000e-009,-5.99993393e-005
,,,-2.07500000e-009,-5.76555893e-005
,,,-2.05000000e-009,-6.09368393e-005
,,,-2.02500000e-009,-6.93743394e-005
,,,-2.00000000e-009,-8.39055895e-005
,,,-1.97500000e-009,-1.03124340e-004
,,,-1.95000000e-009,-1.26093090e-004
,,,-1.92500000e-009,-1.52343090e-004
,,,-1.90000000e-009,-1.79999340e-004
,,,-1.87500000e-009,-2.10936841e-004
,,,-1.85000000e-009,-2.39999341e-004
,,,-1.82500000e-009,-2.65780591e-004
,,,-1.80000000e-009,-2.86874341e-004
,,,-1.77500000e-009,-3.01405591e-004
,,,-1.75000000e-009,-3.08905591e-004
,,,-1.72500000e-009,-3.08436841e-004
,,,-1.70000000e-009,-2.99999341e-004
,,,-1.67500000e-009,-2.88749341e-004
,,,-1.65000000e-009,-2.72343091e-004
,,,-1.62500000e-009,-2.53593091e-004
,,,-1.60000000e-009,-2.33905591e-004
,,,-1.57500000e-009,-2.15155591e-004
,,,-1.55000000e-009,-1.99218090e-004
,,,-1.52500000e-009,-1.87030590e-004
,,,-1.50000000e-009,-1.79999340e-004
,,,-1.47500000e-009,-1.87499340e-004
,,,-1.45000000e-009,-2.01093091e-004
,,,-1.42500000e-009,-2.19374341e-004
,,,-1.40000000e-009,-2.39999341e-004
,,,-1.37500000e-009,-2.60155591e-004
,,,-1.35000000e-009,-2.77968091e-004
,,,-1.32500000e-009,-2.91561841e-004
,,,-1.30000000e-009,-2.99999341e-004
,,,-1.27500000e-009,-3.15468092e-004
,,,-1.25000000e-009,-3.29061842e-004
,,,-1.22500000e-009,-3.40780592e-004
,,,-1.20000000e-009,-3.52030592e-004
,,,-1.17500000e-009,-3.64686842e-004
,,,-1.15000000e-009,-3.79218092e-004
,,,-1.12500000e-009,-3.97499342e-004
,,,-1.10000000e-009,-4.19999342e-004
,,,-1.07500000e-009,-4.65936843e-004
,,,-1.05000000e-009,-5.18436843e-004
,,,-1.02500000e-009,-5.74686844e-004
,,,-1.00000000e-009,-6.30936844e-004
,,,-9.75000000e-010,-6.82499345e-004
,,,-9.50000000e-010,-7.26093095e-004
,,,-9.25000000e-010,-7.58905595e-004
,,,-9.00000000e-010,-7.79999346e-004
,,,-8.75000000e-010,-8.12343096e-004
,,,-8.50000000e-010,-8.39530596e-004
,,,-8.25000000e-010,-8.63905596e-004
,,,-8.00000000e-010,-8.87343096e-004
,,,-7.75000000e-010,-9.12186847e-004
,,,-7.50000000e-010,-9.40780597e-004
,,,-7.25000000e-010,-9.75936847e-004
,,,-7.00000000e-010,-1.01999935e-003
,,,-6.75000000e-010,-1.10390560e-003
,,,-6.50000000e-010,-1.20234310e-003
,,,-6.25000000e-010,-1.31296810e-003
,,,-6.00000000e-010,-1.42968685e-003
,,,-5.75000000e-010,-1.54687435e-003
,,,-5.50000000e-010,-1.65984310e-003
,,,-5.25000000e-010,-1.76484310e-003
,,,-5.00000000e-010,-1.85999935e-003
,,,-4.75000000e-010,-1.97437436e-003
,,,-4.50000000e-010,-2.08687436e-003
,,,-4.25000000e-010,-2.19937436e-003
,,,-4.00000000e-010,-2.31328061e-003
,,,-3.75000000e-010,-2.42999936e-003
,,,-3.50000000e-010,-2.55187436e-003
,,,-3.25000000e-010,-2.68124936e-003
,,,-3.00000000e-010,-2.81999936e-003
,,,-2.75000000e-010,-2.99484311e-003
,,,-2.50000000e-010,-3.18609312e-003
,,,-2.25000000e-010,-3.38953062e-003
,,,-2.00000000e-010,-3.59906187e-003
,,,-1.75000000e-010,-3.80859312e-003
,,,-1.50000000e-010,-4.01203062e-003
,,,-1.25000000e-010,-4.20328063e-003
,,,-1.00000000e-010,-4.37999938e-003
,,,-7.50000000e-011,-4.55624938e-003
,,,-5.00000000e-011,-4.72546813e-003
,,,-2.50000000e-011,-4.88906188e-003
,,,0.00000000e+000,-5.04890563e-003
,,,2.50000000e-011,-5.20687438e-003
,,,5.00000000e-011,-5.36624939e-003
,,,7.50000000e-011,-5.52984314e-003
,,,1.00000000e-010,-5.69999939e-003
,,,1.25000000e-010,-5.88187439e-003
,,,1.50000000e-010,-6.08156189e-003
,,,1.75000000e-010,-6.29765564e-003
,,,2.00000000e-010,-6.52781190e-003
,,,2.25000000e-010,-6.76828065e-003
,,,2.50000000e-010,-7.01343690e-003
,,,2.75000000e-010,-7.25906190e-003
,,,3.00000000e-010,-7.49999940e-003
,,,3.25000000e-010,-7.71562441e-003
,,,3.50000000e-010,-7.92749941e-003
,,,3.75000000e-010,-8.13421816e-003
,,,4.00000000e-010,-8.33531191e-003
,,,4.25000000e-010,-8.52890566e-003
,,,4.50000000e-010,-8.71453066e-003
,,,4.75000000e-010,-8.89124942e-003
,,,5.00000000e-010,-9.05999942e-003
,,,5.25000000e-010,-9.18749942e-003
,,,5.50000000e-010,-9.31406192e-003
,,,5.75000000e-010,-9.44296817e-003
,,,6.00000000e-010,-9.57609317e-003
,,,6.25000000e-010,-9.71343692e-003
,,,6.50000000e-010,-9.85453067e-003
,,,6.75000000e-010,-9.99749943e-003
,,,7.00000000e-010,-1.01399994e-002
,,,7.25000000e-010,-1.02323432e-002
,,,7.50000000e-010,-1.03232807e-002
,,,7.75000000e-010,-1.04118744e-002
,,,8.00000000e-010,-1.04962494e-002
,,,8.25000000e-010,-1.05745307e-002
,,,8.50000000e-010,-1.06434369e-002
,,,8.75000000e-010,-1.06996869e-002
,,,9.00000000e-010,-1.07399994e-002
,,,9.25000000e-010,-1.07118744e-002
,,,9.50000000e-010,-1.06692182e-002
,,,9.75000000e-010,-1.06148432e-002
,,,1.00000000e-009,-1.05515619e-002
,,,1.02500000e-009,-1.04831244e-002
,,,1.05000000e-009,-1.04104682e-002
,,,1.07500000e-009,-1.03359369e-002
,,,1.10000000e-009,-1.02599994e-002
,,,1.12500000e-009,-1.01367182e-002
,,,1.15000000e-009,-1.00162494e-002
,,,1.17500000e-009,-9.90093692e-003
,,,1.20000000e-009,-9.79265567e-003
,,,1.22500000e-009,-9.69187442e-003
,,,1.25000000e-009,-9.59765567e-003
,,,1.27500000e-009,-9.50812442e-003
,,,1.30000000e-009,-9.41999942e-003
,,,1.32500000e-009,-9.29296817e-003
,,,1.35000000e-009,-9.16078067e-003
,,,1.37500000e-009,-9.02156192e-003
,,,1.40000000e-009,-8.87578067e-003
,,,1.42500000e-009,-8.72249941e-003
,,,1.45000000e-009,-8.56218691e-003
,,,1.47500000e-009,-8.39437441e-003
,,,1.50000000e-009,-8.21999941e-003
,,,1.52500000e-009,-8.01609316e-003
,,,1.55000000e-009,-7.80609316e-003
,,,1.57500000e-009,-7.59374940e-003
,,,1.60000000e-009,-7.38421815e-003
,,,1.62500000e-009,-7.18312440e-003
,,,1.65000000e-009,-6.99328065e-003
,,,1.67500000e-009,-6.81843690e-003
,,,1.70000000e-009,-6.65999940e-003
,,,1.72500000e-009,-6.50999940e-003
,,,1.75000000e-009,-6.36890564e-003
,,,1.77500000e-009,-6.23390564e-003
,,,1.80000000e-009,-6.10359314e-003
,,,1.82500000e-009,-5.97515564e-003
,,,1.85000000e-009,-5.84671814e-003
,,,1.87500000e-009,-5.71546814e-003
,,,1.90000000e-009,-5.57999939e-003
,,,1.92500000e-009,-5.44171814e-003
,,,1.95000000e-009,-5.28937438e-003
,,,1.97500000e-009,-5.12484313e-003
,,,2.00000000e-009,-4.95140563e-003
,,,2.02500000e-009,-4.77328063e-003
,,,2.05000000e-009,-4.59562438e-003
,,,2.07500000e-009,-4.42359313e-003
,,,2.10000000e-009,-4.25999938e-003
,,,2.12500000e-009,-4.11984312e-003
,,,2.15000000e-009,-3.98531187e-003
,,,2.17500000e-009,-3.85640562e-003
,,,2.20000000e-009,-3.73312437e-003
,,,2.22500000e-009,-3.61593687e-003
,,,2.25000000e-009,-3.50484312e-003
,,,2.27500000e-009,-3.39984312e-003
,,,2.30000000e-009,-3.29999937e-003
,,,2.32500000e-009,-3.21984312e-003
,,,2.35000000e-009,-3.13546812e-003
,,,2.37500000e-009,-3.04593687e-003
,,,2.40000000e-009,-2.95265561e-003
,,,2.42500000e-009,-2.85656186e-003
,,,2.45000000e-009,-2.76140561e-003
,,,2.47500000e-009,-2.66812436e-003
,,,2.50000000e-009,-2.57999936e-003
,,,2.52500000e-009,-2.51484311e-003
,,,2.55000000e-009,-2.44968686e-003
,,,2.57500000e-009,-2.38546811e-003
,,,2.60000000e-009,-2.32171811e-003
,,,2.62500000e-009,-2.26031186e-003
,,,2.65000000e-009,-2.20218686e-003
,,,2.67500000e-009,-2.14828061e-003
,,,2.70000000e-009,-2.09999936e-003
,,,2.72500000e-009,-2.06999936e-003
,,,2.75000000e-009,-2.03953061e-003
,,,2.77500000e-009,-2.00812436e-003
,,,2.80000000e-009,-1.97624936e-003
,,,2.82500000e-009,-1.94484311e-003
,,,2.85000000e-009,-1.91484311e-003
,,,2.87500000e-009,-1.88624936e-003
,,,2.90000000e-009,-1.85999935e-003
,,,2.92500000e-009,-1.84593685e-003
,,,2.95000000e-009,-1.82765560e-003
,,,2.97500000e-009,-1.80421810e-003
,,,3.00000000e-009,-1.77562435e-003
,,,3.02500000e-009,-1.74234310e-003
,,,3.05000000e-009,-1.70437435e-003
,,,3.07500000e-009,-1.66312435e-003
,,,3.10000000e-009,-1.61999935e-003
,,,3.12500000e-009,-1.58296810e-003
,,,3.15000000e-009,-1.54359310e-003
,,,3.17500000e-009,-1.50421810e-003
,,,3.20000000e-009,-1.46671810e-003
,,,3.22500000e-009,-1.43390560e-003
,,,3.25000000e-009,-1.40765560e-003
,,,3.27500000e-009,-1.38937435e-003
,,,3.30000000e-009,-1.37999935e-003
,,,3.32500000e-009,-1.38328060e-003
,,,3.35000000e-009,-1.38984310e-003
,,,3.37500000e-009,-1.39828060e-003
,,,3.40000000e-009,-1.40531185e-003
,,,3.42500000e-009,-1.40906185e-003
,,,3.45000000e-009,-1.40718685e-003
,,,3.47500000e-009,-1.39828060e-003
,,,3.50000000e-009,-1.37999935e-003
,,,3.52500000e-009,-1.35328060e-003
,,,3.55000000e-009,-1.31624935e-003
,,,3.57500000e-009,-1.27078060e-003
,,,3.60000000e-009,-1.21921810e-003
,,,3.62500000e-009,-1.16531185e-003
,,,3.65000000e-009,-1.11234310e-003
,,,3.67500000e-009,-1.06312435e-003
,,,3.70000000e-009,-1.01999935e-003
,,,3.72500000e-009,-9.87186847e-004
,,,3.75000000e-009,-9.60936847e-004
,,,3.77500000e-009,-9.41718097e-004
,,,3.80000000e-009,-9.28593097e-004
,,,3.82500000e-009,-9.19218097e-004
,,,3.85000000e-009,-9.12655597e-004
,,,3.87500000e-009,-9.06561847e-004
,,,3.90000000e-009,-8.99999347e-004
,,,3.92500000e-009,-8.92968097e-004
,,,3.95000000e-009,-8.81718096e-004
,,,3.97500000e-009,-8.66718096e-004
,,,4.00000000e-009,-8.49374346e-004
,,,4.02500000e-009,-8.30624346e-004
,,,4.05000000e-009,-8.12343096e-004
,,,4.07500000e-009,-7.94999346e-004
,,,4.10000000e-009,-7.79999346e-004
,,,4.12500000e-009,-7.68749345e-004
,,,4.15000000e-009,-7.58436845e-004
,,,4.17500000e-009,-7.48124345e-004
,,,4.20000000e-009,-7.36874345e-004
,,,4.22500000e-009,-7.23280595e-004
,,,4.25000000e-009,-7.06405595e-004
,,,4.27500000e-009,-6.85311845e-004
,,,4.30000000e-009,-6.59999344e-004
,,,4.32500000e-009,-6.32811844e-004
,,,4.35000000e-009,-6.00936844e-004
,,,4.37500000e-009,-5.66718094e-004
,,,4.40000000e-009,-5.31561843e-004
,,,4.42500000e-009,-4.97343093e-004
,,,4.45000000e-009,-4.66405593e-004
,,,4.47500000e-009,-4.40155593e-004
,,,4.50000000e-009,-4.19999342e-004
,,,4.52500000e-009,-4.12030592e-004
,,,4.55000000e-009,-4.08749342e-004
,,,4.57500000e-009,-4.10155592e-004
,,,4.60000000e-009,-4.14374342e-004
,,,4.62500000e-009,-4.18593092e-004
,,,4.65000000e-009,-4.22343092e-004
,,,4.67500000e-009,-4.23280592e-004
,,,4.70000000e-009,-4.19999342e-004
,,,4.72500000e-009,-4.15780592e-004
,,,4.75000000e-009,-4.05936842e-004
,,,4.77500000e-009,-3.91874342e-004
,,,4.80000000e-009,-3.74061842e-004
,,,4.82500000e-009,-3.54843092e-004
,,,4.85000000e-009,-3.34686842e-004
,,,4.87500000e-009,-3.15936842e-004
,,,4.90000000e-009,-2.99999341e-004
,,,4.92500000e-009,-2.92499341e-004
,,,4.95000000e-009,-2.88749341e-004
,,,4.97500000e-009,-2.88280591e-004
,,,5.00000000e-009,-2.89686841e-004
,,,5.02500000e-009,-2.92499341e-004
,,,5.05000000e-009,-2.95311841e-004
,,,5.07500000e-009,-2.98124341e-004
,,,5.10000000e-009,-2.99999341e-004
,,,5.12500000e-009,-3.06561841e-004
,,,5.15000000e-009,-3.12655591e-004
,,,5.17500000e-009,-3.20155592e-004
,,,5.20000000e-009,-3.30468092e-004
,,,5.22500000e-009,-3.44530592e-004
,,,5.25000000e-009,-3.64218092e-004
,,,5.27500000e-009,-3.89061842e-004
,,,5.30000000e-009,-4.19999342e-004
,,,5.32500000e-009,-4.58436843e-004
,,,5.35000000e-009,-4.99218093e-004
,,,5.37500000e-009,-5.39999343e-004
,,,5.40000000e-009,-5.78905594e-004
,,,5.42500000e-009,-6.12186844e-004
,,,5.45000000e-009,-6.37968094e-004
,,,5.47500000e-009,-6.54374344e-004
,,,5.50000000e-009,-6.59999344e-004
,,,5.52500000e-009,-6.53905594e-004
,,,5.55000000e-009,-6.38436844e-004
,,,5.57500000e-009,-6.17343094e-004
,,,5.60000000e-009,-5.93436844e-004
,,,5.62500000e-009,-5.70468094e-004
,,,5.65000000e-009,-5.52186844e-004
,,,5.67500000e-009,-5.41405593e-004
,,,5.70000000e-009,-5.39999343e-004
,,,5.72500000e-009,-5.49374344e-004
,,,5.75000000e-009,-5.69530594e-004
,,,5.77500000e-009,-5.98124344e-004
,,,5.80000000e-009,-6.33749344e-004
,,,5.82500000e-009,-6.73124345e-004
,,,5.85000000e-009,-7.12499345e-004
