RawData/DifferentLengths/R4/R4_25foot_5mV/wave018_Ch1.csv

"Record Length",1000,"Points",-7.72500000e-009,-4.30780593e-004
"Sample Interval",2.50000000e-011,s,-7.70000000e-009,-4.19999342e-004
"Trigger Point",309,"Samples",-7.67500000e-009,-4.07811842e-004
"Trigger Time",1.51175610e-011,s,-7.65000000e-009,-3.99843092e-004
"",,,-7.62500000e-009,-3.96093092e-004
"Horizontal Offset",-7.72500000e-009,s,-7.60000000e-009,-3.97030592e-004
,,,-7.57500000e-009,-4.01249342e-004
,,,-7.55000000e-009,-4.07343092e-004
,,,-7.52500000e-009,-4.14374342e-004
,,,-7.50000000e-009,-4.19999342e-004
,,,-7.47500000e-009,-4.18124342e-004
,,,-7.45000000e-009,-4.12968092e-004
,,,-7.42500000e-009,-4.03593092e-004
,,,-7.40000000e-009,-3.89999342e-004
,,,-7.37500000e-009,-3.72186842e-004
,,,-7.35000000e-009,-3.51093092e-004
,,,-7.32500000e-009,-3.27186842e-004
,,,-7.30000000e-009,-2.99999341e-004
,,,-7.27500000e-009,-2.68593091e-004
,,,-7.25000000e-009,-2.35780591e-004
,,,-7.22500000e-009,-2.03436841e-004
,,,-7.20000000e-009,-1.71561840e-004
,,,-7.17500000e-009,-1.40624340e-004
,,,-7.15000000e-009,-1.12030590e-004
,,,-7.12500000e-009,-8.48430895e-005
,,,-7.10000000e-009,-5.99993393e-005
,,,-7.07500000e-009,-3.70305891e-005
,,,-7.05000000e-009,-1.64055889e-005
,,,-7.02500000e-009,1.40691125e-006
,,,-7.00000000e-009,1.64069114e-005
,,,-6.97500000e-009,2.95319115e-005
,,,-6.95000000e-009,4.07819116e-005
,,,-6.92500000e-009,5.06256617e-005
,,,-6.90000000e-009,6.00006618e-005
,,,-6.87500000e-009,6.75006618e-005
,,,-6.85000000e-009,7.64069119e-005
,,,-6.82500000e-009,8.71881620e-005
,,,-6.80000000e-009,1.00781912e-004
,,,-6.77500000e-009,1.16719412e-004
,,,-6.75000000e-009,1.35469412e-004
,,,-6.72500000e-009,1.56563163e-004
,,,-6.70000000e-009,1.80000663e-004
,,,-6.67500000e-009,2.02031913e-004
,,,-6.65000000e-009,2.24531913e-004
,,,-6.62500000e-009,2.46563163e-004
,,,-6.60000000e-009,2.66250664e-004
,,,-6.57500000e-009,2.82656914e-004
,,,-6.55000000e-009,2.93906914e-004
,,,-6.52500000e-009,3.00000664e-004
,,,-6.50000000e-009,3.00000664e-004
,,,-6.47500000e-009,2.89688164e-004
,,,-6.45000000e-009,2.75156914e-004
,,,-6.42500000e-009,2.57813163e-004
,,,-6.40000000e-009,2.38594413e-004
,,,-6.37500000e-009,2.20313163e-004
,,,-6.35000000e-009,2.03438163e-004
,,,-6.32500000e-009,1.89844413e-004
,,,-6.30000000e-009,1.80000663e-004
,,,-6.27500000e-009,1.71563163e-004
,,,-6.25000000e-009,1.68281913e-004
,,,-6.22500000e-009,1.68281913e-004
,,,-6.20000000e-009,1.71094413e-004
,,,-6.17500000e-009,1.74844413e-004
,,,-6.15000000e-009,1.78125663e-004
,,,-6.12500000e-009,1.80000663e-004
,,,-6.10000000e-009,1.80000663e-004
,,,-6.07500000e-009,1.75313163e-004
,,,-6.05000000e-009,1.69688163e-004
,,,-6.02500000e-009,1.63594413e-004
,,,-6.00000000e-009,1.58906913e-004
,,,-5.97500000e-009,1.56563163e-004
,,,-5.95000000e-009,1.58906913e-004
,,,-5.92500000e-009,1.66406913e-004
,,,-5.90000000e-009,1.80000663e-004
,,,-5.87500000e-009,1.97813163e-004
,,,-5.85000000e-009,2.19375663e-004
,,,-5.82500000e-009,2.42813163e-004
,,,-5.80000000e-009,2.65781914e-004
,,,-5.77500000e-009,2.85469414e-004
,,,-5.75000000e-009,2.98594414e-004
,,,-5.72500000e-009,3.04219414e-004
,,,-5.70000000e-009,3.00000664e-004
,,,-5.67500000e-009,2.85000664e-004
,,,-5.65000000e-009,2.61563164e-004
,,,-5.62500000e-009,2.31094413e-004
,,,-5.60000000e-009,1.95469413e-004
,,,-5.57500000e-009,1.57969413e-004
,,,-5.55000000e-009,1.20938162e-004
,,,-5.52500000e-009,8.76569120e-005
,,,-5.50000000e-009,6.00006618e-005
,,,-5.47500000e-009,4.21881616e-005
,,,-5.45000000e-009,3.23444115e-005
,,,-5.42500000e-009,3.00006615e-005
,,,-5.40000000e-009,3.28131615e-005
,,,-5.37500000e-009,3.89069116e-005
,,,-5.35000000e-009,4.68756616e-005
,,,-5.32500000e-009,5.43756617e-005
,,,-5.30000000e-009,6.00006618e-005
,,,-5.27500000e-009,6.56256618e-005
,,,-5.25000000e-009,6.84381618e-005
,,,-5.22500000e-009,6.84381618e-005
,,,-5.20000000e-009,6.65631618e-005
,,,-5.17500000e-009,6.32819118e-005
,,,-5.15000000e-009,6.04694118e-005
,,,-5.12500000e-009,5.85944117e-005
,,,-5.10000000e-009,6.00006618e-005
,,,-5.07500000e-009,6.75006618e-005
,,,-5.05000000e-009,7.87506619e-005
,,,-5.02500000e-009,9.32819120e-005
,,,-5.00000000e-009,1.10156912e-004
,,,-4.97500000e-009,1.28438162e-004
,,,-4.95000000e-009,1.46719413e-004
,,,-4.92500000e-009,1.64063163e-004
,,,-4.90000000e-009,1.80000663e-004
,,,-4.87500000e-009,1.95469413e-004
,,,-4.85000000e-009,2.09531913e-004
,,,-4.82500000e-009,2.22188163e-004
,,,-4.80000000e-009,2.34844413e-004
,,,-4.77500000e-009,2.47969413e-004
,,,-4.75000000e-009,2.62500664e-004
,,,-4.72500000e-009,2.79375664e-004
,,,-4.70000000e-009,3.00000664e-004
,,,-4.67500000e-009,3.23906914e-004
,,,-4.65000000e-009,3.51094414e-004
,,,-4.62500000e-009,3.81094415e-004
,,,-4.60000000e-009,4.12969415e-004
,,,-4.57500000e-009,4.45781915e-004
,,,-4.55000000e-009,4.78594415e-004
,,,-4.52500000e-009,5.10000666e-004
,,,-4.50000000e-009,5.40000666e-004
,,,-4.47500000e-009,5.63438166e-004
,,,-4.45000000e-009,5.84063166e-004
,,,-4.42500000e-009,6.01875666e-004
,,,-4.40000000e-009,6.16875667e-004
,,,-4.37500000e-009,6.30000667e-004
,,,-4.35000000e-009,6.41250667e-004
,,,-4.32500000e-009,6.51094417e-004
,,,-4.30000000e-009,6.60000667e-004
,,,-4.27500000e-009,6.62344417e-004
,,,-4.25000000e-009,6.63750667e-004
,,,-4.22500000e-009,6.65156917e-004
,,,-4.20000000e-009,6.65625667e-004
,,,-4.17500000e-009,6.66094417e-004
,,,-4.15000000e-009,6.65156917e-004
,,,-4.12500000e-009,6.63281917e-004
,,,-4.10000000e-009,6.60000667e-004
,,,-4.07500000e-009,6.49219417e-004
,,,-4.05000000e-009,6.36563167e-004
,,,-4.02500000e-009,6.22969417e-004
,,,-4.00000000e-009,6.07969417e-004
,,,-3.97500000e-009,5.91563166e-004
,,,-3.95000000e-009,5.74688166e-004
,,,-3.92500000e-009,5.57344416e-004
,,,-3.90000000e-009,5.40000666e-004
,,,-3.87500000e-009,5.18906916e-004
,,,-3.85000000e-009,4.98750666e-004
,,,-3.82500000e-009,4.80469415e-004
,,,-3.80000000e-009,4.63594415e-004
,,,-3.77500000e-009,4.49531915e-004
,,,-3.75000000e-009,4.37813165e-004
,,,-3.72500000e-009,4.27969415e-004
,,,-3.70000000e-009,4.20000665e-004
,,,-3.67500000e-009,4.10625665e-004
,,,-3.65000000e-009,4.01250665e-004
,,,-3.62500000e-009,3.90938165e-004
,,,-3.60000000e-009,3.79219415e-004
,,,-3.57500000e-009,3.64688164e-004
,,,-3.55000000e-009,3.46875664e-004
,,,-3.52500000e-009,3.25313164e-004
,,,-3.50000000e-009,3.00000664e-004
,,,-3.47500000e-009,2.70000664e-004
,,,-3.45000000e-009,2.37188163e-004
,,,-3.42500000e-009,2.02500663e-004
,,,-3.40000000e-009,1.68281913e-004
,,,-3.37500000e-009,1.35000662e-004
,,,-3.35000000e-009,1.05000662e-004
,,,-3.32500000e-009,7.96881619e-005
,,,-3.30000000e-009,6.00006618e-005
,,,-3.27500000e-009,4.78131617e-005
,,,-3.25000000e-009,4.12506616e-005
,,,-3.22500000e-009,3.89069116e-005
,,,-3.20000000e-009,4.03131616e-005
,,,-3.17500000e-009,4.45319116e-005
,,,-3.15000000e-009,4.96881617e-005
,,,-3.12500000e-009,5.48444117e-005
,,,-3.10000000e-009,6.00006618e-005
,,,-3.07500000e-009,6.42194118e-005
,,,-3.05000000e-009,6.65631618e-005
,,,-3.02500000e-009,6.60944118e-005
,,,-3.00000000e-009,6.42194118e-005
,,,-2.97500000e-009,6.18756618e-005
,,,-2.95000000e-009,6.00006618e-005
,,,-2.92500000e-009,5.90631618e-005
,,,-2.90000000e-009,6.00006618e-005
,,,-2.87500000e-009,6.23444118e-005
,,,-2.85000000e-009,6.56256618e-005
,,,-2.82500000e-009,6.89069118e-005
,,,-2.80000000e-009,7.17194119e-005
,,,-2.77500000e-009,7.26569119e-005
,,,-2.75000000e-009,7.12506619e-005
,,,-2.72500000e-009,6.70319118e-005
,,,-2.70000000e-009,6.00006618e-005
,,,-2.67500000e-009,4.92194117e-005
,,,-2.65000000e-009,3.56256615e-005
,,,-2.62500000e-009,1.92194114e-005
,,,-2.60000000e-009,1.40691125e-006
,,,-2.57500000e-009,-1.68743389e-005
,,,-2.55000000e-009,-3.37493391e-005
,,,-2.52500000e-009,-4.87493392e-005
,,,-2.50000000e-009,-5.99993393e-005
,,,-2.47500000e-009,-6.65618393e-005
,,,-2.45000000e-009,-6.98430894e-005
,,,-2.42500000e-009,-6.98430894e-005
,,,-2.40000000e-009,-6.79680894e-005
,,,-2.37500000e-009,-6.51555893e-005
,,,-2.35000000e-009,-6.18743393e-005
,,,-2.32500000e-009,-5.99993393e-005
,,,-2.30000000e-009,-5.99993393e-005
,,,-2.27500000e-009,-6.23430893e-005
,,,-2.25000000e-009,-6.84368394e-005
,,,-2.22500000e-009,-7.82805894e-005
,,,-2.20000000e-009,-9.18743396e-005
,,,-2.17500000e-009,-1.09686840e-004
,,,-2.15000000e-009,-1.30780590e-004
,,,-2.12500000e-009,-1.54686840e-004
,,,-2.10000000e-009,-1.79999340e-004
,,,-2.07500000e-009,-2.04843091e-004
,,,-2.05000000e-009,-2.28280591e-004
,,,-2.02500000e-009,-2.49843091e-004
,,,-2.00000000e-009,-2.68593091e-004
,,,-1.97500000e-009,-2.84061841e-004
,,,-1.95000000e-009,-2.94374341e-004
,,,-1.92500000e-009,-2.99999341e-004
,,,-1.90000000e-009,-2.99999341e-004
,,,-1.87500000e-009,-2.93905591e-004
,,,-1.85000000e-009,-2.83593091e-004
,,,-1.82500000e-009,-2.69999341e-004
,,,-1.80000000e-009,-2.54061841e-004
,,,-1.77500000e-009,-2.36249341e-004
,,,-1.75000000e-009,-2.17499341e-004
,,,-1.72500000e-009,-1.98749340e-004
,,,-1.70000000e-009,-1.79999340e-004
,,,-1.67500000e-009,-1.66405590e-004
,,,-1.65000000e-009,-1.54218090e-004
,,,-1.62500000e-009,-1.43436840e-004
,,,-1.60000000e-009,-1.31718090e-004
,,,-1.57500000e-009,-1.19061840e-004
,,,-1.55000000e-009,-1.03124340e-004
,,,-1.52500000e-009,-8.34368395e-005
,,,-1.50000000e-009,-5.99993393e-005
,,,-1.47500000e-009,-4.45305891e-005
,,,-1.45000000e-009,-2.76555890e-005
,,,-1.42500000e-009,-1.07805889e-005
,,,-1.40000000e-009,5.62566129e-006
,,,-1.37500000e-009,2.20319114e-005
,,,-1.35000000e-009,3.65631616e-005
,,,-1.32500000e-009,4.96881617e-005
,,,-1.30000000e-009,6.00006618e-005
,,,-1.27500000e-009,4.73444117e-005
,,,-1.25000000e-009,2.95319115e-005
,,,-1.22500000e-009,7.96941131e-006
,,,-1.20000000e-009,-1.40618389e-005
,,,-1.17500000e-009,-3.37493391e-005
,,,-1.15000000e-009,-4.87493392e-005
,,,-1.12500000e-009,-5.71868393e-005
,,,-1.10000000e-009,-5.99993393e-005
,,,-1.07500000e-009,-8.10930895e-005
,,,-1.05000000e-009,-1.02655590e-004
,,,-1.02500000e-009,-1.24686840e-004
,,,-1.00000000e-009,-1.49061840e-004
,,,-9.75000000e-010,-1.77186840e-004
,,,-9.50000000e-010,-2.10468091e-004
,,,-9.25000000e-010,-2.51249341e-004
,,,-9.00000000e-010,-2.99999341e-004
,,,-8.75000000e-010,-3.83905592e-004
,,,-8.50000000e-010,-4.79999343e-004
,,,-8.25000000e-010,-5.85936844e-004
,,,-8.00000000e-010,-6.97968095e-004
,,,-7.75000000e-010,-8.11874346e-004
,,,-7.50000000e-010,-9.25311847e-004
,,,-7.25000000e-010,-1.03453060e-003
,,,-7.00000000e-010,-1.13999935e-003
,,,-6.75000000e-010,-1.25906185e-003
,,,-6.50000000e-010,-1.37953060e-003
,,,-6.25000000e-010,-1.50187435e-003
,,,-6.00000000e-010,-1.62890560e-003
,,,-5.75000000e-010,-1.76249935e-003
,,,-5.50000000e-010,-1.90453061e-003
,,,-5.25000000e-010,-2.05640561e-003
,,,-5.00000000e-010,-2.21999936e-003
,,,-4.75000000e-010,-2.40140561e-003
,,,-4.50000000e-010,-2.59546811e-003
,,,-4.25000000e-010,-2.79843686e-003
,,,-4.00000000e-010,-3.00562436e-003
,,,-3.75000000e-010,-3.21281187e-003
,,,-3.50000000e-010,-3.41343687e-003
,,,-3.25000000e-010,-3.60374937e-003
,,,-3.00000000e-010,-3.77999937e-003
,,,-2.75000000e-010,-3.93046812e-003
,,,-2.50000000e-010,-4.06734312e-003
,,,-2.25000000e-010,-4.19343688e-003
,,,-2.00000000e-010,-4.31109313e-003
,,,-1.75000000e-010,-4.42171813e-003
,,,-1.50000000e-010,-4.52906188e-003
,,,-1.25000000e-010,-4.63499938e-003
,,,-1.00000000e-010,-4.73999938e-003
,,,-7.50000000e-011,-4.82390563e-003
,,,-5.00000000e-011,-4.91249938e-003
,,,-2.50000000e-011,-5.00578063e-003
,,,0.00000000e+000,-5.10187438e-003
,,,2.50000000e-011,-5.19890563e-003
,,,5.00000000e-011,-5.29359313e-003
,,,7.50000000e-011,-5.38171814e-003
,,,1.00000000e-010,-5.45999939e-003
,,,1.25000000e-010,-5.49562439e-003
,,,1.50000000e-010,-5.52187439e-003
,,,1.75000000e-010,-5.54109314e-003
,,,2.00000000e-010,-5.55468689e-003
,,,2.25000000e-010,-5.56406189e-003
,,,2.50000000e-010,-5.57109314e-003
,,,2.75000000e-010,-5.57624939e-003
,,,3.00000000e-010,-5.57999939e-003
,,,3.25000000e-010,-5.55093689e-003
,,,3.50000000e-010,-5.52515564e-003
,,,3.75000000e-010,-5.50359314e-003
,,,4.00000000e-010,-5.48812439e-003
,,,4.25000000e-010,-5.47781189e-003
,,,4.50000000e-010,-5.47124939e-003
,,,4.75000000e-010,-5.46609314e-003
,,,5.00000000e-010,-5.45999939e-003
,,,5.25000000e-010,-5.42062439e-003
,,,5.50000000e-010,-5.37609314e-003
,,,5.75000000e-010,-5.32640564e-003
,,,6.00000000e-010,-5.27156188e-003
,,,6.25000000e-010,-5.20968688e-003
,,,6.50000000e-010,-5.14124938e-003
,,,6.75000000e-010,-5.06484313e-003
,,,7.00000000e-010,-4.97999938e-003
,,,7.25000000e-010,-4.86515563e-003
,,,7.50000000e-010,-4.74328063e-003
,,,7.75000000e-010,-4.61718688e-003
,,,8.00000000e-010,-4.49015563e-003
,,,8.25000000e-010,-4.36499938e-003
,,,8.50000000e-010,-4.24406188e-003
,,,8.75000000e-010,-4.12874937e-003
,,,9.00000000e-010,-4.01999937e-003
,,,9.25000000e-010,-3.90609312e-003
,,,9.50000000e-010,-3.79593687e-003
,,,9.75000000e-010,-3.68953062e-003
,,,1.00000000e-009,-3.58593687e-003
,,,1.02500000e-009,-3.48421812e-003
,,,1.05000000e-009,-3.38296812e-003
,,,1.07500000e-009,-3.28218687e-003
,,,1.10000000e-009,-3.17999937e-003
,,,1.12500000e-009,-3.07312437e-003
,,,1.15000000e-009,-2.96203061e-003
,,,1.17500000e-009,-2.84859311e-003
,,,1.20000000e-009,-2.73468686e-003
,,,1.22500000e-009,-2.62453061e-003
,,,1.25000000e-009,-2.52046811e-003
,,,1.27500000e-009,-2.42484311e-003
,,,1.30000000e-009,-2.33999936e-003
,,,1.32500000e-009,-2.26921811e-003
,,,1.35000000e-009,-2.20453061e-003
,,,1.37500000e-009,-2.14406186e-003
,,,1.40000000e-009,-2.08640561e-003
,,,1.42500000e-009,-2.03109311e-003
,,,1.45000000e-009,-1.97531186e-003
,,,1.47500000e-009,-1.91906186e-003
,,,1.50000000e-009,-1.85999935e-003
,,,1.52500000e-009,-1.80468685e-003
,,,1.55000000e-009,-1.74093685e-003
,,,1.57500000e-009,-1.66874935e-003
,,,1.60000000e-009,-1.58999935e-003
,,,1.62500000e-009,-1.50703060e-003
,,,1.65000000e-009,-1.42312435e-003
,,,1.67500000e-009,-1.33968685e-003
,,,1.70000000e-009,-1.25999935e-003
,,,1.72500000e-009,-1.19531185e-003
,,,1.75000000e-009,-1.13156185e-003
,,,1.77500000e-009,-1.06874935e-003
,,,1.80000000e-009,-1.00781185e-003
,,,1.82500000e-009,-9.47811847e-004
,,,1.85000000e-009,-8.90155596e-004
,,,1.87500000e-009,-8.34374346e-004
,,,1.90000000e-009,-7.79999346e-004
,,,1.92500000e-009,-7.38749345e-004
,,,1.95000000e-009,-6.95155595e-004
,,,1.97500000e-009,-6.49218094e-004
,,,2.00000000e-009,-6.01874344e-004
,,,2.02500000e-009,-5.54061844e-004
,,,2.05000000e-009,-5.06718093e-004
,,,2.07500000e-009,-4.61718093e-004
,,,2.10000000e-009,-4.19999342e-004
,,,2.12500000e-009,-3.93749342e-004
,,,2.15000000e-009,-3.70311842e-004
,,,2.17500000e-009,-3.49686842e-004
,,,2.20000000e-009,-3.31874342e-004
,,,2.22500000e-009,-3.17811842e-004
,,,2.25000000e-009,-3.07968091e-004
,,,2.27500000e-009,-3.01874341e-004
,,,2.30000000e-009,-2.99999341e-004
,,,2.32500000e-009,-3.10311841e-004
,,,2.35000000e-009,-3.19686842e-004
,,,2.37500000e-009,-3.27186842e-004
,,,2.40000000e-009,-3.30936842e-004
,,,2.42500000e-009,-3.30936842e-004
,,,2.45000000e-009,-3.25780592e-004
,,,2.47500000e-009,-3.15468092e-004
,,,2.50000000e-009,-2.99999341e-004
,,,2.52500000e-009,-2.87343091e-004
,,,2.55000000e-009,-2.69999341e-004
,,,2.57500000e-009,-2.49843091e-004
,,,2.60000000e-009,-2.29218091e-004
,,,2.62500000e-009,-2.09530591e-004
,,,2.65000000e-009,-1.94061840e-004
,,,2.67500000e-009,-1.83749340e-004
,,,2.70000000e-009,-1.79999340e-004
,,,2.72500000e-009,-1.87499340e-004
,,,2.75000000e-009,-2.00155591e-004
,,,2.77500000e-009,-2.16561841e-004
,,,2.80000000e-009,-2.35311841e-004
,,,2.82500000e-009,-2.54530591e-004
,,,2.85000000e-009,-2.72811841e-004
,,,2.87500000e-009,-2.88280591e-004
,,,2.90000000e-009,-2.99999341e-004
,,,2.92500000e-009,-3.08905591e-004
,,,2.95000000e-009,-3.13124341e-004
,,,2.97500000e-009,-3.12655591e-004
,,,3.00000000e-009,-3.09374341e-004
,,,3.02500000e-009,-3.04686841e-004
,,,3.05000000e-009,-3.00468091e-004
,,,3.07500000e-009,-2.98593091e-004
,,,3.10000000e-009,-2.99999341e-004
,,,3.12500000e-009,-3.05624341e-004
,,,3.15000000e-009,-3.14999341e-004
,,,3.17500000e-009,-3.28593092e-004
,,,3.20000000e-009,-3.45936842e-004
,,,3.22500000e-009,-3.65155592e-004
,,,3.25000000e-009,-3.84843092e-004
,,,3.27500000e-009,-4.04061842e-004
,,,3.30000000e-009,-4.19999342e-004
,,,3.32500000e-009,-4.29374342e-004
,,,3.35000000e-009,-4.31718093e-004
,,,3.37500000e-009,-4.27499342e-004
,,,3.40000000e-009,-4.15311842e-004
,,,3.42500000e-009,-3.96093092e-004
,,,3.45000000e-009,-3.69843092e-004
,,,3.47500000e-009,-3.37499342e-004
,,,3.50000000e-009,-2.99999341e-004
,,,3.52500000e-009,-2.58749341e-004
,,,3.55000000e-009,-2.17030591e-004
,,,3.57500000e-009,-1.76718090e-004
,,,3.60000000e-009,-1.39686840e-004
,,,3.62500000e-009,-1.08280590e-004
,,,3.65000000e-009,-8.39055895e-005
,,,3.67500000e-009,-6.74993393e-005
,,,3.70000000e-009,-5.99993393e-005
,,,3.72500000e-009,-6.23430893e-005
,,,3.75000000e-009,-7.21868394e-005
,,,3.77500000e-009,-8.81243395e-005
,,,3.80000000e-009,-1.07811840e-004
,,,3.82500000e-009,-1.29374340e-004
,,,3.85000000e-009,-1.49999340e-004
,,,3.87500000e-009,-1.67343090e-004
,,,3.90000000e-009,-1.79999340e-004
,,,3.92500000e-009,-1.86561840e-004
,,,3.95000000e-009,-1.85155590e-004
,,,3.97500000e-009,-1.76718090e-004
,,,4.00000000e-009,-1.61249340e-004
,,,4.02500000e-009,-1.40624340e-004
,,,4.05000000e-009,-1.15780590e-004
,,,4.07500000e-009,-8.85930895e-005
,,,4.10000000e-009,-5.99993393e-005
,,,4.12500000e-009,-3.37493391e-005
,,,4.15000000e-009,-9.84308885e-006
,,,4.17500000e-009,1.12506613e-005
,,,4.20000000e-009,2.90631615e-005
,,,4.22500000e-009,4.26569116e-005
,,,4.25000000e-009,5.25006617e-005
,,,4.27500000e-009,5.81256617e-005
,,,4.30000000e-009,6.00006618e-005
,,,4.32500000e-009,5.57819117e-005
,,,4.35000000e-009,4.82819117e-005
,,,4.37500000e-009,3.75006616e-005
,,,4.40000000e-009,2.39069114e-005
,,,4.42500000e-009,7.03191130e-006
,,,4.45000000e-009,-1.31243389e-005
,,,4.47500000e-009,-3.56243391e-005
,,,4.50000000e-009,-5.99993393e-005
,,,4.52500000e-009,-8.71868395e-005
,,,4.55000000e-009,-1.13905590e-004
,,,4.57500000e-009,-1.37811840e-004
,,,4.60000000e-009,-1.57968090e-004
,,,4.62500000e-009,-1.73436840e-004
,,,4.65000000e-009,-1.82343090e-004
,,,4.67500000e-009,-1.84686840e-004
,,,4.70000000e-009,-1.79999340e-004
,,,4.72500000e-009,-1.68280590e-004
,,,4.75000000e-009,-1.51874340e-004
,,,4.77500000e-009,-1.32655590e-004
,,,4.80000000e-009,-1.12499340e-004
,,,4.82500000e-009,-9.37493396e-005
,,,4.85000000e-009,-7.78118394e-005
,,,4.87500000e-009,-6.65618393e-005
,,,4.90000000e-009,-5.99993393e-005
,,,4.92500000e-009,-5.90618393e-005
,,,4.95000000e-009,-6.18743393e-005
,,,4.97500000e-009,-6.70305893e-005
,,,5.00000000e-009,-7.26555894e-005
,,,5.02500000e-009,-7.64055894e-005
,,,5.05000000e-009,-7.64055894e-005
,,,5.07500000e-009,-7.12493394e-005
,,,5.10000000e-009,-5.99993393e-005
,,,5.12500000e-009,-4.35930891e-005
,,,5.15000000e-009,-2.29680890e-005
,,,5.17500000e-009,4.69411243e-007
,,,5.20000000e-009,2.34381614e-005
,,,5.22500000e-009,4.31256616e-005
,,,5.25000000e-009,5.71881617e-005
,,,5.27500000e-009,6.32819118e-005
,,,5.30000000e-009,6.00006618e-005
,,,5.32500000e-009,4.59381616e-005
,,,5.35000000e-009,2.29694114e-005
,,,5.37500000e-009,-7.96808883e-006
,,,5.40000000e-009,-4.40618391e-005
,,,5.42500000e-009,-8.24993395e-005
,,,5.45000000e-009,-1.19999340e-004
,,,5.47500000e-009,-1.53280590e-004
,,,5.50000000e-009,-1.79999340e-004
,,,5.52500000e-009,-1.96874340e-004
,,,5.55000000e-009,-2.02968091e-004
,,,5.57500000e-009,-1.98749340e-004
,,,5.60000000e-009,-1.84218090e-004
,,,5.62500000e-009,-1.61249340e-004
,,,5.65000000e-009,-1.31249340e-004
,,,5.67500000e-009,-9.70305896e-005
,,,5.70000000e-009,-5.99993393e-005
,,,5.72500000e-009,-2.43743390e-005
,,,5.75000000e-009,8.43816131e-006
,,,5.77500000e-009,3.60944116e-005
,,,5.80000000e-009,5.71881617e-005
,,,5.82500000e-009,7.03131619e-005
,,,5.85000000e-009,7.50006619e-005
,,,5.87500000e-009,7.12506619e-005
,,,5.90000000e-009,6.00006618e-005
,,,5.92500000e-009,4.07819116e-005
,,,5.95000000e-009,1.82819114e-005
