RawData/DifferentLengths/R4/R4_25foot_5mV/wave026_Ch1.csv

"Record Length",1000,"Points",-7.72500000e-009,4.35944116e-005
"Sample Interval",2.50000000e-011,s,-7.70000000e-009,2.90631615e-005
"Trigger Point",309,"Samples",-7.67500000e-009,1.87506614e-005
"Trigger Time",4.61701493e-012,s,-7.65000000e-009,1.40631614e-005
"",,,-7.62500000e-009,1.54694114e-005
"Horizontal Offset",-7.72500000e-009,s,-7.60000000e-009,2.39069114e-005
,,,-7.57500000e-009,3.89069116e-005
,,,-7.55000000e-009,6.00006618e-005
,,,-7.52500000e-009,8.43756620e-005
,,,-7.50000000e-009,1.10625662e-004
,,,-7.47500000e-009,1.37344412e-004
,,,-7.45000000e-009,1.60781913e-004
,,,-7.42500000e-009,1.78594413e-004
,,,-7.40000000e-009,1.88906913e-004
,,,-7.37500000e-009,1.89375663e-004
,,,-7.35000000e-009,1.80000663e-004
,,,-7.32500000e-009,1.57500663e-004
,,,-7.30000000e-009,1.27500662e-004
,,,-7.27500000e-009,9.18756620e-005
,,,-7.25000000e-009,5.34381617e-005
,,,-7.22500000e-009,1.64069114e-005
,,,-7.20000000e-009,-1.68743389e-005
,,,-7.17500000e-009,-4.31243391e-005
,,,-7.15000000e-009,-5.99993393e-005
,,,-7.12500000e-009,-6.84368394e-005
,,,-7.10000000e-009,-6.60930893e-005
,,,-7.07500000e-009,-5.43743392e-005
,,,-7.05000000e-009,-3.56243391e-005
,,,-7.02500000e-009,-1.21868389e-005
,,,-7.00000000e-009,1.35944114e-005
,,,-6.97500000e-009,3.79694116e-005
,,,-6.95000000e-009,6.00006618e-005
,,,-6.92500000e-009,7.45319119e-005
,,,-6.90000000e-009,8.34381620e-005
,,,-6.87500000e-009,8.62506620e-005
,,,-6.85000000e-009,8.43756620e-005
,,,-6.82500000e-009,7.92194119e-005
,,,-6.80000000e-009,7.21881619e-005
,,,-6.77500000e-009,6.51569118e-005
,,,-6.75000000e-009,6.00006618e-005
,,,-6.72500000e-009,5.62506617e-005
,,,-6.70000000e-009,5.53131617e-005
,,,-6.67500000e-009,5.62506617e-005
,,,-6.65000000e-009,5.90631618e-005
,,,-6.62500000e-009,6.18756618e-005
,,,-6.60000000e-009,6.37506618e-005
,,,-6.57500000e-009,6.32819118e-005
,,,-6.55000000e-009,6.00006618e-005
,,,-6.52500000e-009,5.15631617e-005
,,,-6.50000000e-009,4.03131616e-005
,,,-6.47500000e-009,2.53131615e-005
,,,-6.45000000e-009,8.43816131e-006
,,,-6.42500000e-009,-9.84308885e-006
,,,-6.40000000e-009,-2.76555890e-005
,,,-6.37500000e-009,-4.45305891e-005
,,,-6.35000000e-009,-5.99993393e-005
,,,-6.32500000e-009,-7.26555894e-005
,,,-6.30000000e-009,-8.34368395e-005
,,,-6.27500000e-009,-9.42180896e-005
,,,-6.25000000e-009,-1.05936840e-004
,,,-6.22500000e-009,-1.19530590e-004
,,,-6.20000000e-009,-1.35936840e-004
,,,-6.17500000e-009,-1.56561840e-004
,,,-6.15000000e-009,-1.79999340e-004
,,,-6.12500000e-009,-2.06249341e-004
,,,-6.10000000e-009,-2.33436841e-004
,,,-6.07500000e-009,-2.59686841e-004
,,,-6.05000000e-009,-2.82655591e-004
,,,-6.02500000e-009,-2.99999341e-004
,,,-6.00000000e-009,-3.09843091e-004
,,,-5.97500000e-009,-3.09843091e-004
,,,-5.95000000e-009,-2.99999341e-004
,,,-5.92500000e-009,-2.79374341e-004
,,,-5.90000000e-009,-2.50780591e-004
,,,-5.87500000e-009,-2.16561841e-004
,,,-5.85000000e-009,-1.79530590e-004
,,,-5.82500000e-009,-1.42968090e-004
,,,-5.80000000e-009,-1.09218090e-004
,,,-5.77500000e-009,-8.10930895e-005
,,,-5.75000000e-009,-5.99993393e-005
,,,-5.72500000e-009,-4.82805892e-005
,,,-5.70000000e-009,-4.45305891e-005
,,,-5.67500000e-009,-4.68743392e-005
,,,-5.65000000e-009,-5.29680892e-005
,,,-5.62500000e-009,-5.99993393e-005
,,,-5.60000000e-009,-6.51555893e-005
,,,-5.57500000e-009,-6.56243393e-005
,,,-5.55000000e-009,-5.99993393e-005
,,,-5.52500000e-009,-4.87493392e-005
,,,-5.50000000e-009,-3.18743390e-005
,,,-5.47500000e-009,-1.12493389e-005
,,,-5.45000000e-009,1.07819113e-005
,,,-5.42500000e-009,3.18756615e-005
,,,-5.40000000e-009,4.82819117e-005
,,,-5.37500000e-009,5.85944117e-005
,,,-5.35000000e-009,6.00006618e-005
,,,-5.32500000e-009,4.92194117e-005
,,,-5.30000000e-009,2.85944115e-005
,,,-5.27500000e-009,4.69411243e-007
,,,-5.25000000e-009,-3.42180891e-005
,,,-5.22500000e-009,-7.21868394e-005
,,,-5.20000000e-009,-1.10624340e-004
,,,-5.17500000e-009,-1.47655590e-004
,,,-5.15000000e-009,-1.79999340e-004
,,,-5.12500000e-009,-2.07655591e-004
,,,-5.10000000e-009,-2.28749341e-004
,,,-5.07500000e-009,-2.44686841e-004
,,,-5.05000000e-009,-2.56405591e-004
,,,-5.02500000e-009,-2.66249341e-004
,,,-5.00000000e-009,-2.75624341e-004
,,,-4.97500000e-009,-2.86874341e-004
,,,-4.95000000e-009,-2.99999341e-004
,,,-4.92500000e-009,-3.15936842e-004
,,,-4.90000000e-009,-3.34686842e-004
,,,-4.87500000e-009,-3.54374342e-004
,,,-4.85000000e-009,-3.74530592e-004
,,,-4.82500000e-009,-3.92811842e-004
,,,-4.80000000e-009,-4.07343092e-004
,,,-4.77500000e-009,-4.16718092e-004
,,,-4.75000000e-009,-4.19999342e-004
,,,-4.72500000e-009,-4.14374342e-004
,,,-4.70000000e-009,-4.02655592e-004
,,,-4.67500000e-009,-3.86249342e-004
,,,-4.65000000e-009,-3.67030592e-004
,,,-4.62500000e-009,-3.47343092e-004
,,,-4.60000000e-009,-3.28124342e-004
,,,-4.57500000e-009,-3.12186841e-004
,,,-4.55000000e-009,-2.99999341e-004
,,,-4.52500000e-009,-2.92030591e-004
,,,-4.50000000e-009,-2.88749341e-004
,,,-4.47500000e-009,-2.89686841e-004
,,,-4.45000000e-009,-2.93436841e-004
,,,-4.42500000e-009,-2.98124341e-004
,,,-4.40000000e-009,-3.01874341e-004
,,,-4.37500000e-009,-3.02811841e-004
,,,-4.35000000e-009,-2.99999341e-004
,,,-4.32500000e-009,-2.91561841e-004
,,,-4.30000000e-009,-2.78905591e-004
,,,-4.27500000e-009,-2.63436841e-004
,,,-4.25000000e-009,-2.45624341e-004
,,,-4.22500000e-009,-2.26874341e-004
,,,-4.20000000e-009,-2.09061841e-004
,,,-4.17500000e-009,-1.93124340e-004
,,,-4.15000000e-009,-1.79999340e-004
,,,-4.12500000e-009,-1.72499340e-004
,,,-4.10000000e-009,-1.68749340e-004
,,,-4.07500000e-009,-1.68280590e-004
,,,-4.05000000e-009,-1.70624340e-004
,,,-4.02500000e-009,-1.73905590e-004
,,,-4.00000000e-009,-1.77186840e-004
,,,-3.97500000e-009,-1.79530590e-004
,,,-3.95000000e-009,-1.79999340e-004
,,,-3.92500000e-009,-1.79530590e-004
,,,-3.90000000e-009,-1.77186840e-004
,,,-3.87500000e-009,-1.73905590e-004
,,,-3.85000000e-009,-1.70624340e-004
,,,-3.82500000e-009,-1.68280590e-004
,,,-3.80000000e-009,-1.68749340e-004
,,,-3.77500000e-009,-1.72499340e-004
,,,-3.75000000e-009,-1.79999340e-004
,,,-3.72500000e-009,-1.94061840e-004
,,,-3.70000000e-009,-2.11405591e-004
,,,-3.67500000e-009,-2.30155591e-004
,,,-3.65000000e-009,-2.49374341e-004
,,,-3.62500000e-009,-2.67655591e-004
,,,-3.60000000e-009,-2.82655591e-004
,,,-3.57500000e-009,-2.93905591e-004
,,,-3.55000000e-009,-2.99999341e-004
,,,-3.52500000e-009,-3.01874341e-004
,,,-3.50000000e-009,-2.99999341e-004
,,,-3.47500000e-009,-2.95311841e-004
,,,-3.45000000e-009,-2.90624341e-004
,,,-3.42500000e-009,-2.86874341e-004
,,,-3.40000000e-009,-2.86405591e-004
,,,-3.37500000e-009,-2.90624341e-004
,,,-3.35000000e-009,-2.99999341e-004
,,,-3.32500000e-009,-3.14999341e-004
,,,-3.30000000e-009,-3.34218092e-004
,,,-3.27500000e-009,-3.55311842e-004
,,,-3.25000000e-009,-3.76874342e-004
,,,-3.22500000e-009,-3.96561842e-004
,,,-3.20000000e-009,-4.11093092e-004
,,,-3.17500000e-009,-4.19530592e-004
,,,-3.15000000e-009,-4.19999342e-004
,,,-3.12500000e-009,-4.10155592e-004
,,,-3.10000000e-009,-3.93280592e-004
,,,-3.07500000e-009,-3.72186842e-004
,,,-3.05000000e-009,-3.49686842e-004
,,,-3.02500000e-009,-3.28124342e-004
,,,-3.00000000e-009,-3.11718091e-004
,,,-2.97500000e-009,-3.01874341e-004
,,,-2.95000000e-009,-2.99999341e-004
,,,-2.92500000e-009,-3.06561841e-004
,,,-2.90000000e-009,-3.20624342e-004
,,,-2.87500000e-009,-3.40311842e-004
,,,-2.85000000e-009,-3.62811842e-004
,,,-2.82500000e-009,-3.84843092e-004
,,,-2.80000000e-009,-4.03593092e-004
,,,-2.77500000e-009,-4.15780592e-004
,,,-2.75000000e-009,-4.19999342e-004
,,,-2.72500000e-009,-4.14374342e-004
,,,-2.70000000e-009,-4.00780592e-004
,,,-2.67500000e-009,-3.81561842e-004
,,,-2.65000000e-009,-3.59530592e-004
,,,-2.62500000e-009,-3.37968092e-004
,,,-2.60000000e-009,-3.19218092e-004
,,,-2.57500000e-009,-3.06093091e-004
,,,-2.55000000e-009,-2.99999341e-004
,,,-2.52500000e-009,-3.02343091e-004
,,,-2.50000000e-009,-3.10780591e-004
,,,-2.47500000e-009,-3.22030592e-004
,,,-2.45000000e-009,-3.32811842e-004
,,,-2.42500000e-009,-3.39374342e-004
,,,-2.40000000e-009,-3.37968092e-004
,,,-2.37500000e-009,-3.25311842e-004
,,,-2.35000000e-009,-2.99999341e-004
,,,-2.32500000e-009,-2.63905591e-004
,,,-2.30000000e-009,-2.17968091e-004
,,,-2.27500000e-009,-1.64061840e-004
,,,-2.25000000e-009,-1.07343090e-004
,,,-2.22500000e-009,-5.24993392e-005
,,,-2.20000000e-009,-3.28058879e-006
,,,-2.17500000e-009,3.51569115e-005
,,,-2.15000000e-009,6.00006618e-005
,,,-2.12500000e-009,6.32819118e-005
,,,-2.10000000e-009,5.15631617e-005
,,,-2.07500000e-009,2.57819115e-005
,,,-2.05000000e-009,-1.03118389e-005
,,,-2.02500000e-009,-5.29680892e-005
,,,-2.00000000e-009,-9.79680896e-005
,,,-1.97500000e-009,-1.41561840e-004
,,,-1.95000000e-009,-1.79999340e-004
,,,-1.92500000e-009,-2.14686841e-004
,,,-1.90000000e-009,-2.40936841e-004
,,,-1.87500000e-009,-2.59218091e-004
,,,-1.85000000e-009,-2.70936841e-004
,,,-1.82500000e-009,-2.78436841e-004
,,,-1.80000000e-009,-2.84061841e-004
,,,-1.77500000e-009,-2.90624341e-004
,,,-1.75000000e-009,-2.99999341e-004
,,,-1.72500000e-009,-3.16874342e-004
,,,-1.70000000e-009,-3.38905592e-004
,,,-1.67500000e-009,-3.66093092e-004
,,,-1.65000000e-009,-3.97968092e-004
,,,-1.62500000e-009,-4.33124343e-004
,,,-1.60000000e-009,-4.69686843e-004
,,,-1.57500000e-009,-5.06249343e-004
,,,-1.55000000e-009,-5.39999343e-004
,,,-1.52500000e-009,-5.71874344e-004
,,,-1.50000000e-009,-5.99530594e-004
,,,-1.47500000e-009,-6.22030594e-004
,,,-1.45000000e-009,-6.38905594e-004
,,,-1.42500000e-009,-6.50624344e-004
,,,-1.40000000e-009,-6.57655594e-004
,,,-1.37500000e-009,-6.60936845e-004
,,,-1.35000000e-009,-6.59999344e-004
,,,-1.32500000e-009,-6.63280595e-004
,,,-1.30000000e-009,-6.66561845e-004
,,,-1.27500000e-009,-6.69374345e-004
,,,-1.25000000e-009,-6.71249345e-004
,,,-1.22500000e-009,-6.71718095e-004
,,,-1.20000000e-009,-6.70311845e-004
,,,-1.17500000e-009,-6.66561845e-004
,,,-1.15000000e-009,-6.59999344e-004
,,,-1.12500000e-009,-6.63749345e-004
,,,-1.10000000e-009,-6.67968095e-004
,,,-1.07500000e-009,-6.73124345e-004
,,,-1.05000000e-009,-6.76874345e-004
,,,-1.02500000e-009,-6.78280595e-004
,,,-1.00000000e-009,-6.76405595e-004
,,,-9.75000000e-010,-6.70311845e-004
,,,-9.50000000e-010,-6.59999344e-004
,,,-9.25000000e-010,-6.68436845e-004
,,,-9.00000000e-010,-6.77343095e-004
,,,-8.75000000e-010,-6.85311845e-004
,,,-8.50000000e-010,-6.89999345e-004
,,,-8.25000000e-010,-6.90468095e-004
,,,-8.00000000e-010,-6.84843095e-004
,,,-7.75000000e-010,-6.74530595e-004
,,,-7.50000000e-010,-6.59999344e-004
,,,-7.25000000e-010,-6.74530595e-004
,,,-7.00000000e-010,-6.96561845e-004
,,,-6.75000000e-010,-7.26561845e-004
,,,-6.50000000e-010,-7.65468095e-004
,,,-6.25000000e-010,-8.13280596e-004
,,,-6.00000000e-010,-8.71405596e-004
,,,-5.75000000e-010,-9.39843097e-004
,,,-5.50000000e-010,-1.01999935e-003
,,,-5.25000000e-010,-1.14281185e-003
,,,-5.00000000e-010,-1.28062435e-003
,,,-4.75000000e-010,-1.43062435e-003
,,,-4.50000000e-010,-1.58859310e-003
,,,-4.25000000e-010,-1.74937435e-003
,,,-4.00000000e-010,-1.91015561e-003
,,,-3.75000000e-010,-2.06718686e-003
,,,-3.50000000e-010,-2.21999936e-003
,,,-3.25000000e-010,-2.38828061e-003
,,,-3.00000000e-010,-2.55703061e-003
,,,-2.75000000e-010,-2.72812436e-003
,,,-2.50000000e-010,-2.90203061e-003
,,,-2.25000000e-010,-3.08062437e-003
,,,-2.00000000e-010,-3.26531187e-003
,,,-1.75000000e-010,-3.45796812e-003
,,,-1.50000000e-010,-3.65999937e-003
,,,-1.25000000e-010,-3.87656187e-003
,,,-1.00000000e-010,-4.10531187e-003
,,,-7.50000000e-011,-4.34531188e-003
,,,-5.00000000e-011,-4.59328063e-003
,,,-2.50000000e-011,-4.84499938e-003
,,,0.00000000e+000,-5.09624938e-003
,,,2.50000000e-011,-5.34234314e-003
,,,5.00000000e-011,-5.57999939e-003
,,,7.50000000e-011,-5.78812439e-003
,,,1.00000000e-010,-5.98687439e-003
,,,1.25000000e-010,-6.17671814e-003
,,,1.50000000e-010,-6.35859314e-003
,,,1.75000000e-010,-6.53390565e-003
,,,2.00000000e-010,-6.70265565e-003
,,,2.25000000e-010,-6.86484315e-003
,,,2.50000000e-010,-7.01999940e-003
,,,2.75000000e-010,-7.13156190e-003
,,,3.00000000e-010,-7.23843690e-003
,,,3.25000000e-010,-7.34109315e-003
,,,3.50000000e-010,-7.43906190e-003
,,,3.75000000e-010,-7.52999940e-003
,,,4.00000000e-010,-7.61249940e-003
,,,4.25000000e-010,-7.68281191e-003
,,,4.50000000e-010,-7.73999941e-003
,,,4.75000000e-010,-7.73718691e-003
,,,5.00000000e-010,-7.72499941e-003
,,,5.25000000e-010,-7.70718691e-003
,,,5.50000000e-010,-7.68703066e-003
,,,5.75000000e-010,-7.66734316e-003
,,,6.00000000e-010,-7.64953066e-003
,,,6.25000000e-010,-7.63359316e-003
,,,6.50000000e-010,-7.61999940e-003
,,,6.75000000e-010,-7.56468690e-003
,,,7.00000000e-010,-7.51124940e-003
,,,7.25000000e-010,-7.46015565e-003
,,,7.50000000e-010,-7.40859315e-003
,,,7.75000000e-010,-7.35421815e-003
,,,8.00000000e-010,-7.29328065e-003
,,,8.25000000e-010,-7.22343690e-003
,,,8.50000000e-010,-7.13999940e-003
,,,8.75000000e-010,-7.00921815e-003
,,,9.00000000e-010,-6.86671815e-003
,,,9.25000000e-010,-6.71531190e-003
,,,9.50000000e-010,-6.55874940e-003
,,,9.75000000e-010,-6.39984314e-003
,,,1.00000000e-009,-6.24234314e-003
,,,1.02500000e-009,-6.08859314e-003
,,,1.05000000e-009,-5.93999939e-003
,,,1.07500000e-009,-5.78249939e-003
,,,1.10000000e-009,-5.63203064e-003
,,,1.12500000e-009,-5.48906189e-003
,,,1.15000000e-009,-5.35312439e-003
,,,1.17500000e-009,-5.22374938e-003
,,,1.20000000e-009,-5.09953063e-003
,,,1.22500000e-009,-4.97906188e-003
,,,1.25000000e-009,-4.85999938e-003
,,,1.27500000e-009,-4.73999938e-003
,,,1.30000000e-009,-4.61671813e-003
,,,1.32500000e-009,-4.49203063e-003
,,,1.35000000e-009,-4.36640563e-003
,,,1.37500000e-009,-4.24218688e-003
,,,1.40000000e-009,-4.12171812e-003
,,,1.42500000e-009,-4.00734312e-003
,,,1.45000000e-009,-3.89999937e-003
,,,1.47500000e-009,-3.80953062e-003
,,,1.50000000e-009,-3.72281187e-003
,,,1.52500000e-009,-3.64078062e-003
,,,1.55000000e-009,-3.56296812e-003
,,,1.57500000e-009,-3.48984312e-003
,,,1.60000000e-009,-3.42140562e-003
,,,1.62500000e-009,-3.35812437e-003
,,,1.65000000e-009,-3.29999937e-003
,,,1.67500000e-009,-3.25687437e-003
,,,1.70000000e-009,-3.21187437e-003
,,,1.72500000e-009,-3.16499937e-003
,,,1.75000000e-009,-3.11718687e-003
,,,1.77500000e-009,-3.06890562e-003
,,,1.80000000e-009,-3.02296812e-003
,,,1.82500000e-009,-2.97937436e-003
,,,1.85000000e-009,-2.93999936e-003
,,,1.87500000e-009,-2.91562436e-003
,,,1.90000000e-009,-2.88984311e-003
,,,1.92500000e-009,-2.86124936e-003
,,,1.95000000e-009,-2.83124936e-003
,,,1.97500000e-009,-2.79937436e-003
,,,2.00000000e-009,-2.76609311e-003
,,,2.02500000e-009,-2.73281186e-003
,,,2.05000000e-009,-2.69999936e-003
,,,2.07500000e-009,-2.67515561e-003
,,,2.10000000e-009,-2.64656186e-003
,,,2.12500000e-009,-2.61515561e-003
,,,2.15000000e-009,-2.58234311e-003
,,,2.17500000e-009,-2.54906186e-003
,,,2.20000000e-009,-2.51671811e-003
,,,2.22500000e-009,-2.48718686e-003
,,,2.25000000e-009,-2.45999936e-003
,,,2.27500000e-009,-2.44124936e-003
,,,2.30000000e-009,-2.42109311e-003
,,,2.32500000e-009,-2.39812436e-003
,,,2.35000000e-009,-2.37140561e-003
,,,2.37500000e-009,-2.34046811e-003
,,,2.40000000e-009,-2.30531186e-003
,,,2.42500000e-009,-2.26499936e-003
,,,2.45000000e-009,-2.21999936e-003
,,,2.47500000e-009,-2.17453061e-003
,,,2.50000000e-009,-2.12484311e-003
,,,2.52500000e-009,-2.07234311e-003
,,,2.55000000e-009,-2.02031186e-003
,,,2.57500000e-009,-1.97062436e-003
,,,2.60000000e-009,-1.92656186e-003
,,,2.62500000e-009,-1.88953061e-003
,,,2.65000000e-009,-1.85999935e-003
,,,2.67500000e-009,-1.84265560e-003
,,,2.70000000e-009,-1.82999935e-003
,,,2.72500000e-009,-1.82062435e-003
,,,2.75000000e-009,-1.81171810e-003
,,,2.77500000e-009,-1.80093685e-003
,,,2.80000000e-009,-1.78640560e-003
,,,2.82500000e-009,-1.76624935e-003
,,,2.85000000e-009,-1.73999935e-003
,,,2.87500000e-009,-1.70953060e-003
,,,2.90000000e-009,-1.67249935e-003
,,,2.92500000e-009,-1.63218685e-003
,,,2.95000000e-009,-1.59187435e-003
,,,2.97500000e-009,-1.55484310e-003
,,,3.00000000e-009,-1.52578060e-003
,,,3.02500000e-009,-1.50703060e-003
,,,3.05000000e-009,-1.49999935e-003
,,,3.07500000e-009,-1.50609310e-003
,,,3.10000000e-009,-1.52109310e-003
,,,3.12500000e-009,-1.54171810e-003
,,,3.15000000e-009,-1.56562435e-003
,,,3.17500000e-009,-1.58812435e-003
,,,3.20000000e-009,-1.60687435e-003
,,,3.22500000e-009,-1.61812435e-003
,,,3.25000000e-009,-1.61999935e-003
,,,3.27500000e-009,-1.60828060e-003
,,,3.30000000e-009,-1.58484310e-003
,,,3.32500000e-009,-1.55156185e-003
,,,3.35000000e-009,-1.51265560e-003
,,,3.37500000e-009,-1.47187435e-003
,,,3.40000000e-009,-1.43390560e-003
,,,3.42500000e-009,-1.40249935e-003
,,,3.45000000e-009,-1.37999935e-003
,,,3.47500000e-009,-1.36593685e-003
,,,3.50000000e-009,-1.36031185e-003
,,,3.52500000e-009,-1.36218685e-003
,,,3.55000000e-009,-1.36828060e-003
,,,3.57500000e-009,-1.37624935e-003
,,,3.60000000e-009,-1.38281185e-003
,,,3.62500000e-009,-1.38515560e-003
,,,3.65000000e-009,-1.37999935e-003
,,,3.67500000e-009,-1.36171810e-003
,,,3.70000000e-009,-1.33171810e-003
,,,3.72500000e-009,-1.29140560e-003
,,,3.75000000e-009,-1.24312435e-003
,,,3.77500000e-009,-1.18921810e-003
,,,3.80000000e-009,-1.13203060e-003
,,,3.82500000e-009,-1.07531185e-003
,,,3.85000000e-009,-1.01999935e-003
,,,3.87500000e-009,-9.68905597e-004
,,,3.90000000e-009,-9.21561847e-004
,,,3.92500000e-009,-8.77030596e-004
,,,3.95000000e-009,-8.34374346e-004
,,,3.97500000e-009,-7.93124346e-004
,,,4.00000000e-009,-7.50936845e-004
,,,4.02500000e-009,-7.06874345e-004
,,,4.05000000e-009,-6.59999344e-004
,,,4.07500000e-009,-6.13593094e-004
,,,4.10000000e-009,-5.63905594e-004
,,,4.12500000e-009,-5.13280593e-004
,,,4.15000000e-009,-4.62655593e-004
,,,4.17500000e-009,-4.13905592e-004
,,,4.20000000e-009,-3.69843092e-004
,,,4.22500000e-009,-3.31874342e-004
,,,4.25000000e-009,-2.99999341e-004
,,,4.27500000e-009,-2.82186841e-004
,,,4.30000000e-009,-2.69061841e-004
,,,4.32500000e-009,-2.58749341e-004
,,,4.35000000e-009,-2.49374341e-004
,,,4.37500000e-009,-2.38124341e-004
,,,4.40000000e-009,-2.23593091e-004
,,,4.42500000e-009,-2.04374341e-004
,,,4.45000000e-009,-1.79999340e-004
,,,4.47500000e-009,-1.57499340e-004
,,,4.50000000e-009,-1.31249340e-004
,,,4.52500000e-009,-1.04061840e-004
,,,4.55000000e-009,-7.82805894e-005
,,,4.57500000e-009,-5.85930893e-005
,,,4.60000000e-009,-4.68743392e-005
,,,4.62500000e-009,-4.68743392e-005
,,,4.65000000e-009,-5.99993393e-005
,,,4.67500000e-009,-9.37493396e-005
,,,4.70000000e-009,-1.37811840e-004
,,,4.72500000e-009,-1.88905590e-004
,,,4.75000000e-009,-2.43280591e-004
,,,4.77500000e-009,-2.97186841e-004
,,,4.80000000e-009,-3.46874342e-004
,,,4.82500000e-009,-3.88593092e-004
,,,4.85000000e-009,-4.19999342e-004
,,,4.87500000e-009,-4.42499343e-004
,,,4.90000000e-009,-4.52343093e-004
,,,4.92500000e-009,-4.52811843e-004
,,,4.95000000e-009,-4.45780593e-004
,,,4.97500000e-009,-4.35468093e-004
,,,5.00000000e-009,-4.26093092e-004
,,,5.02500000e-009,-4.19999342e-004
,,,5.05000000e-009,-4.19999342e-004
,,,5.07500000e-009,-4.28436842e-004
,,,5.10000000e-009,-4.42968093e-004
,,,5.12500000e-009,-4.62655593e-004
,,,5.15000000e-009,-4.84686843e-004
,,,5.17500000e-009,-5.06249343e-004
,,,5.20000000e-009,-5.24530593e-004
,,,5.22500000e-009,-5.36249343e-004
,,,5.25000000e-009,-5.39999343e-004
,,,5.27500000e-009,-5.31561843e-004
,,,5.30000000e-009,-5.15155593e-004
,,,5.32500000e-009,-4.93124343e-004
,,,5.35000000e-009,-4.69218093e-004
,,,5.37500000e-009,-4.46718093e-004
,,,5.40000000e-009,-4.29374342e-004
,,,5.42500000e-009,-4.19999342e-004
,,,5.45000000e-009,-4.19999342e-004
,,,5.47500000e-009,-4.27499342e-004
,,,5.50000000e-009,-4.43905593e-004
,,,5.52500000e-009,-4.65936843e-004
,,,5.55000000e-009,-4.90780593e-004
,,,5.57500000e-009,-5.14218093e-004
,,,5.60000000e-009,-5.32499343e-004
,,,5.62500000e-009,-5.41874343e-004
,,,5.65000000e-009,-5.39999343e-004
,,,5.67500000e-009,-5.22186843e-004
,,,5.70000000e-009,-4.93593093e-004
,,,5.72500000e-009,-4.57968093e-004
,,,5.75000000e-009,-4.18124342e-004
,,,5.77500000e-009,-3.78749342e-004
,,,5.80000000e-009,-3.44061842e-004
,,,5.82500000e-009,-3.17343092e-004
,,,5.85000000e-009,-2.99999341e-004
