RawData/DifferentLengths/L4/L4_25_5mV/wave014_Ch1.csv

"Record Length",1000,"Points",-7.72500000e-009,-2.53906324e-004
"Sample Interval",2.50000000e-011,s,-7.70000000e-009,-2.22656322e-004
"Trigger Point",309,"Samples",-7.67500000e-009,-2.03125070e-004
"Trigger Time",1.43234301e-011,s,-7.65000000e-009,-2.00000070e-004
"",,,-7.62500000e-009,-2.11718821e-004
"Horizontal Offset",-7.72500000e-009,s,-7.60000000e-009,-2.38281323e-004
,,,-7.57500000e-009,-2.75000075e-004
,,,-7.55000000e-009,-3.16406328e-004
,,,-7.52500000e-009,-3.55468831e-004
,,,-7.50000000e-009,-3.86718833e-004
,,,-7.47500000e-009,-4.02343834e-004
,,,-7.45000000e-009,-4.00000084e-004
,,,-7.42500000e-009,-3.76562583e-004
,,,-7.40000000e-009,-3.35156330e-004
,,,-7.37500000e-009,-2.79687576e-004
,,,-7.35000000e-009,-2.15625071e-004
,,,-7.32500000e-009,-1.49218816e-004
,,,-7.30000000e-009,-8.75000621e-005
,,,-7.27500000e-009,-3.59375584e-005
,,,-7.25000000e-009,-5.58793550e-011
,,,-7.22500000e-009,1.56249452e-005
,,,-7.20000000e-009,1.24999450e-005
,,,-7.17500000e-009,-7.81255643e-006
,,,-7.15000000e-009,-4.14063088e-005
,,,-7.12500000e-009,-8.35938118e-005
,,,-7.10000000e-009,-1.27343815e-004
,,,-7.07500000e-009,-1.67968818e-004
,,,-7.05000000e-009,-2.00000070e-004
,,,-7.02500000e-009,-2.19531321e-004
,,,-7.00000000e-009,-2.24218822e-004
,,,-6.97500000e-009,-2.13281321e-004
,,,-6.95000000e-009,-1.87500069e-004
,,,-6.92500000e-009,-1.50000066e-004
,,,-6.90000000e-009,-1.03125063e-004
,,,-6.87500000e-009,-5.23438096e-005
,,,-6.85000000e-009,-5.58793550e-011
,,,-6.82500000e-009,4.37499472e-005
,,,-6.80000000e-009,7.81249497e-005
,,,-6.77500000e-009,1.01562451e-004
,,,-6.75000000e-009,1.11718702e-004
,,,-6.72500000e-009,1.05468702e-004
,,,-6.70000000e-009,8.43749501e-005
,,,-6.67500000e-009,4.84374475e-005
,,,-6.65000000e-009,-5.58793550e-011
,,,-6.62500000e-009,-6.09375602e-005
,,,-6.60000000e-009,-1.26562565e-004
,,,-6.57500000e-009,-1.92968820e-004
,,,-6.55000000e-009,-2.56250074e-004
,,,-6.52500000e-009,-3.10937578e-004
,,,-6.50000000e-009,-3.55468831e-004
,,,-6.47500000e-009,-3.85937583e-004
,,,-6.45000000e-009,-4.00000084e-004
,,,-6.42500000e-009,-3.99218834e-004
,,,-6.40000000e-009,-3.84375083e-004
,,,-6.37500000e-009,-3.57812581e-004
,,,-6.35000000e-009,-3.24218829e-004
,,,-6.32500000e-009,-2.87500076e-004
,,,-6.30000000e-009,-2.51562574e-004
,,,-6.27500000e-009,-2.21875072e-004
,,,-6.25000000e-009,-2.00000070e-004
,,,-6.22500000e-009,-1.89843819e-004
,,,-6.20000000e-009,-1.92968820e-004
,,,-6.17500000e-009,-2.09375071e-004
,,,-6.15000000e-009,-2.35937573e-004
,,,-6.12500000e-009,-2.71875075e-004
,,,-6.10000000e-009,-3.14062578e-004
,,,-6.07500000e-009,-3.57812581e-004
,,,-6.05000000e-009,-4.00000084e-004
,,,-6.02500000e-009,-4.36718837e-004
,,,-6.00000000e-009,-4.64843839e-004
,,,-5.97500000e-009,-4.82031340e-004
,,,-5.95000000e-009,-4.88281340e-004
,,,-5.92500000e-009,-4.82031340e-004
,,,-5.90000000e-009,-4.64843839e-004
,,,-5.87500000e-009,-4.36718837e-004
,,,-5.85000000e-009,-4.00000084e-004
,,,-5.82500000e-009,-3.57812581e-004
,,,-5.80000000e-009,-3.13281328e-004
,,,-5.77500000e-009,-2.72656325e-004
,,,-5.75000000e-009,-2.37500073e-004
,,,-5.72500000e-009,-2.10937571e-004
,,,-5.70000000e-009,-1.95312570e-004
,,,-5.67500000e-009,-1.91406319e-004
,,,-5.65000000e-009,-2.00000070e-004
,,,-5.62500000e-009,-2.20312571e-004
,,,-5.60000000e-009,-2.49218824e-004
,,,-5.57500000e-009,-2.84375076e-004
,,,-5.55000000e-009,-3.20312579e-004
,,,-5.52500000e-009,-3.53125081e-004
,,,-5.50000000e-009,-3.79687583e-004
,,,-5.47500000e-009,-3.96093834e-004
,,,-5.45000000e-009,-4.00000084e-004
,,,-5.42500000e-009,-3.92968834e-004
,,,-5.40000000e-009,-3.74218832e-004
,,,-5.37500000e-009,-3.46093830e-004
,,,-5.35000000e-009,-3.12500078e-004
,,,-5.32500000e-009,-2.77343826e-004
,,,-5.30000000e-009,-2.43750073e-004
,,,-5.27500000e-009,-2.17187571e-004
,,,-5.25000000e-009,-2.00000070e-004
,,,-5.22500000e-009,-1.96093820e-004
,,,-5.20000000e-009,-2.03906320e-004
,,,-5.17500000e-009,-2.23437572e-004
,,,-5.15000000e-009,-2.52343824e-004
,,,-5.12500000e-009,-2.88281326e-004
,,,-5.10000000e-009,-3.27343829e-004
,,,-5.07500000e-009,-3.65625082e-004
,,,-5.05000000e-009,-4.00000084e-004
,,,-5.02500000e-009,-4.28125086e-004
,,,-5.00000000e-009,-4.46875088e-004
,,,-4.97500000e-009,-4.56250088e-004
,,,-4.95000000e-009,-4.57031338e-004
,,,-4.92500000e-009,-4.50000088e-004
,,,-4.90000000e-009,-4.36718837e-004
,,,-4.87500000e-009,-4.19531336e-004
,,,-4.85000000e-009,-4.00000084e-004
,,,-4.82500000e-009,-3.82031333e-004
,,,-4.80000000e-009,-3.67187582e-004
,,,-4.77500000e-009,-3.57031331e-004
,,,-4.75000000e-009,-3.52343831e-004
,,,-4.72500000e-009,-3.54687581e-004
,,,-4.70000000e-009,-3.63281332e-004
,,,-4.67500000e-009,-3.78906333e-004
,,,-4.65000000e-009,-4.00000084e-004
,,,-4.62500000e-009,-4.25781336e-004
,,,-4.60000000e-009,-4.54687588e-004
,,,-4.57500000e-009,-4.85156340e-004
,,,-4.55000000e-009,-5.15625092e-004
,,,-4.52500000e-009,-5.43750094e-004
,,,-4.50000000e-009,-5.68750096e-004
,,,-4.47500000e-009,-5.88281348e-004
,,,-4.45000000e-009,-6.00000098e-004
,,,-4.42500000e-009,-6.02343849e-004
,,,-4.40000000e-009,-5.96093848e-004
,,,-4.37500000e-009,-5.80468847e-004
,,,-4.35000000e-009,-5.57031345e-004
,,,-4.32500000e-009,-5.25781343e-004
,,,-4.30000000e-009,-4.87500090e-004
,,,-4.27500000e-009,-4.45312587e-004
,,,-4.25000000e-009,-4.00000084e-004
,,,-4.22500000e-009,-3.54687581e-004
,,,-4.20000000e-009,-3.10937578e-004
,,,-4.17500000e-009,-2.72656325e-004
,,,-4.15000000e-009,-2.40625073e-004
,,,-4.12500000e-009,-2.16406321e-004
,,,-4.10000000e-009,-2.01562570e-004
,,,-4.07500000e-009,-1.96093820e-004
,,,-4.05000000e-009,-2.00000070e-004
,,,-4.02500000e-009,-2.14843821e-004
,,,-4.00000000e-009,-2.36718823e-004
,,,-3.97500000e-009,-2.63281325e-004
,,,-3.95000000e-009,-2.92968827e-004
,,,-3.92500000e-009,-3.23437579e-004
,,,-3.90000000e-009,-3.52343831e-004
,,,-3.87500000e-009,-3.78906333e-004
,,,-3.85000000e-009,-4.00000084e-004
,,,-3.82500000e-009,-4.16406335e-004
,,,-3.80000000e-009,-4.25781336e-004
,,,-3.77500000e-009,-4.29687586e-004
,,,-3.75000000e-009,-4.28906336e-004
,,,-3.72500000e-009,-4.23437586e-004
,,,-3.70000000e-009,-4.16406335e-004
,,,-3.67500000e-009,-4.08593835e-004
,,,-3.65000000e-009,-4.00000084e-004
,,,-3.62500000e-009,-3.93750084e-004
,,,-3.60000000e-009,-3.89062583e-004
,,,-3.57500000e-009,-3.87500083e-004
,,,-3.55000000e-009,-3.87500083e-004
,,,-3.52500000e-009,-3.89843833e-004
,,,-3.50000000e-009,-3.92968834e-004
,,,-3.47500000e-009,-3.96875084e-004
,,,-3.45000000e-009,-4.00000084e-004
,,,-3.42500000e-009,-4.04687585e-004
,,,-3.40000000e-009,-4.07031335e-004
,,,-3.37500000e-009,-4.07812585e-004
,,,-3.35000000e-009,-4.07812585e-004
,,,-3.32500000e-009,-4.07031335e-004
,,,-3.30000000e-009,-4.04687585e-004
,,,-3.27500000e-009,-4.02343834e-004
,,,-3.25000000e-009,-4.00000084e-004
,,,-3.22500000e-009,-3.98437584e-004
,,,-3.20000000e-009,-3.97656334e-004
,,,-3.17500000e-009,-3.96875084e-004
,,,-3.15000000e-009,-3.96875084e-004
,,,-3.12500000e-009,-3.97656334e-004
,,,-3.10000000e-009,-3.98437584e-004
,,,-3.07500000e-009,-3.99218834e-004
,,,-3.05000000e-009,-4.00000084e-004
,,,-3.02500000e-009,-4.00781334e-004
,,,-3.00000000e-009,-4.00781334e-004
,,,-2.97500000e-009,-4.00000084e-004
,,,-2.95000000e-009,-4.00000084e-004
,,,-2.92500000e-009,-4.00000084e-004
,,,-2.90000000e-009,-4.00781334e-004
,,,-2.87500000e-009,-4.00781334e-004
,,,-2.85000000e-009,-4.00000084e-004
,,,-2.82500000e-009,-4.00781334e-004
,,,-2.80000000e-009,-4.00781334e-004
,,,-2.77500000e-009,-4.00000084e-004
,,,-2.75000000e-009,-4.00000084e-004
,,,-2.72500000e-009,-4.00000084e-004
,,,-2.70000000e-009,-4.00781334e-004
,,,-2.67500000e-009,-4.00781334e-004
,,,-2.65000000e-009,-4.00000084e-004
,,,-2.62500000e-009,-4.00781334e-004
,,,-2.60000000e-009,-4.00781334e-004
,,,-2.57500000e-009,-4.00000084e-004
,,,-2.55000000e-009,-4.00000084e-004
,,,-2.52500000e-009,-4.00000084e-004
,,,-2.50000000e-009,-4.00781334e-004
,,,-2.47500000e-009,-4.00781334e-004
,,,-2.45000000e-009,-4.00000084e-004
,,,-2.42500000e-009,-3.99218834e-004
,,,-2.40000000e-009,-3.98437584e-004
,,,-2.37500000e-009,-3.97656334e-004
,,,-2.35000000e-009,-3.96875084e-004
,,,-2.32500000e-009,-3.96875084e-004
,,,-2.30000000e-009,-3.97656334e-004
,,,-2.27500000e-009,-3.98437584e-004
,,,-2.25000000e-009,-4.00000084e-004
,,,-2.22500000e-009,-4.02343834e-004
,,,-2.20000000e-009,-4.04687585e-004
,,,-2.17500000e-009,-4.07031335e-004
,,,-2.15000000e-009,-4.07812585e-004
,,,-2.12500000e-009,-4.07812585e-004
,,,-2.10000000e-009,-4.07031335e-004
,,,-2.07500000e-009,-4.04687585e-004
,,,-2.05000000e-009,-4.00000084e-004
,,,-2.02500000e-009,-3.95312584e-004
,,,-2.00000000e-009,-3.90625084e-004
,,,-1.97500000e-009,-3.86718833e-004
,,,-1.95000000e-009,-3.84375083e-004
,,,-1.92500000e-009,-3.83593833e-004
,,,-1.90000000e-009,-3.86718833e-004
,,,-1.87500000e-009,-3.92187584e-004
,,,-1.85000000e-009,-4.00000084e-004
,,,-1.82500000e-009,-4.11718835e-004
,,,-1.80000000e-009,-4.22656336e-004
,,,-1.77500000e-009,-4.32812587e-004
,,,-1.75000000e-009,-4.39843837e-004
,,,-1.72500000e-009,-4.40625087e-004
,,,-1.70000000e-009,-4.35156337e-004
,,,-1.67500000e-009,-4.21875086e-004
,,,-1.65000000e-009,-4.00000084e-004
,,,-1.62500000e-009,-3.75000082e-004
,,,-1.60000000e-009,-3.44531330e-004
,,,-1.57500000e-009,-3.11718828e-004
,,,-1.55000000e-009,-2.78906326e-004
,,,-1.52500000e-009,-2.49218824e-004
,,,-1.50000000e-009,-2.25000072e-004
,,,-1.47500000e-009,-2.07812571e-004
,,,-1.45000000e-009,-2.00000070e-004
,,,-1.42500000e-009,-2.10937571e-004
,,,-1.40000000e-009,-2.32031322e-004
,,,-1.37500000e-009,-2.60937574e-004
,,,-1.35000000e-009,-2.93750077e-004
,,,-1.32500000e-009,-3.27343829e-004
,,,-1.30000000e-009,-3.57812581e-004
,,,-1.27500000e-009,-3.82812583e-004
,,,-1.25000000e-009,-4.00000084e-004
,,,-1.22500000e-009,-4.20312586e-004
,,,-1.20000000e-009,-4.32812587e-004
,,,-1.17500000e-009,-4.37500087e-004
,,,-1.15000000e-009,-4.36718837e-004
,,,-1.12500000e-009,-4.29687586e-004
,,,-1.10000000e-009,-4.20312586e-004
,,,-1.07500000e-009,-4.09375085e-004
,,,-1.05000000e-009,-4.00000084e-004
,,,-1.02500000e-009,-4.14843835e-004
,,,-1.00000000e-009,-4.35937587e-004
,,,-9.75000000e-010,-4.63281339e-004
,,,-9.50000000e-010,-4.93750091e-004
,,,-9.25000000e-010,-5.25000093e-004
,,,-9.00000000e-010,-5.53906345e-004
,,,-8.75000000e-010,-5.78906347e-004
,,,-8.50000000e-010,-6.00000098e-004
,,,-8.25000000e-010,-6.48437602e-004
,,,-8.00000000e-010,-6.97656355e-004
,,,-7.75000000e-010,-7.48437609e-004
,,,-7.50000000e-010,-7.99218862e-004
,,,-7.25000000e-010,-8.49218866e-004
,,,-7.00000000e-010,-8.99218870e-004
,,,-6.75000000e-010,-9.49218873e-004
,,,-6.50000000e-010,-1.00000013e-003
,,,-6.25000000e-010,-1.08984388e-003
,,,-6.00000000e-010,-1.18828139e-003
,,,-5.75000000e-010,-1.29375015e-003
,,,-5.50000000e-010,-1.40156266e-003
,,,-5.25000000e-010,-1.50859391e-003
,,,-5.00000000e-010,-1.61171892e-003
,,,-4.75000000e-010,-1.70937518e-003
,,,-4.50000000e-010,-1.80000018e-003
,,,-4.25000000e-010,-1.91796894e-003
,,,-4.00000000e-010,-2.03828145e-003
,,,-3.75000000e-010,-2.16093771e-003
,,,-3.50000000e-010,-2.28437522e-003
,,,-3.25000000e-010,-2.40937523e-003
,,,-3.00000000e-010,-2.53593774e-003
,,,-2.75000000e-010,-2.66484399e-003
,,,-2.50000000e-010,-2.80000025e-003
,,,-2.25000000e-010,-2.96718777e-003
,,,-2.00000000e-010,-3.15156278e-003
,,,-1.75000000e-010,-3.35390654e-003
,,,-1.50000000e-010,-3.57421906e-003
,,,-1.25000000e-010,-3.81015658e-003
,,,-1.00000000e-010,-4.06093784e-003
,,,-7.50000000e-011,-4.32500036e-003
,,,-5.00000000e-011,-4.60000038e-003
,,,-2.50000000e-011,-4.88515665e-003
,,,0.00000000e+000,-5.18125042e-003
,,,2.50000000e-011,-5.48593794e-003
,,,5.00000000e-011,-5.79453172e-003
,,,7.50000000e-011,-6.10390674e-003
,,,1.00000000e-010,-6.41093801e-003
,,,1.25000000e-010,-6.71015678e-003
,,,1.50000000e-010,-7.00000055e-003
,,,1.75000000e-010,-7.25156307e-003
,,,2.00000000e-010,-7.49453184e-003
,,,2.25000000e-010,-7.72890685e-003
,,,2.50000000e-010,-7.95625062e-003
,,,2.75000000e-010,-8.17812563e-003
,,,3.00000000e-010,-8.39296940e-003
,,,3.25000000e-010,-8.60078191e-003
,,,3.50000000e-010,-8.80000068e-003
,,,3.75000000e-010,-8.94531319e-003
,,,4.00000000e-010,-9.08515695e-003
,,,4.25000000e-010,-9.22109446e-003
,,,4.50000000e-010,-9.35312572e-003
,,,4.75000000e-010,-9.47968823e-003
,,,5.00000000e-010,-9.59921949e-003
,,,5.25000000e-010,-9.70703199e-003
,,,5.50000000e-010,-9.80000075e-003
,,,5.75000000e-010,-9.82109450e-003
,,,6.00000000e-010,-9.82812575e-003
,,,6.25000000e-010,-9.82109450e-003
,,,6.50000000e-010,-9.80234450e-003
,,,6.75000000e-010,-9.77187575e-003
,,,7.00000000e-010,-9.72890699e-003
,,,7.25000000e-010,-9.67187574e-003
,,,7.50000000e-010,-9.60000074e-003
,,,7.75000000e-010,-9.46328198e-003
,,,8.00000000e-010,-9.31796947e-003
,,,8.25000000e-010,-9.16796945e-003
,,,8.50000000e-010,-9.01562569e-003
,,,8.75000000e-010,-8.86250068e-003
,,,9.00000000e-010,-8.70859442e-003
,,,9.25000000e-010,-8.55468816e-003
,,,9.50000000e-010,-8.40000065e-003
,,,9.75000000e-010,-8.20937564e-003
,,,1.00000000e-009,-8.02031312e-003
,,,1.02500000e-009,-7.83593811e-003
,,,1.05000000e-009,-7.65781310e-003
,,,1.07500000e-009,-7.48515684e-003
,,,1.10000000e-009,-7.31796932e-003
,,,1.12500000e-009,-7.15703181e-003
,,,1.15000000e-009,-7.00000055e-003
,,,1.17500000e-009,-6.83281304e-003
,,,1.20000000e-009,-6.66796928e-003
,,,1.22500000e-009,-6.50781302e-003
,,,1.25000000e-009,-6.35312551e-003
,,,1.27500000e-009,-6.20390674e-003
,,,1.30000000e-009,-6.06171923e-003
,,,1.32500000e-009,-5.92734423e-003
,,,1.35000000e-009,-5.80000047e-003
,,,1.37500000e-009,-5.68046921e-003
,,,1.40000000e-009,-5.56484420e-003
,,,1.42500000e-009,-5.45390669e-003
,,,1.45000000e-009,-5.34921918e-003
,,,1.47500000e-009,-5.25000043e-003
,,,1.50000000e-009,-5.15937542e-003
,,,1.52500000e-009,-5.07578167e-003
,,,1.55000000e-009,-5.00000041e-003
,,,1.57500000e-009,-4.94062541e-003
,,,1.60000000e-009,-4.87812540e-003
,,,1.62500000e-009,-4.81171915e-003
,,,1.65000000e-009,-4.73984414e-003
,,,1.67500000e-009,-4.66250039e-003
,,,1.70000000e-009,-4.57968788e-003
,,,1.72500000e-009,-4.49140662e-003
,,,1.75000000e-009,-4.40000037e-003
,,,1.77500000e-009,-4.31875036e-003
,,,1.80000000e-009,-4.23125036e-003
,,,1.82500000e-009,-4.14140660e-003
,,,1.85000000e-009,-4.05312534e-003
,,,1.87500000e-009,-3.97109409e-003
,,,1.90000000e-009,-3.89921908e-003
,,,1.92500000e-009,-3.84218783e-003
,,,1.95000000e-009,-3.80000032e-003
,,,1.97500000e-009,-3.78359407e-003
,,,2.00000000e-009,-3.77187532e-003
,,,2.02500000e-009,-3.76250032e-003
,,,2.05000000e-009,-3.74921907e-003
,,,2.07500000e-009,-3.72890657e-003
,,,2.10000000e-009,-3.69921907e-003
,,,2.12500000e-009,-3.65625031e-003
,,,2.15000000e-009,-3.60000031e-003
,,,2.17500000e-009,-3.53671906e-003
,,,2.20000000e-009,-3.45937530e-003
,,,2.22500000e-009,-3.37031279e-003
,,,2.25000000e-009,-3.27812529e-003
,,,2.27500000e-009,-3.18906278e-003
,,,2.30000000e-009,-3.10937528e-003
,,,2.32500000e-009,-3.04531277e-003
,,,2.35000000e-009,-3.00000027e-003
,,,2.37500000e-009,-2.98125027e-003
,,,2.40000000e-009,-2.97812527e-003
,,,2.42500000e-009,-2.98515652e-003
,,,2.45000000e-009,-2.99843777e-003
,,,2.47500000e-009,-3.01250027e-003
,,,2.50000000e-009,-3.02031277e-003
,,,2.52500000e-009,-3.01796902e-003
,,,2.55000000e-009,-3.00000027e-003
,,,2.57500000e-009,-2.96640652e-003
,,,2.60000000e-009,-2.91250026e-003
,,,2.62500000e-009,-2.84062526e-003
,,,2.65000000e-009,-2.75546900e-003
,,,2.67500000e-009,-2.66250024e-003
,,,2.70000000e-009,-2.56796899e-003
,,,2.72500000e-009,-2.47890648e-003
,,,2.75000000e-009,-2.40000023e-003
,,,2.77500000e-009,-2.33906272e-003
,,,2.80000000e-009,-2.29062522e-003
,,,2.82500000e-009,-2.25546897e-003
,,,2.85000000e-009,-2.23203146e-003
,,,2.87500000e-009,-2.21796896e-003
,,,2.90000000e-009,-2.21015646e-003
,,,2.92500000e-009,-2.20468771e-003
,,,2.95000000e-009,-2.20000021e-003
,,,2.97500000e-009,-2.19375021e-003
,,,3.00000000e-009,-2.17968771e-003
,,,3.02500000e-009,-2.15937521e-003
,,,3.05000000e-009,-2.13203146e-003
,,,3.07500000e-009,-2.10078145e-003
,,,3.10000000e-009,-2.06640645e-003
,,,3.12500000e-009,-2.03281270e-003
,,,3.15000000e-009,-2.00000020e-003
,,,3.17500000e-009,-1.97343770e-003
,,,3.20000000e-009,-1.94765644e-003
,,,3.22500000e-009,-1.92343769e-003
,,,3.25000000e-009,-1.89921894e-003
,,,3.27500000e-009,-1.87578144e-003
,,,3.30000000e-009,-1.85156269e-003
,,,3.32500000e-009,-1.82656269e-003
,,,3.35000000e-009,-1.80000018e-003
,,,3.37500000e-009,-1.77421893e-003
,,,3.40000000e-009,-1.74531268e-003
,,,3.42500000e-009,-1.71562518e-003
,,,3.45000000e-009,-1.68671893e-003
,,,3.47500000e-009,-1.65937517e-003
,,,3.50000000e-009,-1.63515642e-003
,,,3.52500000e-009,-1.61562517e-003
,,,3.55000000e-009,-1.60000017e-003
,,,3.57500000e-009,-1.58984392e-003
,,,3.60000000e-009,-1.57968767e-003
,,,3.62500000e-009,-1.56640642e-003
,,,3.65000000e-009,-1.54843767e-003
,,,3.67500000e-009,-1.52421891e-003
,,,3.70000000e-009,-1.49140641e-003
,,,3.72500000e-009,-1.45000016e-003
,,,3.75000000e-009,-1.40000015e-003
,,,3.77500000e-009,-1.34375015e-003
,,,3.80000000e-009,-1.28125015e-003
,,,3.82500000e-009,-1.21562514e-003
,,,3.85000000e-009,-1.15234389e-003
,,,3.87500000e-009,-1.09609388e-003
,,,3.90000000e-009,-1.04921888e-003
,,,3.92500000e-009,-1.01718763e-003
,,,3.95000000e-009,-1.00000013e-003
,,,3.97500000e-009,-1.00312513e-003
,,,4.00000000e-009,-1.01953138e-003
,,,4.02500000e-009,-1.04609388e-003
,,,4.05000000e-009,-1.07968763e-003
,,,4.07500000e-009,-1.11640638e-003
,,,4.10000000e-009,-1.15078139e-003
,,,4.12500000e-009,-1.18046889e-003
,,,4.15000000e-009,-1.20000014e-003
,,,4.17500000e-009,-1.20781264e-003
,,,4.20000000e-009,-1.20078139e-003
,,,4.22500000e-009,-1.18203139e-003
,,,4.25000000e-009,-1.15234389e-003
,,,4.27500000e-009,-1.11640638e-003
,,,4.30000000e-009,-1.07656263e-003
,,,4.32500000e-009,-1.03750013e-003
,,,4.35000000e-009,-1.00000013e-003
,,,4.37500000e-009,-9.69531375e-004
,,,4.40000000e-009,-9.42968873e-004
,,,4.42500000e-009,-9.19531371e-004
,,,4.45000000e-009,-8.98437619e-004
,,,4.47500000e-009,-8.77343868e-004
,,,4.50000000e-009,-8.55468866e-004
,,,4.52500000e-009,-8.29687615e-004
,,,4.55000000e-009,-8.00000113e-004
,,,4.57500000e-009,-7.69531360e-004
,,,4.60000000e-009,-7.35937608e-004
,,,4.62500000e-009,-7.00781355e-004
,,,4.65000000e-009,-6.67187603e-004
,,,4.67500000e-009,-6.38281351e-004
,,,4.70000000e-009,-6.16406350e-004
,,,4.72500000e-009,-6.03125099e-004
,,,4.75000000e-009,-6.00000098e-004
,,,4.77500000e-009,-6.10156349e-004
,,,4.80000000e-009,-6.25781350e-004
,,,4.82500000e-009,-6.42187601e-004
,,,4.85000000e-009,-6.56250102e-004
,,,4.87500000e-009,-6.62500103e-004
,,,4.90000000e-009,-6.56250102e-004
,,,4.92500000e-009,-6.35937601e-004
,,,4.95000000e-009,-6.00000098e-004
,,,4.97500000e-009,-5.50781345e-004
,,,5.00000000e-009,-4.89062590e-004
,,,5.02500000e-009,-4.21093836e-004
,,,5.05000000e-009,-3.53125081e-004
,,,5.07500000e-009,-2.90625076e-004
,,,5.10000000e-009,-2.41406323e-004
,,,5.12500000e-009,-2.10156321e-004
,,,5.15000000e-009,-2.00000070e-004
,,,5.17500000e-009,-2.17187571e-004
,,,5.20000000e-009,-2.53906324e-004
,,,5.22500000e-009,-3.06250078e-004
,,,5.25000000e-009,-3.68750082e-004
,,,5.27500000e-009,-4.35156337e-004
,,,5.30000000e-009,-5.00000091e-004
,,,5.32500000e-009,-5.56250095e-004
,,,5.35000000e-009,-6.00000098e-004
,,,5.37500000e-009,-6.28125100e-004
,,,5.40000000e-009,-6.40625101e-004
,,,5.42500000e-009,-6.39062601e-004
,,,5.45000000e-009,-6.28125100e-004
,,,5.47500000e-009,-6.14062599e-004
,,,5.50000000e-009,-6.01562598e-004
,,,5.52500000e-009,-5.96093848e-004
,,,5.55000000e-009,-6.00000098e-004
,,,5.57500000e-009,-6.15625099e-004
,,,5.60000000e-009,-6.40625101e-004
,,,5.62500000e-009,-6.74218854e-004
,,,5.65000000e-009,-7.10937606e-004
,,,5.67500000e-009,-7.46875109e-004
,,,5.70000000e-009,-7.77343861e-004
,,,5.72500000e-009,-7.96093862e-004
,,,5.75000000e-009,-8.00000113e-004
,,,5.77500000e-009,-7.84375111e-004
,,,5.80000000e-009,-7.51562609e-004
