RawData/DifferentLengths/L4/L4_25_5mV/wave019_Ch1.csv

"Record Length",1000,"Points",-7.72500000e-009,-1.96093820e-004
"Sample Interval",2.50000000e-011,s,-7.70000000e-009,-1.96093820e-004
"Trigger Point",309,"Samples",-7.67500000e-009,-1.96875070e-004
"Trigger Time",2.40200000e-011,s,-7.65000000e-009,-1.98437570e-004
"",,,-7.62500000e-009,-2.00000070e-004
"Horizontal Offset",-7.72500000e-009,s,-7.60000000e-009,-2.03125070e-004
,,,-7.57500000e-009,-2.05468820e-004
,,,-7.55000000e-009,-2.07812571e-004
,,,-7.52500000e-009,-2.09375071e-004
,,,-7.50000000e-009,-2.09375071e-004
,,,-7.47500000e-009,-2.07812571e-004
,,,-7.45000000e-009,-2.04687570e-004
,,,-7.42500000e-009,-2.00000070e-004
,,,-7.40000000e-009,-1.95312570e-004
,,,-7.37500000e-009,-1.89062569e-004
,,,-7.35000000e-009,-1.84375069e-004
,,,-7.32500000e-009,-1.80468819e-004
,,,-7.30000000e-009,-1.79687569e-004
,,,-7.27500000e-009,-1.82031319e-004
,,,-7.25000000e-009,-1.89062569e-004
,,,-7.22500000e-009,-2.00000070e-004
,,,-7.20000000e-009,-2.17187571e-004
,,,-7.17500000e-009,-2.39062573e-004
,,,-7.15000000e-009,-2.64062575e-004
,,,-7.12500000e-009,-2.91406327e-004
,,,-7.10000000e-009,-3.20312579e-004
,,,-7.07500000e-009,-3.49218831e-004
,,,-7.05000000e-009,-3.76562583e-004
,,,-7.02500000e-009,-4.00000084e-004
,,,-7.00000000e-009,-4.18750086e-004
,,,-6.97500000e-009,-4.31250086e-004
,,,-6.95000000e-009,-4.38281337e-004
,,,-6.92500000e-009,-4.40625087e-004
,,,-6.90000000e-009,-4.37500087e-004
,,,-6.87500000e-009,-4.28906336e-004
,,,-6.85000000e-009,-4.16406335e-004
,,,-6.82500000e-009,-4.00000084e-004
,,,-6.80000000e-009,-3.78906333e-004
,,,-6.77500000e-009,-3.56250081e-004
,,,-6.75000000e-009,-3.30468829e-004
,,,-6.72500000e-009,-3.04687577e-004
,,,-6.70000000e-009,-2.78125076e-004
,,,-6.67500000e-009,-2.50781324e-004
,,,-6.65000000e-009,-2.25000072e-004
,,,-6.62500000e-009,-2.00000070e-004
,,,-6.60000000e-009,-1.79687569e-004
,,,-6.57500000e-009,-1.63281317e-004
,,,-6.55000000e-009,-1.53125067e-004
,,,-6.52500000e-009,-1.48437566e-004
,,,-6.50000000e-009,-1.50781317e-004
,,,-6.47500000e-009,-1.60156317e-004
,,,-6.45000000e-009,-1.77343818e-004
,,,-6.42500000e-009,-2.00000070e-004
,,,-6.40000000e-009,-2.29687572e-004
,,,-6.37500000e-009,-2.62500074e-004
,,,-6.35000000e-009,-2.96093827e-004
,,,-6.32500000e-009,-3.28906329e-004
,,,-6.30000000e-009,-3.57031331e-004
,,,-6.27500000e-009,-3.79687583e-004
,,,-6.25000000e-009,-3.94531334e-004
,,,-6.22500000e-009,-4.00000084e-004
,,,-6.20000000e-009,-3.95312584e-004
,,,-6.17500000e-009,-3.82031333e-004
,,,-6.15000000e-009,-3.60156331e-004
,,,-6.12500000e-009,-3.32031329e-004
,,,-6.10000000e-009,-3.00000077e-004
,,,-6.07500000e-009,-2.65625075e-004
,,,-6.05000000e-009,-2.31250072e-004
,,,-6.02500000e-009,-2.00000070e-004
,,,-6.00000000e-009,-1.75000068e-004
,,,-5.97500000e-009,-1.55468817e-004
,,,-5.95000000e-009,-1.44531316e-004
,,,-5.92500000e-009,-1.40625066e-004
,,,-5.90000000e-009,-1.45312566e-004
,,,-5.87500000e-009,-1.57031317e-004
,,,-5.85000000e-009,-1.75781318e-004
,,,-5.82500000e-009,-2.00000070e-004
,,,-5.80000000e-009,-2.30468822e-004
,,,-5.77500000e-009,-2.62500074e-004
,,,-5.75000000e-009,-2.94531327e-004
,,,-5.72500000e-009,-3.24218829e-004
,,,-5.70000000e-009,-3.50781331e-004
,,,-5.67500000e-009,-3.72656332e-004
,,,-5.65000000e-009,-3.89062583e-004
,,,-5.62500000e-009,-4.00000084e-004
,,,-5.60000000e-009,-4.06250085e-004
,,,-5.57500000e-009,-4.07812585e-004
,,,-5.55000000e-009,-4.06250085e-004
,,,-5.52500000e-009,-4.03906334e-004
,,,-5.50000000e-009,-4.00781334e-004
,,,-5.47500000e-009,-3.98437584e-004
,,,-5.45000000e-009,-3.98437584e-004
,,,-5.42500000e-009,-4.00000084e-004
,,,-5.40000000e-009,-4.03125084e-004
,,,-5.37500000e-009,-4.07031335e-004
,,,-5.35000000e-009,-4.12500085e-004
,,,-5.32500000e-009,-4.16406335e-004
,,,-5.30000000e-009,-4.18750086e-004
,,,-5.27500000e-009,-4.17968835e-004
,,,-5.25000000e-009,-4.11718835e-004
,,,-5.22500000e-009,-4.00000084e-004
,,,-5.20000000e-009,-3.82812583e-004
,,,-5.17500000e-009,-3.60937581e-004
,,,-5.15000000e-009,-3.34375080e-004
,,,-5.12500000e-009,-3.04687577e-004
,,,-5.10000000e-009,-2.74218825e-004
,,,-5.07500000e-009,-2.45312573e-004
,,,-5.05000000e-009,-2.20312571e-004
,,,-5.02500000e-009,-2.00000070e-004
,,,-5.00000000e-009,-1.90625069e-004
,,,-4.97500000e-009,-1.91406319e-004
,,,-4.95000000e-009,-2.02343820e-004
,,,-4.92500000e-009,-2.24218822e-004
,,,-4.90000000e-009,-2.57031324e-004
,,,-4.87500000e-009,-2.98437577e-004
,,,-4.85000000e-009,-3.46875080e-004
,,,-4.82500000e-009,-4.00000084e-004
,,,-4.80000000e-009,-4.57031338e-004
,,,-4.77500000e-009,-5.11718842e-004
,,,-4.75000000e-009,-5.60156346e-004
,,,-4.72500000e-009,-5.98437598e-004
,,,-4.70000000e-009,-6.24218850e-004
,,,-4.67500000e-009,-6.33593851e-004
,,,-4.65000000e-009,-6.25781350e-004
,,,-4.62500000e-009,-6.00000098e-004
,,,-4.60000000e-009,-5.57812595e-004
,,,-4.57500000e-009,-5.03125091e-004
,,,-4.55000000e-009,-4.41406337e-004
,,,-4.52500000e-009,-3.77343833e-004
,,,-4.50000000e-009,-3.16406328e-004
,,,-4.47500000e-009,-2.64062575e-004
,,,-4.45000000e-009,-2.25000072e-004
,,,-4.42500000e-009,-2.00000070e-004
,,,-4.40000000e-009,-1.94531320e-004
,,,-4.37500000e-009,-2.04687570e-004
,,,-4.35000000e-009,-2.28125072e-004
,,,-4.32500000e-009,-2.60937574e-004
,,,-4.30000000e-009,-2.98437577e-004
,,,-4.27500000e-009,-3.36718830e-004
,,,-4.25000000e-009,-3.71093832e-004
,,,-4.22500000e-009,-4.00000084e-004
,,,-4.20000000e-009,-4.22656336e-004
,,,-4.17500000e-009,-4.39062587e-004
,,,-4.15000000e-009,-4.51562588e-004
,,,-4.12500000e-009,-4.65625089e-004
,,,-4.10000000e-009,-4.83593840e-004
,,,-4.07500000e-009,-5.10156342e-004
,,,-4.05000000e-009,-5.49218845e-004
,,,-4.02500000e-009,-6.00000098e-004
,,,-4.00000000e-009,-6.60156353e-004
,,,-3.97500000e-009,-7.28125107e-004
,,,-3.95000000e-009,-7.99218862e-004
,,,-3.92500000e-009,-8.68750117e-004
,,,-3.90000000e-009,-9.28906372e-004
,,,-3.87500000e-009,-9.74218875e-004
,,,-3.85000000e-009,-1.00000013e-003
,,,-3.82500000e-009,-1.00000013e-003
,,,-3.80000000e-009,-9.70312625e-004
,,,-3.77500000e-009,-9.16406371e-004
,,,-3.75000000e-009,-8.42187615e-004
,,,-3.72500000e-009,-7.54687609e-004
,,,-3.70000000e-009,-6.59375103e-004
,,,-3.67500000e-009,-5.64843846e-004
,,,-3.65000000e-009,-4.76562590e-004
,,,-3.62500000e-009,-4.00000084e-004
,,,-3.60000000e-009,-3.42968830e-004
,,,-3.57500000e-009,-3.05468828e-004
,,,-3.55000000e-009,-2.88281326e-004
,,,-3.52500000e-009,-2.89062576e-004
,,,-3.50000000e-009,-3.05468828e-004
,,,-3.47500000e-009,-3.32031329e-004
,,,-3.45000000e-009,-3.65625082e-004
,,,-3.42500000e-009,-4.00000084e-004
,,,-3.40000000e-009,-4.30468836e-004
,,,-3.37500000e-009,-4.54687588e-004
,,,-3.35000000e-009,-4.69531339e-004
,,,-3.32500000e-009,-4.74218839e-004
,,,-3.30000000e-009,-4.68750089e-004
,,,-3.27500000e-009,-4.53906338e-004
,,,-3.25000000e-009,-4.30468836e-004
,,,-3.22500000e-009,-4.00000084e-004
,,,-3.20000000e-009,-3.65625082e-004
,,,-3.17500000e-009,-3.28906329e-004
,,,-3.15000000e-009,-2.93750077e-004
,,,-3.12500000e-009,-2.60937574e-004
,,,-3.10000000e-009,-2.34375072e-004
,,,-3.07500000e-009,-2.14843821e-004
,,,-3.05000000e-009,-2.03125070e-004
,,,-3.02500000e-009,-2.00000070e-004
,,,-3.00000000e-009,-2.09375071e-004
,,,-2.97500000e-009,-2.26562572e-004
,,,-2.95000000e-009,-2.50000074e-004
,,,-2.92500000e-009,-2.78125076e-004
,,,-2.90000000e-009,-3.09375078e-004
,,,-2.87500000e-009,-3.41406330e-004
,,,-2.85000000e-009,-3.72656332e-004
,,,-2.82500000e-009,-4.00000084e-004
,,,-2.80000000e-009,-4.24218836e-004
,,,-2.77500000e-009,-4.41406337e-004
,,,-2.75000000e-009,-4.50781338e-004
,,,-2.72500000e-009,-4.52343838e-004
,,,-2.70000000e-009,-4.47656338e-004
,,,-2.67500000e-009,-4.35937587e-004
,,,-2.65000000e-009,-4.20312586e-004
,,,-2.62500000e-009,-4.00000084e-004
,,,-2.60000000e-009,-3.75000082e-004
,,,-2.57500000e-009,-3.48437581e-004
,,,-2.55000000e-009,-3.21093829e-004
,,,-2.52500000e-009,-2.93750077e-004
,,,-2.50000000e-009,-2.67187575e-004
,,,-2.47500000e-009,-2.42187573e-004
,,,-2.45000000e-009,-2.20312571e-004
,,,-2.42500000e-009,-2.00000070e-004
,,,-2.40000000e-009,-1.85156319e-004
,,,-2.37500000e-009,-1.73437568e-004
,,,-2.35000000e-009,-1.66406318e-004
,,,-2.32500000e-009,-1.63281317e-004
,,,-2.30000000e-009,-1.65625068e-004
,,,-2.27500000e-009,-1.72656318e-004
,,,-2.25000000e-009,-1.84375069e-004
,,,-2.22500000e-009,-2.00000070e-004
,,,-2.20000000e-009,-2.21875072e-004
,,,-2.17500000e-009,-2.46093823e-004
,,,-2.15000000e-009,-2.72656325e-004
,,,-2.12500000e-009,-3.00000077e-004
,,,-2.10000000e-009,-3.28125079e-004
,,,-2.07500000e-009,-3.55468831e-004
,,,-2.05000000e-009,-3.80468833e-004
,,,-2.02500000e-009,-4.00000084e-004
,,,-2.00000000e-009,-4.14062585e-004
,,,-1.97500000e-009,-4.19531336e-004
,,,-1.95000000e-009,-4.14843835e-004
,,,-1.92500000e-009,-3.98437584e-004
,,,-1.90000000e-009,-3.68750082e-004
,,,-1.87500000e-009,-3.25000079e-004
,,,-1.85000000e-009,-2.68750075e-004
,,,-1.82500000e-009,-2.00000070e-004
,,,-1.80000000e-009,-1.28125065e-004
,,,-1.77500000e-009,-5.39063097e-005
,,,-1.75000000e-009,1.87499454e-005
,,,-1.72500000e-009,8.51562001e-005
,,,-1.70000000e-009,1.39062454e-004
,,,-1.67500000e-009,1.78124957e-004
,,,-1.65000000e-009,1.99218708e-004
,,,-1.62500000e-009,1.99999958e-004
,,,-1.60000000e-009,1.70312456e-004
,,,-1.57500000e-009,1.24218703e-004
,,,-1.55000000e-009,6.56249488e-005
,,,-1.52500000e-009,7.81194176e-007
,,,-1.50000000e-009,-6.32813104e-005
,,,-1.47500000e-009,-1.21093814e-004
,,,-1.45000000e-009,-1.67968818e-004
,,,-1.42500000e-009,-2.00000070e-004
,,,-1.40000000e-009,-2.25000072e-004
,,,-1.37500000e-009,-2.35937573e-004
,,,-1.35000000e-009,-2.35156323e-004
,,,-1.32500000e-009,-2.26562572e-004
,,,-1.30000000e-009,-2.13281321e-004
,,,-1.27500000e-009,-2.02343820e-004
,,,-1.25000000e-009,-1.96875070e-004
,,,-1.22500000e-009,-2.00000070e-004
,,,-1.20000000e-009,-2.31250072e-004
,,,-1.17500000e-009,-2.76562575e-004
,,,-1.15000000e-009,-3.32812579e-004
,,,-1.12500000e-009,-3.94531334e-004
,,,-1.10000000e-009,-4.57031338e-004
,,,-1.07500000e-009,-5.14843842e-004
,,,-1.05000000e-009,-5.64062596e-004
,,,-1.02500000e-009,-6.00000098e-004
,,,-1.00000000e-009,-6.44531351e-004
,,,-9.75000000e-010,-6.78906354e-004
,,,-9.50000000e-010,-7.05468856e-004
,,,-9.25000000e-010,-7.25000107e-004
,,,-9.00000000e-010,-7.41406358e-004
,,,-8.75000000e-010,-7.57031359e-004
,,,-8.50000000e-010,-7.75781361e-004
,,,-8.25000000e-010,-8.00000113e-004
,,,-8.00000000e-010,-8.62500117e-004
,,,-7.75000000e-010,-9.38281372e-004
,,,-7.50000000e-010,-1.02343763e-003
,,,-7.25000000e-010,-1.11250013e-003
,,,-7.00000000e-010,-1.20000014e-003
,,,-6.75000000e-010,-1.27890640e-003
,,,-6.50000000e-010,-1.34609390e-003
,,,-6.25000000e-010,-1.40000015e-003
,,,-6.00000000e-010,-1.47656266e-003
,,,-5.75000000e-010,-1.55000017e-003
,,,-5.50000000e-010,-1.62109392e-003
,,,-5.25000000e-010,-1.69062518e-003
,,,-5.00000000e-010,-1.76093768e-003
,,,-4.75000000e-010,-1.83437519e-003
,,,-4.50000000e-010,-1.91250019e-003
,,,-4.25000000e-010,-2.00000020e-003
,,,-4.00000000e-010,-2.14062521e-003
,,,-3.75000000e-010,-2.30156272e-003
,,,-3.50000000e-010,-2.47812523e-003
,,,-3.25000000e-010,-2.66562524e-003
,,,-3.00000000e-010,-2.85703151e-003
,,,-2.75000000e-010,-3.04609402e-003
,,,-2.50000000e-010,-3.22734403e-003
,,,-2.25000000e-010,-3.40000030e-003
,,,-2.00000000e-010,-3.59140656e-003
,,,-1.75000000e-010,-3.78281282e-003
,,,-1.50000000e-010,-3.97500034e-003
,,,-1.25000000e-010,-4.16796910e-003
,,,-1.00000000e-010,-4.36562536e-003
,,,-7.50000000e-011,-4.56796913e-003
,,,-5.00000000e-011,-4.77890664e-003
,,,-2.50000000e-011,-5.00000041e-003
,,,0.00000000e+000,-5.25000043e-003
,,,2.50000000e-011,-5.52109420e-003
,,,5.00000000e-011,-5.81093797e-003
,,,7.50000000e-011,-6.11640674e-003
,,,1.00000000e-010,-6.43281301e-003
,,,1.25000000e-010,-6.75468803e-003
,,,1.50000000e-010,-7.07812556e-003
,,,1.75000000e-010,-7.40000058e-003
,,,2.00000000e-010,-7.70703185e-003
,,,2.25000000e-010,-8.01640687e-003
,,,2.50000000e-010,-8.33125065e-003
,,,2.75000000e-010,-8.65156317e-003
,,,3.00000000e-010,-8.98046944e-003
,,,3.25000000e-010,-9.31562572e-003
,,,3.50000000e-010,-9.65703199e-003
,,,3.75000000e-010,-1.00000008e-002
,,,4.00000000e-010,-1.03007820e-002
,,,4.25000000e-010,-1.05984383e-002
,,,4.50000000e-010,-1.08898446e-002
,,,4.75000000e-010,-1.11671883e-002
,,,5.00000000e-010,-1.14234384e-002
,,,5.25000000e-010,-1.16523446e-002
,,,5.50000000e-010,-1.18460946e-002
,,,5.75000000e-010,-1.20000009e-002
,,,6.00000000e-010,-1.20515634e-002
,,,6.25000000e-010,-1.20710947e-002
,,,6.50000000e-010,-1.20687509e-002
,,,6.75000000e-010,-1.20531259e-002
,,,7.00000000e-010,-1.20320322e-002
,,,7.25000000e-010,-1.20132822e-002
,,,7.50000000e-010,-1.20015634e-002
,,,7.75000000e-010,-1.20000009e-002
,,,8.00000000e-010,-1.19492197e-002
,,,8.25000000e-010,-1.19132821e-002
,,,8.50000000e-010,-1.18921884e-002
,,,8.75000000e-010,-1.18820321e-002
,,,9.00000000e-010,-1.18765634e-002
,,,9.25000000e-010,-1.18664071e-002
,,,9.50000000e-010,-1.18437509e-002
,,,9.75000000e-010,-1.18000009e-002
,,,1.00000000e-009,-1.16750009e-002
,,,1.02500000e-009,-1.15265634e-002
,,,1.05000000e-009,-1.13593759e-002
,,,1.07500000e-009,-1.11773446e-002
,,,1.10000000e-009,-1.09859383e-002
,,,1.12500000e-009,-1.07898446e-002
,,,1.15000000e-009,-1.05937508e-002
,,,1.17500000e-009,-1.04000008e-002
,,,1.20000000e-009,-1.01742195e-002
,,,1.22500000e-009,-9.95625076e-003
,,,1.25000000e-009,-9.74843825e-003
,,,1.27500000e-009,-9.54921948e-003
,,,1.30000000e-009,-9.35703197e-003
,,,1.32500000e-009,-9.17031320e-003
,,,1.35000000e-009,-8.98593819e-003
,,,1.37500000e-009,-8.80000068e-003
,,,1.40000000e-009,-8.59531316e-003
,,,1.42500000e-009,-8.38515690e-003
,,,1.45000000e-009,-8.17187563e-003
,,,1.47500000e-009,-7.96015687e-003
,,,1.50000000e-009,-7.75234435e-003
,,,1.52500000e-009,-7.55468809e-003
,,,1.55000000e-009,-7.36953183e-003
,,,1.57500000e-009,-7.20000057e-003
,,,1.60000000e-009,-7.05000055e-003
,,,1.62500000e-009,-6.90937554e-003
,,,1.65000000e-009,-6.77734429e-003
,,,1.67500000e-009,-6.65234428e-003
,,,1.70000000e-009,-6.53281302e-003
,,,1.72500000e-009,-6.41875051e-003
,,,1.75000000e-009,-6.30781300e-003
,,,1.77500000e-009,-6.20000049e-003
,,,1.80000000e-009,-6.10546924e-003
,,,1.82500000e-009,-6.00468798e-003
,,,1.85000000e-009,-5.89921922e-003
,,,1.87500000e-009,-5.79140672e-003
,,,1.90000000e-009,-5.68437546e-003
,,,1.92500000e-009,-5.58203170e-003
,,,1.95000000e-009,-5.48671919e-003
,,,1.97500000e-009,-5.40000044e-003
,,,2.00000000e-009,-5.33906293e-003
,,,2.02500000e-009,-5.27656293e-003
,,,2.05000000e-009,-5.21171917e-003
,,,2.07500000e-009,-5.14218792e-003
,,,2.10000000e-009,-5.06718791e-003
,,,2.12500000e-009,-4.98515666e-003
,,,2.15000000e-009,-4.89609415e-003
,,,2.17500000e-009,-4.80000040e-003
,,,2.20000000e-009,-4.71171914e-003
,,,2.22500000e-009,-4.61250038e-003
,,,2.25000000e-009,-4.50468787e-003
,,,2.27500000e-009,-4.39218787e-003
,,,2.30000000e-009,-4.28046911e-003
,,,2.32500000e-009,-4.17500035e-003
,,,2.35000000e-009,-4.08046909e-003
,,,2.37500000e-009,-4.00000034e-003
,,,2.40000000e-009,-3.94921909e-003
,,,2.42500000e-009,-3.90859408e-003
,,,2.45000000e-009,-3.87812533e-003
,,,2.47500000e-009,-3.85468783e-003
,,,2.50000000e-009,-3.83671908e-003
,,,2.52500000e-009,-3.82343783e-003
,,,2.55000000e-009,-3.81171908e-003
,,,2.57500000e-009,-3.80000032e-003
,,,2.60000000e-009,-3.79296907e-003
,,,2.62500000e-009,-3.77812532e-003
,,,2.65000000e-009,-3.75546907e-003
,,,2.67500000e-009,-3.72734407e-003
,,,2.70000000e-009,-3.69453157e-003
,,,2.72500000e-009,-3.66093782e-003
,,,2.75000000e-009,-3.62890656e-003
,,,2.77500000e-009,-3.60000031e-003
,,,2.80000000e-009,-3.57734406e-003
,,,2.82500000e-009,-3.55390656e-003
,,,2.85000000e-009,-3.53046906e-003
,,,2.87500000e-009,-3.50703155e-003
,,,2.90000000e-009,-3.48281280e-003
,,,2.92500000e-009,-3.45703155e-003
,,,2.95000000e-009,-3.43046905e-003
,,,2.97500000e-009,-3.40000030e-003
,,,3.00000000e-009,-3.36718779e-003
,,,3.02500000e-009,-3.32812529e-003
,,,3.05000000e-009,-3.28203154e-003
,,,3.07500000e-009,-3.22968778e-003
,,,3.10000000e-009,-3.17421903e-003
,,,3.12500000e-009,-3.11640653e-003
,,,3.15000000e-009,-3.05781277e-003
,,,3.17500000e-009,-3.00000027e-003
,,,3.20000000e-009,-2.94609401e-003
,,,3.22500000e-009,-2.89218776e-003
,,,3.25000000e-009,-2.83906276e-003
,,,3.27500000e-009,-2.78750025e-003
,,,3.30000000e-009,-2.73750025e-003
,,,3.32500000e-009,-2.68984400e-003
,,,3.35000000e-009,-2.64453149e-003
,,,3.37500000e-009,-2.60000024e-003
,,,3.40000000e-009,-2.55703149e-003
,,,3.42500000e-009,-2.51250023e-003
,,,3.45000000e-009,-2.46562523e-003
,,,3.47500000e-009,-2.41718773e-003
,,,3.50000000e-009,-2.36562522e-003
,,,3.52500000e-009,-2.31171897e-003
,,,3.55000000e-009,-2.25625022e-003
,,,3.57500000e-009,-2.20000021e-003
,,,3.60000000e-009,-2.14531271e-003
,,,3.62500000e-009,-2.08906270e-003
,,,3.65000000e-009,-2.03203145e-003
,,,3.67500000e-009,-1.97656270e-003
,,,3.70000000e-009,-1.92421894e-003
,,,3.72500000e-009,-1.87578144e-003
,,,3.75000000e-009,-1.83437519e-003
,,,3.77500000e-009,-1.80000018e-003
,,,3.80000000e-009,-1.77734393e-003
,,,3.82500000e-009,-1.76093768e-003
,,,3.85000000e-009,-1.75156268e-003
,,,3.87500000e-009,-1.74843768e-003
,,,3.90000000e-009,-1.75234393e-003
,,,3.92500000e-009,-1.76328143e-003
,,,3.95000000e-009,-1.77968768e-003
,,,3.97500000e-009,-1.80000018e-003
,,,4.00000000e-009,-1.82421893e-003
,,,4.02500000e-009,-1.84453144e-003
,,,4.05000000e-009,-1.85937519e-003
,,,4.07500000e-009,-1.86718769e-003
,,,4.10000000e-009,-1.86484394e-003
,,,4.12500000e-009,-1.85390644e-003
,,,4.15000000e-009,-1.83203144e-003
,,,4.17500000e-009,-1.80000018e-003
,,,4.20000000e-009,-1.76015643e-003
,,,4.22500000e-009,-1.71093768e-003
,,,4.25000000e-009,-1.65625017e-003
,,,4.27500000e-009,-1.59843767e-003
,,,4.30000000e-009,-1.54140641e-003
,,,4.32500000e-009,-1.48750016e-003
,,,4.35000000e-009,-1.44062516e-003
,,,4.37500000e-009,-1.40000015e-003
,,,4.40000000e-009,-1.37031265e-003
,,,4.42500000e-009,-1.34609390e-003
,,,4.45000000e-009,-1.32578140e-003
,,,4.47500000e-009,-1.30703140e-003
,,,4.50000000e-009,-1.28750015e-003
,,,4.52500000e-009,-1.26406265e-003
,,,4.55000000e-009,-1.23593764e-003
,,,4.57500000e-009,-1.20000014e-003
,,,4.60000000e-009,-1.16093764e-003
,,,4.62500000e-009,-1.11406263e-003
,,,4.65000000e-009,-1.06093763e-003
,,,4.67500000e-009,-1.00390638e-003
,,,4.70000000e-009,-9.46093873e-004
,,,4.72500000e-009,-8.91406369e-004
,,,4.75000000e-009,-8.42187615e-004
,,,4.77500000e-009,-8.00000113e-004
,,,4.80000000e-009,-7.75781361e-004
,,,4.82500000e-009,-7.61718860e-004
,,,4.85000000e-009,-7.56250109e-004
,,,4.87500000e-009,-7.58593860e-004
,,,4.90000000e-009,-7.66406360e-004
,,,4.92500000e-009,-7.77343861e-004
,,,4.95000000e-009,-7.89843862e-004
,,,4.97500000e-009,-8.00000113e-004
,,,5.00000000e-009,-8.14062613e-004
,,,5.02500000e-009,-8.23437614e-004
,,,5.05000000e-009,-8.27343864e-004
,,,5.07500000e-009,-8.27343864e-004
,,,5.10000000e-009,-8.22656364e-004
,,,5.12500000e-009,-8.16406364e-004
,,,5.15000000e-009,-8.07812613e-004
,,,5.17500000e-009,-8.00000113e-004
,,,5.20000000e-009,-7.99218862e-004
,,,5.22500000e-009,-7.99218862e-004
,,,5.25000000e-009,-7.99218862e-004
,,,5.27500000e-009,-8.00000113e-004
,,,5.30000000e-009,-8.00000113e-004
,,,5.32500000e-009,-8.00000113e-004
,,,5.35000000e-009,-8.00000113e-004
,,,5.37500000e-009,-8.00000113e-004
,,,5.40000000e-009,-8.07031363e-004
,,,5.42500000e-009,-8.15625114e-004
,,,5.45000000e-009,-8.28906365e-004
,,,5.47500000e-009,-8.47656366e-004
,,,5.50000000e-009,-8.72656368e-004
,,,5.52500000e-009,-9.07031370e-004
,,,5.55000000e-009,-9.49218873e-004
,,,5.57500000e-009,-1.00000013e-003
,,,5.60000000e-009,-1.05781263e-003
,,,5.62500000e-009,-1.11953139e-003
,,,5.65000000e-009,-1.18125014e-003
,,,5.67500000e-009,-1.24140639e-003
,,,5.70000000e-009,-1.29609390e-003
,,,5.72500000e-009,-1.34218765e-003
,,,5.75000000e-009,-1.37734390e-003
,,,5.77500000e-009,-1.40000015e-003
,,,5.80000000e-009,-1.40234391e-003
