RawData/DifferentLengths/L4/L4_25_5mV/wave006_Ch1.csv

"Record Length",1000,"Points",-7.72500000e-009,-2.20312571e-004
"Sample Interval",2.50000000e-011,s,-7.70000000e-009,-2.19531321e-004
"Trigger Point",309,"Samples",-7.67500000e-009,-2.16406321e-004
"Trigger Time",2.40200000e-011,s,-7.65000000e-009,-2.09375071e-004
"",,,-7.62500000e-009,-2.00000070e-004
"Horizontal Offset",-7.72500000e-009,s,-7.60000000e-009,-1.92187569e-004
,,,-7.57500000e-009,-1.83593819e-004
,,,-7.55000000e-009,-1.76562568e-004
,,,-7.52500000e-009,-1.71093818e-004
,,,-7.50000000e-009,-1.70312568e-004
,,,-7.47500000e-009,-1.74218818e-004
,,,-7.45000000e-009,-1.84375069e-004
,,,-7.42500000e-009,-2.00000070e-004
,,,-7.40000000e-009,-2.27343822e-004
,,,-7.37500000e-009,-2.57812574e-004
,,,-7.35000000e-009,-2.90625076e-004
,,,-7.32500000e-009,-3.22656329e-004
,,,-7.30000000e-009,-3.51562581e-004
,,,-7.27500000e-009,-3.75000082e-004
,,,-7.25000000e-009,-3.91406334e-004
,,,-7.22500000e-009,-4.00000084e-004
,,,-7.20000000e-009,-4.03906334e-004
,,,-7.17500000e-009,-4.01562584e-004
,,,-7.15000000e-009,-3.95312584e-004
,,,-7.12500000e-009,-3.88281333e-004
,,,-7.10000000e-009,-3.82812583e-004
,,,-7.07500000e-009,-3.82031333e-004
,,,-7.05000000e-009,-3.87500083e-004
,,,-7.02500000e-009,-4.00000084e-004
,,,-7.00000000e-009,-4.20312586e-004
,,,-6.97500000e-009,-4.46875088e-004
,,,-6.95000000e-009,-4.77343840e-004
,,,-6.92500000e-009,-5.10156342e-004
,,,-6.90000000e-009,-5.41406344e-004
,,,-6.87500000e-009,-5.67968846e-004
,,,-6.85000000e-009,-5.88281348e-004
,,,-6.82500000e-009,-6.00000098e-004
,,,-6.80000000e-009,-6.00781348e-004
,,,-6.77500000e-009,-5.94531348e-004
,,,-6.75000000e-009,-5.84375097e-004
,,,-6.72500000e-009,-5.74218847e-004
,,,-6.70000000e-009,-5.66406346e-004
,,,-6.67500000e-009,-5.67187596e-004
,,,-6.65000000e-009,-5.77343847e-004
,,,-6.62500000e-009,-6.00000098e-004
,,,-6.60000000e-009,-6.32031351e-004
,,,-6.57500000e-009,-6.74218854e-004
,,,-6.55000000e-009,-7.26562607e-004
,,,-6.52500000e-009,-7.85937612e-004
,,,-6.50000000e-009,-8.46875116e-004
,,,-6.47500000e-009,-9.05468870e-004
,,,-6.45000000e-009,-9.57812624e-004
,,,-6.42500000e-009,-1.00000013e-003
,,,-6.40000000e-009,-1.02109388e-003
,,,-6.37500000e-009,-1.02656263e-003
,,,-6.35000000e-009,-1.01640638e-003
,,,-6.32500000e-009,-9.92187626e-004
,,,-6.30000000e-009,-9.56250124e-004
,,,-6.27500000e-009,-9.10156370e-004
,,,-6.25000000e-009,-8.57812617e-004
,,,-6.22500000e-009,-8.00000113e-004
,,,-6.20000000e-009,-7.36718858e-004
,,,-6.17500000e-009,-6.74218854e-004
,,,-6.15000000e-009,-6.14843849e-004
,,,-6.12500000e-009,-5.60937596e-004
,,,-6.10000000e-009,-5.12500092e-004
,,,-6.07500000e-009,-4.69531339e-004
,,,-6.05000000e-009,-4.32812587e-004
,,,-6.02500000e-009,-4.00000084e-004
,,,-6.00000000e-009,-3.71875082e-004
,,,-5.97500000e-009,-3.46093830e-004
,,,-5.95000000e-009,-3.22656329e-004
,,,-5.92500000e-009,-3.00781327e-004
,,,-5.90000000e-009,-2.77343826e-004
,,,-5.87500000e-009,-2.53906324e-004
,,,-5.85000000e-009,-2.28125072e-004
,,,-5.82500000e-009,-2.00000070e-004
,,,-5.80000000e-009,-1.72656318e-004
,,,-5.77500000e-009,-1.43750066e-004
,,,-5.75000000e-009,-1.14062564e-004
,,,-5.72500000e-009,-8.51563119e-005
,,,-5.70000000e-009,-5.85938100e-005
,,,-5.67500000e-009,-3.43750583e-005
,,,-5.65000000e-009,-1.48438069e-005
,,,-5.62500000e-009,-5.58793550e-011
,,,-5.60000000e-009,6.24994456e-006
,,,-5.57500000e-009,7.81244467e-006
,,,-5.55000000e-009,7.03119462e-006
,,,-5.52500000e-009,4.68744445e-006
,,,-5.50000000e-009,1.56244423e-006
,,,-5.47500000e-009,-7.81305935e-007
,,,-5.45000000e-009,-1.56255599e-006
,,,-5.42500000e-009,-5.58793550e-011
,,,-5.40000000e-009,-1.56255599e-006
,,,-5.37500000e-009,7.81194176e-007
,,,-5.35000000e-009,4.68744445e-006
,,,-5.32500000e-009,8.59369473e-006
,,,-5.30000000e-009,1.24999450e-005
,,,-5.27500000e-009,1.32811951e-005
,,,-5.25000000e-009,9.37494478e-006
,,,-5.22500000e-009,-5.58793550e-011
,,,-5.20000000e-009,-1.95313073e-005
,,,-5.17500000e-009,-4.37500590e-005
,,,-5.15000000e-009,-7.03125609e-005
,,,-5.12500000e-009,-9.92188129e-005
,,,-5.10000000e-009,-1.28906315e-004
,,,-5.07500000e-009,-1.56250067e-004
,,,-5.05000000e-009,-1.80468819e-004
,,,-5.02500000e-009,-2.00000070e-004
,,,-5.00000000e-009,-2.15625071e-004
,,,-4.97500000e-009,-2.25000072e-004
,,,-4.95000000e-009,-2.28906322e-004
,,,-4.92500000e-009,-2.27343822e-004
,,,-4.90000000e-009,-2.22656322e-004
,,,-4.87500000e-009,-2.15625071e-004
,,,-4.85000000e-009,-2.07812571e-004
,,,-4.82500000e-009,-2.00000070e-004
,,,-4.80000000e-009,-1.95312570e-004
,,,-4.77500000e-009,-1.92187569e-004
,,,-4.75000000e-009,-1.90625069e-004
,,,-4.72500000e-009,-1.91406319e-004
,,,-4.70000000e-009,-1.93750070e-004
,,,-4.67500000e-009,-1.96093820e-004
,,,-4.65000000e-009,-1.98437570e-004
,,,-4.62500000e-009,-2.00000070e-004
,,,-4.60000000e-009,-2.01562570e-004
,,,-4.57500000e-009,-2.01562570e-004
,,,-4.55000000e-009,-2.00781320e-004
,,,-4.52500000e-009,-2.00781320e-004
,,,-4.50000000e-009,-2.00000070e-004
,,,-4.47500000e-009,-1.99218820e-004
,,,-4.45000000e-009,-1.99218820e-004
,,,-4.42500000e-009,-2.00000070e-004
,,,-4.40000000e-009,-2.02343820e-004
,,,-4.37500000e-009,-2.04687570e-004
,,,-4.35000000e-009,-2.07031321e-004
,,,-4.32500000e-009,-2.09375071e-004
,,,-4.30000000e-009,-2.10156321e-004
,,,-4.27500000e-009,-2.08593821e-004
,,,-4.25000000e-009,-2.05468820e-004
,,,-4.22500000e-009,-2.00000070e-004
,,,-4.20000000e-009,-1.93750070e-004
,,,-4.17500000e-009,-1.86718819e-004
,,,-4.15000000e-009,-1.80468819e-004
,,,-4.12500000e-009,-1.76562568e-004
,,,-4.10000000e-009,-1.75781318e-004
,,,-4.07500000e-009,-1.78906319e-004
,,,-4.05000000e-009,-1.86718819e-004
,,,-4.02500000e-009,-2.00000070e-004
,,,-4.00000000e-009,-2.18750071e-004
,,,-3.97500000e-009,-2.42187573e-004
,,,-3.95000000e-009,-2.68750075e-004
,,,-3.92500000e-009,-2.96875077e-004
,,,-3.90000000e-009,-3.25781329e-004
,,,-3.87500000e-009,-3.53906331e-004
,,,-3.85000000e-009,-3.78906333e-004
,,,-3.82500000e-009,-4.00000084e-004
,,,-3.80000000e-009,-4.14843835e-004
,,,-3.77500000e-009,-4.25000086e-004
,,,-3.75000000e-009,-4.28906336e-004
,,,-3.72500000e-009,-4.28125086e-004
,,,-3.70000000e-009,-4.24218836e-004
,,,-3.67500000e-009,-4.17187585e-004
,,,-3.65000000e-009,-4.09375085e-004
,,,-3.62500000e-009,-4.00000084e-004
,,,-3.60000000e-009,-3.90625084e-004
,,,-3.57500000e-009,-3.82812583e-004
,,,-3.55000000e-009,-3.78125083e-004
,,,-3.52500000e-009,-3.76562583e-004
,,,-3.50000000e-009,-3.78125083e-004
,,,-3.47500000e-009,-3.82812583e-004
,,,-3.45000000e-009,-3.90625084e-004
,,,-3.42500000e-009,-4.00000084e-004
,,,-3.40000000e-009,-4.09375085e-004
,,,-3.37500000e-009,-4.17187585e-004
,,,-3.35000000e-009,-4.24218836e-004
,,,-3.32500000e-009,-4.28125086e-004
,,,-3.30000000e-009,-4.28906336e-004
,,,-3.27500000e-009,-4.25000086e-004
,,,-3.25000000e-009,-4.14843835e-004
,,,-3.22500000e-009,-4.00000084e-004
,,,-3.20000000e-009,-3.78906333e-004
,,,-3.17500000e-009,-3.53906331e-004
,,,-3.15000000e-009,-3.25781329e-004
,,,-3.12500000e-009,-2.96875077e-004
,,,-3.10000000e-009,-2.68750075e-004
,,,-3.07500000e-009,-2.42187573e-004
,,,-3.05000000e-009,-2.18750071e-004
,,,-3.02500000e-009,-2.00000070e-004
,,,-3.00000000e-009,-1.86718819e-004
,,,-2.97500000e-009,-1.78906319e-004
,,,-2.95000000e-009,-1.75781318e-004
,,,-2.92500000e-009,-1.76562568e-004
,,,-2.90000000e-009,-1.80468819e-004
,,,-2.87500000e-009,-1.86718819e-004
,,,-2.85000000e-009,-1.93750070e-004
,,,-2.82500000e-009,-2.00000070e-004
,,,-2.80000000e-009,-2.07812571e-004
,,,-2.77500000e-009,-2.12500071e-004
,,,-2.75000000e-009,-2.15625071e-004
,,,-2.72500000e-009,-2.15625071e-004
,,,-2.70000000e-009,-2.14062571e-004
,,,-2.67500000e-009,-2.10156321e-004
,,,-2.65000000e-009,-2.05468820e-004
,,,-2.62500000e-009,-2.00000070e-004
,,,-2.60000000e-009,-1.96093820e-004
,,,-2.57500000e-009,-1.92187569e-004
,,,-2.55000000e-009,-1.89843819e-004
,,,-2.52500000e-009,-1.88281319e-004
,,,-2.50000000e-009,-1.89062569e-004
,,,-2.47500000e-009,-1.91406319e-004
,,,-2.45000000e-009,-1.95312570e-004
,,,-2.42500000e-009,-2.00000070e-004
,,,-2.40000000e-009,-2.07812571e-004
,,,-2.37500000e-009,-2.14843821e-004
,,,-2.35000000e-009,-2.20312571e-004
,,,-2.32500000e-009,-2.23437572e-004
,,,-2.30000000e-009,-2.23437572e-004
,,,-2.27500000e-009,-2.19531321e-004
,,,-2.25000000e-009,-2.11718821e-004
,,,-2.22500000e-009,-2.00000070e-004
,,,-2.20000000e-009,-1.89843819e-004
,,,-2.17500000e-009,-1.78906319e-004
,,,-2.15000000e-009,-1.69531318e-004
,,,-2.12500000e-009,-1.63281317e-004
,,,-2.10000000e-009,-1.62500067e-004
,,,-2.07500000e-009,-1.67968818e-004
,,,-2.05000000e-009,-1.80468819e-004
,,,-2.02500000e-009,-2.00000070e-004
,,,-2.00000000e-009,-2.28125072e-004
,,,-1.97500000e-009,-2.60156324e-004
,,,-1.95000000e-009,-2.94531327e-004
,,,-1.92500000e-009,-3.28906329e-004
,,,-1.90000000e-009,-3.58593831e-004
,,,-1.87500000e-009,-3.82031333e-004
,,,-1.85000000e-009,-3.96875084e-004
,,,-1.82500000e-009,-4.00000084e-004
,,,-1.80000000e-009,-3.95312584e-004
,,,-1.77500000e-009,-3.80468833e-004
,,,-1.75000000e-009,-3.57031331e-004
,,,-1.72500000e-009,-3.26562579e-004
,,,-1.70000000e-009,-2.92968827e-004
,,,-1.67500000e-009,-2.58593824e-004
,,,-1.65000000e-009,-2.26562572e-004
,,,-1.62500000e-009,-2.00000070e-004
,,,-1.60000000e-009,-1.87500069e-004
,,,-1.57500000e-009,-1.85937569e-004
,,,-1.55000000e-009,-1.96875070e-004
,,,-1.52500000e-009,-2.19531321e-004
,,,-1.50000000e-009,-2.53125074e-004
,,,-1.47500000e-009,-2.96093827e-004
,,,-1.45000000e-009,-3.46093830e-004
,,,-1.42500000e-009,-4.00000084e-004
,,,-1.40000000e-009,-4.62500089e-004
,,,-1.37500000e-009,-5.21875093e-004
,,,-1.35000000e-009,-5.73437596e-004
,,,-1.32500000e-009,-6.13281349e-004
,,,-1.30000000e-009,-6.37500101e-004
,,,-1.27500000e-009,-6.43750101e-004
,,,-1.25000000e-009,-6.31250101e-004
,,,-1.22500000e-009,-6.00000098e-004
,,,-1.20000000e-009,-5.67187596e-004
,,,-1.17500000e-009,-5.26562593e-004
,,,-1.15000000e-009,-4.84375090e-004
,,,-1.12500000e-009,-4.44531337e-004
,,,-1.10000000e-009,-4.11718835e-004
,,,-1.07500000e-009,-3.91406334e-004
,,,-1.05000000e-009,-3.86718833e-004
,,,-1.02500000e-009,-4.00000084e-004
,,,-1.00000000e-009,-4.54687588e-004
,,,-9.75000000e-010,-5.28125093e-004
,,,-9.50000000e-010,-6.16406350e-004
,,,-9.25000000e-010,-7.10156356e-004
,,,-9.00000000e-010,-8.02343863e-004
,,,-8.75000000e-010,-8.85156369e-004
,,,-8.50000000e-010,-9.52343873e-004
,,,-8.25000000e-010,-1.00000013e-003
,,,-8.00000000e-010,-1.05078138e-003
,,,-7.75000000e-010,-1.08593763e-003
,,,-7.50000000e-010,-1.10937513e-003
,,,-7.25000000e-010,-1.12421889e-003
,,,-7.00000000e-010,-1.13515639e-003
,,,-6.75000000e-010,-1.14765639e-003
,,,-6.50000000e-010,-1.16718764e-003
,,,-6.25000000e-010,-1.20000014e-003
,,,-6.00000000e-010,-1.27343765e-003
,,,-5.75000000e-010,-1.36875015e-003
,,,-5.50000000e-010,-1.48593766e-003
,,,-5.25000000e-010,-1.61796892e-003
,,,-5.00000000e-010,-1.76171893e-003
,,,-4.75000000e-010,-1.90937519e-003
,,,-4.50000000e-010,-2.05703145e-003
,,,-4.25000000e-010,-2.20000021e-003
,,,-4.00000000e-010,-2.35234397e-003
,,,-3.75000000e-010,-2.50078148e-003
,,,-3.50000000e-010,-2.64765649e-003
,,,-3.25000000e-010,-2.79218775e-003
,,,-3.00000000e-010,-2.93750026e-003
,,,-2.75000000e-010,-3.08593777e-003
,,,-2.50000000e-010,-3.23906279e-003
,,,-2.25000000e-010,-3.40000030e-003
,,,-2.00000000e-010,-3.57343781e-003
,,,-1.75000000e-010,-3.75937532e-003
,,,-1.50000000e-010,-3.95703159e-003
,,,-1.25000000e-010,-4.16328160e-003
,,,-1.00000000e-010,-4.37500037e-003
,,,-7.50000000e-011,-4.58828163e-003
,,,-5.00000000e-011,-4.79765665e-003
,,,-2.50000000e-011,-5.00000041e-003
,,,0.00000000e+000,-5.17656292e-003
,,,2.50000000e-011,-5.34375043e-003
,,,5.00000000e-011,-5.50390670e-003
,,,7.50000000e-011,-5.65703171e-003
,,,1.00000000e-010,-5.80234422e-003
,,,1.25000000e-010,-5.94218798e-003
,,,1.50000000e-010,-6.07421924e-003
,,,1.75000000e-010,-6.20000049e-003
,,,2.00000000e-010,-6.28828175e-003
,,,2.25000000e-010,-6.37265676e-003
,,,2.50000000e-010,-6.45390676e-003
,,,2.75000000e-010,-6.53281302e-003
,,,3.00000000e-010,-6.60781302e-003
,,,3.25000000e-010,-6.67890678e-003
,,,3.50000000e-010,-6.74375053e-003
,,,3.75000000e-010,-6.80000054e-003
,,,4.00000000e-010,-6.81093804e-003
,,,4.25000000e-010,-6.81562554e-003
,,,4.50000000e-010,-6.81718804e-003
,,,4.75000000e-010,-6.81640679e-003
,,,5.00000000e-010,-6.81406304e-003
,,,5.25000000e-010,-6.81171929e-003
,,,5.50000000e-010,-6.80703179e-003
,,,5.75000000e-010,-6.80000054e-003
,,,6.00000000e-010,-6.75390678e-003
,,,6.25000000e-010,-6.70703178e-003
,,,6.50000000e-010,-6.65937553e-003
,,,6.75000000e-010,-6.61250052e-003
,,,7.00000000e-010,-6.56484427e-003
,,,7.25000000e-010,-6.51484427e-003
,,,7.50000000e-010,-6.46093801e-003
,,,7.75000000e-010,-6.40000051e-003
,,,8.00000000e-010,-6.30312550e-003
,,,8.25000000e-010,-6.19687549e-003
,,,8.50000000e-010,-6.08281299e-003
,,,8.75000000e-010,-5.96171923e-003
,,,9.00000000e-010,-5.83203172e-003
,,,9.25000000e-010,-5.69453171e-003
,,,9.50000000e-010,-5.55078170e-003
,,,9.75000000e-010,-5.40000044e-003
,,,1.00000000e-009,-5.23125043e-003
,,,1.02500000e-009,-5.06093791e-003
,,,1.05000000e-009,-4.89296915e-003
,,,1.07500000e-009,-4.73125039e-003
,,,1.10000000e-009,-4.57890663e-003
,,,1.12500000e-009,-4.43828162e-003
,,,1.15000000e-009,-4.31171911e-003
,,,1.17500000e-009,-4.20000035e-003
,,,1.20000000e-009,-4.10390660e-003
,,,1.22500000e-009,-4.01796909e-003
,,,1.25000000e-009,-3.94062533e-003
,,,1.27500000e-009,-3.86953158e-003
,,,1.30000000e-009,-3.80156282e-003
,,,1.32500000e-009,-3.73593782e-003
,,,1.35000000e-009,-3.66953157e-003
,,,1.37500000e-009,-3.60000031e-003
,,,1.40000000e-009,-3.53359406e-003
,,,1.42500000e-009,-3.45937530e-003
,,,1.45000000e-009,-3.37890655e-003
,,,1.47500000e-009,-3.29609404e-003
,,,1.50000000e-009,-3.21250028e-003
,,,1.52500000e-009,-3.13359403e-003
,,,1.55000000e-009,-3.06171902e-003
,,,1.57500000e-009,-3.00000027e-003
,,,1.60000000e-009,-2.95859402e-003
,,,1.62500000e-009,-2.92343776e-003
,,,1.65000000e-009,-2.89453151e-003
,,,1.67500000e-009,-2.87031276e-003
,,,1.70000000e-009,-2.84921901e-003
,,,1.72500000e-009,-2.83203151e-003
,,,1.75000000e-009,-2.81562526e-003
,,,1.77500000e-009,-2.80000025e-003
,,,1.80000000e-009,-2.79140650e-003
,,,1.82500000e-009,-2.77578150e-003
,,,1.85000000e-009,-2.75312525e-003
,,,1.87500000e-009,-2.72500025e-003
,,,1.90000000e-009,-2.69375025e-003
,,,1.92500000e-009,-2.66093774e-003
,,,1.95000000e-009,-2.62968774e-003
,,,1.97500000e-009,-2.60000024e-003
,,,2.00000000e-009,-2.57890649e-003
,,,2.02500000e-009,-2.55703149e-003
,,,2.05000000e-009,-2.53437524e-003
,,,2.07500000e-009,-2.51015648e-003
,,,2.10000000e-009,-2.48593773e-003
,,,2.12500000e-009,-2.45937523e-003
,,,2.15000000e-009,-2.43125023e-003
,,,2.17500000e-009,-2.40000023e-003
,,,2.20000000e-009,-2.36640647e-003
,,,2.22500000e-009,-2.32578147e-003
,,,2.25000000e-009,-2.27890647e-003
,,,2.27500000e-009,-2.22734396e-003
,,,2.30000000e-009,-2.17265646e-003
,,,2.32500000e-009,-2.11562521e-003
,,,2.35000000e-009,-2.05781270e-003
,,,2.37500000e-009,-2.00000020e-003
,,,2.40000000e-009,-1.94609394e-003
,,,2.42500000e-009,-1.89296894e-003
,,,2.45000000e-009,-1.83984394e-003
,,,2.47500000e-009,-1.78750018e-003
,,,2.50000000e-009,-1.73750018e-003
,,,2.52500000e-009,-1.68906268e-003
,,,2.55000000e-009,-1.64296892e-003
,,,2.57500000e-009,-1.60000017e-003
,,,2.60000000e-009,-1.56484392e-003
,,,2.62500000e-009,-1.53203141e-003
,,,2.65000000e-009,-1.50234391e-003
,,,2.67500000e-009,-1.47500016e-003
,,,2.70000000e-009,-1.45078141e-003
,,,2.72500000e-009,-1.43125016e-003
,,,2.75000000e-009,-1.41406266e-003
,,,2.77500000e-009,-1.40000015e-003
,,,2.80000000e-009,-1.39140640e-003
,,,2.82500000e-009,-1.38125015e-003
,,,2.85000000e-009,-1.36718765e-003
,,,2.87500000e-009,-1.34765640e-003
,,,2.90000000e-009,-1.32187515e-003
,,,2.92500000e-009,-1.28906265e-003
,,,2.95000000e-009,-1.24843764e-003
,,,2.97500000e-009,-1.20000014e-003
,,,3.00000000e-009,-1.15000014e-003
,,,3.02500000e-009,-1.09453138e-003
,,,3.05000000e-009,-1.03515638e-003
,,,3.07500000e-009,-9.75781375e-004
,,,3.10000000e-009,-9.19531371e-004
,,,3.12500000e-009,-8.69531367e-004
,,,3.15000000e-009,-8.28906365e-004
,,,3.17500000e-009,-8.00000113e-004
,,,3.20000000e-009,-7.90625112e-004
,,,3.22500000e-009,-7.93750112e-004
,,,3.25000000e-009,-8.07812613e-004
,,,3.27500000e-009,-8.32031365e-004
,,,3.30000000e-009,-8.65625117e-004
,,,3.32500000e-009,-9.06250120e-004
,,,3.35000000e-009,-9.52343873e-004
,,,3.37500000e-009,-1.00000013e-003
,,,3.40000000e-009,-1.05000013e-003
,,,3.42500000e-009,-1.09453138e-003
,,,3.45000000e-009,-1.13281264e-003
,,,3.47500000e-009,-1.16328139e-003
,,,3.50000000e-009,-1.18515639e-003
,,,3.52500000e-009,-1.19843764e-003
,,,3.55000000e-009,-1.20390639e-003
,,,3.57500000e-009,-1.20000014e-003
,,,3.60000000e-009,-1.18906264e-003
,,,3.62500000e-009,-1.17031264e-003
,,,3.65000000e-009,-1.14687514e-003
,,,3.67500000e-009,-1.11875014e-003
,,,3.70000000e-009,-1.08906263e-003
,,,3.72500000e-009,-1.05859388e-003
,,,3.75000000e-009,-1.02890638e-003
,,,3.77500000e-009,-1.00000013e-003
,,,3.80000000e-009,-9.73437625e-004
,,,3.82500000e-009,-9.47656373e-004
,,,3.85000000e-009,-9.23437621e-004
,,,3.87500000e-009,-8.99218870e-004
,,,3.90000000e-009,-8.75781368e-004
,,,3.92500000e-009,-8.51562616e-004
,,,3.95000000e-009,-8.26562614e-004
,,,3.97500000e-009,-8.00000113e-004
,,,4.00000000e-009,-7.72656361e-004
,,,4.02500000e-009,-7.43750109e-004
,,,4.05000000e-009,-7.14843856e-004
,,,4.07500000e-009,-6.85937604e-004
,,,4.10000000e-009,-6.59375103e-004
,,,4.12500000e-009,-6.35156351e-004
,,,4.15000000e-009,-6.15625099e-004
,,,4.17500000e-009,-6.00000098e-004
,,,4.20000000e-009,-5.89062598e-004
,,,4.22500000e-009,-5.82812597e-004
,,,4.25000000e-009,-5.80468847e-004
,,,4.27500000e-009,-5.82031347e-004
,,,4.30000000e-009,-5.85156347e-004
,,,4.32500000e-009,-5.89843848e-004
,,,4.35000000e-009,-5.95312598e-004
,,,4.37500000e-009,-6.00000098e-004
,,,4.40000000e-009,-6.04687599e-004
,,,4.42500000e-009,-6.07812599e-004
,,,4.45000000e-009,-6.07812599e-004
,,,4.47500000e-009,-6.07031349e-004
,,,4.50000000e-009,-6.05468849e-004
,,,4.52500000e-009,-6.03125099e-004
,,,4.55000000e-009,-6.01562598e-004
,,,4.57500000e-009,-6.00000098e-004
,,,4.60000000e-009,-6.00781348e-004
,,,4.62500000e-009,-6.01562598e-004
,,,4.65000000e-009,-6.03125099e-004
,,,4.67500000e-009,-6.03906349e-004
,,,4.70000000e-009,-6.04687599e-004
,,,4.72500000e-009,-6.04687599e-004
,,,4.75000000e-009,-6.03906349e-004
,,,4.77500000e-009,-6.00000098e-004
,,,4.80000000e-009,-5.93750098e-004
,,,4.82500000e-009,-5.82812597e-004
,,,4.85000000e-009,-5.66406346e-004
,,,4.87500000e-009,-5.43750094e-004
,,,4.90000000e-009,-5.15625092e-004
,,,4.92500000e-009,-4.82031340e-004
,,,4.95000000e-009,-4.42968837e-004
,,,4.97500000e-009,-4.00000084e-004
,,,5.00000000e-009,-3.57031331e-004
,,,5.02500000e-009,-3.14062578e-004
,,,5.05000000e-009,-2.75000075e-004
,,,5.07500000e-009,-2.40625073e-004
,,,5.10000000e-009,-2.14843821e-004
,,,5.12500000e-009,-1.98437570e-004
,,,5.15000000e-009,-1.93750070e-004
,,,5.17500000e-009,-2.00000070e-004
,,,5.20000000e-009,-2.18750071e-004
,,,5.22500000e-009,-2.44531323e-004
,,,5.25000000e-009,-2.75781325e-004
,,,5.27500000e-009,-3.09375078e-004
,,,5.30000000e-009,-3.41406330e-004
,,,5.32500000e-009,-3.68750082e-004
,,,5.35000000e-009,-3.89062583e-004
,,,5.37500000e-009,-4.00000084e-004
,,,5.40000000e-009,-3.98437584e-004
,,,5.42500000e-009,-3.85937583e-004
,,,5.45000000e-009,-3.63281332e-004
,,,5.47500000e-009,-3.32812579e-004
,,,5.50000000e-009,-2.98437577e-004
,,,5.52500000e-009,-2.62500074e-004
,,,5.55000000e-009,-2.28906322e-004
,,,5.57500000e-009,-2.00000070e-004
,,,5.60000000e-009,-1.78125068e-004
,,,5.62500000e-009,-1.63281317e-004
,,,5.65000000e-009,-1.56250067e-004
,,,5.67500000e-009,-1.56250067e-004
,,,5.70000000e-009,-1.61718817e-004
,,,5.72500000e-009,-1.72656318e-004
,,,5.75000000e-009,-1.85937569e-004
,,,5.77500000e-009,-2.00000070e-004
,,,5.80000000e-009,-2.13281321e-004
