RawData/DifferentLengths/L4/L4_25_5mV/wave009_Ch1.csv

"Record Length",1000,"Points",-7.72500000e-009,1.32811951e-005
"Sample Interval",2.50000000e-011,s,-7.70000000e-009,2.10936956e-005
"Trigger Point",309,"Samples",-7.67500000e-009,2.42186958e-005
"Trigger Time",2.21431231e-011,s,-7.65000000e-009,2.34374458e-005
"",,,-7.62500000e-009,1.95311955e-005
"Horizontal Offset",-7.72500000e-009,s,-7.60000000e-009,1.32811951e-005
,,,-7.57500000e-009,6.24994456e-006
,,,-7.55000000e-009,-5.58793550e-011
,,,-7.52500000e-009,-6.25005632e-006
,,,-7.50000000e-009,-1.09375567e-005
,,,-7.47500000e-009,-1.25000568e-005
,,,-7.45000000e-009,-1.25000568e-005
,,,-7.42500000e-009,-1.01563066e-005
,,,-7.40000000e-009,-7.81255643e-006
,,,-7.37500000e-009,-3.90630616e-006
,,,-7.35000000e-009,-5.58793550e-011
,,,-7.32500000e-009,1.56244423e-006
,,,-7.30000000e-009,3.12494434e-006
,,,-7.27500000e-009,3.90619440e-006
,,,-7.25000000e-009,3.90619440e-006
,,,-7.22500000e-009,3.12494434e-006
,,,-7.20000000e-009,2.34369429e-006
,,,-7.17500000e-009,7.81194176e-007
,,,-7.15000000e-009,-5.58793550e-011
,,,-7.12500000e-009,-2.34380605e-006
,,,-7.10000000e-009,-3.12505610e-006
,,,-7.07500000e-009,-3.90630616e-006
,,,-7.05000000e-009,-3.90630616e-006
,,,-7.02500000e-009,-3.12505610e-006
,,,-7.00000000e-009,-2.34380605e-006
,,,-6.97500000e-009,-1.56255599e-006
,,,-6.95000000e-009,-5.58793550e-011
,,,-6.92500000e-009,7.81194176e-007
,,,-6.90000000e-009,1.56244423e-006
,,,-6.87500000e-009,2.34369429e-006
,,,-6.85000000e-009,3.12494434e-006
,,,-6.82500000e-009,3.12494434e-006
,,,-6.80000000e-009,2.34369429e-006
,,,-6.77500000e-009,1.56244423e-006
,,,-6.75000000e-009,-5.58793550e-011
,,,-6.72500000e-009,-1.56255599e-006
,,,-6.70000000e-009,-3.12505610e-006
,,,-6.67500000e-009,-3.90630616e-006
,,,-6.65000000e-009,-4.68755621e-006
,,,-6.62500000e-009,-4.68755621e-006
,,,-6.60000000e-009,-3.90630616e-006
,,,-6.57500000e-009,-2.34380605e-006
,,,-6.55000000e-009,-5.58793550e-011
,,,-6.52500000e-009,3.12494434e-006
,,,-6.50000000e-009,7.03119462e-006
,,,-6.47500000e-009,9.37494478e-006
,,,-6.45000000e-009,1.17186950e-005
,,,-6.42500000e-009,1.17186950e-005
,,,-6.40000000e-009,1.01561948e-005
,,,-6.37500000e-009,5.46869451e-006
,,,-6.35000000e-009,-5.58793550e-011
,,,-6.32500000e-009,-6.25005632e-006
,,,-6.30000000e-009,-1.17188067e-005
,,,-6.27500000e-009,-1.71875571e-005
,,,-6.25000000e-009,-2.10938074e-005
,,,-6.22500000e-009,-2.18750574e-005
,,,-6.20000000e-009,-1.87500572e-005
,,,-6.17500000e-009,-1.25000568e-005
,,,-6.15000000e-009,-5.58793550e-011
,,,-6.12500000e-009,1.64061953e-005
,,,-6.10000000e-009,3.67186967e-005
,,,-6.07500000e-009,6.17186985e-005
,,,-6.05000000e-009,8.82812004e-005
,,,-6.02500000e-009,1.17187452e-004
,,,-6.00000000e-009,1.46093704e-004
,,,-5.97500000e-009,1.74218706e-004
,,,-5.95000000e-009,1.99999958e-004
,,,-5.92500000e-009,2.20312460e-004
,,,-5.90000000e-009,2.35156211e-004
,,,-5.87500000e-009,2.44531211e-004
,,,-5.85000000e-009,2.47656212e-004
,,,-5.82500000e-009,2.43749961e-004
,,,-5.80000000e-009,2.33593711e-004
,,,-5.77500000e-009,2.18749960e-004
,,,-5.75000000e-009,1.99999958e-004
,,,-5.72500000e-009,1.77343707e-004
,,,-5.70000000e-009,1.57031205e-004
,,,-5.67500000e-009,1.41406204e-004
,,,-5.65000000e-009,1.32031203e-004
,,,-5.62500000e-009,1.32031203e-004
,,,-5.60000000e-009,1.43749954e-004
,,,-5.57500000e-009,1.66406206e-004
,,,-5.55000000e-009,1.99999958e-004
,,,-5.52500000e-009,2.40624961e-004
,,,-5.50000000e-009,2.85937464e-004
,,,-5.47500000e-009,3.30468718e-004
,,,-5.45000000e-009,3.71093720e-004
,,,-5.42500000e-009,4.02343723e-004
,,,-5.40000000e-009,4.18749974e-004
,,,-5.37500000e-009,4.18749974e-004
,,,-5.35000000e-009,3.99999972e-004
,,,-5.32500000e-009,3.59374970e-004
,,,-5.30000000e-009,3.05468716e-004
,,,-5.27500000e-009,2.42968711e-004
,,,-5.25000000e-009,1.76562457e-004
,,,-5.22500000e-009,1.13281202e-004
,,,-5.20000000e-009,6.01561984e-005
,,,-5.17500000e-009,2.10936956e-005
,,,-5.15000000e-009,-5.58793550e-011
,,,-5.12500000e-009,-2.34380605e-006
,,,-5.10000000e-009,1.24999450e-005
,,,-5.07500000e-009,4.21874471e-005
,,,-5.05000000e-009,7.96874498e-005
,,,-5.02500000e-009,1.20312453e-004
,,,-5.00000000e-009,1.57031205e-004
,,,-4.97500000e-009,1.85156207e-004
,,,-4.95000000e-009,1.99999958e-004
,,,-4.92500000e-009,1.99218708e-004
,,,-4.90000000e-009,1.82812457e-004
,,,-4.87500000e-009,1.55468705e-004
,,,-4.85000000e-009,1.19531203e-004
,,,-4.82500000e-009,8.04686998e-005
,,,-4.80000000e-009,4.45311973e-005
,,,-4.77500000e-009,1.64061953e-005
,,,-4.75000000e-009,-5.58793550e-011
,,,-4.72500000e-009,-2.34380605e-006
,,,-4.70000000e-009,1.01561948e-005
,,,-4.67500000e-009,3.43749466e-005
,,,-4.65000000e-009,6.79686989e-005
,,,-4.62500000e-009,1.06249952e-004
,,,-4.60000000e-009,1.43749954e-004
,,,-4.57500000e-009,1.75781207e-004
,,,-4.55000000e-009,1.99999958e-004
,,,-4.52500000e-009,2.09374959e-004
,,,-4.50000000e-009,2.05468709e-004
,,,-4.47500000e-009,1.87499957e-004
,,,-4.45000000e-009,1.59374955e-004
,,,-4.42500000e-009,1.22656203e-004
,,,-4.40000000e-009,8.12499499e-005
,,,-4.37500000e-009,3.90624469e-005
,,,-4.35000000e-009,-5.58793550e-011
,,,-4.32500000e-009,-3.28125582e-005
,,,-4.30000000e-009,-5.70313099e-005
,,,-4.27500000e-009,-7.18750610e-005
,,,-4.25000000e-009,-7.57813112e-005
,,,-4.22500000e-009,-6.95313108e-005
,,,-4.20000000e-009,-5.39063097e-005
,,,-4.17500000e-009,-3.04688080e-005
,,,-4.15000000e-009,-5.58793550e-011
,,,-4.12500000e-009,3.28124464e-005
,,,-4.10000000e-009,6.64061988e-005
,,,-4.07500000e-009,9.99999512e-005
,,,-4.05000000e-009,1.31249953e-004
,,,-4.02500000e-009,1.57812455e-004
,,,-4.00000000e-009,1.78906207e-004
,,,-3.97500000e-009,1.92968708e-004
,,,-3.95000000e-009,1.99999958e-004
,,,-3.92500000e-009,1.96874958e-004
,,,-3.90000000e-009,1.86718707e-004
,,,-3.87500000e-009,1.67968706e-004
,,,-3.85000000e-009,1.42968704e-004
,,,-3.82500000e-009,1.12499952e-004
,,,-3.80000000e-009,7.73436996e-005
,,,-3.77500000e-009,3.90624469e-005
,,,-3.75000000e-009,-5.58793550e-011
,,,-3.72500000e-009,-3.90625586e-005
,,,-3.70000000e-009,-7.57813112e-005
,,,-3.67500000e-009,-1.08593814e-004
,,,-3.65000000e-009,-1.37500066e-004
,,,-3.62500000e-009,-1.60937567e-004
,,,-3.60000000e-009,-1.78906319e-004
,,,-3.57500000e-009,-1.92187569e-004
,,,-3.55000000e-009,-2.00000070e-004
,,,-3.52500000e-009,-2.02343820e-004
,,,-3.50000000e-009,-2.00781320e-004
,,,-3.47500000e-009,-1.98437570e-004
,,,-3.45000000e-009,-1.96093820e-004
,,,-3.42500000e-009,-1.93750070e-004
,,,-3.40000000e-009,-1.93750070e-004
,,,-3.37500000e-009,-1.96093820e-004
,,,-3.35000000e-009,-2.00000070e-004
,,,-3.32500000e-009,-2.04687570e-004
,,,-3.30000000e-009,-2.10156321e-004
,,,-3.27500000e-009,-2.15625071e-004
,,,-3.25000000e-009,-2.19531321e-004
,,,-3.22500000e-009,-2.21875072e-004
,,,-3.20000000e-009,-2.19531321e-004
,,,-3.17500000e-009,-2.12500071e-004
,,,-3.15000000e-009,-2.00000070e-004
,,,-3.12500000e-009,-1.81250069e-004
,,,-3.10000000e-009,-1.57031317e-004
,,,-3.07500000e-009,-1.30468815e-004
,,,-3.05000000e-009,-1.01562563e-004
,,,-3.02500000e-009,-7.18750610e-005
,,,-3.00000000e-009,-4.45313090e-005
,,,-2.97500000e-009,-2.03125573e-005
,,,-2.95000000e-009,-5.58793550e-011
,,,-2.92500000e-009,1.48436952e-005
,,,-2.90000000e-009,2.42186958e-005
,,,-2.87500000e-009,2.81249461e-005
,,,-2.85000000e-009,2.65624460e-005
,,,-2.82500000e-009,2.18749457e-005
,,,-2.80000000e-009,1.48436952e-005
,,,-2.77500000e-009,7.03119462e-006
,,,-2.75000000e-009,-5.58793550e-011
,,,-2.72500000e-009,-6.25005632e-006
,,,-2.70000000e-009,-1.09375567e-005
,,,-2.67500000e-009,-1.25000568e-005
,,,-2.65000000e-009,-1.25000568e-005
,,,-2.62500000e-009,-1.01563066e-005
,,,-2.60000000e-009,-7.81255643e-006
,,,-2.57500000e-009,-3.90630616e-006
,,,-2.55000000e-009,-5.58793550e-011
,,,-2.52500000e-009,7.81194176e-007
,,,-2.50000000e-009,1.56244423e-006
,,,-2.47500000e-009,7.81194176e-007
,,,-2.45000000e-009,7.81194176e-007
,,,-2.42500000e-009,-5.58793550e-011
,,,-2.40000000e-009,-7.81305935e-007
,,,-2.37500000e-009,-7.81305935e-007
,,,-2.35000000e-009,-5.58793550e-011
,,,-2.32500000e-009,-7.81305935e-007
,,,-2.30000000e-009,-7.81305935e-007
,,,-2.27500000e-009,-5.58793550e-011
,,,-2.25000000e-009,7.81194176e-007
,,,-2.22500000e-009,7.81194176e-007
,,,-2.20000000e-009,1.56244423e-006
,,,-2.17500000e-009,7.81194176e-007
,,,-2.15000000e-009,-5.58793550e-011
,,,-2.12500000e-009,-3.90630616e-006
,,,-2.10000000e-009,-7.81255643e-006
,,,-2.07500000e-009,-1.01563066e-005
,,,-2.05000000e-009,-1.25000568e-005
,,,-2.02500000e-009,-1.25000568e-005
,,,-2.00000000e-009,-1.09375567e-005
,,,-1.97500000e-009,-6.25005632e-006
,,,-1.95000000e-009,-5.58793550e-011
,,,-1.92500000e-009,5.46869451e-006
,,,-1.90000000e-009,1.09374449e-005
,,,-1.87500000e-009,1.64061953e-005
,,,-1.85000000e-009,2.03124456e-005
,,,-1.82500000e-009,2.10936956e-005
,,,-1.80000000e-009,1.79686954e-005
,,,-1.77500000e-009,1.17186950e-005
,,,-1.75000000e-009,-5.58793550e-011
,,,-1.72500000e-009,-1.95313073e-005
,,,-1.70000000e-009,-4.37500590e-005
,,,-1.67500000e-009,-7.03125609e-005
,,,-1.65000000e-009,-9.92188129e-005
,,,-1.62500000e-009,-1.28906315e-004
,,,-1.60000000e-009,-1.56250067e-004
,,,-1.57500000e-009,-1.80468819e-004
,,,-1.55000000e-009,-2.00000070e-004
,,,-1.52500000e-009,-2.17968821e-004
,,,-1.50000000e-009,-2.30468822e-004
,,,-1.47500000e-009,-2.37500073e-004
,,,-1.45000000e-009,-2.39062573e-004
,,,-1.42500000e-009,-2.35156323e-004
,,,-1.40000000e-009,-2.26562572e-004
,,,-1.37500000e-009,-2.14843821e-004
,,,-1.35000000e-009,-2.00000070e-004
,,,-1.32500000e-009,-1.92968820e-004
,,,-1.30000000e-009,-1.88281319e-004
,,,-1.27500000e-009,-1.85156319e-004
,,,-1.25000000e-009,-1.85156319e-004
,,,-1.22500000e-009,-1.86718819e-004
,,,-1.20000000e-009,-1.89843819e-004
,,,-1.17500000e-009,-1.94531320e-004
,,,-1.15000000e-009,-2.00000070e-004
,,,-1.12500000e-009,-2.25000072e-004
,,,-1.10000000e-009,-2.53125074e-004
,,,-1.07500000e-009,-2.83593826e-004
,,,-1.05000000e-009,-3.14062578e-004
,,,-1.02500000e-009,-3.42187580e-004
,,,-1.00000000e-009,-3.67187582e-004
,,,-9.75000000e-010,-3.85937583e-004
,,,-9.50000000e-010,-4.00000084e-004
,,,-9.25000000e-010,-4.34375087e-004
,,,-9.00000000e-010,-4.67968839e-004
,,,-8.75000000e-010,-5.00000091e-004
,,,-8.50000000e-010,-5.28906343e-004
,,,-8.25000000e-010,-5.53906345e-004
,,,-8.00000000e-010,-5.74218847e-004
,,,-7.75000000e-010,-5.89062598e-004
,,,-7.50000000e-010,-6.00000098e-004
,,,-7.25000000e-010,-6.45312602e-004
,,,-7.00000000e-010,-6.95312605e-004
,,,-6.75000000e-010,-7.48437609e-004
,,,-6.50000000e-010,-8.03125113e-004
,,,-6.25000000e-010,-8.56250116e-004
,,,-6.00000000e-010,-9.06250120e-004
,,,-5.75000000e-010,-9.53906373e-004
,,,-5.50000000e-010,-1.00000013e-003
,,,-5.25000000e-010,-1.08906263e-003
,,,-5.00000000e-010,-1.18906264e-003
,,,-4.75000000e-010,-1.30000015e-003
,,,-4.50000000e-010,-1.42109391e-003
,,,-4.25000000e-010,-1.55234392e-003
,,,-4.00000000e-010,-1.69218768e-003
,,,-3.75000000e-010,-1.84140644e-003
,,,-3.50000000e-010,-2.00000020e-003
,,,-3.25000000e-010,-2.20468771e-003
,,,-3.00000000e-010,-2.42343773e-003
,,,-2.75000000e-010,-2.65390649e-003
,,,-2.50000000e-010,-2.88984401e-003
,,,-2.25000000e-010,-3.12578153e-003
,,,-2.00000000e-010,-3.35781279e-003
,,,-1.75000000e-010,-3.58281281e-003
,,,-1.50000000e-010,-3.80000032e-003
,,,-1.25000000e-010,-4.02734409e-003
,,,-1.00000000e-010,-4.25703161e-003
,,,-7.50000000e-011,-4.49062537e-003
,,,-5.00000000e-011,-4.73125039e-003
,,,-2.50000000e-011,-4.98046916e-003
,,,0.00000000e+000,-5.24062543e-003
,,,2.50000000e-011,-5.51328170e-003
,,,5.00000000e-011,-5.80000047e-003
,,,7.50000000e-011,-6.09765674e-003
,,,1.00000000e-010,-6.41328176e-003
,,,1.25000000e-010,-6.74218803e-003
,,,1.50000000e-010,-7.08125056e-003
,,,1.75000000e-010,-7.42265683e-003
,,,2.00000000e-010,-7.76015686e-003
,,,2.25000000e-010,-8.08828188e-003
,,,2.50000000e-010,-8.40000065e-003
,,,2.75000000e-010,-8.65937567e-003
,,,3.00000000e-010,-8.90312569e-003
,,,3.25000000e-010,-9.13515695e-003
,,,3.50000000e-010,-9.35859447e-003
,,,3.75000000e-010,-9.57578198e-003
,,,4.00000000e-010,-9.78828200e-003
,,,4.25000000e-010,-9.99687576e-003
,,,4.50000000e-010,-1.02000008e-002
,,,4.75000000e-010,-1.03406258e-002
,,,5.00000000e-010,-1.04765633e-002
,,,5.25000000e-010,-1.06054696e-002
,,,5.50000000e-010,-1.07250008e-002
,,,5.75000000e-010,-1.08289071e-002
,,,6.00000000e-010,-1.09125008e-002
,,,6.25000000e-010,-1.09710946e-002
,,,6.50000000e-010,-1.10000008e-002
,,,6.75000000e-010,-1.09390633e-002
,,,7.00000000e-010,-1.08578133e-002
,,,7.25000000e-010,-1.07664071e-002
,,,7.50000000e-010,-1.06726571e-002
,,,7.75000000e-010,-1.05843758e-002
,,,8.00000000e-010,-1.05078133e-002
,,,8.25000000e-010,-1.04460945e-002
,,,8.50000000e-010,-1.04000008e-002
,,,8.75000000e-010,-1.03171883e-002
,,,9.00000000e-010,-1.02492195e-002
,,,9.25000000e-010,-1.01921883e-002
,,,9.50000000e-010,-1.01398445e-002
,,,9.75000000e-010,-1.00835945e-002
,,,1.00000000e-009,-1.00140633e-002
,,,1.02500000e-009,-9.92187576e-003
,,,1.05000000e-009,-9.80000075e-003
,,,1.07500000e-009,-9.60312574e-003
,,,1.10000000e-009,-9.37578197e-003
,,,1.12500000e-009,-9.12500070e-003
,,,1.15000000e-009,-8.85703193e-003
,,,1.17500000e-009,-8.58281316e-003
,,,1.20000000e-009,-8.31015689e-003
,,,1.22500000e-009,-8.04687563e-003
,,,1.25000000e-009,-7.80000061e-003
,,,1.27500000e-009,-7.55937559e-003
,,,1.30000000e-009,-7.34062558e-003
,,,1.32500000e-009,-7.14375056e-003
,,,1.35000000e-009,-6.96796930e-003
,,,1.37500000e-009,-6.81015679e-003
,,,1.40000000e-009,-6.66562553e-003
,,,1.42500000e-009,-6.53046927e-003
,,,1.45000000e-009,-6.40000051e-003
,,,1.47500000e-009,-6.27187550e-003
,,,1.50000000e-009,-6.13828174e-003
,,,1.52500000e-009,-6.00234423e-003
,,,1.55000000e-009,-5.86562547e-003
,,,1.57500000e-009,-5.73281296e-003
,,,1.60000000e-009,-5.60859420e-003
,,,1.62500000e-009,-5.49687544e-003
,,,1.65000000e-009,-5.40000044e-003
,,,1.67500000e-009,-5.32890668e-003
,,,1.70000000e-009,-5.26328168e-003
,,,1.72500000e-009,-5.19921917e-003
,,,1.75000000e-009,-5.13359417e-003
,,,1.77500000e-009,-5.06250041e-003
,,,1.80000000e-009,-4.98515666e-003
,,,1.82500000e-009,-4.89765665e-003
,,,1.85000000e-009,-4.80000040e-003
,,,1.87500000e-009,-4.70703164e-003
,,,1.90000000e-009,-4.60000038e-003
,,,1.92500000e-009,-4.48437537e-003
,,,1.95000000e-009,-4.36562536e-003
,,,1.97500000e-009,-4.25156286e-003
,,,2.00000000e-009,-4.14921910e-003
,,,2.02500000e-009,-4.06406284e-003
,,,2.05000000e-009,-4.00000034e-003
,,,2.07500000e-009,-3.97343784e-003
,,,2.10000000e-009,-3.95859409e-003
,,,2.12500000e-009,-3.94921909e-003
,,,2.15000000e-009,-3.93984408e-003
,,,2.17500000e-009,-3.92500033e-003
,,,2.20000000e-009,-3.89921908e-003
,,,2.22500000e-009,-3.85859408e-003
,,,2.25000000e-009,-3.80000032e-003
,,,2.27500000e-009,-3.73046907e-003
,,,2.30000000e-009,-3.63906281e-003
,,,2.32500000e-009,-3.52968781e-003
,,,2.35000000e-009,-3.41093780e-003
,,,2.37500000e-009,-3.28984404e-003
,,,2.40000000e-009,-3.17656278e-003
,,,2.42500000e-009,-3.07812527e-003
,,,2.45000000e-009,-3.00000027e-003
,,,2.47500000e-009,-2.95625027e-003
,,,2.50000000e-009,-2.93281276e-003
,,,2.52500000e-009,-2.92656276e-003
,,,2.55000000e-009,-2.93437526e-003
,,,2.57500000e-009,-2.95156276e-003
,,,2.60000000e-009,-2.97109402e-003
,,,2.62500000e-009,-2.98906277e-003
,,,2.65000000e-009,-3.00000027e-003
,,,2.67500000e-009,-3.00546902e-003
,,,2.70000000e-009,-2.99687527e-003
,,,2.72500000e-009,-2.97421902e-003
,,,2.75000000e-009,-2.94218776e-003
,,,2.77500000e-009,-2.90390651e-003
,,,2.80000000e-009,-2.86562526e-003
,,,2.82500000e-009,-2.82968776e-003
,,,2.85000000e-009,-2.80000025e-003
,,,2.87500000e-009,-2.78046900e-003
,,,2.90000000e-009,-2.76484400e-003
,,,2.92500000e-009,-2.75078150e-003
,,,2.95000000e-009,-2.73515650e-003
,,,2.97500000e-009,-2.71562525e-003
,,,3.00000000e-009,-2.68828150e-003
,,,3.02500000e-009,-2.65000024e-003
,,,3.05000000e-009,-2.60000024e-003
,,,3.07500000e-009,-2.53671899e-003
,,,3.10000000e-009,-2.46093773e-003
,,,3.12500000e-009,-2.37656272e-003
,,,3.15000000e-009,-2.28750022e-003
,,,3.17500000e-009,-2.20000021e-003
,,,3.20000000e-009,-2.12031271e-003
,,,3.22500000e-009,-2.05234395e-003
,,,3.25000000e-009,-2.00000020e-003
,,,3.27500000e-009,-1.97109395e-003
,,,3.30000000e-009,-1.95703144e-003
,,,3.32500000e-009,-1.95625019e-003
,,,3.35000000e-009,-1.96406269e-003
,,,3.37500000e-009,-1.97578145e-003
,,,3.40000000e-009,-1.98906270e-003
,,,3.42500000e-009,-1.99765645e-003
,,,3.45000000e-009,-2.00000020e-003
,,,3.47500000e-009,-1.99296895e-003
,,,3.50000000e-009,-1.97578145e-003
,,,3.52500000e-009,-1.94921894e-003
,,,3.55000000e-009,-1.91640644e-003
,,,3.57500000e-009,-1.88203144e-003
,,,3.60000000e-009,-1.85000019e-003
,,,3.62500000e-009,-1.82187518e-003
,,,3.65000000e-009,-1.80000018e-003
,,,3.67500000e-009,-1.78593768e-003
,,,3.70000000e-009,-1.77421893e-003
,,,3.72500000e-009,-1.76250018e-003
,,,3.75000000e-009,-1.74843768e-003
,,,3.77500000e-009,-1.72734393e-003
,,,3.80000000e-009,-1.69687518e-003
,,,3.82500000e-009,-1.65468767e-003
,,,3.85000000e-009,-1.60000017e-003
,,,3.87500000e-009,-1.53671891e-003
,,,3.90000000e-009,-1.46484391e-003
,,,3.92500000e-009,-1.38984390e-003
,,,3.95000000e-009,-1.31953140e-003
,,,3.97500000e-009,-1.25937515e-003
,,,4.00000000e-009,-1.21640639e-003
,,,4.02500000e-009,-1.19609389e-003
,,,4.05000000e-009,-1.20000014e-003
,,,4.07500000e-009,-1.23125014e-003
,,,4.10000000e-009,-1.28125015e-003
,,,4.12500000e-009,-1.34375015e-003
,,,4.15000000e-009,-1.41328141e-003
,,,4.17500000e-009,-1.48125016e-003
,,,4.20000000e-009,-1.53906266e-003
,,,4.22500000e-009,-1.58125017e-003
,,,4.25000000e-009,-1.60000017e-003
,,,4.27500000e-009,-1.58984392e-003
,,,4.30000000e-009,-1.55156267e-003
,,,4.32500000e-009,-1.48750016e-003
,,,4.35000000e-009,-1.40390641e-003
,,,4.37500000e-009,-1.30546890e-003
,,,4.40000000e-009,-1.20078139e-003
,,,4.42500000e-009,-1.09687513e-003
,,,4.45000000e-009,-1.00000013e-003
,,,4.47500000e-009,-9.19531371e-004
,,,4.50000000e-009,-8.54687616e-004
,,,4.52500000e-009,-8.07812613e-004
,,,4.55000000e-009,-7.78906361e-004
,,,4.57500000e-009,-7.66406360e-004
,,,4.60000000e-009,-7.68750110e-004
,,,4.62500000e-009,-7.81250111e-004
,,,4.65000000e-009,-8.00000113e-004
,,,4.67500000e-009,-8.25000114e-004
,,,4.70000000e-009,-8.47656366e-004
,,,4.72500000e-009,-8.63281367e-004
,,,4.75000000e-009,-8.71093868e-004
,,,4.77500000e-009,-8.69531367e-004
,,,4.80000000e-009,-8.57031367e-004
,,,4.82500000e-009,-8.33593865e-004
,,,4.85000000e-009,-8.00000113e-004
,,,4.87500000e-009,-7.61718860e-004
,,,4.90000000e-009,-7.15625107e-004
,,,4.92500000e-009,-6.63281353e-004
,,,4.95000000e-009,-6.08593849e-004
,,,4.97500000e-009,-5.51562595e-004
,,,5.00000000e-009,-4.96875091e-004
,,,5.02500000e-009,-4.45312587e-004
,,,5.05000000e-009,-4.00000084e-004
,,,5.07500000e-009,-3.67968832e-004
,,,5.10000000e-009,-3.44531330e-004
,,,5.12500000e-009,-3.30468829e-004
,,,5.15000000e-009,-3.27343829e-004
,,,5.17500000e-009,-3.33593829e-004
,,,5.20000000e-009,-3.48437581e-004
,,,5.22500000e-009,-3.71093832e-004
,,,5.25000000e-009,-4.00000084e-004
,,,5.27500000e-009,-4.38281337e-004
,,,5.30000000e-009,-4.75781340e-004
,,,5.32500000e-009,-5.10156342e-004
,,,5.35000000e-009,-5.40625094e-004
,,,5.37500000e-009,-5.65625096e-004
,,,5.40000000e-009,-5.83593847e-004
,,,5.42500000e-009,-5.95312598e-004
,,,5.45000000e-009,-6.00000098e-004
,,,5.47500000e-009,-6.00781348e-004
,,,5.50000000e-009,-5.96875098e-004
,,,5.52500000e-009,-5.90625098e-004
,,,5.55000000e-009,-5.84375097e-004
,,,5.57500000e-009,-5.79687597e-004
,,,5.60000000e-009,-5.80468847e-004
,,,5.62500000e-009,-5.86718847e-004
,,,5.65000000e-009,-6.00000098e-004
,,,5.67500000e-009,-6.20312600e-004
,,,5.70000000e-009,-6.46093852e-004
,,,5.72500000e-009,-6.75781354e-004
,,,5.75000000e-009,-7.07031356e-004
,,,5.77500000e-009,-7.37500108e-004
,,,5.80000000e-009,-7.64843860e-004
,,,5.82500000e-009,-7.86718862e-004
,,,5.85000000e-009,-8.00000113e-004
,,,5.87500000e-009,-8.03125113e-004
,,,5.90000000e-009,-7.95312612e-004
