RawData/DifferentLengths/L4/L4_25_5mV/wave017_Ch1.csv

"Record Length",1000,"Points",-7.72500000e-009,-1.01718763e-003
"Sample Interval",2.50000000e-011,s,-7.70000000e-009,-1.00781263e-003
"Trigger Point",309,"Samples",-7.67500000e-009,-1.00000013e-003
"Trigger Time",7.88150235e-012,s,-7.65000000e-009,-9.96093876e-004
"",,,-7.62500000e-009,-9.95312626e-004
"Horizontal Offset",-7.72500000e-009,s,-7.60000000e-009,-9.96875126e-004
,,,-7.57500000e-009,-1.00000013e-003
,,,-7.55000000e-009,-1.00390638e-003
,,,-7.52500000e-009,-1.00546888e-003
,,,-7.50000000e-009,-1.00468763e-003
,,,-7.47500000e-009,-1.00000013e-003
,,,-7.45000000e-009,-9.92968876e-004
,,,-7.42500000e-009,-9.83593875e-004
,,,-7.40000000e-009,-9.75000125e-004
,,,-7.37500000e-009,-9.67968874e-004
,,,-7.35000000e-009,-9.65625124e-004
,,,-7.32500000e-009,-9.69531375e-004
,,,-7.30000000e-009,-9.80468875e-004
,,,-7.27500000e-009,-1.00000013e-003
,,,-7.25000000e-009,-1.02812513e-003
,,,-7.22500000e-009,-1.06171888e-003
,,,-7.20000000e-009,-1.09765638e-003
,,,-7.17500000e-009,-1.13281264e-003
,,,-7.15000000e-009,-1.16406264e-003
,,,-7.12500000e-009,-1.18671889e-003
,,,-7.10000000e-009,-1.19921889e-003
,,,-7.07500000e-009,-1.20000014e-003
,,,-7.05000000e-009,-1.18593764e-003
,,,-7.02500000e-009,-1.16093764e-003
,,,-7.00000000e-009,-1.12890639e-003
,,,-6.97500000e-009,-1.09375013e-003
,,,-6.95000000e-009,-1.05937513e-003
,,,-6.92500000e-009,-1.02968763e-003
,,,-6.90000000e-009,-1.00937513e-003
,,,-6.87500000e-009,-1.00000013e-003
,,,-6.85000000e-009,-1.00390638e-003
,,,-6.82500000e-009,-1.01875013e-003
,,,-6.80000000e-009,-1.04453138e-003
,,,-6.77500000e-009,-1.07656263e-003
,,,-6.75000000e-009,-1.11171888e-003
,,,-6.72500000e-009,-1.14609389e-003
,,,-6.70000000e-009,-1.17656264e-003
,,,-6.67500000e-009,-1.20000014e-003
,,,-6.65000000e-009,-1.21406264e-003
,,,-6.62500000e-009,-1.21953139e-003
,,,-6.60000000e-009,-1.21796889e-003
,,,-6.57500000e-009,-1.21250014e-003
,,,-6.55000000e-009,-1.20468764e-003
,,,-6.52500000e-009,-1.19921889e-003
,,,-6.50000000e-009,-1.19687514e-003
,,,-6.47500000e-009,-1.20000014e-003
,,,-6.45000000e-009,-1.20625014e-003
,,,-6.42500000e-009,-1.21562514e-003
,,,-6.40000000e-009,-1.22734389e-003
,,,-6.37500000e-009,-1.23671889e-003
,,,-6.35000000e-009,-1.24218764e-003
,,,-6.32500000e-009,-1.23984389e-003
,,,-6.30000000e-009,-1.22656264e-003
,,,-6.27500000e-009,-1.20000014e-003
,,,-6.25000000e-009,-1.15937514e-003
,,,-6.22500000e-009,-1.10859388e-003
,,,-6.20000000e-009,-1.05000013e-003
,,,-6.17500000e-009,-9.88281376e-004
,,,-6.15000000e-009,-9.28125122e-004
,,,-6.12500000e-009,-8.74218868e-004
,,,-6.10000000e-009,-8.30468865e-004
,,,-6.07500000e-009,-8.00000113e-004
,,,-6.05000000e-009,-7.88281362e-004
,,,-6.02500000e-009,-7.92968862e-004
,,,-6.00000000e-009,-8.10937613e-004
,,,-5.97500000e-009,-8.40625115e-004
,,,-5.95000000e-009,-8.78125118e-004
,,,-5.92500000e-009,-9.20312621e-004
,,,-5.90000000e-009,-9.62500124e-004
,,,-5.87500000e-009,-1.00000013e-003
,,,-5.85000000e-009,-1.02890638e-003
,,,-5.82500000e-009,-1.04765638e-003
,,,-5.80000000e-009,-1.05703138e-003
,,,-5.77500000e-009,-1.05781263e-003
,,,-5.75000000e-009,-1.05078138e-003
,,,-5.72500000e-009,-1.03750013e-003
,,,-5.70000000e-009,-1.02031263e-003
,,,-5.67500000e-009,-1.00000013e-003
,,,-5.65000000e-009,-9.76562625e-004
,,,-5.62500000e-009,-9.51562623e-004
,,,-5.60000000e-009,-9.26562621e-004
,,,-5.57500000e-009,-9.01562620e-004
,,,-5.55000000e-009,-8.75781368e-004
,,,-5.52500000e-009,-8.50000116e-004
,,,-5.50000000e-009,-8.25000114e-004
,,,-5.47500000e-009,-8.00000113e-004
,,,-5.45000000e-009,-7.77343861e-004
,,,-5.42500000e-009,-7.57812610e-004
,,,-5.40000000e-009,-7.42968858e-004
,,,-5.37500000e-009,-7.35156358e-004
,,,-5.35000000e-009,-7.35937608e-004
,,,-5.32500000e-009,-7.46875109e-004
,,,-5.30000000e-009,-7.68750110e-004
,,,-5.27500000e-009,-8.00000113e-004
,,,-5.25000000e-009,-8.37500115e-004
,,,-5.22500000e-009,-8.78906368e-004
,,,-5.20000000e-009,-9.19531371e-004
,,,-5.17500000e-009,-9.57812624e-004
,,,-5.15000000e-009,-9.87500126e-004
,,,-5.12500000e-009,-1.00703138e-003
,,,-5.10000000e-009,-1.01171888e-003
,,,-5.07500000e-009,-1.00000013e-003
,,,-5.05000000e-009,-9.66406374e-004
,,,-5.02500000e-009,-9.14843871e-004
,,,-5.00000000e-009,-8.47656366e-004
,,,-4.97500000e-009,-7.67968860e-004
,,,-4.95000000e-009,-6.78906354e-004
,,,-4.92500000e-009,-5.85156347e-004
,,,-4.90000000e-009,-4.90625091e-004
,,,-4.87500000e-009,-4.00000084e-004
,,,-4.85000000e-009,-3.21093829e-004
,,,-4.82500000e-009,-2.53906324e-004
,,,-4.80000000e-009,-2.02343820e-004
,,,-4.77500000e-009,-1.67968818e-004
,,,-4.75000000e-009,-1.51562567e-004
,,,-4.72500000e-009,-1.52343817e-004
,,,-4.70000000e-009,-1.69531318e-004
,,,-4.67500000e-009,-2.00000070e-004
,,,-4.65000000e-009,-2.43750073e-004
,,,-4.62500000e-009,-2.91406327e-004
,,,-4.60000000e-009,-3.36718830e-004
,,,-4.57500000e-009,-3.76562583e-004
,,,-4.55000000e-009,-4.05468835e-004
,,,-4.52500000e-009,-4.20312586e-004
,,,-4.50000000e-009,-4.18750086e-004
,,,-4.47500000e-009,-4.00000084e-004
,,,-4.45000000e-009,-3.65625082e-004
,,,-4.42500000e-009,-3.17968828e-004
,,,-4.40000000e-009,-2.59375074e-004
,,,-4.37500000e-009,-1.96093820e-004
,,,-4.35000000e-009,-1.33593815e-004
,,,-4.32500000e-009,-7.73438114e-005
,,,-4.30000000e-009,-3.12500581e-005
,,,-4.27500000e-009,-5.58793550e-011
,,,-4.25000000e-009,9.37494478e-006
,,,-4.22500000e-009,2.34369429e-006
,,,-4.20000000e-009,-1.87500572e-005
,,,-4.17500000e-009,-5.00000594e-005
,,,-4.15000000e-009,-8.82813121e-005
,,,-4.12500000e-009,-1.28906315e-004
,,,-4.10000000e-009,-1.67187568e-004
,,,-4.07500000e-009,-2.00000070e-004
,,,-4.05000000e-009,-2.28906322e-004
,,,-4.02500000e-009,-2.46875073e-004
,,,-4.00000000e-009,-2.53906324e-004
,,,-3.97500000e-009,-2.51562574e-004
,,,-3.95000000e-009,-2.42187573e-004
,,,-3.92500000e-009,-2.28906322e-004
,,,-3.90000000e-009,-2.14062571e-004
,,,-3.87500000e-009,-2.00000070e-004
,,,-3.85000000e-009,-1.92187569e-004
,,,-3.82500000e-009,-1.89062569e-004
,,,-3.80000000e-009,-1.89062569e-004
,,,-3.77500000e-009,-1.92187569e-004
,,,-3.75000000e-009,-1.96093820e-004
,,,-3.72500000e-009,-2.00000070e-004
,,,-3.70000000e-009,-2.01562570e-004
,,,-3.67500000e-009,-2.00000070e-004
,,,-3.65000000e-009,-1.97656320e-004
,,,-3.62500000e-009,-1.92187569e-004
,,,-3.60000000e-009,-1.85937569e-004
,,,-3.57500000e-009,-1.79687569e-004
,,,-3.55000000e-009,-1.76562568e-004
,,,-3.52500000e-009,-1.78125068e-004
,,,-3.50000000e-009,-1.85937569e-004
,,,-3.47500000e-009,-2.00000070e-004
,,,-3.45000000e-009,-2.22656322e-004
,,,-3.42500000e-009,-2.50781324e-004
,,,-3.40000000e-009,-2.81250076e-004
,,,-3.37500000e-009,-3.13281328e-004
,,,-3.35000000e-009,-3.42968830e-004
,,,-3.32500000e-009,-3.68750082e-004
,,,-3.30000000e-009,-3.88281333e-004
,,,-3.27500000e-009,-4.00000084e-004
,,,-3.25000000e-009,-4.03125084e-004
,,,-3.22500000e-009,-3.99218834e-004
,,,-3.20000000e-009,-3.92968834e-004
,,,-3.17500000e-009,-3.85156333e-004
,,,-3.15000000e-009,-3.79687583e-004
,,,-3.12500000e-009,-3.78906333e-004
,,,-3.10000000e-009,-3.85156333e-004
,,,-3.07500000e-009,-4.00000084e-004
,,,-3.05000000e-009,-4.21093836e-004
,,,-3.02500000e-009,-4.47656338e-004
,,,-3.00000000e-009,-4.79687590e-004
,,,-2.97500000e-009,-5.13281342e-004
,,,-2.95000000e-009,-5.45312594e-004
,,,-2.92500000e-009,-5.71875096e-004
,,,-2.90000000e-009,-5.91406348e-004
,,,-2.87500000e-009,-6.00000098e-004
,,,-2.85000000e-009,-5.92968848e-004
,,,-2.82500000e-009,-5.75781347e-004
,,,-2.80000000e-009,-5.49218845e-004
,,,-2.77500000e-009,-5.17187592e-004
,,,-2.75000000e-009,-4.83593840e-004
,,,-2.72500000e-009,-4.50781338e-004
,,,-2.70000000e-009,-4.21875086e-004
,,,-2.67500000e-009,-4.00000084e-004
,,,-2.65000000e-009,-3.83593833e-004
,,,-2.62500000e-009,-3.74218832e-004
,,,-2.60000000e-009,-3.72656332e-004
,,,-2.57500000e-009,-3.77343833e-004
,,,-2.55000000e-009,-3.84375083e-004
,,,-2.52500000e-009,-3.92968834e-004
,,,-2.50000000e-009,-3.98437584e-004
,,,-2.47500000e-009,-4.00000084e-004
,,,-2.45000000e-009,-3.93750084e-004
,,,-2.42500000e-009,-3.81250083e-004
,,,-2.40000000e-009,-3.60937581e-004
,,,-2.37500000e-009,-3.35156330e-004
,,,-2.35000000e-009,-3.04687577e-004
,,,-2.32500000e-009,-2.71093825e-004
,,,-2.30000000e-009,-2.35937573e-004
,,,-2.27500000e-009,-2.00000070e-004
,,,-2.25000000e-009,-1.66406318e-004
,,,-2.22500000e-009,-1.35156315e-004
,,,-2.20000000e-009,-1.06250063e-004
,,,-2.17500000e-009,-8.12500616e-005
,,,-2.15000000e-009,-5.78125600e-005
,,,-2.12500000e-009,-3.75000585e-005
,,,-2.10000000e-009,-1.87500572e-005
,,,-2.07500000e-009,-5.58793550e-011
,,,-2.05000000e-009,1.56249452e-005
,,,-2.02500000e-009,3.28124464e-005
,,,-2.00000000e-009,5.31249479e-005
,,,-1.97500000e-009,7.65624495e-005
,,,-1.95000000e-009,1.03124951e-004
,,,-1.92500000e-009,1.32812454e-004
,,,-1.90000000e-009,1.65624956e-004
,,,-1.87500000e-009,1.99999958e-004
,,,-1.85000000e-009,2.25781210e-004
,,,-1.82500000e-009,2.49218712e-004
,,,-1.80000000e-009,2.67187463e-004
,,,-1.77500000e-009,2.76562464e-004
,,,-1.75000000e-009,2.75781214e-004
,,,-1.72500000e-009,2.63281213e-004
,,,-1.70000000e-009,2.37499961e-004
,,,-1.67500000e-009,1.99999958e-004
,,,-1.65000000e-009,1.43749954e-004
,,,-1.62500000e-009,8.04686998e-005
,,,-1.60000000e-009,1.40624451e-005
,,,-1.57500000e-009,-5.00000594e-005
,,,-1.55000000e-009,-1.07812564e-004
,,,-1.52500000e-009,-1.53906317e-004
,,,-1.50000000e-009,-1.85156319e-004
,,,-1.47500000e-009,-2.00000070e-004
,,,-1.45000000e-009,-2.04687570e-004
,,,-1.42500000e-009,-1.93750070e-004
,,,-1.40000000e-009,-1.70312568e-004
,,,-1.37500000e-009,-1.37500066e-004
,,,-1.35000000e-009,-9.92188129e-005
,,,-1.32500000e-009,-6.09375602e-005
,,,-1.30000000e-009,-2.65625578e-005
,,,-1.27500000e-009,-5.58793550e-011
,,,-1.25000000e-009,7.81194176e-007
,,,-1.22500000e-009,-1.09375567e-005
,,,-1.20000000e-009,-3.51563084e-005
,,,-1.17500000e-009,-6.71875606e-005
,,,-1.15000000e-009,-1.03125063e-004
,,,-1.12500000e-009,-1.39843816e-004
,,,-1.10000000e-009,-1.72656318e-004
,,,-1.07500000e-009,-2.00000070e-004
,,,-1.05000000e-009,-2.39062573e-004
,,,-1.02500000e-009,-2.73437575e-004
,,,-1.00000000e-009,-3.02343827e-004
,,,-9.75000000e-010,-3.27343829e-004
,,,-9.50000000e-010,-3.47656330e-004
,,,-9.25000000e-010,-3.65625082e-004
,,,-9.00000000e-010,-3.82031333e-004
,,,-8.75000000e-010,-4.00000084e-004
,,,-8.50000000e-010,-4.49218838e-004
,,,-8.25000000e-010,-5.06250092e-004
,,,-8.00000000e-010,-5.67187596e-004
,,,-7.75000000e-010,-6.28125100e-004
,,,-7.50000000e-010,-6.85156354e-004
,,,-7.25000000e-010,-7.33593858e-004
,,,-7.00000000e-010,-7.71875111e-004
,,,-6.75000000e-010,-8.00000113e-004
,,,-6.50000000e-010,-8.56250116e-004
,,,-6.25000000e-010,-9.14062621e-004
,,,-6.00000000e-010,-9.75781375e-004
,,,-5.75000000e-010,-1.04296888e-003
,,,-5.50000000e-010,-1.11718763e-003
,,,-5.25000000e-010,-1.20000014e-003
,,,-5.00000000e-010,-1.29375015e-003
,,,-4.75000000e-010,-1.40000015e-003
,,,-4.50000000e-010,-1.56406267e-003
,,,-4.25000000e-010,-1.74609393e-003
,,,-4.00000000e-010,-1.93906269e-003
,,,-3.75000000e-010,-2.13593771e-003
,,,-3.50000000e-010,-2.32578147e-003
,,,-3.25000000e-010,-2.50312523e-003
,,,-3.00000000e-010,-2.66171899e-003
,,,-2.75000000e-010,-2.80000025e-003
,,,-2.50000000e-010,-2.96093777e-003
,,,-2.25000000e-010,-3.11796903e-003
,,,-2.00000000e-010,-3.27421904e-003
,,,-1.75000000e-010,-3.43359405e-003
,,,-1.50000000e-010,-3.60156281e-003
,,,-1.25000000e-010,-3.78281282e-003
,,,-1.00000000e-010,-3.98046909e-003
,,,-7.50000000e-011,-4.20000035e-003
,,,-5.00000000e-011,-4.47734412e-003
,,,-2.50000000e-011,-4.78515664e-003
,,,0.00000000e+000,-5.11796917e-003
,,,2.50000000e-011,-5.46562544e-003
,,,5.00000000e-011,-5.81718797e-003
,,,7.50000000e-011,-6.16171924e-003
,,,1.00000000e-010,-6.49218802e-003
,,,1.25000000e-010,-6.80000054e-003
,,,1.50000000e-010,-7.09453181e-003
,,,1.75000000e-010,-7.37578183e-003
,,,2.00000000e-010,-7.64687560e-003
,,,2.25000000e-010,-7.91171937e-003
,,,2.50000000e-010,-8.17500063e-003
,,,2.75000000e-010,-8.44140690e-003
,,,3.00000000e-010,-8.71484442e-003
,,,3.25000000e-010,-9.00000069e-003
,,,3.50000000e-010,-9.28671946e-003
,,,3.75000000e-010,-9.59531324e-003
,,,4.00000000e-010,-9.92343826e-003
,,,4.25000000e-010,-1.02648445e-002
,,,4.50000000e-010,-1.06117196e-002
,,,4.75000000e-010,-1.09554696e-002
,,,5.00000000e-010,-1.12867196e-002
,,,5.25000000e-010,-1.16000009e-002
,,,5.50000000e-010,-1.18500009e-002
,,,5.75000000e-010,-1.20859384e-002
,,,6.00000000e-010,-1.23101572e-002
,,,6.25000000e-010,-1.25289072e-002
,,,6.50000000e-010,-1.27437510e-002
,,,6.75000000e-010,-1.29601572e-002
,,,7.00000000e-010,-1.31789072e-002
,,,7.25000000e-010,-1.34000010e-002
,,,7.50000000e-010,-1.35625010e-002
,,,7.75000000e-010,-1.37296885e-002
,,,8.00000000e-010,-1.39007823e-002
,,,8.25000000e-010,-1.40710948e-002
,,,8.50000000e-010,-1.42335948e-002
,,,8.75000000e-010,-1.43804698e-002
,,,9.00000000e-010,-1.45046886e-002
,,,9.25000000e-010,-1.46000011e-002
,,,9.50000000e-010,-1.45906261e-002
,,,9.75000000e-010,-1.45570323e-002
,,,1.00000000e-009,-1.45054698e-002
,,,1.02500000e-009,-1.44429698e-002
,,,1.05000000e-009,-1.43765636e-002
,,,1.07500000e-009,-1.43117198e-002
,,,1.10000000e-009,-1.42523448e-002
,,,1.12500000e-009,-1.42000011e-002
,,,1.15000000e-009,-1.40890636e-002
,,,1.17500000e-009,-1.39875010e-002
,,,1.20000000e-009,-1.38945323e-002
,,,1.22500000e-009,-1.38070323e-002
,,,1.25000000e-009,-1.37195323e-002
,,,1.27500000e-009,-1.36265635e-002
,,,1.30000000e-009,-1.35218760e-002
,,,1.32500000e-009,-1.34000010e-002
,,,1.35000000e-009,-1.32031260e-002
,,,1.37500000e-009,-1.29875010e-002
,,,1.40000000e-009,-1.27570322e-002
,,,1.42500000e-009,-1.25195322e-002
,,,1.45000000e-009,-1.22789072e-002
,,,1.47500000e-009,-1.20421884e-002
,,,1.50000000e-009,-1.18156259e-002
,,,1.52500000e-009,-1.16000009e-002
,,,1.55000000e-009,-1.13679696e-002
,,,1.57500000e-009,-1.11468758e-002
,,,1.60000000e-009,-1.09382821e-002
,,,1.62500000e-009,-1.07398446e-002
,,,1.65000000e-009,-1.05500008e-002
,,,1.67500000e-009,-1.03656258e-002
,,,1.70000000e-009,-1.01843758e-002
,,,1.72500000e-009,-1.00000008e-002
,,,1.75000000e-009,-9.79765700e-003
,,,1.77500000e-009,-9.58203198e-003
,,,1.80000000e-009,-9.35625072e-003
,,,1.82500000e-009,-9.12187570e-003
,,,1.85000000e-009,-8.88515693e-003
,,,1.87500000e-009,-8.64921942e-003
,,,1.90000000e-009,-8.41953190e-003
,,,1.92500000e-009,-8.20000064e-003
,,,1.95000000e-009,-7.99609437e-003
,,,1.97500000e-009,-7.79765686e-003
,,,2.00000000e-009,-7.60625059e-003
,,,2.02500000e-009,-7.42343808e-003
,,,2.05000000e-009,-7.25000057e-003
,,,2.07500000e-009,-7.08828181e-003
,,,2.10000000e-009,-6.93828180e-003
,,,2.12500000e-009,-6.80000054e-003
,,,2.15000000e-009,-6.68203178e-003
,,,2.17500000e-009,-6.56171927e-003
,,,2.20000000e-009,-6.43828176e-003
,,,2.22500000e-009,-6.31171925e-003
,,,2.25000000e-009,-6.18359424e-003
,,,2.27500000e-009,-6.05390673e-003
,,,2.30000000e-009,-5.92578173e-003
,,,2.32500000e-009,-5.80000047e-003
,,,2.35000000e-009,-5.69296921e-003
,,,2.37500000e-009,-5.57734420e-003
,,,2.40000000e-009,-5.45468794e-003
,,,2.42500000e-009,-5.32656293e-003
,,,2.45000000e-009,-5.19375042e-003
,,,2.47500000e-009,-5.06015666e-003
,,,2.50000000e-009,-4.92812540e-003
,,,2.52500000e-009,-4.80000040e-003
,,,2.55000000e-009,-4.69218789e-003
,,,2.57500000e-009,-4.58203163e-003
,,,2.60000000e-009,-4.47187537e-003
,,,2.62500000e-009,-4.36406286e-003
,,,2.65000000e-009,-4.26093786e-003
,,,2.67500000e-009,-4.16484410e-003
,,,2.70000000e-009,-4.07812534e-003
,,,2.72500000e-009,-4.00000034e-003
,,,2.75000000e-009,-3.94375034e-003
,,,2.77500000e-009,-3.88593783e-003
,,,2.80000000e-009,-3.82265658e-003
,,,2.82500000e-009,-3.75312532e-003
,,,2.85000000e-009,-3.67500032e-003
,,,2.87500000e-009,-3.58984406e-003
,,,2.90000000e-009,-3.49765655e-003
,,,2.92500000e-009,-3.40000030e-003
,,,2.95000000e-009,-3.30703154e-003
,,,2.97500000e-009,-3.20859403e-003
,,,3.00000000e-009,-3.10937528e-003
,,,3.02500000e-009,-3.01484402e-003
,,,3.05000000e-009,-2.93203151e-003
,,,3.07500000e-009,-2.86640651e-003
,,,3.10000000e-009,-2.82187526e-003
,,,3.12500000e-009,-2.80000025e-003
,,,3.15000000e-009,-2.80546900e-003
,,,3.17500000e-009,-2.82187526e-003
,,,3.20000000e-009,-2.84296901e-003
,,,3.22500000e-009,-2.86171901e-003
,,,3.25000000e-009,-2.87265651e-003
,,,3.27500000e-009,-2.86875026e-003
,,,3.30000000e-009,-2.84531276e-003
,,,3.32500000e-009,-2.80000025e-003
,,,3.35000000e-009,-2.73437525e-003
,,,3.37500000e-009,-2.64375024e-003
,,,3.40000000e-009,-2.53437524e-003
,,,3.42500000e-009,-2.41406273e-003
,,,3.45000000e-009,-2.29218772e-003
,,,3.47500000e-009,-2.17734396e-003
,,,3.50000000e-009,-2.07890645e-003
,,,3.52500000e-009,-2.00000020e-003
,,,3.55000000e-009,-1.94765644e-003
,,,3.57500000e-009,-1.91406269e-003
,,,3.60000000e-009,-1.89375019e-003
,,,3.62500000e-009,-1.88359394e-003
,,,3.65000000e-009,-1.87500019e-003
,,,3.67500000e-009,-1.86250019e-003
,,,3.70000000e-009,-1.83906269e-003
,,,3.72500000e-009,-1.80000018e-003
,,,3.75000000e-009,-1.74218768e-003
,,,3.77500000e-009,-1.66171892e-003
,,,3.80000000e-009,-1.56171892e-003
,,,3.82500000e-009,-1.44843766e-003
,,,3.85000000e-009,-1.32812515e-003
,,,3.87500000e-009,-1.20859389e-003
,,,3.90000000e-009,-1.09687513e-003
,,,3.92500000e-009,-1.00000013e-003
,,,3.95000000e-009,-9.26562621e-004
,,,3.97500000e-009,-8.70312617e-004
,,,4.00000000e-009,-8.31250115e-004
,,,4.02500000e-009,-8.08593863e-004
,,,4.05000000e-009,-7.97656362e-004
,,,4.07500000e-009,-7.95312612e-004
,,,4.10000000e-009,-7.97656362e-004
,,,4.12500000e-009,-8.00000113e-004
,,,4.15000000e-009,-8.03125113e-004
,,,4.17500000e-009,-7.97656362e-004
,,,4.20000000e-009,-7.82031361e-004
,,,4.22500000e-009,-7.57812610e-004
,,,4.25000000e-009,-7.25000107e-004
,,,4.27500000e-009,-6.86718854e-004
,,,4.30000000e-009,-6.44531351e-004
,,,4.32500000e-009,-6.00000098e-004
,,,4.35000000e-009,-5.59375095e-004
,,,4.37500000e-009,-5.15625092e-004
,,,4.40000000e-009,-4.68750089e-004
,,,4.42500000e-009,-4.19531336e-004
,,,4.45000000e-009,-3.67968832e-004
,,,4.47500000e-009,-3.14062578e-004
,,,4.50000000e-009,-2.57812574e-004
,,,4.52500000e-009,-2.00000070e-004
,,,4.55000000e-009,-1.47656316e-004
,,,4.57500000e-009,-9.29688125e-005
,,,4.60000000e-009,-3.67188085e-005
,,,4.62500000e-009,1.79686954e-005
,,,4.65000000e-009,7.10936992e-005
,,,4.67500000e-009,1.20312453e-004
,,,4.70000000e-009,1.63281206e-004
,,,4.72500000e-009,1.99999958e-004
,,,4.75000000e-009,2.19531210e-004
,,,4.77500000e-009,2.32812461e-004
,,,4.80000000e-009,2.39062461e-004
,,,4.82500000e-009,2.40624961e-004
,,,4.85000000e-009,2.35937461e-004
,,,4.87500000e-009,2.27343710e-004
,,,4.90000000e-009,2.14843709e-004
,,,4.92500000e-009,1.99999958e-004
,,,4.95000000e-009,1.79687457e-004
,,,4.97500000e-009,1.62499956e-004
,,,5.00000000e-009,1.50781205e-004
,,,5.02500000e-009,1.44531204e-004
,,,5.05000000e-009,1.46874955e-004
,,,5.07500000e-009,1.56249955e-004
,,,5.10000000e-009,1.74218706e-004
,,,5.12500000e-009,1.99999958e-004
,,,5.15000000e-009,2.26562460e-004
,,,5.17500000e-009,2.57812462e-004
,,,5.20000000e-009,2.92187465e-004
,,,5.22500000e-009,3.24999967e-004
,,,5.25000000e-009,3.54687469e-004
,,,5.27500000e-009,3.78906221e-004
,,,5.30000000e-009,3.93749972e-004
,,,5.32500000e-009,3.99999972e-004
,,,5.35000000e-009,3.90624972e-004
,,,5.37500000e-009,3.73437471e-004
,,,5.40000000e-009,3.49218719e-004
,,,5.42500000e-009,3.20312467e-004
,,,5.45000000e-009,2.88281215e-004
,,,5.47500000e-009,2.56249962e-004
,,,5.50000000e-009,2.25781210e-004
,,,5.52500000e-009,1.99999958e-004
,,,5.55000000e-009,1.78906207e-004
,,,5.57500000e-009,1.64843706e-004
,,,5.60000000e-009,1.58593705e-004
,,,5.62500000e-009,1.59374955e-004
,,,5.65000000e-009,1.65624956e-004
,,,5.67500000e-009,1.75781207e-004
,,,5.70000000e-009,1.87499957e-004
,,,5.72500000e-009,1.99999958e-004
,,,5.75000000e-009,2.11718709e-004
,,,5.77500000e-009,2.20312460e-004
,,,5.80000000e-009,2.26562460e-004
,,,5.82500000e-009,2.28124960e-004
,,,5.85000000e-009,2.25781210e-004
