RawData/DifferentLengths/L4/L4_25_5mV/wave022_Ch1.csv

"Record Length",1000,"Points",-7.72500000e-009,-6.38281351e-004
"Sample Interval",2.50000000e-011,s,-7.70000000e-009,-6.22656350e-004
"Trigger Point",309,"Samples",-7.67500000e-009,-6.00000098e-004
"Trigger Time",1.56115916e-011,s,-7.65000000e-009,-5.69531346e-004
"",,,-7.62500000e-009,-5.35156344e-004
"Horizontal Offset",-7.72500000e-009,s,-7.60000000e-009,-5.00000091e-004
,,,-7.57500000e-009,-4.67968839e-004
,,,-7.55000000e-009,-4.39843837e-004
,,,-7.52500000e-009,-4.17968835e-004
,,,-7.50000000e-009,-4.05468835e-004
,,,-7.47500000e-009,-4.00000084e-004
,,,-7.45000000e-009,-4.02343834e-004
,,,-7.42500000e-009,-4.09375085e-004
,,,-7.40000000e-009,-4.19531336e-004
,,,-7.37500000e-009,-4.28125086e-004
,,,-7.35000000e-009,-4.34375087e-004
,,,-7.32500000e-009,-4.32812587e-004
,,,-7.30000000e-009,-4.21875086e-004
,,,-7.27500000e-009,-4.00000084e-004
,,,-7.25000000e-009,-3.65625082e-004
,,,-7.22500000e-009,-3.20312579e-004
,,,-7.20000000e-009,-2.67187575e-004
,,,-7.17500000e-009,-2.09375071e-004
,,,-7.15000000e-009,-1.50000066e-004
,,,-7.12500000e-009,-9.29688125e-005
,,,-7.10000000e-009,-4.21875589e-005
,,,-7.07500000e-009,-5.58793550e-011
,,,-7.05000000e-009,2.57811959e-005
,,,-7.02500000e-009,4.06249470e-005
,,,-7.00000000e-009,4.53124473e-005
,,,-6.97500000e-009,4.14061971e-005
,,,-6.95000000e-009,3.20311964e-005
,,,-6.92500000e-009,2.03124456e-005
,,,-6.90000000e-009,8.59369473e-006
,,,-6.87500000e-009,-5.58793550e-011
,,,-6.85000000e-009,-8.59380649e-006
,,,-6.82500000e-009,-1.25000568e-005
,,,-6.80000000e-009,-1.17188067e-005
,,,-6.77500000e-009,-8.59380649e-006
,,,-6.75000000e-009,-3.90630616e-006
,,,-6.72500000e-009,-5.58793550e-011
,,,-6.70000000e-009,1.56244423e-006
,,,-6.67500000e-009,-5.58793550e-011
,,,-6.65000000e-009,-1.09375567e-005
,,,-6.62500000e-009,-2.34375575e-005
,,,-6.60000000e-009,-3.51563084e-005
,,,-6.57500000e-009,-4.29688089e-005
,,,-6.55000000e-009,-4.53125591e-005
,,,-6.52500000e-009,-3.98438087e-005
,,,-6.50000000e-009,-2.42188076e-005
,,,-6.47500000e-009,-5.58793550e-011
,,,-6.45000000e-009,2.73436961e-005
,,,-6.42500000e-009,5.70311982e-005
,,,-6.40000000e-009,8.43749501e-005
,,,-6.37500000e-009,1.03906201e-004
,,,-6.35000000e-009,1.08593702e-004
,,,-6.32500000e-009,9.45312008e-005
,,,-6.30000000e-009,5.85936983e-005
,,,-6.27500000e-009,-5.58793550e-011
,,,-6.25000000e-009,-8.28125617e-005
,,,-6.22500000e-009,-1.79687569e-004
,,,-6.20000000e-009,-2.82812576e-004
,,,-6.17500000e-009,-3.84375083e-004
,,,-6.15000000e-009,-4.73437589e-004
,,,-6.12500000e-009,-5.43750094e-004
,,,-6.10000000e-009,-5.86718847e-004
,,,-6.07500000e-009,-6.00000098e-004
,,,-6.05000000e-009,-5.78125097e-004
,,,-6.02500000e-009,-5.30468843e-004
,,,-6.00000000e-009,-4.64062589e-004
,,,-5.97500000e-009,-3.89062583e-004
,,,-5.95000000e-009,-3.15625078e-004
,,,-5.92500000e-009,-2.54687574e-004
,,,-5.90000000e-009,-2.14062571e-004
,,,-5.87500000e-009,-2.00000070e-004
,,,-5.85000000e-009,-2.14062571e-004
,,,-5.82500000e-009,-2.54687574e-004
,,,-5.80000000e-009,-3.15625078e-004
,,,-5.77500000e-009,-3.88281333e-004
,,,-5.75000000e-009,-4.62500089e-004
,,,-5.72500000e-009,-5.28906343e-004
,,,-5.70000000e-009,-5.76562597e-004
,,,-5.67500000e-009,-6.00000098e-004
,,,-5.65000000e-009,-5.91406348e-004
,,,-5.62500000e-009,-5.55468845e-004
,,,-5.60000000e-009,-4.99218841e-004
,,,-5.57500000e-009,-4.29687586e-004
,,,-5.55000000e-009,-3.55468831e-004
,,,-5.52500000e-009,-2.87500076e-004
,,,-5.50000000e-009,-2.33593822e-004
,,,-5.47500000e-009,-2.00000070e-004
,,,-5.45000000e-009,-1.90625069e-004
,,,-5.42500000e-009,-2.04687570e-004
,,,-5.40000000e-009,-2.36718823e-004
,,,-5.37500000e-009,-2.80468826e-004
,,,-5.35000000e-009,-3.27343829e-004
,,,-5.32500000e-009,-3.67968832e-004
,,,-5.30000000e-009,-3.94531334e-004
,,,-5.27500000e-009,-4.00000084e-004
,,,-5.25000000e-009,-3.81250083e-004
,,,-5.22500000e-009,-3.40625080e-004
,,,-5.20000000e-009,-2.83593826e-004
,,,-5.17500000e-009,-2.15625071e-004
,,,-5.15000000e-009,-1.46093816e-004
,,,-5.12500000e-009,-8.20313117e-005
,,,-5.10000000e-009,-3.20313081e-005
,,,-5.07500000e-009,-5.58793550e-011
,,,-5.05000000e-009,5.46869451e-006
,,,-5.02500000e-009,-9.37505654e-006
,,,-5.00000000e-009,-3.98438087e-005
,,,-4.97500000e-009,-8.12500616e-005
,,,-4.95000000e-009,-1.24218815e-004
,,,-4.92500000e-009,-1.62500067e-004
,,,-4.90000000e-009,-1.89843819e-004
,,,-4.87500000e-009,-2.00000070e-004
,,,-4.85000000e-009,-1.93750070e-004
,,,-4.82500000e-009,-1.70312568e-004
,,,-4.80000000e-009,-1.34375065e-004
,,,-4.77500000e-009,-9.21875624e-005
,,,-4.75000000e-009,-5.07813095e-005
,,,-4.72500000e-009,-1.79688072e-005
,,,-4.70000000e-009,7.81194176e-007
,,,-4.67500000e-009,-5.58793550e-011
,,,-4.65000000e-009,-2.65625578e-005
,,,-4.62500000e-009,-7.10938109e-005
,,,-4.60000000e-009,-1.29687565e-004
,,,-4.57500000e-009,-1.96093820e-004
,,,-4.55000000e-009,-2.63281325e-004
,,,-4.52500000e-009,-3.24218829e-004
,,,-4.50000000e-009,-3.71093832e-004
,,,-4.47500000e-009,-4.00000084e-004
,,,-4.45000000e-009,-4.08593835e-004
,,,-4.42500000e-009,-3.96875084e-004
,,,-4.40000000e-009,-3.69531332e-004
,,,-4.37500000e-009,-3.31250079e-004
,,,-4.35000000e-009,-2.89062576e-004
,,,-4.32500000e-009,-2.49218824e-004
,,,-4.30000000e-009,-2.17968821e-004
,,,-4.27500000e-009,-2.00000070e-004
,,,-4.25000000e-009,-2.00000070e-004
,,,-4.22500000e-009,-2.15625071e-004
,,,-4.20000000e-009,-2.43750073e-004
,,,-4.17500000e-009,-2.80468826e-004
,,,-4.15000000e-009,-3.20312579e-004
,,,-4.12500000e-009,-3.56250081e-004
,,,-4.10000000e-009,-3.84375083e-004
,,,-4.07500000e-009,-4.00000084e-004
,,,-4.05000000e-009,-4.00000084e-004
,,,-4.02500000e-009,-3.85156333e-004
,,,-4.00000000e-009,-3.58593831e-004
,,,-3.97500000e-009,-3.24218829e-004
,,,-3.95000000e-009,-2.86718826e-004
,,,-3.92500000e-009,-2.50000074e-004
,,,-3.90000000e-009,-2.20312571e-004
,,,-3.87500000e-009,-2.00000070e-004
,,,-3.85000000e-009,-1.94531320e-004
,,,-3.82500000e-009,-2.02343820e-004
,,,-3.80000000e-009,-2.22656322e-004
,,,-3.77500000e-009,-2.53125074e-004
,,,-3.75000000e-009,-2.90625076e-004
,,,-3.72500000e-009,-3.29687579e-004
,,,-3.70000000e-009,-3.67187582e-004
,,,-3.67500000e-009,-4.00000084e-004
,,,-3.65000000e-009,-4.24218836e-004
,,,-3.62500000e-009,-4.39062587e-004
,,,-3.60000000e-009,-4.45312587e-004
,,,-3.57500000e-009,-4.43750087e-004
,,,-3.55000000e-009,-4.36718837e-004
,,,-3.52500000e-009,-4.25781336e-004
,,,-3.50000000e-009,-4.12500085e-004
,,,-3.47500000e-009,-4.00000084e-004
,,,-3.45000000e-009,-3.90625084e-004
,,,-3.42500000e-009,-3.83593833e-004
,,,-3.40000000e-009,-3.80468833e-004
,,,-3.37500000e-009,-3.80468833e-004
,,,-3.35000000e-009,-3.83593833e-004
,,,-3.32500000e-009,-3.89062583e-004
,,,-3.30000000e-009,-3.94531334e-004
,,,-3.27500000e-009,-4.00000084e-004
,,,-3.25000000e-009,-4.04687585e-004
,,,-3.22500000e-009,-4.07031335e-004
,,,-3.20000000e-009,-4.07812585e-004
,,,-3.17500000e-009,-4.07812585e-004
,,,-3.15000000e-009,-4.07031335e-004
,,,-3.12500000e-009,-4.04687585e-004
,,,-3.10000000e-009,-4.02343834e-004
,,,-3.07500000e-009,-4.00000084e-004
,,,-3.05000000e-009,-3.98437584e-004
,,,-3.02500000e-009,-3.97656334e-004
,,,-3.00000000e-009,-3.96875084e-004
,,,-2.97500000e-009,-3.96875084e-004
,,,-2.95000000e-009,-3.97656334e-004
,,,-2.92500000e-009,-3.98437584e-004
,,,-2.90000000e-009,-3.99218834e-004
,,,-2.87500000e-009,-4.00000084e-004
,,,-2.85000000e-009,-3.99218834e-004
,,,-2.82500000e-009,-3.98437584e-004
,,,-2.80000000e-009,-3.97656334e-004
,,,-2.77500000e-009,-3.96875084e-004
,,,-2.75000000e-009,-3.96875084e-004
,,,-2.72500000e-009,-3.97656334e-004
,,,-2.70000000e-009,-3.98437584e-004
,,,-2.67500000e-009,-4.00000084e-004
,,,-2.65000000e-009,-4.01562584e-004
,,,-2.62500000e-009,-4.03125084e-004
,,,-2.60000000e-009,-4.03906334e-004
,,,-2.57500000e-009,-4.04687585e-004
,,,-2.55000000e-009,-4.04687585e-004
,,,-2.52500000e-009,-4.03906334e-004
,,,-2.50000000e-009,-4.02343834e-004
,,,-2.47500000e-009,-4.00000084e-004
,,,-2.45000000e-009,-3.96093834e-004
,,,-2.42500000e-009,-3.91406334e-004
,,,-2.40000000e-009,-3.87500083e-004
,,,-2.37500000e-009,-3.85156333e-004
,,,-2.35000000e-009,-3.84375083e-004
,,,-2.32500000e-009,-3.86718833e-004
,,,-2.30000000e-009,-3.92187584e-004
,,,-2.27500000e-009,-4.00000084e-004
,,,-2.25000000e-009,-4.09375085e-004
,,,-2.22500000e-009,-4.18750086e-004
,,,-2.20000000e-009,-4.26562586e-004
,,,-2.17500000e-009,-4.32031336e-004
,,,-2.15000000e-009,-4.32812587e-004
,,,-2.12500000e-009,-4.28906336e-004
,,,-2.10000000e-009,-4.17968835e-004
,,,-2.07500000e-009,-4.00000084e-004
,,,-2.05000000e-009,-3.75000082e-004
,,,-2.02500000e-009,-3.45312580e-004
,,,-2.00000000e-009,-3.12500078e-004
,,,-1.97500000e-009,-2.80468826e-004
,,,-1.95000000e-009,-2.51562574e-004
,,,-1.92500000e-009,-2.27343822e-004
,,,-1.90000000e-009,-2.10156321e-004
,,,-1.87500000e-009,-2.00000070e-004
,,,-1.85000000e-009,-2.00000070e-004
,,,-1.82500000e-009,-2.05468820e-004
,,,-1.80000000e-009,-2.14843821e-004
,,,-1.77500000e-009,-2.23437572e-004
,,,-1.75000000e-009,-2.28906322e-004
,,,-1.72500000e-009,-2.28125072e-004
,,,-1.70000000e-009,-2.19531321e-004
,,,-1.67500000e-009,-2.00000070e-004
,,,-1.65000000e-009,-1.75000068e-004
,,,-1.62500000e-009,-1.42968816e-004
,,,-1.60000000e-009,-1.07812564e-004
,,,-1.57500000e-009,-7.10938109e-005
,,,-1.55000000e-009,-3.90625586e-005
,,,-1.52500000e-009,-1.48438069e-005
,,,-1.50000000e-009,-1.56255599e-006
,,,-1.47500000e-009,-5.58793550e-011
,,,-1.45000000e-009,-2.03125573e-005
,,,-1.42500000e-009,-5.15625595e-005
,,,-1.40000000e-009,-8.98438122e-005
,,,-1.37500000e-009,-1.29687565e-004
,,,-1.35000000e-009,-1.64843818e-004
,,,-1.32500000e-009,-1.91406319e-004
,,,-1.30000000e-009,-2.03906320e-004
,,,-1.27500000e-009,-2.00000070e-004
,,,-1.25000000e-009,-1.92968820e-004
,,,-1.22500000e-009,-1.73437568e-004
,,,-1.20000000e-009,-1.42968816e-004
,,,-1.17500000e-009,-1.07031313e-004
,,,-1.15000000e-009,-7.03125609e-005
,,,-1.12500000e-009,-3.67188085e-005
,,,-1.10000000e-009,-1.25000568e-005
,,,-1.07500000e-009,-5.58793550e-011
,,,-1.05000000e-009,-2.57813077e-005
,,,-1.02500000e-009,-6.95313108e-005
,,,-1.00000000e-009,-1.25781315e-004
,,,-9.75000000e-010,-1.89843819e-004
,,,-9.50000000e-010,-2.54687574e-004
,,,-9.25000000e-010,-3.14843828e-004
,,,-9.00000000e-010,-3.64062582e-004
,,,-8.75000000e-010,-4.00000084e-004
,,,-8.50000000e-010,-4.50000088e-004
,,,-8.25000000e-010,-4.89062590e-004
,,,-8.00000000e-010,-5.18750093e-004
,,,-7.75000000e-010,-5.40625094e-004
,,,-7.50000000e-010,-5.55468845e-004
,,,-7.25000000e-010,-5.67968846e-004
,,,-7.00000000e-010,-5.81250097e-004
,,,-6.75000000e-010,-6.00000098e-004
,,,-6.50000000e-010,-6.61718853e-004
,,,-6.25000000e-010,-7.40625108e-004
,,,-6.00000000e-010,-8.33593865e-004
,,,-5.75000000e-010,-9.39062622e-004
,,,-5.50000000e-010,-1.05156263e-003
,,,-5.25000000e-010,-1.16796889e-003
,,,-5.00000000e-010,-1.28515640e-003
,,,-4.75000000e-010,-1.40000015e-003
,,,-4.50000000e-010,-1.54375017e-003
,,,-4.25000000e-010,-1.68984393e-003
,,,-4.00000000e-010,-1.83906269e-003
,,,-3.75000000e-010,-1.98828145e-003
,,,-3.50000000e-010,-2.13906271e-003
,,,-3.25000000e-010,-2.28984397e-003
,,,-3.00000000e-010,-2.44296898e-003
,,,-2.75000000e-010,-2.60000024e-003
,,,-2.50000000e-010,-2.78515650e-003
,,,-2.25000000e-010,-2.98359402e-003
,,,-2.00000000e-010,-3.19609403e-003
,,,-1.75000000e-010,-3.42031280e-003
,,,-1.50000000e-010,-3.65546906e-003
,,,-1.25000000e-010,-3.89843783e-003
,,,-1.00000000e-010,-4.14765660e-003
,,,-7.50000000e-011,-4.40000037e-003
,,,-5.00000000e-011,-4.65468789e-003
,,,-2.50000000e-011,-4.91250040e-003
,,,0.00000000e+000,-5.17265667e-003
,,,2.50000000e-011,-5.43203169e-003
,,,5.00000000e-011,-5.68671921e-003
,,,7.50000000e-011,-5.93515673e-003
,,,1.00000000e-010,-6.17343799e-003
,,,1.25000000e-010,-6.40000051e-003
,,,1.50000000e-010,-6.59453177e-003
,,,1.75000000e-010,-6.78203179e-003
,,,2.00000000e-010,-6.96250055e-003
,,,2.25000000e-010,-7.13906306e-003
,,,2.50000000e-010,-7.31015682e-003
,,,2.75000000e-010,-7.47812559e-003
,,,3.00000000e-010,-7.64140685e-003
,,,3.25000000e-010,-7.80000061e-003
,,,3.50000000e-010,-7.91875062e-003
,,,3.75000000e-010,-8.03906312e-003
,,,4.00000000e-010,-8.16250063e-003
,,,4.25000000e-010,-8.28984439e-003
,,,4.50000000e-010,-8.41953190e-003
,,,4.75000000e-010,-8.55078191e-003
,,,5.00000000e-010,-8.67890692e-003
,,,5.25000000e-010,-8.80000068e-003
,,,5.50000000e-010,-8.86406318e-003
,,,5.75000000e-010,-8.91875069e-003
,,,6.00000000e-010,-8.96484444e-003
,,,6.25000000e-010,-9.00000069e-003
,,,6.50000000e-010,-9.02265694e-003
,,,6.75000000e-010,-9.03203195e-003
,,,7.00000000e-010,-9.02500069e-003
,,,7.25000000e-010,-9.00000069e-003
,,,7.50000000e-010,-8.91093819e-003
,,,7.75000000e-010,-8.81015693e-003
,,,8.00000000e-010,-8.70312567e-003
,,,8.25000000e-010,-8.59531316e-003
,,,8.50000000e-010,-8.48828191e-003
,,,8.75000000e-010,-8.38593815e-003
,,,9.00000000e-010,-8.28984439e-003
,,,9.25000000e-010,-8.20000064e-003
,,,9.50000000e-010,-8.08125063e-003
,,,9.75000000e-010,-7.97031312e-003
,,,1.00000000e-009,-7.86796936e-003
,,,1.02500000e-009,-7.77187561e-003
,,,1.05000000e-009,-7.67968810e-003
,,,1.07500000e-009,-7.58984434e-003
,,,1.10000000e-009,-7.49765684e-003
,,,1.12500000e-009,-7.40000058e-003
,,,1.15000000e-009,-7.27343807e-003
,,,1.17500000e-009,-7.13750056e-003
,,,1.20000000e-009,-6.99218805e-003
,,,1.22500000e-009,-6.84062554e-003
,,,1.25000000e-009,-6.68281303e-003
,,,1.27500000e-009,-6.52265677e-003
,,,1.30000000e-009,-6.36093801e-003
,,,1.32500000e-009,-6.20000049e-003
,,,1.35000000e-009,-6.03515673e-003
,,,1.37500000e-009,-5.87265672e-003
,,,1.40000000e-009,-5.71250046e-003
,,,1.42500000e-009,-5.55703170e-003
,,,1.45000000e-009,-5.40781294e-003
,,,1.47500000e-009,-5.26484418e-003
,,,1.50000000e-009,-5.12890667e-003
,,,1.52500000e-009,-5.00000041e-003
,,,1.55000000e-009,-4.88671915e-003
,,,1.57500000e-009,-4.77500039e-003
,,,1.60000000e-009,-4.66718789e-003
,,,1.62500000e-009,-4.56250038e-003
,,,1.65000000e-009,-4.46250037e-003
,,,1.67500000e-009,-4.36796912e-003
,,,1.70000000e-009,-4.28046911e-003
,,,1.72500000e-009,-4.20000035e-003
,,,1.75000000e-009,-4.14218785e-003
,,,1.77500000e-009,-4.08515660e-003
,,,1.80000000e-009,-4.03046909e-003
,,,1.82500000e-009,-3.97812534e-003
,,,1.85000000e-009,-3.92734408e-003
,,,1.87500000e-009,-3.88046908e-003
,,,1.90000000e-009,-3.83828158e-003
,,,1.92500000e-009,-3.80000032e-003
,,,1.95000000e-009,-3.77812532e-003
,,,1.97500000e-009,-3.75390657e-003
,,,2.00000000e-009,-3.72812532e-003
,,,2.02500000e-009,-3.70156282e-003
,,,2.05000000e-009,-3.67421907e-003
,,,2.07500000e-009,-3.64765656e-003
,,,2.10000000e-009,-3.62265656e-003
,,,2.12500000e-009,-3.60000031e-003
,,,2.15000000e-009,-3.58984406e-003
,,,2.17500000e-009,-3.57500031e-003
,,,2.20000000e-009,-3.55625031e-003
,,,2.22500000e-009,-3.53203156e-003
,,,2.25000000e-009,-3.50312530e-003
,,,2.27500000e-009,-3.47109405e-003
,,,2.30000000e-009,-3.43671905e-003
,,,2.32500000e-009,-3.40000030e-003
,,,2.35000000e-009,-3.36718779e-003
,,,2.37500000e-009,-3.33203154e-003
,,,2.40000000e-009,-3.29687529e-003
,,,2.42500000e-009,-3.26328154e-003
,,,2.45000000e-009,-3.23593778e-003
,,,2.47500000e-009,-3.21562528e-003
,,,2.50000000e-009,-3.20390653e-003
,,,2.52500000e-009,-3.20000028e-003
,,,2.55000000e-009,-3.20312528e-003
,,,2.57500000e-009,-3.20546903e-003
,,,2.60000000e-009,-3.20312528e-003
,,,2.62500000e-009,-3.19140653e-003
,,,2.65000000e-009,-3.16796903e-003
,,,2.67500000e-009,-3.12890653e-003
,,,2.70000000e-009,-3.07265652e-003
,,,2.72500000e-009,-3.00000027e-003
,,,2.75000000e-009,-2.91250026e-003
,,,2.77500000e-009,-2.81328151e-003
,,,2.80000000e-009,-2.71093775e-003
,,,2.82500000e-009,-2.61250024e-003
,,,2.85000000e-009,-2.52578148e-003
,,,2.87500000e-009,-2.45859398e-003
,,,2.90000000e-009,-2.41562523e-003
,,,2.92500000e-009,-2.40000023e-003
,,,2.95000000e-009,-2.41171898e-003
,,,2.97500000e-009,-2.44375023e-003
,,,3.00000000e-009,-2.48750023e-003
,,,3.02500000e-009,-2.53593774e-003
,,,3.05000000e-009,-2.57968774e-003
,,,3.07500000e-009,-2.61015649e-003
,,,3.10000000e-009,-2.61875024e-003
,,,3.12500000e-009,-2.60000024e-003
,,,3.15000000e-009,-2.54921899e-003
,,,3.17500000e-009,-2.46953148e-003
,,,3.20000000e-009,-2.36484397e-003
,,,3.22500000e-009,-2.24453146e-003
,,,3.25000000e-009,-2.11875021e-003
,,,3.27500000e-009,-1.99687520e-003
,,,3.30000000e-009,-1.88828144e-003
,,,3.32500000e-009,-1.80000018e-003
,,,3.35000000e-009,-1.73984393e-003
,,,3.37500000e-009,-1.70468768e-003
,,,3.40000000e-009,-1.69296893e-003
,,,3.42500000e-009,-1.70078143e-003
,,,3.45000000e-009,-1.72109393e-003
,,,3.47500000e-009,-1.74921893e-003
,,,3.50000000e-009,-1.77734393e-003
,,,3.52500000e-009,-1.80000018e-003
,,,3.55000000e-009,-1.81328143e-003
,,,3.57500000e-009,-1.81015643e-003
,,,3.60000000e-009,-1.79296893e-003
,,,3.62500000e-009,-1.76328143e-003
,,,3.65000000e-009,-1.72500018e-003
,,,3.67500000e-009,-1.68203142e-003
,,,3.70000000e-009,-1.63984392e-003
,,,3.72500000e-009,-1.60000017e-003
,,,3.75000000e-009,-1.56796892e-003
,,,3.77500000e-009,-1.53984391e-003
,,,3.80000000e-009,-1.51640641e-003
,,,3.82500000e-009,-1.49609391e-003
,,,3.85000000e-009,-1.47656266e-003
,,,3.87500000e-009,-1.45546891e-003
,,,3.90000000e-009,-1.43046891e-003
,,,3.92500000e-009,-1.40000015e-003
,,,3.95000000e-009,-1.36328140e-003
,,,3.97500000e-009,-1.31796890e-003
,,,4.00000000e-009,-1.26640640e-003
,,,4.02500000e-009,-1.21093764e-003
,,,4.05000000e-009,-1.15312514e-003
,,,4.07500000e-009,-1.09765638e-003
,,,4.10000000e-009,-1.04609388e-003
,,,4.12500000e-009,-1.00000013e-003
,,,4.15000000e-009,-9.66406374e-004
,,,4.17500000e-009,-9.38281372e-004
,,,4.20000000e-009,-9.13281371e-004
,,,4.22500000e-009,-8.92187619e-004
,,,4.25000000e-009,-8.71093868e-004
,,,4.27500000e-009,-8.50000116e-004
,,,4.30000000e-009,-8.26562614e-004
,,,4.32500000e-009,-8.00000113e-004
,,,4.35000000e-009,-7.73437611e-004
,,,4.37500000e-009,-7.43750109e-004
,,,4.40000000e-009,-7.11718856e-004
,,,4.42500000e-009,-6.79687604e-004
,,,4.45000000e-009,-6.50781352e-004
,,,4.47500000e-009,-6.27343850e-004
,,,4.50000000e-009,-6.10156349e-004
,,,4.52500000e-009,-6.00000098e-004
,,,4.55000000e-009,-6.01562598e-004
,,,4.57500000e-009,-6.07812599e-004
,,,4.60000000e-009,-6.16406350e-004
,,,4.62500000e-009,-6.23437600e-004
,,,4.65000000e-009,-6.28125100e-004
,,,4.67500000e-009,-6.26562600e-004
,,,4.70000000e-009,-6.17187600e-004
,,,4.72500000e-009,-6.00000098e-004
,,,4.75000000e-009,-5.78906347e-004
,,,4.77500000e-009,-5.50781345e-004
,,,4.80000000e-009,-5.17187592e-004
,,,4.82500000e-009,-4.82812590e-004
,,,4.85000000e-009,-4.50000088e-004
,,,4.87500000e-009,-4.23437586e-004
,,,4.90000000e-009,-4.06250085e-004
,,,4.92500000e-009,-4.00000084e-004
,,,4.95000000e-009,-4.13281335e-004
,,,4.97500000e-009,-4.36718837e-004
,,,5.00000000e-009,-4.67187589e-004
,,,5.02500000e-009,-5.02343841e-004
,,,5.05000000e-009,-5.36718844e-004
,,,5.07500000e-009,-5.66406346e-004
,,,5.10000000e-009,-5.89062598e-004
,,,5.12500000e-009,-6.00000098e-004
,,,5.15000000e-009,-6.02343849e-004
,,,5.17500000e-009,-5.91406348e-004
,,,5.20000000e-009,-5.70312596e-004
,,,5.22500000e-009,-5.39843844e-004
,,,5.25000000e-009,-5.03906342e-004
,,,5.27500000e-009,-4.67187589e-004
,,,5.30000000e-009,-4.31250086e-004
,,,5.32500000e-009,-4.00000084e-004
,,,5.35000000e-009,-3.80468833e-004
,,,5.37500000e-009,-3.67968832e-004
,,,5.40000000e-009,-3.63281332e-004
,,,5.42500000e-009,-3.64843832e-004
,,,5.45000000e-009,-3.71093832e-004
,,,5.47500000e-009,-3.79687583e-004
,,,5.50000000e-009,-3.89843833e-004
,,,5.52500000e-009,-4.00000084e-004
,,,5.55000000e-009,-4.10937585e-004
,,,5.57500000e-009,-4.21093836e-004
,,,5.60000000e-009,-4.33593837e-004
,,,5.62500000e-009,-4.50000088e-004
,,,5.65000000e-009,-4.73437589e-004
,,,5.67500000e-009,-5.05468842e-004
,,,5.70000000e-009,-5.47656345e-004
,,,5.72500000e-009,-6.00000098e-004
,,,5.75000000e-009,-6.60937603e-004
,,,5.77500000e-009,-7.25781357e-004
,,,5.80000000e-009,-7.92968862e-004
,,,5.82500000e-009,-8.56250116e-004
