RawData/DifferentLengths/L4/L4_25_5mV/wave003_Ch1.csv

"Record Length",1000,"Points",-7.72500000e-009,1.52343705e-004
"Sample Interval",2.50000000e-011,s,-7.70000000e-009,1.85937457e-004
"Trigger Point",309,"Samples",-7.67500000e-009,2.07812459e-004
"Trigger Time",2.40200000e-011,s,-7.65000000e-009,2.13281209e-004
"",,,-7.62500000e-009,1.99999958e-004
"Horizontal Offset",-7.72500000e-009,s,-7.60000000e-009,1.61718706e-004
,,,-7.57500000e-009,1.08593702e-004
,,,-7.55000000e-009,4.53124473e-005
,,,-7.52500000e-009,-2.26563075e-005
,,,-7.50000000e-009,-8.75000621e-005
,,,-7.47500000e-009,-1.42968816e-004
,,,-7.45000000e-009,-1.82031319e-004
,,,-7.42500000e-009,-2.00000070e-004
,,,-7.40000000e-009,-1.99218820e-004
,,,-7.37500000e-009,-1.75000068e-004
,,,-7.35000000e-009,-1.30468815e-004
,,,-7.32500000e-009,-7.03125609e-005
,,,-7.30000000e-009,-7.81305935e-007
,,,-7.27500000e-009,7.18749492e-005
,,,-7.25000000e-009,1.41406204e-004
,,,-7.22500000e-009,1.99999958e-004
,,,-7.20000000e-009,2.35937461e-004
,,,-7.17500000e-009,2.53124962e-004
,,,-7.15000000e-009,2.49999962e-004
,,,-7.12500000e-009,2.27343710e-004
,,,-7.10000000e-009,1.87499957e-004
,,,-7.07500000e-009,1.34374954e-004
,,,-7.05000000e-009,7.03124491e-005
,,,-7.02500000e-009,-5.58793550e-011
,,,-7.00000000e-009,-7.42188111e-005
,,,-6.97500000e-009,-1.45312566e-004
,,,-6.95000000e-009,-2.10937571e-004
,,,-6.92500000e-009,-2.68750075e-004
,,,-6.90000000e-009,-3.17187578e-004
,,,-6.87500000e-009,-3.54687581e-004
,,,-6.85000000e-009,-3.82812583e-004
,,,-6.82500000e-009,-4.00000084e-004
,,,-6.80000000e-009,-4.07812585e-004
,,,-6.77500000e-009,-4.09375085e-004
,,,-6.75000000e-009,-4.06250085e-004
,,,-6.72500000e-009,-4.01562584e-004
,,,-6.70000000e-009,-3.96093834e-004
,,,-6.67500000e-009,-3.93750084e-004
,,,-6.65000000e-009,-3.94531334e-004
,,,-6.62500000e-009,-4.00000084e-004
,,,-6.60000000e-009,-4.07812585e-004
,,,-6.57500000e-009,-4.21875086e-004
,,,-6.55000000e-009,-4.42187587e-004
,,,-6.52500000e-009,-4.68750089e-004
,,,-6.50000000e-009,-4.99218841e-004
,,,-6.47500000e-009,-5.32812594e-004
,,,-6.45000000e-009,-5.67187596e-004
,,,-6.42500000e-009,-6.00000098e-004
,,,-6.40000000e-009,-6.26562600e-004
,,,-6.37500000e-009,-6.46875102e-004
,,,-6.35000000e-009,-6.60156353e-004
,,,-6.32500000e-009,-6.64843853e-004
,,,-6.30000000e-009,-6.61718853e-004
,,,-6.27500000e-009,-6.49218852e-004
,,,-6.25000000e-009,-6.28125100e-004
,,,-6.22500000e-009,-6.00000098e-004
,,,-6.20000000e-009,-5.62500096e-004
,,,-6.17500000e-009,-5.23437593e-004
,,,-6.15000000e-009,-4.86718840e-004
,,,-6.12500000e-009,-4.53125088e-004
,,,-6.10000000e-009,-4.26562586e-004
,,,-6.07500000e-009,-4.08593835e-004
,,,-6.05000000e-009,-4.00000084e-004
,,,-6.02500000e-009,-4.00000084e-004
,,,-6.00000000e-009,-4.05468835e-004
,,,-5.97500000e-009,-4.16406335e-004
,,,-5.95000000e-009,-4.28906336e-004
,,,-5.92500000e-009,-4.40625087e-004
,,,-5.90000000e-009,-4.46093837e-004
,,,-5.87500000e-009,-4.42968837e-004
,,,-5.85000000e-009,-4.28125086e-004
,,,-5.82500000e-009,-4.00000084e-004
,,,-5.80000000e-009,-3.58593831e-004
,,,-5.77500000e-009,-3.07031328e-004
,,,-5.75000000e-009,-2.47656323e-004
,,,-5.72500000e-009,-1.85156319e-004
,,,-5.70000000e-009,-1.25000065e-004
,,,-5.67500000e-009,-7.10938109e-005
,,,-5.65000000e-009,-2.89063079e-005
,,,-5.62500000e-009,-5.58793550e-011
,,,-5.60000000e-009,9.37494478e-006
,,,-5.57500000e-009,3.12494434e-006
,,,-5.55000000e-009,-1.71875571e-005
,,,-5.52500000e-009,-4.84375593e-005
,,,-5.50000000e-009,-8.67188120e-005
,,,-5.47500000e-009,-1.27343815e-004
,,,-5.45000000e-009,-1.66406318e-004
,,,-5.42500000e-009,-2.00000070e-004
,,,-5.40000000e-009,-2.27343822e-004
,,,-5.37500000e-009,-2.43750073e-004
,,,-5.35000000e-009,-2.50781324e-004
,,,-5.32500000e-009,-2.48437573e-004
,,,-5.30000000e-009,-2.39843823e-004
,,,-5.27500000e-009,-2.27343822e-004
,,,-5.25000000e-009,-2.13281321e-004
,,,-5.22500000e-009,-2.00000070e-004
,,,-5.20000000e-009,-1.92187569e-004
,,,-5.17500000e-009,-1.87500069e-004
,,,-5.15000000e-009,-1.85937569e-004
,,,-5.12500000e-009,-1.87500069e-004
,,,-5.10000000e-009,-1.90625069e-004
,,,-5.07500000e-009,-1.94531320e-004
,,,-5.05000000e-009,-1.98437570e-004
,,,-5.02500000e-009,-2.00000070e-004
,,,-5.00000000e-009,-2.00781320e-004
,,,-4.97500000e-009,-1.98437570e-004
,,,-4.95000000e-009,-1.95312570e-004
,,,-4.92500000e-009,-1.91406319e-004
,,,-4.90000000e-009,-1.89843819e-004
,,,-4.87500000e-009,-1.89843819e-004
,,,-4.85000000e-009,-1.93750070e-004
,,,-4.82500000e-009,-2.00000070e-004
,,,-4.80000000e-009,-2.11718821e-004
,,,-4.77500000e-009,-2.24218822e-004
,,,-4.75000000e-009,-2.35937573e-004
,,,-4.72500000e-009,-2.43750073e-004
,,,-4.70000000e-009,-2.46093823e-004
,,,-4.67500000e-009,-2.39843823e-004
,,,-4.65000000e-009,-2.25000072e-004
,,,-4.62500000e-009,-2.00000070e-004
,,,-4.60000000e-009,-1.66406318e-004
,,,-4.57500000e-009,-1.27343815e-004
,,,-4.55000000e-009,-8.67188120e-005
,,,-4.52500000e-009,-4.92188094e-005
,,,-4.50000000e-009,-1.87500572e-005
,,,-4.47500000e-009,7.81194176e-007
,,,-4.45000000e-009,7.81244467e-006
,,,-4.42500000e-009,-5.58793550e-011
,,,-4.40000000e-009,-2.34375575e-005
,,,-4.37500000e-009,-5.70313099e-005
,,,-4.35000000e-009,-9.60938127e-005
,,,-4.32500000e-009,-1.36718816e-004
,,,-4.30000000e-009,-1.71093818e-004
,,,-4.27500000e-009,-1.95312570e-004
,,,-4.25000000e-009,-2.06250070e-004
,,,-4.22500000e-009,-2.00000070e-004
,,,-4.20000000e-009,-1.79687569e-004
,,,-4.17500000e-009,-1.46875066e-004
,,,-4.15000000e-009,-1.06250063e-004
,,,-4.12500000e-009,-6.32813104e-005
,,,-4.10000000e-009,-2.57813077e-005
,,,-4.07500000e-009,-5.58793550e-011
,,,-4.05000000e-009,9.37494478e-006
,,,-4.02500000e-009,-5.58793550e-011
,,,-4.00000000e-009,-3.43750583e-005
,,,-3.97500000e-009,-8.59375620e-005
,,,-3.95000000e-009,-1.50000066e-004
,,,-3.92500000e-009,-2.19531321e-004
,,,-3.90000000e-009,-2.85937576e-004
,,,-3.87500000e-009,-3.42968830e-004
,,,-3.85000000e-009,-3.82812583e-004
,,,-3.82500000e-009,-4.00000084e-004
,,,-3.80000000e-009,-3.92968834e-004
,,,-3.77500000e-009,-3.62500082e-004
,,,-3.75000000e-009,-3.12500078e-004
,,,-3.72500000e-009,-2.48437573e-004
,,,-3.70000000e-009,-1.78125068e-004
,,,-3.67500000e-009,-1.08593814e-004
,,,-3.65000000e-009,-4.76563093e-005
,,,-3.62500000e-009,-5.58793550e-011
,,,-3.60000000e-009,2.42186958e-005
,,,-3.57500000e-009,2.89061962e-005
,,,-3.55000000e-009,1.40624451e-005
,,,-3.52500000e-009,-1.64063070e-005
,,,-3.50000000e-009,-5.85938100e-005
,,,-3.47500000e-009,-1.06250063e-004
,,,-3.45000000e-009,-1.54687567e-004
,,,-3.42500000e-009,-2.00000070e-004
,,,-3.40000000e-009,-2.40625073e-004
,,,-3.37500000e-009,-2.73437575e-004
,,,-3.35000000e-009,-2.99218827e-004
,,,-3.32500000e-009,-3.20312579e-004
,,,-3.30000000e-009,-3.37500080e-004
,,,-3.27500000e-009,-3.55468831e-004
,,,-3.25000000e-009,-3.75781332e-004
,,,-3.22500000e-009,-4.00000084e-004
,,,-3.20000000e-009,-4.30468836e-004
,,,-3.17500000e-009,-4.64843839e-004
,,,-3.15000000e-009,-5.00781341e-004
,,,-3.12500000e-009,-5.35937594e-004
,,,-3.10000000e-009,-5.66406346e-004
,,,-3.07500000e-009,-5.89062598e-004
,,,-3.05000000e-009,-6.00781348e-004
,,,-3.02500000e-009,-6.00000098e-004
,,,-3.00000000e-009,-5.85156347e-004
,,,-2.97500000e-009,-5.59375095e-004
,,,-2.95000000e-009,-5.27343843e-004
,,,-2.92500000e-009,-4.91406341e-004
,,,-2.90000000e-009,-4.57812588e-004
,,,-2.87500000e-009,-4.28906336e-004
,,,-2.85000000e-009,-4.08593835e-004
,,,-2.82500000e-009,-4.00000084e-004
,,,-2.80000000e-009,-4.03125084e-004
,,,-2.77500000e-009,-4.18750086e-004
,,,-2.75000000e-009,-4.42968837e-004
,,,-2.72500000e-009,-4.75000090e-004
,,,-2.70000000e-009,-5.10156342e-004
,,,-2.67500000e-009,-5.44531344e-004
,,,-2.65000000e-009,-5.75781347e-004
,,,-2.62500000e-009,-6.00000098e-004
,,,-2.60000000e-009,-6.12500099e-004
,,,-2.57500000e-009,-6.17187600e-004
,,,-2.55000000e-009,-6.15625099e-004
,,,-2.52500000e-009,-6.09375099e-004
,,,-2.50000000e-009,-6.02343849e-004
,,,-2.47500000e-009,-5.96875098e-004
,,,-2.45000000e-009,-5.95312598e-004
,,,-2.42500000e-009,-6.00000098e-004
,,,-2.40000000e-009,-6.09375099e-004
,,,-2.37500000e-009,-6.26562600e-004
,,,-2.35000000e-009,-6.50781352e-004
,,,-2.32500000e-009,-6.80468854e-004
,,,-2.30000000e-009,-7.13281356e-004
,,,-2.27500000e-009,-7.46093859e-004
,,,-2.25000000e-009,-7.76562611e-004
,,,-2.22500000e-009,-8.00000113e-004
,,,-2.20000000e-009,-8.12500113e-004
,,,-2.17500000e-009,-8.14062613e-004
,,,-2.15000000e-009,-8.03906363e-004
,,,-2.12500000e-009,-7.82812611e-004
,,,-2.10000000e-009,-7.50781359e-004
,,,-2.07500000e-009,-7.08593856e-004
,,,-2.05000000e-009,-6.57812602e-004
,,,-2.02500000e-009,-6.00000098e-004
,,,-2.00000000e-009,-5.37500094e-004
,,,-1.97500000e-009,-4.73437589e-004
,,,-1.95000000e-009,-4.10937585e-004
,,,-1.92500000e-009,-3.53125081e-004
,,,-1.90000000e-009,-3.02343827e-004
,,,-1.87500000e-009,-2.58593824e-004
,,,-1.85000000e-009,-2.25000072e-004
,,,-1.82500000e-009,-2.00000070e-004
,,,-1.80000000e-009,-1.88281319e-004
,,,-1.77500000e-009,-1.84375069e-004
,,,-1.75000000e-009,-1.86718819e-004
,,,-1.72500000e-009,-1.92187569e-004
,,,-1.70000000e-009,-1.98437570e-004
,,,-1.67500000e-009,-2.02343820e-004
,,,-1.65000000e-009,-2.03906320e-004
,,,-1.62500000e-009,-2.00000070e-004
,,,-1.60000000e-009,-1.99218820e-004
,,,-1.57500000e-009,-1.94531320e-004
,,,-1.55000000e-009,-1.88281319e-004
,,,-1.52500000e-009,-1.82812569e-004
,,,-1.50000000e-009,-1.78906319e-004
,,,-1.47500000e-009,-1.79687569e-004
,,,-1.45000000e-009,-1.86718819e-004
,,,-1.42500000e-009,-2.00000070e-004
,,,-1.40000000e-009,-2.32031322e-004
,,,-1.37500000e-009,-2.69531325e-004
,,,-1.35000000e-009,-3.09375078e-004
,,,-1.32500000e-009,-3.47656330e-004
,,,-1.30000000e-009,-3.78906333e-004
,,,-1.27500000e-009,-4.00000084e-004
,,,-1.25000000e-009,-4.07812585e-004
,,,-1.22500000e-009,-4.00000084e-004
,,,-1.20000000e-009,-3.95312584e-004
,,,-1.17500000e-009,-3.79687583e-004
,,,-1.15000000e-009,-3.53906331e-004
,,,-1.12500000e-009,-3.21875079e-004
,,,-1.10000000e-009,-2.86718826e-004
,,,-1.07500000e-009,-2.52343824e-004
,,,-1.05000000e-009,-2.21875072e-004
,,,-1.02500000e-009,-2.00000070e-004
,,,-1.00000000e-009,-2.15625071e-004
,,,-9.75000000e-010,-2.46093823e-004
,,,-9.50000000e-010,-2.91406327e-004
,,,-9.25000000e-010,-3.46875080e-004
,,,-9.00000000e-010,-4.09375085e-004
,,,-8.75000000e-010,-4.74218839e-004
,,,-8.50000000e-010,-5.39062594e-004
,,,-8.25000000e-010,-6.00000098e-004
,,,-8.00000000e-010,-6.80468854e-004
,,,-7.75000000e-010,-7.58593860e-004
,,,-7.50000000e-010,-8.35156365e-004
,,,-7.25000000e-010,-9.10156370e-004
,,,-7.00000000e-010,-9.82031375e-004
,,,-6.75000000e-010,-1.05312513e-003
,,,-6.50000000e-010,-1.12578139e-003
,,,-6.25000000e-010,-1.20000014e-003
,,,-6.00000000e-010,-1.29843765e-003
,,,-5.75000000e-010,-1.40625016e-003
,,,-5.50000000e-010,-1.52265641e-003
,,,-5.25000000e-010,-1.64843767e-003
,,,-5.00000000e-010,-1.77968768e-003
,,,-4.75000000e-010,-1.91640644e-003
,,,-4.50000000e-010,-2.05703145e-003
,,,-4.25000000e-010,-2.20000021e-003
,,,-4.00000000e-010,-2.35468772e-003
,,,-3.75000000e-010,-2.51640648e-003
,,,-3.50000000e-010,-2.68359400e-003
,,,-3.25000000e-010,-2.85703151e-003
,,,-3.00000000e-010,-3.03593777e-003
,,,-2.75000000e-010,-3.22031278e-003
,,,-2.50000000e-010,-3.40859405e-003
,,,-2.25000000e-010,-3.60000031e-003
,,,-2.00000000e-010,-3.78437532e-003
,,,-1.75000000e-010,-3.97109409e-003
,,,-1.50000000e-010,-4.15703160e-003
,,,-1.25000000e-010,-4.34062536e-003
,,,-1.00000000e-010,-4.52031288e-003
,,,-7.50000000e-011,-4.69140664e-003
,,,-5.00000000e-011,-4.85234415e-003
,,,-2.50000000e-011,-5.00000041e-003
,,,0.00000000e+000,-5.10781292e-003
,,,2.50000000e-011,-5.20234417e-003
,,,5.00000000e-011,-5.28671918e-003
,,,7.50000000e-011,-5.36250044e-003
,,,1.00000000e-010,-5.43046919e-003
,,,1.25000000e-010,-5.49218794e-003
,,,1.50000000e-010,-5.54921920e-003
,,,1.75000000e-010,-5.60000045e-003
,,,2.00000000e-010,-5.61718795e-003
,,,2.25000000e-010,-5.63437545e-003
,,,2.50000000e-010,-5.65468796e-003
,,,2.75000000e-010,-5.67890671e-003
,,,3.00000000e-010,-5.70703171e-003
,,,3.25000000e-010,-5.73750046e-003
,,,3.50000000e-010,-5.76953171e-003
,,,3.75000000e-010,-5.80000047e-003
,,,4.00000000e-010,-5.79375047e-003
,,,4.25000000e-010,-5.78359422e-003
,,,4.50000000e-010,-5.76953171e-003
,,,4.75000000e-010,-5.75156296e-003
,,,5.00000000e-010,-5.72734421e-003
,,,5.25000000e-010,-5.69531296e-003
,,,5.50000000e-010,-5.65390671e-003
,,,5.75000000e-010,-5.60000045e-003
,,,6.00000000e-010,-5.50312545e-003
,,,6.25000000e-010,-5.39531294e-003
,,,6.50000000e-010,-5.27734418e-003
,,,6.75000000e-010,-5.15156292e-003
,,,7.00000000e-010,-5.01875041e-003
,,,7.25000000e-010,-4.88203165e-003
,,,7.50000000e-010,-4.74218789e-003
,,,7.75000000e-010,-4.60000038e-003
,,,8.00000000e-010,-4.44453162e-003
,,,8.25000000e-010,-4.29375036e-003
,,,8.50000000e-010,-4.14921910e-003
,,,8.75000000e-010,-4.01484409e-003
,,,9.00000000e-010,-3.89140658e-003
,,,9.25000000e-010,-3.78125032e-003
,,,9.50000000e-010,-3.68437532e-003
,,,9.75000000e-010,-3.60000031e-003
,,,1.00000000e-009,-3.52734406e-003
,,,1.02500000e-009,-3.46484405e-003
,,,1.05000000e-009,-3.40937530e-003
,,,1.07500000e-009,-3.36171904e-003
,,,1.10000000e-009,-3.31796904e-003
,,,1.12500000e-009,-3.27812529e-003
,,,1.15000000e-009,-3.23984404e-003
,,,1.17500000e-009,-3.20000028e-003
,,,1.20000000e-009,-3.16093778e-003
,,,1.22500000e-009,-3.11250028e-003
,,,1.25000000e-009,-3.05390652e-003
,,,1.27500000e-009,-2.98281277e-003
,,,1.30000000e-009,-2.90078151e-003
,,,1.32500000e-009,-2.80781275e-003
,,,1.35000000e-009,-2.70703150e-003
,,,1.37500000e-009,-2.60000024e-003
,,,1.40000000e-009,-2.50078148e-003
,,,1.42500000e-009,-2.39921898e-003
,,,1.45000000e-009,-2.30078147e-003
,,,1.47500000e-009,-2.20937521e-003
,,,1.50000000e-009,-2.13046896e-003
,,,1.52500000e-009,-2.06718770e-003
,,,1.55000000e-009,-2.02343770e-003
,,,1.57500000e-009,-2.00000020e-003
,,,1.60000000e-009,-2.01015645e-003
,,,1.62500000e-009,-2.03359395e-003
,,,1.65000000e-009,-2.06562520e-003
,,,1.67500000e-009,-2.10156270e-003
,,,1.70000000e-009,-2.13671896e-003
,,,1.72500000e-009,-2.16718771e-003
,,,1.75000000e-009,-2.18906271e-003
,,,1.77500000e-009,-2.20000021e-003
,,,1.80000000e-009,-2.20546896e-003
,,,1.82500000e-009,-2.19531271e-003
,,,1.85000000e-009,-2.17187521e-003
,,,1.87500000e-009,-2.13906271e-003
,,,1.90000000e-009,-2.10078145e-003
,,,1.92500000e-009,-2.06171895e-003
,,,1.95000000e-009,-2.02734395e-003
,,,1.97500000e-009,-2.00000020e-003
,,,2.00000000e-009,-1.98671895e-003
,,,2.02500000e-009,-1.98046895e-003
,,,2.05000000e-009,-1.98125020e-003
,,,2.07500000e-009,-1.98671895e-003
,,,2.10000000e-009,-1.99375020e-003
,,,2.12500000e-009,-2.00000020e-003
,,,2.15000000e-009,-2.00312520e-003
,,,2.17500000e-009,-2.00000020e-003
,,,2.20000000e-009,-1.99140645e-003
,,,2.22500000e-009,-1.97265645e-003
,,,2.25000000e-009,-1.94687519e-003
,,,2.27500000e-009,-1.91562519e-003
,,,2.30000000e-009,-1.88203144e-003
,,,2.32500000e-009,-1.85000019e-003
,,,2.35000000e-009,-1.82187518e-003
,,,2.37500000e-009,-1.80000018e-003
,,,2.40000000e-009,-1.78671893e-003
,,,2.42500000e-009,-1.77890643e-003
,,,2.45000000e-009,-1.77812518e-003
,,,2.47500000e-009,-1.78125018e-003
,,,2.50000000e-009,-1.78750018e-003
,,,2.52500000e-009,-1.79453143e-003
,,,2.55000000e-009,-1.79921893e-003
,,,2.57500000e-009,-1.80000018e-003
,,,2.60000000e-009,-1.79296893e-003
,,,2.62500000e-009,-1.77890643e-003
,,,2.65000000e-009,-1.75859393e-003
,,,2.67500000e-009,-1.73203143e-003
,,,2.70000000e-009,-1.70156268e-003
,,,2.72500000e-009,-1.66796892e-003
,,,2.75000000e-009,-1.63359392e-003
,,,2.77500000e-009,-1.60000017e-003
,,,2.80000000e-009,-1.56718767e-003
,,,2.82500000e-009,-1.53593766e-003
,,,2.85000000e-009,-1.50703141e-003
,,,2.87500000e-009,-1.48046891e-003
,,,2.90000000e-009,-1.45703141e-003
,,,2.92500000e-009,-1.43671891e-003
,,,2.95000000e-009,-1.41796891e-003
,,,2.97500000e-009,-1.40000015e-003
,,,3.00000000e-009,-1.38203140e-003
,,,3.02500000e-009,-1.36250015e-003
,,,3.05000000e-009,-1.34062515e-003
,,,3.07500000e-009,-1.31640640e-003
,,,3.10000000e-009,-1.29062515e-003
,,,3.12500000e-009,-1.26171890e-003
,,,3.15000000e-009,-1.23203139e-003
,,,3.17500000e-009,-1.20000014e-003
,,,3.20000000e-009,-1.17031264e-003
,,,3.22500000e-009,-1.13906264e-003
,,,3.25000000e-009,-1.10859388e-003
,,,3.27500000e-009,-1.07968763e-003
,,,3.30000000e-009,-1.05390638e-003
,,,3.32500000e-009,-1.03125013e-003
,,,3.35000000e-009,-1.01328138e-003
,,,3.37500000e-009,-1.00000013e-003
,,,3.40000000e-009,-9.93750126e-004
,,,3.42500000e-009,-9.90625126e-004
,,,3.45000000e-009,-9.89843876e-004
,,,3.47500000e-009,-9.92187626e-004
,,,3.50000000e-009,-9.94531376e-004
,,,3.52500000e-009,-9.98437627e-004
,,,3.55000000e-009,-1.00000013e-003
,,,3.57500000e-009,-1.00000013e-003
,,,3.60000000e-009,-1.00000013e-003
,,,3.62500000e-009,-9.93750126e-004
,,,3.65000000e-009,-9.79687625e-004
,,,3.67500000e-009,-9.58593874e-004
,,,3.70000000e-009,-9.28906372e-004
,,,3.72500000e-009,-8.92187619e-004
,,,3.75000000e-009,-8.48437616e-004
,,,3.77500000e-009,-8.00000113e-004
,,,3.80000000e-009,-7.53125109e-004
,,,3.82500000e-009,-7.07031356e-004
,,,3.85000000e-009,-6.64062603e-004
,,,3.87500000e-009,-6.28125100e-004
,,,3.90000000e-009,-6.01562598e-004
,,,3.92500000e-009,-5.87500097e-004
,,,3.95000000e-009,-5.87500097e-004
,,,3.97500000e-009,-6.00000098e-004
,,,4.00000000e-009,-6.30468851e-004
,,,4.02500000e-009,-6.67968853e-004
,,,4.05000000e-009,-7.08593856e-004
,,,4.07500000e-009,-7.47656359e-004
,,,4.10000000e-009,-7.79687611e-004
,,,4.12500000e-009,-8.00781363e-004
,,,4.15000000e-009,-8.08593863e-004
,,,4.17500000e-009,-8.00000113e-004
,,,4.20000000e-009,-7.80468861e-004
,,,4.22500000e-009,-7.48437609e-004
,,,4.25000000e-009,-7.09375106e-004
,,,4.27500000e-009,-6.67968853e-004
,,,4.30000000e-009,-6.31250101e-004
,,,4.32500000e-009,-6.04687599e-004
,,,4.35000000e-009,-5.93750098e-004
,,,4.37500000e-009,-6.00000098e-004
,,,4.40000000e-009,-6.28906350e-004
,,,4.42500000e-009,-6.74218854e-004
,,,4.45000000e-009,-7.31250108e-004
,,,4.47500000e-009,-7.96093862e-004
,,,4.50000000e-009,-8.61718867e-004
,,,4.52500000e-009,-9.21093871e-004
,,,4.55000000e-009,-9.68750124e-004
,,,4.57500000e-009,-1.00000013e-003
,,,4.60000000e-009,-1.01250013e-003
,,,4.62500000e-009,-1.00625013e-003
,,,4.65000000e-009,-9.82812625e-004
,,,4.67500000e-009,-9.48437623e-004
,,,4.70000000e-009,-9.07031370e-004
,,,4.72500000e-009,-8.64843867e-004
,,,4.75000000e-009,-8.27343864e-004
,,,4.77500000e-009,-8.00000113e-004
,,,4.80000000e-009,-7.85156361e-004
,,,4.82500000e-009,-7.84375111e-004
,,,4.85000000e-009,-7.98437612e-004
,,,4.87500000e-009,-8.25781364e-004
,,,4.90000000e-009,-8.64062617e-004
,,,4.92500000e-009,-9.08593870e-004
,,,4.95000000e-009,-9.55468874e-004
,,,4.97500000e-009,-1.00000013e-003
,,,5.00000000e-009,-1.03437513e-003
,,,5.02500000e-009,-1.05937513e-003
,,,5.05000000e-009,-1.07343763e-003
,,,5.07500000e-009,-1.07734388e-003
,,,5.10000000e-009,-1.07031263e-003
,,,5.12500000e-009,-1.05390638e-003
,,,5.15000000e-009,-1.02968763e-003
,,,5.17500000e-009,-1.00000013e-003
,,,5.20000000e-009,-9.64843874e-004
,,,5.22500000e-009,-9.28906372e-004
,,,5.25000000e-009,-8.94531369e-004
,,,5.27500000e-009,-8.64062617e-004
,,,5.30000000e-009,-8.39062615e-004
,,,5.32500000e-009,-8.19531364e-004
,,,5.35000000e-009,-8.07031363e-004
,,,5.37500000e-009,-8.00000113e-004
,,,5.40000000e-009,-7.96093862e-004
,,,5.42500000e-009,-7.96093862e-004
,,,5.45000000e-009,-8.00000113e-004
,,,5.47500000e-009,-8.04687613e-004
,,,5.50000000e-009,-8.09375113e-004
,,,5.52500000e-009,-8.10937613e-004
,,,5.55000000e-009,-8.09375113e-004
,,,5.57500000e-009,-8.00000113e-004
,,,5.60000000e-009,-7.82812611e-004
,,,5.62500000e-009,-7.54687609e-004
,,,5.65000000e-009,-7.17187607e-004
,,,5.67500000e-009,-6.68750103e-004
,,,5.70000000e-009,-6.10937599e-004
,,,5.72500000e-009,-5.45312594e-004
,,,5.75000000e-009,-4.74218839e-004
,,,5.77500000e-009,-4.00000084e-004
,,,5.80000000e-009,-3.28125079e-004
,,,5.82500000e-009,-2.61718824e-004
