RawData/CosmicRays/R7_2pt2B_15mV/wave003_Ch2.csv

"Record Length",1000,"Points",-7.72500000e-009,-4.06250029e-005
"Sample Interval",2.50000000e-011,s,-7.70000000e-009,-5.15625036e-005
"Trigger Point",309,"Samples",-7.67500000e-009,-5.62500040e-005
"Trigger Time",3.41770554e-012,s,-7.65000000e-009,-5.00000035e-005
"",,,-7.62500000e-009,-3.90625028e-005
"Horizontal Offset",-7.72500000e-009,s,-7.60000000e-009,-2.03125014e-005
,,,-7.57500000e-009,0.00000000e+000
,,,-7.55000000e-009,2.34375017e-005
,,,-7.52500000e-009,4.53125032e-005
,,,-7.50000000e-009,6.25000044e-005
,,,-7.47500000e-009,7.18750051e-005
,,,-7.45000000e-009,7.03125050e-005
,,,-7.42500000e-009,5.62500040e-005
,,,-7.40000000e-009,3.28125023e-005
,,,-7.37500000e-009,0.00000000e+000
,,,-7.35000000e-009,-3.59375025e-005
,,,-7.32500000e-009,-7.34375052e-005
,,,-7.30000000e-009,-1.04687507e-004
,,,-7.27500000e-009,-1.25000009e-004
,,,-7.25000000e-009,-1.28125009e-004
,,,-7.22500000e-009,-1.10937508e-004
,,,-7.20000000e-009,-6.71875048e-005
,,,-7.17500000e-009,0.00000000e+000
,,,-7.15000000e-009,8.90625063e-005
,,,-7.12500000e-009,1.96875014e-004
,,,-7.10000000e-009,3.17187522e-004
,,,-7.07500000e-009,4.40625031e-004
,,,-7.05000000e-009,5.57812539e-004
,,,-7.02500000e-009,6.62500047e-004
,,,-7.00000000e-009,7.43750053e-004
,,,-6.97500000e-009,8.00000057e-004
,,,-6.95000000e-009,8.17187558e-004
,,,-6.92500000e-009,8.03125057e-004
,,,-6.90000000e-009,7.64062554e-004
,,,-6.87500000e-009,7.03125050e-004
,,,-6.85000000e-009,6.28125044e-004
,,,-6.82500000e-009,5.48437539e-004
,,,-6.80000000e-009,4.68750033e-004
,,,-6.77500000e-009,4.00000028e-004
,,,-6.75000000e-009,3.40625024e-004
,,,-6.72500000e-009,3.00000021e-004
,,,-6.70000000e-009,2.79687520e-004
,,,-6.67500000e-009,2.79687520e-004
,,,-6.65000000e-009,2.95312521e-004
,,,-6.62500000e-009,3.23437523e-004
,,,-6.60000000e-009,3.59375025e-004
,,,-6.57500000e-009,4.00000028e-004
,,,-6.55000000e-009,4.32812531e-004
,,,-6.52500000e-009,4.60937533e-004
,,,-6.50000000e-009,4.79687534e-004
,,,-6.47500000e-009,4.87500035e-004
,,,-6.45000000e-009,4.82812534e-004
,,,-6.42500000e-009,4.67187533e-004
,,,-6.40000000e-009,4.37500031e-004
,,,-6.37500000e-009,4.00000028e-004
,,,-6.35000000e-009,3.48437525e-004
,,,-6.32500000e-009,2.92187521e-004
,,,-6.30000000e-009,2.34375017e-004
,,,-6.27500000e-009,1.76562512e-004
,,,-6.25000000e-009,1.23437509e-004
,,,-6.22500000e-009,7.34375052e-005
,,,-6.20000000e-009,3.28125023e-005
,,,-6.17500000e-009,0.00000000e+000
,,,-6.15000000e-009,-2.03125014e-005
,,,-6.12500000e-009,-3.28125023e-005
,,,-6.10000000e-009,-3.59375025e-005
,,,-6.07500000e-009,-3.28125023e-005
,,,-6.05000000e-009,-2.65625019e-005
,,,-6.02500000e-009,-1.71875012e-005
,,,-6.00000000e-009,-6.25000044e-006
,,,-5.97500000e-009,0.00000000e+000
,,,-5.95000000e-009,7.81250055e-006
,,,-5.92500000e-009,1.09375008e-005
,,,-5.90000000e-009,1.09375008e-005
,,,-5.87500000e-009,7.81250055e-006
,,,-5.85000000e-009,3.12500022e-006
,,,-5.82500000e-009,0.00000000e+000
,,,-5.80000000e-009,0.00000000e+000
,,,-5.77500000e-009,0.00000000e+000
,,,-5.75000000e-009,7.81250055e-006
,,,-5.72500000e-009,1.87500013e-005
,,,-5.70000000e-009,2.96875021e-005
,,,-5.67500000e-009,3.75000027e-005
,,,-5.65000000e-009,3.90625028e-005
,,,-5.62500000e-009,3.43750024e-005
,,,-5.60000000e-009,2.03125014e-005
,,,-5.57500000e-009,0.00000000e+000
,,,-5.55000000e-009,-2.34375017e-005
,,,-5.52500000e-009,-4.84375034e-005
,,,-5.50000000e-009,-7.18750051e-005
,,,-5.47500000e-009,-8.75000062e-005
,,,-5.45000000e-009,-9.21875065e-005
,,,-5.42500000e-009,-7.96875056e-005
,,,-5.40000000e-009,-4.84375034e-005
,,,-5.37500000e-009,0.00000000e+000
,,,-5.35000000e-009,6.87500049e-005
,,,-5.32500000e-009,1.46875010e-004
,,,-5.30000000e-009,2.28125016e-004
,,,-5.27500000e-009,3.03125021e-004
,,,-5.25000000e-009,3.64062526e-004
,,,-5.22500000e-009,4.03125029e-004
,,,-5.20000000e-009,4.15625029e-004
,,,-5.17500000e-009,4.00000028e-004
,,,-5.15000000e-009,3.51562525e-004
,,,-5.12500000e-009,2.82812520e-004
,,,-5.10000000e-009,2.01562514e-004
,,,-5.07500000e-009,1.20312509e-004
,,,-5.05000000e-009,5.00000035e-005
,,,-5.02500000e-009,0.00000000e+000
,,,-5.00000000e-009,-1.71875012e-005
,,,-4.97500000e-009,0.00000000e+000
,,,-4.95000000e-009,5.46875039e-005
,,,-4.92500000e-009,1.42187510e-004
,,,-4.90000000e-009,2.56250018e-004
,,,-4.87500000e-009,3.84375027e-004
,,,-4.85000000e-009,5.14062536e-004
,,,-4.82500000e-009,6.34375045e-004
,,,-4.80000000e-009,7.31250052e-004
,,,-4.77500000e-009,8.00000057e-004
,,,-4.75000000e-009,8.23437558e-004
,,,-4.72500000e-009,8.12500058e-004
,,,-4.70000000e-009,7.70312555e-004
,,,-4.67500000e-009,7.03125050e-004
,,,-4.65000000e-009,6.23437544e-004
,,,-4.62500000e-009,5.39062538e-004
,,,-4.60000000e-009,4.62500033e-004
,,,-4.57500000e-009,4.00000028e-004
,,,-4.55000000e-009,3.54687525e-004
,,,-4.52500000e-009,3.32812524e-004
,,,-4.50000000e-009,3.29687523e-004
,,,-4.47500000e-009,3.42187524e-004
,,,-4.45000000e-009,3.64062526e-004
,,,-4.42500000e-009,3.84375027e-004
,,,-4.40000000e-009,3.98437528e-004
,,,-4.37500000e-009,4.00000028e-004
,,,-4.35000000e-009,3.79687527e-004
,,,-4.32500000e-009,3.43750024e-004
,,,-4.30000000e-009,2.93750021e-004
,,,-4.27500000e-009,2.31250016e-004
,,,-4.25000000e-009,1.65625012e-004
,,,-4.22500000e-009,1.01562507e-004
,,,-4.20000000e-009,4.37500031e-005
,,,-4.17500000e-009,0.00000000e+000
,,,-4.15000000e-009,-2.81250020e-005
,,,-4.12500000e-009,-4.21875030e-005
,,,-4.10000000e-009,-4.37500031e-005
,,,-4.07500000e-009,-3.59375025e-005
,,,-4.05000000e-009,-2.34375017e-005
,,,-4.02500000e-009,-1.09375008e-005
,,,-4.00000000e-009,-1.56250011e-006
,,,-3.97500000e-009,0.00000000e+000
,,,-3.95000000e-009,-1.56250011e-006
,,,-3.92500000e-009,-9.37500066e-006
,,,-3.90000000e-009,-2.18750015e-005
,,,-3.87500000e-009,-3.28125023e-005
,,,-3.85000000e-009,-4.06250029e-005
,,,-3.82500000e-009,-3.90625028e-005
,,,-3.80000000e-009,-2.65625019e-005
,,,-3.77500000e-009,0.00000000e+000
,,,-3.75000000e-009,4.53125032e-005
,,,-3.72500000e-009,1.01562507e-004
,,,-3.70000000e-009,1.65625012e-004
,,,-3.67500000e-009,2.29687516e-004
,,,-3.65000000e-009,2.90625021e-004
,,,-3.62500000e-009,3.42187524e-004
,,,-3.60000000e-009,3.79687527e-004
,,,-3.57500000e-009,4.00000028e-004
,,,-3.55000000e-009,4.00000028e-004
,,,-3.52500000e-009,3.79687527e-004
,,,-3.50000000e-009,3.39062524e-004
,,,-3.47500000e-009,2.84375020e-004
,,,-3.45000000e-009,2.17187515e-004
,,,-3.42500000e-009,1.43750010e-004
,,,-3.40000000e-009,7.03125050e-005
,,,-3.37500000e-009,0.00000000e+000
,,,-3.35000000e-009,-5.78125041e-005
,,,-3.32500000e-009,-1.03125007e-004
,,,-3.30000000e-009,-1.31250009e-004
,,,-3.27500000e-009,-1.40625010e-004
,,,-3.25000000e-009,-1.31250009e-004
,,,-3.22500000e-009,-1.03125007e-004
,,,-3.20000000e-009,-5.78125041e-005
,,,-3.17500000e-009,0.00000000e+000
,,,-3.15000000e-009,6.71875048e-005
,,,-3.12500000e-009,1.39062510e-004
,,,-3.10000000e-009,2.09375015e-004
,,,-3.07500000e-009,2.73437519e-004
,,,-3.05000000e-009,3.26562523e-004
,,,-3.02500000e-009,3.65625026e-004
,,,-3.00000000e-009,3.90625028e-004
,,,-2.97500000e-009,4.00000028e-004
,,,-2.95000000e-009,3.90625028e-004
,,,-2.92500000e-009,3.73437526e-004
,,,-2.90000000e-009,3.53125025e-004
,,,-2.87500000e-009,3.35937524e-004
,,,-2.85000000e-009,3.26562523e-004
,,,-2.82500000e-009,3.32812524e-004
,,,-2.80000000e-009,3.56250025e-004
,,,-2.77500000e-009,4.00000028e-004
,,,-2.75000000e-009,4.57812532e-004
,,,-2.72500000e-009,5.29687537e-004
,,,-2.70000000e-009,6.07812543e-004
,,,-2.67500000e-009,6.84375048e-004
,,,-2.65000000e-009,7.48437553e-004
,,,-2.62500000e-009,7.93750056e-004
,,,-2.60000000e-009,8.12500058e-004
,,,-2.57500000e-009,8.00000057e-004
,,,-2.55000000e-009,7.46875053e-004
,,,-2.52500000e-009,6.65625047e-004
,,,-2.50000000e-009,5.60937540e-004
,,,-2.47500000e-009,4.40625031e-004
,,,-2.45000000e-009,3.14062522e-004
,,,-2.42500000e-009,1.93750014e-004
,,,-2.40000000e-009,8.59375061e-005
,,,-2.37500000e-009,0.00000000e+000
,,,-2.35000000e-009,-5.62500040e-005
,,,-2.32500000e-009,-8.59375061e-005
,,,-2.30000000e-009,-9.21875065e-005
,,,-2.27500000e-009,-7.96875056e-005
,,,-2.25000000e-009,-5.62500040e-005
,,,-2.22500000e-009,-3.12500022e-005
,,,-2.20000000e-009,-1.09375008e-005
,,,-2.17500000e-009,0.00000000e+000
,,,-2.15000000e-009,1.56250011e-006
,,,-2.12500000e-009,-6.25000044e-006
,,,-2.10000000e-009,-2.18750015e-005
,,,-2.07500000e-009,-3.75000027e-005
,,,-2.05000000e-009,-5.00000035e-005
,,,-2.02500000e-009,-5.00000035e-005
,,,-2.00000000e-009,-3.43750024e-005
,,,-1.97500000e-009,0.00000000e+000
,,,-1.95000000e-009,5.46875039e-005
,,,-1.92500000e-009,1.23437509e-004
,,,-1.90000000e-009,1.98437514e-004
,,,-1.87500000e-009,2.73437519e-004
,,,-1.85000000e-009,3.37500024e-004
,,,-1.82500000e-009,3.84375027e-004
,,,-1.80000000e-009,4.06250029e-004
,,,-1.77500000e-009,4.00000028e-004
,,,-1.75000000e-009,3.62500026e-004
,,,-1.72500000e-009,3.03125021e-004
,,,-1.70000000e-009,2.29687516e-004
,,,-1.67500000e-009,1.50000011e-004
,,,-1.65000000e-009,7.65625054e-005
,,,-1.62500000e-009,2.18750015e-005
,,,-1.60000000e-009,-4.68750033e-006
,,,-1.57500000e-009,0.00000000e+000
,,,-1.55000000e-009,3.75000027e-005
,,,-1.52500000e-009,1.07812508e-004
,,,-1.50000000e-009,2.06250015e-004
,,,-1.47500000e-009,3.23437523e-004
,,,-1.45000000e-009,4.53125032e-004
,,,-1.42500000e-009,5.82812541e-004
,,,-1.40000000e-009,7.01562550e-004
,,,-1.37500000e-009,8.00000057e-004
,,,-1.35000000e-009,8.39062559e-004
,,,-1.32500000e-009,8.42187560e-004
,,,-1.30000000e-009,8.12500058e-004
,,,-1.27500000e-009,7.54687553e-004
,,,-1.25000000e-009,6.75000048e-004
,,,-1.22500000e-009,5.84375041e-004
,,,-1.20000000e-009,4.90625035e-004
,,,-1.17500000e-009,4.00000028e-004
,,,-1.15000000e-009,2.67187519e-004
,,,-1.12500000e-009,1.46875010e-004
,,,-1.10000000e-009,4.68750033e-005
,,,-1.07500000e-009,-2.65625019e-005
,,,-1.05000000e-009,-7.03125050e-005
,,,-1.02500000e-009,-7.81250055e-005
,,,-1.00000000e-009,-5.31250038e-005
,,,-9.75000000e-010,0.00000000e+000
,,,-9.50000000e-010,0.00000000e+000
,,,-9.25000000e-010,0.00000000e+000
,,,-9.00000000e-010,3.12500022e-006
,,,-8.75000000e-010,6.25000044e-006
,,,-8.50000000e-010,1.09375008e-005
,,,-8.25000000e-010,1.25000009e-005
,,,-8.00000000e-010,1.09375008e-005
,,,-7.75000000e-010,0.00000000e+000
,,,-7.50000000e-010,-1.39062510e-004
,,,-7.25000000e-010,-3.12500022e-004
,,,-7.00000000e-010,-5.12500036e-004
,,,-6.75000000e-010,-7.29687552e-004
,,,-6.50000000e-010,-9.53125067e-004
,,,-6.25000000e-010,-1.17500008e-003
,,,-6.00000000e-010,-1.38906260e-003
,,,-5.75000000e-010,-1.60000011e-003
,,,-5.50000000e-010,-1.92968764e-003
,,,-5.25000000e-010,-2.28437516e-003
,,,-5.00000000e-010,-2.65937519e-003
,,,-4.75000000e-010,-3.05312522e-003
,,,-4.50000000e-010,-3.46250025e-003
,,,-4.25000000e-010,-3.88906278e-003
,,,-4.00000000e-010,-4.33437531e-003
,,,-3.75000000e-010,-4.80000034e-003
,,,-3.50000000e-010,-5.38906288e-003
,,,-3.25000000e-010,-6.01875043e-003
,,,-3.00000000e-010,-6.67968797e-003
,,,-2.75000000e-010,-7.35781302e-003
,,,-2.50000000e-010,-8.03906307e-003
,,,-2.25000000e-010,-8.70937562e-003
,,,-2.00000000e-010,-9.36406316e-003
,,,-1.75000000e-010,-1.00000007e-002
,,,-1.50000000e-010,-1.06750008e-002
,,,-1.25000000e-010,-1.13625008e-002
,,,-1.00000000e-010,-1.20671884e-002
,,,-7.50000000e-011,-1.27921884e-002
,,,-5.00000000e-011,-1.35437510e-002
,,,-2.50000000e-011,-1.43265635e-002
,,,0.00000000e+000,-1.51437511e-002
,,,2.50000000e-011,-1.60000011e-002
,,,5.00000000e-011,-1.68984387e-002
,,,7.50000000e-011,-1.78437513e-002
,,,1.00000000e-010,-1.88265638e-002
,,,1.25000000e-010,-1.98281264e-002
,,,1.50000000e-010,-2.08265640e-002
,,,1.75000000e-010,-2.18000015e-002
,,,2.00000000e-010,-2.27296891e-002
,,,2.25000000e-010,-2.36000017e-002
,,,2.50000000e-010,-2.43359392e-002
,,,2.75000000e-010,-2.50250018e-002
,,,3.00000000e-010,-2.56703143e-002
,,,3.25000000e-010,-2.62781269e-002
,,,3.50000000e-010,-2.68515644e-002
,,,3.75000000e-010,-2.73953144e-002
,,,4.00000000e-010,-2.79109395e-002
,,,4.25000000e-010,-2.84000020e-002
,,,4.50000000e-010,-2.87562520e-002
,,,4.75000000e-010,-2.91109396e-002
,,,5.00000000e-010,-2.94609396e-002
,,,5.25000000e-010,-2.98000021e-002
,,,5.50000000e-010,-3.01156271e-002
,,,5.75000000e-010,-3.03953147e-002
,,,6.00000000e-010,-3.06265647e-002
,,,6.25000000e-010,-3.08000022e-002
,,,6.50000000e-010,-3.07921897e-002
,,,6.75000000e-010,-3.07593772e-002
,,,7.00000000e-010,-3.07171897e-002
,,,7.25000000e-010,-3.06812522e-002
,,,7.50000000e-010,-3.06640647e-002
,,,7.75000000e-010,-3.06734397e-002
,,,8.00000000e-010,-3.07187522e-002
,,,8.25000000e-010,-3.08000022e-002
,,,8.50000000e-010,-3.08000022e-002
,,,8.75000000e-010,-3.08515647e-002
,,,9.00000000e-010,-3.09484397e-002
,,,9.25000000e-010,-3.10781272e-002
,,,9.50000000e-010,-3.12265647e-002
,,,9.75000000e-010,-3.13750022e-002
,,,1.00000000e-009,-3.15046897e-002
,,,1.02500000e-009,-3.16000022e-002
,,,1.05000000e-009,-3.15281272e-002
,,,1.07500000e-009,-3.14156272e-002
,,,1.10000000e-009,-3.12703147e-002
,,,1.12500000e-009,-3.11015647e-002
,,,1.15000000e-009,-3.09218772e-002
,,,1.17500000e-009,-3.07406272e-002
,,,1.20000000e-009,-3.05640647e-002
,,,1.22500000e-009,-3.04000022e-002
,,,1.25000000e-009,-3.01546896e-002
,,,1.27500000e-009,-2.99250021e-002
,,,1.30000000e-009,-2.97125021e-002
,,,1.32500000e-009,-2.95156271e-002
,,,1.35000000e-009,-2.93328146e-002
,,,1.37500000e-009,-2.91562521e-002
,,,1.40000000e-009,-2.89812521e-002
,,,1.42500000e-009,-2.88000020e-002
,,,1.45000000e-009,-2.85281270e-002
,,,1.47500000e-009,-2.82343770e-002
,,,1.50000000e-009,-2.79234395e-002
,,,1.52500000e-009,-2.76046895e-002
,,,1.55000000e-009,-2.72859394e-002
,,,1.57500000e-009,-2.69750019e-002
,,,1.60000000e-009,-2.66796894e-002
,,,1.62500000e-009,-2.64000019e-002
,,,1.65000000e-009,-2.60765643e-002
,,,1.67500000e-009,-2.57515643e-002
,,,1.70000000e-009,-2.54203143e-002
,,,1.72500000e-009,-2.50812518e-002
,,,1.75000000e-009,-2.47343768e-002
,,,1.77500000e-009,-2.43734392e-002
,,,1.80000000e-009,-2.39953142e-002
,,,1.82500000e-009,-2.36000017e-002
,,,1.85000000e-009,-2.31390641e-002
,,,1.87500000e-009,-2.26453141e-002
,,,1.90000000e-009,-2.21265641e-002
,,,1.92500000e-009,-2.15953140e-002
,,,1.95000000e-009,-2.10656265e-002
,,,1.97500000e-009,-2.05500015e-002
,,,2.00000000e-009,-2.00593764e-002
,,,2.02500000e-009,-1.96000014e-002
,,,2.05000000e-009,-1.91578139e-002
,,,2.07500000e-009,-1.87296888e-002
,,,2.10000000e-009,-1.83156263e-002
,,,2.12500000e-009,-1.79140638e-002
,,,2.15000000e-009,-1.75234387e-002
,,,2.17500000e-009,-1.71421887e-002
,,,2.20000000e-009,-1.67687512e-002
,,,2.22500000e-009,-1.64000012e-002
,,,2.25000000e-009,-1.60312511e-002
,,,2.27500000e-009,-1.56406261e-002
,,,2.30000000e-009,-1.52328136e-002
,,,2.32500000e-009,-1.48125010e-002
,,,2.35000000e-009,-1.43890635e-002
,,,2.37500000e-009,-1.39734385e-002
,,,2.40000000e-009,-1.35750010e-002
,,,2.42500000e-009,-1.32000009e-002
,,,2.45000000e-009,-1.28703134e-002
,,,2.47500000e-009,-1.25468759e-002
,,,2.50000000e-009,-1.22328134e-002
,,,2.52500000e-009,-1.19265633e-002
,,,2.55000000e-009,-1.16296883e-002
,,,2.57500000e-009,-1.13437508e-002
,,,2.60000000e-009,-1.10671883e-002
,,,2.62500000e-009,-1.08000008e-002
,,,2.65000000e-009,-1.05656257e-002
,,,2.67500000e-009,-1.03109382e-002
,,,2.70000000e-009,-1.00359382e-002
,,,2.72500000e-009,-9.73593819e-003
,,,2.75000000e-009,-9.41875067e-003
,,,2.77500000e-009,-9.08593814e-003
,,,2.80000000e-009,-8.74375062e-003
,,,2.82500000e-009,-8.40000059e-003
,,,2.85000000e-009,-8.08906307e-003
,,,2.87500000e-009,-7.76875055e-003
,,,2.90000000e-009,-7.44375053e-003
,,,2.92500000e-009,-7.11875050e-003
,,,2.95000000e-009,-6.80312548e-003
,,,2.97500000e-009,-6.50781296e-003
,,,3.00000000e-009,-6.23750044e-003
,,,3.02500000e-009,-6.00000042e-003
,,,3.05000000e-009,-5.82812541e-003
,,,3.07500000e-009,-5.67031290e-003
,,,3.10000000e-009,-5.52031289e-003
,,,3.12500000e-009,-5.37500038e-003
,,,3.15000000e-009,-5.23125037e-003
,,,3.17500000e-009,-5.08750036e-003
,,,3.20000000e-009,-4.94218785e-003
,,,3.22500000e-009,-4.80000034e-003
,,,3.25000000e-009,-4.68906283e-003
,,,3.27500000e-009,-4.56875032e-003
,,,3.30000000e-009,-4.44375031e-003
,,,3.32500000e-009,-4.32031281e-003
,,,3.35000000e-009,-4.20625030e-003
,,,3.37500000e-009,-4.10937529e-003
,,,3.40000000e-009,-4.03906279e-003
,,,3.42500000e-009,-4.00000028e-003
,,,3.45000000e-009,-4.01093778e-003
,,,3.47500000e-009,-4.03593779e-003
,,,3.50000000e-009,-4.06250029e-003
,,,3.52500000e-009,-4.08593779e-003
,,,3.55000000e-009,-4.09843779e-003
,,,3.57500000e-009,-4.09062529e-003
,,,3.60000000e-009,-4.05937529e-003
,,,3.62500000e-009,-4.00000028e-003
,,,3.65000000e-009,-3.92343778e-003
,,,3.67500000e-009,-3.81093777e-003
,,,3.70000000e-009,-3.66406276e-003
,,,3.72500000e-009,-3.49531275e-003
,,,3.75000000e-009,-3.31250023e-003
,,,3.77500000e-009,-3.12812522e-003
,,,3.80000000e-009,-2.95312521e-003
,,,3.82500000e-009,-2.80000020e-003
,,,3.85000000e-009,-2.68750019e-003
,,,3.87500000e-009,-2.59843768e-003
,,,3.90000000e-009,-2.53125018e-003
,,,3.92500000e-009,-2.48281268e-003
,,,3.95000000e-009,-2.45156267e-003
,,,3.97500000e-009,-2.42968767e-003
,,,4.00000000e-009,-2.41406267e-003
,,,4.02500000e-009,-2.40000017e-003
,,,4.05000000e-009,-2.38906267e-003
,,,4.07500000e-009,-2.36562517e-003
,,,4.10000000e-009,-2.32812516e-003
,,,4.12500000e-009,-2.27812516e-003
,,,4.15000000e-009,-2.21718766e-003
,,,4.17500000e-009,-2.14687515e-003
,,,4.20000000e-009,-2.07343765e-003
,,,4.22500000e-009,-2.00000014e-003
,,,4.25000000e-009,-1.93281264e-003
,,,4.27500000e-009,-1.86875013e-003
,,,4.30000000e-009,-1.80781263e-003
,,,4.32500000e-009,-1.75156262e-003
,,,4.35000000e-009,-1.70156262e-003
,,,4.37500000e-009,-1.65937512e-003
,,,4.40000000e-009,-1.62500012e-003
,,,4.42500000e-009,-1.60000011e-003
,,,4.45000000e-009,-1.58593761e-003
,,,4.47500000e-009,-1.57812511e-003
,,,4.50000000e-009,-1.57343761e-003
,,,4.52500000e-009,-1.57187511e-003
,,,4.55000000e-009,-1.57343761e-003
,,,4.57500000e-009,-1.57968761e-003
,,,4.60000000e-009,-1.58750011e-003
,,,4.62500000e-009,-1.60000011e-003
,,,4.65000000e-009,-1.61562511e-003
,,,4.67500000e-009,-1.62812512e-003
,,,4.70000000e-009,-1.63593762e-003
,,,4.72500000e-009,-1.63906262e-003
,,,4.75000000e-009,-1.63593762e-003
,,,4.77500000e-009,-1.62968762e-003
,,,4.80000000e-009,-1.61718761e-003
,,,4.82500000e-009,-1.60000011e-003
,,,4.85000000e-009,-1.57343761e-003
,,,4.87500000e-009,-1.53906261e-003
,,,4.90000000e-009,-1.49687511e-003
,,,4.92500000e-009,-1.44687510e-003
,,,4.95000000e-009,-1.39062510e-003
,,,4.97500000e-009,-1.32968759e-003
,,,5.00000000e-009,-1.26562509e-003
,,,5.02500000e-009,-1.20000008e-003
,,,5.05000000e-009,-1.13125008e-003
,,,5.07500000e-009,-1.06562508e-003
,,,5.10000000e-009,-1.00156257e-003
,,,5.12500000e-009,-9.42187567e-004
,,,5.15000000e-009,-8.92187563e-004
,,,5.17500000e-009,-8.50000060e-004
,,,5.20000000e-009,-8.18750058e-004
,,,5.22500000e-009,-8.00000057e-004
,,,5.25000000e-009,-7.90625056e-004
,,,5.27500000e-009,-7.89062556e-004
,,,5.30000000e-009,-7.93750056e-004
,,,5.32500000e-009,-8.00000057e-004
,,,5.35000000e-009,-8.04687557e-004
,,,5.37500000e-009,-8.09375057e-004
,,,5.40000000e-009,-8.07812557e-004
,,,5.42500000e-009,-8.00000057e-004
,,,5.45000000e-009,-7.81250055e-004
,,,5.47500000e-009,-7.53125053e-004
,,,5.50000000e-009,-7.12500050e-004
,,,5.52500000e-009,-6.62500047e-004
,,,5.55000000e-009,-6.04687543e-004
,,,5.57500000e-009,-5.39062538e-004
,,,5.60000000e-009,-4.70312533e-004
,,,5.62500000e-009,-4.00000028e-004
,,,5.65000000e-009,-3.32812524e-004
,,,5.67500000e-009,-2.67187519e-004
,,,5.70000000e-009,-2.06250015e-004
,,,5.72500000e-009,-1.50000011e-004
,,,5.75000000e-009,-1.00000007e-004
,,,5.77500000e-009,-5.78125041e-005
,,,5.80000000e-009,-2.50000018e-005
,,,5.82500000e-009,0.00000000e+000
,,,5.85000000e-009,1.09375008e-005
,,,5.87500000e-009,1.56250011e-005
,,,5.90000000e-009,1.71875012e-005
,,,5.92500000e-009,1.56250011e-005
,,,5.95000000e-009,1.25000009e-005
