RawData/CosmicRays/R7_2pt2B_15mV/wave011_Ch2.csv

"Record Length",1000,"Points",-7.72500000e-009,4.68750033e-006
"Sample Interval",2.50000000e-011,s,-7.70000000e-009,0.00000000e+000
"Trigger Point",309,"Samples",-7.67500000e-009,-3.12500022e-006
"Trigger Time",1.77107021e-011,s,-7.65000000e-009,-7.81250055e-006
"",,,-7.62500000e-009,-1.25000009e-005
"Horizontal Offset",-7.72500000e-009,s,-7.60000000e-009,-1.40625010e-005
,,,-7.57500000e-009,-1.40625010e-005
,,,-7.55000000e-009,-1.25000009e-005
,,,-7.52500000e-009,-7.81250055e-006
,,,-7.50000000e-009,0.00000000e+000
,,,-7.47500000e-009,9.37500066e-006
,,,-7.45000000e-009,1.87500013e-005
,,,-7.42500000e-009,2.65625019e-005
,,,-7.40000000e-009,3.12500022e-005
,,,-7.37500000e-009,3.28125023e-005
,,,-7.35000000e-009,2.65625019e-005
,,,-7.32500000e-009,1.56250011e-005
,,,-7.30000000e-009,0.00000000e+000
,,,-7.27500000e-009,-1.71875012e-005
,,,-7.25000000e-009,-3.59375025e-005
,,,-7.22500000e-009,-5.31250038e-005
,,,-7.20000000e-009,-6.40625045e-005
,,,-7.17500000e-009,-6.71875048e-005
,,,-7.15000000e-009,-5.78125041e-005
,,,-7.12500000e-009,-3.43750024e-005
,,,-7.10000000e-009,0.00000000e+000
,,,-7.07500000e-009,5.00000035e-005
,,,-7.05000000e-009,1.09375008e-004
,,,-7.02500000e-009,1.73437512e-004
,,,-7.00000000e-009,2.39062517e-004
,,,-6.97500000e-009,2.98437521e-004
,,,-6.95000000e-009,3.48437525e-004
,,,-6.92500000e-009,3.82812527e-004
,,,-6.90000000e-009,4.00000028e-004
,,,-6.87500000e-009,3.92187528e-004
,,,-6.85000000e-009,3.65625026e-004
,,,-6.82500000e-009,3.21875023e-004
,,,-6.80000000e-009,2.64062519e-004
,,,-6.77500000e-009,1.98437514e-004
,,,-6.75000000e-009,1.28125009e-004
,,,-6.72500000e-009,6.09375043e-005
,,,-6.70000000e-009,0.00000000e+000
,,,-6.67500000e-009,-4.53125032e-005
,,,-6.65000000e-009,-7.81250055e-005
,,,-6.62500000e-009,-9.37500066e-005
,,,-6.60000000e-009,-9.68750069e-005
,,,-6.57500000e-009,-8.59375061e-005
,,,-6.55000000e-009,-6.40625045e-005
,,,-6.52500000e-009,-3.43750024e-005
,,,-6.50000000e-009,0.00000000e+000
,,,-6.47500000e-009,3.90625028e-005
,,,-6.45000000e-009,8.28125059e-005
,,,-6.42500000e-009,1.28125009e-004
,,,-6.40000000e-009,1.76562512e-004
,,,-6.37500000e-009,2.29687516e-004
,,,-6.35000000e-009,2.84375020e-004
,,,-6.32500000e-009,3.40625024e-004
,,,-6.30000000e-009,4.00000028e-004
,,,-6.27500000e-009,4.50000032e-004
,,,-6.25000000e-009,4.95312535e-004
,,,-6.22500000e-009,5.28125037e-004
,,,-6.20000000e-009,5.43750038e-004
,,,-6.17500000e-009,5.42187538e-004
,,,-6.15000000e-009,5.17187537e-004
,,,-6.12500000e-009,4.68750033e-004
,,,-6.10000000e-009,4.00000028e-004
,,,-6.07500000e-009,3.12500022e-004
,,,-6.05000000e-009,2.18750015e-004
,,,-6.02500000e-009,1.26562509e-004
,,,-6.00000000e-009,4.53125032e-005
,,,-5.97500000e-009,-1.40625010e-005
,,,-5.95000000e-009,-4.37500031e-005
,,,-5.92500000e-009,-4.06250029e-005
,,,-5.90000000e-009,0.00000000e+000
,,,-5.87500000e-009,7.65625054e-005
,,,-5.85000000e-009,1.82812513e-004
,,,-5.82500000e-009,3.07812522e-004
,,,-5.80000000e-009,4.40625031e-004
,,,-5.77500000e-009,5.67187540e-004
,,,-5.75000000e-009,6.76562548e-004
,,,-5.72500000e-009,7.56250054e-004
,,,-5.70000000e-009,8.00000057e-004
,,,-5.67500000e-009,7.95312556e-004
,,,-5.65000000e-009,7.48437553e-004
,,,-5.62500000e-009,6.65625047e-004
,,,-5.60000000e-009,5.51562539e-004
,,,-5.57500000e-009,4.17187530e-004
,,,-5.55000000e-009,2.71875019e-004
,,,-5.52500000e-009,1.29687509e-004
,,,-5.50000000e-009,0.00000000e+000
,,,-5.47500000e-009,-1.04687507e-004
,,,-5.45000000e-009,-1.81250013e-004
,,,-5.42500000e-009,-2.23437516e-004
,,,-5.40000000e-009,-2.31250016e-004
,,,-5.37500000e-009,-2.07812515e-004
,,,-5.35000000e-009,-1.57812511e-004
,,,-5.32500000e-009,-8.59375061e-005
,,,-5.30000000e-009,0.00000000e+000
,,,-5.27500000e-009,9.53125067e-005
,,,-5.25000000e-009,1.89062513e-004
,,,-5.22500000e-009,2.73437519e-004
,,,-5.20000000e-009,3.42187524e-004
,,,-5.17500000e-009,3.92187528e-004
,,,-5.15000000e-009,4.18750030e-004
,,,-5.12500000e-009,4.20312530e-004
,,,-5.10000000e-009,4.00000028e-004
,,,-5.07500000e-009,3.56250025e-004
,,,-5.05000000e-009,2.98437521e-004
,,,-5.02500000e-009,2.31250016e-004
,,,-5.00000000e-009,1.62500012e-004
,,,-4.97500000e-009,9.84375070e-005
,,,-4.95000000e-009,4.68750033e-005
,,,-4.92500000e-009,1.25000009e-005
,,,-4.90000000e-009,0.00000000e+000
,,,-4.87500000e-009,9.37500066e-006
,,,-4.85000000e-009,3.90625028e-005
,,,-4.82500000e-009,8.75000062e-005
,,,-4.80000000e-009,1.50000011e-004
,,,-4.77500000e-009,2.17187515e-004
,,,-4.75000000e-009,2.85937520e-004
,,,-4.72500000e-009,3.48437525e-004
,,,-4.70000000e-009,4.00000028e-004
,,,-4.67500000e-009,4.35937531e-004
,,,-4.65000000e-009,4.56250032e-004
,,,-4.62500000e-009,4.62500033e-004
,,,-4.60000000e-009,4.54687532e-004
,,,-4.57500000e-009,4.42187531e-004
,,,-4.55000000e-009,4.25000030e-004
,,,-4.52500000e-009,4.09375029e-004
,,,-4.50000000e-009,4.00000028e-004
,,,-4.47500000e-009,3.92187528e-004
,,,-4.45000000e-009,3.92187528e-004
,,,-4.42500000e-009,3.98437528e-004
,,,-4.40000000e-009,4.07812529e-004
,,,-4.37500000e-009,4.15625029e-004
,,,-4.35000000e-009,4.20312530e-004
,,,-4.32500000e-009,4.15625029e-004
,,,-4.30000000e-009,4.00000028e-004
,,,-4.27500000e-009,3.67187526e-004
,,,-4.25000000e-009,3.25000023e-004
,,,-4.22500000e-009,2.73437519e-004
,,,-4.20000000e-009,2.14062515e-004
,,,-4.17500000e-009,1.54687511e-004
,,,-4.15000000e-009,9.53125067e-005
,,,-4.12500000e-009,4.21875030e-005
,,,-4.10000000e-009,0.00000000e+000
,,,-4.07500000e-009,-2.96875021e-005
,,,-4.05000000e-009,-4.84375034e-005
,,,-4.02500000e-009,-5.62500040e-005
,,,-4.00000000e-009,-5.31250038e-005
,,,-3.97500000e-009,-4.37500031e-005
,,,-3.95000000e-009,-2.96875021e-005
,,,-3.92500000e-009,-1.40625010e-005
,,,-3.90000000e-009,0.00000000e+000
,,,-3.87500000e-009,1.09375008e-005
,,,-3.85000000e-009,2.03125014e-005
,,,-3.82500000e-009,2.34375017e-005
,,,-3.80000000e-009,2.34375017e-005
,,,-3.77500000e-009,1.87500013e-005
,,,-3.75000000e-009,1.40625010e-005
,,,-3.72500000e-009,6.25000044e-006
,,,-3.70000000e-009,0.00000000e+000
,,,-3.67500000e-009,-3.12500022e-006
,,,-3.65000000e-009,-6.25000044e-006
,,,-3.62500000e-009,-7.81250055e-006
,,,-3.60000000e-009,-7.81250055e-006
,,,-3.57500000e-009,-6.25000044e-006
,,,-3.55000000e-009,-4.68750033e-006
,,,-3.52500000e-009,-1.56250011e-006
,,,-3.50000000e-009,0.00000000e+000
,,,-3.47500000e-009,3.12500022e-006
,,,-3.45000000e-009,4.68750033e-006
,,,-3.42500000e-009,6.25000044e-006
,,,-3.40000000e-009,6.25000044e-006
,,,-3.37500000e-009,4.68750033e-006
,,,-3.35000000e-009,3.12500022e-006
,,,-3.32500000e-009,1.56250011e-006
,,,-3.30000000e-009,0.00000000e+000
,,,-3.27500000e-009,-1.56250011e-006
,,,-3.25000000e-009,-3.12500022e-006
,,,-3.22500000e-009,-4.68750033e-006
,,,-3.20000000e-009,-6.25000044e-006
,,,-3.17500000e-009,-6.25000044e-006
,,,-3.15000000e-009,-4.68750033e-006
,,,-3.12500000e-009,-3.12500022e-006
,,,-3.10000000e-009,0.00000000e+000
,,,-3.07500000e-009,3.12500022e-006
,,,-3.05000000e-009,7.81250055e-006
,,,-3.02500000e-009,1.25000009e-005
,,,-3.00000000e-009,1.40625010e-005
,,,-2.97500000e-009,1.40625010e-005
,,,-2.95000000e-009,1.25000009e-005
,,,-2.92500000e-009,7.81250055e-006
,,,-2.90000000e-009,0.00000000e+000
,,,-2.87500000e-009,-1.09375008e-005
,,,-2.85000000e-009,-2.18750015e-005
,,,-2.82500000e-009,-3.28125023e-005
,,,-2.80000000e-009,-3.90625028e-005
,,,-2.77500000e-009,-3.90625028e-005
,,,-2.75000000e-009,-3.28125023e-005
,,,-2.72500000e-009,-1.87500013e-005
,,,-2.70000000e-009,0.00000000e+000
,,,-2.67500000e-009,2.34375017e-005
,,,-2.65000000e-009,5.00000035e-005
,,,-2.62500000e-009,7.18750051e-005
,,,-2.60000000e-009,8.59375061e-005
,,,-2.57500000e-009,8.90625063e-005
,,,-2.55000000e-009,7.65625054e-005
,,,-2.52500000e-009,4.68750033e-005
,,,-2.50000000e-009,0.00000000e+000
,,,-2.47500000e-009,-6.09375043e-005
,,,-2.45000000e-009,-1.32812509e-004
,,,-2.42500000e-009,-2.07812515e-004
,,,-2.40000000e-009,-2.79687520e-004
,,,-2.37500000e-009,-3.40625024e-004
,,,-2.35000000e-009,-3.82812527e-004
,,,-2.32500000e-009,-4.03125029e-004
,,,-2.30000000e-009,-4.00000028e-004
,,,-2.27500000e-009,-3.67187526e-004
,,,-2.25000000e-009,-3.14062522e-004
,,,-2.22500000e-009,-2.46875017e-004
,,,-2.20000000e-009,-1.75000012e-004
,,,-2.17500000e-009,-1.06250008e-004
,,,-2.15000000e-009,-5.00000035e-005
,,,-2.12500000e-009,-1.25000009e-005
,,,-2.10000000e-009,0.00000000e+000
,,,-2.07500000e-009,-1.25000009e-005
,,,-2.05000000e-009,-5.00000035e-005
,,,-2.02500000e-009,-1.06250008e-004
,,,-2.00000000e-009,-1.75000012e-004
,,,-1.97500000e-009,-2.46875017e-004
,,,-1.95000000e-009,-3.14062522e-004
,,,-1.92500000e-009,-3.67187526e-004
,,,-1.90000000e-009,-4.00000028e-004
,,,-1.87500000e-009,-4.03125029e-004
,,,-1.85000000e-009,-3.82812527e-004
,,,-1.82500000e-009,-3.40625024e-004
,,,-1.80000000e-009,-2.79687520e-004
,,,-1.77500000e-009,-2.07812515e-004
,,,-1.75000000e-009,-1.32812509e-004
,,,-1.72500000e-009,-6.09375043e-005
,,,-1.70000000e-009,0.00000000e+000
,,,-1.67500000e-009,4.21875030e-005
,,,-1.65000000e-009,6.87500049e-005
,,,-1.62500000e-009,7.81250055e-005
,,,-1.60000000e-009,7.34375052e-005
,,,-1.57500000e-009,5.78125041e-005
,,,-1.55000000e-009,3.75000027e-005
,,,-1.52500000e-009,1.71875012e-005
,,,-1.50000000e-009,0.00000000e+000
,,,-1.47500000e-009,-2.34375017e-005
,,,-1.45000000e-009,-4.21875030e-005
,,,-1.42500000e-009,-5.31250038e-005
,,,-1.40000000e-009,-5.62500040e-005
,,,-1.37500000e-009,-5.00000035e-005
,,,-1.35000000e-009,-3.75000027e-005
,,,-1.32500000e-009,-2.03125014e-005
,,,-1.30000000e-009,0.00000000e+000
,,,-1.27500000e-009,-1.25000009e-005
,,,-1.25000000e-009,-2.81250020e-005
,,,-1.22500000e-009,-4.53125032e-005
,,,-1.20000000e-009,-5.78125041e-005
,,,-1.17500000e-009,-6.25000044e-005
,,,-1.15000000e-009,-5.46875039e-005
,,,-1.12500000e-009,-3.43750024e-005
,,,-1.10000000e-009,0.00000000e+000
,,,-1.07500000e-009,-1.25000009e-005
,,,-1.05000000e-009,-2.50000018e-005
,,,-1.02500000e-009,-3.59375025e-005
,,,-1.00000000e-009,-4.06250029e-005
,,,-9.75000000e-010,-3.90625028e-005
,,,-9.50000000e-010,-3.12500022e-005
,,,-9.25000000e-010,-1.56250011e-005
,,,-9.00000000e-010,0.00000000e+000
,,,-8.75000000e-010,-7.65625054e-005
,,,-8.50000000e-010,-1.71875012e-004
,,,-8.25000000e-010,-2.78125020e-004
,,,-8.00000000e-010,-3.90625028e-004
,,,-7.75000000e-010,-5.03125036e-004
,,,-7.50000000e-010,-6.07812543e-004
,,,-7.25000000e-010,-7.06250050e-004
,,,-7.00000000e-010,-8.00000057e-004
,,,-6.75000000e-010,-1.00000007e-003
,,,-6.50000000e-010,-1.22031259e-003
,,,-6.25000000e-010,-1.45625010e-003
,,,-6.00000000e-010,-1.70625012e-003
,,,-5.75000000e-010,-1.96562514e-003
,,,-5.50000000e-010,-2.23437516e-003
,,,-5.25000000e-010,-2.50937518e-003
,,,-5.00000000e-010,-2.80000020e-003
,,,-4.75000000e-010,-3.21406273e-003
,,,-4.50000000e-010,-3.66562526e-003
,,,-4.25000000e-010,-4.15000029e-003
,,,-4.00000000e-010,-4.65781283e-003
,,,-3.75000000e-010,-5.18125037e-003
,,,-3.50000000e-010,-5.71562540e-003
,,,-3.25000000e-010,-6.25468794e-003
,,,-3.00000000e-010,-6.80000048e-003
,,,-2.75000000e-010,-7.43281303e-003
,,,-2.50000000e-010,-8.09218807e-003
,,,-2.25000000e-010,-8.77656312e-003
,,,-2.00000000e-010,-9.47968817e-003
,,,-1.75000000e-010,-1.01968757e-002
,,,-1.50000000e-010,-1.09250008e-002
,,,-1.25000000e-010,-1.16593758e-002
,,,-1.00000000e-010,-1.24000009e-002
,,,-7.50000000e-011,-1.31781259e-002
,,,-5.00000000e-011,-1.39765635e-002
,,,-2.50000000e-011,-1.47921885e-002
,,,0.00000000e+000,-1.56156261e-002
,,,2.50000000e-011,-1.64375012e-002
,,,5.00000000e-011,-1.72468762e-002
,,,7.50000000e-011,-1.80359388e-002
,,,1.00000000e-010,-1.88000013e-002
,,,1.25000000e-010,-1.95046889e-002
,,,1.50000000e-010,-2.01968764e-002
,,,1.75000000e-010,-2.08781265e-002
,,,2.00000000e-010,-2.15453140e-002
,,,2.25000000e-010,-2.21953141e-002
,,,2.50000000e-010,-2.28234391e-002
,,,2.75000000e-010,-2.34250017e-002
,,,3.00000000e-010,-2.40000017e-002
,,,3.25000000e-010,-2.44671892e-002
,,,3.50000000e-010,-2.49296893e-002
,,,3.75000000e-010,-2.53921893e-002
,,,4.00000000e-010,-2.58546893e-002
,,,4.25000000e-010,-2.63109394e-002
,,,4.50000000e-010,-2.67578144e-002
,,,4.75000000e-010,-2.71906269e-002
,,,5.00000000e-010,-2.76000020e-002
,,,5.25000000e-010,-2.78687520e-002
,,,5.50000000e-010,-2.81328145e-002
,,,5.75000000e-010,-2.83953145e-002
,,,6.00000000e-010,-2.86562520e-002
,,,6.25000000e-010,-2.89109395e-002
,,,6.50000000e-010,-2.91578146e-002
,,,6.75000000e-010,-2.93890646e-002
,,,7.00000000e-010,-2.96000021e-002
,,,7.25000000e-010,-2.96531271e-002
,,,7.50000000e-010,-2.97000021e-002
,,,7.75000000e-010,-2.97468771e-002
,,,8.00000000e-010,-2.97968771e-002
,,,8.25000000e-010,-2.98500021e-002
,,,8.50000000e-010,-2.99031271e-002
,,,8.75000000e-010,-2.99562521e-002
,,,9.00000000e-010,-3.00000021e-002
,,,9.25000000e-010,-2.98968771e-002
,,,9.50000000e-010,-2.97906271e-002
,,,9.75000000e-010,-2.96875021e-002
,,,1.00000000e-009,-2.95875021e-002
,,,1.02500000e-009,-2.94906271e-002
,,,1.05000000e-009,-2.93968771e-002
,,,1.07500000e-009,-2.93015646e-002
,,,1.10000000e-009,-2.92000021e-002
,,,1.12500000e-009,-2.89656271e-002
,,,1.15000000e-009,-2.87203145e-002
,,,1.17500000e-009,-2.84671895e-002
,,,1.20000000e-009,-2.82109395e-002
,,,1.22500000e-009,-2.79546895e-002
,,,1.25000000e-009,-2.77015645e-002
,,,1.27500000e-009,-2.74500019e-002
,,,1.30000000e-009,-2.72000019e-002
,,,1.32500000e-009,-2.68484394e-002
,,,1.35000000e-009,-2.64875019e-002
,,,1.37500000e-009,-2.61250018e-002
,,,1.40000000e-009,-2.57640643e-002
,,,1.42500000e-009,-2.54093768e-002
,,,1.45000000e-009,-2.50640643e-002
,,,1.47500000e-009,-2.47281268e-002
,,,1.50000000e-009,-2.44000017e-002
,,,1.52500000e-009,-2.40000017e-002
,,,1.55000000e-009,-2.35843767e-002
,,,1.57500000e-009,-2.31531266e-002
,,,1.60000000e-009,-2.27062516e-002
,,,1.62500000e-009,-2.22453141e-002
,,,1.65000000e-009,-2.17734390e-002
,,,1.67500000e-009,-2.12921890e-002
,,,1.70000000e-009,-2.08000015e-002
,,,1.72500000e-009,-2.02562514e-002
,,,1.75000000e-009,-1.96906264e-002
,,,1.77500000e-009,-1.91125014e-002
,,,1.80000000e-009,-1.85328138e-002
,,,1.82500000e-009,-1.79609388e-002
,,,1.85000000e-009,-1.74109387e-002
,,,1.87500000e-009,-1.68890637e-002
,,,1.90000000e-009,-1.64000012e-002
,,,1.92500000e-009,-1.59312511e-002
,,,1.95000000e-009,-1.54734386e-002
,,,1.97500000e-009,-1.50218761e-002
,,,2.00000000e-009,-1.45750010e-002
,,,2.02500000e-009,-1.41296885e-002
,,,2.05000000e-009,-1.36859385e-002
,,,2.07500000e-009,-1.32421884e-002
,,,2.10000000e-009,-1.28000009e-002
,,,2.12500000e-009,-1.23671884e-002
,,,2.15000000e-009,-1.19125008e-002
,,,2.17500000e-009,-1.14406258e-002
,,,2.20000000e-009,-1.09609383e-002
,,,2.22500000e-009,-1.04859382e-002
,,,2.25000000e-009,-1.00265632e-002
,,,2.27500000e-009,-9.59531318e-003
,,,2.30000000e-009,-9.20000065e-003
,,,2.32500000e-009,-8.87500063e-003
,,,2.35000000e-009,-8.56562561e-003
,,,2.37500000e-009,-8.26406308e-003
,,,2.40000000e-009,-7.96875056e-003
,,,2.42500000e-009,-7.67812554e-003
,,,2.45000000e-009,-7.38593802e-003
,,,2.47500000e-009,-7.09375050e-003
,,,2.50000000e-009,-6.80000048e-003
,,,2.52500000e-009,-6.54531296e-003
,,,2.55000000e-009,-6.26718794e-003
,,,2.57500000e-009,-5.96562542e-003
,,,2.60000000e-009,-5.64687540e-003
,,,2.62500000e-009,-5.32031288e-003
,,,2.65000000e-009,-4.99687535e-003
,,,2.67500000e-009,-4.68750033e-003
,,,2.70000000e-009,-4.40000031e-003
,,,2.72500000e-009,-4.18750030e-003
,,,2.75000000e-009,-3.98281278e-003
,,,2.77500000e-009,-3.78281277e-003
,,,2.80000000e-009,-3.58437525e-003
,,,2.82500000e-009,-3.38750024e-003
,,,2.85000000e-009,-3.19062523e-003
,,,2.87500000e-009,-2.99375021e-003
,,,2.90000000e-009,-2.80000020e-003
,,,2.92500000e-009,-2.65312519e-003
,,,2.95000000e-009,-2.49687518e-003
,,,2.97500000e-009,-2.33281267e-003
,,,3.00000000e-009,-2.16250015e-003
,,,3.02500000e-009,-1.99687514e-003
,,,3.05000000e-009,-1.84218763e-003
,,,3.07500000e-009,-1.70781262e-003
,,,3.10000000e-009,-1.60000011e-003
,,,3.12500000e-009,-1.56562511e-003
,,,3.15000000e-009,-1.54843761e-003
,,,3.17500000e-009,-1.54375011e-003
,,,3.20000000e-009,-1.54843761e-003
,,,3.22500000e-009,-1.55937511e-003
,,,3.25000000e-009,-1.57343761e-003
,,,3.27500000e-009,-1.58750011e-003
,,,3.30000000e-009,-1.60000011e-003
,,,3.32500000e-009,-1.63437512e-003
,,,3.35000000e-009,-1.65468762e-003
,,,3.37500000e-009,-1.66250012e-003
,,,3.40000000e-009,-1.65625012e-003
,,,3.42500000e-009,-1.64218762e-003
,,,3.45000000e-009,-1.62500012e-003
,,,3.47500000e-009,-1.60937511e-003
,,,3.50000000e-009,-1.60000011e-003
,,,3.52500000e-009,-1.61250011e-003
,,,3.55000000e-009,-1.62500012e-003
,,,3.57500000e-009,-1.63593762e-003
,,,3.60000000e-009,-1.64218762e-003
,,,3.62500000e-009,-1.64218762e-003
,,,3.65000000e-009,-1.63437512e-003
,,,3.67500000e-009,-1.62031261e-003
,,,3.70000000e-009,-1.60000011e-003
,,,3.72500000e-009,-1.58125011e-003
,,,3.75000000e-009,-1.55781261e-003
,,,3.77500000e-009,-1.53437511e-003
,,,3.80000000e-009,-1.51718761e-003
,,,3.82500000e-009,-1.51093761e-003
,,,3.85000000e-009,-1.52031261e-003
,,,3.87500000e-009,-1.55000011e-003
,,,3.90000000e-009,-1.60000011e-003
,,,3.92500000e-009,-1.66718762e-003
,,,3.95000000e-009,-1.74531262e-003
,,,3.97500000e-009,-1.82656263e-003
,,,4.00000000e-009,-1.90312513e-003
,,,4.02500000e-009,-1.96562514e-003
,,,4.05000000e-009,-2.00625014e-003
,,,4.07500000e-009,-2.01875014e-003
,,,4.10000000e-009,-2.00000014e-003
,,,4.12500000e-009,-1.94062514e-003
,,,4.15000000e-009,-1.85312513e-003
,,,4.17500000e-009,-1.74531262e-003
,,,4.20000000e-009,-1.62343761e-003
,,,4.22500000e-009,-1.49843761e-003
,,,4.25000000e-009,-1.38125010e-003
,,,4.27500000e-009,-1.27812509e-003
,,,4.30000000e-009,-1.20000008e-003
,,,4.32500000e-009,-1.14218758e-003
,,,4.35000000e-009,-1.11093758e-003
,,,4.37500000e-009,-1.10312508e-003
,,,4.40000000e-009,-1.11406258e-003
,,,4.42500000e-009,-1.13593758e-003
,,,4.45000000e-009,-1.16250008e-003
,,,4.47500000e-009,-1.18593758e-003
,,,4.50000000e-009,-1.20000008e-003
,,,4.52500000e-009,-1.19375008e-003
,,,4.55000000e-009,-1.17031258e-003
,,,4.57500000e-009,-1.12968758e-003
,,,4.60000000e-009,-1.07343758e-003
,,,4.62500000e-009,-1.00625007e-003
,,,4.65000000e-009,-9.34375066e-004
,,,4.67500000e-009,-8.64062561e-004
,,,4.70000000e-009,-8.00000057e-004
,,,4.72500000e-009,-7.45312553e-004
,,,4.75000000e-009,-7.07812550e-004
,,,4.77500000e-009,-6.84375048e-004
,,,4.80000000e-009,-6.79687548e-004
,,,4.82500000e-009,-6.90625049e-004
,,,4.85000000e-009,-7.17187551e-004
,,,4.87500000e-009,-7.54687553e-004
,,,4.90000000e-009,-8.00000057e-004
,,,4.92500000e-009,-8.45312560e-004
,,,4.95000000e-009,-8.85937563e-004
,,,4.97500000e-009,-9.17187565e-004
,,,5.00000000e-009,-9.32812566e-004
,,,5.02500000e-009,-9.29687566e-004
,,,5.05000000e-009,-9.07812564e-004
,,,5.07500000e-009,-8.64062561e-004
,,,5.10000000e-009,-8.00000057e-004
,,,5.12500000e-009,-7.15625051e-004
,,,5.15000000e-009,-6.17187544e-004
,,,5.17500000e-009,-5.06250036e-004
,,,5.20000000e-009,-3.90625028e-004
,,,5.22500000e-009,-2.76562520e-004
,,,5.25000000e-009,-1.68750012e-004
,,,5.27500000e-009,-7.50000053e-005
,,,5.30000000e-009,0.00000000e+000
,,,5.32500000e-009,5.00000035e-005
,,,5.35000000e-009,7.96875056e-005
,,,5.37500000e-009,9.21875065e-005
,,,5.40000000e-009,8.75000062e-005
,,,5.42500000e-009,7.18750051e-005
,,,5.45000000e-009,5.00000035e-005
,,,5.47500000e-009,2.34375017e-005
,,,5.50000000e-009,0.00000000e+000
,,,5.52500000e-009,-2.34375017e-005
,,,5.55000000e-009,-4.06250029e-005
,,,5.57500000e-009,-4.84375034e-005
,,,5.60000000e-009,-4.68750033e-005
,,,5.62500000e-009,-3.90625028e-005
,,,5.65000000e-009,-2.81250020e-005
,,,5.67500000e-009,-1.25000009e-005
,,,5.70000000e-009,0.00000000e+000
,,,5.72500000e-009,7.81250055e-006
,,,5.75000000e-009,1.40625010e-005
,,,5.77500000e-009,1.56250011e-005
,,,5.80000000e-009,1.56250011e-005
,,,5.82500000e-009,1.40625010e-005
,,,5.85000000e-009,9.37500066e-006
,,,5.87500000e-009,4.68750033e-006
,,,5.90000000e-009,0.00000000e+000
,,,5.92500000e-009,-7.81250055e-006
