RawData/CosmicRays/R7_2pt2B_15mV/wave000_Ch2.csv

"Record Length",1000,"Points",-7.72500000e-009,8.00000057e-004
"Sample Interval",2.50000000e-011,s,-7.70000000e-009,8.17187558e-004
"Trigger Point",309,"Samples",-7.67500000e-009,8.37500059e-004
"Trigger Time",2.87462555e-012,s,-7.65000000e-009,8.57812561e-004
"",,,-7.62500000e-009,8.73437562e-004
"Horizontal Offset",-7.72500000e-009,s,-7.60000000e-009,8.78125062e-004
,,,-7.57500000e-009,8.68750061e-004
,,,-7.55000000e-009,8.42187560e-004
,,,-7.52500000e-009,8.00000057e-004
,,,-7.50000000e-009,7.35937552e-004
,,,-7.47500000e-009,6.60937547e-004
,,,-7.45000000e-009,5.84375041e-004
,,,-7.42500000e-009,5.12500036e-004
,,,-7.40000000e-009,4.51562532e-004
,,,-7.37500000e-009,4.09375029e-004
,,,-7.35000000e-009,3.90625028e-004
,,,-7.32500000e-009,4.00000028e-004
,,,-7.30000000e-009,4.34375031e-004
,,,-7.27500000e-009,4.89062535e-004
,,,-7.25000000e-009,5.57812539e-004
,,,-7.22500000e-009,6.31250045e-004
,,,-7.20000000e-009,7.00000050e-004
,,,-7.17500000e-009,7.56250054e-004
,,,-7.15000000e-009,7.90625056e-004
,,,-7.12500000e-009,8.00000057e-004
,,,-7.10000000e-009,7.79687555e-004
,,,-7.07500000e-009,7.34375052e-004
,,,-7.05000000e-009,6.71875048e-004
,,,-7.02500000e-009,6.00000042e-004
,,,-7.00000000e-009,5.26562537e-004
,,,-6.97500000e-009,4.64062533e-004
,,,-6.95000000e-009,4.18750030e-004
,,,-6.92500000e-009,4.00000028e-004
,,,-6.90000000e-009,4.07812529e-004
,,,-6.87500000e-009,4.42187531e-004
,,,-6.85000000e-009,4.98437535e-004
,,,-6.82500000e-009,5.67187540e-004
,,,-6.80000000e-009,6.40625045e-004
,,,-6.77500000e-009,7.09375050e-004
,,,-6.75000000e-009,7.64062554e-004
,,,-6.72500000e-009,8.00000057e-004
,,,-6.70000000e-009,8.04687557e-004
,,,-6.67500000e-009,7.84375056e-004
,,,-6.65000000e-009,7.40625052e-004
,,,-6.62500000e-009,6.79687548e-004
,,,-6.60000000e-009,6.06250043e-004
,,,-6.57500000e-009,5.31250038e-004
,,,-6.55000000e-009,4.59375033e-004
,,,-6.52500000e-009,4.00000028e-004
,,,-6.50000000e-009,3.54687525e-004
,,,-6.47500000e-009,3.26562523e-004
,,,-6.45000000e-009,3.17187522e-004
,,,-6.42500000e-009,3.20312523e-004
,,,-6.40000000e-009,3.35937524e-004
,,,-6.37500000e-009,3.56250025e-004
,,,-6.35000000e-009,3.78125027e-004
,,,-6.32500000e-009,4.00000028e-004
,,,-6.30000000e-009,4.14062529e-004
,,,-6.27500000e-009,4.23437530e-004
,,,-6.25000000e-009,4.25000030e-004
,,,-6.22500000e-009,4.21875030e-004
,,,-6.20000000e-009,4.14062529e-004
,,,-6.17500000e-009,4.07812529e-004
,,,-6.15000000e-009,4.01562528e-004
,,,-6.12500000e-009,4.00000028e-004
,,,-6.10000000e-009,4.00000028e-004
,,,-6.07500000e-009,4.04687529e-004
,,,-6.05000000e-009,4.10937529e-004
,,,-6.02500000e-009,4.15625029e-004
,,,-6.00000000e-009,4.20312530e-004
,,,-5.97500000e-009,4.20312530e-004
,,,-5.95000000e-009,4.14062529e-004
,,,-5.92500000e-009,4.00000028e-004
,,,-5.90000000e-009,3.73437526e-004
,,,-5.87500000e-009,3.37500024e-004
,,,-5.85000000e-009,2.92187521e-004
,,,-5.82500000e-009,2.39062517e-004
,,,-5.80000000e-009,1.79687513e-004
,,,-5.77500000e-009,1.18750008e-004
,,,-5.75000000e-009,5.78125041e-005
,,,-5.72500000e-009,0.00000000e+000
,,,-5.70000000e-009,-4.68750033e-005
,,,-5.67500000e-009,-8.43750060e-005
,,,-5.65000000e-009,-1.09375008e-004
,,,-5.62500000e-009,-1.18750008e-004
,,,-5.60000000e-009,-1.12500008e-004
,,,-5.57500000e-009,-9.06250064e-005
,,,-5.55000000e-009,-5.15625036e-005
,,,-5.52500000e-009,0.00000000e+000
,,,-5.50000000e-009,6.56250046e-005
,,,-5.47500000e-009,1.39062510e-004
,,,-5.45000000e-009,2.10937515e-004
,,,-5.42500000e-009,2.78125020e-004
,,,-5.40000000e-009,3.34375024e-004
,,,-5.37500000e-009,3.75000027e-004
,,,-5.35000000e-009,3.96875028e-004
,,,-5.32500000e-009,4.00000028e-004
,,,-5.30000000e-009,3.82812527e-004
,,,-5.27500000e-009,3.46875025e-004
,,,-5.25000000e-009,2.96875021e-004
,,,-5.22500000e-009,2.37500017e-004
,,,-5.20000000e-009,1.71875012e-004
,,,-5.17500000e-009,1.07812508e-004
,,,-5.15000000e-009,4.84375034e-005
,,,-5.12500000e-009,0.00000000e+000
,,,-5.10000000e-009,-3.28125023e-005
,,,-5.07500000e-009,-5.15625036e-005
,,,-5.05000000e-009,-5.93750042e-005
,,,-5.02500000e-009,-5.46875039e-005
,,,-5.00000000e-009,-4.37500031e-005
,,,-4.97500000e-009,-2.96875021e-005
,,,-4.95000000e-009,-1.25000009e-005
,,,-4.92500000e-009,0.00000000e+000
,,,-4.90000000e-009,1.40625010e-005
,,,-4.87500000e-009,2.34375017e-005
,,,-4.85000000e-009,2.65625019e-005
,,,-4.82500000e-009,2.34375017e-005
,,,-4.80000000e-009,1.71875012e-005
,,,-4.77500000e-009,9.37500066e-006
,,,-4.75000000e-009,1.56250011e-006
,,,-4.72500000e-009,0.00000000e+000
,,,-4.70000000e-009,6.25000044e-006
,,,-4.67500000e-009,2.34375017e-005
,,,-4.65000000e-009,5.31250038e-005
,,,-4.62500000e-009,9.68750069e-005
,,,-4.60000000e-009,1.54687511e-004
,,,-4.57500000e-009,2.25000016e-004
,,,-4.55000000e-009,3.07812522e-004
,,,-4.52500000e-009,4.00000028e-004
,,,-4.50000000e-009,4.93750035e-004
,,,-4.47500000e-009,5.85937541e-004
,,,-4.45000000e-009,6.70312547e-004
,,,-4.42500000e-009,7.40625052e-004
,,,-4.40000000e-009,7.92187556e-004
,,,-4.37500000e-009,8.20312558e-004
,,,-4.35000000e-009,8.21875058e-004
,,,-4.32500000e-009,8.00000057e-004
,,,-4.30000000e-009,7.50000053e-004
,,,-4.27500000e-009,6.84375048e-004
,,,-4.25000000e-009,6.09375043e-004
,,,-4.22500000e-009,5.35937538e-004
,,,-4.20000000e-009,4.70312533e-004
,,,-4.17500000e-009,4.21875030e-004
,,,-4.15000000e-009,3.96875028e-004
,,,-4.12500000e-009,4.00000028e-004
,,,-4.10000000e-009,4.28125030e-004
,,,-4.07500000e-009,4.79687534e-004
,,,-4.05000000e-009,5.48437539e-004
,,,-4.02500000e-009,6.23437544e-004
,,,-4.00000000e-009,6.95312549e-004
,,,-3.97500000e-009,7.53125053e-004
,,,-3.95000000e-009,7.89062556e-004
,,,-3.92500000e-009,8.00000057e-004
,,,-3.90000000e-009,7.75000055e-004
,,,-3.87500000e-009,7.26562551e-004
,,,-3.85000000e-009,6.60937547e-004
,,,-3.82500000e-009,5.85937541e-004
,,,-3.80000000e-009,5.12500036e-004
,,,-3.77500000e-009,4.51562532e-004
,,,-3.75000000e-009,4.12500029e-004
,,,-3.72500000e-009,4.00000028e-004
,,,-3.70000000e-009,4.14062529e-004
,,,-3.67500000e-009,4.56250032e-004
,,,-3.65000000e-009,5.18750037e-004
,,,-3.62500000e-009,5.92187542e-004
,,,-3.60000000e-009,6.67187547e-004
,,,-3.57500000e-009,7.32812552e-004
,,,-3.55000000e-009,7.79687555e-004
,,,-3.52500000e-009,8.00000057e-004
,,,-3.50000000e-009,7.87500056e-004
,,,-3.47500000e-009,7.48437553e-004
,,,-3.45000000e-009,6.87500049e-004
,,,-3.42500000e-009,6.14062543e-004
,,,-3.40000000e-009,5.39062538e-004
,,,-3.37500000e-009,4.73437534e-004
,,,-3.35000000e-009,4.23437530e-004
,,,-3.32500000e-009,4.00000028e-004
,,,-3.30000000e-009,4.04687529e-004
,,,-3.27500000e-009,4.35937531e-004
,,,-3.25000000e-009,4.90625035e-004
,,,-3.22500000e-009,5.59375040e-004
,,,-3.20000000e-009,6.34375045e-004
,,,-3.17500000e-009,7.04687550e-004
,,,-3.15000000e-009,7.62500054e-004
,,,-3.12500000e-009,8.00000057e-004
,,,-3.10000000e-009,8.07812557e-004
,,,-3.07500000e-009,7.89062556e-004
,,,-3.05000000e-009,7.46875053e-004
,,,-3.02500000e-009,6.85937549e-004
,,,-3.00000000e-009,6.14062543e-004
,,,-2.97500000e-009,5.37500038e-004
,,,-2.95000000e-009,4.62500033e-004
,,,-2.92500000e-009,4.00000028e-004
,,,-2.90000000e-009,3.51562525e-004
,,,-2.87500000e-009,3.21875023e-004
,,,-2.85000000e-009,3.09375022e-004
,,,-2.82500000e-009,3.12500022e-004
,,,-2.80000000e-009,3.26562523e-004
,,,-2.77500000e-009,3.48437525e-004
,,,-2.75000000e-009,3.75000027e-004
,,,-2.72500000e-009,4.00000028e-004
,,,-2.70000000e-009,4.18750030e-004
,,,-2.67500000e-009,4.32812531e-004
,,,-2.65000000e-009,4.39062531e-004
,,,-2.62500000e-009,4.39062531e-004
,,,-2.60000000e-009,4.32812531e-004
,,,-2.57500000e-009,4.21875030e-004
,,,-2.55000000e-009,4.10937529e-004
,,,-2.52500000e-009,4.00000028e-004
,,,-2.50000000e-009,3.93750028e-004
,,,-2.47500000e-009,3.90625028e-004
,,,-2.45000000e-009,3.89062528e-004
,,,-2.42500000e-009,3.90625028e-004
,,,-2.40000000e-009,3.93750028e-004
,,,-2.37500000e-009,3.96875028e-004
,,,-2.35000000e-009,3.98437528e-004
,,,-2.32500000e-009,4.00000028e-004
,,,-2.30000000e-009,3.96875028e-004
,,,-2.27500000e-009,3.92187528e-004
,,,-2.25000000e-009,3.87500027e-004
,,,-2.22500000e-009,3.84375027e-004
,,,-2.20000000e-009,3.82812527e-004
,,,-2.17500000e-009,3.84375027e-004
,,,-2.15000000e-009,3.89062528e-004
,,,-2.12500000e-009,4.00000028e-004
,,,-2.10000000e-009,4.10937529e-004
,,,-2.07500000e-009,4.23437530e-004
,,,-2.05000000e-009,4.34375031e-004
,,,-2.02500000e-009,4.40625031e-004
,,,-2.00000000e-009,4.40625031e-004
,,,-1.97500000e-009,4.34375031e-004
,,,-1.95000000e-009,4.20312530e-004
,,,-1.92500000e-009,4.00000028e-004
,,,-1.90000000e-009,3.64062526e-004
,,,-1.87500000e-009,3.28125023e-004
,,,-1.85000000e-009,2.96875021e-004
,,,-1.82500000e-009,2.76562520e-004
,,,-1.80000000e-009,2.71875019e-004
,,,-1.77500000e-009,2.90625021e-004
,,,-1.75000000e-009,3.32812524e-004
,,,-1.72500000e-009,4.00000028e-004
,,,-1.70000000e-009,4.64062533e-004
,,,-1.67500000e-009,5.37500038e-004
,,,-1.65000000e-009,6.15625044e-004
,,,-1.62500000e-009,6.87500049e-004
,,,-1.60000000e-009,7.48437553e-004
,,,-1.57500000e-009,7.92187556e-004
,,,-1.55000000e-009,8.09375057e-004
,,,-1.52500000e-009,8.00000057e-004
,,,-1.50000000e-009,7.20312551e-004
,,,-1.47500000e-009,6.10937543e-004
,,,-1.45000000e-009,4.81250034e-004
,,,-1.42500000e-009,3.46875025e-004
,,,-1.40000000e-009,2.20312516e-004
,,,-1.37500000e-009,1.14062508e-004
,,,-1.35000000e-009,3.90625028e-005
,,,-1.32500000e-009,0.00000000e+000
,,,-1.30000000e-009,-4.84375034e-005
,,,-1.27500000e-009,-7.03125050e-005
,,,-1.25000000e-009,-6.87500049e-005
,,,-1.22500000e-009,-5.15625036e-005
,,,-1.20000000e-009,-2.65625019e-005
,,,-1.17500000e-009,-1.56250011e-006
,,,-1.15000000e-009,9.37500066e-006
,,,-1.12500000e-009,0.00000000e+000
,,,-1.10000000e-009,-1.01562507e-004
,,,-1.07500000e-009,-2.46875017e-004
,,,-1.05000000e-009,-4.29687530e-004
,,,-1.02500000e-009,-6.43750046e-004
,,,-1.00000000e-009,-8.76562562e-004
,,,-9.75000000e-010,-1.11875008e-003
,,,-9.50000000e-010,-1.36093760e-003
,,,-9.25000000e-010,-1.60000011e-003
,,,-9.00000000e-010,-1.89218763e-003
,,,-8.75000000e-010,-2.18750015e-003
,,,-8.50000000e-010,-2.48281268e-003
,,,-8.25000000e-010,-2.77968770e-003
,,,-8.00000000e-010,-3.07812522e-003
,,,-7.75000000e-010,-3.37812524e-003
,,,-7.50000000e-010,-3.68437526e-003
,,,-7.25000000e-010,-4.00000028e-003
,,,-7.00000000e-010,-4.37187531e-003
,,,-6.75000000e-010,-4.76875034e-003
,,,-6.50000000e-010,-5.18125037e-003
,,,-6.25000000e-010,-5.60156290e-003
,,,-6.00000000e-010,-6.02187543e-003
,,,-5.75000000e-010,-6.43281296e-003
,,,-5.50000000e-010,-6.82656298e-003
,,,-5.25000000e-010,-7.20000051e-003
,,,-5.00000000e-010,-7.57187554e-003
,,,-4.75000000e-010,-7.93750056e-003
,,,-4.50000000e-010,-8.29375059e-003
,,,-4.25000000e-010,-8.64375061e-003
,,,-4.00000000e-010,-8.98750064e-003
,,,-3.75000000e-010,-9.32500066e-003
,,,-3.50000000e-010,-9.66250068e-003
,,,-3.25000000e-010,-1.00000007e-002
,,,-3.00000000e-010,-1.03437507e-002
,,,-2.75000000e-010,-1.07078133e-002
,,,-2.50000000e-010,-1.10953133e-002
,,,-2.25000000e-010,-1.15015633e-002
,,,-2.00000000e-010,-1.19203133e-002
,,,-1.75000000e-010,-1.23484384e-002
,,,-1.50000000e-010,-1.27765634e-002
,,,-1.25000000e-010,-1.32000009e-002
,,,-1.00000000e-010,-1.35796885e-002
,,,-7.50000000e-011,-1.39578135e-002
,,,-5.00000000e-011,-1.43328135e-002
,,,-2.50000000e-011,-1.47000010e-002
,,,0.00000000e+000,-1.50546886e-002
,,,2.50000000e-011,-1.53921886e-002
,,,5.00000000e-011,-1.57078136e-002
,,,7.50000000e-011,-1.60000011e-002
,,,1.00000000e-010,-1.62109386e-002
,,,1.25000000e-010,-1.64125012e-002
,,,1.50000000e-010,-1.66109387e-002
,,,1.75000000e-010,-1.68078137e-002
,,,2.00000000e-010,-1.70062512e-002
,,,2.25000000e-010,-1.72031262e-002
,,,2.50000000e-010,-1.74015637e-002
,,,2.75000000e-010,-1.76000012e-002
,,,3.00000000e-010,-1.77250013e-002
,,,3.25000000e-010,-1.78593763e-002
,,,3.50000000e-010,-1.80062513e-002
,,,3.75000000e-010,-1.81609388e-002
,,,4.00000000e-010,-1.83250013e-002
,,,4.25000000e-010,-1.84890638e-002
,,,4.50000000e-010,-1.86500013e-002
,,,4.75000000e-010,-1.88000013e-002
,,,5.00000000e-010,-1.88515638e-002
,,,5.25000000e-010,-1.88906263e-002
,,,5.50000000e-010,-1.89140638e-002
,,,5.75000000e-010,-1.89234388e-002
,,,6.00000000e-010,-1.89187513e-002
,,,6.25000000e-010,-1.88968763e-002
,,,6.50000000e-010,-1.88578138e-002
,,,6.75000000e-010,-1.88000013e-002
,,,7.00000000e-010,-1.86468763e-002
,,,7.25000000e-010,-1.84828138e-002
,,,7.50000000e-010,-1.83171888e-002
,,,7.75000000e-010,-1.81531263e-002
,,,8.00000000e-010,-1.79968763e-002
,,,8.25000000e-010,-1.78531263e-002
,,,8.50000000e-010,-1.77203138e-002
,,,8.75000000e-010,-1.76000012e-002
,,,9.00000000e-010,-1.74234387e-002
,,,9.25000000e-010,-1.72578137e-002
,,,9.50000000e-010,-1.70984387e-002
,,,9.75000000e-010,-1.69500012e-002
,,,1.00000000e-009,-1.68093762e-002
,,,1.02500000e-009,-1.66734387e-002
,,,1.05000000e-009,-1.65390637e-002
,,,1.07500000e-009,-1.64000012e-002
,,,1.10000000e-009,-1.61984386e-002
,,,1.12500000e-009,-1.59781261e-002
,,,1.15000000e-009,-1.57421886e-002
,,,1.17500000e-009,-1.54906261e-002
,,,1.20000000e-009,-1.52281261e-002
,,,1.22500000e-009,-1.49562511e-002
,,,1.25000000e-009,-1.46796885e-002
,,,1.27500000e-009,-1.44000010e-002
,,,1.30000000e-009,-1.40812510e-002
,,,1.32500000e-009,-1.37578135e-002
,,,1.35000000e-009,-1.34343760e-002
,,,1.37500000e-009,-1.31171884e-002
,,,1.40000000e-009,-1.28109384e-002
,,,1.42500000e-009,-1.25203134e-002
,,,1.45000000e-009,-1.22500009e-002
,,,1.47500000e-009,-1.20000008e-002
,,,1.50000000e-009,-1.17468758e-002
,,,1.52500000e-009,-1.14984383e-002
,,,1.55000000e-009,-1.12500008e-002
,,,1.57500000e-009,-1.10015633e-002
,,,1.60000000e-009,-1.07515633e-002
,,,1.62500000e-009,-1.05031257e-002
,,,1.65000000e-009,-1.02531257e-002
,,,1.67500000e-009,-1.00000007e-002
,,,1.70000000e-009,-9.74062569e-003
,,,1.72500000e-009,-9.46250067e-003
,,,1.75000000e-009,-9.16718815e-003
,,,1.77500000e-009,-8.85937563e-003
,,,1.80000000e-009,-8.54218810e-003
,,,1.82500000e-009,-8.22343808e-003
,,,1.85000000e-009,-7.90625056e-003
,,,1.87500000e-009,-7.60000054e-003
,,,1.90000000e-009,-7.31406302e-003
,,,1.92500000e-009,-7.03125050e-003
,,,1.95000000e-009,-6.75625048e-003
,,,1.97500000e-009,-6.49062546e-003
,,,2.00000000e-009,-6.23906294e-003
,,,2.02500000e-009,-6.00625043e-003
,,,2.05000000e-009,-5.79375041e-003
,,,2.07500000e-009,-5.60000040e-003
,,,2.10000000e-009,-5.43906288e-003
,,,2.12500000e-009,-5.27500037e-003
,,,2.15000000e-009,-5.10156286e-003
,,,2.17500000e-009,-4.91250035e-003
,,,2.20000000e-009,-4.70781283e-003
,,,2.22500000e-009,-4.48593782e-003
,,,2.25000000e-009,-4.24843780e-003
,,,2.27500000e-009,-4.00000028e-003
,,,2.30000000e-009,-3.76718777e-003
,,,2.32500000e-009,-3.52500025e-003
,,,2.35000000e-009,-3.27812523e-003
,,,2.37500000e-009,-3.04062522e-003
,,,2.40000000e-009,-2.82500020e-003
,,,2.42500000e-009,-2.63906269e-003
,,,2.45000000e-009,-2.49687518e-003
,,,2.47500000e-009,-2.40000017e-003
,,,2.50000000e-009,-2.37656267e-003
,,,2.52500000e-009,-2.37968767e-003
,,,2.55000000e-009,-2.40156267e-003
,,,2.57500000e-009,-2.42968767e-003
,,,2.60000000e-009,-2.45468767e-003
,,,2.62500000e-009,-2.46250017e-003
,,,2.65000000e-009,-2.44531267e-003
,,,2.67500000e-009,-2.40000017e-003
,,,2.70000000e-009,-2.33750017e-003
,,,2.72500000e-009,-2.23281266e-003
,,,2.75000000e-009,-2.09062515e-003
,,,2.77500000e-009,-1.91875014e-003
,,,2.80000000e-009,-1.73125012e-003
,,,2.82500000e-009,-1.54062511e-003
,,,2.85000000e-009,-1.35937510e-003
,,,2.87500000e-009,-1.20000008e-003
,,,2.90000000e-009,-1.08906258e-003
,,,2.92500000e-009,-1.00312507e-003
,,,2.95000000e-009,-9.40625067e-004
,,,2.97500000e-009,-8.96875063e-004
,,,3.00000000e-009,-8.67187561e-004
,,,3.02500000e-009,-8.43750060e-004
,,,3.05000000e-009,-8.23437558e-004
,,,3.07500000e-009,-8.00000057e-004
,,,3.10000000e-009,-7.84375056e-004
,,,3.12500000e-009,-7.54687553e-004
,,,3.15000000e-009,-7.09375050e-004
,,,3.17500000e-009,-6.51562546e-004
,,,3.20000000e-009,-5.84375041e-004
,,,3.22500000e-009,-5.17187537e-004
,,,3.25000000e-009,-4.53125032e-004
,,,3.27500000e-009,-4.00000028e-004
,,,3.30000000e-009,-3.71875026e-004
,,,3.32500000e-009,-3.54687525e-004
,,,3.35000000e-009,-3.48437525e-004
,,,3.37500000e-009,-3.50000025e-004
,,,3.40000000e-009,-3.57812525e-004
,,,3.42500000e-009,-3.71875026e-004
,,,3.45000000e-009,-3.85937527e-004
,,,3.47500000e-009,-4.00000028e-004
,,,3.50000000e-009,-4.18750030e-004
,,,3.52500000e-009,-4.31250031e-004
,,,3.55000000e-009,-4.35937531e-004
,,,3.57500000e-009,-4.34375031e-004
,,,3.60000000e-009,-4.29687530e-004
,,,3.62500000e-009,-4.20312530e-004
,,,3.65000000e-009,-4.09375029e-004
,,,3.67500000e-009,-4.00000028e-004
,,,3.70000000e-009,-3.96875028e-004
,,,3.72500000e-009,-3.93750028e-004
,,,3.75000000e-009,-3.92187528e-004
,,,3.77500000e-009,-3.90625028e-004
,,,3.80000000e-009,-3.90625028e-004
,,,3.82500000e-009,-3.92187528e-004
,,,3.85000000e-009,-3.95312528e-004
,,,3.87500000e-009,-4.00000028e-004
,,,3.90000000e-009,-4.04687529e-004
,,,3.92500000e-009,-4.10937529e-004
,,,3.95000000e-009,-4.14062529e-004
,,,3.97500000e-009,-4.14062529e-004
,,,4.00000000e-009,-4.14062529e-004
,,,4.02500000e-009,-4.10937529e-004
,,,4.05000000e-009,-4.04687529e-004
,,,4.07500000e-009,-4.00000028e-004
,,,4.10000000e-009,-3.92187528e-004
,,,4.12500000e-009,-3.84375027e-004
,,,4.15000000e-009,-3.79687527e-004
,,,4.17500000e-009,-3.75000027e-004
,,,4.20000000e-009,-3.75000027e-004
,,,4.22500000e-009,-3.78125027e-004
,,,4.25000000e-009,-3.87500027e-004
,,,4.27500000e-009,-4.00000028e-004
,,,4.30000000e-009,-4.12500029e-004
,,,4.32500000e-009,-4.26562530e-004
,,,4.35000000e-009,-4.39062531e-004
,,,4.37500000e-009,-4.46875032e-004
,,,4.40000000e-009,-4.48437532e-004
,,,4.42500000e-009,-4.42187531e-004
,,,4.45000000e-009,-4.26562530e-004
,,,4.47500000e-009,-4.00000028e-004
,,,4.50000000e-009,-3.57812525e-004
,,,4.52500000e-009,-3.07812522e-004
,,,4.55000000e-009,-2.51562518e-004
,,,4.57500000e-009,-1.92187514e-004
,,,4.60000000e-009,-1.34375010e-004
,,,4.62500000e-009,-8.12500058e-005
,,,4.65000000e-009,-3.43750024e-005
,,,4.67500000e-009,0.00000000e+000
,,,4.70000000e-009,2.34375017e-005
,,,4.72500000e-009,3.75000027e-005
,,,4.75000000e-009,4.21875030e-005
,,,4.77500000e-009,3.90625028e-005
,,,4.80000000e-009,2.96875021e-005
,,,4.82500000e-009,1.87500013e-005
,,,4.85000000e-009,7.81250055e-006
,,,4.87500000e-009,0.00000000e+000
,,,4.90000000e-009,-4.68750033e-006
,,,4.92500000e-009,-6.25000044e-006
,,,4.95000000e-009,-3.12500022e-006
,,,4.97500000e-009,0.00000000e+000
,,,5.00000000e-009,3.12500022e-006
,,,5.02500000e-009,6.25000044e-006
,,,5.05000000e-009,4.68750033e-006
,,,5.07500000e-009,0.00000000e+000
,,,5.10000000e-009,-7.81250055e-006
,,,5.12500000e-009,-1.87500013e-005
,,,5.15000000e-009,-2.96875021e-005
,,,5.17500000e-009,-3.90625028e-005
,,,5.20000000e-009,-4.21875030e-005
,,,5.22500000e-009,-3.75000027e-005
,,,5.25000000e-009,-2.34375017e-005
,,,5.27500000e-009,0.00000000e+000
,,,5.30000000e-009,3.43750024e-005
,,,5.32500000e-009,8.12500058e-005
,,,5.35000000e-009,1.34375010e-004
,,,5.37500000e-009,1.92187514e-004
,,,5.40000000e-009,2.51562518e-004
,,,5.42500000e-009,3.07812522e-004
,,,5.45000000e-009,3.57812525e-004
,,,5.47500000e-009,4.00000028e-004
,,,5.50000000e-009,4.25000030e-004
,,,5.52500000e-009,4.39062531e-004
,,,5.55000000e-009,4.43750031e-004
,,,5.57500000e-009,4.40625031e-004
,,,5.60000000e-009,4.31250031e-004
,,,5.62500000e-009,4.20312530e-004
,,,5.65000000e-009,4.09375029e-004
,,,5.67500000e-009,4.00000028e-004
,,,5.70000000e-009,3.87500027e-004
,,,5.72500000e-009,3.79687527e-004
,,,5.75000000e-009,3.76562527e-004
,,,5.77500000e-009,3.76562527e-004
,,,5.80000000e-009,3.81250027e-004
,,,5.82500000e-009,3.85937527e-004
,,,5.85000000e-009,3.92187528e-004
,,,5.87500000e-009,4.00000028e-004
,,,5.90000000e-009,4.01562528e-004
,,,5.92500000e-009,4.01562528e-004
,,,5.95000000e-009,4.00000028e-004
,,,5.97500000e-009,3.98437528e-004
,,,6.00000000e-009,3.96875028e-004
