RawData/CosmicRays/R7_2pt2B_15mV/wave009_Ch2.csv

"Record Length",1000,"Points",-7.72500000e-009,-7.68750054e-004
"Sample Interval",2.50000000e-011,s,-7.70000000e-009,-7.67187554e-004
"Trigger Point",309,"Samples",-7.67500000e-009,-7.70312555e-004
"Trigger Time",9.36351145e-012,s,-7.65000000e-009,-7.81250055e-004
"",,,-7.62500000e-009,-8.00000057e-004
"Horizontal Offset",-7.72500000e-009,s,-7.60000000e-009,-8.25000058e-004
,,,-7.57500000e-009,-8.51562560e-004
,,,-7.55000000e-009,-8.75000062e-004
,,,-7.52500000e-009,-8.90625063e-004
,,,-7.50000000e-009,-8.93750063e-004
,,,-7.47500000e-009,-8.81250062e-004
,,,-7.45000000e-009,-8.50000060e-004
,,,-7.42500000e-009,-8.00000057e-004
,,,-7.40000000e-009,-7.40625052e-004
,,,-7.37500000e-009,-6.70312547e-004
,,,-7.35000000e-009,-5.95312542e-004
,,,-7.32500000e-009,-5.23437537e-004
,,,-7.30000000e-009,-4.62500033e-004
,,,-7.27500000e-009,-4.18750030e-004
,,,-7.25000000e-009,-3.95312528e-004
,,,-7.22500000e-009,-4.00000028e-004
,,,-7.20000000e-009,-4.32812531e-004
,,,-7.17500000e-009,-4.85937534e-004
,,,-7.15000000e-009,-5.53125039e-004
,,,-7.12500000e-009,-6.25000044e-004
,,,-7.10000000e-009,-6.93750049e-004
,,,-7.07500000e-009,-7.50000053e-004
,,,-7.05000000e-009,-7.87500056e-004
,,,-7.02500000e-009,-8.00000057e-004
,,,-7.00000000e-009,-7.85937556e-004
,,,-6.97500000e-009,-7.50000053e-004
,,,-6.95000000e-009,-6.92187549e-004
,,,-6.92500000e-009,-6.23437544e-004
,,,-6.90000000e-009,-5.50000039e-004
,,,-6.87500000e-009,-4.82812534e-004
,,,-6.85000000e-009,-4.29687530e-004
,,,-6.82500000e-009,-4.00000028e-004
,,,-6.80000000e-009,-4.04687529e-004
,,,-6.77500000e-009,-4.42187531e-004
,,,-6.75000000e-009,-5.14062536e-004
,,,-6.72500000e-009,-6.14062543e-004
,,,-6.70000000e-009,-7.40625052e-004
,,,-6.67500000e-009,-8.85937563e-004
,,,-6.65000000e-009,-1.04218757e-003
,,,-6.62500000e-009,-1.20000008e-003
,,,-6.60000000e-009,-1.34687510e-003
,,,-6.57500000e-009,-1.47500010e-003
,,,-6.55000000e-009,-1.57968761e-003
,,,-6.52500000e-009,-1.65312512e-003
,,,-6.50000000e-009,-1.69375012e-003
,,,-6.47500000e-009,-1.69687512e-003
,,,-6.45000000e-009,-1.66406262e-003
,,,-6.42500000e-009,-1.60000011e-003
,,,-6.40000000e-009,-1.50000011e-003
,,,-6.37500000e-009,-1.38281260e-003
,,,-6.35000000e-009,-1.25468759e-003
,,,-6.32500000e-009,-1.12968758e-003
,,,-6.30000000e-009,-1.01250007e-003
,,,-6.27500000e-009,-9.14062565e-004
,,,-6.25000000e-009,-8.42187560e-004
,,,-6.22500000e-009,-8.00000057e-004
,,,-6.20000000e-009,-7.84375056e-004
,,,-6.17500000e-009,-8.00000057e-004
,,,-6.15000000e-009,-8.42187560e-004
,,,-6.12500000e-009,-9.04687564e-004
,,,-6.10000000e-009,-9.79687569e-004
,,,-6.07500000e-009,-1.05937507e-003
,,,-6.05000000e-009,-1.13437508e-003
,,,-6.02500000e-009,-1.20000008e-003
,,,-6.00000000e-009,-1.24375009e-003
,,,-5.97500000e-009,-1.27031259e-003
,,,-5.95000000e-009,-1.27968759e-003
,,,-5.92500000e-009,-1.27500009e-003
,,,-5.90000000e-009,-1.25937509e-003
,,,-5.87500000e-009,-1.23906259e-003
,,,-5.85000000e-009,-1.21718759e-003
,,,-5.82500000e-009,-1.20000008e-003
,,,-5.80000000e-009,-1.18125008e-003
,,,-5.77500000e-009,-1.17187508e-003
,,,-5.75000000e-009,-1.17031258e-003
,,,-5.72500000e-009,-1.17500008e-003
,,,-5.70000000e-009,-1.18437508e-003
,,,-5.67500000e-009,-1.19375008e-003
,,,-5.65000000e-009,-1.20000008e-003
,,,-5.62500000e-009,-1.20000008e-003
,,,-5.60000000e-009,-1.18437508e-003
,,,-5.57500000e-009,-1.15781258e-003
,,,-5.55000000e-009,-1.11875008e-003
,,,-5.52500000e-009,-1.06875008e-003
,,,-5.50000000e-009,-1.00937507e-003
,,,-5.47500000e-009,-9.42187567e-004
,,,-5.45000000e-009,-8.71875062e-004
,,,-5.42500000e-009,-8.00000057e-004
,,,-5.40000000e-009,-7.29687552e-004
,,,-5.37500000e-009,-6.62500047e-004
,,,-5.35000000e-009,-6.00000042e-004
,,,-5.32500000e-009,-5.45312539e-004
,,,-5.30000000e-009,-4.96875035e-004
,,,-5.27500000e-009,-4.56250032e-004
,,,-5.25000000e-009,-4.23437530e-004
,,,-5.22500000e-009,-4.00000028e-004
,,,-5.20000000e-009,-3.84375027e-004
,,,-5.17500000e-009,-3.76562527e-004
,,,-5.15000000e-009,-3.73437526e-004
,,,-5.12500000e-009,-3.75000027e-004
,,,-5.10000000e-009,-3.79687527e-004
,,,-5.07500000e-009,-3.85937527e-004
,,,-5.05000000e-009,-3.92187528e-004
,,,-5.02500000e-009,-4.00000028e-004
,,,-5.00000000e-009,-4.07812529e-004
,,,-4.97500000e-009,-4.12500029e-004
,,,-4.95000000e-009,-4.15625029e-004
,,,-4.92500000e-009,-4.14062529e-004
,,,-4.90000000e-009,-4.12500029e-004
,,,-4.87500000e-009,-4.07812529e-004
,,,-4.85000000e-009,-4.03125029e-004
,,,-4.82500000e-009,-4.00000028e-004
,,,-4.80000000e-009,-3.98437528e-004
,,,-4.77500000e-009,-3.98437528e-004
,,,-4.75000000e-009,-3.96875028e-004
,,,-4.72500000e-009,-3.96875028e-004
,,,-4.70000000e-009,-3.98437528e-004
,,,-4.67500000e-009,-3.98437528e-004
,,,-4.65000000e-009,-3.98437528e-004
,,,-4.62500000e-009,-4.00000028e-004
,,,-4.60000000e-009,-4.04687529e-004
,,,-4.57500000e-009,-4.09375029e-004
,,,-4.55000000e-009,-4.12500029e-004
,,,-4.52500000e-009,-4.12500029e-004
,,,-4.50000000e-009,-4.12500029e-004
,,,-4.47500000e-009,-4.09375029e-004
,,,-4.45000000e-009,-4.04687529e-004
,,,-4.42500000e-009,-4.00000028e-004
,,,-4.40000000e-009,-3.95312528e-004
,,,-4.37500000e-009,-3.90625028e-004
,,,-4.35000000e-009,-3.85937527e-004
,,,-4.32500000e-009,-3.84375027e-004
,,,-4.30000000e-009,-3.84375027e-004
,,,-4.27500000e-009,-3.85937527e-004
,,,-4.25000000e-009,-3.90625028e-004
,,,-4.22500000e-009,-4.00000028e-004
,,,-4.20000000e-009,-4.09375029e-004
,,,-4.17500000e-009,-4.18750030e-004
,,,-4.15000000e-009,-4.26562530e-004
,,,-4.12500000e-009,-4.31250031e-004
,,,-4.10000000e-009,-4.32812531e-004
,,,-4.07500000e-009,-4.26562530e-004
,,,-4.05000000e-009,-4.15625029e-004
,,,-4.02500000e-009,-4.00000028e-004
,,,-4.00000000e-009,-3.79687527e-004
,,,-3.97500000e-009,-3.57812525e-004
,,,-3.95000000e-009,-3.39062524e-004
,,,-3.92500000e-009,-3.28125023e-004
,,,-3.90000000e-009,-3.25000023e-004
,,,-3.87500000e-009,-3.34375024e-004
,,,-3.85000000e-009,-3.59375025e-004
,,,-3.82500000e-009,-4.00000028e-004
,,,-3.80000000e-009,-4.51562532e-004
,,,-3.77500000e-009,-5.14062536e-004
,,,-3.75000000e-009,-5.81250041e-004
,,,-3.72500000e-009,-6.46875046e-004
,,,-3.70000000e-009,-7.06250050e-004
,,,-3.67500000e-009,-7.54687553e-004
,,,-3.65000000e-009,-7.87500056e-004
,,,-3.62500000e-009,-8.00000057e-004
,,,-3.60000000e-009,-7.89062556e-004
,,,-3.57500000e-009,-7.59375054e-004
,,,-3.55000000e-009,-7.12500050e-004
,,,-3.52500000e-009,-6.53125046e-004
,,,-3.50000000e-009,-5.87500042e-004
,,,-3.47500000e-009,-5.20312537e-004
,,,-3.45000000e-009,-4.54687532e-004
,,,-3.42500000e-009,-4.00000028e-004
,,,-3.40000000e-009,-3.59375025e-004
,,,-3.37500000e-009,-3.34375024e-004
,,,-3.35000000e-009,-3.23437523e-004
,,,-3.32500000e-009,-3.25000023e-004
,,,-3.30000000e-009,-3.37500024e-004
,,,-3.27500000e-009,-3.56250025e-004
,,,-3.25000000e-009,-3.78125027e-004
,,,-3.22500000e-009,-4.00000028e-004
,,,-3.20000000e-009,-4.17187530e-004
,,,-3.17500000e-009,-4.28125030e-004
,,,-3.15000000e-009,-4.34375031e-004
,,,-3.12500000e-009,-4.34375031e-004
,,,-3.10000000e-009,-4.28125030e-004
,,,-3.07500000e-009,-4.20312530e-004
,,,-3.05000000e-009,-4.09375029e-004
,,,-3.02500000e-009,-4.00000028e-004
,,,-3.00000000e-009,-3.90625028e-004
,,,-2.97500000e-009,-3.82812527e-004
,,,-2.95000000e-009,-3.78125027e-004
,,,-2.92500000e-009,-3.76562527e-004
,,,-2.90000000e-009,-3.78125027e-004
,,,-2.87500000e-009,-3.81250027e-004
,,,-2.85000000e-009,-3.89062528e-004
,,,-2.82500000e-009,-4.00000028e-004
,,,-2.80000000e-009,-4.15625029e-004
,,,-2.77500000e-009,-4.37500031e-004
,,,-2.75000000e-009,-4.68750033e-004
,,,-2.72500000e-009,-5.10937536e-004
,,,-2.70000000e-009,-5.64062540e-004
,,,-2.67500000e-009,-6.31250045e-004
,,,-2.65000000e-009,-7.09375050e-004
,,,-2.62500000e-009,-8.00000057e-004
,,,-2.60000000e-009,-8.92187563e-004
,,,-2.57500000e-009,-9.84375070e-004
,,,-2.55000000e-009,-1.07031258e-003
,,,-2.52500000e-009,-1.14218758e-003
,,,-2.50000000e-009,-1.19531258e-003
,,,-2.47500000e-009,-1.22500009e-003
,,,-2.45000000e-009,-1.22812509e-003
,,,-2.42500000e-009,-1.20000008e-003
,,,-2.40000000e-009,-1.13593758e-003
,,,-2.37500000e-009,-1.04687507e-003
,,,-2.35000000e-009,-9.40625067e-004
,,,-2.32500000e-009,-8.23437558e-004
,,,-2.30000000e-009,-7.03125050e-004
,,,-2.27500000e-009,-5.87500042e-004
,,,-2.25000000e-009,-4.84375034e-004
,,,-2.22500000e-009,-4.00000028e-004
,,,-2.20000000e-009,-3.34375024e-004
,,,-2.17500000e-009,-2.95312521e-004
,,,-2.15000000e-009,-2.78125020e-004
,,,-2.12500000e-009,-2.81250020e-004
,,,-2.10000000e-009,-3.00000021e-004
,,,-2.07500000e-009,-3.29687523e-004
,,,-2.05000000e-009,-3.64062526e-004
,,,-2.02500000e-009,-4.00000028e-004
,,,-2.00000000e-009,-4.29687530e-004
,,,-1.97500000e-009,-4.50000032e-004
,,,-1.95000000e-009,-4.62500033e-004
,,,-1.92500000e-009,-4.64062533e-004
,,,-1.90000000e-009,-4.56250032e-004
,,,-1.87500000e-009,-4.42187531e-004
,,,-1.85000000e-009,-4.21875030e-004
,,,-1.82500000e-009,-4.00000028e-004
,,,-1.80000000e-009,-3.78125027e-004
,,,-1.77500000e-009,-3.59375025e-004
,,,-1.75000000e-009,-3.48437525e-004
,,,-1.72500000e-009,-3.42187524e-004
,,,-1.70000000e-009,-3.46875025e-004
,,,-1.67500000e-009,-3.57812525e-004
,,,-1.65000000e-009,-3.75000027e-004
,,,-1.62500000e-009,-4.00000028e-004
,,,-1.60000000e-009,-4.28125030e-004
,,,-1.57500000e-009,-4.56250032e-004
,,,-1.55000000e-009,-4.78125034e-004
,,,-1.52500000e-009,-4.90625035e-004
,,,-1.50000000e-009,-4.92187535e-004
,,,-1.47500000e-009,-4.76562534e-004
,,,-1.45000000e-009,-4.45312532e-004
,,,-1.42500000e-009,-4.00000028e-004
,,,-1.40000000e-009,-3.53125025e-004
,,,-1.37500000e-009,-2.98437521e-004
,,,-1.35000000e-009,-2.39062517e-004
,,,-1.32500000e-009,-1.76562512e-004
,,,-1.30000000e-009,-1.17187508e-004
,,,-1.27500000e-009,-6.56250046e-005
,,,-1.25000000e-009,-2.50000018e-005
,,,-1.22500000e-009,0.00000000e+000
,,,-1.20000000e-009,-2.65625019e-005
,,,-1.17500000e-009,-7.50000053e-005
,,,-1.15000000e-009,-1.37500010e-004
,,,-1.12500000e-009,-2.07812515e-004
,,,-1.10000000e-009,-2.76562520e-004
,,,-1.07500000e-009,-3.34375024e-004
,,,-1.05000000e-009,-3.76562527e-004
,,,-1.02500000e-009,-4.00000028e-004
,,,-1.00000000e-009,-4.67187533e-004
,,,-9.75000000e-010,-5.21875037e-004
,,,-9.50000000e-010,-5.57812539e-004
,,,-9.25000000e-010,-5.71875040e-004
,,,-9.00000000e-010,-5.62500040e-004
,,,-8.75000000e-010,-5.28125037e-004
,,,-8.50000000e-010,-4.71875033e-004
,,,-8.25000000e-010,-4.00000028e-004
,,,-8.00000000e-010,-4.26562530e-004
,,,-7.75000000e-010,-4.68750033e-004
,,,-7.50000000e-010,-5.23437537e-004
,,,-7.25000000e-010,-5.82812541e-004
,,,-7.00000000e-010,-6.42187545e-004
,,,-6.75000000e-010,-6.98437549e-004
,,,-6.50000000e-010,-7.50000053e-004
,,,-6.25000000e-010,-8.00000057e-004
,,,-6.00000000e-010,-9.93750070e-004
,,,-5.75000000e-010,-1.21718759e-003
,,,-5.50000000e-010,-1.46250010e-003
,,,-5.25000000e-010,-1.72031262e-003
,,,-5.00000000e-010,-1.98750014e-003
,,,-4.75000000e-010,-2.25468766e-003
,,,-4.50000000e-010,-2.52343768e-003
,,,-4.25000000e-010,-2.80000020e-003
,,,-4.00000000e-010,-3.23750023e-003
,,,-3.75000000e-010,-3.71875026e-003
,,,-3.50000000e-010,-4.23750030e-003
,,,-3.25000000e-010,-4.78750034e-003
,,,-3.00000000e-010,-5.36093788e-003
,,,-2.75000000e-010,-5.95468792e-003
,,,-2.50000000e-010,-6.56562546e-003
,,,-2.25000000e-010,-7.20000051e-003
,,,-2.00000000e-010,-7.98125056e-003
,,,-1.75000000e-010,-8.81406312e-003
,,,-1.50000000e-010,-9.69218819e-003
,,,-1.25000000e-010,-1.06031258e-002
,,,-1.00000000e-010,-1.15375008e-002
,,,-7.50000000e-011,-1.24859384e-002
,,,-5.00000000e-011,-1.34406260e-002
,,,-2.50000000e-011,-1.44000010e-002
,,,0.00000000e+000,-1.54234386e-002
,,,2.50000000e-011,-1.64703137e-002
,,,5.00000000e-011,-1.75328137e-002
,,,7.50000000e-011,-1.86046888e-002
,,,1.00000000e-010,-1.96750014e-002
,,,1.25000000e-010,-2.07359390e-002
,,,1.50000000e-010,-2.17781265e-002
,,,1.75000000e-010,-2.28000016e-002
,,,2.00000000e-010,-2.37843767e-002
,,,2.25000000e-010,-2.47687518e-002
,,,2.50000000e-010,-2.57531268e-002
,,,2.75000000e-010,-2.67281269e-002
,,,3.00000000e-010,-2.76890645e-002
,,,3.25000000e-010,-2.86250020e-002
,,,3.50000000e-010,-2.95312521e-002
,,,3.75000000e-010,-3.04000022e-002
,,,4.00000000e-010,-3.11406272e-002
,,,4.25000000e-010,-3.18718773e-002
,,,4.50000000e-010,-3.25953148e-002
,,,4.75000000e-010,-3.33125024e-002
,,,5.00000000e-010,-3.40187524e-002
,,,5.25000000e-010,-3.47062525e-002
,,,5.50000000e-010,-3.53687525e-002
,,,5.75000000e-010,-3.60000025e-002
,,,6.00000000e-010,-3.64500026e-002
,,,6.25000000e-010,-3.68890651e-002
,,,6.50000000e-010,-3.73203151e-002
,,,6.75000000e-010,-3.77437527e-002
,,,7.00000000e-010,-3.81500027e-002
,,,7.25000000e-010,-3.85343777e-002
,,,7.50000000e-010,-3.88875028e-002
,,,7.75000000e-010,-3.92000028e-002
,,,8.00000000e-010,-3.92921903e-002
,,,8.25000000e-010,-3.93718778e-002
,,,8.50000000e-010,-3.94515653e-002
,,,8.75000000e-010,-3.95390653e-002
,,,9.00000000e-010,-3.96390653e-002
,,,9.25000000e-010,-3.97515653e-002
,,,9.50000000e-010,-3.98734403e-002
,,,9.75000000e-010,-4.00000028e-002
,,,1.00000000e-009,-3.99406278e-002
,,,1.02500000e-009,-3.98906278e-002
,,,1.05000000e-009,-3.98500028e-002
,,,1.07500000e-009,-3.98171903e-002
,,,1.10000000e-009,-3.97843778e-002
,,,1.12500000e-009,-3.97437528e-002
,,,1.15000000e-009,-3.96843778e-002
,,,1.17500000e-009,-3.96000028e-002
,,,1.20000000e-009,-3.93093778e-002
,,,1.22500000e-009,-3.89937528e-002
,,,1.25000000e-009,-3.86656277e-002
,,,1.27500000e-009,-3.83359402e-002
,,,1.30000000e-009,-3.80187527e-002
,,,1.32500000e-009,-3.77234402e-002
,,,1.35000000e-009,-3.74500027e-002
,,,1.37500000e-009,-3.72000026e-002
,,,1.40000000e-009,-3.68218776e-002
,,,1.42500000e-009,-3.64468776e-002
,,,1.45000000e-009,-3.60718776e-002
,,,1.47500000e-009,-3.56921900e-002
,,,1.50000000e-009,-3.53031275e-002
,,,1.52500000e-009,-3.48984400e-002
,,,1.55000000e-009,-3.44656274e-002
,,,1.57500000e-009,-3.40000024e-002
,,,1.60000000e-009,-3.33812524e-002
,,,1.62500000e-009,-3.27093773e-002
,,,1.65000000e-009,-3.19953148e-002
,,,1.67500000e-009,-3.12578147e-002
,,,1.70000000e-009,-3.05125022e-002
,,,1.72500000e-009,-2.97812521e-002
,,,1.75000000e-009,-2.90734396e-002
,,,1.77500000e-009,-2.84000020e-002
,,,1.80000000e-009,-2.77000020e-002
,,,1.82500000e-009,-2.70156269e-002
,,,1.85000000e-009,-2.63484394e-002
,,,1.87500000e-009,-2.56968768e-002
,,,1.90000000e-009,-2.50593768e-002
,,,1.92500000e-009,-2.44328142e-002
,,,1.95000000e-009,-2.38156267e-002
,,,1.97500000e-009,-2.32000016e-002
,,,2.00000000e-009,-2.25546891e-002
,,,2.02500000e-009,-2.18781265e-002
,,,2.05000000e-009,-2.11718765e-002
,,,2.07500000e-009,-2.04453139e-002
,,,2.10000000e-009,-1.97125014e-002
,,,2.12500000e-009,-1.89875013e-002
,,,2.15000000e-009,-1.82796888e-002
,,,2.17500000e-009,-1.76000012e-002
,,,2.20000000e-009,-1.69687512e-002
,,,2.22500000e-009,-1.63437512e-002
,,,2.25000000e-009,-1.57234386e-002
,,,2.27500000e-009,-1.51109386e-002
,,,2.30000000e-009,-1.45078135e-002
,,,2.32500000e-009,-1.39203135e-002
,,,2.35000000e-009,-1.33515634e-002
,,,2.37500000e-009,-1.28000009e-002
,,,2.40000000e-009,-1.23125009e-002
,,,2.42500000e-009,-1.18125008e-002
,,,2.45000000e-009,-1.13015633e-002
,,,2.47500000e-009,-1.07812508e-002
,,,2.50000000e-009,-1.02609382e-002
,,,2.52500000e-009,-9.75156319e-003
,,,2.55000000e-009,-9.26093816e-003
,,,2.57500000e-009,-8.80000062e-003
,,,2.60000000e-009,-8.43437560e-003
,,,2.62500000e-009,-8.07187557e-003
,,,2.65000000e-009,-7.70937555e-003
,,,2.67500000e-009,-7.34843802e-003
,,,2.70000000e-009,-6.99218799e-003
,,,2.72500000e-009,-6.64687547e-003
,,,2.75000000e-009,-6.31406295e-003
,,,2.77500000e-009,-6.00000042e-003
,,,2.80000000e-009,-5.77031291e-003
,,,2.82500000e-009,-5.53437539e-003
,,,2.85000000e-009,-5.28593787e-003
,,,2.87500000e-009,-5.02656286e-003
,,,2.90000000e-009,-4.76250034e-003
,,,2.92500000e-009,-4.49843782e-003
,,,2.95000000e-009,-4.24218780e-003
,,,2.97500000e-009,-4.00000028e-003
,,,3.00000000e-009,-3.83593777e-003
,,,3.02500000e-009,-3.66875026e-003
,,,3.05000000e-009,-3.50156275e-003
,,,3.07500000e-009,-3.33593774e-003
,,,3.10000000e-009,-3.17656272e-003
,,,3.12500000e-009,-3.03125021e-003
,,,3.15000000e-009,-2.90468771e-003
,,,3.17500000e-009,-2.80000020e-003
,,,3.20000000e-009,-2.76406270e-003
,,,3.22500000e-009,-2.73125019e-003
,,,3.25000000e-009,-2.69375019e-003
,,,3.27500000e-009,-2.65000019e-003
,,,3.30000000e-009,-2.59687518e-003
,,,3.32500000e-009,-2.53750018e-003
,,,3.35000000e-009,-2.47031267e-003
,,,3.37500000e-009,-2.40000017e-003
,,,3.40000000e-009,-2.36093767e-003
,,,3.42500000e-009,-2.31093766e-003
,,,3.45000000e-009,-2.25156266e-003
,,,3.47500000e-009,-2.18750015e-003
,,,3.50000000e-009,-2.12343765e-003
,,,3.52500000e-009,-2.06875015e-003
,,,3.55000000e-009,-2.02500014e-003
,,,3.57500000e-009,-2.00000014e-003
,,,3.60000000e-009,-2.01250014e-003
,,,3.62500000e-009,-2.02968764e-003
,,,3.65000000e-009,-2.04843764e-003
,,,3.67500000e-009,-2.06406265e-003
,,,3.70000000e-009,-2.07031265e-003
,,,3.72500000e-009,-2.06406265e-003
,,,3.75000000e-009,-2.04062514e-003
,,,3.77500000e-009,-2.00000014e-003
,,,3.80000000e-009,-1.94843764e-003
,,,3.82500000e-009,-1.87500013e-003
,,,3.85000000e-009,-1.77968763e-003
,,,3.87500000e-009,-1.66718762e-003
,,,3.90000000e-009,-1.54687511e-003
,,,3.92500000e-009,-1.42343760e-003
,,,3.95000000e-009,-1.30468759e-003
,,,3.97500000e-009,-1.20000008e-003
,,,4.00000000e-009,-1.12343758e-003
,,,4.02500000e-009,-1.07031258e-003
,,,4.05000000e-009,-1.03906257e-003
,,,4.07500000e-009,-1.02968757e-003
,,,4.10000000e-009,-1.04531257e-003
,,,4.12500000e-009,-1.07968758e-003
,,,4.15000000e-009,-1.13281258e-003
,,,4.17500000e-009,-1.20000008e-003
,,,4.20000000e-009,-1.27812509e-003
,,,4.22500000e-009,-1.35781260e-003
,,,4.25000000e-009,-1.43125010e-003
,,,4.27500000e-009,-1.49531261e-003
,,,4.30000000e-009,-1.54531261e-003
,,,4.32500000e-009,-1.58125011e-003
,,,4.35000000e-009,-1.60000011e-003
,,,4.37500000e-009,-1.60000011e-003
,,,4.40000000e-009,-1.57968761e-003
,,,4.42500000e-009,-1.54218761e-003
,,,4.45000000e-009,-1.49062511e-003
,,,4.47500000e-009,-1.43125010e-003
,,,4.50000000e-009,-1.36718760e-003
,,,4.52500000e-009,-1.30468759e-003
,,,4.55000000e-009,-1.24687509e-003
,,,4.57500000e-009,-1.20000008e-003
,,,4.60000000e-009,-1.16093758e-003
,,,4.62500000e-009,-1.13437508e-003
,,,4.65000000e-009,-1.12031258e-003
,,,4.67500000e-009,-1.11875008e-003
,,,4.70000000e-009,-1.12812508e-003
,,,4.72500000e-009,-1.14687508e-003
,,,4.75000000e-009,-1.17031258e-003
,,,4.77500000e-009,-1.20000008e-003
,,,4.80000000e-009,-1.22343759e-003
,,,4.82500000e-009,-1.24062509e-003
,,,4.85000000e-009,-1.25312509e-003
,,,4.87500000e-009,-1.25781259e-003
,,,4.90000000e-009,-1.25312509e-003
,,,4.92500000e-009,-1.24218759e-003
,,,4.95000000e-009,-1.22343759e-003
,,,4.97500000e-009,-1.20000008e-003
,,,5.00000000e-009,-1.16093758e-003
,,,5.02500000e-009,-1.11718758e-003
,,,5.05000000e-009,-1.06718758e-003
,,,5.07500000e-009,-1.01562507e-003
,,,5.10000000e-009,-9.62500068e-004
,,,5.12500000e-009,-9.07812564e-004
,,,5.15000000e-009,-8.53125060e-004
,,,5.17500000e-009,-8.00000057e-004
,,,5.20000000e-009,-7.40625052e-004
,,,5.22500000e-009,-6.82812548e-004
,,,5.25000000e-009,-6.28125044e-004
,,,5.27500000e-009,-5.75000041e-004
,,,5.30000000e-009,-5.26562537e-004
,,,5.32500000e-009,-4.79687534e-004
,,,5.35000000e-009,-4.37500031e-004
,,,5.37500000e-009,-4.00000028e-004
,,,5.40000000e-009,-3.60937526e-004
,,,5.42500000e-009,-3.21875023e-004
,,,5.45000000e-009,-2.78125020e-004
,,,5.47500000e-009,-2.31250016e-004
,,,5.50000000e-009,-1.79687513e-004
,,,5.52500000e-009,-1.25000009e-004
,,,5.55000000e-009,-6.40625045e-005
,,,5.57500000e-009,0.00000000e+000
,,,5.60000000e-009,6.40625045e-005
,,,5.62500000e-009,1.31250009e-004
,,,5.65000000e-009,1.95312514e-004
,,,5.67500000e-009,2.54687518e-004
,,,5.70000000e-009,3.07812522e-004
,,,5.72500000e-009,3.50000025e-004
,,,5.75000000e-009,3.81250027e-004
,,,5.77500000e-009,4.00000028e-004
,,,5.80000000e-009,4.00000028e-004
,,,5.82500000e-009,3.92187528e-004
