RawData/DifferentLengths/R3/R3_25_5mV/wave012_Ch1.csv

"Record Length",1000,"Points",-7.72500000e-009,-2.60156324e-004
"Sample Interval",2.50000000e-011,s,-7.70000000e-009,-3.01562577e-004
"Trigger Point",309,"Samples",-7.67500000e-009,-3.42968830e-004
"Trigger Time",2.40200000e-011,s,-7.65000000e-009,-3.77343833e-004
"",,,-7.62500000e-009,-4.00000084e-004
"Horizontal Offset",-7.72500000e-009,s,-7.60000000e-009,-4.08593835e-004
,,,-7.57500000e-009,-4.00781334e-004
,,,-7.55000000e-009,-3.79687583e-004
,,,-7.52500000e-009,-3.48437581e-004
,,,-7.50000000e-009,-3.09375078e-004
,,,-7.47500000e-009,-2.69531325e-004
,,,-7.45000000e-009,-2.32031322e-004
,,,-7.42500000e-009,-2.00000070e-004
,,,-7.40000000e-009,-1.78125068e-004
,,,-7.37500000e-009,-1.66406318e-004
,,,-7.35000000e-009,-1.64062567e-004
,,,-7.32500000e-009,-1.68750068e-004
,,,-7.30000000e-009,-1.78125068e-004
,,,-7.27500000e-009,-1.89062569e-004
,,,-7.25000000e-009,-1.97656320e-004
,,,-7.22500000e-009,-2.00000070e-004
,,,-7.20000000e-009,-1.96093820e-004
,,,-7.17500000e-009,-1.83593819e-004
,,,-7.15000000e-009,-1.63281317e-004
,,,-7.12500000e-009,-1.35156315e-004
,,,-7.10000000e-009,-1.03125063e-004
,,,-7.07500000e-009,-6.79688107e-005
,,,-7.05000000e-009,-3.28125582e-005
,,,-7.02500000e-009,-5.58793550e-011
,,,-7.00000000e-009,2.26561957e-005
,,,-6.97500000e-009,3.98436969e-005
,,,-6.95000000e-009,4.92186976e-005
,,,-6.92500000e-009,5.15624478e-005
,,,-6.90000000e-009,4.68749474e-005
,,,-6.87500000e-009,3.67186967e-005
,,,-6.85000000e-009,2.03124456e-005
,,,-6.82500000e-009,-5.58793550e-011
,,,-6.80000000e-009,-2.65625578e-005
,,,-6.77500000e-009,-5.46875598e-005
,,,-6.75000000e-009,-8.35938118e-005
,,,-6.72500000e-009,-1.11718814e-004
,,,-6.70000000e-009,-1.38281316e-004
,,,-6.67500000e-009,-1.61718817e-004
,,,-6.65000000e-009,-1.82812569e-004
,,,-6.62500000e-009,-2.00000070e-004
,,,-6.60000000e-009,-2.16406321e-004
,,,-6.57500000e-009,-2.27343822e-004
,,,-6.55000000e-009,-2.33593822e-004
,,,-6.52500000e-009,-2.35156323e-004
,,,-6.50000000e-009,-2.32031322e-004
,,,-6.47500000e-009,-2.25000072e-004
,,,-6.45000000e-009,-2.14062571e-004
,,,-6.42500000e-009,-2.00000070e-004
,,,-6.40000000e-009,-1.87500069e-004
,,,-6.37500000e-009,-1.75000068e-004
,,,-6.35000000e-009,-1.65625068e-004
,,,-6.32500000e-009,-1.60156317e-004
,,,-6.30000000e-009,-1.60156317e-004
,,,-6.27500000e-009,-1.67187568e-004
,,,-6.25000000e-009,-1.80468819e-004
,,,-6.22500000e-009,-2.00000070e-004
,,,-6.20000000e-009,-2.26562572e-004
,,,-6.17500000e-009,-2.57031324e-004
,,,-6.15000000e-009,-2.89062576e-004
,,,-6.12500000e-009,-3.21093829e-004
,,,-6.10000000e-009,-3.49218831e-004
,,,-6.07500000e-009,-3.73437582e-004
,,,-6.05000000e-009,-3.90625084e-004
,,,-6.02500000e-009,-4.00000084e-004
,,,-6.00000000e-009,-4.02343834e-004
,,,-5.97500000e-009,-3.98437584e-004
,,,-5.95000000e-009,-3.92187584e-004
,,,-5.92500000e-009,-3.85156333e-004
,,,-5.90000000e-009,-3.80468833e-004
,,,-5.87500000e-009,-3.79687583e-004
,,,-5.85000000e-009,-3.86718833e-004
,,,-5.82500000e-009,-4.00000084e-004
,,,-5.80000000e-009,-4.20312586e-004
,,,-5.77500000e-009,-4.47656338e-004
,,,-5.75000000e-009,-4.78906340e-004
,,,-5.72500000e-009,-5.12500092e-004
,,,-5.70000000e-009,-5.43750094e-004
,,,-5.67500000e-009,-5.71093846e-004
,,,-5.65000000e-009,-5.90625098e-004
,,,-5.62500000e-009,-6.00000098e-004
,,,-5.60000000e-009,-5.94531348e-004
,,,-5.57500000e-009,-5.78125097e-004
,,,-5.55000000e-009,-5.53125095e-004
,,,-5.52500000e-009,-5.21875093e-004
,,,-5.50000000e-009,-4.87500090e-004
,,,-5.47500000e-009,-4.53906338e-004
,,,-5.45000000e-009,-4.24218836e-004
,,,-5.42500000e-009,-4.00000084e-004
,,,-5.40000000e-009,-3.80468833e-004
,,,-5.37500000e-009,-3.68750082e-004
,,,-5.35000000e-009,-3.64062582e-004
,,,-5.32500000e-009,-3.66406332e-004
,,,-5.30000000e-009,-3.72656332e-004
,,,-5.27500000e-009,-3.82031333e-004
,,,-5.25000000e-009,-3.92187584e-004
,,,-5.22500000e-009,-4.00000084e-004
,,,-5.20000000e-009,-4.03906334e-004
,,,-5.17500000e-009,-4.04687585e-004
,,,-5.15000000e-009,-4.03125084e-004
,,,-5.12500000e-009,-4.00000084e-004
,,,-5.10000000e-009,-3.97656334e-004
,,,-5.07500000e-009,-3.96093834e-004
,,,-5.05000000e-009,-3.96875084e-004
,,,-5.02500000e-009,-4.00000084e-004
,,,-5.00000000e-009,-4.04687585e-004
,,,-4.97500000e-009,-4.11718835e-004
,,,-4.95000000e-009,-4.17968835e-004
,,,-4.92500000e-009,-4.24218836e-004
,,,-4.90000000e-009,-4.27343836e-004
,,,-4.87500000e-009,-4.25781336e-004
,,,-4.85000000e-009,-4.17187585e-004
,,,-4.82500000e-009,-4.00000084e-004
,,,-4.80000000e-009,-3.74218832e-004
,,,-4.77500000e-009,-3.38281330e-004
,,,-4.75000000e-009,-2.94531327e-004
,,,-4.72500000e-009,-2.42968823e-004
,,,-4.70000000e-009,-1.85937569e-004
,,,-4.67500000e-009,-1.25000065e-004
,,,-4.65000000e-009,-6.25000603e-005
,,,-4.62500000e-009,-5.58793550e-011
,,,-4.60000000e-009,5.39061979e-005
,,,-4.57500000e-009,1.03124951e-004
,,,-4.55000000e-009,1.43749954e-004
,,,-4.52500000e-009,1.75781207e-004
,,,-4.50000000e-009,1.96874958e-004
,,,-4.47500000e-009,2.08593709e-004
,,,-4.45000000e-009,2.08593709e-004
,,,-4.42500000e-009,1.99999958e-004
,,,-4.40000000e-009,1.77343707e-004
,,,-4.37500000e-009,1.49999955e-004
,,,-4.35000000e-009,1.18749953e-004
,,,-4.32500000e-009,8.74999503e-005
,,,-4.30000000e-009,5.78124482e-005
,,,-4.27500000e-009,3.28124464e-005
,,,-4.25000000e-009,1.24999450e-005
,,,-4.22500000e-009,-5.58793550e-011
,,,-4.20000000e-009,-1.01563066e-005
,,,-4.17500000e-009,-1.32813068e-005
,,,-4.15000000e-009,-1.17188067e-005
,,,-4.12500000e-009,-7.03130638e-006
,,,-4.10000000e-009,-1.56255599e-006
,,,-4.07500000e-009,3.12494434e-006
,,,-4.05000000e-009,3.90619440e-006
,,,-4.02500000e-009,-5.58793550e-011
,,,-4.00000000e-009,-1.32813068e-005
,,,-3.97500000e-009,-3.20313081e-005
,,,-3.95000000e-009,-5.54688098e-005
,,,-3.92500000e-009,-8.35938118e-005
,,,-3.90000000e-009,-1.13281314e-004
,,,-3.87500000e-009,-1.44531316e-004
,,,-3.85000000e-009,-1.74218818e-004
,,,-3.82500000e-009,-2.00000070e-004
,,,-3.80000000e-009,-2.23437572e-004
,,,-3.77500000e-009,-2.39843823e-004
,,,-3.75000000e-009,-2.49218824e-004
,,,-3.72500000e-009,-2.51562574e-004
,,,-3.70000000e-009,-2.46875073e-004
,,,-3.67500000e-009,-2.35156323e-004
,,,-3.65000000e-009,-2.19531321e-004
,,,-3.62500000e-009,-2.00000070e-004
,,,-3.60000000e-009,-1.80468819e-004
,,,-3.57500000e-009,-1.61718817e-004
,,,-3.55000000e-009,-1.48437566e-004
,,,-3.52500000e-009,-1.41406316e-004
,,,-3.50000000e-009,-1.42187566e-004
,,,-3.47500000e-009,-1.53125067e-004
,,,-3.45000000e-009,-1.72656318e-004
,,,-3.42500000e-009,-2.00000070e-004
,,,-3.40000000e-009,-2.34375072e-004
,,,-3.37500000e-009,-2.72656325e-004
,,,-3.35000000e-009,-3.11718828e-004
,,,-3.32500000e-009,-3.48437581e-004
,,,-3.30000000e-009,-3.78125083e-004
,,,-3.27500000e-009,-3.97656334e-004
,,,-3.25000000e-009,-4.05468835e-004
,,,-3.22500000e-009,-4.00000084e-004
,,,-3.20000000e-009,-3.80468833e-004
,,,-3.17500000e-009,-3.50000081e-004
,,,-3.15000000e-009,-3.14843828e-004
,,,-3.12500000e-009,-2.77343826e-004
,,,-3.10000000e-009,-2.43750073e-004
,,,-3.07500000e-009,-2.17187571e-004
,,,-3.05000000e-009,-2.02343820e-004
,,,-3.02500000e-009,-2.00000070e-004
,,,-3.00000000e-009,-2.12500071e-004
,,,-2.97500000e-009,-2.37500073e-004
,,,-2.95000000e-009,-2.70312575e-004
,,,-2.92500000e-009,-3.07812578e-004
,,,-2.90000000e-009,-3.44531330e-004
,,,-2.87500000e-009,-3.75000082e-004
,,,-2.85000000e-009,-3.94531334e-004
,,,-2.82500000e-009,-4.00000084e-004
,,,-2.80000000e-009,-3.90625084e-004
,,,-2.77500000e-009,-3.67187582e-004
,,,-2.75000000e-009,-3.34375080e-004
,,,-2.72500000e-009,-2.96875077e-004
,,,-2.70000000e-009,-2.60156324e-004
,,,-2.67500000e-009,-2.28906322e-004
,,,-2.65000000e-009,-2.07812571e-004
,,,-2.62500000e-009,-2.00000070e-004
,,,-2.60000000e-009,-2.07812571e-004
,,,-2.57500000e-009,-2.28906322e-004
,,,-2.55000000e-009,-2.60156324e-004
,,,-2.52500000e-009,-2.96875077e-004
,,,-2.50000000e-009,-3.34375080e-004
,,,-2.47500000e-009,-3.67187582e-004
,,,-2.45000000e-009,-3.90625084e-004
,,,-2.42500000e-009,-4.00000084e-004
,,,-2.40000000e-009,-3.94531334e-004
,,,-2.37500000e-009,-3.75000082e-004
,,,-2.35000000e-009,-3.44531330e-004
,,,-2.32500000e-009,-3.07812578e-004
,,,-2.30000000e-009,-2.70312575e-004
,,,-2.27500000e-009,-2.37500073e-004
,,,-2.25000000e-009,-2.12500071e-004
,,,-2.22500000e-009,-2.00000070e-004
,,,-2.20000000e-009,-2.03125070e-004
,,,-2.17500000e-009,-2.18750071e-004
,,,-2.15000000e-009,-2.46093823e-004
,,,-2.12500000e-009,-2.80468826e-004
,,,-2.10000000e-009,-3.17968828e-004
,,,-2.07500000e-009,-3.53125081e-004
,,,-2.05000000e-009,-3.82031333e-004
,,,-2.02500000e-009,-4.00000084e-004
,,,-2.00000000e-009,-4.04687585e-004
,,,-1.97500000e-009,-3.95312584e-004
,,,-1.95000000e-009,-3.74218832e-004
,,,-1.92500000e-009,-3.43750080e-004
,,,-1.90000000e-009,-3.07812578e-004
,,,-1.87500000e-009,-2.69531325e-004
,,,-1.85000000e-009,-2.32031322e-004
,,,-1.82500000e-009,-2.00000070e-004
,,,-1.80000000e-009,-1.76562568e-004
,,,-1.77500000e-009,-1.61718817e-004
,,,-1.75000000e-009,-1.55468817e-004
,,,-1.72500000e-009,-1.57031317e-004
,,,-1.70000000e-009,-1.64062567e-004
,,,-1.67500000e-009,-1.75000068e-004
,,,-1.65000000e-009,-1.88281319e-004
,,,-1.62500000e-009,-2.00000070e-004
,,,-1.60000000e-009,-2.11718821e-004
,,,-1.57500000e-009,-2.19531321e-004
,,,-1.55000000e-009,-2.23437572e-004
,,,-1.52500000e-009,-2.23437572e-004
,,,-1.50000000e-009,-2.20312571e-004
,,,-1.47500000e-009,-2.14843821e-004
,,,-1.45000000e-009,-2.07812571e-004
,,,-1.42500000e-009,-2.00000070e-004
,,,-1.40000000e-009,-1.99218820e-004
,,,-1.37500000e-009,-1.99218820e-004
,,,-1.35000000e-009,-2.00000070e-004
,,,-1.32500000e-009,-2.02343820e-004
,,,-1.30000000e-009,-2.03906320e-004
,,,-1.27500000e-009,-2.03906320e-004
,,,-1.25000000e-009,-2.03125070e-004
,,,-1.22500000e-009,-2.00000070e-004
,,,-1.20000000e-009,-2.07031321e-004
,,,-1.17500000e-009,-2.14062571e-004
,,,-1.15000000e-009,-2.19531321e-004
,,,-1.12500000e-009,-2.22656322e-004
,,,-1.10000000e-009,-2.22656322e-004
,,,-1.07500000e-009,-2.18750071e-004
,,,-1.05000000e-009,-2.11718821e-004
,,,-1.02500000e-009,-2.00000070e-004
,,,-1.00000000e-009,-2.10156321e-004
,,,-9.75000000e-010,-2.21093822e-004
,,,-9.50000000e-010,-2.29687572e-004
,,,-9.25000000e-010,-2.35937573e-004
,,,-9.00000000e-010,-2.35937573e-004
,,,-8.75000000e-010,-2.30468822e-004
,,,-8.50000000e-010,-2.17968821e-004
,,,-8.25000000e-010,-2.00000070e-004
,,,-8.00000000e-010,-2.12500071e-004
,,,-7.75000000e-010,-2.28906322e-004
,,,-7.50000000e-010,-2.48437573e-004
,,,-7.25000000e-010,-2.71875075e-004
,,,-7.00000000e-010,-2.99218827e-004
,,,-6.75000000e-010,-3.28906329e-004
,,,-6.50000000e-010,-3.62500082e-004
,,,-6.25000000e-010,-4.00000084e-004
,,,-6.00000000e-010,-4.84375090e-004
,,,-5.75000000e-010,-5.78906347e-004
,,,-5.50000000e-010,-6.82031354e-004
,,,-5.25000000e-010,-7.89843862e-004
,,,-5.00000000e-010,-8.96875119e-004
,,,-4.75000000e-010,-1.00156263e-003
,,,-4.50000000e-010,-1.10234388e-003
,,,-4.25000000e-010,-1.20000014e-003
,,,-4.00000000e-010,-1.33437515e-003
,,,-3.75000000e-010,-1.47812516e-003
,,,-3.50000000e-010,-1.63125017e-003
,,,-3.25000000e-010,-1.79687518e-003
,,,-3.00000000e-010,-1.97421895e-003
,,,-2.75000000e-010,-2.16718771e-003
,,,-2.50000000e-010,-2.37500022e-003
,,,-2.25000000e-010,-2.60000024e-003
,,,-2.00000000e-010,-2.87109401e-003
,,,-1.75000000e-010,-3.16250028e-003
,,,-1.50000000e-010,-3.46953155e-003
,,,-1.25000000e-010,-3.78593782e-003
,,,-1.00000000e-010,-4.10312535e-003
,,,-7.50000000e-011,-4.41484412e-003
,,,-5.00000000e-011,-4.71484414e-003
,,,-2.50000000e-011,-5.00000041e-003
,,,0.00000000e+000,-5.27578168e-003
,,,2.50000000e-011,-5.54062545e-003
,,,5.00000000e-011,-5.79609422e-003
,,,7.50000000e-011,-6.04453173e-003
,,,1.00000000e-010,-6.28750050e-003
,,,1.25000000e-010,-6.52656302e-003
,,,1.50000000e-010,-6.76328178e-003
,,,1.75000000e-010,-7.00000055e-003
,,,2.00000000e-010,-7.22578182e-003
,,,2.25000000e-010,-7.45859433e-003
,,,2.50000000e-010,-7.69687560e-003
,,,2.75000000e-010,-7.93593812e-003
,,,3.00000000e-010,-8.17187563e-003
,,,3.25000000e-010,-8.39765690e-003
,,,3.50000000e-010,-8.60781317e-003
,,,3.75000000e-010,-8.80000068e-003
,,,4.00000000e-010,-8.94375069e-003
,,,4.25000000e-010,-9.07578195e-003
,,,4.50000000e-010,-9.20078196e-003
,,,4.75000000e-010,-9.32031322e-003
,,,5.00000000e-010,-9.43906322e-003
,,,5.25000000e-010,-9.55781323e-003
,,,5.50000000e-010,-9.67812574e-003
,,,5.75000000e-010,-9.80000075e-003
,,,6.00000000e-010,-9.88750076e-003
,,,6.25000000e-010,-9.98359451e-003
,,,6.50000000e-010,-1.00890633e-002
,,,6.75000000e-010,-1.02000008e-002
,,,7.00000000e-010,-1.03125008e-002
,,,7.25000000e-010,-1.04203133e-002
,,,7.50000000e-010,-1.05179696e-002
,,,7.75000000e-010,-1.06000008e-002
,,,8.00000000e-010,-1.06210946e-002
,,,8.25000000e-010,-1.06312508e-002
,,,8.50000000e-010,-1.06320321e-002
,,,8.75000000e-010,-1.06273446e-002
,,,9.00000000e-010,-1.06203133e-002
,,,9.25000000e-010,-1.06125008e-002
,,,9.50000000e-010,-1.06054696e-002
,,,9.75000000e-010,-1.06000008e-002
,,,1.00000000e-009,-1.05562508e-002
,,,1.02500000e-009,-1.05179696e-002
,,,1.05000000e-009,-1.04875008e-002
,,,1.07500000e-009,-1.04640633e-002
,,,1.10000000e-009,-1.04460945e-002
,,,1.12500000e-009,-1.04320320e-002
,,,1.15000000e-009,-1.04179695e-002
,,,1.17500000e-009,-1.04000008e-002
,,,1.20000000e-009,-1.03398445e-002
,,,1.22500000e-009,-1.02718758e-002
,,,1.25000000e-009,-1.01984383e-002
,,,1.27500000e-009,-1.01210945e-002
,,,1.30000000e-009,-1.00414070e-002
,,,1.32500000e-009,-9.96093826e-003
,,,1.35000000e-009,-9.88046951e-003
,,,1.37500000e-009,-9.80000075e-003
,,,1.40000000e-009,-9.69296949e-003
,,,1.42500000e-009,-9.58437573e-003
,,,1.45000000e-009,-9.47812573e-003
,,,1.47500000e-009,-9.37421947e-003
,,,1.50000000e-009,-9.27500071e-003
,,,1.52500000e-009,-9.17968821e-003
,,,1.55000000e-009,-9.08906320e-003
,,,1.57500000e-009,-9.00000069e-003
,,,1.60000000e-009,-8.89140694e-003
,,,1.62500000e-009,-8.77734443e-003
,,,1.65000000e-009,-8.65859442e-003
,,,1.67500000e-009,-8.53515691e-003
,,,1.70000000e-009,-8.40781315e-003
,,,1.72500000e-009,-8.27578189e-003
,,,1.75000000e-009,-8.14062563e-003
,,,1.77500000e-009,-8.00000062e-003
,,,1.80000000e-009,-7.84453186e-003
,,,1.82500000e-009,-7.67890685e-003
,,,1.85000000e-009,-7.50468809e-003
,,,1.87500000e-009,-7.32500057e-003
,,,1.90000000e-009,-7.14218806e-003
,,,1.92500000e-009,-6.95859430e-003
,,,1.95000000e-009,-6.77734429e-003
,,,1.97500000e-009,-6.60000052e-003
,,,2.00000000e-009,-6.42656301e-003
,,,2.02500000e-009,-6.25546925e-003
,,,2.05000000e-009,-6.08906299e-003
,,,2.07500000e-009,-5.92890673e-003
,,,2.10000000e-009,-5.77890671e-003
,,,2.12500000e-009,-5.63984421e-003
,,,2.15000000e-009,-5.51406295e-003
,,,2.17500000e-009,-5.40000044e-003
,,,2.20000000e-009,-5.30468793e-003
,,,2.22500000e-009,-5.21171917e-003
,,,2.25000000e-009,-5.11796917e-003
,,,2.27500000e-009,-5.02187541e-003
,,,2.30000000e-009,-4.92265665e-003
,,,2.32500000e-009,-4.81875040e-003
,,,2.35000000e-009,-4.71171914e-003
,,,2.37500000e-009,-4.60000038e-003
,,,2.40000000e-009,-4.49609412e-003
,,,2.42500000e-009,-4.38515662e-003
,,,2.45000000e-009,-4.27109411e-003
,,,2.47500000e-009,-4.15703160e-003
,,,2.50000000e-009,-4.04921909e-003
,,,2.52500000e-009,-3.95156284e-003
,,,2.55000000e-009,-3.86796908e-003
,,,2.57500000e-009,-3.80000032e-003
,,,2.60000000e-009,-3.75937532e-003
,,,2.62500000e-009,-3.72421907e-003
,,,2.65000000e-009,-3.68984407e-003
,,,2.67500000e-009,-3.65156281e-003
,,,2.70000000e-009,-3.60703156e-003
,,,2.72500000e-009,-3.55156281e-003
,,,2.75000000e-009,-3.48281280e-003
,,,2.77500000e-009,-3.40000030e-003
,,,2.80000000e-009,-3.31484404e-003
,,,2.82500000e-009,-3.21328153e-003
,,,2.85000000e-009,-3.10000028e-003
,,,2.87500000e-009,-2.98125027e-003
,,,2.90000000e-009,-2.86406276e-003
,,,2.92500000e-009,-2.75781275e-003
,,,2.95000000e-009,-2.66796899e-003
,,,2.97500000e-009,-2.60000024e-003
,,,3.00000000e-009,-2.56640649e-003
,,,3.02500000e-009,-2.55078149e-003
,,,3.05000000e-009,-2.54921899e-003
,,,3.07500000e-009,-2.55859399e-003
,,,3.10000000e-009,-2.57343774e-003
,,,3.12500000e-009,-2.58906274e-003
,,,3.15000000e-009,-2.59921899e-003
,,,3.17500000e-009,-2.60000024e-003
,,,3.20000000e-009,-2.59375024e-003
,,,3.22500000e-009,-2.56875024e-003
,,,3.25000000e-009,-2.52656273e-003
,,,3.27500000e-009,-2.47031273e-003
,,,3.30000000e-009,-2.40468773e-003
,,,3.32500000e-009,-2.33437522e-003
,,,3.35000000e-009,-2.26484397e-003
,,,3.37500000e-009,-2.20000021e-003
,,,3.40000000e-009,-2.14921896e-003
,,,3.42500000e-009,-2.10703146e-003
,,,3.45000000e-009,-2.07265645e-003
,,,3.47500000e-009,-2.04687520e-003
,,,3.50000000e-009,-2.02812520e-003
,,,3.52500000e-009,-2.01562520e-003
,,,3.55000000e-009,-2.00703145e-003
,,,3.57500000e-009,-2.00000020e-003
,,,3.60000000e-009,-1.99531270e-003
,,,3.62500000e-009,-1.98593770e-003
,,,3.65000000e-009,-1.96953145e-003
,,,3.67500000e-009,-1.94609394e-003
,,,3.70000000e-009,-1.91718769e-003
,,,3.72500000e-009,-1.88281269e-003
,,,3.75000000e-009,-1.84296894e-003
,,,3.77500000e-009,-1.80000018e-003
,,,3.80000000e-009,-1.75703143e-003
,,,3.82500000e-009,-1.71015643e-003
,,,3.85000000e-009,-1.66015642e-003
,,,3.87500000e-009,-1.60781267e-003
,,,3.90000000e-009,-1.55468767e-003
,,,3.92500000e-009,-1.50156266e-003
,,,3.95000000e-009,-1.45000016e-003
,,,3.97500000e-009,-1.40000015e-003
,,,4.00000000e-009,-1.35703140e-003
,,,4.02500000e-009,-1.31718765e-003
,,,4.05000000e-009,-1.28125015e-003
,,,4.07500000e-009,-1.25156264e-003
,,,4.10000000e-009,-1.22812514e-003
,,,4.12500000e-009,-1.21250014e-003
,,,4.15000000e-009,-1.20312514e-003
,,,4.17500000e-009,-1.20000014e-003
,,,4.20000000e-009,-1.20781264e-003
,,,4.22500000e-009,-1.21640639e-003
,,,4.25000000e-009,-1.22500014e-003
,,,4.27500000e-009,-1.23125014e-003
,,,4.30000000e-009,-1.23281264e-003
,,,4.32500000e-009,-1.22890639e-003
,,,4.35000000e-009,-1.21796889e-003
,,,4.37500000e-009,-1.20000014e-003
,,,4.40000000e-009,-1.17968764e-003
,,,4.42500000e-009,-1.15312514e-003
,,,4.45000000e-009,-1.12265639e-003
,,,4.47500000e-009,-1.09140638e-003
,,,4.50000000e-009,-1.06093763e-003
,,,4.52500000e-009,-1.03437513e-003
,,,4.55000000e-009,-1.01328138e-003
,,,4.57500000e-009,-1.00000013e-003
,,,4.60000000e-009,-9.99218877e-004
,,,4.62500000e-009,-1.00390638e-003
,,,4.65000000e-009,-1.01093763e-003
,,,4.67500000e-009,-1.01796888e-003
,,,4.70000000e-009,-1.02343763e-003
,,,4.72500000e-009,-1.02343763e-003
,,,4.75000000e-009,-1.01562513e-003
,,,4.77500000e-009,-1.00000013e-003
,,,4.80000000e-009,-9.80468875e-004
,,,4.82500000e-009,-9.53906373e-004
,,,4.85000000e-009,-9.21875121e-004
,,,4.87500000e-009,-8.87500119e-004
,,,4.90000000e-009,-8.55468866e-004
,,,4.92500000e-009,-8.28125114e-004
,,,4.95000000e-009,-8.08593863e-004
,,,4.97500000e-009,-8.00000113e-004
,,,5.00000000e-009,-8.08593863e-004
,,,5.02500000e-009,-8.28125114e-004
,,,5.05000000e-009,-8.55468866e-004
,,,5.07500000e-009,-8.87500119e-004
,,,5.10000000e-009,-9.21875121e-004
,,,5.12500000e-009,-9.53906373e-004
,,,5.15000000e-009,-9.80468875e-004
,,,5.17500000e-009,-1.00000013e-003
,,,5.20000000e-009,-1.01015638e-003
,,,5.22500000e-009,-1.01171888e-003
,,,5.25000000e-009,-1.00625013e-003
,,,5.27500000e-009,-9.97656376e-004
,,,5.30000000e-009,-9.89843876e-004
,,,5.32500000e-009,-9.85937626e-004
,,,5.35000000e-009,-9.88281376e-004
,,,5.37500000e-009,-1.00000013e-003
,,,5.40000000e-009,-1.02187513e-003
,,,5.42500000e-009,-1.05156263e-003
,,,5.45000000e-009,-1.08515638e-003
,,,5.47500000e-009,-1.11953139e-003
,,,5.50000000e-009,-1.15234389e-003
,,,5.52500000e-009,-1.17812514e-003
,,,5.55000000e-009,-1.19453139e-003
,,,5.57500000e-009,-1.20000014e-003
,,,5.60000000e-009,-1.19296889e-003
,,,5.62500000e-009,-1.17812514e-003
,,,5.65000000e-009,-1.16015639e-003
,,,5.67500000e-009,-1.14453139e-003
,,,5.70000000e-009,-1.13671889e-003
,,,5.72500000e-009,-1.14218764e-003
,,,5.75000000e-009,-1.16328139e-003
,,,5.77500000e-009,-1.20000014e-003
,,,5.80000000e-009,-1.24921889e-003
,,,5.82500000e-009,-1.30625015e-003
