RawData/DifferentLengths/R3/R3_25_5mV/wave007_Ch1.csv

"Record Length",1000,"Points",-7.72500000e-009,-2.60156324e-004
"Sample Interval",2.50000000e-011,s,-7.70000000e-009,-2.30468822e-004
"Trigger Point",309,"Samples",-7.67500000e-009,-2.09375071e-004
"Trigger Time",2.40200000e-011,s,-7.65000000e-009,-1.99218820e-004
"",,,-7.62500000e-009,-2.00000070e-004
"Horizontal Offset",-7.72500000e-009,s,-7.60000000e-009,-2.15625071e-004
,,,-7.57500000e-009,-2.40625073e-004
,,,-7.55000000e-009,-2.72656325e-004
,,,-7.52500000e-009,-3.07812578e-004
,,,-7.50000000e-009,-3.42187580e-004
,,,-7.47500000e-009,-3.71875082e-004
,,,-7.45000000e-009,-3.91406334e-004
,,,-7.42500000e-009,-4.00000084e-004
,,,-7.40000000e-009,-3.96093834e-004
,,,-7.37500000e-009,-3.80468833e-004
,,,-7.35000000e-009,-3.53906331e-004
,,,-7.32500000e-009,-3.21093829e-004
,,,-7.30000000e-009,-2.85156326e-004
,,,-7.27500000e-009,-2.50781324e-004
,,,-7.25000000e-009,-2.21093822e-004
,,,-7.22500000e-009,-2.00000070e-004
,,,-7.20000000e-009,-1.92968820e-004
,,,-7.17500000e-009,-1.97656320e-004
,,,-7.15000000e-009,-2.14062571e-004
,,,-7.12500000e-009,-2.40625073e-004
,,,-7.10000000e-009,-2.75000075e-004
,,,-7.07500000e-009,-3.15625078e-004
,,,-7.05000000e-009,-3.57812581e-004
,,,-7.02500000e-009,-4.00000084e-004
,,,-7.00000000e-009,-4.39843837e-004
,,,-6.97500000e-009,-4.75781340e-004
,,,-6.95000000e-009,-5.06250092e-004
,,,-6.92500000e-009,-5.32031344e-004
,,,-6.90000000e-009,-5.53125095e-004
,,,-6.87500000e-009,-5.71093846e-004
,,,-6.85000000e-009,-5.86718847e-004
,,,-6.82500000e-009,-6.00000098e-004
,,,-6.80000000e-009,-6.11718849e-004
,,,-6.77500000e-009,-6.20312600e-004
,,,-6.75000000e-009,-6.28125100e-004
,,,-6.72500000e-009,-6.32031351e-004
,,,-6.70000000e-009,-6.32031351e-004
,,,-6.67500000e-009,-6.27343850e-004
,,,-6.65000000e-009,-6.16406350e-004
,,,-6.62500000e-009,-6.00000098e-004
,,,-6.60000000e-009,-5.77343847e-004
,,,-6.57500000e-009,-5.50000095e-004
,,,-6.55000000e-009,-5.21093843e-004
,,,-6.52500000e-009,-4.91406341e-004
,,,-6.50000000e-009,-4.63281339e-004
,,,-6.47500000e-009,-4.38281337e-004
,,,-6.45000000e-009,-4.16406335e-004
,,,-6.42500000e-009,-4.00000084e-004
,,,-6.40000000e-009,-3.91406334e-004
,,,-6.37500000e-009,-3.88281333e-004
,,,-6.35000000e-009,-3.89062583e-004
,,,-6.32500000e-009,-3.92968834e-004
,,,-6.30000000e-009,-3.96875084e-004
,,,-6.27500000e-009,-4.00781334e-004
,,,-6.25000000e-009,-4.02343834e-004
,,,-6.22500000e-009,-4.00000084e-004
,,,-6.20000000e-009,-3.96093834e-004
,,,-6.17500000e-009,-3.89843833e-004
,,,-6.15000000e-009,-3.82812583e-004
,,,-6.12500000e-009,-3.77343833e-004
,,,-6.10000000e-009,-3.75000082e-004
,,,-6.07500000e-009,-3.77343833e-004
,,,-6.05000000e-009,-3.85156333e-004
,,,-6.02500000e-009,-4.00000084e-004
,,,-6.00000000e-009,-4.23437586e-004
,,,-5.97500000e-009,-4.52343838e-004
,,,-5.95000000e-009,-4.83593840e-004
,,,-5.92500000e-009,-5.15625092e-004
,,,-5.90000000e-009,-5.46093845e-004
,,,-5.87500000e-009,-5.71093846e-004
,,,-5.85000000e-009,-5.89843848e-004
,,,-5.82500000e-009,-6.00000098e-004
,,,-5.80000000e-009,-6.03125099e-004
,,,-5.77500000e-009,-6.00000098e-004
,,,-5.75000000e-009,-5.92187598e-004
,,,-5.72500000e-009,-5.84375097e-004
,,,-5.70000000e-009,-5.78125097e-004
,,,-5.67500000e-009,-5.77343847e-004
,,,-5.65000000e-009,-5.84375097e-004
,,,-5.62500000e-009,-6.00000098e-004
,,,-5.60000000e-009,-6.25000100e-004
,,,-5.57500000e-009,-6.57031352e-004
,,,-5.55000000e-009,-6.92187605e-004
,,,-5.52500000e-009,-7.28125107e-004
,,,-5.50000000e-009,-7.60937610e-004
,,,-5.47500000e-009,-7.85156361e-004
,,,-5.45000000e-009,-7.99218862e-004
,,,-5.42500000e-009,-8.00000113e-004
,,,-5.40000000e-009,-7.85937612e-004
,,,-5.37500000e-009,-7.61718860e-004
,,,-5.35000000e-009,-7.28906357e-004
,,,-5.32500000e-009,-6.92968855e-004
,,,-5.30000000e-009,-6.57812602e-004
,,,-5.27500000e-009,-6.28125100e-004
,,,-5.25000000e-009,-6.07812599e-004
,,,-5.22500000e-009,-6.00000098e-004
,,,-5.20000000e-009,-6.05468849e-004
,,,-5.17500000e-009,-6.22656350e-004
,,,-5.15000000e-009,-6.50781352e-004
,,,-5.12500000e-009,-6.85156354e-004
,,,-5.10000000e-009,-7.21875107e-004
,,,-5.07500000e-009,-7.55468859e-004
,,,-5.05000000e-009,-7.83593861e-004
,,,-5.02500000e-009,-8.00000113e-004
,,,-5.00000000e-009,-8.03906363e-004
,,,-4.97500000e-009,-7.94531362e-004
,,,-4.95000000e-009,-7.73437611e-004
,,,-4.92500000e-009,-7.43750109e-004
,,,-4.90000000e-009,-7.08593856e-004
,,,-4.87500000e-009,-6.70312603e-004
,,,-4.85000000e-009,-6.32812601e-004
,,,-4.82500000e-009,-6.00000098e-004
,,,-4.80000000e-009,-5.76562597e-004
,,,-4.77500000e-009,-5.60937596e-004
,,,-4.75000000e-009,-5.54687595e-004
,,,-4.72500000e-009,-5.56250095e-004
,,,-4.70000000e-009,-5.63281346e-004
,,,-4.67500000e-009,-5.75000097e-004
,,,-4.65000000e-009,-5.87500097e-004
,,,-4.62500000e-009,-6.00000098e-004
,,,-4.60000000e-009,-6.10937599e-004
,,,-4.57500000e-009,-6.17968850e-004
,,,-4.55000000e-009,-6.21093850e-004
,,,-4.52500000e-009,-6.21093850e-004
,,,-4.50000000e-009,-6.17968850e-004
,,,-4.47500000e-009,-6.12500099e-004
,,,-4.45000000e-009,-6.06250099e-004
,,,-4.42500000e-009,-6.00000098e-004
,,,-4.40000000e-009,-5.93750098e-004
,,,-4.37500000e-009,-5.88281348e-004
,,,-4.35000000e-009,-5.84375097e-004
,,,-4.32500000e-009,-5.82812597e-004
,,,-4.30000000e-009,-5.82812597e-004
,,,-4.27500000e-009,-5.85937597e-004
,,,-4.25000000e-009,-5.91406348e-004
,,,-4.22500000e-009,-6.00000098e-004
,,,-4.20000000e-009,-6.10937599e-004
,,,-4.17500000e-009,-6.24218850e-004
,,,-4.15000000e-009,-6.42187601e-004
,,,-4.12500000e-009,-6.64062603e-004
,,,-4.10000000e-009,-6.91406355e-004
,,,-4.07500000e-009,-7.23437607e-004
,,,-4.05000000e-009,-7.60156360e-004
,,,-4.02500000e-009,-8.00000113e-004
,,,-4.00000000e-009,-8.39062615e-004
,,,-3.97500000e-009,-8.76562618e-004
,,,-3.95000000e-009,-9.12500120e-004
,,,-3.92500000e-009,-9.44531373e-004
,,,-3.90000000e-009,-9.71093875e-004
,,,-3.87500000e-009,-9.89843876e-004
,,,-3.85000000e-009,-1.00000013e-003
,,,-3.82500000e-009,-1.00000013e-003
,,,-3.80000000e-009,-9.82812625e-004
,,,-3.77500000e-009,-9.53906373e-004
,,,-3.75000000e-009,-9.14062621e-004
,,,-3.72500000e-009,-8.64062617e-004
,,,-3.70000000e-009,-8.06250113e-004
,,,-3.67500000e-009,-7.41406358e-004
,,,-3.65000000e-009,-6.71875103e-004
,,,-3.62500000e-009,-6.00000098e-004
,,,-3.60000000e-009,-5.27343843e-004
,,,-3.57500000e-009,-4.57812588e-004
,,,-3.55000000e-009,-3.92968834e-004
,,,-3.52500000e-009,-3.35937580e-004
,,,-3.50000000e-009,-2.87500076e-004
,,,-3.47500000e-009,-2.49218824e-004
,,,-3.45000000e-009,-2.19531321e-004
,,,-3.42500000e-009,-2.00000070e-004
,,,-3.40000000e-009,-1.92187569e-004
,,,-3.37500000e-009,-1.91406319e-004
,,,-3.35000000e-009,-1.94531320e-004
,,,-3.32500000e-009,-2.00781320e-004
,,,-3.30000000e-009,-2.06250070e-004
,,,-3.27500000e-009,-2.09375071e-004
,,,-3.25000000e-009,-2.07812571e-004
,,,-3.22500000e-009,-2.00000070e-004
,,,-3.20000000e-009,-1.90625069e-004
,,,-3.17500000e-009,-1.73437568e-004
,,,-3.15000000e-009,-1.50781317e-004
,,,-3.12500000e-009,-1.23437565e-004
,,,-3.10000000e-009,-9.29688125e-005
,,,-3.07500000e-009,-6.09375602e-005
,,,-3.05000000e-009,-2.96875580e-005
,,,-3.02500000e-009,-5.58793550e-011
,,,-3.00000000e-009,1.79686954e-005
,,,-2.97500000e-009,3.12499463e-005
,,,-2.95000000e-009,3.90624469e-005
,,,-2.92500000e-009,4.14061971e-005
,,,-2.90000000e-009,3.74999468e-005
,,,-2.87500000e-009,2.89061962e-005
,,,-2.85000000e-009,1.64061953e-005
,,,-2.82500000e-009,-5.58793550e-011
,,,-2.80000000e-009,-2.73438078e-005
,,,-2.77500000e-009,-5.54688098e-005
,,,-2.75000000e-009,-8.35938118e-005
,,,-2.72500000e-009,-1.10937564e-004
,,,-2.70000000e-009,-1.35937566e-004
,,,-2.67500000e-009,-1.59375067e-004
,,,-2.65000000e-009,-1.80468819e-004
,,,-2.62500000e-009,-2.00000070e-004
,,,-2.60000000e-009,-2.21875072e-004
,,,-2.57500000e-009,-2.42187573e-004
,,,-2.55000000e-009,-2.63281325e-004
,,,-2.52500000e-009,-2.85156326e-004
,,,-2.50000000e-009,-3.09375078e-004
,,,-2.47500000e-009,-3.36718830e-004
,,,-2.45000000e-009,-3.67187582e-004
,,,-2.42500000e-009,-4.00000084e-004
,,,-2.40000000e-009,-4.35156337e-004
,,,-2.37500000e-009,-4.70312589e-004
,,,-2.35000000e-009,-5.04687592e-004
,,,-2.32500000e-009,-5.35937594e-004
,,,-2.30000000e-009,-5.62500096e-004
,,,-2.27500000e-009,-5.82812597e-004
,,,-2.25000000e-009,-5.95312598e-004
,,,-2.22500000e-009,-6.00000098e-004
,,,-2.20000000e-009,-5.95312598e-004
,,,-2.17500000e-009,-5.85937597e-004
,,,-2.15000000e-009,-5.74218847e-004
,,,-2.12500000e-009,-5.64843846e-004
,,,-2.10000000e-009,-5.60937596e-004
,,,-2.07500000e-009,-5.64062596e-004
,,,-2.05000000e-009,-5.77343847e-004
,,,-2.02500000e-009,-6.00000098e-004
,,,-2.00000000e-009,-6.30468851e-004
,,,-1.97500000e-009,-6.67968853e-004
,,,-1.95000000e-009,-7.08593856e-004
,,,-1.92500000e-009,-7.47656359e-004
,,,-1.90000000e-009,-7.81250111e-004
,,,-1.87500000e-009,-8.03125113e-004
,,,-1.85000000e-009,-8.10156363e-004
,,,-1.82500000e-009,-8.00000113e-004
,,,-1.80000000e-009,-7.75000111e-004
,,,-1.77500000e-009,-7.35156358e-004
,,,-1.75000000e-009,-6.83593854e-004
,,,-1.72500000e-009,-6.25000100e-004
,,,-1.70000000e-009,-5.63281346e-004
,,,-1.67500000e-009,-5.02343841e-004
,,,-1.65000000e-009,-4.46875088e-004
,,,-1.62500000e-009,-4.00000084e-004
,,,-1.60000000e-009,-3.77343833e-004
,,,-1.57500000e-009,-3.67968832e-004
,,,-1.55000000e-009,-3.70312582e-004
,,,-1.52500000e-009,-3.79687583e-004
,,,-1.50000000e-009,-3.92968834e-004
,,,-1.47500000e-009,-4.03125084e-004
,,,-1.45000000e-009,-4.06250085e-004
,,,-1.42500000e-009,-4.00000084e-004
,,,-1.40000000e-009,-4.00000084e-004
,,,-1.37500000e-009,-3.90625084e-004
,,,-1.35000000e-009,-3.71875082e-004
,,,-1.32500000e-009,-3.44531330e-004
,,,-1.30000000e-009,-3.10937578e-004
,,,-1.27500000e-009,-2.72656325e-004
,,,-1.25000000e-009,-2.34375072e-004
,,,-1.22500000e-009,-2.00000070e-004
,,,-1.20000000e-009,-1.98437570e-004
,,,-1.17500000e-009,-2.12500071e-004
,,,-1.15000000e-009,-2.41406323e-004
,,,-1.12500000e-009,-2.85937576e-004
,,,-1.10000000e-009,-3.45312580e-004
,,,-1.07500000e-009,-4.17968835e-004
,,,-1.05000000e-009,-5.03125091e-004
,,,-1.02500000e-009,-6.00000098e-004
,,,-1.00000000e-009,-7.28906357e-004
,,,-9.75000000e-010,-8.67968867e-004
,,,-9.50000000e-010,-1.01640638e-003
,,,-9.25000000e-010,-1.17031264e-003
,,,-9.00000000e-010,-1.32734390e-003
,,,-8.75000000e-010,-1.48593766e-003
,,,-8.50000000e-010,-1.64375017e-003
,,,-8.25000000e-010,-1.80000018e-003
,,,-8.00000000e-010,-1.96640645e-003
,,,-7.75000000e-010,-2.13046896e-003
,,,-7.50000000e-010,-2.29140647e-003
,,,-7.25000000e-010,-2.44687523e-003
,,,-7.00000000e-010,-2.59609399e-003
,,,-6.75000000e-010,-2.73750025e-003
,,,-6.50000000e-010,-2.87265651e-003
,,,-6.25000000e-010,-3.00000027e-003
,,,-6.00000000e-010,-3.12343778e-003
,,,-5.75000000e-010,-3.24531279e-003
,,,-5.50000000e-010,-3.36796904e-003
,,,-5.25000000e-010,-3.49140655e-003
,,,-5.00000000e-010,-3.61718781e-003
,,,-4.75000000e-010,-3.74375032e-003
,,,-4.50000000e-010,-3.87187533e-003
,,,-4.25000000e-010,-4.00000034e-003
,,,-4.00000000e-010,-4.11796910e-003
,,,-3.75000000e-010,-4.23593786e-003
,,,-3.50000000e-010,-4.35156286e-003
,,,-3.25000000e-010,-4.46328162e-003
,,,-3.00000000e-010,-4.56640663e-003
,,,-2.75000000e-010,-4.65781289e-003
,,,-2.50000000e-010,-4.73671914e-003
,,,-2.25000000e-010,-4.80000040e-003
,,,-2.00000000e-010,-4.83046915e-003
,,,-1.75000000e-010,-4.85234415e-003
,,,-1.50000000e-010,-4.87031290e-003
,,,-1.25000000e-010,-4.88750040e-003
,,,-1.00000000e-010,-4.90625040e-003
,,,-7.50000000e-011,-4.93046915e-003
,,,-5.00000000e-011,-4.96093791e-003
,,,-2.50000000e-011,-5.00000041e-003
,,,0.00000000e+000,-5.02656291e-003
,,,2.50000000e-011,-5.06484416e-003
,,,5.00000000e-011,-5.11406292e-003
,,,7.50000000e-011,-5.17109417e-003
,,,1.00000000e-010,-5.23203168e-003
,,,1.25000000e-010,-5.29375043e-003
,,,1.50000000e-010,-5.35078168e-003
,,,1.75000000e-010,-5.40000044e-003
,,,2.00000000e-010,-5.41562544e-003
,,,2.25000000e-010,-5.42265669e-003
,,,2.50000000e-010,-5.42265669e-003
,,,2.75000000e-010,-5.41875044e-003
,,,3.00000000e-010,-5.41250044e-003
,,,3.25000000e-010,-5.40703169e-003
,,,3.50000000e-010,-5.40234419e-003
,,,3.75000000e-010,-5.40000044e-003
,,,4.00000000e-010,-5.38125044e-003
,,,4.25000000e-010,-5.36406294e-003
,,,4.50000000e-010,-5.34843793e-003
,,,4.75000000e-010,-5.33125043e-003
,,,5.00000000e-010,-5.31093793e-003
,,,5.25000000e-010,-5.28359418e-003
,,,5.50000000e-010,-5.24765668e-003
,,,5.75000000e-010,-5.20000042e-003
,,,6.00000000e-010,-5.12812542e-003
,,,6.25000000e-010,-5.04687541e-003
,,,6.50000000e-010,-4.96093791e-003
,,,6.75000000e-010,-4.87421915e-003
,,,7.00000000e-010,-4.79218790e-003
,,,7.25000000e-010,-4.71718789e-003
,,,7.50000000e-010,-4.65312539e-003
,,,7.75000000e-010,-4.60000038e-003
,,,8.00000000e-010,-4.55234413e-003
,,,8.25000000e-010,-4.51171913e-003
,,,8.50000000e-010,-4.47500037e-003
,,,8.75000000e-010,-4.43828162e-003
,,,9.00000000e-010,-4.39609412e-003
,,,9.25000000e-010,-4.34453161e-003
,,,9.50000000e-010,-4.27968786e-003
,,,9.75000000e-010,-4.20000035e-003
,,,1.00000000e-009,-4.10156285e-003
,,,1.02500000e-009,-3.98984409e-003
,,,1.05000000e-009,-3.87031283e-003
,,,1.07500000e-009,-3.75000032e-003
,,,1.10000000e-009,-3.63671906e-003
,,,1.12500000e-009,-3.53750031e-003
,,,1.15000000e-009,-3.45703155e-003
,,,1.17500000e-009,-3.40000030e-003
,,,1.20000000e-009,-3.37031279e-003
,,,1.22500000e-009,-3.35937529e-003
,,,1.25000000e-009,-3.36328154e-003
,,,1.27500000e-009,-3.37656279e-003
,,,1.30000000e-009,-3.39296905e-003
,,,1.32500000e-009,-3.40625030e-003
,,,1.35000000e-009,-3.40937530e-003
,,,1.37500000e-009,-3.40000030e-003
,,,1.40000000e-009,-3.37421904e-003
,,,1.42500000e-009,-3.32968779e-003
,,,1.45000000e-009,-3.27109404e-003
,,,1.47500000e-009,-3.20468778e-003
,,,1.50000000e-009,-3.13750028e-003
,,,1.52500000e-009,-3.07734402e-003
,,,1.55000000e-009,-3.03046902e-003
,,,1.57500000e-009,-3.00000027e-003
,,,1.60000000e-009,-2.98906277e-003
,,,1.62500000e-009,-2.99062527e-003
,,,1.65000000e-009,-3.00078152e-003
,,,1.67500000e-009,-3.01562527e-003
,,,1.70000000e-009,-3.02812527e-003
,,,1.72500000e-009,-3.03359402e-003
,,,1.75000000e-009,-3.02500027e-003
,,,1.77500000e-009,-3.00000027e-003
,,,1.80000000e-009,-2.95468777e-003
,,,1.82500000e-009,-2.88984401e-003
,,,1.85000000e-009,-2.80859400e-003
,,,1.87500000e-009,-2.71796900e-003
,,,1.90000000e-009,-2.62500024e-003
,,,1.92500000e-009,-2.53750024e-003
,,,1.95000000e-009,-2.46093773e-003
,,,1.97500000e-009,-2.40000023e-003
,,,2.00000000e-009,-2.35859397e-003
,,,2.02500000e-009,-2.33125022e-003
,,,2.05000000e-009,-2.31484397e-003
,,,2.07500000e-009,-2.30390647e-003
,,,2.10000000e-009,-2.29218772e-003
,,,2.12500000e-009,-2.27500022e-003
,,,2.15000000e-009,-2.24531271e-003
,,,2.17500000e-009,-2.20000021e-003
,,,2.20000000e-009,-2.13515646e-003
,,,2.22500000e-009,-2.05000020e-003
,,,2.25000000e-009,-1.94921894e-003
,,,2.27500000e-009,-1.83671894e-003
,,,2.30000000e-009,-1.71875018e-003
,,,2.32500000e-009,-1.60234392e-003
,,,2.35000000e-009,-1.49453141e-003
,,,2.37500000e-009,-1.40000015e-003
,,,2.40000000e-009,-1.33046890e-003
,,,2.42500000e-009,-1.27812515e-003
,,,2.45000000e-009,-1.24218764e-003
,,,2.47500000e-009,-1.21953139e-003
,,,2.50000000e-009,-1.20781264e-003
,,,2.52500000e-009,-1.20234389e-003
,,,2.55000000e-009,-1.20078139e-003
,,,2.57500000e-009,-1.20000014e-003
,,,2.60000000e-009,-1.20468764e-003
,,,2.62500000e-009,-1.20390639e-003
,,,2.65000000e-009,-1.20078139e-003
,,,2.67500000e-009,-1.19453139e-003
,,,2.70000000e-009,-1.18984389e-003
,,,2.72500000e-009,-1.18750014e-003
,,,2.75000000e-009,-1.19062514e-003
,,,2.77500000e-009,-1.20000014e-003
,,,2.80000000e-009,-1.22265639e-003
,,,2.82500000e-009,-1.24531264e-003
,,,2.85000000e-009,-1.26484390e-003
,,,2.87500000e-009,-1.27812515e-003
,,,2.90000000e-009,-1.28125015e-003
,,,2.92500000e-009,-1.27031265e-003
,,,2.95000000e-009,-1.24296889e-003
,,,2.97500000e-009,-1.20000014e-003
,,,3.00000000e-009,-1.14609389e-003
,,,3.02500000e-009,-1.08046888e-003
,,,3.05000000e-009,-1.00937513e-003
,,,3.07500000e-009,-9.39062622e-004
,,,3.10000000e-009,-8.76562618e-004
,,,3.12500000e-009,-8.29687615e-004
,,,3.15000000e-009,-8.03125113e-004
,,,3.17500000e-009,-8.00000113e-004
,,,3.20000000e-009,-8.28125114e-004
,,,3.22500000e-009,-8.75000118e-004
,,,3.25000000e-009,-9.35937622e-004
,,,3.27500000e-009,-1.00390638e-003
,,,3.30000000e-009,-1.07109388e-003
,,,3.32500000e-009,-1.12968764e-003
,,,3.35000000e-009,-1.17421889e-003
,,,3.37500000e-009,-1.20000014e-003
,,,3.40000000e-009,-1.20625014e-003
,,,3.42500000e-009,-1.19218764e-003
,,,3.45000000e-009,-1.16328139e-003
,,,3.47500000e-009,-1.12343764e-003
,,,3.50000000e-009,-1.08046888e-003
,,,3.52500000e-009,-1.04218763e-003
,,,3.55000000e-009,-1.01406263e-003
,,,3.57500000e-009,-1.00000013e-003
,,,3.60000000e-009,-1.00468763e-003
,,,3.62500000e-009,-1.02421888e-003
,,,3.65000000e-009,-1.05625013e-003
,,,3.67500000e-009,-1.09609388e-003
,,,3.70000000e-009,-1.13671889e-003
,,,3.72500000e-009,-1.17109389e-003
,,,3.75000000e-009,-1.19375014e-003
,,,3.77500000e-009,-1.20000014e-003
,,,3.80000000e-009,-1.18671889e-003
,,,3.82500000e-009,-1.15390639e-003
,,,3.85000000e-009,-1.10468763e-003
,,,3.87500000e-009,-1.04375013e-003
,,,3.90000000e-009,-9.76562625e-004
,,,3.92500000e-009,-9.09375120e-004
,,,3.95000000e-009,-8.49218866e-004
,,,3.97500000e-009,-8.00000113e-004
,,,4.00000000e-009,-7.70312610e-004
,,,4.02500000e-009,-7.58593860e-004
,,,4.05000000e-009,-7.65625110e-004
,,,4.07500000e-009,-7.90625112e-004
,,,4.10000000e-009,-8.29687615e-004
,,,4.12500000e-009,-8.81250118e-004
,,,4.15000000e-009,-9.39062622e-004
,,,4.17500000e-009,-1.00000013e-003
,,,4.20000000e-009,-1.05781263e-003
,,,4.22500000e-009,-1.10937513e-003
,,,4.25000000e-009,-1.15156264e-003
,,,4.27500000e-009,-1.18437514e-003
,,,4.30000000e-009,-1.20468764e-003
,,,4.32500000e-009,-1.21406264e-003
,,,4.35000000e-009,-1.21250014e-003
,,,4.37500000e-009,-1.20000014e-003
,,,4.40000000e-009,-1.17734389e-003
,,,4.42500000e-009,-1.14921889e-003
,,,4.45000000e-009,-1.11718763e-003
,,,4.47500000e-009,-1.08515638e-003
,,,4.50000000e-009,-1.05546888e-003
,,,4.52500000e-009,-1.03046888e-003
,,,4.55000000e-009,-1.01171888e-003
,,,4.57500000e-009,-1.00000013e-003
,,,4.60000000e-009,-9.94531376e-004
,,,4.62500000e-009,-9.93750126e-004
,,,4.65000000e-009,-9.97656376e-004
,,,4.67500000e-009,-1.00390638e-003
,,,4.70000000e-009,-1.00859388e-003
,,,4.72500000e-009,-1.01171888e-003
,,,4.75000000e-009,-1.00937513e-003
,,,4.77500000e-009,-1.00000013e-003
,,,4.80000000e-009,-9.83593875e-004
,,,4.82500000e-009,-9.60937624e-004
,,,4.85000000e-009,-9.32031372e-004
,,,4.87500000e-009,-9.01562620e-004
,,,4.90000000e-009,-8.70312617e-004
,,,4.92500000e-009,-8.41406365e-004
,,,4.95000000e-009,-8.17968864e-004
,,,4.97500000e-009,-8.00000113e-004
,,,5.00000000e-009,-7.90625112e-004
,,,5.02500000e-009,-7.87500112e-004
,,,5.05000000e-009,-7.90625112e-004
,,,5.07500000e-009,-7.96093862e-004
,,,5.10000000e-009,-8.02343863e-004
,,,5.12500000e-009,-8.07031363e-004
,,,5.15000000e-009,-8.07031363e-004
,,,5.17500000e-009,-8.00000113e-004
,,,5.20000000e-009,-7.88281362e-004
,,,5.22500000e-009,-7.69531360e-004
,,,5.25000000e-009,-7.44531359e-004
,,,5.27500000e-009,-7.14843856e-004
,,,5.30000000e-009,-6.83593854e-004
,,,5.32500000e-009,-6.52343852e-004
,,,5.35000000e-009,-6.24218850e-004
,,,5.37500000e-009,-6.00000098e-004
,,,5.40000000e-009,-5.85156347e-004
,,,5.42500000e-009,-5.75781347e-004
,,,5.45000000e-009,-5.71875096e-004
,,,5.47500000e-009,-5.73437596e-004
,,,5.50000000e-009,-5.78125097e-004
,,,5.52500000e-009,-5.85156347e-004
,,,5.55000000e-009,-5.92968848e-004
,,,5.57500000e-009,-6.00000098e-004
,,,5.60000000e-009,-6.08593849e-004
,,,5.62500000e-009,-6.14062599e-004
,,,5.65000000e-009,-6.16406350e-004
,,,5.67500000e-009,-6.15625099e-004
,,,5.70000000e-009,-6.12500099e-004
,,,5.72500000e-009,-6.07812599e-004
,,,5.75000000e-009,-6.03125099e-004
,,,5.77500000e-009,-6.00000098e-004
,,,5.80000000e-009,-6.01562598e-004
