RawData/DifferentLengths/R3/R3_25_5mV/wave002_Ch1.csv

"Record Length",1000,"Points",-7.72500000e-009,-2.05468820e-004
"Sample Interval",2.50000000e-011,s,-7.70000000e-009,-2.14062571e-004
"Trigger Point",309,"Samples",-7.67500000e-009,-2.17968821e-004
"Trigger Time",2.40200000e-011,s,-7.65000000e-009,-2.13281321e-004
"",,,-7.62500000e-009,-2.00000070e-004
"Horizontal Offset",-7.72500000e-009,s,-7.60000000e-009,-1.78125068e-004
,,,-7.57500000e-009,-1.47656316e-004
,,,-7.55000000e-009,-1.12500064e-004
,,,-7.52500000e-009,-7.65625613e-005
,,,-7.50000000e-009,-4.37500590e-005
,,,-7.47500000e-009,-1.79688072e-005
,,,-7.45000000e-009,-3.12505610e-006
,,,-7.42500000e-009,-5.58793550e-011
,,,-7.40000000e-009,-1.40625569e-005
,,,-7.37500000e-009,-3.90625586e-005
,,,-7.35000000e-009,-7.10938109e-005
,,,-7.32500000e-009,-1.07031313e-004
,,,-7.30000000e-009,-1.42187566e-004
,,,-7.27500000e-009,-1.71875068e-004
,,,-7.25000000e-009,-1.92187569e-004
,,,-7.22500000e-009,-2.00000070e-004
,,,-7.20000000e-009,-1.97656320e-004
,,,-7.17500000e-009,-1.81250069e-004
,,,-7.15000000e-009,-1.53906317e-004
,,,-7.12500000e-009,-1.19531314e-004
,,,-7.10000000e-009,-8.20313117e-005
,,,-7.07500000e-009,-4.68750592e-005
,,,-7.05000000e-009,-1.87500572e-005
,,,-7.02500000e-009,-5.58793550e-011
,,,-7.00000000e-009,7.81194176e-007
,,,-6.97500000e-009,-1.01563066e-005
,,,-6.95000000e-009,-3.28125582e-005
,,,-6.92500000e-009,-6.32813104e-005
,,,-6.90000000e-009,-9.92188129e-005
,,,-6.87500000e-009,-1.36718816e-004
,,,-6.85000000e-009,-1.71093818e-004
,,,-6.82500000e-009,-2.00000070e-004
,,,-6.80000000e-009,-2.21875072e-004
,,,-6.77500000e-009,-2.34375072e-004
,,,-6.75000000e-009,-2.39062573e-004
,,,-6.72500000e-009,-2.35937573e-004
,,,-6.70000000e-009,-2.28906322e-004
,,,-6.67500000e-009,-2.18750071e-004
,,,-6.65000000e-009,-2.08593821e-004
,,,-6.62500000e-009,-2.00000070e-004
,,,-6.60000000e-009,-1.95312570e-004
,,,-6.57500000e-009,-1.92968820e-004
,,,-6.55000000e-009,-1.93750070e-004
,,,-6.52500000e-009,-1.96875070e-004
,,,-6.50000000e-009,-2.00781320e-004
,,,-6.47500000e-009,-2.03125070e-004
,,,-6.45000000e-009,-2.03125070e-004
,,,-6.42500000e-009,-2.00000070e-004
,,,-6.40000000e-009,-1.94531320e-004
,,,-6.37500000e-009,-1.86718819e-004
,,,-6.35000000e-009,-1.78125068e-004
,,,-6.32500000e-009,-1.71875068e-004
,,,-6.30000000e-009,-1.69531318e-004
,,,-6.27500000e-009,-1.72656318e-004
,,,-6.25000000e-009,-1.82812569e-004
,,,-6.22500000e-009,-2.00000070e-004
,,,-6.20000000e-009,-2.25781322e-004
,,,-6.17500000e-009,-2.57031324e-004
,,,-6.15000000e-009,-2.90625076e-004
,,,-6.12500000e-009,-3.24218829e-004
,,,-6.10000000e-009,-3.54687581e-004
,,,-6.07500000e-009,-3.79687583e-004
,,,-6.05000000e-009,-3.95312584e-004
,,,-6.02500000e-009,-4.00000084e-004
,,,-6.00000000e-009,-3.92968834e-004
,,,-5.97500000e-009,-3.75781332e-004
,,,-5.95000000e-009,-3.50781331e-004
,,,-5.92500000e-009,-3.20312579e-004
,,,-5.90000000e-009,-2.86718826e-004
,,,-5.87500000e-009,-2.53906324e-004
,,,-5.85000000e-009,-2.24218822e-004
,,,-5.82500000e-009,-2.00000070e-004
,,,-5.80000000e-009,-1.85156319e-004
,,,-5.77500000e-009,-1.77343818e-004
,,,-5.75000000e-009,-1.76562568e-004
,,,-5.72500000e-009,-1.79687569e-004
,,,-5.70000000e-009,-1.85937569e-004
,,,-5.67500000e-009,-1.92968820e-004
,,,-5.65000000e-009,-1.98437570e-004
,,,-5.62500000e-009,-2.00000070e-004
,,,-5.60000000e-009,-2.00000070e-004
,,,-5.57500000e-009,-1.96093820e-004
,,,-5.55000000e-009,-1.90625069e-004
,,,-5.52500000e-009,-1.85156319e-004
,,,-5.50000000e-009,-1.81250069e-004
,,,-5.47500000e-009,-1.82031319e-004
,,,-5.45000000e-009,-1.87500069e-004
,,,-5.42500000e-009,-2.00000070e-004
,,,-5.40000000e-009,-2.21875072e-004
,,,-5.37500000e-009,-2.49218824e-004
,,,-5.35000000e-009,-2.80468826e-004
,,,-5.32500000e-009,-3.12500078e-004
,,,-5.30000000e-009,-3.42968830e-004
,,,-5.27500000e-009,-3.68750082e-004
,,,-5.25000000e-009,-3.88281333e-004
,,,-5.22500000e-009,-4.00000084e-004
,,,-5.20000000e-009,-4.03125084e-004
,,,-5.17500000e-009,-4.00000084e-004
,,,-5.15000000e-009,-3.92187584e-004
,,,-5.12500000e-009,-3.84375083e-004
,,,-5.10000000e-009,-3.78125083e-004
,,,-5.07500000e-009,-3.77343833e-004
,,,-5.05000000e-009,-3.84375083e-004
,,,-5.02500000e-009,-4.00000084e-004
,,,-5.00000000e-009,-4.25000086e-004
,,,-4.97500000e-009,-4.57031338e-004
,,,-4.95000000e-009,-4.92187591e-004
,,,-4.92500000e-009,-5.28125093e-004
,,,-4.90000000e-009,-5.60937596e-004
,,,-4.87500000e-009,-5.85156347e-004
,,,-4.85000000e-009,-5.99218848e-004
,,,-4.82500000e-009,-6.00000098e-004
,,,-4.80000000e-009,-5.85156347e-004
,,,-4.77500000e-009,-5.59375095e-004
,,,-4.75000000e-009,-5.25781343e-004
,,,-4.72500000e-009,-4.89062590e-004
,,,-4.70000000e-009,-4.53906338e-004
,,,-4.67500000e-009,-4.25000086e-004
,,,-4.65000000e-009,-4.06250085e-004
,,,-4.62500000e-009,-4.00000084e-004
,,,-4.60000000e-009,-4.07031335e-004
,,,-4.57500000e-009,-4.27343836e-004
,,,-4.55000000e-009,-4.57031338e-004
,,,-4.52500000e-009,-4.92968841e-004
,,,-4.50000000e-009,-5.29687593e-004
,,,-4.47500000e-009,-5.62500096e-004
,,,-4.45000000e-009,-5.87500097e-004
,,,-4.42500000e-009,-6.00000098e-004
,,,-4.40000000e-009,-5.95312598e-004
,,,-4.37500000e-009,-5.76562597e-004
,,,-4.35000000e-009,-5.48437595e-004
,,,-4.32500000e-009,-5.14062592e-004
,,,-4.30000000e-009,-4.78125090e-004
,,,-4.27500000e-009,-4.44531337e-004
,,,-4.25000000e-009,-4.17968835e-004
,,,-4.22500000e-009,-4.00000084e-004
,,,-4.20000000e-009,-3.91406334e-004
,,,-4.17500000e-009,-3.92187584e-004
,,,-4.15000000e-009,-3.99218834e-004
,,,-4.12500000e-009,-4.08593835e-004
,,,-4.10000000e-009,-4.17968835e-004
,,,-4.07500000e-009,-4.21093836e-004
,,,-4.05000000e-009,-4.15625085e-004
,,,-4.02500000e-009,-4.00000084e-004
,,,-4.00000000e-009,-3.71875082e-004
,,,-3.97500000e-009,-3.34375080e-004
,,,-3.95000000e-009,-2.92968827e-004
,,,-3.92500000e-009,-2.52343824e-004
,,,-3.90000000e-009,-2.18750071e-004
,,,-3.87500000e-009,-1.96093820e-004
,,,-3.85000000e-009,-1.89843819e-004
,,,-3.82500000e-009,-2.00000070e-004
,,,-3.80000000e-009,-2.28906322e-004
,,,-3.77500000e-009,-2.70312575e-004
,,,-3.75000000e-009,-3.17187578e-004
,,,-3.72500000e-009,-3.63281332e-004
,,,-3.70000000e-009,-4.01562584e-004
,,,-3.67500000e-009,-4.23437586e-004
,,,-3.65000000e-009,-4.24218836e-004
,,,-3.62500000e-009,-4.00000084e-004
,,,-3.60000000e-009,-3.50000081e-004
,,,-3.57500000e-009,-2.78906326e-004
,,,-3.55000000e-009,-1.90625069e-004
,,,-3.52500000e-009,-9.53125626e-005
,,,-3.50000000e-009,-5.58793550e-011
,,,-3.47500000e-009,8.51562001e-005
,,,-3.45000000e-009,1.53906205e-004
,,,-3.42500000e-009,1.99999958e-004
,,,-3.40000000e-009,2.14062459e-004
,,,-3.37500000e-009,2.05468709e-004
,,,-3.35000000e-009,1.77343707e-004
,,,-3.32500000e-009,1.35937454e-004
,,,-3.30000000e-009,9.06249505e-005
,,,-3.27500000e-009,4.84374475e-005
,,,-3.25000000e-009,1.64061953e-005
,,,-3.22500000e-009,-5.58793550e-011
,,,-3.20000000e-009,-2.34380605e-006
,,,-3.17500000e-009,1.32811951e-005
,,,-3.15000000e-009,4.45311973e-005
,,,-3.12500000e-009,8.35937000e-005
,,,-3.10000000e-009,1.26562453e-004
,,,-3.07500000e-009,1.64062456e-004
,,,-3.05000000e-009,1.89843708e-004
,,,-3.02500000e-009,1.99999958e-004
,,,-3.00000000e-009,1.84374957e-004
,,,-2.97500000e-009,1.50781205e-004
,,,-2.95000000e-009,1.00781201e-004
,,,-2.92500000e-009,3.98436969e-005
,,,-2.90000000e-009,-2.73438078e-005
,,,-2.87500000e-009,-9.29688125e-005
,,,-2.85000000e-009,-1.52343817e-004
,,,-2.82500000e-009,-2.00000070e-004
,,,-2.80000000e-009,-2.34375072e-004
,,,-2.77500000e-009,-2.53125074e-004
,,,-2.75000000e-009,-2.57812574e-004
,,,-2.72500000e-009,-2.50781324e-004
,,,-2.70000000e-009,-2.36718823e-004
,,,-2.67500000e-009,-2.21093822e-004
,,,-2.65000000e-009,-2.07812571e-004
,,,-2.62500000e-009,-2.00000070e-004
,,,-2.60000000e-009,-2.04687570e-004
,,,-2.57500000e-009,-2.18750071e-004
,,,-2.55000000e-009,-2.42187573e-004
,,,-2.52500000e-009,-2.71875075e-004
,,,-2.50000000e-009,-3.06250078e-004
,,,-2.47500000e-009,-3.41406330e-004
,,,-2.45000000e-009,-3.73437582e-004
,,,-2.42500000e-009,-4.00000084e-004
,,,-2.40000000e-009,-4.17968835e-004
,,,-2.37500000e-009,-4.28125086e-004
,,,-2.35000000e-009,-4.31250086e-004
,,,-2.32500000e-009,-4.28125086e-004
,,,-2.30000000e-009,-4.22656336e-004
,,,-2.27500000e-009,-4.14062585e-004
,,,-2.25000000e-009,-4.06250085e-004
,,,-2.22500000e-009,-4.00000084e-004
,,,-2.20000000e-009,-3.99218834e-004
,,,-2.17500000e-009,-4.01562584e-004
,,,-2.15000000e-009,-4.06250085e-004
,,,-2.12500000e-009,-4.11718835e-004
,,,-2.10000000e-009,-4.14843835e-004
,,,-2.07500000e-009,-4.15625085e-004
,,,-2.05000000e-009,-4.10156335e-004
,,,-2.02500000e-009,-4.00000084e-004
,,,-2.00000000e-009,-3.90625084e-004
,,,-1.97500000e-009,-3.78906333e-004
,,,-1.95000000e-009,-3.68750082e-004
,,,-1.92500000e-009,-3.61718831e-004
,,,-1.90000000e-009,-3.60156331e-004
,,,-1.87500000e-009,-3.65625082e-004
,,,-1.85000000e-009,-3.78906333e-004
,,,-1.82500000e-009,-4.00000084e-004
,,,-1.80000000e-009,-4.39843837e-004
,,,-1.77500000e-009,-4.85156340e-004
,,,-1.75000000e-009,-5.31250093e-004
,,,-1.72500000e-009,-5.73437596e-004
,,,-1.70000000e-009,-6.04687599e-004
,,,-1.67500000e-009,-6.21875100e-004
,,,-1.65000000e-009,-6.20312600e-004
,,,-1.62500000e-009,-6.00000098e-004
,,,-1.60000000e-009,-5.75781347e-004
,,,-1.57500000e-009,-5.40625094e-004
,,,-1.55000000e-009,-4.99218841e-004
,,,-1.52500000e-009,-4.57031338e-004
,,,-1.50000000e-009,-4.21093836e-004
,,,-1.47500000e-009,-3.96093834e-004
,,,-1.45000000e-009,-3.87500083e-004
,,,-1.42500000e-009,-4.00000084e-004
,,,-1.40000000e-009,-4.56250088e-004
,,,-1.37500000e-009,-5.37500094e-004
,,,-1.35000000e-009,-6.38281351e-004
,,,-1.32500000e-009,-7.53125109e-004
,,,-1.30000000e-009,-8.73437618e-004
,,,-1.27500000e-009,-9.92187626e-004
,,,-1.25000000e-009,-1.10234388e-003
,,,-1.22500000e-009,-1.20000014e-003
,,,-1.20000000e-009,-1.29765640e-003
,,,-1.17500000e-009,-1.38203140e-003
,,,-1.15000000e-009,-1.45625016e-003
,,,-1.12500000e-009,-1.52343766e-003
,,,-1.10000000e-009,-1.58671892e-003
,,,-1.07500000e-009,-1.65078142e-003
,,,-1.05000000e-009,-1.72109393e-003
,,,-1.02500000e-009,-1.80000018e-003
,,,-1.00000000e-009,-1.90156269e-003
,,,-9.75000000e-010,-2.01640645e-003
,,,-9.50000000e-010,-2.14453146e-003
,,,-9.25000000e-010,-2.27968772e-003
,,,-9.00000000e-010,-2.41796898e-003
,,,-8.75000000e-010,-2.55390649e-003
,,,-8.50000000e-010,-2.68203150e-003
,,,-8.25000000e-010,-2.80000025e-003
,,,-8.00000000e-010,-2.90937526e-003
,,,-7.75000000e-010,-3.01093777e-003
,,,-7.50000000e-010,-3.10625028e-003
,,,-7.25000000e-010,-3.19921903e-003
,,,-7.00000000e-010,-3.29218779e-003
,,,-6.75000000e-010,-3.38828155e-003
,,,-6.50000000e-010,-3.49062530e-003
,,,-6.25000000e-010,-3.60000031e-003
,,,-6.00000000e-010,-3.71718782e-003
,,,-5.75000000e-010,-3.84531283e-003
,,,-5.50000000e-010,-3.98203159e-003
,,,-5.25000000e-010,-4.12109410e-003
,,,-5.00000000e-010,-4.25859411e-003
,,,-4.75000000e-010,-4.38750037e-003
,,,-4.50000000e-010,-4.50312537e-003
,,,-4.25000000e-010,-4.60000038e-003
,,,-4.00000000e-010,-4.66406289e-003
,,,-3.75000000e-010,-4.71171914e-003
,,,-3.50000000e-010,-4.74531289e-003
,,,-3.25000000e-010,-4.76718789e-003
,,,-3.00000000e-010,-4.78125039e-003
,,,-2.75000000e-010,-4.78906289e-003
,,,-2.50000000e-010,-4.79453165e-003
,,,-2.25000000e-010,-4.80000040e-003
,,,-2.00000000e-010,-4.79765665e-003
,,,-1.75000000e-010,-4.80390665e-003
,,,-1.50000000e-010,-4.82031290e-003
,,,-1.25000000e-010,-4.84531290e-003
,,,-1.00000000e-010,-4.87890665e-003
,,,-7.50000000e-011,-4.91640665e-003
,,,-5.00000000e-011,-4.95781291e-003
,,,-2.50000000e-011,-5.00000041e-003
,,,0.00000000e+000,-5.02890666e-003
,,,2.50000000e-011,-5.06093791e-003
,,,5.00000000e-011,-5.09843792e-003
,,,7.50000000e-011,-5.14218792e-003
,,,1.00000000e-010,-5.19453167e-003
,,,1.25000000e-010,-5.25468793e-003
,,,1.50000000e-010,-5.32421918e-003
,,,1.75000000e-010,-5.40000044e-003
,,,2.00000000e-010,-5.46640669e-003
,,,2.25000000e-010,-5.53515670e-003
,,,2.50000000e-010,-5.60390670e-003
,,,2.75000000e-010,-5.66875046e-003
,,,3.00000000e-010,-5.72421921e-003
,,,3.25000000e-010,-5.76640671e-003
,,,3.50000000e-010,-5.79296922e-003
,,,3.75000000e-010,-5.80000047e-003
,,,4.00000000e-010,-5.76875046e-003
,,,4.25000000e-010,-5.72187546e-003
,,,4.50000000e-010,-5.66328171e-003
,,,4.75000000e-010,-5.60000045e-003
,,,5.00000000e-010,-5.53750045e-003
,,,5.25000000e-010,-5.48046919e-003
,,,5.50000000e-010,-5.43437544e-003
,,,5.75000000e-010,-5.40000044e-003
,,,6.00000000e-010,-5.36484419e-003
,,,6.25000000e-010,-5.33906293e-003
,,,6.50000000e-010,-5.32109418e-003
,,,6.75000000e-010,-5.30781293e-003
,,,7.00000000e-010,-5.29296918e-003
,,,7.25000000e-010,-5.27265668e-003
,,,7.50000000e-010,-5.24296918e-003
,,,7.75000000e-010,-5.20000042e-003
,,,8.00000000e-010,-5.13046917e-003
,,,8.25000000e-010,-5.04921916e-003
,,,8.50000000e-010,-4.95937541e-003
,,,8.75000000e-010,-4.86796915e-003
,,,9.00000000e-010,-4.78046914e-003
,,,9.25000000e-010,-4.70468789e-003
,,,9.50000000e-010,-4.64375038e-003
,,,9.75000000e-010,-4.60000038e-003
,,,1.00000000e-009,-4.56562538e-003
,,,1.02500000e-009,-4.54375038e-003
,,,1.05000000e-009,-4.53125038e-003
,,,1.07500000e-009,-4.52265663e-003
,,,1.10000000e-009,-4.51093788e-003
,,,1.12500000e-009,-4.49062537e-003
,,,1.15000000e-009,-4.45546912e-003
,,,1.17500000e-009,-4.40000037e-003
,,,1.20000000e-009,-4.31562536e-003
,,,1.22500000e-009,-4.20781285e-003
,,,1.25000000e-009,-4.08046909e-003
,,,1.27500000e-009,-3.94062533e-003
,,,1.30000000e-009,-3.79531282e-003
,,,1.32500000e-009,-3.65234406e-003
,,,1.35000000e-009,-3.51875030e-003
,,,1.37500000e-009,-3.40000030e-003
,,,1.40000000e-009,-3.30312529e-003
,,,1.42500000e-009,-3.22265653e-003
,,,1.45000000e-009,-3.16015653e-003
,,,1.47500000e-009,-3.11250028e-003
,,,1.50000000e-009,-3.07656277e-003
,,,1.52500000e-009,-3.04843777e-003
,,,1.55000000e-009,-3.02421902e-003
,,,1.57500000e-009,-3.00000027e-003
,,,1.60000000e-009,-2.97421902e-003
,,,1.62500000e-009,-2.93828151e-003
,,,1.65000000e-009,-2.89296901e-003
,,,1.67500000e-009,-2.83984401e-003
,,,1.70000000e-009,-2.78125025e-003
,,,1.72500000e-009,-2.71953150e-003
,,,1.75000000e-009,-2.65859399e-003
,,,1.77500000e-009,-2.60000024e-003
,,,1.80000000e-009,-2.54921899e-003
,,,1.82500000e-009,-2.49843773e-003
,,,1.85000000e-009,-2.44843773e-003
,,,1.87500000e-009,-2.40000023e-003
,,,1.90000000e-009,-2.35078147e-003
,,,1.92500000e-009,-2.30156272e-003
,,,1.95000000e-009,-2.25156272e-003
,,,1.97500000e-009,-2.20000021e-003
,,,2.00000000e-009,-2.15078146e-003
,,,2.02500000e-009,-2.09765645e-003
,,,2.05000000e-009,-2.04218770e-003
,,,2.07500000e-009,-1.98593770e-003
,,,2.10000000e-009,-1.93125019e-003
,,,2.12500000e-009,-1.88125019e-003
,,,2.15000000e-009,-1.83750019e-003
,,,2.17500000e-009,-1.80000018e-003
,,,2.20000000e-009,-1.77734393e-003
,,,2.22500000e-009,-1.75703143e-003
,,,2.25000000e-009,-1.73828143e-003
,,,2.27500000e-009,-1.71796893e-003
,,,2.30000000e-009,-1.69609393e-003
,,,2.32500000e-009,-1.66953142e-003
,,,2.35000000e-009,-1.63828142e-003
,,,2.37500000e-009,-1.60000017e-003
,,,2.40000000e-009,-1.56015642e-003
,,,2.42500000e-009,-1.51250016e-003
,,,2.45000000e-009,-1.45937516e-003
,,,2.47500000e-009,-1.40312516e-003
,,,2.50000000e-009,-1.34609390e-003
,,,2.52500000e-009,-1.29218765e-003
,,,2.55000000e-009,-1.24296889e-003
,,,2.57500000e-009,-1.20000014e-003
,,,2.60000000e-009,-1.17031264e-003
,,,2.62500000e-009,-1.14531264e-003
,,,2.65000000e-009,-1.12343764e-003
,,,2.67500000e-009,-1.10312513e-003
,,,2.70000000e-009,-1.08203138e-003
,,,2.72500000e-009,-1.05859388e-003
,,,2.75000000e-009,-1.03125013e-003
,,,2.77500000e-009,-1.00000013e-003
,,,2.80000000e-009,-9.71093875e-004
,,,2.82500000e-009,-9.37500122e-004
,,,2.85000000e-009,-9.01562620e-004
,,,2.87500000e-009,-8.67187617e-004
,,,2.90000000e-009,-8.36718865e-004
,,,2.92500000e-009,-8.14062613e-004
,,,2.95000000e-009,-8.01562613e-004
,,,2.97500000e-009,-8.00000113e-004
,,,3.00000000e-009,-8.17968864e-004
,,,3.02500000e-009,-8.43750116e-004
,,,3.05000000e-009,-8.76562618e-004
,,,3.07500000e-009,-9.10937620e-004
,,,3.10000000e-009,-9.43750123e-004
,,,3.12500000e-009,-9.71875125e-004
,,,3.15000000e-009,-9.91406376e-004
,,,3.17500000e-009,-1.00000013e-003
,,,3.20000000e-009,-9.98437627e-004
,,,3.22500000e-009,-9.84375126e-004
,,,3.25000000e-009,-9.60156374e-004
,,,3.27500000e-009,-9.28125122e-004
,,,3.30000000e-009,-8.92187619e-004
,,,3.32500000e-009,-8.56250116e-004
,,,3.35000000e-009,-8.25000114e-004
,,,3.37500000e-009,-8.00000113e-004
,,,3.40000000e-009,-7.87500112e-004
,,,3.42500000e-009,-7.82031361e-004
,,,3.45000000e-009,-7.82812611e-004
,,,3.47500000e-009,-7.87500112e-004
,,,3.50000000e-009,-7.93750112e-004
,,,3.52500000e-009,-8.00000113e-004
,,,3.55000000e-009,-8.02343863e-004
,,,3.57500000e-009,-8.00000113e-004
,,,3.60000000e-009,-7.94531362e-004
,,,3.62500000e-009,-7.85156361e-004
,,,3.65000000e-009,-7.74218861e-004
,,,3.67500000e-009,-7.64843860e-004
,,,3.70000000e-009,-7.60156360e-004
,,,3.72500000e-009,-7.63281360e-004
,,,3.75000000e-009,-7.76562611e-004
,,,3.77500000e-009,-8.00000113e-004
,,,3.80000000e-009,-8.32812615e-004
,,,3.82500000e-009,-8.72656368e-004
,,,3.85000000e-009,-9.14062621e-004
,,,3.87500000e-009,-9.53125123e-004
,,,3.90000000e-009,-9.85937626e-004
,,,3.92500000e-009,-1.00625013e-003
,,,3.95000000e-009,-1.01250013e-003
,,,3.97500000e-009,-1.00000013e-003
,,,4.00000000e-009,-9.68750124e-004
,,,4.02500000e-009,-9.21093871e-004
,,,4.05000000e-009,-8.63281367e-004
,,,4.07500000e-009,-7.99218862e-004
,,,4.10000000e-009,-7.35937608e-004
,,,4.12500000e-009,-6.78125104e-004
,,,4.15000000e-009,-6.31250101e-004
,,,4.17500000e-009,-6.00000098e-004
,,,4.20000000e-009,-5.88281348e-004
,,,4.22500000e-009,-5.94531348e-004
,,,4.25000000e-009,-6.15625099e-004
,,,4.27500000e-009,-6.48437602e-004
,,,4.30000000e-009,-6.88281355e-004
,,,4.32500000e-009,-7.30468858e-004
,,,4.35000000e-009,-7.69531360e-004
,,,4.37500000e-009,-8.00000113e-004
,,,4.40000000e-009,-8.18750114e-004
,,,4.42500000e-009,-8.23437614e-004
,,,4.45000000e-009,-8.12500113e-004
,,,4.47500000e-009,-7.88281362e-004
,,,4.50000000e-009,-7.52343859e-004
,,,4.52500000e-009,-7.06250106e-004
,,,4.55000000e-009,-6.54687602e-004
,,,4.57500000e-009,-6.00000098e-004
,,,4.60000000e-009,-5.47656345e-004
,,,4.62500000e-009,-4.99218841e-004
,,,4.65000000e-009,-4.57812588e-004
,,,4.67500000e-009,-4.25000086e-004
,,,4.70000000e-009,-4.03125084e-004
,,,4.72500000e-009,-3.92187584e-004
,,,4.75000000e-009,-3.91406334e-004
,,,4.77500000e-009,-4.00000084e-004
,,,4.80000000e-009,-4.20312586e-004
,,,4.82500000e-009,-4.46875088e-004
,,,4.85000000e-009,-4.76562590e-004
,,,4.87500000e-009,-5.07031342e-004
,,,4.90000000e-009,-5.36718844e-004
,,,4.92500000e-009,-5.63281346e-004
,,,4.95000000e-009,-5.84375097e-004
,,,4.97500000e-009,-6.00000098e-004
,,,5.00000000e-009,-6.10156349e-004
,,,5.02500000e-009,-6.14062599e-004
,,,5.05000000e-009,-6.13281349e-004
,,,5.07500000e-009,-6.08593849e-004
,,,5.10000000e-009,-6.03906349e-004
,,,5.12500000e-009,-6.00000098e-004
,,,5.15000000e-009,-5.98437598e-004
,,,5.17500000e-009,-6.00000098e-004
,,,5.20000000e-009,-6.05468849e-004
,,,5.22500000e-009,-6.12500099e-004
,,,5.25000000e-009,-6.21093850e-004
,,,5.27500000e-009,-6.27343850e-004
,,,5.30000000e-009,-6.31250101e-004
,,,5.32500000e-009,-6.28125100e-004
,,,5.35000000e-009,-6.18750100e-004
,,,5.37500000e-009,-6.00000098e-004
,,,5.40000000e-009,-5.73437596e-004
,,,5.42500000e-009,-5.40625094e-004
,,,5.45000000e-009,-5.04687592e-004
,,,5.47500000e-009,-4.68750089e-004
,,,5.50000000e-009,-4.37500087e-004
,,,5.52500000e-009,-4.13281335e-004
,,,5.55000000e-009,-4.00781334e-004
,,,5.57500000e-009,-4.00000084e-004
,,,5.60000000e-009,-4.11718835e-004
,,,5.62500000e-009,-4.33593837e-004
,,,5.65000000e-009,-4.63281339e-004
,,,5.67500000e-009,-4.97656341e-004
,,,5.70000000e-009,-5.32812594e-004
,,,5.72500000e-009,-5.63281346e-004
,,,5.75000000e-009,-5.86718847e-004
,,,5.77500000e-009,-6.00000098e-004
,,,5.80000000e-009,-5.99218848e-004
,,,5.82500000e-009,-5.85937597e-004
