RawData/DifferentLengths/R3/R3_25_5mV/wave029_Ch1.csv

"Record Length",1000,"Points",-7.72500000e-009,-5.46875095e-004
"Sample Interval",2.50000000e-011,s,-7.70000000e-009,-4.91406341e-004
"Trigger Point",309,"Samples",-7.67500000e-009,-4.24218836e-004
"Trigger Time",9.80680203e-012,s,-7.65000000e-009,-3.53906331e-004
"",,,-7.62500000e-009,-2.89062576e-004
"Horizontal Offset",-7.72500000e-009,s,-7.60000000e-009,-2.35937573e-004
,,,-7.57500000e-009,-2.00000070e-004
,,,-7.55000000e-009,-1.85156319e-004
,,,-7.52500000e-009,-1.89843819e-004
,,,-7.50000000e-009,-2.13281321e-004
,,,-7.47500000e-009,-2.50000074e-004
,,,-7.45000000e-009,-2.93750077e-004
,,,-7.42500000e-009,-3.36718830e-004
,,,-7.40000000e-009,-3.74218832e-004
,,,-7.37500000e-009,-4.00000084e-004
,,,-7.35000000e-009,-4.10156335e-004
,,,-7.32500000e-009,-4.04687585e-004
,,,-7.30000000e-009,-3.83593833e-004
,,,-7.27500000e-009,-3.51562581e-004
,,,-7.25000000e-009,-3.11718828e-004
,,,-7.22500000e-009,-2.70312575e-004
,,,-7.20000000e-009,-2.31250072e-004
,,,-7.17500000e-009,-2.00000070e-004
,,,-7.15000000e-009,-1.82812569e-004
,,,-7.12500000e-009,-1.79687569e-004
,,,-7.10000000e-009,-1.91406319e-004
,,,-7.07500000e-009,-2.16406321e-004
,,,-7.05000000e-009,-2.53906324e-004
,,,-7.02500000e-009,-2.99218827e-004
,,,-7.00000000e-009,-3.49218831e-004
,,,-6.97500000e-009,-4.00000084e-004
,,,-6.95000000e-009,-4.46093837e-004
,,,-6.92500000e-009,-4.82812590e-004
,,,-6.90000000e-009,-5.08593842e-004
,,,-6.87500000e-009,-5.18750093e-004
,,,-6.85000000e-009,-5.13281342e-004
,,,-6.82500000e-009,-4.91406341e-004
,,,-6.80000000e-009,-4.53125088e-004
,,,-6.77500000e-009,-4.00000084e-004
,,,-6.75000000e-009,-3.37500080e-004
,,,-6.72500000e-009,-2.68750075e-004
,,,-6.70000000e-009,-1.99218820e-004
,,,-6.67500000e-009,-1.32812565e-004
,,,-6.65000000e-009,-7.57813112e-005
,,,-6.62500000e-009,-3.28125582e-005
,,,-6.60000000e-009,-7.03130638e-006
,,,-6.57500000e-009,-5.58793550e-011
,,,-6.55000000e-009,-1.71875571e-005
,,,-6.52500000e-009,-5.31250596e-005
,,,-6.50000000e-009,-1.03125063e-004
,,,-6.47500000e-009,-1.64062567e-004
,,,-6.45000000e-009,-2.28906322e-004
,,,-6.42500000e-009,-2.92968827e-004
,,,-6.40000000e-009,-3.51562581e-004
,,,-6.37500000e-009,-4.00000084e-004
,,,-6.35000000e-009,-4.35156337e-004
,,,-6.32500000e-009,-4.55468838e-004
,,,-6.30000000e-009,-4.61718839e-004
,,,-6.27500000e-009,-4.57812588e-004
,,,-6.25000000e-009,-4.46093837e-004
,,,-6.22500000e-009,-4.30468836e-004
,,,-6.20000000e-009,-4.14062585e-004
,,,-6.17500000e-009,-4.00000084e-004
,,,-6.15000000e-009,-3.90625084e-004
,,,-6.12500000e-009,-3.86718833e-004
,,,-6.10000000e-009,-3.87500083e-004
,,,-6.07500000e-009,-3.91406334e-004
,,,-6.05000000e-009,-3.97656334e-004
,,,-6.02500000e-009,-4.01562584e-004
,,,-6.00000000e-009,-4.03125084e-004
,,,-5.97500000e-009,-4.00000084e-004
,,,-5.95000000e-009,-3.92187584e-004
,,,-5.92500000e-009,-3.81250083e-004
,,,-5.90000000e-009,-3.69531332e-004
,,,-5.87500000e-009,-3.60156331e-004
,,,-5.85000000e-009,-3.56250081e-004
,,,-5.82500000e-009,-3.60156331e-004
,,,-5.80000000e-009,-3.75000082e-004
,,,-5.77500000e-009,-4.00000084e-004
,,,-5.75000000e-009,-4.34375087e-004
,,,-5.72500000e-009,-4.75000090e-004
,,,-5.70000000e-009,-5.17187592e-004
,,,-5.67500000e-009,-5.57812595e-004
,,,-5.65000000e-009,-5.89843848e-004
,,,-5.62500000e-009,-6.10156349e-004
,,,-5.60000000e-009,-6.14062599e-004
,,,-5.57500000e-009,-6.00000098e-004
,,,-5.55000000e-009,-5.64843846e-004
,,,-5.52500000e-009,-5.14062592e-004
,,,-5.50000000e-009,-4.53125088e-004
,,,-5.47500000e-009,-3.88281333e-004
,,,-5.45000000e-009,-3.25000079e-004
,,,-5.42500000e-009,-2.69531325e-004
,,,-5.40000000e-009,-2.26562572e-004
,,,-5.37500000e-009,-2.00000070e-004
,,,-5.35000000e-009,-1.92187569e-004
,,,-5.32500000e-009,-2.02343820e-004
,,,-5.30000000e-009,-2.26562572e-004
,,,-5.27500000e-009,-2.60937574e-004
,,,-5.25000000e-009,-3.01562577e-004
,,,-5.22500000e-009,-3.41406330e-004
,,,-5.20000000e-009,-3.75781332e-004
,,,-5.17500000e-009,-4.00000084e-004
,,,-5.15000000e-009,-4.10156335e-004
,,,-5.12500000e-009,-4.05468835e-004
,,,-5.10000000e-009,-3.86718833e-004
,,,-5.07500000e-009,-3.57031331e-004
,,,-5.05000000e-009,-3.19531328e-004
,,,-5.02500000e-009,-2.78125076e-004
,,,-5.00000000e-009,-2.36718823e-004
,,,-4.97500000e-009,-2.00000070e-004
,,,-4.95000000e-009,-1.70312568e-004
,,,-4.92500000e-009,-1.49218816e-004
,,,-4.90000000e-009,-1.38281316e-004
,,,-4.87500000e-009,-1.37500066e-004
,,,-4.85000000e-009,-1.44531316e-004
,,,-4.82500000e-009,-1.59375067e-004
,,,-4.80000000e-009,-1.78906319e-004
,,,-4.77500000e-009,-2.00000070e-004
,,,-4.75000000e-009,-2.20312571e-004
,,,-4.72500000e-009,-2.36718823e-004
,,,-4.70000000e-009,-2.46875073e-004
,,,-4.67500000e-009,-2.51562574e-004
,,,-4.65000000e-009,-2.49218824e-004
,,,-4.62500000e-009,-2.39062573e-004
,,,-4.60000000e-009,-2.22656322e-004
,,,-4.57500000e-009,-2.00000070e-004
,,,-4.55000000e-009,-1.74218818e-004
,,,-4.52500000e-009,-1.45312566e-004
,,,-4.50000000e-009,-1.14062564e-004
,,,-4.47500000e-009,-8.43750619e-005
,,,-4.45000000e-009,-5.62500599e-005
,,,-4.42500000e-009,-3.20313081e-005
,,,-4.40000000e-009,-1.32813068e-005
,,,-4.37500000e-009,-5.58793550e-011
,,,-4.35000000e-009,6.24994456e-006
,,,-4.32500000e-009,7.03119462e-006
,,,-4.30000000e-009,4.68744445e-006
,,,-4.27500000e-009,7.81194176e-007
,,,-4.25000000e-009,-3.90630616e-006
,,,-4.22500000e-009,-7.03130638e-006
,,,-4.20000000e-009,-6.25005632e-006
,,,-4.17500000e-009,-5.58793550e-011
,,,-4.15000000e-009,8.59369473e-006
,,,-4.12500000e-009,2.42186958e-005
,,,-4.10000000e-009,4.53124473e-005
,,,-4.07500000e-009,7.18749492e-005
,,,-4.05000000e-009,1.03124951e-004
,,,-4.02500000e-009,1.35156204e-004
,,,-4.00000000e-009,1.68749956e-004
,,,-3.97500000e-009,1.99999958e-004
,,,-3.95000000e-009,2.23437460e-004
,,,-3.92500000e-009,2.40624961e-004
,,,-3.90000000e-009,2.52343712e-004
,,,-3.87500000e-009,2.55468712e-004
,,,-3.85000000e-009,2.52343712e-004
,,,-3.82500000e-009,2.40624961e-004
,,,-3.80000000e-009,2.23437460e-004
,,,-3.77500000e-009,1.99999958e-004
,,,-3.75000000e-009,1.68749956e-004
,,,-3.72500000e-009,1.35156204e-004
,,,-3.70000000e-009,1.03124951e-004
,,,-3.67500000e-009,7.18749492e-005
,,,-3.65000000e-009,4.53124473e-005
,,,-3.62500000e-009,2.42186958e-005
,,,-3.60000000e-009,8.59369473e-006
,,,-3.57500000e-009,-5.58793550e-011
,,,-3.55000000e-009,-5.46880627e-006
,,,-3.52500000e-009,-4.68755621e-006
,,,-3.50000000e-009,-1.56255599e-006
,,,-3.47500000e-009,3.90619440e-006
,,,-3.45000000e-009,8.59369473e-006
,,,-3.42500000e-009,1.01561948e-005
,,,-3.40000000e-009,7.81244467e-006
,,,-3.37500000e-009,-5.58793550e-011
,,,-3.35000000e-009,-1.56250570e-005
,,,-3.32500000e-009,-3.67188085e-005
,,,-3.30000000e-009,-6.25000603e-005
,,,-3.27500000e-009,-9.14063123e-005
,,,-3.25000000e-009,-1.21875065e-004
,,,-3.22500000e-009,-1.51562567e-004
,,,-3.20000000e-009,-1.78125068e-004
,,,-3.17500000e-009,-2.00000070e-004
,,,-3.15000000e-009,-2.16406321e-004
,,,-3.12500000e-009,-2.25781322e-004
,,,-3.10000000e-009,-2.29687572e-004
,,,-3.07500000e-009,-2.28125072e-004
,,,-3.05000000e-009,-2.23437572e-004
,,,-3.02500000e-009,-2.16406321e-004
,,,-3.00000000e-009,-2.08593821e-004
,,,-2.97500000e-009,-2.00000070e-004
,,,-2.95000000e-009,-1.91406319e-004
,,,-2.92500000e-009,-1.85156319e-004
,,,-2.90000000e-009,-1.82031319e-004
,,,-2.87500000e-009,-1.81250069e-004
,,,-2.85000000e-009,-1.83593819e-004
,,,-2.82500000e-009,-1.88281319e-004
,,,-2.80000000e-009,-1.94531320e-004
,,,-2.77500000e-009,-2.00000070e-004
,,,-2.75000000e-009,-2.03125070e-004
,,,-2.72500000e-009,-2.04687570e-004
,,,-2.70000000e-009,-2.05468820e-004
,,,-2.67500000e-009,-2.05468820e-004
,,,-2.65000000e-009,-2.04687570e-004
,,,-2.62500000e-009,-2.03906320e-004
,,,-2.60000000e-009,-2.02343820e-004
,,,-2.57500000e-009,-2.00000070e-004
,,,-2.55000000e-009,-1.98437570e-004
,,,-2.52500000e-009,-1.96875070e-004
,,,-2.50000000e-009,-1.96093820e-004
,,,-2.47500000e-009,-1.96093820e-004
,,,-2.45000000e-009,-1.96875070e-004
,,,-2.42500000e-009,-1.97656320e-004
,,,-2.40000000e-009,-1.99218820e-004
,,,-2.37500000e-009,-2.00000070e-004
,,,-2.35000000e-009,-2.00781320e-004
,,,-2.32500000e-009,-2.01562570e-004
,,,-2.30000000e-009,-2.03125070e-004
,,,-2.27500000e-009,-2.03906320e-004
,,,-2.25000000e-009,-2.04687570e-004
,,,-2.22500000e-009,-2.04687570e-004
,,,-2.20000000e-009,-2.03125070e-004
,,,-2.17500000e-009,-2.00000070e-004
,,,-2.15000000e-009,-1.96093820e-004
,,,-2.12500000e-009,-1.88281319e-004
,,,-2.10000000e-009,-1.75000068e-004
,,,-2.07500000e-009,-1.55468817e-004
,,,-2.05000000e-009,-1.28125065e-004
,,,-2.02500000e-009,-9.21875624e-005
,,,-2.00000000e-009,-4.92188094e-005
,,,-1.97500000e-009,-5.58793550e-011
,,,-1.95000000e-009,4.84374475e-005
,,,-1.92500000e-009,9.68749510e-005
,,,-1.90000000e-009,1.42187454e-004
,,,-1.87500000e-009,1.79687457e-004
,,,-1.85000000e-009,2.06249959e-004
,,,-1.82500000e-009,2.20312460e-004
,,,-1.80000000e-009,2.17968710e-004
,,,-1.77500000e-009,1.99999958e-004
,,,-1.75000000e-009,1.59374955e-004
,,,-1.72500000e-009,1.07812452e-004
,,,-1.70000000e-009,4.68749474e-005
,,,-1.67500000e-009,-1.64063070e-005
,,,-1.65000000e-009,-7.65625613e-005
,,,-1.62500000e-009,-1.30468815e-004
,,,-1.60000000e-009,-1.71875068e-004
,,,-1.57500000e-009,-2.00000070e-004
,,,-1.55000000e-009,-2.21093822e-004
,,,-1.52500000e-009,-2.28906322e-004
,,,-1.50000000e-009,-2.26562572e-004
,,,-1.47500000e-009,-2.17187571e-004
,,,-1.45000000e-009,-2.06250070e-004
,,,-1.42500000e-009,-1.96875070e-004
,,,-1.40000000e-009,-1.93750070e-004
,,,-1.37500000e-009,-2.00000070e-004
,,,-1.35000000e-009,-2.30468822e-004
,,,-1.32500000e-009,-2.73437575e-004
,,,-1.30000000e-009,-3.27343829e-004
,,,-1.27500000e-009,-3.87500083e-004
,,,-1.25000000e-009,-4.50000088e-004
,,,-1.22500000e-009,-5.09375092e-004
,,,-1.20000000e-009,-5.60156346e-004
,,,-1.17500000e-009,-6.00000098e-004
,,,-1.15000000e-009,-6.40625101e-004
,,,-1.12500000e-009,-6.67968853e-004
,,,-1.10000000e-009,-6.82031354e-004
,,,-1.07500000e-009,-6.83593854e-004
,,,-1.05000000e-009,-6.73437604e-004
,,,-1.02500000e-009,-6.53906352e-004
,,,-1.00000000e-009,-6.28125100e-004
,,,-9.75000000e-010,-6.00000098e-004
,,,-9.50000000e-010,-5.93750098e-004
,,,-9.25000000e-010,-5.96875098e-004
,,,-9.00000000e-010,-6.10156349e-004
,,,-8.75000000e-010,-6.32812601e-004
,,,-8.50000000e-010,-6.64062603e-004
,,,-8.25000000e-010,-7.03125106e-004
,,,-8.00000000e-010,-7.48437609e-004
,,,-7.75000000e-010,-8.00000113e-004
,,,-7.50000000e-010,-8.78906368e-004
,,,-7.25000000e-010,-9.67187624e-004
,,,-7.00000000e-010,-1.06328138e-003
,,,-6.75000000e-010,-1.16640639e-003
,,,-6.50000000e-010,-1.27265640e-003
,,,-6.25000000e-010,-1.38125015e-003
,,,-6.00000000e-010,-1.49062516e-003
,,,-5.75000000e-010,-1.60000017e-003
,,,-5.50000000e-010,-1.72656268e-003
,,,-5.25000000e-010,-1.85625019e-003
,,,-5.00000000e-010,-1.98593770e-003
,,,-4.75000000e-010,-2.11562521e-003
,,,-4.50000000e-010,-2.24218771e-003
,,,-4.25000000e-010,-2.36562522e-003
,,,-4.00000000e-010,-2.48437523e-003
,,,-3.75000000e-010,-2.60000024e-003
,,,-3.50000000e-010,-2.72187525e-003
,,,-3.25000000e-010,-2.84843776e-003
,,,-3.00000000e-010,-2.98203152e-003
,,,-2.75000000e-010,-3.12500028e-003
,,,-2.50000000e-010,-3.27890654e-003
,,,-2.25000000e-010,-3.44218780e-003
,,,-2.00000000e-010,-3.61640656e-003
,,,-1.75000000e-010,-3.80000032e-003
,,,-1.50000000e-010,-3.98515659e-003
,,,-1.25000000e-010,-4.17656285e-003
,,,-1.00000000e-010,-4.36953162e-003
,,,-7.50000000e-011,-4.56015663e-003
,,,-5.00000000e-011,-4.74218789e-003
,,,-2.50000000e-011,-4.91250040e-003
,,,0.00000000e+000,-5.06640666e-003
,,,2.50000000e-011,-5.20000042e-003
,,,5.00000000e-011,-5.29375043e-003
,,,7.50000000e-011,-5.37265669e-003
,,,1.00000000e-010,-5.44218794e-003
,,,1.25000000e-010,-5.50625045e-003
,,,1.50000000e-010,-5.57109420e-003
,,,1.75000000e-010,-5.63984421e-003
,,,2.00000000e-010,-5.71562546e-003
,,,2.25000000e-010,-5.80000047e-003
,,,2.50000000e-010,-5.86562547e-003
,,,2.75000000e-010,-5.94140673e-003
,,,3.00000000e-010,-6.02578173e-003
,,,3.25000000e-010,-6.11484424e-003
,,,3.50000000e-010,-6.20312549e-003
,,,3.75000000e-010,-6.28359425e-003
,,,4.00000000e-010,-6.35156301e-003
,,,4.25000000e-010,-6.40000051e-003
,,,4.50000000e-010,-6.39218801e-003
,,,4.75000000e-010,-6.36484426e-003
,,,5.00000000e-010,-6.32031300e-003
,,,5.25000000e-010,-6.26484425e-003
,,,5.50000000e-010,-6.20078174e-003
,,,5.75000000e-010,-6.13281299e-003
,,,6.00000000e-010,-6.06562549e-003
,,,6.25000000e-010,-6.00000048e-003
,,,6.50000000e-010,-5.91093797e-003
,,,6.75000000e-010,-5.82812547e-003
,,,7.00000000e-010,-5.75312546e-003
,,,7.25000000e-010,-5.68281296e-003
,,,7.50000000e-010,-5.61562545e-003
,,,7.75000000e-010,-5.54843795e-003
,,,8.00000000e-010,-5.47734419e-003
,,,8.25000000e-010,-5.40000044e-003
,,,8.50000000e-010,-5.29453168e-003
,,,8.75000000e-010,-5.18281292e-003
,,,9.00000000e-010,-5.06953166e-003
,,,9.25000000e-010,-4.95781291e-003
,,,9.50000000e-010,-4.85156290e-003
,,,9.75000000e-010,-4.75546914e-003
,,,1.00000000e-009,-4.67187539e-003
,,,1.02500000e-009,-4.60000038e-003
,,,1.05000000e-009,-4.53046913e-003
,,,1.07500000e-009,-4.46796912e-003
,,,1.10000000e-009,-4.40781287e-003
,,,1.12500000e-009,-4.34687536e-003
,,,1.15000000e-009,-4.27890661e-003
,,,1.17500000e-009,-4.20000035e-003
,,,1.20000000e-009,-4.10781285e-003
,,,1.22500000e-009,-4.00000034e-003
,,,1.25000000e-009,-3.87500033e-003
,,,1.27500000e-009,-3.73671907e-003
,,,1.30000000e-009,-3.58984406e-003
,,,1.32500000e-009,-3.44296905e-003
,,,1.35000000e-009,-3.30390654e-003
,,,1.37500000e-009,-3.18046903e-003
,,,1.40000000e-009,-3.07812527e-003
,,,1.42500000e-009,-3.00000027e-003
,,,1.45000000e-009,-2.95703152e-003
,,,1.47500000e-009,-2.93203151e-003
,,,1.50000000e-009,-2.92031276e-003
,,,1.52500000e-009,-2.91328151e-003
,,,1.55000000e-009,-2.90468776e-003
,,,1.57500000e-009,-2.88671901e-003
,,,1.60000000e-009,-2.85312526e-003
,,,1.62500000e-009,-2.80000025e-003
,,,1.65000000e-009,-2.73437525e-003
,,,1.67500000e-009,-2.64531274e-003
,,,1.70000000e-009,-2.53750024e-003
,,,1.72500000e-009,-2.41796898e-003
,,,1.75000000e-009,-2.29609397e-003
,,,1.77500000e-009,-2.18046896e-003
,,,1.80000000e-009,-2.07968770e-003
,,,1.82500000e-009,-2.00000020e-003
,,,1.85000000e-009,-1.95859394e-003
,,,1.87500000e-009,-1.93828144e-003
,,,1.90000000e-009,-1.93515644e-003
,,,1.92500000e-009,-1.94609394e-003
,,,1.95000000e-009,-1.96328144e-003
,,,1.97500000e-009,-1.98203145e-003
,,,2.00000000e-009,-1.99609395e-003
,,,2.02500000e-009,-2.00000020e-003
,,,2.05000000e-009,-2.00156270e-003
,,,2.07500000e-009,-1.98671895e-003
,,,2.10000000e-009,-1.95859394e-003
,,,2.12500000e-009,-1.92187519e-003
,,,2.15000000e-009,-1.88203144e-003
,,,2.17500000e-009,-1.84453144e-003
,,,2.20000000e-009,-1.81562518e-003
,,,2.22500000e-009,-1.80000018e-003
,,,2.25000000e-009,-1.80703143e-003
,,,2.27500000e-009,-1.82500019e-003
,,,2.30000000e-009,-1.85312519e-003
,,,2.32500000e-009,-1.88750019e-003
,,,2.35000000e-009,-1.92343769e-003
,,,2.37500000e-009,-1.95703144e-003
,,,2.40000000e-009,-1.98359395e-003
,,,2.42500000e-009,-2.00000020e-003
,,,2.45000000e-009,-2.00468770e-003
,,,2.47500000e-009,-1.99375020e-003
,,,2.50000000e-009,-1.97109395e-003
,,,2.52500000e-009,-1.93906269e-003
,,,2.55000000e-009,-1.90078144e-003
,,,2.57500000e-009,-1.86250019e-003
,,,2.60000000e-009,-1.82812519e-003
,,,2.62500000e-009,-1.80000018e-003
,,,2.65000000e-009,-1.78281268e-003
,,,2.67500000e-009,-1.77343768e-003
,,,2.70000000e-009,-1.77187518e-003
,,,2.72500000e-009,-1.77656268e-003
,,,2.75000000e-009,-1.78359393e-003
,,,2.77500000e-009,-1.79218768e-003
,,,2.80000000e-009,-1.79843768e-003
,,,2.82500000e-009,-1.80000018e-003
,,,2.85000000e-009,-1.79296893e-003
,,,2.87500000e-009,-1.77812518e-003
,,,2.90000000e-009,-1.75625018e-003
,,,2.92500000e-009,-1.72812518e-003
,,,2.95000000e-009,-1.69687518e-003
,,,2.97500000e-009,-1.66406267e-003
,,,3.00000000e-009,-1.63125017e-003
,,,3.02500000e-009,-1.60000017e-003
,,,3.05000000e-009,-1.57187517e-003
,,,3.07500000e-009,-1.54609392e-003
,,,3.10000000e-009,-1.52265641e-003
,,,3.12500000e-009,-1.50000016e-003
,,,3.15000000e-009,-1.47812516e-003
,,,3.17500000e-009,-1.45468766e-003
,,,3.20000000e-009,-1.42890641e-003
,,,3.22500000e-009,-1.40000015e-003
,,,3.25000000e-009,-1.36875015e-003
,,,3.27500000e-009,-1.33515640e-003
,,,3.30000000e-009,-1.30078140e-003
,,,3.32500000e-009,-1.26875015e-003
,,,3.35000000e-009,-1.24140639e-003
,,,3.37500000e-009,-1.21953139e-003
,,,3.40000000e-009,-1.20625014e-003
,,,3.42500000e-009,-1.20000014e-003
,,,3.45000000e-009,-1.20312514e-003
,,,3.47500000e-009,-1.21093764e-003
,,,3.50000000e-009,-1.22031264e-003
,,,3.52500000e-009,-1.22890639e-003
,,,3.55000000e-009,-1.23281264e-003
,,,3.57500000e-009,-1.23046889e-003
,,,3.60000000e-009,-1.22031264e-003
,,,3.62500000e-009,-1.20000014e-003
,,,3.65000000e-009,-1.17109389e-003
,,,3.67500000e-009,-1.13515639e-003
,,,3.70000000e-009,-1.09531263e-003
,,,3.72500000e-009,-1.05703138e-003
,,,3.75000000e-009,-1.02421888e-003
,,,3.77500000e-009,-1.00234388e-003
,,,3.80000000e-009,-9.93750126e-004
,,,3.82500000e-009,-1.00000013e-003
,,,3.85000000e-009,-1.02265638e-003
,,,3.87500000e-009,-1.05625013e-003
,,,3.90000000e-009,-1.09531263e-003
,,,3.92500000e-009,-1.13515639e-003
,,,3.95000000e-009,-1.17109389e-003
,,,3.97500000e-009,-1.19609389e-003
,,,4.00000000e-009,-1.20703139e-003
,,,4.02500000e-009,-1.20000014e-003
,,,4.05000000e-009,-1.17500014e-003
,,,4.07500000e-009,-1.13359389e-003
,,,4.10000000e-009,-1.07812513e-003
,,,4.12500000e-009,-1.01484388e-003
,,,4.15000000e-009,-9.50000123e-004
,,,4.17500000e-009,-8.89062619e-004
,,,4.20000000e-009,-8.38281365e-004
,,,4.22500000e-009,-8.00000113e-004
,,,4.25000000e-009,-7.80468861e-004
,,,4.27500000e-009,-7.75000111e-004
,,,4.30000000e-009,-7.79687611e-004
,,,4.32500000e-009,-7.92187612e-004
,,,4.35000000e-009,-8.04687613e-004
,,,4.37500000e-009,-8.14062613e-004
,,,4.40000000e-009,-8.13281363e-004
,,,4.42500000e-009,-8.00000113e-004
,,,4.45000000e-009,-7.74218861e-004
,,,4.47500000e-009,-7.33593858e-004
,,,4.50000000e-009,-6.81250104e-004
,,,4.52500000e-009,-6.20312600e-004
,,,4.55000000e-009,-5.56250095e-004
,,,4.57500000e-009,-4.95312591e-004
,,,4.60000000e-009,-4.41406337e-004
,,,4.62500000e-009,-4.00000084e-004
,,,4.65000000e-009,-3.80468833e-004
,,,4.67500000e-009,-3.77343833e-004
,,,4.70000000e-009,-3.89843833e-004
,,,4.72500000e-009,-4.17187585e-004
,,,4.75000000e-009,-4.55468838e-004
,,,4.77500000e-009,-5.00781341e-004
,,,4.80000000e-009,-5.50781345e-004
,,,4.82500000e-009,-6.00000098e-004
,,,4.85000000e-009,-6.48437602e-004
,,,4.87500000e-009,-6.90625105e-004
,,,4.90000000e-009,-7.25000107e-004
,,,4.92500000e-009,-7.51562609e-004
,,,4.95000000e-009,-7.71093860e-004
,,,4.97500000e-009,-7.85156361e-004
,,,5.00000000e-009,-7.94531362e-004
,,,5.02500000e-009,-8.00000113e-004
,,,5.05000000e-009,-8.04687613e-004
,,,5.07500000e-009,-8.07031363e-004
,,,5.10000000e-009,-8.07812613e-004
,,,5.12500000e-009,-8.07812613e-004
,,,5.15000000e-009,-8.07031363e-004
,,,5.17500000e-009,-8.05468863e-004
,,,5.20000000e-009,-8.03125113e-004
,,,5.22500000e-009,-8.00000113e-004
,,,5.25000000e-009,-7.94531362e-004
,,,5.27500000e-009,-7.88281362e-004
,,,5.30000000e-009,-7.83593861e-004
,,,5.32500000e-009,-7.80468861e-004
,,,5.35000000e-009,-7.80468861e-004
,,,5.37500000e-009,-7.83593861e-004
,,,5.40000000e-009,-7.90625112e-004
,,,5.42500000e-009,-8.00000113e-004
,,,5.45000000e-009,-8.10937613e-004
,,,5.47500000e-009,-8.21875114e-004
,,,5.50000000e-009,-8.31250115e-004
,,,5.52500000e-009,-8.36718865e-004
,,,5.55000000e-009,-8.38281365e-004
,,,5.57500000e-009,-8.32812615e-004
,,,5.60000000e-009,-8.20312614e-004
,,,5.62500000e-009,-8.00000113e-004
,,,5.65000000e-009,-7.69531360e-004
,,,5.67500000e-009,-7.35156358e-004
,,,5.70000000e-009,-6.99218855e-004
,,,5.72500000e-009,-6.65625103e-004
,,,5.75000000e-009,-6.36718851e-004
,,,5.77500000e-009,-6.14843849e-004
,,,5.80000000e-009,-6.03125099e-004
,,,5.82500000e-009,-6.00000098e-004
