RawData/SinglePhotoelectron/R7_2pt2B_5mV/wave004_Ch2.csv

"Record Length",1000,"Points",-7.72500000e-009,6.10156293e-004
"Sample Interval",2.50000000e-011,s,-7.70000000e-009,6.14062543e-004
"Trigger Point",309,"Samples",-7.67500000e-009,6.12500043e-004
"Trigger Time",2.37595833e-011,s,-7.65000000e-009,6.07812543e-004
"",,,-7.62500000e-009,6.03125043e-004
"Horizontal Offset",-7.72500000e-009,s,-7.60000000e-009,5.98437542e-004
,,,-7.57500000e-009,5.96875042e-004
,,,-7.55000000e-009,6.00000042e-004
,,,-7.52500000e-009,6.07812543e-004
,,,-7.50000000e-009,6.23437544e-004
,,,-7.47500000e-009,6.43750046e-004
,,,-7.45000000e-009,6.70312547e-004
,,,-7.42500000e-009,7.00781300e-004
,,,-7.40000000e-009,7.32812552e-004
,,,-7.37500000e-009,7.66406304e-004
,,,-7.35000000e-009,8.00000057e-004
,,,-7.32500000e-009,8.28906309e-004
,,,-7.30000000e-009,8.55468811e-004
,,,-7.27500000e-009,8.81250062e-004
,,,-7.25000000e-009,9.05468814e-004
,,,-7.22500000e-009,9.28906316e-004
,,,-7.20000000e-009,9.52343817e-004
,,,-7.17500000e-009,9.76562569e-004
,,,-7.15000000e-009,1.00000007e-003
,,,-7.12500000e-009,1.01718757e-003
,,,-7.10000000e-009,1.03281257e-003
,,,-7.07500000e-009,1.04531257e-003
,,,-7.05000000e-009,1.05234382e-003
,,,-7.02500000e-009,1.05312507e-003
,,,-7.00000000e-009,1.04453132e-003
,,,-6.97500000e-009,1.02656257e-003
,,,-6.95000000e-009,1.00000007e-003
,,,-6.92500000e-009,9.60156318e-004
,,,-6.90000000e-009,9.17187565e-004
,,,-6.87500000e-009,8.74218812e-004
,,,-6.85000000e-009,8.35937559e-004
,,,-6.82500000e-009,8.07031307e-004
,,,-6.80000000e-009,7.89843806e-004
,,,-6.77500000e-009,7.87500056e-004
,,,-6.75000000e-009,8.00000057e-004
,,,-6.72500000e-009,8.25000058e-004
,,,-6.70000000e-009,8.60937561e-004
,,,-6.67500000e-009,9.02343814e-004
,,,-6.65000000e-009,9.43750067e-004
,,,-6.62500000e-009,9.79687569e-004
,,,-6.60000000e-009,1.00312507e-003
,,,-6.57500000e-009,1.01093757e-003
,,,-6.55000000e-009,1.00000007e-003
,,,-6.52500000e-009,9.67187568e-004
,,,-6.50000000e-009,9.17968815e-004
,,,-6.47500000e-009,8.57812561e-004
,,,-6.45000000e-009,7.92187556e-004
,,,-6.42500000e-009,7.27343801e-004
,,,-6.40000000e-009,6.70312547e-004
,,,-6.37500000e-009,6.26562544e-004
,,,-6.35000000e-009,6.00000042e-004
,,,-6.32500000e-009,5.93750042e-004
,,,-6.30000000e-009,6.06250043e-004
,,,-6.27500000e-009,6.34375045e-004
,,,-6.25000000e-009,6.71875048e-004
,,,-6.22500000e-009,7.12500050e-004
,,,-6.20000000e-009,7.51562553e-004
,,,-6.17500000e-009,7.82031305e-004
,,,-6.15000000e-009,8.00000057e-004
,,,-6.12500000e-009,8.03125057e-004
,,,-6.10000000e-009,7.91406306e-004
,,,-6.07500000e-009,7.66406304e-004
,,,-6.05000000e-009,7.31250052e-004
,,,-6.02500000e-009,6.92187549e-004
,,,-6.00000000e-009,6.53906296e-004
,,,-5.97500000e-009,6.21875044e-004
,,,-5.95000000e-009,6.00000042e-004
,,,-5.92500000e-009,5.93750042e-004
,,,-5.90000000e-009,6.00781293e-004
,,,-5.87500000e-009,6.21093794e-004
,,,-5.85000000e-009,6.51562546e-004
,,,-5.82500000e-009,6.89062549e-004
,,,-5.80000000e-009,7.28125052e-004
,,,-5.77500000e-009,7.66406304e-004
,,,-5.75000000e-009,8.00000057e-004
,,,-5.72500000e-009,8.25781308e-004
,,,-5.70000000e-009,8.42968810e-004
,,,-5.67500000e-009,8.50781310e-004
,,,-5.65000000e-009,8.50000060e-004
,,,-5.62500000e-009,8.42187560e-004
,,,-5.60000000e-009,8.29687559e-004
,,,-5.57500000e-009,8.14843808e-004
,,,-5.55000000e-009,8.00000057e-004
,,,-5.52500000e-009,7.89843806e-004
,,,-5.50000000e-009,7.84375056e-004
,,,-5.47500000e-009,7.81250055e-004
,,,-5.45000000e-009,7.82812555e-004
,,,-5.42500000e-009,7.85937556e-004
,,,-5.40000000e-009,7.90625056e-004
,,,-5.37500000e-009,7.95312556e-004
,,,-5.35000000e-009,8.00000057e-004
,,,-5.32500000e-009,8.02343807e-004
,,,-5.30000000e-009,8.04687557e-004
,,,-5.27500000e-009,8.04687557e-004
,,,-5.25000000e-009,8.03906307e-004
,,,-5.22500000e-009,8.02343807e-004
,,,-5.20000000e-009,8.01562557e-004
,,,-5.17500000e-009,8.00000057e-004
,,,-5.15000000e-009,8.00000057e-004
,,,-5.12500000e-009,8.01562557e-004
,,,-5.10000000e-009,8.03906307e-004
,,,-5.07500000e-009,8.07031307e-004
,,,-5.05000000e-009,8.08593807e-004
,,,-5.02500000e-009,8.08593807e-004
,,,-5.00000000e-009,8.07031307e-004
,,,-4.97500000e-009,8.03906307e-004
,,,-4.95000000e-009,8.00000057e-004
,,,-4.92500000e-009,7.97656306e-004
,,,-4.90000000e-009,8.00000057e-004
,,,-4.87500000e-009,8.07812557e-004
,,,-4.85000000e-009,8.23437558e-004
,,,-4.82500000e-009,8.50000060e-004
,,,-4.80000000e-009,8.88281313e-004
,,,-4.77500000e-009,9.38281316e-004
,,,-4.75000000e-009,1.00000007e-003
,,,-4.72500000e-009,1.06640633e-003
,,,-4.70000000e-009,1.13750008e-003
,,,-4.67500000e-009,1.20781259e-003
,,,-4.65000000e-009,1.27265634e-003
,,,-4.62500000e-009,1.32890634e-003
,,,-4.60000000e-009,1.37031260e-003
,,,-4.57500000e-009,1.39453135e-003
,,,-4.55000000e-009,1.40000010e-003
,,,-4.52500000e-009,1.37890635e-003
,,,-4.50000000e-009,1.34140634e-003
,,,-4.47500000e-009,1.28906259e-003
,,,-4.45000000e-009,1.22734384e-003
,,,-4.42500000e-009,1.16250008e-003
,,,-4.40000000e-009,1.09921883e-003
,,,-4.37500000e-009,1.04296882e-003
,,,-4.35000000e-009,1.00000007e-003
,,,-4.32500000e-009,9.70312569e-004
,,,-4.30000000e-009,9.59375068e-004
,,,-4.27500000e-009,9.66406318e-004
,,,-4.25000000e-009,9.91406320e-004
,,,-4.22500000e-009,1.03125007e-003
,,,-4.20000000e-009,1.08281258e-003
,,,-4.17500000e-009,1.14062508e-003
,,,-4.15000000e-009,1.20000008e-003
,,,-4.12500000e-009,1.25078134e-003
,,,-4.10000000e-009,1.29218759e-003
,,,-4.07500000e-009,1.32031259e-003
,,,-4.05000000e-009,1.33281259e-003
,,,-4.02500000e-009,1.32734384e-003
,,,-4.00000000e-009,1.30312509e-003
,,,-3.97500000e-009,1.26015634e-003
,,,-3.95000000e-009,1.20000008e-003
,,,-3.92500000e-009,1.12031258e-003
,,,-3.90000000e-009,1.03203132e-003
,,,-3.87500000e-009,9.39843817e-004
,,,-3.85000000e-009,8.49218810e-004
,,,-3.82500000e-009,7.65625054e-004
,,,-3.80000000e-009,6.93750049e-004
,,,-3.77500000e-009,6.37500045e-004
,,,-3.75000000e-009,6.00000042e-004
,,,-3.72500000e-009,5.82812541e-004
,,,-3.70000000e-009,5.85156291e-004
,,,-3.67500000e-009,6.03906293e-004
,,,-3.65000000e-009,6.34375045e-004
,,,-3.62500000e-009,6.74218798e-004
,,,-3.60000000e-009,7.17968801e-004
,,,-3.57500000e-009,7.60937554e-004
,,,-3.55000000e-009,8.00000057e-004
,,,-3.52500000e-009,8.32812559e-004
,,,-3.50000000e-009,8.55468811e-004
,,,-3.47500000e-009,8.66406311e-004
,,,-3.45000000e-009,8.67187561e-004
,,,-3.42500000e-009,8.58593811e-004
,,,-3.40000000e-009,8.42968810e-004
,,,-3.37500000e-009,8.22656308e-004
,,,-3.35000000e-009,8.00000057e-004
,,,-3.32500000e-009,7.77343805e-004
,,,-3.30000000e-009,7.54687553e-004
,,,-3.27500000e-009,7.32812552e-004
,,,-3.25000000e-009,7.10156300e-004
,,,-3.22500000e-009,6.85937549e-004
,,,-3.20000000e-009,6.60156297e-004
,,,-3.17500000e-009,6.31250045e-004
,,,-3.15000000e-009,6.00000042e-004
,,,-3.12500000e-009,5.66406290e-004
,,,-3.10000000e-009,5.32031288e-004
,,,-3.07500000e-009,4.96875035e-004
,,,-3.05000000e-009,4.64062533e-004
,,,-3.02500000e-009,4.35937531e-004
,,,-3.00000000e-009,4.14062529e-004
,,,-2.97500000e-009,4.01562528e-004
,,,-2.95000000e-009,4.00000028e-004
,,,-2.92500000e-009,4.11718779e-004
,,,-2.90000000e-009,4.32031281e-004
,,,-2.87500000e-009,4.58593782e-004
,,,-2.85000000e-009,4.89062535e-004
,,,-2.82500000e-009,5.19531287e-004
,,,-2.80000000e-009,5.50000039e-004
,,,-2.77500000e-009,5.76562541e-004
,,,-2.75000000e-009,6.00000042e-004
,,,-2.72500000e-009,6.17968794e-004
,,,-2.70000000e-009,6.32812545e-004
,,,-2.67500000e-009,6.46875046e-004
,,,-2.65000000e-009,6.63281297e-004
,,,-2.62500000e-009,6.85156298e-004
,,,-2.60000000e-009,7.14843801e-004
,,,-2.57500000e-009,7.53125053e-004
,,,-2.55000000e-009,8.00000057e-004
,,,-2.52500000e-009,8.51562560e-004
,,,-2.50000000e-009,9.06250064e-004
,,,-2.47500000e-009,9.57812568e-004
,,,-2.45000000e-009,1.00156257e-003
,,,-2.42500000e-009,1.03203132e-003
,,,-2.40000000e-009,1.04375007e-003
,,,-2.37500000e-009,1.03359382e-003
,,,-2.35000000e-009,1.00000007e-003
,,,-2.32500000e-009,9.39843817e-004
,,,-2.30000000e-009,8.60937561e-004
,,,-2.27500000e-009,7.71093805e-004
,,,-2.25000000e-009,6.75781298e-004
,,,-2.22500000e-009,5.83593791e-004
,,,-2.20000000e-009,5.03125036e-004
,,,-2.17500000e-009,4.40625031e-004
,,,-2.15000000e-009,4.00000028e-004
,,,-2.12500000e-009,3.84375027e-004
,,,-2.10000000e-009,3.91406278e-004
,,,-2.07500000e-009,4.17968780e-004
,,,-2.05000000e-009,4.57031282e-004
,,,-2.02500000e-009,5.01562536e-004
,,,-2.00000000e-009,5.44531289e-004
,,,-1.97500000e-009,5.78906291e-004
,,,-1.95000000e-009,6.00000042e-004
,,,-1.92500000e-009,6.01562543e-004
,,,-1.90000000e-009,5.86718792e-004
,,,-1.87500000e-009,5.58593790e-004
,,,-1.85000000e-009,5.21093787e-004
,,,-1.82500000e-009,4.80468784e-004
,,,-1.80000000e-009,4.43750031e-004
,,,-1.77500000e-009,4.14843779e-004
,,,-1.75000000e-009,4.00000028e-004
,,,-1.72500000e-009,3.96093778e-004
,,,-1.70000000e-009,4.07812529e-004
,,,-1.67500000e-009,4.32031281e-004
,,,-1.65000000e-009,4.65625033e-004
,,,-1.62500000e-009,5.03906286e-004
,,,-1.60000000e-009,5.42187538e-004
,,,-1.57500000e-009,5.75781291e-004
,,,-1.55000000e-009,6.00000042e-004
,,,-1.52500000e-009,6.02343793e-004
,,,-1.50000000e-009,5.91406292e-004
,,,-1.47500000e-009,5.67187540e-004
,,,-1.45000000e-009,5.33593788e-004
,,,-1.42500000e-009,4.95312535e-004
,,,-1.40000000e-009,4.57812532e-004
,,,-1.37500000e-009,4.25000030e-004
,,,-1.35000000e-009,4.00000028e-004
,,,-1.32500000e-009,3.71093776e-004
,,,-1.30000000e-009,3.50781275e-004
,,,-1.27500000e-009,3.39062524e-004
,,,-1.25000000e-009,3.38281274e-004
,,,-1.22500000e-009,3.45312524e-004
,,,-1.20000000e-009,3.59375025e-004
,,,-1.17500000e-009,3.78906277e-004
,,,-1.15000000e-009,4.00000028e-004
,,,-1.12500000e-009,3.96875028e-004
,,,-1.10000000e-009,3.86718777e-004
,,,-1.07500000e-009,3.68750026e-004
,,,-1.05000000e-009,3.44531274e-004
,,,-1.02500000e-009,3.14062522e-004
,,,-1.00000000e-009,2.78906270e-004
,,,-9.75000000e-010,2.40625017e-004
,,,-9.50000000e-010,2.00000014e-004
,,,-9.25000000e-010,1.30468759e-004
,,,-9.00000000e-010,5.46875039e-005
,,,-8.75000000e-010,-2.34375017e-005
,,,-8.50000000e-010,-1.03125007e-004
,,,-8.25000000e-010,-1.81250013e-004
,,,-8.00000000e-010,-2.57031268e-004
,,,-7.75000000e-010,-3.28906273e-004
,,,-7.50000000e-010,-4.00000028e-004
,,,-7.25000000e-010,-4.93750035e-004
,,,-7.00000000e-010,-5.94531292e-004
,,,-6.75000000e-010,-7.03906300e-004
,,,-6.50000000e-010,-8.21875058e-004
,,,-6.25000000e-010,-9.50000067e-004
,,,-6.00000000e-010,-1.08828133e-003
,,,-5.75000000e-010,-1.23828134e-003
,,,-5.50000000e-010,-1.40000010e-003
,,,-5.25000000e-010,-1.58906261e-003
,,,-5.00000000e-010,-1.79218763e-003
,,,-4.75000000e-010,-2.00312514e-003
,,,-4.50000000e-010,-2.21718766e-003
,,,-4.25000000e-010,-2.42812517e-003
,,,-4.00000000e-010,-2.63203144e-003
,,,-3.75000000e-010,-2.82265645e-003
,,,-3.50000000e-010,-3.00000021e-003
,,,-3.25000000e-010,-3.16406272e-003
,,,-3.00000000e-010,-3.31953148e-003
,,,-2.75000000e-010,-3.46796900e-003
,,,-2.50000000e-010,-3.61250026e-003
,,,-2.25000000e-010,-3.75546902e-003
,,,-2.00000000e-010,-3.89921903e-003
,,,-1.75000000e-010,-4.04687529e-003
,,,-1.50000000e-010,-4.20000030e-003
,,,-1.25000000e-010,-4.35000031e-003
,,,-1.00000000e-010,-4.50859407e-003
,,,-7.50000000e-011,-4.67343783e-003
,,,-5.00000000e-011,-4.83828159e-003
,,,-2.50000000e-011,-4.99843785e-003
,,,0.00000000e+000,-5.14843786e-003
,,,2.50000000e-011,-5.28359412e-003
,,,5.00000000e-011,-5.40000038e-003
,,,7.50000000e-011,-5.47734414e-003
,,,1.00000000e-010,-5.54375039e-003
,,,1.25000000e-010,-5.60546915e-003
,,,1.50000000e-010,-5.66640665e-003
,,,1.75000000e-010,-5.73281291e-003
,,,2.00000000e-010,-5.80859416e-003
,,,2.25000000e-010,-5.89687542e-003
,,,2.50000000e-010,-6.00000042e-003
,,,2.75000000e-010,-6.08828168e-003
,,,3.00000000e-010,-6.19140669e-003
,,,3.25000000e-010,-6.30546920e-003
,,,3.50000000e-010,-6.42421920e-003
,,,3.75000000e-010,-6.54062546e-003
,,,4.00000000e-010,-6.64687547e-003
,,,4.25000000e-010,-6.73515673e-003
,,,4.50000000e-010,-6.80000048e-003
,,,4.75000000e-010,-6.80468798e-003
,,,5.00000000e-010,-6.78984423e-003
,,,5.25000000e-010,-6.75859423e-003
,,,5.50000000e-010,-6.71953173e-003
,,,5.75000000e-010,-6.67812547e-003
,,,6.00000000e-010,-6.64062547e-003
,,,6.25000000e-010,-6.61406297e-003
,,,6.50000000e-010,-6.60000047e-003
,,,6.75000000e-010,-6.56953171e-003
,,,7.00000000e-010,-6.55546921e-003
,,,7.25000000e-010,-6.55625046e-003
,,,7.50000000e-010,-6.56718796e-003
,,,7.75000000e-010,-6.58359422e-003
,,,8.00000000e-010,-6.59843797e-003
,,,8.25000000e-010,-6.60625047e-003
,,,8.50000000e-010,-6.60000047e-003
,,,8.75000000e-010,-6.54531296e-003
,,,9.00000000e-010,-6.47109421e-003
,,,9.25000000e-010,-6.37968795e-003
,,,9.50000000e-010,-6.27343794e-003
,,,9.75000000e-010,-6.15781294e-003
,,,1.00000000e-009,-6.03750043e-003
,,,1.02500000e-009,-5.91640667e-003
,,,1.05000000e-009,-5.80000041e-003
,,,1.07500000e-009,-5.66875040e-003
,,,1.10000000e-009,-5.54531289e-003
,,,1.12500000e-009,-5.43203163e-003
,,,1.15000000e-009,-5.32812538e-003
,,,1.17500000e-009,-5.23515662e-003
,,,1.20000000e-009,-5.15078161e-003
,,,1.22500000e-009,-5.07343786e-003
,,,1.25000000e-009,-5.00000035e-003
,,,1.27500000e-009,-4.91328160e-003
,,,1.30000000e-009,-4.82343784e-003
,,,1.32500000e-009,-4.72890658e-003
,,,1.35000000e-009,-4.62968783e-003
,,,1.37500000e-009,-4.52578157e-003
,,,1.40000000e-009,-4.41953156e-003
,,,1.42500000e-009,-4.31093781e-003
,,,1.45000000e-009,-4.20000030e-003
,,,1.47500000e-009,-4.08203154e-003
,,,1.50000000e-009,-3.95937528e-003
,,,1.52500000e-009,-3.83281277e-003
,,,1.55000000e-009,-3.70390651e-003
,,,1.57500000e-009,-3.57421900e-003
,,,1.60000000e-009,-3.44609399e-003
,,,1.62500000e-009,-3.32031274e-003
,,,1.65000000e-009,-3.20000023e-003
,,,1.67500000e-009,-3.08671897e-003
,,,1.70000000e-009,-2.97500021e-003
,,,1.72500000e-009,-2.86640645e-003
,,,1.75000000e-009,-2.76171895e-003
,,,1.77500000e-009,-2.66171894e-003
,,,1.80000000e-009,-2.56718768e-003
,,,1.82500000e-009,-2.48046893e-003
,,,1.85000000e-009,-2.40000017e-003
,,,1.87500000e-009,-2.33359392e-003
,,,1.90000000e-009,-2.26718766e-003
,,,1.92500000e-009,-2.19765641e-003
,,,1.95000000e-009,-2.12500015e-003
,,,1.97500000e-009,-2.04843764e-003
,,,2.00000000e-009,-1.96796889e-003
,,,2.02500000e-009,-1.88515638e-003
,,,2.05000000e-009,-1.80000013e-003
,,,2.07500000e-009,-1.72343762e-003
,,,2.10000000e-009,-1.64296887e-003
,,,2.12500000e-009,-1.56015636e-003
,,,2.15000000e-009,-1.47656260e-003
,,,2.17500000e-009,-1.39687510e-003
,,,2.20000000e-009,-1.32187509e-003
,,,2.22500000e-009,-1.25546884e-003
,,,2.25000000e-009,-1.20000008e-003
,,,2.27500000e-009,-1.16640633e-003
,,,2.30000000e-009,-1.13828133e-003
,,,2.32500000e-009,-1.11406258e-003
,,,2.35000000e-009,-1.09218758e-003
,,,2.37500000e-009,-1.07109383e-003
,,,2.40000000e-009,-1.04843757e-003
,,,2.42500000e-009,-1.02500007e-003
,,,2.45000000e-009,-1.00000007e-003
,,,2.47500000e-009,-9.82031320e-004
,,,2.50000000e-009,-9.59375068e-004
,,,2.52500000e-009,-9.31250066e-004
,,,2.55000000e-009,-9.00781314e-004
,,,2.57500000e-009,-8.69531312e-004
,,,2.60000000e-009,-8.40625059e-004
,,,2.62500000e-009,-8.17187558e-004
,,,2.65000000e-009,-8.00000057e-004
,,,2.67500000e-009,-7.97656306e-004
,,,2.70000000e-009,-8.00000057e-004
,,,2.72500000e-009,-8.03906307e-004
,,,2.75000000e-009,-8.09375057e-004
,,,2.77500000e-009,-8.12500058e-004
,,,2.80000000e-009,-8.13281308e-004
,,,2.82500000e-009,-8.09375057e-004
,,,2.85000000e-009,-8.00000057e-004
,,,2.87500000e-009,-7.87500056e-004
,,,2.90000000e-009,-7.67968804e-004
,,,2.92500000e-009,-7.41406302e-004
,,,2.95000000e-009,-7.10937550e-004
,,,2.97500000e-009,-6.78906298e-004
,,,3.00000000e-009,-6.47656296e-004
,,,3.02500000e-009,-6.21093794e-004
,,,3.05000000e-009,-6.00000042e-004
,,,3.07500000e-009,-5.88281292e-004
,,,3.10000000e-009,-5.82031291e-004
,,,3.12500000e-009,-5.81250041e-004
,,,3.15000000e-009,-5.83593791e-004
,,,3.17500000e-009,-5.87500042e-004
,,,3.20000000e-009,-5.92968792e-004
,,,3.22500000e-009,-5.96875042e-004
,,,3.25000000e-009,-6.00000042e-004
,,,3.27500000e-009,-6.00781293e-004
,,,3.30000000e-009,-5.98437542e-004
,,,3.32500000e-009,-5.95312542e-004
,,,3.35000000e-009,-5.90625042e-004
,,,3.37500000e-009,-5.88281292e-004
,,,3.40000000e-009,-5.88281292e-004
,,,3.42500000e-009,-5.91406292e-004
,,,3.45000000e-009,-6.00000042e-004
,,,3.47500000e-009,-6.11718793e-004
,,,3.50000000e-009,-6.25000044e-004
,,,3.52500000e-009,-6.37500045e-004
,,,3.55000000e-009,-6.46093796e-004
,,,3.57500000e-009,-6.49218796e-004
,,,3.60000000e-009,-6.43750046e-004
,,,3.62500000e-009,-6.27343794e-004
,,,3.65000000e-009,-6.00000042e-004
,,,3.67500000e-009,-5.60937540e-004
,,,3.70000000e-009,-5.12500036e-004
,,,3.72500000e-009,-4.57812532e-004
,,,3.75000000e-009,-3.98437528e-004
,,,3.77500000e-009,-3.39843774e-004
,,,3.80000000e-009,-2.85156270e-004
,,,3.82500000e-009,-2.37500017e-004
,,,3.85000000e-009,-2.00000014e-004
,,,3.87500000e-009,-1.75781262e-004
,,,3.90000000e-009,-1.63281262e-004
,,,3.92500000e-009,-1.60156261e-004
,,,3.95000000e-009,-1.64062512e-004
,,,3.97500000e-009,-1.72656262e-004
,,,4.00000000e-009,-1.82812513e-004
,,,4.02500000e-009,-1.92187514e-004
,,,4.05000000e-009,-2.00000014e-004
,,,4.07500000e-009,-2.05468765e-004
,,,4.10000000e-009,-2.07031265e-004
,,,4.12500000e-009,-2.04687514e-004
,,,4.15000000e-009,-2.00000014e-004
,,,4.17500000e-009,-1.95312514e-004
,,,4.20000000e-009,-1.92187514e-004
,,,4.22500000e-009,-1.92968764e-004
,,,4.25000000e-009,-2.00000014e-004
,,,4.27500000e-009,-2.14843765e-004
,,,4.30000000e-009,-2.35937517e-004
,,,4.32500000e-009,-2.61718769e-004
,,,4.35000000e-009,-2.91406271e-004
,,,4.37500000e-009,-3.21093773e-004
,,,4.40000000e-009,-3.50781275e-004
,,,4.42500000e-009,-3.77343777e-004
,,,4.45000000e-009,-4.00000028e-004
,,,4.47500000e-009,-4.16406279e-004
,,,4.50000000e-009,-4.27343780e-004
,,,4.52500000e-009,-4.31250031e-004
,,,4.55000000e-009,-4.30468780e-004
,,,4.57500000e-009,-4.25000030e-004
,,,4.60000000e-009,-4.17187530e-004
,,,4.62500000e-009,-4.07812529e-004
,,,4.65000000e-009,-4.00000028e-004
,,,4.67500000e-009,-3.92187528e-004
,,,4.70000000e-009,-3.87500027e-004
,,,4.72500000e-009,-3.84375027e-004
,,,4.75000000e-009,-3.84375027e-004
,,,4.77500000e-009,-3.85937527e-004
,,,4.80000000e-009,-3.89843778e-004
,,,4.82500000e-009,-3.94531278e-004
,,,4.85000000e-009,-4.00000028e-004
,,,4.87500000e-009,-4.03125029e-004
,,,4.90000000e-009,-4.05468779e-004
,,,4.92500000e-009,-4.07812529e-004
,,,4.95000000e-009,-4.07812529e-004
,,,4.97500000e-009,-4.07812529e-004
,,,5.00000000e-009,-4.05468779e-004
,,,5.02500000e-009,-4.03125029e-004
,,,5.05000000e-009,-4.00000028e-004
,,,5.07500000e-009,-3.95312528e-004
,,,5.10000000e-009,-3.91406278e-004
,,,5.12500000e-009,-3.89062528e-004
,,,5.15000000e-009,-3.87500027e-004
,,,5.17500000e-009,-3.88281277e-004
,,,5.20000000e-009,-3.90625028e-004
,,,5.22500000e-009,-3.94531278e-004
,,,5.25000000e-009,-4.00000028e-004
,,,5.27500000e-009,-4.06250029e-004
,,,5.30000000e-009,-4.12500029e-004
,,,5.32500000e-009,-4.18750030e-004
,,,5.35000000e-009,-4.22656280e-004
,,,5.37500000e-009,-4.23437530e-004
,,,5.40000000e-009,-4.20312530e-004
,,,5.42500000e-009,-4.12500029e-004
,,,5.45000000e-009,-4.00000028e-004
,,,5.47500000e-009,-3.82812527e-004
,,,5.50000000e-009,-3.62500026e-004
,,,5.52500000e-009,-3.38281274e-004
,,,5.55000000e-009,-3.10937522e-004
,,,5.57500000e-009,-2.82031270e-004
,,,5.60000000e-009,-2.53125018e-004
,,,5.62500000e-009,-2.25000016e-004
,,,5.65000000e-009,-2.00000014e-004
,,,5.67500000e-009,-1.82031263e-004
,,,5.70000000e-009,-1.68750012e-004
,,,5.72500000e-009,-1.61718761e-004
,,,5.75000000e-009,-1.59375011e-004
,,,5.77500000e-009,-1.63281262e-004
,,,5.80000000e-009,-1.71093762e-004
,,,5.82500000e-009,-1.83593763e-004
,,,5.85000000e-009,-2.00000014e-004
,,,5.87500000e-009,-2.21093766e-004
,,,5.90000000e-009,-2.45312517e-004
,,,5.92500000e-009,-2.70312519e-004
,,,5.95000000e-009,-2.96093771e-004
,,,5.97500000e-009,-3.22656273e-004
,,,6.00000000e-009,-3.48437525e-004
