RawData/SinglePhotoelectron/R7_2pt2B_5mV/wave028_Ch2.csv

"Record Length",1000,"Points",-7.72500000e-009,2.03125014e-005
"Sample Interval",2.50000000e-011,s,-7.70000000e-009,0.00000000e+000
"Trigger Point",309,"Samples",-7.67500000e-009,-2.57812518e-005
"Trigger Time",1.55740541e-011,s,-7.65000000e-009,-5.70312540e-005
"",,,-7.62500000e-009,-9.06250064e-005
"Horizontal Offset",-7.72500000e-009,s,-7.60000000e-009,-1.23437509e-004
,,,-7.57500000e-009,-1.53125011e-004
,,,-7.55000000e-009,-1.77343763e-004
,,,-7.52500000e-009,-1.93750014e-004
,,,-7.50000000e-009,-2.00000014e-004
,,,-7.47500000e-009,-1.93750014e-004
,,,-7.45000000e-009,-1.77343763e-004
,,,-7.42500000e-009,-1.53125011e-004
,,,-7.40000000e-009,-1.23437509e-004
,,,-7.37500000e-009,-9.06250064e-005
,,,-7.35000000e-009,-5.70312540e-005
,,,-7.32500000e-009,-2.57812518e-005
,,,-7.30000000e-009,0.00000000e+000
,,,-7.27500000e-009,1.87500013e-005
,,,-7.25000000e-009,2.96875021e-005
,,,-7.22500000e-009,3.35937524e-005
,,,-7.20000000e-009,3.20312523e-005
,,,-7.17500000e-009,2.57812518e-005
,,,-7.15000000e-009,1.71875012e-005
,,,-7.12500000e-009,7.81250055e-006
,,,-7.10000000e-009,0.00000000e+000
,,,-7.07500000e-009,-5.46875039e-006
,,,-7.05000000e-009,-9.37500066e-006
,,,-7.02500000e-009,-9.37500066e-006
,,,-7.00000000e-009,-8.59375061e-006
,,,-6.97500000e-009,-5.46875039e-006
,,,-6.95000000e-009,-2.34375017e-006
,,,-6.92500000e-009,-7.81250055e-007
,,,-6.90000000e-009,0.00000000e+000
,,,-6.87500000e-009,-1.56250011e-006
,,,-6.85000000e-009,-4.68750033e-006
,,,-6.82500000e-009,-8.59375061e-006
,,,-6.80000000e-009,-1.17187508e-005
,,,-6.77500000e-009,-1.32812509e-005
,,,-6.75000000e-009,-1.17187508e-005
,,,-6.72500000e-009,-7.81250055e-006
,,,-6.70000000e-009,0.00000000e+000
,,,-6.67500000e-009,1.01562507e-005
,,,-6.65000000e-009,2.18750015e-005
,,,-6.62500000e-009,3.20312523e-005
,,,-6.60000000e-009,3.98437528e-005
,,,-6.57500000e-009,4.14062529e-005
,,,-6.55000000e-009,3.59375025e-005
,,,-6.52500000e-009,2.26562516e-005
,,,-6.50000000e-009,0.00000000e+000
,,,-6.47500000e-009,-3.04687522e-005
,,,-6.45000000e-009,-6.64062547e-005
,,,-6.42500000e-009,-1.03906257e-004
,,,-6.40000000e-009,-1.39843760e-004
,,,-6.37500000e-009,-1.70312512e-004
,,,-6.35000000e-009,-1.91406264e-004
,,,-6.32500000e-009,-2.01562514e-004
,,,-6.30000000e-009,-2.00000014e-004
,,,-6.27500000e-009,-1.83593763e-004
,,,-6.25000000e-009,-1.57031261e-004
,,,-6.22500000e-009,-1.23437509e-004
,,,-6.20000000e-009,-8.75000062e-005
,,,-6.17500000e-009,-5.31250038e-005
,,,-6.15000000e-009,-2.50000018e-005
,,,-6.12500000e-009,-6.25000044e-006
,,,-6.10000000e-009,0.00000000e+000
,,,-6.07500000e-009,-6.25000044e-006
,,,-6.05000000e-009,-2.50000018e-005
,,,-6.02500000e-009,-5.31250038e-005
,,,-6.00000000e-009,-8.75000062e-005
,,,-5.97500000e-009,-1.23437509e-004
,,,-5.95000000e-009,-1.57031261e-004
,,,-5.92500000e-009,-1.83593763e-004
,,,-5.90000000e-009,-2.00000014e-004
,,,-5.87500000e-009,-2.01562514e-004
,,,-5.85000000e-009,-1.91406264e-004
,,,-5.82500000e-009,-1.70312512e-004
,,,-5.80000000e-009,-1.39843760e-004
,,,-5.77500000e-009,-1.03906257e-004
,,,-5.75000000e-009,-6.64062547e-005
,,,-5.72500000e-009,-3.04687522e-005
,,,-5.70000000e-009,0.00000000e+000
,,,-5.67500000e-009,2.26562516e-005
,,,-5.65000000e-009,3.59375025e-005
,,,-5.62500000e-009,4.14062529e-005
,,,-5.60000000e-009,3.98437528e-005
,,,-5.57500000e-009,3.20312523e-005
,,,-5.55000000e-009,2.18750015e-005
,,,-5.52500000e-009,1.01562507e-005
,,,-5.50000000e-009,0.00000000e+000
,,,-5.47500000e-009,-8.59375061e-006
,,,-5.45000000e-009,-1.40625010e-005
,,,-5.42500000e-009,-1.64062512e-005
,,,-5.40000000e-009,-1.48437511e-005
,,,-5.37500000e-009,-1.17187508e-005
,,,-5.35000000e-009,-7.81250055e-006
,,,-5.32500000e-009,-3.12500022e-006
,,,-5.30000000e-009,0.00000000e+000
,,,-5.27500000e-009,0.00000000e+000
,,,-5.25000000e-009,0.00000000e+000
,,,-5.22500000e-009,-1.56250011e-006
,,,-5.20000000e-009,-3.90625028e-006
,,,-5.17500000e-009,-5.46875039e-006
,,,-5.15000000e-009,-5.46875039e-006
,,,-5.12500000e-009,-3.90625028e-006
,,,-5.10000000e-009,0.00000000e+000
,,,-5.07500000e-009,5.46875039e-006
,,,-5.05000000e-009,1.25000009e-005
,,,-5.02500000e-009,1.87500013e-005
,,,-5.00000000e-009,2.34375017e-005
,,,-4.97500000e-009,2.50000018e-005
,,,-4.95000000e-009,2.26562516e-005
,,,-4.92500000e-009,1.40625010e-005
,,,-4.90000000e-009,0.00000000e+000
,,,-4.87500000e-009,-1.95312514e-005
,,,-4.85000000e-009,-4.37500031e-005
,,,-4.82500000e-009,-7.10937550e-005
,,,-4.80000000e-009,-1.00781257e-004
,,,-4.77500000e-009,-1.29687509e-004
,,,-4.75000000e-009,-1.56250011e-004
,,,-4.72500000e-009,-1.80468763e-004
,,,-4.70000000e-009,-2.00000014e-004
,,,-4.67500000e-009,-2.11718765e-004
,,,-4.65000000e-009,-2.18750015e-004
,,,-4.62500000e-009,-2.21093766e-004
,,,-4.60000000e-009,-2.18750015e-004
,,,-4.57500000e-009,-2.14843765e-004
,,,-4.55000000e-009,-2.09375015e-004
,,,-4.52500000e-009,-2.03906264e-004
,,,-4.50000000e-009,-2.00000014e-004
,,,-4.47500000e-009,-1.94531264e-004
,,,-4.45000000e-009,-1.91406264e-004
,,,-4.42500000e-009,-1.90625013e-004
,,,-4.40000000e-009,-1.91406264e-004
,,,-4.37500000e-009,-1.94531264e-004
,,,-4.35000000e-009,-1.97656264e-004
,,,-4.32500000e-009,-1.99218764e-004
,,,-4.30000000e-009,-2.00000014e-004
,,,-4.27500000e-009,-1.94531264e-004
,,,-4.25000000e-009,-1.84375013e-004
,,,-4.22500000e-009,-1.68750012e-004
,,,-4.20000000e-009,-1.47656260e-004
,,,-4.17500000e-009,-1.18750008e-004
,,,-4.15000000e-009,-8.43750060e-005
,,,-4.12500000e-009,-4.45312532e-005
,,,-4.10000000e-009,0.00000000e+000
,,,-4.07500000e-009,4.68750033e-005
,,,-4.05000000e-009,9.29687566e-005
,,,-4.02500000e-009,1.35156260e-004
,,,-4.00000000e-009,1.70312512e-004
,,,-3.97500000e-009,1.96093764e-004
,,,-3.95000000e-009,2.10156265e-004
,,,-3.92500000e-009,2.10937515e-004
,,,-3.90000000e-009,2.00000014e-004
,,,-3.87500000e-009,1.75000012e-004
,,,-3.85000000e-009,1.42187510e-004
,,,-3.82500000e-009,1.04687507e-004
,,,-3.80000000e-009,6.79687548e-005
,,,-3.77500000e-009,3.51562525e-005
,,,-3.75000000e-009,1.09375008e-005
,,,-3.72500000e-009,-7.81250055e-007
,,,-3.70000000e-009,0.00000000e+000
,,,-3.67500000e-009,1.32812509e-005
,,,-3.65000000e-009,3.82812527e-005
,,,-3.62500000e-009,7.10937550e-005
,,,-3.60000000e-009,1.07812508e-004
,,,-3.57500000e-009,1.43750010e-004
,,,-3.55000000e-009,1.73437512e-004
,,,-3.52500000e-009,1.92968764e-004
,,,-3.50000000e-009,2.00000014e-004
,,,-3.47500000e-009,1.89843763e-004
,,,-3.45000000e-009,1.67968762e-004
,,,-3.42500000e-009,1.36718760e-004
,,,-3.40000000e-009,1.00781257e-004
,,,-3.37500000e-009,6.40625045e-005
,,,-3.35000000e-009,3.28125023e-005
,,,-3.32500000e-009,1.01562507e-005
,,,-3.30000000e-009,0.00000000e+000
,,,-3.27500000e-009,2.34375017e-006
,,,-3.25000000e-009,1.79687513e-005
,,,-3.22500000e-009,4.53125032e-005
,,,-3.20000000e-009,7.96875056e-005
,,,-3.17500000e-009,1.17187508e-004
,,,-3.15000000e-009,1.52343761e-004
,,,-3.12500000e-009,1.81250013e-004
,,,-3.10000000e-009,2.00000014e-004
,,,-3.07500000e-009,2.03906264e-004
,,,-3.05000000e-009,1.94531264e-004
,,,-3.02500000e-009,1.73437512e-004
,,,-3.00000000e-009,1.42968760e-004
,,,-2.97500000e-009,1.07031258e-004
,,,-2.95000000e-009,6.87500049e-005
,,,-2.92500000e-009,3.12500022e-005
,,,-2.90000000e-009,0.00000000e+000
,,,-2.87500000e-009,-2.42187517e-005
,,,-2.85000000e-009,-3.98437528e-005
,,,-2.82500000e-009,-4.76562534e-005
,,,-2.80000000e-009,-4.68750033e-005
,,,-2.77500000e-009,-3.90625028e-005
,,,-2.75000000e-009,-2.73437519e-005
,,,-2.72500000e-009,-1.40625010e-005
,,,-2.70000000e-009,0.00000000e+000
,,,-2.67500000e-009,1.17187508e-005
,,,-2.65000000e-009,2.10937515e-005
,,,-2.62500000e-009,2.57812518e-005
,,,-2.60000000e-009,2.65625019e-005
,,,-2.57500000e-009,2.42187517e-005
,,,-2.55000000e-009,1.79687513e-005
,,,-2.52500000e-009,9.37500066e-006
,,,-2.50000000e-009,0.00000000e+000
,,,-2.47500000e-009,-8.59375061e-006
,,,-2.45000000e-009,-1.56250011e-005
,,,-2.42500000e-009,-2.10937515e-005
,,,-2.40000000e-009,-2.34375017e-005
,,,-2.37500000e-009,-2.26562516e-005
,,,-2.35000000e-009,-1.79687513e-005
,,,-2.32500000e-009,-1.01562507e-005
,,,-2.30000000e-009,0.00000000e+000
,,,-2.27500000e-009,1.09375008e-005
,,,-2.25000000e-009,2.10937515e-005
,,,-2.22500000e-009,3.04687522e-005
,,,-2.20000000e-009,3.51562525e-005
,,,-2.17500000e-009,3.59375025e-005
,,,-2.15000000e-009,3.04687522e-005
,,,-2.12500000e-009,1.87500013e-005
,,,-2.10000000e-009,0.00000000e+000
,,,-2.07500000e-009,-2.81250020e-005
,,,-2.05000000e-009,-6.25000044e-005
,,,-2.02500000e-009,-9.76562569e-005
,,,-2.00000000e-009,-1.32812509e-004
,,,-1.97500000e-009,-1.63281262e-004
,,,-1.95000000e-009,-1.85937513e-004
,,,-1.92500000e-009,-1.98437514e-004
,,,-1.90000000e-009,-2.00000014e-004
,,,-1.87500000e-009,-1.96093764e-004
,,,-1.85000000e-009,-1.82031263e-004
,,,-1.82500000e-009,-1.60156261e-004
,,,-1.80000000e-009,-1.32031259e-004
,,,-1.77500000e-009,-9.92187570e-005
,,,-1.75000000e-009,-6.48437546e-005
,,,-1.72500000e-009,-3.04687522e-005
,,,-1.70000000e-009,0.00000000e+000
,,,-1.67500000e-009,1.25000009e-005
,,,-1.65000000e-009,1.71875012e-005
,,,-1.62500000e-009,1.64062512e-005
,,,-1.60000000e-009,1.09375008e-005
,,,-1.57500000e-009,4.68750033e-006
,,,-1.55000000e-009,0.00000000e+000
,,,-1.52500000e-009,-7.81250055e-007
,,,-1.50000000e-009,0.00000000e+000
,,,-1.47500000e-009,-1.40625010e-005
,,,-1.45000000e-009,-3.04687522e-005
,,,-1.42500000e-009,-4.76562534e-005
,,,-1.40000000e-009,-6.79687548e-005
,,,-1.37500000e-009,-9.14062565e-005
,,,-1.35000000e-009,-1.19531258e-004
,,,-1.32500000e-009,-1.55468761e-004
,,,-1.30000000e-009,-2.00000014e-004
,,,-1.27500000e-009,-2.73437519e-004
,,,-1.25000000e-009,-3.59375025e-004
,,,-1.22500000e-009,-4.57031282e-004
,,,-1.20000000e-009,-5.61718790e-004
,,,-1.17500000e-009,-6.71875048e-004
,,,-1.15000000e-009,-7.82812555e-004
,,,-1.12500000e-009,-8.92968813e-004
,,,-1.10000000e-009,-1.00000007e-003
,,,-1.07500000e-009,-1.11484383e-003
,,,-1.05000000e-009,-1.22734384e-003
,,,-1.02500000e-009,-1.33515634e-003
,,,-1.00000000e-009,-1.43750010e-003
,,,-9.75000000e-010,-1.53437511e-003
,,,-9.50000000e-010,-1.62578137e-003
,,,-9.25000000e-010,-1.71406262e-003
,,,-9.00000000e-010,-1.80000013e-003
,,,-8.75000000e-010,-1.89609388e-003
,,,-8.50000000e-010,-1.99921889e-003
,,,-8.25000000e-010,-2.11015640e-003
,,,-8.00000000e-010,-2.23046891e-003
,,,-7.75000000e-010,-2.36015642e-003
,,,-7.50000000e-010,-2.49843768e-003
,,,-7.25000000e-010,-2.64531269e-003
,,,-7.00000000e-010,-2.80000020e-003
,,,-6.75000000e-010,-2.95781271e-003
,,,-6.50000000e-010,-3.12031272e-003
,,,-6.25000000e-010,-3.28593773e-003
,,,-6.00000000e-010,-3.44921899e-003
,,,-5.75000000e-010,-3.60546901e-003
,,,-5.50000000e-010,-3.75234402e-003
,,,-5.25000000e-010,-3.88437527e-003
,,,-5.00000000e-010,-4.00000028e-003
,,,-4.75000000e-010,-4.08437529e-003
,,,-4.50000000e-010,-4.15546904e-003
,,,-4.25000000e-010,-4.21484405e-003
,,,-4.00000000e-010,-4.26328155e-003
,,,-3.75000000e-010,-4.30390655e-003
,,,-3.50000000e-010,-4.33828156e-003
,,,-3.25000000e-010,-4.36953156e-003
,,,-3.00000000e-010,-4.40000031e-003
,,,-2.75000000e-010,-4.41484406e-003
,,,-2.50000000e-010,-4.43906281e-003
,,,-2.25000000e-010,-4.47421907e-003
,,,-2.00000000e-010,-4.52031282e-003
,,,-1.75000000e-010,-4.57812532e-003
,,,-1.50000000e-010,-4.64531283e-003
,,,-1.25000000e-010,-4.72031283e-003
,,,-1.00000000e-010,-4.80000034e-003
,,,-7.50000000e-011,-4.85937534e-003
,,,-5.00000000e-011,-4.92031285e-003
,,,-2.50000000e-011,-4.98046910e-003
,,,0.00000000e+000,-5.03828161e-003
,,,2.50000000e-011,-5.09140661e-003
,,,5.00000000e-011,-5.13750036e-003
,,,7.50000000e-011,-5.17343787e-003
,,,1.00000000e-010,-5.20000037e-003
,,,1.25000000e-010,-5.18984412e-003
,,,1.50000000e-010,-5.17187537e-003
,,,1.75000000e-010,-5.14687536e-003
,,,2.00000000e-010,-5.11796911e-003
,,,2.25000000e-010,-5.08750036e-003
,,,2.50000000e-010,-5.05625036e-003
,,,2.75000000e-010,-5.02656286e-003
,,,3.00000000e-010,-5.00000035e-003
,,,3.25000000e-010,-4.95625035e-003
,,,3.50000000e-010,-4.91718785e-003
,,,3.75000000e-010,-4.88515660e-003
,,,4.00000000e-010,-4.85859409e-003
,,,4.25000000e-010,-4.83906284e-003
,,,4.50000000e-010,-4.82343784e-003
,,,4.75000000e-010,-4.81171909e-003
,,,5.00000000e-010,-4.80000034e-003
,,,5.25000000e-010,-4.76953159e-003
,,,5.50000000e-010,-4.73437534e-003
,,,5.75000000e-010,-4.69375033e-003
,,,6.00000000e-010,-4.64687533e-003
,,,6.25000000e-010,-4.59453158e-003
,,,6.50000000e-010,-4.53593782e-003
,,,6.75000000e-010,-4.47109407e-003
,,,7.00000000e-010,-4.40000031e-003
,,,7.25000000e-010,-4.30937531e-003
,,,7.50000000e-010,-4.21250030e-003
,,,7.75000000e-010,-4.11093779e-003
,,,8.00000000e-010,-4.00625028e-003
,,,8.25000000e-010,-3.90156278e-003
,,,8.50000000e-010,-3.79765652e-003
,,,8.75000000e-010,-3.69609401e-003
,,,9.00000000e-010,-3.60000025e-003
,,,9.25000000e-010,-3.50390650e-003
,,,9.50000000e-010,-3.41250024e-003
,,,9.75000000e-010,-3.32656274e-003
,,,1.00000000e-009,-3.24765648e-003
,,,1.02500000e-009,-3.17500022e-003
,,,1.05000000e-009,-3.10937522e-003
,,,1.07500000e-009,-3.05156272e-003
,,,1.10000000e-009,-3.00000021e-003
,,,1.12500000e-009,-2.95312521e-003
,,,1.15000000e-009,-2.90703146e-003
,,,1.17500000e-009,-2.86015645e-003
,,,1.20000000e-009,-2.81171895e-003
,,,1.22500000e-009,-2.76171895e-003
,,,1.25000000e-009,-2.71015644e-003
,,,1.27500000e-009,-2.65625019e-003
,,,1.30000000e-009,-2.60000018e-003
,,,1.32500000e-009,-2.54296893e-003
,,,1.35000000e-009,-2.47968768e-003
,,,1.37500000e-009,-2.41015642e-003
,,,1.40000000e-009,-2.33437517e-003
,,,1.42500000e-009,-2.25312516e-003
,,,1.45000000e-009,-2.16953140e-003
,,,1.47500000e-009,-2.08437515e-003
,,,1.50000000e-009,-2.00000014e-003
,,,1.52500000e-009,-1.92421889e-003
,,,1.55000000e-009,-1.85078138e-003
,,,1.57500000e-009,-1.78281263e-003
,,,1.60000000e-009,-1.72187512e-003
,,,1.62500000e-009,-1.67187512e-003
,,,1.65000000e-009,-1.63437512e-003
,,,1.67500000e-009,-1.61015636e-003
,,,1.70000000e-009,-1.60000011e-003
,,,1.72500000e-009,-1.60703136e-003
,,,1.75000000e-009,-1.61875011e-003
,,,1.77500000e-009,-1.63203137e-003
,,,1.80000000e-009,-1.64218762e-003
,,,1.82500000e-009,-1.64687512e-003
,,,1.85000000e-009,-1.64218762e-003
,,,1.87500000e-009,-1.62656262e-003
,,,1.90000000e-009,-1.60000011e-003
,,,1.92500000e-009,-1.56250011e-003
,,,1.95000000e-009,-1.51250011e-003
,,,1.97500000e-009,-1.45390635e-003
,,,2.00000000e-009,-1.39140635e-003
,,,2.02500000e-009,-1.32968759e-003
,,,2.05000000e-009,-1.27421884e-003
,,,2.07500000e-009,-1.23046884e-003
,,,2.10000000e-009,-1.20000008e-003
,,,2.12500000e-009,-1.18671883e-003
,,,2.15000000e-009,-1.18515633e-003
,,,2.17500000e-009,-1.19062508e-003
,,,2.20000000e-009,-1.20078133e-003
,,,2.22500000e-009,-1.21093759e-003
,,,2.25000000e-009,-1.21640634e-003
,,,2.27500000e-009,-1.21328134e-003
,,,2.30000000e-009,-1.20000008e-003
,,,2.32500000e-009,-1.17343758e-003
,,,2.35000000e-009,-1.13359383e-003
,,,2.37500000e-009,-1.08203133e-003
,,,2.40000000e-009,-1.02265632e-003
,,,2.42500000e-009,-9.60156318e-004
,,,2.45000000e-009,-8.99218814e-004
,,,2.47500000e-009,-8.45312560e-004
,,,2.50000000e-009,-8.00000057e-004
,,,2.52500000e-009,-7.66406304e-004
,,,2.55000000e-009,-7.42187553e-004
,,,2.57500000e-009,-7.23437551e-004
,,,2.60000000e-009,-7.07031300e-004
,,,2.62500000e-009,-6.90625049e-004
,,,2.65000000e-009,-6.68750047e-004
,,,2.67500000e-009,-6.39062545e-004
,,,2.70000000e-009,-6.00000042e-004
,,,2.72500000e-009,-5.52343789e-004
,,,2.75000000e-009,-4.96093785e-004
,,,2.77500000e-009,-4.34375031e-004
,,,2.80000000e-009,-3.71093776e-004
,,,2.82500000e-009,-3.10937522e-004
,,,2.85000000e-009,-2.59375018e-004
,,,2.87500000e-009,-2.21093766e-004
,,,2.90000000e-009,-2.00000014e-004
,,,2.92500000e-009,-2.01562514e-004
,,,2.95000000e-009,-2.18750015e-004
,,,2.97500000e-009,-2.46875017e-004
,,,3.00000000e-009,-2.82812520e-004
,,,3.02500000e-009,-3.20312523e-004
,,,3.05000000e-009,-3.55468775e-004
,,,3.07500000e-009,-3.82812527e-004
,,,3.10000000e-009,-4.00000028e-004
,,,3.12500000e-009,-4.05468779e-004
,,,3.15000000e-009,-3.96093778e-004
,,,3.17500000e-009,-3.74218776e-004
,,,3.20000000e-009,-3.42187524e-004
,,,3.22500000e-009,-3.04687522e-004
,,,3.25000000e-009,-2.65625019e-004
,,,3.27500000e-009,-2.29687516e-004
,,,3.30000000e-009,-2.00000014e-004
,,,3.32500000e-009,-1.82812513e-004
,,,3.35000000e-009,-1.75000012e-004
,,,3.37500000e-009,-1.74218762e-004
,,,3.40000000e-009,-1.78125013e-004
,,,3.42500000e-009,-1.85156263e-004
,,,3.45000000e-009,-1.92968764e-004
,,,3.47500000e-009,-1.98437514e-004
,,,3.50000000e-009,-2.00000014e-004
,,,3.52500000e-009,-1.99218764e-004
,,,3.55000000e-009,-1.94531264e-004
,,,3.57500000e-009,-1.86718763e-004
,,,3.60000000e-009,-1.78906263e-004
,,,3.62500000e-009,-1.74218762e-004
,,,3.65000000e-009,-1.74218762e-004
,,,3.67500000e-009,-1.82812513e-004
,,,3.70000000e-009,-2.00000014e-004
,,,3.72500000e-009,-2.26562516e-004
,,,3.75000000e-009,-2.60156268e-004
,,,3.77500000e-009,-2.96093771e-004
,,,3.80000000e-009,-3.32031274e-004
,,,3.82500000e-009,-3.63281276e-004
,,,3.85000000e-009,-3.86718777e-004
,,,3.87500000e-009,-4.00000028e-004
,,,3.90000000e-009,-4.00000028e-004
,,,3.92500000e-009,-3.85156277e-004
,,,3.95000000e-009,-3.60156275e-004
,,,3.97500000e-009,-3.27343773e-004
,,,4.00000000e-009,-2.90625021e-004
,,,4.02500000e-009,-2.56250018e-004
,,,4.05000000e-009,-2.26562516e-004
,,,4.07500000e-009,-2.07031265e-004
,,,4.10000000e-009,-2.00000014e-004
,,,4.12500000e-009,-2.05468765e-004
,,,4.15000000e-009,-2.22656266e-004
,,,4.17500000e-009,-2.50000018e-004
,,,4.20000000e-009,-2.84375020e-004
,,,4.22500000e-009,-3.20312523e-004
,,,4.25000000e-009,-3.53906275e-004
,,,4.27500000e-009,-3.81250027e-004
,,,4.30000000e-009,-4.00000028e-004
,,,4.32500000e-009,-4.03125029e-004
,,,4.35000000e-009,-3.93750028e-004
,,,4.37500000e-009,-3.73437526e-004
,,,4.40000000e-009,-3.43750024e-004
,,,4.42500000e-009,-3.08593772e-004
,,,4.45000000e-009,-2.70312519e-004
,,,4.47500000e-009,-2.32812516e-004
,,,4.50000000e-009,-2.00000014e-004
,,,4.52500000e-009,-1.72656262e-004
,,,4.55000000e-009,-1.53906261e-004
,,,4.57500000e-009,-1.44531260e-004
,,,4.60000000e-009,-1.43750010e-004
,,,4.62500000e-009,-1.50781261e-004
,,,4.65000000e-009,-1.64062512e-004
,,,4.67500000e-009,-1.81250013e-004
,,,4.70000000e-009,-2.00000014e-004
,,,4.72500000e-009,-2.16406265e-004
,,,4.75000000e-009,-2.29687516e-004
,,,4.77500000e-009,-2.39062517e-004
,,,4.80000000e-009,-2.42968767e-004
,,,4.82500000e-009,-2.40625017e-004
,,,4.85000000e-009,-2.32812516e-004
,,,4.87500000e-009,-2.18750015e-004
,,,4.90000000e-009,-2.00000014e-004
,,,4.92500000e-009,-1.75781262e-004
,,,4.95000000e-009,-1.49218761e-004
,,,4.97500000e-009,-1.21093759e-004
,,,5.00000000e-009,-9.21875065e-005
,,,5.02500000e-009,-6.40625045e-005
,,,5.05000000e-009,-3.90625028e-005
,,,5.07500000e-009,-1.71875012e-005
,,,5.10000000e-009,0.00000000e+000
,,,5.12500000e-009,1.17187508e-005
,,,5.15000000e-009,1.79687513e-005
,,,5.17500000e-009,2.10937515e-005
,,,5.20000000e-009,2.03125014e-005
,,,5.22500000e-009,1.64062512e-005
,,,5.25000000e-009,1.09375008e-005
,,,5.27500000e-009,5.46875039e-006
,,,5.30000000e-009,0.00000000e+000
,,,5.32500000e-009,-7.03125050e-006
,,,5.35000000e-009,-1.17187508e-005
,,,5.37500000e-009,-1.48437511e-005
,,,5.40000000e-009,-1.48437511e-005
,,,5.42500000e-009,-1.32812509e-005
,,,5.45000000e-009,-9.37500066e-006
,,,5.47500000e-009,-4.68750033e-006
,,,5.50000000e-009,0.00000000e+000
,,,5.52500000e-009,2.34375017e-006
,,,5.55000000e-009,3.90625028e-006
,,,5.57500000e-009,4.68750033e-006
,,,5.60000000e-009,4.68750033e-006
,,,5.62500000e-009,3.90625028e-006
,,,5.65000000e-009,3.12500022e-006
,,,5.67500000e-009,1.56250011e-006
,,,5.70000000e-009,0.00000000e+000
,,,5.72500000e-009,-2.34375017e-006
,,,5.75000000e-009,-5.46875039e-006
,,,5.77500000e-009,-7.03125050e-006
,,,5.80000000e-009,-7.03125050e-006
,,,5.82500000e-009,-7.03125050e-006
,,,5.85000000e-009,-5.46875039e-006
,,,5.87500000e-009,-3.12500022e-006
,,,5.90000000e-009,0.00000000e+000
