RawData/SinglePhotoelectron/R7_2pt2B_5mV/wave000_Ch2.csv

"Record Length",1000,"Points",-7.72500000e-009,-6.32812545e-005
"Sample Interval",2.50000000e-011,s,-7.70000000e-009,-9.06250064e-005
"Trigger Point",309,"Samples",-7.67500000e-009,-1.19531258e-004
"Trigger Time",1.45917762e-011,s,-7.65000000e-009,-1.48437511e-004
"",,,-7.62500000e-009,-1.75781262e-004
"Horizontal Offset",-7.72500000e-009,s,-7.60000000e-009,-2.00000014e-004
,,,-7.57500000e-009,-2.17968765e-004
,,,-7.55000000e-009,-2.30468766e-004
,,,-7.52500000e-009,-2.37500017e-004
,,,-7.50000000e-009,-2.39843767e-004
,,,-7.47500000e-009,-2.36718767e-004
,,,-7.45000000e-009,-2.28125016e-004
,,,-7.42500000e-009,-2.15625015e-004
,,,-7.40000000e-009,-2.00000014e-004
,,,-7.37500000e-009,-1.78125013e-004
,,,-7.35000000e-009,-1.55468761e-004
,,,-7.32500000e-009,-1.29687509e-004
,,,-7.30000000e-009,-1.03906257e-004
,,,-7.27500000e-009,-7.73437555e-005
,,,-7.25000000e-009,-5.00000035e-005
,,,-7.22500000e-009,-2.42187517e-005
,,,-7.20000000e-009,0.00000000e+000
,,,-7.17500000e-009,2.03125014e-005
,,,-7.15000000e-009,3.67187526e-005
,,,-7.12500000e-009,4.68750033e-005
,,,-7.10000000e-009,5.15625036e-005
,,,-7.07500000e-009,4.92187535e-005
,,,-7.05000000e-009,3.98437528e-005
,,,-7.02500000e-009,2.26562516e-005
,,,-7.00000000e-009,0.00000000e+000
,,,-6.97500000e-009,-2.89062520e-005
,,,-6.95000000e-009,-6.17187544e-005
,,,-6.92500000e-009,-9.53125067e-005
,,,-6.90000000e-009,-1.28125009e-004
,,,-6.87500000e-009,-1.56250011e-004
,,,-6.85000000e-009,-1.78906263e-004
,,,-6.82500000e-009,-1.93750014e-004
,,,-6.80000000e-009,-2.00000014e-004
,,,-6.77500000e-009,-1.94531264e-004
,,,-6.75000000e-009,-1.81250013e-004
,,,-6.72500000e-009,-1.59375011e-004
,,,-6.70000000e-009,-1.31250009e-004
,,,-6.67500000e-009,-9.92187570e-005
,,,-6.65000000e-009,-6.48437546e-005
,,,-6.62500000e-009,-3.04687522e-005
,,,-6.60000000e-009,0.00000000e+000
,,,-6.57500000e-009,2.42187517e-005
,,,-6.55000000e-009,4.21875030e-005
,,,-6.52500000e-009,5.31250038e-005
,,,-6.50000000e-009,5.62500040e-005
,,,-6.47500000e-009,5.15625036e-005
,,,-6.45000000e-009,3.98437528e-005
,,,-6.42500000e-009,2.26562516e-005
,,,-6.40000000e-009,0.00000000e+000
,,,-6.37500000e-009,-2.65625019e-005
,,,-6.35000000e-009,-5.54687539e-005
,,,-6.32500000e-009,-8.43750060e-005
,,,-6.30000000e-009,-1.12500008e-004
,,,-6.27500000e-009,-1.39062510e-004
,,,-6.25000000e-009,-1.62500012e-004
,,,-6.22500000e-009,-1.82812513e-004
,,,-6.20000000e-009,-2.00000014e-004
,,,-6.17500000e-009,-2.10156265e-004
,,,-6.15000000e-009,-2.17187515e-004
,,,-6.12500000e-009,-2.20312516e-004
,,,-6.10000000e-009,-2.20312516e-004
,,,-6.07500000e-009,-2.17187515e-004
,,,-6.05000000e-009,-2.12500015e-004
,,,-6.02500000e-009,-2.06250015e-004
,,,-6.00000000e-009,-2.00000014e-004
,,,-5.97500000e-009,-1.91406264e-004
,,,-5.95000000e-009,-1.85156263e-004
,,,-5.92500000e-009,-1.80468763e-004
,,,-5.90000000e-009,-1.78906263e-004
,,,-5.87500000e-009,-1.79687513e-004
,,,-5.85000000e-009,-1.84375013e-004
,,,-5.82500000e-009,-1.90625013e-004
,,,-5.80000000e-009,-2.00000014e-004
,,,-5.77500000e-009,-2.08593765e-004
,,,-5.75000000e-009,-2.16406265e-004
,,,-5.72500000e-009,-2.23437516e-004
,,,-5.70000000e-009,-2.27343766e-004
,,,-5.67500000e-009,-2.28125016e-004
,,,-5.65000000e-009,-2.24218766e-004
,,,-5.62500000e-009,-2.14062515e-004
,,,-5.60000000e-009,-2.00000014e-004
,,,-5.57500000e-009,-1.78125013e-004
,,,-5.55000000e-009,-1.53125011e-004
,,,-5.52500000e-009,-1.25000009e-004
,,,-5.50000000e-009,-9.60937568e-005
,,,-5.47500000e-009,-6.79687548e-005
,,,-5.45000000e-009,-4.14062529e-005
,,,-5.42500000e-009,-1.79687513e-005
,,,-5.40000000e-009,0.00000000e+000
,,,-5.37500000e-009,1.32812509e-005
,,,-5.35000000e-009,2.10937515e-005
,,,-5.32500000e-009,2.42187517e-005
,,,-5.30000000e-009,2.34375017e-005
,,,-5.27500000e-009,1.95312514e-005
,,,-5.25000000e-009,1.32812509e-005
,,,-5.22500000e-009,6.25000044e-006
,,,-5.20000000e-009,0.00000000e+000
,,,-5.17500000e-009,-5.46875039e-006
,,,-5.15000000e-009,-1.01562507e-005
,,,-5.12500000e-009,-1.17187508e-005
,,,-5.10000000e-009,-1.17187508e-005
,,,-5.07500000e-009,-9.37500066e-006
,,,-5.05000000e-009,-7.03125050e-006
,,,-5.02500000e-009,-3.12500022e-006
,,,-5.00000000e-009,0.00000000e+000
,,,-4.97500000e-009,1.56250011e-006
,,,-4.95000000e-009,3.12500022e-006
,,,-4.92500000e-009,3.90625028e-006
,,,-4.90000000e-009,3.90625028e-006
,,,-4.87500000e-009,3.12500022e-006
,,,-4.85000000e-009,2.34375017e-006
,,,-4.82500000e-009,7.81250055e-007
,,,-4.80000000e-009,0.00000000e+000
,,,-4.77500000e-009,-1.56250011e-006
,,,-4.75000000e-009,-2.34375017e-006
,,,-4.72500000e-009,-3.12500022e-006
,,,-4.70000000e-009,-3.12500022e-006
,,,-4.67500000e-009,-2.34375017e-006
,,,-4.65000000e-009,-1.56250011e-006
,,,-4.62500000e-009,-7.81250055e-007
,,,-4.60000000e-009,0.00000000e+000
,,,-4.57500000e-009,0.00000000e+000
,,,-4.55000000e-009,0.00000000e+000
,,,-4.52500000e-009,0.00000000e+000
,,,-4.50000000e-009,0.00000000e+000
,,,-4.47500000e-009,0.00000000e+000
,,,-4.45000000e-009,0.00000000e+000
,,,-4.42500000e-009,0.00000000e+000
,,,-4.40000000e-009,0.00000000e+000
,,,-4.37500000e-009,7.81250055e-007
,,,-4.35000000e-009,1.56250011e-006
,,,-4.32500000e-009,2.34375017e-006
,,,-4.30000000e-009,3.12500022e-006
,,,-4.27500000e-009,3.12500022e-006
,,,-4.25000000e-009,2.34375017e-006
,,,-4.22500000e-009,1.56250011e-006
,,,-4.20000000e-009,0.00000000e+000
,,,-4.17500000e-009,-1.56250011e-006
,,,-4.15000000e-009,-3.90625028e-006
,,,-4.12500000e-009,-6.25000044e-006
,,,-4.10000000e-009,-7.03125050e-006
,,,-4.07500000e-009,-7.03125050e-006
,,,-4.05000000e-009,-6.25000044e-006
,,,-4.02500000e-009,-3.90625028e-006
,,,-4.00000000e-009,0.00000000e+000
,,,-3.97500000e-009,5.46875039e-006
,,,-3.95000000e-009,1.09375008e-005
,,,-3.92500000e-009,1.64062512e-005
,,,-3.90000000e-009,1.95312514e-005
,,,-3.87500000e-009,1.95312514e-005
,,,-3.85000000e-009,1.64062512e-005
,,,-3.82500000e-009,9.37500066e-006
,,,-3.80000000e-009,0.00000000e+000
,,,-3.77500000e-009,-1.09375008e-005
,,,-3.75000000e-009,-2.26562516e-005
,,,-3.72500000e-009,-3.28125023e-005
,,,-3.70000000e-009,-3.98437528e-005
,,,-3.67500000e-009,-4.14062529e-005
,,,-3.65000000e-009,-3.51562525e-005
,,,-3.62500000e-009,-2.10937515e-005
,,,-3.60000000e-009,0.00000000e+000
,,,-3.57500000e-009,2.96875021e-005
,,,-3.55000000e-009,6.40625045e-005
,,,-3.52500000e-009,1.00781257e-004
,,,-3.50000000e-009,1.35156260e-004
,,,-3.47500000e-009,1.65625012e-004
,,,-3.45000000e-009,1.88281263e-004
,,,-3.42500000e-009,2.00000014e-004
,,,-3.40000000e-009,2.00000014e-004
,,,-3.37500000e-009,1.86718763e-004
,,,-3.35000000e-009,1.64062512e-004
,,,-3.32500000e-009,1.33593759e-004
,,,-3.30000000e-009,1.00000007e-004
,,,-3.27500000e-009,6.56250046e-005
,,,-3.25000000e-009,3.51562525e-005
,,,-3.22500000e-009,1.25000009e-005
,,,-3.20000000e-009,0.00000000e+000
,,,-3.17500000e-009,-7.81250055e-007
,,,-3.15000000e-009,9.37500066e-006
,,,-3.12500000e-009,3.04687522e-005
,,,-3.10000000e-009,6.01562543e-005
,,,-3.07500000e-009,9.53125067e-005
,,,-3.05000000e-009,1.32031259e-004
,,,-3.02500000e-009,1.67968762e-004
,,,-3.00000000e-009,2.00000014e-004
,,,-2.97500000e-009,2.22656266e-004
,,,-2.95000000e-009,2.37500017e-004
,,,-2.92500000e-009,2.44531267e-004
,,,-2.90000000e-009,2.43750017e-004
,,,-2.87500000e-009,2.37500017e-004
,,,-2.85000000e-009,2.26562516e-004
,,,-2.82500000e-009,2.13281265e-004
,,,-2.80000000e-009,2.00000014e-004
,,,-2.77500000e-009,1.85937513e-004
,,,-2.75000000e-009,1.75781262e-004
,,,-2.72500000e-009,1.69531262e-004
,,,-2.70000000e-009,1.67968762e-004
,,,-2.67500000e-009,1.71093762e-004
,,,-2.65000000e-009,1.78125013e-004
,,,-2.62500000e-009,1.87500013e-004
,,,-2.60000000e-009,2.00000014e-004
,,,-2.57500000e-009,2.10156265e-004
,,,-2.55000000e-009,2.19531266e-004
,,,-2.52500000e-009,2.27343766e-004
,,,-2.50000000e-009,2.31250016e-004
,,,-2.47500000e-009,2.31250016e-004
,,,-2.45000000e-009,2.25781266e-004
,,,-2.42500000e-009,2.15625015e-004
,,,-2.40000000e-009,2.00000014e-004
,,,-2.37500000e-009,1.78125013e-004
,,,-2.35000000e-009,1.53125011e-004
,,,-2.32500000e-009,1.25000009e-004
,,,-2.30000000e-009,9.60937568e-005
,,,-2.27500000e-009,6.79687548e-005
,,,-2.25000000e-009,4.14062529e-005
,,,-2.22500000e-009,1.79687513e-005
,,,-2.20000000e-009,0.00000000e+000
,,,-2.17500000e-009,-1.32812509e-005
,,,-2.15000000e-009,-2.10937515e-005
,,,-2.12500000e-009,-2.42187517e-005
,,,-2.10000000e-009,-2.34375017e-005
,,,-2.07500000e-009,-1.95312514e-005
,,,-2.05000000e-009,-1.32812509e-005
,,,-2.02500000e-009,-6.25000044e-006
,,,-2.00000000e-009,0.00000000e+000
,,,-1.97500000e-009,5.46875039e-006
,,,-1.95000000e-009,1.01562507e-005
,,,-1.92500000e-009,1.17187508e-005
,,,-1.90000000e-009,1.17187508e-005
,,,-1.87500000e-009,9.37500066e-006
,,,-1.85000000e-009,7.03125050e-006
,,,-1.82500000e-009,3.12500022e-006
,,,-1.80000000e-009,0.00000000e+000
,,,-1.77500000e-009,-2.34375017e-006
,,,-1.75000000e-009,-5.46875039e-006
,,,-1.72500000e-009,-7.03125050e-006
,,,-1.70000000e-009,-7.03125050e-006
,,,-1.67500000e-009,-7.03125050e-006
,,,-1.65000000e-009,-5.46875039e-006
,,,-1.62500000e-009,-2.34375017e-006
,,,-1.60000000e-009,0.00000000e+000
,,,-1.57500000e-009,1.56250011e-006
,,,-1.55000000e-009,3.12500022e-006
,,,-1.52500000e-009,3.90625028e-006
,,,-1.50000000e-009,3.90625028e-006
,,,-1.47500000e-009,3.12500022e-006
,,,-1.45000000e-009,2.34375017e-006
,,,-1.42500000e-009,7.81250055e-007
,,,-1.40000000e-009,0.00000000e+000
,,,-1.37500000e-009,-5.46875039e-006
,,,-1.35000000e-009,-1.17187508e-005
,,,-1.32500000e-009,-1.71875012e-005
,,,-1.30000000e-009,-2.10937515e-005
,,,-1.27500000e-009,-2.18750015e-005
,,,-1.25000000e-009,-1.79687513e-005
,,,-1.22500000e-009,-1.09375008e-005
,,,-1.20000000e-009,0.00000000e+000
,,,-1.17500000e-009,0.00000000e+000
,,,-1.15000000e-009,7.81250055e-007
,,,-1.12500000e-009,7.81250055e-007
,,,-1.10000000e-009,1.56250011e-006
,,,-1.07500000e-009,1.56250011e-006
,,,-1.05000000e-009,1.56250011e-006
,,,-1.02500000e-009,1.56250011e-006
,,,-1.00000000e-009,0.00000000e+000
,,,-9.75000000e-010,-2.81250020e-005
,,,-9.50000000e-010,-6.09375043e-005
,,,-9.25000000e-010,-9.68750069e-005
,,,-9.00000000e-010,-1.30468759e-004
,,,-8.75000000e-010,-1.60156261e-004
,,,-8.50000000e-010,-1.82031263e-004
,,,-8.25000000e-010,-1.95312514e-004
,,,-8.00000000e-010,-2.00000014e-004
,,,-7.75000000e-010,-2.32812516e-004
,,,-7.50000000e-010,-2.64062519e-004
,,,-7.25000000e-010,-2.93750021e-004
,,,-7.00000000e-010,-3.21093773e-004
,,,-6.75000000e-010,-3.43750024e-004
,,,-6.50000000e-010,-3.64062526e-004
,,,-6.25000000e-010,-3.81250027e-004
,,,-6.00000000e-010,-4.00000028e-004
,,,-5.75000000e-010,-4.69531283e-004
,,,-5.50000000e-010,-5.52343789e-004
,,,-5.25000000e-010,-6.46875046e-004
,,,-5.00000000e-010,-7.49218803e-004
,,,-4.75000000e-010,-8.57812561e-004
,,,-4.50000000e-010,-9.69531319e-004
,,,-4.25000000e-010,-1.08359383e-003
,,,-4.00000000e-010,-1.20000008e-003
,,,-3.75000000e-010,-1.36718760e-003
,,,-3.50000000e-010,-1.54843761e-003
,,,-3.25000000e-010,-1.74062512e-003
,,,-3.00000000e-010,-1.94140639e-003
,,,-2.75000000e-010,-2.14843765e-003
,,,-2.50000000e-010,-2.36093767e-003
,,,-2.25000000e-010,-2.57734393e-003
,,,-2.00000000e-010,-2.80000020e-003
,,,-1.75000000e-010,-3.06250022e-003
,,,-1.50000000e-010,-3.34140649e-003
,,,-1.25000000e-010,-3.63281276e-003
,,,-1.00000000e-010,-3.93515653e-003
,,,-7.50000000e-011,-4.24531280e-003
,,,-5.00000000e-011,-4.56015657e-003
,,,-2.50000000e-011,-4.87890660e-003
,,,0.00000000e+000,-5.20000037e-003
,,,2.50000000e-011,-5.53515664e-003
,,,5.00000000e-011,-5.87890667e-003
,,,7.50000000e-011,-6.22968794e-003
,,,1.00000000e-010,-6.58515672e-003
,,,1.25000000e-010,-6.94218799e-003
,,,1.50000000e-010,-7.29843802e-003
,,,1.75000000e-010,-7.65156304e-003
,,,2.00000000e-010,-8.00000057e-003
,,,2.25000000e-010,-8.32812559e-003
,,,2.50000000e-010,-8.65781311e-003
,,,2.75000000e-010,-8.98906314e-003
,,,3.00000000e-010,-9.32031316e-003
,,,3.25000000e-010,-9.65078193e-003
,,,3.50000000e-010,-9.97656321e-003
,,,3.75000000e-010,-1.02937507e-002
,,,4.00000000e-010,-1.06000008e-002
,,,4.25000000e-010,-1.08500008e-002
,,,4.50000000e-010,-1.10906258e-002
,,,4.75000000e-010,-1.13203133e-002
,,,5.00000000e-010,-1.15367196e-002
,,,5.25000000e-010,-1.17367196e-002
,,,5.50000000e-010,-1.19156258e-002
,,,5.75000000e-010,-1.20710946e-002
,,,6.00000000e-010,-1.22000009e-002
,,,6.25000000e-010,-1.22468759e-002
,,,6.50000000e-010,-1.22789071e-002
,,,6.75000000e-010,-1.23023446e-002
,,,7.00000000e-010,-1.23210946e-002
,,,7.25000000e-010,-1.23382821e-002
,,,7.50000000e-010,-1.23562509e-002
,,,7.75000000e-010,-1.23773446e-002
,,,8.00000000e-010,-1.24000009e-002
,,,8.25000000e-010,-1.23671884e-002
,,,8.50000000e-010,-1.23460946e-002
,,,8.75000000e-010,-1.23375009e-002
,,,9.00000000e-010,-1.23406259e-002
,,,9.25000000e-010,-1.23523446e-002
,,,9.50000000e-010,-1.23695321e-002
,,,9.75000000e-010,-1.23875009e-002
,,,1.00000000e-009,-1.24000009e-002
,,,1.02500000e-009,-1.23445321e-002
,,,1.05000000e-009,-1.22812509e-002
,,,1.07500000e-009,-1.22117196e-002
,,,1.10000000e-009,-1.21367196e-002
,,,1.12500000e-009,-1.20570321e-002
,,,1.15000000e-009,-1.19742196e-002
,,,1.17500000e-009,-1.18890633e-002
,,,1.20000000e-009,-1.18000008e-002
,,,1.22500000e-009,-1.16585946e-002
,,,1.25000000e-009,-1.15164071e-002
,,,1.27500000e-009,-1.13773446e-002
,,,1.30000000e-009,-1.12437508e-002
,,,1.32500000e-009,-1.11179695e-002
,,,1.35000000e-009,-1.10023445e-002
,,,1.37500000e-009,-1.08968758e-002
,,,1.40000000e-009,-1.08000008e-002
,,,1.42500000e-009,-1.06718758e-002
,,,1.45000000e-009,-1.05445320e-002
,,,1.47500000e-009,-1.04187507e-002
,,,1.50000000e-009,-1.02937507e-002
,,,1.52500000e-009,-1.01703132e-002
,,,1.55000000e-009,-1.00476570e-002
,,,1.57500000e-009,-9.92500070e-003
,,,1.60000000e-009,-9.80000069e-003
,,,1.62500000e-009,-9.64140693e-003
,,,1.65000000e-009,-9.46875067e-003
,,,1.67500000e-009,-9.28203191e-003
,,,1.70000000e-009,-9.08281314e-003
,,,1.72500000e-009,-8.87265688e-003
,,,1.75000000e-009,-8.65390686e-003
,,,1.77500000e-009,-8.42890685e-003
,,,1.80000000e-009,-8.20000058e-003
,,,1.82500000e-009,-7.95156306e-003
,,,1.85000000e-009,-7.69531304e-003
,,,1.87500000e-009,-7.43359428e-003
,,,1.90000000e-009,-7.17187551e-003
,,,1.92500000e-009,-6.91406299e-003
,,,1.95000000e-009,-6.66406297e-003
,,,1.97500000e-009,-6.42578170e-003
,,,2.00000000e-009,-6.20000044e-003
,,,2.02500000e-009,-5.98593792e-003
,,,2.05000000e-009,-5.77578166e-003
,,,2.07500000e-009,-5.56953164e-003
,,,2.10000000e-009,-5.36640663e-003
,,,2.12500000e-009,-5.16796912e-003
,,,2.15000000e-009,-4.97343785e-003
,,,2.17500000e-009,-4.78359409e-003
,,,2.20000000e-009,-4.60000033e-003
,,,2.22500000e-009,-4.43046906e-003
,,,2.25000000e-009,-4.25625030e-003
,,,2.27500000e-009,-4.07734404e-003
,,,2.30000000e-009,-3.89609403e-003
,,,2.32500000e-009,-3.71406276e-003
,,,2.35000000e-009,-3.53515650e-003
,,,2.37500000e-009,-3.36328149e-003
,,,2.40000000e-009,-3.20000023e-003
,,,2.42500000e-009,-3.06406272e-003
,,,2.45000000e-009,-2.93046896e-003
,,,2.47500000e-009,-2.79921895e-003
,,,2.50000000e-009,-2.66953144e-003
,,,2.52500000e-009,-2.54375018e-003
,,,2.55000000e-009,-2.42343767e-003
,,,2.57500000e-009,-2.30859391e-003
,,,2.60000000e-009,-2.20000016e-003
,,,2.62500000e-009,-2.11953140e-003
,,,2.65000000e-009,-2.03437514e-003
,,,2.67500000e-009,-1.94296889e-003
,,,2.70000000e-009,-1.84375013e-003
,,,2.72500000e-009,-1.73828137e-003
,,,2.75000000e-009,-1.62734387e-003
,,,2.77500000e-009,-1.51328136e-003
,,,2.80000000e-009,-1.40000010e-003
,,,2.82500000e-009,-1.31171884e-003
,,,2.85000000e-009,-1.22265634e-003
,,,2.87500000e-009,-1.13203133e-003
,,,2.90000000e-009,-1.04531257e-003
,,,2.92500000e-009,-9.65625068e-004
,,,2.95000000e-009,-8.96093813e-004
,,,2.97500000e-009,-8.39843809e-004
,,,3.00000000e-009,-8.00000057e-004
,,,3.02500000e-009,-7.96093806e-004
,,,3.05000000e-009,-7.99218807e-004
,,,3.07500000e-009,-8.07031307e-004
,,,3.10000000e-009,-8.14843808e-004
,,,3.12500000e-009,-8.19531308e-004
,,,3.15000000e-009,-8.20312558e-004
,,,3.17500000e-009,-8.14062558e-004
,,,3.20000000e-009,-8.00000057e-004
,,,3.22500000e-009,-7.90625056e-004
,,,3.25000000e-009,-7.70312555e-004
,,,3.27500000e-009,-7.40625052e-004
,,,3.30000000e-009,-7.04687550e-004
,,,3.32500000e-009,-6.68750047e-004
,,,3.35000000e-009,-6.36718795e-004
,,,3.37500000e-009,-6.12500043e-004
,,,3.40000000e-009,-6.00000042e-004
,,,3.42500000e-009,-6.10156293e-004
,,,3.45000000e-009,-6.29687545e-004
,,,3.47500000e-009,-6.57031297e-004
,,,3.50000000e-009,-6.88281299e-004
,,,3.52500000e-009,-7.21093801e-004
,,,3.55000000e-009,-7.52343803e-004
,,,3.57500000e-009,-7.79687555e-004
,,,3.60000000e-009,-8.00000057e-004
,,,3.62500000e-009,-8.16406308e-004
,,,3.65000000e-009,-8.24218808e-004
,,,3.67500000e-009,-8.23437558e-004
,,,3.70000000e-009,-8.17187558e-004
,,,3.72500000e-009,-8.09375057e-004
,,,3.75000000e-009,-8.01562557e-004
,,,3.77500000e-009,-7.97656306e-004
,,,3.80000000e-009,-8.00000057e-004
,,,3.82500000e-009,-8.07031307e-004
,,,3.85000000e-009,-8.17968808e-004
,,,3.87500000e-009,-8.29687559e-004
,,,3.90000000e-009,-8.39843809e-004
,,,3.92500000e-009,-8.44531310e-004
,,,3.95000000e-009,-8.40625059e-004
,,,3.97500000e-009,-8.26562559e-004
,,,4.00000000e-009,-8.00000057e-004
,,,4.02500000e-009,-7.58593804e-004
,,,4.05000000e-009,-7.07812550e-004
,,,4.07500000e-009,-6.49218796e-004
,,,4.10000000e-009,-5.87500042e-004
,,,4.12500000e-009,-5.27343787e-004
,,,4.15000000e-009,-4.73437534e-004
,,,4.17500000e-009,-4.29687530e-004
,,,4.20000000e-009,-4.00000028e-004
,,,4.22500000e-009,-3.86718777e-004
,,,4.25000000e-009,-3.89843778e-004
,,,4.27500000e-009,-4.07031279e-004
,,,4.30000000e-009,-4.36718781e-004
,,,4.32500000e-009,-4.74218784e-004
,,,4.35000000e-009,-5.16406287e-004
,,,4.37500000e-009,-5.59375040e-004
,,,4.40000000e-009,-6.00000042e-004
,,,4.42500000e-009,-6.31250045e-004
,,,4.45000000e-009,-6.53906296e-004
,,,4.47500000e-009,-6.65625047e-004
,,,4.50000000e-009,-6.67968797e-004
,,,4.52500000e-009,-6.60937547e-004
,,,4.55000000e-009,-6.46093796e-004
,,,4.57500000e-009,-6.25000044e-004
,,,4.60000000e-009,-6.00000042e-004
,,,4.62500000e-009,-5.71093790e-004
,,,4.65000000e-009,-5.40625038e-004
,,,4.67500000e-009,-5.11718786e-004
,,,4.70000000e-009,-4.83593784e-004
,,,4.72500000e-009,-4.57812532e-004
,,,4.75000000e-009,-4.35156281e-004
,,,4.77500000e-009,-4.15625029e-004
,,,4.80000000e-009,-4.00000028e-004
,,,4.82500000e-009,-3.89062528e-004
,,,4.85000000e-009,-3.82031277e-004
,,,4.87500000e-009,-3.78906277e-004
,,,4.90000000e-009,-3.78125027e-004
,,,4.92500000e-009,-3.80468777e-004
,,,4.95000000e-009,-3.85156277e-004
,,,4.97500000e-009,-3.91406278e-004
,,,5.00000000e-009,-4.00000028e-004
,,,5.02500000e-009,-4.08593779e-004
,,,5.05000000e-009,-4.16406279e-004
,,,5.07500000e-009,-4.21875030e-004
,,,5.10000000e-009,-4.24218780e-004
,,,5.12500000e-009,-4.24218780e-004
,,,5.15000000e-009,-4.19531280e-004
,,,5.17500000e-009,-4.11718779e-004
,,,5.20000000e-009,-4.00000028e-004
,,,5.22500000e-009,-3.82812527e-004
,,,5.25000000e-009,-3.61718776e-004
,,,5.27500000e-009,-3.38281274e-004
,,,5.30000000e-009,-3.11718772e-004
,,,5.32500000e-009,-2.83593770e-004
,,,5.35000000e-009,-2.54687518e-004
,,,5.37500000e-009,-2.26562516e-004
,,,5.40000000e-009,-2.00000014e-004
,,,5.42500000e-009,-1.76562512e-004
,,,5.45000000e-009,-1.58593761e-004
,,,5.47500000e-009,-1.45312510e-004
,,,5.50000000e-009,-1.39843760e-004
,,,5.52500000e-009,-1.42187510e-004
,,,5.55000000e-009,-1.53125011e-004
,,,5.57500000e-009,-1.72656262e-004
,,,5.60000000e-009,-2.00000014e-004
,,,5.62500000e-009,-2.33593767e-004
,,,5.65000000e-009,-2.69531269e-004
,,,5.67500000e-009,-3.06250022e-004
,,,5.70000000e-009,-3.39843774e-004
,,,5.72500000e-009,-3.67968776e-004
,,,5.75000000e-009,-3.88281277e-004
,,,5.77500000e-009,-3.99218778e-004
,,,5.80000000e-009,-4.00000028e-004
,,,5.82500000e-009,-3.87500027e-004
,,,5.85000000e-009,-3.67187526e-004
,,,5.87500000e-009,-3.39062524e-004
,,,5.90000000e-009,-3.07031272e-004
