RawData/SinglePhotoelectron/R7_2pt2B_5mV/wave014_Ch2.csv

"Record Length",1000,"Points",-7.72500000e-009,1.60937511e-004
"Sample Interval",2.50000000e-011,s,-7.70000000e-009,1.80468763e-004
"Trigger Point",309,"Samples",-7.67500000e-009,1.92968764e-004
"Trigger Time",2.44989272e-011,s,-7.65000000e-009,2.00000014e-004
"",,,-7.62500000e-009,1.98437514e-004
"Horizontal Offset",-7.72500000e-009,s,-7.60000000e-009,1.92968764e-004
,,,-7.57500000e-009,1.85937513e-004
,,,-7.55000000e-009,1.79687513e-004
,,,-7.52500000e-009,1.76562512e-004
,,,-7.50000000e-009,1.77343763e-004
,,,-7.47500000e-009,1.85156263e-004
,,,-7.45000000e-009,2.00000014e-004
,,,-7.42500000e-009,2.17968765e-004
,,,-7.40000000e-009,2.42968767e-004
,,,-7.37500000e-009,2.71875019e-004
,,,-7.35000000e-009,3.03906272e-004
,,,-7.32500000e-009,3.34375024e-004
,,,-7.30000000e-009,3.62500026e-004
,,,-7.27500000e-009,3.85156277e-004
,,,-7.25000000e-009,4.00000028e-004
,,,-7.22500000e-009,3.99218778e-004
,,,-7.20000000e-009,3.89843778e-004
,,,-7.17500000e-009,3.71093776e-004
,,,-7.15000000e-009,3.44531274e-004
,,,-7.12500000e-009,3.12500022e-004
,,,-7.10000000e-009,2.76562520e-004
,,,-7.07500000e-009,2.38281267e-004
,,,-7.05000000e-009,2.00000014e-004
,,,-7.02500000e-009,1.59375011e-004
,,,-7.00000000e-009,1.23437509e-004
,,,-6.97500000e-009,9.14062565e-005
,,,-6.95000000e-009,6.48437546e-005
,,,-6.92500000e-009,4.21875030e-005
,,,-6.90000000e-009,2.42187517e-005
,,,-6.87500000e-009,1.01562507e-005
,,,-6.85000000e-009,0.00000000e+000
,,,-6.82500000e-009,-7.03125050e-006
,,,-6.80000000e-009,-1.25000009e-005
,,,-6.77500000e-009,-1.56250011e-005
,,,-6.75000000e-009,-1.56250011e-005
,,,-6.72500000e-009,-1.40625010e-005
,,,-6.70000000e-009,-1.09375008e-005
,,,-6.67500000e-009,-6.25000044e-006
,,,-6.65000000e-009,0.00000000e+000
,,,-6.62500000e-009,8.59375061e-006
,,,-6.60000000e-009,1.64062512e-005
,,,-6.57500000e-009,2.26562516e-005
,,,-6.55000000e-009,2.73437519e-005
,,,-6.52500000e-009,2.73437519e-005
,,,-6.50000000e-009,2.34375017e-005
,,,-6.47500000e-009,1.40625010e-005
,,,-6.45000000e-009,0.00000000e+000
,,,-6.42500000e-009,-1.79687513e-005
,,,-6.40000000e-009,-4.14062529e-005
,,,-6.37500000e-009,-6.79687548e-005
,,,-6.35000000e-009,-9.60937568e-005
,,,-6.32500000e-009,-1.25000009e-004
,,,-6.30000000e-009,-1.52343761e-004
,,,-6.27500000e-009,-1.78125013e-004
,,,-6.25000000e-009,-2.00000014e-004
,,,-6.22500000e-009,-2.11718765e-004
,,,-6.20000000e-009,-2.18750015e-004
,,,-6.17500000e-009,-2.21093766e-004
,,,-6.15000000e-009,-2.21093766e-004
,,,-6.12500000e-009,-2.17968765e-004
,,,-6.10000000e-009,-2.13281265e-004
,,,-6.07500000e-009,-2.07031265e-004
,,,-6.05000000e-009,-2.00000014e-004
,,,-6.02500000e-009,-1.88281263e-004
,,,-6.00000000e-009,-1.75000012e-004
,,,-5.97500000e-009,-1.58593761e-004
,,,-5.95000000e-009,-1.39062510e-004
,,,-5.92500000e-009,-1.13281258e-004
,,,-5.90000000e-009,-8.12500058e-005
,,,-5.87500000e-009,-4.29687530e-005
,,,-5.85000000e-009,0.00000000e+000
,,,-5.82500000e-009,4.68750033e-005
,,,-5.80000000e-009,9.45312567e-005
,,,-5.77500000e-009,1.38281260e-004
,,,-5.75000000e-009,1.75781262e-004
,,,-5.72500000e-009,2.02343764e-004
,,,-5.70000000e-009,2.16406265e-004
,,,-5.67500000e-009,2.15625015e-004
,,,-5.65000000e-009,2.00000014e-004
,,,-5.62500000e-009,1.68750012e-004
,,,-5.60000000e-009,1.28906259e-004
,,,-5.57500000e-009,8.51562560e-005
,,,-5.55000000e-009,4.29687530e-005
,,,-5.52500000e-009,8.59375061e-006
,,,-5.50000000e-009,-1.17187508e-005
,,,-5.47500000e-009,-1.56250011e-005
,,,-5.45000000e-009,0.00000000e+000
,,,-5.42500000e-009,3.43750024e-005
,,,-5.40000000e-009,8.59375061e-005
,,,-5.37500000e-009,1.48437511e-004
,,,-5.35000000e-009,2.15625015e-004
,,,-5.32500000e-009,2.81250020e-004
,,,-5.30000000e-009,3.37500024e-004
,,,-5.27500000e-009,3.78906277e-004
,,,-5.25000000e-009,4.00000028e-004
,,,-5.22500000e-009,3.93750028e-004
,,,-5.20000000e-009,3.66406276e-004
,,,-5.17500000e-009,3.20312523e-004
,,,-5.15000000e-009,2.60156268e-004
,,,-5.12500000e-009,1.92187514e-004
,,,-5.10000000e-009,1.21875009e-004
,,,-5.07500000e-009,5.62500040e-005
,,,-5.05000000e-009,0.00000000e+000
,,,-5.02500000e-009,-4.29687530e-005
,,,-5.00000000e-009,-7.03125050e-005
,,,-4.97500000e-009,-8.12500058e-005
,,,-4.95000000e-009,-7.89062556e-005
,,,-4.92500000e-009,-6.56250046e-005
,,,-4.90000000e-009,-4.53125032e-005
,,,-4.87500000e-009,-2.18750015e-005
,,,-4.85000000e-009,0.00000000e+000
,,,-4.82500000e-009,1.71875012e-005
,,,-4.80000000e-009,2.81250020e-005
,,,-4.77500000e-009,3.35937524e-005
,,,-4.75000000e-009,3.20312523e-005
,,,-4.72500000e-009,2.65625019e-005
,,,-4.70000000e-009,1.79687513e-005
,,,-4.67500000e-009,8.59375061e-006
,,,-4.65000000e-009,0.00000000e+000
,,,-4.62500000e-009,-5.46875039e-006
,,,-4.60000000e-009,-8.59375061e-006
,,,-4.57500000e-009,-8.59375061e-006
,,,-4.55000000e-009,-7.03125050e-006
,,,-4.52500000e-009,-4.68750033e-006
,,,-4.50000000e-009,-1.56250011e-006
,,,-4.47500000e-009,0.00000000e+000
,,,-4.45000000e-009,0.00000000e+000
,,,-4.42500000e-009,-7.81250055e-007
,,,-4.40000000e-009,-3.12500022e-006
,,,-4.37500000e-009,-6.25000044e-006
,,,-4.35000000e-009,-9.37500066e-006
,,,-4.32500000e-009,-1.01562507e-005
,,,-4.30000000e-009,-9.37500066e-006
,,,-4.27500000e-009,-6.25000044e-006
,,,-4.25000000e-009,0.00000000e+000
,,,-4.22500000e-009,9.37500066e-006
,,,-4.20000000e-009,2.03125014e-005
,,,-4.17500000e-009,2.96875021e-005
,,,-4.15000000e-009,3.51562525e-005
,,,-4.12500000e-009,3.67187526e-005
,,,-4.10000000e-009,3.20312523e-005
,,,-4.07500000e-009,1.95312514e-005
,,,-4.05000000e-009,0.00000000e+000
,,,-4.02500000e-009,-2.57812518e-005
,,,-4.00000000e-009,-5.70312540e-005
,,,-3.97500000e-009,-9.06250064e-005
,,,-3.95000000e-009,-1.23437509e-004
,,,-3.92500000e-009,-1.53125011e-004
,,,-3.90000000e-009,-1.77343763e-004
,,,-3.87500000e-009,-1.93750014e-004
,,,-3.85000000e-009,-2.00000014e-004
,,,-3.82500000e-009,-1.94531264e-004
,,,-3.80000000e-009,-1.79687513e-004
,,,-3.77500000e-009,-1.56250011e-004
,,,-3.75000000e-009,-1.26562509e-004
,,,-3.72500000e-009,-9.37500066e-005
,,,-3.70000000e-009,-6.01562543e-005
,,,-3.67500000e-009,-2.73437519e-005
,,,-3.65000000e-009,0.00000000e+000
,,,-3.62500000e-009,2.03125014e-005
,,,-3.60000000e-009,3.43750024e-005
,,,-3.57500000e-009,4.06250029e-005
,,,-3.55000000e-009,3.98437528e-005
,,,-3.52500000e-009,3.35937524e-005
,,,-3.50000000e-009,2.34375017e-005
,,,-3.47500000e-009,1.17187508e-005
,,,-3.45000000e-009,0.00000000e+000
,,,-3.42500000e-009,-1.32812509e-005
,,,-3.40000000e-009,-2.42187517e-005
,,,-3.37500000e-009,-3.20312523e-005
,,,-3.35000000e-009,-3.43750024e-005
,,,-3.32500000e-009,-3.28125023e-005
,,,-3.30000000e-009,-2.57812518e-005
,,,-3.27500000e-009,-1.40625010e-005
,,,-3.25000000e-009,0.00000000e+000
,,,-3.22500000e-009,1.25000009e-005
,,,-3.20000000e-009,2.50000018e-005
,,,-3.17500000e-009,3.43750024e-005
,,,-3.15000000e-009,3.98437528e-005
,,,-3.12500000e-009,3.98437528e-005
,,,-3.10000000e-009,3.28125023e-005
,,,-3.07500000e-009,1.95312514e-005
,,,-3.05000000e-009,0.00000000e+000
,,,-3.02500000e-009,-2.81250020e-005
,,,-3.00000000e-009,-6.01562543e-005
,,,-2.97500000e-009,-9.45312567e-005
,,,-2.95000000e-009,-1.27343759e-004
,,,-2.92500000e-009,-1.56250011e-004
,,,-2.90000000e-009,-1.78125013e-004
,,,-2.87500000e-009,-1.92968764e-004
,,,-2.85000000e-009,-2.00000014e-004
,,,-2.82500000e-009,-1.99218764e-004
,,,-2.80000000e-009,-1.92187514e-004
,,,-2.77500000e-009,-1.82031263e-004
,,,-2.75000000e-009,-1.72656262e-004
,,,-2.72500000e-009,-1.66406262e-004
,,,-2.70000000e-009,-1.66406262e-004
,,,-2.67500000e-009,-1.77343763e-004
,,,-2.65000000e-009,-2.00000014e-004
,,,-2.62500000e-009,-2.32812516e-004
,,,-2.60000000e-009,-2.77343770e-004
,,,-2.57500000e-009,-3.30468773e-004
,,,-2.55000000e-009,-3.88281277e-004
,,,-2.52500000e-009,-4.48437532e-004
,,,-2.50000000e-009,-5.05468786e-004
,,,-2.47500000e-009,-5.57031289e-004
,,,-2.45000000e-009,-6.00000042e-004
,,,-2.42500000e-009,-6.26562544e-004
,,,-2.40000000e-009,-6.42187545e-004
,,,-2.37500000e-009,-6.46875046e-004
,,,-2.35000000e-009,-6.43750046e-004
,,,-2.32500000e-009,-6.34375045e-004
,,,-2.30000000e-009,-6.22656294e-004
,,,-2.27500000e-009,-6.10156293e-004
,,,-2.25000000e-009,-6.00000042e-004
,,,-2.22500000e-009,-5.87500042e-004
,,,-2.20000000e-009,-5.80468791e-004
,,,-2.17500000e-009,-5.78125041e-004
,,,-2.15000000e-009,-5.80468791e-004
,,,-2.12500000e-009,-5.85937541e-004
,,,-2.10000000e-009,-5.92187542e-004
,,,-2.07500000e-009,-5.96875042e-004
,,,-2.05000000e-009,-6.00000042e-004
,,,-2.02500000e-009,-5.92968792e-004
,,,-2.00000000e-009,-5.81250041e-004
,,,-1.97500000e-009,-5.63281290e-004
,,,-1.95000000e-009,-5.39843788e-004
,,,-1.92500000e-009,-5.10156286e-004
,,,-1.90000000e-009,-4.76562534e-004
,,,-1.87500000e-009,-4.39062531e-004
,,,-1.85000000e-009,-4.00000028e-004
,,,-1.82500000e-009,-3.57812525e-004
,,,-1.80000000e-009,-3.18750023e-004
,,,-1.77500000e-009,-2.82812520e-004
,,,-1.75000000e-009,-2.52343768e-004
,,,-1.72500000e-009,-2.28906266e-004
,,,-1.70000000e-009,-2.11718765e-004
,,,-1.67500000e-009,-2.02343764e-004
,,,-1.65000000e-009,-2.00000014e-004
,,,-1.62500000e-009,-2.05468765e-004
,,,-1.60000000e-009,-2.14843765e-004
,,,-1.57500000e-009,-2.25000016e-004
,,,-1.55000000e-009,-2.33593767e-004
,,,-1.52500000e-009,-2.37500017e-004
,,,-1.50000000e-009,-2.34375017e-004
,,,-1.47500000e-009,-2.21875016e-004
,,,-1.45000000e-009,-2.00000014e-004
,,,-1.42500000e-009,-1.77343763e-004
,,,-1.40000000e-009,-1.49218761e-004
,,,-1.37500000e-009,-1.17187508e-004
,,,-1.35000000e-009,-8.43750060e-005
,,,-1.32500000e-009,-5.31250038e-005
,,,-1.30000000e-009,-2.73437519e-005
,,,-1.27500000e-009,-8.59375061e-006
,,,-1.25000000e-009,0.00000000e+000
,,,-1.22500000e-009,-1.71875012e-005
,,,-1.20000000e-009,-4.53125032e-005
,,,-1.17500000e-009,-8.04687557e-005
,,,-1.15000000e-009,-1.17968758e-004
,,,-1.12500000e-009,-1.52343761e-004
,,,-1.10000000e-009,-1.78906263e-004
,,,-1.07500000e-009,-1.95312514e-004
,,,-1.05000000e-009,-2.00000014e-004
,,,-1.02500000e-009,-2.14843765e-004
,,,-1.00000000e-009,-2.21875016e-004
,,,-9.75000000e-010,-2.21875016e-004
,,,-9.50000000e-010,-2.16406265e-004
,,,-9.25000000e-010,-2.07812515e-004
,,,-9.00000000e-010,-2.00000014e-004
,,,-8.75000000e-010,-1.96093764e-004
,,,-8.50000000e-010,-2.00000014e-004
,,,-8.25000000e-010,-2.43750017e-004
,,,-8.00000000e-010,-3.03125021e-004
,,,-7.75000000e-010,-3.75781277e-004
,,,-7.50000000e-010,-4.57812532e-004
,,,-7.25000000e-010,-5.44531289e-004
,,,-7.00000000e-010,-6.32812545e-004
,,,-6.75000000e-010,-7.18750051e-004
,,,-6.50000000e-010,-8.00000057e-004
,,,-6.25000000e-010,-9.01562564e-004
,,,-6.00000000e-010,-1.00312507e-003
,,,-5.75000000e-010,-1.10234383e-003
,,,-5.50000000e-010,-1.20078133e-003
,,,-5.25000000e-010,-1.29765634e-003
,,,-5.00000000e-010,-1.39453135e-003
,,,-4.75000000e-010,-1.49453136e-003
,,,-4.50000000e-010,-1.60000011e-003
,,,-4.25000000e-010,-1.73281262e-003
,,,-4.00000000e-010,-1.88046888e-003
,,,-3.75000000e-010,-2.04140639e-003
,,,-3.50000000e-010,-2.21562516e-003
,,,-3.25000000e-010,-2.40078142e-003
,,,-3.00000000e-010,-2.59375018e-003
,,,-2.75000000e-010,-2.79375020e-003
,,,-2.50000000e-010,-3.00000021e-003
,,,-2.25000000e-010,-3.21406273e-003
,,,-2.00000000e-010,-3.43437524e-003
,,,-1.75000000e-010,-3.66015651e-003
,,,-1.50000000e-010,-3.88906278e-003
,,,-1.25000000e-010,-4.11953154e-003
,,,-1.00000000e-010,-4.35000031e-003
,,,-7.50000000e-011,-4.57734407e-003
,,,-5.00000000e-011,-4.80000034e-003
,,,-2.50000000e-011,-5.00390660e-003
,,,0.00000000e+000,-5.20390662e-003
,,,2.50000000e-011,-5.39687538e-003
,,,5.00000000e-011,-5.58281290e-003
,,,7.50000000e-011,-5.75781291e-003
,,,1.00000000e-010,-5.91953167e-003
,,,1.25000000e-010,-6.06718793e-003
,,,1.50000000e-010,-6.20000044e-003
,,,1.75000000e-010,-6.29140670e-003
,,,2.00000000e-010,-6.37421920e-003
,,,2.25000000e-010,-6.45078171e-003
,,,2.50000000e-010,-6.52421921e-003
,,,2.75000000e-010,-6.59531297e-003
,,,3.00000000e-010,-6.66484422e-003
,,,3.25000000e-010,-6.73359423e-003
,,,3.50000000e-010,-6.80000048e-003
,,,3.75000000e-010,-6.83281298e-003
,,,4.00000000e-010,-6.86718799e-003
,,,4.25000000e-010,-6.90156299e-003
,,,4.50000000e-010,-6.93515674e-003
,,,4.75000000e-010,-6.96484424e-003
,,,5.00000000e-010,-6.98750049e-003
,,,5.25000000e-010,-7.00000050e-003
,,,5.50000000e-010,-7.00000050e-003
,,,5.75000000e-010,-6.95156299e-003
,,,6.00000000e-010,-6.89687549e-003
,,,6.25000000e-010,-6.83750048e-003
,,,6.50000000e-010,-6.77890673e-003
,,,6.75000000e-010,-6.72343798e-003
,,,7.00000000e-010,-6.67343797e-003
,,,7.25000000e-010,-6.63203172e-003
,,,7.50000000e-010,-6.60000047e-003
,,,7.75000000e-010,-6.54687546e-003
,,,8.00000000e-010,-6.50546921e-003
,,,8.25000000e-010,-6.47421921e-003
,,,8.50000000e-010,-6.45234421e-003
,,,8.75000000e-010,-6.43671921e-003
,,,9.00000000e-010,-6.42500045e-003
,,,9.25000000e-010,-6.41406295e-003
,,,9.50000000e-010,-6.40000045e-003
,,,9.75000000e-010,-6.35625045e-003
,,,1.00000000e-009,-6.30625045e-003
,,,1.02500000e-009,-6.25234419e-003
,,,1.05000000e-009,-6.19687544e-003
,,,1.07500000e-009,-6.14140668e-003
,,,1.10000000e-009,-6.08984418e-003
,,,1.12500000e-009,-6.04218793e-003
,,,1.15000000e-009,-6.00000042e-003
,,,1.17500000e-009,-5.93984417e-003
,,,1.20000000e-009,-5.87890667e-003
,,,1.22500000e-009,-5.81484416e-003
,,,1.25000000e-009,-5.74687541e-003
,,,1.27500000e-009,-5.67343790e-003
,,,1.30000000e-009,-5.59218790e-003
,,,1.32500000e-009,-5.50156289e-003
,,,1.35000000e-009,-5.40000038e-003
,,,1.37500000e-009,-5.27265662e-003
,,,1.40000000e-009,-5.13203161e-003
,,,1.42500000e-009,-4.97968785e-003
,,,1.45000000e-009,-4.81953159e-003
,,,1.47500000e-009,-4.65781283e-003
,,,1.50000000e-009,-4.49765657e-003
,,,1.52500000e-009,-4.34375031e-003
,,,1.55000000e-009,-4.20000030e-003
,,,1.57500000e-009,-4.06328154e-003
,,,1.60000000e-009,-3.93671903e-003
,,,1.62500000e-009,-3.82109402e-003
,,,1.65000000e-009,-3.71640651e-003
,,,1.67500000e-009,-3.62343776e-003
,,,1.70000000e-009,-3.54140650e-003
,,,1.72500000e-009,-3.46718775e-003
,,,1.75000000e-009,-3.40000024e-003
,,,1.77500000e-009,-3.33281274e-003
,,,1.80000000e-009,-3.25937523e-003
,,,1.82500000e-009,-3.17734397e-003
,,,1.85000000e-009,-3.08359397e-003
,,,1.87500000e-009,-2.97890646e-003
,,,1.90000000e-009,-2.86171895e-003
,,,1.92500000e-009,-2.73515644e-003
,,,1.95000000e-009,-2.60000018e-003
,,,1.97500000e-009,-2.46406267e-003
,,,2.00000000e-009,-2.32187516e-003
,,,2.02500000e-009,-2.17812515e-003
,,,2.05000000e-009,-2.03671889e-003
,,,2.07500000e-009,-1.90390638e-003
,,,2.10000000e-009,-1.78359388e-003
,,,2.12500000e-009,-1.68203137e-003
,,,2.15000000e-009,-1.60000011e-003
,,,2.17500000e-009,-1.54921886e-003
,,,2.20000000e-009,-1.51250011e-003
,,,2.22500000e-009,-1.48671886e-003
,,,2.25000000e-009,-1.46796885e-003
,,,2.27500000e-009,-1.45390635e-003
,,,2.30000000e-009,-1.44062510e-003
,,,2.32500000e-009,-1.42343760e-003
,,,2.35000000e-009,-1.40000010e-003
,,,2.37500000e-009,-1.37812510e-003
,,,2.40000000e-009,-1.33906259e-003
,,,2.42500000e-009,-1.28203134e-003
,,,2.45000000e-009,-1.20781259e-003
,,,2.47500000e-009,-1.11796883e-003
,,,2.50000000e-009,-1.01718757e-003
,,,2.52500000e-009,-9.09375064e-004
,,,2.55000000e-009,-8.00000057e-004
,,,2.57500000e-009,-7.06250050e-004
,,,2.60000000e-009,-6.18750044e-004
,,,2.62500000e-009,-5.40625038e-004
,,,2.65000000e-009,-4.75781284e-004
,,,2.67500000e-009,-4.28125030e-004
,,,2.70000000e-009,-3.99218778e-004
,,,2.72500000e-009,-3.89843778e-004
,,,2.75000000e-009,-4.00000028e-004
,,,2.77500000e-009,-4.36718781e-004
,,,2.80000000e-009,-4.81250034e-004
,,,2.82500000e-009,-5.27343787e-004
,,,2.85000000e-009,-5.68750040e-004
,,,2.87500000e-009,-6.00781293e-004
,,,2.90000000e-009,-6.17968794e-004
,,,2.92500000e-009,-6.17968794e-004
,,,2.95000000e-009,-6.00000042e-004
,,,2.97500000e-009,-5.68750040e-004
,,,3.00000000e-009,-5.20312537e-004
,,,3.02500000e-009,-4.58593782e-004
,,,3.05000000e-009,-3.91406278e-004
,,,3.07500000e-009,-3.25000023e-004
,,,3.10000000e-009,-2.66406269e-004
,,,3.12500000e-009,-2.22656266e-004
,,,3.15000000e-009,-2.00000014e-004
,,,3.17500000e-009,-2.04687514e-004
,,,3.20000000e-009,-2.30468766e-004
,,,3.22500000e-009,-2.75000019e-004
,,,3.25000000e-009,-3.33593774e-004
,,,3.27500000e-009,-4.01562528e-004
,,,3.30000000e-009,-4.71875033e-004
,,,3.32500000e-009,-5.39843788e-004
,,,3.35000000e-009,-6.00000042e-004
,,,3.37500000e-009,-6.46875046e-004
,,,3.40000000e-009,-6.78125048e-004
,,,3.42500000e-009,-6.92187549e-004
,,,3.45000000e-009,-6.90625049e-004
,,,3.47500000e-009,-6.77343798e-004
,,,3.50000000e-009,-6.55468796e-004
,,,3.52500000e-009,-6.28906295e-004
,,,3.55000000e-009,-6.00000042e-004
,,,3.57500000e-009,-5.69531290e-004
,,,3.60000000e-009,-5.41406288e-004
,,,3.62500000e-009,-5.15625036e-004
,,,3.65000000e-009,-4.91406285e-004
,,,3.67500000e-009,-4.69531283e-004
,,,3.70000000e-009,-4.47656282e-004
,,,3.72500000e-009,-4.24218780e-004
,,,3.75000000e-009,-4.00000028e-004
,,,3.77500000e-009,-3.71093776e-004
,,,3.80000000e-009,-3.40625024e-004
,,,3.82500000e-009,-3.09375022e-004
,,,3.85000000e-009,-2.78906270e-004
,,,3.87500000e-009,-2.51562518e-004
,,,3.90000000e-009,-2.28125016e-004
,,,3.92500000e-009,-2.10937515e-004
,,,3.95000000e-009,-2.00000014e-004
,,,3.97500000e-009,-1.96093764e-004
,,,4.00000000e-009,-1.97656264e-004
,,,4.02500000e-009,-2.02343764e-004
,,,4.05000000e-009,-2.08593765e-004
,,,4.07500000e-009,-2.12500015e-004
,,,4.10000000e-009,-2.14062515e-004
,,,4.12500000e-009,-2.10156265e-004
,,,4.15000000e-009,-2.00000014e-004
,,,4.17500000e-009,-1.82812513e-004
,,,4.20000000e-009,-1.60156261e-004
,,,4.22500000e-009,-1.32812509e-004
,,,4.25000000e-009,-1.03125007e-004
,,,4.27500000e-009,-7.26562551e-005
,,,4.30000000e-009,-4.45312532e-005
,,,4.32500000e-009,-1.95312514e-005
,,,4.35000000e-009,0.00000000e+000
,,,4.37500000e-009,1.09375008e-005
,,,4.40000000e-009,1.71875012e-005
,,,4.42500000e-009,1.79687513e-005
,,,4.45000000e-009,1.56250011e-005
,,,4.47500000e-009,1.09375008e-005
,,,4.50000000e-009,6.25000044e-006
,,,4.52500000e-009,2.34375017e-006
,,,4.55000000e-009,0.00000000e+000
,,,4.57500000e-009,-2.34375017e-006
,,,4.60000000e-009,-1.56250011e-006
,,,4.62500000e-009,0.00000000e+000
,,,4.65000000e-009,3.90625028e-006
,,,4.67500000e-009,7.03125050e-006
,,,4.70000000e-009,8.59375061e-006
,,,4.72500000e-009,6.25000044e-006
,,,4.75000000e-009,0.00000000e+000
,,,4.77500000e-009,-1.32812509e-005
,,,4.80000000e-009,-3.28125023e-005
,,,4.82500000e-009,-5.62500040e-005
,,,4.85000000e-009,-8.35937559e-005
,,,4.87500000e-009,-1.12500008e-004
,,,4.90000000e-009,-1.42968760e-004
,,,4.92500000e-009,-1.72656262e-004
,,,4.95000000e-009,-2.00000014e-004
,,,4.97500000e-009,-2.21875016e-004
,,,5.00000000e-009,-2.37500017e-004
,,,5.02500000e-009,-2.47656268e-004
,,,5.05000000e-009,-2.50781268e-004
,,,5.07500000e-009,-2.46875017e-004
,,,5.10000000e-009,-2.36718767e-004
,,,5.12500000e-009,-2.21093766e-004
,,,5.15000000e-009,-2.00000014e-004
,,,5.17500000e-009,-1.73437512e-004
,,,5.20000000e-009,-1.45312510e-004
,,,5.22500000e-009,-1.16406258e-004
,,,5.25000000e-009,-8.75000062e-005
,,,5.27500000e-009,-6.01562543e-005
,,,5.30000000e-009,-3.59375025e-005
,,,5.32500000e-009,-1.56250011e-005
,,,5.35000000e-009,0.00000000e+000
,,,5.37500000e-009,1.01562507e-005
,,,5.40000000e-009,1.56250011e-005
,,,5.42500000e-009,1.71875012e-005
,,,5.45000000e-009,1.56250011e-005
,,,5.47500000e-009,1.25000009e-005
,,,5.50000000e-009,7.81250055e-006
,,,5.52500000e-009,3.12500022e-006
,,,5.55000000e-009,0.00000000e+000
,,,5.57500000e-009,-3.90625028e-006
,,,5.60000000e-009,-6.25000044e-006
,,,5.62500000e-009,-7.81250055e-006
,,,5.65000000e-009,-7.03125050e-006
,,,5.67500000e-009,-6.25000044e-006
,,,5.70000000e-009,-3.90625028e-006
,,,5.72500000e-009,-1.56250011e-006
,,,5.75000000e-009,0.00000000e+000
,,,5.77500000e-009,-7.81250055e-007
,,,5.80000000e-009,-2.34375017e-006
,,,5.82500000e-009,-4.68750033e-006
,,,5.85000000e-009,-6.25000044e-006
,,,5.87500000e-009,-7.81250055e-006
,,,5.90000000e-009,-7.03125050e-006
