RawData/SinglePhotoelectron/R7_2pt2B_5mV/wave013_Ch2.csv

"Record Length",1000,"Points",-7.72500000e-009,-2.05468765e-004
"Sample Interval",2.50000000e-011,s,-7.70000000e-009,-2.04687514e-004
"Trigger Point",309,"Samples",-7.67500000e-009,-2.00000014e-004
"Trigger Time",5.82147059e-012,s,-7.65000000e-009,-1.92968764e-004
"",,,-7.62500000e-009,-1.86718763e-004
"Horizontal Offset",-7.72500000e-009,s,-7.60000000e-009,-1.84375013e-004
,,,-7.57500000e-009,-1.88281263e-004
,,,-7.55000000e-009,-2.00000014e-004
,,,-7.52500000e-009,-2.16406265e-004
,,,-7.50000000e-009,-2.40625017e-004
,,,-7.47500000e-009,-2.71093769e-004
,,,-7.45000000e-009,-3.03906272e-004
,,,-7.42500000e-009,-3.35937524e-004
,,,-7.40000000e-009,-3.64843776e-004
,,,-7.37500000e-009,-3.86718777e-004
,,,-7.35000000e-009,-4.00000028e-004
,,,-7.32500000e-009,-3.96875028e-004
,,,-7.30000000e-009,-3.83593777e-004
,,,-7.27500000e-009,-3.60937526e-004
,,,-7.25000000e-009,-3.32031274e-004
,,,-7.22500000e-009,-2.98437521e-004
,,,-7.20000000e-009,-2.64062519e-004
,,,-7.17500000e-009,-2.30468766e-004
,,,-7.15000000e-009,-2.00000014e-004
,,,-7.12500000e-009,-1.71093762e-004
,,,-7.10000000e-009,-1.46093760e-004
,,,-7.07500000e-009,-1.24218759e-004
,,,-7.05000000e-009,-1.03906257e-004
,,,-7.02500000e-009,-8.28125059e-005
,,,-7.00000000e-009,-5.93750042e-005
,,,-6.97500000e-009,-3.20312523e-005
,,,-6.95000000e-009,0.00000000e+000
,,,-6.92500000e-009,3.67187526e-005
,,,-6.90000000e-009,7.65625054e-005
,,,-6.87500000e-009,1.14843758e-004
,,,-6.85000000e-009,1.50781261e-004
,,,-6.82500000e-009,1.79687513e-004
,,,-6.80000000e-009,1.98437514e-004
,,,-6.77500000e-009,2.05468765e-004
,,,-6.75000000e-009,2.00000014e-004
,,,-6.72500000e-009,1.79687513e-004
,,,-6.70000000e-009,1.50781261e-004
,,,-6.67500000e-009,1.15625008e-004
,,,-6.65000000e-009,7.89062556e-005
,,,-6.62500000e-009,4.53125032e-005
,,,-6.60000000e-009,1.87500013e-005
,,,-6.57500000e-009,2.34375017e-006
,,,-6.55000000e-009,0.00000000e+000
,,,-6.52500000e-009,9.37500066e-006
,,,-6.50000000e-009,3.04687522e-005
,,,-6.47500000e-009,6.09375043e-005
,,,-6.45000000e-009,9.68750069e-005
,,,-6.42500000e-009,1.32812509e-004
,,,-6.40000000e-009,1.64843762e-004
,,,-6.37500000e-009,1.88281263e-004
,,,-6.35000000e-009,2.00000014e-004
,,,-6.32500000e-009,1.94531264e-004
,,,-6.30000000e-009,1.77343763e-004
,,,-6.27500000e-009,1.50781261e-004
,,,-6.25000000e-009,1.16406258e-004
,,,-6.22500000e-009,8.04687557e-005
,,,-6.20000000e-009,4.60937533e-005
,,,-6.17500000e-009,1.79687513e-005
,,,-6.15000000e-009,0.00000000e+000
,,,-6.12500000e-009,-9.37500066e-006
,,,-6.10000000e-009,-5.46875039e-006
,,,-6.07500000e-009,1.01562507e-005
,,,-6.05000000e-009,3.75000027e-005
,,,-6.02500000e-009,7.34375052e-005
,,,-6.00000000e-009,1.14843758e-004
,,,-5.97500000e-009,1.57812511e-004
,,,-5.95000000e-009,2.00000014e-004
,,,-5.92500000e-009,2.32031266e-004
,,,-5.90000000e-009,2.57031268e-004
,,,-5.87500000e-009,2.71093769e-004
,,,-5.85000000e-009,2.75781270e-004
,,,-5.82500000e-009,2.69531269e-004
,,,-5.80000000e-009,2.53906268e-004
,,,-5.77500000e-009,2.29687516e-004
,,,-5.75000000e-009,2.00000014e-004
,,,-5.72500000e-009,1.62500012e-004
,,,-5.70000000e-009,1.25000009e-004
,,,-5.67500000e-009,8.82812562e-005
,,,-5.65000000e-009,5.62500040e-005
,,,-5.62500000e-009,2.96875021e-005
,,,-5.60000000e-009,1.09375008e-005
,,,-5.57500000e-009,1.56250011e-006
,,,-5.55000000e-009,0.00000000e+000
,,,-5.52500000e-009,3.90625028e-006
,,,-5.50000000e-009,1.32812509e-005
,,,-5.47500000e-009,2.50000018e-005
,,,-5.45000000e-009,3.43750024e-005
,,,-5.42500000e-009,3.98437528e-005
,,,-5.40000000e-009,3.67187526e-005
,,,-5.37500000e-009,2.42187517e-005
,,,-5.35000000e-009,0.00000000e+000
,,,-5.32500000e-009,-3.59375025e-005
,,,-5.30000000e-009,-8.20312558e-005
,,,-5.27500000e-009,-1.36718760e-004
,,,-5.25000000e-009,-1.95312514e-004
,,,-5.22500000e-009,-2.54687518e-004
,,,-5.20000000e-009,-3.10937522e-004
,,,-5.17500000e-009,-3.60156275e-004
,,,-5.15000000e-009,-4.00000028e-004
,,,-5.12500000e-009,-4.25000030e-004
,,,-5.10000000e-009,-4.39843781e-004
,,,-5.07500000e-009,-4.43750031e-004
,,,-5.05000000e-009,-4.39843781e-004
,,,-5.02500000e-009,-4.30468780e-004
,,,-5.00000000e-009,-4.18750030e-004
,,,-4.97500000e-009,-4.07812529e-004
,,,-4.95000000e-009,-4.00000028e-004
,,,-4.92500000e-009,-3.91406278e-004
,,,-4.90000000e-009,-3.87500027e-004
,,,-4.87500000e-009,-3.88281277e-004
,,,-4.85000000e-009,-3.92968778e-004
,,,-4.82500000e-009,-3.97656278e-004
,,,-4.80000000e-009,-4.02343778e-004
,,,-4.77500000e-009,-4.03125029e-004
,,,-4.75000000e-009,-4.00000028e-004
,,,-4.72500000e-009,-3.85156277e-004
,,,-4.70000000e-009,-3.65625026e-004
,,,-4.67500000e-009,-3.40625024e-004
,,,-4.65000000e-009,-3.12500022e-004
,,,-4.62500000e-009,-2.82031270e-004
,,,-4.60000000e-009,-2.52343768e-004
,,,-4.57500000e-009,-2.24218766e-004
,,,-4.55000000e-009,-2.00000014e-004
,,,-4.52500000e-009,-1.78906263e-004
,,,-4.50000000e-009,-1.64843762e-004
,,,-4.47500000e-009,-1.57812511e-004
,,,-4.45000000e-009,-1.57031261e-004
,,,-4.42500000e-009,-1.61718761e-004
,,,-4.40000000e-009,-1.71875012e-004
,,,-4.37500000e-009,-1.85156263e-004
,,,-4.35000000e-009,-2.00000014e-004
,,,-4.32500000e-009,-2.12500015e-004
,,,-4.30000000e-009,-2.23437516e-004
,,,-4.27500000e-009,-2.31250016e-004
,,,-4.25000000e-009,-2.35156267e-004
,,,-4.22500000e-009,-2.34375017e-004
,,,-4.20000000e-009,-2.28125016e-004
,,,-4.17500000e-009,-2.16406265e-004
,,,-4.15000000e-009,-2.00000014e-004
,,,-4.12500000e-009,-1.78125013e-004
,,,-4.10000000e-009,-1.52343761e-004
,,,-4.07500000e-009,-1.24218759e-004
,,,-4.05000000e-009,-9.53125067e-005
,,,-4.02500000e-009,-6.71875048e-005
,,,-4.00000000e-009,-4.06250029e-005
,,,-3.97500000e-009,-1.79687513e-005
,,,-3.95000000e-009,0.00000000e+000
,,,-3.92500000e-009,1.17187508e-005
,,,-3.90000000e-009,1.79687513e-005
,,,-3.87500000e-009,2.10937515e-005
,,,-3.85000000e-009,2.03125014e-005
,,,-3.82500000e-009,1.64062512e-005
,,,-3.80000000e-009,1.09375008e-005
,,,-3.77500000e-009,5.46875039e-006
,,,-3.75000000e-009,0.00000000e+000
,,,-3.72500000e-009,-4.68750033e-006
,,,-3.70000000e-009,-7.81250055e-006
,,,-3.67500000e-009,-9.37500066e-006
,,,-3.65000000e-009,-8.59375061e-006
,,,-3.62500000e-009,-6.25000044e-006
,,,-3.60000000e-009,-3.90625028e-006
,,,-3.57500000e-009,-1.56250011e-006
,,,-3.55000000e-009,0.00000000e+000
,,,-3.52500000e-009,0.00000000e+000
,,,-3.50000000e-009,-7.81250055e-007
,,,-3.47500000e-009,-1.56250011e-006
,,,-3.45000000e-009,-3.12500022e-006
,,,-3.42500000e-009,-3.90625028e-006
,,,-3.40000000e-009,-3.90625028e-006
,,,-3.37500000e-009,-2.34375017e-006
,,,-3.35000000e-009,0.00000000e+000
,,,-3.32500000e-009,2.34375017e-006
,,,-3.30000000e-009,6.25000044e-006
,,,-3.27500000e-009,1.01562507e-005
,,,-3.25000000e-009,1.25000009e-005
,,,-3.22500000e-009,1.32812509e-005
,,,-3.20000000e-009,1.17187508e-005
,,,-3.17500000e-009,7.03125050e-006
,,,-3.15000000e-009,0.00000000e+000
,,,-3.12500000e-009,-8.59375061e-006
,,,-3.10000000e-009,-1.79687513e-005
,,,-3.07500000e-009,-2.65625019e-005
,,,-3.05000000e-009,-3.20312523e-005
,,,-3.02500000e-009,-3.35937524e-005
,,,-3.00000000e-009,-2.89062520e-005
,,,-2.97500000e-009,-1.71875012e-005
,,,-2.95000000e-009,0.00000000e+000
,,,-2.92500000e-009,2.34375017e-005
,,,-2.90000000e-009,5.23437537e-005
,,,-2.87500000e-009,8.35937559e-005
,,,-2.85000000e-009,1.15625008e-004
,,,-2.82500000e-009,1.45312510e-004
,,,-2.80000000e-009,1.71093762e-004
,,,-2.77500000e-009,1.89843763e-004
,,,-2.75000000e-009,2.00000014e-004
,,,-2.72500000e-009,2.00000014e-004
,,,-2.70000000e-009,1.91406264e-004
,,,-2.67500000e-009,1.72656262e-004
,,,-2.65000000e-009,1.46875010e-004
,,,-2.62500000e-009,1.14062508e-004
,,,-2.60000000e-009,7.65625054e-005
,,,-2.57500000e-009,3.75000027e-005
,,,-2.55000000e-009,0.00000000e+000
,,,-2.52500000e-009,-3.12500022e-005
,,,-2.50000000e-009,-5.54687539e-005
,,,-2.47500000e-009,-7.10937550e-005
,,,-2.45000000e-009,-7.65625054e-005
,,,-2.42500000e-009,-7.18750051e-005
,,,-2.40000000e-009,-5.62500040e-005
,,,-2.37500000e-009,-3.20312523e-005
,,,-2.35000000e-009,0.00000000e+000
,,,-2.32500000e-009,4.06250029e-005
,,,-2.30000000e-009,8.43750060e-005
,,,-2.27500000e-009,1.26562509e-004
,,,-2.25000000e-009,1.63281262e-004
,,,-2.22500000e-009,1.90625013e-004
,,,-2.20000000e-009,2.07031265e-004
,,,-2.17500000e-009,2.10156265e-004
,,,-2.15000000e-009,2.00000014e-004
,,,-2.12500000e-009,1.77343763e-004
,,,-2.10000000e-009,1.46875010e-004
,,,-2.07500000e-009,1.10156258e-004
,,,-2.05000000e-009,7.26562551e-005
,,,-2.02500000e-009,3.82812527e-005
,,,-2.00000000e-009,1.25000009e-005
,,,-1.97500000e-009,0.00000000e+000
,,,-1.95000000e-009,0.00000000e+000
,,,-1.92500000e-009,1.79687513e-005
,,,-1.90000000e-009,5.23437537e-005
,,,-1.87500000e-009,9.92187570e-005
,,,-1.85000000e-009,1.56250011e-004
,,,-1.82500000e-009,2.18750015e-004
,,,-1.80000000e-009,2.82812520e-004
,,,-1.77500000e-009,3.43750024e-004
,,,-1.75000000e-009,4.00000028e-004
,,,-1.72500000e-009,4.42968781e-004
,,,-1.70000000e-009,4.76562534e-004
,,,-1.67500000e-009,5.02343786e-004
,,,-1.65000000e-009,5.21875037e-004
,,,-1.62500000e-009,5.38281288e-004
,,,-1.60000000e-009,5.55468789e-004
,,,-1.57500000e-009,5.75000041e-004
,,,-1.55000000e-009,6.00000042e-004
,,,-1.52500000e-009,6.17968794e-004
,,,-1.50000000e-009,6.39843795e-004
,,,-1.47500000e-009,6.66406297e-004
,,,-1.45000000e-009,6.96093799e-004
,,,-1.42500000e-009,7.26562551e-004
,,,-1.40000000e-009,7.55468803e-004
,,,-1.37500000e-009,7.80468805e-004
,,,-1.35000000e-009,8.00000057e-004
,,,-1.32500000e-009,7.91406306e-004
,,,-1.30000000e-009,7.73437555e-004
,,,-1.27500000e-009,7.46875053e-004
,,,-1.25000000e-009,7.16406301e-004
,,,-1.22500000e-009,6.82812548e-004
,,,-1.20000000e-009,6.51562546e-004
,,,-1.17500000e-009,6.22656294e-004
,,,-1.15000000e-009,6.00000042e-004
,,,-1.12500000e-009,5.57812539e-004
,,,-1.10000000e-009,5.19531287e-004
,,,-1.07500000e-009,4.85937534e-004
,,,-1.05000000e-009,4.58593782e-004
,,,-1.02500000e-009,4.37500031e-004
,,,-1.00000000e-009,4.21875030e-004
,,,-9.75000000e-010,4.10156279e-004
,,,-9.50000000e-010,4.00000028e-004
,,,-9.25000000e-010,3.57812525e-004
,,,-9.00000000e-010,3.07031272e-004
,,,-8.75000000e-010,2.46875017e-004
,,,-8.50000000e-010,1.76562512e-004
,,,-8.25000000e-010,9.68750069e-005
,,,-8.00000000e-010,7.03125050e-006
,,,-7.75000000e-010,-9.14062565e-005
,,,-7.50000000e-010,-2.00000014e-004
,,,-7.25000000e-010,-3.39062524e-004
,,,-7.00000000e-010,-4.87500035e-004
,,,-6.75000000e-010,-6.43750046e-004
,,,-6.50000000e-010,-8.02343807e-004
,,,-6.25000000e-010,-9.59375068e-004
,,,-6.00000000e-010,-1.11250008e-003
,,,-5.75000000e-010,-1.25937509e-003
,,,-5.50000000e-010,-1.40000010e-003
,,,-5.25000000e-010,-1.54375011e-003
,,,-5.00000000e-010,-1.68593762e-003
,,,-4.75000000e-010,-1.82890638e-003
,,,-4.50000000e-010,-1.97265639e-003
,,,-4.25000000e-010,-2.11953140e-003
,,,-4.00000000e-010,-2.27265641e-003
,,,-3.75000000e-010,-2.43203142e-003
,,,-3.50000000e-010,-2.60000018e-003
,,,-3.25000000e-010,-2.77578145e-003
,,,-3.00000000e-010,-2.96484396e-003
,,,-2.75000000e-010,-3.16484397e-003
,,,-2.50000000e-010,-3.37265649e-003
,,,-2.25000000e-010,-3.58437525e-003
,,,-2.00000000e-010,-3.79609402e-003
,,,-1.75000000e-010,-4.00234403e-003
,,,-1.50000000e-010,-4.20000030e-003
,,,-1.25000000e-010,-4.36796906e-003
,,,-1.00000000e-010,-4.52500032e-003
,,,-7.50000000e-011,-4.67031283e-003
,,,-5.00000000e-011,-4.80312534e-003
,,,-2.50000000e-011,-4.92265660e-003
,,,0.00000000e+000,-5.02890661e-003
,,,2.50000000e-011,-5.12109411e-003
,,,5.00000000e-011,-5.20000037e-003
,,,7.50000000e-011,-5.24218787e-003
,,,1.00000000e-010,-5.27812537e-003
,,,1.25000000e-010,-5.30937538e-003
,,,1.50000000e-010,-5.33593788e-003
,,,1.75000000e-010,-5.35937538e-003
,,,2.00000000e-010,-5.37812538e-003
,,,2.25000000e-010,-5.39140663e-003
,,,2.50000000e-010,-5.40000038e-003
,,,2.75000000e-010,-5.37656288e-003
,,,3.00000000e-010,-5.35703163e-003
,,,3.25000000e-010,-5.34218788e-003
,,,3.50000000e-010,-5.33593788e-003
,,,3.75000000e-010,-5.33828163e-003
,,,4.00000000e-010,-5.35078163e-003
,,,4.25000000e-010,-5.37187538e-003
,,,4.50000000e-010,-5.40000038e-003
,,,4.75000000e-010,-5.40546913e-003
,,,5.00000000e-010,-5.41562538e-003
,,,5.25000000e-010,-5.42734413e-003
,,,5.50000000e-010,-5.43671913e-003
,,,5.75000000e-010,-5.44218789e-003
,,,6.00000000e-010,-5.43906288e-003
,,,6.25000000e-010,-5.42578163e-003
,,,6.50000000e-010,-5.40000038e-003
,,,6.75000000e-010,-5.33750038e-003
,,,7.00000000e-010,-5.26796912e-003
,,,7.25000000e-010,-5.19687537e-003
,,,7.50000000e-010,-5.13046911e-003
,,,7.75000000e-010,-5.07343786e-003
,,,8.00000000e-010,-5.03046911e-003
,,,8.25000000e-010,-5.00625035e-003
,,,8.50000000e-010,-5.00000035e-003
,,,8.75000000e-010,-4.99140660e-003
,,,9.00000000e-010,-4.99531285e-003
,,,9.25000000e-010,-5.00781285e-003
,,,9.50000000e-010,-5.02343786e-003
,,,9.75000000e-010,-5.03593786e-003
,,,1.00000000e-009,-5.04062536e-003
,,,1.02500000e-009,-5.02968786e-003
,,,1.05000000e-009,-5.00000035e-003
,,,1.07500000e-009,-4.92968785e-003
,,,1.10000000e-009,-4.83359409e-003
,,,1.12500000e-009,-4.71562533e-003
,,,1.15000000e-009,-4.58125032e-003
,,,1.17500000e-009,-4.43593781e-003
,,,1.20000000e-009,-4.28593780e-003
,,,1.22500000e-009,-4.13906279e-003
,,,1.25000000e-009,-4.00000028e-003
,,,1.27500000e-009,-3.86093777e-003
,,,1.30000000e-009,-3.73437526e-003
,,,1.32500000e-009,-3.61953151e-003
,,,1.35000000e-009,-3.51718775e-003
,,,1.37500000e-009,-3.42656274e-003
,,,1.40000000e-009,-3.34531274e-003
,,,1.42500000e-009,-3.27109398e-003
,,,1.45000000e-009,-3.20000023e-003
,,,1.47500000e-009,-3.12500022e-003
,,,1.50000000e-009,-3.04296897e-003
,,,1.52500000e-009,-2.95312521e-003
,,,1.55000000e-009,-2.85546895e-003
,,,1.57500000e-009,-2.74921894e-003
,,,1.60000000e-009,-2.63671894e-003
,,,1.62500000e-009,-2.51953143e-003
,,,1.65000000e-009,-2.40000017e-003
,,,1.67500000e-009,-2.28125016e-003
,,,1.70000000e-009,-2.16171890e-003
,,,1.72500000e-009,-2.04375014e-003
,,,1.75000000e-009,-1.93281264e-003
,,,1.77500000e-009,-1.82968763e-003
,,,1.80000000e-009,-1.73984387e-003
,,,1.82500000e-009,-1.66250012e-003
,,,1.85000000e-009,-1.60000011e-003
,,,1.87500000e-009,-1.55703136e-003
,,,1.90000000e-009,-1.51953136e-003
,,,1.92500000e-009,-1.48281260e-003
,,,1.95000000e-009,-1.44375010e-003
,,,1.97500000e-009,-1.39765635e-003
,,,2.00000000e-009,-1.34296885e-003
,,,2.02500000e-009,-1.27656259e-003
,,,2.05000000e-009,-1.20000008e-003
,,,2.07500000e-009,-1.12343758e-003
,,,2.10000000e-009,-1.03593757e-003
,,,2.12500000e-009,-9.42187567e-004
,,,2.15000000e-009,-8.48437560e-004
,,,2.17500000e-009,-7.61718804e-004
,,,2.20000000e-009,-6.88281299e-004
,,,2.22500000e-009,-6.33593795e-004
,,,2.25000000e-009,-6.00000042e-004
,,,2.27500000e-009,-5.99218792e-004
,,,2.30000000e-009,-6.11718793e-004
,,,2.32500000e-009,-6.32031295e-004
,,,2.35000000e-009,-6.52343796e-004
,,,2.37500000e-009,-6.64843797e-004
,,,2.40000000e-009,-6.63281297e-004
,,,2.42500000e-009,-6.42187545e-004
,,,2.45000000e-009,-6.00000042e-004
,,,2.47500000e-009,-5.43750038e-004
,,,2.50000000e-009,-4.67187533e-004
,,,2.52500000e-009,-3.75781277e-004
,,,2.55000000e-009,-2.76562520e-004
,,,2.57500000e-009,-1.80468763e-004
,,,2.60000000e-009,-9.76562569e-005
,,,2.62500000e-009,-3.51562525e-005
,,,2.65000000e-009,0.00000000e+000
,,,2.67500000e-009,-4.68750033e-006
,,,2.70000000e-009,-3.59375025e-005
,,,2.72500000e-009,-8.82812562e-005
,,,2.75000000e-009,-1.54687511e-004
,,,2.77500000e-009,-2.27343766e-004
,,,2.80000000e-009,-2.96875021e-004
,,,2.82500000e-009,-3.56250025e-004
,,,2.85000000e-009,-4.00000028e-004
,,,2.87500000e-009,-4.26562530e-004
,,,2.90000000e-009,-4.30468780e-004
,,,2.92500000e-009,-4.12500029e-004
,,,2.95000000e-009,-3.77343777e-004
,,,2.97500000e-009,-3.32031274e-004
,,,3.00000000e-009,-2.82031270e-004
,,,3.02500000e-009,-2.35937517e-004
,,,3.05000000e-009,-2.00000014e-004
,,,3.07500000e-009,-1.81250013e-004
,,,3.10000000e-009,-1.78906263e-004
,,,3.12500000e-009,-1.92187514e-004
,,,3.15000000e-009,-2.19531266e-004
,,,3.17500000e-009,-2.57812518e-004
,,,3.20000000e-009,-3.03906272e-004
,,,3.22500000e-009,-3.52343775e-004
,,,3.25000000e-009,-4.00000028e-004
,,,3.27500000e-009,-4.40625031e-004
,,,3.30000000e-009,-4.71093783e-004
,,,3.32500000e-009,-4.89062535e-004
,,,3.35000000e-009,-4.94531285e-004
,,,3.37500000e-009,-4.86718784e-004
,,,3.40000000e-009,-4.66406283e-004
,,,3.42500000e-009,-4.36718781e-004
,,,3.45000000e-009,-4.00000028e-004
,,,3.47500000e-009,-3.57812525e-004
,,,3.50000000e-009,-3.15625022e-004
,,,3.52500000e-009,-2.75000019e-004
,,,3.55000000e-009,-2.40625017e-004
,,,3.57500000e-009,-2.14062515e-004
,,,3.60000000e-009,-1.97656264e-004
,,,3.62500000e-009,-1.92968764e-004
,,,3.65000000e-009,-2.00000014e-004
,,,3.67500000e-009,-2.16406265e-004
,,,3.70000000e-009,-2.41406267e-004
,,,3.72500000e-009,-2.73437519e-004
,,,3.75000000e-009,-3.07031272e-004
,,,3.77500000e-009,-3.39843774e-004
,,,3.80000000e-009,-3.68750026e-004
,,,3.82500000e-009,-3.89062528e-004
,,,3.85000000e-009,-4.00000028e-004
,,,3.87500000e-009,-3.97656278e-004
,,,3.90000000e-009,-3.85156277e-004
,,,3.92500000e-009,-3.62500026e-004
,,,3.95000000e-009,-3.32031274e-004
,,,3.97500000e-009,-2.97656271e-004
,,,4.00000000e-009,-2.61718769e-004
,,,4.02500000e-009,-2.28125016e-004
,,,4.05000000e-009,-2.00000014e-004
,,,4.07500000e-009,-1.78125013e-004
,,,4.10000000e-009,-1.64062512e-004
,,,4.12500000e-009,-1.57812511e-004
,,,4.15000000e-009,-1.59375011e-004
,,,4.17500000e-009,-1.66406262e-004
,,,4.20000000e-009,-1.76562512e-004
,,,4.22500000e-009,-1.88281263e-004
,,,4.25000000e-009,-2.00000014e-004
,,,4.27500000e-009,-2.09375015e-004
,,,4.30000000e-009,-2.16406265e-004
,,,4.32500000e-009,-2.19531266e-004
,,,4.35000000e-009,-2.19531266e-004
,,,4.37500000e-009,-2.16406265e-004
,,,4.40000000e-009,-2.10937515e-004
,,,4.42500000e-009,-2.05468765e-004
,,,4.45000000e-009,-2.00000014e-004
,,,4.47500000e-009,-1.95312514e-004
,,,4.50000000e-009,-1.92968764e-004
,,,4.52500000e-009,-1.92187514e-004
,,,4.55000000e-009,-1.92187514e-004
,,,4.57500000e-009,-1.92968764e-004
,,,4.60000000e-009,-1.95312514e-004
,,,4.62500000e-009,-1.97656264e-004
,,,4.65000000e-009,-2.00000014e-004
,,,4.67500000e-009,-2.01562514e-004
,,,4.70000000e-009,-2.02343764e-004
,,,4.72500000e-009,-2.03125014e-004
,,,4.75000000e-009,-2.03125014e-004
,,,4.77500000e-009,-2.02343764e-004
,,,4.80000000e-009,-2.01562514e-004
,,,4.82500000e-009,-2.00781264e-004
,,,4.85000000e-009,-2.00000014e-004
,,,4.87500000e-009,-1.98437514e-004
,,,4.90000000e-009,-1.97656264e-004
,,,4.92500000e-009,-1.96875014e-004
,,,4.95000000e-009,-1.96093764e-004
,,,4.97500000e-009,-1.96093764e-004
,,,5.00000000e-009,-1.96875014e-004
,,,5.02500000e-009,-1.97656264e-004
,,,5.05000000e-009,-2.00000014e-004
,,,5.07500000e-009,-2.00781264e-004
,,,5.10000000e-009,-2.02343764e-004
,,,5.12500000e-009,-2.03125014e-004
,,,5.15000000e-009,-2.03906264e-004
,,,5.17500000e-009,-2.03906264e-004
,,,5.20000000e-009,-2.03125014e-004
,,,5.22500000e-009,-2.01562514e-004
,,,5.25000000e-009,-2.00000014e-004
,,,5.27500000e-009,-1.96093764e-004
,,,5.30000000e-009,-1.92187514e-004
,,,5.32500000e-009,-1.89843763e-004
,,,5.35000000e-009,-1.87500013e-004
,,,5.37500000e-009,-1.87500013e-004
,,,5.40000000e-009,-1.89062513e-004
,,,5.42500000e-009,-1.93750014e-004
,,,5.45000000e-009,-2.00000014e-004
,,,5.47500000e-009,-2.06250015e-004
,,,5.50000000e-009,-2.13281265e-004
,,,5.52500000e-009,-2.19531266e-004
,,,5.55000000e-009,-2.23437516e-004
,,,5.57500000e-009,-2.24218766e-004
,,,5.60000000e-009,-2.21093766e-004
,,,5.62500000e-009,-2.13281265e-004
,,,5.65000000e-009,-2.00000014e-004
,,,5.67500000e-009,-1.81250013e-004
,,,5.70000000e-009,-1.57812511e-004
,,,5.72500000e-009,-1.31250009e-004
,,,5.75000000e-009,-1.03125007e-004
,,,5.77500000e-009,-7.42187553e-005
,,,5.80000000e-009,-4.60937533e-005
,,,5.82500000e-009,-2.10937515e-005
,,,5.85000000e-009,0.00000000e+000
,,,5.87500000e-009,1.40625010e-005
,,,5.90000000e-009,2.42187517e-005
,,,5.92500000e-009,2.81250020e-005
