RawData/SinglePhotoelectron/R7_2pt2B_5mV/wave031_Ch2.csv

"Record Length",1000,"Points",-7.72500000e-009,-3.79687527e-004
"Sample Interval",2.50000000e-011,s,-7.70000000e-009,-3.20312523e-004
"Trigger Point",309,"Samples",-7.67500000e-009,-2.59375018e-004
"Trigger Time",3.52530035e-012,s,-7.65000000e-009,-2.00000014e-004
"",,,-7.62500000e-009,-1.44531260e-004
"Horizontal Offset",-7.72500000e-009,s,-7.60000000e-009,-9.45312567e-005
,,,-7.57500000e-009,-5.23437537e-005
,,,-7.55000000e-009,-1.95312514e-005
,,,-7.52500000e-009,2.34375017e-006
,,,-7.50000000e-009,1.32812509e-005
,,,-7.47500000e-009,1.17187508e-005
,,,-7.45000000e-009,0.00000000e+000
,,,-7.42500000e-009,-2.50000018e-005
,,,-7.40000000e-009,-5.62500040e-005
,,,-7.37500000e-009,-8.98437564e-005
,,,-7.35000000e-009,-1.23437509e-004
,,,-7.32500000e-009,-1.53906261e-004
,,,-7.30000000e-009,-1.78125013e-004
,,,-7.27500000e-009,-1.93750014e-004
,,,-7.25000000e-009,-2.00000014e-004
,,,-7.22500000e-009,-1.95312514e-004
,,,-7.20000000e-009,-1.80468763e-004
,,,-7.17500000e-009,-1.57031261e-004
,,,-7.15000000e-009,-1.27343759e-004
,,,-7.12500000e-009,-9.29687566e-005
,,,-7.10000000e-009,-5.85937541e-005
,,,-7.07500000e-009,-2.65625019e-005
,,,-7.05000000e-009,0.00000000e+000
,,,-7.02500000e-009,1.79687513e-005
,,,-7.00000000e-009,2.96875021e-005
,,,-6.97500000e-009,3.43750024e-005
,,,-6.95000000e-009,3.28125023e-005
,,,-6.92500000e-009,2.73437519e-005
,,,-6.90000000e-009,1.87500013e-005
,,,-6.87500000e-009,9.37500066e-006
,,,-6.85000000e-009,0.00000000e+000
,,,-6.82500000e-009,-1.09375008e-005
,,,-6.80000000e-009,-1.87500013e-005
,,,-6.77500000e-009,-2.26562516e-005
,,,-6.75000000e-009,-2.26562516e-005
,,,-6.72500000e-009,-1.95312514e-005
,,,-6.70000000e-009,-1.40625010e-005
,,,-6.67500000e-009,-7.03125050e-006
,,,-6.65000000e-009,0.00000000e+000
,,,-6.62500000e-009,5.46875039e-006
,,,-6.60000000e-009,1.09375008e-005
,,,-6.57500000e-009,1.40625010e-005
,,,-6.55000000e-009,1.48437511e-005
,,,-6.52500000e-009,1.40625010e-005
,,,-6.50000000e-009,1.09375008e-005
,,,-6.47500000e-009,5.46875039e-006
,,,-6.45000000e-009,0.00000000e+000
,,,-6.42500000e-009,-7.03125050e-006
,,,-6.40000000e-009,-1.40625010e-005
,,,-6.37500000e-009,-1.95312514e-005
,,,-6.35000000e-009,-2.26562516e-005
,,,-6.32500000e-009,-2.26562516e-005
,,,-6.30000000e-009,-1.87500013e-005
,,,-6.27500000e-009,-1.09375008e-005
,,,-6.25000000e-009,0.00000000e+000
,,,-6.22500000e-009,1.17187508e-005
,,,-6.20000000e-009,2.50000018e-005
,,,-6.17500000e-009,3.59375025e-005
,,,-6.15000000e-009,4.29687530e-005
,,,-6.12500000e-009,4.45312532e-005
,,,-6.10000000e-009,3.82812527e-005
,,,-6.07500000e-009,2.34375017e-005
,,,-6.05000000e-009,0.00000000e+000
,,,-6.02500000e-009,-3.12500022e-005
,,,-6.00000000e-009,-6.87500049e-005
,,,-5.97500000e-009,-1.07031258e-004
,,,-5.95000000e-009,-1.42968760e-004
,,,-5.92500000e-009,-1.73437512e-004
,,,-5.90000000e-009,-1.94531264e-004
,,,-5.87500000e-009,-2.03906264e-004
,,,-5.85000000e-009,-2.00000014e-004
,,,-5.82500000e-009,-1.82031263e-004
,,,-5.80000000e-009,-1.54687511e-004
,,,-5.77500000e-009,-1.20312509e-004
,,,-5.75000000e-009,-8.35937559e-005
,,,-5.72500000e-009,-4.92187535e-005
,,,-5.70000000e-009,-2.10937515e-005
,,,-5.67500000e-009,-3.90625028e-006
,,,-5.65000000e-009,0.00000000e+000
,,,-5.62500000e-009,-8.59375061e-006
,,,-5.60000000e-009,-2.96875021e-005
,,,-5.57500000e-009,-6.01562543e-005
,,,-5.55000000e-009,-9.60937568e-005
,,,-5.52500000e-009,-1.32031259e-004
,,,-5.50000000e-009,-1.64062512e-004
,,,-5.47500000e-009,-1.87500013e-004
,,,-5.45000000e-009,-2.00000014e-004
,,,-5.42500000e-009,-1.96093764e-004
,,,-5.40000000e-009,-1.80468763e-004
,,,-5.37500000e-009,-1.53906261e-004
,,,-5.35000000e-009,-1.20312509e-004
,,,-5.32500000e-009,-8.35937559e-005
,,,-5.30000000e-009,-4.84375034e-005
,,,-5.27500000e-009,-1.95312514e-005
,,,-5.25000000e-009,0.00000000e+000
,,,-5.22500000e-009,7.81250055e-006
,,,-5.20000000e-009,3.12500022e-006
,,,-5.17500000e-009,-1.25000009e-005
,,,-5.15000000e-009,-4.06250029e-005
,,,-5.12500000e-009,-7.65625054e-005
,,,-5.10000000e-009,-1.17187508e-004
,,,-5.07500000e-009,-1.59375011e-004
,,,-5.05000000e-009,-2.00000014e-004
,,,-5.02500000e-009,-2.32031266e-004
,,,-5.00000000e-009,-2.56250018e-004
,,,-4.97500000e-009,-2.70312519e-004
,,,-4.95000000e-009,-2.75000019e-004
,,,-4.92500000e-009,-2.68750019e-004
,,,-4.90000000e-009,-2.53125018e-004
,,,-4.87500000e-009,-2.29687516e-004
,,,-4.85000000e-009,-2.00000014e-004
,,,-4.82500000e-009,-1.66406262e-004
,,,-4.80000000e-009,-1.31250009e-004
,,,-4.77500000e-009,-9.76562569e-005
,,,-4.75000000e-009,-6.71875048e-005
,,,-4.72500000e-009,-4.14062529e-005
,,,-4.70000000e-009,-2.10937515e-005
,,,-4.67500000e-009,-7.03125050e-006
,,,-4.65000000e-009,0.00000000e+000
,,,-4.62500000e-009,0.00000000e+000
,,,-4.60000000e-009,-2.34375017e-006
,,,-4.57500000e-009,-8.59375061e-006
,,,-4.55000000e-009,-1.48437511e-005
,,,-4.52500000e-009,-1.95312514e-005
,,,-4.50000000e-009,-1.87500013e-005
,,,-4.47500000e-009,-1.25000009e-005
,,,-4.45000000e-009,0.00000000e+000
,,,-4.42500000e-009,1.79687513e-005
,,,-4.40000000e-009,4.21875030e-005
,,,-4.37500000e-009,7.10937550e-005
,,,-4.35000000e-009,1.03125007e-004
,,,-4.32500000e-009,1.33593759e-004
,,,-4.30000000e-009,1.62500012e-004
,,,-4.27500000e-009,1.85156263e-004
,,,-4.25000000e-009,2.00000014e-004
,,,-4.22500000e-009,2.01562514e-004
,,,-4.20000000e-009,1.92968764e-004
,,,-4.17500000e-009,1.75000012e-004
,,,-4.15000000e-009,1.48437511e-004
,,,-4.12500000e-009,1.15625008e-004
,,,-4.10000000e-009,7.81250055e-005
,,,-4.07500000e-009,3.90625028e-005
,,,-4.05000000e-009,0.00000000e+000
,,,-4.02500000e-009,-4.06250029e-005
,,,-4.00000000e-009,-7.81250055e-005
,,,-3.97500000e-009,-1.10156258e-004
,,,-3.95000000e-009,-1.38281260e-004
,,,-3.92500000e-009,-1.60156261e-004
,,,-3.90000000e-009,-1.78125013e-004
,,,-3.87500000e-009,-1.90625013e-004
,,,-3.85000000e-009,-2.00000014e-004
,,,-3.82500000e-009,-2.06250015e-004
,,,-3.80000000e-009,-2.10156265e-004
,,,-3.77500000e-009,-2.11718765e-004
,,,-3.75000000e-009,-2.11718765e-004
,,,-3.72500000e-009,-2.10156265e-004
,,,-3.70000000e-009,-2.07031265e-004
,,,-3.67500000e-009,-2.03906264e-004
,,,-3.65000000e-009,-2.00000014e-004
,,,-3.62500000e-009,-1.94531264e-004
,,,-3.60000000e-009,-1.89843763e-004
,,,-3.57500000e-009,-1.86718763e-004
,,,-3.55000000e-009,-1.84375013e-004
,,,-3.52500000e-009,-1.84375013e-004
,,,-3.50000000e-009,-1.85937513e-004
,,,-3.47500000e-009,-1.91406264e-004
,,,-3.45000000e-009,-2.00000014e-004
,,,-3.42500000e-009,-2.10156265e-004
,,,-3.40000000e-009,-2.24218766e-004
,,,-3.37500000e-009,-2.42187517e-004
,,,-3.35000000e-009,-2.65625019e-004
,,,-3.32500000e-009,-2.92968771e-004
,,,-3.30000000e-009,-3.25000023e-004
,,,-3.27500000e-009,-3.60937526e-004
,,,-3.25000000e-009,-4.00000028e-004
,,,-3.22500000e-009,-4.33593781e-004
,,,-3.20000000e-009,-4.67187533e-004
,,,-3.17500000e-009,-4.99218785e-004
,,,-3.15000000e-009,-5.29687537e-004
,,,-3.12500000e-009,-5.55468789e-004
,,,-3.10000000e-009,-5.76562541e-004
,,,-3.07500000e-009,-5.91406292e-004
,,,-3.05000000e-009,-6.00000042e-004
,,,-3.02500000e-009,-5.93750042e-004
,,,-3.00000000e-009,-5.80468791e-004
,,,-2.97500000e-009,-5.60937540e-004
,,,-2.95000000e-009,-5.35156288e-004
,,,-2.92500000e-009,-5.04687536e-004
,,,-2.90000000e-009,-4.71093783e-004
,,,-2.87500000e-009,-4.35937531e-004
,,,-2.85000000e-009,-4.00000028e-004
,,,-2.82500000e-009,-3.60937526e-004
,,,-2.80000000e-009,-3.24218773e-004
,,,-2.77500000e-009,-2.91406271e-004
,,,-2.75000000e-009,-2.63281269e-004
,,,-2.72500000e-009,-2.40625017e-004
,,,-2.70000000e-009,-2.22656266e-004
,,,-2.67500000e-009,-2.09375015e-004
,,,-2.65000000e-009,-2.00000014e-004
,,,-2.62500000e-009,-1.89843763e-004
,,,-2.60000000e-009,-1.78906263e-004
,,,-2.57500000e-009,-1.66406262e-004
,,,-2.55000000e-009,-1.48437511e-004
,,,-2.52500000e-009,-1.24218759e-004
,,,-2.50000000e-009,-9.14062565e-005
,,,-2.47500000e-009,-5.00000035e-005
,,,-2.45000000e-009,0.00000000e+000
,,,-2.42500000e-009,5.70312540e-005
,,,-2.40000000e-009,1.18750008e-004
,,,-2.37500000e-009,1.82031263e-004
,,,-2.35000000e-009,2.42968767e-004
,,,-2.32500000e-009,2.98437521e-004
,,,-2.30000000e-009,3.44531274e-004
,,,-2.27500000e-009,3.78906277e-004
,,,-2.25000000e-009,4.00000028e-004
,,,-2.22500000e-009,4.00000028e-004
,,,-2.20000000e-009,3.87500027e-004
,,,-2.17500000e-009,3.64062526e-004
,,,-2.15000000e-009,3.32812524e-004
,,,-2.12500000e-009,2.96875021e-004
,,,-2.10000000e-009,2.60937518e-004
,,,-2.07500000e-009,2.27343766e-004
,,,-2.05000000e-009,2.00000014e-004
,,,-2.02500000e-009,1.75000012e-004
,,,-2.00000000e-009,1.60156261e-004
,,,-1.97500000e-009,1.54687511e-004
,,,-1.95000000e-009,1.57031261e-004
,,,-1.92500000e-009,1.64843762e-004
,,,-1.90000000e-009,1.75781262e-004
,,,-1.87500000e-009,1.88281263e-004
,,,-1.85000000e-009,2.00000014e-004
,,,-1.82500000e-009,2.04687514e-004
,,,-1.80000000e-009,2.07031265e-004
,,,-1.77500000e-009,2.07031265e-004
,,,-1.75000000e-009,2.04687514e-004
,,,-1.72500000e-009,2.01562514e-004
,,,-1.70000000e-009,1.99218764e-004
,,,-1.67500000e-009,1.98437514e-004
,,,-1.65000000e-009,2.00000014e-004
,,,-1.62500000e-009,1.99218764e-004
,,,-1.60000000e-009,2.01562514e-004
,,,-1.57500000e-009,2.05468765e-004
,,,-1.55000000e-009,2.09375015e-004
,,,-1.52500000e-009,2.11718765e-004
,,,-1.50000000e-009,2.11718765e-004
,,,-1.47500000e-009,2.08593765e-004
,,,-1.45000000e-009,2.00000014e-004
,,,-1.42500000e-009,1.76562512e-004
,,,-1.40000000e-009,1.47656260e-004
,,,-1.37500000e-009,1.15625008e-004
,,,-1.35000000e-009,8.35937559e-005
,,,-1.32500000e-009,5.31250038e-005
,,,-1.30000000e-009,2.81250020e-005
,,,-1.27500000e-009,1.01562507e-005
,,,-1.25000000e-009,0.00000000e+000
,,,-1.22500000e-009,-1.48437511e-005
,,,-1.20000000e-009,-2.42187517e-005
,,,-1.17500000e-009,-2.89062520e-005
,,,-1.15000000e-009,-2.96875021e-005
,,,-1.12500000e-009,-2.57812518e-005
,,,-1.10000000e-009,-1.87500013e-005
,,,-1.07500000e-009,-1.01562507e-005
,,,-1.05000000e-009,0.00000000e+000
,,,-1.02500000e-009,-1.01562507e-005
,,,-1.00000000e-009,-2.26562516e-005
,,,-9.75000000e-010,-3.59375025e-005
,,,-9.50000000e-010,-4.53125032e-005
,,,-9.25000000e-010,-4.84375034e-005
,,,-9.00000000e-010,-4.21875030e-005
,,,-8.75000000e-010,-2.50000018e-005
,,,-8.50000000e-010,0.00000000e+000
,,,-8.25000000e-010,2.34375017e-006
,,,-8.00000000e-010,2.34375017e-006
,,,-7.75000000e-010,-1.56250011e-006
,,,-7.50000000e-010,-1.40625010e-005
,,,-7.25000000e-010,-3.75000027e-005
,,,-7.00000000e-010,-7.34375052e-005
,,,-6.75000000e-010,-1.27343759e-004
,,,-6.50000000e-010,-2.00000014e-004
,,,-6.25000000e-010,-3.23437523e-004
,,,-6.00000000e-010,-4.71875033e-004
,,,-5.75000000e-010,-6.40625045e-004
,,,-5.50000000e-010,-8.25781308e-004
,,,-5.25000000e-010,-1.01953132e-003
,,,-5.00000000e-010,-1.21640634e-003
,,,-4.75000000e-010,-1.41093760e-003
,,,-4.50000000e-010,-1.60000011e-003
,,,-4.25000000e-010,-1.79765638e-003
,,,-4.00000000e-010,-1.98984389e-003
,,,-3.75000000e-010,-2.17421890e-003
,,,-3.50000000e-010,-2.35078142e-003
,,,-3.25000000e-010,-2.51953143e-003
,,,-3.00000000e-010,-2.68281269e-003
,,,-2.75000000e-010,-2.84140645e-003
,,,-2.50000000e-010,-3.00000021e-003
,,,-2.25000000e-010,-3.16562522e-003
,,,-2.00000000e-010,-3.34062524e-003
,,,-1.75000000e-010,-3.52734400e-003
,,,-1.50000000e-010,-3.72421901e-003
,,,-1.25000000e-010,-3.93203153e-003
,,,-1.00000000e-010,-4.14843779e-003
,,,-7.50000000e-011,-4.37187531e-003
,,,-5.00000000e-011,-4.60000033e-003
,,,-2.50000000e-011,-4.81875034e-003
,,,0.00000000e+000,-5.03984411e-003
,,,2.50000000e-011,-5.25937537e-003
,,,5.00000000e-011,-5.47421914e-003
,,,7.50000000e-011,-5.67890665e-003
,,,1.00000000e-010,-5.87031292e-003
,,,1.25000000e-010,-6.04453168e-003
,,,1.50000000e-010,-6.20000044e-003
,,,1.75000000e-010,-6.31015670e-003
,,,2.00000000e-010,-6.40625045e-003
,,,2.25000000e-010,-6.49062546e-003
,,,2.50000000e-010,-6.56484421e-003
,,,2.75000000e-010,-6.63203172e-003
,,,3.00000000e-010,-6.69296922e-003
,,,3.25000000e-010,-6.74843798e-003
,,,3.50000000e-010,-6.80000048e-003
,,,3.75000000e-010,-6.81562548e-003
,,,4.00000000e-010,-6.83515673e-003
,,,4.25000000e-010,-6.85937549e-003
,,,4.50000000e-010,-6.88750049e-003
,,,4.75000000e-010,-6.91875049e-003
,,,5.00000000e-010,-6.95000049e-003
,,,5.25000000e-010,-6.97734424e-003
,,,5.50000000e-010,-7.00000050e-003
,,,5.75000000e-010,-6.98203174e-003
,,,6.00000000e-010,-6.96015674e-003
,,,6.25000000e-010,-6.93593799e-003
,,,6.50000000e-010,-6.90937549e-003
,,,6.75000000e-010,-6.88203174e-003
,,,7.00000000e-010,-6.85390674e-003
,,,7.25000000e-010,-6.82656298e-003
,,,7.50000000e-010,-6.80000048e-003
,,,7.75000000e-010,-6.74453173e-003
,,,8.00000000e-010,-6.69453172e-003
,,,8.25000000e-010,-6.65312547e-003
,,,8.50000000e-010,-6.62187547e-003
,,,8.75000000e-010,-6.60156297e-003
,,,9.00000000e-010,-6.59140672e-003
,,,9.25000000e-010,-6.59218797e-003
,,,9.50000000e-010,-6.60000047e-003
,,,9.75000000e-010,-6.58359422e-003
,,,1.00000000e-009,-6.56875046e-003
,,,1.02500000e-009,-6.55234421e-003
,,,1.05000000e-009,-6.53437546e-003
,,,1.07500000e-009,-6.51171921e-003
,,,1.10000000e-009,-6.48281296e-003
,,,1.12500000e-009,-6.44609421e-003
,,,1.15000000e-009,-6.40000045e-003
,,,1.17500000e-009,-6.32031295e-003
,,,1.20000000e-009,-6.22812544e-003
,,,1.22500000e-009,-6.12656293e-003
,,,1.25000000e-009,-6.01875043e-003
,,,1.27500000e-009,-5.90937542e-003
,,,1.30000000e-009,-5.80078166e-003
,,,1.32500000e-009,-5.69765665e-003
,,,1.35000000e-009,-5.60000040e-003
,,,1.37500000e-009,-5.49375039e-003
,,,1.40000000e-009,-5.38984413e-003
,,,1.42500000e-009,-5.28984412e-003
,,,1.45000000e-009,-5.19218787e-003
,,,1.47500000e-009,-5.09609411e-003
,,,1.50000000e-009,-5.00000035e-003
,,,1.52500000e-009,-4.90156285e-003
,,,1.55000000e-009,-4.80000034e-003
,,,1.57500000e-009,-4.68203158e-003
,,,1.60000000e-009,-4.55234407e-003
,,,1.62500000e-009,-4.41171906e-003
,,,1.65000000e-009,-4.26015655e-003
,,,1.67500000e-009,-4.10078154e-003
,,,1.70000000e-009,-3.93593778e-003
,,,1.72500000e-009,-3.76796902e-003
,,,1.75000000e-009,-3.60000025e-003
,,,1.77500000e-009,-3.43203149e-003
,,,1.80000000e-009,-3.26484398e-003
,,,1.82500000e-009,-3.10000022e-003
,,,1.85000000e-009,-2.93984396e-003
,,,1.87500000e-009,-2.78828145e-003
,,,1.90000000e-009,-2.64687519e-003
,,,1.92500000e-009,-2.51640643e-003
,,,1.95000000e-009,-2.40000017e-003
,,,1.97500000e-009,-2.30312516e-003
,,,2.00000000e-009,-2.21406266e-003
,,,2.02500000e-009,-2.13125015e-003
,,,2.05000000e-009,-2.05390640e-003
,,,2.07500000e-009,-1.98281264e-003
,,,2.10000000e-009,-1.91640639e-003
,,,2.12500000e-009,-1.85546888e-003
,,,2.15000000e-009,-1.80000013e-003
,,,2.17500000e-009,-1.75859387e-003
,,,2.20000000e-009,-1.71484387e-003
,,,2.22500000e-009,-1.66718762e-003
,,,2.25000000e-009,-1.61640636e-003
,,,2.27500000e-009,-1.56250011e-003
,,,2.30000000e-009,-1.50781261e-003
,,,2.32500000e-009,-1.45312510e-003
,,,2.35000000e-009,-1.40000010e-003
,,,2.37500000e-009,-1.36015635e-003
,,,2.40000000e-009,-1.31796884e-003
,,,2.42500000e-009,-1.27187509e-003
,,,2.45000000e-009,-1.22187509e-003
,,,2.47500000e-009,-1.16875008e-003
,,,2.50000000e-009,-1.11406258e-003
,,,2.52500000e-009,-1.05703132e-003
,,,2.55000000e-009,-1.00000007e-003
,,,2.57500000e-009,-9.53125067e-004
,,,2.60000000e-009,-9.03906314e-004
,,,2.62500000e-009,-8.50781310e-004
,,,2.65000000e-009,-7.96093806e-004
,,,2.67500000e-009,-7.42187553e-004
,,,2.70000000e-009,-6.90625049e-004
,,,2.72500000e-009,-6.42187545e-004
,,,2.75000000e-009,-6.00000042e-004
,,,2.77500000e-009,-5.73437541e-004
,,,2.80000000e-009,-5.49218789e-004
,,,2.82500000e-009,-5.25000037e-004
,,,2.85000000e-009,-5.01562536e-004
,,,2.87500000e-009,-4.77343784e-004
,,,2.90000000e-009,-4.51562532e-004
,,,2.92500000e-009,-4.25781280e-004
,,,2.95000000e-009,-4.00000028e-004
,,,2.97500000e-009,-3.82031277e-004
,,,3.00000000e-009,-3.64843776e-004
,,,3.02500000e-009,-3.51562525e-004
,,,3.05000000e-009,-3.42187524e-004
,,,3.07500000e-009,-3.41406274e-004
,,,3.10000000e-009,-3.50000025e-004
,,,3.12500000e-009,-3.69531276e-004
,,,3.15000000e-009,-4.00000028e-004
,,,3.17500000e-009,-4.42968781e-004
,,,3.20000000e-009,-4.89062535e-004
,,,3.22500000e-009,-5.34375038e-004
,,,3.25000000e-009,-5.74218791e-004
,,,3.27500000e-009,-6.03125043e-004
,,,3.30000000e-009,-6.18750044e-004
,,,3.32500000e-009,-6.17968794e-004
,,,3.35000000e-009,-6.00000042e-004
,,,3.37500000e-009,-5.64843790e-004
,,,3.40000000e-009,-5.15625036e-004
,,,3.42500000e-009,-4.55468782e-004
,,,3.45000000e-009,-3.89843778e-004
,,,3.47500000e-009,-3.26562523e-004
,,,3.50000000e-009,-2.70312519e-004
,,,3.52500000e-009,-2.26562516e-004
,,,3.55000000e-009,-2.00000014e-004
,,,3.57500000e-009,-1.94531264e-004
,,,3.60000000e-009,-2.06250015e-004
,,,3.62500000e-009,-2.32031266e-004
,,,3.65000000e-009,-2.67187519e-004
,,,3.67500000e-009,-3.07031272e-004
,,,3.70000000e-009,-3.45312524e-004
,,,3.72500000e-009,-3.77343777e-004
,,,3.75000000e-009,-4.00000028e-004
,,,3.77500000e-009,-4.07812529e-004
,,,3.80000000e-009,-4.01562528e-004
,,,3.82500000e-009,-3.82031277e-004
,,,3.85000000e-009,-3.51562525e-004
,,,3.87500000e-009,-3.14062522e-004
,,,3.90000000e-009,-2.73437519e-004
,,,3.92500000e-009,-2.34375017e-004
,,,3.95000000e-009,-2.00000014e-004
,,,3.97500000e-009,-1.72656262e-004
,,,4.00000000e-009,-1.55468761e-004
,,,4.02500000e-009,-1.47656260e-004
,,,4.05000000e-009,-1.48437511e-004
,,,4.07500000e-009,-1.56250011e-004
,,,4.10000000e-009,-1.68750012e-004
,,,4.12500000e-009,-1.84375013e-004
,,,4.15000000e-009,-2.00000014e-004
,,,4.17500000e-009,-2.12500015e-004
,,,4.20000000e-009,-2.21875016e-004
,,,4.22500000e-009,-2.26562516e-004
,,,4.25000000e-009,-2.26562516e-004
,,,4.27500000e-009,-2.23437516e-004
,,,4.30000000e-009,-2.16406265e-004
,,,4.32500000e-009,-2.08593765e-004
,,,4.35000000e-009,-2.00000014e-004
,,,4.37500000e-009,-1.92968764e-004
,,,4.40000000e-009,-1.88281263e-004
,,,4.42500000e-009,-1.84375013e-004
,,,4.45000000e-009,-1.83593763e-004
,,,4.47500000e-009,-1.84375013e-004
,,,4.50000000e-009,-1.87500013e-004
,,,4.52500000e-009,-1.92968764e-004
,,,4.55000000e-009,-2.00000014e-004
,,,4.57500000e-009,-2.07031265e-004
,,,4.60000000e-009,-2.13281265e-004
,,,4.62500000e-009,-2.19531266e-004
,,,4.65000000e-009,-2.22656266e-004
,,,4.67500000e-009,-2.22656266e-004
,,,4.70000000e-009,-2.19531266e-004
,,,4.72500000e-009,-2.11718765e-004
,,,4.75000000e-009,-2.00000014e-004
,,,4.77500000e-009,-1.84375013e-004
,,,4.80000000e-009,-1.64843762e-004
,,,4.82500000e-009,-1.41406260e-004
,,,4.85000000e-009,-1.14843758e-004
,,,4.87500000e-009,-8.67187561e-005
,,,4.90000000e-009,-5.70312540e-005
,,,4.92500000e-009,-2.73437519e-005
,,,4.95000000e-009,0.00000000e+000
,,,4.97500000e-009,2.10937515e-005
,,,5.00000000e-009,3.75000027e-005
,,,5.02500000e-009,4.76562534e-005
,,,5.05000000e-009,5.15625036e-005
,,,5.07500000e-009,4.84375034e-005
,,,5.10000000e-009,3.82812527e-005
,,,5.12500000e-009,2.18750015e-005
,,,5.15000000e-009,0.00000000e+000
,,,5.17500000e-009,-2.81250020e-005
,,,5.20000000e-009,-5.85937541e-005
,,,5.22500000e-009,-8.98437564e-005
,,,5.25000000e-009,-1.20312509e-004
,,,5.27500000e-009,-1.47656260e-004
,,,5.30000000e-009,-1.70312512e-004
,,,5.32500000e-009,-1.87500013e-004
,,,5.35000000e-009,-2.00000014e-004
,,,5.37500000e-009,-2.05468765e-004
,,,5.40000000e-009,-2.07031265e-004
,,,5.42500000e-009,-2.03906264e-004
,,,5.45000000e-009,-2.00000014e-004
,,,5.47500000e-009,-1.95312514e-004
,,,5.50000000e-009,-1.92187514e-004
,,,5.52500000e-009,-1.93750014e-004
,,,5.55000000e-009,-2.00000014e-004
,,,5.57500000e-009,-2.10156265e-004
,,,5.60000000e-009,-2.27343766e-004
,,,5.62500000e-009,-2.49218768e-004
,,,5.65000000e-009,-2.75781270e-004
,,,5.67500000e-009,-3.05468772e-004
,,,5.70000000e-009,-3.37500024e-004
,,,5.72500000e-009,-3.69531276e-004
,,,5.75000000e-009,-4.00000028e-004
,,,5.77500000e-009,-4.24218780e-004
,,,5.80000000e-009,-4.42968781e-004
,,,5.82500000e-009,-4.54687532e-004
,,,5.85000000e-009,-4.59375033e-004
,,,5.87500000e-009,-4.55468782e-004
