RawData/SinglePhotoelectron/R7_2pt2B_5mV/wave008_Ch2.csv

"Record Length",1000,"Points",-7.72500000e-009,1.40625010e-005
"Sample Interval",2.50000000e-011,s,-7.70000000e-009,1.56250011e-005
"Trigger Point",309,"Samples",-7.67500000e-009,1.56250011e-005
"Trigger Time",1.49403980e-011,s,-7.65000000e-009,1.25000009e-005
"",,,-7.62500000e-009,7.03125050e-006
"Horizontal Offset",-7.72500000e-009,s,-7.60000000e-009,0.00000000e+000
,,,-7.57500000e-009,-1.09375008e-005
,,,-7.55000000e-009,-2.10937515e-005
,,,-7.52500000e-009,-2.96875021e-005
,,,-7.50000000e-009,-3.43750024e-005
,,,-7.47500000e-009,-3.43750024e-005
,,,-7.45000000e-009,-2.89062520e-005
,,,-7.42500000e-009,-1.71875012e-005
,,,-7.40000000e-009,0.00000000e+000
,,,-7.37500000e-009,1.87500013e-005
,,,-7.35000000e-009,3.82812527e-005
,,,-7.32500000e-009,5.54687539e-005
,,,-7.30000000e-009,6.71875048e-005
,,,-7.27500000e-009,6.95312549e-005
,,,-7.25000000e-009,6.01562543e-005
,,,-7.22500000e-009,3.67187526e-005
,,,-7.20000000e-009,0.00000000e+000
,,,-7.17500000e-009,-4.92187535e-005
,,,-7.15000000e-009,-1.08593758e-004
,,,-7.12500000e-009,-1.71875012e-004
,,,-7.10000000e-009,-2.36718767e-004
,,,-7.07500000e-009,-2.95312521e-004
,,,-7.05000000e-009,-3.44531274e-004
,,,-7.02500000e-009,-3.80468777e-004
,,,-7.00000000e-009,-4.00000028e-004
,,,-6.97500000e-009,-3.98437528e-004
,,,-6.95000000e-009,-3.81250027e-004
,,,-6.92500000e-009,-3.52343775e-004
,,,-6.90000000e-009,-3.15625022e-004
,,,-6.87500000e-009,-2.77343770e-004
,,,-6.85000000e-009,-2.42187517e-004
,,,-6.82500000e-009,-2.14843765e-004
,,,-6.80000000e-009,-2.00000014e-004
,,,-6.77500000e-009,-1.95312514e-004
,,,-6.75000000e-009,-2.05468765e-004
,,,-6.72500000e-009,-2.28125016e-004
,,,-6.70000000e-009,-2.60156268e-004
,,,-6.67500000e-009,-2.97656271e-004
,,,-6.65000000e-009,-3.36718774e-004
,,,-6.62500000e-009,-3.71875026e-004
,,,-6.60000000e-009,-4.00000028e-004
,,,-6.57500000e-009,-4.11718779e-004
,,,-6.55000000e-009,-4.10937529e-004
,,,-6.52500000e-009,-3.97656278e-004
,,,-6.50000000e-009,-3.71875026e-004
,,,-6.47500000e-009,-3.36718774e-004
,,,-6.45000000e-009,-2.94531271e-004
,,,-6.42500000e-009,-2.47656268e-004
,,,-6.40000000e-009,-2.00000014e-004
,,,-6.37500000e-009,-1.52343761e-004
,,,-6.35000000e-009,-1.09375008e-004
,,,-6.32500000e-009,-7.26562551e-005
,,,-6.30000000e-009,-4.37500031e-005
,,,-6.27500000e-009,-2.26562516e-005
,,,-6.25000000e-009,-8.59375061e-006
,,,-6.22500000e-009,-1.56250011e-006
,,,-6.20000000e-009,0.00000000e+000
,,,-6.17500000e-009,-2.34375017e-006
,,,-6.15000000e-009,-7.81250055e-006
,,,-6.12500000e-009,-1.32812509e-005
,,,-6.10000000e-009,-1.87500013e-005
,,,-6.07500000e-009,-2.03125014e-005
,,,-6.05000000e-009,-1.87500013e-005
,,,-6.02500000e-009,-1.17187508e-005
,,,-6.00000000e-009,0.00000000e+000
,,,-5.97500000e-009,1.40625010e-005
,,,-5.95000000e-009,3.28125023e-005
,,,-5.92500000e-009,5.70312540e-005
,,,-5.90000000e-009,8.43750060e-005
,,,-5.87500000e-009,1.13281258e-004
,,,-5.85000000e-009,1.43750010e-004
,,,-5.82500000e-009,1.72656262e-004
,,,-5.80000000e-009,2.00000014e-004
,,,-5.77500000e-009,2.18750015e-004
,,,-5.75000000e-009,2.32812516e-004
,,,-5.72500000e-009,2.41406267e-004
,,,-5.70000000e-009,2.43750017e-004
,,,-5.67500000e-009,2.40625017e-004
,,,-5.65000000e-009,2.32031266e-004
,,,-5.62500000e-009,2.17968765e-004
,,,-5.60000000e-009,2.00000014e-004
,,,-5.57500000e-009,1.74218762e-004
,,,-5.55000000e-009,1.46875010e-004
,,,-5.52500000e-009,1.18750008e-004
,,,-5.50000000e-009,9.14062565e-005
,,,-5.47500000e-009,6.64062547e-005
,,,-5.45000000e-009,4.21875030e-005
,,,-5.42500000e-009,2.03125014e-005
,,,-5.40000000e-009,0.00000000e+000
,,,-5.37500000e-009,-2.03125014e-005
,,,-5.35000000e-009,-4.06250029e-005
,,,-5.32500000e-009,-6.17187544e-005
,,,-5.30000000e-009,-8.35937559e-005
,,,-5.27500000e-009,-1.07812508e-004
,,,-5.25000000e-009,-1.35156260e-004
,,,-5.22500000e-009,-1.65625012e-004
,,,-5.20000000e-009,-2.00000014e-004
,,,-5.17500000e-009,-2.35156267e-004
,,,-5.15000000e-009,-2.71093769e-004
,,,-5.12500000e-009,-3.06250022e-004
,,,-5.10000000e-009,-3.39062524e-004
,,,-5.07500000e-009,-3.65625026e-004
,,,-5.05000000e-009,-3.85937527e-004
,,,-5.02500000e-009,-3.97656278e-004
,,,-5.00000000e-009,-4.00000028e-004
,,,-4.97500000e-009,-3.89062528e-004
,,,-4.95000000e-009,-3.71093776e-004
,,,-4.92500000e-009,-3.45312524e-004
,,,-4.90000000e-009,-3.15625022e-004
,,,-4.87500000e-009,-2.83593770e-004
,,,-4.85000000e-009,-2.52343768e-004
,,,-4.82500000e-009,-2.23437516e-004
,,,-4.80000000e-009,-2.00000014e-004
,,,-4.77500000e-009,-1.78906263e-004
,,,-4.75000000e-009,-1.66406262e-004
,,,-4.72500000e-009,-1.60156261e-004
,,,-4.70000000e-009,-1.60937511e-004
,,,-4.67500000e-009,-1.67187512e-004
,,,-4.65000000e-009,-1.76562512e-004
,,,-4.62500000e-009,-1.88281263e-004
,,,-4.60000000e-009,-2.00000014e-004
,,,-4.57500000e-009,-2.09375015e-004
,,,-4.55000000e-009,-2.17187515e-004
,,,-4.52500000e-009,-2.21875016e-004
,,,-4.50000000e-009,-2.23437516e-004
,,,-4.47500000e-009,-2.21875016e-004
,,,-4.45000000e-009,-2.16406265e-004
,,,-4.42500000e-009,-2.09375015e-004
,,,-4.40000000e-009,-2.00000014e-004
,,,-4.37500000e-009,-1.89062513e-004
,,,-4.35000000e-009,-1.78906263e-004
,,,-4.32500000e-009,-1.71875012e-004
,,,-4.30000000e-009,-1.67968762e-004
,,,-4.27500000e-009,-1.68750012e-004
,,,-4.25000000e-009,-1.75000012e-004
,,,-4.22500000e-009,-1.85156263e-004
,,,-4.20000000e-009,-2.00000014e-004
,,,-4.17500000e-009,-2.16406265e-004
,,,-4.15000000e-009,-2.32812516e-004
,,,-4.12500000e-009,-2.46875017e-004
,,,-4.10000000e-009,-2.55468768e-004
,,,-4.07500000e-009,-2.56250018e-004
,,,-4.05000000e-009,-2.47656268e-004
,,,-4.02500000e-009,-2.28906266e-004
,,,-4.00000000e-009,-2.00000014e-004
,,,-3.97500000e-009,-1.63281262e-004
,,,-3.95000000e-009,-1.21875009e-004
,,,-3.92500000e-009,-7.89062556e-005
,,,-3.90000000e-009,-3.98437528e-005
,,,-3.87500000e-009,-8.59375061e-006
,,,-3.85000000e-009,9.37500066e-006
,,,-3.82500000e-009,1.32812509e-005
,,,-3.80000000e-009,0.00000000e+000
,,,-3.77500000e-009,-3.12500022e-005
,,,-3.75000000e-009,-7.73437555e-005
,,,-3.72500000e-009,-1.33593759e-004
,,,-3.70000000e-009,-1.96093764e-004
,,,-3.67500000e-009,-2.59375018e-004
,,,-3.65000000e-009,-3.17187522e-004
,,,-3.62500000e-009,-3.65625026e-004
,,,-3.60000000e-009,-4.00000028e-004
,,,-3.57500000e-009,-4.12500029e-004
,,,-3.55000000e-009,-4.08593779e-004
,,,-3.52500000e-009,-3.88281277e-004
,,,-3.50000000e-009,-3.57031275e-004
,,,-3.47500000e-009,-3.17187522e-004
,,,-3.45000000e-009,-2.75000019e-004
,,,-3.42500000e-009,-2.34375017e-004
,,,-3.40000000e-009,-2.00000014e-004
,,,-3.37500000e-009,-1.72656262e-004
,,,-3.35000000e-009,-1.55468761e-004
,,,-3.32500000e-009,-1.48437511e-004
,,,-3.30000000e-009,-1.50781261e-004
,,,-3.27500000e-009,-1.59375011e-004
,,,-3.25000000e-009,-1.71875012e-004
,,,-3.22500000e-009,-1.86718763e-004
,,,-3.20000000e-009,-2.00000014e-004
,,,-3.17500000e-009,-2.07031265e-004
,,,-3.15000000e-009,-2.10937515e-004
,,,-3.12500000e-009,-2.10937515e-004
,,,-3.10000000e-009,-2.07812515e-004
,,,-3.07500000e-009,-2.04687514e-004
,,,-3.05000000e-009,-2.01562514e-004
,,,-3.02500000e-009,-2.00000014e-004
,,,-3.00000000e-009,-2.00000014e-004
,,,-2.97500000e-009,-1.99218764e-004
,,,-2.95000000e-009,-1.96093764e-004
,,,-2.92500000e-009,-1.89843763e-004
,,,-2.90000000e-009,-1.75781262e-004
,,,-2.87500000e-009,-1.51562511e-004
,,,-2.85000000e-009,-1.14062508e-004
,,,-2.82500000e-009,-6.32812545e-005
,,,-2.80000000e-009,0.00000000e+000
,,,-2.77500000e-009,7.34375052e-005
,,,-2.75000000e-009,1.52343761e-004
,,,-2.72500000e-009,2.29687516e-004
,,,-2.70000000e-009,3.00000021e-004
,,,-2.67500000e-009,3.57031275e-004
,,,-2.65000000e-009,3.95312528e-004
,,,-2.62500000e-009,4.09375029e-004
,,,-2.60000000e-009,4.00000028e-004
,,,-2.57500000e-009,3.60156275e-004
,,,-2.55000000e-009,3.02343771e-004
,,,-2.52500000e-009,2.32812516e-004
,,,-2.50000000e-009,1.60156261e-004
,,,-2.47500000e-009,9.29687566e-005
,,,-2.45000000e-009,3.98437528e-005
,,,-2.42500000e-009,7.81250055e-006
,,,-2.40000000e-009,0.00000000e+000
,,,-2.37500000e-009,1.71875012e-005
,,,-2.35000000e-009,5.78125041e-005
,,,-2.32500000e-009,1.17187508e-004
,,,-2.30000000e-009,1.87500013e-004
,,,-2.27500000e-009,2.59375018e-004
,,,-2.25000000e-009,3.23437523e-004
,,,-2.22500000e-009,3.72656276e-004
,,,-2.20000000e-009,4.00000028e-004
,,,-2.17500000e-009,3.97656278e-004
,,,-2.15000000e-009,3.71093776e-004
,,,-2.12500000e-009,3.23437523e-004
,,,-2.10000000e-009,2.60156268e-004
,,,-2.07500000e-009,1.89062513e-004
,,,-2.05000000e-009,1.17187508e-004
,,,-2.02500000e-009,5.23437537e-005
,,,-2.00000000e-009,0.00000000e+000
,,,-1.97500000e-009,-3.75000027e-005
,,,-1.95000000e-009,-5.78125041e-005
,,,-1.92500000e-009,-6.25000044e-005
,,,-1.90000000e-009,-5.39062538e-005
,,,-1.87500000e-009,-3.82812527e-005
,,,-1.85000000e-009,-2.03125014e-005
,,,-1.82500000e-009,-6.25000044e-006
,,,-1.80000000e-009,0.00000000e+000
,,,-1.77500000e-009,-4.68750033e-006
,,,-1.75000000e-009,-2.03125014e-005
,,,-1.72500000e-009,-4.68750033e-005
,,,-1.70000000e-009,-7.96875056e-005
,,,-1.67500000e-009,-1.16406258e-004
,,,-1.65000000e-009,-1.50781261e-004
,,,-1.62500000e-009,-1.79687513e-004
,,,-1.60000000e-009,-2.00000014e-004
,,,-1.57500000e-009,-2.05468765e-004
,,,-1.55000000e-009,-2.00000014e-004
,,,-1.52500000e-009,-1.82031263e-004
,,,-1.50000000e-009,-1.53906261e-004
,,,-1.47500000e-009,-1.18750008e-004
,,,-1.45000000e-009,-7.89062556e-005
,,,-1.42500000e-009,-3.82812527e-005
,,,-1.40000000e-009,0.00000000e+000
,,,-1.37500000e-009,2.73437519e-005
,,,-1.35000000e-009,4.60937533e-005
,,,-1.32500000e-009,5.54687539e-005
,,,-1.30000000e-009,5.70312540e-005
,,,-1.27500000e-009,5.00000035e-005
,,,-1.25000000e-009,3.75000027e-005
,,,-1.22500000e-009,2.03125014e-005
,,,-1.20000000e-009,0.00000000e+000
,,,-1.17500000e-009,-3.28125023e-005
,,,-1.15000000e-009,-6.79687548e-005
,,,-1.12500000e-009,-1.02343757e-004
,,,-1.10000000e-009,-1.34375010e-004
,,,-1.07500000e-009,-1.61718761e-004
,,,-1.05000000e-009,-1.82031263e-004
,,,-1.02500000e-009,-1.94531264e-004
,,,-1.00000000e-009,-2.00000014e-004
,,,-9.75000000e-010,-2.20312516e-004
,,,-9.50000000e-010,-2.36718767e-004
,,,-9.25000000e-010,-2.49218768e-004
,,,-9.00000000e-010,-2.54687518e-004
,,,-8.75000000e-010,-2.52343768e-004
,,,-8.50000000e-010,-2.42187517e-004
,,,-8.25000000e-010,-2.23437516e-004
,,,-8.00000000e-010,-2.00000014e-004
,,,-7.75000000e-010,-2.07812515e-004
,,,-7.50000000e-010,-2.21875016e-004
,,,-7.25000000e-010,-2.41406267e-004
,,,-7.00000000e-010,-2.65625019e-004
,,,-6.75000000e-010,-2.93750021e-004
,,,-6.50000000e-010,-3.25000023e-004
,,,-6.25000000e-010,-3.60156275e-004
,,,-6.00000000e-010,-4.00000028e-004
,,,-5.75000000e-010,-4.89843785e-004
,,,-5.50000000e-010,-5.91406292e-004
,,,-5.25000000e-010,-7.00000050e-004
,,,-5.00000000e-010,-8.10156307e-004
,,,-4.75000000e-010,-9.17968815e-004
,,,-4.50000000e-010,-1.01875007e-003
,,,-4.25000000e-010,-1.11250008e-003
,,,-4.00000000e-010,-1.20000008e-003
,,,-3.75000000e-010,-1.32968759e-003
,,,-3.50000000e-010,-1.46875010e-003
,,,-3.25000000e-010,-1.61875011e-003
,,,-3.00000000e-010,-1.78203138e-003
,,,-2.75000000e-010,-1.96015639e-003
,,,-2.50000000e-010,-2.15468765e-003
,,,-2.25000000e-010,-2.36718767e-003
,,,-2.00000000e-010,-2.60000018e-003
,,,-1.75000000e-010,-2.88750020e-003
,,,-1.50000000e-010,-3.20000023e-003
,,,-1.25000000e-010,-3.53125025e-003
,,,-1.00000000e-010,-3.87343777e-003
,,,-7.50000000e-011,-4.21796905e-003
,,,-5.00000000e-011,-4.55781282e-003
,,,-2.50000000e-011,-4.88593785e-003
,,,0.00000000e+000,-5.20000037e-003
,,,2.50000000e-011,-5.50625039e-003
,,,5.00000000e-011,-5.80546916e-003
,,,7.50000000e-011,-6.09921918e-003
,,,1.00000000e-010,-6.39062545e-003
,,,1.25000000e-010,-6.68281297e-003
,,,1.50000000e-010,-6.98046924e-003
,,,1.75000000e-010,-7.28515677e-003
,,,2.00000000e-010,-7.60000054e-003
,,,2.25000000e-010,-7.91015681e-003
,,,2.50000000e-010,-8.23515683e-003
,,,2.75000000e-010,-8.57343811e-003
,,,3.00000000e-010,-8.91718813e-003
,,,3.25000000e-010,-9.26015691e-003
,,,3.50000000e-010,-9.59296943e-003
,,,3.75000000e-010,-9.90781320e-003
,,,4.00000000e-010,-1.02000007e-002
,,,4.25000000e-010,-1.04218757e-002
,,,4.50000000e-010,-1.06242195e-002
,,,4.75000000e-010,-1.08093758e-002
,,,5.00000000e-010,-1.09812508e-002
,,,5.25000000e-010,-1.11445320e-002
,,,5.50000000e-010,-1.13007820e-002
,,,5.75000000e-010,-1.14523446e-002
,,,6.00000000e-010,-1.16000008e-002
,,,6.25000000e-010,-1.16859383e-002
,,,6.50000000e-010,-1.17742196e-002
,,,6.75000000e-010,-1.18640633e-002
,,,7.00000000e-010,-1.19539071e-002
,,,7.25000000e-010,-1.20382821e-002
,,,7.50000000e-010,-1.21117196e-002
,,,7.75000000e-010,-1.21664071e-002
,,,8.00000000e-010,-1.22000009e-002
,,,8.25000000e-010,-1.21453134e-002
,,,8.50000000e-010,-1.20742196e-002
,,,8.75000000e-010,-1.19929696e-002
,,,9.00000000e-010,-1.19070321e-002
,,,9.25000000e-010,-1.18203133e-002
,,,9.50000000e-010,-1.17390633e-002
,,,9.75000000e-010,-1.16648446e-002
,,,1.00000000e-009,-1.16000008e-002
,,,1.02500000e-009,-1.14914071e-002
,,,1.05000000e-009,-1.13968758e-002
,,,1.07500000e-009,-1.13156258e-002
,,,1.10000000e-009,-1.12460945e-002
,,,1.12500000e-009,-1.11843758e-002
,,,1.15000000e-009,-1.11265633e-002
,,,1.17500000e-009,-1.10671883e-002
,,,1.20000000e-009,-1.10000008e-002
,,,1.22500000e-009,-1.08757820e-002
,,,1.25000000e-009,-1.07382820e-002
,,,1.27500000e-009,-1.05898445e-002
,,,1.30000000e-009,-1.04343757e-002
,,,1.32500000e-009,-1.02742195e-002
,,,1.35000000e-009,-1.01140632e-002
,,,1.37500000e-009,-9.95546945e-003
,,,1.40000000e-009,-9.80000069e-003
,,,1.42500000e-009,-9.61796943e-003
,,,1.45000000e-009,-9.43750067e-003
,,,1.47500000e-009,-9.25859441e-003
,,,1.50000000e-009,-9.08125064e-003
,,,1.52500000e-009,-8.90703188e-003
,,,1.55000000e-009,-8.73593812e-003
,,,1.57500000e-009,-8.56718811e-003
,,,1.60000000e-009,-8.40000059e-003
,,,1.62500000e-009,-8.21640683e-003
,,,1.65000000e-009,-8.02968807e-003
,,,1.67500000e-009,-7.84062555e-003
,,,1.70000000e-009,-7.65312554e-003
,,,1.72500000e-009,-7.47265678e-003
,,,1.75000000e-009,-7.30234427e-003
,,,1.77500000e-009,-7.14453176e-003
,,,1.80000000e-009,-7.00000050e-003
,,,1.82500000e-009,-6.86171924e-003
,,,1.85000000e-009,-6.72500048e-003
,,,1.87500000e-009,-6.58593797e-003
,,,1.90000000e-009,-6.44296921e-003
,,,1.92500000e-009,-6.29453170e-003
,,,1.95000000e-009,-6.13828168e-003
,,,1.97500000e-009,-5.97343792e-003
,,,2.00000000e-009,-5.80000041e-003
,,,2.02500000e-009,-5.61796915e-003
,,,2.05000000e-009,-5.42031288e-003
,,,2.07500000e-009,-5.21171912e-003
,,,2.10000000e-009,-4.99609410e-003
,,,2.12500000e-009,-4.78125034e-003
,,,2.15000000e-009,-4.57343782e-003
,,,2.17500000e-009,-4.37812531e-003
,,,2.20000000e-009,-4.20000030e-003
,,,2.22500000e-009,-4.05000029e-003
,,,2.25000000e-009,-3.91093778e-003
,,,2.27500000e-009,-3.78046902e-003
,,,2.30000000e-009,-3.65625026e-003
,,,2.32500000e-009,-3.53828150e-003
,,,2.35000000e-009,-3.42421899e-003
,,,2.37500000e-009,-3.31171898e-003
,,,2.40000000e-009,-3.20000023e-003
,,,2.42500000e-009,-3.09921897e-003
,,,2.45000000e-009,-2.98828146e-003
,,,2.47500000e-009,-2.86640645e-003
,,,2.50000000e-009,-2.73515644e-003
,,,2.52500000e-009,-2.59843768e-003
,,,2.55000000e-009,-2.46093767e-003
,,,2.57500000e-009,-2.32656266e-003
,,,2.60000000e-009,-2.20000016e-003
,,,2.62500000e-009,-2.10156265e-003
,,,2.65000000e-009,-2.00859389e-003
,,,2.67500000e-009,-1.92187514e-003
,,,2.70000000e-009,-1.84218763e-003
,,,2.72500000e-009,-1.76953138e-003
,,,2.75000000e-009,-1.70546887e-003
,,,2.77500000e-009,-1.64921887e-003
,,,2.80000000e-009,-1.60000011e-003
,,,2.82500000e-009,-1.57265636e-003
,,,2.85000000e-009,-1.54296886e-003
,,,2.87500000e-009,-1.50625011e-003
,,,2.90000000e-009,-1.46171885e-003
,,,2.92500000e-009,-1.40781260e-003
,,,2.95000000e-009,-1.34609385e-003
,,,2.97500000e-009,-1.27656259e-003
,,,3.00000000e-009,-1.20000008e-003
,,,3.02500000e-009,-1.13359383e-003
,,,3.05000000e-009,-1.06015633e-003
,,,3.07500000e-009,-9.79687569e-004
,,,3.10000000e-009,-8.96093813e-004
,,,3.12500000e-009,-8.11718807e-004
,,,3.15000000e-009,-7.32031302e-004
,,,3.17500000e-009,-6.60156297e-004
,,,3.20000000e-009,-6.00000042e-004
,,,3.22500000e-009,-5.66406290e-004
,,,3.25000000e-009,-5.43750038e-004
,,,3.27500000e-009,-5.31250038e-004
,,,3.30000000e-009,-5.28906287e-004
,,,3.32500000e-009,-5.35937538e-004
,,,3.35000000e-009,-5.50781289e-004
,,,3.37500000e-009,-5.72656291e-004
,,,3.40000000e-009,-6.00000042e-004
,,,3.42500000e-009,-6.39843795e-004
,,,3.45000000e-009,-6.78906298e-004
,,,3.47500000e-009,-7.12500050e-004
,,,3.50000000e-009,-7.41406302e-004
,,,3.52500000e-009,-7.64843804e-004
,,,3.55000000e-009,-7.81250055e-004
,,,3.57500000e-009,-7.92968806e-004
,,,3.60000000e-009,-8.00000057e-004
,,,3.62500000e-009,-8.07031307e-004
,,,3.65000000e-009,-8.09375057e-004
,,,3.67500000e-009,-8.08593807e-004
,,,3.70000000e-009,-8.05468807e-004
,,,3.72500000e-009,-8.01562557e-004
,,,3.75000000e-009,-7.99218807e-004
,,,3.77500000e-009,-7.98437557e-004
,,,3.80000000e-009,-8.00000057e-004
,,,3.82500000e-009,-8.05468807e-004
,,,3.85000000e-009,-8.11718807e-004
,,,3.87500000e-009,-8.17187558e-004
,,,3.90000000e-009,-8.21875058e-004
,,,3.92500000e-009,-8.22656308e-004
,,,3.95000000e-009,-8.20312558e-004
,,,3.97500000e-009,-8.12500058e-004
,,,4.00000000e-009,-8.00000057e-004
,,,4.02500000e-009,-7.80468805e-004
,,,4.05000000e-009,-7.55468803e-004
,,,4.07500000e-009,-7.27343801e-004
,,,4.10000000e-009,-6.96875049e-004
,,,4.12500000e-009,-6.67187547e-004
,,,4.15000000e-009,-6.39843795e-004
,,,4.17500000e-009,-6.17187544e-004
,,,4.20000000e-009,-6.00000042e-004
,,,4.22500000e-009,-5.86718792e-004
,,,4.25000000e-009,-5.79687541e-004
,,,4.27500000e-009,-5.78125041e-004
,,,4.30000000e-009,-5.80468791e-004
,,,4.32500000e-009,-5.85937541e-004
,,,4.35000000e-009,-5.91406292e-004
,,,4.37500000e-009,-5.96093792e-004
,,,4.40000000e-009,-6.00000042e-004
,,,4.42500000e-009,-5.99218792e-004
,,,4.45000000e-009,-5.96093792e-004
,,,4.47500000e-009,-5.91406292e-004
,,,4.50000000e-009,-5.87500042e-004
,,,4.52500000e-009,-5.85156291e-004
,,,4.55000000e-009,-5.85937541e-004
,,,4.57500000e-009,-5.90625042e-004
,,,4.60000000e-009,-6.00000042e-004
,,,4.62500000e-009,-6.10937543e-004
,,,4.65000000e-009,-6.23437544e-004
,,,4.67500000e-009,-6.34375045e-004
,,,4.70000000e-009,-6.42968796e-004
,,,4.72500000e-009,-6.46093796e-004
,,,4.75000000e-009,-6.40625045e-004
,,,4.77500000e-009,-6.25781294e-004
,,,4.80000000e-009,-6.00000042e-004
,,,4.82500000e-009,-5.60937540e-004
,,,4.85000000e-009,-5.13281286e-004
,,,4.87500000e-009,-4.58593782e-004
,,,4.90000000e-009,-4.00000028e-004
,,,4.92500000e-009,-3.40625024e-004
,,,4.95000000e-009,-2.85937520e-004
,,,4.97500000e-009,-2.38281267e-004
,,,5.00000000e-009,-2.00000014e-004
,,,5.02500000e-009,-1.75781262e-004
,,,5.05000000e-009,-1.62500012e-004
,,,5.07500000e-009,-1.59375011e-004
,,,5.10000000e-009,-1.63281262e-004
,,,5.12500000e-009,-1.71875012e-004
,,,5.15000000e-009,-1.82031263e-004
,,,5.17500000e-009,-1.92187514e-004
,,,5.20000000e-009,-2.00000014e-004
,,,5.22500000e-009,-2.04687514e-004
,,,5.25000000e-009,-2.06250015e-004
,,,5.27500000e-009,-2.03906264e-004
,,,5.30000000e-009,-2.00000014e-004
,,,5.32500000e-009,-1.95312514e-004
,,,5.35000000e-009,-1.92968764e-004
,,,5.37500000e-009,-1.94531264e-004
,,,5.40000000e-009,-2.00000014e-004
,,,5.42500000e-009,-2.10156265e-004
,,,5.45000000e-009,-2.22656266e-004
,,,5.47500000e-009,-2.34375017e-004
,,,5.50000000e-009,-2.42968767e-004
,,,5.52500000e-009,-2.46093767e-004
,,,5.55000000e-009,-2.40625017e-004
,,,5.57500000e-009,-2.25000016e-004
,,,5.60000000e-009,-2.00000014e-004
,,,5.62500000e-009,-1.65625012e-004
,,,5.65000000e-009,-1.25781259e-004
,,,5.67500000e-009,-8.35937559e-005
,,,5.70000000e-009,-4.29687530e-005
,,,5.72500000e-009,-1.09375008e-005
,,,5.75000000e-009,8.59375061e-006
,,,5.77500000e-009,1.32812509e-005
,,,5.80000000e-009,0.00000000e+000
,,,5.82500000e-009,-3.35937524e-005
,,,5.85000000e-009,-8.12500058e-005
,,,5.87500000e-009,-1.39843760e-004
