RawData/SinglePhotoelectron/R7_2pt2B_5mV/wave001_Ch2.csv

"Record Length",1000,"Points",-7.72500000e-009,-2.73437519e-005
"Sample Interval",2.50000000e-011,s,-7.70000000e-009,0.00000000e+000
"Trigger Point",309,"Samples",-7.67500000e-009,3.67187526e-005
"Trigger Time",1.99877419e-011,s,-7.65000000e-009,7.65625054e-005
"",,,-7.62500000e-009,1.17187508e-004
"Horizontal Offset",-7.72500000e-009,s,-7.60000000e-009,1.54687511e-004
,,,-7.57500000e-009,1.83593763e-004
,,,-7.55000000e-009,2.02343764e-004
,,,-7.52500000e-009,2.07812515e-004
,,,-7.50000000e-009,2.00000014e-004
,,,-7.47500000e-009,1.79687513e-004
,,,-7.45000000e-009,1.48437511e-004
,,,-7.42500000e-009,1.10937508e-004
,,,-7.40000000e-009,7.26562551e-005
,,,-7.37500000e-009,3.67187526e-005
,,,-7.35000000e-009,1.01562507e-005
,,,-7.32500000e-009,-2.34375017e-006
,,,-7.30000000e-009,0.00000000e+000
,,,-7.27500000e-009,2.03125014e-005
,,,-7.25000000e-009,5.78125041e-005
,,,-7.22500000e-009,1.07812508e-004
,,,-7.20000000e-009,1.67968762e-004
,,,-7.17500000e-009,2.32031266e-004
,,,-7.15000000e-009,2.95312521e-004
,,,-7.12500000e-009,3.52343775e-004
,,,-7.10000000e-009,4.00000028e-004
,,,-7.07500000e-009,4.32812531e-004
,,,-7.05000000e-009,4.51562532e-004
,,,-7.02500000e-009,4.58593782e-004
,,,-7.00000000e-009,4.54687532e-004
,,,-6.97500000e-009,4.43750031e-004
,,,-6.95000000e-009,4.28906280e-004
,,,-6.92500000e-009,4.13281279e-004
,,,-6.90000000e-009,4.00000028e-004
,,,-6.87500000e-009,3.87500027e-004
,,,-6.85000000e-009,3.81250027e-004
,,,-6.82500000e-009,3.80468777e-004
,,,-6.80000000e-009,3.84375027e-004
,,,-6.77500000e-009,3.89843778e-004
,,,-6.75000000e-009,3.96093778e-004
,,,-6.72500000e-009,4.00000028e-004
,,,-6.70000000e-009,4.00000028e-004
,,,-6.67500000e-009,3.91406278e-004
,,,-6.65000000e-009,3.77343777e-004
,,,-6.62500000e-009,3.57031275e-004
,,,-6.60000000e-009,3.31250023e-004
,,,-6.57500000e-009,3.00781271e-004
,,,-6.55000000e-009,2.67187519e-004
,,,-6.52500000e-009,2.32812516e-004
,,,-6.50000000e-009,2.00000014e-004
,,,-6.47500000e-009,1.70312512e-004
,,,-6.45000000e-009,1.46875010e-004
,,,-6.42500000e-009,1.31250009e-004
,,,-6.40000000e-009,1.25781259e-004
,,,-6.37500000e-009,1.29687509e-004
,,,-6.35000000e-009,1.43750010e-004
,,,-6.32500000e-009,1.67187512e-004
,,,-6.30000000e-009,2.00000014e-004
,,,-6.27500000e-009,2.37500017e-004
,,,-6.25000000e-009,2.78906270e-004
,,,-6.22500000e-009,3.18750023e-004
,,,-6.20000000e-009,3.55468775e-004
,,,-6.17500000e-009,3.83593777e-004
,,,-6.15000000e-009,4.01562528e-004
,,,-6.12500000e-009,4.07031279e-004
,,,-6.10000000e-009,4.00000028e-004
,,,-6.07500000e-009,3.78906277e-004
,,,-6.05000000e-009,3.49218775e-004
,,,-6.02500000e-009,3.13281272e-004
,,,-6.00000000e-009,2.75781270e-004
,,,-5.97500000e-009,2.42187517e-004
,,,-5.95000000e-009,2.15625015e-004
,,,-5.92500000e-009,2.00781264e-004
,,,-5.90000000e-009,2.00000014e-004
,,,-5.87500000e-009,2.12500015e-004
,,,-5.85000000e-009,2.37500017e-004
,,,-5.82500000e-009,2.70312519e-004
,,,-5.80000000e-009,3.07031272e-004
,,,-5.77500000e-009,3.42968774e-004
,,,-5.75000000e-009,3.72656276e-004
,,,-5.72500000e-009,3.92968778e-004
,,,-5.70000000e-009,4.00000028e-004
,,,-5.67500000e-009,3.91406278e-004
,,,-5.65000000e-009,3.71093776e-004
,,,-5.62500000e-009,3.39843774e-004
,,,-5.60000000e-009,3.03906272e-004
,,,-5.57500000e-009,2.67187519e-004
,,,-5.55000000e-009,2.34375017e-004
,,,-5.52500000e-009,2.10937515e-004
,,,-5.50000000e-009,2.00000014e-004
,,,-5.47500000e-009,2.01562514e-004
,,,-5.45000000e-009,2.16406265e-004
,,,-5.42500000e-009,2.42968767e-004
,,,-5.40000000e-009,2.76562520e-004
,,,-5.37500000e-009,3.14062522e-004
,,,-5.35000000e-009,3.49218775e-004
,,,-5.32500000e-009,3.79687527e-004
,,,-5.30000000e-009,4.00000028e-004
,,,-5.27500000e-009,4.04687529e-004
,,,-5.25000000e-009,3.96875028e-004
,,,-5.22500000e-009,3.77343777e-004
,,,-5.20000000e-009,3.47656275e-004
,,,-5.17500000e-009,3.10937522e-004
,,,-5.15000000e-009,2.71875019e-004
,,,-5.12500000e-009,2.33593767e-004
,,,-5.10000000e-009,2.00000014e-004
,,,-5.07500000e-009,1.72656262e-004
,,,-5.05000000e-009,1.53906261e-004
,,,-5.02500000e-009,1.44531260e-004
,,,-5.00000000e-009,1.43750010e-004
,,,-4.97500000e-009,1.50781261e-004
,,,-4.95000000e-009,1.64062512e-004
,,,-4.92500000e-009,1.81250013e-004
,,,-4.90000000e-009,2.00000014e-004
,,,-4.87500000e-009,2.17187515e-004
,,,-4.85000000e-009,2.32031266e-004
,,,-4.82500000e-009,2.42187517e-004
,,,-4.80000000e-009,2.46875017e-004
,,,-4.77500000e-009,2.44531267e-004
,,,-4.75000000e-009,2.35937517e-004
,,,-4.72500000e-009,2.20312516e-004
,,,-4.70000000e-009,2.00000014e-004
,,,-4.67500000e-009,1.74218762e-004
,,,-4.65000000e-009,1.44531260e-004
,,,-4.62500000e-009,1.14062508e-004
,,,-4.60000000e-009,8.43750060e-005
,,,-4.57500000e-009,5.62500040e-005
,,,-4.55000000e-009,3.20312523e-005
,,,-4.52500000e-009,1.32812509e-005
,,,-4.50000000e-009,0.00000000e+000
,,,-4.47500000e-009,-6.25000044e-006
,,,-4.45000000e-009,-8.59375061e-006
,,,-4.42500000e-009,-7.03125050e-006
,,,-4.40000000e-009,-3.90625028e-006
,,,-4.37500000e-009,0.00000000e+000
,,,-4.35000000e-009,1.56250011e-006
,,,-4.32500000e-009,2.34375017e-006
,,,-4.30000000e-009,0.00000000e+000
,,,-4.27500000e-009,-2.34375017e-006
,,,-4.25000000e-009,-7.81250055e-006
,,,-4.22500000e-009,-1.40625010e-005
,,,-4.20000000e-009,-2.03125014e-005
,,,-4.17500000e-009,-2.34375017e-005
,,,-4.15000000e-009,-2.18750015e-005
,,,-4.12500000e-009,-1.40625010e-005
,,,-4.10000000e-009,0.00000000e+000
,,,-4.07500000e-009,2.18750015e-005
,,,-4.05000000e-009,4.92187535e-005
,,,-4.02500000e-009,7.96875056e-005
,,,-4.00000000e-009,1.11718758e-004
,,,-3.97500000e-009,1.42187510e-004
,,,-3.95000000e-009,1.68750012e-004
,,,-3.92500000e-009,1.88281263e-004
,,,-3.90000000e-009,2.00000014e-004
,,,-3.87500000e-009,2.00000014e-004
,,,-3.85000000e-009,1.89843763e-004
,,,-3.82500000e-009,1.70312512e-004
,,,-3.80000000e-009,1.42968760e-004
,,,-3.77500000e-009,1.09375008e-004
,,,-3.75000000e-009,7.26562551e-005
,,,-3.72500000e-009,3.51562525e-005
,,,-3.70000000e-009,0.00000000e+000
,,,-3.67500000e-009,-2.96875021e-005
,,,-3.65000000e-009,-5.23437537e-005
,,,-3.62500000e-009,-6.64062547e-005
,,,-3.60000000e-009,-7.10937550e-005
,,,-3.57500000e-009,-6.64062547e-005
,,,-3.55000000e-009,-5.23437537e-005
,,,-3.52500000e-009,-2.96875021e-005
,,,-3.50000000e-009,0.00000000e+000
,,,-3.47500000e-009,3.43750024e-005
,,,-3.45000000e-009,7.10937550e-005
,,,-3.42500000e-009,1.07031258e-004
,,,-3.40000000e-009,1.39843760e-004
,,,-3.37500000e-009,1.67187512e-004
,,,-3.35000000e-009,1.87500013e-004
,,,-3.32500000e-009,1.98437514e-004
,,,-3.30000000e-009,2.00000014e-004
,,,-3.27500000e-009,1.90625013e-004
,,,-3.25000000e-009,1.72656262e-004
,,,-3.22500000e-009,1.48437511e-004
,,,-3.20000000e-009,1.19531258e-004
,,,-3.17500000e-009,8.75000062e-005
,,,-3.15000000e-009,5.54687539e-005
,,,-3.12500000e-009,2.57812518e-005
,,,-3.10000000e-009,0.00000000e+000
,,,-3.07500000e-009,-1.87500013e-005
,,,-3.05000000e-009,-3.12500022e-005
,,,-3.02500000e-009,-3.67187526e-005
,,,-3.00000000e-009,-3.67187526e-005
,,,-2.97500000e-009,-3.12500022e-005
,,,-2.95000000e-009,-2.18750015e-005
,,,-2.92500000e-009,-1.09375008e-005
,,,-2.90000000e-009,0.00000000e+000
,,,-2.87500000e-009,1.01562507e-005
,,,-2.85000000e-009,1.87500013e-005
,,,-2.82500000e-009,2.34375017e-005
,,,-2.80000000e-009,2.42187517e-005
,,,-2.77500000e-009,2.18750015e-005
,,,-2.75000000e-009,1.64062512e-005
,,,-2.72500000e-009,8.59375061e-006
,,,-2.70000000e-009,0.00000000e+000
,,,-2.67500000e-009,-8.59375061e-006
,,,-2.65000000e-009,-1.71875012e-005
,,,-2.62500000e-009,-2.34375017e-005
,,,-2.60000000e-009,-2.65625019e-005
,,,-2.57500000e-009,-2.65625019e-005
,,,-2.55000000e-009,-2.18750015e-005
,,,-2.52500000e-009,-1.32812509e-005
,,,-2.50000000e-009,0.00000000e+000
,,,-2.47500000e-009,1.71875012e-005
,,,-2.45000000e-009,3.90625028e-005
,,,-2.42500000e-009,6.40625045e-005
,,,-2.40000000e-009,9.06250064e-005
,,,-2.37500000e-009,1.19531258e-004
,,,-2.35000000e-009,1.47656260e-004
,,,-2.32500000e-009,1.75000012e-004
,,,-2.30000000e-009,2.00000014e-004
,,,-2.27500000e-009,2.19531266e-004
,,,-2.25000000e-009,2.35156267e-004
,,,-2.22500000e-009,2.44531267e-004
,,,-2.20000000e-009,2.47656268e-004
,,,-2.17500000e-009,2.44531267e-004
,,,-2.15000000e-009,2.35156267e-004
,,,-2.12500000e-009,2.19531266e-004
,,,-2.10000000e-009,2.00000014e-004
,,,-2.07500000e-009,1.72656262e-004
,,,-2.05000000e-009,1.43750010e-004
,,,-2.02500000e-009,1.13281258e-004
,,,-2.00000000e-009,8.43750060e-005
,,,-1.97500000e-009,5.70312540e-005
,,,-1.95000000e-009,3.35937524e-005
,,,-1.92500000e-009,1.40625010e-005
,,,-1.90000000e-009,0.00000000e+000
,,,-1.87500000e-009,-1.09375008e-005
,,,-1.85000000e-009,-1.71875012e-005
,,,-1.82500000e-009,-1.95312514e-005
,,,-1.80000000e-009,-1.87500013e-005
,,,-1.77500000e-009,-1.48437511e-005
,,,-1.75000000e-009,-1.01562507e-005
,,,-1.72500000e-009,-4.68750033e-006
,,,-1.70000000e-009,0.00000000e+000
,,,-1.67500000e-009,-1.56250011e-006
,,,-1.65000000e-009,-4.68750033e-006
,,,-1.62500000e-009,-8.59375061e-006
,,,-1.60000000e-009,-1.25000009e-005
,,,-1.57500000e-009,-1.40625010e-005
,,,-1.55000000e-009,-1.32812509e-005
,,,-1.52500000e-009,-8.59375061e-006
,,,-1.50000000e-009,0.00000000e+000
,,,-1.47500000e-009,7.81250055e-007
,,,-1.45000000e-009,3.12500022e-006
,,,-1.42500000e-009,5.46875039e-006
,,,-1.40000000e-009,7.03125050e-006
,,,-1.37500000e-009,8.59375061e-006
,,,-1.35000000e-009,7.81250055e-006
,,,-1.32500000e-009,5.46875039e-006
,,,-1.30000000e-009,0.00000000e+000
,,,-1.27500000e-009,-2.50000018e-005
,,,-1.25000000e-009,-5.62500040e-005
,,,-1.22500000e-009,-8.98437564e-005
,,,-1.20000000e-009,-1.22656259e-004
,,,-1.17500000e-009,-1.53125011e-004
,,,-1.15000000e-009,-1.76562512e-004
,,,-1.12500000e-009,-1.92187514e-004
,,,-1.10000000e-009,-2.00000014e-004
,,,-1.07500000e-009,-2.20312516e-004
,,,-1.05000000e-009,-2.39843767e-004
,,,-1.02500000e-009,-2.59375018e-004
,,,-1.00000000e-009,-2.78906270e-004
,,,-9.75000000e-010,-3.00781271e-004
,,,-9.50000000e-010,-3.27343773e-004
,,,-9.25000000e-010,-3.59375025e-004
,,,-9.00000000e-010,-4.00000028e-004
,,,-8.75000000e-010,-4.71093783e-004
,,,-8.50000000e-010,-5.56250039e-004
,,,-8.25000000e-010,-6.53125046e-004
,,,-8.00000000e-010,-7.57812554e-004
,,,-7.75000000e-010,-8.67968811e-004
,,,-7.50000000e-010,-9.79687569e-004
,,,-7.25000000e-010,-1.09062508e-003
,,,-7.00000000e-010,-1.20000008e-003
,,,-6.75000000e-010,-1.32109384e-003
,,,-6.50000000e-010,-1.44296885e-003
,,,-6.25000000e-010,-1.56484386e-003
,,,-6.00000000e-010,-1.68750012e-003
,,,-5.75000000e-010,-1.81093763e-003
,,,-5.50000000e-010,-1.93671889e-003
,,,-5.25000000e-010,-2.06562515e-003
,,,-5.00000000e-010,-2.20000016e-003
,,,-4.75000000e-010,-2.34609392e-003
,,,-4.50000000e-010,-2.50390643e-003
,,,-4.25000000e-010,-2.67187519e-003
,,,-4.00000000e-010,-2.84843770e-003
,,,-3.75000000e-010,-3.03203146e-003
,,,-3.50000000e-010,-3.22031273e-003
,,,-3.25000000e-010,-3.41015649e-003
,,,-3.00000000e-010,-3.60000025e-003
,,,-2.75000000e-010,-3.77656277e-003
,,,-2.50000000e-010,-3.95000028e-003
,,,-2.25000000e-010,-4.11718779e-003
,,,-2.00000000e-010,-4.27734405e-003
,,,-1.75000000e-010,-4.42812531e-003
,,,-1.50000000e-010,-4.56562532e-003
,,,-1.25000000e-010,-4.69062533e-003
,,,-1.00000000e-010,-4.80000034e-003
,,,-7.50000000e-011,-4.87343784e-003
,,,-5.00000000e-011,-4.93671910e-003
,,,-2.50000000e-011,-4.99218785e-003
,,,0.00000000e+000,-5.04062536e-003
,,,2.50000000e-011,-5.08515661e-003
,,,5.00000000e-011,-5.12578161e-003
,,,7.50000000e-011,-5.16328162e-003
,,,1.00000000e-010,-5.20000037e-003
,,,1.25000000e-010,-5.20937537e-003
,,,1.50000000e-010,-5.22265662e-003
,,,1.75000000e-010,-5.24140662e-003
,,,2.00000000e-010,-5.26640662e-003
,,,2.25000000e-010,-5.29609412e-003
,,,2.50000000e-010,-5.32968788e-003
,,,2.75000000e-010,-5.36484413e-003
,,,3.00000000e-010,-5.40000038e-003
,,,3.25000000e-010,-5.40390663e-003
,,,3.50000000e-010,-5.40703163e-003
,,,3.75000000e-010,-5.41015663e-003
,,,4.00000000e-010,-5.41171913e-003
,,,4.25000000e-010,-5.41250038e-003
,,,4.50000000e-010,-5.41171913e-003
,,,4.75000000e-010,-5.40781288e-003
,,,5.00000000e-010,-5.40000038e-003
,,,5.25000000e-010,-5.36015663e-003
,,,5.50000000e-010,-5.31718788e-003
,,,5.75000000e-010,-5.27031287e-003
,,,6.00000000e-010,-5.22109412e-003
,,,6.25000000e-010,-5.16953162e-003
,,,6.50000000e-010,-5.11562536e-003
,,,6.75000000e-010,-5.05937536e-003
,,,7.00000000e-010,-5.00000035e-003
,,,7.25000000e-010,-4.91796910e-003
,,,7.50000000e-010,-4.83437534e-003
,,,7.75000000e-010,-4.75156284e-003
,,,8.00000000e-010,-4.67109408e-003
,,,8.25000000e-010,-4.59531283e-003
,,,8.50000000e-010,-4.52421907e-003
,,,8.75000000e-010,-4.45937532e-003
,,,9.00000000e-010,-4.40000031e-003
,,,9.25000000e-010,-4.33125031e-003
,,,9.50000000e-010,-4.26250030e-003
,,,9.75000000e-010,-4.19375030e-003
,,,1.00000000e-009,-4.12265654e-003
,,,1.02500000e-009,-4.04843779e-003
,,,1.05000000e-009,-3.97031278e-003
,,,1.07500000e-009,-3.88750028e-003
,,,1.10000000e-009,-3.80000027e-003
,,,1.12500000e-009,-3.69921901e-003
,,,1.15000000e-009,-3.59296900e-003
,,,1.17500000e-009,-3.48281275e-003
,,,1.20000000e-009,-3.37343774e-003
,,,1.22500000e-009,-3.26640648e-003
,,,1.25000000e-009,-3.16718772e-003
,,,1.27500000e-009,-3.07734397e-003
,,,1.30000000e-009,-3.00000021e-003
,,,1.32500000e-009,-2.93281271e-003
,,,1.35000000e-009,-2.87421895e-003
,,,1.37500000e-009,-2.82187520e-003
,,,1.40000000e-009,-2.77500020e-003
,,,1.42500000e-009,-2.73125019e-003
,,,1.45000000e-009,-2.68906269e-003
,,,1.47500000e-009,-2.64531269e-003
,,,1.50000000e-009,-2.60000018e-003
,,,1.52500000e-009,-2.55078143e-003
,,,1.55000000e-009,-2.49140643e-003
,,,1.57500000e-009,-2.42265642e-003
,,,1.60000000e-009,-2.34609392e-003
,,,1.62500000e-009,-2.26250016e-003
,,,1.65000000e-009,-2.17500015e-003
,,,1.67500000e-009,-2.08671890e-003
,,,1.70000000e-009,-2.00000014e-003
,,,1.72500000e-009,-1.91953139e-003
,,,1.75000000e-009,-1.83906263e-003
,,,1.77500000e-009,-1.75937512e-003
,,,1.80000000e-009,-1.68203137e-003
,,,1.82500000e-009,-1.60625011e-003
,,,1.85000000e-009,-1.53359386e-003
,,,1.87500000e-009,-1.46484385e-003
,,,1.90000000e-009,-1.40000010e-003
,,,1.92500000e-009,-1.34453135e-003
,,,1.95000000e-009,-1.28984384e-003
,,,1.97500000e-009,-1.23515634e-003
,,,2.00000000e-009,-1.18203133e-003
,,,2.02500000e-009,-1.13046883e-003
,,,2.05000000e-009,-1.08203133e-003
,,,2.07500000e-009,-1.03828132e-003
,,,2.10000000e-009,-1.00000007e-003
,,,2.12500000e-009,-9.74218819e-004
,,,2.15000000e-009,-9.49218817e-004
,,,2.17500000e-009,-9.25781316e-004
,,,2.20000000e-009,-9.01562564e-004
,,,2.22500000e-009,-8.76562562e-004
,,,2.25000000e-009,-8.51562560e-004
,,,2.27500000e-009,-8.25781308e-004
,,,2.30000000e-009,-8.00000057e-004
,,,2.32500000e-009,-7.78906305e-004
,,,2.35000000e-009,-7.54687553e-004
,,,2.37500000e-009,-7.28906302e-004
,,,2.40000000e-009,-7.01562550e-004
,,,2.42500000e-009,-6.73437548e-004
,,,2.45000000e-009,-6.46875046e-004
,,,2.47500000e-009,-6.21875044e-004
,,,2.50000000e-009,-6.00000042e-004
,,,2.52500000e-009,-5.85156291e-004
,,,2.55000000e-009,-5.69531290e-004
,,,2.57500000e-009,-5.51562539e-004
,,,2.60000000e-009,-5.29687537e-004
,,,2.62500000e-009,-5.03906286e-004
,,,2.65000000e-009,-4.73437534e-004
,,,2.67500000e-009,-4.38281281e-004
,,,2.70000000e-009,-4.00000028e-004
,,,2.72500000e-009,-3.64062526e-004
,,,2.75000000e-009,-3.26562523e-004
,,,2.77500000e-009,-2.89062520e-004
,,,2.80000000e-009,-2.54687518e-004
,,,2.82500000e-009,-2.25781266e-004
,,,2.85000000e-009,-2.06250015e-004
,,,2.87500000e-009,-1.96875014e-004
,,,2.90000000e-009,-2.00000014e-004
,,,2.92500000e-009,-2.20312516e-004
,,,2.95000000e-009,-2.48437518e-004
,,,2.97500000e-009,-2.82812520e-004
,,,3.00000000e-009,-3.17187522e-004
,,,3.02500000e-009,-3.50000025e-004
,,,3.05000000e-009,-3.76562527e-004
,,,3.07500000e-009,-3.93750028e-004
,,,3.10000000e-009,-4.00000028e-004
,,,3.12500000e-009,-3.95312528e-004
,,,3.15000000e-009,-3.78125027e-004
,,,3.17500000e-009,-3.52343775e-004
,,,3.20000000e-009,-3.19531273e-004
,,,3.22500000e-009,-2.84375020e-004
,,,3.25000000e-009,-2.50000018e-004
,,,3.27500000e-009,-2.21093766e-004
,,,3.30000000e-009,-2.00000014e-004
,,,3.32500000e-009,-1.89843763e-004
,,,3.35000000e-009,-1.88281263e-004
,,,3.37500000e-009,-1.92187514e-004
,,,3.40000000e-009,-1.98437514e-004
,,,3.42500000e-009,-2.05468765e-004
,,,3.45000000e-009,-2.09375015e-004
,,,3.47500000e-009,-2.07812515e-004
,,,3.50000000e-009,-2.00000014e-004
,,,3.52500000e-009,-1.89062513e-004
,,,3.55000000e-009,-1.75000012e-004
,,,3.57500000e-009,-1.59375011e-004
,,,3.60000000e-009,-1.46875010e-004
,,,3.62500000e-009,-1.41406260e-004
,,,3.65000000e-009,-1.46093760e-004
,,,3.67500000e-009,-1.65625012e-004
,,,3.70000000e-009,-2.00000014e-004
,,,3.72500000e-009,-2.47656268e-004
,,,3.75000000e-009,-3.06250022e-004
,,,3.77500000e-009,-3.71093776e-004
,,,3.80000000e-009,-4.37500031e-004
,,,3.82500000e-009,-4.98437535e-004
,,,3.85000000e-009,-5.49218789e-004
,,,3.87500000e-009,-5.83593791e-004
,,,3.90000000e-009,-6.00000042e-004
,,,3.92500000e-009,-5.89843792e-004
,,,3.95000000e-009,-5.59375040e-004
,,,3.97500000e-009,-5.11718786e-004
,,,4.00000000e-009,-4.51562532e-004
,,,4.02500000e-009,-3.84375027e-004
,,,4.05000000e-009,-3.15625022e-004
,,,4.07500000e-009,-2.52343768e-004
,,,4.10000000e-009,-2.00000014e-004
,,,4.12500000e-009,-1.61718761e-004
,,,4.15000000e-009,-1.42968760e-004
,,,4.17500000e-009,-1.43750010e-004
,,,4.20000000e-009,-1.64843762e-004
,,,4.22500000e-009,-2.03906264e-004
,,,4.25000000e-009,-2.58593768e-004
,,,4.27500000e-009,-3.25781273e-004
,,,4.30000000e-009,-4.00000028e-004
,,,4.32500000e-009,-4.70312533e-004
,,,4.35000000e-009,-5.35937538e-004
,,,4.37500000e-009,-5.91406292e-004
,,,4.40000000e-009,-6.32031295e-004
,,,4.42500000e-009,-6.54687546e-004
,,,4.45000000e-009,-6.57031297e-004
,,,4.47500000e-009,-6.39062545e-004
,,,4.50000000e-009,-6.00000042e-004
,,,4.52500000e-009,-5.35937538e-004
,,,4.55000000e-009,-4.57812532e-004
,,,4.57500000e-009,-3.70312526e-004
,,,4.60000000e-009,-2.80468770e-004
,,,4.62500000e-009,-1.93750014e-004
,,,4.65000000e-009,-1.14843758e-004
,,,4.67500000e-009,-4.92187535e-005
,,,4.70000000e-009,0.00000000e+000
,,,4.72500000e-009,3.12500022e-005
,,,4.75000000e-009,4.53125032e-005
,,,4.77500000e-009,4.60937533e-005
,,,4.80000000e-009,3.75000027e-005
,,,4.82500000e-009,2.34375017e-005
,,,4.85000000e-009,9.37500066e-006
,,,4.87500000e-009,7.81250055e-007
,,,4.90000000e-009,0.00000000e+000
,,,4.92500000e-009,6.25000044e-006
,,,4.95000000e-009,2.34375017e-005
,,,4.97500000e-009,5.07812536e-005
,,,5.00000000e-009,8.28125059e-005
,,,5.02500000e-009,1.17968758e-004
,,,5.05000000e-009,1.51562511e-004
,,,5.07500000e-009,1.79687513e-004
,,,5.10000000e-009,2.00000014e-004
,,,5.12500000e-009,2.07812515e-004
,,,5.15000000e-009,2.07031265e-004
,,,5.17500000e-009,2.00781264e-004
,,,5.20000000e-009,1.91406264e-004
,,,5.22500000e-009,1.83593763e-004
,,,5.25000000e-009,1.80468763e-004
,,,5.27500000e-009,1.85156263e-004
,,,5.30000000e-009,2.00000014e-004
,,,5.32500000e-009,2.21093766e-004
,,,5.35000000e-009,2.51562518e-004
,,,5.37500000e-009,2.87500020e-004
,,,5.40000000e-009,3.25000023e-004
,,,5.42500000e-009,3.60156275e-004
,,,5.45000000e-009,3.86718777e-004
,,,5.47500000e-009,4.00781278e-004
,,,5.50000000e-009,4.00000028e-004
,,,5.52500000e-009,3.75000027e-004
,,,5.55000000e-009,3.35156274e-004
,,,5.57500000e-009,2.83593770e-004
,,,5.60000000e-009,2.24218766e-004
,,,5.62500000e-009,1.61718761e-004
,,,5.65000000e-009,1.00000007e-004
,,,5.67500000e-009,4.53125032e-005
,,,5.70000000e-009,0.00000000e+000
,,,5.72500000e-009,-3.28125023e-005
,,,5.75000000e-009,-5.15625036e-005
,,,5.77500000e-009,-5.85937541e-005
,,,5.80000000e-009,-5.54687539e-005
,,,5.82500000e-009,-4.45312532e-005
,,,5.85000000e-009,-2.89062520e-005
,,,5.87500000e-009,-1.32812509e-005
,,,5.90000000e-009,0.00000000e+000
,,,5.92500000e-009,8.59375061e-006
,,,5.95000000e-009,1.25000009e-005
,,,5.97500000e-009,1.17187508e-005
