RawData/SinglePhotoelectron/R7_2pt2B_5mV/wave012_Ch2.csv

"Record Length",1000,"Points",-7.72500000e-009,-1.48437511e-005
"Sample Interval",2.50000000e-011,s,-7.70000000e-009,-9.37500066e-006
"Trigger Point",309,"Samples",-7.67500000e-009,-3.90625028e-006
"Trigger Time",2.40200000e-011,s,-7.65000000e-009,0.00000000e+000
"",,,-7.62500000e-009,0.00000000e+000
"Horizontal Offset",-7.72500000e-009,s,-7.60000000e-009,-1.56250011e-006
,,,-7.57500000e-009,-7.03125050e-006
,,,-7.55000000e-009,-1.40625010e-005
,,,-7.52500000e-009,-2.03125014e-005
,,,-7.50000000e-009,-2.34375017e-005
,,,-7.47500000e-009,-2.26562516e-005
,,,-7.45000000e-009,-1.48437511e-005
,,,-7.42500000e-009,0.00000000e+000
,,,-7.40000000e-009,2.34375017e-005
,,,-7.37500000e-009,5.31250038e-005
,,,-7.35000000e-009,8.59375061e-005
,,,-7.32500000e-009,1.19531258e-004
,,,-7.30000000e-009,1.50000011e-004
,,,-7.27500000e-009,1.75000012e-004
,,,-7.25000000e-009,1.92187514e-004
,,,-7.22500000e-009,2.00000014e-004
,,,-7.20000000e-009,1.95312514e-004
,,,-7.17500000e-009,1.80468763e-004
,,,-7.15000000e-009,1.57031261e-004
,,,-7.12500000e-009,1.26562509e-004
,,,-7.10000000e-009,9.29687566e-005
,,,-7.07500000e-009,5.85937541e-005
,,,-7.05000000e-009,2.65625019e-005
,,,-7.02500000e-009,0.00000000e+000
,,,-7.00000000e-009,-1.95312514e-005
,,,-6.97500000e-009,-3.20312523e-005
,,,-6.95000000e-009,-3.67187526e-005
,,,-6.92500000e-009,-3.51562525e-005
,,,-6.90000000e-009,-2.96875021e-005
,,,-6.87500000e-009,-2.03125014e-005
,,,-6.85000000e-009,-9.37500066e-006
,,,-6.82500000e-009,0.00000000e+000
,,,-6.80000000e-009,7.81250055e-006
,,,-6.77500000e-009,1.32812509e-005
,,,-6.75000000e-009,1.64062512e-005
,,,-6.72500000e-009,1.56250011e-005
,,,-6.70000000e-009,1.32812509e-005
,,,-6.67500000e-009,9.37500066e-006
,,,-6.65000000e-009,4.68750033e-006
,,,-6.62500000e-009,0.00000000e+000
,,,-6.60000000e-009,-3.90625028e-006
,,,-6.57500000e-009,-6.25000044e-006
,,,-6.55000000e-009,-7.03125050e-006
,,,-6.52500000e-009,-7.03125050e-006
,,,-6.50000000e-009,-6.25000044e-006
,,,-6.47500000e-009,-3.90625028e-006
,,,-6.45000000e-009,-1.56250011e-006
,,,-6.42500000e-009,0.00000000e+000
,,,-6.40000000e-009,7.81250055e-007
,,,-6.37500000e-009,7.81250055e-007
,,,-6.35000000e-009,0.00000000e+000
,,,-6.32500000e-009,0.00000000e+000
,,,-6.30000000e-009,0.00000000e+000
,,,-6.27500000e-009,-7.81250055e-007
,,,-6.25000000e-009,-7.81250055e-007
,,,-6.22500000e-009,0.00000000e+000
,,,-6.20000000e-009,7.81250055e-007
,,,-6.17500000e-009,2.34375017e-006
,,,-6.15000000e-009,3.12500022e-006
,,,-6.12500000e-009,3.90625028e-006
,,,-6.10000000e-009,3.90625028e-006
,,,-6.07500000e-009,3.12500022e-006
,,,-6.05000000e-009,1.56250011e-006
,,,-6.02500000e-009,0.00000000e+000
,,,-6.00000000e-009,-3.12500022e-006
,,,-5.97500000e-009,-7.03125050e-006
,,,-5.95000000e-009,-9.37500066e-006
,,,-5.92500000e-009,-1.17187508e-005
,,,-5.90000000e-009,-1.17187508e-005
,,,-5.87500000e-009,-1.01562507e-005
,,,-5.85000000e-009,-5.46875039e-006
,,,-5.82500000e-009,0.00000000e+000
,,,-5.80000000e-009,6.25000044e-006
,,,-5.77500000e-009,1.32812509e-005
,,,-5.75000000e-009,1.95312514e-005
,,,-5.72500000e-009,2.34375017e-005
,,,-5.70000000e-009,2.42187517e-005
,,,-5.67500000e-009,2.10937515e-005
,,,-5.65000000e-009,1.32812509e-005
,,,-5.62500000e-009,0.00000000e+000
,,,-5.60000000e-009,-1.79687513e-005
,,,-5.57500000e-009,-4.14062529e-005
,,,-5.55000000e-009,-6.79687548e-005
,,,-5.52500000e-009,-9.60937568e-005
,,,-5.50000000e-009,-1.25000009e-004
,,,-5.47500000e-009,-1.53125011e-004
,,,-5.45000000e-009,-1.78125013e-004
,,,-5.42500000e-009,-2.00000014e-004
,,,-5.40000000e-009,-2.14062515e-004
,,,-5.37500000e-009,-2.24218766e-004
,,,-5.35000000e-009,-2.28125016e-004
,,,-5.32500000e-009,-2.27343766e-004
,,,-5.30000000e-009,-2.23437516e-004
,,,-5.27500000e-009,-2.16406265e-004
,,,-5.25000000e-009,-2.08593765e-004
,,,-5.22500000e-009,-2.00000014e-004
,,,-5.20000000e-009,-1.90625013e-004
,,,-5.17500000e-009,-1.84375013e-004
,,,-5.15000000e-009,-1.79687513e-004
,,,-5.12500000e-009,-1.78906263e-004
,,,-5.10000000e-009,-1.80468763e-004
,,,-5.07500000e-009,-1.85156263e-004
,,,-5.05000000e-009,-1.91406264e-004
,,,-5.02500000e-009,-2.00000014e-004
,,,-5.00000000e-009,-2.05468765e-004
,,,-4.97500000e-009,-2.10156265e-004
,,,-4.95000000e-009,-2.14062515e-004
,,,-4.92500000e-009,-2.16406265e-004
,,,-4.90000000e-009,-2.17187515e-004
,,,-4.87500000e-009,-2.14062515e-004
,,,-4.85000000e-009,-2.08593765e-004
,,,-4.82500000e-009,-2.00000014e-004
,,,-4.80000000e-009,-1.85156263e-004
,,,-4.77500000e-009,-1.67187512e-004
,,,-4.75000000e-009,-1.45312510e-004
,,,-4.72500000e-009,-1.20312509e-004
,,,-4.70000000e-009,-9.21875065e-005
,,,-4.67500000e-009,-6.17187544e-005
,,,-4.65000000e-009,-3.04687522e-005
,,,-4.62500000e-009,0.00000000e+000
,,,-4.60000000e-009,2.81250020e-005
,,,-4.57500000e-009,5.15625036e-005
,,,-4.55000000e-009,6.79687548e-005
,,,-4.52500000e-009,7.57812554e-005
,,,-4.50000000e-009,7.26562551e-005
,,,-4.47500000e-009,5.93750042e-005
,,,-4.45000000e-009,3.43750024e-005
,,,-4.42500000e-009,0.00000000e+000
,,,-4.40000000e-009,-4.21875030e-005
,,,-4.37500000e-009,-8.75000062e-005
,,,-4.35000000e-009,-1.32031259e-004
,,,-4.32500000e-009,-1.71093762e-004
,,,-4.30000000e-009,-2.00781264e-004
,,,-4.27500000e-009,-2.16406265e-004
,,,-4.25000000e-009,-2.16406265e-004
,,,-4.22500000e-009,-2.00000014e-004
,,,-4.20000000e-009,-1.64843762e-004
,,,-4.17500000e-009,-1.16406258e-004
,,,-4.15000000e-009,-5.85937541e-005
,,,-4.12500000e-009,3.90625028e-006
,,,-4.10000000e-009,6.64062547e-005
,,,-4.07500000e-009,1.22656259e-004
,,,-4.05000000e-009,1.68750012e-004
,,,-4.02500000e-009,2.00000014e-004
,,,-4.00000000e-009,2.10156265e-004
,,,-3.97500000e-009,2.04687514e-004
,,,-3.95000000e-009,1.84375013e-004
,,,-3.92500000e-009,1.52343761e-004
,,,-3.90000000e-009,1.14062508e-004
,,,-3.87500000e-009,7.26562551e-005
,,,-3.85000000e-009,3.35937524e-005
,,,-3.82500000e-009,0.00000000e+000
,,,-3.80000000e-009,-2.57812518e-005
,,,-3.77500000e-009,-4.14062529e-005
,,,-3.75000000e-009,-4.68750033e-005
,,,-3.72500000e-009,-4.37500031e-005
,,,-3.70000000e-009,-3.51562525e-005
,,,-3.67500000e-009,-2.34375017e-005
,,,-3.65000000e-009,-1.01562507e-005
,,,-3.62500000e-009,0.00000000e+000
,,,-3.60000000e-009,7.03125050e-006
,,,-3.57500000e-009,1.01562507e-005
,,,-3.55000000e-009,1.01562507e-005
,,,-3.52500000e-009,7.03125050e-006
,,,-3.50000000e-009,3.12500022e-006
,,,-3.47500000e-009,0.00000000e+000
,,,-3.45000000e-009,-7.81250055e-007
,,,-3.42500000e-009,0.00000000e+000
,,,-3.40000000e-009,3.90625028e-006
,,,-3.37500000e-009,1.09375008e-005
,,,-3.35000000e-009,1.79687513e-005
,,,-3.32500000e-009,2.42187517e-005
,,,-3.30000000e-009,2.73437519e-005
,,,-3.27500000e-009,2.50000018e-005
,,,-3.25000000e-009,1.64062512e-005
,,,-3.22500000e-009,0.00000000e+000
,,,-3.20000000e-009,-2.42187517e-005
,,,-3.17500000e-009,-5.39062538e-005
,,,-3.15000000e-009,-8.67187561e-005
,,,-3.12500000e-009,-1.20312509e-004
,,,-3.10000000e-009,-1.50781261e-004
,,,-3.07500000e-009,-1.75781262e-004
,,,-3.05000000e-009,-1.92187514e-004
,,,-3.02500000e-009,-2.00000014e-004
,,,-3.00000000e-009,-1.93750014e-004
,,,-2.97500000e-009,-1.77343763e-004
,,,-2.95000000e-009,-1.53125011e-004
,,,-2.92500000e-009,-1.23437509e-004
,,,-2.90000000e-009,-9.06250064e-005
,,,-2.87500000e-009,-5.70312540e-005
,,,-2.85000000e-009,-2.57812518e-005
,,,-2.82500000e-009,0.00000000e+000
,,,-2.80000000e-009,1.95312514e-005
,,,-2.77500000e-009,3.20312523e-005
,,,-2.75000000e-009,3.67187526e-005
,,,-2.72500000e-009,3.51562525e-005
,,,-2.70000000e-009,2.96875021e-005
,,,-2.67500000e-009,2.03125014e-005
,,,-2.65000000e-009,9.37500066e-006
,,,-2.62500000e-009,0.00000000e+000
,,,-2.60000000e-009,-7.03125050e-006
,,,-2.57500000e-009,-1.17187508e-005
,,,-2.55000000e-009,-1.32812509e-005
,,,-2.52500000e-009,-1.25000009e-005
,,,-2.50000000e-009,-1.01562507e-005
,,,-2.47500000e-009,-6.25000044e-006
,,,-2.45000000e-009,-2.34375017e-006
,,,-2.42500000e-009,0.00000000e+000
,,,-2.40000000e-009,1.56250011e-006
,,,-2.37500000e-009,1.56250011e-006
,,,-2.35000000e-009,7.81250055e-007
,,,-2.32500000e-009,0.00000000e+000
,,,-2.30000000e-009,-7.81250055e-007
,,,-2.27500000e-009,-1.56250011e-006
,,,-2.25000000e-009,-1.56250011e-006
,,,-2.22500000e-009,0.00000000e+000
,,,-2.20000000e-009,2.34375017e-006
,,,-2.17500000e-009,6.25000044e-006
,,,-2.15000000e-009,1.01562507e-005
,,,-2.12500000e-009,1.25000009e-005
,,,-2.10000000e-009,1.32812509e-005
,,,-2.07500000e-009,1.17187508e-005
,,,-2.05000000e-009,7.03125050e-006
,,,-2.02500000e-009,0.00000000e+000
,,,-2.00000000e-009,-1.09375008e-005
,,,-1.97500000e-009,-2.18750015e-005
,,,-1.95000000e-009,-3.20312523e-005
,,,-1.92500000e-009,-3.90625028e-005
,,,-1.90000000e-009,-3.98437528e-005
,,,-1.87500000e-009,-3.43750024e-005
,,,-1.85000000e-009,-2.10937515e-005
,,,-1.82500000e-009,0.00000000e+000
,,,-1.80000000e-009,2.42187517e-005
,,,-1.77500000e-009,5.39062538e-005
,,,-1.75000000e-009,8.51562560e-005
,,,-1.72500000e-009,1.17187508e-004
,,,-1.70000000e-009,1.47656260e-004
,,,-1.67500000e-009,1.72656262e-004
,,,-1.65000000e-009,1.90625013e-004
,,,-1.62500000e-009,2.00000014e-004
,,,-1.60000000e-009,1.89062513e-004
,,,-1.57500000e-009,1.68750012e-004
,,,-1.55000000e-009,1.39843760e-004
,,,-1.52500000e-009,1.07031258e-004
,,,-1.50000000e-009,7.34375052e-005
,,,-1.47500000e-009,4.21875030e-005
,,,-1.45000000e-009,1.71875012e-005
,,,-1.42500000e-009,0.00000000e+000
,,,-1.40000000e-009,-2.18750015e-005
,,,-1.37500000e-009,-3.67187526e-005
,,,-1.35000000e-009,-4.37500031e-005
,,,-1.32500000e-009,-4.37500031e-005
,,,-1.30000000e-009,-3.75000027e-005
,,,-1.27500000e-009,-2.65625019e-005
,,,-1.25000000e-009,-1.32812509e-005
,,,-1.22500000e-009,0.00000000e+000
,,,-1.20000000e-009,-7.81250055e-006
,,,-1.17500000e-009,-2.34375017e-005
,,,-1.15000000e-009,-4.45312532e-005
,,,-1.12500000e-009,-7.10937550e-005
,,,-1.10000000e-009,-1.00781257e-004
,,,-1.07500000e-009,-1.32812509e-004
,,,-1.05000000e-009,-1.65625012e-004
,,,-1.02500000e-009,-2.00000014e-004
,,,-1.00000000e-009,-2.57812518e-004
,,,-9.75000000e-010,-3.21093773e-004
,,,-9.50000000e-010,-3.89843778e-004
,,,-9.25000000e-010,-4.63281283e-004
,,,-9.00000000e-010,-5.41406288e-004
,,,-8.75000000e-010,-6.22656294e-004
,,,-8.50000000e-010,-7.08593800e-004
,,,-8.25000000e-010,-8.00000057e-004
,,,-8.00000000e-010,-9.14062565e-004
,,,-7.75000000e-010,-1.03593757e-003
,,,-7.50000000e-010,-1.16328133e-003
,,,-7.25000000e-010,-1.29453134e-003
,,,-7.00000000e-010,-1.42500010e-003
,,,-6.75000000e-010,-1.55390636e-003
,,,-6.50000000e-010,-1.67890637e-003
,,,-6.25000000e-010,-1.80000013e-003
,,,-6.00000000e-010,-1.92500014e-003
,,,-5.75000000e-010,-2.05000015e-003
,,,-5.50000000e-010,-2.17500015e-003
,,,-5.25000000e-010,-2.29921891e-003
,,,-5.00000000e-010,-2.42265642e-003
,,,-4.75000000e-010,-2.54765643e-003
,,,-4.50000000e-010,-2.67265644e-003
,,,-4.25000000e-010,-2.80000020e-003
,,,-4.00000000e-010,-2.92968771e-003
,,,-3.75000000e-010,-3.06640647e-003
,,,-3.50000000e-010,-3.21093773e-003
,,,-3.25000000e-010,-3.36171899e-003
,,,-3.00000000e-010,-3.51796900e-003
,,,-2.75000000e-010,-3.67812526e-003
,,,-2.50000000e-010,-3.83906277e-003
,,,-2.25000000e-010,-4.00000028e-003
,,,-2.00000000e-010,-4.14609404e-003
,,,-1.75000000e-010,-4.29062530e-003
,,,-1.50000000e-010,-4.43203156e-003
,,,-1.25000000e-010,-4.56640657e-003
,,,-1.00000000e-010,-4.69296908e-003
,,,-7.50000000e-011,-4.80781284e-003
,,,-5.00000000e-011,-4.91015660e-003
,,,-2.50000000e-011,-5.00000035e-003
,,,0.00000000e+000,-5.05468786e-003
,,,2.50000000e-011,-5.10312536e-003
,,,5.00000000e-011,-5.14843786e-003
,,,7.50000000e-011,-5.19296912e-003
,,,1.00000000e-010,-5.23906287e-003
,,,1.25000000e-010,-5.28906287e-003
,,,1.50000000e-010,-5.34296913e-003
,,,1.75000000e-010,-5.40000038e-003
,,,2.00000000e-010,-5.43281288e-003
,,,2.25000000e-010,-5.46875039e-003
,,,2.50000000e-010,-5.50625039e-003
,,,2.75000000e-010,-5.54218789e-003
,,,3.00000000e-010,-5.57343789e-003
,,,3.25000000e-010,-5.59531290e-003
,,,3.50000000e-010,-5.60468790e-003
,,,3.75000000e-010,-5.60000040e-003
,,,4.00000000e-010,-5.55234414e-003
,,,4.25000000e-010,-5.49453164e-003
,,,4.50000000e-010,-5.43125038e-003
,,,4.75000000e-010,-5.36796913e-003
,,,5.00000000e-010,-5.30859413e-003
,,,5.25000000e-010,-5.25859412e-003
,,,5.50000000e-010,-5.22187537e-003
,,,5.75000000e-010,-5.20000037e-003
,,,6.00000000e-010,-5.16875037e-003
,,,6.25000000e-010,-5.15312536e-003
,,,6.50000000e-010,-5.15078161e-003
,,,6.75000000e-010,-5.15859412e-003
,,,7.00000000e-010,-5.17187537e-003
,,,7.25000000e-010,-5.18671912e-003
,,,7.50000000e-010,-5.19765662e-003
,,,7.75000000e-010,-5.20000037e-003
,,,8.00000000e-010,-5.16640662e-003
,,,8.25000000e-010,-5.11718786e-003
,,,8.50000000e-010,-5.05234411e-003
,,,8.75000000e-010,-4.97500035e-003
,,,9.00000000e-010,-4.88828160e-003
,,,9.25000000e-010,-4.79453159e-003
,,,9.50000000e-010,-4.69765658e-003
,,,9.75000000e-010,-4.60000033e-003
,,,1.00000000e-009,-4.48906282e-003
,,,1.02500000e-009,-4.37890656e-003
,,,1.05000000e-009,-4.27187530e-003
,,,1.07500000e-009,-4.16953155e-003
,,,1.10000000e-009,-4.07109404e-003
,,,1.12500000e-009,-3.97734403e-003
,,,1.15000000e-009,-3.88750028e-003
,,,1.17500000e-009,-3.80000027e-003
,,,1.20000000e-009,-3.70546901e-003
,,,1.22500000e-009,-3.60937526e-003
,,,1.25000000e-009,-3.50937525e-003
,,,1.27500000e-009,-3.40781274e-003
,,,1.30000000e-009,-3.30546898e-003
,,,1.32500000e-009,-3.20234398e-003
,,,1.35000000e-009,-3.10000022e-003
,,,1.37500000e-009,-3.00000021e-003
,,,1.40000000e-009,-2.90000021e-003
,,,1.42500000e-009,-2.79843770e-003
,,,1.45000000e-009,-2.69531269e-003
,,,1.47500000e-009,-2.59218768e-003
,,,1.50000000e-009,-2.48984393e-003
,,,1.52500000e-009,-2.38984392e-003
,,,1.55000000e-009,-2.29296891e-003
,,,1.57500000e-009,-2.20000016e-003
,,,1.60000000e-009,-2.11250015e-003
,,,1.62500000e-009,-2.02734389e-003
,,,1.65000000e-009,-1.94375014e-003
,,,1.67500000e-009,-1.86328138e-003
,,,1.70000000e-009,-1.78750013e-003
,,,1.72500000e-009,-1.71796887e-003
,,,1.75000000e-009,-1.65546887e-003
,,,1.77500000e-009,-1.60000011e-003
,,,1.80000000e-009,-1.55625011e-003
,,,1.82500000e-009,-1.51328136e-003
,,,1.85000000e-009,-1.46875010e-003
,,,1.87500000e-009,-1.42109385e-003
,,,1.90000000e-009,-1.37031260e-003
,,,1.92500000e-009,-1.31640634e-003
,,,1.95000000e-009,-1.25937509e-003
,,,1.97500000e-009,-1.20000008e-003
,,,2.00000000e-009,-1.14765633e-003
,,,2.02500000e-009,-1.09140633e-003
,,,2.05000000e-009,-1.03359382e-003
,,,2.07500000e-009,-9.75781319e-004
,,,2.10000000e-009,-9.21093815e-004
,,,2.12500000e-009,-8.72656312e-004
,,,2.15000000e-009,-8.32031309e-004
,,,2.17500000e-009,-8.00000057e-004
,,,2.20000000e-009,-7.84375056e-004
,,,2.22500000e-009,-7.72656305e-004
,,,2.25000000e-009,-7.60156304e-004
,,,2.27500000e-009,-7.43750053e-004
,,,2.30000000e-009,-7.22656301e-004
,,,2.32500000e-009,-6.92187549e-004
,,,2.35000000e-009,-6.51562546e-004
,,,2.37500000e-009,-6.00000042e-004
,,,2.40000000e-009,-5.43750038e-004
,,,2.42500000e-009,-4.75781284e-004
,,,2.45000000e-009,-3.98437528e-004
,,,2.47500000e-009,-3.13281272e-004
,,,2.50000000e-009,-2.26562516e-004
,,,2.52500000e-009,-1.42187510e-004
,,,2.55000000e-009,-6.56250046e-005
,,,2.57500000e-009,0.00000000e+000
,,,2.60000000e-009,4.14062529e-005
,,,2.62500000e-009,6.95312549e-005
,,,2.65000000e-009,8.35937559e-005
,,,2.67500000e-009,8.43750060e-005
,,,2.70000000e-009,7.50000053e-005
,,,2.72500000e-009,5.62500040e-005
,,,2.75000000e-009,3.04687522e-005
,,,2.77500000e-009,0.00000000e+000
,,,2.80000000e-009,-3.98437528e-005
,,,2.82500000e-009,-7.89062556e-005
,,,2.85000000e-009,-1.12500008e-004
,,,2.87500000e-009,-1.41406260e-004
,,,2.90000000e-009,-1.64843762e-004
,,,2.92500000e-009,-1.81250013e-004
,,,2.95000000e-009,-1.92968764e-004
,,,2.97500000e-009,-2.00000014e-004
,,,3.00000000e-009,-2.06250015e-004
,,,3.02500000e-009,-2.09375015e-004
,,,3.05000000e-009,-2.08593765e-004
,,,3.07500000e-009,-2.06250015e-004
,,,3.10000000e-009,-2.03906264e-004
,,,3.12500000e-009,-2.00781264e-004
,,,3.15000000e-009,-1.99218764e-004
,,,3.17500000e-009,-2.00000014e-004
,,,3.20000000e-009,-2.03125014e-004
,,,3.22500000e-009,-2.07812515e-004
,,,3.25000000e-009,-2.11718765e-004
,,,3.27500000e-009,-2.14062515e-004
,,,3.30000000e-009,-2.14843765e-004
,,,3.32500000e-009,-2.12500015e-004
,,,3.35000000e-009,-2.07031265e-004
,,,3.37500000e-009,-2.00000014e-004
,,,3.40000000e-009,-1.91406264e-004
,,,3.42500000e-009,-1.82812513e-004
,,,3.45000000e-009,-1.74218762e-004
,,,3.47500000e-009,-1.67968762e-004
,,,3.50000000e-009,-1.66406262e-004
,,,3.52500000e-009,-1.70312512e-004
,,,3.55000000e-009,-1.81250013e-004
,,,3.57500000e-009,-2.00000014e-004
,,,3.60000000e-009,-2.24218766e-004
,,,3.62500000e-009,-2.53906268e-004
,,,3.65000000e-009,-2.86718770e-004
,,,3.67500000e-009,-3.20312523e-004
,,,3.70000000e-009,-3.50781275e-004
,,,3.72500000e-009,-3.75781277e-004
,,,3.75000000e-009,-3.92187528e-004
,,,3.77500000e-009,-4.00000028e-004
,,,3.80000000e-009,-3.93750028e-004
,,,3.82500000e-009,-3.77343777e-004
,,,3.85000000e-009,-3.53125025e-004
,,,3.87500000e-009,-3.23437523e-004
,,,3.90000000e-009,-2.90625021e-004
,,,3.92500000e-009,-2.57031268e-004
,,,3.95000000e-009,-2.25781266e-004
,,,3.97500000e-009,-2.00000014e-004
,,,4.00000000e-009,-1.78906263e-004
,,,4.02500000e-009,-1.65625012e-004
,,,4.05000000e-009,-1.59375011e-004
,,,4.07500000e-009,-1.60156261e-004
,,,4.10000000e-009,-1.66406262e-004
,,,4.12500000e-009,-1.75781262e-004
,,,4.15000000e-009,-1.87500013e-004
,,,4.17500000e-009,-2.00000014e-004
,,,4.20000000e-009,-2.09375015e-004
,,,4.22500000e-009,-2.16406265e-004
,,,4.25000000e-009,-2.19531266e-004
,,,4.27500000e-009,-2.20312516e-004
,,,4.30000000e-009,-2.17968765e-004
,,,4.32500000e-009,-2.12500015e-004
,,,4.35000000e-009,-2.06250015e-004
,,,4.37500000e-009,-2.00000014e-004
,,,4.40000000e-009,-1.92187514e-004
,,,4.42500000e-009,-1.85937513e-004
,,,4.45000000e-009,-1.82031263e-004
,,,4.47500000e-009,-1.79687513e-004
,,,4.50000000e-009,-1.81250013e-004
,,,4.52500000e-009,-1.85156263e-004
,,,4.55000000e-009,-1.91406264e-004
,,,4.57500000e-009,-2.00000014e-004
,,,4.60000000e-009,-2.07812515e-004
,,,4.62500000e-009,-2.16406265e-004
,,,4.65000000e-009,-2.22656266e-004
,,,4.67500000e-009,-2.26562516e-004
,,,4.70000000e-009,-2.27343766e-004
,,,4.72500000e-009,-2.23437516e-004
,,,4.75000000e-009,-2.14062515e-004
,,,4.77500000e-009,-2.00000014e-004
,,,4.80000000e-009,-1.78906263e-004
,,,4.82500000e-009,-1.53906261e-004
,,,4.85000000e-009,-1.25781259e-004
,,,4.87500000e-009,-9.60937568e-005
,,,4.90000000e-009,-6.71875048e-005
,,,4.92500000e-009,-4.06250029e-005
,,,4.95000000e-009,-1.71875012e-005
,,,4.97500000e-009,0.00000000e+000
,,,5.00000000e-009,1.09375008e-005
,,,5.02500000e-009,1.71875012e-005
,,,5.05000000e-009,1.79687513e-005
,,,5.07500000e-009,1.56250011e-005
,,,5.10000000e-009,1.17187508e-005
,,,5.12500000e-009,6.25000044e-006
,,,5.15000000e-009,2.34375017e-006
,,,5.17500000e-009,0.00000000e+000
,,,5.20000000e-009,-7.81250055e-007
,,,5.22500000e-009,0.00000000e+000
,,,5.25000000e-009,7.81250055e-007
,,,5.27500000e-009,3.90625028e-006
,,,5.30000000e-009,6.25000044e-006
,,,5.32500000e-009,6.25000044e-006
,,,5.35000000e-009,4.68750033e-006
,,,5.37500000e-009,0.00000000e+000
,,,5.40000000e-009,-7.81250055e-006
,,,5.42500000e-009,-1.64062512e-005
,,,5.45000000e-009,-2.50000018e-005
,,,5.47500000e-009,-3.12500022e-005
,,,5.50000000e-009,-3.28125023e-005
,,,5.52500000e-009,-2.89062520e-005
,,,5.55000000e-009,-1.79687513e-005
,,,5.57500000e-009,0.00000000e+000
,,,5.60000000e-009,2.42187517e-005
,,,5.62500000e-009,5.39062538e-005
,,,5.65000000e-009,8.67187561e-005
,,,5.67500000e-009,1.20312509e-004
,,,5.70000000e-009,1.50781261e-004
,,,5.72500000e-009,1.75781262e-004
,,,5.75000000e-009,1.92187514e-004
,,,5.77500000e-009,2.00000014e-004
,,,5.80000000e-009,1.93750014e-004
,,,5.82500000e-009,1.77343763e-004
,,,5.85000000e-009,1.53125011e-004
,,,5.87500000e-009,1.23437509e-004
,,,5.90000000e-009,9.06250064e-005
,,,5.92500000e-009,5.70312540e-005
