RawData/SinglePhotoelectron/R7_2pt2B_5mV/wave022_Ch2.csv

"Record Length",1000,"Points",-7.72500000e-009,-2.10156265e-004
"Sample Interval",2.50000000e-011,s,-7.70000000e-009,-2.07031265e-004
"Trigger Point",309,"Samples",-7.67500000e-009,-2.03125014e-004
"Trigger Time",5.24895623e-012,s,-7.65000000e-009,-2.00000014e-004
"",,,-7.62500000e-009,-1.95312514e-004
"Horizontal Offset",-7.72500000e-009,s,-7.60000000e-009,-1.92968764e-004
,,,-7.57500000e-009,-1.92187514e-004
,,,-7.55000000e-009,-1.92187514e-004
,,,-7.52500000e-009,-1.92968764e-004
,,,-7.50000000e-009,-1.95312514e-004
,,,-7.47500000e-009,-1.97656264e-004
,,,-7.45000000e-009,-2.00000014e-004
,,,-7.42500000e-009,-2.00781264e-004
,,,-7.40000000e-009,-2.00781264e-004
,,,-7.37500000e-009,-2.00000014e-004
,,,-7.35000000e-009,-1.99218764e-004
,,,-7.32500000e-009,-1.99218764e-004
,,,-7.30000000e-009,-1.98437514e-004
,,,-7.27500000e-009,-1.98437514e-004
,,,-7.25000000e-009,-2.00000014e-004
,,,-7.22500000e-009,-2.00781264e-004
,,,-7.20000000e-009,-2.02343764e-004
,,,-7.17500000e-009,-2.03125014e-004
,,,-7.15000000e-009,-2.03906264e-004
,,,-7.12500000e-009,-2.03906264e-004
,,,-7.10000000e-009,-2.03125014e-004
,,,-7.07500000e-009,-2.01562514e-004
,,,-7.05000000e-009,-2.00000014e-004
,,,-7.02500000e-009,-1.96093764e-004
,,,-7.00000000e-009,-1.92187514e-004
,,,-6.97500000e-009,-1.89843763e-004
,,,-6.95000000e-009,-1.87500013e-004
,,,-6.92500000e-009,-1.87500013e-004
,,,-6.90000000e-009,-1.89062513e-004
,,,-6.87500000e-009,-1.93750014e-004
,,,-6.85000000e-009,-2.00000014e-004
,,,-6.82500000e-009,-2.06250015e-004
,,,-6.80000000e-009,-2.13281265e-004
,,,-6.77500000e-009,-2.19531266e-004
,,,-6.75000000e-009,-2.23437516e-004
,,,-6.72500000e-009,-2.24218766e-004
,,,-6.70000000e-009,-2.21093766e-004
,,,-6.67500000e-009,-2.13281265e-004
,,,-6.65000000e-009,-2.00000014e-004
,,,-6.62500000e-009,-1.81250013e-004
,,,-6.60000000e-009,-1.57812511e-004
,,,-6.57500000e-009,-1.31250009e-004
,,,-6.55000000e-009,-1.03125007e-004
,,,-6.52500000e-009,-7.42187553e-005
,,,-6.50000000e-009,-4.60937533e-005
,,,-6.47500000e-009,-2.10937515e-005
,,,-6.45000000e-009,0.00000000e+000
,,,-6.42500000e-009,1.40625010e-005
,,,-6.40000000e-009,2.42187517e-005
,,,-6.37500000e-009,2.81250020e-005
,,,-6.35000000e-009,2.73437519e-005
,,,-6.32500000e-009,2.34375017e-005
,,,-6.30000000e-009,1.64062512e-005
,,,-6.27500000e-009,8.59375061e-006
,,,-6.25000000e-009,0.00000000e+000
,,,-6.22500000e-009,-9.37500066e-006
,,,-6.20000000e-009,-1.71875012e-005
,,,-6.17500000e-009,-2.18750015e-005
,,,-6.15000000e-009,-2.34375017e-005
,,,-6.12500000e-009,-2.18750015e-005
,,,-6.10000000e-009,-1.71875012e-005
,,,-6.07500000e-009,-9.37500066e-006
,,,-6.05000000e-009,0.00000000e+000
,,,-6.02500000e-009,8.59375061e-006
,,,-6.00000000e-009,1.64062512e-005
,,,-5.97500000e-009,2.34375017e-005
,,,-5.95000000e-009,2.73437519e-005
,,,-5.92500000e-009,2.81250020e-005
,,,-5.90000000e-009,2.42187517e-005
,,,-5.87500000e-009,1.40625010e-005
,,,-5.85000000e-009,0.00000000e+000
,,,-5.82500000e-009,-2.10937515e-005
,,,-5.80000000e-009,-4.60937533e-005
,,,-5.77500000e-009,-7.42187553e-005
,,,-5.75000000e-009,-1.03125007e-004
,,,-5.72500000e-009,-1.31250009e-004
,,,-5.70000000e-009,-1.57812511e-004
,,,-5.67500000e-009,-1.81250013e-004
,,,-5.65000000e-009,-2.00000014e-004
,,,-5.62500000e-009,-2.12500015e-004
,,,-5.60000000e-009,-2.19531266e-004
,,,-5.57500000e-009,-2.21875016e-004
,,,-5.55000000e-009,-2.20312516e-004
,,,-5.52500000e-009,-2.15625015e-004
,,,-5.50000000e-009,-2.10156265e-004
,,,-5.47500000e-009,-2.04687514e-004
,,,-5.45000000e-009,-2.00000014e-004
,,,-5.42500000e-009,-1.92968764e-004
,,,-5.40000000e-009,-1.88281263e-004
,,,-5.37500000e-009,-1.85156263e-004
,,,-5.35000000e-009,-1.85156263e-004
,,,-5.32500000e-009,-1.86718763e-004
,,,-5.30000000e-009,-1.89843763e-004
,,,-5.27500000e-009,-1.94531264e-004
,,,-5.25000000e-009,-2.00000014e-004
,,,-5.22500000e-009,-2.02343764e-004
,,,-5.20000000e-009,-2.04687514e-004
,,,-5.17500000e-009,-2.06250015e-004
,,,-5.15000000e-009,-2.07031265e-004
,,,-5.12500000e-009,-2.06250015e-004
,,,-5.10000000e-009,-2.04687514e-004
,,,-5.07500000e-009,-2.02343764e-004
,,,-5.05000000e-009,-2.00000014e-004
,,,-5.02500000e-009,-1.96093764e-004
,,,-5.00000000e-009,-1.92968764e-004
,,,-4.97500000e-009,-1.91406264e-004
,,,-4.95000000e-009,-1.90625013e-004
,,,-4.92500000e-009,-1.92187514e-004
,,,-4.90000000e-009,-1.94531264e-004
,,,-4.87500000e-009,-1.97656264e-004
,,,-4.85000000e-009,-2.00000014e-004
,,,-4.82500000e-009,-1.99218764e-004
,,,-4.80000000e-009,-1.94531264e-004
,,,-4.77500000e-009,-1.84375013e-004
,,,-4.75000000e-009,-1.67187512e-004
,,,-4.72500000e-009,-1.40625010e-004
,,,-4.70000000e-009,-1.03906257e-004
,,,-4.67500000e-009,-5.62500040e-005
,,,-4.65000000e-009,0.00000000e+000
,,,-4.62500000e-009,6.01562543e-005
,,,-4.60000000e-009,1.25000009e-004
,,,-4.57500000e-009,1.89843763e-004
,,,-4.55000000e-009,2.52343768e-004
,,,-4.52500000e-009,3.07812522e-004
,,,-4.50000000e-009,3.53125025e-004
,,,-4.47500000e-009,3.84375027e-004
,,,-4.45000000e-009,4.00000028e-004
,,,-4.42500000e-009,3.91406278e-004
,,,-4.40000000e-009,3.65625026e-004
,,,-4.37500000e-009,3.25000023e-004
,,,-4.35000000e-009,2.71093769e-004
,,,-4.32500000e-009,2.07812515e-004
,,,-4.30000000e-009,1.39062510e-004
,,,-4.27500000e-009,6.79687548e-005
,,,-4.25000000e-009,0.00000000e+000
,,,-4.22500000e-009,-6.48437546e-005
,,,-4.20000000e-009,-1.20312509e-004
,,,-4.17500000e-009,-1.64062512e-004
,,,-4.15000000e-009,-1.95312514e-004
,,,-4.12500000e-009,-2.13281265e-004
,,,-4.10000000e-009,-2.18750015e-004
,,,-4.07500000e-009,-2.13281265e-004
,,,-4.05000000e-009,-2.00000014e-004
,,,-4.02500000e-009,-1.79687513e-004
,,,-4.00000000e-009,-1.58593761e-004
,,,-3.97500000e-009,-1.39843760e-004
,,,-3.95000000e-009,-1.28125009e-004
,,,-3.92500000e-009,-1.25781259e-004
,,,-3.90000000e-009,-1.35937510e-004
,,,-3.87500000e-009,-1.60937511e-004
,,,-3.85000000e-009,-2.00000014e-004
,,,-3.82500000e-009,-2.50781268e-004
,,,-3.80000000e-009,-3.10156272e-004
,,,-3.77500000e-009,-3.75000027e-004
,,,-3.75000000e-009,-4.38281281e-004
,,,-3.72500000e-009,-4.96875035e-004
,,,-3.70000000e-009,-5.46093789e-004
,,,-3.67500000e-009,-5.80468791e-004
,,,-3.65000000e-009,-6.00000042e-004
,,,-3.62500000e-009,-5.96093792e-004
,,,-3.60000000e-009,-5.78125041e-004
,,,-3.57500000e-009,-5.49218789e-004
,,,-3.55000000e-009,-5.13281286e-004
,,,-3.52500000e-009,-4.75781284e-004
,,,-3.50000000e-009,-4.42187531e-004
,,,-3.47500000e-009,-4.15625029e-004
,,,-3.45000000e-009,-4.00000028e-004
,,,-3.42500000e-009,-3.90625028e-004
,,,-3.40000000e-009,-3.92968778e-004
,,,-3.37500000e-009,-4.02343778e-004
,,,-3.35000000e-009,-4.15625029e-004
,,,-3.32500000e-009,-4.26562530e-004
,,,-3.30000000e-009,-4.30468780e-004
,,,-3.27500000e-009,-4.22656280e-004
,,,-3.25000000e-009,-4.00000028e-004
,,,-3.22500000e-009,-3.58593775e-004
,,,-3.20000000e-009,-3.04687522e-004
,,,-3.17500000e-009,-2.42187517e-004
,,,-3.15000000e-009,-1.76562512e-004
,,,-3.12500000e-009,-1.14062508e-004
,,,-3.10000000e-009,-6.09375043e-005
,,,-3.07500000e-009,-2.10937515e-005
,,,-3.05000000e-009,0.00000000e+000
,,,-3.02500000e-009,1.56250011e-006
,,,-3.00000000e-009,-1.32812509e-005
,,,-2.97500000e-009,-4.29687530e-005
,,,-2.95000000e-009,-8.12500058e-005
,,,-2.92500000e-009,-1.21093759e-004
,,,-2.90000000e-009,-1.57812511e-004
,,,-2.87500000e-009,-1.85156263e-004
,,,-2.85000000e-009,-2.00000014e-004
,,,-2.82500000e-009,-1.97656264e-004
,,,-2.80000000e-009,-1.80468763e-004
,,,-2.77500000e-009,-1.51562511e-004
,,,-2.75000000e-009,-1.14843758e-004
,,,-2.72500000e-009,-7.65625054e-005
,,,-2.70000000e-009,-4.06250029e-005
,,,-2.67500000e-009,-1.40625010e-005
,,,-2.65000000e-009,0.00000000e+000
,,,-2.62500000e-009,-3.12500022e-006
,,,-2.60000000e-009,-1.95312514e-005
,,,-2.57500000e-009,-4.76562534e-005
,,,-2.55000000e-009,-8.28125059e-005
,,,-2.52500000e-009,-1.20312509e-004
,,,-2.50000000e-009,-1.54687511e-004
,,,-2.47500000e-009,-1.82812513e-004
,,,-2.45000000e-009,-2.00000014e-004
,,,-2.42500000e-009,-2.03906264e-004
,,,-2.40000000e-009,-1.95312514e-004
,,,-2.37500000e-009,-1.73437512e-004
,,,-2.35000000e-009,-1.42187510e-004
,,,-2.32500000e-009,-1.05468757e-004
,,,-2.30000000e-009,-6.64062547e-005
,,,-2.27500000e-009,-3.04687522e-005
,,,-2.25000000e-009,0.00000000e+000
,,,-2.22500000e-009,1.95312514e-005
,,,-2.20000000e-009,3.12500022e-005
,,,-2.17500000e-009,3.43750024e-005
,,,-2.15000000e-009,3.12500022e-005
,,,-2.12500000e-009,2.34375017e-005
,,,-2.10000000e-009,1.40625010e-005
,,,-2.07500000e-009,5.46875039e-006
,,,-2.05000000e-009,0.00000000e+000
,,,-2.02500000e-009,-3.12500022e-006
,,,-2.00000000e-009,-3.12500022e-006
,,,-1.97500000e-009,0.00000000e+000
,,,-1.95000000e-009,3.90625028e-006
,,,-1.92500000e-009,7.81250055e-006
,,,-1.90000000e-009,1.01562507e-005
,,,-1.87500000e-009,7.81250055e-006
,,,-1.85000000e-009,0.00000000e+000
,,,-1.82500000e-009,-1.56250011e-005
,,,-1.80000000e-009,-3.67187526e-005
,,,-1.77500000e-009,-6.25000044e-005
,,,-1.75000000e-009,-9.21875065e-005
,,,-1.72500000e-009,-1.21875009e-004
,,,-1.70000000e-009,-1.51562511e-004
,,,-1.67500000e-009,-1.78125013e-004
,,,-1.65000000e-009,-2.00000014e-004
,,,-1.62500000e-009,-2.17968765e-004
,,,-1.60000000e-009,-2.30468766e-004
,,,-1.57500000e-009,-2.36718767e-004
,,,-1.55000000e-009,-2.36718767e-004
,,,-1.52500000e-009,-2.32812516e-004
,,,-1.50000000e-009,-2.24218766e-004
,,,-1.47500000e-009,-2.12500015e-004
,,,-1.45000000e-009,-2.00000014e-004
,,,-1.42500000e-009,-1.94531264e-004
,,,-1.40000000e-009,-1.91406264e-004
,,,-1.37500000e-009,-1.90625013e-004
,,,-1.35000000e-009,-1.92187514e-004
,,,-1.32500000e-009,-1.93750014e-004
,,,-1.30000000e-009,-1.96875014e-004
,,,-1.27500000e-009,-1.98437514e-004
,,,-1.25000000e-009,-2.00000014e-004
,,,-1.22500000e-009,-2.11718765e-004
,,,-1.20000000e-009,-2.23437516e-004
,,,-1.17500000e-009,-2.33593767e-004
,,,-1.15000000e-009,-2.39062517e-004
,,,-1.12500000e-009,-2.39062517e-004
,,,-1.10000000e-009,-2.32812516e-004
,,,-1.07500000e-009,-2.19531266e-004
,,,-1.05000000e-009,-2.00000014e-004
,,,-1.02500000e-009,-1.95312514e-004
,,,-1.00000000e-009,-1.91406264e-004
,,,-9.75000000e-010,-1.88281263e-004
,,,-9.50000000e-010,-1.86718763e-004
,,,-9.25000000e-010,-1.85156263e-004
,,,-9.00000000e-010,-1.86718763e-004
,,,-8.75000000e-010,-1.90625013e-004
,,,-8.50000000e-010,-2.00000014e-004
,,,-8.25000000e-010,-2.44531267e-004
,,,-8.00000000e-010,-3.02343771e-004
,,,-7.75000000e-010,-3.71875026e-004
,,,-7.50000000e-010,-4.49218782e-004
,,,-7.25000000e-010,-5.32812538e-004
,,,-7.00000000e-010,-6.19531294e-004
,,,-6.75000000e-010,-7.09375050e-004
,,,-6.50000000e-010,-8.00000057e-004
,,,-6.25000000e-010,-9.21093815e-004
,,,-6.00000000e-010,-1.04765632e-003
,,,-5.75000000e-010,-1.17656258e-003
,,,-5.50000000e-010,-1.30625009e-003
,,,-5.25000000e-010,-1.43437510e-003
,,,-5.00000000e-010,-1.55937511e-003
,,,-4.75000000e-010,-1.68125012e-003
,,,-4.50000000e-010,-1.80000013e-003
,,,-4.25000000e-010,-1.94140639e-003
,,,-4.00000000e-010,-2.08750015e-003
,,,-3.75000000e-010,-2.23671891e-003
,,,-3.50000000e-010,-2.38828142e-003
,,,-3.25000000e-010,-2.54062518e-003
,,,-3.00000000e-010,-2.69375019e-003
,,,-2.75000000e-010,-2.84609395e-003
,,,-2.50000000e-010,-3.00000021e-003
,,,-2.25000000e-010,-3.17187522e-003
,,,-2.00000000e-010,-3.35312524e-003
,,,-1.75000000e-010,-3.54375025e-003
,,,-1.50000000e-010,-3.74296901e-003
,,,-1.25000000e-010,-3.94921903e-003
,,,-1.00000000e-010,-4.16171904e-003
,,,-7.50000000e-011,-4.37890656e-003
,,,-5.00000000e-011,-4.60000033e-003
,,,-2.50000000e-011,-4.82578159e-003
,,,0.00000000e+000,-5.05781286e-003
,,,2.50000000e-011,-5.29375037e-003
,,,5.00000000e-011,-5.52890664e-003
,,,7.50000000e-011,-5.76093791e-003
,,,1.00000000e-010,-5.98593792e-003
,,,1.25000000e-010,-6.19921919e-003
,,,1.50000000e-010,-6.40000045e-003
,,,1.75000000e-010,-6.57031297e-003
,,,2.00000000e-010,-6.73281298e-003
,,,2.25000000e-010,-6.88984424e-003
,,,2.50000000e-010,-7.04062550e-003
,,,2.75000000e-010,-7.18750051e-003
,,,3.00000000e-010,-7.32968802e-003
,,,3.25000000e-010,-7.46718803e-003
,,,3.50000000e-010,-7.60000054e-003
,,,3.75000000e-010,-7.70234430e-003
,,,4.00000000e-010,-7.80625055e-003
,,,4.25000000e-010,-7.91171931e-003
,,,4.50000000e-010,-8.01796932e-003
,,,4.75000000e-010,-8.12265682e-003
,,,5.00000000e-010,-8.22265683e-003
,,,5.25000000e-010,-8.31562559e-003
,,,5.50000000e-010,-8.40000059e-003
,,,5.75000000e-010,-8.44062560e-003
,,,6.00000000e-010,-8.47890685e-003
,,,6.25000000e-010,-8.51875060e-003
,,,6.50000000e-010,-8.56171936e-003
,,,6.75000000e-010,-8.61171936e-003
,,,7.00000000e-010,-8.66796936e-003
,,,7.25000000e-010,-8.73125062e-003
,,,7.50000000e-010,-8.80000062e-003
,,,7.75000000e-010,-8.83515688e-003
,,,8.00000000e-010,-8.87421938e-003
,,,8.25000000e-010,-8.91484438e-003
,,,8.50000000e-010,-8.95390688e-003
,,,8.75000000e-010,-8.98593814e-003
,,,9.00000000e-010,-9.00625064e-003
,,,9.25000000e-010,-9.01250064e-003
,,,9.50000000e-010,-9.00000064e-003
,,,9.75000000e-010,-8.93203188e-003
,,,1.00000000e-009,-8.85078188e-003
,,,1.02500000e-009,-8.76250062e-003
,,,1.05000000e-009,-8.67187561e-003
,,,1.07500000e-009,-8.58593811e-003
,,,1.10000000e-009,-8.50937560e-003
,,,1.12500000e-009,-8.44687560e-003
,,,1.15000000e-009,-8.40000059e-003
,,,1.17500000e-009,-8.33671934e-003
,,,1.20000000e-009,-8.28593809e-003
,,,1.22500000e-009,-8.24375058e-003
,,,1.25000000e-009,-8.20703183e-003
,,,1.27500000e-009,-8.16953183e-003
,,,1.30000000e-009,-8.12578183e-003
,,,1.32500000e-009,-8.07031307e-003
,,,1.35000000e-009,-8.00000057e-003
,,,1.37500000e-009,-7.88359431e-003
,,,1.40000000e-009,-7.74687555e-003
,,,1.42500000e-009,-7.59375054e-003
,,,1.45000000e-009,-7.42890678e-003
,,,1.47500000e-009,-7.26093801e-003
,,,1.50000000e-009,-7.09687550e-003
,,,1.52500000e-009,-6.94140674e-003
,,,1.55000000e-009,-6.80000048e-003
,,,1.57500000e-009,-6.65937547e-003
,,,1.60000000e-009,-6.53359421e-003
,,,1.62500000e-009,-6.42187545e-003
,,,1.65000000e-009,-6.32265670e-003
,,,1.67500000e-009,-6.23437544e-003
,,,1.70000000e-009,-6.15312544e-003
,,,1.72500000e-009,-6.07656293e-003
,,,1.75000000e-009,-6.00000042e-003
,,,1.77500000e-009,-5.90859417e-003
,,,1.80000000e-009,-5.80546916e-003
,,,1.82500000e-009,-5.68984415e-003
,,,1.85000000e-009,-5.56328164e-003
,,,1.87500000e-009,-5.42812538e-003
,,,1.90000000e-009,-5.28750037e-003
,,,1.92500000e-009,-5.14375036e-003
,,,1.95000000e-009,-5.00000035e-003
,,,1.97500000e-009,-4.85312534e-003
,,,2.00000000e-009,-4.70234408e-003
,,,2.02500000e-009,-4.55000032e-003
,,,2.05000000e-009,-4.39531281e-003
,,,2.07500000e-009,-4.24218780e-003
,,,2.10000000e-009,-4.09062529e-003
,,,2.12500000e-009,-3.94296903e-003
,,,2.15000000e-009,-3.80000027e-003
,,,2.17500000e-009,-3.66562526e-003
,,,2.20000000e-009,-3.53125025e-003
,,,2.22500000e-009,-3.39687524e-003
,,,2.25000000e-009,-3.26484398e-003
,,,2.27500000e-009,-3.13671897e-003
,,,2.30000000e-009,-3.01562521e-003
,,,2.32500000e-009,-2.90312521e-003
,,,2.35000000e-009,-2.80000020e-003
,,,2.37500000e-009,-2.71875019e-003
,,,2.40000000e-009,-2.64140644e-003
,,,2.42500000e-009,-2.56640643e-003
,,,2.45000000e-009,-2.49140643e-003
,,,2.47500000e-009,-2.41718767e-003
,,,2.50000000e-009,-2.34453142e-003
,,,2.52500000e-009,-2.27187516e-003
,,,2.55000000e-009,-2.20000016e-003
,,,2.57500000e-009,-2.13828140e-003
,,,2.60000000e-009,-2.07109390e-003
,,,2.62500000e-009,-1.99843764e-003
,,,2.65000000e-009,-1.92031264e-003
,,,2.67500000e-009,-1.83984388e-003
,,,2.70000000e-009,-1.75859387e-003
,,,2.72500000e-009,-1.67812512e-003
,,,2.75000000e-009,-1.60000011e-003
,,,2.77500000e-009,-1.53593761e-003
,,,2.80000000e-009,-1.46953135e-003
,,,2.82500000e-009,-1.39843760e-003
,,,2.85000000e-009,-1.32421884e-003
,,,2.87500000e-009,-1.24531259e-003
,,,2.90000000e-009,-1.16328133e-003
,,,2.92500000e-009,-1.08125008e-003
,,,2.95000000e-009,-1.00000007e-003
,,,2.97500000e-009,-9.36718816e-004
,,,3.00000000e-009,-8.77343812e-004
,,,3.02500000e-009,-8.25781308e-004
,,,3.05000000e-009,-7.84375056e-004
,,,3.07500000e-009,-7.58593804e-004
,,,3.10000000e-009,-7.51562553e-004
,,,3.12500000e-009,-7.64843804e-004
,,,3.15000000e-009,-8.00000057e-004
,,,3.17500000e-009,-8.64062561e-004
,,,3.20000000e-009,-9.36718816e-004
,,,3.22500000e-009,-1.01328132e-003
,,,3.25000000e-009,-1.08437508e-003
,,,3.27500000e-009,-1.14375008e-003
,,,3.30000000e-009,-1.18593758e-003
,,,3.32500000e-009,-1.20546884e-003
,,,3.35000000e-009,-1.20000008e-003
,,,3.37500000e-009,-1.17109383e-003
,,,3.40000000e-009,-1.11562508e-003
,,,3.42500000e-009,-1.03984382e-003
,,,3.45000000e-009,-9.49218817e-004
,,,3.47500000e-009,-8.52343810e-004
,,,3.50000000e-009,-7.57031304e-004
,,,3.52500000e-009,-6.70312547e-004
,,,3.55000000e-009,-6.00000042e-004
,,,3.57500000e-009,-5.55468789e-004
,,,3.60000000e-009,-5.30468788e-004
,,,3.62500000e-009,-5.23437537e-004
,,,3.65000000e-009,-5.29687537e-004
,,,3.67500000e-009,-5.45312539e-004
,,,3.70000000e-009,-5.64843790e-004
,,,3.72500000e-009,-5.84375041e-004
,,,3.75000000e-009,-6.00000042e-004
,,,3.77500000e-009,-6.12500043e-004
,,,3.80000000e-009,-6.17968794e-004
,,,3.82500000e-009,-6.14843794e-004
,,,3.85000000e-009,-6.07812543e-004
,,,3.87500000e-009,-5.98437542e-004
,,,3.90000000e-009,-5.92187542e-004
,,,3.92500000e-009,-5.91406292e-004
,,,3.95000000e-009,-6.00000042e-004
,,,3.97500000e-009,-6.18750044e-004
,,,4.00000000e-009,-6.45312546e-004
,,,4.02500000e-009,-6.78125048e-004
,,,4.05000000e-009,-7.12500050e-004
,,,4.07500000e-009,-7.46093803e-004
,,,4.10000000e-009,-7.73437555e-004
,,,4.12500000e-009,-7.92187556e-004
,,,4.15000000e-009,-8.00000057e-004
,,,4.17500000e-009,-7.92187556e-004
,,,4.20000000e-009,-7.73437555e-004
,,,4.22500000e-009,-7.45312553e-004
,,,4.25000000e-009,-7.10937550e-004
,,,4.27500000e-009,-6.75000048e-004
,,,4.30000000e-009,-6.41406295e-004
,,,4.32500000e-009,-6.15625044e-004
,,,4.35000000e-009,-6.00000042e-004
,,,4.37500000e-009,-5.96093792e-004
,,,4.40000000e-009,-6.04687543e-004
,,,4.42500000e-009,-6.24218794e-004
,,,4.45000000e-009,-6.52343796e-004
,,,4.47500000e-009,-6.87500049e-004
,,,4.50000000e-009,-7.25781301e-004
,,,4.52500000e-009,-7.64062554e-004
,,,4.55000000e-009,-8.00000057e-004
,,,4.57500000e-009,-8.26562559e-004
,,,4.60000000e-009,-8.46093810e-004
,,,4.62500000e-009,-8.57031311e-004
,,,4.65000000e-009,-8.59375061e-004
,,,4.67500000e-009,-8.53125060e-004
,,,4.70000000e-009,-8.40625059e-004
,,,4.72500000e-009,-8.21875058e-004
,,,4.75000000e-009,-8.00000057e-004
,,,4.77500000e-009,-7.71875055e-004
,,,4.80000000e-009,-7.42968803e-004
,,,4.82500000e-009,-7.14843801e-004
,,,4.85000000e-009,-6.87500049e-004
,,,4.87500000e-009,-6.62500047e-004
,,,4.90000000e-009,-6.39843795e-004
,,,4.92500000e-009,-6.18750044e-004
,,,4.95000000e-009,-6.00000042e-004
,,,4.97500000e-009,-5.82031291e-004
,,,5.00000000e-009,-5.64843790e-004
,,,5.02500000e-009,-5.46875039e-004
,,,5.05000000e-009,-5.25781287e-004
,,,5.07500000e-009,-5.01562536e-004
,,,5.10000000e-009,-4.71875033e-004
,,,5.12500000e-009,-4.38281281e-004
,,,5.15000000e-009,-4.00000028e-004
,,,5.17500000e-009,-3.60937526e-004
,,,5.20000000e-009,-3.21093773e-004
,,,5.22500000e-009,-2.82812520e-004
,,,5.25000000e-009,-2.48437518e-004
,,,5.27500000e-009,-2.21093766e-004
,,,5.30000000e-009,-2.03125014e-004
,,,5.32500000e-009,-1.95312514e-004
,,,5.35000000e-009,-2.00000014e-004
,,,5.37500000e-009,-2.17968765e-004
,,,5.40000000e-009,-2.45312517e-004
,,,5.42500000e-009,-2.77343770e-004
,,,5.45000000e-009,-3.11718772e-004
,,,5.47500000e-009,-3.44531274e-004
,,,5.50000000e-009,-3.71093776e-004
,,,5.52500000e-009,-3.89843778e-004
,,,5.55000000e-009,-4.00000028e-004
,,,5.57500000e-009,-4.01562528e-004
,,,5.60000000e-009,-3.95312528e-004
,,,5.62500000e-009,-3.83593777e-004
,,,5.65000000e-009,-3.71875026e-004
,,,5.67500000e-009,-3.63281276e-004
,,,5.70000000e-009,-3.63281276e-004
,,,5.72500000e-009,-3.74218776e-004
,,,5.75000000e-009,-4.00000028e-004
,,,5.77500000e-009,-4.39062531e-004
,,,5.80000000e-009,-4.90625035e-004
,,,5.82500000e-009,-5.49218789e-004
,,,5.85000000e-009,-6.11718793e-004
