RawData/SinglePhotoelectron/R7_2pt2B_5mV/wave019_Ch2.csv

"Record Length",1000,"Points",-7.72500000e-009,-2.00000014e-004
"Sample Interval",2.50000000e-011,s,-7.70000000e-009,-1.92968764e-004
"Trigger Point",309,"Samples",-7.67500000e-009,-1.88281263e-004
"Trigger Time",1.95639815e-011,s,-7.65000000e-009,-1.86718763e-004
"",,,-7.62500000e-009,-1.86718763e-004
"Horizontal Offset",-7.72500000e-009,s,-7.60000000e-009,-1.89062513e-004
,,,-7.57500000e-009,-1.92187514e-004
,,,-7.55000000e-009,-1.96093764e-004
,,,-7.52500000e-009,-2.00000014e-004
,,,-7.50000000e-009,-2.02343764e-004
,,,-7.47500000e-009,-2.03906264e-004
,,,-7.45000000e-009,-2.04687514e-004
,,,-7.42500000e-009,-2.03906264e-004
,,,-7.40000000e-009,-2.02343764e-004
,,,-7.37500000e-009,-2.00781264e-004
,,,-7.35000000e-009,-2.00000014e-004
,,,-7.32500000e-009,-2.00000014e-004
,,,-7.30000000e-009,-1.99218764e-004
,,,-7.27500000e-009,-1.99218764e-004
,,,-7.25000000e-009,-2.00000014e-004
,,,-7.22500000e-009,-2.00781264e-004
,,,-7.20000000e-009,-2.00781264e-004
,,,-7.17500000e-009,-2.01562514e-004
,,,-7.15000000e-009,-2.00781264e-004
,,,-7.12500000e-009,-2.00000014e-004
,,,-7.10000000e-009,-1.96093764e-004
,,,-7.07500000e-009,-1.92187514e-004
,,,-7.05000000e-009,-1.89843763e-004
,,,-7.02500000e-009,-1.87500013e-004
,,,-7.00000000e-009,-1.87500013e-004
,,,-6.97500000e-009,-1.89062513e-004
,,,-6.95000000e-009,-1.93750014e-004
,,,-6.92500000e-009,-2.00000014e-004
,,,-6.90000000e-009,-2.06250015e-004
,,,-6.87500000e-009,-2.13281265e-004
,,,-6.85000000e-009,-2.19531266e-004
,,,-6.82500000e-009,-2.23437516e-004
,,,-6.80000000e-009,-2.24218766e-004
,,,-6.77500000e-009,-2.21093766e-004
,,,-6.75000000e-009,-2.13281265e-004
,,,-6.72500000e-009,-2.00000014e-004
,,,-6.70000000e-009,-1.79687513e-004
,,,-6.67500000e-009,-1.56250011e-004
,,,-6.65000000e-009,-1.28906259e-004
,,,-6.62500000e-009,-1.00000007e-004
,,,-6.60000000e-009,-7.03125050e-005
,,,-6.57500000e-009,-4.29687530e-005
,,,-6.55000000e-009,-1.95312514e-005
,,,-6.52500000e-009,0.00000000e+000
,,,-6.50000000e-009,1.32812509e-005
,,,-6.47500000e-009,2.10937515e-005
,,,-6.45000000e-009,2.42187517e-005
,,,-6.42500000e-009,2.34375017e-005
,,,-6.40000000e-009,1.95312514e-005
,,,-6.37500000e-009,1.32812509e-005
,,,-6.35000000e-009,6.25000044e-006
,,,-6.32500000e-009,0.00000000e+000
,,,-6.30000000e-009,-5.46875039e-006
,,,-6.27500000e-009,-1.01562507e-005
,,,-6.25000000e-009,-1.17187508e-005
,,,-6.22500000e-009,-1.17187508e-005
,,,-6.20000000e-009,-9.37500066e-006
,,,-6.17500000e-009,-7.03125050e-006
,,,-6.15000000e-009,-3.12500022e-006
,,,-6.12500000e-009,0.00000000e+000
,,,-6.10000000e-009,1.56250011e-006
,,,-6.07500000e-009,3.12500022e-006
,,,-6.05000000e-009,3.90625028e-006
,,,-6.02500000e-009,3.90625028e-006
,,,-6.00000000e-009,3.12500022e-006
,,,-5.97500000e-009,2.34375017e-006
,,,-5.95000000e-009,7.81250055e-007
,,,-5.92500000e-009,0.00000000e+000
,,,-5.90000000e-009,-1.56250011e-006
,,,-5.87500000e-009,-2.34375017e-006
,,,-5.85000000e-009,-3.12500022e-006
,,,-5.82500000e-009,-3.12500022e-006
,,,-5.80000000e-009,-2.34375017e-006
,,,-5.77500000e-009,-1.56250011e-006
,,,-5.75000000e-009,-7.81250055e-007
,,,-5.72500000e-009,0.00000000e+000
,,,-5.70000000e-009,7.81250055e-007
,,,-5.67500000e-009,1.56250011e-006
,,,-5.65000000e-009,2.34375017e-006
,,,-5.62500000e-009,3.12500022e-006
,,,-5.60000000e-009,3.12500022e-006
,,,-5.57500000e-009,2.34375017e-006
,,,-5.55000000e-009,1.56250011e-006
,,,-5.52500000e-009,0.00000000e+000
,,,-5.50000000e-009,0.00000000e+000
,,,-5.47500000e-009,0.00000000e+000
,,,-5.45000000e-009,0.00000000e+000
,,,-5.42500000e-009,-7.81250055e-007
,,,-5.40000000e-009,-7.81250055e-007
,,,-5.37500000e-009,0.00000000e+000
,,,-5.35000000e-009,0.00000000e+000
,,,-5.32500000e-009,0.00000000e+000
,,,-5.30000000e-009,1.56250011e-006
,,,-5.27500000e-009,3.90625028e-006
,,,-5.25000000e-009,6.25000044e-006
,,,-5.22500000e-009,7.03125050e-006
,,,-5.20000000e-009,7.81250055e-006
,,,-5.17500000e-009,6.25000044e-006
,,,-5.15000000e-009,3.90625028e-006
,,,-5.12500000e-009,0.00000000e+000
,,,-5.10000000e-009,-3.12500022e-006
,,,-5.07500000e-009,-6.25000044e-006
,,,-5.05000000e-009,-9.37500066e-006
,,,-5.02500000e-009,-1.17187508e-005
,,,-5.00000000e-009,-1.25000009e-005
,,,-4.97500000e-009,-1.09375008e-005
,,,-4.95000000e-009,-7.03125050e-006
,,,-4.92500000e-009,0.00000000e+000
,,,-4.90000000e-009,1.17187508e-005
,,,-4.87500000e-009,2.81250020e-005
,,,-4.85000000e-009,4.84375034e-005
,,,-4.82500000e-009,7.26562551e-005
,,,-4.80000000e-009,1.00000007e-004
,,,-4.77500000e-009,1.31250009e-004
,,,-4.75000000e-009,1.64843762e-004
,,,-4.72500000e-009,2.00000014e-004
,,,-4.70000000e-009,2.32812516e-004
,,,-4.67500000e-009,2.65625019e-004
,,,-4.65000000e-009,2.96093771e-004
,,,-4.62500000e-009,3.24218773e-004
,,,-4.60000000e-009,3.49218775e-004
,,,-4.57500000e-009,3.70312526e-004
,,,-4.55000000e-009,3.86718777e-004
,,,-4.52500000e-009,4.00000028e-004
,,,-4.50000000e-009,4.03906279e-004
,,,-4.47500000e-009,4.04687529e-004
,,,-4.45000000e-009,4.03125029e-004
,,,-4.42500000e-009,4.00000028e-004
,,,-4.40000000e-009,3.97656278e-004
,,,-4.37500000e-009,3.96093778e-004
,,,-4.35000000e-009,3.96875028e-004
,,,-4.32500000e-009,4.00000028e-004
,,,-4.30000000e-009,4.00000028e-004
,,,-4.27500000e-009,4.01562528e-004
,,,-4.25000000e-009,4.04687529e-004
,,,-4.22500000e-009,4.07812529e-004
,,,-4.20000000e-009,4.10156279e-004
,,,-4.17500000e-009,4.10156279e-004
,,,-4.15000000e-009,4.07031279e-004
,,,-4.12500000e-009,4.00000028e-004
,,,-4.10000000e-009,3.83593777e-004
,,,-4.07500000e-009,3.63281276e-004
,,,-4.05000000e-009,3.39062524e-004
,,,-4.02500000e-009,3.12500022e-004
,,,-4.00000000e-009,2.84375020e-004
,,,-3.97500000e-009,2.55468768e-004
,,,-3.95000000e-009,2.26562516e-004
,,,-3.92500000e-009,2.00000014e-004
,,,-3.90000000e-009,1.71875012e-004
,,,-3.87500000e-009,1.46875010e-004
,,,-3.85000000e-009,1.22656259e-004
,,,-3.82500000e-009,9.92187570e-005
,,,-3.80000000e-009,7.65625054e-005
,,,-3.77500000e-009,5.23437537e-005
,,,-3.75000000e-009,2.73437519e-005
,,,-3.72500000e-009,0.00000000e+000
,,,-3.70000000e-009,-2.89062520e-005
,,,-3.67500000e-009,-5.93750042e-005
,,,-3.65000000e-009,-8.98437564e-005
,,,-3.62500000e-009,-1.18750008e-004
,,,-3.60000000e-009,-1.46093760e-004
,,,-3.57500000e-009,-1.68750012e-004
,,,-3.55000000e-009,-1.86718763e-004
,,,-3.52500000e-009,-2.00000014e-004
,,,-3.50000000e-009,-2.05468765e-004
,,,-3.47500000e-009,-2.07031265e-004
,,,-3.45000000e-009,-2.05468765e-004
,,,-3.42500000e-009,-2.03125014e-004
,,,-3.40000000e-009,-2.00000014e-004
,,,-3.37500000e-009,-1.97656264e-004
,,,-3.35000000e-009,-1.97656264e-004
,,,-3.32500000e-009,-2.00000014e-004
,,,-3.30000000e-009,-2.01562514e-004
,,,-3.27500000e-009,-2.06250015e-004
,,,-3.25000000e-009,-2.11718765e-004
,,,-3.22500000e-009,-2.16406265e-004
,,,-3.20000000e-009,-2.19531266e-004
,,,-3.17500000e-009,-2.18750015e-004
,,,-3.15000000e-009,-2.12500015e-004
,,,-3.12500000e-009,-2.00000014e-004
,,,-3.10000000e-009,-1.79687513e-004
,,,-3.07500000e-009,-1.54687511e-004
,,,-3.05000000e-009,-1.26562509e-004
,,,-3.02500000e-009,-9.60937568e-005
,,,-3.00000000e-009,-6.64062547e-005
,,,-2.97500000e-009,-3.90625028e-005
,,,-2.95000000e-009,-1.64062512e-005
,,,-2.92500000e-009,0.00000000e+000
,,,-2.90000000e-009,7.03125050e-006
,,,-2.87500000e-009,3.90625028e-006
,,,-2.85000000e-009,-8.59375061e-006
,,,-2.82500000e-009,-3.20312523e-005
,,,-2.80000000e-009,-6.48437546e-005
,,,-2.77500000e-009,-1.04687507e-004
,,,-2.75000000e-009,-1.50781261e-004
,,,-2.72500000e-009,-2.00000014e-004
,,,-2.70000000e-009,-2.50000018e-004
,,,-2.67500000e-009,-2.97656271e-004
,,,-2.65000000e-009,-3.40625024e-004
,,,-2.62500000e-009,-3.75000027e-004
,,,-2.60000000e-009,-3.99218778e-004
,,,-2.57500000e-009,-4.11718779e-004
,,,-2.55000000e-009,-4.11718779e-004
,,,-2.52500000e-009,-4.00000028e-004
,,,-2.50000000e-009,-3.77343777e-004
,,,-2.47500000e-009,-3.47656275e-004
,,,-2.45000000e-009,-3.13281272e-004
,,,-2.42500000e-009,-2.78906270e-004
,,,-2.40000000e-009,-2.47656268e-004
,,,-2.37500000e-009,-2.21875016e-004
,,,-2.35000000e-009,-2.05468765e-004
,,,-2.32500000e-009,-2.00000014e-004
,,,-2.30000000e-009,-2.06250015e-004
,,,-2.27500000e-009,-2.22656266e-004
,,,-2.25000000e-009,-2.48437518e-004
,,,-2.22500000e-009,-2.79687520e-004
,,,-2.20000000e-009,-3.14062522e-004
,,,-2.17500000e-009,-3.46875025e-004
,,,-2.15000000e-009,-3.76562527e-004
,,,-2.12500000e-009,-4.00000028e-004
,,,-2.10000000e-009,-4.13281279e-004
,,,-2.07500000e-009,-4.19531280e-004
,,,-2.05000000e-009,-4.18750030e-004
,,,-2.02500000e-009,-4.13281279e-004
,,,-2.00000000e-009,-4.06250029e-004
,,,-1.97500000e-009,-4.00000028e-004
,,,-1.95000000e-009,-3.96875028e-004
,,,-1.92500000e-009,-4.00000028e-004
,,,-1.90000000e-009,-4.07031279e-004
,,,-1.87500000e-009,-4.21875030e-004
,,,-1.85000000e-009,-4.43750031e-004
,,,-1.82500000e-009,-4.71875033e-004
,,,-1.80000000e-009,-5.03906286e-004
,,,-1.77500000e-009,-5.37500038e-004
,,,-1.75000000e-009,-5.70312540e-004
,,,-1.72500000e-009,-6.00000042e-004
,,,-1.70000000e-009,-6.19531294e-004
,,,-1.67500000e-009,-6.32812545e-004
,,,-1.65000000e-009,-6.39062545e-004
,,,-1.62500000e-009,-6.39843795e-004
,,,-1.60000000e-009,-6.35156295e-004
,,,-1.57500000e-009,-6.25781294e-004
,,,-1.55000000e-009,-6.14062543e-004
,,,-1.52500000e-009,-6.00000042e-004
,,,-1.50000000e-009,-5.83593791e-004
,,,-1.47500000e-009,-5.66406290e-004
,,,-1.45000000e-009,-5.47656289e-004
,,,-1.42500000e-009,-5.25781287e-004
,,,-1.40000000e-009,-5.00781285e-004
,,,-1.37500000e-009,-4.71875033e-004
,,,-1.35000000e-009,-4.37500031e-004
,,,-1.32500000e-009,-4.00000028e-004
,,,-1.30000000e-009,-3.64843776e-004
,,,-1.27500000e-009,-3.30468773e-004
,,,-1.25000000e-009,-2.97656271e-004
,,,-1.22500000e-009,-2.67968769e-004
,,,-1.20000000e-009,-2.42187517e-004
,,,-1.17500000e-009,-2.22656266e-004
,,,-1.15000000e-009,-2.07812515e-004
,,,-1.12500000e-009,-2.00000014e-004
,,,-1.10000000e-009,-2.13281265e-004
,,,-1.07500000e-009,-2.32031266e-004
,,,-1.05000000e-009,-2.50781268e-004
,,,-1.02500000e-009,-2.65625019e-004
,,,-1.00000000e-009,-2.71093769e-004
,,,-9.75000000e-010,-2.63281269e-004
,,,-9.50000000e-010,-2.39062517e-004
,,,-9.25000000e-010,-2.00000014e-004
,,,-9.00000000e-010,-1.75781262e-004
,,,-8.75000000e-010,-1.46093760e-004
,,,-8.50000000e-010,-1.12500008e-004
,,,-8.25000000e-010,-7.81250055e-005
,,,-8.00000000e-010,-4.53125032e-005
,,,-7.75000000e-010,-1.87500013e-005
,,,-7.50000000e-010,-2.34375017e-006
,,,-7.25000000e-010,0.00000000e+000
,,,-7.00000000e-010,-5.46875039e-005
,,,-6.75000000e-010,-1.32812509e-004
,,,-6.50000000e-010,-2.29687516e-004
,,,-6.25000000e-010,-3.39062524e-004
,,,-6.00000000e-010,-4.56250032e-004
,,,-5.75000000e-010,-5.75000041e-004
,,,-5.50000000e-010,-6.90625049e-004
,,,-5.25000000e-010,-8.00000057e-004
,,,-5.00000000e-010,-9.42187567e-004
,,,-4.75000000e-010,-1.08125008e-003
,,,-4.50000000e-010,-1.21484384e-003
,,,-4.25000000e-010,-1.34140634e-003
,,,-4.00000000e-010,-1.46093760e-003
,,,-3.75000000e-010,-1.57500011e-003
,,,-3.50000000e-010,-1.68593762e-003
,,,-3.25000000e-010,-1.80000013e-003
,,,-3.00000000e-010,-1.95546889e-003
,,,-2.75000000e-010,-2.12968765e-003
,,,-2.50000000e-010,-2.32500016e-003
,,,-2.25000000e-010,-2.54062518e-003
,,,-2.00000000e-010,-2.77734395e-003
,,,-1.75000000e-010,-3.03437521e-003
,,,-1.50000000e-010,-3.30859398e-003
,,,-1.25000000e-010,-3.60000025e-003
,,,-1.00000000e-010,-3.91953153e-003
,,,-7.50000000e-011,-4.25390655e-003
,,,-5.00000000e-011,-4.59609408e-003
,,,-2.50000000e-011,-4.93984410e-003
,,,0.00000000e+000,-5.27734412e-003
,,,2.50000000e-011,-5.60312540e-003
,,,5.00000000e-011,-5.91171917e-003
,,,7.50000000e-011,-6.20000044e-003
,,,1.00000000e-010,-6.45703171e-003
,,,1.25000000e-010,-6.70000047e-003
,,,1.50000000e-010,-6.93046924e-003
,,,1.75000000e-010,-7.15156301e-003
,,,2.00000000e-010,-7.36718802e-003
,,,2.25000000e-010,-7.57890679e-003
,,,2.50000000e-010,-7.78906305e-003
,,,2.75000000e-010,-8.00000057e-003
,,,3.00000000e-010,-8.18671933e-003
,,,3.25000000e-010,-8.38359434e-003
,,,3.50000000e-010,-8.58906311e-003
,,,3.75000000e-010,-8.80078187e-003
,,,4.00000000e-010,-9.01328189e-003
,,,4.25000000e-010,-9.22187565e-003
,,,4.50000000e-010,-9.41875067e-003
,,,4.75000000e-010,-9.60000068e-003
,,,5.00000000e-010,-9.71796944e-003
,,,5.25000000e-010,-9.82187570e-003
,,,5.50000000e-010,-9.91171945e-003
,,,5.75000000e-010,-9.99062571e-003
,,,6.00000000e-010,-1.00578132e-002
,,,6.25000000e-010,-1.01156257e-002
,,,6.50000000e-010,-1.01625007e-002
,,,6.75000000e-010,-1.02000007e-002
,,,7.00000000e-010,-1.01773445e-002
,,,7.25000000e-010,-1.01539070e-002
,,,7.50000000e-010,-1.01296882e-002
,,,7.75000000e-010,-1.01062507e-002
,,,8.00000000e-010,-1.00835945e-002
,,,8.25000000e-010,-1.00585945e-002
,,,8.50000000e-010,-1.00312507e-002
,,,8.75000000e-010,-1.00000007e-002
,,,9.00000000e-010,-9.91718820e-003
,,,9.25000000e-010,-9.83671945e-003
,,,9.50000000e-010,-9.76328194e-003
,,,9.75000000e-010,-9.70078194e-003
,,,1.00000000e-009,-9.65234443e-003
,,,1.02500000e-009,-9.61875068e-003
,,,1.05000000e-009,-9.60234443e-003
,,,1.07500000e-009,-9.60000068e-003
,,,1.10000000e-009,-9.56875068e-003
,,,1.12500000e-009,-9.54609443e-003
,,,1.15000000e-009,-9.52890692e-003
,,,1.17500000e-009,-9.51406317e-003
,,,1.20000000e-009,-9.49843817e-003
,,,1.22500000e-009,-9.47734442e-003
,,,1.25000000e-009,-9.44609442e-003
,,,1.27500000e-009,-9.40000067e-003
,,,1.30000000e-009,-9.29843816e-003
,,,1.32500000e-009,-9.17500065e-003
,,,1.35000000e-009,-9.03359439e-003
,,,1.37500000e-009,-8.87734438e-003
,,,1.40000000e-009,-8.71171937e-003
,,,1.42500000e-009,-8.54140685e-003
,,,1.45000000e-009,-8.36953184e-003
,,,1.47500000e-009,-8.20000058e-003
,,,1.50000000e-009,-8.00937557e-003
,,,1.52500000e-009,-7.82031305e-003
,,,1.55000000e-009,-7.63437554e-003
,,,1.57500000e-009,-7.45468803e-003
,,,1.60000000e-009,-7.28125052e-003
,,,1.62500000e-009,-7.11484425e-003
,,,1.65000000e-009,-6.95468799e-003
,,,1.67500000e-009,-6.80000048e-003
,,,1.70000000e-009,-6.63437547e-003
,,,1.72500000e-009,-6.46484421e-003
,,,1.75000000e-009,-6.29140670e-003
,,,1.77500000e-009,-6.11328168e-003
,,,1.80000000e-009,-5.93359417e-003
,,,1.82500000e-009,-5.75390666e-003
,,,1.85000000e-009,-5.57500039e-003
,,,1.87500000e-009,-5.40000038e-003
,,,1.90000000e-009,-5.22265662e-003
,,,1.92500000e-009,-5.04296911e-003
,,,1.95000000e-009,-4.86171909e-003
,,,1.97500000e-009,-4.68046908e-003
,,,2.00000000e-009,-4.50156282e-003
,,,2.02500000e-009,-4.32734406e-003
,,,2.05000000e-009,-4.16015654e-003
,,,2.07500000e-009,-4.00000028e-003
,,,2.10000000e-009,-3.85000027e-003
,,,2.12500000e-009,-3.69843776e-003
,,,2.15000000e-009,-3.54609400e-003
,,,2.17500000e-009,-3.39296899e-003
,,,2.20000000e-009,-3.24062523e-003
,,,2.22500000e-009,-3.08984397e-003
,,,2.25000000e-009,-2.94296896e-003
,,,2.27500000e-009,-2.80000020e-003
,,,2.30000000e-009,-2.67421894e-003
,,,2.32500000e-009,-2.54609393e-003
,,,2.35000000e-009,-2.41484392e-003
,,,2.37500000e-009,-2.28281266e-003
,,,2.40000000e-009,-2.15312515e-003
,,,2.42500000e-009,-2.02734389e-003
,,,2.45000000e-009,-1.90859389e-003
,,,2.47500000e-009,-1.80000013e-003
,,,2.50000000e-009,-1.71796887e-003
,,,2.52500000e-009,-1.63906262e-003
,,,2.55000000e-009,-1.56171886e-003
,,,2.57500000e-009,-1.48515636e-003
,,,2.60000000e-009,-1.41093760e-003
,,,2.62500000e-009,-1.33828134e-003
,,,2.65000000e-009,-1.26796884e-003
,,,2.67500000e-009,-1.20000008e-003
,,,2.70000000e-009,-1.14921883e-003
,,,2.72500000e-009,-1.09218758e-003
,,,2.75000000e-009,-1.02734382e-003
,,,2.77500000e-009,-9.53906318e-004
,,,2.80000000e-009,-8.72656312e-004
,,,2.82500000e-009,-7.85156306e-004
,,,2.85000000e-009,-6.93750049e-004
,,,2.87500000e-009,-6.00000042e-004
,,,2.90000000e-009,-5.21875037e-004
,,,2.92500000e-009,-4.41406281e-004
,,,2.95000000e-009,-3.57812525e-004
,,,2.97500000e-009,-2.75000019e-004
,,,3.00000000e-009,-1.95312514e-004
,,,3.02500000e-009,-1.21093759e-004
,,,3.05000000e-009,-5.46875039e-005
,,,3.07500000e-009,0.00000000e+000
,,,3.10000000e-009,2.57812518e-005
,,,3.12500000e-009,4.29687530e-005
,,,3.15000000e-009,5.23437537e-005
,,,3.17500000e-009,5.46875039e-005
,,,3.20000000e-009,5.00000035e-005
,,,3.22500000e-009,3.82812527e-005
,,,3.25000000e-009,2.18750015e-005
,,,3.27500000e-009,0.00000000e+000
,,,3.30000000e-009,-3.75000027e-005
,,,3.32500000e-009,-7.42187553e-005
,,,3.35000000e-009,-1.07812508e-004
,,,3.37500000e-009,-1.36718760e-004
,,,3.40000000e-009,-1.60156261e-004
,,,3.42500000e-009,-1.78125013e-004
,,,3.45000000e-009,-1.91406264e-004
,,,3.47500000e-009,-2.00000014e-004
,,,3.50000000e-009,-2.10156265e-004
,,,3.52500000e-009,-2.14843765e-004
,,,3.55000000e-009,-2.15625015e-004
,,,3.57500000e-009,-2.13281265e-004
,,,3.60000000e-009,-2.09375015e-004
,,,3.62500000e-009,-2.04687514e-004
,,,3.65000000e-009,-2.01562514e-004
,,,3.67500000e-009,-2.00000014e-004
,,,3.70000000e-009,-2.03125014e-004
,,,3.72500000e-009,-2.07812515e-004
,,,3.75000000e-009,-2.11718765e-004
,,,3.77500000e-009,-2.14062515e-004
,,,3.80000000e-009,-2.14843765e-004
,,,3.82500000e-009,-2.12500015e-004
,,,3.85000000e-009,-2.07031265e-004
,,,3.87500000e-009,-2.00000014e-004
,,,3.90000000e-009,-1.91406264e-004
,,,3.92500000e-009,-1.82812513e-004
,,,3.95000000e-009,-1.74218762e-004
,,,3.97500000e-009,-1.67968762e-004
,,,4.00000000e-009,-1.66406262e-004
,,,4.02500000e-009,-1.70312512e-004
,,,4.05000000e-009,-1.81250013e-004
,,,4.07500000e-009,-2.00000014e-004
,,,4.10000000e-009,-2.23437516e-004
,,,4.12500000e-009,-2.52343768e-004
,,,4.15000000e-009,-2.84375020e-004
,,,4.17500000e-009,-3.16406272e-004
,,,4.20000000e-009,-3.46875025e-004
,,,4.22500000e-009,-3.72656276e-004
,,,4.25000000e-009,-3.90625028e-004
,,,4.27500000e-009,-4.00000028e-004
,,,4.30000000e-009,-3.94531278e-004
,,,4.32500000e-009,-3.80468777e-004
,,,4.35000000e-009,-3.57031275e-004
,,,4.37500000e-009,-3.27343773e-004
,,,4.40000000e-009,-2.94531271e-004
,,,4.42500000e-009,-2.60156268e-004
,,,4.45000000e-009,-2.28125016e-004
,,,4.47500000e-009,-2.00000014e-004
,,,4.50000000e-009,-1.76562512e-004
,,,4.52500000e-009,-1.60156261e-004
,,,4.55000000e-009,-1.52343761e-004
,,,4.57500000e-009,-1.51562511e-004
,,,4.60000000e-009,-1.57812511e-004
,,,4.62500000e-009,-1.68750012e-004
,,,4.65000000e-009,-1.83593763e-004
,,,4.67500000e-009,-2.00000014e-004
,,,4.70000000e-009,-2.14843765e-004
,,,4.72500000e-009,-2.27343766e-004
,,,4.75000000e-009,-2.35937517e-004
,,,4.77500000e-009,-2.39843767e-004
,,,4.80000000e-009,-2.38281267e-004
,,,4.82500000e-009,-2.31250016e-004
,,,4.85000000e-009,-2.17968765e-004
,,,4.87500000e-009,-2.00000014e-004
,,,4.90000000e-009,-1.75781262e-004
,,,4.92500000e-009,-1.49218761e-004
,,,4.95000000e-009,-1.21093759e-004
,,,4.97500000e-009,-9.21875065e-005
,,,5.00000000e-009,-6.40625045e-005
,,,5.02500000e-009,-3.90625028e-005
,,,5.05000000e-009,-1.71875012e-005
,,,5.07500000e-009,0.00000000e+000
,,,5.10000000e-009,1.17187508e-005
,,,5.12500000e-009,1.79687513e-005
,,,5.15000000e-009,2.10937515e-005
,,,5.17500000e-009,2.03125014e-005
,,,5.20000000e-009,1.64062512e-005
,,,5.22500000e-009,1.09375008e-005
,,,5.25000000e-009,5.46875039e-006
,,,5.27500000e-009,0.00000000e+000
,,,5.30000000e-009,-4.68750033e-006
,,,5.32500000e-009,-7.81250055e-006
,,,5.35000000e-009,-9.37500066e-006
,,,5.37500000e-009,-8.59375061e-006
,,,5.40000000e-009,-6.25000044e-006
,,,5.42500000e-009,-3.90625028e-006
,,,5.45000000e-009,-1.56250011e-006
,,,5.47500000e-009,0.00000000e+000
,,,5.50000000e-009,0.00000000e+000
,,,5.52500000e-009,-7.81250055e-007
,,,5.55000000e-009,-1.56250011e-006
,,,5.57500000e-009,-3.12500022e-006
,,,5.60000000e-009,-3.90625028e-006
,,,5.62500000e-009,-3.90625028e-006
,,,5.65000000e-009,-2.34375017e-006
,,,5.67500000e-009,0.00000000e+000
,,,5.70000000e-009,2.34375017e-006
,,,5.72500000e-009,6.25000044e-006
,,,5.75000000e-009,1.01562507e-005
,,,5.77500000e-009,1.25000009e-005
,,,5.80000000e-009,1.32812509e-005
,,,5.82500000e-009,1.17187508e-005
,,,5.85000000e-009,7.03125050e-006
,,,5.87500000e-009,0.00000000e+000
,,,5.90000000e-009,-1.09375008e-005
