RawData/SinglePhotoelectron/R7_2pt2B_5mV/wave009_Ch2.csv

"Record Length",1000,"Points",-7.72500000e-009,5.46875039e-006
"Sample Interval",2.50000000e-011,s,-7.70000000e-009,3.90625028e-006
"Trigger Point",309,"Samples",-7.67500000e-009,0.00000000e+000
"Trigger Time",4.57555556e-012,s,-7.65000000e-009,-3.12500022e-006
"",,,-7.62500000e-009,-8.59375061e-006
"Horizontal Offset",-7.72500000e-009,s,-7.60000000e-009,-1.32812509e-005
,,,-7.57500000e-009,-1.64062512e-005
,,,-7.55000000e-009,-1.79687513e-005
,,,-7.52500000e-009,-1.64062512e-005
,,,-7.50000000e-009,-1.01562507e-005
,,,-7.47500000e-009,0.00000000e+000
,,,-7.45000000e-009,1.79687513e-005
,,,-7.42500000e-009,4.06250029e-005
,,,-7.40000000e-009,6.71875048e-005
,,,-7.37500000e-009,9.53125067e-005
,,,-7.35000000e-009,1.24218759e-004
,,,-7.32500000e-009,1.52343761e-004
,,,-7.30000000e-009,1.78125013e-004
,,,-7.27500000e-009,2.00000014e-004
,,,-7.25000000e-009,2.16406265e-004
,,,-7.22500000e-009,2.28125016e-004
,,,-7.20000000e-009,2.34375017e-004
,,,-7.17500000e-009,2.35156267e-004
,,,-7.15000000e-009,2.31250016e-004
,,,-7.12500000e-009,2.23437516e-004
,,,-7.10000000e-009,2.12500015e-004
,,,-7.07500000e-009,2.00000014e-004
,,,-7.05000000e-009,1.85156263e-004
,,,-7.02500000e-009,1.71875012e-004
,,,-7.00000000e-009,1.61718761e-004
,,,-6.97500000e-009,1.57031261e-004
,,,-6.95000000e-009,1.57812511e-004
,,,-6.92500000e-009,1.64843762e-004
,,,-6.90000000e-009,1.78906263e-004
,,,-6.87500000e-009,2.00000014e-004
,,,-6.85000000e-009,2.22656266e-004
,,,-6.82500000e-009,2.50000018e-004
,,,-6.80000000e-009,2.78906270e-004
,,,-6.77500000e-009,3.08593772e-004
,,,-6.75000000e-009,3.37500024e-004
,,,-6.72500000e-009,3.62500026e-004
,,,-6.70000000e-009,3.83593777e-004
,,,-6.67500000e-009,4.00000028e-004
,,,-6.65000000e-009,4.05468779e-004
,,,-6.62500000e-009,4.07031279e-004
,,,-6.60000000e-009,4.04687529e-004
,,,-6.57500000e-009,4.00000028e-004
,,,-6.55000000e-009,3.96093778e-004
,,,-6.52500000e-009,3.93750028e-004
,,,-6.50000000e-009,3.95312528e-004
,,,-6.47500000e-009,4.00000028e-004
,,,-6.45000000e-009,4.03125029e-004
,,,-6.42500000e-009,4.09375029e-004
,,,-6.40000000e-009,4.16406279e-004
,,,-6.37500000e-009,4.23437530e-004
,,,-6.35000000e-009,4.27343780e-004
,,,-6.32500000e-009,4.25781280e-004
,,,-6.30000000e-009,4.17187530e-004
,,,-6.27500000e-009,4.00000028e-004
,,,-6.25000000e-009,3.70312526e-004
,,,-6.22500000e-009,3.31250023e-004
,,,-6.20000000e-009,2.84375020e-004
,,,-6.17500000e-009,2.31250016e-004
,,,-6.15000000e-009,1.73437512e-004
,,,-6.12500000e-009,1.14062508e-004
,,,-6.10000000e-009,5.54687539e-005
,,,-6.07500000e-009,0.00000000e+000
,,,-6.05000000e-009,-4.92187535e-005
,,,-6.02500000e-009,-9.21875065e-005
,,,-6.00000000e-009,-1.27343759e-004
,,,-5.97500000e-009,-1.54687511e-004
,,,-5.95000000e-009,-1.75000012e-004
,,,-5.92500000e-009,-1.88281263e-004
,,,-5.90000000e-009,-1.96093764e-004
,,,-5.87500000e-009,-2.00000014e-004
,,,-5.85000000e-009,-1.97656264e-004
,,,-5.82500000e-009,-1.93750014e-004
,,,-5.80000000e-009,-1.89843763e-004
,,,-5.77500000e-009,-1.87500013e-004
,,,-5.75000000e-009,-1.86718763e-004
,,,-5.72500000e-009,-1.89062513e-004
,,,-5.70000000e-009,-1.92968764e-004
,,,-5.67500000e-009,-2.00000014e-004
,,,-5.65000000e-009,-2.04687514e-004
,,,-5.62500000e-009,-2.10156265e-004
,,,-5.60000000e-009,-2.15625015e-004
,,,-5.57500000e-009,-2.20312516e-004
,,,-5.55000000e-009,-2.21875016e-004
,,,-5.52500000e-009,-2.19531266e-004
,,,-5.50000000e-009,-2.12500015e-004
,,,-5.47500000e-009,-2.00000014e-004
,,,-5.45000000e-009,-1.78125013e-004
,,,-5.42500000e-009,-1.53906261e-004
,,,-5.40000000e-009,-1.25781259e-004
,,,-5.37500000e-009,-9.68750069e-005
,,,-5.35000000e-009,-6.87500049e-005
,,,-5.32500000e-009,-4.21875030e-005
,,,-5.30000000e-009,-1.87500013e-005
,,,-5.27500000e-009,0.00000000e+000
,,,-5.25000000e-009,1.48437511e-005
,,,-5.22500000e-009,2.42187517e-005
,,,-5.20000000e-009,2.81250020e-005
,,,-5.17500000e-009,2.65625019e-005
,,,-5.15000000e-009,2.18750015e-005
,,,-5.12500000e-009,1.48437511e-005
,,,-5.10000000e-009,7.03125050e-006
,,,-5.07500000e-009,0.00000000e+000
,,,-5.05000000e-009,-5.46875039e-006
,,,-5.02500000e-009,-1.01562507e-005
,,,-5.00000000e-009,-1.17187508e-005
,,,-4.97500000e-009,-1.17187508e-005
,,,-4.95000000e-009,-9.37500066e-006
,,,-4.92500000e-009,-7.03125050e-006
,,,-4.90000000e-009,-3.12500022e-006
,,,-4.87500000e-009,0.00000000e+000
,,,-4.85000000e-009,1.56250011e-006
,,,-4.82500000e-009,3.12500022e-006
,,,-4.80000000e-009,3.90625028e-006
,,,-4.77500000e-009,3.90625028e-006
,,,-4.75000000e-009,3.12500022e-006
,,,-4.72500000e-009,2.34375017e-006
,,,-4.70000000e-009,7.81250055e-007
,,,-4.67500000e-009,0.00000000e+000
,,,-4.65000000e-009,-1.56250011e-006
,,,-4.62500000e-009,-2.34375017e-006
,,,-4.60000000e-009,-3.12500022e-006
,,,-4.57500000e-009,-3.12500022e-006
,,,-4.55000000e-009,-2.34375017e-006
,,,-4.52500000e-009,-1.56250011e-006
,,,-4.50000000e-009,-7.81250055e-007
,,,-4.47500000e-009,0.00000000e+000
,,,-4.45000000e-009,0.00000000e+000
,,,-4.42500000e-009,0.00000000e+000
,,,-4.40000000e-009,0.00000000e+000
,,,-4.37500000e-009,0.00000000e+000
,,,-4.35000000e-009,0.00000000e+000
,,,-4.32500000e-009,0.00000000e+000
,,,-4.30000000e-009,0.00000000e+000
,,,-4.27500000e-009,0.00000000e+000
,,,-4.25000000e-009,-1.56250011e-006
,,,-4.22500000e-009,-3.12500022e-006
,,,-4.20000000e-009,-5.46875039e-006
,,,-4.17500000e-009,-6.25000044e-006
,,,-4.15000000e-009,-6.25000044e-006
,,,-4.12500000e-009,-5.46875039e-006
,,,-4.10000000e-009,-3.12500022e-006
,,,-4.07500000e-009,0.00000000e+000
,,,-4.05000000e-009,3.90625028e-006
,,,-4.02500000e-009,8.59375061e-006
,,,-4.00000000e-009,1.25000009e-005
,,,-3.97500000e-009,1.48437511e-005
,,,-3.95000000e-009,1.48437511e-005
,,,-3.92500000e-009,1.25000009e-005
,,,-3.90000000e-009,7.81250055e-006
,,,-3.87500000e-009,0.00000000e+000
,,,-3.85000000e-009,-1.01562507e-005
,,,-3.82500000e-009,-2.03125014e-005
,,,-3.80000000e-009,-2.96875021e-005
,,,-3.77500000e-009,-3.59375025e-005
,,,-3.75000000e-009,-3.59375025e-005
,,,-3.72500000e-009,-3.04687522e-005
,,,-3.70000000e-009,-1.79687513e-005
,,,-3.67500000e-009,0.00000000e+000
,,,-3.65000000e-009,2.18750015e-005
,,,-3.62500000e-009,4.53125032e-005
,,,-3.60000000e-009,6.56250046e-005
,,,-3.57500000e-009,7.89062556e-005
,,,-3.55000000e-009,8.12500058e-005
,,,-3.52500000e-009,7.03125050e-005
,,,-3.50000000e-009,4.29687530e-005
,,,-3.47500000e-009,0.00000000e+000
,,,-3.45000000e-009,-5.78125041e-005
,,,-3.42500000e-009,-1.25781259e-004
,,,-3.40000000e-009,-1.97656264e-004
,,,-3.37500000e-009,-2.67187519e-004
,,,-3.35000000e-009,-3.27343773e-004
,,,-3.32500000e-009,-3.72656276e-004
,,,-3.30000000e-009,-3.97656278e-004
,,,-3.27500000e-009,-4.00000028e-004
,,,-3.25000000e-009,-3.75781277e-004
,,,-3.22500000e-009,-3.32812524e-004
,,,-3.20000000e-009,-2.74218769e-004
,,,-3.17500000e-009,-2.07031265e-004
,,,-3.15000000e-009,-1.39843760e-004
,,,-3.12500000e-009,-7.89062556e-005
,,,-3.10000000e-009,-3.04687522e-005
,,,-3.07500000e-009,0.00000000e+000
,,,-3.05000000e-009,8.59375061e-006
,,,-3.02500000e-009,-1.56250011e-006
,,,-3.00000000e-009,-2.89062520e-005
,,,-2.97500000e-009,-6.71875048e-005
,,,-2.95000000e-009,-1.09375008e-004
,,,-2.92500000e-009,-1.50000011e-004
,,,-2.90000000e-009,-1.81250013e-004
,,,-2.87500000e-009,-2.00000014e-004
,,,-2.85000000e-009,-2.01562514e-004
,,,-2.82500000e-009,-1.87500013e-004
,,,-2.80000000e-009,-1.60156261e-004
,,,-2.77500000e-009,-1.24218759e-004
,,,-2.75000000e-009,-8.51562560e-005
,,,-2.72500000e-009,-4.76562534e-005
,,,-2.70000000e-009,-1.79687513e-005
,,,-2.67500000e-009,0.00000000e+000
,,,-2.65000000e-009,3.12500022e-006
,,,-2.62500000e-009,-7.81250055e-006
,,,-2.60000000e-009,-3.20312523e-005
,,,-2.57500000e-009,-6.48437546e-005
,,,-2.55000000e-009,-1.02343757e-004
,,,-2.52500000e-009,-1.40625010e-004
,,,-2.50000000e-009,-1.73437512e-004
,,,-2.47500000e-009,-2.00000014e-004
,,,-2.45000000e-009,-2.14843765e-004
,,,-2.42500000e-009,-2.20312516e-004
,,,-2.40000000e-009,-2.17968765e-004
,,,-2.37500000e-009,-2.10937515e-004
,,,-2.35000000e-009,-2.01562514e-004
,,,-2.32500000e-009,-1.94531264e-004
,,,-2.30000000e-009,-1.92968764e-004
,,,-2.27500000e-009,-2.00000014e-004
,,,-2.25000000e-009,-2.15625015e-004
,,,-2.22500000e-009,-2.39843767e-004
,,,-2.20000000e-009,-2.70312519e-004
,,,-2.17500000e-009,-3.03906272e-004
,,,-2.15000000e-009,-3.36718774e-004
,,,-2.12500000e-009,-3.66406276e-004
,,,-2.10000000e-009,-3.87500027e-004
,,,-2.07500000e-009,-4.00000028e-004
,,,-2.05000000e-009,-3.99218778e-004
,,,-2.02500000e-009,-3.88281277e-004
,,,-2.00000000e-009,-3.67187526e-004
,,,-1.97500000e-009,-3.38281274e-004
,,,-1.95000000e-009,-3.03906272e-004
,,,-1.92500000e-009,-2.67187519e-004
,,,-1.90000000e-009,-2.32031266e-004
,,,-1.87500000e-009,-2.00000014e-004
,,,-1.85000000e-009,-1.76562512e-004
,,,-1.82500000e-009,-1.61718761e-004
,,,-1.80000000e-009,-1.54687511e-004
,,,-1.77500000e-009,-1.55468761e-004
,,,-1.75000000e-009,-1.61718761e-004
,,,-1.72500000e-009,-1.72656262e-004
,,,-1.70000000e-009,-1.85937513e-004
,,,-1.67500000e-009,-2.00000014e-004
,,,-1.65000000e-009,-2.18750015e-004
,,,-1.62500000e-009,-2.35156267e-004
,,,-1.60000000e-009,-2.46875017e-004
,,,-1.57500000e-009,-2.52343768e-004
,,,-1.55000000e-009,-2.50781268e-004
,,,-1.52500000e-009,-2.41406267e-004
,,,-1.50000000e-009,-2.23437516e-004
,,,-1.47500000e-009,-2.00000014e-004
,,,-1.45000000e-009,-1.85937513e-004
,,,-1.42500000e-009,-1.74218762e-004
,,,-1.40000000e-009,-1.64062512e-004
,,,-1.37500000e-009,-1.58593761e-004
,,,-1.35000000e-009,-1.58593761e-004
,,,-1.32500000e-009,-1.64843762e-004
,,,-1.30000000e-009,-1.78125013e-004
,,,-1.27500000e-009,-2.00000014e-004
,,,-1.25000000e-009,-2.47656268e-004
,,,-1.22500000e-009,-3.03906272e-004
,,,-1.20000000e-009,-3.64843776e-004
,,,-1.17500000e-009,-4.26562530e-004
,,,-1.15000000e-009,-4.84375034e-004
,,,-1.12500000e-009,-5.33593788e-004
,,,-1.10000000e-009,-5.72656291e-004
,,,-1.07500000e-009,-6.00000042e-004
,,,-1.05000000e-009,-6.34375045e-004
,,,-1.02500000e-009,-6.61718797e-004
,,,-1.00000000e-009,-6.83593798e-004
,,,-9.75000000e-010,-7.01562550e-004
,,,-9.50000000e-010,-7.17968801e-004
,,,-9.25000000e-010,-7.37500052e-004
,,,-9.00000000e-010,-7.63281304e-004
,,,-8.75000000e-010,-8.00000057e-004
,,,-8.50000000e-010,-8.68750061e-004
,,,-8.25000000e-010,-9.57812568e-004
,,,-8.00000000e-010,-1.06562508e-003
,,,-7.75000000e-010,-1.18984383e-003
,,,-7.50000000e-010,-1.32890634e-003
,,,-7.25000000e-010,-1.47812510e-003
,,,-7.00000000e-010,-1.63593762e-003
,,,-6.75000000e-010,-1.80000013e-003
,,,-6.50000000e-010,-1.97656264e-003
,,,-6.25000000e-010,-2.15703140e-003
,,,-6.00000000e-010,-2.33828142e-003
,,,-5.75000000e-010,-2.51953143e-003
,,,-5.50000000e-010,-2.69765644e-003
,,,-5.25000000e-010,-2.87109395e-003
,,,-5.00000000e-010,-3.03828147e-003
,,,-4.75000000e-010,-3.20000023e-003
,,,-4.50000000e-010,-3.34921899e-003
,,,-4.25000000e-010,-3.49296900e-003
,,,-4.00000000e-010,-3.63046901e-003
,,,-3.75000000e-010,-3.76171902e-003
,,,-3.50000000e-010,-3.88515652e-003
,,,-3.25000000e-010,-3.99921903e-003
,,,-3.00000000e-010,-4.10390654e-003
,,,-2.75000000e-010,-4.20000030e-003
,,,-2.50000000e-010,-4.27265655e-003
,,,-2.25000000e-010,-4.34218781e-003
,,,-2.00000000e-010,-4.41171906e-003
,,,-1.75000000e-010,-4.48281282e-003
,,,-1.50000000e-010,-4.55625032e-003
,,,-1.25000000e-010,-4.63359408e-003
,,,-1.00000000e-010,-4.71484408e-003
,,,-7.50000000e-011,-4.80000034e-003
,,,-5.00000000e-011,-4.86718784e-003
,,,-2.50000000e-011,-4.93984410e-003
,,,0.00000000e+000,-5.01718786e-003
,,,2.50000000e-011,-5.09765661e-003
,,,5.00000000e-011,-5.17968787e-003
,,,7.50000000e-011,-5.25937537e-003
,,,1.00000000e-010,-5.33359413e-003
,,,1.25000000e-010,-5.40000038e-003
,,,1.50000000e-010,-5.42500038e-003
,,,1.75000000e-010,-5.44140664e-003
,,,2.00000000e-010,-5.45078164e-003
,,,2.25000000e-010,-5.45234414e-003
,,,2.50000000e-010,-5.44687539e-003
,,,2.75000000e-010,-5.43671913e-003
,,,3.00000000e-010,-5.42109413e-003
,,,3.25000000e-010,-5.40000038e-003
,,,3.50000000e-010,-5.34375038e-003
,,,3.75000000e-010,-5.28593787e-003
,,,4.00000000e-010,-5.22890662e-003
,,,4.25000000e-010,-5.17500037e-003
,,,4.50000000e-010,-5.12500036e-003
,,,4.75000000e-010,-5.07890661e-003
,,,5.00000000e-010,-5.03750036e-003
,,,5.25000000e-010,-5.00000035e-003
,,,5.50000000e-010,-4.93906285e-003
,,,5.75000000e-010,-4.88046910e-003
,,,6.00000000e-010,-4.82500034e-003
,,,6.25000000e-010,-4.77343784e-003
,,,6.50000000e-010,-4.72578158e-003
,,,6.75000000e-010,-4.68125033e-003
,,,7.00000000e-010,-4.63984408e-003
,,,7.25000000e-010,-4.60000033e-003
,,,7.50000000e-010,-4.54062532e-003
,,,7.75000000e-010,-4.47734407e-003
,,,8.00000000e-010,-4.41015656e-003
,,,8.25000000e-010,-4.33828156e-003
,,,8.50000000e-010,-4.26171905e-003
,,,8.75000000e-010,-4.18046905e-003
,,,9.00000000e-010,-4.09296904e-003
,,,9.25000000e-010,-4.00000028e-003
,,,9.50000000e-010,-3.88828153e-003
,,,9.75000000e-010,-3.76953152e-003
,,,1.00000000e-009,-3.64453151e-003
,,,1.02500000e-009,-3.51562525e-003
,,,1.05000000e-009,-3.38515649e-003
,,,1.07500000e-009,-3.25468773e-003
,,,1.10000000e-009,-3.12578147e-003
,,,1.12500000e-009,-3.00000021e-003
,,,1.15000000e-009,-2.87421895e-003
,,,1.17500000e-009,-2.74765644e-003
,,,1.20000000e-009,-2.62187519e-003
,,,1.22500000e-009,-2.49531268e-003
,,,1.25000000e-009,-2.36953142e-003
,,,1.27500000e-009,-2.24453141e-003
,,,1.30000000e-009,-2.12109390e-003
,,,1.32500000e-009,-2.00000014e-003
,,,1.35000000e-009,-1.88593763e-003
,,,1.37500000e-009,-1.77265638e-003
,,,1.40000000e-009,-1.66015637e-003
,,,1.42500000e-009,-1.55156261e-003
,,,1.45000000e-009,-1.44843760e-003
,,,1.47500000e-009,-1.35390635e-003
,,,1.50000000e-009,-1.27031259e-003
,,,1.52500000e-009,-1.20000008e-003
,,,1.55000000e-009,-1.15156258e-003
,,,1.57500000e-009,-1.11171883e-003
,,,1.60000000e-009,-1.07968758e-003
,,,1.62500000e-009,-1.05390632e-003
,,,1.65000000e-009,-1.03437507e-003
,,,1.67500000e-009,-1.01953132e-003
,,,1.70000000e-009,-1.00859382e-003
,,,1.72500000e-009,-1.00000007e-003
,,,1.75000000e-009,-1.00078132e-003
,,,1.77500000e-009,-9.95312570e-004
,,,1.80000000e-009,-9.81250069e-004
,,,1.82500000e-009,-9.59375068e-004
,,,1.85000000e-009,-9.29687566e-004
,,,1.87500000e-009,-8.92187563e-004
,,,1.90000000e-009,-8.48437560e-004
,,,1.92500000e-009,-8.00000057e-004
,,,1.95000000e-009,-7.56250054e-004
,,,1.97500000e-009,-7.07812550e-004
,,,2.00000000e-009,-6.54687546e-004
,,,2.02500000e-009,-5.99218792e-004
,,,2.05000000e-009,-5.44531289e-004
,,,2.07500000e-009,-4.91406285e-004
,,,2.10000000e-009,-4.42968781e-004
,,,2.12500000e-009,-4.00000028e-004
,,,2.15000000e-009,-3.71875026e-004
,,,2.17500000e-009,-3.46875025e-004
,,,2.20000000e-009,-3.23437523e-004
,,,2.22500000e-009,-3.00781271e-004
,,,2.25000000e-009,-2.77343770e-004
,,,2.27500000e-009,-2.53125018e-004
,,,2.30000000e-009,-2.27343766e-004
,,,2.32500000e-009,-2.00000014e-004
,,,2.35000000e-009,-1.77343763e-004
,,,2.37500000e-009,-1.51562511e-004
,,,2.40000000e-009,-1.23437509e-004
,,,2.42500000e-009,-9.45312567e-005
,,,2.45000000e-009,-6.64062547e-005
,,,2.47500000e-009,-3.98437528e-005
,,,2.50000000e-009,-1.71875012e-005
,,,2.52500000e-009,0.00000000e+000
,,,2.55000000e-009,4.68750033e-006
,,,2.57500000e-009,6.25000044e-006
,,,2.60000000e-009,4.68750033e-006
,,,2.62500000e-009,7.81250055e-007
,,,2.65000000e-009,-1.56250011e-006
,,,2.67500000e-009,-3.12500022e-006
,,,2.70000000e-009,-3.12500022e-006
,,,2.72500000e-009,0.00000000e+000
,,,2.75000000e-009,7.81250055e-007
,,,2.77500000e-009,4.68750033e-006
,,,2.80000000e-009,1.09375008e-005
,,,2.82500000e-009,1.64062512e-005
,,,2.85000000e-009,2.03125014e-005
,,,2.87500000e-009,1.95312514e-005
,,,2.90000000e-009,1.32812509e-005
,,,2.92500000e-009,0.00000000e+000
,,,2.95000000e-009,-2.42187517e-005
,,,2.97500000e-009,-5.39062538e-005
,,,3.00000000e-009,-8.67187561e-005
,,,3.02500000e-009,-1.18750008e-004
,,,3.05000000e-009,-1.47656260e-004
,,,3.07500000e-009,-1.71875012e-004
,,,3.10000000e-009,-1.89843763e-004
,,,3.12500000e-009,-2.00000014e-004
,,,3.15000000e-009,-2.03906264e-004
,,,3.17500000e-009,-2.00781264e-004
,,,3.20000000e-009,-1.94531264e-004
,,,3.22500000e-009,-1.86718763e-004
,,,3.25000000e-009,-1.80468763e-004
,,,3.27500000e-009,-1.79687513e-004
,,,3.30000000e-009,-1.85156263e-004
,,,3.32500000e-009,-2.00000014e-004
,,,3.35000000e-009,-2.24218766e-004
,,,3.37500000e-009,-2.55468768e-004
,,,3.40000000e-009,-2.91406271e-004
,,,3.42500000e-009,-3.26562523e-004
,,,3.45000000e-009,-3.59375025e-004
,,,3.47500000e-009,-3.83593777e-004
,,,3.50000000e-009,-3.97656278e-004
,,,3.52500000e-009,-4.00000028e-004
,,,3.55000000e-009,-3.85937527e-004
,,,3.57500000e-009,-3.60937526e-004
,,,3.60000000e-009,-3.28906273e-004
,,,3.62500000e-009,-2.92968771e-004
,,,3.65000000e-009,-2.57812518e-004
,,,3.67500000e-009,-2.28125016e-004
,,,3.70000000e-009,-2.07812515e-004
,,,3.72500000e-009,-2.00000014e-004
,,,3.75000000e-009,-2.03125014e-004
,,,3.77500000e-009,-2.18750015e-004
,,,3.80000000e-009,-2.44531267e-004
,,,3.82500000e-009,-2.77343770e-004
,,,3.85000000e-009,-3.13281272e-004
,,,3.87500000e-009,-3.47656275e-004
,,,3.90000000e-009,-3.77343777e-004
,,,3.92500000e-009,-4.00000028e-004
,,,3.95000000e-009,-4.09375029e-004
,,,3.97500000e-009,-4.10156279e-004
,,,4.00000000e-009,-4.04687529e-004
,,,4.02500000e-009,-3.96093778e-004
,,,4.05000000e-009,-3.88281277e-004
,,,4.07500000e-009,-3.83593777e-004
,,,4.10000000e-009,-3.87500027e-004
,,,4.12500000e-009,-4.00000028e-004
,,,4.15000000e-009,-4.18750030e-004
,,,4.17500000e-009,-4.46093782e-004
,,,4.20000000e-009,-4.79687534e-004
,,,4.22500000e-009,-5.15625036e-004
,,,4.25000000e-009,-5.49218789e-004
,,,4.27500000e-009,-5.77343791e-004
,,,4.30000000e-009,-5.95312542e-004
,,,4.32500000e-009,-6.00000042e-004
,,,4.35000000e-009,-5.84375041e-004
,,,4.37500000e-009,-5.53906289e-004
,,,4.40000000e-009,-5.10156286e-004
,,,4.42500000e-009,-4.54687532e-004
,,,4.45000000e-009,-3.92968778e-004
,,,4.47500000e-009,-3.26562523e-004
,,,4.50000000e-009,-2.60937518e-004
,,,4.52500000e-009,-2.00000014e-004
,,,4.55000000e-009,-1.44531260e-004
,,,4.57500000e-009,-9.92187570e-005
,,,4.60000000e-009,-6.32812545e-005
,,,4.62500000e-009,-3.67187526e-005
,,,4.65000000e-009,-1.79687513e-005
,,,4.67500000e-009,-7.03125050e-006
,,,4.70000000e-009,-1.56250011e-006
,,,4.72500000e-009,0.00000000e+000
,,,4.75000000e-009,-7.81250055e-007
,,,4.77500000e-009,-2.34375017e-006
,,,4.80000000e-009,-3.12500022e-006
,,,4.82500000e-009,-3.90625028e-006
,,,4.85000000e-009,-3.90625028e-006
,,,4.87500000e-009,-2.34375017e-006
,,,4.90000000e-009,-1.56250011e-006
,,,4.92500000e-009,0.00000000e+000
,,,4.95000000e-009,0.00000000e+000
,,,4.97500000e-009,0.00000000e+000
,,,5.00000000e-009,0.00000000e+000
,,,5.02500000e-009,0.00000000e+000
,,,5.05000000e-009,0.00000000e+000
,,,5.07500000e-009,0.00000000e+000
,,,5.10000000e-009,0.00000000e+000
,,,5.12500000e-009,0.00000000e+000
,,,5.15000000e-009,-7.81250055e-007
,,,5.17500000e-009,-2.34375017e-006
,,,5.20000000e-009,-2.34375017e-006
,,,5.22500000e-009,-2.34375017e-006
,,,5.25000000e-009,-1.56250011e-006
,,,5.27500000e-009,-7.81250055e-007
,,,5.30000000e-009,0.00000000e+000
,,,5.32500000e-009,0.00000000e+000
,,,5.35000000e-009,-2.34375017e-006
,,,5.37500000e-009,-4.68750033e-006
,,,5.40000000e-009,-6.25000044e-006
,,,5.42500000e-009,-6.25000044e-006
,,,5.45000000e-009,-6.25000044e-006
,,,5.47500000e-009,-4.68750033e-006
,,,5.50000000e-009,-2.34375017e-006
,,,5.52500000e-009,0.00000000e+000
,,,5.55000000e-009,7.81250055e-007
,,,5.57500000e-009,2.34375017e-006
,,,5.60000000e-009,3.12500022e-006
,,,5.62500000e-009,3.90625028e-006
,,,5.65000000e-009,3.90625028e-006
,,,5.67500000e-009,3.12500022e-006
,,,5.70000000e-009,1.56250011e-006
,,,5.72500000e-009,0.00000000e+000
,,,5.75000000e-009,-3.12500022e-006
,,,5.77500000e-009,-7.03125050e-006
,,,5.80000000e-009,-9.37500066e-006
,,,5.82500000e-009,-1.17187508e-005
,,,5.85000000e-009,-1.17187508e-005
,,,5.87500000e-009,-1.01562507e-005
,,,5.90000000e-009,-5.46875039e-006
