RawData/SinglePhotoelectron/R7_2pt2B_5mV/wave006_Ch2.csv

"Record Length",1000,"Points",-7.72500000e-009,1.23437509e-004
"Sample Interval",2.50000000e-011,s,-7.70000000e-009,1.53125011e-004
"Trigger Point",309,"Samples",-7.67500000e-009,1.77343763e-004
"Trigger Time",2.40200000e-011,s,-7.65000000e-009,1.93750014e-004
"",,,-7.62500000e-009,2.00000014e-004
"Horizontal Offset",-7.72500000e-009,s,-7.60000000e-009,1.95312514e-004
,,,-7.57500000e-009,1.81250013e-004
,,,-7.55000000e-009,1.59375011e-004
,,,-7.52500000e-009,1.30468759e-004
,,,-7.50000000e-009,9.76562569e-005
,,,-7.47500000e-009,6.25000044e-005
,,,-7.45000000e-009,2.96875021e-005
,,,-7.42500000e-009,0.00000000e+000
,,,-7.40000000e-009,-2.18750015e-005
,,,-7.37500000e-009,-3.67187526e-005
,,,-7.35000000e-009,-4.37500031e-005
,,,-7.32500000e-009,-4.37500031e-005
,,,-7.30000000e-009,-3.82812527e-005
,,,-7.27500000e-009,-2.73437519e-005
,,,-7.25000000e-009,-1.40625010e-005
,,,-7.22500000e-009,0.00000000e+000
,,,-7.20000000e-009,1.48437511e-005
,,,-7.17500000e-009,2.73437519e-005
,,,-7.15000000e-009,3.67187526e-005
,,,-7.12500000e-009,3.98437528e-005
,,,-7.10000000e-009,3.75000027e-005
,,,-7.07500000e-009,2.96875021e-005
,,,-7.05000000e-009,1.64062512e-005
,,,-7.02500000e-009,0.00000000e+000
,,,-7.00000000e-009,-1.64062512e-005
,,,-6.97500000e-009,-3.35937524e-005
,,,-6.95000000e-009,-4.68750033e-005
,,,-6.92500000e-009,-5.46875039e-005
,,,-6.90000000e-009,-5.54687539e-005
,,,-6.87500000e-009,-4.76562534e-005
,,,-6.85000000e-009,-2.89062520e-005
,,,-6.82500000e-009,0.00000000e+000
,,,-6.80000000e-009,3.90625028e-005
,,,-6.77500000e-009,8.59375061e-005
,,,-6.75000000e-009,1.39843760e-004
,,,-6.72500000e-009,1.96093764e-004
,,,-6.70000000e-009,2.53125018e-004
,,,-6.67500000e-009,3.07812522e-004
,,,-6.65000000e-009,3.57812525e-004
,,,-6.62500000e-009,4.00000028e-004
,,,-6.60000000e-009,4.31250031e-004
,,,-6.57500000e-009,4.51562532e-004
,,,-6.55000000e-009,4.62500033e-004
,,,-6.52500000e-009,4.62500033e-004
,,,-6.50000000e-009,4.54687532e-004
,,,-6.47500000e-009,4.39843781e-004
,,,-6.45000000e-009,4.21093780e-004
,,,-6.42500000e-009,4.00000028e-004
,,,-6.40000000e-009,3.75781277e-004
,,,-6.37500000e-009,3.56250025e-004
,,,-6.35000000e-009,3.42187524e-004
,,,-6.32500000e-009,3.35937524e-004
,,,-6.30000000e-009,3.39062524e-004
,,,-6.27500000e-009,3.51562525e-004
,,,-6.25000000e-009,3.72656276e-004
,,,-6.22500000e-009,4.00000028e-004
,,,-6.20000000e-009,4.26562530e-004
,,,-6.17500000e-009,4.53125032e-004
,,,-6.15000000e-009,4.75000034e-004
,,,-6.12500000e-009,4.88281285e-004
,,,-6.10000000e-009,4.89843785e-004
,,,-6.07500000e-009,4.75781284e-004
,,,-6.05000000e-009,4.46093782e-004
,,,-6.02500000e-009,4.00000028e-004
,,,-6.00000000e-009,3.37500024e-004
,,,-5.97500000e-009,2.67187519e-004
,,,-5.95000000e-009,1.93750014e-004
,,,-5.92500000e-009,1.24218759e-004
,,,-5.90000000e-009,6.56250046e-005
,,,-5.87500000e-009,2.18750015e-005
,,,-5.85000000e-009,0.00000000e+000
,,,-5.82500000e-009,0.00000000e+000
,,,-5.80000000e-009,2.50000018e-005
,,,-5.77500000e-009,7.03125050e-005
,,,-5.75000000e-009,1.30468759e-004
,,,-5.72500000e-009,1.98437514e-004
,,,-5.70000000e-009,2.67187519e-004
,,,-5.67500000e-009,3.28125023e-004
,,,-5.65000000e-009,3.73437526e-004
,,,-5.62500000e-009,4.00000028e-004
,,,-5.60000000e-009,4.02343778e-004
,,,-5.57500000e-009,3.80468777e-004
,,,-5.55000000e-009,3.38281274e-004
,,,-5.52500000e-009,2.78906270e-004
,,,-5.50000000e-009,2.09375015e-004
,,,-5.47500000e-009,1.35156260e-004
,,,-5.45000000e-009,6.32812545e-005
,,,-5.42500000e-009,0.00000000e+000
,,,-5.40000000e-009,-4.68750033e-005
,,,-5.37500000e-009,-7.73437555e-005
,,,-5.35000000e-009,-9.21875065e-005
,,,-5.32500000e-009,-9.14062565e-005
,,,-5.30000000e-009,-7.89062556e-005
,,,-5.27500000e-009,-5.70312540e-005
,,,-5.25000000e-009,-2.96875021e-005
,,,-5.22500000e-009,0.00000000e+000
,,,-5.20000000e-009,3.28125023e-005
,,,-5.17500000e-009,6.32812545e-005
,,,-5.15000000e-009,9.06250064e-005
,,,-5.12500000e-009,1.14843758e-004
,,,-5.10000000e-009,1.36718760e-004
,,,-5.07500000e-009,1.57031261e-004
,,,-5.05000000e-009,1.78125013e-004
,,,-5.02500000e-009,2.00000014e-004
,,,-5.00000000e-009,2.24218766e-004
,,,-4.97500000e-009,2.50000018e-004
,,,-4.95000000e-009,2.77343770e-004
,,,-4.92500000e-009,3.04687522e-004
,,,-4.90000000e-009,3.32031274e-004
,,,-4.87500000e-009,3.57812525e-004
,,,-4.85000000e-009,3.80468777e-004
,,,-4.82500000e-009,4.00000028e-004
,,,-4.80000000e-009,4.10937529e-004
,,,-4.77500000e-009,4.17187530e-004
,,,-4.75000000e-009,4.20312530e-004
,,,-4.72500000e-009,4.18750030e-004
,,,-4.70000000e-009,4.15625029e-004
,,,-4.67500000e-009,4.10937529e-004
,,,-4.65000000e-009,4.04687529e-004
,,,-4.62500000e-009,4.00000028e-004
,,,-4.60000000e-009,3.92968778e-004
,,,-4.57500000e-009,3.88281277e-004
,,,-4.55000000e-009,3.85156277e-004
,,,-4.52500000e-009,3.84375027e-004
,,,-4.50000000e-009,3.85156277e-004
,,,-4.47500000e-009,3.88281277e-004
,,,-4.45000000e-009,3.92968778e-004
,,,-4.42500000e-009,4.00000028e-004
,,,-4.40000000e-009,4.03125029e-004
,,,-4.37500000e-009,4.07031279e-004
,,,-4.35000000e-009,4.10156279e-004
,,,-4.32500000e-009,4.12500029e-004
,,,-4.30000000e-009,4.13281279e-004
,,,-4.27500000e-009,4.11718779e-004
,,,-4.25000000e-009,4.07031279e-004
,,,-4.22500000e-009,4.00000028e-004
,,,-4.20000000e-009,3.85156277e-004
,,,-4.17500000e-009,3.66406276e-004
,,,-4.15000000e-009,3.44531274e-004
,,,-4.12500000e-009,3.20312523e-004
,,,-4.10000000e-009,2.92968771e-004
,,,-4.07500000e-009,2.63281269e-004
,,,-4.05000000e-009,2.32031266e-004
,,,-4.02500000e-009,2.00000014e-004
,,,-4.00000000e-009,1.66406262e-004
,,,-3.97500000e-009,1.34375010e-004
,,,-3.95000000e-009,1.03906257e-004
,,,-3.92500000e-009,7.57812554e-005
,,,-3.90000000e-009,5.07812536e-005
,,,-3.87500000e-009,2.96875021e-005
,,,-3.85000000e-009,1.25000009e-005
,,,-3.82500000e-009,0.00000000e+000
,,,-3.80000000e-009,-7.03125050e-006
,,,-3.77500000e-009,-1.09375008e-005
,,,-3.75000000e-009,-1.25000009e-005
,,,-3.72500000e-009,-1.17187508e-005
,,,-3.70000000e-009,-9.37500066e-006
,,,-3.67500000e-009,-6.25000044e-006
,,,-3.65000000e-009,-3.12500022e-006
,,,-3.62500000e-009,0.00000000e+000
,,,-3.60000000e-009,3.90625028e-006
,,,-3.57500000e-009,6.25000044e-006
,,,-3.55000000e-009,7.81250055e-006
,,,-3.52500000e-009,7.03125050e-006
,,,-3.50000000e-009,6.25000044e-006
,,,-3.47500000e-009,3.90625028e-006
,,,-3.45000000e-009,1.56250011e-006
,,,-3.42500000e-009,0.00000000e+000
,,,-3.40000000e-009,0.00000000e+000
,,,-3.37500000e-009,0.00000000e+000
,,,-3.35000000e-009,-7.81250055e-007
,,,-3.32500000e-009,-7.81250055e-007
,,,-3.30000000e-009,0.00000000e+000
,,,-3.27500000e-009,0.00000000e+000
,,,-3.25000000e-009,0.00000000e+000
,,,-3.22500000e-009,0.00000000e+000
,,,-3.20000000e-009,1.56250011e-006
,,,-3.17500000e-009,2.34375017e-006
,,,-3.15000000e-009,3.12500022e-006
,,,-3.12500000e-009,3.12500022e-006
,,,-3.10000000e-009,2.34375017e-006
,,,-3.07500000e-009,1.56250011e-006
,,,-3.05000000e-009,7.81250055e-007
,,,-3.02500000e-009,0.00000000e+000
,,,-3.00000000e-009,7.81250055e-007
,,,-2.97500000e-009,1.56250011e-006
,,,-2.95000000e-009,2.34375017e-006
,,,-2.92500000e-009,3.12500022e-006
,,,-2.90000000e-009,3.12500022e-006
,,,-2.87500000e-009,2.34375017e-006
,,,-2.85000000e-009,1.56250011e-006
,,,-2.82500000e-009,0.00000000e+000
,,,-2.80000000e-009,-1.56250011e-006
,,,-2.77500000e-009,-3.90625028e-006
,,,-2.75000000e-009,-6.25000044e-006
,,,-2.72500000e-009,-7.03125050e-006
,,,-2.70000000e-009,-7.03125050e-006
,,,-2.67500000e-009,-6.25000044e-006
,,,-2.65000000e-009,-3.90625028e-006
,,,-2.62500000e-009,0.00000000e+000
,,,-2.60000000e-009,4.68750033e-006
,,,-2.57500000e-009,9.37500066e-006
,,,-2.55000000e-009,1.32812509e-005
,,,-2.52500000e-009,1.56250011e-005
,,,-2.50000000e-009,1.64062512e-005
,,,-2.47500000e-009,1.32812509e-005
,,,-2.45000000e-009,7.81250055e-006
,,,-2.42500000e-009,0.00000000e+000
,,,-2.40000000e-009,-1.09375008e-005
,,,-2.37500000e-009,-2.18750015e-005
,,,-2.35000000e-009,-3.20312523e-005
,,,-2.32500000e-009,-3.90625028e-005
,,,-2.30000000e-009,-3.98437528e-005
,,,-2.27500000e-009,-3.43750024e-005
,,,-2.25000000e-009,-2.10937515e-005
,,,-2.22500000e-009,0.00000000e+000
,,,-2.20000000e-009,2.81250020e-005
,,,-2.17500000e-009,6.17187544e-005
,,,-2.15000000e-009,9.68750069e-005
,,,-2.12500000e-009,1.31250009e-004
,,,-2.10000000e-009,1.60937511e-004
,,,-2.07500000e-009,1.84375013e-004
,,,-2.05000000e-009,1.97656264e-004
,,,-2.02500000e-009,2.00000014e-004
,,,-2.00000000e-009,1.89062513e-004
,,,-1.97500000e-009,1.67968762e-004
,,,-1.95000000e-009,1.39843760e-004
,,,-1.92500000e-009,1.07031258e-004
,,,-1.90000000e-009,7.34375052e-005
,,,-1.87500000e-009,4.29687530e-005
,,,-1.85000000e-009,1.71875012e-005
,,,-1.82500000e-009,0.00000000e+000
,,,-1.80000000e-009,-1.09375008e-005
,,,-1.77500000e-009,-1.48437511e-005
,,,-1.75000000e-009,-1.25000009e-005
,,,-1.72500000e-009,-6.25000044e-006
,,,-1.70000000e-009,0.00000000e+000
,,,-1.67500000e-009,5.46875039e-006
,,,-1.65000000e-009,5.46875039e-006
,,,-1.62500000e-009,0.00000000e+000
,,,-1.60000000e-009,-1.79687513e-005
,,,-1.57500000e-009,-4.37500031e-005
,,,-1.55000000e-009,-7.50000053e-005
,,,-1.52500000e-009,-1.08593758e-004
,,,-1.50000000e-009,-1.41406260e-004
,,,-1.47500000e-009,-1.69531262e-004
,,,-1.45000000e-009,-1.89843763e-004
,,,-1.42500000e-009,-2.00000014e-004
,,,-1.40000000e-009,-2.06250015e-004
,,,-1.37500000e-009,-2.02343764e-004
,,,-1.35000000e-009,-1.87500013e-004
,,,-1.32500000e-009,-1.62500012e-004
,,,-1.30000000e-009,-1.28906259e-004
,,,-1.27500000e-009,-8.90625063e-005
,,,-1.25000000e-009,-4.45312532e-005
,,,-1.22500000e-009,0.00000000e+000
,,,-1.20000000e-009,2.57812518e-005
,,,-1.17500000e-009,4.37500031e-005
,,,-1.15000000e-009,5.39062538e-005
,,,-1.12500000e-009,5.54687539e-005
,,,-1.10000000e-009,5.00000035e-005
,,,-1.07500000e-009,3.82812527e-005
,,,-1.05000000e-009,2.10937515e-005
,,,-1.02500000e-009,0.00000000e+000
,,,-1.00000000e-009,-4.84375034e-005
,,,-9.75000000e-010,-1.03125007e-004
,,,-9.50000000e-010,-1.60937511e-004
,,,-9.25000000e-010,-2.17968765e-004
,,,-9.00000000e-010,-2.71875019e-004
,,,-8.75000000e-010,-3.21093773e-004
,,,-8.50000000e-010,-3.63281276e-004
,,,-8.25000000e-010,-4.00000028e-004
,,,-8.00000000e-010,-4.57031282e-004
,,,-7.75000000e-010,-5.16406287e-004
,,,-7.50000000e-010,-5.79687541e-004
,,,-7.25000000e-010,-6.48437546e-004
,,,-7.00000000e-010,-7.23437551e-004
,,,-6.75000000e-010,-8.06250057e-004
,,,-6.50000000e-010,-8.97656314e-004
,,,-6.25000000e-010,-1.00000007e-003
,,,-6.00000000e-010,-1.13437508e-003
,,,-5.75000000e-010,-1.28203134e-003
,,,-5.50000000e-010,-1.43906260e-003
,,,-5.25000000e-010,-1.60000011e-003
,,,-5.00000000e-010,-1.76015637e-003
,,,-4.75000000e-010,-1.91562514e-003
,,,-4.50000000e-010,-2.06250015e-003
,,,-4.25000000e-010,-2.20000016e-003
,,,-4.00000000e-010,-2.33984392e-003
,,,-3.75000000e-010,-2.47656268e-003
,,,-3.50000000e-010,-2.61250018e-003
,,,-3.25000000e-010,-2.75234394e-003
,,,-3.00000000e-010,-2.89765646e-003
,,,-2.75000000e-010,-3.05312522e-003
,,,-2.50000000e-010,-3.21953148e-003
,,,-2.25000000e-010,-3.40000024e-003
,,,-2.00000000e-010,-3.59218775e-003
,,,-1.75000000e-010,-3.79921902e-003
,,,-1.50000000e-010,-4.01484403e-003
,,,-1.25000000e-010,-4.23359405e-003
,,,-1.00000000e-010,-4.44765656e-003
,,,-7.50000000e-011,-4.65078158e-003
,,,-5.00000000e-011,-4.83593784e-003
,,,-2.50000000e-011,-5.00000035e-003
,,,0.00000000e+000,-5.12421911e-003
,,,2.50000000e-011,-5.23203162e-003
,,,5.00000000e-011,-5.32734413e-003
,,,7.50000000e-011,-5.41562538e-003
,,,1.00000000e-010,-5.50312539e-003
,,,1.25000000e-010,-5.59375040e-003
,,,1.50000000e-010,-5.69218790e-003
,,,1.75000000e-010,-5.80000041e-003
,,,2.00000000e-010,-5.89218792e-003
,,,2.25000000e-010,-5.99765667e-003
,,,2.50000000e-010,-6.11250043e-003
,,,2.75000000e-010,-6.23046919e-003
,,,3.00000000e-010,-6.34531295e-003
,,,3.25000000e-010,-6.44921921e-003
,,,3.50000000e-010,-6.53593796e-003
,,,3.75000000e-010,-6.60000047e-003
,,,4.00000000e-010,-6.60546922e-003
,,,4.25000000e-010,-6.59062547e-003
,,,4.50000000e-010,-6.56171921e-003
,,,4.75000000e-010,-6.52343796e-003
,,,5.00000000e-010,-6.48281296e-003
,,,5.25000000e-010,-6.44531296e-003
,,,5.50000000e-010,-6.41718795e-003
,,,5.75000000e-010,-6.40000045e-003
,,,6.00000000e-010,-6.36484420e-003
,,,6.25000000e-010,-6.34687545e-003
,,,6.50000000e-010,-6.34375045e-003
,,,6.75000000e-010,-6.35312545e-003
,,,7.00000000e-010,-6.36875045e-003
,,,7.25000000e-010,-6.38593795e-003
,,,7.50000000e-010,-6.39843795e-003
,,,7.75000000e-010,-6.40000045e-003
,,,8.00000000e-010,-6.35546920e-003
,,,8.25000000e-010,-6.29687545e-003
,,,8.50000000e-010,-6.22421919e-003
,,,8.75000000e-010,-6.14296918e-003
,,,9.00000000e-010,-6.05546918e-003
,,,9.25000000e-010,-5.96718792e-003
,,,9.50000000e-010,-5.88046917e-003
,,,9.75000000e-010,-5.80000041e-003
,,,1.00000000e-009,-5.70312540e-003
,,,1.02500000e-009,-5.61328165e-003
,,,1.05000000e-009,-5.53125039e-003
,,,1.07500000e-009,-5.45625039e-003
,,,1.10000000e-009,-5.38828163e-003
,,,1.12500000e-009,-5.32421913e-003
,,,1.15000000e-009,-5.26250037e-003
,,,1.17500000e-009,-5.20000037e-003
,,,1.20000000e-009,-5.11796911e-003
,,,1.22500000e-009,-5.02968786e-003
,,,1.25000000e-009,-4.93437535e-003
,,,1.27500000e-009,-4.83281284e-003
,,,1.30000000e-009,-4.72656283e-003
,,,1.32500000e-009,-4.61875033e-003
,,,1.35000000e-009,-4.50937532e-003
,,,1.37500000e-009,-4.40000031e-003
,,,1.40000000e-009,-4.28359405e-003
,,,1.42500000e-009,-4.16406279e-003
,,,1.45000000e-009,-4.04140654e-003
,,,1.47500000e-009,-3.91562528e-003
,,,1.50000000e-009,-3.78828152e-003
,,,1.52500000e-009,-3.65937526e-003
,,,1.55000000e-009,-3.52968775e-003
,,,1.57500000e-009,-3.40000024e-003
,,,1.60000000e-009,-3.26953148e-003
,,,1.62500000e-009,-3.13671897e-003
,,,1.65000000e-009,-3.00312521e-003
,,,1.67500000e-009,-2.87109395e-003
,,,1.70000000e-009,-2.74218769e-003
,,,1.72500000e-009,-2.61875019e-003
,,,1.75000000e-009,-2.50468768e-003
,,,1.77500000e-009,-2.40000017e-003
,,,1.80000000e-009,-2.31093766e-003
,,,1.82500000e-009,-2.22734391e-003
,,,1.85000000e-009,-2.14765640e-003
,,,1.87500000e-009,-2.07109390e-003
,,,1.90000000e-009,-1.99765639e-003
,,,1.92500000e-009,-1.92812514e-003
,,,1.95000000e-009,-1.86250013e-003
,,,1.97500000e-009,-1.80000013e-003
,,,2.00000000e-009,-1.74843762e-003
,,,2.02500000e-009,-1.69531262e-003
,,,2.05000000e-009,-1.64062512e-003
,,,2.07500000e-009,-1.58515636e-003
,,,2.10000000e-009,-1.53203136e-003
,,,2.12500000e-009,-1.48203135e-003
,,,2.15000000e-009,-1.43750010e-003
,,,2.17500000e-009,-1.40000010e-003
,,,2.20000000e-009,-1.37734385e-003
,,,2.22500000e-009,-1.35625010e-003
,,,2.25000000e-009,-1.33437509e-003
,,,2.27500000e-009,-1.31171884e-003
,,,2.30000000e-009,-1.28750009e-003
,,,2.32500000e-009,-1.26093759e-003
,,,2.35000000e-009,-1.23203134e-003
,,,2.37500000e-009,-1.20000008e-003
,,,2.40000000e-009,-1.17109383e-003
,,,2.42500000e-009,-1.13515633e-003
,,,2.45000000e-009,-1.09062508e-003
,,,2.47500000e-009,-1.03984382e-003
,,,2.50000000e-009,-9.82812570e-004
,,,2.52500000e-009,-9.22656315e-004
,,,2.55000000e-009,-8.60937561e-004
,,,2.57500000e-009,-8.00000057e-004
,,,2.60000000e-009,-7.48437553e-004
,,,2.62500000e-009,-6.96093799e-004
,,,2.65000000e-009,-6.44531296e-004
,,,2.67500000e-009,-5.92968792e-004
,,,2.70000000e-009,-5.42187538e-004
,,,2.72500000e-009,-4.92187535e-004
,,,2.75000000e-009,-4.44531281e-004
,,,2.77500000e-009,-4.00000028e-004
,,,2.80000000e-009,-3.64843776e-004
,,,2.82500000e-009,-3.31250023e-004
,,,2.85000000e-009,-2.99218771e-004
,,,2.87500000e-009,-2.71093769e-004
,,,2.90000000e-009,-2.46093767e-004
,,,2.92500000e-009,-2.25000016e-004
,,,2.95000000e-009,-2.09375015e-004
,,,2.97500000e-009,-2.00000014e-004
,,,3.00000000e-009,-2.01562514e-004
,,,3.02500000e-009,-2.06250015e-004
,,,3.05000000e-009,-2.10937515e-004
,,,3.07500000e-009,-2.14062515e-004
,,,3.10000000e-009,-2.15625015e-004
,,,3.12500000e-009,-2.14062515e-004
,,,3.15000000e-009,-2.08593765e-004
,,,3.17500000e-009,-2.00000014e-004
,,,3.20000000e-009,-1.93750014e-004
,,,3.22500000e-009,-1.85937513e-004
,,,3.25000000e-009,-1.76562512e-004
,,,3.27500000e-009,-1.69531262e-004
,,,3.30000000e-009,-1.66406262e-004
,,,3.32500000e-009,-1.69531262e-004
,,,3.35000000e-009,-1.80468763e-004
,,,3.37500000e-009,-2.00000014e-004
,,,3.40000000e-009,-2.29687516e-004
,,,3.42500000e-009,-2.64062519e-004
,,,3.45000000e-009,-3.00000021e-004
,,,3.47500000e-009,-3.34375024e-004
,,,3.50000000e-009,-3.64062526e-004
,,,3.52500000e-009,-3.85937527e-004
,,,3.55000000e-009,-3.98437528e-004
,,,3.57500000e-009,-4.00000028e-004
,,,3.60000000e-009,-3.89062528e-004
,,,3.62500000e-009,-3.67187526e-004
,,,3.65000000e-009,-3.38281274e-004
,,,3.67500000e-009,-3.03906272e-004
,,,3.70000000e-009,-2.68750019e-004
,,,3.72500000e-009,-2.37500017e-004
,,,3.75000000e-009,-2.13281265e-004
,,,3.77500000e-009,-2.00000014e-004
,,,3.80000000e-009,-1.97656264e-004
,,,3.82500000e-009,-2.07031265e-004
,,,3.85000000e-009,-2.27343766e-004
,,,3.87500000e-009,-2.56250018e-004
,,,3.90000000e-009,-2.90625021e-004
,,,3.92500000e-009,-3.28906273e-004
,,,3.95000000e-009,-3.65625026e-004
,,,3.97500000e-009,-4.00000028e-004
,,,4.00000000e-009,-4.25000030e-004
,,,4.02500000e-009,-4.41406281e-004
,,,4.05000000e-009,-4.50781282e-004
,,,4.07500000e-009,-4.51562532e-004
,,,4.10000000e-009,-4.45312532e-004
,,,4.12500000e-009,-4.34375031e-004
,,,4.15000000e-009,-4.17968780e-004
,,,4.17500000e-009,-4.00000028e-004
,,,4.20000000e-009,-3.76562527e-004
,,,4.22500000e-009,-3.52343775e-004
,,,4.25000000e-009,-3.28125023e-004
,,,4.27500000e-009,-3.03906272e-004
,,,4.30000000e-009,-2.78906270e-004
,,,4.32500000e-009,-2.53906268e-004
,,,4.35000000e-009,-2.27343766e-004
,,,4.37500000e-009,-2.00000014e-004
,,,4.40000000e-009,-1.69531262e-004
,,,4.42500000e-009,-1.39062510e-004
,,,4.45000000e-009,-1.08593758e-004
,,,4.47500000e-009,-7.96875056e-005
,,,4.50000000e-009,-5.39062538e-005
,,,4.52500000e-009,-3.12500022e-005
,,,4.55000000e-009,-1.32812509e-005
,,,4.57500000e-009,0.00000000e+000
,,,4.60000000e-009,6.25000044e-006
,,,4.62500000e-009,9.37500066e-006
,,,4.65000000e-009,9.37500066e-006
,,,4.67500000e-009,7.03125050e-006
,,,4.70000000e-009,3.90625028e-006
,,,4.72500000e-009,1.56250011e-006
,,,4.75000000e-009,0.00000000e+000
,,,4.77500000e-009,0.00000000e+000
,,,4.80000000e-009,0.00000000e+000
,,,4.82500000e-009,2.34375017e-006
,,,4.85000000e-009,5.46875039e-006
,,,4.87500000e-009,7.81250055e-006
,,,4.90000000e-009,9.37500066e-006
,,,4.92500000e-009,9.37500066e-006
,,,4.95000000e-009,5.46875039e-006
,,,4.97500000e-009,0.00000000e+000
,,,5.00000000e-009,-9.37500066e-006
,,,5.02500000e-009,-1.95312514e-005
,,,5.05000000e-009,-2.89062520e-005
,,,5.07500000e-009,-3.43750024e-005
,,,5.10000000e-009,-3.59375025e-005
,,,5.12500000e-009,-3.12500022e-005
,,,5.15000000e-009,-1.87500013e-005
,,,5.17500000e-009,0.00000000e+000
,,,5.20000000e-009,2.42187517e-005
,,,5.22500000e-009,5.39062538e-005
,,,5.25000000e-009,8.67187561e-005
,,,5.27500000e-009,1.20312509e-004
,,,5.30000000e-009,1.50781261e-004
,,,5.32500000e-009,1.75781262e-004
,,,5.35000000e-009,1.92187514e-004
,,,5.37500000e-009,2.00000014e-004
,,,5.40000000e-009,1.93750014e-004
,,,5.42500000e-009,1.77343763e-004
,,,5.45000000e-009,1.53125011e-004
,,,5.47500000e-009,1.23437509e-004
,,,5.50000000e-009,9.06250064e-005
,,,5.52500000e-009,5.70312540e-005
,,,5.55000000e-009,2.57812518e-005
,,,5.57500000e-009,0.00000000e+000
,,,5.60000000e-009,-2.03125014e-005
,,,5.62500000e-009,-3.35937524e-005
,,,5.65000000e-009,-3.98437528e-005
,,,5.67500000e-009,-3.90625028e-005
,,,5.70000000e-009,-3.28125023e-005
,,,5.72500000e-009,-2.34375017e-005
,,,5.75000000e-009,-1.17187508e-005
,,,5.77500000e-009,0.00000000e+000
,,,5.80000000e-009,9.37500066e-006
,,,5.82500000e-009,1.64062512e-005
,,,5.85000000e-009,1.95312514e-005
,,,5.87500000e-009,2.03125014e-005
,,,5.90000000e-009,1.79687513e-005
,,,5.92500000e-009,1.25000009e-005
,,,5.95000000e-009,6.25000044e-006
,,,5.97500000e-009,0.00000000e+000
