RawData/SinglePhotoelectron/R7_2pt2B_5mV/wave002_Ch2.csv

"Record Length",1000,"Points",-7.72500000e-009,-2.03906264e-004
"Sample Interval",2.50000000e-011,s,-7.70000000e-009,-2.00781264e-004
"Trigger Point",309,"Samples",-7.67500000e-009,-1.99218764e-004
"Trigger Time",1.22588235e-012,s,-7.65000000e-009,-2.00000014e-004
"",,,-7.62500000e-009,-1.99218764e-004
"Horizontal Offset",-7.72500000e-009,s,-7.60000000e-009,-2.00781264e-004
,,,-7.57500000e-009,-2.03906264e-004
,,,-7.55000000e-009,-2.07812515e-004
,,,-7.52500000e-009,-2.10937515e-004
,,,-7.50000000e-009,-2.10937515e-004
,,,-7.47500000e-009,-2.07812515e-004
,,,-7.45000000e-009,-2.00000014e-004
,,,-7.42500000e-009,-1.83593763e-004
,,,-7.40000000e-009,-1.61718761e-004
,,,-7.37500000e-009,-1.36718760e-004
,,,-7.35000000e-009,-1.07812508e-004
,,,-7.32500000e-009,-7.81250055e-005
,,,-7.30000000e-009,-4.92187535e-005
,,,-7.27500000e-009,-2.26562516e-005
,,,-7.25000000e-009,0.00000000e+000
,,,-7.22500000e-009,1.95312514e-005
,,,-7.20000000e-009,3.35937524e-005
,,,-7.17500000e-009,4.06250029e-005
,,,-7.15000000e-009,4.21875030e-005
,,,-7.12500000e-009,3.75000027e-005
,,,-7.10000000e-009,2.81250020e-005
,,,-7.07500000e-009,1.48437511e-005
,,,-7.05000000e-009,0.00000000e+000
,,,-7.02500000e-009,-1.40625010e-005
,,,-7.00000000e-009,-2.57812518e-005
,,,-6.97500000e-009,-3.51562525e-005
,,,-6.95000000e-009,-3.98437528e-005
,,,-6.92500000e-009,-3.90625028e-005
,,,-6.90000000e-009,-3.20312523e-005
,,,-6.87500000e-009,-1.87500013e-005
,,,-6.85000000e-009,0.00000000e+000
,,,-6.82500000e-009,2.42187517e-005
,,,-6.80000000e-009,5.23437537e-005
,,,-6.77500000e-009,8.20312558e-005
,,,-6.75000000e-009,1.12500008e-004
,,,-6.72500000e-009,1.40625010e-004
,,,-6.70000000e-009,1.65625012e-004
,,,-6.67500000e-009,1.85937513e-004
,,,-6.65000000e-009,2.00000014e-004
,,,-6.62500000e-009,2.06250015e-004
,,,-6.60000000e-009,2.07031265e-004
,,,-6.57500000e-009,2.04687514e-004
,,,-6.55000000e-009,2.00781264e-004
,,,-6.52500000e-009,1.96093764e-004
,,,-6.50000000e-009,1.92968764e-004
,,,-6.47500000e-009,1.93750014e-004
,,,-6.45000000e-009,2.00000014e-004
,,,-6.42500000e-009,2.09375015e-004
,,,-6.40000000e-009,2.25781266e-004
,,,-6.37500000e-009,2.48437518e-004
,,,-6.35000000e-009,2.75781270e-004
,,,-6.32500000e-009,3.06250022e-004
,,,-6.30000000e-009,3.38281274e-004
,,,-6.27500000e-009,3.70312526e-004
,,,-6.25000000e-009,4.00000028e-004
,,,-6.22500000e-009,4.22656280e-004
,,,-6.20000000e-009,4.40625031e-004
,,,-6.17500000e-009,4.51562532e-004
,,,-6.15000000e-009,4.54687532e-004
,,,-6.12500000e-009,4.51562532e-004
,,,-6.10000000e-009,4.40625031e-004
,,,-6.07500000e-009,4.22656280e-004
,,,-6.05000000e-009,4.00000028e-004
,,,-6.02500000e-009,3.69531276e-004
,,,-6.00000000e-009,3.38281274e-004
,,,-5.97500000e-009,3.06250022e-004
,,,-5.95000000e-009,2.76562520e-004
,,,-5.92500000e-009,2.50000018e-004
,,,-5.90000000e-009,2.28125016e-004
,,,-5.87500000e-009,2.10937515e-004
,,,-5.85000000e-009,2.00000014e-004
,,,-5.82500000e-009,1.93750014e-004
,,,-5.80000000e-009,1.92968764e-004
,,,-5.77500000e-009,1.95312514e-004
,,,-5.75000000e-009,2.00000014e-004
,,,-5.72500000e-009,2.03906264e-004
,,,-5.70000000e-009,2.05468765e-004
,,,-5.67500000e-009,2.04687514e-004
,,,-5.65000000e-009,2.00000014e-004
,,,-5.62500000e-009,1.92968764e-004
,,,-5.60000000e-009,1.83593763e-004
,,,-5.57500000e-009,1.75000012e-004
,,,-5.55000000e-009,1.67968762e-004
,,,-5.52500000e-009,1.65625012e-004
,,,-5.50000000e-009,1.68750012e-004
,,,-5.47500000e-009,1.80468763e-004
,,,-5.45000000e-009,2.00000014e-004
,,,-5.42500000e-009,2.28125016e-004
,,,-5.40000000e-009,2.62500019e-004
,,,-5.37500000e-009,2.99218771e-004
,,,-5.35000000e-009,3.34375024e-004
,,,-5.32500000e-009,3.65625026e-004
,,,-5.30000000e-009,3.88281277e-004
,,,-5.27500000e-009,4.00000028e-004
,,,-5.25000000e-009,4.00000028e-004
,,,-5.22500000e-009,3.87500027e-004
,,,-5.20000000e-009,3.64843776e-004
,,,-5.17500000e-009,3.33593774e-004
,,,-5.15000000e-009,2.98437521e-004
,,,-5.12500000e-009,2.64062519e-004
,,,-5.10000000e-009,2.33593767e-004
,,,-5.07500000e-009,2.10937515e-004
,,,-5.05000000e-009,2.00000014e-004
,,,-5.02500000e-009,2.02343764e-004
,,,-5.00000000e-009,2.16406265e-004
,,,-4.97500000e-009,2.40625017e-004
,,,-4.95000000e-009,2.72656269e-004
,,,-4.92500000e-009,3.07812522e-004
,,,-4.90000000e-009,3.42968774e-004
,,,-4.87500000e-009,3.74218776e-004
,,,-4.85000000e-009,4.00000028e-004
,,,-4.82500000e-009,4.16406279e-004
,,,-4.80000000e-009,4.24218780e-004
,,,-4.77500000e-009,4.25000030e-004
,,,-4.75000000e-009,4.20312530e-004
,,,-4.72500000e-009,4.12500029e-004
,,,-4.70000000e-009,4.04687529e-004
,,,-4.67500000e-009,3.99218778e-004
,,,-4.65000000e-009,4.00000028e-004
,,,-4.62500000e-009,4.03906279e-004
,,,-4.60000000e-009,4.15625029e-004
,,,-4.57500000e-009,4.35156281e-004
,,,-4.55000000e-009,4.60937533e-004
,,,-4.52500000e-009,4.92968785e-004
,,,-4.50000000e-009,5.28125037e-004
,,,-4.47500000e-009,5.64843790e-004
,,,-4.45000000e-009,6.00000042e-004
,,,-4.42500000e-009,6.26562544e-004
,,,-4.40000000e-009,6.46093796e-004
,,,-4.37500000e-009,6.59375047e-004
,,,-4.35000000e-009,6.63281297e-004
,,,-4.32500000e-009,6.59375047e-004
,,,-4.30000000e-009,6.46875046e-004
,,,-4.27500000e-009,6.26562544e-004
,,,-4.25000000e-009,6.00000042e-004
,,,-4.22500000e-009,5.64062540e-004
,,,-4.20000000e-009,5.26562537e-004
,,,-4.17500000e-009,4.89843785e-004
,,,-4.15000000e-009,4.57031282e-004
,,,-4.12500000e-009,4.29687530e-004
,,,-4.10000000e-009,4.10937529e-004
,,,-4.07500000e-009,4.00781278e-004
,,,-4.05000000e-009,4.00000028e-004
,,,-4.02500000e-009,4.01562528e-004
,,,-4.00000000e-009,4.09375029e-004
,,,-3.97500000e-009,4.19531280e-004
,,,-3.95000000e-009,4.28906280e-004
,,,-3.92500000e-009,4.34375031e-004
,,,-3.90000000e-009,4.32812531e-004
,,,-3.87500000e-009,4.21875030e-004
,,,-3.85000000e-009,4.00000028e-004
,,,-3.82500000e-009,3.63281276e-004
,,,-3.80000000e-009,3.17187522e-004
,,,-3.77500000e-009,2.62500019e-004
,,,-3.75000000e-009,2.03906264e-004
,,,-3.72500000e-009,1.44531260e-004
,,,-3.70000000e-009,8.82812562e-005
,,,-3.67500000e-009,3.90625028e-005
,,,-3.65000000e-009,0.00000000e+000
,,,-3.62500000e-009,-2.65625019e-005
,,,-3.60000000e-009,-4.29687530e-005
,,,-3.57500000e-009,-4.76562534e-005
,,,-3.55000000e-009,-4.37500031e-005
,,,-3.52500000e-009,-3.43750024e-005
,,,-3.50000000e-009,-2.10937515e-005
,,,-3.47500000e-009,-8.59375061e-006
,,,-3.45000000e-009,0.00000000e+000
,,,-3.42500000e-009,5.46875039e-006
,,,-3.40000000e-009,2.34375017e-006
,,,-3.37500000e-009,-1.01562507e-005
,,,-3.35000000e-009,-3.28125023e-005
,,,-3.32500000e-009,-6.48437546e-005
,,,-3.30000000e-009,-1.04687507e-004
,,,-3.27500000e-009,-1.50781261e-004
,,,-3.25000000e-009,-2.00000014e-004
,,,-3.22500000e-009,-2.45312517e-004
,,,-3.20000000e-009,-2.88281270e-004
,,,-3.17500000e-009,-3.27343773e-004
,,,-3.15000000e-009,-3.60156275e-004
,,,-3.12500000e-009,-3.84375027e-004
,,,-3.10000000e-009,-4.00000028e-004
,,,-3.07500000e-009,-4.04687529e-004
,,,-3.05000000e-009,-4.00000028e-004
,,,-3.02500000e-009,-3.81250027e-004
,,,-3.00000000e-009,-3.56250025e-004
,,,-2.97500000e-009,-3.27343773e-004
,,,-2.95000000e-009,-2.96093771e-004
,,,-2.92500000e-009,-2.65625019e-004
,,,-2.90000000e-009,-2.38281267e-004
,,,-2.87500000e-009,-2.16406265e-004
,,,-2.85000000e-009,-2.00000014e-004
,,,-2.82500000e-009,-1.86718763e-004
,,,-2.80000000e-009,-1.80468763e-004
,,,-2.77500000e-009,-1.79687513e-004
,,,-2.75000000e-009,-1.84375013e-004
,,,-2.72500000e-009,-1.90625013e-004
,,,-2.70000000e-009,-1.96875014e-004
,,,-2.67500000e-009,-2.00000014e-004
,,,-2.65000000e-009,-2.00000014e-004
,,,-2.62500000e-009,-1.92187514e-004
,,,-2.60000000e-009,-1.78125013e-004
,,,-2.57500000e-009,-1.57812511e-004
,,,-2.55000000e-009,-1.32031259e-004
,,,-2.52500000e-009,-1.01562507e-004
,,,-2.50000000e-009,-6.79687548e-005
,,,-2.47500000e-009,-3.28125023e-005
,,,-2.45000000e-009,0.00000000e+000
,,,-2.42500000e-009,2.96875021e-005
,,,-2.40000000e-009,5.31250038e-005
,,,-2.37500000e-009,6.87500049e-005
,,,-2.35000000e-009,7.50000053e-005
,,,-2.32500000e-009,7.03125050e-005
,,,-2.30000000e-009,5.62500040e-005
,,,-2.27500000e-009,3.20312523e-005
,,,-2.25000000e-009,0.00000000e+000
,,,-2.22500000e-009,-3.82812527e-005
,,,-2.20000000e-009,-7.96875056e-005
,,,-2.17500000e-009,-1.19531258e-004
,,,-2.15000000e-009,-1.55468761e-004
,,,-2.12500000e-009,-1.82812513e-004
,,,-2.10000000e-009,-2.00781264e-004
,,,-2.07500000e-009,-2.06250015e-004
,,,-2.05000000e-009,-2.00000014e-004
,,,-2.02500000e-009,-1.82031263e-004
,,,-2.00000000e-009,-1.55468761e-004
,,,-1.97500000e-009,-1.21875009e-004
,,,-1.95000000e-009,-8.67187561e-005
,,,-1.92500000e-009,-5.31250038e-005
,,,-1.90000000e-009,-2.50000018e-005
,,,-1.87500000e-009,-7.03125050e-006
,,,-1.85000000e-009,0.00000000e+000
,,,-1.82500000e-009,-7.81250055e-006
,,,-1.80000000e-009,-2.73437519e-005
,,,-1.77500000e-009,-5.62500040e-005
,,,-1.75000000e-009,-8.98437564e-005
,,,-1.72500000e-009,-1.25781259e-004
,,,-1.70000000e-009,-1.58593761e-004
,,,-1.67500000e-009,-1.84375013e-004
,,,-1.65000000e-009,-2.00000014e-004
,,,-1.62500000e-009,-2.06250015e-004
,,,-1.60000000e-009,-2.00000014e-004
,,,-1.57500000e-009,-1.82031263e-004
,,,-1.55000000e-009,-1.54687511e-004
,,,-1.52500000e-009,-1.18750008e-004
,,,-1.50000000e-009,-7.89062556e-005
,,,-1.47500000e-009,-3.82812527e-005
,,,-1.45000000e-009,0.00000000e+000
,,,-1.42500000e-009,2.73437519e-005
,,,-1.40000000e-009,4.60937533e-005
,,,-1.37500000e-009,5.54687539e-005
,,,-1.35000000e-009,5.70312540e-005
,,,-1.32500000e-009,5.00000035e-005
,,,-1.30000000e-009,3.75000027e-005
,,,-1.27500000e-009,2.03125014e-005
,,,-1.25000000e-009,0.00000000e+000
,,,-1.22500000e-009,-3.43750024e-005
,,,-1.20000000e-009,-7.10937550e-005
,,,-1.17500000e-009,-1.06250008e-004
,,,-1.15000000e-009,-1.38281260e-004
,,,-1.12500000e-009,-1.64062512e-004
,,,-1.10000000e-009,-1.82812513e-004
,,,-1.07500000e-009,-1.94531264e-004
,,,-1.05000000e-009,-2.00000014e-004
,,,-1.02500000e-009,-2.21093766e-004
,,,-1.00000000e-009,-2.42968767e-004
,,,-9.75000000e-010,-2.65625019e-004
,,,-9.50000000e-010,-2.89062520e-004
,,,-9.25000000e-010,-3.13281272e-004
,,,-9.00000000e-010,-3.39843774e-004
,,,-8.75000000e-010,-3.68750026e-004
,,,-8.50000000e-010,-4.00000028e-004
,,,-8.25000000e-010,-4.60156283e-004
,,,-8.00000000e-010,-5.25781287e-004
,,,-7.75000000e-010,-5.92187542e-004
,,,-7.50000000e-010,-6.55468796e-004
,,,-7.25000000e-010,-7.10937550e-004
,,,-7.00000000e-010,-7.53906303e-004
,,,-6.75000000e-010,-7.83593805e-004
,,,-6.50000000e-010,-8.00000057e-004
,,,-6.25000000e-010,-8.34375059e-004
,,,-6.00000000e-010,-8.67968811e-004
,,,-5.75000000e-010,-9.01562564e-004
,,,-5.50000000e-010,-9.39062566e-004
,,,-5.25000000e-010,-9.83593820e-004
,,,-5.00000000e-010,-1.03984382e-003
,,,-4.75000000e-010,-1.11015633e-003
,,,-4.50000000e-010,-1.20000008e-003
,,,-4.25000000e-010,-1.33593759e-003
,,,-4.00000000e-010,-1.49921886e-003
,,,-3.75000000e-010,-1.68593762e-003
,,,-3.50000000e-010,-1.89218763e-003
,,,-3.25000000e-010,-2.11171890e-003
,,,-3.00000000e-010,-2.33906267e-003
,,,-2.75000000e-010,-2.57031268e-003
,,,-2.50000000e-010,-2.80000020e-003
,,,-2.25000000e-010,-3.03515646e-003
,,,-2.00000000e-010,-3.26875023e-003
,,,-1.75000000e-010,-3.49921900e-003
,,,-1.50000000e-010,-3.72578151e-003
,,,-1.25000000e-010,-3.94843778e-003
,,,-1.00000000e-010,-4.16718779e-003
,,,-7.50000000e-011,-4.38359406e-003
,,,-5.00000000e-011,-4.60000033e-003
,,,-2.50000000e-011,-4.80625034e-003
,,,0.00000000e+000,-5.01875036e-003
,,,2.50000000e-011,-5.23750037e-003
,,,5.00000000e-011,-5.46406289e-003
,,,7.50000000e-011,-5.69609415e-003
,,,1.00000000e-010,-5.93125042e-003
,,,1.25000000e-010,-6.16718794e-003
,,,1.50000000e-010,-6.40000045e-003
,,,1.75000000e-010,-6.59531297e-003
,,,2.00000000e-010,-6.78281298e-003
,,,2.25000000e-010,-6.96093799e-003
,,,2.50000000e-010,-7.12578175e-003
,,,2.75000000e-010,-7.27421926e-003
,,,3.00000000e-010,-7.40468802e-003
,,,3.25000000e-010,-7.51328178e-003
,,,3.50000000e-010,-7.60000054e-003
,,,3.75000000e-010,-7.62187554e-003
,,,4.00000000e-010,-7.62812554e-003
,,,4.25000000e-010,-7.62500054e-003
,,,4.50000000e-010,-7.61718804e-003
,,,4.75000000e-010,-7.60781304e-003
,,,5.00000000e-010,-7.60078179e-003
,,,5.25000000e-010,-7.59765679e-003
,,,5.50000000e-010,-7.60000054e-003
,,,5.75000000e-010,-7.56250054e-003
,,,6.00000000e-010,-7.53437553e-003
,,,6.25000000e-010,-7.51328178e-003
,,,6.50000000e-010,-7.49765678e-003
,,,6.75000000e-010,-7.48359428e-003
,,,7.00000000e-010,-7.46562553e-003
,,,7.25000000e-010,-7.43906303e-003
,,,7.50000000e-010,-7.40000052e-003
,,,7.75000000e-010,-7.30468802e-003
,,,8.00000000e-010,-7.19609426e-003
,,,8.25000000e-010,-7.07500050e-003
,,,8.50000000e-010,-6.94531299e-003
,,,8.75000000e-010,-6.81015673e-003
,,,9.00000000e-010,-6.67187547e-003
,,,9.25000000e-010,-6.53437546e-003
,,,9.50000000e-010,-6.40000045e-003
,,,9.75000000e-010,-6.24375044e-003
,,,1.00000000e-009,-6.09531293e-003
,,,1.02500000e-009,-5.95546917e-003
,,,1.05000000e-009,-5.82578166e-003
,,,1.07500000e-009,-5.70703165e-003
,,,1.10000000e-009,-5.59687540e-003
,,,1.12500000e-009,-5.49531289e-003
,,,1.15000000e-009,-5.40000038e-003
,,,1.17500000e-009,-5.29453162e-003
,,,1.20000000e-009,-5.18984412e-003
,,,1.22500000e-009,-5.08593786e-003
,,,1.25000000e-009,-4.98281285e-003
,,,1.27500000e-009,-4.88203160e-003
,,,1.30000000e-009,-4.78359409e-003
,,,1.32500000e-009,-4.68984408e-003
,,,1.35000000e-009,-4.60000033e-003
,,,1.37500000e-009,-4.51015657e-003
,,,1.40000000e-009,-4.41796906e-003
,,,1.42500000e-009,-4.32187531e-003
,,,1.45000000e-009,-4.22265655e-003
,,,1.47500000e-009,-4.12031279e-003
,,,1.50000000e-009,-4.01484403e-003
,,,1.52500000e-009,-3.90781278e-003
,,,1.55000000e-009,-3.80000027e-003
,,,1.57500000e-009,-3.69453151e-003
,,,1.60000000e-009,-3.58671900e-003
,,,1.62500000e-009,-3.47656275e-003
,,,1.65000000e-009,-3.36796899e-003
,,,1.67500000e-009,-3.26406273e-003
,,,1.70000000e-009,-3.16640647e-003
,,,1.72500000e-009,-3.07812522e-003
,,,1.75000000e-009,-3.00000021e-003
,,,1.77500000e-009,-2.93828146e-003
,,,1.80000000e-009,-2.87812520e-003
,,,1.82500000e-009,-2.81562520e-003
,,,1.85000000e-009,-2.74843769e-003
,,,1.87500000e-009,-2.67421894e-003
,,,1.90000000e-009,-2.59218768e-003
,,,1.92500000e-009,-2.50000018e-003
,,,1.95000000e-009,-2.40000017e-003
,,,1.97500000e-009,-2.30156266e-003
,,,2.00000000e-009,-2.19375016e-003
,,,2.02500000e-009,-2.08046890e-003
,,,2.05000000e-009,-1.96484389e-003
,,,2.07500000e-009,-1.85390638e-003
,,,2.10000000e-009,-1.75312512e-003
,,,2.12500000e-009,-1.66718762e-003
,,,2.15000000e-009,-1.60000011e-003
,,,2.17500000e-009,-1.56640636e-003
,,,2.20000000e-009,-1.55000011e-003
,,,2.22500000e-009,-1.54609386e-003
,,,2.25000000e-009,-1.55234386e-003
,,,2.27500000e-009,-1.56406261e-003
,,,2.30000000e-009,-1.57890636e-003
,,,2.32500000e-009,-1.59140636e-003
,,,2.35000000e-009,-1.60000011e-003
,,,2.37500000e-009,-1.61015636e-003
,,,2.40000000e-009,-1.60781261e-003
,,,2.42500000e-009,-1.59218761e-003
,,,2.45000000e-009,-1.56484386e-003
,,,2.47500000e-009,-1.52890636e-003
,,,2.50000000e-009,-1.48671886e-003
,,,2.52500000e-009,-1.44296885e-003
,,,2.55000000e-009,-1.40000010e-003
,,,2.57500000e-009,-1.36796885e-003
,,,2.60000000e-009,-1.33828134e-003
,,,2.62500000e-009,-1.31093759e-003
,,,2.65000000e-009,-1.28515634e-003
,,,2.67500000e-009,-1.26171884e-003
,,,2.70000000e-009,-1.23984384e-003
,,,2.72500000e-009,-1.21875009e-003
,,,2.75000000e-009,-1.20000008e-003
,,,2.77500000e-009,-1.18906258e-003
,,,2.80000000e-009,-1.17968758e-003
,,,2.82500000e-009,-1.17109383e-003
,,,2.85000000e-009,-1.16562508e-003
,,,2.87500000e-009,-1.16406258e-003
,,,2.90000000e-009,-1.16875008e-003
,,,2.92500000e-009,-1.18046883e-003
,,,2.95000000e-009,-1.20000008e-003
,,,2.97500000e-009,-1.22812509e-003
,,,3.00000000e-009,-1.25937509e-003
,,,3.02500000e-009,-1.29296884e-003
,,,3.05000000e-009,-1.32421884e-003
,,,3.07500000e-009,-1.35312510e-003
,,,3.10000000e-009,-1.37656260e-003
,,,3.12500000e-009,-1.39218760e-003
,,,3.15000000e-009,-1.40000010e-003
,,,3.17500000e-009,-1.39531260e-003
,,,3.20000000e-009,-1.38203135e-003
,,,3.22500000e-009,-1.36015635e-003
,,,3.25000000e-009,-1.33125009e-003
,,,3.27500000e-009,-1.29843759e-003
,,,3.30000000e-009,-1.26328134e-003
,,,3.32500000e-009,-1.22968759e-003
,,,3.35000000e-009,-1.20000008e-003
,,,3.37500000e-009,-1.17500008e-003
,,,3.40000000e-009,-1.15625008e-003
,,,3.42500000e-009,-1.14609383e-003
,,,3.45000000e-009,-1.14296883e-003
,,,3.47500000e-009,-1.14843758e-003
,,,3.50000000e-009,-1.16015633e-003
,,,3.52500000e-009,-1.17812508e-003
,,,3.55000000e-009,-1.20000008e-003
,,,3.57500000e-009,-1.21953134e-003
,,,3.60000000e-009,-1.23671884e-003
,,,3.62500000e-009,-1.25000009e-003
,,,3.65000000e-009,-1.25703134e-003
,,,3.67500000e-009,-1.25625009e-003
,,,3.70000000e-009,-1.24687509e-003
,,,3.72500000e-009,-1.22812509e-003
,,,3.75000000e-009,-1.20000008e-003
,,,3.77500000e-009,-1.15781258e-003
,,,3.80000000e-009,-1.10859383e-003
,,,3.82500000e-009,-1.05390632e-003
,,,3.85000000e-009,-9.96875071e-004
,,,3.87500000e-009,-9.40625067e-004
,,,3.90000000e-009,-8.86718813e-004
,,,3.92500000e-009,-8.39062559e-004
,,,3.95000000e-009,-8.00000057e-004
,,,3.97500000e-009,-7.68750054e-004
,,,4.00000000e-009,-7.47656303e-004
,,,4.02500000e-009,-7.36718802e-004
,,,4.05000000e-009,-7.35156302e-004
,,,4.07500000e-009,-7.42968803e-004
,,,4.10000000e-009,-7.57031304e-004
,,,4.12500000e-009,-7.77343805e-004
,,,4.15000000e-009,-8.00000057e-004
,,,4.17500000e-009,-8.21875058e-004
,,,4.20000000e-009,-8.40625059e-004
,,,4.22500000e-009,-8.53125060e-004
,,,4.25000000e-009,-8.59375061e-004
,,,4.27500000e-009,-8.57031311e-004
,,,4.30000000e-009,-8.46875060e-004
,,,4.32500000e-009,-8.27343809e-004
,,,4.35000000e-009,-8.00000057e-004
,,,4.37500000e-009,-7.62500054e-004
,,,4.40000000e-009,-7.18750051e-004
,,,4.42500000e-009,-6.68750047e-004
,,,4.45000000e-009,-6.14843794e-004
,,,4.47500000e-009,-5.59375040e-004
,,,4.50000000e-009,-5.03906286e-004
,,,4.52500000e-009,-4.50000032e-004
,,,4.55000000e-009,-4.00000028e-004
,,,4.57500000e-009,-3.56250025e-004
,,,4.60000000e-009,-3.18750023e-004
,,,4.62500000e-009,-2.85937520e-004
,,,4.65000000e-009,-2.58593768e-004
,,,4.67500000e-009,-2.36718767e-004
,,,4.70000000e-009,-2.20312516e-004
,,,4.72500000e-009,-2.07812515e-004
,,,4.75000000e-009,-2.00000014e-004
,,,4.77500000e-009,-1.99218764e-004
,,,4.80000000e-009,-2.00781264e-004
,,,4.82500000e-009,-2.02343764e-004
,,,4.85000000e-009,-2.03125014e-004
,,,4.87500000e-009,-2.03906264e-004
,,,4.90000000e-009,-2.03125014e-004
,,,4.92500000e-009,-2.01562514e-004
,,,4.95000000e-009,-2.00000014e-004
,,,4.97500000e-009,-2.01562514e-004
,,,5.00000000e-009,-2.02343764e-004
,,,5.02500000e-009,-2.02343764e-004
,,,5.05000000e-009,-2.02343764e-004
,,,5.07500000e-009,-2.01562514e-004
,,,5.10000000e-009,-2.00781264e-004
,,,5.12500000e-009,-2.00000014e-004
,,,5.15000000e-009,-2.00000014e-004
,,,5.17500000e-009,-2.01562514e-004
,,,5.20000000e-009,-2.02343764e-004
,,,5.22500000e-009,-2.03125014e-004
,,,5.25000000e-009,-2.03125014e-004
,,,5.27500000e-009,-2.02343764e-004
,,,5.30000000e-009,-2.01562514e-004
,,,5.32500000e-009,-2.00781264e-004
,,,5.35000000e-009,-2.00000014e-004
,,,5.37500000e-009,-2.00781264e-004
,,,5.40000000e-009,-2.00781264e-004
,,,5.42500000e-009,-2.00781264e-004
,,,5.45000000e-009,-2.00000014e-004
,,,5.47500000e-009,-1.98437514e-004
,,,5.50000000e-009,-1.97656264e-004
,,,5.52500000e-009,-1.97656264e-004
,,,5.55000000e-009,-2.00000014e-004
,,,5.57500000e-009,-2.04687514e-004
,,,5.60000000e-009,-2.14062515e-004
,,,5.62500000e-009,-2.28125016e-004
,,,5.65000000e-009,-2.48437518e-004
,,,5.67500000e-009,-2.75781270e-004
,,,5.70000000e-009,-3.10156272e-004
,,,5.72500000e-009,-3.52343775e-004
,,,5.75000000e-009,-4.00000028e-004
,,,5.77500000e-009,-4.47656282e-004
,,,5.80000000e-009,-4.94531285e-004
,,,5.82500000e-009,-5.38281288e-004
,,,5.85000000e-009,-5.75781291e-004
,,,5.87500000e-009,-6.02343793e-004
,,,5.90000000e-009,-6.16406294e-004
,,,5.92500000e-009,-6.15625044e-004
