RawData/SinglePhotoelectron/R7_2pt2B_5mV/wave017_Ch2.csv

"Record Length",1000,"Points",-7.72500000e-009,-6.00000042e-004
"Sample Interval",2.50000000e-011,s,-7.70000000e-009,-5.95312542e-004
"Trigger Point",309,"Samples",-7.67500000e-009,-5.92968792e-004
"Trigger Time",1.84644444e-011,s,-7.65000000e-009,-5.92187542e-004
"",,,-7.62500000e-009,-5.92968792e-004
"Horizontal Offset",-7.72500000e-009,s,-7.60000000e-009,-5.94531292e-004
,,,-7.57500000e-009,-5.96875042e-004
,,,-7.55000000e-009,-5.98437542e-004
,,,-7.52500000e-009,-6.00000042e-004
,,,-7.50000000e-009,-5.99218792e-004
,,,-7.47500000e-009,-5.97656292e-004
,,,-7.45000000e-009,-5.96093792e-004
,,,-7.42500000e-009,-5.94531292e-004
,,,-7.40000000e-009,-5.93750042e-004
,,,-7.37500000e-009,-5.94531292e-004
,,,-7.35000000e-009,-5.96093792e-004
,,,-7.32500000e-009,-6.00000042e-004
,,,-7.30000000e-009,-6.03906293e-004
,,,-7.27500000e-009,-6.08593793e-004
,,,-7.25000000e-009,-6.13281293e-004
,,,-7.22500000e-009,-6.15625044e-004
,,,-7.20000000e-009,-6.16406294e-004
,,,-7.17500000e-009,-6.14843794e-004
,,,-7.15000000e-009,-6.09375043e-004
,,,-7.12500000e-009,-6.00000042e-004
,,,-7.10000000e-009,-5.85937541e-004
,,,-7.07500000e-009,-5.67187540e-004
,,,-7.05000000e-009,-5.45312539e-004
,,,-7.02500000e-009,-5.19531287e-004
,,,-7.00000000e-009,-4.90625035e-004
,,,-6.97500000e-009,-4.60156283e-004
,,,-6.95000000e-009,-4.29687530e-004
,,,-6.92500000e-009,-4.00000028e-004
,,,-6.90000000e-009,-3.72656276e-004
,,,-6.87500000e-009,-3.50781275e-004
,,,-6.85000000e-009,-3.35937524e-004
,,,-6.82500000e-009,-3.28906273e-004
,,,-6.80000000e-009,-3.31250023e-004
,,,-6.77500000e-009,-3.44531274e-004
,,,-6.75000000e-009,-3.67187526e-004
,,,-6.72500000e-009,-4.00000028e-004
,,,-6.70000000e-009,-4.38281281e-004
,,,-6.67500000e-009,-4.79687534e-004
,,,-6.65000000e-009,-5.19531287e-004
,,,-6.62500000e-009,-5.56250039e-004
,,,-6.60000000e-009,-5.84375041e-004
,,,-6.57500000e-009,-6.02343793e-004
,,,-6.55000000e-009,-6.07812543e-004
,,,-6.52500000e-009,-6.00000042e-004
,,,-6.50000000e-009,-5.76562541e-004
,,,-6.47500000e-009,-5.44531289e-004
,,,-6.45000000e-009,-5.06250036e-004
,,,-6.42500000e-009,-4.67968783e-004
,,,-6.40000000e-009,-4.33593781e-004
,,,-6.37500000e-009,-4.09375029e-004
,,,-6.35000000e-009,-3.96875028e-004
,,,-6.32500000e-009,-4.00000028e-004
,,,-6.30000000e-009,-4.15625029e-004
,,,-6.27500000e-009,-4.43750031e-004
,,,-6.25000000e-009,-4.79687534e-004
,,,-6.22500000e-009,-5.18750037e-004
,,,-6.20000000e-009,-5.55468789e-004
,,,-6.17500000e-009,-5.84375041e-004
,,,-6.15000000e-009,-6.00000042e-004
,,,-6.12500000e-009,-6.00000042e-004
,,,-6.10000000e-009,-5.78125041e-004
,,,-6.07500000e-009,-5.39062538e-004
,,,-6.05000000e-009,-4.85937534e-004
,,,-6.02500000e-009,-4.24218780e-004
,,,-6.00000000e-009,-3.59375025e-004
,,,-5.97500000e-009,-2.96875021e-004
,,,-5.95000000e-009,-2.42187517e-004
,,,-5.92500000e-009,-2.00000014e-004
,,,-5.90000000e-009,-1.69531262e-004
,,,-5.87500000e-009,-1.53125011e-004
,,,-5.85000000e-009,-1.50000011e-004
,,,-5.82500000e-009,-1.57031261e-004
,,,-5.80000000e-009,-1.69531262e-004
,,,-5.77500000e-009,-1.83593763e-004
,,,-5.75000000e-009,-1.94531264e-004
,,,-5.72500000e-009,-2.00000014e-004
,,,-5.70000000e-009,-1.93750014e-004
,,,-5.67500000e-009,-1.78906263e-004
,,,-5.65000000e-009,-1.54687511e-004
,,,-5.62500000e-009,-1.23437509e-004
,,,-5.60000000e-009,-8.90625063e-005
,,,-5.57500000e-009,-5.54687539e-005
,,,-5.55000000e-009,-2.42187517e-005
,,,-5.52500000e-009,0.00000000e+000
,,,-5.50000000e-009,1.71875012e-005
,,,-5.47500000e-009,2.65625019e-005
,,,-5.45000000e-009,2.96875021e-005
,,,-5.42500000e-009,2.65625019e-005
,,,-5.40000000e-009,2.03125014e-005
,,,-5.37500000e-009,1.17187508e-005
,,,-5.35000000e-009,3.90625028e-006
,,,-5.32500000e-009,0.00000000e+000
,,,-5.30000000e-009,0.00000000e+000
,,,-5.27500000e-009,7.03125050e-006
,,,-5.25000000e-009,2.26562516e-005
,,,-5.22500000e-009,4.60937533e-005
,,,-5.20000000e-009,7.65625054e-005
,,,-5.17500000e-009,1.14062508e-004
,,,-5.15000000e-009,1.55468761e-004
,,,-5.12500000e-009,2.00000014e-004
,,,-5.10000000e-009,2.42187517e-004
,,,-5.07500000e-009,2.82812520e-004
,,,-5.05000000e-009,3.19531273e-004
,,,-5.02500000e-009,3.51562525e-004
,,,-5.00000000e-009,3.76562527e-004
,,,-4.97500000e-009,3.92187528e-004
,,,-4.95000000e-009,4.00000028e-004
,,,-4.92500000e-009,4.00000028e-004
,,,-4.90000000e-009,3.90625028e-004
,,,-4.87500000e-009,3.78125027e-004
,,,-4.85000000e-009,3.65625026e-004
,,,-4.82500000e-009,3.56250025e-004
,,,-4.80000000e-009,3.52343775e-004
,,,-4.77500000e-009,3.57812525e-004
,,,-4.75000000e-009,3.73437526e-004
,,,-4.72500000e-009,4.00000028e-004
,,,-4.70000000e-009,4.31250031e-004
,,,-4.67500000e-009,4.68750033e-004
,,,-4.65000000e-009,5.09375036e-004
,,,-4.62500000e-009,5.48437539e-004
,,,-4.60000000e-009,5.80468791e-004
,,,-4.57500000e-009,6.02343793e-004
,,,-4.55000000e-009,6.09375043e-004
,,,-4.52500000e-009,6.00000042e-004
,,,-4.50000000e-009,5.69531290e-004
,,,-4.47500000e-009,5.25000037e-004
,,,-4.45000000e-009,4.70312533e-004
,,,-4.42500000e-009,4.07812529e-004
,,,-4.40000000e-009,3.45312524e-004
,,,-4.37500000e-009,2.85937520e-004
,,,-4.35000000e-009,2.35937517e-004
,,,-4.32500000e-009,2.00000014e-004
,,,-4.30000000e-009,1.79687513e-004
,,,-4.27500000e-009,1.77343763e-004
,,,-4.25000000e-009,1.91406264e-004
,,,-4.22500000e-009,2.20312516e-004
,,,-4.20000000e-009,2.59375018e-004
,,,-4.17500000e-009,3.05468772e-004
,,,-4.15000000e-009,3.53906275e-004
,,,-4.12500000e-009,4.00000028e-004
,,,-4.10000000e-009,4.37500031e-004
,,,-4.07500000e-009,4.66406283e-004
,,,-4.05000000e-009,4.82812534e-004
,,,-4.02500000e-009,4.87500035e-004
,,,-4.00000000e-009,4.80468784e-004
,,,-3.97500000e-009,4.61718783e-004
,,,-3.95000000e-009,4.34375031e-004
,,,-3.92500000e-009,4.00000028e-004
,,,-3.90000000e-009,3.60156275e-004
,,,-3.87500000e-009,3.19531273e-004
,,,-3.85000000e-009,2.82031270e-004
,,,-3.82500000e-009,2.48437518e-004
,,,-3.80000000e-009,2.21875016e-004
,,,-3.77500000e-009,2.04687514e-004
,,,-3.75000000e-009,1.96875014e-004
,,,-3.72500000e-009,2.00000014e-004
,,,-3.70000000e-009,2.12500015e-004
,,,-3.67500000e-009,2.33593767e-004
,,,-3.65000000e-009,2.60937518e-004
,,,-3.62500000e-009,2.91406271e-004
,,,-3.60000000e-009,3.22656273e-004
,,,-3.57500000e-009,3.52343775e-004
,,,-3.55000000e-009,3.78906277e-004
,,,-3.52500000e-009,4.00000028e-004
,,,-3.50000000e-009,4.12500029e-004
,,,-3.47500000e-009,4.17968780e-004
,,,-3.45000000e-009,4.17187530e-004
,,,-3.42500000e-009,4.13281279e-004
,,,-3.40000000e-009,4.07031279e-004
,,,-3.37500000e-009,4.02343778e-004
,,,-3.35000000e-009,3.99218778e-004
,,,-3.32500000e-009,4.00000028e-004
,,,-3.30000000e-009,4.00781278e-004
,,,-3.27500000e-009,4.03906279e-004
,,,-3.25000000e-009,4.10156279e-004
,,,-3.22500000e-009,4.15625029e-004
,,,-3.20000000e-009,4.19531280e-004
,,,-3.17500000e-009,4.18750030e-004
,,,-3.15000000e-009,4.12500029e-004
,,,-3.12500000e-009,4.00000028e-004
,,,-3.10000000e-009,3.76562527e-004
,,,-3.07500000e-009,3.48437525e-004
,,,-3.05000000e-009,3.16406272e-004
,,,-3.02500000e-009,2.82812520e-004
,,,-3.00000000e-009,2.52343768e-004
,,,-2.97500000e-009,2.27343766e-004
,,,-2.95000000e-009,2.09375015e-004
,,,-2.92500000e-009,2.00000014e-004
,,,-2.90000000e-009,1.97656264e-004
,,,-2.87500000e-009,2.02343764e-004
,,,-2.85000000e-009,2.10937515e-004
,,,-2.82500000e-009,2.20312516e-004
,,,-2.80000000e-009,2.26562516e-004
,,,-2.77500000e-009,2.27343766e-004
,,,-2.75000000e-009,2.18750015e-004
,,,-2.72500000e-009,2.00000014e-004
,,,-2.70000000e-009,1.67187512e-004
,,,-2.67500000e-009,1.24218759e-004
,,,-2.65000000e-009,7.26562551e-005
,,,-2.62500000e-009,1.48437511e-005
,,,-2.60000000e-009,-4.37500031e-005
,,,-2.57500000e-009,-1.02343757e-004
,,,-2.55000000e-009,-1.54687511e-004
,,,-2.52500000e-009,-2.00000014e-004
,,,-2.50000000e-009,-2.28906266e-004
,,,-2.47500000e-009,-2.46875017e-004
,,,-2.45000000e-009,-2.54687518e-004
,,,-2.42500000e-009,-2.52343768e-004
,,,-2.40000000e-009,-2.43750017e-004
,,,-2.37500000e-009,-2.29687516e-004
,,,-2.35000000e-009,-2.14843765e-004
,,,-2.32500000e-009,-2.00000014e-004
,,,-2.30000000e-009,-1.84375013e-004
,,,-2.27500000e-009,-1.73437512e-004
,,,-2.25000000e-009,-1.67968762e-004
,,,-2.22500000e-009,-1.67968762e-004
,,,-2.20000000e-009,-1.71875012e-004
,,,-2.17500000e-009,-1.79687513e-004
,,,-2.15000000e-009,-1.89062513e-004
,,,-2.12500000e-009,-2.00000014e-004
,,,-2.10000000e-009,-2.05468765e-004
,,,-2.07500000e-009,-2.10937515e-004
,,,-2.05000000e-009,-2.14062515e-004
,,,-2.02500000e-009,-2.15625015e-004
,,,-2.00000000e-009,-2.14843765e-004
,,,-1.97500000e-009,-2.12500015e-004
,,,-1.95000000e-009,-2.07031265e-004
,,,-1.92500000e-009,-2.00000014e-004
,,,-1.90000000e-009,-1.87500013e-004
,,,-1.87500000e-009,-1.72656262e-004
,,,-1.85000000e-009,-1.53906261e-004
,,,-1.82500000e-009,-1.32031259e-004
,,,-1.80000000e-009,-1.05468757e-004
,,,-1.77500000e-009,-7.42187553e-005
,,,-1.75000000e-009,-3.90625028e-005
,,,-1.72500000e-009,0.00000000e+000
,,,-1.70000000e-009,3.51562525e-005
,,,-1.67500000e-009,6.95312549e-005
,,,-1.65000000e-009,1.01562507e-004
,,,-1.62500000e-009,1.31250009e-004
,,,-1.60000000e-009,1.56250011e-004
,,,-1.57500000e-009,1.76562512e-004
,,,-1.55000000e-009,1.91406264e-004
,,,-1.52500000e-009,2.00000014e-004
,,,-1.50000000e-009,1.86718763e-004
,,,-1.47500000e-009,1.65625012e-004
,,,-1.45000000e-009,1.38281260e-004
,,,-1.42500000e-009,1.07812508e-004
,,,-1.40000000e-009,7.65625054e-005
,,,-1.37500000e-009,4.60937533e-005
,,,-1.35000000e-009,2.03125014e-005
,,,-1.32500000e-009,0.00000000e+000
,,,-1.30000000e-009,-3.20312523e-005
,,,-1.27500000e-009,-5.78125041e-005
,,,-1.25000000e-009,-7.50000053e-005
,,,-1.22500000e-009,-8.20312558e-005
,,,-1.20000000e-009,-7.73437555e-005
,,,-1.17500000e-009,-6.09375043e-005
,,,-1.15000000e-009,-3.35937524e-005
,,,-1.12500000e-009,0.00000000e+000
,,,-1.10000000e-009,1.25000009e-005
,,,-1.07500000e-009,2.10937515e-005
,,,-1.05000000e-009,2.03125014e-005
,,,-1.02500000e-009,8.59375061e-006
,,,-1.00000000e-009,-1.71875012e-005
,,,-9.75000000e-010,-5.93750042e-005
,,,-9.50000000e-010,-1.19531258e-004
,,,-9.25000000e-010,-2.00000014e-004
,,,-9.00000000e-010,-3.21875023e-004
,,,-8.75000000e-010,-4.63281283e-004
,,,-8.50000000e-010,-6.18750044e-004
,,,-8.25000000e-010,-7.81250055e-004
,,,-8.00000000e-010,-9.46093817e-004
,,,-7.75000000e-010,-1.10703133e-003
,,,-7.50000000e-010,-1.25937509e-003
,,,-7.25000000e-010,-1.40000010e-003
,,,-7.00000000e-010,-1.54062511e-003
,,,-6.75000000e-010,-1.67265637e-003
,,,-6.50000000e-010,-1.79687513e-003
,,,-6.25000000e-010,-1.91562514e-003
,,,-6.00000000e-010,-2.03125014e-003
,,,-5.75000000e-010,-2.14843765e-003
,,,-5.50000000e-010,-2.27031266e-003
,,,-5.25000000e-010,-2.40000017e-003
,,,-5.00000000e-010,-2.54062518e-003
,,,-4.75000000e-010,-2.69609394e-003
,,,-4.50000000e-010,-2.86484395e-003
,,,-4.25000000e-010,-3.04453147e-003
,,,-4.00000000e-010,-3.23281273e-003
,,,-3.75000000e-010,-3.42421899e-003
,,,-3.50000000e-010,-3.61484401e-003
,,,-3.25000000e-010,-3.80000027e-003
,,,-3.00000000e-010,-3.96328153e-003
,,,-2.75000000e-010,-4.11796904e-003
,,,-2.50000000e-010,-4.26250030e-003
,,,-2.25000000e-010,-4.39453156e-003
,,,-2.00000000e-010,-4.51484407e-003
,,,-1.75000000e-010,-4.62187533e-003
,,,-1.50000000e-010,-4.71640658e-003
,,,-1.25000000e-010,-4.80000034e-003
,,,-1.00000000e-010,-4.85000034e-003
,,,-7.50000000e-011,-4.89687535e-003
,,,-5.00000000e-011,-4.94218785e-003
,,,-2.50000000e-011,-4.98906285e-003
,,,0.00000000e+000,-5.03828161e-003
,,,2.50000000e-011,-5.09062536e-003
,,,5.00000000e-011,-5.14453161e-003
,,,7.50000000e-011,-5.20000037e-003
,,,1.00000000e-010,-5.23046912e-003
,,,1.25000000e-010,-5.26328162e-003
,,,1.50000000e-010,-5.29843788e-003
,,,1.75000000e-010,-5.33203163e-003
,,,2.00000000e-010,-5.36250038e-003
,,,2.25000000e-010,-5.38515663e-003
,,,2.50000000e-010,-5.39843788e-003
,,,2.75000000e-010,-5.40000038e-003
,,,3.00000000e-010,-5.36093788e-003
,,,3.25000000e-010,-5.31328163e-003
,,,3.50000000e-010,-5.26015662e-003
,,,3.75000000e-010,-5.20390662e-003
,,,4.00000000e-010,-5.14687536e-003
,,,4.25000000e-010,-5.09375036e-003
,,,4.50000000e-010,-5.04375036e-003
,,,4.75000000e-010,-5.00000035e-003
,,,5.00000000e-010,-4.93984410e-003
,,,5.25000000e-010,-4.88671910e-003
,,,5.50000000e-010,-4.83828159e-003
,,,5.75000000e-010,-4.79375034e-003
,,,6.00000000e-010,-4.74921909e-003
,,,6.25000000e-010,-4.70390658e-003
,,,6.50000000e-010,-4.65390658e-003
,,,6.75000000e-010,-4.60000033e-003
,,,7.00000000e-010,-4.52578157e-003
,,,7.25000000e-010,-4.44921906e-003
,,,7.50000000e-010,-4.37500031e-003
,,,7.75000000e-010,-4.30781280e-003
,,,8.00000000e-010,-4.25390655e-003
,,,8.25000000e-010,-4.21640655e-003
,,,8.50000000e-010,-4.19843780e-003
,,,8.75000000e-010,-4.20000030e-003
,,,9.00000000e-010,-4.20625030e-003
,,,9.25000000e-010,-4.22265655e-003
,,,9.50000000e-010,-4.24375030e-003
,,,9.75000000e-010,-4.26250030e-003
,,,1.00000000e-009,-4.27343780e-003
,,,1.02500000e-009,-4.27031280e-003
,,,1.05000000e-009,-4.24687530e-003
,,,1.07500000e-009,-4.20000030e-003
,,,1.10000000e-009,-4.11718779e-003
,,,1.12500000e-009,-4.00937528e-003
,,,1.15000000e-009,-3.88046902e-003
,,,1.17500000e-009,-3.73828151e-003
,,,1.20000000e-009,-3.59140650e-003
,,,1.22500000e-009,-3.44765649e-003
,,,1.25000000e-009,-3.31484398e-003
,,,1.27500000e-009,-3.20000023e-003
,,,1.30000000e-009,-3.10234397e-003
,,,1.32500000e-009,-3.02421896e-003
,,,1.35000000e-009,-2.96406271e-003
,,,1.37500000e-009,-2.91875021e-003
,,,1.40000000e-009,-2.88515645e-003
,,,1.42500000e-009,-2.85781270e-003
,,,1.45000000e-009,-2.83125020e-003
,,,1.47500000e-009,-2.80000020e-003
,,,1.50000000e-009,-2.75625020e-003
,,,1.52500000e-009,-2.69609394e-003
,,,1.55000000e-009,-2.61718769e-003
,,,1.57500000e-009,-2.51953143e-003
,,,1.60000000e-009,-2.40546892e-003
,,,1.62500000e-009,-2.27734391e-003
,,,1.65000000e-009,-2.14062515e-003
,,,1.67500000e-009,-2.00000014e-003
,,,1.70000000e-009,-1.86171888e-003
,,,1.72500000e-009,-1.72734387e-003
,,,1.75000000e-009,-1.59921886e-003
,,,1.77500000e-009,-1.48359386e-003
,,,1.80000000e-009,-1.38359385e-003
,,,1.82500000e-009,-1.30156259e-003
,,,1.85000000e-009,-1.24062509e-003
,,,1.87500000e-009,-1.20000008e-003
,,,1.90000000e-009,-1.18671883e-003
,,,1.92500000e-009,-1.18593758e-003
,,,1.95000000e-009,-1.19375008e-003
,,,1.97500000e-009,-1.20390634e-003
,,,2.00000000e-009,-1.21328134e-003
,,,2.02500000e-009,-1.21796884e-003
,,,2.05000000e-009,-1.21406259e-003
,,,2.07500000e-009,-1.20000008e-003
,,,2.10000000e-009,-1.18125008e-003
,,,2.12500000e-009,-1.14687508e-003
,,,2.15000000e-009,-1.09921883e-003
,,,2.17500000e-009,-1.04140632e-003
,,,2.20000000e-009,-9.78125069e-004
,,,2.22500000e-009,-9.14062565e-004
,,,2.25000000e-009,-8.53125060e-004
,,,2.27500000e-009,-8.00000057e-004
,,,2.30000000e-009,-7.61718804e-004
,,,2.32500000e-009,-7.31250052e-004
,,,2.35000000e-009,-7.06250050e-004
,,,2.37500000e-009,-6.85156298e-004
,,,2.40000000e-009,-6.66406297e-004
,,,2.42500000e-009,-6.46875046e-004
,,,2.45000000e-009,-6.25000044e-004
,,,2.47500000e-009,-6.00000042e-004
,,,2.50000000e-009,-5.77343791e-004
,,,2.52500000e-009,-5.48437539e-004
,,,2.55000000e-009,-5.15625036e-004
,,,2.57500000e-009,-4.82031284e-004
,,,2.60000000e-009,-4.50000032e-004
,,,2.62500000e-009,-4.23437530e-004
,,,2.65000000e-009,-4.05468779e-004
,,,2.67500000e-009,-4.00000028e-004
,,,2.70000000e-009,-4.10156279e-004
,,,2.72500000e-009,-4.29687530e-004
,,,2.75000000e-009,-4.56250032e-004
,,,2.77500000e-009,-4.87500035e-004
,,,2.80000000e-009,-5.21093787e-004
,,,2.82500000e-009,-5.53125039e-004
,,,2.85000000e-009,-5.79687541e-004
,,,2.87500000e-009,-6.00000042e-004
,,,2.90000000e-009,-6.09375043e-004
,,,2.92500000e-009,-6.06250043e-004
,,,2.95000000e-009,-5.91406292e-004
,,,2.97500000e-009,-5.66406290e-004
,,,3.00000000e-009,-5.32031288e-004
,,,3.02500000e-009,-4.90625035e-004
,,,3.05000000e-009,-4.45312532e-004
,,,3.07500000e-009,-4.00000028e-004
,,,3.10000000e-009,-3.56250025e-004
,,,3.12500000e-009,-3.16406272e-004
,,,3.15000000e-009,-2.80468770e-004
,,,3.17500000e-009,-2.50781268e-004
,,,3.20000000e-009,-2.28125016e-004
,,,3.22500000e-009,-2.11718765e-004
,,,3.25000000e-009,-2.02343764e-004
,,,3.27500000e-009,-2.00000014e-004
,,,3.30000000e-009,-2.01562514e-004
,,,3.32500000e-009,-2.06250015e-004
,,,3.35000000e-009,-2.11718765e-004
,,,3.37500000e-009,-2.15625015e-004
,,,3.40000000e-009,-2.17968765e-004
,,,3.42500000e-009,-2.16406265e-004
,,,3.45000000e-009,-2.10156265e-004
,,,3.47500000e-009,-2.00000014e-004
,,,3.50000000e-009,-1.83593763e-004
,,,3.52500000e-009,-1.62500012e-004
,,,3.55000000e-009,-1.36718760e-004
,,,3.57500000e-009,-1.08593758e-004
,,,3.60000000e-009,-7.89062556e-005
,,,3.62500000e-009,-4.92187535e-005
,,,3.65000000e-009,-2.26562516e-005
,,,3.67500000e-009,0.00000000e+000
,,,3.70000000e-009,1.64062512e-005
,,,3.72500000e-009,2.73437519e-005
,,,3.75000000e-009,3.28125023e-005
,,,3.77500000e-009,3.28125023e-005
,,,3.80000000e-009,2.89062520e-005
,,,3.82500000e-009,2.10937515e-005
,,,3.85000000e-009,1.09375008e-005
,,,3.87500000e-009,0.00000000e+000
,,,3.90000000e-009,-1.32812509e-005
,,,3.92500000e-009,-2.42187517e-005
,,,3.95000000e-009,-3.12500022e-005
,,,3.97500000e-009,-3.43750024e-005
,,,4.00000000e-009,-3.28125023e-005
,,,4.02500000e-009,-2.65625019e-005
,,,4.05000000e-009,-1.56250011e-005
,,,4.07500000e-009,0.00000000e+000
,,,4.10000000e-009,1.79687513e-005
,,,4.12500000e-009,3.98437528e-005
,,,4.15000000e-009,6.48437546e-005
,,,4.17500000e-009,9.21875065e-005
,,,4.20000000e-009,1.20312509e-004
,,,4.22500000e-009,1.48437511e-004
,,,4.25000000e-009,1.75000012e-004
,,,4.27500000e-009,2.00000014e-004
,,,4.30000000e-009,2.17968765e-004
,,,4.32500000e-009,2.32031266e-004
,,,4.35000000e-009,2.40625017e-004
,,,4.37500000e-009,2.43750017e-004
,,,4.40000000e-009,2.41406267e-004
,,,4.42500000e-009,2.32812516e-004
,,,4.45000000e-009,2.18750015e-004
,,,4.47500000e-009,2.00000014e-004
,,,4.50000000e-009,1.73437512e-004
,,,4.52500000e-009,1.45312510e-004
,,,4.55000000e-009,1.16406258e-004
,,,4.57500000e-009,8.75000062e-005
,,,4.60000000e-009,6.01562543e-005
,,,4.62500000e-009,3.59375025e-005
,,,4.65000000e-009,1.56250011e-005
,,,4.67500000e-009,0.00000000e+000
,,,4.70000000e-009,-1.17187508e-005
,,,4.72500000e-009,-1.95312514e-005
,,,4.75000000e-009,-2.26562516e-005
,,,4.77500000e-009,-2.26562516e-005
,,,4.80000000e-009,-1.95312514e-005
,,,4.82500000e-009,-1.32812509e-005
,,,4.85000000e-009,-7.03125050e-006
,,,4.87500000e-009,0.00000000e+000
,,,4.90000000e-009,5.46875039e-006
,,,4.92500000e-009,9.37500066e-006
,,,4.95000000e-009,1.17187508e-005
,,,4.97500000e-009,1.25000009e-005
,,,5.00000000e-009,1.09375008e-005
,,,5.02500000e-009,8.59375061e-006
,,,5.05000000e-009,3.90625028e-006
,,,5.07500000e-009,0.00000000e+000
,,,5.10000000e-009,-3.90625028e-006
,,,5.12500000e-009,-8.59375061e-006
,,,5.15000000e-009,-1.09375008e-005
,,,5.17500000e-009,-1.25000009e-005
,,,5.20000000e-009,-1.17187508e-005
,,,5.22500000e-009,-9.37500066e-006
,,,5.25000000e-009,-5.46875039e-006
,,,5.27500000e-009,0.00000000e+000
,,,5.30000000e-009,5.46875039e-006
,,,5.32500000e-009,1.17187508e-005
,,,5.35000000e-009,1.64062512e-005
,,,5.37500000e-009,1.95312514e-005
,,,5.40000000e-009,1.95312514e-005
,,,5.42500000e-009,1.64062512e-005
,,,5.45000000e-009,1.01562507e-005
,,,5.47500000e-009,0.00000000e+000
,,,5.50000000e-009,-1.64062512e-005
,,,5.52500000e-009,-3.75000027e-005
,,,5.55000000e-009,-6.25000044e-005
,,,5.57500000e-009,-8.98437564e-005
,,,5.60000000e-009,-1.18750008e-004
,,,5.62500000e-009,-1.47656260e-004
,,,5.65000000e-009,-1.75000012e-004
,,,5.67500000e-009,-2.00000014e-004
,,,5.70000000e-009,-2.21875016e-004
,,,5.72500000e-009,-2.39062517e-004
,,,5.75000000e-009,-2.50000018e-004
,,,5.77500000e-009,-2.53906268e-004
,,,5.80000000e-009,-2.51562518e-004
,,,5.82500000e-009,-2.40625017e-004
,,,5.85000000e-009,-2.23437516e-004
,,,5.87500000e-009,-2.00000014e-004
,,,5.90000000e-009,-1.72656262e-004
,,,5.92500000e-009,-1.43750010e-004
