RawData/SinglePhotoelectron/R7_2pt2B_5mV/wave018_Ch2.csv

"Record Length",1000,"Points",-7.72500000e-009,0.00000000e+000
"Sample Interval",2.50000000e-011,s,-7.70000000e-009,2.03125014e-005
"Trigger Point",309,"Samples",-7.67500000e-009,4.60937533e-005
"Trigger Time",1.29580531e-011,s,-7.65000000e-009,7.65625054e-005
"",,,-7.62500000e-009,1.08593758e-004
"Horizontal Offset",-7.72500000e-009,s,-7.60000000e-009,1.39062510e-004
,,,-7.57500000e-009,1.65625012e-004
,,,-7.55000000e-009,1.85937513e-004
,,,-7.52500000e-009,2.00000014e-004
,,,-7.50000000e-009,2.03906264e-004
,,,-7.47500000e-009,2.01562514e-004
,,,-7.45000000e-009,1.95312514e-004
,,,-7.42500000e-009,1.87500013e-004
,,,-7.40000000e-009,1.81250013e-004
,,,-7.37500000e-009,1.80468763e-004
,,,-7.35000000e-009,1.85937513e-004
,,,-7.32500000e-009,2.00000014e-004
,,,-7.30000000e-009,2.21093766e-004
,,,-7.27500000e-009,2.49218768e-004
,,,-7.25000000e-009,2.82031270e-004
,,,-7.22500000e-009,3.15625022e-004
,,,-7.20000000e-009,3.47656275e-004
,,,-7.17500000e-009,3.74218776e-004
,,,-7.15000000e-009,3.92187528e-004
,,,-7.12500000e-009,4.00000028e-004
,,,-7.10000000e-009,3.92187528e-004
,,,-7.07500000e-009,3.74218776e-004
,,,-7.05000000e-009,3.47656275e-004
,,,-7.02500000e-009,3.15625022e-004
,,,-7.00000000e-009,2.82031270e-004
,,,-6.97500000e-009,2.49218768e-004
,,,-6.95000000e-009,2.21093766e-004
,,,-6.92500000e-009,2.00000014e-004
,,,-6.90000000e-009,1.85937513e-004
,,,-6.87500000e-009,1.80468763e-004
,,,-6.85000000e-009,1.81250013e-004
,,,-6.82500000e-009,1.87500013e-004
,,,-6.80000000e-009,1.95312514e-004
,,,-6.77500000e-009,2.01562514e-004
,,,-6.75000000e-009,2.03906264e-004
,,,-6.72500000e-009,2.00000014e-004
,,,-6.70000000e-009,1.86718763e-004
,,,-6.67500000e-009,1.67187512e-004
,,,-6.65000000e-009,1.41406260e-004
,,,-6.62500000e-009,1.11718758e-004
,,,-6.60000000e-009,7.96875056e-005
,,,-6.57500000e-009,4.92187535e-005
,,,-6.55000000e-009,2.18750015e-005
,,,-6.52500000e-009,0.00000000e+000
,,,-6.50000000e-009,-1.25000009e-005
,,,-6.47500000e-009,-1.87500013e-005
,,,-6.45000000e-009,-1.95312514e-005
,,,-6.42500000e-009,-1.56250011e-005
,,,-6.40000000e-009,-1.01562507e-005
,,,-6.37500000e-009,-4.68750033e-006
,,,-6.35000000e-009,-7.81250055e-007
,,,-6.32500000e-009,0.00000000e+000
,,,-6.30000000e-009,-7.81250055e-007
,,,-6.27500000e-009,-4.68750033e-006
,,,-6.25000000e-009,-1.01562507e-005
,,,-6.22500000e-009,-1.56250011e-005
,,,-6.20000000e-009,-1.95312514e-005
,,,-6.17500000e-009,-1.87500013e-005
,,,-6.15000000e-009,-1.25000009e-005
,,,-6.12500000e-009,0.00000000e+000
,,,-6.10000000e-009,2.26562516e-005
,,,-6.07500000e-009,5.15625036e-005
,,,-6.05000000e-009,8.28125059e-005
,,,-6.02500000e-009,1.14843758e-004
,,,-6.00000000e-009,1.45312510e-004
,,,-5.97500000e-009,1.70312512e-004
,,,-5.95000000e-009,1.89062513e-004
,,,-5.92500000e-009,2.00000014e-004
,,,-5.90000000e-009,2.04687514e-004
,,,-5.87500000e-009,2.03125014e-004
,,,-5.85000000e-009,1.97656264e-004
,,,-5.82500000e-009,1.89843763e-004
,,,-5.80000000e-009,1.84375013e-004
,,,-5.77500000e-009,1.82812513e-004
,,,-5.75000000e-009,1.86718763e-004
,,,-5.72500000e-009,2.00000014e-004
,,,-5.70000000e-009,2.21875016e-004
,,,-5.67500000e-009,2.50781268e-004
,,,-5.65000000e-009,2.84375020e-004
,,,-5.62500000e-009,3.19531273e-004
,,,-5.60000000e-009,3.51562525e-004
,,,-5.57500000e-009,3.77343777e-004
,,,-5.55000000e-009,3.93750028e-004
,,,-5.52500000e-009,4.00000028e-004
,,,-5.50000000e-009,3.93750028e-004
,,,-5.47500000e-009,3.76562527e-004
,,,-5.45000000e-009,3.50781275e-004
,,,-5.42500000e-009,3.19531273e-004
,,,-5.40000000e-009,2.84375020e-004
,,,-5.37500000e-009,2.50781268e-004
,,,-5.35000000e-009,2.21875016e-004
,,,-5.32500000e-009,2.00000014e-004
,,,-5.30000000e-009,1.89062513e-004
,,,-5.27500000e-009,1.90625013e-004
,,,-5.25000000e-009,2.03906264e-004
,,,-5.22500000e-009,2.28906266e-004
,,,-5.20000000e-009,2.63281269e-004
,,,-5.17500000e-009,3.04687522e-004
,,,-5.15000000e-009,3.51562525e-004
,,,-5.12500000e-009,4.00000028e-004
,,,-5.10000000e-009,4.46093782e-004
,,,-5.07500000e-009,4.88281285e-004
,,,-5.05000000e-009,5.25781287e-004
,,,-5.02500000e-009,5.56250039e-004
,,,-5.00000000e-009,5.78125041e-004
,,,-4.97500000e-009,5.92968792e-004
,,,-4.95000000e-009,6.00000042e-004
,,,-4.92500000e-009,6.00000042e-004
,,,-4.90000000e-009,5.92187542e-004
,,,-4.87500000e-009,5.82031291e-004
,,,-4.85000000e-009,5.71875040e-004
,,,-4.82500000e-009,5.64843790e-004
,,,-4.80000000e-009,5.62500040e-004
,,,-4.77500000e-009,5.66406290e-004
,,,-4.75000000e-009,5.78906291e-004
,,,-4.72500000e-009,6.00000042e-004
,,,-4.70000000e-009,6.25000044e-004
,,,-4.67500000e-009,6.55468796e-004
,,,-4.65000000e-009,6.89062549e-004
,,,-4.62500000e-009,7.23437551e-004
,,,-4.60000000e-009,7.53906303e-004
,,,-4.57500000e-009,7.78906305e-004
,,,-4.55000000e-009,7.94531306e-004
,,,-4.52500000e-009,8.00000057e-004
,,,-4.50000000e-009,7.89062556e-004
,,,-4.47500000e-009,7.69531304e-004
,,,-4.45000000e-009,7.41406302e-004
,,,-4.42500000e-009,7.08593800e-004
,,,-4.40000000e-009,6.75000048e-004
,,,-4.37500000e-009,6.44531296e-004
,,,-4.35000000e-009,6.17968794e-004
,,,-4.32500000e-009,6.00000042e-004
,,,-4.30000000e-009,5.85156291e-004
,,,-4.27500000e-009,5.78906291e-004
,,,-4.25000000e-009,5.79687541e-004
,,,-4.22500000e-009,5.85156291e-004
,,,-4.20000000e-009,5.92968792e-004
,,,-4.17500000e-009,5.99218792e-004
,,,-4.15000000e-009,6.02343793e-004
,,,-4.12500000e-009,6.00000042e-004
,,,-4.10000000e-009,5.86718792e-004
,,,-4.07500000e-009,5.67187540e-004
,,,-4.05000000e-009,5.41406288e-004
,,,-4.02500000e-009,5.11718786e-004
,,,-4.00000000e-009,4.79687534e-004
,,,-3.97500000e-009,4.49218782e-004
,,,-3.95000000e-009,4.21875030e-004
,,,-3.92500000e-009,4.00000028e-004
,,,-3.90000000e-009,3.84375027e-004
,,,-3.87500000e-009,3.75000027e-004
,,,-3.85000000e-009,3.72656276e-004
,,,-3.82500000e-009,3.75781277e-004
,,,-3.80000000e-009,3.82031277e-004
,,,-3.77500000e-009,3.89062528e-004
,,,-3.75000000e-009,3.96093778e-004
,,,-3.72500000e-009,4.00000028e-004
,,,-3.70000000e-009,3.99218778e-004
,,,-3.67500000e-009,3.91406278e-004
,,,-3.65000000e-009,3.76562527e-004
,,,-3.62500000e-009,3.54687525e-004
,,,-3.60000000e-009,3.24218773e-004
,,,-3.57500000e-009,2.87500020e-004
,,,-3.55000000e-009,2.45312517e-004
,,,-3.52500000e-009,2.00000014e-004
,,,-3.50000000e-009,1.55468761e-004
,,,-3.47500000e-009,1.12500008e-004
,,,-3.45000000e-009,7.34375052e-005
,,,-3.42500000e-009,3.98437528e-005
,,,-3.40000000e-009,1.48437511e-005
,,,-3.37500000e-009,0.00000000e+000
,,,-3.35000000e-009,-5.46875039e-006
,,,-3.32500000e-009,0.00000000e+000
,,,-3.30000000e-009,1.87500013e-005
,,,-3.27500000e-009,4.45312532e-005
,,,-3.25000000e-009,7.50000053e-005
,,,-3.22500000e-009,1.07812508e-004
,,,-3.20000000e-009,1.38281260e-004
,,,-3.17500000e-009,1.65625012e-004
,,,-3.15000000e-009,1.85937513e-004
,,,-3.12500000e-009,2.00000014e-004
,,,-3.10000000e-009,2.06250015e-004
,,,-3.07500000e-009,2.05468765e-004
,,,-3.05000000e-009,2.00000014e-004
,,,-3.02500000e-009,1.92187514e-004
,,,-3.00000000e-009,1.85156263e-004
,,,-2.97500000e-009,1.82812513e-004
,,,-2.95000000e-009,1.86718763e-004
,,,-2.92500000e-009,2.00000014e-004
,,,-2.90000000e-009,2.21875016e-004
,,,-2.87500000e-009,2.50000018e-004
,,,-2.85000000e-009,2.83593770e-004
,,,-2.82500000e-009,3.17968773e-004
,,,-2.80000000e-009,3.50000025e-004
,,,-2.77500000e-009,3.76562527e-004
,,,-2.75000000e-009,3.93750028e-004
,,,-2.72500000e-009,4.00000028e-004
,,,-2.70000000e-009,3.93750028e-004
,,,-2.67500000e-009,3.76562527e-004
,,,-2.65000000e-009,3.50000025e-004
,,,-2.62500000e-009,3.17968773e-004
,,,-2.60000000e-009,2.83593770e-004
,,,-2.57500000e-009,2.50000018e-004
,,,-2.55000000e-009,2.21875016e-004
,,,-2.52500000e-009,2.00000014e-004
,,,-2.50000000e-009,1.85937513e-004
,,,-2.47500000e-009,1.80468763e-004
,,,-2.45000000e-009,1.82031263e-004
,,,-2.42500000e-009,1.88281263e-004
,,,-2.40000000e-009,1.96093764e-004
,,,-2.37500000e-009,2.02343764e-004
,,,-2.35000000e-009,2.04687514e-004
,,,-2.32500000e-009,2.00000014e-004
,,,-2.30000000e-009,1.87500013e-004
,,,-2.27500000e-009,1.67968762e-004
,,,-2.25000000e-009,1.42187510e-004
,,,-2.22500000e-009,1.11718758e-004
,,,-2.20000000e-009,7.96875056e-005
,,,-2.17500000e-009,4.84375034e-005
,,,-2.15000000e-009,2.03125014e-005
,,,-2.12500000e-009,0.00000000e+000
,,,-2.10000000e-009,-8.59375061e-006
,,,-2.07500000e-009,-7.03125050e-006
,,,-2.05000000e-009,4.68750033e-006
,,,-2.02500000e-009,2.81250020e-005
,,,-2.00000000e-009,6.09375043e-005
,,,-1.97500000e-009,1.02343757e-004
,,,-1.95000000e-009,1.49218761e-004
,,,-1.92500000e-009,2.00000014e-004
,,,-1.90000000e-009,2.50000018e-004
,,,-1.87500000e-009,2.96875021e-004
,,,-1.85000000e-009,3.38281274e-004
,,,-1.82500000e-009,3.71093776e-004
,,,-1.80000000e-009,3.94531278e-004
,,,-1.77500000e-009,4.07812529e-004
,,,-1.75000000e-009,4.08593779e-004
,,,-1.72500000e-009,4.00000028e-004
,,,-1.70000000e-009,3.78125027e-004
,,,-1.67500000e-009,3.48437525e-004
,,,-1.65000000e-009,3.14843772e-004
,,,-1.62500000e-009,2.80468770e-004
,,,-1.60000000e-009,2.49218768e-004
,,,-1.57500000e-009,2.23437516e-004
,,,-1.55000000e-009,2.06250015e-004
,,,-1.52500000e-009,2.00000014e-004
,,,-1.50000000e-009,1.97656264e-004
,,,-1.47500000e-009,2.06250015e-004
,,,-1.45000000e-009,2.24218766e-004
,,,-1.42500000e-009,2.50781268e-004
,,,-1.40000000e-009,2.84375020e-004
,,,-1.37500000e-009,3.21875023e-004
,,,-1.35000000e-009,3.60937526e-004
,,,-1.32500000e-009,4.00000028e-004
,,,-1.30000000e-009,4.18750030e-004
,,,-1.27500000e-009,4.30468780e-004
,,,-1.25000000e-009,4.35156281e-004
,,,-1.22500000e-009,4.33593781e-004
,,,-1.20000000e-009,4.27343780e-004
,,,-1.17500000e-009,4.18750030e-004
,,,-1.15000000e-009,4.09375029e-004
,,,-1.12500000e-009,4.00000028e-004
,,,-1.10000000e-009,3.67187526e-004
,,,-1.07500000e-009,3.32812524e-004
,,,-1.05000000e-009,3.00000021e-004
,,,-1.02500000e-009,2.70312519e-004
,,,-1.00000000e-009,2.44531267e-004
,,,-9.75000000e-010,2.25000016e-004
,,,-9.50000000e-010,2.10156265e-004
,,,-9.25000000e-010,2.00000014e-004
,,,-9.00000000e-010,1.62500012e-004
,,,-8.75000000e-010,1.21875009e-004
,,,-8.50000000e-010,7.73437555e-005
,,,-8.25000000e-010,2.89062520e-005
,,,-8.00000000e-010,-2.18750015e-005
,,,-7.75000000e-010,-7.73437555e-005
,,,-7.50000000e-010,-1.35937510e-004
,,,-7.25000000e-010,-2.00000014e-004
,,,-7.00000000e-010,-2.97656271e-004
,,,-6.75000000e-010,-4.07812529e-004
,,,-6.50000000e-010,-5.28125037e-004
,,,-6.25000000e-010,-6.55468796e-004
,,,-6.00000000e-010,-7.87500056e-004
,,,-5.75000000e-010,-9.23437565e-004
,,,-5.50000000e-010,-1.06093758e-003
,,,-5.25000000e-010,-1.20000008e-003
,,,-5.00000000e-010,-1.36250010e-003
,,,-4.75000000e-010,-1.53125011e-003
,,,-4.50000000e-010,-1.70468762e-003
,,,-4.25000000e-010,-1.88125013e-003
,,,-4.00000000e-010,-2.06015640e-003
,,,-3.75000000e-010,-2.23906266e-003
,,,-3.50000000e-010,-2.41953142e-003
,,,-3.25000000e-010,-2.60000018e-003
,,,-3.00000000e-010,-2.79218770e-003
,,,-2.75000000e-010,-2.99062521e-003
,,,-2.50000000e-010,-3.19375023e-003
,,,-2.25000000e-010,-3.39843774e-003
,,,-2.00000000e-010,-3.60390651e-003
,,,-1.75000000e-010,-3.80703152e-003
,,,-1.50000000e-010,-4.00625028e-003
,,,-1.25000000e-010,-4.20000030e-003
,,,-1.00000000e-010,-4.38203156e-003
,,,-7.50000000e-011,-4.56328157e-003
,,,-5.00000000e-011,-4.74375034e-003
,,,-2.50000000e-011,-4.92187535e-003
,,,0.00000000e+000,-5.09843786e-003
,,,2.50000000e-011,-5.27031287e-003
,,,5.00000000e-011,-5.43828163e-003
,,,7.50000000e-011,-5.60000040e-003
,,,1.00000000e-010,-5.73906291e-003
,,,1.25000000e-010,-5.87656292e-003
,,,1.50000000e-010,-6.01171918e-003
,,,1.75000000e-010,-6.14375043e-003
,,,2.00000000e-010,-6.27109419e-003
,,,2.25000000e-010,-6.38984420e-003
,,,2.50000000e-010,-6.50000046e-003
,,,2.75000000e-010,-6.60000047e-003
,,,3.00000000e-010,-6.66406297e-003
,,,3.25000000e-010,-6.72812548e-003
,,,3.50000000e-010,-6.79296923e-003
,,,3.75000000e-010,-6.86328174e-003
,,,4.00000000e-010,-6.93828174e-003
,,,4.25000000e-010,-7.02031300e-003
,,,4.50000000e-010,-7.10781300e-003
,,,4.75000000e-010,-7.20000051e-003
,,,5.00000000e-010,-7.25937551e-003
,,,5.25000000e-010,-7.32265677e-003
,,,5.50000000e-010,-7.38750052e-003
,,,5.75000000e-010,-7.45000053e-003
,,,6.00000000e-010,-7.50703178e-003
,,,6.25000000e-010,-7.55312553e-003
,,,6.50000000e-010,-7.58515679e-003
,,,6.75000000e-010,-7.60000054e-003
,,,7.00000000e-010,-7.56171929e-003
,,,7.25000000e-010,-7.51015678e-003
,,,7.50000000e-010,-7.45078178e-003
,,,7.75000000e-010,-7.38906302e-003
,,,8.00000000e-010,-7.32812552e-003
,,,8.25000000e-010,-7.27421926e-003
,,,8.50000000e-010,-7.23046926e-003
,,,8.75000000e-010,-7.20000051e-003
,,,9.00000000e-010,-7.15234426e-003
,,,9.25000000e-010,-7.12109425e-003
,,,9.50000000e-010,-7.10625050e-003
,,,9.75000000e-010,-7.10781300e-003
,,,1.00000000e-009,-7.12187550e-003
,,,1.02500000e-009,-7.14531301e-003
,,,1.05000000e-009,-7.17343801e-003
,,,1.07500000e-009,-7.20000051e-003
,,,1.10000000e-009,-7.18828176e-003
,,,1.12500000e-009,-7.16171926e-003
,,,1.15000000e-009,-7.11640675e-003
,,,1.17500000e-009,-7.05312550e-003
,,,1.20000000e-009,-6.96875049e-003
,,,1.22500000e-009,-6.86406299e-003
,,,1.25000000e-009,-6.74062548e-003
,,,1.27500000e-009,-6.60000047e-003
,,,1.30000000e-009,-6.42031295e-003
,,,1.32500000e-009,-6.22968794e-003
,,,1.35000000e-009,-6.03359418e-003
,,,1.37500000e-009,-5.83906291e-003
,,,1.40000000e-009,-5.65390665e-003
,,,1.42500000e-009,-5.48359414e-003
,,,1.45000000e-009,-5.33125038e-003
,,,1.47500000e-009,-5.20000037e-003
,,,1.50000000e-009,-5.07656286e-003
,,,1.52500000e-009,-4.96718785e-003
,,,1.55000000e-009,-4.86875034e-003
,,,1.57500000e-009,-4.77734409e-003
,,,1.60000000e-009,-4.68906283e-003
,,,1.62500000e-009,-4.59921908e-003
,,,1.65000000e-009,-4.50390657e-003
,,,1.67500000e-009,-4.40000031e-003
,,,1.70000000e-009,-4.27890655e-003
,,,1.72500000e-009,-4.14140654e-003
,,,1.75000000e-009,-3.98984403e-003
,,,1.77500000e-009,-3.82890652e-003
,,,1.80000000e-009,-3.66328151e-003
,,,1.82500000e-009,-3.50000025e-003
,,,1.85000000e-009,-3.34375024e-003
,,,1.87500000e-009,-3.20000023e-003
,,,1.90000000e-009,-3.07265647e-003
,,,1.92500000e-009,-2.95546896e-003
,,,1.95000000e-009,-2.84843770e-003
,,,1.97500000e-009,-2.74921894e-003
,,,2.00000000e-009,-2.65703144e-003
,,,2.02500000e-009,-2.56953143e-003
,,,2.05000000e-009,-2.48437518e-003
,,,2.07500000e-009,-2.40000017e-003
,,,2.10000000e-009,-2.32187516e-003
,,,2.12500000e-009,-2.23515641e-003
,,,2.15000000e-009,-2.13906265e-003
,,,2.17500000e-009,-2.03515639e-003
,,,2.20000000e-009,-1.92578139e-003
,,,2.22500000e-009,-1.81406263e-003
,,,2.25000000e-009,-1.70468762e-003
,,,2.27500000e-009,-1.60000011e-003
,,,2.30000000e-009,-1.51406261e-003
,,,2.32500000e-009,-1.43125010e-003
,,,2.35000000e-009,-1.35078135e-003
,,,2.37500000e-009,-1.27265634e-003
,,,2.40000000e-009,-1.19843758e-003
,,,2.42500000e-009,-1.12734383e-003
,,,2.45000000e-009,-1.06171883e-003
,,,2.47500000e-009,-1.00000007e-003
,,,2.50000000e-009,-9.54687568e-004
,,,2.52500000e-009,-9.07812564e-004
,,,2.55000000e-009,-8.58593811e-004
,,,2.57500000e-009,-8.07812557e-004
,,,2.60000000e-009,-7.54687553e-004
,,,2.62500000e-009,-7.01562550e-004
,,,2.65000000e-009,-6.49218796e-004
,,,2.67500000e-009,-6.00000042e-004
,,,2.70000000e-009,-5.68750040e-004
,,,2.72500000e-009,-5.37500038e-004
,,,2.75000000e-009,-5.07812536e-004
,,,2.77500000e-009,-4.79687534e-004
,,,2.80000000e-009,-4.53125032e-004
,,,2.82500000e-009,-4.30468780e-004
,,,2.85000000e-009,-4.12500029e-004
,,,2.87500000e-009,-4.00000028e-004
,,,2.90000000e-009,-4.02343778e-004
,,,2.92500000e-009,-4.06250029e-004
,,,2.95000000e-009,-4.10156279e-004
,,,2.97500000e-009,-4.12500029e-004
,,,3.00000000e-009,-4.13281279e-004
,,,3.02500000e-009,-4.11718779e-004
,,,3.05000000e-009,-4.07812529e-004
,,,3.07500000e-009,-4.00000028e-004
,,,3.10000000e-009,-3.95312528e-004
,,,3.12500000e-009,-3.84375027e-004
,,,3.15000000e-009,-3.66406276e-004
,,,3.17500000e-009,-3.41406274e-004
,,,3.20000000e-009,-3.10937522e-004
,,,3.22500000e-009,-2.75781270e-004
,,,3.25000000e-009,-2.37500017e-004
,,,3.27500000e-009,-2.00000014e-004
,,,3.30000000e-009,-1.71875012e-004
,,,3.32500000e-009,-1.47656260e-004
,,,3.35000000e-009,-1.30468759e-004
,,,3.37500000e-009,-1.21875009e-004
,,,3.40000000e-009,-1.23437509e-004
,,,3.42500000e-009,-1.36718760e-004
,,,3.45000000e-009,-1.62500012e-004
,,,3.47500000e-009,-2.00000014e-004
,,,3.50000000e-009,-2.51562518e-004
,,,3.52500000e-009,-3.09375022e-004
,,,3.55000000e-009,-3.70312526e-004
,,,3.57500000e-009,-4.31250031e-004
,,,3.60000000e-009,-4.87500035e-004
,,,3.62500000e-009,-5.35937538e-004
,,,3.65000000e-009,-5.74218791e-004
,,,3.67500000e-009,-6.00000042e-004
,,,3.70000000e-009,-6.10937543e-004
,,,3.72500000e-009,-6.07031293e-004
,,,3.75000000e-009,-5.90625042e-004
,,,3.77500000e-009,-5.62500040e-004
,,,3.80000000e-009,-5.26562537e-004
,,,3.82500000e-009,-4.85156284e-004
,,,3.85000000e-009,-4.41406281e-004
,,,3.87500000e-009,-4.00000028e-004
,,,3.90000000e-009,-3.63281276e-004
,,,3.92500000e-009,-3.35156274e-004
,,,3.95000000e-009,-3.17187522e-004
,,,3.97500000e-009,-3.11718772e-004
,,,4.00000000e-009,-3.17968773e-004
,,,4.02500000e-009,-3.35156274e-004
,,,4.05000000e-009,-3.63281276e-004
,,,4.07500000e-009,-4.00000028e-004
,,,4.10000000e-009,-4.41406281e-004
,,,4.12500000e-009,-4.84375034e-004
,,,4.15000000e-009,-5.25000037e-004
,,,4.17500000e-009,-5.60156290e-004
,,,4.20000000e-009,-5.87500042e-004
,,,4.22500000e-009,-6.03906293e-004
,,,4.25000000e-009,-6.07812543e-004
,,,4.27500000e-009,-6.00000042e-004
,,,4.30000000e-009,-5.76562541e-004
,,,4.32500000e-009,-5.45312539e-004
,,,4.35000000e-009,-5.09375036e-004
,,,4.37500000e-009,-4.73437534e-004
,,,4.40000000e-009,-4.40625031e-004
,,,4.42500000e-009,-4.15625029e-004
,,,4.45000000e-009,-4.01562528e-004
,,,4.47500000e-009,-4.00000028e-004
,,,4.50000000e-009,-4.09375029e-004
,,,4.52500000e-009,-4.30468780e-004
,,,4.55000000e-009,-4.60156283e-004
,,,4.57500000e-009,-4.95312535e-004
,,,4.60000000e-009,-5.30468788e-004
,,,4.62500000e-009,-5.62500040e-004
,,,4.65000000e-009,-5.86718792e-004
,,,4.67500000e-009,-6.00000042e-004
,,,4.70000000e-009,-5.96093792e-004
,,,4.72500000e-009,-5.80468791e-004
,,,4.75000000e-009,-5.53906289e-004
,,,4.77500000e-009,-5.21093787e-004
,,,4.80000000e-009,-4.85156284e-004
,,,4.82500000e-009,-4.50000032e-004
,,,4.85000000e-009,-4.21093780e-004
,,,4.87500000e-009,-4.00000028e-004
,,,4.90000000e-009,-3.84375027e-004
,,,4.92500000e-009,-3.77343777e-004
,,,4.95000000e-009,-3.78906277e-004
,,,4.97500000e-009,-3.85156277e-004
,,,5.00000000e-009,-3.93750028e-004
,,,5.02500000e-009,-4.00781278e-004
,,,5.05000000e-009,-4.03125029e-004
,,,5.07500000e-009,-4.00000028e-004
,,,5.10000000e-009,-3.85156277e-004
,,,5.12500000e-009,-3.63281276e-004
,,,5.15000000e-009,-3.35156274e-004
,,,5.17500000e-009,-3.03125021e-004
,,,5.20000000e-009,-2.70312519e-004
,,,5.22500000e-009,-2.40625017e-004
,,,5.25000000e-009,-2.16406265e-004
,,,5.27500000e-009,-2.00000014e-004
,,,5.30000000e-009,-1.90625013e-004
,,,5.32500000e-009,-1.89062513e-004
,,,5.35000000e-009,-1.92968764e-004
,,,5.37500000e-009,-1.99218764e-004
,,,5.40000000e-009,-2.07031265e-004
,,,5.42500000e-009,-2.10937515e-004
,,,5.45000000e-009,-2.09375015e-004
,,,5.47500000e-009,-2.00000014e-004
,,,5.50000000e-009,-1.77343763e-004
,,,5.52500000e-009,-1.43750010e-004
,,,5.55000000e-009,-1.00000007e-004
,,,5.57500000e-009,-4.76562534e-005
,,,5.60000000e-009,1.09375008e-005
,,,5.62500000e-009,7.42187553e-005
,,,5.65000000e-009,1.38281260e-004
,,,5.67500000e-009,2.00000014e-004
,,,5.70000000e-009,2.53125018e-004
,,,5.72500000e-009,2.99218771e-004
,,,5.75000000e-009,3.38281274e-004
,,,5.77500000e-009,3.67968776e-004
,,,5.80000000e-009,3.88281277e-004
,,,5.82500000e-009,4.00781278e-004
,,,5.85000000e-009,4.03906279e-004
,,,5.87500000e-009,4.00000028e-004
,,,5.90000000e-009,3.82812527e-004
,,,5.92500000e-009,3.61718776e-004
,,,5.95000000e-009,3.36718774e-004
,,,5.97500000e-009,3.08593772e-004
,,,6.00000000e-009,2.80468770e-004
