RawData/SinglePhotoelectron/R7_2pt2B_5mV/wave030_Ch2.csv

"Record Length",1000,"Points",-7.72500000e-009,1.69531262e-004
"Sample Interval",2.50000000e-011,s,-7.70000000e-009,1.45312510e-004
"Trigger Point",309,"Samples",-7.67500000e-009,1.15625008e-004
"Trigger Time",4.57555556e-012,s,-7.65000000e-009,8.43750060e-005
"",,,-7.62500000e-009,5.31250038e-005
"Horizontal Offset",-7.72500000e-009,s,-7.60000000e-009,2.42187517e-005
,,,-7.57500000e-009,0.00000000e+000
,,,-7.55000000e-009,-1.71875012e-005
,,,-7.52500000e-009,-2.81250020e-005
,,,-7.50000000e-009,-3.20312523e-005
,,,-7.47500000e-009,-3.12500022e-005
,,,-7.45000000e-009,-2.57812518e-005
,,,-7.42500000e-009,-1.79687513e-005
,,,-7.40000000e-009,-8.59375061e-006
,,,-7.37500000e-009,0.00000000e+000
,,,-7.35000000e-009,7.81250055e-006
,,,-7.32500000e-009,1.32812509e-005
,,,-7.30000000e-009,1.56250011e-005
,,,-7.27500000e-009,1.48437511e-005
,,,-7.25000000e-009,1.25000009e-005
,,,-7.22500000e-009,8.59375061e-006
,,,-7.20000000e-009,3.90625028e-006
,,,-7.17500000e-009,0.00000000e+000
,,,-7.15000000e-009,-1.56250011e-006
,,,-7.12500000e-009,-3.12500022e-006
,,,-7.10000000e-009,-3.90625028e-006
,,,-7.07500000e-009,-3.90625028e-006
,,,-7.05000000e-009,-3.12500022e-006
,,,-7.02500000e-009,-2.34375017e-006
,,,-7.00000000e-009,-7.81250055e-007
,,,-6.97500000e-009,0.00000000e+000
,,,-6.95000000e-009,1.56250011e-006
,,,-6.92500000e-009,2.34375017e-006
,,,-6.90000000e-009,3.12500022e-006
,,,-6.87500000e-009,3.12500022e-006
,,,-6.85000000e-009,2.34375017e-006
,,,-6.82500000e-009,1.56250011e-006
,,,-6.80000000e-009,7.81250055e-007
,,,-6.77500000e-009,0.00000000e+000
,,,-6.75000000e-009,0.00000000e+000
,,,-6.72500000e-009,0.00000000e+000
,,,-6.70000000e-009,0.00000000e+000
,,,-6.67500000e-009,0.00000000e+000
,,,-6.65000000e-009,0.00000000e+000
,,,-6.62500000e-009,0.00000000e+000
,,,-6.60000000e-009,0.00000000e+000
,,,-6.57500000e-009,0.00000000e+000
,,,-6.55000000e-009,0.00000000e+000
,,,-6.52500000e-009,0.00000000e+000
,,,-6.50000000e-009,0.00000000e+000
,,,-6.47500000e-009,0.00000000e+000
,,,-6.45000000e-009,0.00000000e+000
,,,-6.42500000e-009,0.00000000e+000
,,,-6.40000000e-009,0.00000000e+000
,,,-6.37500000e-009,0.00000000e+000
,,,-6.35000000e-009,0.00000000e+000
,,,-6.32500000e-009,0.00000000e+000
,,,-6.30000000e-009,0.00000000e+000
,,,-6.27500000e-009,0.00000000e+000
,,,-6.25000000e-009,0.00000000e+000
,,,-6.22500000e-009,0.00000000e+000
,,,-6.20000000e-009,0.00000000e+000
,,,-6.17500000e-009,0.00000000e+000
,,,-6.15000000e-009,-7.81250055e-007
,,,-6.12500000e-009,-1.56250011e-006
,,,-6.10000000e-009,-2.34375017e-006
,,,-6.07500000e-009,-3.12500022e-006
,,,-6.05000000e-009,-3.12500022e-006
,,,-6.02500000e-009,-2.34375017e-006
,,,-6.00000000e-009,-1.56250011e-006
,,,-5.97500000e-009,0.00000000e+000
,,,-5.95000000e-009,1.56250011e-006
,,,-5.92500000e-009,3.90625028e-006
,,,-5.90000000e-009,6.25000044e-006
,,,-5.87500000e-009,7.03125050e-006
,,,-5.85000000e-009,7.03125050e-006
,,,-5.82500000e-009,6.25000044e-006
,,,-5.80000000e-009,3.90625028e-006
,,,-5.77500000e-009,0.00000000e+000
,,,-5.75000000e-009,-4.68750033e-006
,,,-5.72500000e-009,-9.37500066e-006
,,,-5.70000000e-009,-1.32812509e-005
,,,-5.67500000e-009,-1.56250011e-005
,,,-5.65000000e-009,-1.64062512e-005
,,,-5.62500000e-009,-1.32812509e-005
,,,-5.60000000e-009,-7.81250055e-006
,,,-5.57500000e-009,0.00000000e+000
,,,-5.55000000e-009,1.09375008e-005
,,,-5.52500000e-009,2.18750015e-005
,,,-5.50000000e-009,3.20312523e-005
,,,-5.47500000e-009,3.90625028e-005
,,,-5.45000000e-009,3.98437528e-005
,,,-5.42500000e-009,3.43750024e-005
,,,-5.40000000e-009,2.10937515e-005
,,,-5.37500000e-009,0.00000000e+000
,,,-5.35000000e-009,-2.73437519e-005
,,,-5.32500000e-009,-5.93750042e-005
,,,-5.30000000e-009,-9.37500066e-005
,,,-5.27500000e-009,-1.27343759e-004
,,,-5.25000000e-009,-1.57812511e-004
,,,-5.22500000e-009,-1.81250013e-004
,,,-5.20000000e-009,-1.95312514e-004
,,,-5.17500000e-009,-2.00000014e-004
,,,-5.15000000e-009,-1.90625013e-004
,,,-5.12500000e-009,-1.72656262e-004
,,,-5.10000000e-009,-1.46093760e-004
,,,-5.07500000e-009,-1.14843758e-004
,,,-5.05000000e-009,-8.12500058e-005
,,,-5.02500000e-009,-4.92187535e-005
,,,-5.00000000e-009,-2.18750015e-005
,,,-4.97500000e-009,0.00000000e+000
,,,-4.95000000e-009,1.40625010e-005
,,,-4.92500000e-009,2.03125014e-005
,,,-4.90000000e-009,2.03125014e-005
,,,-4.87500000e-009,1.56250011e-005
,,,-4.85000000e-009,8.59375061e-006
,,,-4.82500000e-009,2.34375017e-006
,,,-4.80000000e-009,-7.81250055e-007
,,,-4.77500000e-009,0.00000000e+000
,,,-4.75000000e-009,7.81250055e-006
,,,-4.72500000e-009,2.26562516e-005
,,,-4.70000000e-009,4.37500031e-005
,,,-4.67500000e-009,7.10937550e-005
,,,-4.65000000e-009,1.02343757e-004
,,,-4.62500000e-009,1.35937510e-004
,,,-4.60000000e-009,1.68750012e-004
,,,-4.57500000e-009,2.00000014e-004
,,,-4.55000000e-009,2.25000016e-004
,,,-4.52500000e-009,2.43750017e-004
,,,-4.50000000e-009,2.54687518e-004
,,,-4.47500000e-009,2.58593768e-004
,,,-4.45000000e-009,2.53906268e-004
,,,-4.42500000e-009,2.42187517e-004
,,,-4.40000000e-009,2.23437516e-004
,,,-4.37500000e-009,2.00000014e-004
,,,-4.35000000e-009,1.71093762e-004
,,,-4.32500000e-009,1.39843760e-004
,,,-4.30000000e-009,1.09375008e-004
,,,-4.27500000e-009,7.96875056e-005
,,,-4.25000000e-009,5.31250038e-005
,,,-4.22500000e-009,3.04687522e-005
,,,-4.20000000e-009,1.25000009e-005
,,,-4.17500000e-009,0.00000000e+000
,,,-4.15000000e-009,-7.81250055e-006
,,,-4.12500000e-009,-1.09375008e-005
,,,-4.10000000e-009,-1.01562507e-005
,,,-4.07500000e-009,-7.03125050e-006
,,,-4.05000000e-009,-3.12500022e-006
,,,-4.02500000e-009,0.00000000e+000
,,,-4.00000000e-009,7.81250055e-007
,,,-3.97500000e-009,0.00000000e+000
,,,-3.95000000e-009,-1.56250011e-006
,,,-3.92500000e-009,-5.46875039e-006
,,,-3.90000000e-009,-1.09375008e-005
,,,-3.87500000e-009,-1.48437511e-005
,,,-3.85000000e-009,-1.71875012e-005
,,,-3.82500000e-009,-1.64062512e-005
,,,-3.80000000e-009,-1.09375008e-005
,,,-3.77500000e-009,0.00000000e+000
,,,-3.75000000e-009,1.79687513e-005
,,,-3.72500000e-009,4.14062529e-005
,,,-3.70000000e-009,6.95312549e-005
,,,-3.67500000e-009,9.84375070e-005
,,,-3.65000000e-009,1.28125009e-004
,,,-3.62500000e-009,1.56250011e-004
,,,-3.60000000e-009,1.80468763e-004
,,,-3.57500000e-009,2.00000014e-004
,,,-3.55000000e-009,2.14062515e-004
,,,-3.52500000e-009,2.21875016e-004
,,,-3.50000000e-009,2.24218766e-004
,,,-3.47500000e-009,2.22656266e-004
,,,-3.45000000e-009,2.17968765e-004
,,,-3.42500000e-009,2.11718765e-004
,,,-3.40000000e-009,2.04687514e-004
,,,-3.37500000e-009,2.00000014e-004
,,,-3.35000000e-009,1.96093764e-004
,,,-3.32500000e-009,1.94531264e-004
,,,-3.30000000e-009,1.94531264e-004
,,,-3.27500000e-009,1.96093764e-004
,,,-3.25000000e-009,1.98437514e-004
,,,-3.22500000e-009,2.00000014e-004
,,,-3.20000000e-009,2.00781264e-004
,,,-3.17500000e-009,2.00000014e-004
,,,-3.15000000e-009,1.96093764e-004
,,,-3.12500000e-009,1.92187514e-004
,,,-3.10000000e-009,1.87500013e-004
,,,-3.07500000e-009,1.84375013e-004
,,,-3.05000000e-009,1.82812513e-004
,,,-3.02500000e-009,1.84375013e-004
,,,-3.00000000e-009,1.89062513e-004
,,,-2.97500000e-009,2.00000014e-004
,,,-2.95000000e-009,2.13281265e-004
,,,-2.92500000e-009,2.31250016e-004
,,,-2.90000000e-009,2.53906268e-004
,,,-2.87500000e-009,2.80468770e-004
,,,-2.85000000e-009,3.10156272e-004
,,,-2.82500000e-009,3.40625024e-004
,,,-2.80000000e-009,3.71093776e-004
,,,-2.77500000e-009,4.00000028e-004
,,,-2.75000000e-009,4.21875030e-004
,,,-2.72500000e-009,4.39062531e-004
,,,-2.70000000e-009,4.50781282e-004
,,,-2.67500000e-009,4.54687532e-004
,,,-2.65000000e-009,4.52343782e-004
,,,-2.62500000e-009,4.41406281e-004
,,,-2.60000000e-009,4.23437530e-004
,,,-2.57500000e-009,4.00000028e-004
,,,-2.55000000e-009,3.67968776e-004
,,,-2.52500000e-009,3.34375024e-004
,,,-2.50000000e-009,3.00000021e-004
,,,-2.47500000e-009,2.67968769e-004
,,,-2.45000000e-009,2.40625017e-004
,,,-2.42500000e-009,2.19531266e-004
,,,-2.40000000e-009,2.05468765e-004
,,,-2.37500000e-009,2.00000014e-004
,,,-2.35000000e-009,2.00781264e-004
,,,-2.32500000e-009,2.06250015e-004
,,,-2.30000000e-009,2.14843765e-004
,,,-2.27500000e-009,2.23437516e-004
,,,-2.25000000e-009,2.28125016e-004
,,,-2.22500000e-009,2.27343766e-004
,,,-2.20000000e-009,2.17968765e-004
,,,-2.17500000e-009,2.00000014e-004
,,,-2.15000000e-009,1.71875012e-004
,,,-2.12500000e-009,1.38281260e-004
,,,-2.10000000e-009,1.00781257e-004
,,,-2.07500000e-009,6.48437546e-005
,,,-2.05000000e-009,3.28125023e-005
,,,-2.02500000e-009,1.01562507e-005
,,,-2.00000000e-009,-7.81250055e-007
,,,-1.97500000e-009,0.00000000e+000
,,,-1.95000000e-009,1.48437511e-005
,,,-1.92500000e-009,4.14062529e-005
,,,-1.90000000e-009,7.50000053e-005
,,,-1.87500000e-009,1.11718758e-004
,,,-1.85000000e-009,1.46875010e-004
,,,-1.82500000e-009,1.75781262e-004
,,,-1.80000000e-009,1.93750014e-004
,,,-1.77500000e-009,2.00000014e-004
,,,-1.75000000e-009,1.90625013e-004
,,,-1.72500000e-009,1.67968762e-004
,,,-1.70000000e-009,1.36718760e-004
,,,-1.67500000e-009,1.00000007e-004
,,,-1.65000000e-009,6.25000044e-005
,,,-1.62500000e-009,3.12500022e-005
,,,-1.60000000e-009,8.59375061e-006
,,,-1.57500000e-009,0.00000000e+000
,,,-1.55000000e-009,2.34375017e-006
,,,-1.52500000e-009,1.79687513e-005
,,,-1.50000000e-009,4.37500031e-005
,,,-1.47500000e-009,7.73437555e-005
,,,-1.45000000e-009,1.14062508e-004
,,,-1.42500000e-009,1.49218761e-004
,,,-1.40000000e-009,1.78906263e-004
,,,-1.37500000e-009,2.00000014e-004
,,,-1.35000000e-009,2.00000014e-004
,,,-1.32500000e-009,1.87500013e-004
,,,-1.30000000e-009,1.62500012e-004
,,,-1.27500000e-009,1.30468759e-004
,,,-1.25000000e-009,9.37500066e-005
,,,-1.22500000e-009,5.70312540e-005
,,,-1.20000000e-009,2.50000018e-005
,,,-1.17500000e-009,0.00000000e+000
,,,-1.15000000e-009,-3.04687522e-005
,,,-1.12500000e-009,-5.31250038e-005
,,,-1.10000000e-009,-6.64062547e-005
,,,-1.07500000e-009,-6.87500049e-005
,,,-1.05000000e-009,-6.17187544e-005
,,,-1.02500000e-009,-4.60937533e-005
,,,-1.00000000e-009,-2.42187517e-005
,,,-9.75000000e-010,0.00000000e+000
,,,-9.50000000e-010,-7.81250055e-007
,,,-9.25000000e-010,-8.59375061e-006
,,,-9.00000000e-010,-2.50000018e-005
,,,-8.75000000e-010,-4.84375034e-005
,,,-8.50000000e-010,-7.89062556e-005
,,,-8.25000000e-010,-1.14843758e-004
,,,-8.00000000e-010,-1.55468761e-004
,,,-7.75000000e-010,-2.00000014e-004
,,,-7.50000000e-010,-2.73437519e-004
,,,-7.25000000e-010,-3.53125025e-004
,,,-7.00000000e-010,-4.36718781e-004
,,,-6.75000000e-010,-5.19531287e-004
,,,-6.50000000e-010,-5.98437542e-004
,,,-6.25000000e-010,-6.71875048e-004
,,,-6.00000000e-010,-7.39062552e-004
,,,-5.75000000e-010,-8.00000057e-004
,,,-5.50000000e-010,-8.80468812e-004
,,,-5.25000000e-010,-9.63281318e-004
,,,-5.00000000e-010,-1.05078132e-003
,,,-4.75000000e-010,-1.14218758e-003
,,,-4.50000000e-010,-1.24140634e-003
,,,-4.25000000e-010,-1.34843760e-003
,,,-4.00000000e-010,-1.46718760e-003
,,,-3.75000000e-010,-1.60000011e-003
,,,-3.50000000e-010,-1.76093762e-003
,,,-3.25000000e-010,-1.94375014e-003
,,,-3.00000000e-010,-2.14687515e-003
,,,-2.75000000e-010,-2.37031267e-003
,,,-2.50000000e-010,-2.61093768e-003
,,,-2.25000000e-010,-2.86484395e-003
,,,-2.00000000e-010,-3.12968772e-003
,,,-1.75000000e-010,-3.40000024e-003
,,,-1.50000000e-010,-3.66562526e-003
,,,-1.25000000e-010,-3.92812528e-003
,,,-1.00000000e-010,-4.18359405e-003
,,,-7.50000000e-011,-4.42656281e-003
,,,-5.00000000e-011,-4.65234408e-003
,,,-2.50000000e-011,-4.85781284e-003
,,,0.00000000e+000,-5.04062536e-003
,,,2.50000000e-011,-5.20000037e-003
,,,5.00000000e-011,-5.31562538e-003
,,,7.50000000e-011,-5.41640663e-003
,,,1.00000000e-010,-5.50937539e-003
,,,1.25000000e-010,-5.59843790e-003
,,,1.50000000e-010,-5.68906290e-003
,,,1.75000000e-010,-5.78515666e-003
,,,2.00000000e-010,-5.88828167e-003
,,,2.25000000e-010,-6.00000042e-003
,,,2.50000000e-010,-6.08671918e-003
,,,2.75000000e-010,-6.18203169e-003
,,,3.00000000e-010,-6.28046919e-003
,,,3.25000000e-010,-6.37656295e-003
,,,3.50000000e-010,-6.46406296e-003
,,,3.75000000e-010,-6.53515671e-003
,,,4.00000000e-010,-6.58203172e-003
,,,4.25000000e-010,-6.60000047e-003
,,,4.50000000e-010,-6.54843796e-003
,,,4.75000000e-010,-6.47187546e-003
,,,5.00000000e-010,-6.37421920e-003
,,,5.25000000e-010,-6.26250044e-003
,,,5.50000000e-010,-6.14218793e-003
,,,5.75000000e-010,-6.02109418e-003
,,,6.00000000e-010,-5.90546917e-003
,,,6.25000000e-010,-5.80000041e-003
,,,6.50000000e-010,-5.67890665e-003
,,,6.75000000e-010,-5.57890664e-003
,,,7.00000000e-010,-5.50312539e-003
,,,7.25000000e-010,-5.45000039e-003
,,,7.50000000e-010,-5.41718788e-003
,,,7.75000000e-010,-5.40078163e-003
,,,8.00000000e-010,-5.39687538e-003
,,,8.25000000e-010,-5.40000038e-003
,,,8.50000000e-010,-5.38125038e-003
,,,8.75000000e-010,-5.36250038e-003
,,,9.00000000e-010,-5.34140663e-003
,,,9.25000000e-010,-5.31718788e-003
,,,9.50000000e-010,-5.29140662e-003
,,,9.75000000e-010,-5.26328162e-003
,,,1.00000000e-009,-5.23281287e-003
,,,1.02500000e-009,-5.20000037e-003
,,,1.05000000e-009,-5.14453161e-003
,,,1.07500000e-009,-5.08359411e-003
,,,1.10000000e-009,-5.01562536e-003
,,,1.12500000e-009,-4.94296910e-003
,,,1.15000000e-009,-4.86484409e-003
,,,1.17500000e-009,-4.78125034e-003
,,,1.20000000e-009,-4.69296908e-003
,,,1.22500000e-009,-4.60000033e-003
,,,1.25000000e-009,-4.48984407e-003
,,,1.27500000e-009,-4.37187531e-003
,,,1.30000000e-009,-4.24765655e-003
,,,1.32500000e-009,-4.11796904e-003
,,,1.35000000e-009,-3.98671903e-003
,,,1.37500000e-009,-3.85468777e-003
,,,1.40000000e-009,-3.72500026e-003
,,,1.42500000e-009,-3.60000025e-003
,,,1.45000000e-009,-3.47734400e-003
,,,1.47500000e-009,-3.35859399e-003
,,,1.50000000e-009,-3.24453148e-003
,,,1.52500000e-009,-3.13671897e-003
,,,1.55000000e-009,-3.03750021e-003
,,,1.57500000e-009,-2.94765646e-003
,,,1.60000000e-009,-2.86875020e-003
,,,1.62500000e-009,-2.80000020e-003
,,,1.65000000e-009,-2.73828144e-003
,,,1.67500000e-009,-2.67812519e-003
,,,1.70000000e-009,-2.61562519e-003
,,,1.72500000e-009,-2.54765643e-003
,,,1.75000000e-009,-2.47343768e-003
,,,1.77500000e-009,-2.39062517e-003
,,,1.80000000e-009,-2.29921891e-003
,,,1.82500000e-009,-2.20000016e-003
,,,1.85000000e-009,-2.09687515e-003
,,,1.87500000e-009,-1.98671889e-003
,,,1.90000000e-009,-1.87187513e-003
,,,1.92500000e-009,-1.75703137e-003
,,,1.95000000e-009,-1.64843762e-003
,,,1.97500000e-009,-1.55000011e-003
,,,2.00000000e-009,-1.46562510e-003
,,,2.02500000e-009,-1.40000010e-003
,,,2.05000000e-009,-1.36171885e-003
,,,2.07500000e-009,-1.33593759e-003
,,,2.10000000e-009,-1.31796884e-003
,,,2.12500000e-009,-1.30312509e-003
,,,2.15000000e-009,-1.28750009e-003
,,,2.17500000e-009,-1.26796884e-003
,,,2.20000000e-009,-1.23906259e-003
,,,2.22500000e-009,-1.20000008e-003
,,,2.25000000e-009,-1.15703133e-003
,,,2.27500000e-009,-1.09843758e-003
,,,2.30000000e-009,-1.02500007e-003
,,,2.32500000e-009,-9.40625067e-004
,,,2.35000000e-009,-8.50781310e-004
,,,2.37500000e-009,-7.60937554e-004
,,,2.40000000e-009,-6.75781298e-004
,,,2.42500000e-009,-6.00000042e-004
,,,2.45000000e-009,-5.46875039e-004
,,,2.47500000e-009,-5.05468786e-004
,,,2.50000000e-009,-4.73437534e-004
,,,2.52500000e-009,-4.49218782e-004
,,,2.55000000e-009,-4.32031281e-004
,,,2.57500000e-009,-4.19531280e-004
,,,2.60000000e-009,-4.09375029e-004
,,,2.62500000e-009,-4.00000028e-004
,,,2.65000000e-009,-3.98437528e-004
,,,2.67500000e-009,-3.94531278e-004
,,,2.70000000e-009,-3.88281277e-004
,,,2.72500000e-009,-3.82031277e-004
,,,2.75000000e-009,-3.77343777e-004
,,,2.77500000e-009,-3.77343777e-004
,,,2.80000000e-009,-3.84375027e-004
,,,2.82500000e-009,-4.00000028e-004
,,,2.85000000e-009,-4.28906280e-004
,,,2.87500000e-009,-4.61718783e-004
,,,2.90000000e-009,-4.96875035e-004
,,,2.92500000e-009,-5.30468788e-004
,,,2.95000000e-009,-5.60156290e-004
,,,2.97500000e-009,-5.82812541e-004
,,,3.00000000e-009,-5.96093792e-004
,,,3.02500000e-009,-6.00000042e-004
,,,3.05000000e-009,-5.92187542e-004
,,,3.07500000e-009,-5.74218791e-004
,,,3.10000000e-009,-5.46875039e-004
,,,3.12500000e-009,-5.14062536e-004
,,,3.15000000e-009,-4.79687534e-004
,,,3.17500000e-009,-4.46875032e-004
,,,3.20000000e-009,-4.19531280e-004
,,,3.22500000e-009,-4.00000028e-004
,,,3.25000000e-009,-3.89843778e-004
,,,3.27500000e-009,-3.86718777e-004
,,,3.30000000e-009,-3.89062528e-004
,,,3.32500000e-009,-3.95312528e-004
,,,3.35000000e-009,-4.01562528e-004
,,,3.37500000e-009,-4.06250029e-004
,,,3.40000000e-009,-4.06250029e-004
,,,3.42500000e-009,-4.00000028e-004
,,,3.45000000e-009,-3.85156277e-004
,,,3.47500000e-009,-3.62500026e-004
,,,3.50000000e-009,-3.35156274e-004
,,,3.52500000e-009,-3.03906272e-004
,,,3.55000000e-009,-2.71875019e-004
,,,3.57500000e-009,-2.42187517e-004
,,,3.60000000e-009,-2.17968765e-004
,,,3.62500000e-009,-2.00000014e-004
,,,3.65000000e-009,-1.89062513e-004
,,,3.67500000e-009,-1.85156263e-004
,,,3.70000000e-009,-1.86718763e-004
,,,3.72500000e-009,-1.92187514e-004
,,,3.75000000e-009,-1.98437514e-004
,,,3.77500000e-009,-2.03125014e-004
,,,3.80000000e-009,-2.04687514e-004
,,,3.82500000e-009,-2.00000014e-004
,,,3.85000000e-009,-1.86718763e-004
,,,3.87500000e-009,-1.67187512e-004
,,,3.90000000e-009,-1.41406260e-004
,,,3.92500000e-009,-1.11718758e-004
,,,3.95000000e-009,-8.04687557e-005
,,,3.97500000e-009,-4.92187535e-005
,,,4.00000000e-009,-2.18750015e-005
,,,4.02500000e-009,0.00000000e+000
,,,4.05000000e-009,1.48437511e-005
,,,4.07500000e-009,2.42187517e-005
,,,4.10000000e-009,2.81250020e-005
,,,4.12500000e-009,2.65625019e-005
,,,4.15000000e-009,2.18750015e-005
,,,4.17500000e-009,1.48437511e-005
,,,4.20000000e-009,7.03125050e-006
,,,4.22500000e-009,0.00000000e+000
,,,4.25000000e-009,-7.03125050e-006
,,,4.27500000e-009,-1.25000009e-005
,,,4.30000000e-009,-1.40625010e-005
,,,4.32500000e-009,-1.40625010e-005
,,,4.35000000e-009,-1.17187508e-005
,,,4.37500000e-009,-7.81250055e-006
,,,4.40000000e-009,-3.90625028e-006
,,,4.42500000e-009,0.00000000e+000
,,,4.45000000e-009,7.81250055e-007
,,,4.47500000e-009,1.56250011e-006
,,,4.50000000e-009,1.56250011e-006
,,,4.52500000e-009,7.81250055e-007
,,,4.55000000e-009,0.00000000e+000
,,,4.57500000e-009,-1.56250011e-006
,,,4.60000000e-009,-1.56250011e-006
,,,4.62500000e-009,0.00000000e+000
,,,4.65000000e-009,3.90625028e-006
,,,4.67500000e-009,1.25000009e-005
,,,4.70000000e-009,2.73437519e-005
,,,4.72500000e-009,4.84375034e-005
,,,4.75000000e-009,7.65625054e-005
,,,4.77500000e-009,1.11718758e-004
,,,4.80000000e-009,1.53125011e-004
,,,4.82500000e-009,2.00000014e-004
,,,4.85000000e-009,2.46093767e-004
,,,4.87500000e-009,2.92187521e-004
,,,4.90000000e-009,3.35156274e-004
,,,4.92500000e-009,3.71093776e-004
,,,4.95000000e-009,3.97656278e-004
,,,4.97500000e-009,4.12500029e-004
,,,5.00000000e-009,4.14062529e-004
,,,5.02500000e-009,4.00000028e-004
,,,5.05000000e-009,3.67968776e-004
,,,5.07500000e-009,3.23437523e-004
,,,5.10000000e-009,2.70312519e-004
,,,5.12500000e-009,2.11718765e-004
,,,5.15000000e-009,1.51562511e-004
,,,5.17500000e-009,9.37500066e-005
,,,5.20000000e-009,4.21875030e-005
,,,5.22500000e-009,0.00000000e+000
,,,5.25000000e-009,-3.04687522e-005
,,,5.27500000e-009,-5.00000035e-005
,,,5.30000000e-009,-5.70312540e-005
,,,5.32500000e-009,-5.54687539e-005
,,,5.35000000e-009,-4.53125032e-005
,,,5.37500000e-009,-3.12500022e-005
,,,5.40000000e-009,-1.48437511e-005
,,,5.42500000e-009,0.00000000e+000
,,,5.45000000e-009,1.25000009e-005
,,,5.47500000e-009,2.10937515e-005
,,,5.50000000e-009,2.50000018e-005
,,,5.52500000e-009,2.42187517e-005
,,,5.55000000e-009,2.03125014e-005
,,,5.57500000e-009,1.40625010e-005
,,,5.60000000e-009,7.03125050e-006
,,,5.62500000e-009,0.00000000e+000
,,,5.65000000e-009,-6.25000044e-006
,,,5.67500000e-009,-1.17187508e-005
,,,5.70000000e-009,-1.48437511e-005
,,,5.72500000e-009,-1.48437511e-005
,,,5.75000000e-009,-1.32812509e-005
,,,5.77500000e-009,-9.37500066e-006
,,,5.80000000e-009,-4.68750033e-006
,,,5.82500000e-009,0.00000000e+000
,,,5.85000000e-009,4.68750033e-006
,,,5.87500000e-009,7.81250055e-006
,,,5.90000000e-009,1.01562507e-005
,,,5.92500000e-009,1.09375008e-005
,,,5.95000000e-009,9.37500066e-006
,,,5.97500000e-009,7.03125050e-006
,,,6.00000000e-009,3.90625028e-006
