RawData/SinglePhotoelectron/R7_2pt2B_5mV/wave020_Ch2.csv

"Record Length",1000,"Points",-7.72500000e-009,-2.00000014e-004
"Sample Interval",2.50000000e-011,s,-7.70000000e-009,-2.17187515e-004
"Trigger Point",309,"Samples",-7.67500000e-009,-2.28906266e-004
"Trigger Time",1.14210554e-011,s,-7.65000000e-009,-2.35156267e-004
"",,,-7.62500000e-009,-2.36718767e-004
"Horizontal Offset",-7.72500000e-009,s,-7.60000000e-009,-2.32031266e-004
,,,-7.57500000e-009,-2.24218766e-004
,,,-7.55000000e-009,-2.12500015e-004
,,,-7.52500000e-009,-2.00000014e-004
,,,-7.50000000e-009,-1.84375013e-004
,,,-7.47500000e-009,-1.71093762e-004
,,,-7.45000000e-009,-1.60937511e-004
,,,-7.42500000e-009,-1.56250011e-004
,,,-7.40000000e-009,-1.57031261e-004
,,,-7.37500000e-009,-1.64062512e-004
,,,-7.35000000e-009,-1.78906263e-004
,,,-7.32500000e-009,-2.00000014e-004
,,,-7.30000000e-009,-2.24218766e-004
,,,-7.27500000e-009,-2.53125018e-004
,,,-7.25000000e-009,-2.84375020e-004
,,,-7.22500000e-009,-3.15625022e-004
,,,-7.20000000e-009,-3.44531274e-004
,,,-7.17500000e-009,-3.69531276e-004
,,,-7.15000000e-009,-3.88281277e-004
,,,-7.12500000e-009,-4.00000028e-004
,,,-7.10000000e-009,-3.99218778e-004
,,,-7.07500000e-009,-3.89843778e-004
,,,-7.05000000e-009,-3.72656276e-004
,,,-7.02500000e-009,-3.47656275e-004
,,,-7.00000000e-009,-3.15625022e-004
,,,-6.97500000e-009,-2.79687520e-004
,,,-6.95000000e-009,-2.40625017e-004
,,,-6.92500000e-009,-2.00000014e-004
,,,-6.90000000e-009,-1.58593761e-004
,,,-6.87500000e-009,-1.21093759e-004
,,,-6.85000000e-009,-8.75000062e-005
,,,-6.82500000e-009,-5.93750042e-005
,,,-6.80000000e-009,-3.67187526e-005
,,,-6.77500000e-009,-1.87500013e-005
,,,-6.75000000e-009,-7.03125050e-006
,,,-6.72500000e-009,0.00000000e+000
,,,-6.70000000e-009,1.56250011e-006
,,,-6.67500000e-009,0.00000000e+000
,,,-6.65000000e-009,-1.56250011e-006
,,,-6.62500000e-009,-3.90625028e-006
,,,-6.60000000e-009,-6.25000044e-006
,,,-6.57500000e-009,-6.25000044e-006
,,,-6.55000000e-009,-3.90625028e-006
,,,-6.52500000e-009,0.00000000e+000
,,,-6.50000000e-009,3.90625028e-006
,,,-6.47500000e-009,9.37500066e-006
,,,-6.45000000e-009,1.48437511e-005
,,,-6.42500000e-009,1.87500013e-005
,,,-6.40000000e-009,2.10937515e-005
,,,-6.37500000e-009,1.87500013e-005
,,,-6.35000000e-009,1.17187508e-005
,,,-6.32500000e-009,0.00000000e+000
,,,-6.30000000e-009,-1.95312514e-005
,,,-6.27500000e-009,-4.45312532e-005
,,,-6.25000000e-009,-7.26562551e-005
,,,-6.22500000e-009,-1.02343757e-004
,,,-6.20000000e-009,-1.31250009e-004
,,,-6.17500000e-009,-1.58593761e-004
,,,-6.15000000e-009,-1.81250013e-004
,,,-6.12500000e-009,-2.00000014e-004
,,,-6.10000000e-009,-2.11718765e-004
,,,-6.07500000e-009,-2.17968765e-004
,,,-6.05000000e-009,-2.18750015e-004
,,,-6.02500000e-009,-2.15625015e-004
,,,-6.00000000e-009,-2.10937515e-004
,,,-5.97500000e-009,-2.05468765e-004
,,,-5.95000000e-009,-2.01562514e-004
,,,-5.92500000e-009,-2.00000014e-004
,,,-5.90000000e-009,-1.99218764e-004
,,,-5.87500000e-009,-2.01562514e-004
,,,-5.85000000e-009,-2.04687514e-004
,,,-5.82500000e-009,-2.07812515e-004
,,,-5.80000000e-009,-2.10156265e-004
,,,-5.77500000e-009,-2.10156265e-004
,,,-5.75000000e-009,-2.06250015e-004
,,,-5.72500000e-009,-2.00000014e-004
,,,-5.70000000e-009,-1.89062513e-004
,,,-5.67500000e-009,-1.77343763e-004
,,,-5.65000000e-009,-1.67187512e-004
,,,-5.62500000e-009,-1.59375011e-004
,,,-5.60000000e-009,-1.57031261e-004
,,,-5.57500000e-009,-1.62500012e-004
,,,-5.55000000e-009,-1.76562512e-004
,,,-5.52500000e-009,-2.00000014e-004
,,,-5.50000000e-009,-2.28906266e-004
,,,-5.47500000e-009,-2.63281269e-004
,,,-5.45000000e-009,-3.00000021e-004
,,,-5.42500000e-009,-3.35937524e-004
,,,-5.40000000e-009,-3.67968776e-004
,,,-5.37500000e-009,-3.90625028e-004
,,,-5.35000000e-009,-4.02343778e-004
,,,-5.32500000e-009,-4.00000028e-004
,,,-5.30000000e-009,-3.78906277e-004
,,,-5.27500000e-009,-3.43750024e-004
,,,-5.25000000e-009,-2.96093771e-004
,,,-5.22500000e-009,-2.39843767e-004
,,,-5.20000000e-009,-1.78125013e-004
,,,-5.17500000e-009,-1.14843758e-004
,,,-5.15000000e-009,-5.39062538e-005
,,,-5.12500000e-009,0.00000000e+000
,,,-5.10000000e-009,4.21875030e-005
,,,-5.07500000e-009,7.18750051e-005
,,,-5.05000000e-009,8.82812562e-005
,,,-5.02500000e-009,9.21875065e-005
,,,-5.00000000e-009,8.28125059e-005
,,,-4.97500000e-009,6.25000044e-005
,,,-4.95000000e-009,3.43750024e-005
,,,-4.92500000e-009,0.00000000e+000
,,,-4.90000000e-009,-3.90625028e-005
,,,-4.87500000e-009,-7.89062556e-005
,,,-4.85000000e-009,-1.15625008e-004
,,,-4.82500000e-009,-1.47656260e-004
,,,-4.80000000e-009,-1.72656262e-004
,,,-4.77500000e-009,-1.90625013e-004
,,,-4.75000000e-009,-1.99218764e-004
,,,-4.72500000e-009,-2.00000014e-004
,,,-4.70000000e-009,-1.90625013e-004
,,,-4.67500000e-009,-1.74218762e-004
,,,-4.65000000e-009,-1.51562511e-004
,,,-4.62500000e-009,-1.23437509e-004
,,,-4.60000000e-009,-9.21875065e-005
,,,-4.57500000e-009,-6.01562543e-005
,,,-4.55000000e-009,-2.89062520e-005
,,,-4.52500000e-009,0.00000000e+000
,,,-4.50000000e-009,2.26562516e-005
,,,-4.47500000e-009,3.90625028e-005
,,,-4.45000000e-009,4.92187535e-005
,,,-4.42500000e-009,5.23437537e-005
,,,-4.40000000e-009,4.84375034e-005
,,,-4.37500000e-009,3.82812527e-005
,,,-4.35000000e-009,2.10937515e-005
,,,-4.32500000e-009,0.00000000e+000
,,,-4.30000000e-009,-2.89062520e-005
,,,-4.27500000e-009,-5.93750042e-005
,,,-4.25000000e-009,-8.98437564e-005
,,,-4.22500000e-009,-1.19531258e-004
,,,-4.20000000e-009,-1.46093760e-004
,,,-4.17500000e-009,-1.68750012e-004
,,,-4.15000000e-009,-1.86718763e-004
,,,-4.12500000e-009,-2.00000014e-004
,,,-4.10000000e-009,-2.08593765e-004
,,,-4.07500000e-009,-2.14062515e-004
,,,-4.05000000e-009,-2.15625015e-004
,,,-4.02500000e-009,-2.14843765e-004
,,,-4.00000000e-009,-2.11718765e-004
,,,-3.97500000e-009,-2.07812515e-004
,,,-3.95000000e-009,-2.03906264e-004
,,,-3.92500000e-009,-2.00000014e-004
,,,-3.90000000e-009,-1.96875014e-004
,,,-3.87500000e-009,-1.94531264e-004
,,,-3.85000000e-009,-1.94531264e-004
,,,-3.82500000e-009,-1.95312514e-004
,,,-3.80000000e-009,-1.96875014e-004
,,,-3.77500000e-009,-1.98437514e-004
,,,-3.75000000e-009,-1.99218764e-004
,,,-3.72500000e-009,-2.00000014e-004
,,,-3.70000000e-009,-2.00000014e-004
,,,-3.67500000e-009,-1.99218764e-004
,,,-3.65000000e-009,-1.97656264e-004
,,,-3.62500000e-009,-1.96093764e-004
,,,-3.60000000e-009,-1.94531264e-004
,,,-3.57500000e-009,-1.94531264e-004
,,,-3.55000000e-009,-1.95312514e-004
,,,-3.52500000e-009,-2.00000014e-004
,,,-3.50000000e-009,-2.07031265e-004
,,,-3.47500000e-009,-2.19531266e-004
,,,-3.45000000e-009,-2.37500017e-004
,,,-3.42500000e-009,-2.60156268e-004
,,,-3.40000000e-009,-2.88281270e-004
,,,-3.37500000e-009,-3.21875023e-004
,,,-3.35000000e-009,-3.59375025e-004
,,,-3.32500000e-009,-4.00000028e-004
,,,-3.30000000e-009,-4.39062531e-004
,,,-3.27500000e-009,-4.78906284e-004
,,,-3.25000000e-009,-5.14843786e-004
,,,-3.22500000e-009,-5.47656289e-004
,,,-3.20000000e-009,-5.73437541e-004
,,,-3.17500000e-009,-5.91406292e-004
,,,-3.15000000e-009,-6.00000042e-004
,,,-3.12500000e-009,-6.00000042e-004
,,,-3.10000000e-009,-5.86718792e-004
,,,-3.07500000e-009,-5.65625040e-004
,,,-3.05000000e-009,-5.38281288e-004
,,,-3.02500000e-009,-5.07812536e-004
,,,-3.00000000e-009,-4.76562534e-004
,,,-2.97500000e-009,-4.46875032e-004
,,,-2.95000000e-009,-4.20312530e-004
,,,-2.92500000e-009,-4.00000028e-004
,,,-2.90000000e-009,-3.83593777e-004
,,,-2.87500000e-009,-3.73437526e-004
,,,-2.85000000e-009,-3.70312526e-004
,,,-2.82500000e-009,-3.71875026e-004
,,,-2.80000000e-009,-3.77343777e-004
,,,-2.77500000e-009,-3.85156277e-004
,,,-2.75000000e-009,-3.92968778e-004
,,,-2.72500000e-009,-4.00000028e-004
,,,-2.70000000e-009,-4.03906279e-004
,,,-2.67500000e-009,-4.05468779e-004
,,,-2.65000000e-009,-4.05468779e-004
,,,-2.62500000e-009,-4.03906279e-004
,,,-2.60000000e-009,-4.01562528e-004
,,,-2.57500000e-009,-4.00000028e-004
,,,-2.55000000e-009,-3.99218778e-004
,,,-2.52500000e-009,-4.00000028e-004
,,,-2.50000000e-009,-4.00781278e-004
,,,-2.47500000e-009,-4.03906279e-004
,,,-2.45000000e-009,-4.07812529e-004
,,,-2.42500000e-009,-4.11718779e-004
,,,-2.40000000e-009,-4.14062529e-004
,,,-2.37500000e-009,-4.13281279e-004
,,,-2.35000000e-009,-4.08593779e-004
,,,-2.32500000e-009,-4.00000028e-004
,,,-2.30000000e-009,-3.84375027e-004
,,,-2.27500000e-009,-3.64062526e-004
,,,-2.25000000e-009,-3.39062524e-004
,,,-2.22500000e-009,-3.11718772e-004
,,,-2.20000000e-009,-2.82031270e-004
,,,-2.17500000e-009,-2.52343768e-004
,,,-2.15000000e-009,-2.24218766e-004
,,,-2.12500000e-009,-2.00000014e-004
,,,-2.10000000e-009,-1.82812513e-004
,,,-2.07500000e-009,-1.71093762e-004
,,,-2.05000000e-009,-1.64062512e-004
,,,-2.02500000e-009,-1.63281262e-004
,,,-2.00000000e-009,-1.66406262e-004
,,,-1.97500000e-009,-1.74218762e-004
,,,-1.95000000e-009,-1.85156263e-004
,,,-1.92500000e-009,-2.00000014e-004
,,,-1.90000000e-009,-2.18750015e-004
,,,-1.87500000e-009,-2.39843767e-004
,,,-1.85000000e-009,-2.62500019e-004
,,,-1.82500000e-009,-2.87500020e-004
,,,-1.80000000e-009,-3.14062522e-004
,,,-1.77500000e-009,-3.42187524e-004
,,,-1.75000000e-009,-3.71093776e-004
,,,-1.72500000e-009,-4.00000028e-004
,,,-1.70000000e-009,-4.26562530e-004
,,,-1.67500000e-009,-4.50000032e-004
,,,-1.65000000e-009,-4.66406283e-004
,,,-1.62500000e-009,-4.75000034e-004
,,,-1.60000000e-009,-4.72656283e-004
,,,-1.57500000e-009,-4.59375033e-004
,,,-1.55000000e-009,-4.35156281e-004
,,,-1.52500000e-009,-4.00000028e-004
,,,-1.50000000e-009,-3.61718776e-004
,,,-1.47500000e-009,-3.19531273e-004
,,,-1.45000000e-009,-2.78125020e-004
,,,-1.42500000e-009,-2.40625017e-004
,,,-1.40000000e-009,-2.10937515e-004
,,,-1.37500000e-009,-1.92968764e-004
,,,-1.35000000e-009,-1.88281263e-004
,,,-1.32500000e-009,-2.00000014e-004
,,,-1.30000000e-009,-2.38281267e-004
,,,-1.27500000e-009,-2.91406271e-004
,,,-1.25000000e-009,-3.53125025e-004
,,,-1.22500000e-009,-4.19531280e-004
,,,-1.20000000e-009,-4.82031284e-004
,,,-1.17500000e-009,-5.36718788e-004
,,,-1.15000000e-009,-5.76562541e-004
,,,-1.12500000e-009,-6.00000042e-004
,,,-1.10000000e-009,-6.17187544e-004
,,,-1.07500000e-009,-6.17968794e-004
,,,-1.05000000e-009,-6.03125043e-004
,,,-1.02500000e-009,-5.75000041e-004
,,,-1.00000000e-009,-5.36718788e-004
,,,-9.75000000e-010,-4.91406285e-004
,,,-9.50000000e-010,-4.44531281e-004
,,,-9.25000000e-010,-4.00000028e-004
,,,-9.00000000e-010,-3.88281277e-004
,,,-8.75000000e-010,-3.91406278e-004
,,,-8.50000000e-010,-4.08593779e-004
,,,-8.25000000e-010,-4.35937531e-004
,,,-8.00000000e-010,-4.71875033e-004
,,,-7.75000000e-010,-5.11718786e-004
,,,-7.50000000e-010,-5.54687539e-004
,,,-7.25000000e-010,-6.00000042e-004
,,,-7.00000000e-010,-6.78125048e-004
,,,-6.75000000e-010,-7.64062554e-004
,,,-6.50000000e-010,-8.55468811e-004
,,,-6.25000000e-010,-9.53125067e-004
,,,-6.00000000e-010,-1.05703132e-003
,,,-5.75000000e-010,-1.16562508e-003
,,,-5.50000000e-010,-1.27968759e-003
,,,-5.25000000e-010,-1.40000010e-003
,,,-5.00000000e-010,-1.55234386e-003
,,,-4.75000000e-010,-1.71328137e-003
,,,-4.50000000e-010,-1.87812513e-003
,,,-4.25000000e-010,-2.04140639e-003
,,,-4.00000000e-010,-2.19843766e-003
,,,-3.75000000e-010,-2.34531267e-003
,,,-3.50000000e-010,-2.47890643e-003
,,,-3.25000000e-010,-2.60000018e-003
,,,-3.00000000e-010,-2.72500019e-003
,,,-2.75000000e-010,-2.84843770e-003
,,,-2.50000000e-010,-2.97421896e-003
,,,-2.25000000e-010,-3.10781272e-003
,,,-2.00000000e-010,-3.25312523e-003
,,,-1.75000000e-010,-3.41484399e-003
,,,-1.50000000e-010,-3.59609400e-003
,,,-1.25000000e-010,-3.80000027e-003
,,,-1.00000000e-010,-4.02968779e-003
,,,-7.50000000e-011,-4.28515655e-003
,,,-5.00000000e-011,-4.56093782e-003
,,,-2.50000000e-011,-4.85078159e-003
,,,0.00000000e+000,-5.14687536e-003
,,,2.50000000e-011,-5.44218789e-003
,,,5.00000000e-011,-5.72890666e-003
,,,7.50000000e-011,-6.00000042e-003
,,,1.00000000e-010,-6.22890669e-003
,,,1.25000000e-010,-6.43984421e-003
,,,1.50000000e-010,-6.63281297e-003
,,,1.75000000e-010,-6.80937548e-003
,,,2.00000000e-010,-6.97265674e-003
,,,2.25000000e-010,-7.12421925e-003
,,,2.50000000e-010,-7.26640676e-003
,,,2.75000000e-010,-7.40000052e-003
,,,3.00000000e-010,-7.48750053e-003
,,,3.25000000e-010,-7.57343804e-003
,,,3.50000000e-010,-7.65781304e-003
,,,3.75000000e-010,-7.73984430e-003
,,,4.00000000e-010,-7.81875055e-003
,,,4.25000000e-010,-7.89062556e-003
,,,4.50000000e-010,-7.95156306e-003
,,,4.75000000e-010,-8.00000057e-003
,,,5.00000000e-010,-7.98984432e-003
,,,5.25000000e-010,-7.96953181e-003
,,,5.50000000e-010,-7.94296931e-003
,,,5.75000000e-010,-7.91250056e-003
,,,6.00000000e-010,-7.88203181e-003
,,,6.25000000e-010,-7.85234431e-003
,,,6.50000000e-010,-7.82421930e-003
,,,6.75000000e-010,-7.80000055e-003
,,,7.00000000e-010,-7.73671930e-003
,,,7.25000000e-010,-7.67968804e-003
,,,7.50000000e-010,-7.62812554e-003
,,,7.75000000e-010,-7.58281304e-003
,,,8.00000000e-010,-7.53984428e-003
,,,8.25000000e-010,-7.49765678e-003
,,,8.50000000e-010,-7.45234428e-003
,,,8.75000000e-010,-7.40000052e-003
,,,9.00000000e-010,-7.30312552e-003
,,,9.25000000e-010,-7.19687551e-003
,,,9.50000000e-010,-7.08203175e-003
,,,9.75000000e-010,-6.95781299e-003
,,,1.00000000e-009,-6.82734423e-003
,,,1.02500000e-009,-6.68984422e-003
,,,1.05000000e-009,-6.54687546e-003
,,,1.07500000e-009,-6.40000045e-003
,,,1.10000000e-009,-6.23203169e-003
,,,1.12500000e-009,-6.06406293e-003
,,,1.15000000e-009,-5.89843792e-003
,,,1.17500000e-009,-5.73906291e-003
,,,1.20000000e-009,-5.58750040e-003
,,,1.22500000e-009,-5.44687539e-003
,,,1.25000000e-009,-5.31718788e-003
,,,1.27500000e-009,-5.20000037e-003
,,,1.30000000e-009,-5.08828161e-003
,,,1.32500000e-009,-4.98281285e-003
,,,1.35000000e-009,-4.88203160e-003
,,,1.37500000e-009,-4.78437534e-003
,,,1.40000000e-009,-4.68828158e-003
,,,1.42500000e-009,-4.59296908e-003
,,,1.45000000e-009,-4.49687532e-003
,,,1.47500000e-009,-4.40000031e-003
,,,1.50000000e-009,-4.30468780e-003
,,,1.52500000e-009,-4.20390655e-003
,,,1.55000000e-009,-4.09843779e-003
,,,1.57500000e-009,-3.99062528e-003
,,,1.60000000e-009,-3.88359402e-003
,,,1.62500000e-009,-3.78125027e-003
,,,1.65000000e-009,-3.68515651e-003
,,,1.67500000e-009,-3.60000025e-003
,,,1.70000000e-009,-3.53359400e-003
,,,1.72500000e-009,-3.47343775e-003
,,,1.75000000e-009,-3.41875024e-003
,,,1.77500000e-009,-3.36796899e-003
,,,1.80000000e-009,-3.32187524e-003
,,,1.82500000e-009,-3.27890648e-003
,,,1.85000000e-009,-3.23828148e-003
,,,1.87500000e-009,-3.20000023e-003
,,,1.90000000e-009,-3.16953147e-003
,,,1.92500000e-009,-3.13203147e-003
,,,1.95000000e-009,-3.08750022e-003
,,,1.97500000e-009,-3.03671896e-003
,,,2.00000000e-009,-2.98046896e-003
,,,2.02500000e-009,-2.92031271e-003
,,,2.05000000e-009,-2.85937520e-003
,,,2.07500000e-009,-2.80000020e-003
,,,2.10000000e-009,-2.75000019e-003
,,,2.12500000e-009,-2.69843769e-003
,,,2.15000000e-009,-2.64609394e-003
,,,2.17500000e-009,-2.59296893e-003
,,,2.20000000e-009,-2.54062518e-003
,,,2.22500000e-009,-2.49062518e-003
,,,2.25000000e-009,-2.44296892e-003
,,,2.27500000e-009,-2.40000017e-003
,,,2.30000000e-009,-2.36718767e-003
,,,2.32500000e-009,-2.33515642e-003
,,,2.35000000e-009,-2.30546891e-003
,,,2.37500000e-009,-2.27734391e-003
,,,2.40000000e-009,-2.25234391e-003
,,,2.42500000e-009,-2.23125016e-003
,,,2.45000000e-009,-2.21328141e-003
,,,2.47500000e-009,-2.20000016e-003
,,,2.50000000e-009,-2.19062516e-003
,,,2.52500000e-009,-2.17968765e-003
,,,2.55000000e-009,-2.16406265e-003
,,,2.57500000e-009,-2.14296890e-003
,,,2.60000000e-009,-2.11640640e-003
,,,2.62500000e-009,-2.08359390e-003
,,,2.65000000e-009,-2.04453139e-003
,,,2.67500000e-009,-2.00000014e-003
,,,2.70000000e-009,-1.95156264e-003
,,,2.72500000e-009,-1.89765638e-003
,,,2.75000000e-009,-1.84062513e-003
,,,2.77500000e-009,-1.78281263e-003
,,,2.80000000e-009,-1.72656262e-003
,,,2.82500000e-009,-1.67656262e-003
,,,2.85000000e-009,-1.63359387e-003
,,,2.87500000e-009,-1.60000011e-003
,,,2.90000000e-009,-1.57968761e-003
,,,2.92500000e-009,-1.56796886e-003
,,,2.95000000e-009,-1.56406261e-003
,,,2.97500000e-009,-1.56640636e-003
,,,3.00000000e-009,-1.57265636e-003
,,,3.02500000e-009,-1.58203136e-003
,,,3.05000000e-009,-1.59140636e-003
,,,3.07500000e-009,-1.60000011e-003
,,,3.10000000e-009,-1.60468761e-003
,,,3.12500000e-009,-1.60078136e-003
,,,3.15000000e-009,-1.58906261e-003
,,,3.17500000e-009,-1.56718761e-003
,,,3.20000000e-009,-1.53671886e-003
,,,3.22500000e-009,-1.49765636e-003
,,,3.25000000e-009,-1.45156260e-003
,,,3.27500000e-009,-1.40000010e-003
,,,3.30000000e-009,-1.34531260e-003
,,,3.32500000e-009,-1.28906259e-003
,,,3.35000000e-009,-1.23125009e-003
,,,3.37500000e-009,-1.17500008e-003
,,,3.40000000e-009,-1.12187508e-003
,,,3.42500000e-009,-1.07421883e-003
,,,3.45000000e-009,-1.03281257e-003
,,,3.47500000e-009,-1.00000007e-003
,,,3.50000000e-009,-9.78125069e-004
,,,3.52500000e-009,-9.63281318e-004
,,,3.55000000e-009,-9.56250068e-004
,,,3.57500000e-009,-9.55468818e-004
,,,3.60000000e-009,-9.60156318e-004
,,,3.62500000e-009,-9.70312569e-004
,,,3.65000000e-009,-9.83593820e-004
,,,3.67500000e-009,-1.00000007e-003
,,,3.70000000e-009,-1.01640632e-003
,,,3.72500000e-009,-1.03046882e-003
,,,3.75000000e-009,-1.04062507e-003
,,,3.77500000e-009,-1.04453132e-003
,,,3.80000000e-009,-1.04218757e-003
,,,3.82500000e-009,-1.03359382e-003
,,,3.85000000e-009,-1.01953132e-003
,,,3.87500000e-009,-1.00000007e-003
,,,3.90000000e-009,-9.74218819e-004
,,,3.92500000e-009,-9.45312567e-004
,,,3.95000000e-009,-9.14062565e-004
,,,3.97500000e-009,-8.83593813e-004
,,,4.00000000e-009,-8.54687560e-004
,,,4.02500000e-009,-8.30468809e-004
,,,4.05000000e-009,-8.11718807e-004
,,,4.07500000e-009,-8.00000057e-004
,,,4.10000000e-009,-7.93750056e-004
,,,4.12500000e-009,-7.92968806e-004
,,,4.15000000e-009,-7.94531306e-004
,,,4.17500000e-009,-7.98437557e-004
,,,4.20000000e-009,-8.02343807e-004
,,,4.22500000e-009,-8.04687557e-004
,,,4.25000000e-009,-8.04687557e-004
,,,4.27500000e-009,-8.00000057e-004
,,,4.30000000e-009,-7.87500056e-004
,,,4.32500000e-009,-7.68750054e-004
,,,4.35000000e-009,-7.44531303e-004
,,,4.37500000e-009,-7.16406301e-004
,,,4.40000000e-009,-6.86718799e-004
,,,4.42500000e-009,-6.55468796e-004
,,,4.45000000e-009,-6.26562544e-004
,,,4.47500000e-009,-6.00000042e-004
,,,4.50000000e-009,-5.72656291e-004
,,,4.52500000e-009,-5.46875039e-004
,,,4.55000000e-009,-5.23437537e-004
,,,4.57500000e-009,-5.00781285e-004
,,,4.60000000e-009,-4.77343784e-004
,,,4.62500000e-009,-4.53125032e-004
,,,4.65000000e-009,-4.27343780e-004
,,,4.67500000e-009,-4.00000028e-004
,,,4.70000000e-009,-3.69531276e-004
,,,4.72500000e-009,-3.37500024e-004
,,,4.75000000e-009,-3.05468772e-004
,,,4.77500000e-009,-2.75000019e-004
,,,4.80000000e-009,-2.46875017e-004
,,,4.82500000e-009,-2.25000016e-004
,,,4.85000000e-009,-2.08593765e-004
,,,4.87500000e-009,-2.00000014e-004
,,,4.90000000e-009,-1.98437514e-004
,,,4.92500000e-009,-2.02343764e-004
,,,4.95000000e-009,-2.08593765e-004
,,,4.97500000e-009,-2.14843765e-004
,,,5.00000000e-009,-2.19531266e-004
,,,5.02500000e-009,-2.20312516e-004
,,,5.05000000e-009,-2.14062515e-004
,,,5.07500000e-009,-2.00000014e-004
,,,5.10000000e-009,-1.76562512e-004
,,,5.12500000e-009,-1.42187510e-004
,,,5.15000000e-009,-9.84375070e-005
,,,5.17500000e-009,-4.68750033e-005
,,,5.20000000e-009,1.09375008e-005
,,,5.22500000e-009,7.34375052e-005
,,,5.25000000e-009,1.37500010e-004
,,,5.27500000e-009,2.00000014e-004
,,,5.30000000e-009,2.52343768e-004
,,,5.32500000e-009,2.99218771e-004
,,,5.35000000e-009,3.38281274e-004
,,,5.37500000e-009,3.68750026e-004
,,,5.40000000e-009,3.89843778e-004
,,,5.42500000e-009,4.02343778e-004
,,,5.45000000e-009,4.05468779e-004
,,,5.47500000e-009,4.00000028e-004
,,,5.50000000e-009,3.79687527e-004
,,,5.52500000e-009,3.54687525e-004
,,,5.55000000e-009,3.26562523e-004
,,,5.57500000e-009,2.96875021e-004
,,,5.60000000e-009,2.67968769e-004
,,,5.62500000e-009,2.41406267e-004
,,,5.65000000e-009,2.17968765e-004
,,,5.67500000e-009,2.00000014e-004
,,,5.70000000e-009,1.81250013e-004
,,,5.72500000e-009,1.67968762e-004
,,,5.75000000e-009,1.61718761e-004
,,,5.77500000e-009,1.60937511e-004
,,,5.80000000e-009,1.65625012e-004
,,,5.82500000e-009,1.74218762e-004
,,,5.85000000e-009,1.85937513e-004
