RawData/SinglePhotoelectron/R7_2pt2B_5mV/wave015_Ch2.csv

"Record Length",1000,"Points",-7.72500000e-009,1.09375008e-005
"Sample Interval",2.50000000e-011,s,-7.70000000e-009,0.00000000e+000
"Trigger Point",309,"Samples",-7.67500000e-009,-8.59375061e-006
"Trigger Time",6.46680851e-012,s,-7.65000000e-009,-1.48437511e-005
"",,,-7.62500000e-009,-1.87500013e-005
"Horizontal Offset",-7.72500000e-009,s,-7.60000000e-009,-2.03125014e-005
,,,-7.57500000e-009,-1.79687513e-005
,,,-7.55000000e-009,-1.40625010e-005
,,,-7.52500000e-009,-7.03125050e-006
,,,-7.50000000e-009,0.00000000e+000
,,,-7.47500000e-009,9.37500066e-006
,,,-7.45000000e-009,1.79687513e-005
,,,-7.42500000e-009,2.42187517e-005
,,,-7.40000000e-009,2.65625019e-005
,,,-7.37500000e-009,2.57812518e-005
,,,-7.35000000e-009,2.10937515e-005
,,,-7.32500000e-009,1.17187508e-005
,,,-7.30000000e-009,0.00000000e+000
,,,-7.27500000e-009,-1.25000009e-005
,,,-7.25000000e-009,-2.57812518e-005
,,,-7.22500000e-009,-3.67187526e-005
,,,-7.20000000e-009,-4.29687530e-005
,,,-7.17500000e-009,-4.37500031e-005
,,,-7.15000000e-009,-3.75000027e-005
,,,-7.12500000e-009,-2.26562516e-005
,,,-7.10000000e-009,0.00000000e+000
,,,-7.07500000e-009,2.96875021e-005
,,,-7.05000000e-009,6.40625045e-005
,,,-7.02500000e-009,1.00781257e-004
,,,-7.00000000e-009,1.35156260e-004
,,,-6.97500000e-009,1.65625012e-004
,,,-6.95000000e-009,1.88281263e-004
,,,-6.92500000e-009,2.00000014e-004
,,,-6.90000000e-009,2.00000014e-004
,,,-6.87500000e-009,1.86718763e-004
,,,-6.85000000e-009,1.64062512e-004
,,,-6.82500000e-009,1.33593759e-004
,,,-6.80000000e-009,1.00000007e-004
,,,-6.77500000e-009,6.56250046e-005
,,,-6.75000000e-009,3.51562525e-005
,,,-6.72500000e-009,1.25000009e-005
,,,-6.70000000e-009,0.00000000e+000
,,,-6.67500000e-009,-7.81250055e-007
,,,-6.65000000e-009,9.37500066e-006
,,,-6.62500000e-009,3.04687522e-005
,,,-6.60000000e-009,6.01562543e-005
,,,-6.57500000e-009,9.53125067e-005
,,,-6.55000000e-009,1.32031259e-004
,,,-6.52500000e-009,1.67968762e-004
,,,-6.50000000e-009,2.00000014e-004
,,,-6.47500000e-009,2.22656266e-004
,,,-6.45000000e-009,2.37500017e-004
,,,-6.42500000e-009,2.44531267e-004
,,,-6.40000000e-009,2.43750017e-004
,,,-6.37500000e-009,2.37500017e-004
,,,-6.35000000e-009,2.26562516e-004
,,,-6.32500000e-009,2.13281265e-004
,,,-6.30000000e-009,2.00000014e-004
,,,-6.27500000e-009,1.86718763e-004
,,,-6.25000000e-009,1.77343763e-004
,,,-6.22500000e-009,1.72656262e-004
,,,-6.20000000e-009,1.71093762e-004
,,,-6.17500000e-009,1.74218762e-004
,,,-6.15000000e-009,1.80468763e-004
,,,-6.12500000e-009,1.89843763e-004
,,,-6.10000000e-009,2.00000014e-004
,,,-6.07500000e-009,2.07031265e-004
,,,-6.05000000e-009,2.13281265e-004
,,,-6.02500000e-009,2.17968765e-004
,,,-6.00000000e-009,2.20312516e-004
,,,-5.97500000e-009,2.19531266e-004
,,,-5.95000000e-009,2.16406265e-004
,,,-5.92500000e-009,2.09375015e-004
,,,-5.90000000e-009,2.00000014e-004
,,,-5.87500000e-009,1.84375013e-004
,,,-5.85000000e-009,1.64843762e-004
,,,-5.82500000e-009,1.42187510e-004
,,,-5.80000000e-009,1.16406258e-004
,,,-5.77500000e-009,8.82812562e-005
,,,-5.75000000e-009,5.85937541e-005
,,,-5.72500000e-009,2.89062520e-005
,,,-5.70000000e-009,0.00000000e+000
,,,-5.67500000e-009,-2.65625019e-005
,,,-5.65000000e-009,-4.92187535e-005
,,,-5.62500000e-009,-6.40625045e-005
,,,-5.60000000e-009,-7.10937550e-005
,,,-5.57500000e-009,-6.87500049e-005
,,,-5.55000000e-009,-5.54687539e-005
,,,-5.52500000e-009,-3.20312523e-005
,,,-5.50000000e-009,0.00000000e+000
,,,-5.47500000e-009,3.98437528e-005
,,,-5.45000000e-009,8.28125059e-005
,,,-5.42500000e-009,1.25000009e-004
,,,-5.40000000e-009,1.62500012e-004
,,,-5.37500000e-009,1.92187514e-004
,,,-5.35000000e-009,2.09375015e-004
,,,-5.32500000e-009,2.12500015e-004
,,,-5.30000000e-009,2.00000014e-004
,,,-5.27500000e-009,1.70312512e-004
,,,-5.25000000e-009,1.28125009e-004
,,,-5.22500000e-009,7.42187553e-005
,,,-5.20000000e-009,1.48437511e-005
,,,-5.17500000e-009,-4.60937533e-005
,,,-5.15000000e-009,-1.04687507e-004
,,,-5.12500000e-009,-1.57031261e-004
,,,-5.10000000e-009,-2.00000014e-004
,,,-5.07500000e-009,-2.29687516e-004
,,,-5.05000000e-009,-2.46875017e-004
,,,-5.02500000e-009,-2.53906268e-004
,,,-5.00000000e-009,-2.50781268e-004
,,,-4.97500000e-009,-2.41406267e-004
,,,-4.95000000e-009,-2.27343766e-004
,,,-4.92500000e-009,-2.12500015e-004
,,,-4.90000000e-009,-2.00000014e-004
,,,-4.87500000e-009,-1.88281263e-004
,,,-4.85000000e-009,-1.82031263e-004
,,,-4.82500000e-009,-1.80468763e-004
,,,-4.80000000e-009,-1.83593763e-004
,,,-4.77500000e-009,-1.88281263e-004
,,,-4.75000000e-009,-1.94531264e-004
,,,-4.72500000e-009,-1.99218764e-004
,,,-4.70000000e-009,-2.00000014e-004
,,,-4.67500000e-009,-1.94531264e-004
,,,-4.65000000e-009,-1.82812513e-004
,,,-4.62500000e-009,-1.64843762e-004
,,,-4.60000000e-009,-1.39843760e-004
,,,-4.57500000e-009,-1.09375008e-004
,,,-4.55000000e-009,-7.42187553e-005
,,,-4.52500000e-009,-3.75000027e-005
,,,-4.50000000e-009,0.00000000e+000
,,,-4.47500000e-009,3.43750024e-005
,,,-4.45000000e-009,6.32812545e-005
,,,-4.42500000e-009,8.35937559e-005
,,,-4.40000000e-009,9.37500066e-005
,,,-4.37500000e-009,9.06250064e-005
,,,-4.35000000e-009,7.34375052e-005
,,,-4.32500000e-009,4.29687530e-005
,,,-4.30000000e-009,0.00000000e+000
,,,-4.27500000e-009,-5.31250038e-005
,,,-4.25000000e-009,-1.13281258e-004
,,,-4.22500000e-009,-1.77343763e-004
,,,-4.20000000e-009,-2.39843767e-004
,,,-4.17500000e-009,-2.96875021e-004
,,,-4.15000000e-009,-3.44531274e-004
,,,-4.12500000e-009,-3.79687527e-004
,,,-4.10000000e-009,-4.00000028e-004
,,,-4.07500000e-009,-4.00781278e-004
,,,-4.05000000e-009,-3.86718777e-004
,,,-4.02500000e-009,-3.60937526e-004
,,,-4.00000000e-009,-3.27343773e-004
,,,-3.97500000e-009,-2.90625021e-004
,,,-3.95000000e-009,-2.54687518e-004
,,,-3.92500000e-009,-2.23437516e-004
,,,-3.90000000e-009,-2.00000014e-004
,,,-3.87500000e-009,-1.84375013e-004
,,,-3.85000000e-009,-1.78125013e-004
,,,-3.82500000e-009,-1.79687513e-004
,,,-3.80000000e-009,-1.86718763e-004
,,,-3.77500000e-009,-1.95312514e-004
,,,-3.75000000e-009,-2.02343764e-004
,,,-3.72500000e-009,-2.04687514e-004
,,,-3.70000000e-009,-2.00000014e-004
,,,-3.67500000e-009,-1.85937513e-004
,,,-3.65000000e-009,-1.64062512e-004
,,,-3.62500000e-009,-1.35937510e-004
,,,-3.60000000e-009,-1.03906257e-004
,,,-3.57500000e-009,-7.10937550e-005
,,,-3.55000000e-009,-4.14062529e-005
,,,-3.52500000e-009,-1.71875012e-005
,,,-3.50000000e-009,0.00000000e+000
,,,-3.47500000e-009,9.37500066e-006
,,,-3.45000000e-009,1.25000009e-005
,,,-3.42500000e-009,8.59375061e-006
,,,-3.40000000e-009,2.34375017e-006
,,,-3.37500000e-009,-4.68750033e-006
,,,-3.35000000e-009,-8.59375061e-006
,,,-3.32500000e-009,-7.81250055e-006
,,,-3.30000000e-009,0.00000000e+000
,,,-3.27500000e-009,1.64062512e-005
,,,-3.25000000e-009,4.14062529e-005
,,,-3.22500000e-009,7.10937550e-005
,,,-3.20000000e-009,1.03906257e-004
,,,-3.17500000e-009,1.35937510e-004
,,,-3.15000000e-009,1.64843762e-004
,,,-3.12500000e-009,1.86718763e-004
,,,-3.10000000e-009,2.00000014e-004
,,,-3.07500000e-009,1.99218764e-004
,,,-3.05000000e-009,1.88281263e-004
,,,-3.02500000e-009,1.67968762e-004
,,,-3.00000000e-009,1.39843760e-004
,,,-2.97500000e-009,1.06250008e-004
,,,-2.95000000e-009,6.95312549e-005
,,,-2.92500000e-009,3.35937524e-005
,,,-2.90000000e-009,0.00000000e+000
,,,-2.87500000e-009,-2.89062520e-005
,,,-2.85000000e-009,-5.00000035e-005
,,,-2.82500000e-009,-6.25000044e-005
,,,-2.80000000e-009,-6.64062547e-005
,,,-2.77500000e-009,-6.09375043e-005
,,,-2.75000000e-009,-4.68750033e-005
,,,-2.72500000e-009,-2.57812518e-005
,,,-2.70000000e-009,0.00000000e+000
,,,-2.67500000e-009,2.96875021e-005
,,,-2.65000000e-009,6.17187544e-005
,,,-2.62500000e-009,9.37500066e-005
,,,-2.60000000e-009,1.23437509e-004
,,,-2.57500000e-009,1.50000011e-004
,,,-2.55000000e-009,1.71875012e-004
,,,-2.52500000e-009,1.88281263e-004
,,,-2.50000000e-009,2.00000014e-004
,,,-2.47500000e-009,2.04687514e-004
,,,-2.45000000e-009,2.05468765e-004
,,,-2.42500000e-009,2.03125014e-004
,,,-2.40000000e-009,1.99218764e-004
,,,-2.37500000e-009,1.96093764e-004
,,,-2.35000000e-009,1.94531264e-004
,,,-2.32500000e-009,1.96093764e-004
,,,-2.30000000e-009,2.00000014e-004
,,,-2.27500000e-009,2.04687514e-004
,,,-2.25000000e-009,2.10937515e-004
,,,-2.22500000e-009,2.17968765e-004
,,,-2.20000000e-009,2.23437516e-004
,,,-2.17500000e-009,2.25781266e-004
,,,-2.15000000e-009,2.23437516e-004
,,,-2.12500000e-009,2.14843765e-004
,,,-2.10000000e-009,2.00000014e-004
,,,-2.07500000e-009,1.76562512e-004
,,,-2.05000000e-009,1.48437511e-004
,,,-2.02500000e-009,1.16406258e-004
,,,-2.00000000e-009,8.43750060e-005
,,,-1.97500000e-009,5.39062538e-005
,,,-1.95000000e-009,2.81250020e-005
,,,-1.92500000e-009,9.37500066e-006
,,,-1.90000000e-009,0.00000000e+000
,,,-1.87500000e-009,0.00000000e+000
,,,-1.85000000e-009,9.37500066e-006
,,,-1.82500000e-009,2.96875021e-005
,,,-1.80000000e-009,5.70312540e-005
,,,-1.77500000e-009,9.06250064e-005
,,,-1.75000000e-009,1.27343759e-004
,,,-1.72500000e-009,1.64062512e-004
,,,-1.70000000e-009,2.00000014e-004
,,,-1.67500000e-009,2.21875016e-004
,,,-1.65000000e-009,2.35937517e-004
,,,-1.62500000e-009,2.42968767e-004
,,,-1.60000000e-009,2.42968767e-004
,,,-1.57500000e-009,2.37500017e-004
,,,-1.55000000e-009,2.27343766e-004
,,,-1.52500000e-009,2.14843765e-004
,,,-1.50000000e-009,2.00000014e-004
,,,-1.47500000e-009,1.71093762e-004
,,,-1.45000000e-009,1.40625010e-004
,,,-1.42500000e-009,1.09375008e-004
,,,-1.40000000e-009,7.96875056e-005
,,,-1.37500000e-009,5.31250038e-005
,,,-1.35000000e-009,3.04687522e-005
,,,-1.32500000e-009,1.25000009e-005
,,,-1.30000000e-009,0.00000000e+000
,,,-1.27500000e-009,-2.26562516e-005
,,,-1.25000000e-009,-4.29687530e-005
,,,-1.22500000e-009,-5.70312540e-005
,,,-1.20000000e-009,-6.32812545e-005
,,,-1.17500000e-009,-6.09375043e-005
,,,-1.15000000e-009,-4.92187535e-005
,,,-1.12500000e-009,-2.73437519e-005
,,,-1.10000000e-009,0.00000000e+000
,,,-1.07500000e-009,9.37500066e-006
,,,-1.05000000e-009,1.48437511e-005
,,,-1.02500000e-009,1.25000009e-005
,,,-1.00000000e-009,0.00000000e+000
,,,-9.75000000e-010,-2.50000018e-005
,,,-9.50000000e-010,-6.56250046e-005
,,,-9.25000000e-010,-1.23437509e-004
,,,-9.00000000e-010,-2.00000014e-004
,,,-8.75000000e-010,-3.18750023e-004
,,,-8.50000000e-010,-4.57031282e-004
,,,-8.25000000e-010,-6.10156293e-004
,,,-8.00000000e-010,-7.72656305e-004
,,,-7.75000000e-010,-9.38281316e-004
,,,-7.50000000e-010,-1.10078133e-003
,,,-7.25000000e-010,-1.25546884e-003
,,,-7.00000000e-010,-1.40000010e-003
,,,-6.75000000e-010,-1.54375011e-003
,,,-6.50000000e-010,-1.67890637e-003
,,,-6.25000000e-010,-1.80625013e-003
,,,-6.00000000e-010,-1.92734389e-003
,,,-5.75000000e-010,-2.04453139e-003
,,,-5.50000000e-010,-2.16015640e-003
,,,-5.25000000e-010,-2.27812516e-003
,,,-5.00000000e-010,-2.40000017e-003
,,,-4.75000000e-010,-2.53046893e-003
,,,-4.50000000e-010,-2.67031269e-003
,,,-4.25000000e-010,-2.82031270e-003
,,,-4.00000000e-010,-2.97656271e-003
,,,-3.75000000e-010,-3.13593772e-003
,,,-3.50000000e-010,-3.29531273e-003
,,,-3.25000000e-010,-3.45078149e-003
,,,-3.00000000e-010,-3.60000025e-003
,,,-2.75000000e-010,-3.73281276e-003
,,,-2.50000000e-010,-3.86171902e-003
,,,-2.25000000e-010,-3.98671903e-003
,,,-2.00000000e-010,-4.11015654e-003
,,,-1.75000000e-010,-4.23203155e-003
,,,-1.50000000e-010,-4.35390656e-003
,,,-1.25000000e-010,-4.47656282e-003
,,,-1.00000000e-010,-4.60000033e-003
,,,-7.50000000e-011,-4.70468783e-003
,,,-5.00000000e-011,-4.81250034e-003
,,,-2.50000000e-011,-4.92265660e-003
,,,0.00000000e+000,-5.03281286e-003
,,,2.50000000e-011,-5.13906286e-003
,,,5.00000000e-011,-5.23828162e-003
,,,7.50000000e-011,-5.32656288e-003
,,,1.00000000e-010,-5.40000038e-003
,,,1.25000000e-010,-5.42890663e-003
,,,1.50000000e-010,-5.44531289e-003
,,,1.75000000e-010,-5.45156289e-003
,,,2.00000000e-010,-5.45000039e-003
,,,2.25000000e-010,-5.44218789e-003
,,,2.50000000e-010,-5.43046913e-003
,,,2.75000000e-010,-5.41562538e-003
,,,3.00000000e-010,-5.40000038e-003
,,,3.25000000e-010,-5.35703163e-003
,,,3.50000000e-010,-5.31796913e-003
,,,3.75000000e-010,-5.28515662e-003
,,,4.00000000e-010,-5.25859412e-003
,,,4.25000000e-010,-5.23828162e-003
,,,4.50000000e-010,-5.22265662e-003
,,,4.75000000e-010,-5.21015662e-003
,,,5.00000000e-010,-5.20000037e-003
,,,5.25000000e-010,-5.16328162e-003
,,,5.50000000e-010,-5.12812536e-003
,,,5.75000000e-010,-5.09609411e-003
,,,6.00000000e-010,-5.06796911e-003
,,,6.25000000e-010,-5.04375036e-003
,,,6.50000000e-010,-5.02500036e-003
,,,6.75000000e-010,-5.01093785e-003
,,,7.00000000e-010,-5.00000035e-003
,,,7.25000000e-010,-4.96718785e-003
,,,7.50000000e-010,-4.93281285e-003
,,,7.75000000e-010,-4.89531285e-003
,,,8.00000000e-010,-4.85234409e-003
,,,8.25000000e-010,-4.80234409e-003
,,,8.50000000e-010,-4.74453159e-003
,,,8.75000000e-010,-4.67656283e-003
,,,9.00000000e-010,-4.60000033e-003
,,,9.25000000e-010,-4.49687532e-003
,,,9.50000000e-010,-4.38515656e-003
,,,9.75000000e-010,-4.27109405e-003
,,,1.00000000e-009,-4.15703154e-003
,,,1.02500000e-009,-4.05000029e-003
,,,1.05000000e-009,-3.95312528e-003
,,,1.07500000e-009,-3.86953152e-003
,,,1.10000000e-009,-3.80000027e-003
,,,1.12500000e-009,-3.73437526e-003
,,,1.15000000e-009,-3.67421901e-003
,,,1.17500000e-009,-3.61640651e-003
,,,1.20000000e-009,-3.55546900e-003
,,,1.22500000e-009,-3.48750025e-003
,,,1.25000000e-009,-3.40781274e-003
,,,1.27500000e-009,-3.31250023e-003
,,,1.30000000e-009,-3.20000023e-003
,,,1.32500000e-009,-3.06562522e-003
,,,1.35000000e-009,-2.91406271e-003
,,,1.37500000e-009,-2.75000019e-003
,,,1.40000000e-009,-2.58046893e-003
,,,1.42500000e-009,-2.41328142e-003
,,,1.45000000e-009,-2.25625016e-003
,,,1.47500000e-009,-2.11718765e-003
,,,1.50000000e-009,-2.00000014e-003
,,,1.52500000e-009,-1.91093764e-003
,,,1.55000000e-009,-1.84140638e-003
,,,1.57500000e-009,-1.78828138e-003
,,,1.60000000e-009,-1.74687512e-003
,,,1.62500000e-009,-1.71250012e-003
,,,1.65000000e-009,-1.67968762e-003
,,,1.67500000e-009,-1.64375012e-003
,,,1.70000000e-009,-1.60000011e-003
,,,1.72500000e-009,-1.55234386e-003
,,,1.75000000e-009,-1.48984386e-003
,,,1.77500000e-009,-1.41406260e-003
,,,1.80000000e-009,-1.32890634e-003
,,,1.82500000e-009,-1.23906259e-003
,,,1.85000000e-009,-1.15078133e-003
,,,1.87500000e-009,-1.06953133e-003
,,,1.90000000e-009,-1.00000007e-003
,,,1.92500000e-009,-9.53906318e-004
,,,1.95000000e-009,-9.18750065e-004
,,,1.97500000e-009,-8.92187563e-004
,,,2.00000000e-009,-8.72656312e-004
,,,2.02500000e-009,-8.56250061e-004
,,,2.05000000e-009,-8.40625059e-004
,,,2.07500000e-009,-8.22656308e-004
,,,2.10000000e-009,-8.00000057e-004
,,,2.12500000e-009,-7.79687555e-004
,,,2.15000000e-009,-7.47656303e-004
,,,2.17500000e-009,-7.03906300e-004
,,,2.20000000e-009,-6.50781296e-004
,,,2.22500000e-009,-5.90625042e-004
,,,2.25000000e-009,-5.25781287e-004
,,,2.27500000e-009,-4.60937533e-004
,,,2.30000000e-009,-4.00000028e-004
,,,2.32500000e-009,-3.53906275e-004
,,,2.35000000e-009,-3.13281272e-004
,,,2.37500000e-009,-2.78906270e-004
,,,2.40000000e-009,-2.50000018e-004
,,,2.42500000e-009,-2.28125016e-004
,,,2.45000000e-009,-2.13281265e-004
,,,2.47500000e-009,-2.03906264e-004
,,,2.50000000e-009,-2.00000014e-004
,,,2.52500000e-009,-2.07031265e-004
,,,2.55000000e-009,-2.15625015e-004
,,,2.57500000e-009,-2.21875016e-004
,,,2.60000000e-009,-2.25781266e-004
,,,2.62500000e-009,-2.25000016e-004
,,,2.65000000e-009,-2.20312516e-004
,,,2.67500000e-009,-2.11718765e-004
,,,2.70000000e-009,-2.00000014e-004
,,,2.72500000e-009,-1.91406264e-004
,,,2.75000000e-009,-1.80468763e-004
,,,2.77500000e-009,-1.70312512e-004
,,,2.80000000e-009,-1.63281262e-004
,,,2.82500000e-009,-1.60156261e-004
,,,2.85000000e-009,-1.64843762e-004
,,,2.87500000e-009,-1.78125013e-004
,,,2.90000000e-009,-2.00000014e-004
,,,2.92500000e-009,-2.32812516e-004
,,,2.95000000e-009,-2.71093769e-004
,,,2.97500000e-009,-3.09375022e-004
,,,3.00000000e-009,-3.45312524e-004
,,,3.02500000e-009,-3.75781277e-004
,,,3.05000000e-009,-3.96093778e-004
,,,3.07500000e-009,-4.03906279e-004
,,,3.10000000e-009,-4.00000028e-004
,,,3.12500000e-009,-3.82031277e-004
,,,3.15000000e-009,-3.53906275e-004
,,,3.17500000e-009,-3.17968773e-004
,,,3.20000000e-009,-2.79687520e-004
,,,3.22500000e-009,-2.44531267e-004
,,,3.25000000e-009,-2.17187515e-004
,,,3.27500000e-009,-2.01562514e-004
,,,3.30000000e-009,-2.00000014e-004
,,,3.32500000e-009,-2.13281265e-004
,,,3.35000000e-009,-2.39062517e-004
,,,3.37500000e-009,-2.73437519e-004
,,,3.40000000e-009,-3.11718772e-004
,,,3.42500000e-009,-3.47656275e-004
,,,3.45000000e-009,-3.77343777e-004
,,,3.47500000e-009,-3.95312528e-004
,,,3.50000000e-009,-4.00000028e-004
,,,3.52500000e-009,-3.85937527e-004
,,,3.55000000e-009,-3.59375025e-004
,,,3.57500000e-009,-3.23437523e-004
,,,3.60000000e-009,-2.84375020e-004
,,,3.62500000e-009,-2.46875017e-004
,,,3.65000000e-009,-2.17187515e-004
,,,3.67500000e-009,-2.00781264e-004
,,,3.70000000e-009,-2.00000014e-004
,,,3.72500000e-009,-2.13281265e-004
,,,3.75000000e-009,-2.41406267e-004
,,,3.77500000e-009,-2.78906270e-004
,,,3.80000000e-009,-3.20312523e-004
,,,3.82500000e-009,-3.58593775e-004
,,,3.85000000e-009,-3.88281277e-004
,,,3.87500000e-009,-4.03125029e-004
,,,3.90000000e-009,-4.00000028e-004
,,,3.92500000e-009,-3.75000027e-004
,,,3.95000000e-009,-3.32031274e-004
,,,3.97500000e-009,-2.75781270e-004
,,,4.00000000e-009,-2.10937515e-004
,,,4.02500000e-009,-1.44531260e-004
,,,4.05000000e-009,-8.28125059e-005
,,,4.07500000e-009,-3.35937524e-005
,,,4.10000000e-009,0.00000000e+000
,,,4.12500000e-009,1.17187508e-005
,,,4.15000000e-009,5.46875039e-006
,,,4.17500000e-009,-1.71875012e-005
,,,4.20000000e-009,-5.15625036e-005
,,,4.22500000e-009,-9.29687566e-005
,,,4.25000000e-009,-1.35156260e-004
,,,4.27500000e-009,-1.72656262e-004
,,,4.30000000e-009,-2.00000014e-004
,,,4.32500000e-009,-2.13281265e-004
,,,4.35000000e-009,-2.11718765e-004
,,,4.37500000e-009,-1.96093764e-004
,,,4.40000000e-009,-1.67187512e-004
,,,4.42500000e-009,-1.28906259e-004
,,,4.45000000e-009,-8.59375061e-005
,,,4.47500000e-009,-4.14062529e-005
,,,4.50000000e-009,0.00000000e+000
,,,4.52500000e-009,3.20312523e-005
,,,4.55000000e-009,5.54687539e-005
,,,4.57500000e-009,6.87500049e-005
,,,4.60000000e-009,7.10937550e-005
,,,4.62500000e-009,6.40625045e-005
,,,4.65000000e-009,4.92187535e-005
,,,4.67500000e-009,2.65625019e-005
,,,4.70000000e-009,0.00000000e+000
,,,4.72500000e-009,-3.04687522e-005
,,,4.75000000e-009,-6.09375043e-005
,,,4.77500000e-009,-9.14062565e-005
,,,4.80000000e-009,-1.19531258e-004
,,,4.82500000e-009,-1.44531260e-004
,,,4.85000000e-009,-1.66406262e-004
,,,4.87500000e-009,-1.85156263e-004
,,,4.90000000e-009,-2.00000014e-004
,,,4.92500000e-009,-2.09375015e-004
,,,4.95000000e-009,-2.15625015e-004
,,,4.97500000e-009,-2.17187515e-004
,,,5.00000000e-009,-2.16406265e-004
,,,5.02500000e-009,-2.14062515e-004
,,,5.05000000e-009,-2.09375015e-004
,,,5.07500000e-009,-2.04687514e-004
,,,5.10000000e-009,-2.00000014e-004
,,,5.12500000e-009,-1.93750014e-004
,,,5.15000000e-009,-1.89843763e-004
,,,5.17500000e-009,-1.87500013e-004
,,,5.20000000e-009,-1.86718763e-004
,,,5.22500000e-009,-1.87500013e-004
,,,5.25000000e-009,-1.90625013e-004
,,,5.27500000e-009,-1.94531264e-004
,,,5.30000000e-009,-2.00000014e-004
,,,5.32500000e-009,-2.03906264e-004
,,,5.35000000e-009,-2.07031265e-004
,,,5.37500000e-009,-2.10156265e-004
,,,5.40000000e-009,-2.11718765e-004
,,,5.42500000e-009,-2.11718765e-004
,,,5.45000000e-009,-2.10156265e-004
,,,5.47500000e-009,-2.06250015e-004
,,,5.50000000e-009,-2.00000014e-004
,,,5.52500000e-009,-1.88281263e-004
,,,5.55000000e-009,-1.73437512e-004
,,,5.57500000e-009,-1.54687511e-004
,,,5.60000000e-009,-1.32031259e-004
,,,5.62500000e-009,-1.04687507e-004
,,,5.65000000e-009,-7.34375052e-005
,,,5.67500000e-009,-3.82812527e-005
,,,5.70000000e-009,0.00000000e+000
,,,5.72500000e-009,3.90625028e-005
,,,5.75000000e-009,7.89062556e-005
,,,5.77500000e-009,1.14843758e-004
,,,5.80000000e-009,1.47656260e-004
,,,5.82500000e-009,1.73437512e-004
,,,5.85000000e-009,1.91406264e-004
,,,5.87500000e-009,2.00000014e-004
,,,5.90000000e-009,2.00000014e-004
,,,5.92500000e-009,1.87500013e-004
,,,5.95000000e-009,1.67187512e-004
