RawData/SinglePhotoelectron/R7_2pt2B_5mV/wave005_Ch2.csv

"Record Length",1000,"Points",-7.72500000e-009,4.58593782e-004
"Sample Interval",2.50000000e-011,s,-7.70000000e-009,5.20312537e-004
"Trigger Point",309,"Samples",-7.67500000e-009,5.68750040e-004
"Trigger Time",9.71219512e-013,s,-7.65000000e-009,6.00000042e-004
"",,,-7.62500000e-009,6.05468793e-004
"Horizontal Offset",-7.72500000e-009,s,-7.60000000e-009,5.88281292e-004
,,,-7.57500000e-009,5.50000039e-004
,,,-7.55000000e-009,4.94531285e-004
,,,-7.52500000e-009,4.25781280e-004
,,,-7.50000000e-009,3.50000025e-004
,,,-7.47500000e-009,2.73437519e-004
,,,-7.45000000e-009,2.00000014e-004
,,,-7.42500000e-009,1.34375010e-004
,,,-7.40000000e-009,8.04687557e-005
,,,-7.37500000e-009,3.98437528e-005
,,,-7.35000000e-009,1.25000009e-005
,,,-7.32500000e-009,-2.34375017e-006
,,,-7.30000000e-009,-7.81250055e-006
,,,-7.27500000e-009,-6.25000044e-006
,,,-7.25000000e-009,0.00000000e+000
,,,-7.22500000e-009,1.01562507e-005
,,,-7.20000000e-009,2.03125014e-005
,,,-7.17500000e-009,2.81250020e-005
,,,-7.15000000e-009,3.12500022e-005
,,,-7.12500000e-009,3.04687522e-005
,,,-7.10000000e-009,2.42187517e-005
,,,-7.07500000e-009,1.32812509e-005
,,,-7.05000000e-009,0.00000000e+000
,,,-7.02500000e-009,-1.17187508e-005
,,,-7.00000000e-009,-2.34375017e-005
,,,-6.97500000e-009,-3.35937524e-005
,,,-6.95000000e-009,-3.98437528e-005
,,,-6.92500000e-009,-3.98437528e-005
,,,-6.90000000e-009,-3.43750024e-005
,,,-6.87500000e-009,-2.03125014e-005
,,,-6.85000000e-009,0.00000000e+000
,,,-6.82500000e-009,2.89062520e-005
,,,-6.80000000e-009,6.17187544e-005
,,,-6.77500000e-009,9.68750069e-005
,,,-6.75000000e-009,1.30468759e-004
,,,-6.72500000e-009,1.60156261e-004
,,,-6.70000000e-009,1.82812513e-004
,,,-6.67500000e-009,1.96093764e-004
,,,-6.65000000e-009,2.00000014e-004
,,,-6.62500000e-009,1.93750014e-004
,,,-6.60000000e-009,1.76562512e-004
,,,-6.57500000e-009,1.50781261e-004
,,,-6.55000000e-009,1.19531258e-004
,,,-6.52500000e-009,8.51562560e-005
,,,-6.50000000e-009,5.07812536e-005
,,,-6.47500000e-009,2.18750015e-005
,,,-6.45000000e-009,0.00000000e+000
,,,-6.42500000e-009,-1.09375008e-005
,,,-6.40000000e-009,-1.01562507e-005
,,,-6.37500000e-009,7.81250055e-007
,,,-6.35000000e-009,2.42187517e-005
,,,-6.32500000e-009,5.78125041e-005
,,,-6.30000000e-009,1.00000007e-004
,,,-6.27500000e-009,1.48437511e-004
,,,-6.25000000e-009,2.00000014e-004
,,,-6.22500000e-009,2.49218768e-004
,,,-6.20000000e-009,2.95312521e-004
,,,-6.17500000e-009,3.35156274e-004
,,,-6.15000000e-009,3.67968776e-004
,,,-6.12500000e-009,3.91406278e-004
,,,-6.10000000e-009,4.04687529e-004
,,,-6.07500000e-009,4.07031279e-004
,,,-6.05000000e-009,4.00000028e-004
,,,-6.02500000e-009,3.79687527e-004
,,,-6.00000000e-009,3.53906275e-004
,,,-5.97500000e-009,3.23437523e-004
,,,-5.95000000e-009,2.91406271e-004
,,,-5.92500000e-009,2.61718769e-004
,,,-5.90000000e-009,2.35156267e-004
,,,-5.87500000e-009,2.14062515e-004
,,,-5.85000000e-009,2.00000014e-004
,,,-5.82500000e-009,1.90625013e-004
,,,-5.80000000e-009,1.87500013e-004
,,,-5.77500000e-009,1.89843763e-004
,,,-5.75000000e-009,1.95312514e-004
,,,-5.72500000e-009,2.00781264e-004
,,,-5.70000000e-009,2.05468765e-004
,,,-5.67500000e-009,2.05468765e-004
,,,-5.65000000e-009,2.00000014e-004
,,,-5.62500000e-009,1.87500013e-004
,,,-5.60000000e-009,1.68750012e-004
,,,-5.57500000e-009,1.44531260e-004
,,,-5.55000000e-009,1.15625008e-004
,,,-5.52500000e-009,8.51562560e-005
,,,-5.50000000e-009,5.39062538e-005
,,,-5.47500000e-009,2.50000018e-005
,,,-5.45000000e-009,0.00000000e+000
,,,-5.42500000e-009,-1.95312514e-005
,,,-5.40000000e-009,-3.20312523e-005
,,,-5.37500000e-009,-3.90625028e-005
,,,-5.35000000e-009,-3.90625028e-005
,,,-5.32500000e-009,-3.35937524e-005
,,,-5.30000000e-009,-2.42187517e-005
,,,-5.27500000e-009,-1.25000009e-005
,,,-5.25000000e-009,0.00000000e+000
,,,-5.22500000e-009,1.32812509e-005
,,,-5.20000000e-009,2.42187517e-005
,,,-5.17500000e-009,3.20312523e-005
,,,-5.15000000e-009,3.43750024e-005
,,,-5.12500000e-009,3.28125023e-005
,,,-5.10000000e-009,2.57812518e-005
,,,-5.07500000e-009,1.40625010e-005
,,,-5.05000000e-009,0.00000000e+000
,,,-5.02500000e-009,-1.25000009e-005
,,,-5.00000000e-009,-2.42187517e-005
,,,-4.97500000e-009,-3.43750024e-005
,,,-4.95000000e-009,-4.06250029e-005
,,,-4.92500000e-009,-4.14062529e-005
,,,-4.90000000e-009,-3.51562525e-005
,,,-4.87500000e-009,-2.10937515e-005
,,,-4.85000000e-009,0.00000000e+000
,,,-4.82500000e-009,2.89062520e-005
,,,-4.80000000e-009,6.25000044e-005
,,,-4.77500000e-009,9.76562569e-005
,,,-4.75000000e-009,1.31250009e-004
,,,-4.72500000e-009,1.60937511e-004
,,,-4.70000000e-009,1.83593763e-004
,,,-4.67500000e-009,1.96875014e-004
,,,-4.65000000e-009,2.00000014e-004
,,,-4.62500000e-009,1.91406264e-004
,,,-4.60000000e-009,1.73437512e-004
,,,-4.57500000e-009,1.47656260e-004
,,,-4.55000000e-009,1.15625008e-004
,,,-4.52500000e-009,8.20312558e-005
,,,-4.50000000e-009,4.92187535e-005
,,,-4.47500000e-009,2.03125014e-005
,,,-4.45000000e-009,0.00000000e+000
,,,-4.42500000e-009,-8.59375061e-006
,,,-4.40000000e-009,-6.25000044e-006
,,,-4.37500000e-009,6.25000044e-006
,,,-4.35000000e-009,3.12500022e-005
,,,-4.32500000e-009,6.48437546e-005
,,,-4.30000000e-009,1.06250008e-004
,,,-4.27500000e-009,1.51562511e-004
,,,-4.25000000e-009,2.00000014e-004
,,,-4.22500000e-009,2.45312517e-004
,,,-4.20000000e-009,2.88281270e-004
,,,-4.17500000e-009,3.25000023e-004
,,,-4.15000000e-009,3.56250025e-004
,,,-4.12500000e-009,3.78906277e-004
,,,-4.10000000e-009,3.94531278e-004
,,,-4.07500000e-009,4.00781278e-004
,,,-4.05000000e-009,4.00000028e-004
,,,-4.02500000e-009,3.87500027e-004
,,,-4.00000000e-009,3.67968776e-004
,,,-3.97500000e-009,3.44531274e-004
,,,-3.95000000e-009,3.16406272e-004
,,,-3.92500000e-009,2.86718770e-004
,,,-3.90000000e-009,2.56250018e-004
,,,-3.87500000e-009,2.26562516e-004
,,,-3.85000000e-009,2.00000014e-004
,,,-3.82500000e-009,1.75781262e-004
,,,-3.80000000e-009,1.57812511e-004
,,,-3.77500000e-009,1.46875010e-004
,,,-3.75000000e-009,1.42968760e-004
,,,-3.72500000e-009,1.46875010e-004
,,,-3.70000000e-009,1.57812511e-004
,,,-3.67500000e-009,1.75781262e-004
,,,-3.65000000e-009,2.00000014e-004
,,,-3.62500000e-009,2.26562516e-004
,,,-3.60000000e-009,2.56250018e-004
,,,-3.57500000e-009,2.86718770e-004
,,,-3.55000000e-009,3.16406272e-004
,,,-3.52500000e-009,3.44531274e-004
,,,-3.50000000e-009,3.67968776e-004
,,,-3.47500000e-009,3.87500027e-004
,,,-3.45000000e-009,4.00000028e-004
,,,-3.42500000e-009,4.00781278e-004
,,,-3.40000000e-009,3.94531278e-004
,,,-3.37500000e-009,3.78906277e-004
,,,-3.35000000e-009,3.56250025e-004
,,,-3.32500000e-009,3.25000023e-004
,,,-3.30000000e-009,2.88281270e-004
,,,-3.27500000e-009,2.45312517e-004
,,,-3.25000000e-009,2.00000014e-004
,,,-3.22500000e-009,1.51562511e-004
,,,-3.20000000e-009,1.06250008e-004
,,,-3.17500000e-009,6.48437546e-005
,,,-3.15000000e-009,3.12500022e-005
,,,-3.12500000e-009,6.25000044e-006
,,,-3.10000000e-009,-6.25000044e-006
,,,-3.07500000e-009,-8.59375061e-006
,,,-3.05000000e-009,0.00000000e+000
,,,-3.02500000e-009,2.18750015e-005
,,,-3.00000000e-009,5.07812536e-005
,,,-2.97500000e-009,8.51562560e-005
,,,-2.95000000e-009,1.19531258e-004
,,,-2.92500000e-009,1.50781261e-004
,,,-2.90000000e-009,1.76562512e-004
,,,-2.87500000e-009,1.93750014e-004
,,,-2.85000000e-009,2.00000014e-004
,,,-2.82500000e-009,1.94531264e-004
,,,-2.80000000e-009,1.78906263e-004
,,,-2.77500000e-009,1.54687511e-004
,,,-2.75000000e-009,1.23437509e-004
,,,-2.72500000e-009,8.98437564e-005
,,,-2.70000000e-009,5.62500040e-005
,,,-2.67500000e-009,2.50000018e-005
,,,-2.65000000e-009,0.00000000e+000
,,,-2.62500000e-009,-1.64062512e-005
,,,-2.60000000e-009,-2.50000018e-005
,,,-2.57500000e-009,-2.73437519e-005
,,,-2.55000000e-009,-2.42187517e-005
,,,-2.52500000e-009,-1.79687513e-005
,,,-2.50000000e-009,-1.01562507e-005
,,,-2.47500000e-009,-3.90625028e-006
,,,-2.45000000e-009,0.00000000e+000
,,,-2.42500000e-009,2.34375017e-006
,,,-2.40000000e-009,7.81250055e-007
,,,-2.37500000e-009,-2.34375017e-006
,,,-2.35000000e-009,-7.03125050e-006
,,,-2.32500000e-009,-1.17187508e-005
,,,-2.30000000e-009,-1.25000009e-005
,,,-2.27500000e-009,-9.37500066e-006
,,,-2.25000000e-009,0.00000000e+000
,,,-2.22500000e-009,1.71875012e-005
,,,-2.20000000e-009,4.14062529e-005
,,,-2.17500000e-009,6.95312549e-005
,,,-2.15000000e-009,1.00000007e-004
,,,-2.12500000e-009,1.29687509e-004
,,,-2.10000000e-009,1.57812511e-004
,,,-2.07500000e-009,1.82031263e-004
,,,-2.05000000e-009,2.00000014e-004
,,,-2.02500000e-009,2.09375015e-004
,,,-2.00000000e-009,2.12500015e-004
,,,-1.97500000e-009,2.11718765e-004
,,,-1.95000000e-009,2.07031265e-004
,,,-1.92500000e-009,2.02343764e-004
,,,-1.90000000e-009,1.98437514e-004
,,,-1.87500000e-009,1.96875014e-004
,,,-1.85000000e-009,2.00000014e-004
,,,-1.82500000e-009,2.04687514e-004
,,,-1.80000000e-009,2.12500015e-004
,,,-1.77500000e-009,2.21093766e-004
,,,-1.75000000e-009,2.27343766e-004
,,,-1.72500000e-009,2.31250016e-004
,,,-1.70000000e-009,2.28125016e-004
,,,-1.67500000e-009,2.17968765e-004
,,,-1.65000000e-009,2.00000014e-004
,,,-1.62500000e-009,1.71093762e-004
,,,-1.60000000e-009,1.36718760e-004
,,,-1.57500000e-009,1.00000007e-004
,,,-1.55000000e-009,6.48437546e-005
,,,-1.52500000e-009,3.35937524e-005
,,,-1.50000000e-009,1.09375008e-005
,,,-1.47500000e-009,0.00000000e+000
,,,-1.45000000e-009,0.00000000e+000
,,,-1.42500000e-009,7.03125050e-006
,,,-1.40000000e-009,2.50000018e-005
,,,-1.37500000e-009,5.15625036e-005
,,,-1.35000000e-009,8.35937559e-005
,,,-1.32500000e-009,1.17968758e-004
,,,-1.30000000e-009,1.50781261e-004
,,,-1.27500000e-009,1.78906263e-004
,,,-1.25000000e-009,2.00000014e-004
,,,-1.22500000e-009,1.96093764e-004
,,,-1.20000000e-009,1.79687513e-004
,,,-1.17500000e-009,1.53906261e-004
,,,-1.15000000e-009,1.21093759e-004
,,,-1.12500000e-009,8.51562560e-005
,,,-1.10000000e-009,5.07812536e-005
,,,-1.07500000e-009,2.10937515e-005
,,,-1.05000000e-009,0.00000000e+000
,,,-1.02500000e-009,-3.20312523e-005
,,,-1.00000000e-009,-5.70312540e-005
,,,-9.75000000e-010,-7.18750051e-005
,,,-9.50000000e-010,-7.65625054e-005
,,,-9.25000000e-010,-7.03125050e-005
,,,-9.00000000e-010,-5.39062538e-005
,,,-8.75000000e-010,-2.96875021e-005
,,,-8.50000000e-010,0.00000000e+000
,,,-8.25000000e-010,-7.81250055e-007
,,,-8.00000000e-010,-8.59375061e-006
,,,-7.75000000e-010,-2.42187517e-005
,,,-7.50000000e-010,-4.76562534e-005
,,,-7.25000000e-010,-7.65625054e-005
,,,-7.00000000e-010,-1.11718758e-004
,,,-6.75000000e-010,-1.52343761e-004
,,,-6.50000000e-010,-2.00000014e-004
,,,-6.25000000e-010,-2.90625021e-004
,,,-6.00000000e-010,-3.96875028e-004
,,,-5.75000000e-010,-5.14062536e-004
,,,-5.50000000e-010,-6.41406295e-004
,,,-5.25000000e-010,-7.75781305e-004
,,,-5.00000000e-010,-9.14843815e-004
,,,-4.75000000e-010,-1.05625007e-003
,,,-4.50000000e-010,-1.20000008e-003
,,,-4.25000000e-010,-1.37734385e-003
,,,-4.00000000e-010,-1.56015636e-003
,,,-3.75000000e-010,-1.74531262e-003
,,,-3.50000000e-010,-1.92812514e-003
,,,-3.25000000e-010,-2.10625015e-003
,,,-3.00000000e-010,-2.27734391e-003
,,,-2.75000000e-010,-2.44140642e-003
,,,-2.50000000e-010,-2.60000018e-003
,,,-2.25000000e-010,-2.77656270e-003
,,,-2.00000000e-010,-2.96171896e-003
,,,-1.75000000e-010,-3.15859397e-003
,,,-1.50000000e-010,-3.37109399e-003
,,,-1.25000000e-010,-3.60000025e-003
,,,-1.00000000e-010,-3.84843777e-003
,,,-7.50000000e-011,-4.11484404e-003
,,,-5.00000000e-011,-4.40000031e-003
,,,-2.50000000e-011,-4.70468783e-003
,,,0.00000000e+000,-5.02500036e-003
,,,2.50000000e-011,-5.35312538e-003
,,,5.00000000e-011,-5.68046915e-003
,,,7.50000000e-011,-5.99687542e-003
,,,1.00000000e-010,-6.29296920e-003
,,,1.25000000e-010,-6.56171921e-003
,,,1.50000000e-010,-6.80000048e-003
,,,1.75000000e-010,-6.98750049e-003
,,,2.00000000e-010,-7.15234426e-003
,,,2.25000000e-010,-7.29921927e-003
,,,2.50000000e-010,-7.43593803e-003
,,,2.75000000e-010,-7.56953179e-003
,,,3.00000000e-010,-7.70468805e-003
,,,3.25000000e-010,-7.84687556e-003
,,,3.50000000e-010,-8.00000057e-003
,,,3.75000000e-010,-8.13437558e-003
,,,4.00000000e-010,-8.28593809e-003
,,,4.25000000e-010,-8.45156310e-003
,,,4.50000000e-010,-8.62343811e-003
,,,4.75000000e-010,-8.79296937e-003
,,,5.00000000e-010,-8.95156313e-003
,,,5.25000000e-010,-9.08906314e-003
,,,5.50000000e-010,-9.20000065e-003
,,,5.75000000e-010,-9.23671940e-003
,,,6.00000000e-010,-9.25078190e-003
,,,6.25000000e-010,-9.24687565e-003
,,,6.50000000e-010,-9.23203190e-003
,,,6.75000000e-010,-9.21406315e-003
,,,7.00000000e-010,-9.19921940e-003
,,,7.25000000e-010,-9.19296940e-003
,,,7.50000000e-010,-9.20000065e-003
,,,7.75000000e-010,-9.17812565e-003
,,,8.00000000e-010,-9.17734440e-003
,,,8.25000000e-010,-9.19531315e-003
,,,8.50000000e-010,-9.22968815e-003
,,,8.75000000e-010,-9.27421941e-003
,,,9.00000000e-010,-9.32187566e-003
,,,9.25000000e-010,-9.36640691e-003
,,,9.50000000e-010,-9.40000067e-003
,,,9.75000000e-010,-9.37187566e-003
,,,1.00000000e-009,-9.32890691e-003
,,,1.02500000e-009,-9.27500066e-003
,,,1.05000000e-009,-9.21484440e-003
,,,1.07500000e-009,-9.15390690e-003
,,,1.10000000e-009,-9.09531314e-003
,,,1.12500000e-009,-9.04375064e-003
,,,1.15000000e-009,-9.00000064e-003
,,,1.17500000e-009,-8.92500063e-003
,,,1.20000000e-009,-8.85546938e-003
,,,1.22500000e-009,-8.78906312e-003
,,,1.25000000e-009,-8.72343812e-003
,,,1.27500000e-009,-8.65625061e-003
,,,1.30000000e-009,-8.58203186e-003
,,,1.32500000e-009,-8.49765685e-003
,,,1.35000000e-009,-8.40000059e-003
,,,1.37500000e-009,-8.25312558e-003
,,,1.40000000e-009,-8.08906307e-003
,,,1.42500000e-009,-7.91015681e-003
,,,1.45000000e-009,-7.72265680e-003
,,,1.47500000e-009,-7.53281303e-003
,,,1.50000000e-009,-7.34687552e-003
,,,1.52500000e-009,-7.16796926e-003
,,,1.55000000e-009,-7.00000050e-003
,,,1.57500000e-009,-6.82343798e-003
,,,1.60000000e-009,-6.65156297e-003
,,,1.62500000e-009,-6.48281296e-003
,,,1.65000000e-009,-6.31484420e-003
,,,1.67500000e-009,-6.14531293e-003
,,,1.70000000e-009,-5.97109417e-003
,,,1.72500000e-009,-5.78984416e-003
,,,1.75000000e-009,-5.60000040e-003
,,,1.77500000e-009,-5.39062538e-003
,,,1.80000000e-009,-5.16718787e-003
,,,1.82500000e-009,-4.93281285e-003
,,,1.85000000e-009,-4.69218783e-003
,,,1.87500000e-009,-4.45234407e-003
,,,1.90000000e-009,-4.21953155e-003
,,,1.92500000e-009,-4.00078153e-003
,,,1.95000000e-009,-3.80000027e-003
,,,1.97500000e-009,-3.62578151e-003
,,,2.00000000e-009,-3.46718775e-003
,,,2.02500000e-009,-3.32343774e-003
,,,2.05000000e-009,-3.19531273e-003
,,,2.07500000e-009,-3.08046897e-003
,,,2.10000000e-009,-2.97734396e-003
,,,2.12500000e-009,-2.88515645e-003
,,,2.15000000e-009,-2.80000020e-003
,,,2.17500000e-009,-2.73046894e-003
,,,2.20000000e-009,-2.65468769e-003
,,,2.22500000e-009,-2.56796893e-003
,,,2.25000000e-009,-2.47031267e-003
,,,2.27500000e-009,-2.36250017e-003
,,,2.30000000e-009,-2.24609391e-003
,,,2.32500000e-009,-2.12421890e-003
,,,2.35000000e-009,-2.00000014e-003
,,,2.37500000e-009,-1.89140638e-003
,,,2.40000000e-009,-1.77968763e-003
,,,2.42500000e-009,-1.66562512e-003
,,,2.45000000e-009,-1.55390636e-003
,,,2.47500000e-009,-1.44843760e-003
,,,2.50000000e-009,-1.35234385e-003
,,,2.52500000e-009,-1.26875009e-003
,,,2.55000000e-009,-1.20000008e-003
,,,2.57500000e-009,-1.16093758e-003
,,,2.60000000e-009,-1.12578133e-003
,,,2.62500000e-009,-1.08984383e-003
,,,2.65000000e-009,-1.04921882e-003
,,,2.67500000e-009,-1.00234382e-003
,,,2.70000000e-009,-9.45312567e-004
,,,2.72500000e-009,-8.77343812e-004
,,,2.75000000e-009,-8.00000057e-004
,,,2.77500000e-009,-7.28906302e-004
,,,2.80000000e-009,-6.46093796e-004
,,,2.82500000e-009,-5.56250039e-004
,,,2.85000000e-009,-4.64062533e-004
,,,2.87500000e-009,-3.76562527e-004
,,,2.90000000e-009,-2.99218771e-004
,,,2.92500000e-009,-2.39062517e-004
,,,2.95000000e-009,-2.00000014e-004
,,,2.97500000e-009,-1.96093764e-004
,,,3.00000000e-009,-2.10156265e-004
,,,3.02500000e-009,-2.36718767e-004
,,,3.05000000e-009,-2.72656269e-004
,,,3.07500000e-009,-3.11718772e-004
,,,3.10000000e-009,-3.48437525e-004
,,,3.12500000e-009,-3.79687527e-004
,,,3.15000000e-009,-4.00000028e-004
,,,3.17500000e-009,-4.14062529e-004
,,,3.20000000e-009,-4.11718779e-004
,,,3.22500000e-009,-3.92968778e-004
,,,3.25000000e-009,-3.60937526e-004
,,,3.27500000e-009,-3.21093773e-004
,,,3.30000000e-009,-2.78125020e-004
,,,3.32500000e-009,-2.35937517e-004
,,,3.35000000e-009,-2.00000014e-004
,,,3.37500000e-009,-1.78906263e-004
,,,3.40000000e-009,-1.67187512e-004
,,,3.42500000e-009,-1.63281262e-004
,,,3.45000000e-009,-1.65625012e-004
,,,3.47500000e-009,-1.72656262e-004
,,,3.50000000e-009,-1.82031263e-004
,,,3.52500000e-009,-1.91406264e-004
,,,3.55000000e-009,-2.00000014e-004
,,,3.57500000e-009,-2.07812515e-004
,,,3.60000000e-009,-2.10937515e-004
,,,3.62500000e-009,-2.10156265e-004
,,,3.65000000e-009,-2.06250015e-004
,,,3.67500000e-009,-2.01562514e-004
,,,3.70000000e-009,-1.98437514e-004
,,,3.72500000e-009,-1.96875014e-004
,,,3.75000000e-009,-2.00000014e-004
,,,3.77500000e-009,-2.07031265e-004
,,,3.80000000e-009,-2.16406265e-004
,,,3.82500000e-009,-2.25000016e-004
,,,3.85000000e-009,-2.32031266e-004
,,,3.87500000e-009,-2.34375017e-004
,,,3.90000000e-009,-2.30468766e-004
,,,3.92500000e-009,-2.19531266e-004
,,,3.95000000e-009,-2.00000014e-004
,,,3.97500000e-009,-1.70312512e-004
,,,4.00000000e-009,-1.35937510e-004
,,,4.02500000e-009,-9.92187570e-005
,,,4.05000000e-009,-6.40625045e-005
,,,4.07500000e-009,-3.28125023e-005
,,,4.10000000e-009,-1.01562507e-005
,,,4.12500000e-009,7.81250055e-007
,,,4.15000000e-009,0.00000000e+000
,,,4.17500000e-009,-1.25000009e-005
,,,4.20000000e-009,-3.59375025e-005
,,,4.22500000e-009,-6.64062547e-005
,,,4.25000000e-009,-1.00781257e-004
,,,4.27500000e-009,-1.34375010e-004
,,,4.30000000e-009,-1.64843762e-004
,,,4.32500000e-009,-1.87500013e-004
,,,4.35000000e-009,-2.00000014e-004
,,,4.37500000e-009,-1.98437514e-004
,,,4.40000000e-009,-1.85156263e-004
,,,4.42500000e-009,-1.61718761e-004
,,,4.45000000e-009,-1.31250009e-004
,,,4.47500000e-009,-9.60937568e-005
,,,4.50000000e-009,-6.01562543e-005
,,,4.52500000e-009,-2.73437519e-005
,,,4.55000000e-009,0.00000000e+000
,,,4.57500000e-009,2.03125014e-005
,,,4.60000000e-009,3.35937524e-005
,,,4.62500000e-009,3.75000027e-005
,,,4.65000000e-009,3.59375025e-005
,,,4.67500000e-009,2.81250020e-005
,,,4.70000000e-009,1.79687513e-005
,,,4.72500000e-009,7.81250055e-006
,,,4.75000000e-009,0.00000000e+000
,,,4.77500000e-009,-3.12500022e-006
,,,4.80000000e-009,0.00000000e+000
,,,4.82500000e-009,1.17187508e-005
,,,4.85000000e-009,3.28125023e-005
,,,4.87500000e-009,6.40625045e-005
,,,4.90000000e-009,1.03125007e-004
,,,4.92500000e-009,1.49218761e-004
,,,4.95000000e-009,2.00000014e-004
,,,4.97500000e-009,2.51562518e-004
,,,5.00000000e-009,3.00781271e-004
,,,5.02500000e-009,3.46093774e-004
,,,5.05000000e-009,3.82031277e-004
,,,5.07500000e-009,4.07031279e-004
,,,5.10000000e-009,4.18750030e-004
,,,5.12500000e-009,4.16406279e-004
,,,5.15000000e-009,4.00000028e-004
,,,5.17500000e-009,3.68750026e-004
,,,5.20000000e-009,3.29687523e-004
,,,5.22500000e-009,2.87500020e-004
,,,5.25000000e-009,2.48437518e-004
,,,5.27500000e-009,2.15625015e-004
,,,5.30000000e-009,1.95312514e-004
,,,5.32500000e-009,1.89843763e-004
,,,5.35000000e-009,2.00000014e-004
,,,5.37500000e-009,2.21875016e-004
,,,5.40000000e-009,2.57031268e-004
,,,5.42500000e-009,2.98437521e-004
,,,5.45000000e-009,3.40625024e-004
,,,5.47500000e-009,3.77343777e-004
,,,5.50000000e-009,4.02343778e-004
,,,5.52500000e-009,4.10937529e-004
,,,5.55000000e-009,4.00000028e-004
,,,5.57500000e-009,3.64843776e-004
,,,5.60000000e-009,3.13281272e-004
,,,5.62500000e-009,2.49218768e-004
,,,5.65000000e-009,1.80468763e-004
,,,5.67500000e-009,1.14843758e-004
,,,5.70000000e-009,5.78125041e-005
,,,5.72500000e-009,1.79687513e-005
,,,5.75000000e-009,0.00000000e+000
,,,5.77500000e-009,4.68750033e-006
,,,5.80000000e-009,3.35937524e-005
,,,5.82500000e-009,8.12500058e-005
,,,5.85000000e-009,1.43750010e-004
,,,5.87500000e-009,2.14062515e-004
,,,5.90000000e-009,2.85156270e-004
,,,5.92500000e-009,3.48437525e-004
,,,5.95000000e-009,4.00000028e-004
,,,5.97500000e-009,4.28906280e-004
,,,6.00000000e-009,4.38281281e-004
