RawData/SinglePhotoelectron/R7_2pt2B_5mV/wave026_Ch2.csv

"Record Length",1000,"Points",-7.72500000e-009,1.78906263e-004
"Sample Interval",2.50000000e-011,s,-7.70000000e-009,1.10156258e-004
"Trigger Point",309,"Samples",-7.67500000e-009,4.92187535e-005
"Trigger Time",1.43261224e-011,s,-7.65000000e-009,0.00000000e+000
"",,,-7.62500000e-009,-3.43750024e-005
"Horizontal Offset",-7.72500000e-009,s,-7.60000000e-009,-5.23437537e-005
,,,-7.57500000e-009,-5.54687539e-005
,,,-7.55000000e-009,-4.76562534e-005
,,,-7.52500000e-009,-3.28125023e-005
,,,-7.50000000e-009,-1.71875012e-005
,,,-7.47500000e-009,-4.68750033e-006
,,,-7.45000000e-009,0.00000000e+000
,,,-7.42500000e-009,-6.25000044e-006
,,,-7.40000000e-009,-2.42187517e-005
,,,-7.37500000e-009,-5.07812536e-005
,,,-7.35000000e-009,-8.35937559e-005
,,,-7.32500000e-009,-1.18750008e-004
,,,-7.30000000e-009,-1.51562511e-004
,,,-7.27500000e-009,-1.79687513e-004
,,,-7.25000000e-009,-2.00000014e-004
,,,-7.22500000e-009,-2.08593765e-004
,,,-7.20000000e-009,-2.09375015e-004
,,,-7.17500000e-009,-2.03906264e-004
,,,-7.15000000e-009,-1.95312514e-004
,,,-7.12500000e-009,-1.87500013e-004
,,,-7.10000000e-009,-1.83593763e-004
,,,-7.07500000e-009,-1.86718763e-004
,,,-7.05000000e-009,-2.00000014e-004
,,,-7.02500000e-009,-2.21875016e-004
,,,-7.00000000e-009,-2.52343768e-004
,,,-6.97500000e-009,-2.87500020e-004
,,,-6.95000000e-009,-3.24218773e-004
,,,-6.92500000e-009,-3.57812525e-004
,,,-6.90000000e-009,-3.83593777e-004
,,,-6.87500000e-009,-3.98437528e-004
,,,-6.85000000e-009,-4.00000028e-004
,,,-6.82500000e-009,-3.83593777e-004
,,,-6.80000000e-009,-3.56250025e-004
,,,-6.77500000e-009,-3.21875023e-004
,,,-6.75000000e-009,-2.84375020e-004
,,,-6.72500000e-009,-2.49218768e-004
,,,-6.70000000e-009,-2.21093766e-004
,,,-6.67500000e-009,-2.03125014e-004
,,,-6.65000000e-009,-2.00000014e-004
,,,-6.62500000e-009,-2.09375015e-004
,,,-6.60000000e-009,-2.31250016e-004
,,,-6.57500000e-009,-2.63281269e-004
,,,-6.55000000e-009,-3.00781271e-004
,,,-6.52500000e-009,-3.37500024e-004
,,,-6.50000000e-009,-3.68750026e-004
,,,-6.47500000e-009,-3.90625028e-004
,,,-6.45000000e-009,-4.00000028e-004
,,,-6.42500000e-009,-3.91406278e-004
,,,-6.40000000e-009,-3.71093776e-004
,,,-6.37500000e-009,-3.39843774e-004
,,,-6.35000000e-009,-3.03906272e-004
,,,-6.32500000e-009,-2.67187519e-004
,,,-6.30000000e-009,-2.34375017e-004
,,,-6.27500000e-009,-2.10937515e-004
,,,-6.25000000e-009,-2.00000014e-004
,,,-6.22500000e-009,-2.02343764e-004
,,,-6.20000000e-009,-2.17968765e-004
,,,-6.17500000e-009,-2.45312517e-004
,,,-6.15000000e-009,-2.79687520e-004
,,,-6.12500000e-009,-3.17187522e-004
,,,-6.10000000e-009,-3.52343775e-004
,,,-6.07500000e-009,-3.81250027e-004
,,,-6.05000000e-009,-4.00000028e-004
,,,-6.02500000e-009,-4.04687529e-004
,,,-6.00000000e-009,-3.96093778e-004
,,,-5.97500000e-009,-3.76562527e-004
,,,-5.95000000e-009,-3.46875025e-004
,,,-5.92500000e-009,-3.10156272e-004
,,,-5.90000000e-009,-2.71093769e-004
,,,-5.87500000e-009,-2.33593767e-004
,,,-5.85000000e-009,-2.00000014e-004
,,,-5.82500000e-009,-1.73437512e-004
,,,-5.80000000e-009,-1.56250011e-004
,,,-5.77500000e-009,-1.48437511e-004
,,,-5.75000000e-009,-1.48437511e-004
,,,-5.72500000e-009,-1.55468761e-004
,,,-5.70000000e-009,-1.67968762e-004
,,,-5.67500000e-009,-1.83593763e-004
,,,-5.65000000e-009,-2.00000014e-004
,,,-5.62500000e-009,-2.14062515e-004
,,,-5.60000000e-009,-2.25781266e-004
,,,-5.57500000e-009,-2.33593767e-004
,,,-5.55000000e-009,-2.35937517e-004
,,,-5.52500000e-009,-2.32812516e-004
,,,-5.50000000e-009,-2.25000016e-004
,,,-5.47500000e-009,-2.13281265e-004
,,,-5.45000000e-009,-2.00000014e-004
,,,-5.42500000e-009,-1.85937513e-004
,,,-5.40000000e-009,-1.72656262e-004
,,,-5.37500000e-009,-1.61718761e-004
,,,-5.35000000e-009,-1.56250011e-004
,,,-5.32500000e-009,-1.56250011e-004
,,,-5.30000000e-009,-1.63281262e-004
,,,-5.27500000e-009,-1.77343763e-004
,,,-5.25000000e-009,-2.00000014e-004
,,,-5.22500000e-009,-2.27343766e-004
,,,-5.20000000e-009,-2.60156268e-004
,,,-5.17500000e-009,-2.93750021e-004
,,,-5.15000000e-009,-3.26562523e-004
,,,-5.12500000e-009,-3.56250025e-004
,,,-5.10000000e-009,-3.79687527e-004
,,,-5.07500000e-009,-3.94531278e-004
,,,-5.05000000e-009,-4.00000028e-004
,,,-5.02500000e-009,-3.94531278e-004
,,,-5.00000000e-009,-3.79687527e-004
,,,-4.97500000e-009,-3.56250025e-004
,,,-4.95000000e-009,-3.26562523e-004
,,,-4.92500000e-009,-2.93750021e-004
,,,-4.90000000e-009,-2.60156268e-004
,,,-4.87500000e-009,-2.27343766e-004
,,,-4.85000000e-009,-2.00000014e-004
,,,-4.82500000e-009,-1.78906263e-004
,,,-4.80000000e-009,-1.64843762e-004
,,,-4.77500000e-009,-1.58593761e-004
,,,-4.75000000e-009,-1.59375011e-004
,,,-4.72500000e-009,-1.65625012e-004
,,,-4.70000000e-009,-1.75781262e-004
,,,-4.67500000e-009,-1.87500013e-004
,,,-4.65000000e-009,-2.00000014e-004
,,,-4.62500000e-009,-2.10156265e-004
,,,-4.60000000e-009,-2.18750015e-004
,,,-4.57500000e-009,-2.23437516e-004
,,,-4.55000000e-009,-2.24218766e-004
,,,-4.52500000e-009,-2.21875016e-004
,,,-4.50000000e-009,-2.16406265e-004
,,,-4.47500000e-009,-2.08593765e-004
,,,-4.45000000e-009,-2.00000014e-004
,,,-4.42500000e-009,-1.89062513e-004
,,,-4.40000000e-009,-1.79687513e-004
,,,-4.37500000e-009,-1.72656262e-004
,,,-4.35000000e-009,-1.68750012e-004
,,,-4.32500000e-009,-1.68750012e-004
,,,-4.30000000e-009,-1.74218762e-004
,,,-4.27500000e-009,-1.84375013e-004
,,,-4.25000000e-009,-2.00000014e-004
,,,-4.22500000e-009,-2.18750015e-004
,,,-4.20000000e-009,-2.41406267e-004
,,,-4.17500000e-009,-2.67968769e-004
,,,-4.15000000e-009,-2.95312521e-004
,,,-4.12500000e-009,-3.23437523e-004
,,,-4.10000000e-009,-3.50781275e-004
,,,-4.07500000e-009,-3.76562527e-004
,,,-4.05000000e-009,-4.00000028e-004
,,,-4.02500000e-009,-4.16406279e-004
,,,-4.00000000e-009,-4.28125030e-004
,,,-3.97500000e-009,-4.34375031e-004
,,,-3.95000000e-009,-4.35156281e-004
,,,-3.92500000e-009,-4.32031281e-004
,,,-3.90000000e-009,-4.24218780e-004
,,,-3.87500000e-009,-4.13281279e-004
,,,-3.85000000e-009,-4.00000028e-004
,,,-3.82500000e-009,-3.79687527e-004
,,,-3.80000000e-009,-3.57031275e-004
,,,-3.77500000e-009,-3.33593774e-004
,,,-3.75000000e-009,-3.07812522e-004
,,,-3.72500000e-009,-2.82031270e-004
,,,-3.70000000e-009,-2.54687518e-004
,,,-3.67500000e-009,-2.27343766e-004
,,,-3.65000000e-009,-2.00000014e-004
,,,-3.62500000e-009,-1.68750012e-004
,,,-3.60000000e-009,-1.38281260e-004
,,,-3.57500000e-009,-1.08593758e-004
,,,-3.55000000e-009,-8.04687557e-005
,,,-3.52500000e-009,-5.54687539e-005
,,,-3.50000000e-009,-3.28125023e-005
,,,-3.47500000e-009,-1.40625010e-005
,,,-3.45000000e-009,0.00000000e+000
,,,-3.42500000e-009,1.01562507e-005
,,,-3.40000000e-009,1.64062512e-005
,,,-3.37500000e-009,1.95312514e-005
,,,-3.35000000e-009,1.95312514e-005
,,,-3.32500000e-009,1.64062512e-005
,,,-3.30000000e-009,1.17187508e-005
,,,-3.27500000e-009,6.25000044e-006
,,,-3.25000000e-009,0.00000000e+000
,,,-3.22500000e-009,-4.68750033e-006
,,,-3.20000000e-009,-8.59375061e-006
,,,-3.17500000e-009,-1.09375008e-005
,,,-3.15000000e-009,-1.17187508e-005
,,,-3.12500000e-009,-1.09375008e-005
,,,-3.10000000e-009,-8.59375061e-006
,,,-3.07500000e-009,-5.46875039e-006
,,,-3.05000000e-009,0.00000000e+000
,,,-3.02500000e-009,6.25000044e-006
,,,-3.00000000e-009,1.71875012e-005
,,,-2.97500000e-009,3.20312523e-005
,,,-2.95000000e-009,5.39062538e-005
,,,-2.92500000e-009,8.12500058e-005
,,,-2.90000000e-009,1.14843758e-004
,,,-2.87500000e-009,1.54687511e-004
,,,-2.85000000e-009,2.00000014e-004
,,,-2.82500000e-009,2.44531267e-004
,,,-2.80000000e-009,2.89843771e-004
,,,-2.77500000e-009,3.32031274e-004
,,,-2.75000000e-009,3.67968776e-004
,,,-2.72500000e-009,3.94531278e-004
,,,-2.70000000e-009,4.09375029e-004
,,,-2.67500000e-009,4.11718779e-004
,,,-2.65000000e-009,4.00000028e-004
,,,-2.62500000e-009,3.71875026e-004
,,,-2.60000000e-009,3.35156274e-004
,,,-2.57500000e-009,2.94531271e-004
,,,-2.55000000e-009,2.56250018e-004
,,,-2.52500000e-009,2.23437516e-004
,,,-2.50000000e-009,2.00781264e-004
,,,-2.47500000e-009,1.92187514e-004
,,,-2.45000000e-009,2.00000014e-004
,,,-2.42500000e-009,2.18750015e-004
,,,-2.40000000e-009,2.50000018e-004
,,,-2.37500000e-009,2.88281270e-004
,,,-2.35000000e-009,3.28906273e-004
,,,-2.32500000e-009,3.64843776e-004
,,,-2.30000000e-009,3.92187528e-004
,,,-2.27500000e-009,4.04687529e-004
,,,-2.25000000e-009,4.00000028e-004
,,,-2.22500000e-009,3.71875026e-004
,,,-2.20000000e-009,3.26562523e-004
,,,-2.17500000e-009,2.69531269e-004
,,,-2.15000000e-009,2.04687514e-004
,,,-2.12500000e-009,1.39062510e-004
,,,-2.10000000e-009,7.96875056e-005
,,,-2.07500000e-009,3.20312523e-005
,,,-2.05000000e-009,0.00000000e+000
,,,-2.02500000e-009,-1.48437511e-005
,,,-2.00000000e-009,-1.17187508e-005
,,,-1.97500000e-009,7.81250055e-006
,,,-1.95000000e-009,4.06250029e-005
,,,-1.92500000e-009,8.20312558e-005
,,,-1.90000000e-009,1.25781259e-004
,,,-1.87500000e-009,1.66406262e-004
,,,-1.85000000e-009,2.00000014e-004
,,,-1.82500000e-009,2.15625015e-004
,,,-1.80000000e-009,2.17187515e-004
,,,-1.77500000e-009,2.03125014e-004
,,,-1.75000000e-009,1.76562512e-004
,,,-1.72500000e-009,1.39062510e-004
,,,-1.70000000e-009,9.45312567e-005
,,,-1.67500000e-009,4.68750033e-005
,,,-1.65000000e-009,0.00000000e+000
,,,-1.62500000e-009,-5.00000035e-005
,,,-1.60000000e-009,-9.53125067e-005
,,,-1.57500000e-009,-1.34375010e-004
,,,-1.55000000e-009,-1.64843762e-004
,,,-1.52500000e-009,-1.85937513e-004
,,,-1.50000000e-009,-1.98437514e-004
,,,-1.47500000e-009,-2.02343764e-004
,,,-1.45000000e-009,-2.00000014e-004
,,,-1.42500000e-009,-2.02343764e-004
,,,-1.40000000e-009,-2.03906264e-004
,,,-1.37500000e-009,-2.03906264e-004
,,,-1.35000000e-009,-2.03906264e-004
,,,-1.32500000e-009,-2.03125014e-004
,,,-1.30000000e-009,-2.02343764e-004
,,,-1.27500000e-009,-2.00781264e-004
,,,-1.25000000e-009,-2.00000014e-004
,,,-1.22500000e-009,-2.15625015e-004
,,,-1.20000000e-009,-2.37500017e-004
,,,-1.17500000e-009,-2.62500019e-004
,,,-1.15000000e-009,-2.90625021e-004
,,,-1.12500000e-009,-3.19531273e-004
,,,-1.10000000e-009,-3.47656275e-004
,,,-1.07500000e-009,-3.74218776e-004
,,,-1.05000000e-009,-4.00000028e-004
,,,-1.02500000e-009,-4.43750031e-004
,,,-1.00000000e-009,-4.89843785e-004
,,,-9.75000000e-010,-5.39062538e-004
,,,-9.50000000e-010,-5.89062542e-004
,,,-9.25000000e-010,-6.39843795e-004
,,,-9.00000000e-010,-6.91406299e-004
,,,-8.75000000e-010,-7.44531303e-004
,,,-8.50000000e-010,-8.00000057e-004
,,,-8.25000000e-010,-8.78125062e-004
,,,-8.00000000e-010,-9.65625068e-004
,,,-7.75000000e-010,-1.06015633e-003
,,,-7.50000000e-010,-1.16093758e-003
,,,-7.25000000e-010,-1.26640634e-003
,,,-7.00000000e-010,-1.37500010e-003
,,,-6.75000000e-010,-1.48593761e-003
,,,-6.50000000e-010,-1.60000011e-003
,,,-6.25000000e-010,-1.72734387e-003
,,,-6.00000000e-010,-1.86250013e-003
,,,-5.75000000e-010,-2.00390639e-003
,,,-5.50000000e-010,-2.15234390e-003
,,,-5.25000000e-010,-2.30703141e-003
,,,-5.00000000e-010,-2.46718767e-003
,,,-4.75000000e-010,-2.63203144e-003
,,,-4.50000000e-010,-2.80000020e-003
,,,-4.25000000e-010,-2.97187521e-003
,,,-4.00000000e-010,-3.14531272e-003
,,,-3.75000000e-010,-3.31562523e-003
,,,-3.50000000e-010,-3.47968775e-003
,,,-3.25000000e-010,-3.63281276e-003
,,,-3.00000000e-010,-3.77109402e-003
,,,-2.75000000e-010,-3.89375028e-003
,,,-2.50000000e-010,-4.00000028e-003
,,,-2.25000000e-010,-4.08203154e-003
,,,-2.00000000e-010,-4.15859404e-003
,,,-1.75000000e-010,-4.23515655e-003
,,,-1.50000000e-010,-4.31875031e-003
,,,-1.25000000e-010,-4.41406281e-003
,,,-1.00000000e-010,-4.52421907e-003
,,,-7.50000000e-011,-4.65312533e-003
,,,-5.00000000e-011,-4.80000034e-003
,,,-2.50000000e-011,-4.94062535e-003
,,,0.00000000e+000,-5.09375036e-003
,,,2.50000000e-011,-5.25156287e-003
,,,5.00000000e-011,-5.40546913e-003
,,,7.50000000e-011,-5.54609414e-003
,,,1.00000000e-010,-5.66328165e-003
,,,1.25000000e-010,-5.74921916e-003
,,,1.50000000e-010,-5.80000041e-003
,,,1.75000000e-010,-5.78203166e-003
,,,2.00000000e-010,-5.73515666e-003
,,,2.25000000e-010,-5.66875040e-003
,,,2.50000000e-010,-5.59218790e-003
,,,2.75000000e-010,-5.51718789e-003
,,,3.00000000e-010,-5.45546914e-003
,,,3.25000000e-010,-5.41406288e-003
,,,3.50000000e-010,-5.40000038e-003
,,,3.75000000e-010,-5.38671913e-003
,,,4.00000000e-010,-5.40546913e-003
,,,4.25000000e-010,-5.45234414e-003
,,,4.50000000e-010,-5.51953164e-003
,,,4.75000000e-010,-5.59843790e-003
,,,5.00000000e-010,-5.67812540e-003
,,,5.25000000e-010,-5.74843791e-003
,,,5.50000000e-010,-5.80000041e-003
,,,5.75000000e-010,-5.79453166e-003
,,,6.00000000e-010,-5.76171916e-003
,,,6.25000000e-010,-5.70234415e-003
,,,6.50000000e-010,-5.62109415e-003
,,,6.75000000e-010,-5.52421914e-003
,,,7.00000000e-010,-5.41718788e-003
,,,7.25000000e-010,-5.30781288e-003
,,,7.50000000e-010,-5.20000037e-003
,,,7.75000000e-010,-5.07500036e-003
,,,8.00000000e-010,-4.95781285e-003
,,,8.25000000e-010,-4.85078159e-003
,,,8.50000000e-010,-4.75234409e-003
,,,8.75000000e-010,-4.66093783e-003
,,,9.00000000e-010,-4.57421907e-003
,,,9.25000000e-010,-4.48828157e-003
,,,9.50000000e-010,-4.40000031e-003
,,,9.75000000e-010,-4.29140655e-003
,,,1.00000000e-009,-4.17500030e-003
,,,1.02500000e-009,-4.05078154e-003
,,,1.05000000e-009,-3.92109403e-003
,,,1.07500000e-009,-3.78750027e-003
,,,1.10000000e-009,-3.65468776e-003
,,,1.12500000e-009,-3.52500025e-003
,,,1.15000000e-009,-3.40000024e-003
,,,1.17500000e-009,-3.27812523e-003
,,,1.20000000e-009,-3.16171897e-003
,,,1.22500000e-009,-3.05078147e-003
,,,1.25000000e-009,-2.94609396e-003
,,,1.27500000e-009,-2.84921895e-003
,,,1.30000000e-009,-2.75859395e-003
,,,1.32500000e-009,-2.67578144e-003
,,,1.35000000e-009,-2.60000018e-003
,,,1.37500000e-009,-2.52890643e-003
,,,1.40000000e-009,-2.45781267e-003
,,,1.42500000e-009,-2.38437517e-003
,,,1.45000000e-009,-2.31015641e-003
,,,1.47500000e-009,-2.23359391e-003
,,,1.50000000e-009,-2.15625015e-003
,,,1.52500000e-009,-2.07812515e-003
,,,1.55000000e-009,-2.00000014e-003
,,,1.57500000e-009,-1.92656264e-003
,,,1.60000000e-009,-1.85000013e-003
,,,1.62500000e-009,-1.77031263e-003
,,,1.65000000e-009,-1.68984387e-003
,,,1.67500000e-009,-1.61015636e-003
,,,1.70000000e-009,-1.53359386e-003
,,,1.72500000e-009,-1.46328135e-003
,,,1.75000000e-009,-1.40000010e-003
,,,1.77500000e-009,-1.35078135e-003
,,,1.80000000e-009,-1.30390634e-003
,,,1.82500000e-009,-1.25625009e-003
,,,1.85000000e-009,-1.20859384e-003
,,,1.87500000e-009,-1.15859383e-003
,,,1.90000000e-009,-1.10781258e-003
,,,1.92500000e-009,-1.05468757e-003
,,,1.95000000e-009,-1.00000007e-003
,,,1.97500000e-009,-9.52343817e-004
,,,2.00000000e-009,-9.00000064e-004
,,,2.02500000e-009,-8.45312560e-004
,,,2.05000000e-009,-7.88281306e-004
,,,2.07500000e-009,-7.33593802e-004
,,,2.10000000e-009,-6.82031298e-004
,,,2.12500000e-009,-6.37500045e-004
,,,2.15000000e-009,-6.00000042e-004
,,,2.17500000e-009,-5.77343791e-004
,,,2.20000000e-009,-5.58593790e-004
,,,2.22500000e-009,-5.40625038e-004
,,,2.25000000e-009,-5.21093787e-004
,,,2.27500000e-009,-4.99218785e-004
,,,2.30000000e-009,-4.71875033e-004
,,,2.32500000e-009,-4.39062531e-004
,,,2.35000000e-009,-4.00000028e-004
,,,2.37500000e-009,-3.59375025e-004
,,,2.40000000e-009,-3.10937522e-004
,,,2.42500000e-009,-2.56250018e-004
,,,2.45000000e-009,-1.98437514e-004
,,,2.47500000e-009,-1.39843760e-004
,,,2.50000000e-009,-8.51562560e-005
,,,2.52500000e-009,-3.75000027e-005
,,,2.55000000e-009,0.00000000e+000
,,,2.57500000e-009,2.03125014e-005
,,,2.60000000e-009,3.12500022e-005
,,,2.62500000e-009,3.51562525e-005
,,,2.65000000e-009,3.28125023e-005
,,,2.67500000e-009,2.57812518e-005
,,,2.70000000e-009,1.71875012e-005
,,,2.72500000e-009,7.81250055e-006
,,,2.75000000e-009,0.00000000e+000
,,,2.77500000e-009,-1.01562507e-005
,,,2.80000000e-009,-1.56250011e-005
,,,2.82500000e-009,-1.64062512e-005
,,,2.85000000e-009,-1.40625010e-005
,,,2.87500000e-009,-9.37500066e-006
,,,2.90000000e-009,-4.68750033e-006
,,,2.92500000e-009,-7.81250055e-007
,,,2.95000000e-009,0.00000000e+000
,,,2.97500000e-009,-3.90625028e-006
,,,3.00000000e-009,-8.59375061e-006
,,,3.02500000e-009,-1.40625010e-005
,,,3.05000000e-009,-1.87500013e-005
,,,3.07500000e-009,-2.03125014e-005
,,,3.10000000e-009,-1.79687513e-005
,,,3.12500000e-009,-1.17187508e-005
,,,3.15000000e-009,0.00000000e+000
,,,3.17500000e-009,1.56250011e-005
,,,3.20000000e-009,3.75000027e-005
,,,3.22500000e-009,6.32812545e-005
,,,3.25000000e-009,9.29687566e-005
,,,3.27500000e-009,1.22656259e-004
,,,3.30000000e-009,1.52343761e-004
,,,3.32500000e-009,1.78125013e-004
,,,3.35000000e-009,2.00000014e-004
,,,3.37500000e-009,2.12500015e-004
,,,3.40000000e-009,2.19531266e-004
,,,3.42500000e-009,2.21875016e-004
,,,3.45000000e-009,2.20312516e-004
,,,3.47500000e-009,2.15625015e-004
,,,3.50000000e-009,2.10156265e-004
,,,3.52500000e-009,2.04687514e-004
,,,3.55000000e-009,2.00000014e-004
,,,3.57500000e-009,1.94531264e-004
,,,3.60000000e-009,1.91406264e-004
,,,3.62500000e-009,1.90625013e-004
,,,3.65000000e-009,1.92187514e-004
,,,3.67500000e-009,1.93750014e-004
,,,3.70000000e-009,1.96093764e-004
,,,3.72500000e-009,1.98437514e-004
,,,3.75000000e-009,2.00000014e-004
,,,3.77500000e-009,1.98437514e-004
,,,3.80000000e-009,1.96093764e-004
,,,3.82500000e-009,1.93750014e-004
,,,3.85000000e-009,1.92187514e-004
,,,3.87500000e-009,1.90625013e-004
,,,3.90000000e-009,1.91406264e-004
,,,3.92500000e-009,1.94531264e-004
,,,3.95000000e-009,2.00000014e-004
,,,3.97500000e-009,2.04687514e-004
,,,4.00000000e-009,2.10156265e-004
,,,4.02500000e-009,2.15625015e-004
,,,4.05000000e-009,2.20312516e-004
,,,4.07500000e-009,2.21875016e-004
,,,4.10000000e-009,2.19531266e-004
,,,4.12500000e-009,2.12500015e-004
,,,4.15000000e-009,2.00000014e-004
,,,4.17500000e-009,1.81250013e-004
,,,4.20000000e-009,1.57812511e-004
,,,4.22500000e-009,1.31250009e-004
,,,4.25000000e-009,1.03125007e-004
,,,4.27500000e-009,7.42187553e-005
,,,4.30000000e-009,4.60937533e-005
,,,4.32500000e-009,2.10937515e-005
,,,4.35000000e-009,0.00000000e+000
,,,4.37500000e-009,-1.56250011e-005
,,,4.40000000e-009,-2.57812518e-005
,,,4.42500000e-009,-3.12500022e-005
,,,4.45000000e-009,-3.12500022e-005
,,,4.47500000e-009,-2.73437519e-005
,,,4.50000000e-009,-1.95312514e-005
,,,4.52500000e-009,-1.01562507e-005
,,,4.55000000e-009,0.00000000e+000
,,,4.57500000e-009,1.01562507e-005
,,,4.60000000e-009,1.95312514e-005
,,,4.62500000e-009,2.57812518e-005
,,,4.65000000e-009,2.81250020e-005
,,,4.67500000e-009,2.65625019e-005
,,,4.70000000e-009,2.03125014e-005
,,,4.72500000e-009,1.17187508e-005
,,,4.75000000e-009,0.00000000e+000
,,,4.77500000e-009,-1.17187508e-005
,,,4.80000000e-009,-2.34375017e-005
,,,4.82500000e-009,-3.35937524e-005
,,,4.85000000e-009,-3.98437528e-005
,,,4.87500000e-009,-4.06250029e-005
,,,4.90000000e-009,-3.43750024e-005
,,,4.92500000e-009,-2.03125014e-005
,,,4.95000000e-009,0.00000000e+000
,,,4.97500000e-009,2.96875021e-005
,,,5.00000000e-009,6.40625045e-005
,,,5.02500000e-009,9.92187570e-005
,,,5.05000000e-009,1.33593759e-004
,,,5.07500000e-009,1.63281262e-004
,,,5.10000000e-009,1.85156263e-004
,,,5.12500000e-009,1.97656264e-004
,,,5.15000000e-009,2.00000014e-004
,,,5.17500000e-009,1.89843763e-004
,,,5.20000000e-009,1.70312512e-004
,,,5.22500000e-009,1.43750010e-004
,,,5.25000000e-009,1.11718758e-004
,,,5.27500000e-009,7.81250055e-005
,,,5.30000000e-009,4.68750033e-005
,,,5.32500000e-009,1.95312514e-005
,,,5.35000000e-009,0.00000000e+000
,,,5.37500000e-009,-1.09375008e-005
,,,5.40000000e-009,-1.48437511e-005
,,,5.42500000e-009,-1.32812509e-005
,,,5.45000000e-009,-7.03125050e-006
,,,5.47500000e-009,-7.81250055e-007
,,,5.50000000e-009,3.12500022e-006
,,,5.52500000e-009,3.90625028e-006
,,,5.55000000e-009,0.00000000e+000
,,,5.57500000e-009,-8.59375061e-006
,,,5.60000000e-009,-2.18750015e-005
,,,5.62500000e-009,-3.51562525e-005
,,,5.65000000e-009,-4.60937533e-005
,,,5.67500000e-009,-5.15625036e-005
,,,5.70000000e-009,-4.68750033e-005
,,,5.72500000e-009,-2.96875021e-005
,,,5.75000000e-009,0.00000000e+000
,,,5.77500000e-009,4.29687530e-005
,,,5.80000000e-009,9.68750069e-005
,,,5.82500000e-009,1.57031261e-004
,,,5.85000000e-009,2.20312516e-004
,,,5.87500000e-009,2.80468770e-004
,,,5.90000000e-009,3.32812524e-004
,,,5.92500000e-009,3.73437526e-004
