RawData/SinglePhotoelectron/R7_2pt2B_5mV/wave024_Ch2.csv

"Record Length",1000,"Points",-7.72500000e-009,-2.17187515e-004
"Sample Interval",2.50000000e-011,s,-7.70000000e-009,-2.10156265e-004
"Trigger Point",309,"Samples",-7.67500000e-009,-2.03906264e-004
"Trigger Time",9.73428571e-012,s,-7.65000000e-009,-2.00000014e-004
"",,,-7.62500000e-009,-1.97656264e-004
"Horizontal Offset",-7.72500000e-009,s,-7.60000000e-009,-1.99218764e-004
,,,-7.57500000e-009,-2.03125014e-004
,,,-7.55000000e-009,-2.07031265e-004
,,,-7.52500000e-009,-2.10937515e-004
,,,-7.50000000e-009,-2.11718765e-004
,,,-7.47500000e-009,-2.08593765e-004
,,,-7.45000000e-009,-2.00000014e-004
,,,-7.42500000e-009,-1.83593763e-004
,,,-7.40000000e-009,-1.62500012e-004
,,,-7.37500000e-009,-1.36718760e-004
,,,-7.35000000e-009,-1.07031258e-004
,,,-7.32500000e-009,-7.73437555e-005
,,,-7.30000000e-009,-4.76562534e-005
,,,-7.27500000e-009,-2.10937515e-005
,,,-7.25000000e-009,0.00000000e+000
,,,-7.22500000e-009,1.48437511e-005
,,,-7.20000000e-009,2.42187517e-005
,,,-7.17500000e-009,2.81250020e-005
,,,-7.15000000e-009,2.65625019e-005
,,,-7.12500000e-009,2.18750015e-005
,,,-7.10000000e-009,1.48437511e-005
,,,-7.07500000e-009,7.03125050e-006
,,,-7.05000000e-009,0.00000000e+000
,,,-7.02500000e-009,-7.03125050e-006
,,,-7.00000000e-009,-1.17187508e-005
,,,-6.97500000e-009,-1.48437511e-005
,,,-6.95000000e-009,-1.48437511e-005
,,,-6.92500000e-009,-1.32812509e-005
,,,-6.90000000e-009,-9.37500066e-006
,,,-6.87500000e-009,-4.68750033e-006
,,,-6.85000000e-009,0.00000000e+000
,,,-6.82500000e-009,3.90625028e-006
,,,-6.80000000e-009,7.81250055e-006
,,,-6.77500000e-009,1.01562507e-005
,,,-6.75000000e-009,1.17187508e-005
,,,-6.72500000e-009,1.09375008e-005
,,,-6.70000000e-009,8.59375061e-006
,,,-6.67500000e-009,4.68750033e-006
,,,-6.65000000e-009,0.00000000e+000
,,,-6.62500000e-009,-6.25000044e-006
,,,-6.60000000e-009,-1.25000009e-005
,,,-6.57500000e-009,-1.71875012e-005
,,,-6.55000000e-009,-1.95312514e-005
,,,-6.52500000e-009,-1.87500013e-005
,,,-6.50000000e-009,-1.56250011e-005
,,,-6.47500000e-009,-8.59375061e-006
,,,-6.45000000e-009,0.00000000e+000
,,,-6.42500000e-009,1.09375008e-005
,,,-6.40000000e-009,2.18750015e-005
,,,-6.37500000e-009,3.20312523e-005
,,,-6.35000000e-009,3.90625028e-005
,,,-6.32500000e-009,3.98437528e-005
,,,-6.30000000e-009,3.43750024e-005
,,,-6.27500000e-009,2.10937515e-005
,,,-6.25000000e-009,0.00000000e+000
,,,-6.22500000e-009,-2.81250020e-005
,,,-6.20000000e-009,-6.17187544e-005
,,,-6.17500000e-009,-9.68750069e-005
,,,-6.15000000e-009,-1.31250009e-004
,,,-6.12500000e-009,-1.60937511e-004
,,,-6.10000000e-009,-1.84375013e-004
,,,-6.07500000e-009,-1.97656264e-004
,,,-6.05000000e-009,-2.00000014e-004
,,,-6.02500000e-009,-1.89062513e-004
,,,-6.00000000e-009,-1.67968762e-004
,,,-5.97500000e-009,-1.39843760e-004
,,,-5.95000000e-009,-1.07031258e-004
,,,-5.92500000e-009,-7.34375052e-005
,,,-5.90000000e-009,-4.29687530e-005
,,,-5.87500000e-009,-1.71875012e-005
,,,-5.85000000e-009,0.00000000e+000
,,,-5.82500000e-009,9.37500066e-006
,,,-5.80000000e-009,1.09375008e-005
,,,-5.77500000e-009,7.03125050e-006
,,,-5.75000000e-009,0.00000000e+000
,,,-5.72500000e-009,-7.03125050e-006
,,,-5.70000000e-009,-1.09375008e-005
,,,-5.67500000e-009,-9.37500066e-006
,,,-5.65000000e-009,0.00000000e+000
,,,-5.62500000e-009,1.71875012e-005
,,,-5.60000000e-009,4.29687530e-005
,,,-5.57500000e-009,7.34375052e-005
,,,-5.55000000e-009,1.07031258e-004
,,,-5.52500000e-009,1.39843760e-004
,,,-5.50000000e-009,1.67968762e-004
,,,-5.47500000e-009,1.89062513e-004
,,,-5.45000000e-009,2.00000014e-004
,,,-5.42500000e-009,1.96093764e-004
,,,-5.40000000e-009,1.82031263e-004
,,,-5.37500000e-009,1.58593761e-004
,,,-5.35000000e-009,1.27343759e-004
,,,-5.32500000e-009,9.29687566e-005
,,,-5.30000000e-009,5.85937541e-005
,,,-5.27500000e-009,2.65625019e-005
,,,-5.25000000e-009,0.00000000e+000
,,,-5.22500000e-009,-1.95312514e-005
,,,-5.20000000e-009,-3.20312523e-005
,,,-5.17500000e-009,-3.67187526e-005
,,,-5.15000000e-009,-3.43750024e-005
,,,-5.12500000e-009,-2.81250020e-005
,,,-5.10000000e-009,-1.87500013e-005
,,,-5.07500000e-009,-8.59375061e-006
,,,-5.05000000e-009,0.00000000e+000
,,,-5.02500000e-009,5.46875039e-006
,,,-5.00000000e-009,8.59375061e-006
,,,-4.97500000e-009,8.59375061e-006
,,,-4.95000000e-009,7.03125050e-006
,,,-4.92500000e-009,4.68750033e-006
,,,-4.90000000e-009,1.56250011e-006
,,,-4.87500000e-009,0.00000000e+000
,,,-4.85000000e-009,0.00000000e+000
,,,-4.82500000e-009,7.81250055e-007
,,,-4.80000000e-009,3.90625028e-006
,,,-4.77500000e-009,7.81250055e-006
,,,-4.75000000e-009,1.17187508e-005
,,,-4.72500000e-009,1.40625010e-005
,,,-4.70000000e-009,1.32812509e-005
,,,-4.67500000e-009,8.59375061e-006
,,,-4.65000000e-009,0.00000000e+000
,,,-4.62500000e-009,-1.40625010e-005
,,,-4.60000000e-009,-3.35937524e-005
,,,-4.57500000e-009,-5.70312540e-005
,,,-4.55000000e-009,-8.43750060e-005
,,,-4.52500000e-009,-1.13281258e-004
,,,-4.50000000e-009,-1.43750010e-004
,,,-4.47500000e-009,-1.72656262e-004
,,,-4.45000000e-009,-2.00000014e-004
,,,-4.42500000e-009,-2.18750015e-004
,,,-4.40000000e-009,-2.32812516e-004
,,,-4.37500000e-009,-2.41406267e-004
,,,-4.35000000e-009,-2.43750017e-004
,,,-4.32500000e-009,-2.40625017e-004
,,,-4.30000000e-009,-2.32031266e-004
,,,-4.27500000e-009,-2.17968765e-004
,,,-4.25000000e-009,-2.00000014e-004
,,,-4.22500000e-009,-1.75781262e-004
,,,-4.20000000e-009,-1.50000011e-004
,,,-4.17500000e-009,-1.22656259e-004
,,,-4.15000000e-009,-9.53125067e-005
,,,-4.12500000e-009,-6.79687548e-005
,,,-4.10000000e-009,-4.29687530e-005
,,,-4.07500000e-009,-1.95312514e-005
,,,-4.05000000e-009,0.00000000e+000
,,,-4.02500000e-009,1.56250011e-005
,,,-4.00000000e-009,2.73437519e-005
,,,-3.97500000e-009,3.35937524e-005
,,,-3.95000000e-009,3.51562525e-005
,,,-3.92500000e-009,3.20312523e-005
,,,-3.90000000e-009,2.42187517e-005
,,,-3.87500000e-009,1.32812509e-005
,,,-3.85000000e-009,0.00000000e+000
,,,-3.82500000e-009,-1.40625010e-005
,,,-3.80000000e-009,-2.73437519e-005
,,,-3.77500000e-009,-3.82812527e-005
,,,-3.75000000e-009,-4.37500031e-005
,,,-3.72500000e-009,-4.37500031e-005
,,,-3.70000000e-009,-3.67187526e-005
,,,-3.67500000e-009,-2.18750015e-005
,,,-3.65000000e-009,0.00000000e+000
,,,-3.62500000e-009,2.73437519e-005
,,,-3.60000000e-009,5.85937541e-005
,,,-3.57500000e-009,9.14062565e-005
,,,-3.55000000e-009,1.24218759e-004
,,,-3.52500000e-009,1.53906261e-004
,,,-3.50000000e-009,1.77343763e-004
,,,-3.47500000e-009,1.92968764e-004
,,,-3.45000000e-009,2.00000014e-004
,,,-3.42500000e-009,1.92187514e-004
,,,-3.40000000e-009,1.75000012e-004
,,,-3.37500000e-009,1.50781261e-004
,,,-3.35000000e-009,1.21093759e-004
,,,-3.32500000e-009,8.82812562e-005
,,,-3.30000000e-009,5.54687539e-005
,,,-3.27500000e-009,2.50000018e-005
,,,-3.25000000e-009,0.00000000e+000
,,,-3.22500000e-009,-2.26562516e-005
,,,-3.20000000e-009,-3.82812527e-005
,,,-3.17500000e-009,-4.60937533e-005
,,,-3.15000000e-009,-4.68750033e-005
,,,-3.12500000e-009,-4.06250029e-005
,,,-3.10000000e-009,-2.96875021e-005
,,,-3.07500000e-009,-1.56250011e-005
,,,-3.05000000e-009,0.00000000e+000
,,,-3.02500000e-009,1.40625010e-005
,,,-3.00000000e-009,2.65625019e-005
,,,-2.97500000e-009,3.51562525e-005
,,,-2.95000000e-009,3.90625028e-005
,,,-2.92500000e-009,3.75000027e-005
,,,-2.90000000e-009,3.04687522e-005
,,,-2.87500000e-009,1.71875012e-005
,,,-2.85000000e-009,0.00000000e+000
,,,-2.82500000e-009,-2.18750015e-005
,,,-2.80000000e-009,-4.68750033e-005
,,,-2.77500000e-009,-7.34375052e-005
,,,-2.75000000e-009,-1.00781257e-004
,,,-2.72500000e-009,-1.27343759e-004
,,,-2.70000000e-009,-1.53125011e-004
,,,-2.67500000e-009,-1.77343763e-004
,,,-2.65000000e-009,-2.00000014e-004
,,,-2.62500000e-009,-2.18750015e-004
,,,-2.60000000e-009,-2.36718767e-004
,,,-2.57500000e-009,-2.55468768e-004
,,,-2.55000000e-009,-2.76562520e-004
,,,-2.52500000e-009,-3.00000021e-004
,,,-2.50000000e-009,-3.28906273e-004
,,,-2.47500000e-009,-3.61718776e-004
,,,-2.45000000e-009,-4.00000028e-004
,,,-2.42500000e-009,-4.36718781e-004
,,,-2.40000000e-009,-4.75000034e-004
,,,-2.37500000e-009,-5.12500036e-004
,,,-2.35000000e-009,-5.46875039e-004
,,,-2.32500000e-009,-5.75781291e-004
,,,-2.30000000e-009,-5.95312542e-004
,,,-2.27500000e-009,-6.03906293e-004
,,,-2.25000000e-009,-6.00000042e-004
,,,-2.22500000e-009,-5.76562541e-004
,,,-2.20000000e-009,-5.40625038e-004
,,,-2.17500000e-009,-4.94531285e-004
,,,-2.15000000e-009,-4.39843781e-004
,,,-2.12500000e-009,-3.79687527e-004
,,,-2.10000000e-009,-3.17968773e-004
,,,-2.07500000e-009,-2.57031268e-004
,,,-2.05000000e-009,-2.00000014e-004
,,,-2.02500000e-009,-1.46875010e-004
,,,-2.00000000e-009,-1.03125007e-004
,,,-1.97500000e-009,-6.71875048e-005
,,,-1.95000000e-009,-4.06250029e-005
,,,-1.92500000e-009,-2.18750015e-005
,,,-1.90000000e-009,-9.37500066e-006
,,,-1.87500000e-009,-3.12500022e-006
,,,-1.85000000e-009,0.00000000e+000
,,,-1.82500000e-009,-7.81250055e-007
,,,-1.80000000e-009,-3.12500022e-006
,,,-1.77500000e-009,-5.46875039e-006
,,,-1.75000000e-009,-7.81250055e-006
,,,-1.72500000e-009,-7.81250055e-006
,,,-1.70000000e-009,-7.03125050e-006
,,,-1.67500000e-009,-3.90625028e-006
,,,-1.65000000e-009,0.00000000e+000
,,,-1.62500000e-009,-2.34375017e-006
,,,-1.60000000e-009,-4.68750033e-006
,,,-1.57500000e-009,-7.03125050e-006
,,,-1.55000000e-009,-8.59375061e-006
,,,-1.52500000e-009,-8.59375061e-006
,,,-1.50000000e-009,-7.03125050e-006
,,,-1.47500000e-009,-4.68750033e-006
,,,-1.45000000e-009,0.00000000e+000
,,,-1.42500000e-009,-7.81250055e-006
,,,-1.40000000e-009,-1.48437511e-005
,,,-1.37500000e-009,-2.18750015e-005
,,,-1.35000000e-009,-2.50000018e-005
,,,-1.32500000e-009,-2.57812518e-005
,,,-1.30000000e-009,-2.18750015e-005
,,,-1.27500000e-009,-1.25000009e-005
,,,-1.25000000e-009,0.00000000e+000
,,,-1.22500000e-009,-3.90625028e-006
,,,-1.20000000e-009,-7.03125050e-006
,,,-1.17500000e-009,-9.37500066e-006
,,,-1.15000000e-009,-1.01562507e-005
,,,-1.12500000e-009,-9.37500066e-006
,,,-1.10000000e-009,-6.25000044e-006
,,,-1.07500000e-009,-2.34375017e-006
,,,-1.05000000e-009,0.00000000e+000
,,,-1.02500000e-009,-2.42187517e-005
,,,-1.00000000e-009,-5.62500040e-005
,,,-9.75000000e-010,-9.60937568e-005
,,,-9.50000000e-010,-1.43750010e-004
,,,-9.25000000e-010,-1.98437514e-004
,,,-9.00000000e-010,-2.58593768e-004
,,,-8.75000000e-010,-3.25781273e-004
,,,-8.50000000e-010,-4.00000028e-004
,,,-8.25000000e-010,-5.04687536e-004
,,,-8.00000000e-010,-6.19531294e-004
,,,-7.75000000e-010,-7.42968803e-004
,,,-7.50000000e-010,-8.71875062e-004
,,,-7.25000000e-010,-1.00390632e-003
,,,-7.00000000e-010,-1.13671883e-003
,,,-6.75000000e-010,-1.26875009e-003
,,,-6.50000000e-010,-1.40000010e-003
,,,-6.25000000e-010,-1.54531261e-003
,,,-6.00000000e-010,-1.69296887e-003
,,,-5.75000000e-010,-1.84296888e-003
,,,-5.50000000e-010,-1.99375014e-003
,,,-5.25000000e-010,-2.14531265e-003
,,,-5.00000000e-010,-2.29765641e-003
,,,-4.75000000e-010,-2.44843767e-003
,,,-4.50000000e-010,-2.60000018e-003
,,,-4.25000000e-010,-2.75546895e-003
,,,-4.00000000e-010,-2.91250021e-003
,,,-3.75000000e-010,-3.07109397e-003
,,,-3.50000000e-010,-3.22734398e-003
,,,-3.25000000e-010,-3.38046899e-003
,,,-3.00000000e-010,-3.52812525e-003
,,,-2.75000000e-010,-3.66796901e-003
,,,-2.50000000e-010,-3.80000027e-003
,,,-2.25000000e-010,-3.91875028e-003
,,,-2.00000000e-010,-4.03593779e-003
,,,-1.75000000e-010,-4.15390654e-003
,,,-1.50000000e-010,-4.27421905e-003
,,,-1.25000000e-010,-4.39843781e-003
,,,-1.00000000e-010,-4.52734407e-003
,,,-7.50000000e-011,-4.66093783e-003
,,,-5.00000000e-011,-4.80000034e-003
,,,-2.50000000e-011,-4.92500035e-003
,,,0.00000000e+000,-5.05625036e-003
,,,2.50000000e-011,-5.19218787e-003
,,,5.00000000e-011,-5.32890663e-003
,,,7.50000000e-011,-5.46250039e-003
,,,1.00000000e-010,-5.58750040e-003
,,,1.25000000e-010,-5.70156290e-003
,,,1.50000000e-010,-5.80000041e-003
,,,1.75000000e-010,-5.85546916e-003
,,,2.00000000e-010,-5.89765667e-003
,,,2.25000000e-010,-5.93046917e-003
,,,2.50000000e-010,-5.95390667e-003
,,,2.75000000e-010,-5.97031292e-003
,,,3.00000000e-010,-5.98281292e-003
,,,3.25000000e-010,-5.99218792e-003
,,,3.50000000e-010,-6.00000042e-003
,,,3.75000000e-010,-5.98125042e-003
,,,4.00000000e-010,-5.96875042e-003
,,,4.25000000e-010,-5.96171917e-003
,,,4.50000000e-010,-5.96250042e-003
,,,4.75000000e-010,-5.96796917e-003
,,,5.00000000e-010,-5.97812542e-003
,,,5.25000000e-010,-5.98906292e-003
,,,5.50000000e-010,-6.00000042e-003
,,,5.75000000e-010,-5.98281292e-003
,,,6.00000000e-010,-5.96328167e-003
,,,6.25000000e-010,-5.94218792e-003
,,,6.50000000e-010,-5.91796917e-003
,,,6.75000000e-010,-5.89218792e-003
,,,7.00000000e-010,-5.86406292e-003
,,,7.25000000e-010,-5.83281291e-003
,,,7.50000000e-010,-5.80000041e-003
,,,7.75000000e-010,-5.74453166e-003
,,,8.00000000e-010,-5.68906290e-003
,,,8.25000000e-010,-5.63359415e-003
,,,8.50000000e-010,-5.58046914e-003
,,,8.75000000e-010,-5.53046914e-003
,,,9.00000000e-010,-5.48359414e-003
,,,9.25000000e-010,-5.43984414e-003
,,,9.50000000e-010,-5.40000038e-003
,,,9.75000000e-010,-5.34765663e-003
,,,1.00000000e-009,-5.29687537e-003
,,,1.02500000e-009,-5.24687537e-003
,,,1.05000000e-009,-5.19765662e-003
,,,1.07500000e-009,-5.14921911e-003
,,,1.10000000e-009,-5.10078161e-003
,,,1.12500000e-009,-5.05078161e-003
,,,1.15000000e-009,-5.00000035e-003
,,,1.17500000e-009,-4.93671910e-003
,,,1.20000000e-009,-4.86796909e-003
,,,1.22500000e-009,-4.79453159e-003
,,,1.25000000e-009,-4.71718783e-003
,,,1.27500000e-009,-4.63828158e-003
,,,1.30000000e-009,-4.55781282e-003
,,,1.32500000e-009,-4.47812532e-003
,,,1.35000000e-009,-4.40000031e-003
,,,1.37500000e-009,-4.31796906e-003
,,,1.40000000e-009,-4.23671905e-003
,,,1.42500000e-009,-4.15546904e-003
,,,1.45000000e-009,-4.07656279e-003
,,,1.47500000e-009,-4.00078153e-003
,,,1.50000000e-009,-3.92890653e-003
,,,1.52500000e-009,-3.86171902e-003
,,,1.55000000e-009,-3.80000027e-003
,,,1.57500000e-009,-3.74218776e-003
,,,1.60000000e-009,-3.68593776e-003
,,,1.62500000e-009,-3.63125026e-003
,,,1.65000000e-009,-3.57890650e-003
,,,1.67500000e-009,-3.52968775e-003
,,,1.70000000e-009,-3.48281275e-003
,,,1.72500000e-009,-3.43984399e-003
,,,1.75000000e-009,-3.40000024e-003
,,,1.77500000e-009,-3.36015649e-003
,,,1.80000000e-009,-3.31796898e-003
,,,1.82500000e-009,-3.27265648e-003
,,,1.85000000e-009,-3.22343773e-003
,,,1.87500000e-009,-3.17187522e-003
,,,1.90000000e-009,-3.11640647e-003
,,,1.92500000e-009,-3.05937522e-003
,,,1.95000000e-009,-3.00000021e-003
,,,1.97500000e-009,-2.93750021e-003
,,,2.00000000e-009,-2.86953145e-003
,,,2.02500000e-009,-2.79609395e-003
,,,2.05000000e-009,-2.71875019e-003
,,,2.07500000e-009,-2.63828144e-003
,,,2.10000000e-009,-2.55703143e-003
,,,2.12500000e-009,-2.47656268e-003
,,,2.15000000e-009,-2.40000017e-003
,,,2.17500000e-009,-2.33046891e-003
,,,2.20000000e-009,-2.26406266e-003
,,,2.22500000e-009,-2.20234391e-003
,,,2.25000000e-009,-2.14609390e-003
,,,2.27500000e-009,-2.09687515e-003
,,,2.30000000e-009,-2.05546890e-003
,,,2.32500000e-009,-2.02343764e-003
,,,2.35000000e-009,-2.00000014e-003
,,,2.37500000e-009,-1.98515639e-003
,,,2.40000000e-009,-1.97187514e-003
,,,2.42500000e-009,-1.95703139e-003
,,,2.45000000e-009,-1.93906264e-003
,,,2.47500000e-009,-1.91562514e-003
,,,2.50000000e-009,-1.88515638e-003
,,,2.52500000e-009,-1.84687513e-003
,,,2.55000000e-009,-1.80000013e-003
,,,2.57500000e-009,-1.74453137e-003
,,,2.60000000e-009,-1.67890637e-003
,,,2.62500000e-009,-1.60390636e-003
,,,2.65000000e-009,-1.52265636e-003
,,,2.67500000e-009,-1.43828135e-003
,,,2.70000000e-009,-1.35390635e-003
,,,2.72500000e-009,-1.27343759e-003
,,,2.75000000e-009,-1.20000008e-003
,,,2.77500000e-009,-1.14218758e-003
,,,2.80000000e-009,-1.09296883e-003
,,,2.82500000e-009,-1.05390632e-003
,,,2.85000000e-009,-1.02500007e-003
,,,2.87500000e-009,-1.00625007e-003
,,,2.90000000e-009,-9.96093821e-004
,,,2.92500000e-009,-9.94531320e-004
,,,2.95000000e-009,-1.00000007e-003
,,,2.97500000e-009,-1.01250007e-003
,,,3.00000000e-009,-1.02500007e-003
,,,3.02500000e-009,-1.03437507e-003
,,,3.05000000e-009,-1.03906257e-003
,,,3.07500000e-009,-1.03828132e-003
,,,3.10000000e-009,-1.03203132e-003
,,,3.12500000e-009,-1.01953132e-003
,,,3.15000000e-009,-1.00000007e-003
,,,3.17500000e-009,-9.74218819e-004
,,,3.20000000e-009,-9.40625067e-004
,,,3.22500000e-009,-8.97656314e-004
,,,3.25000000e-009,-8.46875060e-004
,,,3.27500000e-009,-7.89843806e-004
,,,3.30000000e-009,-7.28125052e-004
,,,3.32500000e-009,-6.63281297e-004
,,,3.35000000e-009,-6.00000042e-004
,,,3.37500000e-009,-5.41406288e-004
,,,3.40000000e-009,-4.88281285e-004
,,,3.42500000e-009,-4.42187531e-004
,,,3.45000000e-009,-4.06250029e-004
,,,3.47500000e-009,-3.83593777e-004
,,,3.50000000e-009,-3.74218776e-004
,,,3.52500000e-009,-3.79687527e-004
,,,3.55000000e-009,-4.00000028e-004
,,,3.57500000e-009,-4.35937531e-004
,,,3.60000000e-009,-4.78906284e-004
,,,3.62500000e-009,-5.22656287e-004
,,,3.65000000e-009,-5.61718790e-004
,,,3.67500000e-009,-5.92968792e-004
,,,3.70000000e-009,-6.10937543e-004
,,,3.72500000e-009,-6.14062543e-004
,,,3.75000000e-009,-6.00000042e-004
,,,3.77500000e-009,-5.67968790e-004
,,,3.80000000e-009,-5.21093787e-004
,,,3.82500000e-009,-4.63281283e-004
,,,3.85000000e-009,-4.00000028e-004
,,,3.87500000e-009,-3.36718774e-004
,,,3.90000000e-009,-2.78906270e-004
,,,3.92500000e-009,-2.32812516e-004
,,,3.95000000e-009,-2.00000014e-004
,,,3.97500000e-009,-1.83593763e-004
,,,4.00000000e-009,-1.81250013e-004
,,,4.02500000e-009,-1.87500013e-004
,,,4.05000000e-009,-1.98437514e-004
,,,4.07500000e-009,-2.10156265e-004
,,,4.10000000e-009,-2.16406265e-004
,,,4.12500000e-009,-2.14062515e-004
,,,4.15000000e-009,-2.00000014e-004
,,,4.17500000e-009,-1.77343763e-004
,,,4.20000000e-009,-1.43750010e-004
,,,4.22500000e-009,-1.03906257e-004
,,,4.25000000e-009,-6.32812545e-005
,,,4.27500000e-009,-2.65625019e-005
,,,4.30000000e-009,-7.81250055e-007
,,,4.32500000e-009,8.59375061e-006
,,,4.35000000e-009,0.00000000e+000
,,,4.37500000e-009,-3.04687522e-005
,,,4.40000000e-009,-7.81250055e-005
,,,4.42500000e-009,-1.37500010e-004
,,,4.45000000e-009,-2.03906264e-004
,,,4.47500000e-009,-2.69531269e-004
,,,4.50000000e-009,-3.28125023e-004
,,,4.52500000e-009,-3.73437526e-004
,,,4.55000000e-009,-4.00000028e-004
,,,4.57500000e-009,-4.03125029e-004
,,,4.60000000e-009,-3.83593777e-004
,,,4.62500000e-009,-3.42968774e-004
,,,4.65000000e-009,-2.85937520e-004
,,,4.67500000e-009,-2.17187515e-004
,,,4.70000000e-009,-1.42187510e-004
,,,4.72500000e-009,-6.79687548e-005
,,,4.75000000e-009,0.00000000e+000
,,,4.77500000e-009,5.23437537e-005
,,,4.80000000e-009,9.06250064e-005
,,,4.82500000e-009,1.11718758e-004
,,,4.85000000e-009,1.15625008e-004
,,,4.87500000e-009,1.03906257e-004
,,,4.90000000e-009,7.89062556e-005
,,,4.92500000e-009,4.29687530e-005
,,,4.95000000e-009,0.00000000e+000
,,,4.97500000e-009,-4.76562534e-005
,,,5.00000000e-009,-9.45312567e-005
,,,5.02500000e-009,-1.36718760e-004
,,,5.05000000e-009,-1.71093762e-004
,,,5.07500000e-009,-1.96093764e-004
,,,5.10000000e-009,-2.09375015e-004
,,,5.12500000e-009,-2.10156265e-004
,,,5.15000000e-009,-2.00000014e-004
,,,5.17500000e-009,-1.78906263e-004
,,,5.20000000e-009,-1.50781261e-004
,,,5.22500000e-009,-1.17968758e-004
,,,5.25000000e-009,-8.43750060e-005
,,,5.27500000e-009,-5.23437537e-005
,,,5.30000000e-009,-2.65625019e-005
,,,5.32500000e-009,-7.81250055e-006
,,,5.35000000e-009,0.00000000e+000
,,,5.37500000e-009,-3.12500022e-006
,,,5.40000000e-009,-1.71875012e-005
,,,5.42500000e-009,-4.06250029e-005
,,,5.45000000e-009,-7.03125050e-005
,,,5.47500000e-009,-1.04687507e-004
,,,5.50000000e-009,-1.39062510e-004
,,,5.52500000e-009,-1.71875012e-004
,,,5.55000000e-009,-2.00000014e-004
,,,5.57500000e-009,-2.21093766e-004
,,,5.60000000e-009,-2.35156267e-004
,,,5.62500000e-009,-2.41406267e-004
,,,5.65000000e-009,-2.39843767e-004
,,,5.67500000e-009,-2.32812516e-004
,,,5.70000000e-009,-2.22656266e-004
,,,5.72500000e-009,-2.10937515e-004
,,,5.75000000e-009,-2.00000014e-004
,,,5.77500000e-009,-1.89843763e-004
,,,5.80000000e-009,-1.82812513e-004
,,,5.82500000e-009,-1.79687513e-004
,,,5.85000000e-009,-1.79687513e-004
,,,5.87500000e-009,-1.82812513e-004
