RawData/SinglePhotoelectron/R7_2pt2B_5mV/wave007_Ch2.csv

"Record Length",1000,"Points",-7.72500000e-009,-2.81250020e-005
"Sample Interval",2.50000000e-011,s,-7.70000000e-009,-1.40625010e-005
"Trigger Point",309,"Samples",-7.67500000e-009,0.00000000e+000
"Trigger Time",2.38223715e-011,s,-7.65000000e-009,1.17187508e-005
"",,,-7.62500000e-009,2.03125014e-005
"Horizontal Offset",-7.72500000e-009,s,-7.60000000e-009,2.57812518e-005
,,,-7.57500000e-009,2.65625019e-005
,,,-7.55000000e-009,2.42187517e-005
,,,-7.52500000e-009,1.87500013e-005
,,,-7.50000000e-009,1.01562507e-005
,,,-7.47500000e-009,0.00000000e+000
,,,-7.45000000e-009,-1.32812509e-005
,,,-7.42500000e-009,-2.96875021e-005
,,,-7.40000000e-009,-4.84375034e-005
,,,-7.37500000e-009,-7.10937550e-005
,,,-7.35000000e-009,-9.76562569e-005
,,,-7.32500000e-009,-1.28125009e-004
,,,-7.30000000e-009,-1.62500012e-004
,,,-7.27500000e-009,-2.00000014e-004
,,,-7.25000000e-009,-2.37500017e-004
,,,-7.22500000e-009,-2.75781270e-004
,,,-7.20000000e-009,-3.11718772e-004
,,,-7.17500000e-009,-3.43750024e-004
,,,-7.15000000e-009,-3.70312526e-004
,,,-7.12500000e-009,-3.89062528e-004
,,,-7.10000000e-009,-3.99218778e-004
,,,-7.07500000e-009,-4.00000028e-004
,,,-7.05000000e-009,-3.86718777e-004
,,,-7.02500000e-009,-3.65625026e-004
,,,-7.00000000e-009,-3.38281274e-004
,,,-6.97500000e-009,-3.07812522e-004
,,,-6.95000000e-009,-2.76562520e-004
,,,-6.92500000e-009,-2.46875017e-004
,,,-6.90000000e-009,-2.20312516e-004
,,,-6.87500000e-009,-2.00000014e-004
,,,-6.85000000e-009,-1.83593763e-004
,,,-6.82500000e-009,-1.73437512e-004
,,,-6.80000000e-009,-1.70312512e-004
,,,-6.77500000e-009,-1.71875012e-004
,,,-6.75000000e-009,-1.77343763e-004
,,,-6.72500000e-009,-1.85156263e-004
,,,-6.70000000e-009,-1.92968764e-004
,,,-6.67500000e-009,-2.00000014e-004
,,,-6.65000000e-009,-2.02343764e-004
,,,-6.62500000e-009,-2.03906264e-004
,,,-6.60000000e-009,-2.02343764e-004
,,,-6.57500000e-009,-2.00781264e-004
,,,-6.55000000e-009,-1.98437514e-004
,,,-6.52500000e-009,-1.96875014e-004
,,,-6.50000000e-009,-1.96875014e-004
,,,-6.47500000e-009,-2.00000014e-004
,,,-6.45000000e-009,-2.02343764e-004
,,,-6.42500000e-009,-2.06250015e-004
,,,-6.40000000e-009,-2.11718765e-004
,,,-6.37500000e-009,-2.15625015e-004
,,,-6.35000000e-009,-2.17968765e-004
,,,-6.32500000e-009,-2.17187515e-004
,,,-6.30000000e-009,-2.10937515e-004
,,,-6.27500000e-009,-2.00000014e-004
,,,-6.25000000e-009,-1.82031263e-004
,,,-6.22500000e-009,-1.58593761e-004
,,,-6.20000000e-009,-1.32031259e-004
,,,-6.17500000e-009,-1.03125007e-004
,,,-6.15000000e-009,-7.34375052e-005
,,,-6.12500000e-009,-4.53125032e-005
,,,-6.10000000e-009,-2.03125014e-005
,,,-6.07500000e-009,0.00000000e+000
,,,-6.05000000e-009,1.25000009e-005
,,,-6.02500000e-009,1.95312514e-005
,,,-6.00000000e-009,2.18750015e-005
,,,-5.97500000e-009,2.03125014e-005
,,,-5.95000000e-009,1.56250011e-005
,,,-5.92500000e-009,1.01562507e-005
,,,-5.90000000e-009,4.68750033e-006
,,,-5.87500000e-009,0.00000000e+000
,,,-5.85000000e-009,-4.68750033e-006
,,,-5.82500000e-009,-7.81250055e-006
,,,-5.80000000e-009,-8.59375061e-006
,,,-5.77500000e-009,-7.03125050e-006
,,,-5.75000000e-009,-5.46875039e-006
,,,-5.72500000e-009,-3.12500022e-006
,,,-5.70000000e-009,-7.81250055e-007
,,,-5.67500000e-009,0.00000000e+000
,,,-5.65000000e-009,-7.81250055e-007
,,,-5.62500000e-009,-3.12500022e-006
,,,-5.60000000e-009,-5.46875039e-006
,,,-5.57500000e-009,-7.03125050e-006
,,,-5.55000000e-009,-8.59375061e-006
,,,-5.52500000e-009,-7.81250055e-006
,,,-5.50000000e-009,-4.68750033e-006
,,,-5.47500000e-009,0.00000000e+000
,,,-5.45000000e-009,3.12500022e-006
,,,-5.42500000e-009,8.59375061e-006
,,,-5.40000000e-009,1.32812509e-005
,,,-5.37500000e-009,1.64062512e-005
,,,-5.35000000e-009,1.79687513e-005
,,,-5.32500000e-009,1.64062512e-005
,,,-5.30000000e-009,1.01562507e-005
,,,-5.27500000e-009,0.00000000e+000
,,,-5.25000000e-009,-1.71875012e-005
,,,-5.22500000e-009,-3.90625028e-005
,,,-5.20000000e-009,-6.40625045e-005
,,,-5.17500000e-009,-9.21875065e-005
,,,-5.15000000e-009,-1.21093759e-004
,,,-5.12500000e-009,-1.49218761e-004
,,,-5.10000000e-009,-1.75781262e-004
,,,-5.07500000e-009,-2.00000014e-004
,,,-5.05000000e-009,-2.18750015e-004
,,,-5.02500000e-009,-2.32812516e-004
,,,-5.00000000e-009,-2.40625017e-004
,,,-4.97500000e-009,-2.42968767e-004
,,,-4.95000000e-009,-2.39062517e-004
,,,-4.92500000e-009,-2.29687516e-004
,,,-4.90000000e-009,-2.16406265e-004
,,,-4.87500000e-009,-2.00000014e-004
,,,-4.85000000e-009,-1.81250013e-004
,,,-4.82500000e-009,-1.64062512e-004
,,,-4.80000000e-009,-1.50781261e-004
,,,-4.77500000e-009,-1.43750010e-004
,,,-4.75000000e-009,-1.44531260e-004
,,,-4.72500000e-009,-1.53906261e-004
,,,-4.70000000e-009,-1.72656262e-004
,,,-4.67500000e-009,-2.00000014e-004
,,,-4.65000000e-009,-2.32031266e-004
,,,-4.62500000e-009,-2.67968769e-004
,,,-4.60000000e-009,-3.05468772e-004
,,,-4.57500000e-009,-3.40625024e-004
,,,-4.55000000e-009,-3.70312526e-004
,,,-4.52500000e-009,-3.91406278e-004
,,,-4.50000000e-009,-4.01562528e-004
,,,-4.47500000e-009,-4.00000028e-004
,,,-4.45000000e-009,-3.82812527e-004
,,,-4.42500000e-009,-3.56250025e-004
,,,-4.40000000e-009,-3.23437523e-004
,,,-4.37500000e-009,-2.88281270e-004
,,,-4.35000000e-009,-2.54687518e-004
,,,-4.32500000e-009,-2.26562516e-004
,,,-4.30000000e-009,-2.07031265e-004
,,,-4.27500000e-009,-2.00000014e-004
,,,-4.25000000e-009,-2.02343764e-004
,,,-4.22500000e-009,-2.17968765e-004
,,,-4.20000000e-009,-2.42968767e-004
,,,-4.17500000e-009,-2.75781270e-004
,,,-4.15000000e-009,-3.11718772e-004
,,,-4.12500000e-009,-3.46875025e-004
,,,-4.10000000e-009,-3.77343777e-004
,,,-4.07500000e-009,-4.00000028e-004
,,,-4.05000000e-009,-4.07812529e-004
,,,-4.02500000e-009,-4.03125029e-004
,,,-4.00000000e-009,-3.86718777e-004
,,,-3.97500000e-009,-3.60156275e-004
,,,-3.95000000e-009,-3.25781273e-004
,,,-3.92500000e-009,-2.85156270e-004
,,,-3.90000000e-009,-2.42187517e-004
,,,-3.87500000e-009,-2.00000014e-004
,,,-3.85000000e-009,-1.57812511e-004
,,,-3.82500000e-009,-1.19531258e-004
,,,-3.80000000e-009,-8.75000062e-005
,,,-3.77500000e-009,-6.01562543e-005
,,,-3.75000000e-009,-3.90625028e-005
,,,-3.72500000e-009,-2.18750015e-005
,,,-3.70000000e-009,-9.37500066e-006
,,,-3.67500000e-009,0.00000000e+000
,,,-3.65000000e-009,6.25000044e-006
,,,-3.62500000e-009,1.17187508e-005
,,,-3.60000000e-009,1.48437511e-005
,,,-3.57500000e-009,1.56250011e-005
,,,-3.55000000e-009,1.48437511e-005
,,,-3.52500000e-009,1.17187508e-005
,,,-3.50000000e-009,7.03125050e-006
,,,-3.47500000e-009,0.00000000e+000
,,,-3.45000000e-009,-9.37500066e-006
,,,-3.42500000e-009,-1.87500013e-005
,,,-3.40000000e-009,-2.65625019e-005
,,,-3.37500000e-009,-3.12500022e-005
,,,-3.35000000e-009,-3.20312523e-005
,,,-3.32500000e-009,-2.65625019e-005
,,,-3.30000000e-009,-1.64062512e-005
,,,-3.27500000e-009,0.00000000e+000
,,,-3.25000000e-009,2.10937515e-005
,,,-3.22500000e-009,4.60937533e-005
,,,-3.20000000e-009,7.50000053e-005
,,,-3.17500000e-009,1.04687507e-004
,,,-3.15000000e-009,1.33593759e-004
,,,-3.12500000e-009,1.60156261e-004
,,,-3.10000000e-009,1.82031263e-004
,,,-3.07500000e-009,2.00000014e-004
,,,-3.05000000e-009,2.08593765e-004
,,,-3.02500000e-009,2.13281265e-004
,,,-3.00000000e-009,2.14062515e-004
,,,-2.97500000e-009,2.11718765e-004
,,,-2.95000000e-009,2.07812515e-004
,,,-2.92500000e-009,2.03906264e-004
,,,-2.90000000e-009,2.00781264e-004
,,,-2.87500000e-009,2.00000014e-004
,,,-2.85000000e-009,1.97656264e-004
,,,-2.82500000e-009,1.98437514e-004
,,,-2.80000000e-009,2.00781264e-004
,,,-2.77500000e-009,2.03906264e-004
,,,-2.75000000e-009,2.06250015e-004
,,,-2.72500000e-009,2.07812515e-004
,,,-2.70000000e-009,2.05468765e-004
,,,-2.67500000e-009,2.00000014e-004
,,,-2.65000000e-009,1.86718763e-004
,,,-2.62500000e-009,1.68750012e-004
,,,-2.60000000e-009,1.46875010e-004
,,,-2.57500000e-009,1.20312509e-004
,,,-2.55000000e-009,9.06250064e-005
,,,-2.52500000e-009,6.01562543e-005
,,,-2.50000000e-009,2.89062520e-005
,,,-2.47500000e-009,0.00000000e+000
,,,-2.45000000e-009,-2.50000018e-005
,,,-2.42500000e-009,-4.45312532e-005
,,,-2.40000000e-009,-5.78125041e-005
,,,-2.37500000e-009,-6.25000044e-005
,,,-2.35000000e-009,-5.93750042e-005
,,,-2.32500000e-009,-4.68750033e-005
,,,-2.30000000e-009,-2.65625019e-005
,,,-2.27500000e-009,0.00000000e+000
,,,-2.25000000e-009,3.20312523e-005
,,,-2.22500000e-009,6.71875048e-005
,,,-2.20000000e-009,1.02343757e-004
,,,-2.17500000e-009,1.35156260e-004
,,,-2.15000000e-009,1.63281262e-004
,,,-2.12500000e-009,1.84375013e-004
,,,-2.10000000e-009,1.96875014e-004
,,,-2.07500000e-009,2.00000014e-004
,,,-2.05000000e-009,1.91406264e-004
,,,-2.02500000e-009,1.74218762e-004
,,,-2.00000000e-009,1.49218761e-004
,,,-1.97500000e-009,1.19531258e-004
,,,-1.95000000e-009,8.67187561e-005
,,,-1.92500000e-009,5.46875039e-005
,,,-1.90000000e-009,2.50000018e-005
,,,-1.87500000e-009,0.00000000e+000
,,,-1.85000000e-009,-1.87500013e-005
,,,-1.82500000e-009,-3.04687522e-005
,,,-1.80000000e-009,-3.59375025e-005
,,,-1.77500000e-009,-3.51562525e-005
,,,-1.75000000e-009,-3.04687522e-005
,,,-1.72500000e-009,-2.10937515e-005
,,,-1.70000000e-009,-1.09375008e-005
,,,-1.67500000e-009,0.00000000e+000
,,,-1.65000000e-009,7.03125050e-006
,,,-1.62500000e-009,1.25000009e-005
,,,-1.60000000e-009,1.40625010e-005
,,,-1.57500000e-009,1.32812509e-005
,,,-1.55000000e-009,1.09375008e-005
,,,-1.52500000e-009,7.03125050e-006
,,,-1.50000000e-009,3.12500022e-006
,,,-1.47500000e-009,0.00000000e+000
,,,-1.45000000e-009,-8.59375061e-006
,,,-1.42500000e-009,-1.56250011e-005
,,,-1.40000000e-009,-2.18750015e-005
,,,-1.37500000e-009,-2.42187517e-005
,,,-1.35000000e-009,-2.34375017e-005
,,,-1.32500000e-009,-1.87500013e-005
,,,-1.30000000e-009,-1.09375008e-005
,,,-1.27500000e-009,0.00000000e+000
,,,-1.25000000e-009,0.00000000e+000
,,,-1.22500000e-009,-7.81250055e-007
,,,-1.20000000e-009,-2.34375017e-006
,,,-1.17500000e-009,-3.12500022e-006
,,,-1.15000000e-009,-3.90625028e-006
,,,-1.12500000e-009,-3.12500022e-006
,,,-1.10000000e-009,-1.56250011e-006
,,,-1.07500000e-009,0.00000000e+000
,,,-1.05000000e-009,-1.95312514e-005
,,,-1.02500000e-009,-4.45312532e-005
,,,-1.00000000e-009,-7.18750051e-005
,,,-9.75000000e-010,-1.00781257e-004
,,,-9.50000000e-010,-1.28906259e-004
,,,-9.25000000e-010,-1.55468761e-004
,,,-9.00000000e-010,-1.78906263e-004
,,,-8.75000000e-010,-2.00000014e-004
,,,-8.50000000e-010,-2.46875017e-004
,,,-8.25000000e-010,-2.96875021e-004
,,,-8.00000000e-010,-3.49218775e-004
,,,-7.75000000e-010,-4.01562528e-004
,,,-7.50000000e-010,-4.52343782e-004
,,,-7.25000000e-010,-5.02343786e-004
,,,-7.00000000e-010,-5.51562539e-004
,,,-6.75000000e-010,-6.00000042e-004
,,,-6.50000000e-010,-6.79687548e-004
,,,-6.25000000e-010,-7.67968804e-004
,,,-6.00000000e-010,-8.62500061e-004
,,,-5.75000000e-010,-9.63281318e-004
,,,-5.50000000e-010,-1.06718758e-003
,,,-5.25000000e-010,-1.17500008e-003
,,,-5.00000000e-010,-1.28515634e-003
,,,-4.75000000e-010,-1.40000010e-003
,,,-4.50000000e-010,-1.54218761e-003
,,,-4.25000000e-010,-1.69453137e-003
,,,-4.00000000e-010,-1.85859388e-003
,,,-3.75000000e-010,-2.03125014e-003
,,,-3.50000000e-010,-2.21250016e-003
,,,-3.25000000e-010,-2.40156267e-003
,,,-3.00000000e-010,-2.59765643e-003
,,,-2.75000000e-010,-2.80000020e-003
,,,-2.50000000e-010,-3.01562521e-003
,,,-2.25000000e-010,-3.23984398e-003
,,,-2.00000000e-010,-3.46953150e-003
,,,-1.75000000e-010,-3.70156276e-003
,,,-1.50000000e-010,-3.93281278e-003
,,,-1.25000000e-010,-4.16093779e-003
,,,-1.00000000e-010,-4.38359406e-003
,,,-7.50000000e-011,-4.60000033e-003
,,,-5.00000000e-011,-4.80000034e-003
,,,-2.50000000e-011,-4.99843785e-003
,,,0.00000000e+000,-5.19609412e-003
,,,2.50000000e-011,-5.39453163e-003
,,,5.00000000e-011,-5.59453165e-003
,,,7.50000000e-011,-5.79609416e-003
,,,1.00000000e-010,-5.99843792e-003
,,,1.25000000e-010,-6.20000044e-003
,,,1.50000000e-010,-6.37187545e-003
,,,1.75000000e-010,-6.54453171e-003
,,,2.00000000e-010,-6.71406298e-003
,,,2.25000000e-010,-6.87812549e-003
,,,2.50000000e-010,-7.03281300e-003
,,,2.75000000e-010,-7.17421926e-003
,,,3.00000000e-010,-7.29765677e-003
,,,3.25000000e-010,-7.40000052e-003
,,,3.50000000e-010,-7.44140678e-003
,,,3.75000000e-010,-7.46484428e-003
,,,4.00000000e-010,-7.47421928e-003
,,,4.25000000e-010,-7.47187553e-003
,,,4.50000000e-010,-7.46093803e-003
,,,4.75000000e-010,-7.44375053e-003
,,,5.00000000e-010,-7.42265678e-003
,,,5.25000000e-010,-7.40000052e-003
,,,5.50000000e-010,-7.33828177e-003
,,,5.75000000e-010,-7.28515677e-003
,,,6.00000000e-010,-7.24375051e-003
,,,6.25000000e-010,-7.21406301e-003
,,,6.50000000e-010,-7.19765676e-003
,,,6.75000000e-010,-7.19140676e-003
,,,7.00000000e-010,-7.19375051e-003
,,,7.25000000e-010,-7.20000051e-003
,,,7.50000000e-010,-7.16953176e-003
,,,7.75000000e-010,-7.13750051e-003
,,,8.00000000e-010,-7.10234425e-003
,,,8.25000000e-010,-7.06171925e-003
,,,8.50000000e-010,-7.01250050e-003
,,,8.75000000e-010,-6.95390674e-003
,,,9.00000000e-010,-6.88281299e-003
,,,9.25000000e-010,-6.80000048e-003
,,,9.50000000e-010,-6.67578172e-003
,,,9.75000000e-010,-6.54218796e-003
,,,1.00000000e-009,-6.40390670e-003
,,,1.02500000e-009,-6.26640669e-003
,,,1.05000000e-009,-6.13281293e-003
,,,1.07500000e-009,-6.00937543e-003
,,,1.10000000e-009,-5.89765667e-003
,,,1.12500000e-009,-5.80000041e-003
,,,1.15000000e-009,-5.70078165e-003
,,,1.17500000e-009,-5.61328165e-003
,,,1.20000000e-009,-5.53515664e-003
,,,1.22500000e-009,-5.46484414e-003
,,,1.25000000e-009,-5.40000038e-003
,,,1.27500000e-009,-5.33593788e-003
,,,1.30000000e-009,-5.27109412e-003
,,,1.32500000e-009,-5.20000037e-003
,,,1.35000000e-009,-5.11250036e-003
,,,1.37500000e-009,-5.01093785e-003
,,,1.40000000e-009,-4.89531285e-003
,,,1.42500000e-009,-4.76796909e-003
,,,1.45000000e-009,-4.63125033e-003
,,,1.47500000e-009,-4.48828157e-003
,,,1.50000000e-009,-4.34375031e-003
,,,1.52500000e-009,-4.20000030e-003
,,,1.55000000e-009,-4.05859404e-003
,,,1.57500000e-009,-3.91875028e-003
,,,1.60000000e-009,-3.78281277e-003
,,,1.62500000e-009,-3.65156276e-003
,,,1.65000000e-009,-3.52578150e-003
,,,1.67500000e-009,-3.40859399e-003
,,,1.70000000e-009,-3.30000023e-003
,,,1.72500000e-009,-3.20000023e-003
,,,1.75000000e-009,-3.11406272e-003
,,,1.77500000e-009,-3.03203146e-003
,,,1.80000000e-009,-2.95156271e-003
,,,1.82500000e-009,-2.87343770e-003
,,,1.85000000e-009,-2.79843770e-003
,,,1.87500000e-009,-2.72734394e-003
,,,1.90000000e-009,-2.66093769e-003
,,,1.92500000e-009,-2.60000018e-003
,,,1.95000000e-009,-2.55156268e-003
,,,1.97500000e-009,-2.50312518e-003
,,,2.00000000e-009,-2.45312517e-003
,,,2.02500000e-009,-2.40156267e-003
,,,2.05000000e-009,-2.35000017e-003
,,,2.07500000e-009,-2.29843766e-003
,,,2.10000000e-009,-2.24843766e-003
,,,2.12500000e-009,-2.20000016e-003
,,,2.15000000e-009,-2.16093765e-003
,,,2.17500000e-009,-2.11953140e-003
,,,2.20000000e-009,-2.07343765e-003
,,,2.22500000e-009,-2.02343764e-003
,,,2.25000000e-009,-1.97031264e-003
,,,2.27500000e-009,-1.91484389e-003
,,,2.30000000e-009,-1.85781263e-003
,,,2.32500000e-009,-1.80000013e-003
,,,2.35000000e-009,-1.75156262e-003
,,,2.37500000e-009,-1.70000012e-003
,,,2.40000000e-009,-1.64609387e-003
,,,2.42500000e-009,-1.59218761e-003
,,,2.45000000e-009,-1.53828136e-003
,,,2.47500000e-009,-1.48750011e-003
,,,2.50000000e-009,-1.44062510e-003
,,,2.52500000e-009,-1.40000010e-003
,,,2.55000000e-009,-1.37265635e-003
,,,2.57500000e-009,-1.34843760e-003
,,,2.60000000e-009,-1.32500009e-003
,,,2.62500000e-009,-1.30156259e-003
,,,2.65000000e-009,-1.27734384e-003
,,,2.67500000e-009,-1.25312509e-003
,,,2.70000000e-009,-1.22656259e-003
,,,2.72500000e-009,-1.20000008e-003
,,,2.75000000e-009,-1.17734383e-003
,,,2.77500000e-009,-1.15156258e-003
,,,2.80000000e-009,-1.12343758e-003
,,,2.82500000e-009,-1.09453133e-003
,,,2.85000000e-009,-1.06640633e-003
,,,2.87500000e-009,-1.03984382e-003
,,,2.90000000e-009,-1.01718757e-003
,,,2.92500000e-009,-1.00000007e-003
,,,2.95000000e-009,-9.92187570e-004
,,,2.97500000e-009,-9.87500070e-004
,,,3.00000000e-009,-9.85937570e-004
,,,3.02500000e-009,-9.86718820e-004
,,,3.05000000e-009,-9.89062570e-004
,,,3.07500000e-009,-9.92968820e-004
,,,3.10000000e-009,-9.96093821e-004
,,,3.12500000e-009,-1.00000007e-003
,,,3.15000000e-009,-1.00390632e-003
,,,3.17500000e-009,-1.00546882e-003
,,,3.20000000e-009,-1.00546882e-003
,,,3.22500000e-009,-1.00312507e-003
,,,3.25000000e-009,-1.00000007e-003
,,,3.27500000e-009,-9.98437571e-004
,,,3.30000000e-009,-9.97656321e-004
,,,3.32500000e-009,-1.00000007e-003
,,,3.35000000e-009,-1.00468757e-003
,,,3.37500000e-009,-1.01015632e-003
,,,3.40000000e-009,-1.01484382e-003
,,,3.42500000e-009,-1.01796882e-003
,,,3.45000000e-009,-1.01953132e-003
,,,3.47500000e-009,-1.01718757e-003
,,,3.50000000e-009,-1.01093757e-003
,,,3.52500000e-009,-1.00000007e-003
,,,3.55000000e-009,-9.82812570e-004
,,,3.57500000e-009,-9.60937568e-004
,,,3.60000000e-009,-9.35156316e-004
,,,3.62500000e-009,-9.07031314e-004
,,,3.65000000e-009,-8.78125062e-004
,,,3.67500000e-009,-8.50000060e-004
,,,3.70000000e-009,-8.23437558e-004
,,,3.72500000e-009,-8.00000057e-004
,,,3.75000000e-009,-7.78125055e-004
,,,3.77500000e-009,-7.57031304e-004
,,,3.80000000e-009,-7.36718802e-004
,,,3.82500000e-009,-7.15625051e-004
,,,3.85000000e-009,-6.92187549e-004
,,,3.87500000e-009,-6.65625047e-004
,,,3.90000000e-009,-6.34375045e-004
,,,3.92500000e-009,-6.00000042e-004
,,,3.95000000e-009,-5.63281290e-004
,,,3.97500000e-009,-5.25781287e-004
,,,4.00000000e-009,-4.89062535e-004
,,,4.02500000e-009,-4.55468782e-004
,,,4.05000000e-009,-4.27343780e-004
,,,4.07500000e-009,-4.07812529e-004
,,,4.10000000e-009,-3.98437528e-004
,,,4.12500000e-009,-4.00000028e-004
,,,4.15000000e-009,-4.13281279e-004
,,,4.17500000e-009,-4.35156281e-004
,,,4.20000000e-009,-4.64062533e-004
,,,4.22500000e-009,-4.96093785e-004
,,,4.25000000e-009,-5.28906287e-004
,,,4.27500000e-009,-5.59375040e-004
,,,4.30000000e-009,-5.83593791e-004
,,,4.32500000e-009,-6.00000042e-004
,,,4.35000000e-009,-6.05468793e-004
,,,4.37500000e-009,-5.99218792e-004
,,,4.40000000e-009,-5.82031291e-004
,,,4.42500000e-009,-5.55468789e-004
,,,4.45000000e-009,-5.20312537e-004
,,,4.47500000e-009,-4.81250034e-004
,,,4.50000000e-009,-4.39843781e-004
,,,4.52500000e-009,-4.00000028e-004
,,,4.55000000e-009,-3.65625026e-004
,,,4.57500000e-009,-3.39062524e-004
,,,4.60000000e-009,-3.21875023e-004
,,,4.62500000e-009,-3.14843772e-004
,,,4.65000000e-009,-3.19531273e-004
,,,4.67500000e-009,-3.35937524e-004
,,,4.70000000e-009,-3.63281276e-004
,,,4.72500000e-009,-4.00000028e-004
,,,4.75000000e-009,-4.42968781e-004
,,,4.77500000e-009,-4.87500035e-004
,,,4.80000000e-009,-5.29687537e-004
,,,4.82500000e-009,-5.67187540e-004
,,,4.85000000e-009,-5.94531292e-004
,,,4.87500000e-009,-6.10937543e-004
,,,4.90000000e-009,-6.12500043e-004
,,,4.92500000e-009,-6.00000042e-004
,,,4.95000000e-009,-5.70312540e-004
,,,4.97500000e-009,-5.27343787e-004
,,,5.00000000e-009,-4.75000034e-004
,,,5.02500000e-009,-4.15625029e-004
,,,5.05000000e-009,-3.54687525e-004
,,,5.07500000e-009,-2.96093771e-004
,,,5.10000000e-009,-2.42968767e-004
,,,5.12500000e-009,-2.00000014e-004
,,,5.15000000e-009,-1.67968762e-004
,,,5.17500000e-009,-1.48437511e-004
,,,5.20000000e-009,-1.41406260e-004
,,,5.22500000e-009,-1.42968760e-004
,,,5.25000000e-009,-1.53125011e-004
,,,5.27500000e-009,-1.67187512e-004
,,,5.30000000e-009,-1.83593763e-004
,,,5.32500000e-009,-2.00000014e-004
,,,5.35000000e-009,-2.14843765e-004
,,,5.37500000e-009,-2.25781266e-004
,,,5.40000000e-009,-2.31250016e-004
,,,5.42500000e-009,-2.31250016e-004
,,,5.45000000e-009,-2.26562516e-004
,,,5.47500000e-009,-2.19531266e-004
,,,5.50000000e-009,-2.09375015e-004
,,,5.52500000e-009,-2.00000014e-004
,,,5.55000000e-009,-1.92187514e-004
,,,5.57500000e-009,-1.86718763e-004
,,,5.60000000e-009,-1.83593763e-004
,,,5.62500000e-009,-1.83593763e-004
,,,5.65000000e-009,-1.85156263e-004
,,,5.67500000e-009,-1.89062513e-004
,,,5.70000000e-009,-1.93750014e-004
,,,5.72500000e-009,-2.00000014e-004
,,,5.75000000e-009,-2.07812515e-004
,,,5.77500000e-009,-2.14843765e-004
,,,5.80000000e-009,-2.19531266e-004
,,,5.82500000e-009,-2.21875016e-004
,,,5.85000000e-009,-2.21093766e-004
,,,5.87500000e-009,-2.17187515e-004
