RawData/SinglePhotoelectron/R4_25foot_5mV/wave003_Ch1.csv

"Record Length",1000,"Points",-7.72500000e-009,1.96406913e-004
"Sample Interval",2.50000000e-011,s,-7.70000000e-009,1.80000663e-004
"Trigger Point",309,"Samples",-7.67500000e-009,1.65000663e-004
"Trigger Time",1.61496296e-011,s,-7.65000000e-009,1.52813163e-004
"",,,-7.62500000e-009,1.44844412e-004
"Horizontal Offset",-7.72500000e-009,s,-7.60000000e-009,1.41563162e-004
,,,-7.57500000e-009,1.42969412e-004
,,,-7.55000000e-009,1.50469413e-004
,,,-7.52500000e-009,1.62656913e-004
,,,-7.50000000e-009,1.80000663e-004
,,,-7.47500000e-009,2.02031913e-004
,,,-7.45000000e-009,2.25938163e-004
,,,-7.42500000e-009,2.49375663e-004
,,,-7.40000000e-009,2.70469414e-004
,,,-7.37500000e-009,2.87813164e-004
,,,-7.35000000e-009,2.98594414e-004
,,,-7.32500000e-009,3.02813164e-004
,,,-7.30000000e-009,3.00000664e-004
,,,-7.27500000e-009,2.90156914e-004
,,,-7.25000000e-009,2.74688164e-004
,,,-7.22500000e-009,2.55469413e-004
,,,-7.20000000e-009,2.34844413e-004
,,,-7.17500000e-009,2.14688163e-004
,,,-7.15000000e-009,1.97344413e-004
,,,-7.12500000e-009,1.85156913e-004
,,,-7.10000000e-009,1.80000663e-004
,,,-7.07500000e-009,1.83281913e-004
,,,-7.05000000e-009,1.94063163e-004
,,,-7.02500000e-009,2.10000663e-004
,,,-7.00000000e-009,2.29688163e-004
,,,-6.97500000e-009,2.50313163e-004
,,,-6.95000000e-009,2.70469414e-004
,,,-6.92500000e-009,2.87344414e-004
,,,-6.90000000e-009,3.00000664e-004
,,,-6.87500000e-009,3.07500664e-004
,,,-6.85000000e-009,3.10313164e-004
,,,-6.82500000e-009,3.08906914e-004
,,,-6.80000000e-009,3.05156914e-004
,,,-6.77500000e-009,3.00000664e-004
,,,-6.75000000e-009,2.96719414e-004
,,,-6.72500000e-009,2.96250664e-004
,,,-6.70000000e-009,3.00000664e-004
,,,-6.67500000e-009,3.08438164e-004
,,,-6.65000000e-009,3.21563164e-004
,,,-6.62500000e-009,3.38438164e-004
,,,-6.60000000e-009,3.57656914e-004
,,,-6.57500000e-009,3.77344415e-004
,,,-6.55000000e-009,3.95156915e-004
,,,-6.52500000e-009,4.09688165e-004
,,,-6.50000000e-009,4.20000665e-004
,,,-6.47500000e-009,4.22813165e-004
,,,-6.45000000e-009,4.21875665e-004
,,,-6.42500000e-009,4.18125665e-004
,,,-6.40000000e-009,4.12969415e-004
,,,-6.37500000e-009,4.08750665e-004
,,,-6.35000000e-009,4.07813165e-004
,,,-6.32500000e-009,4.11094415e-004
,,,-6.30000000e-009,4.20000665e-004
,,,-6.27500000e-009,4.31719415e-004
,,,-6.25000000e-009,4.48125665e-004
,,,-6.22500000e-009,4.67344415e-004
,,,-6.20000000e-009,4.87969415e-004
,,,-6.17500000e-009,5.07188166e-004
,,,-6.15000000e-009,5.23594416e-004
,,,-6.12500000e-009,5.34844416e-004
,,,-6.10000000e-009,5.40000666e-004
,,,-6.07500000e-009,5.33438166e-004
,,,-6.05000000e-009,5.20781916e-004
,,,-6.02500000e-009,5.02969416e-004
,,,-6.00000000e-009,4.82813165e-004
,,,-5.97500000e-009,4.62188165e-004
,,,-5.95000000e-009,4.43438165e-004
,,,-5.92500000e-009,4.28906915e-004
,,,-5.90000000e-009,4.20000665e-004
,,,-5.87500000e-009,4.13438165e-004
,,,-5.85000000e-009,4.12500665e-004
,,,-5.82500000e-009,4.15313165e-004
,,,-5.80000000e-009,4.20000665e-004
,,,-5.77500000e-009,4.25156915e-004
,,,-5.75000000e-009,4.28438165e-004
,,,-5.72500000e-009,4.27031915e-004
,,,-5.70000000e-009,4.20000665e-004
,,,-5.67500000e-009,4.03594415e-004
,,,-5.65000000e-009,3.80625665e-004
,,,-5.62500000e-009,3.52031914e-004
,,,-5.60000000e-009,3.18750664e-004
,,,-5.57500000e-009,2.83125664e-004
,,,-5.55000000e-009,2.46563163e-004
,,,-5.52500000e-009,2.11875663e-004
,,,-5.50000000e-009,1.80000663e-004
,,,-5.47500000e-009,1.51406913e-004
,,,-5.45000000e-009,1.27969412e-004
,,,-5.42500000e-009,1.08750662e-004
,,,-5.40000000e-009,9.42194121e-005
,,,-5.37500000e-009,8.29694120e-005
,,,-5.35000000e-009,7.45319119e-005
,,,-5.32500000e-009,6.70319118e-005
,,,-5.30000000e-009,6.00006618e-005
,,,-5.27500000e-009,5.25006617e-005
,,,-5.25000000e-009,4.31256616e-005
,,,-5.22500000e-009,3.09381615e-005
,,,-5.20000000e-009,1.64069114e-005
,,,-5.17500000e-009,-9.36838769e-007
,,,-5.15000000e-009,-2.01555889e-005
,,,-5.12500000e-009,-4.03118391e-005
,,,-5.10000000e-009,-5.99993393e-005
,,,-5.07500000e-009,-7.54680894e-005
,,,-5.05000000e-009,-8.81243395e-005
,,,-5.02500000e-009,-9.74993396e-005
,,,-5.00000000e-009,-1.01718090e-004
,,,-4.97500000e-009,-1.00311840e-004
,,,-4.95000000e-009,-9.28118396e-005
,,,-4.92500000e-009,-7.92180894e-005
,,,-4.90000000e-009,-5.99993393e-005
,,,-4.87500000e-009,-3.51555891e-005
,,,-4.85000000e-009,-8.43683883e-006
,,,-4.82500000e-009,1.73444114e-005
,,,-4.80000000e-009,3.98444116e-005
,,,-4.77500000e-009,5.71881617e-005
,,,-4.75000000e-009,6.70319118e-005
,,,-4.72500000e-009,6.79694118e-005
,,,-4.70000000e-009,6.00006618e-005
,,,-4.67500000e-009,4.35944116e-005
,,,-4.65000000e-009,1.87506614e-005
,,,-4.62500000e-009,-1.31243389e-005
,,,-4.60000000e-009,-4.87493392e-005
,,,-4.57500000e-009,-8.67180895e-005
,,,-4.55000000e-009,-1.22811840e-004
,,,-4.52500000e-009,-1.54686840e-004
,,,-4.50000000e-009,-1.79999340e-004
,,,-4.47500000e-009,-1.95468090e-004
,,,-4.45000000e-009,-2.00624341e-004
,,,-4.42500000e-009,-1.95936840e-004
,,,-4.40000000e-009,-1.82343090e-004
,,,-4.37500000e-009,-1.59843090e-004
,,,-4.35000000e-009,-1.30780590e-004
,,,-4.32500000e-009,-9.65618396e-005
,,,-4.30000000e-009,-5.99993393e-005
,,,-4.27500000e-009,-2.34368390e-005
,,,-4.25000000e-009,1.03131613e-005
,,,-4.22500000e-009,3.84381616e-005
,,,-4.20000000e-009,5.95319118e-005
,,,-4.17500000e-009,7.26569119e-005
,,,-4.15000000e-009,7.68756619e-005
,,,-4.12500000e-009,7.21881619e-005
,,,-4.10000000e-009,6.00006618e-005
,,,-4.07500000e-009,3.98444116e-005
,,,-4.05000000e-009,1.59381614e-005
,,,-4.02500000e-009,-8.43683883e-006
,,,-4.00000000e-009,-3.14055890e-005
,,,-3.97500000e-009,-5.01555892e-005
,,,-3.95000000e-009,-6.18743393e-005
,,,-3.92500000e-009,-6.56243393e-005
,,,-3.90000000e-009,-5.99993393e-005
,,,-3.87500000e-009,-4.68743392e-005
,,,-3.85000000e-009,-2.71868390e-005
,,,-3.82500000e-009,-3.28058879e-006
,,,-3.80000000e-009,2.06256614e-005
,,,-3.77500000e-009,4.21881616e-005
,,,-3.75000000e-009,5.71881617e-005
,,,-3.72500000e-009,6.37506618e-005
,,,-3.70000000e-009,6.00006618e-005
,,,-3.67500000e-009,4.50006616e-005
,,,-3.65000000e-009,2.01569114e-005
,,,-3.62500000e-009,-1.26555889e-005
,,,-3.60000000e-009,-5.06243392e-005
,,,-3.57500000e-009,-8.95305895e-005
,,,-3.55000000e-009,-1.26093090e-004
,,,-3.52500000e-009,-1.57499340e-004
,,,-3.50000000e-009,-1.79999340e-004
,,,-3.47500000e-009,-1.92186840e-004
,,,-3.45000000e-009,-1.92655590e-004
,,,-3.42500000e-009,-1.83280590e-004
,,,-3.40000000e-009,-1.65468090e-004
,,,-3.37500000e-009,-1.41093090e-004
,,,-3.35000000e-009,-1.13436840e-004
,,,-3.32500000e-009,-8.57805895e-005
,,,-3.30000000e-009,-5.99993393e-005
,,,-3.27500000e-009,-3.89055891e-005
,,,-3.25000000e-009,-2.39055890e-005
,,,-3.22500000e-009,-1.59368389e-005
,,,-3.20000000e-009,-1.49993389e-005
,,,-3.17500000e-009,-2.06243389e-005
,,,-3.15000000e-009,-3.09368390e-005
,,,-3.12500000e-009,-4.45305891e-005
,,,-3.10000000e-009,-5.99993393e-005
,,,-3.07500000e-009,-7.49993394e-005
,,,-3.05000000e-009,-8.76555895e-005
,,,-3.02500000e-009,-9.65618396e-005
,,,-3.00000000e-009,-1.00780590e-004
,,,-2.97500000e-009,-9.93743396e-005
,,,-2.95000000e-009,-9.18743396e-005
,,,-2.92500000e-009,-7.87493394e-005
,,,-2.90000000e-009,-5.99993393e-005
,,,-2.87500000e-009,-3.89055891e-005
,,,-2.85000000e-009,-1.54680889e-005
,,,-2.82500000e-009,7.50066130e-006
,,,-2.80000000e-009,2.85944115e-005
,,,-2.77500000e-009,4.54694116e-005
,,,-2.75000000e-009,5.71881617e-005
,,,-2.72500000e-009,6.18756618e-005
,,,-2.70000000e-009,6.00006618e-005
,,,-2.67500000e-009,4.96881617e-005
,,,-2.65000000e-009,3.37506615e-005
,,,-2.62500000e-009,1.40631614e-005
,,,-2.60000000e-009,-7.03058882e-006
,,,-2.57500000e-009,-2.71868390e-005
,,,-2.55000000e-009,-4.40618391e-005
,,,-2.52500000e-009,-5.57805892e-005
,,,-2.50000000e-009,-5.99993393e-005
,,,-2.47500000e-009,-5.85930893e-005
,,,-2.45000000e-009,-4.92180892e-005
,,,-2.42500000e-009,-3.42180891e-005
,,,-2.40000000e-009,-1.45305889e-005
,,,-2.37500000e-009,7.03191130e-006
,,,-2.35000000e-009,2.81256615e-005
,,,-2.32500000e-009,4.64069116e-005
,,,-2.30000000e-009,6.00006618e-005
,,,-2.27500000e-009,6.51569118e-005
,,,-2.25000000e-009,6.28131618e-005
,,,-2.22500000e-009,5.39069117e-005
,,,-2.20000000e-009,3.79694116e-005
,,,-2.17500000e-009,1.73444114e-005
,,,-2.15000000e-009,-7.03058882e-006
,,,-2.12500000e-009,-3.32805891e-005
,,,-2.10000000e-009,-5.99993393e-005
,,,-2.07500000e-009,-8.67180895e-005
,,,-2.05000000e-009,-1.10624340e-004
,,,-2.02500000e-009,-1.31249340e-004
,,,-2.00000000e-009,-1.48593090e-004
,,,-1.97500000e-009,-1.61249340e-004
,,,-1.95000000e-009,-1.70624340e-004
,,,-1.92500000e-009,-1.76718090e-004
,,,-1.90000000e-009,-1.79999340e-004
,,,-1.87500000e-009,-1.83749340e-004
,,,-1.85000000e-009,-1.86093090e-004
,,,-1.82500000e-009,-1.87968090e-004
,,,-1.80000000e-009,-1.88436840e-004
,,,-1.77500000e-009,-1.87968090e-004
,,,-1.75000000e-009,-1.86561840e-004
,,,-1.72500000e-009,-1.83749340e-004
,,,-1.70000000e-009,-1.79999340e-004
,,,-1.67500000e-009,-1.81405590e-004
,,,-1.65000000e-009,-1.83280590e-004
,,,-1.62500000e-009,-1.85155590e-004
,,,-1.60000000e-009,-1.87030590e-004
,,,-1.57500000e-009,-1.87499340e-004
,,,-1.55000000e-009,-1.87030590e-004
,,,-1.52500000e-009,-1.84686840e-004
,,,-1.50000000e-009,-1.79999340e-004
,,,-1.47500000e-009,-1.84686840e-004
,,,-1.45000000e-009,-1.89843090e-004
,,,-1.42500000e-009,-1.93593090e-004
,,,-1.40000000e-009,-1.96405590e-004
,,,-1.37500000e-009,-1.96405590e-004
,,,-1.35000000e-009,-1.93593090e-004
,,,-1.32500000e-009,-1.87968090e-004
,,,-1.30000000e-009,-1.79999340e-004
,,,-1.27500000e-009,-1.86561840e-004
,,,-1.25000000e-009,-1.95936840e-004
,,,-1.22500000e-009,-2.08124341e-004
,,,-1.20000000e-009,-2.22186841e-004
,,,-1.17500000e-009,-2.38593091e-004
,,,-1.15000000e-009,-2.56874341e-004
,,,-1.12500000e-009,-2.77030591e-004
,,,-1.10000000e-009,-2.99999341e-004
,,,-1.07500000e-009,-3.46874342e-004
,,,-1.05000000e-009,-4.00311842e-004
,,,-1.02500000e-009,-4.58905593e-004
,,,-1.00000000e-009,-5.21718093e-004
,,,-9.75000000e-010,-5.86405594e-004
,,,-9.50000000e-010,-6.51561844e-004
,,,-9.25000000e-010,-7.16249345e-004
,,,-9.00000000e-010,-7.79999346e-004
,,,-8.75000000e-010,-8.64374346e-004
,,,-8.50000000e-010,-9.52499347e-004
,,,-8.25000000e-010,-1.04249935e-003
,,,-8.00000000e-010,-1.13390560e-003
,,,-7.75000000e-010,-1.22578060e-003
,,,-7.50000000e-010,-1.31765560e-003
,,,-7.25000000e-010,-1.40859310e-003
,,,-7.00000000e-010,-1.49999935e-003
,,,-6.75000000e-010,-1.60921810e-003
,,,-6.50000000e-010,-1.72312435e-003
,,,-6.25000000e-010,-1.84171810e-003
,,,-6.00000000e-010,-1.96359311e-003
,,,-5.75000000e-010,-2.08781186e-003
,,,-5.50000000e-010,-2.21203061e-003
,,,-5.25000000e-010,-2.33671811e-003
,,,-5.00000000e-010,-2.45999936e-003
,,,-4.75000000e-010,-2.59218686e-003
,,,-4.50000000e-010,-2.72718686e-003
,,,-4.25000000e-010,-2.86453061e-003
,,,-4.00000000e-010,-3.00234311e-003
,,,-3.75000000e-010,-3.14015562e-003
,,,-3.50000000e-010,-3.27609312e-003
,,,-3.25000000e-010,-3.40921812e-003
,,,-3.00000000e-010,-3.53999937e-003
,,,-2.75000000e-010,-3.66656187e-003
,,,-2.50000000e-010,-3.79499937e-003
,,,-2.25000000e-010,-3.92671812e-003
,,,-2.00000000e-010,-4.06171812e-003
,,,-1.75000000e-010,-4.19906188e-003
,,,-1.50000000e-010,-4.33874938e-003
,,,-1.25000000e-010,-4.47937438e-003
,,,-1.00000000e-010,-4.61999938e-003
,,,-7.50000000e-011,-4.74562438e-003
,,,-5.00000000e-011,-4.87265563e-003
,,,-2.50000000e-011,-5.00015563e-003
,,,0.00000000e+000,-5.12671813e-003
,,,2.50000000e-011,-5.25046813e-003
,,,5.00000000e-011,-5.36812439e-003
,,,7.50000000e-011,-5.47874939e-003
,,,1.00000000e-010,-5.57999939e-003
,,,1.25000000e-010,-5.64796814e-003
,,,1.50000000e-010,-5.71031189e-003
,,,1.75000000e-010,-5.76937439e-003
,,,2.00000000e-010,-5.82656189e-003
,,,2.25000000e-010,-5.88374939e-003
,,,2.50000000e-010,-5.94187439e-003
,,,2.75000000e-010,-6.00093689e-003
,,,3.00000000e-010,-6.05999939e-003
,,,3.25000000e-010,-6.09046814e-003
,,,3.50000000e-010,-6.12281189e-003
,,,3.75000000e-010,-6.15703064e-003
,,,4.00000000e-010,-6.19218689e-003
,,,4.25000000e-010,-6.22687439e-003
,,,4.50000000e-010,-6.25781189e-003
,,,4.75000000e-010,-6.28359314e-003
,,,5.00000000e-010,-6.29999939e-003
,,,5.25000000e-010,-6.27562439e-003
,,,5.50000000e-010,-6.24140564e-003
,,,5.75000000e-010,-6.20062439e-003
,,,6.00000000e-010,-6.15374939e-003
,,,6.25000000e-010,-6.10359314e-003
,,,6.50000000e-010,-6.05062439e-003
,,,6.75000000e-010,-5.99578064e-003
,,,7.00000000e-010,-5.93999939e-003
,,,7.25000000e-010,-5.85890564e-003
,,,7.50000000e-010,-5.77828064e-003
,,,7.75000000e-010,-5.69953064e-003
,,,8.00000000e-010,-5.62406189e-003
,,,8.25000000e-010,-5.55093689e-003
,,,8.50000000e-010,-5.47968689e-003
,,,8.75000000e-010,-5.40984314e-003
,,,9.00000000e-010,-5.33999939e-003
,,,9.25000000e-010,-5.25046813e-003
,,,9.50000000e-010,-5.15812438e-003
,,,9.75000000e-010,-5.06531188e-003
,,,1.00000000e-009,-4.97249938e-003
,,,1.02500000e-009,-4.88109313e-003
,,,1.05000000e-009,-4.79156188e-003
,,,1.07500000e-009,-4.70484313e-003
,,,1.10000000e-009,-4.61999938e-003
,,,1.12500000e-009,-4.52578063e-003
,,,1.15000000e-009,-4.42921813e-003
,,,1.17500000e-009,-4.32937438e-003
,,,1.20000000e-009,-4.22624938e-003
,,,1.22500000e-009,-4.11984312e-003
,,,1.25000000e-009,-4.00968687e-003
,,,1.27500000e-009,-3.89624937e-003
,,,1.30000000e-009,-3.77999937e-003
,,,1.32500000e-009,-3.65999937e-003
,,,1.35000000e-009,-3.53718687e-003
,,,1.37500000e-009,-3.41531187e-003
,,,1.40000000e-009,-3.29765562e-003
,,,1.42500000e-009,-3.18890562e-003
,,,1.45000000e-009,-3.09140562e-003
,,,1.47500000e-009,-3.00796811e-003
,,,1.50000000e-009,-2.93999936e-003
,,,1.52500000e-009,-2.89171811e-003
,,,1.55000000e-009,-2.85046811e-003
,,,1.57500000e-009,-2.81343686e-003
,,,1.60000000e-009,-2.77734311e-003
,,,1.62500000e-009,-2.73843686e-003
,,,1.65000000e-009,-2.69437436e-003
,,,1.67500000e-009,-2.64234311e-003
,,,1.70000000e-009,-2.57999936e-003
,,,1.72500000e-009,-2.51390561e-003
,,,1.75000000e-009,-2.43328061e-003
,,,1.77500000e-009,-2.34140561e-003
,,,1.80000000e-009,-2.24156186e-003
,,,1.82500000e-009,-2.13890561e-003
,,,1.85000000e-009,-2.03812436e-003
,,,1.87500000e-009,-1.94390561e-003
,,,1.90000000e-009,-1.85999935e-003
,,,1.92500000e-009,-1.79906185e-003
,,,1.95000000e-009,-1.74656185e-003
,,,1.97500000e-009,-1.70062435e-003
,,,2.00000000e-009,-1.65984310e-003
,,,2.02500000e-009,-1.62140560e-003
,,,2.05000000e-009,-1.58343685e-003
,,,2.07500000e-009,-1.54359310e-003
,,,2.10000000e-009,-1.49999935e-003
,,,2.12500000e-009,-1.46296810e-003
,,,2.15000000e-009,-1.41890560e-003
,,,2.17500000e-009,-1.36874935e-003
,,,2.20000000e-009,-1.31531185e-003
,,,2.22500000e-009,-1.26234310e-003
,,,2.25000000e-009,-1.21359310e-003
,,,2.27500000e-009,-1.17187435e-003
,,,2.30000000e-009,-1.13999935e-003
,,,2.32500000e-009,-1.12921810e-003
,,,2.35000000e-009,-1.12593685e-003
,,,2.37500000e-009,-1.12828060e-003
,,,2.40000000e-009,-1.13390560e-003
,,,2.42500000e-009,-1.13999935e-003
,,,2.45000000e-009,-1.14421810e-003
,,,2.47500000e-009,-1.14468685e-003
,,,2.50000000e-009,-1.13999935e-003
,,,2.52500000e-009,-1.13484310e-003
,,,2.55000000e-009,-1.12218685e-003
,,,2.57500000e-009,-1.10343685e-003
,,,2.60000000e-009,-1.08093685e-003
,,,2.62500000e-009,-1.05843685e-003
,,,2.65000000e-009,-1.03874935e-003
,,,2.67500000e-009,-1.02562435e-003
,,,2.70000000e-009,-1.01999935e-003
,,,2.72500000e-009,-1.02890560e-003
,,,2.75000000e-009,-1.04343685e-003
,,,2.77500000e-009,-1.06265560e-003
,,,2.80000000e-009,-1.08374935e-003
,,,2.82500000e-009,-1.10437435e-003
,,,2.85000000e-009,-1.12218685e-003
,,,2.87500000e-009,-1.13437435e-003
,,,2.90000000e-009,-1.13999935e-003
,,,2.92500000e-009,-1.13953060e-003
,,,2.95000000e-009,-1.13015560e-003
,,,2.97500000e-009,-1.11421810e-003
,,,3.00000000e-009,-1.09359310e-003
,,,3.02500000e-009,-1.07109310e-003
,,,3.05000000e-009,-1.04999935e-003
,,,3.07500000e-009,-1.03218685e-003
,,,3.10000000e-009,-1.01999935e-003
,,,3.12500000e-009,-1.01484310e-003
,,,3.15000000e-009,-1.01531185e-003
,,,3.17500000e-009,-1.01906185e-003
,,,3.20000000e-009,-1.02468685e-003
,,,3.22500000e-009,-1.02984310e-003
,,,3.25000000e-009,-1.03218685e-003
,,,3.27500000e-009,-1.02984310e-003
,,,3.30000000e-009,-1.01999935e-003
,,,3.32500000e-009,-1.00171810e-003
,,,3.35000000e-009,-9.75468097e-004
,,,3.37500000e-009,-9.43593097e-004
,,,3.40000000e-009,-9.07968097e-004
,,,3.42500000e-009,-8.71405596e-004
,,,3.45000000e-009,-8.36249346e-004
,,,3.47500000e-009,-8.04843096e-004
,,,3.50000000e-009,-7.79999346e-004
,,,3.52500000e-009,-7.62186845e-004
,,,3.55000000e-009,-7.50936845e-004
,,,3.57500000e-009,-7.46718095e-004
,,,3.60000000e-009,-7.48124345e-004
,,,3.62500000e-009,-7.53749345e-004
,,,3.65000000e-009,-7.62186845e-004
,,,3.67500000e-009,-7.71561845e-004
,,,3.70000000e-009,-7.79999346e-004
,,,3.72500000e-009,-7.86561846e-004
,,,3.75000000e-009,-7.90311846e-004
,,,3.77500000e-009,-7.90780596e-004
,,,3.80000000e-009,-7.89374346e-004
,,,3.82500000e-009,-7.86561846e-004
,,,3.85000000e-009,-7.83749346e-004
,,,3.87500000e-009,-7.81405596e-004
,,,3.90000000e-009,-7.79999346e-004
,,,3.92500000e-009,-7.81405596e-004
,,,3.95000000e-009,-7.83280596e-004
,,,3.97500000e-009,-7.86093096e-004
,,,4.00000000e-009,-7.88905596e-004
,,,4.02500000e-009,-7.90780596e-004
,,,4.05000000e-009,-7.90311846e-004
,,,4.07500000e-009,-7.87499346e-004
,,,4.10000000e-009,-7.79999346e-004
,,,4.12500000e-009,-7.68280595e-004
,,,4.15000000e-009,-7.50468095e-004
,,,4.17500000e-009,-7.26561845e-004
,,,4.20000000e-009,-6.97499345e-004
,,,4.22500000e-009,-6.63280595e-004
,,,4.25000000e-009,-6.25311844e-004
,,,4.27500000e-009,-5.83593094e-004
,,,4.30000000e-009,-5.39999343e-004
,,,4.32500000e-009,-4.99218093e-004
,,,4.35000000e-009,-4.58905593e-004
,,,4.37500000e-009,-4.20936842e-004
,,,4.40000000e-009,-3.86718092e-004
,,,4.42500000e-009,-3.56249342e-004
,,,4.45000000e-009,-3.31405592e-004
,,,4.47500000e-009,-3.12655591e-004
,,,4.50000000e-009,-2.99999341e-004
,,,4.52500000e-009,-2.96718091e-004
,,,4.55000000e-009,-2.99530591e-004
,,,4.57500000e-009,-3.08436841e-004
,,,4.60000000e-009,-3.22968092e-004
,,,4.62500000e-009,-3.42186842e-004
,,,4.65000000e-009,-3.65624342e-004
,,,4.67500000e-009,-3.91874342e-004
,,,4.70000000e-009,-4.19999342e-004
,,,4.72500000e-009,-4.49999343e-004
,,,4.75000000e-009,-4.77655593e-004
,,,4.77500000e-009,-5.01561843e-004
,,,4.80000000e-009,-5.20780593e-004
,,,4.82500000e-009,-5.34374343e-004
,,,4.85000000e-009,-5.41874343e-004
,,,4.87500000e-009,-5.43749343e-004
,,,4.90000000e-009,-5.39999343e-004
,,,4.92500000e-009,-5.32499343e-004
,,,4.95000000e-009,-5.22655593e-004
,,,4.97500000e-009,-5.12811843e-004
,,,5.00000000e-009,-5.05780593e-004
,,,5.02500000e-009,-5.03436843e-004
,,,5.05000000e-009,-5.07655593e-004
,,,5.07500000e-009,-5.20311843e-004
,,,5.10000000e-009,-5.39999343e-004
,,,5.12500000e-009,-5.67655594e-004
,,,5.15000000e-009,-5.98593094e-004
,,,5.17500000e-009,-6.29530594e-004
,,,5.20000000e-009,-6.56249344e-004
,,,5.22500000e-009,-6.75936845e-004
,,,5.25000000e-009,-6.84374345e-004
,,,5.27500000e-009,-6.79686845e-004
,,,5.30000000e-009,-6.59999344e-004
,,,5.32500000e-009,-6.24374344e-004
,,,5.35000000e-009,-5.77030594e-004
,,,5.37500000e-009,-5.22186843e-004
,,,5.40000000e-009,-4.64530593e-004
,,,5.42500000e-009,-4.08749342e-004
,,,5.45000000e-009,-3.60468092e-004
,,,5.47500000e-009,-3.23436842e-004
,,,5.50000000e-009,-2.99999341e-004
,,,5.52500000e-009,-2.92968091e-004
,,,5.55000000e-009,-2.99999341e-004
,,,5.57500000e-009,-3.18749342e-004
,,,5.60000000e-009,-3.44061842e-004
,,,5.62500000e-009,-3.71249342e-004
,,,5.65000000e-009,-3.95624342e-004
,,,5.67500000e-009,-4.12968092e-004
,,,5.70000000e-009,-4.19999342e-004
,,,5.72500000e-009,-4.14843092e-004
,,,5.75000000e-009,-3.99374342e-004
,,,5.77500000e-009,-3.75936842e-004
,,,5.80000000e-009,-3.49218092e-004
,,,5.82500000e-009,-3.23905592e-004
,,,5.85000000e-009,-3.04686841e-004
,,,5.87500000e-009,-2.95780591e-004
,,,5.90000000e-009,-2.99999341e-004
