RawData/SinglePhotoelectron/R4_25foot_5mV/wave028_Ch1.csv

"Record Length",1000,"Points",-7.72500000e-009,1.75313163e-004
"Sample Interval",2.50000000e-011,s,-7.70000000e-009,1.65469413e-004
"Trigger Point",309,"Samples",-7.67500000e-009,1.50938163e-004
"Trigger Time",1.24922222e-011,s,-7.65000000e-009,1.33594412e-004
"",,,-7.62500000e-009,1.13906912e-004
"Horizontal Offset",-7.72500000e-009,s,-7.60000000e-009,9.42194121e-005
,,,-7.57500000e-009,7.59381619e-005
,,,-7.55000000e-009,6.00006618e-005
,,,-7.52500000e-009,4.73444117e-005
,,,-7.50000000e-009,3.93756616e-005
,,,-7.47500000e-009,3.56256615e-005
,,,-7.45000000e-009,3.60944116e-005
,,,-7.42500000e-009,3.98444116e-005
,,,-7.40000000e-009,4.54694116e-005
,,,-7.37500000e-009,5.25006617e-005
,,,-7.35000000e-009,6.00006618e-005
,,,-7.32500000e-009,6.51569118e-005
,,,-7.30000000e-009,6.93756618e-005
,,,-7.27500000e-009,7.21881619e-005
,,,-7.25000000e-009,7.26569119e-005
,,,-7.22500000e-009,7.17194119e-005
,,,-7.20000000e-009,6.89069118e-005
,,,-7.17500000e-009,6.46881618e-005
,,,-7.15000000e-009,6.00006618e-005
,,,-7.12500000e-009,5.43756617e-005
,,,-7.10000000e-009,4.92194117e-005
,,,-7.07500000e-009,4.54694116e-005
,,,-7.05000000e-009,4.35944116e-005
,,,-7.02500000e-009,4.35944116e-005
,,,-7.00000000e-009,4.64069116e-005
,,,-6.97500000e-009,5.15631617e-005
,,,-6.95000000e-009,6.00006618e-005
,,,-6.92500000e-009,7.03131619e-005
,,,-6.90000000e-009,8.34381620e-005
,,,-6.87500000e-009,9.84381621e-005
,,,-6.85000000e-009,1.14375662e-004
,,,-6.82500000e-009,1.31719412e-004
,,,-6.80000000e-009,1.48594413e-004
,,,-6.77500000e-009,1.65000663e-004
,,,-6.75000000e-009,1.80000663e-004
,,,-6.72500000e-009,1.91719413e-004
,,,-6.70000000e-009,2.01094413e-004
,,,-6.67500000e-009,2.06719413e-004
,,,-6.65000000e-009,2.08594413e-004
,,,-6.62500000e-009,2.06719413e-004
,,,-6.60000000e-009,2.01094413e-004
,,,-6.57500000e-009,1.91719413e-004
,,,-6.55000000e-009,1.80000663e-004
,,,-6.52500000e-009,1.63594413e-004
,,,-6.50000000e-009,1.46250663e-004
,,,-6.47500000e-009,1.27969412e-004
,,,-6.45000000e-009,1.10625662e-004
,,,-6.42500000e-009,9.42194121e-005
,,,-6.40000000e-009,8.01569119e-005
,,,-6.37500000e-009,6.84381618e-005
,,,-6.35000000e-009,6.00006618e-005
,,,-6.32500000e-009,5.48444117e-005
,,,-6.30000000e-009,5.25006617e-005
,,,-6.27500000e-009,5.29694117e-005
,,,-6.25000000e-009,5.48444117e-005
,,,-6.22500000e-009,5.67194117e-005
,,,-6.20000000e-009,5.90631618e-005
,,,-6.17500000e-009,6.00006618e-005
,,,-6.15000000e-009,6.00006618e-005
,,,-6.12500000e-009,5.81256617e-005
,,,-6.10000000e-009,5.57819117e-005
,,,-6.07500000e-009,5.29694117e-005
,,,-6.05000000e-009,5.06256617e-005
,,,-6.02500000e-009,4.96881617e-005
,,,-6.00000000e-009,5.06256617e-005
,,,-5.97500000e-009,5.39069117e-005
,,,-5.95000000e-009,6.00006618e-005
,,,-5.92500000e-009,6.75006618e-005
,,,-5.90000000e-009,7.59381619e-005
,,,-5.87500000e-009,8.34381620e-005
,,,-5.85000000e-009,8.85944120e-005
,,,-5.82500000e-009,9.00006620e-005
,,,-5.80000000e-009,8.57819120e-005
,,,-5.77500000e-009,7.59381619e-005
,,,-5.75000000e-009,6.00006618e-005
,,,-5.72500000e-009,3.93756616e-005
,,,-5.70000000e-009,1.59381614e-005
,,,-5.67500000e-009,-8.90558884e-006
,,,-5.65000000e-009,-3.18743390e-005
,,,-5.62500000e-009,-5.10930892e-005
,,,-5.60000000e-009,-6.32805893e-005
,,,-5.57500000e-009,-6.65618393e-005
,,,-5.55000000e-009,-5.99993393e-005
,,,-5.52500000e-009,-4.17180891e-005
,,,-5.50000000e-009,-1.40618389e-005
,,,-5.47500000e-009,1.96881614e-005
,,,-5.45000000e-009,5.71881617e-005
,,,-5.42500000e-009,9.51569121e-005
,,,-5.40000000e-009,1.29844412e-004
,,,-5.37500000e-009,1.58906913e-004
,,,-5.35000000e-009,1.80000663e-004
,,,-5.32500000e-009,1.89844413e-004
,,,-5.30000000e-009,1.89844413e-004
,,,-5.27500000e-009,1.80469413e-004
,,,-5.25000000e-009,1.62656913e-004
,,,-5.22500000e-009,1.39219412e-004
,,,-5.20000000e-009,1.12500662e-004
,,,-5.17500000e-009,8.53131620e-005
,,,-5.15000000e-009,6.00006618e-005
,,,-5.12500000e-009,3.93756616e-005
,,,-5.10000000e-009,2.53131615e-005
,,,-5.07500000e-009,1.73444114e-005
,,,-5.05000000e-009,1.64069114e-005
,,,-5.02500000e-009,2.06256614e-005
,,,-5.00000000e-009,3.04694115e-005
,,,-4.97500000e-009,4.35944116e-005
,,,-4.95000000e-009,6.00006618e-005
,,,-4.92500000e-009,7.82819119e-005
,,,-4.90000000e-009,9.65631621e-005
,,,-4.87500000e-009,1.14844412e-004
,,,-4.85000000e-009,1.31719412e-004
,,,-4.82500000e-009,1.46719413e-004
,,,-4.80000000e-009,1.59844413e-004
,,,-4.77500000e-009,1.70625663e-004
,,,-4.75000000e-009,1.80000663e-004
,,,-4.72500000e-009,1.86563163e-004
,,,-4.70000000e-009,1.91250663e-004
,,,-4.67500000e-009,1.94063163e-004
,,,-4.65000000e-009,1.94531913e-004
,,,-4.62500000e-009,1.93594413e-004
,,,-4.60000000e-009,1.90313163e-004
,,,-4.57500000e-009,1.85625663e-004
,,,-4.55000000e-009,1.80000663e-004
,,,-4.52500000e-009,1.72500663e-004
,,,-4.50000000e-009,1.65938163e-004
,,,-4.47500000e-009,1.60781913e-004
,,,-4.45000000e-009,1.58438163e-004
,,,-4.42500000e-009,1.58438163e-004
,,,-4.40000000e-009,1.61719413e-004
,,,-4.37500000e-009,1.69219413e-004
,,,-4.35000000e-009,1.80000663e-004
,,,-4.32500000e-009,1.93125663e-004
,,,-4.30000000e-009,2.08594413e-004
,,,-4.27500000e-009,2.25469413e-004
,,,-4.25000000e-009,2.42813163e-004
,,,-4.22500000e-009,2.59688163e-004
,,,-4.20000000e-009,2.75625664e-004
,,,-4.17500000e-009,2.88750664e-004
,,,-4.15000000e-009,3.00000664e-004
,,,-4.12500000e-009,3.04688164e-004
,,,-4.10000000e-009,3.07031914e-004
,,,-4.07500000e-009,3.07031914e-004
,,,-4.05000000e-009,3.05156914e-004
,,,-4.02500000e-009,3.02813164e-004
,,,-4.00000000e-009,3.00938164e-004
,,,-3.97500000e-009,2.99531914e-004
,,,-3.95000000e-009,3.00000664e-004
,,,-3.92500000e-009,2.98594414e-004
,,,-3.90000000e-009,2.99063164e-004
,,,-3.87500000e-009,3.00469414e-004
,,,-3.85000000e-009,3.02344414e-004
,,,-3.82500000e-009,3.03750664e-004
,,,-3.80000000e-009,3.04688164e-004
,,,-3.77500000e-009,3.03281914e-004
,,,-3.75000000e-009,3.00000664e-004
,,,-3.72500000e-009,2.91094414e-004
,,,-3.70000000e-009,2.79375664e-004
,,,-3.67500000e-009,2.65313164e-004
,,,-3.65000000e-009,2.49375663e-004
,,,-3.62500000e-009,2.32031913e-004
,,,-3.60000000e-009,2.14219413e-004
,,,-3.57500000e-009,1.96875663e-004
,,,-3.55000000e-009,1.80000663e-004
,,,-3.52500000e-009,1.62656913e-004
,,,-3.50000000e-009,1.46719413e-004
,,,-3.47500000e-009,1.31719412e-004
,,,-3.45000000e-009,1.17656912e-004
,,,-3.42500000e-009,1.03594412e-004
,,,-3.40000000e-009,8.95319120e-005
,,,-3.37500000e-009,7.50006619e-005
,,,-3.35000000e-009,6.00006618e-005
,,,-3.32500000e-009,4.40631616e-005
,,,-3.30000000e-009,2.76569115e-005
,,,-3.27500000e-009,1.12506613e-005
,,,-3.25000000e-009,-5.15558881e-006
,,,-3.22500000e-009,-2.10930889e-005
,,,-3.20000000e-009,-3.60930891e-005
,,,-3.17500000e-009,-4.92180892e-005
,,,-3.15000000e-009,-5.99993393e-005
,,,-3.12500000e-009,-6.65618393e-005
,,,-3.10000000e-009,-7.07805894e-005
,,,-3.07500000e-009,-7.26555894e-005
,,,-3.05000000e-009,-7.26555894e-005
,,,-3.02500000e-009,-7.07805894e-005
,,,-3.00000000e-009,-6.79680894e-005
,,,-2.97500000e-009,-6.42180893e-005
,,,-2.95000000e-009,-5.99993393e-005
,,,-2.92500000e-009,-5.39055892e-005
,,,-2.90000000e-009,-4.92180892e-005
,,,-2.87500000e-009,-4.54680892e-005
,,,-2.85000000e-009,-4.40618391e-005
,,,-2.82500000e-009,-4.49993392e-005
,,,-2.80000000e-009,-4.82805892e-005
,,,-2.77500000e-009,-5.34368392e-005
,,,-2.75000000e-009,-5.99993393e-005
,,,-2.72500000e-009,-6.56243393e-005
,,,-2.70000000e-009,-7.12493394e-005
,,,-2.67500000e-009,-7.64055894e-005
,,,-2.65000000e-009,-7.96868395e-005
,,,-2.62500000e-009,-8.01555895e-005
,,,-2.60000000e-009,-7.73430894e-005
,,,-2.57500000e-009,-7.07805894e-005
,,,-2.55000000e-009,-5.99993393e-005
,,,-2.52500000e-009,-4.54680892e-005
,,,-2.50000000e-009,-2.85930890e-005
,,,-2.47500000e-009,-1.07805889e-005
,,,-2.45000000e-009,7.50066130e-006
,,,-2.42500000e-009,2.43756615e-005
,,,-2.40000000e-009,3.93756616e-005
,,,-2.37500000e-009,5.15631617e-005
,,,-2.35000000e-009,6.00006618e-005
,,,-2.32500000e-009,6.28131618e-005
,,,-2.30000000e-009,6.23444118e-005
,,,-2.27500000e-009,5.95319118e-005
,,,-2.25000000e-009,5.57819117e-005
,,,-2.22500000e-009,5.25006617e-005
,,,-2.20000000e-009,5.10944117e-005
,,,-2.17500000e-009,5.34381617e-005
,,,-2.15000000e-009,6.00006618e-005
,,,-2.12500000e-009,6.79694118e-005
,,,-2.10000000e-009,7.96881619e-005
,,,-2.07500000e-009,9.51569121e-005
,,,-2.05000000e-009,1.12969412e-004
,,,-2.02500000e-009,1.31719412e-004
,,,-2.00000000e-009,1.50469413e-004
,,,-1.97500000e-009,1.66875663e-004
,,,-1.95000000e-009,1.80000663e-004
,,,-1.92500000e-009,1.81875663e-004
,,,-1.90000000e-009,1.77656913e-004
,,,-1.87500000e-009,1.67813163e-004
,,,-1.85000000e-009,1.52344413e-004
,,,-1.82500000e-009,1.33125662e-004
,,,-1.80000000e-009,1.10625662e-004
,,,-1.77500000e-009,8.57819120e-005
,,,-1.75000000e-009,6.00006618e-005
,,,-1.72500000e-009,2.53131615e-005
,,,-1.70000000e-009,-9.84308885e-006
,,,-1.67500000e-009,-4.40618391e-005
,,,-1.65000000e-009,-7.68743394e-005
,,,-1.62500000e-009,-1.07343090e-004
,,,-1.60000000e-009,-1.34530590e-004
,,,-1.57500000e-009,-1.58905590e-004
,,,-1.55000000e-009,-1.79999340e-004
,,,-1.52500000e-009,-2.08593091e-004
,,,-1.50000000e-009,-2.34843091e-004
,,,-1.47500000e-009,-2.57811841e-004
,,,-1.45000000e-009,-2.77030591e-004
,,,-1.42500000e-009,-2.91561841e-004
,,,-1.40000000e-009,-2.99999341e-004
,,,-1.37500000e-009,-3.02343091e-004
,,,-1.35000000e-009,-2.99999341e-004
,,,-1.32500000e-009,-3.08905591e-004
,,,-1.30000000e-009,-3.18280592e-004
,,,-1.27500000e-009,-3.29061842e-004
,,,-1.25000000e-009,-3.41249342e-004
,,,-1.22500000e-009,-3.56249342e-004
,,,-1.20000000e-009,-3.74061842e-004
,,,-1.17500000e-009,-3.95155592e-004
,,,-1.15000000e-009,-4.19999342e-004
,,,-1.12500000e-009,-4.67811843e-004
,,,-1.10000000e-009,-5.23593093e-004
,,,-1.07500000e-009,-5.84999344e-004
,,,-1.05000000e-009,-6.50155594e-004
,,,-1.02500000e-009,-7.15780595e-004
,,,-1.00000000e-009,-7.80468096e-004
,,,-9.75000000e-010,-8.41874346e-004
,,,-9.50000000e-010,-8.99999347e-004
,,,-9.25000000e-010,-9.71718097e-004
,,,-9.00000000e-010,-1.04390560e-003
,,,-8.75000000e-010,-1.11703060e-003
,,,-8.50000000e-010,-1.19109310e-003
,,,-8.25000000e-010,-1.26562435e-003
,,,-8.00000000e-010,-1.34156185e-003
,,,-7.75000000e-010,-1.41937435e-003
,,,-7.50000000e-010,-1.49999935e-003
,,,-7.25000000e-010,-1.59703060e-003
,,,-7.00000000e-010,-1.70249935e-003
,,,-6.75000000e-010,-1.81640560e-003
,,,-6.50000000e-010,-1.93687436e-003
,,,-6.25000000e-010,-2.06343686e-003
,,,-6.00000000e-010,-2.19374936e-003
,,,-5.75000000e-010,-2.32640561e-003
,,,-5.50000000e-010,-2.45999936e-003
,,,-5.25000000e-010,-2.59640561e-003
,,,-5.00000000e-010,-2.73421811e-003
,,,-4.75000000e-010,-2.87296811e-003
,,,-4.50000000e-010,-3.01171811e-003
,,,-4.25000000e-010,-3.14812437e-003
,,,-4.00000000e-010,-3.28218687e-003
,,,-3.75000000e-010,-3.41296812e-003
,,,-3.50000000e-010,-3.53999937e-003
,,,-3.25000000e-010,-3.65484312e-003
,,,-3.00000000e-010,-3.76968687e-003
,,,-2.75000000e-010,-3.88640562e-003
,,,-2.50000000e-010,-4.00499937e-003
,,,-2.25000000e-010,-4.12640562e-003
,,,-2.00000000e-010,-4.24968688e-003
,,,-1.75000000e-010,-4.37484313e-003
,,,-1.50000000e-010,-4.49999938e-003
,,,-1.25000000e-010,-4.60406188e-003
,,,-1.00000000e-010,-4.70765563e-003
,,,-7.50000000e-011,-4.80937438e-003
,,,-5.00000000e-011,-4.90828063e-003
,,,-2.50000000e-011,-5.00109313e-003
,,,0.00000000e+000,-5.08546813e-003
,,,2.50000000e-011,-5.15906188e-003
,,,5.00000000e-011,-5.21999938e-003
,,,7.50000000e-011,-5.24015563e-003
,,,1.00000000e-010,-5.24953063e-003
,,,1.25000000e-010,-5.25140563e-003
,,,1.50000000e-010,-5.24812438e-003
,,,1.75000000e-010,-5.24203063e-003
,,,2.00000000e-010,-5.23453063e-003
,,,2.25000000e-010,-5.22703063e-003
,,,2.50000000e-010,-5.21999938e-003
,,,2.75000000e-010,-5.18718688e-003
,,,3.00000000e-010,-5.15671813e-003
,,,3.25000000e-010,-5.12906188e-003
,,,3.50000000e-010,-5.10374938e-003
,,,3.75000000e-010,-5.07796813e-003
,,,4.00000000e-010,-5.05078063e-003
,,,4.25000000e-010,-5.01890563e-003
,,,4.50000000e-010,-4.97999938e-003
,,,4.75000000e-010,-4.91109313e-003
,,,5.00000000e-010,-4.83562438e-003
,,,5.25000000e-010,-4.75687438e-003
,,,5.50000000e-010,-4.67624938e-003
,,,5.75000000e-010,-4.59703063e-003
,,,6.00000000e-010,-4.52015563e-003
,,,6.25000000e-010,-4.44796813e-003
,,,6.50000000e-010,-4.37999938e-003
,,,6.75000000e-010,-4.30171813e-003
,,,7.00000000e-010,-4.22671813e-003
,,,7.25000000e-010,-4.15453062e-003
,,,7.50000000e-010,-4.08374937e-003
,,,7.75000000e-010,-4.01249937e-003
,,,8.00000000e-010,-3.93890562e-003
,,,8.25000000e-010,-3.86203062e-003
,,,8.50000000e-010,-3.77999937e-003
,,,8.75000000e-010,-3.68484312e-003
,,,9.00000000e-010,-3.58499937e-003
,,,9.25000000e-010,-3.48234312e-003
,,,9.50000000e-010,-3.38156187e-003
,,,9.75000000e-010,-3.28546812e-003
,,,1.00000000e-009,-3.19874937e-003
,,,1.02500000e-009,-3.12328062e-003
,,,1.05000000e-009,-3.05999937e-003
,,,1.07500000e-009,-3.00937436e-003
,,,1.10000000e-009,-2.96578061e-003
,,,1.12500000e-009,-2.92687436e-003
,,,1.15000000e-009,-2.88984311e-003
,,,1.17500000e-009,-2.85093686e-003
,,,1.20000000e-009,-2.80781186e-003
,,,1.22500000e-009,-2.75812436e-003
,,,1.25000000e-009,-2.69999936e-003
,,,1.27500000e-009,-2.63531186e-003
,,,1.30000000e-009,-2.55937436e-003
,,,1.32500000e-009,-2.47593686e-003
,,,1.35000000e-009,-2.38921811e-003
,,,1.37500000e-009,-2.30343686e-003
,,,1.40000000e-009,-2.22421811e-003
,,,1.42500000e-009,-2.15578061e-003
,,,1.45000000e-009,-2.09999936e-003
,,,1.47500000e-009,-2.06343686e-003
,,,1.50000000e-009,-2.03531186e-003
,,,1.52500000e-009,-2.01281186e-003
,,,1.55000000e-009,-1.99265561e-003
,,,1.57500000e-009,-1.97062436e-003
,,,1.60000000e-009,-1.94296811e-003
,,,1.62500000e-009,-1.90687436e-003
,,,1.65000000e-009,-1.85999935e-003
,,,1.67500000e-009,-1.80562435e-003
,,,1.70000000e-009,-1.73718685e-003
,,,1.72500000e-009,-1.65749935e-003
,,,1.75000000e-009,-1.57078060e-003
,,,1.77500000e-009,-1.48218685e-003
,,,1.80000000e-009,-1.39781185e-003
,,,1.82500000e-009,-1.32281185e-003
,,,1.85000000e-009,-1.25999935e-003
,,,1.87500000e-009,-1.21921810e-003
,,,1.90000000e-009,-1.19109310e-003
,,,1.92500000e-009,-1.17281185e-003
,,,1.95000000e-009,-1.16296810e-003
,,,1.97500000e-009,-1.15781185e-003
,,,2.00000000e-009,-1.15453060e-003
,,,2.02500000e-009,-1.14937435e-003
,,,2.05000000e-009,-1.13999935e-003
,,,2.07500000e-009,-1.12968685e-003
,,,2.10000000e-009,-1.10999935e-003
,,,2.12500000e-009,-1.08187435e-003
,,,2.15000000e-009,-1.04718685e-003
,,,2.17500000e-009,-1.00828060e-003
,,,2.20000000e-009,-9.69374347e-004
,,,2.22500000e-009,-9.32343097e-004
,,,2.25000000e-009,-8.99999347e-004
,,,2.27500000e-009,-8.78436846e-004
,,,2.30000000e-009,-8.61093096e-004
,,,2.32500000e-009,-8.46561846e-004
,,,2.35000000e-009,-8.34843096e-004
,,,2.37500000e-009,-8.23593096e-004
,,,2.40000000e-009,-8.11874346e-004
,,,2.42500000e-009,-7.97811846e-004
,,,2.45000000e-009,-7.79999346e-004
,,,2.47500000e-009,-7.60780595e-004
,,,2.50000000e-009,-7.35936845e-004
,,,2.52500000e-009,-7.05468095e-004
,,,2.55000000e-009,-6.71249345e-004
,,,2.57500000e-009,-6.35155594e-004
,,,2.60000000e-009,-5.99999344e-004
,,,2.62500000e-009,-5.67655594e-004
,,,2.65000000e-009,-5.39999343e-004
,,,2.67500000e-009,-5.23124343e-004
,,,2.70000000e-009,-5.11874343e-004
,,,2.72500000e-009,-5.06249343e-004
,,,2.75000000e-009,-5.05780593e-004
,,,2.77500000e-009,-5.09999343e-004
,,,2.80000000e-009,-5.17968093e-004
,,,2.82500000e-009,-5.28280593e-004
,,,2.85000000e-009,-5.39999343e-004
,,,2.87500000e-009,-5.53124344e-004
,,,2.90000000e-009,-5.63436844e-004
,,,2.92500000e-009,-5.70468094e-004
,,,2.95000000e-009,-5.72811844e-004
,,,2.97500000e-009,-5.71405594e-004
,,,3.00000000e-009,-5.65311844e-004
,,,3.02500000e-009,-5.54999344e-004
,,,3.05000000e-009,-5.39999343e-004
,,,3.07500000e-009,-5.23124343e-004
,,,3.10000000e-009,-5.01561843e-004
,,,3.12500000e-009,-4.75311843e-004
,,,3.15000000e-009,-4.45311843e-004
,,,3.17500000e-009,-4.12030592e-004
,,,3.20000000e-009,-3.75936842e-004
,,,3.22500000e-009,-3.37968092e-004
,,,3.25000000e-009,-2.99999341e-004
,,,3.27500000e-009,-2.66718091e-004
,,,3.30000000e-009,-2.36249341e-004
,,,3.32500000e-009,-2.09530591e-004
,,,3.35000000e-009,-1.88905590e-004
,,,3.37500000e-009,-1.75311840e-004
,,,3.40000000e-009,-1.69218090e-004
,,,3.42500000e-009,-1.70624340e-004
,,,3.45000000e-009,-1.79999340e-004
,,,3.47500000e-009,-1.99686840e-004
,,,3.50000000e-009,-2.22655591e-004
,,,3.52500000e-009,-2.46561841e-004
,,,3.55000000e-009,-2.69061841e-004
,,,3.57500000e-009,-2.87343091e-004
,,,3.60000000e-009,-2.99530591e-004
,,,3.62500000e-009,-3.04218091e-004
,,,3.65000000e-009,-2.99999341e-004
,,,3.67500000e-009,-2.89218091e-004
,,,3.70000000e-009,-2.71405591e-004
,,,3.72500000e-009,-2.49374341e-004
,,,3.75000000e-009,-2.25936841e-004
,,,3.77500000e-009,-2.04374341e-004
,,,3.80000000e-009,-1.87968090e-004
,,,3.82500000e-009,-1.79061840e-004
,,,3.85000000e-009,-1.79999340e-004
,,,3.87500000e-009,-1.94530590e-004
,,,3.90000000e-009,-2.18905591e-004
,,,3.92500000e-009,-2.50311841e-004
,,,3.95000000e-009,-2.86874341e-004
,,,3.97500000e-009,-3.25311842e-004
,,,4.00000000e-009,-3.61874342e-004
,,,4.02500000e-009,-3.94218092e-004
,,,4.05000000e-009,-4.19999342e-004
,,,4.07500000e-009,-4.37811843e-004
,,,4.10000000e-009,-4.46718093e-004
,,,4.12500000e-009,-4.48124343e-004
,,,4.15000000e-009,-4.44374343e-004
,,,4.17500000e-009,-4.36874343e-004
,,,4.20000000e-009,-4.29374342e-004
,,,4.22500000e-009,-4.23280592e-004
,,,4.25000000e-009,-4.19999342e-004
,,,4.27500000e-009,-4.19999342e-004
,,,4.30000000e-009,-4.23280592e-004
,,,4.32500000e-009,-4.28905592e-004
,,,4.35000000e-009,-4.34999343e-004
,,,4.37500000e-009,-4.39218093e-004
,,,4.40000000e-009,-4.38749343e-004
,,,4.42500000e-009,-4.32655593e-004
,,,4.45000000e-009,-4.19999342e-004
,,,4.47500000e-009,-3.98905592e-004
,,,4.50000000e-009,-3.73124342e-004
,,,4.52500000e-009,-3.45936842e-004
,,,4.55000000e-009,-3.20155592e-004
,,,4.57500000e-009,-2.99999341e-004
,,,4.60000000e-009,-2.88749341e-004
,,,4.62500000e-009,-2.88280591e-004
,,,4.65000000e-009,-2.99999341e-004
,,,4.67500000e-009,-3.23436842e-004
,,,4.70000000e-009,-3.56718092e-004
,,,4.72500000e-009,-3.96093092e-004
,,,4.75000000e-009,-4.37811843e-004
,,,4.77500000e-009,-4.76718093e-004
,,,4.80000000e-009,-5.09530593e-004
,,,4.82500000e-009,-5.31561843e-004
,,,4.85000000e-009,-5.39999343e-004
,,,4.87500000e-009,-5.30624343e-004
,,,4.90000000e-009,-5.07655593e-004
,,,4.92500000e-009,-4.74374343e-004
,,,4.95000000e-009,-4.34999343e-004
,,,4.97500000e-009,-3.93749342e-004
,,,5.00000000e-009,-3.55311842e-004
,,,5.02500000e-009,-3.22968092e-004
,,,5.05000000e-009,-2.99999341e-004
,,,5.07500000e-009,-2.87343091e-004
,,,5.10000000e-009,-2.84530591e-004
,,,5.12500000e-009,-2.88749341e-004
,,,5.15000000e-009,-2.97655591e-004
,,,5.17500000e-009,-3.06561841e-004
,,,5.20000000e-009,-3.12186841e-004
,,,5.22500000e-009,-3.10780591e-004
,,,5.25000000e-009,-2.99999341e-004
,,,5.27500000e-009,-2.77499341e-004
,,,5.30000000e-009,-2.45624341e-004
,,,5.32500000e-009,-2.07655591e-004
,,,5.35000000e-009,-1.66405590e-004
,,,5.37500000e-009,-1.27030590e-004
,,,5.40000000e-009,-9.42180896e-005
,,,5.42500000e-009,-7.12493394e-005
,,,5.45000000e-009,-5.99993393e-005
,,,5.47500000e-009,-6.37493393e-005
,,,5.50000000e-009,-7.82805894e-005
,,,5.52500000e-009,-1.01249340e-004
,,,5.55000000e-009,-1.27499340e-004
,,,5.57500000e-009,-1.52811840e-004
,,,5.60000000e-009,-1.72499340e-004
,,,5.62500000e-009,-1.82343090e-004
,,,5.65000000e-009,-1.79999340e-004
,,,5.67500000e-009,-1.64530590e-004
,,,5.70000000e-009,-1.37343090e-004
,,,5.72500000e-009,-1.00780590e-004
,,,5.75000000e-009,-5.90618393e-005
,,,5.77500000e-009,-1.78118389e-005
,,,5.80000000e-009,1.82819114e-005
,,,5.82500000e-009,4.50006616e-005
,,,5.85000000e-009,6.00006618e-005
,,,5.87500000e-009,5.76569117e-005
,,,5.90000000e-009,4.40631616e-005
,,,5.92500000e-009,2.20319114e-005
,,,5.95000000e-009,-4.21808880e-006
