RawData/SinglePhotoelectron/R4_25foot_5mV/wave002_Ch1.csv

"Record Length",1000,"Points",-7.72500000e-009,9.14069120e-005
"Sample Interval",2.50000000e-011,s,-7.70000000e-009,9.32819120e-005
"Trigger Point",309,"Samples",-7.67500000e-009,9.04694120e-005
"Trigger Time",2.36353846e-011,s,-7.65000000e-009,8.34381620e-005
"",,,-7.62500000e-009,7.31256619e-005
"Horizontal Offset",-7.72500000e-009,s,-7.60000000e-009,6.00006618e-005
,,,-7.57500000e-009,4.45319116e-005
,,,-7.55000000e-009,2.81256615e-005
,,,-7.52500000e-009,1.12506613e-005
,,,-7.50000000e-009,-6.09308881e-006
,,,-7.47500000e-009,-2.20305890e-005
,,,-7.45000000e-009,-3.65618391e-005
,,,-7.42500000e-009,-4.96868392e-005
,,,-7.40000000e-009,-5.99993393e-005
,,,-7.37500000e-009,-6.74993393e-005
,,,-7.35000000e-009,-7.21868394e-005
,,,-7.32500000e-009,-7.45305894e-005
,,,-7.30000000e-009,-7.45305894e-005
,,,-7.27500000e-009,-7.26555894e-005
,,,-7.25000000e-009,-6.98430894e-005
,,,-7.22500000e-009,-6.51555893e-005
,,,-7.20000000e-009,-5.99993393e-005
,,,-7.17500000e-009,-5.48430892e-005
,,,-7.15000000e-009,-5.01555892e-005
,,,-7.12500000e-009,-4.68743392e-005
,,,-7.10000000e-009,-4.54680892e-005
,,,-7.07500000e-009,-4.59368392e-005
,,,-7.05000000e-009,-4.87493392e-005
,,,-7.02500000e-009,-5.39055892e-005
,,,-7.00000000e-009,-5.99993393e-005
,,,-6.97500000e-009,-6.89055894e-005
,,,-6.95000000e-009,-7.68743394e-005
,,,-6.92500000e-009,-8.39055895e-005
,,,-6.90000000e-009,-8.85930895e-005
,,,-6.87500000e-009,-8.90618395e-005
,,,-6.85000000e-009,-8.43743395e-005
,,,-6.82500000e-009,-7.49993394e-005
,,,-6.80000000e-009,-5.99993393e-005
,,,-6.77500000e-009,-4.17180891e-005
,,,-6.75000000e-009,-2.10930889e-005
,,,-6.72500000e-009,4.69411243e-007
,,,-6.70000000e-009,2.10944114e-005
,,,-6.67500000e-009,3.89069116e-005
,,,-6.65000000e-009,5.20319117e-005
,,,-6.62500000e-009,5.90631618e-005
,,,-6.60000000e-009,6.00006618e-005
,,,-6.57500000e-009,5.20319117e-005
,,,-6.55000000e-009,3.79694116e-005
,,,-6.52500000e-009,2.01569114e-005
,,,-6.50000000e-009,-4.68088765e-007
,,,-6.47500000e-009,-2.06243389e-005
,,,-6.45000000e-009,-3.84368391e-005
,,,-6.42500000e-009,-5.20305892e-005
,,,-6.40000000e-009,-5.99993393e-005
,,,-6.37500000e-009,-6.28118393e-005
,,,-6.35000000e-009,-6.09368393e-005
,,,-6.32500000e-009,-5.53118392e-005
,,,-6.30000000e-009,-4.92180892e-005
,,,-6.27500000e-009,-4.40618391e-005
,,,-6.25000000e-009,-4.31243391e-005
,,,-6.22500000e-009,-4.78118392e-005
,,,-6.20000000e-009,-5.99993393e-005
,,,-6.17500000e-009,-7.96868395e-005
,,,-6.15000000e-009,-1.06405590e-004
,,,-6.12500000e-009,-1.38280590e-004
,,,-6.10000000e-009,-1.73436840e-004
,,,-6.07500000e-009,-2.09999341e-004
,,,-6.05000000e-009,-2.44686841e-004
,,,-6.02500000e-009,-2.75155591e-004
,,,-6.00000000e-009,-2.99999341e-004
,,,-5.97500000e-009,-3.15936842e-004
,,,-5.95000000e-009,-3.24374342e-004
,,,-5.92500000e-009,-3.26249342e-004
,,,-5.90000000e-009,-3.23436842e-004
,,,-5.87500000e-009,-3.17811842e-004
,,,-5.85000000e-009,-3.10780591e-004
,,,-5.82500000e-009,-3.04218091e-004
,,,-5.80000000e-009,-2.99999341e-004
,,,-5.77500000e-009,-2.96718091e-004
,,,-5.75000000e-009,-2.96718091e-004
,,,-5.72500000e-009,-2.99061841e-004
,,,-5.70000000e-009,-3.02811841e-004
,,,-5.67500000e-009,-3.06561841e-004
,,,-5.65000000e-009,-3.08436841e-004
,,,-5.62500000e-009,-3.06561841e-004
,,,-5.60000000e-009,-2.99999341e-004
,,,-5.57500000e-009,-2.86405591e-004
,,,-5.55000000e-009,-2.66718091e-004
,,,-5.52500000e-009,-2.41405591e-004
,,,-5.50000000e-009,-2.10936841e-004
,,,-5.47500000e-009,-1.76249340e-004
,,,-5.45000000e-009,-1.38749340e-004
,,,-5.42500000e-009,-9.93743396e-005
,,,-5.40000000e-009,-5.99993393e-005
,,,-5.37500000e-009,-2.39055890e-005
,,,-5.35000000e-009,7.96941131e-006
,,,-5.32500000e-009,3.42194115e-005
,,,-5.30000000e-009,5.39069117e-005
,,,-5.27500000e-009,6.65631618e-005
,,,-5.25000000e-009,7.12506619e-005
,,,-5.22500000e-009,6.89069118e-005
,,,-5.20000000e-009,6.00006618e-005
,,,-5.17500000e-009,4.26569116e-005
,,,-5.15000000e-009,2.20319114e-005
,,,-5.12500000e-009,-4.68088765e-007
,,,-5.10000000e-009,-2.15618389e-005
,,,-5.07500000e-009,-3.93743391e-005
,,,-5.05000000e-009,-5.24993392e-005
,,,-5.02500000e-009,-5.95305893e-005
,,,-5.00000000e-009,-5.99993393e-005
,,,-4.97500000e-009,-5.81243393e-005
,,,-4.95000000e-009,-5.15618392e-005
,,,-4.92500000e-009,-4.31243391e-005
,,,-4.90000000e-009,-3.56243391e-005
,,,-4.87500000e-009,-3.14055890e-005
,,,-4.85000000e-009,-3.28118390e-005
,,,-4.82500000e-009,-4.21868391e-005
,,,-4.80000000e-009,-5.99993393e-005
,,,-4.77500000e-009,-8.95305895e-005
,,,-4.75000000e-009,-1.25624340e-004
,,,-4.72500000e-009,-1.65468090e-004
,,,-4.70000000e-009,-2.05311841e-004
,,,-4.67500000e-009,-2.41874341e-004
,,,-4.65000000e-009,-2.71405591e-004
,,,-4.62500000e-009,-2.91561841e-004
,,,-4.60000000e-009,-2.99999341e-004
,,,-4.57500000e-009,-2.97655591e-004
,,,-4.55000000e-009,-2.84999341e-004
,,,-4.52500000e-009,-2.64843091e-004
,,,-4.50000000e-009,-2.39999341e-004
,,,-4.47500000e-009,-2.15624341e-004
,,,-4.45000000e-009,-1.95468090e-004
,,,-4.42500000e-009,-1.82811840e-004
,,,-4.40000000e-009,-1.79999340e-004
,,,-4.37500000e-009,-1.88905590e-004
,,,-4.35000000e-009,-2.09061841e-004
,,,-4.32500000e-009,-2.38593091e-004
,,,-4.30000000e-009,-2.75155591e-004
,,,-4.27500000e-009,-3.14999341e-004
,,,-4.25000000e-009,-3.54843092e-004
,,,-4.22500000e-009,-3.90936842e-004
,,,-4.20000000e-009,-4.19999342e-004
,,,-4.17500000e-009,-4.37811843e-004
,,,-4.15000000e-009,-4.46249343e-004
,,,-4.12500000e-009,-4.47186843e-004
,,,-4.10000000e-009,-4.42499343e-004
,,,-4.07500000e-009,-4.34999343e-004
,,,-4.05000000e-009,-4.27030592e-004
,,,-4.02500000e-009,-4.21405592e-004
,,,-4.00000000e-009,-4.19999342e-004
,,,-3.97500000e-009,-4.20936842e-004
,,,-3.95000000e-009,-4.28436842e-004
,,,-3.92500000e-009,-4.41561843e-004
,,,-3.90000000e-009,-4.59374343e-004
,,,-3.87500000e-009,-4.80468093e-004
,,,-3.85000000e-009,-5.02499343e-004
,,,-3.82500000e-009,-5.23124343e-004
,,,-3.80000000e-009,-5.39999343e-004
,,,-3.77500000e-009,-5.46093094e-004
,,,-3.75000000e-009,-5.45624344e-004
,,,-3.72500000e-009,-5.37655593e-004
,,,-3.70000000e-009,-5.23593093e-004
,,,-3.67500000e-009,-5.03436843e-004
,,,-3.65000000e-009,-4.79061843e-004
,,,-3.62500000e-009,-4.50936843e-004
,,,-3.60000000e-009,-4.19999342e-004
,,,-3.57500000e-009,-3.85311842e-004
,,,-3.55000000e-009,-3.50155592e-004
,,,-3.52500000e-009,-3.16405592e-004
,,,-3.50000000e-009,-2.84061841e-004
,,,-3.47500000e-009,-2.54530591e-004
,,,-3.45000000e-009,-2.26874341e-004
,,,-3.42500000e-009,-2.02499341e-004
,,,-3.40000000e-009,-1.79999340e-004
,,,-3.37500000e-009,-1.59843090e-004
,,,-3.35000000e-009,-1.41561840e-004
,,,-3.32500000e-009,-1.25155590e-004
,,,-3.30000000e-009,-1.10624340e-004
,,,-3.27500000e-009,-9.70305896e-005
,,,-3.25000000e-009,-8.43743395e-005
,,,-3.22500000e-009,-7.21868394e-005
,,,-3.20000000e-009,-5.99993393e-005
,,,-3.17500000e-009,-4.87493392e-005
,,,-3.15000000e-009,-3.60930891e-005
,,,-3.12500000e-009,-2.24993390e-005
,,,-3.10000000e-009,-7.49933883e-006
,,,-3.07500000e-009,8.43816131e-006
,,,-3.05000000e-009,2.48444115e-005
,,,-3.02500000e-009,4.21881616e-005
,,,-3.00000000e-009,6.00006618e-005
,,,-2.97500000e-009,7.54694119e-005
,,,-2.95000000e-009,9.09381620e-005
,,,-2.92500000e-009,1.06875662e-004
,,,-2.90000000e-009,1.22813162e-004
,,,-2.87500000e-009,1.38281912e-004
,,,-2.85000000e-009,1.53281913e-004
,,,-2.82500000e-009,1.66875663e-004
,,,-2.80000000e-009,1.80000663e-004
,,,-2.77500000e-009,1.87500663e-004
,,,-2.75000000e-009,1.93125663e-004
,,,-2.72500000e-009,1.97344413e-004
,,,-2.70000000e-009,1.99688163e-004
,,,-2.67500000e-009,1.99219413e-004
,,,-2.65000000e-009,1.95938163e-004
,,,-2.62500000e-009,1.89375663e-004
,,,-2.60000000e-009,1.80000663e-004
,,,-2.57500000e-009,1.64531913e-004
,,,-2.55000000e-009,1.47656913e-004
,,,-2.52500000e-009,1.30313162e-004
,,,-2.50000000e-009,1.12969412e-004
,,,-2.47500000e-009,9.65631621e-005
,,,-2.45000000e-009,8.20319120e-005
,,,-2.42500000e-009,6.98444118e-005
,,,-2.40000000e-009,6.00006618e-005
,,,-2.37500000e-009,5.10944117e-005
,,,-2.35000000e-009,4.59381616e-005
,,,-2.32500000e-009,4.35944116e-005
,,,-2.30000000e-009,4.40631616e-005
,,,-2.27500000e-009,4.64069116e-005
,,,-2.25000000e-009,5.01569117e-005
,,,-2.22500000e-009,5.48444117e-005
,,,-2.20000000e-009,6.00006618e-005
,,,-2.17500000e-009,6.28131618e-005
,,,-2.15000000e-009,6.46881618e-005
,,,-2.12500000e-009,6.56256618e-005
,,,-2.10000000e-009,6.56256618e-005
,,,-2.07500000e-009,6.46881618e-005
,,,-2.05000000e-009,6.32819118e-005
,,,-2.02500000e-009,6.14069118e-005
,,,-2.00000000e-009,6.00006618e-005
,,,-1.97500000e-009,5.43756617e-005
,,,-1.95000000e-009,4.92194117e-005
,,,-1.92500000e-009,4.50006616e-005
,,,-1.90000000e-009,4.21881616e-005
,,,-1.87500000e-009,4.21881616e-005
,,,-1.85000000e-009,4.54694116e-005
,,,-1.82500000e-009,5.10944117e-005
,,,-1.80000000e-009,6.00006618e-005
,,,-1.77500000e-009,6.23444118e-005
,,,-1.75000000e-009,6.46881618e-005
,,,-1.72500000e-009,6.65631618e-005
,,,-1.70000000e-009,6.75006618e-005
,,,-1.67500000e-009,6.70319118e-005
,,,-1.65000000e-009,6.60944118e-005
,,,-1.62500000e-009,6.37506618e-005
,,,-1.60000000e-009,6.00006618e-005
,,,-1.57500000e-009,4.21881616e-005
,,,-1.55000000e-009,2.15631614e-005
,,,-1.52500000e-009,6.61239028e-010
,,,-1.50000000e-009,-2.06243389e-005
,,,-1.47500000e-009,-3.79680891e-005
,,,-1.45000000e-009,-5.10930892e-005
,,,-1.42500000e-009,-5.85930893e-005
,,,-1.40000000e-009,-5.99993393e-005
,,,-1.37500000e-009,-7.40618394e-005
,,,-1.35000000e-009,-8.67180895e-005
,,,-1.32500000e-009,-9.93743396e-005
,,,-1.30000000e-009,-1.11561840e-004
,,,-1.27500000e-009,-1.24218090e-004
,,,-1.25000000e-009,-1.39218090e-004
,,,-1.22500000e-009,-1.57030590e-004
,,,-1.20000000e-009,-1.79999340e-004
,,,-1.17500000e-009,-2.29686841e-004
,,,-1.15000000e-009,-2.89686841e-004
,,,-1.12500000e-009,-3.59061842e-004
,,,-1.10000000e-009,-4.36405593e-004
,,,-1.07500000e-009,-5.18436843e-004
,,,-1.05000000e-009,-6.04686844e-004
,,,-1.02500000e-009,-6.91874345e-004
,,,-1.00000000e-009,-7.79999346e-004
,,,-9.75000000e-010,-8.85468096e-004
,,,-9.50000000e-010,-9.93280597e-004
,,,-9.25000000e-010,-1.10203060e-003
,,,-9.00000000e-010,-1.20984310e-003
,,,-8.75000000e-010,-1.31624935e-003
,,,-8.50000000e-010,-1.41984310e-003
,,,-8.25000000e-010,-1.52109310e-003
,,,-8.00000000e-010,-1.61999935e-003
,,,-7.75000000e-010,-1.72921810e-003
,,,-7.50000000e-010,-1.84171810e-003
,,,-7.25000000e-010,-1.95796811e-003
,,,-7.00000000e-010,-2.07796811e-003
,,,-6.75000000e-010,-2.20031186e-003
,,,-6.50000000e-010,-2.32546811e-003
,,,-6.25000000e-010,-2.45203061e-003
,,,-6.00000000e-010,-2.57999936e-003
,,,-5.75000000e-010,-2.71218686e-003
,,,-5.50000000e-010,-2.84859311e-003
,,,-5.25000000e-010,-2.98781186e-003
,,,-5.00000000e-010,-3.12796812e-003
,,,-4.75000000e-010,-3.26718687e-003
,,,-4.50000000e-010,-3.40312437e-003
,,,-4.25000000e-010,-3.53484312e-003
,,,-4.00000000e-010,-3.65999937e-003
,,,-3.75000000e-010,-3.77296812e-003
,,,-3.50000000e-010,-3.88265562e-003
,,,-3.25000000e-010,-3.99093687e-003
,,,-3.00000000e-010,-4.09734312e-003
,,,-2.75000000e-010,-4.20187438e-003
,,,-2.50000000e-010,-4.30406188e-003
,,,-2.25000000e-010,-4.40343688e-003
,,,-2.00000000e-010,-4.49999938e-003
,,,-1.75000000e-010,-4.57921813e-003
,,,-1.50000000e-010,-4.65890563e-003
,,,-1.25000000e-010,-4.73906188e-003
,,,-1.00000000e-010,-4.81874938e-003
,,,-7.50000000e-011,-4.89656188e-003
,,,-5.00000000e-011,-4.97062438e-003
,,,-2.50000000e-011,-5.03906188e-003
,,,0.00000000e+000,-5.09999938e-003
,,,2.50000000e-011,-5.13515563e-003
,,,5.00000000e-011,-5.16656188e-003
,,,7.50000000e-011,-5.19656188e-003
,,,1.00000000e-010,-5.22515563e-003
,,,1.25000000e-010,-5.25421813e-003
,,,1.50000000e-010,-5.28281188e-003
,,,1.75000000e-010,-5.31140563e-003
,,,2.00000000e-010,-5.33999939e-003
,,,2.25000000e-010,-5.35031189e-003
,,,2.50000000e-010,-5.36343689e-003
,,,2.75000000e-010,-5.37984314e-003
,,,3.00000000e-010,-5.39765564e-003
,,,3.25000000e-010,-5.41640564e-003
,,,3.50000000e-010,-5.43468689e-003
,,,3.75000000e-010,-5.44968689e-003
,,,4.00000000e-010,-5.45999939e-003
,,,4.25000000e-010,-5.44874939e-003
,,,4.50000000e-010,-5.43468689e-003
,,,4.75000000e-010,-5.41874939e-003
,,,5.00000000e-010,-5.40187439e-003
,,,5.25000000e-010,-5.38546814e-003
,,,5.50000000e-010,-5.36999939e-003
,,,5.75000000e-010,-5.35499939e-003
,,,6.00000000e-010,-5.33999939e-003
,,,6.25000000e-010,-5.31374938e-003
,,,6.50000000e-010,-5.28749938e-003
,,,6.75000000e-010,-5.26171813e-003
,,,7.00000000e-010,-5.23499938e-003
,,,7.25000000e-010,-5.20640563e-003
,,,7.50000000e-010,-5.17499938e-003
,,,7.75000000e-010,-5.13984313e-003
,,,8.00000000e-010,-5.09999938e-003
,,,8.25000000e-010,-5.04749938e-003
,,,8.50000000e-010,-4.99265563e-003
,,,8.75000000e-010,-4.93734313e-003
,,,9.00000000e-010,-4.88437438e-003
,,,9.25000000e-010,-4.83656188e-003
,,,9.50000000e-010,-4.79578063e-003
,,,9.75000000e-010,-4.76343688e-003
,,,1.00000000e-009,-4.73999938e-003
,,,1.02500000e-009,-4.72078063e-003
,,,1.05000000e-009,-4.70718688e-003
,,,1.07500000e-009,-4.69734313e-003
,,,1.10000000e-009,-4.68890563e-003
,,,1.12500000e-009,-4.67906188e-003
,,,1.15000000e-009,-4.66593688e-003
,,,1.17500000e-009,-4.64671813e-003
,,,1.20000000e-009,-4.61999938e-003
,,,1.22500000e-009,-4.58249938e-003
,,,1.25000000e-009,-4.53656188e-003
,,,1.27500000e-009,-4.48499938e-003
,,,1.30000000e-009,-4.43109313e-003
,,,1.32500000e-009,-4.37859313e-003
,,,1.35000000e-009,-4.33078063e-003
,,,1.37500000e-009,-4.29046813e-003
,,,1.40000000e-009,-4.25999938e-003
,,,1.42500000e-009,-4.23890563e-003
,,,1.45000000e-009,-4.22390563e-003
,,,1.47500000e-009,-4.21453063e-003
,,,1.50000000e-009,-4.20703063e-003
,,,1.52500000e-009,-4.19859313e-003
,,,1.55000000e-009,-4.18640563e-003
,,,1.57500000e-009,-4.16765562e-003
,,,1.60000000e-009,-4.13999937e-003
,,,1.62500000e-009,-4.10203062e-003
,,,1.65000000e-009,-4.05234312e-003
,,,1.67500000e-009,-3.99234312e-003
,,,1.70000000e-009,-3.92578062e-003
,,,1.72500000e-009,-3.85546812e-003
,,,1.75000000e-009,-3.78562437e-003
,,,1.77500000e-009,-3.71953062e-003
,,,1.80000000e-009,-3.65999937e-003
,,,1.82500000e-009,-3.60937437e-003
,,,1.85000000e-009,-3.56624937e-003
,,,1.87500000e-009,-3.53015562e-003
,,,1.90000000e-009,-3.50062437e-003
,,,1.92500000e-009,-3.47624937e-003
,,,1.95000000e-009,-3.45609312e-003
,,,1.97500000e-009,-3.43781187e-003
,,,2.00000000e-009,-3.41999937e-003
,,,2.02500000e-009,-3.40078062e-003
,,,2.05000000e-009,-3.37734312e-003
,,,2.07500000e-009,-3.34921812e-003
,,,2.10000000e-009,-3.31734312e-003
,,,2.12500000e-009,-3.28265562e-003
,,,2.15000000e-009,-3.24703062e-003
,,,2.17500000e-009,-3.21234312e-003
,,,2.20000000e-009,-3.17999937e-003
,,,2.22500000e-009,-3.15093687e-003
,,,2.25000000e-009,-3.12421812e-003
,,,2.27500000e-009,-3.10078062e-003
,,,2.30000000e-009,-3.08249937e-003
,,,2.32500000e-009,-3.06890562e-003
,,,2.35000000e-009,-3.06093687e-003
,,,2.37500000e-009,-3.05859312e-003
,,,2.40000000e-009,-3.05999937e-003
,,,2.42500000e-009,-3.06046812e-003
,,,2.45000000e-009,-3.05906187e-003
,,,2.47500000e-009,-3.05390562e-003
,,,2.50000000e-009,-3.04359312e-003
,,,2.52500000e-009,-3.02812437e-003
,,,2.55000000e-009,-3.00562436e-003
,,,2.57500000e-009,-2.97656186e-003
,,,2.60000000e-009,-2.93999936e-003
,,,2.62500000e-009,-2.89312436e-003
,,,2.65000000e-009,-2.83781186e-003
,,,2.67500000e-009,-2.77593686e-003
,,,2.70000000e-009,-2.70984311e-003
,,,2.72500000e-009,-2.64281186e-003
,,,2.75000000e-009,-2.57718686e-003
,,,2.77500000e-009,-2.51578061e-003
,,,2.80000000e-009,-2.45999936e-003
,,,2.82500000e-009,-2.40984311e-003
,,,2.85000000e-009,-2.36578061e-003
,,,2.87500000e-009,-2.32828061e-003
,,,2.90000000e-009,-2.29687436e-003
,,,2.92500000e-009,-2.27203061e-003
,,,2.95000000e-009,-2.25187436e-003
,,,2.97500000e-009,-2.23546811e-003
,,,3.00000000e-009,-2.21999936e-003
,,,3.02500000e-009,-2.20265561e-003
,,,3.05000000e-009,-2.17921811e-003
,,,3.07500000e-009,-2.14874936e-003
,,,3.10000000e-009,-2.10937436e-003
,,,3.12500000e-009,-2.06062436e-003
,,,3.15000000e-009,-2.00249936e-003
,,,3.17500000e-009,-1.93546811e-003
,,,3.20000000e-009,-1.85999935e-003
,,,3.22500000e-009,-1.77890560e-003
,,,3.25000000e-009,-1.69265560e-003
,,,3.27500000e-009,-1.60499935e-003
,,,3.30000000e-009,-1.51921810e-003
,,,3.32500000e-009,-1.43906185e-003
,,,3.35000000e-009,-1.36781185e-003
,,,3.37500000e-009,-1.30734310e-003
,,,3.40000000e-009,-1.25999935e-003
,,,3.42500000e-009,-1.23046810e-003
,,,3.45000000e-009,-1.21078060e-003
,,,3.47500000e-009,-1.19765560e-003
,,,3.50000000e-009,-1.18921810e-003
,,,3.52500000e-009,-1.18171810e-003
,,,3.55000000e-009,-1.17234310e-003
,,,3.57500000e-009,-1.15921810e-003
,,,3.60000000e-009,-1.13999935e-003
,,,3.62500000e-009,-1.12124935e-003
,,,3.65000000e-009,-1.09406185e-003
,,,3.67500000e-009,-1.06078060e-003
,,,3.70000000e-009,-1.02328060e-003
,,,3.72500000e-009,-9.85780597e-004
,,,3.75000000e-009,-9.50624347e-004
,,,3.77500000e-009,-9.21561847e-004
,,,3.80000000e-009,-8.99999347e-004
,,,3.82500000e-009,-8.94843097e-004
,,,3.85000000e-009,-8.96249347e-004
,,,3.87500000e-009,-9.01874347e-004
,,,3.90000000e-009,-9.09374347e-004
,,,3.92500000e-009,-9.15936847e-004
,,,3.95000000e-009,-9.17811847e-004
,,,3.97500000e-009,-9.13124347e-004
,,,4.00000000e-009,-8.99999347e-004
,,,4.02500000e-009,-8.84061846e-004
,,,4.05000000e-009,-8.58749346e-004
,,,4.07500000e-009,-8.25936846e-004
,,,4.10000000e-009,-7.87968096e-004
,,,4.12500000e-009,-7.49061845e-004
,,,4.15000000e-009,-7.12499345e-004
,,,4.17500000e-009,-6.82030595e-004
,,,4.20000000e-009,-6.59999344e-004
,,,4.22500000e-009,-6.54843094e-004
,,,4.25000000e-009,-6.58593094e-004
,,,4.27500000e-009,-6.70780595e-004
,,,4.30000000e-009,-6.89061845e-004
,,,4.32500000e-009,-7.11561845e-004
,,,4.35000000e-009,-7.35468095e-004
,,,4.37500000e-009,-7.58905595e-004
,,,4.40000000e-009,-7.79999346e-004
,,,4.42500000e-009,-7.99218096e-004
,,,4.45000000e-009,-8.14218096e-004
,,,4.47500000e-009,-8.25936846e-004
,,,4.50000000e-009,-8.35780596e-004
,,,4.52500000e-009,-8.46093096e-004
,,,4.55000000e-009,-8.59218096e-004
,,,4.57500000e-009,-8.77030596e-004
,,,4.60000000e-009,-8.99999347e-004
,,,4.62500000e-009,-9.28593097e-004
,,,4.65000000e-009,-9.60936847e-004
,,,4.67500000e-009,-9.96093097e-004
,,,4.70000000e-009,-1.03218685e-003
,,,4.72500000e-009,-1.06687435e-003
,,,4.75000000e-009,-1.09781185e-003
,,,4.77500000e-009,-1.12312435e-003
,,,4.80000000e-009,-1.13999935e-003
,,,4.82500000e-009,-1.14421810e-003
,,,4.85000000e-009,-1.13953060e-003
,,,4.87500000e-009,-1.12687435e-003
,,,4.90000000e-009,-1.10859310e-003
,,,4.92500000e-009,-1.08656185e-003
,,,4.95000000e-009,-1.06312435e-003
,,,4.97500000e-009,-1.04062435e-003
,,,5.00000000e-009,-1.01999935e-003
,,,5.02500000e-009,-1.00031185e-003
,,,5.05000000e-009,-9.83436847e-004
,,,5.07500000e-009,-9.69843097e-004
,,,5.10000000e-009,-9.58124347e-004
,,,5.12500000e-009,-9.46405597e-004
,,,5.15000000e-009,-9.34218097e-004
,,,5.17500000e-009,-9.18749347e-004
,,,5.20000000e-009,-8.99999347e-004
,,,5.22500000e-009,-8.74218096e-004
,,,5.25000000e-009,-8.44686846e-004
,,,5.27500000e-009,-8.12343096e-004
,,,5.30000000e-009,-7.78593096e-004
,,,5.32500000e-009,-7.45311845e-004
,,,5.35000000e-009,-7.13436845e-004
,,,5.37500000e-009,-6.84843095e-004
,,,5.40000000e-009,-6.59999344e-004
,,,5.42500000e-009,-6.38905594e-004
,,,5.45000000e-009,-6.21093094e-004
,,,5.47500000e-009,-6.06561844e-004
,,,5.50000000e-009,-5.94374344e-004
,,,5.52500000e-009,-5.82655594e-004
,,,5.55000000e-009,-5.69999344e-004
,,,5.57500000e-009,-5.56405594e-004
,,,5.60000000e-009,-5.39999343e-004
,,,5.62500000e-009,-5.21718093e-004
,,,5.65000000e-009,-5.01093093e-004
,,,5.67500000e-009,-4.79530593e-004
,,,5.70000000e-009,-4.58905593e-004
,,,5.72500000e-009,-4.41093093e-004
,,,5.75000000e-009,-4.27499342e-004
,,,5.77500000e-009,-4.20468092e-004
,,,5.80000000e-009,-4.19999342e-004
,,,5.82500000e-009,-4.27968092e-004
,,,5.85000000e-009,-4.41561843e-004
,,,5.87500000e-009,-4.58436843e-004
