RawData/SinglePhotoelectron/R4_25foot_5mV/wave014_Ch1.csv

"Record Length",1000,"Points",-7.72500000e-009,-3.31874342e-004
"Sample Interval",2.50000000e-011,s,-7.70000000e-009,-3.66093092e-004
"Trigger Point",309,"Samples",-7.67500000e-009,-3.93280592e-004
"Trigger Time",1.05746218e-011,s,-7.65000000e-009,-4.12030592e-004
"",,,-7.62500000e-009,-4.19999342e-004
"Horizontal Offset",-7.72500000e-009,s,-7.60000000e-009,-4.14374342e-004
,,,-7.57500000e-009,-3.99843092e-004
,,,-7.55000000e-009,-3.79218092e-004
,,,-7.52500000e-009,-3.55311842e-004
,,,-7.50000000e-009,-3.32343092e-004
,,,-7.47500000e-009,-3.14061841e-004
,,,-7.45000000e-009,-3.02811841e-004
,,,-7.42500000e-009,-2.99999341e-004
,,,-7.40000000e-009,-3.05624341e-004
,,,-7.37500000e-009,-3.19218092e-004
,,,-7.35000000e-009,-3.39374342e-004
,,,-7.32500000e-009,-3.62343092e-004
,,,-7.30000000e-009,-3.85780592e-004
,,,-7.27500000e-009,-4.04999342e-004
,,,-7.25000000e-009,-4.17186842e-004
,,,-7.22500000e-009,-4.19999342e-004
,,,-7.20000000e-009,-4.08280592e-004
,,,-7.17500000e-009,-3.86718092e-004
,,,-7.15000000e-009,-3.56249342e-004
,,,-7.12500000e-009,-3.20155592e-004
,,,-7.10000000e-009,-2.81718091e-004
,,,-7.07500000e-009,-2.43749341e-004
,,,-7.05000000e-009,-2.09061841e-004
,,,-7.02500000e-009,-1.79999340e-004
,,,-7.00000000e-009,-1.56561840e-004
,,,-6.97500000e-009,-1.39218090e-004
,,,-6.95000000e-009,-1.27030590e-004
,,,-6.92500000e-009,-1.18124340e-004
,,,-6.90000000e-009,-1.09686840e-004
,,,-6.87500000e-009,-9.84368396e-005
,,,-6.85000000e-009,-8.24993395e-005
,,,-6.82500000e-009,-5.99993393e-005
,,,-6.80000000e-009,-3.18743390e-005
,,,-6.77500000e-009,1.40691125e-006
,,,-6.75000000e-009,3.89069116e-005
,,,-6.72500000e-009,7.68756619e-005
,,,-6.70000000e-009,1.12969412e-004
,,,-6.67500000e-009,1.43906912e-004
,,,-6.65000000e-009,1.66875663e-004
,,,-6.62500000e-009,1.80000663e-004
,,,-6.60000000e-009,1.78125663e-004
,,,-6.57500000e-009,1.67344413e-004
,,,-6.55000000e-009,1.49531913e-004
,,,-6.52500000e-009,1.27500662e-004
,,,-6.50000000e-009,1.04063162e-004
,,,-6.47500000e-009,8.34381620e-005
,,,-6.45000000e-009,6.79694118e-005
,,,-6.42500000e-009,6.00006618e-005
,,,-6.40000000e-009,5.81256617e-005
,,,-6.37500000e-009,6.56256618e-005
,,,-6.35000000e-009,8.06256619e-005
,,,-6.32500000e-009,1.01250662e-004
,,,-6.30000000e-009,1.24219412e-004
,,,-6.27500000e-009,1.46719413e-004
,,,-6.25000000e-009,1.66406913e-004
,,,-6.22500000e-009,1.80000663e-004
,,,-6.20000000e-009,1.82813163e-004
,,,-6.17500000e-009,1.79063163e-004
,,,-6.15000000e-009,1.67813163e-004
,,,-6.12500000e-009,1.50938163e-004
,,,-6.10000000e-009,1.29844412e-004
,,,-6.07500000e-009,1.06875662e-004
,,,-6.05000000e-009,8.29694120e-005
,,,-6.02500000e-009,6.00006618e-005
,,,-6.00000000e-009,3.79694116e-005
,,,-5.97500000e-009,1.92194114e-005
,,,-5.95000000e-009,3.75066127e-006
,,,-5.92500000e-009,-9.37433884e-006
,,,-5.90000000e-009,-2.15618389e-005
,,,-5.87500000e-009,-3.32805891e-005
,,,-5.85000000e-009,-4.59368392e-005
,,,-5.82500000e-009,-5.99993393e-005
,,,-5.80000000e-009,-7.54680894e-005
,,,-5.77500000e-009,-9.18743396e-005
,,,-5.75000000e-009,-1.09686840e-004
,,,-5.72500000e-009,-1.27968090e-004
,,,-5.70000000e-009,-1.44843090e-004
,,,-5.67500000e-009,-1.60311840e-004
,,,-5.65000000e-009,-1.72499340e-004
,,,-5.62500000e-009,-1.79999340e-004
,,,-5.60000000e-009,-1.80468090e-004
,,,-5.57500000e-009,-1.75780590e-004
,,,-5.55000000e-009,-1.65468090e-004
,,,-5.52500000e-009,-1.50936840e-004
,,,-5.50000000e-009,-1.32186840e-004
,,,-5.47500000e-009,-1.10155590e-004
,,,-5.45000000e-009,-8.57805895e-005
,,,-5.42500000e-009,-5.99993393e-005
,,,-5.40000000e-009,-3.37493391e-005
,,,-5.37500000e-009,-9.37433884e-006
,,,-5.35000000e-009,1.21881613e-005
,,,-5.32500000e-009,3.04694115e-005
,,,-5.30000000e-009,4.45319116e-005
,,,-5.27500000e-009,5.39069117e-005
,,,-5.25000000e-009,5.90631618e-005
,,,-5.22500000e-009,6.00006618e-005
,,,-5.20000000e-009,5.81256617e-005
,,,-5.17500000e-009,5.39069117e-005
,,,-5.15000000e-009,4.92194117e-005
,,,-5.12500000e-009,4.50006616e-005
,,,-5.10000000e-009,4.26569116e-005
,,,-5.07500000e-009,4.40631616e-005
,,,-5.05000000e-009,4.96881617e-005
,,,-5.02500000e-009,6.00006618e-005
,,,-5.00000000e-009,7.35944119e-005
,,,-4.97500000e-009,9.09381620e-005
,,,-4.95000000e-009,1.09688162e-004
,,,-4.92500000e-009,1.29375662e-004
,,,-4.90000000e-009,1.47656913e-004
,,,-4.87500000e-009,1.63125663e-004
,,,-4.85000000e-009,1.74375663e-004
,,,-4.82500000e-009,1.80000663e-004
,,,-4.80000000e-009,1.77656913e-004
,,,-4.77500000e-009,1.69688163e-004
,,,-4.75000000e-009,1.56563163e-004
,,,-4.72500000e-009,1.39219412e-004
,,,-4.70000000e-009,1.19531912e-004
,,,-4.67500000e-009,9.84381621e-005
,,,-4.65000000e-009,7.82819119e-005
,,,-4.62500000e-009,6.00006618e-005
,,,-4.60000000e-009,4.26569116e-005
,,,-4.57500000e-009,3.04694115e-005
,,,-4.55000000e-009,2.39069114e-005
,,,-4.52500000e-009,2.25006614e-005
,,,-4.50000000e-009,2.62506615e-005
,,,-4.47500000e-009,3.42194115e-005
,,,-4.45000000e-009,4.59381616e-005
,,,-4.42500000e-009,6.00006618e-005
,,,-4.40000000e-009,7.31256619e-005
,,,-4.37500000e-009,8.48444120e-005
,,,-4.35000000e-009,9.37506621e-005
,,,-4.32500000e-009,9.79694121e-005
,,,-4.30000000e-009,9.75006621e-005
,,,-4.27500000e-009,9.09381620e-005
,,,-4.25000000e-009,7.82819119e-005
,,,-4.22500000e-009,6.00006618e-005
,,,-4.20000000e-009,3.65631616e-005
,,,-4.17500000e-009,1.12506613e-005
,,,-4.15000000e-009,-1.35930889e-005
,,,-4.12500000e-009,-3.60930891e-005
,,,-4.10000000e-009,-5.34368392e-005
,,,-4.07500000e-009,-6.42180893e-005
,,,-4.05000000e-009,-6.65618393e-005
,,,-4.02500000e-009,-5.99993393e-005
,,,-4.00000000e-009,-4.49993392e-005
,,,-3.97500000e-009,-2.34368390e-005
,,,-3.95000000e-009,9.38161247e-007
,,,-3.92500000e-009,2.53131615e-005
,,,-3.90000000e-009,4.64069116e-005
,,,-3.87500000e-009,6.04694118e-005
,,,-3.85000000e-009,6.56256618e-005
,,,-3.82500000e-009,6.00006618e-005
,,,-3.80000000e-009,4.26569116e-005
,,,-3.77500000e-009,1.59381614e-005
,,,-3.75000000e-009,-1.87493389e-005
,,,-3.72500000e-009,-5.76555893e-005
,,,-3.70000000e-009,-9.65618396e-005
,,,-3.67500000e-009,-1.32186840e-004
,,,-3.65000000e-009,-1.61249340e-004
,,,-3.62500000e-009,-1.79999340e-004
,,,-3.60000000e-009,-1.87499340e-004
,,,-3.57500000e-009,-1.83749340e-004
,,,-3.55000000e-009,-1.71093090e-004
,,,-3.52500000e-009,-1.50936840e-004
,,,-3.50000000e-009,-1.27030590e-004
,,,-3.47500000e-009,-1.01718090e-004
,,,-3.45000000e-009,-7.87493394e-005
,,,-3.42500000e-009,-5.99993393e-005
,,,-3.40000000e-009,-4.68743392e-005
,,,-3.37500000e-009,-4.07805891e-005
,,,-3.35000000e-009,-3.98430891e-005
,,,-3.32500000e-009,-4.40618391e-005
,,,-3.30000000e-009,-5.01555892e-005
,,,-3.27500000e-009,-5.62493392e-005
,,,-3.25000000e-009,-6.04680893e-005
,,,-3.22500000e-009,-5.99993393e-005
,,,-3.20000000e-009,-5.48430892e-005
,,,-3.17500000e-009,-4.40618391e-005
,,,-3.15000000e-009,-2.85930890e-005
,,,-3.12500000e-009,-9.84308885e-006
,,,-3.10000000e-009,1.03131613e-005
,,,-3.07500000e-009,3.00006615e-005
,,,-3.05000000e-009,4.68756616e-005
,,,-3.02500000e-009,6.00006618e-005
,,,-3.00000000e-009,6.60944118e-005
,,,-2.97500000e-009,6.56256618e-005
,,,-2.95000000e-009,5.85944117e-005
,,,-2.92500000e-009,4.40631616e-005
,,,-2.90000000e-009,2.39069114e-005
,,,-2.87500000e-009,-9.36838769e-007
,,,-2.85000000e-009,-2.95305890e-005
,,,-2.82500000e-009,-5.99993393e-005
,,,-2.80000000e-009,-8.95305895e-005
,,,-2.77500000e-009,-1.17186840e-004
,,,-2.75000000e-009,-1.41093090e-004
,,,-2.72500000e-009,-1.60780590e-004
,,,-2.70000000e-009,-1.74843090e-004
,,,-2.67500000e-009,-1.82811840e-004
,,,-2.65000000e-009,-1.84686840e-004
,,,-2.62500000e-009,-1.79999340e-004
,,,-2.60000000e-009,-1.68749340e-004
,,,-2.57500000e-009,-1.53280590e-004
,,,-2.55000000e-009,-1.34999340e-004
,,,-2.52500000e-009,-1.15311840e-004
,,,-2.50000000e-009,-9.70305896e-005
,,,-2.47500000e-009,-8.10930895e-005
,,,-2.45000000e-009,-6.84368394e-005
,,,-2.42500000e-009,-5.99993393e-005
,,,-2.40000000e-009,-5.48430892e-005
,,,-2.37500000e-009,-5.34368392e-005
,,,-2.35000000e-009,-5.48430892e-005
,,,-2.32500000e-009,-5.81243393e-005
,,,-2.30000000e-009,-6.14055893e-005
,,,-2.27500000e-009,-6.37493393e-005
,,,-2.25000000e-009,-6.37493393e-005
,,,-2.22500000e-009,-5.99993393e-005
,,,-2.20000000e-009,-5.20305892e-005
,,,-2.17500000e-009,-4.03118391e-005
,,,-2.15000000e-009,-2.48430890e-005
,,,-2.12500000e-009,-7.49933883e-006
,,,-2.10000000e-009,1.12506613e-005
,,,-2.07500000e-009,2.95319115e-005
,,,-2.05000000e-009,4.59381616e-005
,,,-2.02500000e-009,6.00006618e-005
,,,-2.00000000e-009,6.89069118e-005
,,,-1.97500000e-009,7.35944119e-005
,,,-1.95000000e-009,7.45319119e-005
,,,-1.92500000e-009,7.26569119e-005
,,,-1.90000000e-009,6.89069118e-005
,,,-1.87500000e-009,6.46881618e-005
,,,-1.85000000e-009,6.09381618e-005
,,,-1.82500000e-009,6.00006618e-005
,,,-1.80000000e-009,5.76569117e-005
,,,-1.77500000e-009,6.00006618e-005
,,,-1.75000000e-009,6.65631618e-005
,,,-1.72500000e-009,7.87506619e-005
,,,-1.70000000e-009,9.65631621e-005
,,,-1.67500000e-009,1.20000662e-004
,,,-1.65000000e-009,1.48125663e-004
,,,-1.62500000e-009,1.80000663e-004
,,,-1.60000000e-009,2.04844413e-004
,,,-1.57500000e-009,2.29219413e-004
,,,-1.55000000e-009,2.51719413e-004
,,,-1.52500000e-009,2.70938164e-004
,,,-1.50000000e-009,2.85938164e-004
,,,-1.47500000e-009,2.96719414e-004
,,,-1.45000000e-009,3.01406914e-004
,,,-1.42500000e-009,3.00000664e-004
,,,-1.40000000e-009,2.77031914e-004
,,,-1.37500000e-009,2.47500663e-004
,,,-1.35000000e-009,2.13281913e-004
,,,-1.32500000e-009,1.77188163e-004
,,,-1.30000000e-009,1.41563162e-004
,,,-1.27500000e-009,1.09219412e-004
,,,-1.25000000e-009,8.15631619e-005
,,,-1.22500000e-009,6.00006618e-005
,,,-1.20000000e-009,2.53131615e-005
,,,-1.17500000e-009,-7.03058882e-006
,,,-1.15000000e-009,-3.70305891e-005
,,,-1.12500000e-009,-6.51555893e-005
,,,-1.10000000e-009,-9.28118396e-005
,,,-1.07500000e-009,-1.19999340e-004
,,,-1.05000000e-009,-1.49061840e-004
,,,-1.02500000e-009,-1.79999340e-004
,,,-1.00000000e-009,-2.37186841e-004
,,,-9.75000000e-010,-3.00468091e-004
,,,-9.50000000e-010,-3.67968092e-004
,,,-9.25000000e-010,-4.35936843e-004
,,,-9.00000000e-010,-5.01561843e-004
,,,-8.75000000e-010,-5.61561844e-004
,,,-8.50000000e-010,-6.14530594e-004
,,,-8.25000000e-010,-6.59999344e-004
,,,-8.00000000e-010,-7.20936845e-004
,,,-7.75000000e-010,-7.81874346e-004
,,,-7.50000000e-010,-8.44686846e-004
,,,-7.25000000e-010,-9.11718097e-004
,,,-7.00000000e-010,-9.84843097e-004
,,,-6.75000000e-010,-1.06593685e-003
,,,-6.50000000e-010,-1.15734310e-003
,,,-6.25000000e-010,-1.25999935e-003
,,,-6.00000000e-010,-1.39265560e-003
,,,-5.75000000e-010,-1.53937435e-003
,,,-5.50000000e-010,-1.69687435e-003
,,,-5.25000000e-010,-1.85906185e-003
,,,-5.00000000e-010,-2.02124936e-003
,,,-4.75000000e-010,-2.17781186e-003
,,,-4.50000000e-010,-2.32453061e-003
,,,-4.25000000e-010,-2.45999936e-003
,,,-4.00000000e-010,-2.59171811e-003
,,,-3.75000000e-010,-2.71781186e-003
,,,-3.50000000e-010,-2.84203061e-003
,,,-3.25000000e-010,-2.96718686e-003
,,,-3.00000000e-010,-3.09656187e-003
,,,-2.75000000e-010,-3.23343687e-003
,,,-2.50000000e-010,-3.38109312e-003
,,,-2.25000000e-010,-3.53999937e-003
,,,-2.00000000e-010,-3.70781187e-003
,,,-1.75000000e-010,-3.88968687e-003
,,,-1.50000000e-010,-4.08093687e-003
,,,-1.25000000e-010,-4.27734313e-003
,,,-1.00000000e-010,-4.47187438e-003
,,,-7.50000000e-011,-4.65749938e-003
,,,-5.00000000e-011,-4.82859313e-003
,,,-2.50000000e-011,-4.97999938e-003
,,,0.00000000e+000,-5.09156188e-003
,,,2.50000000e-011,-5.18578063e-003
,,,5.00000000e-011,-5.26499938e-003
,,,7.50000000e-011,-5.33343689e-003
,,,1.00000000e-010,-5.39531189e-003
,,,1.25000000e-010,-5.45484314e-003
,,,1.50000000e-010,-5.51531189e-003
,,,1.75000000e-010,-5.57999939e-003
,,,2.00000000e-010,-5.62687439e-003
,,,2.25000000e-010,-5.68499939e-003
,,,2.50000000e-010,-5.75484314e-003
,,,2.75000000e-010,-5.83499939e-003
,,,3.00000000e-010,-5.92171814e-003
,,,3.25000000e-010,-6.01124939e-003
,,,3.50000000e-010,-6.09890564e-003
,,,3.75000000e-010,-6.17999939e-003
,,,4.00000000e-010,-6.21984314e-003
,,,4.25000000e-010,-6.25031189e-003
,,,4.50000000e-010,-6.27281189e-003
,,,4.75000000e-010,-6.28874939e-003
,,,5.00000000e-010,-6.29859314e-003
,,,5.25000000e-010,-6.30328064e-003
,,,5.50000000e-010,-6.30421814e-003
,,,5.75000000e-010,-6.29999939e-003
,,,6.00000000e-010,-6.26109314e-003
,,,6.25000000e-010,-6.21984314e-003
,,,6.50000000e-010,-6.17765564e-003
,,,6.75000000e-010,-6.13499939e-003
,,,7.00000000e-010,-6.09093689e-003
,,,7.25000000e-010,-6.04499939e-003
,,,7.50000000e-010,-5.99484314e-003
,,,7.75000000e-010,-5.93999939e-003
,,,8.00000000e-010,-5.85328064e-003
,,,8.25000000e-010,-5.76187439e-003
,,,8.50000000e-010,-5.66765564e-003
,,,8.75000000e-010,-5.57296814e-003
,,,9.00000000e-010,-5.47968689e-003
,,,9.25000000e-010,-5.38968689e-003
,,,9.50000000e-010,-5.30296813e-003
,,,9.75000000e-010,-5.21999938e-003
,,,1.00000000e-009,-5.12437438e-003
,,,1.02500000e-009,-5.03109313e-003
,,,1.05000000e-009,-4.93921813e-003
,,,1.07500000e-009,-4.84968688e-003
,,,1.10000000e-009,-4.76203063e-003
,,,1.12500000e-009,-4.67484313e-003
,,,1.15000000e-009,-4.58812438e-003
,,,1.17500000e-009,-4.49999938e-003
,,,1.20000000e-009,-4.40156188e-003
,,,1.22500000e-009,-4.29890563e-003
,,,1.25000000e-009,-4.19249938e-003
,,,1.27500000e-009,-4.08374937e-003
,,,1.30000000e-009,-3.97499937e-003
,,,1.32500000e-009,-3.86718687e-003
,,,1.35000000e-009,-3.76171812e-003
,,,1.37500000e-009,-3.65999937e-003
,,,1.40000000e-009,-3.56249937e-003
,,,1.42500000e-009,-3.46546812e-003
,,,1.45000000e-009,-3.37078062e-003
,,,1.47500000e-009,-3.27796812e-003
,,,1.50000000e-009,-3.18796812e-003
,,,1.52500000e-009,-3.10171812e-003
,,,1.55000000e-009,-3.01921812e-003
,,,1.57500000e-009,-2.93999936e-003
,,,1.60000000e-009,-2.87015561e-003
,,,1.62500000e-009,-2.79796811e-003
,,,1.65000000e-009,-2.72390561e-003
,,,1.67500000e-009,-2.64749936e-003
,,,1.70000000e-009,-2.57015561e-003
,,,1.72500000e-009,-2.49234311e-003
,,,1.75000000e-009,-2.41546811e-003
,,,1.77500000e-009,-2.33999936e-003
,,,1.80000000e-009,-2.27578061e-003
,,,1.82500000e-009,-2.21015561e-003
,,,1.85000000e-009,-2.14406186e-003
,,,1.87500000e-009,-2.07890561e-003
,,,1.90000000e-009,-2.01656186e-003
,,,1.92500000e-009,-1.95843686e-003
,,,1.95000000e-009,-1.90640561e-003
,,,1.97500000e-009,-1.85999935e-003
,,,2.00000000e-009,-1.82999935e-003
,,,2.02500000e-009,-1.80140560e-003
,,,2.05000000e-009,-1.77328060e-003
,,,2.07500000e-009,-1.74468685e-003
,,,2.10000000e-009,-1.71515560e-003
,,,2.12500000e-009,-1.68468685e-003
,,,2.15000000e-009,-1.65281185e-003
,,,2.17500000e-009,-1.61999935e-003
,,,2.20000000e-009,-1.59562435e-003
,,,2.22500000e-009,-1.56703060e-003
,,,2.25000000e-009,-1.53562435e-003
,,,2.27500000e-009,-1.50187435e-003
,,,2.30000000e-009,-1.46765560e-003
,,,2.32500000e-009,-1.43531185e-003
,,,2.35000000e-009,-1.40578060e-003
,,,2.37500000e-009,-1.37999935e-003
,,,2.40000000e-009,-1.36546810e-003
,,,2.42500000e-009,-1.35187435e-003
,,,2.45000000e-009,-1.33921810e-003
,,,2.47500000e-009,-1.32609310e-003
,,,2.50000000e-009,-1.31203060e-003
,,,2.52500000e-009,-1.29703060e-003
,,,2.55000000e-009,-1.27968685e-003
,,,2.57500000e-009,-1.25999935e-003
,,,2.60000000e-009,-1.24265560e-003
,,,2.62500000e-009,-1.21968685e-003
,,,2.65000000e-009,-1.19203060e-003
,,,2.67500000e-009,-1.16015560e-003
,,,2.70000000e-009,-1.12546810e-003
,,,2.72500000e-009,-1.08937435e-003
,,,2.75000000e-009,-1.05328060e-003
,,,2.77500000e-009,-1.01999935e-003
,,,2.80000000e-009,-9.95155597e-004
,,,2.82500000e-009,-9.74999347e-004
,,,2.85000000e-009,-9.61405597e-004
,,,2.87500000e-009,-9.55311847e-004
,,,2.90000000e-009,-9.58124347e-004
,,,2.92500000e-009,-9.70311847e-004
,,,2.95000000e-009,-9.91405597e-004
,,,2.97500000e-009,-1.01999935e-003
,,,3.00000000e-009,-1.05468685e-003
,,,3.02500000e-009,-1.08937435e-003
,,,3.05000000e-009,-1.12171810e-003
,,,3.07500000e-009,-1.14749935e-003
,,,3.10000000e-009,-1.16390560e-003
,,,3.12500000e-009,-1.16953060e-003
,,,3.15000000e-009,-1.16156185e-003
,,,3.17500000e-009,-1.13999935e-003
,,,3.20000000e-009,-1.10484310e-003
,,,3.22500000e-009,-1.05843685e-003
,,,3.25000000e-009,-1.00453060e-003
,,,3.27500000e-009,-9.47811847e-004
,,,3.30000000e-009,-8.92968097e-004
,,,3.32500000e-009,-8.44218096e-004
,,,3.35000000e-009,-8.05780596e-004
,,,3.37500000e-009,-7.79999346e-004
,,,3.40000000e-009,-7.69218095e-004
,,,3.42500000e-009,-7.71561845e-004
,,,3.45000000e-009,-7.84686846e-004
,,,3.47500000e-009,-8.06249346e-004
,,,3.50000000e-009,-8.32499346e-004
,,,3.52500000e-009,-8.59686846e-004
,,,3.55000000e-009,-8.83124346e-004
,,,3.57500000e-009,-8.99999347e-004
,,,3.60000000e-009,-9.06093097e-004
,,,3.62500000e-009,-8.99530597e-004
,,,3.65000000e-009,-8.80311846e-004
,,,3.67500000e-009,-8.49843096e-004
,,,3.70000000e-009,-8.09999346e-004
,,,3.72500000e-009,-7.63124345e-004
,,,3.75000000e-009,-7.12499345e-004
,,,3.77500000e-009,-6.59999344e-004
,,,3.80000000e-009,-6.10311844e-004
,,,3.82500000e-009,-5.64374344e-004
,,,3.85000000e-009,-5.23593093e-004
,,,3.87500000e-009,-4.89374343e-004
,,,3.90000000e-009,-4.62186843e-004
,,,3.92500000e-009,-4.42030593e-004
,,,3.95000000e-009,-4.28436842e-004
,,,3.97500000e-009,-4.19999342e-004
,,,4.00000000e-009,-4.18593092e-004
,,,4.02500000e-009,-4.19530592e-004
,,,4.05000000e-009,-4.21874342e-004
,,,4.07500000e-009,-4.24218092e-004
,,,4.10000000e-009,-4.26093092e-004
,,,4.12500000e-009,-4.26561842e-004
,,,4.15000000e-009,-4.24686842e-004
,,,4.17500000e-009,-4.19999342e-004
,,,4.20000000e-009,-4.15780592e-004
,,,4.22500000e-009,-4.07343092e-004
,,,4.25000000e-009,-3.95155592e-004
,,,4.27500000e-009,-3.79218092e-004
,,,4.30000000e-009,-3.60936842e-004
,,,4.32500000e-009,-3.40780592e-004
,,,4.35000000e-009,-3.20155592e-004
,,,4.37500000e-009,-2.99999341e-004
,,,4.40000000e-009,-2.84530591e-004
,,,4.42500000e-009,-2.71405591e-004
,,,4.45000000e-009,-2.62499341e-004
,,,4.47500000e-009,-2.58749341e-004
,,,4.50000000e-009,-2.60624341e-004
,,,4.52500000e-009,-2.68124341e-004
,,,4.55000000e-009,-2.81718091e-004
,,,4.57500000e-009,-2.99999341e-004
,,,4.60000000e-009,-3.23905592e-004
,,,4.62500000e-009,-3.48749342e-004
,,,4.65000000e-009,-3.72655592e-004
,,,4.67500000e-009,-3.93749342e-004
,,,4.70000000e-009,-4.09686842e-004
,,,4.72500000e-009,-4.19999342e-004
,,,4.75000000e-009,-4.23749342e-004
,,,4.77500000e-009,-4.19999342e-004
,,,4.80000000e-009,-4.09218092e-004
,,,4.82500000e-009,-3.92811842e-004
,,,4.85000000e-009,-3.72655592e-004
,,,4.87500000e-009,-3.51093092e-004
,,,4.90000000e-009,-3.30936842e-004
,,,4.92500000e-009,-3.14061841e-004
,,,4.95000000e-009,-3.03749341e-004
,,,4.97500000e-009,-2.99999341e-004
,,,5.00000000e-009,-3.03749341e-004
,,,5.02500000e-009,-3.14530591e-004
,,,5.05000000e-009,-3.30468092e-004
,,,5.07500000e-009,-3.50155592e-004
,,,5.10000000e-009,-3.71718092e-004
,,,5.12500000e-009,-3.91874342e-004
,,,5.15000000e-009,-4.08749342e-004
,,,5.17500000e-009,-4.19999342e-004
,,,5.20000000e-009,-4.24686842e-004
,,,5.22500000e-009,-4.21405592e-004
,,,5.25000000e-009,-4.11561842e-004
,,,5.27500000e-009,-3.95624342e-004
,,,5.30000000e-009,-3.74530592e-004
,,,5.32500000e-009,-3.50624342e-004
,,,5.35000000e-009,-3.25311842e-004
,,,5.37500000e-009,-2.99999341e-004
,,,5.40000000e-009,-2.76093091e-004
,,,5.42500000e-009,-2.54999341e-004
,,,5.45000000e-009,-2.36718091e-004
,,,5.47500000e-009,-2.21249341e-004
,,,5.50000000e-009,-2.08593091e-004
,,,5.52500000e-009,-1.98280590e-004
,,,5.55000000e-009,-1.88905590e-004
,,,5.57500000e-009,-1.79999340e-004
,,,5.60000000e-009,-1.70624340e-004
,,,5.62500000e-009,-1.59843090e-004
,,,5.65000000e-009,-1.47186840e-004
,,,5.67500000e-009,-1.32655590e-004
,,,5.70000000e-009,-1.16249340e-004
,,,5.72500000e-009,-9.79680896e-005
,,,5.75000000e-009,-7.92180894e-005
,,,5.77500000e-009,-5.99993393e-005
,,,5.80000000e-009,-4.54680892e-005
,,,5.82500000e-009,-3.28118390e-005
,,,5.85000000e-009,-2.39055890e-005
,,,5.87500000e-009,-1.92180889e-005
,,,5.90000000e-009,-2.01555889e-005
