RawData/SinglePhotoelectron/R4_25foot_5mV/wave006_Ch1.csv

"Record Length",1000,"Points",-7.72500000e-009,-6.42180893e-005
"Sample Interval",2.50000000e-011,s,-7.70000000e-009,-5.99993393e-005
"Trigger Point",309,"Samples",-7.67500000e-009,-4.07805891e-005
"Trigger Time",8.60029197e-012,s,-7.65000000e-009,-1.03118389e-005
"",,,-7.62500000e-009,2.81256615e-005
"Horizontal Offset",-7.72500000e-009,s,-7.60000000e-009,6.98444118e-005
,,,-7.57500000e-009,1.09688162e-004
,,,-7.55000000e-009,1.43438162e-004
,,,-7.52500000e-009,1.67813163e-004
,,,-7.50000000e-009,1.80000663e-004
,,,-7.47500000e-009,1.79531913e-004
,,,-7.45000000e-009,1.67813163e-004
,,,-7.42500000e-009,1.47188163e-004
,,,-7.40000000e-009,1.21875662e-004
,,,-7.37500000e-009,9.60944121e-005
,,,-7.35000000e-009,7.50006619e-005
,,,-7.32500000e-009,6.18756618e-005
,,,-7.30000000e-009,6.00006618e-005
,,,-7.27500000e-009,7.17194119e-005
,,,-7.25000000e-009,9.56256621e-005
,,,-7.22500000e-009,1.28438162e-004
,,,-7.20000000e-009,1.67344413e-004
,,,-7.17500000e-009,2.08125663e-004
,,,-7.15000000e-009,2.46094413e-004
,,,-7.12500000e-009,2.77969414e-004
,,,-7.10000000e-009,3.00000664e-004
,,,-7.07500000e-009,3.08906914e-004
,,,-7.05000000e-009,3.06094414e-004
,,,-7.02500000e-009,2.92500664e-004
,,,-7.00000000e-009,2.70938164e-004
,,,-6.97500000e-009,2.45156913e-004
,,,-6.95000000e-009,2.19375663e-004
,,,-6.92500000e-009,1.96406913e-004
,,,-6.90000000e-009,1.80000663e-004
,,,-6.87500000e-009,1.71094413e-004
,,,-6.85000000e-009,1.72031913e-004
,,,-6.82500000e-009,1.81875663e-004
,,,-6.80000000e-009,1.99688163e-004
,,,-6.77500000e-009,2.23125663e-004
,,,-6.75000000e-009,2.48906913e-004
,,,-6.72500000e-009,2.75625664e-004
,,,-6.70000000e-009,3.00000664e-004
,,,-6.67500000e-009,3.17344414e-004
,,,-6.65000000e-009,3.29063164e-004
,,,-6.62500000e-009,3.35156914e-004
,,,-6.60000000e-009,3.35625664e-004
,,,-6.57500000e-009,3.31406914e-004
,,,-6.55000000e-009,3.22969414e-004
,,,-6.52500000e-009,3.12188164e-004
,,,-6.50000000e-009,3.00000664e-004
,,,-6.47500000e-009,2.84063164e-004
,,,-6.45000000e-009,2.68594414e-004
,,,-6.42500000e-009,2.53125663e-004
,,,-6.40000000e-009,2.38125663e-004
,,,-6.37500000e-009,2.23594413e-004
,,,-6.35000000e-009,2.09063163e-004
,,,-6.32500000e-009,1.94531913e-004
,,,-6.30000000e-009,1.80000663e-004
,,,-6.27500000e-009,1.62188163e-004
,,,-6.25000000e-009,1.44844412e-004
,,,-6.22500000e-009,1.27500662e-004
,,,-6.20000000e-009,1.10625662e-004
,,,-6.17500000e-009,9.46881621e-005
,,,-6.15000000e-009,8.10944119e-005
,,,-6.12500000e-009,6.89069118e-005
,,,-6.10000000e-009,6.00006618e-005
,,,-6.07500000e-009,5.34381617e-005
,,,-6.05000000e-009,4.96881617e-005
,,,-6.02500000e-009,4.78131617e-005
,,,-6.00000000e-009,4.78131617e-005
,,,-5.97500000e-009,4.96881617e-005
,,,-5.95000000e-009,5.25006617e-005
,,,-5.92500000e-009,5.57819117e-005
,,,-5.90000000e-009,6.00006618e-005
,,,-5.87500000e-009,6.28131618e-005
,,,-5.85000000e-009,6.51569118e-005
,,,-5.82500000e-009,6.65631618e-005
,,,-5.80000000e-009,6.70319118e-005
,,,-5.77500000e-009,6.65631618e-005
,,,-5.75000000e-009,6.51569118e-005
,,,-5.72500000e-009,6.32819118e-005
,,,-5.70000000e-009,6.00006618e-005
,,,-5.67500000e-009,5.57819117e-005
,,,-5.65000000e-009,4.92194117e-005
,,,-5.62500000e-009,4.03131616e-005
,,,-5.60000000e-009,2.71881615e-005
,,,-5.57500000e-009,1.07819113e-005
,,,-5.55000000e-009,-9.37433884e-006
,,,-5.52500000e-009,-3.32805891e-005
,,,-5.50000000e-009,-5.99993393e-005
,,,-5.47500000e-009,-8.71868395e-005
,,,-5.45000000e-009,-1.14374340e-004
,,,-5.42500000e-009,-1.39686840e-004
,,,-5.40000000e-009,-1.61249340e-004
,,,-5.37500000e-009,-1.77186840e-004
,,,-5.35000000e-009,-1.86093090e-004
,,,-5.32500000e-009,-1.87499340e-004
,,,-5.30000000e-009,-1.79999340e-004
,,,-5.27500000e-009,-1.64061840e-004
,,,-5.25000000e-009,-1.42499340e-004
,,,-5.22500000e-009,-1.19061840e-004
,,,-5.20000000e-009,-9.60930896e-005
,,,-5.17500000e-009,-7.64055894e-005
,,,-5.15000000e-009,-6.28118393e-005
,,,-5.12500000e-009,-5.71868393e-005
,,,-5.10000000e-009,-5.99993393e-005
,,,-5.07500000e-009,-7.26555894e-005
,,,-5.05000000e-009,-9.23430896e-005
,,,-5.02500000e-009,-1.16249340e-004
,,,-5.00000000e-009,-1.41093090e-004
,,,-4.97500000e-009,-1.63124340e-004
,,,-4.95000000e-009,-1.79061840e-004
,,,-4.92500000e-009,-1.85155590e-004
,,,-4.90000000e-009,-1.79999340e-004
,,,-4.87500000e-009,-1.62655590e-004
,,,-4.85000000e-009,-1.34999340e-004
,,,-4.82500000e-009,-9.98430896e-005
,,,-4.80000000e-009,-6.09368393e-005
,,,-4.77500000e-009,-2.15618389e-005
,,,-4.75000000e-009,1.35944114e-005
,,,-4.72500000e-009,4.17194116e-005
,,,-4.70000000e-009,6.00006618e-005
,,,-4.67500000e-009,6.51569118e-005
,,,-4.65000000e-009,5.95319118e-005
,,,-4.62500000e-009,4.45319116e-005
,,,-4.60000000e-009,2.34381614e-005
,,,-4.57500000e-009,-1.40558877e-006
,,,-4.55000000e-009,-2.53118390e-005
,,,-4.52500000e-009,-4.59368392e-005
,,,-4.50000000e-009,-5.99993393e-005
,,,-4.47500000e-009,-6.70305893e-005
,,,-4.45000000e-009,-6.65618393e-005
,,,-4.42500000e-009,-6.14055893e-005
,,,-4.40000000e-009,-5.34368392e-005
,,,-4.37500000e-009,-4.64055892e-005
,,,-4.35000000e-009,-4.35930891e-005
,,,-4.32500000e-009,-4.78118392e-005
,,,-4.30000000e-009,-5.99993393e-005
,,,-4.27500000e-009,-8.24993395e-005
,,,-4.25000000e-009,-1.12499340e-004
,,,-4.22500000e-009,-1.48593090e-004
,,,-4.20000000e-009,-1.87499340e-004
,,,-4.17500000e-009,-2.24999341e-004
,,,-4.15000000e-009,-2.58280591e-004
,,,-4.12500000e-009,-2.84061841e-004
,,,-4.10000000e-009,-2.99999341e-004
,,,-4.07500000e-009,-3.02811841e-004
,,,-4.05000000e-009,-2.94843091e-004
,,,-4.02500000e-009,-2.78436841e-004
,,,-4.00000000e-009,-2.56405591e-004
,,,-3.97500000e-009,-2.32499341e-004
,,,-3.95000000e-009,-2.09999341e-004
,,,-3.92500000e-009,-1.92186840e-004
,,,-3.90000000e-009,-1.79999340e-004
,,,-3.87500000e-009,-1.74843090e-004
,,,-3.85000000e-009,-1.76249340e-004
,,,-3.82500000e-009,-1.81874340e-004
,,,-3.80000000e-009,-1.89843090e-004
,,,-3.77500000e-009,-1.96405590e-004
,,,-3.75000000e-009,-1.98749340e-004
,,,-3.72500000e-009,-1.94061840e-004
,,,-3.70000000e-009,-1.79999340e-004
,,,-3.67500000e-009,-1.55624340e-004
,,,-3.65000000e-009,-1.23280590e-004
,,,-3.62500000e-009,-8.57805895e-005
,,,-3.60000000e-009,-4.64055892e-005
,,,-3.57500000e-009,-8.90558884e-006
,,,-3.55000000e-009,2.29694114e-005
,,,-3.52500000e-009,4.68756616e-005
,,,-3.50000000e-009,6.00006618e-005
,,,-3.47500000e-009,6.04694118e-005
,,,-3.45000000e-009,5.01569117e-005
,,,-3.42500000e-009,3.18756615e-005
,,,-3.40000000e-009,8.90691132e-006
,,,-3.37500000e-009,-1.54680889e-005
,,,-3.35000000e-009,-3.70305891e-005
,,,-3.32500000e-009,-5.29680892e-005
,,,-3.30000000e-009,-5.99993393e-005
,,,-3.27500000e-009,-5.76555893e-005
,,,-3.25000000e-009,-4.59368392e-005
,,,-3.22500000e-009,-2.76555890e-005
,,,-3.20000000e-009,-4.68683880e-006
,,,-3.17500000e-009,1.82819114e-005
,,,-3.15000000e-009,3.89069116e-005
,,,-3.12500000e-009,5.34381617e-005
,,,-3.10000000e-009,6.00006618e-005
,,,-3.07500000e-009,5.57819117e-005
,,,-3.05000000e-009,4.31256616e-005
,,,-3.02500000e-009,2.43756615e-005
,,,-3.00000000e-009,2.34441126e-006
,,,-2.97500000e-009,-2.01555889e-005
,,,-2.95000000e-009,-3.98430891e-005
,,,-2.92500000e-009,-5.39055892e-005
,,,-2.90000000e-009,-5.99993393e-005
,,,-2.87500000e-009,-5.71868393e-005
,,,-2.85000000e-009,-4.54680892e-005
,,,-2.82500000e-009,-2.71868390e-005
,,,-2.80000000e-009,-4.68683880e-006
,,,-2.77500000e-009,1.82819114e-005
,,,-2.75000000e-009,3.84381616e-005
,,,-2.72500000e-009,5.29694117e-005
,,,-2.70000000e-009,6.00006618e-005
,,,-2.67500000e-009,5.67194117e-005
,,,-2.65000000e-009,4.59381616e-005
,,,-2.62500000e-009,2.85944115e-005
,,,-2.60000000e-009,7.03191130e-006
,,,-2.57500000e-009,-1.54680889e-005
,,,-2.55000000e-009,-3.60930891e-005
,,,-2.52500000e-009,-5.15618392e-005
,,,-2.50000000e-009,-5.99993393e-005
,,,-2.47500000e-009,-6.04680893e-005
,,,-2.45000000e-009,-5.24993392e-005
,,,-2.42500000e-009,-3.79680891e-005
,,,-2.40000000e-009,-1.87493389e-005
,,,-2.37500000e-009,3.28191127e-006
,,,-2.35000000e-009,2.48444115e-005
,,,-2.32500000e-009,4.45319116e-005
,,,-2.30000000e-009,6.00006618e-005
,,,-2.27500000e-009,6.98444118e-005
,,,-2.25000000e-009,7.45319119e-005
,,,-2.22500000e-009,7.45319119e-005
,,,-2.20000000e-009,7.07819119e-005
,,,-2.17500000e-009,6.60944118e-005
,,,-2.15000000e-009,6.14069118e-005
,,,-2.12500000e-009,5.85944117e-005
,,,-2.10000000e-009,6.00006618e-005
,,,-2.07500000e-009,6.51569118e-005
,,,-2.05000000e-009,7.54694119e-005
,,,-2.02500000e-009,9.00006620e-005
,,,-2.00000000e-009,1.07813162e-004
,,,-1.97500000e-009,1.27500662e-004
,,,-1.95000000e-009,1.47188163e-004
,,,-1.92500000e-009,1.65469413e-004
,,,-1.90000000e-009,1.80000663e-004
,,,-1.87500000e-009,1.86094413e-004
,,,-1.85000000e-009,1.86094413e-004
,,,-1.82500000e-009,1.79531913e-004
,,,-1.80000000e-009,1.65938163e-004
,,,-1.77500000e-009,1.46250663e-004
,,,-1.75000000e-009,1.20938162e-004
,,,-1.72500000e-009,9.14069120e-005
,,,-1.70000000e-009,6.00006618e-005
,,,-1.67500000e-009,2.48444115e-005
,,,-1.65000000e-009,-8.43683883e-006
,,,-1.62500000e-009,-3.74993391e-005
,,,-1.60000000e-009,-6.04680893e-005
,,,-1.57500000e-009,-7.54680894e-005
,,,-1.55000000e-009,-8.06243395e-005
,,,-1.52500000e-009,-7.59368394e-005
,,,-1.50000000e-009,-5.99993393e-005
,,,-1.47500000e-009,-4.07805891e-005
,,,-1.45000000e-009,-1.40618389e-005
,,,-1.42500000e-009,1.78131614e-005
,,,-1.40000000e-009,5.25006617e-005
,,,-1.37500000e-009,8.85944120e-005
,,,-1.35000000e-009,1.23281912e-004
,,,-1.32500000e-009,1.54219413e-004
,,,-1.30000000e-009,1.80000663e-004
,,,-1.27500000e-009,1.85156913e-004
,,,-1.25000000e-009,1.81406913e-004
,,,-1.22500000e-009,1.68750663e-004
,,,-1.20000000e-009,1.50469413e-004
,,,-1.17500000e-009,1.27969412e-004
,,,-1.15000000e-009,1.04063162e-004
,,,-1.12500000e-009,8.10944119e-005
,,,-1.10000000e-009,6.00006618e-005
,,,-1.07500000e-009,2.10944114e-005
,,,-1.05000000e-009,-1.78118389e-005
,,,-1.02500000e-009,-5.43743392e-005
,,,-1.00000000e-009,-8.76555895e-005
,,,-9.75000000e-010,-1.17186840e-004
,,,-9.50000000e-010,-1.42030590e-004
,,,-9.25000000e-010,-1.62655590e-004
,,,-9.00000000e-010,-1.79999340e-004
,,,-8.75000000e-010,-2.24061841e-004
,,,-8.50000000e-010,-2.71405591e-004
,,,-8.25000000e-010,-3.21561842e-004
,,,-8.00000000e-010,-3.71718092e-004
,,,-7.75000000e-010,-4.19530592e-004
,,,-7.50000000e-010,-4.64061843e-004
,,,-7.25000000e-010,-5.04374343e-004
,,,-7.00000000e-010,-5.39999343e-004
,,,-6.75000000e-010,-6.07499344e-004
,,,-6.50000000e-010,-6.79218095e-004
,,,-6.25000000e-010,-7.53280595e-004
,,,-6.00000000e-010,-8.29686846e-004
,,,-5.75000000e-010,-9.06561847e-004
,,,-5.50000000e-010,-9.83436847e-004
,,,-5.25000000e-010,-1.06078060e-003
,,,-5.00000000e-010,-1.13999935e-003
,,,-4.75000000e-010,-1.25859310e-003
,,,-4.50000000e-010,-1.38937435e-003
,,,-4.25000000e-010,-1.53046810e-003
,,,-4.00000000e-010,-1.68093685e-003
,,,-3.75000000e-010,-1.83843685e-003
,,,-3.50000000e-010,-2.00109311e-003
,,,-3.25000000e-010,-2.16843686e-003
,,,-3.00000000e-010,-2.33999936e-003
,,,-2.75000000e-010,-2.54203061e-003
,,,-2.50000000e-010,-2.75484311e-003
,,,-2.25000000e-010,-2.97703061e-003
,,,-2.00000000e-010,-3.20578062e-003
,,,-1.75000000e-010,-3.43828062e-003
,,,-1.50000000e-010,-3.67218687e-003
,,,-1.25000000e-010,-3.90656187e-003
,,,-1.00000000e-010,-4.13999937e-003
,,,-7.50000000e-011,-4.38187438e-003
,,,-5.00000000e-011,-4.62890563e-003
,,,-2.50000000e-011,-4.88156188e-003
,,,0.00000000e+000,-5.13843688e-003
,,,2.50000000e-011,-5.39812439e-003
,,,5.00000000e-011,-5.65921814e-003
,,,7.50000000e-011,-5.92031189e-003
,,,1.00000000e-010,-6.17999939e-003
,,,1.25000000e-010,-6.42468689e-003
,,,1.50000000e-010,-6.67171815e-003
,,,1.75000000e-010,-6.91968690e-003
,,,2.00000000e-010,-7.16718690e-003
,,,2.25000000e-010,-7.41140565e-003
,,,2.50000000e-010,-7.65046816e-003
,,,2.75000000e-010,-7.88062441e-003
,,,3.00000000e-010,-8.09999941e-003
,,,3.25000000e-010,-8.27296816e-003
,,,3.50000000e-010,-8.43890566e-003
,,,3.75000000e-010,-8.59828066e-003
,,,4.00000000e-010,-8.75156191e-003
,,,4.25000000e-010,-8.89968692e-003
,,,4.50000000e-010,-9.04124942e-003
,,,4.75000000e-010,-9.17484317e-003
,,,5.00000000e-010,-9.29999942e-003
,,,5.25000000e-010,-9.36937442e-003
,,,5.50000000e-010,-9.43546817e-003
,,,5.75000000e-010,-9.49968692e-003
,,,6.00000000e-010,-9.56296817e-003
,,,6.25000000e-010,-9.62437442e-003
,,,6.50000000e-010,-9.68249942e-003
,,,6.75000000e-010,-9.73546817e-003
,,,7.00000000e-010,-9.77999942e-003
,,,7.25000000e-010,-9.76406192e-003
,,,7.50000000e-010,-9.74249942e-003
,,,7.75000000e-010,-9.71718692e-003
,,,8.00000000e-010,-9.68859317e-003
,,,8.25000000e-010,-9.65812442e-003
,,,8.50000000e-010,-9.62390567e-003
,,,8.75000000e-010,-9.58499942e-003
,,,9.00000000e-010,-9.53999942e-003
,,,9.25000000e-010,-9.44109317e-003
,,,9.50000000e-010,-9.33796817e-003
,,,9.75000000e-010,-9.23249942e-003
,,,1.00000000e-009,-9.12609317e-003
,,,1.02500000e-009,-9.01968692e-003
,,,1.05000000e-009,-8.91374942e-003
,,,1.07500000e-009,-8.80734317e-003
,,,1.10000000e-009,-8.69999941e-003
,,,1.12500000e-009,-8.55562441e-003
,,,1.15000000e-009,-8.41078066e-003
,,,1.17500000e-009,-8.26734316e-003
,,,1.20000000e-009,-8.12718691e-003
,,,1.22500000e-009,-7.99171816e-003
,,,1.25000000e-009,-7.86234316e-003
,,,1.27500000e-009,-7.73859316e-003
,,,1.30000000e-009,-7.61999940e-003
,,,1.32500000e-009,-7.48453065e-003
,,,1.35000000e-009,-7.34906190e-003
,,,1.37500000e-009,-7.21406190e-003
,,,1.40000000e-009,-7.07906190e-003
,,,1.42500000e-009,-6.94406190e-003
,,,1.45000000e-009,-6.80953065e-003
,,,1.47500000e-009,-6.67499940e-003
,,,1.50000000e-009,-6.53999940e-003
,,,1.52500000e-009,-6.39609314e-003
,,,1.55000000e-009,-6.24656189e-003
,,,1.57500000e-009,-6.09328064e-003
,,,1.60000000e-009,-5.93765564e-003
,,,1.62500000e-009,-5.78249939e-003
,,,1.65000000e-009,-5.63015564e-003
,,,1.67500000e-009,-5.48249939e-003
,,,1.70000000e-009,-5.33999939e-003
,,,1.72500000e-009,-5.20687438e-003
,,,1.75000000e-009,-5.07281188e-003
,,,1.77500000e-009,-4.93828063e-003
,,,1.80000000e-009,-4.80281188e-003
,,,1.82500000e-009,-4.66640563e-003
,,,1.85000000e-009,-4.52999938e-003
,,,1.87500000e-009,-4.39453063e-003
,,,1.90000000e-009,-4.25999938e-003
,,,1.92500000e-009,-4.13812437e-003
,,,1.95000000e-009,-4.01249937e-003
,,,1.97500000e-009,-3.88406187e-003
,,,2.00000000e-009,-3.75562437e-003
,,,2.02500000e-009,-3.62999937e-003
,,,2.05000000e-009,-3.51046812e-003
,,,2.07500000e-009,-3.39984312e-003
,,,2.10000000e-009,-3.29999937e-003
,,,2.12500000e-009,-3.22640562e-003
,,,2.15000000e-009,-3.15796812e-003
,,,2.17500000e-009,-3.09374937e-003
,,,2.20000000e-009,-3.03328062e-003
,,,2.22500000e-009,-2.97562436e-003
,,,2.25000000e-009,-2.92124936e-003
,,,2.27500000e-009,-2.86921811e-003
,,,2.30000000e-009,-2.81999936e-003
,,,2.32500000e-009,-2.78531186e-003
,,,2.35000000e-009,-2.74593686e-003
,,,2.37500000e-009,-2.70140561e-003
,,,2.40000000e-009,-2.65359311e-003
,,,2.42500000e-009,-2.60296811e-003
,,,2.45000000e-009,-2.55281186e-003
,,,2.47500000e-009,-2.50453061e-003
,,,2.50000000e-009,-2.45999936e-003
,,,2.52500000e-009,-2.43140561e-003
,,,2.55000000e-009,-2.40187436e-003
,,,2.57500000e-009,-2.37187436e-003
,,,2.60000000e-009,-2.34140561e-003
,,,2.62500000e-009,-2.31046811e-003
,,,2.65000000e-009,-2.27999936e-003
,,,2.67500000e-009,-2.24953061e-003
,,,2.70000000e-009,-2.21999936e-003
,,,2.72500000e-009,-2.19890561e-003
,,,2.75000000e-009,-2.17406186e-003
,,,2.77500000e-009,-2.14546811e-003
,,,2.80000000e-009,-2.11406186e-003
,,,2.82500000e-009,-2.08078061e-003
,,,2.85000000e-009,-2.04656186e-003
,,,2.87500000e-009,-2.01281186e-003
,,,2.90000000e-009,-1.97999936e-003
,,,2.92500000e-009,-1.95421811e-003
,,,2.95000000e-009,-1.92703061e-003
,,,2.97500000e-009,-1.89843686e-003
,,,3.00000000e-009,-1.86843686e-003
,,,3.02500000e-009,-1.83749935e-003
,,,3.05000000e-009,-1.80515560e-003
,,,3.07500000e-009,-1.77281185e-003
,,,3.10000000e-009,-1.73999935e-003
,,,3.12500000e-009,-1.70953060e-003
,,,3.15000000e-009,-1.67718685e-003
,,,3.17500000e-009,-1.64390560e-003
,,,3.20000000e-009,-1.61062435e-003
,,,3.22500000e-009,-1.57874935e-003
,,,3.25000000e-009,-1.54921810e-003
,,,3.27500000e-009,-1.52249935e-003
,,,3.30000000e-009,-1.49999935e-003
,,,3.32500000e-009,-1.48312435e-003
,,,3.35000000e-009,-1.46812435e-003
,,,3.37500000e-009,-1.45359310e-003
,,,3.40000000e-009,-1.43953060e-003
,,,3.42500000e-009,-1.42593685e-003
,,,3.45000000e-009,-1.41140560e-003
,,,3.47500000e-009,-1.39593685e-003
,,,3.50000000e-009,-1.37999935e-003
,,,3.52500000e-009,-1.36406185e-003
,,,3.55000000e-009,-1.34578060e-003
,,,3.57500000e-009,-1.32656185e-003
,,,3.60000000e-009,-1.30781185e-003
,,,3.62500000e-009,-1.29093685e-003
,,,3.65000000e-009,-1.27687435e-003
,,,3.67500000e-009,-1.26656185e-003
,,,3.70000000e-009,-1.25999935e-003
,,,3.72500000e-009,-1.25765560e-003
,,,3.75000000e-009,-1.25484310e-003
,,,3.77500000e-009,-1.25062435e-003
,,,3.80000000e-009,-1.24218685e-003
,,,3.82500000e-009,-1.22812435e-003
,,,3.85000000e-009,-1.20703060e-003
,,,3.87500000e-009,-1.17796810e-003
,,,3.90000000e-009,-1.13999935e-003
,,,3.92500000e-009,-1.09546810e-003
,,,3.95000000e-009,-1.04390560e-003
,,,3.97500000e-009,-9.88593097e-004
,,,4.00000000e-009,-9.33749347e-004
,,,4.02500000e-009,-8.82186846e-004
,,,4.05000000e-009,-8.37655596e-004
,,,4.07500000e-009,-8.03436846e-004
,,,4.10000000e-009,-7.79999346e-004
,,,4.12500000e-009,-7.71561845e-004
,,,4.15000000e-009,-7.71561845e-004
,,,4.17500000e-009,-7.78124346e-004
,,,4.20000000e-009,-7.87030596e-004
,,,4.22500000e-009,-7.94999346e-004
,,,4.25000000e-009,-7.98280596e-004
,,,4.27500000e-009,-7.93593096e-004
,,,4.30000000e-009,-7.79999346e-004
,,,4.32500000e-009,-7.57968095e-004
,,,4.35000000e-009,-7.26561845e-004
,,,4.37500000e-009,-6.88593095e-004
,,,4.40000000e-009,-6.47811844e-004
,,,4.42500000e-009,-6.08905594e-004
,,,4.45000000e-009,-5.75624344e-004
,,,4.47500000e-009,-5.52186844e-004
,,,4.50000000e-009,-5.39999343e-004
,,,4.52500000e-009,-5.44218093e-004
,,,4.55000000e-009,-5.58749344e-004
,,,4.57500000e-009,-5.80780594e-004
,,,4.60000000e-009,-6.06561844e-004
,,,4.62500000e-009,-6.30936844e-004
,,,4.65000000e-009,-6.50624344e-004
,,,4.67500000e-009,-6.60936845e-004
,,,4.70000000e-009,-6.59999344e-004
,,,4.72500000e-009,-6.47811844e-004
,,,4.75000000e-009,-6.23436844e-004
,,,4.77500000e-009,-5.89218094e-004
,,,4.80000000e-009,-5.48905594e-004
,,,4.82500000e-009,-5.07655593e-004
,,,4.85000000e-009,-4.69686843e-004
,,,4.87500000e-009,-4.39686843e-004
,,,4.90000000e-009,-4.19999342e-004
,,,4.92500000e-009,-4.16249342e-004
,,,4.95000000e-009,-4.23749342e-004
,,,4.97500000e-009,-4.40624343e-004
,,,5.00000000e-009,-4.63593093e-004
,,,5.02500000e-009,-4.88436843e-004
,,,5.05000000e-009,-5.11874343e-004
,,,5.07500000e-009,-5.30155593e-004
,,,5.10000000e-009,-5.39999343e-004
,,,5.12500000e-009,-5.41405593e-004
,,,5.15000000e-009,-5.32968093e-004
,,,5.17500000e-009,-5.16093093e-004
,,,5.20000000e-009,-4.94061843e-004
,,,5.22500000e-009,-4.70155593e-004
,,,5.25000000e-009,-4.47655593e-004
,,,5.27500000e-009,-4.30311843e-004
,,,5.30000000e-009,-4.19999342e-004
,,,5.32500000e-009,-4.20936842e-004
,,,5.35000000e-009,-4.30311843e-004
,,,5.37500000e-009,-4.46718093e-004
,,,5.40000000e-009,-4.67811843e-004
,,,5.42500000e-009,-4.90780593e-004
,,,5.45000000e-009,-5.12343093e-004
,,,5.47500000e-009,-5.29686843e-004
,,,5.50000000e-009,-5.39999343e-004
,,,5.52500000e-009,-5.42343093e-004
,,,5.55000000e-009,-5.36249343e-004
,,,5.57500000e-009,-5.22655593e-004
,,,5.60000000e-009,-5.03905593e-004
,,,5.62500000e-009,-4.81405593e-004
,,,5.65000000e-009,-4.58905593e-004
,,,5.67500000e-009,-4.37811843e-004
,,,5.70000000e-009,-4.19999342e-004
,,,5.72500000e-009,-4.08280592e-004
,,,5.75000000e-009,-4.01718092e-004
,,,5.77500000e-009,-3.99843092e-004
,,,5.80000000e-009,-4.01718092e-004
,,,5.82500000e-009,-4.06405592e-004
,,,5.85000000e-009,-4.11561842e-004
,,,5.87500000e-009,-4.16718092e-004
,,,5.90000000e-009,-4.19999342e-004
,,,5.92500000e-009,-4.21405592e-004
