RawData/SinglePhotoelectron/R1_2pt2B_5mV/wave000_Ch2.csv

"Record Length",1000,"Points",-7.72500000e-009,1.39062510e-004
"Sample Interval",2.50000000e-011,s,-7.70000000e-009,1.29687509e-004
"Trigger Point",309,"Samples",-7.67500000e-009,1.32031259e-004
"Trigger Time",1.59503797e-011,s,-7.65000000e-009,1.43750010e-004
"",,,-7.62500000e-009,1.60937511e-004
"Horizontal Offset",-7.72500000e-009,s,-7.60000000e-009,1.80468763e-004
,,,-7.57500000e-009,2.00000014e-004
,,,-7.55000000e-009,2.14843765e-004
,,,-7.52500000e-009,2.25000016e-004
,,,-7.50000000e-009,2.28906266e-004
,,,-7.47500000e-009,2.28125016e-004
,,,-7.45000000e-009,2.22656266e-004
,,,-7.42500000e-009,2.14843765e-004
,,,-7.40000000e-009,2.07031265e-004
,,,-7.37500000e-009,2.00000014e-004
,,,-7.35000000e-009,1.94531264e-004
,,,-7.32500000e-009,1.92187514e-004
,,,-7.30000000e-009,1.91406264e-004
,,,-7.27500000e-009,1.92187514e-004
,,,-7.25000000e-009,1.93750014e-004
,,,-7.22500000e-009,1.96093764e-004
,,,-7.20000000e-009,1.98437514e-004
,,,-7.17500000e-009,2.00000014e-004
,,,-7.15000000e-009,2.00000014e-004
,,,-7.12500000e-009,1.98437514e-004
,,,-7.10000000e-009,1.96093764e-004
,,,-7.07500000e-009,1.94531264e-004
,,,-7.05000000e-009,1.92968764e-004
,,,-7.02500000e-009,1.92968764e-004
,,,-7.00000000e-009,1.95312514e-004
,,,-6.97500000e-009,2.00000014e-004
,,,-6.95000000e-009,2.06250015e-004
,,,-6.92500000e-009,2.13281265e-004
,,,-6.90000000e-009,2.19531266e-004
,,,-6.87500000e-009,2.23437516e-004
,,,-6.85000000e-009,2.24218766e-004
,,,-6.82500000e-009,2.21093766e-004
,,,-6.80000000e-009,2.13281265e-004
,,,-6.77500000e-009,2.00000014e-004
,,,-6.75000000e-009,1.79687513e-004
,,,-6.72500000e-009,1.56250011e-004
,,,-6.70000000e-009,1.28906259e-004
,,,-6.67500000e-009,1.00000007e-004
,,,-6.65000000e-009,7.03125050e-005
,,,-6.62500000e-009,4.29687530e-005
,,,-6.60000000e-009,1.95312514e-005
,,,-6.57500000e-009,0.00000000e+000
,,,-6.55000000e-009,-1.25000009e-005
,,,-6.52500000e-009,-1.95312514e-005
,,,-6.50000000e-009,-2.18750015e-005
,,,-6.47500000e-009,-2.03125014e-005
,,,-6.45000000e-009,-1.56250011e-005
,,,-6.42500000e-009,-1.01562507e-005
,,,-6.40000000e-009,-4.68750033e-006
,,,-6.37500000e-009,0.00000000e+000
,,,-6.35000000e-009,5.46875039e-006
,,,-6.32500000e-009,9.37500066e-006
,,,-6.30000000e-009,1.09375008e-005
,,,-6.27500000e-009,1.09375008e-005
,,,-6.25000000e-009,8.59375061e-006
,,,-6.22500000e-009,6.25000044e-006
,,,-6.20000000e-009,3.12500022e-006
,,,-6.17500000e-009,0.00000000e+000
,,,-6.15000000e-009,-7.81250055e-007
,,,-6.12500000e-009,-7.81250055e-007
,,,-6.10000000e-009,0.00000000e+000
,,,-6.07500000e-009,0.00000000e+000
,,,-6.05000000e-009,7.81250055e-007
,,,-6.02500000e-009,7.81250055e-007
,,,-6.00000000e-009,7.81250055e-007
,,,-5.97500000e-009,0.00000000e+000
,,,-5.95000000e-009,0.00000000e+000
,,,-5.92500000e-009,-7.81250055e-007
,,,-5.90000000e-009,-2.34375017e-006
,,,-5.87500000e-009,-3.90625028e-006
,,,-5.85000000e-009,-5.46875039e-006
,,,-5.82500000e-009,-5.46875039e-006
,,,-5.80000000e-009,-3.90625028e-006
,,,-5.77500000e-009,0.00000000e+000
,,,-5.75000000e-009,7.81250055e-006
,,,-5.72500000e-009,2.10937515e-005
,,,-5.70000000e-009,3.82812527e-005
,,,-5.67500000e-009,6.01562543e-005
,,,-5.65000000e-009,8.82812562e-005
,,,-5.62500000e-009,1.21093759e-004
,,,-5.60000000e-009,1.58593761e-004
,,,-5.57500000e-009,2.00000014e-004
,,,-5.55000000e-009,2.40625017e-004
,,,-5.52500000e-009,2.81250020e-004
,,,-5.50000000e-009,3.18750023e-004
,,,-5.47500000e-009,3.51562525e-004
,,,-5.45000000e-009,3.77343777e-004
,,,-5.42500000e-009,3.94531278e-004
,,,-5.40000000e-009,4.02343778e-004
,,,-5.37500000e-009,4.00000028e-004
,,,-5.35000000e-009,3.85156277e-004
,,,-5.32500000e-009,3.62500026e-004
,,,-5.30000000e-009,3.33593774e-004
,,,-5.27500000e-009,3.03125021e-004
,,,-5.25000000e-009,2.71093769e-004
,,,-5.22500000e-009,2.42187517e-004
,,,-5.20000000e-009,2.17968765e-004
,,,-5.17500000e-009,2.00000014e-004
,,,-5.15000000e-009,1.89062513e-004
,,,-5.12500000e-009,1.85937513e-004
,,,-5.10000000e-009,1.88281263e-004
,,,-5.07500000e-009,1.94531264e-004
,,,-5.05000000e-009,2.00781264e-004
,,,-5.02500000e-009,2.05468765e-004
,,,-5.00000000e-009,2.05468765e-004
,,,-4.97500000e-009,2.00000014e-004
,,,-4.95000000e-009,1.87500013e-004
,,,-4.92500000e-009,1.68750012e-004
,,,-4.90000000e-009,1.44531260e-004
,,,-4.87500000e-009,1.16406258e-004
,,,-4.85000000e-009,8.51562560e-005
,,,-4.82500000e-009,5.39062538e-005
,,,-4.80000000e-009,2.50000018e-005
,,,-4.77500000e-009,0.00000000e+000
,,,-4.75000000e-009,-1.56250011e-005
,,,-4.72500000e-009,-2.50000018e-005
,,,-4.70000000e-009,-2.89062520e-005
,,,-4.67500000e-009,-2.73437519e-005
,,,-4.65000000e-009,-2.26562516e-005
,,,-4.62500000e-009,-1.56250011e-005
,,,-4.60000000e-009,-7.81250055e-006
,,,-4.57500000e-009,0.00000000e+000
,,,-4.55000000e-009,1.17187508e-005
,,,-4.52500000e-009,2.50000018e-005
,,,-4.50000000e-009,4.06250029e-005
,,,-4.47500000e-009,5.93750042e-005
,,,-4.45000000e-009,8.35937559e-005
,,,-4.42500000e-009,1.14843758e-004
,,,-4.40000000e-009,1.53125011e-004
,,,-4.37500000e-009,2.00000014e-004
,,,-4.35000000e-009,2.53906268e-004
,,,-4.32500000e-009,3.12500022e-004
,,,-4.30000000e-009,3.73437526e-004
,,,-4.27500000e-009,4.32031281e-004
,,,-4.25000000e-009,4.86718784e-004
,,,-4.22500000e-009,5.34375038e-004
,,,-4.20000000e-009,5.71875040e-004
,,,-4.17500000e-009,6.00000042e-004
,,,-4.15000000e-009,6.12500043e-004
,,,-4.12500000e-009,6.15625044e-004
,,,-4.10000000e-009,6.11718793e-004
,,,-4.07500000e-009,6.03906293e-004
,,,-4.05000000e-009,5.95312542e-004
,,,-4.02500000e-009,5.89843792e-004
,,,-4.00000000e-009,5.90625042e-004
,,,-3.97500000e-009,6.00000042e-004
,,,-3.95000000e-009,6.13281293e-004
,,,-3.92500000e-009,6.35156295e-004
,,,-3.90000000e-009,6.63281297e-004
,,,-3.87500000e-009,6.96093799e-004
,,,-3.85000000e-009,7.28906302e-004
,,,-3.82500000e-009,7.59375054e-004
,,,-3.80000000e-009,7.83593805e-004
,,,-3.77500000e-009,8.00000057e-004
,,,-3.75000000e-009,7.98437557e-004
,,,-3.72500000e-009,7.86718806e-004
,,,-3.70000000e-009,7.65625054e-004
,,,-3.67500000e-009,7.36718802e-004
,,,-3.65000000e-009,7.03906300e-004
,,,-3.62500000e-009,6.68750047e-004
,,,-3.60000000e-009,6.32812545e-004
,,,-3.57500000e-009,6.00000042e-004
,,,-3.55000000e-009,5.63281290e-004
,,,-3.52500000e-009,5.32031288e-004
,,,-3.50000000e-009,5.04687536e-004
,,,-3.47500000e-009,4.82031284e-004
,,,-3.45000000e-009,4.60937533e-004
,,,-3.42500000e-009,4.41406281e-004
,,,-3.40000000e-009,4.21093780e-004
,,,-3.37500000e-009,4.00000028e-004
,,,-3.35000000e-009,3.72656276e-004
,,,-3.32500000e-009,3.43750024e-004
,,,-3.30000000e-009,3.14062522e-004
,,,-3.27500000e-009,2.84375020e-004
,,,-3.25000000e-009,2.57031268e-004
,,,-3.22500000e-009,2.32812516e-004
,,,-3.20000000e-009,2.13281265e-004
,,,-3.17500000e-009,2.00000014e-004
,,,-3.15000000e-009,1.90625013e-004
,,,-3.12500000e-009,1.85937513e-004
,,,-3.10000000e-009,1.85937513e-004
,,,-3.07500000e-009,1.88281263e-004
,,,-3.05000000e-009,1.92968764e-004
,,,-3.02500000e-009,1.96875014e-004
,,,-3.00000000e-009,2.00000014e-004
,,,-2.97500000e-009,2.00000014e-004
,,,-2.95000000e-009,1.94531264e-004
,,,-2.92500000e-009,1.83593763e-004
,,,-2.90000000e-009,1.66406262e-004
,,,-2.87500000e-009,1.42187510e-004
,,,-2.85000000e-009,1.12500008e-004
,,,-2.82500000e-009,7.81250055e-005
,,,-2.80000000e-009,3.98437528e-005
,,,-2.77500000e-009,0.00000000e+000
,,,-2.75000000e-009,-3.67187526e-005
,,,-2.72500000e-009,-7.34375052e-005
,,,-2.70000000e-009,-1.07031258e-004
,,,-2.67500000e-009,-1.37500010e-004
,,,-2.65000000e-009,-1.61718761e-004
,,,-2.62500000e-009,-1.81250013e-004
,,,-2.60000000e-009,-1.93750014e-004
,,,-2.57500000e-009,-2.00000014e-004
,,,-2.55000000e-009,-1.96093764e-004
,,,-2.52500000e-009,-1.89843763e-004
,,,-2.50000000e-009,-1.82812513e-004
,,,-2.47500000e-009,-1.76562512e-004
,,,-2.45000000e-009,-1.73437512e-004
,,,-2.42500000e-009,-1.75781262e-004
,,,-2.40000000e-009,-1.84375013e-004
,,,-2.37500000e-009,-2.00000014e-004
,,,-2.35000000e-009,-2.17187515e-004
,,,-2.32500000e-009,-2.41406267e-004
,,,-2.30000000e-009,-2.69531269e-004
,,,-2.27500000e-009,-3.00000021e-004
,,,-2.25000000e-009,-3.31250023e-004
,,,-2.22500000e-009,-3.59375025e-004
,,,-2.20000000e-009,-3.83593777e-004
,,,-2.17500000e-009,-4.00000028e-004
,,,-2.15000000e-009,-4.02343778e-004
,,,-2.12500000e-009,-3.96093778e-004
,,,-2.10000000e-009,-3.80468777e-004
,,,-2.07500000e-009,-3.55468775e-004
,,,-2.05000000e-009,-3.23437523e-004
,,,-2.02500000e-009,-2.85937520e-004
,,,-2.00000000e-009,-2.43750017e-004
,,,-1.97500000e-009,-2.00000014e-004
,,,-1.95000000e-009,-1.53906261e-004
,,,-1.92500000e-009,-1.10937508e-004
,,,-1.90000000e-009,-7.42187553e-005
,,,-1.87500000e-009,-4.37500031e-005
,,,-1.85000000e-009,-2.10937515e-005
,,,-1.82500000e-009,-7.03125050e-006
,,,-1.80000000e-009,0.00000000e+000
,,,-1.77500000e-009,0.00000000e+000
,,,-1.75000000e-009,-7.03125050e-006
,,,-1.72500000e-009,-1.79687513e-005
,,,-1.70000000e-009,-2.96875021e-005
,,,-1.67500000e-009,-3.82812527e-005
,,,-1.65000000e-009,-4.14062529e-005
,,,-1.62500000e-009,-3.67187526e-005
,,,-1.60000000e-009,-2.26562516e-005
,,,-1.57500000e-009,0.00000000e+000
,,,-1.55000000e-009,2.10937515e-005
,,,-1.52500000e-009,4.68750033e-005
,,,-1.50000000e-009,7.65625054e-005
,,,-1.47500000e-009,1.07812508e-004
,,,-1.45000000e-009,1.38281260e-004
,,,-1.42500000e-009,1.64843762e-004
,,,-1.40000000e-009,1.85937513e-004
,,,-1.37500000e-009,2.00000014e-004
,,,-1.35000000e-009,1.86718763e-004
,,,-1.32500000e-009,1.63281262e-004
,,,-1.30000000e-009,1.32031259e-004
,,,-1.27500000e-009,9.76562569e-005
,,,-1.25000000e-009,6.32812545e-005
,,,-1.22500000e-009,3.35937524e-005
,,,-1.20000000e-009,1.17187508e-005
,,,-1.17500000e-009,0.00000000e+000
,,,-1.15000000e-009,-2.26562516e-005
,,,-1.12500000e-009,-3.82812527e-005
,,,-1.10000000e-009,-4.45312532e-005
,,,-1.07500000e-009,-4.29687530e-005
,,,-1.05000000e-009,-3.51562525e-005
,,,-1.02500000e-009,-2.26562516e-005
,,,-1.00000000e-009,-9.37500066e-006
,,,-9.75000000e-010,0.00000000e+000
,,,-9.50000000e-010,-2.34375017e-005
,,,-9.25000000e-010,-6.17187544e-005
,,,-9.00000000e-010,-1.14843758e-004
,,,-8.75000000e-010,-1.84375013e-004
,,,-8.50000000e-010,-2.67968769e-004
,,,-8.25000000e-010,-3.65625026e-004
,,,-8.00000000e-010,-4.76562534e-004
,,,-7.75000000e-010,-6.00000042e-004
,,,-7.50000000e-010,-7.56250054e-004
,,,-7.25000000e-010,-9.25000065e-004
,,,-7.00000000e-010,-1.10234383e-003
,,,-6.75000000e-010,-1.28515634e-003
,,,-6.50000000e-010,-1.46875010e-003
,,,-6.25000000e-010,-1.65078137e-003
,,,-6.00000000e-010,-1.82812513e-003
,,,-5.75000000e-010,-2.00000014e-003
,,,-5.50000000e-010,-2.17343765e-003
,,,-5.25000000e-010,-2.34218767e-003
,,,-5.00000000e-010,-2.50390643e-003
,,,-4.75000000e-010,-2.65859394e-003
,,,-4.50000000e-010,-2.80546895e-003
,,,-4.25000000e-010,-2.94453146e-003
,,,-4.00000000e-010,-3.07500022e-003
,,,-3.75000000e-010,-3.20000023e-003
,,,-3.50000000e-010,-3.31796898e-003
,,,-3.25000000e-010,-3.43750024e-003
,,,-3.00000000e-010,-3.55937525e-003
,,,-2.75000000e-010,-3.68359401e-003
,,,-2.50000000e-010,-3.81093777e-003
,,,-2.25000000e-010,-3.93906278e-003
,,,-2.00000000e-010,-4.06953154e-003
,,,-1.75000000e-010,-4.20000030e-003
,,,-1.50000000e-010,-4.32031281e-003
,,,-1.25000000e-010,-4.44531281e-003
,,,-1.00000000e-010,-4.57343782e-003
,,,-7.50000000e-011,-4.70312533e-003
,,,-5.00000000e-011,-4.83281284e-003
,,,-2.50000000e-011,-4.96015660e-003
,,,0.00000000e+000,-5.08359411e-003
,,,2.50000000e-011,-5.20000037e-003
,,,5.00000000e-011,-5.28750037e-003
,,,7.50000000e-011,-5.37187538e-003
,,,1.00000000e-010,-5.45234414e-003
,,,1.25000000e-010,-5.53046914e-003
,,,1.50000000e-010,-5.60546915e-003
,,,1.75000000e-010,-5.67500040e-003
,,,2.00000000e-010,-5.74062541e-003
,,,2.25000000e-010,-5.80000041e-003
,,,2.50000000e-010,-5.82656291e-003
,,,2.75000000e-010,-5.85156291e-003
,,,3.00000000e-010,-5.87656292e-003
,,,3.25000000e-010,-5.90234417e-003
,,,3.50000000e-010,-5.92812542e-003
,,,3.75000000e-010,-5.95390667e-003
,,,4.00000000e-010,-5.97812542e-003
,,,4.25000000e-010,-6.00000042e-003
,,,4.50000000e-010,-5.99218792e-003
,,,4.75000000e-010,-5.98593792e-003
,,,5.00000000e-010,-5.98046917e-003
,,,5.25000000e-010,-5.97890667e-003
,,,5.50000000e-010,-5.97968792e-003
,,,5.75000000e-010,-5.98437542e-003
,,,6.00000000e-010,-5.99140667e-003
,,,6.25000000e-010,-6.00000042e-003
,,,6.50000000e-010,-5.98281292e-003
,,,6.75000000e-010,-5.96484417e-003
,,,7.00000000e-010,-5.94609417e-003
,,,7.25000000e-010,-5.92578167e-003
,,,7.50000000e-010,-5.90156292e-003
,,,7.75000000e-010,-5.87343792e-003
,,,8.00000000e-010,-5.83984416e-003
,,,8.25000000e-010,-5.80000041e-003
,,,8.50000000e-010,-5.72890666e-003
,,,8.75000000e-010,-5.65156290e-003
,,,9.00000000e-010,-5.57109414e-003
,,,9.25000000e-010,-5.48906289e-003
,,,9.50000000e-010,-5.40937538e-003
,,,9.75000000e-010,-5.33359413e-003
,,,1.00000000e-009,-5.26406287e-003
,,,1.02500000e-009,-5.20000037e-003
,,,1.05000000e-009,-5.12421911e-003
,,,1.07500000e-009,-5.05078161e-003
,,,1.10000000e-009,-4.97890660e-003
,,,1.12500000e-009,-4.90703160e-003
,,,1.15000000e-009,-4.83437534e-003
,,,1.17500000e-009,-4.76015659e-003
,,,1.20000000e-009,-4.68203158e-003
,,,1.22500000e-009,-4.60000033e-003
,,,1.25000000e-009,-4.50078157e-003
,,,1.27500000e-009,-4.39609406e-003
,,,1.30000000e-009,-4.28671905e-003
,,,1.32500000e-009,-4.17734405e-003
,,,1.35000000e-009,-4.07109404e-003
,,,1.37500000e-009,-3.97109403e-003
,,,1.40000000e-009,-3.87968777e-003
,,,1.42500000e-009,-3.80000027e-003
,,,1.45000000e-009,-3.72343776e-003
,,,1.47500000e-009,-3.65234401e-003
,,,1.50000000e-009,-3.58437525e-003
,,,1.52500000e-009,-3.51562525e-003
,,,1.55000000e-009,-3.44531274e-003
,,,1.57500000e-009,-3.37109399e-003
,,,1.60000000e-009,-3.28984398e-003
,,,1.62500000e-009,-3.20000023e-003
,,,1.65000000e-009,-3.09687522e-003
,,,1.67500000e-009,-2.98125021e-003
,,,1.70000000e-009,-2.85390645e-003
,,,1.72500000e-009,-2.71953144e-003
,,,1.75000000e-009,-2.58203143e-003
,,,1.77500000e-009,-2.44687517e-003
,,,1.80000000e-009,-2.31796891e-003
,,,1.82500000e-009,-2.20000016e-003
,,,1.85000000e-009,-2.09921890e-003
,,,1.87500000e-009,-2.00781264e-003
,,,1.90000000e-009,-1.92500014e-003
,,,1.92500000e-009,-1.84921888e-003
,,,1.95000000e-009,-1.78046888e-003
,,,1.97500000e-009,-1.71640637e-003
,,,2.00000000e-009,-1.65625012e-003
,,,2.02500000e-009,-1.60000011e-003
,,,2.05000000e-009,-1.55234386e-003
,,,2.07500000e-009,-1.50156261e-003
,,,2.10000000e-009,-1.44765635e-003
,,,2.12500000e-009,-1.39296885e-003
,,,2.15000000e-009,-1.33906259e-003
,,,2.17500000e-009,-1.28750009e-003
,,,2.20000000e-009,-1.24140634e-003
,,,2.22500000e-009,-1.20000008e-003
,,,2.25000000e-009,-1.17109383e-003
,,,2.27500000e-009,-1.14062508e-003
,,,2.30000000e-009,-1.10625008e-003
,,,2.32500000e-009,-1.06484383e-003
,,,2.35000000e-009,-1.01406257e-003
,,,2.37500000e-009,-9.53125067e-004
,,,2.40000000e-009,-8.82031312e-004
,,,2.42500000e-009,-8.00000057e-004
,,,2.45000000e-009,-7.19531301e-004
,,,2.47500000e-009,-6.31250045e-004
,,,2.50000000e-009,-5.39062538e-004
,,,2.52500000e-009,-4.47656282e-004
,,,2.55000000e-009,-3.63281276e-004
,,,2.57500000e-009,-2.90625021e-004
,,,2.60000000e-009,-2.35156267e-004
,,,2.62500000e-009,-2.00000014e-004
,,,2.65000000e-009,-1.97656264e-004
,,,2.67500000e-009,-2.11718765e-004
,,,2.70000000e-009,-2.38281267e-004
,,,2.72500000e-009,-2.73437519e-004
,,,2.75000000e-009,-3.11718772e-004
,,,2.77500000e-009,-3.48437525e-004
,,,2.80000000e-009,-3.78906277e-004
,,,2.82500000e-009,-4.00000028e-004
,,,2.85000000e-009,-4.14062529e-004
,,,2.87500000e-009,-4.12500029e-004
,,,2.90000000e-009,-3.96093778e-004
,,,2.92500000e-009,-3.66406276e-004
,,,2.95000000e-009,-3.28125023e-004
,,,2.97500000e-009,-2.84375020e-004
,,,3.00000000e-009,-2.39843767e-004
,,,3.02500000e-009,-2.00000014e-004
,,,3.05000000e-009,-1.71875012e-004
,,,3.07500000e-009,-1.51562511e-004
,,,3.10000000e-009,-1.40625010e-004
,,,3.12500000e-009,-1.38281260e-004
,,,3.15000000e-009,-1.43750010e-004
,,,3.17500000e-009,-1.57031261e-004
,,,3.20000000e-009,-1.76562512e-004
,,,3.22500000e-009,-2.00000014e-004
,,,3.25000000e-009,-2.28906266e-004
,,,3.27500000e-009,-2.57031268e-004
,,,3.30000000e-009,-2.84375020e-004
,,,3.32500000e-009,-3.10937522e-004
,,,3.35000000e-009,-3.35156274e-004
,,,3.37500000e-009,-3.57812525e-004
,,,3.40000000e-009,-3.79687527e-004
,,,3.42500000e-009,-4.00000028e-004
,,,3.45000000e-009,-4.17187530e-004
,,,3.47500000e-009,-4.30468780e-004
,,,3.50000000e-009,-4.39843781e-004
,,,3.52500000e-009,-4.43750031e-004
,,,3.55000000e-009,-4.42187531e-004
,,,3.57500000e-009,-4.34375031e-004
,,,3.60000000e-009,-4.19531280e-004
,,,3.62500000e-009,-4.00000028e-004
,,,3.65000000e-009,-3.71875026e-004
,,,3.67500000e-009,-3.41406274e-004
,,,3.70000000e-009,-3.09375022e-004
,,,3.72500000e-009,-2.78906270e-004
,,,3.75000000e-009,-2.50781268e-004
,,,3.77500000e-009,-2.28125016e-004
,,,3.80000000e-009,-2.10156265e-004
,,,3.82500000e-009,-2.00000014e-004
,,,3.85000000e-009,-1.96093764e-004
,,,3.87500000e-009,-1.96875014e-004
,,,3.90000000e-009,-2.01562514e-004
,,,3.92500000e-009,-2.07031265e-004
,,,3.95000000e-009,-2.11718765e-004
,,,3.97500000e-009,-2.13281265e-004
,,,4.00000000e-009,-2.09375015e-004
,,,4.02500000e-009,-2.00000014e-004
,,,4.05000000e-009,-1.82812513e-004
,,,4.07500000e-009,-1.60937511e-004
,,,4.10000000e-009,-1.33593759e-004
,,,4.12500000e-009,-1.03906257e-004
,,,4.15000000e-009,-7.34375052e-005
,,,4.17500000e-009,-4.45312532e-005
,,,4.20000000e-009,-1.95312514e-005
,,,4.22500000e-009,0.00000000e+000
,,,4.25000000e-009,1.09375008e-005
,,,4.27500000e-009,1.56250011e-005
,,,4.30000000e-009,1.56250011e-005
,,,4.32500000e-009,1.25000009e-005
,,,4.35000000e-009,7.03125050e-006
,,,4.37500000e-009,2.34375017e-006
,,,4.40000000e-009,0.00000000e+000
,,,4.42500000e-009,0.00000000e+000
,,,4.45000000e-009,7.81250055e-007
,,,4.47500000e-009,4.68750033e-006
,,,4.50000000e-009,1.01562507e-005
,,,4.52500000e-009,1.56250011e-005
,,,4.55000000e-009,1.95312514e-005
,,,4.57500000e-009,1.87500013e-005
,,,4.60000000e-009,1.25000009e-005
,,,4.62500000e-009,0.00000000e+000
,,,4.65000000e-009,-2.10937515e-005
,,,4.67500000e-009,-4.76562534e-005
,,,4.70000000e-009,-7.73437555e-005
,,,4.72500000e-009,-1.08593758e-004
,,,4.75000000e-009,-1.38281260e-004
,,,4.77500000e-009,-1.64062512e-004
,,,4.80000000e-009,-1.85156263e-004
,,,4.82500000e-009,-2.00000014e-004
,,,4.85000000e-009,-2.06250015e-004
,,,4.87500000e-009,-2.06250015e-004
,,,4.90000000e-009,-2.01562514e-004
,,,4.92500000e-009,-1.95312514e-004
,,,4.95000000e-009,-1.89062513e-004
,,,4.97500000e-009,-1.86718763e-004
,,,5.00000000e-009,-1.89843763e-004
,,,5.02500000e-009,-2.00000014e-004
,,,5.05000000e-009,-2.16406265e-004
,,,5.07500000e-009,-2.39843767e-004
,,,5.10000000e-009,-2.67968769e-004
,,,5.12500000e-009,-2.99218771e-004
,,,5.15000000e-009,-3.31250023e-004
,,,5.17500000e-009,-3.60156275e-004
,,,5.20000000e-009,-3.83593777e-004
,,,5.22500000e-009,-4.00000028e-004
,,,5.25000000e-009,-4.02343778e-004
,,,5.27500000e-009,-3.94531278e-004
,,,5.30000000e-009,-3.77343777e-004
,,,5.32500000e-009,-3.51562525e-004
,,,5.35000000e-009,-3.18750023e-004
,,,5.37500000e-009,-2.81250020e-004
,,,5.40000000e-009,-2.40625017e-004
,,,5.42500000e-009,-2.00000014e-004
,,,5.45000000e-009,-1.58593761e-004
,,,5.47500000e-009,-1.21093759e-004
,,,5.50000000e-009,-8.82812562e-005
,,,5.52500000e-009,-6.01562543e-005
,,,5.55000000e-009,-3.82812527e-005
,,,5.57500000e-009,-2.10937515e-005
,,,5.60000000e-009,-7.81250055e-006
,,,5.62500000e-009,0.00000000e+000
,,,5.65000000e-009,3.90625028e-006
,,,5.67500000e-009,5.46875039e-006
,,,5.70000000e-009,5.46875039e-006
,,,5.72500000e-009,3.90625028e-006
,,,5.75000000e-009,2.34375017e-006
,,,5.77500000e-009,7.81250055e-007
,,,5.80000000e-009,0.00000000e+000
,,,5.82500000e-009,0.00000000e+000
,,,5.85000000e-009,-7.81250055e-007
,,,5.87500000e-009,-7.81250055e-007
,,,5.90000000e-009,-7.81250055e-007
,,,5.92500000e-009,0.00000000e+000
,,,5.95000000e-009,0.00000000e+000
