RawData/SinglePhotoelectron/R1_2pt2B_5mV/wave017_Ch2.csv

"Record Length",1000,"Points",-7.72500000e-009,-4.08593779e-004
"Sample Interval",2.50000000e-011,s,-7.70000000e-009,-4.07812529e-004
"Trigger Point",309,"Samples",-7.67500000e-009,-4.05468779e-004
"Trigger Time",5.61095890e-013,s,-7.65000000e-009,-4.00000028e-004
"",,,-7.62500000e-009,-3.89062528e-004
"Horizontal Offset",-7.72500000e-009,s,-7.60000000e-009,-3.74218776e-004
,,,-7.57500000e-009,-3.54687525e-004
,,,-7.55000000e-009,-3.31250023e-004
,,,-7.52500000e-009,-3.03125021e-004
,,,-7.50000000e-009,-2.71875019e-004
,,,-7.47500000e-009,-2.36718767e-004
,,,-7.45000000e-009,-2.00000014e-004
,,,-7.42500000e-009,-1.61718761e-004
,,,-7.40000000e-009,-1.24218759e-004
,,,-7.37500000e-009,-8.98437564e-005
,,,-7.35000000e-009,-5.93750042e-005
,,,-7.32500000e-009,-3.43750024e-005
,,,-7.30000000e-009,-1.56250011e-005
,,,-7.27500000e-009,-4.68750033e-006
,,,-7.25000000e-009,0.00000000e+000
,,,-7.22500000e-009,-2.34375017e-006
,,,-7.20000000e-009,-8.59375061e-006
,,,-7.17500000e-009,-1.64062512e-005
,,,-7.15000000e-009,-2.34375017e-005
,,,-7.12500000e-009,-2.73437519e-005
,,,-7.10000000e-009,-2.50000018e-005
,,,-7.07500000e-009,-1.64062512e-005
,,,-7.05000000e-009,0.00000000e+000
,,,-7.02500000e-009,2.18750015e-005
,,,-7.00000000e-009,5.00000035e-005
,,,-6.97500000e-009,8.20312558e-005
,,,-6.95000000e-009,1.15625008e-004
,,,-6.92500000e-009,1.46875010e-004
,,,-6.90000000e-009,1.72656262e-004
,,,-6.87500000e-009,1.91406264e-004
,,,-6.85000000e-009,2.00000014e-004
,,,-6.82500000e-009,1.93750014e-004
,,,-6.80000000e-009,1.78125013e-004
,,,-6.77500000e-009,1.53906261e-004
,,,-6.75000000e-009,1.24218759e-004
,,,-6.72500000e-009,9.14062565e-005
,,,-6.70000000e-009,5.78125041e-005
,,,-6.67500000e-009,2.65625019e-005
,,,-6.65000000e-009,0.00000000e+000
,,,-6.62500000e-009,-2.10937515e-005
,,,-6.60000000e-009,-3.43750024e-005
,,,-6.57500000e-009,-3.98437528e-005
,,,-6.55000000e-009,-3.90625028e-005
,,,-6.52500000e-009,-3.20312523e-005
,,,-6.50000000e-009,-2.18750015e-005
,,,-6.47500000e-009,-1.09375008e-005
,,,-6.45000000e-009,0.00000000e+000
,,,-6.42500000e-009,8.59375061e-006
,,,-6.40000000e-009,1.56250011e-005
,,,-6.37500000e-009,1.87500013e-005
,,,-6.35000000e-009,1.95312514e-005
,,,-6.32500000e-009,1.71875012e-005
,,,-6.30000000e-009,1.25000009e-005
,,,-6.27500000e-009,6.25000044e-006
,,,-6.25000000e-009,0.00000000e+000
,,,-6.22500000e-009,-3.90625028e-006
,,,-6.20000000e-009,-7.03125050e-006
,,,-6.17500000e-009,-7.81250055e-006
,,,-6.15000000e-009,-7.81250055e-006
,,,-6.12500000e-009,-7.03125050e-006
,,,-6.10000000e-009,-4.68750033e-006
,,,-6.07500000e-009,-2.34375017e-006
,,,-6.05000000e-009,0.00000000e+000
,,,-6.02500000e-009,3.90625028e-006
,,,-6.00000000e-009,7.03125050e-006
,,,-5.97500000e-009,9.37500066e-006
,,,-5.95000000e-009,1.09375008e-005
,,,-5.92500000e-009,1.01562507e-005
,,,-5.90000000e-009,8.59375061e-006
,,,-5.87500000e-009,4.68750033e-006
,,,-5.85000000e-009,0.00000000e+000
,,,-5.82500000e-009,-3.12500022e-006
,,,-5.80000000e-009,-6.25000044e-006
,,,-5.77500000e-009,-9.37500066e-006
,,,-5.75000000e-009,-1.17187508e-005
,,,-5.72500000e-009,-1.25000009e-005
,,,-5.70000000e-009,-1.09375008e-005
,,,-5.67500000e-009,-7.03125050e-006
,,,-5.65000000e-009,0.00000000e+000
,,,-5.62500000e-009,1.17187508e-005
,,,-5.60000000e-009,2.81250020e-005
,,,-5.57500000e-009,4.84375034e-005
,,,-5.55000000e-009,7.26562551e-005
,,,-5.52500000e-009,1.00000007e-004
,,,-5.50000000e-009,1.31250009e-004
,,,-5.47500000e-009,1.64843762e-004
,,,-5.45000000e-009,2.00000014e-004
,,,-5.42500000e-009,2.32812516e-004
,,,-5.40000000e-009,2.65625019e-004
,,,-5.37500000e-009,2.96093771e-004
,,,-5.35000000e-009,3.24218773e-004
,,,-5.32500000e-009,3.49218775e-004
,,,-5.30000000e-009,3.70312526e-004
,,,-5.27500000e-009,3.86718777e-004
,,,-5.25000000e-009,4.00000028e-004
,,,-5.22500000e-009,4.04687529e-004
,,,-5.20000000e-009,4.06250029e-004
,,,-5.17500000e-009,4.05468779e-004
,,,-5.15000000e-009,4.03906279e-004
,,,-5.12500000e-009,4.01562528e-004
,,,-5.10000000e-009,3.99218778e-004
,,,-5.07500000e-009,3.98437528e-004
,,,-5.05000000e-009,4.00000028e-004
,,,-5.02500000e-009,3.98437528e-004
,,,-5.00000000e-009,3.99218778e-004
,,,-4.97500000e-009,4.01562528e-004
,,,-4.95000000e-009,4.03906279e-004
,,,-4.92500000e-009,4.05468779e-004
,,,-4.90000000e-009,4.06250029e-004
,,,-4.87500000e-009,4.04687529e-004
,,,-4.85000000e-009,4.00000028e-004
,,,-4.82500000e-009,3.87500027e-004
,,,-4.80000000e-009,3.71875026e-004
,,,-4.77500000e-009,3.51562525e-004
,,,-4.75000000e-009,3.27343773e-004
,,,-4.72500000e-009,3.00000021e-004
,,,-4.70000000e-009,2.68750019e-004
,,,-4.67500000e-009,2.35156267e-004
,,,-4.65000000e-009,2.00000014e-004
,,,-4.62500000e-009,1.62500012e-004
,,,-4.60000000e-009,1.26562509e-004
,,,-4.57500000e-009,9.37500066e-005
,,,-4.55000000e-009,6.48437546e-005
,,,-4.52500000e-009,4.06250029e-005
,,,-4.50000000e-009,2.10937515e-005
,,,-4.47500000e-009,7.81250055e-006
,,,-4.45000000e-009,0.00000000e+000
,,,-4.42500000e-009,-2.34375017e-006
,,,-4.40000000e-009,-1.56250011e-006
,,,-4.37500000e-009,7.81250055e-007
,,,-4.35000000e-009,3.90625028e-006
,,,-4.32500000e-009,6.25000044e-006
,,,-4.30000000e-009,7.03125050e-006
,,,-4.27500000e-009,4.68750033e-006
,,,-4.25000000e-009,0.00000000e+000
,,,-4.22500000e-009,-5.46875039e-006
,,,-4.20000000e-009,-1.32812509e-005
,,,-4.17500000e-009,-2.10937515e-005
,,,-4.15000000e-009,-2.73437519e-005
,,,-4.12500000e-009,-3.04687522e-005
,,,-4.10000000e-009,-2.73437519e-005
,,,-4.07500000e-009,-1.71875012e-005
,,,-4.05000000e-009,0.00000000e+000
,,,-4.02500000e-009,2.57812518e-005
,,,-4.00000000e-009,5.62500040e-005
,,,-3.97500000e-009,8.98437564e-005
,,,-3.95000000e-009,1.22656259e-004
,,,-3.92500000e-009,1.52343761e-004
,,,-3.90000000e-009,1.77343763e-004
,,,-3.87500000e-009,1.92968764e-004
,,,-3.85000000e-009,2.00000014e-004
,,,-3.82500000e-009,1.95312514e-004
,,,-3.80000000e-009,1.80468763e-004
,,,-3.77500000e-009,1.57031261e-004
,,,-3.75000000e-009,1.26562509e-004
,,,-3.72500000e-009,9.29687566e-005
,,,-3.70000000e-009,5.85937541e-005
,,,-3.67500000e-009,2.65625019e-005
,,,-3.65000000e-009,0.00000000e+000
,,,-3.62500000e-009,-1.87500013e-005
,,,-3.60000000e-009,-2.96875021e-005
,,,-3.57500000e-009,-3.35937524e-005
,,,-3.55000000e-009,-3.20312523e-005
,,,-3.52500000e-009,-2.57812518e-005
,,,-3.50000000e-009,-1.71875012e-005
,,,-3.47500000e-009,-7.81250055e-006
,,,-3.45000000e-009,0.00000000e+000
,,,-3.42500000e-009,7.03125050e-006
,,,-3.40000000e-009,1.09375008e-005
,,,-3.37500000e-009,1.25000009e-005
,,,-3.35000000e-009,1.17187508e-005
,,,-3.32500000e-009,9.37500066e-006
,,,-3.30000000e-009,5.46875039e-006
,,,-3.27500000e-009,2.34375017e-006
,,,-3.25000000e-009,0.00000000e+000
,,,-3.22500000e-009,0.00000000e+000
,,,-3.20000000e-009,0.00000000e+000
,,,-3.17500000e-009,1.56250011e-006
,,,-3.15000000e-009,3.90625028e-006
,,,-3.12500000e-009,5.46875039e-006
,,,-3.10000000e-009,5.46875039e-006
,,,-3.07500000e-009,3.90625028e-006
,,,-3.05000000e-009,0.00000000e+000
,,,-3.02500000e-009,-4.68750033e-006
,,,-3.00000000e-009,-1.01562507e-005
,,,-2.97500000e-009,-1.56250011e-005
,,,-2.95000000e-009,-2.03125014e-005
,,,-2.92500000e-009,-2.18750015e-005
,,,-2.90000000e-009,-1.95312514e-005
,,,-2.87500000e-009,-1.25000009e-005
,,,-2.85000000e-009,0.00000000e+000
,,,-2.82500000e-009,1.79687513e-005
,,,-2.80000000e-009,4.14062529e-005
,,,-2.77500000e-009,6.79687548e-005
,,,-2.75000000e-009,9.60937568e-005
,,,-2.72500000e-009,1.25000009e-004
,,,-2.70000000e-009,1.53125011e-004
,,,-2.67500000e-009,1.78125013e-004
,,,-2.65000000e-009,2.00000014e-004
,,,-2.62500000e-009,2.15625015e-004
,,,-2.60000000e-009,2.25781266e-004
,,,-2.57500000e-009,2.31250016e-004
,,,-2.55000000e-009,2.31250016e-004
,,,-2.52500000e-009,2.27343766e-004
,,,-2.50000000e-009,2.19531266e-004
,,,-2.47500000e-009,2.10156265e-004
,,,-2.45000000e-009,2.00000014e-004
,,,-2.42500000e-009,1.87500013e-004
,,,-2.40000000e-009,1.78125013e-004
,,,-2.37500000e-009,1.71093762e-004
,,,-2.35000000e-009,1.67968762e-004
,,,-2.32500000e-009,1.69531262e-004
,,,-2.30000000e-009,1.75781262e-004
,,,-2.27500000e-009,1.85937513e-004
,,,-2.25000000e-009,2.00000014e-004
,,,-2.22500000e-009,2.13281265e-004
,,,-2.20000000e-009,2.26562516e-004
,,,-2.17500000e-009,2.37500017e-004
,,,-2.15000000e-009,2.43750017e-004
,,,-2.12500000e-009,2.44531267e-004
,,,-2.10000000e-009,2.37500017e-004
,,,-2.07500000e-009,2.22656266e-004
,,,-2.05000000e-009,2.00000014e-004
,,,-2.02500000e-009,1.67187512e-004
,,,-2.00000000e-009,1.30468759e-004
,,,-1.97500000e-009,9.21875065e-005
,,,-1.95000000e-009,5.70312540e-005
,,,-1.92500000e-009,2.73437519e-005
,,,-1.90000000e-009,6.25000044e-006
,,,-1.87500000e-009,-2.34375017e-006
,,,-1.85000000e-009,0.00000000e+000
,,,-1.82500000e-009,1.09375008e-005
,,,-1.80000000e-009,3.20312523e-005
,,,-1.77500000e-009,6.09375043e-005
,,,-1.75000000e-009,9.37500066e-005
,,,-1.72500000e-009,1.27343759e-004
,,,-1.70000000e-009,1.58593761e-004
,,,-1.67500000e-009,1.83593763e-004
,,,-1.65000000e-009,2.00000014e-004
,,,-1.62500000e-009,1.94531264e-004
,,,-1.60000000e-009,1.76562512e-004
,,,-1.57500000e-009,1.49218761e-004
,,,-1.55000000e-009,1.15625008e-004
,,,-1.52500000e-009,8.04687557e-005
,,,-1.50000000e-009,4.68750033e-005
,,,-1.47500000e-009,1.87500013e-005
,,,-1.45000000e-009,0.00000000e+000
,,,-1.42500000e-009,-2.18750015e-005
,,,-1.40000000e-009,-3.51562525e-005
,,,-1.37500000e-009,-4.14062529e-005
,,,-1.35000000e-009,-3.98437528e-005
,,,-1.32500000e-009,-3.28125023e-005
,,,-1.30000000e-009,-2.26562516e-005
,,,-1.27500000e-009,-1.01562507e-005
,,,-1.25000000e-009,0.00000000e+000
,,,-1.22500000e-009,-1.17187508e-005
,,,-1.20000000e-009,-3.20312523e-005
,,,-1.17500000e-009,-5.78125041e-005
,,,-1.15000000e-009,-8.75000062e-005
,,,-1.12500000e-009,-1.17968758e-004
,,,-1.10000000e-009,-1.47656260e-004
,,,-1.07500000e-009,-1.75000012e-004
,,,-1.05000000e-009,-2.00000014e-004
,,,-1.02500000e-009,-2.44531267e-004
,,,-1.00000000e-009,-2.94531271e-004
,,,-9.75000000e-010,-3.50781275e-004
,,,-9.50000000e-010,-4.16406279e-004
,,,-9.25000000e-010,-4.92968785e-004
,,,-9.00000000e-010,-5.81250041e-004
,,,-8.75000000e-010,-6.83593798e-004
,,,-8.50000000e-010,-8.00000057e-004
,,,-8.25000000e-010,-9.49218817e-004
,,,-8.00000000e-010,-1.11093758e-003
,,,-7.75000000e-010,-1.27968759e-003
,,,-7.50000000e-010,-1.44843760e-003
,,,-7.25000000e-010,-1.61015636e-003
,,,-7.00000000e-010,-1.75859387e-003
,,,-6.75000000e-010,-1.88906263e-003
,,,-6.50000000e-010,-2.00000014e-003
,,,-6.25000000e-010,-2.10312515e-003
,,,-6.00000000e-010,-2.19531266e-003
,,,-5.75000000e-010,-2.28046891e-003
,,,-5.50000000e-010,-2.36562517e-003
,,,-5.25000000e-010,-2.45468767e-003
,,,-5.00000000e-010,-2.55468768e-003
,,,-4.75000000e-010,-2.66796894e-003
,,,-4.50000000e-010,-2.80000020e-003
,,,-4.25000000e-010,-2.95781271e-003
,,,-4.00000000e-010,-3.13593772e-003
,,,-3.75000000e-010,-3.32812524e-003
,,,-3.50000000e-010,-3.52578150e-003
,,,-3.25000000e-010,-3.72031276e-003
,,,-3.00000000e-010,-3.90234403e-003
,,,-2.75000000e-010,-4.06328154e-003
,,,-2.50000000e-010,-4.20000030e-003
,,,-2.25000000e-010,-4.30781280e-003
,,,-2.00000000e-010,-4.39609406e-003
,,,-1.75000000e-010,-4.46875032e-003
,,,-1.50000000e-010,-4.53203157e-003
,,,-1.25000000e-010,-4.59062532e-003
,,,-1.00000000e-010,-4.65078158e-003
,,,-7.50000000e-011,-4.71953158e-003
,,,-5.00000000e-011,-4.80000034e-003
,,,-2.50000000e-011,-4.89296910e-003
,,,0.00000000e+000,-5.00703160e-003
,,,2.50000000e-011,-5.13906286e-003
,,,5.00000000e-011,-5.28125037e-003
,,,7.50000000e-011,-5.42734413e-003
,,,1.00000000e-010,-5.56640664e-003
,,,1.25000000e-010,-5.69296915e-003
,,,1.50000000e-010,-5.80000041e-003
,,,1.75000000e-010,-5.87578167e-003
,,,2.00000000e-010,-5.93750042e-003
,,,2.25000000e-010,-5.98593792e-003
,,,2.50000000e-010,-6.02656293e-003
,,,2.75000000e-010,-6.06406293e-003
,,,3.00000000e-010,-6.10234418e-003
,,,3.25000000e-010,-6.14609419e-003
,,,3.50000000e-010,-6.20000044e-003
,,,3.75000000e-010,-6.25625044e-003
,,,4.00000000e-010,-6.33125045e-003
,,,4.25000000e-010,-6.42343795e-003
,,,4.50000000e-010,-6.53046921e-003
,,,4.75000000e-010,-6.64687547e-003
,,,5.00000000e-010,-6.76718798e-003
,,,5.25000000e-010,-6.88671924e-003
,,,5.50000000e-010,-7.00000050e-003
,,,5.75000000e-010,-7.08593800e-003
,,,6.00000000e-010,-7.16484426e-003
,,,6.25000000e-010,-7.23906301e-003
,,,6.50000000e-010,-7.30937552e-003
,,,6.75000000e-010,-7.37890677e-003
,,,7.00000000e-010,-7.44921928e-003
,,,7.25000000e-010,-7.52187553e-003
,,,7.50000000e-010,-7.60000054e-003
,,,7.75000000e-010,-7.66015679e-003
,,,8.00000000e-010,-7.72812555e-003
,,,8.25000000e-010,-7.80234430e-003
,,,8.50000000e-010,-7.88203181e-003
,,,8.75000000e-010,-7.96484431e-003
,,,9.00000000e-010,-8.04765682e-003
,,,9.25000000e-010,-8.12734433e-003
,,,9.50000000e-010,-8.20000058e-003
,,,9.75000000e-010,-8.23125058e-003
,,,1.00000000e-009,-8.25078183e-003
,,,1.02500000e-009,-8.26093808e-003
,,,1.05000000e-009,-8.26171933e-003
,,,1.07500000e-009,-8.25546933e-003
,,,1.10000000e-009,-8.24296933e-003
,,,1.12500000e-009,-8.22421933e-003
,,,1.15000000e-009,-8.20000058e-003
,,,1.17500000e-009,-8.13984433e-003
,,,1.20000000e-009,-8.07421932e-003
,,,1.22500000e-009,-8.00390682e-003
,,,1.25000000e-009,-7.92968806e-003
,,,1.27500000e-009,-7.85234431e-003
,,,1.30000000e-009,-7.77109430e-003
,,,1.32500000e-009,-7.68671929e-003
,,,1.35000000e-009,-7.60000054e-003
,,,1.37500000e-009,-7.48359428e-003
,,,1.40000000e-009,-7.36640677e-003
,,,1.42500000e-009,-7.25078176e-003
,,,1.45000000e-009,-7.14062551e-003
,,,1.47500000e-009,-7.03984425e-003
,,,1.50000000e-009,-6.94921924e-003
,,,1.52500000e-009,-6.86953174e-003
,,,1.55000000e-009,-6.80000048e-003
,,,1.57500000e-009,-6.71718798e-003
,,,1.60000000e-009,-6.63593797e-003
,,,1.62500000e-009,-6.55312546e-003
,,,1.65000000e-009,-6.46406296e-003
,,,1.67500000e-009,-6.36718795e-003
,,,1.70000000e-009,-6.25937544e-003
,,,1.72500000e-009,-6.13671918e-003
,,,1.75000000e-009,-6.00000042e-003
,,,1.77500000e-009,-5.83515666e-003
,,,1.80000000e-009,-5.65546915e-003
,,,1.82500000e-009,-5.46640664e-003
,,,1.85000000e-009,-5.27343787e-003
,,,1.87500000e-009,-5.08359411e-003
,,,1.90000000e-009,-4.90468785e-003
,,,1.92500000e-009,-4.74140659e-003
,,,1.95000000e-009,-4.60000033e-003
,,,1.97500000e-009,-4.48125032e-003
,,,2.00000000e-009,-4.38125031e-003
,,,2.02500000e-009,-4.29765655e-003
,,,2.05000000e-009,-4.22656280e-003
,,,2.07500000e-009,-4.16484404e-003
,,,2.10000000e-009,-4.10937529e-003
,,,2.12500000e-009,-4.05546904e-003
,,,2.15000000e-009,-4.00000028e-003
,,,2.17500000e-009,-3.94218778e-003
,,,2.20000000e-009,-3.87031277e-003
,,,2.22500000e-009,-3.78281277e-003
,,,2.25000000e-009,-3.68125026e-003
,,,2.27500000e-009,-3.56796900e-003
,,,2.30000000e-009,-3.44765649e-003
,,,2.32500000e-009,-3.32343774e-003
,,,2.35000000e-009,-3.20000023e-003
,,,2.37500000e-009,-3.08828147e-003
,,,2.40000000e-009,-2.97812521e-003
,,,2.42500000e-009,-2.86953145e-003
,,,2.45000000e-009,-2.76406270e-003
,,,2.47500000e-009,-2.66328144e-003
,,,2.50000000e-009,-2.56796893e-003
,,,2.52500000e-009,-2.48046893e-003
,,,2.55000000e-009,-2.40000017e-003
,,,2.57500000e-009,-2.33828142e-003
,,,2.60000000e-009,-2.27968766e-003
,,,2.62500000e-009,-2.22265641e-003
,,,2.65000000e-009,-2.16796890e-003
,,,2.67500000e-009,-2.11796890e-003
,,,2.70000000e-009,-2.07265640e-003
,,,2.72500000e-009,-2.03281264e-003
,,,2.75000000e-009,-2.00000014e-003
,,,2.77500000e-009,-1.98359389e-003
,,,2.80000000e-009,-1.96718764e-003
,,,2.82500000e-009,-1.94765639e-003
,,,2.85000000e-009,-1.92578139e-003
,,,2.87500000e-009,-1.89921888e-003
,,,2.90000000e-009,-1.86875013e-003
,,,2.92500000e-009,-1.83593763e-003
,,,2.95000000e-009,-1.80000013e-003
,,,2.97500000e-009,-1.76875013e-003
,,,3.00000000e-009,-1.73437512e-003
,,,3.02500000e-009,-1.69921887e-003
,,,3.05000000e-009,-1.66562512e-003
,,,3.07500000e-009,-1.63671887e-003
,,,3.10000000e-009,-1.61484386e-003
,,,3.12500000e-009,-1.60234386e-003
,,,3.15000000e-009,-1.60000011e-003
,,,3.17500000e-009,-1.61093761e-003
,,,3.20000000e-009,-1.62500012e-003
,,,3.22500000e-009,-1.63906262e-003
,,,3.25000000e-009,-1.64921887e-003
,,,3.27500000e-009,-1.65234387e-003
,,,3.30000000e-009,-1.64609387e-003
,,,3.32500000e-009,-1.62890637e-003
,,,3.35000000e-009,-1.60000011e-003
,,,3.37500000e-009,-1.56015636e-003
,,,3.40000000e-009,-1.50859386e-003
,,,3.42500000e-009,-1.44921885e-003
,,,3.45000000e-009,-1.38671885e-003
,,,3.47500000e-009,-1.32578134e-003
,,,3.50000000e-009,-1.27187509e-003
,,,3.52500000e-009,-1.22890634e-003
,,,3.55000000e-009,-1.20000008e-003
,,,3.57500000e-009,-1.18750008e-003
,,,3.60000000e-009,-1.18750008e-003
,,,3.62500000e-009,-1.19453133e-003
,,,3.65000000e-009,-1.20625009e-003
,,,3.67500000e-009,-1.21718759e-003
,,,3.70000000e-009,-1.22187509e-003
,,,3.72500000e-009,-1.21718759e-003
,,,3.75000000e-009,-1.20000008e-003
,,,3.77500000e-009,-1.16875008e-003
,,,3.80000000e-009,-1.12421883e-003
,,,3.82500000e-009,-1.06875008e-003
,,,3.85000000e-009,-1.00703132e-003
,,,3.87500000e-009,-9.44531317e-004
,,,3.90000000e-009,-8.85937563e-004
,,,3.92500000e-009,-8.36718809e-004
,,,3.95000000e-009,-8.00000057e-004
,,,3.97500000e-009,-7.79687555e-004
,,,4.00000000e-009,-7.71875055e-004
,,,4.02500000e-009,-7.75000055e-004
,,,4.05000000e-009,-7.83593805e-004
,,,4.07500000e-009,-7.94531306e-004
,,,4.10000000e-009,-8.03125057e-004
,,,4.12500000e-009,-8.05468807e-004
,,,4.15000000e-009,-8.00000057e-004
,,,4.17500000e-009,-7.85156306e-004
,,,4.20000000e-009,-7.60156304e-004
,,,4.22500000e-009,-7.27343801e-004
,,,4.25000000e-009,-6.91406299e-004
,,,4.27500000e-009,-6.56250046e-004
,,,4.30000000e-009,-6.26562544e-004
,,,4.32500000e-009,-6.06250043e-004
,,,4.35000000e-009,-6.00000042e-004
,,,4.37500000e-009,-6.10156293e-004
,,,4.40000000e-009,-6.32812545e-004
,,,4.42500000e-009,-6.63281297e-004
,,,4.45000000e-009,-6.98437549e-004
,,,4.47500000e-009,-7.34375052e-004
,,,4.50000000e-009,-7.65625054e-004
,,,4.52500000e-009,-7.88281306e-004
,,,4.55000000e-009,-8.00000057e-004
,,,4.57500000e-009,-7.97656306e-004
,,,4.60000000e-009,-7.82031305e-004
,,,4.62500000e-009,-7.56250054e-004
,,,4.65000000e-009,-7.22656301e-004
,,,4.67500000e-009,-6.85937549e-004
,,,4.70000000e-009,-6.50781296e-004
,,,4.72500000e-009,-6.21093794e-004
,,,4.75000000e-009,-6.00000042e-004
,,,4.77500000e-009,-5.88281292e-004
,,,4.80000000e-009,-5.85156291e-004
,,,4.82500000e-009,-5.89062542e-004
,,,4.85000000e-009,-5.96093792e-004
,,,4.87500000e-009,-6.03906293e-004
,,,4.90000000e-009,-6.09375043e-004
,,,4.92500000e-009,-6.08593793e-004
,,,4.95000000e-009,-6.00000042e-004
,,,4.97500000e-009,-5.81250041e-004
,,,5.00000000e-009,-5.54687539e-004
,,,5.02500000e-009,-5.22656287e-004
,,,5.05000000e-009,-4.87500035e-004
,,,5.07500000e-009,-4.54687532e-004
,,,5.10000000e-009,-4.26562530e-004
,,,5.12500000e-009,-4.07031279e-004
,,,5.15000000e-009,-4.00000028e-004
,,,5.17500000e-009,-4.03906279e-004
,,,5.20000000e-009,-4.19531280e-004
,,,5.22500000e-009,-4.44531281e-004
,,,5.25000000e-009,-4.76562534e-004
,,,5.27500000e-009,-5.11718786e-004
,,,5.30000000e-009,-5.46093789e-004
,,,5.32500000e-009,-5.76562541e-004
,,,5.35000000e-009,-6.00000042e-004
,,,5.37500000e-009,-6.10156293e-004
,,,5.40000000e-009,-6.08593793e-004
,,,5.42500000e-009,-5.95312542e-004
,,,5.45000000e-009,-5.70312540e-004
,,,5.47500000e-009,-5.35937538e-004
,,,5.50000000e-009,-4.94531285e-004
,,,5.52500000e-009,-4.47656282e-004
,,,5.55000000e-009,-4.00000028e-004
,,,5.57500000e-009,-3.53125025e-004
,,,5.60000000e-009,-3.10937522e-004
,,,5.62500000e-009,-2.73437519e-004
,,,5.65000000e-009,-2.42968767e-004
,,,5.67500000e-009,-2.21093766e-004
,,,5.70000000e-009,-2.06250015e-004
,,,5.72500000e-009,-1.99218764e-004
,,,5.75000000e-009,-2.00000014e-004
,,,5.77500000e-009,-2.06250015e-004
,,,5.80000000e-009,-2.15625015e-004
,,,5.82500000e-009,-2.24218766e-004
,,,5.85000000e-009,-2.31250016e-004
,,,5.87500000e-009,-2.33593767e-004
,,,5.90000000e-009,-2.29687516e-004
,,,5.92500000e-009,-2.18750015e-004
