RawData/SinglePhotoelectron/R1_2pt2B_5mV/wave006_Ch2.csv

"Record Length",1000,"Points",-7.72500000e-009,2.03125014e-005
"Sample Interval",2.50000000e-011,s,-7.70000000e-009,2.96875021e-005
"Trigger Point",309,"Samples",-7.67500000e-009,3.51562525e-005
"Trigger Time",1.35314943e-011,s,-7.65000000e-009,3.67187526e-005
"",,,-7.62500000e-009,3.20312523e-005
"Horizontal Offset",-7.72500000e-009,s,-7.60000000e-009,1.95312514e-005
,,,-7.57500000e-009,0.00000000e+000
,,,-7.55000000e-009,-2.57812518e-005
,,,-7.52500000e-009,-5.70312540e-005
,,,-7.50000000e-009,-9.06250064e-005
,,,-7.47500000e-009,-1.23437509e-004
,,,-7.45000000e-009,-1.53125011e-004
,,,-7.42500000e-009,-1.77343763e-004
,,,-7.40000000e-009,-1.93750014e-004
,,,-7.37500000e-009,-2.00000014e-004
,,,-7.35000000e-009,-1.93750014e-004
,,,-7.32500000e-009,-1.77343763e-004
,,,-7.30000000e-009,-1.53125011e-004
,,,-7.27500000e-009,-1.23437509e-004
,,,-7.25000000e-009,-9.06250064e-005
,,,-7.22500000e-009,-5.70312540e-005
,,,-7.20000000e-009,-2.57812518e-005
,,,-7.17500000e-009,0.00000000e+000
,,,-7.15000000e-009,1.87500013e-005
,,,-7.12500000e-009,2.96875021e-005
,,,-7.10000000e-009,3.35937524e-005
,,,-7.07500000e-009,3.20312523e-005
,,,-7.05000000e-009,2.57812518e-005
,,,-7.02500000e-009,1.71875012e-005
,,,-7.00000000e-009,7.81250055e-006
,,,-6.97500000e-009,0.00000000e+000
,,,-6.95000000e-009,-7.03125050e-006
,,,-6.92500000e-009,-1.09375008e-005
,,,-6.90000000e-009,-1.25000009e-005
,,,-6.87500000e-009,-1.17187508e-005
,,,-6.85000000e-009,-9.37500066e-006
,,,-6.82500000e-009,-5.46875039e-006
,,,-6.80000000e-009,-2.34375017e-006
,,,-6.77500000e-009,0.00000000e+000
,,,-6.75000000e-009,0.00000000e+000
,,,-6.72500000e-009,-2.34375017e-006
,,,-6.70000000e-009,-4.68750033e-006
,,,-6.67500000e-009,-7.03125050e-006
,,,-6.65000000e-009,-8.59375061e-006
,,,-6.62500000e-009,-8.59375061e-006
,,,-6.60000000e-009,-5.46875039e-006
,,,-6.57500000e-009,0.00000000e+000
,,,-6.55000000e-009,7.03125050e-006
,,,-6.52500000e-009,1.48437511e-005
,,,-6.50000000e-009,2.18750015e-005
,,,-6.47500000e-009,2.73437519e-005
,,,-6.45000000e-009,2.96875021e-005
,,,-6.42500000e-009,2.57812518e-005
,,,-6.40000000e-009,1.64062512e-005
,,,-6.37500000e-009,0.00000000e+000
,,,-6.35000000e-009,-2.42187517e-005
,,,-6.32500000e-009,-5.31250038e-005
,,,-6.30000000e-009,-8.43750060e-005
,,,-6.27500000e-009,-1.15625008e-004
,,,-6.25000000e-009,-1.45312510e-004
,,,-6.22500000e-009,-1.69531262e-004
,,,-6.20000000e-009,-1.88281263e-004
,,,-6.17500000e-009,-2.00000014e-004
,,,-6.15000000e-009,-2.03906264e-004
,,,-6.12500000e-009,-2.02343764e-004
,,,-6.10000000e-009,-1.97656264e-004
,,,-6.07500000e-009,-1.90625013e-004
,,,-6.05000000e-009,-1.85937513e-004
,,,-6.02500000e-009,-1.84375013e-004
,,,-6.00000000e-009,-1.88281263e-004
,,,-5.97500000e-009,-2.00000014e-004
,,,-5.95000000e-009,-2.18750015e-004
,,,-5.92500000e-009,-2.43750017e-004
,,,-5.90000000e-009,-2.74218769e-004
,,,-5.87500000e-009,-3.07031272e-004
,,,-5.85000000e-009,-3.39062524e-004
,,,-5.82500000e-009,-3.67187526e-004
,,,-5.80000000e-009,-3.87500027e-004
,,,-5.77500000e-009,-4.00000028e-004
,,,-5.75000000e-009,-3.96875028e-004
,,,-5.72500000e-009,-3.84375027e-004
,,,-5.70000000e-009,-3.62500026e-004
,,,-5.67500000e-009,-3.32812524e-004
,,,-5.65000000e-009,-2.99218771e-004
,,,-5.62500000e-009,-2.64062519e-004
,,,-5.60000000e-009,-2.29687516e-004
,,,-5.57500000e-009,-2.00000014e-004
,,,-5.55000000e-009,-1.75000012e-004
,,,-5.52500000e-009,-1.57812511e-004
,,,-5.50000000e-009,-1.49218761e-004
,,,-5.47500000e-009,-1.48437511e-004
,,,-5.45000000e-009,-1.53906261e-004
,,,-5.42500000e-009,-1.65625012e-004
,,,-5.40000000e-009,-1.81250013e-004
,,,-5.37500000e-009,-2.00000014e-004
,,,-5.35000000e-009,-2.18750015e-004
,,,-5.32500000e-009,-2.39062517e-004
,,,-5.30000000e-009,-2.60156268e-004
,,,-5.27500000e-009,-2.84375020e-004
,,,-5.25000000e-009,-3.10156272e-004
,,,-5.22500000e-009,-3.38281274e-004
,,,-5.20000000e-009,-3.68750026e-004
,,,-5.17500000e-009,-4.00000028e-004
,,,-5.15000000e-009,-4.27343780e-004
,,,-5.12500000e-009,-4.51562532e-004
,,,-5.10000000e-009,-4.69531283e-004
,,,-5.07500000e-009,-4.79687534e-004
,,,-5.05000000e-009,-4.78906284e-004
,,,-5.02500000e-009,-4.66406283e-004
,,,-5.00000000e-009,-4.39843781e-004
,,,-4.97500000e-009,-4.00000028e-004
,,,-4.95000000e-009,-3.46093774e-004
,,,-4.92500000e-009,-2.84375020e-004
,,,-4.90000000e-009,-2.18750015e-004
,,,-4.87500000e-009,-1.55468761e-004
,,,-4.85000000e-009,-9.68750069e-005
,,,-4.82500000e-009,-5.00000035e-005
,,,-4.80000000e-009,-1.64062512e-005
,,,-4.77500000e-009,0.00000000e+000
,,,-4.75000000e-009,-1.56250011e-006
,,,-4.72500000e-009,-1.87500013e-005
,,,-4.70000000e-009,-4.76562534e-005
,,,-4.67500000e-009,-8.35937559e-005
,,,-4.65000000e-009,-1.21093759e-004
,,,-4.62500000e-009,-1.56250011e-004
,,,-4.60000000e-009,-1.83593763e-004
,,,-4.57500000e-009,-2.00000014e-004
,,,-4.55000000e-009,-2.01562514e-004
,,,-4.52500000e-009,-1.90625013e-004
,,,-4.50000000e-009,-1.67968762e-004
,,,-4.47500000e-009,-1.36718760e-004
,,,-4.45000000e-009,-1.00000007e-004
,,,-4.42500000e-009,-6.25000044e-005
,,,-4.40000000e-009,-2.81250020e-005
,,,-4.37500000e-009,0.00000000e+000
,,,-4.35000000e-009,1.87500013e-005
,,,-4.32500000e-009,2.89062520e-005
,,,-4.30000000e-009,3.12500022e-005
,,,-4.27500000e-009,2.73437519e-005
,,,-4.25000000e-009,2.03125014e-005
,,,-4.22500000e-009,1.09375008e-005
,,,-4.20000000e-009,3.90625028e-006
,,,-4.17500000e-009,0.00000000e+000
,,,-4.15000000e-009,-7.81250055e-007
,,,-4.12500000e-009,2.34375017e-006
,,,-4.10000000e-009,8.59375061e-006
,,,-4.07500000e-009,1.56250011e-005
,,,-4.05000000e-009,2.10937515e-005
,,,-4.02500000e-009,2.10937515e-005
,,,-4.00000000e-009,1.48437511e-005
,,,-3.97500000e-009,0.00000000e+000
,,,-3.95000000e-009,-2.42187517e-005
,,,-3.92500000e-009,-5.46875039e-005
,,,-3.90000000e-009,-8.90625063e-005
,,,-3.87500000e-009,-1.23437509e-004
,,,-3.85000000e-009,-1.54687511e-004
,,,-3.82500000e-009,-1.79687513e-004
,,,-3.80000000e-009,-1.95312514e-004
,,,-3.77500000e-009,-2.00000014e-004
,,,-3.75000000e-009,-1.91406264e-004
,,,-3.72500000e-009,-1.72656262e-004
,,,-3.70000000e-009,-1.46093760e-004
,,,-3.67500000e-009,-1.14062508e-004
,,,-3.65000000e-009,-8.04687557e-005
,,,-3.62500000e-009,-4.76562534e-005
,,,-3.60000000e-009,-2.03125014e-005
,,,-3.57500000e-009,0.00000000e+000
,,,-3.55000000e-009,9.37500066e-006
,,,-3.52500000e-009,1.17187508e-005
,,,-3.50000000e-009,7.81250055e-006
,,,-3.47500000e-009,7.81250055e-007
,,,-3.45000000e-009,-6.25000044e-006
,,,-3.42500000e-009,-1.01562507e-005
,,,-3.40000000e-009,-8.59375061e-006
,,,-3.37500000e-009,0.00000000e+000
,,,-3.35000000e-009,1.64062512e-005
,,,-3.32500000e-009,4.06250029e-005
,,,-3.30000000e-009,7.03125050e-005
,,,-3.27500000e-009,1.03125007e-004
,,,-3.25000000e-009,1.35156260e-004
,,,-3.22500000e-009,1.64062512e-004
,,,-3.20000000e-009,1.86718763e-004
,,,-3.17500000e-009,2.00000014e-004
,,,-3.15000000e-009,1.98437514e-004
,,,-3.12500000e-009,1.85937513e-004
,,,-3.10000000e-009,1.64062512e-004
,,,-3.07500000e-009,1.35156260e-004
,,,-3.05000000e-009,1.01562507e-004
,,,-3.02500000e-009,6.64062547e-005
,,,-3.00000000e-009,3.12500022e-005
,,,-2.97500000e-009,0.00000000e+000
,,,-2.95000000e-009,-2.96875021e-005
,,,-2.92500000e-009,-5.54687539e-005
,,,-2.90000000e-009,-7.81250055e-005
,,,-2.87500000e-009,-9.84375070e-005
,,,-2.85000000e-009,-1.19531258e-004
,,,-2.82500000e-009,-1.42968760e-004
,,,-2.80000000e-009,-1.69531262e-004
,,,-2.77500000e-009,-2.00000014e-004
,,,-2.75000000e-009,-2.34375017e-004
,,,-2.72500000e-009,-2.71875019e-004
,,,-2.70000000e-009,-3.08593772e-004
,,,-2.67500000e-009,-3.42968774e-004
,,,-2.65000000e-009,-3.71875026e-004
,,,-2.62500000e-009,-3.92187528e-004
,,,-2.60000000e-009,-4.01562528e-004
,,,-2.57500000e-009,-4.00000028e-004
,,,-2.55000000e-009,-3.84375027e-004
,,,-2.52500000e-009,-3.60156275e-004
,,,-2.50000000e-009,-3.29687523e-004
,,,-2.47500000e-009,-2.95312521e-004
,,,-2.45000000e-009,-2.61718769e-004
,,,-2.42500000e-009,-2.32812516e-004
,,,-2.40000000e-009,-2.10937515e-004
,,,-2.37500000e-009,-2.00000014e-004
,,,-2.35000000e-009,-1.99218764e-004
,,,-2.32500000e-009,-2.10156265e-004
,,,-2.30000000e-009,-2.31250016e-004
,,,-2.27500000e-009,-2.60937518e-004
,,,-2.25000000e-009,-2.96093771e-004
,,,-2.22500000e-009,-3.32812524e-004
,,,-2.20000000e-009,-3.67968776e-004
,,,-2.17500000e-009,-4.00000028e-004
,,,-2.15000000e-009,-4.21875030e-004
,,,-2.12500000e-009,-4.36718781e-004
,,,-2.10000000e-009,-4.43750031e-004
,,,-2.07500000e-009,-4.43750031e-004
,,,-2.05000000e-009,-4.38281281e-004
,,,-2.02500000e-009,-4.27343780e-004
,,,-2.00000000e-009,-4.14062529e-004
,,,-1.97500000e-009,-4.00000028e-004
,,,-1.95000000e-009,-3.85156277e-004
,,,-1.92500000e-009,-3.73437526e-004
,,,-1.90000000e-009,-3.65625026e-004
,,,-1.87500000e-009,-3.63281276e-004
,,,-1.85000000e-009,-3.66406276e-004
,,,-1.82500000e-009,-3.74218776e-004
,,,-1.80000000e-009,-3.85937527e-004
,,,-1.77500000e-009,-4.00000028e-004
,,,-1.75000000e-009,-4.15625029e-004
,,,-1.72500000e-009,-4.30468780e-004
,,,-1.70000000e-009,-4.42968781e-004
,,,-1.67500000e-009,-4.50000032e-004
,,,-1.65000000e-009,-4.50000032e-004
,,,-1.62500000e-009,-4.42187531e-004
,,,-1.60000000e-009,-4.25000030e-004
,,,-1.57500000e-009,-4.00000028e-004
,,,-1.55000000e-009,-3.72656276e-004
,,,-1.52500000e-009,-3.42187524e-004
,,,-1.50000000e-009,-3.09375022e-004
,,,-1.47500000e-009,-2.77343770e-004
,,,-1.45000000e-009,-2.48437518e-004
,,,-1.42500000e-009,-2.24218766e-004
,,,-1.40000000e-009,-2.07812515e-004
,,,-1.37500000e-009,-2.00000014e-004
,,,-1.35000000e-009,-2.13281265e-004
,,,-1.32500000e-009,-2.37500017e-004
,,,-1.30000000e-009,-2.68750019e-004
,,,-1.27500000e-009,-3.03125021e-004
,,,-1.25000000e-009,-3.37500024e-004
,,,-1.22500000e-009,-3.66406276e-004
,,,-1.20000000e-009,-3.88281277e-004
,,,-1.17500000e-009,-4.00000028e-004
,,,-1.15000000e-009,-4.17968780e-004
,,,-1.12500000e-009,-4.29687530e-004
,,,-1.10000000e-009,-4.32812531e-004
,,,-1.07500000e-009,-4.30468780e-004
,,,-1.05000000e-009,-4.23437530e-004
,,,-1.02500000e-009,-4.14062529e-004
,,,-1.00000000e-009,-4.05468779e-004
,,,-9.75000000e-010,-4.00000028e-004
,,,-9.50000000e-010,-4.23437530e-004
,,,-9.25000000e-010,-4.57812532e-004
,,,-9.00000000e-010,-5.02343786e-004
,,,-8.75000000e-010,-5.54687539e-004
,,,-8.50000000e-010,-6.13281293e-004
,,,-8.25000000e-010,-6.74218798e-004
,,,-8.00000000e-010,-7.36718802e-004
,,,-7.75000000e-010,-8.00000057e-004
,,,-7.50000000e-010,-8.85156313e-004
,,,-7.25000000e-010,-9.74218819e-004
,,,-7.00000000e-010,-1.06796883e-003
,,,-6.75000000e-010,-1.16562508e-003
,,,-6.50000000e-010,-1.26640634e-003
,,,-6.25000000e-010,-1.37265635e-003
,,,-6.00000000e-010,-1.48281260e-003
,,,-5.75000000e-010,-1.60000011e-003
,,,-5.50000000e-010,-1.73750012e-003
,,,-5.25000000e-010,-1.88281263e-003
,,,-5.00000000e-010,-2.03515639e-003
,,,-4.75000000e-010,-2.19140641e-003
,,,-4.50000000e-010,-2.34843767e-003
,,,-4.25000000e-010,-2.50312518e-003
,,,-4.00000000e-010,-2.65390644e-003
,,,-3.75000000e-010,-2.80000020e-003
,,,-3.50000000e-010,-2.94531271e-003
,,,-3.25000000e-010,-3.09062522e-003
,,,-3.00000000e-010,-3.23593773e-003
,,,-2.75000000e-010,-3.38281274e-003
,,,-2.50000000e-010,-3.53281275e-003
,,,-2.25000000e-010,-3.68515651e-003
,,,-2.00000000e-010,-3.84062527e-003
,,,-1.75000000e-010,-4.00000028e-003
,,,-1.50000000e-010,-4.15468779e-003
,,,-1.25000000e-010,-4.31406281e-003
,,,-1.00000000e-010,-4.47578157e-003
,,,-7.50000000e-011,-4.63750033e-003
,,,-5.00000000e-011,-4.79453159e-003
,,,-2.50000000e-011,-4.94296910e-003
,,,0.00000000e+000,-5.07890661e-003
,,,2.50000000e-011,-5.20000037e-003
,,,5.00000000e-011,-5.28281287e-003
,,,7.50000000e-011,-5.35312538e-003
,,,1.00000000e-010,-5.41171913e-003
,,,1.25000000e-010,-5.46171914e-003
,,,1.50000000e-010,-5.50312539e-003
,,,1.75000000e-010,-5.53906289e-003
,,,2.00000000e-010,-5.57031289e-003
,,,2.25000000e-010,-5.60000040e-003
,,,2.50000000e-010,-5.60312540e-003
,,,2.75000000e-010,-5.61171915e-003
,,,3.00000000e-010,-5.62812540e-003
,,,3.25000000e-010,-5.65078165e-003
,,,3.50000000e-010,-5.68125040e-003
,,,3.75000000e-010,-5.71718790e-003
,,,4.00000000e-010,-5.75781291e-003
,,,4.25000000e-010,-5.80000041e-003
,,,4.50000000e-010,-5.81718791e-003
,,,4.75000000e-010,-5.83671916e-003
,,,5.00000000e-010,-5.86015666e-003
,,,5.25000000e-010,-5.88593792e-003
,,,5.50000000e-010,-5.91484417e-003
,,,5.75000000e-010,-5.94375042e-003
,,,6.00000000e-010,-5.97265667e-003
,,,6.25000000e-010,-6.00000042e-003
,,,6.50000000e-010,-5.99453167e-003
,,,6.75000000e-010,-5.98515667e-003
,,,7.00000000e-010,-5.97031292e-003
,,,7.25000000e-010,-5.95078167e-003
,,,7.50000000e-010,-5.92421917e-003
,,,7.75000000e-010,-5.89140667e-003
,,,8.00000000e-010,-5.85000041e-003
,,,8.25000000e-010,-5.80000041e-003
,,,8.50000000e-010,-5.71640665e-003
,,,8.75000000e-010,-5.62343790e-003
,,,9.00000000e-010,-5.52421914e-003
,,,9.25000000e-010,-5.41953163e-003
,,,9.50000000e-010,-5.31328163e-003
,,,9.75000000e-010,-5.20625037e-003
,,,1.00000000e-009,-5.10078161e-003
,,,1.02500000e-009,-5.00000035e-003
,,,1.05000000e-009,-4.89062535e-003
,,,1.07500000e-009,-4.78828159e-003
,,,1.10000000e-009,-4.69375033e-003
,,,1.12500000e-009,-4.61093783e-003
,,,1.15000000e-009,-4.53906282e-003
,,,1.17500000e-009,-4.48046907e-003
,,,1.20000000e-009,-4.43515656e-003
,,,1.22500000e-009,-4.40000031e-003
,,,1.25000000e-009,-4.36250031e-003
,,,1.27500000e-009,-4.32734406e-003
,,,1.30000000e-009,-4.29062530e-003
,,,1.32500000e-009,-4.25000030e-003
,,,1.35000000e-009,-4.20234405e-003
,,,1.37500000e-009,-4.14609404e-003
,,,1.40000000e-009,-4.07890654e-003
,,,1.42500000e-009,-4.00000028e-003
,,,1.45000000e-009,-3.90000028e-003
,,,1.47500000e-009,-3.78515652e-003
,,,1.50000000e-009,-3.65859401e-003
,,,1.52500000e-009,-3.52421900e-003
,,,1.55000000e-009,-3.38671899e-003
,,,1.57500000e-009,-3.25078148e-003
,,,1.60000000e-009,-3.12031272e-003
,,,1.62500000e-009,-3.00000021e-003
,,,1.65000000e-009,-2.89140645e-003
,,,1.67500000e-009,-2.79296895e-003
,,,1.70000000e-009,-2.70468769e-003
,,,1.72500000e-009,-2.62656269e-003
,,,1.75000000e-009,-2.55703143e-003
,,,1.77500000e-009,-2.49765643e-003
,,,1.80000000e-009,-2.44531267e-003
,,,1.82500000e-009,-2.40000017e-003
,,,1.85000000e-009,-2.36171892e-003
,,,1.87500000e-009,-2.32031266e-003
,,,1.90000000e-009,-2.27578141e-003
,,,1.92500000e-009,-2.22656266e-003
,,,1.95000000e-009,-2.17343765e-003
,,,1.97500000e-009,-2.11718765e-003
,,,2.00000000e-009,-2.05937515e-003
,,,2.02500000e-009,-2.00000014e-003
,,,2.05000000e-009,-1.94296889e-003
,,,2.07500000e-009,-1.88046888e-003
,,,2.10000000e-009,-1.81171888e-003
,,,2.12500000e-009,-1.73750012e-003
,,,2.15000000e-009,-1.65781262e-003
,,,2.17500000e-009,-1.57421886e-003
,,,2.20000000e-009,-1.48828136e-003
,,,2.22500000e-009,-1.40000010e-003
,,,2.25000000e-009,-1.31718759e-003
,,,2.27500000e-009,-1.23281259e-003
,,,2.30000000e-009,-1.14765633e-003
,,,2.32500000e-009,-1.06484383e-003
,,,2.35000000e-009,-9.85937570e-004
,,,2.37500000e-009,-9.14843815e-004
,,,2.40000000e-009,-8.52343810e-004
,,,2.42500000e-009,-8.00000057e-004
,,,2.45000000e-009,-7.65625054e-004
,,,2.47500000e-009,-7.37500052e-004
,,,2.50000000e-009,-7.13281300e-004
,,,2.52500000e-009,-6.90625049e-004
,,,2.55000000e-009,-6.68750047e-004
,,,2.57500000e-009,-6.46875046e-004
,,,2.60000000e-009,-6.24218794e-004
,,,2.62500000e-009,-6.00000042e-004
,,,2.65000000e-009,-5.81250041e-004
,,,2.67500000e-009,-5.57812539e-004
,,,2.70000000e-009,-5.30468788e-004
,,,2.72500000e-009,-5.01562536e-004
,,,2.75000000e-009,-4.71875033e-004
,,,2.77500000e-009,-4.43750031e-004
,,,2.80000000e-009,-4.18750030e-004
,,,2.82500000e-009,-4.00000028e-004
,,,2.85000000e-009,-3.92968778e-004
,,,2.87500000e-009,-3.90625028e-004
,,,2.90000000e-009,-3.90625028e-004
,,,2.92500000e-009,-3.92968778e-004
,,,2.95000000e-009,-3.96093778e-004
,,,2.97500000e-009,-3.99218778e-004
,,,3.00000000e-009,-4.00781278e-004
,,,3.02500000e-009,-4.00000028e-004
,,,3.05000000e-009,-3.99218778e-004
,,,3.07500000e-009,-3.92187528e-004
,,,3.10000000e-009,-3.76562527e-004
,,,3.12500000e-009,-3.53125025e-004
,,,3.15000000e-009,-3.22656273e-004
,,,3.17500000e-009,-2.85937520e-004
,,,3.20000000e-009,-2.43750017e-004
,,,3.22500000e-009,-2.00000014e-004
,,,3.25000000e-009,-1.59375011e-004
,,,3.27500000e-009,-1.20312509e-004
,,,3.30000000e-009,-8.35937559e-005
,,,3.32500000e-009,-5.07812536e-005
,,,3.35000000e-009,-2.50000018e-005
,,,3.37500000e-009,-7.81250055e-006
,,,3.40000000e-009,7.81250055e-007
,,,3.42500000e-009,0.00000000e+000
,,,3.45000000e-009,-1.25000009e-005
,,,3.47500000e-009,-3.28125023e-005
,,,3.50000000e-009,-5.85937541e-005
,,,3.52500000e-009,-8.75000062e-005
,,,3.55000000e-009,-1.17968758e-004
,,,3.57500000e-009,-1.48437511e-004
,,,3.60000000e-009,-1.75781262e-004
,,,3.62500000e-009,-2.00000014e-004
,,,3.65000000e-009,-2.18750015e-004
,,,3.67500000e-009,-2.30468766e-004
,,,3.70000000e-009,-2.35937517e-004
,,,3.72500000e-009,-2.35156267e-004
,,,3.75000000e-009,-2.30468766e-004
,,,3.77500000e-009,-2.21093766e-004
,,,3.80000000e-009,-2.10937515e-004
,,,3.82500000e-009,-2.00000014e-004
,,,3.85000000e-009,-1.90625013e-004
,,,3.87500000e-009,-1.83593763e-004
,,,3.90000000e-009,-1.78906263e-004
,,,3.92500000e-009,-1.78125013e-004
,,,3.95000000e-009,-1.79687513e-004
,,,3.97500000e-009,-1.84375013e-004
,,,4.00000000e-009,-1.91406264e-004
,,,4.02500000e-009,-2.00000014e-004
,,,4.05000000e-009,-2.07812515e-004
,,,4.07500000e-009,-2.15625015e-004
,,,4.10000000e-009,-2.20312516e-004
,,,4.12500000e-009,-2.23437516e-004
,,,4.15000000e-009,-2.23437516e-004
,,,4.17500000e-009,-2.19531266e-004
,,,4.20000000e-009,-2.11718765e-004
,,,4.22500000e-009,-2.00000014e-004
,,,4.25000000e-009,-1.82812513e-004
,,,4.27500000e-009,-1.62500012e-004
,,,4.30000000e-009,-1.39062510e-004
,,,4.32500000e-009,-1.12500008e-004
,,,4.35000000e-009,-8.43750060e-005
,,,4.37500000e-009,-5.54687539e-005
,,,4.40000000e-009,-2.65625019e-005
,,,4.42500000e-009,0.00000000e+000
,,,4.45000000e-009,2.26562516e-005
,,,4.47500000e-009,3.98437528e-005
,,,4.50000000e-009,5.15625036e-005
,,,4.52500000e-009,5.62500040e-005
,,,4.55000000e-009,5.31250038e-005
,,,4.57500000e-009,4.21875030e-005
,,,4.60000000e-009,2.42187517e-005
,,,4.62500000e-009,0.00000000e+000
,,,4.65000000e-009,-2.96875021e-005
,,,4.67500000e-009,-6.25000044e-005
,,,4.70000000e-009,-9.60937568e-005
,,,4.72500000e-009,-1.28125009e-004
,,,4.75000000e-009,-1.55468761e-004
,,,4.77500000e-009,-1.78125013e-004
,,,4.80000000e-009,-1.92968764e-004
,,,4.82500000e-009,-2.00000014e-004
,,,4.85000000e-009,-1.96875014e-004
,,,4.87500000e-009,-1.85156263e-004
,,,4.90000000e-009,-1.65625012e-004
,,,4.92500000e-009,-1.39062510e-004
,,,4.95000000e-009,-1.07031258e-004
,,,4.97500000e-009,-7.10937550e-005
,,,5.00000000e-009,-3.43750024e-005
,,,5.02500000e-009,0.00000000e+000
,,,5.05000000e-009,2.96875021e-005
,,,5.07500000e-009,5.39062538e-005
,,,5.10000000e-009,6.95312549e-005
,,,5.12500000e-009,7.57812554e-005
,,,5.15000000e-009,7.18750051e-005
,,,5.17500000e-009,5.70312540e-005
,,,5.20000000e-009,3.28125023e-005
,,,5.22500000e-009,0.00000000e+000
,,,5.25000000e-009,-3.90625028e-005
,,,5.27500000e-009,-8.04687557e-005
,,,5.30000000e-009,-1.20312509e-004
,,,5.32500000e-009,-1.56250011e-004
,,,5.35000000e-009,-1.83593763e-004
,,,5.37500000e-009,-2.00781264e-004
,,,5.40000000e-009,-2.06250015e-004
,,,5.42500000e-009,-2.00000014e-004
,,,5.45000000e-009,-1.79687513e-004
,,,5.47500000e-009,-1.50781261e-004
,,,5.50000000e-009,-1.15625008e-004
,,,5.52500000e-009,-7.96875056e-005
,,,5.55000000e-009,-4.68750033e-005
,,,5.57500000e-009,-2.03125014e-005
,,,5.60000000e-009,-3.90625028e-006
,,,5.62500000e-009,0.00000000e+000
,,,5.65000000e-009,-7.81250055e-006
,,,5.67500000e-009,-2.81250020e-005
,,,5.70000000e-009,-5.70312540e-005
,,,5.72500000e-009,-9.06250064e-005
,,,5.75000000e-009,-1.26562509e-004
,,,5.77500000e-009,-1.58593761e-004
,,,5.80000000e-009,-1.84375013e-004
,,,5.82500000e-009,-2.00000014e-004
,,,5.85000000e-009,-2.01562514e-004
,,,5.87500000e-009,-1.91406264e-004
