RawData/SinglePhotoelectron/R1_2pt2B_5mV/wave021_Ch2.csv

"Record Length",1000,"Points",-7.72500000e-009,3.93750028e-004
"Sample Interval",2.50000000e-011,s,-7.70000000e-009,3.90625028e-004
"Trigger Point",309,"Samples",-7.67500000e-009,3.87500027e-004
"Trigger Time",1.61934234e-011,s,-7.65000000e-009,3.86718777e-004
"",,,-7.62500000e-009,3.88281277e-004
"Horizontal Offset",-7.72500000e-009,s,-7.60000000e-009,3.92968778e-004
,,,-7.57500000e-009,4.00000028e-004
,,,-7.55000000e-009,4.09375029e-004
,,,-7.52500000e-009,4.19531280e-004
,,,-7.50000000e-009,4.28906280e-004
,,,-7.47500000e-009,4.34375031e-004
,,,-7.45000000e-009,4.35937531e-004
,,,-7.42500000e-009,4.31250031e-004
,,,-7.40000000e-009,4.18750030e-004
,,,-7.37500000e-009,4.00000028e-004
,,,-7.35000000e-009,3.75781277e-004
,,,-7.32500000e-009,3.46875025e-004
,,,-7.30000000e-009,3.14843772e-004
,,,-7.27500000e-009,2.82812520e-004
,,,-7.25000000e-009,2.52343768e-004
,,,-7.22500000e-009,2.26562516e-004
,,,-7.20000000e-009,2.08593765e-004
,,,-7.17500000e-009,2.00000014e-004
,,,-7.15000000e-009,2.04687514e-004
,,,-7.12500000e-009,2.18750015e-004
,,,-7.10000000e-009,2.42187517e-004
,,,-7.07500000e-009,2.71875019e-004
,,,-7.05000000e-009,3.04687522e-004
,,,-7.02500000e-009,3.39062524e-004
,,,-7.00000000e-009,3.71093776e-004
,,,-6.97500000e-009,4.00000028e-004
,,,-6.95000000e-009,4.22656280e-004
,,,-6.92500000e-009,4.39062531e-004
,,,-6.90000000e-009,4.46875032e-004
,,,-6.87500000e-009,4.47656282e-004
,,,-6.85000000e-009,4.41406281e-004
,,,-6.82500000e-009,4.30468780e-004
,,,-6.80000000e-009,4.15625029e-004
,,,-6.77500000e-009,4.00000028e-004
,,,-6.75000000e-009,3.82812527e-004
,,,-6.72500000e-009,3.67968776e-004
,,,-6.70000000e-009,3.57812525e-004
,,,-6.67500000e-009,3.52343775e-004
,,,-6.65000000e-009,3.53906275e-004
,,,-6.62500000e-009,3.62500026e-004
,,,-6.60000000e-009,3.78125027e-004
,,,-6.57500000e-009,4.00000028e-004
,,,-6.55000000e-009,4.25781280e-004
,,,-6.52500000e-009,4.54687532e-004
,,,-6.50000000e-009,4.85937534e-004
,,,-6.47500000e-009,5.15625036e-004
,,,-6.45000000e-009,5.43750038e-004
,,,-6.42500000e-009,5.67187540e-004
,,,-6.40000000e-009,5.86718792e-004
,,,-6.37500000e-009,6.00000042e-004
,,,-6.35000000e-009,6.06250043e-004
,,,-6.32500000e-009,6.07812543e-004
,,,-6.30000000e-009,6.06250043e-004
,,,-6.27500000e-009,6.03125043e-004
,,,-6.25000000e-009,5.99218792e-004
,,,-6.22500000e-009,5.96093792e-004
,,,-6.20000000e-009,5.96875042e-004
,,,-6.17500000e-009,6.00000042e-004
,,,-6.15000000e-009,6.03906293e-004
,,,-6.12500000e-009,6.11718793e-004
,,,-6.10000000e-009,6.19531294e-004
,,,-6.07500000e-009,6.26562544e-004
,,,-6.05000000e-009,6.30468795e-004
,,,-6.02500000e-009,6.28906295e-004
,,,-6.00000000e-009,6.18750044e-004
,,,-5.97500000e-009,6.00000042e-004
,,,-5.95000000e-009,5.69531290e-004
,,,-5.92500000e-009,5.29687537e-004
,,,-5.90000000e-009,4.82031284e-004
,,,-5.87500000e-009,4.28125030e-004
,,,-5.85000000e-009,3.69531276e-004
,,,-5.82500000e-009,3.10156272e-004
,,,-5.80000000e-009,2.52343768e-004
,,,-5.77500000e-009,2.00000014e-004
,,,-5.75000000e-009,1.58593761e-004
,,,-5.72500000e-009,1.28125009e-004
,,,-5.70000000e-009,1.10156258e-004
,,,-5.67500000e-009,1.03906257e-004
,,,-5.65000000e-009,1.10937508e-004
,,,-5.62500000e-009,1.30468759e-004
,,,-5.60000000e-009,1.60156261e-004
,,,-5.57500000e-009,2.00000014e-004
,,,-5.55000000e-009,2.49218768e-004
,,,-5.52500000e-009,3.03125021e-004
,,,-5.50000000e-009,3.59375025e-004
,,,-5.47500000e-009,4.16406279e-004
,,,-5.45000000e-009,4.70312533e-004
,,,-5.42500000e-009,5.19531287e-004
,,,-5.40000000e-009,5.63281290e-004
,,,-5.37500000e-009,6.00000042e-004
,,,-5.35000000e-009,6.27343794e-004
,,,-5.32500000e-009,6.45312546e-004
,,,-5.30000000e-009,6.54687546e-004
,,,-5.27500000e-009,6.55468796e-004
,,,-5.25000000e-009,6.48437546e-004
,,,-5.22500000e-009,6.35937545e-004
,,,-5.20000000e-009,6.18750044e-004
,,,-5.17500000e-009,6.00000042e-004
,,,-5.15000000e-009,5.78906291e-004
,,,-5.12500000e-009,5.60156290e-004
,,,-5.10000000e-009,5.46875039e-004
,,,-5.07500000e-009,5.39843788e-004
,,,-5.05000000e-009,5.40625038e-004
,,,-5.02500000e-009,5.51562539e-004
,,,-5.00000000e-009,5.71093790e-004
,,,-4.97500000e-009,6.00000042e-004
,,,-4.95000000e-009,6.33593795e-004
,,,-4.92500000e-009,6.71093798e-004
,,,-4.90000000e-009,7.08593800e-004
,,,-4.87500000e-009,7.43750053e-004
,,,-4.85000000e-009,7.72656305e-004
,,,-4.82500000e-009,7.92968806e-004
,,,-4.80000000e-009,8.02343807e-004
,,,-4.77500000e-009,8.00000057e-004
,,,-4.75000000e-009,7.80468805e-004
,,,-4.72500000e-009,7.53125053e-004
,,,-4.70000000e-009,7.19531301e-004
,,,-4.67500000e-009,6.85156298e-004
,,,-4.65000000e-009,6.52343796e-004
,,,-4.62500000e-009,6.25781294e-004
,,,-4.60000000e-009,6.07812543e-004
,,,-4.57500000e-009,6.00000042e-004
,,,-4.55000000e-009,5.97656292e-004
,,,-4.52500000e-009,6.03906293e-004
,,,-4.50000000e-009,6.15625044e-004
,,,-4.47500000e-009,6.27343794e-004
,,,-4.45000000e-009,6.35937545e-004
,,,-4.42500000e-009,6.36718795e-004
,,,-4.40000000e-009,6.25000044e-004
,,,-4.37500000e-009,6.00000042e-004
,,,-4.35000000e-009,5.57812539e-004
,,,-4.32500000e-009,5.03906286e-004
,,,-4.30000000e-009,4.41406281e-004
,,,-4.27500000e-009,3.76562527e-004
,,,-4.25000000e-009,3.14843772e-004
,,,-4.22500000e-009,2.61718769e-004
,,,-4.20000000e-009,2.21875016e-004
,,,-4.17500000e-009,2.00000014e-004
,,,-4.15000000e-009,1.96875014e-004
,,,-4.12500000e-009,2.11718765e-004
,,,-4.10000000e-009,2.39062517e-004
,,,-4.07500000e-009,2.75781270e-004
,,,-4.05000000e-009,3.15625022e-004
,,,-4.02500000e-009,3.52343775e-004
,,,-4.00000000e-009,3.82031277e-004
,,,-3.97500000e-009,4.00000028e-004
,,,-3.95000000e-009,4.03125029e-004
,,,-3.92500000e-009,3.91406278e-004
,,,-3.90000000e-009,3.67968776e-004
,,,-3.87500000e-009,3.34375024e-004
,,,-3.85000000e-009,2.96875021e-004
,,,-3.82500000e-009,2.59375018e-004
,,,-3.80000000e-009,2.25781266e-004
,,,-3.77500000e-009,2.00000014e-004
,,,-3.75000000e-009,1.85156263e-004
,,,-3.72500000e-009,1.78906263e-004
,,,-3.70000000e-009,1.81250013e-004
,,,-3.67500000e-009,1.87500013e-004
,,,-3.65000000e-009,1.96093764e-004
,,,-3.62500000e-009,2.03125014e-004
,,,-3.60000000e-009,2.04687514e-004
,,,-3.57500000e-009,2.00000014e-004
,,,-3.55000000e-009,1.86718763e-004
,,,-3.52500000e-009,1.64843762e-004
,,,-3.50000000e-009,1.35937510e-004
,,,-3.47500000e-009,1.03125007e-004
,,,-3.45000000e-009,6.95312549e-005
,,,-3.42500000e-009,3.90625028e-005
,,,-3.40000000e-009,1.48437511e-005
,,,-3.37500000e-009,0.00000000e+000
,,,-3.35000000e-009,-7.81250055e-007
,,,-3.32500000e-009,7.81250055e-006
,,,-3.30000000e-009,2.81250020e-005
,,,-3.27500000e-009,5.62500040e-005
,,,-3.25000000e-009,9.06250064e-005
,,,-3.22500000e-009,1.27343759e-004
,,,-3.20000000e-009,1.64843762e-004
,,,-3.17500000e-009,2.00000014e-004
,,,-3.15000000e-009,2.28906266e-004
,,,-3.12500000e-009,2.50000018e-004
,,,-3.10000000e-009,2.62500019e-004
,,,-3.07500000e-009,2.66406269e-004
,,,-3.05000000e-009,2.60937518e-004
,,,-3.02500000e-009,2.46875017e-004
,,,-3.00000000e-009,2.25781266e-004
,,,-2.97500000e-009,2.00000014e-004
,,,-2.95000000e-009,1.71093762e-004
,,,-2.92500000e-009,1.41406260e-004
,,,-2.90000000e-009,1.10937508e-004
,,,-2.87500000e-009,8.28125059e-005
,,,-2.85000000e-009,5.62500040e-005
,,,-2.82500000e-009,3.28125023e-005
,,,-2.80000000e-009,1.40625010e-005
,,,-2.77500000e-009,0.00000000e+000
,,,-2.75000000e-009,-6.25000044e-006
,,,-2.72500000e-009,-8.59375061e-006
,,,-2.70000000e-009,-7.03125050e-006
,,,-2.67500000e-009,-4.68750033e-006
,,,-2.65000000e-009,-1.56250011e-006
,,,-2.62500000e-009,0.00000000e+000
,,,-2.60000000e-009,7.81250055e-007
,,,-2.57500000e-009,0.00000000e+000
,,,-2.55000000e-009,0.00000000e+000
,,,-2.52500000e-009,-1.56250011e-006
,,,-2.50000000e-009,-3.90625028e-006
,,,-2.47500000e-009,-7.03125050e-006
,,,-2.45000000e-009,-9.37500066e-006
,,,-2.42500000e-009,-9.37500066e-006
,,,-2.40000000e-009,-6.25000044e-006
,,,-2.37500000e-009,0.00000000e+000
,,,-2.35000000e-009,1.40625010e-005
,,,-2.32500000e-009,3.35937524e-005
,,,-2.30000000e-009,5.70312540e-005
,,,-2.27500000e-009,8.35937559e-005
,,,-2.25000000e-009,1.12500008e-004
,,,-2.22500000e-009,1.42187510e-004
,,,-2.20000000e-009,1.71093762e-004
,,,-2.17500000e-009,2.00000014e-004
,,,-2.15000000e-009,2.28125016e-004
,,,-2.12500000e-009,2.54687518e-004
,,,-2.10000000e-009,2.79687520e-004
,,,-2.07500000e-009,3.03125021e-004
,,,-2.05000000e-009,3.26562523e-004
,,,-2.02500000e-009,3.50000025e-004
,,,-2.00000000e-009,3.74218776e-004
,,,-1.97500000e-009,4.00000028e-004
,,,-1.95000000e-009,4.27343780e-004
,,,-1.92500000e-009,4.57031282e-004
,,,-1.90000000e-009,4.85937534e-004
,,,-1.87500000e-009,5.14843786e-004
,,,-1.85000000e-009,5.41406288e-004
,,,-1.82500000e-009,5.65625040e-004
,,,-1.80000000e-009,5.85156291e-004
,,,-1.77500000e-009,6.00000042e-004
,,,-1.75000000e-009,6.07031293e-004
,,,-1.72500000e-009,6.10156293e-004
,,,-1.70000000e-009,6.10156293e-004
,,,-1.67500000e-009,6.07812543e-004
,,,-1.65000000e-009,6.04687543e-004
,,,-1.62500000e-009,6.02343793e-004
,,,-1.60000000e-009,6.00000042e-004
,,,-1.57500000e-009,6.00000042e-004
,,,-1.55000000e-009,5.95312542e-004
,,,-1.52500000e-009,5.93750042e-004
,,,-1.50000000e-009,5.93750042e-004
,,,-1.47500000e-009,5.94531292e-004
,,,-1.45000000e-009,5.96093792e-004
,,,-1.42500000e-009,5.98437542e-004
,,,-1.40000000e-009,5.99218792e-004
,,,-1.37500000e-009,6.00000042e-004
,,,-1.35000000e-009,5.89843792e-004
,,,-1.32500000e-009,5.79687541e-004
,,,-1.30000000e-009,5.70312540e-004
,,,-1.27500000e-009,5.64062540e-004
,,,-1.25000000e-009,5.62500040e-004
,,,-1.22500000e-009,5.67187540e-004
,,,-1.20000000e-009,5.79687541e-004
,,,-1.17500000e-009,6.00000042e-004
,,,-1.15000000e-009,6.08593793e-004
,,,-1.12500000e-009,6.21093794e-004
,,,-1.10000000e-009,6.39843795e-004
,,,-1.07500000e-009,6.63281297e-004
,,,-1.05000000e-009,6.92968799e-004
,,,-1.02500000e-009,7.26562551e-004
,,,-1.00000000e-009,7.62500054e-004
,,,-9.75000000e-010,8.00000057e-004
,,,-9.50000000e-010,8.00781307e-004
,,,-9.25000000e-010,7.92187556e-004
,,,-9.00000000e-010,7.75000055e-004
,,,-8.75000000e-010,7.49218803e-004
,,,-8.50000000e-010,7.17968801e-004
,,,-8.25000000e-010,6.81250048e-004
,,,-8.00000000e-010,6.42187545e-004
,,,-7.75000000e-010,6.00000042e-004
,,,-7.50000000e-010,5.10156286e-004
,,,-7.25000000e-010,4.14843779e-004
,,,-7.00000000e-010,3.18750023e-004
,,,-6.75000000e-010,2.27343766e-004
,,,-6.50000000e-010,1.47656260e-004
,,,-6.25000000e-010,8.28125059e-005
,,,-6.00000000e-010,3.35937524e-005
,,,-5.75000000e-010,0.00000000e+000
,,,-5.50000000e-010,-7.26562551e-005
,,,-5.25000000e-010,-1.47656260e-004
,,,-5.00000000e-010,-2.27343766e-004
,,,-4.75000000e-010,-3.14843772e-004
,,,-4.50000000e-010,-4.12500029e-004
,,,-4.25000000e-010,-5.23437537e-004
,,,-4.00000000e-010,-6.51562546e-004
,,,-3.75000000e-010,-8.00000057e-004
,,,-3.50000000e-010,-1.01875007e-003
,,,-3.25000000e-010,-1.26796884e-003
,,,-3.00000000e-010,-1.54140636e-003
,,,-2.75000000e-010,-1.83046888e-003
,,,-2.50000000e-010,-2.12734390e-003
,,,-2.25000000e-010,-2.42421892e-003
,,,-2.00000000e-010,-2.71562519e-003
,,,-1.75000000e-010,-3.00000021e-003
,,,-1.50000000e-010,-3.30468773e-003
,,,-1.25000000e-010,-3.61171901e-003
,,,-1.00000000e-010,-3.92109403e-003
,,,-7.50000000e-011,-4.23515655e-003
,,,-5.00000000e-011,-4.55781282e-003
,,,-2.50000000e-011,-4.89140660e-003
,,,0.00000000e+000,-5.23828162e-003
,,,2.50000000e-011,-5.60000040e-003
,,,5.00000000e-011,-5.98046917e-003
,,,7.50000000e-011,-6.38046920e-003
,,,1.00000000e-010,-6.79609423e-003
,,,1.25000000e-010,-7.21875051e-003
,,,1.50000000e-010,-7.63906304e-003
,,,1.75000000e-010,-8.04843807e-003
,,,2.00000000e-010,-8.43750060e-003
,,,2.25000000e-010,-8.80000062e-003
,,,2.50000000e-010,-9.10546939e-003
,,,2.75000000e-010,-9.38906316e-003
,,,3.00000000e-010,-9.65312568e-003
,,,3.25000000e-010,-9.90156320e-003
,,,3.50000000e-010,-1.01375007e-002
,,,3.75000000e-010,-1.03640632e-002
,,,4.00000000e-010,-1.05843757e-002
,,,4.25000000e-010,-1.08000008e-002
,,,4.50000000e-010,-1.09671883e-002
,,,4.75000000e-010,-1.11414070e-002
,,,5.00000000e-010,-1.13242196e-002
,,,5.25000000e-010,-1.15117196e-002
,,,5.50000000e-010,-1.16992196e-002
,,,5.75000000e-010,-1.18812508e-002
,,,6.00000000e-010,-1.20500009e-002
,,,6.25000000e-010,-1.22000009e-002
,,,6.50000000e-010,-1.22632821e-002
,,,6.75000000e-010,-1.23117196e-002
,,,7.00000000e-010,-1.23476571e-002
,,,7.25000000e-010,-1.23726571e-002
,,,7.50000000e-010,-1.23890634e-002
,,,7.75000000e-010,-1.23984384e-002
,,,8.00000000e-010,-1.24023446e-002
,,,8.25000000e-010,-1.24000009e-002
,,,8.50000000e-010,-1.23304696e-002
,,,8.75000000e-010,-1.22640634e-002
,,,9.00000000e-010,-1.22046884e-002
,,,9.25000000e-010,-1.21531259e-002
,,,9.50000000e-010,-1.21085946e-002
,,,9.75000000e-010,-1.20703134e-002
,,,1.00000000e-009,-1.20351571e-002
,,,1.02500000e-009,-1.20000008e-002
,,,1.05000000e-009,-1.19070321e-002
,,,1.07500000e-009,-1.18164071e-002
,,,1.10000000e-009,-1.17296883e-002
,,,1.12500000e-009,-1.16492196e-002
,,,1.15000000e-009,-1.15765633e-002
,,,1.17500000e-009,-1.15117196e-002
,,,1.20000000e-009,-1.14539071e-002
,,,1.22500000e-009,-1.14000008e-002
,,,1.25000000e-009,-1.13023445e-002
,,,1.27500000e-009,-1.12000008e-002
,,,1.30000000e-009,-1.10921883e-002
,,,1.32500000e-009,-1.09765633e-002
,,,1.35000000e-009,-1.08515633e-002
,,,1.37500000e-009,-1.07148445e-002
,,,1.40000000e-009,-1.05648445e-002
,,,1.42500000e-009,-1.04000007e-002
,,,1.45000000e-009,-1.01890632e-002
,,,1.47500000e-009,-9.96250071e-003
,,,1.50000000e-009,-9.72500069e-003
,,,1.52500000e-009,-9.48359442e-003
,,,1.55000000e-009,-9.24531315e-003
,,,1.57500000e-009,-9.01562564e-003
,,,1.60000000e-009,-8.79921937e-003
,,,1.62500000e-009,-8.60000061e-003
,,,1.65000000e-009,-8.40156309e-003
,,,1.67500000e-009,-8.21406308e-003
,,,1.70000000e-009,-8.03437557e-003
,,,1.72500000e-009,-7.86171931e-003
,,,1.75000000e-009,-7.69453179e-003
,,,1.77500000e-009,-7.53046928e-003
,,,1.80000000e-009,-7.36562552e-003
,,,1.82500000e-009,-7.20000051e-003
,,,1.85000000e-009,-7.02187550e-003
,,,1.87500000e-009,-6.83046923e-003
,,,1.90000000e-009,-6.62812547e-003
,,,1.92500000e-009,-6.41718795e-003
,,,1.95000000e-009,-6.20390669e-003
,,,1.97500000e-009,-5.99296917e-003
,,,2.00000000e-009,-5.79062541e-003
,,,2.02500000e-009,-5.60000040e-003
,,,2.05000000e-009,-5.42656288e-003
,,,2.07500000e-009,-5.25937537e-003
,,,2.10000000e-009,-5.09921911e-003
,,,2.12500000e-009,-4.94531285e-003
,,,2.15000000e-009,-4.79843784e-003
,,,2.17500000e-009,-4.65859408e-003
,,,2.20000000e-009,-4.52656282e-003
,,,2.22500000e-009,-4.40000031e-003
,,,2.25000000e-009,-4.28828155e-003
,,,2.27500000e-009,-4.17031280e-003
,,,2.30000000e-009,-4.04687529e-003
,,,2.32500000e-009,-3.91796903e-003
,,,2.35000000e-009,-3.78593777e-003
,,,2.37500000e-009,-3.65468776e-003
,,,2.40000000e-009,-3.52500025e-003
,,,2.42500000e-009,-3.40000024e-003
,,,2.45000000e-009,-3.29140648e-003
,,,2.47500000e-009,-3.17890648e-003
,,,2.50000000e-009,-3.06015647e-003
,,,2.52500000e-009,-2.93515646e-003
,,,2.55000000e-009,-2.80546895e-003
,,,2.57500000e-009,-2.67187519e-003
,,,2.60000000e-009,-2.53593768e-003
,,,2.62500000e-009,-2.40000017e-003
,,,2.65000000e-009,-2.27812516e-003
,,,2.67500000e-009,-2.15156265e-003
,,,2.70000000e-009,-2.01953139e-003
,,,2.72500000e-009,-1.88593763e-003
,,,2.75000000e-009,-1.75390637e-003
,,,2.77500000e-009,-1.62656262e-003
,,,2.80000000e-009,-1.50703136e-003
,,,2.82500000e-009,-1.40000010e-003
,,,2.85000000e-009,-1.32265634e-003
,,,2.87500000e-009,-1.25234384e-003
,,,2.90000000e-009,-1.19062508e-003
,,,2.92500000e-009,-1.13593758e-003
,,,2.95000000e-009,-1.08984383e-003
,,,2.97500000e-009,-1.05156257e-003
,,,3.00000000e-009,-1.02187507e-003
,,,3.02500000e-009,-1.00000007e-003
,,,3.05000000e-009,-9.97656321e-004
,,,3.07500000e-009,-9.92968820e-004
,,,3.10000000e-009,-9.82031320e-004
,,,3.12500000e-009,-9.63281318e-004
,,,3.15000000e-009,-9.35156316e-004
,,,3.17500000e-009,-8.98437564e-004
,,,3.20000000e-009,-8.53125060e-004
,,,3.22500000e-009,-8.00000057e-004
,,,3.25000000e-009,-7.52343803e-004
,,,3.27500000e-009,-6.98437549e-004
,,,3.30000000e-009,-6.39062545e-004
,,,3.32500000e-009,-5.78906291e-004
,,,3.35000000e-009,-5.21875037e-004
,,,3.37500000e-009,-4.71093783e-004
,,,3.40000000e-009,-4.29687530e-004
,,,3.42500000e-009,-4.00000028e-004
,,,3.45000000e-009,-3.93750028e-004
,,,3.47500000e-009,-3.94531278e-004
,,,3.50000000e-009,-4.00781278e-004
,,,3.52500000e-009,-4.08593779e-004
,,,3.55000000e-009,-4.14062529e-004
,,,3.57500000e-009,-4.16406279e-004
,,,3.60000000e-009,-4.11718779e-004
,,,3.62500000e-009,-4.00000028e-004
,,,3.65000000e-009,-3.89062528e-004
,,,3.67500000e-009,-3.69531276e-004
,,,3.70000000e-009,-3.41406274e-004
,,,3.72500000e-009,-3.09375022e-004
,,,3.75000000e-009,-2.75000019e-004
,,,3.77500000e-009,-2.42968767e-004
,,,3.80000000e-009,-2.17187515e-004
,,,3.82500000e-009,-2.00000014e-004
,,,3.85000000e-009,-2.00000014e-004
,,,3.87500000e-009,-2.10156265e-004
,,,3.90000000e-009,-2.30468766e-004
,,,3.92500000e-009,-2.58593768e-004
,,,3.95000000e-009,-2.92187521e-004
,,,3.97500000e-009,-3.28906273e-004
,,,4.00000000e-009,-3.65625026e-004
,,,4.02500000e-009,-4.00000028e-004
,,,4.05000000e-009,-4.30468780e-004
,,,4.07500000e-009,-4.52343782e-004
,,,4.10000000e-009,-4.64843783e-004
,,,4.12500000e-009,-4.67187533e-004
,,,4.15000000e-009,-4.60156283e-004
,,,4.17500000e-009,-4.45312532e-004
,,,4.20000000e-009,-4.24218780e-004
,,,4.22500000e-009,-4.00000028e-004
,,,4.25000000e-009,-3.76562527e-004
,,,4.27500000e-009,-3.56250025e-004
,,,4.30000000e-009,-3.39843774e-004
,,,4.32500000e-009,-3.31250023e-004
,,,4.35000000e-009,-3.32031274e-004
,,,4.37500000e-009,-3.42968774e-004
,,,4.40000000e-009,-3.65625026e-004
,,,4.42500000e-009,-4.00000028e-004
,,,4.45000000e-009,-4.42968781e-004
,,,4.47500000e-009,-4.93750035e-004
,,,4.50000000e-009,-5.50000039e-004
,,,4.52500000e-009,-6.07812543e-004
,,,4.55000000e-009,-6.65625047e-004
,,,4.57500000e-009,-7.18750051e-004
,,,4.60000000e-009,-7.64062554e-004
,,,4.62500000e-009,-8.00000057e-004
,,,4.65000000e-009,-8.18750058e-004
,,,4.67500000e-009,-8.24218808e-004
,,,4.70000000e-009,-8.14843808e-004
,,,4.72500000e-009,-7.91406306e-004
,,,4.75000000e-009,-7.56250054e-004
,,,4.77500000e-009,-7.10937550e-004
,,,4.80000000e-009,-6.57031297e-004
,,,4.82500000e-009,-6.00000042e-004
,,,4.85000000e-009,-5.39062538e-004
,,,4.87500000e-009,-4.83593784e-004
,,,4.90000000e-009,-4.35937531e-004
,,,4.92500000e-009,-3.99218778e-004
,,,4.95000000e-009,-3.77343777e-004
,,,4.97500000e-009,-3.69531276e-004
,,,5.00000000e-009,-3.77343777e-004
,,,5.02500000e-009,-4.00000028e-004
,,,5.05000000e-009,-4.32031281e-004
,,,5.07500000e-009,-4.71093783e-004
,,,5.10000000e-009,-5.13281286e-004
,,,5.12500000e-009,-5.52343789e-004
,,,5.15000000e-009,-5.84375041e-004
,,,5.17500000e-009,-6.05468793e-004
,,,5.20000000e-009,-6.10937543e-004
,,,5.22500000e-009,-6.00000042e-004
,,,5.25000000e-009,-5.67968790e-004
,,,5.27500000e-009,-5.21875037e-004
,,,5.30000000e-009,-4.64843783e-004
,,,5.32500000e-009,-4.01562528e-004
,,,5.35000000e-009,-3.38281274e-004
,,,5.37500000e-009,-2.80468770e-004
,,,5.40000000e-009,-2.32812516e-004
,,,5.42500000e-009,-2.00000014e-004
,,,5.45000000e-009,-1.83593763e-004
,,,5.47500000e-009,-1.84375013e-004
,,,5.50000000e-009,-2.01562514e-004
,,,5.52500000e-009,-2.31250016e-004
,,,5.55000000e-009,-2.70312519e-004
,,,5.57500000e-009,-3.14062522e-004
,,,5.60000000e-009,-3.58593775e-004
,,,5.62500000e-009,-4.00000028e-004
,,,5.65000000e-009,-4.30468780e-004
,,,5.67500000e-009,-4.51562532e-004
,,,5.70000000e-009,-4.60937533e-004
,,,5.72500000e-009,-4.60156283e-004
,,,5.75000000e-009,-4.51562532e-004
,,,5.77500000e-009,-4.37500031e-004
,,,5.80000000e-009,-4.19531280e-004
,,,5.82500000e-009,-4.00000028e-004
,,,5.85000000e-009,-3.78125027e-004
,,,5.87500000e-009,-3.56250025e-004
,,,5.90000000e-009,-3.33593774e-004
,,,5.92500000e-009,-3.11718772e-004
,,,5.95000000e-009,-2.87500020e-004
,,,5.97500000e-009,-2.60937518e-004
,,,6.00000000e-009,-2.32031266e-004
