RawData/SinglePhotoelectron/R1_2pt2B_5mV/wave027_Ch2.csv

"Record Length",1000,"Points",-7.72500000e-009,4.92187535e-005
"Sample Interval",2.50000000e-011,s,-7.70000000e-009,2.81250020e-005
"Trigger Point",309,"Samples",-7.67500000e-009,1.17187508e-005
"Trigger Time",1.11648864e-011,s,-7.65000000e-009,0.00000000e+000
"",,,-7.62500000e-009,-8.59375061e-006
"Horizontal Offset",-7.72500000e-009,s,-7.60000000e-009,-1.32812509e-005
,,,-7.57500000e-009,-1.56250011e-005
,,,-7.55000000e-009,-1.56250011e-005
,,,-7.52500000e-009,-1.32812509e-005
,,,-7.50000000e-009,-1.01562507e-005
,,,-7.47500000e-009,-4.68750033e-006
,,,-7.45000000e-009,0.00000000e+000
,,,-7.42500000e-009,5.46875039e-006
,,,-7.40000000e-009,1.01562507e-005
,,,-7.37500000e-009,1.32812509e-005
,,,-7.35000000e-009,1.48437511e-005
,,,-7.32500000e-009,1.48437511e-005
,,,-7.30000000e-009,1.17187508e-005
,,,-7.27500000e-009,7.03125050e-006
,,,-7.25000000e-009,0.00000000e+000
,,,-7.22500000e-009,-8.59375061e-006
,,,-7.20000000e-009,-2.10937515e-005
,,,-7.17500000e-009,-3.90625028e-005
,,,-7.15000000e-009,-6.09375043e-005
,,,-7.12500000e-009,-8.90625063e-005
,,,-7.10000000e-009,-1.21093759e-004
,,,-7.07500000e-009,-1.58593761e-004
,,,-7.05000000e-009,-2.00000014e-004
,,,-7.02500000e-009,-2.39062517e-004
,,,-7.00000000e-009,-2.78125020e-004
,,,-6.97500000e-009,-3.15625022e-004
,,,-6.95000000e-009,-3.48437525e-004
,,,-6.92500000e-009,-3.75000027e-004
,,,-6.90000000e-009,-3.92968778e-004
,,,-6.87500000e-009,-4.01562528e-004
,,,-6.85000000e-009,-4.00000028e-004
,,,-6.82500000e-009,-3.83593777e-004
,,,-6.80000000e-009,-3.60156275e-004
,,,-6.77500000e-009,-3.31250023e-004
,,,-6.75000000e-009,-2.99218771e-004
,,,-6.72500000e-009,-2.67968769e-004
,,,-6.70000000e-009,-2.39843767e-004
,,,-6.67500000e-009,-2.16406265e-004
,,,-6.65000000e-009,-2.00000014e-004
,,,-6.62500000e-009,-1.88281263e-004
,,,-6.60000000e-009,-1.84375013e-004
,,,-6.57500000e-009,-1.86718763e-004
,,,-6.55000000e-009,-1.92187514e-004
,,,-6.52500000e-009,-1.98437514e-004
,,,-6.50000000e-009,-2.03125014e-004
,,,-6.47500000e-009,-2.03906264e-004
,,,-6.45000000e-009,-2.00000014e-004
,,,-6.42500000e-009,-1.86718763e-004
,,,-6.40000000e-009,-1.67187512e-004
,,,-6.37500000e-009,-1.41406260e-004
,,,-6.35000000e-009,-1.12500008e-004
,,,-6.32500000e-009,-8.12500058e-005
,,,-6.30000000e-009,-5.07812536e-005
,,,-6.27500000e-009,-2.34375017e-005
,,,-6.25000000e-009,0.00000000e+000
,,,-6.22500000e-009,1.71875012e-005
,,,-6.20000000e-009,2.81250020e-005
,,,-6.17500000e-009,3.20312523e-005
,,,-6.15000000e-009,3.12500022e-005
,,,-6.12500000e-009,2.57812518e-005
,,,-6.10000000e-009,1.79687513e-005
,,,-6.07500000e-009,8.59375061e-006
,,,-6.05000000e-009,0.00000000e+000
,,,-6.02500000e-009,-7.81250055e-006
,,,-6.00000000e-009,-1.32812509e-005
,,,-5.97500000e-009,-1.56250011e-005
,,,-5.95000000e-009,-1.48437511e-005
,,,-5.92500000e-009,-1.25000009e-005
,,,-5.90000000e-009,-8.59375061e-006
,,,-5.87500000e-009,-3.90625028e-006
,,,-5.85000000e-009,0.00000000e+000
,,,-5.82500000e-009,1.56250011e-006
,,,-5.80000000e-009,3.12500022e-006
,,,-5.77500000e-009,3.90625028e-006
,,,-5.75000000e-009,3.90625028e-006
,,,-5.72500000e-009,3.12500022e-006
,,,-5.70000000e-009,2.34375017e-006
,,,-5.67500000e-009,7.81250055e-007
,,,-5.65000000e-009,0.00000000e+000
,,,-5.62500000e-009,-1.56250011e-006
,,,-5.60000000e-009,-2.34375017e-006
,,,-5.57500000e-009,-3.12500022e-006
,,,-5.55000000e-009,-3.12500022e-006
,,,-5.52500000e-009,-2.34375017e-006
,,,-5.50000000e-009,-1.56250011e-006
,,,-5.47500000e-009,-7.81250055e-007
,,,-5.45000000e-009,0.00000000e+000
,,,-5.42500000e-009,0.00000000e+000
,,,-5.40000000e-009,0.00000000e+000
,,,-5.37500000e-009,0.00000000e+000
,,,-5.35000000e-009,0.00000000e+000
,,,-5.32500000e-009,0.00000000e+000
,,,-5.30000000e-009,0.00000000e+000
,,,-5.27500000e-009,0.00000000e+000
,,,-5.25000000e-009,0.00000000e+000
,,,-5.22500000e-009,0.00000000e+000
,,,-5.20000000e-009,0.00000000e+000
,,,-5.17500000e-009,0.00000000e+000
,,,-5.15000000e-009,0.00000000e+000
,,,-5.12500000e-009,0.00000000e+000
,,,-5.10000000e-009,0.00000000e+000
,,,-5.07500000e-009,0.00000000e+000
,,,-5.05000000e-009,0.00000000e+000
,,,-5.02500000e-009,7.81250055e-007
,,,-5.00000000e-009,1.56250011e-006
,,,-4.97500000e-009,2.34375017e-006
,,,-4.95000000e-009,3.12500022e-006
,,,-4.92500000e-009,3.12500022e-006
,,,-4.90000000e-009,2.34375017e-006
,,,-4.87500000e-009,1.56250011e-006
,,,-4.85000000e-009,0.00000000e+000
,,,-4.82500000e-009,-7.81250055e-007
,,,-4.80000000e-009,-2.34375017e-006
,,,-4.77500000e-009,-3.12500022e-006
,,,-4.75000000e-009,-3.90625028e-006
,,,-4.72500000e-009,-3.90625028e-006
,,,-4.70000000e-009,-3.12500022e-006
,,,-4.67500000e-009,-1.56250011e-006
,,,-4.65000000e-009,0.00000000e+000
,,,-4.62500000e-009,2.34375017e-006
,,,-4.60000000e-009,4.68750033e-006
,,,-4.57500000e-009,7.03125050e-006
,,,-4.55000000e-009,8.59375061e-006
,,,-4.52500000e-009,8.59375061e-006
,,,-4.50000000e-009,7.03125050e-006
,,,-4.47500000e-009,3.90625028e-006
,,,-4.45000000e-009,0.00000000e+000
,,,-4.42500000e-009,-6.25000044e-006
,,,-4.40000000e-009,-1.25000009e-005
,,,-4.37500000e-009,-1.87500013e-005
,,,-4.35000000e-009,-2.26562516e-005
,,,-4.32500000e-009,-2.34375017e-005
,,,-4.30000000e-009,-2.03125014e-005
,,,-4.27500000e-009,-1.25000009e-005
,,,-4.25000000e-009,0.00000000e+000
,,,-4.22500000e-009,1.71875012e-005
,,,-4.20000000e-009,3.90625028e-005
,,,-4.17500000e-009,6.40625045e-005
,,,-4.15000000e-009,9.21875065e-005
,,,-4.12500000e-009,1.20312509e-004
,,,-4.10000000e-009,1.49218761e-004
,,,-4.07500000e-009,1.75781262e-004
,,,-4.05000000e-009,2.00000014e-004
,,,-4.02500000e-009,2.15625015e-004
,,,-4.00000000e-009,2.25781266e-004
,,,-3.97500000e-009,2.31250016e-004
,,,-3.95000000e-009,2.32031266e-004
,,,-3.92500000e-009,2.28125016e-004
,,,-3.90000000e-009,2.21875016e-004
,,,-3.87500000e-009,2.11718765e-004
,,,-3.85000000e-009,2.00000014e-004
,,,-3.82500000e-009,1.82812513e-004
,,,-3.80000000e-009,1.63281262e-004
,,,-3.77500000e-009,1.42187510e-004
,,,-3.75000000e-009,1.18750008e-004
,,,-3.72500000e-009,9.29687566e-005
,,,-3.70000000e-009,6.48437546e-005
,,,-3.67500000e-009,3.35937524e-005
,,,-3.65000000e-009,0.00000000e+000
,,,-3.62500000e-009,-3.43750024e-005
,,,-3.60000000e-009,-6.87500049e-005
,,,-3.57500000e-009,-1.02343757e-004
,,,-3.55000000e-009,-1.32031259e-004
,,,-3.52500000e-009,-1.57812511e-004
,,,-3.50000000e-009,-1.78125013e-004
,,,-3.47500000e-009,-1.92187514e-004
,,,-3.45000000e-009,-2.00000014e-004
,,,-3.42500000e-009,-1.99218764e-004
,,,-3.40000000e-009,-1.93750014e-004
,,,-3.37500000e-009,-1.86718763e-004
,,,-3.35000000e-009,-1.79687513e-004
,,,-3.32500000e-009,-1.75781262e-004
,,,-3.30000000e-009,-1.76562512e-004
,,,-3.27500000e-009,-1.84375013e-004
,,,-3.25000000e-009,-2.00000014e-004
,,,-3.22500000e-009,-2.18750015e-004
,,,-3.20000000e-009,-2.43750017e-004
,,,-3.17500000e-009,-2.72656269e-004
,,,-3.15000000e-009,-3.04687522e-004
,,,-3.12500000e-009,-3.35156274e-004
,,,-3.10000000e-009,-3.63281276e-004
,,,-3.07500000e-009,-3.85156277e-004
,,,-3.05000000e-009,-4.00000028e-004
,,,-3.02500000e-009,-3.98437528e-004
,,,-3.00000000e-009,-3.87500027e-004
,,,-2.97500000e-009,-3.67187526e-004
,,,-2.95000000e-009,-3.40625024e-004
,,,-2.92500000e-009,-3.07812522e-004
,,,-2.90000000e-009,-2.72656269e-004
,,,-2.87500000e-009,-2.35937517e-004
,,,-2.85000000e-009,-2.00000014e-004
,,,-2.82500000e-009,-1.62500012e-004
,,,-2.80000000e-009,-1.28906259e-004
,,,-2.77500000e-009,-1.00000007e-004
,,,-2.75000000e-009,-7.57812554e-005
,,,-2.72500000e-009,-5.39062538e-005
,,,-2.70000000e-009,-3.51562525e-005
,,,-2.67500000e-009,-1.71875012e-005
,,,-2.65000000e-009,0.00000000e+000
,,,-2.62500000e-009,2.03125014e-005
,,,-2.60000000e-009,4.21875030e-005
,,,-2.57500000e-009,6.56250046e-005
,,,-2.55000000e-009,9.06250064e-005
,,,-2.52500000e-009,1.17187508e-004
,,,-2.50000000e-009,1.44531260e-004
,,,-2.47500000e-009,1.71875012e-004
,,,-2.45000000e-009,2.00000014e-004
,,,-2.42500000e-009,2.25000016e-004
,,,-2.40000000e-009,2.50000018e-004
,,,-2.37500000e-009,2.74218769e-004
,,,-2.35000000e-009,2.99218771e-004
,,,-2.32500000e-009,3.24218773e-004
,,,-2.30000000e-009,3.50000025e-004
,,,-2.27500000e-009,3.75000027e-004
,,,-2.25000000e-009,4.00000028e-004
,,,-2.22500000e-009,4.19531280e-004
,,,-2.20000000e-009,4.36718781e-004
,,,-2.17500000e-009,4.49218782e-004
,,,-2.15000000e-009,4.55468782e-004
,,,-2.12500000e-009,4.54687532e-004
,,,-2.10000000e-009,4.45312532e-004
,,,-2.07500000e-009,4.26562530e-004
,,,-2.05000000e-009,4.00000028e-004
,,,-2.02500000e-009,3.62500026e-004
,,,-2.00000000e-009,3.22656273e-004
,,,-1.97500000e-009,2.83593770e-004
,,,-1.95000000e-009,2.48437518e-004
,,,-1.92500000e-009,2.19531266e-004
,,,-1.90000000e-009,2.01562514e-004
,,,-1.87500000e-009,1.94531264e-004
,,,-1.85000000e-009,2.00000014e-004
,,,-1.82500000e-009,2.14843765e-004
,,,-1.80000000e-009,2.40625017e-004
,,,-1.77500000e-009,2.73437519e-004
,,,-1.75000000e-009,3.09375022e-004
,,,-1.72500000e-009,3.42968774e-004
,,,-1.70000000e-009,3.71875026e-004
,,,-1.67500000e-009,3.91406278e-004
,,,-1.65000000e-009,4.00000028e-004
,,,-1.62500000e-009,3.90625028e-004
,,,-1.60000000e-009,3.70312526e-004
,,,-1.57500000e-009,3.40625024e-004
,,,-1.55000000e-009,3.05468772e-004
,,,-1.52500000e-009,2.70312519e-004
,,,-1.50000000e-009,2.38281267e-004
,,,-1.47500000e-009,2.13281265e-004
,,,-1.45000000e-009,2.00000014e-004
,,,-1.42500000e-009,1.92968764e-004
,,,-1.40000000e-009,1.97656264e-004
,,,-1.37500000e-009,2.14843765e-004
,,,-1.35000000e-009,2.42187517e-004
,,,-1.32500000e-009,2.77343770e-004
,,,-1.30000000e-009,3.17968773e-004
,,,-1.27500000e-009,3.59375025e-004
,,,-1.25000000e-009,4.00000028e-004
,,,-1.22500000e-009,4.19531280e-004
,,,-1.20000000e-009,4.30468780e-004
,,,-1.17500000e-009,4.32812531e-004
,,,-1.15000000e-009,4.29687530e-004
,,,-1.12500000e-009,4.21875030e-004
,,,-1.10000000e-009,4.13281279e-004
,,,-1.07500000e-009,4.05468779e-004
,,,-1.05000000e-009,4.00000028e-004
,,,-1.02500000e-009,3.71875026e-004
,,,-1.00000000e-009,3.42968774e-004
,,,-9.75000000e-010,3.14062522e-004
,,,-9.50000000e-010,2.87500020e-004
,,,-9.25000000e-010,2.62500019e-004
,,,-9.00000000e-010,2.39843767e-004
,,,-8.75000000e-010,2.18750015e-004
,,,-8.50000000e-010,2.00000014e-004
,,,-8.25000000e-010,1.46875010e-004
,,,-8.00000000e-010,8.90625063e-005
,,,-7.75000000e-010,2.96875021e-005
,,,-7.50000000e-010,-2.81250020e-005
,,,-7.25000000e-010,-8.12500058e-005
,,,-7.00000000e-010,-1.28125009e-004
,,,-6.75000000e-010,-1.66406262e-004
,,,-6.50000000e-010,-2.00000014e-004
,,,-6.25000000e-010,-2.64843769e-004
,,,-6.00000000e-010,-3.35937524e-004
,,,-5.75000000e-010,-4.15625029e-004
,,,-5.50000000e-010,-5.06250036e-004
,,,-5.25000000e-010,-6.07812543e-004
,,,-5.00000000e-010,-7.22656301e-004
,,,-4.75000000e-010,-8.53125060e-004
,,,-4.50000000e-010,-1.00000007e-003
,,,-4.25000000e-010,-1.19531258e-003
,,,-4.00000000e-010,-1.41093760e-003
,,,-3.75000000e-010,-1.64218762e-003
,,,-3.50000000e-010,-1.88125013e-003
,,,-3.25000000e-010,-2.12109390e-003
,,,-3.00000000e-010,-2.35703142e-003
,,,-2.75000000e-010,-2.58437518e-003
,,,-2.50000000e-010,-2.80000020e-003
,,,-2.25000000e-010,-3.01718771e-003
,,,-2.00000000e-010,-3.23046898e-003
,,,-1.75000000e-010,-3.44296899e-003
,,,-1.50000000e-010,-3.65703151e-003
,,,-1.25000000e-010,-3.87734402e-003
,,,-1.00000000e-010,-4.10546904e-003
,,,-7.50000000e-011,-4.34609406e-003
,,,-5.00000000e-011,-4.60000033e-003
,,,-2.50000000e-011,-4.85859409e-003
,,,0.00000000e+000,-5.13359411e-003
,,,2.50000000e-011,-5.42031288e-003
,,,5.00000000e-011,-5.71250040e-003
,,,7.50000000e-011,-6.00390667e-003
,,,1.00000000e-010,-6.28671919e-003
,,,1.25000000e-010,-6.55390671e-003
,,,1.50000000e-010,-6.80000048e-003
,,,1.75000000e-010,-6.98984424e-003
,,,2.00000000e-010,-7.16093801e-003
,,,2.25000000e-010,-7.31562552e-003
,,,2.50000000e-010,-7.46015678e-003
,,,2.75000000e-010,-7.59687554e-003
,,,3.00000000e-010,-7.73046930e-003
,,,3.25000000e-010,-7.86406306e-003
,,,3.50000000e-010,-8.00000057e-003
,,,3.75000000e-010,-8.08906307e-003
,,,4.00000000e-010,-8.18593808e-003
,,,4.25000000e-010,-8.29062559e-003
,,,4.50000000e-010,-8.40078184e-003
,,,4.75000000e-010,-8.51250060e-003
,,,5.00000000e-010,-8.62031311e-003
,,,5.25000000e-010,-8.71796937e-003
,,,5.50000000e-010,-8.80000062e-003
,,,5.75000000e-010,-8.80234437e-003
,,,6.00000000e-010,-8.78593812e-003
,,,6.25000000e-010,-8.75234437e-003
,,,6.50000000e-010,-8.70390687e-003
,,,6.75000000e-010,-8.64218811e-003
,,,7.00000000e-010,-8.57031311e-003
,,,7.25000000e-010,-8.48906310e-003
,,,7.50000000e-010,-8.40000059e-003
,,,7.75000000e-010,-8.25390683e-003
,,,8.00000000e-010,-8.10859432e-003
,,,8.25000000e-010,-7.96796931e-003
,,,8.50000000e-010,-7.83515680e-003
,,,8.75000000e-010,-7.71250055e-003
,,,9.00000000e-010,-7.60078179e-003
,,,9.25000000e-010,-7.49687553e-003
,,,9.50000000e-010,-7.40000052e-003
,,,9.75000000e-010,-7.26640676e-003
,,,1.00000000e-009,-7.13203175e-003
,,,1.02500000e-009,-6.99609425e-003
,,,1.05000000e-009,-6.85468799e-003
,,,1.07500000e-009,-6.70625047e-003
,,,1.10000000e-009,-6.54921921e-003
,,,1.12500000e-009,-6.38046920e-003
,,,1.15000000e-009,-6.20000044e-003
,,,1.17500000e-009,-5.98593792e-003
,,,1.20000000e-009,-5.76015666e-003
,,,1.22500000e-009,-5.52500039e-003
,,,1.25000000e-009,-5.28671912e-003
,,,1.27500000e-009,-5.05000036e-003
,,,1.30000000e-009,-4.82109409e-003
,,,1.32500000e-009,-4.60312533e-003
,,,1.35000000e-009,-4.40000031e-003
,,,1.37500000e-009,-4.21406280e-003
,,,1.40000000e-009,-4.04062529e-003
,,,1.42500000e-009,-3.88046902e-003
,,,1.45000000e-009,-3.72968776e-003
,,,1.47500000e-009,-3.58906275e-003
,,,1.50000000e-009,-3.45468774e-003
,,,1.52500000e-009,-3.32578149e-003
,,,1.55000000e-009,-3.20000023e-003
,,,1.57500000e-009,-3.08828147e-003
,,,1.60000000e-009,-2.97031271e-003
,,,1.62500000e-009,-2.84609395e-003
,,,1.65000000e-009,-2.71562519e-003
,,,1.67500000e-009,-2.58281268e-003
,,,1.70000000e-009,-2.45000017e-003
,,,1.72500000e-009,-2.32109391e-003
,,,1.75000000e-009,-2.20000016e-003
,,,1.77500000e-009,-2.10937515e-003
,,,1.80000000e-009,-2.02265639e-003
,,,1.82500000e-009,-1.94062514e-003
,,,1.85000000e-009,-1.86171888e-003
,,,1.87500000e-009,-1.78828138e-003
,,,1.90000000e-009,-1.71875012e-003
,,,1.92500000e-009,-1.65625012e-003
,,,1.95000000e-009,-1.60000011e-003
,,,1.97500000e-009,-1.57343761e-003
,,,2.00000000e-009,-1.54687511e-003
,,,2.02500000e-009,-1.52031261e-003
,,,2.05000000e-009,-1.49218761e-003
,,,2.07500000e-009,-1.46484385e-003
,,,2.10000000e-009,-1.43984385e-003
,,,2.12500000e-009,-1.41718760e-003
,,,2.15000000e-009,-1.40000010e-003
,,,2.17500000e-009,-1.40468760e-003
,,,2.20000000e-009,-1.40937510e-003
,,,2.22500000e-009,-1.41171885e-003
,,,2.25000000e-009,-1.41171885e-003
,,,2.27500000e-009,-1.41015635e-003
,,,2.30000000e-009,-1.40703135e-003
,,,2.32500000e-009,-1.40312510e-003
,,,2.35000000e-009,-1.40000010e-003
,,,2.37500000e-009,-1.40781260e-003
,,,2.40000000e-009,-1.41250010e-003
,,,2.42500000e-009,-1.41406260e-003
,,,2.45000000e-009,-1.41250010e-003
,,,2.47500000e-009,-1.40937510e-003
,,,2.50000000e-009,-1.40468760e-003
,,,2.52500000e-009,-1.40078135e-003
,,,2.55000000e-009,-1.40000010e-003
,,,2.57500000e-009,-1.40781260e-003
,,,2.60000000e-009,-1.41875010e-003
,,,2.62500000e-009,-1.43437510e-003
,,,2.65000000e-009,-1.45390635e-003
,,,2.67500000e-009,-1.48046885e-003
,,,2.70000000e-009,-1.51406261e-003
,,,2.72500000e-009,-1.55390636e-003
,,,2.75000000e-009,-1.60000011e-003
,,,2.77500000e-009,-1.64843762e-003
,,,2.80000000e-009,-1.69531262e-003
,,,2.82500000e-009,-1.73906262e-003
,,,2.85000000e-009,-1.77578138e-003
,,,2.87500000e-009,-1.80156263e-003
,,,2.90000000e-009,-1.81562513e-003
,,,2.92500000e-009,-1.81484388e-003
,,,2.95000000e-009,-1.80000013e-003
,,,2.97500000e-009,-1.76562512e-003
,,,3.00000000e-009,-1.71875012e-003
,,,3.02500000e-009,-1.66406262e-003
,,,3.05000000e-009,-1.60390636e-003
,,,3.07500000e-009,-1.54296886e-003
,,,3.10000000e-009,-1.48671886e-003
,,,3.12500000e-009,-1.43828135e-003
,,,3.15000000e-009,-1.40000010e-003
,,,3.17500000e-009,-1.36953135e-003
,,,3.20000000e-009,-1.35234385e-003
,,,3.22500000e-009,-1.34609385e-003
,,,3.25000000e-009,-1.34921885e-003
,,,3.27500000e-009,-1.35937510e-003
,,,3.30000000e-009,-1.37343760e-003
,,,3.32500000e-009,-1.38750010e-003
,,,3.35000000e-009,-1.40000010e-003
,,,3.37500000e-009,-1.40078135e-003
,,,3.40000000e-009,-1.39375010e-003
,,,3.42500000e-009,-1.37812510e-003
,,,3.45000000e-009,-1.35312510e-003
,,,3.47500000e-009,-1.32187509e-003
,,,3.50000000e-009,-1.28359384e-003
,,,3.52500000e-009,-1.24218759e-003
,,,3.55000000e-009,-1.20000008e-003
,,,3.57500000e-009,-1.15390633e-003
,,,3.60000000e-009,-1.11015633e-003
,,,3.62500000e-009,-1.07187508e-003
,,,3.65000000e-009,-1.04062507e-003
,,,3.67500000e-009,-1.01718757e-003
,,,3.70000000e-009,-1.00312507e-003
,,,3.72500000e-009,-9.96875071e-004
,,,3.75000000e-009,-1.00000007e-003
,,,3.77500000e-009,-1.00625007e-003
,,,3.80000000e-009,-1.01484382e-003
,,,3.82500000e-009,-1.02421882e-003
,,,3.85000000e-009,-1.03125007e-003
,,,3.87500000e-009,-1.03437507e-003
,,,3.90000000e-009,-1.03046882e-003
,,,3.92500000e-009,-1.01953132e-003
,,,3.95000000e-009,-1.00000007e-003
,,,3.97500000e-009,-9.68750069e-004
,,,4.00000000e-009,-9.28125066e-004
,,,4.02500000e-009,-8.78906312e-004
,,,4.05000000e-009,-8.23437558e-004
,,,4.07500000e-009,-7.64843804e-004
,,,4.10000000e-009,-7.06250050e-004
,,,4.12500000e-009,-6.50781296e-004
,,,4.15000000e-009,-6.00000042e-004
,,,4.17500000e-009,-5.53906289e-004
,,,4.20000000e-009,-5.14843786e-004
,,,4.22500000e-009,-4.82031284e-004
,,,4.25000000e-009,-4.56250032e-004
,,,4.27500000e-009,-4.35937531e-004
,,,4.30000000e-009,-4.21093780e-004
,,,4.32500000e-009,-4.09375029e-004
,,,4.35000000e-009,-4.00000028e-004
,,,4.37500000e-009,-3.91406278e-004
,,,4.40000000e-009,-3.80468777e-004
,,,4.42500000e-009,-3.64062526e-004
,,,4.45000000e-009,-3.42187524e-004
,,,4.47500000e-009,-3.14062522e-004
,,,4.50000000e-009,-2.80468770e-004
,,,4.52500000e-009,-2.42187517e-004
,,,4.55000000e-009,-2.00000014e-004
,,,4.57500000e-009,-1.60156261e-004
,,,4.60000000e-009,-1.20312509e-004
,,,4.62500000e-009,-8.28125059e-005
,,,4.65000000e-009,-5.00000035e-005
,,,4.67500000e-009,-2.42187517e-005
,,,4.70000000e-009,-7.03125050e-006
,,,4.72500000e-009,7.81250055e-007
,,,4.75000000e-009,0.00000000e+000
,,,4.77500000e-009,-1.25000009e-005
,,,4.80000000e-009,-2.89062520e-005
,,,4.82500000e-009,-4.53125032e-005
,,,4.85000000e-009,-5.78125041e-005
,,,4.87500000e-009,-6.17187544e-005
,,,4.90000000e-009,-5.46875039e-005
,,,4.92500000e-009,-3.43750024e-005
,,,4.95000000e-009,0.00000000e+000
,,,4.97500000e-009,4.29687530e-005
,,,5.00000000e-009,9.76562569e-005
,,,5.02500000e-009,1.59375011e-004
,,,5.05000000e-009,2.24218766e-004
,,,5.07500000e-009,2.85937520e-004
,,,5.10000000e-009,3.39062524e-004
,,,5.12500000e-009,3.78125027e-004
,,,5.15000000e-009,4.00000028e-004
,,,5.17500000e-009,3.94531278e-004
,,,5.20000000e-009,3.69531276e-004
,,,5.22500000e-009,3.28125023e-004
,,,5.25000000e-009,2.71875019e-004
,,,5.27500000e-009,2.07031265e-004
,,,5.30000000e-009,1.36718760e-004
,,,5.32500000e-009,6.64062547e-005
,,,5.35000000e-009,0.00000000e+000
,,,5.37500000e-009,-6.01562543e-005
,,,5.40000000e-009,-1.10156258e-004
,,,5.42500000e-009,-1.48437511e-004
,,,5.45000000e-009,-1.75000012e-004
,,,5.47500000e-009,-1.91406264e-004
,,,5.50000000e-009,-1.99218764e-004
,,,5.52500000e-009,-2.00781264e-004
,,,5.55000000e-009,-2.00000014e-004
,,,5.57500000e-009,-1.96875014e-004
,,,5.60000000e-009,-1.93750014e-004
,,,5.62500000e-009,-1.91406264e-004
,,,5.65000000e-009,-1.90625013e-004
,,,5.67500000e-009,-1.92187514e-004
,,,5.70000000e-009,-1.93750014e-004
,,,5.72500000e-009,-1.96875014e-004
,,,5.75000000e-009,-2.00000014e-004
,,,5.77500000e-009,-2.02343764e-004
,,,5.80000000e-009,-2.04687514e-004
,,,5.82500000e-009,-2.05468765e-004
,,,5.85000000e-009,-2.06250015e-004
,,,5.87500000e-009,-2.05468765e-004
,,,5.90000000e-009,-2.04687514e-004
,,,5.92500000e-009,-2.02343764e-004
