RawData/SinglePhotoelectron/R1_2pt2B_5mV/wave018_Ch2.csv

"Record Length",1000,"Points",-7.72500000e-009,2.03125014e-005
"Sample Interval",2.50000000e-011,s,-7.70000000e-009,1.48437511e-005
"Trigger Point",309,"Samples",-7.67500000e-009,9.37500066e-006
"Trigger Time",2.40200000e-011,s,-7.65000000e-009,3.90625028e-006
"",,,-7.62500000e-009,0.00000000e+000
"Horizontal Offset",-7.72500000e-009,s,-7.60000000e-009,-2.34375017e-006
,,,-7.57500000e-009,-3.12500022e-006
,,,-7.55000000e-009,-1.56250011e-006
,,,-7.52500000e-009,0.00000000e+000
,,,-7.50000000e-009,1.56250011e-006
,,,-7.47500000e-009,2.34375017e-006
,,,-7.45000000e-009,2.34375017e-006
,,,-7.42500000e-009,0.00000000e+000
,,,-7.40000000e-009,-5.46875039e-006
,,,-7.37500000e-009,-1.25000009e-005
,,,-7.35000000e-009,-1.87500013e-005
,,,-7.32500000e-009,-2.34375017e-005
,,,-7.30000000e-009,-2.50000018e-005
,,,-7.27500000e-009,-2.10937515e-005
,,,-7.25000000e-009,-1.25000009e-005
,,,-7.22500000e-009,0.00000000e+000
,,,-7.20000000e-009,1.48437511e-005
,,,-7.17500000e-009,3.04687522e-005
,,,-7.15000000e-009,4.53125032e-005
,,,-7.12500000e-009,5.62500040e-005
,,,-7.10000000e-009,5.85937541e-005
,,,-7.07500000e-009,5.15625036e-005
,,,-7.05000000e-009,3.20312523e-005
,,,-7.02500000e-009,0.00000000e+000
,,,-7.00000000e-009,-4.45312532e-005
,,,-6.97500000e-009,-9.84375070e-005
,,,-6.95000000e-009,-1.58593761e-004
,,,-6.92500000e-009,-2.20312516e-004
,,,-6.90000000e-009,-2.78906270e-004
,,,-6.87500000e-009,-3.31250023e-004
,,,-6.85000000e-009,-3.71875026e-004
,,,-6.82500000e-009,-4.00000028e-004
,,,-6.80000000e-009,-4.08593779e-004
,,,-6.77500000e-009,-4.01562528e-004
,,,-6.75000000e-009,-3.82031277e-004
,,,-6.72500000e-009,-3.51562525e-004
,,,-6.70000000e-009,-3.14062522e-004
,,,-6.67500000e-009,-2.74218769e-004
,,,-6.65000000e-009,-2.34375017e-004
,,,-6.62500000e-009,-2.00000014e-004
,,,-6.60000000e-009,-1.71093762e-004
,,,-6.57500000e-009,-1.52343761e-004
,,,-6.55000000e-009,-1.42968760e-004
,,,-6.52500000e-009,-1.42968760e-004
,,,-6.50000000e-009,-1.50781261e-004
,,,-6.47500000e-009,-1.64843762e-004
,,,-6.45000000e-009,-1.81250013e-004
,,,-6.42500000e-009,-2.00000014e-004
,,,-6.40000000e-009,-2.15625015e-004
,,,-6.37500000e-009,-2.28125016e-004
,,,-6.35000000e-009,-2.36718767e-004
,,,-6.32500000e-009,-2.39843767e-004
,,,-6.30000000e-009,-2.37500017e-004
,,,-6.27500000e-009,-2.29687516e-004
,,,-6.25000000e-009,-2.17187515e-004
,,,-6.22500000e-009,-2.00000014e-004
,,,-6.20000000e-009,-1.76562512e-004
,,,-6.17500000e-009,-1.51562511e-004
,,,-6.15000000e-009,-1.25000009e-004
,,,-6.12500000e-009,-9.68750069e-005
,,,-6.10000000e-009,-7.03125050e-005
,,,-6.07500000e-009,-4.45312532e-005
,,,-6.05000000e-009,-2.03125014e-005
,,,-6.02500000e-009,0.00000000e+000
,,,-6.00000000e-009,1.64062512e-005
,,,-5.97500000e-009,2.96875021e-005
,,,-5.95000000e-009,3.67187526e-005
,,,-5.92500000e-009,3.98437528e-005
,,,-5.90000000e-009,3.67187526e-005
,,,-5.87500000e-009,2.96875021e-005
,,,-5.85000000e-009,1.64062512e-005
,,,-5.82500000e-009,0.00000000e+000
,,,-5.80000000e-009,-2.18750015e-005
,,,-5.77500000e-009,-4.68750033e-005
,,,-5.75000000e-009,-7.26562551e-005
,,,-5.72500000e-009,-1.00000007e-004
,,,-5.70000000e-009,-1.26562509e-004
,,,-5.67500000e-009,-1.52343761e-004
,,,-5.65000000e-009,-1.77343763e-004
,,,-5.62500000e-009,-2.00000014e-004
,,,-5.60000000e-009,-2.17968765e-004
,,,-5.57500000e-009,-2.31250016e-004
,,,-5.55000000e-009,-2.39843767e-004
,,,-5.52500000e-009,-2.42968767e-004
,,,-5.50000000e-009,-2.40625017e-004
,,,-5.47500000e-009,-2.32031266e-004
,,,-5.45000000e-009,-2.18750015e-004
,,,-5.42500000e-009,-2.00000014e-004
,,,-5.40000000e-009,-1.75000012e-004
,,,-5.37500000e-009,-1.46875010e-004
,,,-5.35000000e-009,-1.17187508e-004
,,,-5.32500000e-009,-8.75000062e-005
,,,-5.30000000e-009,-6.01562543e-005
,,,-5.27500000e-009,-3.51562525e-005
,,,-5.25000000e-009,-1.48437511e-005
,,,-5.22500000e-009,0.00000000e+000
,,,-5.20000000e-009,1.01562507e-005
,,,-5.17500000e-009,1.48437511e-005
,,,-5.15000000e-009,1.64062512e-005
,,,-5.12500000e-009,1.48437511e-005
,,,-5.10000000e-009,1.17187508e-005
,,,-5.07500000e-009,7.03125050e-006
,,,-5.05000000e-009,3.12500022e-006
,,,-5.02500000e-009,0.00000000e+000
,,,-5.00000000e-009,-1.56250011e-006
,,,-4.97500000e-009,-1.56250011e-006
,,,-4.95000000e-009,-7.81250055e-007
,,,-4.92500000e-009,0.00000000e+000
,,,-4.90000000e-009,7.81250055e-007
,,,-4.87500000e-009,1.56250011e-006
,,,-4.85000000e-009,1.56250011e-006
,,,-4.82500000e-009,0.00000000e+000
,,,-4.80000000e-009,-3.12500022e-006
,,,-4.77500000e-009,-7.03125050e-006
,,,-4.75000000e-009,-1.17187508e-005
,,,-4.72500000e-009,-1.48437511e-005
,,,-4.70000000e-009,-1.64062512e-005
,,,-4.67500000e-009,-1.48437511e-005
,,,-4.65000000e-009,-1.01562507e-005
,,,-4.62500000e-009,0.00000000e+000
,,,-4.60000000e-009,1.32812509e-005
,,,-4.57500000e-009,3.12500022e-005
,,,-4.55000000e-009,5.39062538e-005
,,,-4.52500000e-009,8.04687557e-005
,,,-4.50000000e-009,1.10156258e-004
,,,-4.47500000e-009,1.40625010e-004
,,,-4.45000000e-009,1.71093762e-004
,,,-4.42500000e-009,2.00000014e-004
,,,-4.40000000e-009,2.21875016e-004
,,,-4.37500000e-009,2.39062517e-004
,,,-4.35000000e-009,2.50781268e-004
,,,-4.32500000e-009,2.54687518e-004
,,,-4.30000000e-009,2.52343768e-004
,,,-4.27500000e-009,2.41406267e-004
,,,-4.25000000e-009,2.23437516e-004
,,,-4.22500000e-009,2.00000014e-004
,,,-4.20000000e-009,1.67968762e-004
,,,-4.17500000e-009,1.34375010e-004
,,,-4.15000000e-009,1.00000007e-004
,,,-4.12500000e-009,6.79687548e-005
,,,-4.10000000e-009,4.06250029e-005
,,,-4.07500000e-009,1.95312514e-005
,,,-4.05000000e-009,5.46875039e-006
,,,-4.02500000e-009,0.00000000e+000
,,,-4.00000000e-009,-7.81250055e-007
,,,-3.97500000e-009,2.34375017e-006
,,,-3.95000000e-009,9.37500066e-006
,,,-3.92500000e-009,1.64062512e-005
,,,-3.90000000e-009,2.10937515e-005
,,,-3.87500000e-009,2.10937515e-005
,,,-3.85000000e-009,1.40625010e-005
,,,-3.82500000e-009,0.00000000e+000
,,,-3.80000000e-009,-2.18750015e-005
,,,-3.77500000e-009,-5.00000035e-005
,,,-3.75000000e-009,-8.28125059e-005
,,,-3.72500000e-009,-1.15625008e-004
,,,-3.70000000e-009,-1.46875010e-004
,,,-3.67500000e-009,-1.73437512e-004
,,,-3.65000000e-009,-1.91406264e-004
,,,-3.62500000e-009,-2.00000014e-004
,,,-3.60000000e-009,-1.95312514e-004
,,,-3.57500000e-009,-1.79687513e-004
,,,-3.55000000e-009,-1.55468761e-004
,,,-3.52500000e-009,-1.24218759e-004
,,,-3.50000000e-009,-8.98437564e-005
,,,-3.47500000e-009,-5.54687539e-005
,,,-3.45000000e-009,-2.42187517e-005
,,,-3.42500000e-009,0.00000000e+000
,,,-3.40000000e-009,1.48437511e-005
,,,-3.37500000e-009,1.87500013e-005
,,,-3.35000000e-009,9.37500066e-006
,,,-3.32500000e-009,-1.25000009e-005
,,,-3.30000000e-009,-4.68750033e-005
,,,-3.27500000e-009,-9.06250064e-005
,,,-3.25000000e-009,-1.42968760e-004
,,,-3.22500000e-009,-2.00000014e-004
,,,-3.20000000e-009,-2.54687518e-004
,,,-3.17500000e-009,-3.06250022e-004
,,,-3.15000000e-009,-3.51562525e-004
,,,-3.12500000e-009,-3.87500027e-004
,,,-3.10000000e-009,-4.11718779e-004
,,,-3.07500000e-009,-4.22656280e-004
,,,-3.05000000e-009,-4.18750030e-004
,,,-3.02500000e-009,-4.00000028e-004
,,,-3.00000000e-009,-3.64062526e-004
,,,-2.97500000e-009,-3.17187522e-004
,,,-2.95000000e-009,-2.62500019e-004
,,,-2.92500000e-009,-2.03906264e-004
,,,-2.90000000e-009,-1.44531260e-004
,,,-2.87500000e-009,-8.90625063e-005
,,,-2.85000000e-009,-3.98437528e-005
,,,-2.82500000e-009,0.00000000e+000
,,,-2.80000000e-009,2.89062520e-005
,,,-2.77500000e-009,4.68750033e-005
,,,-2.75000000e-009,5.39062538e-005
,,,-2.72500000e-009,5.15625036e-005
,,,-2.70000000e-009,4.29687530e-005
,,,-2.67500000e-009,2.96875021e-005
,,,-2.65000000e-009,1.40625010e-005
,,,-2.62500000e-009,0.00000000e+000
,,,-2.60000000e-009,-1.32812509e-005
,,,-2.57500000e-009,-2.26562516e-005
,,,-2.55000000e-009,-2.73437519e-005
,,,-2.52500000e-009,-2.81250020e-005
,,,-2.50000000e-009,-2.42187517e-005
,,,-2.47500000e-009,-1.71875012e-005
,,,-2.45000000e-009,-8.59375061e-006
,,,-2.42500000e-009,0.00000000e+000
,,,-2.40000000e-009,7.03125050e-006
,,,-2.37500000e-009,1.25000009e-005
,,,-2.35000000e-009,1.56250011e-005
,,,-2.32500000e-009,1.56250011e-005
,,,-2.30000000e-009,1.40625010e-005
,,,-2.27500000e-009,1.01562507e-005
,,,-2.25000000e-009,5.46875039e-006
,,,-2.22500000e-009,0.00000000e+000
,,,-2.20000000e-009,-7.03125050e-006
,,,-2.17500000e-009,-1.25000009e-005
,,,-2.15000000e-009,-1.64062512e-005
,,,-2.12500000e-009,-1.87500013e-005
,,,-2.10000000e-009,-1.71875012e-005
,,,-2.07500000e-009,-1.40625010e-005
,,,-2.05000000e-009,-7.81250055e-006
,,,-2.02500000e-009,0.00000000e+000
,,,-2.00000000e-009,6.25000044e-006
,,,-1.97500000e-009,1.32812509e-005
,,,-1.95000000e-009,1.95312514e-005
,,,-1.92500000e-009,2.34375017e-005
,,,-1.90000000e-009,2.42187517e-005
,,,-1.87500000e-009,2.10937515e-005
,,,-1.85000000e-009,1.32812509e-005
,,,-1.82500000e-009,0.00000000e+000
,,,-1.80000000e-009,-2.10937515e-005
,,,-1.77500000e-009,-4.68750033e-005
,,,-1.75000000e-009,-7.65625054e-005
,,,-1.72500000e-009,-1.06250008e-004
,,,-1.70000000e-009,-1.35937510e-004
,,,-1.67500000e-009,-1.61718761e-004
,,,-1.65000000e-009,-1.83593763e-004
,,,-1.62500000e-009,-2.00000014e-004
,,,-1.60000000e-009,-2.14062515e-004
,,,-1.57500000e-009,-2.24218766e-004
,,,-1.55000000e-009,-2.28906266e-004
,,,-1.52500000e-009,-2.28906266e-004
,,,-1.50000000e-009,-2.25000016e-004
,,,-1.47500000e-009,-2.17968765e-004
,,,-1.45000000e-009,-2.09375015e-004
,,,-1.42500000e-009,-2.00000014e-004
,,,-1.40000000e-009,-2.00000014e-004
,,,-1.37500000e-009,-2.03125014e-004
,,,-1.35000000e-009,-2.07031265e-004
,,,-1.32500000e-009,-2.11718765e-004
,,,-1.30000000e-009,-2.14062515e-004
,,,-1.27500000e-009,-2.14062515e-004
,,,-1.25000000e-009,-2.08593765e-004
,,,-1.22500000e-009,-2.00000014e-004
,,,-1.20000000e-009,-2.01562514e-004
,,,-1.17500000e-009,-2.03125014e-004
,,,-1.15000000e-009,-2.03906264e-004
,,,-1.12500000e-009,-2.03125014e-004
,,,-1.10000000e-009,-2.01562514e-004
,,,-1.07500000e-009,-2.00000014e-004
,,,-1.05000000e-009,-1.98437514e-004
,,,-1.02500000e-009,-2.00000014e-004
,,,-1.00000000e-009,-2.27343766e-004
,,,-9.75000000e-010,-2.63281269e-004
,,,-9.50000000e-010,-3.07812522e-004
,,,-9.25000000e-010,-3.59375025e-004
,,,-9.00000000e-010,-4.14843779e-004
,,,-8.75000000e-010,-4.74218784e-004
,,,-8.50000000e-010,-5.35937538e-004
,,,-8.25000000e-010,-6.00000042e-004
,,,-8.00000000e-010,-6.88281299e-004
,,,-7.75000000e-010,-7.82812555e-004
,,,-7.50000000e-010,-8.82031312e-004
,,,-7.25000000e-010,-9.84375070e-004
,,,-7.00000000e-010,-1.08750008e-003
,,,-6.75000000e-010,-1.19218758e-003
,,,-6.50000000e-010,-1.29609384e-003
,,,-6.25000000e-010,-1.40000010e-003
,,,-6.00000000e-010,-1.52109386e-003
,,,-5.75000000e-010,-1.64609387e-003
,,,-5.50000000e-010,-1.77343763e-003
,,,-5.25000000e-010,-1.90156263e-003
,,,-5.00000000e-010,-2.02890639e-003
,,,-4.75000000e-010,-2.15468765e-003
,,,-4.50000000e-010,-2.27812516e-003
,,,-4.25000000e-010,-2.40000017e-003
,,,-4.00000000e-010,-2.52578143e-003
,,,-3.75000000e-010,-2.65703144e-003
,,,-3.50000000e-010,-2.79375020e-003
,,,-3.25000000e-010,-2.93828146e-003
,,,-3.00000000e-010,-3.09062522e-003
,,,-2.75000000e-010,-3.25234398e-003
,,,-2.50000000e-010,-3.42187524e-003
,,,-2.25000000e-010,-3.60000025e-003
,,,-2.00000000e-010,-3.77343777e-003
,,,-1.75000000e-010,-3.95312528e-003
,,,-1.50000000e-010,-4.13671904e-003
,,,-1.25000000e-010,-4.32109406e-003
,,,-1.00000000e-010,-4.50312532e-003
,,,-7.50000000e-011,-4.67890658e-003
,,,-5.00000000e-011,-4.84531284e-003
,,,-2.50000000e-011,-5.00000035e-003
,,,0.00000000e+000,-5.11406286e-003
,,,2.50000000e-011,-5.21796912e-003
,,,5.00000000e-011,-5.31562538e-003
,,,7.50000000e-011,-5.41015663e-003
,,,1.00000000e-010,-5.50468789e-003
,,,1.25000000e-010,-5.60000040e-003
,,,1.50000000e-010,-5.69843790e-003
,,,1.75000000e-010,-5.80000041e-003
,,,2.00000000e-010,-5.86484417e-003
,,,2.25000000e-010,-5.93203167e-003
,,,2.50000000e-010,-5.99843792e-003
,,,2.75000000e-010,-6.06250043e-003
,,,3.00000000e-010,-6.11875043e-003
,,,3.25000000e-010,-6.16328169e-003
,,,3.50000000e-010,-6.19218794e-003
,,,3.75000000e-010,-6.20000044e-003
,,,4.00000000e-010,-6.14375043e-003
,,,4.25000000e-010,-6.06718793e-003
,,,4.50000000e-010,-5.97343792e-003
,,,4.75000000e-010,-5.86796917e-003
,,,5.00000000e-010,-5.75390666e-003
,,,5.25000000e-010,-5.63593790e-003
,,,5.50000000e-010,-5.51718789e-003
,,,5.75000000e-010,-5.40000038e-003
,,,6.00000000e-010,-5.25234412e-003
,,,6.25000000e-010,-5.11171911e-003
,,,6.50000000e-010,-4.97812535e-003
,,,6.75000000e-010,-4.85234409e-003
,,,7.00000000e-010,-4.73359409e-003
,,,7.25000000e-010,-4.61953158e-003
,,,7.50000000e-010,-4.50937532e-003
,,,7.75000000e-010,-4.40000031e-003
,,,8.00000000e-010,-4.26796905e-003
,,,8.25000000e-010,-4.13437529e-003
,,,8.50000000e-010,-4.00078153e-003
,,,8.75000000e-010,-3.86875027e-003
,,,9.00000000e-010,-3.74140651e-003
,,,9.25000000e-010,-3.61953151e-003
,,,9.50000000e-010,-3.50546900e-003
,,,9.75000000e-010,-3.40000024e-003
,,,1.00000000e-009,-3.29375023e-003
,,,1.02500000e-009,-3.19218773e-003
,,,1.05000000e-009,-3.09296897e-003
,,,1.07500000e-009,-2.99609396e-003
,,,1.10000000e-009,-2.90000021e-003
,,,1.12500000e-009,-2.80234395e-003
,,,1.15000000e-009,-2.70312519e-003
,,,1.17500000e-009,-2.60000018e-003
,,,1.20000000e-009,-2.49609393e-003
,,,1.22500000e-009,-2.38359392e-003
,,,1.25000000e-009,-2.26250016e-003
,,,1.27500000e-009,-2.13515640e-003
,,,1.30000000e-009,-2.00156264e-003
,,,1.32500000e-009,-1.86640638e-003
,,,1.35000000e-009,-1.73203137e-003
,,,1.37500000e-009,-1.60000011e-003
,,,1.40000000e-009,-1.48593761e-003
,,,1.42500000e-009,-1.37421885e-003
,,,1.45000000e-009,-1.26562509e-003
,,,1.47500000e-009,-1.16015633e-003
,,,1.50000000e-009,-1.05937507e-003
,,,1.52500000e-009,-9.65625068e-004
,,,1.55000000e-009,-8.78906312e-004
,,,1.57500000e-009,-8.00000057e-004
,,,1.60000000e-009,-7.46093803e-004
,,,1.62500000e-009,-6.93750049e-004
,,,1.65000000e-009,-6.42968796e-004
,,,1.67500000e-009,-5.92968792e-004
,,,1.70000000e-009,-5.42187538e-004
,,,1.72500000e-009,-4.92187535e-004
,,,1.75000000e-009,-4.43750031e-004
,,,1.77500000e-009,-4.00000028e-004
,,,1.80000000e-009,-3.77343777e-004
,,,1.82500000e-009,-3.57031275e-004
,,,1.85000000e-009,-3.42187524e-004
,,,1.87500000e-009,-3.32812524e-004
,,,1.90000000e-009,-3.32031274e-004
,,,1.92500000e-009,-3.42187524e-004
,,,1.95000000e-009,-3.64843776e-004
,,,1.97500000e-009,-4.00000028e-004
,,,2.00000000e-009,-4.58593782e-004
,,,2.02500000e-009,-5.21875037e-004
,,,2.05000000e-009,-5.85937541e-004
,,,2.07500000e-009,-6.47656296e-004
,,,2.10000000e-009,-7.02343800e-004
,,,2.12500000e-009,-7.47656303e-004
,,,2.15000000e-009,-7.80468805e-004
,,,2.17500000e-009,-8.00000057e-004
,,,2.20000000e-009,-8.10156307e-004
,,,2.22500000e-009,-8.03906307e-004
,,,2.25000000e-009,-7.83593805e-004
,,,2.27500000e-009,-7.52343803e-004
,,,2.30000000e-009,-7.14062551e-004
,,,2.32500000e-009,-6.73437548e-004
,,,2.35000000e-009,-6.33593795e-004
,,,2.37500000e-009,-6.00000042e-004
,,,2.40000000e-009,-5.77343791e-004
,,,2.42500000e-009,-5.63281290e-004
,,,2.45000000e-009,-5.57031289e-004
,,,2.47500000e-009,-5.58593790e-004
,,,2.50000000e-009,-5.65625040e-004
,,,2.52500000e-009,-5.75781291e-004
,,,2.55000000e-009,-5.88281292e-004
,,,2.57500000e-009,-6.00000042e-004
,,,2.60000000e-009,-6.09375043e-004
,,,2.62500000e-009,-6.14843794e-004
,,,2.65000000e-009,-6.17968794e-004
,,,2.67500000e-009,-6.16406294e-004
,,,2.70000000e-009,-6.13281293e-004
,,,2.72500000e-009,-6.08593793e-004
,,,2.75000000e-009,-6.03906293e-004
,,,2.77500000e-009,-6.00000042e-004
,,,2.80000000e-009,-5.95312542e-004
,,,2.82500000e-009,-5.92968792e-004
,,,2.85000000e-009,-5.92187542e-004
,,,2.87500000e-009,-5.92968792e-004
,,,2.90000000e-009,-5.94531292e-004
,,,2.92500000e-009,-5.96875042e-004
,,,2.95000000e-009,-5.98437542e-004
,,,2.97500000e-009,-6.00000042e-004
,,,3.00000000e-009,-5.96875042e-004
,,,3.02500000e-009,-5.93750042e-004
,,,3.05000000e-009,-5.89843792e-004
,,,3.07500000e-009,-5.87500042e-004
,,,3.10000000e-009,-5.86718792e-004
,,,3.12500000e-009,-5.88281292e-004
,,,3.15000000e-009,-5.92187542e-004
,,,3.17500000e-009,-6.00000042e-004
,,,3.20000000e-009,-6.06250043e-004
,,,3.22500000e-009,-6.14062543e-004
,,,3.25000000e-009,-6.20312544e-004
,,,3.27500000e-009,-6.24218794e-004
,,,3.30000000e-009,-6.25000044e-004
,,,3.32500000e-009,-6.21875044e-004
,,,3.35000000e-009,-6.13281293e-004
,,,3.37500000e-009,-6.00000042e-004
,,,3.40000000e-009,-5.77343791e-004
,,,3.42500000e-009,-5.51562539e-004
,,,3.45000000e-009,-5.21875037e-004
,,,3.47500000e-009,-4.92187535e-004
,,,3.50000000e-009,-4.62500033e-004
,,,3.52500000e-009,-4.36718781e-004
,,,3.55000000e-009,-4.14843779e-004
,,,3.57500000e-009,-4.00000028e-004
,,,3.60000000e-009,-3.89062528e-004
,,,3.62500000e-009,-3.84375027e-004
,,,3.65000000e-009,-3.84375027e-004
,,,3.67500000e-009,-3.87500027e-004
,,,3.70000000e-009,-3.92187528e-004
,,,3.72500000e-009,-3.97656278e-004
,,,3.75000000e-009,-4.00000028e-004
,,,3.77500000e-009,-4.00000028e-004
,,,3.80000000e-009,-3.93750028e-004
,,,3.82500000e-009,-3.82031277e-004
,,,3.85000000e-009,-3.63281276e-004
,,,3.87500000e-009,-3.39062524e-004
,,,3.90000000e-009,-3.09375022e-004
,,,3.92500000e-009,-2.75000019e-004
,,,3.95000000e-009,-2.38281267e-004
,,,3.97500000e-009,-2.00000014e-004
,,,4.00000000e-009,-1.61718761e-004
,,,4.02500000e-009,-1.25781259e-004
,,,4.05000000e-009,-9.29687566e-005
,,,4.07500000e-009,-6.40625045e-005
,,,4.10000000e-009,-3.98437528e-005
,,,4.12500000e-009,-2.10937515e-005
,,,4.15000000e-009,-7.81250055e-006
,,,4.17500000e-009,0.00000000e+000
,,,4.20000000e-009,7.81250055e-007
,,,4.22500000e-009,-7.81250055e-007
,,,4.25000000e-009,-3.90625028e-006
,,,4.27500000e-009,-7.81250055e-006
,,,4.30000000e-009,-9.37500066e-006
,,,4.32500000e-009,-9.37500066e-006
,,,4.35000000e-009,-5.46875039e-006
,,,4.37500000e-009,0.00000000e+000
,,,4.40000000e-009,6.25000044e-006
,,,4.42500000e-009,1.56250011e-005
,,,4.45000000e-009,2.42187517e-005
,,,4.47500000e-009,3.12500022e-005
,,,4.50000000e-009,3.35937524e-005
,,,4.52500000e-009,3.04687522e-005
,,,4.55000000e-009,1.87500013e-005
,,,4.57500000e-009,0.00000000e+000
,,,4.60000000e-009,-2.81250020e-005
,,,4.62500000e-009,-6.09375043e-005
,,,4.65000000e-009,-9.60937568e-005
,,,4.67500000e-009,-1.30468759e-004
,,,4.70000000e-009,-1.60156261e-004
,,,4.72500000e-009,-1.83593763e-004
,,,4.75000000e-009,-1.96875014e-004
,,,4.77500000e-009,-2.00000014e-004
,,,4.80000000e-009,-1.89843763e-004
,,,4.82500000e-009,-1.68750012e-004
,,,4.85000000e-009,-1.40625010e-004
,,,4.87500000e-009,-1.07031258e-004
,,,4.90000000e-009,-7.34375052e-005
,,,4.92500000e-009,-4.21875030e-005
,,,4.95000000e-009,-1.64062512e-005
,,,4.97500000e-009,0.00000000e+000
,,,5.00000000e-009,7.81250055e-006
,,,5.02500000e-009,8.59375061e-006
,,,5.05000000e-009,3.12500022e-006
,,,5.07500000e-009,-3.90625028e-006
,,,5.10000000e-009,-1.09375008e-005
,,,5.12500000e-009,-1.48437511e-005
,,,5.15000000e-009,-1.17187508e-005
,,,5.17500000e-009,0.00000000e+000
,,,5.20000000e-009,2.03125014e-005
,,,5.22500000e-009,4.84375034e-005
,,,5.25000000e-009,8.12500058e-005
,,,5.27500000e-009,1.15625008e-004
,,,5.30000000e-009,1.48437511e-004
,,,5.32500000e-009,1.75000012e-004
,,,5.35000000e-009,1.92968764e-004
,,,5.37500000e-009,2.00000014e-004
,,,5.40000000e-009,1.92187514e-004
,,,5.42500000e-009,1.73437512e-004
,,,5.45000000e-009,1.45312510e-004
,,,5.47500000e-009,1.11718758e-004
,,,5.50000000e-009,7.57812554e-005
,,,5.52500000e-009,4.29687530e-005
,,,5.55000000e-009,1.64062512e-005
,,,5.57500000e-009,0.00000000e+000
,,,5.60000000e-009,-4.68750033e-006
,,,5.62500000e-009,1.56250011e-006
,,,5.65000000e-009,1.95312514e-005
,,,5.67500000e-009,4.84375034e-005
,,,5.70000000e-009,8.35937559e-005
,,,5.72500000e-009,1.22656259e-004
,,,5.75000000e-009,1.62500012e-004
,,,5.77500000e-009,2.00000014e-004
,,,5.80000000e-009,2.28125016e-004
,,,5.82500000e-009,2.48437518e-004
,,,5.85000000e-009,2.60937518e-004
,,,5.87500000e-009,2.63281269e-004
,,,5.90000000e-009,2.57812518e-004
