RawData/SinglePhotoelectron/R1_2pt2B_5mV/wave024_Ch2.csv

"Record Length",1000,"Points",-7.72500000e-009,-1.99218764e-004
"Sample Interval",2.50000000e-011,s,-7.70000000e-009,-1.99218764e-004
"Trigger Point",309,"Samples",-7.67500000e-009,-2.00000014e-004
"Trigger Time",1.36751724e-011,s,-7.65000000e-009,-2.00000014e-004
"",,,-7.62500000e-009,-2.00000014e-004
"Horizontal Offset",-7.72500000e-009,s,-7.60000000e-009,-1.99218764e-004
,,,-7.57500000e-009,-1.99218764e-004
,,,-7.55000000e-009,-2.00000014e-004
,,,-7.52500000e-009,-1.99218764e-004
,,,-7.50000000e-009,-1.99218764e-004
,,,-7.47500000e-009,-2.00000014e-004
,,,-7.45000000e-009,-2.00000014e-004
,,,-7.42500000e-009,-2.00000014e-004
,,,-7.40000000e-009,-1.99218764e-004
,,,-7.37500000e-009,-1.99218764e-004
,,,-7.35000000e-009,-2.00000014e-004
,,,-7.32500000e-009,-1.99218764e-004
,,,-7.30000000e-009,-1.99218764e-004
,,,-7.27500000e-009,-2.00000014e-004
,,,-7.25000000e-009,-2.00000014e-004
,,,-7.22500000e-009,-2.00000014e-004
,,,-7.20000000e-009,-1.99218764e-004
,,,-7.17500000e-009,-1.99218764e-004
,,,-7.15000000e-009,-2.00000014e-004
,,,-7.12500000e-009,-1.99218764e-004
,,,-7.10000000e-009,-1.99218764e-004
,,,-7.07500000e-009,-2.00000014e-004
,,,-7.05000000e-009,-2.00000014e-004
,,,-7.02500000e-009,-2.00000014e-004
,,,-7.00000000e-009,-1.99218764e-004
,,,-6.97500000e-009,-1.99218764e-004
,,,-6.95000000e-009,-2.00000014e-004
,,,-6.92500000e-009,-1.99218764e-004
,,,-6.90000000e-009,-1.99218764e-004
,,,-6.87500000e-009,-2.00000014e-004
,,,-6.85000000e-009,-2.00000014e-004
,,,-6.82500000e-009,-2.00000014e-004
,,,-6.80000000e-009,-1.99218764e-004
,,,-6.77500000e-009,-1.99218764e-004
,,,-6.75000000e-009,-2.00000014e-004
,,,-6.72500000e-009,-1.99218764e-004
,,,-6.70000000e-009,-1.99218764e-004
,,,-6.67500000e-009,-2.00000014e-004
,,,-6.65000000e-009,-2.00000014e-004
,,,-6.62500000e-009,-2.00000014e-004
,,,-6.60000000e-009,-1.99218764e-004
,,,-6.57500000e-009,-1.99218764e-004
,,,-6.55000000e-009,-2.00000014e-004
,,,-6.52500000e-009,-1.99218764e-004
,,,-6.50000000e-009,-1.99218764e-004
,,,-6.47500000e-009,-2.00000014e-004
,,,-6.45000000e-009,-2.00000014e-004
,,,-6.42500000e-009,-2.00000014e-004
,,,-6.40000000e-009,-1.99218764e-004
,,,-6.37500000e-009,-1.99218764e-004
,,,-6.35000000e-009,-2.00000014e-004
,,,-6.32500000e-009,-1.99218764e-004
,,,-6.30000000e-009,-1.99218764e-004
,,,-6.27500000e-009,-2.00000014e-004
,,,-6.25000000e-009,-2.00000014e-004
,,,-6.22500000e-009,-2.00000014e-004
,,,-6.20000000e-009,-1.99218764e-004
,,,-6.17500000e-009,-1.99218764e-004
,,,-6.15000000e-009,-2.00000014e-004
,,,-6.12500000e-009,-2.01562514e-004
,,,-6.10000000e-009,-2.03125014e-004
,,,-6.07500000e-009,-2.05468765e-004
,,,-6.05000000e-009,-2.06250015e-004
,,,-6.02500000e-009,-2.06250015e-004
,,,-6.00000000e-009,-2.05468765e-004
,,,-5.97500000e-009,-2.03125014e-004
,,,-5.95000000e-009,-2.00000014e-004
,,,-5.92500000e-009,-1.96093764e-004
,,,-5.90000000e-009,-1.92968764e-004
,,,-5.87500000e-009,-1.89843763e-004
,,,-5.85000000e-009,-1.87500013e-004
,,,-5.82500000e-009,-1.87500013e-004
,,,-5.80000000e-009,-1.89062513e-004
,,,-5.77500000e-009,-1.93750014e-004
,,,-5.75000000e-009,-2.00000014e-004
,,,-5.72500000e-009,-2.07812515e-004
,,,-5.70000000e-009,-2.16406265e-004
,,,-5.67500000e-009,-2.23437516e-004
,,,-5.65000000e-009,-2.28125016e-004
,,,-5.62500000e-009,-2.28125016e-004
,,,-5.60000000e-009,-2.24218766e-004
,,,-5.57500000e-009,-2.14062515e-004
,,,-5.55000000e-009,-2.00000014e-004
,,,-5.52500000e-009,-1.82031263e-004
,,,-5.50000000e-009,-1.63281262e-004
,,,-5.47500000e-009,-1.47656260e-004
,,,-5.45000000e-009,-1.36718760e-004
,,,-5.42500000e-009,-1.34375010e-004
,,,-5.40000000e-009,-1.42968760e-004
,,,-5.37500000e-009,-1.64843762e-004
,,,-5.35000000e-009,-2.00000014e-004
,,,-5.32500000e-009,-2.47656268e-004
,,,-5.30000000e-009,-3.05468772e-004
,,,-5.27500000e-009,-3.67968776e-004
,,,-5.25000000e-009,-4.31250031e-004
,,,-5.22500000e-009,-4.89843785e-004
,,,-5.20000000e-009,-5.40625038e-004
,,,-5.17500000e-009,-5.78125041e-004
,,,-5.15000000e-009,-6.00000042e-004
,,,-5.12500000e-009,-6.01562543e-004
,,,-5.10000000e-009,-5.87500042e-004
,,,-5.07500000e-009,-5.61718790e-004
,,,-5.05000000e-009,-5.27343787e-004
,,,-5.02500000e-009,-4.89843785e-004
,,,-5.00000000e-009,-4.53906282e-004
,,,-4.97500000e-009,-4.22656280e-004
,,,-4.95000000e-009,-4.00000028e-004
,,,-4.92500000e-009,-3.85937527e-004
,,,-4.90000000e-009,-3.82031277e-004
,,,-4.87500000e-009,-3.86718777e-004
,,,-4.85000000e-009,-3.95312528e-004
,,,-4.82500000e-009,-4.04687529e-004
,,,-4.80000000e-009,-4.10937529e-004
,,,-4.77500000e-009,-4.09375029e-004
,,,-4.75000000e-009,-4.00000028e-004
,,,-4.72500000e-009,-3.79687527e-004
,,,-4.70000000e-009,-3.52343775e-004
,,,-4.67500000e-009,-3.18750023e-004
,,,-4.65000000e-009,-2.83593770e-004
,,,-4.62500000e-009,-2.50000018e-004
,,,-4.60000000e-009,-2.22656266e-004
,,,-4.57500000e-009,-2.05468765e-004
,,,-4.55000000e-009,-2.00000014e-004
,,,-4.52500000e-009,-2.07812515e-004
,,,-4.50000000e-009,-2.28125016e-004
,,,-4.47500000e-009,-2.57812518e-004
,,,-4.45000000e-009,-2.92968771e-004
,,,-4.42500000e-009,-3.28906273e-004
,,,-4.40000000e-009,-3.61718776e-004
,,,-4.37500000e-009,-3.85937527e-004
,,,-4.35000000e-009,-4.00000028e-004
,,,-4.32500000e-009,-4.00781278e-004
,,,-4.30000000e-009,-3.89062528e-004
,,,-4.27500000e-009,-3.66406276e-004
,,,-4.25000000e-009,-3.34375024e-004
,,,-4.22500000e-009,-2.98437521e-004
,,,-4.20000000e-009,-2.60937518e-004
,,,-4.17500000e-009,-2.26562516e-004
,,,-4.15000000e-009,-2.00000014e-004
,,,-4.12500000e-009,-1.85937513e-004
,,,-4.10000000e-009,-1.84375013e-004
,,,-4.07500000e-009,-1.96093764e-004
,,,-4.05000000e-009,-2.19531266e-004
,,,-4.02500000e-009,-2.53906268e-004
,,,-4.00000000e-009,-2.96875021e-004
,,,-3.97500000e-009,-3.46875025e-004
,,,-3.95000000e-009,-4.00000028e-004
,,,-3.92500000e-009,-4.52343782e-004
,,,-3.90000000e-009,-5.00781285e-004
,,,-3.87500000e-009,-5.42187538e-004
,,,-3.85000000e-009,-5.75781291e-004
,,,-3.82500000e-009,-5.98437542e-004
,,,-3.80000000e-009,-6.10156293e-004
,,,-3.77500000e-009,-6.10156293e-004
,,,-3.75000000e-009,-6.00000042e-004
,,,-3.72500000e-009,-5.77343791e-004
,,,-3.70000000e-009,-5.47656289e-004
,,,-3.67500000e-009,-5.14843786e-004
,,,-3.65000000e-009,-4.80468784e-004
,,,-3.62500000e-009,-4.50000032e-004
,,,-3.60000000e-009,-4.24218780e-004
,,,-3.57500000e-009,-4.07031279e-004
,,,-3.55000000e-009,-4.00000028e-004
,,,-3.52500000e-009,-4.01562528e-004
,,,-3.50000000e-009,-4.13281279e-004
,,,-3.47500000e-009,-4.34375031e-004
,,,-3.45000000e-009,-4.63281283e-004
,,,-3.42500000e-009,-4.96875035e-004
,,,-3.40000000e-009,-5.32812538e-004
,,,-3.37500000e-009,-5.67968790e-004
,,,-3.35000000e-009,-6.00000042e-004
,,,-3.32500000e-009,-6.21875044e-004
,,,-3.30000000e-009,-6.36718795e-004
,,,-3.27500000e-009,-6.44531296e-004
,,,-3.25000000e-009,-6.44531296e-004
,,,-3.22500000e-009,-6.39062545e-004
,,,-3.20000000e-009,-6.28906295e-004
,,,-3.17500000e-009,-6.15625044e-004
,,,-3.15000000e-009,-6.00000042e-004
,,,-3.12500000e-009,-5.77343791e-004
,,,-3.10000000e-009,-5.54687539e-004
,,,-3.07500000e-009,-5.32031288e-004
,,,-3.05000000e-009,-5.07812536e-004
,,,-3.02500000e-009,-4.83593784e-004
,,,-3.00000000e-009,-4.57031282e-004
,,,-2.97500000e-009,-4.28906280e-004
,,,-2.95000000e-009,-4.00000028e-004
,,,-2.92500000e-009,-3.67968776e-004
,,,-2.90000000e-009,-3.35937524e-004
,,,-2.87500000e-009,-3.03906272e-004
,,,-2.85000000e-009,-2.75000019e-004
,,,-2.82500000e-009,-2.48437518e-004
,,,-2.80000000e-009,-2.26562516e-004
,,,-2.77500000e-009,-2.10156265e-004
,,,-2.75000000e-009,-2.00000014e-004
,,,-2.72500000e-009,-1.96093764e-004
,,,-2.70000000e-009,-1.96093764e-004
,,,-2.67500000e-009,-1.99218764e-004
,,,-2.65000000e-009,-2.03906264e-004
,,,-2.62500000e-009,-2.07812515e-004
,,,-2.60000000e-009,-2.09375015e-004
,,,-2.57500000e-009,-2.07031265e-004
,,,-2.55000000e-009,-2.00000014e-004
,,,-2.52500000e-009,-1.88281263e-004
,,,-2.50000000e-009,-1.71875012e-004
,,,-2.47500000e-009,-1.49218761e-004
,,,-2.45000000e-009,-1.22656259e-004
,,,-2.42500000e-009,-9.29687566e-005
,,,-2.40000000e-009,-6.09375043e-005
,,,-2.37500000e-009,-2.96875021e-005
,,,-2.35000000e-009,0.00000000e+000
,,,-2.32500000e-009,2.26562516e-005
,,,-2.30000000e-009,3.98437528e-005
,,,-2.27500000e-009,5.15625036e-005
,,,-2.25000000e-009,5.54687539e-005
,,,-2.22500000e-009,5.23437537e-005
,,,-2.20000000e-009,4.21875030e-005
,,,-2.17500000e-009,2.42187517e-005
,,,-2.15000000e-009,0.00000000e+000
,,,-2.12500000e-009,-3.20312523e-005
,,,-2.10000000e-009,-6.64062547e-005
,,,-2.07500000e-009,-1.00000007e-004
,,,-2.05000000e-009,-1.31250009e-004
,,,-2.02500000e-009,-1.57812511e-004
,,,-2.00000000e-009,-1.78906263e-004
,,,-1.97500000e-009,-1.92968764e-004
,,,-1.95000000e-009,-2.00000014e-004
,,,-1.92500000e-009,-2.00781264e-004
,,,-1.90000000e-009,-1.96875014e-004
,,,-1.87500000e-009,-1.90625013e-004
,,,-1.85000000e-009,-1.83593763e-004
,,,-1.82500000e-009,-1.78906263e-004
,,,-1.80000000e-009,-1.78906263e-004
,,,-1.77500000e-009,-1.85156263e-004
,,,-1.75000000e-009,-2.00000014e-004
,,,-1.72500000e-009,-2.22656266e-004
,,,-1.70000000e-009,-2.51562518e-004
,,,-1.67500000e-009,-2.84375020e-004
,,,-1.65000000e-009,-3.17968773e-004
,,,-1.62500000e-009,-3.50000025e-004
,,,-1.60000000e-009,-3.75781277e-004
,,,-1.57500000e-009,-3.92968778e-004
,,,-1.55000000e-009,-4.00000028e-004
,,,-1.52500000e-009,-3.99218778e-004
,,,-1.50000000e-009,-3.88281277e-004
,,,-1.47500000e-009,-3.67968776e-004
,,,-1.45000000e-009,-3.40625024e-004
,,,-1.42500000e-009,-3.07031272e-004
,,,-1.40000000e-009,-2.70312519e-004
,,,-1.37500000e-009,-2.33593767e-004
,,,-1.35000000e-009,-2.00000014e-004
,,,-1.32500000e-009,-1.78906263e-004
,,,-1.30000000e-009,-1.67187512e-004
,,,-1.27500000e-009,-1.62500012e-004
,,,-1.25000000e-009,-1.64843762e-004
,,,-1.22500000e-009,-1.71875012e-004
,,,-1.20000000e-009,-1.81250013e-004
,,,-1.17500000e-009,-1.91406264e-004
,,,-1.15000000e-009,-2.00000014e-004
,,,-1.12500000e-009,-2.21093766e-004
,,,-1.10000000e-009,-2.40625017e-004
,,,-1.07500000e-009,-2.55468768e-004
,,,-1.05000000e-009,-2.62500019e-004
,,,-1.02500000e-009,-2.60156268e-004
,,,-1.00000000e-009,-2.48437518e-004
,,,-9.75000000e-010,-2.27343766e-004
,,,-9.50000000e-010,-2.00000014e-004
,,,-9.25000000e-010,-1.94531264e-004
,,,-9.00000000e-010,-1.94531264e-004
,,,-8.75000000e-010,-2.01562514e-004
,,,-8.50000000e-010,-2.17187515e-004
,,,-8.25000000e-010,-2.43750017e-004
,,,-8.00000000e-010,-2.82031270e-004
,,,-7.75000000e-010,-3.33593774e-004
,,,-7.50000000e-010,-4.00000028e-004
,,,-7.25000000e-010,-5.12500036e-004
,,,-7.00000000e-010,-6.42187545e-004
,,,-6.75000000e-010,-7.81250055e-004
,,,-6.50000000e-010,-9.23437565e-004
,,,-6.25000000e-010,-1.06171883e-003
,,,-6.00000000e-010,-1.18984383e-003
,,,-5.75000000e-010,-1.30312509e-003
,,,-5.50000000e-010,-1.40000010e-003
,,,-5.25000000e-010,-1.51093761e-003
,,,-5.00000000e-010,-1.61406261e-003
,,,-4.75000000e-010,-1.71015637e-003
,,,-4.50000000e-010,-1.80234388e-003
,,,-4.25000000e-010,-1.89296888e-003
,,,-4.00000000e-010,-1.98671889e-003
,,,-3.75000000e-010,-2.08750015e-003
,,,-3.50000000e-010,-2.20000016e-003
,,,-3.25000000e-010,-2.35468767e-003
,,,-3.00000000e-010,-2.53125018e-003
,,,-2.75000000e-010,-2.72656269e-003
,,,-2.50000000e-010,-2.93593771e-003
,,,-2.25000000e-010,-3.15312522e-003
,,,-2.00000000e-010,-3.37265649e-003
,,,-1.75000000e-010,-3.58906275e-003
,,,-1.50000000e-010,-3.80000027e-003
,,,-1.25000000e-010,-4.02031278e-003
,,,-1.00000000e-010,-4.24062530e-003
,,,-7.50000000e-011,-4.46093782e-003
,,,-5.00000000e-011,-4.68281283e-003
,,,-2.50000000e-011,-4.90625035e-003
,,,0.00000000e+000,-5.13281286e-003
,,,2.50000000e-011,-5.36328163e-003
,,,5.00000000e-011,-5.60000040e-003
,,,7.50000000e-011,-5.84453166e-003
,,,1.00000000e-010,-6.10156293e-003
,,,1.25000000e-010,-6.36562545e-003
,,,1.50000000e-010,-6.63281297e-003
,,,1.75000000e-010,-6.89531299e-003
,,,2.00000000e-010,-7.14765676e-003
,,,2.25000000e-010,-7.38359427e-003
,,,2.50000000e-010,-7.60000054e-003
,,,2.75000000e-010,-7.78046930e-003
,,,3.00000000e-010,-7.94843806e-003
,,,3.25000000e-010,-8.10625057e-003
,,,3.50000000e-010,-8.25468808e-003
,,,3.75000000e-010,-8.39609434e-003
,,,4.00000000e-010,-8.53359435e-003
,,,4.25000000e-010,-8.66718811e-003
,,,4.50000000e-010,-8.80000062e-003
,,,4.75000000e-010,-8.91015688e-003
,,,5.00000000e-010,-9.02812564e-003
,,,5.25000000e-010,-9.15546940e-003
,,,5.50000000e-010,-9.28750066e-003
,,,5.75000000e-010,-9.42265692e-003
,,,6.00000000e-010,-9.55546943e-003
,,,6.25000000e-010,-9.68281319e-003
,,,6.50000000e-010,-9.80000069e-003
,,,6.75000000e-010,-9.87421945e-003
,,,7.00000000e-010,-9.94531320e-003
,,,7.25000000e-010,-1.00156257e-002
,,,7.50000000e-010,-1.00859382e-002
,,,7.75000000e-010,-1.01593757e-002
,,,8.00000000e-010,-1.02351570e-002
,,,8.25000000e-010,-1.03156257e-002
,,,8.50000000e-010,-1.04000007e-002
,,,8.75000000e-010,-1.04531257e-002
,,,9.00000000e-010,-1.05156257e-002
,,,9.25000000e-010,-1.05867195e-002
,,,9.50000000e-010,-1.06664070e-002
,,,9.75000000e-010,-1.07515633e-002
,,,1.00000000e-009,-1.08382820e-002
,,,1.02500000e-009,-1.09218758e-002
,,,1.05000000e-009,-1.10000008e-002
,,,1.07500000e-009,-1.10273445e-002
,,,1.10000000e-009,-1.10453133e-002
,,,1.12500000e-009,-1.10546883e-002
,,,1.15000000e-009,-1.10570320e-002
,,,1.17500000e-009,-1.10523445e-002
,,,1.20000000e-009,-1.10406258e-002
,,,1.22500000e-009,-1.10234383e-002
,,,1.25000000e-009,-1.10000008e-002
,,,1.27500000e-009,-1.09335945e-002
,,,1.30000000e-009,-1.08617195e-002
,,,1.32500000e-009,-1.07875008e-002
,,,1.35000000e-009,-1.07109383e-002
,,,1.37500000e-009,-1.06335945e-002
,,,1.40000000e-009,-1.05562507e-002
,,,1.42500000e-009,-1.04781257e-002
,,,1.45000000e-009,-1.04000007e-002
,,,1.47500000e-009,-1.02882820e-002
,,,1.50000000e-009,-1.01765632e-002
,,,1.52500000e-009,-1.00656257e-002
,,,1.55000000e-009,-9.95859445e-003
,,,1.57500000e-009,-9.85859445e-003
,,,1.60000000e-009,-9.76562569e-003
,,,1.62500000e-009,-9.67968819e-003
,,,1.65000000e-009,-9.60000068e-003
,,,1.67500000e-009,-9.49531317e-003
,,,1.70000000e-009,-9.38671941e-003
,,,1.72500000e-009,-9.27421941e-003
,,,1.75000000e-009,-9.15468815e-003
,,,1.77500000e-009,-9.02890689e-003
,,,1.80000000e-009,-8.89453188e-003
,,,1.82500000e-009,-8.75156312e-003
,,,1.85000000e-009,-8.60000061e-003
,,,1.87500000e-009,-8.41953185e-003
,,,1.90000000e-009,-8.23046933e-003
,,,1.92500000e-009,-8.03593807e-003
,,,1.95000000e-009,-7.84296931e-003
,,,1.97500000e-009,-7.65781304e-003
,,,2.00000000e-009,-7.48671928e-003
,,,2.02500000e-009,-7.33281302e-003
,,,2.05000000e-009,-7.20000051e-003
,,,2.07500000e-009,-7.07734425e-003
,,,2.10000000e-009,-6.96640674e-003
,,,2.12500000e-009,-6.86562549e-003
,,,2.15000000e-009,-6.77187548e-003
,,,2.17500000e-009,-6.68203172e-003
,,,2.20000000e-009,-6.59296922e-003
,,,2.22500000e-009,-6.50000046e-003
,,,2.25000000e-009,-6.40000045e-003
,,,2.27500000e-009,-6.28359419e-003
,,,2.30000000e-009,-6.14609419e-003
,,,2.32500000e-009,-5.98750042e-003
,,,2.35000000e-009,-5.81015666e-003
,,,2.37500000e-009,-5.61718790e-003
,,,2.40000000e-009,-5.41484413e-003
,,,2.42500000e-009,-5.20781287e-003
,,,2.45000000e-009,-5.00000035e-003
,,,2.47500000e-009,-4.79921909e-003
,,,2.50000000e-009,-4.60000033e-003
,,,2.52500000e-009,-4.40468781e-003
,,,2.55000000e-009,-4.21718780e-003
,,,2.57500000e-009,-4.04062529e-003
,,,2.60000000e-009,-3.87812527e-003
,,,2.62500000e-009,-3.73046901e-003
,,,2.65000000e-009,-3.60000025e-003
,,,2.67500000e-009,-3.49296900e-003
,,,2.70000000e-009,-3.39062524e-003
,,,2.72500000e-009,-3.29140648e-003
,,,2.75000000e-009,-3.19296898e-003
,,,2.77500000e-009,-3.09531272e-003
,,,2.80000000e-009,-2.99687521e-003
,,,2.82500000e-009,-2.89843771e-003
,,,2.85000000e-009,-2.80000020e-003
,,,2.87500000e-009,-2.71328144e-003
,,,2.90000000e-009,-2.61953144e-003
,,,2.92500000e-009,-2.51796893e-003
,,,2.95000000e-009,-2.41171892e-003
,,,2.97500000e-009,-2.30390641e-003
,,,3.00000000e-009,-2.19609391e-003
,,,3.02500000e-009,-2.09375015e-003
,,,3.05000000e-009,-2.00000014e-003
,,,3.07500000e-009,-1.92890639e-003
,,,3.10000000e-009,-1.86406263e-003
,,,3.12500000e-009,-1.80390638e-003
,,,3.15000000e-009,-1.75000012e-003
,,,3.17500000e-009,-1.70312512e-003
,,,3.20000000e-009,-1.66328137e-003
,,,3.22500000e-009,-1.62890637e-003
,,,3.25000000e-009,-1.60000011e-003
,,,3.27500000e-009,-1.58750011e-003
,,,3.30000000e-009,-1.56875011e-003
,,,3.32500000e-009,-1.53984386e-003
,,,3.35000000e-009,-1.49765636e-003
,,,3.37500000e-009,-1.44296885e-003
,,,3.40000000e-009,-1.37343760e-003
,,,3.42500000e-009,-1.29218759e-003
,,,3.45000000e-009,-1.20000008e-003
,,,3.47500000e-009,-1.11328133e-003
,,,3.50000000e-009,-1.02031257e-003
,,,3.52500000e-009,-9.25000065e-004
,,,3.55000000e-009,-8.32031309e-004
,,,3.57500000e-009,-7.49218803e-004
,,,3.60000000e-009,-6.79687548e-004
,,,3.62500000e-009,-6.28906295e-004
,,,3.65000000e-009,-6.00000042e-004
,,,3.67500000e-009,-6.04687543e-004
,,,3.70000000e-009,-6.25781294e-004
,,,3.72500000e-009,-6.58593797e-004
,,,3.75000000e-009,-6.96093799e-004
,,,3.77500000e-009,-7.34375052e-004
,,,3.80000000e-009,-7.67187554e-004
,,,3.82500000e-009,-7.89843806e-004
,,,3.85000000e-009,-8.00000057e-004
,,,3.87500000e-009,-8.02343807e-004
,,,3.90000000e-009,-7.89062556e-004
,,,3.92500000e-009,-7.62500054e-004
,,,3.95000000e-009,-7.26562551e-004
,,,3.97500000e-009,-6.86718799e-004
,,,4.00000000e-009,-6.48437546e-004
,,,4.02500000e-009,-6.17968794e-004
,,,4.05000000e-009,-6.00000042e-004
,,,4.07500000e-009,-6.01562543e-004
,,,4.10000000e-009,-6.16406294e-004
,,,4.12500000e-009,-6.41406295e-004
,,,4.15000000e-009,-6.74218798e-004
,,,4.17500000e-009,-7.10156300e-004
,,,4.20000000e-009,-7.45312553e-004
,,,4.22500000e-009,-7.76562555e-004
,,,4.25000000e-009,-8.00000057e-004
,,,4.27500000e-009,-8.16406308e-004
,,,4.30000000e-009,-8.23437558e-004
,,,4.32500000e-009,-8.21875058e-004
,,,4.35000000e-009,-8.14062558e-004
,,,4.37500000e-009,-8.04687557e-004
,,,4.40000000e-009,-7.96875056e-004
,,,4.42500000e-009,-7.93750056e-004
,,,4.45000000e-009,-8.00000057e-004
,,,4.47500000e-009,-8.15625058e-004
,,,4.50000000e-009,-8.39843809e-004
,,,4.52500000e-009,-8.70312562e-004
,,,4.55000000e-009,-9.03906314e-004
,,,4.57500000e-009,-9.36718816e-004
,,,4.60000000e-009,-9.66406318e-004
,,,4.62500000e-009,-9.87500070e-004
,,,4.65000000e-009,-1.00000007e-003
,,,4.67500000e-009,-9.97656321e-004
,,,4.70000000e-009,-9.84375070e-004
,,,4.72500000e-009,-9.60937568e-004
,,,4.75000000e-009,-9.31250066e-004
,,,4.77500000e-009,-8.96875063e-004
,,,4.80000000e-009,-8.61718811e-004
,,,4.82500000e-009,-8.28125059e-004
,,,4.85000000e-009,-8.00000057e-004
,,,4.87500000e-009,-7.77343805e-004
,,,4.90000000e-009,-7.62500054e-004
,,,4.92500000e-009,-7.56250054e-004
,,,4.95000000e-009,-7.57031304e-004
,,,4.97500000e-009,-7.63281304e-004
,,,5.00000000e-009,-7.74218805e-004
,,,5.02500000e-009,-7.86718806e-004
,,,5.05000000e-009,-8.00000057e-004
,,,5.07500000e-009,-8.09375057e-004
,,,5.10000000e-009,-8.16406308e-004
,,,5.12500000e-009,-8.19531308e-004
,,,5.15000000e-009,-8.20312558e-004
,,,5.17500000e-009,-8.17968808e-004
,,,5.20000000e-009,-8.12500058e-004
,,,5.22500000e-009,-8.06250057e-004
,,,5.25000000e-009,-8.00000057e-004
,,,5.27500000e-009,-7.91406306e-004
,,,5.30000000e-009,-7.84375056e-004
,,,5.32500000e-009,-7.78906305e-004
,,,5.35000000e-009,-7.76562555e-004
,,,5.37500000e-009,-7.77343805e-004
,,,5.40000000e-009,-7.82031305e-004
,,,5.42500000e-009,-7.89062556e-004
,,,5.45000000e-009,-8.00000057e-004
,,,5.47500000e-009,-8.08593807e-004
,,,5.50000000e-009,-8.16406308e-004
,,,5.52500000e-009,-8.23437558e-004
,,,5.55000000e-009,-8.27343809e-004
,,,5.57500000e-009,-8.28125059e-004
,,,5.60000000e-009,-8.24218808e-004
,,,5.62500000e-009,-8.14062558e-004
,,,5.65000000e-009,-8.00000057e-004
,,,5.67500000e-009,-7.77343805e-004
,,,5.70000000e-009,-7.51562553e-004
,,,5.72500000e-009,-7.21875051e-004
,,,5.75000000e-009,-6.92187549e-004
,,,5.77500000e-009,-6.62500047e-004
,,,5.80000000e-009,-6.36718795e-004
