RawData/SinglePhotoelectron/R1_2pt2B_5mV/wave012_Ch2.csv

"Record Length",1000,"Points",-7.72500000e-009,-2.19531266e-004
"Sample Interval",2.50000000e-011,s,-7.70000000e-009,-2.09375015e-004
"Trigger Point",309,"Samples",-7.67500000e-009,-2.00000014e-004
"Trigger Time",5.47604396e-012,s,-7.65000000e-009,-1.90625013e-004
"",,,-7.62500000e-009,-1.85156263e-004
"Horizontal Offset",-7.72500000e-009,s,-7.60000000e-009,-1.82812513e-004
,,,-7.57500000e-009,-1.84375013e-004
,,,-7.55000000e-009,-1.87500013e-004
,,,-7.52500000e-009,-1.91406264e-004
,,,-7.50000000e-009,-1.96093764e-004
,,,-7.47500000e-009,-2.00000014e-004
,,,-7.45000000e-009,-2.00000014e-004
,,,-7.42500000e-009,-1.99218764e-004
,,,-7.40000000e-009,-1.97656264e-004
,,,-7.37500000e-009,-1.95312514e-004
,,,-7.35000000e-009,-1.93750014e-004
,,,-7.32500000e-009,-1.93750014e-004
,,,-7.30000000e-009,-1.95312514e-004
,,,-7.27500000e-009,-2.00000014e-004
,,,-7.25000000e-009,-2.04687514e-004
,,,-7.22500000e-009,-2.10156265e-004
,,,-7.20000000e-009,-2.15625015e-004
,,,-7.17500000e-009,-2.20312516e-004
,,,-7.15000000e-009,-2.21875016e-004
,,,-7.12500000e-009,-2.19531266e-004
,,,-7.10000000e-009,-2.12500015e-004
,,,-7.07500000e-009,-2.00000014e-004
,,,-7.05000000e-009,-1.79687513e-004
,,,-7.02500000e-009,-1.56250011e-004
,,,-7.00000000e-009,-1.28906259e-004
,,,-6.97500000e-009,-1.00000007e-004
,,,-6.95000000e-009,-7.03125050e-005
,,,-6.92500000e-009,-4.29687530e-005
,,,-6.90000000e-009,-1.95312514e-005
,,,-6.87500000e-009,0.00000000e+000
,,,-6.85000000e-009,1.32812509e-005
,,,-6.82500000e-009,2.10937515e-005
,,,-6.80000000e-009,2.42187517e-005
,,,-6.77500000e-009,2.34375017e-005
,,,-6.75000000e-009,1.95312514e-005
,,,-6.72500000e-009,1.32812509e-005
,,,-6.70000000e-009,6.25000044e-006
,,,-6.67500000e-009,0.00000000e+000
,,,-6.65000000e-009,-7.03125050e-006
,,,-6.62500000e-009,-1.17187508e-005
,,,-6.60000000e-009,-1.48437511e-005
,,,-6.57500000e-009,-1.48437511e-005
,,,-6.55000000e-009,-1.32812509e-005
,,,-6.52500000e-009,-9.37500066e-006
,,,-6.50000000e-009,-4.68750033e-006
,,,-6.47500000e-009,0.00000000e+000
,,,-6.45000000e-009,3.90625028e-006
,,,-6.42500000e-009,7.81250055e-006
,,,-6.40000000e-009,1.01562507e-005
,,,-6.37500000e-009,1.17187508e-005
,,,-6.35000000e-009,1.09375008e-005
,,,-6.32500000e-009,8.59375061e-006
,,,-6.30000000e-009,4.68750033e-006
,,,-6.27500000e-009,0.00000000e+000
,,,-6.25000000e-009,-6.25000044e-006
,,,-6.22500000e-009,-1.25000009e-005
,,,-6.20000000e-009,-1.71875012e-005
,,,-6.17500000e-009,-1.95312514e-005
,,,-6.15000000e-009,-1.87500013e-005
,,,-6.12500000e-009,-1.56250011e-005
,,,-6.10000000e-009,-8.59375061e-006
,,,-6.07500000e-009,0.00000000e+000
,,,-6.05000000e-009,9.37500066e-006
,,,-6.02500000e-009,2.03125014e-005
,,,-6.00000000e-009,2.96875021e-005
,,,-5.97500000e-009,3.51562525e-005
,,,-5.95000000e-009,3.67187526e-005
,,,-5.92500000e-009,3.20312523e-005
,,,-5.90000000e-009,1.95312514e-005
,,,-5.87500000e-009,0.00000000e+000
,,,-5.85000000e-009,-2.57812518e-005
,,,-5.82500000e-009,-5.70312540e-005
,,,-5.80000000e-009,-9.06250064e-005
,,,-5.77500000e-009,-1.23437509e-004
,,,-5.75000000e-009,-1.53125011e-004
,,,-5.72500000e-009,-1.77343763e-004
,,,-5.70000000e-009,-1.93750014e-004
,,,-5.67500000e-009,-2.00000014e-004
,,,-5.65000000e-009,-1.94531264e-004
,,,-5.62500000e-009,-1.79687513e-004
,,,-5.60000000e-009,-1.56250011e-004
,,,-5.57500000e-009,-1.26562509e-004
,,,-5.55000000e-009,-9.37500066e-005
,,,-5.52500000e-009,-6.01562543e-005
,,,-5.50000000e-009,-2.73437519e-005
,,,-5.47500000e-009,0.00000000e+000
,,,-5.45000000e-009,2.03125014e-005
,,,-5.42500000e-009,3.43750024e-005
,,,-5.40000000e-009,4.06250029e-005
,,,-5.37500000e-009,3.98437528e-005
,,,-5.35000000e-009,3.35937524e-005
,,,-5.32500000e-009,2.34375017e-005
,,,-5.30000000e-009,1.17187508e-005
,,,-5.27500000e-009,0.00000000e+000
,,,-5.25000000e-009,-1.25000009e-005
,,,-5.22500000e-009,-2.26562516e-005
,,,-5.20000000e-009,-2.89062520e-005
,,,-5.17500000e-009,-3.12500022e-005
,,,-5.15000000e-009,-2.89062520e-005
,,,-5.12500000e-009,-2.26562516e-005
,,,-5.10000000e-009,-1.25000009e-005
,,,-5.07500000e-009,0.00000000e+000
,,,-5.05000000e-009,1.25000009e-005
,,,-5.02500000e-009,2.42187517e-005
,,,-5.00000000e-009,3.35937524e-005
,,,-4.97500000e-009,3.90625028e-005
,,,-4.95000000e-009,3.90625028e-005
,,,-4.92500000e-009,3.20312523e-005
,,,-4.90000000e-009,1.95312514e-005
,,,-4.87500000e-009,0.00000000e+000
,,,-4.85000000e-009,-2.65625019e-005
,,,-4.82500000e-009,-5.78125041e-005
,,,-4.80000000e-009,-9.06250064e-005
,,,-4.77500000e-009,-1.22656259e-004
,,,-4.75000000e-009,-1.51562511e-004
,,,-4.72500000e-009,-1.75000012e-004
,,,-4.70000000e-009,-1.90625013e-004
,,,-4.67500000e-009,-2.00000014e-004
,,,-4.65000000e-009,-2.01562514e-004
,,,-4.62500000e-009,-1.98437514e-004
,,,-4.60000000e-009,-1.91406264e-004
,,,-4.57500000e-009,-1.83593763e-004
,,,-4.55000000e-009,-1.78125013e-004
,,,-4.52500000e-009,-1.77343763e-004
,,,-4.50000000e-009,-1.84375013e-004
,,,-4.47500000e-009,-2.00000014e-004
,,,-4.45000000e-009,-2.21875016e-004
,,,-4.42500000e-009,-2.51562518e-004
,,,-4.40000000e-009,-2.85156270e-004
,,,-4.37500000e-009,-3.20312523e-004
,,,-4.35000000e-009,-3.52343775e-004
,,,-4.32500000e-009,-3.78125027e-004
,,,-4.30000000e-009,-3.94531278e-004
,,,-4.27500000e-009,-4.00000028e-004
,,,-4.25000000e-009,-3.89062528e-004
,,,-4.22500000e-009,-3.67968776e-004
,,,-4.20000000e-009,-3.39062524e-004
,,,-4.17500000e-009,-3.04687522e-004
,,,-4.15000000e-009,-2.69531269e-004
,,,-4.12500000e-009,-2.38281267e-004
,,,-4.10000000e-009,-2.14062515e-004
,,,-4.07500000e-009,-2.00000014e-004
,,,-4.05000000e-009,-1.96093764e-004
,,,-4.02500000e-009,-2.05468765e-004
,,,-4.00000000e-009,-2.26562516e-004
,,,-3.97500000e-009,-2.56250018e-004
,,,-3.95000000e-009,-2.91406271e-004
,,,-3.92500000e-009,-3.29687523e-004
,,,-3.90000000e-009,-3.66406276e-004
,,,-3.87500000e-009,-4.00000028e-004
,,,-3.85000000e-009,-4.24218780e-004
,,,-3.82500000e-009,-4.41406281e-004
,,,-3.80000000e-009,-4.50000032e-004
,,,-3.77500000e-009,-4.50781282e-004
,,,-3.75000000e-009,-4.44531281e-004
,,,-3.72500000e-009,-4.33593781e-004
,,,-3.70000000e-009,-4.17968780e-004
,,,-3.67500000e-009,-4.00000028e-004
,,,-3.65000000e-009,-3.82812527e-004
,,,-3.62500000e-009,-3.64843776e-004
,,,-3.60000000e-009,-3.46093774e-004
,,,-3.57500000e-009,-3.25000023e-004
,,,-3.55000000e-009,-3.00781271e-004
,,,-3.52500000e-009,-2.71875019e-004
,,,-3.50000000e-009,-2.38281267e-004
,,,-3.47500000e-009,-2.00000014e-004
,,,-3.45000000e-009,-1.65625012e-004
,,,-3.42500000e-009,-1.32031259e-004
,,,-3.40000000e-009,-9.84375070e-005
,,,-3.37500000e-009,-6.79687548e-005
,,,-3.35000000e-009,-4.14062529e-005
,,,-3.32500000e-009,-2.03125014e-005
,,,-3.30000000e-009,-6.25000044e-006
,,,-3.27500000e-009,0.00000000e+000
,,,-3.25000000e-009,-1.40625010e-005
,,,-3.22500000e-009,-3.75000027e-005
,,,-3.20000000e-009,-6.64062547e-005
,,,-3.17500000e-009,-9.84375070e-005
,,,-3.15000000e-009,-1.30468759e-004
,,,-3.12500000e-009,-1.58593761e-004
,,,-3.10000000e-009,-1.82031263e-004
,,,-3.07500000e-009,-2.00000014e-004
,,,-3.05000000e-009,-2.23437516e-004
,,,-3.02500000e-009,-2.44531267e-004
,,,-3.00000000e-009,-2.63281269e-004
,,,-2.97500000e-009,-2.82031270e-004
,,,-2.95000000e-009,-3.02343771e-004
,,,-2.92500000e-009,-3.27343773e-004
,,,-2.90000000e-009,-3.58593775e-004
,,,-2.87500000e-009,-4.00000028e-004
,,,-2.85000000e-009,-4.62500033e-004
,,,-2.82500000e-009,-5.38281288e-004
,,,-2.80000000e-009,-6.27343794e-004
,,,-2.77500000e-009,-7.27343801e-004
,,,-2.75000000e-009,-8.37500059e-004
,,,-2.72500000e-009,-9.53906318e-004
,,,-2.70000000e-009,-1.07578133e-003
,,,-2.67500000e-009,-1.20000008e-003
,,,-2.65000000e-009,-1.32500009e-003
,,,-2.62500000e-009,-1.44687510e-003
,,,-2.60000000e-009,-1.56328136e-003
,,,-2.57500000e-009,-1.67109387e-003
,,,-2.55000000e-009,-1.76953138e-003
,,,-2.52500000e-009,-1.85703138e-003
,,,-2.50000000e-009,-1.93359389e-003
,,,-2.47500000e-009,-2.00000014e-003
,,,-2.45000000e-009,-2.05156265e-003
,,,-2.42500000e-009,-2.09921890e-003
,,,-2.40000000e-009,-2.14375015e-003
,,,-2.37500000e-009,-2.18828140e-003
,,,-2.35000000e-009,-2.23437516e-003
,,,-2.32500000e-009,-2.28515641e-003
,,,-2.30000000e-009,-2.33984392e-003
,,,-2.27500000e-009,-2.40000017e-003
,,,-2.25000000e-009,-2.45468767e-003
,,,-2.22500000e-009,-2.51406268e-003
,,,-2.20000000e-009,-2.57578143e-003
,,,-2.17500000e-009,-2.63671894e-003
,,,-2.15000000e-009,-2.69296894e-003
,,,-2.12500000e-009,-2.74062519e-003
,,,-2.10000000e-009,-2.77734395e-003
,,,-2.07500000e-009,-2.80000020e-003
,,,-2.05000000e-009,-2.79296895e-003
,,,-2.02500000e-009,-2.77500020e-003
,,,-2.00000000e-009,-2.74843769e-003
,,,-1.97500000e-009,-2.71640644e-003
,,,-1.95000000e-009,-2.68203144e-003
,,,-1.92500000e-009,-2.65000019e-003
,,,-1.90000000e-009,-2.62109394e-003
,,,-1.87500000e-009,-2.60000018e-003
,,,-1.85000000e-009,-2.57343768e-003
,,,-1.82500000e-009,-2.55781268e-003
,,,-1.80000000e-009,-2.55312518e-003
,,,-1.77500000e-009,-2.55625018e-003
,,,-1.75000000e-009,-2.56484393e-003
,,,-1.72500000e-009,-2.57734393e-003
,,,-1.70000000e-009,-2.58906268e-003
,,,-1.67500000e-009,-2.60000018e-003
,,,-1.65000000e-009,-2.59765643e-003
,,,-1.62500000e-009,-2.59218768e-003
,,,-1.60000000e-009,-2.58671893e-003
,,,-1.57500000e-009,-2.58125018e-003
,,,-1.55000000e-009,-2.57890643e-003
,,,-1.52500000e-009,-2.58046893e-003
,,,-1.50000000e-009,-2.58750018e-003
,,,-1.47500000e-009,-2.60000018e-003
,,,-1.45000000e-009,-2.61328143e-003
,,,-1.42500000e-009,-2.62968769e-003
,,,-1.40000000e-009,-2.64609394e-003
,,,-1.37500000e-009,-2.65859394e-003
,,,-1.35000000e-009,-2.66328144e-003
,,,-1.32500000e-009,-2.65703144e-003
,,,-1.30000000e-009,-2.63593769e-003
,,,-1.27500000e-009,-2.60000018e-003
,,,-1.25000000e-009,-2.55000018e-003
,,,-1.22500000e-009,-2.48671893e-003
,,,-1.20000000e-009,-2.41328142e-003
,,,-1.17500000e-009,-2.33125017e-003
,,,-1.15000000e-009,-2.24531266e-003
,,,-1.12500000e-009,-2.15859390e-003
,,,-1.10000000e-009,-2.07578140e-003
,,,-1.07500000e-009,-2.00000014e-003
,,,-1.05000000e-009,-1.94921889e-003
,,,-1.02500000e-009,-1.91093764e-003
,,,-1.00000000e-009,-1.88359388e-003
,,,-9.75000000e-010,-1.86328138e-003
,,,-9.50000000e-010,-1.84765638e-003
,,,-9.25000000e-010,-1.83359388e-003
,,,-9.00000000e-010,-1.81796888e-003
,,,-8.75000000e-010,-1.80000013e-003
,,,-8.50000000e-010,-1.79921888e-003
,,,-8.25000000e-010,-1.79843763e-003
,,,-8.00000000e-010,-1.79531263e-003
,,,-7.75000000e-010,-1.79218763e-003
,,,-7.50000000e-010,-1.78828138e-003
,,,-7.25000000e-010,-1.78671888e-003
,,,-7.00000000e-010,-1.78984388e-003
,,,-6.75000000e-010,-1.80000013e-003
,,,-6.50000000e-010,-1.84062513e-003
,,,-6.25000000e-010,-1.89453138e-003
,,,-6.00000000e-010,-1.95937514e-003
,,,-5.75000000e-010,-2.03359389e-003
,,,-5.50000000e-010,-2.11718765e-003
,,,-5.25000000e-010,-2.20625016e-003
,,,-5.00000000e-010,-2.30078141e-003
,,,-4.75000000e-010,-2.40000017e-003
,,,-4.50000000e-010,-2.51796893e-003
,,,-4.25000000e-010,-2.63984394e-003
,,,-4.00000000e-010,-2.76406270e-003
,,,-3.75000000e-010,-2.88984395e-003
,,,-3.50000000e-010,-3.01640646e-003
,,,-3.25000000e-010,-3.14296897e-003
,,,-3.00000000e-010,-3.27031273e-003
,,,-2.75000000e-010,-3.40000024e-003
,,,-2.50000000e-010,-3.53750025e-003
,,,-2.25000000e-010,-3.67968776e-003
,,,-2.00000000e-010,-3.82578152e-003
,,,-1.75000000e-010,-3.97578153e-003
,,,-1.50000000e-010,-4.12890654e-003
,,,-1.25000000e-010,-4.28437530e-003
,,,-1.00000000e-010,-4.44218781e-003
,,,-7.50000000e-011,-4.60000033e-003
,,,-5.00000000e-011,-4.74843784e-003
,,,-2.50000000e-011,-4.89453160e-003
,,,0.00000000e+000,-5.03671911e-003
,,,2.50000000e-011,-5.17265662e-003
,,,5.00000000e-011,-5.29843788e-003
,,,7.50000000e-011,-5.41328163e-003
,,,1.00000000e-010,-5.51406289e-003
,,,1.25000000e-010,-5.60000040e-003
,,,1.50000000e-010,-5.65234415e-003
,,,1.75000000e-010,-5.69218790e-003
,,,2.00000000e-010,-5.72343791e-003
,,,2.25000000e-010,-5.74687541e-003
,,,2.50000000e-010,-5.76406291e-003
,,,2.75000000e-010,-5.77812541e-003
,,,3.00000000e-010,-5.78984416e-003
,,,3.25000000e-010,-5.80000041e-003
,,,3.50000000e-010,-5.78750041e-003
,,,3.75000000e-010,-5.77968791e-003
,,,4.00000000e-010,-5.77656291e-003
,,,4.25000000e-010,-5.77734416e-003
,,,4.50000000e-010,-5.78281291e-003
,,,4.75000000e-010,-5.78906291e-003
,,,5.00000000e-010,-5.79531291e-003
,,,5.25000000e-010,-5.80000041e-003
,,,5.50000000e-010,-5.77968791e-003
,,,5.75000000e-010,-5.75781291e-003
,,,6.00000000e-010,-5.73437541e-003
,,,6.25000000e-010,-5.70937540e-003
,,,6.50000000e-010,-5.68359415e-003
,,,6.75000000e-010,-5.65625040e-003
,,,7.00000000e-010,-5.62812540e-003
,,,7.25000000e-010,-5.60000040e-003
,,,7.50000000e-010,-5.55312539e-003
,,,7.75000000e-010,-5.51015664e-003
,,,8.00000000e-010,-5.47187539e-003
,,,8.25000000e-010,-5.44140664e-003
,,,8.50000000e-010,-5.41875038e-003
,,,8.75000000e-010,-5.40468788e-003
,,,9.00000000e-010,-5.39921913e-003
,,,9.25000000e-010,-5.40000038e-003
,,,9.50000000e-010,-5.39062538e-003
,,,9.75000000e-010,-5.38125038e-003
,,,1.00000000e-009,-5.37031288e-003
,,,1.02500000e-009,-5.35390663e-003
,,,1.05000000e-009,-5.33046913e-003
,,,1.07500000e-009,-5.29843788e-003
,,,1.10000000e-009,-5.25468787e-003
,,,1.12500000e-009,-5.20000037e-003
,,,1.15000000e-009,-5.12343786e-003
,,,1.17500000e-009,-5.03828161e-003
,,,1.20000000e-009,-4.94765660e-003
,,,1.22500000e-009,-4.85781284e-003
,,,1.25000000e-009,-4.77343784e-003
,,,1.27500000e-009,-4.70078158e-003
,,,1.30000000e-009,-4.64218783e-003
,,,1.32500000e-009,-4.60000033e-003
,,,1.35000000e-009,-4.56562532e-003
,,,1.37500000e-009,-4.54218782e-003
,,,1.40000000e-009,-4.52656282e-003
,,,1.42500000e-009,-4.51328157e-003
,,,1.45000000e-009,-4.49843782e-003
,,,1.47500000e-009,-4.47734407e-003
,,,1.50000000e-009,-4.44531281e-003
,,,1.52500000e-009,-4.40000031e-003
,,,1.55000000e-009,-4.33125031e-003
,,,1.57500000e-009,-4.24453155e-003
,,,1.60000000e-009,-4.14375029e-003
,,,1.62500000e-009,-4.03203154e-003
,,,1.65000000e-009,-3.91640653e-003
,,,1.67500000e-009,-3.80156277e-003
,,,1.70000000e-009,-3.69453151e-003
,,,1.72500000e-009,-3.60000025e-003
,,,1.75000000e-009,-3.51484400e-003
,,,1.77500000e-009,-3.44218774e-003
,,,1.80000000e-009,-3.38203149e-003
,,,1.82500000e-009,-3.33281274e-003
,,,1.85000000e-009,-3.29296898e-003
,,,1.87500000e-009,-3.26015648e-003
,,,1.90000000e-009,-3.23046898e-003
,,,1.92500000e-009,-3.20000023e-003
,,,1.95000000e-009,-3.16171897e-003
,,,1.97500000e-009,-3.11328147e-003
,,,2.00000000e-009,-3.05234397e-003
,,,2.02500000e-009,-2.97890646e-003
,,,2.05000000e-009,-2.89453145e-003
,,,2.07500000e-009,-2.80156270e-003
,,,2.10000000e-009,-2.70234394e-003
,,,2.12500000e-009,-2.60000018e-003
,,,2.15000000e-009,-2.49843768e-003
,,,2.17500000e-009,-2.39843767e-003
,,,2.20000000e-009,-2.30234391e-003
,,,2.22500000e-009,-2.21484391e-003
,,,2.25000000e-009,-2.13906265e-003
,,,2.27500000e-009,-2.07734390e-003
,,,2.30000000e-009,-2.03046889e-003
,,,2.32500000e-009,-2.00000014e-003
,,,2.35000000e-009,-1.98515639e-003
,,,2.37500000e-009,-1.97578139e-003
,,,2.40000000e-009,-1.96796889e-003
,,,2.42500000e-009,-1.95703139e-003
,,,2.45000000e-009,-1.93750014e-003
,,,2.47500000e-009,-1.90703138e-003
,,,2.50000000e-009,-1.86093763e-003
,,,2.52500000e-009,-1.80000013e-003
,,,2.55000000e-009,-1.72656262e-003
,,,2.57500000e-009,-1.63593762e-003
,,,2.60000000e-009,-1.53125011e-003
,,,2.62500000e-009,-1.41796885e-003
,,,2.65000000e-009,-1.30156259e-003
,,,2.67500000e-009,-1.18984383e-003
,,,2.70000000e-009,-1.08750008e-003
,,,2.72500000e-009,-1.00000007e-003
,,,2.75000000e-009,-9.35937566e-004
,,,2.77500000e-009,-8.87500063e-004
,,,2.80000000e-009,-8.53125060e-004
,,,2.82500000e-009,-8.30468809e-004
,,,2.85000000e-009,-8.17968808e-004
,,,2.87500000e-009,-8.10156307e-004
,,,2.90000000e-009,-8.05468807e-004
,,,2.92500000e-009,-8.00000057e-004
,,,2.95000000e-009,-7.96093806e-004
,,,2.97500000e-009,-7.83593805e-004
,,,3.00000000e-009,-7.63281304e-004
,,,3.02500000e-009,-7.35156302e-004
,,,3.05000000e-009,-7.01562550e-004
,,,3.07500000e-009,-6.65625047e-004
,,,3.10000000e-009,-6.30468795e-004
,,,3.12500000e-009,-6.00000042e-004
,,,3.15000000e-009,-5.80468791e-004
,,,3.17500000e-009,-5.67187540e-004
,,,3.20000000e-009,-5.59375040e-004
,,,3.22500000e-009,-5.57812539e-004
,,,3.25000000e-009,-5.61718790e-004
,,,3.27500000e-009,-5.71093790e-004
,,,3.30000000e-009,-5.83593791e-004
,,,3.32500000e-009,-6.00000042e-004
,,,3.35000000e-009,-6.19531294e-004
,,,3.37500000e-009,-6.35937545e-004
,,,3.40000000e-009,-6.46875046e-004
,,,3.42500000e-009,-6.52343796e-004
,,,3.45000000e-009,-6.50781296e-004
,,,3.47500000e-009,-6.41406295e-004
,,,3.50000000e-009,-6.24218794e-004
,,,3.52500000e-009,-6.00000042e-004
,,,3.55000000e-009,-5.68750040e-004
,,,3.57500000e-009,-5.30468788e-004
,,,3.60000000e-009,-4.83593784e-004
,,,3.62500000e-009,-4.31250031e-004
,,,3.65000000e-009,-3.74218776e-004
,,,3.67500000e-009,-3.15625022e-004
,,,3.70000000e-009,-2.56250018e-004
,,,3.72500000e-009,-2.00000014e-004
,,,3.75000000e-009,-1.49218761e-004
,,,3.77500000e-009,-1.04687507e-004
,,,3.80000000e-009,-6.64062547e-005
,,,3.82500000e-009,-3.59375025e-005
,,,3.85000000e-009,-1.32812509e-005
,,,3.87500000e-009,0.00000000e+000
,,,3.90000000e-009,3.90625028e-006
,,,3.92500000e-009,0.00000000e+000
,,,3.95000000e-009,-1.56250011e-005
,,,3.97500000e-009,-3.75000027e-005
,,,4.00000000e-009,-6.32812545e-005
,,,4.02500000e-009,-9.14062565e-005
,,,4.05000000e-009,-1.20312509e-004
,,,4.07500000e-009,-1.49218761e-004
,,,4.10000000e-009,-1.75781262e-004
,,,4.12500000e-009,-2.00000014e-004
,,,4.15000000e-009,-2.20312516e-004
,,,4.17500000e-009,-2.35156267e-004
,,,4.20000000e-009,-2.44531267e-004
,,,4.22500000e-009,-2.46875017e-004
,,,4.25000000e-009,-2.42968767e-004
,,,4.27500000e-009,-2.33593767e-004
,,,4.30000000e-009,-2.18750015e-004
,,,4.32500000e-009,-2.00000014e-004
,,,4.35000000e-009,-1.78906263e-004
,,,4.37500000e-009,-1.54687511e-004
,,,4.40000000e-009,-1.28906259e-004
,,,4.42500000e-009,-1.02343757e-004
,,,4.45000000e-009,-7.50000053e-005
,,,4.47500000e-009,-4.76562534e-005
,,,4.50000000e-009,-2.26562516e-005
,,,4.52500000e-009,0.00000000e+000
,,,4.55000000e-009,1.56250011e-005
,,,4.57500000e-009,2.81250020e-005
,,,4.60000000e-009,3.67187526e-005
,,,4.62500000e-009,3.98437528e-005
,,,4.65000000e-009,3.75000027e-005
,,,4.67500000e-009,3.04687522e-005
,,,4.70000000e-009,1.79687513e-005
,,,4.72500000e-009,0.00000000e+000
,,,4.75000000e-009,-2.34375017e-005
,,,4.77500000e-009,-5.07812536e-005
,,,4.80000000e-009,-7.96875056e-005
,,,4.82500000e-009,-1.08593758e-004
,,,4.85000000e-009,-1.35937510e-004
,,,4.87500000e-009,-1.60937511e-004
,,,4.90000000e-009,-1.82812513e-004
,,,4.92500000e-009,-2.00000014e-004
,,,4.95000000e-009,-2.10937515e-004
,,,4.97500000e-009,-2.17968765e-004
,,,5.00000000e-009,-2.20312516e-004
,,,5.02500000e-009,-2.19531266e-004
,,,5.05000000e-009,-2.15625015e-004
,,,5.07500000e-009,-2.10937515e-004
,,,5.10000000e-009,-2.04687514e-004
,,,5.12500000e-009,-2.00000014e-004
,,,5.15000000e-009,-1.94531264e-004
,,,5.17500000e-009,-1.90625013e-004
,,,5.20000000e-009,-1.88281263e-004
,,,5.22500000e-009,-1.87500013e-004
,,,5.25000000e-009,-1.89062513e-004
,,,5.27500000e-009,-1.91406264e-004
,,,5.30000000e-009,-1.95312514e-004
,,,5.32500000e-009,-2.00000014e-004
,,,5.35000000e-009,-2.03125014e-004
,,,5.37500000e-009,-2.05468765e-004
,,,5.40000000e-009,-2.07812515e-004
,,,5.42500000e-009,-2.07812515e-004
,,,5.45000000e-009,-2.07812515e-004
,,,5.47500000e-009,-2.05468765e-004
,,,5.50000000e-009,-2.03125014e-004
,,,5.52500000e-009,-2.00000014e-004
,,,5.55000000e-009,-1.94531264e-004
,,,5.57500000e-009,-1.89843763e-004
,,,5.60000000e-009,-1.85937513e-004
,,,5.62500000e-009,-1.84375013e-004
,,,5.65000000e-009,-1.84375013e-004
,,,5.67500000e-009,-1.87500013e-004
,,,5.70000000e-009,-1.92187514e-004
,,,5.72500000e-009,-2.00000014e-004
,,,5.75000000e-009,-2.06250015e-004
,,,5.77500000e-009,-2.13281265e-004
,,,5.80000000e-009,-2.19531266e-004
,,,5.82500000e-009,-2.23437516e-004
,,,5.85000000e-009,-2.24218766e-004
