RawData/SinglePhotoelectron/R1_2pt2B_5mV/wave019_Ch2.csv

"Record Length",1000,"Points",-7.72500000e-009,2.03125014e-005
"Sample Interval",2.50000000e-011,s,-7.70000000e-009,1.40625010e-005
"Trigger Point",309,"Samples",-7.67500000e-009,6.25000044e-006
"Trigger Time",2.00001762e-011,s,-7.65000000e-009,0.00000000e+000
"",,,-7.62500000e-009,-8.59375061e-006
"Horizontal Offset",-7.72500000e-009,s,-7.60000000e-009,-1.48437511e-005
,,,-7.57500000e-009,-1.79687513e-005
,,,-7.55000000e-009,-1.87500013e-005
,,,-7.52500000e-009,-1.64062512e-005
,,,-7.50000000e-009,-1.17187508e-005
,,,-7.47500000e-009,-5.46875039e-006
,,,-7.45000000e-009,0.00000000e+000
,,,-7.42500000e-009,3.12500022e-006
,,,-7.40000000e-009,5.46875039e-006
,,,-7.37500000e-009,7.81250055e-006
,,,-7.35000000e-009,7.81250055e-006
,,,-7.32500000e-009,7.81250055e-006
,,,-7.30000000e-009,5.46875039e-006
,,,-7.27500000e-009,3.12500022e-006
,,,-7.25000000e-009,0.00000000e+000
,,,-7.22500000e-009,-4.68750033e-006
,,,-7.20000000e-009,-9.37500066e-006
,,,-7.17500000e-009,-1.32812509e-005
,,,-7.15000000e-009,-1.48437511e-005
,,,-7.12500000e-009,-1.48437511e-005
,,,-7.10000000e-009,-1.17187508e-005
,,,-7.07500000e-009,-7.03125050e-006
,,,-7.05000000e-009,0.00000000e+000
,,,-7.02500000e-009,7.03125050e-006
,,,-7.00000000e-009,1.48437511e-005
,,,-6.97500000e-009,2.18750015e-005
,,,-6.95000000e-009,2.65625019e-005
,,,-6.92500000e-009,2.81250020e-005
,,,-6.90000000e-009,2.42187517e-005
,,,-6.87500000e-009,1.48437511e-005
,,,-6.85000000e-009,0.00000000e+000
,,,-6.82500000e-009,-2.03125014e-005
,,,-6.80000000e-009,-4.60937533e-005
,,,-6.77500000e-009,-7.42187553e-005
,,,-6.75000000e-009,-1.03906257e-004
,,,-6.72500000e-009,-1.32812509e-004
,,,-6.70000000e-009,-1.59375011e-004
,,,-6.67500000e-009,-1.82031263e-004
,,,-6.65000000e-009,-2.00000014e-004
,,,-6.62500000e-009,-2.09375015e-004
,,,-6.60000000e-009,-2.14062515e-004
,,,-6.57500000e-009,-2.14062515e-004
,,,-6.55000000e-009,-2.11718765e-004
,,,-6.52500000e-009,-2.07031265e-004
,,,-6.50000000e-009,-2.03125014e-004
,,,-6.47500000e-009,-2.00000014e-004
,,,-6.45000000e-009,-2.00000014e-004
,,,-6.42500000e-009,-2.00781264e-004
,,,-6.40000000e-009,-2.04687514e-004
,,,-6.37500000e-009,-2.10156265e-004
,,,-6.35000000e-009,-2.14843765e-004
,,,-6.32500000e-009,-2.17968765e-004
,,,-6.30000000e-009,-2.17187515e-004
,,,-6.27500000e-009,-2.11718765e-004
,,,-6.25000000e-009,-2.00000014e-004
,,,-6.22500000e-009,-1.80468763e-004
,,,-6.20000000e-009,-1.57031261e-004
,,,-6.17500000e-009,-1.28906259e-004
,,,-6.15000000e-009,-9.92187570e-005
,,,-6.12500000e-009,-7.03125050e-005
,,,-6.10000000e-009,-4.21875030e-005
,,,-6.07500000e-009,-1.87500013e-005
,,,-6.05000000e-009,0.00000000e+000
,,,-6.02500000e-009,1.17187508e-005
,,,-6.00000000e-009,1.71875012e-005
,,,-5.97500000e-009,1.79687513e-005
,,,-5.95000000e-009,1.48437511e-005
,,,-5.92500000e-009,1.01562507e-005
,,,-5.90000000e-009,4.68750033e-006
,,,-5.87500000e-009,7.81250055e-007
,,,-5.85000000e-009,0.00000000e+000
,,,-5.82500000e-009,0.00000000e+000
,,,-5.80000000e-009,3.12500022e-006
,,,-5.77500000e-009,7.03125050e-006
,,,-5.75000000e-009,1.17187508e-005
,,,-5.72500000e-009,1.40625010e-005
,,,-5.70000000e-009,1.40625010e-005
,,,-5.67500000e-009,9.37500066e-006
,,,-5.65000000e-009,0.00000000e+000
,,,-5.62500000e-009,-1.64062512e-005
,,,-5.60000000e-009,-3.75000027e-005
,,,-5.57500000e-009,-6.32812545e-005
,,,-5.55000000e-009,-9.21875065e-005
,,,-5.52500000e-009,-1.21875009e-004
,,,-5.50000000e-009,-1.50781261e-004
,,,-5.47500000e-009,-1.76562512e-004
,,,-5.45000000e-009,-2.00000014e-004
,,,-5.42500000e-009,-2.16406265e-004
,,,-5.40000000e-009,-2.26562516e-004
,,,-5.37500000e-009,-2.31250016e-004
,,,-5.35000000e-009,-2.31250016e-004
,,,-5.32500000e-009,-2.26562516e-004
,,,-5.30000000e-009,-2.18750015e-004
,,,-5.27500000e-009,-2.09375015e-004
,,,-5.25000000e-009,-2.00000014e-004
,,,-5.22500000e-009,-1.89843763e-004
,,,-5.20000000e-009,-1.82031263e-004
,,,-5.17500000e-009,-1.77343763e-004
,,,-5.15000000e-009,-1.75781262e-004
,,,-5.12500000e-009,-1.77343763e-004
,,,-5.10000000e-009,-1.82031263e-004
,,,-5.07500000e-009,-1.89843763e-004
,,,-5.05000000e-009,-2.00000014e-004
,,,-5.02500000e-009,-2.08593765e-004
,,,-5.00000000e-009,-2.16406265e-004
,,,-4.97500000e-009,-2.23437516e-004
,,,-4.95000000e-009,-2.27343766e-004
,,,-4.92500000e-009,-2.28125016e-004
,,,-4.90000000e-009,-2.24218766e-004
,,,-4.87500000e-009,-2.14062515e-004
,,,-4.85000000e-009,-2.00000014e-004
,,,-4.82500000e-009,-1.78125013e-004
,,,-4.80000000e-009,-1.53125011e-004
,,,-4.77500000e-009,-1.25000009e-004
,,,-4.75000000e-009,-9.60937568e-005
,,,-4.72500000e-009,-6.79687548e-005
,,,-4.70000000e-009,-4.14062529e-005
,,,-4.67500000e-009,-1.79687513e-005
,,,-4.65000000e-009,0.00000000e+000
,,,-4.62500000e-009,1.32812509e-005
,,,-4.60000000e-009,2.10937515e-005
,,,-4.57500000e-009,2.42187517e-005
,,,-4.55000000e-009,2.34375017e-005
,,,-4.52500000e-009,1.95312514e-005
,,,-4.50000000e-009,1.32812509e-005
,,,-4.47500000e-009,6.25000044e-006
,,,-4.45000000e-009,0.00000000e+000
,,,-4.42500000e-009,-5.46875039e-006
,,,-4.40000000e-009,-1.01562507e-005
,,,-4.37500000e-009,-1.17187508e-005
,,,-4.35000000e-009,-1.17187508e-005
,,,-4.32500000e-009,-9.37500066e-006
,,,-4.30000000e-009,-7.03125050e-006
,,,-4.27500000e-009,-3.12500022e-006
,,,-4.25000000e-009,0.00000000e+000
,,,-4.22500000e-009,2.34375017e-006
,,,-4.20000000e-009,5.46875039e-006
,,,-4.17500000e-009,7.03125050e-006
,,,-4.15000000e-009,7.03125050e-006
,,,-4.12500000e-009,7.03125050e-006
,,,-4.10000000e-009,5.46875039e-006
,,,-4.07500000e-009,2.34375017e-006
,,,-4.05000000e-009,0.00000000e+000
,,,-4.02500000e-009,-2.34375017e-006
,,,-4.00000000e-009,-5.46875039e-006
,,,-3.97500000e-009,-7.03125050e-006
,,,-3.95000000e-009,-7.03125050e-006
,,,-3.92500000e-009,-7.03125050e-006
,,,-3.90000000e-009,-5.46875039e-006
,,,-3.87500000e-009,-2.34375017e-006
,,,-3.85000000e-009,0.00000000e+000
,,,-3.82500000e-009,3.12500022e-006
,,,-3.80000000e-009,7.03125050e-006
,,,-3.77500000e-009,9.37500066e-006
,,,-3.75000000e-009,1.17187508e-005
,,,-3.72500000e-009,1.17187508e-005
,,,-3.70000000e-009,1.01562507e-005
,,,-3.67500000e-009,5.46875039e-006
,,,-3.65000000e-009,0.00000000e+000
,,,-3.62500000e-009,-6.25000044e-006
,,,-3.60000000e-009,-1.32812509e-005
,,,-3.57500000e-009,-1.95312514e-005
,,,-3.55000000e-009,-2.34375017e-005
,,,-3.52500000e-009,-2.42187517e-005
,,,-3.50000000e-009,-2.10937515e-005
,,,-3.47500000e-009,-1.32812509e-005
,,,-3.45000000e-009,0.00000000e+000
,,,-3.42500000e-009,1.79687513e-005
,,,-3.40000000e-009,4.14062529e-005
,,,-3.37500000e-009,6.79687548e-005
,,,-3.35000000e-009,9.60937568e-005
,,,-3.32500000e-009,1.25000009e-004
,,,-3.30000000e-009,1.53125011e-004
,,,-3.27500000e-009,1.78125013e-004
,,,-3.25000000e-009,2.00000014e-004
,,,-3.22500000e-009,2.14062515e-004
,,,-3.20000000e-009,2.24218766e-004
,,,-3.17500000e-009,2.28125016e-004
,,,-3.15000000e-009,2.27343766e-004
,,,-3.12500000e-009,2.23437516e-004
,,,-3.10000000e-009,2.16406265e-004
,,,-3.07500000e-009,2.08593765e-004
,,,-3.05000000e-009,2.00000014e-004
,,,-3.02500000e-009,1.92187514e-004
,,,-3.00000000e-009,1.85937513e-004
,,,-2.97500000e-009,1.82812513e-004
,,,-2.95000000e-009,1.82031263e-004
,,,-2.92500000e-009,1.84375013e-004
,,,-2.90000000e-009,1.88281263e-004
,,,-2.87500000e-009,1.93750014e-004
,,,-2.85000000e-009,2.00000014e-004
,,,-2.82500000e-009,2.06250015e-004
,,,-2.80000000e-009,2.11718765e-004
,,,-2.77500000e-009,2.16406265e-004
,,,-2.75000000e-009,2.19531266e-004
,,,-2.72500000e-009,2.19531266e-004
,,,-2.70000000e-009,2.16406265e-004
,,,-2.67500000e-009,2.10156265e-004
,,,-2.65000000e-009,2.00000014e-004
,,,-2.62500000e-009,1.85156263e-004
,,,-2.60000000e-009,1.67187512e-004
,,,-2.57500000e-009,1.45312510e-004
,,,-2.55000000e-009,1.20312509e-004
,,,-2.52500000e-009,9.21875065e-005
,,,-2.50000000e-009,6.17187544e-005
,,,-2.47500000e-009,3.04687522e-005
,,,-2.45000000e-009,0.00000000e+000
,,,-2.42500000e-009,-2.73437519e-005
,,,-2.40000000e-009,-5.00000035e-005
,,,-2.37500000e-009,-6.64062547e-005
,,,-2.35000000e-009,-7.42187553e-005
,,,-2.32500000e-009,-7.26562551e-005
,,,-2.30000000e-009,-5.93750042e-005
,,,-2.27500000e-009,-3.51562525e-005
,,,-2.25000000e-009,0.00000000e+000
,,,-2.22500000e-009,4.76562534e-005
,,,-2.20000000e-009,1.01562507e-004
,,,-2.17500000e-009,1.60156261e-004
,,,-2.15000000e-009,2.19531266e-004
,,,-2.12500000e-009,2.75781270e-004
,,,-2.10000000e-009,3.25781273e-004
,,,-2.07500000e-009,3.67968776e-004
,,,-2.05000000e-009,4.00000028e-004
,,,-2.02500000e-009,4.19531280e-004
,,,-2.00000000e-009,4.29687530e-004
,,,-1.97500000e-009,4.31250031e-004
,,,-1.95000000e-009,4.26562530e-004
,,,-1.92500000e-009,4.18750030e-004
,,,-1.90000000e-009,4.10156279e-004
,,,-1.87500000e-009,4.03125029e-004
,,,-1.85000000e-009,4.00000028e-004
,,,-1.82500000e-009,3.98437528e-004
,,,-1.80000000e-009,4.00781278e-004
,,,-1.77500000e-009,4.05468779e-004
,,,-1.75000000e-009,4.11718779e-004
,,,-1.72500000e-009,4.15625029e-004
,,,-1.70000000e-009,4.16406279e-004
,,,-1.67500000e-009,4.11718779e-004
,,,-1.65000000e-009,4.00000028e-004
,,,-1.62500000e-009,3.78125027e-004
,,,-1.60000000e-009,3.50000025e-004
,,,-1.57500000e-009,3.17968773e-004
,,,-1.55000000e-009,2.85156270e-004
,,,-1.52500000e-009,2.53906268e-004
,,,-1.50000000e-009,2.27343766e-004
,,,-1.47500000e-009,2.08593765e-004
,,,-1.45000000e-009,2.00000014e-004
,,,-1.42500000e-009,1.95312514e-004
,,,-1.40000000e-009,2.01562514e-004
,,,-1.37500000e-009,2.17968765e-004
,,,-1.35000000e-009,2.44531267e-004
,,,-1.32500000e-009,2.78125020e-004
,,,-1.30000000e-009,3.17187522e-004
,,,-1.27500000e-009,3.58593775e-004
,,,-1.25000000e-009,4.00000028e-004
,,,-1.22500000e-009,4.21875030e-004
,,,-1.20000000e-009,4.37500031e-004
,,,-1.17500000e-009,4.44531281e-004
,,,-1.15000000e-009,4.44531281e-004
,,,-1.12500000e-009,4.39062531e-004
,,,-1.10000000e-009,4.28906280e-004
,,,-1.07500000e-009,4.14843779e-004
,,,-1.05000000e-009,4.00000028e-004
,,,-1.02500000e-009,3.59375025e-004
,,,-1.00000000e-009,3.16406272e-004
,,,-9.75000000e-010,2.75000019e-004
,,,-9.50000000e-010,2.39062517e-004
,,,-9.25000000e-010,2.12500015e-004
,,,-9.00000000e-010,1.96093764e-004
,,,-8.75000000e-010,1.92187514e-004
,,,-8.50000000e-010,2.00000014e-004
,,,-8.25000000e-010,1.79687513e-004
,,,-8.00000000e-010,1.59375011e-004
,,,-7.75000000e-010,1.39062510e-004
,,,-7.50000000e-010,1.17968758e-004
,,,-7.25000000e-010,9.45312567e-005
,,,-7.00000000e-010,6.87500049e-005
,,,-6.75000000e-010,3.75000027e-005
,,,-6.50000000e-010,0.00000000e+000
,,,-6.25000000e-010,-9.21875065e-005
,,,-6.00000000e-010,-2.01562514e-004
,,,-5.75000000e-010,-3.25000023e-004
,,,-5.50000000e-010,-4.57812532e-004
,,,-5.25000000e-010,-5.95312542e-004
,,,-5.00000000e-010,-7.33593802e-004
,,,-4.75000000e-010,-8.68750061e-004
,,,-4.50000000e-010,-1.00000007e-003
,,,-4.25000000e-010,-1.17031258e-003
,,,-4.00000000e-010,-1.34531260e-003
,,,-3.75000000e-010,-1.52109386e-003
,,,-3.50000000e-010,-1.69765637e-003
,,,-3.25000000e-010,-1.87265638e-003
,,,-3.00000000e-010,-2.04687514e-003
,,,-2.75000000e-010,-2.22109391e-003
,,,-2.50000000e-010,-2.40000017e-003
,,,-2.25000000e-010,-2.61718769e-003
,,,-2.00000000e-010,-2.85312520e-003
,,,-1.75000000e-010,-3.10703147e-003
,,,-1.50000000e-010,-3.37812524e-003
,,,-1.25000000e-010,-3.66562526e-003
,,,-1.00000000e-010,-3.96562528e-003
,,,-7.50000000e-011,-4.27734405e-003
,,,-5.00000000e-011,-4.60000033e-003
,,,-2.50000000e-011,-4.94296910e-003
,,,0.00000000e+000,-5.29765662e-003
,,,2.50000000e-011,-5.66015665e-003
,,,5.00000000e-011,-6.02421918e-003
,,,7.50000000e-011,-6.38515670e-003
,,,1.00000000e-010,-6.73750048e-003
,,,1.25000000e-010,-7.07656300e-003
,,,1.50000000e-010,-7.40000052e-003
,,,1.75000000e-010,-7.69296929e-003
,,,2.00000000e-010,-7.97812556e-003
,,,2.25000000e-010,-8.25781308e-003
,,,2.50000000e-010,-8.53281310e-003
,,,2.75000000e-010,-8.80468812e-003
,,,3.00000000e-010,-9.07343814e-003
,,,3.25000000e-010,-9.33828191e-003
,,,3.50000000e-010,-9.60000068e-003
,,,3.75000000e-010,-9.82031320e-003
,,,4.00000000e-010,-1.00421882e-002
,,,4.25000000e-010,-1.02632820e-002
,,,4.50000000e-010,-1.04796882e-002
,,,4.75000000e-010,-1.06875008e-002
,,,5.00000000e-010,-1.08796883e-002
,,,5.25000000e-010,-1.10523445e-002
,,,5.50000000e-010,-1.12000008e-002
,,,5.75000000e-010,-1.12718758e-002
,,,6.00000000e-010,-1.13281258e-002
,,,6.25000000e-010,-1.13750008e-002
,,,6.50000000e-010,-1.14171883e-002
,,,6.75000000e-010,-1.14578133e-002
,,,7.00000000e-010,-1.15007821e-002
,,,7.25000000e-010,-1.15476571e-002
,,,7.50000000e-010,-1.16000008e-002
,,,7.75000000e-010,-1.16039071e-002
,,,8.00000000e-010,-1.16195321e-002
,,,8.25000000e-010,-1.16468758e-002
,,,8.50000000e-010,-1.16820321e-002
,,,8.75000000e-010,-1.17210946e-002
,,,9.00000000e-010,-1.17578133e-002
,,,9.25000000e-010,-1.17859383e-002
,,,9.50000000e-010,-1.18000008e-002
,,,9.75000000e-010,-1.17453133e-002
,,,1.00000000e-009,-1.16781258e-002
,,,1.02500000e-009,-1.16023446e-002
,,,1.05000000e-009,-1.15203133e-002
,,,1.07500000e-009,-1.14367196e-002
,,,1.10000000e-009,-1.13539071e-002
,,,1.12500000e-009,-1.12750008e-002
,,,1.15000000e-009,-1.12000008e-002
,,,1.17500000e-009,-1.10867195e-002
,,,1.20000000e-009,-1.09781258e-002
,,,1.22500000e-009,-1.08757820e-002
,,,1.25000000e-009,-1.07789070e-002
,,,1.27500000e-009,-1.06851570e-002
,,,1.30000000e-009,-1.05929695e-002
,,,1.32500000e-009,-1.04984382e-002
,,,1.35000000e-009,-1.04000007e-002
,,,1.37500000e-009,-1.02625007e-002
,,,1.40000000e-009,-1.01148445e-002
,,,1.42500000e-009,-9.96015695e-003
,,,1.45000000e-009,-9.80156319e-003
,,,1.47500000e-009,-9.64296943e-003
,,,1.50000000e-009,-9.48828192e-003
,,,1.52500000e-009,-9.33984441e-003
,,,1.55000000e-009,-9.20000065e-003
,,,1.57500000e-009,-9.05000064e-003
,,,1.60000000e-009,-8.90625063e-003
,,,1.62500000e-009,-8.76875062e-003
,,,1.65000000e-009,-8.63984436e-003
,,,1.67500000e-009,-8.51875060e-003
,,,1.70000000e-009,-8.40625059e-003
,,,1.72500000e-009,-8.30078184e-003
,,,1.75000000e-009,-8.20000058e-003
,,,1.77500000e-009,-8.08437557e-003
,,,1.80000000e-009,-7.95937556e-003
,,,1.82500000e-009,-7.82343805e-003
,,,1.85000000e-009,-7.67734429e-003
,,,1.87500000e-009,-7.52031303e-003
,,,1.90000000e-009,-7.35468802e-003
,,,1.92500000e-009,-7.18046926e-003
,,,1.95000000e-009,-7.00000050e-003
,,,1.97500000e-009,-6.80625048e-003
,,,2.00000000e-009,-6.60156297e-003
,,,2.02500000e-009,-6.38984420e-003
,,,2.05000000e-009,-6.17578169e-003
,,,2.07500000e-009,-5.96484417e-003
,,,2.10000000e-009,-5.76250041e-003
,,,2.12500000e-009,-5.57343789e-003
,,,2.15000000e-009,-5.40000038e-003
,,,2.17500000e-009,-5.24531287e-003
,,,2.20000000e-009,-5.10078161e-003
,,,2.22500000e-009,-4.96484410e-003
,,,2.25000000e-009,-4.83750034e-003
,,,2.27500000e-009,-4.71796908e-003
,,,2.30000000e-009,-4.60625033e-003
,,,2.32500000e-009,-4.50078157e-003
,,,2.35000000e-009,-4.40000031e-003
,,,2.37500000e-009,-4.30703155e-003
,,,2.40000000e-009,-4.20468780e-003
,,,2.42500000e-009,-4.09140654e-003
,,,2.45000000e-009,-3.96796903e-003
,,,2.47500000e-009,-3.83515652e-003
,,,2.50000000e-009,-3.69453151e-003
,,,2.52500000e-009,-3.54921900e-003
,,,2.55000000e-009,-3.40000024e-003
,,,2.57500000e-009,-3.25937523e-003
,,,2.60000000e-009,-3.11171897e-003
,,,2.62500000e-009,-2.95859396e-003
,,,2.65000000e-009,-2.80234395e-003
,,,2.67500000e-009,-2.64531269e-003
,,,2.70000000e-009,-2.49062518e-003
,,,2.72500000e-009,-2.34140642e-003
,,,2.75000000e-009,-2.20000016e-003
,,,2.77500000e-009,-2.08281265e-003
,,,2.80000000e-009,-1.97031264e-003
,,,2.82500000e-009,-1.86015638e-003
,,,2.85000000e-009,-1.75468762e-003
,,,2.87500000e-009,-1.65468762e-003
,,,2.90000000e-009,-1.56171886e-003
,,,2.92500000e-009,-1.47656260e-003
,,,2.95000000e-009,-1.40000010e-003
,,,2.97500000e-009,-1.34843760e-003
,,,3.00000000e-009,-1.29843759e-003
,,,3.02500000e-009,-1.24765634e-003
,,,3.05000000e-009,-1.19687508e-003
,,,3.07500000e-009,-1.14531258e-003
,,,3.10000000e-009,-1.09453133e-003
,,,3.12500000e-009,-1.04531257e-003
,,,3.15000000e-009,-1.00000007e-003
,,,3.17500000e-009,-9.70312569e-004
,,,3.20000000e-009,-9.40625067e-004
,,,3.22500000e-009,-9.10156314e-004
,,,3.25000000e-009,-8.80468812e-004
,,,3.27500000e-009,-8.53125060e-004
,,,3.30000000e-009,-8.29687559e-004
,,,3.32500000e-009,-8.11718807e-004
,,,3.35000000e-009,-8.00000057e-004
,,,3.37500000e-009,-8.04687557e-004
,,,3.40000000e-009,-8.10937557e-004
,,,3.42500000e-009,-8.16406308e-004
,,,3.45000000e-009,-8.19531308e-004
,,,3.47500000e-009,-8.19531308e-004
,,,3.50000000e-009,-8.16406308e-004
,,,3.52500000e-009,-8.10156307e-004
,,,3.55000000e-009,-8.00000057e-004
,,,3.57500000e-009,-7.92187556e-004
,,,3.60000000e-009,-7.77343805e-004
,,,3.62500000e-009,-7.55468803e-004
,,,3.65000000e-009,-7.28906302e-004
,,,3.67500000e-009,-6.97656299e-004
,,,3.70000000e-009,-6.64843797e-004
,,,3.72500000e-009,-6.31250045e-004
,,,3.75000000e-009,-6.00000042e-004
,,,3.77500000e-009,-5.75781291e-004
,,,3.80000000e-009,-5.52343789e-004
,,,3.82500000e-009,-5.28906287e-004
,,,3.85000000e-009,-5.05468786e-004
,,,3.87500000e-009,-4.81250034e-004
,,,3.90000000e-009,-4.55468782e-004
,,,3.92500000e-009,-4.28906280e-004
,,,3.95000000e-009,-4.00000028e-004
,,,3.97500000e-009,-3.74218776e-004
,,,4.00000000e-009,-3.46875025e-004
,,,4.02500000e-009,-3.18750023e-004
,,,4.05000000e-009,-2.90625021e-004
,,,4.07500000e-009,-2.63281269e-004
,,,4.10000000e-009,-2.38281267e-004
,,,4.12500000e-009,-2.16406265e-004
,,,4.15000000e-009,-2.00000014e-004
,,,4.17500000e-009,-1.92968764e-004
,,,4.20000000e-009,-1.91406264e-004
,,,4.22500000e-009,-1.92187514e-004
,,,4.25000000e-009,-1.94531264e-004
,,,4.27500000e-009,-1.97656264e-004
,,,4.30000000e-009,-2.00000014e-004
,,,4.32500000e-009,-2.00781264e-004
,,,4.35000000e-009,-2.00000014e-004
,,,4.37500000e-009,-2.02343764e-004
,,,4.40000000e-009,-2.02343764e-004
,,,4.42500000e-009,-2.00781264e-004
,,,4.45000000e-009,-1.98437514e-004
,,,4.47500000e-009,-1.95312514e-004
,,,4.50000000e-009,-1.93750014e-004
,,,4.52500000e-009,-1.95312514e-004
,,,4.55000000e-009,-2.00000014e-004
,,,4.57500000e-009,-2.13281265e-004
,,,4.60000000e-009,-2.32031266e-004
,,,4.62500000e-009,-2.53906268e-004
,,,4.65000000e-009,-2.78906270e-004
,,,4.67500000e-009,-3.07031272e-004
,,,4.70000000e-009,-3.37500024e-004
,,,4.72500000e-009,-3.68750026e-004
,,,4.75000000e-009,-4.00000028e-004
,,,4.77500000e-009,-4.32812531e-004
,,,4.80000000e-009,-4.64062533e-004
,,,4.82500000e-009,-4.92968785e-004
,,,4.85000000e-009,-5.19531287e-004
,,,4.87500000e-009,-5.42968788e-004
,,,4.90000000e-009,-5.63281290e-004
,,,4.92500000e-009,-5.82031291e-004
,,,4.95000000e-009,-6.00000042e-004
,,,4.97500000e-009,-6.16406294e-004
,,,5.00000000e-009,-6.34375045e-004
,,,5.02500000e-009,-6.53125046e-004
,,,5.05000000e-009,-6.75781298e-004
,,,5.07500000e-009,-7.00781300e-004
,,,5.10000000e-009,-7.30468802e-004
,,,5.12500000e-009,-7.63281304e-004
,,,5.15000000e-009,-8.00000057e-004
,,,5.17500000e-009,-8.33593809e-004
,,,5.20000000e-009,-8.67968811e-004
,,,5.22500000e-009,-9.01562564e-004
,,,5.25000000e-009,-9.32812566e-004
,,,5.27500000e-009,-9.59375068e-004
,,,5.30000000e-009,-9.80468819e-004
,,,5.32500000e-009,-9.94531320e-004
,,,5.35000000e-009,-1.00000007e-003
,,,5.37500000e-009,-9.89062570e-004
,,,5.40000000e-009,-9.71093819e-004
,,,5.42500000e-009,-9.46093817e-004
,,,5.45000000e-009,-9.17187565e-004
,,,5.47500000e-009,-8.85937563e-004
,,,5.50000000e-009,-8.54687560e-004
,,,5.52500000e-009,-8.25000058e-004
,,,5.55000000e-009,-8.00000057e-004
,,,5.57500000e-009,-7.72656305e-004
,,,5.60000000e-009,-7.52343803e-004
,,,5.62500000e-009,-7.40625052e-004
,,,5.65000000e-009,-7.38281302e-004
,,,5.67500000e-009,-7.43750053e-004
,,,5.70000000e-009,-7.56250054e-004
,,,5.72500000e-009,-7.75781305e-004
,,,5.75000000e-009,-8.00000057e-004
,,,5.77500000e-009,-8.19531308e-004
,,,5.80000000e-009,-8.37500059e-004
,,,5.82500000e-009,-8.51562560e-004
,,,5.85000000e-009,-8.60156311e-004
,,,5.87500000e-009,-8.60156311e-004
,,,5.90000000e-009,-8.50781310e-004
,,,5.92500000e-009,-8.30468809e-004
