RawData/SinglePhotoelectron/R1_2pt2B_5mV/wave028_Ch2.csv

"Record Length",1000,"Points",-7.72500000e-009,4.11718779e-004
"Sample Interval",2.50000000e-011,s,-7.70000000e-009,4.10156279e-004
"Trigger Point",309,"Samples",-7.67500000e-009,3.94531278e-004
"Trigger Time",1.88626573e-011,s,-7.65000000e-009,3.67968776e-004
"",,,-7.62500000e-009,3.32031274e-004
"Horizontal Offset",-7.72500000e-009,s,-7.60000000e-009,2.89843771e-004
,,,-7.57500000e-009,2.45312517e-004
,,,-7.55000000e-009,2.00000014e-004
,,,-7.52500000e-009,1.53125011e-004
,,,-7.50000000e-009,1.11718758e-004
,,,-7.47500000e-009,7.65625054e-005
,,,-7.45000000e-009,4.84375034e-005
,,,-7.42500000e-009,2.73437519e-005
,,,-7.40000000e-009,1.25000009e-005
,,,-7.37500000e-009,3.90625028e-006
,,,-7.35000000e-009,0.00000000e+000
,,,-7.32500000e-009,-2.34375017e-006
,,,-7.30000000e-009,-3.12500022e-006
,,,-7.27500000e-009,-3.12500022e-006
,,,-7.25000000e-009,-2.34375017e-006
,,,-7.22500000e-009,-1.56250011e-006
,,,-7.20000000e-009,-7.81250055e-007
,,,-7.17500000e-009,0.00000000e+000
,,,-7.15000000e-009,0.00000000e+000
,,,-7.12500000e-009,-7.81250055e-007
,,,-7.10000000e-009,-1.56250011e-006
,,,-7.07500000e-009,-2.34375017e-006
,,,-7.05000000e-009,-3.12500022e-006
,,,-7.02500000e-009,-3.12500022e-006
,,,-7.00000000e-009,-2.34375017e-006
,,,-6.97500000e-009,-1.56250011e-006
,,,-6.95000000e-009,0.00000000e+000
,,,-6.92500000e-009,2.34375017e-006
,,,-6.90000000e-009,4.68750033e-006
,,,-6.87500000e-009,7.81250055e-006
,,,-6.85000000e-009,9.37500066e-006
,,,-6.82500000e-009,1.09375008e-005
,,,-6.80000000e-009,1.01562507e-005
,,,-6.77500000e-009,6.25000044e-006
,,,-6.75000000e-009,0.00000000e+000
,,,-6.72500000e-009,-8.59375061e-006
,,,-6.70000000e-009,-2.26562516e-005
,,,-6.67500000e-009,-4.06250029e-005
,,,-6.65000000e-009,-6.48437546e-005
,,,-6.62500000e-009,-9.29687566e-005
,,,-6.60000000e-009,-1.25781259e-004
,,,-6.57500000e-009,-1.61718761e-004
,,,-6.55000000e-009,-2.00000014e-004
,,,-6.52500000e-009,-2.35937517e-004
,,,-6.50000000e-009,-2.71875019e-004
,,,-6.47500000e-009,-3.05468772e-004
,,,-6.45000000e-009,-3.35156274e-004
,,,-6.42500000e-009,-3.60937526e-004
,,,-6.40000000e-009,-3.80468777e-004
,,,-6.37500000e-009,-3.93750028e-004
,,,-6.35000000e-009,-4.00000028e-004
,,,-6.32500000e-009,-3.93750028e-004
,,,-6.30000000e-009,-3.80468777e-004
,,,-6.27500000e-009,-3.60937526e-004
,,,-6.25000000e-009,-3.35156274e-004
,,,-6.22500000e-009,-3.05468772e-004
,,,-6.20000000e-009,-2.71875019e-004
,,,-6.17500000e-009,-2.35937517e-004
,,,-6.15000000e-009,-2.00000014e-004
,,,-6.12500000e-009,-1.61718761e-004
,,,-6.10000000e-009,-1.25781259e-004
,,,-6.07500000e-009,-9.29687566e-005
,,,-6.05000000e-009,-6.48437546e-005
,,,-6.02500000e-009,-4.06250029e-005
,,,-6.00000000e-009,-2.26562516e-005
,,,-5.97500000e-009,-8.59375061e-006
,,,-5.95000000e-009,0.00000000e+000
,,,-5.92500000e-009,4.68750033e-006
,,,-5.90000000e-009,6.25000044e-006
,,,-5.87500000e-009,4.68750033e-006
,,,-5.85000000e-009,3.12500022e-006
,,,-5.82500000e-009,7.81250055e-007
,,,-5.80000000e-009,0.00000000e+000
,,,-5.77500000e-009,-7.81250055e-007
,,,-5.75000000e-009,0.00000000e+000
,,,-5.72500000e-009,2.34375017e-006
,,,-5.70000000e-009,5.46875039e-006
,,,-5.67500000e-009,8.59375061e-006
,,,-5.65000000e-009,1.17187508e-005
,,,-5.62500000e-009,1.25000009e-005
,,,-5.60000000e-009,1.09375008e-005
,,,-5.57500000e-009,6.25000044e-006
,,,-5.55000000e-009,0.00000000e+000
,,,-5.52500000e-009,-9.37500066e-006
,,,-5.50000000e-009,-1.95312514e-005
,,,-5.47500000e-009,-2.89062520e-005
,,,-5.45000000e-009,-3.43750024e-005
,,,-5.42500000e-009,-3.59375025e-005
,,,-5.40000000e-009,-3.12500022e-005
,,,-5.37500000e-009,-1.87500013e-005
,,,-5.35000000e-009,0.00000000e+000
,,,-5.32500000e-009,2.42187517e-005
,,,-5.30000000e-009,5.39062538e-005
,,,-5.27500000e-009,8.67187561e-005
,,,-5.25000000e-009,1.20312509e-004
,,,-5.22500000e-009,1.50781261e-004
,,,-5.20000000e-009,1.75781262e-004
,,,-5.17500000e-009,1.92187514e-004
,,,-5.15000000e-009,2.00000014e-004
,,,-5.12500000e-009,1.94531264e-004
,,,-5.10000000e-009,1.79687513e-004
,,,-5.07500000e-009,1.56250011e-004
,,,-5.05000000e-009,1.26562509e-004
,,,-5.02500000e-009,9.37500066e-005
,,,-5.00000000e-009,6.01562543e-005
,,,-4.97500000e-009,2.73437519e-005
,,,-4.95000000e-009,0.00000000e+000
,,,-4.92500000e-009,-2.18750015e-005
,,,-4.90000000e-009,-3.59375025e-005
,,,-4.87500000e-009,-4.29687530e-005
,,,-4.85000000e-009,-4.29687530e-005
,,,-4.82500000e-009,-3.75000027e-005
,,,-4.80000000e-009,-2.65625019e-005
,,,-4.77500000e-009,-1.32812509e-005
,,,-4.75000000e-009,0.00000000e+000
,,,-4.72500000e-009,1.32812509e-005
,,,-4.70000000e-009,2.50000018e-005
,,,-4.67500000e-009,3.28125023e-005
,,,-4.65000000e-009,3.59375025e-005
,,,-4.62500000e-009,3.35937524e-005
,,,-4.60000000e-009,2.57812518e-005
,,,-4.57500000e-009,1.40625010e-005
,,,-4.55000000e-009,0.00000000e+000
,,,-4.52500000e-009,-1.56250011e-005
,,,-4.50000000e-009,-3.12500022e-005
,,,-4.47500000e-009,-4.37500031e-005
,,,-4.45000000e-009,-5.07812536e-005
,,,-4.42500000e-009,-5.07812536e-005
,,,-4.40000000e-009,-4.29687530e-005
,,,-4.37500000e-009,-2.57812518e-005
,,,-4.35000000e-009,0.00000000e+000
,,,-4.32500000e-009,3.20312523e-005
,,,-4.30000000e-009,6.95312549e-005
,,,-4.27500000e-009,1.07812508e-004
,,,-4.25000000e-009,1.42968760e-004
,,,-4.22500000e-009,1.72656262e-004
,,,-4.20000000e-009,1.93750014e-004
,,,-4.17500000e-009,2.03125014e-004
,,,-4.15000000e-009,2.00000014e-004
,,,-4.12500000e-009,1.82812513e-004
,,,-4.10000000e-009,1.54687511e-004
,,,-4.07500000e-009,1.21093759e-004
,,,-4.05000000e-009,8.43750060e-005
,,,-4.02500000e-009,5.00000035e-005
,,,-4.00000000e-009,2.18750015e-005
,,,-3.97500000e-009,4.68750033e-006
,,,-3.95000000e-009,0.00000000e+000
,,,-3.92500000e-009,8.59375061e-006
,,,-3.90000000e-009,2.96875021e-005
,,,-3.87500000e-009,5.93750042e-005
,,,-3.85000000e-009,9.53125067e-005
,,,-3.82500000e-009,1.31250009e-004
,,,-3.80000000e-009,1.63281262e-004
,,,-3.77500000e-009,1.87500013e-004
,,,-3.75000000e-009,2.00000014e-004
,,,-3.72500000e-009,1.96875014e-004
,,,-3.70000000e-009,1.82031263e-004
,,,-3.67500000e-009,1.56250011e-004
,,,-3.65000000e-009,1.23437509e-004
,,,-3.62500000e-009,8.75000062e-005
,,,-3.60000000e-009,5.23437537e-005
,,,-3.57500000e-009,2.26562516e-005
,,,-3.55000000e-009,0.00000000e+000
,,,-3.52500000e-009,-1.32812509e-005
,,,-3.50000000e-009,-1.79687513e-005
,,,-3.47500000e-009,-1.48437511e-005
,,,-3.45000000e-009,-7.03125050e-006
,,,-3.42500000e-009,7.81250055e-007
,,,-3.40000000e-009,6.25000044e-006
,,,-3.37500000e-009,7.03125050e-006
,,,-3.35000000e-009,0.00000000e+000
,,,-3.32500000e-009,-1.56250011e-005
,,,-3.30000000e-009,-3.98437528e-005
,,,-3.27500000e-009,-7.03125050e-005
,,,-3.25000000e-009,-1.03906257e-004
,,,-3.22500000e-009,-1.36718760e-004
,,,-3.20000000e-009,-1.66406262e-004
,,,-3.17500000e-009,-1.87500013e-004
,,,-3.15000000e-009,-2.00000014e-004
,,,-3.12500000e-009,-1.97656264e-004
,,,-3.10000000e-009,-1.84375013e-004
,,,-3.07500000e-009,-1.60937511e-004
,,,-3.05000000e-009,-1.31250009e-004
,,,-3.02500000e-009,-9.68750069e-005
,,,-3.00000000e-009,-6.17187544e-005
,,,-2.97500000e-009,-2.81250020e-005
,,,-2.95000000e-009,0.00000000e+000
,,,-2.92500000e-009,2.03125014e-005
,,,-2.90000000e-009,3.28125023e-005
,,,-2.87500000e-009,3.75000027e-005
,,,-2.85000000e-009,3.51562525e-005
,,,-2.82500000e-009,2.89062520e-005
,,,-2.80000000e-009,1.95312514e-005
,,,-2.77500000e-009,8.59375061e-006
,,,-2.75000000e-009,0.00000000e+000
,,,-2.72500000e-009,-7.81250055e-006
,,,-2.70000000e-009,-1.32812509e-005
,,,-2.67500000e-009,-1.56250011e-005
,,,-2.65000000e-009,-1.48437511e-005
,,,-2.62500000e-009,-1.25000009e-005
,,,-2.60000000e-009,-8.59375061e-006
,,,-2.57500000e-009,-3.90625028e-006
,,,-2.55000000e-009,0.00000000e+000
,,,-2.52500000e-009,3.12500022e-006
,,,-2.50000000e-009,5.46875039e-006
,,,-2.47500000e-009,6.25000044e-006
,,,-2.45000000e-009,6.25000044e-006
,,,-2.42500000e-009,4.68750033e-006
,,,-2.40000000e-009,3.12500022e-006
,,,-2.37500000e-009,1.56250011e-006
,,,-2.35000000e-009,0.00000000e+000
,,,-2.32500000e-009,-2.34375017e-006
,,,-2.30000000e-009,-4.68750033e-006
,,,-2.27500000e-009,-6.25000044e-006
,,,-2.25000000e-009,-6.25000044e-006
,,,-2.22500000e-009,-5.46875039e-006
,,,-2.20000000e-009,-3.12500022e-006
,,,-2.17500000e-009,-7.81250055e-007
,,,-2.15000000e-009,0.00000000e+000
,,,-2.12500000e-009,-2.34375017e-006
,,,-2.10000000e-009,-8.59375061e-006
,,,-2.07500000e-009,-2.10937515e-005
,,,-2.05000000e-009,-3.98437528e-005
,,,-2.02500000e-009,-6.71875048e-005
,,,-2.00000000e-009,-1.03125007e-004
,,,-1.97500000e-009,-1.47656260e-004
,,,-1.95000000e-009,-2.00000014e-004
,,,-1.92500000e-009,-2.55468768e-004
,,,-1.90000000e-009,-3.10937522e-004
,,,-1.87500000e-009,-3.61718776e-004
,,,-1.85000000e-009,-4.03125029e-004
,,,-1.82500000e-009,-4.30468780e-004
,,,-1.80000000e-009,-4.39843781e-004
,,,-1.77500000e-009,-4.29687530e-004
,,,-1.75000000e-009,-4.00000028e-004
,,,-1.72500000e-009,-3.50781275e-004
,,,-1.70000000e-009,-2.89062520e-004
,,,-1.67500000e-009,-2.20312516e-004
,,,-1.65000000e-009,-1.50781261e-004
,,,-1.62500000e-009,-8.82812562e-005
,,,-1.60000000e-009,-3.90625028e-005
,,,-1.57500000e-009,-8.59375061e-006
,,,-1.55000000e-009,0.00000000e+000
,,,-1.52500000e-009,-1.95312514e-005
,,,-1.50000000e-009,-6.09375043e-005
,,,-1.47500000e-009,-1.18750008e-004
,,,-1.45000000e-009,-1.85937513e-004
,,,-1.42500000e-009,-2.54687518e-004
,,,-1.40000000e-009,-3.17968773e-004
,,,-1.37500000e-009,-3.67968776e-004
,,,-1.35000000e-009,-4.00000028e-004
,,,-1.32500000e-009,-4.17968780e-004
,,,-1.30000000e-009,-4.16406279e-004
,,,-1.27500000e-009,-3.97656278e-004
,,,-1.25000000e-009,-3.64843776e-004
,,,-1.22500000e-009,-3.22656273e-004
,,,-1.20000000e-009,-2.78125020e-004
,,,-1.17500000e-009,-2.35156267e-004
,,,-1.15000000e-009,-2.00000014e-004
,,,-1.12500000e-009,-1.92187514e-004
,,,-1.10000000e-009,-2.01562514e-004
,,,-1.07500000e-009,-2.24218766e-004
,,,-1.05000000e-009,-2.57812518e-004
,,,-1.02500000e-009,-2.96875021e-004
,,,-1.00000000e-009,-3.36718774e-004
,,,-9.75000000e-010,-3.71875026e-004
,,,-9.50000000e-010,-4.00000028e-004
,,,-9.25000000e-010,-4.42968781e-004
,,,-9.00000000e-010,-4.80468784e-004
,,,-8.75000000e-010,-5.11718786e-004
,,,-8.50000000e-010,-5.35937538e-004
,,,-8.25000000e-010,-5.54687539e-004
,,,-8.00000000e-010,-5.70312540e-004
,,,-7.75000000e-010,-5.83593791e-004
,,,-7.50000000e-010,-6.00000042e-004
,,,-7.25000000e-010,-6.50000046e-004
,,,-7.00000000e-010,-7.12500050e-004
,,,-6.75000000e-010,-7.83593805e-004
,,,-6.50000000e-010,-8.63281311e-004
,,,-6.25000000e-010,-9.46093817e-004
,,,-6.00000000e-010,-1.03125007e-003
,,,-5.75000000e-010,-1.11562508e-003
,,,-5.50000000e-010,-1.20000008e-003
,,,-5.25000000e-010,-1.31093759e-003
,,,-5.00000000e-010,-1.42656260e-003
,,,-4.75000000e-010,-1.54765636e-003
,,,-4.50000000e-010,-1.67109387e-003
,,,-4.25000000e-010,-1.79843763e-003
,,,-4.00000000e-010,-1.92812514e-003
,,,-3.75000000e-010,-2.06093765e-003
,,,-3.50000000e-010,-2.20000016e-003
,,,-3.25000000e-010,-2.36171892e-003
,,,-3.00000000e-010,-2.53671893e-003
,,,-2.75000000e-010,-2.72343769e-003
,,,-2.50000000e-010,-2.92187521e-003
,,,-2.25000000e-010,-3.13046897e-003
,,,-2.00000000e-010,-3.34687524e-003
,,,-1.75000000e-010,-3.57109400e-003
,,,-1.50000000e-010,-3.80000027e-003
,,,-1.25000000e-010,-4.02734404e-003
,,,-1.00000000e-010,-4.25937530e-003
,,,-7.50000000e-011,-4.49296907e-003
,,,-5.00000000e-011,-4.72500033e-003
,,,-2.50000000e-011,-4.95390660e-003
,,,0.00000000e+000,-5.17734412e-003
,,,2.50000000e-011,-5.39296913e-003
,,,5.00000000e-011,-5.60000040e-003
,,,7.50000000e-011,-5.77187541e-003
,,,1.00000000e-010,-5.93984417e-003
,,,1.25000000e-010,-6.10703168e-003
,,,1.50000000e-010,-6.27578169e-003
,,,1.75000000e-010,-6.44843796e-003
,,,2.00000000e-010,-6.62734422e-003
,,,2.25000000e-010,-6.81093798e-003
,,,2.50000000e-010,-7.00000050e-003
,,,2.75000000e-010,-7.14609426e-003
,,,3.00000000e-010,-7.29375052e-003
,,,3.25000000e-010,-7.43906303e-003
,,,3.50000000e-010,-7.58046929e-003
,,,3.75000000e-010,-7.71250055e-003
,,,4.00000000e-010,-7.83046930e-003
,,,4.25000000e-010,-7.92734431e-003
,,,4.50000000e-010,-8.00000057e-003
,,,4.75000000e-010,-7.98906307e-003
,,,5.00000000e-010,-7.95312556e-003
,,,5.25000000e-010,-7.89453181e-003
,,,5.50000000e-010,-7.81718805e-003
,,,5.75000000e-010,-7.72656305e-003
,,,6.00000000e-010,-7.62421929e-003
,,,6.25000000e-010,-7.51484428e-003
,,,6.50000000e-010,-7.40000052e-003
,,,6.75000000e-010,-7.23281301e-003
,,,7.00000000e-010,-7.06718800e-003
,,,7.25000000e-010,-6.90703174e-003
,,,7.50000000e-010,-6.75390673e-003
,,,7.75000000e-010,-6.60859422e-003
,,,8.00000000e-010,-6.46875046e-003
,,,8.25000000e-010,-6.33359420e-003
,,,8.50000000e-010,-6.20000044e-003
,,,8.75000000e-010,-6.02968793e-003
,,,9.00000000e-010,-5.85781291e-003
,,,9.25000000e-010,-5.68359415e-003
,,,9.50000000e-010,-5.50781289e-003
,,,9.75000000e-010,-5.33125038e-003
,,,1.00000000e-009,-5.15390661e-003
,,,1.02500000e-009,-4.97656285e-003
,,,1.05000000e-009,-4.80000034e-003
,,,1.07500000e-009,-4.60781283e-003
,,,1.10000000e-009,-4.41640656e-003
,,,1.12500000e-009,-4.22734405e-003
,,,1.15000000e-009,-4.04375029e-003
,,,1.17500000e-009,-3.86718777e-003
,,,1.20000000e-009,-3.70078151e-003
,,,1.22500000e-009,-3.54453150e-003
,,,1.25000000e-009,-3.40000024e-003
,,,1.27500000e-009,-3.26640648e-003
,,,1.30000000e-009,-3.13750022e-003
,,,1.32500000e-009,-3.01250021e-003
,,,1.35000000e-009,-2.88906270e-003
,,,1.37500000e-009,-2.76640645e-003
,,,1.40000000e-009,-2.64453144e-003
,,,1.42500000e-009,-2.52265643e-003
,,,1.45000000e-009,-2.40000017e-003
,,,1.47500000e-009,-2.28984391e-003
,,,1.50000000e-009,-2.17265640e-003
,,,1.52500000e-009,-2.04843764e-003
,,,1.55000000e-009,-1.91796889e-003
,,,1.57500000e-009,-1.78515638e-003
,,,1.60000000e-009,-1.65156262e-003
,,,1.62500000e-009,-1.52265636e-003
,,,1.65000000e-009,-1.40000010e-003
,,,1.67500000e-009,-1.30937509e-003
,,,1.70000000e-009,-1.22421884e-003
,,,1.72500000e-009,-1.14218758e-003
,,,1.75000000e-009,-1.06406258e-003
,,,1.77500000e-009,-9.90625070e-004
,,,1.80000000e-009,-9.21093815e-004
,,,1.82500000e-009,-8.57812561e-004
,,,1.85000000e-009,-8.00000057e-004
,,,1.87500000e-009,-7.71093805e-004
,,,1.90000000e-009,-7.42968803e-004
,,,1.92500000e-009,-7.14843801e-004
,,,1.95000000e-009,-6.86718799e-004
,,,1.97500000e-009,-6.60156297e-004
,,,2.00000000e-009,-6.35937545e-004
,,,2.02500000e-009,-6.14843794e-004
,,,2.05000000e-009,-6.00000042e-004
,,,2.07500000e-009,-6.08593793e-004
,,,2.10000000e-009,-6.17968794e-004
,,,2.12500000e-009,-6.24218794e-004
,,,2.15000000e-009,-6.27343794e-004
,,,2.17500000e-009,-6.25781294e-004
,,,2.20000000e-009,-6.20312544e-004
,,,2.22500000e-009,-6.10937543e-004
,,,2.25000000e-009,-6.00000042e-004
,,,2.27500000e-009,-6.01562543e-004
,,,2.30000000e-009,-6.03906293e-004
,,,2.32500000e-009,-6.09375043e-004
,,,2.35000000e-009,-6.21093794e-004
,,,2.37500000e-009,-6.43750046e-004
,,,2.40000000e-009,-6.80468798e-004
,,,2.42500000e-009,-7.32031302e-004
,,,2.45000000e-009,-8.00000057e-004
,,,2.47500000e-009,-8.86718813e-004
,,,2.50000000e-009,-9.81250069e-004
,,,2.52500000e-009,-1.07812508e-003
,,,2.55000000e-009,-1.17031258e-003
,,,2.57500000e-009,-1.25312509e-003
,,,2.60000000e-009,-1.32187509e-003
,,,2.62500000e-009,-1.37109385e-003
,,,2.65000000e-009,-1.40000010e-003
,,,2.67500000e-009,-1.40156260e-003
,,,2.70000000e-009,-1.38437510e-003
,,,2.72500000e-009,-1.35234385e-003
,,,2.75000000e-009,-1.31171884e-003
,,,2.77500000e-009,-1.27031259e-003
,,,2.80000000e-009,-1.23437509e-003
,,,2.82500000e-009,-1.20937509e-003
,,,2.85000000e-009,-1.20000008e-003
,,,2.87500000e-009,-1.20078133e-003
,,,2.90000000e-009,-1.21718759e-003
,,,2.92500000e-009,-1.24687509e-003
,,,2.95000000e-009,-1.28437509e-003
,,,2.97500000e-009,-1.32500009e-003
,,,3.00000000e-009,-1.36093760e-003
,,,3.02500000e-009,-1.38750010e-003
,,,3.05000000e-009,-1.40000010e-003
,,,3.07500000e-009,-1.38359385e-003
,,,3.10000000e-009,-1.35000010e-003
,,,3.12500000e-009,-1.30156259e-003
,,,3.15000000e-009,-1.24218759e-003
,,,3.17500000e-009,-1.17734383e-003
,,,3.20000000e-009,-1.11171883e-003
,,,3.22500000e-009,-1.05156257e-003
,,,3.25000000e-009,-1.00000007e-003
,,,3.27500000e-009,-9.51562567e-004
,,,3.30000000e-009,-9.14843815e-004
,,,3.32500000e-009,-8.88281313e-004
,,,3.35000000e-009,-8.69531312e-004
,,,3.37500000e-009,-8.55468811e-004
,,,3.40000000e-009,-8.41406310e-004
,,,3.42500000e-009,-8.23437558e-004
,,,3.45000000e-009,-8.00000057e-004
,,,3.47500000e-009,-7.62500054e-004
,,,3.50000000e-009,-7.17187551e-004
,,,3.52500000e-009,-6.64062547e-004
,,,3.55000000e-009,-6.07031293e-004
,,,3.57500000e-009,-5.49218789e-004
,,,3.60000000e-009,-4.92968785e-004
,,,3.62500000e-009,-4.42968781e-004
,,,3.65000000e-009,-4.00000028e-004
,,,3.67500000e-009,-3.66406276e-004
,,,3.70000000e-009,-3.39843774e-004
,,,3.72500000e-009,-3.18750023e-004
,,,3.75000000e-009,-3.00000021e-004
,,,3.77500000e-009,-2.81250020e-004
,,,3.80000000e-009,-2.59375018e-004
,,,3.82500000e-009,-2.32812516e-004
,,,3.85000000e-009,-2.00000014e-004
,,,3.87500000e-009,-1.61718761e-004
,,,3.90000000e-009,-1.15625008e-004
,,,3.92500000e-009,-6.25000044e-005
,,,3.95000000e-009,-5.46875039e-006
,,,3.97500000e-009,5.15625036e-005
,,,4.00000000e-009,1.07031258e-004
,,,4.02500000e-009,1.57812511e-004
,,,4.05000000e-009,2.00000014e-004
,,,4.07500000e-009,2.23437516e-004
,,,4.10000000e-009,2.37500017e-004
,,,4.12500000e-009,2.42968767e-004
,,,4.15000000e-009,2.41406267e-004
,,,4.17500000e-009,2.34375017e-004
,,,4.20000000e-009,2.23437516e-004
,,,4.22500000e-009,2.10937515e-004
,,,4.25000000e-009,2.00000014e-004
,,,4.27500000e-009,1.83593763e-004
,,,4.30000000e-009,1.71875012e-004
,,,4.32500000e-009,1.65625012e-004
,,,4.35000000e-009,1.64843762e-004
,,,4.37500000e-009,1.69531262e-004
,,,4.40000000e-009,1.77343763e-004
,,,4.42500000e-009,1.88281263e-004
,,,4.45000000e-009,2.00000014e-004
,,,4.47500000e-009,2.06250015e-004
,,,4.50000000e-009,2.12500015e-004
,,,4.52500000e-009,2.17187515e-004
,,,4.55000000e-009,2.20312516e-004
,,,4.57500000e-009,2.20312516e-004
,,,4.60000000e-009,2.17187515e-004
,,,4.62500000e-009,2.10156265e-004
,,,4.65000000e-009,2.00000014e-004
,,,4.67500000e-009,1.80468763e-004
,,,4.70000000e-009,1.59375011e-004
,,,4.72500000e-009,1.35156260e-004
,,,4.75000000e-009,1.09375008e-004
,,,4.77500000e-009,8.20312558e-005
,,,4.80000000e-009,5.46875039e-005
,,,4.82500000e-009,2.73437519e-005
,,,4.85000000e-009,0.00000000e+000
,,,4.87500000e-009,-2.73437519e-005
,,,4.90000000e-009,-5.39062538e-005
,,,4.92500000e-009,-7.89062556e-005
,,,4.95000000e-009,-1.03906257e-004
,,,4.97500000e-009,-1.28125009e-004
,,,5.00000000e-009,-1.52343761e-004
,,,5.02500000e-009,-1.76562512e-004
,,,5.05000000e-009,-2.00000014e-004
,,,5.07500000e-009,-2.17968765e-004
,,,5.10000000e-009,-2.34375017e-004
,,,5.12500000e-009,-2.45312517e-004
,,,5.15000000e-009,-2.51562518e-004
,,,5.17500000e-009,-2.50781268e-004
,,,5.20000000e-009,-2.41406267e-004
,,,5.22500000e-009,-2.25000016e-004
,,,5.25000000e-009,-2.00000014e-004
,,,5.27500000e-009,-1.65625012e-004
,,,5.30000000e-009,-1.28906259e-004
,,,5.32500000e-009,-9.06250064e-005
,,,5.35000000e-009,-5.62500040e-005
,,,5.37500000e-009,-2.73437519e-005
,,,5.40000000e-009,-7.03125050e-006
,,,5.42500000e-009,1.56250011e-006
,,,5.45000000e-009,0.00000000e+000
,,,5.47500000e-009,-1.17187508e-005
,,,5.50000000e-009,-3.35937524e-005
,,,5.52500000e-009,-6.32812545e-005
,,,5.55000000e-009,-9.68750069e-005
,,,5.57500000e-009,-1.31250009e-004
,,,5.60000000e-009,-1.61718761e-004
,,,5.62500000e-009,-1.85156263e-004
,,,5.65000000e-009,-2.00000014e-004
,,,5.67500000e-009,-1.99218764e-004
,,,5.70000000e-009,-1.87500013e-004
,,,5.72500000e-009,-1.65625012e-004
,,,5.75000000e-009,-1.36718760e-004
,,,5.77500000e-009,-1.01562507e-004
,,,5.80000000e-009,-6.56250046e-005
,,,5.82500000e-009,-3.04687522e-005
,,,5.85000000e-009,0.00000000e+000
,,,5.87500000e-009,2.42187517e-005
,,,5.90000000e-009,4.06250029e-005
,,,5.92500000e-009,4.84375034e-005
