RawData/SinglePhotoelectron/R1_2pt2B_5mV/wave003_Ch2.csv

"Record Length",1000,"Points",-7.72500000e-009,-4.00000028e-004
"Sample Interval",2.50000000e-011,s,-7.70000000e-009,-3.67187526e-004
"Trigger Point",309,"Samples",-7.67500000e-009,-3.39062524e-004
"Trigger Time",1.25012287e-011,s,-7.65000000e-009,-3.14062522e-004
"",,,-7.62500000e-009,-2.92187521e-004
"Horizontal Offset",-7.72500000e-009,s,-7.60000000e-009,-2.70312519e-004
,,,-7.57500000e-009,-2.49218768e-004
,,,-7.55000000e-009,-2.25781266e-004
,,,-7.52500000e-009,-2.00000014e-004
,,,-7.50000000e-009,-1.70312512e-004
,,,-7.47500000e-009,-1.38281260e-004
,,,-7.45000000e-009,-1.06250008e-004
,,,-7.42500000e-009,-7.57812554e-005
,,,-7.40000000e-009,-4.84375034e-005
,,,-7.37500000e-009,-2.57812518e-005
,,,-7.35000000e-009,-9.37500066e-006
,,,-7.32500000e-009,0.00000000e+000
,,,-7.30000000e-009,7.81250055e-007
,,,-7.27500000e-009,-2.34375017e-006
,,,-7.25000000e-009,-9.37500066e-006
,,,-7.22500000e-009,-1.64062512e-005
,,,-7.20000000e-009,-2.10937515e-005
,,,-7.17500000e-009,-2.10937515e-005
,,,-7.15000000e-009,-1.40625010e-005
,,,-7.12500000e-009,0.00000000e+000
,,,-7.10000000e-009,2.03125014e-005
,,,-7.07500000e-009,4.68750033e-005
,,,-7.05000000e-009,7.89062556e-005
,,,-7.02500000e-009,1.12500008e-004
,,,-7.00000000e-009,1.43750010e-004
,,,-6.97500000e-009,1.71093762e-004
,,,-6.95000000e-009,1.90625013e-004
,,,-6.92500000e-009,2.00000014e-004
,,,-6.90000000e-009,1.92968764e-004
,,,-6.87500000e-009,1.76562512e-004
,,,-6.85000000e-009,1.51562511e-004
,,,-6.82500000e-009,1.21093759e-004
,,,-6.80000000e-009,8.75000062e-005
,,,-6.77500000e-009,5.46875039e-005
,,,-6.75000000e-009,2.42187517e-005
,,,-6.72500000e-009,0.00000000e+000
,,,-6.70000000e-009,-1.95312514e-005
,,,-6.67500000e-009,-3.20312523e-005
,,,-6.65000000e-009,-3.67187526e-005
,,,-6.62500000e-009,-3.43750024e-005
,,,-6.60000000e-009,-2.81250020e-005
,,,-6.57500000e-009,-1.87500013e-005
,,,-6.55000000e-009,-8.59375061e-006
,,,-6.52500000e-009,0.00000000e+000
,,,-6.50000000e-009,2.34375017e-006
,,,-6.47500000e-009,2.34375017e-006
,,,-6.45000000e-009,0.00000000e+000
,,,-6.42500000e-009,-2.34375017e-006
,,,-6.40000000e-009,-5.46875039e-006
,,,-6.37500000e-009,-6.25000044e-006
,,,-6.35000000e-009,-4.68750033e-006
,,,-6.32500000e-009,0.00000000e+000
,,,-6.30000000e-009,5.46875039e-006
,,,-6.27500000e-009,1.32812509e-005
,,,-6.25000000e-009,2.18750015e-005
,,,-6.22500000e-009,2.73437519e-005
,,,-6.20000000e-009,3.04687522e-005
,,,-6.17500000e-009,2.73437519e-005
,,,-6.15000000e-009,1.71875012e-005
,,,-6.12500000e-009,0.00000000e+000
,,,-6.10000000e-009,-2.50000018e-005
,,,-6.07500000e-009,-5.46875039e-005
,,,-6.05000000e-009,-8.82812562e-005
,,,-6.02500000e-009,-1.21093759e-004
,,,-6.00000000e-009,-1.50781261e-004
,,,-5.97500000e-009,-1.75000012e-004
,,,-5.95000000e-009,-1.91406264e-004
,,,-5.92500000e-009,-2.00000014e-004
,,,-5.90000000e-009,-1.97656264e-004
,,,-5.87500000e-009,-1.89843763e-004
,,,-5.85000000e-009,-1.78906263e-004
,,,-5.82500000e-009,-1.67968762e-004
,,,-5.80000000e-009,-1.61718761e-004
,,,-5.77500000e-009,-1.63281262e-004
,,,-5.75000000e-009,-1.75000012e-004
,,,-5.72500000e-009,-2.00000014e-004
,,,-5.70000000e-009,-2.35937517e-004
,,,-5.67500000e-009,-2.83593770e-004
,,,-5.65000000e-009,-3.39062524e-004
,,,-5.62500000e-009,-3.99218778e-004
,,,-5.60000000e-009,-4.60156283e-004
,,,-5.57500000e-009,-5.16406287e-004
,,,-5.55000000e-009,-5.64062540e-004
,,,-5.52500000e-009,-6.00000042e-004
,,,-5.50000000e-009,-6.15625044e-004
,,,-5.47500000e-009,-6.16406294e-004
,,,-5.45000000e-009,-6.02343793e-004
,,,-5.42500000e-009,-5.75781291e-004
,,,-5.40000000e-009,-5.38281288e-004
,,,-5.37500000e-009,-4.94531285e-004
,,,-5.35000000e-009,-4.47656282e-004
,,,-5.32500000e-009,-4.00000028e-004
,,,-5.30000000e-009,-3.52343775e-004
,,,-5.27500000e-009,-3.10156272e-004
,,,-5.25000000e-009,-2.75781270e-004
,,,-5.22500000e-009,-2.48437518e-004
,,,-5.20000000e-009,-2.28125016e-004
,,,-5.17500000e-009,-2.14062515e-004
,,,-5.15000000e-009,-2.04687514e-004
,,,-5.12500000e-009,-2.00000014e-004
,,,-5.10000000e-009,-1.96875014e-004
,,,-5.07500000e-009,-1.95312514e-004
,,,-5.05000000e-009,-1.95312514e-004
,,,-5.02500000e-009,-1.96093764e-004
,,,-5.00000000e-009,-1.96875014e-004
,,,-4.97500000e-009,-1.98437514e-004
,,,-4.95000000e-009,-1.99218764e-004
,,,-4.92500000e-009,-2.00000014e-004
,,,-4.90000000e-009,-2.00000014e-004
,,,-4.87500000e-009,-2.00781264e-004
,,,-4.85000000e-009,-2.00781264e-004
,,,-4.82500000e-009,-2.00781264e-004
,,,-4.80000000e-009,-2.00781264e-004
,,,-4.77500000e-009,-2.00000014e-004
,,,-4.75000000e-009,-2.00000014e-004
,,,-4.72500000e-009,-2.00000014e-004
,,,-4.70000000e-009,-1.99218764e-004
,,,-4.67500000e-009,-1.99218764e-004
,,,-4.65000000e-009,-1.98437514e-004
,,,-4.62500000e-009,-1.98437514e-004
,,,-4.60000000e-009,-1.99218764e-004
,,,-4.57500000e-009,-1.99218764e-004
,,,-4.55000000e-009,-1.99218764e-004
,,,-4.52500000e-009,-2.00000014e-004
,,,-4.50000000e-009,-2.03125014e-004
,,,-4.47500000e-009,-2.06250015e-004
,,,-4.45000000e-009,-2.08593765e-004
,,,-4.42500000e-009,-2.10156265e-004
,,,-4.40000000e-009,-2.09375015e-004
,,,-4.37500000e-009,-2.07812515e-004
,,,-4.35000000e-009,-2.03906264e-004
,,,-4.32500000e-009,-2.00000014e-004
,,,-4.30000000e-009,-1.96093764e-004
,,,-4.27500000e-009,-1.92968764e-004
,,,-4.25000000e-009,-1.89843763e-004
,,,-4.22500000e-009,-1.87500013e-004
,,,-4.20000000e-009,-1.87500013e-004
,,,-4.17500000e-009,-1.89062513e-004
,,,-4.15000000e-009,-1.93750014e-004
,,,-4.12500000e-009,-2.00000014e-004
,,,-4.10000000e-009,-2.07812515e-004
,,,-4.07500000e-009,-2.16406265e-004
,,,-4.05000000e-009,-2.23437516e-004
,,,-4.02500000e-009,-2.28125016e-004
,,,-4.00000000e-009,-2.28125016e-004
,,,-3.97500000e-009,-2.24218766e-004
,,,-3.95000000e-009,-2.14062515e-004
,,,-3.92500000e-009,-2.00000014e-004
,,,-3.90000000e-009,-1.82031263e-004
,,,-3.87500000e-009,-1.63281262e-004
,,,-3.85000000e-009,-1.47656260e-004
,,,-3.82500000e-009,-1.36718760e-004
,,,-3.80000000e-009,-1.34375010e-004
,,,-3.77500000e-009,-1.42968760e-004
,,,-3.75000000e-009,-1.64843762e-004
,,,-3.72500000e-009,-2.00000014e-004
,,,-3.70000000e-009,-2.46093767e-004
,,,-3.67500000e-009,-3.01562521e-004
,,,-3.65000000e-009,-3.62500026e-004
,,,-3.62500000e-009,-4.24218780e-004
,,,-3.60000000e-009,-4.83593784e-004
,,,-3.57500000e-009,-5.34375038e-004
,,,-3.55000000e-009,-5.74218791e-004
,,,-3.52500000e-009,-6.00000042e-004
,,,-3.50000000e-009,-6.05468793e-004
,,,-3.47500000e-009,-5.96875042e-004
,,,-3.45000000e-009,-5.75000041e-004
,,,-3.42500000e-009,-5.42968788e-004
,,,-3.40000000e-009,-5.05468786e-004
,,,-3.37500000e-009,-4.66406283e-004
,,,-3.35000000e-009,-4.30468780e-004
,,,-3.32500000e-009,-4.00000028e-004
,,,-3.30000000e-009,-3.75781277e-004
,,,-3.27500000e-009,-3.60937526e-004
,,,-3.25000000e-009,-3.56250025e-004
,,,-3.22500000e-009,-3.59375025e-004
,,,-3.20000000e-009,-3.67968776e-004
,,,-3.17500000e-009,-3.79687527e-004
,,,-3.15000000e-009,-3.91406278e-004
,,,-3.12500000e-009,-4.00000028e-004
,,,-3.10000000e-009,-3.99218778e-004
,,,-3.07500000e-009,-3.92187528e-004
,,,-3.05000000e-009,-3.76562527e-004
,,,-3.02500000e-009,-3.52343775e-004
,,,-3.00000000e-009,-3.21875023e-004
,,,-2.97500000e-009,-2.84375020e-004
,,,-2.95000000e-009,-2.42968767e-004
,,,-2.92500000e-009,-2.00000014e-004
,,,-2.90000000e-009,-1.55468761e-004
,,,-2.87500000e-009,-1.13281258e-004
,,,-2.85000000e-009,-7.65625054e-005
,,,-2.82500000e-009,-4.53125032e-005
,,,-2.80000000e-009,-2.10937515e-005
,,,-2.77500000e-009,-5.46875039e-006
,,,-2.75000000e-009,7.81250055e-007
,,,-2.72500000e-009,0.00000000e+000
,,,-2.70000000e-009,-9.37500066e-006
,,,-2.67500000e-009,-2.57812518e-005
,,,-2.65000000e-009,-4.84375034e-005
,,,-2.62500000e-009,-7.57812554e-005
,,,-2.60000000e-009,-1.06250008e-004
,,,-2.57500000e-009,-1.38281260e-004
,,,-2.55000000e-009,-1.69531262e-004
,,,-2.52500000e-009,-2.00000014e-004
,,,-2.50000000e-009,-2.24218766e-004
,,,-2.47500000e-009,-2.42187517e-004
,,,-2.45000000e-009,-2.53125018e-004
,,,-2.42500000e-009,-2.56250018e-004
,,,-2.40000000e-009,-2.51562518e-004
,,,-2.37500000e-009,-2.39843767e-004
,,,-2.35000000e-009,-2.22656266e-004
,,,-2.32500000e-009,-2.00000014e-004
,,,-2.30000000e-009,-1.73437512e-004
,,,-2.27500000e-009,-1.44531260e-004
,,,-2.25000000e-009,-1.14843758e-004
,,,-2.22500000e-009,-8.59375061e-005
,,,-2.20000000e-009,-5.85937541e-005
,,,-2.17500000e-009,-3.51562525e-005
,,,-2.15000000e-009,-1.48437511e-005
,,,-2.12500000e-009,0.00000000e+000
,,,-2.10000000e-009,8.59375061e-006
,,,-2.07500000e-009,1.32812509e-005
,,,-2.05000000e-009,1.40625010e-005
,,,-2.02500000e-009,1.25000009e-005
,,,-2.00000000e-009,8.59375061e-006
,,,-1.97500000e-009,4.68750033e-006
,,,-1.95000000e-009,7.81250055e-007
,,,-1.92500000e-009,0.00000000e+000
,,,-1.90000000e-009,1.56250011e-006
,,,-1.87500000e-009,8.59375061e-006
,,,-1.85000000e-009,2.18750015e-005
,,,-1.82500000e-009,4.29687530e-005
,,,-1.80000000e-009,7.18750051e-005
,,,-1.77500000e-009,1.08593758e-004
,,,-1.75000000e-009,1.51562511e-004
,,,-1.72500000e-009,2.00000014e-004
,,,-1.70000000e-009,2.46875017e-004
,,,-1.67500000e-009,2.93750021e-004
,,,-1.65000000e-009,3.36718774e-004
,,,-1.62500000e-009,3.71875026e-004
,,,-1.60000000e-009,3.98437528e-004
,,,-1.57500000e-009,4.12500029e-004
,,,-1.55000000e-009,4.13281279e-004
,,,-1.52500000e-009,4.00000028e-004
,,,-1.50000000e-009,3.64062526e-004
,,,-1.47500000e-009,3.17187522e-004
,,,-1.45000000e-009,2.61718769e-004
,,,-1.42500000e-009,2.02343764e-004
,,,-1.40000000e-009,1.42187510e-004
,,,-1.37500000e-009,8.59375061e-005
,,,-1.35000000e-009,3.75000027e-005
,,,-1.32500000e-009,0.00000000e+000
,,,-1.30000000e-009,-3.75000027e-005
,,,-1.27500000e-009,-6.25000044e-005
,,,-1.25000000e-009,-7.65625054e-005
,,,-1.22500000e-009,-7.81250055e-005
,,,-1.20000000e-009,-6.95312549e-005
,,,-1.17500000e-009,-5.15625036e-005
,,,-1.15000000e-009,-2.73437519e-005
,,,-1.12500000e-009,0.00000000e+000
,,,-1.10000000e-009,8.59375061e-006
,,,-1.07500000e-009,1.32812509e-005
,,,-1.05000000e-009,1.40625010e-005
,,,-1.02500000e-009,1.17187508e-005
,,,-1.00000000e-009,7.03125050e-006
,,,-9.75000000e-010,3.12500022e-006
,,,-9.50000000e-010,7.81250055e-007
,,,-9.25000000e-010,0.00000000e+000
,,,-9.00000000e-010,-2.73437519e-005
,,,-8.75000000e-010,-5.70312540e-005
,,,-8.50000000e-010,-8.75000062e-005
,,,-8.25000000e-010,-1.16406258e-004
,,,-8.00000000e-010,-1.42187510e-004
,,,-7.75000000e-010,-1.64843762e-004
,,,-7.50000000e-010,-1.82812513e-004
,,,-7.25000000e-010,-2.00000014e-004
,,,-7.00000000e-010,-2.49218768e-004
,,,-6.75000000e-010,-3.06250022e-004
,,,-6.50000000e-010,-3.71093776e-004
,,,-6.25000000e-010,-4.43750031e-004
,,,-6.00000000e-010,-5.22656287e-004
,,,-5.75000000e-010,-6.07812543e-004
,,,-5.50000000e-010,-7.00000050e-004
,,,-5.25000000e-010,-8.00000057e-004
,,,-5.00000000e-010,-9.36718816e-004
,,,-4.75000000e-010,-1.08828133e-003
,,,-4.50000000e-010,-1.25390634e-003
,,,-4.25000000e-010,-1.42968760e-003
,,,-4.00000000e-010,-1.61484386e-003
,,,-3.75000000e-010,-1.80546888e-003
,,,-3.50000000e-010,-2.00078139e-003
,,,-3.25000000e-010,-2.20000016e-003
,,,-3.00000000e-010,-2.41484392e-003
,,,-2.75000000e-010,-2.63593769e-003
,,,-2.50000000e-010,-2.86171895e-003
,,,-2.25000000e-010,-3.08906272e-003
,,,-2.00000000e-010,-3.31796898e-003
,,,-1.75000000e-010,-3.54609400e-003
,,,-1.50000000e-010,-3.77343777e-003
,,,-1.25000000e-010,-4.00000028e-003
,,,-1.00000000e-010,-4.21953155e-003
,,,-7.50000000e-011,-4.44218781e-003
,,,-5.00000000e-011,-4.66796908e-003
,,,-2.50000000e-011,-4.89453160e-003
,,,0.00000000e+000,-5.12343786e-003
,,,2.50000000e-011,-5.35156288e-003
,,,5.00000000e-011,-5.57734414e-003
,,,7.50000000e-011,-5.80000041e-003
,,,1.00000000e-010,-5.99375042e-003
,,,1.25000000e-010,-6.18515669e-003
,,,1.50000000e-010,-6.37265670e-003
,,,1.75000000e-010,-6.55625046e-003
,,,2.00000000e-010,-6.73359423e-003
,,,2.25000000e-010,-6.90156299e-003
,,,2.50000000e-010,-7.05781300e-003
,,,2.75000000e-010,-7.20000051e-003
,,,3.00000000e-010,-7.28828177e-003
,,,3.25000000e-010,-7.36484427e-003
,,,3.50000000e-010,-7.43125053e-003
,,,3.75000000e-010,-7.48671928e-003
,,,4.00000000e-010,-7.53203178e-003
,,,4.25000000e-010,-7.56718804e-003
,,,4.50000000e-010,-7.58984429e-003
,,,4.75000000e-010,-7.60000054e-003
,,,5.00000000e-010,-7.55546928e-003
,,,5.25000000e-010,-7.50625053e-003
,,,5.50000000e-010,-7.45390678e-003
,,,5.75000000e-010,-7.40234427e-003
,,,6.00000000e-010,-7.35078177e-003
,,,6.25000000e-010,-7.30000052e-003
,,,6.50000000e-010,-7.25000051e-003
,,,6.75000000e-010,-7.20000051e-003
,,,7.00000000e-010,-7.11093800e-003
,,,7.25000000e-010,-7.02500050e-003
,,,7.50000000e-010,-6.94375049e-003
,,,7.75000000e-010,-6.86640674e-003
,,,8.00000000e-010,-6.79453173e-003
,,,8.25000000e-010,-6.72734423e-003
,,,8.50000000e-010,-6.66250047e-003
,,,8.75000000e-010,-6.60000047e-003
,,,9.00000000e-010,-6.51015671e-003
,,,9.25000000e-010,-6.42265670e-003
,,,9.50000000e-010,-6.33828170e-003
,,,9.75000000e-010,-6.25937544e-003
,,,1.00000000e-009,-6.18593794e-003
,,,1.02500000e-009,-6.11796918e-003
,,,1.05000000e-009,-6.05625043e-003
,,,1.07500000e-009,-6.00000042e-003
,,,1.10000000e-009,-5.92578167e-003
,,,1.12500000e-009,-5.85156291e-003
,,,1.15000000e-009,-5.77734416e-003
,,,1.17500000e-009,-5.70390665e-003
,,,1.20000000e-009,-5.62968790e-003
,,,1.22500000e-009,-5.55546914e-003
,,,1.25000000e-009,-5.47890664e-003
,,,1.27500000e-009,-5.40000038e-003
,,,1.30000000e-009,-5.30546913e-003
,,,1.32500000e-009,-5.20078162e-003
,,,1.35000000e-009,-5.08671911e-003
,,,1.37500000e-009,-4.96250035e-003
,,,1.40000000e-009,-4.82968784e-003
,,,1.42500000e-009,-4.69062533e-003
,,,1.45000000e-009,-4.54609407e-003
,,,1.47500000e-009,-4.40000031e-003
,,,1.50000000e-009,-4.25156280e-003
,,,1.52500000e-009,-4.10312529e-003
,,,1.55000000e-009,-3.95703153e-003
,,,1.57500000e-009,-3.81875027e-003
,,,1.60000000e-009,-3.69062526e-003
,,,1.62500000e-009,-3.57734400e-003
,,,1.65000000e-009,-3.48046900e-003
,,,1.67500000e-009,-3.40000024e-003
,,,1.70000000e-009,-3.33828149e-003
,,,1.72500000e-009,-3.28281273e-003
,,,1.75000000e-009,-3.22656273e-003
,,,1.77500000e-009,-3.16562522e-003
,,,1.80000000e-009,-3.09531272e-003
,,,1.82500000e-009,-3.01250021e-003
,,,1.85000000e-009,-2.91406271e-003
,,,1.87500000e-009,-2.80000020e-003
,,,1.90000000e-009,-2.67734394e-003
,,,1.92500000e-009,-2.54062518e-003
,,,1.95000000e-009,-2.39453142e-003
,,,1.97500000e-009,-2.24609391e-003
,,,2.00000000e-009,-2.10546890e-003
,,,2.02500000e-009,-1.97968764e-003
,,,2.05000000e-009,-1.87578138e-003
,,,2.07500000e-009,-1.80000013e-003
,,,2.10000000e-009,-1.76328137e-003
,,,2.12500000e-009,-1.74921887e-003
,,,2.15000000e-009,-1.75156262e-003
,,,2.17500000e-009,-1.76484387e-003
,,,2.20000000e-009,-1.78281263e-003
,,,2.22500000e-009,-1.79765638e-003
,,,2.25000000e-009,-1.80468763e-003
,,,2.27500000e-009,-1.80000013e-003
,,,2.30000000e-009,-1.78593763e-003
,,,2.32500000e-009,-1.75234387e-003
,,,2.35000000e-009,-1.70078137e-003
,,,2.37500000e-009,-1.63750012e-003
,,,2.40000000e-009,-1.56875011e-003
,,,2.42500000e-009,-1.50156261e-003
,,,2.45000000e-009,-1.44375010e-003
,,,2.47500000e-009,-1.40000010e-003
,,,2.50000000e-009,-1.37968760e-003
,,,2.52500000e-009,-1.37187510e-003
,,,2.55000000e-009,-1.37500010e-003
,,,2.57500000e-009,-1.38515635e-003
,,,2.60000000e-009,-1.39687510e-003
,,,2.62500000e-009,-1.40625010e-003
,,,2.65000000e-009,-1.40781260e-003
,,,2.67500000e-009,-1.40000010e-003
,,,2.70000000e-009,-1.38046885e-003
,,,2.72500000e-009,-1.34531260e-003
,,,2.75000000e-009,-1.29609384e-003
,,,2.77500000e-009,-1.23671884e-003
,,,2.80000000e-009,-1.17265633e-003
,,,2.82500000e-009,-1.10859383e-003
,,,2.85000000e-009,-1.05000007e-003
,,,2.87500000e-009,-1.00000007e-003
,,,2.90000000e-009,-9.63281318e-004
,,,2.92500000e-009,-9.35156316e-004
,,,2.95000000e-009,-9.13281315e-004
,,,2.97500000e-009,-8.95312563e-004
,,,3.00000000e-009,-8.78125062e-004
,,,3.02500000e-009,-8.58593811e-004
,,,3.05000000e-009,-8.32812559e-004
,,,3.07500000e-009,-8.00000057e-004
,,,3.10000000e-009,-7.59375054e-004
,,,3.12500000e-009,-7.10156300e-004
,,,3.15000000e-009,-6.53906296e-004
,,,3.17500000e-009,-5.94531292e-004
,,,3.20000000e-009,-5.35937538e-004
,,,3.22500000e-009,-4.81250034e-004
,,,3.25000000e-009,-4.35156281e-004
,,,3.27500000e-009,-4.00000028e-004
,,,3.30000000e-009,-3.81250027e-004
,,,3.32500000e-009,-3.72656276e-004
,,,3.35000000e-009,-3.73437526e-004
,,,3.37500000e-009,-3.78906277e-004
,,,3.40000000e-009,-3.88281277e-004
,,,3.42500000e-009,-3.96093778e-004
,,,3.45000000e-009,-4.00781278e-004
,,,3.47500000e-009,-4.00000028e-004
,,,3.50000000e-009,-3.94531278e-004
,,,3.52500000e-009,-3.80468777e-004
,,,3.55000000e-009,-3.58593775e-004
,,,3.57500000e-009,-3.29687523e-004
,,,3.60000000e-009,-2.96093771e-004
,,,3.62500000e-009,-2.61718769e-004
,,,3.65000000e-009,-2.28906266e-004
,,,3.67500000e-009,-2.00000014e-004
,,,3.70000000e-009,-1.82031263e-004
,,,3.72500000e-009,-1.71093762e-004
,,,3.75000000e-009,-1.66406262e-004
,,,3.77500000e-009,-1.66406262e-004
,,,3.80000000e-009,-1.71093762e-004
,,,3.82500000e-009,-1.79687513e-004
,,,3.85000000e-009,-1.89062513e-004
,,,3.87500000e-009,-2.00000014e-004
,,,3.90000000e-009,-2.12500015e-004
,,,3.92500000e-009,-2.22656266e-004
,,,3.95000000e-009,-2.28906266e-004
,,,3.97500000e-009,-2.30468766e-004
,,,4.00000000e-009,-2.27343766e-004
,,,4.02500000e-009,-2.21093766e-004
,,,4.05000000e-009,-2.10937515e-004
,,,4.07500000e-009,-2.00000014e-004
,,,4.10000000e-009,-1.91406264e-004
,,,4.12500000e-009,-1.84375013e-004
,,,4.15000000e-009,-1.78125013e-004
,,,4.17500000e-009,-1.75000012e-004
,,,4.20000000e-009,-1.75000012e-004
,,,4.22500000e-009,-1.78125013e-004
,,,4.25000000e-009,-1.86718763e-004
,,,4.27500000e-009,-2.00000014e-004
,,,4.30000000e-009,-2.21093766e-004
,,,4.32500000e-009,-2.46093767e-004
,,,4.35000000e-009,-2.73437519e-004
,,,4.37500000e-009,-3.02343771e-004
,,,4.40000000e-009,-3.30468773e-004
,,,4.42500000e-009,-3.57031275e-004
,,,4.45000000e-009,-3.80468777e-004
,,,4.47500000e-009,-4.00000028e-004
,,,4.50000000e-009,-4.13281279e-004
,,,4.52500000e-009,-4.21875030e-004
,,,4.55000000e-009,-4.25000030e-004
,,,4.57500000e-009,-4.24218780e-004
,,,4.60000000e-009,-4.20312530e-004
,,,4.62500000e-009,-4.14062529e-004
,,,4.65000000e-009,-4.07031279e-004
,,,4.67500000e-009,-4.00000028e-004
,,,4.70000000e-009,-3.92968778e-004
,,,4.72500000e-009,-3.87500027e-004
,,,4.75000000e-009,-3.85156277e-004
,,,4.77500000e-009,-3.84375027e-004
,,,4.80000000e-009,-3.85156277e-004
,,,4.82500000e-009,-3.88281277e-004
,,,4.85000000e-009,-3.92968778e-004
,,,4.87500000e-009,-4.00000028e-004
,,,4.90000000e-009,-4.07031279e-004
,,,4.92500000e-009,-4.17187530e-004
,,,4.95000000e-009,-4.32031281e-004
,,,4.97500000e-009,-4.52343782e-004
,,,5.00000000e-009,-4.79687534e-004
,,,5.02500000e-009,-5.13281286e-004
,,,5.05000000e-009,-5.53125039e-004
,,,5.07500000e-009,-6.00000042e-004
,,,5.10000000e-009,-6.44531296e-004
,,,5.12500000e-009,-6.89843799e-004
,,,5.15000000e-009,-7.32031302e-004
,,,5.17500000e-009,-7.68750054e-004
,,,5.20000000e-009,-7.96093806e-004
,,,5.22500000e-009,-8.11718807e-004
,,,5.25000000e-009,-8.13281308e-004
,,,5.27500000e-009,-8.00000057e-004
,,,5.30000000e-009,-7.65625054e-004
,,,5.32500000e-009,-7.18750051e-004
,,,5.35000000e-009,-6.64062547e-004
,,,5.37500000e-009,-6.03906293e-004
,,,5.40000000e-009,-5.42968788e-004
,,,5.42500000e-009,-4.86718784e-004
,,,5.45000000e-009,-4.38281281e-004
,,,5.47500000e-009,-4.00000028e-004
,,,5.50000000e-009,-3.71875026e-004
,,,5.52500000e-009,-3.56250025e-004
,,,5.55000000e-009,-3.51562525e-004
,,,5.57500000e-009,-3.56250025e-004
,,,5.60000000e-009,-3.66406276e-004
,,,5.62500000e-009,-3.79687527e-004
,,,5.65000000e-009,-3.91406278e-004
,,,5.67500000e-009,-4.00000028e-004
,,,5.70000000e-009,-3.99218778e-004
,,,5.72500000e-009,-3.90625028e-004
,,,5.75000000e-009,-3.73437526e-004
,,,5.77500000e-009,-3.48437525e-004
,,,5.80000000e-009,-3.16406272e-004
,,,5.82500000e-009,-2.79687520e-004
,,,5.85000000e-009,-2.39843767e-004
