RawData/SinglePhotoelectron/R1_2pt2B_5mV/wave013_Ch2.csv

"Record Length",1000,"Points",-7.72500000e-009,3.97656278e-004
"Sample Interval",2.50000000e-011,s,-7.70000000e-009,4.06250029e-004
"Trigger Point",309,"Samples",-7.67500000e-009,4.00000028e-004
"Trigger Time",1.79661883e-011,s,-7.65000000e-009,3.74218776e-004
"",,,-7.62500000e-009,3.33593774e-004
"Horizontal Offset",-7.72500000e-009,s,-7.60000000e-009,2.82812520e-004
,,,-7.57500000e-009,2.23437516e-004
,,,-7.55000000e-009,1.61718761e-004
,,,-7.52500000e-009,1.00781257e-004
,,,-7.50000000e-009,4.53125032e-005
,,,-7.47500000e-009,0.00000000e+000
,,,-7.45000000e-009,-3.28125023e-005
,,,-7.42500000e-009,-5.31250038e-005
,,,-7.40000000e-009,-6.17187544e-005
,,,-7.37500000e-009,-5.93750042e-005
,,,-7.35000000e-009,-4.92187535e-005
,,,-7.32500000e-009,-3.35937524e-005
,,,-7.30000000e-009,-1.64062512e-005
,,,-7.27500000e-009,0.00000000e+000
,,,-7.25000000e-009,1.40625010e-005
,,,-7.22500000e-009,2.42187517e-005
,,,-7.20000000e-009,2.81250020e-005
,,,-7.17500000e-009,2.81250020e-005
,,,-7.15000000e-009,2.34375017e-005
,,,-7.12500000e-009,1.64062512e-005
,,,-7.10000000e-009,7.81250055e-006
,,,-7.07500000e-009,0.00000000e+000
,,,-7.05000000e-009,-5.46875039e-006
,,,-7.02500000e-009,-1.01562507e-005
,,,-7.00000000e-009,-1.17187508e-005
,,,-6.97500000e-009,-1.17187508e-005
,,,-6.95000000e-009,-9.37500066e-006
,,,-6.92500000e-009,-6.25000044e-006
,,,-6.90000000e-009,-3.12500022e-006
,,,-6.87500000e-009,0.00000000e+000
,,,-6.85000000e-009,2.34375017e-006
,,,-6.82500000e-009,3.90625028e-006
,,,-6.80000000e-009,3.90625028e-006
,,,-6.77500000e-009,3.12500022e-006
,,,-6.75000000e-009,1.56250011e-006
,,,-6.72500000e-009,7.81250055e-007
,,,-6.70000000e-009,0.00000000e+000
,,,-6.67500000e-009,0.00000000e+000
,,,-6.65000000e-009,7.81250055e-007
,,,-6.62500000e-009,2.34375017e-006
,,,-6.60000000e-009,3.12500022e-006
,,,-6.57500000e-009,3.90625028e-006
,,,-6.55000000e-009,3.90625028e-006
,,,-6.52500000e-009,3.12500022e-006
,,,-6.50000000e-009,1.56250011e-006
,,,-6.47500000e-009,0.00000000e+000
,,,-6.45000000e-009,-3.12500022e-006
,,,-6.42500000e-009,-7.03125050e-006
,,,-6.40000000e-009,-9.37500066e-006
,,,-6.37500000e-009,-1.17187508e-005
,,,-6.35000000e-009,-1.17187508e-005
,,,-6.32500000e-009,-1.01562507e-005
,,,-6.30000000e-009,-5.46875039e-006
,,,-6.27500000e-009,0.00000000e+000
,,,-6.25000000e-009,6.25000044e-006
,,,-6.22500000e-009,1.32812509e-005
,,,-6.20000000e-009,1.95312514e-005
,,,-6.17500000e-009,2.34375017e-005
,,,-6.15000000e-009,2.42187517e-005
,,,-6.12500000e-009,2.10937515e-005
,,,-6.10000000e-009,1.32812509e-005
,,,-6.07500000e-009,0.00000000e+000
,,,-6.05000000e-009,-1.95312514e-005
,,,-6.02500000e-009,-4.29687530e-005
,,,-6.00000000e-009,-7.03125050e-005
,,,-5.97500000e-009,-1.00000007e-004
,,,-5.95000000e-009,-1.28906259e-004
,,,-5.92500000e-009,-1.56250011e-004
,,,-5.90000000e-009,-1.79687513e-004
,,,-5.87500000e-009,-2.00000014e-004
,,,-5.85000000e-009,-2.12500015e-004
,,,-5.82500000e-009,-2.19531266e-004
,,,-5.80000000e-009,-2.21875016e-004
,,,-5.77500000e-009,-2.20312516e-004
,,,-5.75000000e-009,-2.15625015e-004
,,,-5.72500000e-009,-2.10156265e-004
,,,-5.70000000e-009,-2.04687514e-004
,,,-5.67500000e-009,-2.00000014e-004
,,,-5.65000000e-009,-1.94531264e-004
,,,-5.62500000e-009,-1.91406264e-004
,,,-5.60000000e-009,-1.90625013e-004
,,,-5.57500000e-009,-1.92187514e-004
,,,-5.55000000e-009,-1.93750014e-004
,,,-5.52500000e-009,-1.96093764e-004
,,,-5.50000000e-009,-1.98437514e-004
,,,-5.47500000e-009,-2.00000014e-004
,,,-5.45000000e-009,-1.98437514e-004
,,,-5.42500000e-009,-1.96093764e-004
,,,-5.40000000e-009,-1.93750014e-004
,,,-5.37500000e-009,-1.92187514e-004
,,,-5.35000000e-009,-1.90625013e-004
,,,-5.32500000e-009,-1.91406264e-004
,,,-5.30000000e-009,-1.94531264e-004
,,,-5.27500000e-009,-2.00000014e-004
,,,-5.25000000e-009,-2.04687514e-004
,,,-5.22500000e-009,-2.10156265e-004
,,,-5.20000000e-009,-2.15625015e-004
,,,-5.17500000e-009,-2.20312516e-004
,,,-5.15000000e-009,-2.21875016e-004
,,,-5.12500000e-009,-2.19531266e-004
,,,-5.10000000e-009,-2.12500015e-004
,,,-5.07500000e-009,-2.00000014e-004
,,,-5.05000000e-009,-1.81250013e-004
,,,-5.02500000e-009,-1.57812511e-004
,,,-5.00000000e-009,-1.31250009e-004
,,,-4.97500000e-009,-1.03125007e-004
,,,-4.95000000e-009,-7.42187553e-005
,,,-4.92500000e-009,-4.60937533e-005
,,,-4.90000000e-009,-2.10937515e-005
,,,-4.87500000e-009,0.00000000e+000
,,,-4.85000000e-009,1.40625010e-005
,,,-4.82500000e-009,2.42187517e-005
,,,-4.80000000e-009,2.81250020e-005
,,,-4.77500000e-009,2.73437519e-005
,,,-4.75000000e-009,2.34375017e-005
,,,-4.72500000e-009,1.64062512e-005
,,,-4.70000000e-009,8.59375061e-006
,,,-4.67500000e-009,0.00000000e+000
,,,-4.65000000e-009,-8.59375061e-006
,,,-4.62500000e-009,-1.48437511e-005
,,,-4.60000000e-009,-1.95312514e-005
,,,-4.57500000e-009,-2.03125014e-005
,,,-4.55000000e-009,-1.87500013e-005
,,,-4.52500000e-009,-1.40625010e-005
,,,-4.50000000e-009,-7.81250055e-006
,,,-4.47500000e-009,0.00000000e+000
,,,-4.45000000e-009,7.03125050e-006
,,,-4.42500000e-009,1.40625010e-005
,,,-4.40000000e-009,2.03125014e-005
,,,-4.37500000e-009,2.34375017e-005
,,,-4.35000000e-009,2.34375017e-005
,,,-4.32500000e-009,2.03125014e-005
,,,-4.30000000e-009,1.25000009e-005
,,,-4.27500000e-009,0.00000000e+000
,,,-4.25000000e-009,-1.71875012e-005
,,,-4.22500000e-009,-3.90625028e-005
,,,-4.20000000e-009,-6.40625045e-005
,,,-4.17500000e-009,-9.06250064e-005
,,,-4.15000000e-009,-1.19531258e-004
,,,-4.12500000e-009,-1.47656260e-004
,,,-4.10000000e-009,-1.75000012e-004
,,,-4.07500000e-009,-2.00000014e-004
,,,-4.05000000e-009,-2.19531266e-004
,,,-4.02500000e-009,-2.35156267e-004
,,,-4.00000000e-009,-2.44531267e-004
,,,-3.97500000e-009,-2.47656268e-004
,,,-3.95000000e-009,-2.44531267e-004
,,,-3.92500000e-009,-2.35156267e-004
,,,-3.90000000e-009,-2.19531266e-004
,,,-3.87500000e-009,-2.00000014e-004
,,,-3.85000000e-009,-1.73437512e-004
,,,-3.82500000e-009,-1.45312510e-004
,,,-3.80000000e-009,-1.16406258e-004
,,,-3.77500000e-009,-8.75000062e-005
,,,-3.75000000e-009,-6.01562543e-005
,,,-3.72500000e-009,-3.59375025e-005
,,,-3.70000000e-009,-1.56250011e-005
,,,-3.67500000e-009,0.00000000e+000
,,,-3.65000000e-009,1.09375008e-005
,,,-3.62500000e-009,1.79687513e-005
,,,-3.60000000e-009,2.03125014e-005
,,,-3.57500000e-009,1.95312514e-005
,,,-3.55000000e-009,1.56250011e-005
,,,-3.52500000e-009,1.09375008e-005
,,,-3.50000000e-009,4.68750033e-006
,,,-3.47500000e-009,0.00000000e+000
,,,-3.45000000e-009,-3.90625028e-006
,,,-3.42500000e-009,-7.03125050e-006
,,,-3.40000000e-009,-8.59375061e-006
,,,-3.37500000e-009,-8.59375061e-006
,,,-3.35000000e-009,-7.03125050e-006
,,,-3.32500000e-009,-4.68750033e-006
,,,-3.30000000e-009,-2.34375017e-006
,,,-3.27500000e-009,0.00000000e+000
,,,-3.25000000e-009,7.81250055e-007
,,,-3.22500000e-009,1.56250011e-006
,,,-3.20000000e-009,7.81250055e-007
,,,-3.17500000e-009,7.81250055e-007
,,,-3.15000000e-009,0.00000000e+000
,,,-3.12500000e-009,0.00000000e+000
,,,-3.10000000e-009,0.00000000e+000
,,,-3.07500000e-009,0.00000000e+000
,,,-3.05000000e-009,-7.81250055e-007
,,,-3.02500000e-009,-2.34375017e-006
,,,-3.00000000e-009,-2.34375017e-006
,,,-2.97500000e-009,-2.34375017e-006
,,,-2.95000000e-009,-1.56250011e-006
,,,-2.92500000e-009,-7.81250055e-007
,,,-2.90000000e-009,0.00000000e+000
,,,-2.87500000e-009,0.00000000e+000
,,,-2.85000000e-009,-3.12500022e-006
,,,-2.82500000e-009,-6.25000044e-006
,,,-2.80000000e-009,-8.59375061e-006
,,,-2.77500000e-009,-1.09375008e-005
,,,-2.75000000e-009,-1.09375008e-005
,,,-2.72500000e-009,-9.37500066e-006
,,,-2.70000000e-009,-5.46875039e-006
,,,-2.67500000e-009,0.00000000e+000
,,,-2.65000000e-009,3.90625028e-006
,,,-2.62500000e-009,8.59375061e-006
,,,-2.60000000e-009,1.25000009e-005
,,,-2.57500000e-009,1.56250011e-005
,,,-2.55000000e-009,1.64062512e-005
,,,-2.52500000e-009,1.48437511e-005
,,,-2.50000000e-009,9.37500066e-006
,,,-2.47500000e-009,0.00000000e+000
,,,-2.45000000e-009,-1.64062512e-005
,,,-2.42500000e-009,-3.67187526e-005
,,,-2.40000000e-009,-6.09375043e-005
,,,-2.37500000e-009,-8.75000062e-005
,,,-2.35000000e-009,-1.15625008e-004
,,,-2.32500000e-009,-1.44531260e-004
,,,-2.30000000e-009,-1.72656262e-004
,,,-2.27500000e-009,-2.00000014e-004
,,,-2.25000000e-009,-2.26562516e-004
,,,-2.22500000e-009,-2.51562518e-004
,,,-2.20000000e-009,-2.75781270e-004
,,,-2.17500000e-009,-3.00000021e-004
,,,-2.15000000e-009,-3.23437523e-004
,,,-2.12500000e-009,-3.47656275e-004
,,,-2.10000000e-009,-3.72656276e-004
,,,-2.07500000e-009,-4.00000028e-004
,,,-2.05000000e-009,-4.25000030e-004
,,,-2.02500000e-009,-4.50781282e-004
,,,-2.00000000e-009,-4.77343784e-004
,,,-1.97500000e-009,-5.04687536e-004
,,,-1.95000000e-009,-5.31250038e-004
,,,-1.92500000e-009,-5.56250039e-004
,,,-1.90000000e-009,-5.79687541e-004
,,,-1.87500000e-009,-6.00000042e-004
,,,-1.85000000e-009,-6.11718793e-004
,,,-1.82500000e-009,-6.19531294e-004
,,,-1.80000000e-009,-6.23437544e-004
,,,-1.77500000e-009,-6.24218794e-004
,,,-1.75000000e-009,-6.21093794e-004
,,,-1.72500000e-009,-6.15625044e-004
,,,-1.70000000e-009,-6.08593793e-004
,,,-1.67500000e-009,-6.00000042e-004
,,,-1.65000000e-009,-5.89843792e-004
,,,-1.62500000e-009,-5.81250041e-004
,,,-1.60000000e-009,-5.76562541e-004
,,,-1.57500000e-009,-5.74218791e-004
,,,-1.55000000e-009,-5.76562541e-004
,,,-1.52500000e-009,-5.81250041e-004
,,,-1.50000000e-009,-5.89062542e-004
,,,-1.47500000e-009,-6.00000042e-004
,,,-1.45000000e-009,-6.14843794e-004
,,,-1.42500000e-009,-6.31250045e-004
,,,-1.40000000e-009,-6.46093796e-004
,,,-1.37500000e-009,-6.55468796e-004
,,,-1.35000000e-009,-6.57812547e-004
,,,-1.32500000e-009,-6.50781296e-004
,,,-1.30000000e-009,-6.31250045e-004
,,,-1.27500000e-009,-6.00000042e-004
,,,-1.25000000e-009,-5.67187540e-004
,,,-1.22500000e-009,-5.26562537e-004
,,,-1.20000000e-009,-4.79687534e-004
,,,-1.17500000e-009,-4.27343780e-004
,,,-1.15000000e-009,-3.71093776e-004
,,,-1.12500000e-009,-3.12500022e-004
,,,-1.10000000e-009,-2.54687518e-004
,,,-1.07500000e-009,-2.00000014e-004
,,,-1.05000000e-009,-1.72656262e-004
,,,-1.02500000e-009,-1.56250011e-004
,,,-1.00000000e-009,-1.50000011e-004
,,,-9.75000000e-010,-1.50781261e-004
,,,-9.50000000e-010,-1.57812511e-004
,,,-9.25000000e-010,-1.68750012e-004
,,,-9.00000000e-010,-1.82812513e-004
,,,-8.75000000e-010,-2.00000014e-004
,,,-8.50000000e-010,-2.49218768e-004
,,,-8.25000000e-010,-3.06250022e-004
,,,-8.00000000e-010,-3.71875026e-004
,,,-7.75000000e-010,-4.42968781e-004
,,,-7.50000000e-010,-5.21875037e-004
,,,-7.25000000e-010,-6.07031293e-004
,,,-7.00000000e-010,-6.99218799e-004
,,,-6.75000000e-010,-8.00000057e-004
,,,-6.50000000e-010,-9.31250066e-004
,,,-6.25000000e-010,-1.07265633e-003
,,,-6.00000000e-010,-1.22265634e-003
,,,-5.75000000e-010,-1.37812510e-003
,,,-5.50000000e-010,-1.53593761e-003
,,,-5.25000000e-010,-1.69375012e-003
,,,-5.00000000e-010,-1.84843763e-003
,,,-4.75000000e-010,-2.00000014e-003
,,,-4.50000000e-010,-2.15625015e-003
,,,-4.25000000e-010,-2.31093766e-003
,,,-4.00000000e-010,-2.46250017e-003
,,,-3.75000000e-010,-2.61171893e-003
,,,-3.50000000e-010,-2.75937520e-003
,,,-3.25000000e-010,-2.90546896e-003
,,,-3.00000000e-010,-3.05156272e-003
,,,-2.75000000e-010,-3.20000023e-003
,,,-2.50000000e-010,-3.34453149e-003
,,,-2.25000000e-010,-3.49687525e-003
,,,-2.00000000e-010,-3.65781276e-003
,,,-1.75000000e-010,-3.82812527e-003
,,,-1.50000000e-010,-4.00937528e-003
,,,-1.25000000e-010,-4.19921905e-003
,,,-1.00000000e-010,-4.39687531e-003
,,,-7.50000000e-011,-4.60000033e-003
,,,-5.00000000e-011,-4.77968784e-003
,,,-2.50000000e-011,-4.95781285e-003
,,,0.00000000e+000,-5.13203161e-003
,,,2.50000000e-011,-5.29765662e-003
,,,5.00000000e-011,-5.45078164e-003
,,,7.50000000e-011,-5.58828165e-003
,,,1.00000000e-010,-5.70546915e-003
,,,1.25000000e-010,-5.80000041e-003
,,,1.50000000e-010,-5.83437541e-003
,,,1.75000000e-010,-5.85000041e-003
,,,2.00000000e-010,-5.85234416e-003
,,,2.25000000e-010,-5.84609416e-003
,,,2.50000000e-010,-5.83437541e-003
,,,2.75000000e-010,-5.82187541e-003
,,,3.00000000e-010,-5.81015666e-003
,,,3.25000000e-010,-5.80000041e-003
,,,3.50000000e-010,-5.75390666e-003
,,,3.75000000e-010,-5.71250040e-003
,,,4.00000000e-010,-5.67343790e-003
,,,4.25000000e-010,-5.63437540e-003
,,,4.50000000e-010,-5.59218790e-003
,,,4.75000000e-010,-5.54140664e-003
,,,5.00000000e-010,-5.47890664e-003
,,,5.25000000e-010,-5.40000038e-003
,,,5.50000000e-010,-5.27109412e-003
,,,5.75000000e-010,-5.12734411e-003
,,,6.00000000e-010,-4.97265660e-003
,,,6.25000000e-010,-4.81250034e-003
,,,6.50000000e-010,-4.65000033e-003
,,,6.75000000e-010,-4.49140657e-003
,,,7.00000000e-010,-4.33984406e-003
,,,7.25000000e-010,-4.20000030e-003
,,,7.50000000e-010,-4.05468779e-003
,,,7.75000000e-010,-3.92500028e-003
,,,8.00000000e-010,-3.81015652e-003
,,,8.25000000e-010,-3.70937526e-003
,,,8.50000000e-010,-3.62031276e-003
,,,8.75000000e-010,-3.54140650e-003
,,,9.00000000e-010,-3.46875025e-003
,,,9.25000000e-010,-3.40000024e-003
,,,9.50000000e-010,-3.32500024e-003
,,,9.75000000e-010,-3.24765648e-003
,,,1.00000000e-009,-3.16875022e-003
,,,1.02500000e-009,-3.08906272e-003
,,,1.05000000e-009,-3.01015646e-003
,,,1.07500000e-009,-2.93515646e-003
,,,1.10000000e-009,-2.86484395e-003
,,,1.12500000e-009,-2.80000020e-003
,,,1.15000000e-009,-2.74296894e-003
,,,1.17500000e-009,-2.68515644e-003
,,,1.20000000e-009,-2.62343769e-003
,,,1.22500000e-009,-2.55625018e-003
,,,1.25000000e-009,-2.48125018e-003
,,,1.27500000e-009,-2.39687517e-003
,,,1.30000000e-009,-2.30312516e-003
,,,1.32500000e-009,-2.20000016e-003
,,,1.35000000e-009,-2.09843765e-003
,,,1.37500000e-009,-1.98828139e-003
,,,1.40000000e-009,-1.87343763e-003
,,,1.42500000e-009,-1.75859387e-003
,,,1.45000000e-009,-1.64921887e-003
,,,1.47500000e-009,-1.55078136e-003
,,,1.50000000e-009,-1.46640635e-003
,,,1.52500000e-009,-1.40000010e-003
,,,1.55000000e-009,-1.36406260e-003
,,,1.57500000e-009,-1.34062509e-003
,,,1.60000000e-009,-1.32343759e-003
,,,1.62500000e-009,-1.30937509e-003
,,,1.65000000e-009,-1.29375009e-003
,,,1.67500000e-009,-1.27187509e-003
,,,1.70000000e-009,-1.24062509e-003
,,,1.72500000e-009,-1.20000008e-003
,,,1.75000000e-009,-1.15859383e-003
,,,1.77500000e-009,-1.10546883e-003
,,,1.80000000e-009,-1.04375007e-003
,,,1.82500000e-009,-9.78125069e-004
,,,1.85000000e-009,-9.14843815e-004
,,,1.87500000e-009,-8.60156311e-004
,,,1.90000000e-009,-8.20312558e-004
,,,1.92500000e-009,-8.00000057e-004
,,,1.95000000e-009,-8.10156307e-004
,,,1.97500000e-009,-8.39843809e-004
,,,2.00000000e-009,-8.84375063e-004
,,,2.02500000e-009,-9.41406317e-004
,,,2.05000000e-009,-1.00703132e-003
,,,2.07500000e-009,-1.07421883e-003
,,,2.10000000e-009,-1.14062508e-003
,,,2.12500000e-009,-1.20000008e-003
,,,2.15000000e-009,-1.25234384e-003
,,,2.17500000e-009,-1.28828134e-003
,,,2.20000000e-009,-1.30703134e-003
,,,2.22500000e-009,-1.30859384e-003
,,,2.25000000e-009,-1.29609384e-003
,,,2.27500000e-009,-1.27109384e-003
,,,2.30000000e-009,-1.23828134e-003
,,,2.32500000e-009,-1.20000008e-003
,,,2.35000000e-009,-1.16250008e-003
,,,2.37500000e-009,-1.12578133e-003
,,,2.40000000e-009,-1.09140633e-003
,,,2.42500000e-009,-1.06171883e-003
,,,2.45000000e-009,-1.03750007e-003
,,,2.47500000e-009,-1.01875007e-003
,,,2.50000000e-009,-1.00625007e-003
,,,2.52500000e-009,-1.00000007e-003
,,,2.55000000e-009,-9.98437571e-004
,,,2.57500000e-009,-1.00000007e-003
,,,2.60000000e-009,-1.00390632e-003
,,,2.62500000e-009,-1.00703132e-003
,,,2.65000000e-009,-1.01015632e-003
,,,2.67500000e-009,-1.01015632e-003
,,,2.70000000e-009,-1.00703132e-003
,,,2.72500000e-009,-1.00000007e-003
,,,2.75000000e-009,-9.87500070e-004
,,,2.77500000e-009,-9.69531319e-004
,,,2.80000000e-009,-9.47656317e-004
,,,2.82500000e-009,-9.21093815e-004
,,,2.85000000e-009,-8.91406313e-004
,,,2.87500000e-009,-8.60156311e-004
,,,2.90000000e-009,-8.28906309e-004
,,,2.92500000e-009,-8.00000057e-004
,,,2.95000000e-009,-7.72656305e-004
,,,2.97500000e-009,-7.51562553e-004
,,,3.00000000e-009,-7.37500052e-004
,,,3.02500000e-009,-7.32031302e-004
,,,3.05000000e-009,-7.35937552e-004
,,,3.07500000e-009,-7.48437553e-004
,,,3.10000000e-009,-7.70312555e-004
,,,3.12500000e-009,-8.00000057e-004
,,,3.15000000e-009,-8.34375059e-004
,,,3.17500000e-009,-8.71093812e-004
,,,3.20000000e-009,-9.07031314e-004
,,,3.22500000e-009,-9.39843817e-004
,,,3.25000000e-009,-9.67187568e-004
,,,3.27500000e-009,-9.87500070e-004
,,,3.30000000e-009,-9.98437571e-004
,,,3.32500000e-009,-1.00000007e-003
,,,3.35000000e-009,-9.89062570e-004
,,,3.37500000e-009,-9.69531319e-004
,,,3.40000000e-009,-9.42968817e-004
,,,3.42500000e-009,-9.11718815e-004
,,,3.45000000e-009,-8.78906312e-004
,,,3.47500000e-009,-8.47656310e-004
,,,3.50000000e-009,-8.20312558e-004
,,,3.52500000e-009,-8.00000057e-004
,,,3.55000000e-009,-7.83593805e-004
,,,3.57500000e-009,-7.75000055e-004
,,,3.60000000e-009,-7.72656305e-004
,,,3.62500000e-009,-7.75781305e-004
,,,3.65000000e-009,-7.82031305e-004
,,,3.67500000e-009,-7.89062556e-004
,,,3.70000000e-009,-7.96093806e-004
,,,3.72500000e-009,-8.00000057e-004
,,,3.75000000e-009,-7.96093806e-004
,,,3.77500000e-009,-7.85937556e-004
,,,3.80000000e-009,-7.68750054e-004
,,,3.82500000e-009,-7.43750053e-004
,,,3.85000000e-009,-7.13281300e-004
,,,3.87500000e-009,-6.78125048e-004
,,,3.90000000e-009,-6.39843795e-004
,,,3.92500000e-009,-6.00000042e-004
,,,3.95000000e-009,-5.59375040e-004
,,,3.97500000e-009,-5.20312537e-004
,,,4.00000000e-009,-4.85937534e-004
,,,4.02500000e-009,-4.56250032e-004
,,,4.05000000e-009,-4.32031281e-004
,,,4.07500000e-009,-4.14843779e-004
,,,4.10000000e-009,-4.03906279e-004
,,,4.12500000e-009,-4.00000028e-004
,,,4.15000000e-009,-4.00781278e-004
,,,4.17500000e-009,-4.04687529e-004
,,,4.20000000e-009,-4.10156279e-004
,,,4.22500000e-009,-4.14843779e-004
,,,4.25000000e-009,-4.17968780e-004
,,,4.27500000e-009,-4.16406279e-004
,,,4.30000000e-009,-4.10937529e-004
,,,4.32500000e-009,-4.00000028e-004
,,,4.35000000e-009,-3.84375027e-004
,,,4.37500000e-009,-3.62500026e-004
,,,4.40000000e-009,-3.36718774e-004
,,,4.42500000e-009,-3.07031272e-004
,,,4.45000000e-009,-2.77343770e-004
,,,4.47500000e-009,-2.47656268e-004
,,,4.50000000e-009,-2.21875016e-004
,,,4.52500000e-009,-2.00000014e-004
,,,4.55000000e-009,-1.85937513e-004
,,,4.57500000e-009,-1.77343763e-004
,,,4.60000000e-009,-1.74218762e-004
,,,4.62500000e-009,-1.75000012e-004
,,,4.65000000e-009,-1.78906263e-004
,,,4.67500000e-009,-1.85156263e-004
,,,4.70000000e-009,-1.92968764e-004
,,,4.72500000e-009,-2.00000014e-004
,,,4.75000000e-009,-2.07812515e-004
,,,4.77500000e-009,-2.13281265e-004
,,,4.80000000e-009,-2.15625015e-004
,,,4.82500000e-009,-2.14843765e-004
,,,4.85000000e-009,-2.12500015e-004
,,,4.87500000e-009,-2.08593765e-004
,,,4.90000000e-009,-2.03906264e-004
,,,4.92500000e-009,-2.00000014e-004
,,,4.95000000e-009,-1.96875014e-004
,,,4.97500000e-009,-1.93750014e-004
,,,5.00000000e-009,-1.92187514e-004
,,,5.02500000e-009,-1.92187514e-004
,,,5.05000000e-009,-1.92187514e-004
,,,5.07500000e-009,-1.93750014e-004
,,,5.10000000e-009,-1.96875014e-004
,,,5.12500000e-009,-2.00000014e-004
,,,5.15000000e-009,-2.01562514e-004
,,,5.17500000e-009,-2.03125014e-004
,,,5.20000000e-009,-2.03906264e-004
,,,5.22500000e-009,-2.03906264e-004
,,,5.25000000e-009,-2.03125014e-004
,,,5.27500000e-009,-2.02343764e-004
,,,5.30000000e-009,-2.00781264e-004
,,,5.32500000e-009,-2.00000014e-004
,,,5.35000000e-009,-1.96093764e-004
,,,5.37500000e-009,-1.92968764e-004
,,,5.40000000e-009,-1.90625013e-004
,,,5.42500000e-009,-1.88281263e-004
,,,5.45000000e-009,-1.88281263e-004
,,,5.47500000e-009,-1.89843763e-004
,,,5.50000000e-009,-1.93750014e-004
,,,5.52500000e-009,-2.00000014e-004
,,,5.55000000e-009,-2.06250015e-004
,,,5.57500000e-009,-2.12500015e-004
,,,5.60000000e-009,-2.18750015e-004
,,,5.62500000e-009,-2.22656266e-004
,,,5.65000000e-009,-2.23437516e-004
,,,5.67500000e-009,-2.20312516e-004
,,,5.70000000e-009,-2.12500015e-004
,,,5.72500000e-009,-2.00000014e-004
,,,5.75000000e-009,-1.79687513e-004
,,,5.77500000e-009,-1.55468761e-004
,,,5.80000000e-009,-1.28125009e-004
,,,5.82500000e-009,-9.92187570e-005
,,,5.85000000e-009,-7.10937550e-005
,,,5.87500000e-009,-4.45312532e-005
