RawData/SinglePhotoelectron/R1_2pt2B_5mV/wave010_Ch2.csv

"Record Length",1000,"Points",-7.72500000e-009,2.20312516e-004
"Sample Interval",2.50000000e-011,s,-7.70000000e-009,2.44531267e-004
"Trigger Point",309,"Samples",-7.67500000e-009,2.71093769e-004
"Trigger Time",7.74093023e-012,s,-7.65000000e-009,2.99218771e-004
"",,,-7.62500000e-009,3.27343773e-004
"Horizontal Offset",-7.72500000e-009,s,-7.60000000e-009,3.54687525e-004
,,,-7.57500000e-009,3.78906277e-004
,,,-7.55000000e-009,4.00000028e-004
,,,-7.52500000e-009,4.12500029e-004
,,,-7.50000000e-009,4.20312530e-004
,,,-7.47500000e-009,4.24218780e-004
,,,-7.45000000e-009,4.24218780e-004
,,,-7.42500000e-009,4.21093780e-004
,,,-7.40000000e-009,4.16406279e-004
,,,-7.37500000e-009,4.08593779e-004
,,,-7.35000000e-009,4.00000028e-004
,,,-7.32500000e-009,3.85937527e-004
,,,-7.30000000e-009,3.70312526e-004
,,,-7.27500000e-009,3.52343775e-004
,,,-7.25000000e-009,3.31250023e-004
,,,-7.22500000e-009,3.05468772e-004
,,,-7.20000000e-009,2.75000019e-004
,,,-7.17500000e-009,2.39062517e-004
,,,-7.15000000e-009,2.00000014e-004
,,,-7.12500000e-009,1.57031261e-004
,,,-7.10000000e-009,1.14843758e-004
,,,-7.07500000e-009,7.42187553e-005
,,,-7.05000000e-009,3.98437528e-005
,,,-7.02500000e-009,1.32812509e-005
,,,-7.00000000e-009,-2.34375017e-006
,,,-6.97500000e-009,-7.03125050e-006
,,,-6.95000000e-009,0.00000000e+000
,,,-6.92500000e-009,2.03125014e-005
,,,-6.90000000e-009,5.00000035e-005
,,,-6.87500000e-009,8.43750060e-005
,,,-6.85000000e-009,1.20312509e-004
,,,-6.82500000e-009,1.53125011e-004
,,,-6.80000000e-009,1.79687513e-004
,,,-6.77500000e-009,1.95312514e-004
,,,-6.75000000e-009,2.00000014e-004
,,,-6.72500000e-009,1.90625013e-004
,,,-6.70000000e-009,1.71093762e-004
,,,-6.67500000e-009,1.41406260e-004
,,,-6.65000000e-009,1.07031258e-004
,,,-6.62500000e-009,7.18750051e-005
,,,-6.60000000e-009,3.98437528e-005
,,,-6.57500000e-009,1.48437511e-005
,,,-6.55000000e-009,0.00000000e+000
,,,-6.52500000e-009,-7.81250055e-007
,,,-6.50000000e-009,8.59375061e-006
,,,-6.47500000e-009,2.96875021e-005
,,,-6.45000000e-009,5.93750042e-005
,,,-6.42500000e-009,9.45312567e-005
,,,-6.40000000e-009,1.32031259e-004
,,,-6.37500000e-009,1.67968762e-004
,,,-6.35000000e-009,2.00000014e-004
,,,-6.32500000e-009,2.24218766e-004
,,,-6.30000000e-009,2.40625017e-004
,,,-6.27500000e-009,2.48437518e-004
,,,-6.25000000e-009,2.47656268e-004
,,,-6.22500000e-009,2.39843767e-004
,,,-6.20000000e-009,2.28125016e-004
,,,-6.17500000e-009,2.14062515e-004
,,,-6.15000000e-009,2.00000014e-004
,,,-6.12500000e-009,1.85937513e-004
,,,-6.10000000e-009,1.75781262e-004
,,,-6.07500000e-009,1.69531262e-004
,,,-6.05000000e-009,1.67968762e-004
,,,-6.02500000e-009,1.71093762e-004
,,,-6.00000000e-009,1.78125013e-004
,,,-5.97500000e-009,1.87500013e-004
,,,-5.95000000e-009,2.00000014e-004
,,,-5.92500000e-009,2.09375015e-004
,,,-5.90000000e-009,2.17968765e-004
,,,-5.87500000e-009,2.24218766e-004
,,,-5.85000000e-009,2.27343766e-004
,,,-5.82500000e-009,2.27343766e-004
,,,-5.80000000e-009,2.22656266e-004
,,,-5.77500000e-009,2.13281265e-004
,,,-5.75000000e-009,2.00000014e-004
,,,-5.72500000e-009,1.80468763e-004
,,,-5.70000000e-009,1.57031261e-004
,,,-5.67500000e-009,1.31250009e-004
,,,-5.65000000e-009,1.03906257e-004
,,,-5.62500000e-009,7.57812554e-005
,,,-5.60000000e-009,4.76562534e-005
,,,-5.57500000e-009,2.18750015e-005
,,,-5.55000000e-009,0.00000000e+000
,,,-5.52500000e-009,-1.87500013e-005
,,,-5.50000000e-009,-3.28125023e-005
,,,-5.47500000e-009,-4.06250029e-005
,,,-5.45000000e-009,-4.29687530e-005
,,,-5.42500000e-009,-3.90625028e-005
,,,-5.40000000e-009,-2.96875021e-005
,,,-5.37500000e-009,-1.64062512e-005
,,,-5.35000000e-009,0.00000000e+000
,,,-5.32500000e-009,1.79687513e-005
,,,-5.30000000e-009,3.51562525e-005
,,,-5.27500000e-009,4.84375034e-005
,,,-5.25000000e-009,5.54687539e-005
,,,-5.22500000e-009,5.46875039e-005
,,,-5.20000000e-009,4.53125032e-005
,,,-5.17500000e-009,2.65625019e-005
,,,-5.15000000e-009,0.00000000e+000
,,,-5.12500000e-009,-3.35937524e-005
,,,-5.10000000e-009,-7.18750051e-005
,,,-5.07500000e-009,-1.10937508e-004
,,,-5.05000000e-009,-1.47656260e-004
,,,-5.02500000e-009,-1.77343763e-004
,,,-5.00000000e-009,-1.96875014e-004
,,,-4.97500000e-009,-2.04687514e-004
,,,-4.95000000e-009,-2.00000014e-004
,,,-4.92500000e-009,-1.79687513e-004
,,,-4.90000000e-009,-1.49218761e-004
,,,-4.87500000e-009,-1.14062508e-004
,,,-4.85000000e-009,-7.65625054e-005
,,,-4.82500000e-009,-4.29687530e-005
,,,-4.80000000e-009,-1.64062512e-005
,,,-4.77500000e-009,-1.56250011e-006
,,,-4.75000000e-009,0.00000000e+000
,,,-4.72500000e-009,-1.09375008e-005
,,,-4.70000000e-009,-3.43750024e-005
,,,-4.67500000e-009,-6.71875048e-005
,,,-4.65000000e-009,-1.03906257e-004
,,,-4.62500000e-009,-1.39843760e-004
,,,-4.60000000e-009,-1.71093762e-004
,,,-4.57500000e-009,-1.91406264e-004
,,,-4.55000000e-009,-2.00000014e-004
,,,-4.52500000e-009,-1.91406264e-004
,,,-4.50000000e-009,-1.71093762e-004
,,,-4.47500000e-009,-1.39843760e-004
,,,-4.45000000e-009,-1.03906257e-004
,,,-4.42500000e-009,-6.71875048e-005
,,,-4.40000000e-009,-3.43750024e-005
,,,-4.37500000e-009,-1.09375008e-005
,,,-4.35000000e-009,0.00000000e+000
,,,-4.32500000e-009,-1.56250011e-006
,,,-4.30000000e-009,-1.64062512e-005
,,,-4.27500000e-009,-4.29687530e-005
,,,-4.25000000e-009,-7.65625054e-005
,,,-4.22500000e-009,-1.14062508e-004
,,,-4.20000000e-009,-1.49218761e-004
,,,-4.17500000e-009,-1.79687513e-004
,,,-4.15000000e-009,-2.00000014e-004
,,,-4.12500000e-009,-2.04687514e-004
,,,-4.10000000e-009,-1.96875014e-004
,,,-4.07500000e-009,-1.77343763e-004
,,,-4.05000000e-009,-1.47656260e-004
,,,-4.02500000e-009,-1.10937508e-004
,,,-4.00000000e-009,-7.18750051e-005
,,,-3.97500000e-009,-3.35937524e-005
,,,-3.95000000e-009,0.00000000e+000
,,,-3.92500000e-009,2.57812518e-005
,,,-3.90000000e-009,4.29687530e-005
,,,-3.87500000e-009,5.15625036e-005
,,,-3.85000000e-009,5.15625036e-005
,,,-3.82500000e-009,4.45312532e-005
,,,-3.80000000e-009,3.20312523e-005
,,,-3.77500000e-009,1.64062512e-005
,,,-3.75000000e-009,0.00000000e+000
,,,-3.72500000e-009,-1.48437511e-005
,,,-3.70000000e-009,-2.73437519e-005
,,,-3.67500000e-009,-3.59375025e-005
,,,-3.65000000e-009,-3.90625028e-005
,,,-3.62500000e-009,-3.67187526e-005
,,,-3.60000000e-009,-2.89062520e-005
,,,-3.57500000e-009,-1.64062512e-005
,,,-3.55000000e-009,0.00000000e+000
,,,-3.52500000e-009,1.95312514e-005
,,,-3.50000000e-009,4.29687530e-005
,,,-3.47500000e-009,6.79687548e-005
,,,-3.45000000e-009,9.53125067e-005
,,,-3.42500000e-009,1.22656259e-004
,,,-3.40000000e-009,1.50000011e-004
,,,-3.37500000e-009,1.75781262e-004
,,,-3.35000000e-009,2.00000014e-004
,,,-3.32500000e-009,2.17968765e-004
,,,-3.30000000e-009,2.32031266e-004
,,,-3.27500000e-009,2.40625017e-004
,,,-3.25000000e-009,2.43750017e-004
,,,-3.22500000e-009,2.41406267e-004
,,,-3.20000000e-009,2.32812516e-004
,,,-3.17500000e-009,2.18750015e-004
,,,-3.15000000e-009,2.00000014e-004
,,,-3.12500000e-009,1.72656262e-004
,,,-3.10000000e-009,1.43750010e-004
,,,-3.07500000e-009,1.13281258e-004
,,,-3.05000000e-009,8.43750060e-005
,,,-3.02500000e-009,5.70312540e-005
,,,-3.00000000e-009,3.35937524e-005
,,,-2.97500000e-009,1.40625010e-005
,,,-2.95000000e-009,0.00000000e+000
,,,-2.92500000e-009,-1.01562507e-005
,,,-2.90000000e-009,-1.48437511e-005
,,,-2.87500000e-009,-1.64062512e-005
,,,-2.85000000e-009,-1.48437511e-005
,,,-2.82500000e-009,-1.17187508e-005
,,,-2.80000000e-009,-7.03125050e-006
,,,-2.77500000e-009,-3.12500022e-006
,,,-2.75000000e-009,0.00000000e+000
,,,-2.72500000e-009,0.00000000e+000
,,,-2.70000000e-009,-1.56250011e-006
,,,-2.67500000e-009,-3.90625028e-006
,,,-2.65000000e-009,-6.25000044e-006
,,,-2.62500000e-009,-7.81250055e-006
,,,-2.60000000e-009,-7.81250055e-006
,,,-2.57500000e-009,-4.68750033e-006
,,,-2.55000000e-009,0.00000000e+000
,,,-2.52500000e-009,5.46875039e-006
,,,-2.50000000e-009,1.17187508e-005
,,,-2.47500000e-009,1.87500013e-005
,,,-2.45000000e-009,2.34375017e-005
,,,-2.42500000e-009,2.50000018e-005
,,,-2.40000000e-009,2.26562516e-005
,,,-2.37500000e-009,1.40625010e-005
,,,-2.35000000e-009,0.00000000e+000
,,,-2.32500000e-009,-2.18750015e-005
,,,-2.30000000e-009,-4.92187535e-005
,,,-2.27500000e-009,-8.04687557e-005
,,,-2.25000000e-009,-1.11718758e-004
,,,-2.22500000e-009,-1.41406260e-004
,,,-2.20000000e-009,-1.67187512e-004
,,,-2.17500000e-009,-1.86718763e-004
,,,-2.15000000e-009,-2.00000014e-004
,,,-2.12500000e-009,-2.07812515e-004
,,,-2.10000000e-009,-2.10937515e-004
,,,-2.07500000e-009,-2.09375015e-004
,,,-2.05000000e-009,-2.05468765e-004
,,,-2.02500000e-009,-2.00781264e-004
,,,-2.00000000e-009,-1.96875014e-004
,,,-1.97500000e-009,-1.96093764e-004
,,,-1.95000000e-009,-2.00000014e-004
,,,-1.92500000e-009,-2.14843765e-004
,,,-1.90000000e-009,-2.36718767e-004
,,,-1.87500000e-009,-2.63281269e-004
,,,-1.85000000e-009,-2.93750021e-004
,,,-1.82500000e-009,-3.25000023e-004
,,,-1.80000000e-009,-3.54687525e-004
,,,-1.77500000e-009,-3.79687527e-004
,,,-1.75000000e-009,-4.00000028e-004
,,,-1.72500000e-009,-4.19531280e-004
,,,-1.70000000e-009,-4.33593781e-004
,,,-1.67500000e-009,-4.40625031e-004
,,,-1.65000000e-009,-4.41406281e-004
,,,-1.62500000e-009,-4.36718781e-004
,,,-1.60000000e-009,-4.26562530e-004
,,,-1.57500000e-009,-4.13281279e-004
,,,-1.55000000e-009,-4.00000028e-004
,,,-1.52500000e-009,-3.98437528e-004
,,,-1.50000000e-009,-4.03906279e-004
,,,-1.47500000e-009,-4.16406279e-004
,,,-1.45000000e-009,-4.37500031e-004
,,,-1.42500000e-009,-4.66406283e-004
,,,-1.40000000e-009,-5.03906286e-004
,,,-1.37500000e-009,-5.47656289e-004
,,,-1.35000000e-009,-6.00000042e-004
,,,-1.32500000e-009,-6.70312547e-004
,,,-1.30000000e-009,-7.47656303e-004
,,,-1.27500000e-009,-8.29687559e-004
,,,-1.25000000e-009,-9.12500065e-004
,,,-1.22500000e-009,-9.93750070e-004
,,,-1.20000000e-009,-1.06953133e-003
,,,-1.17500000e-009,-1.13828133e-003
,,,-1.15000000e-009,-1.20000008e-003
,,,-1.12500000e-009,-1.26328134e-003
,,,-1.10000000e-009,-1.32187509e-003
,,,-1.07500000e-009,-1.37578135e-003
,,,-1.05000000e-009,-1.42578135e-003
,,,-1.02500000e-009,-1.47109385e-003
,,,-1.00000000e-009,-1.51484386e-003
,,,-9.75000000e-010,-1.55703136e-003
,,,-9.50000000e-010,-1.60000011e-003
,,,-9.25000000e-010,-1.65703137e-003
,,,-9.00000000e-010,-1.72109387e-003
,,,-8.75000000e-010,-1.79218763e-003
,,,-8.50000000e-010,-1.86875013e-003
,,,-8.25000000e-010,-1.95000014e-003
,,,-8.00000000e-010,-2.03281264e-003
,,,-7.75000000e-010,-2.11640640e-003
,,,-7.50000000e-010,-2.20000016e-003
,,,-7.25000000e-010,-2.29218766e-003
,,,-7.00000000e-010,-2.38750017e-003
,,,-6.75000000e-010,-2.48593768e-003
,,,-6.50000000e-010,-2.58671893e-003
,,,-6.25000000e-010,-2.68906269e-003
,,,-6.00000000e-010,-2.79218770e-003
,,,-5.75000000e-010,-2.89609395e-003
,,,-5.50000000e-010,-3.00000021e-003
,,,-5.25000000e-010,-3.10703147e-003
,,,-5.00000000e-010,-3.21718773e-003
,,,-4.75000000e-010,-3.32734399e-003
,,,-4.50000000e-010,-3.43515649e-003
,,,-4.25000000e-010,-3.53906275e-003
,,,-4.00000000e-010,-3.63515651e-003
,,,-3.75000000e-010,-3.72187526e-003
,,,-3.50000000e-010,-3.80000027e-003
,,,-3.25000000e-010,-3.86640652e-003
,,,-3.00000000e-010,-3.93125028e-003
,,,-2.75000000e-010,-3.99687528e-003
,,,-2.50000000e-010,-4.06562529e-003
,,,-2.25000000e-010,-4.13828154e-003
,,,-2.00000000e-010,-4.21796905e-003
,,,-1.75000000e-010,-4.30546905e-003
,,,-1.50000000e-010,-4.40000031e-003
,,,-1.25000000e-010,-4.49687532e-003
,,,-1.00000000e-010,-4.60234408e-003
,,,-7.50000000e-011,-4.71328158e-003
,,,-5.00000000e-011,-4.82578159e-003
,,,-2.50000000e-011,-4.93437535e-003
,,,0.00000000e+000,-5.03515661e-003
,,,2.50000000e-011,-5.12421911e-003
,,,5.00000000e-011,-5.20000037e-003
,,,7.50000000e-011,-5.24843787e-003
,,,1.00000000e-010,-5.28906287e-003
,,,1.25000000e-010,-5.32656288e-003
,,,1.50000000e-010,-5.36406288e-003
,,,1.75000000e-010,-5.40703163e-003
,,,2.00000000e-010,-5.45937539e-003
,,,2.25000000e-010,-5.52343789e-003
,,,2.50000000e-010,-5.60000040e-003
,,,2.75000000e-010,-5.67421915e-003
,,,3.00000000e-010,-5.76015666e-003
,,,3.25000000e-010,-5.85312541e-003
,,,3.50000000e-010,-5.94687542e-003
,,,3.75000000e-010,-6.03515668e-003
,,,4.00000000e-010,-6.11015668e-003
,,,4.25000000e-010,-6.16640669e-003
,,,4.50000000e-010,-6.20000044e-003
,,,4.75000000e-010,-6.19218794e-003
,,,5.00000000e-010,-6.16718794e-003
,,,5.25000000e-010,-6.12968793e-003
,,,5.50000000e-010,-6.08750043e-003
,,,5.75000000e-010,-6.04687543e-003
,,,6.00000000e-010,-6.01562543e-003
,,,6.25000000e-010,-5.99843792e-003
,,,6.50000000e-010,-6.00000042e-003
,,,6.75000000e-010,-6.00312542e-003
,,,7.00000000e-010,-6.02421918e-003
,,,7.25000000e-010,-6.05859418e-003
,,,7.50000000e-010,-6.10078168e-003
,,,7.75000000e-010,-6.14375043e-003
,,,8.00000000e-010,-6.17890669e-003
,,,8.25000000e-010,-6.19921919e-003
,,,8.50000000e-010,-6.20000044e-003
,,,8.75000000e-010,-6.15937544e-003
,,,9.00000000e-010,-6.09765668e-003
,,,9.25000000e-010,-6.01796918e-003
,,,9.50000000e-010,-5.92734417e-003
,,,9.75000000e-010,-5.83359416e-003
,,,1.00000000e-009,-5.74296916e-003
,,,1.02500000e-009,-5.66328165e-003
,,,1.05000000e-009,-5.60000040e-003
,,,1.07500000e-009,-5.54453164e-003
,,,1.10000000e-009,-5.50937539e-003
,,,1.12500000e-009,-5.49531289e-003
,,,1.15000000e-009,-5.49921914e-003
,,,1.17500000e-009,-5.51718789e-003
,,,1.20000000e-009,-5.54375039e-003
,,,1.22500000e-009,-5.57343789e-003
,,,1.25000000e-009,-5.60000040e-003
,,,1.27500000e-009,-5.60312540e-003
,,,1.30000000e-009,-5.59140665e-003
,,,1.32500000e-009,-5.56328164e-003
,,,1.35000000e-009,-5.51718789e-003
,,,1.37500000e-009,-5.45625039e-003
,,,1.40000000e-009,-5.38046913e-003
,,,1.42500000e-009,-5.29453162e-003
,,,1.45000000e-009,-5.20000037e-003
,,,1.47500000e-009,-5.08906286e-003
,,,1.50000000e-009,-4.97500035e-003
,,,1.52500000e-009,-4.86093784e-003
,,,1.55000000e-009,-4.75000034e-003
,,,1.57500000e-009,-4.64609408e-003
,,,1.60000000e-009,-4.55234407e-003
,,,1.62500000e-009,-4.46953157e-003
,,,1.65000000e-009,-4.40000031e-003
,,,1.67500000e-009,-4.33515656e-003
,,,1.70000000e-009,-4.27812530e-003
,,,1.72500000e-009,-4.22656280e-003
,,,1.75000000e-009,-4.17968780e-003
,,,1.77500000e-009,-4.13515654e-003
,,,1.80000000e-009,-4.09140654e-003
,,,1.82500000e-009,-4.04687529e-003
,,,1.85000000e-009,-4.00000028e-003
,,,1.87500000e-009,-3.94218778e-003
,,,1.90000000e-009,-3.87578152e-003
,,,1.92500000e-009,-3.80156277e-003
,,,1.95000000e-009,-3.72187526e-003
,,,1.97500000e-009,-3.63906276e-003
,,,2.00000000e-009,-3.55625025e-003
,,,2.02500000e-009,-3.47578150e-003
,,,2.05000000e-009,-3.40000024e-003
,,,2.07500000e-009,-3.32500024e-003
,,,2.10000000e-009,-3.25234398e-003
,,,2.12500000e-009,-3.17968773e-003
,,,2.15000000e-009,-3.10625022e-003
,,,2.17500000e-009,-3.03281271e-003
,,,2.20000000e-009,-2.95703146e-003
,,,2.22500000e-009,-2.87968770e-003
,,,2.25000000e-009,-2.80000020e-003
,,,2.27500000e-009,-2.71953144e-003
,,,2.30000000e-009,-2.63593769e-003
,,,2.32500000e-009,-2.55000018e-003
,,,2.35000000e-009,-2.46562517e-003
,,,2.37500000e-009,-2.38515642e-003
,,,2.40000000e-009,-2.31328141e-003
,,,2.42500000e-009,-2.25078141e-003
,,,2.45000000e-009,-2.20000016e-003
,,,2.47500000e-009,-2.16250015e-003
,,,2.50000000e-009,-2.12812515e-003
,,,2.52500000e-009,-2.09296890e-003
,,,2.55000000e-009,-2.05468765e-003
,,,2.57500000e-009,-2.00781264e-003
,,,2.60000000e-009,-1.95156264e-003
,,,2.62500000e-009,-1.88203138e-003
,,,2.65000000e-009,-1.80000013e-003
,,,2.67500000e-009,-1.70937512e-003
,,,2.70000000e-009,-1.60625011e-003
,,,2.72500000e-009,-1.49375011e-003
,,,2.75000000e-009,-1.37734385e-003
,,,2.77500000e-009,-1.26406259e-003
,,,2.80000000e-009,-1.16015633e-003
,,,2.82500000e-009,-1.07031258e-003
,,,2.85000000e-009,-1.00000007e-003
,,,2.87500000e-009,-9.58593818e-004
,,,2.90000000e-009,-9.35937566e-004
,,,2.92500000e-009,-9.28906316e-004
,,,2.95000000e-009,-9.34375066e-004
,,,2.97500000e-009,-9.47656317e-004
,,,3.00000000e-009,-9.66406318e-004
,,,3.02500000e-009,-9.84375070e-004
,,,3.05000000e-009,-1.00000007e-003
,,,3.07500000e-009,-1.01406257e-003
,,,3.10000000e-009,-1.01484382e-003
,,,3.12500000e-009,-1.00234382e-003
,,,3.15000000e-009,-9.77343819e-004
,,,3.17500000e-009,-9.41406317e-004
,,,3.20000000e-009,-8.97656314e-004
,,,3.22500000e-009,-8.49218810e-004
,,,3.25000000e-009,-8.00000057e-004
,,,3.27500000e-009,-7.57812554e-004
,,,3.30000000e-009,-7.18750051e-004
,,,3.32500000e-009,-6.83593798e-004
,,,3.35000000e-009,-6.53906296e-004
,,,3.37500000e-009,-6.29687545e-004
,,,3.40000000e-009,-6.13281293e-004
,,,3.42500000e-009,-6.03125043e-004
,,,3.45000000e-009,-6.00000042e-004
,,,3.47500000e-009,-6.06250043e-004
,,,3.50000000e-009,-6.14062543e-004
,,,3.52500000e-009,-6.20312544e-004
,,,3.55000000e-009,-6.25000044e-004
,,,3.57500000e-009,-6.26562544e-004
,,,3.60000000e-009,-6.22656294e-004
,,,3.62500000e-009,-6.14062543e-004
,,,3.65000000e-009,-6.00000042e-004
,,,3.67500000e-009,-5.82812541e-004
,,,3.70000000e-009,-5.60937540e-004
,,,3.72500000e-009,-5.33593788e-004
,,,3.75000000e-009,-5.03906286e-004
,,,3.77500000e-009,-4.73437534e-004
,,,3.80000000e-009,-4.44531281e-004
,,,3.82500000e-009,-4.19531280e-004
,,,3.85000000e-009,-4.00000028e-004
,,,3.87500000e-009,-3.89062528e-004
,,,3.90000000e-009,-3.83593777e-004
,,,3.92500000e-009,-3.82812527e-004
,,,3.95000000e-009,-3.85937527e-004
,,,3.97500000e-009,-3.90625028e-004
,,,4.00000000e-009,-3.95312528e-004
,,,4.02500000e-009,-3.98437528e-004
,,,4.05000000e-009,-4.00000028e-004
,,,4.07500000e-009,-4.00000028e-004
,,,4.10000000e-009,-3.96875028e-004
,,,4.12500000e-009,-3.92187528e-004
,,,4.15000000e-009,-3.87500027e-004
,,,4.17500000e-009,-3.84375027e-004
,,,4.20000000e-009,-3.85156277e-004
,,,4.22500000e-009,-3.89843778e-004
,,,4.25000000e-009,-4.00000028e-004
,,,4.27500000e-009,-4.13281279e-004
,,,4.30000000e-009,-4.28906280e-004
,,,4.32500000e-009,-4.42187531e-004
,,,4.35000000e-009,-4.51562532e-004
,,,4.37500000e-009,-4.53906282e-004
,,,4.40000000e-009,-4.46875032e-004
,,,4.42500000e-009,-4.28906280e-004
,,,4.45000000e-009,-4.00000028e-004
,,,4.47500000e-009,-3.61718776e-004
,,,4.50000000e-009,-3.17968773e-004
,,,4.52500000e-009,-2.72656269e-004
,,,4.55000000e-009,-2.31250016e-004
,,,4.57500000e-009,-1.99218764e-004
,,,4.60000000e-009,-1.81250013e-004
,,,4.62500000e-009,-1.80468763e-004
,,,4.65000000e-009,-2.00000014e-004
,,,4.67500000e-009,-2.39843767e-004
,,,4.70000000e-009,-2.94531271e-004
,,,4.72500000e-009,-3.58593775e-004
,,,4.75000000e-009,-4.26562530e-004
,,,4.77500000e-009,-4.91406285e-004
,,,4.80000000e-009,-5.45312539e-004
,,,4.82500000e-009,-5.82812541e-004
,,,4.85000000e-009,-6.00000042e-004
,,,4.87500000e-009,-5.91406292e-004
,,,4.90000000e-009,-5.61718790e-004
,,,4.92500000e-009,-5.13281286e-004
,,,4.95000000e-009,-4.51562532e-004
,,,4.97500000e-009,-3.83593777e-004
,,,5.00000000e-009,-3.14843772e-004
,,,5.02500000e-009,-2.51562518e-004
,,,5.05000000e-009,-2.00000014e-004
,,,5.07500000e-009,-1.62500012e-004
,,,5.10000000e-009,-1.41406260e-004
,,,5.12500000e-009,-1.35156260e-004
,,,5.15000000e-009,-1.39843760e-004
,,,5.17500000e-009,-1.53125011e-004
,,,5.20000000e-009,-1.69531262e-004
,,,5.22500000e-009,-1.86718763e-004
,,,5.25000000e-009,-2.00000014e-004
,,,5.27500000e-009,-2.07031265e-004
,,,5.30000000e-009,-2.07812515e-004
,,,5.32500000e-009,-2.03906264e-004
,,,5.35000000e-009,-1.96093764e-004
,,,5.37500000e-009,-1.89062513e-004
,,,5.40000000e-009,-1.85937513e-004
,,,5.42500000e-009,-1.88281263e-004
,,,5.45000000e-009,-2.00000014e-004
,,,5.47500000e-009,-2.17968765e-004
,,,5.50000000e-009,-2.44531267e-004
,,,5.52500000e-009,-2.75781270e-004
,,,5.55000000e-009,-3.09375022e-004
,,,5.57500000e-009,-3.41406274e-004
,,,5.60000000e-009,-3.69531276e-004
,,,5.62500000e-009,-3.89843778e-004
,,,5.65000000e-009,-4.00000028e-004
,,,5.67500000e-009,-3.94531278e-004
,,,5.70000000e-009,-3.78906277e-004
,,,5.72500000e-009,-3.53906275e-004
,,,5.75000000e-009,-3.22656273e-004
,,,5.77500000e-009,-2.88281270e-004
,,,5.80000000e-009,-2.53906268e-004
,,,5.82500000e-009,-2.23437516e-004
,,,5.85000000e-009,-2.00000014e-004
,,,5.87500000e-009,-1.82812513e-004
,,,5.90000000e-009,-1.74218762e-004
