RawData/SinglePhotoelectron/R1_2pt2B_5mV/wave011_Ch2.csv

"Record Length",1000,"Points",-7.72500000e-009,-1.81250013e-004
"Sample Interval",2.50000000e-011,s,-7.70000000e-009,-1.58593761e-004
"Trigger Point",309,"Samples",-7.67500000e-009,-1.32031259e-004
"Trigger Time",4.29210884e-012,s,-7.65000000e-009,-1.03906257e-004
"",,,-7.62500000e-009,-7.50000053e-005
"Horizontal Offset",-7.72500000e-009,s,-7.60000000e-009,-4.68750033e-005
,,,-7.57500000e-009,-2.10937515e-005
,,,-7.55000000e-009,0.00000000e+000
,,,-7.52500000e-009,1.48437511e-005
,,,-7.50000000e-009,2.42187517e-005
,,,-7.47500000e-009,2.89062520e-005
,,,-7.45000000e-009,2.89062520e-005
,,,-7.42500000e-009,2.42187517e-005
,,,-7.40000000e-009,1.71875012e-005
,,,-7.37500000e-009,8.59375061e-006
,,,-7.35000000e-009,0.00000000e+000
,,,-7.32500000e-009,-1.01562507e-005
,,,-7.30000000e-009,-1.87500013e-005
,,,-7.27500000e-009,-2.42187517e-005
,,,-7.25000000e-009,-2.73437519e-005
,,,-7.22500000e-009,-2.57812518e-005
,,,-7.20000000e-009,-2.10937515e-005
,,,-7.17500000e-009,-1.25000009e-005
,,,-7.15000000e-009,0.00000000e+000
,,,-7.12500000e-009,1.40625010e-005
,,,-7.10000000e-009,3.28125023e-005
,,,-7.07500000e-009,5.46875039e-005
,,,-7.05000000e-009,7.96875056e-005
,,,-7.02500000e-009,1.07812508e-004
,,,-7.00000000e-009,1.37500010e-004
,,,-6.97500000e-009,1.68750012e-004
,,,-6.95000000e-009,2.00000014e-004
,,,-6.92500000e-009,2.23437516e-004
,,,-6.90000000e-009,2.43750017e-004
,,,-6.87500000e-009,2.57812518e-004
,,,-6.85000000e-009,2.64062519e-004
,,,-6.82500000e-009,2.62500019e-004
,,,-6.80000000e-009,2.51562518e-004
,,,-6.77500000e-009,2.30468766e-004
,,,-6.75000000e-009,2.00000014e-004
,,,-6.72500000e-009,1.54687511e-004
,,,-6.70000000e-009,1.02343757e-004
,,,-6.67500000e-009,4.60937533e-005
,,,-6.65000000e-009,-1.09375008e-005
,,,-6.62500000e-009,-6.71875048e-005
,,,-6.60000000e-009,-1.18750008e-004
,,,-6.57500000e-009,-1.63281262e-004
,,,-6.55000000e-009,-2.00000014e-004
,,,-6.52500000e-009,-2.26562516e-004
,,,-6.50000000e-009,-2.43750017e-004
,,,-6.47500000e-009,-2.51562518e-004
,,,-6.45000000e-009,-2.50781268e-004
,,,-6.42500000e-009,-2.42968767e-004
,,,-6.40000000e-009,-2.31250016e-004
,,,-6.37500000e-009,-2.15625015e-004
,,,-6.35000000e-009,-2.00000014e-004
,,,-6.32500000e-009,-1.85937513e-004
,,,-6.30000000e-009,-1.75781262e-004
,,,-6.27500000e-009,-1.68750012e-004
,,,-6.25000000e-009,-1.67187512e-004
,,,-6.22500000e-009,-1.69531262e-004
,,,-6.20000000e-009,-1.75781262e-004
,,,-6.17500000e-009,-1.85937513e-004
,,,-6.15000000e-009,-2.00000014e-004
,,,-6.12500000e-009,-2.15625015e-004
,,,-6.10000000e-009,-2.35156267e-004
,,,-6.07500000e-009,-2.57031268e-004
,,,-6.05000000e-009,-2.80468770e-004
,,,-6.02500000e-009,-3.07031272e-004
,,,-6.00000000e-009,-3.35937524e-004
,,,-5.97500000e-009,-3.67187526e-004
,,,-5.95000000e-009,-4.00000028e-004
,,,-5.92500000e-009,-4.29687530e-004
,,,-5.90000000e-009,-4.59375033e-004
,,,-5.87500000e-009,-4.89062535e-004
,,,-5.85000000e-009,-5.17187537e-004
,,,-5.82500000e-009,-5.43750038e-004
,,,-5.80000000e-009,-5.66406290e-004
,,,-5.77500000e-009,-5.85156291e-004
,,,-5.75000000e-009,-6.00000042e-004
,,,-5.72500000e-009,-6.03906293e-004
,,,-5.70000000e-009,-6.04687543e-004
,,,-5.67500000e-009,-6.03125043e-004
,,,-5.65000000e-009,-6.00000042e-004
,,,-5.62500000e-009,-5.97656292e-004
,,,-5.60000000e-009,-5.96093792e-004
,,,-5.57500000e-009,-5.96875042e-004
,,,-5.55000000e-009,-6.00000042e-004
,,,-5.52500000e-009,-6.00000042e-004
,,,-5.50000000e-009,-6.01562543e-004
,,,-5.47500000e-009,-6.04687543e-004
,,,-5.45000000e-009,-6.07812543e-004
,,,-5.42500000e-009,-6.10156293e-004
,,,-5.40000000e-009,-6.10156293e-004
,,,-5.37500000e-009,-6.07031293e-004
,,,-5.35000000e-009,-6.00000042e-004
,,,-5.32500000e-009,-5.83593791e-004
,,,-5.30000000e-009,-5.63281290e-004
,,,-5.27500000e-009,-5.39062538e-004
,,,-5.25000000e-009,-5.12500036e-004
,,,-5.22500000e-009,-4.84375034e-004
,,,-5.20000000e-009,-4.55468782e-004
,,,-5.17500000e-009,-4.26562530e-004
,,,-5.15000000e-009,-4.00000028e-004
,,,-5.12500000e-009,-3.71093776e-004
,,,-5.10000000e-009,-3.44531274e-004
,,,-5.07500000e-009,-3.19531273e-004
,,,-5.05000000e-009,-2.96093771e-004
,,,-5.02500000e-009,-2.72656269e-004
,,,-5.00000000e-009,-2.49218768e-004
,,,-4.97500000e-009,-2.25000016e-004
,,,-4.95000000e-009,-2.00000014e-004
,,,-4.92500000e-009,-1.72656262e-004
,,,-4.90000000e-009,-1.44531260e-004
,,,-4.87500000e-009,-1.15625008e-004
,,,-4.85000000e-009,-8.75000062e-005
,,,-4.82500000e-009,-6.09375043e-005
,,,-4.80000000e-009,-3.67187526e-005
,,,-4.77500000e-009,-1.64062512e-005
,,,-4.75000000e-009,0.00000000e+000
,,,-4.72500000e-009,9.37500066e-006
,,,-4.70000000e-009,1.48437511e-005
,,,-4.67500000e-009,1.64062512e-005
,,,-4.65000000e-009,1.56250011e-005
,,,-4.62500000e-009,1.25000009e-005
,,,-4.60000000e-009,8.59375061e-006
,,,-4.57500000e-009,3.90625028e-006
,,,-4.55000000e-009,0.00000000e+000
,,,-4.52500000e-009,-5.46875039e-006
,,,-4.50000000e-009,-9.37500066e-006
,,,-4.47500000e-009,-1.09375008e-005
,,,-4.45000000e-009,-1.09375008e-005
,,,-4.42500000e-009,-8.59375061e-006
,,,-4.40000000e-009,-6.25000044e-006
,,,-4.37500000e-009,-3.12500022e-006
,,,-4.35000000e-009,0.00000000e+000
,,,-4.32500000e-009,0.00000000e+000
,,,-4.30000000e-009,0.00000000e+000
,,,-4.27500000e-009,7.81250055e-007
,,,-4.25000000e-009,7.81250055e-007
,,,-4.22500000e-009,0.00000000e+000
,,,-4.20000000e-009,0.00000000e+000
,,,-4.17500000e-009,0.00000000e+000
,,,-4.15000000e-009,0.00000000e+000
,,,-4.12500000e-009,-7.81250055e-007
,,,-4.10000000e-009,-7.81250055e-007
,,,-4.07500000e-009,0.00000000e+000
,,,-4.05000000e-009,0.00000000e+000
,,,-4.02500000e-009,0.00000000e+000
,,,-4.00000000e-009,7.81250055e-007
,,,-3.97500000e-009,7.81250055e-007
,,,-3.95000000e-009,0.00000000e+000
,,,-3.92500000e-009,-7.81250055e-007
,,,-3.90000000e-009,-2.34375017e-006
,,,-3.87500000e-009,-3.12500022e-006
,,,-3.85000000e-009,-3.90625028e-006
,,,-3.82500000e-009,-3.90625028e-006
,,,-3.80000000e-009,-3.12500022e-006
,,,-3.77500000e-009,-1.56250011e-006
,,,-3.75000000e-009,0.00000000e+000
,,,-3.72500000e-009,2.34375017e-006
,,,-3.70000000e-009,4.68750033e-006
,,,-3.67500000e-009,7.03125050e-006
,,,-3.65000000e-009,8.59375061e-006
,,,-3.62500000e-009,8.59375061e-006
,,,-3.60000000e-009,7.03125050e-006
,,,-3.57500000e-009,3.90625028e-006
,,,-3.55000000e-009,0.00000000e+000
,,,-3.52500000e-009,-4.68750033e-006
,,,-3.50000000e-009,-1.09375008e-005
,,,-3.47500000e-009,-1.56250011e-005
,,,-3.45000000e-009,-1.95312514e-005
,,,-3.42500000e-009,-2.03125014e-005
,,,-3.40000000e-009,-1.79687513e-005
,,,-3.37500000e-009,-1.09375008e-005
,,,-3.35000000e-009,0.00000000e+000
,,,-3.32500000e-009,1.56250011e-005
,,,-3.30000000e-009,3.59375025e-005
,,,-3.27500000e-009,6.01562543e-005
,,,-3.25000000e-009,8.75000062e-005
,,,-3.22500000e-009,1.16406258e-004
,,,-3.20000000e-009,1.45312510e-004
,,,-3.17500000e-009,1.73437512e-004
,,,-3.15000000e-009,2.00000014e-004
,,,-3.12500000e-009,2.19531266e-004
,,,-3.10000000e-009,2.35156267e-004
,,,-3.07500000e-009,2.44531267e-004
,,,-3.05000000e-009,2.47656268e-004
,,,-3.02500000e-009,2.44531267e-004
,,,-3.00000000e-009,2.35156267e-004
,,,-2.97500000e-009,2.19531266e-004
,,,-2.95000000e-009,2.00000014e-004
,,,-2.92500000e-009,1.72656262e-004
,,,-2.90000000e-009,1.43750010e-004
,,,-2.87500000e-009,1.13281258e-004
,,,-2.85000000e-009,8.43750060e-005
,,,-2.82500000e-009,5.70312540e-005
,,,-2.80000000e-009,3.35937524e-005
,,,-2.77500000e-009,1.40625010e-005
,,,-2.75000000e-009,0.00000000e+000
,,,-2.72500000e-009,-1.01562507e-005
,,,-2.70000000e-009,-1.48437511e-005
,,,-2.67500000e-009,-1.64062512e-005
,,,-2.65000000e-009,-1.48437511e-005
,,,-2.62500000e-009,-1.17187508e-005
,,,-2.60000000e-009,-7.03125050e-006
,,,-2.57500000e-009,-3.12500022e-006
,,,-2.55000000e-009,0.00000000e+000
,,,-2.52500000e-009,0.00000000e+000
,,,-2.50000000e-009,-1.56250011e-006
,,,-2.47500000e-009,-3.90625028e-006
,,,-2.45000000e-009,-6.25000044e-006
,,,-2.42500000e-009,-7.81250055e-006
,,,-2.40000000e-009,-7.81250055e-006
,,,-2.37500000e-009,-4.68750033e-006
,,,-2.35000000e-009,0.00000000e+000
,,,-2.32500000e-009,6.25000044e-006
,,,-2.30000000e-009,1.40625010e-005
,,,-2.27500000e-009,2.10937515e-005
,,,-2.25000000e-009,2.65625019e-005
,,,-2.22500000e-009,2.89062520e-005
,,,-2.20000000e-009,2.50000018e-005
,,,-2.17500000e-009,1.56250011e-005
,,,-2.15000000e-009,0.00000000e+000
,,,-2.12500000e-009,-2.18750015e-005
,,,-2.10000000e-009,-5.00000035e-005
,,,-2.07500000e-009,-8.04687557e-005
,,,-2.05000000e-009,-1.12500008e-004
,,,-2.02500000e-009,-1.42187510e-004
,,,-2.00000000e-009,-1.67968762e-004
,,,-1.97500000e-009,-1.87500013e-004
,,,-1.95000000e-009,-2.00000014e-004
,,,-1.92500000e-009,-2.03125014e-004
,,,-1.90000000e-009,-2.00781264e-004
,,,-1.87500000e-009,-1.94531264e-004
,,,-1.85000000e-009,-1.87500013e-004
,,,-1.82500000e-009,-1.82031263e-004
,,,-1.80000000e-009,-1.81250013e-004
,,,-1.77500000e-009,-1.86718763e-004
,,,-1.75000000e-009,-2.00000014e-004
,,,-1.72500000e-009,-2.19531266e-004
,,,-1.70000000e-009,-2.46875017e-004
,,,-1.67500000e-009,-2.78125020e-004
,,,-1.65000000e-009,-3.11718772e-004
,,,-1.62500000e-009,-3.42968774e-004
,,,-1.60000000e-009,-3.70312526e-004
,,,-1.57500000e-009,-3.89843778e-004
,,,-1.55000000e-009,-4.00000028e-004
,,,-1.52500000e-009,-3.96875028e-004
,,,-1.50000000e-009,-3.82812527e-004
,,,-1.47500000e-009,-3.60937526e-004
,,,-1.45000000e-009,-3.31250023e-004
,,,-1.42500000e-009,-2.97656271e-004
,,,-1.40000000e-009,-2.62500019e-004
,,,-1.37500000e-009,-2.28906266e-004
,,,-1.35000000e-009,-2.00000014e-004
,,,-1.32500000e-009,-1.81250013e-004
,,,-1.30000000e-009,-1.71875012e-004
,,,-1.27500000e-009,-1.69531262e-004
,,,-1.25000000e-009,-1.72656262e-004
,,,-1.22500000e-009,-1.80468763e-004
,,,-1.20000000e-009,-1.88281263e-004
,,,-1.17500000e-009,-1.95312514e-004
,,,-1.15000000e-009,-2.00000014e-004
,,,-1.12500000e-009,-2.14062515e-004
,,,-1.10000000e-009,-2.25781266e-004
,,,-1.07500000e-009,-2.33593767e-004
,,,-1.05000000e-009,-2.37500017e-004
,,,-1.02500000e-009,-2.35156267e-004
,,,-1.00000000e-009,-2.28125016e-004
,,,-9.75000000e-010,-2.15625015e-004
,,,-9.50000000e-010,-2.00000014e-004
,,,-9.25000000e-010,-2.07812515e-004
,,,-9.00000000e-010,-2.17187515e-004
,,,-8.75000000e-010,-2.27343766e-004
,,,-8.50000000e-010,-2.34375017e-004
,,,-8.25000000e-010,-2.35937517e-004
,,,-8.00000000e-010,-2.31250016e-004
,,,-7.75000000e-010,-2.18750015e-004
,,,-7.50000000e-010,-2.00000014e-004
,,,-7.25000000e-010,-2.21093766e-004
,,,-7.00000000e-010,-2.46093767e-004
,,,-6.75000000e-010,-2.73437519e-004
,,,-6.50000000e-010,-3.01562521e-004
,,,-6.25000000e-010,-3.27343773e-004
,,,-6.00000000e-010,-3.52343775e-004
,,,-5.75000000e-010,-3.75000027e-004
,,,-5.50000000e-010,-4.00000028e-004
,,,-5.25000000e-010,-4.91406285e-004
,,,-5.00000000e-010,-5.99218792e-004
,,,-4.75000000e-010,-7.19531301e-004
,,,-4.50000000e-010,-8.49218810e-004
,,,-4.25000000e-010,-9.84375070e-004
,,,-4.00000000e-010,-1.12187508e-003
,,,-3.75000000e-010,-1.26015634e-003
,,,-3.50000000e-010,-1.40000010e-003
,,,-3.25000000e-010,-1.60625011e-003
,,,-3.00000000e-010,-1.82656263e-003
,,,-2.75000000e-010,-2.05546890e-003
,,,-2.50000000e-010,-2.28906266e-003
,,,-2.25000000e-010,-2.52187518e-003
,,,-2.00000000e-010,-2.75156269e-003
,,,-1.75000000e-010,-2.97656271e-003
,,,-1.50000000e-010,-3.20000023e-003
,,,-1.25000000e-010,-3.47656275e-003
,,,-1.00000000e-010,-3.76875027e-003
,,,-7.50000000e-011,-4.07578154e-003
,,,-5.00000000e-011,-4.39531281e-003
,,,-2.50000000e-011,-4.72812533e-003
,,,0.00000000e+000,-5.07265661e-003
,,,2.50000000e-011,-5.42890663e-003
,,,5.00000000e-011,-5.80000041e-003
,,,7.50000000e-011,-6.21250044e-003
,,,1.00000000e-010,-6.65078172e-003
,,,1.25000000e-010,-7.11093800e-003
,,,1.50000000e-010,-7.59062554e-003
,,,1.75000000e-010,-8.08437557e-003
,,,2.00000000e-010,-8.58671936e-003
,,,2.25000000e-010,-9.09375064e-003
,,,2.50000000e-010,-9.60000068e-003
,,,2.75000000e-010,-1.00843757e-002
,,,3.00000000e-010,-1.05710945e-002
,,,3.25000000e-010,-1.10585945e-002
,,,3.50000000e-010,-1.15429696e-002
,,,3.75000000e-010,-1.20234384e-002
,,,4.00000000e-010,-1.24953134e-002
,,,4.25000000e-010,-1.29546884e-002
,,,4.50000000e-010,-1.34000009e-002
,,,4.75000000e-010,-1.37625010e-002
,,,5.00000000e-010,-1.41140635e-002
,,,5.25000000e-010,-1.44562510e-002
,,,5.50000000e-010,-1.47890635e-002
,,,5.75000000e-010,-1.51132823e-002
,,,6.00000000e-010,-1.54250011e-002
,,,6.25000000e-010,-1.57218761e-002
,,,6.50000000e-010,-1.60000011e-002
,,,6.75000000e-010,-1.61625011e-002
,,,7.00000000e-010,-1.63109387e-002
,,,7.25000000e-010,-1.64500012e-002
,,,7.50000000e-010,-1.65796887e-002
,,,7.75000000e-010,-1.67023449e-002
,,,8.00000000e-010,-1.68156262e-002
,,,8.25000000e-010,-1.69156262e-002
,,,8.50000000e-010,-1.70000012e-002
,,,8.75000000e-010,-1.69578137e-002
,,,9.00000000e-010,-1.69023449e-002
,,,9.25000000e-010,-1.68382824e-002
,,,9.50000000e-010,-1.67671887e-002
,,,9.75000000e-010,-1.66906262e-002
,,,1.00000000e-009,-1.66062512e-002
,,,1.02500000e-009,-1.65109387e-002
,,,1.05000000e-009,-1.64000012e-002
,,,1.07500000e-009,-1.61703136e-002
,,,1.10000000e-009,-1.59242199e-002
,,,1.12500000e-009,-1.56640636e-002
,,,1.15000000e-009,-1.53937511e-002
,,,1.17500000e-009,-1.51117198e-002
,,,1.20000000e-009,-1.48187510e-002
,,,1.22500000e-009,-1.45156260e-002
,,,1.25000000e-009,-1.42000010e-002
,,,1.27500000e-009,-1.38015635e-002
,,,1.30000000e-009,-1.33976572e-002
,,,1.32500000e-009,-1.29945322e-002
,,,1.35000000e-009,-1.25992196e-002
,,,1.37500000e-009,-1.22179696e-002
,,,1.40000000e-009,-1.18562508e-002
,,,1.42500000e-009,-1.15164071e-002
,,,1.45000000e-009,-1.12000008e-002
,,,1.47500000e-009,-1.08703133e-002
,,,1.50000000e-009,-1.05546882e-002
,,,1.52500000e-009,-1.02500007e-002
,,,1.55000000e-009,-9.95390695e-003
,,,1.57500000e-009,-9.66328193e-003
,,,1.60000000e-009,-9.37656316e-003
,,,1.62500000e-009,-9.08984439e-003
,,,1.65000000e-009,-8.80000062e-003
,,,1.67500000e-009,-8.50234435e-003
,,,1.70000000e-009,-8.18906308e-003
,,,1.72500000e-009,-7.86171931e-003
,,,1.75000000e-009,-7.52421928e-003
,,,1.77500000e-009,-7.18359426e-003
,,,1.80000000e-009,-6.84531298e-003
,,,1.82500000e-009,-6.51562546e-003
,,,1.85000000e-009,-6.20000044e-003
,,,1.87500000e-009,-5.92656292e-003
,,,1.90000000e-009,-5.66015665e-003
,,,1.92500000e-009,-5.40000038e-003
,,,1.95000000e-009,-5.14531286e-003
,,,1.97500000e-009,-4.89687535e-003
,,,2.00000000e-009,-4.65625033e-003
,,,2.02500000e-009,-4.42343781e-003
,,,2.05000000e-009,-4.20000030e-003
,,,2.07500000e-009,-4.02656279e-003
,,,2.10000000e-009,-3.85000027e-003
,,,2.12500000e-009,-3.66796901e-003
,,,2.15000000e-009,-3.48359400e-003
,,,2.17500000e-009,-3.30000023e-003
,,,2.20000000e-009,-3.12187522e-003
,,,2.22500000e-009,-2.95390646e-003
,,,2.25000000e-009,-2.80000020e-003
,,,2.27500000e-009,-2.71015644e-003
,,,2.30000000e-009,-2.62656269e-003
,,,2.32500000e-009,-2.54609393e-003
,,,2.35000000e-009,-2.46875017e-003
,,,2.37500000e-009,-2.39375017e-003
,,,2.40000000e-009,-2.32343766e-003
,,,2.42500000e-009,-2.25781266e-003
,,,2.45000000e-009,-2.20000016e-003
,,,2.47500000e-009,-2.19062516e-003
,,,2.50000000e-009,-2.18203140e-003
,,,2.52500000e-009,-2.17343765e-003
,,,2.55000000e-009,-2.16562515e-003
,,,2.57500000e-009,-2.16171890e-003
,,,2.60000000e-009,-2.16484390e-003
,,,2.62500000e-009,-2.17656265e-003
,,,2.65000000e-009,-2.20000016e-003
,,,2.67500000e-009,-2.26328141e-003
,,,2.70000000e-009,-2.32812516e-003
,,,2.72500000e-009,-2.39140642e-003
,,,2.75000000e-009,-2.44843767e-003
,,,2.77500000e-009,-2.49921893e-003
,,,2.80000000e-009,-2.54140643e-003
,,,2.82500000e-009,-2.57500018e-003
,,,2.85000000e-009,-2.60000018e-003
,,,2.87500000e-009,-2.63359394e-003
,,,2.90000000e-009,-2.65859394e-003
,,,2.92500000e-009,-2.67656269e-003
,,,2.95000000e-009,-2.69062519e-003
,,,2.97500000e-009,-2.70625019e-003
,,,3.00000000e-009,-2.72734394e-003
,,,3.02500000e-009,-2.75781270e-003
,,,3.05000000e-009,-2.80000020e-003
,,,3.07500000e-009,-2.85937520e-003
,,,3.10000000e-009,-2.92968771e-003
,,,3.12500000e-009,-3.00781271e-003
,,,3.15000000e-009,-3.09062522e-003
,,,3.17500000e-009,-3.17500022e-003
,,,3.20000000e-009,-3.25703148e-003
,,,3.22500000e-009,-3.33359399e-003
,,,3.25000000e-009,-3.40000024e-003
,,,3.27500000e-009,-3.44453149e-003
,,,3.30000000e-009,-3.47421900e-003
,,,3.32500000e-009,-3.48906275e-003
,,,3.35000000e-009,-3.48984400e-003
,,,3.37500000e-009,-3.47890650e-003
,,,3.40000000e-009,-3.45859399e-003
,,,3.42500000e-009,-3.43125024e-003
,,,3.45000000e-009,-3.40000024e-003
,,,3.47500000e-009,-3.35312524e-003
,,,3.50000000e-009,-3.30781273e-003
,,,3.52500000e-009,-3.26875023e-003
,,,3.55000000e-009,-3.23593773e-003
,,,3.57500000e-009,-3.21250023e-003
,,,3.60000000e-009,-3.19921898e-003
,,,3.62500000e-009,-3.19531273e-003
,,,3.65000000e-009,-3.20000023e-003
,,,3.67500000e-009,-3.19453148e-003
,,,3.70000000e-009,-3.19375023e-003
,,,3.72500000e-009,-3.19609398e-003
,,,3.75000000e-009,-3.20000023e-003
,,,3.77500000e-009,-3.20390648e-003
,,,3.80000000e-009,-3.20625023e-003
,,,3.82500000e-009,-3.20546898e-003
,,,3.85000000e-009,-3.20000023e-003
,,,3.87500000e-009,-3.17109397e-003
,,,3.90000000e-009,-3.13437522e-003
,,,3.92500000e-009,-3.08984397e-003
,,,3.95000000e-009,-3.03828147e-003
,,,3.97500000e-009,-2.98281271e-003
,,,4.00000000e-009,-2.92343771e-003
,,,4.02500000e-009,-2.86250020e-003
,,,4.05000000e-009,-2.80000020e-003
,,,4.07500000e-009,-2.72656269e-003
,,,4.10000000e-009,-2.65156269e-003
,,,4.12500000e-009,-2.57734393e-003
,,,4.15000000e-009,-2.50234393e-003
,,,4.17500000e-009,-2.42812517e-003
,,,4.20000000e-009,-2.35312517e-003
,,,4.22500000e-009,-2.27734391e-003
,,,4.25000000e-009,-2.20000016e-003
,,,4.27500000e-009,-2.11406265e-003
,,,4.30000000e-009,-2.02421889e-003
,,,4.32500000e-009,-1.92812514e-003
,,,4.35000000e-009,-1.82812513e-003
,,,4.37500000e-009,-1.72343762e-003
,,,4.40000000e-009,-1.61718761e-003
,,,4.42500000e-009,-1.50859386e-003
,,,4.45000000e-009,-1.40000010e-003
,,,4.47500000e-009,-1.29375009e-003
,,,4.50000000e-009,-1.18750008e-003
,,,4.52500000e-009,-1.08125008e-003
,,,4.55000000e-009,-9.75781319e-004
,,,4.57500000e-009,-8.73437562e-004
,,,4.60000000e-009,-7.75781305e-004
,,,4.62500000e-009,-6.83593798e-004
,,,4.65000000e-009,-6.00000042e-004
,,,4.67500000e-009,-5.34375038e-004
,,,4.70000000e-009,-4.78125034e-004
,,,4.72500000e-009,-4.32031281e-004
,,,4.75000000e-009,-3.98437528e-004
,,,4.77500000e-009,-3.78125027e-004
,,,4.80000000e-009,-3.71093776e-004
,,,4.82500000e-009,-3.78906277e-004
,,,4.85000000e-009,-4.00000028e-004
,,,4.87500000e-009,-4.41406281e-004
,,,4.90000000e-009,-4.86718784e-004
,,,4.92500000e-009,-5.30468788e-004
,,,4.95000000e-009,-5.67968790e-004
,,,4.97500000e-009,-5.96875042e-004
,,,5.00000000e-009,-6.12500043e-004
,,,5.02500000e-009,-6.14062543e-004
,,,5.05000000e-009,-6.00000042e-004
,,,5.07500000e-009,-5.78125041e-004
,,,5.10000000e-009,-5.41406288e-004
,,,5.12500000e-009,-4.90625035e-004
,,,5.15000000e-009,-4.31250031e-004
,,,5.17500000e-009,-3.67968776e-004
,,,5.20000000e-009,-3.04687522e-004
,,,5.22500000e-009,-2.47656268e-004
,,,5.25000000e-009,-2.00000014e-004
,,,5.27500000e-009,-1.72656262e-004
,,,5.30000000e-009,-1.57031261e-004
,,,5.32500000e-009,-1.50781261e-004
,,,5.35000000e-009,-1.53906261e-004
,,,5.37500000e-009,-1.62500012e-004
,,,5.40000000e-009,-1.74218762e-004
,,,5.42500000e-009,-1.87500013e-004
,,,5.45000000e-009,-2.00000014e-004
,,,5.47500000e-009,-2.14062515e-004
,,,5.50000000e-009,-2.22656266e-004
,,,5.52500000e-009,-2.25781266e-004
,,,5.55000000e-009,-2.23437516e-004
,,,5.57500000e-009,-2.17968765e-004
,,,5.60000000e-009,-2.10156265e-004
,,,5.62500000e-009,-2.03906264e-004
,,,5.65000000e-009,-2.00000014e-004
,,,5.67500000e-009,-2.02343764e-004
,,,5.70000000e-009,-2.10937515e-004
,,,5.72500000e-009,-2.25781266e-004
,,,5.75000000e-009,-2.48437518e-004
,,,5.77500000e-009,-2.78125020e-004
,,,5.80000000e-009,-3.14062522e-004
,,,5.82500000e-009,-3.54687525e-004
,,,5.85000000e-009,-4.00000028e-004
,,,5.87500000e-009,-4.44531281e-004
