RawData/SinglePhotoelectron/R1_2pt2B_5mV/wave002_Ch2.csv

"Record Length",1000,"Points",-7.72500000e-009,-4.34375031e-004
"Sample Interval",2.50000000e-011,s,-7.70000000e-009,-4.12500029e-004
"Trigger Point",309,"Samples",-7.67500000e-009,-4.00000028e-004
"Trigger Time",1.77000000e-012,s,-7.65000000e-009,-3.97656278e-004
"",,,-7.62500000e-009,-4.07031279e-004
"Horizontal Offset",-7.72500000e-009,s,-7.60000000e-009,-4.26562530e-004
,,,-7.57500000e-009,-4.55468782e-004
,,,-7.55000000e-009,-4.89062535e-004
,,,-7.52500000e-009,-5.26562537e-004
,,,-7.50000000e-009,-5.64843790e-004
,,,-7.47500000e-009,-6.00000042e-004
,,,-7.45000000e-009,-6.27343794e-004
,,,-7.42500000e-009,-6.46875046e-004
,,,-7.40000000e-009,-6.57812547e-004
,,,-7.37500000e-009,-6.60156297e-004
,,,-7.35000000e-009,-6.54687546e-004
,,,-7.32500000e-009,-6.41406295e-004
,,,-7.30000000e-009,-6.22656294e-004
,,,-7.27500000e-009,-6.00000042e-004
,,,-7.25000000e-009,-5.71093790e-004
,,,-7.22500000e-009,-5.41406288e-004
,,,-7.20000000e-009,-5.12500036e-004
,,,-7.17500000e-009,-4.84375034e-004
,,,-7.15000000e-009,-4.58593782e-004
,,,-7.12500000e-009,-4.35156281e-004
,,,-7.10000000e-009,-4.15625029e-004
,,,-7.07500000e-009,-4.00000028e-004
,,,-7.05000000e-009,-3.86718777e-004
,,,-7.02500000e-009,-3.77343777e-004
,,,-7.00000000e-009,-3.72656276e-004
,,,-6.97500000e-009,-3.71093776e-004
,,,-6.95000000e-009,-3.74218776e-004
,,,-6.92500000e-009,-3.80468777e-004
,,,-6.90000000e-009,-3.89062528e-004
,,,-6.87500000e-009,-4.00000028e-004
,,,-6.85000000e-009,-4.10937529e-004
,,,-6.82500000e-009,-4.20312530e-004
,,,-6.80000000e-009,-4.28125030e-004
,,,-6.77500000e-009,-4.32031281e-004
,,,-6.75000000e-009,-4.32031281e-004
,,,-6.72500000e-009,-4.26562530e-004
,,,-6.70000000e-009,-4.15625029e-004
,,,-6.67500000e-009,-4.00000028e-004
,,,-6.65000000e-009,-3.78125027e-004
,,,-6.62500000e-009,-3.52343775e-004
,,,-6.60000000e-009,-3.24218773e-004
,,,-6.57500000e-009,-2.95312521e-004
,,,-6.55000000e-009,-2.67187519e-004
,,,-6.52500000e-009,-2.40625017e-004
,,,-6.50000000e-009,-2.17968765e-004
,,,-6.47500000e-009,-2.00000014e-004
,,,-6.45000000e-009,-1.87500013e-004
,,,-6.42500000e-009,-1.81250013e-004
,,,-6.40000000e-009,-1.78125013e-004
,,,-6.37500000e-009,-1.78906263e-004
,,,-6.35000000e-009,-1.82812513e-004
,,,-6.32500000e-009,-1.88281263e-004
,,,-6.30000000e-009,-1.93750014e-004
,,,-6.27500000e-009,-2.00000014e-004
,,,-6.25000000e-009,-2.05468765e-004
,,,-6.22500000e-009,-2.10156265e-004
,,,-6.20000000e-009,-2.11718765e-004
,,,-6.17500000e-009,-2.11718765e-004
,,,-6.15000000e-009,-2.09375015e-004
,,,-6.12500000e-009,-2.07031265e-004
,,,-6.10000000e-009,-2.03125014e-004
,,,-6.07500000e-009,-2.00000014e-004
,,,-6.05000000e-009,-1.97656264e-004
,,,-6.02500000e-009,-1.96093764e-004
,,,-6.00000000e-009,-1.95312514e-004
,,,-5.97500000e-009,-1.95312514e-004
,,,-5.95000000e-009,-1.96093764e-004
,,,-5.92500000e-009,-1.96875014e-004
,,,-5.90000000e-009,-1.98437514e-004
,,,-5.87500000e-009,-2.00000014e-004
,,,-5.85000000e-009,-2.01562514e-004
,,,-5.82500000e-009,-2.02343764e-004
,,,-5.80000000e-009,-2.03125014e-004
,,,-5.77500000e-009,-2.03125014e-004
,,,-5.75000000e-009,-2.02343764e-004
,,,-5.72500000e-009,-2.01562514e-004
,,,-5.70000000e-009,-2.00781264e-004
,,,-5.67500000e-009,-2.00000014e-004
,,,-5.65000000e-009,-2.00781264e-004
,,,-5.62500000e-009,-2.01562514e-004
,,,-5.60000000e-009,-2.02343764e-004
,,,-5.57500000e-009,-2.03125014e-004
,,,-5.55000000e-009,-2.03125014e-004
,,,-5.52500000e-009,-2.02343764e-004
,,,-5.50000000e-009,-2.01562514e-004
,,,-5.47500000e-009,-2.00000014e-004
,,,-5.45000000e-009,-1.98437514e-004
,,,-5.42500000e-009,-1.96875014e-004
,,,-5.40000000e-009,-1.96093764e-004
,,,-5.37500000e-009,-1.95312514e-004
,,,-5.35000000e-009,-1.95312514e-004
,,,-5.32500000e-009,-1.96093764e-004
,,,-5.30000000e-009,-1.97656264e-004
,,,-5.27500000e-009,-2.00000014e-004
,,,-5.25000000e-009,-2.02343764e-004
,,,-5.22500000e-009,-2.04687514e-004
,,,-5.20000000e-009,-2.07031265e-004
,,,-5.17500000e-009,-2.08593765e-004
,,,-5.15000000e-009,-2.08593765e-004
,,,-5.12500000e-009,-2.07031265e-004
,,,-5.10000000e-009,-2.03906264e-004
,,,-5.07500000e-009,-2.00000014e-004
,,,-5.05000000e-009,-1.95312514e-004
,,,-5.02500000e-009,-1.90625013e-004
,,,-5.00000000e-009,-1.85937513e-004
,,,-4.97500000e-009,-1.83593763e-004
,,,-4.95000000e-009,-1.82812513e-004
,,,-4.92500000e-009,-1.84375013e-004
,,,-4.90000000e-009,-1.89843763e-004
,,,-4.87500000e-009,-2.00000014e-004
,,,-4.85000000e-009,-2.13281265e-004
,,,-4.82500000e-009,-2.32031266e-004
,,,-4.80000000e-009,-2.53906268e-004
,,,-4.77500000e-009,-2.79687520e-004
,,,-4.75000000e-009,-3.08593772e-004
,,,-4.72500000e-009,-3.39062524e-004
,,,-4.70000000e-009,-3.69531276e-004
,,,-4.67500000e-009,-4.00000028e-004
,,,-4.65000000e-009,-4.24218780e-004
,,,-4.62500000e-009,-4.44531281e-004
,,,-4.60000000e-009,-4.57812532e-004
,,,-4.57500000e-009,-4.63281283e-004
,,,-4.55000000e-009,-4.60937533e-004
,,,-4.52500000e-009,-4.48437532e-004
,,,-4.50000000e-009,-4.28125030e-004
,,,-4.47500000e-009,-4.00000028e-004
,,,-4.45000000e-009,-3.62500026e-004
,,,-4.42500000e-009,-3.22656273e-004
,,,-4.40000000e-009,-2.83593770e-004
,,,-4.37500000e-009,-2.48437518e-004
,,,-4.35000000e-009,-2.19531266e-004
,,,-4.32500000e-009,-2.01562514e-004
,,,-4.30000000e-009,-1.94531264e-004
,,,-4.27500000e-009,-2.00000014e-004
,,,-4.25000000e-009,-2.15625015e-004
,,,-4.22500000e-009,-2.41406267e-004
,,,-4.20000000e-009,-2.73437519e-004
,,,-4.17500000e-009,-3.07812522e-004
,,,-4.15000000e-009,-3.41406274e-004
,,,-4.12500000e-009,-3.70312526e-004
,,,-4.10000000e-009,-3.90625028e-004
,,,-4.07500000e-009,-4.00000028e-004
,,,-4.05000000e-009,-3.95312528e-004
,,,-4.02500000e-009,-3.79687527e-004
,,,-4.00000000e-009,-3.54687525e-004
,,,-3.97500000e-009,-3.23437523e-004
,,,-3.95000000e-009,-2.89062520e-004
,,,-3.92500000e-009,-2.54687518e-004
,,,-3.90000000e-009,-2.24218766e-004
,,,-3.87500000e-009,-2.00000014e-004
,,,-3.85000000e-009,-1.85937513e-004
,,,-3.82500000e-009,-1.80468763e-004
,,,-3.80000000e-009,-1.82812513e-004
,,,-3.77500000e-009,-1.89062513e-004
,,,-3.75000000e-009,-1.97656264e-004
,,,-3.72500000e-009,-2.03125014e-004
,,,-3.70000000e-009,-2.04687514e-004
,,,-3.67500000e-009,-2.00000014e-004
,,,-3.65000000e-009,-1.89062513e-004
,,,-3.62500000e-009,-1.70312512e-004
,,,-3.60000000e-009,-1.45312510e-004
,,,-3.57500000e-009,-1.14843758e-004
,,,-3.55000000e-009,-8.28125059e-005
,,,-3.52500000e-009,-5.15625036e-005
,,,-3.50000000e-009,-2.26562516e-005
,,,-3.47500000e-009,0.00000000e+000
,,,-3.45000000e-009,1.17187508e-005
,,,-3.42500000e-009,1.79687513e-005
,,,-3.40000000e-009,1.79687513e-005
,,,-3.37500000e-009,1.48437511e-005
,,,-3.35000000e-009,9.37500066e-006
,,,-3.32500000e-009,4.68750033e-006
,,,-3.30000000e-009,1.56250011e-006
,,,-3.27500000e-009,0.00000000e+000
,,,-3.25000000e-009,-3.12500022e-006
,,,-3.22500000e-009,-7.03125050e-006
,,,-3.20000000e-009,-1.40625010e-005
,,,-3.17500000e-009,-2.81250020e-005
,,,-3.15000000e-009,-5.07812536e-005
,,,-3.12500000e-009,-8.67187561e-005
,,,-3.10000000e-009,-1.35937510e-004
,,,-3.07500000e-009,-2.00000014e-004
,,,-3.05000000e-009,-2.76562520e-004
,,,-3.02500000e-009,-3.63281276e-004
,,,-3.00000000e-009,-4.53906282e-004
,,,-2.97500000e-009,-5.43750038e-004
,,,-2.95000000e-009,-6.28125044e-004
,,,-2.92500000e-009,-7.01562550e-004
,,,-2.90000000e-009,-7.60156304e-004
,,,-2.87500000e-009,-8.00000057e-004
,,,-2.85000000e-009,-8.13281308e-004
,,,-2.82500000e-009,-8.07031307e-004
,,,-2.80000000e-009,-7.85156306e-004
,,,-2.77500000e-009,-7.51562553e-004
,,,-2.75000000e-009,-7.10937550e-004
,,,-2.72500000e-009,-6.69531297e-004
,,,-2.70000000e-009,-6.30468795e-004
,,,-2.67500000e-009,-6.00000042e-004
,,,-2.65000000e-009,-5.74218791e-004
,,,-2.62500000e-009,-5.59375040e-004
,,,-2.60000000e-009,-5.55468789e-004
,,,-2.57500000e-009,-5.60156290e-004
,,,-2.55000000e-009,-5.70312540e-004
,,,-2.52500000e-009,-5.82031291e-004
,,,-2.50000000e-009,-5.92968792e-004
,,,-2.47500000e-009,-6.00000042e-004
,,,-2.45000000e-009,-5.94531292e-004
,,,-2.42500000e-009,-5.82812541e-004
,,,-2.40000000e-009,-5.62500040e-004
,,,-2.37500000e-009,-5.35937538e-004
,,,-2.35000000e-009,-5.04687536e-004
,,,-2.32500000e-009,-4.70312533e-004
,,,-2.30000000e-009,-4.34375031e-004
,,,-2.27500000e-009,-4.00000028e-004
,,,-2.25000000e-009,-3.65625026e-004
,,,-2.22500000e-009,-3.34375024e-004
,,,-2.20000000e-009,-3.07812522e-004
,,,-2.17500000e-009,-2.84375020e-004
,,,-2.15000000e-009,-2.63281269e-004
,,,-2.12500000e-009,-2.42187517e-004
,,,-2.10000000e-009,-2.21875016e-004
,,,-2.07500000e-009,-2.00000014e-004
,,,-2.05000000e-009,-1.80468763e-004
,,,-2.02500000e-009,-1.60156261e-004
,,,-2.00000000e-009,-1.37500010e-004
,,,-1.97500000e-009,-1.12500008e-004
,,,-1.95000000e-009,-8.59375061e-005
,,,-1.92500000e-009,-5.70312540e-005
,,,-1.90000000e-009,-2.81250020e-005
,,,-1.87500000e-009,0.00000000e+000
,,,-1.85000000e-009,1.25000009e-005
,,,-1.82500000e-009,2.10937515e-005
,,,-1.80000000e-009,2.65625019e-005
,,,-1.77500000e-009,2.73437519e-005
,,,-1.75000000e-009,2.50000018e-005
,,,-1.72500000e-009,1.95312514e-005
,,,-1.70000000e-009,1.09375008e-005
,,,-1.67500000e-009,0.00000000e+000
,,,-1.65000000e-009,-2.89062520e-005
,,,-1.62500000e-009,-6.09375043e-005
,,,-1.60000000e-009,-9.29687566e-005
,,,-1.57500000e-009,-1.24218759e-004
,,,-1.55000000e-009,-1.50781261e-004
,,,-1.52500000e-009,-1.72656262e-004
,,,-1.50000000e-009,-1.89062513e-004
,,,-1.47500000e-009,-2.00000014e-004
,,,-1.45000000e-009,-2.23437516e-004
,,,-1.42500000e-009,-2.46093767e-004
,,,-1.40000000e-009,-2.67187519e-004
,,,-1.37500000e-009,-2.88281270e-004
,,,-1.35000000e-009,-3.10156272e-004
,,,-1.32500000e-009,-3.35156274e-004
,,,-1.30000000e-009,-3.64062526e-004
,,,-1.27500000e-009,-4.00000028e-004
,,,-1.25000000e-009,-4.63281283e-004
,,,-1.22500000e-009,-5.39843788e-004
,,,-1.20000000e-009,-6.28906295e-004
,,,-1.17500000e-009,-7.28125052e-004
,,,-1.15000000e-009,-8.36718809e-004
,,,-1.12500000e-009,-9.53125067e-004
,,,-1.10000000e-009,-1.07421883e-003
,,,-1.07500000e-009,-1.20000008e-003
,,,-1.05000000e-009,-1.33906259e-003
,,,-1.02500000e-009,-1.47968760e-003
,,,-1.00000000e-009,-1.61875011e-003
,,,-9.75000000e-010,-1.75390637e-003
,,,-9.50000000e-010,-1.88046888e-003
,,,-9.25000000e-010,-1.99843764e-003
,,,-9.00000000e-010,-2.10468765e-003
,,,-8.75000000e-010,-2.20000016e-003
,,,-8.50000000e-010,-2.28984391e-003
,,,-8.25000000e-010,-2.37343767e-003
,,,-8.00000000e-010,-2.45156267e-003
,,,-7.75000000e-010,-2.52578143e-003
,,,-7.50000000e-010,-2.59687518e-003
,,,-7.25000000e-010,-2.66484394e-003
,,,-7.00000000e-010,-2.73203144e-003
,,,-6.75000000e-010,-2.80000020e-003
,,,-6.50000000e-010,-2.87109395e-003
,,,-6.25000000e-010,-2.95156271e-003
,,,-6.00000000e-010,-3.04140647e-003
,,,-5.75000000e-010,-3.14062522e-003
,,,-5.50000000e-010,-3.24765648e-003
,,,-5.25000000e-010,-3.36093774e-003
,,,-5.00000000e-010,-3.47968775e-003
,,,-4.75000000e-010,-3.60000025e-003
,,,-4.50000000e-010,-3.71328151e-003
,,,-4.25000000e-010,-3.82890652e-003
,,,-4.00000000e-010,-3.94218778e-003
,,,-3.75000000e-010,-4.05156279e-003
,,,-3.50000000e-010,-4.15390654e-003
,,,-3.25000000e-010,-4.24687530e-003
,,,-3.00000000e-010,-4.32890656e-003
,,,-2.75000000e-010,-4.40000031e-003
,,,-2.50000000e-010,-4.44531281e-003
,,,-2.25000000e-010,-4.48671907e-003
,,,-2.00000000e-010,-4.52656282e-003
,,,-1.75000000e-010,-4.56875032e-003
,,,-1.50000000e-010,-4.61484408e-003
,,,-1.25000000e-010,-4.66875033e-003
,,,-1.00000000e-010,-4.72968783e-003
,,,-7.50000000e-011,-4.80000034e-003
,,,-5.00000000e-011,-4.86015659e-003
,,,-2.50000000e-011,-4.93046910e-003
,,,0.00000000e+000,-5.00859410e-003
,,,2.50000000e-011,-5.09218786e-003
,,,5.00000000e-011,-5.17734412e-003
,,,7.50000000e-011,-5.25937537e-003
,,,1.00000000e-010,-5.33515663e-003
,,,1.25000000e-010,-5.40000038e-003
,,,1.50000000e-010,-5.42890663e-003
,,,1.75000000e-010,-5.44609414e-003
,,,2.00000000e-010,-5.45156289e-003
,,,2.25000000e-010,-5.44921914e-003
,,,2.50000000e-010,-5.44062539e-003
,,,2.75000000e-010,-5.42812538e-003
,,,3.00000000e-010,-5.41406288e-003
,,,3.25000000e-010,-5.40000038e-003
,,,3.50000000e-010,-5.36562538e-003
,,,3.75000000e-010,-5.33437538e-003
,,,4.00000000e-010,-5.30703163e-003
,,,4.25000000e-010,-5.28359412e-003
,,,4.50000000e-010,-5.26328162e-003
,,,4.75000000e-010,-5.24296912e-003
,,,5.00000000e-010,-5.22265662e-003
,,,5.25000000e-010,-5.20000037e-003
,,,5.50000000e-010,-5.15468786e-003
,,,5.75000000e-010,-5.10625036e-003
,,,6.00000000e-010,-5.05546911e-003
,,,6.25000000e-010,-5.00234410e-003
,,,6.50000000e-010,-4.95000035e-003
,,,6.75000000e-010,-4.89843785e-003
,,,7.00000000e-010,-4.84843784e-003
,,,7.25000000e-010,-4.80000034e-003
,,,7.50000000e-010,-4.73671909e-003
,,,7.75000000e-010,-4.67265658e-003
,,,8.00000000e-010,-4.60625033e-003
,,,8.25000000e-010,-4.53515657e-003
,,,8.50000000e-010,-4.46015657e-003
,,,8.75000000e-010,-4.37968781e-003
,,,9.00000000e-010,-4.29296905e-003
,,,9.25000000e-010,-4.20000030e-003
,,,9.50000000e-010,-4.09218779e-003
,,,9.75000000e-010,-3.97968778e-003
,,,1.00000000e-009,-3.86562527e-003
,,,1.02500000e-009,-3.75390652e-003
,,,1.05000000e-009,-3.64765651e-003
,,,1.07500000e-009,-3.55156275e-003
,,,1.10000000e-009,-3.46796900e-003
,,,1.12500000e-009,-3.40000024e-003
,,,1.15000000e-009,-3.34609399e-003
,,,1.17500000e-009,-3.30468773e-003
,,,1.20000000e-009,-3.27421898e-003
,,,1.22500000e-009,-3.25156273e-003
,,,1.25000000e-009,-3.23593773e-003
,,,1.27500000e-009,-3.22421898e-003
,,,1.30000000e-009,-3.21250023e-003
,,,1.32500000e-009,-3.20000023e-003
,,,1.35000000e-009,-3.18281273e-003
,,,1.37500000e-009,-3.15625022e-003
,,,1.40000000e-009,-3.11796897e-003
,,,1.42500000e-009,-3.06953147e-003
,,,1.45000000e-009,-3.01171896e-003
,,,1.47500000e-009,-2.94609396e-003
,,,1.50000000e-009,-2.87500020e-003
,,,1.52500000e-009,-2.80000020e-003
,,,1.55000000e-009,-2.72578144e-003
,,,1.57500000e-009,-2.64765644e-003
,,,1.60000000e-009,-2.56875018e-003
,,,1.62500000e-009,-2.48906268e-003
,,,1.65000000e-009,-2.41171892e-003
,,,1.67500000e-009,-2.33671892e-003
,,,1.70000000e-009,-2.26562516e-003
,,,1.72500000e-009,-2.20000016e-003
,,,1.75000000e-009,-2.14375015e-003
,,,1.77500000e-009,-2.08984390e-003
,,,1.80000000e-009,-2.03750014e-003
,,,1.82500000e-009,-1.98593764e-003
,,,1.85000000e-009,-1.93593764e-003
,,,1.87500000e-009,-1.88828138e-003
,,,1.90000000e-009,-1.84218763e-003
,,,1.92500000e-009,-1.80000013e-003
,,,1.95000000e-009,-1.76562512e-003
,,,1.97500000e-009,-1.73281262e-003
,,,2.00000000e-009,-1.70078137e-003
,,,2.02500000e-009,-1.67187512e-003
,,,2.05000000e-009,-1.64609387e-003
,,,2.07500000e-009,-1.62421886e-003
,,,2.10000000e-009,-1.60937511e-003
,,,2.12500000e-009,-1.60000011e-003
,,,2.15000000e-009,-1.60000011e-003
,,,2.17500000e-009,-1.60312511e-003
,,,2.20000000e-009,-1.60625011e-003
,,,2.22500000e-009,-1.61015636e-003
,,,2.25000000e-009,-1.61171886e-003
,,,2.27500000e-009,-1.61171886e-003
,,,2.30000000e-009,-1.60781261e-003
,,,2.32500000e-009,-1.60000011e-003
,,,2.35000000e-009,-1.59140636e-003
,,,2.37500000e-009,-1.57656261e-003
,,,2.40000000e-009,-1.55546886e-003
,,,2.42500000e-009,-1.52890636e-003
,,,2.45000000e-009,-1.49843761e-003
,,,2.47500000e-009,-1.46562510e-003
,,,2.50000000e-009,-1.43203135e-003
,,,2.52500000e-009,-1.40000010e-003
,,,2.55000000e-009,-1.37265635e-003
,,,2.57500000e-009,-1.34531260e-003
,,,2.60000000e-009,-1.31953134e-003
,,,2.62500000e-009,-1.29453134e-003
,,,2.65000000e-009,-1.27031259e-003
,,,2.67500000e-009,-1.24609384e-003
,,,2.70000000e-009,-1.22265634e-003
,,,2.72500000e-009,-1.20000008e-003
,,,2.75000000e-009,-1.18125008e-003
,,,2.77500000e-009,-1.16093758e-003
,,,2.80000000e-009,-1.13906258e-003
,,,2.82500000e-009,-1.11406258e-003
,,,2.85000000e-009,-1.08750008e-003
,,,2.87500000e-009,-1.05859382e-003
,,,2.90000000e-009,-1.02890632e-003
,,,2.92500000e-009,-1.00000007e-003
,,,2.95000000e-009,-9.76562569e-004
,,,2.97500000e-009,-9.57031318e-004
,,,3.00000000e-009,-9.42968817e-004
,,,3.02500000e-009,-9.35937566e-004
,,,3.05000000e-009,-9.37500066e-004
,,,3.07500000e-009,-9.48437567e-004
,,,3.10000000e-009,-9.69531319e-004
,,,3.12500000e-009,-1.00000007e-003
,,,3.15000000e-009,-1.03984382e-003
,,,3.17500000e-009,-1.08359383e-003
,,,3.20000000e-009,-1.12578133e-003
,,,3.22500000e-009,-1.16328133e-003
,,,3.25000000e-009,-1.19140633e-003
,,,3.27500000e-009,-1.20859384e-003
,,,3.30000000e-009,-1.21093759e-003
,,,3.32500000e-009,-1.20000008e-003
,,,3.35000000e-009,-1.17656258e-003
,,,3.37500000e-009,-1.14296883e-003
,,,3.40000000e-009,-1.10312508e-003
,,,3.42500000e-009,-1.06250008e-003
,,,3.45000000e-009,-1.02734382e-003
,,,3.47500000e-009,-1.00234382e-003
,,,3.50000000e-009,-9.92187570e-004
,,,3.52500000e-009,-1.00000007e-003
,,,3.55000000e-009,-1.02734382e-003
,,,3.57500000e-009,-1.07187508e-003
,,,3.60000000e-009,-1.12734383e-003
,,,3.62500000e-009,-1.19062508e-003
,,,3.65000000e-009,-1.25546884e-003
,,,3.67500000e-009,-1.31484384e-003
,,,3.70000000e-009,-1.36484385e-003
,,,3.72500000e-009,-1.40000010e-003
,,,3.75000000e-009,-1.41562510e-003
,,,3.77500000e-009,-1.41328135e-003
,,,3.80000000e-009,-1.39453135e-003
,,,3.82500000e-009,-1.36328135e-003
,,,3.85000000e-009,-1.32343759e-003
,,,3.87500000e-009,-1.27968759e-003
,,,3.90000000e-009,-1.23750009e-003
,,,3.92500000e-009,-1.20000008e-003
,,,3.95000000e-009,-1.16953133e-003
,,,3.97500000e-009,-1.15078133e-003
,,,4.00000000e-009,-1.14218758e-003
,,,4.02500000e-009,-1.14375008e-003
,,,4.05000000e-009,-1.15312508e-003
,,,4.07500000e-009,-1.16718758e-003
,,,4.10000000e-009,-1.18359383e-003
,,,4.12500000e-009,-1.20000008e-003
,,,4.15000000e-009,-1.21093759e-003
,,,4.17500000e-009,-1.21796884e-003
,,,4.20000000e-009,-1.22109384e-003
,,,4.22500000e-009,-1.22031259e-003
,,,4.25000000e-009,-1.21640634e-003
,,,4.27500000e-009,-1.21093759e-003
,,,4.30000000e-009,-1.20468759e-003
,,,4.32500000e-009,-1.20000008e-003
,,,4.35000000e-009,-1.19453133e-003
,,,4.37500000e-009,-1.19062508e-003
,,,4.40000000e-009,-1.18906258e-003
,,,4.42500000e-009,-1.18906258e-003
,,,4.45000000e-009,-1.19140633e-003
,,,4.47500000e-009,-1.19375008e-003
,,,4.50000000e-009,-1.19687508e-003
,,,4.52500000e-009,-1.20000008e-003
,,,4.55000000e-009,-1.19843758e-003
,,,4.57500000e-009,-1.19609383e-003
,,,4.60000000e-009,-1.19375008e-003
,,,4.62500000e-009,-1.19218758e-003
,,,4.65000000e-009,-1.19062508e-003
,,,4.67500000e-009,-1.19218758e-003
,,,4.70000000e-009,-1.19453133e-003
,,,4.72500000e-009,-1.20000008e-003
,,,4.75000000e-009,-1.20468759e-003
,,,4.77500000e-009,-1.21093759e-003
,,,4.80000000e-009,-1.21562509e-003
,,,4.82500000e-009,-1.21875009e-003
,,,4.85000000e-009,-1.22031259e-003
,,,4.87500000e-009,-1.21718759e-003
,,,4.90000000e-009,-1.21093759e-003
,,,4.92500000e-009,-1.20000008e-003
,,,4.95000000e-009,-1.18203133e-003
,,,4.97500000e-009,-1.16015633e-003
,,,5.00000000e-009,-1.13437508e-003
,,,5.02500000e-009,-1.10703133e-003
,,,5.05000000e-009,-1.07890633e-003
,,,5.07500000e-009,-1.05078132e-003
,,,5.10000000e-009,-1.02421882e-003
,,,5.12500000e-009,-1.00000007e-003
,,,5.15000000e-009,-9.75781319e-004
,,,5.17500000e-009,-9.53125067e-004
,,,5.20000000e-009,-9.30468816e-004
,,,5.22500000e-009,-9.08593814e-004
,,,5.25000000e-009,-8.84375063e-004
,,,5.27500000e-009,-8.58593811e-004
,,,5.30000000e-009,-8.30468809e-004
,,,5.32500000e-009,-8.00000057e-004
,,,5.35000000e-009,-7.65625054e-004
,,,5.37500000e-009,-7.29687552e-004
,,,5.40000000e-009,-6.94531299e-004
,,,5.42500000e-009,-6.61718797e-004
,,,5.45000000e-009,-6.33593795e-004
,,,5.47500000e-009,-6.12500043e-004
,,,5.50000000e-009,-6.00781293e-004
,,,5.52500000e-009,-6.00000042e-004
,,,5.55000000e-009,-6.08593793e-004
,,,5.57500000e-009,-6.26562544e-004
,,,5.60000000e-009,-6.50781296e-004
,,,5.62500000e-009,-6.79687548e-004
,,,5.65000000e-009,-7.11718800e-004
,,,5.67500000e-009,-7.43750053e-004
,,,5.70000000e-009,-7.73437555e-004
,,,5.72500000e-009,-8.00000057e-004
,,,5.75000000e-009,-8.18750058e-004
,,,5.77500000e-009,-8.30468809e-004
,,,5.80000000e-009,-8.35156309e-004
,,,5.82500000e-009,-8.34375059e-004
