RawData/SinglePhotoelectron/R1_2pt2B_5mV/wave008_Ch2.csv

"Record Length",1000,"Points",-7.72500000e-009,1.39062510e-004
"Sample Interval",2.50000000e-011,s,-7.70000000e-009,1.10937508e-004
"Trigger Point",309,"Samples",-7.67500000e-009,8.43750060e-005
"Trigger Time",6.31665072e-012,s,-7.65000000e-009,5.93750042e-005
"",,,-7.62500000e-009,3.75000027e-005
"Horizontal Offset",-7.72500000e-009,s,-7.60000000e-009,1.71875012e-005
,,,-7.57500000e-009,0.00000000e+000
,,,-7.55000000e-009,-1.25000009e-005
,,,-7.52500000e-009,-2.18750015e-005
,,,-7.50000000e-009,-2.81250020e-005
,,,-7.47500000e-009,-3.12500022e-005
,,,-7.45000000e-009,-2.96875021e-005
,,,-7.42500000e-009,-2.42187517e-005
,,,-7.40000000e-009,-1.40625010e-005
,,,-7.37500000e-009,0.00000000e+000
,,,-7.35000000e-009,1.95312514e-005
,,,-7.32500000e-009,4.29687530e-005
,,,-7.30000000e-009,6.87500049e-005
,,,-7.27500000e-009,9.53125067e-005
,,,-7.25000000e-009,1.22656259e-004
,,,-7.22500000e-009,1.50000011e-004
,,,-7.20000000e-009,1.75781262e-004
,,,-7.17500000e-009,2.00000014e-004
,,,-7.15000000e-009,2.19531266e-004
,,,-7.12500000e-009,2.34375017e-004
,,,-7.10000000e-009,2.43750017e-004
,,,-7.07500000e-009,2.46093767e-004
,,,-7.05000000e-009,2.43750017e-004
,,,-7.02500000e-009,2.34375017e-004
,,,-7.00000000e-009,2.19531266e-004
,,,-6.97500000e-009,2.00000014e-004
,,,-6.95000000e-009,1.75781262e-004
,,,-6.92500000e-009,1.48437511e-004
,,,-6.90000000e-009,1.19531258e-004
,,,-6.87500000e-009,9.06250064e-005
,,,-6.85000000e-009,6.32812545e-005
,,,-6.82500000e-009,3.82812527e-005
,,,-6.80000000e-009,1.64062512e-005
,,,-6.77500000e-009,0.00000000e+000
,,,-6.75000000e-009,-1.09375008e-005
,,,-6.72500000e-009,-1.79687513e-005
,,,-6.70000000e-009,-2.03125014e-005
,,,-6.67500000e-009,-1.95312514e-005
,,,-6.65000000e-009,-1.56250011e-005
,,,-6.62500000e-009,-1.09375008e-005
,,,-6.60000000e-009,-4.68750033e-006
,,,-6.57500000e-009,0.00000000e+000
,,,-6.55000000e-009,3.90625028e-006
,,,-6.52500000e-009,7.03125050e-006
,,,-6.50000000e-009,8.59375061e-006
,,,-6.47500000e-009,8.59375061e-006
,,,-6.45000000e-009,7.03125050e-006
,,,-6.42500000e-009,4.68750033e-006
,,,-6.40000000e-009,2.34375017e-006
,,,-6.37500000e-009,0.00000000e+000
,,,-6.35000000e-009,-1.56250011e-006
,,,-6.32500000e-009,-3.12500022e-006
,,,-6.30000000e-009,-3.90625028e-006
,,,-6.27500000e-009,-3.90625028e-006
,,,-6.25000000e-009,-3.12500022e-006
,,,-6.22500000e-009,-2.34375017e-006
,,,-6.20000000e-009,-7.81250055e-007
,,,-6.17500000e-009,0.00000000e+000
,,,-6.15000000e-009,1.56250011e-006
,,,-6.12500000e-009,2.34375017e-006
,,,-6.10000000e-009,3.12500022e-006
,,,-6.07500000e-009,3.12500022e-006
,,,-6.05000000e-009,2.34375017e-006
,,,-6.02500000e-009,1.56250011e-006
,,,-6.00000000e-009,7.81250055e-007
,,,-5.97500000e-009,0.00000000e+000
,,,-5.95000000e-009,0.00000000e+000
,,,-5.92500000e-009,0.00000000e+000
,,,-5.90000000e-009,0.00000000e+000
,,,-5.87500000e-009,0.00000000e+000
,,,-5.85000000e-009,0.00000000e+000
,,,-5.82500000e-009,0.00000000e+000
,,,-5.80000000e-009,0.00000000e+000
,,,-5.77500000e-009,0.00000000e+000
,,,-5.75000000e-009,0.00000000e+000
,,,-5.72500000e-009,0.00000000e+000
,,,-5.70000000e-009,0.00000000e+000
,,,-5.67500000e-009,0.00000000e+000
,,,-5.65000000e-009,0.00000000e+000
,,,-5.62500000e-009,0.00000000e+000
,,,-5.60000000e-009,0.00000000e+000
,,,-5.57500000e-009,0.00000000e+000
,,,-5.55000000e-009,-7.81250055e-007
,,,-5.52500000e-009,-1.56250011e-006
,,,-5.50000000e-009,-2.34375017e-006
,,,-5.47500000e-009,-3.12500022e-006
,,,-5.45000000e-009,-3.12500022e-006
,,,-5.42500000e-009,-2.34375017e-006
,,,-5.40000000e-009,-1.56250011e-006
,,,-5.37500000e-009,0.00000000e+000
,,,-5.35000000e-009,1.56250011e-006
,,,-5.32500000e-009,3.90625028e-006
,,,-5.30000000e-009,6.25000044e-006
,,,-5.27500000e-009,7.03125050e-006
,,,-5.25000000e-009,7.03125050e-006
,,,-5.22500000e-009,6.25000044e-006
,,,-5.20000000e-009,3.90625028e-006
,,,-5.17500000e-009,0.00000000e+000
,,,-5.15000000e-009,-5.46875039e-006
,,,-5.12500000e-009,-1.09375008e-005
,,,-5.10000000e-009,-1.64062512e-005
,,,-5.07500000e-009,-1.95312514e-005
,,,-5.05000000e-009,-1.95312514e-005
,,,-5.02500000e-009,-1.64062512e-005
,,,-5.00000000e-009,-9.37500066e-006
,,,-4.97500000e-009,0.00000000e+000
,,,-4.95000000e-009,1.09375008e-005
,,,-4.92500000e-009,2.26562516e-005
,,,-4.90000000e-009,3.28125023e-005
,,,-4.87500000e-009,3.98437528e-005
,,,-4.85000000e-009,4.14062529e-005
,,,-4.82500000e-009,3.51562525e-005
,,,-4.80000000e-009,2.10937515e-005
,,,-4.77500000e-009,0.00000000e+000
,,,-4.75000000e-009,-2.81250020e-005
,,,-4.72500000e-009,-6.17187544e-005
,,,-4.70000000e-009,-9.76562569e-005
,,,-4.67500000e-009,-1.32031259e-004
,,,-4.65000000e-009,-1.62500012e-004
,,,-4.62500000e-009,-1.85156263e-004
,,,-4.60000000e-009,-1.97656264e-004
,,,-4.57500000e-009,-2.00000014e-004
,,,-4.55000000e-009,-1.89062513e-004
,,,-4.52500000e-009,-1.68750012e-004
,,,-4.50000000e-009,-1.39843760e-004
,,,-4.47500000e-009,-1.07031258e-004
,,,-4.45000000e-009,-7.34375052e-005
,,,-4.42500000e-009,-4.14062529e-005
,,,-4.40000000e-009,-1.64062512e-005
,,,-4.37500000e-009,0.00000000e+000
,,,-4.35000000e-009,5.46875039e-006
,,,-4.32500000e-009,0.00000000e+000
,,,-4.30000000e-009,-1.71875012e-005
,,,-4.27500000e-009,-4.37500031e-005
,,,-4.25000000e-009,-7.89062556e-005
,,,-4.22500000e-009,-1.18750008e-004
,,,-4.20000000e-009,-1.59375011e-004
,,,-4.17500000e-009,-2.00000014e-004
,,,-4.15000000e-009,-2.32812516e-004
,,,-4.12500000e-009,-2.58593768e-004
,,,-4.10000000e-009,-2.74218769e-004
,,,-4.07500000e-009,-2.79687520e-004
,,,-4.05000000e-009,-2.74218769e-004
,,,-4.02500000e-009,-2.58593768e-004
,,,-4.00000000e-009,-2.32812516e-004
,,,-3.97500000e-009,-2.00000014e-004
,,,-3.95000000e-009,-1.59375011e-004
,,,-3.92500000e-009,-1.18750008e-004
,,,-3.90000000e-009,-7.89062556e-005
,,,-3.87500000e-009,-4.37500031e-005
,,,-3.85000000e-009,-1.71875012e-005
,,,-3.82500000e-009,0.00000000e+000
,,,-3.80000000e-009,5.46875039e-006
,,,-3.77500000e-009,0.00000000e+000
,,,-3.75000000e-009,-1.56250011e-005
,,,-3.72500000e-009,-3.98437528e-005
,,,-3.70000000e-009,-7.03125050e-005
,,,-3.67500000e-009,-1.03906257e-004
,,,-3.65000000e-009,-1.36718760e-004
,,,-3.62500000e-009,-1.65625012e-004
,,,-3.60000000e-009,-1.87500013e-004
,,,-3.57500000e-009,-2.00000014e-004
,,,-3.55000000e-009,-2.00000014e-004
,,,-3.52500000e-009,-1.89062513e-004
,,,-3.50000000e-009,-1.68750012e-004
,,,-3.47500000e-009,-1.39843760e-004
,,,-3.45000000e-009,-1.05468757e-004
,,,-3.42500000e-009,-6.87500049e-005
,,,-3.40000000e-009,-3.20312523e-005
,,,-3.37500000e-009,0.00000000e+000
,,,-3.35000000e-009,2.65625019e-005
,,,-3.32500000e-009,4.45312532e-005
,,,-3.30000000e-009,5.46875039e-005
,,,-3.27500000e-009,5.62500040e-005
,,,-3.25000000e-009,4.92187535e-005
,,,-3.22500000e-009,3.67187526e-005
,,,-3.20000000e-009,1.95312514e-005
,,,-3.17500000e-009,0.00000000e+000
,,,-3.15000000e-009,-1.95312514e-005
,,,-3.12500000e-009,-3.75000027e-005
,,,-3.10000000e-009,-4.92187535e-005
,,,-3.07500000e-009,-5.54687539e-005
,,,-3.05000000e-009,-5.31250038e-005
,,,-3.02500000e-009,-4.29687530e-005
,,,-3.00000000e-009,-2.50000018e-005
,,,-2.97500000e-009,0.00000000e+000
,,,-2.95000000e-009,2.96875021e-005
,,,-2.92500000e-009,6.32812545e-005
,,,-2.90000000e-009,9.84375070e-005
,,,-2.87500000e-009,1.31250009e-004
,,,-2.85000000e-009,1.60156261e-004
,,,-2.82500000e-009,1.82031263e-004
,,,-2.80000000e-009,1.95312514e-004
,,,-2.77500000e-009,2.00000014e-004
,,,-2.75000000e-009,1.90625013e-004
,,,-2.72500000e-009,1.72656262e-004
,,,-2.70000000e-009,1.46875010e-004
,,,-2.67500000e-009,1.16406258e-004
,,,-2.65000000e-009,8.43750060e-005
,,,-2.62500000e-009,5.23437537e-005
,,,-2.60000000e-009,2.34375017e-005
,,,-2.57500000e-009,0.00000000e+000
,,,-2.55000000e-009,-1.79687513e-005
,,,-2.52500000e-009,-2.89062520e-005
,,,-2.50000000e-009,-3.28125023e-005
,,,-2.47500000e-009,-3.12500022e-005
,,,-2.45000000e-009,-2.50000018e-005
,,,-2.42500000e-009,-1.64062512e-005
,,,-2.40000000e-009,-7.81250055e-006
,,,-2.37500000e-009,0.00000000e+000
,,,-2.35000000e-009,4.68750033e-006
,,,-2.32500000e-009,6.25000044e-006
,,,-2.30000000e-009,6.25000044e-006
,,,-2.27500000e-009,3.90625028e-006
,,,-2.25000000e-009,7.81250055e-007
,,,-2.22500000e-009,0.00000000e+000
,,,-2.20000000e-009,-7.81250055e-007
,,,-2.17500000e-009,0.00000000e+000
,,,-2.15000000e-009,2.34375017e-006
,,,-2.12500000e-009,6.25000044e-006
,,,-2.10000000e-009,1.17187508e-005
,,,-2.07500000e-009,1.56250011e-005
,,,-2.05000000e-009,1.79687513e-005
,,,-2.02500000e-009,1.71875012e-005
,,,-2.00000000e-009,1.09375008e-005
,,,-1.97500000e-009,0.00000000e+000
,,,-1.95000000e-009,-1.87500013e-005
,,,-1.92500000e-009,-4.21875030e-005
,,,-1.90000000e-009,-7.03125050e-005
,,,-1.87500000e-009,-1.00000007e-004
,,,-1.85000000e-009,-1.28906259e-004
,,,-1.82500000e-009,-1.57031261e-004
,,,-1.80000000e-009,-1.80468763e-004
,,,-1.77500000e-009,-2.00000014e-004
,,,-1.75000000e-009,-2.12500015e-004
,,,-1.72500000e-009,-2.21093766e-004
,,,-1.70000000e-009,-2.23437516e-004
,,,-1.67500000e-009,-2.22656266e-004
,,,-1.65000000e-009,-2.18750015e-004
,,,-1.62500000e-009,-2.12500015e-004
,,,-1.60000000e-009,-2.06250015e-004
,,,-1.57500000e-009,-2.00000014e-004
,,,-1.55000000e-009,-1.98437514e-004
,,,-1.52500000e-009,-2.00000014e-004
,,,-1.50000000e-009,-2.02343764e-004
,,,-1.47500000e-009,-2.05468765e-004
,,,-1.45000000e-009,-2.07812515e-004
,,,-1.42500000e-009,-2.08593765e-004
,,,-1.40000000e-009,-2.05468765e-004
,,,-1.37500000e-009,-2.00000014e-004
,,,-1.35000000e-009,-2.00781264e-004
,,,-1.32500000e-009,-2.00781264e-004
,,,-1.30000000e-009,-2.00781264e-004
,,,-1.27500000e-009,-2.00000014e-004
,,,-1.25000000e-009,-1.98437514e-004
,,,-1.22500000e-009,-1.97656264e-004
,,,-1.20000000e-009,-1.97656264e-004
,,,-1.17500000e-009,-2.00000014e-004
,,,-1.15000000e-009,-2.20312516e-004
,,,-1.12500000e-009,-2.46093767e-004
,,,-1.10000000e-009,-2.75781270e-004
,,,-1.07500000e-009,-3.07031272e-004
,,,-1.05000000e-009,-3.35937524e-004
,,,-1.02500000e-009,-3.62500026e-004
,,,-1.00000000e-009,-3.83593777e-004
,,,-9.75000000e-010,-4.00000028e-004
,,,-9.50000000e-010,-4.32031281e-004
,,,-9.25000000e-010,-4.62500033e-004
,,,-9.00000000e-010,-4.91406285e-004
,,,-8.75000000e-010,-5.17968787e-004
,,,-8.50000000e-010,-5.41406288e-004
,,,-8.25000000e-010,-5.61718790e-004
,,,-8.00000000e-010,-5.80468791e-004
,,,-7.75000000e-010,-6.00000042e-004
,,,-7.50000000e-010,-6.45312546e-004
,,,-7.25000000e-010,-7.00781300e-004
,,,-7.00000000e-010,-7.64062554e-004
,,,-6.75000000e-010,-8.36718809e-004
,,,-6.50000000e-010,-9.16406315e-004
,,,-6.25000000e-010,-1.00390632e-003
,,,-6.00000000e-010,-1.09843758e-003
,,,-5.75000000e-010,-1.20000008e-003
,,,-5.50000000e-010,-1.32890634e-003
,,,-5.25000000e-010,-1.46875010e-003
,,,-5.00000000e-010,-1.61640636e-003
,,,-4.75000000e-010,-1.77031263e-003
,,,-4.50000000e-010,-1.92734389e-003
,,,-4.25000000e-010,-2.08515640e-003
,,,-4.00000000e-010,-2.24296891e-003
,,,-3.75000000e-010,-2.40000017e-003
,,,-3.50000000e-010,-2.56250018e-003
,,,-3.25000000e-010,-2.72812519e-003
,,,-3.00000000e-010,-2.89687521e-003
,,,-2.75000000e-010,-3.07031272e-003
,,,-2.50000000e-010,-3.24687523e-003
,,,-2.25000000e-010,-3.42734399e-003
,,,-2.00000000e-010,-3.61171901e-003
,,,-1.75000000e-010,-3.80000027e-003
,,,-1.50000000e-010,-3.97968778e-003
,,,-1.25000000e-010,-4.16328154e-003
,,,-1.00000000e-010,-4.34765656e-003
,,,-7.50000000e-011,-4.53125032e-003
,,,-5.00000000e-011,-4.71171908e-003
,,,-2.50000000e-011,-4.88437535e-003
,,,0.00000000e+000,-5.04765661e-003
,,,2.50000000e-011,-5.20000037e-003
,,,5.00000000e-011,-5.31171913e-003
,,,7.50000000e-011,-5.41484413e-003
,,,1.00000000e-010,-5.51250039e-003
,,,1.25000000e-010,-5.60703165e-003
,,,1.50000000e-010,-5.70156290e-003
,,,1.75000000e-010,-5.79843791e-003
,,,2.00000000e-010,-5.89765667e-003
,,,2.25000000e-010,-6.00000042e-003
,,,2.50000000e-010,-6.06406293e-003
,,,2.75000000e-010,-6.12890668e-003
,,,3.00000000e-010,-6.19453169e-003
,,,3.25000000e-010,-6.25625044e-003
,,,3.50000000e-010,-6.31171920e-003
,,,3.75000000e-010,-6.35703170e-003
,,,4.00000000e-010,-6.38750045e-003
,,,4.25000000e-010,-6.40000045e-003
,,,4.50000000e-010,-6.35000045e-003
,,,4.75000000e-010,-6.28437544e-003
,,,5.00000000e-010,-6.20781294e-003
,,,5.25000000e-010,-6.12421918e-003
,,,5.50000000e-010,-6.03828168e-003
,,,5.75000000e-010,-5.95390667e-003
,,,6.00000000e-010,-5.87421917e-003
,,,6.25000000e-010,-5.80000041e-003
,,,6.50000000e-010,-5.69531290e-003
,,,6.75000000e-010,-5.59609415e-003
,,,7.00000000e-010,-5.50234414e-003
,,,7.25000000e-010,-5.41093788e-003
,,,7.50000000e-010,-5.31875038e-003
,,,7.75000000e-010,-5.22187537e-003
,,,8.00000000e-010,-5.11640661e-003
,,,8.25000000e-010,-5.00000035e-003
,,,8.50000000e-010,-4.84687534e-003
,,,8.75000000e-010,-4.67968783e-003
,,,9.00000000e-010,-4.50312532e-003
,,,9.25000000e-010,-4.31875031e-003
,,,9.50000000e-010,-4.13281279e-003
,,,9.75000000e-010,-3.94765653e-003
,,,1.00000000e-009,-3.76953152e-003
,,,1.02500000e-009,-3.60000025e-003
,,,1.05000000e-009,-3.43750024e-003
,,,1.07500000e-009,-3.28671898e-003
,,,1.10000000e-009,-3.14765647e-003
,,,1.12500000e-009,-3.02031271e-003
,,,1.15000000e-009,-2.90390646e-003
,,,1.17500000e-009,-2.79609395e-003
,,,1.20000000e-009,-2.69531269e-003
,,,1.22500000e-009,-2.60000018e-003
,,,1.25000000e-009,-2.51328143e-003
,,,1.27500000e-009,-2.42343767e-003
,,,1.30000000e-009,-2.32890641e-003
,,,1.32500000e-009,-2.22968766e-003
,,,1.35000000e-009,-2.12500015e-003
,,,1.37500000e-009,-2.01718764e-003
,,,1.40000000e-009,-1.90781264e-003
,,,1.42500000e-009,-1.80000013e-003
,,,1.45000000e-009,-1.70937512e-003
,,,1.47500000e-009,-1.62031261e-003
,,,1.50000000e-009,-1.53203136e-003
,,,1.52500000e-009,-1.44843760e-003
,,,1.55000000e-009,-1.37031260e-003
,,,1.57500000e-009,-1.30234384e-003
,,,1.60000000e-009,-1.24453134e-003
,,,1.62500000e-009,-1.20000008e-003
,,,1.65000000e-009,-1.18593758e-003
,,,1.67500000e-009,-1.17890633e-003
,,,1.70000000e-009,-1.17656258e-003
,,,1.72500000e-009,-1.17890633e-003
,,,1.75000000e-009,-1.18281258e-003
,,,1.77500000e-009,-1.18828133e-003
,,,1.80000000e-009,-1.19375008e-003
,,,1.82500000e-009,-1.20000008e-003
,,,1.85000000e-009,-1.21796884e-003
,,,1.87500000e-009,-1.22890634e-003
,,,1.90000000e-009,-1.23359384e-003
,,,1.92500000e-009,-1.23203134e-003
,,,1.95000000e-009,-1.22656259e-003
,,,1.97500000e-009,-1.21718759e-003
,,,2.00000000e-009,-1.20781259e-003
,,,2.02500000e-009,-1.20000008e-003
,,,2.05000000e-009,-1.20156259e-003
,,,2.07500000e-009,-1.20312509e-003
,,,2.10000000e-009,-1.20390634e-003
,,,2.12500000e-009,-1.20468759e-003
,,,2.15000000e-009,-1.20468759e-003
,,,2.17500000e-009,-1.20312509e-003
,,,2.20000000e-009,-1.20156259e-003
,,,2.22500000e-009,-1.20000008e-003
,,,2.25000000e-009,-1.19921883e-003
,,,2.27500000e-009,-1.19765633e-003
,,,2.30000000e-009,-1.19453133e-003
,,,2.32500000e-009,-1.19062508e-003
,,,2.35000000e-009,-1.18906258e-003
,,,2.37500000e-009,-1.18906258e-003
,,,2.40000000e-009,-1.19296883e-003
,,,2.42500000e-009,-1.20000008e-003
,,,2.45000000e-009,-1.20937509e-003
,,,2.47500000e-009,-1.22031259e-003
,,,2.50000000e-009,-1.22890634e-003
,,,2.52500000e-009,-1.23515634e-003
,,,2.55000000e-009,-1.23671884e-003
,,,2.57500000e-009,-1.23125009e-003
,,,2.60000000e-009,-1.21953134e-003
,,,2.62500000e-009,-1.20000008e-003
,,,2.65000000e-009,-1.16953133e-003
,,,2.67500000e-009,-1.13515633e-003
,,,2.70000000e-009,-1.09921883e-003
,,,2.72500000e-009,-1.06484383e-003
,,,2.75000000e-009,-1.03515632e-003
,,,2.77500000e-009,-1.01328132e-003
,,,2.80000000e-009,-1.00078132e-003
,,,2.82500000e-009,-1.00000007e-003
,,,2.85000000e-009,-1.00546882e-003
,,,2.87500000e-009,-1.01718757e-003
,,,2.90000000e-009,-1.03125007e-003
,,,2.92500000e-009,-1.04375007e-003
,,,2.95000000e-009,-1.05078132e-003
,,,2.97500000e-009,-1.04687507e-003
,,,3.00000000e-009,-1.03046882e-003
,,,3.02500000e-009,-1.00000007e-003
,,,3.05000000e-009,-9.53125067e-004
,,,3.07500000e-009,-8.94531313e-004
,,,3.10000000e-009,-8.29687559e-004
,,,3.12500000e-009,-7.64062554e-004
,,,3.15000000e-009,-7.02343800e-004
,,,3.17500000e-009,-6.51562546e-004
,,,3.20000000e-009,-6.16406294e-004
,,,3.22500000e-009,-6.00000042e-004
,,,3.25000000e-009,-6.01562543e-004
,,,3.27500000e-009,-6.19531294e-004
,,,3.30000000e-009,-6.50000046e-004
,,,3.32500000e-009,-6.88281299e-004
,,,3.35000000e-009,-7.28125052e-004
,,,3.37500000e-009,-7.64062554e-004
,,,3.40000000e-009,-7.89062556e-004
,,,3.42500000e-009,-8.00000057e-004
,,,3.45000000e-009,-7.90625056e-004
,,,3.47500000e-009,-7.62500054e-004
,,,3.50000000e-009,-7.17968801e-004
,,,3.52500000e-009,-6.59375047e-004
,,,3.55000000e-009,-5.92968792e-004
,,,3.57500000e-009,-5.24218787e-004
,,,3.60000000e-009,-4.57812532e-004
,,,3.62500000e-009,-4.00000028e-004
,,,3.65000000e-009,-3.55468775e-004
,,,3.67500000e-009,-3.24218773e-004
,,,3.70000000e-009,-3.08593772e-004
,,,3.72500000e-009,-3.07031272e-004
,,,3.75000000e-009,-3.18750023e-004
,,,3.77500000e-009,-3.39843774e-004
,,,3.80000000e-009,-3.67968776e-004
,,,3.82500000e-009,-4.00000028e-004
,,,3.85000000e-009,-4.29687530e-004
,,,3.87500000e-009,-4.54687532e-004
,,,3.90000000e-009,-4.71875033e-004
,,,3.92500000e-009,-4.78906284e-004
,,,3.95000000e-009,-4.75000034e-004
,,,3.97500000e-009,-4.60937533e-004
,,,4.00000000e-009,-4.35156281e-004
,,,4.02500000e-009,-4.00000028e-004
,,,4.05000000e-009,-3.56250025e-004
,,,4.07500000e-009,-3.06250022e-004
,,,4.10000000e-009,-2.51562518e-004
,,,4.12500000e-009,-1.95312514e-004
,,,4.15000000e-009,-1.39062510e-004
,,,4.17500000e-009,-8.67187561e-005
,,,4.20000000e-009,-3.90625028e-005
,,,4.22500000e-009,0.00000000e+000
,,,4.25000000e-009,2.81250020e-005
,,,4.27500000e-009,4.68750033e-005
,,,4.30000000e-009,5.62500040e-005
,,,4.32500000e-009,5.70312540e-005
,,,4.35000000e-009,5.00000035e-005
,,,4.37500000e-009,3.67187526e-005
,,,4.40000000e-009,1.95312514e-005
,,,4.42500000e-009,0.00000000e+000
,,,4.45000000e-009,-2.18750015e-005
,,,4.47500000e-009,-4.06250029e-005
,,,4.50000000e-009,-5.39062538e-005
,,,4.52500000e-009,-5.93750042e-005
,,,4.55000000e-009,-5.70312540e-005
,,,4.57500000e-009,-4.60937533e-005
,,,4.60000000e-009,-2.65625019e-005
,,,4.62500000e-009,0.00000000e+000
,,,4.65000000e-009,3.04687522e-005
,,,4.67500000e-009,6.40625045e-005
,,,4.70000000e-009,9.92187570e-005
,,,4.72500000e-009,1.32031259e-004
,,,4.75000000e-009,1.60937511e-004
,,,4.77500000e-009,1.82812513e-004
,,,4.80000000e-009,1.96093764e-004
,,,4.82500000e-009,2.00000014e-004
,,,4.85000000e-009,1.89843763e-004
,,,4.87500000e-009,1.71875012e-004
,,,4.90000000e-009,1.46875010e-004
,,,4.92500000e-009,1.16406258e-004
,,,4.95000000e-009,8.43750060e-005
,,,4.97500000e-009,5.31250038e-005
,,,5.00000000e-009,2.42187517e-005
,,,5.02500000e-009,0.00000000e+000
,,,5.05000000e-009,-1.95312514e-005
,,,5.07500000e-009,-3.20312523e-005
,,,5.10000000e-009,-3.67187526e-005
,,,5.12500000e-009,-3.51562525e-005
,,,5.15000000e-009,-2.96875021e-005
,,,5.17500000e-009,-2.03125014e-005
,,,5.20000000e-009,-9.37500066e-006
,,,5.22500000e-009,0.00000000e+000
,,,5.25000000e-009,7.81250055e-006
,,,5.27500000e-009,1.32812509e-005
,,,5.30000000e-009,1.64062512e-005
,,,5.32500000e-009,1.56250011e-005
,,,5.35000000e-009,1.32812509e-005
,,,5.37500000e-009,9.37500066e-006
,,,5.40000000e-009,4.68750033e-006
,,,5.42500000e-009,0.00000000e+000
,,,5.45000000e-009,-2.34375017e-006
,,,5.47500000e-009,-3.90625028e-006
,,,5.50000000e-009,-4.68750033e-006
,,,5.52500000e-009,-3.90625028e-006
,,,5.55000000e-009,-2.34375017e-006
,,,5.57500000e-009,-7.81250055e-007
,,,5.60000000e-009,0.00000000e+000
,,,5.62500000e-009,0.00000000e+000
,,,5.65000000e-009,0.00000000e+000
,,,5.67500000e-009,0.00000000e+000
,,,5.70000000e-009,0.00000000e+000
,,,5.72500000e-009,-7.81250055e-007
,,,5.75000000e-009,-7.81250055e-007
,,,5.77500000e-009,-1.56250011e-006
,,,5.80000000e-009,-7.81250055e-007
,,,5.82500000e-009,0.00000000e+000
,,,5.85000000e-009,2.34375017e-006
,,,5.87500000e-009,4.68750033e-006
,,,5.90000000e-009,7.03125050e-006
,,,5.92500000e-009,8.59375061e-006
