RawData/SinglePhotoelectron/R1_2pt2B_5mV/wave004_Ch2.csv

"Record Length",1000,"Points",-7.72500000e-009,4.32812531e-004
"Sample Interval",2.50000000e-011,s,-7.70000000e-009,4.00000028e-004
"Trigger Point",309,"Samples",-7.67500000e-009,3.71093776e-004
"Trigger Time",3.30015564e-012,s,-7.65000000e-009,3.53125025e-004
"",,,-7.62500000e-009,3.44531274e-004
"Horizontal Offset",-7.72500000e-009,s,-7.60000000e-009,3.46093774e-004
,,,-7.57500000e-009,3.53906275e-004
,,,-7.55000000e-009,3.67968776e-004
,,,-7.52500000e-009,3.83593777e-004
,,,-7.50000000e-009,4.00000028e-004
,,,-7.47500000e-009,4.10156279e-004
,,,-7.45000000e-009,4.17187530e-004
,,,-7.42500000e-009,4.20312530e-004
,,,-7.40000000e-009,4.20312530e-004
,,,-7.37500000e-009,4.17187530e-004
,,,-7.35000000e-009,4.11718779e-004
,,,-7.32500000e-009,4.05468779e-004
,,,-7.30000000e-009,4.00000028e-004
,,,-7.27500000e-009,3.93750028e-004
,,,-7.25000000e-009,3.88281277e-004
,,,-7.22500000e-009,3.85156277e-004
,,,-7.20000000e-009,3.84375027e-004
,,,-7.17500000e-009,3.85156277e-004
,,,-7.15000000e-009,3.88281277e-004
,,,-7.12500000e-009,3.93750028e-004
,,,-7.10000000e-009,4.00000028e-004
,,,-7.07500000e-009,4.04687529e-004
,,,-7.05000000e-009,4.09375029e-004
,,,-7.02500000e-009,4.12500029e-004
,,,-7.00000000e-009,4.14843779e-004
,,,-6.97500000e-009,4.14843779e-004
,,,-6.95000000e-009,4.13281279e-004
,,,-6.92500000e-009,4.07812529e-004
,,,-6.90000000e-009,4.00000028e-004
,,,-6.87500000e-009,3.86718777e-004
,,,-6.85000000e-009,3.69531276e-004
,,,-6.82500000e-009,3.48437525e-004
,,,-6.80000000e-009,3.23437523e-004
,,,-6.77500000e-009,2.95312521e-004
,,,-6.75000000e-009,2.64843769e-004
,,,-6.72500000e-009,2.32812516e-004
,,,-6.70000000e-009,2.00000014e-004
,,,-6.67500000e-009,1.67187512e-004
,,,-6.65000000e-009,1.35937510e-004
,,,-6.62500000e-009,1.06250008e-004
,,,-6.60000000e-009,7.89062556e-005
,,,-6.57500000e-009,5.46875039e-005
,,,-6.55000000e-009,3.28125023e-005
,,,-6.52500000e-009,1.40625010e-005
,,,-6.50000000e-009,0.00000000e+000
,,,-6.47500000e-009,-7.03125050e-006
,,,-6.45000000e-009,-1.17187508e-005
,,,-6.42500000e-009,-1.32812509e-005
,,,-6.40000000e-009,-1.25000009e-005
,,,-6.37500000e-009,-1.01562507e-005
,,,-6.35000000e-009,-7.03125050e-006
,,,-6.32500000e-009,-3.12500022e-006
,,,-6.30000000e-009,0.00000000e+000
,,,-6.27500000e-009,4.68750033e-006
,,,-6.25000000e-009,8.59375061e-006
,,,-6.22500000e-009,1.09375008e-005
,,,-6.20000000e-009,1.17187508e-005
,,,-6.17500000e-009,1.09375008e-005
,,,-6.15000000e-009,7.81250055e-006
,,,-6.12500000e-009,3.90625028e-006
,,,-6.10000000e-009,0.00000000e+000
,,,-6.07500000e-009,-1.56250011e-006
,,,-6.05000000e-009,-3.90625028e-006
,,,-6.02500000e-009,-6.25000044e-006
,,,-6.00000000e-009,-7.81250055e-006
,,,-5.97500000e-009,-8.59375061e-006
,,,-5.95000000e-009,-7.81250055e-006
,,,-5.92500000e-009,-5.46875039e-006
,,,-5.90000000e-009,0.00000000e+000
,,,-5.87500000e-009,1.01562507e-005
,,,-5.85000000e-009,2.34375017e-005
,,,-5.82500000e-009,4.14062529e-005
,,,-5.80000000e-009,6.40625045e-005
,,,-5.77500000e-009,9.06250064e-005
,,,-5.75000000e-009,1.22656259e-004
,,,-5.72500000e-009,1.59375011e-004
,,,-5.70000000e-009,2.00000014e-004
,,,-5.67500000e-009,2.40625017e-004
,,,-5.65000000e-009,2.81250020e-004
,,,-5.62500000e-009,3.18750023e-004
,,,-5.60000000e-009,3.51562525e-004
,,,-5.57500000e-009,3.77343777e-004
,,,-5.55000000e-009,3.94531278e-004
,,,-5.52500000e-009,4.02343778e-004
,,,-5.50000000e-009,4.00000028e-004
,,,-5.47500000e-009,3.83593777e-004
,,,-5.45000000e-009,3.60156275e-004
,,,-5.42500000e-009,3.31250023e-004
,,,-5.40000000e-009,2.99218771e-004
,,,-5.37500000e-009,2.67968769e-004
,,,-5.35000000e-009,2.39843767e-004
,,,-5.32500000e-009,2.16406265e-004
,,,-5.30000000e-009,2.00000014e-004
,,,-5.27500000e-009,1.88281263e-004
,,,-5.25000000e-009,1.84375013e-004
,,,-5.22500000e-009,1.86718763e-004
,,,-5.20000000e-009,1.92187514e-004
,,,-5.17500000e-009,1.98437514e-004
,,,-5.15000000e-009,2.03125014e-004
,,,-5.12500000e-009,2.03906264e-004
,,,-5.10000000e-009,2.00000014e-004
,,,-5.07500000e-009,1.86718763e-004
,,,-5.05000000e-009,1.67187512e-004
,,,-5.02500000e-009,1.41406260e-004
,,,-5.00000000e-009,1.12500008e-004
,,,-4.97500000e-009,8.12500058e-005
,,,-4.95000000e-009,5.07812536e-005
,,,-4.92500000e-009,2.34375017e-005
,,,-4.90000000e-009,0.00000000e+000
,,,-4.87500000e-009,-1.64062512e-005
,,,-4.85000000e-009,-2.57812518e-005
,,,-4.82500000e-009,-2.96875021e-005
,,,-4.80000000e-009,-2.73437519e-005
,,,-4.77500000e-009,-2.18750015e-005
,,,-4.75000000e-009,-1.48437511e-005
,,,-4.72500000e-009,-7.03125050e-006
,,,-4.70000000e-009,0.00000000e+000
,,,-4.67500000e-009,6.25000044e-006
,,,-4.65000000e-009,1.01562507e-005
,,,-4.62500000e-009,1.17187508e-005
,,,-4.60000000e-009,1.09375008e-005
,,,-4.57500000e-009,8.59375061e-006
,,,-4.55000000e-009,4.68750033e-006
,,,-4.52500000e-009,1.56250011e-006
,,,-4.50000000e-009,0.00000000e+000
,,,-4.47500000e-009,7.81250055e-007
,,,-4.45000000e-009,3.12500022e-006
,,,-4.42500000e-009,5.46875039e-006
,,,-4.40000000e-009,7.03125050e-006
,,,-4.37500000e-009,8.59375061e-006
,,,-4.35000000e-009,7.81250055e-006
,,,-4.32500000e-009,4.68750033e-006
,,,-4.30000000e-009,0.00000000e+000
,,,-4.27500000e-009,-4.68750033e-006
,,,-4.25000000e-009,-1.01562507e-005
,,,-4.22500000e-009,-1.56250011e-005
,,,-4.20000000e-009,-2.03125014e-005
,,,-4.17500000e-009,-2.18750015e-005
,,,-4.15000000e-009,-1.95312514e-005
,,,-4.12500000e-009,-1.25000009e-005
,,,-4.10000000e-009,0.00000000e+000
,,,-4.07500000e-009,1.79687513e-005
,,,-4.05000000e-009,4.14062529e-005
,,,-4.02500000e-009,6.79687548e-005
,,,-4.00000000e-009,9.60937568e-005
,,,-3.97500000e-009,1.25000009e-004
,,,-3.95000000e-009,1.53125011e-004
,,,-3.92500000e-009,1.78125013e-004
,,,-3.90000000e-009,2.00000014e-004
,,,-3.87500000e-009,2.14062515e-004
,,,-3.85000000e-009,2.24218766e-004
,,,-3.82500000e-009,2.28125016e-004
,,,-3.80000000e-009,2.27343766e-004
,,,-3.77500000e-009,2.23437516e-004
,,,-3.75000000e-009,2.16406265e-004
,,,-3.72500000e-009,2.08593765e-004
,,,-3.70000000e-009,2.00000014e-004
,,,-3.67500000e-009,1.89843763e-004
,,,-3.65000000e-009,1.82031263e-004
,,,-3.62500000e-009,1.77343763e-004
,,,-3.60000000e-009,1.75781262e-004
,,,-3.57500000e-009,1.77343763e-004
,,,-3.55000000e-009,1.82031263e-004
,,,-3.52500000e-009,1.89843763e-004
,,,-3.50000000e-009,2.00000014e-004
,,,-3.47500000e-009,2.07812515e-004
,,,-3.45000000e-009,2.14843765e-004
,,,-3.42500000e-009,2.21093766e-004
,,,-3.40000000e-009,2.24218766e-004
,,,-3.37500000e-009,2.24218766e-004
,,,-3.35000000e-009,2.21093766e-004
,,,-3.32500000e-009,2.12500015e-004
,,,-3.30000000e-009,2.00000014e-004
,,,-3.27500000e-009,1.79687513e-004
,,,-3.25000000e-009,1.55468761e-004
,,,-3.22500000e-009,1.28906259e-004
,,,-3.20000000e-009,1.00781257e-004
,,,-3.17500000e-009,7.18750051e-005
,,,-3.15000000e-009,4.53125032e-005
,,,-3.12500000e-009,2.03125014e-005
,,,-3.10000000e-009,0.00000000e+000
,,,-3.07500000e-009,-1.56250011e-005
,,,-3.05000000e-009,-2.65625019e-005
,,,-3.02500000e-009,-3.20312523e-005
,,,-3.00000000e-009,-3.20312523e-005
,,,-2.97500000e-009,-2.81250020e-005
,,,-2.95000000e-009,-2.03125014e-005
,,,-2.92500000e-009,-1.09375008e-005
,,,-2.90000000e-009,0.00000000e+000
,,,-2.87500000e-009,1.01562507e-005
,,,-2.85000000e-009,1.87500013e-005
,,,-2.82500000e-009,2.50000018e-005
,,,-2.80000000e-009,2.81250020e-005
,,,-2.77500000e-009,2.65625019e-005
,,,-2.75000000e-009,2.18750015e-005
,,,-2.72500000e-009,1.25000009e-005
,,,-2.70000000e-009,0.00000000e+000
,,,-2.67500000e-009,-1.56250011e-005
,,,-2.65000000e-009,-3.51562525e-005
,,,-2.62500000e-009,-5.85937541e-005
,,,-2.60000000e-009,-8.43750060e-005
,,,-2.57500000e-009,-1.12500008e-004
,,,-2.55000000e-009,-1.41406260e-004
,,,-2.52500000e-009,-1.71093762e-004
,,,-2.50000000e-009,-2.00000014e-004
,,,-2.47500000e-009,-2.22656266e-004
,,,-2.45000000e-009,-2.41406267e-004
,,,-2.42500000e-009,-2.54687518e-004
,,,-2.40000000e-009,-2.60156268e-004
,,,-2.37500000e-009,-2.57812518e-004
,,,-2.35000000e-009,-2.46875017e-004
,,,-2.32500000e-009,-2.27343766e-004
,,,-2.30000000e-009,-2.00000014e-004
,,,-2.27500000e-009,-1.63281262e-004
,,,-2.25000000e-009,-1.25000009e-004
,,,-2.22500000e-009,-8.67187561e-005
,,,-2.20000000e-009,-5.15625036e-005
,,,-2.17500000e-009,-2.34375017e-005
,,,-2.15000000e-009,-3.90625028e-006
,,,-2.12500000e-009,3.12500022e-006
,,,-2.10000000e-009,0.00000000e+000
,,,-2.07500000e-009,-1.48437511e-005
,,,-2.05000000e-009,-3.90625028e-005
,,,-2.02500000e-009,-6.95312549e-005
,,,-2.00000000e-009,-1.03906257e-004
,,,-1.97500000e-009,-1.37500010e-004
,,,-1.95000000e-009,-1.66406262e-004
,,,-1.92500000e-009,-1.88281263e-004
,,,-1.90000000e-009,-2.00000014e-004
,,,-1.87500000e-009,-2.00000014e-004
,,,-1.85000000e-009,-1.89062513e-004
,,,-1.82500000e-009,-1.67968762e-004
,,,-1.80000000e-009,-1.39062510e-004
,,,-1.77500000e-009,-1.04687507e-004
,,,-1.75000000e-009,-6.79687548e-005
,,,-1.72500000e-009,-3.20312523e-005
,,,-1.70000000e-009,0.00000000e+000
,,,-1.67500000e-009,2.26562516e-005
,,,-1.65000000e-009,3.82812527e-005
,,,-1.62500000e-009,4.53125032e-005
,,,-1.60000000e-009,4.45312532e-005
,,,-1.57500000e-009,3.82812527e-005
,,,-1.55000000e-009,2.65625019e-005
,,,-1.52500000e-009,1.32812509e-005
,,,-1.50000000e-009,0.00000000e+000
,,,-1.47500000e-009,-1.95312514e-005
,,,-1.45000000e-009,-3.59375025e-005
,,,-1.42500000e-009,-4.76562534e-005
,,,-1.40000000e-009,-5.23437537e-005
,,,-1.37500000e-009,-5.00000035e-005
,,,-1.35000000e-009,-3.98437528e-005
,,,-1.32500000e-009,-2.26562516e-005
,,,-1.30000000e-009,0.00000000e+000
,,,-1.27500000e-009,1.32812509e-005
,,,-1.25000000e-009,2.65625019e-005
,,,-1.22500000e-009,3.67187526e-005
,,,-1.20000000e-009,4.29687530e-005
,,,-1.17500000e-009,4.29687530e-005
,,,-1.15000000e-009,3.67187526e-005
,,,-1.12500000e-009,2.26562516e-005
,,,-1.10000000e-009,0.00000000e+000
,,,-1.07500000e-009,-5.00000035e-005
,,,-1.05000000e-009,-1.09375008e-004
,,,-1.02500000e-009,-1.73437512e-004
,,,-1.00000000e-009,-2.36718767e-004
,,,-9.75000000e-010,-2.94531271e-004
,,,-9.50000000e-010,-3.42187524e-004
,,,-9.25000000e-010,-3.78125027e-004
,,,-9.00000000e-010,-4.00000028e-004
,,,-8.75000000e-010,-4.33593781e-004
,,,-8.50000000e-010,-4.60937533e-004
,,,-8.25000000e-010,-4.82812534e-004
,,,-8.00000000e-010,-5.00781285e-004
,,,-7.75000000e-010,-5.18750037e-004
,,,-7.50000000e-010,-5.39062538e-004
,,,-7.25000000e-010,-5.64843790e-004
,,,-7.00000000e-010,-6.00000042e-004
,,,-6.75000000e-010,-6.72656298e-004
,,,-6.50000000e-010,-7.60937554e-004
,,,-6.25000000e-010,-8.61718811e-004
,,,-6.00000000e-010,-9.71093819e-004
,,,-5.75000000e-010,-1.08359383e-003
,,,-5.50000000e-010,-1.19453133e-003
,,,-5.25000000e-010,-1.30078134e-003
,,,-5.00000000e-010,-1.40000010e-003
,,,-4.75000000e-010,-1.51171886e-003
,,,-4.50000000e-010,-1.62421886e-003
,,,-4.25000000e-010,-1.73671887e-003
,,,-4.00000000e-010,-1.85156263e-003
,,,-3.75000000e-010,-1.97265639e-003
,,,-3.50000000e-010,-2.10234390e-003
,,,-3.25000000e-010,-2.24375016e-003
,,,-3.00000000e-010,-2.40000017e-003
,,,-2.75000000e-010,-2.57968768e-003
,,,-2.50000000e-010,-2.77890645e-003
,,,-2.25000000e-010,-2.99609396e-003
,,,-2.00000000e-010,-3.22734398e-003
,,,-1.75000000e-010,-3.46796900e-003
,,,-1.50000000e-010,-3.71328151e-003
,,,-1.25000000e-010,-3.95859403e-003
,,,-1.00000000e-010,-4.20000030e-003
,,,-7.50000000e-011,-4.41718781e-003
,,,-5.00000000e-011,-4.62890658e-003
,,,-2.50000000e-011,-4.83359409e-003
,,,0.00000000e+000,-5.03437536e-003
,,,2.50000000e-011,-5.23046912e-003
,,,5.00000000e-011,-5.42265663e-003
,,,7.50000000e-011,-5.61328165e-003
,,,1.00000000e-010,-5.80000041e-003
,,,1.25000000e-010,-5.94843792e-003
,,,1.50000000e-010,-6.09453168e-003
,,,1.75000000e-010,-6.23515669e-003
,,,2.00000000e-010,-6.37109420e-003
,,,2.25000000e-010,-6.49765671e-003
,,,2.50000000e-010,-6.61328172e-003
,,,2.75000000e-010,-6.71484423e-003
,,,3.00000000e-010,-6.80000048e-003
,,,3.25000000e-010,-6.82187548e-003
,,,3.50000000e-010,-6.82968798e-003
,,,3.75000000e-010,-6.82890673e-003
,,,4.00000000e-010,-6.82343798e-003
,,,4.25000000e-010,-6.81640673e-003
,,,4.50000000e-010,-6.80937548e-003
,,,4.75000000e-010,-6.80390673e-003
,,,5.00000000e-010,-6.80000048e-003
,,,5.25000000e-010,-6.74843798e-003
,,,5.50000000e-010,-6.69687547e-003
,,,5.75000000e-010,-6.64218797e-003
,,,6.00000000e-010,-6.58125047e-003
,,,6.25000000e-010,-6.51093796e-003
,,,6.50000000e-010,-6.42656295e-003
,,,6.75000000e-010,-6.32343795e-003
,,,7.00000000e-010,-6.20000044e-003
,,,7.25000000e-010,-6.01718793e-003
,,,7.50000000e-010,-5.81718791e-003
,,,7.75000000e-010,-5.60703165e-003
,,,8.00000000e-010,-5.39140663e-003
,,,8.25000000e-010,-5.17734412e-003
,,,8.50000000e-010,-4.97109410e-003
,,,8.75000000e-010,-4.77734409e-003
,,,9.00000000e-010,-4.60000033e-003
,,,9.25000000e-010,-4.42265656e-003
,,,9.50000000e-010,-4.26406280e-003
,,,9.75000000e-010,-4.12421904e-003
,,,1.00000000e-009,-4.00078153e-003
,,,1.02500000e-009,-3.89062528e-003
,,,1.05000000e-009,-3.78984402e-003
,,,1.07500000e-009,-3.69453151e-003
,,,1.10000000e-009,-3.60000025e-003
,,,1.12500000e-009,-3.49765650e-003
,,,1.15000000e-009,-3.38750024e-003
,,,1.17500000e-009,-3.26796898e-003
,,,1.20000000e-009,-3.14062522e-003
,,,1.22500000e-009,-3.00625021e-003
,,,1.25000000e-009,-2.86953145e-003
,,,1.27500000e-009,-2.73281269e-003
,,,1.30000000e-009,-2.60000018e-003
,,,1.32500000e-009,-2.48203143e-003
,,,1.35000000e-009,-2.36718767e-003
,,,1.37500000e-009,-2.25703141e-003
,,,1.40000000e-009,-2.15156265e-003
,,,1.42500000e-009,-2.05234390e-003
,,,1.45000000e-009,-1.96015639e-003
,,,1.47500000e-009,-1.87578138e-003
,,,1.50000000e-009,-1.80000013e-003
,,,1.52500000e-009,-1.74765637e-003
,,,1.55000000e-009,-1.69765637e-003
,,,1.57500000e-009,-1.64765637e-003
,,,1.60000000e-009,-1.59765636e-003
,,,1.62500000e-009,-1.54687511e-003
,,,1.65000000e-009,-1.49687511e-003
,,,1.67500000e-009,-1.44765635e-003
,,,1.70000000e-009,-1.40000010e-003
,,,1.72500000e-009,-1.36953135e-003
,,,1.75000000e-009,-1.33437509e-003
,,,1.77500000e-009,-1.29296884e-003
,,,1.80000000e-009,-1.24375009e-003
,,,1.82500000e-009,-1.18828133e-003
,,,1.85000000e-009,-1.12734383e-003
,,,1.87500000e-009,-1.06406258e-003
,,,1.90000000e-009,-1.00000007e-003
,,,1.92500000e-009,-9.51562567e-004
,,,1.95000000e-009,-9.04687564e-004
,,,1.97500000e-009,-8.61718811e-004
,,,2.00000000e-009,-8.25000058e-004
,,,2.02500000e-009,-7.97656306e-004
,,,2.05000000e-009,-7.83593805e-004
,,,2.07500000e-009,-7.83593805e-004
,,,2.10000000e-009,-8.00000057e-004
,,,2.12500000e-009,-8.42187560e-004
,,,2.15000000e-009,-8.92968813e-004
,,,2.17500000e-009,-9.50000067e-004
,,,2.20000000e-009,-1.00937507e-003
,,,2.22500000e-009,-1.06640633e-003
,,,2.25000000e-009,-1.11875008e-003
,,,2.27500000e-009,-1.16406258e-003
,,,2.30000000e-009,-1.20000008e-003
,,,2.32500000e-009,-1.22890634e-003
,,,2.35000000e-009,-1.24531259e-003
,,,2.37500000e-009,-1.25000009e-003
,,,2.40000000e-009,-1.24531259e-003
,,,2.42500000e-009,-1.23515634e-003
,,,2.45000000e-009,-1.22265634e-003
,,,2.47500000e-009,-1.20937509e-003
,,,2.50000000e-009,-1.20000008e-003
,,,2.52500000e-009,-1.19453133e-003
,,,2.55000000e-009,-1.19296883e-003
,,,2.57500000e-009,-1.19453133e-003
,,,2.60000000e-009,-1.19843758e-003
,,,2.62500000e-009,-1.20312509e-003
,,,2.65000000e-009,-1.20546884e-003
,,,2.67500000e-009,-1.20468759e-003
,,,2.70000000e-009,-1.20000008e-003
,,,2.72500000e-009,-1.18828133e-003
,,,2.75000000e-009,-1.17031258e-003
,,,2.77500000e-009,-1.14687508e-003
,,,2.80000000e-009,-1.11875008e-003
,,,2.82500000e-009,-1.08828133e-003
,,,2.85000000e-009,-1.05703132e-003
,,,2.87500000e-009,-1.02656257e-003
,,,2.90000000e-009,-1.00000007e-003
,,,2.92500000e-009,-9.76562569e-004
,,,2.95000000e-009,-9.60156318e-004
,,,2.97500000e-009,-9.51562567e-004
,,,3.00000000e-009,-9.49218817e-004
,,,3.02500000e-009,-9.53906318e-004
,,,3.05000000e-009,-9.65625068e-004
,,,3.07500000e-009,-9.81250069e-004
,,,3.10000000e-009,-1.00000007e-003
,,,3.12500000e-009,-1.01640632e-003
,,,3.15000000e-009,-1.03125007e-003
,,,3.17500000e-009,-1.04218757e-003
,,,3.20000000e-009,-1.04843757e-003
,,,3.22500000e-009,-1.04765632e-003
,,,3.25000000e-009,-1.03906257e-003
,,,3.27500000e-009,-1.02343757e-003
,,,3.30000000e-009,-1.00000007e-003
,,,3.32500000e-009,-9.67187568e-004
,,,3.35000000e-009,-9.30468816e-004
,,,3.37500000e-009,-8.92187563e-004
,,,3.40000000e-009,-8.57031311e-004
,,,3.42500000e-009,-8.27343809e-004
,,,3.45000000e-009,-8.06250057e-004
,,,3.47500000e-009,-7.96875056e-004
,,,3.50000000e-009,-8.00000057e-004
,,,3.52500000e-009,-8.13281308e-004
,,,3.55000000e-009,-8.35937559e-004
,,,3.57500000e-009,-8.65625061e-004
,,,3.60000000e-009,-8.99218814e-004
,,,3.62500000e-009,-9.32812566e-004
,,,3.65000000e-009,-9.62500068e-004
,,,3.67500000e-009,-9.85937570e-004
,,,3.70000000e-009,-1.00000007e-003
,,,3.72500000e-009,-9.99218821e-004
,,,3.75000000e-009,-9.87500070e-004
,,,3.77500000e-009,-9.64843818e-004
,,,3.80000000e-009,-9.35156316e-004
,,,3.82500000e-009,-9.00781314e-004
,,,3.85000000e-009,-8.64843811e-004
,,,3.87500000e-009,-8.30468809e-004
,,,3.90000000e-009,-8.00000057e-004
,,,3.92500000e-009,-7.71093805e-004
,,,3.95000000e-009,-7.47656303e-004
,,,3.97500000e-009,-7.26562551e-004
,,,4.00000000e-009,-7.07031300e-004
,,,4.02500000e-009,-6.86718799e-004
,,,4.05000000e-009,-6.63281297e-004
,,,4.07500000e-009,-6.35156295e-004
,,,4.10000000e-009,-6.00000042e-004
,,,4.12500000e-009,-5.57812539e-004
,,,4.15000000e-009,-5.09375036e-004
,,,4.17500000e-009,-4.55468782e-004
,,,4.20000000e-009,-3.98437528e-004
,,,4.22500000e-009,-3.42187524e-004
,,,4.25000000e-009,-2.88281270e-004
,,,4.27500000e-009,-2.39843767e-004
,,,4.30000000e-009,-2.00000014e-004
,,,4.32500000e-009,-1.72656262e-004
,,,4.35000000e-009,-1.55468761e-004
,,,4.37500000e-009,-1.47656260e-004
,,,4.40000000e-009,-1.48437511e-004
,,,4.42500000e-009,-1.56250011e-004
,,,4.45000000e-009,-1.68750012e-004
,,,4.47500000e-009,-1.83593763e-004
,,,4.50000000e-009,-2.00000014e-004
,,,4.52500000e-009,-2.15625015e-004
,,,4.55000000e-009,-2.27343766e-004
,,,4.57500000e-009,-2.34375017e-004
,,,4.60000000e-009,-2.35937517e-004
,,,4.62500000e-009,-2.32031266e-004
,,,4.65000000e-009,-2.24218766e-004
,,,4.67500000e-009,-2.12500015e-004
,,,4.70000000e-009,-2.00000014e-004
,,,4.72500000e-009,-1.88281263e-004
,,,4.75000000e-009,-1.77343763e-004
,,,4.77500000e-009,-1.67968762e-004
,,,4.80000000e-009,-1.62500012e-004
,,,4.82500000e-009,-1.62500012e-004
,,,4.85000000e-009,-1.67968762e-004
,,,4.87500000e-009,-1.80468763e-004
,,,4.90000000e-009,-2.00000014e-004
,,,4.92500000e-009,-2.25781266e-004
,,,4.95000000e-009,-2.55468768e-004
,,,4.97500000e-009,-2.87500020e-004
,,,5.00000000e-009,-3.17968773e-004
,,,5.02500000e-009,-3.46875025e-004
,,,5.05000000e-009,-3.71093776e-004
,,,5.07500000e-009,-3.89062528e-004
,,,5.10000000e-009,-4.00000028e-004
,,,5.12500000e-009,-4.00000028e-004
,,,5.15000000e-009,-3.91406278e-004
,,,5.17500000e-009,-3.73437526e-004
,,,5.20000000e-009,-3.47656275e-004
,,,5.22500000e-009,-3.14843772e-004
,,,5.25000000e-009,-2.78906270e-004
,,,5.27500000e-009,-2.39062517e-004
,,,5.30000000e-009,-2.00000014e-004
,,,5.32500000e-009,-1.60156261e-004
,,,5.35000000e-009,-1.24218759e-004
,,,5.37500000e-009,-9.14062565e-005
,,,5.40000000e-009,-6.40625045e-005
,,,5.42500000e-009,-4.06250029e-005
,,,5.45000000e-009,-2.26562516e-005
,,,5.47500000e-009,-9.37500066e-006
,,,5.50000000e-009,0.00000000e+000
,,,5.52500000e-009,4.68750033e-006
,,,5.55000000e-009,7.03125050e-006
,,,5.57500000e-009,7.81250055e-006
,,,5.60000000e-009,7.03125050e-006
,,,5.62500000e-009,5.46875039e-006
,,,5.65000000e-009,3.90625028e-006
,,,5.67500000e-009,1.56250011e-006
,,,5.70000000e-009,0.00000000e+000
,,,5.72500000e-009,-3.12500022e-006
,,,5.75000000e-009,-5.46875039e-006
,,,5.77500000e-009,-7.03125050e-006
,,,5.80000000e-009,-7.03125050e-006
,,,5.82500000e-009,-7.03125050e-006
,,,5.85000000e-009,-5.46875039e-006
,,,5.87500000e-009,-2.34375017e-006
,,,5.90000000e-009,0.00000000e+000
,,,5.92500000e-009,1.56250011e-006
,,,5.95000000e-009,3.12500022e-006
