RawData/SinglePhotoelectron/R1_2pt2B_5mV/wave029_Ch2.csv

"Record Length",1000,"Points",-7.72500000e-009,0.00000000e+000
"Sample Interval",2.50000000e-011,s,-7.70000000e-009,2.50000018e-005
"Trigger Point",309,"Samples",-7.67500000e-009,5.78125041e-005
"Trigger Time",2.20725100e-012,s,-7.65000000e-009,9.37500066e-005
"",,,-7.62500000e-009,1.28906259e-004
"Horizontal Offset",-7.72500000e-009,s,-7.60000000e-009,1.60156261e-004
,,,-7.57500000e-009,1.83593763e-004
,,,-7.55000000e-009,1.96875014e-004
,,,-7.52500000e-009,2.00000014e-004
,,,-7.50000000e-009,1.88281263e-004
,,,-7.47500000e-009,1.67187512e-004
,,,-7.45000000e-009,1.38281260e-004
,,,-7.42500000e-009,1.04687507e-004
,,,-7.40000000e-009,7.03125050e-005
,,,-7.37500000e-009,3.90625028e-005
,,,-7.35000000e-009,1.48437511e-005
,,,-7.32500000e-009,0.00000000e+000
,,,-7.30000000e-009,-3.90625028e-006
,,,-7.27500000e-009,3.90625028e-006
,,,-7.25000000e-009,2.26562516e-005
,,,-7.22500000e-009,5.07812536e-005
,,,-7.20000000e-009,8.59375061e-005
,,,-7.17500000e-009,1.24218759e-004
,,,-7.15000000e-009,1.63281262e-004
,,,-7.12500000e-009,2.00000014e-004
,,,-7.10000000e-009,2.29687516e-004
,,,-7.07500000e-009,2.51562518e-004
,,,-7.05000000e-009,2.64062519e-004
,,,-7.02500000e-009,2.67187519e-004
,,,-7.00000000e-009,2.60937518e-004
,,,-6.97500000e-009,2.46093767e-004
,,,-6.95000000e-009,2.25781266e-004
,,,-6.92500000e-009,2.00000014e-004
,,,-6.90000000e-009,1.71093762e-004
,,,-6.87500000e-009,1.40625010e-004
,,,-6.85000000e-009,1.11718758e-004
,,,-6.82500000e-009,8.35937559e-005
,,,-6.80000000e-009,5.78125041e-005
,,,-6.77500000e-009,3.51562525e-005
,,,-6.75000000e-009,1.56250011e-005
,,,-6.72500000e-009,0.00000000e+000
,,,-6.70000000e-009,-1.17187508e-005
,,,-6.67500000e-009,-1.95312514e-005
,,,-6.65000000e-009,-2.34375017e-005
,,,-6.62500000e-009,-2.34375017e-005
,,,-6.60000000e-009,-2.03125014e-005
,,,-6.57500000e-009,-1.56250011e-005
,,,-6.55000000e-009,-7.81250055e-006
,,,-6.52500000e-009,0.00000000e+000
,,,-6.50000000e-009,8.59375061e-006
,,,-6.47500000e-009,1.64062512e-005
,,,-6.45000000e-009,2.18750015e-005
,,,-6.42500000e-009,2.42187517e-005
,,,-6.40000000e-009,2.34375017e-005
,,,-6.37500000e-009,1.87500013e-005
,,,-6.35000000e-009,1.01562507e-005
,,,-6.32500000e-009,0.00000000e+000
,,,-6.30000000e-009,-1.17187508e-005
,,,-6.27500000e-009,-2.34375017e-005
,,,-6.25000000e-009,-3.35937524e-005
,,,-6.22500000e-009,-3.98437528e-005
,,,-6.20000000e-009,-4.06250029e-005
,,,-6.17500000e-009,-3.43750024e-005
,,,-6.15000000e-009,-2.03125014e-005
,,,-6.12500000e-009,0.00000000e+000
,,,-6.10000000e-009,2.65625019e-005
,,,-6.07500000e-009,5.78125041e-005
,,,-6.05000000e-009,9.06250064e-005
,,,-6.02500000e-009,1.23437509e-004
,,,-6.00000000e-009,1.53125011e-004
,,,-5.97500000e-009,1.76562512e-004
,,,-5.95000000e-009,1.92968764e-004
,,,-5.92500000e-009,2.00000014e-004
,,,-5.90000000e-009,1.95312514e-004
,,,-5.87500000e-009,1.82031263e-004
,,,-5.85000000e-009,1.60156261e-004
,,,-5.82500000e-009,1.31250009e-004
,,,-5.80000000e-009,9.84375070e-005
,,,-5.77500000e-009,6.32812545e-005
,,,-5.75000000e-009,2.96875021e-005
,,,-5.72500000e-009,0.00000000e+000
,,,-5.70000000e-009,-2.42187517e-005
,,,-5.67500000e-009,-4.14062529e-005
,,,-5.65000000e-009,-5.07812536e-005
,,,-5.62500000e-009,-5.15625036e-005
,,,-5.60000000e-009,-4.60937533e-005
,,,-5.57500000e-009,-3.43750024e-005
,,,-5.55000000e-009,-1.79687513e-005
,,,-5.52500000e-009,0.00000000e+000
,,,-5.50000000e-009,1.87500013e-005
,,,-5.47500000e-009,3.59375025e-005
,,,-5.45000000e-009,4.84375034e-005
,,,-5.42500000e-009,5.54687539e-005
,,,-5.40000000e-009,5.39062538e-005
,,,-5.37500000e-009,4.45312532e-005
,,,-5.35000000e-009,2.57812518e-005
,,,-5.32500000e-009,0.00000000e+000
,,,-5.30000000e-009,-3.12500022e-005
,,,-5.27500000e-009,-6.56250046e-005
,,,-5.25000000e-009,-1.01562507e-004
,,,-5.22500000e-009,-1.35156260e-004
,,,-5.20000000e-009,-1.64062512e-004
,,,-5.17500000e-009,-1.85937513e-004
,,,-5.15000000e-009,-1.97656264e-004
,,,-5.12500000e-009,-2.00000014e-004
,,,-5.10000000e-009,-1.87500013e-004
,,,-5.07500000e-009,-1.65625012e-004
,,,-5.05000000e-009,-1.36718760e-004
,,,-5.02500000e-009,-1.04687507e-004
,,,-5.00000000e-009,-7.18750051e-005
,,,-4.97500000e-009,-4.14062529e-005
,,,-4.95000000e-009,-1.71875012e-005
,,,-4.92500000e-009,0.00000000e+000
,,,-4.90000000e-009,1.17187508e-005
,,,-4.87500000e-009,1.56250011e-005
,,,-4.85000000e-009,1.32812509e-005
,,,-4.82500000e-009,7.03125050e-006
,,,-4.80000000e-009,0.00000000e+000
,,,-4.77500000e-009,-4.68750033e-006
,,,-4.75000000e-009,-5.46875039e-006
,,,-4.72500000e-009,0.00000000e+000
,,,-4.70000000e-009,1.25000009e-005
,,,-4.67500000e-009,3.28125023e-005
,,,-4.65000000e-009,5.85937541e-005
,,,-4.62500000e-009,8.82812562e-005
,,,-4.60000000e-009,1.20312509e-004
,,,-4.57500000e-009,1.50781261e-004
,,,-4.55000000e-009,1.78125013e-004
,,,-4.52500000e-009,2.00000014e-004
,,,-4.50000000e-009,2.13281265e-004
,,,-4.47500000e-009,2.19531266e-004
,,,-4.45000000e-009,2.19531266e-004
,,,-4.42500000e-009,2.15625015e-004
,,,-4.40000000e-009,2.09375015e-004
,,,-4.37500000e-009,2.03125014e-004
,,,-4.35000000e-009,1.99218764e-004
,,,-4.32500000e-009,2.00000014e-004
,,,-4.30000000e-009,2.04687514e-004
,,,-4.27500000e-009,2.15625015e-004
,,,-4.25000000e-009,2.34375017e-004
,,,-4.22500000e-009,2.60156268e-004
,,,-4.20000000e-009,2.91406271e-004
,,,-4.17500000e-009,3.26562523e-004
,,,-4.15000000e-009,3.63281276e-004
,,,-4.12500000e-009,4.00000028e-004
,,,-4.10000000e-009,4.29687530e-004
,,,-4.07500000e-009,4.53906282e-004
,,,-4.05000000e-009,4.71093783e-004
,,,-4.02500000e-009,4.78906284e-004
,,,-4.00000000e-009,4.75781284e-004
,,,-3.97500000e-009,4.61718783e-004
,,,-3.95000000e-009,4.36718781e-004
,,,-3.92500000e-009,4.00000028e-004
,,,-3.90000000e-009,3.50781275e-004
,,,-3.87500000e-009,2.96093771e-004
,,,-3.85000000e-009,2.38281267e-004
,,,-3.82500000e-009,1.79687513e-004
,,,-3.80000000e-009,1.24218759e-004
,,,-3.77500000e-009,7.42187553e-005
,,,-3.75000000e-009,3.20312523e-005
,,,-3.72500000e-009,0.00000000e+000
,,,-3.70000000e-009,-2.10937515e-005
,,,-3.67500000e-009,-3.20312523e-005
,,,-3.65000000e-009,-3.51562525e-005
,,,-3.62500000e-009,-3.12500022e-005
,,,-3.60000000e-009,-2.34375017e-005
,,,-3.57500000e-009,-1.40625010e-005
,,,-3.55000000e-009,-5.46875039e-006
,,,-3.52500000e-009,0.00000000e+000
,,,-3.50000000e-009,2.34375017e-006
,,,-3.47500000e-009,1.56250011e-006
,,,-3.45000000e-009,-7.81250055e-007
,,,-3.42500000e-009,-6.25000044e-006
,,,-3.40000000e-009,-1.09375008e-005
,,,-3.37500000e-009,-1.25000009e-005
,,,-3.35000000e-009,-8.59375061e-006
,,,-3.32500000e-009,0.00000000e+000
,,,-3.30000000e-009,1.64062512e-005
,,,-3.27500000e-009,3.82812527e-005
,,,-3.25000000e-009,6.56250046e-005
,,,-3.22500000e-009,9.53125067e-005
,,,-3.20000000e-009,1.25781259e-004
,,,-3.17500000e-009,1.54687511e-004
,,,-3.15000000e-009,1.79687513e-004
,,,-3.12500000e-009,2.00000014e-004
,,,-3.10000000e-009,2.13281265e-004
,,,-3.07500000e-009,2.20312516e-004
,,,-3.05000000e-009,2.21093766e-004
,,,-3.02500000e-009,2.17968765e-004
,,,-3.00000000e-009,2.12500015e-004
,,,-2.97500000e-009,2.07031265e-004
,,,-2.95000000e-009,2.01562514e-004
,,,-2.92500000e-009,2.00000014e-004
,,,-2.90000000e-009,1.99218764e-004
,,,-2.87500000e-009,2.00781264e-004
,,,-2.85000000e-009,2.03906264e-004
,,,-2.82500000e-009,2.07812515e-004
,,,-2.80000000e-009,2.10937515e-004
,,,-2.77500000e-009,2.10937515e-004
,,,-2.75000000e-009,2.07812515e-004
,,,-2.72500000e-009,2.00000014e-004
,,,-2.70000000e-009,1.83593763e-004
,,,-2.67500000e-009,1.61718761e-004
,,,-2.65000000e-009,1.36718760e-004
,,,-2.62500000e-009,1.07812508e-004
,,,-2.60000000e-009,7.81250055e-005
,,,-2.57500000e-009,4.92187535e-005
,,,-2.55000000e-009,2.26562516e-005
,,,-2.52500000e-009,0.00000000e+000
,,,-2.50000000e-009,-1.71875012e-005
,,,-2.47500000e-009,-2.96875021e-005
,,,-2.45000000e-009,-3.51562525e-005
,,,-2.42500000e-009,-3.51562525e-005
,,,-2.40000000e-009,-3.12500022e-005
,,,-2.37500000e-009,-2.26562516e-005
,,,-2.35000000e-009,-1.17187508e-005
,,,-2.32500000e-009,0.00000000e+000
,,,-2.30000000e-009,1.09375008e-005
,,,-2.27500000e-009,2.10937515e-005
,,,-2.25000000e-009,2.81250020e-005
,,,-2.22500000e-009,3.12500022e-005
,,,-2.20000000e-009,3.04687522e-005
,,,-2.17500000e-009,2.50000018e-005
,,,-2.15000000e-009,1.48437511e-005
,,,-2.12500000e-009,0.00000000e+000
,,,-2.10000000e-009,-1.79687513e-005
,,,-2.07500000e-009,-3.98437528e-005
,,,-2.05000000e-009,-6.48437546e-005
,,,-2.02500000e-009,-9.21875065e-005
,,,-2.00000000e-009,-1.20312509e-004
,,,-1.97500000e-009,-1.48437511e-004
,,,-1.95000000e-009,-1.75000012e-004
,,,-1.92500000e-009,-2.00000014e-004
,,,-1.90000000e-009,-2.17968765e-004
,,,-1.87500000e-009,-2.32031266e-004
,,,-1.85000000e-009,-2.40625017e-004
,,,-1.82500000e-009,-2.43750017e-004
,,,-1.80000000e-009,-2.41406267e-004
,,,-1.77500000e-009,-2.32812516e-004
,,,-1.75000000e-009,-2.18750015e-004
,,,-1.72500000e-009,-2.00000014e-004
,,,-1.70000000e-009,-1.75781262e-004
,,,-1.67500000e-009,-1.49218761e-004
,,,-1.65000000e-009,-1.21875009e-004
,,,-1.62500000e-009,-9.45312567e-005
,,,-1.60000000e-009,-6.71875048e-005
,,,-1.57500000e-009,-4.21875030e-005
,,,-1.55000000e-009,-1.95312514e-005
,,,-1.52500000e-009,0.00000000e+000
,,,-1.50000000e-009,9.37500066e-006
,,,-1.47500000e-009,1.48437511e-005
,,,-1.45000000e-009,1.64062512e-005
,,,-1.42500000e-009,1.40625010e-005
,,,-1.40000000e-009,1.01562507e-005
,,,-1.37500000e-009,6.25000044e-006
,,,-1.35000000e-009,2.34375017e-006
,,,-1.32500000e-009,0.00000000e+000
,,,-1.30000000e-009,-1.09375008e-005
,,,-1.27500000e-009,-2.10937515e-005
,,,-1.25000000e-009,-2.81250020e-005
,,,-1.22500000e-009,-3.20312523e-005
,,,-1.20000000e-009,-3.20312523e-005
,,,-1.17500000e-009,-2.57812518e-005
,,,-1.15000000e-009,-1.48437511e-005
,,,-1.12500000e-009,0.00000000e+000
,,,-1.10000000e-009,-7.81250055e-007
,,,-1.07500000e-009,-2.34375017e-006
,,,-1.05000000e-009,-3.90625028e-006
,,,-1.02500000e-009,-5.46875039e-006
,,,-1.00000000e-009,-5.46875039e-006
,,,-9.75000000e-010,-3.90625028e-006
,,,-9.50000000e-010,-1.56250011e-006
,,,-9.25000000e-010,0.00000000e+000
,,,-9.00000000e-010,-2.81250020e-005
,,,-8.75000000e-010,-6.40625045e-005
,,,-8.50000000e-010,-1.07031258e-004
,,,-8.25000000e-010,-1.57031261e-004
,,,-8.00000000e-010,-2.11718765e-004
,,,-7.75000000e-010,-2.70312519e-004
,,,-7.50000000e-010,-3.32812524e-004
,,,-7.25000000e-010,-4.00000028e-004
,,,-7.00000000e-010,-4.99218785e-004
,,,-6.75000000e-010,-6.05468793e-004
,,,-6.50000000e-010,-7.14062551e-004
,,,-6.25000000e-010,-8.22656308e-004
,,,-6.00000000e-010,-9.27343816e-004
,,,-5.75000000e-010,-1.02500007e-003
,,,-5.50000000e-010,-1.11562508e-003
,,,-5.25000000e-010,-1.20000008e-003
,,,-5.00000000e-010,-1.30156259e-003
,,,-4.75000000e-010,-1.40546885e-003
,,,-4.50000000e-010,-1.51484386e-003
,,,-4.25000000e-010,-1.63046887e-003
,,,-4.00000000e-010,-1.75468762e-003
,,,-3.75000000e-010,-1.88984388e-003
,,,-3.50000000e-010,-2.03750014e-003
,,,-3.25000000e-010,-2.20000016e-003
,,,-3.00000000e-010,-2.38750017e-003
,,,-2.75000000e-010,-2.59296893e-003
,,,-2.50000000e-010,-2.81406270e-003
,,,-2.25000000e-010,-3.04609397e-003
,,,-2.00000000e-010,-3.28515648e-003
,,,-1.75000000e-010,-3.52656275e-003
,,,-1.50000000e-010,-3.76562527e-003
,,,-1.25000000e-010,-4.00000028e-003
,,,-1.00000000e-010,-4.21562530e-003
,,,-7.50000000e-011,-4.42500031e-003
,,,-5.00000000e-011,-4.62968783e-003
,,,-2.50000000e-011,-4.82890659e-003
,,,0.00000000e+000,-5.02500036e-003
,,,2.50000000e-011,-5.21875037e-003
,,,5.00000000e-011,-5.41015663e-003
,,,7.50000000e-011,-5.60000040e-003
,,,1.00000000e-010,-5.75703166e-003
,,,1.25000000e-010,-5.91484417e-003
,,,1.50000000e-010,-6.07343793e-003
,,,1.75000000e-010,-6.23046919e-003
,,,2.00000000e-010,-6.38515670e-003
,,,2.25000000e-010,-6.53437546e-003
,,,2.50000000e-010,-6.67343797e-003
,,,2.75000000e-010,-6.80000048e-003
,,,3.00000000e-010,-6.86562549e-003
,,,3.25000000e-010,-6.91718799e-003
,,,3.50000000e-010,-6.95625049e-003
,,,3.75000000e-010,-6.98437549e-003
,,,4.00000000e-010,-7.00234425e-003
,,,4.25000000e-010,-7.01093800e-003
,,,4.50000000e-010,-7.01015675e-003
,,,4.75000000e-010,-7.00000050e-003
,,,5.00000000e-010,-6.93359424e-003
,,,5.25000000e-010,-6.86250049e-003
,,,5.50000000e-010,-6.78906298e-003
,,,5.75000000e-010,-6.71406298e-003
,,,6.00000000e-010,-6.63750047e-003
,,,6.25000000e-010,-6.56093796e-003
,,,6.50000000e-010,-6.48203171e-003
,,,6.75000000e-010,-6.40000045e-003
,,,7.00000000e-010,-6.27421919e-003
,,,7.25000000e-010,-6.14687544e-003
,,,7.50000000e-010,-6.01875043e-003
,,,7.75000000e-010,-5.89218792e-003
,,,8.00000000e-010,-5.76718791e-003
,,,8.25000000e-010,-5.64375040e-003
,,,8.50000000e-010,-5.52187539e-003
,,,8.75000000e-010,-5.40000038e-003
,,,9.00000000e-010,-5.25078162e-003
,,,9.25000000e-010,-5.10000036e-003
,,,9.50000000e-010,-4.94921910e-003
,,,9.75000000e-010,-4.79765659e-003
,,,1.00000000e-009,-4.64687533e-003
,,,1.02500000e-009,-4.49687532e-003
,,,1.05000000e-009,-4.34765656e-003
,,,1.07500000e-009,-4.20000030e-003
,,,1.10000000e-009,-4.04140654e-003
,,,1.12500000e-009,-3.88125027e-003
,,,1.15000000e-009,-3.72265651e-003
,,,1.17500000e-009,-3.56562525e-003
,,,1.20000000e-009,-3.41328149e-003
,,,1.22500000e-009,-3.26718773e-003
,,,1.25000000e-009,-3.12890647e-003
,,,1.27500000e-009,-3.00000021e-003
,,,1.30000000e-009,-2.88671895e-003
,,,1.32500000e-009,-2.77812520e-003
,,,1.35000000e-009,-2.67265644e-003
,,,1.37500000e-009,-2.57187518e-003
,,,1.40000000e-009,-2.47343768e-003
,,,1.42500000e-009,-2.37890642e-003
,,,1.45000000e-009,-2.28750016e-003
,,,1.47500000e-009,-2.20000016e-003
,,,1.50000000e-009,-2.12890640e-003
,,,1.52500000e-009,-2.05625015e-003
,,,1.55000000e-009,-1.98046889e-003
,,,1.57500000e-009,-1.90234388e-003
,,,1.60000000e-009,-1.82421888e-003
,,,1.62500000e-009,-1.74687512e-003
,,,1.65000000e-009,-1.67187512e-003
,,,1.67500000e-009,-1.60000011e-003
,,,1.70000000e-009,-1.54609386e-003
,,,1.72500000e-009,-1.48906261e-003
,,,1.75000000e-009,-1.42578135e-003
,,,1.77500000e-009,-1.35468760e-003
,,,1.80000000e-009,-1.27578134e-003
,,,1.82500000e-009,-1.18906258e-003
,,,1.85000000e-009,-1.09609383e-003
,,,1.87500000e-009,-1.00000007e-003
,,,1.90000000e-009,-9.21875065e-004
,,,1.92500000e-009,-8.42968810e-004
,,,1.95000000e-009,-7.67187554e-004
,,,1.97500000e-009,-6.99218799e-004
,,,2.00000000e-009,-6.44531296e-004
,,,2.02500000e-009,-6.07031293e-004
,,,2.05000000e-009,-5.91406292e-004
,,,2.07500000e-009,-6.00000042e-004
,,,2.10000000e-009,-6.47656296e-004
,,,2.12500000e-009,-7.13281300e-004
,,,2.15000000e-009,-7.91406306e-004
,,,2.17500000e-009,-8.78125062e-004
,,,2.20000000e-009,-9.66406318e-004
,,,2.22500000e-009,-1.05312507e-003
,,,2.25000000e-009,-1.13203133e-003
,,,2.27500000e-009,-1.20000008e-003
,,,2.30000000e-009,-1.25781259e-003
,,,2.32500000e-009,-1.29531259e-003
,,,2.35000000e-009,-1.31328134e-003
,,,2.37500000e-009,-1.31328134e-003
,,,2.40000000e-009,-1.29765634e-003
,,,2.42500000e-009,-1.27031259e-003
,,,2.45000000e-009,-1.23593759e-003
,,,2.47500000e-009,-1.20000008e-003
,,,2.50000000e-009,-1.16875008e-003
,,,2.52500000e-009,-1.14296883e-003
,,,2.55000000e-009,-1.12500008e-003
,,,2.57500000e-009,-1.11718758e-003
,,,2.60000000e-009,-1.12109383e-003
,,,2.62500000e-009,-1.13671883e-003
,,,2.65000000e-009,-1.16328133e-003
,,,2.67500000e-009,-1.20000008e-003
,,,2.70000000e-009,-1.24140634e-003
,,,2.72500000e-009,-1.28515634e-003
,,,2.75000000e-009,-1.32734384e-003
,,,2.77500000e-009,-1.36328135e-003
,,,2.80000000e-009,-1.39140635e-003
,,,2.82500000e-009,-1.40781260e-003
,,,2.85000000e-009,-1.41093760e-003
,,,2.87500000e-009,-1.40000010e-003
,,,2.90000000e-009,-1.36875010e-003
,,,2.92500000e-009,-1.32578134e-003
,,,2.95000000e-009,-1.27265634e-003
,,,2.97500000e-009,-1.21406259e-003
,,,3.00000000e-009,-1.15390633e-003
,,,3.02500000e-009,-1.09531258e-003
,,,3.05000000e-009,-1.04296882e-003
,,,3.07500000e-009,-1.00000007e-003
,,,3.10000000e-009,-9.63281318e-004
,,,3.12500000e-009,-9.39062566e-004
,,,3.15000000e-009,-9.28125066e-004
,,,3.17500000e-009,-9.28906316e-004
,,,3.20000000e-009,-9.39062566e-004
,,,3.22500000e-009,-9.55468818e-004
,,,3.25000000e-009,-9.77343819e-004
,,,3.27500000e-009,-1.00000007e-003
,,,3.30000000e-009,-1.01640632e-003
,,,3.32500000e-009,-1.02890632e-003
,,,3.35000000e-009,-1.03593757e-003
,,,3.37500000e-009,-1.03750007e-003
,,,3.40000000e-009,-1.03359382e-003
,,,3.42500000e-009,-1.02500007e-003
,,,3.45000000e-009,-1.01406257e-003
,,,3.47500000e-009,-1.00000007e-003
,,,3.50000000e-009,-9.80468819e-004
,,,3.52500000e-009,-9.59375068e-004
,,,3.55000000e-009,-9.35937566e-004
,,,3.57500000e-009,-9.11718815e-004
,,,3.60000000e-009,-8.85156313e-004
,,,3.62500000e-009,-8.57812561e-004
,,,3.65000000e-009,-8.28906309e-004
,,,3.67500000e-009,-8.00000057e-004
,,,3.70000000e-009,-7.67187554e-004
,,,3.72500000e-009,-7.35156302e-004
,,,3.75000000e-009,-7.03906300e-004
,,,3.77500000e-009,-6.75000048e-004
,,,3.80000000e-009,-6.49218796e-004
,,,3.82500000e-009,-6.28125044e-004
,,,3.85000000e-009,-6.11718793e-004
,,,3.87500000e-009,-6.00000042e-004
,,,3.90000000e-009,-5.90625042e-004
,,,3.92500000e-009,-5.81250041e-004
,,,3.95000000e-009,-5.68750040e-004
,,,3.97500000e-009,-5.51562539e-004
,,,4.00000000e-009,-5.27343787e-004
,,,4.02500000e-009,-4.94531285e-004
,,,4.05000000e-009,-4.51562532e-004
,,,4.07500000e-009,-4.00000028e-004
,,,4.10000000e-009,-3.40625024e-004
,,,4.12500000e-009,-2.76562520e-004
,,,4.15000000e-009,-2.10937515e-004
,,,4.17500000e-009,-1.47656260e-004
,,,4.20000000e-009,-9.14062565e-005
,,,4.22500000e-009,-4.60937533e-005
,,,4.25000000e-009,-1.48437511e-005
,,,4.27500000e-009,0.00000000e+000
,,,4.30000000e-009,-4.68750033e-006
,,,4.32500000e-009,-2.34375017e-005
,,,4.35000000e-009,-5.23437537e-005
,,,4.37500000e-009,-8.67187561e-005
,,,4.40000000e-009,-1.23437509e-004
,,,4.42500000e-009,-1.57031261e-004
,,,4.45000000e-009,-1.83593763e-004
,,,4.47500000e-009,-2.00000014e-004
,,,4.50000000e-009,-2.06250015e-004
,,,4.52500000e-009,-1.99218764e-004
,,,4.55000000e-009,-1.79687513e-004
,,,4.57500000e-009,-1.50000011e-004
,,,4.60000000e-009,-1.13281258e-004
,,,4.62500000e-009,-7.34375052e-005
,,,4.65000000e-009,-3.43750024e-005
,,,4.67500000e-009,0.00000000e+000
,,,4.70000000e-009,2.34375017e-005
,,,4.72500000e-009,3.82812527e-005
,,,4.75000000e-009,4.53125032e-005
,,,4.77500000e-009,4.45312532e-005
,,,4.80000000e-009,3.82812527e-005
,,,4.82500000e-009,2.65625019e-005
,,,4.85000000e-009,1.32812509e-005
,,,4.87500000e-009,0.00000000e+000
,,,4.90000000e-009,-1.56250011e-005
,,,4.92500000e-009,-2.81250020e-005
,,,4.95000000e-009,-3.59375025e-005
,,,4.97500000e-009,-3.82812527e-005
,,,5.00000000e-009,-3.43750024e-005
,,,5.02500000e-009,-2.65625019e-005
,,,5.05000000e-009,-1.40625010e-005
,,,5.07500000e-009,0.00000000e+000
,,,5.10000000e-009,1.25000009e-005
,,,5.12500000e-009,2.42187517e-005
,,,5.15000000e-009,3.35937524e-005
,,,5.17500000e-009,3.90625028e-005
,,,5.20000000e-009,3.90625028e-005
,,,5.22500000e-009,3.20312523e-005
,,,5.25000000e-009,1.95312514e-005
,,,5.27500000e-009,0.00000000e+000
,,,5.30000000e-009,-2.65625019e-005
,,,5.32500000e-009,-5.78125041e-005
,,,5.35000000e-009,-9.06250064e-005
,,,5.37500000e-009,-1.22656259e-004
,,,5.40000000e-009,-1.51562511e-004
,,,5.42500000e-009,-1.75000012e-004
,,,5.45000000e-009,-1.90625013e-004
,,,5.47500000e-009,-2.00000014e-004
,,,5.50000000e-009,-2.00000014e-004
,,,5.52500000e-009,-1.94531264e-004
,,,5.55000000e-009,-1.85156263e-004
,,,5.57500000e-009,-1.76562512e-004
,,,5.60000000e-009,-1.71093762e-004
,,,5.62500000e-009,-1.71875012e-004
,,,5.65000000e-009,-1.80468763e-004
,,,5.67500000e-009,-2.00000014e-004
,,,5.70000000e-009,-2.25781266e-004
,,,5.72500000e-009,-2.58593768e-004
,,,5.75000000e-009,-2.95312521e-004
,,,5.77500000e-009,-3.32031274e-004
,,,5.80000000e-009,-3.64062526e-004
,,,5.82500000e-009,-3.88281277e-004
,,,5.85000000e-009,-4.00781278e-004
,,,5.87500000e-009,-4.00000028e-004
,,,5.90000000e-009,-3.81250027e-004
,,,5.92500000e-009,-3.51562525e-004
,,,5.95000000e-009,-3.14843772e-004
