RawData/DifferentLengths/R4/R4_2pt2D_5mV/wave010_Ch4.csv

"Record Length",1000,"Points",-7.72500000e-009,3.56249951e-004
"Sample Interval",2.50000000e-011,s,-7.70000000e-009,3.93749953e-004
"Trigger Point",309,"Samples",-7.67500000e-009,3.99999954e-004
"Trigger Time",2.77536481e-012,s,-7.65000000e-009,3.78124952e-004
"",,,-7.62500000e-009,3.28124949e-004
"Horizontal Offset",-7.72500000e-009,s,-7.60000000e-009,2.57812444e-004
,,,-7.57500000e-009,1.76562438e-004
,,,-7.55000000e-009,9.99999326e-005
,,,-7.52500000e-009,3.74999281e-005
,,,-7.50000000e-009,3.12492572e-006
,,,-7.47500000e-009,-7.45058060e-011
,,,-7.45000000e-009,4.21874285e-005
,,,-7.42500000e-009,1.18749934e-004
,,,-7.40000000e-009,2.24999941e-004
,,,-7.37500000e-009,3.51562450e-004
,,,-7.35000000e-009,4.84374960e-004
,,,-7.32500000e-009,6.10937469e-004
,,,-7.30000000e-009,7.20312476e-004
,,,-7.27500000e-009,7.99999982e-004
,,,-7.25000000e-009,8.46874985e-004
,,,-7.22500000e-009,8.54687486e-004
,,,-7.20000000e-009,8.24999984e-004
,,,-7.17500000e-009,7.67187480e-004
,,,-7.15000000e-009,6.84374974e-004
,,,-7.12500000e-009,5.90624967e-004
,,,-7.10000000e-009,4.92187460e-004
,,,-7.07500000e-009,3.99999954e-004
,,,-7.05000000e-009,3.28124949e-004
,,,-7.02500000e-009,2.74999945e-004
,,,-7.00000000e-009,2.46874943e-004
,,,-6.97500000e-009,2.42187443e-004
,,,-6.95000000e-009,2.57812444e-004
,,,-6.92500000e-009,2.93749946e-004
,,,-6.90000000e-009,3.42187450e-004
,,,-6.87500000e-009,3.99999954e-004
,,,-6.85000000e-009,4.64062458e-004
,,,-6.82500000e-009,5.29687463e-004
,,,-6.80000000e-009,5.92187467e-004
,,,-6.77500000e-009,6.48437471e-004
,,,-6.75000000e-009,6.98437475e-004
,,,-6.72500000e-009,7.40624978e-004
,,,-6.70000000e-009,7.74999980e-004
,,,-6.67500000e-009,7.99999982e-004
,,,-6.65000000e-009,8.18749983e-004
,,,-6.62500000e-009,8.29687484e-004
,,,-6.60000000e-009,8.34374985e-004
,,,-6.57500000e-009,8.32812484e-004
,,,-6.55000000e-009,8.28124984e-004
,,,-6.52500000e-009,8.20312484e-004
,,,-6.50000000e-009,8.10937483e-004
,,,-6.47500000e-009,7.99999982e-004
,,,-6.45000000e-009,7.87499981e-004
,,,-6.42500000e-009,7.76562480e-004
,,,-6.40000000e-009,7.70312480e-004
,,,-6.37500000e-009,7.68749980e-004
,,,-6.35000000e-009,7.70312480e-004
,,,-6.32500000e-009,7.78124981e-004
,,,-6.30000000e-009,7.87499981e-004
,,,-6.27500000e-009,7.99999982e-004
,,,-6.25000000e-009,8.12499983e-004
,,,-6.22500000e-009,8.23437484e-004
,,,-6.20000000e-009,8.31249984e-004
,,,-6.17500000e-009,8.34374985e-004
,,,-6.15000000e-009,8.34374985e-004
,,,-6.12500000e-009,8.28124984e-004
,,,-6.10000000e-009,8.15624983e-004
,,,-6.07500000e-009,7.99999982e-004
,,,-6.05000000e-009,7.81249981e-004
,,,-6.02500000e-009,7.62499979e-004
,,,-6.00000000e-009,7.46874978e-004
,,,-5.97500000e-009,7.37499978e-004
,,,-5.95000000e-009,7.35937478e-004
,,,-5.92500000e-009,7.45312478e-004
,,,-5.90000000e-009,7.67187480e-004
,,,-5.87500000e-009,7.99999982e-004
,,,-5.85000000e-009,8.45312485e-004
,,,-5.82500000e-009,8.99999989e-004
,,,-5.80000000e-009,9.60937494e-004
,,,-5.77500000e-009,1.02343750e-003
,,,-5.75000000e-009,1.08281250e-003
,,,-5.72500000e-009,1.13437501e-003
,,,-5.70000000e-009,1.17500001e-003
,,,-5.67500000e-009,1.20000001e-003
,,,-5.65000000e-009,1.20468751e-003
,,,-5.62500000e-009,1.18906251e-003
,,,-5.60000000e-009,1.15468751e-003
,,,-5.57500000e-009,1.10468750e-003
,,,-5.55000000e-009,1.04062500e-003
,,,-5.52500000e-009,9.65624994e-004
,,,-5.50000000e-009,8.84374988e-004
,,,-5.47500000e-009,7.99999982e-004
,,,-5.45000000e-009,7.20312476e-004
,,,-5.42500000e-009,6.45312471e-004
,,,-5.40000000e-009,5.78124966e-004
,,,-5.37500000e-009,5.20312462e-004
,,,-5.35000000e-009,4.73437459e-004
,,,-5.32500000e-009,4.37499956e-004
,,,-5.30000000e-009,4.12499955e-004
,,,-5.27500000e-009,3.99999954e-004
,,,-5.25000000e-009,4.06249954e-004
,,,-5.22500000e-009,4.26562456e-004
,,,-5.20000000e-009,4.59374958e-004
,,,-5.17500000e-009,5.04687461e-004
,,,-5.15000000e-009,5.64062465e-004
,,,-5.12500000e-009,6.34374970e-004
,,,-5.10000000e-009,7.14062476e-004
,,,-5.07500000e-009,7.99999982e-004
,,,-5.05000000e-009,8.90624989e-004
,,,-5.02500000e-009,9.76562495e-004
,,,-5.00000000e-009,1.05625000e-003
,,,-4.97500000e-009,1.12187500e-003
,,,-4.95000000e-009,1.17343751e-003
,,,-4.92500000e-009,1.20312501e-003
,,,-4.90000000e-009,1.21250001e-003
,,,-4.87500000e-009,1.20000001e-003
,,,-4.85000000e-009,1.16718751e-003
,,,-4.82500000e-009,1.11718750e-003
,,,-4.80000000e-009,1.05625000e-003
,,,-4.77500000e-009,9.90624996e-004
,,,-4.75000000e-009,9.26562491e-004
,,,-4.72500000e-009,8.70312487e-004
,,,-4.70000000e-009,8.26562484e-004
,,,-4.67500000e-009,7.99999982e-004
,,,-4.65000000e-009,7.96874982e-004
,,,-4.62500000e-009,8.14062483e-004
,,,-4.60000000e-009,8.51562486e-004
,,,-4.57500000e-009,9.04687490e-004
,,,-4.55000000e-009,9.71874994e-004
,,,-4.52500000e-009,1.04687500e-003
,,,-4.50000000e-009,1.12500001e-003
,,,-4.47500000e-009,1.20000001e-003
,,,-4.45000000e-009,1.26406251e-003
,,,-4.42500000e-009,1.31250002e-003
,,,-4.40000000e-009,1.34375002e-003
,,,-4.37500000e-009,1.35468752e-003
,,,-4.35000000e-009,1.34531252e-003
,,,-4.32500000e-009,1.31406252e-003
,,,-4.30000000e-009,1.26562502e-003
,,,-4.27500000e-009,1.20000001e-003
,,,-4.25000000e-009,1.12031250e-003
,,,-4.22500000e-009,1.03906250e-003
,,,-4.20000000e-009,9.59374993e-004
,,,-4.17500000e-009,8.89062488e-004
,,,-4.15000000e-009,8.35937485e-004
,,,-4.12500000e-009,8.01562482e-004
,,,-4.10000000e-009,7.89062481e-004
,,,-4.07500000e-009,7.99999982e-004
,,,-4.05000000e-009,8.34374985e-004
,,,-4.02500000e-009,8.84374988e-004
,,,-4.00000000e-009,9.48437493e-004
,,,-3.97500000e-009,1.01562500e-003
,,,-3.95000000e-009,1.08125000e-003
,,,-3.92500000e-009,1.13906251e-003
,,,-3.90000000e-009,1.17968751e-003
,,,-3.87500000e-009,1.20000001e-003
,,,-3.85000000e-009,1.20000001e-003
,,,-3.82500000e-009,1.17500001e-003
,,,-3.80000000e-009,1.13125001e-003
,,,-3.77500000e-009,1.07187500e-003
,,,-3.75000000e-009,1.00312500e-003
,,,-3.72500000e-009,9.31249991e-004
,,,-3.70000000e-009,8.62499987e-004
,,,-3.67500000e-009,7.99999982e-004
,,,-3.65000000e-009,7.53124979e-004
,,,-3.62500000e-009,7.20312476e-004
,,,-3.60000000e-009,7.04687475e-004
,,,-3.57500000e-009,7.04687475e-004
,,,-3.55000000e-009,7.18749976e-004
,,,-3.52500000e-009,7.40624978e-004
,,,-3.50000000e-009,7.70312480e-004
,,,-3.47500000e-009,7.99999982e-004
,,,-3.45000000e-009,8.29687484e-004
,,,-3.42500000e-009,8.53124986e-004
,,,-3.40000000e-009,8.68749987e-004
,,,-3.37500000e-009,8.73437487e-004
,,,-3.35000000e-009,8.67187487e-004
,,,-3.32500000e-009,8.51562486e-004
,,,-3.30000000e-009,8.28124984e-004
,,,-3.27500000e-009,7.99999982e-004
,,,-3.25000000e-009,7.73437480e-004
,,,-3.22500000e-009,7.46874978e-004
,,,-3.20000000e-009,7.24999977e-004
,,,-3.17500000e-009,7.14062476e-004
,,,-3.15000000e-009,7.14062476e-004
,,,-3.12500000e-009,7.28124977e-004
,,,-3.10000000e-009,7.56249979e-004
,,,-3.07500000e-009,7.99999982e-004
,,,-3.05000000e-009,8.56249986e-004
,,,-3.02500000e-009,9.21874991e-004
,,,-3.00000000e-009,9.89062496e-004
,,,-2.97500000e-009,1.05468750e-003
,,,-2.95000000e-009,1.11406250e-003
,,,-2.92500000e-009,1.16093751e-003
,,,-2.90000000e-009,1.19062501e-003
,,,-2.87500000e-009,1.20000001e-003
,,,-2.85000000e-009,1.18593751e-003
,,,-2.82500000e-009,1.15312501e-003
,,,-2.80000000e-009,1.10312500e-003
,,,-2.77500000e-009,1.04218750e-003
,,,-2.75000000e-009,9.74999995e-004
,,,-2.72500000e-009,9.09374990e-004
,,,-2.70000000e-009,8.49999986e-004
,,,-2.67500000e-009,7.99999982e-004
,,,-2.65000000e-009,7.65624980e-004
,,,-2.62500000e-009,7.45312478e-004
,,,-2.60000000e-009,7.39062478e-004
,,,-2.57500000e-009,7.43749978e-004
,,,-2.55000000e-009,7.56249979e-004
,,,-2.52500000e-009,7.73437480e-004
,,,-2.50000000e-009,7.89062481e-004
,,,-2.47500000e-009,7.99999982e-004
,,,-2.45000000e-009,8.07812483e-004
,,,-2.42500000e-009,8.09374983e-004
,,,-2.40000000e-009,8.06249983e-004
,,,-2.37500000e-009,7.99999982e-004
,,,-2.35000000e-009,7.95312482e-004
,,,-2.32500000e-009,7.92187482e-004
,,,-2.30000000e-009,7.93749982e-004
,,,-2.27500000e-009,7.99999982e-004
,,,-2.25000000e-009,8.12499983e-004
,,,-2.22500000e-009,8.28124984e-004
,,,-2.20000000e-009,8.45312485e-004
,,,-2.17500000e-009,8.57812486e-004
,,,-2.15000000e-009,8.62499987e-004
,,,-2.12500000e-009,8.56249986e-004
,,,-2.10000000e-009,8.35937485e-004
,,,-2.07500000e-009,7.99999982e-004
,,,-2.05000000e-009,7.49999979e-004
,,,-2.02500000e-009,6.87499974e-004
,,,-2.00000000e-009,6.20312469e-004
,,,-1.97500000e-009,5.53124965e-004
,,,-1.95000000e-009,4.92187460e-004
,,,-1.92500000e-009,4.42187457e-004
,,,-1.90000000e-009,4.10937455e-004
,,,-1.87500000e-009,3.99999954e-004
,,,-1.85000000e-009,4.18749955e-004
,,,-1.82500000e-009,4.57812458e-004
,,,-1.80000000e-009,5.10937462e-004
,,,-1.77500000e-009,5.74999966e-004
,,,-1.75000000e-009,6.42187471e-004
,,,-1.72500000e-009,7.04687475e-004
,,,-1.70000000e-009,7.59374979e-004
,,,-1.67500000e-009,7.99999982e-004
,,,-1.65000000e-009,8.24999984e-004
,,,-1.62500000e-009,8.32812484e-004
,,,-1.60000000e-009,8.29687484e-004
,,,-1.57500000e-009,8.17187483e-004
,,,-1.55000000e-009,8.04687482e-004
,,,-1.52500000e-009,7.95312482e-004
,,,-1.50000000e-009,7.92187482e-004
,,,-1.47500000e-009,7.99999982e-004
,,,-1.45000000e-009,8.10937483e-004
,,,-1.42500000e-009,8.26562484e-004
,,,-1.40000000e-009,8.45312485e-004
,,,-1.37500000e-009,8.60937486e-004
,,,-1.35000000e-009,8.68749987e-004
,,,-1.32500000e-009,8.62499987e-004
,,,-1.30000000e-009,8.40624985e-004
,,,-1.27500000e-009,7.99999982e-004
,,,-1.25000000e-009,7.31249977e-004
,,,-1.22500000e-009,6.46874971e-004
,,,-1.20000000e-009,5.59374965e-004
,,,-1.17500000e-009,4.78124959e-004
,,,-1.15000000e-009,4.12499955e-004
,,,-1.12500000e-009,3.73437452e-004
,,,-1.10000000e-009,3.67187451e-004
,,,-1.07500000e-009,3.99999954e-004
,,,-1.05000000e-009,4.53124958e-004
,,,-1.02500000e-009,5.34374963e-004
,,,-1.00000000e-009,6.39062471e-004
,,,-9.75000000e-010,7.60937479e-004
,,,-9.50000000e-010,8.89062488e-004
,,,-9.25000000e-010,1.01093750e-003
,,,-9.00000000e-010,1.11875000e-003
,,,-8.75000000e-010,1.20000001e-003
,,,-8.50000000e-010,1.20625001e-003
,,,-8.25000000e-010,1.17031251e-003
,,,-8.00000000e-010,1.09531250e-003
,,,-7.75000000e-010,9.85937495e-004
,,,-7.50000000e-010,8.53124986e-004
,,,-7.25000000e-010,7.06249975e-004
,,,-7.00000000e-010,5.53124965e-004
,,,-6.75000000e-010,3.99999954e-004
,,,-6.50000000e-010,2.09374940e-004
,,,-6.25000000e-010,2.18749270e-005
,,,-6.00000000e-010,-1.54687585e-004
,,,-5.75000000e-010,-3.17187597e-004
,,,-5.50000000e-010,-4.60937607e-004
,,,-5.25000000e-010,-5.89062616e-004
,,,-5.00000000e-010,-7.00000124e-004
,,,-4.75000000e-010,-8.00000131e-004
,,,-4.50000000e-010,-9.42187641e-004
,,,-4.25000000e-010,-1.08906265e-003
,,,-4.00000000e-010,-1.24062516e-003
,,,-3.75000000e-010,-1.39531267e-003
,,,-3.50000000e-010,-1.54843768e-003
,,,-3.25000000e-010,-1.70156269e-003
,,,-3.00000000e-010,-1.85000021e-003
,,,-2.75000000e-010,-2.00000022e-003
,,,-2.50000000e-010,-2.19843773e-003
,,,-2.25000000e-010,-2.41562525e-003
,,,-2.00000000e-010,-2.64687526e-003
,,,-1.75000000e-010,-2.89375028e-003
,,,-1.50000000e-010,-3.15468780e-003
,,,-1.25000000e-010,-3.42500032e-003
,,,-1.00000000e-010,-3.70781284e-003
,,,-7.50000000e-011,-4.00000036e-003
,,,-5.00000000e-011,-4.33750038e-003
,,,-2.50000000e-011,-4.69062541e-003
,,,0.00000000e+000,-5.05468793e-003
,,,2.50000000e-011,-5.42187546e-003
,,,5.00000000e-011,-5.78593798e-003
,,,7.50000000e-011,-6.13750051e-003
,,,1.00000000e-010,-6.47656303e-003
,,,1.25000000e-010,-6.80000056e-003
,,,1.50000000e-010,-7.11875058e-003
,,,1.75000000e-010,-7.44062560e-003
,,,2.00000000e-010,-7.76875062e-003
,,,2.25000000e-010,-8.10781315e-003
,,,2.50000000e-010,-8.45781317e-003
,,,2.75000000e-010,-8.82343820e-003
,,,3.00000000e-010,-9.20312573e-003
,,,3.25000000e-010,-9.60000075e-003
,,,3.50000000e-010,-9.99062578e-003
,,,3.75000000e-010,-1.04031258e-002
,,,4.00000000e-010,-1.08265633e-002
,,,4.25000000e-010,-1.12546884e-002
,,,4.50000000e-010,-1.16765634e-002
,,,4.75000000e-010,-1.20796884e-002
,,,5.00000000e-010,-1.24578135e-002
,,,5.25000000e-010,-1.28000010e-002
,,,5.50000000e-010,-1.30546885e-002
,,,5.75000000e-010,-1.32812510e-002
,,,6.00000000e-010,-1.34875010e-002
,,,6.25000000e-010,-1.36781260e-002
,,,6.50000000e-010,-1.38593761e-002
,,,6.75000000e-010,-1.40375011e-002
,,,7.00000000e-010,-1.42171886e-002
,,,7.25000000e-010,-1.44000011e-002
,,,7.50000000e-010,-1.45203136e-002
,,,7.75000000e-010,-1.46562511e-002
,,,8.00000000e-010,-1.48078136e-002
,,,8.25000000e-010,-1.49703136e-002
,,,8.50000000e-010,-1.51390636e-002
,,,8.75000000e-010,-1.53046887e-002
,,,9.00000000e-010,-1.54609387e-002
,,,9.25000000e-010,-1.56000012e-002
,,,9.50000000e-010,-1.56328137e-002
,,,9.75000000e-010,-1.56484387e-002
,,,1.00000000e-009,-1.56500012e-002
,,,1.02500000e-009,-1.56437512e-002
,,,1.05000000e-009,-1.56328137e-002
,,,1.07500000e-009,-1.56203137e-002
,,,1.10000000e-009,-1.56093762e-002
,,,1.12500000e-009,-1.56000012e-002
,,,1.15000000e-009,-1.55109387e-002
,,,1.17500000e-009,-1.54234387e-002
,,,1.20000000e-009,-1.53359387e-002
,,,1.22500000e-009,-1.52484387e-002
,,,1.25000000e-009,-1.51562511e-002
,,,1.27500000e-009,-1.50546886e-002
,,,1.30000000e-009,-1.49359386e-002
,,,1.32500000e-009,-1.48000011e-002
,,,1.35000000e-009,-1.45703136e-002
,,,1.37500000e-009,-1.43203136e-002
,,,1.40000000e-009,-1.40578136e-002
,,,1.42500000e-009,-1.37890636e-002
,,,1.45000000e-009,-1.35234385e-002
,,,1.47500000e-009,-1.32687510e-002
,,,1.50000000e-009,-1.30265635e-002
,,,1.52500000e-009,-1.28000010e-002
,,,1.55000000e-009,-1.25421885e-002
,,,1.57500000e-009,-1.22937509e-002
,,,1.60000000e-009,-1.20500009e-002
,,,1.62500000e-009,-1.18093759e-002
,,,1.65000000e-009,-1.15671884e-002
,,,1.67500000e-009,-1.13203134e-002
,,,1.70000000e-009,-1.10656259e-002
,,,1.72500000e-009,-1.08000008e-002
,,,1.75000000e-009,-1.04937508e-002
,,,1.77500000e-009,-1.01734383e-002
,,,1.80000000e-009,-9.84375077e-003
,,,1.82500000e-009,-9.51562575e-003
,,,1.85000000e-009,-9.19843823e-003
,,,1.87500000e-009,-8.90156320e-003
,,,1.90000000e-009,-8.63437569e-003
,,,1.92500000e-009,-8.40000067e-003
,,,1.95000000e-009,-8.18906315e-003
,,,1.97500000e-009,-7.99531314e-003
,,,2.00000000e-009,-7.81250063e-003
,,,2.02500000e-009,-7.62968811e-003
,,,2.05000000e-009,-7.44531310e-003
,,,2.07500000e-009,-7.24843809e-003
,,,2.10000000e-009,-7.03437557e-003
,,,2.12500000e-009,-6.80000056e-003
,,,2.15000000e-009,-6.54843804e-003
,,,2.17500000e-009,-6.26406302e-003
,,,2.20000000e-009,-5.95312550e-003
,,,2.22500000e-009,-5.62500047e-003
,,,2.25000000e-009,-5.29375045e-003
,,,2.27500000e-009,-4.97187543e-003
,,,2.30000000e-009,-4.67031291e-003
,,,2.32500000e-009,-4.40000039e-003
,,,2.35000000e-009,-4.18906287e-003
,,,2.37500000e-009,-4.00312536e-003
,,,2.40000000e-009,-3.84062535e-003
,,,2.42500000e-009,-3.69531284e-003
,,,2.45000000e-009,-3.56406283e-003
,,,2.47500000e-009,-3.44062532e-003
,,,2.50000000e-009,-3.32031281e-003
,,,2.52500000e-009,-3.20000030e-003
,,,2.55000000e-009,-3.09843779e-003
,,,2.57500000e-009,-2.97812529e-003
,,,2.60000000e-009,-2.83750028e-003
,,,2.62500000e-009,-2.67812526e-003
,,,2.65000000e-009,-2.50937525e-003
,,,2.67500000e-009,-2.33437524e-003
,,,2.70000000e-009,-2.16250023e-003
,,,2.72500000e-009,-2.00000022e-003
,,,2.75000000e-009,-1.87812521e-003
,,,2.77500000e-009,-1.76406270e-003
,,,2.80000000e-009,-1.65468769e-003
,,,2.82500000e-009,-1.55156268e-003
,,,2.85000000e-009,-1.45468768e-003
,,,2.87500000e-009,-1.36406267e-003
,,,2.90000000e-009,-1.27812516e-003
,,,2.92500000e-009,-1.20000016e-003
,,,2.95000000e-009,-1.15000016e-003
,,,2.97500000e-009,-1.09687515e-003
,,,3.00000000e-009,-1.04218765e-003
,,,3.02500000e-009,-9.84375144e-004
,,,3.05000000e-009,-9.28125140e-004
,,,3.07500000e-009,-8.76562637e-004
,,,3.10000000e-009,-8.32812633e-004
,,,3.12500000e-009,-8.00000131e-004
,,,3.15000000e-009,-7.95312631e-004
,,,3.17500000e-009,-7.95312631e-004
,,,3.20000000e-009,-7.95312631e-004
,,,3.22500000e-009,-7.96875131e-004
,,,3.25000000e-009,-7.96875131e-004
,,,3.27500000e-009,-7.98437631e-004
,,,3.30000000e-009,-7.98437631e-004
,,,3.32500000e-009,-8.00000131e-004
,,,3.35000000e-009,-8.09375132e-004
,,,3.37500000e-009,-8.14062632e-004
,,,3.40000000e-009,-8.14062632e-004
,,,3.42500000e-009,-8.10937632e-004
,,,3.45000000e-009,-8.06250132e-004
,,,3.47500000e-009,-8.01562631e-004
,,,3.50000000e-009,-7.98437631e-004
,,,3.52500000e-009,-8.00000131e-004
,,,3.55000000e-009,-8.07812632e-004
,,,3.57500000e-009,-8.17187632e-004
,,,3.60000000e-009,-8.23437633e-004
,,,3.62500000e-009,-8.28125133e-004
,,,3.65000000e-009,-8.28125133e-004
,,,3.67500000e-009,-8.25000133e-004
,,,3.70000000e-009,-8.15625132e-004
,,,3.72500000e-009,-8.00000131e-004
,,,3.75000000e-009,-7.75000129e-004
,,,3.77500000e-009,-7.40625127e-004
,,,3.80000000e-009,-6.98437624e-004
,,,3.82500000e-009,-6.46875120e-004
,,,3.85000000e-009,-5.89062616e-004
,,,3.87500000e-009,-5.28125112e-004
,,,3.90000000e-009,-4.64062607e-004
,,,3.92500000e-009,-4.00000103e-004
,,,3.95000000e-009,-3.35937598e-004
,,,3.97500000e-009,-2.73437594e-004
,,,4.00000000e-009,-2.14062590e-004
,,,4.02500000e-009,-1.59375086e-004
,,,4.05000000e-009,-1.10937582e-004
,,,4.07500000e-009,-6.71875793e-005
,,,4.10000000e-009,-2.96875766e-005
,,,4.12500000e-009,-7.45058060e-011
,,,4.15000000e-009,2.18749270e-005
,,,4.17500000e-009,3.74999281e-005
,,,4.20000000e-009,4.68749288e-005
,,,4.22500000e-009,4.84374289e-005
,,,4.25000000e-009,4.37499286e-005
,,,4.27500000e-009,3.43749279e-005
,,,4.30000000e-009,1.87499268e-005
,,,4.32500000e-009,-7.45058060e-011
,,,4.35000000e-009,-2.03125759e-005
,,,4.37500000e-009,-3.90625773e-005
,,,4.40000000e-009,-5.46875784e-005
,,,4.42500000e-009,-6.25000789e-005
,,,4.45000000e-009,-6.25000789e-005
,,,4.47500000e-009,-5.15625782e-005
,,,4.50000000e-009,-3.12500767e-005
,,,4.52500000e-009,-7.45058060e-011
,,,4.55000000e-009,4.06249284e-005
,,,4.57500000e-009,8.90624318e-005
,,,4.60000000e-009,1.43749936e-004
,,,4.62500000e-009,2.03124940e-004
,,,4.65000000e-009,2.60937444e-004
,,,4.67500000e-009,3.14062448e-004
,,,4.70000000e-009,3.62499951e-004
,,,4.72500000e-009,3.99999954e-004
,,,4.75000000e-009,4.24999956e-004
,,,4.77500000e-009,4.37499956e-004
,,,4.80000000e-009,4.43749957e-004
,,,4.82500000e-009,4.42187457e-004
,,,4.85000000e-009,4.34374956e-004
,,,4.87500000e-009,4.23437455e-004
,,,4.90000000e-009,4.12499955e-004
,,,4.92500000e-009,3.99999954e-004
,,,4.95000000e-009,3.89062453e-004
,,,4.97500000e-009,3.79687452e-004
,,,5.00000000e-009,3.76562452e-004
,,,5.02500000e-009,3.76562452e-004
,,,5.05000000e-009,3.81249952e-004
,,,5.07500000e-009,3.85937453e-004
,,,5.10000000e-009,3.93749953e-004
,,,5.12500000e-009,3.99999954e-004
,,,5.15000000e-009,4.01562454e-004
,,,5.17500000e-009,3.99999954e-004
,,,5.20000000e-009,3.98437454e-004
,,,5.22500000e-009,3.95312453e-004
,,,5.25000000e-009,3.93749953e-004
,,,5.27500000e-009,3.93749953e-004
,,,5.30000000e-009,3.96874954e-004
,,,5.32500000e-009,3.99999954e-004
,,,5.35000000e-009,4.04687454e-004
,,,5.37500000e-009,4.09374954e-004
,,,5.40000000e-009,4.14062455e-004
,,,5.42500000e-009,4.17187455e-004
,,,5.45000000e-009,4.18749955e-004
,,,5.47500000e-009,4.17187455e-004
,,,5.50000000e-009,4.10937455e-004
,,,5.52500000e-009,3.99999954e-004
,,,5.55000000e-009,3.85937453e-004
,,,5.57500000e-009,3.71874952e-004
,,,5.60000000e-009,3.59374951e-004
,,,5.62500000e-009,3.51562450e-004
,,,5.65000000e-009,3.49999950e-004
,,,5.67500000e-009,3.57812451e-004
,,,5.70000000e-009,3.74999952e-004
,,,5.72500000e-009,3.99999954e-004
,,,5.75000000e-009,4.31249956e-004
,,,5.77500000e-009,4.64062458e-004
,,,5.80000000e-009,4.92187460e-004
,,,5.82500000e-009,5.12499962e-004
,,,5.85000000e-009,5.15624962e-004
,,,5.87500000e-009,5.01562461e-004
,,,5.90000000e-009,4.62499958e-004
,,,5.92500000e-009,3.99999954e-004
,,,5.95000000e-009,3.15624948e-004
,,,5.97500000e-009,2.12499941e-004
,,,6.00000000e-009,9.68749324e-005
,,,6.02500000e-009,-2.34375762e-005
,,,6.05000000e-009,-1.40625084e-004
