RawData/DifferentLengths/R4/R4_2pt2D_5mV/wave004_Ch4.csv

"Record Length",1000,"Points",-7.72500000e-009,7.62499979e-004
"Sample Interval",2.50000000e-011,s,-7.70000000e-009,7.49999979e-004
"Trigger Point",309,"Samples",-7.67500000e-009,7.43749978e-004
"Trigger Time",1.05142529e-011,s,-7.65000000e-009,7.46874978e-004
"",,,-7.62500000e-009,7.56249979e-004
"Horizontal Offset",-7.72500000e-009,s,-7.60000000e-009,7.74999980e-004
,,,-7.57500000e-009,7.99999982e-004
,,,-7.55000000e-009,8.28124984e-004
,,,-7.52500000e-009,8.54687486e-004
,,,-7.50000000e-009,8.76562488e-004
,,,-7.47500000e-009,8.89062488e-004
,,,-7.45000000e-009,8.90624989e-004
,,,-7.42500000e-009,8.76562488e-004
,,,-7.40000000e-009,8.46874985e-004
,,,-7.37500000e-009,7.99999982e-004
,,,-7.35000000e-009,7.37499978e-004
,,,-7.32500000e-009,6.65624973e-004
,,,-7.30000000e-009,5.92187467e-004
,,,-7.27500000e-009,5.21874962e-004
,,,-7.25000000e-009,4.62499958e-004
,,,-7.22500000e-009,4.20312455e-004
,,,-7.20000000e-009,3.98437454e-004
,,,-7.17500000e-009,3.99999954e-004
,,,-7.15000000e-009,4.26562456e-004
,,,-7.12500000e-009,4.71874959e-004
,,,-7.10000000e-009,5.32812463e-004
,,,-7.07500000e-009,5.99999968e-004
,,,-7.05000000e-009,6.68749973e-004
,,,-7.02500000e-009,7.29687477e-004
,,,-7.00000000e-009,7.74999980e-004
,,,-6.97500000e-009,7.99999982e-004
,,,-6.95000000e-009,8.01562482e-004
,,,-6.92500000e-009,7.78124981e-004
,,,-6.90000000e-009,7.32812477e-004
,,,-6.87500000e-009,6.71874973e-004
,,,-6.85000000e-009,6.03124968e-004
,,,-6.82500000e-009,5.29687463e-004
,,,-6.80000000e-009,4.60937458e-004
,,,-6.77500000e-009,3.99999954e-004
,,,-6.75000000e-009,3.57812451e-004
,,,-6.72500000e-009,3.29687449e-004
,,,-6.70000000e-009,3.17187448e-004
,,,-6.67500000e-009,3.20312448e-004
,,,-6.65000000e-009,3.34374949e-004
,,,-6.62500000e-009,3.54687451e-004
,,,-6.60000000e-009,3.78124952e-004
,,,-6.57500000e-009,3.99999954e-004
,,,-6.55000000e-009,4.20312455e-004
,,,-6.52500000e-009,4.34374956e-004
,,,-6.50000000e-009,4.40624957e-004
,,,-6.47500000e-009,4.40624957e-004
,,,-6.45000000e-009,4.34374956e-004
,,,-6.42500000e-009,4.23437455e-004
,,,-6.40000000e-009,4.12499955e-004
,,,-6.37500000e-009,3.99999954e-004
,,,-6.35000000e-009,3.95312453e-004
,,,-6.32500000e-009,3.92187453e-004
,,,-6.30000000e-009,3.90624953e-004
,,,-6.27500000e-009,3.92187453e-004
,,,-6.25000000e-009,3.95312453e-004
,,,-6.22500000e-009,3.98437454e-004
,,,-6.20000000e-009,3.99999954e-004
,,,-6.17500000e-009,3.99999954e-004
,,,-6.15000000e-009,3.99999954e-004
,,,-6.12500000e-009,3.98437454e-004
,,,-6.10000000e-009,3.95312453e-004
,,,-6.07500000e-009,3.92187453e-004
,,,-6.05000000e-009,3.90624953e-004
,,,-6.02500000e-009,3.92187453e-004
,,,-6.00000000e-009,3.95312453e-004
,,,-5.97500000e-009,3.99999954e-004
,,,-5.95000000e-009,4.10937455e-004
,,,-5.92500000e-009,4.20312455e-004
,,,-5.90000000e-009,4.28124956e-004
,,,-5.87500000e-009,4.32812456e-004
,,,-5.85000000e-009,4.34374956e-004
,,,-5.82500000e-009,4.28124956e-004
,,,-5.80000000e-009,4.17187455e-004
,,,-5.77500000e-009,3.99999954e-004
,,,-5.75000000e-009,3.81249952e-004
,,,-5.72500000e-009,3.59374951e-004
,,,-5.70000000e-009,3.40624950e-004
,,,-5.67500000e-009,3.29687449e-004
,,,-5.65000000e-009,3.26562449e-004
,,,-5.62500000e-009,3.35937449e-004
,,,-5.60000000e-009,3.60937451e-004
,,,-5.57500000e-009,3.99999954e-004
,,,-5.55000000e-009,4.53124958e-004
,,,-5.52500000e-009,5.15624962e-004
,,,-5.50000000e-009,5.82812467e-004
,,,-5.47500000e-009,6.48437471e-004
,,,-5.45000000e-009,7.07812476e-004
,,,-5.42500000e-009,7.56249979e-004
,,,-5.40000000e-009,7.89062481e-004
,,,-5.37500000e-009,7.99999982e-004
,,,-5.35000000e-009,7.89062481e-004
,,,-5.32500000e-009,7.56249979e-004
,,,-5.30000000e-009,7.07812476e-004
,,,-5.27500000e-009,6.48437471e-004
,,,-5.25000000e-009,5.82812467e-004
,,,-5.22500000e-009,5.15624962e-004
,,,-5.20000000e-009,4.53124958e-004
,,,-5.17500000e-009,3.99999954e-004
,,,-5.15000000e-009,3.59374951e-004
,,,-5.12500000e-009,3.32812449e-004
,,,-5.10000000e-009,3.20312448e-004
,,,-5.07500000e-009,3.21874948e-004
,,,-5.05000000e-009,3.34374949e-004
,,,-5.02500000e-009,3.53124950e-004
,,,-5.00000000e-009,3.76562452e-004
,,,-4.97500000e-009,3.99999954e-004
,,,-4.95000000e-009,4.21874955e-004
,,,-4.92500000e-009,4.37499956e-004
,,,-4.90000000e-009,4.46874957e-004
,,,-4.87500000e-009,4.48437457e-004
,,,-4.85000000e-009,4.43749957e-004
,,,-4.82500000e-009,4.32812456e-004
,,,-4.80000000e-009,4.18749955e-004
,,,-4.77500000e-009,3.99999954e-004
,,,-4.75000000e-009,3.87499953e-004
,,,-4.72500000e-009,3.76562452e-004
,,,-4.70000000e-009,3.68749952e-004
,,,-4.67500000e-009,3.67187451e-004
,,,-4.65000000e-009,3.68749952e-004
,,,-4.62500000e-009,3.76562452e-004
,,,-4.60000000e-009,3.87499953e-004
,,,-4.57500000e-009,3.99999954e-004
,,,-4.55000000e-009,4.15624955e-004
,,,-4.52500000e-009,4.29687456e-004
,,,-4.50000000e-009,4.42187457e-004
,,,-4.47500000e-009,4.48437457e-004
,,,-4.45000000e-009,4.49999957e-004
,,,-4.42500000e-009,4.42187457e-004
,,,-4.40000000e-009,4.26562456e-004
,,,-4.37500000e-009,3.99999954e-004
,,,-4.35000000e-009,3.70312452e-004
,,,-4.32500000e-009,3.32812449e-004
,,,-4.30000000e-009,2.85937446e-004
,,,-4.27500000e-009,2.31249942e-004
,,,-4.25000000e-009,1.73437438e-004
,,,-4.22500000e-009,1.12499933e-004
,,,-4.20000000e-009,5.31249293e-005
,,,-4.17500000e-009,-7.45058060e-011
,,,-4.15000000e-009,-3.75000772e-005
,,,-4.12500000e-009,-5.93750787e-005
,,,-4.10000000e-009,-5.78125786e-005
,,,-4.07500000e-009,-2.81250765e-005
,,,-4.05000000e-009,3.28124278e-005
,,,-4.02500000e-009,1.26562434e-004
,,,-4.00000000e-009,2.49999943e-004
,,,-3.97500000e-009,3.99999954e-004
,,,-3.95000000e-009,5.68749966e-004
,,,-3.92500000e-009,7.40624978e-004
,,,-3.90000000e-009,9.06249990e-004
,,,-3.87500000e-009,1.04843750e-003
,,,-3.85000000e-009,1.15781251e-003
,,,-3.82500000e-009,1.22343751e-003
,,,-3.80000000e-009,1.23750001e-003
,,,-3.77500000e-009,1.20000001e-003
,,,-3.75000000e-009,1.11406250e-003
,,,-3.72500000e-009,9.90624996e-004
,,,-3.70000000e-009,8.48437486e-004
,,,-3.67500000e-009,7.01562475e-004
,,,-3.65000000e-009,5.68749966e-004
,,,-3.62500000e-009,4.67187459e-004
,,,-3.60000000e-009,4.07812454e-004
,,,-3.57500000e-009,3.99999954e-004
,,,-3.55000000e-009,4.46874957e-004
,,,-3.52500000e-009,5.37499964e-004
,,,-3.50000000e-009,6.64062472e-004
,,,-3.47500000e-009,8.09374983e-004
,,,-3.45000000e-009,9.53124993e-004
,,,-3.42500000e-009,1.07656250e-003
,,,-3.40000000e-009,1.16406251e-003
,,,-3.37500000e-009,1.20000001e-003
,,,-3.35000000e-009,1.17187501e-003
,,,-3.32500000e-009,1.08593750e-003
,,,-3.30000000e-009,9.48437493e-004
,,,-3.27500000e-009,7.71874980e-004
,,,-3.25000000e-009,5.71874966e-004
,,,-3.22500000e-009,3.64062451e-004
,,,-3.20000000e-009,1.68749937e-004
,,,-3.17500000e-009,-7.45058060e-011
,,,-3.15000000e-009,-1.21875083e-004
,,,-3.12500000e-009,-1.92187588e-004
,,,-3.10000000e-009,-2.06250089e-004
,,,-3.07500000e-009,-1.64062586e-004
,,,-3.05000000e-009,-7.34375797e-005
,,,-3.02500000e-009,5.78124296e-005
,,,-3.00000000e-009,2.20312441e-004
,,,-2.97500000e-009,3.99999954e-004
,,,-2.95000000e-009,5.87499967e-004
,,,-2.92500000e-009,7.65624980e-004
,,,-2.90000000e-009,9.23437491e-004
,,,-2.87500000e-009,1.05312500e-003
,,,-2.85000000e-009,1.14843751e-003
,,,-2.82500000e-009,1.20625001e-003
,,,-2.80000000e-009,1.22343751e-003
,,,-2.77500000e-009,1.20000001e-003
,,,-2.75000000e-009,1.13906251e-003
,,,-2.72500000e-009,1.05000000e-003
,,,-2.70000000e-009,9.39062492e-004
,,,-2.67500000e-009,8.17187483e-004
,,,-2.65000000e-009,6.95312475e-004
,,,-2.62500000e-009,5.79687467e-004
,,,-2.60000000e-009,4.79687459e-004
,,,-2.57500000e-009,3.99999954e-004
,,,-2.55000000e-009,3.48437450e-004
,,,-2.52500000e-009,3.20312448e-004
,,,-2.50000000e-009,3.14062448e-004
,,,-2.47500000e-009,3.24999948e-004
,,,-2.45000000e-009,3.45312450e-004
,,,-2.42500000e-009,3.68749952e-004
,,,-2.40000000e-009,3.89062453e-004
,,,-2.37500000e-009,3.99999954e-004
,,,-2.35000000e-009,4.07812454e-004
,,,-2.32500000e-009,4.04687454e-004
,,,-2.30000000e-009,3.93749953e-004
,,,-2.27500000e-009,3.78124952e-004
,,,-2.25000000e-009,3.67187451e-004
,,,-2.22500000e-009,3.64062451e-004
,,,-2.20000000e-009,3.73437452e-004
,,,-2.17500000e-009,3.99999954e-004
,,,-2.15000000e-009,4.40624957e-004
,,,-2.12500000e-009,4.95312461e-004
,,,-2.10000000e-009,5.59374965e-004
,,,-2.07500000e-009,6.28124970e-004
,,,-2.05000000e-009,6.93749975e-004
,,,-2.02500000e-009,7.48437478e-004
,,,-2.00000000e-009,7.84374981e-004
,,,-1.97500000e-009,7.99999982e-004
,,,-1.95000000e-009,7.87499981e-004
,,,-1.92500000e-009,7.51562479e-004
,,,-1.90000000e-009,6.96874975e-004
,,,-1.87500000e-009,6.31249970e-004
,,,-1.85000000e-009,5.60937465e-004
,,,-1.82500000e-009,4.93749960e-004
,,,-1.80000000e-009,4.39062457e-004
,,,-1.77500000e-009,3.99999954e-004
,,,-1.75000000e-009,3.82812453e-004
,,,-1.72500000e-009,3.87499953e-004
,,,-1.70000000e-009,4.17187455e-004
,,,-1.67500000e-009,4.67187459e-004
,,,-1.65000000e-009,5.35937463e-004
,,,-1.62500000e-009,6.18749969e-004
,,,-1.60000000e-009,7.09374976e-004
,,,-1.57500000e-009,7.99999982e-004
,,,-1.55000000e-009,8.71874987e-004
,,,-1.52500000e-009,9.28124991e-004
,,,-1.50000000e-009,9.65624994e-004
,,,-1.47500000e-009,9.79687495e-004
,,,-1.45000000e-009,9.70312494e-004
,,,-1.42500000e-009,9.35937492e-004
,,,-1.40000000e-009,8.79687488e-004
,,,-1.37500000e-009,7.99999982e-004
,,,-1.35000000e-009,6.89062474e-004
,,,-1.32500000e-009,5.65624966e-004
,,,-1.30000000e-009,4.39062457e-004
,,,-1.27500000e-009,3.17187448e-004
,,,-1.25000000e-009,2.06249940e-004
,,,-1.22500000e-009,1.14062434e-004
,,,-1.20000000e-009,4.53124287e-005
,,,-1.17500000e-009,-7.45058060e-011
,,,-1.15000000e-009,-3.59375770e-005
,,,-1.12500000e-009,-5.31250783e-005
,,,-1.10000000e-009,-5.31250783e-005
,,,-1.07500000e-009,-4.21875775e-005
,,,-1.05000000e-009,-2.50000763e-005
,,,-1.02500000e-009,-7.81257506e-006
,,,-1.00000000e-009,1.56242560e-006
,,,-9.75000000e-010,-7.45058060e-011
,,,-9.50000000e-010,-3.90625773e-005
,,,-9.25000000e-010,-1.04687582e-004
,,,-9.00000000e-010,-1.90625088e-004
,,,-8.75000000e-010,-2.96875096e-004
,,,-8.50000000e-010,-4.15625104e-004
,,,-8.25000000e-010,-5.43750113e-004
,,,-8.00000000e-010,-6.73437622e-004
,,,-7.75000000e-010,-8.00000131e-004
,,,-7.50000000e-010,-9.42187641e-004
,,,-7.25000000e-010,-1.07812515e-003
,,,-7.00000000e-010,-1.20312516e-003
,,,-6.75000000e-010,-1.31406267e-003
,,,-6.50000000e-010,-1.40937517e-003
,,,-6.25000000e-010,-1.48593768e-003
,,,-6.00000000e-010,-1.54843768e-003
,,,-5.75000000e-010,-1.60000019e-003
,,,-5.50000000e-010,-1.66406269e-003
,,,-5.25000000e-010,-1.73281270e-003
,,,-5.00000000e-010,-1.81093770e-003
,,,-4.75000000e-010,-1.90000021e-003
,,,-4.50000000e-010,-2.00312522e-003
,,,-4.25000000e-010,-2.12031272e-003
,,,-4.00000000e-010,-2.25156273e-003
,,,-3.75000000e-010,-2.40000024e-003
,,,-3.50000000e-010,-2.57343776e-003
,,,-3.25000000e-010,-2.76562527e-003
,,,-3.00000000e-010,-2.97031278e-003
,,,-2.75000000e-010,-3.18437530e-003
,,,-2.50000000e-010,-3.40000032e-003
,,,-2.25000000e-010,-3.61093783e-003
,,,-2.00000000e-010,-3.81093784e-003
,,,-1.75000000e-010,-4.00000036e-003
,,,-1.50000000e-010,-4.17656287e-003
,,,-1.25000000e-010,-4.34375038e-003
,,,-1.00000000e-010,-4.50000039e-003
,,,-7.50000000e-011,-4.64843790e-003
,,,-5.00000000e-011,-4.79062541e-003
,,,-2.50000000e-011,-4.92656292e-003
,,,0.00000000e+000,-5.06250043e-003
,,,2.50000000e-011,-5.20000044e-003
,,,5.00000000e-011,-5.33281295e-003
,,,7.50000000e-011,-5.48125046e-003
,,,1.00000000e-010,-5.65312547e-003
,,,1.25000000e-010,-5.84531299e-003
,,,1.50000000e-010,-6.05937550e-003
,,,1.75000000e-010,-6.29375052e-003
,,,2.00000000e-010,-6.54218804e-003
,,,2.25000000e-010,-6.80000056e-003
,,,2.50000000e-010,-7.02656307e-003
,,,2.75000000e-010,-7.24843809e-003
,,,3.00000000e-010,-7.45625060e-003
,,,3.25000000e-010,-7.63906312e-003
,,,3.50000000e-010,-7.79062563e-003
,,,3.75000000e-010,-7.90312563e-003
,,,4.00000000e-010,-7.97343814e-003
,,,4.25000000e-010,-8.00000064e-003
,,,4.50000000e-010,-7.94687564e-003
,,,4.75000000e-010,-7.86718813e-003
,,,5.00000000e-010,-7.77656312e-003
,,,5.25000000e-010,-7.68906312e-003
,,,5.50000000e-010,-7.61562561e-003
,,,5.75000000e-010,-7.57187561e-003
,,,6.00000000e-010,-7.56406311e-003
,,,6.25000000e-010,-7.60000061e-003
,,,6.50000000e-010,-7.63750062e-003
,,,6.75000000e-010,-7.71718812e-003
,,,7.00000000e-010,-7.82812563e-003
,,,7.25000000e-010,-7.96093814e-003
,,,7.50000000e-010,-8.09843815e-003
,,,7.75000000e-010,-8.22812566e-003
,,,8.00000000e-010,-8.33281316e-003
,,,8.25000000e-010,-8.40000067e-003
,,,8.50000000e-010,-8.37343817e-003
,,,8.75000000e-010,-8.29843816e-003
,,,9.00000000e-010,-8.17656315e-003
,,,9.25000000e-010,-8.01718814e-003
,,,9.50000000e-010,-7.82812563e-003
,,,9.75000000e-010,-7.62187561e-003
,,,1.00000000e-009,-7.40937560e-003
,,,1.02500000e-009,-7.20000058e-003
,,,1.05000000e-009,-6.97187557e-003
,,,1.07500000e-009,-6.76406305e-003
,,,1.10000000e-009,-6.57968804e-003
,,,1.12500000e-009,-6.42031303e-003
,,,1.15000000e-009,-6.28750052e-003
,,,1.17500000e-009,-6.17656301e-003
,,,1.20000000e-009,-6.08125050e-003
,,,1.22500000e-009,-6.00000050e-003
,,,1.25000000e-009,-5.90468799e-003
,,,1.27500000e-009,-5.80937549e-003
,,,1.30000000e-009,-5.71093798e-003
,,,1.32500000e-009,-5.61093797e-003
,,,1.35000000e-009,-5.50937546e-003
,,,1.37500000e-009,-5.40625046e-003
,,,1.40000000e-009,-5.30312545e-003
,,,1.42500000e-009,-5.20000044e-003
,,,1.45000000e-009,-5.08281293e-003
,,,1.47500000e-009,-4.95625043e-003
,,,1.50000000e-009,-4.82187542e-003
,,,1.52500000e-009,-4.67500041e-003
,,,1.55000000e-009,-4.51875039e-003
,,,1.57500000e-009,-4.35156288e-003
,,,1.60000000e-009,-4.17812537e-003
,,,1.62500000e-009,-4.00000036e-003
,,,1.65000000e-009,-3.81250034e-003
,,,1.67500000e-009,-3.62187533e-003
,,,1.70000000e-009,-3.43750032e-003
,,,1.72500000e-009,-3.26250031e-003
,,,1.75000000e-009,-3.10781279e-003
,,,1.77500000e-009,-2.97656279e-003
,,,1.80000000e-009,-2.87343778e-003
,,,1.82500000e-009,-2.80000027e-003
,,,1.85000000e-009,-2.76250027e-003
,,,1.87500000e-009,-2.73750027e-003
,,,1.90000000e-009,-2.71562527e-003
,,,1.92500000e-009,-2.68906276e-003
,,,1.95000000e-009,-2.65156276e-003
,,,1.97500000e-009,-2.59218776e-003
,,,2.00000000e-009,-2.50937525e-003
,,,2.02500000e-009,-2.40000024e-003
,,,2.05000000e-009,-2.27343774e-003
,,,2.07500000e-009,-2.12031272e-003
,,,2.10000000e-009,-1.95000021e-003
,,,2.12500000e-009,-1.77031270e-003
,,,2.15000000e-009,-1.59531269e-003
,,,2.17500000e-009,-1.43593768e-003
,,,2.20000000e-009,-1.30312517e-003
,,,2.22500000e-009,-1.20000016e-003
,,,2.25000000e-009,-1.14062516e-003
,,,2.27500000e-009,-1.10468765e-003
,,,2.30000000e-009,-1.08125015e-003
,,,2.32500000e-009,-1.05937515e-003
,,,2.35000000e-009,-1.02968765e-003
,,,2.37500000e-009,-9.81250144e-004
,,,2.40000000e-009,-9.06250139e-004
,,,2.42500000e-009,-8.00000131e-004
,,,2.45000000e-009,-6.71875122e-004
,,,2.47500000e-009,-5.12500111e-004
,,,2.50000000e-009,-3.31250098e-004
,,,2.52500000e-009,-1.42187585e-004
,,,2.55000000e-009,4.21874285e-005
,,,2.57500000e-009,2.01562440e-004
,,,2.60000000e-009,3.24999948e-004
,,,2.62500000e-009,3.99999954e-004
,,,2.65000000e-009,4.04687454e-004
,,,2.67500000e-009,3.59374951e-004
,,,2.70000000e-009,2.73437445e-004
,,,2.72500000e-009,1.54687436e-004
,,,2.75000000e-009,1.40624265e-005
,,,2.77500000e-009,-1.32812584e-004
,,,2.80000000e-009,-2.73437594e-004
,,,2.82500000e-009,-4.00000103e-004
,,,2.85000000e-009,-5.04687610e-004
,,,2.87500000e-009,-5.75000115e-004
,,,2.90000000e-009,-6.09375118e-004
,,,2.92500000e-009,-6.09375118e-004
,,,2.95000000e-009,-5.81250116e-004
,,,2.97500000e-009,-5.31250112e-004
,,,3.00000000e-009,-4.68750108e-004
,,,3.02500000e-009,-4.00000103e-004
,,,3.05000000e-009,-3.32812598e-004
,,,3.07500000e-009,-2.68750094e-004
,,,3.10000000e-009,-2.10937589e-004
,,,3.12500000e-009,-1.57812586e-004
,,,3.15000000e-009,-1.12500082e-004
,,,3.17500000e-009,-7.18750796e-005
,,,3.20000000e-009,-3.43750769e-005
,,,3.22500000e-009,-7.45058060e-011
,,,3.25000000e-009,3.90624283e-005
,,,3.27500000e-009,8.28124314e-005
,,,3.30000000e-009,1.31249935e-004
,,,3.32500000e-009,1.84374939e-004
,,,3.35000000e-009,2.39062442e-004
,,,3.37500000e-009,2.95312446e-004
,,,3.40000000e-009,3.49999950e-004
,,,3.42500000e-009,3.99999954e-004
,,,3.45000000e-009,4.40624957e-004
,,,3.47500000e-009,4.73437459e-004
,,,3.50000000e-009,4.93749960e-004
,,,3.52500000e-009,5.03124961e-004
,,,3.55000000e-009,4.98437461e-004
,,,3.57500000e-009,4.79687459e-004
,,,3.60000000e-009,4.46874957e-004
,,,3.62500000e-009,3.99999954e-004
,,,3.65000000e-009,3.46874950e-004
,,,3.67500000e-009,2.87499946e-004
,,,3.70000000e-009,2.24999941e-004
,,,3.72500000e-009,1.60937437e-004
,,,3.75000000e-009,1.03124933e-004
,,,3.77500000e-009,5.46874294e-005
,,,3.80000000e-009,1.87499268e-005
,,,3.82500000e-009,-7.45058060e-011
,,,3.85000000e-009,7.81242605e-006
,,,3.87500000e-009,4.21874285e-005
,,,3.90000000e-009,1.04687433e-004
,,,3.92500000e-009,1.95312439e-004
,,,3.95000000e-009,3.14062448e-004
,,,3.97500000e-009,4.57812458e-004
,,,4.00000000e-009,6.23437470e-004
,,,4.02500000e-009,7.99999982e-004
,,,4.05000000e-009,9.78124995e-004
,,,4.07500000e-009,1.15000001e-003
,,,4.10000000e-009,1.30781252e-003
,,,4.12500000e-009,1.44218753e-003
,,,4.15000000e-009,1.54218753e-003
,,,4.17500000e-009,1.60468754e-003
,,,4.20000000e-009,1.62500004e-003
,,,4.22500000e-009,1.60000004e-003
,,,4.25000000e-009,1.52500003e-003
,,,4.27500000e-009,1.41875003e-003
,,,4.30000000e-009,1.29375002e-003
,,,4.32500000e-009,1.16093751e-003
,,,4.35000000e-009,1.03437500e-003
,,,4.37500000e-009,9.26562491e-004
,,,4.40000000e-009,8.46874985e-004
,,,4.42500000e-009,7.99999982e-004
,,,4.45000000e-009,7.89062481e-004
,,,4.47500000e-009,8.12499983e-004
,,,4.50000000e-009,8.65624987e-004
,,,4.52500000e-009,9.37499992e-004
,,,4.55000000e-009,1.01718750e-003
,,,4.57500000e-009,1.09531250e-003
,,,4.60000000e-009,1.15937501e-003
,,,4.62500000e-009,1.20000001e-003
,,,4.65000000e-009,1.20781251e-003
,,,4.67500000e-009,1.18593751e-003
,,,4.70000000e-009,1.14062501e-003
,,,4.72500000e-009,1.07656250e-003
,,,4.75000000e-009,1.00156250e-003
,,,4.77500000e-009,9.24999991e-004
,,,4.80000000e-009,8.56249986e-004
,,,4.82500000e-009,7.99999982e-004
,,,4.85000000e-009,7.59374979e-004
,,,4.87500000e-009,7.37499978e-004
,,,4.90000000e-009,7.34374977e-004
,,,4.92500000e-009,7.46874978e-004
,,,4.95000000e-009,7.65624980e-004
,,,4.97500000e-009,7.85937481e-004
,,,5.00000000e-009,7.98437482e-004
,,,5.02500000e-009,7.99999982e-004
,,,5.05000000e-009,7.85937481e-004
,,,5.07500000e-009,7.53124979e-004
,,,5.10000000e-009,7.06249975e-004
,,,5.12500000e-009,6.46874971e-004
,,,5.15000000e-009,5.81249967e-004
,,,5.17500000e-009,5.15624962e-004
,,,5.20000000e-009,4.53124958e-004
,,,5.22500000e-009,3.99999954e-004
,,,5.25000000e-009,3.65624951e-004
,,,5.27500000e-009,3.43749950e-004
,,,5.30000000e-009,3.35937449e-004
,,,5.32500000e-009,3.37499949e-004
,,,5.35000000e-009,3.48437450e-004
,,,5.37500000e-009,3.64062451e-004
,,,5.40000000e-009,3.82812453e-004
,,,5.42500000e-009,3.99999954e-004
,,,5.45000000e-009,4.17187455e-004
,,,5.47500000e-009,4.28124956e-004
,,,5.50000000e-009,4.32812456e-004
,,,5.52500000e-009,4.31249956e-004
,,,5.55000000e-009,4.26562456e-004
,,,5.57500000e-009,4.18749955e-004
,,,5.60000000e-009,4.09374954e-004
,,,5.62500000e-009,3.99999954e-004
,,,5.65000000e-009,3.96874954e-004
,,,5.67500000e-009,3.93749953e-004
,,,5.70000000e-009,3.92187453e-004
,,,5.72500000e-009,3.92187453e-004
,,,5.75000000e-009,3.93749953e-004
,,,5.77500000e-009,3.95312453e-004
,,,5.80000000e-009,3.98437454e-004
,,,5.82500000e-009,3.99999954e-004
,,,5.85000000e-009,4.04687454e-004
,,,5.87500000e-009,4.06249954e-004
,,,5.90000000e-009,4.07812454e-004
,,,5.92500000e-009,4.07812454e-004
,,,5.95000000e-009,4.06249954e-004
,,,5.97500000e-009,4.04687454e-004
,,,6.00000000e-009,4.03124954e-004
,,,6.02500000e-009,3.99999954e-004
,,,6.05000000e-009,3.98437454e-004
,,,6.07500000e-009,3.96874954e-004
