RawData/DifferentLengths/R4/R4_2pt2D_5mV/wave012_Ch4.csv

"Record Length",1000,"Points",-7.72500000e-009,8.95312489e-004
"Sample Interval",2.50000000e-011,s,-7.70000000e-009,8.65624987e-004
"Trigger Point",309,"Samples",-7.67500000e-009,8.32812484e-004
"Trigger Time",2.02501587e-011,s,-7.65000000e-009,7.99999982e-004
"",,,-7.62500000e-009,7.73437480e-004
"Horizontal Offset",-7.72500000e-009,s,-7.60000000e-009,7.53124979e-004
,,,-7.57500000e-009,7.45312478e-004
,,,-7.55000000e-009,7.46874978e-004
,,,-7.52500000e-009,7.54687479e-004
,,,-7.50000000e-009,7.68749980e-004
,,,-7.47500000e-009,7.84374981e-004
,,,-7.45000000e-009,7.99999982e-004
,,,-7.42500000e-009,8.12499983e-004
,,,-7.40000000e-009,8.20312484e-004
,,,-7.37500000e-009,8.23437484e-004
,,,-7.35000000e-009,8.23437484e-004
,,,-7.32500000e-009,8.18749983e-004
,,,-7.30000000e-009,8.14062483e-004
,,,-7.27500000e-009,8.07812483e-004
,,,-7.25000000e-009,7.99999982e-004
,,,-7.22500000e-009,7.96874982e-004
,,,-7.20000000e-009,7.95312482e-004
,,,-7.17500000e-009,7.93749982e-004
,,,-7.15000000e-009,7.93749982e-004
,,,-7.12500000e-009,7.95312482e-004
,,,-7.10000000e-009,7.96874982e-004
,,,-7.07500000e-009,7.98437482e-004
,,,-7.05000000e-009,7.99999982e-004
,,,-7.02500000e-009,7.99999982e-004
,,,-7.00000000e-009,8.01562482e-004
,,,-6.97500000e-009,7.99999982e-004
,,,-6.95000000e-009,7.99999982e-004
,,,-6.92500000e-009,7.99999982e-004
,,,-6.90000000e-009,8.01562482e-004
,,,-6.87500000e-009,7.99999982e-004
,,,-6.85000000e-009,7.99999982e-004
,,,-6.82500000e-009,7.99999982e-004
,,,-6.80000000e-009,8.01562482e-004
,,,-6.77500000e-009,7.99999982e-004
,,,-6.75000000e-009,7.99999982e-004
,,,-6.72500000e-009,7.99999982e-004
,,,-6.70000000e-009,8.01562482e-004
,,,-6.67500000e-009,7.99999982e-004
,,,-6.65000000e-009,7.99999982e-004
,,,-6.62500000e-009,7.99999982e-004
,,,-6.60000000e-009,8.01562482e-004
,,,-6.57500000e-009,7.99999982e-004
,,,-6.55000000e-009,7.99999982e-004
,,,-6.52500000e-009,7.99999982e-004
,,,-6.50000000e-009,8.01562482e-004
,,,-6.47500000e-009,7.99999982e-004
,,,-6.45000000e-009,7.99999982e-004
,,,-6.42500000e-009,7.99999982e-004
,,,-6.40000000e-009,8.01562482e-004
,,,-6.37500000e-009,7.99999982e-004
,,,-6.35000000e-009,7.99999982e-004
,,,-6.32500000e-009,7.99999982e-004
,,,-6.30000000e-009,8.01562482e-004
,,,-6.27500000e-009,7.99999982e-004
,,,-6.25000000e-009,7.99999982e-004
,,,-6.22500000e-009,7.99999982e-004
,,,-6.20000000e-009,8.01562482e-004
,,,-6.17500000e-009,7.99999982e-004
,,,-6.15000000e-009,7.99999982e-004
,,,-6.12500000e-009,7.99999982e-004
,,,-6.10000000e-009,8.01562482e-004
,,,-6.07500000e-009,7.99999982e-004
,,,-6.05000000e-009,7.99999982e-004
,,,-6.02500000e-009,7.98437482e-004
,,,-6.00000000e-009,7.96874982e-004
,,,-5.97500000e-009,7.95312482e-004
,,,-5.95000000e-009,7.93749982e-004
,,,-5.92500000e-009,7.93749982e-004
,,,-5.90000000e-009,7.95312482e-004
,,,-5.87500000e-009,7.96874982e-004
,,,-5.85000000e-009,7.99999982e-004
,,,-5.82500000e-009,8.03124982e-004
,,,-5.80000000e-009,8.06249983e-004
,,,-5.77500000e-009,8.07812483e-004
,,,-5.75000000e-009,8.09374983e-004
,,,-5.72500000e-009,8.09374983e-004
,,,-5.70000000e-009,8.07812483e-004
,,,-5.67500000e-009,8.04687482e-004
,,,-5.65000000e-009,7.99999982e-004
,,,-5.62500000e-009,7.95312482e-004
,,,-5.60000000e-009,7.90624981e-004
,,,-5.57500000e-009,7.85937481e-004
,,,-5.55000000e-009,7.82812481e-004
,,,-5.52500000e-009,7.82812481e-004
,,,-5.50000000e-009,7.85937481e-004
,,,-5.47500000e-009,7.92187482e-004
,,,-5.45000000e-009,7.99999982e-004
,,,-5.42500000e-009,8.14062483e-004
,,,-5.40000000e-009,8.26562484e-004
,,,-5.37500000e-009,8.39062485e-004
,,,-5.35000000e-009,8.46874985e-004
,,,-5.32500000e-009,8.48437486e-004
,,,-5.30000000e-009,8.42187485e-004
,,,-5.27500000e-009,8.26562484e-004
,,,-5.25000000e-009,7.99999982e-004
,,,-5.22500000e-009,7.64062480e-004
,,,-5.20000000e-009,7.18749976e-004
,,,-5.17500000e-009,6.65624973e-004
,,,-5.15000000e-009,6.09374969e-004
,,,-5.12500000e-009,5.51562465e-004
,,,-5.10000000e-009,4.95312461e-004
,,,-5.07500000e-009,4.45312457e-004
,,,-5.05000000e-009,3.99999954e-004
,,,-5.02500000e-009,3.68749952e-004
,,,-5.00000000e-009,3.45312450e-004
,,,-4.97500000e-009,3.32812449e-004
,,,-4.95000000e-009,3.31249949e-004
,,,-4.92500000e-009,3.37499949e-004
,,,-4.90000000e-009,3.51562450e-004
,,,-4.87500000e-009,3.73437452e-004
,,,-4.85000000e-009,3.99999954e-004
,,,-4.82500000e-009,4.35937456e-004
,,,-4.80000000e-009,4.76562459e-004
,,,-4.77500000e-009,5.20312462e-004
,,,-4.75000000e-009,5.68749966e-004
,,,-4.72500000e-009,6.20312469e-004
,,,-4.70000000e-009,6.76562473e-004
,,,-4.67500000e-009,7.37499978e-004
,,,-4.65000000e-009,7.99999982e-004
,,,-4.62500000e-009,8.64062487e-004
,,,-4.60000000e-009,9.28124991e-004
,,,-4.57500000e-009,9.90624996e-004
,,,-4.55000000e-009,1.04843750e-003
,,,-4.52500000e-009,1.10000000e-003
,,,-4.50000000e-009,1.14531251e-003
,,,-4.47500000e-009,1.17968751e-003
,,,-4.45000000e-009,1.20000001e-003
,,,-4.42500000e-009,1.20468751e-003
,,,-4.40000000e-009,1.19218751e-003
,,,-4.37500000e-009,1.16406251e-003
,,,-4.35000000e-009,1.11875000e-003
,,,-4.32500000e-009,1.05781250e-003
,,,-4.30000000e-009,9.82812495e-004
,,,-4.27500000e-009,8.95312489e-004
,,,-4.25000000e-009,7.99999982e-004
,,,-4.22500000e-009,7.07812476e-004
,,,-4.20000000e-009,6.17187469e-004
,,,-4.17500000e-009,5.37499964e-004
,,,-4.15000000e-009,4.70312459e-004
,,,-4.12500000e-009,4.21874955e-004
,,,-4.10000000e-009,3.92187453e-004
,,,-4.07500000e-009,3.85937453e-004
,,,-4.05000000e-009,3.99999954e-004
,,,-4.02500000e-009,4.37499956e-004
,,,-4.00000000e-009,4.90624960e-004
,,,-3.97500000e-009,5.53124965e-004
,,,-3.95000000e-009,6.20312469e-004
,,,-3.92500000e-009,6.84374974e-004
,,,-3.90000000e-009,7.39062478e-004
,,,-3.87500000e-009,7.79687481e-004
,,,-3.85000000e-009,7.99999982e-004
,,,-3.82500000e-009,8.03124982e-004
,,,-3.80000000e-009,7.82812481e-004
,,,-3.77500000e-009,7.43749978e-004
,,,-3.75000000e-009,6.87499974e-004
,,,-3.72500000e-009,6.20312469e-004
,,,-3.70000000e-009,5.45312464e-004
,,,-3.67500000e-009,4.68749959e-004
,,,-3.65000000e-009,3.99999954e-004
,,,-3.62500000e-009,3.53124950e-004
,,,-3.60000000e-009,3.26562449e-004
,,,-3.57500000e-009,3.28124949e-004
,,,-3.55000000e-009,3.59374951e-004
,,,-3.52500000e-009,4.24999956e-004
,,,-3.50000000e-009,5.21874962e-004
,,,-3.47500000e-009,6.49999972e-004
,,,-3.45000000e-009,7.99999982e-004
,,,-3.42500000e-009,9.71874994e-004
,,,-3.40000000e-009,1.14375001e-003
,,,-3.37500000e-009,1.30625002e-003
,,,-3.35000000e-009,1.44687503e-003
,,,-3.32500000e-009,1.55312504e-003
,,,-3.30000000e-009,1.61718754e-003
,,,-3.27500000e-009,1.63281254e-003
,,,-3.25000000e-009,1.60000004e-003
,,,-3.22500000e-009,1.52031253e-003
,,,-3.20000000e-009,1.40625003e-003
,,,-3.17500000e-009,1.27031252e-003
,,,-3.15000000e-009,1.12812501e-003
,,,-3.12500000e-009,9.98437496e-004
,,,-3.10000000e-009,8.92187489e-004
,,,-3.07500000e-009,8.23437484e-004
,,,-3.05000000e-009,7.99999982e-004
,,,-3.02500000e-009,8.24999984e-004
,,,-3.00000000e-009,8.93749989e-004
,,,-2.97500000e-009,9.99999996e-004
,,,-2.95000000e-009,1.13125001e-003
,,,-2.92500000e-009,1.27031252e-003
,,,-2.90000000e-009,1.40468752e-003
,,,-2.87500000e-009,1.51875003e-003
,,,-2.85000000e-009,1.60000004e-003
,,,-2.82500000e-009,1.63750004e-003
,,,-2.80000000e-009,1.63281254e-003
,,,-2.77500000e-009,1.59218754e-003
,,,-2.75000000e-009,1.52343753e-003
,,,-2.72500000e-009,1.43750003e-003
,,,-2.70000000e-009,1.34843752e-003
,,,-2.67500000e-009,1.26562502e-003
,,,-2.65000000e-009,1.20000001e-003
,,,-2.62500000e-009,1.15937501e-003
,,,-2.60000000e-009,1.14843751e-003
,,,-2.57500000e-009,1.17187501e-003
,,,-2.55000000e-009,1.22656251e-003
,,,-2.52500000e-009,1.30468752e-003
,,,-2.50000000e-009,1.39843752e-003
,,,-2.47500000e-009,1.50000003e-003
,,,-2.45000000e-009,1.60000004e-003
,,,-2.42500000e-009,1.68125004e-003
,,,-2.40000000e-009,1.74218755e-003
,,,-2.37500000e-009,1.77968755e-003
,,,-2.35000000e-009,1.79218755e-003
,,,-2.32500000e-009,1.77812505e-003
,,,-2.30000000e-009,1.74062505e-003
,,,-2.27500000e-009,1.67968754e-003
,,,-2.25000000e-009,1.60000004e-003
,,,-2.22500000e-009,1.50156253e-003
,,,-2.20000000e-009,1.39062502e-003
,,,-2.17500000e-009,1.27656252e-003
,,,-2.15000000e-009,1.16250001e-003
,,,-2.12500000e-009,1.05468750e-003
,,,-2.10000000e-009,9.56249993e-004
,,,-2.07500000e-009,8.70312487e-004
,,,-2.05000000e-009,7.99999982e-004
,,,-2.02500000e-009,7.45312478e-004
,,,-2.00000000e-009,7.09374976e-004
,,,-1.97500000e-009,6.90624974e-004
,,,-1.95000000e-009,6.89062474e-004
,,,-1.92500000e-009,7.03124975e-004
,,,-1.90000000e-009,7.28124977e-004
,,,-1.87500000e-009,7.62499979e-004
,,,-1.85000000e-009,7.99999982e-004
,,,-1.82500000e-009,8.35937485e-004
,,,-1.80000000e-009,8.64062487e-004
,,,-1.77500000e-009,8.84374988e-004
,,,-1.75000000e-009,8.92187489e-004
,,,-1.72500000e-009,8.87499988e-004
,,,-1.70000000e-009,8.70312487e-004
,,,-1.67500000e-009,8.40624985e-004
,,,-1.65000000e-009,7.99999982e-004
,,,-1.62500000e-009,7.40624978e-004
,,,-1.60000000e-009,6.74999973e-004
,,,-1.57500000e-009,6.06249968e-004
,,,-1.55000000e-009,5.40624964e-004
,,,-1.52500000e-009,4.84374960e-004
,,,-1.50000000e-009,4.40624957e-004
,,,-1.47500000e-009,4.12499955e-004
,,,-1.45000000e-009,3.99999954e-004
,,,-1.42500000e-009,3.93749953e-004
,,,-1.40000000e-009,3.95312453e-004
,,,-1.37500000e-009,4.01562454e-004
,,,-1.35000000e-009,4.10937455e-004
,,,-1.32500000e-009,4.18749955e-004
,,,-1.30000000e-009,4.20312455e-004
,,,-1.27500000e-009,4.15624955e-004
,,,-1.25000000e-009,3.99999954e-004
,,,-1.22500000e-009,3.57812451e-004
,,,-1.20000000e-009,3.03124947e-004
,,,-1.17500000e-009,2.39062442e-004
,,,-1.15000000e-009,1.73437438e-004
,,,-1.12500000e-009,1.10937433e-004
,,,-1.10000000e-009,5.93749297e-005
,,,-1.07500000e-009,2.18749270e-005
,,,-1.05000000e-009,-7.45058060e-011
,,,-1.02500000e-009,-2.65625764e-005
,,,-1.00000000e-009,-5.00000780e-005
,,,-9.75000000e-010,-7.18750796e-005
,,,-9.50000000e-010,-1.00000082e-004
,,,-9.25000000e-010,-1.42187585e-004
,,,-9.00000000e-010,-2.01562589e-004
,,,-8.75000000e-010,-2.85937595e-004
,,,-8.50000000e-010,-4.00000103e-004
,,,-8.25000000e-010,-5.64062614e-004
,,,-8.00000000e-010,-7.59375128e-004
,,,-7.75000000e-010,-9.76562644e-004
,,,-7.50000000e-010,-1.20312516e-003
,,,-7.25000000e-010,-1.42968768e-003
,,,-7.00000000e-010,-1.64375019e-003
,,,-6.75000000e-010,-1.83437520e-003
,,,-6.50000000e-010,-2.00000022e-003
,,,-6.25000000e-010,-2.14375023e-003
,,,-6.00000000e-010,-2.26562523e-003
,,,-5.75000000e-010,-2.36562524e-003
,,,-5.50000000e-010,-2.45156275e-003
,,,-5.25000000e-010,-2.53125025e-003
,,,-5.00000000e-010,-2.61250026e-003
,,,-4.75000000e-010,-2.69843777e-003
,,,-4.50000000e-010,-2.80000027e-003
,,,-4.25000000e-010,-2.92500028e-003
,,,-4.00000000e-010,-3.07187529e-003
,,,-3.75000000e-010,-3.23437530e-003
,,,-3.50000000e-010,-3.40625032e-003
,,,-3.25000000e-010,-3.57656283e-003
,,,-3.00000000e-010,-3.73593784e-003
,,,-2.75000000e-010,-3.87812535e-003
,,,-2.50000000e-010,-4.00000036e-003
,,,-2.25000000e-010,-4.09375036e-003
,,,-2.00000000e-010,-4.17343787e-003
,,,-1.75000000e-010,-4.24843788e-003
,,,-1.50000000e-010,-4.32343788e-003
,,,-1.25000000e-010,-4.41093789e-003
,,,-1.00000000e-010,-4.51406289e-003
,,,-7.50000000e-011,-4.64218790e-003
,,,-5.00000000e-011,-4.80000041e-003
,,,-2.50000000e-011,-4.97031293e-003
,,,0.00000000e+000,-5.16718794e-003
,,,2.50000000e-011,-5.38750046e-003
,,,5.00000000e-011,-5.61562547e-003
,,,7.50000000e-011,-5.84375049e-003
,,,1.00000000e-010,-6.05625050e-003
,,,1.25000000e-010,-6.24375052e-003
,,,1.50000000e-010,-6.40000053e-003
,,,1.75000000e-010,-6.48593803e-003
,,,2.00000000e-010,-6.54531304e-003
,,,2.25000000e-010,-6.58125054e-003
,,,2.50000000e-010,-6.60625054e-003
,,,2.75000000e-010,-6.63281304e-003
,,,3.00000000e-010,-6.66718805e-003
,,,3.25000000e-010,-6.72187555e-003
,,,3.50000000e-010,-6.80000056e-003
,,,3.75000000e-010,-6.86875056e-003
,,,4.00000000e-010,-6.96406307e-003
,,,4.25000000e-010,-7.07968808e-003
,,,4.50000000e-010,-7.20625058e-003
,,,4.75000000e-010,-7.33281309e-003
,,,5.00000000e-010,-7.44843810e-003
,,,5.25000000e-010,-7.54062561e-003
,,,5.50000000e-010,-7.60000061e-003
,,,5.75000000e-010,-7.57656311e-003
,,,6.00000000e-010,-7.51718811e-003
,,,6.25000000e-010,-7.42656310e-003
,,,6.50000000e-010,-7.31093809e-003
,,,6.75000000e-010,-7.18125058e-003
,,,7.00000000e-010,-7.04843807e-003
,,,7.25000000e-010,-6.91875056e-003
,,,7.50000000e-010,-6.80000056e-003
,,,7.75000000e-010,-6.66250055e-003
,,,8.00000000e-010,-6.54375054e-003
,,,8.25000000e-010,-6.44062553e-003
,,,8.50000000e-010,-6.35000052e-003
,,,8.75000000e-010,-6.26718802e-003
,,,9.00000000e-010,-6.18593801e-003
,,,9.25000000e-010,-6.09843801e-003
,,,9.50000000e-010,-6.00000050e-003
,,,9.75000000e-010,-5.85937549e-003
,,,1.00000000e-009,-5.70468798e-003
,,,1.02500000e-009,-5.54062547e-003
,,,1.05000000e-009,-5.37343795e-003
,,,1.07500000e-009,-5.20937544e-003
,,,1.10000000e-009,-5.05625043e-003
,,,1.12500000e-009,-4.91875042e-003
,,,1.15000000e-009,-4.80000041e-003
,,,1.17500000e-009,-4.68906291e-003
,,,1.20000000e-009,-4.59218790e-003
,,,1.22500000e-009,-4.50312539e-003
,,,1.25000000e-009,-4.41875039e-003
,,,1.27500000e-009,-4.33125038e-003
,,,1.30000000e-009,-4.23437537e-003
,,,1.32500000e-009,-4.12500037e-003
,,,1.35000000e-009,-4.00000036e-003
,,,1.37500000e-009,-3.85156285e-003
,,,1.40000000e-009,-3.68593784e-003
,,,1.42500000e-009,-3.51093782e-003
,,,1.45000000e-009,-3.33437531e-003
,,,1.47500000e-009,-3.16718780e-003
,,,1.50000000e-009,-3.01718779e-003
,,,1.52500000e-009,-2.89375028e-003
,,,1.55000000e-009,-2.80000027e-003
,,,1.57500000e-009,-2.74375027e-003
,,,1.60000000e-009,-2.70781277e-003
,,,1.62500000e-009,-2.68281276e-003
,,,1.65000000e-009,-2.65937526e-003
,,,1.67500000e-009,-2.62656276e-003
,,,1.70000000e-009,-2.57656276e-003
,,,1.72500000e-009,-2.50312525e-003
,,,1.75000000e-009,-2.40000024e-003
,,,1.77500000e-009,-2.27187524e-003
,,,1.80000000e-009,-2.11406272e-003
,,,1.82500000e-009,-1.93593771e-003
,,,1.85000000e-009,-1.75000020e-003
,,,1.87500000e-009,-1.57031269e-003
,,,1.90000000e-009,-1.41250017e-003
,,,1.92500000e-009,-1.28593767e-003
,,,1.95000000e-009,-1.20000016e-003
,,,1.97500000e-009,-1.16718766e-003
,,,2.00000000e-009,-1.16718766e-003
,,,2.02500000e-009,-1.18906266e-003
,,,2.05000000e-009,-1.22031266e-003
,,,2.07500000e-009,-1.24843766e-003
,,,2.10000000e-009,-1.25937516e-003
,,,2.12500000e-009,-1.24531266e-003
,,,2.15000000e-009,-1.20000016e-003
,,,2.17500000e-009,-1.12500015e-003
,,,2.20000000e-009,-1.01875015e-003
,,,2.22500000e-009,-8.87500137e-004
,,,2.25000000e-009,-7.48437627e-004
,,,2.27500000e-009,-6.15625118e-004
,,,2.30000000e-009,-5.04687610e-004
,,,2.32500000e-009,-4.29687605e-004
,,,2.35000000e-009,-4.00000103e-004
,,,2.37500000e-009,-4.25000105e-004
,,,2.40000000e-009,-4.84375109e-004
,,,2.42500000e-009,-5.68750115e-004
,,,2.45000000e-009,-6.60937621e-004
,,,2.47500000e-009,-7.45312627e-004
,,,2.50000000e-009,-8.04687631e-004
,,,2.52500000e-009,-8.25000133e-004
,,,2.55000000e-009,-8.00000131e-004
,,,2.57500000e-009,-7.21875126e-004
,,,2.60000000e-009,-5.93750117e-004
,,,2.62500000e-009,-4.28125105e-004
,,,2.65000000e-009,-2.37500091e-004
,,,2.67500000e-009,-4.06250774e-005
,,,2.70000000e-009,1.42187436e-004
,,,2.72500000e-009,2.93749946e-004
,,,2.75000000e-009,3.99999954e-004
,,,2.77500000e-009,4.45312457e-004
,,,2.80000000e-009,4.42187457e-004
,,,2.82500000e-009,3.96874954e-004
,,,2.85000000e-009,3.21874948e-004
,,,2.87500000e-009,2.29687442e-004
,,,2.90000000e-009,1.37499935e-004
,,,2.92500000e-009,5.62499295e-005
,,,2.95000000e-009,-7.45058060e-011
,,,2.97500000e-009,-2.65625764e-005
,,,3.00000000e-009,-1.71875757e-005
,,,3.02500000e-009,2.49999273e-005
,,,3.05000000e-009,9.06249319e-005
,,,3.07500000e-009,1.73437438e-004
,,,3.10000000e-009,2.59374944e-004
,,,3.12500000e-009,3.37499949e-004
,,,3.15000000e-009,3.99999954e-004
,,,3.17500000e-009,4.37499956e-004
,,,3.20000000e-009,4.54687458e-004
,,,3.22500000e-009,4.53124958e-004
,,,3.25000000e-009,4.39062457e-004
,,,3.27500000e-009,4.20312455e-004
,,,3.30000000e-009,4.03124954e-004
,,,3.32500000e-009,3.93749953e-004
,,,3.35000000e-009,3.99999954e-004
,,,3.37500000e-009,4.23437455e-004
,,,3.40000000e-009,4.64062458e-004
,,,3.42500000e-009,5.20312462e-004
,,,3.45000000e-009,5.87499967e-004
,,,3.47500000e-009,6.56249972e-004
,,,3.50000000e-009,7.18749976e-004
,,,3.52500000e-009,7.68749980e-004
,,,3.55000000e-009,7.99999982e-004
,,,3.57500000e-009,8.03124982e-004
,,,3.60000000e-009,7.84374981e-004
,,,3.62500000e-009,7.43749978e-004
,,,3.65000000e-009,6.87499974e-004
,,,3.67500000e-009,6.18749969e-004
,,,3.70000000e-009,5.45312464e-004
,,,3.72500000e-009,4.70312459e-004
,,,3.75000000e-009,3.99999954e-004
,,,3.77500000e-009,3.46874950e-004
,,,3.80000000e-009,3.07812447e-004
,,,3.82500000e-009,2.85937446e-004
,,,3.85000000e-009,2.81249945e-004
,,,3.87500000e-009,2.92187446e-004
,,,3.90000000e-009,3.18749948e-004
,,,3.92500000e-009,3.54687451e-004
,,,3.95000000e-009,3.99999954e-004
,,,3.97500000e-009,4.53124958e-004
,,,4.00000000e-009,5.07812461e-004
,,,4.02500000e-009,5.62499965e-004
,,,4.05000000e-009,6.18749969e-004
,,,4.07500000e-009,6.70312473e-004
,,,4.10000000e-009,7.18749976e-004
,,,4.12500000e-009,7.62499979e-004
,,,4.15000000e-009,7.99999982e-004
,,,4.17500000e-009,8.29687484e-004
,,,4.20000000e-009,8.49999986e-004
,,,4.22500000e-009,8.62499987e-004
,,,4.25000000e-009,8.65624987e-004
,,,4.27500000e-009,8.60937486e-004
,,,4.30000000e-009,8.46874985e-004
,,,4.32500000e-009,8.26562484e-004
,,,4.35000000e-009,7.99999982e-004
,,,4.37500000e-009,7.71874980e-004
,,,4.40000000e-009,7.45312478e-004
,,,4.42500000e-009,7.23437477e-004
,,,4.45000000e-009,7.12499976e-004
,,,4.47500000e-009,7.12499976e-004
,,,4.50000000e-009,7.26562477e-004
,,,4.52500000e-009,7.56249979e-004
,,,4.55000000e-009,7.99999982e-004
,,,4.57500000e-009,8.57812486e-004
,,,4.60000000e-009,9.21874991e-004
,,,4.62500000e-009,9.90624996e-004
,,,4.65000000e-009,1.05625000e-003
,,,4.67500000e-009,1.11562500e-003
,,,4.70000000e-009,1.16250001e-003
,,,4.72500000e-009,1.19062501e-003
,,,4.75000000e-009,1.20000001e-003
,,,4.77500000e-009,1.18437501e-003
,,,4.80000000e-009,1.15156251e-003
,,,4.82500000e-009,1.10156250e-003
,,,4.85000000e-009,1.04218750e-003
,,,4.87500000e-009,9.76562495e-004
,,,4.90000000e-009,9.10937490e-004
,,,4.92500000e-009,8.51562486e-004
,,,4.95000000e-009,7.99999982e-004
,,,4.97500000e-009,7.59374979e-004
,,,5.00000000e-009,7.32812477e-004
,,,5.02500000e-009,7.20312476e-004
,,,5.05000000e-009,7.21874977e-004
,,,5.07500000e-009,7.34374977e-004
,,,5.10000000e-009,7.53124979e-004
,,,5.12500000e-009,7.76562480e-004
,,,5.15000000e-009,7.99999982e-004
,,,5.17500000e-009,8.20312484e-004
,,,5.20000000e-009,8.34374985e-004
,,,5.22500000e-009,8.40624985e-004
,,,5.25000000e-009,8.42187485e-004
,,,5.27500000e-009,8.37499985e-004
,,,5.30000000e-009,8.26562484e-004
,,,5.32500000e-009,8.14062483e-004
,,,5.35000000e-009,7.99999982e-004
,,,5.37500000e-009,7.85937481e-004
,,,5.40000000e-009,7.73437480e-004
,,,5.42500000e-009,7.65624980e-004
,,,5.45000000e-009,7.60937479e-004
,,,5.47500000e-009,7.64062480e-004
,,,5.50000000e-009,7.71874980e-004
,,,5.52500000e-009,7.84374981e-004
,,,5.55000000e-009,7.99999982e-004
,,,5.57500000e-009,8.17187483e-004
,,,5.60000000e-009,8.34374985e-004
,,,5.62500000e-009,8.46874985e-004
,,,5.65000000e-009,8.54687486e-004
,,,5.67500000e-009,8.56249986e-004
,,,5.70000000e-009,8.48437486e-004
,,,5.72500000e-009,8.29687484e-004
,,,5.75000000e-009,7.99999982e-004
,,,5.77500000e-009,7.64062480e-004
,,,5.80000000e-009,7.17187476e-004
,,,5.82500000e-009,6.64062472e-004
,,,5.85000000e-009,6.07812469e-004
,,,5.87500000e-009,5.49999964e-004
,,,5.90000000e-009,4.93749960e-004
,,,5.92500000e-009,4.43749957e-004
,,,5.95000000e-009,3.99999954e-004
,,,5.97500000e-009,3.68749952e-004
,,,6.00000000e-009,3.48437450e-004
,,,6.02500000e-009,3.37499949e-004
,,,6.05000000e-009,3.37499949e-004
,,,6.07500000e-009,3.45312450e-004
