RawData/DifferentLengths/R4/R4_2pt2D_5mV/wave011_Ch4.csv

"Record Length",1000,"Points",-7.72500000e-009,1.14218751e-003
"Sample Interval",2.50000000e-011,s,-7.70000000e-009,1.20000001e-003
"Trigger Point",309,"Samples",-7.67500000e-009,1.27656252e-003
"Trigger Time",1.78796491e-011,s,-7.65000000e-009,1.36562502e-003
"",,,-7.62500000e-009,1.45937503e-003
"Horizontal Offset",-7.72500000e-009,s,-7.60000000e-009,1.54375003e-003
,,,-7.57500000e-009,1.60937504e-003
,,,-7.55000000e-009,1.64531254e-003
,,,-7.52500000e-009,1.64375004e-003
,,,-7.50000000e-009,1.60000004e-003
,,,-7.47500000e-009,1.51250003e-003
,,,-7.45000000e-009,1.39375002e-003
,,,-7.42500000e-009,1.25625001e-003
,,,-7.40000000e-009,1.11406250e-003
,,,-7.37500000e-009,9.82812495e-004
,,,-7.35000000e-009,8.79687488e-004
,,,-7.32500000e-009,8.15624983e-004
,,,-7.30000000e-009,7.99999982e-004
,,,-7.27500000e-009,8.35937485e-004
,,,-7.25000000e-009,9.17187490e-004
,,,-7.22500000e-009,1.03281250e-003
,,,-7.20000000e-009,1.17031251e-003
,,,-7.17500000e-009,1.31093752e-003
,,,-7.15000000e-009,1.44062503e-003
,,,-7.12500000e-009,1.54062503e-003
,,,-7.10000000e-009,1.60000004e-003
,,,-7.07500000e-009,1.60312504e-003
,,,-7.05000000e-009,1.55781254e-003
,,,-7.02500000e-009,1.46875003e-003
,,,-7.00000000e-009,1.34531252e-003
,,,-6.97500000e-009,1.20468751e-003
,,,-6.95000000e-009,1.05781250e-003
,,,-6.92500000e-009,9.18749991e-004
,,,-6.90000000e-009,7.99999982e-004
,,,-6.87500000e-009,7.14062476e-004
,,,-6.85000000e-009,6.60937472e-004
,,,-6.82500000e-009,6.40624971e-004
,,,-6.80000000e-009,6.48437471e-004
,,,-6.77500000e-009,6.76562473e-004
,,,-6.75000000e-009,7.17187476e-004
,,,-6.72500000e-009,7.60937479e-004
,,,-6.70000000e-009,7.99999982e-004
,,,-6.67500000e-009,8.29687484e-004
,,,-6.65000000e-009,8.45312485e-004
,,,-6.62500000e-009,8.48437486e-004
,,,-6.60000000e-009,8.40624985e-004
,,,-6.57500000e-009,8.26562484e-004
,,,-6.55000000e-009,8.12499983e-004
,,,-6.52500000e-009,8.03124982e-004
,,,-6.50000000e-009,7.99999982e-004
,,,-6.47500000e-009,8.07812483e-004
,,,-6.45000000e-009,8.20312484e-004
,,,-6.42500000e-009,8.35937485e-004
,,,-6.40000000e-009,8.49999986e-004
,,,-6.37500000e-009,8.57812486e-004
,,,-6.35000000e-009,8.54687486e-004
,,,-6.32500000e-009,8.35937485e-004
,,,-6.30000000e-009,7.99999982e-004
,,,-6.27500000e-009,7.49999979e-004
,,,-6.25000000e-009,6.87499974e-004
,,,-6.22500000e-009,6.18749969e-004
,,,-6.20000000e-009,5.49999964e-004
,,,-6.17500000e-009,4.87499960e-004
,,,-6.15000000e-009,4.37499956e-004
,,,-6.12500000e-009,4.07812454e-004
,,,-6.10000000e-009,3.99999954e-004
,,,-6.07500000e-009,4.21874955e-004
,,,-6.05000000e-009,4.62499958e-004
,,,-6.02500000e-009,5.20312462e-004
,,,-6.00000000e-009,5.85937467e-004
,,,-5.97500000e-009,6.53124972e-004
,,,-5.95000000e-009,7.17187476e-004
,,,-5.92500000e-009,7.67187480e-004
,,,-5.90000000e-009,7.99999982e-004
,,,-5.87500000e-009,8.12499983e-004
,,,-5.85000000e-009,7.99999982e-004
,,,-5.82500000e-009,7.65624980e-004
,,,-5.80000000e-009,7.12499976e-004
,,,-5.77500000e-009,6.42187471e-004
,,,-5.75000000e-009,5.62499965e-004
,,,-5.72500000e-009,4.81249960e-004
,,,-5.70000000e-009,3.99999954e-004
,,,-5.67500000e-009,3.34374949e-004
,,,-5.65000000e-009,2.82812446e-004
,,,-5.62500000e-009,2.51562443e-004
,,,-5.60000000e-009,2.40624943e-004
,,,-5.57500000e-009,2.51562443e-004
,,,-5.55000000e-009,2.82812446e-004
,,,-5.52500000e-009,3.34374949e-004
,,,-5.50000000e-009,3.99999954e-004
,,,-5.47500000e-009,4.82812460e-004
,,,-5.45000000e-009,5.67187466e-004
,,,-5.42500000e-009,6.48437471e-004
,,,-5.40000000e-009,7.18749976e-004
,,,-5.37500000e-009,7.73437480e-004
,,,-5.35000000e-009,8.06249983e-004
,,,-5.32500000e-009,8.15624983e-004
,,,-5.30000000e-009,7.99999982e-004
,,,-5.27500000e-009,7.62499979e-004
,,,-5.25000000e-009,7.07812476e-004
,,,-5.22500000e-009,6.40624971e-004
,,,-5.20000000e-009,5.70312466e-004
,,,-5.17500000e-009,5.04687461e-004
,,,-5.15000000e-009,4.49999957e-004
,,,-5.12500000e-009,4.14062455e-004
,,,-5.10000000e-009,3.99999954e-004
,,,-5.07500000e-009,4.14062455e-004
,,,-5.05000000e-009,4.49999957e-004
,,,-5.02500000e-009,5.03124961e-004
,,,-5.00000000e-009,5.68749966e-004
,,,-4.97500000e-009,6.37499971e-004
,,,-4.95000000e-009,7.03124975e-004
,,,-4.92500000e-009,7.59374979e-004
,,,-4.90000000e-009,7.99999982e-004
,,,-4.87500000e-009,8.26562484e-004
,,,-4.85000000e-009,8.34374985e-004
,,,-4.82500000e-009,8.29687484e-004
,,,-4.80000000e-009,8.15624983e-004
,,,-4.77500000e-009,7.99999982e-004
,,,-4.75000000e-009,7.89062481e-004
,,,-4.72500000e-009,7.87499981e-004
,,,-4.70000000e-009,7.99999982e-004
,,,-4.67500000e-009,8.28124984e-004
,,,-4.65000000e-009,8.71874987e-004
,,,-4.62500000e-009,9.29687491e-004
,,,-4.60000000e-009,9.93749996e-004
,,,-4.57500000e-009,1.05937500e-003
,,,-4.55000000e-009,1.12031250e-003
,,,-4.52500000e-009,1.16875001e-003
,,,-4.50000000e-009,1.20000001e-003
,,,-4.47500000e-009,1.20625001e-003
,,,-4.45000000e-009,1.18906251e-003
,,,-4.42500000e-009,1.15156251e-003
,,,-4.40000000e-009,1.09687500e-003
,,,-4.37500000e-009,1.02812500e-003
,,,-4.35000000e-009,9.51562493e-004
,,,-4.32500000e-009,8.74999987e-004
,,,-4.30000000e-009,7.99999982e-004
,,,-4.27500000e-009,7.39062478e-004
,,,-4.25000000e-009,6.93749975e-004
,,,-4.22500000e-009,6.65624973e-004
,,,-4.20000000e-009,6.57812472e-004
,,,-4.17500000e-009,6.68749973e-004
,,,-4.15000000e-009,6.96874975e-004
,,,-4.12500000e-009,7.42187478e-004
,,,-4.10000000e-009,7.99999982e-004
,,,-4.07500000e-009,8.67187487e-004
,,,-4.05000000e-009,9.37499992e-004
,,,-4.02500000e-009,1.00781250e-003
,,,-4.00000000e-009,1.07187500e-003
,,,-3.97500000e-009,1.12656251e-003
,,,-3.95000000e-009,1.16875001e-003
,,,-3.92500000e-009,1.19375001e-003
,,,-3.90000000e-009,1.20000001e-003
,,,-3.87500000e-009,1.18593751e-003
,,,-3.85000000e-009,1.15312501e-003
,,,-3.82500000e-009,1.10781250e-003
,,,-3.80000000e-009,1.05000000e-003
,,,-3.77500000e-009,9.87499995e-004
,,,-3.75000000e-009,9.21874991e-004
,,,-3.72500000e-009,8.57812486e-004
,,,-3.70000000e-009,7.99999982e-004
,,,-3.67500000e-009,7.56249979e-004
,,,-3.65000000e-009,7.24999977e-004
,,,-3.62500000e-009,7.06249975e-004
,,,-3.60000000e-009,7.03124975e-004
,,,-3.57500000e-009,7.12499976e-004
,,,-3.55000000e-009,7.32812477e-004
,,,-3.52500000e-009,7.62499979e-004
,,,-3.50000000e-009,7.99999982e-004
,,,-3.47500000e-009,8.45312485e-004
,,,-3.45000000e-009,8.93749989e-004
,,,-3.42500000e-009,9.42187492e-004
,,,-3.40000000e-009,9.93749996e-004
,,,-3.37500000e-009,1.04687500e-003
,,,-3.35000000e-009,1.09843750e-003
,,,-3.32500000e-009,1.15000001e-003
,,,-3.30000000e-009,1.20000001e-003
,,,-3.27500000e-009,1.24218751e-003
,,,-3.25000000e-009,1.27656252e-003
,,,-3.22500000e-009,1.30156252e-003
,,,-3.20000000e-009,1.31406252e-003
,,,-3.17500000e-009,1.31093752e-003
,,,-3.15000000e-009,1.29062502e-003
,,,-3.12500000e-009,1.25312501e-003
,,,-3.10000000e-009,1.20000001e-003
,,,-3.07500000e-009,1.13125001e-003
,,,-3.05000000e-009,1.05312500e-003
,,,-3.02500000e-009,9.76562495e-004
,,,-3.00000000e-009,9.04687490e-004
,,,-2.97500000e-009,8.46874985e-004
,,,-2.95000000e-009,8.07812483e-004
,,,-2.92500000e-009,7.92187482e-004
,,,-2.90000000e-009,7.99999982e-004
,,,-2.87500000e-009,8.34374985e-004
,,,-2.85000000e-009,8.87499988e-004
,,,-2.82500000e-009,9.53124993e-004
,,,-2.80000000e-009,1.02500000e-003
,,,-2.77500000e-009,1.09218750e-003
,,,-2.75000000e-009,1.14843751e-003
,,,-2.72500000e-009,1.18593751e-003
,,,-2.70000000e-009,1.20000001e-003
,,,-2.67500000e-009,1.18437501e-003
,,,-2.65000000e-009,1.14531251e-003
,,,-2.62500000e-009,1.08750000e-003
,,,-2.60000000e-009,1.02031250e-003
,,,-2.57500000e-009,9.49999993e-004
,,,-2.55000000e-009,8.85937488e-004
,,,-2.52500000e-009,8.34374985e-004
,,,-2.50000000e-009,7.99999982e-004
,,,-2.47500000e-009,7.85937481e-004
,,,-2.45000000e-009,7.89062481e-004
,,,-2.42500000e-009,8.03124982e-004
,,,-2.40000000e-009,8.23437484e-004
,,,-2.37500000e-009,8.39062485e-004
,,,-2.35000000e-009,8.45312485e-004
,,,-2.32500000e-009,8.32812484e-004
,,,-2.30000000e-009,7.99999982e-004
,,,-2.27500000e-009,7.46874978e-004
,,,-2.25000000e-009,6.78124973e-004
,,,-2.22500000e-009,5.98437468e-004
,,,-2.20000000e-009,5.20312462e-004
,,,-2.17500000e-009,4.53124958e-004
,,,-2.15000000e-009,4.06249954e-004
,,,-2.12500000e-009,3.87499953e-004
,,,-2.10000000e-009,3.99999954e-004
,,,-2.07500000e-009,4.48437457e-004
,,,-2.05000000e-009,5.18749962e-004
,,,-2.02500000e-009,6.03124968e-004
,,,-2.00000000e-009,6.89062474e-004
,,,-1.97500000e-009,7.64062480e-004
,,,-1.95000000e-009,8.12499983e-004
,,,-1.92500000e-009,8.26562484e-004
,,,-1.90000000e-009,7.99999982e-004
,,,-1.87500000e-009,7.29687477e-004
,,,-1.85000000e-009,6.23437470e-004
,,,-1.82500000e-009,4.93749960e-004
,,,-1.80000000e-009,3.53124950e-004
,,,-1.77500000e-009,2.18749941e-004
,,,-1.75000000e-009,1.07812433e-004
,,,-1.72500000e-009,3.12499277e-005
,,,-1.70000000e-009,-7.45058060e-011
,,,-1.67500000e-009,2.49999273e-005
,,,-1.65000000e-009,9.37499321e-005
,,,-1.62500000e-009,1.98437440e-004
,,,-1.60000000e-009,3.29687449e-004
,,,-1.57500000e-009,4.68749959e-004
,,,-1.55000000e-009,6.03124968e-004
,,,-1.52500000e-009,7.17187476e-004
,,,-1.50000000e-009,7.99999982e-004
,,,-1.47500000e-009,8.35937485e-004
,,,-1.45000000e-009,8.28124984e-004
,,,-1.42500000e-009,7.85937481e-004
,,,-1.40000000e-009,7.15624976e-004
,,,-1.37500000e-009,6.29687470e-004
,,,-1.35000000e-009,5.40624964e-004
,,,-1.32500000e-009,4.62499958e-004
,,,-1.30000000e-009,3.99999954e-004
,,,-1.27500000e-009,3.51562450e-004
,,,-1.25000000e-009,3.26562449e-004
,,,-1.22500000e-009,3.21874948e-004
,,,-1.20000000e-009,3.34374949e-004
,,,-1.17500000e-009,3.56249951e-004
,,,-1.15000000e-009,3.78124952e-004
,,,-1.12500000e-009,3.95312453e-004
,,,-1.10000000e-009,3.99999954e-004
,,,-1.07500000e-009,3.67187451e-004
,,,-1.05000000e-009,3.14062448e-004
,,,-1.02500000e-009,2.46874943e-004
,,,-1.00000000e-009,1.74999938e-004
,,,-9.75000000e-010,1.06249933e-004
,,,-9.50000000e-010,4.99999290e-005
,,,-9.25000000e-010,1.40624265e-005
,,,-9.00000000e-010,-7.45058060e-011
,,,-8.75000000e-010,-1.40625755e-005
,,,-8.50000000e-010,-1.25000754e-005
,,,-8.25000000e-010,-7.45058060e-011
,,,-8.00000000e-010,1.71874267e-005
,,,-7.75000000e-010,3.43749279e-005
,,,-7.50000000e-010,4.06249284e-005
,,,-7.25000000e-010,3.28124278e-005
,,,-7.00000000e-010,-7.45058060e-011
,,,-6.75000000e-010,-9.68750814e-005
,,,-6.50000000e-010,-2.28125091e-004
,,,-6.25000000e-010,-3.81250101e-004
,,,-6.00000000e-010,-5.51562614e-004
,,,-5.75000000e-010,-7.28125126e-004
,,,-5.50000000e-010,-8.98437638e-004
,,,-5.25000000e-010,-1.05781265e-003
,,,-5.00000000e-010,-1.20000016e-003
,,,-4.75000000e-010,-1.35312517e-003
,,,-4.50000000e-010,-1.49687518e-003
,,,-4.25000000e-010,-1.63593769e-003
,,,-4.00000000e-010,-1.77187520e-003
,,,-3.75000000e-010,-1.90937521e-003
,,,-3.50000000e-010,-2.05781272e-003
,,,-3.25000000e-010,-2.21875023e-003
,,,-3.00000000e-010,-2.40000024e-003
,,,-2.75000000e-010,-2.62500026e-003
,,,-2.50000000e-010,-2.87656278e-003
,,,-2.25000000e-010,-3.14531280e-003
,,,-2.00000000e-010,-3.42031282e-003
,,,-1.75000000e-010,-3.69218784e-003
,,,-1.50000000e-010,-3.95156285e-003
,,,-1.25000000e-010,-4.18750037e-003
,,,-1.00000000e-010,-4.40000039e-003
,,,-7.50000000e-011,-4.59687540e-003
,,,-5.00000000e-011,-4.77968791e-003
,,,-2.50000000e-011,-4.95625043e-003
,,,0.00000000e+000,-5.13437544e-003
,,,2.50000000e-011,-5.32031295e-003
,,,5.00000000e-011,-5.52343797e-003
,,,7.50000000e-011,-5.74843798e-003
,,,1.00000000e-010,-6.00000050e-003
,,,1.25000000e-010,-6.27031302e-003
,,,1.50000000e-010,-6.56875054e-003
,,,1.75000000e-010,-6.89062556e-003
,,,2.00000000e-010,-7.22343809e-003
,,,2.25000000e-010,-7.55156311e-003
,,,2.50000000e-010,-7.86562563e-003
,,,2.75000000e-010,-8.15156315e-003
,,,3.00000000e-010,-8.40000067e-003
,,,3.25000000e-010,-8.57187568e-003
,,,3.50000000e-010,-8.71093819e-003
,,,3.75000000e-010,-8.81875070e-003
,,,4.00000000e-010,-8.90468820e-003
,,,4.25000000e-010,-8.97656321e-003
,,,4.50000000e-010,-9.04375071e-003
,,,4.75000000e-010,-9.11562572e-003
,,,5.00000000e-010,-9.20000073e-003
,,,5.25000000e-010,-9.26093823e-003
,,,5.50000000e-010,-9.35312574e-003
,,,5.75000000e-010,-9.47500075e-003
,,,6.00000000e-010,-9.62656326e-003
,,,6.25000000e-010,-9.80468827e-003
,,,6.50000000e-010,-9.99843828e-003
,,,6.75000000e-010,-1.02000008e-002
,,,7.00000000e-010,-1.04000008e-002
,,,7.25000000e-010,-1.05328133e-002
,,,7.50000000e-010,-1.06468758e-002
,,,7.75000000e-010,-1.07421883e-002
,,,8.00000000e-010,-1.08109383e-002
,,,8.25000000e-010,-1.08531258e-002
,,,8.50000000e-010,-1.08656258e-002
,,,8.75000000e-010,-1.08484383e-002
,,,9.00000000e-010,-1.08000008e-002
,,,9.25000000e-010,-1.06656258e-002
,,,9.50000000e-010,-1.05140633e-002
,,,9.75000000e-010,-1.03484383e-002
,,,1.00000000e-009,-1.01812508e-002
,,,1.02500000e-009,-1.00171883e-002
,,,1.05000000e-009,-9.86250077e-003
,,,1.07500000e-009,-9.72343826e-003
,,,1.10000000e-009,-9.60000075e-003
,,,1.12500000e-009,-9.44843824e-003
,,,1.15000000e-009,-9.31562573e-003
,,,1.17500000e-009,-9.20156323e-003
,,,1.20000000e-009,-9.10468822e-003
,,,1.22500000e-009,-9.02031321e-003
,,,1.25000000e-009,-8.94375071e-003
,,,1.27500000e-009,-8.87343820e-003
,,,1.30000000e-009,-8.80000070e-003
,,,1.32500000e-009,-8.68437569e-003
,,,1.35000000e-009,-8.55625068e-003
,,,1.37500000e-009,-8.41562567e-003
,,,1.40000000e-009,-8.26406316e-003
,,,1.42500000e-009,-8.10312565e-003
,,,1.45000000e-009,-7.93750064e-003
,,,1.47500000e-009,-7.76875062e-003
,,,1.50000000e-009,-7.60000061e-003
,,,1.52500000e-009,-7.40312560e-003
,,,1.55000000e-009,-7.20312558e-003
,,,1.57500000e-009,-7.00000057e-003
,,,1.60000000e-009,-6.79531306e-003
,,,1.62500000e-009,-6.59375054e-003
,,,1.65000000e-009,-6.39218803e-003
,,,1.67500000e-009,-6.19375051e-003
,,,1.70000000e-009,-6.00000050e-003
,,,1.72500000e-009,-5.79531298e-003
,,,1.75000000e-009,-5.58750047e-003
,,,1.77500000e-009,-5.37656296e-003
,,,1.80000000e-009,-5.16718794e-003
,,,1.82500000e-009,-4.96093793e-003
,,,1.85000000e-009,-4.76250041e-003
,,,1.87500000e-009,-4.57500040e-003
,,,1.90000000e-009,-4.40000039e-003
,,,1.92500000e-009,-4.24062537e-003
,,,1.95000000e-009,-4.08593786e-003
,,,1.97500000e-009,-3.93125035e-003
,,,2.00000000e-009,-3.78125034e-003
,,,2.02500000e-009,-3.63125033e-003
,,,2.05000000e-009,-3.48437532e-003
,,,2.07500000e-009,-3.34062531e-003
,,,2.10000000e-009,-3.20000030e-003
,,,2.12500000e-009,-3.06875029e-003
,,,2.15000000e-009,-2.93125028e-003
,,,2.17500000e-009,-2.78593777e-003
,,,2.20000000e-009,-2.63437526e-003
,,,2.22500000e-009,-2.47656275e-003
,,,2.25000000e-009,-2.31718774e-003
,,,2.27500000e-009,-2.15781273e-003
,,,2.30000000e-009,-2.00000022e-003
,,,2.32500000e-009,-1.86093771e-003
,,,2.35000000e-009,-1.71718770e-003
,,,2.37500000e-009,-1.57031269e-003
,,,2.40000000e-009,-1.41718767e-003
,,,2.42500000e-009,-1.26093766e-003
,,,2.45000000e-009,-1.10468765e-003
,,,2.47500000e-009,-9.50000142e-004
,,,2.50000000e-009,-8.00000131e-004
,,,2.52500000e-009,-6.79687623e-004
,,,2.55000000e-009,-5.62500114e-004
,,,2.57500000e-009,-4.46875106e-004
,,,2.60000000e-009,-3.35937598e-004
,,,2.62500000e-009,-2.34375091e-004
,,,2.65000000e-009,-1.42187585e-004
,,,2.67500000e-009,-6.25000789e-005
,,,2.70000000e-009,-7.45058060e-011
,,,2.72500000e-009,2.49999273e-005
,,,2.75000000e-009,3.74999281e-005
,,,2.77500000e-009,4.37499286e-005
,,,2.80000000e-009,4.37499286e-005
,,,2.82500000e-009,3.90624283e-005
,,,2.85000000e-009,2.96874276e-005
,,,2.87500000e-009,1.56249266e-005
,,,2.90000000e-009,-7.45058060e-011
,,,2.92500000e-009,-2.81250765e-005
,,,2.95000000e-009,-4.84375779e-005
,,,2.97500000e-009,-5.93750787e-005
,,,3.00000000e-009,-6.09375788e-005
,,,3.02500000e-009,-5.46875784e-005
,,,3.05000000e-009,-4.06250774e-005
,,,3.07500000e-009,-2.03125759e-005
,,,3.10000000e-009,-7.45058060e-011
,,,3.12500000e-009,1.40624265e-005
,,,3.15000000e-009,2.81249275e-005
,,,3.17500000e-009,4.21874285e-005
,,,3.20000000e-009,5.15624291e-005
,,,3.22500000e-009,5.46874294e-005
,,,3.25000000e-009,4.84374289e-005
,,,3.27500000e-009,3.12499277e-005
,,,3.30000000e-009,-7.45058060e-011
,,,3.32500000e-009,-4.68750778e-005
,,,3.35000000e-009,-1.01562582e-004
,,,3.37500000e-009,-1.59375086e-004
,,,3.40000000e-009,-2.18750090e-004
,,,3.42500000e-009,-2.76562594e-004
,,,3.45000000e-009,-3.28125098e-004
,,,3.47500000e-009,-3.70312601e-004
,,,3.50000000e-009,-4.00000103e-004
,,,3.52500000e-009,-4.09375103e-004
,,,3.55000000e-009,-4.00000103e-004
,,,3.57500000e-009,-3.73437601e-004
,,,3.60000000e-009,-3.26562598e-004
,,,3.62500000e-009,-2.64062593e-004
,,,3.65000000e-009,-1.87500088e-004
,,,3.67500000e-009,-9.84375815e-005
,,,3.70000000e-009,-7.45058060e-011
,,,3.72500000e-009,1.09374933e-004
,,,3.75000000e-009,2.20312441e-004
,,,3.77500000e-009,3.31249949e-004
,,,3.80000000e-009,4.40624957e-004
,,,3.82500000e-009,5.43749964e-004
,,,3.85000000e-009,6.39062471e-004
,,,3.87500000e-009,7.24999977e-004
,,,3.90000000e-009,7.99999982e-004
,,,3.92500000e-009,8.57812486e-004
,,,3.95000000e-009,9.01562489e-004
,,,3.97500000e-009,9.26562491e-004
,,,4.00000000e-009,9.35937492e-004
,,,4.02500000e-009,9.26562491e-004
,,,4.05000000e-009,8.99999989e-004
,,,4.07500000e-009,8.57812486e-004
,,,4.10000000e-009,7.99999982e-004
,,,4.12500000e-009,7.31249977e-004
,,,4.15000000e-009,6.57812472e-004
,,,4.17500000e-009,5.85937467e-004
,,,4.20000000e-009,5.20312462e-004
,,,4.22500000e-009,4.65624958e-004
,,,4.25000000e-009,4.24999956e-004
,,,4.27500000e-009,4.03124954e-004
,,,4.30000000e-009,3.99999954e-004
,,,4.32500000e-009,4.17187455e-004
,,,4.35000000e-009,4.53124958e-004
,,,4.37500000e-009,5.03124961e-004
,,,4.40000000e-009,5.62499965e-004
,,,4.42500000e-009,6.28124970e-004
,,,4.45000000e-009,6.92187474e-004
,,,4.47500000e-009,7.51562479e-004
,,,4.50000000e-009,7.99999982e-004
,,,4.52500000e-009,8.31249984e-004
,,,4.55000000e-009,8.48437486e-004
,,,4.57500000e-009,8.54687486e-004
,,,4.60000000e-009,8.51562486e-004
,,,4.62500000e-009,8.42187485e-004
,,,4.65000000e-009,8.28124984e-004
,,,4.67500000e-009,8.14062483e-004
,,,4.70000000e-009,7.99999982e-004
,,,4.72500000e-009,7.85937481e-004
,,,4.75000000e-009,7.78124981e-004
,,,4.77500000e-009,7.74999980e-004
,,,4.80000000e-009,7.76562480e-004
,,,4.82500000e-009,7.81249981e-004
,,,4.85000000e-009,7.89062481e-004
,,,4.87500000e-009,7.95312482e-004
,,,4.90000000e-009,7.99999982e-004
,,,4.92500000e-009,8.01562482e-004
,,,4.95000000e-009,7.99999982e-004
,,,4.97500000e-009,7.96874982e-004
,,,5.00000000e-009,7.92187482e-004
,,,5.02500000e-009,7.89062481e-004
,,,5.05000000e-009,7.89062481e-004
,,,5.07500000e-009,7.92187482e-004
,,,5.10000000e-009,7.99999982e-004
,,,5.12500000e-009,8.14062483e-004
,,,5.15000000e-009,8.29687484e-004
,,,5.17500000e-009,8.43749985e-004
,,,5.20000000e-009,8.54687486e-004
,,,5.22500000e-009,8.59374986e-004
,,,5.25000000e-009,8.51562486e-004
,,,5.27500000e-009,8.32812484e-004
,,,5.30000000e-009,7.99999982e-004
,,,5.32500000e-009,7.53124979e-004
,,,5.35000000e-009,6.95312475e-004
,,,5.37500000e-009,6.32812470e-004
,,,5.40000000e-009,5.70312466e-004
,,,5.42500000e-009,5.10937462e-004
,,,5.45000000e-009,4.62499958e-004
,,,5.47500000e-009,4.24999956e-004
,,,5.50000000e-009,3.99999954e-004
,,,5.52500000e-009,3.92187453e-004
,,,5.55000000e-009,3.95312453e-004
,,,5.57500000e-009,4.06249954e-004
,,,5.60000000e-009,4.18749955e-004
,,,5.62500000e-009,4.28124956e-004
,,,5.65000000e-009,4.29687456e-004
,,,5.67500000e-009,4.20312455e-004
,,,5.70000000e-009,3.99999954e-004
,,,5.72500000e-009,3.73437452e-004
,,,5.75000000e-009,3.39062449e-004
,,,5.77500000e-009,3.06249947e-004
,,,5.80000000e-009,2.81249945e-004
,,,5.82500000e-009,2.71874945e-004
,,,5.85000000e-009,2.85937446e-004
,,,5.87500000e-009,3.28124949e-004
,,,5.90000000e-009,3.99999954e-004
,,,5.92500000e-009,5.03124961e-004
,,,5.95000000e-009,6.26562470e-004
,,,5.97500000e-009,7.60937479e-004
,,,6.00000000e-009,8.93749989e-004
,,,6.02500000e-009,1.01562500e-003
,,,6.05000000e-009,1.11406250e-003
,,,6.07500000e-009,1.17812501e-003
