RawData/DifferentLengths/R4/R4_2pt2D_5mV/wave029_Ch4.csv

"Record Length",1000,"Points",-7.72500000e-009,1.23906251e-003
"Sample Interval",2.50000000e-011,s,-7.70000000e-009,1.23281251e-003
"Trigger Point",309,"Samples",-7.67500000e-009,1.21718751e-003
"Trigger Time",1.45372414e-011,s,-7.65000000e-009,1.20000001e-003
"",,,-7.62500000e-009,1.18906251e-003
"Horizontal Offset",-7.72500000e-009,s,-7.60000000e-009,1.18750001e-003
,,,-7.57500000e-009,1.20000001e-003
,,,-7.55000000e-009,1.22187501e-003
,,,-7.52500000e-009,1.25312501e-003
,,,-7.50000000e-009,1.28750002e-003
,,,-7.47500000e-009,1.31562502e-003
,,,-7.45000000e-009,1.32812502e-003
,,,-7.42500000e-009,1.31718752e-003
,,,-7.40000000e-009,1.27500002e-003
,,,-7.37500000e-009,1.20000001e-003
,,,-7.35000000e-009,1.08906250e-003
,,,-7.32500000e-009,9.56249993e-004
,,,-7.30000000e-009,8.12499983e-004
,,,-7.27500000e-009,6.71874973e-004
,,,-7.25000000e-009,5.48437464e-004
,,,-7.22500000e-009,4.56249958e-004
,,,-7.20000000e-009,4.04687454e-004
,,,-7.17500000e-009,3.99999954e-004
,,,-7.15000000e-009,4.48437457e-004
,,,-7.12500000e-009,5.37499964e-004
,,,-7.10000000e-009,6.57812472e-004
,,,-7.07500000e-009,7.93749982e-004
,,,-7.05000000e-009,9.31249991e-004
,,,-7.02500000e-009,1.05468750e-003
,,,-7.00000000e-009,1.14843751e-003
,,,-6.97500000e-009,1.20000001e-003
,,,-6.95000000e-009,1.20312501e-003
,,,-6.92500000e-009,1.15781251e-003
,,,-6.90000000e-009,1.07031250e-003
,,,-6.87500000e-009,9.51562493e-004
,,,-6.85000000e-009,8.10937483e-004
,,,-6.82500000e-009,6.64062472e-004
,,,-6.80000000e-009,5.23437463e-004
,,,-6.77500000e-009,3.99999954e-004
,,,-6.75000000e-009,3.10937448e-004
,,,-6.72500000e-009,2.53124943e-004
,,,-6.70000000e-009,2.28124942e-004
,,,-6.67500000e-009,2.31249942e-004
,,,-6.65000000e-009,2.59374944e-004
,,,-6.62500000e-009,3.01562447e-004
,,,-6.60000000e-009,3.51562450e-004
,,,-6.57500000e-009,3.99999954e-004
,,,-6.55000000e-009,4.46874957e-004
,,,-6.52500000e-009,4.78124959e-004
,,,-6.50000000e-009,4.95312461e-004
,,,-6.47500000e-009,4.96874961e-004
,,,-6.45000000e-009,4.84374960e-004
,,,-6.42500000e-009,4.60937458e-004
,,,-6.40000000e-009,4.32812456e-004
,,,-6.37500000e-009,3.99999954e-004
,,,-6.35000000e-009,3.78124952e-004
,,,-6.32500000e-009,3.60937451e-004
,,,-6.30000000e-009,3.48437450e-004
,,,-6.27500000e-009,3.45312450e-004
,,,-6.25000000e-009,3.48437450e-004
,,,-6.22500000e-009,3.59374951e-004
,,,-6.20000000e-009,3.76562452e-004
,,,-6.17500000e-009,3.99999954e-004
,,,-6.15000000e-009,4.32812456e-004
,,,-6.12500000e-009,4.71874959e-004
,,,-6.10000000e-009,5.17187462e-004
,,,-6.07500000e-009,5.67187466e-004
,,,-6.05000000e-009,6.21874970e-004
,,,-6.02500000e-009,6.79687474e-004
,,,-6.00000000e-009,7.40624978e-004
,,,-5.97500000e-009,7.99999982e-004
,,,-5.95000000e-009,8.60937486e-004
,,,-5.92500000e-009,9.12499990e-004
,,,-5.90000000e-009,9.48437493e-004
,,,-5.87500000e-009,9.67187494e-004
,,,-5.85000000e-009,9.60937494e-004
,,,-5.82500000e-009,9.31249991e-004
,,,-5.80000000e-009,8.76562488e-004
,,,-5.77500000e-009,7.99999982e-004
,,,-5.75000000e-009,7.06249975e-004
,,,-5.72500000e-009,6.06249968e-004
,,,-5.70000000e-009,5.09374962e-004
,,,-5.67500000e-009,4.26562456e-004
,,,-5.65000000e-009,3.67187451e-004
,,,-5.62500000e-009,3.40624950e-004
,,,-5.60000000e-009,3.51562450e-004
,,,-5.57500000e-009,3.99999954e-004
,,,-5.55000000e-009,4.90624960e-004
,,,-5.52500000e-009,6.09374969e-004
,,,-5.50000000e-009,7.43749978e-004
,,,-5.47500000e-009,8.81249988e-004
,,,-5.45000000e-009,1.00781250e-003
,,,-5.42500000e-009,1.10937500e-003
,,,-5.40000000e-009,1.17500001e-003
,,,-5.37500000e-009,1.20000001e-003
,,,-5.35000000e-009,1.18125001e-003
,,,-5.32500000e-009,1.12812501e-003
,,,-5.30000000e-009,1.05000000e-003
,,,-5.27500000e-009,9.60937494e-004
,,,-5.25000000e-009,8.79687488e-004
,,,-5.22500000e-009,8.17187483e-004
,,,-5.20000000e-009,7.89062481e-004
,,,-5.17500000e-009,7.99999982e-004
,,,-5.15000000e-009,8.56249986e-004
,,,-5.12500000e-009,9.51562493e-004
,,,-5.10000000e-009,1.07656250e-003
,,,-5.07500000e-009,1.21562501e-003
,,,-5.05000000e-009,1.35312502e-003
,,,-5.02500000e-009,1.47343753e-003
,,,-5.00000000e-009,1.55937504e-003
,,,-4.97500000e-009,1.60000004e-003
,,,-4.95000000e-009,1.58750004e-003
,,,-4.92500000e-009,1.52656253e-003
,,,-4.90000000e-009,1.42500003e-003
,,,-4.87500000e-009,1.29687502e-003
,,,-4.85000000e-009,1.15468751e-003
,,,-4.82500000e-009,1.01406250e-003
,,,-4.80000000e-009,8.92187489e-004
,,,-4.77500000e-009,7.99999982e-004
,,,-4.75000000e-009,7.51562479e-004
,,,-4.72500000e-009,7.45312478e-004
,,,-4.70000000e-009,7.78124981e-004
,,,-4.67500000e-009,8.42187485e-004
,,,-4.65000000e-009,9.28124991e-004
,,,-4.62500000e-009,1.02343750e-003
,,,-4.60000000e-009,1.11875000e-003
,,,-4.57500000e-009,1.20000001e-003
,,,-4.55000000e-009,1.26093751e-003
,,,-4.52500000e-009,1.29687502e-003
,,,-4.50000000e-009,1.31093752e-003
,,,-4.47500000e-009,1.30468752e-003
,,,-4.45000000e-009,1.28437502e-003
,,,-4.42500000e-009,1.25625001e-003
,,,-4.40000000e-009,1.22656251e-003
,,,-4.37500000e-009,1.20000001e-003
,,,-4.35000000e-009,1.17812501e-003
,,,-4.32500000e-009,1.16562501e-003
,,,-4.30000000e-009,1.16093751e-003
,,,-4.27500000e-009,1.16562501e-003
,,,-4.25000000e-009,1.17343751e-003
,,,-4.22500000e-009,1.18437501e-003
,,,-4.20000000e-009,1.19531251e-003
,,,-4.17500000e-009,1.20000001e-003
,,,-4.15000000e-009,1.19843751e-003
,,,-4.12500000e-009,1.19218751e-003
,,,-4.10000000e-009,1.18437501e-003
,,,-4.07500000e-009,1.17500001e-003
,,,-4.05000000e-009,1.16875001e-003
,,,-4.02500000e-009,1.17031251e-003
,,,-4.00000000e-009,1.17968751e-003
,,,-3.97500000e-009,1.20000001e-003
,,,-3.95000000e-009,1.23593751e-003
,,,-3.92500000e-009,1.27968752e-003
,,,-3.90000000e-009,1.33281252e-003
,,,-3.87500000e-009,1.39218752e-003
,,,-3.85000000e-009,1.45156253e-003
,,,-3.82500000e-009,1.51093753e-003
,,,-3.80000000e-009,1.56093754e-003
,,,-3.77500000e-009,1.60000004e-003
,,,-3.75000000e-009,1.61718754e-003
,,,-3.72500000e-009,1.61562504e-003
,,,-3.70000000e-009,1.59531254e-003
,,,-3.67500000e-009,1.55312504e-003
,,,-3.65000000e-009,1.49062503e-003
,,,-3.62500000e-009,1.40937503e-003
,,,-3.60000000e-009,1.31250002e-003
,,,-3.57500000e-009,1.20000001e-003
,,,-3.55000000e-009,1.08125000e-003
,,,-3.52500000e-009,9.57812493e-004
,,,-3.50000000e-009,8.35937485e-004
,,,-3.47500000e-009,7.20312476e-004
,,,-3.45000000e-009,6.15624969e-004
,,,-3.42500000e-009,5.24999963e-004
,,,-3.40000000e-009,4.51562457e-004
,,,-3.37500000e-009,3.99999954e-004
,,,-3.35000000e-009,3.76562452e-004
,,,-3.32500000e-009,3.74999952e-004
,,,-3.30000000e-009,3.98437454e-004
,,,-3.27500000e-009,4.43749957e-004
,,,-3.25000000e-009,5.10937462e-004
,,,-3.22500000e-009,5.95312468e-004
,,,-3.20000000e-009,6.93749975e-004
,,,-3.17500000e-009,7.99999982e-004
,,,-3.15000000e-009,9.09374990e-004
,,,-3.12500000e-009,1.01093750e-003
,,,-3.10000000e-009,1.10000000e-003
,,,-3.07500000e-009,1.17031251e-003
,,,-3.05000000e-009,1.21718751e-003
,,,-3.02500000e-009,1.23750001e-003
,,,-3.00000000e-009,1.23281251e-003
,,,-2.97500000e-009,1.20000001e-003
,,,-2.95000000e-009,1.14531251e-003
,,,-2.92500000e-009,1.07656250e-003
,,,-2.90000000e-009,9.99999996e-004
,,,-2.87500000e-009,9.24999991e-004
,,,-2.85000000e-009,8.60937486e-004
,,,-2.82500000e-009,8.15624983e-004
,,,-2.80000000e-009,7.95312482e-004
,,,-2.77500000e-009,7.99999982e-004
,,,-2.75000000e-009,8.35937485e-004
,,,-2.72500000e-009,8.92187489e-004
,,,-2.70000000e-009,9.62499994e-004
,,,-2.67500000e-009,1.03750000e-003
,,,-2.65000000e-009,1.10781250e-003
,,,-2.62500000e-009,1.16406251e-003
,,,-2.60000000e-009,1.19687501e-003
,,,-2.57500000e-009,1.20000001e-003
,,,-2.55000000e-009,1.16875001e-003
,,,-2.52500000e-009,1.10468750e-003
,,,-2.50000000e-009,1.01250000e-003
,,,-2.47500000e-009,8.98437489e-004
,,,-2.45000000e-009,7.70312480e-004
,,,-2.42500000e-009,6.39062471e-004
,,,-2.40000000e-009,5.12499962e-004
,,,-2.37500000e-009,3.99999954e-004
,,,-2.35000000e-009,3.12499948e-004
,,,-2.32500000e-009,2.53124943e-004
,,,-2.30000000e-009,2.21874941e-004
,,,-2.27500000e-009,2.18749941e-004
,,,-2.25000000e-009,2.39062442e-004
,,,-2.22500000e-009,2.79687445e-004
,,,-2.20000000e-009,3.35937449e-004
,,,-2.17500000e-009,3.99999954e-004
,,,-2.15000000e-009,4.70312459e-004
,,,-2.12500000e-009,5.39062464e-004
,,,-2.10000000e-009,6.01562468e-004
,,,-2.07500000e-009,6.57812472e-004
,,,-2.05000000e-009,7.04687475e-004
,,,-2.02500000e-009,7.43749978e-004
,,,-2.00000000e-009,7.76562480e-004
,,,-1.97500000e-009,7.99999982e-004
,,,-1.95000000e-009,8.18749983e-004
,,,-1.92500000e-009,8.28124984e-004
,,,-1.90000000e-009,8.32812484e-004
,,,-1.87500000e-009,8.32812484e-004
,,,-1.85000000e-009,8.28124984e-004
,,,-1.82500000e-009,8.21874984e-004
,,,-1.80000000e-009,8.10937483e-004
,,,-1.77500000e-009,7.99999982e-004
,,,-1.75000000e-009,7.82812481e-004
,,,-1.72500000e-009,7.65624980e-004
,,,-1.70000000e-009,7.53124979e-004
,,,-1.67500000e-009,7.45312478e-004
,,,-1.65000000e-009,7.46874978e-004
,,,-1.62500000e-009,7.56249979e-004
,,,-1.60000000e-009,7.74999980e-004
,,,-1.57500000e-009,7.99999982e-004
,,,-1.55000000e-009,8.23437484e-004
,,,-1.52500000e-009,8.46874985e-004
,,,-1.50000000e-009,8.64062487e-004
,,,-1.47500000e-009,8.74999987e-004
,,,-1.45000000e-009,8.76562488e-004
,,,-1.42500000e-009,8.65624987e-004
,,,-1.40000000e-009,8.39062485e-004
,,,-1.37500000e-009,7.99999982e-004
,,,-1.35000000e-009,7.31249977e-004
,,,-1.32500000e-009,6.54687472e-004
,,,-1.30000000e-009,5.74999966e-004
,,,-1.27500000e-009,5.03124961e-004
,,,-1.25000000e-009,4.43749957e-004
,,,-1.22500000e-009,4.06249954e-004
,,,-1.20000000e-009,3.90624953e-004
,,,-1.17500000e-009,3.99999954e-004
,,,-1.15000000e-009,4.10937455e-004
,,,-1.12500000e-009,4.32812456e-004
,,,-1.10000000e-009,4.60937458e-004
,,,-1.07500000e-009,4.85937460e-004
,,,-1.05000000e-009,4.99999961e-004
,,,-1.02500000e-009,4.93749960e-004
,,,-1.00000000e-009,4.62499958e-004
,,,-9.75000000e-010,3.99999954e-004
,,,-9.50000000e-010,2.82812446e-004
,,,-9.25000000e-010,1.32812435e-004
,,,-9.00000000e-010,-3.75000772e-005
,,,-8.75000000e-010,-2.18750090e-004
,,,-8.50000000e-010,-3.96875103e-004
,,,-8.25000000e-010,-5.57812614e-004
,,,-8.00000000e-010,-6.95312624e-004
,,,-7.75000000e-010,-8.00000131e-004
,,,-7.50000000e-010,-8.85937637e-004
,,,-7.25000000e-010,-9.46875142e-004
,,,-7.00000000e-010,-9.85937644e-004
,,,-6.75000000e-010,-1.01406265e-003
,,,-6.50000000e-010,-1.03750015e-003
,,,-6.25000000e-010,-1.07031265e-003
,,,-6.00000000e-010,-1.12187515e-003
,,,-5.75000000e-010,-1.20000016e-003
,,,-5.50000000e-010,-1.32500017e-003
,,,-5.25000000e-010,-1.48750018e-003
,,,-5.00000000e-010,-1.68281269e-003
,,,-4.75000000e-010,-1.90156271e-003
,,,-4.50000000e-010,-2.13437523e-003
,,,-4.25000000e-010,-2.36718774e-003
,,,-4.00000000e-010,-2.59062526e-003
,,,-3.75000000e-010,-2.80000027e-003
,,,-3.50000000e-010,-2.98593779e-003
,,,-3.25000000e-010,-3.15468780e-003
,,,-3.00000000e-010,-3.30781281e-003
,,,-2.75000000e-010,-3.44843782e-003
,,,-2.50000000e-010,-3.58281283e-003
,,,-2.25000000e-010,-3.71562534e-003
,,,-2.00000000e-010,-3.85312535e-003
,,,-1.75000000e-010,-4.00000036e-003
,,,-1.50000000e-010,-4.14218787e-003
,,,-1.25000000e-010,-4.29687538e-003
,,,-1.00000000e-010,-4.46093789e-003
,,,-7.50000000e-011,-4.62968790e-003
,,,-5.00000000e-011,-4.79375041e-003
,,,-2.50000000e-011,-4.94843792e-003
,,,0.00000000e+000,-5.08437543e-003
,,,2.50000000e-011,-5.20000044e-003
,,,5.00000000e-011,-5.26562545e-003
,,,7.50000000e-011,-5.31562545e-003
,,,1.00000000e-010,-5.35468795e-003
,,,1.25000000e-010,-5.38750046e-003
,,,1.50000000e-010,-5.42343796e-003
,,,1.75000000e-010,-5.46718796e-003
,,,2.00000000e-010,-5.52500047e-003
,,,2.25000000e-010,-5.60000047e-003
,,,2.50000000e-010,-5.66250048e-003
,,,2.75000000e-010,-5.74531298e-003
,,,3.00000000e-010,-5.84687549e-003
,,,3.25000000e-010,-5.96093800e-003
,,,3.50000000e-010,-6.08125050e-003
,,,3.75000000e-010,-6.20000051e-003
,,,4.00000000e-010,-6.30937552e-003
,,,4.25000000e-010,-6.40000053e-003
,,,4.50000000e-010,-6.42656303e-003
,,,4.75000000e-010,-6.42968803e-003
,,,5.00000000e-010,-6.40625053e-003
,,,5.25000000e-010,-6.35937552e-003
,,,5.50000000e-010,-6.29062552e-003
,,,5.75000000e-010,-6.20625051e-003
,,,6.00000000e-010,-6.10781301e-003
,,,6.25000000e-010,-6.00000050e-003
,,,6.50000000e-010,-5.85625049e-003
,,,6.75000000e-010,-5.71562548e-003
,,,7.00000000e-010,-5.58593797e-003
,,,7.25000000e-010,-5.47031296e-003
,,,7.50000000e-010,-5.37343795e-003
,,,7.75000000e-010,-5.29531295e-003
,,,8.00000000e-010,-5.23906295e-003
,,,8.25000000e-010,-5.20000044e-003
,,,8.50000000e-010,-5.15156294e-003
,,,8.75000000e-010,-5.11406294e-003
,,,9.00000000e-010,-5.07812543e-003
,,,9.25000000e-010,-5.04375043e-003
,,,9.50000000e-010,-5.00156293e-003
,,,9.75000000e-010,-4.95000042e-003
,,,1.00000000e-009,-4.88281292e-003
,,,1.02500000e-009,-4.80000041e-003
,,,1.05000000e-009,-4.68125041e-003
,,,1.07500000e-009,-4.54218790e-003
,,,1.10000000e-009,-4.38906289e-003
,,,1.12500000e-009,-4.22656287e-003
,,,1.15000000e-009,-4.06093786e-003
,,,1.17500000e-009,-3.89687535e-003
,,,1.20000000e-009,-3.74218784e-003
,,,1.22500000e-009,-3.60000033e-003
,,,1.25000000e-009,-3.46562532e-003
,,,1.27500000e-009,-3.34375031e-003
,,,1.30000000e-009,-3.23437530e-003
,,,1.32500000e-009,-3.13593780e-003
,,,1.35000000e-009,-3.04687529e-003
,,,1.37500000e-009,-2.96250028e-003
,,,1.40000000e-009,-2.88125028e-003
,,,1.42500000e-009,-2.80000027e-003
,,,1.45000000e-009,-2.71562527e-003
,,,1.47500000e-009,-2.62343776e-003
,,,1.50000000e-009,-2.52187525e-003
,,,1.52500000e-009,-2.41562525e-003
,,,1.55000000e-009,-2.30468774e-003
,,,1.57500000e-009,-2.19687523e-003
,,,1.60000000e-009,-2.09375022e-003
,,,1.62500000e-009,-2.00000022e-003
,,,1.65000000e-009,-1.92343771e-003
,,,1.67500000e-009,-1.85468771e-003
,,,1.70000000e-009,-1.79375020e-003
,,,1.72500000e-009,-1.74062520e-003
,,,1.75000000e-009,-1.69687519e-003
,,,1.77500000e-009,-1.65937519e-003
,,,1.80000000e-009,-1.62656269e-003
,,,1.82500000e-009,-1.60000019e-003
,,,1.85000000e-009,-1.57968769e-003
,,,1.87500000e-009,-1.55312518e-003
,,,1.90000000e-009,-1.51875018e-003
,,,1.92500000e-009,-1.47500018e-003
,,,1.95000000e-009,-1.42031268e-003
,,,1.97500000e-009,-1.35625017e-003
,,,2.00000000e-009,-1.28125017e-003
,,,2.02500000e-009,-1.20000016e-003
,,,2.05000000e-009,-1.11562515e-003
,,,2.07500000e-009,-1.02187515e-003
,,,2.10000000e-009,-9.20312640e-004
,,,2.12500000e-009,-8.12500132e-004
,,,2.15000000e-009,-7.03125124e-004
,,,2.17500000e-009,-5.96875117e-004
,,,2.20000000e-009,-4.93750109e-004
,,,2.22500000e-009,-4.00000103e-004
,,,2.25000000e-009,-3.21875097e-004
,,,2.27500000e-009,-2.51562592e-004
,,,2.30000000e-009,-1.89062588e-004
,,,2.32500000e-009,-1.34375084e-004
,,,2.35000000e-009,-8.90625808e-005
,,,2.37500000e-009,-5.00000780e-005
,,,2.40000000e-009,-2.03125759e-005
,,,2.42500000e-009,-7.45058060e-011
,,,2.45000000e-009,4.68742583e-006
,,,2.47500000e-009,4.68742583e-006
,,,2.50000000e-009,4.68742583e-006
,,,2.52500000e-009,4.68742583e-006
,,,2.55000000e-009,3.12492572e-006
,,,2.57500000e-009,3.12492572e-006
,,,2.60000000e-009,1.56242560e-006
,,,2.62500000e-009,-7.45058060e-011
,,,2.65000000e-009,-7.81257506e-006
,,,2.67500000e-009,-1.40625755e-005
,,,2.70000000e-009,-1.87500758e-005
,,,2.72500000e-009,-2.03125759e-005
,,,2.75000000e-009,-1.87500758e-005
,,,2.77500000e-009,-1.56250756e-005
,,,2.80000000e-009,-9.37507517e-006
,,,2.82500000e-009,-7.45058060e-011
,,,2.85000000e-009,1.40624265e-005
,,,2.87500000e-009,3.59374280e-005
,,,2.90000000e-009,6.87499304e-005
,,,2.92500000e-009,1.14062434e-004
,,,2.95000000e-009,1.70312438e-004
,,,2.97500000e-009,2.37499942e-004
,,,3.00000000e-009,3.15624948e-004
,,,3.02500000e-009,3.99999954e-004
,,,3.05000000e-009,4.84374960e-004
,,,3.07500000e-009,5.70312466e-004
,,,3.10000000e-009,6.49999972e-004
,,,3.12500000e-009,7.20312476e-004
,,,3.15000000e-009,7.74999980e-004
,,,3.17500000e-009,8.09374983e-004
,,,3.20000000e-009,8.18749983e-004
,,,3.22500000e-009,7.99999982e-004
,,,3.25000000e-009,7.51562479e-004
,,,3.27500000e-009,6.76562473e-004
,,,3.30000000e-009,5.82812467e-004
,,,3.32500000e-009,4.71874959e-004
,,,3.35000000e-009,3.53124950e-004
,,,3.37500000e-009,2.29687442e-004
,,,3.40000000e-009,1.10937433e-004
,,,3.42500000e-009,-7.45058060e-011
,,,3.45000000e-009,-8.75000807e-005
,,,3.47500000e-009,-1.53125085e-004
,,,3.50000000e-009,-1.93750088e-004
,,,3.52500000e-009,-2.06250089e-004
,,,3.55000000e-009,-1.90625088e-004
,,,3.57500000e-009,-1.50000085e-004
,,,3.60000000e-009,-8.43750805e-005
,,,3.62500000e-009,-7.45058060e-011
,,,3.65000000e-009,1.06249933e-004
,,,3.67500000e-009,2.21874941e-004
,,,3.70000000e-009,3.40624950e-004
,,,3.72500000e-009,4.57812458e-004
,,,3.75000000e-009,5.65624966e-004
,,,3.77500000e-009,6.60937472e-004
,,,3.80000000e-009,7.40624978e-004
,,,3.82500000e-009,7.99999982e-004
,,,3.85000000e-009,8.39062485e-004
,,,3.87500000e-009,8.57812486e-004
,,,3.90000000e-009,8.64062487e-004
,,,3.92500000e-009,8.57812486e-004
,,,3.95000000e-009,8.43749985e-004
,,,3.97500000e-009,8.28124984e-004
,,,4.00000000e-009,8.12499983e-004
,,,4.02500000e-009,7.99999982e-004
,,,4.05000000e-009,7.92187482e-004
,,,4.07500000e-009,7.90624981e-004
,,,4.10000000e-009,7.93749982e-004
,,,4.12500000e-009,7.98437482e-004
,,,4.15000000e-009,8.04687482e-004
,,,4.17500000e-009,8.07812483e-004
,,,4.20000000e-009,8.07812483e-004
,,,4.22500000e-009,7.99999982e-004
,,,4.25000000e-009,7.89062481e-004
,,,4.27500000e-009,7.73437480e-004
,,,4.30000000e-009,7.57812479e-004
,,,4.32500000e-009,7.45312478e-004
,,,4.35000000e-009,7.40624978e-004
,,,4.37500000e-009,7.46874978e-004
,,,4.40000000e-009,7.65624980e-004
,,,4.42500000e-009,7.99999982e-004
,,,4.45000000e-009,8.46874985e-004
,,,4.47500000e-009,9.03124989e-004
,,,4.50000000e-009,9.68749994e-004
,,,4.52500000e-009,1.03437500e-003
,,,4.55000000e-009,1.09687500e-003
,,,4.57500000e-009,1.14843751e-003
,,,4.60000000e-009,1.18437501e-003
,,,4.62500000e-009,1.20000001e-003
,,,4.65000000e-009,1.18593751e-003
,,,4.67500000e-009,1.15312501e-003
,,,4.70000000e-009,1.10312500e-003
,,,4.72500000e-009,1.04218750e-003
,,,4.75000000e-009,9.74999995e-004
,,,4.77500000e-009,9.09374990e-004
,,,4.80000000e-009,8.49999986e-004
,,,4.82500000e-009,7.99999982e-004
,,,4.85000000e-009,7.64062480e-004
,,,4.87500000e-009,7.42187478e-004
,,,4.90000000e-009,7.34374977e-004
,,,4.92500000e-009,7.37499978e-004
,,,4.95000000e-009,7.49999979e-004
,,,4.97500000e-009,7.67187480e-004
,,,5.00000000e-009,7.84374981e-004
,,,5.02500000e-009,7.99999982e-004
,,,5.05000000e-009,8.12499983e-004
,,,5.07500000e-009,8.18749983e-004
,,,5.10000000e-009,8.18749983e-004
,,,5.12500000e-009,8.15624983e-004
,,,5.15000000e-009,8.10937483e-004
,,,5.17500000e-009,8.04687482e-004
,,,5.20000000e-009,8.01562482e-004
,,,5.22500000e-009,7.99999982e-004
,,,5.25000000e-009,8.01562482e-004
,,,5.27500000e-009,8.06249983e-004
,,,5.30000000e-009,8.12499983e-004
,,,5.32500000e-009,8.17187483e-004
,,,5.35000000e-009,8.21874984e-004
,,,5.37500000e-009,8.21874984e-004
,,,5.40000000e-009,8.15624983e-004
,,,5.42500000e-009,7.99999982e-004
,,,5.45000000e-009,7.76562480e-004
,,,5.47500000e-009,7.42187478e-004
,,,5.50000000e-009,6.98437475e-004
,,,5.52500000e-009,6.46874971e-004
,,,5.55000000e-009,5.89062467e-004
,,,5.57500000e-009,5.26562463e-004
,,,5.60000000e-009,4.62499958e-004
,,,5.62500000e-009,3.99999954e-004
,,,5.65000000e-009,3.48437450e-004
,,,5.67500000e-009,3.07812447e-004
,,,5.70000000e-009,2.78124945e-004
,,,5.72500000e-009,2.65624944e-004
,,,5.75000000e-009,2.71874945e-004
,,,5.77500000e-009,2.96874947e-004
,,,5.80000000e-009,3.40624950e-004
,,,5.82500000e-009,3.99999954e-004
,,,5.85000000e-009,4.74999959e-004
,,,5.87500000e-009,5.54687465e-004
,,,5.90000000e-009,6.34374970e-004
,,,5.92500000e-009,7.04687475e-004
,,,5.95000000e-009,7.62499979e-004
,,,5.97500000e-009,7.98437482e-004
,,,6.00000000e-009,8.12499983e-004
,,,6.02500000e-009,7.99999982e-004
,,,6.05000000e-009,7.64062480e-004
,,,6.07500000e-009,7.07812476e-004
