RawData/DifferentLengths/R4/R4_2pt2D_5mV/wave030_Ch4.csv

"Record Length",1000,"Points",-7.72500000e-009,4.67187459e-004
"Sample Interval",2.50000000e-011,s,-7.70000000e-009,4.56249958e-004
"Trigger Point",309,"Samples",-7.67500000e-009,4.34374956e-004
"Trigger Time",1.04457813e-011,s,-7.65000000e-009,3.99999954e-004
"",,,-7.62500000e-009,3.60937451e-004
"Horizontal Offset",-7.72500000e-009,s,-7.60000000e-009,3.18749948e-004
,,,-7.57500000e-009,2.81249945e-004
,,,-7.55000000e-009,2.57812444e-004
,,,-7.52500000e-009,2.51562443e-004
,,,-7.50000000e-009,2.71874945e-004
,,,-7.47500000e-009,3.21874948e-004
,,,-7.45000000e-009,3.99999954e-004
,,,-7.42500000e-009,5.07812461e-004
,,,-7.40000000e-009,6.34374970e-004
,,,-7.37500000e-009,7.68749980e-004
,,,-7.35000000e-009,9.03124989e-004
,,,-7.32500000e-009,1.02343750e-003
,,,-7.30000000e-009,1.11875000e-003
,,,-7.27500000e-009,1.17968751e-003
,,,-7.25000000e-009,1.20000001e-003
,,,-7.22500000e-009,1.17187501e-003
,,,-7.20000000e-009,1.10312500e-003
,,,-7.17500000e-009,1.00312500e-003
,,,-7.15000000e-009,8.81249988e-004
,,,-7.12500000e-009,7.48437478e-004
,,,-7.10000000e-009,6.17187469e-004
,,,-7.07500000e-009,4.98437461e-004
,,,-7.05000000e-009,3.99999954e-004
,,,-7.02500000e-009,3.32812449e-004
,,,-7.00000000e-009,2.95312446e-004
,,,-6.97500000e-009,2.85937446e-004
,,,-6.95000000e-009,2.96874947e-004
,,,-6.92500000e-009,3.21874948e-004
,,,-6.90000000e-009,3.51562450e-004
,,,-6.87500000e-009,3.81249952e-004
,,,-6.85000000e-009,3.99999954e-004
,,,-6.82500000e-009,4.09374954e-004
,,,-6.80000000e-009,4.06249954e-004
,,,-6.77500000e-009,3.93749953e-004
,,,-6.75000000e-009,3.78124952e-004
,,,-6.72500000e-009,3.65624951e-004
,,,-6.70000000e-009,3.62499951e-004
,,,-6.67500000e-009,3.71874952e-004
,,,-6.65000000e-009,3.99999954e-004
,,,-6.62500000e-009,4.46874957e-004
,,,-6.60000000e-009,5.07812461e-004
,,,-6.57500000e-009,5.78124966e-004
,,,-6.55000000e-009,6.49999972e-004
,,,-6.52500000e-009,7.15624976e-004
,,,-6.50000000e-009,7.67187480e-004
,,,-6.47500000e-009,7.96874982e-004
,,,-6.45000000e-009,7.99999982e-004
,,,-6.42500000e-009,7.78124981e-004
,,,-6.40000000e-009,7.31249977e-004
,,,-6.37500000e-009,6.68749973e-004
,,,-6.35000000e-009,5.96874968e-004
,,,-6.32500000e-009,5.26562463e-004
,,,-6.30000000e-009,4.65624958e-004
,,,-6.27500000e-009,4.21874955e-004
,,,-6.25000000e-009,3.99999954e-004
,,,-6.22500000e-009,4.10937455e-004
,,,-6.20000000e-009,4.46874957e-004
,,,-6.17500000e-009,5.01562461e-004
,,,-6.15000000e-009,5.68749966e-004
,,,-6.12500000e-009,6.40624971e-004
,,,-6.10000000e-009,7.07812476e-004
,,,-6.07500000e-009,7.64062480e-004
,,,-6.05000000e-009,7.99999982e-004
,,,-6.02500000e-009,8.10937483e-004
,,,-6.00000000e-009,7.95312482e-004
,,,-5.97500000e-009,7.56249979e-004
,,,-5.95000000e-009,6.98437475e-004
,,,-5.92500000e-009,6.26562470e-004
,,,-5.90000000e-009,5.49999964e-004
,,,-5.87500000e-009,4.71874959e-004
,,,-5.85000000e-009,3.99999954e-004
,,,-5.82500000e-009,3.42187450e-004
,,,-5.80000000e-009,3.01562447e-004
,,,-5.77500000e-009,2.78124945e-004
,,,-5.75000000e-009,2.74999945e-004
,,,-5.72500000e-009,2.87499946e-004
,,,-5.70000000e-009,3.14062448e-004
,,,-5.67500000e-009,3.53124950e-004
,,,-5.65000000e-009,3.99999954e-004
,,,-5.62500000e-009,4.54687458e-004
,,,-5.60000000e-009,5.12499962e-004
,,,-5.57500000e-009,5.68749966e-004
,,,-5.55000000e-009,6.23437470e-004
,,,-5.52500000e-009,6.74999973e-004
,,,-5.50000000e-009,7.21874977e-004
,,,-5.47500000e-009,7.64062480e-004
,,,-5.45000000e-009,7.99999982e-004
,,,-5.42500000e-009,8.29687484e-004
,,,-5.40000000e-009,8.49999986e-004
,,,-5.37500000e-009,8.60937486e-004
,,,-5.35000000e-009,8.65624987e-004
,,,-5.32500000e-009,8.60937486e-004
,,,-5.30000000e-009,8.49999986e-004
,,,-5.27500000e-009,8.29687484e-004
,,,-5.25000000e-009,7.99999982e-004
,,,-5.22500000e-009,7.62499979e-004
,,,-5.20000000e-009,7.17187476e-004
,,,-5.17500000e-009,6.68749973e-004
,,,-5.15000000e-009,6.15624969e-004
,,,-5.12500000e-009,5.60937465e-004
,,,-5.10000000e-009,5.06249961e-004
,,,-5.07500000e-009,4.51562457e-004
,,,-5.05000000e-009,3.99999954e-004
,,,-5.02500000e-009,3.57812451e-004
,,,-5.00000000e-009,3.23437448e-004
,,,-4.97500000e-009,2.99999947e-004
,,,-4.95000000e-009,2.89062446e-004
,,,-4.92500000e-009,2.93749946e-004
,,,-4.90000000e-009,3.14062448e-004
,,,-4.87500000e-009,3.49999950e-004
,,,-4.85000000e-009,3.99999954e-004
,,,-4.82500000e-009,4.62499958e-004
,,,-4.80000000e-009,5.29687463e-004
,,,-4.77500000e-009,5.99999968e-004
,,,-4.75000000e-009,6.65624973e-004
,,,-4.72500000e-009,7.23437477e-004
,,,-4.70000000e-009,7.67187480e-004
,,,-4.67500000e-009,7.93749982e-004
,,,-4.65000000e-009,7.99999982e-004
,,,-4.62500000e-009,7.84374981e-004
,,,-4.60000000e-009,7.49999979e-004
,,,-4.57500000e-009,6.99999975e-004
,,,-4.55000000e-009,6.40624971e-004
,,,-4.52500000e-009,5.74999966e-004
,,,-4.50000000e-009,5.10937462e-004
,,,-4.47500000e-009,4.51562457e-004
,,,-4.45000000e-009,3.99999954e-004
,,,-4.42500000e-009,3.62499951e-004
,,,-4.40000000e-009,3.39062449e-004
,,,-4.37500000e-009,3.28124949e-004
,,,-4.35000000e-009,3.29687449e-004
,,,-4.32500000e-009,3.39062449e-004
,,,-4.30000000e-009,3.57812451e-004
,,,-4.27500000e-009,3.78124952e-004
,,,-4.25000000e-009,3.99999954e-004
,,,-4.22500000e-009,4.21874955e-004
,,,-4.20000000e-009,4.37499956e-004
,,,-4.17500000e-009,4.46874957e-004
,,,-4.15000000e-009,4.48437457e-004
,,,-4.12500000e-009,4.43749957e-004
,,,-4.10000000e-009,4.32812456e-004
,,,-4.07500000e-009,4.18749955e-004
,,,-4.05000000e-009,3.99999954e-004
,,,-4.02500000e-009,3.82812453e-004
,,,-4.00000000e-009,3.68749952e-004
,,,-3.97500000e-009,3.57812451e-004
,,,-3.95000000e-009,3.53124950e-004
,,,-3.92500000e-009,3.54687451e-004
,,,-3.90000000e-009,3.64062451e-004
,,,-3.87500000e-009,3.79687452e-004
,,,-3.85000000e-009,3.99999954e-004
,,,-3.82500000e-009,4.26562456e-004
,,,-3.80000000e-009,4.51562457e-004
,,,-3.77500000e-009,4.73437459e-004
,,,-3.75000000e-009,4.85937460e-004
,,,-3.72500000e-009,4.87499960e-004
,,,-3.70000000e-009,4.74999959e-004
,,,-3.67500000e-009,4.45312457e-004
,,,-3.65000000e-009,3.99999954e-004
,,,-3.62500000e-009,3.45312450e-004
,,,-3.60000000e-009,2.81249945e-004
,,,-3.57500000e-009,2.12499941e-004
,,,-3.55000000e-009,1.45312436e-004
,,,-3.52500000e-009,8.43749315e-005
,,,-3.50000000e-009,3.74999281e-005
,,,-3.47500000e-009,9.37492616e-006
,,,-3.45000000e-009,-7.45058060e-011
,,,-3.42500000e-009,2.03124269e-005
,,,-3.40000000e-009,5.93749297e-005
,,,-3.37500000e-009,1.14062434e-004
,,,-3.35000000e-009,1.76562438e-004
,,,-3.32500000e-009,2.43749943e-004
,,,-3.30000000e-009,3.06249947e-004
,,,-3.27500000e-009,3.60937451e-004
,,,-3.25000000e-009,3.99999954e-004
,,,-3.22500000e-009,4.26562456e-004
,,,-3.20000000e-009,4.37499956e-004
,,,-3.17500000e-009,4.35937456e-004
,,,-3.15000000e-009,4.24999956e-004
,,,-3.12500000e-009,4.10937455e-004
,,,-3.10000000e-009,3.98437454e-004
,,,-3.07500000e-009,3.93749953e-004
,,,-3.05000000e-009,3.99999954e-004
,,,-3.02500000e-009,4.23437455e-004
,,,-3.00000000e-009,4.60937458e-004
,,,-2.97500000e-009,5.09374962e-004
,,,-2.95000000e-009,5.68749966e-004
,,,-2.92500000e-009,6.31249970e-004
,,,-2.90000000e-009,6.93749975e-004
,,,-2.87500000e-009,7.51562479e-004
,,,-2.85000000e-009,7.99999982e-004
,,,-2.82500000e-009,8.34374985e-004
,,,-2.80000000e-009,8.53124986e-004
,,,-2.77500000e-009,8.60937486e-004
,,,-2.75000000e-009,8.56249986e-004
,,,-2.72500000e-009,8.45312485e-004
,,,-2.70000000e-009,8.31249984e-004
,,,-2.67500000e-009,8.15624983e-004
,,,-2.65000000e-009,7.99999982e-004
,,,-2.62500000e-009,7.89062481e-004
,,,-2.60000000e-009,7.82812481e-004
,,,-2.57500000e-009,7.82812481e-004
,,,-2.55000000e-009,7.85937481e-004
,,,-2.52500000e-009,7.90624981e-004
,,,-2.50000000e-009,7.95312482e-004
,,,-2.47500000e-009,7.99999982e-004
,,,-2.45000000e-009,7.99999982e-004
,,,-2.42500000e-009,7.93749982e-004
,,,-2.40000000e-009,7.84374981e-004
,,,-2.37500000e-009,7.76562480e-004
,,,-2.35000000e-009,7.70312480e-004
,,,-2.32500000e-009,7.67187480e-004
,,,-2.30000000e-009,7.71874980e-004
,,,-2.27500000e-009,7.82812481e-004
,,,-2.25000000e-009,7.99999982e-004
,,,-2.22500000e-009,8.21874984e-004
,,,-2.20000000e-009,8.45312485e-004
,,,-2.17500000e-009,8.65624987e-004
,,,-2.15000000e-009,8.81249988e-004
,,,-2.12500000e-009,8.84374988e-004
,,,-2.10000000e-009,8.73437487e-004
,,,-2.07500000e-009,8.46874985e-004
,,,-2.05000000e-009,7.99999982e-004
,,,-2.02500000e-009,7.37499978e-004
,,,-2.00000000e-009,6.62499972e-004
,,,-1.97500000e-009,5.85937467e-004
,,,-1.95000000e-009,5.14062462e-004
,,,-1.92500000e-009,4.53124958e-004
,,,-1.90000000e-009,4.10937455e-004
,,,-1.87500000e-009,3.92187453e-004
,,,-1.85000000e-009,3.99999954e-004
,,,-1.82500000e-009,4.34374956e-004
,,,-1.80000000e-009,4.87499960e-004
,,,-1.77500000e-009,5.54687465e-004
,,,-1.75000000e-009,6.26562470e-004
,,,-1.72500000e-009,6.95312475e-004
,,,-1.70000000e-009,7.51562479e-004
,,,-1.67500000e-009,7.89062481e-004
,,,-1.65000000e-009,7.99999982e-004
,,,-1.62500000e-009,7.82812481e-004
,,,-1.60000000e-009,7.40624978e-004
,,,-1.57500000e-009,6.81249974e-004
,,,-1.55000000e-009,6.09374969e-004
,,,-1.52500000e-009,5.37499964e-004
,,,-1.50000000e-009,4.71874959e-004
,,,-1.47500000e-009,4.24999956e-004
,,,-1.45000000e-009,3.99999954e-004
,,,-1.42500000e-009,3.99999954e-004
,,,-1.40000000e-009,4.26562456e-004
,,,-1.37500000e-009,4.73437459e-004
,,,-1.35000000e-009,5.37499964e-004
,,,-1.32500000e-009,6.10937469e-004
,,,-1.30000000e-009,6.84374974e-004
,,,-1.27500000e-009,7.49999979e-004
,,,-1.25000000e-009,7.99999982e-004
,,,-1.22500000e-009,8.17187483e-004
,,,-1.20000000e-009,8.07812483e-004
,,,-1.17500000e-009,7.71874980e-004
,,,-1.15000000e-009,7.17187476e-004
,,,-1.12500000e-009,6.45312471e-004
,,,-1.10000000e-009,5.65624966e-004
,,,-1.07500000e-009,4.81249960e-004
,,,-1.05000000e-009,3.99999954e-004
,,,-1.02500000e-009,3.06249947e-004
,,,-1.00000000e-009,2.18749941e-004
,,,-9.75000000e-010,1.43749936e-004
,,,-9.50000000e-010,8.28124314e-005
,,,-9.25000000e-010,3.90624283e-005
,,,-9.00000000e-010,1.09374263e-005
,,,-8.75000000e-010,-1.56257462e-006
,,,-8.50000000e-010,-7.45058060e-011
,,,-8.25000000e-010,-2.03125759e-005
,,,-8.00000000e-010,-3.90625773e-005
,,,-7.75000000e-010,-5.31250783e-005
,,,-7.50000000e-010,-5.93750787e-005
,,,-7.25000000e-010,-5.78125786e-005
,,,-7.00000000e-010,-4.68750778e-005
,,,-6.75000000e-010,-2.65625764e-005
,,,-6.50000000e-010,-7.45058060e-011
,,,-6.25000000e-010,-2.03125759e-005
,,,-6.00000000e-010,-5.00000780e-005
,,,-5.75000000e-010,-8.90625808e-005
,,,-5.50000000e-010,-1.37500084e-004
,,,-5.25000000e-010,-1.92187588e-004
,,,-5.00000000e-010,-2.53125092e-004
,,,-4.75000000e-010,-3.21875097e-004
,,,-4.50000000e-010,-4.00000103e-004
,,,-4.25000000e-010,-5.56250114e-004
,,,-4.00000000e-010,-7.37500127e-004
,,,-3.75000000e-010,-9.35937641e-004
,,,-3.50000000e-010,-1.14687516e-003
,,,-3.25000000e-010,-1.36250017e-003
,,,-3.00000000e-010,-1.57656269e-003
,,,-2.75000000e-010,-1.78906270e-003
,,,-2.50000000e-010,-2.00000022e-003
,,,-2.25000000e-010,-2.26875024e-003
,,,-2.00000000e-010,-2.55000025e-003
,,,-1.75000000e-010,-2.84218778e-003
,,,-1.50000000e-010,-3.14375030e-003
,,,-1.25000000e-010,-3.45000032e-003
,,,-1.00000000e-010,-3.76093784e-003
,,,-7.50000000e-011,-4.07812536e-003
,,,-5.00000000e-011,-4.40000039e-003
,,,-2.50000000e-011,-4.78281291e-003
,,,0.00000000e+000,-5.18281294e-003
,,,2.50000000e-011,-5.59687547e-003
,,,5.00000000e-011,-6.01406300e-003
,,,7.50000000e-011,-6.42812553e-003
,,,1.00000000e-010,-6.83281306e-003
,,,1.25000000e-010,-7.22343809e-003
,,,1.50000000e-010,-7.60000061e-003
,,,1.75000000e-010,-7.99375064e-003
,,,2.00000000e-010,-8.39687567e-003
,,,2.25000000e-010,-8.81406320e-003
,,,2.50000000e-010,-9.24687573e-003
,,,2.75000000e-010,-9.70156326e-003
,,,3.00000000e-010,-1.01796883e-002
,,,3.25000000e-010,-1.06796883e-002
,,,3.50000000e-010,-1.12000009e-002
,,,3.75000000e-010,-1.17312509e-002
,,,4.00000000e-010,-1.22812509e-002
,,,4.25000000e-010,-1.28406260e-002
,,,4.50000000e-010,-1.33906260e-002
,,,4.75000000e-010,-1.39140636e-002
,,,5.00000000e-010,-1.43984386e-002
,,,5.25000000e-010,-1.48281261e-002
,,,5.50000000e-010,-1.52000012e-002
,,,5.75000000e-010,-1.54671887e-002
,,,6.00000000e-010,-1.57015637e-002
,,,6.25000000e-010,-1.59156262e-002
,,,6.50000000e-010,-1.61265637e-002
,,,6.75000000e-010,-1.63484387e-002
,,,7.00000000e-010,-1.65953137e-002
,,,7.25000000e-010,-1.68765638e-002
,,,7.50000000e-010,-1.72000013e-002
,,,7.75000000e-010,-1.74921888e-002
,,,8.00000000e-010,-1.78312513e-002
,,,8.25000000e-010,-1.82078139e-002
,,,8.50000000e-010,-1.86062514e-002
,,,8.75000000e-010,-1.90046889e-002
,,,9.00000000e-010,-1.93828139e-002
,,,9.25000000e-010,-1.97203140e-002
,,,9.50000000e-010,-2.00000015e-002
,,,9.75000000e-010,-2.01125015e-002
,,,1.00000000e-009,-2.01656265e-002
,,,1.02500000e-009,-2.01718765e-002
,,,1.05000000e-009,-2.01453140e-002
,,,1.07500000e-009,-2.01015640e-002
,,,1.10000000e-009,-2.00531265e-002
,,,1.12500000e-009,-2.00171890e-002
,,,1.15000000e-009,-2.00000015e-002
,,,1.17500000e-009,-1.99093765e-002
,,,1.20000000e-009,-1.98531265e-002
,,,1.22500000e-009,-1.98343765e-002
,,,1.25000000e-009,-1.98484390e-002
,,,1.27500000e-009,-1.98843765e-002
,,,1.30000000e-009,-1.99312515e-002
,,,1.32500000e-009,-1.99750015e-002
,,,1.35000000e-009,-2.00000015e-002
,,,1.37500000e-009,-1.98968765e-002
,,,1.40000000e-009,-1.97593765e-002
,,,1.42500000e-009,-1.95859390e-002
,,,1.45000000e-009,-1.93843764e-002
,,,1.47500000e-009,-1.91609389e-002
,,,1.50000000e-009,-1.89187514e-002
,,,1.52500000e-009,-1.86640639e-002
,,,1.55000000e-009,-1.84000014e-002
,,,1.57500000e-009,-1.80531264e-002
,,,1.60000000e-009,-1.77000013e-002
,,,1.62500000e-009,-1.73453138e-002
,,,1.65000000e-009,-1.69906263e-002
,,,1.67500000e-009,-1.66406263e-002
,,,1.70000000e-009,-1.62921887e-002
,,,1.72500000e-009,-1.59453137e-002
,,,1.75000000e-009,-1.56000012e-002
,,,1.77500000e-009,-1.51984387e-002
,,,1.80000000e-009,-1.47890636e-002
,,,1.82500000e-009,-1.43750011e-002
,,,1.85000000e-009,-1.39593761e-002
,,,1.87500000e-009,-1.35500010e-002
,,,1.90000000e-009,-1.31515635e-002
,,,1.92500000e-009,-1.27671885e-002
,,,1.95000000e-009,-1.24000010e-002
,,,1.97500000e-009,-1.20296884e-002
,,,2.00000000e-009,-1.16656259e-002
,,,2.02500000e-009,-1.13031259e-002
,,,2.05000000e-009,-1.09468758e-002
,,,2.07500000e-009,-1.05968758e-002
,,,2.10000000e-009,-1.02546883e-002
,,,2.12500000e-009,-9.92187578e-003
,,,2.15000000e-009,-9.60000075e-003
,,,2.17500000e-009,-9.28750073e-003
,,,2.20000000e-009,-8.97343821e-003
,,,2.22500000e-009,-8.65468819e-003
,,,2.25000000e-009,-8.34062566e-003
,,,2.27500000e-009,-8.03281314e-003
,,,2.30000000e-009,-7.73750062e-003
,,,2.32500000e-009,-7.45937560e-003
,,,2.35000000e-009,-7.20000058e-003
,,,2.37500000e-009,-6.97968807e-003
,,,2.40000000e-009,-6.75625055e-003
,,,2.42500000e-009,-6.52500054e-003
,,,2.45000000e-009,-6.28437552e-003
,,,2.47500000e-009,-6.02968800e-003
,,,2.50000000e-009,-5.76250048e-003
,,,2.52500000e-009,-5.48593796e-003
,,,2.55000000e-009,-5.20000044e-003
,,,2.57500000e-009,-4.94218792e-003
,,,2.60000000e-009,-4.66875040e-003
,,,2.62500000e-009,-4.38750039e-003
,,,2.65000000e-009,-4.10781287e-003
,,,2.67500000e-009,-3.83906285e-003
,,,2.70000000e-009,-3.59375033e-003
,,,2.72500000e-009,-3.37812531e-003
,,,2.75000000e-009,-3.20000030e-003
,,,2.77500000e-009,-3.09531279e-003
,,,2.80000000e-009,-3.00937529e-003
,,,2.82500000e-009,-2.93125028e-003
,,,2.85000000e-009,-2.85312528e-003
,,,2.87500000e-009,-2.76562527e-003
,,,2.90000000e-009,-2.66406276e-003
,,,2.92500000e-009,-2.54218775e-003
,,,2.95000000e-009,-2.40000024e-003
,,,2.97500000e-009,-2.26718773e-003
,,,3.00000000e-009,-2.10781272e-003
,,,3.02500000e-009,-1.92968771e-003
,,,3.05000000e-009,-1.74375020e-003
,,,3.07500000e-009,-1.56406269e-003
,,,3.10000000e-009,-1.40625017e-003
,,,3.12500000e-009,-1.28125017e-003
,,,3.15000000e-009,-1.20000016e-003
,,,3.17500000e-009,-1.19218766e-003
,,,3.20000000e-009,-1.22031266e-003
,,,3.22500000e-009,-1.27343766e-003
,,,3.25000000e-009,-1.34531267e-003
,,,3.27500000e-009,-1.42343768e-003
,,,3.30000000e-009,-1.49687518e-003
,,,3.32500000e-009,-1.55937518e-003
,,,3.35000000e-009,-1.60000019e-003
,,,3.37500000e-009,-1.62656269e-003
,,,3.40000000e-009,-1.62031269e-003
,,,3.42500000e-009,-1.57968769e-003
,,,3.45000000e-009,-1.51406268e-003
,,,3.47500000e-009,-1.43281268e-003
,,,3.50000000e-009,-1.34531267e-003
,,,3.52500000e-009,-1.26562516e-003
,,,3.55000000e-009,-1.20000016e-003
,,,3.57500000e-009,-1.16093766e-003
,,,3.60000000e-009,-1.13906266e-003
,,,3.62500000e-009,-1.13437515e-003
,,,3.65000000e-009,-1.14062516e-003
,,,3.67500000e-009,-1.15625016e-003
,,,3.70000000e-009,-1.17500016e-003
,,,3.72500000e-009,-1.19062516e-003
,,,3.75000000e-009,-1.20000016e-003
,,,3.77500000e-009,-1.19218766e-003
,,,3.80000000e-009,-1.16718766e-003
,,,3.82500000e-009,-1.12656265e-003
,,,3.85000000e-009,-1.07031265e-003
,,,3.87500000e-009,-1.00625015e-003
,,,3.90000000e-009,-9.35937641e-004
,,,3.92500000e-009,-8.65625136e-004
,,,3.95000000e-009,-8.00000131e-004
,,,3.97500000e-009,-7.35937627e-004
,,,4.00000000e-009,-6.78125123e-004
,,,4.02500000e-009,-6.25000119e-004
,,,4.05000000e-009,-5.76562615e-004
,,,4.07500000e-009,-5.31250112e-004
,,,4.10000000e-009,-4.87500109e-004
,,,4.12500000e-009,-4.43750106e-004
,,,4.15000000e-009,-4.00000103e-004
,,,4.17500000e-009,-3.48437599e-004
,,,4.20000000e-009,-2.93750095e-004
,,,4.22500000e-009,-2.37500091e-004
,,,4.25000000e-009,-1.81250087e-004
,,,4.27500000e-009,-1.28125084e-004
,,,4.30000000e-009,-7.96875801e-005
,,,4.32500000e-009,-3.59375770e-005
,,,4.35000000e-009,-7.45058060e-011
,,,4.37500000e-009,3.28124278e-005
,,,4.40000000e-009,6.40624300e-005
,,,4.42500000e-009,9.84374325e-005
,,,4.45000000e-009,1.37499935e-004
,,,4.47500000e-009,1.85937439e-004
,,,4.50000000e-009,2.43749943e-004
,,,4.52500000e-009,3.15624948e-004
,,,4.55000000e-009,3.99999954e-004
,,,4.57500000e-009,4.92187460e-004
,,,4.60000000e-009,5.95312468e-004
,,,4.62500000e-009,7.06249975e-004
,,,4.65000000e-009,8.18749983e-004
,,,4.67500000e-009,9.29687491e-004
,,,4.70000000e-009,1.03437500e-003
,,,4.72500000e-009,1.12500001e-003
,,,4.75000000e-009,1.20000001e-003
,,,4.77500000e-009,1.24375001e-003
,,,4.80000000e-009,1.26875002e-003
,,,4.82500000e-009,1.27968752e-003
,,,4.85000000e-009,1.27500002e-003
,,,4.87500000e-009,1.26250001e-003
,,,4.90000000e-009,1.24375001e-003
,,,4.92500000e-009,1.22187501e-003
,,,4.95000000e-009,1.20000001e-003
,,,4.97500000e-009,1.17343751e-003
,,,5.00000000e-009,1.15468751e-003
,,,5.02500000e-009,1.14531251e-003
,,,5.05000000e-009,1.14531251e-003
,,,5.07500000e-009,1.15312501e-003
,,,5.10000000e-009,1.16562501e-003
,,,5.12500000e-009,1.18281251e-003
,,,5.15000000e-009,1.20000001e-003
,,,5.17500000e-009,1.20781251e-003
,,,5.20000000e-009,1.21406251e-003
,,,5.22500000e-009,1.21718751e-003
,,,5.25000000e-009,1.21875001e-003
,,,5.27500000e-009,1.21875001e-003
,,,5.30000000e-009,1.21718751e-003
,,,5.32500000e-009,1.21093751e-003
,,,5.35000000e-009,1.20000001e-003
,,,5.37500000e-009,1.17968751e-003
,,,5.40000000e-009,1.15156251e-003
,,,5.42500000e-009,1.11718750e-003
,,,5.45000000e-009,1.07500000e-003
,,,5.47500000e-009,1.02187500e-003
,,,5.50000000e-009,9.57812493e-004
,,,5.52500000e-009,8.84374988e-004
,,,5.55000000e-009,7.99999982e-004
,,,5.57500000e-009,7.09374976e-004
,,,5.60000000e-009,6.20312469e-004
,,,5.62500000e-009,5.35937463e-004
,,,5.65000000e-009,4.65624958e-004
,,,5.67500000e-009,4.14062455e-004
,,,5.70000000e-009,3.84374953e-004
,,,5.72500000e-009,3.79687452e-004
,,,5.75000000e-009,3.99999954e-004
,,,5.77500000e-009,4.48437457e-004
,,,5.80000000e-009,5.12499962e-004
,,,5.82500000e-009,5.84374967e-004
,,,5.85000000e-009,6.57812472e-004
,,,5.87500000e-009,7.21874977e-004
,,,5.90000000e-009,7.71874980e-004
,,,5.92500000e-009,7.98437482e-004
,,,5.95000000e-009,7.99999982e-004
,,,5.97500000e-009,7.73437480e-004
,,,6.00000000e-009,7.21874977e-004
,,,6.02500000e-009,6.53124972e-004
,,,6.05000000e-009,5.78124966e-004
