RawData/DifferentLengths/R4/R4_2pt2D_5mV/wave022_Ch4.csv

"Record Length",1000,"Points",-7.72500000e-009,7.93749982e-004
"Sample Interval",2.50000000e-011,s,-7.70000000e-009,7.85937481e-004
"Trigger Point",309,"Samples",-7.67500000e-009,7.76562480e-004
"Trigger Time",1.87819048e-011,s,-7.65000000e-009,7.70312480e-004
"",,,-7.62500000e-009,7.71874980e-004
"Horizontal Offset",-7.72500000e-009,s,-7.60000000e-009,7.81249981e-004
,,,-7.57500000e-009,7.99999982e-004
,,,-7.55000000e-009,8.32812484e-004
,,,-7.52500000e-009,8.76562488e-004
,,,-7.50000000e-009,9.28124991e-004
,,,-7.47500000e-009,9.87499995e-004
,,,-7.45000000e-009,1.04687500e-003
,,,-7.42500000e-009,1.10625000e-003
,,,-7.40000000e-009,1.15781251e-003
,,,-7.37500000e-009,1.20000001e-003
,,,-7.35000000e-009,1.22656251e-003
,,,-7.32500000e-009,1.24062501e-003
,,,-7.30000000e-009,1.24531251e-003
,,,-7.27500000e-009,1.24218751e-003
,,,-7.25000000e-009,1.23281251e-003
,,,-7.22500000e-009,1.22187501e-003
,,,-7.20000000e-009,1.21093751e-003
,,,-7.17500000e-009,1.20000001e-003
,,,-7.15000000e-009,1.19062501e-003
,,,-7.12500000e-009,1.18437501e-003
,,,-7.10000000e-009,1.18281251e-003
,,,-7.07500000e-009,1.18593751e-003
,,,-7.05000000e-009,1.18906251e-003
,,,-7.02500000e-009,1.19375001e-003
,,,-7.00000000e-009,1.19843751e-003
,,,-6.97500000e-009,1.20000001e-003
,,,-6.95000000e-009,1.19843751e-003
,,,-6.92500000e-009,1.19375001e-003
,,,-6.90000000e-009,1.18906251e-003
,,,-6.87500000e-009,1.18593751e-003
,,,-6.85000000e-009,1.18281251e-003
,,,-6.82500000e-009,1.18437501e-003
,,,-6.80000000e-009,1.19062501e-003
,,,-6.77500000e-009,1.20000001e-003
,,,-6.75000000e-009,1.21093751e-003
,,,-6.72500000e-009,1.22187501e-003
,,,-6.70000000e-009,1.23281251e-003
,,,-6.67500000e-009,1.24218751e-003
,,,-6.65000000e-009,1.24531251e-003
,,,-6.62500000e-009,1.24062501e-003
,,,-6.60000000e-009,1.22656251e-003
,,,-6.57500000e-009,1.20000001e-003
,,,-6.55000000e-009,1.15937501e-003
,,,-6.52500000e-009,1.10937500e-003
,,,-6.50000000e-009,1.05312500e-003
,,,-6.47500000e-009,9.93749996e-004
,,,-6.45000000e-009,9.35937492e-004
,,,-6.42500000e-009,8.82812488e-004
,,,-6.40000000e-009,8.35937485e-004
,,,-6.37500000e-009,7.99999982e-004
,,,-6.35000000e-009,7.76562480e-004
,,,-6.32500000e-009,7.62499979e-004
,,,-6.30000000e-009,7.57812479e-004
,,,-6.27500000e-009,7.60937479e-004
,,,-6.25000000e-009,7.70312480e-004
,,,-6.22500000e-009,7.81249981e-004
,,,-6.20000000e-009,7.92187482e-004
,,,-6.17500000e-009,7.99999982e-004
,,,-6.15000000e-009,8.04687482e-004
,,,-6.12500000e-009,8.03124982e-004
,,,-6.10000000e-009,7.99999982e-004
,,,-6.07500000e-009,7.93749982e-004
,,,-6.05000000e-009,7.89062481e-004
,,,-6.02500000e-009,7.87499981e-004
,,,-6.00000000e-009,7.92187482e-004
,,,-5.97500000e-009,7.99999982e-004
,,,-5.95000000e-009,8.15624983e-004
,,,-5.92500000e-009,8.32812484e-004
,,,-5.90000000e-009,8.49999986e-004
,,,-5.87500000e-009,8.62499987e-004
,,,-5.85000000e-009,8.65624987e-004
,,,-5.82500000e-009,8.57812486e-004
,,,-5.80000000e-009,8.37499985e-004
,,,-5.77500000e-009,7.99999982e-004
,,,-5.75000000e-009,7.53124979e-004
,,,-5.72500000e-009,6.95312475e-004
,,,-5.70000000e-009,6.31249970e-004
,,,-5.67500000e-009,5.67187466e-004
,,,-5.65000000e-009,5.06249961e-004
,,,-5.62500000e-009,4.57812458e-004
,,,-5.60000000e-009,4.20312455e-004
,,,-5.57500000e-009,3.99999954e-004
,,,-5.55000000e-009,4.03124954e-004
,,,-5.52500000e-009,4.17187455e-004
,,,-5.50000000e-009,4.35937456e-004
,,,-5.47500000e-009,4.56249958e-004
,,,-5.45000000e-009,4.67187459e-004
,,,-5.42500000e-009,4.64062458e-004
,,,-5.40000000e-009,4.42187457e-004
,,,-5.37500000e-009,3.99999954e-004
,,,-5.35000000e-009,3.42187450e-004
,,,-5.32500000e-009,2.70312445e-004
,,,-5.30000000e-009,1.92187439e-004
,,,-5.27500000e-009,1.14062434e-004
,,,-5.25000000e-009,4.84374289e-005
,,,-5.22500000e-009,3.12492572e-006
,,,-5.20000000e-009,-1.56250756e-005
,,,-5.17500000e-009,-7.45058060e-011
,,,-5.15000000e-009,5.93749297e-005
,,,-5.12500000e-009,1.48437436e-004
,,,-5.10000000e-009,2.59374944e-004
,,,-5.07500000e-009,3.84374953e-004
,,,-5.05000000e-009,5.10937462e-004
,,,-5.02500000e-009,6.28124970e-004
,,,-5.00000000e-009,7.26562477e-004
,,,-4.97500000e-009,7.99999982e-004
,,,-4.95000000e-009,8.48437486e-004
,,,-4.92500000e-009,8.68749987e-004
,,,-4.90000000e-009,8.65624987e-004
,,,-4.87500000e-009,8.46874985e-004
,,,-4.85000000e-009,8.21874984e-004
,,,-4.82500000e-009,8.01562482e-004
,,,-4.80000000e-009,7.92187482e-004
,,,-4.77500000e-009,7.99999982e-004
,,,-4.75000000e-009,8.31249984e-004
,,,-4.72500000e-009,8.81249988e-004
,,,-4.70000000e-009,9.45312492e-004
,,,-4.67500000e-009,1.01562500e-003
,,,-4.65000000e-009,1.08593750e-003
,,,-4.62500000e-009,1.14375001e-003
,,,-4.60000000e-009,1.18437501e-003
,,,-4.57500000e-009,1.20000001e-003
,,,-4.55000000e-009,1.18437501e-003
,,,-4.52500000e-009,1.14218751e-003
,,,-4.50000000e-009,1.08125000e-003
,,,-4.47500000e-009,1.01093750e-003
,,,-4.45000000e-009,9.39062492e-004
,,,-4.42500000e-009,8.73437487e-004
,,,-4.40000000e-009,8.26562484e-004
,,,-4.37500000e-009,7.99999982e-004
,,,-4.35000000e-009,8.01562482e-004
,,,-4.32500000e-009,8.29687484e-004
,,,-4.30000000e-009,8.79687488e-004
,,,-4.27500000e-009,9.45312492e-004
,,,-4.25000000e-009,1.01875000e-003
,,,-4.22500000e-009,1.09062500e-003
,,,-4.20000000e-009,1.15312501e-003
,,,-4.17500000e-009,1.20000001e-003
,,,-4.15000000e-009,1.22343751e-003
,,,-4.12500000e-009,1.22968751e-003
,,,-4.10000000e-009,1.22343751e-003
,,,-4.07500000e-009,1.20937501e-003
,,,-4.05000000e-009,1.19375001e-003
,,,-4.02500000e-009,1.18593751e-003
,,,-4.00000000e-009,1.18593751e-003
,,,-3.97500000e-009,1.20000001e-003
,,,-3.95000000e-009,1.22187501e-003
,,,-3.92500000e-009,1.25000001e-003
,,,-3.90000000e-009,1.28125002e-003
,,,-3.87500000e-009,1.30625002e-003
,,,-3.85000000e-009,1.31718752e-003
,,,-3.82500000e-009,1.30781252e-003
,,,-3.80000000e-009,1.26875002e-003
,,,-3.77500000e-009,1.20000001e-003
,,,-3.75000000e-009,1.10156250e-003
,,,-3.72500000e-009,9.79687495e-004
,,,-3.70000000e-009,8.45312485e-004
,,,-3.67500000e-009,7.12499976e-004
,,,-3.65000000e-009,5.89062467e-004
,,,-3.62500000e-009,4.90624960e-004
,,,-3.60000000e-009,4.24999956e-004
,,,-3.57500000e-009,3.99999954e-004
,,,-3.55000000e-009,4.24999956e-004
,,,-3.52500000e-009,4.90624960e-004
,,,-3.50000000e-009,5.90624967e-004
,,,-3.47500000e-009,7.14062476e-004
,,,-3.45000000e-009,8.48437486e-004
,,,-3.42500000e-009,9.82812495e-004
,,,-3.40000000e-009,1.10468750e-003
,,,-3.37500000e-009,1.20000001e-003
,,,-3.35000000e-009,1.25937501e-003
,,,-3.32500000e-009,1.27812502e-003
,,,-3.30000000e-009,1.26093751e-003
,,,-3.27500000e-009,1.20937501e-003
,,,-3.25000000e-009,1.12968751e-003
,,,-3.22500000e-009,1.02812500e-003
,,,-3.20000000e-009,9.17187490e-004
,,,-3.17500000e-009,7.99999982e-004
,,,-3.15000000e-009,6.92187474e-004
,,,-3.12500000e-009,5.95312468e-004
,,,-3.10000000e-009,5.15624962e-004
,,,-3.07500000e-009,4.56249958e-004
,,,-3.05000000e-009,4.14062455e-004
,,,-3.02500000e-009,3.92187453e-004
,,,-3.00000000e-009,3.89062453e-004
,,,-2.97500000e-009,3.99999954e-004
,,,-2.95000000e-009,4.31249956e-004
,,,-2.92500000e-009,4.71874959e-004
,,,-2.90000000e-009,5.21874962e-004
,,,-2.87500000e-009,5.74999966e-004
,,,-2.85000000e-009,6.32812470e-004
,,,-2.82500000e-009,6.90624974e-004
,,,-2.80000000e-009,7.46874978e-004
,,,-2.77500000e-009,7.99999982e-004
,,,-2.75000000e-009,8.48437486e-004
,,,-2.72500000e-009,8.87499988e-004
,,,-2.70000000e-009,9.12499990e-004
,,,-2.67500000e-009,9.21874991e-004
,,,-2.65000000e-009,9.15624990e-004
,,,-2.62500000e-009,8.93749989e-004
,,,-2.60000000e-009,8.54687486e-004
,,,-2.57500000e-009,7.99999982e-004
,,,-2.55000000e-009,7.34374977e-004
,,,-2.52500000e-009,6.64062472e-004
,,,-2.50000000e-009,5.93749968e-004
,,,-2.47500000e-009,5.26562463e-004
,,,-2.45000000e-009,4.71874959e-004
,,,-2.42500000e-009,4.29687456e-004
,,,-2.40000000e-009,4.04687454e-004
,,,-2.37500000e-009,3.99999954e-004
,,,-2.35000000e-009,4.23437455e-004
,,,-2.32500000e-009,4.62499958e-004
,,,-2.30000000e-009,5.14062462e-004
,,,-2.27500000e-009,5.74999966e-004
,,,-2.25000000e-009,6.39062471e-004
,,,-2.22500000e-009,7.01562475e-004
,,,-2.20000000e-009,7.56249979e-004
,,,-2.17500000e-009,7.99999982e-004
,,,-2.15000000e-009,8.32812484e-004
,,,-2.12500000e-009,8.49999986e-004
,,,-2.10000000e-009,8.54687486e-004
,,,-2.07500000e-009,8.49999986e-004
,,,-2.05000000e-009,8.39062485e-004
,,,-2.02500000e-009,8.24999984e-004
,,,-2.00000000e-009,8.10937483e-004
,,,-1.97500000e-009,7.99999982e-004
,,,-1.95000000e-009,7.93749982e-004
,,,-1.92500000e-009,7.92187482e-004
,,,-1.90000000e-009,7.95312482e-004
,,,-1.87500000e-009,8.01562482e-004
,,,-1.85000000e-009,8.06249983e-004
,,,-1.82500000e-009,8.09374983e-004
,,,-1.80000000e-009,8.07812483e-004
,,,-1.77500000e-009,7.99999982e-004
,,,-1.75000000e-009,7.85937481e-004
,,,-1.72500000e-009,7.68749980e-004
,,,-1.70000000e-009,7.51562479e-004
,,,-1.67500000e-009,7.37499978e-004
,,,-1.65000000e-009,7.32812477e-004
,,,-1.62500000e-009,7.39062478e-004
,,,-1.60000000e-009,7.62499979e-004
,,,-1.57500000e-009,7.99999982e-004
,,,-1.55000000e-009,8.49999986e-004
,,,-1.52500000e-009,9.10937490e-004
,,,-1.50000000e-009,9.76562495e-004
,,,-1.47500000e-009,1.04375000e-003
,,,-1.45000000e-009,1.10468750e-003
,,,-1.42500000e-009,1.15468751e-003
,,,-1.40000000e-009,1.18750001e-003
,,,-1.37500000e-009,1.20000001e-003
,,,-1.35000000e-009,1.17812501e-003
,,,-1.32500000e-009,1.13593751e-003
,,,-1.30000000e-009,1.07812500e-003
,,,-1.27500000e-009,1.01250000e-003
,,,-1.25000000e-009,9.45312492e-004
,,,-1.22500000e-009,8.84374988e-004
,,,-1.20000000e-009,8.34374985e-004
,,,-1.17500000e-009,7.99999982e-004
,,,-1.15000000e-009,7.65624980e-004
,,,-1.12500000e-009,7.45312478e-004
,,,-1.10000000e-009,7.39062478e-004
,,,-1.07500000e-009,7.43749978e-004
,,,-1.05000000e-009,7.57812479e-004
,,,-1.02500000e-009,7.73437480e-004
,,,-1.00000000e-009,7.90624981e-004
,,,-9.75000000e-010,7.99999982e-004
,,,-9.50000000e-010,7.71874980e-004
,,,-9.25000000e-010,7.28124977e-004
,,,-9.00000000e-010,6.71874973e-004
,,,-8.75000000e-010,6.10937469e-004
,,,-8.50000000e-010,5.46874964e-004
,,,-8.25000000e-010,4.89062460e-004
,,,-8.00000000e-010,4.39062457e-004
,,,-7.75000000e-010,3.99999954e-004
,,,-7.50000000e-010,3.32812449e-004
,,,-7.25000000e-010,2.70312445e-004
,,,-7.00000000e-010,2.14062441e-004
,,,-6.75000000e-010,1.64062437e-004
,,,-6.50000000e-010,1.20312434e-004
,,,-6.25000000e-010,8.12499312e-005
,,,-6.00000000e-010,4.21874285e-005
,,,-5.75000000e-010,-7.45058060e-011
,,,-5.50000000e-010,-9.37500811e-005
,,,-5.25000000e-010,-2.07812589e-004
,,,-5.00000000e-010,-3.40625099e-004
,,,-4.75000000e-010,-4.89062609e-004
,,,-4.50000000e-010,-6.53125121e-004
,,,-4.25000000e-010,-8.26562633e-004
,,,-4.00000000e-010,-1.00937515e-003
,,,-3.75000000e-010,-1.20000016e-003
,,,-3.50000000e-010,-1.43437518e-003
,,,-3.25000000e-010,-1.68125019e-003
,,,-3.00000000e-010,-1.93593771e-003
,,,-2.75000000e-010,-2.19531273e-003
,,,-2.50000000e-010,-2.45312525e-003
,,,-2.25000000e-010,-2.70781277e-003
,,,-2.00000000e-010,-2.95625028e-003
,,,-1.75000000e-010,-3.20000030e-003
,,,-1.50000000e-010,-3.46406282e-003
,,,-1.25000000e-010,-3.73593784e-003
,,,-1.00000000e-010,-4.01718786e-003
,,,-7.50000000e-011,-4.31093788e-003
,,,-5.00000000e-011,-4.61562540e-003
,,,-2.50000000e-011,-4.93125042e-003
,,,0.00000000e+000,-5.25937545e-003
,,,2.50000000e-011,-5.60000047e-003
,,,5.00000000e-011,-5.94531300e-003
,,,7.50000000e-011,-6.30468802e-003
,,,1.00000000e-010,-6.67343805e-003
,,,1.25000000e-010,-7.04375057e-003
,,,1.50000000e-010,-7.40781310e-003
,,,1.75000000e-010,-7.75937562e-003
,,,2.00000000e-010,-8.09218815e-003
,,,2.25000000e-010,-8.40000067e-003
,,,2.50000000e-010,-8.65000069e-003
,,,2.75000000e-010,-8.88281320e-003
,,,3.00000000e-010,-9.09531322e-003
,,,3.25000000e-010,-9.29531323e-003
,,,3.50000000e-010,-9.48281325e-003
,,,3.75000000e-010,-9.66093826e-003
,,,4.00000000e-010,-9.83281327e-003
,,,4.25000000e-010,-1.00000008e-002
,,,4.50000000e-010,-1.01171883e-002
,,,4.75000000e-010,-1.02437508e-002
,,,5.00000000e-010,-1.03812508e-002
,,,5.25000000e-010,-1.05328133e-002
,,,5.50000000e-010,-1.06937508e-002
,,,5.75000000e-010,-1.08625008e-002
,,,6.00000000e-010,-1.10328134e-002
,,,6.25000000e-010,-1.12000009e-002
,,,6.50000000e-010,-1.12937509e-002
,,,6.75000000e-010,-1.13796884e-002
,,,7.00000000e-010,-1.14546884e-002
,,,7.25000000e-010,-1.15187509e-002
,,,7.50000000e-010,-1.15671884e-002
,,,7.75000000e-010,-1.15984384e-002
,,,8.00000000e-010,-1.16093759e-002
,,,8.25000000e-010,-1.16000009e-002
,,,8.50000000e-010,-1.15031259e-002
,,,8.75000000e-010,-1.13953134e-002
,,,9.00000000e-010,-1.12812509e-002
,,,9.25000000e-010,-1.11671884e-002
,,,9.50000000e-010,-1.10593759e-002
,,,9.75000000e-010,-1.09609384e-002
,,,1.00000000e-009,-1.08750008e-002
,,,1.02500000e-009,-1.08000008e-002
,,,1.05000000e-009,-1.06859383e-002
,,,1.07500000e-009,-1.05828133e-002
,,,1.10000000e-009,-1.04890633e-002
,,,1.12500000e-009,-1.04000008e-002
,,,1.15000000e-009,-1.03125008e-002
,,,1.17500000e-009,-1.02187508e-002
,,,1.20000000e-009,-1.01171883e-002
,,,1.22500000e-009,-1.00000008e-002
,,,1.25000000e-009,-9.82656327e-003
,,,1.27500000e-009,-9.63437576e-003
,,,1.30000000e-009,-9.42968824e-003
,,,1.32500000e-009,-9.21562573e-003
,,,1.35000000e-009,-9.00156321e-003
,,,1.37500000e-009,-8.79062570e-003
,,,1.40000000e-009,-8.58906318e-003
,,,1.42500000e-009,-8.40000067e-003
,,,1.45000000e-009,-8.19843815e-003
,,,1.47500000e-009,-8.00312564e-003
,,,1.50000000e-009,-7.81093813e-003
,,,1.52500000e-009,-7.62031311e-003
,,,1.55000000e-009,-7.42500060e-003
,,,1.57500000e-009,-7.22500059e-003
,,,1.60000000e-009,-7.01562557e-003
,,,1.62500000e-009,-6.80000056e-003
,,,1.65000000e-009,-6.57343804e-003
,,,1.67500000e-009,-6.34062552e-003
,,,1.70000000e-009,-6.10468801e-003
,,,1.72500000e-009,-5.87656299e-003
,,,1.75000000e-009,-5.66406298e-003
,,,1.77500000e-009,-5.47656296e-003
,,,1.80000000e-009,-5.32031295e-003
,,,1.82500000e-009,-5.20000044e-003
,,,1.85000000e-009,-5.12343794e-003
,,,1.87500000e-009,-5.07187543e-003
,,,1.90000000e-009,-5.03437543e-003
,,,1.92500000e-009,-5.00468793e-003
,,,1.95000000e-009,-4.97500043e-003
,,,1.97500000e-009,-4.93593792e-003
,,,2.00000000e-009,-4.87968792e-003
,,,2.02500000e-009,-4.80000041e-003
,,,2.05000000e-009,-4.69687541e-003
,,,2.07500000e-009,-4.55468790e-003
,,,2.10000000e-009,-4.37500038e-003
,,,2.12500000e-009,-4.16406287e-003
,,,2.15000000e-009,-3.92968785e-003
,,,2.17500000e-009,-3.68437534e-003
,,,2.20000000e-009,-3.43593782e-003
,,,2.22500000e-009,-3.20000030e-003
,,,2.25000000e-009,-3.00000029e-003
,,,2.27500000e-009,-2.82031277e-003
,,,2.30000000e-009,-2.66875026e-003
,,,2.32500000e-009,-2.54687525e-003
,,,2.35000000e-009,-2.45781275e-003
,,,2.37500000e-009,-2.40468774e-003
,,,2.40000000e-009,-2.38593774e-003
,,,2.42500000e-009,-2.40000024e-003
,,,2.45000000e-009,-2.45625025e-003
,,,2.47500000e-009,-2.52500025e-003
,,,2.50000000e-009,-2.59687526e-003
,,,2.52500000e-009,-2.66562526e-003
,,,2.55000000e-009,-2.72500027e-003
,,,2.57500000e-009,-2.77031277e-003
,,,2.60000000e-009,-2.79531277e-003
,,,2.62500000e-009,-2.80000027e-003
,,,2.65000000e-009,-2.77968777e-003
,,,2.67500000e-009,-2.72812527e-003
,,,2.70000000e-009,-2.64843776e-003
,,,2.72500000e-009,-2.54375025e-003
,,,2.75000000e-009,-2.41875025e-003
,,,2.77500000e-009,-2.28281274e-003
,,,2.80000000e-009,-2.14062523e-003
,,,2.82500000e-009,-2.00000022e-003
,,,2.85000000e-009,-1.86718771e-003
,,,2.87500000e-009,-1.74062520e-003
,,,2.90000000e-009,-1.62343769e-003
,,,2.92500000e-009,-1.51562518e-003
,,,2.95000000e-009,-1.41875017e-003
,,,2.97500000e-009,-1.33281267e-003
,,,3.00000000e-009,-1.25937516e-003
,,,3.02500000e-009,-1.20000016e-003
,,,3.05000000e-009,-1.15781266e-003
,,,3.07500000e-009,-1.12656265e-003
,,,3.10000000e-009,-1.10468765e-003
,,,3.12500000e-009,-1.09531265e-003
,,,3.15000000e-009,-1.09843765e-003
,,,3.17500000e-009,-1.11875015e-003
,,,3.20000000e-009,-1.15156266e-003
,,,3.22500000e-009,-1.20000016e-003
,,,3.25000000e-009,-1.25625016e-003
,,,3.27500000e-009,-1.31093767e-003
,,,3.30000000e-009,-1.35468767e-003
,,,3.32500000e-009,-1.38125017e-003
,,,3.35000000e-009,-1.38437517e-003
,,,3.37500000e-009,-1.35625017e-003
,,,3.40000000e-009,-1.29531267e-003
,,,3.42500000e-009,-1.20000016e-003
,,,3.45000000e-009,-1.06875015e-003
,,,3.47500000e-009,-9.10937639e-004
,,,3.50000000e-009,-7.37500127e-004
,,,3.52500000e-009,-5.56250114e-004
,,,3.55000000e-009,-3.82812602e-004
,,,3.57500000e-009,-2.25000090e-004
,,,3.60000000e-009,-9.53125813e-005
,,,3.62500000e-009,-7.45058060e-011
,,,3.65000000e-009,5.15624291e-005
,,,3.67500000e-009,7.34374307e-005
,,,3.70000000e-009,6.87499304e-005
,,,3.72500000e-009,4.99999290e-005
,,,3.75000000e-009,2.49999273e-005
,,,3.77500000e-009,3.12492572e-006
,,,3.80000000e-009,-6.25007495e-006
,,,3.82500000e-009,-7.45058060e-011
,,,3.85000000e-009,2.34374272e-005
,,,3.87500000e-009,6.71874302e-005
,,,3.90000000e-009,1.29687435e-004
,,,3.92500000e-009,1.99999940e-004
,,,3.95000000e-009,2.71874945e-004
,,,3.97500000e-009,3.34374949e-004
,,,4.00000000e-009,3.79687452e-004
,,,4.02500000e-009,3.99999954e-004
,,,4.05000000e-009,3.90624953e-004
,,,4.07500000e-009,3.54687451e-004
,,,4.10000000e-009,2.99999947e-004
,,,4.12500000e-009,2.32812442e-004
,,,4.15000000e-009,1.60937437e-004
,,,4.17500000e-009,9.21874320e-005
,,,4.20000000e-009,3.74999281e-005
,,,4.22500000e-009,-7.45058060e-011
,,,4.25000000e-009,-1.40625755e-005
,,,4.27500000e-009,-3.12507473e-006
,,,4.30000000e-009,3.43749279e-005
,,,4.32500000e-009,9.37499321e-005
,,,4.35000000e-009,1.67187437e-004
,,,4.37500000e-009,2.46874943e-004
,,,4.40000000e-009,3.28124949e-004
,,,4.42500000e-009,3.99999954e-004
,,,4.45000000e-009,4.56249958e-004
,,,4.47500000e-009,4.95312461e-004
,,,4.50000000e-009,5.17187462e-004
,,,4.52500000e-009,5.20312462e-004
,,,4.55000000e-009,5.07812461e-004
,,,4.57500000e-009,4.81249960e-004
,,,4.60000000e-009,4.43749957e-004
,,,4.62500000e-009,3.99999954e-004
,,,4.65000000e-009,3.56249951e-004
,,,4.67500000e-009,3.17187448e-004
,,,4.70000000e-009,2.89062446e-004
,,,4.72500000e-009,2.74999945e-004
,,,4.75000000e-009,2.78124945e-004
,,,4.77500000e-009,2.99999947e-004
,,,4.80000000e-009,3.42187450e-004
,,,4.82500000e-009,3.99999954e-004
,,,4.85000000e-009,4.74999959e-004
,,,4.87500000e-009,5.54687465e-004
,,,4.90000000e-009,6.35937471e-004
,,,4.92500000e-009,7.09374976e-004
,,,4.95000000e-009,7.68749980e-004
,,,4.97500000e-009,8.04687482e-004
,,,5.00000000e-009,8.17187483e-004
,,,5.02500000e-009,7.99999982e-004
,,,5.05000000e-009,7.56249979e-004
,,,5.07500000e-009,6.92187474e-004
,,,5.10000000e-009,6.15624969e-004
,,,5.12500000e-009,5.39062464e-004
,,,5.15000000e-009,4.71874959e-004
,,,5.17500000e-009,4.21874955e-004
,,,5.20000000e-009,3.96874954e-004
,,,5.22500000e-009,3.99999954e-004
,,,5.25000000e-009,4.32812456e-004
,,,5.27500000e-009,4.89062460e-004
,,,5.30000000e-009,5.62499965e-004
,,,5.32500000e-009,6.42187471e-004
,,,5.35000000e-009,7.15624976e-004
,,,5.37500000e-009,7.71874980e-004
,,,5.40000000e-009,8.01562482e-004
,,,5.42500000e-009,7.99999982e-004
,,,5.45000000e-009,7.67187480e-004
,,,5.47500000e-009,7.06249975e-004
,,,5.50000000e-009,6.28124970e-004
,,,5.52500000e-009,5.43749964e-004
,,,5.55000000e-009,4.68749959e-004
,,,5.57500000e-009,4.12499955e-004
,,,5.60000000e-009,3.87499953e-004
,,,5.62500000e-009,3.99999954e-004
,,,5.65000000e-009,4.56249958e-004
,,,5.67500000e-009,5.48437464e-004
,,,5.70000000e-009,6.67187473e-004
,,,5.72500000e-009,7.99999982e-004
,,,5.75000000e-009,9.35937492e-004
,,,5.77500000e-009,1.05468750e-003
,,,5.80000000e-009,1.14687501e-003
,,,5.82500000e-009,1.20000001e-003
,,,5.85000000e-009,1.20312501e-003
,,,5.87500000e-009,1.16093751e-003
,,,5.90000000e-009,1.07656250e-003
,,,5.92500000e-009,9.59374993e-004
,,,5.95000000e-009,8.21874984e-004
,,,5.97500000e-009,6.73437473e-004
,,,6.00000000e-009,5.29687463e-004
,,,6.02500000e-009,3.99999954e-004
,,,6.05000000e-009,2.98437447e-004
,,,6.07500000e-009,2.28124942e-004
