RawData/CosmicRays/L7_2pt2A_15mV/wave015_Ch1.csv

"Record Length",1000,"Points",-7.72500000e-009,-2.65623175e-004
"Sample Interval",2.50000000e-011,s,-7.70000000e-009,-2.45310673e-004
"Trigger Point",309,"Samples",-7.67500000e-009,-2.23435672e-004
"Trigger Time",1.67227027e-011,s,-7.65000000e-009,-1.99998170e-004
"",,,-7.62500000e-009,-1.85935669e-004
"Horizontal Offset",-7.72500000e-009,s,-7.60000000e-009,-1.76560668e-004
,,,-7.57500000e-009,-1.73435668e-004
,,,-7.55000000e-009,-1.74998168e-004
,,,-7.52500000e-009,-1.79685669e-004
,,,-7.50000000e-009,-1.87498169e-004
,,,-7.47500000e-009,-1.95310670e-004
,,,-7.45000000e-009,-1.99998170e-004
,,,-7.42500000e-009,-2.04685670e-004
,,,-7.40000000e-009,-2.04685670e-004
,,,-7.37500000e-009,-2.03123170e-004
,,,-7.35000000e-009,-2.01560670e-004
,,,-7.32500000e-009,-1.98435670e-004
,,,-7.30000000e-009,-1.96873170e-004
,,,-7.27500000e-009,-1.96873170e-004
,,,-7.25000000e-009,-1.99998170e-004
,,,-7.22500000e-009,-2.06248171e-004
,,,-7.20000000e-009,-2.14060671e-004
,,,-7.17500000e-009,-2.21873172e-004
,,,-7.15000000e-009,-2.26560672e-004
,,,-7.12500000e-009,-2.28123172e-004
,,,-7.10000000e-009,-2.24998172e-004
,,,-7.07500000e-009,-2.15623171e-004
,,,-7.05000000e-009,-1.99998170e-004
,,,-7.02500000e-009,-1.81248169e-004
,,,-7.00000000e-009,-1.59373167e-004
,,,-6.97500000e-009,-1.40623166e-004
,,,-6.95000000e-009,-1.29685665e-004
,,,-6.92500000e-009,-1.26560665e-004
,,,-6.90000000e-009,-1.35935666e-004
,,,-6.87500000e-009,-1.60935667e-004
,,,-6.85000000e-009,-1.99998170e-004
,,,-6.82500000e-009,-2.53123174e-004
,,,-6.80000000e-009,-3.15623178e-004
,,,-6.77500000e-009,-3.82810683e-004
,,,-6.75000000e-009,-4.48435688e-004
,,,-6.72500000e-009,-5.07810692e-004
,,,-6.70000000e-009,-5.56248195e-004
,,,-6.67500000e-009,-5.89060698e-004
,,,-6.65000000e-009,-5.99998198e-004
,,,-6.62500000e-009,-5.85935697e-004
,,,-6.60000000e-009,-5.53123195e-004
,,,-6.57500000e-009,-5.03123192e-004
,,,-6.55000000e-009,-4.42185687e-004
,,,-6.52500000e-009,-3.74998183e-004
,,,-6.50000000e-009,-3.09373178e-004
,,,-6.47500000e-009,-2.49998174e-004
,,,-6.45000000e-009,-1.99998170e-004
,,,-6.42500000e-009,-1.64060668e-004
,,,-6.40000000e-009,-1.42185666e-004
,,,-6.37500000e-009,-1.34373165e-004
,,,-6.35000000e-009,-1.37498166e-004
,,,-6.32500000e-009,-1.49998167e-004
,,,-6.30000000e-009,-1.67185668e-004
,,,-6.27500000e-009,-1.84373169e-004
,,,-6.25000000e-009,-1.99998170e-004
,,,-6.22500000e-009,-2.10935671e-004
,,,-6.20000000e-009,-2.14060671e-004
,,,-6.17500000e-009,-2.14060671e-004
,,,-6.15000000e-009,-2.09373171e-004
,,,-6.12500000e-009,-2.03123170e-004
,,,-6.10000000e-009,-1.99998170e-004
,,,-6.07500000e-009,-1.98435670e-004
,,,-6.05000000e-009,-1.99998170e-004
,,,-6.02500000e-009,-2.06248171e-004
,,,-6.00000000e-009,-2.14060671e-004
,,,-5.97500000e-009,-2.24998172e-004
,,,-5.95000000e-009,-2.32810672e-004
,,,-5.92500000e-009,-2.37498173e-004
,,,-5.90000000e-009,-2.35935673e-004
,,,-5.87500000e-009,-2.23435672e-004
,,,-5.85000000e-009,-1.99998170e-004
,,,-5.82500000e-009,-1.65623168e-004
,,,-5.80000000e-009,-1.18748164e-004
,,,-5.77500000e-009,-6.56231606e-005
,,,-5.75000000e-009,-7.81065653e-006
,,,-5.72500000e-009,5.15643477e-005
,,,-5.70000000e-009,1.07814352e-004
,,,-5.67500000e-009,1.57814355e-004
,,,-5.65000000e-009,2.00001858e-004
,,,-5.62500000e-009,2.28126860e-004
,,,-5.60000000e-009,2.46876861e-004
,,,-5.57500000e-009,2.54689362e-004
,,,-5.55000000e-009,2.53126862e-004
,,,-5.52500000e-009,2.45314361e-004
,,,-5.50000000e-009,2.32814360e-004
,,,-5.47500000e-009,2.15626859e-004
,,,-5.45000000e-009,2.00001858e-004
,,,-5.42500000e-009,1.82814357e-004
,,,-5.40000000e-009,1.70314356e-004
,,,-5.37500000e-009,1.62501856e-004
,,,-5.35000000e-009,1.59376855e-004
,,,-5.32500000e-009,1.64064356e-004
,,,-5.30000000e-009,1.71876856e-004
,,,-5.27500000e-009,1.84376857e-004
,,,-5.25000000e-009,2.00001858e-004
,,,-5.22500000e-009,2.10939359e-004
,,,-5.20000000e-009,2.21876860e-004
,,,-5.17500000e-009,2.29689360e-004
,,,-5.15000000e-009,2.32814360e-004
,,,-5.12500000e-009,2.32814360e-004
,,,-5.10000000e-009,2.26564360e-004
,,,-5.07500000e-009,2.14064359e-004
,,,-5.05000000e-009,2.00001858e-004
,,,-5.02500000e-009,1.78126857e-004
,,,-5.00000000e-009,1.57814355e-004
,,,-4.97500000e-009,1.39064354e-004
,,,-4.95000000e-009,1.29689353e-004
,,,-4.92500000e-009,1.28126853e-004
,,,-4.90000000e-009,1.39064354e-004
,,,-4.87500000e-009,1.62501856e-004
,,,-4.85000000e-009,2.00001858e-004
,,,-4.82500000e-009,2.45314361e-004
,,,-4.80000000e-009,3.00001865e-004
,,,-4.77500000e-009,3.60939370e-004
,,,-4.75000000e-009,4.23439374e-004
,,,-4.72500000e-009,4.82814378e-004
,,,-4.70000000e-009,5.34376882e-004
,,,-4.67500000e-009,5.75001885e-004
,,,-4.65000000e-009,6.00001886e-004
,,,-4.62500000e-009,6.00001886e-004
,,,-4.60000000e-009,5.82814385e-004
,,,-4.57500000e-009,5.46876883e-004
,,,-4.55000000e-009,4.95314379e-004
,,,-4.52500000e-009,4.29689374e-004
,,,-4.50000000e-009,3.57814369e-004
,,,-4.47500000e-009,2.78126864e-004
,,,-4.45000000e-009,2.00001858e-004
,,,-4.42500000e-009,1.21876853e-004
,,,-4.40000000e-009,5.15643477e-005
,,,-4.37500000e-009,-1.09356568e-005
,,,-4.35000000e-009,-6.56231606e-005
,,,-4.32500000e-009,-1.10935664e-004
,,,-4.30000000e-009,-1.48435666e-004
,,,-4.27500000e-009,-1.78123169e-004
,,,-4.25000000e-009,-1.99998170e-004
,,,-4.22500000e-009,-2.15623171e-004
,,,-4.20000000e-009,-2.24998172e-004
,,,-4.17500000e-009,-2.29685672e-004
,,,-4.15000000e-009,-2.31248172e-004
,,,-4.12500000e-009,-2.28123172e-004
,,,-4.10000000e-009,-2.21873172e-004
,,,-4.07500000e-009,-2.12498171e-004
,,,-4.05000000e-009,-1.99998170e-004
,,,-4.02500000e-009,-1.84373169e-004
,,,-4.00000000e-009,-1.70310668e-004
,,,-3.97500000e-009,-1.59373167e-004
,,,-3.95000000e-009,-1.53123167e-004
,,,-3.92500000e-009,-1.53123167e-004
,,,-3.90000000e-009,-1.62498167e-004
,,,-3.87500000e-009,-1.78123169e-004
,,,-3.85000000e-009,-1.99998170e-004
,,,-3.82500000e-009,-2.23435672e-004
,,,-3.80000000e-009,-2.48435674e-004
,,,-3.77500000e-009,-2.68748175e-004
,,,-3.75000000e-009,-2.82810676e-004
,,,-3.72500000e-009,-2.84373176e-004
,,,-3.70000000e-009,-2.73435675e-004
,,,-3.67500000e-009,-2.45310673e-004
,,,-3.65000000e-009,-1.99998170e-004
,,,-3.62500000e-009,-1.37498166e-004
,,,-3.60000000e-009,-6.56231606e-005
,,,-3.57500000e-009,7.81434457e-006
,,,-3.55000000e-009,7.81268495e-005
,,,-3.52500000e-009,1.37501854e-004
,,,-3.50000000e-009,1.79689357e-004
,,,-3.47500000e-009,2.01564358e-004
,,,-3.45000000e-009,2.00001858e-004
,,,-3.42500000e-009,1.75001856e-004
,,,-3.40000000e-009,1.31251853e-004
,,,-3.37500000e-009,7.34393492e-005
,,,-3.35000000e-009,6.25184446e-006
,,,-3.32500000e-009,-6.24981604e-005
,,,-3.30000000e-009,-1.23435665e-004
,,,-3.27500000e-009,-1.71873168e-004
,,,-3.25000000e-009,-1.99998170e-004
,,,-3.22500000e-009,-2.07810671e-004
,,,-3.20000000e-009,-1.90623169e-004
,,,-3.17500000e-009,-1.51560667e-004
,,,-3.15000000e-009,-9.53106627e-005
,,,-3.12500000e-009,-2.49981578e-005
,,,-3.10000000e-009,5.15643477e-005
,,,-3.07500000e-009,1.28126853e-004
,,,-3.05000000e-009,2.00001858e-004
,,,-3.02500000e-009,2.54689362e-004
,,,-3.00000000e-009,2.95314365e-004
,,,-2.97500000e-009,3.17189366e-004
,,,-2.95000000e-009,3.20314367e-004
,,,-2.92500000e-009,3.07814366e-004
,,,-2.90000000e-009,2.81251864e-004
,,,-2.87500000e-009,2.42189361e-004
,,,-2.85000000e-009,2.00001858e-004
,,,-2.82500000e-009,1.51564355e-004
,,,-2.80000000e-009,1.09376852e-004
,,,-2.77500000e-009,7.96893497e-005
,,,-2.75000000e-009,6.40643486e-005
,,,-2.72500000e-009,6.71893488e-005
,,,-2.70000000e-009,9.21893505e-005
,,,-2.67500000e-009,1.35939354e-004
,,,-2.65000000e-009,2.00001858e-004
,,,-2.62500000e-009,2.70314363e-004
,,,-2.60000000e-009,3.50001869e-004
,,,-2.57500000e-009,4.29689374e-004
,,,-2.55000000e-009,5.03126880e-004
,,,-2.52500000e-009,5.62501884e-004
,,,-2.50000000e-009,6.01564387e-004
,,,-2.47500000e-009,6.15626888e-004
,,,-2.45000000e-009,6.00001886e-004
,,,-2.42500000e-009,5.46876883e-004
,,,-2.40000000e-009,4.67189377e-004
,,,-2.37500000e-009,3.65626870e-004
,,,-2.35000000e-009,2.48439362e-004
,,,-2.32500000e-009,1.25001853e-004
,,,-2.30000000e-009,4.68934435e-006
,,,-2.27500000e-009,-1.06248164e-004
,,,-2.25000000e-009,-1.99998170e-004
,,,-2.22500000e-009,-2.71873175e-004
,,,-2.20000000e-009,-3.18748179e-004
,,,-2.17500000e-009,-3.39060680e-004
,,,-2.15000000e-009,-3.37498180e-004
,,,-2.12500000e-009,-3.17185678e-004
,,,-2.10000000e-009,-2.84373176e-004
,,,-2.07500000e-009,-2.43748173e-004
,,,-2.05000000e-009,-1.99998170e-004
,,,-2.02500000e-009,-1.67185668e-004
,,,-2.00000000e-009,-1.42185666e-004
,,,-1.97500000e-009,-1.28123165e-004
,,,-1.95000000e-009,-1.24998165e-004
,,,-1.92500000e-009,-1.32810665e-004
,,,-1.90000000e-009,-1.48435666e-004
,,,-1.87500000e-009,-1.71873168e-004
,,,-1.85000000e-009,-1.99998170e-004
,,,-1.82500000e-009,-2.45310673e-004
,,,-1.80000000e-009,-2.95310677e-004
,,,-1.77500000e-009,-3.48435681e-004
,,,-1.75000000e-009,-4.01560684e-004
,,,-1.72500000e-009,-4.56248188e-004
,,,-1.70000000e-009,-5.09373192e-004
,,,-1.67500000e-009,-5.57810695e-004
,,,-1.65000000e-009,-5.99998198e-004
,,,-1.62500000e-009,-6.54685702e-004
,,,-1.60000000e-009,-7.01560706e-004
,,,-1.57500000e-009,-7.35935708e-004
,,,-1.55000000e-009,-7.54685709e-004
,,,-1.52500000e-009,-7.53123209e-004
,,,-1.50000000e-009,-7.26560707e-004
,,,-1.47500000e-009,-6.74998204e-004
,,,-1.45000000e-009,-5.99998198e-004
,,,-1.42500000e-009,-5.37498194e-004
,,,-1.40000000e-009,-4.70310689e-004
,,,-1.37500000e-009,-3.99998184e-004
,,,-1.35000000e-009,-3.34373180e-004
,,,-1.32500000e-009,-2.76560676e-004
,,,-1.30000000e-009,-2.32810672e-004
,,,-1.27500000e-009,-2.04685670e-004
,,,-1.25000000e-009,-1.99998170e-004
,,,-1.22500000e-009,-2.74998175e-004
,,,-1.20000000e-009,-3.84373183e-004
,,,-1.17500000e-009,-5.23435693e-004
,,,-1.15000000e-009,-6.85935705e-004
,,,-1.12500000e-009,-8.60935717e-004
,,,-1.10000000e-009,-1.04374823e-003
,,,-1.07500000e-009,-1.22499824e-003
,,,-1.05000000e-009,-1.39999826e-003
,,,-1.02500000e-009,-1.62812327e-003
,,,-1.00000000e-009,-1.85312329e-003
,,,-9.75000000e-010,-2.07343580e-003
,,,-9.50000000e-010,-2.28437332e-003
,,,-9.25000000e-010,-2.48124833e-003
,,,-9.00000000e-010,-2.66562334e-003
,,,-8.75000000e-010,-2.83749836e-003
,,,-8.50000000e-010,-2.99999837e-003
,,,-8.25000000e-010,-3.21406088e-003
,,,-8.00000000e-010,-3.44062340e-003
,,,-7.75000000e-010,-3.67812342e-003
,,,-7.50000000e-010,-3.92656093e-003
,,,-7.25000000e-010,-4.18593595e-003
,,,-7.00000000e-010,-4.45156097e-003
,,,-6.75000000e-010,-4.72343599e-003
,,,-6.50000000e-010,-4.99999851e-003
,,,-6.25000000e-010,-5.32499853e-003
,,,-6.00000000e-010,-5.66406106e-003
,,,-5.75000000e-010,-6.01562358e-003
,,,-5.50000000e-010,-6.37499861e-003
,,,-5.25000000e-010,-6.73593613e-003
,,,-5.00000000e-010,-7.09531116e-003
,,,-4.75000000e-010,-7.44999868e-003
,,,-4.50000000e-010,-7.79999871e-003
,,,-4.25000000e-010,-8.15624873e-003
,,,-4.00000000e-010,-8.52187376e-003
,,,-3.75000000e-010,-8.89843629e-003
,,,-3.50000000e-010,-9.29062381e-003
,,,-3.25000000e-010,-9.69531134e-003
,,,-3.00000000e-010,-1.01156239e-002
,,,-2.75000000e-010,-1.05515614e-002
,,,-2.50000000e-010,-1.09999989e-002
,,,-2.25000000e-010,-1.14296865e-002
,,,-2.00000000e-010,-1.18765615e-002
,,,-1.75000000e-010,-1.23374990e-002
,,,-1.50000000e-010,-1.28062491e-002
,,,-1.25000000e-010,-1.32749991e-002
,,,-1.00000000e-010,-1.37374991e-002
,,,-7.50000000e-011,-1.41812492e-002
,,,-5.00000000e-011,-1.45999992e-002
,,,-2.50000000e-011,-1.49156242e-002
,,,0.00000000e+000,-1.52046867e-002
,,,2.50000000e-011,-1.54734368e-002
,,,5.00000000e-011,-1.57249993e-002
,,,7.50000000e-011,-1.59624993e-002
,,,1.00000000e-010,-1.61874993e-002
,,,1.25000000e-010,-1.63999993e-002
,,,1.50000000e-010,-1.65999993e-002
,,,1.75000000e-010,-1.66890618e-002
,,,2.00000000e-010,-1.67671868e-002
,,,2.25000000e-010,-1.68390618e-002
,,,2.50000000e-010,-1.69015619e-002
,,,2.75000000e-010,-1.69531244e-002
,,,3.00000000e-010,-1.69906244e-002
,,,3.25000000e-010,-1.70078119e-002
,,,3.50000000e-010,-1.69999994e-002
,,,3.75000000e-010,-1.68687493e-002
,,,4.00000000e-010,-1.67187493e-002
,,,4.25000000e-010,-1.65593743e-002
,,,4.50000000e-010,-1.63968743e-002
,,,4.75000000e-010,-1.62374993e-002
,,,5.00000000e-010,-1.60843743e-002
,,,5.25000000e-010,-1.59390618e-002
,,,5.50000000e-010,-1.57999993e-002
,,,5.75000000e-010,-1.55812493e-002
,,,6.00000000e-010,-1.53624992e-002
,,,6.25000000e-010,-1.51421867e-002
,,,6.50000000e-010,-1.49140617e-002
,,,6.75000000e-010,-1.46718742e-002
,,,7.00000000e-010,-1.44109367e-002
,,,7.25000000e-010,-1.41218742e-002
,,,7.50000000e-010,-1.37999991e-002
,,,7.75000000e-010,-1.33890616e-002
,,,8.00000000e-010,-1.29453116e-002
,,,8.25000000e-010,-1.24812490e-002
,,,8.50000000e-010,-1.20046865e-002
,,,8.75000000e-010,-1.15281240e-002
,,,9.00000000e-010,-1.10624989e-002
,,,9.25000000e-010,-1.06171864e-002
,,,9.50000000e-010,-1.01999989e-002
,,,9.75000000e-010,-9.80624885e-003
,,,1.00000000e-009,-9.44218632e-003
,,,1.02500000e-009,-9.10937380e-003
,,,1.05000000e-009,-8.80312378e-003
,,,1.07500000e-009,-8.52343626e-003
,,,1.10000000e-009,-8.26718624e-003
,,,1.12500000e-009,-8.02656122e-003
,,,1.15000000e-009,-7.79999871e-003
,,,1.17500000e-009,-7.59843619e-003
,,,1.20000000e-009,-7.39374868e-003
,,,1.22500000e-009,-7.18437366e-003
,,,1.25000000e-009,-6.97343615e-003
,,,1.27500000e-009,-6.76406113e-003
,,,1.30000000e-009,-6.56406112e-003
,,,1.32500000e-009,-6.37499861e-003
,,,1.35000000e-009,-6.19999859e-003
,,,1.37500000e-009,-6.06874859e-003
,,,1.40000000e-009,-5.93593608e-003
,,,1.42500000e-009,-5.79999857e-003
,,,1.45000000e-009,-5.65624856e-003
,,,1.47500000e-009,-5.50468605e-003
,,,1.50000000e-009,-5.34531103e-003
,,,1.52500000e-009,-5.17656102e-003
,,,1.55000000e-009,-4.99999851e-003
,,,1.57500000e-009,-4.85468600e-003
,,,1.60000000e-009,-4.69531099e-003
,,,1.62500000e-009,-4.52656098e-003
,,,1.65000000e-009,-4.35468596e-003
,,,1.67500000e-009,-4.18906095e-003
,,,1.70000000e-009,-4.03593594e-003
,,,1.72500000e-009,-3.90468593e-003
,,,1.75000000e-009,-3.79999842e-003
,,,1.77500000e-009,-3.76406092e-003
,,,1.80000000e-009,-3.74687342e-003
,,,1.82500000e-009,-3.74374842e-003
,,,1.85000000e-009,-3.75156092e-003
,,,1.87500000e-009,-3.76562342e-003
,,,1.90000000e-009,-3.78124842e-003
,,,1.92500000e-009,-3.79374842e-003
,,,1.95000000e-009,-3.79999842e-003
,,,1.97500000e-009,-3.81874843e-003
,,,2.00000000e-009,-3.81562343e-003
,,,2.02500000e-009,-3.78906092e-003
,,,2.05000000e-009,-3.73906092e-003
,,,2.07500000e-009,-3.67187342e-003
,,,2.10000000e-009,-3.58906091e-003
,,,2.12500000e-009,-3.49687340e-003
,,,2.15000000e-009,-3.39999840e-003
,,,2.17500000e-009,-3.32187339e-003
,,,2.20000000e-009,-3.24374839e-003
,,,2.22500000e-009,-3.17187338e-003
,,,2.25000000e-009,-3.10937338e-003
,,,2.27500000e-009,-3.05781087e-003
,,,2.30000000e-009,-3.02187337e-003
,,,2.32500000e-009,-3.00156087e-003
,,,2.35000000e-009,-2.99999837e-003
,,,2.37500000e-009,-3.02656087e-003
,,,2.40000000e-009,-3.06562337e-003
,,,2.42500000e-009,-3.11249838e-003
,,,2.45000000e-009,-3.16718588e-003
,,,2.47500000e-009,-3.22499838e-003
,,,2.50000000e-009,-3.28593589e-003
,,,2.52500000e-009,-3.34531089e-003
,,,2.55000000e-009,-3.39999840e-003
,,,2.57500000e-009,-3.44843590e-003
,,,2.60000000e-009,-3.48281090e-003
,,,2.62500000e-009,-3.50156090e-003
,,,2.65000000e-009,-3.50624840e-003
,,,2.67500000e-009,-3.49687340e-003
,,,2.70000000e-009,-3.47499840e-003
,,,2.72500000e-009,-3.44218590e-003
,,,2.75000000e-009,-3.39999840e-003
,,,2.77500000e-009,-3.34687339e-003
,,,2.80000000e-009,-3.28749839e-003
,,,2.82500000e-009,-3.22656088e-003
,,,2.85000000e-009,-3.16718588e-003
,,,2.87500000e-009,-3.11406088e-003
,,,2.90000000e-009,-3.06718587e-003
,,,2.92500000e-009,-3.02812337e-003
,,,2.95000000e-009,-2.99999837e-003
,,,2.97500000e-009,-2.97968587e-003
,,,3.00000000e-009,-2.96562337e-003
,,,3.02500000e-009,-2.95937337e-003
,,,3.05000000e-009,-2.96093587e-003
,,,3.07500000e-009,-2.96874837e-003
,,,3.10000000e-009,-2.97812337e-003
,,,3.12500000e-009,-2.99062337e-003
,,,3.15000000e-009,-2.99999837e-003
,,,3.17500000e-009,-2.99687337e-003
,,,3.20000000e-009,-2.98281087e-003
,,,3.22500000e-009,-2.95624837e-003
,,,3.25000000e-009,-2.91562336e-003
,,,3.27500000e-009,-2.85781086e-003
,,,3.30000000e-009,-2.78593585e-003
,,,3.32500000e-009,-2.69999835e-003
,,,3.35000000e-009,-2.59999834e-003
,,,3.37500000e-009,-2.48437333e-003
,,,3.40000000e-009,-2.36249832e-003
,,,3.42500000e-009,-2.23906081e-003
,,,3.45000000e-009,-2.12187331e-003
,,,3.47500000e-009,-2.01562330e-003
,,,3.50000000e-009,-1.92343579e-003
,,,3.52500000e-009,-1.85156079e-003
,,,3.55000000e-009,-1.79999828e-003
,,,3.57500000e-009,-1.77187328e-003
,,,3.60000000e-009,-1.75781078e-003
,,,3.62500000e-009,-1.75937328e-003
,,,3.65000000e-009,-1.76874828e-003
,,,3.67500000e-009,-1.78124828e-003
,,,3.70000000e-009,-1.79374828e-003
,,,3.72500000e-009,-1.80156078e-003
,,,3.75000000e-009,-1.79999828e-003
,,,3.77500000e-009,-1.78749828e-003
,,,3.80000000e-009,-1.76093578e-003
,,,3.82500000e-009,-1.71874828e-003
,,,3.85000000e-009,-1.66406077e-003
,,,3.87500000e-009,-1.60156077e-003
,,,3.90000000e-009,-1.53437326e-003
,,,3.92500000e-009,-1.46562326e-003
,,,3.95000000e-009,-1.39999826e-003
,,,3.97500000e-009,-1.33906075e-003
,,,4.00000000e-009,-1.28124825e-003
,,,4.02500000e-009,-1.22656074e-003
,,,4.05000000e-009,-1.17656074e-003
,,,4.07500000e-009,-1.13124824e-003
,,,4.10000000e-009,-1.08593573e-003
,,,4.12500000e-009,-1.04374823e-003
,,,4.15000000e-009,-9.99998227e-004
,,,4.17500000e-009,-9.60935724e-004
,,,4.20000000e-009,-9.15623221e-004
,,,4.22500000e-009,-8.67185717e-004
,,,4.25000000e-009,-8.14060714e-004
,,,4.27500000e-009,-7.59373210e-004
,,,4.30000000e-009,-7.03123206e-004
,,,4.32500000e-009,-6.49998202e-004
,,,4.35000000e-009,-5.99998198e-004
,,,4.37500000e-009,-5.65623196e-004
,,,4.40000000e-009,-5.37498194e-004
,,,4.42500000e-009,-5.18748193e-004
,,,4.45000000e-009,-5.12498192e-004
,,,4.47500000e-009,-5.17185693e-004
,,,4.50000000e-009,-5.34373194e-004
,,,4.52500000e-009,-5.62498196e-004
,,,4.55000000e-009,-5.99998198e-004
,,,4.57500000e-009,-6.45310702e-004
,,,4.60000000e-009,-6.89060705e-004
,,,4.62500000e-009,-7.21873207e-004
,,,4.65000000e-009,-7.42185709e-004
,,,4.67500000e-009,-7.43748209e-004
,,,4.70000000e-009,-7.21873207e-004
,,,4.72500000e-009,-6.73435704e-004
,,,4.75000000e-009,-5.99998198e-004
,,,4.77500000e-009,-5.06248192e-004
,,,4.80000000e-009,-3.93748184e-004
,,,4.82500000e-009,-2.70310675e-004
,,,4.85000000e-009,-1.45310666e-004
,,,4.87500000e-009,-2.65606579e-005
,,,4.90000000e-009,7.50018493e-005
,,,4.92500000e-009,1.51564355e-004
,,,4.95000000e-009,2.00001858e-004
,,,4.97500000e-009,2.06251859e-004
,,,5.00000000e-009,1.84376857e-004
,,,5.02500000e-009,1.37501854e-004
,,,5.05000000e-009,7.18768491e-005
,,,5.07500000e-009,-1.56065609e-006
,,,5.10000000e-009,-7.65606614e-005
,,,5.12500000e-009,-1.45310666e-004
,,,5.15000000e-009,-1.99998170e-004
,,,5.17500000e-009,-2.43748173e-004
,,,5.20000000e-009,-2.67185675e-004
,,,5.22500000e-009,-2.71873175e-004
,,,5.25000000e-009,-2.64060675e-004
,,,5.27500000e-009,-2.46873173e-004
,,,5.30000000e-009,-2.28123172e-004
,,,5.32500000e-009,-2.10935671e-004
,,,5.35000000e-009,-1.99998170e-004
,,,5.37500000e-009,-1.99998170e-004
,,,5.40000000e-009,-2.06248171e-004
,,,5.42500000e-009,-2.18748171e-004
,,,5.45000000e-009,-2.31248172e-004
,,,5.47500000e-009,-2.40623173e-004
,,,5.50000000e-009,-2.40623173e-004
,,,5.52500000e-009,-2.28123172e-004
,,,5.55000000e-009,-1.99998170e-004
,,,5.57500000e-009,-1.57810667e-004
,,,5.60000000e-009,-1.01560663e-004
,,,5.62500000e-009,-3.59356585e-005
,,,5.65000000e-009,3.12518462e-005
,,,5.67500000e-009,9.53143508e-005
,,,5.70000000e-009,1.48439355e-004
,,,5.72500000e-009,1.84376857e-004
,,,5.75000000e-009,2.00001858e-004
,,,5.77500000e-009,1.85939357e-004
,,,5.80000000e-009,1.51564355e-004
,,,5.82500000e-009,1.01564351e-004
,,,5.85000000e-009,3.90643468e-005
,,,5.87500000e-009,-2.96856581e-005
