RawData/CosmicRays/L7_2pt2A_15mV/wave008_Ch1.csv

"Record Length",1000,"Points",-7.72500000e-009,-8.12481617e-005
"Sample Interval",2.50000000e-011,s,-7.70000000e-009,-1.48435666e-004
"Trigger Point",309,"Samples",-7.67500000e-009,-1.90623169e-004
"Trigger Time",1.58179003e-011,s,-7.65000000e-009,-1.99998170e-004
"",,,-7.62500000e-009,-1.79685669e-004
"Horizontal Offset",-7.72500000e-009,s,-7.60000000e-009,-1.26560665e-004
,,,-7.57500000e-009,-5.31231597e-005
,,,-7.55000000e-009,3.12518462e-005
,,,-7.52500000e-009,1.10939352e-004
,,,-7.50000000e-009,1.73439356e-004
,,,-7.47500000e-009,2.04689359e-004
,,,-7.45000000e-009,2.00001858e-004
,,,-7.42500000e-009,1.43751854e-004
,,,-7.40000000e-009,5.31268478e-005
,,,-7.37500000e-009,-6.56231606e-005
,,,-7.35000000e-009,-1.98435670e-004
,,,-7.32500000e-009,-3.32810680e-004
,,,-7.30000000e-009,-4.51560688e-004
,,,-7.27500000e-009,-5.43748194e-004
,,,-7.25000000e-009,-5.99998198e-004
,,,-7.22500000e-009,-6.15623200e-004
,,,-7.20000000e-009,-5.89060698e-004
,,,-7.17500000e-009,-5.32810694e-004
,,,-7.15000000e-009,-4.54685688e-004
,,,-7.12500000e-009,-3.70310682e-004
,,,-7.10000000e-009,-2.92185677e-004
,,,-7.07500000e-009,-2.32810672e-004
,,,-7.05000000e-009,-1.99998170e-004
,,,-7.02500000e-009,-2.04685670e-004
,,,-7.00000000e-009,-2.40623173e-004
,,,-6.97500000e-009,-3.01560677e-004
,,,-6.95000000e-009,-3.76560683e-004
,,,-6.92500000e-009,-4.56248188e-004
,,,-6.90000000e-009,-5.26560693e-004
,,,-6.87500000e-009,-5.76560697e-004
,,,-6.85000000e-009,-5.99998198e-004
,,,-6.82500000e-009,-5.90623198e-004
,,,-6.80000000e-009,-5.51560695e-004
,,,-6.77500000e-009,-4.90623191e-004
,,,-6.75000000e-009,-4.15623185e-004
,,,-6.72500000e-009,-3.39060680e-004
,,,-6.70000000e-009,-2.71873175e-004
,,,-6.67500000e-009,-2.23435672e-004
,,,-6.65000000e-009,-1.99998170e-004
,,,-6.62500000e-009,-2.07810671e-004
,,,-6.60000000e-009,-2.42185673e-004
,,,-6.57500000e-009,-2.99998177e-004
,,,-6.55000000e-009,-3.71873182e-004
,,,-6.52500000e-009,-4.48435688e-004
,,,-6.50000000e-009,-5.17185693e-004
,,,-6.47500000e-009,-5.70310696e-004
,,,-6.45000000e-009,-5.99998198e-004
,,,-6.42500000e-009,-5.98435698e-004
,,,-6.40000000e-009,-5.68748196e-004
,,,-6.37500000e-009,-5.15623192e-004
,,,-6.35000000e-009,-4.48435688e-004
,,,-6.32500000e-009,-3.73435682e-004
,,,-6.30000000e-009,-3.01560677e-004
,,,-6.27500000e-009,-2.42185673e-004
,,,-6.25000000e-009,-1.99998170e-004
,,,-6.22500000e-009,-1.84373169e-004
,,,-6.20000000e-009,-1.93748170e-004
,,,-6.17500000e-009,-2.26560672e-004
,,,-6.15000000e-009,-2.82810676e-004
,,,-6.12500000e-009,-3.54685681e-004
,,,-6.10000000e-009,-4.35935687e-004
,,,-6.07500000e-009,-5.20310693e-004
,,,-6.05000000e-009,-5.99998198e-004
,,,-6.02500000e-009,-6.65623203e-004
,,,-6.00000000e-009,-7.14060707e-004
,,,-5.97500000e-009,-7.42185709e-004
,,,-5.95000000e-009,-7.51560709e-004
,,,-5.92500000e-009,-7.39060708e-004
,,,-5.90000000e-009,-7.07810706e-004
,,,-5.87500000e-009,-6.60935703e-004
,,,-5.85000000e-009,-5.99998198e-004
,,,-5.82500000e-009,-5.29685693e-004
,,,-5.80000000e-009,-4.56248188e-004
,,,-5.77500000e-009,-3.85935683e-004
,,,-5.75000000e-009,-3.21873179e-004
,,,-5.72500000e-009,-2.70310675e-004
,,,-5.70000000e-009,-2.31248172e-004
,,,-5.67500000e-009,-2.07810671e-004
,,,-5.65000000e-009,-1.99998170e-004
,,,-5.62500000e-009,-2.06248171e-004
,,,-5.60000000e-009,-2.20310672e-004
,,,-5.57500000e-009,-2.39060673e-004
,,,-5.55000000e-009,-2.54685674e-004
,,,-5.52500000e-009,-2.64060675e-004
,,,-5.50000000e-009,-2.59373174e-004
,,,-5.47500000e-009,-2.39060673e-004
,,,-5.45000000e-009,-1.99998170e-004
,,,-5.42500000e-009,-1.46873166e-004
,,,-5.40000000e-009,-8.12481617e-005
,,,-5.37500000e-009,-9.37315664e-006
,,,-5.35000000e-009,6.25018484e-005
,,,-5.32500000e-009,1.25001853e-004
,,,-5.30000000e-009,1.73439356e-004
,,,-5.27500000e-009,1.98439358e-004
,,,-5.25000000e-009,2.00001858e-004
,,,-5.22500000e-009,1.70314356e-004
,,,-5.20000000e-009,1.21876853e-004
,,,-5.17500000e-009,5.62518480e-005
,,,-5.15000000e-009,-1.56231571e-005
,,,-5.12500000e-009,-8.59356621e-005
,,,-5.10000000e-009,-1.45310666e-004
,,,-5.07500000e-009,-1.85935669e-004
,,,-5.05000000e-009,-1.99998170e-004
,,,-5.02500000e-009,-1.93748170e-004
,,,-5.00000000e-009,-1.59373167e-004
,,,-4.97500000e-009,-1.06248164e-004
,,,-4.95000000e-009,-3.90606587e-005
,,,-4.92500000e-009,3.43768465e-005
,,,-4.90000000e-009,1.04689351e-004
,,,-4.87500000e-009,1.60939355e-004
,,,-4.85000000e-009,2.00001858e-004
,,,-4.82500000e-009,2.07814359e-004
,,,-4.80000000e-009,1.92189358e-004
,,,-4.77500000e-009,1.53126855e-004
,,,-4.75000000e-009,9.53143508e-005
,,,-4.72500000e-009,2.34393457e-005
,,,-4.70000000e-009,-5.46856599e-005
,,,-4.67500000e-009,-1.31248165e-004
,,,-4.65000000e-009,-1.99998170e-004
,,,-4.62500000e-009,-2.59373174e-004
,,,-4.60000000e-009,-3.01560677e-004
,,,-4.57500000e-009,-3.23435679e-004
,,,-4.55000000e-009,-3.26560679e-004
,,,-4.52500000e-009,-3.12498178e-004
,,,-4.50000000e-009,-2.84373176e-004
,,,-4.47500000e-009,-2.45310673e-004
,,,-4.45000000e-009,-1.99998170e-004
,,,-4.42500000e-009,-1.56248167e-004
,,,-4.40000000e-009,-1.17185664e-004
,,,-4.37500000e-009,-8.90606623e-005
,,,-4.35000000e-009,-7.49981613e-005
,,,-4.32500000e-009,-7.81231615e-005
,,,-4.30000000e-009,-9.99981631e-005
,,,-4.27500000e-009,-1.42185666e-004
,,,-4.25000000e-009,-1.99998170e-004
,,,-4.22500000e-009,-2.71873175e-004
,,,-4.20000000e-009,-3.51560681e-004
,,,-4.17500000e-009,-4.31248187e-004
,,,-4.15000000e-009,-5.03123192e-004
,,,-4.12500000e-009,-5.60935696e-004
,,,-4.10000000e-009,-5.99998198e-004
,,,-4.07500000e-009,-6.12498199e-004
,,,-4.05000000e-009,-5.99998198e-004
,,,-4.02500000e-009,-5.57810695e-004
,,,-4.00000000e-009,-4.96873191e-004
,,,-3.97500000e-009,-4.23435686e-004
,,,-3.95000000e-009,-3.48435681e-004
,,,-3.92500000e-009,-2.79685676e-004
,,,-3.90000000e-009,-2.28123172e-004
,,,-3.87500000e-009,-1.99998170e-004
,,,-3.85000000e-009,-1.99998170e-004
,,,-3.82500000e-009,-2.28123172e-004
,,,-3.80000000e-009,-2.79685676e-004
,,,-3.77500000e-009,-3.48435681e-004
,,,-3.75000000e-009,-4.24998186e-004
,,,-3.72500000e-009,-4.96873191e-004
,,,-3.70000000e-009,-5.56248195e-004
,,,-3.67500000e-009,-5.92185698e-004
,,,-3.65000000e-009,-5.99998198e-004
,,,-3.62500000e-009,-5.78123197e-004
,,,-3.60000000e-009,-5.28123193e-004
,,,-3.57500000e-009,-4.60935689e-004
,,,-3.55000000e-009,-3.82810683e-004
,,,-3.52500000e-009,-3.09373178e-004
,,,-3.50000000e-009,-2.48435674e-004
,,,-3.47500000e-009,-2.10935671e-004
,,,-3.45000000e-009,-1.99998170e-004
,,,-3.42500000e-009,-2.21873172e-004
,,,-3.40000000e-009,-2.70310675e-004
,,,-3.37500000e-009,-3.39060680e-004
,,,-3.35000000e-009,-4.17185686e-004
,,,-3.32500000e-009,-4.95310691e-004
,,,-3.30000000e-009,-5.57810695e-004
,,,-3.27500000e-009,-5.95310698e-004
,,,-3.25000000e-009,-5.99998198e-004
,,,-3.22500000e-009,-5.64060696e-004
,,,-3.20000000e-009,-4.90623191e-004
,,,-3.17500000e-009,-3.89060684e-004
,,,-3.15000000e-009,-2.65623175e-004
,,,-3.12500000e-009,-1.34373165e-004
,,,-3.10000000e-009,-4.68565631e-006
,,,-3.07500000e-009,1.09376852e-004
,,,-3.05000000e-009,2.00001858e-004
,,,-3.02500000e-009,2.48439362e-004
,,,-3.00000000e-009,2.60939362e-004
,,,-2.97500000e-009,2.37501861e-004
,,,-2.95000000e-009,1.84376857e-004
,,,-2.92500000e-009,1.04689351e-004
,,,-2.90000000e-009,9.37684468e-006
,,,-2.87500000e-009,-9.53106627e-005
,,,-2.85000000e-009,-1.99998170e-004
,,,-2.82500000e-009,-3.01560677e-004
,,,-2.80000000e-009,-3.89060684e-004
,,,-2.77500000e-009,-4.62498189e-004
,,,-2.75000000e-009,-5.18748193e-004
,,,-2.72500000e-009,-5.59373196e-004
,,,-2.70000000e-009,-5.85935697e-004
,,,-2.67500000e-009,-5.99998198e-004
,,,-2.65000000e-009,-5.99998198e-004
,,,-2.62500000e-009,-5.93748198e-004
,,,-2.60000000e-009,-5.74998197e-004
,,,-2.57500000e-009,-5.45310695e-004
,,,-2.55000000e-009,-5.03123192e-004
,,,-2.52500000e-009,-4.48435688e-004
,,,-2.50000000e-009,-3.78123183e-004
,,,-2.47500000e-009,-2.95310677e-004
,,,-2.45000000e-009,-1.99998170e-004
,,,-2.42500000e-009,-1.04685663e-004
,,,-2.40000000e-009,-9.37315664e-006
,,,-2.37500000e-009,7.96893497e-005
,,,-2.35000000e-009,1.53126855e-004
,,,-2.32500000e-009,2.06251859e-004
,,,-2.30000000e-009,2.34376861e-004
,,,-2.27500000e-009,2.32814360e-004
,,,-2.25000000e-009,2.00001858e-004
,,,-2.22500000e-009,1.29689353e-004
,,,-2.20000000e-009,3.59393466e-005
,,,-2.17500000e-009,-7.65606614e-005
,,,-2.15000000e-009,-1.96873170e-004
,,,-2.12500000e-009,-3.17185678e-004
,,,-2.10000000e-009,-4.28123186e-004
,,,-2.07500000e-009,-5.24998193e-004
,,,-2.05000000e-009,-5.99998198e-004
,,,-2.02500000e-009,-6.48435702e-004
,,,-2.00000000e-009,-6.73435704e-004
,,,-1.97500000e-009,-6.76560704e-004
,,,-1.95000000e-009,-6.65623203e-004
,,,-1.92500000e-009,-6.45310702e-004
,,,-1.90000000e-009,-6.23435700e-004
,,,-1.87500000e-009,-6.07810699e-004
,,,-1.85000000e-009,-5.99998198e-004
,,,-1.82500000e-009,-6.10935699e-004
,,,-1.80000000e-009,-6.39060701e-004
,,,-1.77500000e-009,-6.82810704e-004
,,,-1.75000000e-009,-7.40623208e-004
,,,-1.72500000e-009,-8.06248213e-004
,,,-1.70000000e-009,-8.74998218e-004
,,,-1.67500000e-009,-9.42185723e-004
,,,-1.65000000e-009,-9.99998227e-004
,,,-1.62500000e-009,-1.05468573e-003
,,,-1.60000000e-009,-1.09374823e-003
,,,-1.57500000e-009,-1.11718574e-003
,,,-1.55000000e-009,-1.12343574e-003
,,,-1.52500000e-009,-1.11406073e-003
,,,-1.50000000e-009,-1.08906073e-003
,,,-1.47500000e-009,-1.04999823e-003
,,,-1.45000000e-009,-9.99998227e-004
,,,-1.42500000e-009,-9.60935724e-004
,,,-1.40000000e-009,-9.20310721e-004
,,,-1.37500000e-009,-8.78123218e-004
,,,-1.35000000e-009,-8.32810715e-004
,,,-1.32500000e-009,-7.82810711e-004
,,,-1.30000000e-009,-7.28123208e-004
,,,-1.27500000e-009,-6.65623203e-004
,,,-1.25000000e-009,-5.99998198e-004
,,,-1.22500000e-009,-5.71873196e-004
,,,-1.20000000e-009,-5.53123195e-004
,,,-1.17500000e-009,-5.42185694e-004
,,,-1.15000000e-009,-5.40623194e-004
,,,-1.12500000e-009,-5.45310695e-004
,,,-1.10000000e-009,-5.57810695e-004
,,,-1.07500000e-009,-5.74998197e-004
,,,-1.05000000e-009,-5.99998198e-004
,,,-1.02500000e-009,-6.99998206e-004
,,,-1.00000000e-009,-8.12498213e-004
,,,-9.75000000e-010,-9.34373222e-004
,,,-9.50000000e-010,-1.05468573e-003
,,,-9.25000000e-010,-1.16718574e-003
,,,-9.00000000e-010,-1.26249825e-003
,,,-8.75000000e-010,-1.34062325e-003
,,,-8.50000000e-010,-1.39999826e-003
,,,-8.25000000e-010,-1.52812326e-003
,,,-8.00000000e-010,-1.66093577e-003
,,,-7.75000000e-010,-1.79843578e-003
,,,-7.50000000e-010,-1.94062329e-003
,,,-7.25000000e-010,-2.09062330e-003
,,,-7.00000000e-010,-2.24687332e-003
,,,-6.75000000e-010,-2.41562333e-003
,,,-6.50000000e-010,-2.59999834e-003
,,,-6.25000000e-010,-2.90312336e-003
,,,-6.00000000e-010,-3.24062339e-003
,,,-5.75000000e-010,-3.60312341e-003
,,,-5.50000000e-010,-3.97968594e-003
,,,-5.25000000e-010,-4.35468596e-003
,,,-5.00000000e-010,-4.72031099e-003
,,,-4.75000000e-010,-5.06874851e-003
,,,-4.50000000e-010,-5.39999854e-003
,,,-4.25000000e-010,-5.81093607e-003
,,,-4.00000000e-010,-6.22968610e-003
,,,-3.75000000e-010,-6.65781113e-003
,,,-3.50000000e-010,-7.09687366e-003
,,,-3.25000000e-010,-7.54843619e-003
,,,-3.00000000e-010,-8.01406122e-003
,,,-2.75000000e-010,-8.49687376e-003
,,,-2.50000000e-010,-8.99999879e-003
,,,-2.25000000e-010,-9.59374884e-003
,,,-2.00000000e-010,-1.02265614e-002
,,,-1.75000000e-010,-1.08921864e-002
,,,-1.50000000e-010,-1.15734365e-002
,,,-1.25000000e-010,-1.22578115e-002
,,,-1.00000000e-010,-1.29312491e-002
,,,-7.50000000e-011,-1.35796866e-002
,,,-5.00000000e-011,-1.41999992e-002
,,,-2.50000000e-011,-1.48046867e-002
,,,0.00000000e+000,-1.53999992e-002
,,,2.50000000e-011,-1.59890618e-002
,,,5.00000000e-011,-1.65765618e-002
,,,7.50000000e-011,-1.71671869e-002
,,,1.00000000e-010,-1.77656244e-002
,,,1.25000000e-010,-1.83749995e-002
,,,1.50000000e-010,-1.89999995e-002
,,,1.75000000e-010,-1.96062495e-002
,,,2.00000000e-010,-2.02515621e-002
,,,2.25000000e-010,-2.09328121e-002
,,,2.50000000e-010,-2.16468747e-002
,,,2.75000000e-010,-2.23843747e-002
,,,3.00000000e-010,-2.31312498e-002
,,,3.25000000e-010,-2.38749998e-002
,,,3.50000000e-010,-2.45999999e-002
,,,3.75000000e-010,-2.51953124e-002
,,,4.00000000e-010,-2.57687500e-002
,,,4.25000000e-010,-2.63187500e-002
,,,4.50000000e-010,-2.68437501e-002
,,,4.75000000e-010,-2.73375001e-002
,,,5.00000000e-010,-2.77968751e-002
,,,5.25000000e-010,-2.82187502e-002
,,,5.50000000e-010,-2.86000002e-002
,,,5.75000000e-010,-2.87937502e-002
,,,6.00000000e-010,-2.89625002e-002
,,,6.25000000e-010,-2.91171877e-002
,,,6.50000000e-010,-2.92640627e-002
,,,6.75000000e-010,-2.94078127e-002
,,,7.00000000e-010,-2.95468752e-002
,,,7.25000000e-010,-2.96796878e-002
,,,7.50000000e-010,-2.98000003e-002
,,,7.75000000e-010,-2.97468753e-002
,,,8.00000000e-010,-2.96828128e-002
,,,8.25000000e-010,-2.96093753e-002
,,,8.50000000e-010,-2.95281252e-002
,,,8.75000000e-010,-2.94328127e-002
,,,9.00000000e-010,-2.93171877e-002
,,,9.25000000e-010,-2.91765627e-002
,,,9.50000000e-010,-2.90000002e-002
,,,9.75000000e-010,-2.86453127e-002
,,,1.00000000e-009,-2.82609377e-002
,,,1.02500000e-009,-2.78546876e-002
,,,1.05000000e-009,-2.74390626e-002
,,,1.07500000e-009,-2.70203126e-002
,,,1.10000000e-009,-2.66046875e-002
,,,1.12500000e-009,-2.61984375e-002
,,,1.15000000e-009,-2.58000000e-002
,,,1.17500000e-009,-2.53062499e-002
,,,1.20000000e-009,-2.48234374e-002
,,,1.22500000e-009,-2.43562499e-002
,,,1.25000000e-009,-2.39046873e-002
,,,1.27500000e-009,-2.34656248e-002
,,,1.30000000e-009,-2.30390623e-002
,,,1.32500000e-009,-2.26187498e-002
,,,1.35000000e-009,-2.21999997e-002
,,,1.37500000e-009,-2.17203122e-002
,,,1.40000000e-009,-2.12249997e-002
,,,1.42500000e-009,-2.07171871e-002
,,,1.45000000e-009,-2.02046871e-002
,,,1.47500000e-009,-1.96906245e-002
,,,1.50000000e-009,-1.91828120e-002
,,,1.52500000e-009,-1.86843745e-002
,,,1.55000000e-009,-1.81999994e-002
,,,1.57500000e-009,-1.77203119e-002
,,,1.60000000e-009,-1.72421869e-002
,,,1.62500000e-009,-1.67687493e-002
,,,1.65000000e-009,-1.63046868e-002
,,,1.67500000e-009,-1.58515618e-002
,,,1.70000000e-009,-1.54156242e-002
,,,1.72500000e-009,-1.49984367e-002
,,,1.75000000e-009,-1.45999992e-002
,,,1.77500000e-009,-1.42453117e-002
,,,1.80000000e-009,-1.38890616e-002
,,,1.82500000e-009,-1.35312491e-002
,,,1.85000000e-009,-1.31734366e-002
,,,1.87500000e-009,-1.28171866e-002
,,,1.90000000e-009,-1.24671865e-002
,,,1.92500000e-009,-1.21281240e-002
,,,1.95000000e-009,-1.17999990e-002
,,,1.97500000e-009,-1.15265615e-002
,,,2.00000000e-009,-1.12437490e-002
,,,2.02500000e-009,-1.09484364e-002
,,,2.05000000e-009,-1.06437489e-002
,,,2.07500000e-009,-1.03312489e-002
,,,2.10000000e-009,-1.00171864e-002
,,,2.12500000e-009,-9.70624884e-003
,,,2.15000000e-009,-9.39999882e-003
,,,2.17500000e-009,-9.15781130e-003
,,,2.20000000e-009,-8.90937379e-003
,,,2.22500000e-009,-8.65312377e-003
,,,2.25000000e-009,-8.39218625e-003
,,,2.27500000e-009,-8.12968623e-003
,,,2.30000000e-009,-7.87343621e-003
,,,2.32500000e-009,-7.62812370e-003
,,,2.35000000e-009,-7.39999868e-003
,,,2.37500000e-009,-7.24687367e-003
,,,2.40000000e-009,-7.10468616e-003
,,,2.42500000e-009,-6.97187365e-003
,,,2.45000000e-009,-6.85312364e-003
,,,2.47500000e-009,-6.75468613e-003
,,,2.50000000e-009,-6.67812363e-003
,,,2.52500000e-009,-6.62656113e-003
,,,2.55000000e-009,-6.59999862e-003
,,,2.57500000e-009,-6.64218613e-003
,,,2.60000000e-009,-6.68437363e-003
,,,2.62500000e-009,-6.72031113e-003
,,,2.65000000e-009,-6.74218613e-003
,,,2.67500000e-009,-6.74218613e-003
,,,2.70000000e-009,-6.71874863e-003
,,,2.72500000e-009,-6.67187363e-003
,,,2.75000000e-009,-6.59999862e-003
,,,2.77500000e-009,-6.53749862e-003
,,,2.80000000e-009,-6.45468611e-003
,,,2.82500000e-009,-6.36406111e-003
,,,2.85000000e-009,-6.27499860e-003
,,,2.87500000e-009,-6.20312360e-003
,,,2.90000000e-009,-6.16093609e-003
,,,2.92500000e-009,-6.15937359e-003
,,,2.95000000e-009,-6.19999859e-003
,,,2.97500000e-009,-6.30312360e-003
,,,3.00000000e-009,-6.43124861e-003
,,,3.02500000e-009,-6.57343612e-003
,,,3.05000000e-009,-6.71562363e-003
,,,3.07500000e-009,-6.84062364e-003
,,,3.10000000e-009,-6.93749865e-003
,,,3.12500000e-009,-6.99218615e-003
,,,3.15000000e-009,-6.99999865e-003
,,,3.17500000e-009,-6.95624865e-003
,,,3.20000000e-009,-6.86406114e-003
,,,3.22500000e-009,-6.73749863e-003
,,,3.25000000e-009,-6.59374862e-003
,,,3.27500000e-009,-6.45156111e-003
,,,3.30000000e-009,-6.32812360e-003
,,,3.32500000e-009,-6.24218610e-003
,,,3.35000000e-009,-6.19999859e-003
,,,3.37500000e-009,-6.20156109e-003
,,,3.40000000e-009,-6.24531110e-003
,,,3.42500000e-009,-6.32031110e-003
,,,3.45000000e-009,-6.41093611e-003
,,,3.47500000e-009,-6.49999862e-003
,,,3.50000000e-009,-6.57187362e-003
,,,3.52500000e-009,-6.60937362e-003
,,,3.55000000e-009,-6.59999862e-003
,,,3.57500000e-009,-6.52656112e-003
,,,3.60000000e-009,-6.40156111e-003
,,,3.62500000e-009,-6.23906110e-003
,,,3.65000000e-009,-6.04999858e-003
,,,3.67500000e-009,-5.85468607e-003
,,,3.70000000e-009,-5.67187356e-003
,,,3.72500000e-009,-5.51562355e-003
,,,3.75000000e-009,-5.39999854e-003
,,,3.77500000e-009,-5.32031103e-003
,,,3.80000000e-009,-5.28437353e-003
,,,3.82500000e-009,-5.28437353e-003
,,,3.85000000e-009,-5.31093603e-003
,,,3.87500000e-009,-5.34999853e-003
,,,3.90000000e-009,-5.38593604e-003
,,,3.92500000e-009,-5.40781104e-003
,,,3.95000000e-009,-5.39999854e-003
,,,3.97500000e-009,-5.34531103e-003
,,,4.00000000e-009,-5.24687353e-003
,,,4.02500000e-009,-5.11093602e-003
,,,4.05000000e-009,-4.94374851e-003
,,,4.07500000e-009,-4.75781099e-003
,,,4.10000000e-009,-4.56249848e-003
,,,4.12500000e-009,-4.37343597e-003
,,,4.15000000e-009,-4.19999845e-003
,,,4.17500000e-009,-4.05312344e-003
,,,4.20000000e-009,-3.93281093e-003
,,,4.22500000e-009,-3.84374843e-003
,,,4.25000000e-009,-3.78749842e-003
,,,4.27500000e-009,-3.75937342e-003
,,,4.30000000e-009,-3.75781092e-003
,,,4.32500000e-009,-3.77343592e-003
,,,4.35000000e-009,-3.79999842e-003
,,,4.37500000e-009,-3.82656093e-003
,,,4.40000000e-009,-3.84062343e-003
,,,4.42500000e-009,-3.83593593e-003
,,,4.45000000e-009,-3.80624843e-003
,,,4.47500000e-009,-3.74687342e-003
,,,4.50000000e-009,-3.65937341e-003
,,,4.52500000e-009,-3.54374841e-003
,,,4.55000000e-009,-3.39999840e-003
,,,4.57500000e-009,-3.24218589e-003
,,,4.60000000e-009,-3.06562337e-003
,,,4.62500000e-009,-2.88281086e-003
,,,4.65000000e-009,-2.70312335e-003
,,,4.67500000e-009,-2.53749834e-003
,,,4.70000000e-009,-2.39374833e-003
,,,4.72500000e-009,-2.27968582e-003
,,,4.75000000e-009,-2.19999831e-003
,,,4.77500000e-009,-2.16093581e-003
,,,4.80000000e-009,-2.14843581e-003
,,,4.82500000e-009,-2.15624831e-003
,,,4.85000000e-009,-2.17499831e-003
,,,4.87500000e-009,-2.19843581e-003
,,,4.90000000e-009,-2.21562331e-003
,,,4.92500000e-009,-2.21874831e-003
,,,4.95000000e-009,-2.19999831e-003
,,,4.97500000e-009,-2.16406081e-003
,,,5.00000000e-009,-2.09687330e-003
,,,5.02500000e-009,-2.00312330e-003
,,,5.05000000e-009,-1.88749829e-003
,,,5.07500000e-009,-1.76093578e-003
,,,5.10000000e-009,-1.63124827e-003
,,,5.12500000e-009,-1.50781076e-003
,,,5.15000000e-009,-1.39999826e-003
,,,5.17500000e-009,-1.32499825e-003
,,,5.20000000e-009,-1.27343575e-003
,,,5.22500000e-009,-1.24687324e-003
,,,5.25000000e-009,-1.24531074e-003
,,,5.27500000e-009,-1.26406075e-003
,,,5.30000000e-009,-1.29999825e-003
,,,5.32500000e-009,-1.34687325e-003
,,,5.35000000e-009,-1.39999826e-003
,,,5.37500000e-009,-1.46093576e-003
,,,5.40000000e-009,-1.50937326e-003
,,,5.42500000e-009,-1.54218577e-003
,,,5.45000000e-009,-1.55624827e-003
,,,5.47500000e-009,-1.54843577e-003
,,,5.50000000e-009,-1.52031076e-003
,,,5.52500000e-009,-1.47031076e-003
,,,5.55000000e-009,-1.39999826e-003
,,,5.57500000e-009,-1.31874825e-003
,,,5.60000000e-009,-1.22187324e-003
,,,5.62500000e-009,-1.11406073e-003
,,,5.65000000e-009,-1.00156073e-003
,,,5.67500000e-009,-8.87498219e-004
,,,5.70000000e-009,-7.79685711e-004
,,,5.72500000e-009,-6.82810704e-004
,,,5.75000000e-009,-5.99998198e-004
,,,5.77500000e-009,-5.45310695e-004
,,,5.80000000e-009,-5.07810692e-004
,,,5.82500000e-009,-4.89060691e-004
