RawData/CosmicRays/L7_2pt2A_15mV/wave010_Ch1.csv

"Record Length",1000,"Points",-7.72500000e-009,2.53126862e-004
"Sample Interval",2.50000000e-011,s,-7.70000000e-009,2.78126864e-004
"Trigger Point",309,"Samples",-7.67500000e-009,2.79689364e-004
"Trigger Time",1.60159128e-011,s,-7.65000000e-009,2.62501863e-004
"",,,-7.62500000e-009,2.37501861e-004
"Horizontal Offset",-7.72500000e-009,s,-7.60000000e-009,2.12501859e-004
,,,-7.57500000e-009,1.96876858e-004
,,,-7.55000000e-009,2.00001858e-004
,,,-7.52500000e-009,2.18751860e-004
,,,-7.50000000e-009,2.59376862e-004
,,,-7.47500000e-009,3.15626866e-004
,,,-7.45000000e-009,3.82814371e-004
,,,-7.42500000e-009,4.53126876e-004
,,,-7.40000000e-009,5.18751881e-004
,,,-7.37500000e-009,5.68751884e-004
,,,-7.35000000e-009,6.00001886e-004
,,,-7.32500000e-009,5.98439386e-004
,,,-7.30000000e-009,5.75001885e-004
,,,-7.27500000e-009,5.31251882e-004
,,,-7.25000000e-009,4.70314377e-004
,,,-7.22500000e-009,4.00001872e-004
,,,-7.20000000e-009,3.28126867e-004
,,,-7.17500000e-009,2.59376862e-004
,,,-7.15000000e-009,2.00001858e-004
,,,-7.12500000e-009,1.53126855e-004
,,,-7.10000000e-009,1.23439353e-004
,,,-7.07500000e-009,1.10939352e-004
,,,-7.05000000e-009,1.14064352e-004
,,,-7.02500000e-009,1.28126853e-004
,,,-7.00000000e-009,1.50001855e-004
,,,-6.97500000e-009,1.75001856e-004
,,,-6.95000000e-009,2.00001858e-004
,,,-6.92500000e-009,2.17189359e-004
,,,-6.90000000e-009,2.31251860e-004
,,,-6.87500000e-009,2.37501861e-004
,,,-6.85000000e-009,2.39064361e-004
,,,-6.82500000e-009,2.34376861e-004
,,,-6.80000000e-009,2.25001860e-004
,,,-6.77500000e-009,2.12501859e-004
,,,-6.75000000e-009,2.00001858e-004
,,,-6.72500000e-009,1.87501857e-004
,,,-6.70000000e-009,1.76564357e-004
,,,-6.67500000e-009,1.70314356e-004
,,,-6.65000000e-009,1.68751856e-004
,,,-6.62500000e-009,1.70314356e-004
,,,-6.60000000e-009,1.76564357e-004
,,,-6.57500000e-009,1.87501857e-004
,,,-6.55000000e-009,2.00001858e-004
,,,-6.52500000e-009,2.12501859e-004
,,,-6.50000000e-009,2.25001860e-004
,,,-6.47500000e-009,2.34376861e-004
,,,-6.45000000e-009,2.39064361e-004
,,,-6.42500000e-009,2.37501861e-004
,,,-6.40000000e-009,2.31251860e-004
,,,-6.37500000e-009,2.17189359e-004
,,,-6.35000000e-009,2.00001858e-004
,,,-6.32500000e-009,1.76564357e-004
,,,-6.30000000e-009,1.54689355e-004
,,,-6.27500000e-009,1.34376854e-004
,,,-6.25000000e-009,1.20314353e-004
,,,-6.22500000e-009,1.18751852e-004
,,,-6.20000000e-009,1.29689353e-004
,,,-6.17500000e-009,1.56251855e-004
,,,-6.15000000e-009,2.00001858e-004
,,,-6.12500000e-009,2.53126862e-004
,,,-6.10000000e-009,3.15626866e-004
,,,-6.07500000e-009,3.82814371e-004
,,,-6.05000000e-009,4.48439376e-004
,,,-6.02500000e-009,5.07814380e-004
,,,-6.00000000e-009,5.56251883e-004
,,,-5.97500000e-009,5.87501886e-004
,,,-5.95000000e-009,6.00001886e-004
,,,-5.92500000e-009,5.82814385e-004
,,,-5.90000000e-009,5.45314383e-004
,,,-5.87500000e-009,4.93751879e-004
,,,-5.85000000e-009,4.31251875e-004
,,,-5.82500000e-009,3.64064370e-004
,,,-5.80000000e-009,3.00001865e-004
,,,-5.77500000e-009,2.43751861e-004
,,,-5.75000000e-009,2.00001858e-004
,,,-5.72500000e-009,1.67189356e-004
,,,-5.70000000e-009,1.51564355e-004
,,,-5.67500000e-009,1.50001855e-004
,,,-5.65000000e-009,1.57814355e-004
,,,-5.62500000e-009,1.71876856e-004
,,,-5.60000000e-009,1.85939357e-004
,,,-5.57500000e-009,1.96876858e-004
,,,-5.55000000e-009,2.00001858e-004
,,,-5.52500000e-009,1.87501857e-004
,,,-5.50000000e-009,1.60939355e-004
,,,-5.47500000e-009,1.21876853e-004
,,,-5.45000000e-009,7.03143490e-005
,,,-5.42500000e-009,9.37684468e-006
,,,-5.40000000e-009,-5.78106601e-005
,,,-5.37500000e-009,-1.29685665e-004
,,,-5.35000000e-009,-1.99998170e-004
,,,-5.32500000e-009,-2.71873175e-004
,,,-5.30000000e-009,-3.39060680e-004
,,,-5.27500000e-009,-3.98435684e-004
,,,-5.25000000e-009,-4.53123188e-004
,,,-5.22500000e-009,-4.99998191e-004
,,,-5.20000000e-009,-5.40623194e-004
,,,-5.17500000e-009,-5.73435697e-004
,,,-5.15000000e-009,-5.99998198e-004
,,,-5.12500000e-009,-6.20310700e-004
,,,-5.10000000e-009,-6.34373201e-004
,,,-5.07500000e-009,-6.43748202e-004
,,,-5.05000000e-009,-6.48435702e-004
,,,-5.02500000e-009,-6.46873202e-004
,,,-5.00000000e-009,-6.39060701e-004
,,,-4.97500000e-009,-6.23435700e-004
,,,-4.95000000e-009,-5.99998198e-004
,,,-4.92500000e-009,-5.65623196e-004
,,,-4.90000000e-009,-5.23435693e-004
,,,-4.87500000e-009,-4.78123190e-004
,,,-4.85000000e-009,-4.26560686e-004
,,,-4.82500000e-009,-3.71873182e-004
,,,-4.80000000e-009,-3.14060678e-004
,,,-4.77500000e-009,-2.56248174e-004
,,,-4.75000000e-009,-1.99998170e-004
,,,-4.72500000e-009,-1.48435666e-004
,,,-4.70000000e-009,-1.06248164e-004
,,,-4.67500000e-009,-7.49981613e-005
,,,-4.65000000e-009,-6.09356603e-005
,,,-4.62500000e-009,-6.56231606e-005
,,,-4.60000000e-009,-8.90606623e-005
,,,-4.57500000e-009,-1.34373165e-004
,,,-4.55000000e-009,-1.99998170e-004
,,,-4.52500000e-009,-2.81248176e-004
,,,-4.50000000e-009,-3.78123183e-004
,,,-4.47500000e-009,-4.84373190e-004
,,,-4.45000000e-009,-5.95310698e-004
,,,-4.42500000e-009,-7.07810706e-004
,,,-4.40000000e-009,-8.17185714e-004
,,,-4.37500000e-009,-9.15623221e-004
,,,-4.35000000e-009,-9.99998227e-004
,,,-4.32500000e-009,-1.05937323e-003
,,,-4.30000000e-009,-1.09843573e-003
,,,-4.27500000e-009,-1.11874824e-003
,,,-4.25000000e-009,-1.12031074e-003
,,,-4.22500000e-009,-1.10624823e-003
,,,-4.20000000e-009,-1.07968573e-003
,,,-4.17500000e-009,-1.04374823e-003
,,,-4.15000000e-009,-9.99998227e-004
,,,-4.12500000e-009,-9.46873223e-004
,,,-4.10000000e-009,-8.90623219e-004
,,,-4.07500000e-009,-8.35935715e-004
,,,-4.05000000e-009,-7.82810711e-004
,,,-4.02500000e-009,-7.32810708e-004
,,,-4.00000000e-009,-6.85935705e-004
,,,-3.97500000e-009,-6.42185701e-004
,,,-3.95000000e-009,-5.99998198e-004
,,,-3.92500000e-009,-5.57810695e-004
,,,-3.90000000e-009,-5.15623192e-004
,,,-3.87500000e-009,-4.71873189e-004
,,,-3.85000000e-009,-4.24998186e-004
,,,-3.82500000e-009,-3.74998183e-004
,,,-3.80000000e-009,-3.20310679e-004
,,,-3.77500000e-009,-2.62498175e-004
,,,-3.75000000e-009,-1.99998170e-004
,,,-3.72500000e-009,-1.37498166e-004
,,,-3.70000000e-009,-7.34356612e-005
,,,-3.67500000e-009,-1.24981569e-005
,,,-3.65000000e-009,4.53143472e-005
,,,-3.62500000e-009,9.68768509e-005
,,,-3.60000000e-009,1.39064354e-004
,,,-3.57500000e-009,1.75001856e-004
,,,-3.55000000e-009,2.00001858e-004
,,,-3.52500000e-009,2.10939359e-004
,,,-3.50000000e-009,2.15626859e-004
,,,-3.47500000e-009,2.12501859e-004
,,,-3.45000000e-009,2.07814359e-004
,,,-3.42500000e-009,2.01564358e-004
,,,-3.40000000e-009,1.96876858e-004
,,,-3.37500000e-009,1.95314358e-004
,,,-3.35000000e-009,2.00001858e-004
,,,-3.32500000e-009,1.98439358e-004
,,,-3.30000000e-009,2.03126858e-004
,,,-3.27500000e-009,2.09376859e-004
,,,-3.25000000e-009,2.17189359e-004
,,,-3.22500000e-009,2.23439360e-004
,,,-3.20000000e-009,2.23439360e-004
,,,-3.17500000e-009,2.15626859e-004
,,,-3.15000000e-009,2.00001858e-004
,,,-3.12500000e-009,1.62501856e-004
,,,-3.10000000e-009,1.18751852e-004
,,,-3.07500000e-009,6.56268487e-005
,,,-3.05000000e-009,9.37684468e-006
,,,-3.02500000e-009,-4.84356594e-005
,,,-3.00000000e-009,-1.04685663e-004
,,,-2.97500000e-009,-1.56248167e-004
,,,-2.95000000e-009,-1.99998170e-004
,,,-2.92500000e-009,-2.40623173e-004
,,,-2.90000000e-009,-2.68748175e-004
,,,-2.87500000e-009,-2.82810676e-004
,,,-2.85000000e-009,-2.85935676e-004
,,,-2.82500000e-009,-2.76560676e-004
,,,-2.80000000e-009,-2.57810674e-004
,,,-2.77500000e-009,-2.31248172e-004
,,,-2.75000000e-009,-1.99998170e-004
,,,-2.72500000e-009,-1.70310668e-004
,,,-2.70000000e-009,-1.43748166e-004
,,,-2.67500000e-009,-1.23435665e-004
,,,-2.65000000e-009,-1.14060664e-004
,,,-2.62500000e-009,-1.15623164e-004
,,,-2.60000000e-009,-1.29685665e-004
,,,-2.57500000e-009,-1.59373167e-004
,,,-2.55000000e-009,-1.99998170e-004
,,,-2.52500000e-009,-2.51560674e-004
,,,-2.50000000e-009,-3.10935678e-004
,,,-2.47500000e-009,-3.73435682e-004
,,,-2.45000000e-009,-4.34373187e-004
,,,-2.42500000e-009,-4.92185691e-004
,,,-2.40000000e-009,-5.40623194e-004
,,,-2.37500000e-009,-5.76560697e-004
,,,-2.35000000e-009,-5.99998198e-004
,,,-2.32500000e-009,-6.07810699e-004
,,,-2.30000000e-009,-6.06248199e-004
,,,-2.27500000e-009,-5.96873198e-004
,,,-2.25000000e-009,-5.85935697e-004
,,,-2.22500000e-009,-5.76560697e-004
,,,-2.20000000e-009,-5.73435697e-004
,,,-2.17500000e-009,-5.81248197e-004
,,,-2.15000000e-009,-5.99998198e-004
,,,-2.12500000e-009,-6.29685701e-004
,,,-2.10000000e-009,-6.71873204e-004
,,,-2.07500000e-009,-7.24998207e-004
,,,-2.05000000e-009,-7.84373211e-004
,,,-2.02500000e-009,-8.48435716e-004
,,,-2.00000000e-009,-9.09373220e-004
,,,-1.97500000e-009,-9.60935724e-004
,,,-1.95000000e-009,-9.99998227e-004
,,,-1.92500000e-009,-1.01718573e-003
,,,-1.90000000e-009,-1.01406073e-003
,,,-1.87500000e-009,-9.89060726e-004
,,,-1.85000000e-009,-9.43748223e-004
,,,-1.82500000e-009,-8.79685718e-004
,,,-1.80000000e-009,-7.96873212e-004
,,,-1.77500000e-009,-7.03123206e-004
,,,-1.75000000e-009,-5.99998198e-004
,,,-1.72500000e-009,-4.95310691e-004
,,,-1.70000000e-009,-3.96873184e-004
,,,-1.67500000e-009,-3.10935678e-004
,,,-1.65000000e-009,-2.42185673e-004
,,,-1.62500000e-009,-1.95310670e-004
,,,-1.60000000e-009,-1.71873168e-004
,,,-1.57500000e-009,-1.74998168e-004
,,,-1.55000000e-009,-1.99998170e-004
,,,-1.52500000e-009,-2.53123174e-004
,,,-1.50000000e-009,-3.21873179e-004
,,,-1.47500000e-009,-3.96873184e-004
,,,-1.45000000e-009,-4.70310689e-004
,,,-1.42500000e-009,-5.34373194e-004
,,,-1.40000000e-009,-5.81248197e-004
,,,-1.37500000e-009,-6.04685699e-004
,,,-1.35000000e-009,-5.99998198e-004
,,,-1.32500000e-009,-5.84373197e-004
,,,-1.30000000e-009,-5.46873195e-004
,,,-1.27500000e-009,-4.92185691e-004
,,,-1.25000000e-009,-4.26560686e-004
,,,-1.22500000e-009,-3.57810681e-004
,,,-1.20000000e-009,-2.92185677e-004
,,,-1.17500000e-009,-2.37498173e-004
,,,-1.15000000e-009,-1.99998170e-004
,,,-1.12500000e-009,-2.29685672e-004
,,,-1.10000000e-009,-2.84373176e-004
,,,-1.07500000e-009,-3.56248181e-004
,,,-1.05000000e-009,-4.34373187e-004
,,,-1.02500000e-009,-5.07810692e-004
,,,-1.00000000e-009,-5.65623196e-004
,,,-9.75000000e-010,-5.98435698e-004
,,,-9.50000000e-010,-5.99998198e-004
,,,-9.25000000e-010,-6.60935703e-004
,,,-9.00000000e-010,-7.04685706e-004
,,,-8.75000000e-010,-7.29685708e-004
,,,-8.50000000e-010,-7.34373208e-004
,,,-8.25000000e-010,-7.20310707e-004
,,,-8.00000000e-010,-6.90623205e-004
,,,-7.75000000e-010,-6.48435702e-004
,,,-7.50000000e-010,-5.99998198e-004
,,,-7.25000000e-010,-7.04685706e-004
,,,-7.00000000e-010,-8.35935715e-004
,,,-6.75000000e-010,-9.79685725e-004
,,,-6.50000000e-010,-1.12031074e-003
,,,-6.25000000e-010,-1.24374824e-003
,,,-6.00000000e-010,-1.33437325e-003
,,,-5.75000000e-010,-1.38593575e-003
,,,-5.50000000e-010,-1.39999826e-003
,,,-5.25000000e-010,-1.59687327e-003
,,,-5.00000000e-010,-1.81249828e-003
,,,-4.75000000e-010,-2.04062330e-003
,,,-4.50000000e-010,-2.28281082e-003
,,,-4.25000000e-010,-2.53593584e-003
,,,-4.00000000e-010,-2.80156085e-003
,,,-3.75000000e-010,-3.08593587e-003
,,,-3.50000000e-010,-3.39999840e-003
,,,-3.25000000e-010,-4.00624844e-003
,,,-3.00000000e-010,-4.69687349e-003
,,,-2.75000000e-010,-5.44843604e-003
,,,-2.50000000e-010,-6.24218610e-003
,,,-2.25000000e-010,-7.04999865e-003
,,,-2.00000000e-010,-7.85156121e-003
,,,-1.75000000e-010,-8.63593627e-003
,,,-1.50000000e-010,-9.39999882e-003
,,,-1.25000000e-010,-1.03765614e-002
,,,-1.00000000e-010,-1.13890615e-002
,,,-7.50000000e-011,-1.24374990e-002
,,,-5.00000000e-011,-1.35187491e-002
,,,-2.50000000e-011,-1.46328117e-002
,,,0.00000000e+000,-1.57796868e-002
,,,2.50000000e-011,-1.69656244e-002
,,,5.00000000e-011,-1.81999994e-002
,,,7.50000000e-011,-1.96249995e-002
,,,1.00000000e-010,-2.11468747e-002
,,,1.25000000e-010,-2.27515623e-002
,,,1.50000000e-010,-2.44249999e-002
,,,1.75000000e-010,-2.61453125e-002
,,,2.00000000e-010,-2.78937501e-002
,,,2.25000000e-010,-2.96484378e-002
,,,2.50000000e-010,-3.14000004e-002
,,,2.75000000e-010,-3.31171880e-002
,,,3.00000000e-010,-3.48484381e-002
,,,3.25000000e-010,-3.65921882e-002
,,,3.50000000e-010,-3.83484384e-002
,,,3.75000000e-010,-4.01125010e-002
,,,4.00000000e-010,-4.18781261e-002
,,,4.25000000e-010,-4.36421887e-002
,,,4.50000000e-010,-4.54000014e-002
,,,4.75000000e-010,-4.69531265e-002
,,,5.00000000e-010,-4.85156266e-002
,,,5.25000000e-010,-5.00906267e-002
,,,5.50000000e-010,-5.16765643e-002
,,,5.75000000e-010,-5.32593769e-002
,,,6.00000000e-010,-5.48234395e-002
,,,6.25000000e-010,-5.63453146e-002
,,,6.50000000e-010,-5.78000022e-002
,,,6.75000000e-010,-5.88296898e-002
,,,7.00000000e-010,-5.97828149e-002
,,,7.25000000e-010,-6.06640649e-002
,,,7.50000000e-010,-6.14718775e-002
,,,7.75000000e-010,-6.22000026e-002
,,,8.00000000e-010,-6.28406276e-002
,,,8.25000000e-010,-6.33781276e-002
,,,8.50000000e-010,-6.38000027e-002
,,,8.75000000e-010,-6.37000027e-002
,,,9.00000000e-010,-6.35093777e-002
,,,9.25000000e-010,-6.32546901e-002
,,,9.50000000e-010,-6.29515651e-002
,,,9.75000000e-010,-6.26140651e-002
,,,1.00000000e-009,-6.22453151e-002
,,,1.02500000e-009,-6.18437525e-002
,,,1.05000000e-009,-6.14000025e-002
,,,1.07500000e-009,-6.05421899e-002
,,,1.10000000e-009,-5.96640649e-002
,,,1.12500000e-009,-5.87750023e-002
,,,1.15000000e-009,-5.78843773e-002
,,,1.17500000e-009,-5.69906272e-002
,,,1.20000000e-009,-5.60859396e-002
,,,1.22500000e-009,-5.51609396e-002
,,,1.25000000e-009,-5.42000020e-002
,,,1.27500000e-009,-5.29265644e-002
,,,1.30000000e-009,-5.16203143e-002
,,,1.32500000e-009,-5.02953142e-002
,,,1.35000000e-009,-4.89656266e-002
,,,1.37500000e-009,-4.76437515e-002
,,,1.40000000e-009,-4.63390639e-002
,,,1.42500000e-009,-4.50578138e-002
,,,1.45000000e-009,-4.38000013e-002
,,,1.47500000e-009,-4.24312512e-002
,,,1.50000000e-009,-4.10828136e-002
,,,1.52500000e-009,-3.97625010e-002
,,,1.55000000e-009,-3.84781259e-002
,,,1.57500000e-009,-3.72359383e-002
,,,1.60000000e-009,-3.60421882e-002
,,,1.62500000e-009,-3.48968756e-002
,,,1.65000000e-009,-3.38000005e-002
,,,1.67500000e-009,-3.27359380e-002
,,,1.70000000e-009,-3.16828129e-002
,,,1.72500000e-009,-3.06390628e-002
,,,1.75000000e-009,-2.96093753e-002
,,,1.77500000e-009,-2.86031252e-002
,,,1.80000000e-009,-2.76265626e-002
,,,1.82500000e-009,-2.66906250e-002
,,,1.85000000e-009,-2.58000000e-002
,,,1.87500000e-009,-2.50359374e-002
,,,1.90000000e-009,-2.42703124e-002
,,,1.92500000e-009,-2.35031248e-002
,,,1.95000000e-009,-2.27312498e-002
,,,1.97500000e-009,-2.19656247e-002
,,,2.00000000e-009,-2.12171872e-002
,,,2.02500000e-009,-2.04921871e-002
,,,2.05000000e-009,-1.97999996e-002
,,,2.07500000e-009,-1.92687495e-002
,,,2.10000000e-009,-1.87234370e-002
,,,2.12500000e-009,-1.81624994e-002
,,,2.15000000e-009,-1.75921869e-002
,,,2.17500000e-009,-1.70187494e-002
,,,2.20000000e-009,-1.64562493e-002
,,,2.22500000e-009,-1.59124993e-002
,,,2.25000000e-009,-1.53999992e-002
,,,2.27500000e-009,-1.50593742e-002
,,,2.30000000e-009,-1.47109367e-002
,,,2.32500000e-009,-1.43531242e-002
,,,2.35000000e-009,-1.39859366e-002
,,,2.37500000e-009,-1.36187491e-002
,,,2.40000000e-009,-1.32593741e-002
,,,2.42500000e-009,-1.29171866e-002
,,,2.45000000e-009,-1.25999990e-002
,,,2.47500000e-009,-1.24328115e-002
,,,2.50000000e-009,-1.22640615e-002
,,,2.52500000e-009,-1.20937490e-002
,,,2.55000000e-009,-1.19249990e-002
,,,2.57500000e-009,-1.17640615e-002
,,,2.60000000e-009,-1.16171865e-002
,,,2.62500000e-009,-1.14953115e-002
,,,2.65000000e-009,-1.13999990e-002
,,,2.67500000e-009,-1.14218740e-002
,,,2.70000000e-009,-1.14437490e-002
,,,2.72500000e-009,-1.14609365e-002
,,,2.75000000e-009,-1.14671865e-002
,,,2.77500000e-009,-1.14624990e-002
,,,2.80000000e-009,-1.14484365e-002
,,,2.82500000e-009,-1.14265615e-002
,,,2.85000000e-009,-1.13999990e-002
,,,2.87500000e-009,-1.14249990e-002
,,,2.90000000e-009,-1.14328115e-002
,,,2.92500000e-009,-1.14249990e-002
,,,2.95000000e-009,-1.14093740e-002
,,,2.97500000e-009,-1.13921865e-002
,,,3.00000000e-009,-1.13812490e-002
,,,3.02500000e-009,-1.13812490e-002
,,,3.05000000e-009,-1.13999990e-002
,,,3.07500000e-009,-1.14640615e-002
,,,3.10000000e-009,-1.15328115e-002
,,,3.12500000e-009,-1.16015615e-002
,,,3.15000000e-009,-1.16656240e-002
,,,3.17500000e-009,-1.17203115e-002
,,,3.20000000e-009,-1.17640615e-002
,,,3.22500000e-009,-1.17921865e-002
,,,3.25000000e-009,-1.17999990e-002
,,,3.27500000e-009,-1.17890615e-002
,,,3.30000000e-009,-1.17546865e-002
,,,3.32500000e-009,-1.17015615e-002
,,,3.35000000e-009,-1.16343740e-002
,,,3.37500000e-009,-1.15640615e-002
,,,3.40000000e-009,-1.14968740e-002
,,,3.42500000e-009,-1.14406240e-002
,,,3.45000000e-009,-1.13999990e-002
,,,3.47500000e-009,-1.13624990e-002
,,,3.50000000e-009,-1.13406240e-002
,,,3.52500000e-009,-1.13312490e-002
,,,3.55000000e-009,-1.13359365e-002
,,,3.57500000e-009,-1.13484365e-002
,,,3.60000000e-009,-1.13671865e-002
,,,3.62500000e-009,-1.13859365e-002
,,,3.65000000e-009,-1.13999990e-002
,,,3.67500000e-009,-1.13796865e-002
,,,3.70000000e-009,-1.13437490e-002
,,,3.72500000e-009,-1.12953115e-002
,,,3.75000000e-009,-1.12390615e-002
,,,3.77500000e-009,-1.11781239e-002
,,,3.80000000e-009,-1.11171864e-002
,,,3.82500000e-009,-1.10562489e-002
,,,3.85000000e-009,-1.09999989e-002
,,,3.87500000e-009,-1.09171864e-002
,,,3.90000000e-009,-1.08296864e-002
,,,3.92500000e-009,-1.07390614e-002
,,,3.95000000e-009,-1.06453114e-002
,,,3.97500000e-009,-1.05468739e-002
,,,4.00000000e-009,-1.04421864e-002
,,,4.02500000e-009,-1.03265614e-002
,,,4.05000000e-009,-1.01999989e-002
,,,4.07500000e-009,-1.00328114e-002
,,,4.10000000e-009,-9.84687385e-003
,,,4.12500000e-009,-9.64531134e-003
,,,4.15000000e-009,-9.43593632e-003
,,,4.17500000e-009,-9.22187381e-003
,,,4.20000000e-009,-9.00937379e-003
,,,4.22500000e-009,-8.80156128e-003
,,,4.25000000e-009,-8.59999876e-003
,,,4.27500000e-009,-8.39374875e-003
,,,4.30000000e-009,-8.18906124e-003
,,,4.32500000e-009,-7.98593622e-003
,,,4.35000000e-009,-7.78749871e-003
,,,4.37500000e-009,-7.58906119e-003
,,,4.40000000e-009,-7.39218618e-003
,,,4.42500000e-009,-7.19687367e-003
,,,4.45000000e-009,-6.99999865e-003
,,,4.47500000e-009,-6.79531114e-003
,,,4.50000000e-009,-6.58437362e-003
,,,4.52500000e-009,-6.36874861e-003
,,,4.55000000e-009,-6.15468609e-003
,,,4.57500000e-009,-5.94687358e-003
,,,4.60000000e-009,-5.74999856e-003
,,,4.62500000e-009,-5.56718605e-003
,,,4.65000000e-009,-5.39999854e-003
,,,4.67500000e-009,-5.25312353e-003
,,,4.70000000e-009,-5.10937352e-003
,,,4.72500000e-009,-4.96718601e-003
,,,4.75000000e-009,-4.82343600e-003
,,,4.77500000e-009,-4.67656099e-003
,,,4.80000000e-009,-4.52343598e-003
,,,4.82500000e-009,-4.36562346e-003
,,,4.85000000e-009,-4.19999845e-003
,,,4.87500000e-009,-4.04062344e-003
,,,4.90000000e-009,-3.87187343e-003
,,,4.92500000e-009,-3.69687342e-003
,,,4.95000000e-009,-3.52499841e-003
,,,4.97500000e-009,-3.36093589e-003
,,,5.00000000e-009,-3.21562338e-003
,,,5.02500000e-009,-3.09531088e-003
,,,5.05000000e-009,-2.99999837e-003
,,,5.07500000e-009,-2.94999836e-003
,,,5.10000000e-009,-2.91249836e-003
,,,5.12500000e-009,-2.88124836e-003
,,,5.15000000e-009,-2.84999836e-003
,,,5.17500000e-009,-2.81249836e-003
,,,5.20000000e-009,-2.76093585e-003
,,,5.22500000e-009,-2.69218585e-003
,,,5.25000000e-009,-2.59999834e-003
,,,5.27500000e-009,-2.50312333e-003
,,,5.30000000e-009,-2.37656082e-003
,,,5.32500000e-009,-2.22499831e-003
,,,5.35000000e-009,-2.05781080e-003
,,,5.37500000e-009,-1.88124829e-003
,,,5.40000000e-009,-1.70781078e-003
,,,5.42500000e-009,-1.54531077e-003
,,,5.45000000e-009,-1.39999826e-003
,,,5.47500000e-009,-1.29999825e-003
,,,5.50000000e-009,-1.21874824e-003
,,,5.52500000e-009,-1.15624824e-003
,,,5.55000000e-009,-1.10937323e-003
,,,5.57500000e-009,-1.07499823e-003
,,,5.60000000e-009,-1.04843573e-003
,,,5.62500000e-009,-1.02499823e-003
,,,5.65000000e-009,-9.99998227e-004
,,,5.67500000e-009,-9.87498226e-004
,,,5.70000000e-009,-9.60935724e-004
,,,5.72500000e-009,-9.21873221e-004
,,,5.75000000e-009,-8.70310718e-004
,,,5.77500000e-009,-8.06248213e-004
,,,5.80000000e-009,-7.37498208e-004
,,,5.82500000e-009,-6.67185703e-004
,,,5.85000000e-009,-5.99998198e-004
,,,5.87500000e-009,-5.54685695e-004
