RawData/CosmicRays/L7_2pt2A_15mV/wave018_Ch1.csv

"Record Length",1000,"Points",-7.72500000e-009,-1.93748170e-004
"Sample Interval",2.50000000e-011,s,-7.70000000e-009,-1.95310670e-004
"Trigger Point",309,"Samples",-7.67500000e-009,-1.98435670e-004
"Trigger Time",2.35591705e-011,s,-7.65000000e-009,-2.03123170e-004
"",,,-7.62500000e-009,-2.06248171e-004
"Horizontal Offset",-7.72500000e-009,s,-7.60000000e-009,-2.04685670e-004
,,,-7.57500000e-009,-1.99998170e-004
,,,-7.55000000e-009,-1.95310670e-004
,,,-7.52500000e-009,-1.89060669e-004
,,,-7.50000000e-009,-1.79685669e-004
,,,-7.47500000e-009,-1.73435668e-004
,,,-7.45000000e-009,-1.70310668e-004
,,,-7.42500000e-009,-1.73435668e-004
,,,-7.40000000e-009,-1.84373169e-004
,,,-7.37500000e-009,-1.99998170e-004
,,,-7.35000000e-009,-2.28123172e-004
,,,-7.32500000e-009,-2.56248174e-004
,,,-7.30000000e-009,-2.81248176e-004
,,,-7.27500000e-009,-2.96873177e-004
,,,-7.25000000e-009,-2.99998177e-004
,,,-7.22500000e-009,-2.85935676e-004
,,,-7.20000000e-009,-2.53123174e-004
,,,-7.17500000e-009,-1.99998170e-004
,,,-7.15000000e-009,-1.32810665e-004
,,,-7.12500000e-009,-5.46856599e-005
,,,-7.10000000e-009,2.50018458e-005
,,,-7.07500000e-009,1.01564351e-004
,,,-7.05000000e-009,1.64064356e-004
,,,-7.02500000e-009,2.04689359e-004
,,,-7.00000000e-009,2.17189359e-004
,,,-6.97500000e-009,2.00001858e-004
,,,-6.95000000e-009,1.43751854e-004
,,,-6.92500000e-009,5.93768482e-005
,,,-6.90000000e-009,-4.84356594e-005
,,,-6.87500000e-009,-1.68748168e-004
,,,-6.85000000e-009,-2.92185677e-004
,,,-6.82500000e-009,-4.12498185e-004
,,,-6.80000000e-009,-5.17185693e-004
,,,-6.77500000e-009,-5.99998198e-004
,,,-6.75000000e-009,-6.56248202e-004
,,,-6.72500000e-009,-6.85935705e-004
,,,-6.70000000e-009,-6.92185705e-004
,,,-6.67500000e-009,-6.81248204e-004
,,,-6.65000000e-009,-6.59373203e-004
,,,-6.62500000e-009,-6.35935701e-004
,,,-6.60000000e-009,-6.14060699e-004
,,,-6.57500000e-009,-5.99998198e-004
,,,-6.55000000e-009,-5.96873198e-004
,,,-6.52500000e-009,-6.03123199e-004
,,,-6.50000000e-009,-6.15623200e-004
,,,-6.47500000e-009,-6.31248201e-004
,,,-6.45000000e-009,-6.42185701e-004
,,,-6.42500000e-009,-6.45310702e-004
,,,-6.40000000e-009,-6.31248201e-004
,,,-6.37500000e-009,-5.99998198e-004
,,,-6.35000000e-009,-5.51560695e-004
,,,-6.32500000e-009,-4.87498190e-004
,,,-6.30000000e-009,-4.15623185e-004
,,,-6.27500000e-009,-3.43748180e-004
,,,-6.25000000e-009,-2.79685676e-004
,,,-6.22500000e-009,-2.31248172e-004
,,,-6.20000000e-009,-2.03123170e-004
,,,-6.17500000e-009,-1.99998170e-004
,,,-6.15000000e-009,-2.28123172e-004
,,,-6.12500000e-009,-2.78123176e-004
,,,-6.10000000e-009,-3.43748180e-004
,,,-6.07500000e-009,-4.18748186e-004
,,,-6.05000000e-009,-4.89060691e-004
,,,-6.02500000e-009,-5.48435695e-004
,,,-6.00000000e-009,-5.87498198e-004
,,,-5.97500000e-009,-5.99998198e-004
,,,-5.95000000e-009,-5.79685697e-004
,,,-5.92500000e-009,-5.34373194e-004
,,,-5.90000000e-009,-4.68748189e-004
,,,-5.87500000e-009,-3.95310684e-004
,,,-5.85000000e-009,-3.23435679e-004
,,,-5.82500000e-009,-2.60935674e-004
,,,-5.80000000e-009,-2.18748171e-004
,,,-5.77500000e-009,-1.99998170e-004
,,,-5.75000000e-009,-2.12498171e-004
,,,-5.72500000e-009,-2.49998174e-004
,,,-5.70000000e-009,-3.07810678e-004
,,,-5.67500000e-009,-3.76560683e-004
,,,-5.65000000e-009,-4.48435688e-004
,,,-5.62500000e-009,-5.15623192e-004
,,,-5.60000000e-009,-5.67185696e-004
,,,-5.57500000e-009,-5.99998198e-004
,,,-5.55000000e-009,-6.14060699e-004
,,,-5.52500000e-009,-6.07810699e-004
,,,-5.50000000e-009,-5.89060698e-004
,,,-5.47500000e-009,-5.65623196e-004
,,,-5.45000000e-009,-5.48435695e-004
,,,-5.42500000e-009,-5.43748194e-004
,,,-5.40000000e-009,-5.60935696e-004
,,,-5.37500000e-009,-5.99998198e-004
,,,-5.35000000e-009,-6.62498203e-004
,,,-5.32500000e-009,-7.40623208e-004
,,,-5.30000000e-009,-8.28123215e-004
,,,-5.27500000e-009,-9.14060721e-004
,,,-5.25000000e-009,-9.84373226e-004
,,,-5.22500000e-009,-1.02812323e-003
,,,-5.20000000e-009,-1.03593573e-003
,,,-5.17500000e-009,-9.99998227e-004
,,,-5.15000000e-009,-9.15623221e-004
,,,-5.12500000e-009,-7.90623212e-004
,,,-5.10000000e-009,-6.34373201e-004
,,,-5.07500000e-009,-4.54685688e-004
,,,-5.05000000e-009,-2.68748175e-004
,,,-5.02500000e-009,-8.90606623e-005
,,,-5.00000000e-009,7.03143490e-005
,,,-4.97500000e-009,2.00001858e-004
,,,-4.95000000e-009,2.84376864e-004
,,,-4.92500000e-009,3.21876867e-004
,,,-4.90000000e-009,3.15626866e-004
,,,-4.87500000e-009,2.67189363e-004
,,,-4.85000000e-009,1.82814357e-004
,,,-4.82500000e-009,6.87518489e-005
,,,-4.80000000e-009,-6.24981604e-005
,,,-4.77500000e-009,-1.99998170e-004
,,,-4.75000000e-009,-3.35935680e-004
,,,-4.72500000e-009,-4.56248188e-004
,,,-4.70000000e-009,-5.54685695e-004
,,,-4.67500000e-009,-6.24998200e-004
,,,-4.65000000e-009,-6.64060703e-004
,,,-4.62500000e-009,-6.71873204e-004
,,,-4.60000000e-009,-6.49998202e-004
,,,-4.57500000e-009,-5.99998198e-004
,,,-4.55000000e-009,-5.29685693e-004
,,,-4.52500000e-009,-4.48435688e-004
,,,-4.50000000e-009,-3.64060682e-004
,,,-4.47500000e-009,-2.87498176e-004
,,,-4.45000000e-009,-2.28123172e-004
,,,-4.42500000e-009,-1.90623169e-004
,,,-4.40000000e-009,-1.81248169e-004
,,,-4.37500000e-009,-1.99998170e-004
,,,-4.35000000e-009,-2.48435674e-004
,,,-4.32500000e-009,-3.17185678e-004
,,,-4.30000000e-009,-3.96873184e-004
,,,-4.27500000e-009,-4.78123190e-004
,,,-4.25000000e-009,-5.46873195e-004
,,,-4.22500000e-009,-5.96873198e-004
,,,-4.20000000e-009,-6.15623200e-004
,,,-4.17500000e-009,-5.99998198e-004
,,,-4.15000000e-009,-5.48435695e-004
,,,-4.12500000e-009,-4.64060689e-004
,,,-4.10000000e-009,-3.53123181e-004
,,,-4.07500000e-009,-2.26560672e-004
,,,-4.05000000e-009,-9.68731628e-005
,,,-4.02500000e-009,2.50018458e-005
,,,-4.00000000e-009,1.26564353e-004
,,,-3.97500000e-009,2.00001858e-004
,,,-3.95000000e-009,2.34376861e-004
,,,-3.92500000e-009,2.32814360e-004
,,,-3.90000000e-009,1.96876858e-004
,,,-3.87500000e-009,1.34376854e-004
,,,-3.85000000e-009,5.31268478e-005
,,,-3.82500000e-009,-3.59356585e-005
,,,-3.80000000e-009,-1.23435665e-004
,,,-3.77500000e-009,-1.99998170e-004
,,,-3.75000000e-009,-2.64060675e-004
,,,-3.72500000e-009,-3.06248178e-004
,,,-3.70000000e-009,-3.26560679e-004
,,,-3.67500000e-009,-3.24998179e-004
,,,-3.65000000e-009,-3.07810678e-004
,,,-3.62500000e-009,-2.76560676e-004
,,,-3.60000000e-009,-2.39060673e-004
,,,-3.57500000e-009,-1.99998170e-004
,,,-3.55000000e-009,-1.67185668e-004
,,,-3.52500000e-009,-1.42185666e-004
,,,-3.50000000e-009,-1.26560665e-004
,,,-3.47500000e-009,-1.21873165e-004
,,,-3.45000000e-009,-1.29685665e-004
,,,-3.42500000e-009,-1.46873166e-004
,,,-3.40000000e-009,-1.71873168e-004
,,,-3.37500000e-009,-1.99998170e-004
,,,-3.35000000e-009,-2.32810672e-004
,,,-3.32500000e-009,-2.62498175e-004
,,,-3.30000000e-009,-2.84373176e-004
,,,-3.27500000e-009,-2.95310677e-004
,,,-3.25000000e-009,-2.92185677e-004
,,,-3.22500000e-009,-2.74998175e-004
,,,-3.20000000e-009,-2.43748173e-004
,,,-3.17500000e-009,-1.99998170e-004
,,,-3.15000000e-009,-1.54685667e-004
,,,-3.12500000e-009,-1.07810664e-004
,,,-3.10000000e-009,-6.71856607e-005
,,,-3.07500000e-009,-4.21856590e-005
,,,-3.05000000e-009,-3.74981586e-005
,,,-3.02500000e-009,-6.09356603e-005
,,,-3.00000000e-009,-1.15623164e-004
,,,-2.97500000e-009,-1.99998170e-004
,,,-2.95000000e-009,-3.12498178e-004
,,,-2.92500000e-009,-4.43748187e-004
,,,-2.90000000e-009,-5.84373197e-004
,,,-2.87500000e-009,-7.20310707e-004
,,,-2.85000000e-009,-8.40623215e-004
,,,-2.82500000e-009,-9.32810722e-004
,,,-2.80000000e-009,-9.89060726e-004
,,,-2.77500000e-009,-9.99998227e-004
,,,-2.75000000e-009,-9.59373224e-004
,,,-2.72500000e-009,-8.78123218e-004
,,,-2.70000000e-009,-7.65623210e-004
,,,-2.67500000e-009,-6.34373201e-004
,,,-2.65000000e-009,-4.99998191e-004
,,,-2.62500000e-009,-3.74998183e-004
,,,-2.60000000e-009,-2.71873175e-004
,,,-2.57500000e-009,-1.99998170e-004
,,,-2.55000000e-009,-1.68748168e-004
,,,-2.52500000e-009,-1.73435668e-004
,,,-2.50000000e-009,-2.14060671e-004
,,,-2.47500000e-009,-2.81248176e-004
,,,-2.45000000e-009,-3.64060682e-004
,,,-2.42500000e-009,-4.51560688e-004
,,,-2.40000000e-009,-5.32810694e-004
,,,-2.37500000e-009,-5.99998198e-004
,,,-2.35000000e-009,-6.45310702e-004
,,,-2.32500000e-009,-6.67185703e-004
,,,-2.30000000e-009,-6.68748203e-004
,,,-2.27500000e-009,-6.56248202e-004
,,,-2.25000000e-009,-6.37498201e-004
,,,-2.22500000e-009,-6.17185700e-004
,,,-2.20000000e-009,-6.04685699e-004
,,,-2.17500000e-009,-5.99998198e-004
,,,-2.15000000e-009,-6.06248199e-004
,,,-2.12500000e-009,-6.21873200e-004
,,,-2.10000000e-009,-6.43748202e-004
,,,-2.07500000e-009,-6.65623203e-004
,,,-2.05000000e-009,-6.79685704e-004
,,,-2.02500000e-009,-6.76560704e-004
,,,-2.00000000e-009,-6.51560702e-004
,,,-1.97500000e-009,-5.99998198e-004
,,,-1.95000000e-009,-5.20310693e-004
,,,-1.92500000e-009,-4.17185686e-004
,,,-1.90000000e-009,-2.99998177e-004
,,,-1.87500000e-009,-1.74998168e-004
,,,-1.85000000e-009,-5.31231597e-005
,,,-1.82500000e-009,5.46893479e-005
,,,-1.80000000e-009,1.42189354e-004
,,,-1.77500000e-009,2.00001858e-004
,,,-1.75000000e-009,2.14064359e-004
,,,-1.72500000e-009,1.96876858e-004
,,,-1.70000000e-009,1.53126855e-004
,,,-1.67500000e-009,8.75018502e-005
,,,-1.65000000e-009,1.09393448e-005
,,,-1.62500000e-009,-6.71856607e-005
,,,-1.60000000e-009,-1.40623166e-004
,,,-1.57500000e-009,-1.99998170e-004
,,,-1.55000000e-009,-2.51560674e-004
,,,-1.52500000e-009,-2.82810676e-004
,,,-1.50000000e-009,-2.96873177e-004
,,,-1.47500000e-009,-2.93748177e-004
,,,-1.45000000e-009,-2.78123176e-004
,,,-1.42500000e-009,-2.53123174e-004
,,,-1.40000000e-009,-2.26560672e-004
,,,-1.37500000e-009,-1.99998170e-004
,,,-1.35000000e-009,-2.04685670e-004
,,,-1.32500000e-009,-2.15623171e-004
,,,-1.30000000e-009,-2.29685672e-004
,,,-1.27500000e-009,-2.45310673e-004
,,,-1.25000000e-009,-2.53123174e-004
,,,-1.22500000e-009,-2.51560674e-004
,,,-1.20000000e-009,-2.34373173e-004
,,,-1.17500000e-009,-1.99998170e-004
,,,-1.15000000e-009,-1.99998170e-004
,,,-1.12500000e-009,-1.96873170e-004
,,,-1.10000000e-009,-1.89060669e-004
,,,-1.07500000e-009,-1.82810669e-004
,,,-1.05000000e-009,-1.76560668e-004
,,,-1.02500000e-009,-1.76560668e-004
,,,-1.00000000e-009,-1.82810669e-004
,,,-9.75000000e-010,-1.99998170e-004
,,,-9.50000000e-010,-3.14060678e-004
,,,-9.25000000e-010,-4.46873188e-004
,,,-9.00000000e-010,-5.89060698e-004
,,,-8.75000000e-010,-7.26560707e-004
,,,-8.50000000e-010,-8.45310716e-004
,,,-8.25000000e-010,-9.34373222e-004
,,,-8.00000000e-010,-9.85935726e-004
,,,-7.75000000e-010,-9.99998227e-004
,,,-7.50000000e-010,-1.09218573e-003
,,,-7.25000000e-010,-1.17968574e-003
,,,-7.00000000e-010,-1.26249825e-003
,,,-6.75000000e-010,-1.34687325e-003
,,,-6.50000000e-010,-1.43593576e-003
,,,-6.25000000e-010,-1.53593576e-003
,,,-6.00000000e-010,-1.65468577e-003
,,,-5.75000000e-010,-1.79999828e-003
,,,-5.50000000e-010,-2.11562331e-003
,,,-5.25000000e-010,-2.48593583e-003
,,,-5.00000000e-010,-2.89843586e-003
,,,-4.75000000e-010,-3.33437339e-003
,,,-4.50000000e-010,-3.77656092e-003
,,,-4.25000000e-010,-4.20624845e-003
,,,-4.00000000e-010,-4.61562348e-003
,,,-3.75000000e-010,-4.99999851e-003
,,,-3.50000000e-010,-5.49062354e-003
,,,-3.25000000e-010,-5.98906108e-003
,,,-3.00000000e-010,-6.49999862e-003
,,,-2.75000000e-010,-7.02499865e-003
,,,-2.50000000e-010,-7.57031119e-003
,,,-2.25000000e-010,-8.14218623e-003
,,,-2.00000000e-010,-8.74999878e-003
,,,-1.75000000e-010,-9.39999882e-003
,,,-1.50000000e-010,-1.01890614e-002
,,,-1.25000000e-010,-1.10515614e-002
,,,-1.00000000e-010,-1.19781240e-002
,,,-7.50000000e-011,-1.29546866e-002
,,,-5.00000000e-011,-1.39609366e-002
,,,-2.50000000e-011,-1.49812492e-002
,,,0.00000000e+000,-1.59984368e-002
,,,2.50000000e-011,-1.69999994e-002
,,,5.00000000e-011,-1.79859369e-002
,,,7.50000000e-011,-1.89624995e-002
,,,1.00000000e-010,-1.99296871e-002
,,,1.25000000e-010,-2.08859371e-002
,,,1.50000000e-010,-2.18312497e-002
,,,1.75000000e-010,-2.27640623e-002
,,,2.00000000e-010,-2.36874998e-002
,,,2.25000000e-010,-2.45999999e-002
,,,2.50000000e-010,-2.54265625e-002
,,,2.75000000e-010,-2.62656250e-002
,,,3.00000000e-010,-2.71203126e-002
,,,3.25000000e-010,-2.79875001e-002
,,,3.50000000e-010,-2.88593752e-002
,,,3.75000000e-010,-2.97265628e-002
,,,4.00000000e-010,-3.05781253e-002
,,,4.25000000e-010,-3.14000004e-002
,,,4.50000000e-010,-3.20234379e-002
,,,4.75000000e-010,-3.26187505e-002
,,,5.00000000e-010,-3.31828130e-002
,,,5.25000000e-010,-3.37140630e-002
,,,5.50000000e-010,-3.42093756e-002
,,,5.75000000e-010,-3.46593756e-002
,,,6.00000000e-010,-3.50593756e-002
,,,6.25000000e-010,-3.54000007e-002
,,,6.50000000e-010,-3.54859382e-002
,,,6.75000000e-010,-3.55328132e-002
,,,7.00000000e-010,-3.55531257e-002
,,,7.25000000e-010,-3.55531257e-002
,,,7.50000000e-010,-3.55390632e-002
,,,7.75000000e-010,-3.55109382e-002
,,,8.00000000e-010,-3.54656257e-002
,,,8.25000000e-010,-3.54000007e-002
,,,8.50000000e-010,-3.51156256e-002
,,,8.75000000e-010,-3.48218756e-002
,,,9.00000000e-010,-3.45281256e-002
,,,9.25000000e-010,-3.42359381e-002
,,,9.50000000e-010,-3.39421881e-002
,,,9.75000000e-010,-3.36437505e-002
,,,1.00000000e-009,-3.33328130e-002
,,,1.02500000e-009,-3.30000005e-002
,,,1.05000000e-009,-3.24796880e-002
,,,1.07500000e-009,-3.19390629e-002
,,,1.10000000e-009,-3.13843754e-002
,,,1.12500000e-009,-3.08234378e-002
,,,1.15000000e-009,-3.02593753e-002
,,,1.17500000e-009,-2.97000003e-002
,,,1.20000000e-009,-2.91468752e-002
,,,1.22500000e-009,-2.86000002e-002
,,,1.25000000e-009,-2.79609376e-002
,,,1.27500000e-009,-2.73343751e-002
,,,1.30000000e-009,-2.67296875e-002
,,,1.32500000e-009,-2.61515625e-002
,,,1.35000000e-009,-2.56078125e-002
,,,1.37500000e-009,-2.51015624e-002
,,,1.40000000e-009,-2.46328124e-002
,,,1.42500000e-009,-2.41999999e-002
,,,1.45000000e-009,-2.37515623e-002
,,,1.47500000e-009,-2.33093748e-002
,,,1.50000000e-009,-2.28703123e-002
,,,1.52500000e-009,-2.24281247e-002
,,,1.55000000e-009,-2.19828122e-002
,,,1.57500000e-009,-2.15312497e-002
,,,1.60000000e-009,-2.10718746e-002
,,,1.62500000e-009,-2.05999996e-002
,,,1.65000000e-009,-2.01171871e-002
,,,1.67500000e-009,-1.95984370e-002
,,,1.70000000e-009,-1.90499995e-002
,,,1.72500000e-009,-1.84796870e-002
,,,1.75000000e-009,-1.78984369e-002
,,,1.77500000e-009,-1.73187494e-002
,,,1.80000000e-009,-1.67499993e-002
,,,1.82500000e-009,-1.61999993e-002
,,,1.85000000e-009,-1.57140618e-002
,,,1.87500000e-009,-1.52343742e-002
,,,1.90000000e-009,-1.47624992e-002
,,,1.92500000e-009,-1.42984367e-002
,,,1.95000000e-009,-1.38468741e-002
,,,1.97500000e-009,-1.34109366e-002
,,,2.00000000e-009,-1.29953116e-002
,,,2.02500000e-009,-1.25999990e-002
,,,2.05000000e-009,-1.22828115e-002
,,,2.07500000e-009,-1.19640615e-002
,,,2.10000000e-009,-1.16437490e-002
,,,2.12500000e-009,-1.13234365e-002
,,,2.15000000e-009,-1.10140614e-002
,,,2.17500000e-009,-1.07187489e-002
,,,2.20000000e-009,-1.04453114e-002
,,,2.22500000e-009,-1.01999989e-002
,,,2.25000000e-009,-1.00437489e-002
,,,2.27500000e-009,-9.89218636e-003
,,,2.30000000e-009,-9.74374885e-003
,,,2.32500000e-009,-9.59374884e-003
,,,2.35000000e-009,-9.44374882e-003
,,,2.37500000e-009,-9.29374881e-003
,,,2.40000000e-009,-9.14531130e-003
,,,2.42500000e-009,-8.99999879e-003
,,,2.45000000e-009,-8.91249879e-003
,,,2.47500000e-009,-8.81406128e-003
,,,2.50000000e-009,-8.70624877e-003
,,,2.52500000e-009,-8.59062376e-003
,,,2.55000000e-009,-8.47812376e-003
,,,2.57500000e-009,-8.37187375e-003
,,,2.60000000e-009,-8.27812374e-003
,,,2.62500000e-009,-8.19999874e-003
,,,2.65000000e-009,-8.18124874e-003
,,,2.67500000e-009,-8.15937373e-003
,,,2.70000000e-009,-8.13124873e-003
,,,2.72500000e-009,-8.09374873e-003
,,,2.75000000e-009,-8.04218623e-003
,,,2.77500000e-009,-7.97656122e-003
,,,2.80000000e-009,-7.89531121e-003
,,,2.82500000e-009,-7.79999871e-003
,,,2.85000000e-009,-7.71874870e-003
,,,2.87500000e-009,-7.61718620e-003
,,,2.90000000e-009,-7.50156119e-003
,,,2.92500000e-009,-7.37812368e-003
,,,2.95000000e-009,-7.25937367e-003
,,,2.97500000e-009,-7.14999866e-003
,,,3.00000000e-009,-7.06249866e-003
,,,3.02500000e-009,-6.99999865e-003
,,,3.05000000e-009,-6.98749865e-003
,,,3.07500000e-009,-6.99843615e-003
,,,3.10000000e-009,-7.03281115e-003
,,,3.12500000e-009,-7.08593616e-003
,,,3.15000000e-009,-7.15468616e-003
,,,3.17500000e-009,-7.23437367e-003
,,,3.20000000e-009,-7.31874867e-003
,,,3.22500000e-009,-7.39999868e-003
,,,3.25000000e-009,-7.47343618e-003
,,,3.27500000e-009,-7.52812369e-003
,,,3.30000000e-009,-7.55937369e-003
,,,3.32500000e-009,-7.56874869e-003
,,,3.35000000e-009,-7.55468619e-003
,,,3.37500000e-009,-7.52031119e-003
,,,3.40000000e-009,-7.46874868e-003
,,,3.42500000e-009,-7.39999868e-003
,,,3.45000000e-009,-7.31249867e-003
,,,3.47500000e-009,-7.21249867e-003
,,,3.50000000e-009,-7.10468616e-003
,,,3.52500000e-009,-6.99374865e-003
,,,3.55000000e-009,-6.88437364e-003
,,,3.57500000e-009,-6.78124864e-003
,,,3.60000000e-009,-6.68593613e-003
,,,3.62500000e-009,-6.59999862e-003
,,,3.65000000e-009,-6.51874862e-003
,,,3.67500000e-009,-6.44687361e-003
,,,3.70000000e-009,-6.38437361e-003
,,,3.72500000e-009,-6.32968610e-003
,,,3.75000000e-009,-6.28593610e-003
,,,3.77500000e-009,-6.25156110e-003
,,,3.80000000e-009,-6.22343610e-003
,,,3.82500000e-009,-6.19999859e-003
,,,3.85000000e-009,-6.16874859e-003
,,,3.87500000e-009,-6.13437359e-003
,,,3.90000000e-009,-6.09218609e-003
,,,3.92500000e-009,-6.04531108e-003
,,,3.95000000e-009,-5.99218608e-003
,,,3.97500000e-009,-5.93281108e-003
,,,4.00000000e-009,-5.87031107e-003
,,,4.02500000e-009,-5.79999857e-003
,,,4.05000000e-009,-5.71406106e-003
,,,4.07500000e-009,-5.62031105e-003
,,,4.10000000e-009,-5.52187355e-003
,,,4.12500000e-009,-5.41718604e-003
,,,4.15000000e-009,-5.31249853e-003
,,,4.17500000e-009,-5.20624852e-003
,,,4.20000000e-009,-5.10312352e-003
,,,4.22500000e-009,-4.99999851e-003
,,,4.25000000e-009,-4.89687350e-003
,,,4.27500000e-009,-4.79218600e-003
,,,4.30000000e-009,-4.68749849e-003
,,,4.32500000e-009,-4.58281098e-003
,,,4.35000000e-009,-4.48281097e-003
,,,4.37500000e-009,-4.38437347e-003
,,,4.40000000e-009,-4.29062346e-003
,,,4.42500000e-009,-4.19999845e-003
,,,4.45000000e-009,-4.11093595e-003
,,,4.47500000e-009,-4.01718594e-003
,,,4.50000000e-009,-3.91874843e-003
,,,4.52500000e-009,-3.81874843e-003
,,,4.55000000e-009,-3.71406092e-003
,,,4.57500000e-009,-3.60937341e-003
,,,4.60000000e-009,-3.50468590e-003
,,,4.62500000e-009,-3.39999840e-003
,,,4.65000000e-009,-3.29843589e-003
,,,4.67500000e-009,-3.19531088e-003
,,,4.70000000e-009,-3.08906087e-003
,,,4.72500000e-009,-2.98437337e-003
,,,4.75000000e-009,-2.87968586e-003
,,,4.77500000e-009,-2.78124835e-003
,,,4.80000000e-009,-2.68749835e-003
,,,4.82500000e-009,-2.59999834e-003
,,,4.85000000e-009,-2.53124834e-003
,,,4.87500000e-009,-2.46874833e-003
,,,4.90000000e-009,-2.40937333e-003
,,,4.92500000e-009,-2.35624832e-003
,,,4.95000000e-009,-2.30937332e-003
,,,4.97500000e-009,-2.26718582e-003
,,,5.00000000e-009,-2.23281081e-003
,,,5.02500000e-009,-2.19999831e-003
,,,5.05000000e-009,-2.17812331e-003
,,,5.07500000e-009,-2.14999831e-003
,,,5.10000000e-009,-2.11562331e-003
,,,5.12500000e-009,-2.07187330e-003
,,,5.15000000e-009,-2.01718580e-003
,,,5.17500000e-009,-1.95468579e-003
,,,5.20000000e-009,-1.88281079e-003
,,,5.22500000e-009,-1.79999828e-003
,,,5.25000000e-009,-1.71874828e-003
,,,5.27500000e-009,-1.62499827e-003
,,,5.30000000e-009,-1.52343576e-003
,,,5.32500000e-009,-1.41406076e-003
,,,5.35000000e-009,-1.30468575e-003
,,,5.37500000e-009,-1.19531074e-003
,,,5.40000000e-009,-1.09218573e-003
,,,5.42500000e-009,-9.99998227e-004
,,,5.45000000e-009,-9.35935722e-004
,,,5.47500000e-009,-8.87498219e-004
,,,5.50000000e-009,-8.56248217e-004
,,,5.52500000e-009,-8.45310716e-004
,,,5.55000000e-009,-8.54685716e-004
,,,5.57500000e-009,-8.84373219e-004
,,,5.60000000e-009,-9.34373222e-004
,,,5.62500000e-009,-9.99998227e-004
,,,5.65000000e-009,-1.08593573e-003
,,,5.67500000e-009,-1.17343574e-003
,,,5.70000000e-009,-1.25624824e-003
,,,5.72500000e-009,-1.32812325e-003
,,,5.75000000e-009,-1.38124825e-003
,,,5.77500000e-009,-1.41406076e-003
,,,5.80000000e-009,-1.42187326e-003
,,,5.82500000e-009,-1.39999826e-003
