RawData/CosmicRays/L7_2pt2A_15mV/wave017_Ch1.csv

"Record Length",1000,"Points",-7.72500000e-009,2.37501861e-004
"Sample Interval",2.50000000e-011,s,-7.70000000e-009,2.37501861e-004
"Trigger Point",309,"Samples",-7.67500000e-009,2.31251860e-004
"Trigger Time",2.40200000e-011,s,-7.65000000e-009,2.18751860e-004
"",,,-7.62500000e-009,2.00001858e-004
"Horizontal Offset",-7.72500000e-009,s,-7.60000000e-009,1.71876856e-004
,,,-7.57500000e-009,1.37501854e-004
,,,-7.55000000e-009,9.53143508e-005
,,,-7.52500000e-009,4.68768473e-005
,,,-7.50000000e-009,-7.81065653e-006
,,,-7.47500000e-009,-6.71856607e-005
,,,-7.45000000e-009,-1.32810665e-004
,,,-7.42500000e-009,-1.99998170e-004
,,,-7.40000000e-009,-2.70310675e-004
,,,-7.37500000e-009,-3.35935680e-004
,,,-7.35000000e-009,-3.99998184e-004
,,,-7.32500000e-009,-4.56248188e-004
,,,-7.30000000e-009,-5.06248192e-004
,,,-7.27500000e-009,-5.46873195e-004
,,,-7.25000000e-009,-5.79685697e-004
,,,-7.22500000e-009,-5.99998198e-004
,,,-7.20000000e-009,-6.07810699e-004
,,,-7.17500000e-009,-6.09373199e-004
,,,-7.15000000e-009,-6.06248199e-004
,,,-7.12500000e-009,-5.99998198e-004
,,,-7.10000000e-009,-5.95310698e-004
,,,-7.07500000e-009,-5.93748198e-004
,,,-7.05000000e-009,-5.95310698e-004
,,,-7.02500000e-009,-5.99998198e-004
,,,-7.00000000e-009,-6.06248199e-004
,,,-6.97500000e-009,-6.14060699e-004
,,,-6.95000000e-009,-6.24998200e-004
,,,-6.92500000e-009,-6.32810701e-004
,,,-6.90000000e-009,-6.37498201e-004
,,,-6.87500000e-009,-6.34373201e-004
,,,-6.85000000e-009,-6.23435700e-004
,,,-6.82500000e-009,-5.99998198e-004
,,,-6.80000000e-009,-5.62498196e-004
,,,-6.77500000e-009,-5.14060692e-004
,,,-6.75000000e-009,-4.60935689e-004
,,,-6.72500000e-009,-4.03123185e-004
,,,-6.70000000e-009,-3.43748180e-004
,,,-6.67500000e-009,-2.89060676e-004
,,,-6.65000000e-009,-2.40623173e-004
,,,-6.62500000e-009,-1.99998170e-004
,,,-6.60000000e-009,-1.70310668e-004
,,,-6.57500000e-009,-1.51560667e-004
,,,-6.55000000e-009,-1.43748166e-004
,,,-6.52500000e-009,-1.46873166e-004
,,,-6.50000000e-009,-1.56248167e-004
,,,-6.47500000e-009,-1.70310668e-004
,,,-6.45000000e-009,-1.85935669e-004
,,,-6.42500000e-009,-1.99998170e-004
,,,-6.40000000e-009,-2.12498171e-004
,,,-6.37500000e-009,-2.21873172e-004
,,,-6.35000000e-009,-2.24998172e-004
,,,-6.32500000e-009,-2.24998172e-004
,,,-6.30000000e-009,-2.20310672e-004
,,,-6.27500000e-009,-2.15623171e-004
,,,-6.25000000e-009,-2.07810671e-004
,,,-6.22500000e-009,-1.99998170e-004
,,,-6.20000000e-009,-1.96873170e-004
,,,-6.17500000e-009,-1.93748170e-004
,,,-6.15000000e-009,-1.92185670e-004
,,,-6.12500000e-009,-1.92185670e-004
,,,-6.10000000e-009,-1.93748170e-004
,,,-6.07500000e-009,-1.95310670e-004
,,,-6.05000000e-009,-1.98435670e-004
,,,-6.02500000e-009,-1.99998170e-004
,,,-6.00000000e-009,-2.06248171e-004
,,,-5.97500000e-009,-2.10935671e-004
,,,-5.95000000e-009,-2.14060671e-004
,,,-5.92500000e-009,-2.14060671e-004
,,,-5.90000000e-009,-2.14060671e-004
,,,-5.87500000e-009,-2.10935671e-004
,,,-5.85000000e-009,-2.06248171e-004
,,,-5.82500000e-009,-1.99998170e-004
,,,-5.80000000e-009,-1.98435670e-004
,,,-5.77500000e-009,-1.95310670e-004
,,,-5.75000000e-009,-1.93748170e-004
,,,-5.72500000e-009,-1.92185670e-004
,,,-5.70000000e-009,-1.92185670e-004
,,,-5.67500000e-009,-1.93748170e-004
,,,-5.65000000e-009,-1.96873170e-004
,,,-5.62500000e-009,-1.99998170e-004
,,,-5.60000000e-009,-2.07810671e-004
,,,-5.57500000e-009,-2.15623171e-004
,,,-5.55000000e-009,-2.20310672e-004
,,,-5.52500000e-009,-2.24998172e-004
,,,-5.50000000e-009,-2.24998172e-004
,,,-5.47500000e-009,-2.21873172e-004
,,,-5.45000000e-009,-2.12498171e-004
,,,-5.42500000e-009,-1.99998170e-004
,,,-5.40000000e-009,-1.85935669e-004
,,,-5.37500000e-009,-1.70310668e-004
,,,-5.35000000e-009,-1.56248167e-004
,,,-5.32500000e-009,-1.46873166e-004
,,,-5.30000000e-009,-1.43748166e-004
,,,-5.27500000e-009,-1.51560667e-004
,,,-5.25000000e-009,-1.70310668e-004
,,,-5.22500000e-009,-1.99998170e-004
,,,-5.20000000e-009,-2.43748173e-004
,,,-5.17500000e-009,-2.96873177e-004
,,,-5.15000000e-009,-3.56248181e-004
,,,-5.12500000e-009,-4.15623185e-004
,,,-5.10000000e-009,-4.74998190e-004
,,,-5.07500000e-009,-5.26560693e-004
,,,-5.05000000e-009,-5.68748196e-004
,,,-5.02500000e-009,-5.99998198e-004
,,,-5.00000000e-009,-6.17185700e-004
,,,-4.97500000e-009,-6.21873200e-004
,,,-4.95000000e-009,-6.17185700e-004
,,,-4.92500000e-009,-6.09373199e-004
,,,-4.90000000e-009,-5.99998198e-004
,,,-4.87500000e-009,-5.93748198e-004
,,,-4.85000000e-009,-5.93748198e-004
,,,-4.82500000e-009,-5.99998198e-004
,,,-4.80000000e-009,-6.10935699e-004
,,,-4.77500000e-009,-6.26560700e-004
,,,-4.75000000e-009,-6.43748202e-004
,,,-4.72500000e-009,-6.56248202e-004
,,,-4.70000000e-009,-6.64060703e-004
,,,-4.67500000e-009,-6.57810703e-004
,,,-4.65000000e-009,-6.37498201e-004
,,,-4.62500000e-009,-5.99998198e-004
,,,-4.60000000e-009,-5.49998195e-004
,,,-4.57500000e-009,-4.87498190e-004
,,,-4.55000000e-009,-4.18748186e-004
,,,-4.52500000e-009,-3.51560681e-004
,,,-4.50000000e-009,-2.89060676e-004
,,,-4.47500000e-009,-2.40623173e-004
,,,-4.45000000e-009,-2.10935671e-004
,,,-4.42500000e-009,-1.99998170e-004
,,,-4.40000000e-009,-2.14060671e-004
,,,-4.37500000e-009,-2.48435674e-004
,,,-4.35000000e-009,-2.99998177e-004
,,,-4.32500000e-009,-3.64060682e-004
,,,-4.30000000e-009,-4.32810687e-004
,,,-4.27500000e-009,-4.99998191e-004
,,,-4.25000000e-009,-5.57810695e-004
,,,-4.22500000e-009,-5.99998198e-004
,,,-4.20000000e-009,-6.20310700e-004
,,,-4.17500000e-009,-6.15623200e-004
,,,-4.15000000e-009,-5.87498198e-004
,,,-4.12500000e-009,-5.37498194e-004
,,,-4.10000000e-009,-4.68748189e-004
,,,-4.07500000e-009,-3.85935683e-004
,,,-4.05000000e-009,-2.93748177e-004
,,,-4.02500000e-009,-1.99998170e-004
,,,-4.00000000e-009,-1.14060664e-004
,,,-3.97500000e-009,-4.37481591e-005
,,,-3.95000000e-009,6.25184446e-006
,,,-3.92500000e-009,2.96893461e-005
,,,-3.90000000e-009,2.18768456e-005
,,,-3.87500000e-009,-2.03106574e-005
,,,-3.85000000e-009,-9.53106627e-005
,,,-3.82500000e-009,-1.99998170e-004
,,,-3.80000000e-009,-3.28123179e-004
,,,-3.77500000e-009,-4.68748189e-004
,,,-3.75000000e-009,-6.10935699e-004
,,,-3.72500000e-009,-7.43748209e-004
,,,-3.70000000e-009,-8.57810717e-004
,,,-3.67500000e-009,-9.42185723e-004
,,,-3.65000000e-009,-9.92185726e-004
,,,-3.62500000e-009,-9.99998227e-004
,,,-3.60000000e-009,-9.64060724e-004
,,,-3.57500000e-009,-8.89060719e-004
,,,-3.55000000e-009,-7.85935712e-004
,,,-3.52500000e-009,-6.64060703e-004
,,,-3.50000000e-009,-5.32810694e-004
,,,-3.47500000e-009,-4.06248185e-004
,,,-3.45000000e-009,-2.92185677e-004
,,,-3.42500000e-009,-1.99998170e-004
,,,-3.40000000e-009,-1.35935666e-004
,,,-3.37500000e-009,-9.99981631e-005
,,,-3.35000000e-009,-9.21856625e-005
,,,-3.32500000e-009,-1.03123163e-004
,,,-3.30000000e-009,-1.28123165e-004
,,,-3.27500000e-009,-1.57810667e-004
,,,-3.25000000e-009,-1.84373169e-004
,,,-3.22500000e-009,-1.99998170e-004
,,,-3.20000000e-009,-1.99998170e-004
,,,-3.17500000e-009,-1.79685669e-004
,,,-3.15000000e-009,-1.39060666e-004
,,,-3.12500000e-009,-8.28106618e-005
,,,-3.10000000e-009,-1.56231571e-005
,,,-3.07500000e-009,5.93768482e-005
,,,-3.05000000e-009,1.32814353e-004
,,,-3.02500000e-009,2.00001858e-004
,,,-3.00000000e-009,2.51564362e-004
,,,-2.97500000e-009,2.87501864e-004
,,,-2.95000000e-009,3.06251866e-004
,,,-2.92500000e-009,3.09376866e-004
,,,-2.90000000e-009,2.98439365e-004
,,,-2.87500000e-009,2.75001863e-004
,,,-2.85000000e-009,2.40626861e-004
,,,-2.82500000e-009,2.00001858e-004
,,,-2.80000000e-009,1.50001855e-004
,,,-2.77500000e-009,9.84393510e-005
,,,-2.75000000e-009,4.68768473e-005
,,,-2.72500000e-009,-6.24815642e-006
,,,-2.70000000e-009,-5.78106601e-005
,,,-2.67500000e-009,-1.07810664e-004
,,,-2.65000000e-009,-1.56248167e-004
,,,-2.62500000e-009,-1.99998170e-004
,,,-2.60000000e-009,-2.43748173e-004
,,,-2.57500000e-009,-2.78123176e-004
,,,-2.55000000e-009,-3.01560677e-004
,,,-2.52500000e-009,-3.12498178e-004
,,,-2.50000000e-009,-3.07810678e-004
,,,-2.47500000e-009,-2.87498176e-004
,,,-2.45000000e-009,-2.51560674e-004
,,,-2.42500000e-009,-1.99998170e-004
,,,-2.40000000e-009,-1.40623166e-004
,,,-2.37500000e-009,-7.49981613e-005
,,,-2.35000000e-009,-7.81065653e-006
,,,-2.32500000e-009,5.78143481e-005
,,,-2.30000000e-009,1.14064352e-004
,,,-2.27500000e-009,1.59376855e-004
,,,-2.25000000e-009,1.89064357e-004
,,,-2.22500000e-009,2.00001858e-004
,,,-2.20000000e-009,1.81251857e-004
,,,-2.17500000e-009,1.45314354e-004
,,,-2.15000000e-009,9.37518507e-005
,,,-2.12500000e-009,3.28143463e-005
,,,-2.10000000e-009,-3.12481582e-005
,,,-2.07500000e-009,-9.53106627e-005
,,,-2.05000000e-009,-1.53123167e-004
,,,-2.02500000e-009,-1.99998170e-004
,,,-2.00000000e-009,-2.43748173e-004
,,,-1.97500000e-009,-2.74998175e-004
,,,-1.95000000e-009,-2.90623177e-004
,,,-1.92500000e-009,-2.93748177e-004
,,,-1.90000000e-009,-2.82810676e-004
,,,-1.87500000e-009,-2.62498175e-004
,,,-1.85000000e-009,-2.34373173e-004
,,,-1.82500000e-009,-1.99998170e-004
,,,-1.80000000e-009,-1.89060669e-004
,,,-1.77500000e-009,-1.82810669e-004
,,,-1.75000000e-009,-1.81248169e-004
,,,-1.72500000e-009,-1.84373169e-004
,,,-1.70000000e-009,-1.89060669e-004
,,,-1.67500000e-009,-1.93748170e-004
,,,-1.65000000e-009,-1.96873170e-004
,,,-1.62500000e-009,-1.99998170e-004
,,,-1.60000000e-009,-2.39060673e-004
,,,-1.57500000e-009,-2.82810676e-004
,,,-1.55000000e-009,-3.31248179e-004
,,,-1.52500000e-009,-3.82810683e-004
,,,-1.50000000e-009,-4.35935687e-004
,,,-1.47500000e-009,-4.90623191e-004
,,,-1.45000000e-009,-5.45310695e-004
,,,-1.42500000e-009,-5.99998198e-004
,,,-1.40000000e-009,-7.04685706e-004
,,,-1.37500000e-009,-8.17185714e-004
,,,-1.35000000e-009,-9.32810722e-004
,,,-1.32500000e-009,-1.04687323e-003
,,,-1.30000000e-009,-1.15156074e-003
,,,-1.27500000e-009,-1.24687324e-003
,,,-1.25000000e-009,-1.32968575e-003
,,,-1.22500000e-009,-1.39999826e-003
,,,-1.20000000e-009,-1.51406076e-003
,,,-1.17500000e-009,-1.63437327e-003
,,,-1.15000000e-009,-1.76406078e-003
,,,-1.12500000e-009,-1.90312329e-003
,,,-1.10000000e-009,-2.05468580e-003
,,,-1.07500000e-009,-2.22031081e-003
,,,-1.05000000e-009,-2.40156083e-003
,,,-1.02500000e-009,-2.59999834e-003
,,,-1.00000000e-009,-2.86874836e-003
,,,-9.75000000e-010,-3.16093588e-003
,,,-9.50000000e-010,-3.47343590e-003
,,,-9.25000000e-010,-3.79374842e-003
,,,-9.00000000e-010,-4.11406095e-003
,,,-8.75000000e-010,-4.42499847e-003
,,,-8.50000000e-010,-4.72187349e-003
,,,-8.25000000e-010,-4.99999851e-003
,,,-8.00000000e-010,-5.29374853e-003
,,,-7.75000000e-010,-5.58281105e-003
,,,-7.50000000e-010,-5.87031107e-003
,,,-7.25000000e-010,-6.15937359e-003
,,,-7.00000000e-010,-6.45312361e-003
,,,-6.75000000e-010,-6.75468613e-003
,,,-6.50000000e-010,-7.07031116e-003
,,,-6.25000000e-010,-7.39999868e-003
,,,-6.00000000e-010,-7.76249871e-003
,,,-5.75000000e-010,-8.15156123e-003
,,,-5.50000000e-010,-8.56249876e-003
,,,-5.25000000e-010,-8.98593629e-003
,,,-5.00000000e-010,-9.41093632e-003
,,,-4.75000000e-010,-9.82656135e-003
,,,-4.50000000e-010,-1.02265614e-002
,,,-4.25000000e-010,-1.05999989e-002
,,,-4.00000000e-010,-1.09359364e-002
,,,-3.75000000e-010,-1.12562490e-002
,,,-3.50000000e-010,-1.15640615e-002
,,,-3.25000000e-010,-1.18609365e-002
,,,-3.00000000e-010,-1.21515615e-002
,,,-2.75000000e-010,-1.24359365e-002
,,,-2.50000000e-010,-1.27187491e-002
,,,-2.25000000e-010,-1.29999991e-002
,,,-2.00000000e-010,-1.32484366e-002
,,,-1.75000000e-010,-1.35062491e-002
,,,-1.50000000e-010,-1.37734366e-002
,,,-1.25000000e-010,-1.40437492e-002
,,,-1.00000000e-010,-1.43093742e-002
,,,-7.50000000e-011,-1.45624992e-002
,,,-5.00000000e-011,-1.47953117e-002
,,,-2.50000000e-011,-1.49999992e-002
,,,0.00000000e+000,-1.51218742e-002
,,,2.50000000e-011,-1.52265617e-002
,,,5.00000000e-011,-1.53203117e-002
,,,7.50000000e-011,-1.54093742e-002
,,,1.00000000e-010,-1.54984368e-002
,,,1.25000000e-010,-1.55921868e-002
,,,1.50000000e-010,-1.56921868e-002
,,,1.75000000e-010,-1.57999993e-002
,,,2.00000000e-010,-1.58593743e-002
,,,2.25000000e-010,-1.59359368e-002
,,,2.50000000e-010,-1.60312493e-002
,,,2.75000000e-010,-1.61390618e-002
,,,3.00000000e-010,-1.62578118e-002
,,,3.25000000e-010,-1.63796868e-002
,,,3.50000000e-010,-1.64953118e-002
,,,3.75000000e-010,-1.65999993e-002
,,,4.00000000e-010,-1.66187493e-002
,,,4.25000000e-010,-1.66234368e-002
,,,4.50000000e-010,-1.66187493e-002
,,,4.75000000e-010,-1.66109368e-002
,,,5.00000000e-010,-1.66031243e-002
,,,5.25000000e-010,-1.65999993e-002
,,,5.50000000e-010,-1.65984368e-002
,,,5.75000000e-010,-1.65999993e-002
,,,6.00000000e-010,-1.65343743e-002
,,,6.25000000e-010,-1.64640618e-002
,,,6.50000000e-010,-1.63874993e-002
,,,6.75000000e-010,-1.63031243e-002
,,,7.00000000e-010,-1.62062493e-002
,,,7.25000000e-010,-1.60937493e-002
,,,7.50000000e-010,-1.59593743e-002
,,,7.75000000e-010,-1.57999993e-002
,,,8.00000000e-010,-1.55624993e-002
,,,8.25000000e-010,-1.53015617e-002
,,,8.50000000e-010,-1.50296867e-002
,,,8.75000000e-010,-1.47531242e-002
,,,9.00000000e-010,-1.44843742e-002
,,,9.25000000e-010,-1.42328117e-002
,,,9.50000000e-010,-1.40046866e-002
,,,9.75000000e-010,-1.37999991e-002
,,,1.00000000e-009,-1.35874991e-002
,,,1.02500000e-009,-1.33890616e-002
,,,1.05000000e-009,-1.32031241e-002
,,,1.07500000e-009,-1.30218741e-002
,,,1.10000000e-009,-1.28390616e-002
,,,1.12500000e-009,-1.26453116e-002
,,,1.15000000e-009,-1.24359365e-002
,,,1.17500000e-009,-1.21999990e-002
,,,1.20000000e-009,-1.19187490e-002
,,,1.22500000e-009,-1.16031240e-002
,,,1.25000000e-009,-1.12578115e-002
,,,1.27500000e-009,-1.08890614e-002
,,,1.30000000e-009,-1.05093739e-002
,,,1.32500000e-009,-1.01281239e-002
,,,1.35000000e-009,-9.75624885e-003
,,,1.37500000e-009,-9.39999882e-003
,,,1.40000000e-009,-9.07656130e-003
,,,1.42500000e-009,-8.77187378e-003
,,,1.45000000e-009,-8.49062376e-003
,,,1.47500000e-009,-8.23124874e-003
,,,1.50000000e-009,-7.99374872e-003
,,,1.52500000e-009,-7.77812371e-003
,,,1.55000000e-009,-7.58124869e-003
,,,1.57500000e-009,-7.39999868e-003
,,,1.60000000e-009,-7.25312367e-003
,,,1.62500000e-009,-7.10468616e-003
,,,1.65000000e-009,-6.95156115e-003
,,,1.67500000e-009,-6.79687364e-003
,,,1.70000000e-009,-6.64062363e-003
,,,1.72500000e-009,-6.48749862e-003
,,,1.75000000e-009,-6.33906110e-003
,,,1.77500000e-009,-6.19999859e-003
,,,1.80000000e-009,-6.09999859e-003
,,,1.82500000e-009,-5.99999858e-003
,,,1.85000000e-009,-5.89687357e-003
,,,1.87500000e-009,-5.79374857e-003
,,,1.90000000e-009,-5.68906106e-003
,,,1.92500000e-009,-5.58906105e-003
,,,1.95000000e-009,-5.49062354e-003
,,,1.97500000e-009,-5.39999854e-003
,,,2.00000000e-009,-5.34374853e-003
,,,2.02500000e-009,-5.28437353e-003
,,,2.05000000e-009,-5.22499853e-003
,,,2.07500000e-009,-5.16718602e-003
,,,2.10000000e-009,-5.11406102e-003
,,,2.12500000e-009,-5.06718601e-003
,,,2.15000000e-009,-5.02968601e-003
,,,2.17500000e-009,-4.99999851e-003
,,,2.20000000e-009,-4.99999851e-003
,,,2.22500000e-009,-4.99218601e-003
,,,2.25000000e-009,-4.97343601e-003
,,,2.27500000e-009,-4.93749851e-003
,,,2.30000000e-009,-4.88281100e-003
,,,2.32500000e-009,-4.80781100e-003
,,,2.35000000e-009,-4.71406099e-003
,,,2.37500000e-009,-4.59999848e-003
,,,2.40000000e-009,-4.48749847e-003
,,,2.42500000e-009,-4.36093596e-003
,,,2.45000000e-009,-4.22968596e-003
,,,2.47500000e-009,-4.10156095e-003
,,,2.50000000e-009,-3.98749844e-003
,,,2.52500000e-009,-3.89374843e-003
,,,2.55000000e-009,-3.83124843e-003
,,,2.57500000e-009,-3.79999842e-003
,,,2.60000000e-009,-3.81562343e-003
,,,2.62500000e-009,-3.85468593e-003
,,,2.65000000e-009,-3.91406093e-003
,,,2.67500000e-009,-3.98437344e-003
,,,2.70000000e-009,-4.05624844e-003
,,,2.72500000e-009,-4.12031095e-003
,,,2.75000000e-009,-4.17031095e-003
,,,2.77500000e-009,-4.19999845e-003
,,,2.80000000e-009,-4.20624845e-003
,,,2.82500000e-009,-4.18437345e-003
,,,2.85000000e-009,-4.13749845e-003
,,,2.87500000e-009,-4.07187344e-003
,,,2.90000000e-009,-3.99843594e-003
,,,2.92500000e-009,-3.92343593e-003
,,,2.95000000e-009,-3.85468593e-003
,,,2.97500000e-009,-3.79999842e-003
,,,3.00000000e-009,-3.76562342e-003
,,,3.02500000e-009,-3.74687342e-003
,,,3.05000000e-009,-3.74218592e-003
,,,3.07500000e-009,-3.75156092e-003
,,,3.10000000e-009,-3.76562342e-003
,,,3.12500000e-009,-3.78281092e-003
,,,3.15000000e-009,-3.79687342e-003
,,,3.17500000e-009,-3.79999842e-003
,,,3.20000000e-009,-3.78749842e-003
,,,3.22500000e-009,-3.75781092e-003
,,,3.25000000e-009,-3.71406092e-003
,,,3.27500000e-009,-3.65624841e-003
,,,3.30000000e-009,-3.59218591e-003
,,,3.32500000e-009,-3.52656091e-003
,,,3.35000000e-009,-3.46093590e-003
,,,3.37500000e-009,-3.39999840e-003
,,,3.40000000e-009,-3.34531089e-003
,,,3.42500000e-009,-3.29374839e-003
,,,3.45000000e-009,-3.24687339e-003
,,,3.47500000e-009,-3.20312338e-003
,,,3.50000000e-009,-3.15781088e-003
,,,3.52500000e-009,-3.10937338e-003
,,,3.55000000e-009,-3.05781087e-003
,,,3.57500000e-009,-2.99999837e-003
,,,3.60000000e-009,-2.93437336e-003
,,,3.62500000e-009,-2.86406086e-003
,,,3.65000000e-009,-2.79374835e-003
,,,3.67500000e-009,-2.72968585e-003
,,,3.70000000e-009,-2.67343585e-003
,,,3.72500000e-009,-2.63124834e-003
,,,3.75000000e-009,-2.60781084e-003
,,,3.77500000e-009,-2.59999834e-003
,,,3.80000000e-009,-2.60937334e-003
,,,3.82500000e-009,-2.62656084e-003
,,,3.85000000e-009,-2.64687334e-003
,,,3.87500000e-009,-2.66562334e-003
,,,3.90000000e-009,-2.67499835e-003
,,,3.92500000e-009,-2.67031084e-003
,,,3.95000000e-009,-2.64687334e-003
,,,3.97500000e-009,-2.59999834e-003
,,,4.00000000e-009,-2.52968584e-003
,,,4.02500000e-009,-2.43593583e-003
,,,4.05000000e-009,-2.32656082e-003
,,,4.07500000e-009,-2.20781081e-003
,,,4.10000000e-009,-2.08749830e-003
,,,4.12500000e-009,-1.97499830e-003
,,,4.15000000e-009,-1.87812329e-003
,,,4.17500000e-009,-1.79999828e-003
,,,4.20000000e-009,-1.75156078e-003
,,,4.22500000e-009,-1.72499828e-003
,,,4.25000000e-009,-1.71874828e-003
,,,4.27500000e-009,-1.72656078e-003
,,,4.30000000e-009,-1.74531078e-003
,,,4.32500000e-009,-1.76874828e-003
,,,4.35000000e-009,-1.78906078e-003
,,,4.37500000e-009,-1.79999828e-003
,,,4.40000000e-009,-1.80312328e-003
,,,4.42500000e-009,-1.78749828e-003
,,,4.45000000e-009,-1.75468578e-003
,,,4.47500000e-009,-1.70312328e-003
,,,4.50000000e-009,-1.63906077e-003
,,,4.52500000e-009,-1.56406077e-003
,,,4.55000000e-009,-1.48281076e-003
,,,4.57500000e-009,-1.39999826e-003
,,,4.60000000e-009,-1.32968575e-003
,,,4.62500000e-009,-1.26249825e-003
,,,4.65000000e-009,-1.20312324e-003
,,,4.67500000e-009,-1.14999824e-003
,,,4.70000000e-009,-1.10312323e-003
,,,4.72500000e-009,-1.06249823e-003
,,,4.75000000e-009,-1.02968573e-003
,,,4.77500000e-009,-9.99998227e-004
,,,4.80000000e-009,-9.84373226e-004
,,,4.82500000e-009,-9.71873225e-004
,,,4.85000000e-009,-9.64060724e-004
,,,4.87500000e-009,-9.59373224e-004
,,,4.90000000e-009,-9.62498224e-004
,,,4.92500000e-009,-9.68748225e-004
,,,4.95000000e-009,-9.82810726e-004
,,,4.97500000e-009,-9.99998227e-004
,,,5.00000000e-009,-1.02812323e-003
,,,5.02500000e-009,-1.05312323e-003
,,,5.05000000e-009,-1.07187323e-003
,,,5.07500000e-009,-1.08124823e-003
,,,5.10000000e-009,-1.07968573e-003
,,,5.12500000e-009,-1.06562323e-003
,,,5.15000000e-009,-1.03906073e-003
,,,5.17500000e-009,-9.99998227e-004
,,,5.20000000e-009,-9.57810724e-004
,,,5.22500000e-009,-9.12498221e-004
,,,5.25000000e-009,-8.74998218e-004
,,,5.27500000e-009,-8.48435716e-004
,,,5.30000000e-009,-8.43748216e-004
,,,5.32500000e-009,-8.65623217e-004
,,,5.35000000e-009,-9.17185721e-004
,,,5.37500000e-009,-9.99998227e-004
,,,5.40000000e-009,-1.11562323e-003
,,,5.42500000e-009,-1.24843574e-003
,,,5.45000000e-009,-1.38906075e-003
,,,5.47500000e-009,-1.52499826e-003
,,,5.50000000e-009,-1.64374827e-003
,,,5.52500000e-009,-1.73593578e-003
,,,5.55000000e-009,-1.78906078e-003
,,,5.57500000e-009,-1.79999828e-003
,,,5.60000000e-009,-1.76249828e-003
,,,5.62500000e-009,-1.68437328e-003
,,,5.65000000e-009,-1.57656077e-003
,,,5.67500000e-009,-1.44843576e-003
,,,5.70000000e-009,-1.31562325e-003
,,,5.72500000e-009,-1.18906074e-003
,,,5.75000000e-009,-1.08124823e-003
,,,5.77500000e-009,-9.99998227e-004
,,,5.80000000e-009,-9.51560723e-004
,,,5.82500000e-009,-9.32810722e-004
