RawData/DifferentLengths/R4/R4_50_5mV/wave003_Ch2.csv

"Record Length",1000,"Points",-7.72500000e-009,-6.56240733e-005
"Sample Interval",2.50000000e-011,s,-7.70000000e-009,-4.53115719e-005
"Trigger Point",309,"Samples",-7.67500000e-009,-2.34365703e-005
"Trigger Time",2.28481250e-011,s,-7.65000000e-009,9.31322575e-010
"",,,-7.62500000e-009,1.71884325e-005
"Horizontal Offset",-7.72500000e-009,s,-7.60000000e-009,3.12509335e-005
,,,-7.57500000e-009,3.75009340e-005
,,,-7.55000000e-009,3.90634341e-005
,,,-7.52500000e-009,3.43759338e-005
,,,-7.50000000e-009,2.50009331e-005
,,,-7.47500000e-009,1.25009322e-005
,,,-7.45000000e-009,9.31322575e-010
,,,-7.42500000e-009,-1.24990696e-005
,,,-7.40000000e-009,-2.34365703e-005
,,,-7.37500000e-009,-2.96865708e-005
,,,-7.35000000e-009,-3.12490709e-005
,,,-7.32500000e-009,-2.96865708e-005
,,,-7.30000000e-009,-2.34365703e-005
,,,-7.27500000e-009,-1.24990696e-005
,,,-7.25000000e-009,9.31322575e-010
,,,-7.22500000e-009,1.40634323e-005
,,,-7.20000000e-009,2.81259333e-005
,,,-7.17500000e-009,3.90634341e-005
,,,-7.15000000e-009,4.53134345e-005
,,,-7.12500000e-009,4.53134345e-005
,,,-7.10000000e-009,3.75009340e-005
,,,-7.07500000e-009,2.18759329e-005
,,,-7.05000000e-009,9.31322575e-010
,,,-7.02500000e-009,-2.49990704e-005
,,,-7.00000000e-009,-5.15615723e-005
,,,-6.97500000e-009,-7.34365739e-005
,,,-6.95000000e-009,-8.74990749e-005
,,,-6.92500000e-009,-9.06240751e-005
,,,-6.90000000e-009,-7.81240742e-005
,,,-6.87500000e-009,-4.84365721e-005
,,,-6.85000000e-009,9.31322575e-010
,,,-6.82500000e-009,5.93759355e-005
,,,-6.80000000e-009,1.29688441e-004
,,,-6.77500000e-009,2.03125946e-004
,,,-6.75000000e-009,2.73438451e-004
,,,-6.72500000e-009,3.32813455e-004
,,,-6.70000000e-009,3.76563458e-004
,,,-6.67500000e-009,4.00000960e-004
,,,-6.65000000e-009,4.00000960e-004
,,,-6.62500000e-009,3.71875958e-004
,,,-6.60000000e-009,3.23438454e-004
,,,-6.57500000e-009,2.59375950e-004
,,,-6.55000000e-009,1.90625945e-004
,,,-6.52500000e-009,1.21875940e-004
,,,-6.50000000e-009,6.25009357e-005
,,,-6.47500000e-009,2.03134328e-005
,,,-6.45000000e-009,9.31322575e-010
,,,-6.42500000e-009,1.56343143e-006
,,,-6.40000000e-009,2.65634332e-005
,,,-6.37500000e-009,7.34384365e-005
,,,-6.35000000e-009,1.35938441e-004
,,,-6.32500000e-009,2.07813446e-004
,,,-6.30000000e-009,2.79688451e-004
,,,-6.27500000e-009,3.46875956e-004
,,,-6.25000000e-009,4.00000960e-004
,,,-6.22500000e-009,4.26563462e-004
,,,-6.20000000e-009,4.29688462e-004
,,,-6.17500000e-009,4.06250960e-004
,,,-6.15000000e-009,3.59375957e-004
,,,-6.12500000e-009,2.90625952e-004
,,,-6.10000000e-009,2.04688446e-004
,,,-6.07500000e-009,1.04688439e-004
,,,-6.05000000e-009,9.31322575e-010
,,,-6.02500000e-009,-1.07811576e-004
,,,-6.00000000e-009,-2.06249083e-004
,,,-5.97500000e-009,-2.92186589e-004
,,,-5.95000000e-009,-3.59374094e-004
,,,-5.92500000e-009,-4.04686597e-004
,,,-5.90000000e-009,-4.28124099e-004
,,,-5.87500000e-009,-4.24999099e-004
,,,-5.85000000e-009,-3.99999097e-004
,,,-5.82500000e-009,-3.56249094e-004
,,,-5.80000000e-009,-2.99999090e-004
,,,-5.77500000e-009,-2.34374085e-004
,,,-5.75000000e-009,-1.68749081e-004
,,,-5.72500000e-009,-1.06249076e-004
,,,-5.70000000e-009,-5.46865725e-005
,,,-5.67500000e-009,-1.87490700e-005
,,,-5.65000000e-009,9.31322575e-010
,,,-5.62500000e-009,-6.24906912e-006
,,,-5.60000000e-009,-3.28115710e-005
,,,-5.57500000e-009,-7.65615741e-005
,,,-5.55000000e-009,-1.35936578e-004
,,,-5.52500000e-009,-2.03124083e-004
,,,-5.50000000e-009,-2.73436588e-004
,,,-5.47500000e-009,-3.40624093e-004
,,,-5.45000000e-009,-3.99999097e-004
,,,-5.42500000e-009,-4.48436600e-004
,,,-5.40000000e-009,-4.79686603e-004
,,,-5.37500000e-009,-4.96874104e-004
,,,-5.35000000e-009,-4.98436604e-004
,,,-5.32500000e-009,-4.85936603e-004
,,,-5.30000000e-009,-4.64061602e-004
,,,-5.27500000e-009,-4.34374099e-004
,,,-5.25000000e-009,-3.99999097e-004
,,,-5.22500000e-009,-3.67186595e-004
,,,-5.20000000e-009,-3.40624093e-004
,,,-5.17500000e-009,-3.21874091e-004
,,,-5.15000000e-009,-3.14061591e-004
,,,-5.12500000e-009,-3.17186591e-004
,,,-5.10000000e-009,-3.34374092e-004
,,,-5.07500000e-009,-3.62499094e-004
,,,-5.05000000e-009,-3.99999097e-004
,,,-5.02500000e-009,-4.48436600e-004
,,,-5.00000000e-009,-5.01561604e-004
,,,-4.97500000e-009,-5.57811608e-004
,,,-4.95000000e-009,-6.15624112e-004
,,,-4.92500000e-009,-6.71874116e-004
,,,-4.90000000e-009,-7.21874120e-004
,,,-4.87500000e-009,-7.65624123e-004
,,,-4.85000000e-009,-7.99999125e-004
,,,-4.82500000e-009,-8.21874127e-004
,,,-4.80000000e-009,-8.34374128e-004
,,,-4.77500000e-009,-8.37499128e-004
,,,-4.75000000e-009,-8.34374128e-004
,,,-4.72500000e-009,-8.28124127e-004
,,,-4.70000000e-009,-8.18749127e-004
,,,-4.67500000e-009,-8.07811626e-004
,,,-4.65000000e-009,-7.99999125e-004
,,,-4.62500000e-009,-7.89061625e-004
,,,-4.60000000e-009,-7.81249124e-004
,,,-4.57500000e-009,-7.78124124e-004
,,,-4.55000000e-009,-7.78124124e-004
,,,-4.52500000e-009,-7.82811624e-004
,,,-4.50000000e-009,-7.87499124e-004
,,,-4.47500000e-009,-7.93749125e-004
,,,-4.45000000e-009,-7.99999125e-004
,,,-4.42500000e-009,-8.03124126e-004
,,,-4.40000000e-009,-8.03124126e-004
,,,-4.37500000e-009,-8.01561625e-004
,,,-4.35000000e-009,-7.99999125e-004
,,,-4.32500000e-009,-7.98436625e-004
,,,-4.30000000e-009,-7.98436625e-004
,,,-4.27500000e-009,-7.98436625e-004
,,,-4.25000000e-009,-7.99999125e-004
,,,-4.22500000e-009,-8.03124126e-004
,,,-4.20000000e-009,-8.06249126e-004
,,,-4.17500000e-009,-8.10936626e-004
,,,-4.15000000e-009,-8.15624126e-004
,,,-4.12500000e-009,-8.18749127e-004
,,,-4.10000000e-009,-8.18749127e-004
,,,-4.07500000e-009,-8.12499126e-004
,,,-4.05000000e-009,-7.99999125e-004
,,,-4.02500000e-009,-7.76561624e-004
,,,-4.00000000e-009,-7.45311621e-004
,,,-3.97500000e-009,-7.06249119e-004
,,,-3.95000000e-009,-6.57811615e-004
,,,-3.92500000e-009,-6.01561611e-004
,,,-3.90000000e-009,-5.39061607e-004
,,,-3.87500000e-009,-4.71874102e-004
,,,-3.85000000e-009,-3.99999097e-004
,,,-3.82500000e-009,-3.32811592e-004
,,,-3.80000000e-009,-2.65624087e-004
,,,-3.77500000e-009,-2.03124083e-004
,,,-3.75000000e-009,-1.45311579e-004
,,,-3.72500000e-009,-9.37490753e-005
,,,-3.70000000e-009,-5.15615723e-005
,,,-3.67500000e-009,-2.03115701e-005
,,,-3.65000000e-009,9.31322575e-010
,,,-3.62500000e-009,-4.68656901e-006
,,,-3.60000000e-009,-2.34365703e-005
,,,-3.57500000e-009,-5.62490727e-005
,,,-3.55000000e-009,-1.03124076e-004
,,,-3.52500000e-009,-1.64061580e-004
,,,-3.50000000e-009,-2.34374085e-004
,,,-3.47500000e-009,-3.15624091e-004
,,,-3.45000000e-009,-3.99999097e-004
,,,-3.42500000e-009,-4.90624103e-004
,,,-3.40000000e-009,-5.78124110e-004
,,,-3.37500000e-009,-6.54686615e-004
,,,-3.35000000e-009,-7.20311620e-004
,,,-3.32500000e-009,-7.70311623e-004
,,,-3.30000000e-009,-7.99999125e-004
,,,-3.27500000e-009,-8.10936626e-004
,,,-3.25000000e-009,-7.99999125e-004
,,,-3.22500000e-009,-7.71874123e-004
,,,-3.20000000e-009,-7.26561620e-004
,,,-3.17500000e-009,-6.70311616e-004
,,,-3.15000000e-009,-6.07811612e-004
,,,-3.12500000e-009,-5.43749107e-004
,,,-3.10000000e-009,-4.84374103e-004
,,,-3.07500000e-009,-4.35936600e-004
,,,-3.05000000e-009,-3.99999097e-004
,,,-3.02500000e-009,-3.87499096e-004
,,,-3.00000000e-009,-3.95311597e-004
,,,-2.97500000e-009,-4.24999099e-004
,,,-2.95000000e-009,-4.71874102e-004
,,,-2.92500000e-009,-5.37499107e-004
,,,-2.90000000e-009,-6.17186612e-004
,,,-2.87500000e-009,-7.06249119e-004
,,,-2.85000000e-009,-7.99999125e-004
,,,-2.82500000e-009,-8.93749132e-004
,,,-2.80000000e-009,-9.81249138e-004
,,,-2.77500000e-009,-1.05781164e-003
,,,-2.75000000e-009,-1.12187415e-003
,,,-2.72500000e-009,-1.17031165e-003
,,,-2.70000000e-009,-1.19843665e-003
,,,-2.67500000e-009,-1.20937415e-003
,,,-2.65000000e-009,-1.19999915e-003
,,,-2.62500000e-009,-1.16874915e-003
,,,-2.60000000e-009,-1.12343665e-003
,,,-2.57500000e-009,-1.06874914e-003
,,,-2.55000000e-009,-1.00937414e-003
,,,-2.52500000e-009,-9.48436636e-004
,,,-2.50000000e-009,-8.92186632e-004
,,,-2.47500000e-009,-8.42186628e-004
,,,-2.45000000e-009,-7.99999125e-004
,,,-2.42500000e-009,-7.70311623e-004
,,,-2.40000000e-009,-7.53124122e-004
,,,-2.37500000e-009,-7.48436622e-004
,,,-2.35000000e-009,-7.51561622e-004
,,,-2.32500000e-009,-7.60936623e-004
,,,-2.30000000e-009,-7.74999124e-004
,,,-2.27500000e-009,-7.89061625e-004
,,,-2.25000000e-009,-7.99999125e-004
,,,-2.22500000e-009,-8.10936626e-004
,,,-2.20000000e-009,-8.17186627e-004
,,,-2.17500000e-009,-8.20311627e-004
,,,-2.15000000e-009,-8.18749127e-004
,,,-2.12500000e-009,-8.14061626e-004
,,,-2.10000000e-009,-8.09374126e-004
,,,-2.07500000e-009,-8.04686626e-004
,,,-2.05000000e-009,-7.99999125e-004
,,,-2.02500000e-009,-7.99999125e-004
,,,-2.00000000e-009,-8.01561625e-004
,,,-1.97500000e-009,-8.04686626e-004
,,,-1.95000000e-009,-8.09374126e-004
,,,-1.92500000e-009,-8.12499126e-004
,,,-1.90000000e-009,-8.12499126e-004
,,,-1.87500000e-009,-8.09374126e-004
,,,-1.85000000e-009,-7.99999125e-004
,,,-1.82500000e-009,-7.93749125e-004
,,,-1.80000000e-009,-7.82811624e-004
,,,-1.77500000e-009,-7.73436623e-004
,,,-1.75000000e-009,-7.67186623e-004
,,,-1.72500000e-009,-7.64061623e-004
,,,-1.70000000e-009,-7.67186623e-004
,,,-1.67500000e-009,-7.79686624e-004
,,,-1.65000000e-009,-7.99999125e-004
,,,-1.62500000e-009,-8.37499128e-004
,,,-1.60000000e-009,-8.82811631e-004
,,,-1.57500000e-009,-9.35936635e-004
,,,-1.55000000e-009,-9.92186639e-004
,,,-1.52500000e-009,-1.04999914e-003
,,,-1.50000000e-009,-1.10624915e-003
,,,-1.47500000e-009,-1.15781165e-003
,,,-1.45000000e-009,-1.19999915e-003
,,,-1.42500000e-009,-1.23906166e-003
,,,-1.40000000e-009,-1.26562416e-003
,,,-1.37500000e-009,-1.28281166e-003
,,,-1.35000000e-009,-1.28593666e-003
,,,-1.32500000e-009,-1.27812416e-003
,,,-1.30000000e-009,-1.26093666e-003
,,,-1.27500000e-009,-1.23281166e-003
,,,-1.25000000e-009,-1.19999915e-003
,,,-1.22500000e-009,-1.17656165e-003
,,,-1.20000000e-009,-1.15468665e-003
,,,-1.17500000e-009,-1.13906165e-003
,,,-1.15000000e-009,-1.13281165e-003
,,,-1.12500000e-009,-1.13437415e-003
,,,-1.10000000e-009,-1.14687415e-003
,,,-1.07500000e-009,-1.16874915e-003
,,,-1.05000000e-009,-1.19999915e-003
,,,-1.02500000e-009,-1.25624916e-003
,,,-1.00000000e-009,-1.32031166e-003
,,,-9.75000000e-010,-1.38749917e-003
,,,-9.50000000e-010,-1.45156167e-003
,,,-9.25000000e-010,-1.50937418e-003
,,,-9.00000000e-010,-1.55624918e-003
,,,-8.75000000e-010,-1.58593668e-003
,,,-8.50000000e-010,-1.59999918e-003
,,,-8.25000000e-010,-1.61874918e-003
,,,-8.00000000e-010,-1.62656168e-003
,,,-7.75000000e-010,-1.62656168e-003
,,,-7.50000000e-010,-1.62031168e-003
,,,-7.25000000e-010,-1.61093668e-003
,,,-7.00000000e-010,-1.60156168e-003
,,,-6.75000000e-010,-1.59687418e-003
,,,-6.50000000e-010,-1.59999918e-003
,,,-6.25000000e-010,-1.64374919e-003
,,,-6.00000000e-010,-1.70781169e-003
,,,-5.75000000e-010,-1.79062420e-003
,,,-5.50000000e-010,-1.89218670e-003
,,,-5.25000000e-010,-2.00781171e-003
,,,-5.00000000e-010,-2.13281172e-003
,,,-4.75000000e-010,-2.26406173e-003
,,,-4.50000000e-010,-2.39999924e-003
,,,-4.25000000e-010,-2.56406175e-003
,,,-4.00000000e-010,-2.72812426e-003
,,,-3.75000000e-010,-2.89374927e-003
,,,-3.50000000e-010,-3.05312428e-003
,,,-3.25000000e-010,-3.20468680e-003
,,,-3.00000000e-010,-3.34687431e-003
,,,-2.75000000e-010,-3.47812431e-003
,,,-2.50000000e-010,-3.59999932e-003
,,,-2.25000000e-010,-3.73124933e-003
,,,-2.00000000e-010,-3.86562434e-003
,,,-1.75000000e-010,-4.00156185e-003
,,,-1.50000000e-010,-4.14531186e-003
,,,-1.25000000e-010,-4.29531187e-003
,,,-1.00000000e-010,-4.45468688e-003
,,,-7.50000000e-011,-4.62343690e-003
,,,-5.00000000e-011,-4.79999941e-003
,,,-2.50000000e-011,-4.99062442e-003
,,,0.00000000e+000,-5.19062444e-003
,,,2.50000000e-011,-5.39843695e-003
,,,5.00000000e-011,-5.61093697e-003
,,,7.50000000e-011,-5.82187448e-003
,,,1.00000000e-010,-6.02656200e-003
,,,1.25000000e-010,-6.22031201e-003
,,,1.50000000e-010,-6.39999952e-003
,,,1.75000000e-010,-6.55468703e-003
,,,2.00000000e-010,-6.69999954e-003
,,,2.25000000e-010,-6.84218705e-003
,,,2.50000000e-010,-6.98281206e-003
,,,2.75000000e-010,-7.12656207e-003
,,,3.00000000e-010,-7.27656208e-003
,,,3.25000000e-010,-7.43437459e-003
,,,3.50000000e-010,-7.59999961e-003
,,,3.75000000e-010,-7.74999962e-003
,,,4.00000000e-010,-7.91093713e-003
,,,4.25000000e-010,-8.07656214e-003
,,,4.50000000e-010,-8.24531215e-003
,,,4.75000000e-010,-8.40937466e-003
,,,5.00000000e-010,-8.56093717e-003
,,,5.25000000e-010,-8.69218718e-003
,,,5.50000000e-010,-8.79999969e-003
,,,5.75000000e-010,-8.84531219e-003
,,,6.00000000e-010,-8.86718720e-003
,,,6.25000000e-010,-8.87187470e-003
,,,6.50000000e-010,-8.86406220e-003
,,,6.75000000e-010,-8.84999970e-003
,,,7.00000000e-010,-8.83281219e-003
,,,7.25000000e-010,-8.81562469e-003
,,,7.50000000e-010,-8.79999969e-003
,,,7.75000000e-010,-8.75156219e-003
,,,8.00000000e-010,-8.70624968e-003
,,,8.25000000e-010,-8.66718718e-003
,,,8.50000000e-010,-8.62812468e-003
,,,8.75000000e-010,-8.58593718e-003
,,,9.00000000e-010,-8.53593717e-003
,,,9.25000000e-010,-8.47499967e-003
,,,9.50000000e-010,-8.39999966e-003
,,,9.75000000e-010,-8.27968715e-003
,,,1.00000000e-009,-8.15156215e-003
,,,1.02500000e-009,-8.02187464e-003
,,,1.05000000e-009,-7.89843713e-003
,,,1.07500000e-009,-7.78906212e-003
,,,1.10000000e-009,-7.69999961e-003
,,,1.12500000e-009,-7.63593711e-003
,,,1.15000000e-009,-7.59999961e-003
,,,1.17500000e-009,-7.56718710e-003
,,,1.20000000e-009,-7.55468710e-003
,,,1.22500000e-009,-7.55937460e-003
,,,1.25000000e-009,-7.57656210e-003
,,,1.27500000e-009,-7.59687461e-003
,,,1.30000000e-009,-7.61406211e-003
,,,1.32500000e-009,-7.61718711e-003
,,,1.35000000e-009,-7.59999961e-003
,,,1.37500000e-009,-7.53593710e-003
,,,1.40000000e-009,-7.44062460e-003
,,,1.42500000e-009,-7.31406209e-003
,,,1.45000000e-009,-7.16093708e-003
,,,1.47500000e-009,-6.98593706e-003
,,,1.50000000e-009,-6.79687455e-003
,,,1.52500000e-009,-6.59999954e-003
,,,1.55000000e-009,-6.39999952e-003
,,,1.57500000e-009,-6.19999951e-003
,,,1.60000000e-009,-6.00781199e-003
,,,1.62500000e-009,-5.82812448e-003
,,,1.65000000e-009,-5.66406197e-003
,,,1.67500000e-009,-5.51874946e-003
,,,1.70000000e-009,-5.39531195e-003
,,,1.72500000e-009,-5.28906194e-003
,,,1.75000000e-009,-5.19999944e-003
,,,1.77500000e-009,-5.12812443e-003
,,,1.80000000e-009,-5.05624943e-003
,,,1.82500000e-009,-4.97968692e-003
,,,1.85000000e-009,-4.89531192e-003
,,,1.87500000e-009,-4.79687441e-003
,,,1.90000000e-009,-4.68124940e-003
,,,1.92500000e-009,-4.54999939e-003
,,,1.95000000e-009,-4.39999938e-003
,,,1.97500000e-009,-4.24531187e-003
,,,2.00000000e-009,-4.07812436e-003
,,,2.02500000e-009,-3.90312434e-003
,,,2.05000000e-009,-3.72812433e-003
,,,2.07500000e-009,-3.56249932e-003
,,,2.10000000e-009,-3.41562431e-003
,,,2.12500000e-009,-3.29374930e-003
,,,2.15000000e-009,-3.19999930e-003
,,,2.17500000e-009,-3.15312429e-003
,,,2.20000000e-009,-3.13124929e-003
,,,2.22500000e-009,-3.12968679e-003
,,,2.25000000e-009,-3.14218679e-003
,,,2.27500000e-009,-3.16093679e-003
,,,2.30000000e-009,-3.18124929e-003
,,,2.32500000e-009,-3.19687429e-003
,,,2.35000000e-009,-3.19999930e-003
,,,2.37500000e-009,-3.20156180e-003
,,,2.40000000e-009,-3.17968679e-003
,,,2.42500000e-009,-3.13749929e-003
,,,2.45000000e-009,-3.07812429e-003
,,,2.47500000e-009,-3.00781178e-003
,,,2.50000000e-009,-2.93281178e-003
,,,2.52500000e-009,-2.86249927e-003
,,,2.55000000e-009,-2.79999927e-003
,,,2.57500000e-009,-2.76093676e-003
,,,2.60000000e-009,-2.73437426e-003
,,,2.62500000e-009,-2.72031176e-003
,,,2.65000000e-009,-2.71874926e-003
,,,2.67500000e-009,-2.72812426e-003
,,,2.70000000e-009,-2.74687426e-003
,,,2.72500000e-009,-2.77187426e-003
,,,2.75000000e-009,-2.79999927e-003
,,,2.77500000e-009,-2.83281177e-003
,,,2.80000000e-009,-2.85781177e-003
,,,2.82500000e-009,-2.87187427e-003
,,,2.85000000e-009,-2.87812427e-003
,,,2.87500000e-009,-2.87187427e-003
,,,2.90000000e-009,-2.85624927e-003
,,,2.92500000e-009,-2.83281177e-003
,,,2.95000000e-009,-2.79999927e-003
,,,2.97500000e-009,-2.76406176e-003
,,,3.00000000e-009,-2.71874926e-003
,,,3.02500000e-009,-2.66874926e-003
,,,3.05000000e-009,-2.61562425e-003
,,,3.07500000e-009,-2.56093675e-003
,,,3.10000000e-009,-2.50624925e-003
,,,3.12500000e-009,-2.45156174e-003
,,,3.15000000e-009,-2.39999924e-003
,,,3.17500000e-009,-2.35156174e-003
,,,3.20000000e-009,-2.30312423e-003
,,,3.22500000e-009,-2.25468673e-003
,,,3.25000000e-009,-2.20781172e-003
,,,3.27500000e-009,-2.15937422e-003
,,,3.30000000e-009,-2.10781172e-003
,,,3.32500000e-009,-2.05624921e-003
,,,3.35000000e-009,-1.99999921e-003
,,,3.37500000e-009,-1.94687421e-003
,,,3.40000000e-009,-1.89062420e-003
,,,3.42500000e-009,-1.83281170e-003
,,,3.45000000e-009,-1.77656169e-003
,,,3.47500000e-009,-1.72343669e-003
,,,3.50000000e-009,-1.67499919e-003
,,,3.52500000e-009,-1.63437418e-003
,,,3.55000000e-009,-1.59999918e-003
,,,3.57500000e-009,-1.57968668e-003
,,,3.60000000e-009,-1.56718668e-003
,,,3.62500000e-009,-1.56093668e-003
,,,3.65000000e-009,-1.56249918e-003
,,,3.67500000e-009,-1.56718668e-003
,,,3.70000000e-009,-1.57656168e-003
,,,3.72500000e-009,-1.58906168e-003
,,,3.75000000e-009,-1.59999918e-003
,,,3.77500000e-009,-1.61562418e-003
,,,3.80000000e-009,-1.62499918e-003
,,,3.82500000e-009,-1.63124918e-003
,,,3.85000000e-009,-1.63124918e-003
,,,3.87500000e-009,-1.62812418e-003
,,,3.90000000e-009,-1.62031168e-003
,,,3.92500000e-009,-1.61093668e-003
,,,3.95000000e-009,-1.59999918e-003
,,,3.97500000e-009,-1.59374918e-003
,,,4.00000000e-009,-1.58593668e-003
,,,4.02500000e-009,-1.57968668e-003
,,,4.05000000e-009,-1.57499918e-003
,,,4.07500000e-009,-1.57499918e-003
,,,4.10000000e-009,-1.57968668e-003
,,,4.12500000e-009,-1.58749918e-003
,,,4.15000000e-009,-1.59999918e-003
,,,4.17500000e-009,-1.61718668e-003
,,,4.20000000e-009,-1.63437418e-003
,,,4.22500000e-009,-1.64687419e-003
,,,4.25000000e-009,-1.65468669e-003
,,,4.27500000e-009,-1.65624919e-003
,,,4.30000000e-009,-1.64843669e-003
,,,4.32500000e-009,-1.62968668e-003
,,,4.35000000e-009,-1.59999918e-003
,,,4.37500000e-009,-1.56093668e-003
,,,4.40000000e-009,-1.51406168e-003
,,,4.42500000e-009,-1.45937417e-003
,,,4.45000000e-009,-1.39999917e-003
,,,4.47500000e-009,-1.34218666e-003
,,,4.50000000e-009,-1.28749916e-003
,,,4.52500000e-009,-1.24062416e-003
,,,4.55000000e-009,-1.19999915e-003
,,,4.57500000e-009,-1.17499915e-003
,,,4.60000000e-009,-1.16093665e-003
,,,4.62500000e-009,-1.15624915e-003
,,,4.65000000e-009,-1.15937415e-003
,,,4.67500000e-009,-1.16874915e-003
,,,4.70000000e-009,-1.17968665e-003
,,,4.72500000e-009,-1.19062415e-003
,,,4.75000000e-009,-1.19999915e-003
,,,4.77500000e-009,-1.21093665e-003
,,,4.80000000e-009,-1.21718665e-003
,,,4.82500000e-009,-1.21874915e-003
,,,4.85000000e-009,-1.21562415e-003
,,,4.87500000e-009,-1.21249915e-003
,,,4.90000000e-009,-1.20781165e-003
,,,4.92500000e-009,-1.20312415e-003
,,,4.95000000e-009,-1.19999915e-003
,,,4.97500000e-009,-1.20156165e-003
,,,5.00000000e-009,-1.20312415e-003
,,,5.02500000e-009,-1.20624915e-003
,,,5.05000000e-009,-1.20937415e-003
,,,5.07500000e-009,-1.21093665e-003
,,,5.10000000e-009,-1.21093665e-003
,,,5.12500000e-009,-1.20781165e-003
,,,5.15000000e-009,-1.19999915e-003
,,,5.17500000e-009,-1.19374915e-003
,,,5.20000000e-009,-1.18437415e-003
,,,5.22500000e-009,-1.17499915e-003
,,,5.25000000e-009,-1.16874915e-003
,,,5.27500000e-009,-1.16562415e-003
,,,5.30000000e-009,-1.16874915e-003
,,,5.32500000e-009,-1.17968665e-003
,,,5.35000000e-009,-1.19999915e-003
,,,5.37500000e-009,-1.23124916e-003
,,,5.40000000e-009,-1.27031166e-003
,,,5.42500000e-009,-1.31718666e-003
,,,5.45000000e-009,-1.37031167e-003
,,,5.47500000e-009,-1.42656167e-003
,,,5.50000000e-009,-1.48593667e-003
,,,5.52500000e-009,-1.54531168e-003
,,,5.55000000e-009,-1.59999918e-003
,,,5.57500000e-009,-1.64218668e-003
,,,5.60000000e-009,-1.67187419e-003
,,,5.62500000e-009,-1.69218669e-003
,,,5.65000000e-009,-1.69843669e-003
,,,5.67500000e-009,-1.69218669e-003
,,,5.70000000e-009,-1.67187419e-003
,,,5.72500000e-009,-1.64218668e-003
,,,5.75000000e-009,-1.59999918e-003
,,,5.77500000e-009,-1.54218668e-003
,,,5.80000000e-009,-1.47968667e-003
,,,5.82500000e-009,-1.41562417e-003
,,,5.85000000e-009,-1.35468666e-003
