RawData/DifferentLengths/R4/R4_50_5mV/wave017_Ch2.csv

"Record Length",1000,"Points",-7.72500000e-009,-3.74999095e-004
"Sample Interval",2.50000000e-011,s,-7.70000000e-009,-3.99999097e-004
"Trigger Point",309,"Samples",-7.67500000e-009,-4.40624100e-004
"Trigger Time",8.02900901e-012,s,-7.65000000e-009,-4.87499103e-004
"",,,-7.62500000e-009,-5.42186607e-004
"Horizontal Offset",-7.72500000e-009,s,-7.60000000e-009,-5.99999111e-004
,,,-7.57500000e-009,-6.59374115e-004
,,,-7.55000000e-009,-7.14061619e-004
,,,-7.52500000e-009,-7.60936623e-004
,,,-7.50000000e-009,-7.99999125e-004
,,,-7.47500000e-009,-8.26561627e-004
,,,-7.45000000e-009,-8.40624128e-004
,,,-7.42500000e-009,-8.45311629e-004
,,,-7.40000000e-009,-8.42186628e-004
,,,-7.37500000e-009,-8.32811628e-004
,,,-7.35000000e-009,-8.21874127e-004
,,,-7.32500000e-009,-8.10936626e-004
,,,-7.30000000e-009,-7.99999125e-004
,,,-7.27500000e-009,-7.90624125e-004
,,,-7.25000000e-009,-7.84374124e-004
,,,-7.22500000e-009,-7.82811624e-004
,,,-7.20000000e-009,-7.85936624e-004
,,,-7.17500000e-009,-7.89061625e-004
,,,-7.15000000e-009,-7.93749125e-004
,,,-7.12500000e-009,-7.98436625e-004
,,,-7.10000000e-009,-7.99999125e-004
,,,-7.07500000e-009,-7.98436625e-004
,,,-7.05000000e-009,-7.93749125e-004
,,,-7.02500000e-009,-7.89061625e-004
,,,-7.00000000e-009,-7.85936624e-004
,,,-6.97500000e-009,-7.82811624e-004
,,,-6.95000000e-009,-7.84374124e-004
,,,-6.92500000e-009,-7.90624125e-004
,,,-6.90000000e-009,-7.99999125e-004
,,,-6.87500000e-009,-8.10936626e-004
,,,-6.85000000e-009,-8.21874127e-004
,,,-6.82500000e-009,-8.32811628e-004
,,,-6.80000000e-009,-8.42186628e-004
,,,-6.77500000e-009,-8.45311629e-004
,,,-6.75000000e-009,-8.40624128e-004
,,,-6.72500000e-009,-8.26561627e-004
,,,-6.70000000e-009,-7.99999125e-004
,,,-6.67500000e-009,-7.57811622e-004
,,,-6.65000000e-009,-7.06249119e-004
,,,-6.62500000e-009,-6.46874114e-004
,,,-6.60000000e-009,-5.87499110e-004
,,,-6.57500000e-009,-5.28124106e-004
,,,-6.55000000e-009,-4.76561602e-004
,,,-6.52500000e-009,-4.32811599e-004
,,,-6.50000000e-009,-3.99999097e-004
,,,-6.47500000e-009,-3.82811596e-004
,,,-6.45000000e-009,-3.74999095e-004
,,,-6.42500000e-009,-3.76561595e-004
,,,-6.40000000e-009,-3.84374096e-004
,,,-6.37500000e-009,-3.92186596e-004
,,,-6.35000000e-009,-3.99999097e-004
,,,-6.32500000e-009,-4.03124097e-004
,,,-6.30000000e-009,-3.99999097e-004
,,,-6.27500000e-009,-3.93749097e-004
,,,-6.25000000e-009,-3.82811596e-004
,,,-6.22500000e-009,-3.70311595e-004
,,,-6.20000000e-009,-3.59374094e-004
,,,-6.17500000e-009,-3.54686594e-004
,,,-6.15000000e-009,-3.59374094e-004
,,,-6.12500000e-009,-3.74999095e-004
,,,-6.10000000e-009,-3.99999097e-004
,,,-6.07500000e-009,-4.37499100e-004
,,,-6.05000000e-009,-4.76561602e-004
,,,-6.02500000e-009,-5.10936605e-004
,,,-6.00000000e-009,-5.35936607e-004
,,,-5.97500000e-009,-5.42186607e-004
,,,-5.95000000e-009,-5.23436606e-004
,,,-5.92500000e-009,-4.76561602e-004
,,,-5.90000000e-009,-3.99999097e-004
,,,-5.87500000e-009,-2.99999090e-004
,,,-5.85000000e-009,-1.78124081e-004
,,,-5.82500000e-009,-4.53115719e-005
,,,-5.80000000e-009,8.75009375e-005
,,,-5.77500000e-009,2.09375946e-004
,,,-5.75000000e-009,3.07813453e-004
,,,-5.72500000e-009,3.73438458e-004
,,,-5.70000000e-009,4.00000960e-004
,,,-5.67500000e-009,3.75000958e-004
,,,-5.65000000e-009,3.10938453e-004
,,,-5.62500000e-009,2.14063446e-004
,,,-5.60000000e-009,9.53134381e-005
,,,-5.57500000e-009,-3.74990713e-005
,,,-5.55000000e-009,-1.71874081e-004
,,,-5.52500000e-009,-2.95311590e-004
,,,-5.50000000e-009,-3.99999097e-004
,,,-5.47500000e-009,-4.78124103e-004
,,,-5.45000000e-009,-5.24999106e-004
,,,-5.42500000e-009,-5.43749107e-004
,,,-5.40000000e-009,-5.37499107e-004
,,,-5.37500000e-009,-5.12499105e-004
,,,-5.35000000e-009,-4.76561602e-004
,,,-5.32500000e-009,-4.37499100e-004
,,,-5.30000000e-009,-3.99999097e-004
,,,-5.27500000e-009,-3.71874095e-004
,,,-5.25000000e-009,-3.54686594e-004
,,,-5.22500000e-009,-3.46874093e-004
,,,-5.20000000e-009,-3.51561594e-004
,,,-5.17500000e-009,-3.60936594e-004
,,,-5.15000000e-009,-3.74999095e-004
,,,-5.12500000e-009,-3.89061596e-004
,,,-5.10000000e-009,-3.99999097e-004
,,,-5.07500000e-009,-4.09374098e-004
,,,-5.05000000e-009,-4.12499098e-004
,,,-5.02500000e-009,-4.09374098e-004
,,,-5.00000000e-009,-4.06249097e-004
,,,-4.97500000e-009,-3.99999097e-004
,,,-4.95000000e-009,-3.96874097e-004
,,,-4.92500000e-009,-3.96874097e-004
,,,-4.90000000e-009,-3.99999097e-004
,,,-4.87500000e-009,-4.07811598e-004
,,,-4.85000000e-009,-4.17186598e-004
,,,-4.82500000e-009,-4.28124099e-004
,,,-4.80000000e-009,-4.37499100e-004
,,,-4.77500000e-009,-4.40624100e-004
,,,-4.75000000e-009,-4.37499100e-004
,,,-4.72500000e-009,-4.24999099e-004
,,,-4.70000000e-009,-3.99999097e-004
,,,-4.67500000e-009,-3.62499094e-004
,,,-4.65000000e-009,-3.14061591e-004
,,,-4.62500000e-009,-2.59374087e-004
,,,-4.60000000e-009,-2.01561583e-004
,,,-4.57500000e-009,-1.42186579e-004
,,,-4.55000000e-009,-8.59365748e-005
,,,-4.52500000e-009,-3.74990713e-005
,,,-4.50000000e-009,9.31322575e-010
,,,-4.47500000e-009,1.87509326e-005
,,,-4.45000000e-009,1.87509326e-005
,,,-4.42500000e-009,9.31322575e-010
,,,-4.40000000e-009,-4.21865717e-005
,,,-4.37500000e-009,-1.04686576e-004
,,,-4.35000000e-009,-1.89061582e-004
,,,-4.32500000e-009,-2.89061589e-004
,,,-4.30000000e-009,-3.99999097e-004
,,,-4.27500000e-009,-5.15624105e-004
,,,-4.25000000e-009,-6.24999113e-004
,,,-4.22500000e-009,-7.23436620e-004
,,,-4.20000000e-009,-7.99999125e-004
,,,-4.17500000e-009,-8.51561629e-004
,,,-4.15000000e-009,-8.68749130e-004
,,,-4.12500000e-009,-8.53124129e-004
,,,-4.10000000e-009,-7.99999125e-004
,,,-4.07500000e-009,-7.12499119e-004
,,,-4.05000000e-009,-5.99999111e-004
,,,-4.02500000e-009,-4.73436602e-004
,,,-4.00000000e-009,-3.43749093e-004
,,,-3.97500000e-009,-2.21874084e-004
,,,-3.95000000e-009,-1.20311577e-004
,,,-3.92500000e-009,-4.37490718e-005
,,,-3.90000000e-009,9.31322575e-010
,,,-3.87500000e-009,4.68843165e-006
,,,-3.85000000e-009,-2.03115701e-005
,,,-3.82500000e-009,-7.34365739e-005
,,,-3.80000000e-009,-1.43749079e-004
,,,-3.77500000e-009,-2.21874084e-004
,,,-3.75000000e-009,-2.96874090e-004
,,,-3.72500000e-009,-3.59374094e-004
,,,-3.70000000e-009,-3.99999097e-004
,,,-3.67500000e-009,-4.15624098e-004
,,,-3.65000000e-009,-4.03124097e-004
,,,-3.62500000e-009,-3.64061594e-004
,,,-3.60000000e-009,-3.04686590e-004
,,,-3.57500000e-009,-2.31249085e-004
,,,-3.55000000e-009,-1.49999079e-004
,,,-3.52500000e-009,-7.18740738e-005
,,,-3.50000000e-009,9.31322575e-010
,,,-3.47500000e-009,5.15634350e-005
,,,-3.45000000e-009,8.43759373e-005
,,,-3.42500000e-009,9.84384383e-005
,,,-3.40000000e-009,9.68759382e-005
,,,-3.37500000e-009,7.96884370e-005
,,,-3.35000000e-009,5.62509353e-005
,,,-3.32500000e-009,2.65634332e-005
,,,-3.30000000e-009,9.31322575e-010
,,,-3.27500000e-009,-2.96865708e-005
,,,-3.25000000e-009,-4.99990722e-005
,,,-3.22500000e-009,-6.09365730e-005
,,,-3.20000000e-009,-6.24990731e-005
,,,-3.17500000e-009,-5.46865725e-005
,,,-3.15000000e-009,-4.06240716e-005
,,,-3.12500000e-009,-2.18740702e-005
,,,-3.10000000e-009,9.31322575e-010
,,,-3.07500000e-009,1.40634323e-005
,,,-3.05000000e-009,2.50009331e-005
,,,-3.02500000e-009,3.43759338e-005
,,,-3.00000000e-009,3.75009340e-005
,,,-2.97500000e-009,3.75009340e-005
,,,-2.95000000e-009,3.12509335e-005
,,,-2.92500000e-009,1.87509326e-005
,,,-2.90000000e-009,9.31322575e-010
,,,-2.87500000e-009,-2.81240707e-005
,,,-2.85000000e-009,-6.24990731e-005
,,,-2.82500000e-009,-1.04686576e-004
,,,-2.80000000e-009,-1.53124080e-004
,,,-2.77500000e-009,-2.07811583e-004
,,,-2.75000000e-009,-2.67186588e-004
,,,-2.72500000e-009,-3.32811592e-004
,,,-2.70000000e-009,-3.99999097e-004
,,,-2.67500000e-009,-4.70311602e-004
,,,-2.65000000e-009,-5.35936607e-004
,,,-2.62500000e-009,-5.99999111e-004
,,,-2.60000000e-009,-6.56249115e-004
,,,-2.57500000e-009,-7.06249119e-004
,,,-2.55000000e-009,-7.46874122e-004
,,,-2.52500000e-009,-7.79686624e-004
,,,-2.50000000e-009,-7.99999125e-004
,,,-2.47500000e-009,-8.07811626e-004
,,,-2.45000000e-009,-8.09374126e-004
,,,-2.42500000e-009,-8.06249126e-004
,,,-2.40000000e-009,-7.99999125e-004
,,,-2.37500000e-009,-7.95311625e-004
,,,-2.35000000e-009,-7.93749125e-004
,,,-2.32500000e-009,-7.95311625e-004
,,,-2.30000000e-009,-7.99999125e-004
,,,-2.27500000e-009,-8.04686626e-004
,,,-2.25000000e-009,-8.10936626e-004
,,,-2.22500000e-009,-8.18749127e-004
,,,-2.20000000e-009,-8.26561627e-004
,,,-2.17500000e-009,-8.31249128e-004
,,,-2.15000000e-009,-8.29686627e-004
,,,-2.12500000e-009,-8.20311627e-004
,,,-2.10000000e-009,-7.99999125e-004
,,,-2.07500000e-009,-7.68749123e-004
,,,-2.05000000e-009,-7.28124120e-004
,,,-2.02500000e-009,-6.78124117e-004
,,,-2.00000000e-009,-6.24999113e-004
,,,-1.97500000e-009,-5.67186609e-004
,,,-1.95000000e-009,-5.07811605e-004
,,,-1.92500000e-009,-4.51561601e-004
,,,-1.90000000e-009,-3.99999097e-004
,,,-1.87500000e-009,-3.59374094e-004
,,,-1.85000000e-009,-3.31249092e-004
,,,-1.82500000e-009,-3.15624091e-004
,,,-1.80000000e-009,-3.12499091e-004
,,,-1.77500000e-009,-3.20311591e-004
,,,-1.75000000e-009,-3.40624093e-004
,,,-1.72500000e-009,-3.68749095e-004
,,,-1.70000000e-009,-3.99999097e-004
,,,-1.67500000e-009,-4.42186600e-004
,,,-1.65000000e-009,-4.79686603e-004
,,,-1.62500000e-009,-5.09374105e-004
,,,-1.60000000e-009,-5.24999106e-004
,,,-1.57500000e-009,-5.24999106e-004
,,,-1.55000000e-009,-5.04686604e-004
,,,-1.52500000e-009,-4.62499101e-004
,,,-1.50000000e-009,-3.99999097e-004
,,,-1.47500000e-009,-3.35936592e-004
,,,-1.45000000e-009,-2.64061587e-004
,,,-1.42500000e-009,-1.89061582e-004
,,,-1.40000000e-009,-1.17186577e-004
,,,-1.37500000e-009,-5.78115728e-005
,,,-1.35000000e-009,-1.40615697e-005
,,,-1.32500000e-009,6.25093176e-006
,,,-1.30000000e-009,9.31322575e-010
,,,-1.27500000e-009,-5.46865725e-005
,,,-1.25000000e-009,-1.37499078e-004
,,,-1.22500000e-009,-2.40624086e-004
,,,-1.20000000e-009,-3.56249094e-004
,,,-1.17500000e-009,-4.79686603e-004
,,,-1.15000000e-009,-5.98436611e-004
,,,-1.12500000e-009,-7.07811619e-004
,,,-1.10000000e-009,-7.99999125e-004
,,,-1.07500000e-009,-8.92186632e-004
,,,-1.05000000e-009,-9.67186637e-004
,,,-1.02500000e-009,-1.02499914e-003
,,,-1.00000000e-009,-1.07031164e-003
,,,-9.75000000e-010,-1.10468665e-003
,,,-9.50000000e-010,-1.13437415e-003
,,,-9.25000000e-010,-1.16406165e-003
,,,-9.00000000e-010,-1.19999915e-003
,,,-8.75000000e-010,-1.26562416e-003
,,,-8.50000000e-010,-1.34687416e-003
,,,-8.25000000e-010,-1.44062417e-003
,,,-8.00000000e-010,-1.54843668e-003
,,,-7.75000000e-010,-1.66093669e-003
,,,-7.50000000e-010,-1.77812419e-003
,,,-7.25000000e-010,-1.89218670e-003
,,,-7.00000000e-010,-1.99999921e-003
,,,-6.75000000e-010,-2.11249922e-003
,,,-6.50000000e-010,-2.22187423e-003
,,,-6.25000000e-010,-2.32499923e-003
,,,-6.00000000e-010,-2.42343674e-003
,,,-5.75000000e-010,-2.51874925e-003
,,,-5.50000000e-010,-2.61249925e-003
,,,-5.25000000e-010,-2.70624926e-003
,,,-5.00000000e-010,-2.79999927e-003
,,,-4.75000000e-010,-2.90156177e-003
,,,-4.50000000e-010,-3.00781178e-003
,,,-4.25000000e-010,-3.11718679e-003
,,,-4.00000000e-010,-3.22656180e-003
,,,-3.75000000e-010,-3.33124930e-003
,,,-3.50000000e-010,-3.42968681e-003
,,,-3.25000000e-010,-3.52031182e-003
,,,-3.00000000e-010,-3.59999932e-003
,,,-2.75000000e-010,-3.67187433e-003
,,,-2.50000000e-010,-3.74374933e-003
,,,-2.25000000e-010,-3.82031184e-003
,,,-2.00000000e-010,-3.90624935e-003
,,,-1.75000000e-010,-4.00624935e-003
,,,-1.50000000e-010,-4.12031186e-003
,,,-1.25000000e-010,-4.25156187e-003
,,,-1.00000000e-010,-4.39999938e-003
,,,-7.50000000e-011,-4.55312439e-003
,,,-5.00000000e-011,-4.71718690e-003
,,,-2.50000000e-011,-4.88906191e-003
,,,0.00000000e+000,-5.06249943e-003
,,,2.50000000e-011,-5.22656194e-003
,,,5.00000000e-011,-5.37499945e-003
,,,7.50000000e-011,-5.50156196e-003
,,,1.00000000e-010,-5.59999947e-003
,,,1.25000000e-010,-5.64687447e-003
,,,1.50000000e-010,-5.66718697e-003
,,,1.75000000e-010,-5.66874947e-003
,,,2.00000000e-010,-5.65468697e-003
,,,2.25000000e-010,-5.63437447e-003
,,,2.50000000e-010,-5.61562447e-003
,,,2.75000000e-010,-5.60156197e-003
,,,3.00000000e-010,-5.59999947e-003
,,,3.25000000e-010,-5.59531196e-003
,,,3.50000000e-010,-5.61093697e-003
,,,3.75000000e-010,-5.64687447e-003
,,,4.00000000e-010,-5.70156197e-003
,,,4.25000000e-010,-5.76874948e-003
,,,4.50000000e-010,-5.84687448e-003
,,,4.75000000e-010,-5.92499949e-003
,,,5.00000000e-010,-5.99999949e-003
,,,5.25000000e-010,-6.04218700e-003
,,,5.50000000e-010,-6.07187450e-003
,,,5.75000000e-010,-6.08906200e-003
,,,6.00000000e-010,-6.09374950e-003
,,,6.25000000e-010,-6.08749950e-003
,,,6.50000000e-010,-6.06874950e-003
,,,6.75000000e-010,-6.04062450e-003
,,,7.00000000e-010,-5.99999949e-003
,,,7.25000000e-010,-5.92812449e-003
,,,7.50000000e-010,-5.84843698e-003
,,,7.75000000e-010,-5.75937448e-003
,,,8.00000000e-010,-5.66249947e-003
,,,8.25000000e-010,-5.55781196e-003
,,,8.50000000e-010,-5.44531195e-003
,,,8.75000000e-010,-5.32656195e-003
,,,9.00000000e-010,-5.19999944e-003
,,,9.25000000e-010,-5.05624943e-003
,,,9.50000000e-010,-4.91562442e-003
,,,9.75000000e-010,-4.78124941e-003
,,,1.00000000e-009,-4.66093690e-003
,,,1.02500000e-009,-4.55937439e-003
,,,1.05000000e-009,-4.48124939e-003
,,,1.07500000e-009,-4.42812438e-003
,,,1.10000000e-009,-4.39999938e-003
,,,1.12500000e-009,-4.39062438e-003
,,,1.15000000e-009,-4.39531188e-003
,,,1.17500000e-009,-4.41093688e-003
,,,1.20000000e-009,-4.42812438e-003
,,,1.22500000e-009,-4.44218688e-003
,,,1.25000000e-009,-4.44531188e-003
,,,1.27500000e-009,-4.43281188e-003
,,,1.30000000e-009,-4.39999938e-003
,,,1.32500000e-009,-4.33906188e-003
,,,1.35000000e-009,-4.25312437e-003
,,,1.37500000e-009,-4.14843686e-003
,,,1.40000000e-009,-4.03281185e-003
,,,1.42500000e-009,-3.91406185e-003
,,,1.45000000e-009,-3.79687434e-003
,,,1.47500000e-009,-3.69062433e-003
,,,1.50000000e-009,-3.59999932e-003
,,,1.52500000e-009,-3.52812432e-003
,,,1.55000000e-009,-3.46874931e-003
,,,1.57500000e-009,-3.42187431e-003
,,,1.60000000e-009,-3.38124931e-003
,,,1.62500000e-009,-3.34531181e-003
,,,1.65000000e-009,-3.30468680e-003
,,,1.67500000e-009,-3.25781180e-003
,,,1.70000000e-009,-3.19999930e-003
,,,1.72500000e-009,-3.13124929e-003
,,,1.75000000e-009,-3.04531178e-003
,,,1.77500000e-009,-2.94374928e-003
,,,1.80000000e-009,-2.83124927e-003
,,,1.82500000e-009,-2.71562426e-003
,,,1.85000000e-009,-2.60156175e-003
,,,1.87500000e-009,-2.49531175e-003
,,,1.90000000e-009,-2.39999924e-003
,,,1.92500000e-009,-2.33124923e-003
,,,1.95000000e-009,-2.27343673e-003
,,,1.97500000e-009,-2.22499923e-003
,,,2.00000000e-009,-2.18281172e-003
,,,2.02500000e-009,-2.14218672e-003
,,,2.05000000e-009,-2.09999922e-003
,,,2.07500000e-009,-2.05468671e-003
,,,2.10000000e-009,-1.99999921e-003
,,,2.12500000e-009,-1.94843671e-003
,,,2.15000000e-009,-1.88749920e-003
,,,2.17500000e-009,-1.82343670e-003
,,,2.20000000e-009,-1.75781169e-003
,,,2.22500000e-009,-1.69999919e-003
,,,2.25000000e-009,-1.65156169e-003
,,,2.27500000e-009,-1.61718668e-003
,,,2.30000000e-009,-1.59999918e-003
,,,2.32500000e-009,-1.61093668e-003
,,,2.35000000e-009,-1.62968668e-003
,,,2.37500000e-009,-1.65156169e-003
,,,2.40000000e-009,-1.67187419e-003
,,,2.42500000e-009,-1.67968669e-003
,,,2.45000000e-009,-1.67343669e-003
,,,2.47500000e-009,-1.64687419e-003
,,,2.50000000e-009,-1.59999918e-003
,,,2.52500000e-009,-1.54374918e-003
,,,2.55000000e-009,-1.47031167e-003
,,,2.57500000e-009,-1.38906167e-003
,,,2.60000000e-009,-1.31093666e-003
,,,2.62500000e-009,-1.24374916e-003
,,,2.65000000e-009,-1.19687415e-003
,,,2.67500000e-009,-1.18124915e-003
,,,2.70000000e-009,-1.19999915e-003
,,,2.72500000e-009,-1.26562416e-003
,,,2.75000000e-009,-1.35781166e-003
,,,2.77500000e-009,-1.47343667e-003
,,,2.80000000e-009,-1.59843668e-003
,,,2.82500000e-009,-1.72499919e-003
,,,2.85000000e-009,-1.84062420e-003
,,,2.87500000e-009,-1.93593671e-003
,,,2.90000000e-009,-1.99999921e-003
,,,2.92500000e-009,-2.03124921e-003
,,,2.95000000e-009,-2.02656171e-003
,,,2.97500000e-009,-1.98906171e-003
,,,3.00000000e-009,-1.92656171e-003
,,,3.02500000e-009,-1.84687420e-003
,,,3.05000000e-009,-1.76093669e-003
,,,3.07500000e-009,-1.67499919e-003
,,,3.10000000e-009,-1.59999918e-003
,,,3.12500000e-009,-1.54218668e-003
,,,3.15000000e-009,-1.50468668e-003
,,,3.17500000e-009,-1.48749917e-003
,,,3.20000000e-009,-1.48906167e-003
,,,3.22500000e-009,-1.50624918e-003
,,,3.25000000e-009,-1.53437418e-003
,,,3.27500000e-009,-1.56718668e-003
,,,3.30000000e-009,-1.59999918e-003
,,,3.32500000e-009,-1.62812418e-003
,,,3.35000000e-009,-1.64687419e-003
,,,3.37500000e-009,-1.65624919e-003
,,,3.40000000e-009,-1.65781169e-003
,,,3.42500000e-009,-1.64999919e-003
,,,3.45000000e-009,-1.63593668e-003
,,,3.47500000e-009,-1.61874918e-003
,,,3.50000000e-009,-1.59999918e-003
,,,3.52500000e-009,-1.58124918e-003
,,,3.55000000e-009,-1.56406168e-003
,,,3.57500000e-009,-1.55312418e-003
,,,3.60000000e-009,-1.54843668e-003
,,,3.62500000e-009,-1.55156168e-003
,,,3.65000000e-009,-1.56093668e-003
,,,3.67500000e-009,-1.57812418e-003
,,,3.70000000e-009,-1.59999918e-003
,,,3.72500000e-009,-1.62031168e-003
,,,3.75000000e-009,-1.63906168e-003
,,,3.77500000e-009,-1.65468669e-003
,,,3.80000000e-009,-1.66406169e-003
,,,3.82500000e-009,-1.66406169e-003
,,,3.85000000e-009,-1.65468669e-003
,,,3.87500000e-009,-1.63437418e-003
,,,3.90000000e-009,-1.59999918e-003
,,,3.92500000e-009,-1.55624918e-003
,,,3.95000000e-009,-1.50312418e-003
,,,3.97500000e-009,-1.44374917e-003
,,,4.00000000e-009,-1.38281167e-003
,,,4.02500000e-009,-1.32499916e-003
,,,4.05000000e-009,-1.27343666e-003
,,,4.07500000e-009,-1.23124916e-003
,,,4.10000000e-009,-1.19999915e-003
,,,4.12500000e-009,-1.18124915e-003
,,,4.15000000e-009,-1.17187415e-003
,,,4.17500000e-009,-1.17187415e-003
,,,4.20000000e-009,-1.17812415e-003
,,,4.22500000e-009,-1.18906165e-003
,,,4.25000000e-009,-1.19843665e-003
,,,4.27500000e-009,-1.20312415e-003
,,,4.30000000e-009,-1.19999915e-003
,,,4.32500000e-009,-1.18749915e-003
,,,4.35000000e-009,-1.16249915e-003
,,,4.37500000e-009,-1.12343665e-003
,,,4.40000000e-009,-1.07343664e-003
,,,4.42500000e-009,-1.01093664e-003
,,,4.45000000e-009,-9.43749135e-004
,,,4.47500000e-009,-8.71874130e-004
,,,4.50000000e-009,-7.99999125e-004
,,,4.52500000e-009,-7.37499121e-004
,,,4.55000000e-009,-6.85936617e-004
,,,4.57500000e-009,-6.49999115e-004
,,,4.60000000e-009,-6.32811613e-004
,,,4.62500000e-009,-6.40624114e-004
,,,4.65000000e-009,-6.70311616e-004
,,,4.67500000e-009,-7.24999120e-004
,,,4.70000000e-009,-7.99999125e-004
,,,4.72500000e-009,-8.93749132e-004
,,,4.75000000e-009,-9.92186639e-004
,,,4.77500000e-009,-1.08593665e-003
,,,4.80000000e-009,-1.16718665e-003
,,,4.82500000e-009,-1.22343666e-003
,,,4.85000000e-009,-1.25156166e-003
,,,4.87500000e-009,-1.24531166e-003
,,,4.90000000e-009,-1.19999915e-003
,,,4.92500000e-009,-1.12031165e-003
,,,4.95000000e-009,-1.01249914e-003
,,,4.97500000e-009,-8.85936631e-004
,,,5.00000000e-009,-7.53124122e-004
,,,5.02500000e-009,-6.26561613e-004
,,,5.05000000e-009,-5.20311606e-004
,,,5.07500000e-009,-4.42186600e-004
,,,5.10000000e-009,-3.99999097e-004
,,,5.12500000e-009,-3.99999097e-004
,,,5.15000000e-009,-4.32811599e-004
,,,5.17500000e-009,-4.92186604e-004
,,,5.20000000e-009,-5.68749109e-004
,,,5.22500000e-009,-6.48436615e-004
,,,5.25000000e-009,-7.20311620e-004
,,,5.27500000e-009,-7.73436623e-004
,,,5.30000000e-009,-7.99999125e-004
,,,5.32500000e-009,-7.95311625e-004
,,,5.35000000e-009,-7.60936623e-004
,,,5.37500000e-009,-7.01561618e-004
,,,5.40000000e-009,-6.26561613e-004
,,,5.42500000e-009,-5.48436607e-004
,,,5.45000000e-009,-4.78124103e-004
,,,5.47500000e-009,-4.26561599e-004
,,,5.50000000e-009,-3.99999097e-004
,,,5.52500000e-009,-4.06249097e-004
,,,5.55000000e-009,-4.40624100e-004
,,,5.57500000e-009,-4.96874104e-004
,,,5.60000000e-009,-5.68749109e-004
,,,5.62500000e-009,-6.43749114e-004
,,,5.65000000e-009,-7.14061619e-004
,,,5.67500000e-009,-7.68749123e-004
,,,5.70000000e-009,-7.99999125e-004
,,,5.72500000e-009,-8.03124126e-004
,,,5.75000000e-009,-7.76561624e-004
,,,5.77500000e-009,-7.28124120e-004
,,,5.80000000e-009,-6.62499116e-004
,,,5.82500000e-009,-5.87499110e-004
