RawData/DifferentLengths/R4/R4_50_5mV/wave022_Ch2.csv

"Record Length",1000,"Points",-7.72500000e-009,7.81343188e-006
"Sample Interval",2.50000000e-011,s,-7.70000000e-009,9.31322575e-010
"Trigger Point",309,"Samples",-7.67500000e-009,9.31322575e-010
"Trigger Time",3.38893204e-012,s,-7.65000000e-009,9.37593199e-006
"",,,-7.62500000e-009,2.34384330e-005
"Horizontal Offset",-7.72500000e-009,s,-7.60000000e-009,3.75009340e-005
,,,-7.57500000e-009,4.53134345e-005
,,,-7.55000000e-009,4.53134345e-005
,,,-7.52500000e-009,2.96884334e-005
,,,-7.50000000e-009,9.31322575e-010
,,,-7.47500000e-009,-4.68740720e-005
,,,-7.45000000e-009,-1.04686576e-004
,,,-7.42500000e-009,-1.71874081e-004
,,,-7.40000000e-009,-2.42186586e-004
,,,-7.37500000e-009,-3.06249090e-004
,,,-7.35000000e-009,-3.57811594e-004
,,,-7.32500000e-009,-3.90624096e-004
,,,-7.30000000e-009,-3.99999097e-004
,,,-7.27500000e-009,-3.82811596e-004
,,,-7.25000000e-009,-3.43749093e-004
,,,-7.22500000e-009,-2.87499089e-004
,,,-7.20000000e-009,-2.23436584e-004
,,,-7.17500000e-009,-1.54686580e-004
,,,-7.15000000e-009,-9.06240751e-005
,,,-7.12500000e-009,-3.90615714e-005
,,,-7.10000000e-009,9.31322575e-010
,,,-7.07500000e-009,1.71884325e-005
,,,-7.05000000e-009,1.87509326e-005
,,,-7.02500000e-009,7.81343188e-006
,,,-7.00000000e-009,-7.81156923e-006
,,,-6.97500000e-009,-2.18740702e-005
,,,-6.95000000e-009,-2.96865708e-005
,,,-6.92500000e-009,-2.34365703e-005
,,,-6.90000000e-009,9.31322575e-010
,,,-6.87500000e-009,3.59384339e-005
,,,-6.85000000e-009,8.75009375e-005
,,,-6.82500000e-009,1.48438442e-004
,,,-6.80000000e-009,2.15625947e-004
,,,-6.77500000e-009,2.81250951e-004
,,,-6.75000000e-009,3.37500955e-004
,,,-6.72500000e-009,3.78125958e-004
,,,-6.70000000e-009,4.00000960e-004
,,,-6.67500000e-009,3.92188459e-004
,,,-6.65000000e-009,3.62500957e-004
,,,-6.62500000e-009,3.15625954e-004
,,,-6.60000000e-009,2.53125949e-004
,,,-6.57500000e-009,1.84375944e-004
,,,-6.55000000e-009,1.15625940e-004
,,,-6.52500000e-009,5.15634350e-005
,,,-6.50000000e-009,9.31322575e-010
,,,-6.47500000e-009,-3.74990713e-005
,,,-6.45000000e-009,-5.93740729e-005
,,,-6.42500000e-009,-6.40615732e-005
,,,-6.40000000e-009,-5.78115728e-005
,,,-6.37500000e-009,-4.21865717e-005
,,,-6.35000000e-009,-2.49990704e-005
,,,-6.32500000e-009,-9.37406934e-006
,,,-6.30000000e-009,9.31322575e-010
,,,-6.27500000e-009,-6.24906912e-006
,,,-6.25000000e-009,-2.34365703e-005
,,,-6.22500000e-009,-5.78115728e-005
,,,-6.20000000e-009,-1.04686576e-004
,,,-6.17500000e-009,-1.65624080e-004
,,,-6.15000000e-009,-2.37499085e-004
,,,-6.12500000e-009,-3.17186591e-004
,,,-6.10000000e-009,-3.99999097e-004
,,,-6.07500000e-009,-4.82811603e-004
,,,-6.05000000e-009,-5.60936608e-004
,,,-6.02500000e-009,-6.32811613e-004
,,,-6.00000000e-009,-6.93749118e-004
,,,-5.97500000e-009,-7.43749121e-004
,,,-5.95000000e-009,-7.78124124e-004
,,,-5.92500000e-009,-7.96874125e-004
,,,-5.90000000e-009,-7.99999125e-004
,,,-5.87500000e-009,-7.82811624e-004
,,,-5.85000000e-009,-7.51561622e-004
,,,-5.82500000e-009,-7.09374119e-004
,,,-5.80000000e-009,-6.56249115e-004
,,,-5.77500000e-009,-5.96874111e-004
,,,-5.75000000e-009,-5.32811606e-004
,,,-5.72500000e-009,-4.67186602e-004
,,,-5.70000000e-009,-3.99999097e-004
,,,-5.67500000e-009,-3.32811592e-004
,,,-5.65000000e-009,-2.70311588e-004
,,,-5.62500000e-009,-2.14061584e-004
,,,-5.60000000e-009,-1.60936580e-004
,,,-5.57500000e-009,-1.15624077e-004
,,,-5.55000000e-009,-7.34365739e-005
,,,-5.52500000e-009,-3.43740711e-005
,,,-5.50000000e-009,9.31322575e-010
,,,-5.47500000e-009,2.50009331e-005
,,,-5.45000000e-009,4.37509344e-005
,,,-5.42500000e-009,5.62509353e-005
,,,-5.40000000e-009,6.25009357e-005
,,,-5.37500000e-009,5.93759355e-005
,,,-5.35000000e-009,4.84384348e-005
,,,-5.32500000e-009,2.81259333e-005
,,,-5.30000000e-009,9.31322575e-010
,,,-5.27500000e-009,-4.06240716e-005
,,,-5.25000000e-009,-8.74990749e-005
,,,-5.22500000e-009,-1.39061579e-004
,,,-5.20000000e-009,-1.93749082e-004
,,,-5.17500000e-009,-2.49999086e-004
,,,-5.15000000e-009,-3.04686590e-004
,,,-5.12500000e-009,-3.56249094e-004
,,,-5.10000000e-009,-3.99999097e-004
,,,-5.07500000e-009,-4.35936600e-004
,,,-5.05000000e-009,-4.62499101e-004
,,,-5.02500000e-009,-4.76561602e-004
,,,-5.00000000e-009,-4.79686603e-004
,,,-4.97500000e-009,-4.71874102e-004
,,,-4.95000000e-009,-4.54686601e-004
,,,-4.92500000e-009,-4.29686599e-004
,,,-4.90000000e-009,-3.99999097e-004
,,,-4.87500000e-009,-3.71874095e-004
,,,-4.85000000e-009,-3.45311593e-004
,,,-4.82500000e-009,-3.23436592e-004
,,,-4.80000000e-009,-3.10936591e-004
,,,-4.77500000e-009,-3.12499091e-004
,,,-4.75000000e-009,-3.26561592e-004
,,,-4.72500000e-009,-3.56249094e-004
,,,-4.70000000e-009,-3.99999097e-004
,,,-4.67500000e-009,-4.56249101e-004
,,,-4.65000000e-009,-5.18749105e-004
,,,-4.62500000e-009,-5.84374110e-004
,,,-4.60000000e-009,-6.49999115e-004
,,,-4.57500000e-009,-7.09374119e-004
,,,-4.55000000e-009,-7.56249122e-004
,,,-4.52500000e-009,-7.87499124e-004
,,,-4.50000000e-009,-7.99999125e-004
,,,-4.47500000e-009,-7.87499124e-004
,,,-4.45000000e-009,-7.56249122e-004
,,,-4.42500000e-009,-7.09374119e-004
,,,-4.40000000e-009,-6.49999115e-004
,,,-4.37500000e-009,-5.84374110e-004
,,,-4.35000000e-009,-5.18749105e-004
,,,-4.32500000e-009,-4.56249101e-004
,,,-4.30000000e-009,-3.99999097e-004
,,,-4.27500000e-009,-3.53124094e-004
,,,-4.25000000e-009,-3.18749091e-004
,,,-4.22500000e-009,-2.99999090e-004
,,,-4.20000000e-009,-2.98436590e-004
,,,-4.17500000e-009,-3.09374091e-004
,,,-4.15000000e-009,-3.32811592e-004
,,,-4.12500000e-009,-3.64061594e-004
,,,-4.10000000e-009,-3.99999097e-004
,,,-4.07500000e-009,-4.34374099e-004
,,,-4.05000000e-009,-4.64061602e-004
,,,-4.02500000e-009,-4.85936603e-004
,,,-4.00000000e-009,-4.96874104e-004
,,,-3.97500000e-009,-4.93749104e-004
,,,-3.95000000e-009,-4.76561602e-004
,,,-3.92500000e-009,-4.45311600e-004
,,,-3.90000000e-009,-3.99999097e-004
,,,-3.87500000e-009,-3.43749093e-004
,,,-3.85000000e-009,-2.81249089e-004
,,,-3.82500000e-009,-2.15624084e-004
,,,-3.80000000e-009,-1.53124080e-004
,,,-3.77500000e-009,-9.68740755e-005
,,,-3.75000000e-009,-5.15615723e-005
,,,-3.72500000e-009,-1.87490700e-005
,,,-3.70000000e-009,9.31322575e-010
,,,-3.67500000e-009,9.31322575e-010
,,,-3.65000000e-009,-7.81156923e-006
,,,-3.62500000e-009,-2.34365703e-005
,,,-3.60000000e-009,-3.90615714e-005
,,,-3.57500000e-009,-4.84365721e-005
,,,-3.55000000e-009,-4.68740720e-005
,,,-3.52500000e-009,-3.28115710e-005
,,,-3.50000000e-009,9.31322575e-010
,,,-3.47500000e-009,4.37509344e-005
,,,-3.45000000e-009,1.01563439e-004
,,,-3.42500000e-009,1.68750943e-004
,,,-3.40000000e-009,2.37500948e-004
,,,-3.37500000e-009,3.01563453e-004
,,,-3.35000000e-009,3.54688456e-004
,,,-3.32500000e-009,3.87500959e-004
,,,-3.30000000e-009,4.00000960e-004
,,,-3.27500000e-009,3.81250958e-004
,,,-3.25000000e-009,3.43750956e-004
,,,-3.22500000e-009,2.87500952e-004
,,,-3.20000000e-009,2.23438447e-004
,,,-3.17500000e-009,1.54688442e-004
,,,-3.15000000e-009,9.06259377e-005
,,,-3.12500000e-009,3.75009340e-005
,,,-3.10000000e-009,9.31322575e-010
,,,-3.07500000e-009,-2.34365703e-005
,,,-3.05000000e-009,-2.96865708e-005
,,,-3.02500000e-009,-2.18740702e-005
,,,-3.00000000e-009,-7.81156923e-006
,,,-2.97500000e-009,7.81343188e-006
,,,-2.95000000e-009,1.87509326e-005
,,,-2.92500000e-009,1.71884325e-005
,,,-2.90000000e-009,9.31322575e-010
,,,-2.87500000e-009,-3.90615714e-005
,,,-2.85000000e-009,-9.06240751e-005
,,,-2.82500000e-009,-1.54686580e-004
,,,-2.80000000e-009,-2.23436584e-004
,,,-2.77500000e-009,-2.87499089e-004
,,,-2.75000000e-009,-3.43749093e-004
,,,-2.72500000e-009,-3.82811596e-004
,,,-2.70000000e-009,-3.99999097e-004
,,,-2.67500000e-009,-3.93749097e-004
,,,-2.65000000e-009,-3.64061594e-004
,,,-2.62500000e-009,-3.17186591e-004
,,,-2.60000000e-009,-2.54686587e-004
,,,-2.57500000e-009,-1.85936582e-004
,,,-2.55000000e-009,-1.17186577e-004
,,,-2.52500000e-009,-5.31240724e-005
,,,-2.50000000e-009,9.31322575e-010
,,,-2.47500000e-009,3.75009340e-005
,,,-2.45000000e-009,5.93759355e-005
,,,-2.42500000e-009,6.56259360e-005
,,,-2.40000000e-009,6.09384356e-005
,,,-2.37500000e-009,4.68759346e-005
,,,-2.35000000e-009,2.96884334e-005
,,,-2.32500000e-009,1.25009322e-005
,,,-2.30000000e-009,9.31322575e-010
,,,-2.27500000e-009,-6.24906912e-006
,,,-2.25000000e-009,-6.24906912e-006
,,,-2.22500000e-009,-1.56156879e-006
,,,-2.20000000e-009,6.25093176e-006
,,,-2.17500000e-009,1.25009322e-005
,,,-2.15000000e-009,1.56259324e-005
,,,-2.12500000e-009,1.25009322e-005
,,,-2.10000000e-009,9.31322575e-010
,,,-2.07500000e-009,-2.49990704e-005
,,,-2.05000000e-009,-6.09365730e-005
,,,-2.02500000e-009,-1.07811576e-004
,,,-2.00000000e-009,-1.60936580e-004
,,,-1.97500000e-009,-2.21874084e-004
,,,-1.95000000e-009,-2.84374089e-004
,,,-1.92500000e-009,-3.45311593e-004
,,,-1.90000000e-009,-3.99999097e-004
,,,-1.87500000e-009,-4.46874100e-004
,,,-1.85000000e-009,-4.81249103e-004
,,,-1.82500000e-009,-5.03124104e-004
,,,-1.80000000e-009,-5.09374105e-004
,,,-1.77500000e-009,-5.03124104e-004
,,,-1.75000000e-009,-4.81249103e-004
,,,-1.72500000e-009,-4.46874100e-004
,,,-1.70000000e-009,-3.99999097e-004
,,,-1.67500000e-009,-3.49999093e-004
,,,-1.65000000e-009,-2.95311590e-004
,,,-1.62500000e-009,-2.39061586e-004
,,,-1.60000000e-009,-1.81249082e-004
,,,-1.57500000e-009,-1.28124078e-004
,,,-1.55000000e-009,-7.81240742e-005
,,,-1.52500000e-009,-3.59365712e-005
,,,-1.50000000e-009,9.31322575e-010
,,,-1.47500000e-009,1.56259324e-005
,,,-1.45000000e-009,2.34384330e-005
,,,-1.42500000e-009,2.34384330e-005
,,,-1.40000000e-009,1.71884325e-005
,,,-1.37500000e-009,1.09384321e-005
,,,-1.35000000e-009,3.12593154e-006
,,,-1.32500000e-009,-1.56156879e-006
,,,-1.30000000e-009,9.31322575e-010
,,,-1.27500000e-009,-1.09365695e-005
,,,-1.25000000e-009,-1.87490700e-005
,,,-1.22500000e-009,-2.18740702e-005
,,,-1.20000000e-009,-2.18740702e-005
,,,-1.17500000e-009,-1.87490700e-005
,,,-1.15000000e-009,-1.24990696e-005
,,,-1.12500000e-009,-6.24906912e-006
,,,-1.10000000e-009,9.31322575e-010
,,,-1.07500000e-009,-2.18740702e-005
,,,-1.05000000e-009,-5.15615723e-005
,,,-1.02500000e-009,-9.06240751e-005
,,,-1.00000000e-009,-1.40624079e-004
,,,-9.75000000e-010,-1.96874083e-004
,,,-9.50000000e-010,-2.59374087e-004
,,,-9.25000000e-010,-3.28124092e-004
,,,-9.00000000e-010,-3.99999097e-004
,,,-8.75000000e-010,-5.03124104e-004
,,,-8.50000000e-010,-6.09374112e-004
,,,-8.25000000e-010,-7.18749120e-004
,,,-8.00000000e-010,-8.26561627e-004
,,,-7.75000000e-010,-9.31249135e-004
,,,-7.50000000e-010,-1.02812414e-003
,,,-7.25000000e-010,-1.11874915e-003
,,,-7.00000000e-010,-1.19999915e-003
,,,-6.75000000e-010,-1.29687416e-003
,,,-6.50000000e-010,-1.39218667e-003
,,,-6.25000000e-010,-1.48593667e-003
,,,-6.00000000e-010,-1.58281168e-003
,,,-5.75000000e-010,-1.68124919e-003
,,,-5.50000000e-010,-1.78281169e-003
,,,-5.25000000e-010,-1.88906170e-003
,,,-5.00000000e-010,-1.99999921e-003
,,,-4.75000000e-010,-2.13124922e-003
,,,-4.50000000e-010,-2.27187423e-003
,,,-4.25000000e-010,-2.42187424e-003
,,,-4.00000000e-010,-2.57656175e-003
,,,-3.75000000e-010,-2.73593676e-003
,,,-3.50000000e-010,-2.89374927e-003
,,,-3.25000000e-010,-3.04999928e-003
,,,-3.00000000e-010,-3.19999930e-003
,,,-2.75000000e-010,-3.34687431e-003
,,,-2.50000000e-010,-3.49374932e-003
,,,-2.25000000e-010,-3.63906183e-003
,,,-2.00000000e-010,-3.78749934e-003
,,,-1.75000000e-010,-3.93593685e-003
,,,-1.50000000e-010,-4.08749936e-003
,,,-1.25000000e-010,-4.24218687e-003
,,,-1.00000000e-010,-4.39999938e-003
,,,-7.50000000e-011,-4.55156189e-003
,,,-5.00000000e-011,-4.70624940e-003
,,,-2.50000000e-011,-4.86718691e-003
,,,0.00000000e+000,-5.02812442e-003
,,,2.50000000e-011,-5.18593694e-003
,,,5.00000000e-011,-5.33593695e-003
,,,7.50000000e-011,-5.47656196e-003
,,,1.00000000e-010,-5.59999947e-003
,,,1.25000000e-010,-5.68593697e-003
,,,1.50000000e-010,-5.75781198e-003
,,,1.75000000e-010,-5.81874948e-003
,,,2.00000000e-010,-5.87031198e-003
,,,2.25000000e-010,-5.91249949e-003
,,,2.50000000e-010,-5.94843699e-003
,,,2.75000000e-010,-5.97656199e-003
,,,3.00000000e-010,-5.99999949e-003
,,,3.25000000e-010,-5.99374949e-003
,,,3.50000000e-010,-5.98749949e-003
,,,3.75000000e-010,-5.98437449e-003
,,,4.00000000e-010,-5.98437449e-003
,,,4.25000000e-010,-5.98749949e-003
,,,4.50000000e-010,-5.99218699e-003
,,,4.75000000e-010,-5.99687449e-003
,,,5.00000000e-010,-5.99999949e-003
,,,5.25000000e-010,-5.97812449e-003
,,,5.50000000e-010,-5.95781199e-003
,,,5.75000000e-010,-5.94374949e-003
,,,6.00000000e-010,-5.93749949e-003
,,,6.25000000e-010,-5.93906199e-003
,,,6.50000000e-010,-5.95156199e-003
,,,6.75000000e-010,-5.97187449e-003
,,,7.00000000e-010,-5.99999949e-003
,,,7.25000000e-010,-6.00937449e-003
,,,7.50000000e-010,-6.02187449e-003
,,,7.75000000e-010,-6.03593700e-003
,,,8.00000000e-010,-6.04687450e-003
,,,8.25000000e-010,-6.05156200e-003
,,,8.50000000e-010,-6.04843700e-003
,,,8.75000000e-010,-6.03124950e-003
,,,9.00000000e-010,-5.99999949e-003
,,,9.25000000e-010,-5.93124949e-003
,,,9.50000000e-010,-5.84687448e-003
,,,9.75000000e-010,-5.74999948e-003
,,,1.00000000e-009,-5.64374947e-003
,,,1.02500000e-009,-5.53124946e-003
,,,1.05000000e-009,-5.41874945e-003
,,,1.07500000e-009,-5.30781194e-003
,,,1.10000000e-009,-5.19999944e-003
,,,1.12500000e-009,-5.09062443e-003
,,,1.15000000e-009,-4.98437442e-003
,,,1.17500000e-009,-4.88281191e-003
,,,1.20000000e-009,-4.78593691e-003
,,,1.22500000e-009,-4.68906190e-003
,,,1.25000000e-009,-4.59531189e-003
,,,1.27500000e-009,-4.49843689e-003
,,,1.30000000e-009,-4.39999938e-003
,,,1.32500000e-009,-4.29531187e-003
,,,1.35000000e-009,-4.18593686e-003
,,,1.37500000e-009,-4.07343686e-003
,,,1.40000000e-009,-3.96406185e-003
,,,1.42500000e-009,-3.85781184e-003
,,,1.45000000e-009,-3.76093683e-003
,,,1.47500000e-009,-3.67499933e-003
,,,1.50000000e-009,-3.59999932e-003
,,,1.52500000e-009,-3.54062432e-003
,,,1.55000000e-009,-3.48749932e-003
,,,1.57500000e-009,-3.43906181e-003
,,,1.60000000e-009,-3.39374931e-003
,,,1.62500000e-009,-3.34999931e-003
,,,1.65000000e-009,-3.30468680e-003
,,,1.67500000e-009,-3.25468680e-003
,,,1.70000000e-009,-3.19999930e-003
,,,1.72500000e-009,-3.14687429e-003
,,,1.75000000e-009,-3.08593679e-003
,,,1.77500000e-009,-3.02187428e-003
,,,1.80000000e-009,-2.95781178e-003
,,,1.82500000e-009,-2.89999927e-003
,,,1.85000000e-009,-2.85312427e-003
,,,1.87500000e-009,-2.81874927e-003
,,,1.90000000e-009,-2.79999927e-003
,,,1.92500000e-009,-2.80624927e-003
,,,1.95000000e-009,-2.81874927e-003
,,,1.97500000e-009,-2.83593677e-003
,,,2.00000000e-009,-2.85156177e-003
,,,2.02500000e-009,-2.86093677e-003
,,,2.05000000e-009,-2.85781177e-003
,,,2.07500000e-009,-2.83906177e-003
,,,2.10000000e-009,-2.79999927e-003
,,,2.12500000e-009,-2.74374926e-003
,,,2.15000000e-009,-2.66562426e-003
,,,2.17500000e-009,-2.56718675e-003
,,,2.20000000e-009,-2.45624924e-003
,,,2.22500000e-009,-2.33593673e-003
,,,2.25000000e-009,-2.21718673e-003
,,,2.27500000e-009,-2.10312422e-003
,,,2.30000000e-009,-1.99999921e-003
,,,2.32500000e-009,-1.91874920e-003
,,,2.35000000e-009,-1.84999920e-003
,,,2.37500000e-009,-1.79218670e-003
,,,2.40000000e-009,-1.74531169e-003
,,,2.42500000e-009,-1.70468669e-003
,,,2.45000000e-009,-1.66718669e-003
,,,2.47500000e-009,-1.63437418e-003
,,,2.50000000e-009,-1.59999918e-003
,,,2.52500000e-009,-1.57656168e-003
,,,2.55000000e-009,-1.55312418e-003
,,,2.57500000e-009,-1.53281168e-003
,,,2.60000000e-009,-1.51874918e-003
,,,2.62500000e-009,-1.51562418e-003
,,,2.65000000e-009,-1.52656168e-003
,,,2.67500000e-009,-1.55468668e-003
,,,2.70000000e-009,-1.59999918e-003
,,,2.72500000e-009,-1.66406169e-003
,,,2.75000000e-009,-1.73593669e-003
,,,2.77500000e-009,-1.81093670e-003
,,,2.80000000e-009,-1.88124920e-003
,,,2.82500000e-009,-1.94218671e-003
,,,2.85000000e-009,-1.98437421e-003
,,,2.87500000e-009,-2.00624921e-003
,,,2.90000000e-009,-1.99999921e-003
,,,2.92500000e-009,-1.96249921e-003
,,,2.95000000e-009,-1.89374920e-003
,,,2.97500000e-009,-1.79999920e-003
,,,3.00000000e-009,-1.68749919e-003
,,,3.02500000e-009,-1.56249918e-003
,,,3.05000000e-009,-1.43437417e-003
,,,3.07500000e-009,-1.31093666e-003
,,,3.10000000e-009,-1.19999915e-003
,,,3.12500000e-009,-1.11562415e-003
,,,3.15000000e-009,-1.05312414e-003
,,,3.17500000e-009,-1.01718664e-003
,,,3.20000000e-009,-1.00781164e-003
,,,3.22500000e-009,-1.02499914e-003
,,,3.25000000e-009,-1.06406164e-003
,,,3.27500000e-009,-1.12499915e-003
,,,3.30000000e-009,-1.19999915e-003
,,,3.32500000e-009,-1.28281166e-003
,,,3.35000000e-009,-1.36406167e-003
,,,3.37500000e-009,-1.44062417e-003
,,,3.40000000e-009,-1.50624918e-003
,,,3.42500000e-009,-1.55937418e-003
,,,3.45000000e-009,-1.59374918e-003
,,,3.47500000e-009,-1.60781168e-003
,,,3.50000000e-009,-1.59999918e-003
,,,3.52500000e-009,-1.56406168e-003
,,,3.55000000e-009,-1.50468668e-003
,,,3.57500000e-009,-1.42187417e-003
,,,3.60000000e-009,-1.32031166e-003
,,,3.62500000e-009,-1.20312415e-003
,,,3.65000000e-009,-1.07343664e-003
,,,3.67500000e-009,-9.37499135e-004
,,,3.70000000e-009,-7.99999125e-004
,,,3.72500000e-009,-6.71874116e-004
,,,3.75000000e-009,-5.57811608e-004
,,,3.77500000e-009,-4.60936601e-004
,,,3.80000000e-009,-3.90624096e-004
,,,3.82500000e-009,-3.48436593e-004
,,,3.85000000e-009,-3.35936592e-004
,,,3.87500000e-009,-3.54686594e-004
,,,3.90000000e-009,-3.99999097e-004
,,,3.92500000e-009,-4.73436602e-004
,,,3.95000000e-009,-5.57811608e-004
,,,3.97500000e-009,-6.43749114e-004
,,,4.00000000e-009,-7.21874120e-004
,,,4.02500000e-009,-7.84374124e-004
,,,4.05000000e-009,-8.20311627e-004
,,,4.07500000e-009,-8.28124127e-004
,,,4.10000000e-009,-7.99999125e-004
,,,4.12500000e-009,-7.40624121e-004
,,,4.15000000e-009,-6.51561615e-004
,,,4.17500000e-009,-5.40624107e-004
,,,4.20000000e-009,-4.15624098e-004
,,,4.22500000e-009,-2.90624089e-004
,,,4.25000000e-009,-1.73436581e-004
,,,4.27500000e-009,-7.34365739e-005
,,,4.30000000e-009,9.31322575e-010
,,,4.32500000e-009,3.43759338e-005
,,,4.35000000e-009,3.75009340e-005
,,,4.37500000e-009,9.37593199e-006
,,,4.40000000e-009,-4.68740720e-005
,,,4.42500000e-009,-1.23436577e-004
,,,4.45000000e-009,-2.14061584e-004
,,,4.47500000e-009,-3.09374091e-004
,,,4.50000000e-009,-3.99999097e-004
,,,4.52500000e-009,-4.87499103e-004
,,,4.55000000e-009,-5.53124108e-004
,,,4.57500000e-009,-5.93749111e-004
,,,4.60000000e-009,-6.06249112e-004
,,,4.62500000e-009,-5.90624110e-004
,,,4.65000000e-009,-5.48436607e-004
,,,4.67500000e-009,-4.82811603e-004
,,,4.70000000e-009,-3.99999097e-004
,,,4.72500000e-009,-3.12499091e-004
,,,4.75000000e-009,-2.20311584e-004
,,,4.77500000e-009,-1.35936578e-004
,,,4.80000000e-009,-6.40615732e-005
,,,4.82500000e-009,-1.09365695e-005
,,,4.85000000e-009,1.87509326e-005
,,,4.87500000e-009,2.18759329e-005
,,,4.90000000e-009,9.31322575e-010
,,,4.92500000e-009,-5.15615723e-005
,,,4.95000000e-009,-1.18749077e-004
,,,4.97500000e-009,-1.95311583e-004
,,,5.00000000e-009,-2.70311588e-004
,,,5.02500000e-009,-3.35936592e-004
,,,5.05000000e-009,-3.84374096e-004
,,,5.07500000e-009,-4.06249097e-004
,,,5.10000000e-009,-3.99999097e-004
,,,5.12500000e-009,-3.67186595e-004
,,,5.15000000e-009,-3.09374091e-004
,,,5.17500000e-009,-2.35936585e-004
,,,5.20000000e-009,-1.56249080e-004
,,,5.22500000e-009,-8.28115745e-005
,,,5.25000000e-009,-2.65615706e-005
,,,5.27500000e-009,3.12593154e-006
,,,5.30000000e-009,9.31322575e-010
,,,5.32500000e-009,-4.06240716e-005
,,,5.35000000e-009,-1.14061577e-004
,,,5.37500000e-009,-2.15624084e-004
,,,5.40000000e-009,-3.37499093e-004
,,,5.42500000e-009,-4.67186602e-004
,,,5.45000000e-009,-5.93749111e-004
,,,5.47500000e-009,-7.07811619e-004
,,,5.50000000e-009,-7.99999125e-004
,,,5.52500000e-009,-8.60936630e-004
,,,5.55000000e-009,-8.93749132e-004
,,,5.57500000e-009,-8.99999132e-004
,,,5.60000000e-009,-8.87499131e-004
,,,5.62500000e-009,-8.64061630e-004
,,,5.65000000e-009,-8.35936628e-004
,,,5.67500000e-009,-8.14061626e-004
,,,5.70000000e-009,-7.99999125e-004
,,,5.72500000e-009,-7.96874125e-004
,,,5.75000000e-009,-8.04686626e-004
,,,5.77500000e-009,-8.20311627e-004
,,,5.80000000e-009,-8.39061628e-004
,,,5.82500000e-009,-8.54686629e-004
,,,5.85000000e-009,-8.56249129e-004
,,,5.87500000e-009,-8.40624128e-004
