RawData/DifferentLengths/R4/R4_50_5mV/wave012_Ch2.csv

"Record Length",1000,"Points",-7.72500000e-009,-4.37499100e-004
"Sample Interval",2.50000000e-011,s,-7.70000000e-009,-4.20311598e-004
"Trigger Point",309,"Samples",-7.67500000e-009,-3.99999097e-004
"Trigger Time",5.76342105e-012,s,-7.65000000e-009,-3.76561595e-004
"",,,-7.62500000e-009,-3.57811594e-004
"Horizontal Offset",-7.72500000e-009,s,-7.60000000e-009,-3.43749093e-004
,,,-7.57500000e-009,-3.37499093e-004
,,,-7.55000000e-009,-3.40624093e-004
,,,-7.52500000e-009,-3.53124094e-004
,,,-7.50000000e-009,-3.73436595e-004
,,,-7.47500000e-009,-3.99999097e-004
,,,-7.45000000e-009,-4.28124099e-004
,,,-7.42500000e-009,-4.54686601e-004
,,,-7.40000000e-009,-4.76561602e-004
,,,-7.37500000e-009,-4.89061603e-004
,,,-7.35000000e-009,-4.90624103e-004
,,,-7.32500000e-009,-4.76561602e-004
,,,-7.30000000e-009,-4.46874100e-004
,,,-7.27500000e-009,-3.99999097e-004
,,,-7.25000000e-009,-3.39061593e-004
,,,-7.22500000e-009,-2.70311588e-004
,,,-7.20000000e-009,-1.98436583e-004
,,,-7.17500000e-009,-1.29686578e-004
,,,-7.15000000e-009,-7.03115737e-005
,,,-7.12500000e-009,-2.65615706e-005
,,,-7.10000000e-009,-1.56156879e-006
,,,-7.07500000e-009,9.31322575e-010
,,,-7.05000000e-009,-2.34365703e-005
,,,-7.02500000e-009,-6.71865734e-005
,,,-7.00000000e-009,-1.24999078e-004
,,,-6.97500000e-009,-1.92186582e-004
,,,-6.95000000e-009,-2.60936587e-004
,,,-6.92500000e-009,-3.21874091e-004
,,,-6.90000000e-009,-3.70311595e-004
,,,-6.87500000e-009,-3.99999097e-004
,,,-6.85000000e-009,-4.07811598e-004
,,,-6.82500000e-009,-3.92186596e-004
,,,-6.80000000e-009,-3.53124094e-004
,,,-6.77500000e-009,-2.96874090e-004
,,,-6.75000000e-009,-2.26561585e-004
,,,-6.72500000e-009,-1.49999079e-004
,,,-6.70000000e-009,-7.34365739e-005
,,,-6.67500000e-009,9.31322575e-010
,,,-6.65000000e-009,5.62509353e-005
,,,-6.62500000e-009,9.68759382e-005
,,,-6.60000000e-009,1.21875940e-004
,,,-6.57500000e-009,1.26563440e-004
,,,-6.55000000e-009,1.15625940e-004
,,,-6.52500000e-009,8.90634376e-005
,,,-6.50000000e-009,4.84384348e-005
,,,-6.47500000e-009,9.31322575e-010
,,,-6.45000000e-009,-6.09365730e-005
,,,-6.42500000e-009,-1.21874077e-004
,,,-6.40000000e-009,-1.82811582e-004
,,,-6.37500000e-009,-2.40624086e-004
,,,-6.35000000e-009,-2.92186589e-004
,,,-6.32500000e-009,-3.35936592e-004
,,,-6.30000000e-009,-3.73436595e-004
,,,-6.27500000e-009,-3.99999097e-004
,,,-6.25000000e-009,-4.15624098e-004
,,,-6.22500000e-009,-4.23436599e-004
,,,-6.20000000e-009,-4.23436599e-004
,,,-6.17500000e-009,-4.20311598e-004
,,,-6.15000000e-009,-4.14061598e-004
,,,-6.12500000e-009,-4.07811598e-004
,,,-6.10000000e-009,-4.03124097e-004
,,,-6.07500000e-009,-3.99999097e-004
,,,-6.05000000e-009,-3.96874097e-004
,,,-6.02500000e-009,-3.96874097e-004
,,,-6.00000000e-009,-3.96874097e-004
,,,-5.97500000e-009,-3.99999097e-004
,,,-5.95000000e-009,-4.03124097e-004
,,,-5.92500000e-009,-4.04686597e-004
,,,-5.90000000e-009,-4.04686597e-004
,,,-5.87500000e-009,-3.99999097e-004
,,,-5.85000000e-009,-3.89061596e-004
,,,-5.82500000e-009,-3.76561595e-004
,,,-5.80000000e-009,-3.62499094e-004
,,,-5.77500000e-009,-3.54686594e-004
,,,-5.75000000e-009,-3.51561594e-004
,,,-5.72500000e-009,-3.57811594e-004
,,,-5.70000000e-009,-3.74999095e-004
,,,-5.67500000e-009,-3.99999097e-004
,,,-5.65000000e-009,-4.29686599e-004
,,,-5.62500000e-009,-4.62499101e-004
,,,-5.60000000e-009,-4.90624103e-004
,,,-5.57500000e-009,-5.10936605e-004
,,,-5.55000000e-009,-5.17186605e-004
,,,-5.52500000e-009,-5.03124104e-004
,,,-5.50000000e-009,-4.64061602e-004
,,,-5.47500000e-009,-3.99999097e-004
,,,-5.45000000e-009,-3.12499091e-004
,,,-5.42500000e-009,-2.06249083e-004
,,,-5.40000000e-009,-8.74990749e-005
,,,-5.37500000e-009,3.28134336e-005
,,,-5.35000000e-009,1.50000942e-004
,,,-5.32500000e-009,2.53125949e-004
,,,-5.30000000e-009,3.37500955e-004
,,,-5.27500000e-009,4.00000960e-004
,,,-5.25000000e-009,4.28125962e-004
,,,-5.22500000e-009,4.35938462e-004
,,,-5.20000000e-009,4.26563462e-004
,,,-5.17500000e-009,4.07813460e-004
,,,-5.15000000e-009,3.87500959e-004
,,,-5.12500000e-009,3.76563458e-004
,,,-5.10000000e-009,3.78125958e-004
,,,-5.07500000e-009,4.00000960e-004
,,,-5.05000000e-009,4.32813462e-004
,,,-5.02500000e-009,4.85938466e-004
,,,-5.00000000e-009,5.51563470e-004
,,,-4.97500000e-009,6.21875975e-004
,,,-4.95000000e-009,6.92188480e-004
,,,-4.92500000e-009,7.50000984e-004
,,,-4.90000000e-009,7.87500987e-004
,,,-4.87500000e-009,8.00000988e-004
,,,-4.85000000e-009,7.68750986e-004
,,,-4.82500000e-009,7.09375982e-004
,,,-4.80000000e-009,6.21875975e-004
,,,-4.77500000e-009,5.10938467e-004
,,,-4.75000000e-009,3.87500959e-004
,,,-4.72500000e-009,2.54688449e-004
,,,-4.70000000e-009,1.23438440e-004
,,,-4.67500000e-009,9.31322575e-010
,,,-4.65000000e-009,-1.14061577e-004
,,,-4.62500000e-009,-2.07811583e-004
,,,-4.60000000e-009,-2.81249089e-004
,,,-4.57500000e-009,-3.34374092e-004
,,,-4.55000000e-009,-3.68749095e-004
,,,-4.52500000e-009,-3.89061596e-004
,,,-4.50000000e-009,-3.98436597e-004
,,,-4.47500000e-009,-3.99999097e-004
,,,-4.45000000e-009,-3.98436597e-004
,,,-4.42500000e-009,-3.95311597e-004
,,,-4.40000000e-009,-3.93749097e-004
,,,-4.37500000e-009,-3.92186596e-004
,,,-4.35000000e-009,-3.92186596e-004
,,,-4.32500000e-009,-3.95311597e-004
,,,-4.30000000e-009,-3.96874097e-004
,,,-4.27500000e-009,-3.99999097e-004
,,,-4.25000000e-009,-3.99999097e-004
,,,-4.22500000e-009,-3.99999097e-004
,,,-4.20000000e-009,-3.99999097e-004
,,,-4.17500000e-009,-3.99999097e-004
,,,-4.15000000e-009,-3.99999097e-004
,,,-4.12500000e-009,-3.99999097e-004
,,,-4.10000000e-009,-3.99999097e-004
,,,-4.07500000e-009,-3.99999097e-004
,,,-4.05000000e-009,-3.95311597e-004
,,,-4.02500000e-009,-3.92186596e-004
,,,-4.00000000e-009,-3.89061596e-004
,,,-3.97500000e-009,-3.89061596e-004
,,,-3.95000000e-009,-3.89061596e-004
,,,-3.92500000e-009,-3.92186596e-004
,,,-3.90000000e-009,-3.95311597e-004
,,,-3.87500000e-009,-3.99999097e-004
,,,-3.85000000e-009,-3.99999097e-004
,,,-3.82500000e-009,-3.99999097e-004
,,,-3.80000000e-009,-4.01561597e-004
,,,-3.77500000e-009,-4.03124097e-004
,,,-3.75000000e-009,-4.03124097e-004
,,,-3.72500000e-009,-4.04686597e-004
,,,-3.70000000e-009,-4.03124097e-004
,,,-3.67500000e-009,-3.99999097e-004
,,,-3.65000000e-009,-3.93749097e-004
,,,-3.62500000e-009,-3.85936596e-004
,,,-3.60000000e-009,-3.81249096e-004
,,,-3.57500000e-009,-3.76561595e-004
,,,-3.55000000e-009,-3.76561595e-004
,,,-3.52500000e-009,-3.79686596e-004
,,,-3.50000000e-009,-3.89061596e-004
,,,-3.47500000e-009,-3.99999097e-004
,,,-3.45000000e-009,-4.15624098e-004
,,,-3.42500000e-009,-4.31249099e-004
,,,-3.40000000e-009,-4.45311600e-004
,,,-3.37500000e-009,-4.54686601e-004
,,,-3.35000000e-009,-4.57811601e-004
,,,-3.32500000e-009,-4.49999101e-004
,,,-3.30000000e-009,-4.31249099e-004
,,,-3.27500000e-009,-3.99999097e-004
,,,-3.25000000e-009,-3.57811594e-004
,,,-3.22500000e-009,-3.04686590e-004
,,,-3.20000000e-009,-2.45311586e-004
,,,-3.17500000e-009,-1.85936582e-004
,,,-3.15000000e-009,-1.26561578e-004
,,,-3.12500000e-009,-7.49990740e-005
,,,-3.10000000e-009,-3.28115710e-005
,,,-3.07500000e-009,9.31322575e-010
,,,-3.05000000e-009,1.71884325e-005
,,,-3.02500000e-009,2.34384330e-005
,,,-3.00000000e-009,2.18759329e-005
,,,-2.97500000e-009,1.40634323e-005
,,,-2.95000000e-009,6.25093176e-006
,,,-2.92500000e-009,-1.56156879e-006
,,,-2.90000000e-009,-4.68656901e-006
,,,-2.87500000e-009,9.31322575e-010
,,,-2.85000000e-009,7.81343188e-006
,,,-2.82500000e-009,2.03134328e-005
,,,-2.80000000e-009,3.43759338e-005
,,,-2.77500000e-009,4.68759346e-005
,,,-2.75000000e-009,5.31259351e-005
,,,-2.72500000e-009,4.84384348e-005
,,,-2.70000000e-009,3.12509335e-005
,,,-2.67500000e-009,9.31322575e-010
,,,-2.65000000e-009,-4.84365721e-005
,,,-2.62500000e-009,-1.07811576e-004
,,,-2.60000000e-009,-1.73436581e-004
,,,-2.57500000e-009,-2.40624086e-004
,,,-2.55000000e-009,-3.01561590e-004
,,,-2.52500000e-009,-3.51561594e-004
,,,-2.50000000e-009,-3.85936596e-004
,,,-2.47500000e-009,-3.99999097e-004
,,,-2.45000000e-009,-3.92186596e-004
,,,-2.42500000e-009,-3.62499094e-004
,,,-2.40000000e-009,-3.15624091e-004
,,,-2.37500000e-009,-2.54686587e-004
,,,-2.35000000e-009,-1.87499082e-004
,,,-2.32500000e-009,-1.18749077e-004
,,,-2.30000000e-009,-5.46865725e-005
,,,-2.27500000e-009,9.31322575e-010
,,,-2.25000000e-009,3.90634341e-005
,,,-2.22500000e-009,6.40634359e-005
,,,-2.20000000e-009,7.34384365e-005
,,,-2.17500000e-009,7.03134363e-005
,,,-2.15000000e-009,5.93759355e-005
,,,-2.12500000e-009,4.06259342e-005
,,,-2.10000000e-009,1.87509326e-005
,,,-2.07500000e-009,9.31322575e-010
,,,-2.05000000e-009,-1.87490700e-005
,,,-2.02500000e-009,-3.28115710e-005
,,,-2.00000000e-009,-3.90615714e-005
,,,-1.97500000e-009,-4.06240716e-005
,,,-1.95000000e-009,-3.43740711e-005
,,,-1.92500000e-009,-2.65615706e-005
,,,-1.90000000e-009,-1.40615697e-005
,,,-1.87500000e-009,9.31322575e-010
,,,-1.85000000e-009,7.81343188e-006
,,,-1.82500000e-009,1.40634323e-005
,,,-1.80000000e-009,1.56259324e-005
,,,-1.77500000e-009,1.56259324e-005
,,,-1.75000000e-009,1.40634323e-005
,,,-1.72500000e-009,9.37593199e-006
,,,-1.70000000e-009,4.68843165e-006
,,,-1.67500000e-009,9.31322575e-010
,,,-1.65000000e-009,-1.09365695e-005
,,,-1.62500000e-009,-2.03115701e-005
,,,-1.60000000e-009,-2.65615706e-005
,,,-1.57500000e-009,-2.96865708e-005
,,,-1.55000000e-009,-2.96865708e-005
,,,-1.52500000e-009,-2.34365703e-005
,,,-1.50000000e-009,-1.40615697e-005
,,,-1.47500000e-009,9.31322575e-010
,,,-1.45000000e-009,1.56343143e-006
,,,-1.42500000e-009,6.25093176e-006
,,,-1.40000000e-009,9.37593199e-006
,,,-1.37500000e-009,1.09384321e-005
,,,-1.35000000e-009,1.25009322e-005
,,,-1.32500000e-009,1.09384321e-005
,,,-1.30000000e-009,7.81343188e-006
,,,-1.27500000e-009,9.31322575e-010
,,,-1.25000000e-009,-3.12490709e-005
,,,-1.22500000e-009,-7.18740738e-005
,,,-1.20000000e-009,-1.18749077e-004
,,,-1.17500000e-009,-1.71874081e-004
,,,-1.15000000e-009,-2.28124085e-004
,,,-1.12500000e-009,-2.87499089e-004
,,,-1.10000000e-009,-3.45311593e-004
,,,-1.07500000e-009,-3.99999097e-004
,,,-1.05000000e-009,-4.71874102e-004
,,,-1.02500000e-009,-5.39061607e-004
,,,-1.00000000e-009,-6.03124111e-004
,,,-9.75000000e-010,-6.60936615e-004
,,,-9.50000000e-010,-7.09374119e-004
,,,-9.25000000e-010,-7.49999122e-004
,,,-9.00000000e-010,-7.79686624e-004
,,,-8.75000000e-010,-7.99999125e-004
,,,-8.50000000e-010,-8.39061628e-004
,,,-8.25000000e-010,-8.78124131e-004
,,,-8.00000000e-010,-9.18749134e-004
,,,-7.75000000e-010,-9.64061637e-004
,,,-7.50000000e-010,-1.01249914e-003
,,,-7.25000000e-010,-1.06718664e-003
,,,-7.00000000e-010,-1.12968665e-003
,,,-6.75000000e-010,-1.19999915e-003
,,,-6.50000000e-010,-1.30156166e-003
,,,-6.25000000e-010,-1.42031167e-003
,,,-6.00000000e-010,-1.55468668e-003
,,,-5.75000000e-010,-1.70468669e-003
,,,-5.50000000e-010,-1.86562420e-003
,,,-5.25000000e-010,-2.03906171e-003
,,,-5.00000000e-010,-2.21874923e-003
,,,-4.75000000e-010,-2.39999924e-003
,,,-4.50000000e-010,-2.59374925e-003
,,,-4.25000000e-010,-2.78437427e-003
,,,-4.00000000e-010,-2.96718678e-003
,,,-3.75000000e-010,-3.13593679e-003
,,,-3.50000000e-010,-3.28593680e-003
,,,-3.25000000e-010,-3.41406181e-003
,,,-3.00000000e-010,-3.51874932e-003
,,,-2.75000000e-010,-3.59999932e-003
,,,-2.50000000e-010,-3.66093683e-003
,,,-2.25000000e-010,-3.71562433e-003
,,,-2.00000000e-010,-3.77343684e-003
,,,-1.75000000e-010,-3.84531184e-003
,,,-1.50000000e-010,-3.93906185e-003
,,,-1.25000000e-010,-4.05937436e-003
,,,-1.00000000e-010,-4.21406187e-003
,,,-7.50000000e-011,-4.39999938e-003
,,,-5.00000000e-011,-4.60156189e-003
,,,-2.50000000e-011,-4.82656191e-003
,,,0.00000000e+000,-5.06406193e-003
,,,2.50000000e-011,-5.30312444e-003
,,,5.00000000e-011,-5.52656196e-003
,,,7.50000000e-011,-5.72499947e-003
,,,1.00000000e-010,-5.88593699e-003
,,,1.25000000e-010,-5.99999949e-003
,,,1.50000000e-010,-6.04218700e-003
,,,1.75000000e-010,-6.04687450e-003
,,,2.00000000e-010,-6.02499950e-003
,,,2.25000000e-010,-5.99062449e-003
,,,2.50000000e-010,-5.95937449e-003
,,,2.75000000e-010,-5.94374949e-003
,,,3.00000000e-010,-5.95468699e-003
,,,3.25000000e-010,-5.99999949e-003
,,,3.50000000e-010,-6.05468700e-003
,,,3.75000000e-010,-6.14374950e-003
,,,4.00000000e-010,-6.26249951e-003
,,,4.25000000e-010,-6.39843702e-003
,,,4.50000000e-010,-6.53437453e-003
,,,4.75000000e-010,-6.65781204e-003
,,,5.00000000e-010,-6.75156205e-003
,,,5.25000000e-010,-6.79999955e-003
,,,5.50000000e-010,-6.76562455e-003
,,,5.75000000e-010,-6.67968704e-003
,,,6.00000000e-010,-6.54843703e-003
,,,6.25000000e-010,-6.38281202e-003
,,,6.50000000e-010,-6.19218701e-003
,,,6.75000000e-010,-5.99062449e-003
,,,7.00000000e-010,-5.79062448e-003
,,,7.25000000e-010,-5.59999947e-003
,,,7.50000000e-010,-5.41093695e-003
,,,7.75000000e-010,-5.24999944e-003
,,,8.00000000e-010,-5.11874943e-003
,,,8.25000000e-010,-5.01562442e-003
,,,8.50000000e-010,-4.93906192e-003
,,,8.75000000e-010,-4.88124941e-003
,,,9.00000000e-010,-4.83749941e-003
,,,9.25000000e-010,-4.79999941e-003
,,,9.50000000e-010,-4.75312441e-003
,,,9.75000000e-010,-4.70312440e-003
,,,1.00000000e-009,-4.64999940e-003
,,,1.02500000e-009,-4.59531189e-003
,,,1.05000000e-009,-4.54218689e-003
,,,1.07500000e-009,-4.48906189e-003
,,,1.10000000e-009,-4.44218688e-003
,,,1.12500000e-009,-4.39999938e-003
,,,1.15000000e-009,-4.35781188e-003
,,,1.17500000e-009,-4.31562437e-003
,,,1.20000000e-009,-4.27343687e-003
,,,1.22500000e-009,-4.22812437e-003
,,,1.25000000e-009,-4.18124936e-003
,,,1.27500000e-009,-4.12812436e-003
,,,1.30000000e-009,-4.06874936e-003
,,,1.32500000e-009,-3.99999935e-003
,,,1.35000000e-009,-3.92343685e-003
,,,1.37500000e-009,-3.83281184e-003
,,,1.40000000e-009,-3.73437433e-003
,,,1.42500000e-009,-3.62812433e-003
,,,1.45000000e-009,-3.51718682e-003
,,,1.47500000e-009,-3.40781181e-003
,,,1.50000000e-009,-3.29999930e-003
,,,1.52500000e-009,-3.19999930e-003
,,,1.55000000e-009,-3.11718679e-003
,,,1.57500000e-009,-3.04218678e-003
,,,1.60000000e-009,-2.97499928e-003
,,,1.62500000e-009,-2.91874928e-003
,,,1.65000000e-009,-2.87343677e-003
,,,1.67500000e-009,-2.83906177e-003
,,,1.70000000e-009,-2.81562427e-003
,,,1.72500000e-009,-2.79999927e-003
,,,1.75000000e-009,-2.79374927e-003
,,,1.77500000e-009,-2.78281177e-003
,,,1.80000000e-009,-2.76249926e-003
,,,1.82500000e-009,-2.72812426e-003
,,,1.85000000e-009,-2.67499926e-003
,,,1.87500000e-009,-2.60312425e-003
,,,1.90000000e-009,-2.51093675e-003
,,,1.92500000e-009,-2.39999924e-003
,,,1.95000000e-009,-2.28437423e-003
,,,1.97500000e-009,-2.15781172e-003
,,,2.00000000e-009,-2.02656171e-003
,,,2.02500000e-009,-1.90156170e-003
,,,2.05000000e-009,-1.78906170e-003
,,,2.07500000e-009,-1.69843669e-003
,,,2.10000000e-009,-1.63437418e-003
,,,2.12500000e-009,-1.59999918e-003
,,,2.15000000e-009,-1.60937418e-003
,,,2.17500000e-009,-1.64531169e-003
,,,2.20000000e-009,-1.69999919e-003
,,,2.22500000e-009,-1.76718669e-003
,,,2.25000000e-009,-1.83906170e-003
,,,2.27500000e-009,-1.90624920e-003
,,,2.30000000e-009,-1.96249921e-003
,,,2.32500000e-009,-1.99999921e-003
,,,2.35000000e-009,-2.02187421e-003
,,,2.37500000e-009,-2.01562421e-003
,,,2.40000000e-009,-1.98281171e-003
,,,2.42500000e-009,-1.92812421e-003
,,,2.45000000e-009,-1.85468670e-003
,,,2.47500000e-009,-1.77031169e-003
,,,2.50000000e-009,-1.68281169e-003
,,,2.52500000e-009,-1.59999918e-003
,,,2.55000000e-009,-1.53281168e-003
,,,2.57500000e-009,-1.47968667e-003
,,,2.60000000e-009,-1.44531167e-003
,,,2.62500000e-009,-1.43281167e-003
,,,2.65000000e-009,-1.44374917e-003
,,,2.67500000e-009,-1.47812417e-003
,,,2.70000000e-009,-1.53124918e-003
,,,2.72500000e-009,-1.59999918e-003
,,,2.75000000e-009,-1.68281169e-003
,,,2.77500000e-009,-1.76562419e-003
,,,2.80000000e-009,-1.84374920e-003
,,,2.82500000e-009,-1.91093670e-003
,,,2.85000000e-009,-1.96406171e-003
,,,2.87500000e-009,-1.99843671e-003
,,,2.90000000e-009,-2.01093671e-003
,,,2.92500000e-009,-1.99999921e-003
,,,2.95000000e-009,-1.96874921e-003
,,,2.97500000e-009,-1.91874920e-003
,,,3.00000000e-009,-1.85781170e-003
,,,3.02500000e-009,-1.79218670e-003
,,,3.05000000e-009,-1.72812419e-003
,,,3.07500000e-009,-1.67031169e-003
,,,3.10000000e-009,-1.62812418e-003
,,,3.12500000e-009,-1.59999918e-003
,,,3.15000000e-009,-1.58281168e-003
,,,3.17500000e-009,-1.57968668e-003
,,,3.20000000e-009,-1.58749918e-003
,,,3.22500000e-009,-1.60312418e-003
,,,3.25000000e-009,-1.61718668e-003
,,,3.27500000e-009,-1.62499918e-003
,,,3.30000000e-009,-1.62187418e-003
,,,3.32500000e-009,-1.59999918e-003
,,,3.35000000e-009,-1.55781168e-003
,,,3.37500000e-009,-1.49062417e-003
,,,3.40000000e-009,-1.40312417e-003
,,,3.42500000e-009,-1.29687416e-003
,,,3.45000000e-009,-1.17656165e-003
,,,3.47500000e-009,-1.04843664e-003
,,,3.50000000e-009,-9.21874134e-004
,,,3.52500000e-009,-7.99999125e-004
,,,3.55000000e-009,-6.98436618e-004
,,,3.57500000e-009,-6.17186612e-004
,,,3.60000000e-009,-5.65624109e-004
,,,3.62500000e-009,-5.46874107e-004
,,,3.65000000e-009,-5.62499108e-004
,,,3.67500000e-009,-6.12499112e-004
,,,3.70000000e-009,-6.93749118e-004
,,,3.72500000e-009,-7.99999125e-004
,,,3.75000000e-009,-9.24999134e-004
,,,3.77500000e-009,-1.04999914e-003
,,,3.80000000e-009,-1.16406165e-003
,,,3.82500000e-009,-1.25624916e-003
,,,3.85000000e-009,-1.31093666e-003
,,,3.87500000e-009,-1.32343666e-003
,,,3.90000000e-009,-1.28749916e-003
,,,3.92500000e-009,-1.19999915e-003
,,,3.95000000e-009,-1.06718664e-003
,,,3.97500000e-009,-8.98436632e-004
,,,4.00000000e-009,-7.07811619e-004
,,,4.02500000e-009,-5.12499105e-004
,,,4.05000000e-009,-3.28124092e-004
,,,4.07500000e-009,-1.73436581e-004
,,,4.10000000e-009,-6.09365730e-005
,,,4.12500000e-009,9.31322575e-010
,,,4.15000000e-009,-6.24906912e-006
,,,4.17500000e-009,-6.40615732e-005
,,,4.20000000e-009,-1.64061580e-004
,,,4.22500000e-009,-2.95311590e-004
,,,4.25000000e-009,-4.39061600e-004
,,,4.27500000e-009,-5.81249110e-004
,,,4.30000000e-009,-7.06249119e-004
,,,4.32500000e-009,-7.99999125e-004
,,,4.35000000e-009,-8.57811629e-004
,,,4.37500000e-009,-8.68749130e-004
,,,4.40000000e-009,-8.40624128e-004
,,,4.42500000e-009,-7.76561624e-004
,,,4.45000000e-009,-6.89061617e-004
,,,4.47500000e-009,-5.89061610e-004
,,,4.50000000e-009,-4.90624103e-004
,,,4.52500000e-009,-3.99999097e-004
,,,4.55000000e-009,-3.34374092e-004
,,,4.57500000e-009,-2.92186589e-004
,,,4.60000000e-009,-2.74999088e-004
,,,4.62500000e-009,-2.79686588e-004
,,,4.65000000e-009,-2.99999090e-004
,,,4.67500000e-009,-3.32811592e-004
,,,4.70000000e-009,-3.67186595e-004
,,,4.72500000e-009,-3.99999097e-004
,,,4.75000000e-009,-4.29686599e-004
,,,4.77500000e-009,-4.48436600e-004
,,,4.80000000e-009,-4.56249101e-004
,,,4.82500000e-009,-4.53124101e-004
,,,4.85000000e-009,-4.43749100e-004
,,,4.87500000e-009,-4.29686599e-004
,,,4.90000000e-009,-4.14061598e-004
,,,4.92500000e-009,-3.99999097e-004
,,,4.95000000e-009,-3.96874097e-004
,,,4.97500000e-009,-3.95311597e-004
,,,5.00000000e-009,-3.98436597e-004
,,,5.02500000e-009,-4.03124097e-004
,,,5.05000000e-009,-4.06249097e-004
,,,5.07500000e-009,-4.09374098e-004
,,,5.10000000e-009,-4.06249097e-004
,,,5.12500000e-009,-3.99999097e-004
,,,5.15000000e-009,-3.89061596e-004
,,,5.17500000e-009,-3.74999095e-004
,,,5.20000000e-009,-3.62499094e-004
,,,5.22500000e-009,-3.53124094e-004
,,,5.25000000e-009,-3.49999093e-004
,,,5.27500000e-009,-3.54686594e-004
,,,5.30000000e-009,-3.71874095e-004
,,,5.32500000e-009,-3.99999097e-004
,,,5.35000000e-009,-4.43749100e-004
,,,5.37500000e-009,-4.96874104e-004
,,,5.40000000e-009,-5.56249108e-004
,,,5.42500000e-009,-6.15624112e-004
,,,5.45000000e-009,-6.74999116e-004
,,,5.47500000e-009,-7.26561620e-004
,,,5.50000000e-009,-7.68749123e-004
,,,5.52500000e-009,-7.99999125e-004
,,,5.55000000e-009,-8.14061626e-004
,,,5.57500000e-009,-8.17186627e-004
,,,5.60000000e-009,-8.12499126e-004
,,,5.62500000e-009,-8.03124126e-004
,,,5.65000000e-009,-7.93749125e-004
,,,5.67500000e-009,-7.87499124e-004
,,,5.70000000e-009,-7.90624125e-004
,,,5.72500000e-009,-7.99999125e-004
,,,5.75000000e-009,-8.14061626e-004
,,,5.77500000e-009,-8.31249128e-004
,,,5.80000000e-009,-8.49999129e-004
,,,5.82500000e-009,-8.65624130e-004
,,,5.85000000e-009,-8.71874130e-004
