RawData/DifferentLengths/R4/R4_50_5mV/wave021_Ch2.csv

"Record Length",1000,"Points",-7.72500000e-009,-1.09374076e-004
"Sample Interval",2.50000000e-011,s,-7.70000000e-009,-9.06240751e-005
"Trigger Point",309,"Samples",-7.67500000e-009,-5.31240724e-005
"Trigger Time",2.19523308e-011,s,-7.65000000e-009,9.31322575e-010
"",,,-7.62500000e-009,6.40634359e-005
"Horizontal Offset",-7.72500000e-009,s,-7.60000000e-009,1.35938441e-004
,,,-7.57500000e-009,2.09375946e-004
,,,-7.55000000e-009,2.78125951e-004
,,,-7.52500000e-009,3.35938455e-004
,,,-7.50000000e-009,3.76563458e-004
,,,-7.47500000e-009,4.00000960e-004
,,,-7.45000000e-009,4.00000960e-004
,,,-7.42500000e-009,3.73438458e-004
,,,-7.40000000e-009,3.29688455e-004
,,,-7.37500000e-009,2.71875951e-004
,,,-7.35000000e-009,2.07813446e-004
,,,-7.32500000e-009,1.42188441e-004
,,,-7.30000000e-009,8.28134372e-005
,,,-7.27500000e-009,3.28134336e-005
,,,-7.25000000e-009,9.31322575e-010
,,,-7.22500000e-009,-1.87490700e-005
,,,-7.20000000e-009,-2.03115701e-005
,,,-7.17500000e-009,-9.37406934e-006
,,,-7.15000000e-009,6.25093176e-006
,,,-7.12500000e-009,2.03134328e-005
,,,-7.10000000e-009,2.81259333e-005
,,,-7.07500000e-009,2.18759329e-005
,,,-7.05000000e-009,9.31322575e-010
,,,-7.02500000e-009,-4.06240716e-005
,,,-7.00000000e-009,-9.68740755e-005
,,,-6.97500000e-009,-1.62499080e-004
,,,-6.95000000e-009,-2.31249085e-004
,,,-6.92500000e-009,-2.96874090e-004
,,,-6.90000000e-009,-3.49999093e-004
,,,-6.87500000e-009,-3.87499096e-004
,,,-6.85000000e-009,-3.99999097e-004
,,,-6.82500000e-009,-3.87499096e-004
,,,-6.80000000e-009,-3.49999093e-004
,,,-6.77500000e-009,-2.96874090e-004
,,,-6.75000000e-009,-2.31249085e-004
,,,-6.72500000e-009,-1.62499080e-004
,,,-6.70000000e-009,-9.68740755e-005
,,,-6.67500000e-009,-4.06240716e-005
,,,-6.65000000e-009,9.31322575e-010
,,,-6.62500000e-009,2.18759329e-005
,,,-6.60000000e-009,2.81259333e-005
,,,-6.57500000e-009,2.03134328e-005
,,,-6.55000000e-009,6.25093176e-006
,,,-6.52500000e-009,-9.37406934e-006
,,,-6.50000000e-009,-2.03115701e-005
,,,-6.47500000e-009,-1.87490700e-005
,,,-6.45000000e-009,9.31322575e-010
,,,-6.42500000e-009,3.43759338e-005
,,,-6.40000000e-009,8.59384374e-005
,,,-6.37500000e-009,1.46875942e-004
,,,-6.35000000e-009,2.14063446e-004
,,,-6.32500000e-009,2.79688451e-004
,,,-6.30000000e-009,3.35938455e-004
,,,-6.27500000e-009,3.78125958e-004
,,,-6.25000000e-009,4.00000960e-004
,,,-6.22500000e-009,3.95313459e-004
,,,-6.20000000e-009,3.68750957e-004
,,,-6.17500000e-009,3.21875954e-004
,,,-6.15000000e-009,2.62500950e-004
,,,-6.12500000e-009,1.93750945e-004
,,,-6.10000000e-009,1.23438440e-004
,,,-6.07500000e-009,5.62509353e-005
,,,-6.05000000e-009,9.31322575e-010
,,,-6.02500000e-009,-4.37490718e-005
,,,-6.00000000e-009,-7.03115737e-005
,,,-5.97500000e-009,-8.12490744e-005
,,,-5.95000000e-009,-7.96865743e-005
,,,-5.92500000e-009,-6.56240733e-005
,,,-5.90000000e-009,-4.53115719e-005
,,,-5.87500000e-009,-2.34365703e-005
,,,-5.85000000e-009,9.31322575e-010
,,,-5.82500000e-009,1.71884325e-005
,,,-5.80000000e-009,3.12509335e-005
,,,-5.77500000e-009,3.75009340e-005
,,,-5.75000000e-009,3.90634341e-005
,,,-5.72500000e-009,3.43759338e-005
,,,-5.70000000e-009,2.50009331e-005
,,,-5.67500000e-009,1.25009322e-005
,,,-5.65000000e-009,9.31322575e-010
,,,-5.62500000e-009,-1.24990696e-005
,,,-5.60000000e-009,-2.34365703e-005
,,,-5.57500000e-009,-2.96865708e-005
,,,-5.55000000e-009,-3.12490709e-005
,,,-5.52500000e-009,-2.96865708e-005
,,,-5.50000000e-009,-2.34365703e-005
,,,-5.47500000e-009,-1.24990696e-005
,,,-5.45000000e-009,9.31322575e-010
,,,-5.42500000e-009,1.40634323e-005
,,,-5.40000000e-009,2.81259333e-005
,,,-5.37500000e-009,3.90634341e-005
,,,-5.35000000e-009,4.53134345e-005
,,,-5.32500000e-009,4.53134345e-005
,,,-5.30000000e-009,3.75009340e-005
,,,-5.27500000e-009,2.18759329e-005
,,,-5.25000000e-009,9.31322575e-010
,,,-5.22500000e-009,-2.49990704e-005
,,,-5.20000000e-009,-5.15615723e-005
,,,-5.17500000e-009,-7.34365739e-005
,,,-5.15000000e-009,-8.74990749e-005
,,,-5.12500000e-009,-9.06240751e-005
,,,-5.10000000e-009,-7.81240742e-005
,,,-5.07500000e-009,-4.84365721e-005
,,,-5.05000000e-009,9.31322575e-010
,,,-5.02500000e-009,6.09384356e-005
,,,-5.00000000e-009,1.32813441e-004
,,,-4.97500000e-009,2.07813446e-004
,,,-4.95000000e-009,2.79688451e-004
,,,-4.92500000e-009,3.40625955e-004
,,,-4.90000000e-009,3.82813458e-004
,,,-4.87500000e-009,4.03125960e-004
,,,-4.85000000e-009,4.00000960e-004
,,,-4.82500000e-009,3.65625957e-004
,,,-4.80000000e-009,3.09375953e-004
,,,-4.77500000e-009,2.42188448e-004
,,,-4.75000000e-009,1.68750943e-004
,,,-4.72500000e-009,1.00000938e-004
,,,-4.70000000e-009,4.37509344e-005
,,,-4.67500000e-009,9.37593199e-006
,,,-4.65000000e-009,9.31322575e-010
,,,-4.62500000e-009,1.71884325e-005
,,,-4.60000000e-009,5.93759355e-005
,,,-4.57500000e-009,1.18750940e-004
,,,-4.55000000e-009,1.90625945e-004
,,,-4.52500000e-009,2.62500950e-004
,,,-4.50000000e-009,3.26563454e-004
,,,-4.47500000e-009,3.75000958e-004
,,,-4.45000000e-009,4.00000960e-004
,,,-4.42500000e-009,3.92188459e-004
,,,-4.40000000e-009,3.59375957e-004
,,,-4.37500000e-009,3.06250953e-004
,,,-4.35000000e-009,2.40625948e-004
,,,-4.32500000e-009,1.68750943e-004
,,,-4.30000000e-009,9.84384383e-005
,,,-4.27500000e-009,4.06259342e-005
,,,-4.25000000e-009,9.31322575e-010
,,,-4.22500000e-009,-2.49990704e-005
,,,-4.20000000e-009,-3.12490709e-005
,,,-4.17500000e-009,-2.34365703e-005
,,,-4.15000000e-009,-7.81156923e-006
,,,-4.12500000e-009,9.37593199e-006
,,,-4.10000000e-009,2.03134328e-005
,,,-4.07500000e-009,1.87509326e-005
,,,-4.05000000e-009,9.31322575e-010
,,,-4.02500000e-009,-4.06240716e-005
,,,-4.00000000e-009,-9.53115754e-005
,,,-3.97500000e-009,-1.62499080e-004
,,,-3.95000000e-009,-2.32811585e-004
,,,-3.92500000e-009,-2.99999090e-004
,,,-3.90000000e-009,-3.54686594e-004
,,,-3.87500000e-009,-3.89061596e-004
,,,-3.85000000e-009,-3.99999097e-004
,,,-3.82500000e-009,-3.81249096e-004
,,,-3.80000000e-009,-3.39061593e-004
,,,-3.77500000e-009,-2.79686588e-004
,,,-3.75000000e-009,-2.09374083e-004
,,,-3.72500000e-009,-1.37499078e-004
,,,-3.70000000e-009,-7.49990740e-005
,,,-3.67500000e-009,-2.65615706e-005
,,,-3.65000000e-009,9.31322575e-010
,,,-3.62500000e-009,9.31322575e-010
,,,-3.60000000e-009,-2.34365703e-005
,,,-3.57500000e-009,-6.87490735e-005
,,,-3.55000000e-009,-1.31249078e-004
,,,-3.52500000e-009,-2.01561583e-004
,,,-3.50000000e-009,-2.74999088e-004
,,,-3.47500000e-009,-3.43749093e-004
,,,-3.45000000e-009,-3.99999097e-004
,,,-3.42500000e-009,-4.39061600e-004
,,,-3.40000000e-009,-4.62499101e-004
,,,-3.37500000e-009,-4.68749102e-004
,,,-3.35000000e-009,-4.64061602e-004
,,,-3.32500000e-009,-4.49999101e-004
,,,-3.30000000e-009,-4.32811599e-004
,,,-3.27500000e-009,-4.14061598e-004
,,,-3.25000000e-009,-3.99999097e-004
,,,-3.22500000e-009,-3.89061596e-004
,,,-3.20000000e-009,-3.85936596e-004
,,,-3.17500000e-009,-3.87499096e-004
,,,-3.15000000e-009,-3.93749097e-004
,,,-3.12500000e-009,-4.01561597e-004
,,,-3.10000000e-009,-4.07811598e-004
,,,-3.07500000e-009,-4.09374098e-004
,,,-3.05000000e-009,-3.99999097e-004
,,,-3.02500000e-009,-3.78124095e-004
,,,-3.00000000e-009,-3.45311593e-004
,,,-2.97500000e-009,-3.01561590e-004
,,,-2.95000000e-009,-2.48436586e-004
,,,-2.92500000e-009,-1.89061582e-004
,,,-2.90000000e-009,-1.24999078e-004
,,,-2.87500000e-009,-6.09365730e-005
,,,-2.85000000e-009,9.31322575e-010
,,,-2.82500000e-009,5.00009349e-005
,,,-2.80000000e-009,8.90634376e-005
,,,-2.77500000e-009,1.15625940e-004
,,,-2.75000000e-009,1.25000940e-004
,,,-2.72500000e-009,1.18750940e-004
,,,-2.70000000e-009,9.37509380e-005
,,,-2.67500000e-009,5.31259351e-005
,,,-2.65000000e-009,9.31322575e-010
,,,-2.62500000e-009,-6.56240733e-005
,,,-2.60000000e-009,-1.35936578e-004
,,,-2.57500000e-009,-2.06249083e-004
,,,-2.55000000e-009,-2.71874088e-004
,,,-2.52500000e-009,-3.28124092e-004
,,,-2.50000000e-009,-3.70311595e-004
,,,-2.47500000e-009,-3.95311597e-004
,,,-2.45000000e-009,-3.99999097e-004
,,,-2.42500000e-009,-3.84374096e-004
,,,-2.40000000e-009,-3.49999093e-004
,,,-2.37500000e-009,-2.99999090e-004
,,,-2.35000000e-009,-2.40624086e-004
,,,-2.32500000e-009,-1.74999081e-004
,,,-2.30000000e-009,-1.10936577e-004
,,,-2.27500000e-009,-5.15615723e-005
,,,-2.25000000e-009,9.31322575e-010
,,,-2.22500000e-009,3.43759338e-005
,,,-2.20000000e-009,5.78134354e-005
,,,-2.17500000e-009,6.71884361e-005
,,,-2.15000000e-009,6.40634359e-005
,,,-2.12500000e-009,5.31259351e-005
,,,-2.10000000e-009,3.59384339e-005
,,,-2.07500000e-009,1.71884325e-005
,,,-2.05000000e-009,9.31322575e-010
,,,-2.02500000e-009,-1.87490700e-005
,,,-2.00000000e-009,-3.28115710e-005
,,,-1.97500000e-009,-3.90615714e-005
,,,-1.95000000e-009,-4.06240716e-005
,,,-1.92500000e-009,-3.43740711e-005
,,,-1.90000000e-009,-2.65615706e-005
,,,-1.87500000e-009,-1.40615697e-005
,,,-1.85000000e-009,9.31322575e-010
,,,-1.82500000e-009,3.12593154e-006
,,,-1.80000000e-009,6.25093176e-006
,,,-1.77500000e-009,4.68843165e-006
,,,-1.75000000e-009,3.12593154e-006
,,,-1.72500000e-009,9.31322575e-010
,,,-1.70000000e-009,-3.12406890e-006
,,,-1.67500000e-009,-3.12406890e-006
,,,-1.65000000e-009,9.31322575e-010
,,,-1.62500000e-009,-7.81156923e-006
,,,-1.60000000e-009,-1.40615697e-005
,,,-1.57500000e-009,-1.71865699e-005
,,,-1.55000000e-009,-2.03115701e-005
,,,-1.52500000e-009,-1.87490700e-005
,,,-1.50000000e-009,-1.56240698e-005
,,,-1.47500000e-009,-9.37406934e-006
,,,-1.45000000e-009,9.31322575e-010
,,,-1.42500000e-009,-1.09365695e-005
,,,-1.40000000e-009,-2.18740702e-005
,,,-1.37500000e-009,-2.96865708e-005
,,,-1.35000000e-009,-3.59365712e-005
,,,-1.32500000e-009,-3.59365712e-005
,,,-1.30000000e-009,-2.81240707e-005
,,,-1.27500000e-009,-1.71865699e-005
,,,-1.25000000e-009,9.31322575e-010
,,,-1.22500000e-009,-6.24906912e-006
,,,-1.20000000e-009,-1.87490700e-005
,,,-1.17500000e-009,-4.21865717e-005
,,,-1.15000000e-009,-7.81240742e-005
,,,-1.12500000e-009,-1.31249078e-004
,,,-1.10000000e-009,-2.01561583e-004
,,,-1.07500000e-009,-2.92186589e-004
,,,-1.05000000e-009,-3.99999097e-004
,,,-1.02500000e-009,-5.46874107e-004
,,,-1.00000000e-009,-7.07811619e-004
,,,-9.75000000e-010,-8.76561631e-004
,,,-9.50000000e-010,-1.04687414e-003
,,,-9.25000000e-010,-1.21093665e-003
,,,-9.00000000e-010,-1.35937416e-003
,,,-8.75000000e-010,-1.49062417e-003
,,,-8.50000000e-010,-1.59999918e-003
,,,-8.25000000e-010,-1.70781169e-003
,,,-8.00000000e-010,-1.80156170e-003
,,,-7.75000000e-010,-1.88749920e-003
,,,-7.50000000e-010,-1.97187421e-003
,,,-7.25000000e-010,-2.05937421e-003
,,,-7.00000000e-010,-2.15624922e-003
,,,-6.75000000e-010,-2.26874923e-003
,,,-6.50000000e-010,-2.39999924e-003
,,,-6.25000000e-010,-2.56562425e-003
,,,-6.00000000e-010,-2.75312426e-003
,,,-5.75000000e-010,-2.96093678e-003
,,,-5.50000000e-010,-3.18124929e-003
,,,-5.25000000e-010,-3.40468681e-003
,,,-5.00000000e-010,-3.62187433e-003
,,,-4.75000000e-010,-3.82343684e-003
,,,-4.50000000e-010,-3.99999935e-003
,,,-4.25000000e-010,-4.14687436e-003
,,,-4.00000000e-010,-4.26406187e-003
,,,-3.75000000e-010,-4.35156188e-003
,,,-3.50000000e-010,-4.40937438e-003
,,,-3.25000000e-010,-4.43749938e-003
,,,-3.00000000e-010,-4.44218688e-003
,,,-2.75000000e-010,-4.42812438e-003
,,,-2.50000000e-010,-4.39999938e-003
,,,-2.25000000e-010,-4.36249938e-003
,,,-2.00000000e-010,-4.33906188e-003
,,,-1.75000000e-010,-4.33593688e-003
,,,-1.50000000e-010,-4.35937438e-003
,,,-1.25000000e-010,-4.41718688e-003
,,,-1.00000000e-010,-4.51093689e-003
,,,-7.50000000e-011,-4.63906190e-003
,,,-5.00000000e-011,-4.79999941e-003
,,,-2.50000000e-011,-4.98281192e-003
,,,0.00000000e+000,-5.19062444e-003
,,,2.50000000e-011,-5.41562445e-003
,,,5.00000000e-011,-5.64531197e-003
,,,7.50000000e-011,-5.86874948e-003
,,,1.00000000e-010,-6.07343700e-003
,,,1.25000000e-010,-6.25312451e-003
,,,1.50000000e-010,-6.39999952e-003
,,,1.75000000e-010,-6.49218703e-003
,,,2.00000000e-010,-6.55624953e-003
,,,2.25000000e-010,-6.59999954e-003
,,,2.50000000e-010,-6.63124954e-003
,,,2.75000000e-010,-6.65937454e-003
,,,3.00000000e-010,-6.69374954e-003
,,,3.25000000e-010,-6.73906205e-003
,,,3.50000000e-010,-6.79999955e-003
,,,3.75000000e-010,-6.85624955e-003
,,,4.00000000e-010,-6.92812456e-003
,,,4.25000000e-010,-7.00937456e-003
,,,4.50000000e-010,-7.09062457e-003
,,,4.75000000e-010,-7.15937458e-003
,,,5.00000000e-010,-7.20624958e-003
,,,5.25000000e-010,-7.22187458e-003
,,,5.50000000e-010,-7.19999958e-003
,,,5.75000000e-010,-7.11874957e-003
,,,6.00000000e-010,-7.00781206e-003
,,,6.25000000e-010,-6.87812456e-003
,,,6.50000000e-010,-6.74218705e-003
,,,6.75000000e-010,-6.61406204e-003
,,,7.00000000e-010,-6.50781203e-003
,,,7.25000000e-010,-6.43437452e-003
,,,7.50000000e-010,-6.39999952e-003
,,,7.75000000e-010,-6.39531202e-003
,,,8.00000000e-010,-6.42812452e-003
,,,8.25000000e-010,-6.49218703e-003
,,,8.50000000e-010,-6.57499953e-003
,,,8.75000000e-010,-6.66093704e-003
,,,9.00000000e-010,-6.73593705e-003
,,,9.25000000e-010,-6.78593705e-003
,,,9.50000000e-010,-6.79999955e-003
,,,9.75000000e-010,-6.75624955e-003
,,,1.00000000e-009,-6.67656204e-003
,,,1.02500000e-009,-6.56562453e-003
,,,1.05000000e-009,-6.43593702e-003
,,,1.07500000e-009,-6.30312451e-003
,,,1.10000000e-009,-6.17968701e-003
,,,1.12500000e-009,-6.07499950e-003
,,,1.15000000e-009,-5.99999949e-003
,,,1.17500000e-009,-5.95156199e-003
,,,1.20000000e-009,-5.93281199e-003
,,,1.22500000e-009,-5.94062449e-003
,,,1.25000000e-009,-5.96249949e-003
,,,1.27500000e-009,-5.99218699e-003
,,,1.30000000e-009,-6.01406199e-003
,,,1.32500000e-009,-6.02031199e-003
,,,1.35000000e-009,-5.99999949e-003
,,,1.37500000e-009,-5.94531199e-003
,,,1.40000000e-009,-5.85937448e-003
,,,1.42500000e-009,-5.74999948e-003
,,,1.45000000e-009,-5.62499947e-003
,,,1.47500000e-009,-5.49687446e-003
,,,1.50000000e-009,-5.37656195e-003
,,,1.52500000e-009,-5.27499944e-003
,,,1.55000000e-009,-5.19999944e-003
,,,1.57500000e-009,-5.15468693e-003
,,,1.60000000e-009,-5.13437443e-003
,,,1.62500000e-009,-5.13749943e-003
,,,1.65000000e-009,-5.15468693e-003
,,,1.67500000e-009,-5.17812444e-003
,,,1.70000000e-009,-5.19999944e-003
,,,1.72500000e-009,-5.20937444e-003
,,,1.75000000e-009,-5.19999944e-003
,,,1.77500000e-009,-5.16093693e-003
,,,1.80000000e-009,-5.09374943e-003
,,,1.82500000e-009,-4.99999942e-003
,,,1.85000000e-009,-4.88749941e-003
,,,1.87500000e-009,-4.76406191e-003
,,,1.90000000e-009,-4.63593690e-003
,,,1.92500000e-009,-4.51249939e-003
,,,1.95000000e-009,-4.39999938e-003
,,,1.97500000e-009,-4.30624937e-003
,,,2.00000000e-009,-4.22656187e-003
,,,2.02500000e-009,-4.16249936e-003
,,,2.05000000e-009,-4.11406186e-003
,,,2.07500000e-009,-4.07656186e-003
,,,2.10000000e-009,-4.04843686e-003
,,,2.12500000e-009,-4.02343685e-003
,,,2.15000000e-009,-3.99999935e-003
,,,2.17500000e-009,-3.97499935e-003
,,,2.20000000e-009,-3.94062435e-003
,,,2.22500000e-009,-3.89843684e-003
,,,2.25000000e-009,-3.84687434e-003
,,,2.27500000e-009,-3.78906184e-003
,,,2.30000000e-009,-3.72656183e-003
,,,2.32500000e-009,-3.66406183e-003
,,,2.35000000e-009,-3.59999932e-003
,,,2.37500000e-009,-3.54218682e-003
,,,2.40000000e-009,-3.48593682e-003
,,,2.42500000e-009,-3.42968681e-003
,,,2.45000000e-009,-3.37656181e-003
,,,2.47500000e-009,-3.32812430e-003
,,,2.50000000e-009,-3.28124930e-003
,,,2.52500000e-009,-3.24062430e-003
,,,2.55000000e-009,-3.19999930e-003
,,,2.57500000e-009,-3.16093679e-003
,,,2.60000000e-009,-3.12031179e-003
,,,2.62500000e-009,-3.07343679e-003
,,,2.65000000e-009,-3.02499928e-003
,,,2.67500000e-009,-2.97187428e-003
,,,2.70000000e-009,-2.91718678e-003
,,,2.72500000e-009,-2.85937427e-003
,,,2.75000000e-009,-2.79999927e-003
,,,2.77500000e-009,-2.74374926e-003
,,,2.80000000e-009,-2.68593676e-003
,,,2.82500000e-009,-2.62656175e-003
,,,2.85000000e-009,-2.56874925e-003
,,,2.87500000e-009,-2.51406175e-003
,,,2.90000000e-009,-2.46718674e-003
,,,2.92500000e-009,-2.42968674e-003
,,,2.95000000e-009,-2.39999924e-003
,,,2.97500000e-009,-2.38437424e-003
,,,3.00000000e-009,-2.37499924e-003
,,,3.02500000e-009,-2.37343674e-003
,,,3.05000000e-009,-2.37499924e-003
,,,3.07500000e-009,-2.38124924e-003
,,,3.10000000e-009,-2.38906174e-003
,,,3.12500000e-009,-2.39687424e-003
,,,3.15000000e-009,-2.39999924e-003
,,,3.17500000e-009,-2.39999924e-003
,,,3.20000000e-009,-2.38749924e-003
,,,3.22500000e-009,-2.36093674e-003
,,,3.25000000e-009,-2.31874923e-003
,,,3.27500000e-009,-2.26093673e-003
,,,3.30000000e-009,-2.18749922e-003
,,,3.32500000e-009,-2.09999922e-003
,,,3.35000000e-009,-1.99999921e-003
,,,3.37500000e-009,-1.89374920e-003
,,,3.40000000e-009,-1.78124919e-003
,,,3.42500000e-009,-1.66562419e-003
,,,3.45000000e-009,-1.55156168e-003
,,,3.47500000e-009,-1.44374917e-003
,,,3.50000000e-009,-1.34687416e-003
,,,3.52500000e-009,-1.26562416e-003
,,,3.55000000e-009,-1.19999915e-003
,,,3.57500000e-009,-1.16249915e-003
,,,3.60000000e-009,-1.14062415e-003
,,,3.62500000e-009,-1.13281165e-003
,,,3.65000000e-009,-1.13593665e-003
,,,3.67500000e-009,-1.14843665e-003
,,,3.70000000e-009,-1.16406165e-003
,,,3.72500000e-009,-1.18281165e-003
,,,3.75000000e-009,-1.19999915e-003
,,,3.77500000e-009,-1.22187416e-003
,,,3.80000000e-009,-1.23437416e-003
,,,3.82500000e-009,-1.24062416e-003
,,,3.85000000e-009,-1.24062416e-003
,,,3.87500000e-009,-1.23437416e-003
,,,3.90000000e-009,-1.22343666e-003
,,,3.92500000e-009,-1.21249915e-003
,,,3.95000000e-009,-1.19999915e-003
,,,3.97500000e-009,-1.19531165e-003
,,,4.00000000e-009,-1.19218665e-003
,,,4.02500000e-009,-1.19062415e-003
,,,4.05000000e-009,-1.19062415e-003
,,,4.07500000e-009,-1.19218665e-003
,,,4.10000000e-009,-1.19531165e-003
,,,4.12500000e-009,-1.19843665e-003
,,,4.15000000e-009,-1.19999915e-003
,,,4.17500000e-009,-1.20781165e-003
,,,4.20000000e-009,-1.21249915e-003
,,,4.22500000e-009,-1.21406165e-003
,,,4.25000000e-009,-1.21406165e-003
,,,4.27500000e-009,-1.21249915e-003
,,,4.30000000e-009,-1.20781165e-003
,,,4.32500000e-009,-1.20468665e-003
,,,4.35000000e-009,-1.19999915e-003
,,,4.37500000e-009,-1.19843665e-003
,,,4.40000000e-009,-1.19687415e-003
,,,4.42500000e-009,-1.19531165e-003
,,,4.45000000e-009,-1.19374915e-003
,,,4.47500000e-009,-1.19374915e-003
,,,4.50000000e-009,-1.19531165e-003
,,,4.52500000e-009,-1.19687415e-003
,,,4.55000000e-009,-1.19999915e-003
,,,4.57500000e-009,-1.20312415e-003
,,,4.60000000e-009,-1.20624915e-003
,,,4.62500000e-009,-1.20781165e-003
,,,4.65000000e-009,-1.20937415e-003
,,,4.67500000e-009,-1.20937415e-003
,,,4.70000000e-009,-1.20781165e-003
,,,4.72500000e-009,-1.20468665e-003
,,,4.75000000e-009,-1.19999915e-003
,,,4.77500000e-009,-1.19374915e-003
,,,4.80000000e-009,-1.18593665e-003
,,,4.82500000e-009,-1.18124915e-003
,,,4.85000000e-009,-1.17656165e-003
,,,4.87500000e-009,-1.17656165e-003
,,,4.90000000e-009,-1.17968665e-003
,,,4.92500000e-009,-1.18906165e-003
,,,4.95000000e-009,-1.19999915e-003
,,,4.97500000e-009,-1.21249915e-003
,,,5.00000000e-009,-1.22343666e-003
,,,5.02500000e-009,-1.23437416e-003
,,,5.05000000e-009,-1.24218666e-003
,,,5.07500000e-009,-1.24374916e-003
,,,5.10000000e-009,-1.23749916e-003
,,,5.12500000e-009,-1.22499916e-003
,,,5.15000000e-009,-1.19999915e-003
,,,5.17500000e-009,-1.16718665e-003
,,,5.20000000e-009,-1.12656165e-003
,,,5.22500000e-009,-1.07656164e-003
,,,5.25000000e-009,-1.02343664e-003
,,,5.27500000e-009,-9.65624137e-004
,,,5.30000000e-009,-9.07811633e-004
,,,5.32500000e-009,-8.51561629e-004
,,,5.35000000e-009,-7.99999125e-004
,,,5.37500000e-009,-7.59374122e-004
,,,5.40000000e-009,-7.29686620e-004
,,,5.42500000e-009,-7.10936619e-004
,,,5.45000000e-009,-7.04686619e-004
,,,5.47500000e-009,-7.12499119e-004
,,,5.50000000e-009,-7.32811621e-004
,,,5.52500000e-009,-7.62499123e-004
,,,5.55000000e-009,-7.99999125e-004
,,,5.57500000e-009,-8.42186628e-004
,,,5.60000000e-009,-8.81249131e-004
,,,5.62500000e-009,-9.12499133e-004
,,,5.65000000e-009,-9.29686634e-004
,,,5.67500000e-009,-9.28124134e-004
,,,5.70000000e-009,-9.06249133e-004
,,,5.72500000e-009,-8.64061630e-004
,,,5.75000000e-009,-7.99999125e-004
,,,5.77500000e-009,-7.23436620e-004
,,,5.80000000e-009,-6.37499114e-004
,,,5.82500000e-009,-5.51561608e-004
,,,5.85000000e-009,-4.73436602e-004
,,,5.87500000e-009,-4.10936598e-004
,,,5.90000000e-009,-3.74999095e-004
