RawData/DifferentLengths/R4/R4_50_5mV/wave030_Ch2.csv

"Record Length",1000,"Points",-7.72500000e-009,9.31322575e-010
"Sample Interval",2.50000000e-011,s,-7.70000000e-009,-3.74990713e-005
"Trigger Point",309,"Samples",-7.67500000e-009,-9.53115754e-005
"Trigger Time",2.52394366e-013,s,-7.65000000e-009,-1.65624080e-004
"",,,-7.62500000e-009,-2.40624086e-004
"Horizontal Offset",-7.72500000e-009,s,-7.60000000e-009,-3.09374091e-004
,,,-7.57500000e-009,-3.64061594e-004
,,,-7.55000000e-009,-3.95311597e-004
,,,-7.52500000e-009,-3.99999097e-004
,,,-7.50000000e-009,-3.78124095e-004
,,,-7.47500000e-009,-3.31249092e-004
,,,-7.45000000e-009,-2.65624087e-004
,,,-7.42500000e-009,-1.92186582e-004
,,,-7.40000000e-009,-1.20311577e-004
,,,-7.37500000e-009,-5.78115728e-005
,,,-7.35000000e-009,-1.71865699e-005
,,,-7.32500000e-009,9.31322575e-010
,,,-7.30000000e-009,-1.71865699e-005
,,,-7.27500000e-009,-5.78115728e-005
,,,-7.25000000e-009,-1.20311577e-004
,,,-7.22500000e-009,-1.92186582e-004
,,,-7.20000000e-009,-2.65624087e-004
,,,-7.17500000e-009,-3.31249092e-004
,,,-7.15000000e-009,-3.78124095e-004
,,,-7.12500000e-009,-3.99999097e-004
,,,-7.10000000e-009,-3.93749097e-004
,,,-7.07500000e-009,-3.59374094e-004
,,,-7.05000000e-009,-3.03124090e-004
,,,-7.02500000e-009,-2.32811585e-004
,,,-7.00000000e-009,-1.57811580e-004
,,,-6.97500000e-009,-8.90615750e-005
,,,-6.95000000e-009,-3.43740711e-005
,,,-6.92500000e-009,9.31322575e-010
,,,-6.90000000e-009,3.12593154e-006
,,,-6.87500000e-009,-2.03115701e-005
,,,-6.85000000e-009,-6.56240733e-005
,,,-6.82500000e-009,-1.29686578e-004
,,,-6.80000000e-009,-2.01561583e-004
,,,-6.77500000e-009,-2.76561588e-004
,,,-6.75000000e-009,-3.45311593e-004
,,,-6.72500000e-009,-3.99999097e-004
,,,-6.70000000e-009,-4.39061600e-004
,,,-6.67500000e-009,-4.59374101e-004
,,,-6.65000000e-009,-4.62499101e-004
,,,-6.62500000e-009,-4.54686601e-004
,,,-6.60000000e-009,-4.40624100e-004
,,,-6.57500000e-009,-4.23436599e-004
,,,-6.55000000e-009,-4.09374098e-004
,,,-6.52500000e-009,-3.99999097e-004
,,,-6.50000000e-009,-4.03124097e-004
,,,-6.47500000e-009,-4.12499098e-004
,,,-6.45000000e-009,-4.26561599e-004
,,,-6.42500000e-009,-4.40624100e-004
,,,-6.40000000e-009,-4.48436600e-004
,,,-6.37500000e-009,-4.48436600e-004
,,,-6.35000000e-009,-4.32811599e-004
,,,-6.32500000e-009,-3.99999097e-004
,,,-6.30000000e-009,-3.49999093e-004
,,,-6.27500000e-009,-2.85936589e-004
,,,-6.25000000e-009,-2.17186584e-004
,,,-6.22500000e-009,-1.46874079e-004
,,,-6.20000000e-009,-8.28115745e-005
,,,-6.17500000e-009,-3.43740711e-005
,,,-6.15000000e-009,-6.24906912e-006
,,,-6.12500000e-009,9.31322575e-010
,,,-6.10000000e-009,-2.18740702e-005
,,,-6.07500000e-009,-6.24990731e-005
,,,-6.05000000e-009,-1.20311577e-004
,,,-6.02500000e-009,-1.87499082e-004
,,,-6.00000000e-009,-2.54686587e-004
,,,-5.97500000e-009,-3.17186591e-004
,,,-5.95000000e-009,-3.67186595e-004
,,,-5.92500000e-009,-3.99999097e-004
,,,-5.90000000e-009,-4.12499098e-004
,,,-5.87500000e-009,-4.09374098e-004
,,,-5.85000000e-009,-3.95311597e-004
,,,-5.82500000e-009,-3.76561595e-004
,,,-5.80000000e-009,-3.60936594e-004
,,,-5.77500000e-009,-3.57811594e-004
,,,-5.75000000e-009,-3.68749095e-004
,,,-5.72500000e-009,-3.99999097e-004
,,,-5.70000000e-009,-4.49999101e-004
,,,-5.67500000e-009,-5.14061605e-004
,,,-5.65000000e-009,-5.89061610e-004
,,,-5.62500000e-009,-6.64061616e-004
,,,-5.60000000e-009,-7.31249120e-004
,,,-5.57500000e-009,-7.81249124e-004
,,,-5.55000000e-009,-8.06249126e-004
,,,-5.52500000e-009,-7.99999125e-004
,,,-5.50000000e-009,-7.59374122e-004
,,,-5.47500000e-009,-6.85936617e-004
,,,-5.45000000e-009,-5.87499110e-004
,,,-5.42500000e-009,-4.70311602e-004
,,,-5.40000000e-009,-3.43749093e-004
,,,-5.37500000e-009,-2.17186584e-004
,,,-5.35000000e-009,-9.99990758e-005
,,,-5.32500000e-009,9.31322575e-010
,,,-5.30000000e-009,7.34384365e-005
,,,-5.27500000e-009,1.21875940e-004
,,,-5.25000000e-009,1.43750941e-004
,,,-5.22500000e-009,1.40625941e-004
,,,-5.20000000e-009,1.18750940e-004
,,,-5.17500000e-009,8.43759373e-005
,,,-5.15000000e-009,4.21884343e-005
,,,-5.12500000e-009,9.31322575e-010
,,,-5.10000000e-009,-3.74990713e-005
,,,-5.07500000e-009,-6.40615732e-005
,,,-5.05000000e-009,-7.96865743e-005
,,,-5.02500000e-009,-8.28115745e-005
,,,-5.00000000e-009,-7.49990740e-005
,,,-4.97500000e-009,-5.62490727e-005
,,,-4.95000000e-009,-2.96865708e-005
,,,-4.92500000e-009,9.31322575e-010
,,,-4.90000000e-009,2.65634332e-005
,,,-4.87500000e-009,5.15634350e-005
,,,-4.85000000e-009,7.03134363e-005
,,,-4.82500000e-009,7.96884370e-005
,,,-4.80000000e-009,7.81259369e-005
,,,-4.77500000e-009,6.40634359e-005
,,,-4.75000000e-009,3.75009340e-005
,,,-4.72500000e-009,9.31322575e-010
,,,-4.70000000e-009,-4.84365721e-005
,,,-4.67500000e-009,-1.04686576e-004
,,,-4.65000000e-009,-1.62499080e-004
,,,-4.62500000e-009,-2.23436584e-004
,,,-4.60000000e-009,-2.79686588e-004
,,,-4.57500000e-009,-3.31249092e-004
,,,-4.55000000e-009,-3.71874095e-004
,,,-4.52500000e-009,-3.99999097e-004
,,,-4.50000000e-009,-4.10936598e-004
,,,-4.47500000e-009,-4.03124097e-004
,,,-4.45000000e-009,-3.74999095e-004
,,,-4.42500000e-009,-3.28124092e-004
,,,-4.40000000e-009,-2.65624087e-004
,,,-4.37500000e-009,-1.85936582e-004
,,,-4.35000000e-009,-9.68740755e-005
,,,-4.32500000e-009,9.31322575e-010
,,,-4.30000000e-009,9.84384383e-005
,,,-4.27500000e-009,1.92188445e-004
,,,-4.25000000e-009,2.75000951e-004
,,,-4.22500000e-009,3.42188456e-004
,,,-4.20000000e-009,3.90625959e-004
,,,-4.17500000e-009,4.17188461e-004
,,,-4.15000000e-009,4.20313461e-004
,,,-4.12500000e-009,4.00000960e-004
,,,-4.10000000e-009,3.59375957e-004
,,,-4.07500000e-009,3.04688453e-004
,,,-4.05000000e-009,2.40625948e-004
,,,-4.02500000e-009,1.73438444e-004
,,,-4.00000000e-009,1.10938439e-004
,,,-3.97500000e-009,5.78134354e-005
,,,-3.95000000e-009,1.87509326e-005
,,,-3.92500000e-009,9.31322575e-010
,,,-3.90000000e-009,3.12593154e-006
,,,-3.87500000e-009,2.65634332e-005
,,,-3.85000000e-009,7.03134363e-005
,,,-3.82500000e-009,1.28125940e-004
,,,-3.80000000e-009,1.95313445e-004
,,,-3.77500000e-009,2.65625950e-004
,,,-3.75000000e-009,3.35938455e-004
,,,-3.72500000e-009,4.00000960e-004
,,,-3.70000000e-009,4.48438463e-004
,,,-3.67500000e-009,4.84375966e-004
,,,-3.65000000e-009,5.03125967e-004
,,,-3.62500000e-009,5.04688467e-004
,,,-3.60000000e-009,4.93750966e-004
,,,-3.57500000e-009,4.68750965e-004
,,,-3.55000000e-009,4.35938462e-004
,,,-3.52500000e-009,4.00000960e-004
,,,-3.50000000e-009,3.56250957e-004
,,,-3.47500000e-009,3.20313454e-004
,,,-3.45000000e-009,2.93750952e-004
,,,-3.42500000e-009,2.81250951e-004
,,,-3.40000000e-009,2.84375951e-004
,,,-3.37500000e-009,3.06250953e-004
,,,-3.35000000e-009,3.45313456e-004
,,,-3.32500000e-009,4.00000960e-004
,,,-3.30000000e-009,4.62500964e-004
,,,-3.27500000e-009,5.31250969e-004
,,,-3.25000000e-009,6.03125974e-004
,,,-3.22500000e-009,6.70313479e-004
,,,-3.20000000e-009,7.28125983e-004
,,,-3.17500000e-009,7.71875986e-004
,,,-3.15000000e-009,7.95313488e-004
,,,-3.12500000e-009,8.00000988e-004
,,,-3.10000000e-009,7.76563486e-004
,,,-3.07500000e-009,7.34375983e-004
,,,-3.05000000e-009,6.79688479e-004
,,,-3.02500000e-009,6.15625975e-004
,,,-3.00000000e-009,5.50000970e-004
,,,-2.97500000e-009,4.89063466e-004
,,,-2.95000000e-009,4.37500962e-004
,,,-2.92500000e-009,4.00000960e-004
,,,-2.90000000e-009,3.71875958e-004
,,,-2.87500000e-009,3.57813457e-004
,,,-2.85000000e-009,3.59375957e-004
,,,-2.82500000e-009,3.68750957e-004
,,,-2.80000000e-009,3.82813458e-004
,,,-2.77500000e-009,3.95313459e-004
,,,-2.75000000e-009,4.03125960e-004
,,,-2.72500000e-009,4.00000960e-004
,,,-2.70000000e-009,3.81250958e-004
,,,-2.67500000e-009,3.48438456e-004
,,,-2.65000000e-009,3.03125953e-004
,,,-2.62500000e-009,2.46875949e-004
,,,-2.60000000e-009,1.84375944e-004
,,,-2.57500000e-009,1.18750940e-004
,,,-2.55000000e-009,5.62509353e-005
,,,-2.52500000e-009,9.31322575e-010
,,,-2.50000000e-009,-4.37490718e-005
,,,-2.47500000e-009,-7.18740738e-005
,,,-2.45000000e-009,-8.74990749e-005
,,,-2.42500000e-009,-8.90615750e-005
,,,-2.40000000e-009,-7.96865743e-005
,,,-2.37500000e-009,-5.93740729e-005
,,,-2.35000000e-009,-3.12490709e-005
,,,-2.32500000e-009,9.31322575e-010
,,,-2.30000000e-009,3.12509335e-005
,,,-2.27500000e-009,5.78134354e-005
,,,-2.25000000e-009,7.81259369e-005
,,,-2.22500000e-009,8.59384374e-005
,,,-2.20000000e-009,8.43759373e-005
,,,-2.17500000e-009,6.87509362e-005
,,,-2.15000000e-009,3.90634341e-005
,,,-2.12500000e-009,9.31322575e-010
,,,-2.10000000e-009,-4.99990722e-005
,,,-2.07500000e-009,-1.07811576e-004
,,,-2.05000000e-009,-1.68749081e-004
,,,-2.02500000e-009,-2.31249085e-004
,,,-2.00000000e-009,-2.89061589e-004
,,,-1.97500000e-009,-3.39061593e-004
,,,-1.95000000e-009,-3.78124095e-004
,,,-1.92500000e-009,-3.99999097e-004
,,,-1.90000000e-009,-4.04686597e-004
,,,-1.87500000e-009,-3.90624096e-004
,,,-1.85000000e-009,-3.59374094e-004
,,,-1.82500000e-009,-3.12499091e-004
,,,-1.80000000e-009,-2.48436586e-004
,,,-1.77500000e-009,-1.74999081e-004
,,,-1.75000000e-009,-9.06240751e-005
,,,-1.72500000e-009,9.31322575e-010
,,,-1.70000000e-009,8.12509371e-005
,,,-1.67500000e-009,1.57813442e-004
,,,-1.65000000e-009,2.25000947e-004
,,,-1.62500000e-009,2.82813451e-004
,,,-1.60000000e-009,3.29688455e-004
,,,-1.57500000e-009,3.65625957e-004
,,,-1.55000000e-009,3.89063459e-004
,,,-1.52500000e-009,4.00000960e-004
,,,-1.50000000e-009,3.82813458e-004
,,,-1.47500000e-009,3.51563456e-004
,,,-1.45000000e-009,3.09375953e-004
,,,-1.42500000e-009,2.56250949e-004
,,,-1.40000000e-009,1.96875945e-004
,,,-1.37500000e-009,1.32813441e-004
,,,-1.35000000e-009,6.56259360e-005
,,,-1.32500000e-009,9.31322575e-010
,,,-1.30000000e-009,-8.12490744e-005
,,,-1.27500000e-009,-1.57811580e-004
,,,-1.25000000e-009,-2.26561585e-004
,,,-1.22500000e-009,-2.87499089e-004
,,,-1.20000000e-009,-3.34374092e-004
,,,-1.17500000e-009,-3.68749095e-004
,,,-1.15000000e-009,-3.90624096e-004
,,,-1.12500000e-009,-3.99999097e-004
,,,-1.10000000e-009,-4.20311598e-004
,,,-1.07500000e-009,-4.40624100e-004
,,,-1.05000000e-009,-4.65624102e-004
,,,-1.02500000e-009,-4.99999104e-004
,,,-1.00000000e-009,-5.48436607e-004
,,,-9.75000000e-010,-6.12499112e-004
,,,-9.50000000e-010,-6.96874118e-004
,,,-9.25000000e-010,-7.99999125e-004
,,,-9.00000000e-010,-9.43749135e-004
,,,-8.75000000e-010,-1.10624915e-003
,,,-8.50000000e-010,-1.27656166e-003
,,,-8.25000000e-010,-1.44999917e-003
,,,-8.00000000e-010,-1.61718668e-003
,,,-7.75000000e-010,-1.76718669e-003
,,,-7.50000000e-010,-1.89687420e-003
,,,-7.25000000e-010,-1.99999921e-003
,,,-7.00000000e-010,-2.08906172e-003
,,,-6.75000000e-010,-2.15624922e-003
,,,-6.50000000e-010,-2.20781172e-003
,,,-6.25000000e-010,-2.24687423e-003
,,,-6.00000000e-010,-2.27968673e-003
,,,-5.75000000e-010,-2.31406173e-003
,,,-5.50000000e-010,-2.35156174e-003
,,,-5.25000000e-010,-2.39999924e-003
,,,-5.00000000e-010,-2.46874924e-003
,,,-4.75000000e-010,-2.55624925e-003
,,,-4.50000000e-010,-2.65781176e-003
,,,-4.25000000e-010,-2.77031176e-003
,,,-4.00000000e-010,-2.88749927e-003
,,,-3.75000000e-010,-2.99999928e-003
,,,-3.50000000e-010,-3.10624929e-003
,,,-3.25000000e-010,-3.19999930e-003
,,,-3.00000000e-010,-3.28437430e-003
,,,-2.75000000e-010,-3.36249931e-003
,,,-2.50000000e-010,-3.44062431e-003
,,,-2.25000000e-010,-3.52343682e-003
,,,-2.00000000e-010,-3.61718682e-003
,,,-1.75000000e-010,-3.72343683e-003
,,,-1.50000000e-010,-3.85156184e-003
,,,-1.25000000e-010,-3.99999935e-003
,,,-1.00000000e-010,-4.16718686e-003
,,,-7.50000000e-011,-4.35781188e-003
,,,-5.00000000e-011,-4.56718689e-003
,,,-2.50000000e-011,-4.78906191e-003
,,,0.00000000e+000,-5.01093692e-003
,,,2.50000000e-011,-5.22656194e-003
,,,5.00000000e-011,-5.42656195e-003
,,,7.50000000e-011,-5.59999947e-003
,,,1.00000000e-010,-5.72343697e-003
,,,1.25000000e-010,-5.81718698e-003
,,,1.50000000e-010,-5.88593699e-003
,,,1.75000000e-010,-5.93281199e-003
,,,2.00000000e-010,-5.96406199e-003
,,,2.25000000e-010,-5.98124949e-003
,,,2.50000000e-010,-5.99218699e-003
,,,2.75000000e-010,-5.99999949e-003
,,,3.00000000e-010,-5.98593699e-003
,,,3.25000000e-010,-5.97499949e-003
,,,3.50000000e-010,-5.97187449e-003
,,,3.75000000e-010,-5.97499949e-003
,,,4.00000000e-010,-5.98124949e-003
,,,4.25000000e-010,-5.98906199e-003
,,,4.50000000e-010,-5.99687449e-003
,,,4.75000000e-010,-5.99999949e-003
,,,5.00000000e-010,-5.97968699e-003
,,,5.25000000e-010,-5.95937449e-003
,,,5.50000000e-010,-5.94374949e-003
,,,5.75000000e-010,-5.93281199e-003
,,,6.00000000e-010,-5.93281199e-003
,,,6.25000000e-010,-5.94374949e-003
,,,6.50000000e-010,-5.96718699e-003
,,,6.75000000e-010,-5.99999949e-003
,,,7.00000000e-010,-6.01718699e-003
,,,7.25000000e-010,-6.03906200e-003
,,,7.50000000e-010,-6.06249950e-003
,,,7.75000000e-010,-6.08124950e-003
,,,8.00000000e-010,-6.08906200e-003
,,,8.25000000e-010,-6.08281200e-003
,,,8.50000000e-010,-6.05312450e-003
,,,8.75000000e-010,-5.99999949e-003
,,,9.00000000e-010,-5.89843699e-003
,,,9.25000000e-010,-5.77031198e-003
,,,9.50000000e-010,-5.62343697e-003
,,,9.75000000e-010,-5.46093696e-003
,,,1.00000000e-009,-5.28906194e-003
,,,1.02500000e-009,-5.11874943e-003
,,,1.05000000e-009,-4.95312442e-003
,,,1.07500000e-009,-4.79999941e-003
,,,1.10000000e-009,-4.65937440e-003
,,,1.12500000e-009,-4.54218689e-003
,,,1.15000000e-009,-4.44999938e-003
,,,1.17500000e-009,-4.38749938e-003
,,,1.20000000e-009,-4.35312438e-003
,,,1.22500000e-009,-4.34687438e-003
,,,1.25000000e-009,-4.36406188e-003
,,,1.27500000e-009,-4.39999938e-003
,,,1.30000000e-009,-4.44687438e-003
,,,1.32500000e-009,-4.49218689e-003
,,,1.35000000e-009,-4.52968689e-003
,,,1.37500000e-009,-4.55312439e-003
,,,1.40000000e-009,-4.55624939e-003
,,,1.42500000e-009,-4.53281189e-003
,,,1.45000000e-009,-4.48124939e-003
,,,1.47500000e-009,-4.39999938e-003
,,,1.50000000e-009,-4.28749937e-003
,,,1.52500000e-009,-4.14687436e-003
,,,1.55000000e-009,-3.98749935e-003
,,,1.57500000e-009,-3.81562434e-003
,,,1.60000000e-009,-3.64374933e-003
,,,1.62500000e-009,-3.47968681e-003
,,,1.65000000e-009,-3.32968680e-003
,,,1.67500000e-009,-3.19999930e-003
,,,1.70000000e-009,-3.10312429e-003
,,,1.72500000e-009,-3.02656178e-003
,,,1.75000000e-009,-2.96874928e-003
,,,1.77500000e-009,-2.92499928e-003
,,,1.80000000e-009,-2.89218677e-003
,,,1.82500000e-009,-2.86406177e-003
,,,1.85000000e-009,-2.83437427e-003
,,,1.87500000e-009,-2.79999927e-003
,,,1.90000000e-009,-2.76874926e-003
,,,1.92500000e-009,-2.72343676e-003
,,,1.95000000e-009,-2.66874926e-003
,,,1.97500000e-009,-2.60781175e-003
,,,2.00000000e-009,-2.54531175e-003
,,,2.02500000e-009,-2.48593674e-003
,,,2.05000000e-009,-2.43749924e-003
,,,2.07500000e-009,-2.39999924e-003
,,,2.10000000e-009,-2.38437424e-003
,,,2.12500000e-009,-2.37968674e-003
,,,2.15000000e-009,-2.38281174e-003
,,,2.17500000e-009,-2.39218674e-003
,,,2.20000000e-009,-2.40312424e-003
,,,2.22500000e-009,-2.41093674e-003
,,,2.25000000e-009,-2.41093674e-003
,,,2.27500000e-009,-2.39999924e-003
,,,2.30000000e-009,-2.38124924e-003
,,,2.32500000e-009,-2.34531173e-003
,,,2.35000000e-009,-2.29687423e-003
,,,2.37500000e-009,-2.23906173e-003
,,,2.40000000e-009,-2.17499922e-003
,,,2.42500000e-009,-2.11093672e-003
,,,2.45000000e-009,-2.05156171e-003
,,,2.47500000e-009,-1.99999921e-003
,,,2.50000000e-009,-1.96718671e-003
,,,2.52500000e-009,-1.94374921e-003
,,,2.55000000e-009,-1.93124921e-003
,,,2.57500000e-009,-1.92968671e-003
,,,2.60000000e-009,-1.93749921e-003
,,,2.62500000e-009,-1.95312421e-003
,,,2.65000000e-009,-1.97499921e-003
,,,2.67500000e-009,-1.99999921e-003
,,,2.70000000e-009,-2.02499921e-003
,,,2.72500000e-009,-2.04531171e-003
,,,2.75000000e-009,-2.05781171e-003
,,,2.77500000e-009,-2.06406171e-003
,,,2.80000000e-009,-2.06093671e-003
,,,2.82500000e-009,-2.04843671e-003
,,,2.85000000e-009,-2.02812421e-003
,,,2.87500000e-009,-1.99999921e-003
,,,2.90000000e-009,-1.96406171e-003
,,,2.92500000e-009,-1.91874920e-003
,,,2.95000000e-009,-1.86874920e-003
,,,2.97500000e-009,-1.81562420e-003
,,,3.00000000e-009,-1.76093669e-003
,,,3.02500000e-009,-1.70624919e-003
,,,3.05000000e-009,-1.65156169e-003
,,,3.07500000e-009,-1.59999918e-003
,,,3.10000000e-009,-1.55156168e-003
,,,3.12500000e-009,-1.50312418e-003
,,,3.15000000e-009,-1.45468667e-003
,,,3.17500000e-009,-1.40781167e-003
,,,3.20000000e-009,-1.35937416e-003
,,,3.22500000e-009,-1.30781166e-003
,,,3.25000000e-009,-1.25624916e-003
,,,3.27500000e-009,-1.19999915e-003
,,,3.30000000e-009,-1.14687415e-003
,,,3.32500000e-009,-1.09062415e-003
,,,3.35000000e-009,-1.03281164e-003
,,,3.37500000e-009,-9.76561638e-004
,,,3.40000000e-009,-9.23436634e-004
,,,3.42500000e-009,-8.74999131e-004
,,,3.45000000e-009,-8.34374128e-004
,,,3.47500000e-009,-7.99999125e-004
,,,3.50000000e-009,-7.81249124e-004
,,,3.52500000e-009,-7.70311623e-004
,,,3.55000000e-009,-7.67186623e-004
,,,3.57500000e-009,-7.68749123e-004
,,,3.60000000e-009,-7.74999124e-004
,,,3.62500000e-009,-7.82811624e-004
,,,3.65000000e-009,-7.92186625e-004
,,,3.67500000e-009,-7.99999125e-004
,,,3.70000000e-009,-8.12499126e-004
,,,3.72500000e-009,-8.20311627e-004
,,,3.75000000e-009,-8.23436627e-004
,,,3.77500000e-009,-8.23436627e-004
,,,3.80000000e-009,-8.18749127e-004
,,,3.82500000e-009,-8.14061626e-004
,,,3.85000000e-009,-8.07811626e-004
,,,3.87500000e-009,-7.99999125e-004
,,,3.90000000e-009,-7.99999125e-004
,,,3.92500000e-009,-7.99999125e-004
,,,3.95000000e-009,-7.98436625e-004
,,,3.97500000e-009,-7.98436625e-004
,,,4.00000000e-009,-7.99999125e-004
,,,4.02500000e-009,-7.99999125e-004
,,,4.05000000e-009,-7.99999125e-004
,,,4.07500000e-009,-7.99999125e-004
,,,4.10000000e-009,-8.03124126e-004
,,,4.12500000e-009,-8.03124126e-004
,,,4.15000000e-009,-8.01561625e-004
,,,4.17500000e-009,-7.99999125e-004
,,,4.20000000e-009,-7.99999125e-004
,,,4.22500000e-009,-7.98436625e-004
,,,4.25000000e-009,-7.98436625e-004
,,,4.27500000e-009,-7.99999125e-004
,,,4.30000000e-009,-8.04686626e-004
,,,4.32500000e-009,-8.09374126e-004
,,,4.35000000e-009,-8.14061626e-004
,,,4.37500000e-009,-8.15624126e-004
,,,4.40000000e-009,-8.15624126e-004
,,,4.42500000e-009,-8.14061626e-004
,,,4.45000000e-009,-8.09374126e-004
,,,4.47500000e-009,-7.99999125e-004
,,,4.50000000e-009,-7.87499124e-004
,,,4.52500000e-009,-7.73436623e-004
,,,4.55000000e-009,-7.62499123e-004
,,,4.57500000e-009,-7.54686622e-004
,,,4.60000000e-009,-7.53124122e-004
,,,4.62500000e-009,-7.60936623e-004
,,,4.65000000e-009,-7.76561624e-004
,,,4.67500000e-009,-7.99999125e-004
,,,4.70000000e-009,-8.28124127e-004
,,,4.72500000e-009,-8.56249129e-004
,,,4.75000000e-009,-8.79686631e-004
,,,4.77500000e-009,-8.96874132e-004
,,,4.80000000e-009,-8.98436632e-004
,,,4.82500000e-009,-8.85936631e-004
,,,4.85000000e-009,-8.53124129e-004
,,,4.87500000e-009,-7.99999125e-004
,,,4.90000000e-009,-7.31249120e-004
,,,4.92500000e-009,-6.53124115e-004
,,,4.95000000e-009,-5.71874109e-004
,,,4.97500000e-009,-4.96874104e-004
,,,5.00000000e-009,-4.35936600e-004
,,,5.02500000e-009,-3.96874097e-004
,,,5.05000000e-009,-3.84374096e-004
,,,5.07500000e-009,-3.99999097e-004
,,,5.10000000e-009,-4.48436600e-004
,,,5.12500000e-009,-5.17186605e-004
,,,5.15000000e-009,-5.98436611e-004
,,,5.17500000e-009,-6.79686617e-004
,,,5.20000000e-009,-7.49999122e-004
,,,5.22500000e-009,-7.99999125e-004
,,,5.25000000e-009,-8.18749127e-004
,,,5.27500000e-009,-7.99999125e-004
,,,5.30000000e-009,-7.43749121e-004
,,,5.32500000e-009,-6.54686615e-004
,,,5.35000000e-009,-5.39061607e-004
,,,5.37500000e-009,-4.09374098e-004
,,,5.40000000e-009,-2.79686588e-004
,,,5.42500000e-009,-1.60936580e-004
,,,5.45000000e-009,-6.40615732e-005
,,,5.47500000e-009,9.31322575e-010
,,,5.50000000e-009,2.34384330e-005
,,,5.52500000e-009,1.09384321e-005
,,,5.55000000e-009,-3.12490709e-005
,,,5.57500000e-009,-9.84365756e-005
,,,5.60000000e-009,-1.78124081e-004
,,,5.62500000e-009,-2.62499087e-004
,,,5.65000000e-009,-3.39061593e-004
,,,5.67500000e-009,-3.99999097e-004
,,,5.70000000e-009,-4.45311600e-004
,,,5.72500000e-009,-4.65624102e-004
,,,5.75000000e-009,-4.68749102e-004
,,,5.77500000e-009,-4.54686601e-004
,,,5.80000000e-009,-4.34374099e-004
,,,5.82500000e-009,-4.14061598e-004
,,,5.85000000e-009,-3.99999097e-004
,,,5.87500000e-009,-3.99999097e-004
,,,5.90000000e-009,-4.18749098e-004
