RawData/DifferentLengths/R4/R4_50_5mV/wave006_Ch2.csv

"Record Length",1000,"Points",-7.72500000e-009,4.29688462e-004
"Sample Interval",2.50000000e-011,s,-7.70000000e-009,4.14063461e-004
"Trigger Point",309,"Samples",-7.67500000e-009,3.96875959e-004
"Trigger Time",1.99350327e-011,s,-7.65000000e-009,3.85938459e-004
"",,,-7.62500000e-009,3.84375959e-004
"Horizontal Offset",-7.72500000e-009,s,-7.60000000e-009,4.00000960e-004
,,,-7.57500000e-009,4.31250962e-004
,,,-7.55000000e-009,4.79688465e-004
,,,-7.52500000e-009,5.40625970e-004
,,,-7.50000000e-009,6.07813474e-004
,,,-7.47500000e-009,6.73438479e-004
,,,-7.45000000e-009,7.32813483e-004
,,,-7.42500000e-009,7.75000986e-004
,,,-7.40000000e-009,8.00000988e-004
,,,-7.37500000e-009,7.95313488e-004
,,,-7.35000000e-009,7.68750986e-004
,,,-7.32500000e-009,7.21875982e-004
,,,-7.30000000e-009,6.62500978e-004
,,,-7.27500000e-009,5.93750973e-004
,,,-7.25000000e-009,5.23438468e-004
,,,-7.22500000e-009,4.56250964e-004
,,,-7.20000000e-009,4.00000960e-004
,,,-7.17500000e-009,3.54688456e-004
,,,-7.15000000e-009,3.25000954e-004
,,,-7.12500000e-009,3.12500953e-004
,,,-7.10000000e-009,3.14063454e-004
,,,-7.07500000e-009,3.26563454e-004
,,,-7.05000000e-009,3.48438456e-004
,,,-7.02500000e-009,3.73438458e-004
,,,-7.00000000e-009,4.00000960e-004
,,,-6.97500000e-009,4.18750961e-004
,,,-6.95000000e-009,4.32813462e-004
,,,-6.92500000e-009,4.39063462e-004
,,,-6.90000000e-009,4.40625963e-004
,,,-6.87500000e-009,4.35938462e-004
,,,-6.85000000e-009,4.25000961e-004
,,,-6.82500000e-009,4.12500961e-004
,,,-6.80000000e-009,4.00000960e-004
,,,-6.77500000e-009,3.85938459e-004
,,,-6.75000000e-009,3.76563458e-004
,,,-6.72500000e-009,3.68750957e-004
,,,-6.70000000e-009,3.67188457e-004
,,,-6.67500000e-009,3.68750957e-004
,,,-6.65000000e-009,3.75000958e-004
,,,-6.62500000e-009,3.85938459e-004
,,,-6.60000000e-009,4.00000960e-004
,,,-6.57500000e-009,4.14063461e-004
,,,-6.55000000e-009,4.26563462e-004
,,,-6.52500000e-009,4.39063462e-004
,,,-6.50000000e-009,4.45313463e-004
,,,-6.47500000e-009,4.45313463e-004
,,,-6.45000000e-009,4.39063462e-004
,,,-6.42500000e-009,4.23438461e-004
,,,-6.40000000e-009,4.00000960e-004
,,,-6.37500000e-009,3.67188457e-004
,,,-6.35000000e-009,3.26563454e-004
,,,-6.32500000e-009,2.78125951e-004
,,,-6.30000000e-009,2.23438447e-004
,,,-6.27500000e-009,1.65625943e-004
,,,-6.25000000e-009,1.07813439e-004
,,,-6.22500000e-009,5.15634350e-005
,,,-6.20000000e-009,9.31322575e-010
,,,-6.17500000e-009,-4.37490718e-005
,,,-6.15000000e-009,-7.49990740e-005
,,,-6.12500000e-009,-9.53115754e-005
,,,-6.10000000e-009,-1.03124076e-004
,,,-6.07500000e-009,-9.68740755e-005
,,,-6.05000000e-009,-7.65615741e-005
,,,-6.02500000e-009,-4.53115719e-005
,,,-6.00000000e-009,9.31322575e-010
,,,-5.97500000e-009,5.46884352e-005
,,,-5.95000000e-009,1.15625940e-004
,,,-5.92500000e-009,1.78125944e-004
,,,-5.90000000e-009,2.39063448e-004
,,,-5.87500000e-009,2.92188452e-004
,,,-5.85000000e-009,3.39063455e-004
,,,-5.82500000e-009,3.75000958e-004
,,,-5.80000000e-009,4.00000960e-004
,,,-5.77500000e-009,4.10938460e-004
,,,-5.75000000e-009,4.12500961e-004
,,,-5.72500000e-009,4.07813460e-004
,,,-5.70000000e-009,3.98438460e-004
,,,-5.67500000e-009,3.90625959e-004
,,,-5.65000000e-009,3.87500959e-004
,,,-5.62500000e-009,3.89063459e-004
,,,-5.60000000e-009,4.00000960e-004
,,,-5.57500000e-009,4.12500961e-004
,,,-5.55000000e-009,4.31250962e-004
,,,-5.52500000e-009,4.48438463e-004
,,,-5.50000000e-009,4.62500964e-004
,,,-5.47500000e-009,4.67188464e-004
,,,-5.45000000e-009,4.60938464e-004
,,,-5.42500000e-009,4.37500962e-004
,,,-5.40000000e-009,4.00000960e-004
,,,-5.37500000e-009,3.42188456e-004
,,,-5.35000000e-009,2.73438451e-004
,,,-5.32500000e-009,2.00000945e-004
,,,-5.30000000e-009,1.29688441e-004
,,,-5.27500000e-009,6.71884361e-005
,,,-5.25000000e-009,2.18759329e-005
,,,-5.22500000e-009,-1.56156879e-006
,,,-5.20000000e-009,9.31322575e-010
,,,-5.17500000e-009,2.50009331e-005
,,,-5.15000000e-009,7.34384365e-005
,,,-5.12500000e-009,1.37500941e-004
,,,-5.10000000e-009,2.07813446e-004
,,,-5.07500000e-009,2.78125951e-004
,,,-5.05000000e-009,3.37500955e-004
,,,-5.02500000e-009,3.79688458e-004
,,,-5.00000000e-009,4.00000960e-004
,,,-4.97500000e-009,3.90625959e-004
,,,-4.95000000e-009,3.56250957e-004
,,,-4.92500000e-009,3.04688453e-004
,,,-4.90000000e-009,2.39063448e-004
,,,-4.87500000e-009,1.67188443e-004
,,,-4.85000000e-009,1.00000938e-004
,,,-4.82500000e-009,4.21884343e-005
,,,-4.80000000e-009,9.31322575e-010
,,,-4.77500000e-009,-2.49990704e-005
,,,-4.75000000e-009,-3.12490709e-005
,,,-4.72500000e-009,-2.34365703e-005
,,,-4.70000000e-009,-9.37406934e-006
,,,-4.67500000e-009,6.25093176e-006
,,,-4.65000000e-009,1.71884325e-005
,,,-4.62500000e-009,1.56259324e-005
,,,-4.60000000e-009,9.31322575e-010
,,,-4.57500000e-009,-3.28115710e-005
,,,-4.55000000e-009,-8.12490744e-005
,,,-4.52500000e-009,-1.42186579e-004
,,,-4.50000000e-009,-2.09374083e-004
,,,-4.47500000e-009,-2.74999088e-004
,,,-4.45000000e-009,-3.34374092e-004
,,,-4.42500000e-009,-3.76561595e-004
,,,-4.40000000e-009,-3.99999097e-004
,,,-4.37500000e-009,-3.96874097e-004
,,,-4.35000000e-009,-3.70311595e-004
,,,-4.32500000e-009,-3.23436592e-004
,,,-4.30000000e-009,-2.64061587e-004
,,,-4.27500000e-009,-1.95311583e-004
,,,-4.25000000e-009,-1.24999078e-004
,,,-4.22500000e-009,-5.78115728e-005
,,,-4.20000000e-009,9.31322575e-010
,,,-4.17500000e-009,4.21884343e-005
,,,-4.15000000e-009,6.87509362e-005
,,,-4.12500000e-009,7.96884370e-005
,,,-4.10000000e-009,7.81259369e-005
,,,-4.07500000e-009,6.40634359e-005
,,,-4.05000000e-009,4.37509344e-005
,,,-4.02500000e-009,2.18759329e-005
,,,-4.00000000e-009,9.31322575e-010
,,,-3.97500000e-009,-1.56240698e-005
,,,-3.95000000e-009,-2.49990704e-005
,,,-3.92500000e-009,-2.81240707e-005
,,,-3.90000000e-009,-2.65615706e-005
,,,-3.87500000e-009,-2.18740702e-005
,,,-3.85000000e-009,-1.40615697e-005
,,,-3.82500000e-009,-6.24906912e-006
,,,-3.80000000e-009,9.31322575e-010
,,,-3.77500000e-009,3.12593154e-006
,,,-3.75000000e-009,3.12593154e-006
,,,-3.72500000e-009,1.56343143e-006
,,,-3.70000000e-009,9.31322575e-010
,,,-3.67500000e-009,-3.12406890e-006
,,,-3.65000000e-009,-4.68656901e-006
,,,-3.62500000e-009,-4.68656901e-006
,,,-3.60000000e-009,9.31322575e-010
,,,-3.57500000e-009,6.25093176e-006
,,,-3.55000000e-009,1.56259324e-005
,,,-3.52500000e-009,2.50009331e-005
,,,-3.50000000e-009,3.12509335e-005
,,,-3.47500000e-009,3.43759338e-005
,,,-3.45000000e-009,2.96884334e-005
,,,-3.42500000e-009,1.71884325e-005
,,,-3.40000000e-009,9.31322575e-010
,,,-3.37500000e-009,-2.34365703e-005
,,,-3.35000000e-009,-4.68740720e-005
,,,-3.32500000e-009,-6.71865734e-005
,,,-3.30000000e-009,-8.12490744e-005
,,,-3.27500000e-009,-8.43740746e-005
,,,-3.25000000e-009,-7.18740738e-005
,,,-3.22500000e-009,-4.37490718e-005
,,,-3.20000000e-009,9.31322575e-010
,,,-3.17500000e-009,5.93759355e-005
,,,-3.15000000e-009,1.28125940e-004
,,,-3.12500000e-009,2.01563446e-004
,,,-3.10000000e-009,2.70313450e-004
,,,-3.07500000e-009,3.31250955e-004
,,,-3.05000000e-009,3.76563458e-004
,,,-3.02500000e-009,4.00000960e-004
,,,-3.00000000e-009,4.00000960e-004
,,,-2.97500000e-009,3.73438458e-004
,,,-2.95000000e-009,3.28125955e-004
,,,-2.92500000e-009,2.67188450e-004
,,,-2.90000000e-009,2.00000945e-004
,,,-2.87500000e-009,1.31250941e-004
,,,-2.85000000e-009,7.03134363e-005
,,,-2.82500000e-009,2.50009331e-005
,,,-2.80000000e-009,9.31322575e-010
,,,-2.77500000e-009,-1.56156879e-006
,,,-2.75000000e-009,2.18759329e-005
,,,-2.72500000e-009,6.71884361e-005
,,,-2.70000000e-009,1.28125940e-004
,,,-2.67500000e-009,1.96875945e-004
,,,-2.65000000e-009,2.70313450e-004
,,,-2.62500000e-009,3.39063455e-004
,,,-2.60000000e-009,4.00000960e-004
,,,-2.57500000e-009,4.40625963e-004
,,,-2.55000000e-009,4.67188464e-004
,,,-2.52500000e-009,4.76563465e-004
,,,-2.50000000e-009,4.73438465e-004
,,,-2.47500000e-009,4.59375964e-004
,,,-2.45000000e-009,4.39063462e-004
,,,-2.42500000e-009,4.18750961e-004
,,,-2.40000000e-009,4.00000960e-004
,,,-2.37500000e-009,3.81250958e-004
,,,-2.35000000e-009,3.70313458e-004
,,,-2.32500000e-009,3.65625957e-004
,,,-2.30000000e-009,3.68750957e-004
,,,-2.27500000e-009,3.75000958e-004
,,,-2.25000000e-009,3.82813458e-004
,,,-2.22500000e-009,3.92188459e-004
,,,-2.20000000e-009,4.00000960e-004
,,,-2.17500000e-009,4.01563460e-004
,,,-2.15000000e-009,4.01563460e-004
,,,-2.12500000e-009,4.00000960e-004
,,,-2.10000000e-009,3.96875959e-004
,,,-2.07500000e-009,3.95313459e-004
,,,-2.05000000e-009,3.93750959e-004
,,,-2.02500000e-009,3.95313459e-004
,,,-2.00000000e-009,4.00000960e-004
,,,-1.97500000e-009,4.04688460e-004
,,,-1.95000000e-009,4.10938460e-004
,,,-1.92500000e-009,4.18750961e-004
,,,-1.90000000e-009,4.25000961e-004
,,,-1.87500000e-009,4.28125962e-004
,,,-1.85000000e-009,4.25000961e-004
,,,-1.82500000e-009,4.17188461e-004
,,,-1.80000000e-009,4.00000960e-004
,,,-1.77500000e-009,3.68750957e-004
,,,-1.75000000e-009,3.31250955e-004
,,,-1.72500000e-009,2.84375951e-004
,,,-1.70000000e-009,2.31250948e-004
,,,-1.67500000e-009,1.75000944e-004
,,,-1.65000000e-009,1.14063439e-004
,,,-1.62500000e-009,5.46884352e-005
,,,-1.60000000e-009,9.31322575e-010
,,,-1.57500000e-009,-5.15615723e-005
,,,-1.55000000e-009,-9.37490753e-005
,,,-1.52500000e-009,-1.21874077e-004
,,,-1.50000000e-009,-1.34374078e-004
,,,-1.47500000e-009,-1.28124078e-004
,,,-1.45000000e-009,-1.03124076e-004
,,,-1.42500000e-009,-6.09365730e-005
,,,-1.40000000e-009,9.31322575e-010
,,,-1.37500000e-009,6.09384356e-005
,,,-1.35000000e-009,1.29688441e-004
,,,-1.32500000e-009,1.96875945e-004
,,,-1.30000000e-009,2.60938450e-004
,,,-1.27500000e-009,3.17188454e-004
,,,-1.25000000e-009,3.59375957e-004
,,,-1.22500000e-009,3.87500959e-004
,,,-1.20000000e-009,4.00000960e-004
,,,-1.17500000e-009,3.73438458e-004
,,,-1.15000000e-009,3.28125955e-004
,,,-1.12500000e-009,2.70313450e-004
,,,-1.10000000e-009,2.04688446e-004
,,,-1.07500000e-009,1.37500941e-004
,,,-1.05000000e-009,7.81259369e-005
,,,-1.02500000e-009,3.12509335e-005
,,,-1.00000000e-009,9.31322575e-010
,,,-9.75000000e-010,-3.74990713e-005
,,,-9.50000000e-010,-6.09365730e-005
,,,-9.25000000e-010,-7.18740738e-005
,,,-9.00000000e-010,-6.87490735e-005
,,,-8.75000000e-010,-5.46865725e-005
,,,-8.50000000e-010,-3.59365712e-005
,,,-8.25000000e-010,-1.56240698e-005
,,,-8.00000000e-010,9.31322575e-010
,,,-7.75000000e-010,-2.81240707e-005
,,,-7.50000000e-010,-7.65615741e-005
,,,-7.25000000e-010,-1.48436579e-004
,,,-7.00000000e-010,-2.42186586e-004
,,,-6.75000000e-010,-3.57811594e-004
,,,-6.50000000e-010,-4.90624103e-004
,,,-6.25000000e-010,-6.39061614e-004
,,,-6.00000000e-010,-7.99999125e-004
,,,-5.75000000e-010,-9.99999139e-004
,,,-5.50000000e-010,-1.20937415e-003
,,,-5.25000000e-010,-1.42343667e-003
,,,-5.00000000e-010,-1.63749918e-003
,,,-4.75000000e-010,-1.84531170e-003
,,,-4.50000000e-010,-2.04374921e-003
,,,-4.25000000e-010,-2.22968673e-003
,,,-4.00000000e-010,-2.39999924e-003
,,,-3.75000000e-010,-2.57343675e-003
,,,-3.50000000e-010,-2.73593676e-003
,,,-3.25000000e-010,-2.89218677e-003
,,,-3.00000000e-010,-3.04062428e-003
,,,-2.75000000e-010,-3.18281179e-003
,,,-2.50000000e-010,-3.32187430e-003
,,,-2.25000000e-010,-3.46093681e-003
,,,-2.00000000e-010,-3.59999932e-003
,,,-1.75000000e-010,-3.74999933e-003
,,,-1.50000000e-010,-3.91249935e-003
,,,-1.25000000e-010,-4.09374936e-003
,,,-1.00000000e-010,-4.28906187e-003
,,,-7.50000000e-011,-4.50156189e-003
,,,-5.00000000e-011,-4.72499940e-003
,,,-2.50000000e-011,-4.96093692e-003
,,,0.00000000e+000,-5.19999944e-003
,,,2.50000000e-011,-5.43124945e-003
,,,5.00000000e-011,-5.66249947e-003
,,,7.50000000e-011,-5.89062449e-003
,,,1.00000000e-010,-6.10937450e-003
,,,1.25000000e-010,-6.31406202e-003
,,,1.50000000e-010,-6.49999953e-003
,,,1.75000000e-010,-6.66406204e-003
,,,2.00000000e-010,-6.79999955e-003
,,,2.25000000e-010,-6.88437456e-003
,,,2.50000000e-010,-6.95156206e-003
,,,2.75000000e-010,-7.00468706e-003
,,,3.00000000e-010,-7.04843707e-003
,,,3.25000000e-010,-7.08593707e-003
,,,3.50000000e-010,-7.12343707e-003
,,,3.75000000e-010,-7.16093708e-003
,,,4.00000000e-010,-7.19999958e-003
,,,4.25000000e-010,-7.21249958e-003
,,,4.50000000e-010,-7.23593708e-003
,,,4.75000000e-010,-7.27187458e-003
,,,5.00000000e-010,-7.32343709e-003
,,,5.25000000e-010,-7.38593709e-003
,,,5.50000000e-010,-7.45468710e-003
,,,5.75000000e-010,-7.52812460e-003
,,,6.00000000e-010,-7.59999961e-003
,,,6.25000000e-010,-7.63124961e-003
,,,6.50000000e-010,-7.65312461e-003
,,,6.75000000e-010,-7.66874961e-003
,,,7.00000000e-010,-7.67499961e-003
,,,7.25000000e-010,-7.67187461e-003
,,,7.50000000e-010,-7.65781211e-003
,,,7.75000000e-010,-7.63437461e-003
,,,8.00000000e-010,-7.59999961e-003
,,,8.25000000e-010,-7.52499960e-003
,,,8.50000000e-010,-7.44843710e-003
,,,8.75000000e-010,-7.37656209e-003
,,,9.00000000e-010,-7.31249959e-003
,,,9.25000000e-010,-7.26249958e-003
,,,9.50000000e-010,-7.22656208e-003
,,,9.75000000e-010,-7.20624958e-003
,,,1.00000000e-009,-7.19999958e-003
,,,1.02500000e-009,-7.17656208e-003
,,,1.05000000e-009,-7.15781208e-003
,,,1.07500000e-009,-7.13593707e-003
,,,1.10000000e-009,-7.10781207e-003
,,,1.12500000e-009,-7.06562457e-003
,,,1.15000000e-009,-7.00312456e-003
,,,1.17500000e-009,-6.91562456e-003
,,,1.20000000e-009,-6.79999955e-003
,,,1.22500000e-009,-6.63906204e-003
,,,1.25000000e-009,-6.44999953e-003
,,,1.27500000e-009,-6.24062451e-003
,,,1.30000000e-009,-6.01874949e-003
,,,1.32500000e-009,-5.79687448e-003
,,,1.35000000e-009,-5.58124946e-003
,,,1.37500000e-009,-5.37968695e-003
,,,1.40000000e-009,-5.19999944e-003
,,,1.42500000e-009,-5.04062443e-003
,,,1.45000000e-009,-4.90312442e-003
,,,1.47500000e-009,-4.78749941e-003
,,,1.50000000e-009,-4.69218690e-003
,,,1.52500000e-009,-4.60937439e-003
,,,1.55000000e-009,-4.53749939e-003
,,,1.57500000e-009,-4.47031189e-003
,,,1.60000000e-009,-4.39999938e-003
,,,1.62500000e-009,-4.32812438e-003
,,,1.65000000e-009,-4.24374937e-003
,,,1.67500000e-009,-4.14687436e-003
,,,1.70000000e-009,-4.04062435e-003
,,,1.72500000e-009,-3.92812435e-003
,,,1.75000000e-009,-3.81406184e-003
,,,1.77500000e-009,-3.70312433e-003
,,,1.80000000e-009,-3.59999932e-003
,,,1.82500000e-009,-3.51562432e-003
,,,1.85000000e-009,-3.44062431e-003
,,,1.87500000e-009,-3.37343681e-003
,,,1.90000000e-009,-3.31874930e-003
,,,1.92500000e-009,-3.27499930e-003
,,,1.95000000e-009,-3.24218680e-003
,,,1.97500000e-009,-3.21874930e-003
,,,2.00000000e-009,-3.19999930e-003
,,,2.02500000e-009,-3.19531179e-003
,,,2.05000000e-009,-3.18437429e-003
,,,2.07500000e-009,-3.16093679e-003
,,,2.10000000e-009,-3.12187429e-003
,,,2.12500000e-009,-3.06718679e-003
,,,2.15000000e-009,-2.99531178e-003
,,,2.17500000e-009,-2.90468677e-003
,,,2.20000000e-009,-2.79999927e-003
,,,2.22500000e-009,-2.69687426e-003
,,,2.25000000e-009,-2.58124925e-003
,,,2.27500000e-009,-2.46093674e-003
,,,2.30000000e-009,-2.34062423e-003
,,,2.32500000e-009,-2.22968673e-003
,,,2.35000000e-009,-2.13281172e-003
,,,2.37500000e-009,-2.05468671e-003
,,,2.40000000e-009,-1.99999921e-003
,,,2.42500000e-009,-1.98281171e-003
,,,2.45000000e-009,-1.98124921e-003
,,,2.47500000e-009,-1.99062421e-003
,,,2.50000000e-009,-2.00624921e-003
,,,2.52500000e-009,-2.02031171e-003
,,,2.55000000e-009,-2.02812421e-003
,,,2.57500000e-009,-2.02187421e-003
,,,2.60000000e-009,-1.99999921e-003
,,,2.62500000e-009,-1.97187421e-003
,,,2.65000000e-009,-1.92656171e-003
,,,2.67500000e-009,-1.86718670e-003
,,,2.70000000e-009,-1.79999920e-003
,,,2.72500000e-009,-1.73124919e-003
,,,2.75000000e-009,-1.67187419e-003
,,,2.77500000e-009,-1.62656168e-003
,,,2.80000000e-009,-1.59999918e-003
,,,2.82500000e-009,-1.60624918e-003
,,,2.85000000e-009,-1.63281168e-003
,,,2.87500000e-009,-1.67656169e-003
,,,2.90000000e-009,-1.73593669e-003
,,,2.92500000e-009,-1.80312420e-003
,,,2.95000000e-009,-1.87343670e-003
,,,2.97500000e-009,-1.94218671e-003
,,,3.00000000e-009,-1.99999921e-003
,,,3.02500000e-009,-2.04687421e-003
,,,3.05000000e-009,-2.07343672e-003
,,,3.07500000e-009,-2.08437422e-003
,,,3.10000000e-009,-2.08124922e-003
,,,3.12500000e-009,-2.06562421e-003
,,,3.15000000e-009,-2.04531171e-003
,,,3.17500000e-009,-2.02187421e-003
,,,3.20000000e-009,-1.99999921e-003
,,,3.22500000e-009,-1.98437421e-003
,,,3.25000000e-009,-1.97343671e-003
,,,3.27500000e-009,-1.96718671e-003
,,,3.30000000e-009,-1.96718671e-003
,,,3.32500000e-009,-1.97343671e-003
,,,3.35000000e-009,-1.98124921e-003
,,,3.37500000e-009,-1.99062421e-003
,,,3.40000000e-009,-1.99999921e-003
,,,3.42500000e-009,-2.00312421e-003
,,,3.45000000e-009,-2.00312421e-003
,,,3.47500000e-009,-2.00312421e-003
,,,3.50000000e-009,-1.99999921e-003
,,,3.52500000e-009,-1.99843671e-003
,,,3.55000000e-009,-1.99843671e-003
,,,3.57500000e-009,-1.99999921e-003
,,,3.60000000e-009,-1.99999921e-003
,,,3.62500000e-009,-1.99374921e-003
,,,3.65000000e-009,-1.98124921e-003
,,,3.67500000e-009,-1.95781171e-003
,,,3.70000000e-009,-1.92187420e-003
,,,3.72500000e-009,-1.87031170e-003
,,,3.75000000e-009,-1.79843670e-003
,,,3.77500000e-009,-1.70937419e-003
,,,3.80000000e-009,-1.59999918e-003
,,,3.82500000e-009,-1.47499917e-003
,,,3.85000000e-009,-1.34062416e-003
,,,3.87500000e-009,-1.20781165e-003
,,,3.90000000e-009,-1.08124915e-003
,,,3.92500000e-009,-9.71874137e-004
,,,3.95000000e-009,-8.84374131e-004
,,,3.97500000e-009,-8.26561627e-004
,,,4.00000000e-009,-7.99999125e-004
,,,4.02500000e-009,-8.09374126e-004
,,,4.05000000e-009,-8.45311629e-004
,,,4.07500000e-009,-9.01561632e-004
,,,4.10000000e-009,-9.70311637e-004
,,,4.12500000e-009,-1.04374914e-003
,,,4.15000000e-009,-1.11093665e-003
,,,4.17500000e-009,-1.16562415e-003
,,,4.20000000e-009,-1.19999915e-003
,,,4.22500000e-009,-1.21093665e-003
,,,4.25000000e-009,-1.19531165e-003
,,,4.27500000e-009,-1.15624915e-003
,,,4.30000000e-009,-1.09687415e-003
,,,4.32500000e-009,-1.02343664e-003
,,,4.35000000e-009,-9.45311636e-004
,,,4.37500000e-009,-8.68749130e-004
,,,4.40000000e-009,-7.99999125e-004
,,,4.42500000e-009,-7.49999122e-004
,,,4.45000000e-009,-7.14061619e-004
,,,4.47500000e-009,-6.96874118e-004
,,,4.50000000e-009,-6.95311618e-004
,,,4.52500000e-009,-7.07811619e-004
,,,4.55000000e-009,-7.32811621e-004
,,,4.57500000e-009,-7.65624123e-004
,,,4.60000000e-009,-7.99999125e-004
,,,4.62500000e-009,-8.35936628e-004
,,,4.65000000e-009,-8.64061630e-004
,,,4.67500000e-009,-8.81249131e-004
,,,4.70000000e-009,-8.87499131e-004
,,,4.72500000e-009,-8.82811631e-004
,,,4.75000000e-009,-8.65624130e-004
,,,4.77500000e-009,-8.37499128e-004
,,,4.80000000e-009,-7.99999125e-004
,,,4.82500000e-009,-7.59374122e-004
,,,4.85000000e-009,-7.12499119e-004
,,,4.87500000e-009,-6.60936615e-004
,,,4.90000000e-009,-6.07811612e-004
,,,4.92500000e-009,-5.53124108e-004
,,,4.95000000e-009,-4.98436604e-004
,,,4.97500000e-009,-4.46874100e-004
,,,5.00000000e-009,-3.99999097e-004
,,,5.02500000e-009,-3.64061594e-004
,,,5.05000000e-009,-3.35936592e-004
,,,5.07500000e-009,-3.17186591e-004
,,,5.10000000e-009,-3.12499091e-004
,,,5.12500000e-009,-3.18749091e-004
,,,5.15000000e-009,-3.35936592e-004
,,,5.17500000e-009,-3.65624095e-004
,,,5.20000000e-009,-3.99999097e-004
,,,5.22500000e-009,-4.45311600e-004
,,,5.25000000e-009,-4.85936603e-004
,,,5.27500000e-009,-5.17186605e-004
,,,5.30000000e-009,-5.35936607e-004
,,,5.32500000e-009,-5.35936607e-004
,,,5.35000000e-009,-5.12499105e-004
,,,5.37500000e-009,-4.67186602e-004
,,,5.40000000e-009,-3.99999097e-004
,,,5.42500000e-009,-3.17186591e-004
,,,5.45000000e-009,-2.24999085e-004
,,,5.47500000e-009,-1.32811578e-004
,,,5.50000000e-009,-4.99990722e-005
,,,5.52500000e-009,1.09384321e-005
,,,5.55000000e-009,4.37509344e-005
,,,5.57500000e-009,4.06259342e-005
,,,5.60000000e-009,9.31322575e-010
,,,5.62500000e-009,-8.12490744e-005
,,,5.65000000e-009,-1.89061582e-004
,,,5.67500000e-009,-3.15624091e-004
,,,5.70000000e-009,-4.48436600e-004
,,,5.72500000e-009,-5.74999109e-004
,,,5.75000000e-009,-6.81249117e-004
,,,5.77500000e-009,-7.59374122e-004
,,,5.80000000e-009,-7.99999125e-004
,,,5.82500000e-009,-8.01561625e-004
,,,5.85000000e-009,-7.65624123e-004
,,,5.87500000e-009,-7.03124118e-004
,,,5.90000000e-009,-6.24999113e-004
,,,5.92500000e-009,-5.43749107e-004
,,,5.95000000e-009,-4.71874102e-004
