RawData/SinglePhotoelectron/L1_2pt2A_5mV/wave017_Ch1.csv

"Record Length",1000,"Points",-7.72500000e-009,3.27188164e-004
"Sample Interval",2.50000000e-011,s,-7.70000000e-009,3.32344414e-004
"Trigger Point",309,"Samples",-7.67500000e-009,3.33281914e-004
"Trigger Time",1.40670219e-011,s,-7.65000000e-009,3.28594414e-004
"",,,-7.62500000e-009,3.17344414e-004
"Horizontal Offset",-7.72500000e-009,s,-7.60000000e-009,3.00000664e-004
,,,-7.57500000e-009,2.77500664e-004
,,,-7.55000000e-009,2.52188163e-004
,,,-7.52500000e-009,2.26875663e-004
,,,-7.50000000e-009,2.03438163e-004
,,,-7.47500000e-009,1.85156913e-004
,,,-7.45000000e-009,1.73906913e-004
,,,-7.42500000e-009,1.72031913e-004
,,,-7.40000000e-009,1.80000663e-004
,,,-7.37500000e-009,1.97813163e-004
,,,-7.35000000e-009,2.21719413e-004
,,,-7.32500000e-009,2.49375663e-004
,,,-7.30000000e-009,2.75625664e-004
,,,-7.27500000e-009,2.97188164e-004
,,,-7.25000000e-009,3.09844414e-004
,,,-7.22500000e-009,3.11250664e-004
,,,-7.20000000e-009,3.00000664e-004
,,,-7.17500000e-009,2.76094414e-004
,,,-7.15000000e-009,2.42344413e-004
,,,-7.12500000e-009,2.01563163e-004
,,,-7.10000000e-009,1.58438163e-004
,,,-7.07500000e-009,1.18125662e-004
,,,-7.05000000e-009,8.53131620e-005
,,,-7.02500000e-009,6.51569118e-005
,,,-7.00000000e-009,6.00006618e-005
,,,-6.97500000e-009,7.50006619e-005
,,,-6.95000000e-009,1.06406912e-004
,,,-6.92500000e-009,1.51406913e-004
,,,-6.90000000e-009,2.05313163e-004
,,,-6.87500000e-009,2.64375664e-004
,,,-6.85000000e-009,3.22500664e-004
,,,-6.82500000e-009,3.75938165e-004
,,,-6.80000000e-009,4.20000665e-004
,,,-6.77500000e-009,4.51875665e-004
,,,-6.75000000e-009,4.71094415e-004
,,,-6.72500000e-009,4.78125665e-004
,,,-6.70000000e-009,4.74375665e-004
,,,-6.67500000e-009,4.64063165e-004
,,,-6.65000000e-009,4.49063165e-004
,,,-6.62500000e-009,4.33594415e-004
,,,-6.60000000e-009,4.20000665e-004
,,,-6.57500000e-009,4.10625665e-004
,,,-6.55000000e-009,4.06406915e-004
,,,-6.52500000e-009,4.06406915e-004
,,,-6.50000000e-009,4.10156915e-004
,,,-6.47500000e-009,4.14844415e-004
,,,-6.45000000e-009,4.19063165e-004
,,,-6.42500000e-009,4.21406915e-004
,,,-6.40000000e-009,4.20000665e-004
,,,-6.37500000e-009,4.14375665e-004
,,,-6.35000000e-009,4.06406915e-004
,,,-6.32500000e-009,3.97969415e-004
,,,-6.30000000e-009,3.90938165e-004
,,,-6.27500000e-009,3.87656915e-004
,,,-6.25000000e-009,3.90469415e-004
,,,-6.22500000e-009,4.00781915e-004
,,,-6.20000000e-009,4.20000665e-004
,,,-6.17500000e-009,4.46250665e-004
,,,-6.15000000e-009,4.79531915e-004
,,,-6.12500000e-009,5.17031916e-004
,,,-6.10000000e-009,5.55938166e-004
,,,-6.07500000e-009,5.92031916e-004
,,,-6.05000000e-009,6.23438167e-004
,,,-6.02500000e-009,6.46406917e-004
,,,-6.00000000e-009,6.60000667e-004
,,,-5.97500000e-009,6.57656917e-004
,,,-5.95000000e-009,6.46406917e-004
,,,-5.92500000e-009,6.28125667e-004
,,,-5.90000000e-009,6.05156916e-004
,,,-5.87500000e-009,5.82188166e-004
,,,-5.85000000e-009,5.61563166e-004
,,,-5.82500000e-009,5.47031916e-004
,,,-5.80000000e-009,5.40000666e-004
,,,-5.77500000e-009,5.38594416e-004
,,,-5.75000000e-009,5.46094416e-004
,,,-5.72500000e-009,5.61094416e-004
,,,-5.70000000e-009,5.81250666e-004
,,,-5.67500000e-009,6.03750666e-004
,,,-5.65000000e-009,6.26250667e-004
,,,-5.62500000e-009,6.45938167e-004
,,,-5.60000000e-009,6.60000667e-004
,,,-5.57500000e-009,6.62344417e-004
,,,-5.55000000e-009,6.57188167e-004
,,,-5.52500000e-009,6.44531917e-004
,,,-5.50000000e-009,6.26719417e-004
,,,-5.47500000e-009,6.05156916e-004
,,,-5.45000000e-009,5.82188166e-004
,,,-5.42500000e-009,5.60156916e-004
,,,-5.40000000e-009,5.40000666e-004
,,,-5.37500000e-009,5.21250666e-004
,,,-5.35000000e-009,5.05781916e-004
,,,-5.32500000e-009,4.93125666e-004
,,,-5.30000000e-009,4.81875665e-004
,,,-5.27500000e-009,4.70156915e-004
,,,-5.25000000e-009,4.57031915e-004
,,,-5.22500000e-009,4.40625665e-004
,,,-5.20000000e-009,4.20000665e-004
,,,-5.17500000e-009,3.92813165e-004
,,,-5.15000000e-009,3.61406914e-004
,,,-5.12500000e-009,3.27656914e-004
,,,-5.10000000e-009,2.92500664e-004
,,,-5.07500000e-009,2.58750663e-004
,,,-5.05000000e-009,2.27813163e-004
,,,-5.02500000e-009,2.01094413e-004
,,,-5.00000000e-009,1.80000663e-004
,,,-4.97500000e-009,1.65469413e-004
,,,-4.95000000e-009,1.54688163e-004
,,,-4.92500000e-009,1.45781913e-004
,,,-4.90000000e-009,1.36875662e-004
,,,-4.87500000e-009,1.25156912e-004
,,,-4.85000000e-009,1.09219412e-004
,,,-4.82500000e-009,8.71881620e-005
,,,-4.80000000e-009,6.00006618e-005
,,,-4.77500000e-009,2.95319115e-005
,,,-4.75000000e-009,-2.81183879e-006
,,,-4.72500000e-009,-3.51555891e-005
,,,-4.70000000e-009,-6.28118393e-005
,,,-4.67500000e-009,-8.20305895e-005
,,,-4.65000000e-009,-8.95305895e-005
,,,-4.62500000e-009,-8.24993395e-005
,,,-4.60000000e-009,-5.99993393e-005
,,,-4.57500000e-009,-1.92180889e-005
,,,-4.55000000e-009,3.23444115e-005
,,,-4.52500000e-009,9.04694120e-005
,,,-4.50000000e-009,1.50000663e-004
,,,-4.47500000e-009,2.05313163e-004
,,,-4.45000000e-009,2.51719413e-004
,,,-4.42500000e-009,2.84063164e-004
,,,-4.40000000e-009,3.00000664e-004
,,,-4.37500000e-009,2.97656914e-004
,,,-4.35000000e-009,2.78906914e-004
,,,-4.32500000e-009,2.46563163e-004
,,,-4.30000000e-009,2.05313163e-004
,,,-4.27500000e-009,1.60781913e-004
,,,-4.25000000e-009,1.18594412e-004
,,,-4.22500000e-009,8.34381620e-005
,,,-4.20000000e-009,6.00006618e-005
,,,-4.17500000e-009,5.01569117e-005
,,,-4.15000000e-009,5.39069117e-005
,,,-4.12500000e-009,6.84381618e-005
,,,-4.10000000e-009,9.09381620e-005
,,,-4.07500000e-009,1.17656912e-004
,,,-4.05000000e-009,1.43906912e-004
,,,-4.02500000e-009,1.65469413e-004
,,,-4.00000000e-009,1.80000663e-004
,,,-3.97500000e-009,1.82344413e-004
,,,-3.95000000e-009,1.75313163e-004
,,,-3.92500000e-009,1.59375663e-004
,,,-3.90000000e-009,1.37344412e-004
,,,-3.87500000e-009,1.12500662e-004
,,,-3.85000000e-009,8.95319120e-005
,,,-3.82500000e-009,7.07819119e-005
,,,-3.80000000e-009,6.00006618e-005
,,,-3.77500000e-009,5.71881617e-005
,,,-3.75000000e-009,6.37506618e-005
,,,-3.72500000e-009,7.82819119e-005
,,,-3.70000000e-009,9.89069121e-005
,,,-3.67500000e-009,1.22344412e-004
,,,-3.65000000e-009,1.45313163e-004
,,,-3.62500000e-009,1.65469413e-004
,,,-3.60000000e-009,1.80000663e-004
,,,-3.57500000e-009,1.85156913e-004
,,,-3.55000000e-009,1.81875663e-004
,,,-3.52500000e-009,1.71563163e-004
,,,-3.50000000e-009,1.54688163e-004
,,,-3.47500000e-009,1.33125662e-004
,,,-3.45000000e-009,1.08750662e-004
,,,-3.42500000e-009,8.39069120e-005
,,,-3.40000000e-009,6.00006618e-005
,,,-3.37500000e-009,3.84381616e-005
,,,-3.35000000e-009,2.01569114e-005
,,,-3.32500000e-009,4.21941128e-006
,,,-3.30000000e-009,-9.37433884e-006
,,,-3.27500000e-009,-2.15618389e-005
,,,-3.25000000e-009,-3.37493391e-005
,,,-3.22500000e-009,-4.64055892e-005
,,,-3.20000000e-009,-5.99993393e-005
,,,-3.17500000e-009,-7.49993394e-005
,,,-3.15000000e-009,-9.18743396e-005
,,,-3.12500000e-009,-1.09218090e-004
,,,-3.10000000e-009,-1.27499340e-004
,,,-3.07500000e-009,-1.44374340e-004
,,,-3.05000000e-009,-1.59843090e-004
,,,-3.02500000e-009,-1.72030590e-004
,,,-3.00000000e-009,-1.79999340e-004
,,,-2.97500000e-009,-1.81405590e-004
,,,-2.95000000e-009,-1.77186840e-004
,,,-2.92500000e-009,-1.67811840e-004
,,,-2.90000000e-009,-1.53280590e-004
,,,-2.87500000e-009,-1.34530590e-004
,,,-2.85000000e-009,-1.12499340e-004
,,,-2.82500000e-009,-8.71868395e-005
,,,-2.80000000e-009,-5.99993393e-005
,,,-2.77500000e-009,-3.46868391e-005
,,,-2.75000000e-009,-1.03118389e-005
,,,-2.72500000e-009,1.07819113e-005
,,,-2.70000000e-009,2.90631615e-005
,,,-2.67500000e-009,4.31256616e-005
,,,-2.65000000e-009,5.34381617e-005
,,,-2.62500000e-009,5.85944117e-005
,,,-2.60000000e-009,6.00006618e-005
,,,-2.57500000e-009,5.48444117e-005
,,,-2.55000000e-009,4.54694116e-005
,,,-2.52500000e-009,3.23444115e-005
,,,-2.50000000e-009,1.59381614e-005
,,,-2.47500000e-009,-2.34308878e-006
,,,-2.45000000e-009,-2.20305890e-005
,,,-2.42500000e-009,-4.17180891e-005
,,,-2.40000000e-009,-5.99993393e-005
,,,-2.37500000e-009,-7.54680894e-005
,,,-2.35000000e-009,-8.71868395e-005
,,,-2.32500000e-009,-9.46868396e-005
,,,-2.30000000e-009,-9.74993396e-005
,,,-2.27500000e-009,-9.46868396e-005
,,,-2.25000000e-009,-8.71868395e-005
,,,-2.22500000e-009,-7.54680894e-005
,,,-2.20000000e-009,-5.99993393e-005
,,,-2.17500000e-009,-4.31243391e-005
,,,-2.15000000e-009,-2.67180890e-005
,,,-2.12500000e-009,-1.35930889e-005
,,,-2.10000000e-009,-5.62433881e-006
,,,-2.07500000e-009,-4.68683880e-006
,,,-2.05000000e-009,-1.31243389e-005
,,,-2.02500000e-009,-3.14055890e-005
,,,-2.00000000e-009,-5.99993393e-005
,,,-1.97500000e-009,-9.98430896e-005
,,,-1.95000000e-009,-1.46249340e-004
,,,-1.92500000e-009,-1.97811840e-004
,,,-1.90000000e-009,-2.51249341e-004
,,,-1.87500000e-009,-3.03280591e-004
,,,-1.85000000e-009,-3.50624342e-004
,,,-1.82500000e-009,-3.90468092e-004
,,,-1.80000000e-009,-4.19999342e-004
,,,-1.77500000e-009,-4.36874343e-004
,,,-1.75000000e-009,-4.41561843e-004
,,,-1.72500000e-009,-4.35468093e-004
,,,-1.70000000e-009,-4.19530592e-004
,,,-1.67500000e-009,-3.96093092e-004
,,,-1.65000000e-009,-3.67030592e-004
,,,-1.62500000e-009,-3.34218092e-004
,,,-1.60000000e-009,-2.99999341e-004
,,,-1.57500000e-009,-2.66718091e-004
,,,-1.55000000e-009,-2.34843091e-004
,,,-1.52500000e-009,-2.04843091e-004
,,,-1.50000000e-009,-1.76718090e-004
,,,-1.47500000e-009,-1.48593090e-004
,,,-1.45000000e-009,-1.20468090e-004
,,,-1.42500000e-009,-9.09368396e-005
,,,-1.40000000e-009,-5.99993393e-005
,,,-1.37500000e-009,-3.51555891e-005
,,,-1.35000000e-009,-1.12493389e-005
,,,-1.32500000e-009,1.12506613e-005
,,,-1.30000000e-009,3.04694115e-005
,,,-1.27500000e-009,4.59381616e-005
,,,-1.25000000e-009,5.67194117e-005
,,,-1.22500000e-009,6.14069118e-005
,,,-1.20000000e-009,6.00006618e-005
,,,-1.17500000e-009,3.56256615e-005
,,,-1.15000000e-009,3.75066127e-006
,,,-1.12500000e-009,-3.37493391e-005
,,,-1.10000000e-009,-7.21868394e-005
,,,-1.07500000e-009,-1.09218090e-004
,,,-1.05000000e-009,-1.40624340e-004
,,,-1.02500000e-009,-1.64999340e-004
,,,-1.00000000e-009,-1.79999340e-004
,,,-9.75000000e-010,-2.10936841e-004
,,,-9.50000000e-010,-2.37186841e-004
,,,-9.25000000e-010,-2.58280591e-004
,,,-9.00000000e-010,-2.74218091e-004
,,,-8.75000000e-010,-2.85468091e-004
,,,-8.50000000e-010,-2.92499341e-004
,,,-8.25000000e-010,-2.96718091e-004
,,,-8.00000000e-010,-2.99999341e-004
,,,-7.75000000e-010,-3.42655592e-004
,,,-7.50000000e-010,-3.92343092e-004
,,,-7.25000000e-010,-4.45780593e-004
,,,-7.00000000e-010,-4.99686843e-004
,,,-6.75000000e-010,-5.50311844e-004
,,,-6.50000000e-010,-5.94843094e-004
,,,-6.25000000e-010,-6.30936844e-004
,,,-6.00000000e-010,-6.59999344e-004
,,,-5.75000000e-010,-7.31249345e-004
,,,-5.50000000e-010,-8.07186846e-004
,,,-5.25000000e-010,-8.88280596e-004
,,,-5.00000000e-010,-9.74061847e-004
,,,-4.75000000e-010,-1.06546810e-003
,,,-4.50000000e-010,-1.16203060e-003
,,,-4.25000000e-010,-1.26609310e-003
,,,-4.00000000e-010,-1.37999935e-003
,,,-3.75000000e-010,-1.55062435e-003
,,,-3.50000000e-010,-1.74093685e-003
,,,-3.25000000e-010,-1.94765561e-003
,,,-3.00000000e-010,-2.16515561e-003
,,,-2.75000000e-010,-2.38968686e-003
,,,-2.50000000e-010,-2.61515561e-003
,,,-2.25000000e-010,-2.83921811e-003
,,,-2.00000000e-010,-3.05999937e-003
,,,-1.75000000e-010,-3.30656187e-003
,,,-1.50000000e-010,-3.55874937e-003
,,,-1.25000000e-010,-3.81703062e-003
,,,-1.00000000e-010,-4.08140562e-003
,,,-7.50000000e-011,-4.35281188e-003
,,,-5.00000000e-011,-4.63218688e-003
,,,-2.50000000e-011,-4.92093688e-003
,,,0.00000000e+000,-5.21999938e-003
,,,2.50000000e-011,-5.53453064e-003
,,,5.00000000e-011,-5.86687439e-003
,,,7.50000000e-011,-6.21656189e-003
,,,1.00000000e-010,-6.58031190e-003
,,,1.25000000e-010,-6.95484315e-003
,,,1.50000000e-010,-7.33593690e-003
,,,1.75000000e-010,-7.71890566e-003
,,,2.00000000e-010,-8.09999941e-003
,,,2.25000000e-010,-8.44359316e-003
,,,2.50000000e-010,-8.78156192e-003
,,,2.75000000e-010,-9.11390567e-003
,,,3.00000000e-010,-9.43874942e-003
,,,3.25000000e-010,-9.75421817e-003
,,,3.50000000e-010,-1.00579682e-002
,,,3.75000000e-010,-1.03471869e-002
,,,4.00000000e-010,-1.06199994e-002
,,,4.25000000e-010,-1.08140619e-002
,,,4.50000000e-010,-1.09940619e-002
,,,4.75000000e-010,-1.11618744e-002
,,,5.00000000e-010,-1.13189057e-002
,,,5.25000000e-010,-1.14646869e-002
,,,5.50000000e-010,-1.15987494e-002
,,,5.75000000e-010,-1.17178119e-002
,,,6.00000000e-010,-1.18199994e-002
,,,6.25000000e-010,-1.18284369e-002
,,,6.50000000e-010,-1.18232807e-002
,,,6.75000000e-010,-1.18073432e-002
,,,7.00000000e-010,-1.17820307e-002
,,,7.25000000e-010,-1.17478119e-002
,,,7.50000000e-010,-1.17037494e-002
,,,7.75000000e-010,-1.16484369e-002
,,,8.00000000e-010,-1.15799994e-002
,,,8.25000000e-010,-1.14267182e-002
,,,8.50000000e-010,-1.12654682e-002
,,,8.75000000e-010,-1.10990619e-002
,,,9.00000000e-010,-1.09307807e-002
,,,9.25000000e-010,-1.07629682e-002
,,,9.50000000e-010,-1.05951557e-002
,,,9.75000000e-010,-1.04278119e-002
,,,1.00000000e-009,-1.02599994e-002
,,,1.02500000e-009,-1.00364057e-002
,,,1.05000000e-009,-9.81421817e-003
,,,1.07500000e-009,-9.59578067e-003
,,,1.10000000e-009,-9.38249942e-003
,,,1.12500000e-009,-9.17484317e-003
,,,1.15000000e-009,-8.97281192e-003
,,,1.17500000e-009,-8.77499942e-003
,,,1.20000000e-009,-8.57999941e-003
,,,1.22500000e-009,-8.35406191e-003
,,,1.25000000e-009,-8.12671816e-003
,,,1.27500000e-009,-7.89796816e-003
,,,1.30000000e-009,-7.66968691e-003
,,,1.32500000e-009,-7.44281190e-003
,,,1.35000000e-009,-7.21874940e-003
,,,1.37500000e-009,-6.99749940e-003
,,,1.40000000e-009,-6.77999940e-003
,,,1.42500000e-009,-6.55921815e-003
,,,1.45000000e-009,-6.33703064e-003
,,,1.47500000e-009,-6.11578064e-003
,,,1.50000000e-009,-5.89734314e-003
,,,1.52500000e-009,-5.68406189e-003
,,,1.55000000e-009,-5.47874939e-003
,,,1.57500000e-009,-5.28374938e-003
,,,1.60000000e-009,-5.09999938e-003
,,,1.62500000e-009,-4.93968688e-003
,,,1.65000000e-009,-4.78218688e-003
,,,1.67500000e-009,-4.62656188e-003
,,,1.70000000e-009,-4.47374938e-003
,,,1.72500000e-009,-4.32374938e-003
,,,1.75000000e-009,-4.17749938e-003
,,,1.77500000e-009,-4.03593687e-003
,,,1.80000000e-009,-3.89999937e-003
,,,1.82500000e-009,-3.78984312e-003
,,,1.85000000e-009,-3.67546812e-003
,,,1.87500000e-009,-3.55640562e-003
,,,1.90000000e-009,-3.43265562e-003
,,,1.92500000e-009,-3.30703062e-003
,,,1.95000000e-009,-3.18140562e-003
,,,1.97500000e-009,-3.05859312e-003
,,,2.00000000e-009,-2.93999936e-003
,,,2.02500000e-009,-2.85187436e-003
,,,2.05000000e-009,-2.76140561e-003
,,,2.07500000e-009,-2.66953061e-003
,,,2.10000000e-009,-2.57578061e-003
,,,2.12500000e-009,-2.48203061e-003
,,,2.15000000e-009,-2.39015561e-003
,,,2.17500000e-009,-2.30249936e-003
,,,2.20000000e-009,-2.21999936e-003
,,,2.22500000e-009,-2.16937436e-003
,,,2.25000000e-009,-2.11874936e-003
,,,2.27500000e-009,-2.06859311e-003
,,,2.30000000e-009,-2.01937436e-003
,,,2.32500000e-009,-1.97203061e-003
,,,2.35000000e-009,-1.92890561e-003
,,,2.37500000e-009,-1.89093686e-003
,,,2.40000000e-009,-1.85999935e-003
,,,2.42500000e-009,-1.85765560e-003
,,,2.45000000e-009,-1.85718685e-003
,,,2.47500000e-009,-1.85718685e-003
,,,2.50000000e-009,-1.85765560e-003
,,,2.52500000e-009,-1.85765560e-003
,,,2.55000000e-009,-1.85812435e-003
,,,2.57500000e-009,-1.85906185e-003
,,,2.60000000e-009,-1.85999935e-003
,,,2.62500000e-009,-1.87593686e-003
,,,2.65000000e-009,-1.88718686e-003
,,,2.67500000e-009,-1.89374936e-003
,,,2.70000000e-009,-1.89468686e-003
,,,2.72500000e-009,-1.89093686e-003
,,,2.75000000e-009,-1.88343686e-003
,,,2.77500000e-009,-1.87265561e-003
,,,2.80000000e-009,-1.85999935e-003
,,,2.82500000e-009,-1.85718685e-003
,,,2.85000000e-009,-1.85249935e-003
,,,2.87500000e-009,-1.84734310e-003
,,,2.90000000e-009,-1.84359310e-003
,,,2.92500000e-009,-1.84124935e-003
,,,2.95000000e-009,-1.84265560e-003
,,,2.97500000e-009,-1.84874935e-003
,,,3.00000000e-009,-1.85999935e-003
,,,3.02500000e-009,-1.88249936e-003
,,,3.05000000e-009,-1.90874936e-003
,,,3.07500000e-009,-1.93828061e-003
,,,3.10000000e-009,-1.97015561e-003
,,,3.12500000e-009,-2.00296811e-003
,,,3.15000000e-009,-2.03624936e-003
,,,3.17500000e-009,-2.06906186e-003
,,,3.20000000e-009,-2.09999936e-003
,,,3.22500000e-009,-2.12718686e-003
,,,3.25000000e-009,-2.15062436e-003
,,,3.27500000e-009,-2.16984311e-003
,,,3.30000000e-009,-2.18531186e-003
,,,3.32500000e-009,-2.19749936e-003
,,,3.35000000e-009,-2.20687436e-003
,,,3.37500000e-009,-2.21437436e-003
,,,3.40000000e-009,-2.21999936e-003
,,,3.42500000e-009,-2.21953061e-003
,,,3.45000000e-009,-2.21765561e-003
,,,3.47500000e-009,-2.21578061e-003
,,,3.50000000e-009,-2.21437436e-003
,,,3.52500000e-009,-2.21390561e-003
,,,3.55000000e-009,-2.21484311e-003
,,,3.57500000e-009,-2.21671811e-003
,,,3.60000000e-009,-2.21999936e-003
,,,3.62500000e-009,-2.21718686e-003
,,,3.65000000e-009,-2.21484311e-003
,,,3.67500000e-009,-2.21296811e-003
,,,3.70000000e-009,-2.21249936e-003
,,,3.72500000e-009,-2.21296811e-003
,,,3.75000000e-009,-2.21437436e-003
,,,3.77500000e-009,-2.21718686e-003
,,,3.80000000e-009,-2.21999936e-003
,,,3.82500000e-009,-2.21437436e-003
,,,3.85000000e-009,-2.20640561e-003
,,,3.87500000e-009,-2.19609311e-003
,,,3.90000000e-009,-2.18343686e-003
,,,3.92500000e-009,-2.16796811e-003
,,,3.95000000e-009,-2.14921811e-003
,,,3.97500000e-009,-2.12671811e-003
,,,4.00000000e-009,-2.09999936e-003
,,,4.02500000e-009,-2.06156186e-003
,,,4.05000000e-009,-2.01890561e-003
,,,4.07500000e-009,-1.97343686e-003
,,,4.10000000e-009,-1.92609311e-003
,,,4.12500000e-009,-1.87828061e-003
,,,4.15000000e-009,-1.83093685e-003
,,,4.17500000e-009,-1.78453060e-003
,,,4.20000000e-009,-1.73999935e-003
,,,4.22500000e-009,-1.69218685e-003
,,,4.25000000e-009,-1.64531185e-003
,,,4.27500000e-009,-1.59937435e-003
,,,4.30000000e-009,-1.55390560e-003
,,,4.32500000e-009,-1.50984310e-003
,,,4.35000000e-009,-1.46624935e-003
,,,4.37500000e-009,-1.42312435e-003
,,,4.40000000e-009,-1.37999935e-003
,,,4.42500000e-009,-1.33453060e-003
,,,4.45000000e-009,-1.28718685e-003
,,,4.47500000e-009,-1.23937435e-003
,,,4.50000000e-009,-1.19156185e-003
,,,4.52500000e-009,-1.14468685e-003
,,,4.55000000e-009,-1.10015560e-003
,,,4.57500000e-009,-1.05843685e-003
,,,4.60000000e-009,-1.01999935e-003
,,,4.62500000e-009,-9.85311847e-004
,,,4.65000000e-009,-9.52030597e-004
,,,4.67500000e-009,-9.20624347e-004
,,,4.70000000e-009,-8.90624347e-004
,,,4.72500000e-009,-8.61561846e-004
,,,4.75000000e-009,-8.33905596e-004
,,,4.77500000e-009,-8.06718096e-004
,,,4.80000000e-009,-7.79999346e-004
,,,4.82500000e-009,-7.56093095e-004
,,,4.85000000e-009,-7.29843095e-004
,,,4.87500000e-009,-7.01249345e-004
,,,4.90000000e-009,-6.70311845e-004
,,,4.92500000e-009,-6.38436844e-004
,,,4.95000000e-009,-6.05624344e-004
,,,4.97500000e-009,-5.72811844e-004
,,,5.00000000e-009,-5.39999343e-004
,,,5.02500000e-009,-5.11874343e-004
,,,5.05000000e-009,-4.82343093e-004
,,,5.07500000e-009,-4.51874343e-004
,,,5.10000000e-009,-4.21405592e-004
,,,5.12500000e-009,-3.90468092e-004
,,,5.15000000e-009,-3.59999342e-004
,,,5.17500000e-009,-3.29530592e-004
,,,5.20000000e-009,-2.99999341e-004
,,,5.22500000e-009,-2.76561841e-004
,,,5.25000000e-009,-2.51249341e-004
,,,5.27500000e-009,-2.24530591e-004
,,,5.30000000e-009,-1.94999340e-004
,,,5.32500000e-009,-1.63593090e-004
,,,5.35000000e-009,-1.30311840e-004
,,,5.37500000e-009,-9.56243396e-005
,,,5.40000000e-009,-5.99993393e-005
,,,5.42500000e-009,-3.09368390e-005
,,,5.45000000e-009,-3.28058879e-006
,,,5.47500000e-009,2.25006614e-005
,,,5.50000000e-009,4.35944116e-005
,,,5.52500000e-009,5.90631618e-005
,,,5.55000000e-009,6.75006618e-005
,,,5.57500000e-009,6.75006618e-005
,,,5.60000000e-009,6.00006618e-005
,,,5.62500000e-009,4.03131616e-005
,,,5.65000000e-009,1.68756614e-005
,,,5.67500000e-009,-7.96808883e-006
,,,5.70000000e-009,-3.04680890e-005
,,,5.72500000e-009,-4.92180892e-005
,,,5.75000000e-009,-6.14055893e-005
,,,5.77500000e-009,-6.51555893e-005
,,,5.80000000e-009,-5.99993393e-005
,,,5.82500000e-009,-4.82805892e-005
,,,5.85000000e-009,-2.85930890e-005
,,,5.87500000e-009,-4.21808880e-006
,,,5.90000000e-009,2.10944114e-005
,,,5.92500000e-009,4.35944116e-005
,,,5.95000000e-009,5.95319118e-005
