RawData/SinglePhotoelectron/L1_2pt2A_5mV/wave026_Ch1.csv

"Record Length",1000,"Points",-7.72500000e-009,-9.84368396e-005
"Sample Interval",2.50000000e-011,s,-7.70000000e-009,-7.87493394e-005
"Trigger Point",309,"Samples",-7.67500000e-009,-5.99993393e-005
"Trigger Time",3.57974843e-012,s,-7.65000000e-009,-4.59368392e-005
"",,,-7.62500000e-009,-3.51555891e-005
"Horizontal Offset",-7.72500000e-009,s,-7.60000000e-009,-2.81243390e-005
,,,-7.57500000e-009,-2.57805890e-005
,,,-7.55000000e-009,-2.81243390e-005
,,,-7.52500000e-009,-3.51555891e-005
,,,-7.50000000e-009,-4.59368392e-005
,,,-7.47500000e-009,-5.99993393e-005
,,,-7.45000000e-009,-7.87493394e-005
,,,-7.42500000e-009,-9.79680896e-005
,,,-7.40000000e-009,-1.17186840e-004
,,,-7.37500000e-009,-1.34999340e-004
,,,-7.35000000e-009,-1.50936840e-004
,,,-7.32500000e-009,-1.64061840e-004
,,,-7.30000000e-009,-1.73905590e-004
,,,-7.27500000e-009,-1.79999340e-004
,,,-7.25000000e-009,-1.81874340e-004
,,,-7.22500000e-009,-1.80468090e-004
,,,-7.20000000e-009,-1.77655590e-004
,,,-7.17500000e-009,-1.73905590e-004
,,,-7.15000000e-009,-1.71561840e-004
,,,-7.12500000e-009,-1.71093090e-004
,,,-7.10000000e-009,-1.73905590e-004
,,,-7.07500000e-009,-1.79999340e-004
,,,-7.05000000e-009,-1.89374340e-004
,,,-7.02500000e-009,-2.02030591e-004
,,,-7.00000000e-009,-2.17499341e-004
,,,-6.97500000e-009,-2.34843091e-004
,,,-6.95000000e-009,-2.53124341e-004
,,,-6.92500000e-009,-2.70936841e-004
,,,-6.90000000e-009,-2.86874341e-004
,,,-6.87500000e-009,-2.99999341e-004
,,,-6.85000000e-009,-3.07968091e-004
,,,-6.82500000e-009,-3.12186841e-004
,,,-6.80000000e-009,-3.13593091e-004
,,,-6.77500000e-009,-3.12186841e-004
,,,-6.75000000e-009,-3.09843091e-004
,,,-6.72500000e-009,-3.06561841e-004
,,,-6.70000000e-009,-3.03280591e-004
,,,-6.67500000e-009,-2.99999341e-004
,,,-6.65000000e-009,-2.94843091e-004
,,,-6.62500000e-009,-2.89218091e-004
,,,-6.60000000e-009,-2.81718091e-004
,,,-6.57500000e-009,-2.71405591e-004
,,,-6.55000000e-009,-2.56874341e-004
,,,-6.52500000e-009,-2.37186841e-004
,,,-6.50000000e-009,-2.11874341e-004
,,,-6.47500000e-009,-1.79999340e-004
,,,-6.45000000e-009,-1.43905590e-004
,,,-6.42500000e-009,-1.05468090e-004
,,,-6.40000000e-009,-6.60930893e-005
,,,-6.37500000e-009,-2.85930890e-005
,,,-6.35000000e-009,4.68816128e-006
,,,-6.32500000e-009,3.18756615e-005
,,,-6.30000000e-009,5.06256617e-005
,,,-6.27500000e-009,6.00006618e-005
,,,-6.25000000e-009,5.71881617e-005
,,,-6.22500000e-009,4.59381616e-005
,,,-6.20000000e-009,2.81256615e-005
,,,-6.17500000e-009,6.56316130e-006
,,,-6.15000000e-009,-1.54680889e-005
,,,-6.12500000e-009,-3.56243391e-005
,,,-6.10000000e-009,-5.10930892e-005
,,,-6.07500000e-009,-5.99993393e-005
,,,-6.05000000e-009,-6.46868393e-005
,,,-6.02500000e-009,-6.09368393e-005
,,,-6.00000000e-009,-5.01555892e-005
,,,-5.97500000e-009,-3.28118390e-005
,,,-5.95000000e-009,-1.07805889e-005
,,,-5.92500000e-009,1.35944114e-005
,,,-5.90000000e-009,3.79694116e-005
,,,-5.87500000e-009,6.00006618e-005
,,,-5.85000000e-009,7.21881619e-005
,,,-5.82500000e-009,7.73444119e-005
,,,-5.80000000e-009,7.40631619e-005
,,,-5.77500000e-009,6.28131618e-005
,,,-5.75000000e-009,4.26569116e-005
,,,-5.72500000e-009,1.45319114e-005
,,,-5.70000000e-009,-2.01555889e-005
,,,-5.67500000e-009,-5.99993393e-005
,,,-5.65000000e-009,-1.05468090e-004
,,,-5.62500000e-009,-1.50936840e-004
,,,-5.60000000e-009,-1.93124340e-004
,,,-5.57500000e-009,-2.30624341e-004
,,,-5.55000000e-009,-2.61093091e-004
,,,-5.52500000e-009,-2.83124341e-004
,,,-5.50000000e-009,-2.95780591e-004
,,,-5.47500000e-009,-2.99999341e-004
,,,-5.45000000e-009,-2.97655591e-004
,,,-5.42500000e-009,-2.90155591e-004
,,,-5.40000000e-009,-2.80311841e-004
,,,-5.37500000e-009,-2.71405591e-004
,,,-5.35000000e-009,-2.66249341e-004
,,,-5.32500000e-009,-2.68124341e-004
,,,-5.30000000e-009,-2.78905591e-004
,,,-5.27500000e-009,-2.99999341e-004
,,,-5.25000000e-009,-3.30936842e-004
,,,-5.22500000e-009,-3.71718092e-004
,,,-5.20000000e-009,-4.19999342e-004
,,,-5.17500000e-009,-4.72968093e-004
,,,-5.15000000e-009,-5.26874343e-004
,,,-5.12500000e-009,-5.78436844e-004
,,,-5.10000000e-009,-6.23905594e-004
,,,-5.07500000e-009,-6.59999344e-004
,,,-5.05000000e-009,-6.81093095e-004
,,,-5.02500000e-009,-6.89530595e-004
,,,-5.00000000e-009,-6.85311845e-004
,,,-4.97500000e-009,-6.70311845e-004
,,,-4.95000000e-009,-6.45936844e-004
,,,-4.92500000e-009,-6.14061844e-004
,,,-4.90000000e-009,-5.77968094e-004
,,,-4.87500000e-009,-5.39999343e-004
,,,-4.85000000e-009,-5.01093093e-004
,,,-4.82500000e-009,-4.66405593e-004
,,,-4.80000000e-009,-4.38749343e-004
,,,-4.77500000e-009,-4.18593092e-004
,,,-4.75000000e-009,-4.07343092e-004
,,,-4.72500000e-009,-4.04061842e-004
,,,-4.70000000e-009,-4.08749342e-004
,,,-4.67500000e-009,-4.19999342e-004
,,,-4.65000000e-009,-4.35468093e-004
,,,-4.62500000e-009,-4.54218093e-004
,,,-4.60000000e-009,-4.74843093e-004
,,,-4.57500000e-009,-4.94999343e-004
,,,-4.55000000e-009,-5.13280593e-004
,,,-4.52500000e-009,-5.27811843e-004
,,,-4.50000000e-009,-5.36718093e-004
,,,-4.47500000e-009,-5.39999343e-004
,,,-4.45000000e-009,-5.34843093e-004
,,,-4.42500000e-009,-5.23593093e-004
,,,-4.40000000e-009,-5.07655593e-004
,,,-4.37500000e-009,-4.88905593e-004
,,,-4.35000000e-009,-4.69218093e-004
,,,-4.32500000e-009,-4.50468093e-004
,,,-4.30000000e-009,-4.33593093e-004
,,,-4.27500000e-009,-4.19999342e-004
,,,-4.25000000e-009,-4.08749342e-004
,,,-4.22500000e-009,-4.01249342e-004
,,,-4.20000000e-009,-3.98436842e-004
,,,-4.17500000e-009,-3.99374342e-004
,,,-4.15000000e-009,-4.02655592e-004
,,,-4.12500000e-009,-4.08280592e-004
,,,-4.10000000e-009,-4.14374342e-004
,,,-4.07500000e-009,-4.19999342e-004
,,,-4.05000000e-009,-4.22343092e-004
,,,-4.02500000e-009,-4.22811842e-004
,,,-4.00000000e-009,-4.20936842e-004
,,,-3.97500000e-009,-4.18593092e-004
,,,-3.95000000e-009,-4.16249342e-004
,,,-3.92500000e-009,-4.15311842e-004
,,,-3.90000000e-009,-4.16718092e-004
,,,-3.87500000e-009,-4.19999342e-004
,,,-3.85000000e-009,-4.22811842e-004
,,,-3.82500000e-009,-4.26093092e-004
,,,-3.80000000e-009,-4.29843092e-004
,,,-3.77500000e-009,-4.33124343e-004
,,,-3.75000000e-009,-4.34530593e-004
,,,-3.72500000e-009,-4.33593093e-004
,,,-3.70000000e-009,-4.29374342e-004
,,,-3.67500000e-009,-4.19999342e-004
,,,-3.65000000e-009,-4.01718092e-004
,,,-3.62500000e-009,-3.77811842e-004
,,,-3.60000000e-009,-3.49218092e-004
,,,-3.57500000e-009,-3.16874342e-004
,,,-3.55000000e-009,-2.82655591e-004
,,,-3.52500000e-009,-2.47968091e-004
,,,-3.50000000e-009,-2.13280591e-004
,,,-3.47500000e-009,-1.79999340e-004
,,,-3.45000000e-009,-1.47655590e-004
,,,-3.42500000e-009,-1.16249340e-004
,,,-3.40000000e-009,-8.67180895e-005
,,,-3.37500000e-009,-5.76555893e-005
,,,-3.35000000e-009,-2.90618390e-005
,,,-3.32500000e-009,6.61239028e-010
,,,-3.30000000e-009,2.90631615e-005
,,,-3.27500000e-009,6.00006618e-005
,,,-3.25000000e-009,9.04694120e-005
,,,-3.22500000e-009,1.22344412e-004
,,,-3.20000000e-009,1.54688163e-004
,,,-3.17500000e-009,1.87500663e-004
,,,-3.15000000e-009,2.18906913e-004
,,,-3.12500000e-009,2.48438163e-004
,,,-3.10000000e-009,2.75625664e-004
,,,-3.07500000e-009,3.00000664e-004
,,,-3.05000000e-009,3.16406914e-004
,,,-3.02500000e-009,3.30938164e-004
,,,-3.00000000e-009,3.43594414e-004
,,,-2.97500000e-009,3.55781914e-004
,,,-2.95000000e-009,3.68906914e-004
,,,-2.92500000e-009,3.83906915e-004
,,,-2.90000000e-009,4.00313165e-004
,,,-2.87500000e-009,4.20000665e-004
,,,-2.85000000e-009,4.35469415e-004
,,,-2.82500000e-009,4.53281915e-004
,,,-2.80000000e-009,4.72031915e-004
,,,-2.77500000e-009,4.90781916e-004
,,,-2.75000000e-009,5.08594416e-004
,,,-2.72500000e-009,5.23125666e-004
,,,-2.70000000e-009,5.33906916e-004
,,,-2.67500000e-009,5.40000666e-004
,,,-2.65000000e-009,5.32031916e-004
,,,-2.62500000e-009,5.19844416e-004
,,,-2.60000000e-009,5.04375666e-004
,,,-2.57500000e-009,4.86094415e-004
,,,-2.55000000e-009,4.67813165e-004
,,,-2.52500000e-009,4.50000665e-004
,,,-2.50000000e-009,4.33594415e-004
,,,-2.47500000e-009,4.20000665e-004
,,,-2.45000000e-009,4.03125665e-004
,,,-2.42500000e-009,3.89063165e-004
,,,-2.40000000e-009,3.76875665e-004
,,,-2.37500000e-009,3.65156914e-004
,,,-2.35000000e-009,3.52969414e-004
,,,-2.32500000e-009,3.38906914e-004
,,,-2.30000000e-009,3.21094414e-004
,,,-2.27500000e-009,3.00000664e-004
,,,-2.25000000e-009,2.70469414e-004
,,,-2.22500000e-009,2.37656913e-004
,,,-2.20000000e-009,2.03438163e-004
,,,-2.17500000e-009,1.68281913e-004
,,,-2.15000000e-009,1.35469412e-004
,,,-2.12500000e-009,1.05469412e-004
,,,-2.10000000e-009,8.01569119e-005
,,,-2.07500000e-009,6.00006618e-005
,,,-2.05000000e-009,4.45319116e-005
,,,-2.02500000e-009,3.28131615e-005
,,,-2.00000000e-009,2.34381614e-005
,,,-1.97500000e-009,1.40631614e-005
,,,-1.95000000e-009,2.81316126e-006
,,,-1.92500000e-009,-1.26555889e-005
,,,-1.90000000e-009,-3.32805891e-005
,,,-1.87500000e-009,-5.99993393e-005
,,,-1.85000000e-009,-9.32805896e-005
,,,-1.82500000e-009,-1.31249340e-004
,,,-1.80000000e-009,-1.71093090e-004
,,,-1.77500000e-009,-2.10936841e-004
,,,-1.75000000e-009,-2.46093091e-004
,,,-1.72500000e-009,-2.74686841e-004
,,,-1.70000000e-009,-2.92968091e-004
,,,-1.67500000e-009,-2.99999341e-004
,,,-1.65000000e-009,-2.95780591e-004
,,,-1.62500000e-009,-2.83124341e-004
,,,-1.60000000e-009,-2.63905591e-004
,,,-1.57500000e-009,-2.41405591e-004
,,,-1.55000000e-009,-2.19374341e-004
,,,-1.52500000e-009,-2.00155591e-004
,,,-1.50000000e-009,-1.86561840e-004
,,,-1.47500000e-009,-1.79999340e-004
,,,-1.45000000e-009,-1.87499340e-004
,,,-1.42500000e-009,-2.03905591e-004
,,,-1.40000000e-009,-2.26874341e-004
,,,-1.37500000e-009,-2.52655591e-004
,,,-1.35000000e-009,-2.76093091e-004
,,,-1.32500000e-009,-2.94374341e-004
,,,-1.30000000e-009,-3.02811841e-004
,,,-1.27500000e-009,-2.99999341e-004
,,,-1.25000000e-009,-2.97655591e-004
,,,-1.22500000e-009,-2.87343091e-004
,,,-1.20000000e-009,-2.70936841e-004
,,,-1.17500000e-009,-2.50311841e-004
,,,-1.15000000e-009,-2.27811841e-004
,,,-1.12500000e-009,-2.06718091e-004
,,,-1.10000000e-009,-1.89843090e-004
,,,-1.07500000e-009,-1.79999340e-004
,,,-1.05000000e-009,-2.01093091e-004
,,,-1.02500000e-009,-2.35311841e-004
,,,-1.00000000e-009,-2.80311841e-004
,,,-9.75000000e-010,-3.33749342e-004
,,,-9.50000000e-010,-3.89999342e-004
,,,-9.25000000e-010,-4.45311843e-004
,,,-9.00000000e-010,-4.95936843e-004
,,,-8.75000000e-010,-5.39999343e-004
,,,-8.50000000e-010,-5.99999344e-004
,,,-8.25000000e-010,-6.55780594e-004
,,,-8.00000000e-010,-7.05936845e-004
,,,-7.75000000e-010,-7.51405595e-004
,,,-7.50000000e-010,-7.91249346e-004
,,,-7.25000000e-010,-8.27811846e-004
,,,-7.00000000e-010,-8.63436846e-004
,,,-6.75000000e-010,-8.99999347e-004
,,,-6.50000000e-010,-9.66561847e-004
,,,-6.25000000e-010,-1.04437435e-003
,,,-6.00000000e-010,-1.13437435e-003
,,,-5.75000000e-010,-1.23656185e-003
,,,-5.50000000e-010,-1.34906185e-003
,,,-5.25000000e-010,-1.47093685e-003
,,,-5.00000000e-010,-1.60171810e-003
,,,-4.75000000e-010,-1.73999935e-003
,,,-4.50000000e-010,-1.90031186e-003
,,,-4.25000000e-010,-2.06953061e-003
,,,-4.00000000e-010,-2.24718686e-003
,,,-3.75000000e-010,-2.42999936e-003
,,,-3.50000000e-010,-2.61656186e-003
,,,-3.25000000e-010,-2.80499936e-003
,,,-3.00000000e-010,-2.99296811e-003
,,,-2.75000000e-010,-3.17999937e-003
,,,-2.50000000e-010,-3.36374937e-003
,,,-2.25000000e-010,-3.54749937e-003
,,,-2.00000000e-010,-3.73078062e-003
,,,-1.75000000e-010,-3.91359312e-003
,,,-1.50000000e-010,-4.09406187e-003
,,,-1.25000000e-010,-4.27265563e-003
,,,-1.00000000e-010,-4.44796813e-003
,,,-7.50000000e-011,-4.61999938e-003
,,,-5.00000000e-011,-4.76953063e-003
,,,-2.50000000e-011,-4.91812438e-003
,,,0.00000000e+000,-5.06718688e-003
,,,2.50000000e-011,-5.21812438e-003
,,,5.00000000e-011,-5.37046814e-003
,,,7.50000000e-011,-5.52281189e-003
,,,1.00000000e-010,-5.67328064e-003
,,,1.25000000e-010,-5.81999939e-003
,,,1.50000000e-010,-5.92874939e-003
,,,1.75000000e-010,-6.03046814e-003
,,,2.00000000e-010,-6.12515564e-003
,,,2.25000000e-010,-6.21046814e-003
,,,2.50000000e-010,-6.28499939e-003
,,,2.75000000e-010,-6.34640564e-003
,,,3.00000000e-010,-6.39187439e-003
,,,3.25000000e-010,-6.41999939e-003
,,,3.50000000e-010,-6.39187439e-003
,,,3.75000000e-010,-6.35156189e-003
,,,4.00000000e-010,-6.30328064e-003
,,,4.25000000e-010,-6.25124939e-003
,,,4.50000000e-010,-6.19921814e-003
,,,4.75000000e-010,-6.14953064e-003
,,,5.00000000e-010,-6.10312439e-003
,,,5.25000000e-010,-6.05999939e-003
,,,5.50000000e-010,-5.98406189e-003
,,,5.75000000e-010,-5.91187439e-003
,,,6.00000000e-010,-5.84343689e-003
,,,6.25000000e-010,-5.77593689e-003
,,,6.50000000e-010,-5.70703064e-003
,,,6.75000000e-010,-5.63343689e-003
,,,7.00000000e-010,-5.55234314e-003
,,,7.25000000e-010,-5.45999939e-003
,,,7.50000000e-010,-5.33062439e-003
,,,7.75000000e-010,-5.19234313e-003
,,,8.00000000e-010,-5.04796813e-003
,,,8.25000000e-010,-4.90218688e-003
,,,8.50000000e-010,-4.75874938e-003
,,,8.75000000e-010,-4.62234313e-003
,,,9.00000000e-010,-4.49531188e-003
,,,9.25000000e-010,-4.37999938e-003
,,,9.50000000e-010,-4.26609313e-003
,,,9.75000000e-010,-4.16249937e-003
,,,1.00000000e-009,-4.06921812e-003
,,,1.02500000e-009,-3.98390562e-003
,,,1.05000000e-009,-3.90328062e-003
,,,1.07500000e-009,-3.82499937e-003
,,,1.10000000e-009,-3.74484312e-003
,,,1.12500000e-009,-3.65999937e-003
,,,1.15000000e-009,-3.56671812e-003
,,,1.17500000e-009,-3.46218687e-003
,,,1.20000000e-009,-3.34687437e-003
,,,1.22500000e-009,-3.22265562e-003
,,,1.25000000e-009,-3.09234312e-003
,,,1.27500000e-009,-2.95968686e-003
,,,1.30000000e-009,-2.82796811e-003
,,,1.32500000e-009,-2.69999936e-003
,,,1.35000000e-009,-2.58843686e-003
,,,1.37500000e-009,-2.48156186e-003
,,,1.40000000e-009,-2.37984311e-003
,,,1.42500000e-009,-2.28468686e-003
,,,1.45000000e-009,-2.19656186e-003
,,,1.47500000e-009,-2.11640561e-003
,,,1.50000000e-009,-2.04374936e-003
,,,1.52500000e-009,-1.97999936e-003
,,,1.55000000e-009,-1.93921811e-003
,,,1.57500000e-009,-1.90171811e-003
,,,1.60000000e-009,-1.86656185e-003
,,,1.62500000e-009,-1.83468685e-003
,,,1.65000000e-009,-1.80515560e-003
,,,1.67500000e-009,-1.77937435e-003
,,,1.70000000e-009,-1.75781185e-003
,,,1.72500000e-009,-1.73999935e-003
,,,1.75000000e-009,-1.73953060e-003
,,,1.77500000e-009,-1.73624935e-003
,,,1.80000000e-009,-1.72968685e-003
,,,1.82500000e-009,-1.71796810e-003
,,,1.85000000e-009,-1.70109310e-003
,,,1.87500000e-009,-1.67906185e-003
,,,1.90000000e-009,-1.65187435e-003
,,,1.92500000e-009,-1.61999935e-003
,,,1.95000000e-009,-1.59515560e-003
,,,1.97500000e-009,-1.56468685e-003
,,,2.00000000e-009,-1.53093685e-003
,,,2.02500000e-009,-1.49484310e-003
,,,2.05000000e-009,-1.45921810e-003
,,,2.07500000e-009,-1.42687435e-003
,,,2.10000000e-009,-1.39968685e-003
,,,2.12500000e-009,-1.37999935e-003
,,,2.15000000e-009,-1.37765560e-003
,,,2.17500000e-009,-1.38093685e-003
,,,2.20000000e-009,-1.39031185e-003
,,,2.22500000e-009,-1.40484310e-003
,,,2.25000000e-009,-1.42406185e-003
,,,2.27500000e-009,-1.44703060e-003
,,,2.30000000e-009,-1.47281185e-003
,,,2.32500000e-009,-1.49999935e-003
,,,2.35000000e-009,-1.53093685e-003
,,,2.37500000e-009,-1.55859310e-003
,,,2.40000000e-009,-1.58203060e-003
,,,2.42500000e-009,-1.60031185e-003
,,,2.45000000e-009,-1.61296810e-003
,,,2.47500000e-009,-1.62046810e-003
,,,2.50000000e-009,-1.62281185e-003
,,,2.52500000e-009,-1.61999935e-003
,,,2.55000000e-009,-1.61343685e-003
,,,2.57500000e-009,-1.60218685e-003
,,,2.60000000e-009,-1.58812435e-003
,,,2.62500000e-009,-1.57124935e-003
,,,2.65000000e-009,-1.55343685e-003
,,,2.67500000e-009,-1.53515560e-003
,,,2.70000000e-009,-1.51734310e-003
,,,2.72500000e-009,-1.49999935e-003
,,,2.75000000e-009,-1.48359310e-003
,,,2.77500000e-009,-1.46765560e-003
,,,2.80000000e-009,-1.45218685e-003
,,,2.82500000e-009,-1.43765560e-003
,,,2.85000000e-009,-1.42312435e-003
,,,2.87500000e-009,-1.40906185e-003
,,,2.90000000e-009,-1.39499935e-003
,,,2.92500000e-009,-1.37999935e-003
,,,2.95000000e-009,-1.36499935e-003
,,,2.97500000e-009,-1.34906185e-003
,,,3.00000000e-009,-1.33265560e-003
,,,3.02500000e-009,-1.31624935e-003
,,,3.05000000e-009,-1.30031185e-003
,,,3.07500000e-009,-1.28531185e-003
,,,3.10000000e-009,-1.27171810e-003
,,,3.12500000e-009,-1.25999935e-003
,,,3.15000000e-009,-1.25062435e-003
,,,3.17500000e-009,-1.24406185e-003
,,,3.20000000e-009,-1.24031185e-003
,,,3.22500000e-009,-1.23937435e-003
,,,3.25000000e-009,-1.24124935e-003
,,,3.27500000e-009,-1.24546810e-003
,,,3.30000000e-009,-1.25203060e-003
,,,3.32500000e-009,-1.25999935e-003
,,,3.35000000e-009,-1.26843685e-003
,,,3.37500000e-009,-1.27593685e-003
,,,3.40000000e-009,-1.28109310e-003
,,,3.42500000e-009,-1.28390560e-003
,,,3.45000000e-009,-1.28343685e-003
,,,3.47500000e-009,-1.27921810e-003
,,,3.50000000e-009,-1.27171810e-003
,,,3.52500000e-009,-1.25999935e-003
,,,3.55000000e-009,-1.24546810e-003
,,,3.57500000e-009,-1.22812435e-003
,,,3.60000000e-009,-1.20937435e-003
,,,3.62500000e-009,-1.19062435e-003
,,,3.65000000e-009,-1.17281185e-003
,,,3.67500000e-009,-1.15828060e-003
,,,3.70000000e-009,-1.14703060e-003
,,,3.72500000e-009,-1.13999935e-003
,,,3.75000000e-009,-1.13859310e-003
,,,3.77500000e-009,-1.13999935e-003
,,,3.80000000e-009,-1.14328060e-003
,,,3.82500000e-009,-1.14703060e-003
,,,3.85000000e-009,-1.14984310e-003
,,,3.87500000e-009,-1.15031185e-003
,,,3.90000000e-009,-1.14749935e-003
,,,3.92500000e-009,-1.13999935e-003
,,,3.95000000e-009,-1.12828060e-003
,,,3.97500000e-009,-1.11234310e-003
,,,4.00000000e-009,-1.09359310e-003
,,,4.02500000e-009,-1.07343685e-003
,,,4.05000000e-009,-1.05468685e-003
,,,4.07500000e-009,-1.03874935e-003
,,,4.10000000e-009,-1.02703060e-003
,,,4.12500000e-009,-1.01999935e-003
,,,4.15000000e-009,-1.01765560e-003
,,,4.17500000e-009,-1.01906185e-003
,,,4.20000000e-009,-1.02328060e-003
,,,4.22500000e-009,-1.02796810e-003
,,,4.25000000e-009,-1.03171810e-003
,,,4.27500000e-009,-1.03218685e-003
,,,4.30000000e-009,-1.02890560e-003
,,,4.32500000e-009,-1.01999935e-003
,,,4.35000000e-009,-1.00453060e-003
,,,4.37500000e-009,-9.84374347e-004
,,,4.40000000e-009,-9.61874347e-004
,,,4.42500000e-009,-9.39374347e-004
,,,4.45000000e-009,-9.19218097e-004
,,,4.47500000e-009,-9.05155597e-004
,,,4.50000000e-009,-8.98124347e-004
,,,4.52500000e-009,-8.99999347e-004
,,,4.55000000e-009,-9.09843097e-004
,,,4.57500000e-009,-9.26249347e-004
,,,4.60000000e-009,-9.47343097e-004
,,,4.62500000e-009,-9.69843097e-004
,,,4.65000000e-009,-9.91405597e-004
,,,4.67500000e-009,-1.00828060e-003
,,,4.70000000e-009,-1.01859310e-003
,,,4.72500000e-009,-1.01999935e-003
,,,4.75000000e-009,-1.00828060e-003
,,,4.77500000e-009,-9.86249347e-004
,,,4.80000000e-009,-9.55780597e-004
,,,4.82500000e-009,-9.19686847e-004
,,,4.85000000e-009,-8.81249346e-004
,,,4.87500000e-009,-8.43280596e-004
,,,4.90000000e-009,-8.09061846e-004
,,,4.92500000e-009,-7.79999346e-004
,,,4.95000000e-009,-7.56093095e-004
,,,4.97500000e-009,-7.37811845e-004
,,,5.00000000e-009,-7.24218095e-004
,,,5.02500000e-009,-7.13436845e-004
,,,5.05000000e-009,-7.04061845e-004
,,,5.07500000e-009,-6.93280595e-004
,,,5.10000000e-009,-6.78749345e-004
,,,5.12500000e-009,-6.59999344e-004
,,,5.15000000e-009,-6.34686844e-004
,,,5.17500000e-009,-6.04218094e-004
,,,5.20000000e-009,-5.69530594e-004
,,,5.22500000e-009,-5.32968093e-004
,,,5.25000000e-009,-4.97343093e-004
,,,5.27500000e-009,-4.65468093e-004
,,,5.30000000e-009,-4.39218093e-004
,,,5.32500000e-009,-4.19999342e-004
,,,5.35000000e-009,-4.10624342e-004
,,,5.37500000e-009,-4.07343092e-004
,,,5.40000000e-009,-4.09686842e-004
,,,5.42500000e-009,-4.15311842e-004
,,,5.45000000e-009,-4.21405592e-004
,,,5.47500000e-009,-4.25624342e-004
,,,5.50000000e-009,-4.26093092e-004
,,,5.52500000e-009,-4.19999342e-004
,,,5.55000000e-009,-4.06874342e-004
,,,5.57500000e-009,-3.85780592e-004
,,,5.60000000e-009,-3.57655592e-004
,,,5.62500000e-009,-3.23905592e-004
,,,5.65000000e-009,-2.86874341e-004
,,,5.67500000e-009,-2.49374341e-004
,,,5.70000000e-009,-2.13280591e-004
,,,5.72500000e-009,-1.79999340e-004
,,,5.75000000e-009,-1.54218090e-004
,,,5.77500000e-009,-1.32655590e-004
,,,5.80000000e-009,-1.15311840e-004
,,,5.82500000e-009,-1.00780590e-004
,,,5.85000000e-009,-8.90618395e-005
