RawData/SinglePhotoelectron/L1_2pt2A_5mV/wave031_Ch1.csv

"Record Length",1000,"Points",-7.72500000e-009,3.18756615e-005
"Sample Interval",2.50000000e-011,s,-7.70000000e-009,3.37506615e-005
"Trigger Point",309,"Samples",-7.67500000e-009,3.89069116e-005
"Trigger Time",7.73934605e-012,s,-7.65000000e-009,4.59381616e-005
"",,,-7.62500000e-009,5.34381617e-005
"Horizontal Offset",-7.72500000e-009,s,-7.60000000e-009,6.00006618e-005
,,,-7.57500000e-009,6.32819118e-005
,,,-7.55000000e-009,6.46881618e-005
,,,-7.52500000e-009,6.42194118e-005
,,,-7.50000000e-009,6.23444118e-005
,,,-7.47500000e-009,6.00006618e-005
,,,-7.45000000e-009,5.85944117e-005
,,,-7.42500000e-009,5.81256617e-005
,,,-7.40000000e-009,6.00006618e-005
,,,-7.37500000e-009,6.23444118e-005
,,,-7.35000000e-009,6.65631618e-005
,,,-7.32500000e-009,7.07819119e-005
,,,-7.30000000e-009,7.45319119e-005
,,,-7.27500000e-009,7.64069119e-005
,,,-7.25000000e-009,7.50006619e-005
,,,-7.22500000e-009,6.98444118e-005
,,,-7.20000000e-009,6.00006618e-005
,,,-7.17500000e-009,4.64069116e-005
,,,-7.15000000e-009,2.95319115e-005
,,,-7.12500000e-009,1.07819113e-005
,,,-7.10000000e-009,-8.43683883e-006
,,,-7.07500000e-009,-2.67180890e-005
,,,-7.05000000e-009,-4.21868391e-005
,,,-7.02500000e-009,-5.39055892e-005
,,,-7.00000000e-009,-5.99993393e-005
,,,-6.97500000e-009,-5.81243393e-005
,,,-6.95000000e-009,-5.01555892e-005
,,,-6.92500000e-009,-3.70305891e-005
,,,-6.90000000e-009,-1.96868389e-005
,,,-6.87500000e-009,6.61239028e-010
,,,-6.85000000e-009,2.10944114e-005
,,,-6.82500000e-009,4.12506616e-005
,,,-6.80000000e-009,6.00006618e-005
,,,-6.77500000e-009,7.59381619e-005
,,,-6.75000000e-009,8.76569120e-005
,,,-6.72500000e-009,9.42194121e-005
,,,-6.70000000e-009,9.56256621e-005
,,,-6.67500000e-009,9.23444120e-005
,,,-6.65000000e-009,8.43756620e-005
,,,-6.62500000e-009,7.31256619e-005
,,,-6.60000000e-009,6.00006618e-005
,,,-6.57500000e-009,4.64069116e-005
,,,-6.55000000e-009,3.37506615e-005
,,,-6.52500000e-009,2.43756615e-005
,,,-6.50000000e-009,1.92194114e-005
,,,-6.47500000e-009,1.96881614e-005
,,,-6.45000000e-009,2.62506615e-005
,,,-6.42500000e-009,3.93756616e-005
,,,-6.40000000e-009,6.00006618e-005
,,,-6.37500000e-009,8.57819120e-005
,,,-6.35000000e-009,1.16719412e-004
,,,-6.32500000e-009,1.50000663e-004
,,,-6.30000000e-009,1.84688163e-004
,,,-6.27500000e-009,2.18906913e-004
,,,-6.25000000e-009,2.50313163e-004
,,,-6.22500000e-009,2.77500664e-004
,,,-6.20000000e-009,3.00000664e-004
,,,-6.17500000e-009,3.13594414e-004
,,,-6.15000000e-009,3.21094414e-004
,,,-6.12500000e-009,3.23438164e-004
,,,-6.10000000e-009,3.21563164e-004
,,,-6.07500000e-009,3.16875664e-004
,,,-6.05000000e-009,3.10781914e-004
,,,-6.02500000e-009,3.04688164e-004
,,,-6.00000000e-009,3.00000664e-004
,,,-5.97500000e-009,2.93438164e-004
,,,-5.95000000e-009,2.90156914e-004
,,,-5.92500000e-009,2.89219414e-004
,,,-5.90000000e-009,2.90156914e-004
,,,-5.87500000e-009,2.92969414e-004
,,,-5.85000000e-009,2.96250664e-004
,,,-5.82500000e-009,2.99063164e-004
,,,-5.80000000e-009,3.00000664e-004
,,,-5.77500000e-009,2.95313164e-004
,,,-5.75000000e-009,2.87344414e-004
,,,-5.72500000e-009,2.76094414e-004
,,,-5.70000000e-009,2.61563164e-004
,,,-5.67500000e-009,2.44219413e-004
,,,-5.65000000e-009,2.24063163e-004
,,,-5.62500000e-009,2.02500663e-004
,,,-5.60000000e-009,1.80000663e-004
,,,-5.57500000e-009,1.55156913e-004
,,,-5.55000000e-009,1.31719412e-004
,,,-5.52500000e-009,1.10156912e-004
,,,-5.50000000e-009,9.23444120e-005
,,,-5.47500000e-009,7.78131619e-005
,,,-5.45000000e-009,6.75006618e-005
,,,-5.42500000e-009,6.18756618e-005
,,,-5.40000000e-009,6.00006618e-005
,,,-5.37500000e-009,6.00006618e-005
,,,-5.35000000e-009,6.28131618e-005
,,,-5.32500000e-009,6.60944118e-005
,,,-5.30000000e-009,6.93756618e-005
,,,-5.27500000e-009,7.17194119e-005
,,,-5.25000000e-009,7.12506619e-005
,,,-5.22500000e-009,6.75006618e-005
,,,-5.20000000e-009,6.00006618e-005
,,,-5.17500000e-009,4.92194117e-005
,,,-5.15000000e-009,3.56256615e-005
,,,-5.12500000e-009,1.92194114e-005
,,,-5.10000000e-009,1.40691125e-006
,,,-5.07500000e-009,-1.68743389e-005
,,,-5.05000000e-009,-3.37493391e-005
,,,-5.02500000e-009,-4.87493392e-005
,,,-5.00000000e-009,-5.99993393e-005
,,,-4.97500000e-009,-6.51555893e-005
,,,-4.95000000e-009,-6.60930893e-005
,,,-4.92500000e-009,-6.46868393e-005
,,,-4.90000000e-009,-6.18743393e-005
,,,-4.87500000e-009,-5.85930893e-005
,,,-4.85000000e-009,-5.62493392e-005
,,,-4.82500000e-009,-5.67180893e-005
,,,-4.80000000e-009,-5.99993393e-005
,,,-4.77500000e-009,-6.46868393e-005
,,,-4.75000000e-009,-7.31243394e-005
,,,-4.72500000e-009,-8.57805895e-005
,,,-4.70000000e-009,-1.01718090e-004
,,,-4.67500000e-009,-1.20468090e-004
,,,-4.65000000e-009,-1.40624340e-004
,,,-4.62500000e-009,-1.60780590e-004
,,,-4.60000000e-009,-1.79999340e-004
,,,-4.57500000e-009,-1.93593090e-004
,,,-4.55000000e-009,-2.03436841e-004
,,,-4.52500000e-009,-2.09061841e-004
,,,-4.50000000e-009,-2.11405591e-004
,,,-4.47500000e-009,-2.09530591e-004
,,,-4.45000000e-009,-2.03436841e-004
,,,-4.42500000e-009,-1.93593090e-004
,,,-4.40000000e-009,-1.79999340e-004
,,,-4.37500000e-009,-1.59843090e-004
,,,-4.35000000e-009,-1.35936840e-004
,,,-4.32500000e-009,-1.09218090e-004
,,,-4.30000000e-009,-7.96868395e-005
,,,-4.27500000e-009,-4.73430892e-005
,,,-4.25000000e-009,-1.35930889e-005
,,,-4.22500000e-009,2.25006614e-005
,,,-4.20000000e-009,6.00006618e-005
,,,-4.17500000e-009,9.84381621e-005
,,,-4.15000000e-009,1.35938162e-004
,,,-4.12500000e-009,1.72500663e-004
,,,-4.10000000e-009,2.05781913e-004
,,,-4.07500000e-009,2.35781913e-004
,,,-4.05000000e-009,2.62031914e-004
,,,-4.02500000e-009,2.83594414e-004
,,,-4.00000000e-009,3.00000664e-004
,,,-3.97500000e-009,3.08438164e-004
,,,-3.95000000e-009,3.12656914e-004
,,,-3.92500000e-009,3.13594414e-004
,,,-3.90000000e-009,3.11719414e-004
,,,-3.87500000e-009,3.08906914e-004
,,,-3.85000000e-009,3.05156914e-004
,,,-3.82500000e-009,3.01875664e-004
,,,-3.80000000e-009,3.00000664e-004
,,,-3.77500000e-009,2.97188164e-004
,,,-3.75000000e-009,2.95781914e-004
,,,-3.72500000e-009,2.96250664e-004
,,,-3.70000000e-009,2.97656914e-004
,,,-3.67500000e-009,2.99063164e-004
,,,-3.65000000e-009,3.00469414e-004
,,,-3.62500000e-009,3.00938164e-004
,,,-3.60000000e-009,3.00000664e-004
,,,-3.57500000e-009,2.95313164e-004
,,,-3.55000000e-009,2.90625664e-004
,,,-3.52500000e-009,2.86406914e-004
,,,-3.50000000e-009,2.83594414e-004
,,,-3.47500000e-009,2.83594414e-004
,,,-3.45000000e-009,2.85938164e-004
,,,-3.42500000e-009,2.91563164e-004
,,,-3.40000000e-009,3.00000664e-004
,,,-3.37500000e-009,3.08438164e-004
,,,-3.35000000e-009,3.17813164e-004
,,,-3.32500000e-009,3.27188164e-004
,,,-3.30000000e-009,3.33750664e-004
,,,-3.27500000e-009,3.35625664e-004
,,,-3.25000000e-009,3.31406914e-004
,,,-3.22500000e-009,3.19688164e-004
,,,-3.20000000e-009,3.00000664e-004
,,,-3.17500000e-009,2.71875664e-004
,,,-3.15000000e-009,2.38594413e-004
,,,-3.12500000e-009,2.02031913e-004
,,,-3.10000000e-009,1.65000663e-004
,,,-3.07500000e-009,1.29375662e-004
,,,-3.05000000e-009,9.89069121e-005
,,,-3.02500000e-009,7.50006619e-005
,,,-3.00000000e-009,6.00006618e-005
,,,-2.97500000e-009,5.62506617e-005
,,,-2.95000000e-009,6.14069118e-005
,,,-2.92500000e-009,7.45319119e-005
,,,-2.90000000e-009,9.37506621e-005
,,,-2.87500000e-009,1.16250662e-004
,,,-2.85000000e-009,1.39688162e-004
,,,-2.82500000e-009,1.61250663e-004
,,,-2.80000000e-009,1.80000663e-004
,,,-2.77500000e-009,1.93594413e-004
,,,-2.75000000e-009,2.01563163e-004
,,,-2.72500000e-009,2.03906913e-004
,,,-2.70000000e-009,2.02031913e-004
,,,-2.67500000e-009,1.96406913e-004
,,,-2.65000000e-009,1.89844413e-004
,,,-2.62500000e-009,1.83750663e-004
,,,-2.60000000e-009,1.80000663e-004
,,,-2.57500000e-009,1.80000663e-004
,,,-2.55000000e-009,1.84688163e-004
,,,-2.52500000e-009,1.94063163e-004
,,,-2.50000000e-009,2.08594413e-004
,,,-2.47500000e-009,2.26875663e-004
,,,-2.45000000e-009,2.49375663e-004
,,,-2.42500000e-009,2.73750664e-004
,,,-2.40000000e-009,3.00000664e-004
,,,-2.37500000e-009,3.24375664e-004
,,,-2.35000000e-009,3.47344414e-004
,,,-2.32500000e-009,3.67969414e-004
,,,-2.30000000e-009,3.85781915e-004
,,,-2.27500000e-009,3.99844415e-004
,,,-2.25000000e-009,4.10625665e-004
,,,-2.22500000e-009,4.17188165e-004
,,,-2.20000000e-009,4.20000665e-004
,,,-2.17500000e-009,4.15313165e-004
,,,-2.15000000e-009,4.06875665e-004
,,,-2.12500000e-009,3.94688165e-004
,,,-2.10000000e-009,3.79688165e-004
,,,-2.07500000e-009,3.61875664e-004
,,,-2.05000000e-009,3.42188164e-004
,,,-2.02500000e-009,3.21094414e-004
,,,-2.00000000e-009,3.00000664e-004
,,,-1.97500000e-009,2.75625664e-004
,,,-1.95000000e-009,2.52656913e-004
,,,-1.92500000e-009,2.32031913e-004
,,,-1.90000000e-009,2.14219413e-004
,,,-1.87500000e-009,1.99688163e-004
,,,-1.85000000e-009,1.89375663e-004
,,,-1.82500000e-009,1.82813163e-004
,,,-1.80000000e-009,1.80000663e-004
,,,-1.77500000e-009,1.76719413e-004
,,,-1.75000000e-009,1.75313163e-004
,,,-1.72500000e-009,1.75313163e-004
,,,-1.70000000e-009,1.76719413e-004
,,,-1.67500000e-009,1.78594413e-004
,,,-1.65000000e-009,1.80000663e-004
,,,-1.62500000e-009,1.80469413e-004
,,,-1.60000000e-009,1.80000663e-004
,,,-1.57500000e-009,1.68750663e-004
,,,-1.55000000e-009,1.54688163e-004
,,,-1.52500000e-009,1.38281912e-004
,,,-1.50000000e-009,1.20938162e-004
,,,-1.47500000e-009,1.03125662e-004
,,,-1.45000000e-009,8.67194120e-005
,,,-1.42500000e-009,7.21881619e-005
,,,-1.40000000e-009,6.00006618e-005
,,,-1.37500000e-009,3.75006616e-005
,,,-1.35000000e-009,1.59381614e-005
,,,-1.32500000e-009,-4.21808880e-006
,,,-1.30000000e-009,-2.24993390e-005
,,,-1.27500000e-009,-3.74993391e-005
,,,-1.25000000e-009,-4.87493392e-005
,,,-1.22500000e-009,-5.62493392e-005
,,,-1.20000000e-009,-5.99993393e-005
,,,-1.17500000e-009,-7.82805894e-005
,,,-1.15000000e-009,-9.74993396e-005
,,,-1.12500000e-009,-1.16718090e-004
,,,-1.10000000e-009,-1.34999340e-004
,,,-1.07500000e-009,-1.50936840e-004
,,,-1.05000000e-009,-1.63593090e-004
,,,-1.02500000e-009,-1.72968090e-004
,,,-1.00000000e-009,-1.79999340e-004
,,,-9.75000000e-010,-2.08593091e-004
,,,-9.50000000e-010,-2.41874341e-004
,,,-9.25000000e-010,-2.79843091e-004
,,,-9.00000000e-010,-3.22499342e-004
,,,-8.75000000e-010,-3.69374342e-004
,,,-8.50000000e-010,-4.20936842e-004
,,,-8.25000000e-010,-4.77655593e-004
,,,-8.00000000e-010,-5.39999343e-004
,,,-7.75000000e-010,-6.34218094e-004
,,,-7.50000000e-010,-7.39686845e-004
,,,-7.25000000e-010,-8.55468096e-004
,,,-7.00000000e-010,-9.78280597e-004
,,,-6.75000000e-010,-1.10624935e-003
,,,-6.50000000e-010,-1.23703060e-003
,,,-6.25000000e-010,-1.36874935e-003
,,,-6.00000000e-010,-1.49999935e-003
,,,-5.75000000e-010,-1.64671810e-003
,,,-5.50000000e-010,-1.79624935e-003
,,,-5.25000000e-010,-1.94765561e-003
,,,-5.00000000e-010,-2.09953061e-003
,,,-4.75000000e-010,-2.25187436e-003
,,,-4.50000000e-010,-2.40281186e-003
,,,-4.25000000e-010,-2.55234311e-003
,,,-4.00000000e-010,-2.69999936e-003
,,,-3.75000000e-010,-2.84906186e-003
,,,-3.50000000e-010,-2.99999936e-003
,,,-3.25000000e-010,-3.15234312e-003
,,,-3.00000000e-010,-3.30468687e-003
,,,-2.75000000e-010,-3.45703062e-003
,,,-2.50000000e-010,-3.60703062e-003
,,,-2.25000000e-010,-3.75468687e-003
,,,-2.00000000e-010,-3.89999937e-003
,,,-1.75000000e-010,-4.03124937e-003
,,,-1.50000000e-010,-4.16531187e-003
,,,-1.25000000e-010,-4.30359313e-003
,,,-1.00000000e-010,-4.44843688e-003
,,,-7.50000000e-011,-4.60078063e-003
,,,-5.00000000e-011,-4.76062438e-003
,,,-2.50000000e-011,-4.92796813e-003
,,,0.00000000e+000,-5.09999938e-003
,,,2.50000000e-011,-5.24906188e-003
,,,5.00000000e-011,-5.40046814e-003
,,,7.50000000e-011,-5.55187439e-003
,,,1.00000000e-010,-5.69999939e-003
,,,1.25000000e-010,-5.84109314e-003
,,,1.50000000e-010,-5.97093689e-003
,,,1.75000000e-010,-6.08531189e-003
,,,2.00000000e-010,-6.17999939e-003
,,,2.25000000e-010,-6.21703064e-003
,,,2.50000000e-010,-6.23718689e-003
,,,2.75000000e-010,-6.24374939e-003
,,,3.00000000e-010,-6.23999939e-003
,,,3.25000000e-010,-6.22968689e-003
,,,3.50000000e-010,-6.21515564e-003
,,,3.75000000e-010,-6.19874939e-003
,,,4.00000000e-010,-6.17999939e-003
,,,4.25000000e-010,-6.12374939e-003
,,,4.50000000e-010,-6.06890564e-003
,,,4.75000000e-010,-6.01499939e-003
,,,5.00000000e-010,-5.96156189e-003
,,,5.25000000e-010,-5.90671814e-003
,,,5.50000000e-010,-5.84671814e-003
,,,5.75000000e-010,-5.77874939e-003
,,,6.00000000e-010,-5.69999939e-003
,,,6.25000000e-010,-5.58093689e-003
,,,6.50000000e-010,-5.45203064e-003
,,,6.75000000e-010,-5.31515563e-003
,,,7.00000000e-010,-5.17359313e-003
,,,7.25000000e-010,-5.03062438e-003
,,,7.50000000e-010,-4.88906188e-003
,,,7.75000000e-010,-4.75171813e-003
,,,8.00000000e-010,-4.61999938e-003
,,,8.25000000e-010,-4.48031188e-003
,,,8.50000000e-010,-4.34999938e-003
,,,8.75000000e-010,-4.22999938e-003
,,,9.00000000e-010,-4.12124937e-003
,,,9.25000000e-010,-4.02374937e-003
,,,9.50000000e-010,-3.93515562e-003
,,,9.75000000e-010,-3.85499937e-003
,,,1.00000000e-009,-3.77999937e-003
,,,1.02500000e-009,-3.70171812e-003
,,,1.05000000e-009,-3.62156187e-003
,,,1.07500000e-009,-3.53812437e-003
,,,1.10000000e-009,-3.45046812e-003
,,,1.12500000e-009,-3.35812437e-003
,,,1.15000000e-009,-3.26203062e-003
,,,1.17500000e-009,-3.16218687e-003
,,,1.20000000e-009,-3.05999937e-003
,,,1.22500000e-009,-2.96156186e-003
,,,1.25000000e-009,-2.85984311e-003
,,,1.27500000e-009,-2.75718686e-003
,,,1.30000000e-009,-2.65734311e-003
,,,1.32500000e-009,-2.56312436e-003
,,,1.35000000e-009,-2.47734311e-003
,,,1.37500000e-009,-2.40234311e-003
,,,1.40000000e-009,-2.33999936e-003
,,,1.42500000e-009,-2.30015561e-003
,,,1.45000000e-009,-2.26640561e-003
,,,1.47500000e-009,-2.23781186e-003
,,,1.50000000e-009,-2.21156186e-003
,,,1.52500000e-009,-2.18671811e-003
,,,1.55000000e-009,-2.16093686e-003
,,,1.57500000e-009,-2.13281186e-003
,,,1.60000000e-009,-2.09999936e-003
,,,1.62500000e-009,-2.07234311e-003
,,,1.65000000e-009,-2.03296811e-003
,,,1.67500000e-009,-1.98234311e-003
,,,1.70000000e-009,-1.92140561e-003
,,,1.72500000e-009,-1.85203060e-003
,,,1.75000000e-009,-1.77656185e-003
,,,1.77500000e-009,-1.69828060e-003
,,,1.80000000e-009,-1.61999935e-003
,,,1.82500000e-009,-1.55624935e-003
,,,1.85000000e-009,-1.49484310e-003
,,,1.87500000e-009,-1.43812435e-003
,,,1.90000000e-009,-1.38656185e-003
,,,1.92500000e-009,-1.34249935e-003
,,,1.95000000e-009,-1.30640560e-003
,,,1.97500000e-009,-1.27874935e-003
,,,2.00000000e-009,-1.25999935e-003
,,,2.02500000e-009,-1.26093685e-003
,,,2.05000000e-009,-1.26562435e-003
,,,2.07500000e-009,-1.27124935e-003
,,,2.10000000e-009,-1.27640560e-003
,,,2.12500000e-009,-1.27874935e-003
,,,2.15000000e-009,-1.27734310e-003
,,,2.17500000e-009,-1.27124935e-003
,,,2.20000000e-009,-1.25999935e-003
,,,2.22500000e-009,-1.25109310e-003
,,,2.25000000e-009,-1.23609310e-003
,,,2.27500000e-009,-1.21687435e-003
,,,2.30000000e-009,-1.19531185e-003
,,,2.32500000e-009,-1.17468685e-003
,,,2.35000000e-009,-1.15734310e-003
,,,2.37500000e-009,-1.14515560e-003
,,,2.40000000e-009,-1.13999935e-003
,,,2.42500000e-009,-1.14749935e-003
,,,2.45000000e-009,-1.16062435e-003
,,,2.47500000e-009,-1.17749935e-003
,,,2.50000000e-009,-1.19671810e-003
,,,2.52500000e-009,-1.21593685e-003
,,,2.55000000e-009,-1.23421810e-003
,,,2.57500000e-009,-1.24874935e-003
,,,2.60000000e-009,-1.25999935e-003
,,,2.62500000e-009,-1.26984310e-003
,,,2.65000000e-009,-1.27546810e-003
,,,2.67500000e-009,-1.28015560e-003
,,,2.70000000e-009,-1.28624935e-003
,,,2.72500000e-009,-1.29703060e-003
,,,2.75000000e-009,-1.31531185e-003
,,,2.77500000e-009,-1.34296810e-003
,,,2.80000000e-009,-1.37999935e-003
,,,2.82500000e-009,-1.42359310e-003
,,,2.85000000e-009,-1.47187435e-003
,,,2.87500000e-009,-1.52015560e-003
,,,2.90000000e-009,-1.56515560e-003
,,,2.92500000e-009,-1.60124935e-003
,,,2.95000000e-009,-1.62468685e-003
,,,2.97500000e-009,-1.63171810e-003
,,,3.00000000e-009,-1.61999935e-003
,,,3.02500000e-009,-1.58296810e-003
,,,3.05000000e-009,-1.52859310e-003
,,,3.07500000e-009,-1.46203060e-003
,,,3.10000000e-009,-1.38843685e-003
,,,3.12500000e-009,-1.31390560e-003
,,,3.15000000e-009,-1.24406185e-003
,,,3.17500000e-009,-1.18499935e-003
,,,3.20000000e-009,-1.13999935e-003
,,,3.22500000e-009,-1.10812435e-003
,,,3.25000000e-009,-1.09171810e-003
,,,3.27500000e-009,-1.08843685e-003
,,,3.30000000e-009,-1.09593685e-003
,,,3.32500000e-009,-1.10953060e-003
,,,3.35000000e-009,-1.12406185e-003
,,,3.37500000e-009,-1.13578060e-003
,,,3.40000000e-009,-1.13999935e-003
,,,3.42500000e-009,-1.13203060e-003
,,,3.45000000e-009,-1.11328060e-003
,,,3.47500000e-009,-1.08468685e-003
,,,3.50000000e-009,-1.04953060e-003
,,,3.52500000e-009,-1.00968685e-003
,,,3.55000000e-009,-9.69843097e-004
,,,3.57500000e-009,-9.32343097e-004
,,,3.60000000e-009,-8.99999347e-004
,,,3.62500000e-009,-8.72343096e-004
,,,3.65000000e-009,-8.50780596e-004
,,,3.67500000e-009,-8.35311846e-004
,,,3.70000000e-009,-8.24530596e-004
,,,3.72500000e-009,-8.15624346e-004
,,,3.75000000e-009,-8.07186846e-004
,,,3.77500000e-009,-7.95936846e-004
,,,3.80000000e-009,-7.79999346e-004
,,,3.82500000e-009,-7.57499345e-004
,,,3.85000000e-009,-7.26093095e-004
,,,3.87500000e-009,-6.86718095e-004
,,,3.90000000e-009,-6.39843094e-004
,,,3.92500000e-009,-5.87343094e-004
,,,3.95000000e-009,-5.31561843e-004
,,,3.97500000e-009,-4.74843093e-004
,,,4.00000000e-009,-4.19999342e-004
,,,4.02500000e-009,-3.73593092e-004
,,,4.05000000e-009,-3.33280592e-004
,,,4.07500000e-009,-3.00936841e-004
,,,4.10000000e-009,-2.78905591e-004
,,,4.12500000e-009,-2.67655591e-004
,,,4.15000000e-009,-2.67655591e-004
,,,4.17500000e-009,-2.78905591e-004
,,,4.20000000e-009,-2.99999341e-004
,,,4.22500000e-009,-3.30468092e-004
,,,4.25000000e-009,-3.63749342e-004
,,,4.27500000e-009,-3.95155592e-004
,,,4.30000000e-009,-4.21874342e-004
,,,4.32500000e-009,-4.40155593e-004
,,,4.35000000e-009,-4.46718093e-004
,,,4.37500000e-009,-4.40624343e-004
,,,4.40000000e-009,-4.19999342e-004
,,,4.42500000e-009,-3.89061842e-004
,,,4.45000000e-009,-3.45936842e-004
,,,4.47500000e-009,-2.94374341e-004
,,,4.50000000e-009,-2.38593091e-004
,,,4.52500000e-009,-1.83280590e-004
,,,4.55000000e-009,-1.32186840e-004
,,,4.57500000e-009,-9.04680895e-005
,,,4.60000000e-009,-5.99993393e-005
,,,4.62500000e-009,-4.78118392e-005
,,,4.65000000e-009,-4.82805892e-005
,,,4.67500000e-009,-6.04680893e-005
,,,4.70000000e-009,-8.06243395e-005
,,,4.72500000e-009,-1.06874340e-004
,,,4.75000000e-009,-1.34061840e-004
,,,4.77500000e-009,-1.59843090e-004
,,,4.80000000e-009,-1.79999340e-004
,,,4.82500000e-009,-1.95468090e-004
,,,4.85000000e-009,-2.00624341e-004
,,,4.87500000e-009,-1.94999340e-004
,,,4.90000000e-009,-1.79999340e-004
,,,4.92500000e-009,-1.56093090e-004
,,,4.95000000e-009,-1.26093090e-004
,,,4.97500000e-009,-9.32805896e-005
,,,5.00000000e-009,-5.99993393e-005
,,,5.02500000e-009,-3.23430890e-005
,,,5.05000000e-009,-9.37433884e-006
,,,5.07500000e-009,5.62566129e-006
,,,5.10000000e-009,1.12506613e-005
,,,5.12500000e-009,7.50066130e-006
,,,5.15000000e-009,-6.09308881e-006
,,,5.17500000e-009,-2.90618390e-005
,,,5.20000000e-009,-5.99993393e-005
,,,5.22500000e-009,-9.93743396e-005
,,,5.25000000e-009,-1.41561840e-004
,,,5.27500000e-009,-1.83280590e-004
,,,5.30000000e-009,-2.22186841e-004
,,,5.32500000e-009,-2.55468091e-004
,,,5.35000000e-009,-2.80311841e-004
,,,5.37500000e-009,-2.95311841e-004
,,,5.40000000e-009,-2.99999341e-004
,,,5.42500000e-009,-2.94374341e-004
,,,5.45000000e-009,-2.79843091e-004
,,,5.47500000e-009,-2.59218091e-004
,,,5.50000000e-009,-2.36249341e-004
,,,5.52500000e-009,-2.13749341e-004
,,,5.55000000e-009,-1.94999340e-004
,,,5.57500000e-009,-1.83280590e-004
,,,5.60000000e-009,-1.79999340e-004
,,,5.62500000e-009,-1.84686840e-004
,,,5.65000000e-009,-1.96874340e-004
,,,5.67500000e-009,-2.15624341e-004
,,,5.70000000e-009,-2.38124341e-004
,,,5.72500000e-009,-2.60624341e-004
,,,5.75000000e-009,-2.80311841e-004
,,,5.77500000e-009,-2.94374341e-004
,,,5.80000000e-009,-2.99999341e-004
,,,5.82500000e-009,-2.95780591e-004
,,,5.85000000e-009,-2.83593091e-004
,,,5.87500000e-009,-2.64843091e-004
,,,5.90000000e-009,-2.42811841e-004
,,,5.92500000e-009,-2.20311841e-004
,,,5.95000000e-009,-2.00155591e-004
