RawData/SinglePhotoelectron/L1_2pt2A_5mV/wave014_Ch1.csv

"Record Length",1000,"Points",-7.72500000e-009,2.92031914e-004
"Sample Interval",2.50000000e-011,s,-7.70000000e-009,2.88281914e-004
"Trigger Point",309,"Samples",-7.67500000e-009,2.86406914e-004
"Trigger Time",8.32232558e-012,s,-7.65000000e-009,2.86875664e-004
"",,,-7.62500000e-009,2.91094414e-004
"Horizontal Offset",-7.72500000e-009,s,-7.60000000e-009,3.00000664e-004
,,,-7.57500000e-009,3.09375664e-004
,,,-7.55000000e-009,3.22969414e-004
,,,-7.52500000e-009,3.39375664e-004
,,,-7.50000000e-009,3.58125664e-004
,,,-7.47500000e-009,3.76875665e-004
,,,-7.45000000e-009,3.94688165e-004
,,,-7.42500000e-009,4.09219415e-004
,,,-7.40000000e-009,4.20000665e-004
,,,-7.37500000e-009,4.20469415e-004
,,,-7.35000000e-009,4.15313165e-004
,,,-7.32500000e-009,4.05000665e-004
,,,-7.30000000e-009,3.89531915e-004
,,,-7.27500000e-009,3.69844414e-004
,,,-7.25000000e-009,3.47813164e-004
,,,-7.22500000e-009,3.23906914e-004
,,,-7.20000000e-009,3.00000664e-004
,,,-7.17500000e-009,2.73750664e-004
,,,-7.15000000e-009,2.49844413e-004
,,,-7.12500000e-009,2.28750663e-004
,,,-7.10000000e-009,2.11406913e-004
,,,-7.07500000e-009,1.97813163e-004
,,,-7.05000000e-009,1.88438163e-004
,,,-7.02500000e-009,1.82344413e-004
,,,-7.00000000e-009,1.80000663e-004
,,,-6.97500000e-009,1.78125663e-004
,,,-6.95000000e-009,1.77656913e-004
,,,-6.92500000e-009,1.78594413e-004
,,,-6.90000000e-009,1.80469413e-004
,,,-6.87500000e-009,1.81875663e-004
,,,-6.85000000e-009,1.82344413e-004
,,,-6.82500000e-009,1.81875663e-004
,,,-6.80000000e-009,1.80000663e-004
,,,-6.77500000e-009,1.73906913e-004
,,,-6.75000000e-009,1.65469413e-004
,,,-6.72500000e-009,1.53750663e-004
,,,-6.70000000e-009,1.39219412e-004
,,,-6.67500000e-009,1.22344412e-004
,,,-6.65000000e-009,1.02656912e-004
,,,-6.62500000e-009,8.15631619e-005
,,,-6.60000000e-009,6.00006618e-005
,,,-6.57500000e-009,3.65631616e-005
,,,-6.55000000e-009,1.35944114e-005
,,,-6.52500000e-009,-7.49933883e-006
,,,-6.50000000e-009,-2.62493390e-005
,,,-6.47500000e-009,-4.12493391e-005
,,,-6.45000000e-009,-5.20305892e-005
,,,-6.42500000e-009,-5.85930893e-005
,,,-6.40000000e-009,-5.99993393e-005
,,,-6.37500000e-009,-5.76555893e-005
,,,-6.35000000e-009,-5.29680892e-005
,,,-6.32500000e-009,-4.78118392e-005
,,,-6.30000000e-009,-4.40618391e-005
,,,-6.27500000e-009,-4.21868391e-005
,,,-6.25000000e-009,-4.40618391e-005
,,,-6.22500000e-009,-4.96868392e-005
,,,-6.20000000e-009,-5.99993393e-005
,,,-6.17500000e-009,-7.40618394e-005
,,,-6.15000000e-009,-9.14055896e-005
,,,-6.12500000e-009,-1.10624340e-004
,,,-6.10000000e-009,-1.30311840e-004
,,,-6.07500000e-009,-1.49061840e-004
,,,-6.05000000e-009,-1.64061840e-004
,,,-6.02500000e-009,-1.74843090e-004
,,,-6.00000000e-009,-1.79999340e-004
,,,-5.97500000e-009,-1.78593090e-004
,,,-5.95000000e-009,-1.73436840e-004
,,,-5.92500000e-009,-1.66405590e-004
,,,-5.90000000e-009,-1.59843090e-004
,,,-5.87500000e-009,-1.55624340e-004
,,,-5.85000000e-009,-1.57030590e-004
,,,-5.82500000e-009,-1.64530590e-004
,,,-5.80000000e-009,-1.79999340e-004
,,,-5.77500000e-009,-2.00624341e-004
,,,-5.75000000e-009,-2.27811841e-004
,,,-5.72500000e-009,-2.60624341e-004
,,,-5.70000000e-009,-2.96718091e-004
,,,-5.67500000e-009,-3.33280592e-004
,,,-5.65000000e-009,-3.67968092e-004
,,,-5.62500000e-009,-3.97499342e-004
,,,-5.60000000e-009,-4.19999342e-004
,,,-5.57500000e-009,-4.29374342e-004
,,,-5.55000000e-009,-4.28905592e-004
,,,-5.52500000e-009,-4.19999342e-004
,,,-5.50000000e-009,-4.03593092e-004
,,,-5.47500000e-009,-3.81561842e-004
,,,-5.45000000e-009,-3.55311842e-004
,,,-5.42500000e-009,-3.27655592e-004
,,,-5.40000000e-009,-2.99999341e-004
,,,-5.37500000e-009,-2.72811841e-004
,,,-5.35000000e-009,-2.48905591e-004
,,,-5.32500000e-009,-2.28749341e-004
,,,-5.30000000e-009,-2.13280591e-004
,,,-5.27500000e-009,-2.01561841e-004
,,,-5.25000000e-009,-1.92655590e-004
,,,-5.22500000e-009,-1.86093090e-004
,,,-5.20000000e-009,-1.79999340e-004
,,,-5.17500000e-009,-1.72968090e-004
,,,-5.15000000e-009,-1.64530590e-004
,,,-5.12500000e-009,-1.54686840e-004
,,,-5.10000000e-009,-1.41561840e-004
,,,-5.07500000e-009,-1.26093090e-004
,,,-5.05000000e-009,-1.07343090e-004
,,,-5.02500000e-009,-8.53118395e-005
,,,-5.00000000e-009,-5.99993393e-005
,,,-4.97500000e-009,-3.37493391e-005
,,,-4.95000000e-009,-4.68683880e-006
,,,-4.92500000e-009,2.53131615e-005
,,,-4.90000000e-009,5.71881617e-005
,,,-4.87500000e-009,8.90631620e-005
,,,-4.85000000e-009,1.20938162e-004
,,,-4.82500000e-009,1.51406913e-004
,,,-4.80000000e-009,1.80000663e-004
,,,-4.77500000e-009,2.01563163e-004
,,,-4.75000000e-009,2.18906913e-004
,,,-4.72500000e-009,2.30156913e-004
,,,-4.70000000e-009,2.34844413e-004
,,,-4.67500000e-009,2.32500663e-004
,,,-4.65000000e-009,2.22188163e-004
,,,-4.62500000e-009,2.04375663e-004
,,,-4.60000000e-009,1.80000663e-004
,,,-4.57500000e-009,1.46719413e-004
,,,-4.55000000e-009,1.10625662e-004
,,,-4.52500000e-009,7.35944119e-005
,,,-4.50000000e-009,3.79694116e-005
,,,-4.47500000e-009,5.62566129e-006
,,,-4.45000000e-009,-2.24993390e-005
,,,-4.42500000e-009,-4.45305891e-005
,,,-4.40000000e-009,-5.99993393e-005
,,,-4.37500000e-009,-6.98430894e-005
,,,-4.35000000e-009,-7.31243394e-005
,,,-4.32500000e-009,-7.12493394e-005
,,,-4.30000000e-009,-6.70305893e-005
,,,-4.27500000e-009,-6.14055893e-005
,,,-4.25000000e-009,-5.76555893e-005
,,,-4.22500000e-009,-5.67180893e-005
,,,-4.20000000e-009,-5.99993393e-005
,,,-4.17500000e-009,-6.93743394e-005
,,,-4.15000000e-009,-8.24993395e-005
,,,-4.12500000e-009,-9.98430896e-005
,,,-4.10000000e-009,-1.19061840e-004
,,,-4.07500000e-009,-1.38749340e-004
,,,-4.05000000e-009,-1.56561840e-004
,,,-4.02500000e-009,-1.71093090e-004
,,,-4.00000000e-009,-1.79999340e-004
,,,-3.97500000e-009,-1.81874340e-004
,,,-3.95000000e-009,-1.76718090e-004
,,,-3.92500000e-009,-1.65468090e-004
,,,-3.90000000e-009,-1.49530590e-004
,,,-3.87500000e-009,-1.29374340e-004
,,,-3.85000000e-009,-1.06874340e-004
,,,-3.82500000e-009,-8.34368395e-005
,,,-3.80000000e-009,-5.99993393e-005
,,,-3.77500000e-009,-3.79680891e-005
,,,-3.75000000e-009,-1.82805889e-005
,,,-3.72500000e-009,-9.36838769e-007
,,,-3.70000000e-009,1.35944114e-005
,,,-3.67500000e-009,2.62506615e-005
,,,-3.65000000e-009,3.79694116e-005
,,,-3.62500000e-009,4.92194117e-005
,,,-3.60000000e-009,6.00006618e-005
,,,-3.57500000e-009,7.03131619e-005
,,,-3.55000000e-009,7.96881619e-005
,,,-3.52500000e-009,8.67194120e-005
,,,-3.50000000e-009,9.04694120e-005
,,,-3.47500000e-009,9.04694120e-005
,,,-3.45000000e-009,8.53131620e-005
,,,-3.42500000e-009,7.50006619e-005
,,,-3.40000000e-009,6.00006618e-005
,,,-3.37500000e-009,3.93756616e-005
,,,-3.35000000e-009,1.64069114e-005
,,,-3.32500000e-009,-7.03058882e-006
,,,-3.30000000e-009,-2.90618390e-005
,,,-3.27500000e-009,-4.68743392e-005
,,,-3.25000000e-009,-5.85930893e-005
,,,-3.22500000e-009,-6.32805893e-005
,,,-3.20000000e-009,-5.99993393e-005
,,,-3.17500000e-009,-4.96868392e-005
,,,-3.15000000e-009,-3.28118390e-005
,,,-3.12500000e-009,-1.21868389e-005
,,,-3.10000000e-009,9.84441132e-006
,,,-3.07500000e-009,3.04694115e-005
,,,-3.05000000e-009,4.73444117e-005
,,,-3.02500000e-009,5.71881617e-005
,,,-3.00000000e-009,6.00006618e-005
,,,-2.97500000e-009,5.34381617e-005
,,,-2.95000000e-009,3.98444116e-005
,,,-2.92500000e-009,2.10944114e-005
,,,-2.90000000e-009,6.61239028e-010
,,,-2.87500000e-009,-2.15618389e-005
,,,-2.85000000e-009,-4.03118391e-005
,,,-2.82500000e-009,-5.39055892e-005
,,,-2.80000000e-009,-5.99993393e-005
,,,-2.77500000e-009,-5.81243393e-005
,,,-2.75000000e-009,-4.87493392e-005
,,,-2.72500000e-009,-3.28118390e-005
,,,-2.70000000e-009,-1.26555889e-005
,,,-2.67500000e-009,9.37566132e-006
,,,-2.65000000e-009,3.04694115e-005
,,,-2.62500000e-009,4.78131617e-005
,,,-2.60000000e-009,6.00006618e-005
,,,-2.57500000e-009,6.42194118e-005
,,,-2.55000000e-009,6.09381618e-005
,,,-2.52500000e-009,5.01569117e-005
,,,-2.50000000e-009,3.32819115e-005
,,,-2.47500000e-009,1.12506613e-005
,,,-2.45000000e-009,-1.26555889e-005
,,,-2.42500000e-009,-3.74993391e-005
,,,-2.40000000e-009,-5.99993393e-005
,,,-2.37500000e-009,-7.87493394e-005
,,,-2.35000000e-009,-9.28118396e-005
,,,-2.32500000e-009,-1.00780590e-004
,,,-2.30000000e-009,-1.02655590e-004
,,,-2.27500000e-009,-9.89055896e-005
,,,-2.25000000e-009,-8.99993395e-005
,,,-2.22500000e-009,-7.68743394e-005
,,,-2.20000000e-009,-5.99993393e-005
,,,-2.17500000e-009,-4.21868391e-005
,,,-2.15000000e-009,-2.34368390e-005
,,,-2.12500000e-009,-5.15558881e-006
,,,-2.10000000e-009,1.21881613e-005
,,,-2.07500000e-009,2.76569115e-005
,,,-2.05000000e-009,4.07819116e-005
,,,-2.02500000e-009,5.15631617e-005
,,,-2.00000000e-009,6.00006618e-005
,,,-1.97500000e-009,6.42194118e-005
,,,-1.95000000e-009,6.60944118e-005
,,,-1.92500000e-009,6.60944118e-005
,,,-1.90000000e-009,6.46881618e-005
,,,-1.87500000e-009,6.28131618e-005
,,,-1.85000000e-009,6.14069118e-005
,,,-1.82500000e-009,6.00006618e-005
,,,-1.80000000e-009,6.00006618e-005
,,,-1.77500000e-009,5.67194117e-005
,,,-1.75000000e-009,5.43756617e-005
,,,-1.72500000e-009,5.34381617e-005
,,,-1.70000000e-009,5.34381617e-005
,,,-1.67500000e-009,5.43756617e-005
,,,-1.65000000e-009,5.62506617e-005
,,,-1.62500000e-009,5.85944117e-005
,,,-1.60000000e-009,6.00006618e-005
,,,-1.57500000e-009,5.34381617e-005
,,,-1.55000000e-009,4.40631616e-005
,,,-1.52500000e-009,3.18756615e-005
,,,-1.50000000e-009,1.64069114e-005
,,,-1.47500000e-009,-9.36838769e-007
,,,-1.45000000e-009,-1.96868389e-005
,,,-1.42500000e-009,-3.98430891e-005
,,,-1.40000000e-009,-5.99993393e-005
,,,-1.37500000e-009,-9.18743396e-005
,,,-1.35000000e-009,-1.23280590e-004
,,,-1.32500000e-009,-1.51874340e-004
,,,-1.30000000e-009,-1.75311840e-004
,,,-1.27500000e-009,-1.90780590e-004
,,,-1.25000000e-009,-1.96874340e-004
,,,-1.22500000e-009,-1.93124340e-004
,,,-1.20000000e-009,-1.79999340e-004
,,,-1.17500000e-009,-1.76718090e-004
,,,-1.15000000e-009,-1.70624340e-004
,,,-1.12500000e-009,-1.64061840e-004
,,,-1.10000000e-009,-1.58436840e-004
,,,-1.07500000e-009,-1.55624340e-004
,,,-1.05000000e-009,-1.57030590e-004
,,,-1.02500000e-009,-1.64999340e-004
,,,-1.00000000e-009,-1.79999340e-004
,,,-9.75000000e-010,-2.26874341e-004
,,,-9.50000000e-010,-2.84999341e-004
,,,-9.25000000e-010,-3.50624342e-004
,,,-9.00000000e-010,-4.20468092e-004
,,,-8.75000000e-010,-4.89374343e-004
,,,-8.50000000e-010,-5.53593094e-004
,,,-8.25000000e-010,-6.10780594e-004
,,,-8.00000000e-010,-6.59999344e-004
,,,-7.75000000e-010,-7.26093095e-004
,,,-7.50000000e-010,-7.90780596e-004
,,,-7.25000000e-010,-8.55936846e-004
,,,-7.00000000e-010,-9.22968097e-004
,,,-6.75000000e-010,-9.94686847e-004
,,,-6.50000000e-010,-1.07296810e-003
,,,-6.25000000e-010,-1.16062435e-003
,,,-6.00000000e-010,-1.25999935e-003
,,,-5.75000000e-010,-1.39499935e-003
,,,-5.50000000e-010,-1.54734310e-003
,,,-5.25000000e-010,-1.71328060e-003
,,,-5.00000000e-010,-1.88859311e-003
,,,-4.75000000e-010,-2.06765561e-003
,,,-4.50000000e-010,-2.24531186e-003
,,,-4.25000000e-010,-2.41687436e-003
,,,-4.00000000e-010,-2.57999936e-003
,,,-3.75000000e-010,-2.74546811e-003
,,,-3.50000000e-010,-2.90531186e-003
,,,-3.25000000e-010,-3.05906187e-003
,,,-3.00000000e-010,-3.20765562e-003
,,,-2.75000000e-010,-3.35249937e-003
,,,-2.50000000e-010,-3.49499937e-003
,,,-2.25000000e-010,-3.63703062e-003
,,,-2.00000000e-010,-3.77999937e-003
,,,-1.75000000e-010,-3.92953062e-003
,,,-1.50000000e-010,-4.08749937e-003
,,,-1.25000000e-010,-4.25343688e-003
,,,-1.00000000e-010,-4.42453063e-003
,,,-7.50000000e-011,-4.59843688e-003
,,,-5.00000000e-011,-4.77093688e-003
,,,-2.50000000e-011,-4.93874938e-003
,,,0.00000000e+000,-5.09999938e-003
,,,2.50000000e-011,-5.24390563e-003
,,,5.00000000e-011,-5.38453064e-003
,,,7.50000000e-011,-5.52234314e-003
,,,1.00000000e-010,-5.65828064e-003
,,,1.25000000e-010,-5.79187439e-003
,,,1.50000000e-010,-5.92359314e-003
,,,1.75000000e-010,-6.05296814e-003
,,,2.00000000e-010,-6.17999939e-003
,,,2.25000000e-010,-6.28546814e-003
,,,2.50000000e-010,-6.39328064e-003
,,,2.75000000e-010,-6.50296815e-003
,,,3.00000000e-010,-6.61406190e-003
,,,3.25000000e-010,-6.72374940e-003
,,,3.50000000e-010,-6.82968690e-003
,,,3.75000000e-010,-6.92953065e-003
,,,4.00000000e-010,-7.01999940e-003
,,,4.25000000e-010,-7.07390565e-003
,,,4.50000000e-010,-7.12265565e-003
,,,4.75000000e-010,-7.16859315e-003
,,,5.00000000e-010,-7.21218690e-003
,,,5.25000000e-010,-7.25531190e-003
,,,5.50000000e-010,-7.29749940e-003
,,,5.75000000e-010,-7.33921815e-003
,,,6.00000000e-010,-7.37999940e-003
,,,6.25000000e-010,-7.39124940e-003
,,,6.50000000e-010,-7.40531190e-003
,,,6.75000000e-010,-7.42124940e-003
,,,7.00000000e-010,-7.43953065e-003
,,,7.25000000e-010,-7.45828065e-003
,,,7.50000000e-010,-7.47609315e-003
,,,7.75000000e-010,-7.49062440e-003
,,,8.00000000e-010,-7.49999940e-003
,,,8.25000000e-010,-7.47562440e-003
,,,8.50000000e-010,-7.44703065e-003
,,,8.75000000e-010,-7.41609315e-003
,,,9.00000000e-010,-7.38374940e-003
,,,9.25000000e-010,-7.35187440e-003
,,,9.50000000e-010,-7.32046815e-003
,,,9.75000000e-010,-7.28999940e-003
,,,1.00000000e-009,-7.25999940e-003
,,,1.02500000e-009,-7.20703065e-003
,,,1.05000000e-009,-7.15312440e-003
,,,1.07500000e-009,-7.09828065e-003
,,,1.10000000e-009,-7.04203065e-003
,,,1.12500000e-009,-6.98296815e-003
,,,1.15000000e-009,-6.92015565e-003
,,,1.17500000e-009,-6.85312440e-003
,,,1.20000000e-009,-6.77999940e-003
,,,1.22500000e-009,-6.68671815e-003
,,,1.25000000e-009,-6.58828065e-003
,,,1.27500000e-009,-6.48843690e-003
,,,1.30000000e-009,-6.38999939e-003
,,,1.32500000e-009,-6.29531189e-003
,,,1.35000000e-009,-6.20812439e-003
,,,1.37500000e-009,-6.12937439e-003
,,,1.40000000e-009,-6.05999939e-003
,,,1.42500000e-009,-5.99109314e-003
,,,1.45000000e-009,-5.92781189e-003
,,,1.47500000e-009,-5.86921814e-003
,,,1.50000000e-009,-5.81296814e-003
,,,1.52500000e-009,-5.75812439e-003
,,,1.55000000e-009,-5.70234314e-003
,,,1.57500000e-009,-5.64328064e-003
,,,1.60000000e-009,-5.57999939e-003
,,,1.62500000e-009,-5.50546814e-003
,,,1.65000000e-009,-5.42156189e-003
,,,1.67500000e-009,-5.32968689e-003
,,,1.70000000e-009,-5.23312438e-003
,,,1.72500000e-009,-5.13468688e-003
,,,1.75000000e-009,-5.03765563e-003
,,,1.77500000e-009,-4.94531188e-003
,,,1.80000000e-009,-4.85999938e-003
,,,1.82500000e-009,-4.78124938e-003
,,,1.85000000e-009,-4.70765563e-003
,,,1.87500000e-009,-4.63968688e-003
,,,1.90000000e-009,-4.57734313e-003
,,,1.92500000e-009,-4.52062438e-003
,,,1.95000000e-009,-4.46953063e-003
,,,1.97500000e-009,-4.42359313e-003
,,,2.00000000e-009,-4.37999938e-003
,,,2.02500000e-009,-4.33734313e-003
,,,2.05000000e-009,-4.28906188e-003
,,,2.07500000e-009,-4.23515563e-003
,,,2.10000000e-009,-4.17562438e-003
,,,2.12500000e-009,-4.11093687e-003
,,,2.15000000e-009,-4.04296812e-003
,,,2.17500000e-009,-3.97218687e-003
,,,2.20000000e-009,-3.89999937e-003
,,,2.22500000e-009,-3.82687437e-003
,,,2.25000000e-009,-3.74999937e-003
,,,2.27500000e-009,-3.67031187e-003
,,,2.30000000e-009,-3.59015562e-003
,,,2.32500000e-009,-3.51140562e-003
,,,2.35000000e-009,-3.43593687e-003
,,,2.37500000e-009,-3.36515562e-003
,,,2.40000000e-009,-3.29999937e-003
,,,2.42500000e-009,-3.23999937e-003
,,,2.45000000e-009,-3.18046812e-003
,,,2.47500000e-009,-3.12140562e-003
,,,2.50000000e-009,-3.06187437e-003
,,,2.52500000e-009,-3.00187436e-003
,,,2.55000000e-009,-2.94187436e-003
,,,2.57500000e-009,-2.88140561e-003
,,,2.60000000e-009,-2.81999936e-003
,,,2.62500000e-009,-2.75906186e-003
,,,2.65000000e-009,-2.69249936e-003
,,,2.67500000e-009,-2.61984311e-003
,,,2.70000000e-009,-2.54296811e-003
,,,2.72500000e-009,-2.46234311e-003
,,,2.75000000e-009,-2.38078061e-003
,,,2.77500000e-009,-2.29968686e-003
,,,2.80000000e-009,-2.21999936e-003
,,,2.82500000e-009,-2.14781186e-003
,,,2.85000000e-009,-2.07656186e-003
,,,2.87500000e-009,-2.00765561e-003
,,,2.90000000e-009,-1.94296811e-003
,,,2.92500000e-009,-1.88296811e-003
,,,2.95000000e-009,-1.82906185e-003
,,,2.97500000e-009,-1.78171810e-003
,,,3.00000000e-009,-1.73999935e-003
,,,3.02500000e-009,-1.70812435e-003
,,,3.05000000e-009,-1.67531185e-003
,,,3.07500000e-009,-1.63921810e-003
,,,3.10000000e-009,-1.59937435e-003
,,,3.12500000e-009,-1.55390560e-003
,,,3.15000000e-009,-1.50187435e-003
,,,3.17500000e-009,-1.44421810e-003
,,,3.20000000e-009,-1.37999935e-003
,,,3.22500000e-009,-1.31812435e-003
,,,3.25000000e-009,-1.25062435e-003
,,,3.27500000e-009,-1.17984310e-003
,,,3.30000000e-009,-1.10953060e-003
,,,3.32500000e-009,-1.04343685e-003
,,,3.35000000e-009,-9.84374347e-004
,,,3.37500000e-009,-9.36093097e-004
,,,3.40000000e-009,-8.99999347e-004
,,,3.42500000e-009,-8.84530596e-004
,,,3.45000000e-009,-8.77968096e-004
,,,3.47500000e-009,-8.78436846e-004
,,,3.50000000e-009,-8.84061846e-004
,,,3.52500000e-009,-8.91561847e-004
,,,3.55000000e-009,-8.98124347e-004
,,,3.57500000e-009,-9.01874347e-004
,,,3.60000000e-009,-8.99999347e-004
,,,3.62500000e-009,-8.96718097e-004
,,,3.65000000e-009,-8.82655596e-004
,,,3.67500000e-009,-8.59218096e-004
,,,3.70000000e-009,-8.26405596e-004
,,,3.72500000e-009,-7.87499346e-004
,,,3.75000000e-009,-7.44843095e-004
,,,3.77500000e-009,-7.01718095e-004
,,,3.80000000e-009,-6.59999344e-004
,,,3.82500000e-009,-6.27655594e-004
,,,3.85000000e-009,-5.99061844e-004
,,,3.87500000e-009,-5.76093094e-004
,,,3.90000000e-009,-5.58280594e-004
,,,3.92500000e-009,-5.46093094e-004
,,,3.95000000e-009,-5.39530593e-004
,,,3.97500000e-009,-5.38124343e-004
,,,4.00000000e-009,-5.39999343e-004
,,,4.02500000e-009,-5.48436844e-004
,,,4.05000000e-009,-5.56405594e-004
,,,4.07500000e-009,-5.62499344e-004
,,,4.10000000e-009,-5.65311844e-004
,,,4.12500000e-009,-5.64843094e-004
,,,4.15000000e-009,-5.60624344e-004
,,,4.17500000e-009,-5.52186844e-004
,,,4.20000000e-009,-5.39999343e-004
,,,4.22500000e-009,-5.27343093e-004
,,,4.25000000e-009,-5.11874343e-004
,,,4.27500000e-009,-4.93593093e-004
,,,4.30000000e-009,-4.75311843e-004
,,,4.32500000e-009,-4.57499343e-004
,,,4.35000000e-009,-4.41561843e-004
,,,4.37500000e-009,-4.28905592e-004
,,,4.40000000e-009,-4.19999342e-004
,,,4.42500000e-009,-4.18124342e-004
,,,4.45000000e-009,-4.19061842e-004
,,,4.47500000e-009,-4.22343092e-004
,,,4.50000000e-009,-4.25624342e-004
,,,4.52500000e-009,-4.28905592e-004
,,,4.55000000e-009,-4.29374342e-004
,,,4.57500000e-009,-4.27030592e-004
,,,4.60000000e-009,-4.19999342e-004
,,,4.62500000e-009,-4.11093092e-004
,,,4.65000000e-009,-3.97968092e-004
,,,4.67500000e-009,-3.81093092e-004
,,,4.70000000e-009,-3.62343092e-004
,,,4.72500000e-009,-3.43593092e-004
,,,4.75000000e-009,-3.25780592e-004
,,,4.77500000e-009,-3.11249341e-004
,,,4.80000000e-009,-2.99999341e-004
,,,4.82500000e-009,-2.94843091e-004
,,,4.85000000e-009,-2.92499341e-004
,,,4.87500000e-009,-2.93436841e-004
,,,4.90000000e-009,-2.96249341e-004
,,,4.92500000e-009,-2.99530591e-004
,,,4.95000000e-009,-3.01405591e-004
,,,4.97500000e-009,-3.01874341e-004
,,,5.00000000e-009,-2.99999341e-004
,,,5.02500000e-009,-2.96249341e-004
,,,5.05000000e-009,-2.90624341e-004
,,,5.07500000e-009,-2.84061841e-004
,,,5.10000000e-009,-2.78905591e-004
,,,5.12500000e-009,-2.76093091e-004
,,,5.15000000e-009,-2.77499341e-004
,,,5.17500000e-009,-2.85468091e-004
,,,5.20000000e-009,-2.99999341e-004
,,,5.22500000e-009,-3.21561842e-004
,,,5.25000000e-009,-3.49218092e-004
,,,5.27500000e-009,-3.81093092e-004
,,,5.30000000e-009,-4.15311842e-004
,,,5.32500000e-009,-4.50936843e-004
,,,5.35000000e-009,-4.85155593e-004
,,,5.37500000e-009,-5.15624343e-004
,,,5.40000000e-009,-5.39999343e-004
,,,5.42500000e-009,-5.52655594e-004
,,,5.45000000e-009,-5.55936844e-004
,,,5.47500000e-009,-5.50311844e-004
,,,5.50000000e-009,-5.35780593e-004
,,,5.52500000e-009,-5.14218093e-004
,,,5.55000000e-009,-4.86561843e-004
,,,5.57500000e-009,-4.54686843e-004
,,,5.60000000e-009,-4.19999342e-004
,,,5.62500000e-009,-3.81093092e-004
,,,5.65000000e-009,-3.42655592e-004
,,,5.67500000e-009,-3.05624341e-004
,,,5.70000000e-009,-2.71874341e-004
,,,5.72500000e-009,-2.41874341e-004
,,,5.75000000e-009,-2.16561841e-004
,,,5.77500000e-009,-1.95936840e-004
,,,5.80000000e-009,-1.79999340e-004
,,,5.82500000e-009,-1.68749340e-004
,,,5.85000000e-009,-1.61249340e-004
,,,5.87500000e-009,-1.57968090e-004
,,,5.90000000e-009,-1.58436840e-004
