RawData/SinglePhotoelectron/L1_2pt2A_5mV/wave012_Ch1.csv

"Record Length",1000,"Points",-7.72500000e-009,-6.51555893e-005
"Sample Interval",2.50000000e-011,s,-7.70000000e-009,-5.99993393e-005
"Trigger Point",309,"Samples",-7.67500000e-009,-4.54680892e-005
"Trigger Time",2.15918194e-011,s,-7.65000000e-009,-2.39055890e-005
"",,,-7.62500000e-009,9.38161247e-007
"Horizontal Offset",-7.72500000e-009,s,-7.60000000e-009,2.53131615e-005
,,,-7.57500000e-009,4.59381616e-005
,,,-7.55000000e-009,6.00006618e-005
,,,-7.52500000e-009,6.28131618e-005
,,,-7.50000000e-009,5.67194117e-005
,,,-7.47500000e-009,4.31256616e-005
,,,-7.45000000e-009,2.39069114e-005
,,,-7.42500000e-009,9.38161247e-007
,,,-7.40000000e-009,-2.20305890e-005
,,,-7.37500000e-009,-4.31243391e-005
,,,-7.35000000e-009,-5.99993393e-005
,,,-7.32500000e-009,-7.26555894e-005
,,,-7.30000000e-009,-7.87493394e-005
,,,-7.27500000e-009,-7.96868395e-005
,,,-7.25000000e-009,-7.59368394e-005
,,,-7.22500000e-009,-7.03118394e-005
,,,-7.20000000e-009,-6.46868393e-005
,,,-7.17500000e-009,-6.04680893e-005
,,,-7.15000000e-009,-5.99993393e-005
,,,-7.12500000e-009,-6.42180893e-005
,,,-7.10000000e-009,-7.26555894e-005
,,,-7.07500000e-009,-8.57805895e-005
,,,-7.05000000e-009,-1.02186840e-004
,,,-7.02500000e-009,-1.21405590e-004
,,,-7.00000000e-009,-1.41561840e-004
,,,-6.97500000e-009,-1.61718090e-004
,,,-6.95000000e-009,-1.79999340e-004
,,,-6.92500000e-009,-1.93593090e-004
,,,-6.90000000e-009,-2.02968091e-004
,,,-6.87500000e-009,-2.08124341e-004
,,,-6.85000000e-009,-2.08593091e-004
,,,-6.82500000e-009,-2.05780591e-004
,,,-6.80000000e-009,-1.99218090e-004
,,,-6.77500000e-009,-1.90311840e-004
,,,-6.75000000e-009,-1.79999340e-004
,,,-6.72500000e-009,-1.67811840e-004
,,,-6.70000000e-009,-1.57030590e-004
,,,-6.67500000e-009,-1.48593090e-004
,,,-6.65000000e-009,-1.44843090e-004
,,,-6.62500000e-009,-1.45780590e-004
,,,-6.60000000e-009,-1.52343090e-004
,,,-6.57500000e-009,-1.64061840e-004
,,,-6.55000000e-009,-1.79999340e-004
,,,-6.52500000e-009,-1.95936840e-004
,,,-6.50000000e-009,-2.11405591e-004
,,,-6.47500000e-009,-2.24999341e-004
,,,-6.45000000e-009,-2.33436841e-004
,,,-6.42500000e-009,-2.34843091e-004
,,,-6.40000000e-009,-2.27343091e-004
,,,-6.37500000e-009,-2.09061841e-004
,,,-6.35000000e-009,-1.79999340e-004
,,,-6.32500000e-009,-1.39218090e-004
,,,-6.30000000e-009,-8.99993395e-005
,,,-6.27500000e-009,-3.60930891e-005
,,,-6.25000000e-009,1.87506614e-005
,,,-6.22500000e-009,7.12506619e-005
,,,-6.20000000e-009,1.17656912e-004
,,,-6.17500000e-009,1.54219413e-004
,,,-6.15000000e-009,1.80000663e-004
,,,-6.12500000e-009,1.90781913e-004
,,,-6.10000000e-009,1.88906913e-004
,,,-6.07500000e-009,1.76719413e-004
,,,-6.05000000e-009,1.56094413e-004
,,,-6.02500000e-009,1.30781912e-004
,,,-6.00000000e-009,1.04063162e-004
,,,-5.97500000e-009,7.92194119e-005
,,,-5.95000000e-009,6.00006618e-005
,,,-5.92500000e-009,4.64069116e-005
,,,-5.90000000e-009,4.21881616e-005
,,,-5.87500000e-009,4.78131617e-005
,,,-5.85000000e-009,6.28131618e-005
,,,-5.82500000e-009,8.53131620e-005
,,,-5.80000000e-009,1.13906912e-004
,,,-5.77500000e-009,1.46250663e-004
,,,-5.75000000e-009,1.80000663e-004
,,,-5.72500000e-009,2.10000663e-004
,,,-5.70000000e-009,2.37188163e-004
,,,-5.67500000e-009,2.60156914e-004
,,,-5.65000000e-009,2.78438164e-004
,,,-5.62500000e-009,2.91563164e-004
,,,-5.60000000e-009,2.99531914e-004
,,,-5.57500000e-009,3.01875664e-004
,,,-5.55000000e-009,3.00000664e-004
,,,-5.52500000e-009,2.89219414e-004
,,,-5.50000000e-009,2.75625664e-004
,,,-5.47500000e-009,2.60156914e-004
,,,-5.45000000e-009,2.43281913e-004
,,,-5.42500000e-009,2.26406913e-004
,,,-5.40000000e-009,2.10000663e-004
,,,-5.37500000e-009,1.94531913e-004
,,,-5.35000000e-009,1.80000663e-004
,,,-5.32500000e-009,1.63594413e-004
,,,-5.30000000e-009,1.49063163e-004
,,,-5.27500000e-009,1.35000662e-004
,,,-5.25000000e-009,1.21875662e-004
,,,-5.22500000e-009,1.07813162e-004
,,,-5.20000000e-009,9.32819120e-005
,,,-5.17500000e-009,7.73444119e-005
,,,-5.15000000e-009,6.00006618e-005
,,,-5.12500000e-009,4.07819116e-005
,,,-5.10000000e-009,2.15631614e-005
,,,-5.07500000e-009,1.87566126e-006
,,,-5.05000000e-009,-1.64055889e-005
,,,-5.02500000e-009,-3.28118390e-005
,,,-5.00000000e-009,-4.59368392e-005
,,,-4.97500000e-009,-5.53118392e-005
,,,-4.95000000e-009,-5.99993393e-005
,,,-4.92500000e-009,-5.99993393e-005
,,,-4.90000000e-009,-5.62493392e-005
,,,-4.87500000e-009,-5.10930892e-005
,,,-4.85000000e-009,-4.64055892e-005
,,,-4.82500000e-009,-4.35930891e-005
,,,-4.80000000e-009,-4.40618391e-005
,,,-4.77500000e-009,-4.92180892e-005
,,,-4.75000000e-009,-5.99993393e-005
,,,-4.72500000e-009,-7.45305894e-005
,,,-4.70000000e-009,-9.28118396e-005
,,,-4.67500000e-009,-1.13905590e-004
,,,-4.65000000e-009,-1.34999340e-004
,,,-4.62500000e-009,-1.54218090e-004
,,,-4.60000000e-009,-1.69218090e-004
,,,-4.57500000e-009,-1.78124340e-004
,,,-4.55000000e-009,-1.79999340e-004
,,,-4.52500000e-009,-1.70155590e-004
,,,-4.50000000e-009,-1.53749340e-004
,,,-4.47500000e-009,-1.33593090e-004
,,,-4.45000000e-009,-1.12030590e-004
,,,-4.42500000e-009,-9.14055896e-005
,,,-4.40000000e-009,-7.49993394e-005
,,,-4.37500000e-009,-6.42180893e-005
,,,-4.35000000e-009,-5.99993393e-005
,,,-4.32500000e-009,-5.99993393e-005
,,,-4.30000000e-009,-6.56243393e-005
,,,-4.27500000e-009,-7.35930894e-005
,,,-4.25000000e-009,-8.20305895e-005
,,,-4.22500000e-009,-8.76555895e-005
,,,-4.20000000e-009,-8.71868395e-005
,,,-4.17500000e-009,-7.82805894e-005
,,,-4.15000000e-009,-5.99993393e-005
,,,-4.12500000e-009,-3.14055890e-005
,,,-4.10000000e-009,5.15691128e-006
,,,-4.07500000e-009,4.54694116e-005
,,,-4.05000000e-009,8.67194120e-005
,,,-4.02500000e-009,1.23750662e-004
,,,-4.00000000e-009,1.53750663e-004
,,,-3.97500000e-009,1.72969413e-004
,,,-3.95000000e-009,1.80000663e-004
,,,-3.92500000e-009,1.73438163e-004
,,,-3.90000000e-009,1.56563163e-004
,,,-3.87500000e-009,1.32188162e-004
,,,-3.85000000e-009,1.05469412e-004
,,,-3.82500000e-009,8.01569119e-005
,,,-3.80000000e-009,6.18756618e-005
,,,-3.77500000e-009,5.39069117e-005
,,,-3.75000000e-009,6.00006618e-005
,,,-3.72500000e-009,8.06256619e-005
,,,-3.70000000e-009,1.15313162e-004
,,,-3.67500000e-009,1.61719413e-004
,,,-3.65000000e-009,2.16094413e-004
,,,-3.62500000e-009,2.73750664e-004
,,,-3.60000000e-009,3.30000664e-004
,,,-3.57500000e-009,3.80156915e-004
,,,-3.55000000e-009,4.20000665e-004
,,,-3.52500000e-009,4.41563165e-004
,,,-3.50000000e-009,4.49063165e-004
,,,-3.47500000e-009,4.42969415e-004
,,,-3.45000000e-009,4.25156915e-004
,,,-3.42500000e-009,3.98906915e-004
,,,-3.40000000e-009,3.67031914e-004
,,,-3.37500000e-009,3.33281914e-004
,,,-3.35000000e-009,3.00000664e-004
,,,-3.32500000e-009,2.66719414e-004
,,,-3.30000000e-009,2.39063163e-004
,,,-3.27500000e-009,2.17969413e-004
,,,-3.25000000e-009,2.02500663e-004
,,,-3.22500000e-009,1.92188163e-004
,,,-3.20000000e-009,1.85625663e-004
,,,-3.17500000e-009,1.81875663e-004
,,,-3.15000000e-009,1.80000663e-004
,,,-3.12500000e-009,1.76250663e-004
,,,-3.10000000e-009,1.72500663e-004
,,,-3.07500000e-009,1.69688163e-004
,,,-3.05000000e-009,1.67813163e-004
,,,-3.02500000e-009,1.67344413e-004
,,,-3.00000000e-009,1.69219413e-004
,,,-2.97500000e-009,1.73438163e-004
,,,-2.95000000e-009,1.80000663e-004
,,,-2.92500000e-009,1.86563163e-004
,,,-2.90000000e-009,1.93594413e-004
,,,-2.87500000e-009,2.00156913e-004
,,,-2.85000000e-009,2.04844413e-004
,,,-2.82500000e-009,2.06250663e-004
,,,-2.80000000e-009,2.03438163e-004
,,,-2.77500000e-009,1.94531913e-004
,,,-2.75000000e-009,1.80000663e-004
,,,-2.72500000e-009,1.56563163e-004
,,,-2.70000000e-009,1.28438162e-004
,,,-2.67500000e-009,9.60944121e-005
,,,-2.65000000e-009,6.18756618e-005
,,,-2.62500000e-009,2.71881615e-005
,,,-2.60000000e-009,-6.09308881e-006
,,,-2.57500000e-009,-3.56243391e-005
,,,-2.55000000e-009,-5.99993393e-005
,,,-2.52500000e-009,-7.87493394e-005
,,,-2.50000000e-009,-9.09368396e-005
,,,-2.47500000e-009,-9.74993396e-005
,,,-2.45000000e-009,-9.79680896e-005
,,,-2.42500000e-009,-9.37493396e-005
,,,-2.40000000e-009,-8.53118395e-005
,,,-2.37500000e-009,-7.35930894e-005
,,,-2.35000000e-009,-5.99993393e-005
,,,-2.32500000e-009,-4.73430892e-005
,,,-2.30000000e-009,-3.65618391e-005
,,,-2.27500000e-009,-2.95305890e-005
,,,-2.25000000e-009,-2.62493390e-005
,,,-2.22500000e-009,-2.81243390e-005
,,,-2.20000000e-009,-3.42180891e-005
,,,-2.17500000e-009,-4.54680892e-005
,,,-2.15000000e-009,-5.99993393e-005
,,,-2.12500000e-009,-7.82805894e-005
,,,-2.10000000e-009,-9.79680896e-005
,,,-2.07500000e-009,-1.18593090e-004
,,,-2.05000000e-009,-1.37811840e-004
,,,-2.02500000e-009,-1.54686840e-004
,,,-2.00000000e-009,-1.67811840e-004
,,,-1.97500000e-009,-1.76249340e-004
,,,-1.95000000e-009,-1.79999340e-004
,,,-1.92500000e-009,-1.79530590e-004
,,,-1.90000000e-009,-1.76249340e-004
,,,-1.87500000e-009,-1.71093090e-004
,,,-1.85000000e-009,-1.66405590e-004
,,,-1.82500000e-009,-1.63593090e-004
,,,-1.80000000e-009,-1.64061840e-004
,,,-1.77500000e-009,-1.69218090e-004
,,,-1.75000000e-009,-1.79999340e-004
,,,-1.72500000e-009,-1.96874340e-004
,,,-1.70000000e-009,-2.19374341e-004
,,,-1.67500000e-009,-2.48436841e-004
,,,-1.65000000e-009,-2.81249341e-004
,,,-1.62500000e-009,-3.16874342e-004
,,,-1.60000000e-009,-3.53436842e-004
,,,-1.57500000e-009,-3.88593092e-004
,,,-1.55000000e-009,-4.19999342e-004
,,,-1.52500000e-009,-4.46249343e-004
,,,-1.50000000e-009,-4.65936843e-004
,,,-1.47500000e-009,-4.77655593e-004
,,,-1.45000000e-009,-4.81405593e-004
,,,-1.42500000e-009,-4.77186843e-004
,,,-1.40000000e-009,-4.64530593e-004
,,,-1.37500000e-009,-4.45311843e-004
,,,-1.35000000e-009,-4.19999342e-004
,,,-1.32500000e-009,-3.95624342e-004
,,,-1.30000000e-009,-3.71249342e-004
,,,-1.27500000e-009,-3.48280592e-004
,,,-1.25000000e-009,-3.29061842e-004
,,,-1.22500000e-009,-3.13593091e-004
,,,-1.20000000e-009,-3.03749341e-004
,,,-1.17500000e-009,-2.99061841e-004
,,,-1.15000000e-009,-2.99999341e-004
,,,-1.12500000e-009,-3.20624342e-004
,,,-1.10000000e-009,-3.46874342e-004
,,,-1.07500000e-009,-3.74999342e-004
,,,-1.05000000e-009,-4.01718092e-004
,,,-1.02500000e-009,-4.22343092e-004
,,,-1.00000000e-009,-4.34061843e-004
,,,-9.75000000e-010,-4.33593093e-004
,,,-9.50000000e-010,-4.19999342e-004
,,,-9.25000000e-010,-4.21405592e-004
,,,-9.00000000e-010,-4.16249342e-004
,,,-8.75000000e-010,-4.05468092e-004
,,,-8.50000000e-010,-3.89530592e-004
,,,-8.25000000e-010,-3.68905592e-004
,,,-8.00000000e-010,-3.45468092e-004
,,,-7.75000000e-010,-3.21561842e-004
,,,-7.50000000e-010,-2.99999341e-004
,,,-7.25000000e-010,-3.27655592e-004
,,,-7.00000000e-010,-3.67968092e-004
,,,-6.75000000e-010,-4.17655592e-004
,,,-6.50000000e-010,-4.72499343e-004
,,,-6.25000000e-010,-5.27343093e-004
,,,-6.00000000e-010,-5.77968094e-004
,,,-5.75000000e-010,-6.22499344e-004
,,,-5.50000000e-010,-6.59999344e-004
,,,-5.25000000e-010,-7.48124345e-004
,,,-5.00000000e-010,-8.41874346e-004
,,,-4.75000000e-010,-9.40311847e-004
,,,-4.50000000e-010,-1.04249935e-003
,,,-4.25000000e-010,-1.14796810e-003
,,,-4.00000000e-010,-1.25812435e-003
,,,-3.75000000e-010,-1.37484310e-003
,,,-3.50000000e-010,-1.49999935e-003
,,,-3.25000000e-010,-1.69218685e-003
,,,-3.00000000e-010,-1.90593686e-003
,,,-2.75000000e-010,-2.13843686e-003
,,,-2.50000000e-010,-2.38453061e-003
,,,-2.25000000e-010,-2.63953061e-003
,,,-2.00000000e-010,-2.89874936e-003
,,,-1.75000000e-010,-3.15937437e-003
,,,-1.50000000e-010,-3.41999937e-003
,,,-1.25000000e-010,-3.71906187e-003
,,,-1.00000000e-010,-4.02749937e-003
,,,-7.50000000e-011,-4.34578063e-003
,,,-5.00000000e-011,-4.67249938e-003
,,,-2.50000000e-011,-5.00671813e-003
,,,0.00000000e+000,-5.34937439e-003
,,,2.50000000e-011,-5.69999939e-003
,,,5.00000000e-011,-6.05999939e-003
,,,7.50000000e-011,-6.43874939e-003
,,,1.00000000e-010,-6.83437440e-003
,,,1.25000000e-010,-7.24640565e-003
,,,1.50000000e-010,-7.67109316e-003
,,,1.75000000e-010,-8.10562441e-003
,,,2.00000000e-010,-8.54531191e-003
,,,2.25000000e-010,-8.98453067e-003
,,,2.50000000e-010,-9.41999942e-003
,,,2.75000000e-010,-9.81562442e-003
,,,3.00000000e-010,-1.02051557e-002
,,,3.25000000e-010,-1.05876557e-002
,,,3.50000000e-010,-1.09607807e-002
,,,3.75000000e-010,-1.13217182e-002
,,,4.00000000e-010,-1.16671869e-002
,,,4.25000000e-010,-1.19939057e-002
,,,4.50000000e-010,-1.22999994e-002
,,,4.75000000e-010,-1.25217182e-002
,,,5.00000000e-010,-1.27279682e-002
,,,5.25000000e-010,-1.29224995e-002
,,,5.50000000e-010,-1.31071870e-002
,,,5.75000000e-010,-1.32829682e-002
,,,6.00000000e-010,-1.34479682e-002
,,,6.25000000e-010,-1.36012495e-002
,,,6.50000000e-010,-1.37399995e-002
,,,6.75000000e-010,-1.37831245e-002
,,,7.00000000e-010,-1.38178120e-002
,,,7.25000000e-010,-1.38454682e-002
,,,7.50000000e-010,-1.38674995e-002
,,,7.75000000e-010,-1.38829682e-002
,,,8.00000000e-010,-1.38890620e-002
,,,8.25000000e-010,-1.38829682e-002
,,,8.50000000e-010,-1.38599995e-002
,,,8.75000000e-010,-1.37395307e-002
,,,9.00000000e-010,-1.36068745e-002
,,,9.25000000e-010,-1.34643745e-002
,,,9.50000000e-010,-1.33143745e-002
,,,9.75000000e-010,-1.31587495e-002
,,,1.00000000e-009,-1.29979682e-002
,,,1.02500000e-009,-1.28315620e-002
,,,1.05000000e-009,-1.26599994e-002
,,,1.07500000e-009,-1.24204682e-002
,,,1.10000000e-009,-1.21823432e-002
,,,1.12500000e-009,-1.19507807e-002
,,,1.15000000e-009,-1.17299994e-002
,,,1.17500000e-009,-1.15218744e-002
,,,1.20000000e-009,-1.13282807e-002
,,,1.22500000e-009,-1.11482807e-002
,,,1.25000000e-009,-1.09799994e-002
,,,1.27500000e-009,-1.07812494e-002
,,,1.30000000e-009,-1.05867182e-002
,,,1.32500000e-009,-1.03959369e-002
,,,1.35000000e-009,-1.02056244e-002
,,,1.37500000e-009,-1.00153119e-002
,,,1.40000000e-009,-9.82218692e-003
,,,1.42500000e-009,-9.62437442e-003
,,,1.45000000e-009,-9.41999942e-003
,,,1.47500000e-009,-9.19171817e-003
,,,1.50000000e-009,-8.95218692e-003
,,,1.52500000e-009,-8.70374941e-003
,,,1.55000000e-009,-8.45109316e-003
,,,1.57500000e-009,-8.19984316e-003
,,,1.60000000e-009,-7.95468691e-003
,,,1.62500000e-009,-7.72031191e-003
,,,1.65000000e-009,-7.49999940e-003
,,,1.67500000e-009,-7.30031190e-003
,,,1.70000000e-009,-7.10859315e-003
,,,1.72500000e-009,-6.92249940e-003
,,,1.75000000e-009,-6.74249940e-003
,,,1.77500000e-009,-6.56671815e-003
,,,1.80000000e-009,-6.39515564e-003
,,,1.82500000e-009,-6.22640564e-003
,,,1.85000000e-009,-6.05999939e-003
,,,1.87500000e-009,-5.91328064e-003
,,,1.90000000e-009,-5.75718689e-003
,,,1.92500000e-009,-5.59218689e-003
,,,1.95000000e-009,-5.42062439e-003
,,,1.97500000e-009,-5.24484313e-003
,,,2.00000000e-009,-5.07046813e-003
,,,2.02500000e-009,-4.90078063e-003
,,,2.05000000e-009,-4.73999938e-003
,,,2.07500000e-009,-4.61578063e-003
,,,2.10000000e-009,-4.49531188e-003
,,,2.12500000e-009,-4.37953063e-003
,,,2.15000000e-009,-4.26890563e-003
,,,2.17500000e-009,-4.16437437e-003
,,,2.20000000e-009,-4.06734312e-003
,,,2.22500000e-009,-3.97921812e-003
,,,2.25000000e-009,-3.89999937e-003
,,,2.27500000e-009,-3.85499937e-003
,,,2.30000000e-009,-3.80953062e-003
,,,2.32500000e-009,-3.76359312e-003
,,,2.35000000e-009,-3.71624937e-003
,,,2.37500000e-009,-3.66890562e-003
,,,2.40000000e-009,-3.62249937e-003
,,,2.42500000e-009,-3.57937437e-003
,,,2.45000000e-009,-3.53999937e-003
,,,2.47500000e-009,-3.52734312e-003
,,,2.50000000e-009,-3.51328062e-003
,,,2.52500000e-009,-3.49734312e-003
,,,2.55000000e-009,-3.47953062e-003
,,,2.57500000e-009,-3.46171812e-003
,,,2.60000000e-009,-3.44484312e-003
,,,2.62500000e-009,-3.43078062e-003
,,,2.65000000e-009,-3.41999937e-003
,,,2.67500000e-009,-3.42703062e-003
,,,2.70000000e-009,-3.43171812e-003
,,,2.72500000e-009,-3.43453062e-003
,,,2.75000000e-009,-3.43499937e-003
,,,2.77500000e-009,-3.43359312e-003
,,,2.80000000e-009,-3.43031187e-003
,,,2.82500000e-009,-3.42562437e-003
,,,2.85000000e-009,-3.41999937e-003
,,,2.87500000e-009,-3.42093687e-003
,,,2.90000000e-009,-3.41624937e-003
,,,2.92500000e-009,-3.40640562e-003
,,,2.95000000e-009,-3.39140562e-003
,,,2.97500000e-009,-3.37218687e-003
,,,3.00000000e-009,-3.34968687e-003
,,,3.02500000e-009,-3.32531187e-003
,,,3.05000000e-009,-3.29999937e-003
,,,3.07500000e-009,-3.27843687e-003
,,,3.10000000e-009,-3.25593687e-003
,,,3.12500000e-009,-3.23484312e-003
,,,3.15000000e-009,-3.21562437e-003
,,,3.17500000e-009,-3.19968687e-003
,,,3.20000000e-009,-3.18843687e-003
,,,3.22500000e-009,-3.18187437e-003
,,,3.25000000e-009,-3.17999937e-003
,,,3.27500000e-009,-3.18046812e-003
,,,3.30000000e-009,-3.18281187e-003
,,,3.32500000e-009,-3.18609312e-003
,,,3.35000000e-009,-3.18890562e-003
,,,3.37500000e-009,-3.19078062e-003
,,,3.40000000e-009,-3.19078062e-003
,,,3.42500000e-009,-3.18749937e-003
,,,3.45000000e-009,-3.17999937e-003
,,,3.47500000e-009,-3.16265562e-003
,,,3.50000000e-009,-3.13874937e-003
,,,3.52500000e-009,-3.10968687e-003
,,,3.55000000e-009,-3.07640562e-003
,,,3.57500000e-009,-3.04124937e-003
,,,3.60000000e-009,-3.00609311e-003
,,,3.62500000e-009,-2.97187436e-003
,,,3.65000000e-009,-2.93999936e-003
,,,3.67500000e-009,-2.90578061e-003
,,,3.70000000e-009,-2.87484311e-003
,,,3.72500000e-009,-2.84906186e-003
,,,3.75000000e-009,-2.82937436e-003
,,,3.77500000e-009,-2.81671811e-003
,,,3.80000000e-009,-2.81156186e-003
,,,3.82500000e-009,-2.81296811e-003
,,,3.85000000e-009,-2.81999936e-003
,,,3.87500000e-009,-2.82234311e-003
,,,3.90000000e-009,-2.82281186e-003
,,,3.92500000e-009,-2.81999936e-003
,,,3.95000000e-009,-2.81156186e-003
,,,3.97500000e-009,-2.79656186e-003
,,,4.00000000e-009,-2.77359311e-003
,,,4.02500000e-009,-2.74171811e-003
,,,4.05000000e-009,-2.69999936e-003
,,,4.07500000e-009,-2.64140561e-003
,,,4.10000000e-009,-2.57249936e-003
,,,4.12500000e-009,-2.49609311e-003
,,,4.15000000e-009,-2.41499936e-003
,,,4.17500000e-009,-2.33203061e-003
,,,4.20000000e-009,-2.25046811e-003
,,,4.22500000e-009,-2.17265561e-003
,,,4.25000000e-009,-2.09999936e-003
,,,4.27500000e-009,-2.03062436e-003
,,,4.30000000e-009,-1.96593686e-003
,,,4.32500000e-009,-1.90546811e-003
,,,4.35000000e-009,-1.84781185e-003
,,,4.37500000e-009,-1.79203060e-003
,,,4.40000000e-009,-1.73624935e-003
,,,4.42500000e-009,-1.67953060e-003
,,,4.45000000e-009,-1.61999935e-003
,,,4.47500000e-009,-1.55718685e-003
,,,4.50000000e-009,-1.48828060e-003
,,,4.52500000e-009,-1.41374935e-003
,,,4.55000000e-009,-1.33499935e-003
,,,4.57500000e-009,-1.25390560e-003
,,,4.60000000e-009,-1.17281185e-003
,,,4.62500000e-009,-1.09453060e-003
,,,4.65000000e-009,-1.01999935e-003
,,,4.67500000e-009,-9.56249347e-004
,,,4.70000000e-009,-8.97655597e-004
,,,4.72500000e-009,-8.44218096e-004
,,,4.75000000e-009,-7.96405596e-004
,,,4.77500000e-009,-7.54218095e-004
,,,4.80000000e-009,-7.17655595e-004
,,,4.82500000e-009,-6.86718095e-004
,,,4.85000000e-009,-6.59999344e-004
,,,4.87500000e-009,-6.45468094e-004
,,,4.90000000e-009,-6.31405594e-004
,,,4.92500000e-009,-6.17343094e-004
,,,4.95000000e-009,-6.02343094e-004
,,,4.97500000e-009,-5.87343094e-004
,,,5.00000000e-009,-5.71405594e-004
,,,5.02500000e-009,-5.55936844e-004
,,,5.05000000e-009,-5.39999343e-004
,,,5.07500000e-009,-5.32030593e-004
,,,5.10000000e-009,-5.21249343e-004
,,,5.12500000e-009,-5.08124343e-004
,,,5.15000000e-009,-4.92655593e-004
,,,5.17500000e-009,-4.75311843e-004
,,,5.20000000e-009,-4.57030593e-004
,,,5.22500000e-009,-4.38749343e-004
,,,5.25000000e-009,-4.19999342e-004
,,,5.27500000e-009,-4.07811842e-004
,,,5.30000000e-009,-3.94218092e-004
,,,5.32500000e-009,-3.79218092e-004
,,,5.35000000e-009,-3.63280592e-004
,,,5.37500000e-009,-3.46874342e-004
,,,5.40000000e-009,-3.30468092e-004
,,,5.42500000e-009,-3.14530591e-004
,,,5.45000000e-009,-2.99999341e-004
,,,5.47500000e-009,-2.92499341e-004
,,,5.50000000e-009,-2.85936841e-004
,,,5.52500000e-009,-2.80780591e-004
,,,5.55000000e-009,-2.77499341e-004
,,,5.57500000e-009,-2.77499341e-004
,,,5.60000000e-009,-2.81249341e-004
,,,5.62500000e-009,-2.88749341e-004
,,,5.65000000e-009,-2.99999341e-004
,,,5.67500000e-009,-3.16405592e-004
,,,5.70000000e-009,-3.33749342e-004
,,,5.72500000e-009,-3.52030592e-004
,,,5.75000000e-009,-3.69843092e-004
,,,5.77500000e-009,-3.86718092e-004
,,,5.80000000e-009,-4.01249342e-004
,,,5.82500000e-009,-4.12499342e-004
,,,5.85000000e-009,-4.19999342e-004
,,,5.87500000e-009,-4.21874342e-004
