RawData/SinglePhotoelectron/L1_2pt2A_5mV/wave008_Ch1.csv

"Record Length",1000,"Points",-7.72500000e-009,-5.57805892e-005
"Sample Interval",2.50000000e-011,s,-7.70000000e-009,-8.90618395e-005
"Trigger Point",309,"Samples",-7.67500000e-009,-1.21874340e-004
"Trigger Time",4.26691358e-012,s,-7.65000000e-009,-1.52343090e-004
"",,,-7.62500000e-009,-1.79999340e-004
"Horizontal Offset",-7.72500000e-009,s,-7.60000000e-009,-2.03905591e-004
,,,-7.57500000e-009,-2.24061841e-004
,,,-7.55000000e-009,-2.40936841e-004
,,,-7.52500000e-009,-2.54999341e-004
,,,-7.50000000e-009,-2.67186841e-004
,,,-7.47500000e-009,-2.78436841e-004
,,,-7.45000000e-009,-2.89218091e-004
,,,-7.42500000e-009,-2.99999341e-004
,,,-7.40000000e-009,-3.09374341e-004
,,,-7.37500000e-009,-3.20624342e-004
,,,-7.35000000e-009,-3.33749342e-004
,,,-7.32500000e-009,-3.48749342e-004
,,,-7.30000000e-009,-3.65624342e-004
,,,-7.27500000e-009,-3.83905592e-004
,,,-7.25000000e-009,-4.02186842e-004
,,,-7.22500000e-009,-4.19999342e-004
,,,-7.20000000e-009,-4.32655593e-004
,,,-7.17500000e-009,-4.42499343e-004
,,,-7.15000000e-009,-4.49061843e-004
,,,-7.12500000e-009,-4.51874343e-004
,,,-7.10000000e-009,-4.50468093e-004
,,,-7.07500000e-009,-4.44374343e-004
,,,-7.05000000e-009,-4.34530593e-004
,,,-7.02500000e-009,-4.19999342e-004
,,,-7.00000000e-009,-4.01249342e-004
,,,-6.97500000e-009,-3.81561842e-004
,,,-6.95000000e-009,-3.61405592e-004
,,,-6.92500000e-009,-3.43124342e-004
,,,-6.90000000e-009,-3.27186842e-004
,,,-6.87500000e-009,-3.14530591e-004
,,,-6.85000000e-009,-3.05155591e-004
,,,-6.82500000e-009,-2.99999341e-004
,,,-6.80000000e-009,-2.98593091e-004
,,,-6.77500000e-009,-3.00468091e-004
,,,-6.75000000e-009,-3.04686841e-004
,,,-6.72500000e-009,-3.09374341e-004
,,,-6.70000000e-009,-3.13124341e-004
,,,-6.67500000e-009,-3.13593091e-004
,,,-6.65000000e-009,-3.09843091e-004
,,,-6.62500000e-009,-2.99999341e-004
,,,-6.60000000e-009,-2.84999341e-004
,,,-6.57500000e-009,-2.63436841e-004
,,,-6.55000000e-009,-2.36249341e-004
,,,-6.52500000e-009,-2.04374341e-004
,,,-6.50000000e-009,-1.69218090e-004
,,,-6.47500000e-009,-1.32186840e-004
,,,-6.45000000e-009,-9.51555896e-005
,,,-6.42500000e-009,-5.99993393e-005
,,,-6.40000000e-009,-3.23430890e-005
,,,-6.37500000e-009,-1.07805889e-005
,,,-6.35000000e-009,3.28191127e-006
,,,-6.32500000e-009,8.90691132e-006
,,,-6.30000000e-009,5.15691128e-006
,,,-6.27500000e-009,-7.96808883e-006
,,,-6.25000000e-009,-2.99993390e-005
,,,-6.22500000e-009,-5.99993393e-005
,,,-6.20000000e-009,-1.00780590e-004
,,,-6.17500000e-009,-1.46718090e-004
,,,-6.15000000e-009,-1.94999340e-004
,,,-6.12500000e-009,-2.45155591e-004
,,,-6.10000000e-009,-2.93905591e-004
,,,-6.07500000e-009,-3.40311842e-004
,,,-6.05000000e-009,-3.82968092e-004
,,,-6.02500000e-009,-4.19999342e-004
,,,-6.00000000e-009,-4.51405593e-004
,,,-5.97500000e-009,-4.75780593e-004
,,,-5.95000000e-009,-4.94530593e-004
,,,-5.92500000e-009,-5.09061843e-004
,,,-5.90000000e-009,-5.19374343e-004
,,,-5.87500000e-009,-5.27343093e-004
,,,-5.85000000e-009,-5.33905593e-004
,,,-5.82500000e-009,-5.39999343e-004
,,,-5.80000000e-009,-5.43749343e-004
,,,-5.77500000e-009,-5.46561844e-004
,,,-5.75000000e-009,-5.49374344e-004
,,,-5.72500000e-009,-5.51718094e-004
,,,-5.70000000e-009,-5.52655594e-004
,,,-5.67500000e-009,-5.51249344e-004
,,,-5.65000000e-009,-5.47499344e-004
,,,-5.62500000e-009,-5.39999343e-004
,,,-5.60000000e-009,-5.27343093e-004
,,,-5.57500000e-009,-5.11405593e-004
,,,-5.55000000e-009,-4.94061843e-004
,,,-5.52500000e-009,-4.75780593e-004
,,,-5.50000000e-009,-4.58436843e-004
,,,-5.47500000e-009,-4.42499343e-004
,,,-5.45000000e-009,-4.29843092e-004
,,,-5.42500000e-009,-4.19999342e-004
,,,-5.40000000e-009,-4.11561842e-004
,,,-5.37500000e-009,-4.06874342e-004
,,,-5.35000000e-009,-4.05468092e-004
,,,-5.32500000e-009,-4.07343092e-004
,,,-5.30000000e-009,-4.11093092e-004
,,,-5.27500000e-009,-4.15311842e-004
,,,-5.25000000e-009,-4.18593092e-004
,,,-5.22500000e-009,-4.19999342e-004
,,,-5.20000000e-009,-4.16249342e-004
,,,-5.17500000e-009,-4.09218092e-004
,,,-5.15000000e-009,-3.98436842e-004
,,,-5.12500000e-009,-3.84374342e-004
,,,-5.10000000e-009,-3.67030592e-004
,,,-5.07500000e-009,-3.46405592e-004
,,,-5.05000000e-009,-3.23905592e-004
,,,-5.02500000e-009,-2.99999341e-004
,,,-5.00000000e-009,-2.75155591e-004
,,,-4.97500000e-009,-2.50780591e-004
,,,-4.95000000e-009,-2.28280591e-004
,,,-4.92500000e-009,-2.09530591e-004
,,,-4.90000000e-009,-1.94999340e-004
,,,-4.87500000e-009,-1.84686840e-004
,,,-4.85000000e-009,-1.79999340e-004
,,,-4.82500000e-009,-1.79999340e-004
,,,-4.80000000e-009,-1.84686840e-004
,,,-4.77500000e-009,-1.90780590e-004
,,,-4.75000000e-009,-1.96874340e-004
,,,-4.72500000e-009,-2.02030591e-004
,,,-4.70000000e-009,-2.03436841e-004
,,,-4.67500000e-009,-2.01093091e-004
,,,-4.65000000e-009,-1.93124340e-004
,,,-4.62500000e-009,-1.79999340e-004
,,,-4.60000000e-009,-1.62186840e-004
,,,-4.57500000e-009,-1.40155590e-004
,,,-4.55000000e-009,-1.16718090e-004
,,,-4.52500000e-009,-9.42180896e-005
,,,-4.50000000e-009,-7.49993394e-005
,,,-4.47500000e-009,-6.18743393e-005
,,,-4.45000000e-009,-5.67180893e-005
,,,-4.42500000e-009,-5.99993393e-005
,,,-4.40000000e-009,-7.31243394e-005
,,,-4.37500000e-009,-9.18743396e-005
,,,-4.35000000e-009,-1.14843090e-004
,,,-4.32500000e-009,-1.38749340e-004
,,,-4.30000000e-009,-1.59843090e-004
,,,-4.27500000e-009,-1.75311840e-004
,,,-4.25000000e-009,-1.82811840e-004
,,,-4.22500000e-009,-1.79999340e-004
,,,-4.20000000e-009,-1.65936840e-004
,,,-4.17500000e-009,-1.42030590e-004
,,,-4.15000000e-009,-1.09686840e-004
,,,-4.12500000e-009,-7.21868394e-005
,,,-4.10000000e-009,-3.28118390e-005
,,,-4.07500000e-009,3.75066127e-006
,,,-4.05000000e-009,3.56256615e-005
,,,-4.02500000e-009,6.00006618e-005
,,,-4.00000000e-009,7.35944119e-005
,,,-3.97500000e-009,7.92194119e-005
,,,-3.95000000e-009,7.78131619e-005
,,,-3.92500000e-009,7.21881619e-005
,,,-3.90000000e-009,6.46881618e-005
,,,-3.87500000e-009,5.85944117e-005
,,,-3.85000000e-009,5.62506617e-005
,,,-3.82500000e-009,6.00006618e-005
,,,-3.80000000e-009,6.84381618e-005
,,,-3.77500000e-009,8.34381620e-005
,,,-3.75000000e-009,1.03125662e-004
,,,-3.72500000e-009,1.24688162e-004
,,,-3.70000000e-009,1.46250663e-004
,,,-3.67500000e-009,1.63594413e-004
,,,-3.65000000e-009,1.75781913e-004
,,,-3.62500000e-009,1.80000663e-004
,,,-3.60000000e-009,1.72500663e-004
,,,-3.57500000e-009,1.57969413e-004
,,,-3.55000000e-009,1.38281912e-004
,,,-3.52500000e-009,1.15781912e-004
,,,-3.50000000e-009,9.37506621e-005
,,,-3.47500000e-009,7.54694119e-005
,,,-3.45000000e-009,6.37506618e-005
,,,-3.42500000e-009,6.00006618e-005
,,,-3.40000000e-009,6.37506618e-005
,,,-3.37500000e-009,7.54694119e-005
,,,-3.35000000e-009,9.37506621e-005
,,,-3.32500000e-009,1.15781912e-004
,,,-3.30000000e-009,1.38281912e-004
,,,-3.27500000e-009,1.57969413e-004
,,,-3.25000000e-009,1.72500663e-004
,,,-3.22500000e-009,1.80000663e-004
,,,-3.20000000e-009,1.75781913e-004
,,,-3.17500000e-009,1.63594413e-004
,,,-3.15000000e-009,1.46250663e-004
,,,-3.12500000e-009,1.24688162e-004
,,,-3.10000000e-009,1.03125662e-004
,,,-3.07500000e-009,8.34381620e-005
,,,-3.05000000e-009,6.84381618e-005
,,,-3.02500000e-009,6.00006618e-005
,,,-3.00000000e-009,5.67194117e-005
,,,-2.97500000e-009,6.00006618e-005
,,,-2.95000000e-009,6.65631618e-005
,,,-2.92500000e-009,7.40631619e-005
,,,-2.90000000e-009,7.96881619e-005
,,,-2.87500000e-009,8.10944119e-005
,,,-2.85000000e-009,7.45319119e-005
,,,-2.82500000e-009,6.00006618e-005
,,,-2.80000000e-009,3.60944116e-005
,,,-2.77500000e-009,4.68816128e-006
,,,-2.75000000e-009,-3.18743390e-005
,,,-2.72500000e-009,-7.03118394e-005
,,,-2.70000000e-009,-1.07811840e-004
,,,-2.67500000e-009,-1.40624340e-004
,,,-2.65000000e-009,-1.65468090e-004
,,,-2.62500000e-009,-1.79999340e-004
,,,-2.60000000e-009,-1.80936840e-004
,,,-2.57500000e-009,-1.72030590e-004
,,,-2.55000000e-009,-1.54686840e-004
,,,-2.52500000e-009,-1.32655590e-004
,,,-2.50000000e-009,-1.08749340e-004
,,,-2.47500000e-009,-8.67180895e-005
,,,-2.45000000e-009,-6.98430894e-005
,,,-2.42500000e-009,-5.99993393e-005
,,,-2.40000000e-009,-5.85930893e-005
,,,-2.37500000e-009,-6.56243393e-005
,,,-2.35000000e-009,-8.06243395e-005
,,,-2.32500000e-009,-1.01249340e-004
,,,-2.30000000e-009,-1.24218090e-004
,,,-2.27500000e-009,-1.47186840e-004
,,,-2.25000000e-009,-1.66405590e-004
,,,-2.22500000e-009,-1.79999340e-004
,,,-2.20000000e-009,-1.85155590e-004
,,,-2.17500000e-009,-1.82343090e-004
,,,-2.15000000e-009,-1.72030590e-004
,,,-2.12500000e-009,-1.55624340e-004
,,,-2.10000000e-009,-1.34061840e-004
,,,-2.07500000e-009,-1.10155590e-004
,,,-2.05000000e-009,-8.48430895e-005
,,,-2.02500000e-009,-5.99993393e-005
,,,-2.00000000e-009,-3.89055891e-005
,,,-1.97500000e-009,-2.06243389e-005
,,,-1.95000000e-009,-5.62433881e-006
,,,-1.92500000e-009,7.50066130e-006
,,,-1.90000000e-009,1.92194114e-005
,,,-1.87500000e-009,3.14069115e-005
,,,-1.85000000e-009,4.45319116e-005
,,,-1.82500000e-009,6.00006618e-005
,,,-1.80000000e-009,7.26569119e-005
,,,-1.77500000e-009,8.67194120e-005
,,,-1.75000000e-009,1.02656912e-004
,,,-1.72500000e-009,1.19063162e-004
,,,-1.70000000e-009,1.35938162e-004
,,,-1.67500000e-009,1.52344413e-004
,,,-1.65000000e-009,1.67344413e-004
,,,-1.62500000e-009,1.80000663e-004
,,,-1.60000000e-009,1.77188163e-004
,,,-1.57500000e-009,1.68750663e-004
,,,-1.55000000e-009,1.56094413e-004
,,,-1.52500000e-009,1.39688162e-004
,,,-1.50000000e-009,1.20469412e-004
,,,-1.47500000e-009,1.00781912e-004
,,,-1.45000000e-009,8.01569119e-005
,,,-1.42500000e-009,6.00006618e-005
,,,-1.40000000e-009,2.57819115e-005
,,,-1.37500000e-009,-9.37433884e-006
,,,-1.35000000e-009,-4.40618391e-005
,,,-1.32500000e-009,-7.73430894e-005
,,,-1.30000000e-009,-1.08280590e-004
,,,-1.27500000e-009,-1.35468090e-004
,,,-1.25000000e-009,-1.59374340e-004
,,,-1.22500000e-009,-1.79999340e-004
,,,-1.20000000e-009,-2.17030591e-004
,,,-1.17500000e-009,-2.54061841e-004
,,,-1.15000000e-009,-2.90155591e-004
,,,-1.12500000e-009,-3.23436842e-004
,,,-1.10000000e-009,-3.53436842e-004
,,,-1.07500000e-009,-3.79218092e-004
,,,-1.05000000e-009,-4.01249342e-004
,,,-1.02500000e-009,-4.19999342e-004
,,,-1.00000000e-009,-4.59374343e-004
,,,-9.75000000e-010,-5.02968093e-004
,,,-9.50000000e-010,-5.52655594e-004
,,,-9.25000000e-010,-6.08436844e-004
,,,-9.00000000e-010,-6.70780595e-004
,,,-8.75000000e-010,-7.40155595e-004
,,,-8.50000000e-010,-8.16093096e-004
,,,-8.25000000e-010,-8.99999347e-004
,,,-8.00000000e-010,-1.00968685e-003
,,,-7.75000000e-010,-1.12921810e-003
,,,-7.50000000e-010,-1.25484310e-003
,,,-7.25000000e-010,-1.38328060e-003
,,,-7.00000000e-010,-1.51078060e-003
,,,-6.75000000e-010,-1.63406185e-003
,,,-6.50000000e-010,-1.75078060e-003
,,,-6.25000000e-010,-1.85999935e-003
,,,-6.00000000e-010,-1.97249936e-003
,,,-5.75000000e-010,-2.08312436e-003
,,,-5.50000000e-010,-2.19374936e-003
,,,-5.25000000e-010,-2.30718686e-003
,,,-5.00000000e-010,-2.42484311e-003
,,,-4.75000000e-010,-2.54859311e-003
,,,-4.50000000e-010,-2.67984311e-003
,,,-4.25000000e-010,-2.81999936e-003
,,,-4.00000000e-010,-2.97093686e-003
,,,-3.75000000e-010,-3.13265562e-003
,,,-3.50000000e-010,-3.30328062e-003
,,,-3.25000000e-010,-3.47906187e-003
,,,-3.00000000e-010,-3.65484312e-003
,,,-2.75000000e-010,-3.82640562e-003
,,,-2.50000000e-010,-3.98906187e-003
,,,-2.25000000e-010,-4.13999937e-003
,,,-2.00000000e-010,-4.26796813e-003
,,,-1.75000000e-010,-4.38562438e-003
,,,-1.50000000e-010,-4.49531188e-003
,,,-1.25000000e-010,-4.59843688e-003
,,,-1.00000000e-010,-4.69687438e-003
,,,-7.50000000e-011,-4.79249938e-003
,,,-5.00000000e-011,-4.88671813e-003
,,,-2.50000000e-011,-4.97999938e-003
,,,0.00000000e+000,-5.05593688e-003
,,,2.50000000e-011,-5.13515563e-003
,,,5.00000000e-011,-5.21812438e-003
,,,7.50000000e-011,-5.30156188e-003
,,,1.00000000e-010,-5.38312439e-003
,,,1.25000000e-010,-5.45906189e-003
,,,1.50000000e-010,-5.52562439e-003
,,,1.75000000e-010,-5.57999939e-003
,,,2.00000000e-010,-5.59734314e-003
,,,2.25000000e-010,-5.60484314e-003
,,,2.50000000e-010,-5.60531189e-003
,,,2.75000000e-010,-5.60109314e-003
,,,3.00000000e-010,-5.59499939e-003
,,,3.25000000e-010,-5.58796814e-003
,,,3.50000000e-010,-5.58281189e-003
,,,3.75000000e-010,-5.57999939e-003
,,,4.00000000e-010,-5.55796814e-003
,,,4.25000000e-010,-5.54343689e-003
,,,4.50000000e-010,-5.53640564e-003
,,,4.75000000e-010,-5.53734314e-003
,,,5.00000000e-010,-5.54437439e-003
,,,5.25000000e-010,-5.55515564e-003
,,,5.50000000e-010,-5.56828064e-003
,,,5.75000000e-010,-5.57999939e-003
,,,6.00000000e-010,-5.56640564e-003
,,,6.25000000e-010,-5.55046814e-003
,,,6.50000000e-010,-5.53359314e-003
,,,6.75000000e-010,-5.51671814e-003
,,,7.00000000e-010,-5.50078064e-003
,,,7.25000000e-010,-5.48624939e-003
,,,7.50000000e-010,-5.47265564e-003
,,,7.75000000e-010,-5.45999939e-003
,,,8.00000000e-010,-5.42765564e-003
,,,8.25000000e-010,-5.39296814e-003
,,,8.50000000e-010,-5.35593689e-003
,,,8.75000000e-010,-5.31515563e-003
,,,9.00000000e-010,-5.27015563e-003
,,,9.25000000e-010,-5.21999938e-003
,,,9.50000000e-010,-5.16374938e-003
,,,9.75000000e-010,-5.09999938e-003
,,,1.00000000e-009,-5.01468688e-003
,,,1.02500000e-009,-4.92234313e-003
,,,1.05000000e-009,-4.82531188e-003
,,,1.07500000e-009,-4.72781188e-003
,,,1.10000000e-009,-4.63171813e-003
,,,1.12500000e-009,-4.54078063e-003
,,,1.15000000e-009,-4.45640563e-003
,,,1.17500000e-009,-4.37999938e-003
,,,1.20000000e-009,-4.30312438e-003
,,,1.22500000e-009,-4.22999938e-003
,,,1.25000000e-009,-4.15921812e-003
,,,1.27500000e-009,-4.08890562e-003
,,,1.30000000e-009,-4.01765562e-003
,,,1.32500000e-009,-3.94359312e-003
,,,1.35000000e-009,-3.86484312e-003
,,,1.37500000e-009,-3.77999937e-003
,,,1.40000000e-009,-3.68390562e-003
,,,1.42500000e-009,-3.57937437e-003
,,,1.45000000e-009,-3.46828062e-003
,,,1.47500000e-009,-3.35437437e-003
,,,1.50000000e-009,-3.24093687e-003
,,,1.52500000e-009,-3.13171812e-003
,,,1.55000000e-009,-3.03093687e-003
,,,1.57500000e-009,-2.93999936e-003
,,,1.60000000e-009,-2.86078061e-003
,,,1.62500000e-009,-2.78859311e-003
,,,1.65000000e-009,-2.72390561e-003
,,,1.67500000e-009,-2.66437436e-003
,,,1.70000000e-009,-2.60999936e-003
,,,1.72500000e-009,-2.55890561e-003
,,,1.75000000e-009,-2.50921811e-003
,,,1.77500000e-009,-2.45999936e-003
,,,1.80000000e-009,-2.41218686e-003
,,,1.82500000e-009,-2.35781186e-003
,,,1.85000000e-009,-2.29734311e-003
,,,1.87500000e-009,-2.23312436e-003
,,,1.90000000e-009,-2.16703061e-003
,,,1.92500000e-009,-2.10093686e-003
,,,1.95000000e-009,-2.03812436e-003
,,,1.97500000e-009,-1.97999936e-003
,,,2.00000000e-009,-1.93078061e-003
,,,2.02500000e-009,-1.88296811e-003
,,,2.05000000e-009,-1.83656185e-003
,,,2.07500000e-009,-1.79156185e-003
,,,2.10000000e-009,-1.74749935e-003
,,,2.12500000e-009,-1.70484310e-003
,,,2.15000000e-009,-1.66265560e-003
,,,2.17500000e-009,-1.61999935e-003
,,,2.20000000e-009,-1.57921810e-003
,,,2.22500000e-009,-1.53234310e-003
,,,2.25000000e-009,-1.47843685e-003
,,,2.27500000e-009,-1.41843685e-003
,,,2.30000000e-009,-1.35328060e-003
,,,2.32500000e-009,-1.28437435e-003
,,,2.35000000e-009,-1.21265560e-003
,,,2.37500000e-009,-1.13999935e-003
,,,2.40000000e-009,-1.07437435e-003
,,,2.42500000e-009,-1.00781185e-003
,,,2.45000000e-009,-9.41249347e-004
,,,2.47500000e-009,-8.76093096e-004
,,,2.50000000e-009,-8.14218096e-004
,,,2.52500000e-009,-7.57030595e-004
,,,2.55000000e-009,-7.05468095e-004
,,,2.57500000e-009,-6.59999344e-004
,,,2.60000000e-009,-6.28593094e-004
,,,2.62500000e-009,-5.99530594e-004
,,,2.65000000e-009,-5.71874344e-004
,,,2.67500000e-009,-5.45155593e-004
,,,2.70000000e-009,-5.17030593e-004
,,,2.72500000e-009,-4.87499343e-004
,,,2.75000000e-009,-4.55624343e-004
,,,2.77500000e-009,-4.19999342e-004
,,,2.80000000e-009,-3.89999342e-004
,,,2.82500000e-009,-3.54374342e-004
,,,2.85000000e-009,-3.13124341e-004
,,,2.87500000e-009,-2.66718091e-004
,,,2.90000000e-009,-2.16561841e-004
,,,2.92500000e-009,-1.64061840e-004
,,,2.95000000e-009,-1.11093090e-004
,,,2.97500000e-009,-5.99993393e-005
,,,3.00000000e-009,-2.39055890e-005
,,,3.02500000e-009,7.96941131e-006
,,,3.05000000e-009,3.46881615e-005
,,,3.07500000e-009,5.48444117e-005
,,,3.10000000e-009,6.79694118e-005
,,,3.12500000e-009,7.31256619e-005
,,,3.15000000e-009,7.03131619e-005
,,,3.17500000e-009,6.00006618e-005
,,,3.20000000e-009,3.18756615e-005
,,,3.22500000e-009,6.61239028e-010
,,,3.25000000e-009,-3.37493391e-005
,,,3.27500000e-009,-6.79680894e-005
,,,3.30000000e-009,-1.01249340e-004
,,,3.32500000e-009,-1.31249340e-004
,,,3.35000000e-009,-1.57968090e-004
,,,3.37500000e-009,-1.79999340e-004
,,,3.40000000e-009,-2.03436841e-004
,,,3.42500000e-009,-2.21249341e-004
,,,3.45000000e-009,-2.35780591e-004
,,,3.47500000e-009,-2.47030591e-004
,,,3.50000000e-009,-2.57343091e-004
,,,3.52500000e-009,-2.69061841e-004
,,,3.55000000e-009,-2.82655591e-004
,,,3.57500000e-009,-2.99999341e-004
,,,3.60000000e-009,-3.23436842e-004
,,,3.62500000e-009,-3.50155592e-004
,,,3.65000000e-009,-3.80155592e-004
,,,3.67500000e-009,-4.12499342e-004
,,,3.70000000e-009,-4.45780593e-004
,,,3.72500000e-009,-4.79061843e-004
,,,3.75000000e-009,-5.10936843e-004
,,,3.77500000e-009,-5.39999343e-004
,,,3.80000000e-009,-5.64843094e-004
,,,3.82500000e-009,-5.85468094e-004
,,,3.85000000e-009,-6.02811844e-004
,,,3.87500000e-009,-6.16874344e-004
,,,3.90000000e-009,-6.29061844e-004
,,,3.92500000e-009,-6.39843094e-004
,,,3.95000000e-009,-6.50155594e-004
,,,3.97500000e-009,-6.59999344e-004
,,,4.00000000e-009,-6.65155595e-004
,,,4.02500000e-009,-6.70311845e-004
,,,4.05000000e-009,-6.74530595e-004
,,,4.07500000e-009,-6.77811845e-004
,,,4.10000000e-009,-6.79218095e-004
,,,4.12500000e-009,-6.77343095e-004
,,,4.15000000e-009,-6.71249345e-004
,,,4.17500000e-009,-6.59999344e-004
,,,4.20000000e-009,-6.40311844e-004
,,,4.22500000e-009,-6.15936844e-004
,,,4.25000000e-009,-5.88280594e-004
,,,4.27500000e-009,-5.56874344e-004
,,,4.30000000e-009,-5.23593093e-004
,,,4.32500000e-009,-4.88905593e-004
,,,4.35000000e-009,-4.54218093e-004
,,,4.37500000e-009,-4.19999342e-004
,,,4.40000000e-009,-3.88124342e-004
,,,4.42500000e-009,-3.60468092e-004
,,,4.45000000e-009,-3.37499342e-004
,,,4.47500000e-009,-3.19686842e-004
,,,4.50000000e-009,-3.07499341e-004
,,,4.52500000e-009,-3.00468091e-004
,,,4.55000000e-009,-2.98593091e-004
,,,4.57500000e-009,-2.99999341e-004
,,,4.60000000e-009,-3.04218091e-004
,,,4.62500000e-009,-3.09374341e-004
,,,4.65000000e-009,-3.14530591e-004
,,,4.67500000e-009,-3.18280592e-004
,,,4.70000000e-009,-3.19686842e-004
,,,4.72500000e-009,-3.17343092e-004
,,,4.75000000e-009,-3.10780591e-004
,,,4.77500000e-009,-2.99999341e-004
,,,4.80000000e-009,-2.85468091e-004
,,,4.82500000e-009,-2.67186841e-004
,,,4.85000000e-009,-2.47030591e-004
,,,4.87500000e-009,-2.26405591e-004
,,,4.90000000e-009,-2.07655591e-004
,,,4.92500000e-009,-1.92655590e-004
,,,4.95000000e-009,-1.82811840e-004
,,,4.97500000e-009,-1.79999340e-004
,,,5.00000000e-009,-1.86093090e-004
,,,5.02500000e-009,-1.99218090e-004
,,,5.05000000e-009,-2.20780591e-004
,,,5.07500000e-009,-2.49843091e-004
,,,5.10000000e-009,-2.85936841e-004
,,,5.12500000e-009,-3.27186842e-004
,,,5.15000000e-009,-3.73124342e-004
,,,5.17500000e-009,-4.19999342e-004
,,,5.20000000e-009,-4.64061843e-004
,,,5.22500000e-009,-5.02499343e-004
,,,5.25000000e-009,-5.33905593e-004
,,,5.27500000e-009,-5.56874344e-004
,,,5.30000000e-009,-5.69530594e-004
,,,5.32500000e-009,-5.70936844e-004
,,,5.35000000e-009,-5.61093094e-004
,,,5.37500000e-009,-5.39999343e-004
,,,5.40000000e-009,-5.04843093e-004
,,,5.42500000e-009,-4.61249343e-004
,,,5.45000000e-009,-4.12030592e-004
,,,5.47500000e-009,-3.59999342e-004
,,,5.50000000e-009,-3.08436841e-004
,,,5.52500000e-009,-2.59686841e-004
,,,5.55000000e-009,-2.16561841e-004
,,,5.57500000e-009,-1.79999340e-004
,,,5.60000000e-009,-1.49999340e-004
,,,5.62500000e-009,-1.27030590e-004
,,,5.65000000e-009,-1.10155590e-004
,,,5.67500000e-009,-9.84368396e-005
,,,5.70000000e-009,-8.99993395e-005
,,,5.72500000e-009,-8.20305895e-005
,,,5.75000000e-009,-7.26555894e-005
,,,5.77500000e-009,-5.99993393e-005
,,,5.80000000e-009,-4.26555891e-005
,,,5.82500000e-009,-2.01555889e-005
,,,5.85000000e-009,7.50066130e-006
,,,5.87500000e-009,3.98444116e-005
