RawData/SinglePhotoelectron/L1_2pt2A_5mV/wave015_Ch1.csv

"Record Length",1000,"Points",-7.72500000e-009,-1.65936840e-004
"Sample Interval",2.50000000e-011,s,-7.70000000e-009,-1.51405590e-004
"Trigger Point",309,"Samples",-7.67500000e-009,-1.36874340e-004
"Trigger Time",2.24537349e-011,s,-7.65000000e-009,-1.22343090e-004
"",,,-7.62500000e-009,-1.07343090e-004
"Horizontal Offset",-7.72500000e-009,s,-7.60000000e-009,-9.18743396e-005
,,,-7.57500000e-009,-7.59368394e-005
,,,-7.55000000e-009,-5.99993393e-005
,,,-7.52500000e-009,-4.54680892e-005
,,,-7.50000000e-009,-3.04680890e-005
,,,-7.47500000e-009,-1.49993389e-005
,,,-7.45000000e-009,9.38161247e-007
,,,-7.42500000e-009,1.64069114e-005
,,,-7.40000000e-009,3.14069115e-005
,,,-7.37500000e-009,4.59381616e-005
,,,-7.35000000e-009,6.00006618e-005
,,,-7.32500000e-009,6.93756618e-005
,,,-7.30000000e-009,7.87506619e-005
,,,-7.27500000e-009,8.95319120e-005
,,,-7.25000000e-009,1.02188162e-004
,,,-7.22500000e-009,1.17188162e-004
,,,-7.20000000e-009,1.35469412e-004
,,,-7.17500000e-009,1.56094413e-004
,,,-7.15000000e-009,1.80000663e-004
,,,-7.12500000e-009,2.00156913e-004
,,,-7.10000000e-009,2.21719413e-004
,,,-7.07500000e-009,2.42813163e-004
,,,-7.05000000e-009,2.62031914e-004
,,,-7.02500000e-009,2.78438164e-004
,,,-7.00000000e-009,2.91094414e-004
,,,-6.97500000e-009,2.98125664e-004
,,,-6.95000000e-009,3.00000664e-004
,,,-6.92500000e-009,2.89688164e-004
,,,-6.90000000e-009,2.75156914e-004
,,,-6.87500000e-009,2.57344413e-004
,,,-6.85000000e-009,2.38125663e-004
,,,-6.82500000e-009,2.19375663e-004
,,,-6.80000000e-009,2.02969413e-004
,,,-6.77500000e-009,1.89375663e-004
,,,-6.75000000e-009,1.80000663e-004
,,,-6.72500000e-009,1.69219413e-004
,,,-6.70000000e-009,1.60781913e-004
,,,-6.67500000e-009,1.52813163e-004
,,,-6.65000000e-009,1.44375662e-004
,,,-6.62500000e-009,1.32188162e-004
,,,-6.60000000e-009,1.15313162e-004
,,,-6.57500000e-009,9.14069120e-005
,,,-6.55000000e-009,6.00006618e-005
,,,-6.52500000e-009,1.87506614e-005
,,,-6.50000000e-009,-2.85930890e-005
,,,-6.47500000e-009,-7.96868395e-005
,,,-6.45000000e-009,-1.32186840e-004
,,,-6.42500000e-009,-1.82811840e-004
,,,-6.40000000e-009,-2.29686841e-004
,,,-6.37500000e-009,-2.69061841e-004
,,,-6.35000000e-009,-2.99999341e-004
,,,-6.32500000e-009,-3.18749342e-004
,,,-6.30000000e-009,-3.28124342e-004
,,,-6.27500000e-009,-3.29530592e-004
,,,-6.25000000e-009,-3.24843092e-004
,,,-6.22500000e-009,-3.16874342e-004
,,,-6.20000000e-009,-3.08436841e-004
,,,-6.17500000e-009,-3.02343091e-004
,,,-6.15000000e-009,-2.99999341e-004
,,,-6.12500000e-009,-2.99999341e-004
,,,-6.10000000e-009,-3.05624341e-004
,,,-6.07500000e-009,-3.17811842e-004
,,,-6.05000000e-009,-3.35155592e-004
,,,-6.02500000e-009,-3.55780592e-004
,,,-6.00000000e-009,-3.77811842e-004
,,,-5.97500000e-009,-4.00311842e-004
,,,-5.95000000e-009,-4.19999342e-004
,,,-5.92500000e-009,-4.32655593e-004
,,,-5.90000000e-009,-4.41561843e-004
,,,-5.87500000e-009,-4.45780593e-004
,,,-5.85000000e-009,-4.46718093e-004
,,,-5.82500000e-009,-4.43905593e-004
,,,-5.80000000e-009,-4.38280593e-004
,,,-5.77500000e-009,-4.29843092e-004
,,,-5.75000000e-009,-4.19999342e-004
,,,-5.72500000e-009,-4.05936842e-004
,,,-5.70000000e-009,-3.91405592e-004
,,,-5.67500000e-009,-3.77343092e-004
,,,-5.65000000e-009,-3.63280592e-004
,,,-5.62500000e-009,-3.49218092e-004
,,,-5.60000000e-009,-3.34218092e-004
,,,-5.57500000e-009,-3.18280592e-004
,,,-5.55000000e-009,-2.99999341e-004
,,,-5.52500000e-009,-2.77499341e-004
,,,-5.50000000e-009,-2.52186841e-004
,,,-5.47500000e-009,-2.24999341e-004
,,,-5.45000000e-009,-1.94999340e-004
,,,-5.42500000e-009,-1.63124340e-004
,,,-5.40000000e-009,-1.29843090e-004
,,,-5.37500000e-009,-9.51555896e-005
,,,-5.35000000e-009,-5.99993393e-005
,,,-5.32500000e-009,-2.76555890e-005
,,,-5.30000000e-009,2.34441126e-006
,,,-5.27500000e-009,2.85944115e-005
,,,-5.25000000e-009,4.92194117e-005
,,,-5.22500000e-009,6.37506618e-005
,,,-5.20000000e-009,7.07819119e-005
,,,-5.17500000e-009,6.93756618e-005
,,,-5.15000000e-009,6.00006618e-005
,,,-5.12500000e-009,4.03131616e-005
,,,-5.10000000e-009,1.40631614e-005
,,,-5.07500000e-009,-1.64055889e-005
,,,-5.05000000e-009,-5.06243392e-005
,,,-5.02500000e-009,-8.57805895e-005
,,,-5.00000000e-009,-1.20468090e-004
,,,-4.97500000e-009,-1.52343090e-004
,,,-4.95000000e-009,-1.79999340e-004
,,,-4.92500000e-009,-2.02030591e-004
,,,-4.90000000e-009,-2.17030591e-004
,,,-4.87500000e-009,-2.24530591e-004
,,,-4.85000000e-009,-2.25468091e-004
,,,-4.82500000e-009,-2.20311841e-004
,,,-4.80000000e-009,-2.09999341e-004
,,,-4.77500000e-009,-1.96405590e-004
,,,-4.75000000e-009,-1.79999340e-004
,,,-4.72500000e-009,-1.62186840e-004
,,,-4.70000000e-009,-1.43436840e-004
,,,-4.67500000e-009,-1.25155590e-004
,,,-4.65000000e-009,-1.07811840e-004
,,,-4.62500000e-009,-9.23430896e-005
,,,-4.60000000e-009,-7.92180894e-005
,,,-4.57500000e-009,-6.84368394e-005
,,,-4.55000000e-009,-5.99993393e-005
,,,-4.52500000e-009,-5.48430892e-005
,,,-4.50000000e-009,-5.15618392e-005
,,,-4.47500000e-009,-5.01555892e-005
,,,-4.45000000e-009,-5.06243392e-005
,,,-4.42500000e-009,-5.15618392e-005
,,,-4.40000000e-009,-5.39055892e-005
,,,-4.37500000e-009,-5.71868393e-005
,,,-4.35000000e-009,-5.99993393e-005
,,,-4.32500000e-009,-6.23430893e-005
,,,-4.30000000e-009,-6.42180893e-005
,,,-4.27500000e-009,-6.51555893e-005
,,,-4.25000000e-009,-6.60930893e-005
,,,-4.22500000e-009,-6.56243393e-005
,,,-4.20000000e-009,-6.51555893e-005
,,,-4.17500000e-009,-6.32805893e-005
,,,-4.15000000e-009,-5.99993393e-005
,,,-4.12500000e-009,-5.53118392e-005
,,,-4.10000000e-009,-4.78118392e-005
,,,-4.07500000e-009,-3.84368391e-005
,,,-4.05000000e-009,-2.57805890e-005
,,,-4.02500000e-009,-9.84308885e-006
,,,-4.00000000e-009,1.03131613e-005
,,,-3.97500000e-009,3.32819115e-005
,,,-3.95000000e-009,6.00006618e-005
,,,-3.92500000e-009,8.67194120e-005
,,,-3.90000000e-009,1.13906912e-004
,,,-3.87500000e-009,1.39219412e-004
,,,-3.85000000e-009,1.60781913e-004
,,,-3.82500000e-009,1.76719413e-004
,,,-3.80000000e-009,1.85625663e-004
,,,-3.77500000e-009,1.87031913e-004
,,,-3.75000000e-009,1.80000663e-004
,,,-3.72500000e-009,1.62188163e-004
,,,-3.70000000e-009,1.39688162e-004
,,,-3.67500000e-009,1.15313162e-004
,,,-3.65000000e-009,9.14069120e-005
,,,-3.62500000e-009,7.17194119e-005
,,,-3.60000000e-009,5.85944117e-005
,,,-3.57500000e-009,5.43756617e-005
,,,-3.55000000e-009,6.00006618e-005
,,,-3.52500000e-009,7.35944119e-005
,,,-3.50000000e-009,9.46881621e-005
,,,-3.47500000e-009,1.20000662e-004
,,,-3.45000000e-009,1.45781913e-004
,,,-3.42500000e-009,1.67813163e-004
,,,-3.40000000e-009,1.82813163e-004
,,,-3.37500000e-009,1.87500663e-004
,,,-3.35000000e-009,1.80000663e-004
,,,-3.32500000e-009,1.56094413e-004
,,,-3.30000000e-009,1.22813162e-004
,,,-3.27500000e-009,8.25006620e-005
,,,-3.25000000e-009,3.98444116e-005
,,,-3.22500000e-009,6.61239028e-010
,,,-3.20000000e-009,-3.18743390e-005
,,,-3.17500000e-009,-5.29680892e-005
,,,-3.15000000e-009,-5.99993393e-005
,,,-3.12500000e-009,-5.48430892e-005
,,,-3.10000000e-009,-3.84368391e-005
,,,-3.07500000e-009,-1.35930889e-005
,,,-3.05000000e-009,1.45319114e-005
,,,-3.02500000e-009,4.07819116e-005
,,,-3.00000000e-009,5.90631618e-005
,,,-2.97500000e-009,6.65631618e-005
,,,-2.95000000e-009,6.00006618e-005
,,,-2.92500000e-009,3.70319116e-005
,,,-2.90000000e-009,1.87566126e-006
,,,-2.87500000e-009,-4.12493391e-005
,,,-2.85000000e-009,-8.67180895e-005
,,,-2.82500000e-009,-1.28905590e-004
,,,-2.80000000e-009,-1.61718090e-004
,,,-2.77500000e-009,-1.79530590e-004
,,,-2.75000000e-009,-1.79999340e-004
,,,-2.72500000e-009,-1.62186840e-004
,,,-2.70000000e-009,-1.29374340e-004
,,,-2.67500000e-009,-8.62493395e-005
,,,-2.65000000e-009,-3.89055891e-005
,,,-2.62500000e-009,6.09441129e-006
,,,-2.60000000e-009,4.07819116e-005
,,,-2.57500000e-009,6.04694118e-005
,,,-2.55000000e-009,6.00006618e-005
,,,-2.52500000e-009,3.51569115e-005
,,,-2.50000000e-009,-1.03118389e-005
,,,-2.47500000e-009,-7.26555894e-005
,,,-2.45000000e-009,-1.46718090e-004
,,,-2.42500000e-009,-2.25468091e-004
,,,-2.40000000e-009,-3.01405591e-004
,,,-2.37500000e-009,-3.68436842e-004
,,,-2.35000000e-009,-4.19999342e-004
,,,-2.32500000e-009,-4.50936843e-004
,,,-2.30000000e-009,-4.61718093e-004
,,,-2.27500000e-009,-4.55624343e-004
,,,-2.25000000e-009,-4.34530593e-004
,,,-2.22500000e-009,-4.03593092e-004
,,,-2.20000000e-009,-3.67499342e-004
,,,-2.17500000e-009,-3.31874342e-004
,,,-2.15000000e-009,-2.99999341e-004
,,,-2.12500000e-009,-2.76093091e-004
,,,-2.10000000e-009,-2.61561841e-004
,,,-2.07500000e-009,-2.56405591e-004
,,,-2.05000000e-009,-2.59686841e-004
,,,-2.02500000e-009,-2.68593091e-004
,,,-2.00000000e-009,-2.79843091e-004
,,,-1.97500000e-009,-2.91561841e-004
,,,-1.95000000e-009,-2.99999341e-004
,,,-1.92500000e-009,-3.03280591e-004
,,,-1.90000000e-009,-3.02343091e-004
,,,-1.87500000e-009,-2.98593091e-004
,,,-1.85000000e-009,-2.93436841e-004
,,,-1.82500000e-009,-2.89218091e-004
,,,-1.80000000e-009,-2.87811841e-004
,,,-1.77500000e-009,-2.91093091e-004
,,,-1.75000000e-009,-2.99999341e-004
,,,-1.72500000e-009,-3.16874342e-004
,,,-1.70000000e-009,-3.38436842e-004
,,,-1.67500000e-009,-3.62343092e-004
,,,-1.65000000e-009,-3.86249342e-004
,,,-1.62500000e-009,-4.06405592e-004
,,,-1.60000000e-009,-4.20468092e-004
,,,-1.57500000e-009,-4.25155592e-004
,,,-1.55000000e-009,-4.19999342e-004
,,,-1.52500000e-009,-4.07811842e-004
,,,-1.50000000e-009,-3.89530592e-004
,,,-1.47500000e-009,-3.66561842e-004
,,,-1.45000000e-009,-3.43124342e-004
,,,-1.42500000e-009,-3.22030592e-004
,,,-1.40000000e-009,-3.06561841e-004
,,,-1.37500000e-009,-2.99061841e-004
,,,-1.35000000e-009,-2.99999341e-004
,,,-1.32500000e-009,-3.21093092e-004
,,,-1.30000000e-009,-3.50155592e-004
,,,-1.27500000e-009,-3.82968092e-004
,,,-1.25000000e-009,-4.13436842e-004
,,,-1.22500000e-009,-4.36874343e-004
,,,-1.20000000e-009,-4.47655593e-004
,,,-1.17500000e-009,-4.42968093e-004
,,,-1.15000000e-009,-4.19999342e-004
,,,-1.12500000e-009,-3.97968092e-004
,,,-1.10000000e-009,-3.65624342e-004
,,,-1.07500000e-009,-3.25311842e-004
,,,-1.05000000e-009,-2.82655591e-004
,,,-1.02500000e-009,-2.41874341e-004
,,,-1.00000000e-009,-2.07655591e-004
,,,-9.75000000e-010,-1.86093090e-004
,,,-9.50000000e-010,-1.79999340e-004
,,,-9.25000000e-010,-2.19374341e-004
,,,-9.00000000e-010,-2.80780591e-004
,,,-8.75000000e-010,-3.59061842e-004
,,,-8.50000000e-010,-4.48124343e-004
,,,-8.25000000e-010,-5.40936843e-004
,,,-8.00000000e-010,-6.30936844e-004
,,,-7.75000000e-010,-7.12030595e-004
,,,-7.50000000e-010,-7.79999346e-004
,,,-7.25000000e-010,-8.59686846e-004
,,,-7.00000000e-010,-9.29061847e-004
,,,-6.75000000e-010,-9.89530597e-004
,,,-6.50000000e-010,-1.04249935e-003
,,,-6.25000000e-010,-1.09218685e-003
,,,-6.00000000e-010,-1.14187435e-003
,,,-5.75000000e-010,-1.19624935e-003
,,,-5.50000000e-010,-1.25999935e-003
,,,-5.25000000e-010,-1.35984310e-003
,,,-5.00000000e-010,-1.47890560e-003
,,,-4.75000000e-010,-1.61578060e-003
,,,-4.50000000e-010,-1.76812435e-003
,,,-4.25000000e-010,-1.93265561e-003
,,,-4.00000000e-010,-2.10468686e-003
,,,-3.75000000e-010,-2.28140561e-003
,,,-3.50000000e-010,-2.45999936e-003
,,,-3.25000000e-010,-2.64703061e-003
,,,-3.00000000e-010,-2.83640561e-003
,,,-2.75000000e-010,-3.02718687e-003
,,,-2.50000000e-010,-3.22031187e-003
,,,-2.25000000e-010,-3.41578062e-003
,,,-2.00000000e-010,-3.61406187e-003
,,,-1.75000000e-010,-3.81562437e-003
,,,-1.50000000e-010,-4.01999937e-003
,,,-1.25000000e-010,-4.21781188e-003
,,,-1.00000000e-010,-4.41937438e-003
,,,-7.50000000e-011,-4.62328063e-003
,,,-5.00000000e-011,-4.82671813e-003
,,,-2.50000000e-011,-5.02781188e-003
,,,0.00000000e+000,-5.22234313e-003
,,,2.50000000e-011,-5.40749939e-003
,,,5.00000000e-011,-5.57999939e-003
,,,7.50000000e-011,-5.70937439e-003
,,,1.00000000e-010,-5.82749939e-003
,,,1.25000000e-010,-5.93718689e-003
,,,1.50000000e-010,-6.04031189e-003
,,,1.75000000e-010,-6.13968689e-003
,,,2.00000000e-010,-6.23624939e-003
,,,2.25000000e-010,-6.32999939e-003
,,,2.50000000e-010,-6.41999939e-003
,,,2.75000000e-010,-6.46874939e-003
,,,3.00000000e-010,-6.51515565e-003
,,,3.25000000e-010,-6.55874940e-003
,,,3.50000000e-010,-6.59812440e-003
,,,3.75000000e-010,-6.63093690e-003
,,,4.00000000e-010,-6.65390565e-003
,,,4.25000000e-010,-6.66468690e-003
,,,4.50000000e-010,-6.65999940e-003
,,,4.75000000e-010,-6.59812440e-003
,,,5.00000000e-010,-6.52499940e-003
,,,5.25000000e-010,-6.44484314e-003
,,,5.50000000e-010,-6.36234314e-003
,,,5.75000000e-010,-6.28031189e-003
,,,6.00000000e-010,-6.20203064e-003
,,,6.25000000e-010,-6.12890564e-003
,,,6.50000000e-010,-6.05999939e-003
,,,6.75000000e-010,-5.96109314e-003
,,,7.00000000e-010,-5.86546814e-003
,,,7.25000000e-010,-5.77171814e-003
,,,7.50000000e-010,-5.67703064e-003
,,,7.75000000e-010,-5.57812439e-003
,,,8.00000000e-010,-5.47078064e-003
,,,8.25000000e-010,-5.35218689e-003
,,,8.50000000e-010,-5.21999938e-003
,,,8.75000000e-010,-5.05265563e-003
,,,9.00000000e-010,-4.87406188e-003
,,,9.25000000e-010,-4.69031188e-003
,,,9.50000000e-010,-4.50749938e-003
,,,9.75000000e-010,-4.33171813e-003
,,,1.00000000e-009,-4.16906187e-003
,,,1.02500000e-009,-4.02421812e-003
,,,1.05000000e-009,-3.89999937e-003
,,,1.07500000e-009,-3.79218687e-003
,,,1.10000000e-009,-3.70218687e-003
,,,1.12500000e-009,-3.62624937e-003
,,,1.15000000e-009,-3.56062437e-003
,,,1.17500000e-009,-3.50015562e-003
,,,1.20000000e-009,-3.43968687e-003
,,,1.22500000e-009,-3.37453062e-003
,,,1.25000000e-009,-3.29999937e-003
,,,1.27500000e-009,-3.21656187e-003
,,,1.30000000e-009,-3.11578062e-003
,,,1.32500000e-009,-2.99906186e-003
,,,1.35000000e-009,-2.87062436e-003
,,,1.37500000e-009,-2.73515561e-003
,,,1.40000000e-009,-2.59828061e-003
,,,1.42500000e-009,-2.46515561e-003
,,,1.45000000e-009,-2.33999936e-003
,,,1.47500000e-009,-2.23921811e-003
,,,1.50000000e-009,-2.14734311e-003
,,,1.52500000e-009,-2.06390561e-003
,,,1.55000000e-009,-1.98843686e-003
,,,1.57500000e-009,-1.91953061e-003
,,,1.60000000e-009,-1.85578060e-003
,,,1.62500000e-009,-1.79671810e-003
,,,1.65000000e-009,-1.73999935e-003
,,,1.67500000e-009,-1.70062435e-003
,,,1.70000000e-009,-1.65703060e-003
,,,1.72500000e-009,-1.61015560e-003
,,,1.75000000e-009,-1.56046810e-003
,,,1.77500000e-009,-1.51031185e-003
,,,1.80000000e-009,-1.46203060e-003
,,,1.82500000e-009,-1.41796810e-003
,,,1.85000000e-009,-1.37999935e-003
,,,1.87500000e-009,-1.36499935e-003
,,,1.90000000e-009,-1.35234310e-003
,,,1.92500000e-009,-1.34062435e-003
,,,1.95000000e-009,-1.32890560e-003
,,,1.97500000e-009,-1.31531185e-003
,,,2.00000000e-009,-1.29984310e-003
,,,2.02500000e-009,-1.28156185e-003
,,,2.05000000e-009,-1.25999935e-003
,,,2.07500000e-009,-1.24781185e-003
,,,2.10000000e-009,-1.23093685e-003
,,,2.12500000e-009,-1.21078060e-003
,,,2.15000000e-009,-1.18968685e-003
,,,2.17500000e-009,-1.16999935e-003
,,,2.20000000e-009,-1.15359310e-003
,,,2.22500000e-009,-1.14328060e-003
,,,2.25000000e-009,-1.13999935e-003
,,,2.27500000e-009,-1.15406185e-003
,,,2.30000000e-009,-1.17187435e-003
,,,2.32500000e-009,-1.19249935e-003
,,,2.35000000e-009,-1.21265560e-003
,,,2.37500000e-009,-1.23093685e-003
,,,2.40000000e-009,-1.24593685e-003
,,,2.42500000e-009,-1.25578060e-003
,,,2.45000000e-009,-1.25999935e-003
,,,2.47500000e-009,-1.26374935e-003
,,,2.50000000e-009,-1.26234310e-003
,,,2.52500000e-009,-1.25671810e-003
,,,2.55000000e-009,-1.24968685e-003
,,,2.57500000e-009,-1.24406185e-003
,,,2.60000000e-009,-1.24218685e-003
,,,2.62500000e-009,-1.24734310e-003
,,,2.65000000e-009,-1.25999935e-003
,,,2.67500000e-009,-1.28484310e-003
,,,2.70000000e-009,-1.31671810e-003
,,,2.72500000e-009,-1.35281185e-003
,,,2.75000000e-009,-1.39078060e-003
,,,2.77500000e-009,-1.42781185e-003
,,,2.80000000e-009,-1.45968685e-003
,,,2.82500000e-009,-1.48453060e-003
,,,2.85000000e-009,-1.49999935e-003
,,,2.87500000e-009,-1.50421810e-003
,,,2.90000000e-009,-1.49859310e-003
,,,2.92500000e-009,-1.48453060e-003
,,,2.95000000e-009,-1.46437435e-003
,,,2.97500000e-009,-1.44093685e-003
,,,3.00000000e-009,-1.41749935e-003
,,,3.02500000e-009,-1.39640560e-003
,,,3.05000000e-009,-1.37999935e-003
,,,3.07500000e-009,-1.36828060e-003
,,,3.10000000e-009,-1.36218685e-003
,,,3.12500000e-009,-1.36171810e-003
,,,3.15000000e-009,-1.36499935e-003
,,,3.17500000e-009,-1.37015560e-003
,,,3.20000000e-009,-1.37578060e-003
,,,3.22500000e-009,-1.37953060e-003
,,,3.25000000e-009,-1.37999935e-003
,,,3.27500000e-009,-1.37437435e-003
,,,3.30000000e-009,-1.36546810e-003
,,,3.32500000e-009,-1.35609310e-003
,,,3.35000000e-009,-1.34859310e-003
,,,3.37500000e-009,-1.34484310e-003
,,,3.40000000e-009,-1.34812435e-003
,,,3.42500000e-009,-1.35937435e-003
,,,3.45000000e-009,-1.37999935e-003
,,,3.47500000e-009,-1.40578060e-003
,,,3.50000000e-009,-1.43812435e-003
,,,3.52500000e-009,-1.47515560e-003
,,,3.55000000e-009,-1.51359310e-003
,,,3.57500000e-009,-1.55015560e-003
,,,3.60000000e-009,-1.58203060e-003
,,,3.62500000e-009,-1.60640560e-003
,,,3.65000000e-009,-1.61999935e-003
,,,3.67500000e-009,-1.61531185e-003
,,,3.70000000e-009,-1.59843685e-003
,,,3.72500000e-009,-1.57124935e-003
,,,3.75000000e-009,-1.53656185e-003
,,,3.77500000e-009,-1.49718685e-003
,,,3.80000000e-009,-1.45593685e-003
,,,3.82500000e-009,-1.41656185e-003
,,,3.85000000e-009,-1.37999935e-003
,,,3.87500000e-009,-1.34296810e-003
,,,3.90000000e-009,-1.31015560e-003
,,,3.92500000e-009,-1.28062435e-003
,,,3.95000000e-009,-1.25390560e-003
,,,3.97500000e-009,-1.22812435e-003
,,,4.00000000e-009,-1.20140560e-003
,,,4.02500000e-009,-1.17281185e-003
,,,4.05000000e-009,-1.13999935e-003
,,,4.07500000e-009,-1.09921810e-003
,,,4.10000000e-009,-1.05374935e-003
,,,4.12500000e-009,-1.00453060e-003
,,,4.15000000e-009,-9.53905597e-004
,,,4.17500000e-009,-9.04218097e-004
,,,4.20000000e-009,-8.57343096e-004
,,,4.22500000e-009,-8.15624346e-004
,,,4.25000000e-009,-7.79999346e-004
,,,4.27500000e-009,-7.51405595e-004
,,,4.30000000e-009,-7.28905595e-004
,,,4.32500000e-009,-7.12030595e-004
,,,4.35000000e-009,-6.99374345e-004
,,,4.37500000e-009,-6.89530595e-004
,,,4.40000000e-009,-6.81093095e-004
,,,4.42500000e-009,-6.71718095e-004
,,,4.45000000e-009,-6.59999344e-004
,,,4.47500000e-009,-6.44530594e-004
,,,4.50000000e-009,-6.23436844e-004
,,,4.52500000e-009,-5.97186844e-004
,,,4.55000000e-009,-5.65780594e-004
,,,4.57500000e-009,-5.31561843e-004
,,,4.60000000e-009,-4.94530593e-004
,,,4.62500000e-009,-4.57030593e-004
,,,4.65000000e-009,-4.19999342e-004
,,,4.67500000e-009,-3.86718092e-004
,,,4.70000000e-009,-3.53436842e-004
,,,4.72500000e-009,-3.21093092e-004
,,,4.75000000e-009,-2.90155591e-004
,,,4.77500000e-009,-2.60155591e-004
,,,4.80000000e-009,-2.32030591e-004
,,,4.82500000e-009,-2.05311841e-004
,,,4.85000000e-009,-1.79999340e-004
,,,4.87500000e-009,-1.61718090e-004
,,,4.90000000e-009,-1.44374340e-004
,,,4.92500000e-009,-1.27499340e-004
,,,4.95000000e-009,-1.11093090e-004
,,,4.97500000e-009,-9.56243396e-005
,,,5.00000000e-009,-8.20305895e-005
,,,5.02500000e-009,-6.98430894e-005
,,,5.05000000e-009,-5.99993393e-005
,,,5.07500000e-009,-5.81243393e-005
,,,5.10000000e-009,-5.76555893e-005
,,,5.12500000e-009,-5.81243393e-005
,,,5.15000000e-009,-5.85930893e-005
,,,5.17500000e-009,-5.99993393e-005
,,,5.20000000e-009,-6.09368393e-005
,,,5.22500000e-009,-6.09368393e-005
,,,5.25000000e-009,-5.99993393e-005
,,,5.27500000e-009,-6.04680893e-005
,,,5.30000000e-009,-5.76555893e-005
,,,5.32500000e-009,-5.01555892e-005
,,,5.35000000e-009,-3.79680891e-005
,,,5.37500000e-009,-2.01555889e-005
,,,5.40000000e-009,2.34441126e-006
,,,5.42500000e-009,2.95319115e-005
,,,5.45000000e-009,6.00006618e-005
,,,5.47500000e-009,8.81256620e-005
,,,5.50000000e-009,1.16250662e-004
,,,5.52500000e-009,1.42969412e-004
,,,5.55000000e-009,1.65938163e-004
,,,5.57500000e-009,1.82813163e-004
,,,5.60000000e-009,1.91719413e-004
,,,5.62500000e-009,1.90781913e-004
,,,5.65000000e-009,1.80000663e-004
,,,5.67500000e-009,1.53281913e-004
,,,5.70000000e-009,1.17188162e-004
,,,5.72500000e-009,7.35944119e-005
,,,5.75000000e-009,2.43756615e-005
,,,5.77500000e-009,-2.81243390e-005
,,,5.80000000e-009,-8.15618395e-005
,,,5.82500000e-009,-1.32655590e-004
,,,5.85000000e-009,-1.79999340e-004
,,,5.87500000e-009,-2.20780591e-004
