RawData/SinglePhotoelectron/L1_2pt2A_5mV/wave013_Ch1.csv

"Record Length",1000,"Points",-7.72500000e-009,5.81256617e-005
"Sample Interval",2.50000000e-011,s,-7.70000000e-009,5.67194117e-005
"Trigger Point",309,"Samples",-7.67500000e-009,5.53131617e-005
"Trigger Time",2.00785586e-011,s,-7.65000000e-009,5.43756617e-005
"",,,-7.62500000e-009,5.43756617e-005
"Horizontal Offset",-7.72500000e-009,s,-7.60000000e-009,5.62506617e-005
,,,-7.57500000e-009,6.00006618e-005
,,,-7.55000000e-009,6.28131618e-005
,,,-7.52500000e-009,6.65631618e-005
,,,-7.50000000e-009,6.98444118e-005
,,,-7.47500000e-009,7.26569119e-005
,,,-7.45000000e-009,7.35944119e-005
,,,-7.42500000e-009,7.21881619e-005
,,,-7.40000000e-009,6.75006618e-005
,,,-7.37500000e-009,6.00006618e-005
,,,-7.35000000e-009,4.73444117e-005
,,,-7.32500000e-009,3.18756615e-005
,,,-7.30000000e-009,1.50006614e-005
,,,-7.27500000e-009,-2.81183879e-006
,,,-7.25000000e-009,-2.01555889e-005
,,,-7.22500000e-009,-3.60930891e-005
,,,-7.20000000e-009,-4.96868392e-005
,,,-7.17500000e-009,-5.99993393e-005
,,,-7.15000000e-009,-6.79680894e-005
,,,-7.12500000e-009,-7.21868394e-005
,,,-7.10000000e-009,-7.31243394e-005
,,,-7.07500000e-009,-7.21868394e-005
,,,-7.05000000e-009,-6.89055894e-005
,,,-7.02500000e-009,-6.56243393e-005
,,,-7.00000000e-009,-6.23430893e-005
,,,-6.97500000e-009,-5.99993393e-005
,,,-6.95000000e-009,-6.04680893e-005
,,,-6.92500000e-009,-6.42180893e-005
,,,-6.90000000e-009,-7.21868394e-005
,,,-6.87500000e-009,-8.48430895e-005
,,,-6.85000000e-009,-1.02655590e-004
,,,-6.82500000e-009,-1.24686840e-004
,,,-6.80000000e-009,-1.50936840e-004
,,,-6.77500000e-009,-1.79999340e-004
,,,-6.75000000e-009,-2.08593091e-004
,,,-6.72500000e-009,-2.35780591e-004
,,,-6.70000000e-009,-2.60624341e-004
,,,-6.67500000e-009,-2.81718091e-004
,,,-6.65000000e-009,-2.96718091e-004
,,,-6.62500000e-009,-3.05624341e-004
,,,-6.60000000e-009,-3.06561841e-004
,,,-6.57500000e-009,-2.99999341e-004
,,,-6.55000000e-009,-2.83124341e-004
,,,-6.52500000e-009,-2.61561841e-004
,,,-6.50000000e-009,-2.38124341e-004
,,,-6.47500000e-009,-2.15155591e-004
,,,-6.45000000e-009,-1.95468090e-004
,,,-6.42500000e-009,-1.82343090e-004
,,,-6.40000000e-009,-1.76718090e-004
,,,-6.37500000e-009,-1.79999340e-004
,,,-6.35000000e-009,-1.88905590e-004
,,,-6.32500000e-009,-2.04374341e-004
,,,-6.30000000e-009,-2.24999341e-004
,,,-6.27500000e-009,-2.47968091e-004
,,,-6.25000000e-009,-2.69530591e-004
,,,-6.22500000e-009,-2.87343091e-004
,,,-6.20000000e-009,-2.98124341e-004
,,,-6.17500000e-009,-2.99999341e-004
,,,-6.15000000e-009,-2.88280591e-004
,,,-6.12500000e-009,-2.67186841e-004
,,,-6.10000000e-009,-2.37655591e-004
,,,-6.07500000e-009,-2.02030591e-004
,,,-6.05000000e-009,-1.64061840e-004
,,,-6.02500000e-009,-1.26093090e-004
,,,-6.00000000e-009,-9.09368396e-005
,,,-5.97500000e-009,-5.99993393e-005
,,,-5.95000000e-009,-3.51555891e-005
,,,-5.92500000e-009,-1.64055889e-005
,,,-5.90000000e-009,-2.81183879e-006
,,,-5.87500000e-009,7.50066130e-006
,,,-5.85000000e-009,1.68756614e-005
,,,-5.82500000e-009,2.71881615e-005
,,,-5.80000000e-009,4.07819116e-005
,,,-5.77500000e-009,6.00006618e-005
,,,-5.75000000e-009,8.39069120e-005
,,,-5.72500000e-009,1.12969412e-004
,,,-5.70000000e-009,1.46719413e-004
,,,-5.67500000e-009,1.82344413e-004
,,,-5.65000000e-009,2.17500663e-004
,,,-5.62500000e-009,2.50313163e-004
,,,-5.60000000e-009,2.78438164e-004
,,,-5.57500000e-009,3.00000664e-004
,,,-5.55000000e-009,3.10781914e-004
,,,-5.52500000e-009,3.15938164e-004
,,,-5.50000000e-009,3.15000664e-004
,,,-5.47500000e-009,3.11250664e-004
,,,-5.45000000e-009,3.06094414e-004
,,,-5.42500000e-009,3.01406914e-004
,,,-5.40000000e-009,2.99063164e-004
,,,-5.37500000e-009,3.00000664e-004
,,,-5.35000000e-009,3.01406914e-004
,,,-5.32500000e-009,3.06563164e-004
,,,-5.30000000e-009,3.13125664e-004
,,,-5.27500000e-009,3.19688164e-004
,,,-5.25000000e-009,3.23438164e-004
,,,-5.22500000e-009,3.22500664e-004
,,,-5.20000000e-009,3.15000664e-004
,,,-5.17500000e-009,3.00000664e-004
,,,-5.15000000e-009,2.73750664e-004
,,,-5.12500000e-009,2.41875663e-004
,,,-5.10000000e-009,2.05781913e-004
,,,-5.07500000e-009,1.68281913e-004
,,,-5.05000000e-009,1.32656912e-004
,,,-5.02500000e-009,1.01250662e-004
,,,-5.00000000e-009,7.59381619e-005
,,,-4.97500000e-009,6.00006618e-005
,,,-4.95000000e-009,5.39069117e-005
,,,-4.92500000e-009,5.76569117e-005
,,,-4.90000000e-009,6.98444118e-005
,,,-4.87500000e-009,8.90631620e-005
,,,-4.85000000e-009,1.12031912e-004
,,,-4.82500000e-009,1.36875662e-004
,,,-4.80000000e-009,1.59844413e-004
,,,-4.77500000e-009,1.80000663e-004
,,,-4.75000000e-009,1.94531913e-004
,,,-4.72500000e-009,2.03906913e-004
,,,-4.70000000e-009,2.07188163e-004
,,,-4.67500000e-009,2.05781913e-004
,,,-4.65000000e-009,2.01094413e-004
,,,-4.62500000e-009,1.94063163e-004
,,,-4.60000000e-009,1.86563163e-004
,,,-4.57500000e-009,1.80000663e-004
,,,-4.55000000e-009,1.75781913e-004
,,,-4.52500000e-009,1.73438163e-004
,,,-4.50000000e-009,1.73438163e-004
,,,-4.47500000e-009,1.74844413e-004
,,,-4.45000000e-009,1.76719413e-004
,,,-4.42500000e-009,1.78594413e-004
,,,-4.40000000e-009,1.80000663e-004
,,,-4.37500000e-009,1.80000663e-004
,,,-4.35000000e-009,1.78125663e-004
,,,-4.32500000e-009,1.74844413e-004
,,,-4.30000000e-009,1.71563163e-004
,,,-4.27500000e-009,1.67813163e-004
,,,-4.25000000e-009,1.66406913e-004
,,,-4.22500000e-009,1.66875663e-004
,,,-4.20000000e-009,1.71563163e-004
,,,-4.17500000e-009,1.80000663e-004
,,,-4.15000000e-009,1.91250663e-004
,,,-4.12500000e-009,2.06250663e-004
,,,-4.10000000e-009,2.23125663e-004
,,,-4.07500000e-009,2.40938163e-004
,,,-4.05000000e-009,2.58750663e-004
,,,-4.02500000e-009,2.74688164e-004
,,,-4.00000000e-009,2.88750664e-004
,,,-3.97500000e-009,3.00000664e-004
,,,-3.95000000e-009,3.03750664e-004
,,,-3.92500000e-009,3.04688164e-004
,,,-3.90000000e-009,3.02813164e-004
,,,-3.87500000e-009,3.00000664e-004
,,,-3.85000000e-009,2.97188164e-004
,,,-3.82500000e-009,2.95781914e-004
,,,-3.80000000e-009,2.96719414e-004
,,,-3.77500000e-009,3.00000664e-004
,,,-3.75000000e-009,3.03281914e-004
,,,-3.72500000e-009,3.08438164e-004
,,,-3.70000000e-009,3.13594414e-004
,,,-3.67500000e-009,3.18750664e-004
,,,-3.65000000e-009,3.21094414e-004
,,,-3.62500000e-009,3.19219414e-004
,,,-3.60000000e-009,3.12656914e-004
,,,-3.57500000e-009,3.00000664e-004
,,,-3.55000000e-009,2.77969414e-004
,,,-3.52500000e-009,2.50781913e-004
,,,-3.50000000e-009,2.18906913e-004
,,,-3.47500000e-009,1.84688163e-004
,,,-3.45000000e-009,1.50000663e-004
,,,-3.42500000e-009,1.16719412e-004
,,,-3.40000000e-009,8.62506620e-005
,,,-3.37500000e-009,6.00006618e-005
,,,-3.35000000e-009,3.84381616e-005
,,,-3.32500000e-009,2.20319114e-005
,,,-3.30000000e-009,8.43816131e-006
,,,-3.27500000e-009,-2.81183879e-006
,,,-3.25000000e-009,-1.40618389e-005
,,,-3.22500000e-009,-2.62493390e-005
,,,-3.20000000e-009,-4.17180891e-005
,,,-3.17500000e-009,-5.99993393e-005
,,,-3.15000000e-009,-8.01555895e-005
,,,-3.12500000e-009,-1.02655590e-004
,,,-3.10000000e-009,-1.25155590e-004
,,,-3.07500000e-009,-1.46718090e-004
,,,-3.05000000e-009,-1.64530590e-004
,,,-3.02500000e-009,-1.77186840e-004
,,,-3.00000000e-009,-1.82811840e-004
,,,-2.97500000e-009,-1.79999340e-004
,,,-2.95000000e-009,-1.67343090e-004
,,,-2.92500000e-009,-1.48593090e-004
,,,-2.90000000e-009,-1.26561840e-004
,,,-2.87500000e-009,-1.03593090e-004
,,,-2.85000000e-009,-8.34368395e-005
,,,-2.82500000e-009,-6.79680894e-005
,,,-2.80000000e-009,-5.99993393e-005
,,,-2.77500000e-009,-5.99993393e-005
,,,-2.75000000e-009,-6.74993393e-005
,,,-2.72500000e-009,-8.20305895e-005
,,,-2.70000000e-009,-1.02655590e-004
,,,-2.67500000e-009,-1.25624340e-004
,,,-2.65000000e-009,-1.48593090e-004
,,,-2.62500000e-009,-1.66874340e-004
,,,-2.60000000e-009,-1.78124340e-004
,,,-2.57500000e-009,-1.79999340e-004
,,,-2.55000000e-009,-1.68280590e-004
,,,-2.52500000e-009,-1.46249340e-004
,,,-2.50000000e-009,-1.16249340e-004
,,,-2.47500000e-009,-8.01555895e-005
,,,-2.45000000e-009,-4.17180891e-005
,,,-2.42500000e-009,-3.74933879e-006
,,,-2.40000000e-009,3.09381615e-005
,,,-2.37500000e-009,6.00006618e-005
,,,-2.35000000e-009,8.15631619e-005
,,,-2.32500000e-009,9.42194121e-005
,,,-2.30000000e-009,9.93756621e-005
,,,-2.27500000e-009,9.75006621e-005
,,,-2.25000000e-009,9.09381620e-005
,,,-2.22500000e-009,8.06256619e-005
,,,-2.20000000e-009,6.98444118e-005
,,,-2.17500000e-009,6.00006618e-005
,,,-2.15000000e-009,5.15631617e-005
,,,-2.12500000e-009,4.64069116e-005
,,,-2.10000000e-009,4.50006616e-005
,,,-2.07500000e-009,4.59381616e-005
,,,-2.05000000e-009,4.92194117e-005
,,,-2.02500000e-009,5.29694117e-005
,,,-2.00000000e-009,5.67194117e-005
,,,-1.97500000e-009,6.00006618e-005
,,,-1.95000000e-009,5.90631618e-005
,,,-1.92500000e-009,5.67194117e-005
,,,-1.90000000e-009,5.39069117e-005
,,,-1.87500000e-009,5.10944117e-005
,,,-1.85000000e-009,4.92194117e-005
,,,-1.82500000e-009,4.96881617e-005
,,,-1.80000000e-009,5.29694117e-005
,,,-1.77500000e-009,6.00006618e-005
,,,-1.75000000e-009,6.56256618e-005
,,,-1.72500000e-009,7.40631619e-005
,,,-1.70000000e-009,8.62506620e-005
,,,-1.67500000e-009,1.01250662e-004
,,,-1.65000000e-009,1.19063162e-004
,,,-1.62500000e-009,1.38750662e-004
,,,-1.60000000e-009,1.59375663e-004
,,,-1.57500000e-009,1.80000663e-004
,,,-1.55000000e-009,1.88438163e-004
,,,-1.52500000e-009,1.93125663e-004
,,,-1.50000000e-009,1.95469413e-004
,,,-1.47500000e-009,1.95000663e-004
,,,-1.45000000e-009,1.92656913e-004
,,,-1.42500000e-009,1.88906913e-004
,,,-1.40000000e-009,1.84688163e-004
,,,-1.37500000e-009,1.80000663e-004
,,,-1.35000000e-009,1.59375663e-004
,,,-1.32500000e-009,1.36875662e-004
,,,-1.30000000e-009,1.15313162e-004
,,,-1.27500000e-009,9.51569121e-005
,,,-1.25000000e-009,7.92194119e-005
,,,-1.22500000e-009,6.79694118e-005
,,,-1.20000000e-009,6.18756618e-005
,,,-1.17500000e-009,6.00006618e-005
,,,-1.15000000e-009,3.98444116e-005
,,,-1.12500000e-009,1.78131614e-005
,,,-1.10000000e-009,-6.56183882e-006
,,,-1.07500000e-009,-3.37493391e-005
,,,-1.05000000e-009,-6.37493393e-005
,,,-1.02500000e-009,-9.74993396e-005
,,,-1.00000000e-009,-1.35936840e-004
,,,-9.75000000e-010,-1.79999340e-004
,,,-9.50000000e-010,-2.54061841e-004
,,,-9.25000000e-010,-3.37499342e-004
,,,-9.00000000e-010,-4.28436842e-004
,,,-8.75000000e-010,-5.24061843e-004
,,,-8.50000000e-010,-6.21093094e-004
,,,-8.25000000e-010,-7.17186845e-004
,,,-8.00000000e-010,-8.10468096e-004
,,,-7.75000000e-010,-8.99999347e-004
,,,-7.50000000e-010,-1.00312435e-003
,,,-7.25000000e-010,-1.10624935e-003
,,,-7.00000000e-010,-1.20890560e-003
,,,-6.75000000e-010,-1.31203060e-003
,,,-6.50000000e-010,-1.41562435e-003
,,,-6.25000000e-010,-1.52109310e-003
,,,-6.00000000e-010,-1.62843685e-003
,,,-5.75000000e-010,-1.73999935e-003
,,,-5.50000000e-010,-1.86421810e-003
,,,-5.25000000e-010,-1.99734311e-003
,,,-5.00000000e-010,-2.13937436e-003
,,,-4.75000000e-010,-2.28984311e-003
,,,-4.50000000e-010,-2.44640561e-003
,,,-4.25000000e-010,-2.60812436e-003
,,,-4.00000000e-010,-2.77312436e-003
,,,-3.75000000e-010,-2.93999936e-003
,,,-3.50000000e-010,-3.10078062e-003
,,,-3.25000000e-010,-3.26343687e-003
,,,-3.00000000e-010,-3.42796812e-003
,,,-2.75000000e-010,-3.59484312e-003
,,,-2.50000000e-010,-3.76218687e-003
,,,-2.25000000e-010,-3.92999937e-003
,,,-2.00000000e-010,-4.09640562e-003
,,,-1.75000000e-010,-4.25999938e-003
,,,-1.50000000e-010,-4.39734313e-003
,,,-1.25000000e-010,-4.53140563e-003
,,,-1.00000000e-010,-4.66218688e-003
,,,-7.50000000e-011,-4.78874938e-003
,,,-5.00000000e-011,-4.91015563e-003
,,,-2.50000000e-011,-5.02359313e-003
,,,0.00000000e+000,-5.12765563e-003
,,,2.50000000e-011,-5.21999938e-003
,,,5.00000000e-011,-5.26593688e-003
,,,7.50000000e-011,-5.30109313e-003
,,,1.00000000e-010,-5.32687439e-003
,,,1.25000000e-010,-5.34421814e-003
,,,1.50000000e-010,-5.35406189e-003
,,,1.75000000e-010,-5.35687439e-003
,,,2.00000000e-010,-5.35265564e-003
,,,2.25000000e-010,-5.33999939e-003
,,,2.50000000e-010,-5.28656188e-003
,,,2.75000000e-010,-5.22843688e-003
,,,3.00000000e-010,-5.16843688e-003
,,,3.25000000e-010,-5.10749938e-003
,,,3.50000000e-010,-5.04656188e-003
,,,3.75000000e-010,-4.98515563e-003
,,,4.00000000e-010,-4.92374938e-003
,,,4.25000000e-010,-4.85999938e-003
,,,4.50000000e-010,-4.76671813e-003
,,,4.75000000e-010,-4.67343688e-003
,,,5.00000000e-010,-4.58109313e-003
,,,5.25000000e-010,-4.49015563e-003
,,,5.50000000e-010,-4.40109313e-003
,,,5.75000000e-010,-4.31343688e-003
,,,6.00000000e-010,-4.22671813e-003
,,,6.25000000e-010,-4.13999937e-003
,,,6.50000000e-010,-4.03499937e-003
,,,6.75000000e-010,-3.92906187e-003
,,,7.00000000e-010,-3.82312437e-003
,,,7.25000000e-010,-3.71718687e-003
,,,7.50000000e-010,-3.61171812e-003
,,,7.75000000e-010,-3.50718687e-003
,,,8.00000000e-010,-3.40359312e-003
,,,8.25000000e-010,-3.29999937e-003
,,,8.50000000e-010,-3.19124937e-003
,,,8.75000000e-010,-3.08203062e-003
,,,9.00000000e-010,-2.97281186e-003
,,,9.25000000e-010,-2.86406186e-003
,,,9.50000000e-010,-2.75765561e-003
,,,9.75000000e-010,-2.65406186e-003
,,,1.00000000e-009,-2.55468686e-003
,,,1.02500000e-009,-2.45999936e-003
,,,1.05000000e-009,-2.37609311e-003
,,,1.07500000e-009,-2.29406186e-003
,,,1.10000000e-009,-2.21390561e-003
,,,1.12500000e-009,-2.13656186e-003
,,,1.15000000e-009,-2.06156186e-003
,,,1.17500000e-009,-1.99031186e-003
,,,1.20000000e-009,-1.92328061e-003
,,,1.22500000e-009,-1.85999935e-003
,,,1.25000000e-009,-1.81406185e-003
,,,1.27500000e-009,-1.76812435e-003
,,,1.30000000e-009,-1.72265560e-003
,,,1.32500000e-009,-1.67671810e-003
,,,1.35000000e-009,-1.63078060e-003
,,,1.37500000e-009,-1.58578060e-003
,,,1.40000000e-009,-1.54171810e-003
,,,1.42500000e-009,-1.49999935e-003
,,,1.45000000e-009,-1.47281185e-003
,,,1.47500000e-009,-1.44421810e-003
,,,1.50000000e-009,-1.41374935e-003
,,,1.52500000e-009,-1.38234310e-003
,,,1.55000000e-009,-1.34999935e-003
,,,1.57500000e-009,-1.31859310e-003
,,,1.60000000e-009,-1.28812435e-003
,,,1.62500000e-009,-1.25999935e-003
,,,1.65000000e-009,-1.24546810e-003
,,,1.67500000e-009,-1.23046810e-003
,,,1.70000000e-009,-1.21453060e-003
,,,1.72500000e-009,-1.19812435e-003
,,,1.75000000e-009,-1.18124935e-003
,,,1.77500000e-009,-1.16531185e-003
,,,1.80000000e-009,-1.15124935e-003
,,,1.82500000e-009,-1.13999935e-003
,,,1.85000000e-009,-1.14093685e-003
,,,1.87500000e-009,-1.14374935e-003
,,,1.90000000e-009,-1.14984310e-003
,,,1.92500000e-009,-1.16015560e-003
,,,1.95000000e-009,-1.17609310e-003
,,,1.97500000e-009,-1.19765560e-003
,,,2.00000000e-009,-1.22578060e-003
,,,2.02500000e-009,-1.25999935e-003
,,,2.05000000e-009,-1.30171810e-003
,,,2.07500000e-009,-1.34437435e-003
,,,2.10000000e-009,-1.38515560e-003
,,,2.12500000e-009,-1.42265560e-003
,,,2.15000000e-009,-1.45453060e-003
,,,2.17500000e-009,-1.47890560e-003
,,,2.20000000e-009,-1.49437435e-003
,,,2.22500000e-009,-1.49999935e-003
,,,2.25000000e-009,-1.49343685e-003
,,,2.27500000e-009,-1.47609310e-003
,,,2.30000000e-009,-1.44937435e-003
,,,2.32500000e-009,-1.41515560e-003
,,,2.35000000e-009,-1.37718685e-003
,,,2.37500000e-009,-1.33687435e-003
,,,2.40000000e-009,-1.29703060e-003
,,,2.42500000e-009,-1.25999935e-003
,,,2.45000000e-009,-1.22765560e-003
,,,2.47500000e-009,-1.20046810e-003
,,,2.50000000e-009,-1.17890560e-003
,,,2.52500000e-009,-1.16343685e-003
,,,2.55000000e-009,-1.15312435e-003
,,,2.57500000e-009,-1.14703060e-003
,,,2.60000000e-009,-1.14281185e-003
,,,2.62500000e-009,-1.13999935e-003
,,,2.65000000e-009,-1.13578060e-003
,,,2.67500000e-009,-1.12968685e-003
,,,2.70000000e-009,-1.12031185e-003
,,,2.72500000e-009,-1.10765560e-003
,,,2.75000000e-009,-1.09078060e-003
,,,2.77500000e-009,-1.07062435e-003
,,,2.80000000e-009,-1.04718685e-003
,,,2.82500000e-009,-1.01999935e-003
,,,2.85000000e-009,-9.89999347e-004
,,,2.87500000e-009,-9.57655597e-004
,,,2.90000000e-009,-9.24843097e-004
,,,2.92500000e-009,-8.91561847e-004
,,,2.95000000e-009,-8.59686846e-004
,,,2.97500000e-009,-8.30155596e-004
,,,3.00000000e-009,-8.03436846e-004
,,,3.02500000e-009,-7.79999346e-004
,,,3.05000000e-009,-7.62186845e-004
,,,3.07500000e-009,-7.48593095e-004
,,,3.10000000e-009,-7.40155595e-004
,,,3.12500000e-009,-7.37343095e-004
,,,3.15000000e-009,-7.40155595e-004
,,,3.17500000e-009,-7.48593095e-004
,,,3.20000000e-009,-7.62186845e-004
,,,3.22500000e-009,-7.79999346e-004
,,,3.25000000e-009,-8.02499346e-004
,,,3.27500000e-009,-8.25468096e-004
,,,3.30000000e-009,-8.47030596e-004
,,,3.32500000e-009,-8.66249346e-004
,,,3.35000000e-009,-8.82186846e-004
,,,3.37500000e-009,-8.93436847e-004
,,,3.40000000e-009,-8.99530597e-004
,,,3.42500000e-009,-8.99999347e-004
,,,3.45000000e-009,-8.93905597e-004
,,,3.47500000e-009,-8.81718096e-004
,,,3.50000000e-009,-8.65780596e-004
,,,3.52500000e-009,-8.47499346e-004
,,,3.55000000e-009,-8.28280596e-004
,,,3.57500000e-009,-8.09999346e-004
,,,3.60000000e-009,-7.93593096e-004
,,,3.62500000e-009,-7.79999346e-004
,,,3.65000000e-009,-7.68280595e-004
,,,3.67500000e-009,-7.57499345e-004
,,,3.70000000e-009,-7.47655595e-004
,,,3.72500000e-009,-7.36405595e-004
,,,3.75000000e-009,-7.23280595e-004
,,,3.77500000e-009,-7.06874345e-004
,,,3.80000000e-009,-6.85780595e-004
,,,3.82500000e-009,-6.59999344e-004
,,,3.85000000e-009,-6.29530594e-004
,,,3.87500000e-009,-5.94843094e-004
,,,3.90000000e-009,-5.57811844e-004
,,,3.92500000e-009,-5.21249343e-004
,,,3.95000000e-009,-4.87030593e-004
,,,3.97500000e-009,-4.57968093e-004
,,,4.00000000e-009,-4.35468093e-004
,,,4.02500000e-009,-4.19999342e-004
,,,4.05000000e-009,-4.13905592e-004
,,,4.07500000e-009,-4.13905592e-004
,,,4.10000000e-009,-4.18593092e-004
,,,4.12500000e-009,-4.24686842e-004
,,,4.15000000e-009,-4.30780593e-004
,,,4.17500000e-009,-4.33593093e-004
,,,4.20000000e-009,-4.30311843e-004
,,,4.22500000e-009,-4.19999342e-004
,,,4.25000000e-009,-4.03593092e-004
,,,4.27500000e-009,-3.79218092e-004
,,,4.30000000e-009,-3.48749342e-004
,,,4.32500000e-009,-3.13593091e-004
,,,4.35000000e-009,-2.76561841e-004
,,,4.37500000e-009,-2.40468091e-004
,,,4.40000000e-009,-2.07655591e-004
,,,4.42500000e-009,-1.79999340e-004
,,,4.45000000e-009,-1.64530590e-004
,,,4.47500000e-009,-1.55624340e-004
,,,4.50000000e-009,-1.52811840e-004
,,,4.52500000e-009,-1.55155590e-004
,,,4.55000000e-009,-1.60780590e-004
,,,4.57500000e-009,-1.67811840e-004
,,,4.60000000e-009,-1.74843090e-004
,,,4.62500000e-009,-1.79999340e-004
,,,4.65000000e-009,-1.86093090e-004
,,,4.67500000e-009,-1.88436840e-004
,,,4.70000000e-009,-1.87968090e-004
,,,4.72500000e-009,-1.85155590e-004
,,,4.75000000e-009,-1.81405590e-004
,,,4.77500000e-009,-1.78593090e-004
,,,4.80000000e-009,-1.77655590e-004
,,,4.82500000e-009,-1.79999340e-004
,,,4.85000000e-009,-1.89843090e-004
,,,4.87500000e-009,-2.02499341e-004
,,,4.90000000e-009,-2.17968091e-004
,,,4.92500000e-009,-2.35311841e-004
,,,4.95000000e-009,-2.53124341e-004
,,,4.97500000e-009,-2.70468091e-004
,,,5.00000000e-009,-2.85936841e-004
,,,5.02500000e-009,-2.99999341e-004
,,,5.05000000e-009,-3.12186841e-004
,,,5.07500000e-009,-3.22499342e-004
,,,5.10000000e-009,-3.32343092e-004
,,,5.12500000e-009,-3.43124342e-004
,,,5.15000000e-009,-3.56249342e-004
,,,5.17500000e-009,-3.73124342e-004
,,,5.20000000e-009,-3.94686842e-004
,,,5.22500000e-009,-4.19999342e-004
,,,5.25000000e-009,-4.48124343e-004
,,,5.27500000e-009,-4.76718093e-004
,,,5.30000000e-009,-5.04374343e-004
,,,5.32500000e-009,-5.28280593e-004
,,,5.35000000e-009,-5.45624344e-004
,,,5.37500000e-009,-5.54530594e-004
,,,5.40000000e-009,-5.52655594e-004
,,,5.42500000e-009,-5.39999343e-004
,,,5.45000000e-009,-5.14218093e-004
,,,5.47500000e-009,-4.79999343e-004
,,,5.50000000e-009,-4.41093093e-004
,,,5.52500000e-009,-4.01249342e-004
,,,5.55000000e-009,-3.63749342e-004
,,,5.57500000e-009,-3.32811842e-004
,,,5.60000000e-009,-3.10780591e-004
,,,5.62500000e-009,-2.99999341e-004
,,,5.65000000e-009,-2.99530591e-004
,,,5.67500000e-009,-3.09843091e-004
,,,5.70000000e-009,-3.28124342e-004
,,,5.72500000e-009,-3.51561842e-004
,,,5.75000000e-009,-3.75936842e-004
,,,5.77500000e-009,-3.97968092e-004
,,,5.80000000e-009,-4.13905592e-004
,,,5.82500000e-009,-4.19999342e-004
,,,5.85000000e-009,-4.12499342e-004
,,,5.87500000e-009,-3.93749342e-004
,,,5.90000000e-009,-3.65624342e-004
,,,5.92500000e-009,-3.29999342e-004
