RawData/SinglePhotoelectron/L1_2pt2A_5mV/wave007_Ch1.csv

"Record Length",1000,"Points",-7.72500000e-009,-1.06405590e-004
"Sample Interval",2.50000000e-011,s,-7.70000000e-009,-8.85930895e-005
"Trigger Point",309,"Samples",-7.67500000e-009,-7.26555894e-005
"Trigger Time",6.79153558e-012,s,-7.65000000e-009,-5.99993393e-005
"",,,-7.62500000e-009,-5.10930892e-005
"Horizontal Offset",-7.72500000e-009,s,-7.60000000e-009,-4.59368392e-005
,,,-7.57500000e-009,-4.45305891e-005
,,,-7.55000000e-009,-4.54680892e-005
,,,-7.52500000e-009,-4.82805892e-005
,,,-7.50000000e-009,-5.24993392e-005
,,,-7.47500000e-009,-5.67180893e-005
,,,-7.45000000e-009,-5.99993393e-005
,,,-7.42500000e-009,-6.37493393e-005
,,,-7.40000000e-009,-6.56243393e-005
,,,-7.37500000e-009,-6.56243393e-005
,,,-7.35000000e-009,-6.46868393e-005
,,,-7.32500000e-009,-6.32805893e-005
,,,-7.30000000e-009,-6.14055893e-005
,,,-7.27500000e-009,-6.04680893e-005
,,,-7.25000000e-009,-5.99993393e-005
,,,-7.22500000e-009,-6.09368393e-005
,,,-7.20000000e-009,-6.28118393e-005
,,,-7.17500000e-009,-6.51555893e-005
,,,-7.15000000e-009,-6.74993393e-005
,,,-7.12500000e-009,-6.89055894e-005
,,,-7.10000000e-009,-6.84368394e-005
,,,-7.07500000e-009,-6.56243393e-005
,,,-7.05000000e-009,-5.99993393e-005
,,,-7.02500000e-009,-5.15618392e-005
,,,-7.00000000e-009,-3.98430891e-005
,,,-6.97500000e-009,-2.57805890e-005
,,,-6.95000000e-009,-9.37433884e-006
,,,-6.92500000e-009,7.96941131e-006
,,,-6.90000000e-009,2.62506615e-005
,,,-6.87500000e-009,4.35944116e-005
,,,-6.85000000e-009,6.00006618e-005
,,,-6.82500000e-009,7.17194119e-005
,,,-6.80000000e-009,8.10944119e-005
,,,-6.77500000e-009,8.67194120e-005
,,,-6.75000000e-009,8.85944120e-005
,,,-6.72500000e-009,8.67194120e-005
,,,-6.70000000e-009,8.10944119e-005
,,,-6.67500000e-009,7.17194119e-005
,,,-6.65000000e-009,6.00006618e-005
,,,-6.62500000e-009,4.40631616e-005
,,,-6.60000000e-009,2.71881615e-005
,,,-6.57500000e-009,9.84441132e-006
,,,-6.55000000e-009,-7.49933883e-006
,,,-6.52500000e-009,-2.39055890e-005
,,,-6.50000000e-009,-3.84368391e-005
,,,-6.47500000e-009,-5.06243392e-005
,,,-6.45000000e-009,-5.99993393e-005
,,,-6.42500000e-009,-6.70305893e-005
,,,-6.40000000e-009,-7.12493394e-005
,,,-6.37500000e-009,-7.26555894e-005
,,,-6.35000000e-009,-7.21868394e-005
,,,-6.32500000e-009,-6.98430894e-005
,,,-6.30000000e-009,-6.70305893e-005
,,,-6.27500000e-009,-6.32805893e-005
,,,-6.25000000e-009,-5.99993393e-005
,,,-6.22500000e-009,-5.76555893e-005
,,,-6.20000000e-009,-5.57805892e-005
,,,-6.17500000e-009,-5.48430892e-005
,,,-6.15000000e-009,-5.48430892e-005
,,,-6.12500000e-009,-5.57805892e-005
,,,-6.10000000e-009,-5.71868393e-005
,,,-6.07500000e-009,-5.85930893e-005
,,,-6.05000000e-009,-5.99993393e-005
,,,-6.02500000e-009,-6.14055893e-005
,,,-6.00000000e-009,-6.23430893e-005
,,,-5.97500000e-009,-6.28118393e-005
,,,-5.95000000e-009,-6.28118393e-005
,,,-5.92500000e-009,-6.23430893e-005
,,,-5.90000000e-009,-6.18743393e-005
,,,-5.87500000e-009,-6.09368393e-005
,,,-5.85000000e-009,-5.99993393e-005
,,,-5.82500000e-009,-5.85930893e-005
,,,-5.80000000e-009,-5.71868393e-005
,,,-5.77500000e-009,-5.62493392e-005
,,,-5.75000000e-009,-5.62493392e-005
,,,-5.72500000e-009,-5.62493392e-005
,,,-5.70000000e-009,-5.71868393e-005
,,,-5.67500000e-009,-5.85930893e-005
,,,-5.65000000e-009,-5.99993393e-005
,,,-5.62500000e-009,-6.09368393e-005
,,,-5.60000000e-009,-6.18743393e-005
,,,-5.57500000e-009,-6.23430893e-005
,,,-5.55000000e-009,-6.28118393e-005
,,,-5.52500000e-009,-6.28118393e-005
,,,-5.50000000e-009,-6.23430893e-005
,,,-5.47500000e-009,-6.14055893e-005
,,,-5.45000000e-009,-5.99993393e-005
,,,-5.42500000e-009,-5.76555893e-005
,,,-5.40000000e-009,-5.48430892e-005
,,,-5.37500000e-009,-5.24993392e-005
,,,-5.35000000e-009,-5.10930892e-005
,,,-5.32500000e-009,-5.06243392e-005
,,,-5.30000000e-009,-5.20305892e-005
,,,-5.27500000e-009,-5.53118392e-005
,,,-5.25000000e-009,-5.99993393e-005
,,,-5.22500000e-009,-6.51555893e-005
,,,-5.20000000e-009,-6.98430894e-005
,,,-5.17500000e-009,-7.40618394e-005
,,,-5.15000000e-009,-7.68743394e-005
,,,-5.12500000e-009,-7.78118394e-005
,,,-5.10000000e-009,-7.54680894e-005
,,,-5.07500000e-009,-6.98430894e-005
,,,-5.05000000e-009,-5.99993393e-005
,,,-5.02500000e-009,-4.73430892e-005
,,,-5.00000000e-009,-3.18743390e-005
,,,-4.97500000e-009,-1.49993389e-005
,,,-4.95000000e-009,2.81316126e-006
,,,-4.92500000e-009,2.01569114e-005
,,,-4.90000000e-009,3.60944116e-005
,,,-4.87500000e-009,4.96881617e-005
,,,-4.85000000e-009,6.00006618e-005
,,,-4.82500000e-009,6.56256618e-005
,,,-4.80000000e-009,6.75006618e-005
,,,-4.77500000e-009,6.70319118e-005
,,,-4.75000000e-009,6.46881618e-005
,,,-4.72500000e-009,6.18756618e-005
,,,-4.70000000e-009,5.90631618e-005
,,,-4.67500000e-009,5.81256617e-005
,,,-4.65000000e-009,6.00006618e-005
,,,-4.62500000e-009,6.32819118e-005
,,,-4.60000000e-009,7.03131619e-005
,,,-4.57500000e-009,8.10944119e-005
,,,-4.55000000e-009,9.60944121e-005
,,,-4.52500000e-009,1.14375662e-004
,,,-4.50000000e-009,1.35000662e-004
,,,-4.47500000e-009,1.57500663e-004
,,,-4.45000000e-009,1.80000663e-004
,,,-4.42500000e-009,1.97344413e-004
,,,-4.40000000e-009,2.11406913e-004
,,,-4.37500000e-009,2.21250663e-004
,,,-4.35000000e-009,2.25938163e-004
,,,-4.32500000e-009,2.24063163e-004
,,,-4.30000000e-009,2.15625663e-004
,,,-4.27500000e-009,2.01094413e-004
,,,-4.25000000e-009,1.80000663e-004
,,,-4.22500000e-009,1.49531913e-004
,,,-4.20000000e-009,1.15313162e-004
,,,-4.17500000e-009,7.96881619e-005
,,,-4.15000000e-009,4.35944116e-005
,,,-4.12500000e-009,1.03131613e-005
,,,-4.10000000e-009,-1.87493389e-005
,,,-4.07500000e-009,-4.26555891e-005
,,,-4.05000000e-009,-5.99993393e-005
,,,-4.02500000e-009,-7.21868394e-005
,,,-4.00000000e-009,-7.73430894e-005
,,,-3.97500000e-009,-7.78118394e-005
,,,-3.95000000e-009,-7.45305894e-005
,,,-3.92500000e-009,-6.93743394e-005
,,,-3.90000000e-009,-6.42180893e-005
,,,-3.87500000e-009,-6.04680893e-005
,,,-3.85000000e-009,-5.99993393e-005
,,,-3.82500000e-009,-6.32805893e-005
,,,-3.80000000e-009,-7.12493394e-005
,,,-3.77500000e-009,-8.34368395e-005
,,,-3.75000000e-009,-9.93743396e-005
,,,-3.72500000e-009,-1.18124340e-004
,,,-3.70000000e-009,-1.38280590e-004
,,,-3.67500000e-009,-1.59374340e-004
,,,-3.65000000e-009,-1.79999340e-004
,,,-3.62500000e-009,-1.98280590e-004
,,,-3.60000000e-009,-2.14686841e-004
,,,-3.57500000e-009,-2.29218091e-004
,,,-3.55000000e-009,-2.43280591e-004
,,,-3.52500000e-009,-2.56405591e-004
,,,-3.50000000e-009,-2.69999341e-004
,,,-3.47500000e-009,-2.84530591e-004
,,,-3.45000000e-009,-2.99999341e-004
,,,-3.42500000e-009,-3.14061841e-004
,,,-3.40000000e-009,-3.29530592e-004
,,,-3.37500000e-009,-3.45936842e-004
,,,-3.35000000e-009,-3.63280592e-004
,,,-3.32500000e-009,-3.80155592e-004
,,,-3.30000000e-009,-3.96093092e-004
,,,-3.27500000e-009,-4.09686842e-004
,,,-3.25000000e-009,-4.19999342e-004
,,,-3.22500000e-009,-4.21874342e-004
,,,-3.20000000e-009,-4.19061842e-004
,,,-3.17500000e-009,-4.11561842e-004
,,,-3.15000000e-009,-3.98436842e-004
,,,-3.12500000e-009,-3.80624342e-004
,,,-3.10000000e-009,-3.58124342e-004
,,,-3.07500000e-009,-3.30936842e-004
,,,-3.05000000e-009,-2.99999341e-004
,,,-3.02500000e-009,-2.65780591e-004
,,,-3.00000000e-009,-2.30155591e-004
,,,-2.97500000e-009,-1.94999340e-004
,,,-2.95000000e-009,-1.61249340e-004
,,,-2.92500000e-009,-1.30311840e-004
,,,-2.90000000e-009,-1.02655590e-004
,,,-2.87500000e-009,-7.92180894e-005
,,,-2.85000000e-009,-5.99993393e-005
,,,-2.82500000e-009,-4.82805892e-005
,,,-2.80000000e-009,-4.17180891e-005
,,,-2.77500000e-009,-3.93743391e-005
,,,-2.75000000e-009,-4.07805891e-005
,,,-2.72500000e-009,-4.45305891e-005
,,,-2.70000000e-009,-5.01555892e-005
,,,-2.67500000e-009,-5.53118392e-005
,,,-2.65000000e-009,-5.99993393e-005
,,,-2.62500000e-009,-6.60930893e-005
,,,-2.60000000e-009,-6.98430894e-005
,,,-2.57500000e-009,-7.21868394e-005
,,,-2.55000000e-009,-7.21868394e-005
,,,-2.52500000e-009,-7.07805894e-005
,,,-2.50000000e-009,-6.79680894e-005
,,,-2.47500000e-009,-6.42180893e-005
,,,-2.45000000e-009,-5.99993393e-005
,,,-2.42500000e-009,-5.76555893e-005
,,,-2.40000000e-009,-5.57805892e-005
,,,-2.37500000e-009,-5.39055892e-005
,,,-2.35000000e-009,-5.34368392e-005
,,,-2.32500000e-009,-5.29680892e-005
,,,-2.30000000e-009,-5.43743392e-005
,,,-2.27500000e-009,-5.62493392e-005
,,,-2.25000000e-009,-5.99993393e-005
,,,-2.22500000e-009,-6.84368394e-005
,,,-2.20000000e-009,-7.78118394e-005
,,,-2.17500000e-009,-8.95305895e-005
,,,-2.15000000e-009,-1.02655590e-004
,,,-2.12500000e-009,-1.18593090e-004
,,,-2.10000000e-009,-1.36405590e-004
,,,-2.07500000e-009,-1.57030590e-004
,,,-2.05000000e-009,-1.79999340e-004
,,,-2.02500000e-009,-2.08124341e-004
,,,-2.00000000e-009,-2.38124341e-004
,,,-1.97500000e-009,-2.69530591e-004
,,,-1.95000000e-009,-3.01405591e-004
,,,-1.92500000e-009,-3.33749342e-004
,,,-1.90000000e-009,-3.64686842e-004
,,,-1.87500000e-009,-3.94218092e-004
,,,-1.85000000e-009,-4.19999342e-004
,,,-1.82500000e-009,-4.41561843e-004
,,,-1.80000000e-009,-4.57499343e-004
,,,-1.77500000e-009,-4.68280593e-004
,,,-1.75000000e-009,-4.72499343e-004
,,,-1.72500000e-009,-4.69686843e-004
,,,-1.70000000e-009,-4.60311843e-004
,,,-1.67500000e-009,-4.43436843e-004
,,,-1.65000000e-009,-4.19999342e-004
,,,-1.62500000e-009,-3.92343092e-004
,,,-1.60000000e-009,-3.61405592e-004
,,,-1.57500000e-009,-3.28124342e-004
,,,-1.55000000e-009,-2.94374341e-004
,,,-1.52500000e-009,-2.61561841e-004
,,,-1.50000000e-009,-2.30624341e-004
,,,-1.47500000e-009,-2.02968091e-004
,,,-1.45000000e-009,-1.79999340e-004
,,,-1.42500000e-009,-1.70624340e-004
,,,-1.40000000e-009,-1.69218090e-004
,,,-1.37500000e-009,-1.76249340e-004
,,,-1.35000000e-009,-1.90780590e-004
,,,-1.32500000e-009,-2.11405591e-004
,,,-1.30000000e-009,-2.37655591e-004
,,,-1.27500000e-009,-2.67655591e-004
,,,-1.25000000e-009,-2.99999341e-004
,,,-1.22500000e-009,-3.44530592e-004
,,,-1.20000000e-009,-3.89999342e-004
,,,-1.17500000e-009,-4.33124343e-004
,,,-1.15000000e-009,-4.71561843e-004
,,,-1.12500000e-009,-5.02968093e-004
,,,-1.10000000e-009,-5.25468093e-004
,,,-1.07500000e-009,-5.37655593e-004
,,,-1.05000000e-009,-5.39999343e-004
,,,-1.02500000e-009,-5.51718094e-004
,,,-1.00000000e-009,-5.59218094e-004
,,,-9.75000000e-010,-5.62499344e-004
,,,-9.50000000e-010,-5.62030594e-004
,,,-9.25000000e-010,-5.58280594e-004
,,,-9.00000000e-010,-5.52655594e-004
,,,-8.75000000e-010,-5.45624344e-004
,,,-8.50000000e-010,-5.39999343e-004
,,,-8.25000000e-010,-5.66249344e-004
,,,-8.00000000e-010,-6.01874344e-004
,,,-7.75000000e-010,-6.44530594e-004
,,,-7.50000000e-010,-6.93280595e-004
,,,-7.25000000e-010,-7.44374345e-004
,,,-7.00000000e-010,-7.96874346e-004
,,,-6.75000000e-010,-8.48905596e-004
,,,-6.50000000e-010,-8.99999347e-004
,,,-6.25000000e-010,-9.84374347e-004
,,,-6.00000000e-010,-1.07343685e-003
,,,-5.75000000e-010,-1.16578060e-003
,,,-5.50000000e-010,-1.25906185e-003
,,,-5.25000000e-010,-1.35140560e-003
,,,-5.00000000e-010,-1.44234310e-003
,,,-4.75000000e-010,-1.53140560e-003
,,,-4.50000000e-010,-1.61999935e-003
,,,-4.25000000e-010,-1.74468685e-003
,,,-4.00000000e-010,-1.87968686e-003
,,,-3.75000000e-010,-2.02312436e-003
,,,-3.50000000e-010,-2.17406186e-003
,,,-3.25000000e-010,-2.33015561e-003
,,,-3.00000000e-010,-2.49046811e-003
,,,-2.75000000e-010,-2.65359311e-003
,,,-2.50000000e-010,-2.81999936e-003
,,,-2.25000000e-010,-3.01968687e-003
,,,-2.00000000e-010,-3.23062437e-003
,,,-1.75000000e-010,-3.45187437e-003
,,,-1.50000000e-010,-3.68015562e-003
,,,-1.25000000e-010,-3.91406187e-003
,,,-1.00000000e-010,-4.14937437e-003
,,,-7.50000000e-011,-4.38562438e-003
,,,-5.00000000e-011,-4.61999938e-003
,,,-2.50000000e-011,-4.86749938e-003
,,,0.00000000e+000,-5.11781188e-003
,,,2.50000000e-011,-5.36906189e-003
,,,5.00000000e-011,-5.61843689e-003
,,,7.50000000e-011,-5.86218689e-003
,,,1.00000000e-010,-6.09796814e-003
,,,1.25000000e-010,-6.32437439e-003
,,,1.50000000e-010,-6.53999940e-003
,,,1.75000000e-010,-6.74156190e-003
,,,2.00000000e-010,-6.94218690e-003
,,,2.25000000e-010,-7.14515565e-003
,,,2.50000000e-010,-7.35140565e-003
,,,2.75000000e-010,-7.56187440e-003
,,,3.00000000e-010,-7.77703066e-003
,,,3.25000000e-010,-7.99687441e-003
,,,3.50000000e-010,-8.21999941e-003
,,,3.75000000e-010,-8.42109316e-003
,,,4.00000000e-010,-8.62968691e-003
,,,4.25000000e-010,-8.84531192e-003
,,,4.50000000e-010,-9.06468692e-003
,,,4.75000000e-010,-9.28406192e-003
,,,5.00000000e-010,-9.49921817e-003
,,,5.25000000e-010,-9.70546817e-003
,,,5.50000000e-010,-9.89999942e-003
,,,5.75000000e-010,-1.00368744e-002
,,,6.00000000e-010,-1.01653119e-002
,,,6.25000000e-010,-1.02876557e-002
,,,6.50000000e-010,-1.04062494e-002
,,,6.75000000e-010,-1.05220307e-002
,,,7.00000000e-010,-1.06368744e-002
,,,7.25000000e-010,-1.07498432e-002
,,,7.50000000e-010,-1.08599994e-002
,,,7.75000000e-010,-1.09139057e-002
,,,8.00000000e-010,-1.09678119e-002
,,,8.25000000e-010,-1.10221869e-002
,,,8.50000000e-010,-1.10756244e-002
,,,8.75000000e-010,-1.11257807e-002
,,,9.00000000e-010,-1.11693744e-002
,,,9.25000000e-010,-1.12021869e-002
,,,9.50000000e-010,-1.12199994e-002
,,,9.75000000e-010,-1.11660932e-002
,,,1.00000000e-009,-1.10967182e-002
,,,1.02500000e-009,-1.10151557e-002
,,,1.05000000e-009,-1.09237494e-002
,,,1.07500000e-009,-1.08248432e-002
,,,1.10000000e-009,-1.07203119e-002
,,,1.12500000e-009,-1.06120307e-002
,,,1.15000000e-009,-1.04999994e-002
,,,1.17500000e-009,-1.03415619e-002
,,,1.20000000e-009,-1.01826557e-002
,,,1.22500000e-009,-1.00260932e-002
,,,1.25000000e-009,-9.87328067e-003
,,,1.27500000e-009,-9.72468692e-003
,,,1.30000000e-009,-9.58078067e-003
,,,1.32500000e-009,-9.43921817e-003
,,,1.35000000e-009,-9.29999942e-003
,,,1.37500000e-009,-9.13124942e-003
,,,1.40000000e-009,-8.96109317e-003
,,,1.42500000e-009,-8.79093692e-003
,,,1.45000000e-009,-8.62218691e-003
,,,1.47500000e-009,-8.45578066e-003
,,,1.50000000e-009,-8.29312441e-003
,,,1.52500000e-009,-8.13468691e-003
,,,1.55000000e-009,-7.97999941e-003
,,,1.57500000e-009,-7.81546816e-003
,,,1.60000000e-009,-7.64999941e-003
,,,1.62500000e-009,-7.48359315e-003
,,,1.65000000e-009,-7.31671815e-003
,,,1.67500000e-009,-7.15078065e-003
,,,1.70000000e-009,-6.98531190e-003
,,,1.72500000e-009,-6.82171815e-003
,,,1.75000000e-009,-6.65999940e-003
,,,1.77500000e-009,-6.50343690e-003
,,,1.80000000e-009,-6.34546814e-003
,,,1.82500000e-009,-6.18656189e-003
,,,1.85000000e-009,-6.02906189e-003
,,,1.87500000e-009,-5.87531189e-003
,,,1.90000000e-009,-5.72812439e-003
,,,1.92500000e-009,-5.58937439e-003
,,,1.95000000e-009,-5.45999939e-003
,,,1.97500000e-009,-5.35499939e-003
,,,2.00000000e-009,-5.25187438e-003
,,,2.02500000e-009,-5.14874938e-003
,,,2.05000000e-009,-5.04468688e-003
,,,2.07500000e-009,-4.94015563e-003
,,,2.10000000e-009,-4.83374938e-003
,,,2.12500000e-009,-4.72734313e-003
,,,2.15000000e-009,-4.61999938e-003
,,,2.17500000e-009,-4.53093688e-003
,,,2.20000000e-009,-4.43671813e-003
,,,2.22500000e-009,-4.33874938e-003
,,,2.25000000e-009,-4.23937438e-003
,,,2.27500000e-009,-4.14234312e-003
,,,2.30000000e-009,-4.05187437e-003
,,,2.32500000e-009,-3.97031187e-003
,,,2.35000000e-009,-3.89999937e-003
,,,2.37500000e-009,-3.86062437e-003
,,,2.40000000e-009,-3.82687437e-003
,,,2.42500000e-009,-3.79687437e-003
,,,2.45000000e-009,-3.76874937e-003
,,,2.47500000e-009,-3.74203062e-003
,,,2.50000000e-009,-3.71531187e-003
,,,2.52500000e-009,-3.68812437e-003
,,,2.55000000e-009,-3.65999937e-003
,,,2.57500000e-009,-3.64546812e-003
,,,2.60000000e-009,-3.62624937e-003
,,,2.62500000e-009,-3.60328062e-003
,,,2.65000000e-009,-3.57984312e-003
,,,2.67500000e-009,-3.55874937e-003
,,,2.70000000e-009,-3.54374937e-003
,,,2.72500000e-009,-3.53671812e-003
,,,2.75000000e-009,-3.53999937e-003
,,,2.77500000e-009,-3.56062437e-003
,,,2.80000000e-009,-3.58499937e-003
,,,2.82500000e-009,-3.61031187e-003
,,,2.85000000e-009,-3.63421812e-003
,,,2.87500000e-009,-3.65296812e-003
,,,2.90000000e-009,-3.66515562e-003
,,,2.92500000e-009,-3.66796812e-003
,,,2.95000000e-009,-3.65999937e-003
,,,2.97500000e-009,-3.64031187e-003
,,,3.00000000e-009,-3.60656187e-003
,,,3.02500000e-009,-3.56156187e-003
,,,3.05000000e-009,-3.50812437e-003
,,,3.07500000e-009,-3.45140562e-003
,,,3.10000000e-009,-3.39515562e-003
,,,3.12500000e-009,-3.34359312e-003
,,,3.15000000e-009,-3.29999937e-003
,,,3.17500000e-009,-3.26484312e-003
,,,3.20000000e-009,-3.23718687e-003
,,,3.22500000e-009,-3.21796812e-003
,,,3.25000000e-009,-3.20484312e-003
,,,3.27500000e-009,-3.19640562e-003
,,,3.30000000e-009,-3.19124937e-003
,,,3.32500000e-009,-3.18656187e-003
,,,3.35000000e-009,-3.17999937e-003
,,,3.37500000e-009,-3.16546812e-003
,,,3.40000000e-009,-3.14437437e-003
,,,3.42500000e-009,-3.11718687e-003
,,,3.45000000e-009,-3.08531187e-003
,,,3.47500000e-009,-3.05015562e-003
,,,3.50000000e-009,-3.01312436e-003
,,,3.52500000e-009,-2.97609311e-003
,,,3.55000000e-009,-2.93999936e-003
,,,3.57500000e-009,-2.90156186e-003
,,,3.60000000e-009,-2.86218686e-003
,,,3.62500000e-009,-2.82140561e-003
,,,3.65000000e-009,-2.77968686e-003
,,,3.67500000e-009,-2.73515561e-003
,,,3.70000000e-009,-2.68734311e-003
,,,3.72500000e-009,-2.63578061e-003
,,,3.75000000e-009,-2.57999936e-003
,,,3.77500000e-009,-2.51859311e-003
,,,3.80000000e-009,-2.45296811e-003
,,,3.82500000e-009,-2.38546811e-003
,,,3.85000000e-009,-2.31796811e-003
,,,3.87500000e-009,-2.25374936e-003
,,,3.90000000e-009,-2.19515561e-003
,,,3.92500000e-009,-2.14359311e-003
,,,3.95000000e-009,-2.09999936e-003
,,,3.97500000e-009,-2.06718686e-003
,,,4.00000000e-009,-2.03906186e-003
,,,4.02500000e-009,-2.01421811e-003
,,,4.05000000e-009,-1.98984311e-003
,,,4.07500000e-009,-1.96359311e-003
,,,4.10000000e-009,-1.93453061e-003
,,,4.12500000e-009,-1.90031186e-003
,,,4.15000000e-009,-1.85999935e-003
,,,4.17500000e-009,-1.81687435e-003
,,,4.20000000e-009,-1.76765560e-003
,,,4.22500000e-009,-1.71468685e-003
,,,4.25000000e-009,-1.66031185e-003
,,,4.27500000e-009,-1.60874935e-003
,,,4.30000000e-009,-1.56328060e-003
,,,4.32500000e-009,-1.52624935e-003
,,,4.35000000e-009,-1.49999935e-003
,,,4.37500000e-009,-1.48968685e-003
,,,4.40000000e-009,-1.48687435e-003
,,,4.42500000e-009,-1.49015560e-003
,,,4.45000000e-009,-1.49671810e-003
,,,4.47500000e-009,-1.50374935e-003
,,,4.50000000e-009,-1.50796810e-003
,,,4.52500000e-009,-1.50749935e-003
,,,4.55000000e-009,-1.49999935e-003
,,,4.57500000e-009,-1.48781185e-003
,,,4.60000000e-009,-1.46531185e-003
,,,4.62500000e-009,-1.43484310e-003
,,,4.65000000e-009,-1.39828060e-003
,,,4.67500000e-009,-1.35937435e-003
,,,4.70000000e-009,-1.32140560e-003
,,,4.72500000e-009,-1.28718685e-003
,,,4.75000000e-009,-1.25999935e-003
,,,4.77500000e-009,-1.24499935e-003
,,,4.80000000e-009,-1.23656185e-003
,,,4.82500000e-009,-1.23468685e-003
,,,4.85000000e-009,-1.23749935e-003
,,,4.87500000e-009,-1.24359310e-003
,,,4.90000000e-009,-1.25062435e-003
,,,4.92500000e-009,-1.25671810e-003
,,,4.95000000e-009,-1.25999935e-003
,,,4.97500000e-009,-1.25999935e-003
,,,5.00000000e-009,-1.25343685e-003
,,,5.02500000e-009,-1.24078060e-003
,,,5.05000000e-009,-1.22390560e-003
,,,5.07500000e-009,-1.20328060e-003
,,,5.10000000e-009,-1.18171810e-003
,,,5.12500000e-009,-1.16015560e-003
,,,5.15000000e-009,-1.13999935e-003
,,,5.17500000e-009,-1.12312435e-003
,,,5.20000000e-009,-1.10765560e-003
,,,5.22500000e-009,-1.09359310e-003
,,,5.25000000e-009,-1.07999935e-003
,,,5.27500000e-009,-1.06687435e-003
,,,5.30000000e-009,-1.05281185e-003
,,,5.32500000e-009,-1.03734310e-003
,,,5.35000000e-009,-1.01999935e-003
,,,5.37500000e-009,-1.00124935e-003
,,,5.40000000e-009,-9.81093097e-004
,,,5.42500000e-009,-9.60468097e-004
,,,5.45000000e-009,-9.40780597e-004
,,,5.47500000e-009,-9.23905597e-004
,,,5.50000000e-009,-9.10780597e-004
,,,5.52500000e-009,-9.02811847e-004
,,,5.55000000e-009,-8.99999347e-004
,,,5.57500000e-009,-9.02811847e-004
,,,5.60000000e-009,-9.07968097e-004
,,,5.62500000e-009,-9.14061847e-004
,,,5.65000000e-009,-9.19686847e-004
,,,5.67500000e-009,-9.22499347e-004
,,,5.70000000e-009,-9.21093097e-004
,,,5.72500000e-009,-9.14061847e-004
,,,5.75000000e-009,-8.99999347e-004
,,,5.77500000e-009,-8.78905596e-004
,,,5.80000000e-009,-8.50780596e-004
,,,5.82500000e-009,-8.17968096e-004
,,,5.85000000e-009,-7.82343096e-004
