RawData/CosmicRays/R6_2pt2D_15mV/wave004_Ch4.csv

"Record Length",1000,"Points",-7.72500000e-009,-5.31252273e-005
"Sample Interval",2.50000000e-011,s,-7.70000000e-009,-3.59377261e-005
"Trigger Point",309,"Samples",-7.67500000e-009,-1.71877247e-005
"Trigger Time",1.23202208e-011,s,-7.65000000e-009,-2.23517416e-010
"",,,-7.62500000e-009,1.09372773e-005
"Horizontal Offset",-7.72500000e-009,s,-7.60000000e-009,1.87497778e-005
,,,-7.57500000e-009,1.87497778e-005
,,,-7.55000000e-009,1.71872777e-005
,,,-7.52500000e-009,1.09372773e-005
,,,-7.50000000e-009,4.68727681e-006
,,,-7.47500000e-009,1.56227659e-006
,,,-7.45000000e-009,-2.23517416e-010
,,,-7.42500000e-009,3.12477670e-006
,,,-7.40000000e-009,9.37477715e-006
,,,-7.37500000e-009,1.71872777e-005
,,,-7.35000000e-009,2.34372781e-005
,,,-7.32500000e-009,2.65622784e-005
,,,-7.30000000e-009,2.34372781e-005
,,,-7.27500000e-009,1.56247776e-005
,,,-7.25000000e-009,-2.23517416e-010
,,,-7.22500000e-009,-2.18752251e-005
,,,-7.20000000e-009,-4.53127267e-005
,,,-7.17500000e-009,-6.56252282e-005
,,,-7.15000000e-009,-8.12502293e-005
,,,-7.12500000e-009,-8.43752295e-005
,,,-7.10000000e-009,-7.34377287e-005
,,,-7.07500000e-009,-4.68752268e-005
,,,-7.05000000e-009,-2.23517416e-010
,,,-7.02500000e-009,6.24997809e-005
,,,-7.00000000e-009,1.37499786e-004
,,,-6.97500000e-009,2.14062292e-004
,,,-6.95000000e-009,2.85937297e-004
,,,-6.92500000e-009,3.46874801e-004
,,,-6.90000000e-009,3.89062304e-004
,,,-6.87500000e-009,4.07812305e-004
,,,-6.85000000e-009,3.99999805e-004
,,,-6.82500000e-009,3.64062302e-004
,,,-6.80000000e-009,3.09374798e-004
,,,-6.77500000e-009,2.40624794e-004
,,,-6.75000000e-009,1.67187288e-004
,,,-6.72500000e-009,9.84372835e-005
,,,-6.70000000e-009,4.21872795e-005
,,,-6.67500000e-009,7.81227704e-006
,,,-6.65000000e-009,-2.23517416e-010
,,,-6.62500000e-009,2.18747780e-005
,,,-6.60000000e-009,6.71872812e-005
,,,-6.57500000e-009,1.32812286e-004
,,,-6.55000000e-009,2.06249791e-004
,,,-6.52500000e-009,2.78124796e-004
,,,-6.50000000e-009,3.40624801e-004
,,,-6.47500000e-009,3.82812304e-004
,,,-6.45000000e-009,3.99999805e-004
,,,-6.42500000e-009,3.85937304e-004
,,,-6.40000000e-009,3.46874801e-004
,,,-6.37500000e-009,2.87499797e-004
,,,-6.35000000e-009,2.17187292e-004
,,,-6.32500000e-009,1.42187287e-004
,,,-6.30000000e-009,7.65622819e-005
,,,-6.27500000e-009,2.65622784e-005
,,,-6.25000000e-009,-2.23517416e-010
,,,-6.22500000e-009,-2.23517416e-010
,,,-6.20000000e-009,2.81247785e-005
,,,-6.17500000e-009,7.81247820e-005
,,,-6.15000000e-009,1.45312287e-004
,,,-6.12500000e-009,2.17187292e-004
,,,-6.10000000e-009,2.89062297e-004
,,,-6.07500000e-009,3.51562301e-004
,,,-6.05000000e-009,3.99999805e-004
,,,-6.02500000e-009,4.26562307e-004
,,,-6.00000000e-009,4.35937307e-004
,,,-5.97500000e-009,4.29687307e-004
,,,-5.95000000e-009,4.14062306e-004
,,,-5.92500000e-009,3.96874805e-004
,,,-5.90000000e-009,3.85937304e-004
,,,-5.87500000e-009,3.84374804e-004
,,,-5.85000000e-009,3.99999805e-004
,,,-5.82500000e-009,4.32812307e-004
,,,-5.80000000e-009,4.84374811e-004
,,,-5.77500000e-009,5.46874815e-004
,,,-5.75000000e-009,6.14062320e-004
,,,-5.72500000e-009,6.81249825e-004
,,,-5.70000000e-009,7.37499829e-004
,,,-5.67500000e-009,7.79687332e-004
,,,-5.65000000e-009,7.99999833e-004
,,,-5.62500000e-009,7.90624832e-004
,,,-5.60000000e-009,7.59374830e-004
,,,-5.57500000e-009,7.09374827e-004
,,,-5.55000000e-009,6.46874822e-004
,,,-5.52500000e-009,5.78124817e-004
,,,-5.50000000e-009,5.09374813e-004
,,,-5.47500000e-009,4.48437308e-004
,,,-5.45000000e-009,3.99999805e-004
,,,-5.42500000e-009,3.67187302e-004
,,,-5.40000000e-009,3.51562301e-004
,,,-5.37500000e-009,3.51562301e-004
,,,-5.35000000e-009,3.59374802e-004
,,,-5.32500000e-009,3.73437303e-004
,,,-5.30000000e-009,3.87499804e-004
,,,-5.27500000e-009,3.96874805e-004
,,,-5.25000000e-009,3.99999805e-004
,,,-5.22500000e-009,3.90624804e-004
,,,-5.20000000e-009,3.76562303e-004
,,,-5.17500000e-009,3.59374802e-004
,,,-5.15000000e-009,3.45312301e-004
,,,-5.12500000e-009,3.37499800e-004
,,,-5.10000000e-009,3.40624801e-004
,,,-5.07500000e-009,3.60937302e-004
,,,-5.05000000e-009,3.99999805e-004
,,,-5.02500000e-009,4.53124809e-004
,,,-5.00000000e-009,5.20312313e-004
,,,-4.97500000e-009,5.92187318e-004
,,,-4.95000000e-009,6.64062323e-004
,,,-4.92500000e-009,7.26562328e-004
,,,-4.90000000e-009,7.73437331e-004
,,,-4.87500000e-009,7.99999833e-004
,,,-4.85000000e-009,7.99999833e-004
,,,-4.82500000e-009,7.68749831e-004
,,,-4.80000000e-009,7.15624827e-004
,,,-4.77500000e-009,6.48437322e-004
,,,-4.75000000e-009,5.74999817e-004
,,,-4.72500000e-009,5.04687312e-004
,,,-4.70000000e-009,4.46874808e-004
,,,-4.67500000e-009,4.10937306e-004
,,,-4.65000000e-009,3.99999805e-004
,,,-4.62500000e-009,4.17187306e-004
,,,-4.60000000e-009,4.59374809e-004
,,,-4.57500000e-009,5.18749813e-004
,,,-4.55000000e-009,5.90624818e-004
,,,-4.52500000e-009,6.62499823e-004
,,,-4.50000000e-009,7.26562328e-004
,,,-4.47500000e-009,7.74999831e-004
,,,-4.45000000e-009,7.99999833e-004
,,,-4.42500000e-009,7.93749833e-004
,,,-4.40000000e-009,7.64062331e-004
,,,-4.37500000e-009,7.12499827e-004
,,,-4.35000000e-009,6.46874822e-004
,,,-4.32500000e-009,5.74999817e-004
,,,-4.30000000e-009,5.04687312e-004
,,,-4.27500000e-009,4.45312308e-004
,,,-4.25000000e-009,3.99999805e-004
,,,-4.22500000e-009,3.70312303e-004
,,,-4.20000000e-009,3.59374802e-004
,,,-4.17500000e-009,3.64062302e-004
,,,-4.15000000e-009,3.76562303e-004
,,,-4.12500000e-009,3.93749804e-004
,,,-4.10000000e-009,4.07812305e-004
,,,-4.07500000e-009,4.10937306e-004
,,,-4.05000000e-009,3.99999805e-004
,,,-4.02500000e-009,3.68749803e-004
,,,-4.00000000e-009,3.23437299e-004
,,,-3.97500000e-009,2.65624795e-004
,,,-3.95000000e-009,1.99999791e-004
,,,-3.92500000e-009,1.32812286e-004
,,,-3.90000000e-009,7.34372817e-005
,,,-3.87500000e-009,2.65622784e-005
,,,-3.85000000e-009,-2.23517416e-010
,,,-3.82500000e-009,-3.12522374e-006
,,,-3.80000000e-009,1.56247776e-005
,,,-3.77500000e-009,5.62497805e-005
,,,-3.75000000e-009,1.12499784e-004
,,,-3.72500000e-009,1.81249789e-004
,,,-3.70000000e-009,2.54687295e-004
,,,-3.67500000e-009,3.29687300e-004
,,,-3.65000000e-009,3.99999805e-004
,,,-3.62500000e-009,4.57812309e-004
,,,-3.60000000e-009,4.99999812e-004
,,,-3.57500000e-009,5.24999814e-004
,,,-3.55000000e-009,5.32812314e-004
,,,-3.52500000e-009,5.21874813e-004
,,,-3.50000000e-009,4.93749811e-004
,,,-3.47500000e-009,4.51562308e-004
,,,-3.45000000e-009,3.99999805e-004
,,,-3.42500000e-009,3.40624801e-004
,,,-3.40000000e-009,2.78124796e-004
,,,-3.37500000e-009,2.17187292e-004
,,,-3.35000000e-009,1.57812288e-004
,,,-3.32500000e-009,1.04687284e-004
,,,-3.30000000e-009,6.09372808e-005
,,,-3.27500000e-009,2.49997783e-005
,,,-3.25000000e-009,-2.23517416e-010
,,,-3.22500000e-009,-1.71877247e-005
,,,-3.20000000e-009,-2.50002253e-005
,,,-3.17500000e-009,-2.65627254e-005
,,,-3.15000000e-009,-2.34377252e-005
,,,-3.12500000e-009,-1.71877247e-005
,,,-3.10000000e-009,-1.09377243e-005
,,,-3.07500000e-009,-4.68772385e-006
,,,-3.05000000e-009,-2.23517416e-010
,,,-3.02500000e-009,1.56227659e-006
,,,-3.00000000e-009,1.56227659e-006
,,,-2.97500000e-009,-3.12522374e-006
,,,-2.95000000e-009,-7.81272407e-006
,,,-2.92500000e-009,-1.25002244e-005
,,,-2.90000000e-009,-1.40627245e-005
,,,-2.87500000e-009,-1.09377243e-005
,,,-2.85000000e-009,-2.23517416e-010
,,,-2.82500000e-009,1.71872777e-005
,,,-2.80000000e-009,4.68747798e-005
,,,-2.77500000e-009,8.43747825e-005
,,,-2.75000000e-009,1.34374786e-004
,,,-2.72500000e-009,1.92187290e-004
,,,-2.70000000e-009,2.57812295e-004
,,,-2.67500000e-009,3.28124800e-004
,,,-2.65000000e-009,3.99999805e-004
,,,-2.62500000e-009,4.64062309e-004
,,,-2.60000000e-009,5.17187313e-004
,,,-2.57500000e-009,5.54687316e-004
,,,-2.55000000e-009,5.73437317e-004
,,,-2.52500000e-009,5.68749817e-004
,,,-2.50000000e-009,5.37499815e-004
,,,-2.47500000e-009,4.81249811e-004
,,,-2.45000000e-009,3.99999805e-004
,,,-2.42500000e-009,2.96874797e-004
,,,-2.40000000e-009,1.79687289e-004
,,,-2.37500000e-009,5.62497805e-005
,,,-2.35000000e-009,-6.56252282e-005
,,,-2.32500000e-009,-1.79687736e-004
,,,-2.30000000e-009,-2.78125243e-004
,,,-2.27500000e-009,-3.53125249e-004
,,,-2.25000000e-009,-4.00000252e-004
,,,-2.22500000e-009,-4.15625253e-004
,,,-2.20000000e-009,-4.01562752e-004
,,,-2.17500000e-009,-3.62500249e-004
,,,-2.15000000e-009,-3.03125245e-004
,,,-2.12500000e-009,-2.29687740e-004
,,,-2.10000000e-009,-1.50000234e-004
,,,-2.07500000e-009,-7.18752286e-005
,,,-2.05000000e-009,-2.23517416e-010
,,,-2.02500000e-009,5.31247802e-005
,,,-2.00000000e-009,8.90622828e-005
,,,-1.97500000e-009,1.07812284e-004
,,,-1.95000000e-009,1.07812284e-004
,,,-1.92500000e-009,9.21872830e-005
,,,-1.90000000e-009,6.71872812e-005
,,,-1.87500000e-009,3.43747789e-005
,,,-1.85000000e-009,-2.23517416e-010
,,,-1.82500000e-009,-4.06252264e-005
,,,-1.80000000e-009,-7.50002288e-005
,,,-1.77500000e-009,-9.84377305e-005
,,,-1.75000000e-009,-1.10937731e-004
,,,-1.72500000e-009,-1.06250231e-004
,,,-1.70000000e-009,-8.59377296e-005
,,,-1.67500000e-009,-5.15627272e-005
,,,-1.65000000e-009,-2.23517416e-010
,,,-1.62500000e-009,4.84372799e-005
,,,-1.60000000e-009,1.03124784e-004
,,,-1.57500000e-009,1.60937288e-004
,,,-1.55000000e-009,2.17187292e-004
,,,-1.52500000e-009,2.73437296e-004
,,,-1.50000000e-009,3.23437299e-004
,,,-1.47500000e-009,3.65624802e-004
,,,-1.45000000e-009,3.99999805e-004
,,,-1.42500000e-009,3.93749804e-004
,,,-1.40000000e-009,3.70312303e-004
,,,-1.37500000e-009,3.31249800e-004
,,,-1.35000000e-009,2.79687296e-004
,,,-1.32500000e-009,2.17187292e-004
,,,-1.30000000e-009,1.46874787e-004
,,,-1.27500000e-009,7.49997818e-005
,,,-1.25000000e-009,-2.23517416e-010
,,,-1.22500000e-009,-1.21875232e-004
,,,-1.20000000e-009,-2.45312741e-004
,,,-1.17500000e-009,-3.67187750e-004
,,,-1.15000000e-009,-4.81250258e-004
,,,-1.12500000e-009,-5.84375265e-004
,,,-1.10000000e-009,-6.71875271e-004
,,,-1.07500000e-009,-7.43750276e-004
,,,-1.05000000e-009,-8.00000280e-004
,,,-1.02500000e-009,-9.07812788e-004
,,,-1.00000000e-009,-1.01562530e-003
,,,-9.75000000e-010,-1.12343780e-003
,,,-9.50000000e-010,-1.22812531e-003
,,,-9.25000000e-010,-1.33125032e-003
,,,-9.00000000e-010,-1.42656282e-003
,,,-8.75000000e-010,-1.51562533e-003
,,,-8.50000000e-010,-1.60000034e-003
,,,-8.25000000e-010,-1.76406285e-003
,,,-8.00000000e-010,-1.93906286e-003
,,,-7.75000000e-010,-2.11718787e-003
,,,-7.50000000e-010,-2.28906289e-003
,,,-7.25000000e-010,-2.44843790e-003
,,,-7.00000000e-010,-2.58593791e-003
,,,-6.75000000e-010,-2.70312541e-003
,,,-6.50000000e-010,-2.80000042e-003
,,,-6.25000000e-010,-2.98593793e-003
,,,-6.00000000e-010,-3.18593795e-003
,,,-5.75000000e-010,-3.40312546e-003
,,,-5.50000000e-010,-3.63750048e-003
,,,-5.25000000e-010,-3.89218800e-003
,,,-5.00000000e-010,-4.16875052e-003
,,,-4.75000000e-010,-4.47031304e-003
,,,-4.50000000e-010,-4.80000056e-003
,,,-4.25000000e-010,-5.26406310e-003
,,,-4.00000000e-010,-5.77968813e-003
,,,-3.75000000e-010,-6.33437567e-003
,,,-3.50000000e-010,-6.91406321e-003
,,,-3.25000000e-010,-7.50468825e-003
,,,-3.00000000e-010,-8.08750080e-003
,,,-2.75000000e-010,-8.65468834e-003
,,,-2.50000000e-010,-9.20000087e-003
,,,-2.25000000e-010,-9.79843842e-003
,,,-2.00000000e-010,-1.03968760e-002
,,,-1.75000000e-010,-1.09953135e-002
,,,-1.50000000e-010,-1.15921885e-002
,,,-1.25000000e-010,-1.21890636e-002
,,,-1.00000000e-010,-1.27875011e-002
,,,-7.50000000e-011,-1.33890637e-002
,,,-5.00000000e-011,-1.40000012e-002
,,,-2.50000000e-011,-1.46687513e-002
,,,0.00000000e+000,-1.53765638e-002
,,,2.50000000e-011,-1.61187514e-002
,,,5.00000000e-011,-1.68890639e-002
,,,7.50000000e-011,-1.76718765e-002
,,,1.00000000e-010,-1.84593765e-002
,,,1.25000000e-010,-1.92375016e-002
,,,1.50000000e-010,-2.00000016e-002
,,,1.75000000e-010,-2.07250017e-002
,,,2.00000000e-010,-2.14484392e-002
,,,2.25000000e-010,-2.21656268e-002
,,,2.50000000e-010,-2.28781268e-002
,,,2.75000000e-010,-2.35812519e-002
,,,3.00000000e-010,-2.42718769e-002
,,,3.25000000e-010,-2.49453145e-002
,,,3.50000000e-010,-2.56000020e-002
,,,3.75000000e-010,-2.61609396e-002
,,,4.00000000e-010,-2.67234396e-002
,,,4.25000000e-010,-2.72875022e-002
,,,4.50000000e-010,-2.78531272e-002
,,,4.75000000e-010,-2.84140647e-002
,,,5.00000000e-010,-2.89640648e-002
,,,5.25000000e-010,-2.94953148e-002
,,,5.50000000e-010,-3.00000023e-002
,,,5.75000000e-010,-3.03593774e-002
,,,6.00000000e-010,-3.07078149e-002
,,,6.25000000e-010,-3.10562524e-002
,,,6.50000000e-010,-3.14078149e-002
,,,6.75000000e-010,-3.17609400e-002
,,,7.00000000e-010,-3.21140650e-002
,,,7.25000000e-010,-3.24625025e-002
,,,7.50000000e-010,-3.28000025e-002
,,,7.75000000e-010,-3.29718776e-002
,,,8.00000000e-010,-3.31390651e-002
,,,8.25000000e-010,-3.33046901e-002
,,,8.50000000e-010,-3.34703151e-002
,,,8.75000000e-010,-3.36296901e-002
,,,9.00000000e-010,-3.37781276e-002
,,,9.25000000e-010,-3.39046901e-002
,,,9.50000000e-010,-3.40000026e-002
,,,9.75000000e-010,-3.38906276e-002
,,,1.00000000e-009,-3.37484401e-002
,,,1.02500000e-009,-3.35781276e-002
,,,1.05000000e-009,-3.33828151e-002
,,,1.07500000e-009,-3.31656276e-002
,,,1.10000000e-009,-3.29296901e-002
,,,1.12500000e-009,-3.26750025e-002
,,,1.15000000e-009,-3.24000025e-002
,,,1.17500000e-009,-3.19625025e-002
,,,1.20000000e-009,-3.15171900e-002
,,,1.22500000e-009,-3.10750024e-002
,,,1.25000000e-009,-3.06484399e-002
,,,1.27500000e-009,-3.02453149e-002
,,,1.30000000e-009,-2.98687523e-002
,,,1.32500000e-009,-2.95218773e-002
,,,1.35000000e-009,-2.92000023e-002
,,,1.37500000e-009,-2.87906273e-002
,,,1.40000000e-009,-2.83875022e-002
,,,1.42500000e-009,-2.79921897e-002
,,,1.45000000e-009,-2.76015647e-002
,,,1.47500000e-009,-2.72109396e-002
,,,1.50000000e-009,-2.68187521e-002
,,,1.52500000e-009,-2.64187521e-002
,,,1.55000000e-009,-2.60000021e-002
,,,1.57500000e-009,-2.54828145e-002
,,,1.60000000e-009,-2.49250020e-002
,,,1.62500000e-009,-2.43343769e-002
,,,1.65000000e-009,-2.37187519e-002
,,,1.67500000e-009,-2.30875019e-002
,,,1.70000000e-009,-2.24515643e-002
,,,1.72500000e-009,-2.18218768e-002
,,,1.75000000e-009,-2.12000017e-002
,,,1.77500000e-009,-2.05625017e-002
,,,1.80000000e-009,-1.99250016e-002
,,,1.82500000e-009,-1.92937516e-002
,,,1.85000000e-009,-1.86734390e-002
,,,1.87500000e-009,-1.80687515e-002
,,,1.90000000e-009,-1.74875015e-002
,,,1.92500000e-009,-1.69312514e-002
,,,1.95000000e-009,-1.64000014e-002
,,,1.97500000e-009,-1.59031263e-002
,,,2.00000000e-009,-1.54015638e-002
,,,2.02500000e-009,-1.48937513e-002
,,,2.05000000e-009,-1.43843762e-002
,,,2.07500000e-009,-1.38765637e-002
,,,2.10000000e-009,-1.33734387e-002
,,,2.12500000e-009,-1.28812511e-002
,,,2.15000000e-009,-1.24000011e-002
,,,2.17500000e-009,-1.19671886e-002
,,,2.20000000e-009,-1.15203135e-002
,,,2.22500000e-009,-1.10640635e-002
,,,2.25000000e-009,-1.05984385e-002
,,,2.27500000e-009,-1.01343759e-002
,,,2.30000000e-009,-9.67500091e-003
,,,2.32500000e-009,-9.22812588e-003
,,,2.35000000e-009,-8.80000085e-003
,,,2.37500000e-009,-8.44218832e-003
,,,2.40000000e-009,-8.08125080e-003
,,,2.42500000e-009,-7.71718827e-003
,,,2.45000000e-009,-7.35312574e-003
,,,2.47500000e-009,-6.99375072e-003
,,,2.50000000e-009,-6.64375069e-003
,,,2.52500000e-009,-6.31250067e-003
,,,2.55000000e-009,-6.00000065e-003
,,,2.57500000e-009,-5.77187563e-003
,,,2.60000000e-009,-5.54531312e-003
,,,2.62500000e-009,-5.32187560e-003
,,,2.65000000e-009,-5.10468808e-003
,,,2.67500000e-009,-4.89843807e-003
,,,2.70000000e-009,-4.71093806e-003
,,,2.72500000e-009,-4.54375055e-003
,,,2.75000000e-009,-4.40000053e-003
,,,2.77500000e-009,-4.33281303e-003
,,,2.80000000e-009,-4.26406303e-003
,,,2.82500000e-009,-4.18593802e-003
,,,2.85000000e-009,-4.09687551e-003
,,,2.87500000e-009,-3.99375051e-003
,,,2.90000000e-009,-3.87656300e-003
,,,2.92500000e-009,-3.74531299e-003
,,,2.95000000e-009,-3.60000048e-003
,,,2.97500000e-009,-3.48281297e-003
,,,3.00000000e-009,-3.34218796e-003
,,,3.02500000e-009,-3.18437545e-003
,,,3.05000000e-009,-3.01406294e-003
,,,3.07500000e-009,-2.84062542e-003
,,,3.10000000e-009,-2.67656291e-003
,,,3.12500000e-009,-2.52656290e-003
,,,3.15000000e-009,-2.40000039e-003
,,,3.17500000e-009,-2.32968789e-003
,,,3.20000000e-009,-2.27031288e-003
,,,3.22500000e-009,-2.22031288e-003
,,,3.25000000e-009,-2.17656288e-003
,,,3.27500000e-009,-2.13593787e-003
,,,3.30000000e-009,-2.09375037e-003
,,,3.32500000e-009,-2.05000037e-003
,,,3.35000000e-009,-2.00000037e-003
,,,3.37500000e-009,-1.96250036e-003
,,,3.40000000e-009,-1.91093786e-003
,,,3.42500000e-009,-1.84843785e-003
,,,3.45000000e-009,-1.78281285e-003
,,,3.47500000e-009,-1.71875035e-003
,,,3.50000000e-009,-1.66250034e-003
,,,3.52500000e-009,-1.62187534e-003
,,,3.55000000e-009,-1.60000034e-003
,,,3.57500000e-009,-1.60625034e-003
,,,3.60000000e-009,-1.62187534e-003
,,,3.62500000e-009,-1.64218784e-003
,,,3.65000000e-009,-1.66093784e-003
,,,3.67500000e-009,-1.67031284e-003
,,,3.70000000e-009,-1.66718784e-003
,,,3.72500000e-009,-1.64531284e-003
,,,3.75000000e-009,-1.60000034e-003
,,,3.77500000e-009,-1.53593783e-003
,,,3.80000000e-009,-1.44687533e-003
,,,3.82500000e-009,-1.33906282e-003
,,,3.85000000e-009,-1.22031281e-003
,,,3.87500000e-009,-1.10000030e-003
,,,3.90000000e-009,-9.85937793e-004
,,,3.92500000e-009,-8.84375286e-004
,,,3.95000000e-009,-8.00000280e-004
,,,3.97500000e-009,-7.42187776e-004
,,,4.00000000e-009,-6.98437773e-004
,,,4.02500000e-009,-6.64062771e-004
,,,4.05000000e-009,-6.31250268e-004
,,,4.07500000e-009,-5.95312766e-004
,,,4.10000000e-009,-5.46875262e-004
,,,4.12500000e-009,-4.84375258e-004
,,,4.15000000e-009,-4.00000252e-004
,,,4.17500000e-009,-3.01562745e-004
,,,4.20000000e-009,-1.84375237e-004
,,,4.22500000e-009,-5.78127276e-005
,,,4.25000000e-009,7.03122815e-005
,,,4.27500000e-009,1.89062290e-004
,,,4.30000000e-009,2.89062297e-004
,,,4.32500000e-009,3.60937302e-004
,,,4.35000000e-009,3.99999805e-004
,,,4.37500000e-009,3.92187304e-004
,,,4.40000000e-009,3.56249802e-004
,,,4.42500000e-009,2.96874797e-004
,,,4.45000000e-009,2.24999792e-004
,,,4.47500000e-009,1.48437287e-004
,,,4.50000000e-009,7.96872821e-005
,,,4.52500000e-009,2.81247785e-005
,,,4.55000000e-009,-2.23517416e-010
,,,4.57500000e-009,-6.25022396e-006
,,,4.60000000e-009,1.56247776e-005
,,,4.62500000e-009,6.40622810e-005
,,,4.65000000e-009,1.31249786e-004
,,,4.67500000e-009,2.06249791e-004
,,,4.70000000e-009,2.81249796e-004
,,,4.72500000e-009,3.48437301e-004
,,,4.75000000e-009,3.99999805e-004
,,,4.77500000e-009,4.21874806e-004
,,,4.80000000e-009,4.26562307e-004
,,,4.82500000e-009,4.18749806e-004
,,,4.85000000e-009,4.03124805e-004
,,,4.87500000e-009,3.85937304e-004
,,,4.90000000e-009,3.76562303e-004
,,,4.92500000e-009,3.79687303e-004
,,,4.95000000e-009,3.99999805e-004
,,,4.97500000e-009,4.32812307e-004
,,,5.00000000e-009,4.82812311e-004
,,,5.02500000e-009,5.46874815e-004
,,,5.05000000e-009,6.15624820e-004
,,,5.07500000e-009,6.84374825e-004
,,,5.10000000e-009,7.40624829e-004
,,,5.12500000e-009,7.81249832e-004
,,,5.15000000e-009,7.99999833e-004
,,,5.17500000e-009,7.82812332e-004
,,,5.20000000e-009,7.45312329e-004
,,,5.22500000e-009,6.89062325e-004
,,,5.25000000e-009,6.23437321e-004
,,,5.27500000e-009,5.53124816e-004
,,,5.30000000e-009,4.89062311e-004
,,,5.32500000e-009,4.35937307e-004
,,,5.35000000e-009,3.99999805e-004
,,,5.37500000e-009,3.78124803e-004
,,,5.40000000e-009,3.74999803e-004
,,,5.42500000e-009,3.84374804e-004
,,,5.45000000e-009,4.01562305e-004
,,,5.47500000e-009,4.17187306e-004
,,,5.50000000e-009,4.24999807e-004
,,,5.52500000e-009,4.20312306e-004
,,,5.55000000e-009,3.99999805e-004
,,,5.57500000e-009,3.54687302e-004
,,,5.60000000e-009,2.93749797e-004
,,,5.62500000e-009,2.24999792e-004
,,,5.65000000e-009,1.53124787e-004
,,,5.67500000e-009,8.74997827e-005
,,,5.70000000e-009,3.59372790e-005
,,,5.72500000e-009,4.68727681e-006
,,,5.75000000e-009,-2.23517416e-010
,,,5.77500000e-009,1.71872777e-005
,,,5.80000000e-009,5.78122806e-005
,,,5.82500000e-009,1.17187285e-004
,,,5.85000000e-009,1.85937290e-004
,,,5.87500000e-009,2.56249795e-004
,,,5.90000000e-009,3.20312299e-004
,,,5.92500000e-009,3.70312303e-004
,,,5.95000000e-009,3.99999805e-004
,,,5.97500000e-009,3.99999805e-004
,,,6.00000000e-009,3.76562303e-004
