RawData/CosmicRays/R6_2pt2D_15mV/wave003_Ch4.csv

"Record Length",1000,"Points",-7.72500000e-009,-3.28127258e-005
"Sample Interval",2.50000000e-011,s,-7.70000000e-009,-2.50002253e-005
"Trigger Point",309,"Samples",-7.67500000e-009,-1.25002244e-005
"Trigger Time",1.02088112e-011,s,-7.65000000e-009,-3.12522374e-006
"",,,-7.62500000e-009,1.56227659e-006
"Horizontal Offset",-7.72500000e-009,s,-7.60000000e-009,-2.23517416e-010
,,,-7.57500000e-009,-9.37522418e-006
,,,-7.55000000e-009,-2.50002253e-005
,,,-7.52500000e-009,-4.21877265e-005
,,,-7.50000000e-009,-5.62502275e-005
,,,-7.47500000e-009,-6.40627281e-005
,,,-7.45000000e-009,-5.93752277e-005
,,,-7.42500000e-009,-3.90627263e-005
,,,-7.40000000e-009,-2.23517416e-010
,,,-7.37500000e-009,5.62497805e-005
,,,-7.35000000e-009,1.24999785e-004
,,,-7.32500000e-009,1.99999791e-004
,,,-7.30000000e-009,2.70312296e-004
,,,-7.27500000e-009,3.32812300e-004
,,,-7.25000000e-009,3.78124803e-004
,,,-7.22500000e-009,4.01562305e-004
,,,-7.20000000e-009,3.99999805e-004
,,,-7.17500000e-009,3.70312303e-004
,,,-7.15000000e-009,3.20312299e-004
,,,-7.12500000e-009,2.54687295e-004
,,,-7.10000000e-009,1.81249789e-004
,,,-7.07500000e-009,1.12499784e-004
,,,-7.05000000e-009,5.31247802e-005
,,,-7.02500000e-009,1.40622775e-005
,,,-7.00000000e-009,-2.23517416e-010
,,,-6.97500000e-009,1.40622775e-005
,,,-6.95000000e-009,5.31247802e-005
,,,-6.92500000e-009,1.12499784e-004
,,,-6.90000000e-009,1.81249789e-004
,,,-6.87500000e-009,2.54687295e-004
,,,-6.85000000e-009,3.20312299e-004
,,,-6.82500000e-009,3.70312303e-004
,,,-6.80000000e-009,3.99999805e-004
,,,-6.77500000e-009,4.01562305e-004
,,,-6.75000000e-009,3.78124803e-004
,,,-6.72500000e-009,3.32812300e-004
,,,-6.70000000e-009,2.70312296e-004
,,,-6.67500000e-009,1.99999791e-004
,,,-6.65000000e-009,1.24999785e-004
,,,-6.62500000e-009,5.62497805e-005
,,,-6.60000000e-009,-2.23517416e-010
,,,-6.57500000e-009,-4.06252264e-005
,,,-6.55000000e-009,-6.40627281e-005
,,,-6.52500000e-009,-7.03127285e-005
,,,-6.50000000e-009,-6.40627281e-005
,,,-6.47500000e-009,-4.84377269e-005
,,,-6.45000000e-009,-2.96877256e-005
,,,-6.42500000e-009,-1.25002244e-005
,,,-6.40000000e-009,-2.23517416e-010
,,,-6.37500000e-009,6.24977692e-006
,,,-6.35000000e-009,6.24977692e-006
,,,-6.32500000e-009,-2.23517416e-010
,,,-6.30000000e-009,-9.37522418e-006
,,,-6.27500000e-009,-1.71877247e-005
,,,-6.25000000e-009,-2.18752251e-005
,,,-6.22500000e-009,-1.71877247e-005
,,,-6.20000000e-009,-2.23517416e-010
,,,-6.17500000e-009,3.28122788e-005
,,,-6.15000000e-009,7.81247820e-005
,,,-6.12500000e-009,1.31249786e-004
,,,-6.10000000e-009,1.90624790e-004
,,,-6.07500000e-009,2.51562294e-004
,,,-6.05000000e-009,3.09374798e-004
,,,-6.02500000e-009,3.59374802e-004
,,,-6.00000000e-009,3.99999805e-004
,,,-5.97500000e-009,4.23437306e-004
,,,-5.95000000e-009,4.35937307e-004
,,,-5.92500000e-009,4.37499807e-004
,,,-5.90000000e-009,4.31249807e-004
,,,-5.87500000e-009,4.21874806e-004
,,,-5.85000000e-009,4.10937306e-004
,,,-5.82500000e-009,4.03124805e-004
,,,-5.80000000e-009,3.99999805e-004
,,,-5.77500000e-009,3.99999805e-004
,,,-5.75000000e-009,4.06249805e-004
,,,-5.72500000e-009,4.15624806e-004
,,,-5.70000000e-009,4.23437306e-004
,,,-5.67500000e-009,4.28124807e-004
,,,-5.65000000e-009,4.26562307e-004
,,,-5.62500000e-009,4.17187306e-004
,,,-5.60000000e-009,3.99999805e-004
,,,-5.57500000e-009,3.73437303e-004
,,,-5.55000000e-009,3.45312301e-004
,,,-5.52500000e-009,3.20312299e-004
,,,-5.50000000e-009,3.03124798e-004
,,,-5.47500000e-009,2.98437298e-004
,,,-5.45000000e-009,3.12499799e-004
,,,-5.42500000e-009,3.45312301e-004
,,,-5.40000000e-009,3.99999805e-004
,,,-5.37500000e-009,4.68749810e-004
,,,-5.35000000e-009,5.48437315e-004
,,,-5.32500000e-009,6.32812321e-004
,,,-5.30000000e-009,7.12499827e-004
,,,-5.27500000e-009,7.74999831e-004
,,,-5.25000000e-009,8.15624834e-004
,,,-5.22500000e-009,8.24999835e-004
,,,-5.20000000e-009,7.99999833e-004
,,,-5.17500000e-009,7.34374828e-004
,,,-5.15000000e-009,6.40624822e-004
,,,-5.12500000e-009,5.24999814e-004
,,,-5.10000000e-009,3.99999805e-004
,,,-5.07500000e-009,2.73437296e-004
,,,-5.05000000e-009,1.57812288e-004
,,,-5.02500000e-009,6.40622810e-005
,,,-5.00000000e-009,-2.23517416e-010
,,,-4.97500000e-009,-2.81252255e-005
,,,-4.95000000e-009,-2.03127250e-005
,,,-4.92500000e-009,1.71872777e-005
,,,-4.90000000e-009,7.96872821e-005
,,,-4.87500000e-009,1.57812288e-004
,,,-4.85000000e-009,2.43749794e-004
,,,-4.82500000e-009,3.26562300e-004
,,,-4.80000000e-009,3.99999805e-004
,,,-4.77500000e-009,4.53124809e-004
,,,-4.75000000e-009,4.87499811e-004
,,,-4.72500000e-009,5.01562312e-004
,,,-4.70000000e-009,4.96874812e-004
,,,-4.67500000e-009,4.79687310e-004
,,,-4.65000000e-009,4.53124809e-004
,,,-4.62500000e-009,4.24999807e-004
,,,-4.60000000e-009,3.99999805e-004
,,,-4.57500000e-009,3.79687303e-004
,,,-4.55000000e-009,3.67187302e-004
,,,-4.52500000e-009,3.64062302e-004
,,,-4.50000000e-009,3.67187302e-004
,,,-4.47500000e-009,3.74999803e-004
,,,-4.45000000e-009,3.84374804e-004
,,,-4.42500000e-009,3.93749804e-004
,,,-4.40000000e-009,3.99999805e-004
,,,-4.37500000e-009,4.01562305e-004
,,,-4.35000000e-009,3.98437305e-004
,,,-4.32500000e-009,3.93749804e-004
,,,-4.30000000e-009,3.89062304e-004
,,,-4.27500000e-009,3.84374804e-004
,,,-4.25000000e-009,3.84374804e-004
,,,-4.22500000e-009,3.89062304e-004
,,,-4.20000000e-009,3.99999805e-004
,,,-4.17500000e-009,4.14062306e-004
,,,-4.15000000e-009,4.31249807e-004
,,,-4.12500000e-009,4.46874808e-004
,,,-4.10000000e-009,4.57812309e-004
,,,-4.07500000e-009,4.60937309e-004
,,,-4.05000000e-009,4.53124809e-004
,,,-4.02500000e-009,4.32812307e-004
,,,-4.00000000e-009,3.99999805e-004
,,,-3.97500000e-009,3.48437301e-004
,,,-3.95000000e-009,2.89062297e-004
,,,-3.92500000e-009,2.24999792e-004
,,,-3.90000000e-009,1.59374788e-004
,,,-3.87500000e-009,9.99997836e-005
,,,-3.85000000e-009,4.99997800e-005
,,,-3.82500000e-009,1.56247776e-005
,,,-3.80000000e-009,-2.23517416e-010
,,,-3.77500000e-009,4.68727681e-006
,,,-3.75000000e-009,2.96872786e-005
,,,-3.72500000e-009,7.18747816e-005
,,,-3.70000000e-009,1.28124786e-004
,,,-3.67500000e-009,1.93749790e-004
,,,-3.65000000e-009,2.64062295e-004
,,,-3.62500000e-009,3.34374800e-004
,,,-3.60000000e-009,3.99999805e-004
,,,-3.57500000e-009,4.53124809e-004
,,,-3.55000000e-009,4.93749811e-004
,,,-3.52500000e-009,5.18749813e-004
,,,-3.50000000e-009,5.24999814e-004
,,,-3.47500000e-009,5.15624813e-004
,,,-3.45000000e-009,4.89062311e-004
,,,-3.42500000e-009,4.49999808e-004
,,,-3.40000000e-009,3.99999805e-004
,,,-3.37500000e-009,3.40624801e-004
,,,-3.35000000e-009,2.78124796e-004
,,,-3.32500000e-009,2.17187292e-004
,,,-3.30000000e-009,1.57812288e-004
,,,-3.27500000e-009,1.04687284e-004
,,,-3.25000000e-009,6.09372808e-005
,,,-3.22500000e-009,2.49997783e-005
,,,-3.20000000e-009,-2.23517416e-010
,,,-3.17500000e-009,-1.56252246e-005
,,,-3.15000000e-009,-2.03127250e-005
,,,-3.12500000e-009,-2.03127250e-005
,,,-3.10000000e-009,-1.56252246e-005
,,,-3.07500000e-009,-9.37522418e-006
,,,-3.05000000e-009,-4.68772385e-006
,,,-3.02500000e-009,-1.56272363e-006
,,,-3.00000000e-009,-2.23517416e-010
,,,-2.97500000e-009,1.56227659e-006
,,,-2.95000000e-009,-2.23517416e-010
,,,-2.92500000e-009,-4.68772385e-006
,,,-2.90000000e-009,-9.37522418e-006
,,,-2.87500000e-009,-1.40627245e-005
,,,-2.85000000e-009,-1.56252246e-005
,,,-2.82500000e-009,-1.09377243e-005
,,,-2.80000000e-009,-2.23517416e-010
,,,-2.77500000e-009,2.03122779e-005
,,,-2.75000000e-009,5.15622801e-005
,,,-2.72500000e-009,9.21872830e-005
,,,-2.70000000e-009,1.42187287e-004
,,,-2.67500000e-009,2.01562291e-004
,,,-2.65000000e-009,2.65624795e-004
,,,-2.62500000e-009,3.32812300e-004
,,,-2.60000000e-009,3.99999805e-004
,,,-2.57500000e-009,4.59374809e-004
,,,-2.55000000e-009,5.09374813e-004
,,,-2.52500000e-009,5.43749815e-004
,,,-2.50000000e-009,5.57812316e-004
,,,-2.47500000e-009,5.51562316e-004
,,,-2.45000000e-009,5.21874813e-004
,,,-2.42500000e-009,4.70312310e-004
,,,-2.40000000e-009,3.99999805e-004
,,,-2.37500000e-009,3.12499799e-004
,,,-2.35000000e-009,2.18749792e-004
,,,-2.32500000e-009,1.28124786e-004
,,,-2.30000000e-009,4.84372799e-005
,,,-2.27500000e-009,-9.37522418e-006
,,,-2.25000000e-009,-4.06252264e-005
,,,-2.22500000e-009,-3.90627263e-005
,,,-2.20000000e-009,-2.23517416e-010
,,,-2.17500000e-009,6.87497813e-005
,,,-2.15000000e-009,1.65624788e-004
,,,-2.12500000e-009,2.82812297e-004
,,,-2.10000000e-009,4.09374805e-004
,,,-2.07500000e-009,5.34374814e-004
,,,-2.05000000e-009,6.46874822e-004
,,,-2.02500000e-009,7.37499829e-004
,,,-2.00000000e-009,7.99999833e-004
,,,-1.97500000e-009,8.14062334e-004
,,,-1.95000000e-009,7.96874833e-004
,,,-1.92500000e-009,7.49999830e-004
,,,-1.90000000e-009,6.82812325e-004
,,,-1.87500000e-009,6.04687319e-004
,,,-1.85000000e-009,5.24999814e-004
,,,-1.82500000e-009,4.54687309e-004
,,,-1.80000000e-009,3.99999805e-004
,,,-1.77500000e-009,3.48437301e-004
,,,-1.75000000e-009,3.18749799e-004
,,,-1.72500000e-009,3.07812298e-004
,,,-1.70000000e-009,3.15624799e-004
,,,-1.67500000e-009,3.34374800e-004
,,,-1.65000000e-009,3.57812302e-004
,,,-1.62500000e-009,3.82812304e-004
,,,-1.60000000e-009,3.99999805e-004
,,,-1.57500000e-009,3.78124803e-004
,,,-1.55000000e-009,3.39062300e-004
,,,-1.52500000e-009,2.87499797e-004
,,,-1.50000000e-009,2.24999792e-004
,,,-1.47500000e-009,1.59374788e-004
,,,-1.45000000e-009,9.68747833e-005
,,,-1.42500000e-009,4.21872795e-005
,,,-1.40000000e-009,-2.23517416e-010
,,,-1.37500000e-009,-6.87502284e-005
,,,-1.35000000e-009,-1.31250233e-004
,,,-1.32500000e-009,-1.85937737e-004
,,,-1.30000000e-009,-2.35937740e-004
,,,-1.27500000e-009,-2.79687743e-004
,,,-1.25000000e-009,-3.20312746e-004
,,,-1.22500000e-009,-3.59375249e-004
,,,-1.20000000e-009,-4.00000252e-004
,,,-1.17500000e-009,-4.96875259e-004
,,,-1.15000000e-009,-6.06250266e-004
,,,-1.12500000e-009,-7.21875275e-004
,,,-1.10000000e-009,-8.37500283e-004
,,,-1.07500000e-009,-9.48437791e-004
,,,-1.05000000e-009,-1.04687530e-003
,,,-1.02500000e-009,-1.13125030e-003
,,,-1.00000000e-009,-1.20000031e-003
,,,-9.75000000e-010,-1.32031282e-003
,,,-9.50000000e-010,-1.44375033e-003
,,,-9.25000000e-010,-1.57500033e-003
,,,-9.00000000e-010,-1.71562534e-003
,,,-8.75000000e-010,-1.86406286e-003
,,,-8.50000000e-010,-2.02656287e-003
,,,-8.25000000e-010,-2.20312538e-003
,,,-8.00000000e-010,-2.40000039e-003
,,,-7.75000000e-010,-2.68281291e-003
,,,-7.50000000e-010,-3.00000044e-003
,,,-7.25000000e-010,-3.34531296e-003
,,,-7.00000000e-010,-3.71250049e-003
,,,-6.75000000e-010,-4.08906301e-003
,,,-6.50000000e-010,-4.46875054e-003
,,,-6.25000000e-010,-4.84062557e-003
,,,-6.00000000e-010,-5.20000059e-003
,,,-5.75000000e-010,-5.58906312e-003
,,,-5.50000000e-010,-5.97343815e-003
,,,-5.25000000e-010,-6.34687567e-003
,,,-5.00000000e-010,-6.70781320e-003
,,,-4.75000000e-010,-7.05312572e-003
,,,-4.50000000e-010,-7.38281325e-003
,,,-4.25000000e-010,-7.69687577e-003
,,,-4.00000000e-010,-8.00000079e-003
,,,-3.75000000e-010,-8.32500081e-003
,,,-3.50000000e-010,-8.66718834e-003
,,,-3.25000000e-010,-9.02968836e-003
,,,-3.00000000e-010,-9.41875089e-003
,,,-2.75000000e-010,-9.83125092e-003
,,,-2.50000000e-010,-1.02671885e-002
,,,-2.25000000e-010,-1.07234385e-002
,,,-2.00000000e-010,-1.12000010e-002
,,,-1.75000000e-010,-1.16843761e-002
,,,-1.50000000e-010,-1.21921886e-002
,,,-1.25000000e-010,-1.27140636e-002
,,,-1.00000000e-010,-1.32406262e-002
,,,-7.50000000e-011,-1.37640637e-002
,,,-5.00000000e-011,-1.42703137e-002
,,,-2.50000000e-011,-1.47531263e-002
,,,0.00000000e+000,-1.52000013e-002
,,,2.50000000e-011,-1.55640638e-002
,,,5.00000000e-011,-1.59031263e-002
,,,7.50000000e-011,-1.62203139e-002
,,,1.00000000e-010,-1.65203139e-002
,,,1.25000000e-010,-1.68062514e-002
,,,1.50000000e-010,-1.70796889e-002
,,,1.75000000e-010,-1.73437515e-002
,,,2.00000000e-010,-1.76000015e-002
,,,2.25000000e-010,-1.77765640e-002
,,,2.50000000e-010,-1.79625015e-002
,,,2.75000000e-010,-1.81578140e-002
,,,3.00000000e-010,-1.83640640e-002
,,,3.25000000e-010,-1.85781265e-002
,,,3.50000000e-010,-1.87937516e-002
,,,3.75000000e-010,-1.90031266e-002
,,,4.00000000e-010,-1.92000016e-002
,,,4.25000000e-010,-1.92890641e-002
,,,4.50000000e-010,-1.93625016e-002
,,,4.75000000e-010,-1.94265641e-002
,,,5.00000000e-010,-1.94812516e-002
,,,5.25000000e-010,-1.95265641e-002
,,,5.50000000e-010,-1.95625016e-002
,,,5.75000000e-010,-1.95875016e-002
,,,6.00000000e-010,-1.96000016e-002
,,,6.25000000e-010,-1.95046891e-002
,,,6.50000000e-010,-1.94015641e-002
,,,6.75000000e-010,-1.92968766e-002
,,,7.00000000e-010,-1.91937516e-002
,,,7.25000000e-010,-1.90937516e-002
,,,7.50000000e-010,-1.89953141e-002
,,,7.75000000e-010,-1.89000016e-002
,,,8.00000000e-010,-1.88000016e-002
,,,8.25000000e-010,-1.86093765e-002
,,,8.50000000e-010,-1.84125015e-002
,,,8.75000000e-010,-1.82125015e-002
,,,9.00000000e-010,-1.80109390e-002
,,,9.25000000e-010,-1.78109390e-002
,,,9.50000000e-010,-1.76093765e-002
,,,9.75000000e-010,-1.74078140e-002
,,,1.00000000e-009,-1.72000014e-002
,,,1.02500000e-009,-1.69187514e-002
,,,1.05000000e-009,-1.66250014e-002
,,,1.07500000e-009,-1.63218764e-002
,,,1.10000000e-009,-1.60156264e-002
,,,1.12500000e-009,-1.57078138e-002
,,,1.15000000e-009,-1.54015638e-002
,,,1.17500000e-009,-1.51000013e-002
,,,1.20000000e-009,-1.48000013e-002
,,,1.22500000e-009,-1.44625012e-002
,,,1.25000000e-009,-1.41171887e-002
,,,1.27500000e-009,-1.37671887e-002
,,,1.30000000e-009,-1.34140637e-002
,,,1.32500000e-009,-1.30593761e-002
,,,1.35000000e-009,-1.27046886e-002
,,,1.37500000e-009,-1.23515636e-002
,,,1.40000000e-009,-1.20000011e-002
,,,1.42500000e-009,-1.16375010e-002
,,,1.45000000e-009,-1.12687510e-002
,,,1.47500000e-009,-1.08968760e-002
,,,1.50000000e-009,-1.05296885e-002
,,,1.52500000e-009,-1.01718759e-002
,,,1.55000000e-009,-9.82812592e-003
,,,1.57500000e-009,-9.50468840e-003
,,,1.60000000e-009,-9.20000087e-003
,,,1.62500000e-009,-8.92187586e-003
,,,1.65000000e-009,-8.64375084e-003
,,,1.67500000e-009,-8.35937582e-003
,,,1.70000000e-009,-8.06875079e-003
,,,1.72500000e-009,-7.76718827e-003
,,,1.75000000e-009,-7.45468825e-003
,,,1.77500000e-009,-7.13281323e-003
,,,1.80000000e-009,-6.80000070e-003
,,,1.82500000e-009,-6.48437568e-003
,,,1.85000000e-009,-6.15468816e-003
,,,1.87500000e-009,-5.81718814e-003
,,,1.90000000e-009,-5.48281311e-003
,,,1.92500000e-009,-5.16250059e-003
,,,1.95000000e-009,-4.87031307e-003
,,,1.97500000e-009,-4.61406305e-003
,,,2.00000000e-009,-4.40000053e-003
,,,2.02500000e-009,-4.26875053e-003
,,,2.05000000e-009,-4.16250052e-003
,,,2.07500000e-009,-4.07187551e-003
,,,2.10000000e-009,-3.98906301e-003
,,,2.12500000e-009,-3.90781300e-003
,,,2.15000000e-009,-3.82031299e-003
,,,2.17500000e-009,-3.71875049e-003
,,,2.20000000e-009,-3.60000048e-003
,,,2.22500000e-009,-3.49687547e-003
,,,2.25000000e-009,-3.36406296e-003
,,,2.27500000e-009,-3.20468795e-003
,,,2.30000000e-009,-3.03125044e-003
,,,2.32500000e-009,-2.85156293e-003
,,,2.35000000e-009,-2.67968791e-003
,,,2.37500000e-009,-2.52656290e-003
,,,2.40000000e-009,-2.40000039e-003
,,,2.42500000e-009,-2.33750039e-003
,,,2.45000000e-009,-2.29062539e-003
,,,2.47500000e-009,-2.25468788e-003
,,,2.50000000e-009,-2.22343788e-003
,,,2.52500000e-009,-2.18906288e-003
,,,2.55000000e-009,-2.14218788e-003
,,,2.57500000e-009,-2.08125037e-003
,,,2.60000000e-009,-2.00000037e-003
,,,2.62500000e-009,-1.92343786e-003
,,,2.65000000e-009,-1.82031285e-003
,,,2.67500000e-009,-1.70000034e-003
,,,2.70000000e-009,-1.57031283e-003
,,,2.72500000e-009,-1.44375033e-003
,,,2.75000000e-009,-1.33437532e-003
,,,2.77500000e-009,-1.25000031e-003
,,,2.80000000e-009,-1.20000031e-003
,,,2.82500000e-009,-1.21093781e-003
,,,2.85000000e-009,-1.24843781e-003
,,,2.87500000e-009,-1.30781282e-003
,,,2.90000000e-009,-1.38125032e-003
,,,2.92500000e-009,-1.45468783e-003
,,,2.95000000e-009,-1.52187533e-003
,,,2.97500000e-009,-1.57343783e-003
,,,3.00000000e-009,-1.60000034e-003
,,,3.02500000e-009,-1.60625034e-003
,,,3.05000000e-009,-1.58125034e-003
,,,3.07500000e-009,-1.53125033e-003
,,,3.10000000e-009,-1.46250033e-003
,,,3.12500000e-009,-1.38593782e-003
,,,3.15000000e-009,-1.31093782e-003
,,,3.17500000e-009,-1.24687531e-003
,,,3.20000000e-009,-1.20000031e-003
,,,3.22500000e-009,-1.18125031e-003
,,,3.25000000e-009,-1.17968781e-003
,,,3.27500000e-009,-1.19062531e-003
,,,3.30000000e-009,-1.20781281e-003
,,,3.32500000e-009,-1.22343781e-003
,,,3.35000000e-009,-1.23125031e-003
,,,3.37500000e-009,-1.22500031e-003
,,,3.40000000e-009,-1.20000031e-003
,,,3.42500000e-009,-1.15625031e-003
,,,3.45000000e-009,-1.09375030e-003
,,,3.47500000e-009,-1.02031280e-003
,,,3.50000000e-009,-9.43750290e-004
,,,3.52500000e-009,-8.76562786e-004
,,,3.55000000e-009,-8.25000282e-004
,,,3.57500000e-009,-7.98437780e-004
,,,3.60000000e-009,-8.00000280e-004
,,,3.62500000e-009,-8.37500283e-004
,,,3.65000000e-009,-8.98437787e-004
,,,3.67500000e-009,-9.75000293e-004
,,,3.70000000e-009,-1.05468780e-003
,,,3.72500000e-009,-1.12812530e-003
,,,3.75000000e-009,-1.18281281e-003
,,,3.77500000e-009,-1.20937531e-003
,,,3.80000000e-009,-1.20000031e-003
,,,3.82500000e-009,-1.15000030e-003
,,,3.85000000e-009,-1.06406280e-003
,,,3.87500000e-009,-9.51562791e-004
,,,3.90000000e-009,-8.25000282e-004
,,,3.92500000e-009,-6.93750273e-004
,,,3.95000000e-009,-5.73437764e-004
,,,3.97500000e-009,-4.73437757e-004
,,,4.00000000e-009,-4.00000252e-004
,,,4.02500000e-009,-3.64062749e-004
,,,4.05000000e-009,-3.54687749e-004
,,,4.07500000e-009,-3.68750250e-004
,,,4.10000000e-009,-3.92187751e-004
,,,4.12500000e-009,-4.17187753e-004
,,,4.15000000e-009,-4.32812754e-004
,,,4.17500000e-009,-4.28125254e-004
,,,4.20000000e-009,-4.00000252e-004
,,,4.22500000e-009,-3.50000248e-004
,,,4.25000000e-009,-2.76562743e-004
,,,4.27500000e-009,-1.90625237e-004
,,,4.30000000e-009,-1.04687731e-004
,,,4.32500000e-009,-3.28127258e-005
,,,4.35000000e-009,1.56247776e-005
,,,4.37500000e-009,2.81247785e-005
,,,4.40000000e-009,-2.23517416e-010
,,,4.42500000e-009,-7.81252290e-005
,,,4.45000000e-009,-1.89062737e-004
,,,4.47500000e-009,-3.23437746e-004
,,,4.50000000e-009,-4.64062756e-004
,,,4.52500000e-009,-5.96875266e-004
,,,4.55000000e-009,-7.04687773e-004
,,,4.57500000e-009,-7.76562778e-004
,,,4.60000000e-009,-8.00000280e-004
,,,4.62500000e-009,-7.71875278e-004
,,,4.65000000e-009,-6.95312773e-004
,,,4.67500000e-009,-5.82812765e-004
,,,4.70000000e-009,-4.46875255e-004
,,,4.72500000e-009,-3.04687745e-004
,,,4.75000000e-009,-1.75000236e-004
,,,4.77500000e-009,-6.87502284e-005
,,,4.80000000e-009,-2.23517416e-010
,,,4.82500000e-009,1.87497778e-005
,,,4.85000000e-009,-3.12522374e-006
,,,4.87500000e-009,-5.78127276e-005
,,,4.90000000e-009,-1.35937733e-004
,,,4.92500000e-009,-2.21875239e-004
,,,4.95000000e-009,-3.03125245e-004
,,,4.97500000e-009,-3.65625249e-004
,,,5.00000000e-009,-4.00000252e-004
,,,5.02500000e-009,-4.03125252e-004
,,,5.05000000e-009,-3.71875250e-004
,,,5.07500000e-009,-3.14062746e-004
,,,5.10000000e-009,-2.40625241e-004
,,,5.12500000e-009,-1.59375235e-004
,,,5.15000000e-009,-8.59377296e-005
,,,5.17500000e-009,-2.96877256e-005
,,,5.20000000e-009,-2.23517416e-010
,,,5.22500000e-009,-4.68772385e-006
,,,5.25000000e-009,-3.90627263e-005
,,,5.27500000e-009,-9.68752304e-005
,,,5.30000000e-009,-1.70312736e-004
,,,5.32500000e-009,-2.48437741e-004
,,,5.35000000e-009,-3.18750246e-004
,,,5.37500000e-009,-3.71875250e-004
,,,5.40000000e-009,-4.00000252e-004
,,,5.42500000e-009,-3.96875252e-004
,,,5.45000000e-009,-3.65625249e-004
,,,5.47500000e-009,-3.10937746e-004
,,,5.50000000e-009,-2.40625241e-004
,,,5.52500000e-009,-1.64062735e-004
,,,5.55000000e-009,-9.21877300e-005
,,,5.57500000e-009,-3.59377261e-005
,,,5.60000000e-009,-2.23517416e-010
,,,5.62500000e-009,3.12477670e-006
,,,5.65000000e-009,-2.03127250e-005
,,,5.67500000e-009,-6.56252282e-005
,,,5.70000000e-009,-1.29687733e-004
,,,5.72500000e-009,-2.01562738e-004
,,,5.75000000e-009,-2.76562743e-004
,,,5.77500000e-009,-3.45312748e-004
,,,5.80000000e-009,-4.00000252e-004
,,,5.82500000e-009,-4.39062755e-004
,,,5.85000000e-009,-4.59375256e-004
,,,5.87500000e-009,-4.62500256e-004
,,,5.90000000e-009,-4.54687756e-004
,,,5.92500000e-009,-4.40625255e-004
,,,5.95000000e-009,-4.23437753e-004
