RawData/CosmicRays/R6_2pt2D_15mV/wave024_Ch4.csv

"Record Length",1000,"Points",-7.72500000e-009,4.21874806e-004
"Sample Interval",2.50000000e-011,s,-7.70000000e-009,4.35937307e-004
"Trigger Point",309,"Samples",-7.67500000e-009,4.46874808e-004
"Trigger Time",1.81889008e-011,s,-7.65000000e-009,4.51562308e-004
"",,,-7.62500000e-009,4.46874808e-004
"Horizontal Offset",-7.72500000e-009,s,-7.60000000e-009,4.29687307e-004
,,,-7.57500000e-009,3.99999805e-004
,,,-7.55000000e-009,3.57812302e-004
,,,-7.52500000e-009,3.04687298e-004
,,,-7.50000000e-009,2.45312294e-004
,,,-7.47500000e-009,1.82812289e-004
,,,-7.45000000e-009,1.21874785e-004
,,,-7.42500000e-009,6.71872812e-005
,,,-7.40000000e-009,2.49997783e-005
,,,-7.37500000e-009,-2.23517416e-010
,,,-7.35000000e-009,-7.81272407e-006
,,,-7.32500000e-009,4.68727681e-006
,,,-7.30000000e-009,3.90622792e-005
,,,-7.27500000e-009,9.06247829e-005
,,,-7.25000000e-009,1.56249788e-004
,,,-7.22500000e-009,2.34374793e-004
,,,-7.20000000e-009,3.17187299e-004
,,,-7.17500000e-009,3.99999805e-004
,,,-7.15000000e-009,4.73437310e-004
,,,-7.12500000e-009,5.32812314e-004
,,,-7.10000000e-009,5.73437317e-004
,,,-7.07500000e-009,5.90624818e-004
,,,-7.05000000e-009,5.81249818e-004
,,,-7.02500000e-009,5.45312315e-004
,,,-7.00000000e-009,4.82812311e-004
,,,-6.97500000e-009,3.99999805e-004
,,,-6.95000000e-009,2.98437298e-004
,,,-6.92500000e-009,1.92187290e-004
,,,-6.90000000e-009,9.21872830e-005
,,,-6.87500000e-009,7.81227704e-006
,,,-6.85000000e-009,-5.00002271e-005
,,,-6.82500000e-009,-7.34377287e-005
,,,-6.80000000e-009,-5.78127276e-005
,,,-6.77500000e-009,-2.23517416e-010
,,,-6.75000000e-009,9.53122832e-005
,,,-6.72500000e-009,2.17187292e-004
,,,-6.70000000e-009,3.54687302e-004
,,,-6.67500000e-009,4.95312312e-004
,,,-6.65000000e-009,6.21874820e-004
,,,-6.62500000e-009,7.20312327e-004
,,,-6.60000000e-009,7.82812332e-004
,,,-6.57500000e-009,7.99999833e-004
,,,-6.55000000e-009,7.64062331e-004
,,,-6.52500000e-009,6.84374825e-004
,,,-6.50000000e-009,5.71874817e-004
,,,-6.47500000e-009,4.40624808e-004
,,,-6.45000000e-009,3.03124798e-004
,,,-6.42500000e-009,1.74999789e-004
,,,-6.40000000e-009,7.03122815e-005
,,,-6.37500000e-009,-2.23517416e-010
,,,-6.35000000e-009,-2.96877256e-005
,,,-6.32500000e-009,-1.71877247e-005
,,,-6.30000000e-009,2.96872786e-005
,,,-6.27500000e-009,1.01562284e-004
,,,-6.25000000e-009,1.87499790e-004
,,,-6.22500000e-009,2.73437296e-004
,,,-6.20000000e-009,3.46874801e-004
,,,-6.17500000e-009,3.99999805e-004
,,,-6.15000000e-009,4.18749806e-004
,,,-6.12500000e-009,4.07812305e-004
,,,-6.10000000e-009,3.67187302e-004
,,,-6.07500000e-009,3.03124798e-004
,,,-6.05000000e-009,2.24999792e-004
,,,-6.02500000e-009,1.42187287e-004
,,,-6.00000000e-009,6.40622810e-005
,,,-5.97500000e-009,-2.23517416e-010
,,,-5.95000000e-009,-4.68752268e-005
,,,-5.92500000e-009,-7.18752286e-005
,,,-5.90000000e-009,-7.81252290e-005
,,,-5.87500000e-009,-7.03127285e-005
,,,-5.85000000e-009,-5.31252273e-005
,,,-5.82500000e-009,-3.12502257e-005
,,,-5.80000000e-009,-1.25002244e-005
,,,-5.77500000e-009,-2.23517416e-010
,,,-5.75000000e-009,3.12477670e-006
,,,-5.72500000e-009,-1.56272363e-006
,,,-5.70000000e-009,-1.40627245e-005
,,,-5.67500000e-009,-2.65627254e-005
,,,-5.65000000e-009,-3.59377261e-005
,,,-5.62500000e-009,-3.75002262e-005
,,,-5.60000000e-009,-2.65627254e-005
,,,-5.57500000e-009,-2.23517416e-010
,,,-5.55000000e-009,4.53122797e-005
,,,-5.52500000e-009,1.04687284e-004
,,,-5.50000000e-009,1.70312289e-004
,,,-5.47500000e-009,2.39062293e-004
,,,-5.45000000e-009,3.01562298e-004
,,,-5.42500000e-009,3.51562301e-004
,,,-5.40000000e-009,3.85937304e-004
,,,-5.37500000e-009,3.99999805e-004
,,,-5.35000000e-009,3.85937304e-004
,,,-5.32500000e-009,3.51562301e-004
,,,-5.30000000e-009,3.01562298e-004
,,,-5.27500000e-009,2.39062293e-004
,,,-5.25000000e-009,1.70312289e-004
,,,-5.22500000e-009,1.04687284e-004
,,,-5.20000000e-009,4.53122797e-005
,,,-5.17500000e-009,-2.23517416e-010
,,,-5.15000000e-009,-3.12502257e-005
,,,-5.12500000e-009,-4.53127267e-005
,,,-5.10000000e-009,-4.68752268e-005
,,,-5.07500000e-009,-4.06252264e-005
,,,-5.05000000e-009,-2.65627254e-005
,,,-5.02500000e-009,-1.40627245e-005
,,,-5.00000000e-009,-4.68772385e-006
,,,-4.97500000e-009,-2.23517416e-010
,,,-4.95000000e-009,-4.68772385e-006
,,,-4.92500000e-009,-1.40627245e-005
,,,-4.90000000e-009,-2.65627254e-005
,,,-4.87500000e-009,-4.06252264e-005
,,,-4.85000000e-009,-4.68752268e-005
,,,-4.82500000e-009,-4.53127267e-005
,,,-4.80000000e-009,-3.12502257e-005
,,,-4.77500000e-009,-2.23517416e-010
,,,-4.75000000e-009,4.37497796e-005
,,,-4.72500000e-009,9.99997836e-005
,,,-4.70000000e-009,1.65624788e-004
,,,-4.67500000e-009,2.31249793e-004
,,,-4.65000000e-009,2.93749797e-004
,,,-4.62500000e-009,3.46874801e-004
,,,-4.60000000e-009,3.82812304e-004
,,,-4.57500000e-009,3.99999805e-004
,,,-4.55000000e-009,3.92187304e-004
,,,-4.52500000e-009,3.65624802e-004
,,,-4.50000000e-009,3.20312299e-004
,,,-4.47500000e-009,2.60937295e-004
,,,-4.45000000e-009,1.93749790e-004
,,,-4.42500000e-009,1.23437285e-004
,,,-4.40000000e-009,5.78122806e-005
,,,-4.37500000e-009,-2.23517416e-010
,,,-4.35000000e-009,-4.21877265e-005
,,,-4.32500000e-009,-7.03127285e-005
,,,-4.30000000e-009,-8.28127294e-005
,,,-4.27500000e-009,-8.12502293e-005
,,,-4.25000000e-009,-6.87502284e-005
,,,-4.22500000e-009,-4.84377269e-005
,,,-4.20000000e-009,-2.50002253e-005
,,,-4.17500000e-009,-2.23517416e-010
,,,-4.15000000e-009,2.34372781e-005
,,,-4.12500000e-009,4.06247794e-005
,,,-4.10000000e-009,5.31247802e-005
,,,-4.07500000e-009,5.62497805e-005
,,,-4.05000000e-009,5.15622801e-005
,,,-4.02500000e-009,3.90622792e-005
,,,-4.00000000e-009,2.03122779e-005
,,,-3.97500000e-009,-2.23517416e-010
,,,-3.95000000e-009,-2.18752251e-005
,,,-3.92500000e-009,-4.06252264e-005
,,,-3.90000000e-009,-5.62502275e-005
,,,-3.87500000e-009,-6.40627281e-005
,,,-3.85000000e-009,-6.40627281e-005
,,,-3.82500000e-009,-5.31252273e-005
,,,-3.80000000e-009,-3.28127258e-005
,,,-3.77500000e-009,-2.23517416e-010
,,,-3.75000000e-009,4.21872795e-005
,,,-3.72500000e-009,9.21872830e-005
,,,-3.70000000e-009,1.48437287e-004
,,,-3.67500000e-009,2.06249791e-004
,,,-3.65000000e-009,2.62499795e-004
,,,-3.62500000e-009,3.15624799e-004
,,,-3.60000000e-009,3.62499802e-004
,,,-3.57500000e-009,3.99999805e-004
,,,-3.55000000e-009,4.28124807e-004
,,,-3.52500000e-009,4.46874808e-004
,,,-3.50000000e-009,4.54687309e-004
,,,-3.47500000e-009,4.53124809e-004
,,,-3.45000000e-009,4.45312308e-004
,,,-3.42500000e-009,4.32812307e-004
,,,-3.40000000e-009,4.15624806e-004
,,,-3.37500000e-009,3.99999805e-004
,,,-3.35000000e-009,3.82812304e-004
,,,-3.32500000e-009,3.70312303e-004
,,,-3.30000000e-009,3.62499802e-004
,,,-3.27500000e-009,3.59374802e-004
,,,-3.25000000e-009,3.64062302e-004
,,,-3.22500000e-009,3.71874803e-004
,,,-3.20000000e-009,3.84374804e-004
,,,-3.17500000e-009,3.99999805e-004
,,,-3.15000000e-009,4.14062306e-004
,,,-3.12500000e-009,4.29687307e-004
,,,-3.10000000e-009,4.40624808e-004
,,,-3.07500000e-009,4.46874808e-004
,,,-3.05000000e-009,4.46874808e-004
,,,-3.02500000e-009,4.37499807e-004
,,,-3.00000000e-009,4.21874806e-004
,,,-2.97500000e-009,3.99999805e-004
,,,-2.95000000e-009,3.73437303e-004
,,,-2.92500000e-009,3.46874801e-004
,,,-2.90000000e-009,3.24999799e-004
,,,-2.87500000e-009,3.12499799e-004
,,,-2.85000000e-009,3.10937298e-004
,,,-2.82500000e-009,3.23437299e-004
,,,-2.80000000e-009,3.53124801e-004
,,,-2.77500000e-009,3.99999805e-004
,,,-2.75000000e-009,4.56249809e-004
,,,-2.72500000e-009,5.23437314e-004
,,,-2.70000000e-009,5.95312319e-004
,,,-2.67500000e-009,6.64062323e-004
,,,-2.65000000e-009,7.24999828e-004
,,,-2.62500000e-009,7.70312331e-004
,,,-2.60000000e-009,7.95312333e-004
,,,-2.57500000e-009,7.99999833e-004
,,,-2.55000000e-009,7.76562331e-004
,,,-2.52500000e-009,7.32812328e-004
,,,-2.50000000e-009,6.74999824e-004
,,,-2.47500000e-009,6.07812320e-004
,,,-2.45000000e-009,5.39062315e-004
,,,-2.42500000e-009,4.78124810e-004
,,,-2.40000000e-009,4.29687307e-004
,,,-2.37500000e-009,3.99999805e-004
,,,-2.35000000e-009,3.92187304e-004
,,,-2.32500000e-009,4.07812305e-004
,,,-2.30000000e-009,4.46874808e-004
,,,-2.27500000e-009,5.03124812e-004
,,,-2.25000000e-009,5.73437317e-004
,,,-2.22500000e-009,6.49999822e-004
,,,-2.20000000e-009,7.26562328e-004
,,,-2.17500000e-009,7.99999833e-004
,,,-2.15000000e-009,8.54687337e-004
,,,-2.12500000e-009,8.93749840e-004
,,,-2.10000000e-009,9.15624841e-004
,,,-2.07500000e-009,9.20312342e-004
,,,-2.05000000e-009,9.09374841e-004
,,,-2.02500000e-009,8.82812339e-004
,,,-2.00000000e-009,8.45312336e-004
,,,-1.97500000e-009,7.99999833e-004
,,,-1.95000000e-009,7.39062329e-004
,,,-1.92500000e-009,6.74999824e-004
,,,-1.90000000e-009,6.12499820e-004
,,,-1.87500000e-009,5.54687316e-004
,,,-1.85000000e-009,5.03124812e-004
,,,-1.82500000e-009,4.59374809e-004
,,,-1.80000000e-009,4.24999807e-004
,,,-1.77500000e-009,3.99999805e-004
,,,-1.75000000e-009,3.71874803e-004
,,,-1.72500000e-009,3.53124801e-004
,,,-1.70000000e-009,3.42187301e-004
,,,-1.67500000e-009,3.39062300e-004
,,,-1.65000000e-009,3.43749801e-004
,,,-1.62500000e-009,3.56249802e-004
,,,-1.60000000e-009,3.74999803e-004
,,,-1.57500000e-009,3.99999805e-004
,,,-1.55000000e-009,4.03124805e-004
,,,-1.52500000e-009,4.04687305e-004
,,,-1.50000000e-009,4.03124805e-004
,,,-1.47500000e-009,4.01562305e-004
,,,-1.45000000e-009,3.98437305e-004
,,,-1.42500000e-009,3.96874805e-004
,,,-1.40000000e-009,3.98437305e-004
,,,-1.37500000e-009,3.99999805e-004
,,,-1.35000000e-009,3.62499802e-004
,,,-1.32500000e-009,3.18749799e-004
,,,-1.30000000e-009,2.70312296e-004
,,,-1.27500000e-009,2.17187292e-004
,,,-1.25000000e-009,1.62499788e-004
,,,-1.22500000e-009,1.07812284e-004
,,,-1.20000000e-009,5.31247802e-005
,,,-1.17500000e-009,-2.23517416e-010
,,,-1.15000000e-009,-1.06250231e-004
,,,-1.12500000e-009,-2.20312739e-004
,,,-1.10000000e-009,-3.37500247e-004
,,,-1.07500000e-009,-4.51562755e-004
,,,-1.05000000e-009,-5.57812763e-004
,,,-1.02500000e-009,-6.51562770e-004
,,,-1.00000000e-009,-7.32812775e-004
,,,-9.75000000e-010,-8.00000280e-004
,,,-9.50000000e-010,-9.28125289e-004
,,,-9.25000000e-010,-1.06250030e-003
,,,-9.00000000e-010,-1.20312531e-003
,,,-8.75000000e-010,-1.35156282e-003
,,,-8.50000000e-010,-1.50312533e-003
,,,-8.25000000e-010,-1.66250034e-003
,,,-8.00000000e-010,-1.82656285e-003
,,,-7.75000000e-010,-2.00000037e-003
,,,-7.50000000e-010,-2.26093788e-003
,,,-7.25000000e-010,-2.54687540e-003
,,,-7.00000000e-010,-2.85312543e-003
,,,-6.75000000e-010,-3.17031295e-003
,,,-6.50000000e-010,-3.48906297e-003
,,,-6.25000000e-010,-3.80468799e-003
,,,-6.00000000e-010,-4.10781301e-003
,,,-5.75000000e-010,-4.40000053e-003
,,,-5.50000000e-010,-4.74843806e-003
,,,-5.25000000e-010,-5.10000058e-003
,,,-5.00000000e-010,-5.45468811e-003
,,,-4.75000000e-010,-5.80781313e-003
,,,-4.50000000e-010,-6.15781316e-003
,,,-4.25000000e-010,-6.50625068e-003
,,,-4.00000000e-010,-6.85156321e-003
,,,-3.75000000e-010,-7.20000073e-003
,,,-3.50000000e-010,-7.61250076e-003
,,,-3.25000000e-010,-8.05468829e-003
,,,-3.00000000e-010,-8.52812583e-003
,,,-2.75000000e-010,-9.02812586e-003
,,,-2.50000000e-010,-9.55000090e-003
,,,-2.25000000e-010,-1.00890634e-002
,,,-2.00000000e-010,-1.06406260e-002
,,,-1.75000000e-010,-1.12000010e-002
,,,-1.50000000e-010,-1.17890636e-002
,,,-1.25000000e-010,-1.23968761e-002
,,,-1.00000000e-010,-1.30171886e-002
,,,-7.50000000e-011,-1.36421887e-002
,,,-5.00000000e-011,-1.42609387e-002
,,,-2.50000000e-011,-1.48640638e-002
,,,0.00000000e+000,-1.54468763e-002
,,,2.50000000e-011,-1.60000014e-002
,,,5.00000000e-011,-1.65046889e-002
,,,7.50000000e-011,-1.69937514e-002
,,,1.00000000e-010,-1.74703140e-002
,,,1.25000000e-010,-1.79312515e-002
,,,1.50000000e-010,-1.83765640e-002
,,,1.75000000e-010,-1.88031266e-002
,,,2.00000000e-010,-1.92109391e-002
,,,2.25000000e-010,-1.96000016e-002
,,,2.50000000e-010,-1.99203141e-002
,,,2.75000000e-010,-2.02453142e-002
,,,3.00000000e-010,-2.05828142e-002
,,,3.25000000e-010,-2.09312517e-002
,,,3.50000000e-010,-2.12906267e-002
,,,3.75000000e-010,-2.16578143e-002
,,,4.00000000e-010,-2.20296893e-002
,,,4.25000000e-010,-2.24000018e-002
,,,4.50000000e-010,-2.26859393e-002
,,,4.75000000e-010,-2.29812519e-002
,,,5.00000000e-010,-2.32843769e-002
,,,5.25000000e-010,-2.35953144e-002
,,,5.50000000e-010,-2.39093769e-002
,,,5.75000000e-010,-2.42187519e-002
,,,6.00000000e-010,-2.45187520e-002
,,,6.25000000e-010,-2.48000020e-002
,,,6.50000000e-010,-2.49562520e-002
,,,6.75000000e-010,-2.50953145e-002
,,,7.00000000e-010,-2.52203145e-002
,,,7.25000000e-010,-2.53312520e-002
,,,7.50000000e-010,-2.54281270e-002
,,,7.75000000e-010,-2.55078145e-002
,,,8.00000000e-010,-2.55656270e-002
,,,8.25000000e-010,-2.56000020e-002
,,,8.50000000e-010,-2.55000020e-002
,,,8.75000000e-010,-2.53859395e-002
,,,9.00000000e-010,-2.52687520e-002
,,,9.25000000e-010,-2.51562520e-002
,,,9.50000000e-010,-2.50515645e-002
,,,9.75000000e-010,-2.49578145e-002
,,,1.00000000e-009,-2.48765645e-002
,,,1.02500000e-009,-2.48000020e-002
,,,1.05000000e-009,-2.46281270e-002
,,,1.07500000e-009,-2.44531270e-002
,,,1.10000000e-009,-2.42734394e-002
,,,1.12500000e-009,-2.40875019e-002
,,,1.15000000e-009,-2.38921894e-002
,,,1.17500000e-009,-2.36812519e-002
,,,1.20000000e-009,-2.34515644e-002
,,,1.22500000e-009,-2.32000019e-002
,,,1.25000000e-009,-2.28437518e-002
,,,1.27500000e-009,-2.24640643e-002
,,,1.30000000e-009,-2.20765643e-002
,,,1.32500000e-009,-2.16921893e-002
,,,1.35000000e-009,-2.13234392e-002
,,,1.37500000e-009,-2.09828142e-002
,,,1.40000000e-009,-2.06734392e-002
,,,1.42500000e-009,-2.04000017e-002
,,,1.45000000e-009,-2.01031266e-002
,,,1.47500000e-009,-1.98203141e-002
,,,1.50000000e-009,-1.95468766e-002
,,,1.52500000e-009,-1.92734391e-002
,,,1.55000000e-009,-1.89906266e-002
,,,1.57500000e-009,-1.86906265e-002
,,,1.60000000e-009,-1.83625015e-002
,,,1.62500000e-009,-1.80000015e-002
,,,1.65000000e-009,-1.75671890e-002
,,,1.67500000e-009,-1.70859389e-002
,,,1.70000000e-009,-1.65671889e-002
,,,1.72500000e-009,-1.60281264e-002
,,,1.75000000e-009,-1.54859388e-002
,,,1.77500000e-009,-1.49578138e-002
,,,1.80000000e-009,-1.44593762e-002
,,,1.82500000e-009,-1.40000012e-002
,,,1.85000000e-009,-1.35875012e-002
,,,1.87500000e-009,-1.32031262e-002
,,,1.90000000e-009,-1.28421886e-002
,,,1.92500000e-009,-1.25015636e-002
,,,1.95000000e-009,-1.21750011e-002
,,,1.97500000e-009,-1.18515636e-002
,,,2.00000000e-009,-1.15296885e-002
,,,2.02500000e-009,-1.12000010e-002
,,,2.05000000e-009,-1.08765635e-002
,,,2.07500000e-009,-1.05265635e-002
,,,2.10000000e-009,-1.01546884e-002
,,,2.12500000e-009,-9.77187592e-003
,,,2.15000000e-009,-9.39062589e-003
,,,2.17500000e-009,-9.02812586e-003
,,,2.20000000e-009,-8.69531334e-003
,,,2.22500000e-009,-8.40000082e-003
,,,2.25000000e-009,-8.17812580e-003
,,,2.27500000e-009,-7.97343829e-003
,,,2.30000000e-009,-7.78437577e-003
,,,2.32500000e-009,-7.60000076e-003
,,,2.35000000e-009,-7.41562575e-003
,,,2.37500000e-009,-7.22343823e-003
,,,2.40000000e-009,-7.02031322e-003
,,,2.42500000e-009,-6.80000070e-003
,,,2.45000000e-009,-6.59531319e-003
,,,2.47500000e-009,-6.35625067e-003
,,,2.50000000e-009,-6.09218815e-003
,,,2.52500000e-009,-5.81250063e-003
,,,2.55000000e-009,-5.52968811e-003
,,,2.57500000e-009,-5.25781310e-003
,,,2.60000000e-009,-5.01250058e-003
,,,2.62500000e-009,-4.80000056e-003
,,,2.65000000e-009,-4.66406305e-003
,,,2.67500000e-009,-4.55156305e-003
,,,2.70000000e-009,-4.45468804e-003
,,,2.72500000e-009,-4.36718803e-003
,,,2.75000000e-009,-4.28437553e-003
,,,2.77500000e-009,-4.20000052e-003
,,,2.80000000e-009,-4.10625051e-003
,,,2.82500000e-009,-4.00000051e-003
,,,2.85000000e-009,-3.90781300e-003
,,,2.87500000e-009,-3.78593799e-003
,,,2.90000000e-009,-3.63906298e-003
,,,2.92500000e-009,-3.47187547e-003
,,,2.95000000e-009,-3.29375046e-003
,,,2.97500000e-009,-3.11718794e-003
,,,3.00000000e-009,-2.95000043e-003
,,,3.02500000e-009,-2.80000042e-003
,,,3.05000000e-009,-2.70000041e-003
,,,3.07500000e-009,-2.61718791e-003
,,,3.10000000e-009,-2.55156290e-003
,,,3.12500000e-009,-2.50000040e-003
,,,3.15000000e-009,-2.46250040e-003
,,,3.17500000e-009,-2.43593790e-003
,,,3.20000000e-009,-2.41718789e-003
,,,3.22500000e-009,-2.40000039e-003
,,,3.25000000e-009,-2.39843789e-003
,,,3.27500000e-009,-2.38437539e-003
,,,3.30000000e-009,-2.35312539e-003
,,,3.32500000e-009,-2.30625039e-003
,,,3.35000000e-009,-2.24531288e-003
,,,3.37500000e-009,-2.17031288e-003
,,,3.40000000e-009,-2.08750037e-003
,,,3.42500000e-009,-2.00000037e-003
,,,3.45000000e-009,-1.92500036e-003
,,,3.47500000e-009,-1.84843785e-003
,,,3.50000000e-009,-1.77500035e-003
,,,3.52500000e-009,-1.71093784e-003
,,,3.55000000e-009,-1.65781284e-003
,,,3.57500000e-009,-1.62031284e-003
,,,3.60000000e-009,-1.60156284e-003
,,,3.62500000e-009,-1.60000034e-003
,,,3.65000000e-009,-1.62187534e-003
,,,3.67500000e-009,-1.64843784e-003
,,,3.70000000e-009,-1.67343784e-003
,,,3.72500000e-009,-1.69218784e-003
,,,3.75000000e-009,-1.70000034e-003
,,,3.77500000e-009,-1.68906284e-003
,,,3.80000000e-009,-1.65625034e-003
,,,3.82500000e-009,-1.60000034e-003
,,,3.85000000e-009,-1.52656283e-003
,,,3.87500000e-009,-1.43125032e-003
,,,3.90000000e-009,-1.31875032e-003
,,,3.92500000e-009,-1.19843781e-003
,,,3.95000000e-009,-1.07968780e-003
,,,3.97500000e-009,-9.68750292e-004
,,,4.00000000e-009,-8.73437785e-004
,,,4.02500000e-009,-8.00000280e-004
,,,4.05000000e-009,-7.54687777e-004
,,,4.07500000e-009,-7.32812775e-004
,,,4.10000000e-009,-7.28125275e-004
,,,4.12500000e-009,-7.37500276e-004
,,,4.15000000e-009,-7.56250277e-004
,,,4.17500000e-009,-7.76562778e-004
,,,4.20000000e-009,-7.93750280e-004
,,,4.22500000e-009,-8.00000280e-004
,,,4.25000000e-009,-7.96875280e-004
,,,4.27500000e-009,-7.75000278e-004
,,,4.30000000e-009,-7.34375275e-004
,,,4.32500000e-009,-6.79687772e-004
,,,4.35000000e-009,-6.12500267e-004
,,,4.37500000e-009,-5.40625262e-004
,,,4.40000000e-009,-4.68750257e-004
,,,4.42500000e-009,-4.00000252e-004
,,,4.45000000e-009,-3.48437748e-004
,,,4.47500000e-009,-3.09375245e-004
,,,4.50000000e-009,-2.85937744e-004
,,,4.52500000e-009,-2.79687743e-004
,,,4.55000000e-009,-2.89062744e-004
,,,4.57500000e-009,-3.15625246e-004
,,,4.60000000e-009,-3.53125249e-004
,,,4.62500000e-009,-4.00000252e-004
,,,4.65000000e-009,-4.53125256e-004
,,,4.67500000e-009,-5.01562759e-004
,,,4.70000000e-009,-5.37500262e-004
,,,4.72500000e-009,-5.57812763e-004
,,,4.75000000e-009,-5.56250263e-004
,,,4.77500000e-009,-5.29687761e-004
,,,4.80000000e-009,-4.78125257e-004
,,,4.82500000e-009,-4.00000252e-004
,,,4.85000000e-009,-3.04687745e-004
,,,4.87500000e-009,-1.92187737e-004
,,,4.90000000e-009,-6.87502284e-005
,,,4.92500000e-009,5.46872804e-005
,,,4.95000000e-009,1.71874789e-004
,,,4.97500000e-009,2.73437296e-004
,,,5.00000000e-009,3.49999801e-004
,,,5.02500000e-009,3.99999805e-004
,,,5.05000000e-009,4.09374805e-004
,,,5.07500000e-009,3.89062304e-004
,,,5.10000000e-009,3.43749801e-004
,,,5.12500000e-009,2.81249796e-004
,,,5.15000000e-009,2.07812291e-004
,,,5.17500000e-009,1.31249786e-004
,,,5.20000000e-009,5.93747807e-005
,,,5.22500000e-009,-2.23517416e-010
,,,5.25000000e-009,-5.15627272e-005
,,,5.27500000e-009,-8.43752295e-005
,,,5.30000000e-009,-9.84377305e-005
,,,5.32500000e-009,-9.53127303e-005
,,,5.35000000e-009,-7.96877292e-005
,,,5.37500000e-009,-5.46877274e-005
,,,5.40000000e-009,-2.65627254e-005
,,,5.42500000e-009,-2.23517416e-010
,,,5.45000000e-009,1.56247776e-005
,,,5.47500000e-009,2.49997783e-005
,,,5.50000000e-009,2.81247785e-005
,,,5.52500000e-009,2.49997783e-005
,,,5.55000000e-009,1.71872777e-005
,,,5.57500000e-009,9.37477715e-006
,,,5.60000000e-009,3.12477670e-006
,,,5.62500000e-009,-2.23517416e-010
,,,5.65000000e-009,-6.25022396e-006
,,,5.67500000e-009,-6.25022396e-006
,,,5.70000000e-009,-4.68772385e-006
,,,5.72500000e-009,1.56227659e-006
,,,5.75000000e-009,6.24977692e-006
,,,5.77500000e-009,9.37477715e-006
,,,5.80000000e-009,7.81227704e-006
,,,5.82500000e-009,-2.23517416e-010
,,,5.85000000e-009,-2.34377252e-005
,,,5.87500000e-009,-5.46877274e-005
,,,5.90000000e-009,-9.68752304e-005
,,,5.92500000e-009,-1.46875234e-004
,,,5.95000000e-009,-2.03125238e-004
