RawData/SinglePhotoelectron/L4_12pt5foot_5mV/wave015_Ch3.csv

"Record Length",1000,"Points",-7.72500000e-009,-7.50001450e-005
"Sample Interval",2.50000000e-011,s,-7.70000000e-009,-3.43751421e-005
"Trigger Point",309,"Samples",-7.67500000e-009,1.95311117e-005
"Trigger Time",1.91473684e-012,s,-7.65000000e-009,8.12498661e-005
"",,,-7.62500000e-009,1.46093621e-004
"Horizontal Offset",-7.72500000e-009,s,-7.60000000e-009,2.07812375e-004
,,,-7.57500000e-009,2.60937379e-004
,,,-7.55000000e-009,2.99999882e-004
,,,-7.52500000e-009,3.17968633e-004
,,,-7.50000000e-009,3.18749883e-004
,,,-7.47500000e-009,3.03124882e-004
,,,-7.45000000e-009,2.74218630e-004
,,,-7.42500000e-009,2.34374877e-004
,,,-7.40000000e-009,1.89843624e-004
,,,-7.37500000e-009,1.43749870e-004
,,,-7.35000000e-009,9.99998674e-005
,,,-7.32500000e-009,6.09373646e-005
,,,-7.30000000e-009,3.12498625e-005
,,,-7.27500000e-009,1.40623613e-005
,,,-7.25000000e-009,1.01561110e-005
,,,-7.22500000e-009,1.79686116e-005
,,,-7.20000000e-009,3.67186129e-005
,,,-7.17500000e-009,6.48436149e-005
,,,-7.15000000e-009,9.99998674e-005
,,,-7.12500000e-009,1.37499870e-004
,,,-7.10000000e-009,1.75781123e-004
,,,-7.07500000e-009,2.11718625e-004
,,,-7.05000000e-009,2.43749878e-004
,,,-7.02500000e-009,2.69531129e-004
,,,-7.00000000e-009,2.88281131e-004
,,,-6.97500000e-009,2.99218631e-004
,,,-6.95000000e-009,2.99999882e-004
,,,-6.92500000e-009,2.90624881e-004
,,,-6.90000000e-009,2.72656130e-004
,,,-6.87500000e-009,2.49218628e-004
,,,-6.85000000e-009,2.21093626e-004
,,,-6.82500000e-009,1.89843624e-004
,,,-6.80000000e-009,1.59374872e-004
,,,-6.77500000e-009,1.28906119e-004
,,,-6.75000000e-009,9.99998674e-005
,,,-6.72500000e-009,7.26561154e-005
,,,-6.70000000e-009,4.84373637e-005
,,,-6.67500000e-009,2.57811121e-005
,,,-6.65000000e-009,3.90611058e-006
,,,-6.62500000e-009,-1.87501410e-005
,,,-6.60000000e-009,-4.21876427e-005
,,,-6.57500000e-009,-6.95313946e-005
,,,-6.55000000e-009,-1.00000147e-004
,,,-6.52500000e-009,-1.30468899e-004
,,,-6.50000000e-009,-1.62500151e-004
,,,-6.47500000e-009,-1.96093904e-004
,,,-6.45000000e-009,-2.27343906e-004
,,,-6.42500000e-009,-2.56250158e-004
,,,-6.40000000e-009,-2.78906409e-004
,,,-6.37500000e-009,-2.93750160e-004
,,,-6.35000000e-009,-3.00000161e-004
,,,-6.32500000e-009,-2.93750160e-004
,,,-6.30000000e-009,-2.78125159e-004
,,,-6.27500000e-009,-2.55468908e-004
,,,-6.25000000e-009,-2.26562656e-004
,,,-6.22500000e-009,-1.94531403e-004
,,,-6.20000000e-009,-1.60937651e-004
,,,-6.17500000e-009,-1.28125149e-004
,,,-6.15000000e-009,-1.00000147e-004
,,,-6.12500000e-009,-7.65626451e-005
,,,-6.10000000e-009,-6.09376440e-005
,,,-6.07500000e-009,-5.23438934e-005
,,,-6.05000000e-009,-5.15626433e-005
,,,-6.02500000e-009,-5.78126438e-005
,,,-6.00000000e-009,-6.87501446e-005
,,,-5.97500000e-009,-8.35938956e-005
,,,-5.95000000e-009,-1.00000147e-004
,,,-5.92500000e-009,-1.15625148e-004
,,,-5.90000000e-009,-1.30468899e-004
,,,-5.87500000e-009,-1.41406400e-004
,,,-5.85000000e-009,-1.47656400e-004
,,,-5.82500000e-009,-1.46875150e-004
,,,-5.80000000e-009,-1.38281399e-004
,,,-5.77500000e-009,-1.22656398e-004
,,,-5.75000000e-009,-1.00000147e-004
,,,-5.72500000e-009,-7.10938947e-005
,,,-5.70000000e-009,-3.82813924e-005
,,,-5.67500000e-009,-4.68764003e-006
,,,-5.65000000e-009,2.73436122e-005
,,,-5.62500000e-009,5.62498643e-005
,,,-5.60000000e-009,7.89061159e-005
,,,-5.57500000e-009,9.45311170e-005
,,,-5.55000000e-009,9.99998674e-005
,,,-5.52500000e-009,9.37498669e-005
,,,-5.50000000e-009,7.73436158e-005
,,,-5.47500000e-009,5.39061141e-005
,,,-5.45000000e-009,2.49998621e-005
,,,-5.42500000e-009,-7.03139020e-006
,,,-5.40000000e-009,-3.98438925e-005
,,,-5.37500000e-009,-7.10938947e-005
,,,-5.35000000e-009,-1.00000147e-004
,,,-5.32500000e-009,-1.26562649e-004
,,,-5.30000000e-009,-1.50000150e-004
,,,-5.27500000e-009,-1.71875152e-004
,,,-5.25000000e-009,-1.92187653e-004
,,,-5.22500000e-009,-2.13281405e-004
,,,-5.20000000e-009,-2.37500157e-004
,,,-5.17500000e-009,-2.66406409e-004
,,,-5.15000000e-009,-3.00000161e-004
,,,-5.12500000e-009,-3.35156413e-004
,,,-5.10000000e-009,-3.72656416e-004
,,,-5.07500000e-009,-4.09375169e-004
,,,-5.05000000e-009,-4.43750171e-004
,,,-5.02500000e-009,-4.72656423e-004
,,,-5.00000000e-009,-4.92187675e-004
,,,-4.97500000e-009,-5.01562675e-004
,,,-4.95000000e-009,-5.00000175e-004
,,,-4.92500000e-009,-4.81250174e-004
,,,-4.90000000e-009,-4.53906422e-004
,,,-4.87500000e-009,-4.20312669e-004
,,,-4.85000000e-009,-3.84375167e-004
,,,-4.82500000e-009,-3.50000164e-004
,,,-4.80000000e-009,-3.22656413e-004
,,,-4.77500000e-009,-3.05468911e-004
,,,-4.75000000e-009,-3.00000161e-004
,,,-4.72500000e-009,-3.05468911e-004
,,,-4.70000000e-009,-3.22656413e-004
,,,-4.67500000e-009,-3.50000164e-004
,,,-4.65000000e-009,-3.84375167e-004
,,,-4.62500000e-009,-4.20312669e-004
,,,-4.60000000e-009,-4.53906422e-004
,,,-4.57500000e-009,-4.81250174e-004
,,,-4.55000000e-009,-5.00000175e-004
,,,-4.52500000e-009,-5.00781425e-004
,,,-4.50000000e-009,-4.90625174e-004
,,,-4.47500000e-009,-4.69531423e-004
,,,-4.45000000e-009,-4.40625171e-004
,,,-4.42500000e-009,-4.06250168e-004
,,,-4.40000000e-009,-3.69531416e-004
,,,-4.37500000e-009,-3.32812663e-004
,,,-4.35000000e-009,-3.00000161e-004
,,,-4.32500000e-009,-2.67968909e-004
,,,-4.30000000e-009,-2.40625157e-004
,,,-4.27500000e-009,-2.17187655e-004
,,,-4.25000000e-009,-1.96093904e-004
,,,-4.22500000e-009,-1.75781402e-004
,,,-4.20000000e-009,-1.53906401e-004
,,,-4.17500000e-009,-1.28906399e-004
,,,-4.15000000e-009,-1.00000147e-004
,,,-4.12500000e-009,-6.56251443e-005
,,,-4.10000000e-009,-2.89063917e-005
,,,-4.07500000e-009,8.59361091e-006
,,,-4.05000000e-009,4.37498634e-005
,,,-4.02500000e-009,7.34373655e-005
,,,-4.00000000e-009,9.37498669e-005
,,,-3.97500000e-009,1.03124868e-004
,,,-3.95000000e-009,9.99998674e-005
,,,-3.92500000e-009,8.28123662e-005
,,,-3.90000000e-009,5.62498643e-005
,,,-3.87500000e-009,2.34373620e-005
,,,-3.85000000e-009,-1.17188905e-005
,,,-3.82500000e-009,-4.53126429e-005
,,,-3.80000000e-009,-7.34376449e-005
,,,-3.77500000e-009,-9.21876462e-005
,,,-3.75000000e-009,-1.00000147e-004
,,,-3.72500000e-009,-9.45313964e-005
,,,-3.70000000e-009,-7.73438952e-005
,,,-3.67500000e-009,-5.15626433e-005
,,,-3.65000000e-009,-1.87501410e-005
,,,-3.62500000e-009,1.71873615e-005
,,,-3.60000000e-009,5.07811139e-005
,,,-3.57500000e-009,7.89061159e-005
,,,-3.55000000e-009,9.99998674e-005
,,,-3.52500000e-009,1.10156118e-004
,,,-3.50000000e-009,1.12499868e-004
,,,-3.47500000e-009,1.08593618e-004
,,,-3.45000000e-009,1.01562367e-004
,,,-3.42500000e-009,9.37498669e-005
,,,-3.40000000e-009,8.98436167e-005
,,,-3.37500000e-009,9.14061168e-005
,,,-3.35000000e-009,9.99998674e-005
,,,-3.32500000e-009,1.16406119e-004
,,,-3.30000000e-009,1.40624870e-004
,,,-3.27500000e-009,1.71093622e-004
,,,-3.25000000e-009,2.04687375e-004
,,,-3.22500000e-009,2.37499877e-004
,,,-3.20000000e-009,2.67187379e-004
,,,-3.17500000e-009,2.88281131e-004
,,,-3.15000000e-009,2.99999882e-004
,,,-3.12500000e-009,2.99218631e-004
,,,-3.10000000e-009,2.86718631e-004
,,,-3.07500000e-009,2.64843629e-004
,,,-3.05000000e-009,2.35156127e-004
,,,-3.02500000e-009,2.00781125e-004
,,,-3.00000000e-009,1.64843622e-004
,,,-2.97500000e-009,1.30468620e-004
,,,-2.95000000e-009,9.99998674e-005
,,,-2.92500000e-009,7.57811157e-005
,,,-2.90000000e-009,5.85936144e-005
,,,-2.87500000e-009,5.07811139e-005
,,,-2.85000000e-009,4.99998638e-005
,,,-2.82500000e-009,5.62498643e-005
,,,-2.80000000e-009,6.79686151e-005
,,,-2.77500000e-009,8.35936162e-005
,,,-2.75000000e-009,9.99998674e-005
,,,-2.72500000e-009,1.14843618e-004
,,,-2.70000000e-009,1.26562369e-004
,,,-2.67500000e-009,1.34374870e-004
,,,-2.65000000e-009,1.37499870e-004
,,,-2.62500000e-009,1.35156120e-004
,,,-2.60000000e-009,1.27343619e-004
,,,-2.57500000e-009,1.15624868e-004
,,,-2.55000000e-009,9.99998674e-005
,,,-2.52500000e-009,8.20311161e-005
,,,-2.50000000e-009,6.40623648e-005
,,,-2.47500000e-009,4.99998638e-005
,,,-2.45000000e-009,4.14061132e-005
,,,-2.42500000e-009,4.14061132e-005
,,,-2.40000000e-009,5.07811139e-005
,,,-2.37500000e-009,7.03123653e-005
,,,-2.35000000e-009,9.99998674e-005
,,,-2.32500000e-009,1.36718620e-004
,,,-2.30000000e-009,1.76562373e-004
,,,-2.27500000e-009,2.17968626e-004
,,,-2.25000000e-009,2.55468628e-004
,,,-2.22500000e-009,2.85937381e-004
,,,-2.20000000e-009,3.05468632e-004
,,,-2.17500000e-009,3.10937382e-004
,,,-2.15000000e-009,2.99999882e-004
,,,-2.12500000e-009,2.71874880e-004
,,,-2.10000000e-009,2.29687377e-004
,,,-2.07500000e-009,1.75781123e-004
,,,-2.05000000e-009,1.15624868e-004
,,,-2.02500000e-009,5.31248641e-005
,,,-2.00000000e-009,-6.25014014e-006
,,,-1.97500000e-009,-5.78126438e-005
,,,-1.95000000e-009,-1.00000147e-004
,,,-1.92500000e-009,-1.28125149e-004
,,,-1.90000000e-009,-1.44531400e-004
,,,-1.87500000e-009,-1.48437650e-004
,,,-1.85000000e-009,-1.42968900e-004
,,,-1.82500000e-009,-1.32031399e-004
,,,-1.80000000e-009,-1.18750148e-004
,,,-1.77500000e-009,-1.07031397e-004
,,,-1.75000000e-009,-1.00000147e-004
,,,-1.72500000e-009,-1.01562647e-004
,,,-1.70000000e-009,-1.13281398e-004
,,,-1.67500000e-009,-1.33593899e-004
,,,-1.65000000e-009,-1.61718901e-004
,,,-1.62500000e-009,-1.95312654e-004
,,,-1.60000000e-009,-2.31250156e-004
,,,-1.57500000e-009,-2.67187659e-004
,,,-1.55000000e-009,-3.00000161e-004
,,,-1.52500000e-009,-3.30468913e-004
,,,-1.50000000e-009,-3.54687665e-004
,,,-1.47500000e-009,-3.70312666e-004
,,,-1.45000000e-009,-3.76562666e-004
,,,-1.42500000e-009,-3.71875166e-004
,,,-1.40000000e-009,-3.57031415e-004
,,,-1.37500000e-009,-3.32031413e-004
,,,-1.35000000e-009,-3.00000161e-004
,,,-1.32500000e-009,-2.71093909e-004
,,,-1.30000000e-009,-2.41406407e-004
,,,-1.27500000e-009,-2.12500155e-004
,,,-1.25000000e-009,-1.84375153e-004
,,,-1.22500000e-009,-1.58593901e-004
,,,-1.20000000e-009,-1.35156399e-004
,,,-1.17500000e-009,-1.14843898e-004
,,,-1.15000000e-009,-1.00000147e-004
,,,-1.12500000e-009,-1.07812647e-004
,,,-1.10000000e-009,-1.25000149e-004
,,,-1.07500000e-009,-1.49218900e-004
,,,-1.05000000e-009,-1.78906402e-004
,,,-1.02500000e-009,-2.10156405e-004
,,,-1.00000000e-009,-2.42187657e-004
,,,-9.75000000e-010,-2.71875159e-004
,,,-9.50000000e-010,-3.00000161e-004
,,,-9.25000000e-010,-3.48437664e-004
,,,-9.00000000e-010,-3.98437668e-004
,,,-8.75000000e-010,-4.49218921e-004
,,,-8.50000000e-010,-4.99218925e-004
,,,-8.25000000e-010,-5.49218929e-004
,,,-8.00000000e-010,-5.98437682e-004
,,,-7.75000000e-010,-6.48437686e-004
,,,-7.50000000e-010,-7.00000189e-004
,,,-7.25000000e-010,-7.77343945e-004
,,,-7.00000000e-010,-8.62500201e-004
,,,-6.75000000e-010,-9.56250207e-004
,,,-6.50000000e-010,-1.05703146e-003
,,,-6.25000000e-010,-1.16250022e-003
,,,-6.00000000e-010,-1.27187523e-003
,,,-5.75000000e-010,-1.38437524e-003
,,,-5.50000000e-010,-1.50000025e-003
,,,-5.25000000e-010,-1.63281276e-003
,,,-5.00000000e-010,-1.77265652e-003
,,,-4.75000000e-010,-1.91796903e-003
,,,-4.50000000e-010,-2.06796904e-003
,,,-4.25000000e-010,-2.22109405e-003
,,,-4.00000000e-010,-2.37812531e-003
,,,-3.75000000e-010,-2.53750032e-003
,,,-3.50000000e-010,-2.70000033e-003
,,,-3.25000000e-010,-2.86406284e-003
,,,-3.00000000e-010,-3.03359410e-003
,,,-2.75000000e-010,-3.20703162e-003
,,,-2.50000000e-010,-3.38359413e-003
,,,-2.25000000e-010,-3.56250039e-003
,,,-2.00000000e-010,-3.74218790e-003
,,,-1.75000000e-010,-3.92187542e-003
,,,-1.50000000e-010,-4.10000043e-003
,,,-1.25000000e-010,-4.25625044e-003
,,,-1.00000000e-010,-4.41093795e-003
,,,-7.50000000e-011,-4.56484421e-003
,,,-5.00000000e-011,-4.71796922e-003
,,,-2.50000000e-011,-4.86875048e-003
,,,0.00000000e+000,-5.01718799e-003
,,,2.50000000e-011,-5.16093800e-003
,,,5.00000000e-011,-5.30000051e-003
,,,7.50000000e-011,-5.39843802e-003
,,,1.00000000e-010,-5.49062553e-003
,,,1.25000000e-010,-5.57734428e-003
,,,1.50000000e-010,-5.65781304e-003
,,,1.75000000e-010,-5.73203180e-003
,,,2.00000000e-010,-5.79765680e-003
,,,2.25000000e-010,-5.85390680e-003
,,,2.50000000e-010,-5.90000056e-003
,,,2.75000000e-010,-5.89375056e-003
,,,3.00000000e-010,-5.87890681e-003
,,,3.25000000e-010,-5.85703180e-003
,,,3.50000000e-010,-5.83125055e-003
,,,3.75000000e-010,-5.80312555e-003
,,,4.00000000e-010,-5.77187555e-003
,,,4.25000000e-010,-5.73828180e-003
,,,4.50000000e-010,-5.70000054e-003
,,,4.75000000e-010,-5.62109429e-003
,,,5.00000000e-010,-5.53828178e-003
,,,5.25000000e-010,-5.45078178e-003
,,,5.50000000e-010,-5.35781302e-003
,,,5.75000000e-010,-5.25703176e-003
,,,6.00000000e-010,-5.14843800e-003
,,,6.25000000e-010,-5.02890675e-003
,,,6.50000000e-010,-4.90000049e-003
,,,6.75000000e-010,-4.73671922e-003
,,,7.00000000e-010,-4.56875046e-003
,,,7.25000000e-010,-4.40078170e-003
,,,7.50000000e-010,-4.23671919e-003
,,,7.75000000e-010,-4.08203168e-003
,,,8.00000000e-010,-3.93984417e-003
,,,8.25000000e-010,-3.81250041e-003
,,,8.50000000e-010,-3.70000040e-003
,,,8.75000000e-010,-3.59296914e-003
,,,9.00000000e-010,-3.49609414e-003
,,,9.25000000e-010,-3.40625038e-003
,,,9.50000000e-010,-3.31796912e-003
,,,9.75000000e-010,-3.22734412e-003
,,,1.00000000e-009,-3.12890661e-003
,,,1.02500000e-009,-3.02031285e-003
,,,1.05000000e-009,-2.90000034e-003
,,,1.07500000e-009,-2.76953159e-003
,,,1.10000000e-009,-2.62890658e-003
,,,1.12500000e-009,-2.48203157e-003
,,,1.15000000e-009,-2.33515655e-003
,,,1.17500000e-009,-2.19687530e-003
,,,1.20000000e-009,-2.07500029e-003
,,,1.22500000e-009,-1.97421903e-003
,,,1.25000000e-009,-1.90000027e-003
,,,1.27500000e-009,-1.86562527e-003
,,,1.30000000e-009,-1.85234402e-003
,,,1.32500000e-009,-1.85546902e-003
,,,1.35000000e-009,-1.86875027e-003
,,,1.37500000e-009,-1.88515652e-003
,,,1.40000000e-009,-1.90000027e-003
,,,1.42500000e-009,-1.90625027e-003
,,,1.45000000e-009,-1.90000027e-003
,,,1.47500000e-009,-1.88828152e-003
,,,1.50000000e-009,-1.85625027e-003
,,,1.52500000e-009,-1.80703152e-003
,,,1.55000000e-009,-1.74453151e-003
,,,1.57500000e-009,-1.67578151e-003
,,,1.60000000e-009,-1.60781275e-003
,,,1.62500000e-009,-1.54687525e-003
,,,1.65000000e-009,-1.50000025e-003
,,,1.67500000e-009,-1.47968774e-003
,,,1.70000000e-009,-1.47265649e-003
,,,1.72500000e-009,-1.47500024e-003
,,,1.75000000e-009,-1.48359399e-003
,,,1.77500000e-009,-1.49375025e-003
,,,1.80000000e-009,-1.50234400e-003
,,,1.82500000e-009,-1.50546900e-003
,,,1.85000000e-009,-1.50000025e-003
,,,1.87500000e-009,-1.48984400e-003
,,,1.90000000e-009,-1.46875024e-003
,,,1.92500000e-009,-1.43750024e-003
,,,1.95000000e-009,-1.40156274e-003
,,,1.97500000e-009,-1.36484399e-003
,,,2.00000000e-009,-1.33359398e-003
,,,2.02500000e-009,-1.31093773e-003
,,,2.05000000e-009,-1.30000023e-003
,,,2.07500000e-009,-1.30546898e-003
,,,2.10000000e-009,-1.31875023e-003
,,,2.12500000e-009,-1.33593773e-003
,,,2.15000000e-009,-1.35078149e-003
,,,2.17500000e-009,-1.35937524e-003
,,,2.20000000e-009,-1.35546899e-003
,,,2.22500000e-009,-1.33593773e-003
,,,2.25000000e-009,-1.30000023e-003
,,,2.27500000e-009,-1.24609398e-003
,,,2.30000000e-009,-1.17890647e-003
,,,2.32500000e-009,-1.10546897e-003
,,,2.35000000e-009,-1.03203146e-003
,,,2.37500000e-009,-9.68750208e-004
,,,2.40000000e-009,-9.21093955e-004
,,,2.42500000e-009,-8.97656453e-004
,,,2.45000000e-009,-9.00000203e-004
,,,2.47500000e-009,-9.28906455e-004
,,,2.50000000e-009,-9.79687709e-004
,,,2.52500000e-009,-1.04531271e-003
,,,2.55000000e-009,-1.11640647e-003
,,,2.57500000e-009,-1.18593772e-003
,,,2.60000000e-009,-1.24375023e-003
,,,2.62500000e-009,-1.28359398e-003
,,,2.65000000e-009,-1.30000023e-003
,,,2.67500000e-009,-1.28593773e-003
,,,2.70000000e-009,-1.24687523e-003
,,,2.72500000e-009,-1.18906272e-003
,,,2.75000000e-009,-1.11875022e-003
,,,2.77500000e-009,-1.04687521e-003
,,,2.80000000e-009,-9.81250209e-004
,,,2.82500000e-009,-9.30468956e-004
,,,2.85000000e-009,-9.00000203e-004
,,,2.87500000e-009,-8.92968953e-004
,,,2.90000000e-009,-9.07812704e-004
,,,2.92500000e-009,-9.39843956e-004
,,,2.95000000e-009,-9.82031459e-004
,,,2.97500000e-009,-1.02734396e-003
,,,3.00000000e-009,-1.06718772e-003
,,,3.02500000e-009,-1.09375022e-003
,,,3.05000000e-009,-1.10000022e-003
,,,3.07500000e-009,-1.07890647e-003
,,,3.10000000e-009,-1.03281271e-003
,,,3.12500000e-009,-9.64843958e-004
,,,3.15000000e-009,-8.78906452e-004
,,,3.17500000e-009,-7.82812695e-004
,,,3.20000000e-009,-6.82812688e-004
,,,3.22500000e-009,-5.85937681e-004
,,,3.25000000e-009,-5.00000175e-004
,,,3.27500000e-009,-4.31250170e-004
,,,3.30000000e-009,-3.78906417e-004
,,,3.32500000e-009,-3.42968914e-004
,,,3.35000000e-009,-3.20312662e-004
,,,3.37500000e-009,-3.08593912e-004
,,,3.40000000e-009,-3.03906411e-004
,,,3.42500000e-009,-3.01562661e-004
,,,3.45000000e-009,-3.00000161e-004
,,,3.47500000e-009,-2.99218911e-004
,,,3.50000000e-009,-2.95312661e-004
,,,3.52500000e-009,-2.89062660e-004
,,,3.55000000e-009,-2.82812660e-004
,,,3.57500000e-009,-2.78125159e-004
,,,3.60000000e-009,-2.78125159e-004
,,,3.62500000e-009,-2.84375160e-004
,,,3.65000000e-009,-3.00000161e-004
,,,3.67500000e-009,-3.27343913e-004
,,,3.70000000e-009,-3.60156415e-004
,,,3.72500000e-009,-3.96093918e-004
,,,3.75000000e-009,-4.31250170e-004
,,,3.77500000e-009,-4.62500172e-004
,,,3.80000000e-009,-4.85156424e-004
,,,3.82500000e-009,-4.98437675e-004
,,,3.85000000e-009,-5.00000175e-004
,,,3.87500000e-009,-4.89062674e-004
,,,3.90000000e-009,-4.67187673e-004
,,,3.92500000e-009,-4.37500171e-004
,,,3.95000000e-009,-4.02343918e-004
,,,3.97500000e-009,-3.67187666e-004
,,,4.00000000e-009,-3.35156413e-004
,,,4.02500000e-009,-3.12500162e-004
,,,4.05000000e-009,-3.00000161e-004
,,,4.07500000e-009,-3.01562661e-004
,,,4.10000000e-009,-3.14843912e-004
,,,4.12500000e-009,-3.37500164e-004
,,,4.15000000e-009,-3.67968916e-004
,,,4.17500000e-009,-4.02343918e-004
,,,4.20000000e-009,-4.37500171e-004
,,,4.22500000e-009,-4.71093923e-004
,,,4.25000000e-009,-5.00000175e-004
,,,4.27500000e-009,-5.20312677e-004
,,,4.30000000e-009,-5.32812677e-004
,,,4.32500000e-009,-5.37500178e-004
,,,4.35000000e-009,-5.35156428e-004
,,,4.37500000e-009,-5.28906427e-004
,,,4.40000000e-009,-5.18750176e-004
,,,4.42500000e-009,-5.08593926e-004
,,,4.45000000e-009,-5.00000175e-004
,,,4.47500000e-009,-4.91406424e-004
,,,4.50000000e-009,-4.86718924e-004
,,,4.52500000e-009,-4.85937674e-004
,,,4.55000000e-009,-4.87500174e-004
,,,4.57500000e-009,-4.91406424e-004
,,,4.60000000e-009,-4.96093925e-004
,,,4.62500000e-009,-4.99218925e-004
,,,4.65000000e-009,-5.00000175e-004
,,,4.67500000e-009,-4.92968925e-004
,,,4.70000000e-009,-4.81250174e-004
,,,4.72500000e-009,-4.63281422e-004
,,,4.75000000e-009,-4.39843921e-004
,,,4.77500000e-009,-4.10937669e-004
,,,4.80000000e-009,-3.76562666e-004
,,,4.82500000e-009,-3.39062664e-004
,,,4.85000000e-009,-3.00000161e-004
,,,4.87500000e-009,-2.58593908e-004
,,,4.90000000e-009,-2.17968905e-004
,,,4.92500000e-009,-1.81250153e-004
,,,4.95000000e-009,-1.49218900e-004
,,,4.97500000e-009,-1.24218898e-004
,,,5.00000000e-009,-1.07031397e-004
,,,5.02500000e-009,-9.84376467e-005
,,,5.05000000e-009,-1.00000147e-004
,,,5.07500000e-009,-1.09375147e-004
,,,5.10000000e-009,-1.27343899e-004
,,,5.12500000e-009,-1.51562650e-004
,,,5.15000000e-009,-1.79687652e-004
,,,5.17500000e-009,-2.10937655e-004
,,,5.20000000e-009,-2.42968907e-004
,,,5.22500000e-009,-2.72656409e-004
,,,5.25000000e-009,-3.00000161e-004
,,,5.27500000e-009,-3.20312662e-004
,,,5.30000000e-009,-3.34375163e-004
,,,5.32500000e-009,-3.42187664e-004
,,,5.35000000e-009,-3.42968914e-004
,,,5.37500000e-009,-3.38281414e-004
,,,5.40000000e-009,-3.28906413e-004
,,,5.42500000e-009,-3.15625162e-004
,,,5.45000000e-009,-3.00000161e-004
,,,5.47500000e-009,-2.81250160e-004
,,,5.50000000e-009,-2.60156408e-004
,,,5.52500000e-009,-2.38281407e-004
,,,5.55000000e-009,-2.14062655e-004
,,,5.57500000e-009,-1.88281403e-004
,,,5.60000000e-009,-1.60156401e-004
,,,5.62500000e-009,-1.30468899e-004
,,,5.65000000e-009,-1.00000147e-004
,,,5.67500000e-009,-6.79688945e-005
,,,5.70000000e-009,-3.59376422e-005
,,,5.72500000e-009,-4.68764003e-006
,,,5.75000000e-009,2.42186120e-005
,,,5.77500000e-009,5.07811139e-005
,,,5.80000000e-009,7.26561154e-005
,,,5.82500000e-009,8.90623666e-005
,,,5.85000000e-009,9.99998674e-005
,,,5.87500000e-009,1.03906118e-004
,,,5.90000000e-009,1.03124868e-004
