RawData/SinglePhotoelectron/L4_12pt5foot_5mV/wave000_Ch3.csv

"Record Length",1000,"Points",-7.72500000e-009,-5.00000175e-004
"Sample Interval",2.50000000e-011,s,-7.70000000e-009,-4.81250174e-004
"Trigger Point",309,"Samples",-7.67500000e-009,-4.60937672e-004
"Trigger Time",1.30487770e-011,s,-7.65000000e-009,-4.37500171e-004
"",,,-7.62500000e-009,-4.12500169e-004
"Horizontal Offset",-7.72500000e-009,s,-7.60000000e-009,-3.85156417e-004
,,,-7.57500000e-009,-3.57812665e-004
,,,-7.55000000e-009,-3.28906413e-004
,,,-7.52500000e-009,-3.00000161e-004
,,,-7.50000000e-009,-2.67187659e-004
,,,-7.47500000e-009,-2.35156406e-004
,,,-7.45000000e-009,-2.05468904e-004
,,,-7.42500000e-009,-1.77343902e-004
,,,-7.40000000e-009,-1.52343900e-004
,,,-7.37500000e-009,-1.31250149e-004
,,,-7.35000000e-009,-1.13281398e-004
,,,-7.32500000e-009,-1.00000147e-004
,,,-7.30000000e-009,-8.90626460e-005
,,,-7.27500000e-009,-8.28126456e-005
,,,-7.25000000e-009,-7.96876453e-005
,,,-7.22500000e-009,-7.96876453e-005
,,,-7.20000000e-009,-8.28126456e-005
,,,-7.17500000e-009,-8.75001459e-005
,,,-7.15000000e-009,-9.29688963e-005
,,,-7.12500000e-009,-1.00000147e-004
,,,-7.10000000e-009,-1.06250147e-004
,,,-7.07500000e-009,-1.12500148e-004
,,,-7.05000000e-009,-1.16406398e-004
,,,-7.02500000e-009,-1.18750148e-004
,,,-7.00000000e-009,-1.17968898e-004
,,,-6.97500000e-009,-1.14843898e-004
,,,-6.95000000e-009,-1.08593897e-004
,,,-6.92500000e-009,-1.00000147e-004
,,,-6.90000000e-009,-8.82813959e-005
,,,-6.87500000e-009,-7.34376449e-005
,,,-6.85000000e-009,-5.39063935e-005
,,,-6.82500000e-009,-3.04688919e-005
,,,-6.80000000e-009,-2.34388986e-006
,,,-6.77500000e-009,2.89061123e-005
,,,-6.75000000e-009,6.32811148e-005
,,,-6.72500000e-009,9.99998674e-005
,,,-6.70000000e-009,1.35156120e-004
,,,-6.67500000e-009,1.69531122e-004
,,,-6.65000000e-009,2.02343625e-004
,,,-6.62500000e-009,2.32812377e-004
,,,-6.60000000e-009,2.58593629e-004
,,,-6.57500000e-009,2.79687380e-004
,,,-6.55000000e-009,2.93749881e-004
,,,-6.52500000e-009,2.99999882e-004
,,,-6.50000000e-009,2.94531131e-004
,,,-6.47500000e-009,2.81249880e-004
,,,-6.45000000e-009,2.61718629e-004
,,,-6.42500000e-009,2.35937377e-004
,,,-6.40000000e-009,2.06249875e-004
,,,-6.37500000e-009,1.72656123e-004
,,,-6.35000000e-009,1.36718620e-004
,,,-6.32500000e-009,9.99998674e-005
,,,-6.30000000e-009,6.40623648e-005
,,,-6.27500000e-009,3.04686125e-005
,,,-6.25000000e-009,-7.81389754e-007
,,,-6.22500000e-009,-2.81251417e-005
,,,-6.20000000e-009,-5.15626433e-005
,,,-6.17500000e-009,-7.10938947e-005
,,,-6.15000000e-009,-8.67188958e-005
,,,-6.12500000e-009,-1.00000147e-004
,,,-6.10000000e-009,-1.08593897e-004
,,,-6.07500000e-009,-1.14843898e-004
,,,-6.05000000e-009,-1.17968898e-004
,,,-6.02500000e-009,-1.17968898e-004
,,,-6.00000000e-009,-1.16406398e-004
,,,-5.97500000e-009,-1.11718898e-004
,,,-5.95000000e-009,-1.06250147e-004
,,,-5.92500000e-009,-1.00000147e-004
,,,-5.90000000e-009,-9.06251461e-005
,,,-5.87500000e-009,-8.20313955e-005
,,,-5.85000000e-009,-7.57813951e-005
,,,-5.82500000e-009,-7.18751448e-005
,,,-5.80000000e-009,-7.26563948e-005
,,,-5.77500000e-009,-7.73438952e-005
,,,-5.75000000e-009,-8.67188958e-005
,,,-5.72500000e-009,-1.00000147e-004
,,,-5.70000000e-009,-1.12500148e-004
,,,-5.67500000e-009,-1.25781399e-004
,,,-5.65000000e-009,-1.37500149e-004
,,,-5.62500000e-009,-1.44531400e-004
,,,-5.60000000e-009,-1.46093900e-004
,,,-5.57500000e-009,-1.39062650e-004
,,,-5.55000000e-009,-1.24218898e-004
,,,-5.52500000e-009,-1.00000147e-004
,,,-5.50000000e-009,-6.56251443e-005
,,,-5.47500000e-009,-2.73438916e-005
,,,-5.45000000e-009,1.17186111e-005
,,,-5.42500000e-009,4.84373637e-005
,,,-5.40000000e-009,7.81248658e-005
,,,-5.37500000e-009,9.76561172e-005
,,,-5.35000000e-009,1.05468618e-004
,,,-5.32500000e-009,9.99998674e-005
,,,-5.30000000e-009,8.20311161e-005
,,,-5.27500000e-009,5.39061141e-005
,,,-5.25000000e-009,1.87498616e-005
,,,-5.22500000e-009,-1.95313911e-005
,,,-5.20000000e-009,-5.46876436e-005
,,,-5.17500000e-009,-8.20313955e-005
,,,-5.15000000e-009,-9.84376467e-005
,,,-5.12500000e-009,-1.00000147e-004
,,,-5.10000000e-009,-8.35938956e-005
,,,-5.07500000e-009,-5.15626433e-005
,,,-5.05000000e-009,-4.68764003e-006
,,,-5.02500000e-009,5.23436140e-005
,,,-5.00000000e-009,1.16406119e-004
,,,-4.97500000e-009,1.82031123e-004
,,,-4.95000000e-009,2.44531128e-004
,,,-4.92500000e-009,2.99999882e-004
,,,-4.90000000e-009,3.40624884e-004
,,,-4.87500000e-009,3.67187386e-004
,,,-4.85000000e-009,3.80468637e-004
,,,-4.82500000e-009,3.81249887e-004
,,,-4.80000000e-009,3.71093637e-004
,,,-4.77500000e-009,3.53124885e-004
,,,-4.75000000e-009,3.28124884e-004
,,,-4.72500000e-009,2.99999882e-004
,,,-4.70000000e-009,2.67187379e-004
,,,-4.67500000e-009,2.34374877e-004
,,,-4.65000000e-009,2.03906125e-004
,,,-4.62500000e-009,1.77343623e-004
,,,-4.60000000e-009,1.53124871e-004
,,,-4.57500000e-009,1.32812370e-004
,,,-4.55000000e-009,1.14843618e-004
,,,-4.52500000e-009,9.99998674e-005
,,,-4.50000000e-009,8.59373664e-005
,,,-4.47500000e-009,7.49998656e-005
,,,-4.45000000e-009,6.71873651e-005
,,,-4.42500000e-009,6.40623648e-005
,,,-4.40000000e-009,6.64061150e-005
,,,-4.37500000e-009,7.34373655e-005
,,,-4.35000000e-009,8.51561163e-005
,,,-4.32500000e-009,9.99998674e-005
,,,-4.30000000e-009,1.17968619e-004
,,,-4.27500000e-009,1.35937370e-004
,,,-4.25000000e-009,1.50781121e-004
,,,-4.22500000e-009,1.60156122e-004
,,,-4.20000000e-009,1.61718622e-004
,,,-4.17500000e-009,1.53124871e-004
,,,-4.15000000e-009,1.32812370e-004
,,,-4.12500000e-009,9.99998674e-005
,,,-4.10000000e-009,5.46873642e-005
,,,-4.07500000e-009,7.81110357e-007
,,,-4.05000000e-009,-5.85938938e-005
,,,-4.02500000e-009,-1.18750148e-004
,,,-4.00000000e-009,-1.76562652e-004
,,,-3.97500000e-009,-2.28125156e-004
,,,-3.95000000e-009,-2.69531409e-004
,,,-3.92500000e-009,-3.00000161e-004
,,,-3.90000000e-009,-3.14843912e-004
,,,-3.87500000e-009,-3.18750162e-004
,,,-3.85000000e-009,-3.15625162e-004
,,,-3.82500000e-009,-3.07812661e-004
,,,-3.80000000e-009,-3.00000161e-004
,,,-3.77500000e-009,-2.93750160e-004
,,,-3.75000000e-009,-2.93750160e-004
,,,-3.72500000e-009,-3.00000161e-004
,,,-3.70000000e-009,-3.09375162e-004
,,,-3.67500000e-009,-3.24218913e-004
,,,-3.65000000e-009,-3.41406414e-004
,,,-3.62500000e-009,-3.54687665e-004
,,,-3.60000000e-009,-3.61718915e-004
,,,-3.57500000e-009,-3.56250165e-004
,,,-3.55000000e-009,-3.35937663e-004
,,,-3.52500000e-009,-3.00000161e-004
,,,-3.50000000e-009,-2.44531407e-004
,,,-3.47500000e-009,-1.78906402e-004
,,,-3.45000000e-009,-1.07031397e-004
,,,-3.42500000e-009,-3.75001424e-005
,,,-3.40000000e-009,2.42186120e-005
,,,-3.37500000e-009,7.10936153e-005
,,,-3.35000000e-009,9.76561172e-005
,,,-3.32500000e-009,9.99998674e-005
,,,-3.30000000e-009,7.81248658e-005
,,,-3.27500000e-009,3.43748627e-005
,,,-3.25000000e-009,-2.50001415e-005
,,,-3.22500000e-009,-9.29688963e-005
,,,-3.20000000e-009,-1.61718901e-004
,,,-3.17500000e-009,-2.23437656e-004
,,,-3.15000000e-009,-2.71093909e-004
,,,-3.12500000e-009,-3.00000161e-004
,,,-3.10000000e-009,-3.03906411e-004
,,,-3.07500000e-009,-2.87500160e-004
,,,-3.05000000e-009,-2.56250158e-004
,,,-3.02500000e-009,-2.15625155e-004
,,,-3.00000000e-009,-1.73437652e-004
,,,-2.97500000e-009,-1.35937649e-004
,,,-2.95000000e-009,-1.09375147e-004
,,,-2.92500000e-009,-1.00000147e-004
,,,-2.90000000e-009,-1.07031397e-004
,,,-2.87500000e-009,-1.30468899e-004
,,,-2.85000000e-009,-1.65625151e-004
,,,-2.82500000e-009,-2.07031404e-004
,,,-2.80000000e-009,-2.47656407e-004
,,,-2.77500000e-009,-2.80468910e-004
,,,-2.75000000e-009,-2.99218911e-004
,,,-2.72500000e-009,-3.00000161e-004
,,,-2.70000000e-009,-2.76562659e-004
,,,-2.67500000e-009,-2.35156406e-004
,,,-2.65000000e-009,-1.77343902e-004
,,,-2.62500000e-009,-1.11718898e-004
,,,-2.60000000e-009,-4.37501428e-005
,,,-2.57500000e-009,1.87498616e-005
,,,-2.55000000e-009,6.79686151e-005
,,,-2.52500000e-009,9.99998674e-005
,,,-2.50000000e-009,1.10937368e-004
,,,-2.47500000e-009,1.01562367e-004
,,,-2.45000000e-009,7.65623657e-005
,,,-2.42500000e-009,3.98436131e-005
,,,-2.40000000e-009,-2.34388986e-006
,,,-2.37500000e-009,-4.37501428e-005
,,,-2.35000000e-009,-7.73438952e-005
,,,-2.32500000e-009,-1.00000147e-004
,,,-2.30000000e-009,-1.04687647e-004
,,,-2.27500000e-009,-9.53126464e-005
,,,-2.25000000e-009,-7.18751448e-005
,,,-2.22500000e-009,-3.90626425e-005
,,,-2.20000000e-009,-7.81389754e-007
,,,-2.17500000e-009,3.82811130e-005
,,,-2.15000000e-009,7.34373655e-005
,,,-2.12500000e-009,9.99998674e-005
,,,-2.10000000e-009,1.14843618e-004
,,,-2.07500000e-009,1.20312369e-004
,,,-2.05000000e-009,1.17187369e-004
,,,-2.02500000e-009,1.08593618e-004
,,,-2.00000000e-009,9.92186173e-005
,,,-1.97500000e-009,9.29686169e-005
,,,-1.95000000e-009,9.21873668e-005
,,,-1.92500000e-009,9.99998674e-005
,,,-1.90000000e-009,1.12499868e-004
,,,-1.87500000e-009,1.32812370e-004
,,,-1.85000000e-009,1.60156122e-004
,,,-1.82500000e-009,1.92187374e-004
,,,-1.80000000e-009,2.24999876e-004
,,,-1.77500000e-009,2.56249878e-004
,,,-1.75000000e-009,2.82812380e-004
,,,-1.72500000e-009,2.99999882e-004
,,,-1.70000000e-009,2.96093631e-004
,,,-1.67500000e-009,2.80468630e-004
,,,-1.65000000e-009,2.54687378e-004
,,,-1.62500000e-009,2.23437376e-004
,,,-1.60000000e-009,1.88281124e-004
,,,-1.57500000e-009,1.53906121e-004
,,,-1.55000000e-009,1.24218619e-004
,,,-1.52500000e-009,9.99998674e-005
,,,-1.50000000e-009,7.18748654e-005
,,,-1.47500000e-009,5.07811139e-005
,,,-1.45000000e-009,3.90623631e-005
,,,-1.42500000e-009,3.67186129e-005
,,,-1.40000000e-009,4.37498634e-005
,,,-1.37500000e-009,5.78123644e-005
,,,-1.35000000e-009,7.73436158e-005
,,,-1.32500000e-009,9.99998674e-005
,,,-1.30000000e-009,1.03124868e-004
,,,-1.27500000e-009,9.92186173e-005
,,,-1.25000000e-009,8.82811166e-005
,,,-1.22500000e-009,6.79686151e-005
,,,-1.20000000e-009,3.98436131e-005
,,,-1.17500000e-009,2.34361047e-006
,,,-1.15000000e-009,-4.37501428e-005
,,,-1.12500000e-009,-1.00000147e-004
,,,-1.10000000e-009,-1.84375153e-004
,,,-1.07500000e-009,-2.78906409e-004
,,,-1.05000000e-009,-3.81250167e-004
,,,-1.02500000e-009,-4.88281424e-004
,,,-1.00000000e-009,-5.96093932e-004
,,,-9.75000000e-010,-7.01562689e-004
,,,-9.50000000e-010,-8.03125197e-004
,,,-9.25000000e-010,-9.00000203e-004
,,,-9.00000000e-010,-1.00781271e-003
,,,-8.75000000e-010,-1.11328147e-003
,,,-8.50000000e-010,-1.21640648e-003
,,,-8.25000000e-010,-1.31718773e-003
,,,-8.00000000e-010,-1.41484399e-003
,,,-7.75000000e-010,-1.51093775e-003
,,,-7.50000000e-010,-1.60468775e-003
,,,-7.25000000e-010,-1.70000026e-003
,,,-7.00000000e-010,-1.80390652e-003
,,,-6.75000000e-010,-1.91562528e-003
,,,-6.50000000e-010,-2.03437528e-003
,,,-6.25000000e-010,-2.15937529e-003
,,,-6.00000000e-010,-2.29062530e-003
,,,-5.75000000e-010,-2.42500031e-003
,,,-5.50000000e-010,-2.56171907e-003
,,,-5.25000000e-010,-2.70000033e-003
,,,-5.00000000e-010,-2.83437534e-003
,,,-4.75000000e-010,-2.96953160e-003
,,,-4.50000000e-010,-3.10312536e-003
,,,-4.25000000e-010,-3.23437537e-003
,,,-4.00000000e-010,-3.36093788e-003
,,,-3.75000000e-010,-3.48046914e-003
,,,-3.50000000e-010,-3.59375039e-003
,,,-3.25000000e-010,-3.70000040e-003
,,,-3.00000000e-010,-3.78515666e-003
,,,-2.75000000e-010,-3.86953166e-003
,,,-2.50000000e-010,-3.95703167e-003
,,,-2.25000000e-010,-4.04921918e-003
,,,-2.00000000e-010,-4.14921918e-003
,,,-1.75000000e-010,-4.25781294e-003
,,,-1.50000000e-010,-4.37500045e-003
,,,-1.25000000e-010,-4.50000046e-003
,,,-1.00000000e-010,-4.60781297e-003
,,,-7.50000000e-011,-4.72109422e-003
,,,-5.00000000e-011,-4.83750048e-003
,,,-2.50000000e-011,-4.95234424e-003
,,,0.00000000e+000,-5.06093800e-003
,,,2.50000000e-011,-5.15781300e-003
,,,5.00000000e-011,-5.23906301e-003
,,,7.50000000e-011,-5.30000051e-003
,,,1.00000000e-010,-5.30937552e-003
,,,1.25000000e-010,-5.30078176e-003
,,,1.50000000e-010,-5.27812551e-003
,,,1.75000000e-010,-5.24531301e-003
,,,2.00000000e-010,-5.20859426e-003
,,,2.25000000e-010,-5.16953176e-003
,,,2.50000000e-010,-5.13281300e-003
,,,2.75000000e-010,-5.10000050e-003
,,,3.00000000e-010,-5.04453175e-003
,,,3.25000000e-010,-4.99453174e-003
,,,3.50000000e-010,-4.95078174e-003
,,,3.75000000e-010,-4.90937549e-003
,,,4.00000000e-010,-4.86718798e-003
,,,4.25000000e-010,-4.82031298e-003
,,,4.50000000e-010,-4.76562548e-003
,,,4.75000000e-010,-4.70000047e-003
,,,5.00000000e-010,-4.60078172e-003
,,,5.25000000e-010,-4.49218796e-003
,,,5.50000000e-010,-4.37890670e-003
,,,5.75000000e-010,-4.26484419e-003
,,,6.00000000e-010,-4.15625043e-003
,,,6.25000000e-010,-4.05703168e-003
,,,6.50000000e-010,-3.97109417e-003
,,,6.75000000e-010,-3.90000042e-003
,,,7.00000000e-010,-3.83281291e-003
,,,7.25000000e-010,-3.77812541e-003
,,,7.50000000e-010,-3.73359415e-003
,,,7.75000000e-010,-3.69453165e-003
,,,8.00000000e-010,-3.65625040e-003
,,,8.25000000e-010,-3.61328165e-003
,,,8.50000000e-010,-3.56250039e-003
,,,8.75000000e-010,-3.50000039e-003
,,,9.00000000e-010,-3.41718788e-003
,,,9.25000000e-010,-3.32031287e-003
,,,9.50000000e-010,-3.21328162e-003
,,,9.75000000e-010,-3.10000036e-003
,,,1.00000000e-009,-2.98671910e-003
,,,1.02500000e-009,-2.87890659e-003
,,,1.05000000e-009,-2.78203159e-003
,,,1.07500000e-009,-2.70000033e-003
,,,1.10000000e-009,-2.63515658e-003
,,,1.12500000e-009,-2.58125032e-003
,,,1.15000000e-009,-2.53593782e-003
,,,1.17500000e-009,-2.49453157e-003
,,,1.20000000e-009,-2.45390656e-003
,,,1.22500000e-009,-2.41015656e-003
,,,1.25000000e-009,-2.35937531e-003
,,,1.27500000e-009,-2.30000030e-003
,,,1.30000000e-009,-2.23515655e-003
,,,1.32500000e-009,-2.15937529e-003
,,,1.35000000e-009,-2.07421904e-003
,,,1.37500000e-009,-1.98515653e-003
,,,1.40000000e-009,-1.89765652e-003
,,,1.42500000e-009,-1.81718777e-003
,,,1.45000000e-009,-1.75000026e-003
,,,1.47500000e-009,-1.70000026e-003
,,,1.50000000e-009,-1.67656276e-003
,,,1.52500000e-009,-1.66640651e-003
,,,1.55000000e-009,-1.66875026e-003
,,,1.57500000e-009,-1.67734401e-003
,,,1.60000000e-009,-1.68984401e-003
,,,1.62500000e-009,-1.70000026e-003
,,,1.65000000e-009,-1.70468776e-003
,,,1.67500000e-009,-1.70000026e-003
,,,1.70000000e-009,-1.68750026e-003
,,,1.72500000e-009,-1.65937526e-003
,,,1.75000000e-009,-1.61640650e-003
,,,1.77500000e-009,-1.56093775e-003
,,,1.80000000e-009,-1.49765650e-003
,,,1.82500000e-009,-1.42968774e-003
,,,1.85000000e-009,-1.36250024e-003
,,,1.87500000e-009,-1.30000023e-003
,,,1.90000000e-009,-1.25000023e-003
,,,1.92500000e-009,-1.20781273e-003
,,,1.95000000e-009,-1.17343772e-003
,,,1.97500000e-009,-1.14687522e-003
,,,2.00000000e-009,-1.12656272e-003
,,,2.02500000e-009,-1.11328147e-003
,,,2.05000000e-009,-1.10468772e-003
,,,2.07500000e-009,-1.10000022e-003
,,,2.10000000e-009,-1.10156272e-003
,,,2.12500000e-009,-1.10312522e-003
,,,2.15000000e-009,-1.10312522e-003
,,,2.17500000e-009,-1.10234397e-003
,,,2.20000000e-009,-1.10078147e-003
,,,2.22500000e-009,-1.09921897e-003
,,,2.25000000e-009,-1.09843772e-003
,,,2.27500000e-009,-1.10000022e-003
,,,2.30000000e-009,-1.10468772e-003
,,,2.32500000e-009,-1.10937522e-003
,,,2.35000000e-009,-1.11250022e-003
,,,2.37500000e-009,-1.11484397e-003
,,,2.40000000e-009,-1.11484397e-003
,,,2.42500000e-009,-1.11328147e-003
,,,2.45000000e-009,-1.10781272e-003
,,,2.47500000e-009,-1.10000022e-003
,,,2.50000000e-009,-1.08671897e-003
,,,2.52500000e-009,-1.06953147e-003
,,,2.55000000e-009,-1.04843771e-003
,,,2.57500000e-009,-1.02265646e-003
,,,2.60000000e-009,-9.93750210e-004
,,,2.62500000e-009,-9.63281458e-004
,,,2.65000000e-009,-9.32031456e-004
,,,2.67500000e-009,-9.00000203e-004
,,,2.70000000e-009,-8.68750201e-004
,,,2.72500000e-009,-8.37500199e-004
,,,2.75000000e-009,-8.07812697e-004
,,,2.77500000e-009,-7.79687695e-004
,,,2.80000000e-009,-7.54687693e-004
,,,2.82500000e-009,-7.32031442e-004
,,,2.85000000e-009,-7.14062690e-004
,,,2.87500000e-009,-7.00000189e-004
,,,2.90000000e-009,-6.89062688e-004
,,,2.92500000e-009,-6.82031438e-004
,,,2.95000000e-009,-6.77343938e-004
,,,2.97500000e-009,-6.76562688e-004
,,,3.00000000e-009,-6.78906438e-004
,,,3.02500000e-009,-6.83593938e-004
,,,3.05000000e-009,-6.90625189e-004
,,,3.07500000e-009,-7.00000189e-004
,,,3.10000000e-009,-7.07812690e-004
,,,3.12500000e-009,-7.15625190e-004
,,,3.15000000e-009,-7.21093941e-004
,,,3.17500000e-009,-7.23437691e-004
,,,3.20000000e-009,-7.23437691e-004
,,,3.22500000e-009,-7.18750191e-004
,,,3.25000000e-009,-7.11718940e-004
,,,3.27500000e-009,-7.00000189e-004
,,,3.30000000e-009,-6.82812688e-004
,,,3.32500000e-009,-6.61718937e-004
,,,3.35000000e-009,-6.37500185e-004
,,,3.37500000e-009,-6.10937683e-004
,,,3.40000000e-009,-5.82812681e-004
,,,3.42500000e-009,-5.53906429e-004
,,,3.45000000e-009,-5.26562677e-004
,,,3.47500000e-009,-5.00000175e-004
,,,3.50000000e-009,-4.74218923e-004
,,,3.52500000e-009,-4.48437671e-004
,,,3.55000000e-009,-4.24218920e-004
,,,3.57500000e-009,-4.00000168e-004
,,,3.60000000e-009,-3.75000166e-004
,,,3.62500000e-009,-3.50781415e-004
,,,3.65000000e-009,-3.25000163e-004
,,,3.67500000e-009,-3.00000161e-004
,,,3.70000000e-009,-2.75000159e-004
,,,3.72500000e-009,-2.49218907e-004
,,,3.75000000e-009,-2.22656405e-004
,,,3.77500000e-009,-1.95312654e-004
,,,3.80000000e-009,-1.68750152e-004
,,,3.82500000e-009,-1.43750150e-004
,,,3.85000000e-009,-1.20312648e-004
,,,3.87500000e-009,-1.00000147e-004
,,,3.90000000e-009,-8.43751457e-005
,,,3.92500000e-009,-7.34376449e-005
,,,3.95000000e-009,-6.64063944e-005
,,,3.97500000e-009,-6.40626442e-005
,,,4.00000000e-009,-6.64063944e-005
,,,4.02500000e-009,-7.34376449e-005
,,,4.05000000e-009,-8.51563957e-005
,,,4.07500000e-009,-1.00000147e-004
,,,4.10000000e-009,-1.17187648e-004
,,,4.12500000e-009,-1.32812649e-004
,,,4.15000000e-009,-1.44531400e-004
,,,4.17500000e-009,-1.50781400e-004
,,,4.20000000e-009,-1.50000150e-004
,,,4.22500000e-009,-1.41406400e-004
,,,4.25000000e-009,-1.25000149e-004
,,,4.27500000e-009,-1.00000147e-004
,,,4.30000000e-009,-6.95313946e-005
,,,4.32500000e-009,-3.43751421e-005
,,,4.35000000e-009,2.34361047e-006
,,,4.37500000e-009,3.74998630e-005
,,,4.40000000e-009,6.71873651e-005
,,,4.42500000e-009,8.90623666e-005
,,,4.45000000e-009,1.00781117e-004
,,,4.47500000e-009,9.99998674e-005
,,,4.50000000e-009,8.51561163e-005
,,,4.52500000e-009,6.01561146e-005
,,,4.55000000e-009,2.81248623e-005
,,,4.57500000e-009,-6.25014014e-006
,,,4.60000000e-009,-3.98438925e-005
,,,4.62500000e-009,-6.87501446e-005
,,,4.65000000e-009,-8.98438961e-005
,,,4.67500000e-009,-1.00000147e-004
,,,4.70000000e-009,-9.84376467e-005
,,,4.72500000e-009,-8.51563957e-005
,,,4.75000000e-009,-6.25001441e-005
,,,4.77500000e-009,-3.12501419e-005
,,,4.80000000e-009,3.90611058e-006
,,,4.82500000e-009,3.98436131e-005
,,,4.85000000e-009,7.26561154e-005
,,,4.87500000e-009,9.99998674e-005
,,,4.90000000e-009,1.20312369e-004
,,,4.92500000e-009,1.32812370e-004
,,,4.95000000e-009,1.37499870e-004
,,,4.97500000e-009,1.35156120e-004
,,,5.00000000e-009,1.28906119e-004
,,,5.02500000e-009,1.18749869e-004
,,,5.05000000e-009,1.09374868e-004
,,,5.07500000e-009,9.99998674e-005
,,,5.10000000e-009,9.14061168e-005
,,,5.12500000e-009,8.59373664e-005
,,,5.15000000e-009,8.43748663e-005
,,,5.17500000e-009,8.59373664e-005
,,,5.20000000e-009,8.98436167e-005
,,,5.22500000e-009,9.45311170e-005
,,,5.25000000e-009,9.84373673e-005
,,,5.27500000e-009,9.99998674e-005
,,,5.30000000e-009,9.53123670e-005
,,,5.32500000e-009,8.51561163e-005
,,,5.35000000e-009,6.79686151e-005
,,,5.37500000e-009,4.45311135e-005
,,,5.40000000e-009,1.48436114e-005
,,,5.42500000e-009,-2.03126411e-005
,,,5.45000000e-009,-5.93751439e-005
,,,5.47500000e-009,-1.00000147e-004
,,,5.50000000e-009,-1.38281399e-004
,,,5.52500000e-009,-1.72656402e-004
,,,5.55000000e-009,-1.97656404e-004
,,,5.57500000e-009,-2.10937655e-004
,,,5.60000000e-009,-2.08593904e-004
,,,5.62500000e-009,-1.89843903e-004
,,,5.65000000e-009,-1.53125151e-004
,,,5.67500000e-009,-1.00000147e-004
,,,5.70000000e-009,-3.35938921e-005
,,,5.72500000e-009,4.06248632e-005
,,,5.75000000e-009,1.16406119e-004
,,,5.77500000e-009,1.87499874e-004
,,,5.80000000e-009,2.46874878e-004
,,,5.82500000e-009,2.88281131e-004
,,,5.85000000e-009,3.07031132e-004
,,,5.87500000e-009,2.99999882e-004
,,,5.90000000e-009,2.64843629e-004
,,,5.92500000e-009,2.06249875e-004
