RawData/DifferentLengths/R4/R4_12pt5_5mV/wave000_Ch3.csv

"Record Length",1000,"Points",-7.72500000e-009,-1.92192345e-005
"Sample Interval",2.50000000e-011,s,-7.70000000e-009,-3.18754846e-005
"Trigger Point",309,"Samples",-7.67500000e-009,-4.68754847e-005
"Trigger Time",1.51837931e-011,s,-7.65000000e-009,-6.37504848e-005
"",,,-7.62500000e-009,-8.20317350e-005
"Horizontal Offset",-7.72500000e-009,s,-7.60000000e-009,-1.00781735e-004
,,,-7.57500000e-009,-1.20000485e-004
,,,-7.55000000e-009,-1.38281735e-004
,,,-7.52500000e-009,-1.55625486e-004
,,,-7.50000000e-009,-1.72500486e-004
,,,-7.47500000e-009,-1.88437986e-004
,,,-7.45000000e-009,-2.03437986e-004
,,,-7.42500000e-009,-2.16562986e-004
,,,-7.40000000e-009,-2.28750486e-004
,,,-7.37500000e-009,-2.40000486e-004
,,,-7.35000000e-009,-2.50312986e-004
,,,-7.32500000e-009,-2.60625487e-004
,,,-7.30000000e-009,-2.71875487e-004
,,,-7.27500000e-009,-2.85000487e-004
,,,-7.25000000e-009,-3.00469237e-004
,,,-7.22500000e-009,-3.18281737e-004
,,,-7.20000000e-009,-3.37969237e-004
,,,-7.17500000e-009,-3.60000487e-004
,,,-7.15000000e-009,-3.81562988e-004
,,,-7.12500000e-009,-4.03125488e-004
,,,-7.10000000e-009,-4.24687988e-004
,,,-7.07500000e-009,-4.44375488e-004
,,,-7.05000000e-009,-4.60781738e-004
,,,-7.02500000e-009,-4.72969238e-004
,,,-7.00000000e-009,-4.80000488e-004
,,,-6.97500000e-009,-4.80000488e-004
,,,-6.95000000e-009,-4.70156738e-004
,,,-6.92500000e-009,-4.53281738e-004
,,,-6.90000000e-009,-4.29375488e-004
,,,-6.87500000e-009,-3.99375488e-004
,,,-6.85000000e-009,-3.63750487e-004
,,,-6.82500000e-009,-3.24375487e-004
,,,-6.80000000e-009,-2.82656737e-004
,,,-6.77500000e-009,-2.40000486e-004
,,,-6.75000000e-009,-1.98750486e-004
,,,-6.72500000e-009,-1.61719236e-004
,,,-6.70000000e-009,-1.31250485e-004
,,,-6.67500000e-009,-1.09219235e-004
,,,-6.65000000e-009,-9.65629851e-005
,,,-6.62500000e-009,-9.42192351e-005
,,,-6.60000000e-009,-1.02187985e-004
,,,-6.57500000e-009,-1.20000485e-004
,,,-6.55000000e-009,-1.47187986e-004
,,,-6.52500000e-009,-1.80469236e-004
,,,-6.50000000e-009,-2.17500486e-004
,,,-6.47500000e-009,-2.55000487e-004
,,,-6.45000000e-009,-2.90625487e-004
,,,-6.42500000e-009,-3.21562987e-004
,,,-6.40000000e-009,-3.45000487e-004
,,,-6.37500000e-009,-3.60000487e-004
,,,-6.35000000e-009,-3.65156737e-004
,,,-6.32500000e-009,-3.61406737e-004
,,,-6.30000000e-009,-3.49219237e-004
,,,-6.27500000e-009,-3.30937987e-004
,,,-6.25000000e-009,-3.08437987e-004
,,,-6.22500000e-009,-2.84531737e-004
,,,-6.20000000e-009,-2.61094237e-004
,,,-6.17500000e-009,-2.40000486e-004
,,,-6.15000000e-009,-2.25000486e-004
,,,-6.12500000e-009,-2.14687986e-004
,,,-6.10000000e-009,-2.10000486e-004
,,,-6.07500000e-009,-2.10469236e-004
,,,-6.05000000e-009,-2.15156736e-004
,,,-6.02500000e-009,-2.22187986e-004
,,,-6.00000000e-009,-2.31094236e-004
,,,-5.97500000e-009,-2.40000486e-004
,,,-5.95000000e-009,-2.48906736e-004
,,,-5.92500000e-009,-2.55469237e-004
,,,-5.90000000e-009,-2.59219237e-004
,,,-5.87500000e-009,-2.59687987e-004
,,,-5.85000000e-009,-2.57344237e-004
,,,-5.82500000e-009,-2.53125486e-004
,,,-5.80000000e-009,-2.47031736e-004
,,,-5.77500000e-009,-2.40000486e-004
,,,-5.75000000e-009,-2.34375486e-004
,,,-5.72500000e-009,-2.29219236e-004
,,,-5.70000000e-009,-2.25469236e-004
,,,-5.67500000e-009,-2.24062986e-004
,,,-5.65000000e-009,-2.24531736e-004
,,,-5.62500000e-009,-2.27344236e-004
,,,-5.60000000e-009,-2.32500486e-004
,,,-5.57500000e-009,-2.40000486e-004
,,,-5.55000000e-009,-2.50312986e-004
,,,-5.52500000e-009,-2.62500487e-004
,,,-5.50000000e-009,-2.76562987e-004
,,,-5.47500000e-009,-2.92500487e-004
,,,-5.45000000e-009,-3.09375487e-004
,,,-5.42500000e-009,-3.26719237e-004
,,,-5.40000000e-009,-3.44062987e-004
,,,-5.37500000e-009,-3.60000487e-004
,,,-5.35000000e-009,-3.74062988e-004
,,,-5.32500000e-009,-3.84375488e-004
,,,-5.30000000e-009,-3.91406738e-004
,,,-5.27500000e-009,-3.94219238e-004
,,,-5.25000000e-009,-3.92344238e-004
,,,-5.22500000e-009,-3.85781738e-004
,,,-5.20000000e-009,-3.75000488e-004
,,,-5.17500000e-009,-3.60000487e-004
,,,-5.15000000e-009,-3.40781737e-004
,,,-5.12500000e-009,-3.20156737e-004
,,,-5.10000000e-009,-2.99062987e-004
,,,-5.07500000e-009,-2.79375487e-004
,,,-5.05000000e-009,-2.62500487e-004
,,,-5.02500000e-009,-2.49375486e-004
,,,-5.00000000e-009,-2.41875486e-004
,,,-4.97500000e-009,-2.40000486e-004
,,,-4.95000000e-009,-2.43750486e-004
,,,-4.92500000e-009,-2.52656736e-004
,,,-4.90000000e-009,-2.66719237e-004
,,,-4.87500000e-009,-2.83594237e-004
,,,-4.85000000e-009,-3.03281737e-004
,,,-4.82500000e-009,-3.23437987e-004
,,,-4.80000000e-009,-3.42656737e-004
,,,-4.77500000e-009,-3.60000487e-004
,,,-4.75000000e-009,-3.74062988e-004
,,,-4.72500000e-009,-3.83906738e-004
,,,-4.70000000e-009,-3.89531738e-004
,,,-4.67500000e-009,-3.90937988e-004
,,,-4.65000000e-009,-3.88125488e-004
,,,-4.62500000e-009,-3.82031738e-004
,,,-4.60000000e-009,-3.72187988e-004
,,,-4.57500000e-009,-3.60000487e-004
,,,-4.55000000e-009,-3.45937987e-004
,,,-4.52500000e-009,-3.30937987e-004
,,,-4.50000000e-009,-3.15000487e-004
,,,-4.47500000e-009,-2.99531737e-004
,,,-4.45000000e-009,-2.84531737e-004
,,,-4.42500000e-009,-2.69531737e-004
,,,-4.40000000e-009,-2.54531737e-004
,,,-4.37500000e-009,-2.40000486e-004
,,,-4.35000000e-009,-2.26875486e-004
,,,-4.32500000e-009,-2.13281736e-004
,,,-4.30000000e-009,-1.99687986e-004
,,,-4.27500000e-009,-1.85156736e-004
,,,-4.25000000e-009,-1.69687986e-004
,,,-4.22500000e-009,-1.53281736e-004
,,,-4.20000000e-009,-1.36875485e-004
,,,-4.17500000e-009,-1.20000485e-004
,,,-4.15000000e-009,-1.06406735e-004
,,,-4.12500000e-009,-9.42192351e-005
,,,-4.10000000e-009,-8.53129850e-005
,,,-4.07500000e-009,-8.06254850e-005
,,,-4.05000000e-009,-8.06254850e-005
,,,-4.02500000e-009,-8.71879850e-005
,,,-4.00000000e-009,-1.00312985e-004
,,,-3.97500000e-009,-1.20000485e-004
,,,-3.95000000e-009,-1.46250486e-004
,,,-3.92500000e-009,-1.77187986e-004
,,,-3.90000000e-009,-2.10469236e-004
,,,-3.87500000e-009,-2.45625486e-004
,,,-3.85000000e-009,-2.79375487e-004
,,,-3.82500000e-009,-3.10781737e-004
,,,-3.80000000e-009,-3.38437987e-004
,,,-3.77500000e-009,-3.60000487e-004
,,,-3.75000000e-009,-3.75469238e-004
,,,-3.72500000e-009,-3.84375488e-004
,,,-3.70000000e-009,-3.87187988e-004
,,,-3.67500000e-009,-3.85781738e-004
,,,-3.65000000e-009,-3.80625488e-004
,,,-3.62500000e-009,-3.74062988e-004
,,,-3.60000000e-009,-3.66562987e-004
,,,-3.57500000e-009,-3.60000487e-004
,,,-3.55000000e-009,-3.54844237e-004
,,,-3.52500000e-009,-3.52031737e-004
,,,-3.50000000e-009,-3.51094237e-004
,,,-3.47500000e-009,-3.52500487e-004
,,,-3.45000000e-009,-3.54844237e-004
,,,-3.42500000e-009,-3.57656737e-004
,,,-3.40000000e-009,-3.59531737e-004
,,,-3.37500000e-009,-3.60000487e-004
,,,-3.35000000e-009,-3.57656737e-004
,,,-3.32500000e-009,-3.52031737e-004
,,,-3.30000000e-009,-3.42187987e-004
,,,-3.27500000e-009,-3.29062987e-004
,,,-3.25000000e-009,-3.11719237e-004
,,,-3.22500000e-009,-2.90625487e-004
,,,-3.20000000e-009,-2.66250487e-004
,,,-3.17500000e-009,-2.40000486e-004
,,,-3.15000000e-009,-2.12812986e-004
,,,-3.12500000e-009,-1.86562986e-004
,,,-3.10000000e-009,-1.62656736e-004
,,,-3.07500000e-009,-1.42969236e-004
,,,-3.05000000e-009,-1.27969235e-004
,,,-3.02500000e-009,-1.19062985e-004
,,,-3.00000000e-009,-1.16250485e-004
,,,-2.97500000e-009,-1.20000485e-004
,,,-2.95000000e-009,-1.31250485e-004
,,,-2.92500000e-009,-1.46719236e-004
,,,-2.90000000e-009,-1.65000486e-004
,,,-2.87500000e-009,-1.85156736e-004
,,,-2.85000000e-009,-2.03906736e-004
,,,-2.82500000e-009,-2.20312986e-004
,,,-2.80000000e-009,-2.32500486e-004
,,,-2.77500000e-009,-2.40000486e-004
,,,-2.75000000e-009,-2.43281736e-004
,,,-2.72500000e-009,-2.42344236e-004
,,,-2.70000000e-009,-2.38125486e-004
,,,-2.67500000e-009,-2.32969236e-004
,,,-2.65000000e-009,-2.29219236e-004
,,,-2.62500000e-009,-2.27812986e-004
,,,-2.60000000e-009,-2.31562986e-004
,,,-2.57500000e-009,-2.40000486e-004
,,,-2.55000000e-009,-2.55000487e-004
,,,-2.52500000e-009,-2.73750487e-004
,,,-2.50000000e-009,-2.94844237e-004
,,,-2.47500000e-009,-3.16406737e-004
,,,-2.45000000e-009,-3.36094237e-004
,,,-2.42500000e-009,-3.50625487e-004
,,,-2.40000000e-009,-3.59062987e-004
,,,-2.37500000e-009,-3.60000487e-004
,,,-2.35000000e-009,-3.52969237e-004
,,,-2.32500000e-009,-3.38437987e-004
,,,-2.30000000e-009,-3.19219237e-004
,,,-2.27500000e-009,-2.97656737e-004
,,,-2.25000000e-009,-2.76094237e-004
,,,-2.22500000e-009,-2.58281737e-004
,,,-2.20000000e-009,-2.45625486e-004
,,,-2.17500000e-009,-2.40000486e-004
,,,-2.15000000e-009,-2.43750486e-004
,,,-2.12500000e-009,-2.54531737e-004
,,,-2.10000000e-009,-2.71875487e-004
,,,-2.07500000e-009,-2.92969237e-004
,,,-2.05000000e-009,-3.15000487e-004
,,,-2.02500000e-009,-3.35156737e-004
,,,-2.00000000e-009,-3.51094237e-004
,,,-1.97500000e-009,-3.60000487e-004
,,,-1.95000000e-009,-3.62344237e-004
,,,-1.92500000e-009,-3.57187987e-004
,,,-1.90000000e-009,-3.45469237e-004
,,,-1.87500000e-009,-3.27656737e-004
,,,-1.85000000e-009,-3.06562987e-004
,,,-1.82500000e-009,-2.83594237e-004
,,,-1.80000000e-009,-2.60625487e-004
,,,-1.77500000e-009,-2.40000486e-004
,,,-1.75000000e-009,-2.28281736e-004
,,,-1.72500000e-009,-2.21250486e-004
,,,-1.70000000e-009,-2.19844236e-004
,,,-1.67500000e-009,-2.21719236e-004
,,,-1.65000000e-009,-2.26406736e-004
,,,-1.62500000e-009,-2.32031736e-004
,,,-1.60000000e-009,-2.37187986e-004
,,,-1.57500000e-009,-2.40000486e-004
,,,-1.55000000e-009,-2.50312986e-004
,,,-1.52500000e-009,-2.58281737e-004
,,,-1.50000000e-009,-2.63437987e-004
,,,-1.47500000e-009,-2.65312987e-004
,,,-1.45000000e-009,-2.63906737e-004
,,,-1.42500000e-009,-2.58281737e-004
,,,-1.40000000e-009,-2.50312986e-004
,,,-1.37500000e-009,-2.40000486e-004
,,,-1.35000000e-009,-2.45156736e-004
,,,-1.32500000e-009,-2.53594236e-004
,,,-1.30000000e-009,-2.64844237e-004
,,,-1.27500000e-009,-2.79375487e-004
,,,-1.25000000e-009,-2.96719237e-004
,,,-1.22500000e-009,-3.15937987e-004
,,,-1.20000000e-009,-3.37031737e-004
,,,-1.17500000e-009,-3.60000487e-004
,,,-1.15000000e-009,-4.04062988e-004
,,,-1.12500000e-009,-4.51875488e-004
,,,-1.10000000e-009,-5.02031739e-004
,,,-1.07500000e-009,-5.52656739e-004
,,,-1.05000000e-009,-6.00469240e-004
,,,-1.02500000e-009,-6.45000490e-004
,,,-1.00000000e-009,-6.84844240e-004
,,,-9.75000000e-010,-7.20000491e-004
,,,-9.50000000e-010,-7.72500491e-004
,,,-9.25000000e-010,-8.25469241e-004
,,,-9.00000000e-010,-8.80781742e-004
,,,-8.75000000e-010,-9.37500492e-004
,,,-8.50000000e-010,-9.97500493e-004
,,,-8.25000000e-010,-1.06031299e-003
,,,-8.00000000e-010,-1.12734424e-003
,,,-7.75000000e-010,-1.20000049e-003
,,,-7.50000000e-010,-1.29796925e-003
,,,-7.25000000e-010,-1.40578175e-003
,,,-7.00000000e-010,-1.52296925e-003
,,,-6.75000000e-010,-1.64671925e-003
,,,-6.50000000e-010,-1.77468800e-003
,,,-6.25000000e-010,-1.90406300e-003
,,,-6.00000000e-010,-2.03296925e-003
,,,-5.75000000e-010,-2.16000050e-003
,,,-5.50000000e-010,-2.29359425e-003
,,,-5.25000000e-010,-2.42812551e-003
,,,-5.00000000e-010,-2.56312551e-003
,,,-4.75000000e-010,-2.69859426e-003
,,,-4.50000000e-010,-2.83359426e-003
,,,-4.25000000e-010,-2.96906301e-003
,,,-4.00000000e-010,-3.10453176e-003
,,,-3.75000000e-010,-3.24000051e-003
,,,-3.50000000e-010,-3.37312551e-003
,,,-3.25000000e-010,-3.50953176e-003
,,,-3.00000000e-010,-3.64828177e-003
,,,-2.75000000e-010,-3.78750052e-003
,,,-2.50000000e-010,-3.92671927e-003
,,,-2.25000000e-010,-4.06265677e-003
,,,-2.00000000e-010,-4.19437552e-003
,,,-1.75000000e-010,-4.32000052e-003
,,,-1.50000000e-010,-4.42453177e-003
,,,-1.25000000e-010,-4.52671927e-003
,,,-1.00000000e-010,-4.62843802e-003
,,,-7.50000000e-011,-4.73109428e-003
,,,-5.00000000e-011,-4.83515678e-003
,,,-2.50000000e-011,-4.94156303e-003
,,,0.00000000e+000,-5.05031303e-003
,,,2.50000000e-011,-5.16000053e-003
,,,5.00000000e-011,-5.24437553e-003
,,,7.50000000e-011,-5.32968803e-003
,,,1.00000000e-010,-5.41500053e-003
,,,1.25000000e-010,-5.49843803e-003
,,,1.50000000e-010,-5.57718803e-003
,,,1.75000000e-010,-5.64937553e-003
,,,2.00000000e-010,-5.71078178e-003
,,,2.25000000e-010,-5.76000053e-003
,,,2.50000000e-010,-5.76328178e-003
,,,2.75000000e-010,-5.75625053e-003
,,,3.00000000e-010,-5.74125053e-003
,,,3.25000000e-010,-5.72203178e-003
,,,3.50000000e-010,-5.70046928e-003
,,,3.75000000e-010,-5.67890678e-003
,,,4.00000000e-010,-5.65875053e-003
,,,4.25000000e-010,-5.64000053e-003
,,,4.50000000e-010,-5.59171928e-003
,,,4.75000000e-010,-5.54625053e-003
,,,5.00000000e-010,-5.50359428e-003
,,,5.25000000e-010,-5.46281303e-003
,,,5.50000000e-010,-5.42203178e-003
,,,5.75000000e-010,-5.38031303e-003
,,,6.00000000e-010,-5.33343803e-003
,,,6.25000000e-010,-5.28000053e-003
,,,6.50000000e-010,-5.19093803e-003
,,,6.75000000e-010,-5.09296928e-003
,,,7.00000000e-010,-4.98796928e-003
,,,7.25000000e-010,-4.87828178e-003
,,,7.50000000e-010,-4.76671928e-003
,,,7.75000000e-010,-4.65515677e-003
,,,8.00000000e-010,-4.54593802e-003
,,,8.25000000e-010,-4.44000052e-003
,,,8.50000000e-010,-4.32093802e-003
,,,8.75000000e-010,-4.20468802e-003
,,,9.00000000e-010,-4.09265677e-003
,,,9.25000000e-010,-3.98578177e-003
,,,9.50000000e-010,-3.88359427e-003
,,,9.75000000e-010,-3.78609427e-003
,,,1.00000000e-009,-3.69187552e-003
,,,1.02500000e-009,-3.60000052e-003
,,,1.05000000e-009,-3.50062551e-003
,,,1.07500000e-009,-3.39796926e-003
,,,1.10000000e-009,-3.29296926e-003
,,,1.12500000e-009,-3.18609426e-003
,,,1.15000000e-009,-3.07781301e-003
,,,1.17500000e-009,-2.97046926e-003
,,,1.20000000e-009,-2.86453176e-003
,,,1.22500000e-009,-2.76000051e-003
,,,1.25000000e-009,-2.65734426e-003
,,,1.27500000e-009,-2.55187551e-003
,,,1.30000000e-009,-2.44500051e-003
,,,1.32500000e-009,-2.33718800e-003
,,,1.35000000e-009,-2.22984425e-003
,,,1.37500000e-009,-2.12390675e-003
,,,1.40000000e-009,-2.02078175e-003
,,,1.42500000e-009,-1.92000050e-003
,,,1.45000000e-009,-1.82953175e-003
,,,1.47500000e-009,-1.73812550e-003
,,,1.50000000e-009,-1.64531300e-003
,,,1.52500000e-009,-1.55203175e-003
,,,1.55000000e-009,-1.46015675e-003
,,,1.57500000e-009,-1.36968800e-003
,,,1.60000000e-009,-1.28296925e-003
,,,1.62500000e-009,-1.20000049e-003
,,,1.65000000e-009,-1.13625049e-003
,,,1.67500000e-009,-1.07296924e-003
,,,1.70000000e-009,-1.01015674e-003
,,,1.72500000e-009,-9.48281743e-004
,,,1.75000000e-009,-8.87812992e-004
,,,1.77500000e-009,-8.29219241e-004
,,,1.80000000e-009,-7.72969241e-004
,,,1.82500000e-009,-7.20000491e-004
,,,1.85000000e-009,-6.84844240e-004
,,,1.87500000e-009,-6.47812990e-004
,,,1.90000000e-009,-6.07969240e-004
,,,1.92500000e-009,-5.64844239e-004
,,,1.95000000e-009,-5.17969239e-004
,,,1.97500000e-009,-4.67812988e-004
,,,2.00000000e-009,-4.14844238e-004
,,,2.02500000e-009,-3.60000487e-004
,,,2.05000000e-009,-3.19219237e-004
,,,2.07500000e-009,-2.75156737e-004
,,,2.10000000e-009,-2.28281736e-004
,,,2.12500000e-009,-1.79062986e-004
,,,2.15000000e-009,-1.29844235e-004
,,,2.17500000e-009,-8.20317350e-005
,,,2.20000000e-009,-3.79692346e-005
,,,2.22500000e-009,-4.84287738e-010
,,,2.25000000e-009,1.45307658e-005
,,,2.27500000e-009,2.15620159e-005
,,,2.30000000e-009,2.10932659e-005
,,,2.32500000e-009,1.17182658e-005
,,,2.35000000e-009,-7.03173435e-006
,,,2.37500000e-009,-3.51567346e-005
,,,2.40000000e-009,-7.31254849e-005
,,,2.42500000e-009,-1.20000485e-004
,,,2.45000000e-009,-1.85156736e-004
,,,2.47500000e-009,-2.53594236e-004
,,,2.50000000e-009,-3.22500487e-004
,,,2.52500000e-009,-3.89531738e-004
,,,2.55000000e-009,-4.52344238e-004
,,,2.57500000e-009,-5.09531739e-004
,,,2.60000000e-009,-5.58750489e-004
,,,2.62500000e-009,-6.00000490e-004
,,,2.65000000e-009,-6.35156740e-004
,,,2.67500000e-009,-6.60937990e-004
,,,2.70000000e-009,-6.78750490e-004
,,,2.72500000e-009,-6.90469240e-004
,,,2.75000000e-009,-6.98437990e-004
,,,2.77500000e-009,-7.04531740e-004
,,,2.80000000e-009,-7.11562990e-004
,,,2.82500000e-009,-7.20000491e-004
,,,2.85000000e-009,-7.31250491e-004
,,,2.87500000e-009,-7.45312991e-004
,,,2.90000000e-009,-7.61719241e-004
,,,2.92500000e-009,-7.79531741e-004
,,,2.95000000e-009,-7.97344241e-004
,,,2.97500000e-009,-8.14687991e-004
,,,3.00000000e-009,-8.29219241e-004
,,,3.02500000e-009,-8.40000492e-004
,,,3.05000000e-009,-8.43281742e-004
,,,3.07500000e-009,-8.43281742e-004
,,,3.10000000e-009,-8.40469242e-004
,,,3.12500000e-009,-8.37187992e-004
,,,3.15000000e-009,-8.33906742e-004
,,,3.17500000e-009,-8.32969242e-004
,,,3.20000000e-009,-8.34844242e-004
,,,3.22500000e-009,-8.40000492e-004
,,,3.25000000e-009,-8.42344242e-004
,,,3.27500000e-009,-8.47031742e-004
,,,3.30000000e-009,-8.53125492e-004
,,,3.32500000e-009,-8.59219242e-004
,,,3.35000000e-009,-8.62500492e-004
,,,3.37500000e-009,-8.61562992e-004
,,,3.40000000e-009,-8.54531742e-004
,,,3.42500000e-009,-8.40000492e-004
,,,3.45000000e-009,-8.14687991e-004
,,,3.47500000e-009,-7.83281741e-004
,,,3.50000000e-009,-7.49062991e-004
,,,3.52500000e-009,-7.12969240e-004
,,,3.55000000e-009,-6.77812990e-004
,,,3.57500000e-009,-6.46406740e-004
,,,3.60000000e-009,-6.20156740e-004
,,,3.62500000e-009,-6.00000490e-004
,,,3.65000000e-009,-5.85937989e-004
,,,3.67500000e-009,-5.78906739e-004
,,,3.70000000e-009,-5.77969239e-004
,,,3.72500000e-009,-5.81719239e-004
,,,3.75000000e-009,-5.88281739e-004
,,,3.77500000e-009,-5.94844239e-004
,,,3.80000000e-009,-5.99531739e-004
,,,3.82500000e-009,-6.00000490e-004
,,,3.85000000e-009,-5.94375489e-004
,,,3.87500000e-009,-5.80781739e-004
,,,3.90000000e-009,-5.59687989e-004
,,,3.92500000e-009,-5.30625489e-004
,,,3.95000000e-009,-4.94531739e-004
,,,3.97500000e-009,-4.52812988e-004
,,,4.00000000e-009,-4.07344238e-004
,,,4.02500000e-009,-3.60000487e-004
,,,4.05000000e-009,-3.17344237e-004
,,,4.07500000e-009,-2.78437987e-004
,,,4.10000000e-009,-2.46562986e-004
,,,4.12500000e-009,-2.23125486e-004
,,,4.15000000e-009,-2.10000486e-004
,,,4.17500000e-009,-2.08594236e-004
,,,4.20000000e-009,-2.18906736e-004
,,,4.22500000e-009,-2.40000486e-004
,,,4.25000000e-009,-2.74687987e-004
,,,4.27500000e-009,-3.14531737e-004
,,,4.30000000e-009,-3.56719237e-004
,,,4.32500000e-009,-3.97500488e-004
,,,4.35000000e-009,-4.33125488e-004
,,,4.37500000e-009,-4.60312988e-004
,,,4.40000000e-009,-4.76719238e-004
,,,4.42500000e-009,-4.80000488e-004
,,,4.45000000e-009,-4.72969238e-004
,,,4.47500000e-009,-4.52812988e-004
,,,4.50000000e-009,-4.22812988e-004
,,,4.52500000e-009,-3.85781738e-004
,,,4.55000000e-009,-3.45469237e-004
,,,4.57500000e-009,-3.05156737e-004
,,,4.60000000e-009,-2.69062987e-004
,,,4.62500000e-009,-2.40000486e-004
,,,4.65000000e-009,-2.24531736e-004
,,,4.67500000e-009,-2.19844236e-004
,,,4.70000000e-009,-2.25937986e-004
,,,4.72500000e-009,-2.41875486e-004
,,,4.75000000e-009,-2.65781737e-004
,,,4.77500000e-009,-2.94844237e-004
,,,4.80000000e-009,-3.27187987e-004
,,,4.82500000e-009,-3.60000487e-004
,,,4.85000000e-009,-3.93281738e-004
,,,4.87500000e-009,-4.22344238e-004
,,,4.90000000e-009,-4.45781738e-004
,,,4.92500000e-009,-4.63125488e-004
,,,4.95000000e-009,-4.74844238e-004
,,,4.97500000e-009,-4.80937988e-004
,,,5.00000000e-009,-4.82344238e-004
,,,5.02500000e-009,-4.80000488e-004
,,,5.05000000e-009,-4.74844238e-004
,,,5.07500000e-009,-4.68750488e-004
,,,5.10000000e-009,-4.63125488e-004
,,,5.12500000e-009,-4.59844238e-004
,,,5.15000000e-009,-4.59375488e-004
,,,5.17500000e-009,-4.62187988e-004
,,,5.20000000e-009,-4.69219238e-004
,,,5.22500000e-009,-4.80000488e-004
,,,5.25000000e-009,-4.93125489e-004
,,,5.27500000e-009,-5.09062989e-004
,,,5.30000000e-009,-5.26406739e-004
,,,5.32500000e-009,-5.44687989e-004
,,,5.35000000e-009,-5.62031739e-004
,,,5.37500000e-009,-5.77969239e-004
,,,5.40000000e-009,-5.90625489e-004
,,,5.42500000e-009,-6.00000490e-004
,,,5.45000000e-009,-6.03750490e-004
,,,5.47500000e-009,-6.04219240e-004
,,,5.50000000e-009,-6.01875490e-004
,,,5.52500000e-009,-5.98594239e-004
,,,5.55000000e-009,-5.95781739e-004
,,,5.57500000e-009,-5.94375489e-004
,,,5.60000000e-009,-5.95781739e-004
,,,5.62500000e-009,-6.00000490e-004
,,,5.65000000e-009,-6.02812990e-004
,,,5.67500000e-009,-6.07500490e-004
,,,5.70000000e-009,-6.13125490e-004
,,,5.72500000e-009,-6.18281740e-004
,,,5.75000000e-009,-6.20625490e-004
,,,5.77500000e-009,-6.19687990e-004
,,,5.80000000e-009,-6.13125490e-004
