RawData/SinglePhotoelectron/L5_2pt2A_5mV/wave005_Ch1.csv

"Record Length",1000,"Points",-7.72500000e-009,-9.84368396e-005
"Sample Interval",2.50000000e-011,s,-7.70000000e-009,-1.20936840e-004
"Trigger Point",309,"Samples",-7.67500000e-009,-1.42968090e-004
"Trigger Time",8.34944606e-012,s,-7.65000000e-009,-1.61718090e-004
"",,,-7.62500000e-009,-1.74843090e-004
"Horizontal Offset",-7.72500000e-009,s,-7.60000000e-009,-1.79999340e-004
,,,-7.57500000e-009,-1.76249340e-004
,,,-7.55000000e-009,-1.64061840e-004
,,,-7.52500000e-009,-1.46249340e-004
,,,-7.50000000e-009,-1.24686840e-004
,,,-7.47500000e-009,-1.02655590e-004
,,,-7.45000000e-009,-8.29680895e-005
,,,-7.42500000e-009,-6.79680894e-005
,,,-7.40000000e-009,-5.99993393e-005
,,,-7.37500000e-009,-6.04680893e-005
,,,-7.35000000e-009,-6.89055894e-005
,,,-7.32500000e-009,-8.39055895e-005
,,,-7.30000000e-009,-1.04061840e-004
,,,-7.27500000e-009,-1.26093090e-004
,,,-7.25000000e-009,-1.48124340e-004
,,,-7.22500000e-009,-1.66874340e-004
,,,-7.20000000e-009,-1.79999340e-004
,,,-7.17500000e-009,-1.85624340e-004
,,,-7.15000000e-009,-1.82811840e-004
,,,-7.12500000e-009,-1.72968090e-004
,,,-7.10000000e-009,-1.56093090e-004
,,,-7.07500000e-009,-1.34530590e-004
,,,-7.05000000e-009,-1.09686840e-004
,,,-7.02500000e-009,-8.43743395e-005
,,,-7.00000000e-009,-5.99993393e-005
,,,-6.97500000e-009,-3.98430891e-005
,,,-6.95000000e-009,-2.48430890e-005
,,,-6.92500000e-009,-1.54680889e-005
,,,-6.90000000e-009,-1.26555889e-005
,,,-6.87500000e-009,-1.64055889e-005
,,,-6.85000000e-009,-2.57805890e-005
,,,-6.82500000e-009,-4.07805891e-005
,,,-6.80000000e-009,-5.99993393e-005
,,,-6.77500000e-009,-8.15618395e-005
,,,-6.75000000e-009,-1.03593090e-004
,,,-6.72500000e-009,-1.25155590e-004
,,,-6.70000000e-009,-1.44374340e-004
,,,-6.67500000e-009,-1.60311840e-004
,,,-6.65000000e-009,-1.72030590e-004
,,,-6.62500000e-009,-1.79061840e-004
,,,-6.60000000e-009,-1.79999340e-004
,,,-6.57500000e-009,-1.74843090e-004
,,,-6.55000000e-009,-1.64530590e-004
,,,-6.52500000e-009,-1.49999340e-004
,,,-6.50000000e-009,-1.32655590e-004
,,,-6.47500000e-009,-1.13436840e-004
,,,-6.45000000e-009,-9.42180896e-005
,,,-6.42500000e-009,-7.59368394e-005
,,,-6.40000000e-009,-5.99993393e-005
,,,-6.37500000e-009,-4.78118392e-005
,,,-6.35000000e-009,-3.98430891e-005
,,,-6.32500000e-009,-3.56243391e-005
,,,-6.30000000e-009,-3.56243391e-005
,,,-6.27500000e-009,-3.89055891e-005
,,,-6.25000000e-009,-4.45305891e-005
,,,-6.22500000e-009,-5.20305892e-005
,,,-6.20000000e-009,-5.99993393e-005
,,,-6.17500000e-009,-7.03118394e-005
,,,-6.15000000e-009,-7.87493394e-005
,,,-6.12500000e-009,-8.48430895e-005
,,,-6.10000000e-009,-8.76555895e-005
,,,-6.07500000e-009,-8.71868395e-005
,,,-6.05000000e-009,-8.20305895e-005
,,,-6.02500000e-009,-7.31243394e-005
,,,-6.00000000e-009,-5.99993393e-005
,,,-5.97500000e-009,-4.49993392e-005
,,,-5.95000000e-009,-2.76555890e-005
,,,-5.92500000e-009,-9.37433884e-006
,,,-5.90000000e-009,8.90691132e-006
,,,-5.87500000e-009,2.57819115e-005
,,,-5.85000000e-009,3.98444116e-005
,,,-5.82500000e-009,5.15631617e-005
,,,-5.80000000e-009,6.00006618e-005
,,,-5.77500000e-009,6.23444118e-005
,,,-5.75000000e-009,6.23444118e-005
,,,-5.72500000e-009,6.00006618e-005
,,,-5.70000000e-009,5.76569117e-005
,,,-5.67500000e-009,5.53131617e-005
,,,-5.65000000e-009,5.48444117e-005
,,,-5.62500000e-009,5.67194117e-005
,,,-5.60000000e-009,6.00006618e-005
,,,-5.57500000e-009,6.28131618e-005
,,,-5.55000000e-009,6.51569118e-005
,,,-5.52500000e-009,6.46881618e-005
,,,-5.50000000e-009,5.85944117e-005
,,,-5.47500000e-009,4.45319116e-005
,,,-5.45000000e-009,2.06256614e-005
,,,-5.42500000e-009,-1.40618389e-005
,,,-5.40000000e-009,-5.99993393e-005
,,,-5.37500000e-009,-1.15311840e-004
,,,-5.35000000e-009,-1.75780590e-004
,,,-5.32500000e-009,-2.38124341e-004
,,,-5.30000000e-009,-2.97655591e-004
,,,-5.27500000e-009,-3.49218092e-004
,,,-5.25000000e-009,-3.88593092e-004
,,,-5.22500000e-009,-4.12968092e-004
,,,-5.20000000e-009,-4.19999342e-004
,,,-5.17500000e-009,-4.07343092e-004
,,,-5.15000000e-009,-3.80155592e-004
,,,-5.12500000e-009,-3.42186842e-004
,,,-5.10000000e-009,-2.99530591e-004
,,,-5.07500000e-009,-2.56874341e-004
,,,-5.05000000e-009,-2.20311841e-004
,,,-5.02500000e-009,-1.93593090e-004
,,,-5.00000000e-009,-1.79999340e-004
,,,-4.97500000e-009,-1.79530590e-004
,,,-4.95000000e-009,-1.91249340e-004
,,,-4.92500000e-009,-2.13280591e-004
,,,-4.90000000e-009,-2.40468091e-004
,,,-4.87500000e-009,-2.68124341e-004
,,,-4.85000000e-009,-2.90155591e-004
,,,-4.82500000e-009,-3.01874341e-004
,,,-4.80000000e-009,-2.99999341e-004
,,,-4.77500000e-009,-2.79374341e-004
,,,-4.75000000e-009,-2.43749341e-004
,,,-4.72500000e-009,-1.96405590e-004
,,,-4.70000000e-009,-1.40624340e-004
,,,-4.67500000e-009,-8.24993395e-005
,,,-4.65000000e-009,-2.62493390e-005
,,,-4.62500000e-009,2.25006614e-005
,,,-4.60000000e-009,6.00006618e-005
,,,-4.57500000e-009,8.43756620e-005
,,,-4.55000000e-009,9.32819120e-005
,,,-4.52500000e-009,8.81256620e-005
,,,-4.50000000e-009,6.98444118e-005
,,,-4.47500000e-009,4.21881616e-005
,,,-4.45000000e-009,8.90691132e-006
,,,-4.42500000e-009,-2.67180890e-005
,,,-4.40000000e-009,-5.99993393e-005
,,,-4.37500000e-009,-8.62493395e-005
,,,-4.35000000e-009,-1.04530590e-004
,,,-4.32500000e-009,-1.13905590e-004
,,,-4.30000000e-009,-1.14843090e-004
,,,-4.27500000e-009,-1.08749340e-004
,,,-4.25000000e-009,-9.60930896e-005
,,,-4.22500000e-009,-7.92180894e-005
,,,-4.20000000e-009,-5.99993393e-005
,,,-4.17500000e-009,-3.98430891e-005
,,,-4.15000000e-009,-1.92180889e-005
,,,-4.12500000e-009,6.61239028e-010
,,,-4.10000000e-009,1.68756614e-005
,,,-4.07500000e-009,3.09381615e-005
,,,-4.05000000e-009,4.26569116e-005
,,,-4.02500000e-009,5.20319117e-005
,,,-4.00000000e-009,6.00006618e-005
,,,-3.97500000e-009,6.65631618e-005
,,,-3.95000000e-009,7.40631619e-005
,,,-3.92500000e-009,8.29694120e-005
,,,-3.90000000e-009,9.46881621e-005
,,,-3.87500000e-009,1.09688162e-004
,,,-3.85000000e-009,1.28906912e-004
,,,-3.82500000e-009,1.52344413e-004
,,,-3.80000000e-009,1.80000663e-004
,,,-3.77500000e-009,2.07656913e-004
,,,-3.75000000e-009,2.39063163e-004
,,,-3.72500000e-009,2.71875664e-004
,,,-3.70000000e-009,3.05156914e-004
,,,-3.67500000e-009,3.38438164e-004
,,,-3.65000000e-009,3.69375664e-004
,,,-3.62500000e-009,3.96563165e-004
,,,-3.60000000e-009,4.20000665e-004
,,,-3.57500000e-009,4.33125665e-004
,,,-3.55000000e-009,4.41094415e-004
,,,-3.52500000e-009,4.43438165e-004
,,,-3.50000000e-009,4.42031915e-004
,,,-3.47500000e-009,4.37813165e-004
,,,-3.45000000e-009,4.31719415e-004
,,,-3.42500000e-009,4.25625665e-004
,,,-3.40000000e-009,4.20000665e-004
,,,-3.37500000e-009,4.11094415e-004
,,,-3.35000000e-009,4.04531915e-004
,,,-3.32500000e-009,4.01250665e-004
,,,-3.30000000e-009,4.01250665e-004
,,,-3.27500000e-009,4.03594415e-004
,,,-3.25000000e-009,4.08281915e-004
,,,-3.22500000e-009,4.13906915e-004
,,,-3.20000000e-009,4.20000665e-004
,,,-3.17500000e-009,4.20000665e-004
,,,-3.15000000e-009,4.17188165e-004
,,,-3.12500000e-009,4.11094415e-004
,,,-3.10000000e-009,4.00781915e-004
,,,-3.07500000e-009,3.84375665e-004
,,,-3.05000000e-009,3.62344414e-004
,,,-3.02500000e-009,3.34219414e-004
,,,-3.00000000e-009,3.00000664e-004
,,,-2.97500000e-009,2.56875663e-004
,,,-2.95000000e-009,2.10000663e-004
,,,-2.92500000e-009,1.60781913e-004
,,,-2.90000000e-009,1.11094412e-004
,,,-2.87500000e-009,6.28131618e-005
,,,-2.85000000e-009,1.73444114e-005
,,,-2.82500000e-009,-2.43743390e-005
,,,-2.80000000e-009,-5.99993393e-005
,,,-2.77500000e-009,-8.99993395e-005
,,,-2.75000000e-009,-1.13436840e-004
,,,-2.72500000e-009,-1.32186840e-004
,,,-2.70000000e-009,-1.46249340e-004
,,,-2.67500000e-009,-1.57030590e-004
,,,-2.65000000e-009,-1.65936840e-004
,,,-2.62500000e-009,-1.73436840e-004
,,,-2.60000000e-009,-1.79999340e-004
,,,-2.57500000e-009,-1.85624340e-004
,,,-2.55000000e-009,-1.91718090e-004
,,,-2.52500000e-009,-1.96874340e-004
,,,-2.50000000e-009,-2.01093091e-004
,,,-2.47500000e-009,-2.02499341e-004
,,,-2.45000000e-009,-2.00155591e-004
,,,-2.42500000e-009,-1.92655590e-004
,,,-2.40000000e-009,-1.79999340e-004
,,,-2.37500000e-009,-1.62186840e-004
,,,-2.35000000e-009,-1.41561840e-004
,,,-2.32500000e-009,-1.19999340e-004
,,,-2.30000000e-009,-9.93743396e-005
,,,-2.27500000e-009,-8.15618395e-005
,,,-2.25000000e-009,-6.84368394e-005
,,,-2.22500000e-009,-6.09368393e-005
,,,-2.20000000e-009,-5.99993393e-005
,,,-2.17500000e-009,-6.65618393e-005
,,,-2.15000000e-009,-7.96868395e-005
,,,-2.12500000e-009,-9.79680896e-005
,,,-2.10000000e-009,-1.19061840e-004
,,,-2.07500000e-009,-1.39686840e-004
,,,-2.05000000e-009,-1.57968090e-004
,,,-2.02500000e-009,-1.72030590e-004
,,,-2.00000000e-009,-1.79999340e-004
,,,-1.97500000e-009,-1.82343090e-004
,,,-1.95000000e-009,-1.79999340e-004
,,,-1.92500000e-009,-1.74843090e-004
,,,-1.90000000e-009,-1.68749340e-004
,,,-1.87500000e-009,-1.64061840e-004
,,,-1.85000000e-009,-1.63124340e-004
,,,-1.82500000e-009,-1.68280590e-004
,,,-1.80000000e-009,-1.79999340e-004
,,,-1.77500000e-009,-2.02499341e-004
,,,-1.75000000e-009,-2.32030591e-004
,,,-1.72500000e-009,-2.66718091e-004
,,,-1.70000000e-009,-3.03749341e-004
,,,-1.67500000e-009,-3.40311842e-004
,,,-1.65000000e-009,-3.73593092e-004
,,,-1.62500000e-009,-4.00780592e-004
,,,-1.60000000e-009,-4.19999342e-004
,,,-1.57500000e-009,-4.35468093e-004
,,,-1.55000000e-009,-4.43436843e-004
,,,-1.52500000e-009,-4.44843093e-004
,,,-1.50000000e-009,-4.41561843e-004
,,,-1.47500000e-009,-4.35468093e-004
,,,-1.45000000e-009,-4.28436842e-004
,,,-1.42500000e-009,-4.22811842e-004
,,,-1.40000000e-009,-4.19999342e-004
,,,-1.37500000e-009,-4.31718093e-004
,,,-1.35000000e-009,-4.49061843e-004
,,,-1.32500000e-009,-4.70624343e-004
,,,-1.30000000e-009,-4.93124343e-004
,,,-1.27500000e-009,-5.13749343e-004
,,,-1.25000000e-009,-5.30155593e-004
,,,-1.22500000e-009,-5.39061843e-004
,,,-1.20000000e-009,-5.39999343e-004
,,,-1.17500000e-009,-5.47030594e-004
,,,-1.15000000e-009,-5.49843094e-004
,,,-1.12500000e-009,-5.48905594e-004
,,,-1.10000000e-009,-5.45624344e-004
,,,-1.07500000e-009,-5.41405593e-004
,,,-1.05000000e-009,-5.37655593e-004
,,,-1.02500000e-009,-5.36718093e-004
,,,-1.00000000e-009,-5.39999343e-004
,,,-9.75000000e-010,-5.70468094e-004
,,,-9.50000000e-010,-6.10311844e-004
,,,-9.25000000e-010,-6.57186844e-004
,,,-9.00000000e-010,-7.09218095e-004
,,,-8.75000000e-010,-7.61718095e-004
,,,-8.50000000e-010,-8.11874346e-004
,,,-8.25000000e-010,-8.58280596e-004
,,,-8.00000000e-010,-8.99999347e-004
,,,-7.75000000e-010,-9.58593097e-004
,,,-7.50000000e-010,-1.01859310e-003
,,,-7.25000000e-010,-1.08187435e-003
,,,-7.00000000e-010,-1.14984310e-003
,,,-6.75000000e-010,-1.22390560e-003
,,,-6.50000000e-010,-1.30593685e-003
,,,-6.25000000e-010,-1.39734310e-003
,,,-6.00000000e-010,-1.49999935e-003
,,,-5.75000000e-010,-1.62890560e-003
,,,-5.50000000e-010,-1.77093685e-003
,,,-5.25000000e-010,-1.92328061e-003
,,,-5.00000000e-010,-2.08171811e-003
,,,-4.75000000e-010,-2.24249936e-003
,,,-4.50000000e-010,-2.40140561e-003
,,,-4.25000000e-010,-2.55468686e-003
,,,-4.00000000e-010,-2.69999936e-003
,,,-3.75000000e-010,-2.83828061e-003
,,,-3.50000000e-010,-2.97093686e-003
,,,-3.25000000e-010,-3.10031187e-003
,,,-3.00000000e-010,-3.22828062e-003
,,,-2.75000000e-010,-3.35812437e-003
,,,-2.50000000e-010,-3.49171812e-003
,,,-2.25000000e-010,-3.63187437e-003
,,,-2.00000000e-010,-3.77999937e-003
,,,-1.75000000e-010,-3.92531187e-003
,,,-1.50000000e-010,-4.08093687e-003
,,,-1.25000000e-010,-4.24593688e-003
,,,-1.00000000e-010,-4.41796813e-003
,,,-7.50000000e-011,-4.59374938e-003
,,,-5.00000000e-011,-4.76906188e-003
,,,-2.50000000e-011,-4.93921813e-003
,,,0.00000000e+000,-5.09999938e-003
,,,2.50000000e-011,-5.21999938e-003
,,,5.00000000e-011,-5.32640564e-003
,,,7.50000000e-011,-5.41921814e-003
,,,1.00000000e-010,-5.49937439e-003
,,,1.25000000e-010,-5.56734314e-003
,,,1.50000000e-010,-5.62312439e-003
,,,1.75000000e-010,-5.66765564e-003
,,,2.00000000e-010,-5.69999939e-003
,,,2.25000000e-010,-5.68734314e-003
,,,2.50000000e-010,-5.66671814e-003
,,,2.75000000e-010,-5.64093689e-003
,,,3.00000000e-010,-5.61140564e-003
,,,3.25000000e-010,-5.57906189e-003
,,,3.50000000e-010,-5.54296814e-003
,,,3.75000000e-010,-5.50406189e-003
,,,4.00000000e-010,-5.45999939e-003
,,,4.25000000e-010,-5.38031189e-003
,,,4.50000000e-010,-5.29874938e-003
,,,4.75000000e-010,-5.21859313e-003
,,,5.00000000e-010,-5.14031188e-003
,,,5.25000000e-010,-5.06578063e-003
,,,5.50000000e-010,-4.99453063e-003
,,,5.75000000e-010,-4.92656188e-003
,,,6.00000000e-010,-4.85999938e-003
,,,6.25000000e-010,-4.77093688e-003
,,,6.50000000e-010,-4.68234313e-003
,,,6.75000000e-010,-4.59421813e-003
,,,7.00000000e-010,-4.50656188e-003
,,,7.25000000e-010,-4.41843688e-003
,,,7.50000000e-010,-4.32890563e-003
,,,7.75000000e-010,-4.23656188e-003
,,,8.00000000e-010,-4.13999937e-003
,,,8.25000000e-010,-4.02515562e-003
,,,8.50000000e-010,-3.90562437e-003
,,,8.75000000e-010,-3.78281187e-003
,,,9.00000000e-010,-3.65812437e-003
,,,9.25000000e-010,-3.53437437e-003
,,,9.50000000e-010,-3.41203062e-003
,,,9.75000000e-010,-3.29390562e-003
,,,1.00000000e-009,-3.17999937e-003
,,,1.02500000e-009,-3.07218687e-003
,,,1.05000000e-009,-2.96859311e-003
,,,1.07500000e-009,-2.86968686e-003
,,,1.10000000e-009,-2.77593686e-003
,,,1.12500000e-009,-2.68781186e-003
,,,1.15000000e-009,-2.60624936e-003
,,,1.17500000e-009,-2.53031186e-003
,,,1.20000000e-009,-2.45999936e-003
,,,1.22500000e-009,-2.40093686e-003
,,,1.25000000e-009,-2.34187436e-003
,,,1.27500000e-009,-2.28187436e-003
,,,1.30000000e-009,-2.22093686e-003
,,,1.32500000e-009,-2.15999936e-003
,,,1.35000000e-009,-2.09906186e-003
,,,1.37500000e-009,-2.03906186e-003
,,,1.40000000e-009,-1.97999936e-003
,,,1.42500000e-009,-1.93078061e-003
,,,1.45000000e-009,-1.87781186e-003
,,,1.47500000e-009,-1.82062435e-003
,,,1.50000000e-009,-1.75968685e-003
,,,1.52500000e-009,-1.69546810e-003
,,,1.55000000e-009,-1.62984310e-003
,,,1.57500000e-009,-1.56421810e-003
,,,1.60000000e-009,-1.49999935e-003
,,,1.62500000e-009,-1.44937435e-003
,,,1.65000000e-009,-1.40015560e-003
,,,1.67500000e-009,-1.35468685e-003
,,,1.70000000e-009,-1.31531185e-003
,,,1.72500000e-009,-1.28437435e-003
,,,1.75000000e-009,-1.26421810e-003
,,,1.77500000e-009,-1.25624935e-003
,,,1.80000000e-009,-1.25999935e-003
,,,1.82500000e-009,-1.28203060e-003
,,,1.85000000e-009,-1.30828060e-003
,,,1.87500000e-009,-1.33499935e-003
,,,1.90000000e-009,-1.35937435e-003
,,,1.92500000e-009,-1.37812435e-003
,,,1.95000000e-009,-1.38937435e-003
,,,1.97500000e-009,-1.39031185e-003
,,,2.00000000e-009,-1.37999935e-003
,,,2.02500000e-009,-1.36031185e-003
,,,2.05000000e-009,-1.32703060e-003
,,,2.07500000e-009,-1.28249935e-003
,,,2.10000000e-009,-1.22999935e-003
,,,2.12500000e-009,-1.17328060e-003
,,,2.15000000e-009,-1.11749935e-003
,,,2.17500000e-009,-1.06499935e-003
,,,2.20000000e-009,-1.01999935e-003
,,,2.22500000e-009,-9.87186847e-004
,,,2.25000000e-009,-9.61874347e-004
,,,2.27500000e-009,-9.44061847e-004
,,,2.30000000e-009,-9.31874347e-004
,,,2.32500000e-009,-9.23436847e-004
,,,2.35000000e-009,-9.16874347e-004
,,,2.37500000e-009,-9.09843097e-004
,,,2.40000000e-009,-8.99999347e-004
,,,2.42500000e-009,-8.88280596e-004
,,,2.45000000e-009,-8.69530596e-004
,,,2.47500000e-009,-8.44218096e-004
,,,2.50000000e-009,-8.13280596e-004
,,,2.52500000e-009,-7.77186846e-004
,,,2.55000000e-009,-7.38749345e-004
,,,2.57500000e-009,-6.99374345e-004
,,,2.60000000e-009,-6.59999344e-004
,,,2.62500000e-009,-6.24843094e-004
,,,2.65000000e-009,-5.91093094e-004
,,,2.67500000e-009,-5.58749344e-004
,,,2.70000000e-009,-5.28749343e-004
,,,2.72500000e-009,-5.00155593e-004
,,,2.75000000e-009,-4.72499343e-004
,,,2.77500000e-009,-4.45780593e-004
,,,2.80000000e-009,-4.19999342e-004
,,,2.82500000e-009,-3.97968092e-004
,,,2.85000000e-009,-3.75936842e-004
,,,2.87500000e-009,-3.54843092e-004
,,,2.90000000e-009,-3.35624342e-004
,,,2.92500000e-009,-3.19686842e-004
,,,2.95000000e-009,-3.07968091e-004
,,,2.97500000e-009,-3.01405591e-004
,,,3.00000000e-009,-2.99999341e-004
,,,3.02500000e-009,-3.08436841e-004
,,,3.05000000e-009,-3.20624342e-004
,,,3.07500000e-009,-3.35624342e-004
,,,3.10000000e-009,-3.52499342e-004
,,,3.12500000e-009,-3.70780592e-004
,,,3.15000000e-009,-3.88593092e-004
,,,3.17500000e-009,-4.05468092e-004
,,,3.20000000e-009,-4.19999342e-004
,,,3.22500000e-009,-4.33124343e-004
,,,3.25000000e-009,-4.41561843e-004
,,,3.27500000e-009,-4.45780593e-004
,,,3.30000000e-009,-4.45780593e-004
,,,3.32500000e-009,-4.42499343e-004
,,,3.35000000e-009,-4.36874343e-004
,,,3.37500000e-009,-4.29374342e-004
,,,3.40000000e-009,-4.19999342e-004
,,,3.42500000e-009,-4.11093092e-004
,,,3.45000000e-009,-3.99843092e-004
,,,3.47500000e-009,-3.87655592e-004
,,,3.50000000e-009,-3.73593092e-004
,,,3.52500000e-009,-3.57655592e-004
,,,3.55000000e-009,-3.39843092e-004
,,,3.57500000e-009,-3.20624342e-004
,,,3.60000000e-009,-2.99999341e-004
,,,3.62500000e-009,-2.79843091e-004
,,,3.65000000e-009,-2.59218091e-004
,,,3.67500000e-009,-2.39061841e-004
,,,3.70000000e-009,-2.20780591e-004
,,,3.72500000e-009,-2.04843091e-004
,,,3.75000000e-009,-1.92655590e-004
,,,3.77500000e-009,-1.84218090e-004
,,,3.80000000e-009,-1.79999340e-004
,,,3.82500000e-009,-1.81405590e-004
,,,3.85000000e-009,-1.85155590e-004
,,,3.87500000e-009,-1.90311840e-004
,,,3.90000000e-009,-1.94530590e-004
,,,3.92500000e-009,-1.97343090e-004
,,,3.95000000e-009,-1.96405590e-004
,,,3.97500000e-009,-1.90780590e-004
,,,4.00000000e-009,-1.79999340e-004
,,,4.02500000e-009,-1.66874340e-004
,,,4.05000000e-009,-1.49530590e-004
,,,4.07500000e-009,-1.30311840e-004
,,,4.10000000e-009,-1.10155590e-004
,,,4.12500000e-009,-9.14055896e-005
,,,4.15000000e-009,-7.59368394e-005
,,,4.17500000e-009,-6.51555893e-005
,,,4.20000000e-009,-5.99993393e-005
,,,4.22500000e-009,-6.51555893e-005
,,,4.25000000e-009,-7.59368394e-005
,,,4.27500000e-009,-9.14055896e-005
,,,4.30000000e-009,-1.10155590e-004
,,,4.32500000e-009,-1.30311840e-004
,,,4.35000000e-009,-1.49530590e-004
,,,4.37500000e-009,-1.66874340e-004
,,,4.40000000e-009,-1.79999340e-004
,,,4.42500000e-009,-1.90780590e-004
,,,4.45000000e-009,-1.96405590e-004
,,,4.47500000e-009,-1.97343090e-004
,,,4.50000000e-009,-1.94530590e-004
,,,4.52500000e-009,-1.90311840e-004
,,,4.55000000e-009,-1.85155590e-004
,,,4.57500000e-009,-1.81405590e-004
,,,4.60000000e-009,-1.79999340e-004
,,,4.62500000e-009,-1.83280590e-004
,,,4.65000000e-009,-1.90311840e-004
,,,4.67500000e-009,-2.01561841e-004
,,,4.70000000e-009,-2.16561841e-004
,,,4.72500000e-009,-2.34843091e-004
,,,4.75000000e-009,-2.55468091e-004
,,,4.77500000e-009,-2.77499341e-004
,,,4.80000000e-009,-2.99999341e-004
,,,4.82500000e-009,-3.21093092e-004
,,,4.85000000e-009,-3.40780592e-004
,,,4.87500000e-009,-3.58593092e-004
,,,4.90000000e-009,-3.74530592e-004
,,,4.92500000e-009,-3.88593092e-004
,,,4.95000000e-009,-4.00780592e-004
,,,4.97500000e-009,-4.11093092e-004
,,,5.00000000e-009,-4.19999342e-004
,,,5.02500000e-009,-4.24686842e-004
,,,5.05000000e-009,-4.27968092e-004
,,,5.07500000e-009,-4.29843092e-004
,,,5.10000000e-009,-4.30311843e-004
,,,5.12500000e-009,-4.29843092e-004
,,,5.15000000e-009,-4.27968092e-004
,,,5.17500000e-009,-4.24686842e-004
,,,5.20000000e-009,-4.19999342e-004
,,,5.22500000e-009,-4.10155592e-004
,,,5.25000000e-009,-3.98436842e-004
,,,5.27500000e-009,-3.85311842e-004
,,,5.30000000e-009,-3.70311842e-004
,,,5.32500000e-009,-3.54374342e-004
,,,5.35000000e-009,-3.37030592e-004
,,,5.37500000e-009,-3.19218092e-004
,,,5.40000000e-009,-2.99999341e-004
,,,5.42500000e-009,-2.79843091e-004
,,,5.45000000e-009,-2.59686841e-004
,,,5.47500000e-009,-2.40936841e-004
,,,5.50000000e-009,-2.23593091e-004
,,,5.52500000e-009,-2.08593091e-004
,,,5.55000000e-009,-1.96405590e-004
,,,5.57500000e-009,-1.87030590e-004
,,,5.60000000e-009,-1.79999340e-004
,,,5.62500000e-009,-1.75311840e-004
,,,5.65000000e-009,-1.72968090e-004
,,,5.67500000e-009,-1.72499340e-004
,,,5.70000000e-009,-1.73436840e-004
,,,5.72500000e-009,-1.75780590e-004
,,,5.75000000e-009,-1.78124340e-004
,,,5.77500000e-009,-1.79999340e-004
,,,5.80000000e-009,-1.79999340e-004
,,,5.82500000e-009,-1.77655590e-004
,,,5.85000000e-009,-1.72030590e-004
