RawData/SinglePhotoelectron/L5_2pt2A_5mV/wave026_Ch1.csv

"Record Length",1000,"Points",-7.72500000e-009,3.37506615e-005
"Sample Interval",2.50000000e-011,s,-7.70000000e-009,1.82819114e-005
"Trigger Point",309,"Samples",-7.67500000e-009,1.87566126e-006
"Trigger Time",2.08544156e-011,s,-7.65000000e-009,-1.45305889e-005
"",,,-7.62500000e-009,-3.09368390e-005
"Horizontal Offset",-7.72500000e-009,s,-7.60000000e-009,-4.59368392e-005
,,,-7.57500000e-009,-5.99993393e-005
,,,-7.55000000e-009,-7.26555894e-005
,,,-7.52500000e-009,-8.43743395e-005
,,,-7.50000000e-009,-9.60930896e-005
,,,-7.47500000e-009,-1.08749340e-004
,,,-7.45000000e-009,-1.23280590e-004
,,,-7.42500000e-009,-1.40155590e-004
,,,-7.40000000e-009,-1.58905590e-004
,,,-7.37500000e-009,-1.79999340e-004
,,,-7.35000000e-009,-2.01093091e-004
,,,-7.32500000e-009,-2.23124341e-004
,,,-7.30000000e-009,-2.44218091e-004
,,,-7.27500000e-009,-2.64374341e-004
,,,-7.25000000e-009,-2.80780591e-004
,,,-7.22500000e-009,-2.92968091e-004
,,,-7.20000000e-009,-2.99530591e-004
,,,-7.17500000e-009,-2.99999341e-004
,,,-7.15000000e-009,-2.92030591e-004
,,,-7.12500000e-009,-2.78905591e-004
,,,-7.10000000e-009,-2.61561841e-004
,,,-7.07500000e-009,-2.42811841e-004
,,,-7.05000000e-009,-2.23593091e-004
,,,-7.02500000e-009,-2.05780591e-004
,,,-7.00000000e-009,-1.90780590e-004
,,,-6.97500000e-009,-1.79999340e-004
,,,-6.95000000e-009,-1.72499340e-004
,,,-6.92500000e-009,-1.69686840e-004
,,,-6.90000000e-009,-1.70155590e-004
,,,-6.87500000e-009,-1.73436840e-004
,,,-6.85000000e-009,-1.77655590e-004
,,,-6.82500000e-009,-1.81405590e-004
,,,-6.80000000e-009,-1.82343090e-004
,,,-6.77500000e-009,-1.79999340e-004
,,,-6.75000000e-009,-1.72499340e-004
,,,-6.72500000e-009,-1.60780590e-004
,,,-6.70000000e-009,-1.45311840e-004
,,,-6.67500000e-009,-1.27968090e-004
,,,-6.65000000e-009,-1.09218090e-004
,,,-6.62500000e-009,-9.09368396e-005
,,,-6.60000000e-009,-7.45305894e-005
,,,-6.57500000e-009,-5.99993393e-005
,,,-6.55000000e-009,-4.92180892e-005
,,,-6.52500000e-009,-4.21868391e-005
,,,-6.50000000e-009,-3.89055891e-005
,,,-6.47500000e-009,-3.93743391e-005
,,,-6.45000000e-009,-4.26555891e-005
,,,-6.42500000e-009,-4.78118392e-005
,,,-6.40000000e-009,-5.39055892e-005
,,,-6.37500000e-009,-5.99993393e-005
,,,-6.35000000e-009,-6.51555893e-005
,,,-6.32500000e-009,-6.84368394e-005
,,,-6.30000000e-009,-7.03118394e-005
,,,-6.27500000e-009,-6.98430894e-005
,,,-6.25000000e-009,-6.84368394e-005
,,,-6.22500000e-009,-6.60930893e-005
,,,-6.20000000e-009,-6.32805893e-005
,,,-6.17500000e-009,-5.99993393e-005
,,,-6.15000000e-009,-5.81243393e-005
,,,-6.12500000e-009,-5.67180893e-005
,,,-6.10000000e-009,-5.53118392e-005
,,,-6.07500000e-009,-5.48430892e-005
,,,-6.05000000e-009,-5.53118392e-005
,,,-6.02500000e-009,-5.62493392e-005
,,,-6.00000000e-009,-5.81243393e-005
,,,-5.97500000e-009,-5.99993393e-005
,,,-5.95000000e-009,-6.18743393e-005
,,,-5.92500000e-009,-6.32805893e-005
,,,-5.90000000e-009,-6.42180893e-005
,,,-5.87500000e-009,-6.46868393e-005
,,,-5.85000000e-009,-6.46868393e-005
,,,-5.82500000e-009,-6.42180893e-005
,,,-5.80000000e-009,-6.28118393e-005
,,,-5.77500000e-009,-5.99993393e-005
,,,-5.75000000e-009,-5.53118392e-005
,,,-5.72500000e-009,-4.78118392e-005
,,,-5.70000000e-009,-3.74993391e-005
,,,-5.67500000e-009,-2.43743390e-005
,,,-5.65000000e-009,-7.49933883e-006
,,,-5.62500000e-009,1.21881613e-005
,,,-5.60000000e-009,3.46881615e-005
,,,-5.57500000e-009,6.00006618e-005
,,,-5.55000000e-009,8.57819120e-005
,,,-5.52500000e-009,1.11563162e-004
,,,-5.50000000e-009,1.35000662e-004
,,,-5.47500000e-009,1.55625663e-004
,,,-5.45000000e-009,1.71094413e-004
,,,-5.42500000e-009,1.80938163e-004
,,,-5.40000000e-009,1.83750663e-004
,,,-5.37500000e-009,1.80000663e-004
,,,-5.35000000e-009,1.67813163e-004
,,,-5.32500000e-009,1.50938163e-004
,,,-5.30000000e-009,1.31250662e-004
,,,-5.27500000e-009,1.10625662e-004
,,,-5.25000000e-009,9.09381620e-005
,,,-5.22500000e-009,7.50006619e-005
,,,-5.20000000e-009,6.42194118e-005
,,,-5.17500000e-009,6.00006618e-005
,,,-5.15000000e-009,6.23444118e-005
,,,-5.12500000e-009,7.17194119e-005
,,,-5.10000000e-009,8.67194120e-005
,,,-5.07500000e-009,1.05469412e-004
,,,-5.05000000e-009,1.26094412e-004
,,,-5.02500000e-009,1.46719413e-004
,,,-5.00000000e-009,1.65000663e-004
,,,-4.97500000e-009,1.80000663e-004
,,,-4.95000000e-009,1.88438163e-004
,,,-4.92500000e-009,1.92656913e-004
,,,-4.90000000e-009,1.92656913e-004
,,,-4.87500000e-009,1.89844413e-004
,,,-4.85000000e-009,1.86094413e-004
,,,-4.82500000e-009,1.82344413e-004
,,,-4.80000000e-009,1.80000663e-004
,,,-4.77500000e-009,1.80000663e-004
,,,-4.75000000e-009,1.80469413e-004
,,,-4.72500000e-009,1.83281913e-004
,,,-4.70000000e-009,1.87969413e-004
,,,-4.67500000e-009,1.92188163e-004
,,,-4.65000000e-009,1.94531913e-004
,,,-4.62500000e-009,1.94063163e-004
,,,-4.60000000e-009,1.89375663e-004
,,,-4.57500000e-009,1.80000663e-004
,,,-4.55000000e-009,1.63594413e-004
,,,-4.52500000e-009,1.43906912e-004
,,,-4.50000000e-009,1.22344412e-004
,,,-4.47500000e-009,1.00781912e-004
,,,-4.45000000e-009,8.20319120e-005
,,,-4.42500000e-009,6.75006618e-005
,,,-4.40000000e-009,6.00006618e-005
,,,-4.37500000e-009,6.00006618e-005
,,,-4.35000000e-009,6.70319118e-005
,,,-4.32500000e-009,8.06256619e-005
,,,-4.30000000e-009,9.93756621e-005
,,,-4.27500000e-009,1.20469412e-004
,,,-4.25000000e-009,1.41094412e-004
,,,-4.22500000e-009,1.59375663e-004
,,,-4.20000000e-009,1.72969413e-004
,,,-4.17500000e-009,1.80000663e-004
,,,-4.15000000e-009,1.77188163e-004
,,,-4.12500000e-009,1.67344413e-004
,,,-4.10000000e-009,1.51875663e-004
,,,-4.07500000e-009,1.32188162e-004
,,,-4.05000000e-009,1.10625662e-004
,,,-4.02500000e-009,9.04694120e-005
,,,-4.00000000e-009,7.26569119e-005
,,,-3.97500000e-009,6.00006618e-005
,,,-3.95000000e-009,5.06256617e-005
,,,-3.92500000e-009,4.68756616e-005
,,,-3.90000000e-009,4.73444117e-005
,,,-3.87500000e-009,5.06256617e-005
,,,-3.85000000e-009,5.53131617e-005
,,,-3.82500000e-009,5.90631618e-005
,,,-3.80000000e-009,6.14069118e-005
,,,-3.77500000e-009,6.00006618e-005
,,,-3.75000000e-009,5.25006617e-005
,,,-3.72500000e-009,4.07819116e-005
,,,-3.70000000e-009,2.53131615e-005
,,,-3.67500000e-009,7.03191130e-006
,,,-3.65000000e-009,-1.26555889e-005
,,,-3.62500000e-009,-3.09368390e-005
,,,-3.60000000e-009,-4.73430892e-005
,,,-3.57500000e-009,-5.99993393e-005
,,,-3.55000000e-009,-6.89055894e-005
,,,-3.52500000e-009,-7.31243394e-005
,,,-3.50000000e-009,-7.40618394e-005
,,,-3.47500000e-009,-7.21868394e-005
,,,-3.45000000e-009,-6.84368394e-005
,,,-3.42500000e-009,-6.42180893e-005
,,,-3.40000000e-009,-6.09368393e-005
,,,-3.37500000e-009,-5.99993393e-005
,,,-3.35000000e-009,-6.51555893e-005
,,,-3.32500000e-009,-7.40618394e-005
,,,-3.30000000e-009,-8.67180895e-005
,,,-3.27500000e-009,-1.02655590e-004
,,,-3.25000000e-009,-1.21405590e-004
,,,-3.22500000e-009,-1.41093090e-004
,,,-3.20000000e-009,-1.60780590e-004
,,,-3.17500000e-009,-1.79999340e-004
,,,-3.15000000e-009,-1.98749340e-004
,,,-3.12500000e-009,-2.16093091e-004
,,,-3.10000000e-009,-2.32030591e-004
,,,-3.07500000e-009,-2.47499341e-004
,,,-3.05000000e-009,-2.61561841e-004
,,,-3.02500000e-009,-2.75155591e-004
,,,-3.00000000e-009,-2.88280591e-004
,,,-2.97500000e-009,-2.99999341e-004
,,,-2.95000000e-009,-3.11249341e-004
,,,-2.92500000e-009,-3.20624342e-004
,,,-2.90000000e-009,-3.27655592e-004
,,,-2.87500000e-009,-3.31405592e-004
,,,-2.85000000e-009,-3.30936842e-004
,,,-2.82500000e-009,-3.25311842e-004
,,,-2.80000000e-009,-3.14999341e-004
,,,-2.77500000e-009,-2.99999341e-004
,,,-2.75000000e-009,-2.81718091e-004
,,,-2.72500000e-009,-2.63905591e-004
,,,-2.70000000e-009,-2.48436841e-004
,,,-2.67500000e-009,-2.38593091e-004
,,,-2.65000000e-009,-2.37655591e-004
,,,-2.62500000e-009,-2.46561841e-004
,,,-2.60000000e-009,-2.67186841e-004
,,,-2.57500000e-009,-2.99999341e-004
,,,-2.55000000e-009,-3.42655592e-004
,,,-2.52500000e-009,-3.93749342e-004
,,,-2.50000000e-009,-4.49061843e-004
,,,-2.47500000e-009,-5.05311843e-004
,,,-2.45000000e-009,-5.58280594e-004
,,,-2.42500000e-009,-6.03749344e-004
,,,-2.40000000e-009,-6.38436844e-004
,,,-2.37500000e-009,-6.59999344e-004
,,,-2.35000000e-009,-6.63749345e-004
,,,-2.32500000e-009,-6.54843094e-004
,,,-2.30000000e-009,-6.37030594e-004
,,,-2.27500000e-009,-6.13124344e-004
,,,-2.25000000e-009,-5.87343094e-004
,,,-2.22500000e-009,-5.64843094e-004
,,,-2.20000000e-009,-5.47968094e-004
,,,-2.17500000e-009,-5.39999343e-004
,,,-2.15000000e-009,-5.38593093e-004
,,,-2.12500000e-009,-5.47030594e-004
,,,-2.10000000e-009,-5.63905594e-004
,,,-2.07500000e-009,-5.86405594e-004
,,,-2.05000000e-009,-6.10780594e-004
,,,-2.02500000e-009,-6.33280594e-004
,,,-2.00000000e-009,-6.51093094e-004
,,,-1.97500000e-009,-6.59999344e-004
,,,-1.95000000e-009,-6.55311844e-004
,,,-1.92500000e-009,-6.39843094e-004
,,,-1.90000000e-009,-6.14530594e-004
,,,-1.87500000e-009,-5.81249344e-004
,,,-1.85000000e-009,-5.41874343e-004
,,,-1.82500000e-009,-5.00155593e-004
,,,-1.80000000e-009,-4.58905593e-004
,,,-1.77500000e-009,-4.19999342e-004
,,,-1.75000000e-009,-3.85780592e-004
,,,-1.72500000e-009,-3.57655592e-004
,,,-1.70000000e-009,-3.37030592e-004
,,,-1.67500000e-009,-3.22499342e-004
,,,-1.65000000e-009,-3.13124341e-004
,,,-1.62500000e-009,-3.07499341e-004
,,,-1.60000000e-009,-3.03749341e-004
,,,-1.57500000e-009,-2.99999341e-004
,,,-1.55000000e-009,-2.97655591e-004
,,,-1.52500000e-009,-2.92968091e-004
,,,-1.50000000e-009,-2.84530591e-004
,,,-1.47500000e-009,-2.71874341e-004
,,,-1.45000000e-009,-2.54999341e-004
,,,-1.42500000e-009,-2.33905591e-004
,,,-1.40000000e-009,-2.08593091e-004
,,,-1.37500000e-009,-1.79999340e-004
,,,-1.35000000e-009,-1.60780590e-004
,,,-1.32500000e-009,-1.41561840e-004
,,,-1.30000000e-009,-1.23749340e-004
,,,-1.27500000e-009,-1.06874340e-004
,,,-1.25000000e-009,-9.18743396e-005
,,,-1.22500000e-009,-7.92180894e-005
,,,-1.20000000e-009,-6.79680894e-005
,,,-1.17500000e-009,-5.99993393e-005
,,,-1.15000000e-009,-7.35930894e-005
,,,-1.12500000e-009,-9.14055896e-005
,,,-1.10000000e-009,-1.12030590e-004
,,,-1.07500000e-009,-1.32655590e-004
,,,-1.05000000e-009,-1.51405590e-004
,,,-1.02500000e-009,-1.66405590e-004
,,,-1.00000000e-009,-1.76249340e-004
,,,-9.75000000e-010,-1.79999340e-004
,,,-9.50000000e-010,-2.07186841e-004
,,,-9.25000000e-010,-2.32030591e-004
,,,-9.00000000e-010,-2.54530591e-004
,,,-8.75000000e-010,-2.72343091e-004
,,,-8.50000000e-010,-2.85468091e-004
,,,-8.25000000e-010,-2.93905591e-004
,,,-8.00000000e-010,-2.98124341e-004
,,,-7.75000000e-010,-2.99999341e-004
,,,-7.50000000e-010,-3.38436842e-004
,,,-7.25000000e-010,-3.84843092e-004
,,,-7.00000000e-010,-4.38749343e-004
,,,-6.75000000e-010,-4.98749343e-004
,,,-6.50000000e-010,-5.63436844e-004
,,,-6.25000000e-010,-6.31874344e-004
,,,-6.00000000e-010,-7.04061845e-004
,,,-5.75000000e-010,-7.79999346e-004
,,,-5.50000000e-010,-8.95780597e-004
,,,-5.25000000e-010,-1.02187435e-003
,,,-5.00000000e-010,-1.15546810e-003
,,,-4.75000000e-010,-1.29421810e-003
,,,-4.50000000e-010,-1.43531185e-003
,,,-4.25000000e-010,-1.57734310e-003
,,,-4.00000000e-010,-1.71843685e-003
,,,-3.75000000e-010,-1.85999935e-003
,,,-3.50000000e-010,-2.02828061e-003
,,,-3.25000000e-010,-2.20453061e-003
,,,-3.00000000e-010,-2.38874936e-003
,,,-2.75000000e-010,-2.57999936e-003
,,,-2.50000000e-010,-2.77921811e-003
,,,-2.25000000e-010,-2.98499936e-003
,,,-2.00000000e-010,-3.19874937e-003
,,,-1.75000000e-010,-3.41999937e-003
,,,-1.50000000e-010,-3.65578062e-003
,,,-1.25000000e-010,-3.90468687e-003
,,,-1.00000000e-010,-4.16578062e-003
,,,-7.50000000e-011,-4.43718688e-003
,,,-5.00000000e-011,-4.71749938e-003
,,,-2.50000000e-011,-5.00343688e-003
,,,0.00000000e+000,-5.29218688e-003
,,,2.50000000e-011,-5.57999939e-003
,,,5.00000000e-011,-5.84390564e-003
,,,7.50000000e-011,-6.10359314e-003
,,,1.00000000e-010,-6.35906189e-003
,,,1.25000000e-010,-6.60796815e-003
,,,1.50000000e-010,-6.84843690e-003
,,,1.75000000e-010,-7.07906190e-003
,,,2.00000000e-010,-7.29609315e-003
,,,2.25000000e-010,-7.49999940e-003
,,,2.50000000e-010,-7.64343691e-003
,,,2.75000000e-010,-7.77562441e-003
,,,3.00000000e-010,-7.89984316e-003
,,,3.25000000e-010,-8.01890566e-003
,,,3.50000000e-010,-8.13468691e-003
,,,3.75000000e-010,-8.24718691e-003
,,,4.00000000e-010,-8.35593691e-003
,,,4.25000000e-010,-8.45999941e-003
,,,4.50000000e-010,-8.50031191e-003
,,,4.75000000e-010,-8.53546816e-003
,,,5.00000000e-010,-8.56593691e-003
,,,5.25000000e-010,-8.59031191e-003
,,,5.50000000e-010,-8.60765566e-003
,,,5.75000000e-010,-8.61374941e-003
,,,6.00000000e-010,-8.60578066e-003
,,,6.25000000e-010,-8.57999941e-003
,,,6.50000000e-010,-8.47828066e-003
,,,6.75000000e-010,-8.36109316e-003
,,,7.00000000e-010,-8.23218691e-003
,,,7.25000000e-010,-8.09437441e-003
,,,7.50000000e-010,-7.95046816e-003
,,,7.75000000e-010,-7.80281191e-003
,,,8.00000000e-010,-7.65234316e-003
,,,8.25000000e-010,-7.49999940e-003
,,,8.50000000e-010,-7.30218690e-003
,,,8.75000000e-010,-7.10484315e-003
,,,9.00000000e-010,-6.90890565e-003
,,,9.25000000e-010,-6.71484315e-003
,,,9.50000000e-010,-6.52265565e-003
,,,9.75000000e-010,-6.32999939e-003
,,,1.00000000e-009,-6.13640564e-003
,,,1.02500000e-009,-5.93999939e-003
,,,1.05000000e-009,-5.72015564e-003
,,,1.07500000e-009,-5.49703064e-003
,,,1.10000000e-009,-5.27437438e-003
,,,1.12500000e-009,-5.05453063e-003
,,,1.15000000e-009,-4.84031188e-003
,,,1.17500000e-009,-4.63499938e-003
,,,1.20000000e-009,-4.44093688e-003
,,,1.22500000e-009,-4.25999938e-003
,,,1.25000000e-009,-4.09359312e-003
,,,1.27500000e-009,-3.93749937e-003
,,,1.30000000e-009,-3.79078062e-003
,,,1.32500000e-009,-3.65343687e-003
,,,1.35000000e-009,-3.52453062e-003
,,,1.37500000e-009,-3.40359312e-003
,,,1.40000000e-009,-3.28921812e-003
,,,1.42500000e-009,-3.17999937e-003
,,,1.45000000e-009,-3.08859312e-003
,,,1.47500000e-009,-2.99343686e-003
,,,1.50000000e-009,-2.89265561e-003
,,,1.52500000e-009,-2.78671811e-003
,,,1.55000000e-009,-2.67656186e-003
,,,1.57500000e-009,-2.56359311e-003
,,,1.60000000e-009,-2.45109311e-003
,,,1.62500000e-009,-2.33999936e-003
,,,1.65000000e-009,-2.25562436e-003
,,,1.67500000e-009,-2.17031186e-003
,,,1.70000000e-009,-2.08499936e-003
,,,1.72500000e-009,-2.00249936e-003
,,,1.75000000e-009,-1.92421811e-003
,,,1.77500000e-009,-1.85296810e-003
,,,1.80000000e-009,-1.79109310e-003
,,,1.82500000e-009,-1.73999935e-003
,,,1.85000000e-009,-1.72312435e-003
,,,1.87500000e-009,-1.70999935e-003
,,,1.90000000e-009,-1.69781185e-003
,,,1.92500000e-009,-1.68562435e-003
,,,1.95000000e-009,-1.67249935e-003
,,,1.97500000e-009,-1.65703060e-003
,,,2.00000000e-009,-1.63968685e-003
,,,2.02500000e-009,-1.61999935e-003
,,,2.05000000e-009,-1.61718685e-003
,,,2.07500000e-009,-1.60734310e-003
,,,2.10000000e-009,-1.59234310e-003
,,,2.12500000e-009,-1.57265560e-003
,,,2.15000000e-009,-1.55156185e-003
,,,2.17500000e-009,-1.53046810e-003
,,,2.20000000e-009,-1.51265560e-003
,,,2.22500000e-009,-1.49999935e-003
,,,2.25000000e-009,-1.50515560e-003
,,,2.27500000e-009,-1.51406185e-003
,,,2.30000000e-009,-1.52624935e-003
,,,2.32500000e-009,-1.54124935e-003
,,,2.35000000e-009,-1.55906185e-003
,,,2.37500000e-009,-1.57874935e-003
,,,2.40000000e-009,-1.59937435e-003
,,,2.42500000e-009,-1.61999935e-003
,,,2.45000000e-009,-1.64578060e-003
,,,2.47500000e-009,-1.66781185e-003
,,,2.50000000e-009,-1.68609310e-003
,,,2.52500000e-009,-1.70062435e-003
,,,2.55000000e-009,-1.71234310e-003
,,,2.57500000e-009,-1.72218685e-003
,,,2.60000000e-009,-1.73109310e-003
,,,2.62500000e-009,-1.73999935e-003
,,,2.65000000e-009,-1.74937435e-003
,,,2.67500000e-009,-1.75921810e-003
,,,2.70000000e-009,-1.77046810e-003
,,,2.72500000e-009,-1.78359310e-003
,,,2.75000000e-009,-1.79906185e-003
,,,2.77500000e-009,-1.81734310e-003
,,,2.80000000e-009,-1.83796810e-003
,,,2.82500000e-009,-1.85999935e-003
,,,2.85000000e-009,-1.87734311e-003
,,,2.87500000e-009,-1.89187436e-003
,,,2.90000000e-009,-1.90265561e-003
,,,2.92500000e-009,-1.90874936e-003
,,,2.95000000e-009,-1.90828061e-003
,,,2.97500000e-009,-1.90031186e-003
,,,3.00000000e-009,-1.88437436e-003
,,,3.02500000e-009,-1.85999935e-003
,,,3.05000000e-009,-1.82203060e-003
,,,3.07500000e-009,-1.77703060e-003
,,,3.10000000e-009,-1.72781185e-003
,,,3.12500000e-009,-1.67624935e-003
,,,3.15000000e-009,-1.62562435e-003
,,,3.17500000e-009,-1.57828060e-003
,,,3.20000000e-009,-1.53609310e-003
,,,3.22500000e-009,-1.49999935e-003
,,,3.25000000e-009,-1.46812435e-003
,,,3.27500000e-009,-1.44328060e-003
,,,3.30000000e-009,-1.42546810e-003
,,,3.32500000e-009,-1.41234310e-003
,,,3.35000000e-009,-1.40343685e-003
,,,3.37500000e-009,-1.39640560e-003
,,,3.40000000e-009,-1.38937435e-003
,,,3.42500000e-009,-1.37999935e-003
,,,3.45000000e-009,-1.36453060e-003
,,,3.47500000e-009,-1.34390560e-003
,,,3.50000000e-009,-1.31812435e-003
,,,3.52500000e-009,-1.28765560e-003
,,,3.55000000e-009,-1.25296810e-003
,,,3.57500000e-009,-1.21640560e-003
,,,3.60000000e-009,-1.17843685e-003
,,,3.62500000e-009,-1.13999935e-003
,,,3.65000000e-009,-1.10156185e-003
,,,3.67500000e-009,-1.06453060e-003
,,,3.70000000e-009,-1.02937435e-003
,,,3.72500000e-009,-9.96561847e-004
,,,3.75000000e-009,-9.67499347e-004
,,,3.77500000e-009,-9.41718097e-004
,,,3.80000000e-009,-9.19218097e-004
,,,3.82500000e-009,-8.99999347e-004
,,,3.85000000e-009,-8.84530596e-004
,,,3.87500000e-009,-8.69061846e-004
,,,3.90000000e-009,-8.54530596e-004
,,,3.92500000e-009,-8.39530596e-004
,,,3.95000000e-009,-8.24999346e-004
,,,3.97500000e-009,-8.09999346e-004
,,,4.00000000e-009,-7.94999346e-004
,,,4.02500000e-009,-7.79999346e-004
,,,4.05000000e-009,-7.64999345e-004
,,,4.07500000e-009,-7.48593095e-004
,,,4.10000000e-009,-7.31249345e-004
,,,4.12500000e-009,-7.13436845e-004
,,,4.15000000e-009,-6.97030595e-004
,,,4.17500000e-009,-6.82499345e-004
,,,4.20000000e-009,-6.69843095e-004
,,,4.22500000e-009,-6.59999344e-004
,,,4.25000000e-009,-6.52499344e-004
,,,4.27500000e-009,-6.44061844e-004
,,,4.30000000e-009,-6.34686844e-004
,,,4.32500000e-009,-6.23436844e-004
,,,4.35000000e-009,-6.08436844e-004
,,,4.37500000e-009,-5.90155594e-004
,,,4.40000000e-009,-5.67186844e-004
,,,4.42500000e-009,-5.39999343e-004
,,,4.45000000e-009,-5.11405593e-004
,,,4.47500000e-009,-4.78593093e-004
,,,4.50000000e-009,-4.43905593e-004
,,,4.52500000e-009,-4.08749342e-004
,,,4.55000000e-009,-3.75468092e-004
,,,4.57500000e-009,-3.45468092e-004
,,,4.60000000e-009,-3.20155592e-004
,,,4.62500000e-009,-2.99999341e-004
,,,4.65000000e-009,-2.88749341e-004
,,,4.67500000e-009,-2.80780591e-004
,,,4.70000000e-009,-2.73749341e-004
,,,4.72500000e-009,-2.65311841e-004
,,,4.75000000e-009,-2.54061841e-004
,,,4.77500000e-009,-2.36718091e-004
,,,4.80000000e-009,-2.12811841e-004
,,,4.82500000e-009,-1.79999340e-004
,,,4.85000000e-009,-1.42968090e-004
,,,4.87500000e-009,-9.79680896e-005
,,,4.90000000e-009,-4.82805892e-005
,,,4.92500000e-009,4.68816128e-006
,,,4.95000000e-009,5.71881617e-005
,,,4.97500000e-009,1.05469412e-004
,,,5.00000000e-009,1.47188163e-004
,,,5.02500000e-009,1.80000663e-004
,,,5.05000000e-009,1.95938163e-004
,,,5.07500000e-009,2.00625663e-004
,,,5.10000000e-009,1.94531913e-004
,,,5.12500000e-009,1.79531913e-004
,,,5.15000000e-009,1.56563163e-004
,,,5.17500000e-009,1.27500662e-004
,,,5.20000000e-009,9.46881621e-005
,,,5.22500000e-009,6.00006618e-005
,,,5.25000000e-009,2.20319114e-005
,,,5.27500000e-009,-1.35930889e-005
,,,5.30000000e-009,-4.64055892e-005
,,,5.32500000e-009,-7.68743394e-005
,,,5.35000000e-009,-1.04530590e-004
,,,5.37500000e-009,-1.30780590e-004
,,,5.40000000e-009,-1.55624340e-004
,,,5.42500000e-009,-1.79999340e-004
,,,5.45000000e-009,-2.04374341e-004
,,,5.47500000e-009,-2.26874341e-004
,,,5.50000000e-009,-2.47499341e-004
,,,5.52500000e-009,-2.65780591e-004
,,,5.55000000e-009,-2.80780591e-004
,,,5.57500000e-009,-2.91561841e-004
,,,5.60000000e-009,-2.98124341e-004
,,,5.62500000e-009,-2.99999341e-004
,,,5.65000000e-009,-2.95311841e-004
,,,5.67500000e-009,-2.85936841e-004
,,,5.70000000e-009,-2.72343091e-004
,,,5.72500000e-009,-2.55936841e-004
,,,5.75000000e-009,-2.37186841e-004
,,,5.77500000e-009,-2.17968091e-004
,,,5.80000000e-009,-1.98749340e-004
,,,5.82500000e-009,-1.79999340e-004
,,,5.85000000e-009,-1.62655590e-004
,,,5.87500000e-009,-1.46718090e-004
