RawData/SinglePhotoelectron/L5_2pt2A_5mV/wave028_Ch1.csv

"Record Length",1000,"Points",-7.72500000e-009,1.32188162e-004
"Sample Interval",2.50000000e-011,s,-7.70000000e-009,1.11563162e-004
"Trigger Point",309,"Samples",-7.67500000e-009,9.37506621e-005
"Trigger Time",1.24346341e-011,s,-7.65000000e-009,7.92194119e-005
"",,,-7.62500000e-009,6.89069118e-005
"Horizontal Offset",-7.72500000e-009,s,-7.60000000e-009,6.23444118e-005
,,,-7.57500000e-009,6.00006618e-005
,,,-7.55000000e-009,6.00006618e-005
,,,-7.52500000e-009,6.28131618e-005
,,,-7.50000000e-009,6.60944118e-005
,,,-7.47500000e-009,6.93756618e-005
,,,-7.45000000e-009,7.17194119e-005
,,,-7.42500000e-009,7.12506619e-005
,,,-7.40000000e-009,6.70319118e-005
,,,-7.37500000e-009,6.00006618e-005
,,,-7.35000000e-009,4.87506617e-005
,,,-7.32500000e-009,3.42194115e-005
,,,-7.30000000e-009,1.78131614e-005
,,,-7.27500000e-009,6.61239028e-010
,,,-7.25000000e-009,-1.78118389e-005
,,,-7.22500000e-009,-3.46868391e-005
,,,-7.20000000e-009,-4.87493392e-005
,,,-7.17500000e-009,-5.99993393e-005
,,,-7.15000000e-009,-6.65618393e-005
,,,-7.12500000e-009,-6.93743394e-005
,,,-7.10000000e-009,-6.93743394e-005
,,,-7.07500000e-009,-6.79680894e-005
,,,-7.05000000e-009,-6.51555893e-005
,,,-7.02500000e-009,-6.23430893e-005
,,,-7.00000000e-009,-6.04680893e-005
,,,-6.97500000e-009,-5.99993393e-005
,,,-6.95000000e-009,-5.95305893e-005
,,,-6.92500000e-009,-6.04680893e-005
,,,-6.90000000e-009,-6.28118393e-005
,,,-6.87500000e-009,-6.51555893e-005
,,,-6.85000000e-009,-6.74993393e-005
,,,-6.82500000e-009,-6.79680894e-005
,,,-6.80000000e-009,-6.56243393e-005
,,,-6.77500000e-009,-5.99993393e-005
,,,-6.75000000e-009,-4.96868392e-005
,,,-6.72500000e-009,-3.60930891e-005
,,,-6.70000000e-009,-2.01555889e-005
,,,-6.67500000e-009,-2.81183879e-006
,,,-6.65000000e-009,1.50006614e-005
,,,-6.62500000e-009,3.18756615e-005
,,,-6.60000000e-009,4.73444117e-005
,,,-6.57500000e-009,6.00006618e-005
,,,-6.55000000e-009,6.89069118e-005
,,,-6.52500000e-009,7.45319119e-005
,,,-6.50000000e-009,7.68756619e-005
,,,-6.47500000e-009,7.59381619e-005
,,,-6.45000000e-009,7.31256619e-005
,,,-6.42500000e-009,6.89069118e-005
,,,-6.40000000e-009,6.42194118e-005
,,,-6.37500000e-009,6.00006618e-005
,,,-6.35000000e-009,5.62506617e-005
,,,-6.32500000e-009,5.34381617e-005
,,,-6.30000000e-009,5.25006617e-005
,,,-6.27500000e-009,5.25006617e-005
,,,-6.25000000e-009,5.39069117e-005
,,,-6.22500000e-009,5.53131617e-005
,,,-6.20000000e-009,5.76569117e-005
,,,-6.17500000e-009,6.00006618e-005
,,,-6.15000000e-009,6.09381618e-005
,,,-6.12500000e-009,6.18756618e-005
,,,-6.10000000e-009,6.23444118e-005
,,,-6.07500000e-009,6.23444118e-005
,,,-6.05000000e-009,6.18756618e-005
,,,-6.02500000e-009,6.14069118e-005
,,,-6.00000000e-009,6.04694118e-005
,,,-5.97500000e-009,6.00006618e-005
,,,-5.95000000e-009,5.90631618e-005
,,,-5.92500000e-009,5.90631618e-005
,,,-5.90000000e-009,5.95319118e-005
,,,-5.87500000e-009,6.00006618e-005
,,,-5.85000000e-009,6.00006618e-005
,,,-5.82500000e-009,6.04694118e-005
,,,-5.80000000e-009,6.04694118e-005
,,,-5.77500000e-009,6.00006618e-005
,,,-5.75000000e-009,5.85944117e-005
,,,-5.72500000e-009,5.71881617e-005
,,,-5.70000000e-009,5.57819117e-005
,,,-5.67500000e-009,5.53131617e-005
,,,-5.65000000e-009,5.53131617e-005
,,,-5.62500000e-009,5.57819117e-005
,,,-5.60000000e-009,5.71881617e-005
,,,-5.57500000e-009,6.00006618e-005
,,,-5.55000000e-009,6.18756618e-005
,,,-5.52500000e-009,6.42194118e-005
,,,-5.50000000e-009,6.60944118e-005
,,,-5.47500000e-009,6.75006618e-005
,,,-5.45000000e-009,6.75006618e-005
,,,-5.42500000e-009,6.65631618e-005
,,,-5.40000000e-009,6.37506618e-005
,,,-5.37500000e-009,6.00006618e-005
,,,-5.35000000e-009,5.39069117e-005
,,,-5.32500000e-009,4.78131617e-005
,,,-5.30000000e-009,4.21881616e-005
,,,-5.27500000e-009,3.89069116e-005
,,,-5.25000000e-009,3.79694116e-005
,,,-5.22500000e-009,4.07819116e-005
,,,-5.20000000e-009,4.82819117e-005
,,,-5.17500000e-009,6.00006618e-005
,,,-5.15000000e-009,7.26569119e-005
,,,-5.12500000e-009,8.81256620e-005
,,,-5.10000000e-009,1.05000662e-004
,,,-5.07500000e-009,1.23281912e-004
,,,-5.05000000e-009,1.41094412e-004
,,,-5.02500000e-009,1.57031913e-004
,,,-5.00000000e-009,1.70625663e-004
,,,-4.97500000e-009,1.80000663e-004
,,,-4.95000000e-009,1.79063163e-004
,,,-4.92500000e-009,1.72500663e-004
,,,-4.90000000e-009,1.60781913e-004
,,,-4.87500000e-009,1.44844412e-004
,,,-4.85000000e-009,1.25156912e-004
,,,-4.82500000e-009,1.04063162e-004
,,,-4.80000000e-009,8.15631619e-005
,,,-4.77500000e-009,6.00006618e-005
,,,-4.75000000e-009,3.60944116e-005
,,,-4.72500000e-009,1.40631614e-005
,,,-4.70000000e-009,-5.62433881e-006
,,,-4.67500000e-009,-2.20305890e-005
,,,-4.65000000e-009,-3.51555891e-005
,,,-4.62500000e-009,-4.59368392e-005
,,,-4.60000000e-009,-5.39055892e-005
,,,-4.57500000e-009,-5.99993393e-005
,,,-4.55000000e-009,-6.89055894e-005
,,,-4.52500000e-009,-7.78118394e-005
,,,-4.50000000e-009,-8.85930895e-005
,,,-4.47500000e-009,-1.00780590e-004
,,,-4.45000000e-009,-1.15780590e-004
,,,-4.42500000e-009,-1.33593090e-004
,,,-4.40000000e-009,-1.55155590e-004
,,,-4.37500000e-009,-1.79999340e-004
,,,-4.35000000e-009,-2.10936841e-004
,,,-4.32500000e-009,-2.46561841e-004
,,,-4.30000000e-009,-2.86874341e-004
,,,-4.27500000e-009,-3.31405592e-004
,,,-4.25000000e-009,-3.80155592e-004
,,,-4.22500000e-009,-4.31718093e-004
,,,-4.20000000e-009,-4.85624343e-004
,,,-4.17500000e-009,-5.39999343e-004
,,,-4.15000000e-009,-5.91561844e-004
,,,-4.12500000e-009,-6.39843094e-004
,,,-4.10000000e-009,-6.83436845e-004
,,,-4.07500000e-009,-7.20468095e-004
,,,-4.05000000e-009,-7.49530595e-004
,,,-4.02500000e-009,-7.69686845e-004
,,,-4.00000000e-009,-7.79999346e-004
,,,-3.97500000e-009,-7.79999346e-004
,,,-3.95000000e-009,-7.67811845e-004
,,,-3.92500000e-009,-7.49530595e-004
,,,-3.90000000e-009,-7.27968095e-004
,,,-3.87500000e-009,-7.06405595e-004
,,,-3.85000000e-009,-6.86249345e-004
,,,-3.82500000e-009,-6.71249345e-004
,,,-3.80000000e-009,-6.61874345e-004
,,,-3.77500000e-009,-6.59999344e-004
,,,-3.75000000e-009,-6.62811845e-004
,,,-3.72500000e-009,-6.72655595e-004
,,,-3.70000000e-009,-6.89061845e-004
,,,-3.67500000e-009,-7.09218095e-004
,,,-3.65000000e-009,-7.31249345e-004
,,,-3.62500000e-009,-7.51874345e-004
,,,-3.60000000e-009,-7.69218095e-004
,,,-3.57500000e-009,-7.79999346e-004
,,,-3.55000000e-009,-7.80468096e-004
,,,-3.52500000e-009,-7.73905595e-004
,,,-3.50000000e-009,-7.60780595e-004
,,,-3.47500000e-009,-7.43436845e-004
,,,-3.45000000e-009,-7.22343095e-004
,,,-3.42500000e-009,-7.00311845e-004
,,,-3.40000000e-009,-6.79218095e-004
,,,-3.37500000e-009,-6.59999344e-004
,,,-3.35000000e-009,-6.42655594e-004
,,,-3.32500000e-009,-6.30936844e-004
,,,-3.30000000e-009,-6.25311844e-004
,,,-3.27500000e-009,-6.24843094e-004
,,,-3.25000000e-009,-6.29530594e-004
,,,-3.22500000e-009,-6.37968094e-004
,,,-3.20000000e-009,-6.48749344e-004
,,,-3.17500000e-009,-6.59999344e-004
,,,-3.15000000e-009,-6.70780595e-004
,,,-3.12500000e-009,-6.79686845e-004
,,,-3.10000000e-009,-6.85780595e-004
,,,-3.07500000e-009,-6.88593095e-004
,,,-3.05000000e-009,-6.87186845e-004
,,,-3.02500000e-009,-6.82030595e-004
,,,-3.00000000e-009,-6.72655595e-004
,,,-2.97500000e-009,-6.59999344e-004
,,,-2.95000000e-009,-6.45936844e-004
,,,-2.92500000e-009,-6.29530594e-004
,,,-2.90000000e-009,-6.12655594e-004
,,,-2.87500000e-009,-5.95311844e-004
,,,-2.85000000e-009,-5.78436844e-004
,,,-2.82500000e-009,-5.63436844e-004
,,,-2.80000000e-009,-5.50311844e-004
,,,-2.77500000e-009,-5.39999343e-004
,,,-2.75000000e-009,-5.35311843e-004
,,,-2.72500000e-009,-5.32968093e-004
,,,-2.70000000e-009,-5.32968093e-004
,,,-2.67500000e-009,-5.34843093e-004
,,,-2.65000000e-009,-5.37186843e-004
,,,-2.62500000e-009,-5.39061843e-004
,,,-2.60000000e-009,-5.40468093e-004
,,,-2.57500000e-009,-5.39999343e-004
,,,-2.55000000e-009,-5.40936843e-004
,,,-2.52500000e-009,-5.39999343e-004
,,,-2.50000000e-009,-5.38124343e-004
,,,-2.47500000e-009,-5.35780593e-004
,,,-2.45000000e-009,-5.33905593e-004
,,,-2.42500000e-009,-5.33905593e-004
,,,-2.40000000e-009,-5.35780593e-004
,,,-2.37500000e-009,-5.39999343e-004
,,,-2.35000000e-009,-5.49374344e-004
,,,-2.32500000e-009,-5.62030594e-004
,,,-2.30000000e-009,-5.76561844e-004
,,,-2.27500000e-009,-5.92968094e-004
,,,-2.25000000e-009,-6.10311844e-004
,,,-2.22500000e-009,-6.27655594e-004
,,,-2.20000000e-009,-6.44530594e-004
,,,-2.17500000e-009,-6.59999344e-004
,,,-2.15000000e-009,-6.74999345e-004
,,,-2.12500000e-009,-6.89061845e-004
,,,-2.10000000e-009,-7.02186845e-004
,,,-2.07500000e-009,-7.14843095e-004
,,,-2.05000000e-009,-7.28905595e-004
,,,-2.02500000e-009,-7.43905595e-004
,,,-2.00000000e-009,-7.61249345e-004
,,,-1.97500000e-009,-7.79999346e-004
,,,-1.95000000e-009,-8.02030596e-004
,,,-1.92500000e-009,-8.24999346e-004
,,,-1.90000000e-009,-8.47499346e-004
,,,-1.87500000e-009,-8.67655596e-004
,,,-1.85000000e-009,-8.84530596e-004
,,,-1.82500000e-009,-8.96249347e-004
,,,-1.80000000e-009,-9.01874347e-004
,,,-1.77500000e-009,-8.99999347e-004
,,,-1.75000000e-009,-8.95311847e-004
,,,-1.72500000e-009,-8.85468096e-004
,,,-1.70000000e-009,-8.71405596e-004
,,,-1.67500000e-009,-8.54530596e-004
,,,-1.65000000e-009,-8.35780596e-004
,,,-1.62500000e-009,-8.16093096e-004
,,,-1.60000000e-009,-7.97343096e-004
,,,-1.57500000e-009,-7.79999346e-004
,,,-1.55000000e-009,-7.74843095e-004
,,,-1.52500000e-009,-7.74374345e-004
,,,-1.50000000e-009,-7.77186846e-004
,,,-1.47500000e-009,-7.81874346e-004
,,,-1.45000000e-009,-7.86093096e-004
,,,-1.42500000e-009,-7.87968096e-004
,,,-1.40000000e-009,-7.86561846e-004
,,,-1.37500000e-009,-7.79999346e-004
,,,-1.35000000e-009,-7.83280596e-004
,,,-1.32500000e-009,-7.85155596e-004
,,,-1.30000000e-009,-7.85155596e-004
,,,-1.27500000e-009,-7.84218096e-004
,,,-1.25000000e-009,-7.82343096e-004
,,,-1.22500000e-009,-7.79999346e-004
,,,-1.20000000e-009,-7.78593096e-004
,,,-1.17500000e-009,-7.79999346e-004
,,,-1.15000000e-009,-8.04843096e-004
,,,-1.12500000e-009,-8.37186846e-004
,,,-1.10000000e-009,-8.77499346e-004
,,,-1.07500000e-009,-9.23436847e-004
,,,-1.05000000e-009,-9.74061847e-004
,,,-1.02500000e-009,-1.02749935e-003
,,,-1.00000000e-009,-1.08281185e-003
,,,-9.75000000e-010,-1.13999935e-003
,,,-9.50000000e-010,-1.21687435e-003
,,,-9.25000000e-010,-1.29890560e-003
,,,-9.00000000e-010,-1.38468685e-003
,,,-8.75000000e-010,-1.47421810e-003
,,,-8.50000000e-010,-1.56656185e-003
,,,-8.25000000e-010,-1.66171810e-003
,,,-8.00000000e-010,-1.75968685e-003
,,,-7.75000000e-010,-1.85999935e-003
,,,-7.50000000e-010,-1.97531186e-003
,,,-7.25000000e-010,-2.09531186e-003
,,,-7.00000000e-010,-2.21812436e-003
,,,-6.75000000e-010,-2.34187436e-003
,,,-6.50000000e-010,-2.46562436e-003
,,,-6.25000000e-010,-2.58703061e-003
,,,-6.00000000e-010,-2.70562436e-003
,,,-5.75000000e-010,-2.81999936e-003
,,,-5.50000000e-010,-2.93390561e-003
,,,-5.25000000e-010,-3.04734312e-003
,,,-5.00000000e-010,-3.16218687e-003
,,,-4.75000000e-010,-3.27937437e-003
,,,-4.50000000e-010,-3.39984312e-003
,,,-4.25000000e-010,-3.52312437e-003
,,,-4.00000000e-010,-3.65015562e-003
,,,-3.75000000e-010,-3.77999937e-003
,,,-3.50000000e-010,-3.90562437e-003
,,,-3.25000000e-010,-4.03406187e-003
,,,-3.00000000e-010,-4.16437437e-003
,,,-2.75000000e-010,-4.29374938e-003
,,,-2.50000000e-010,-4.41890563e-003
,,,-2.25000000e-010,-4.53656188e-003
,,,-2.00000000e-010,-4.64437438e-003
,,,-1.75000000e-010,-4.73999938e-003
,,,-1.50000000e-010,-4.80328063e-003
,,,-1.25000000e-010,-4.85671813e-003
,,,-1.00000000e-010,-4.90312438e-003
,,,-7.50000000e-011,-4.94484313e-003
,,,-5.00000000e-011,-4.98374938e-003
,,,-2.50000000e-011,-5.02218688e-003
,,,0.00000000e+000,-5.06062438e-003
,,,2.50000000e-011,-5.09999938e-003
,,,5.00000000e-011,-5.11640563e-003
,,,7.50000000e-011,-5.13562438e-003
,,,1.00000000e-010,-5.15671813e-003
,,,1.25000000e-010,-5.17874938e-003
,,,1.50000000e-010,-5.19843688e-003
,,,1.75000000e-010,-5.21343688e-003
,,,2.00000000e-010,-5.22140563e-003
,,,2.25000000e-010,-5.21999938e-003
,,,2.50000000e-010,-5.18437438e-003
,,,2.75000000e-010,-5.14312438e-003
,,,3.00000000e-010,-5.09999938e-003
,,,3.25000000e-010,-5.05921813e-003
,,,3.50000000e-010,-5.02453063e-003
,,,3.75000000e-010,-4.99874938e-003
,,,4.00000000e-010,-4.98421813e-003
,,,4.25000000e-010,-4.97999938e-003
,,,4.50000000e-010,-4.96406188e-003
,,,4.75000000e-010,-4.95562438e-003
,,,5.00000000e-010,-4.95187438e-003
,,,5.25000000e-010,-4.94953063e-003
,,,5.50000000e-010,-4.94343688e-003
,,,5.75000000e-010,-4.92937438e-003
,,,6.00000000e-010,-4.90265563e-003
,,,6.25000000e-010,-4.85999938e-003
,,,6.50000000e-010,-4.78124938e-003
,,,6.75000000e-010,-4.68515563e-003
,,,7.00000000e-010,-4.57640563e-003
,,,7.25000000e-010,-4.45968688e-003
,,,7.50000000e-010,-4.34109313e-003
,,,7.75000000e-010,-4.22531188e-003
,,,8.00000000e-010,-4.11749937e-003
,,,8.25000000e-010,-4.01999937e-003
,,,8.50000000e-010,-3.92671812e-003
,,,8.75000000e-010,-3.84421812e-003
,,,9.00000000e-010,-3.76968687e-003
,,,9.25000000e-010,-3.70171812e-003
,,,9.50000000e-010,-3.63609312e-003
,,,9.75000000e-010,-3.56953062e-003
,,,1.00000000e-009,-3.49874937e-003
,,,1.02500000e-009,-3.41999937e-003
,,,1.05000000e-009,-3.33093687e-003
,,,1.07500000e-009,-3.23062437e-003
,,,1.10000000e-009,-3.12140562e-003
,,,1.12500000e-009,-3.00703061e-003
,,,1.15000000e-009,-2.89124936e-003
,,,1.17500000e-009,-2.77921811e-003
,,,1.20000000e-009,-2.67468686e-003
,,,1.22500000e-009,-2.57999936e-003
,,,1.25000000e-009,-2.50312436e-003
,,,1.27500000e-009,-2.43468686e-003
,,,1.30000000e-009,-2.37374936e-003
,,,1.32500000e-009,-2.31796811e-003
,,,1.35000000e-009,-2.26499936e-003
,,,1.37500000e-009,-2.21249936e-003
,,,1.40000000e-009,-2.15812436e-003
,,,1.42500000e-009,-2.09999936e-003
,,,1.45000000e-009,-2.04562436e-003
,,,1.47500000e-009,-1.98421811e-003
,,,1.50000000e-009,-1.91765561e-003
,,,1.52500000e-009,-1.84828060e-003
,,,1.55000000e-009,-1.78031185e-003
,,,1.57500000e-009,-1.71703060e-003
,,,1.60000000e-009,-1.66265560e-003
,,,1.62500000e-009,-1.61999935e-003
,,,1.65000000e-009,-1.60124935e-003
,,,1.67500000e-009,-1.59093685e-003
,,,1.70000000e-009,-1.58859310e-003
,,,1.72500000e-009,-1.59187435e-003
,,,1.75000000e-009,-1.59890560e-003
,,,1.77500000e-009,-1.60687435e-003
,,,1.80000000e-009,-1.61484310e-003
,,,1.82500000e-009,-1.61999935e-003
,,,1.85000000e-009,-1.62796810e-003
,,,1.87500000e-009,-1.62703060e-003
,,,1.90000000e-009,-1.61765560e-003
,,,1.92500000e-009,-1.60078060e-003
,,,1.95000000e-009,-1.57828060e-003
,,,1.97500000e-009,-1.55249935e-003
,,,2.00000000e-009,-1.52578060e-003
,,,2.02500000e-009,-1.49999935e-003
,,,2.05000000e-009,-1.48171810e-003
,,,2.07500000e-009,-1.46390560e-003
,,,2.10000000e-009,-1.44703060e-003
,,,2.12500000e-009,-1.43156185e-003
,,,2.15000000e-009,-1.41703060e-003
,,,2.17500000e-009,-1.40437435e-003
,,,2.20000000e-009,-1.39171810e-003
,,,2.22500000e-009,-1.37999935e-003
,,,2.25000000e-009,-1.37015560e-003
,,,2.27500000e-009,-1.35843685e-003
,,,2.30000000e-009,-1.34484310e-003
,,,2.32500000e-009,-1.32890560e-003
,,,2.35000000e-009,-1.31203060e-003
,,,2.37500000e-009,-1.29421810e-003
,,,2.40000000e-009,-1.27687435e-003
,,,2.42500000e-009,-1.25999935e-003
,,,2.45000000e-009,-1.24406185e-003
,,,2.47500000e-009,-1.22812435e-003
,,,2.50000000e-009,-1.21218685e-003
,,,2.52500000e-009,-1.19624935e-003
,,,2.55000000e-009,-1.18078060e-003
,,,2.57500000e-009,-1.16624935e-003
,,,2.60000000e-009,-1.15312435e-003
,,,2.62500000e-009,-1.13999935e-003
,,,2.65000000e-009,-1.12734310e-003
,,,2.67500000e-009,-1.11374935e-003
,,,2.70000000e-009,-1.09968685e-003
,,,2.72500000e-009,-1.08468685e-003
,,,2.75000000e-009,-1.06921810e-003
,,,2.77500000e-009,-1.05328060e-003
,,,2.80000000e-009,-1.03687435e-003
,,,2.82500000e-009,-1.01999935e-003
,,,2.85000000e-009,-1.00312435e-003
,,,2.87500000e-009,-9.85311847e-004
,,,2.90000000e-009,-9.67499347e-004
,,,2.92500000e-009,-9.50624347e-004
,,,2.95000000e-009,-9.34686847e-004
,,,2.97500000e-009,-9.21093097e-004
,,,3.00000000e-009,-9.09374347e-004
,,,3.02500000e-009,-8.99999347e-004
,,,3.05000000e-009,-8.90624347e-004
,,,3.07500000e-009,-8.81249346e-004
,,,3.10000000e-009,-8.70468096e-004
,,,3.12500000e-009,-8.57811846e-004
,,,3.15000000e-009,-8.42811846e-004
,,,3.17500000e-009,-8.24999346e-004
,,,3.20000000e-009,-8.04374346e-004
,,,3.22500000e-009,-7.79999346e-004
,,,3.25000000e-009,-7.52343095e-004
,,,3.27500000e-009,-7.20936845e-004
,,,3.30000000e-009,-6.87186845e-004
,,,3.32500000e-009,-6.52968094e-004
,,,3.35000000e-009,-6.19686844e-004
,,,3.37500000e-009,-5.88749344e-004
,,,3.40000000e-009,-5.62030594e-004
,,,3.42500000e-009,-5.39999343e-004
,,,3.45000000e-009,-5.24999343e-004
,,,3.47500000e-009,-5.15624343e-004
,,,3.50000000e-009,-5.10936843e-004
,,,3.52500000e-009,-5.10936843e-004
,,,3.55000000e-009,-5.15155593e-004
,,,3.57500000e-009,-5.22186843e-004
,,,3.60000000e-009,-5.31093093e-004
,,,3.62500000e-009,-5.39999343e-004
,,,3.65000000e-009,-5.47499344e-004
,,,3.67500000e-009,-5.50311844e-004
,,,3.70000000e-009,-5.47499344e-004
,,,3.72500000e-009,-5.37186843e-004
,,,3.75000000e-009,-5.19374343e-004
,,,3.77500000e-009,-4.93593093e-004
,,,3.80000000e-009,-4.60311843e-004
,,,3.82500000e-009,-4.19999342e-004
,,,3.85000000e-009,-3.75468092e-004
,,,3.87500000e-009,-3.25780592e-004
,,,3.90000000e-009,-2.74218091e-004
,,,3.92500000e-009,-2.22655591e-004
,,,3.95000000e-009,-1.73436840e-004
,,,3.97500000e-009,-1.28905590e-004
,,,4.00000000e-009,-9.04680895e-005
,,,4.02500000e-009,-5.99993393e-005
,,,4.05000000e-009,-4.26555891e-005
,,,4.07500000e-009,-3.32805891e-005
,,,4.10000000e-009,-3.04680890e-005
,,,4.12500000e-009,-3.28118390e-005
,,,4.15000000e-009,-3.84368391e-005
,,,4.17500000e-009,-4.59368392e-005
,,,4.20000000e-009,-5.34368392e-005
,,,4.22500000e-009,-5.99993393e-005
,,,4.25000000e-009,-6.79680894e-005
,,,4.27500000e-009,-7.26555894e-005
,,,4.30000000e-009,-7.35930894e-005
,,,4.32500000e-009,-7.21868394e-005
,,,4.35000000e-009,-6.89055894e-005
,,,4.37500000e-009,-6.51555893e-005
,,,4.40000000e-009,-6.23430893e-005
,,,4.42500000e-009,-5.99993393e-005
,,,4.45000000e-009,-6.28118393e-005
,,,4.47500000e-009,-6.65618393e-005
,,,4.50000000e-009,-7.07805894e-005
,,,4.52500000e-009,-7.35930894e-005
,,,4.55000000e-009,-7.49993394e-005
,,,4.57500000e-009,-7.31243394e-005
,,,4.60000000e-009,-6.84368394e-005
,,,4.62500000e-009,-5.99993393e-005
,,,4.65000000e-009,-5.15618392e-005
,,,4.67500000e-009,-4.12493391e-005
,,,4.70000000e-009,-3.14055890e-005
,,,4.72500000e-009,-2.39055890e-005
,,,4.75000000e-009,-2.15618389e-005
,,,4.77500000e-009,-2.57805890e-005
,,,4.80000000e-009,-3.84368391e-005
,,,4.82500000e-009,-5.99993393e-005
,,,4.85000000e-009,-9.18743396e-005
,,,4.87500000e-009,-1.29374340e-004
,,,4.90000000e-009,-1.69218090e-004
,,,4.92500000e-009,-2.09061841e-004
,,,4.95000000e-009,-2.44686841e-004
,,,4.97500000e-009,-2.73280591e-004
,,,5.00000000e-009,-2.92030591e-004
,,,5.02500000e-009,-2.99999341e-004
,,,5.05000000e-009,-2.95311841e-004
,,,5.07500000e-009,-2.80780591e-004
,,,5.10000000e-009,-2.59686841e-004
,,,5.12500000e-009,-2.35311841e-004
,,,5.15000000e-009,-2.12343091e-004
,,,5.17500000e-009,-1.93593090e-004
,,,5.20000000e-009,-1.81874340e-004
,,,5.22500000e-009,-1.79999340e-004
,,,5.25000000e-009,-1.86561840e-004
,,,5.27500000e-009,-2.02030591e-004
,,,5.30000000e-009,-2.23593091e-004
,,,5.32500000e-009,-2.47968091e-004
,,,5.35000000e-009,-2.71405591e-004
,,,5.37500000e-009,-2.90155591e-004
,,,5.40000000e-009,-3.00468091e-004
,,,5.42500000e-009,-2.99999341e-004
,,,5.45000000e-009,-2.83593091e-004
,,,5.47500000e-009,-2.55936841e-004
,,,5.50000000e-009,-2.19843091e-004
,,,5.52500000e-009,-1.79530590e-004
,,,5.55000000e-009,-1.39686840e-004
,,,5.57500000e-009,-1.04061840e-004
,,,5.60000000e-009,-7.64055894e-005
,,,5.62500000e-009,-5.99993393e-005
,,,5.65000000e-009,-5.34368392e-005
,,,5.67500000e-009,-5.85930893e-005
,,,5.70000000e-009,-7.31243394e-005
,,,5.72500000e-009,-9.51555896e-005
,,,5.75000000e-009,-1.20468090e-004
,,,5.77500000e-009,-1.45311840e-004
,,,5.80000000e-009,-1.65936840e-004
,,,5.82500000e-009,-1.79999340e-004
,,,5.85000000e-009,-1.82343090e-004
,,,5.87500000e-009,-1.75780590e-004
