RawData/SinglePhotoelectron/L5_2pt2A_5mV/wave000_Ch1.csv

"Record Length",1000,"Points",-7.72500000e-009,1.81875663e-004
"Sample Interval",2.50000000e-011,s,-7.70000000e-009,1.81406913e-004
"Trigger Point",309,"Samples",-7.67500000e-009,1.78594413e-004
"Trigger Time",2.01155711e-011,s,-7.65000000e-009,1.75781913e-004
"",,,-7.62500000e-009,1.72969413e-004
"Horizontal Offset",-7.72500000e-009,s,-7.60000000e-009,1.72500663e-004
,,,-7.57500000e-009,1.74844413e-004
,,,-7.55000000e-009,1.80000663e-004
,,,-7.52500000e-009,1.86094413e-004
,,,-7.50000000e-009,1.93594413e-004
,,,-7.47500000e-009,2.01563163e-004
,,,-7.45000000e-009,2.07656913e-004
,,,-7.42500000e-009,2.10469413e-004
,,,-7.40000000e-009,2.07188163e-004
,,,-7.37500000e-009,1.97344413e-004
,,,-7.35000000e-009,1.80000663e-004
,,,-7.32500000e-009,1.53750663e-004
,,,-7.30000000e-009,1.22344412e-004
,,,-7.27500000e-009,8.67194120e-005
,,,-7.25000000e-009,5.01569117e-005
,,,-7.22500000e-009,1.45319114e-005
,,,-7.20000000e-009,-1.68743389e-005
,,,-7.17500000e-009,-4.21868391e-005
,,,-7.15000000e-009,-5.99993393e-005
,,,-7.12500000e-009,-6.93743394e-005
,,,-7.10000000e-009,-7.12493394e-005
,,,-7.07500000e-009,-6.84368394e-005
,,,-7.05000000e-009,-6.23430893e-005
,,,-7.02500000e-009,-5.57805892e-005
,,,-7.00000000e-009,-5.20305892e-005
,,,-6.97500000e-009,-5.29680892e-005
,,,-6.95000000e-009,-5.99993393e-005
,,,-6.92500000e-009,-7.26555894e-005
,,,-6.90000000e-009,-9.04680895e-005
,,,-6.87500000e-009,-1.11561840e-004
,,,-6.85000000e-009,-1.34530590e-004
,,,-6.82500000e-009,-1.55155590e-004
,,,-6.80000000e-009,-1.71561840e-004
,,,-6.77500000e-009,-1.80468090e-004
,,,-6.75000000e-009,-1.79999340e-004
,,,-6.72500000e-009,-1.67343090e-004
,,,-6.70000000e-009,-1.45311840e-004
,,,-6.67500000e-009,-1.15311840e-004
,,,-6.65000000e-009,-7.96868395e-005
,,,-6.62500000e-009,-4.17180891e-005
,,,-6.60000000e-009,-3.74933879e-006
,,,-6.57500000e-009,3.09381615e-005
,,,-6.55000000e-009,6.00006618e-005
,,,-6.52500000e-009,8.20319120e-005
,,,-6.50000000e-009,9.56256621e-005
,,,-6.47500000e-009,1.01250662e-004
,,,-6.45000000e-009,9.98444121e-005
,,,-6.42500000e-009,9.28131620e-005
,,,-6.40000000e-009,8.25006620e-005
,,,-6.37500000e-009,7.07819119e-005
,,,-6.35000000e-009,6.00006618e-005
,,,-6.32500000e-009,5.20319117e-005
,,,-6.30000000e-009,4.73444117e-005
,,,-6.27500000e-009,4.59381616e-005
,,,-6.25000000e-009,4.68756616e-005
,,,-6.22500000e-009,4.96881617e-005
,,,-6.20000000e-009,5.34381617e-005
,,,-6.17500000e-009,5.71881617e-005
,,,-6.15000000e-009,6.00006618e-005
,,,-6.12500000e-009,6.14069118e-005
,,,-6.10000000e-009,6.18756618e-005
,,,-6.07500000e-009,6.09381618e-005
,,,-6.05000000e-009,6.00006618e-005
,,,-6.02500000e-009,5.85944117e-005
,,,-6.00000000e-009,5.76569117e-005
,,,-5.97500000e-009,5.81256617e-005
,,,-5.95000000e-009,6.00006618e-005
,,,-5.92500000e-009,6.18756618e-005
,,,-5.90000000e-009,6.51569118e-005
,,,-5.87500000e-009,6.79694118e-005
,,,-5.85000000e-009,7.07819119e-005
,,,-5.82500000e-009,7.17194119e-005
,,,-5.80000000e-009,7.03131619e-005
,,,-5.77500000e-009,6.60944118e-005
,,,-5.75000000e-009,6.00006618e-005
,,,-5.72500000e-009,5.06256617e-005
,,,-5.70000000e-009,4.07819116e-005
,,,-5.67500000e-009,3.23444115e-005
,,,-5.65000000e-009,2.62506615e-005
,,,-5.62500000e-009,2.53131615e-005
,,,-5.60000000e-009,2.95319115e-005
,,,-5.57500000e-009,4.12506616e-005
,,,-5.55000000e-009,6.00006618e-005
,,,-5.52500000e-009,8.53131620e-005
,,,-5.50000000e-009,1.16250662e-004
,,,-5.47500000e-009,1.50938163e-004
,,,-5.45000000e-009,1.87031913e-004
,,,-5.42500000e-009,2.22188163e-004
,,,-5.40000000e-009,2.54063163e-004
,,,-5.37500000e-009,2.80781914e-004
,,,-5.35000000e-009,3.00000664e-004
,,,-5.32500000e-009,3.08438164e-004
,,,-5.30000000e-009,3.07500664e-004
,,,-5.27500000e-009,2.98594414e-004
,,,-5.25000000e-009,2.82656914e-004
,,,-5.22500000e-009,2.61094414e-004
,,,-5.20000000e-009,2.35313163e-004
,,,-5.17500000e-009,2.07656913e-004
,,,-5.15000000e-009,1.80000663e-004
,,,-5.12500000e-009,1.53750663e-004
,,,-5.10000000e-009,1.30313162e-004
,,,-5.07500000e-009,1.11094412e-004
,,,-5.05000000e-009,9.51569121e-005
,,,-5.02500000e-009,8.25006620e-005
,,,-5.00000000e-009,7.31256619e-005
,,,-4.97500000e-009,6.56256618e-005
,,,-4.95000000e-009,6.00006618e-005
,,,-4.92500000e-009,5.62506617e-005
,,,-4.90000000e-009,5.43756617e-005
,,,-4.87500000e-009,5.29694117e-005
,,,-4.85000000e-009,5.25006617e-005
,,,-4.82500000e-009,5.29694117e-005
,,,-4.80000000e-009,5.43756617e-005
,,,-4.77500000e-009,5.67194117e-005
,,,-4.75000000e-009,6.00006618e-005
,,,-4.72500000e-009,6.37506618e-005
,,,-4.70000000e-009,6.75006618e-005
,,,-4.67500000e-009,7.07819119e-005
,,,-4.65000000e-009,7.26569119e-005
,,,-4.62500000e-009,7.31256619e-005
,,,-4.60000000e-009,7.07819119e-005
,,,-4.57500000e-009,6.65631618e-005
,,,-4.55000000e-009,6.00006618e-005
,,,-4.52500000e-009,5.25006617e-005
,,,-4.50000000e-009,4.45319116e-005
,,,-4.47500000e-009,3.79694116e-005
,,,-4.45000000e-009,3.32819115e-005
,,,-4.42500000e-009,3.18756615e-005
,,,-4.40000000e-009,3.56256615e-005
,,,-4.37500000e-009,4.45319116e-005
,,,-4.35000000e-009,6.00006618e-005
,,,-4.32500000e-009,8.25006620e-005
,,,-4.30000000e-009,1.09688162e-004
,,,-4.27500000e-009,1.41094412e-004
,,,-4.25000000e-009,1.74375663e-004
,,,-4.22500000e-009,2.09063163e-004
,,,-4.20000000e-009,2.42344413e-004
,,,-4.17500000e-009,2.72813164e-004
,,,-4.15000000e-009,3.00000664e-004
,,,-4.12500000e-009,3.20156914e-004
,,,-4.10000000e-009,3.33750664e-004
,,,-4.07500000e-009,3.41250664e-004
,,,-4.05000000e-009,3.42656914e-004
,,,-4.02500000e-009,3.38438164e-004
,,,-4.00000000e-009,3.29063164e-004
,,,-3.97500000e-009,3.15938164e-004
,,,-3.95000000e-009,3.00000664e-004
,,,-3.92500000e-009,2.80313164e-004
,,,-3.90000000e-009,2.61094414e-004
,,,-3.87500000e-009,2.42344413e-004
,,,-3.85000000e-009,2.25469413e-004
,,,-3.82500000e-009,2.10469413e-004
,,,-3.80000000e-009,1.97344413e-004
,,,-3.77500000e-009,1.87500663e-004
,,,-3.75000000e-009,1.80000663e-004
,,,-3.72500000e-009,1.74375663e-004
,,,-3.70000000e-009,1.71094413e-004
,,,-3.67500000e-009,1.70156913e-004
,,,-3.65000000e-009,1.70625663e-004
,,,-3.62500000e-009,1.72031913e-004
,,,-3.60000000e-009,1.74844413e-004
,,,-3.57500000e-009,1.77188163e-004
,,,-3.55000000e-009,1.80000663e-004
,,,-3.52500000e-009,1.80938163e-004
,,,-3.50000000e-009,1.81406913e-004
,,,-3.47500000e-009,1.81406913e-004
,,,-3.45000000e-009,1.80938163e-004
,,,-3.42500000e-009,1.80469413e-004
,,,-3.40000000e-009,1.80000663e-004
,,,-3.37500000e-009,1.79531913e-004
,,,-3.35000000e-009,1.80000663e-004
,,,-3.32500000e-009,1.80000663e-004
,,,-3.30000000e-009,1.80469413e-004
,,,-3.27500000e-009,1.80938163e-004
,,,-3.25000000e-009,1.81875663e-004
,,,-3.22500000e-009,1.82344413e-004
,,,-3.20000000e-009,1.82344413e-004
,,,-3.17500000e-009,1.81406913e-004
,,,-3.15000000e-009,1.80000663e-004
,,,-3.12500000e-009,1.78125663e-004
,,,-3.10000000e-009,1.75781913e-004
,,,-3.07500000e-009,1.73438163e-004
,,,-3.05000000e-009,1.72031913e-004
,,,-3.02500000e-009,1.71563163e-004
,,,-3.00000000e-009,1.72500663e-004
,,,-2.97500000e-009,1.75313163e-004
,,,-2.95000000e-009,1.80000663e-004
,,,-2.92500000e-009,1.85156913e-004
,,,-2.90000000e-009,1.90781913e-004
,,,-2.87500000e-009,1.95938163e-004
,,,-2.85000000e-009,1.99219413e-004
,,,-2.82500000e-009,2.00156913e-004
,,,-2.80000000e-009,1.97344413e-004
,,,-2.77500000e-009,1.90313163e-004
,,,-2.75000000e-009,1.80000663e-004
,,,-2.72500000e-009,1.63594413e-004
,,,-2.70000000e-009,1.44375662e-004
,,,-2.67500000e-009,1.24219412e-004
,,,-2.65000000e-009,1.04063162e-004
,,,-2.62500000e-009,8.57819120e-005
,,,-2.60000000e-009,7.17194119e-005
,,,-2.57500000e-009,6.23444118e-005
,,,-2.55000000e-009,6.00006618e-005
,,,-2.52500000e-009,6.32819118e-005
,,,-2.50000000e-009,7.31256619e-005
,,,-2.47500000e-009,8.71881620e-005
,,,-2.45000000e-009,1.05469412e-004
,,,-2.42500000e-009,1.25156912e-004
,,,-2.40000000e-009,1.45313163e-004
,,,-2.37500000e-009,1.64063163e-004
,,,-2.35000000e-009,1.80000663e-004
,,,-2.32500000e-009,1.90781913e-004
,,,-2.30000000e-009,1.97344413e-004
,,,-2.27500000e-009,1.99688163e-004
,,,-2.25000000e-009,1.98750663e-004
,,,-2.22500000e-009,1.95469413e-004
,,,-2.20000000e-009,1.90781913e-004
,,,-2.17500000e-009,1.85156913e-004
,,,-2.15000000e-009,1.80000663e-004
,,,-2.12500000e-009,1.72500663e-004
,,,-2.10000000e-009,1.64531913e-004
,,,-2.07500000e-009,1.55156913e-004
,,,-2.05000000e-009,1.43906912e-004
,,,-2.02500000e-009,1.29375662e-004
,,,-2.00000000e-009,1.10625662e-004
,,,-1.97500000e-009,8.76569120e-005
,,,-1.95000000e-009,6.00006618e-005
,,,-1.92500000e-009,2.71881615e-005
,,,-1.90000000e-009,-8.43683883e-006
,,,-1.87500000e-009,-4.54680892e-005
,,,-1.85000000e-009,-8.15618395e-005
,,,-1.82500000e-009,-1.15311840e-004
,,,-1.80000000e-009,-1.43905590e-004
,,,-1.77500000e-009,-1.65936840e-004
,,,-1.75000000e-009,-1.79999340e-004
,,,-1.72500000e-009,-1.84686840e-004
,,,-1.70000000e-009,-1.80936840e-004
,,,-1.67500000e-009,-1.70155590e-004
,,,-1.65000000e-009,-1.52811840e-004
,,,-1.62500000e-009,-1.31718090e-004
,,,-1.60000000e-009,-1.07811840e-004
,,,-1.57500000e-009,-8.34368395e-005
,,,-1.55000000e-009,-5.99993393e-005
,,,-1.52500000e-009,-4.59368392e-005
,,,-1.50000000e-009,-3.65618391e-005
,,,-1.47500000e-009,-3.28118390e-005
,,,-1.45000000e-009,-3.32805891e-005
,,,-1.42500000e-009,-3.74993391e-005
,,,-1.40000000e-009,-4.40618391e-005
,,,-1.37500000e-009,-5.20305892e-005
,,,-1.35000000e-009,-5.99993393e-005
,,,-1.32500000e-009,-8.01555895e-005
,,,-1.30000000e-009,-1.01249340e-004
,,,-1.27500000e-009,-1.22343090e-004
,,,-1.25000000e-009,-1.41561840e-004
,,,-1.22500000e-009,-1.57968090e-004
,,,-1.20000000e-009,-1.70624340e-004
,,,-1.17500000e-009,-1.77655590e-004
,,,-1.15000000e-009,-1.79999340e-004
,,,-1.12500000e-009,-1.94999340e-004
,,,-1.10000000e-009,-2.08124341e-004
,,,-1.07500000e-009,-2.17968091e-004
,,,-1.05000000e-009,-2.23124341e-004
,,,-1.02500000e-009,-2.22655591e-004
,,,-1.00000000e-009,-2.14686841e-004
,,,-9.75000000e-010,-2.00155591e-004
,,,-9.50000000e-010,-1.79999340e-004
,,,-9.25000000e-010,-1.81874340e-004
,,,-9.00000000e-010,-1.86561840e-004
,,,-8.75000000e-010,-1.94061840e-004
,,,-8.50000000e-010,-2.05780591e-004
,,,-8.25000000e-010,-2.20780591e-004
,,,-8.00000000e-010,-2.40468091e-004
,,,-7.75000000e-010,-2.66249341e-004
,,,-7.50000000e-010,-2.99999341e-004
,,,-7.25000000e-010,-3.73124342e-004
,,,-7.00000000e-010,-4.61718093e-004
,,,-6.75000000e-010,-5.65780594e-004
,,,-6.50000000e-010,-6.83905595e-004
,,,-6.25000000e-010,-8.14218096e-004
,,,-6.00000000e-010,-9.54374347e-004
,,,-5.75000000e-010,-1.10390560e-003
,,,-5.50000000e-010,-1.25999935e-003
,,,-5.25000000e-010,-1.44093685e-003
,,,-5.00000000e-010,-1.62796810e-003
,,,-4.75000000e-010,-1.81781185e-003
,,,-4.50000000e-010,-2.00671811e-003
,,,-4.25000000e-010,-2.19140561e-003
,,,-4.00000000e-010,-2.36953061e-003
,,,-3.75000000e-010,-2.53921811e-003
,,,-3.50000000e-010,-2.69999936e-003
,,,-3.25000000e-010,-2.85609311e-003
,,,-3.00000000e-010,-3.00937436e-003
,,,-2.75000000e-010,-3.16312437e-003
,,,-2.50000000e-010,-3.31968687e-003
,,,-2.25000000e-010,-3.48234312e-003
,,,-2.00000000e-010,-3.65203062e-003
,,,-1.75000000e-010,-3.83156187e-003
,,,-1.50000000e-010,-4.01999937e-003
,,,-1.25000000e-010,-4.20374938e-003
,,,-1.00000000e-010,-4.39687438e-003
,,,-7.50000000e-011,-4.59796813e-003
,,,-5.00000000e-011,-4.80281188e-003
,,,-2.50000000e-011,-5.00859313e-003
,,,0.00000000e+000,-5.20968688e-003
,,,2.50000000e-011,-5.40140564e-003
,,,5.00000000e-011,-5.57999939e-003
,,,7.50000000e-011,-5.71031189e-003
,,,1.00000000e-010,-5.82515564e-003
,,,1.25000000e-010,-5.92687439e-003
,,,1.50000000e-010,-6.01734314e-003
,,,1.75000000e-010,-6.09890564e-003
,,,2.00000000e-010,-6.17249939e-003
,,,2.25000000e-010,-6.23953064e-003
,,,2.50000000e-010,-6.29999939e-003
,,,2.75000000e-010,-6.31312439e-003
,,,3.00000000e-010,-6.32296814e-003
,,,3.25000000e-010,-6.33093689e-003
,,,3.50000000e-010,-6.33703064e-003
,,,3.75000000e-010,-6.33984314e-003
,,,4.00000000e-010,-6.33656189e-003
,,,4.25000000e-010,-6.32437439e-003
,,,4.50000000e-010,-6.29999939e-003
,,,4.75000000e-010,-6.22078064e-003
,,,5.00000000e-010,-6.12937439e-003
,,,5.25000000e-010,-6.02953064e-003
,,,5.50000000e-010,-5.92218689e-003
,,,5.75000000e-010,-5.81062439e-003
,,,6.00000000e-010,-5.69531189e-003
,,,6.25000000e-010,-5.57859314e-003
,,,6.50000000e-010,-5.45999939e-003
,,,6.75000000e-010,-5.31187438e-003
,,,7.00000000e-010,-5.16515563e-003
,,,7.25000000e-010,-5.02265563e-003
,,,7.50000000e-010,-4.88437438e-003
,,,7.75000000e-010,-4.75171813e-003
,,,8.00000000e-010,-4.62374938e-003
,,,8.25000000e-010,-4.50046813e-003
,,,8.50000000e-010,-4.37999938e-003
,,,8.75000000e-010,-4.24687438e-003
,,,9.00000000e-010,-4.11515562e-003
,,,9.25000000e-010,-3.98718687e-003
,,,9.50000000e-010,-3.86296812e-003
,,,9.75000000e-010,-3.74390562e-003
,,,1.00000000e-009,-3.63046812e-003
,,,1.02500000e-009,-3.52265562e-003
,,,1.05000000e-009,-3.41999937e-003
,,,1.07500000e-009,-3.32062437e-003
,,,1.10000000e-009,-3.22171812e-003
,,,1.12500000e-009,-3.12093687e-003
,,,1.15000000e-009,-3.01874937e-003
,,,1.17500000e-009,-2.91328061e-003
,,,1.20000000e-009,-2.80499936e-003
,,,1.22500000e-009,-2.69390561e-003
,,,1.25000000e-009,-2.57999936e-003
,,,1.27500000e-009,-2.47406186e-003
,,,1.30000000e-009,-2.36343686e-003
,,,1.32500000e-009,-2.25046811e-003
,,,1.35000000e-009,-2.13703061e-003
,,,1.37500000e-009,-2.02640561e-003
,,,1.40000000e-009,-1.92187436e-003
,,,1.42500000e-009,-1.82578060e-003
,,,1.45000000e-009,-1.73999935e-003
,,,1.47500000e-009,-1.68374935e-003
,,,1.50000000e-009,-1.63406185e-003
,,,1.52500000e-009,-1.58859310e-003
,,,1.55000000e-009,-1.54593685e-003
,,,1.57500000e-009,-1.50468685e-003
,,,1.60000000e-009,-1.46390560e-003
,,,1.62500000e-009,-1.42218685e-003
,,,1.65000000e-009,-1.37999935e-003
,,,1.67500000e-009,-1.35328060e-003
,,,1.70000000e-009,-1.32187435e-003
,,,1.72500000e-009,-1.28671810e-003
,,,1.75000000e-009,-1.25015560e-003
,,,1.77500000e-009,-1.21406185e-003
,,,1.80000000e-009,-1.18218685e-003
,,,1.82500000e-009,-1.15687435e-003
,,,1.85000000e-009,-1.13999935e-003
,,,1.87500000e-009,-1.14703060e-003
,,,1.90000000e-009,-1.15968685e-003
,,,1.92500000e-009,-1.17609310e-003
,,,1.95000000e-009,-1.19484310e-003
,,,1.97500000e-009,-1.21406185e-003
,,,2.00000000e-009,-1.23187435e-003
,,,2.02500000e-009,-1.24734310e-003
,,,2.05000000e-009,-1.25999935e-003
,,,2.07500000e-009,-1.27781185e-003
,,,2.10000000e-009,-1.29093685e-003
,,,2.12500000e-009,-1.30031185e-003
,,,2.15000000e-009,-1.30828060e-003
,,,2.17500000e-009,-1.31812435e-003
,,,2.20000000e-009,-1.33218685e-003
,,,2.22500000e-009,-1.35234310e-003
,,,2.25000000e-009,-1.37999935e-003
,,,2.27500000e-009,-1.41890560e-003
,,,2.30000000e-009,-1.46109310e-003
,,,2.32500000e-009,-1.50374935e-003
,,,2.35000000e-009,-1.54406185e-003
,,,2.37500000e-009,-1.57874935e-003
,,,2.40000000e-009,-1.60406185e-003
,,,2.42500000e-009,-1.61859310e-003
,,,2.45000000e-009,-1.61999935e-003
,,,2.47500000e-009,-1.60734310e-003
,,,2.50000000e-009,-1.58203060e-003
,,,2.52500000e-009,-1.54828060e-003
,,,2.55000000e-009,-1.50937435e-003
,,,2.57500000e-009,-1.46906185e-003
,,,2.60000000e-009,-1.43203060e-003
,,,2.62500000e-009,-1.40156185e-003
,,,2.65000000e-009,-1.37999935e-003
,,,2.67500000e-009,-1.36640560e-003
,,,2.70000000e-009,-1.36171810e-003
,,,2.72500000e-009,-1.36453060e-003
,,,2.75000000e-009,-1.37203060e-003
,,,2.77500000e-009,-1.38046810e-003
,,,2.80000000e-009,-1.38656185e-003
,,,2.82500000e-009,-1.38749935e-003
,,,2.85000000e-009,-1.37999935e-003
,,,2.87500000e-009,-1.35984310e-003
,,,2.90000000e-009,-1.33124935e-003
,,,2.92500000e-009,-1.29562435e-003
,,,2.95000000e-009,-1.25718685e-003
,,,2.97500000e-009,-1.21874935e-003
,,,3.00000000e-009,-1.18453060e-003
,,,3.02500000e-009,-1.15734310e-003
,,,3.05000000e-009,-1.13999935e-003
,,,3.07500000e-009,-1.13109310e-003
,,,3.10000000e-009,-1.13296810e-003
,,,3.12500000e-009,-1.14421810e-003
,,,3.15000000e-009,-1.16343685e-003
,,,3.17500000e-009,-1.18734310e-003
,,,3.20000000e-009,-1.21359310e-003
,,,3.22500000e-009,-1.23890560e-003
,,,3.25000000e-009,-1.25999935e-003
,,,3.27500000e-009,-1.27078060e-003
,,,3.30000000e-009,-1.27265560e-003
,,,3.32500000e-009,-1.26562435e-003
,,,3.35000000e-009,-1.25015560e-003
,,,3.37500000e-009,-1.22859310e-003
,,,3.40000000e-009,-1.20140560e-003
,,,3.42500000e-009,-1.17140560e-003
,,,3.45000000e-009,-1.13999935e-003
,,,3.47500000e-009,-1.10671810e-003
,,,3.50000000e-009,-1.07343685e-003
,,,3.52500000e-009,-1.04109310e-003
,,,3.55000000e-009,-1.01015560e-003
,,,3.57500000e-009,-9.81093097e-004
,,,3.60000000e-009,-9.52968097e-004
,,,3.62500000e-009,-9.26249347e-004
,,,3.65000000e-009,-8.99999347e-004
,,,3.67500000e-009,-8.72343096e-004
,,,3.70000000e-009,-8.43280596e-004
,,,3.72500000e-009,-8.13280596e-004
,,,3.75000000e-009,-7.82811846e-004
,,,3.77500000e-009,-7.51874345e-004
,,,3.80000000e-009,-7.20936845e-004
,,,3.82500000e-009,-6.89999345e-004
,,,3.85000000e-009,-6.59999344e-004
,,,3.87500000e-009,-6.30468094e-004
,,,3.90000000e-009,-5.99999344e-004
,,,3.92500000e-009,-5.69530594e-004
,,,3.95000000e-009,-5.39061843e-004
,,,3.97500000e-009,-5.08124343e-004
,,,4.00000000e-009,-4.77655593e-004
,,,4.02500000e-009,-4.48124343e-004
,,,4.05000000e-009,-4.19999342e-004
,,,4.07500000e-009,-3.94686842e-004
,,,4.10000000e-009,-3.70780592e-004
,,,4.12500000e-009,-3.49218092e-004
,,,4.15000000e-009,-3.30936842e-004
,,,4.17500000e-009,-3.16405592e-004
,,,4.20000000e-009,-3.06561841e-004
,,,4.22500000e-009,-3.00936841e-004
,,,4.25000000e-009,-2.99999341e-004
,,,4.27500000e-009,-3.05624341e-004
,,,4.30000000e-009,-3.12186841e-004
,,,4.32500000e-009,-3.18280592e-004
,,,4.35000000e-009,-3.22968092e-004
,,,4.37500000e-009,-3.24374342e-004
,,,4.40000000e-009,-3.21561842e-004
,,,4.42500000e-009,-3.13593091e-004
,,,4.45000000e-009,-2.99999341e-004
,,,4.47500000e-009,-2.82655591e-004
,,,4.50000000e-009,-2.58749341e-004
,,,4.52500000e-009,-2.29218091e-004
,,,4.55000000e-009,-1.95936840e-004
,,,4.57500000e-009,-1.60780590e-004
,,,4.60000000e-009,-1.25155590e-004
,,,4.62500000e-009,-9.14055896e-005
,,,4.65000000e-009,-5.99993393e-005
,,,4.67500000e-009,-3.60930891e-005
,,,4.70000000e-009,-1.49993389e-005
,,,4.72500000e-009,2.34441126e-006
,,,4.75000000e-009,1.68756614e-005
,,,4.77500000e-009,2.95319115e-005
,,,4.80000000e-009,4.07819116e-005
,,,4.82500000e-009,5.06256617e-005
,,,4.85000000e-009,6.00006618e-005
,,,4.87500000e-009,6.56256618e-005
,,,4.90000000e-009,7.07819119e-005
,,,4.92500000e-009,7.59381619e-005
,,,4.95000000e-009,7.92194119e-005
,,,4.97500000e-009,8.01569119e-005
,,,5.00000000e-009,7.73444119e-005
,,,5.02500000e-009,7.07819119e-005
,,,5.05000000e-009,6.00006618e-005
,,,5.07500000e-009,4.26569116e-005
,,,5.10000000e-009,2.34381614e-005
,,,5.12500000e-009,3.28191127e-006
,,,5.15000000e-009,-1.68743389e-005
,,,5.17500000e-009,-3.42180891e-005
,,,5.20000000e-009,-4.82805892e-005
,,,5.22500000e-009,-5.71868393e-005
,,,5.25000000e-009,-5.99993393e-005
,,,5.27500000e-009,-5.67180893e-005
,,,5.30000000e-009,-4.73430892e-005
,,,5.32500000e-009,-3.23430890e-005
,,,5.35000000e-009,-1.40618389e-005
,,,5.37500000e-009,6.09441129e-006
,,,5.40000000e-009,2.62506615e-005
,,,5.42500000e-009,4.45319116e-005
,,,5.45000000e-009,6.00006618e-005
,,,5.47500000e-009,6.98444118e-005
,,,5.50000000e-009,7.59381619e-005
,,,5.52500000e-009,7.78131619e-005
,,,5.55000000e-009,7.68756619e-005
,,,5.57500000e-009,7.35944119e-005
,,,5.60000000e-009,6.89069118e-005
,,,5.62500000e-009,6.42194118e-005
,,,5.65000000e-009,6.00006618e-005
,,,5.67500000e-009,5.57819117e-005
,,,5.70000000e-009,5.34381617e-005
,,,5.72500000e-009,5.25006617e-005
,,,5.75000000e-009,5.29694117e-005
,,,5.77500000e-009,5.48444117e-005
,,,5.80000000e-009,5.67194117e-005
,,,5.82500000e-009,5.85944117e-005
,,,5.85000000e-009,6.00006618e-005
,,,5.87500000e-009,5.95319118e-005
,,,5.90000000e-009,5.85944117e-005
,,,5.92500000e-009,5.67194117e-005
,,,5.95000000e-009,5.53131617e-005
,,,5.97500000e-009,5.39069117e-005
