RawData/SinglePhotoelectron/L5_2pt2A_5mV/wave015_Ch1.csv

"Record Length",1000,"Points",-7.72500000e-009,6.00006618e-005
"Sample Interval",2.50000000e-011,s,-7.70000000e-009,4.92194117e-005
"Trigger Point",309,"Samples",-7.67500000e-009,4.07819116e-005
"Trigger Time",2.16204464e-011,s,-7.65000000e-009,3.56256615e-005
"",,,-7.62500000e-009,3.37506615e-005
"Horizontal Offset",-7.72500000e-009,s,-7.60000000e-009,3.51569115e-005
,,,-7.57500000e-009,4.03131616e-005
,,,-7.55000000e-009,4.87506617e-005
,,,-7.52500000e-009,6.00006618e-005
,,,-7.50000000e-009,7.21881619e-005
,,,-7.47500000e-009,8.62506620e-005
,,,-7.45000000e-009,1.01250662e-004
,,,-7.42500000e-009,1.17188162e-004
,,,-7.40000000e-009,1.33125662e-004
,,,-7.37500000e-009,1.49531913e-004
,,,-7.35000000e-009,1.65000663e-004
,,,-7.32500000e-009,1.80000663e-004
,,,-7.30000000e-009,1.92188163e-004
,,,-7.27500000e-009,2.02031913e-004
,,,-7.25000000e-009,2.08125663e-004
,,,-7.22500000e-009,2.10938163e-004
,,,-7.20000000e-009,2.09531913e-004
,,,-7.17500000e-009,2.03906913e-004
,,,-7.15000000e-009,1.93594413e-004
,,,-7.12500000e-009,1.80000663e-004
,,,-7.10000000e-009,1.60781913e-004
,,,-7.07500000e-009,1.40625662e-004
,,,-7.05000000e-009,1.20000662e-004
,,,-7.02500000e-009,1.00781912e-004
,,,-7.00000000e-009,8.43756620e-005
,,,-6.97500000e-009,7.17194119e-005
,,,-6.95000000e-009,6.32819118e-005
,,,-6.92500000e-009,6.00006618e-005
,,,-6.90000000e-009,6.04694118e-005
,,,-6.87500000e-009,6.37506618e-005
,,,-6.85000000e-009,6.89069118e-005
,,,-6.82500000e-009,7.40631619e-005
,,,-6.80000000e-009,7.68756619e-005
,,,-6.77500000e-009,7.64069119e-005
,,,-6.75000000e-009,7.07819119e-005
,,,-6.72500000e-009,6.00006618e-005
,,,-6.70000000e-009,4.50006616e-005
,,,-6.67500000e-009,2.62506615e-005
,,,-6.65000000e-009,5.62566129e-006
,,,-6.62500000e-009,-1.49993389e-005
,,,-6.60000000e-009,-3.37493391e-005
,,,-6.57500000e-009,-4.87493392e-005
,,,-6.55000000e-009,-5.81243393e-005
,,,-6.52500000e-009,-5.99993393e-005
,,,-6.50000000e-009,-5.20305892e-005
,,,-6.47500000e-009,-3.74993391e-005
,,,-6.45000000e-009,-1.82805889e-005
,,,-6.42500000e-009,3.28191127e-006
,,,-6.40000000e-009,2.43756615e-005
,,,-6.37500000e-009,4.21881616e-005
,,,-6.35000000e-009,5.48444117e-005
,,,-6.32500000e-009,6.00006618e-005
,,,-6.30000000e-009,5.90631618e-005
,,,-6.27500000e-009,5.06256617e-005
,,,-6.25000000e-009,3.56256615e-005
,,,-6.22500000e-009,1.64069114e-005
,,,-6.20000000e-009,-5.62433881e-006
,,,-6.17500000e-009,-2.71868390e-005
,,,-6.15000000e-009,-4.59368392e-005
,,,-6.12500000e-009,-5.99993393e-005
,,,-6.10000000e-009,-6.46868393e-005
,,,-6.07500000e-009,-6.18743393e-005
,,,-6.05000000e-009,-5.20305892e-005
,,,-6.02500000e-009,-3.60930891e-005
,,,-6.00000000e-009,-1.54680889e-005
,,,-5.97500000e-009,7.96941131e-006
,,,-5.95000000e-009,3.37506615e-005
,,,-5.92500000e-009,6.00006618e-005
,,,-5.90000000e-009,8.76569120e-005
,,,-5.87500000e-009,1.14844412e-004
,,,-5.85000000e-009,1.42031912e-004
,,,-5.82500000e-009,1.70156913e-004
,,,-5.80000000e-009,1.99219413e-004
,,,-5.77500000e-009,2.30156913e-004
,,,-5.75000000e-009,2.63438164e-004
,,,-5.72500000e-009,3.00000664e-004
,,,-5.70000000e-009,3.37031914e-004
,,,-5.67500000e-009,3.75000664e-004
,,,-5.65000000e-009,4.12969415e-004
,,,-5.62500000e-009,4.49063165e-004
,,,-5.60000000e-009,4.80938165e-004
,,,-5.57500000e-009,5.07656916e-004
,,,-5.55000000e-009,5.27813166e-004
,,,-5.52500000e-009,5.40000666e-004
,,,-5.50000000e-009,5.39531916e-004
,,,-5.47500000e-009,5.31563166e-004
,,,-5.45000000e-009,5.17500666e-004
,,,-5.42500000e-009,4.99219416e-004
,,,-5.40000000e-009,4.78125665e-004
,,,-5.37500000e-009,4.57031915e-004
,,,-5.35000000e-009,4.36875665e-004
,,,-5.32500000e-009,4.20000665e-004
,,,-5.30000000e-009,4.05000665e-004
,,,-5.27500000e-009,3.95156915e-004
,,,-5.25000000e-009,3.90938165e-004
,,,-5.22500000e-009,3.91406915e-004
,,,-5.20000000e-009,3.95625665e-004
,,,-5.17500000e-009,4.02656915e-004
,,,-5.15000000e-009,4.11094415e-004
,,,-5.12500000e-009,4.20000665e-004
,,,-5.10000000e-009,4.24688165e-004
,,,-5.07500000e-009,4.27969415e-004
,,,-5.05000000e-009,4.29844415e-004
,,,-5.02500000e-009,4.30313165e-004
,,,-5.00000000e-009,4.29844415e-004
,,,-4.97500000e-009,4.27500665e-004
,,,-4.95000000e-009,4.24219415e-004
,,,-4.92500000e-009,4.20000665e-004
,,,-4.90000000e-009,4.12031915e-004
,,,-4.87500000e-009,4.02656915e-004
,,,-4.85000000e-009,3.92344415e-004
,,,-4.82500000e-009,3.79219415e-004
,,,-4.80000000e-009,3.63750664e-004
,,,-4.77500000e-009,3.45469414e-004
,,,-4.75000000e-009,3.23906914e-004
,,,-4.72500000e-009,3.00000664e-004
,,,-4.70000000e-009,2.74219414e-004
,,,-4.67500000e-009,2.48438163e-004
,,,-4.65000000e-009,2.24063163e-004
,,,-4.62500000e-009,2.03438163e-004
,,,-4.60000000e-009,1.87500663e-004
,,,-4.57500000e-009,1.77656913e-004
,,,-4.55000000e-009,1.74844413e-004
,,,-4.52500000e-009,1.80000663e-004
,,,-4.50000000e-009,1.93594413e-004
,,,-4.47500000e-009,2.12813163e-004
,,,-4.45000000e-009,2.34375663e-004
,,,-4.42500000e-009,2.56406913e-004
,,,-4.40000000e-009,2.75625664e-004
,,,-4.37500000e-009,2.90625664e-004
,,,-4.35000000e-009,2.99063164e-004
,,,-4.32500000e-009,3.00000664e-004
,,,-4.30000000e-009,2.93438164e-004
,,,-4.27500000e-009,2.79844414e-004
,,,-4.25000000e-009,2.61094414e-004
,,,-4.22500000e-009,2.40000663e-004
,,,-4.20000000e-009,2.18438163e-004
,,,-4.17500000e-009,1.99688163e-004
,,,-4.15000000e-009,1.86563163e-004
,,,-4.12500000e-009,1.80000663e-004
,,,-4.10000000e-009,1.82344413e-004
,,,-4.07500000e-009,1.92188163e-004
,,,-4.05000000e-009,2.07656913e-004
,,,-4.02500000e-009,2.27344413e-004
,,,-4.00000000e-009,2.48906913e-004
,,,-3.97500000e-009,2.69063164e-004
,,,-3.95000000e-009,2.86875664e-004
,,,-3.92500000e-009,3.00000664e-004
,,,-3.90000000e-009,3.06563164e-004
,,,-3.87500000e-009,3.08438164e-004
,,,-3.85000000e-009,3.05625664e-004
,,,-3.82500000e-009,3.00469414e-004
,,,-3.80000000e-009,2.94844414e-004
,,,-3.77500000e-009,2.92031914e-004
,,,-3.75000000e-009,2.92969414e-004
,,,-3.72500000e-009,3.00000664e-004
,,,-3.70000000e-009,3.11719414e-004
,,,-3.67500000e-009,3.28125664e-004
,,,-3.65000000e-009,3.48281914e-004
,,,-3.62500000e-009,3.69375664e-004
,,,-3.60000000e-009,3.89531915e-004
,,,-3.57500000e-009,4.05938165e-004
,,,-3.55000000e-009,4.16250665e-004
,,,-3.52500000e-009,4.20000665e-004
,,,-3.50000000e-009,4.12969415e-004
,,,-3.47500000e-009,3.99375665e-004
,,,-3.45000000e-009,3.80625665e-004
,,,-3.42500000e-009,3.59531914e-004
,,,-3.40000000e-009,3.38906914e-004
,,,-3.37500000e-009,3.20625664e-004
,,,-3.35000000e-009,3.07031914e-004
,,,-3.32500000e-009,3.00000664e-004
,,,-3.30000000e-009,2.98594414e-004
,,,-3.27500000e-009,3.03281914e-004
,,,-3.25000000e-009,3.10781914e-004
,,,-3.22500000e-009,3.18750664e-004
,,,-3.20000000e-009,3.24375664e-004
,,,-3.17500000e-009,3.24375664e-004
,,,-3.15000000e-009,3.16406914e-004
,,,-3.12500000e-009,3.00000664e-004
,,,-3.10000000e-009,2.72344414e-004
,,,-3.07500000e-009,2.38125663e-004
,,,-3.05000000e-009,1.98750663e-004
,,,-3.02500000e-009,1.58906913e-004
,,,-3.00000000e-009,1.21406912e-004
,,,-2.97500000e-009,9.09381620e-005
,,,-2.95000000e-009,6.98444118e-005
,,,-2.92500000e-009,6.00006618e-005
,,,-2.90000000e-009,6.28131618e-005
,,,-2.87500000e-009,7.54694119e-005
,,,-2.85000000e-009,9.60944121e-005
,,,-2.82500000e-009,1.20469412e-004
,,,-2.80000000e-009,1.44375662e-004
,,,-2.77500000e-009,1.64531913e-004
,,,-2.75000000e-009,1.76719413e-004
,,,-2.72500000e-009,1.80000663e-004
,,,-2.70000000e-009,1.72500663e-004
,,,-2.67500000e-009,1.56094413e-004
,,,-2.65000000e-009,1.33125662e-004
,,,-2.62500000e-009,1.07344412e-004
,,,-2.60000000e-009,8.34381620e-005
,,,-2.57500000e-009,6.51569118e-005
,,,-2.55000000e-009,5.67194117e-005
,,,-2.52500000e-009,6.00006618e-005
,,,-2.50000000e-009,7.78131619e-005
,,,-2.47500000e-009,1.07344412e-004
,,,-2.45000000e-009,1.44375662e-004
,,,-2.42500000e-009,1.85625663e-004
,,,-2.40000000e-009,2.26406913e-004
,,,-2.37500000e-009,2.61563164e-004
,,,-2.35000000e-009,2.86875664e-004
,,,-2.32500000e-009,3.00000664e-004
,,,-2.30000000e-009,2.97656914e-004
,,,-2.27500000e-009,2.81250664e-004
,,,-2.25000000e-009,2.52656913e-004
,,,-2.22500000e-009,2.15156913e-004
,,,-2.20000000e-009,1.72969413e-004
,,,-2.17500000e-009,1.30313162e-004
,,,-2.15000000e-009,9.18756620e-005
,,,-2.12500000e-009,6.00006618e-005
,,,-2.10000000e-009,3.84381616e-005
,,,-2.07500000e-009,2.71881615e-005
,,,-2.05000000e-009,2.48444115e-005
,,,-2.02500000e-009,2.90631615e-005
,,,-2.00000000e-009,3.75006616e-005
,,,-1.97500000e-009,4.68756616e-005
,,,-1.95000000e-009,5.48444117e-005
,,,-1.92500000e-009,6.00006618e-005
,,,-1.90000000e-009,5.95319118e-005
,,,-1.87500000e-009,5.53131617e-005
,,,-1.85000000e-009,4.87506617e-005
,,,-1.82500000e-009,4.12506616e-005
,,,-1.80000000e-009,3.65631616e-005
,,,-1.77500000e-009,3.65631616e-005
,,,-1.75000000e-009,4.40631616e-005
,,,-1.72500000e-009,6.00006618e-005
,,,-1.70000000e-009,8.29694120e-005
,,,-1.67500000e-009,1.12969412e-004
,,,-1.65000000e-009,1.48594413e-004
,,,-1.62500000e-009,1.86094413e-004
,,,-1.60000000e-009,2.22656913e-004
,,,-1.57500000e-009,2.55938163e-004
,,,-1.55000000e-009,2.82188164e-004
,,,-1.52500000e-009,3.00000664e-004
,,,-1.50000000e-009,2.99531914e-004
,,,-1.47500000e-009,2.89688164e-004
,,,-1.45000000e-009,2.71406914e-004
,,,-1.42500000e-009,2.48906913e-004
,,,-1.40000000e-009,2.25000663e-004
,,,-1.37500000e-009,2.03906913e-004
,,,-1.35000000e-009,1.88438163e-004
,,,-1.32500000e-009,1.80000663e-004
,,,-1.30000000e-009,1.67344413e-004
,,,-1.27500000e-009,1.61250663e-004
,,,-1.25000000e-009,1.59844413e-004
,,,-1.22500000e-009,1.62656913e-004
,,,-1.20000000e-009,1.68281913e-004
,,,-1.17500000e-009,1.73906913e-004
,,,-1.15000000e-009,1.78594413e-004
,,,-1.12500000e-009,1.80000663e-004
,,,-1.10000000e-009,1.54688163e-004
,,,-1.07500000e-009,1.21875662e-004
,,,-1.05000000e-009,8.43756620e-005
,,,-1.02500000e-009,4.50006616e-005
,,,-1.00000000e-009,7.96941131e-006
,,,-9.75000000e-010,-2.29680890e-005
,,,-9.50000000e-010,-4.59368392e-005
,,,-9.25000000e-010,-5.99993393e-005
,,,-9.00000000e-010,-9.32805896e-005
,,,-8.75000000e-010,-1.23749340e-004
,,,-8.50000000e-010,-1.51405590e-004
,,,-8.25000000e-010,-1.77655590e-004
,,,-8.00000000e-010,-2.03905591e-004
,,,-7.75000000e-010,-2.31093091e-004
,,,-7.50000000e-010,-2.62499341e-004
,,,-7.25000000e-010,-2.99999341e-004
,,,-7.00000000e-010,-3.75936842e-004
,,,-6.75000000e-010,-4.65936843e-004
,,,-6.50000000e-010,-5.67655594e-004
,,,-6.25000000e-010,-6.78280595e-004
,,,-6.00000000e-010,-7.93124346e-004
,,,-5.75000000e-010,-9.09843097e-004
,,,-5.50000000e-010,-1.02609310e-003
,,,-5.25000000e-010,-1.13999935e-003
,,,-5.00000000e-010,-1.27359310e-003
,,,-4.75000000e-010,-1.41093685e-003
,,,-4.50000000e-010,-1.55203060e-003
,,,-4.25000000e-010,-1.69687435e-003
,,,-4.00000000e-010,-1.84734310e-003
,,,-3.75000000e-010,-2.00343686e-003
,,,-3.50000000e-010,-2.16749936e-003
,,,-3.25000000e-010,-2.33999936e-003
,,,-3.00000000e-010,-2.52937436e-003
,,,-2.75000000e-010,-2.73234311e-003
,,,-2.50000000e-010,-2.94796811e-003
,,,-2.25000000e-010,-3.17484312e-003
,,,-2.00000000e-010,-3.41062437e-003
,,,-1.75000000e-010,-3.65203062e-003
,,,-1.50000000e-010,-3.89624937e-003
,,,-1.25000000e-010,-4.13999937e-003
,,,-1.00000000e-010,-4.36499938e-003
,,,-7.50000000e-011,-4.58671813e-003
,,,-5.00000000e-011,-4.80515563e-003
,,,-2.50000000e-011,-5.01984313e-003
,,,0.00000000e+000,-5.22984313e-003
,,,2.50000000e-011,-5.43421814e-003
,,,5.00000000e-011,-5.63156189e-003
,,,7.50000000e-011,-5.81999939e-003
,,,1.00000000e-010,-5.96437439e-003
,,,1.25000000e-010,-6.10078064e-003
,,,1.50000000e-010,-6.23109314e-003
,,,1.75000000e-010,-6.35578064e-003
,,,2.00000000e-010,-6.47390565e-003
,,,2.25000000e-010,-6.58546815e-003
,,,2.50000000e-010,-6.68859315e-003
,,,2.75000000e-010,-6.77999940e-003
,,,3.00000000e-010,-6.81281190e-003
,,,3.25000000e-010,-6.83484315e-003
,,,3.50000000e-010,-6.84796815e-003
,,,3.75000000e-010,-6.85312440e-003
,,,4.00000000e-010,-6.85031190e-003
,,,4.25000000e-010,-6.83812440e-003
,,,4.50000000e-010,-6.81562440e-003
,,,4.75000000e-010,-6.77999940e-003
,,,5.00000000e-010,-6.68531190e-003
,,,5.25000000e-010,-6.58078065e-003
,,,5.50000000e-010,-6.46781189e-003
,,,5.75000000e-010,-6.34828064e-003
,,,6.00000000e-010,-6.22359314e-003
,,,6.25000000e-010,-6.09374939e-003
,,,6.50000000e-010,-5.95968689e-003
,,,6.75000000e-010,-5.81999939e-003
,,,7.00000000e-010,-5.64187439e-003
,,,7.25000000e-010,-5.46328064e-003
,,,7.50000000e-010,-5.28703063e-003
,,,7.75000000e-010,-5.11593688e-003
,,,8.00000000e-010,-4.95093688e-003
,,,8.25000000e-010,-4.79296813e-003
,,,8.50000000e-010,-4.64296813e-003
,,,8.75000000e-010,-4.49999938e-003
,,,9.00000000e-010,-4.34624938e-003
,,,9.25000000e-010,-4.19859313e-003
,,,9.50000000e-010,-4.05609312e-003
,,,9.75000000e-010,-3.91968687e-003
,,,1.00000000e-009,-3.78843687e-003
,,,1.02500000e-009,-3.66187437e-003
,,,1.05000000e-009,-3.53953062e-003
,,,1.07500000e-009,-3.41999937e-003
,,,1.10000000e-009,-3.30046812e-003
,,,1.12500000e-009,-3.17953062e-003
,,,1.15000000e-009,-3.05671812e-003
,,,1.17500000e-009,-2.93296811e-003
,,,1.20000000e-009,-2.81015561e-003
,,,1.22500000e-009,-2.68968686e-003
,,,1.25000000e-009,-2.57249936e-003
,,,1.27500000e-009,-2.45999936e-003
,,,1.30000000e-009,-2.36296811e-003
,,,1.32500000e-009,-2.26640561e-003
,,,1.35000000e-009,-2.17078061e-003
,,,1.37500000e-009,-2.07703061e-003
,,,1.40000000e-009,-1.98609311e-003
,,,1.42500000e-009,-1.89890561e-003
,,,1.45000000e-009,-1.81687435e-003
,,,1.47500000e-009,-1.73999935e-003
,,,1.50000000e-009,-1.68515560e-003
,,,1.52500000e-009,-1.62937435e-003
,,,1.55000000e-009,-1.57171810e-003
,,,1.57500000e-009,-1.51124935e-003
,,,1.60000000e-009,-1.44937435e-003
,,,1.62500000e-009,-1.38609310e-003
,,,1.65000000e-009,-1.32234310e-003
,,,1.67500000e-009,-1.25999935e-003
,,,1.70000000e-009,-1.21781185e-003
,,,1.72500000e-009,-1.17281185e-003
,,,1.75000000e-009,-1.12593685e-003
,,,1.77500000e-009,-1.07765560e-003
,,,1.80000000e-009,-1.02937435e-003
,,,1.82500000e-009,-9.82499347e-004
,,,1.85000000e-009,-9.38905597e-004
,,,1.87500000e-009,-8.99999347e-004
,,,1.90000000e-009,-8.82655596e-004
,,,1.92500000e-009,-8.66718096e-004
,,,1.95000000e-009,-8.51249346e-004
,,,1.97500000e-009,-8.36718096e-004
,,,2.00000000e-009,-8.21718096e-004
,,,2.02500000e-009,-8.07186846e-004
,,,2.05000000e-009,-7.93593096e-004
,,,2.07500000e-009,-7.79999346e-004
,,,2.10000000e-009,-7.79999346e-004
,,,2.12500000e-009,-7.79061846e-004
,,,2.15000000e-009,-7.76249346e-004
,,,2.17500000e-009,-7.73436845e-004
,,,2.20000000e-009,-7.71093095e-004
,,,2.22500000e-009,-7.70155595e-004
,,,2.25000000e-009,-7.72968095e-004
,,,2.27500000e-009,-7.79999346e-004
,,,2.30000000e-009,-8.00155596e-004
,,,2.32500000e-009,-8.23593096e-004
,,,2.35000000e-009,-8.50311846e-004
,,,2.37500000e-009,-8.79843096e-004
,,,2.40000000e-009,-9.12186847e-004
,,,2.42500000e-009,-9.46405597e-004
,,,2.45000000e-009,-9.82499347e-004
,,,2.47500000e-009,-1.01999935e-003
,,,2.50000000e-009,-1.06031185e-003
,,,2.52500000e-009,-1.09828060e-003
,,,2.55000000e-009,-1.13343685e-003
,,,2.57500000e-009,-1.16578060e-003
,,,2.60000000e-009,-1.19484310e-003
,,,2.62500000e-009,-1.22015560e-003
,,,2.65000000e-009,-1.24218685e-003
,,,2.67500000e-009,-1.25999935e-003
,,,2.70000000e-009,-1.27031185e-003
,,,2.72500000e-009,-1.27640560e-003
,,,2.75000000e-009,-1.27874935e-003
,,,2.77500000e-009,-1.27781185e-003
,,,2.80000000e-009,-1.27499935e-003
,,,2.82500000e-009,-1.27124935e-003
,,,2.85000000e-009,-1.26609310e-003
,,,2.87500000e-009,-1.25999935e-003
,,,2.90000000e-009,-1.24781185e-003
,,,2.92500000e-009,-1.23468685e-003
,,,2.95000000e-009,-1.22062435e-003
,,,2.97500000e-009,-1.20609310e-003
,,,3.00000000e-009,-1.19062435e-003
,,,3.02500000e-009,-1.17468685e-003
,,,3.05000000e-009,-1.15781185e-003
,,,3.07500000e-009,-1.13999935e-003
,,,3.10000000e-009,-1.11656185e-003
,,,3.12500000e-009,-1.09312435e-003
,,,3.15000000e-009,-1.07156185e-003
,,,3.17500000e-009,-1.05281185e-003
,,,3.20000000e-009,-1.03781185e-003
,,,3.22500000e-009,-1.02749935e-003
,,,3.25000000e-009,-1.02187435e-003
,,,3.27500000e-009,-1.01999935e-003
,,,3.30000000e-009,-1.01578060e-003
,,,3.32500000e-009,-1.01203060e-003
,,,3.35000000e-009,-1.00734310e-003
,,,3.37500000e-009,-9.99843097e-004
,,,3.40000000e-009,-9.86718097e-004
,,,3.42500000e-009,-9.66561847e-004
,,,3.45000000e-009,-9.37968097e-004
,,,3.47500000e-009,-8.99999347e-004
,,,3.50000000e-009,-8.49843096e-004
,,,3.52500000e-009,-7.91718096e-004
,,,3.55000000e-009,-7.27499345e-004
,,,3.57500000e-009,-6.59999344e-004
,,,3.60000000e-009,-5.92968094e-004
,,,3.62500000e-009,-5.28749343e-004
,,,3.65000000e-009,-4.70624343e-004
,,,3.67500000e-009,-4.19999342e-004
,,,3.70000000e-009,-3.80624342e-004
,,,3.72500000e-009,-3.50624342e-004
,,,3.75000000e-009,-3.28593092e-004
,,,3.77500000e-009,-3.14530591e-004
,,,3.80000000e-009,-3.06561841e-004
,,,3.82500000e-009,-3.02811841e-004
,,,3.85000000e-009,-3.01405591e-004
,,,3.87500000e-009,-2.99999341e-004
,,,3.90000000e-009,-2.99530591e-004
,,,3.92500000e-009,-2.94843091e-004
,,,3.95000000e-009,-2.85468091e-004
,,,3.97500000e-009,-2.70936841e-004
,,,4.00000000e-009,-2.52186841e-004
,,,4.02500000e-009,-2.30155591e-004
,,,4.05000000e-009,-2.05780591e-004
,,,4.07500000e-009,-1.79999340e-004
,,,4.10000000e-009,-1.58905590e-004
,,,4.12500000e-009,-1.38280590e-004
,,,4.15000000e-009,-1.19061840e-004
,,,4.17500000e-009,-1.01718090e-004
,,,4.20000000e-009,-8.71868395e-005
,,,4.22500000e-009,-7.49993394e-005
,,,4.25000000e-009,-6.60930893e-005
,,,4.27500000e-009,-5.99993393e-005
,,,4.30000000e-009,-6.14055893e-005
,,,4.32500000e-009,-6.32805893e-005
,,,4.35000000e-009,-6.60930893e-005
,,,4.37500000e-009,-6.79680894e-005
,,,4.40000000e-009,-6.89055894e-005
,,,4.42500000e-009,-6.79680894e-005
,,,4.45000000e-009,-6.56243393e-005
,,,4.47500000e-009,-5.99993393e-005
,,,4.50000000e-009,-5.76555893e-005
,,,4.52500000e-009,-5.15618392e-005
,,,4.55000000e-009,-4.17180891e-005
,,,4.57500000e-009,-2.76555890e-005
,,,4.60000000e-009,-9.37433884e-006
,,,4.62500000e-009,1.17194113e-005
,,,4.65000000e-009,3.56256615e-005
,,,4.67500000e-009,6.00006618e-005
,,,4.70000000e-009,7.82819119e-005
,,,4.72500000e-009,9.37506621e-005
,,,4.75000000e-009,1.05469412e-004
,,,4.77500000e-009,1.11094412e-004
,,,4.80000000e-009,1.09688162e-004
,,,4.82500000e-009,1.00781912e-004
,,,4.85000000e-009,8.39069120e-005
,,,4.87500000e-009,6.00006618e-005
,,,4.90000000e-009,2.62506615e-005
,,,4.92500000e-009,-1.12493389e-005
,,,4.95000000e-009,-4.96868392e-005
,,,4.97500000e-009,-8.71868395e-005
,,,5.00000000e-009,-1.20468090e-004
,,,5.02500000e-009,-1.48124340e-004
,,,5.05000000e-009,-1.68280590e-004
,,,5.07500000e-009,-1.79999340e-004
,,,5.10000000e-009,-1.83749340e-004
,,,5.12500000e-009,-1.80468090e-004
,,,5.15000000e-009,-1.72968090e-004
,,,5.17500000e-009,-1.64530590e-004
,,,5.20000000e-009,-1.57968090e-004
,,,5.22500000e-009,-1.56561840e-004
,,,5.25000000e-009,-1.63593090e-004
,,,5.27500000e-009,-1.79999340e-004
,,,5.30000000e-009,-2.06718091e-004
,,,5.32500000e-009,-2.42811841e-004
,,,5.35000000e-009,-2.87811841e-004
,,,5.37500000e-009,-3.38436842e-004
,,,5.40000000e-009,-3.92343092e-004
,,,5.42500000e-009,-4.46249343e-004
,,,5.45000000e-009,-4.96405593e-004
,,,5.47500000e-009,-5.39999343e-004
,,,5.50000000e-009,-5.70468094e-004
,,,5.52500000e-009,-5.90155594e-004
,,,5.55000000e-009,-5.99999344e-004
,,,5.57500000e-009,-6.00468094e-004
,,,5.60000000e-009,-5.92968094e-004
,,,5.62500000e-009,-5.79374344e-004
,,,5.65000000e-009,-5.61561844e-004
,,,5.67500000e-009,-5.39999343e-004
,,,5.70000000e-009,-5.11874343e-004
,,,5.72500000e-009,-4.83280593e-004
,,,5.75000000e-009,-4.54686843e-004
,,,5.77500000e-009,-4.25624342e-004
,,,5.80000000e-009,-3.96093092e-004
,,,5.82500000e-009,-3.66093092e-004
,,,5.85000000e-009,-3.33749342e-004
,,,5.87500000e-009,-2.99999341e-004
,,,5.90000000e-009,-2.62030591e-004
,,,5.92500000e-009,-2.24061841e-004
,,,5.95000000e-009,-1.87030590e-004
,,,5.97500000e-009,-1.51874340e-004
,,,6.00000000e-009,-1.20936840e-004
