RawData/SinglePhotoelectron/L5_2pt2A_5mV/wave019_Ch1.csv

"Record Length",1000,"Points",-7.72500000e-009,4.78131617e-005
"Sample Interval",2.50000000e-011,s,-7.70000000e-009,4.21881616e-005
"Trigger Point",309,"Samples",-7.67500000e-009,3.84381616e-005
"Trigger Time",2.44086010e-011,s,-7.65000000e-009,3.79694116e-005
"",,,-7.62500000e-009,4.07819116e-005
"Horizontal Offset",-7.72500000e-009,s,-7.60000000e-009,4.78131617e-005
,,,-7.57500000e-009,6.00006618e-005
,,,-7.55000000e-009,7.31256619e-005
,,,-7.52500000e-009,8.95319120e-005
,,,-7.50000000e-009,1.07813162e-004
,,,-7.47500000e-009,1.26563162e-004
,,,-7.45000000e-009,1.44844412e-004
,,,-7.42500000e-009,1.60781913e-004
,,,-7.40000000e-009,1.72969413e-004
,,,-7.37500000e-009,1.80000663e-004
,,,-7.35000000e-009,1.77188163e-004
,,,-7.32500000e-009,1.66875663e-004
,,,-7.30000000e-009,1.48125663e-004
,,,-7.27500000e-009,1.20938162e-004
,,,-7.25000000e-009,8.57819120e-005
,,,-7.22500000e-009,4.31256616e-005
,,,-7.20000000e-009,-6.09308881e-006
,,,-7.17500000e-009,-5.99993393e-005
,,,-7.15000000e-009,-1.16718090e-004
,,,-7.12500000e-009,-1.72968090e-004
,,,-7.10000000e-009,-2.27811841e-004
,,,-7.07500000e-009,-2.79374341e-004
,,,-7.05000000e-009,-3.25311842e-004
,,,-7.02500000e-009,-3.64686842e-004
,,,-7.00000000e-009,-3.96561842e-004
,,,-6.97500000e-009,-4.19999342e-004
,,,-6.95000000e-009,-4.31249343e-004
,,,-6.92500000e-009,-4.35468093e-004
,,,-6.90000000e-009,-4.34530593e-004
,,,-6.87500000e-009,-4.30311843e-004
,,,-6.85000000e-009,-4.25155592e-004
,,,-6.82500000e-009,-4.20936842e-004
,,,-6.80000000e-009,-4.19061842e-004
,,,-6.77500000e-009,-4.19999342e-004
,,,-6.75000000e-009,-4.19530592e-004
,,,-6.72500000e-009,-4.21405592e-004
,,,-6.70000000e-009,-4.25624342e-004
,,,-6.67500000e-009,-4.30311843e-004
,,,-6.65000000e-009,-4.33593093e-004
,,,-6.62500000e-009,-4.34061843e-004
,,,-6.60000000e-009,-4.29843092e-004
,,,-6.57500000e-009,-4.19999342e-004
,,,-6.55000000e-009,-3.98905592e-004
,,,-6.52500000e-009,-3.71718092e-004
,,,-6.50000000e-009,-3.40311842e-004
,,,-6.47500000e-009,-3.06093091e-004
,,,-6.45000000e-009,-2.71405591e-004
,,,-6.42500000e-009,-2.37655591e-004
,,,-6.40000000e-009,-2.06718091e-004
,,,-6.37500000e-009,-1.79999340e-004
,,,-6.35000000e-009,-1.54686840e-004
,,,-6.32500000e-009,-1.34530590e-004
,,,-6.30000000e-009,-1.19061840e-004
,,,-6.27500000e-009,-1.06874340e-004
,,,-6.25000000e-009,-9.65618396e-005
,,,-6.22500000e-009,-8.67180895e-005
,,,-6.20000000e-009,-7.49993394e-005
,,,-6.17500000e-009,-5.99993393e-005
,,,-6.15000000e-009,-4.12493391e-005
,,,-6.12500000e-009,-1.78118389e-005
,,,-6.10000000e-009,9.84441132e-006
,,,-6.07500000e-009,4.12506616e-005
,,,-6.05000000e-009,7.50006619e-005
,,,-6.02500000e-009,1.10156912e-004
,,,-6.00000000e-009,1.45781913e-004
,,,-5.97500000e-009,1.80000663e-004
,,,-5.95000000e-009,2.07188163e-004
,,,-5.92500000e-009,2.30625663e-004
,,,-5.90000000e-009,2.50781913e-004
,,,-5.87500000e-009,2.67188164e-004
,,,-5.85000000e-009,2.79844414e-004
,,,-5.82500000e-009,2.89219414e-004
,,,-5.80000000e-009,2.95781914e-004
,,,-5.77500000e-009,3.00000664e-004
,,,-5.75000000e-009,2.96719414e-004
,,,-5.72500000e-009,2.93438164e-004
,,,-5.70000000e-009,2.90625664e-004
,,,-5.67500000e-009,2.88750664e-004
,,,-5.65000000e-009,2.88750664e-004
,,,-5.62500000e-009,2.90625664e-004
,,,-5.60000000e-009,2.94375664e-004
,,,-5.57500000e-009,3.00000664e-004
,,,-5.55000000e-009,3.01406914e-004
,,,-5.52500000e-009,3.03750664e-004
,,,-5.50000000e-009,3.07031914e-004
,,,-5.47500000e-009,3.09844414e-004
,,,-5.45000000e-009,3.11250664e-004
,,,-5.42500000e-009,3.11250664e-004
,,,-5.40000000e-009,3.07500664e-004
,,,-5.37500000e-009,3.00000664e-004
,,,-5.35000000e-009,2.84063164e-004
,,,-5.32500000e-009,2.63438164e-004
,,,-5.30000000e-009,2.38125663e-004
,,,-5.27500000e-009,2.09063163e-004
,,,-5.25000000e-009,1.75781913e-004
,,,-5.22500000e-009,1.39219412e-004
,,,-5.20000000e-009,1.00313162e-004
,,,-5.17500000e-009,6.00006618e-005
,,,-5.15000000e-009,1.87506614e-005
,,,-5.12500000e-009,-2.10930889e-005
,,,-5.10000000e-009,-5.76555893e-005
,,,-5.07500000e-009,-9.14055896e-005
,,,-5.05000000e-009,-1.20936840e-004
,,,-5.02500000e-009,-1.45780590e-004
,,,-5.00000000e-009,-1.65468090e-004
,,,-4.97500000e-009,-1.79999340e-004
,,,-4.95000000e-009,-1.87499340e-004
,,,-4.92500000e-009,-1.91249340e-004
,,,-4.90000000e-009,-1.91718090e-004
,,,-4.87500000e-009,-1.89843090e-004
,,,-4.85000000e-009,-1.87030590e-004
,,,-4.82500000e-009,-1.83749340e-004
,,,-4.80000000e-009,-1.81405590e-004
,,,-4.77500000e-009,-1.79999340e-004
,,,-4.75000000e-009,-1.77186840e-004
,,,-4.72500000e-009,-1.76249340e-004
,,,-4.70000000e-009,-1.76249340e-004
,,,-4.67500000e-009,-1.78124340e-004
,,,-4.65000000e-009,-1.79999340e-004
,,,-4.62500000e-009,-1.81405590e-004
,,,-4.60000000e-009,-1.81874340e-004
,,,-4.57500000e-009,-1.79999340e-004
,,,-4.55000000e-009,-1.72968090e-004
,,,-4.52500000e-009,-1.62655590e-004
,,,-4.50000000e-009,-1.50468090e-004
,,,-4.47500000e-009,-1.35468090e-004
,,,-4.45000000e-009,-1.18593090e-004
,,,-4.42500000e-009,-1.00311840e-004
,,,-4.40000000e-009,-8.06243395e-005
,,,-4.37500000e-009,-5.99993393e-005
,,,-4.35000000e-009,-3.74993391e-005
,,,-4.32500000e-009,-1.64055889e-005
,,,-4.30000000e-009,3.28191127e-006
,,,-4.27500000e-009,2.01569114e-005
,,,-4.25000000e-009,3.42194115e-005
,,,-4.22500000e-009,4.59381616e-005
,,,-4.20000000e-009,5.43756617e-005
,,,-4.17500000e-009,6.00006618e-005
,,,-4.15000000e-009,6.32819118e-005
,,,-4.12500000e-009,6.51569118e-005
,,,-4.10000000e-009,6.51569118e-005
,,,-4.07500000e-009,6.42194118e-005
,,,-4.05000000e-009,6.28131618e-005
,,,-4.02500000e-009,6.14069118e-005
,,,-4.00000000e-009,6.04694118e-005
,,,-3.97500000e-009,6.00006618e-005
,,,-3.95000000e-009,5.95319118e-005
,,,-3.92500000e-009,6.00006618e-005
,,,-3.90000000e-009,6.09381618e-005
,,,-3.87500000e-009,6.23444118e-005
,,,-3.85000000e-009,6.32819118e-005
,,,-3.82500000e-009,6.32819118e-005
,,,-3.80000000e-009,6.23444118e-005
,,,-3.77500000e-009,6.00006618e-005
,,,-3.75000000e-009,5.57819117e-005
,,,-3.72500000e-009,5.20319117e-005
,,,-3.70000000e-009,4.82819117e-005
,,,-3.67500000e-009,4.59381616e-005
,,,-3.65000000e-009,4.54694116e-005
,,,-3.62500000e-009,4.68756616e-005
,,,-3.60000000e-009,5.20319117e-005
,,,-3.57500000e-009,6.00006618e-005
,,,-3.55000000e-009,6.98444118e-005
,,,-3.52500000e-009,8.29694120e-005
,,,-3.50000000e-009,9.84381621e-005
,,,-3.47500000e-009,1.15781912e-004
,,,-3.45000000e-009,1.33594412e-004
,,,-3.42500000e-009,1.50469413e-004
,,,-3.40000000e-009,1.66406913e-004
,,,-3.37500000e-009,1.80000663e-004
,,,-3.35000000e-009,1.89375663e-004
,,,-3.32500000e-009,1.95469413e-004
,,,-3.30000000e-009,1.98750663e-004
,,,-3.27500000e-009,1.98750663e-004
,,,-3.25000000e-009,1.96406913e-004
,,,-3.22500000e-009,1.91719413e-004
,,,-3.20000000e-009,1.86094413e-004
,,,-3.17500000e-009,1.80000663e-004
,,,-3.15000000e-009,1.73438163e-004
,,,-3.12500000e-009,1.67813163e-004
,,,-3.10000000e-009,1.64063163e-004
,,,-3.07500000e-009,1.62656913e-004
,,,-3.05000000e-009,1.63594413e-004
,,,-3.02500000e-009,1.67344413e-004
,,,-3.00000000e-009,1.72500663e-004
,,,-2.97500000e-009,1.80000663e-004
,,,-2.95000000e-009,1.87500663e-004
,,,-2.92500000e-009,1.95469413e-004
,,,-2.90000000e-009,2.02031913e-004
,,,-2.87500000e-009,2.05781913e-004
,,,-2.85000000e-009,2.06250663e-004
,,,-2.82500000e-009,2.02500663e-004
,,,-2.80000000e-009,1.93594413e-004
,,,-2.77500000e-009,1.80000663e-004
,,,-2.75000000e-009,1.61719413e-004
,,,-2.72500000e-009,1.41094412e-004
,,,-2.70000000e-009,1.19531912e-004
,,,-2.67500000e-009,9.89069121e-005
,,,-2.65000000e-009,8.10944119e-005
,,,-2.62500000e-009,6.79694118e-005
,,,-2.60000000e-009,6.04694118e-005
,,,-2.57500000e-009,6.00006618e-005
,,,-2.55000000e-009,6.56256618e-005
,,,-2.52500000e-009,7.73444119e-005
,,,-2.50000000e-009,9.37506621e-005
,,,-2.47500000e-009,1.12969412e-004
,,,-2.45000000e-009,1.33125662e-004
,,,-2.42500000e-009,1.51875663e-004
,,,-2.40000000e-009,1.67813163e-004
,,,-2.37500000e-009,1.80000663e-004
,,,-2.35000000e-009,1.86094413e-004
,,,-2.32500000e-009,1.87969413e-004
,,,-2.30000000e-009,1.86094413e-004
,,,-2.27500000e-009,1.82344413e-004
,,,-2.25000000e-009,1.78125663e-004
,,,-2.22500000e-009,1.74844413e-004
,,,-2.20000000e-009,1.75313163e-004
,,,-2.17500000e-009,1.80000663e-004
,,,-2.15000000e-009,1.88906913e-004
,,,-2.12500000e-009,2.02500663e-004
,,,-2.10000000e-009,2.19844413e-004
,,,-2.07500000e-009,2.39063163e-004
,,,-2.05000000e-009,2.58750663e-004
,,,-2.02500000e-009,2.76563164e-004
,,,-2.00000000e-009,2.90625664e-004
,,,-1.97500000e-009,3.00000664e-004
,,,-1.95000000e-009,3.00938164e-004
,,,-1.92500000e-009,2.95781914e-004
,,,-1.90000000e-009,2.84531914e-004
,,,-1.87500000e-009,2.68594414e-004
,,,-1.85000000e-009,2.48438163e-004
,,,-1.82500000e-009,2.25938163e-004
,,,-1.80000000e-009,2.02500663e-004
,,,-1.77500000e-009,1.80000663e-004
,,,-1.75000000e-009,1.57500663e-004
,,,-1.72500000e-009,1.36875662e-004
,,,-1.70000000e-009,1.19531912e-004
,,,-1.67500000e-009,1.04063162e-004
,,,-1.65000000e-009,9.04694120e-005
,,,-1.62500000e-009,7.92194119e-005
,,,-1.60000000e-009,6.89069118e-005
,,,-1.57500000e-009,6.00006618e-005
,,,-1.55000000e-009,5.01569117e-005
,,,-1.52500000e-009,4.17194116e-005
,,,-1.50000000e-009,3.56256615e-005
,,,-1.47500000e-009,3.23444115e-005
,,,-1.45000000e-009,3.23444115e-005
,,,-1.42500000e-009,3.65631616e-005
,,,-1.40000000e-009,4.59381616e-005
,,,-1.37500000e-009,6.00006618e-005
,,,-1.35000000e-009,7.31256619e-005
,,,-1.32500000e-009,8.81256620e-005
,,,-1.30000000e-009,1.05000662e-004
,,,-1.27500000e-009,1.22344412e-004
,,,-1.25000000e-009,1.39688162e-004
,,,-1.22500000e-009,1.55625663e-004
,,,-1.20000000e-009,1.69219413e-004
,,,-1.17500000e-009,1.80000663e-004
,,,-1.15000000e-009,1.70625663e-004
,,,-1.12500000e-009,1.55156913e-004
,,,-1.10000000e-009,1.35469412e-004
,,,-1.07500000e-009,1.13906912e-004
,,,-1.05000000e-009,9.37506621e-005
,,,-1.02500000e-009,7.68756619e-005
,,,-1.00000000e-009,6.56256618e-005
,,,-9.75000000e-010,6.00006618e-005
,,,-9.50000000e-010,3.23444115e-005
,,,-9.25000000e-010,5.62566129e-006
,,,-9.00000000e-010,-1.82805889e-005
,,,-8.75000000e-010,-3.79680891e-005
,,,-8.50000000e-010,-5.24993392e-005
,,,-8.25000000e-010,-6.04680893e-005
,,,-8.00000000e-010,-6.28118393e-005
,,,-7.75000000e-010,-5.99993393e-005
,,,-7.50000000e-010,-9.89055896e-005
,,,-7.25000000e-010,-1.42030590e-004
,,,-7.00000000e-010,-1.85624340e-004
,,,-6.75000000e-010,-2.25936841e-004
,,,-6.50000000e-010,-2.59686841e-004
,,,-6.25000000e-010,-2.83124341e-004
,,,-6.00000000e-010,-2.95780591e-004
,,,-5.75000000e-010,-2.99999341e-004
,,,-5.50000000e-010,-3.57655592e-004
,,,-5.25000000e-010,-4.24218092e-004
,,,-5.00000000e-010,-4.99218093e-004
,,,-4.75000000e-010,-5.82655594e-004
,,,-4.50000000e-010,-6.75468095e-004
,,,-4.25000000e-010,-7.78124346e-004
,,,-4.00000000e-010,-8.92030597e-004
,,,-3.75000000e-010,-1.01999935e-003
,,,-3.50000000e-010,-1.22531185e-003
,,,-3.25000000e-010,-1.45593685e-003
,,,-3.00000000e-010,-1.70765560e-003
,,,-2.75000000e-010,-1.97296811e-003
,,,-2.50000000e-010,-2.24578061e-003
,,,-2.25000000e-010,-2.51999936e-003
,,,-2.00000000e-010,-2.79187436e-003
,,,-1.75000000e-010,-3.05999937e-003
,,,-1.50000000e-010,-3.36515562e-003
,,,-1.25000000e-010,-3.67874937e-003
,,,-1.00000000e-010,-4.00171812e-003
,,,-7.50000000e-011,-4.33640563e-003
,,,-5.00000000e-011,-4.68374938e-003
,,,-2.50000000e-011,-5.04562438e-003
,,,0.00000000e+000,-5.42390564e-003
,,,2.50000000e-011,-5.81999939e-003
,,,5.00000000e-011,-6.24093689e-003
,,,7.50000000e-011,-6.68484315e-003
,,,1.00000000e-010,-7.14796815e-003
,,,1.25000000e-010,-7.62515566e-003
,,,1.50000000e-010,-8.10984316e-003
,,,1.75000000e-010,-8.59453066e-003
,,,2.00000000e-010,-9.07312442e-003
,,,2.25000000e-010,-9.53999942e-003
,,,2.50000000e-010,-9.95296818e-003
,,,2.75000000e-010,-1.03556244e-002
,,,3.00000000e-010,-1.07498432e-002
,,,3.25000000e-010,-1.11384369e-002
,,,3.50000000e-010,-1.15232807e-002
,,,3.75000000e-010,-1.19062494e-002
,,,4.00000000e-010,-1.22854682e-002
,,,4.25000000e-010,-1.26599994e-002
,,,4.50000000e-010,-1.29487495e-002
,,,4.75000000e-010,-1.32309370e-002
,,,5.00000000e-010,-1.35056245e-002
,,,5.25000000e-010,-1.37690620e-002
,,,5.50000000e-010,-1.40151557e-002
,,,5.75000000e-010,-1.42373432e-002
,,,6.00000000e-010,-1.44281245e-002
,,,6.25000000e-010,-1.45799995e-002
,,,6.50000000e-010,-1.45898432e-002
,,,6.75000000e-010,-1.45640620e-002
,,,7.00000000e-010,-1.45087495e-002
,,,7.25000000e-010,-1.44309370e-002
,,,7.50000000e-010,-1.43353120e-002
,,,7.75000000e-010,-1.42265620e-002
,,,8.00000000e-010,-1.41074995e-002
,,,8.25000000e-010,-1.39799995e-002
,,,8.50000000e-010,-1.37535932e-002
,,,8.75000000e-010,-1.35290620e-002
,,,9.00000000e-010,-1.33106245e-002
,,,9.25000000e-010,-1.31001557e-002
,,,9.50000000e-010,-1.28971870e-002
,,,9.75000000e-010,-1.26993744e-002
,,,1.00000000e-009,-1.25020307e-002
,,,1.02500000e-009,-1.22999994e-002
,,,1.05000000e-009,-1.20178119e-002
,,,1.07500000e-009,-1.17276557e-002
,,,1.10000000e-009,-1.14314057e-002
,,,1.12500000e-009,-1.11304682e-002
,,,1.15000000e-009,-1.08257807e-002
,,,1.17500000e-009,-1.05187494e-002
,,,1.20000000e-009,-1.02103119e-002
,,,1.22500000e-009,-9.89999942e-003
,,,1.25000000e-009,-9.55171817e-003
,,,1.27500000e-009,-9.20296817e-003
,,,1.30000000e-009,-8.85656192e-003
,,,1.32500000e-009,-8.51531191e-003
,,,1.35000000e-009,-8.18343691e-003
,,,1.37500000e-009,-7.86234316e-003
,,,1.40000000e-009,-7.55437440e-003
,,,1.42500000e-009,-7.25999940e-003
,,,1.45000000e-009,-6.97781190e-003
,,,1.47500000e-009,-6.70265565e-003
,,,1.50000000e-009,-6.43406189e-003
,,,1.52500000e-009,-6.17296814e-003
,,,1.55000000e-009,-5.92031189e-003
,,,1.57500000e-009,-5.67656189e-003
,,,1.60000000e-009,-5.44359314e-003
,,,1.62500000e-009,-5.21999938e-003
,,,1.65000000e-009,-5.03015563e-003
,,,1.67500000e-009,-4.83749938e-003
,,,1.70000000e-009,-4.64156188e-003
,,,1.72500000e-009,-4.44234313e-003
,,,1.75000000e-009,-4.24171813e-003
,,,1.77500000e-009,-4.04296812e-003
,,,1.80000000e-009,-3.84796812e-003
,,,1.82500000e-009,-3.65999937e-003
,,,1.85000000e-009,-3.51656187e-003
,,,1.87500000e-009,-3.37265562e-003
,,,1.90000000e-009,-3.22781187e-003
,,,1.92500000e-009,-3.08390562e-003
,,,1.95000000e-009,-2.94421811e-003
,,,1.97500000e-009,-2.81156186e-003
,,,2.00000000e-009,-2.68921811e-003
,,,2.02500000e-009,-2.57999936e-003
,,,2.05000000e-009,-2.52468686e-003
,,,2.07500000e-009,-2.47359311e-003
,,,2.10000000e-009,-2.42484311e-003
,,,2.12500000e-009,-2.37749936e-003
,,,2.15000000e-009,-2.33249936e-003
,,,2.17500000e-009,-2.29031186e-003
,,,2.20000000e-009,-2.25234311e-003
,,,2.22500000e-009,-2.21999936e-003
,,,2.25000000e-009,-2.22609311e-003
,,,2.27500000e-009,-2.22984311e-003
,,,2.30000000e-009,-2.22984311e-003
,,,2.32500000e-009,-2.22703061e-003
,,,2.35000000e-009,-2.22281186e-003
,,,2.37500000e-009,-2.21906186e-003
,,,2.40000000e-009,-2.21765561e-003
,,,2.42500000e-009,-2.21999936e-003
,,,2.45000000e-009,-2.24859311e-003
,,,2.47500000e-009,-2.27484311e-003
,,,2.50000000e-009,-2.29734311e-003
,,,2.52500000e-009,-2.31515561e-003
,,,2.55000000e-009,-2.32828061e-003
,,,2.57500000e-009,-2.33578061e-003
,,,2.60000000e-009,-2.33953061e-003
,,,2.62500000e-009,-2.33999936e-003
,,,2.65000000e-009,-2.35031186e-003
,,,2.67500000e-009,-2.35687436e-003
,,,2.70000000e-009,-2.36249936e-003
,,,2.72500000e-009,-2.36906186e-003
,,,2.75000000e-009,-2.37984311e-003
,,,2.77500000e-009,-2.39765561e-003
,,,2.80000000e-009,-2.42390561e-003
,,,2.82500000e-009,-2.45999936e-003
,,,2.85000000e-009,-2.50734311e-003
,,,2.87500000e-009,-2.55890561e-003
,,,2.90000000e-009,-2.61328061e-003
,,,2.92500000e-009,-2.66718686e-003
,,,2.95000000e-009,-2.71734311e-003
,,,2.97500000e-009,-2.76140561e-003
,,,3.00000000e-009,-2.79609311e-003
,,,3.02500000e-009,-2.81999936e-003
,,,3.05000000e-009,-2.82562436e-003
,,,3.07500000e-009,-2.81906186e-003
,,,3.10000000e-009,-2.80312436e-003
,,,3.12500000e-009,-2.78109311e-003
,,,3.15000000e-009,-2.75624936e-003
,,,3.17500000e-009,-2.73281186e-003
,,,3.20000000e-009,-2.71359311e-003
,,,3.22500000e-009,-2.69999936e-003
,,,3.25000000e-009,-2.68546811e-003
,,,3.27500000e-009,-2.67749936e-003
,,,3.30000000e-009,-2.67609311e-003
,,,3.32500000e-009,-2.68031186e-003
,,,3.35000000e-009,-2.68734311e-003
,,,3.37500000e-009,-2.69531186e-003
,,,3.40000000e-009,-2.70046811e-003
,,,3.42500000e-009,-2.69999936e-003
,,,3.45000000e-009,-2.68218686e-003
,,,3.47500000e-009,-2.65453061e-003
,,,3.50000000e-009,-2.61749936e-003
,,,3.52500000e-009,-2.57203061e-003
,,,3.55000000e-009,-2.51999936e-003
,,,3.57500000e-009,-2.46281186e-003
,,,3.60000000e-009,-2.40234311e-003
,,,3.62500000e-009,-2.33999936e-003
,,,3.65000000e-009,-2.27062436e-003
,,,3.67500000e-009,-2.20218686e-003
,,,3.70000000e-009,-2.13609311e-003
,,,3.72500000e-009,-2.07281186e-003
,,,3.75000000e-009,-2.01374936e-003
,,,3.77500000e-009,-1.95890561e-003
,,,3.80000000e-009,-1.90781186e-003
,,,3.82500000e-009,-1.85999935e-003
,,,3.85000000e-009,-1.81171810e-003
,,,3.87500000e-009,-1.76484310e-003
,,,3.90000000e-009,-1.71890560e-003
,,,3.92500000e-009,-1.67343685e-003
,,,3.95000000e-009,-1.62937435e-003
,,,3.97500000e-009,-1.58578060e-003
,,,4.00000000e-009,-1.54265560e-003
,,,4.02500000e-009,-1.49999935e-003
,,,4.05000000e-009,-1.45781185e-003
,,,4.07500000e-009,-1.41328060e-003
,,,4.10000000e-009,-1.36781185e-003
,,,4.12500000e-009,-1.32093685e-003
,,,4.15000000e-009,-1.27406185e-003
,,,4.17500000e-009,-1.22765560e-003
,,,4.20000000e-009,-1.18265560e-003
,,,4.22500000e-009,-1.13999935e-003
,,,4.25000000e-009,-1.10203060e-003
,,,4.27500000e-009,-1.06546810e-003
,,,4.30000000e-009,-1.03031185e-003
,,,4.32500000e-009,-9.97968097e-004
,,,4.35000000e-009,-9.67968097e-004
,,,4.37500000e-009,-9.41718097e-004
,,,4.40000000e-009,-9.19218097e-004
,,,4.42500000e-009,-8.99999347e-004
,,,4.45000000e-009,-8.87343096e-004
,,,4.47500000e-009,-8.74218096e-004
,,,4.50000000e-009,-8.60624346e-004
,,,4.52500000e-009,-8.46561846e-004
,,,4.55000000e-009,-8.31093096e-004
,,,4.57500000e-009,-8.15155596e-004
,,,4.60000000e-009,-7.98280596e-004
,,,4.62500000e-009,-7.79999346e-004
,,,4.65000000e-009,-7.62655595e-004
,,,4.67500000e-009,-7.41093095e-004
,,,4.70000000e-009,-7.15311845e-004
,,,4.72500000e-009,-6.85311845e-004
,,,4.75000000e-009,-6.52030594e-004
,,,4.77500000e-009,-6.16405594e-004
,,,4.80000000e-009,-5.78436844e-004
,,,4.82500000e-009,-5.39999343e-004
,,,4.85000000e-009,-5.05780593e-004
,,,4.87500000e-009,-4.71093093e-004
,,,4.90000000e-009,-4.36874343e-004
,,,4.92500000e-009,-4.03593092e-004
,,,4.95000000e-009,-3.73124342e-004
,,,4.97500000e-009,-3.45468092e-004
,,,5.00000000e-009,-3.21093092e-004
,,,5.02500000e-009,-2.99999341e-004
,,,5.05000000e-009,-2.86874341e-004
,,,5.07500000e-009,-2.75155591e-004
,,,5.10000000e-009,-2.63436841e-004
,,,5.12500000e-009,-2.51249341e-004
,,,5.15000000e-009,-2.37186841e-004
,,,5.17500000e-009,-2.21249341e-004
,,,5.20000000e-009,-2.02499341e-004
,,,5.22500000e-009,-1.79999340e-004
,,,5.25000000e-009,-1.59374340e-004
,,,5.27500000e-009,-1.34061840e-004
,,,5.30000000e-009,-1.05468090e-004
,,,5.32500000e-009,-7.35930894e-005
,,,5.35000000e-009,-3.98430891e-005
,,,5.37500000e-009,-5.15558881e-006
,,,5.40000000e-009,2.85944115e-005
,,,5.42500000e-009,6.00006618e-005
,,,5.45000000e-009,8.15631619e-005
,,,5.47500000e-009,9.79694121e-005
,,,5.50000000e-009,1.09219412e-004
,,,5.52500000e-009,1.13438162e-004
,,,5.55000000e-009,1.10625662e-004
,,,5.57500000e-009,1.00781912e-004
,,,5.60000000e-009,8.34381620e-005
,,,5.62500000e-009,6.00006618e-005
,,,5.65000000e-009,2.67194115e-005
,,,5.67500000e-009,-8.43683883e-006
,,,5.70000000e-009,-4.45305891e-005
,,,5.72500000e-009,-7.92180894e-005
,,,5.75000000e-009,-1.11561840e-004
,,,5.77500000e-009,-1.39686840e-004
,,,5.80000000e-009,-1.62655590e-004
,,,5.82500000e-009,-1.79999340e-004
,,,5.85000000e-009,-1.92186840e-004
,,,5.87500000e-009,-1.97343090e-004
,,,5.90000000e-009,-1.97811840e-004
,,,5.92500000e-009,-1.94530590e-004
,,,5.95000000e-009,-1.89374340e-004
