RawData/SinglePhotoelectron/L5_2pt2A_5mV/wave023_Ch1.csv

"Record Length",1000,"Points",-7.72500000e-009,-1.05468090e-004
"Sample Interval",2.50000000e-011,s,-7.70000000e-009,-1.38749340e-004
"Trigger Point",309,"Samples",-7.67500000e-009,-1.64530590e-004
"Trigger Time",1.50342349e-011,s,-7.65000000e-009,-1.79999340e-004
"",,,-7.62500000e-009,-1.83749340e-004
"Horizontal Offset",-7.72500000e-009,s,-7.60000000e-009,-1.77186840e-004
,,,-7.57500000e-009,-1.61249340e-004
,,,-7.55000000e-009,-1.39686840e-004
,,,-7.52500000e-009,-1.15311840e-004
,,,-7.50000000e-009,-9.23430896e-005
,,,-7.47500000e-009,-7.26555894e-005
,,,-7.45000000e-009,-5.99993393e-005
,,,-7.42500000e-009,-5.57805892e-005
,,,-7.40000000e-009,-6.04680893e-005
,,,-7.37500000e-009,-7.26555894e-005
,,,-7.35000000e-009,-9.14055896e-005
,,,-7.32500000e-009,-1.13905590e-004
,,,-7.30000000e-009,-1.37811840e-004
,,,-7.27500000e-009,-1.60780590e-004
,,,-7.25000000e-009,-1.79999340e-004
,,,-7.22500000e-009,-1.93593090e-004
,,,-7.20000000e-009,-2.01093091e-004
,,,-7.17500000e-009,-2.03905591e-004
,,,-7.15000000e-009,-2.01561841e-004
,,,-7.12500000e-009,-1.96874340e-004
,,,-7.10000000e-009,-1.90780590e-004
,,,-7.07500000e-009,-1.84686840e-004
,,,-7.05000000e-009,-1.79999340e-004
,,,-7.02500000e-009,-1.77186840e-004
,,,-7.00000000e-009,-1.76249340e-004
,,,-6.97500000e-009,-1.78124340e-004
,,,-6.95000000e-009,-1.80936840e-004
,,,-6.92500000e-009,-1.83749340e-004
,,,-6.90000000e-009,-1.85155590e-004
,,,-6.87500000e-009,-1.84218090e-004
,,,-6.85000000e-009,-1.79999340e-004
,,,-6.82500000e-009,-1.70624340e-004
,,,-6.80000000e-009,-1.57968090e-004
,,,-6.77500000e-009,-1.42499340e-004
,,,-6.75000000e-009,-1.24686840e-004
,,,-6.72500000e-009,-1.06874340e-004
,,,-6.70000000e-009,-8.90618395e-005
,,,-6.67500000e-009,-7.31243394e-005
,,,-6.65000000e-009,-5.99993393e-005
,,,-6.62500000e-009,-5.10930892e-005
,,,-6.60000000e-009,-4.54680892e-005
,,,-6.57500000e-009,-4.31243391e-005
,,,-6.55000000e-009,-4.40618391e-005
,,,-6.52500000e-009,-4.68743392e-005
,,,-6.50000000e-009,-5.10930892e-005
,,,-6.47500000e-009,-5.57805892e-005
,,,-6.45000000e-009,-5.99993393e-005
,,,-6.42500000e-009,-6.37493393e-005
,,,-6.40000000e-009,-6.65618393e-005
,,,-6.37500000e-009,-6.74993393e-005
,,,-6.35000000e-009,-6.74993393e-005
,,,-6.32500000e-009,-6.60930893e-005
,,,-6.30000000e-009,-6.46868393e-005
,,,-6.27500000e-009,-6.23430893e-005
,,,-6.25000000e-009,-5.99993393e-005
,,,-6.22500000e-009,-5.90618393e-005
,,,-6.20000000e-009,-5.81243393e-005
,,,-6.17500000e-009,-5.76555893e-005
,,,-6.15000000e-009,-5.76555893e-005
,,,-6.12500000e-009,-5.81243393e-005
,,,-6.10000000e-009,-5.85930893e-005
,,,-6.07500000e-009,-5.95305893e-005
,,,-6.05000000e-009,-5.99993393e-005
,,,-6.02500000e-009,-6.14055893e-005
,,,-6.00000000e-009,-6.18743393e-005
,,,-5.97500000e-009,-6.23430893e-005
,,,-5.95000000e-009,-6.23430893e-005
,,,-5.92500000e-009,-6.18743393e-005
,,,-5.90000000e-009,-6.14055893e-005
,,,-5.87500000e-009,-6.09368393e-005
,,,-5.85000000e-009,-5.99993393e-005
,,,-5.82500000e-009,-6.18743393e-005
,,,-5.80000000e-009,-6.37493393e-005
,,,-5.77500000e-009,-6.51555893e-005
,,,-5.75000000e-009,-6.65618393e-005
,,,-5.72500000e-009,-6.65618393e-005
,,,-5.70000000e-009,-6.56243393e-005
,,,-5.67500000e-009,-6.32805893e-005
,,,-5.65000000e-009,-5.99993393e-005
,,,-5.62500000e-009,-5.81243393e-005
,,,-5.60000000e-009,-5.57805892e-005
,,,-5.57500000e-009,-5.39055892e-005
,,,-5.55000000e-009,-5.24993392e-005
,,,-5.52500000e-009,-5.24993392e-005
,,,-5.50000000e-009,-5.39055892e-005
,,,-5.47500000e-009,-5.62493392e-005
,,,-5.45000000e-009,-5.99993393e-005
,,,-5.42500000e-009,-6.70305893e-005
,,,-5.40000000e-009,-7.40618394e-005
,,,-5.37500000e-009,-8.01555895e-005
,,,-5.35000000e-009,-8.39055895e-005
,,,-5.32500000e-009,-8.43743395e-005
,,,-5.30000000e-009,-8.06243395e-005
,,,-5.27500000e-009,-7.26555894e-005
,,,-5.25000000e-009,-5.99993393e-005
,,,-5.22500000e-009,-4.82805892e-005
,,,-5.20000000e-009,-3.56243391e-005
,,,-5.17500000e-009,-2.43743390e-005
,,,-5.15000000e-009,-1.68743389e-005
,,,-5.12500000e-009,-1.49993389e-005
,,,-5.10000000e-009,-2.06243389e-005
,,,-5.07500000e-009,-3.56243391e-005
,,,-5.05000000e-009,-5.99993393e-005
,,,-5.02500000e-009,-9.74993396e-005
,,,-5.00000000e-009,-1.42968090e-004
,,,-4.97500000e-009,-1.93593090e-004
,,,-4.95000000e-009,-2.47030591e-004
,,,-4.92500000e-009,-2.99061841e-004
,,,-4.90000000e-009,-3.47343092e-004
,,,-4.87500000e-009,-3.88593092e-004
,,,-4.85000000e-009,-4.19999342e-004
,,,-4.82500000e-009,-4.41561843e-004
,,,-4.80000000e-009,-4.52811843e-004
,,,-4.77500000e-009,-4.55624343e-004
,,,-4.75000000e-009,-4.51405593e-004
,,,-4.72500000e-009,-4.43436843e-004
,,,-4.70000000e-009,-4.34061843e-004
,,,-4.67500000e-009,-4.25624342e-004
,,,-4.65000000e-009,-4.19999342e-004
,,,-4.62500000e-009,-4.20468092e-004
,,,-4.60000000e-009,-4.26561842e-004
,,,-4.57500000e-009,-4.38749343e-004
,,,-4.55000000e-009,-4.56093093e-004
,,,-4.52500000e-009,-4.76718093e-004
,,,-4.50000000e-009,-4.98280593e-004
,,,-4.47500000e-009,-5.20311843e-004
,,,-4.45000000e-009,-5.39999343e-004
,,,-4.42500000e-009,-5.55468094e-004
,,,-4.40000000e-009,-5.68593094e-004
,,,-4.37500000e-009,-5.80311844e-004
,,,-4.35000000e-009,-5.92030594e-004
,,,-4.32500000e-009,-6.04686844e-004
,,,-4.30000000e-009,-6.19686844e-004
,,,-4.27500000e-009,-6.38436844e-004
,,,-4.25000000e-009,-6.59999344e-004
,,,-4.22500000e-009,-6.81561845e-004
,,,-4.20000000e-009,-7.04999345e-004
,,,-4.17500000e-009,-7.28436845e-004
,,,-4.15000000e-009,-7.50468095e-004
,,,-4.12500000e-009,-7.68280595e-004
,,,-4.10000000e-009,-7.79999346e-004
,,,-4.07500000e-009,-7.84218096e-004
,,,-4.05000000e-009,-7.79999346e-004
,,,-4.02500000e-009,-7.63124345e-004
,,,-4.00000000e-009,-7.41093095e-004
,,,-3.97500000e-009,-7.16249345e-004
,,,-3.95000000e-009,-6.91874345e-004
,,,-3.92500000e-009,-6.71718095e-004
,,,-3.90000000e-009,-6.58593094e-004
,,,-3.87500000e-009,-6.54374344e-004
,,,-3.85000000e-009,-6.59999344e-004
,,,-3.82500000e-009,-6.73124345e-004
,,,-3.80000000e-009,-6.93749345e-004
,,,-3.77500000e-009,-7.18593095e-004
,,,-3.75000000e-009,-7.44843095e-004
,,,-3.72500000e-009,-7.67343095e-004
,,,-3.70000000e-009,-7.83280596e-004
,,,-3.67500000e-009,-7.88436846e-004
,,,-3.65000000e-009,-7.79999346e-004
,,,-3.62500000e-009,-7.55155595e-004
,,,-3.60000000e-009,-7.18124345e-004
,,,-3.57500000e-009,-6.70780595e-004
,,,-3.55000000e-009,-6.16874344e-004
,,,-3.52500000e-009,-5.61093094e-004
,,,-3.50000000e-009,-5.07186843e-004
,,,-3.47500000e-009,-4.59374343e-004
,,,-3.45000000e-009,-4.19999342e-004
,,,-3.42500000e-009,-3.92343092e-004
,,,-3.40000000e-009,-3.76405592e-004
,,,-3.37500000e-009,-3.71249342e-004
,,,-3.35000000e-009,-3.74999342e-004
,,,-3.32500000e-009,-3.85311842e-004
,,,-3.30000000e-009,-3.97968092e-004
,,,-3.27500000e-009,-4.10624342e-004
,,,-3.25000000e-009,-4.19999342e-004
,,,-3.22500000e-009,-4.24686842e-004
,,,-3.20000000e-009,-4.22343092e-004
,,,-3.17500000e-009,-4.12499342e-004
,,,-3.15000000e-009,-3.96093092e-004
,,,-3.12500000e-009,-3.74999342e-004
,,,-3.10000000e-009,-3.50155592e-004
,,,-3.07500000e-009,-3.24374342e-004
,,,-3.05000000e-009,-2.99999341e-004
,,,-3.02500000e-009,-2.79843091e-004
,,,-3.00000000e-009,-2.64374341e-004
,,,-2.97500000e-009,-2.54061841e-004
,,,-2.95000000e-009,-2.50780591e-004
,,,-2.92500000e-009,-2.53593091e-004
,,,-2.90000000e-009,-2.63436841e-004
,,,-2.87500000e-009,-2.79374341e-004
,,,-2.85000000e-009,-2.99999341e-004
,,,-2.82500000e-009,-3.23905592e-004
,,,-2.80000000e-009,-3.47811842e-004
,,,-2.77500000e-009,-3.70780592e-004
,,,-2.75000000e-009,-3.90936842e-004
,,,-2.72500000e-009,-4.06874342e-004
,,,-2.70000000e-009,-4.17186842e-004
,,,-2.67500000e-009,-4.21874342e-004
,,,-2.65000000e-009,-4.19999342e-004
,,,-2.62500000e-009,-4.12499342e-004
,,,-2.60000000e-009,-3.98905592e-004
,,,-2.57500000e-009,-3.81561842e-004
,,,-2.55000000e-009,-3.62343092e-004
,,,-2.52500000e-009,-3.42655592e-004
,,,-2.50000000e-009,-3.24843092e-004
,,,-2.47500000e-009,-3.10311841e-004
,,,-2.45000000e-009,-2.99999341e-004
,,,-2.42500000e-009,-2.93905591e-004
,,,-2.40000000e-009,-2.92030591e-004
,,,-2.37500000e-009,-2.93905591e-004
,,,-2.35000000e-009,-2.97655591e-004
,,,-2.32500000e-009,-3.01874341e-004
,,,-2.30000000e-009,-3.05155591e-004
,,,-2.27500000e-009,-3.04686841e-004
,,,-2.25000000e-009,-2.99999341e-004
,,,-2.22500000e-009,-2.89218091e-004
,,,-2.20000000e-009,-2.70936841e-004
,,,-2.17500000e-009,-2.46561841e-004
,,,-2.15000000e-009,-2.16093091e-004
,,,-2.12500000e-009,-1.80468090e-004
,,,-2.10000000e-009,-1.41561840e-004
,,,-2.07500000e-009,-1.00780590e-004
,,,-2.05000000e-009,-5.99993393e-005
,,,-2.02500000e-009,-2.34368390e-005
,,,-2.00000000e-009,8.90691132e-006
,,,-1.97500000e-009,3.51569115e-005
,,,-1.95000000e-009,5.48444117e-005
,,,-1.92500000e-009,6.75006618e-005
,,,-1.90000000e-009,7.21881619e-005
,,,-1.87500000e-009,6.93756618e-005
,,,-1.85000000e-009,6.00006618e-005
,,,-1.82500000e-009,4.07819116e-005
,,,-1.80000000e-009,1.78131614e-005
,,,-1.77500000e-009,-5.62433881e-006
,,,-1.75000000e-009,-2.76555890e-005
,,,-1.72500000e-009,-4.54680892e-005
,,,-1.70000000e-009,-5.81243393e-005
,,,-1.67500000e-009,-6.28118393e-005
,,,-1.65000000e-009,-5.99993393e-005
,,,-1.62500000e-009,-5.62493392e-005
,,,-1.60000000e-009,-4.64055892e-005
,,,-1.57500000e-009,-3.09368390e-005
,,,-1.55000000e-009,-1.21868389e-005
,,,-1.52500000e-009,8.43816131e-006
,,,-1.50000000e-009,2.85944115e-005
,,,-1.47500000e-009,4.64069116e-005
,,,-1.45000000e-009,6.00006618e-005
,,,-1.42500000e-009,5.48444117e-005
,,,-1.40000000e-009,4.26569116e-005
,,,-1.37500000e-009,2.53131615e-005
,,,-1.35000000e-009,4.68816128e-006
,,,-1.32500000e-009,-1.59368389e-005
,,,-1.30000000e-009,-3.51555891e-005
,,,-1.27500000e-009,-5.01555892e-005
,,,-1.25000000e-009,-5.99993393e-005
,,,-1.22500000e-009,-8.34368395e-005
,,,-1.20000000e-009,-1.04061840e-004
,,,-1.17500000e-009,-1.21874340e-004
,,,-1.15000000e-009,-1.36405590e-004
,,,-1.12500000e-009,-1.48593090e-004
,,,-1.10000000e-009,-1.58905590e-004
,,,-1.07500000e-009,-1.69218090e-004
,,,-1.05000000e-009,-1.79999340e-004
,,,-1.02500000e-009,-2.16093091e-004
,,,-1.00000000e-009,-2.58749341e-004
,,,-9.75000000e-010,-3.05624341e-004
,,,-9.50000000e-010,-3.55780592e-004
,,,-9.25000000e-010,-4.05468092e-004
,,,-9.00000000e-010,-4.53749343e-004
,,,-8.75000000e-010,-4.98749343e-004
,,,-8.50000000e-010,-5.39999343e-004
,,,-8.25000000e-010,-6.02343094e-004
,,,-8.00000000e-010,-6.67499345e-004
,,,-7.75000000e-010,-7.35936845e-004
,,,-7.50000000e-010,-8.07655596e-004
,,,-7.25000000e-010,-8.82655596e-004
,,,-7.00000000e-010,-9.62343097e-004
,,,-6.75000000e-010,-1.04765560e-003
,,,-6.50000000e-010,-1.13999935e-003
,,,-6.25000000e-010,-1.25906185e-003
,,,-6.00000000e-010,-1.39031185e-003
,,,-5.75000000e-010,-1.53281185e-003
,,,-5.50000000e-010,-1.68515560e-003
,,,-5.25000000e-010,-1.84406185e-003
,,,-5.00000000e-010,-2.00765561e-003
,,,-4.75000000e-010,-2.17359311e-003
,,,-4.50000000e-010,-2.33999936e-003
,,,-4.25000000e-010,-2.50968686e-003
,,,-4.00000000e-010,-2.67937436e-003
,,,-3.75000000e-010,-2.84906186e-003
,,,-3.50000000e-010,-3.01734311e-003
,,,-3.25000000e-010,-3.18281187e-003
,,,-3.00000000e-010,-3.34546812e-003
,,,-2.75000000e-010,-3.50484312e-003
,,,-2.50000000e-010,-3.65999937e-003
,,,-2.25000000e-010,-3.80203062e-003
,,,-2.00000000e-010,-3.94499937e-003
,,,-1.75000000e-010,-4.08984312e-003
,,,-1.50000000e-010,-4.23796813e-003
,,,-1.25000000e-010,-4.38984313e-003
,,,-1.00000000e-010,-4.54499938e-003
,,,-7.50000000e-011,-4.70203063e-003
,,,-5.00000000e-011,-4.85999938e-003
,,,-2.50000000e-011,-4.99265563e-003
,,,0.00000000e+000,-5.12437438e-003
,,,2.50000000e-011,-5.25562438e-003
,,,5.00000000e-011,-5.38406189e-003
,,,7.50000000e-011,-5.50781189e-003
,,,1.00000000e-010,-5.62359314e-003
,,,1.25000000e-010,-5.72906189e-003
,,,1.50000000e-010,-5.81999939e-003
,,,1.75000000e-010,-5.86078064e-003
,,,2.00000000e-010,-5.88703064e-003
,,,2.25000000e-010,-5.90109314e-003
,,,2.50000000e-010,-5.90390564e-003
,,,2.75000000e-010,-5.89687439e-003
,,,3.00000000e-010,-5.87999939e-003
,,,3.25000000e-010,-5.85468689e-003
,,,3.50000000e-010,-5.81999939e-003
,,,3.75000000e-010,-5.74406189e-003
,,,4.00000000e-010,-5.66484314e-003
,,,4.25000000e-010,-5.58562439e-003
,,,4.50000000e-010,-5.50828064e-003
,,,4.75000000e-010,-5.43281189e-003
,,,5.00000000e-010,-5.36015564e-003
,,,5.25000000e-010,-5.28984313e-003
,,,5.50000000e-010,-5.21999938e-003
,,,5.75000000e-010,-5.12390563e-003
,,,6.00000000e-010,-5.02874938e-003
,,,6.25000000e-010,-4.93593688e-003
,,,6.50000000e-010,-4.84546813e-003
,,,6.75000000e-010,-4.75734313e-003
,,,7.00000000e-010,-4.67109313e-003
,,,7.25000000e-010,-4.58578063e-003
,,,7.50000000e-010,-4.49999938e-003
,,,7.75000000e-010,-4.39687438e-003
,,,8.00000000e-010,-4.29234313e-003
,,,8.25000000e-010,-4.18640563e-003
,,,8.50000000e-010,-4.07999937e-003
,,,8.75000000e-010,-3.97312437e-003
,,,9.00000000e-010,-3.86765562e-003
,,,9.25000000e-010,-3.76312437e-003
,,,9.50000000e-010,-3.65999937e-003
,,,9.75000000e-010,-3.55453062e-003
,,,1.00000000e-009,-3.44999937e-003
,,,1.02500000e-009,-3.34921812e-003
,,,1.05000000e-009,-3.25265562e-003
,,,1.07500000e-009,-3.16265562e-003
,,,1.10000000e-009,-3.08062437e-003
,,,1.12500000e-009,-3.00609311e-003
,,,1.15000000e-009,-2.93999936e-003
,,,1.17500000e-009,-2.88468686e-003
,,,1.20000000e-009,-2.83078061e-003
,,,1.22500000e-009,-2.77640561e-003
,,,1.25000000e-009,-2.72015561e-003
,,,1.27500000e-009,-2.66062436e-003
,,,1.30000000e-009,-2.59828061e-003
,,,1.32500000e-009,-2.53124936e-003
,,,1.35000000e-009,-2.45999936e-003
,,,1.37500000e-009,-2.39296811e-003
,,,1.40000000e-009,-2.31890561e-003
,,,1.42500000e-009,-2.23968686e-003
,,,1.45000000e-009,-2.15718686e-003
,,,1.47500000e-009,-2.07515561e-003
,,,1.50000000e-009,-1.99640561e-003
,,,1.52500000e-009,-1.92421811e-003
,,,1.55000000e-009,-1.85999935e-003
,,,1.57500000e-009,-1.81593685e-003
,,,1.60000000e-009,-1.77796810e-003
,,,1.62500000e-009,-1.74468685e-003
,,,1.65000000e-009,-1.71609310e-003
,,,1.67500000e-009,-1.68984310e-003
,,,1.70000000e-009,-1.66593685e-003
,,,1.72500000e-009,-1.64343685e-003
,,,1.75000000e-009,-1.61999935e-003
,,,1.77500000e-009,-1.60593685e-003
,,,1.80000000e-009,-1.58671810e-003
,,,1.82500000e-009,-1.56140560e-003
,,,1.85000000e-009,-1.53046810e-003
,,,1.87500000e-009,-1.49531185e-003
,,,1.90000000e-009,-1.45734310e-003
,,,1.92500000e-009,-1.41843685e-003
,,,1.95000000e-009,-1.37999935e-003
,,,1.97500000e-009,-1.35374935e-003
,,,2.00000000e-009,-1.32937435e-003
,,,2.02500000e-009,-1.30734310e-003
,,,2.05000000e-009,-1.28906185e-003
,,,2.07500000e-009,-1.27499935e-003
,,,2.10000000e-009,-1.26515560e-003
,,,2.12500000e-009,-1.26046810e-003
,,,2.15000000e-009,-1.25999935e-003
,,,2.17500000e-009,-1.26984310e-003
,,,2.20000000e-009,-1.27968685e-003
,,,2.22500000e-009,-1.28765560e-003
,,,2.25000000e-009,-1.29234310e-003
,,,2.27500000e-009,-1.29234310e-003
,,,2.30000000e-009,-1.28718685e-003
,,,2.32500000e-009,-1.27640560e-003
,,,2.35000000e-009,-1.25999935e-003
,,,2.37500000e-009,-1.24406185e-003
,,,2.40000000e-009,-1.22343685e-003
,,,2.42500000e-009,-1.20093685e-003
,,,2.45000000e-009,-1.17843685e-003
,,,2.47500000e-009,-1.15874935e-003
,,,2.50000000e-009,-1.14421810e-003
,,,2.52500000e-009,-1.13765560e-003
,,,2.55000000e-009,-1.13999935e-003
,,,2.57500000e-009,-1.15359310e-003
,,,2.60000000e-009,-1.17468685e-003
,,,2.62500000e-009,-1.20328060e-003
,,,2.65000000e-009,-1.23656185e-003
,,,2.67500000e-009,-1.27359310e-003
,,,2.70000000e-009,-1.31109310e-003
,,,2.72500000e-009,-1.34718685e-003
,,,2.75000000e-009,-1.37999935e-003
,,,2.77500000e-009,-1.40484310e-003
,,,2.80000000e-009,-1.42171810e-003
,,,2.82500000e-009,-1.43015560e-003
,,,2.85000000e-009,-1.43062435e-003
,,,2.87500000e-009,-1.42499935e-003
,,,2.90000000e-009,-1.41328060e-003
,,,2.92500000e-009,-1.39781185e-003
,,,2.95000000e-009,-1.37999935e-003
,,,2.97500000e-009,-1.35749935e-003
,,,3.00000000e-009,-1.33499935e-003
,,,3.02500000e-009,-1.31437435e-003
,,,3.05000000e-009,-1.29656185e-003
,,,3.07500000e-009,-1.28203060e-003
,,,3.10000000e-009,-1.27124935e-003
,,,3.12500000e-009,-1.26421810e-003
,,,3.15000000e-009,-1.25999935e-003
,,,3.17500000e-009,-1.25437435e-003
,,,3.20000000e-009,-1.24874935e-003
,,,3.22500000e-009,-1.24124935e-003
,,,3.25000000e-009,-1.23140560e-003
,,,3.27500000e-009,-1.21687435e-003
,,,3.30000000e-009,-1.19765560e-003
,,,3.32500000e-009,-1.17187435e-003
,,,3.35000000e-009,-1.13999935e-003
,,,3.37500000e-009,-1.09968685e-003
,,,3.40000000e-009,-1.05374935e-003
,,,3.42500000e-009,-1.00453060e-003
,,,3.45000000e-009,-9.53905597e-004
,,,3.47500000e-009,-9.04218097e-004
,,,3.50000000e-009,-8.57811846e-004
,,,3.52500000e-009,-8.16093096e-004
,,,3.55000000e-009,-7.79999346e-004
,,,3.57500000e-009,-7.51405595e-004
,,,3.60000000e-009,-7.28436845e-004
,,,3.62500000e-009,-7.11561845e-004
,,,3.65000000e-009,-6.98905595e-004
,,,3.67500000e-009,-6.88593095e-004
,,,3.70000000e-009,-6.80155595e-004
,,,3.72500000e-009,-6.70780595e-004
,,,3.75000000e-009,-6.59999344e-004
,,,3.77500000e-009,-6.49218094e-004
,,,3.80000000e-009,-6.35155594e-004
,,,3.82500000e-009,-6.18280594e-004
,,,3.85000000e-009,-5.99999344e-004
,,,3.87500000e-009,-5.81249344e-004
,,,3.90000000e-009,-5.64374344e-004
,,,3.92500000e-009,-5.50311844e-004
,,,3.95000000e-009,-5.39999343e-004
,,,3.97500000e-009,-5.35780593e-004
,,,4.00000000e-009,-5.34374343e-004
,,,4.02500000e-009,-5.35311843e-004
,,,4.05000000e-009,-5.37655593e-004
,,,4.07500000e-009,-5.40468093e-004
,,,4.10000000e-009,-5.42343093e-004
,,,4.12500000e-009,-5.42811843e-004
,,,4.15000000e-009,-5.39999343e-004
,,,4.17500000e-009,-5.35780593e-004
,,,4.20000000e-009,-5.26405593e-004
,,,4.22500000e-009,-5.12811843e-004
,,,4.25000000e-009,-4.95936843e-004
,,,4.27500000e-009,-4.77186843e-004
,,,4.30000000e-009,-4.57030593e-004
,,,4.32500000e-009,-4.37811843e-004
,,,4.35000000e-009,-4.19999342e-004
,,,4.37500000e-009,-4.08280592e-004
,,,4.40000000e-009,-3.99374342e-004
,,,4.42500000e-009,-3.94218092e-004
,,,4.45000000e-009,-3.92811842e-004
,,,4.47500000e-009,-3.95155592e-004
,,,4.50000000e-009,-4.01249342e-004
,,,4.52500000e-009,-4.09686842e-004
,,,4.55000000e-009,-4.19999342e-004
,,,4.57500000e-009,-4.34061843e-004
,,,4.60000000e-009,-4.46249343e-004
,,,4.62500000e-009,-4.56093093e-004
,,,4.65000000e-009,-4.61718093e-004
,,,4.67500000e-009,-4.61718093e-004
,,,4.70000000e-009,-4.54686843e-004
,,,4.72500000e-009,-4.41093093e-004
,,,4.75000000e-009,-4.19999342e-004
,,,4.77500000e-009,-3.94686842e-004
,,,4.80000000e-009,-3.64218092e-004
,,,4.82500000e-009,-3.30468092e-004
,,,4.85000000e-009,-2.95311841e-004
,,,4.87500000e-009,-2.60624341e-004
,,,4.90000000e-009,-2.29218091e-004
,,,4.92500000e-009,-2.02030591e-004
,,,4.95000000e-009,-1.79999340e-004
,,,4.97500000e-009,-1.68280590e-004
,,,5.00000000e-009,-1.62186840e-004
,,,5.02500000e-009,-1.60780590e-004
,,,5.05000000e-009,-1.63593090e-004
,,,5.07500000e-009,-1.67811840e-004
,,,5.10000000e-009,-1.72968090e-004
,,,5.12500000e-009,-1.77186840e-004
,,,5.15000000e-009,-1.79999340e-004
,,,5.17500000e-009,-1.84218090e-004
,,,5.20000000e-009,-1.87968090e-004
,,,5.22500000e-009,-1.92655590e-004
,,,5.25000000e-009,-2.00624341e-004
,,,5.27500000e-009,-2.13280591e-004
,,,5.30000000e-009,-2.33436841e-004
,,,5.32500000e-009,-2.62499341e-004
,,,5.35000000e-009,-2.99999341e-004
,,,5.37500000e-009,-3.45936842e-004
,,,5.40000000e-009,-3.97499342e-004
,,,5.42500000e-009,-4.52343093e-004
,,,5.45000000e-009,-5.06718093e-004
,,,5.47500000e-009,-5.57811844e-004
,,,5.50000000e-009,-6.02343094e-004
,,,5.52500000e-009,-6.37030594e-004
,,,5.55000000e-009,-6.59999344e-004
,,,5.57500000e-009,-6.66561845e-004
,,,5.60000000e-009,-6.60936845e-004
,,,5.62500000e-009,-6.45936844e-004
,,,5.65000000e-009,-6.23905594e-004
,,,5.67500000e-009,-5.99530594e-004
,,,5.70000000e-009,-5.75155594e-004
,,,5.72500000e-009,-5.54530594e-004
,,,5.75000000e-009,-5.39999343e-004
,,,5.77500000e-009,-5.29686843e-004
,,,5.80000000e-009,-5.25936843e-004
,,,5.82500000e-009,-5.27811843e-004
