RawData/SinglePhotoelectron/L5_2pt2A_5mV/wave009_Ch1.csv

"Record Length",1000,"Points",-7.72500000e-009,6.00006618e-005
"Sample Interval",2.50000000e-011,s,-7.70000000e-009,5.06256617e-005
"Trigger Point",309,"Samples",-7.67500000e-009,3.70319116e-005
"Trigger Time",6.65677812e-012,s,-7.65000000e-009,1.96881614e-005
"",,,-7.62500000e-009,6.61239028e-010
"Horizontal Offset",-7.72500000e-009,s,-7.60000000e-009,-2.01555889e-005
,,,-7.57500000e-009,-3.79680891e-005
,,,-7.55000000e-009,-5.20305892e-005
,,,-7.52500000e-009,-5.99993393e-005
,,,-7.50000000e-009,-6.14055893e-005
,,,-7.47500000e-009,-5.62493392e-005
,,,-7.45000000e-009,-4.49993392e-005
,,,-7.42500000e-009,-2.85930890e-005
,,,-7.40000000e-009,-7.96808883e-006
,,,-7.37500000e-009,1.45319114e-005
,,,-7.35000000e-009,3.79694116e-005
,,,-7.32500000e-009,6.00006618e-005
,,,-7.30000000e-009,7.68756619e-005
,,,-7.27500000e-009,8.90631620e-005
,,,-7.25000000e-009,9.65631621e-005
,,,-7.22500000e-009,9.79694121e-005
,,,-7.20000000e-009,9.46881621e-005
,,,-7.17500000e-009,8.67194120e-005
,,,-7.15000000e-009,7.45319119e-005
,,,-7.12500000e-009,6.00006618e-005
,,,-7.10000000e-009,4.21881616e-005
,,,-7.07500000e-009,2.34381614e-005
,,,-7.05000000e-009,5.15691128e-006
,,,-7.02500000e-009,-1.26555889e-005
,,,-7.00000000e-009,-2.85930890e-005
,,,-6.97500000e-009,-4.21868391e-005
,,,-6.95000000e-009,-5.24993392e-005
,,,-6.92500000e-009,-5.99993393e-005
,,,-6.90000000e-009,-6.56243393e-005
,,,-6.87500000e-009,-6.79680894e-005
,,,-6.85000000e-009,-6.84368394e-005
,,,-6.82500000e-009,-6.74993393e-005
,,,-6.80000000e-009,-6.51555893e-005
,,,-6.77500000e-009,-6.28118393e-005
,,,-6.75000000e-009,-6.09368393e-005
,,,-6.72500000e-009,-5.99993393e-005
,,,-6.70000000e-009,-6.18743393e-005
,,,-6.67500000e-009,-6.70305893e-005
,,,-6.65000000e-009,-7.59368394e-005
,,,-6.62500000e-009,-8.90618395e-005
,,,-6.60000000e-009,-1.06405590e-004
,,,-6.57500000e-009,-1.27968090e-004
,,,-6.55000000e-009,-1.52811840e-004
,,,-6.52500000e-009,-1.79999340e-004
,,,-6.50000000e-009,-2.08124341e-004
,,,-6.47500000e-009,-2.35311841e-004
,,,-6.45000000e-009,-2.60155591e-004
,,,-6.42500000e-009,-2.81249341e-004
,,,-6.40000000e-009,-2.96249341e-004
,,,-6.37500000e-009,-3.05155591e-004
,,,-6.35000000e-009,-3.06093091e-004
,,,-6.32500000e-009,-2.99999341e-004
,,,-6.30000000e-009,-2.84530591e-004
,,,-6.27500000e-009,-2.64374341e-004
,,,-6.25000000e-009,-2.41874341e-004
,,,-6.22500000e-009,-2.19843091e-004
,,,-6.20000000e-009,-2.00624341e-004
,,,-6.17500000e-009,-1.86561840e-004
,,,-6.15000000e-009,-1.79530590e-004
,,,-6.12500000e-009,-1.79999340e-004
,,,-6.10000000e-009,-1.85624340e-004
,,,-6.07500000e-009,-1.98280590e-004
,,,-6.05000000e-009,-2.16093091e-004
,,,-6.02500000e-009,-2.36718091e-004
,,,-6.00000000e-009,-2.57811841e-004
,,,-5.97500000e-009,-2.77030591e-004
,,,-5.95000000e-009,-2.91561841e-004
,,,-5.92500000e-009,-2.99999341e-004
,,,-5.90000000e-009,-2.97655591e-004
,,,-5.87500000e-009,-2.88280591e-004
,,,-5.85000000e-009,-2.72343091e-004
,,,-5.82500000e-009,-2.53124341e-004
,,,-5.80000000e-009,-2.31561841e-004
,,,-5.77500000e-009,-2.10936841e-004
,,,-5.75000000e-009,-1.93593090e-004
,,,-5.72500000e-009,-1.79999340e-004
,,,-5.70000000e-009,-1.71093090e-004
,,,-5.67500000e-009,-1.67343090e-004
,,,-5.65000000e-009,-1.68280590e-004
,,,-5.62500000e-009,-1.72499340e-004
,,,-5.60000000e-009,-1.77655590e-004
,,,-5.57500000e-009,-1.82343090e-004
,,,-5.55000000e-009,-1.83749340e-004
,,,-5.52500000e-009,-1.79999340e-004
,,,-5.50000000e-009,-1.70155590e-004
,,,-5.47500000e-009,-1.53280590e-004
,,,-5.45000000e-009,-1.29843090e-004
,,,-5.42500000e-009,-9.98430896e-005
,,,-5.40000000e-009,-6.42180893e-005
,,,-5.37500000e-009,-2.48430890e-005
,,,-5.35000000e-009,1.68756614e-005
,,,-5.32500000e-009,6.00006618e-005
,,,-5.30000000e-009,9.89069121e-005
,,,-5.27500000e-009,1.35469412e-004
,,,-5.25000000e-009,1.70156913e-004
,,,-5.22500000e-009,2.01563163e-004
,,,-5.20000000e-009,2.30156913e-004
,,,-5.17500000e-009,2.56406913e-004
,,,-5.15000000e-009,2.79375664e-004
,,,-5.12500000e-009,3.00000664e-004
,,,-5.10000000e-009,3.12188164e-004
,,,-5.07500000e-009,3.21094414e-004
,,,-5.05000000e-009,3.26719414e-004
,,,-5.02500000e-009,3.28594414e-004
,,,-5.00000000e-009,3.27188164e-004
,,,-4.97500000e-009,3.22031914e-004
,,,-4.95000000e-009,3.13125664e-004
,,,-4.92500000e-009,3.00000664e-004
,,,-4.90000000e-009,2.76563164e-004
,,,-4.87500000e-009,2.49844413e-004
,,,-4.85000000e-009,2.20781913e-004
,,,-4.82500000e-009,1.89844413e-004
,,,-4.80000000e-009,1.57500663e-004
,,,-4.77500000e-009,1.24688162e-004
,,,-4.75000000e-009,9.23444120e-005
,,,-4.72500000e-009,6.00006618e-005
,,,-4.70000000e-009,2.67194115e-005
,,,-4.67500000e-009,-4.68683880e-006
,,,-4.65000000e-009,-3.51555891e-005
,,,-4.62500000e-009,-6.46868393e-005
,,,-4.60000000e-009,-9.37493396e-005
,,,-4.57500000e-009,-1.22811840e-004
,,,-4.55000000e-009,-1.51405590e-004
,,,-4.52500000e-009,-1.79999340e-004
,,,-4.50000000e-009,-2.07186841e-004
,,,-4.47500000e-009,-2.32499341e-004
,,,-4.45000000e-009,-2.54530591e-004
,,,-4.42500000e-009,-2.73280591e-004
,,,-4.40000000e-009,-2.87343091e-004
,,,-4.37500000e-009,-2.96718091e-004
,,,-4.35000000e-009,-3.00936841e-004
,,,-4.32500000e-009,-2.99999341e-004
,,,-4.30000000e-009,-2.92499341e-004
,,,-4.27500000e-009,-2.83124341e-004
,,,-4.25000000e-009,-2.73749341e-004
,,,-4.22500000e-009,-2.67186841e-004
,,,-4.20000000e-009,-2.65311841e-004
,,,-4.17500000e-009,-2.69530591e-004
,,,-4.15000000e-009,-2.81249341e-004
,,,-4.12500000e-009,-2.99999341e-004
,,,-4.10000000e-009,-3.22030592e-004
,,,-4.07500000e-009,-3.48280592e-004
,,,-4.05000000e-009,-3.75936842e-004
,,,-4.02500000e-009,-4.01718092e-004
,,,-4.00000000e-009,-4.21874342e-004
,,,-3.97500000e-009,-4.33593093e-004
,,,-3.95000000e-009,-4.33593093e-004
,,,-3.92500000e-009,-4.19999342e-004
,,,-3.90000000e-009,-3.88124342e-004
,,,-3.87500000e-009,-3.44999342e-004
,,,-3.85000000e-009,-2.93905591e-004
,,,-3.82500000e-009,-2.39061841e-004
,,,-3.80000000e-009,-1.84686840e-004
,,,-3.77500000e-009,-1.34530590e-004
,,,-3.75000000e-009,-9.18743396e-005
,,,-3.72500000e-009,-5.99993393e-005
,,,-3.70000000e-009,-3.98430891e-005
,,,-3.67500000e-009,-3.09368390e-005
,,,-3.65000000e-009,-3.14055890e-005
,,,-3.62500000e-009,-3.89055891e-005
,,,-3.60000000e-009,-4.87493392e-005
,,,-3.57500000e-009,-5.76555893e-005
,,,-3.55000000e-009,-6.23430893e-005
,,,-3.52500000e-009,-5.99993393e-005
,,,-3.50000000e-009,-5.06243392e-005
,,,-3.47500000e-009,-3.37493391e-005
,,,-3.45000000e-009,-1.21868389e-005
,,,-3.42500000e-009,1.12506613e-005
,,,-3.40000000e-009,3.37506615e-005
,,,-3.37500000e-009,5.06256617e-005
,,,-3.35000000e-009,6.00006618e-005
,,,-3.32500000e-009,6.00006618e-005
,,,-3.30000000e-009,4.82819117e-005
,,,-3.27500000e-009,2.85944115e-005
,,,-3.25000000e-009,3.75066127e-006
,,,-3.22500000e-009,-2.20305890e-005
,,,-3.20000000e-009,-4.49993392e-005
,,,-3.17500000e-009,-6.09368393e-005
,,,-3.15000000e-009,-6.65618393e-005
,,,-3.12500000e-009,-5.99993393e-005
,,,-3.10000000e-009,-4.17180891e-005
,,,-3.07500000e-009,-1.17180889e-005
,,,-3.05000000e-009,2.62506615e-005
,,,-3.02500000e-009,6.79694118e-005
,,,-3.00000000e-009,1.08750662e-004
,,,-2.97500000e-009,1.43906912e-004
,,,-2.95000000e-009,1.68281913e-004
,,,-2.92500000e-009,1.80000663e-004
,,,-2.90000000e-009,1.73906913e-004
,,,-2.87500000e-009,1.54688163e-004
,,,-2.85000000e-009,1.24219412e-004
,,,-2.82500000e-009,8.57819120e-005
,,,-2.80000000e-009,4.40631616e-005
,,,-2.77500000e-009,2.81316126e-006
,,,-2.75000000e-009,-3.28118390e-005
,,,-2.72500000e-009,-5.99993393e-005
,,,-2.70000000e-009,-7.45305894e-005
,,,-2.67500000e-009,-7.68743394e-005
,,,-2.65000000e-009,-6.74993393e-005
,,,-2.62500000e-009,-4.82805892e-005
,,,-2.60000000e-009,-2.29680890e-005
,,,-2.57500000e-009,5.62566129e-006
,,,-2.55000000e-009,3.42194115e-005
,,,-2.52500000e-009,6.00006618e-005
,,,-2.50000000e-009,7.96881619e-005
,,,-2.47500000e-009,9.28131620e-005
,,,-2.45000000e-009,9.89069121e-005
,,,-2.42500000e-009,9.84381621e-005
,,,-2.40000000e-009,9.23444120e-005
,,,-2.37500000e-009,8.29694120e-005
,,,-2.35000000e-009,7.12506619e-005
,,,-2.32500000e-009,6.00006618e-005
,,,-2.30000000e-009,5.06256617e-005
,,,-2.27500000e-009,4.45319116e-005
,,,-2.25000000e-009,4.12506616e-005
,,,-2.22500000e-009,4.07819116e-005
,,,-2.20000000e-009,4.31256616e-005
,,,-2.17500000e-009,4.73444117e-005
,,,-2.15000000e-009,5.29694117e-005
,,,-2.12500000e-009,6.00006618e-005
,,,-2.10000000e-009,6.75006618e-005
,,,-2.07500000e-009,7.68756619e-005
,,,-2.05000000e-009,8.71881620e-005
,,,-2.02500000e-009,1.00313162e-004
,,,-2.00000000e-009,1.15781912e-004
,,,-1.97500000e-009,1.34063162e-004
,,,-1.95000000e-009,1.55625663e-004
,,,-1.92500000e-009,1.80000663e-004
,,,-1.90000000e-009,2.05313163e-004
,,,-1.87500000e-009,2.31094413e-004
,,,-1.85000000e-009,2.55469413e-004
,,,-1.82500000e-009,2.76094414e-004
,,,-1.80000000e-009,2.92031914e-004
,,,-1.77500000e-009,3.01875664e-004
,,,-1.75000000e-009,3.04688164e-004
,,,-1.72500000e-009,3.00000664e-004
,,,-1.70000000e-009,2.85000664e-004
,,,-1.67500000e-009,2.65781914e-004
,,,-1.65000000e-009,2.43281913e-004
,,,-1.62500000e-009,2.21250663e-004
,,,-1.60000000e-009,2.01563163e-004
,,,-1.57500000e-009,1.87031913e-004
,,,-1.55000000e-009,1.79531913e-004
,,,-1.52500000e-009,1.80000663e-004
,,,-1.50000000e-009,1.83281913e-004
,,,-1.47500000e-009,1.93125663e-004
,,,-1.45000000e-009,2.08594413e-004
,,,-1.42500000e-009,2.27813163e-004
,,,-1.40000000e-009,2.48906913e-004
,,,-1.37500000e-009,2.69531914e-004
,,,-1.35000000e-009,2.86875664e-004
,,,-1.32500000e-009,3.00000664e-004
,,,-1.30000000e-009,2.95313164e-004
,,,-1.27500000e-009,2.83125664e-004
,,,-1.25000000e-009,2.65313164e-004
,,,-1.22500000e-009,2.44219413e-004
,,,-1.20000000e-009,2.22656913e-004
,,,-1.17500000e-009,2.03438163e-004
,,,-1.15000000e-009,1.88438163e-004
,,,-1.12500000e-009,1.80000663e-004
,,,-1.10000000e-009,1.59375663e-004
,,,-1.07500000e-009,1.43438162e-004
,,,-1.05000000e-009,1.34063162e-004
,,,-1.02500000e-009,1.31250662e-004
,,,-1.00000000e-009,1.35469412e-004
,,,-9.75000000e-010,1.46250663e-004
,,,-9.50000000e-010,1.61719413e-004
,,,-9.25000000e-010,1.80000663e-004
,,,-9.00000000e-010,1.67344413e-004
,,,-8.75000000e-010,1.47656913e-004
,,,-8.50000000e-010,1.21406912e-004
,,,-8.25000000e-010,9.00006620e-005
,,,-8.00000000e-010,5.53131617e-005
,,,-7.75000000e-010,1.82819114e-005
,,,-7.50000000e-010,-2.01555889e-005
,,,-7.25000000e-010,-5.99993393e-005
,,,-7.00000000e-010,-1.40155590e-004
,,,-6.75000000e-010,-2.28749341e-004
,,,-6.50000000e-010,-3.22499342e-004
,,,-6.25000000e-010,-4.18593092e-004
,,,-6.00000000e-010,-5.14218093e-004
,,,-5.75000000e-010,-6.06561844e-004
,,,-5.50000000e-010,-6.95155595e-004
,,,-5.25000000e-010,-7.79999346e-004
,,,-5.00000000e-010,-9.01405597e-004
,,,-4.75000000e-010,-1.02890560e-003
,,,-4.50000000e-010,-1.16062435e-003
,,,-4.25000000e-010,-1.29562435e-003
,,,-4.00000000e-010,-1.43343685e-003
,,,-3.75000000e-010,-1.57265560e-003
,,,-3.50000000e-010,-1.71421810e-003
,,,-3.25000000e-010,-1.85999935e-003
,,,-3.00000000e-010,-2.04140561e-003
,,,-2.75000000e-010,-2.23734311e-003
,,,-2.50000000e-010,-2.44734311e-003
,,,-2.25000000e-010,-2.67046811e-003
,,,-2.00000000e-010,-2.90484311e-003
,,,-1.75000000e-010,-3.14859312e-003
,,,-1.50000000e-010,-3.40031187e-003
,,,-1.25000000e-010,-3.65999937e-003
,,,-1.00000000e-010,-3.93656187e-003
,,,-7.50000000e-011,-4.22437438e-003
,,,-5.00000000e-011,-4.52109313e-003
,,,-2.50000000e-011,-4.82578063e-003
,,,0.00000000e+000,-5.13421813e-003
,,,2.50000000e-011,-5.44499939e-003
,,,5.00000000e-011,-5.75437439e-003
,,,7.50000000e-011,-6.05999939e-003
,,,1.00000000e-010,-6.34593689e-003
,,,1.25000000e-010,-6.62999940e-003
,,,1.50000000e-010,-6.91124940e-003
,,,1.75000000e-010,-7.18921815e-003
,,,2.00000000e-010,-7.46062440e-003
,,,2.25000000e-010,-7.72453066e-003
,,,2.50000000e-010,-7.97812441e-003
,,,2.75000000e-010,-8.21999941e-003
,,,3.00000000e-010,-8.41171816e-003
,,,3.25000000e-010,-8.59546816e-003
,,,3.50000000e-010,-8.77265567e-003
,,,3.75000000e-010,-8.94421817e-003
,,,4.00000000e-010,-9.10828067e-003
,,,4.25000000e-010,-9.26390567e-003
,,,4.50000000e-010,-9.40874942e-003
,,,4.75000000e-010,-9.53999942e-003
,,,5.00000000e-010,-9.60843692e-003
,,,5.25000000e-010,-9.66703067e-003
,,,5.50000000e-010,-9.71624942e-003
,,,5.75000000e-010,-9.75562442e-003
,,,6.00000000e-010,-9.78328067e-003
,,,6.25000000e-010,-9.79828067e-003
,,,6.50000000e-010,-9.79734317e-003
,,,6.75000000e-010,-9.77999942e-003
,,,7.00000000e-010,-9.69937442e-003
,,,7.25000000e-010,-9.61078067e-003
,,,7.50000000e-010,-9.51796817e-003
,,,7.75000000e-010,-9.42328067e-003
,,,8.00000000e-010,-9.32953067e-003
,,,8.25000000e-010,-9.23718692e-003
,,,8.50000000e-010,-9.14718692e-003
,,,8.75000000e-010,-9.05999942e-003
,,,9.00000000e-010,-8.94281192e-003
,,,9.25000000e-010,-8.83453067e-003
,,,9.50000000e-010,-8.73562441e-003
,,,9.75000000e-010,-8.64609316e-003
,,,1.00000000e-009,-8.56406191e-003
,,,1.02500000e-009,-8.48718691e-003
,,,1.05000000e-009,-8.41359316e-003
,,,1.07500000e-009,-8.33999941e-003
,,,1.10000000e-009,-8.24578066e-003
,,,1.12500000e-009,-8.15203066e-003
,,,1.15000000e-009,-8.05874941e-003
,,,1.17500000e-009,-7.96640566e-003
,,,1.20000000e-009,-7.87546816e-003
,,,1.22500000e-009,-7.78734316e-003
,,,1.25000000e-009,-7.70203066e-003
,,,1.27500000e-009,-7.61999940e-003
,,,1.30000000e-009,-7.53468690e-003
,,,1.32500000e-009,-7.45218690e-003
,,,1.35000000e-009,-7.37249940e-003
,,,1.37500000e-009,-7.29515565e-003
,,,1.40000000e-009,-7.22156190e-003
,,,1.42500000e-009,-7.15078065e-003
,,,1.45000000e-009,-7.08374940e-003
,,,1.47500000e-009,-7.01999940e-003
,,,1.50000000e-009,-6.96281190e-003
,,,1.52500000e-009,-6.90656190e-003
,,,1.55000000e-009,-6.85218690e-003
,,,1.57500000e-009,-6.80109315e-003
,,,1.60000000e-009,-6.75468690e-003
,,,1.62500000e-009,-6.71531190e-003
,,,1.65000000e-009,-6.68390565e-003
,,,1.67500000e-009,-6.65999940e-003
,,,1.70000000e-009,-6.64593690e-003
,,,1.72500000e-009,-6.63328065e-003
,,,1.75000000e-009,-6.62062440e-003
,,,1.77500000e-009,-6.60749940e-003
,,,1.80000000e-009,-6.59343690e-003
,,,1.82500000e-009,-6.57796815e-003
,,,1.85000000e-009,-6.56015565e-003
,,,1.87500000e-009,-6.53999940e-003
,,,1.90000000e-009,-6.51468690e-003
,,,1.92500000e-009,-6.48046815e-003
,,,1.95000000e-009,-6.43874939e-003
,,,1.97500000e-009,-6.39093689e-003
,,,2.00000000e-009,-6.33890564e-003
,,,2.02500000e-009,-6.28499939e-003
,,,2.05000000e-009,-6.23156189e-003
,,,2.07500000e-009,-6.17999939e-003
,,,2.10000000e-009,-6.12703064e-003
,,,2.12500000e-009,-6.07406189e-003
,,,2.15000000e-009,-6.02249939e-003
,,,2.17500000e-009,-5.97374939e-003
,,,2.20000000e-009,-5.92874939e-003
,,,2.22500000e-009,-5.88843689e-003
,,,2.25000000e-009,-5.85281189e-003
,,,2.27500000e-009,-5.81999939e-003
,,,2.30000000e-009,-5.78343689e-003
,,,2.32500000e-009,-5.74218689e-003
,,,2.35000000e-009,-5.69484314e-003
,,,2.37500000e-009,-5.64046814e-003
,,,2.40000000e-009,-5.57812439e-003
,,,2.42500000e-009,-5.50734314e-003
,,,2.45000000e-009,-5.42812439e-003
,,,2.47500000e-009,-5.33999939e-003
,,,2.50000000e-009,-5.24015563e-003
,,,2.52500000e-009,-5.13187438e-003
,,,2.55000000e-009,-5.01843688e-003
,,,2.57500000e-009,-4.90359313e-003
,,,2.60000000e-009,-4.79109313e-003
,,,2.62500000e-009,-4.68468688e-003
,,,2.65000000e-009,-4.58718688e-003
,,,2.67500000e-009,-4.49999938e-003
,,,2.70000000e-009,-4.42453063e-003
,,,2.72500000e-009,-4.35656188e-003
,,,2.75000000e-009,-4.29515563e-003
,,,2.77500000e-009,-4.23843688e-003
,,,2.80000000e-009,-4.18453063e-003
,,,2.82500000e-009,-4.13156187e-003
,,,2.85000000e-009,-4.07718687e-003
,,,2.87500000e-009,-4.01999937e-003
,,,2.90000000e-009,-3.95999937e-003
,,,2.92500000e-009,-3.89156187e-003
,,,2.95000000e-009,-3.81562437e-003
,,,2.97500000e-009,-3.73499937e-003
,,,3.00000000e-009,-3.65203062e-003
,,,3.02500000e-009,-3.56999937e-003
,,,3.05000000e-009,-3.49171812e-003
,,,3.07500000e-009,-3.41999937e-003
,,,3.10000000e-009,-3.35953062e-003
,,,3.12500000e-009,-3.30374937e-003
,,,3.15000000e-009,-3.25265562e-003
,,,3.17500000e-009,-3.20624937e-003
,,,3.20000000e-009,-3.16406187e-003
,,,3.22500000e-009,-3.12609312e-003
,,,3.25000000e-009,-3.09187437e-003
,,,3.27500000e-009,-3.05999937e-003
,,,3.30000000e-009,-3.03281187e-003
,,,3.32500000e-009,-3.00281186e-003
,,,3.35000000e-009,-2.97046811e-003
,,,3.37500000e-009,-2.93671811e-003
,,,3.40000000e-009,-2.90343686e-003
,,,3.42500000e-009,-2.87203061e-003
,,,3.45000000e-009,-2.84437436e-003
,,,3.47500000e-009,-2.81999936e-003
,,,3.50000000e-009,-2.80078061e-003
,,,3.52500000e-009,-2.78015561e-003
,,,3.55000000e-009,-2.75718686e-003
,,,3.57500000e-009,-2.73046811e-003
,,,3.60000000e-009,-2.69999936e-003
,,,3.62500000e-009,-2.66484311e-003
,,,3.65000000e-009,-2.62499936e-003
,,,3.67500000e-009,-2.57999936e-003
,,,3.70000000e-009,-2.53031186e-003
,,,3.72500000e-009,-2.47359311e-003
,,,3.75000000e-009,-2.41124936e-003
,,,3.77500000e-009,-2.34562436e-003
,,,3.80000000e-009,-2.27953061e-003
,,,3.82500000e-009,-2.21531186e-003
,,,3.85000000e-009,-2.15531186e-003
,,,3.87500000e-009,-2.09999936e-003
,,,3.90000000e-009,-2.05218686e-003
,,,3.92500000e-009,-2.00718686e-003
,,,3.95000000e-009,-1.96406186e-003
,,,3.97500000e-009,-1.92187436e-003
,,,4.00000000e-009,-1.87921811e-003
,,,4.02500000e-009,-1.83562435e-003
,,,4.05000000e-009,-1.78921810e-003
,,,4.07500000e-009,-1.73999935e-003
,,,4.10000000e-009,-1.68937435e-003
,,,4.12500000e-009,-1.63265560e-003
,,,4.15000000e-009,-1.57124935e-003
,,,4.17500000e-009,-1.50703060e-003
,,,4.20000000e-009,-1.44140560e-003
,,,4.22500000e-009,-1.37718685e-003
,,,4.25000000e-009,-1.31624935e-003
,,,4.27500000e-009,-1.25999935e-003
,,,4.30000000e-009,-1.21499935e-003
,,,4.32500000e-009,-1.17468685e-003
,,,4.35000000e-009,-1.13906185e-003
,,,4.37500000e-009,-1.10812435e-003
,,,4.40000000e-009,-1.08140560e-003
,,,4.42500000e-009,-1.05796810e-003
,,,4.45000000e-009,-1.03781185e-003
,,,4.47500000e-009,-1.01999935e-003
,,,4.50000000e-009,-1.00874935e-003
,,,4.52500000e-009,-9.96093097e-004
,,,4.55000000e-009,-9.82030597e-004
,,,4.57500000e-009,-9.66093097e-004
,,,4.60000000e-009,-9.49218097e-004
,,,4.62500000e-009,-9.32343097e-004
,,,4.65000000e-009,-9.15936847e-004
,,,4.67500000e-009,-8.99999347e-004
,,,4.70000000e-009,-8.91093097e-004
,,,4.72500000e-009,-8.80780596e-004
,,,4.75000000e-009,-8.69061846e-004
,,,4.77500000e-009,-8.54999346e-004
,,,4.80000000e-009,-8.39061846e-004
,,,4.82500000e-009,-8.21249346e-004
,,,4.85000000e-009,-8.01561846e-004
,,,4.87500000e-009,-7.79999346e-004
,,,4.90000000e-009,-7.61718095e-004
,,,4.92500000e-009,-7.42030595e-004
,,,4.95000000e-009,-7.21874345e-004
,,,4.97500000e-009,-7.02186845e-004
,,,5.00000000e-009,-6.85311845e-004
,,,5.02500000e-009,-6.72186845e-004
,,,5.05000000e-009,-6.63749345e-004
,,,5.07500000e-009,-6.59999344e-004
,,,5.10000000e-009,-6.64686845e-004
,,,5.12500000e-009,-6.71249345e-004
,,,5.15000000e-009,-6.78280595e-004
,,,5.17500000e-009,-6.83436845e-004
,,,5.20000000e-009,-6.85311845e-004
,,,5.22500000e-009,-6.82499345e-004
,,,5.25000000e-009,-6.74061845e-004
,,,5.27500000e-009,-6.59999344e-004
,,,5.30000000e-009,-6.41249344e-004
,,,5.32500000e-009,-6.18280594e-004
,,,5.35000000e-009,-5.93436844e-004
,,,5.37500000e-009,-5.69530594e-004
,,,5.40000000e-009,-5.49843094e-004
,,,5.42500000e-009,-5.37655593e-004
,,,5.45000000e-009,-5.33905593e-004
,,,5.47500000e-009,-5.39999343e-004
,,,5.50000000e-009,-5.54999344e-004
,,,5.52500000e-009,-5.75624344e-004
,,,5.55000000e-009,-5.99999344e-004
,,,5.57500000e-009,-6.24843094e-004
,,,5.60000000e-009,-6.45936844e-004
,,,5.62500000e-009,-6.60468095e-004
,,,5.65000000e-009,-6.66093095e-004
,,,5.67500000e-009,-6.59999344e-004
,,,5.70000000e-009,-6.40780594e-004
,,,5.72500000e-009,-6.10780594e-004
,,,5.75000000e-009,-5.73749344e-004
,,,5.77500000e-009,-5.32968093e-004
,,,5.80000000e-009,-4.93124343e-004
,,,5.82500000e-009,-4.58905593e-004
,,,5.85000000e-009,-4.33593093e-004
,,,5.87500000e-009,-4.19999342e-004
,,,5.90000000e-009,-4.18593092e-004
