RawData/SinglePhotoelectron/L5_2pt2A_5mV/wave014_Ch1.csv

"Record Length",1000,"Points",-7.72500000e-009,1.96875663e-004
"Sample Interval",2.50000000e-011,s,-7.70000000e-009,1.90781913e-004
"Trigger Point",309,"Samples",-7.67500000e-009,1.84688163e-004
"Trigger Time",2.09814922e-011,s,-7.65000000e-009,1.80000663e-004
"",,,-7.62500000e-009,1.78594413e-004
"Horizontal Offset",-7.72500000e-009,s,-7.60000000e-009,1.80938163e-004
,,,-7.57500000e-009,1.88438163e-004
,,,-7.55000000e-009,2.01094413e-004
,,,-7.52500000e-009,2.19375663e-004
,,,-7.50000000e-009,2.42344413e-004
,,,-7.47500000e-009,2.69531914e-004
,,,-7.45000000e-009,3.00000664e-004
,,,-7.42500000e-009,3.30000664e-004
,,,-7.40000000e-009,3.59063164e-004
,,,-7.37500000e-009,3.85781915e-004
,,,-7.35000000e-009,4.07344415e-004
,,,-7.32500000e-009,4.22813165e-004
,,,-7.30000000e-009,4.30313165e-004
,,,-7.27500000e-009,4.29375665e-004
,,,-7.25000000e-009,4.20000665e-004
,,,-7.22500000e-009,4.00313165e-004
,,,-7.20000000e-009,3.73594414e-004
,,,-7.17500000e-009,3.41719414e-004
,,,-7.15000000e-009,3.07031914e-004
,,,-7.12500000e-009,2.70938164e-004
,,,-7.10000000e-009,2.36719413e-004
,,,-7.07500000e-009,2.05781913e-004
,,,-7.05000000e-009,1.80000663e-004
,,,-7.02500000e-009,1.60313163e-004
,,,-7.00000000e-009,1.48125663e-004
,,,-6.97500000e-009,1.42969412e-004
,,,-6.95000000e-009,1.43906912e-004
,,,-6.92500000e-009,1.49531913e-004
,,,-6.90000000e-009,1.58438163e-004
,,,-6.87500000e-009,1.69219413e-004
,,,-6.85000000e-009,1.80000663e-004
,,,-6.82500000e-009,1.89844413e-004
,,,-6.80000000e-009,1.97813163e-004
,,,-6.77500000e-009,2.02500663e-004
,,,-6.75000000e-009,2.03906913e-004
,,,-6.72500000e-009,2.02031913e-004
,,,-6.70000000e-009,1.96406913e-004
,,,-6.67500000e-009,1.88906913e-004
,,,-6.65000000e-009,1.80000663e-004
,,,-6.62500000e-009,1.71563163e-004
,,,-6.60000000e-009,1.64063163e-004
,,,-6.57500000e-009,1.58438163e-004
,,,-6.55000000e-009,1.55625663e-004
,,,-6.52500000e-009,1.56094413e-004
,,,-6.50000000e-009,1.60313163e-004
,,,-6.47500000e-009,1.68281913e-004
,,,-6.45000000e-009,1.80000663e-004
,,,-6.42500000e-009,1.95938163e-004
,,,-6.40000000e-009,2.13750663e-004
,,,-6.37500000e-009,2.32500663e-004
,,,-6.35000000e-009,2.51250663e-004
,,,-6.32500000e-009,2.67656914e-004
,,,-6.30000000e-009,2.82188164e-004
,,,-6.27500000e-009,2.92969414e-004
,,,-6.25000000e-009,3.00000664e-004
,,,-6.22500000e-009,3.03750664e-004
,,,-6.20000000e-009,3.04688164e-004
,,,-6.17500000e-009,3.02813164e-004
,,,-6.15000000e-009,3.00000664e-004
,,,-6.12500000e-009,2.96719414e-004
,,,-6.10000000e-009,2.94844414e-004
,,,-6.07500000e-009,2.95781914e-004
,,,-6.05000000e-009,3.00000664e-004
,,,-6.02500000e-009,3.06563164e-004
,,,-6.00000000e-009,3.17344414e-004
,,,-5.97500000e-009,3.31875664e-004
,,,-5.95000000e-009,3.48281914e-004
,,,-5.92500000e-009,3.67031914e-004
,,,-5.90000000e-009,3.85781915e-004
,,,-5.87500000e-009,4.03594415e-004
,,,-5.85000000e-009,4.20000665e-004
,,,-5.82500000e-009,4.30313165e-004
,,,-5.80000000e-009,4.36875665e-004
,,,-5.77500000e-009,4.39688165e-004
,,,-5.75000000e-009,4.39688165e-004
,,,-5.72500000e-009,4.36875665e-004
,,,-5.70000000e-009,4.31719415e-004
,,,-5.67500000e-009,4.26094415e-004
,,,-5.65000000e-009,4.20000665e-004
,,,-5.62500000e-009,4.09688165e-004
,,,-5.60000000e-009,4.01250665e-004
,,,-5.57500000e-009,3.95156915e-004
,,,-5.55000000e-009,3.92344415e-004
,,,-5.52500000e-009,3.93750665e-004
,,,-5.50000000e-009,3.98906915e-004
,,,-5.47500000e-009,4.07813165e-004
,,,-5.45000000e-009,4.20000665e-004
,,,-5.42500000e-009,4.29375665e-004
,,,-5.40000000e-009,4.38281915e-004
,,,-5.37500000e-009,4.46250665e-004
,,,-5.35000000e-009,4.51406915e-004
,,,-5.32500000e-009,4.52344415e-004
,,,-5.30000000e-009,4.47656915e-004
,,,-5.27500000e-009,4.36875665e-004
,,,-5.25000000e-009,4.20000665e-004
,,,-5.22500000e-009,3.92813165e-004
,,,-5.20000000e-009,3.60938164e-004
,,,-5.17500000e-009,3.26250664e-004
,,,-5.15000000e-009,2.90625664e-004
,,,-5.12500000e-009,2.56406913e-004
,,,-5.10000000e-009,2.25469413e-004
,,,-5.07500000e-009,1.99688163e-004
,,,-5.05000000e-009,1.80000663e-004
,,,-5.02500000e-009,1.63125663e-004
,,,-5.00000000e-009,1.50938163e-004
,,,-4.97500000e-009,1.41094412e-004
,,,-4.95000000e-009,1.32188162e-004
,,,-4.92500000e-009,1.21406912e-004
,,,-4.90000000e-009,1.06875662e-004
,,,-4.87500000e-009,8.67194120e-005
,,,-4.85000000e-009,6.00006618e-005
,,,-4.82500000e-009,2.48444115e-005
,,,-4.80000000e-009,-1.68743389e-005
,,,-4.77500000e-009,-6.46868393e-005
,,,-4.75000000e-009,-1.15311840e-004
,,,-4.72500000e-009,-1.67343090e-004
,,,-4.70000000e-009,-2.17030591e-004
,,,-4.67500000e-009,-2.62499341e-004
,,,-4.65000000e-009,-2.99999341e-004
,,,-4.62500000e-009,-3.25780592e-004
,,,-4.60000000e-009,-3.42186842e-004
,,,-4.57500000e-009,-3.49218092e-004
,,,-4.55000000e-009,-3.48749342e-004
,,,-4.52500000e-009,-3.41718092e-004
,,,-4.50000000e-009,-3.29999342e-004
,,,-4.47500000e-009,-3.15468092e-004
,,,-4.45000000e-009,-2.99999341e-004
,,,-4.42500000e-009,-2.83124341e-004
,,,-4.40000000e-009,-2.69530591e-004
,,,-4.37500000e-009,-2.60624341e-004
,,,-4.35000000e-009,-2.58280591e-004
,,,-4.32500000e-009,-2.61093091e-004
,,,-4.30000000e-009,-2.69530591e-004
,,,-4.27500000e-009,-2.83124341e-004
,,,-4.25000000e-009,-2.99999341e-004
,,,-4.22500000e-009,-3.15468092e-004
,,,-4.20000000e-009,-3.32811842e-004
,,,-4.17500000e-009,-3.50624342e-004
,,,-4.15000000e-009,-3.68905592e-004
,,,-4.12500000e-009,-3.85780592e-004
,,,-4.10000000e-009,-4.00780592e-004
,,,-4.07500000e-009,-4.12499342e-004
,,,-4.05000000e-009,-4.19999342e-004
,,,-4.02500000e-009,-4.18593092e-004
,,,-4.00000000e-009,-4.12968092e-004
,,,-3.97500000e-009,-4.02186842e-004
,,,-3.95000000e-009,-3.87655592e-004
,,,-3.92500000e-009,-3.69843092e-004
,,,-3.90000000e-009,-3.48280592e-004
,,,-3.87500000e-009,-3.24843092e-004
,,,-3.85000000e-009,-2.99999341e-004
,,,-3.82500000e-009,-2.72343091e-004
,,,-3.80000000e-009,-2.46093091e-004
,,,-3.77500000e-009,-2.23124341e-004
,,,-3.75000000e-009,-2.04374341e-004
,,,-3.72500000e-009,-1.90311840e-004
,,,-3.70000000e-009,-1.81874340e-004
,,,-3.67500000e-009,-1.78593090e-004
,,,-3.65000000e-009,-1.79999340e-004
,,,-3.62500000e-009,-1.84686840e-004
,,,-3.60000000e-009,-1.90780590e-004
,,,-3.57500000e-009,-1.97343090e-004
,,,-3.55000000e-009,-2.02499341e-004
,,,-3.52500000e-009,-2.04374341e-004
,,,-3.50000000e-009,-2.02030591e-004
,,,-3.47500000e-009,-1.94061840e-004
,,,-3.45000000e-009,-1.79999340e-004
,,,-3.42500000e-009,-1.58905590e-004
,,,-3.40000000e-009,-1.31718090e-004
,,,-3.37500000e-009,-9.98430896e-005
,,,-3.35000000e-009,-6.56243393e-005
,,,-3.32500000e-009,-3.04680890e-005
,,,-3.30000000e-009,3.75066127e-006
,,,-3.27500000e-009,3.42194115e-005
,,,-3.25000000e-009,6.00006618e-005
,,,-3.22500000e-009,7.78131619e-005
,,,-3.20000000e-009,8.90631620e-005
,,,-3.17500000e-009,9.46881621e-005
,,,-3.15000000e-009,9.42194121e-005
,,,-3.12500000e-009,8.90631620e-005
,,,-3.10000000e-009,8.06256619e-005
,,,-3.07500000e-009,7.07819119e-005
,,,-3.05000000e-009,6.00006618e-005
,,,-3.02500000e-009,4.78131617e-005
,,,-3.00000000e-009,3.89069116e-005
,,,-2.97500000e-009,3.32819115e-005
,,,-2.95000000e-009,3.14069115e-005
,,,-2.92500000e-009,3.37506615e-005
,,,-2.90000000e-009,3.93756616e-005
,,,-2.87500000e-009,4.82819117e-005
,,,-2.85000000e-009,6.00006618e-005
,,,-2.82500000e-009,7.12506619e-005
,,,-2.80000000e-009,8.48444120e-005
,,,-2.77500000e-009,9.98444121e-005
,,,-2.75000000e-009,1.15781912e-004
,,,-2.72500000e-009,1.32188162e-004
,,,-2.70000000e-009,1.48594413e-004
,,,-2.67500000e-009,1.64531913e-004
,,,-2.65000000e-009,1.80000663e-004
,,,-2.62500000e-009,1.90313163e-004
,,,-2.60000000e-009,1.98750663e-004
,,,-2.57500000e-009,2.04375663e-004
,,,-2.55000000e-009,2.06719413e-004
,,,-2.52500000e-009,2.05781913e-004
,,,-2.50000000e-009,2.00625663e-004
,,,-2.47500000e-009,1.92188163e-004
,,,-2.45000000e-009,1.80000663e-004
,,,-2.42500000e-009,1.62188163e-004
,,,-2.40000000e-009,1.42969412e-004
,,,-2.37500000e-009,1.23750662e-004
,,,-2.35000000e-009,1.05469412e-004
,,,-2.32500000e-009,8.90631620e-005
,,,-2.30000000e-009,7.54694119e-005
,,,-2.27500000e-009,6.56256618e-005
,,,-2.25000000e-009,6.00006618e-005
,,,-2.22500000e-009,5.76569117e-005
,,,-2.20000000e-009,5.81256617e-005
,,,-2.17500000e-009,6.09381618e-005
,,,-2.15000000e-009,6.42194118e-005
,,,-2.12500000e-009,6.70319118e-005
,,,-2.10000000e-009,6.79694118e-005
,,,-2.07500000e-009,6.56256618e-005
,,,-2.05000000e-009,6.00006618e-005
,,,-2.02500000e-009,5.06256617e-005
,,,-2.00000000e-009,3.75006616e-005
,,,-1.97500000e-009,2.20319114e-005
,,,-1.95000000e-009,4.21941128e-006
,,,-1.92500000e-009,-1.35930889e-005
,,,-1.90000000e-009,-3.14055890e-005
,,,-1.87500000e-009,-4.73430892e-005
,,,-1.85000000e-009,-5.99993393e-005
,,,-1.82500000e-009,-6.84368394e-005
,,,-1.80000000e-009,-7.26555894e-005
,,,-1.77500000e-009,-7.35930894e-005
,,,-1.75000000e-009,-7.26555894e-005
,,,-1.72500000e-009,-6.93743394e-005
,,,-1.70000000e-009,-6.56243393e-005
,,,-1.67500000e-009,-6.23430893e-005
,,,-1.65000000e-009,-5.99993393e-005
,,,-1.62500000e-009,-5.81243393e-005
,,,-1.60000000e-009,-5.71868393e-005
,,,-1.57500000e-009,-5.81243393e-005
,,,-1.55000000e-009,-5.99993393e-005
,,,-1.52500000e-009,-6.23430893e-005
,,,-1.50000000e-009,-6.32805893e-005
,,,-1.47500000e-009,-6.32805893e-005
,,,-1.45000000e-009,-5.99993393e-005
,,,-1.42500000e-009,-5.62493392e-005
,,,-1.40000000e-009,-4.96868392e-005
,,,-1.37500000e-009,-3.98430891e-005
,,,-1.35000000e-009,-2.67180890e-005
,,,-1.32500000e-009,-9.84308885e-006
,,,-1.30000000e-009,1.03131613e-005
,,,-1.27500000e-009,3.37506615e-005
,,,-1.25000000e-009,6.00006618e-005
,,,-1.22500000e-009,7.59381619e-005
,,,-1.20000000e-009,9.04694120e-005
,,,-1.17500000e-009,1.04063162e-004
,,,-1.15000000e-009,1.17656912e-004
,,,-1.12500000e-009,1.31719412e-004
,,,-1.10000000e-009,1.46250663e-004
,,,-1.07500000e-009,1.62656913e-004
,,,-1.05000000e-009,1.80000663e-004
,,,-1.02500000e-009,1.73906913e-004
,,,-1.00000000e-009,1.65469413e-004
,,,-9.75000000e-010,1.57031913e-004
,,,-9.50000000e-010,1.50469413e-004
,,,-9.25000000e-010,1.48125663e-004
,,,-9.00000000e-010,1.51875663e-004
,,,-8.75000000e-010,1.62656913e-004
,,,-8.50000000e-010,1.80000663e-004
,,,-8.25000000e-010,1.61719413e-004
,,,-8.00000000e-010,1.42031912e-004
,,,-7.75000000e-010,1.21875662e-004
,,,-7.50000000e-010,1.03125662e-004
,,,-7.25000000e-010,8.76569120e-005
,,,-7.00000000e-010,7.59381619e-005
,,,-6.75000000e-010,6.75006618e-005
,,,-6.50000000e-010,6.00006618e-005
,,,-6.25000000e-010,-1.87433878e-006
,,,-6.00000000e-010,-7.54680894e-005
,,,-5.75000000e-010,-1.58905590e-004
,,,-5.50000000e-010,-2.50311841e-004
,,,-5.25000000e-010,-3.47343092e-004
,,,-5.00000000e-010,-4.48124343e-004
,,,-4.75000000e-010,-5.52186844e-004
,,,-4.50000000e-010,-6.59999344e-004
,,,-4.25000000e-010,-8.27811846e-004
,,,-4.00000000e-010,-1.00968685e-003
,,,-3.75000000e-010,-1.20187435e-003
,,,-3.50000000e-010,-1.40156185e-003
,,,-3.25000000e-010,-1.60453060e-003
,,,-3.00000000e-010,-1.80890560e-003
,,,-2.75000000e-010,-2.01374936e-003
,,,-2.50000000e-010,-2.21999936e-003
,,,-2.25000000e-010,-2.47031186e-003
,,,-2.00000000e-010,-2.73468686e-003
,,,-1.75000000e-010,-3.01359311e-003
,,,-1.50000000e-010,-3.30703062e-003
,,,-1.25000000e-010,-3.61453062e-003
,,,-1.00000000e-010,-3.93609312e-003
,,,-7.50000000e-011,-4.27124938e-003
,,,-5.00000000e-011,-4.61999938e-003
,,,-2.50000000e-011,-4.99265563e-003
,,,0.00000000e+000,-5.38218689e-003
,,,2.50000000e-011,-5.78624939e-003
,,,5.00000000e-011,-6.20062439e-003
,,,7.50000000e-011,-6.62015565e-003
,,,1.00000000e-010,-7.03921815e-003
,,,1.25000000e-010,-7.45359315e-003
,,,1.50000000e-010,-7.85999941e-003
,,,1.75000000e-010,-8.22562441e-003
,,,2.00000000e-010,-8.58328066e-003
,,,2.25000000e-010,-8.93531192e-003
,,,2.50000000e-010,-9.28218692e-003
,,,2.75000000e-010,-9.62437442e-003
,,,3.00000000e-010,-9.96234318e-003
,,,3.25000000e-010,-1.02946869e-002
,,,3.50000000e-010,-1.06199994e-002
,,,3.75000000e-010,-1.08735932e-002
,,,4.00000000e-010,-1.11220307e-002
,,,4.25000000e-010,-1.13653119e-002
,,,4.50000000e-010,-1.16034369e-002
,,,4.75000000e-010,-1.18321869e-002
,,,5.00000000e-010,-1.20478119e-002
,,,5.25000000e-010,-1.22456244e-002
,,,5.50000000e-010,-1.24199994e-002
,,,5.75000000e-010,-1.24823432e-002
,,,6.00000000e-010,-1.25221869e-002
,,,6.25000000e-010,-1.25428119e-002
,,,6.50000000e-010,-1.25470307e-002
,,,6.75000000e-010,-1.25367182e-002
,,,7.00000000e-010,-1.25128119e-002
,,,7.25000000e-010,-1.24743744e-002
,,,7.50000000e-010,-1.24199994e-002
,,,7.75000000e-010,-1.22648432e-002
,,,8.00000000e-010,-1.20993744e-002
,,,8.25000000e-010,-1.19268744e-002
,,,8.50000000e-010,-1.17487494e-002
,,,8.75000000e-010,-1.15664057e-002
,,,9.00000000e-010,-1.13784369e-002
,,,9.25000000e-010,-1.11839057e-002
,,,9.50000000e-010,-1.09799994e-002
,,,9.75000000e-010,-1.07006244e-002
,,,1.00000000e-009,-1.04165619e-002
,,,1.02500000e-009,-1.01324994e-002
,,,1.05000000e-009,-9.85218692e-003
,,,1.07500000e-009,-9.57937442e-003
,,,1.10000000e-009,-9.31593692e-003
,,,1.12500000e-009,-9.06328067e-003
,,,1.15000000e-009,-8.81999942e-003
,,,1.17500000e-009,-8.54906191e-003
,,,1.20000000e-009,-8.28468691e-003
,,,1.22500000e-009,-8.02546816e-003
,,,1.25000000e-009,-7.77187441e-003
,,,1.27500000e-009,-7.52156190e-003
,,,1.30000000e-009,-7.27406190e-003
,,,1.32500000e-009,-7.02749940e-003
,,,1.35000000e-009,-6.77999940e-003
,,,1.37500000e-009,-6.52312440e-003
,,,1.40000000e-009,-6.26015564e-003
,,,1.42500000e-009,-5.99343689e-003
,,,1.45000000e-009,-5.72671814e-003
,,,1.47500000e-009,-5.46374939e-003
,,,1.50000000e-009,-5.20968688e-003
,,,1.52500000e-009,-4.96734313e-003
,,,1.55000000e-009,-4.73999938e-003
,,,1.57500000e-009,-4.54593688e-003
,,,1.60000000e-009,-4.35796813e-003
,,,1.62500000e-009,-4.17468688e-003
,,,1.65000000e-009,-3.99468687e-003
,,,1.67500000e-009,-3.81703062e-003
,,,1.70000000e-009,-3.64218687e-003
,,,1.72500000e-009,-3.46968687e-003
,,,1.75000000e-009,-3.29999937e-003
,,,1.77500000e-009,-3.16453062e-003
,,,1.80000000e-009,-3.02390562e-003
,,,1.82500000e-009,-2.87859311e-003
,,,1.85000000e-009,-2.73187436e-003
,,,1.87500000e-009,-2.58796811e-003
,,,1.90000000e-009,-2.45203061e-003
,,,1.92500000e-009,-2.32828061e-003
,,,1.95000000e-009,-2.21999936e-003
,,,1.97500000e-009,-2.16468686e-003
,,,2.00000000e-009,-2.11640561e-003
,,,2.02500000e-009,-2.07281186e-003
,,,2.05000000e-009,-2.03156186e-003
,,,2.07500000e-009,-1.99031186e-003
,,,2.10000000e-009,-1.94859311e-003
,,,2.12500000e-009,-1.90499936e-003
,,,2.15000000e-009,-1.85999935e-003
,,,2.17500000e-009,-1.84406185e-003
,,,2.20000000e-009,-1.81921810e-003
,,,2.22500000e-009,-1.78687435e-003
,,,2.25000000e-009,-1.74890560e-003
,,,2.27500000e-009,-1.70953060e-003
,,,2.30000000e-009,-1.67203060e-003
,,,2.32500000e-009,-1.64109310e-003
,,,2.35000000e-009,-1.61999935e-003
,,,2.37500000e-009,-1.63499935e-003
,,,2.40000000e-009,-1.65656185e-003
,,,2.42500000e-009,-1.68421810e-003
,,,2.45000000e-009,-1.71609310e-003
,,,2.47500000e-009,-1.75078060e-003
,,,2.50000000e-009,-1.78687435e-003
,,,2.52500000e-009,-1.82390560e-003
,,,2.55000000e-009,-1.85999935e-003
,,,2.57500000e-009,-1.90687436e-003
,,,2.60000000e-009,-1.94765561e-003
,,,2.62500000e-009,-1.98234311e-003
,,,2.65000000e-009,-2.01093686e-003
,,,2.67500000e-009,-2.03531186e-003
,,,2.70000000e-009,-2.05734311e-003
,,,2.72500000e-009,-2.07843686e-003
,,,2.75000000e-009,-2.09999936e-003
,,,2.77500000e-009,-2.12765561e-003
,,,2.80000000e-009,-2.15578061e-003
,,,2.82500000e-009,-2.18484311e-003
,,,2.85000000e-009,-2.21484311e-003
,,,2.87500000e-009,-2.24578061e-003
,,,2.90000000e-009,-2.27765561e-003
,,,2.92500000e-009,-2.30906186e-003
,,,2.95000000e-009,-2.33999936e-003
,,,2.97500000e-009,-2.36437436e-003
,,,3.00000000e-009,-2.38593686e-003
,,,3.02500000e-009,-2.40468686e-003
,,,3.05000000e-009,-2.42062436e-003
,,,3.07500000e-009,-2.43374936e-003
,,,3.10000000e-009,-2.44499936e-003
,,,3.12500000e-009,-2.45390561e-003
,,,3.15000000e-009,-2.45999936e-003
,,,3.17500000e-009,-2.45390561e-003
,,,3.20000000e-009,-2.44453061e-003
,,,3.22500000e-009,-2.43234311e-003
,,,3.25000000e-009,-2.41734311e-003
,,,3.27500000e-009,-2.40046811e-003
,,,3.30000000e-009,-2.38218686e-003
,,,3.32500000e-009,-2.36203061e-003
,,,3.35000000e-009,-2.33999936e-003
,,,3.37500000e-009,-2.30624936e-003
,,,3.40000000e-009,-2.27109311e-003
,,,3.42500000e-009,-2.23640561e-003
,,,3.45000000e-009,-2.20359311e-003
,,,3.47500000e-009,-2.17312436e-003
,,,3.50000000e-009,-2.14546811e-003
,,,3.52500000e-009,-2.12156186e-003
,,,3.55000000e-009,-2.09999936e-003
,,,3.57500000e-009,-2.07234311e-003
,,,3.60000000e-009,-2.04562436e-003
,,,3.62500000e-009,-2.01843686e-003
,,,3.65000000e-009,-1.99124936e-003
,,,3.67500000e-009,-1.96265561e-003
,,,3.70000000e-009,-1.93171811e-003
,,,3.72500000e-009,-1.89796811e-003
,,,3.75000000e-009,-1.85999935e-003
,,,3.77500000e-009,-1.81171810e-003
,,,3.80000000e-009,-1.75781185e-003
,,,3.82500000e-009,-1.69921810e-003
,,,3.85000000e-009,-1.63734310e-003
,,,3.87500000e-009,-1.57359310e-003
,,,3.90000000e-009,-1.50843685e-003
,,,3.92500000e-009,-1.44374935e-003
,,,3.95000000e-009,-1.37999935e-003
,,,3.97500000e-009,-1.31718685e-003
,,,4.00000000e-009,-1.25484310e-003
,,,4.02500000e-009,-1.19343685e-003
,,,4.05000000e-009,-1.13249935e-003
,,,4.07500000e-009,-1.07296810e-003
,,,4.10000000e-009,-1.01437435e-003
,,,4.12500000e-009,-9.56718097e-004
,,,4.15000000e-009,-8.99999347e-004
,,,4.17500000e-009,-8.47030596e-004
,,,4.20000000e-009,-7.94061846e-004
,,,4.22500000e-009,-7.41561845e-004
,,,4.25000000e-009,-6.91874345e-004
,,,4.27500000e-009,-6.45468094e-004
,,,4.30000000e-009,-6.04218094e-004
,,,4.32500000e-009,-5.69061844e-004
,,,4.35000000e-009,-5.39999343e-004
,,,4.37500000e-009,-5.24061843e-004
,,,4.40000000e-009,-5.10936843e-004
,,,4.42500000e-009,-4.99218093e-004
,,,4.45000000e-009,-4.87968093e-004
,,,4.47500000e-009,-4.75311843e-004
,,,4.50000000e-009,-4.60311843e-004
,,,4.52500000e-009,-4.41561843e-004
,,,4.55000000e-009,-4.19999342e-004
,,,4.57500000e-009,-4.02186842e-004
,,,4.60000000e-009,-3.80624342e-004
,,,4.62500000e-009,-3.58124342e-004
,,,4.65000000e-009,-3.36093092e-004
,,,4.67500000e-009,-3.17811842e-004
,,,4.70000000e-009,-3.04686841e-004
,,,4.72500000e-009,-2.98593091e-004
,,,4.75000000e-009,-2.99999341e-004
,,,4.77500000e-009,-3.16405592e-004
,,,4.80000000e-009,-3.34686842e-004
,,,4.82500000e-009,-3.52030592e-004
,,,4.85000000e-009,-3.64218092e-004
,,,4.87500000e-009,-3.67968092e-004
,,,4.90000000e-009,-3.59530592e-004
,,,4.92500000e-009,-3.37030592e-004
,,,4.95000000e-009,-2.99999341e-004
,,,4.97500000e-009,-2.55936841e-004
,,,5.00000000e-009,-2.00624341e-004
,,,5.02500000e-009,-1.39686840e-004
,,,5.05000000e-009,-7.82805894e-005
,,,5.07500000e-009,-2.24993390e-005
,,,5.10000000e-009,2.20319114e-005
,,,5.12500000e-009,5.06256617e-005
,,,5.15000000e-009,6.00006618e-005
,,,5.17500000e-009,4.07819116e-005
,,,5.20000000e-009,3.75066127e-006
,,,5.22500000e-009,-4.64055892e-005
,,,5.25000000e-009,-1.04999340e-004
,,,5.27500000e-009,-1.65468090e-004
,,,5.30000000e-009,-2.21249341e-004
,,,5.32500000e-009,-2.67186841e-004
,,,5.35000000e-009,-2.99999341e-004
,,,5.37500000e-009,-3.19218092e-004
,,,5.40000000e-009,-3.23436842e-004
,,,5.42500000e-009,-3.16405592e-004
,,,5.45000000e-009,-3.03280591e-004
,,,5.47500000e-009,-2.89686841e-004
,,,5.50000000e-009,-2.81718091e-004
,,,5.52500000e-009,-2.84061841e-004
,,,5.55000000e-009,-2.99999341e-004
,,,5.57500000e-009,-3.32811842e-004
,,,5.60000000e-009,-3.78749342e-004
,,,5.62500000e-009,-4.34061843e-004
,,,5.65000000e-009,-4.94061843e-004
,,,5.67500000e-009,-5.51718094e-004
,,,5.70000000e-009,-6.01874344e-004
,,,5.72500000e-009,-6.39374344e-004
,,,5.75000000e-009,-6.59999344e-004
,,,5.77500000e-009,-6.59999344e-004
,,,5.80000000e-009,-6.44061844e-004
,,,5.82500000e-009,-6.17343094e-004
,,,5.85000000e-009,-5.86405594e-004
,,,5.87500000e-009,-5.56874344e-004
,,,5.90000000e-009,-5.36718093e-004
,,,5.92500000e-009,-5.30155593e-004
,,,5.95000000e-009,-5.39999343e-004
