RawData/SinglePhotoelectron/L5_2pt2A_5mV/wave011_Ch1.csv

"Record Length",1000,"Points",-7.72500000e-009,-5.57805892e-005
"Sample Interval",2.50000000e-011,s,-7.70000000e-009,-5.85930893e-005
"Trigger Point",309,"Samples",-7.67500000e-009,-5.99993393e-005
"Trigger Time",2.05200000e-011,s,-7.65000000e-009,-6.18743393e-005
"",,,-7.62500000e-009,-6.18743393e-005
"Horizontal Offset",-7.72500000e-009,s,-7.60000000e-009,-6.14055893e-005
,,,-7.57500000e-009,-5.95305893e-005
,,,-7.55000000e-009,-5.81243393e-005
,,,-7.52500000e-009,-5.71868393e-005
,,,-7.50000000e-009,-5.76555893e-005
,,,-7.47500000e-009,-5.99993393e-005
,,,-7.45000000e-009,-6.51555893e-005
,,,-7.42500000e-009,-7.31243394e-005
,,,-7.40000000e-009,-8.48430895e-005
,,,-7.37500000e-009,-9.98430896e-005
,,,-7.35000000e-009,-1.17655590e-004
,,,-7.32500000e-009,-1.37811840e-004
,,,-7.30000000e-009,-1.58905590e-004
,,,-7.27500000e-009,-1.79999340e-004
,,,-7.25000000e-009,-1.97343090e-004
,,,-7.22500000e-009,-2.11874341e-004
,,,-7.20000000e-009,-2.21718091e-004
,,,-7.17500000e-009,-2.26405591e-004
,,,-7.15000000e-009,-2.24530591e-004
,,,-7.12500000e-009,-2.16561841e-004
,,,-7.10000000e-009,-2.01093091e-004
,,,-7.07500000e-009,-1.79999340e-004
,,,-7.05000000e-009,-1.53749340e-004
,,,-7.02500000e-009,-1.25624340e-004
,,,-7.00000000e-009,-9.84368396e-005
,,,-6.97500000e-009,-7.45305894e-005
,,,-6.95000000e-009,-5.67180893e-005
,,,-6.92500000e-009,-4.78118392e-005
,,,-6.90000000e-009,-4.87493392e-005
,,,-6.87500000e-009,-5.99993393e-005
,,,-6.85000000e-009,-8.10930895e-005
,,,-6.82500000e-009,-1.10155590e-004
,,,-6.80000000e-009,-1.45311840e-004
,,,-6.77500000e-009,-1.83280590e-004
,,,-6.75000000e-009,-2.21249341e-004
,,,-6.72500000e-009,-2.55468091e-004
,,,-6.70000000e-009,-2.82655591e-004
,,,-6.67500000e-009,-2.99999341e-004
,,,-6.65000000e-009,-3.03749341e-004
,,,-6.62500000e-009,-2.94843091e-004
,,,-6.60000000e-009,-2.74218091e-004
,,,-6.57500000e-009,-2.42811841e-004
,,,-6.55000000e-009,-2.02968091e-004
,,,-6.52500000e-009,-1.57499340e-004
,,,-6.50000000e-009,-1.08749340e-004
,,,-6.47500000e-009,-5.99993393e-005
,,,-6.45000000e-009,-1.45305889e-005
,,,-6.42500000e-009,2.48444115e-005
,,,-6.40000000e-009,5.57819117e-005
,,,-6.37500000e-009,7.68756619e-005
,,,-6.35000000e-009,8.71881620e-005
,,,-6.32500000e-009,8.71881620e-005
,,,-6.30000000e-009,7.78131619e-005
,,,-6.27500000e-009,6.00006618e-005
,,,-6.25000000e-009,3.56256615e-005
,,,-6.22500000e-009,8.90691132e-006
,,,-6.20000000e-009,-1.78118389e-005
,,,-6.17500000e-009,-4.12493391e-005
,,,-6.15000000e-009,-5.90618393e-005
,,,-6.12500000e-009,-6.89055894e-005
,,,-6.10000000e-009,-6.93743394e-005
,,,-6.07500000e-009,-5.99993393e-005
,,,-6.05000000e-009,-4.07805891e-005
,,,-6.02500000e-009,-1.26555889e-005
,,,-6.00000000e-009,2.15631614e-005
,,,-5.97500000e-009,5.90631618e-005
,,,-5.95000000e-009,9.65631621e-005
,,,-5.92500000e-009,1.31250662e-004
,,,-5.90000000e-009,1.59375663e-004
,,,-5.87500000e-009,1.80000663e-004
,,,-5.85000000e-009,1.89375663e-004
,,,-5.82500000e-009,1.88438163e-004
,,,-5.80000000e-009,1.78594413e-004
,,,-5.77500000e-009,1.61250663e-004
,,,-5.75000000e-009,1.38281912e-004
,,,-5.72500000e-009,1.12031912e-004
,,,-5.70000000e-009,8.48444120e-005
,,,-5.67500000e-009,6.00006618e-005
,,,-5.65000000e-009,3.79694116e-005
,,,-5.62500000e-009,2.20319114e-005
,,,-5.60000000e-009,1.35944114e-005
,,,-5.57500000e-009,1.21881613e-005
,,,-5.55000000e-009,1.68756614e-005
,,,-5.52500000e-009,2.76569115e-005
,,,-5.50000000e-009,4.21881616e-005
,,,-5.47500000e-009,6.00006618e-005
,,,-5.45000000e-009,7.82819119e-005
,,,-5.42500000e-009,9.70319121e-005
,,,-5.40000000e-009,1.15313162e-004
,,,-5.37500000e-009,1.32188162e-004
,,,-5.35000000e-009,1.47188163e-004
,,,-5.32500000e-009,1.60313163e-004
,,,-5.30000000e-009,1.71094413e-004
,,,-5.27500000e-009,1.80000663e-004
,,,-5.25000000e-009,1.84219413e-004
,,,-5.22500000e-009,1.86094413e-004
,,,-5.20000000e-009,1.86563163e-004
,,,-5.17500000e-009,1.86094413e-004
,,,-5.15000000e-009,1.84219413e-004
,,,-5.12500000e-009,1.82813163e-004
,,,-5.10000000e-009,1.80938163e-004
,,,-5.07500000e-009,1.80000663e-004
,,,-5.05000000e-009,1.75781913e-004
,,,-5.02500000e-009,1.72969413e-004
,,,-5.00000000e-009,1.71094413e-004
,,,-4.97500000e-009,1.70625663e-004
,,,-4.95000000e-009,1.71094413e-004
,,,-4.92500000e-009,1.72969413e-004
,,,-4.90000000e-009,1.75781913e-004
,,,-4.87500000e-009,1.80000663e-004
,,,-4.85000000e-009,1.80938163e-004
,,,-4.82500000e-009,1.81875663e-004
,,,-4.80000000e-009,1.82344413e-004
,,,-4.77500000e-009,1.82813163e-004
,,,-4.75000000e-009,1.82813163e-004
,,,-4.72500000e-009,1.82344413e-004
,,,-4.70000000e-009,1.81406913e-004
,,,-4.67500000e-009,1.80000663e-004
,,,-4.65000000e-009,1.73906913e-004
,,,-4.62500000e-009,1.66406913e-004
,,,-4.60000000e-009,1.56563163e-004
,,,-4.57500000e-009,1.43906912e-004
,,,-4.55000000e-009,1.27969412e-004
,,,-4.52500000e-009,1.08750662e-004
,,,-4.50000000e-009,8.57819120e-005
,,,-4.47500000e-009,6.00006618e-005
,,,-4.45000000e-009,2.95319115e-005
,,,-4.42500000e-009,-2.34308878e-006
,,,-4.40000000e-009,-3.51555891e-005
,,,-4.37500000e-009,-6.79680894e-005
,,,-4.35000000e-009,-9.98430896e-005
,,,-4.32500000e-009,-1.29374340e-004
,,,-4.30000000e-009,-1.56561840e-004
,,,-4.27500000e-009,-1.79999340e-004
,,,-4.25000000e-009,-1.98749340e-004
,,,-4.22500000e-009,-2.14218091e-004
,,,-4.20000000e-009,-2.27811841e-004
,,,-4.17500000e-009,-2.40468091e-004
,,,-4.15000000e-009,-2.53593091e-004
,,,-4.12500000e-009,-2.67186841e-004
,,,-4.10000000e-009,-2.82655591e-004
,,,-4.07500000e-009,-2.99999341e-004
,,,-4.05000000e-009,-3.15468092e-004
,,,-4.02500000e-009,-3.32343092e-004
,,,-4.00000000e-009,-3.50155592e-004
,,,-3.97500000e-009,-3.68436842e-004
,,,-3.95000000e-009,-3.85311842e-004
,,,-3.92500000e-009,-4.00780592e-004
,,,-3.90000000e-009,-4.12499342e-004
,,,-3.87500000e-009,-4.19999342e-004
,,,-3.85000000e-009,-4.17655592e-004
,,,-3.82500000e-009,-4.10155592e-004
,,,-3.80000000e-009,-3.98436842e-004
,,,-3.77500000e-009,-3.82499342e-004
,,,-3.75000000e-009,-3.63749342e-004
,,,-3.72500000e-009,-3.43124342e-004
,,,-3.70000000e-009,-3.22030592e-004
,,,-3.67500000e-009,-2.99999341e-004
,,,-3.65000000e-009,-2.75155591e-004
,,,-3.62500000e-009,-2.51718091e-004
,,,-3.60000000e-009,-2.31561841e-004
,,,-3.57500000e-009,-2.15155591e-004
,,,-3.55000000e-009,-2.02030591e-004
,,,-3.52500000e-009,-1.92186840e-004
,,,-3.50000000e-009,-1.85155590e-004
,,,-3.47500000e-009,-1.79999340e-004
,,,-3.45000000e-009,-1.73905590e-004
,,,-3.42500000e-009,-1.67811840e-004
,,,-3.40000000e-009,-1.59843090e-004
,,,-3.37500000e-009,-1.49061840e-004
,,,-3.35000000e-009,-1.34061840e-004
,,,-3.32500000e-009,-1.14843090e-004
,,,-3.30000000e-009,-8.99993395e-005
,,,-3.27500000e-009,-5.99993393e-005
,,,-3.25000000e-009,-2.67180890e-005
,,,-3.22500000e-009,8.90691132e-006
,,,-3.20000000e-009,4.59381616e-005
,,,-3.17500000e-009,8.15631619e-005
,,,-3.15000000e-009,1.14375662e-004
,,,-3.12500000e-009,1.42500662e-004
,,,-3.10000000e-009,1.64531913e-004
,,,-3.07500000e-009,1.80000663e-004
,,,-3.05000000e-009,1.83750663e-004
,,,-3.02500000e-009,1.82344413e-004
,,,-3.00000000e-009,1.77656913e-004
,,,-2.97500000e-009,1.71563163e-004
,,,-2.95000000e-009,1.66406913e-004
,,,-2.92500000e-009,1.65469413e-004
,,,-2.90000000e-009,1.69219413e-004
,,,-2.87500000e-009,1.80000663e-004
,,,-2.85000000e-009,1.92188163e-004
,,,-2.82500000e-009,2.10000663e-004
,,,-2.80000000e-009,2.31563163e-004
,,,-2.77500000e-009,2.54531913e-004
,,,-2.75000000e-009,2.75156914e-004
,,,-2.72500000e-009,2.91563164e-004
,,,-2.70000000e-009,3.00000664e-004
,,,-2.67500000e-009,3.00000664e-004
,,,-2.65000000e-009,2.84063164e-004
,,,-2.62500000e-009,2.59688163e-004
,,,-2.60000000e-009,2.28281913e-004
,,,-2.57500000e-009,1.92656913e-004
,,,-2.55000000e-009,1.55156913e-004
,,,-2.52500000e-009,1.19063162e-004
,,,-2.50000000e-009,8.67194120e-005
,,,-2.47500000e-009,6.00006618e-005
,,,-2.45000000e-009,3.70319116e-005
,,,-2.42500000e-009,2.10944114e-005
,,,-2.40000000e-009,9.37566132e-006
,,,-2.37500000e-009,4.69411243e-007
,,,-2.35000000e-009,-8.90558884e-006
,,,-2.32500000e-009,-2.06243389e-005
,,,-2.30000000e-009,-3.74993391e-005
,,,-2.27500000e-009,-5.99993393e-005
,,,-2.25000000e-009,-9.04680895e-005
,,,-2.22500000e-009,-1.26093090e-004
,,,-2.20000000e-009,-1.64999340e-004
,,,-2.17500000e-009,-2.03905591e-004
,,,-2.15000000e-009,-2.39530591e-004
,,,-2.12500000e-009,-2.69061841e-004
,,,-2.10000000e-009,-2.89686841e-004
,,,-2.07500000e-009,-2.99999341e-004
,,,-2.05000000e-009,-2.97655591e-004
,,,-2.02500000e-009,-2.85936841e-004
,,,-2.00000000e-009,-2.67186841e-004
,,,-1.97500000e-009,-2.44686841e-004
,,,-1.95000000e-009,-2.21718091e-004
,,,-1.92500000e-009,-2.01093091e-004
,,,-1.90000000e-009,-1.87030590e-004
,,,-1.87500000e-009,-1.79999340e-004
,,,-1.85000000e-009,-1.82343090e-004
,,,-1.82500000e-009,-1.93124340e-004
,,,-1.80000000e-009,-2.11405591e-004
,,,-1.77500000e-009,-2.33436841e-004
,,,-1.75000000e-009,-2.56874341e-004
,,,-1.72500000e-009,-2.77499341e-004
,,,-1.70000000e-009,-2.92968091e-004
,,,-1.67500000e-009,-2.99999341e-004
,,,-1.65000000e-009,-2.99530591e-004
,,,-1.62500000e-009,-2.90624341e-004
,,,-1.60000000e-009,-2.75624341e-004
,,,-1.57500000e-009,-2.55936841e-004
,,,-1.55000000e-009,-2.34374341e-004
,,,-1.52500000e-009,-2.12811841e-004
,,,-1.50000000e-009,-1.94061840e-004
,,,-1.47500000e-009,-1.79999340e-004
,,,-1.45000000e-009,-1.80936840e-004
,,,-1.42500000e-009,-1.90311840e-004
,,,-1.40000000e-009,-2.06718091e-004
,,,-1.37500000e-009,-2.27343091e-004
,,,-1.35000000e-009,-2.50311841e-004
,,,-1.32500000e-009,-2.71405591e-004
,,,-1.30000000e-009,-2.88749341e-004
,,,-1.27500000e-009,-2.99999341e-004
,,,-1.25000000e-009,-3.18749342e-004
,,,-1.22500000e-009,-3.32811842e-004
,,,-1.20000000e-009,-3.40780592e-004
,,,-1.17500000e-009,-3.42655592e-004
,,,-1.15000000e-009,-3.38436842e-004
,,,-1.12500000e-009,-3.29061842e-004
,,,-1.10000000e-009,-3.15936842e-004
,,,-1.07500000e-009,-2.99999341e-004
,,,-1.05000000e-009,-3.06093091e-004
,,,-1.02500000e-009,-3.16405592e-004
,,,-1.00000000e-009,-3.30936842e-004
,,,-9.75000000e-010,-3.47811842e-004
,,,-9.50000000e-010,-3.66093092e-004
,,,-9.25000000e-010,-3.84374342e-004
,,,-9.00000000e-010,-4.02186842e-004
,,,-8.75000000e-010,-4.19999342e-004
,,,-8.50000000e-010,-4.64061843e-004
,,,-8.25000000e-010,-5.13749343e-004
,,,-8.00000000e-010,-5.68124344e-004
,,,-7.75000000e-010,-6.27186844e-004
,,,-7.50000000e-010,-6.89530595e-004
,,,-7.25000000e-010,-7.55624345e-004
,,,-7.00000000e-010,-8.25468096e-004
,,,-6.75000000e-010,-8.99999347e-004
,,,-6.50000000e-010,-1.00359310e-003
,,,-6.25000000e-010,-1.11843685e-003
,,,-6.00000000e-010,-1.24312435e-003
,,,-5.75000000e-010,-1.37718685e-003
,,,-5.50000000e-010,-1.51874935e-003
,,,-5.25000000e-010,-1.66734310e-003
,,,-5.00000000e-010,-1.82156185e-003
,,,-4.75000000e-010,-1.97999936e-003
,,,-4.50000000e-010,-2.15203061e-003
,,,-4.25000000e-010,-2.32968686e-003
,,,-4.00000000e-010,-2.51109311e-003
,,,-3.75000000e-010,-2.69484311e-003
,,,-3.50000000e-010,-2.87953061e-003
,,,-3.25000000e-010,-3.06234312e-003
,,,-3.00000000e-010,-3.24281187e-003
,,,-2.75000000e-010,-3.41999937e-003
,,,-2.50000000e-010,-3.58546812e-003
,,,-2.25000000e-010,-3.74953062e-003
,,,-2.00000000e-010,-3.91312437e-003
,,,-1.75000000e-010,-4.07718687e-003
,,,-1.50000000e-010,-4.24218688e-003
,,,-1.25000000e-010,-4.40765563e-003
,,,-1.00000000e-010,-4.57406188e-003
,,,-7.50000000e-011,-4.73999938e-003
,,,-5.00000000e-011,-4.88015563e-003
,,,-2.50000000e-011,-5.02031188e-003
,,,0.00000000e+000,-5.16093688e-003
,,,2.50000000e-011,-5.30109313e-003
,,,5.00000000e-011,-5.43937439e-003
,,,7.50000000e-011,-5.57390564e-003
,,,1.00000000e-010,-5.70187439e-003
,,,1.25000000e-010,-5.81999939e-003
,,,1.50000000e-010,-5.88843689e-003
,,,1.75000000e-010,-5.94515564e-003
,,,2.00000000e-010,-5.99109314e-003
,,,2.25000000e-010,-6.02718689e-003
,,,2.50000000e-010,-6.05203064e-003
,,,2.75000000e-010,-6.06656189e-003
,,,3.00000000e-010,-6.06937439e-003
,,,3.25000000e-010,-6.05999939e-003
,,,3.50000000e-010,-5.99812439e-003
,,,3.75000000e-010,-5.92781189e-003
,,,4.00000000e-010,-5.85281189e-003
,,,4.25000000e-010,-5.77546814e-003
,,,4.50000000e-010,-5.69718689e-003
,,,4.75000000e-010,-5.61890564e-003
,,,5.00000000e-010,-5.54015564e-003
,,,5.25000000e-010,-5.45999939e-003
,,,5.50000000e-010,-5.34468689e-003
,,,5.75000000e-010,-5.22890563e-003
,,,6.00000000e-010,-5.11171813e-003
,,,6.25000000e-010,-4.99453063e-003
,,,6.50000000e-010,-4.87546813e-003
,,,6.75000000e-010,-4.75453063e-003
,,,7.00000000e-010,-4.62984313e-003
,,,7.25000000e-010,-4.49999938e-003
,,,7.50000000e-010,-4.34671813e-003
,,,7.75000000e-010,-4.18921813e-003
,,,8.00000000e-010,-4.03078062e-003
,,,8.25000000e-010,-3.87374937e-003
,,,8.50000000e-010,-3.71999937e-003
,,,8.75000000e-010,-3.57187437e-003
,,,9.00000000e-010,-3.43171812e-003
,,,9.25000000e-010,-3.29999937e-003
,,,9.50000000e-010,-3.17390562e-003
,,,9.75000000e-010,-3.05484312e-003
,,,1.00000000e-009,-2.94328061e-003
,,,1.02500000e-009,-2.83781186e-003
,,,1.05000000e-009,-2.73749936e-003
,,,1.07500000e-009,-2.64187436e-003
,,,1.10000000e-009,-2.54999936e-003
,,,1.12500000e-009,-2.45999936e-003
,,,1.15000000e-009,-2.37890561e-003
,,,1.17500000e-009,-2.29359311e-003
,,,1.20000000e-009,-2.20453061e-003
,,,1.22500000e-009,-2.11218686e-003
,,,1.25000000e-009,-2.01749936e-003
,,,1.27500000e-009,-1.92281186e-003
,,,1.30000000e-009,-1.82953060e-003
,,,1.32500000e-009,-1.73999935e-003
,,,1.35000000e-009,-1.67156185e-003
,,,1.37500000e-009,-1.60499935e-003
,,,1.40000000e-009,-1.53937435e-003
,,,1.42500000e-009,-1.47609310e-003
,,,1.45000000e-009,-1.41562435e-003
,,,1.47500000e-009,-1.35843685e-003
,,,1.50000000e-009,-1.30640560e-003
,,,1.52500000e-009,-1.25999935e-003
,,,1.55000000e-009,-1.23796810e-003
,,,1.57500000e-009,-1.21734310e-003
,,,1.60000000e-009,-1.19859310e-003
,,,1.62500000e-009,-1.18124935e-003
,,,1.65000000e-009,-1.16624935e-003
,,,1.67500000e-009,-1.15406185e-003
,,,1.70000000e-009,-1.14515560e-003
,,,1.72500000e-009,-1.13999935e-003
,,,1.75000000e-009,-1.15312435e-003
,,,1.77500000e-009,-1.16437435e-003
,,,1.80000000e-009,-1.17187435e-003
,,,1.82500000e-009,-1.17562435e-003
,,,1.85000000e-009,-1.17374935e-003
,,,1.87500000e-009,-1.16671810e-003
,,,1.90000000e-009,-1.15546810e-003
,,,1.92500000e-009,-1.13999935e-003
,,,1.95000000e-009,-1.13296810e-003
,,,1.97500000e-009,-1.12312435e-003
,,,2.00000000e-009,-1.11281185e-003
,,,2.02500000e-009,-1.10437435e-003
,,,2.05000000e-009,-1.10109310e-003
,,,2.07500000e-009,-1.10437435e-003
,,,2.10000000e-009,-1.11749935e-003
,,,2.12500000e-009,-1.13999935e-003
,,,2.15000000e-009,-1.17890560e-003
,,,2.17500000e-009,-1.22437435e-003
,,,2.20000000e-009,-1.27453060e-003
,,,2.22500000e-009,-1.32656185e-003
,,,2.25000000e-009,-1.37765560e-003
,,,2.27500000e-009,-1.42499935e-003
,,,2.30000000e-009,-1.46671810e-003
,,,2.32500000e-009,-1.49999935e-003
,,,2.35000000e-009,-1.52343685e-003
,,,2.37500000e-009,-1.53609310e-003
,,,2.40000000e-009,-1.53984310e-003
,,,2.42500000e-009,-1.53656185e-003
,,,2.45000000e-009,-1.52859310e-003
,,,2.47500000e-009,-1.51828060e-003
,,,2.50000000e-009,-1.50796810e-003
,,,2.52500000e-009,-1.49999935e-003
,,,2.55000000e-009,-1.49203060e-003
,,,2.57500000e-009,-1.48734310e-003
,,,2.60000000e-009,-1.48640560e-003
,,,2.62500000e-009,-1.48874935e-003
,,,2.65000000e-009,-1.49249935e-003
,,,2.67500000e-009,-1.49671810e-003
,,,2.70000000e-009,-1.49999935e-003
,,,2.72500000e-009,-1.49999935e-003
,,,2.75000000e-009,-1.49109310e-003
,,,2.77500000e-009,-1.47796810e-003
,,,2.80000000e-009,-1.46203060e-003
,,,2.82500000e-009,-1.44421810e-003
,,,2.85000000e-009,-1.42593685e-003
,,,2.87500000e-009,-1.40859310e-003
,,,2.90000000e-009,-1.39312435e-003
,,,2.92500000e-009,-1.37999935e-003
,,,2.95000000e-009,-1.36453060e-003
,,,2.97500000e-009,-1.35093685e-003
,,,3.00000000e-009,-1.33874935e-003
,,,3.02500000e-009,-1.32703060e-003
,,,3.05000000e-009,-1.31390560e-003
,,,3.07500000e-009,-1.29937435e-003
,,,3.10000000e-009,-1.28156185e-003
,,,3.12500000e-009,-1.25999935e-003
,,,3.15000000e-009,-1.22953060e-003
,,,3.17500000e-009,-1.19531185e-003
,,,3.20000000e-009,-1.15968685e-003
,,,3.22500000e-009,-1.12406185e-003
,,,3.25000000e-009,-1.09078060e-003
,,,3.27500000e-009,-1.06171810e-003
,,,3.30000000e-009,-1.03781185e-003
,,,3.32500000e-009,-1.01999935e-003
,,,3.35000000e-009,-1.00640560e-003
,,,3.37500000e-009,-9.96561847e-004
,,,3.40000000e-009,-9.88124347e-004
,,,3.42500000e-009,-9.79218097e-004
,,,3.45000000e-009,-9.67968097e-004
,,,3.47500000e-009,-9.52030597e-004
,,,3.50000000e-009,-9.29530597e-004
,,,3.52500000e-009,-8.99999347e-004
,,,3.55000000e-009,-8.62968096e-004
,,,3.57500000e-009,-8.18905596e-004
,,,3.60000000e-009,-7.69218095e-004
,,,3.62500000e-009,-7.17186845e-004
,,,3.65000000e-009,-6.65624345e-004
,,,3.67500000e-009,-6.17343094e-004
,,,3.70000000e-009,-5.75155594e-004
,,,3.72500000e-009,-5.39999343e-004
,,,3.75000000e-009,-5.17499343e-004
,,,3.77500000e-009,-5.01561843e-004
,,,3.80000000e-009,-4.90311843e-004
,,,3.82500000e-009,-4.81405593e-004
,,,3.85000000e-009,-4.72030593e-004
,,,3.87500000e-009,-4.60311843e-004
,,,3.90000000e-009,-4.43436843e-004
,,,3.92500000e-009,-4.19999342e-004
,,,3.95000000e-009,-3.95155592e-004
,,,3.97500000e-009,-3.63749342e-004
,,,4.00000000e-009,-3.27655592e-004
,,,4.02500000e-009,-2.89686841e-004
,,,4.05000000e-009,-2.53124341e-004
,,,4.07500000e-009,-2.20780591e-004
,,,4.10000000e-009,-1.95936840e-004
,,,4.12500000e-009,-1.79999340e-004
,,,4.15000000e-009,-1.80468090e-004
,,,4.17500000e-009,-1.89374340e-004
,,,4.20000000e-009,-2.05311841e-004
,,,4.22500000e-009,-2.25468091e-004
,,,4.25000000e-009,-2.47968091e-004
,,,4.27500000e-009,-2.69061841e-004
,,,4.30000000e-009,-2.87343091e-004
,,,4.32500000e-009,-2.99999341e-004
,,,4.35000000e-009,-3.09843091e-004
,,,4.37500000e-009,-3.13124341e-004
,,,4.40000000e-009,-3.10311841e-004
,,,4.42500000e-009,-3.04218091e-004
,,,4.45000000e-009,-2.97655591e-004
,,,4.47500000e-009,-2.92968091e-004
,,,4.50000000e-009,-2.93436841e-004
,,,4.52500000e-009,-2.99999341e-004
,,,4.55000000e-009,-3.17343092e-004
,,,4.57500000e-009,-3.41249342e-004
,,,4.60000000e-009,-3.71249342e-004
,,,4.62500000e-009,-4.05468092e-004
,,,4.65000000e-009,-4.41561843e-004
,,,4.67500000e-009,-4.77655593e-004
,,,4.70000000e-009,-5.11405593e-004
,,,4.72500000e-009,-5.39999343e-004
,,,4.75000000e-009,-5.62030594e-004
,,,4.77500000e-009,-5.76093094e-004
,,,4.80000000e-009,-5.82655594e-004
,,,4.82500000e-009,-5.82655594e-004
,,,4.85000000e-009,-5.77030594e-004
,,,4.87500000e-009,-5.67186844e-004
,,,4.90000000e-009,-5.54530594e-004
,,,4.92500000e-009,-5.39999343e-004
,,,4.95000000e-009,-5.24530593e-004
,,,4.97500000e-009,-5.09061843e-004
,,,5.00000000e-009,-4.94530593e-004
,,,5.02500000e-009,-4.79999343e-004
,,,5.05000000e-009,-4.65936843e-004
,,,5.07500000e-009,-4.51874343e-004
,,,5.10000000e-009,-4.36405593e-004
,,,5.12500000e-009,-4.19999342e-004
,,,5.15000000e-009,-4.00311842e-004
,,,5.17500000e-009,-3.80155592e-004
,,,5.20000000e-009,-3.60468092e-004
,,,5.22500000e-009,-3.42186842e-004
,,,5.25000000e-009,-3.26718092e-004
,,,5.27500000e-009,-3.14061841e-004
,,,5.30000000e-009,-3.05155591e-004
,,,5.32500000e-009,-2.99999341e-004
,,,5.35000000e-009,-2.98124341e-004
,,,5.37500000e-009,-2.98593091e-004
,,,5.40000000e-009,-3.00936841e-004
,,,5.42500000e-009,-3.03749341e-004
,,,5.45000000e-009,-3.06093091e-004
,,,5.47500000e-009,-3.06561841e-004
,,,5.50000000e-009,-3.04686841e-004
,,,5.52500000e-009,-2.99999341e-004
,,,5.55000000e-009,-2.92030591e-004
,,,5.57500000e-009,-2.82186841e-004
,,,5.60000000e-009,-2.73280591e-004
,,,5.62500000e-009,-2.66718091e-004
,,,5.65000000e-009,-2.65311841e-004
,,,5.67500000e-009,-2.69530591e-004
,,,5.70000000e-009,-2.81249341e-004
,,,5.72500000e-009,-2.99999341e-004
,,,5.75000000e-009,-3.24843092e-004
,,,5.77500000e-009,-3.52968092e-004
,,,5.80000000e-009,-3.81561842e-004
,,,5.82500000e-009,-4.07343092e-004
,,,5.85000000e-009,-4.26561842e-004
,,,5.87500000e-009,-4.36874343e-004
