RawData/SinglePhotoelectron/L5_2pt2A_5mV/wave029_Ch1.csv

"Record Length",1000,"Points",-7.72500000e-009,-6.23430893e-005
"Sample Interval",2.50000000e-011,s,-7.70000000e-009,-6.98430894e-005
"Trigger Point",309,"Samples",-7.67500000e-009,-8.24993395e-005
"Trigger Time",2.46956757e-011,s,-7.65000000e-009,-9.98430896e-005
"",,,-7.62500000e-009,-1.22811840e-004
"Horizontal Offset",-7.72500000e-009,s,-7.60000000e-009,-1.49530590e-004
,,,-7.57500000e-009,-1.79999340e-004
,,,-7.55000000e-009,-2.12343091e-004
,,,-7.52500000e-009,-2.45624341e-004
,,,-7.50000000e-009,-2.79374341e-004
,,,-7.47500000e-009,-3.12655591e-004
,,,-7.45000000e-009,-3.43593092e-004
,,,-7.42500000e-009,-3.72655592e-004
,,,-7.40000000e-009,-3.98436842e-004
,,,-7.37500000e-009,-4.19999342e-004
,,,-7.35000000e-009,-4.33593093e-004
,,,-7.32500000e-009,-4.42499343e-004
,,,-7.30000000e-009,-4.46718093e-004
,,,-7.27500000e-009,-4.47186843e-004
,,,-7.25000000e-009,-4.44374343e-004
,,,-7.22500000e-009,-4.38280593e-004
,,,-7.20000000e-009,-4.30311843e-004
,,,-7.17500000e-009,-4.19999342e-004
,,,-7.15000000e-009,-4.04530592e-004
,,,-7.12500000e-009,-3.88124342e-004
,,,-7.10000000e-009,-3.71718092e-004
,,,-7.07500000e-009,-3.55780592e-004
,,,-7.05000000e-009,-3.40780592e-004
,,,-7.02500000e-009,-3.26718092e-004
,,,-7.00000000e-009,-3.13124341e-004
,,,-6.97500000e-009,-2.99999341e-004
,,,-6.95000000e-009,-2.84530591e-004
,,,-6.92500000e-009,-2.69061841e-004
,,,-6.90000000e-009,-2.53593091e-004
,,,-6.87500000e-009,-2.38593091e-004
,,,-6.85000000e-009,-2.23593091e-004
,,,-6.82500000e-009,-2.09061841e-004
,,,-6.80000000e-009,-1.94530590e-004
,,,-6.77500000e-009,-1.79999340e-004
,,,-6.75000000e-009,-1.63124340e-004
,,,-6.72500000e-009,-1.46249340e-004
,,,-6.70000000e-009,-1.29843090e-004
,,,-6.67500000e-009,-1.13905590e-004
,,,-6.65000000e-009,-9.93743396e-005
,,,-6.62500000e-009,-8.53118395e-005
,,,-6.60000000e-009,-7.21868394e-005
,,,-6.57500000e-009,-5.99993393e-005
,,,-6.55000000e-009,-4.68743392e-005
,,,-6.52500000e-009,-3.32805891e-005
,,,-6.50000000e-009,-1.96868389e-005
,,,-6.47500000e-009,-5.62433881e-006
,,,-6.45000000e-009,9.84441132e-006
,,,-6.42500000e-009,2.53131615e-005
,,,-6.40000000e-009,4.21881616e-005
,,,-6.37500000e-009,6.00006618e-005
,,,-6.35000000e-009,7.68756619e-005
,,,-6.32500000e-009,9.46881621e-005
,,,-6.30000000e-009,1.12500662e-004
,,,-6.27500000e-009,1.29844412e-004
,,,-6.25000000e-009,1.46250663e-004
,,,-6.22500000e-009,1.59844413e-004
,,,-6.20000000e-009,1.71563163e-004
,,,-6.17500000e-009,1.80000663e-004
,,,-6.15000000e-009,1.83281913e-004
,,,-6.12500000e-009,1.84688163e-004
,,,-6.10000000e-009,1.84219413e-004
,,,-6.07500000e-009,1.82813163e-004
,,,-6.05000000e-009,1.80938163e-004
,,,-6.02500000e-009,1.79531913e-004
,,,-6.00000000e-009,1.78594413e-004
,,,-5.97500000e-009,1.80000663e-004
,,,-5.95000000e-009,1.81406913e-004
,,,-5.92500000e-009,1.86563163e-004
,,,-5.90000000e-009,1.95938163e-004
,,,-5.87500000e-009,2.09531913e-004
,,,-5.85000000e-009,2.27344413e-004
,,,-5.82500000e-009,2.48438163e-004
,,,-5.80000000e-009,2.73281914e-004
,,,-5.77500000e-009,3.00000664e-004
,,,-5.75000000e-009,3.25313164e-004
,,,-5.72500000e-009,3.50156914e-004
,,,-5.70000000e-009,3.73594414e-004
,,,-5.67500000e-009,3.93281915e-004
,,,-5.65000000e-009,4.09219415e-004
,,,-5.62500000e-009,4.19063165e-004
,,,-5.60000000e-009,4.22813165e-004
,,,-5.57500000e-009,4.20000665e-004
,,,-5.55000000e-009,4.08281915e-004
,,,-5.52500000e-009,3.92813165e-004
,,,-5.50000000e-009,3.74531914e-004
,,,-5.47500000e-009,3.54844414e-004
,,,-5.45000000e-009,3.36563164e-004
,,,-5.42500000e-009,3.20156914e-004
,,,-5.40000000e-009,3.07969414e-004
,,,-5.37500000e-009,3.00000664e-004
,,,-5.35000000e-009,2.95313164e-004
,,,-5.32500000e-009,2.94844414e-004
,,,-5.30000000e-009,2.98125664e-004
,,,-5.27500000e-009,3.02344414e-004
,,,-5.25000000e-009,3.06094414e-004
,,,-5.22500000e-009,3.07969414e-004
,,,-5.20000000e-009,3.06094414e-004
,,,-5.17500000e-009,3.00000664e-004
,,,-5.15000000e-009,2.87813164e-004
,,,-5.12500000e-009,2.71875664e-004
,,,-5.10000000e-009,2.53125663e-004
,,,-5.07500000e-009,2.32969413e-004
,,,-5.05000000e-009,2.13750663e-004
,,,-5.02500000e-009,1.97344413e-004
,,,-5.00000000e-009,1.85625663e-004
,,,-4.97500000e-009,1.80000663e-004
,,,-4.95000000e-009,1.80938163e-004
,,,-4.92500000e-009,1.88906913e-004
,,,-4.90000000e-009,2.02969413e-004
,,,-4.87500000e-009,2.20781913e-004
,,,-4.85000000e-009,2.41406913e-004
,,,-4.82500000e-009,2.62500664e-004
,,,-4.80000000e-009,2.82656914e-004
,,,-4.77500000e-009,3.00000664e-004
,,,-4.75000000e-009,3.12188164e-004
,,,-4.72500000e-009,3.19688164e-004
,,,-4.70000000e-009,3.22500664e-004
,,,-4.67500000e-009,3.21094414e-004
,,,-4.65000000e-009,3.17344414e-004
,,,-4.62500000e-009,3.11719414e-004
,,,-4.60000000e-009,3.05156914e-004
,,,-4.57500000e-009,3.00000664e-004
,,,-4.55000000e-009,2.94844414e-004
,,,-4.52500000e-009,2.91563164e-004
,,,-4.50000000e-009,2.90156914e-004
,,,-4.47500000e-009,2.90625664e-004
,,,-4.45000000e-009,2.92031914e-004
,,,-4.42500000e-009,2.94375664e-004
,,,-4.40000000e-009,2.97188164e-004
,,,-4.37500000e-009,3.00000664e-004
,,,-4.35000000e-009,3.00938164e-004
,,,-4.32500000e-009,3.00938164e-004
,,,-4.30000000e-009,3.00469414e-004
,,,-4.27500000e-009,2.99531914e-004
,,,-4.25000000e-009,2.99063164e-004
,,,-4.22500000e-009,2.98594414e-004
,,,-4.20000000e-009,2.98594414e-004
,,,-4.17500000e-009,3.00000664e-004
,,,-4.15000000e-009,3.00000664e-004
,,,-4.12500000e-009,3.00938164e-004
,,,-4.10000000e-009,3.01875664e-004
,,,-4.07500000e-009,3.02813164e-004
,,,-4.05000000e-009,3.03750664e-004
,,,-4.02500000e-009,3.03750664e-004
,,,-4.00000000e-009,3.02344414e-004
,,,-3.97500000e-009,3.00000664e-004
,,,-3.95000000e-009,2.92500664e-004
,,,-3.92500000e-009,2.83125664e-004
,,,-3.90000000e-009,2.70938164e-004
,,,-3.87500000e-009,2.56406913e-004
,,,-3.85000000e-009,2.40000663e-004
,,,-3.82500000e-009,2.21250663e-004
,,,-3.80000000e-009,2.01094413e-004
,,,-3.77500000e-009,1.80000663e-004
,,,-3.75000000e-009,1.58438163e-004
,,,-3.72500000e-009,1.37344412e-004
,,,-3.70000000e-009,1.17656912e-004
,,,-3.67500000e-009,1.00313162e-004
,,,-3.65000000e-009,8.53131620e-005
,,,-3.62500000e-009,7.35944119e-005
,,,-3.60000000e-009,6.51569118e-005
,,,-3.57500000e-009,6.00006618e-005
,,,-3.55000000e-009,5.81256617e-005
,,,-3.52500000e-009,5.85944117e-005
,,,-3.50000000e-009,6.00006618e-005
,,,-3.47500000e-009,6.23444118e-005
,,,-3.45000000e-009,6.42194118e-005
,,,-3.42500000e-009,6.51569118e-005
,,,-3.40000000e-009,6.37506618e-005
,,,-3.37500000e-009,6.00006618e-005
,,,-3.35000000e-009,5.39069117e-005
,,,-3.32500000e-009,4.45319116e-005
,,,-3.30000000e-009,3.18756615e-005
,,,-3.27500000e-009,1.64069114e-005
,,,-3.25000000e-009,-1.87433878e-006
,,,-3.22500000e-009,-2.10930889e-005
,,,-3.20000000e-009,-4.12493391e-005
,,,-3.17500000e-009,-5.99993393e-005
,,,-3.15000000e-009,-7.59368394e-005
,,,-3.12500000e-009,-8.85930895e-005
,,,-3.10000000e-009,-9.74993396e-005
,,,-3.07500000e-009,-1.01249340e-004
,,,-3.05000000e-009,-9.93743396e-005
,,,-3.02500000e-009,-9.18743396e-005
,,,-3.00000000e-009,-7.87493394e-005
,,,-2.97500000e-009,-5.99993393e-005
,,,-2.95000000e-009,-3.70305891e-005
,,,-2.92500000e-009,-1.21868389e-005
,,,-2.90000000e-009,1.17194113e-005
,,,-2.87500000e-009,3.32819115e-005
,,,-2.85000000e-009,4.96881617e-005
,,,-2.82500000e-009,6.04694118e-005
,,,-2.80000000e-009,6.37506618e-005
,,,-2.77500000e-009,6.00006618e-005
,,,-2.75000000e-009,4.78131617e-005
,,,-2.72500000e-009,2.95319115e-005
,,,-2.70000000e-009,8.43816131e-006
,,,-2.67500000e-009,-1.40618389e-005
,,,-2.65000000e-009,-3.42180891e-005
,,,-2.62500000e-009,-5.01555892e-005
,,,-2.60000000e-009,-5.90618393e-005
,,,-2.57500000e-009,-5.99993393e-005
,,,-2.55000000e-009,-5.24993392e-005
,,,-2.52500000e-009,-3.79680891e-005
,,,-2.50000000e-009,-1.82805889e-005
,,,-2.47500000e-009,3.75066127e-006
,,,-2.45000000e-009,2.53131615e-005
,,,-2.42500000e-009,4.31256616e-005
,,,-2.40000000e-009,5.53131617e-005
,,,-2.37500000e-009,6.00006618e-005
,,,-2.35000000e-009,5.57819117e-005
,,,-2.32500000e-009,4.45319116e-005
,,,-2.30000000e-009,2.71881615e-005
,,,-2.27500000e-009,6.56316130e-006
,,,-2.25000000e-009,-1.54680889e-005
,,,-2.22500000e-009,-3.51555891e-005
,,,-2.20000000e-009,-5.06243392e-005
,,,-2.17500000e-009,-5.99993393e-005
,,,-2.15000000e-009,-6.42180893e-005
,,,-2.12500000e-009,-6.23430893e-005
,,,-2.10000000e-009,-5.67180893e-005
,,,-2.07500000e-009,-4.96868392e-005
,,,-2.05000000e-009,-4.40618391e-005
,,,-2.02500000e-009,-4.26555891e-005
,,,-2.00000000e-009,-4.73430892e-005
,,,-1.97500000e-009,-5.99993393e-005
,,,-1.95000000e-009,-8.39055895e-005
,,,-1.92500000e-009,-1.14843090e-004
,,,-1.90000000e-009,-1.51874340e-004
,,,-1.87500000e-009,-1.90780590e-004
,,,-1.85000000e-009,-2.28749341e-004
,,,-1.82500000e-009,-2.61561841e-004
,,,-1.80000000e-009,-2.86405591e-004
,,,-1.77500000e-009,-2.99999341e-004
,,,-1.75000000e-009,-3.03280591e-004
,,,-1.72500000e-009,-2.94374341e-004
,,,-1.70000000e-009,-2.73749341e-004
,,,-1.67500000e-009,-2.42811841e-004
,,,-1.65000000e-009,-2.02968091e-004
,,,-1.62500000e-009,-1.57968090e-004
,,,-1.60000000e-009,-1.09218090e-004
,,,-1.57500000e-009,-5.99993393e-005
,,,-1.55000000e-009,-2.29680890e-005
,,,-1.52500000e-009,7.50066130e-006
,,,-1.50000000e-009,3.14069115e-005
,,,-1.47500000e-009,4.78131617e-005
,,,-1.45000000e-009,5.81256617e-005
,,,-1.42500000e-009,6.28131618e-005
,,,-1.40000000e-009,6.32819118e-005
,,,-1.37500000e-009,6.00006618e-005
,,,-1.35000000e-009,3.70319116e-005
,,,-1.32500000e-009,8.90691132e-006
,,,-1.30000000e-009,-2.24993390e-005
,,,-1.27500000e-009,-5.57805892e-005
,,,-1.25000000e-009,-8.90618395e-005
,,,-1.22500000e-009,-1.21405590e-004
,,,-1.20000000e-009,-1.51874340e-004
,,,-1.17500000e-009,-1.79999340e-004
,,,-1.15000000e-009,-2.27811841e-004
,,,-1.12500000e-009,-2.76561841e-004
,,,-1.10000000e-009,-3.26249342e-004
,,,-1.07500000e-009,-3.74530592e-004
,,,-1.05000000e-009,-4.20936842e-004
,,,-1.02500000e-009,-4.64061843e-004
,,,-1.00000000e-009,-5.03436843e-004
,,,-9.75000000e-010,-5.39999343e-004
,,,-9.50000000e-010,-5.95311844e-004
,,,-9.25000000e-010,-6.53436844e-004
,,,-9.00000000e-010,-7.12968095e-004
,,,-8.75000000e-010,-7.73436845e-004
,,,-8.50000000e-010,-8.34843096e-004
,,,-8.25000000e-010,-8.96249347e-004
,,,-8.00000000e-010,-9.57655597e-004
,,,-7.75000000e-010,-1.01999935e-003
,,,-7.50000000e-010,-1.10437435e-003
,,,-7.25000000e-010,-1.19484310e-003
,,,-7.00000000e-010,-1.29234310e-003
,,,-6.75000000e-010,-1.39593685e-003
,,,-6.50000000e-010,-1.50421810e-003
,,,-6.25000000e-010,-1.61812435e-003
,,,-6.00000000e-010,-1.73624935e-003
,,,-5.75000000e-010,-1.85999935e-003
,,,-5.50000000e-010,-1.99734311e-003
,,,-5.25000000e-010,-2.14359311e-003
,,,-5.00000000e-010,-2.29921811e-003
,,,-4.75000000e-010,-2.46328061e-003
,,,-4.50000000e-010,-2.63484311e-003
,,,-4.25000000e-010,-2.81249936e-003
,,,-4.00000000e-010,-2.99484311e-003
,,,-3.75000000e-010,-3.17999937e-003
,,,-3.50000000e-010,-3.35718687e-003
,,,-3.25000000e-010,-3.53531187e-003
,,,-3.00000000e-010,-3.71203062e-003
,,,-2.75000000e-010,-3.88546812e-003
,,,-2.50000000e-010,-4.05328062e-003
,,,-2.25000000e-010,-4.21265563e-003
,,,-2.00000000e-010,-4.36218688e-003
,,,-1.75000000e-010,-4.49999938e-003
,,,-1.50000000e-010,-4.60265563e-003
,,,-1.25000000e-010,-4.69640563e-003
,,,-1.00000000e-010,-4.78453063e-003
,,,-7.50000000e-011,-4.87031188e-003
,,,-5.00000000e-011,-4.95562438e-003
,,,-2.50000000e-011,-5.04234313e-003
,,,0.00000000e+000,-5.13046813e-003
,,,2.50000000e-011,-5.21999938e-003
,,,5.00000000e-011,-5.27624938e-003
,,,7.50000000e-011,-5.33249939e-003
,,,1.00000000e-010,-5.38921814e-003
,,,1.25000000e-010,-5.44359314e-003
,,,1.50000000e-010,-5.49328064e-003
,,,1.75000000e-010,-5.53499939e-003
,,,2.00000000e-010,-5.56499939e-003
,,,2.25000000e-010,-5.57999939e-003
,,,2.50000000e-010,-5.54015564e-003
,,,2.75000000e-010,-5.48484314e-003
,,,3.00000000e-010,-5.41640564e-003
,,,3.25000000e-010,-5.33859314e-003
,,,3.50000000e-010,-5.25374938e-003
,,,3.75000000e-010,-5.16468688e-003
,,,4.00000000e-010,-5.07281188e-003
,,,4.25000000e-010,-4.97999938e-003
,,,4.50000000e-010,-4.85765563e-003
,,,4.75000000e-010,-4.73859313e-003
,,,5.00000000e-010,-4.62562438e-003
,,,5.25000000e-010,-4.51874938e-003
,,,5.50000000e-010,-4.41796813e-003
,,,5.75000000e-010,-4.32281188e-003
,,,6.00000000e-010,-4.23093688e-003
,,,6.25000000e-010,-4.13999937e-003
,,,6.50000000e-010,-4.02937437e-003
,,,6.75000000e-010,-3.91593687e-003
,,,7.00000000e-010,-3.79968687e-003
,,,7.25000000e-010,-3.68062437e-003
,,,7.50000000e-010,-3.55874937e-003
,,,7.75000000e-010,-3.43499937e-003
,,,8.00000000e-010,-3.30843687e-003
,,,8.25000000e-010,-3.17999937e-003
,,,8.50000000e-010,-3.04406187e-003
,,,8.75000000e-010,-2.90531186e-003
,,,9.00000000e-010,-2.76468686e-003
,,,9.25000000e-010,-2.62453061e-003
,,,9.50000000e-010,-2.48671811e-003
,,,9.75000000e-010,-2.35218686e-003
,,,1.00000000e-009,-2.22281186e-003
,,,1.02500000e-009,-2.09999936e-003
,,,1.05000000e-009,-1.99171811e-003
,,,1.07500000e-009,-1.88765561e-003
,,,1.10000000e-009,-1.78874935e-003
,,,1.12500000e-009,-1.69453060e-003
,,,1.15000000e-009,-1.60640560e-003
,,,1.17500000e-009,-1.52437435e-003
,,,1.20000000e-009,-1.44890560e-003
,,,1.22500000e-009,-1.37999935e-003
,,,1.25000000e-009,-1.33171810e-003
,,,1.27500000e-009,-1.28484310e-003
,,,1.30000000e-009,-1.23843685e-003
,,,1.32500000e-009,-1.19203060e-003
,,,1.35000000e-009,-1.14656185e-003
,,,1.37500000e-009,-1.10203060e-003
,,,1.40000000e-009,-1.05984310e-003
,,,1.42500000e-009,-1.01999935e-003
,,,1.45000000e-009,-9.98436847e-004
,,,1.47500000e-009,-9.74061847e-004
,,,1.50000000e-009,-9.47343097e-004
,,,1.52500000e-009,-9.17343097e-004
,,,1.55000000e-009,-8.84999346e-004
,,,1.57500000e-009,-8.50311846e-004
,,,1.60000000e-009,-8.15155596e-004
,,,1.62500000e-009,-7.79999346e-004
,,,1.65000000e-009,-7.61249345e-004
,,,1.67500000e-009,-7.41093095e-004
,,,1.70000000e-009,-7.20936845e-004
,,,1.72500000e-009,-7.01249345e-004
,,,1.75000000e-009,-6.84374345e-004
,,,1.77500000e-009,-6.70780595e-004
,,,1.80000000e-009,-6.62811845e-004
,,,1.82500000e-009,-6.59999344e-004
,,,1.85000000e-009,-6.74061845e-004
,,,1.87500000e-009,-6.90468095e-004
,,,1.90000000e-009,-7.07811845e-004
,,,1.92500000e-009,-7.25624345e-004
,,,1.95000000e-009,-7.42030595e-004
,,,1.97500000e-009,-7.57499345e-004
,,,2.00000000e-009,-7.70155595e-004
,,,2.02500000e-009,-7.79999346e-004
,,,2.05000000e-009,-7.92186846e-004
,,,2.07500000e-009,-7.99686846e-004
,,,2.10000000e-009,-8.02030596e-004
,,,2.12500000e-009,-8.00624346e-004
,,,2.15000000e-009,-7.96405596e-004
,,,2.17500000e-009,-7.90780596e-004
,,,2.20000000e-009,-7.84686846e-004
,,,2.22500000e-009,-7.79999346e-004
,,,2.25000000e-009,-7.80468096e-004
,,,2.27500000e-009,-7.83749346e-004
,,,2.30000000e-009,-7.91249346e-004
,,,2.32500000e-009,-8.03905596e-004
,,,2.35000000e-009,-8.21249346e-004
,,,2.37500000e-009,-8.43280596e-004
,,,2.40000000e-009,-8.69999346e-004
,,,2.42500000e-009,-8.99999347e-004
,,,2.45000000e-009,-9.31874347e-004
,,,2.47500000e-009,-9.62343097e-004
,,,2.50000000e-009,-9.89999347e-004
,,,2.52500000e-009,-1.01249935e-003
,,,2.55000000e-009,-1.02796810e-003
,,,2.57500000e-009,-1.03499935e-003
,,,2.60000000e-009,-1.03218685e-003
,,,2.62500000e-009,-1.01999935e-003
,,,2.65000000e-009,-9.96561847e-004
,,,2.67500000e-009,-9.66093097e-004
,,,2.70000000e-009,-9.30468097e-004
,,,2.72500000e-009,-8.93436847e-004
,,,2.75000000e-009,-8.57343096e-004
,,,2.77500000e-009,-8.25468096e-004
,,,2.80000000e-009,-7.99218096e-004
,,,2.82500000e-009,-7.79999346e-004
,,,2.85000000e-009,-7.68280595e-004
,,,2.87500000e-009,-7.64061845e-004
,,,2.90000000e-009,-7.65468095e-004
,,,2.92500000e-009,-7.71093095e-004
,,,2.95000000e-009,-7.77655596e-004
,,,2.97500000e-009,-7.82811846e-004
,,,3.00000000e-009,-7.84218096e-004
,,,3.02500000e-009,-7.79999346e-004
,,,3.05000000e-009,-7.68749345e-004
,,,3.07500000e-009,-7.51874345e-004
,,,3.10000000e-009,-7.31718095e-004
,,,3.12500000e-009,-7.09686845e-004
,,,3.15000000e-009,-6.89061845e-004
,,,3.17500000e-009,-6.72655595e-004
,,,3.20000000e-009,-6.62343095e-004
,,,3.22500000e-009,-6.59999344e-004
,,,3.25000000e-009,-6.65624345e-004
,,,3.27500000e-009,-6.78280595e-004
,,,3.30000000e-009,-6.96561845e-004
,,,3.32500000e-009,-7.18124345e-004
,,,3.35000000e-009,-7.39686845e-004
,,,3.37500000e-009,-7.58905595e-004
,,,3.40000000e-009,-7.72968095e-004
,,,3.42500000e-009,-7.79999346e-004
,,,3.45000000e-009,-7.77655596e-004
,,,3.47500000e-009,-7.67343095e-004
,,,3.50000000e-009,-7.50468095e-004
,,,3.52500000e-009,-7.29374345e-004
,,,3.55000000e-009,-7.07343095e-004
,,,3.57500000e-009,-6.87186845e-004
,,,3.60000000e-009,-6.70780595e-004
,,,3.62500000e-009,-6.59999344e-004
,,,3.65000000e-009,-6.54843094e-004
,,,3.67500000e-009,-6.54374344e-004
,,,3.70000000e-009,-6.57655594e-004
,,,3.72500000e-009,-6.63280595e-004
,,,3.75000000e-009,-6.68436845e-004
,,,3.77500000e-009,-6.70780595e-004
,,,3.80000000e-009,-6.68905595e-004
,,,3.82500000e-009,-6.59999344e-004
,,,3.85000000e-009,-6.41718094e-004
,,,3.87500000e-009,-6.15468094e-004
,,,3.90000000e-009,-5.83593094e-004
,,,3.92500000e-009,-5.47968094e-004
,,,3.95000000e-009,-5.10936843e-004
,,,3.97500000e-009,-4.75780593e-004
,,,4.00000000e-009,-4.44843093e-004
,,,4.02500000e-009,-4.19999342e-004
,,,4.05000000e-009,-4.02186842e-004
,,,4.07500000e-009,-3.91405592e-004
,,,4.10000000e-009,-3.87655592e-004
,,,4.12500000e-009,-3.89530592e-004
,,,4.15000000e-009,-3.95624342e-004
,,,4.17500000e-009,-4.04061842e-004
,,,4.20000000e-009,-4.12968092e-004
,,,4.22500000e-009,-4.19999342e-004
,,,4.25000000e-009,-4.23280592e-004
,,,4.27500000e-009,-4.21405592e-004
,,,4.30000000e-009,-4.13436842e-004
,,,4.32500000e-009,-4.00311842e-004
,,,4.35000000e-009,-3.81093092e-004
,,,4.37500000e-009,-3.57655592e-004
,,,4.40000000e-009,-3.30468092e-004
,,,4.42500000e-009,-2.99999341e-004
,,,4.45000000e-009,-2.69530591e-004
,,,4.47500000e-009,-2.38124341e-004
,,,4.50000000e-009,-2.06249341e-004
,,,4.52500000e-009,-1.74843090e-004
,,,4.55000000e-009,-1.43905590e-004
,,,4.57500000e-009,-1.14374340e-004
,,,4.60000000e-009,-8.62493395e-005
,,,4.62500000e-009,-5.99993393e-005
,,,4.65000000e-009,-3.93743391e-005
,,,4.67500000e-009,-2.06243389e-005
,,,4.70000000e-009,-3.28058879e-006
,,,4.72500000e-009,1.26569113e-005
,,,4.75000000e-009,2.67194115e-005
,,,4.77500000e-009,3.93756616e-005
,,,4.80000000e-009,5.01569117e-005
,,,4.82500000e-009,6.00006618e-005
,,,4.85000000e-009,6.37506618e-005
,,,4.87500000e-009,6.65631618e-005
,,,4.90000000e-009,6.84381618e-005
,,,4.92500000e-009,6.93756618e-005
,,,4.95000000e-009,6.93756618e-005
,,,4.97500000e-009,6.79694118e-005
,,,5.00000000e-009,6.46881618e-005
,,,5.02500000e-009,6.00006618e-005
,,,5.05000000e-009,4.96881617e-005
,,,5.07500000e-009,3.79694116e-005
,,,5.10000000e-009,2.48444115e-005
,,,5.12500000e-009,9.84441132e-006
,,,5.15000000e-009,-6.09308881e-006
,,,5.17500000e-009,-2.34368390e-005
,,,5.20000000e-009,-4.12493391e-005
,,,5.22500000e-009,-5.99993393e-005
,,,5.25000000e-009,-8.10930895e-005
,,,5.27500000e-009,-1.00780590e-004
,,,5.30000000e-009,-1.19530590e-004
,,,5.32500000e-009,-1.35936840e-004
,,,5.35000000e-009,-1.50468090e-004
,,,5.37500000e-009,-1.63124340e-004
,,,5.40000000e-009,-1.72968090e-004
,,,5.42500000e-009,-1.79999340e-004
,,,5.45000000e-009,-1.85624340e-004
,,,5.47500000e-009,-1.88905590e-004
,,,5.50000000e-009,-1.89843090e-004
,,,5.52500000e-009,-1.89374340e-004
,,,5.55000000e-009,-1.87499340e-004
,,,5.57500000e-009,-1.85155590e-004
,,,5.60000000e-009,-1.82811840e-004
,,,5.62500000e-009,-1.79999340e-004
,,,5.65000000e-009,-1.77186840e-004
,,,5.67500000e-009,-1.74843090e-004
,,,5.70000000e-009,-1.73905590e-004
,,,5.72500000e-009,-1.73436840e-004
,,,5.75000000e-009,-1.74374340e-004
,,,5.77500000e-009,-1.75780590e-004
,,,5.80000000e-009,-1.77655590e-004
,,,5.82500000e-009,-1.79999340e-004
,,,5.85000000e-009,-1.81405590e-004
,,,5.87500000e-009,-1.82343090e-004
,,,5.90000000e-009,-1.82811840e-004
,,,5.92500000e-009,-1.83280590e-004
