RawData/SinglePhotoelectron/L5_2pt2A_5mV/wave002_Ch1.csv

"Record Length",1000,"Points",-7.72500000e-009,3.00000664e-004
"Sample Interval",2.50000000e-011,s,-7.70000000e-009,3.09375664e-004
"Trigger Point",309,"Samples",-7.67500000e-009,3.06094414e-004
"Trigger Time",2.42627184e-011,s,-7.65000000e-009,2.91563164e-004
"",,,-7.62500000e-009,2.69063164e-004
"Horizontal Offset",-7.72500000e-009,s,-7.60000000e-009,2.42344413e-004
,,,-7.57500000e-009,2.16094413e-004
,,,-7.55000000e-009,1.94063163e-004
,,,-7.52500000e-009,1.80000663e-004
,,,-7.50000000e-009,1.73438163e-004
,,,-7.47500000e-009,1.76719413e-004
,,,-7.45000000e-009,1.89844413e-004
,,,-7.42500000e-009,2.09531913e-004
,,,-7.40000000e-009,2.33438163e-004
,,,-7.37500000e-009,2.58750663e-004
,,,-7.35000000e-009,2.81719414e-004
,,,-7.32500000e-009,3.00000664e-004
,,,-7.30000000e-009,3.06563164e-004
,,,-7.27500000e-009,3.04688164e-004
,,,-7.25000000e-009,2.94844414e-004
,,,-7.22500000e-009,2.77969414e-004
,,,-7.20000000e-009,2.55938163e-004
,,,-7.17500000e-009,2.31094413e-004
,,,-7.15000000e-009,2.04844413e-004
,,,-7.12500000e-009,1.80000663e-004
,,,-7.10000000e-009,1.55156913e-004
,,,-7.07500000e-009,1.34063162e-004
,,,-7.05000000e-009,1.16250662e-004
,,,-7.02500000e-009,1.01250662e-004
,,,-7.00000000e-009,8.90631620e-005
,,,-6.97500000e-009,7.87506619e-005
,,,-6.95000000e-009,6.93756618e-005
,,,-6.92500000e-009,6.00006618e-005
,,,-6.90000000e-009,4.78131617e-005
,,,-6.87500000e-009,3.46881615e-005
,,,-6.85000000e-009,2.01569114e-005
,,,-6.82500000e-009,4.21941128e-006
,,,-6.80000000e-009,-1.17180889e-005
,,,-6.77500000e-009,-2.85930890e-005
,,,-6.75000000e-009,-4.45305891e-005
,,,-6.72500000e-009,-5.99993393e-005
,,,-6.70000000e-009,-7.40618394e-005
,,,-6.67500000e-009,-8.81243395e-005
,,,-6.65000000e-009,-1.01718090e-004
,,,-6.62500000e-009,-1.15780590e-004
,,,-6.60000000e-009,-1.30311840e-004
,,,-6.57500000e-009,-1.45780590e-004
,,,-6.55000000e-009,-1.62655590e-004
,,,-6.52500000e-009,-1.79999340e-004
,,,-6.50000000e-009,-1.97343090e-004
,,,-6.47500000e-009,-2.15155591e-004
,,,-6.45000000e-009,-2.32968091e-004
,,,-6.42500000e-009,-2.50311841e-004
,,,-6.40000000e-009,-2.66249341e-004
,,,-6.37500000e-009,-2.80311841e-004
,,,-6.35000000e-009,-2.91561841e-004
,,,-6.32500000e-009,-2.99999341e-004
,,,-6.30000000e-009,-3.02343091e-004
,,,-6.27500000e-009,-3.01874341e-004
,,,-6.25000000e-009,-3.00468091e-004
,,,-6.22500000e-009,-2.98593091e-004
,,,-6.20000000e-009,-2.97186841e-004
,,,-6.17500000e-009,-2.96718091e-004
,,,-6.15000000e-009,-2.97655591e-004
,,,-6.12500000e-009,-2.99999341e-004
,,,-6.10000000e-009,-3.01874341e-004
,,,-6.07500000e-009,-3.05155591e-004
,,,-6.05000000e-009,-3.08905591e-004
,,,-6.02500000e-009,-3.12655591e-004
,,,-6.00000000e-009,-3.14061841e-004
,,,-5.97500000e-009,-3.13124341e-004
,,,-5.95000000e-009,-3.08905591e-004
,,,-5.92500000e-009,-2.99999341e-004
,,,-5.90000000e-009,-2.85936841e-004
,,,-5.87500000e-009,-2.68593091e-004
,,,-5.85000000e-009,-2.49843091e-004
,,,-5.82500000e-009,-2.31093091e-004
,,,-5.80000000e-009,-2.13280591e-004
,,,-5.77500000e-009,-1.98280590e-004
,,,-5.75000000e-009,-1.87030590e-004
,,,-5.72500000e-009,-1.79999340e-004
,,,-5.70000000e-009,-1.76718090e-004
,,,-5.67500000e-009,-1.76718090e-004
,,,-5.65000000e-009,-1.79530590e-004
,,,-5.62500000e-009,-1.83280590e-004
,,,-5.60000000e-009,-1.87030590e-004
,,,-5.57500000e-009,-1.88436840e-004
,,,-5.55000000e-009,-1.86561840e-004
,,,-5.52500000e-009,-1.79999340e-004
,,,-5.50000000e-009,-1.68280590e-004
,,,-5.47500000e-009,-1.52343090e-004
,,,-5.45000000e-009,-1.33593090e-004
,,,-5.42500000e-009,-1.13436840e-004
,,,-5.40000000e-009,-9.46868396e-005
,,,-5.37500000e-009,-7.82805894e-005
,,,-5.35000000e-009,-6.60930893e-005
,,,-5.32500000e-009,-5.99993393e-005
,,,-5.30000000e-009,-6.09368393e-005
,,,-5.27500000e-009,-6.74993393e-005
,,,-5.25000000e-009,-7.96868395e-005
,,,-5.22500000e-009,-9.65618396e-005
,,,-5.20000000e-009,-1.16718090e-004
,,,-5.17500000e-009,-1.38749340e-004
,,,-5.15000000e-009,-1.60311840e-004
,,,-5.12500000e-009,-1.79999340e-004
,,,-5.10000000e-009,-1.95936840e-004
,,,-5.07500000e-009,-2.06718091e-004
,,,-5.05000000e-009,-2.12343091e-004
,,,-5.02500000e-009,-2.13280591e-004
,,,-5.00000000e-009,-2.09999341e-004
,,,-4.97500000e-009,-2.02968091e-004
,,,-4.95000000e-009,-1.92655590e-004
,,,-4.92500000e-009,-1.79999340e-004
,,,-4.90000000e-009,-1.65468090e-004
,,,-4.87500000e-009,-1.49530590e-004
,,,-4.85000000e-009,-1.33593090e-004
,,,-4.82500000e-009,-1.17655590e-004
,,,-4.80000000e-009,-1.02186840e-004
,,,-4.77500000e-009,-8.76555895e-005
,,,-4.75000000e-009,-7.35930894e-005
,,,-4.72500000e-009,-5.99993393e-005
,,,-4.70000000e-009,-4.78118392e-005
,,,-4.67500000e-009,-3.51555891e-005
,,,-4.65000000e-009,-2.24993390e-005
,,,-4.62500000e-009,-8.90558884e-006
,,,-4.60000000e-009,6.09441129e-006
,,,-4.57500000e-009,2.25006614e-005
,,,-4.55000000e-009,4.03131616e-005
,,,-4.52500000e-009,6.00006618e-005
,,,-4.50000000e-009,7.78131619e-005
,,,-4.47500000e-009,9.65631621e-005
,,,-4.45000000e-009,1.14844412e-004
,,,-4.42500000e-009,1.32188162e-004
,,,-4.40000000e-009,1.47656913e-004
,,,-4.37500000e-009,1.61250663e-004
,,,-4.35000000e-009,1.72031913e-004
,,,-4.32500000e-009,1.80000663e-004
,,,-4.30000000e-009,1.81875663e-004
,,,-4.27500000e-009,1.81875663e-004
,,,-4.25000000e-009,1.80000663e-004
,,,-4.22500000e-009,1.77656913e-004
,,,-4.20000000e-009,1.75781913e-004
,,,-4.17500000e-009,1.74844413e-004
,,,-4.15000000e-009,1.76250663e-004
,,,-4.12500000e-009,1.80000663e-004
,,,-4.10000000e-009,1.81406913e-004
,,,-4.07500000e-009,1.84688163e-004
,,,-4.05000000e-009,1.88906913e-004
,,,-4.02500000e-009,1.92656913e-004
,,,-4.00000000e-009,1.94531913e-004
,,,-3.97500000e-009,1.94063163e-004
,,,-3.95000000e-009,1.89375663e-004
,,,-3.92500000e-009,1.80000663e-004
,,,-3.90000000e-009,1.61719413e-004
,,,-3.87500000e-009,1.38281912e-004
,,,-3.85000000e-009,1.10625662e-004
,,,-3.82500000e-009,7.92194119e-005
,,,-3.80000000e-009,4.50006616e-005
,,,-3.77500000e-009,9.37566132e-006
,,,-3.75000000e-009,-2.57805890e-005
,,,-3.72500000e-009,-5.99993393e-005
,,,-3.70000000e-009,-9.09368396e-005
,,,-3.67500000e-009,-1.17655590e-004
,,,-3.65000000e-009,-1.39686840e-004
,,,-3.62500000e-009,-1.56561840e-004
,,,-3.60000000e-009,-1.68749340e-004
,,,-3.57500000e-009,-1.76249340e-004
,,,-3.55000000e-009,-1.79999340e-004
,,,-3.52500000e-009,-1.79999340e-004
,,,-3.50000000e-009,-1.75311840e-004
,,,-3.47500000e-009,-1.69218090e-004
,,,-3.45000000e-009,-1.63593090e-004
,,,-3.42500000e-009,-1.59374340e-004
,,,-3.40000000e-009,-1.58436840e-004
,,,-3.37500000e-009,-1.61249340e-004
,,,-3.35000000e-009,-1.68749340e-004
,,,-3.32500000e-009,-1.79999340e-004
,,,-3.30000000e-009,-1.91249340e-004
,,,-3.27500000e-009,-2.04843091e-004
,,,-3.25000000e-009,-2.21249341e-004
,,,-3.22500000e-009,-2.39061841e-004
,,,-3.20000000e-009,-2.56874341e-004
,,,-3.17500000e-009,-2.74218091e-004
,,,-3.15000000e-009,-2.88749341e-004
,,,-3.12500000e-009,-2.99999341e-004
,,,-3.10000000e-009,-3.01874341e-004
,,,-3.07500000e-009,-2.98593091e-004
,,,-3.05000000e-009,-2.90155591e-004
,,,-3.02500000e-009,-2.76561841e-004
,,,-3.00000000e-009,-2.57811841e-004
,,,-2.97500000e-009,-2.35311841e-004
,,,-2.95000000e-009,-2.09061841e-004
,,,-2.92500000e-009,-1.79999340e-004
,,,-2.90000000e-009,-1.46718090e-004
,,,-2.87500000e-009,-1.12499340e-004
,,,-2.85000000e-009,-7.96868395e-005
,,,-2.82500000e-009,-4.78118392e-005
,,,-2.80000000e-009,-1.78118389e-005
,,,-2.77500000e-009,9.84441132e-006
,,,-2.75000000e-009,3.56256615e-005
,,,-2.72500000e-009,6.00006618e-005
,,,-2.70000000e-009,8.20319120e-005
,,,-2.67500000e-009,1.04531912e-004
,,,-2.65000000e-009,1.27969412e-004
,,,-2.62500000e-009,1.54219413e-004
,,,-2.60000000e-009,1.83750663e-004
,,,-2.57500000e-009,2.17969413e-004
,,,-2.55000000e-009,2.56875663e-004
,,,-2.52500000e-009,3.00000664e-004
,,,-2.50000000e-009,3.41719414e-004
,,,-2.47500000e-009,3.84844415e-004
,,,-2.45000000e-009,4.26563165e-004
,,,-2.42500000e-009,4.65000665e-004
,,,-2.40000000e-009,4.97344416e-004
,,,-2.37500000e-009,5.21719416e-004
,,,-2.35000000e-009,5.36250666e-004
,,,-2.32500000e-009,5.40000666e-004
,,,-2.30000000e-009,5.25000666e-004
,,,-2.27500000e-009,5.00625666e-004
,,,-2.25000000e-009,4.69219415e-004
,,,-2.22500000e-009,4.32656915e-004
,,,-2.20000000e-009,3.95156915e-004
,,,-2.17500000e-009,3.59063164e-004
,,,-2.15000000e-009,3.26719414e-004
,,,-2.12500000e-009,3.00000664e-004
,,,-2.10000000e-009,2.73750664e-004
,,,-2.07500000e-009,2.54063163e-004
,,,-2.05000000e-009,2.40000663e-004
,,,-2.02500000e-009,2.29219413e-004
,,,-2.00000000e-009,2.20313163e-004
,,,-1.97500000e-009,2.10469413e-004
,,,-1.95000000e-009,1.97344413e-004
,,,-1.92500000e-009,1.80000663e-004
,,,-1.90000000e-009,1.50938163e-004
,,,-1.87500000e-009,1.17188162e-004
,,,-1.85000000e-009,8.01569119e-005
,,,-1.82500000e-009,4.31256616e-005
,,,-1.80000000e-009,7.96941131e-006
,,,-1.77500000e-009,-2.24993390e-005
,,,-1.75000000e-009,-4.54680892e-005
,,,-1.72500000e-009,-5.99993393e-005
,,,-1.70000000e-009,-7.40618394e-005
,,,-1.67500000e-009,-8.06243395e-005
,,,-1.65000000e-009,-8.15618395e-005
,,,-1.62500000e-009,-7.82805894e-005
,,,-1.60000000e-009,-7.21868394e-005
,,,-1.57500000e-009,-6.56243393e-005
,,,-1.55000000e-009,-6.09368393e-005
,,,-1.52500000e-009,-5.99993393e-005
,,,-1.50000000e-009,-7.49993394e-005
,,,-1.47500000e-009,-9.84368396e-005
,,,-1.45000000e-009,-1.28436840e-004
,,,-1.42500000e-009,-1.63593090e-004
,,,-1.40000000e-009,-2.00624341e-004
,,,-1.37500000e-009,-2.37655591e-004
,,,-1.35000000e-009,-2.71405591e-004
,,,-1.32500000e-009,-2.99999341e-004
,,,-1.30000000e-009,-3.35155592e-004
,,,-1.27500000e-009,-3.66093092e-004
,,,-1.25000000e-009,-3.91405592e-004
,,,-1.22500000e-009,-4.09686842e-004
,,,-1.20000000e-009,-4.21405592e-004
,,,-1.17500000e-009,-4.25624342e-004
,,,-1.15000000e-009,-4.24686842e-004
,,,-1.12500000e-009,-4.19999342e-004
,,,-1.10000000e-009,-4.32655593e-004
,,,-1.07500000e-009,-4.51874343e-004
,,,-1.05000000e-009,-4.79999343e-004
,,,-1.02500000e-009,-5.17968093e-004
,,,-1.00000000e-009,-5.66718094e-004
,,,-9.75000000e-010,-6.26718094e-004
,,,-9.50000000e-010,-6.97968095e-004
,,,-9.25000000e-010,-7.79999346e-004
,,,-9.00000000e-010,-8.92030597e-004
,,,-8.75000000e-010,-1.01484310e-003
,,,-8.50000000e-010,-1.14562435e-003
,,,-8.25000000e-010,-1.27828060e-003
,,,-8.00000000e-010,-1.40765560e-003
,,,-7.75000000e-010,-1.52999935e-003
,,,-7.50000000e-010,-1.64156185e-003
,,,-7.25000000e-010,-1.73999935e-003
,,,-7.00000000e-010,-1.83984310e-003
,,,-6.75000000e-010,-1.93265561e-003
,,,-6.50000000e-010,-2.01984311e-003
,,,-6.25000000e-010,-2.10374936e-003
,,,-6.00000000e-010,-2.18718686e-003
,,,-5.75000000e-010,-2.27249936e-003
,,,-5.50000000e-010,-2.36296811e-003
,,,-5.25000000e-010,-2.45999936e-003
,,,-5.00000000e-010,-2.57296811e-003
,,,-4.75000000e-010,-2.69812436e-003
,,,-4.50000000e-010,-2.83406186e-003
,,,-4.25000000e-010,-2.97656186e-003
,,,-4.00000000e-010,-3.12281187e-003
,,,-3.75000000e-010,-3.26765562e-003
,,,-3.50000000e-010,-3.40734312e-003
,,,-3.25000000e-010,-3.53999937e-003
,,,-3.00000000e-010,-3.66140562e-003
,,,-2.75000000e-010,-3.77812437e-003
,,,-2.50000000e-010,-3.89249937e-003
,,,-2.25000000e-010,-4.00687437e-003
,,,-2.00000000e-010,-4.12265562e-003
,,,-1.75000000e-010,-4.24265563e-003
,,,-1.50000000e-010,-4.36828063e-003
,,,-1.25000000e-010,-4.49999938e-003
,,,-1.00000000e-010,-4.62374938e-003
,,,-7.50000000e-011,-4.75640563e-003
,,,-5.00000000e-011,-4.89656188e-003
,,,-2.50000000e-011,-5.04140563e-003
,,,0.00000000e+000,-5.18624938e-003
,,,2.50000000e-011,-5.32734314e-003
,,,5.00000000e-011,-5.45999939e-003
,,,7.50000000e-011,-5.57999939e-003
,,,1.00000000e-010,-5.65828064e-003
,,,1.25000000e-010,-5.72343689e-003
,,,1.50000000e-010,-5.77734314e-003
,,,1.75000000e-010,-5.82140564e-003
,,,2.00000000e-010,-5.85796814e-003
,,,2.25000000e-010,-5.88937439e-003
,,,2.50000000e-010,-5.91609314e-003
,,,2.75000000e-010,-5.93999939e-003
,,,3.00000000e-010,-5.93343689e-003
,,,3.25000000e-010,-5.92828064e-003
,,,3.50000000e-010,-5.92640564e-003
,,,3.75000000e-010,-5.92734314e-003
,,,4.00000000e-010,-5.93156189e-003
,,,4.25000000e-010,-5.93624939e-003
,,,4.50000000e-010,-5.93999939e-003
,,,4.75000000e-010,-5.93999939e-003
,,,5.00000000e-010,-5.90671814e-003
,,,5.25000000e-010,-5.86874939e-003
,,,5.50000000e-010,-5.82749939e-003
,,,5.75000000e-010,-5.78296814e-003
,,,6.00000000e-010,-5.73609314e-003
,,,6.25000000e-010,-5.68734314e-003
,,,6.50000000e-010,-5.63531189e-003
,,,6.75000000e-010,-5.57999939e-003
,,,7.00000000e-010,-5.49796814e-003
,,,7.25000000e-010,-5.41265564e-003
,,,7.50000000e-010,-5.32499939e-003
,,,7.75000000e-010,-5.23546813e-003
,,,8.00000000e-010,-5.14406188e-003
,,,8.25000000e-010,-5.05124938e-003
,,,8.50000000e-010,-4.95656188e-003
,,,8.75000000e-010,-4.85999938e-003
,,,9.00000000e-010,-4.74656188e-003
,,,9.25000000e-010,-4.63124938e-003
,,,9.50000000e-010,-4.51687438e-003
,,,9.75000000e-010,-4.40531188e-003
,,,1.00000000e-009,-4.29843688e-003
,,,1.02500000e-009,-4.19812438e-003
,,,1.05000000e-009,-4.10531187e-003
,,,1.07500000e-009,-4.01999937e-003
,,,1.10000000e-009,-3.93749937e-003
,,,1.12500000e-009,-3.85874937e-003
,,,1.15000000e-009,-3.78281187e-003
,,,1.17500000e-009,-3.70921812e-003
,,,1.20000000e-009,-3.63656187e-003
,,,1.22500000e-009,-3.56484312e-003
,,,1.25000000e-009,-3.49265562e-003
,,,1.27500000e-009,-3.41999937e-003
,,,1.30000000e-009,-3.34734312e-003
,,,1.32500000e-009,-3.27046812e-003
,,,1.35000000e-009,-3.19031187e-003
,,,1.37500000e-009,-3.10968687e-003
,,,1.40000000e-009,-3.03046812e-003
,,,1.42500000e-009,-2.95453061e-003
,,,1.45000000e-009,-2.88421811e-003
,,,1.47500000e-009,-2.81999936e-003
,,,1.50000000e-009,-2.76843686e-003
,,,1.52500000e-009,-2.71734311e-003
,,,1.55000000e-009,-2.66531186e-003
,,,1.57500000e-009,-2.61046811e-003
,,,1.60000000e-009,-2.55140561e-003
,,,1.62500000e-009,-2.48718686e-003
,,,1.65000000e-009,-2.41687436e-003
,,,1.67500000e-009,-2.33999936e-003
,,,1.70000000e-009,-2.26640561e-003
,,,1.72500000e-009,-2.18531186e-003
,,,1.75000000e-009,-2.09999936e-003
,,,1.77500000e-009,-2.01374936e-003
,,,1.80000000e-009,-1.93078061e-003
,,,1.82500000e-009,-1.85578060e-003
,,,1.85000000e-009,-1.79109310e-003
,,,1.87500000e-009,-1.73999935e-003
,,,1.90000000e-009,-1.71374935e-003
,,,1.92500000e-009,-1.69640560e-003
,,,1.95000000e-009,-1.68562435e-003
,,,1.97500000e-009,-1.67812435e-003
,,,2.00000000e-009,-1.67015560e-003
,,,2.02500000e-009,-1.65937435e-003
,,,2.05000000e-009,-1.64296810e-003
,,,2.07500000e-009,-1.61999935e-003
,,,2.10000000e-009,-1.59796810e-003
,,,2.12500000e-009,-1.56656185e-003
,,,2.15000000e-009,-1.52906185e-003
,,,2.17500000e-009,-1.48874935e-003
,,,2.20000000e-009,-1.44937435e-003
,,,2.22500000e-009,-1.41609310e-003
,,,2.25000000e-009,-1.39218685e-003
,,,2.27500000e-009,-1.37999935e-003
,,,2.30000000e-009,-1.38890560e-003
,,,2.32500000e-009,-1.40624935e-003
,,,2.35000000e-009,-1.42921810e-003
,,,2.37500000e-009,-1.45453060e-003
,,,2.40000000e-009,-1.47796810e-003
,,,2.42500000e-009,-1.49531185e-003
,,,2.45000000e-009,-1.50328060e-003
,,,2.47500000e-009,-1.49999935e-003
,,,2.50000000e-009,-1.48828060e-003
,,,2.52500000e-009,-1.46390560e-003
,,,2.55000000e-009,-1.42921810e-003
,,,2.57500000e-009,-1.38843685e-003
,,,2.60000000e-009,-1.34671810e-003
,,,2.62500000e-009,-1.30874935e-003
,,,2.65000000e-009,-1.27874935e-003
,,,2.67500000e-009,-1.25999935e-003
,,,2.70000000e-009,-1.25718685e-003
,,,2.72500000e-009,-1.26468685e-003
,,,2.75000000e-009,-1.28156185e-003
,,,2.77500000e-009,-1.30406185e-003
,,,2.80000000e-009,-1.32843685e-003
,,,2.82500000e-009,-1.35140560e-003
,,,2.85000000e-009,-1.36968685e-003
,,,2.87500000e-009,-1.37999935e-003
,,,2.90000000e-009,-1.37906185e-003
,,,2.92500000e-009,-1.36828060e-003
,,,2.95000000e-009,-1.34906185e-003
,,,2.97500000e-009,-1.32562435e-003
,,,3.00000000e-009,-1.30171810e-003
,,,3.02500000e-009,-1.28062435e-003
,,,3.05000000e-009,-1.26562435e-003
,,,3.07500000e-009,-1.25999935e-003
,,,3.10000000e-009,-1.26140560e-003
,,,3.12500000e-009,-1.27124935e-003
,,,3.15000000e-009,-1.28812435e-003
,,,3.17500000e-009,-1.30921810e-003
,,,3.20000000e-009,-1.33265560e-003
,,,3.22500000e-009,-1.35421810e-003
,,,3.25000000e-009,-1.37062435e-003
,,,3.27500000e-009,-1.37999935e-003
,,,3.30000000e-009,-1.37437435e-003
,,,3.32500000e-009,-1.35796810e-003
,,,3.35000000e-009,-1.33218685e-003
,,,3.37500000e-009,-1.29843685e-003
,,,3.40000000e-009,-1.25953060e-003
,,,3.42500000e-009,-1.21874935e-003
,,,3.45000000e-009,-1.17843685e-003
,,,3.47500000e-009,-1.13999935e-003
,,,3.50000000e-009,-1.10296810e-003
,,,3.52500000e-009,-1.06921810e-003
,,,3.55000000e-009,-1.03874935e-003
,,,3.57500000e-009,-1.01062435e-003
,,,3.60000000e-009,-9.84374347e-004
,,,3.62500000e-009,-9.58593097e-004
,,,3.65000000e-009,-9.30468097e-004
,,,3.67500000e-009,-8.99999347e-004
,,,3.70000000e-009,-8.64374346e-004
,,,3.72500000e-009,-8.24061846e-004
,,,3.75000000e-009,-7.79530596e-004
,,,3.77500000e-009,-7.32186845e-004
,,,3.80000000e-009,-6.82968095e-004
,,,3.82500000e-009,-6.33749344e-004
,,,3.85000000e-009,-5.85468094e-004
,,,3.87500000e-009,-5.39999343e-004
,,,3.90000000e-009,-5.01093093e-004
,,,3.92500000e-009,-4.65468093e-004
,,,3.95000000e-009,-4.32655593e-004
,,,3.97500000e-009,-4.03124342e-004
,,,4.00000000e-009,-3.75468092e-004
,,,4.02500000e-009,-3.49218092e-004
,,,4.05000000e-009,-3.24374342e-004
,,,4.07500000e-009,-2.99999341e-004
,,,4.10000000e-009,-2.82186841e-004
,,,4.12500000e-009,-2.63905591e-004
,,,4.15000000e-009,-2.46093091e-004
,,,4.17500000e-009,-2.29218091e-004
,,,4.20000000e-009,-2.13280591e-004
,,,4.22500000e-009,-1.99686840e-004
,,,4.25000000e-009,-1.88436840e-004
,,,4.27500000e-009,-1.79999340e-004
,,,4.30000000e-009,-1.81405590e-004
,,,4.32500000e-009,-1.83749340e-004
,,,4.35000000e-009,-1.86561840e-004
,,,4.37500000e-009,-1.88905590e-004
,,,4.40000000e-009,-1.89374340e-004
,,,4.42500000e-009,-1.88436840e-004
,,,4.45000000e-009,-1.85624340e-004
,,,4.47500000e-009,-1.79999340e-004
,,,4.50000000e-009,-1.79530590e-004
,,,4.52500000e-009,-1.76718090e-004
,,,4.55000000e-009,-1.72968090e-004
,,,4.57500000e-009,-1.69218090e-004
,,,4.60000000e-009,-1.66874340e-004
,,,4.62500000e-009,-1.66874340e-004
,,,4.65000000e-009,-1.71093090e-004
,,,4.67500000e-009,-1.79999340e-004
,,,4.70000000e-009,-1.98749340e-004
,,,4.72500000e-009,-2.22186841e-004
,,,4.75000000e-009,-2.49843091e-004
,,,4.77500000e-009,-2.80780591e-004
,,,4.80000000e-009,-3.14530591e-004
,,,4.82500000e-009,-3.49686842e-004
,,,4.85000000e-009,-3.85311842e-004
,,,4.87500000e-009,-4.19999342e-004
,,,4.90000000e-009,-4.52343093e-004
,,,4.92500000e-009,-4.80468093e-004
,,,4.95000000e-009,-5.03436843e-004
,,,4.97500000e-009,-5.21249343e-004
,,,5.00000000e-009,-5.33436843e-004
,,,5.02500000e-009,-5.39999343e-004
,,,5.05000000e-009,-5.42343093e-004
,,,5.07500000e-009,-5.39999343e-004
,,,5.10000000e-009,-5.33436843e-004
,,,5.12500000e-009,-5.25936843e-004
,,,5.15000000e-009,-5.18905593e-004
,,,5.17500000e-009,-5.13749343e-004
,,,5.20000000e-009,-5.12811843e-004
,,,5.22500000e-009,-5.16561843e-004
,,,5.25000000e-009,-5.25936843e-004
,,,5.27500000e-009,-5.39999343e-004
,,,5.30000000e-009,-5.55936844e-004
,,,5.32500000e-009,-5.75624344e-004
,,,5.35000000e-009,-5.96718094e-004
,,,5.37500000e-009,-6.17343094e-004
,,,5.40000000e-009,-6.36093094e-004
,,,5.42500000e-009,-6.50624344e-004
,,,5.45000000e-009,-6.59530594e-004
,,,5.47500000e-009,-6.59999344e-004
,,,5.50000000e-009,-6.49218094e-004
,,,5.52500000e-009,-6.29999344e-004
,,,5.55000000e-009,-6.03749344e-004
,,,5.57500000e-009,-5.71874344e-004
,,,5.60000000e-009,-5.35780593e-004
,,,5.62500000e-009,-4.96874343e-004
,,,5.65000000e-009,-4.57968093e-004
,,,5.67500000e-009,-4.19999342e-004
,,,5.70000000e-009,-3.84374342e-004
,,,5.72500000e-009,-3.54374342e-004
,,,5.75000000e-009,-3.29999342e-004
,,,5.77500000e-009,-3.12655591e-004
,,,5.80000000e-009,-3.01405591e-004
,,,5.82500000e-009,-2.96249341e-004
,,,5.85000000e-009,-2.96249341e-004
,,,5.87500000e-009,-2.99999341e-004
