RawData/SinglePhotoelectron/L5_2pt2A_5mV/wave030_Ch1.csv

"Record Length",1000,"Points",-7.72500000e-009,3.14069115e-005
"Sample Interval",2.50000000e-011,s,-7.70000000e-009,1.87506614e-005
"Trigger Point",309,"Samples",-7.67500000e-009,6.56316130e-006
"Trigger Time",8.63538462e-012,s,-7.65000000e-009,-7.03058882e-006
"",,,-7.62500000e-009,-2.20305890e-005
"Horizontal Offset",-7.72500000e-009,s,-7.60000000e-009,-3.93743391e-005
,,,-7.57500000e-009,-5.99993393e-005
,,,-7.55000000e-009,-8.29680895e-005
,,,-7.52500000e-009,-1.09218090e-004
,,,-7.50000000e-009,-1.38749340e-004
,,,-7.47500000e-009,-1.70624340e-004
,,,-7.45000000e-009,-2.04374341e-004
,,,-7.42500000e-009,-2.38124341e-004
,,,-7.40000000e-009,-2.70468091e-004
,,,-7.37500000e-009,-2.99999341e-004
,,,-7.35000000e-009,-3.21561842e-004
,,,-7.32500000e-009,-3.37499342e-004
,,,-7.30000000e-009,-3.47343092e-004
,,,-7.27500000e-009,-3.50624342e-004
,,,-7.25000000e-009,-3.47811842e-004
,,,-7.22500000e-009,-3.37968092e-004
,,,-7.20000000e-009,-3.22030592e-004
,,,-7.17500000e-009,-2.99999341e-004
,,,-7.15000000e-009,-2.69530591e-004
,,,-7.12500000e-009,-2.36249341e-004
,,,-7.10000000e-009,-2.01093091e-004
,,,-7.07500000e-009,-1.66874340e-004
,,,-7.05000000e-009,-1.34061840e-004
,,,-7.02500000e-009,-1.04999340e-004
,,,-7.00000000e-009,-8.01555895e-005
,,,-6.97500000e-009,-5.99993393e-005
,,,-6.95000000e-009,-4.40618391e-005
,,,-6.92500000e-009,-3.42180891e-005
,,,-6.90000000e-009,-2.95305890e-005
,,,-6.87500000e-009,-2.99993390e-005
,,,-6.85000000e-009,-3.42180891e-005
,,,-6.82500000e-009,-4.17180891e-005
,,,-6.80000000e-009,-5.06243392e-005
,,,-6.77500000e-009,-5.99993393e-005
,,,-6.75000000e-009,-6.74993393e-005
,,,-6.72500000e-009,-7.31243394e-005
,,,-6.70000000e-009,-7.64055894e-005
,,,-6.67500000e-009,-7.78118394e-005
,,,-6.65000000e-009,-7.64055894e-005
,,,-6.62500000e-009,-7.31243394e-005
,,,-6.60000000e-009,-6.74993393e-005
,,,-6.57500000e-009,-5.99993393e-005
,,,-6.55000000e-009,-4.92180892e-005
,,,-6.52500000e-009,-3.65618391e-005
,,,-6.50000000e-009,-2.24993390e-005
,,,-6.47500000e-009,-7.49933883e-006
,,,-6.45000000e-009,8.43816131e-006
,,,-6.42500000e-009,2.53131615e-005
,,,-6.40000000e-009,4.21881616e-005
,,,-6.37500000e-009,6.00006618e-005
,,,-6.35000000e-009,7.73444119e-005
,,,-6.32500000e-009,9.51569121e-005
,,,-6.30000000e-009,1.12500662e-004
,,,-6.27500000e-009,1.29375662e-004
,,,-6.25000000e-009,1.45313163e-004
,,,-6.22500000e-009,1.58906913e-004
,,,-6.20000000e-009,1.70625663e-004
,,,-6.17500000e-009,1.80000663e-004
,,,-6.15000000e-009,1.85625663e-004
,,,-6.12500000e-009,1.89375663e-004
,,,-6.10000000e-009,1.91250663e-004
,,,-6.07500000e-009,1.91719413e-004
,,,-6.05000000e-009,1.90313163e-004
,,,-6.02500000e-009,1.87500663e-004
,,,-6.00000000e-009,1.84219413e-004
,,,-5.97500000e-009,1.80000663e-004
,,,-5.95000000e-009,1.74375663e-004
,,,-5.92500000e-009,1.69688163e-004
,,,-5.90000000e-009,1.65938163e-004
,,,-5.87500000e-009,1.64063163e-004
,,,-5.85000000e-009,1.64063163e-004
,,,-5.82500000e-009,1.66875663e-004
,,,-5.80000000e-009,1.72031913e-004
,,,-5.77500000e-009,1.80000663e-004
,,,-5.75000000e-009,1.88906913e-004
,,,-5.72500000e-009,2.00156913e-004
,,,-5.70000000e-009,2.13750663e-004
,,,-5.67500000e-009,2.29219413e-004
,,,-5.65000000e-009,2.45625663e-004
,,,-5.62500000e-009,2.63438164e-004
,,,-5.60000000e-009,2.81719414e-004
,,,-5.57500000e-009,3.00000664e-004
,,,-5.55000000e-009,3.15000664e-004
,,,-5.52500000e-009,3.30469414e-004
,,,-5.50000000e-009,3.45000664e-004
,,,-5.47500000e-009,3.60000664e-004
,,,-5.45000000e-009,3.75000664e-004
,,,-5.42500000e-009,3.90469415e-004
,,,-5.40000000e-009,4.05469415e-004
,,,-5.37500000e-009,4.20000665e-004
,,,-5.35000000e-009,4.30781915e-004
,,,-5.32500000e-009,4.39688165e-004
,,,-5.30000000e-009,4.46719415e-004
,,,-5.27500000e-009,4.50469415e-004
,,,-5.25000000e-009,4.50000665e-004
,,,-5.22500000e-009,4.45313165e-004
,,,-5.20000000e-009,4.35469415e-004
,,,-5.17500000e-009,4.20000665e-004
,,,-5.15000000e-009,3.97500665e-004
,,,-5.12500000e-009,3.71250664e-004
,,,-5.10000000e-009,3.41250664e-004
,,,-5.07500000e-009,3.08906914e-004
,,,-5.05000000e-009,2.75625664e-004
,,,-5.02500000e-009,2.42344413e-004
,,,-5.00000000e-009,2.10000663e-004
,,,-4.97500000e-009,1.80000663e-004
,,,-4.95000000e-009,1.54219413e-004
,,,-4.92500000e-009,1.33125662e-004
,,,-4.90000000e-009,1.14844412e-004
,,,-4.87500000e-009,1.00313162e-004
,,,-4.85000000e-009,8.81256620e-005
,,,-4.82500000e-009,7.78131619e-005
,,,-4.80000000e-009,6.84381618e-005
,,,-4.77500000e-009,6.00006618e-005
,,,-4.75000000e-009,5.39069117e-005
,,,-4.72500000e-009,4.92194117e-005
,,,-4.70000000e-009,4.54694116e-005
,,,-4.67500000e-009,4.35944116e-005
,,,-4.65000000e-009,4.35944116e-005
,,,-4.62500000e-009,4.59381616e-005
,,,-4.60000000e-009,5.15631617e-005
,,,-4.57500000e-009,6.00006618e-005
,,,-4.55000000e-009,7.50006619e-005
,,,-4.52500000e-009,9.18756620e-005
,,,-4.50000000e-009,1.10625662e-004
,,,-4.47500000e-009,1.28438162e-004
,,,-4.45000000e-009,1.45313163e-004
,,,-4.42500000e-009,1.59844413e-004
,,,-4.40000000e-009,1.71094413e-004
,,,-4.37500000e-009,1.80000663e-004
,,,-4.35000000e-009,1.88438163e-004
,,,-4.32500000e-009,1.95938163e-004
,,,-4.30000000e-009,2.03438163e-004
,,,-4.27500000e-009,2.12813163e-004
,,,-4.25000000e-009,2.25938163e-004
,,,-4.22500000e-009,2.44219413e-004
,,,-4.20000000e-009,2.68594414e-004
,,,-4.17500000e-009,3.00000664e-004
,,,-4.15000000e-009,3.37969414e-004
,,,-4.12500000e-009,3.78750665e-004
,,,-4.10000000e-009,4.20938165e-004
,,,-4.07500000e-009,4.60313165e-004
,,,-4.05000000e-009,4.94063166e-004
,,,-4.02500000e-009,5.19844416e-004
,,,-4.00000000e-009,5.35313166e-004
,,,-3.97500000e-009,5.40000666e-004
,,,-3.95000000e-009,5.30625666e-004
,,,-3.92500000e-009,5.12813166e-004
,,,-3.90000000e-009,4.89375665e-004
,,,-3.87500000e-009,4.63594415e-004
,,,-3.85000000e-009,4.40625665e-004
,,,-3.82500000e-009,4.23750665e-004
,,,-3.80000000e-009,4.16250665e-004
,,,-3.77500000e-009,4.20000665e-004
,,,-3.75000000e-009,4.34063165e-004
,,,-3.72500000e-009,4.59375665e-004
,,,-3.70000000e-009,4.93594416e-004
,,,-3.67500000e-009,5.32969416e-004
,,,-3.65000000e-009,5.73281916e-004
,,,-3.62500000e-009,6.10313167e-004
,,,-3.60000000e-009,6.39844417e-004
,,,-3.57500000e-009,6.60000667e-004
,,,-3.55000000e-009,6.64688167e-004
,,,-3.52500000e-009,6.58125667e-004
,,,-3.50000000e-009,6.43125667e-004
,,,-3.47500000e-009,6.21563167e-004
,,,-3.45000000e-009,5.97656916e-004
,,,-3.42500000e-009,5.73750666e-004
,,,-3.40000000e-009,5.53594416e-004
,,,-3.37500000e-009,5.40000666e-004
,,,-3.35000000e-009,5.30625666e-004
,,,-3.32500000e-009,5.29219416e-004
,,,-3.30000000e-009,5.32969416e-004
,,,-3.27500000e-009,5.40469416e-004
,,,-3.25000000e-009,5.47500666e-004
,,,-3.22500000e-009,5.51719416e-004
,,,-3.20000000e-009,5.49844416e-004
,,,-3.17500000e-009,5.40000666e-004
,,,-3.15000000e-009,5.19375666e-004
,,,-3.12500000e-009,4.91250666e-004
,,,-3.10000000e-009,4.57500665e-004
,,,-3.07500000e-009,4.20000665e-004
,,,-3.05000000e-009,3.82031915e-004
,,,-3.02500000e-009,3.47813164e-004
,,,-3.00000000e-009,3.19219414e-004
,,,-2.97500000e-009,3.00000664e-004
,,,-2.95000000e-009,2.92031914e-004
,,,-2.92500000e-009,2.94375664e-004
,,,-2.90000000e-009,3.05625664e-004
,,,-2.87500000e-009,3.24375664e-004
,,,-2.85000000e-009,3.47813164e-004
,,,-2.82500000e-009,3.73594414e-004
,,,-2.80000000e-009,3.97969415e-004
,,,-2.77500000e-009,4.20000665e-004
,,,-2.75000000e-009,4.35938165e-004
,,,-2.72500000e-009,4.45781915e-004
,,,-2.70000000e-009,4.50000665e-004
,,,-2.67500000e-009,4.48594415e-004
,,,-2.65000000e-009,4.43438165e-004
,,,-2.62500000e-009,4.35938165e-004
,,,-2.60000000e-009,4.27500665e-004
,,,-2.57500000e-009,4.20000665e-004
,,,-2.55000000e-009,4.14844415e-004
,,,-2.52500000e-009,4.12031915e-004
,,,-2.50000000e-009,4.11094415e-004
,,,-2.47500000e-009,4.12031915e-004
,,,-2.45000000e-009,4.13906915e-004
,,,-2.42500000e-009,4.16250665e-004
,,,-2.40000000e-009,4.18594415e-004
,,,-2.37500000e-009,4.20000665e-004
,,,-2.35000000e-009,4.20000665e-004
,,,-2.32500000e-009,4.18594415e-004
,,,-2.30000000e-009,4.16719415e-004
,,,-2.27500000e-009,4.14375665e-004
,,,-2.25000000e-009,4.13438165e-004
,,,-2.22500000e-009,4.13438165e-004
,,,-2.20000000e-009,4.15781915e-004
,,,-2.17500000e-009,4.20000665e-004
,,,-2.15000000e-009,4.25625665e-004
,,,-2.12500000e-009,4.31719415e-004
,,,-2.10000000e-009,4.37813165e-004
,,,-2.07500000e-009,4.42031915e-004
,,,-2.05000000e-009,4.42969415e-004
,,,-2.02500000e-009,4.40156915e-004
,,,-2.00000000e-009,4.32188165e-004
,,,-1.97500000e-009,4.20000665e-004
,,,-1.95000000e-009,4.00781915e-004
,,,-1.92500000e-009,3.78750665e-004
,,,-1.90000000e-009,3.55781914e-004
,,,-1.87500000e-009,3.34219414e-004
,,,-1.85000000e-009,3.15938164e-004
,,,-1.82500000e-009,3.03281914e-004
,,,-1.80000000e-009,2.97656914e-004
,,,-1.77500000e-009,3.00000664e-004
,,,-1.75000000e-009,3.07969414e-004
,,,-1.72500000e-009,3.22031914e-004
,,,-1.70000000e-009,3.40313164e-004
,,,-1.67500000e-009,3.60938164e-004
,,,-1.65000000e-009,3.81094415e-004
,,,-1.62500000e-009,3.99375665e-004
,,,-1.60000000e-009,4.12500665e-004
,,,-1.57500000e-009,4.20000665e-004
,,,-1.55000000e-009,4.15313165e-004
,,,-1.52500000e-009,4.03594415e-004
,,,-1.50000000e-009,3.86719415e-004
,,,-1.47500000e-009,3.65625664e-004
,,,-1.45000000e-009,3.44531914e-004
,,,-1.42500000e-009,3.24844414e-004
,,,-1.40000000e-009,3.09375664e-004
,,,-1.37500000e-009,3.00000664e-004
,,,-1.35000000e-009,2.87344414e-004
,,,-1.32500000e-009,2.80313164e-004
,,,-1.30000000e-009,2.77500664e-004
,,,-1.27500000e-009,2.79375664e-004
,,,-1.25000000e-009,2.83594414e-004
,,,-1.22500000e-009,2.90156914e-004
,,,-1.20000000e-009,2.95781914e-004
,,,-1.17500000e-009,3.00000664e-004
,,,-1.15000000e-009,2.83125664e-004
,,,-1.12500000e-009,2.59219413e-004
,,,-1.10000000e-009,2.29219413e-004
,,,-1.07500000e-009,1.95000663e-004
,,,-1.05000000e-009,1.58906913e-004
,,,-1.02500000e-009,1.22813162e-004
,,,-1.00000000e-009,8.95319120e-005
,,,-9.75000000e-010,6.00006618e-005
,,,-9.50000000e-010,9.84441132e-006
,,,-9.25000000e-010,-3.89055891e-005
,,,-9.00000000e-010,-8.34368395e-005
,,,-8.75000000e-010,-1.20936840e-004
,,,-8.50000000e-010,-1.49999340e-004
,,,-8.25000000e-010,-1.69218090e-004
,,,-8.00000000e-010,-1.78593090e-004
,,,-7.75000000e-010,-1.79999340e-004
,,,-7.50000000e-010,-2.11405591e-004
,,,-7.25000000e-010,-2.46093091e-004
,,,-7.00000000e-010,-2.84999341e-004
,,,-6.75000000e-010,-3.27655592e-004
,,,-6.50000000e-010,-3.74061842e-004
,,,-6.25000000e-010,-4.24686842e-004
,,,-6.00000000e-010,-4.79061843e-004
,,,-5.75000000e-010,-5.39999343e-004
,,,-5.50000000e-010,-6.48280594e-004
,,,-5.25000000e-010,-7.71093095e-004
,,,-5.00000000e-010,-9.05155597e-004
,,,-4.75000000e-010,-1.04718685e-003
,,,-4.50000000e-010,-1.19203060e-003
,,,-4.25000000e-010,-1.33734310e-003
,,,-4.00000000e-010,-1.47984310e-003
,,,-3.75000000e-010,-1.61999935e-003
,,,-3.50000000e-010,-1.79343685e-003
,,,-3.25000000e-010,-1.97343686e-003
,,,-3.00000000e-010,-2.15953061e-003
,,,-2.75000000e-010,-2.35171811e-003
,,,-2.50000000e-010,-2.54906186e-003
,,,-2.25000000e-010,-2.75249936e-003
,,,-2.00000000e-010,-2.96249936e-003
,,,-1.75000000e-010,-3.17999937e-003
,,,-1.50000000e-010,-3.42562437e-003
,,,-1.25000000e-010,-3.68765562e-003
,,,-1.00000000e-010,-3.96421812e-003
,,,-7.50000000e-011,-4.25249938e-003
,,,-5.00000000e-011,-4.55015563e-003
,,,-2.50000000e-011,-4.85249938e-003
,,,0.00000000e+000,-5.15718688e-003
,,,2.50000000e-011,-5.45999939e-003
,,,5.00000000e-011,-5.75249939e-003
,,,7.50000000e-011,-6.04499939e-003
,,,1.00000000e-010,-6.33656189e-003
,,,1.25000000e-010,-6.62578065e-003
,,,1.50000000e-010,-6.91265565e-003
,,,1.75000000e-010,-7.19437440e-003
,,,2.00000000e-010,-7.47046815e-003
,,,2.25000000e-010,-7.73999941e-003
,,,2.50000000e-010,-7.96874941e-003
,,,2.75000000e-010,-8.19562441e-003
,,,3.00000000e-010,-8.42249941e-003
,,,3.25000000e-010,-8.64937441e-003
,,,3.50000000e-010,-8.87671817e-003
,,,3.75000000e-010,-9.10265567e-003
,,,4.00000000e-010,-9.32484317e-003
,,,4.25000000e-010,-9.53999942e-003
,,,4.50000000e-010,-9.68906192e-003
,,,4.75000000e-010,-9.83156192e-003
,,,5.00000000e-010,-9.96796818e-003
,,,5.25000000e-010,-1.00973432e-002
,,,5.50000000e-010,-1.02182807e-002
,,,5.75000000e-010,-1.03279682e-002
,,,6.00000000e-010,-1.04231244e-002
,,,6.25000000e-010,-1.04999994e-002
,,,6.50000000e-010,-1.04882807e-002
,,,6.75000000e-010,-1.04592182e-002
,,,7.00000000e-010,-1.04151557e-002
,,,7.25000000e-010,-1.03584369e-002
,,,7.50000000e-010,-1.02899994e-002
,,,7.75000000e-010,-1.02107807e-002
,,,8.00000000e-010,-1.01207807e-002
,,,8.25000000e-010,-1.00199994e-002
,,,8.50000000e-010,-9.84749942e-003
,,,8.75000000e-010,-9.67124942e-003
,,,9.00000000e-010,-9.49499942e-003
,,,9.25000000e-010,-9.32249942e-003
,,,9.50000000e-010,-9.15656192e-003
,,,9.75000000e-010,-8.99765567e-003
,,,1.00000000e-009,-8.84624942e-003
,,,1.02500000e-009,-8.69999941e-003
,,,1.05000000e-009,-8.51249941e-003
,,,1.07500000e-009,-8.32828066e-003
,,,1.10000000e-009,-8.14687441e-003
,,,1.12500000e-009,-7.96874941e-003
,,,1.15000000e-009,-7.79203066e-003
,,,1.17500000e-009,-7.61671815e-003
,,,1.20000000e-009,-7.43999940e-003
,,,1.22500000e-009,-7.25999940e-003
,,,1.25000000e-009,-7.05093690e-003
,,,1.27500000e-009,-6.83296815e-003
,,,1.30000000e-009,-6.60843690e-003
,,,1.32500000e-009,-6.37874939e-003
,,,1.35000000e-009,-6.14671814e-003
,,,1.37500000e-009,-5.91468689e-003
,,,1.40000000e-009,-5.68499939e-003
,,,1.42500000e-009,-5.45999939e-003
,,,1.45000000e-009,-5.23874938e-003
,,,1.47500000e-009,-5.02031188e-003
,,,1.50000000e-009,-4.80749938e-003
,,,1.52500000e-009,-4.60218688e-003
,,,1.55000000e-009,-4.40718688e-003
,,,1.57500000e-009,-4.22484313e-003
,,,1.60000000e-009,-4.05562437e-003
,,,1.62500000e-009,-3.89999937e-003
,,,1.65000000e-009,-3.77296812e-003
,,,1.67500000e-009,-3.64734312e-003
,,,1.70000000e-009,-3.52031187e-003
,,,1.72500000e-009,-3.38999937e-003
,,,1.75000000e-009,-3.25499937e-003
,,,1.77500000e-009,-3.11437437e-003
,,,1.80000000e-009,-2.96906186e-003
,,,1.82500000e-009,-2.81999936e-003
,,,1.85000000e-009,-2.69437436e-003
,,,1.87500000e-009,-2.56265561e-003
,,,1.90000000e-009,-2.42718686e-003
,,,1.92500000e-009,-2.29218686e-003
,,,1.95000000e-009,-2.16328061e-003
,,,1.97500000e-009,-2.04562436e-003
,,,2.00000000e-009,-1.94343686e-003
,,,2.02500000e-009,-1.85999935e-003
,,,2.05000000e-009,-1.82390560e-003
,,,2.07500000e-009,-1.79765560e-003
,,,2.10000000e-009,-1.77656185e-003
,,,2.12500000e-009,-1.75687435e-003
,,,2.15000000e-009,-1.73390560e-003
,,,2.17500000e-009,-1.70484310e-003
,,,2.20000000e-009,-1.66734310e-003
,,,2.22500000e-009,-1.61999935e-003
,,,2.25000000e-009,-1.58812435e-003
,,,2.27500000e-009,-1.54312435e-003
,,,2.30000000e-009,-1.48828060e-003
,,,2.32500000e-009,-1.42734310e-003
,,,2.35000000e-009,-1.36781185e-003
,,,2.37500000e-009,-1.31624935e-003
,,,2.40000000e-009,-1.27874935e-003
,,,2.42500000e-009,-1.25999935e-003
,,,2.45000000e-009,-1.28343685e-003
,,,2.47500000e-009,-1.32421810e-003
,,,2.50000000e-009,-1.37953060e-003
,,,2.52500000e-009,-1.44609310e-003
,,,2.55000000e-009,-1.51968685e-003
,,,2.57500000e-009,-1.59609310e-003
,,,2.60000000e-009,-1.67062435e-003
,,,2.62500000e-009,-1.73999935e-003
,,,2.65000000e-009,-1.80984310e-003
,,,2.67500000e-009,-1.86562435e-003
,,,2.70000000e-009,-1.90734311e-003
,,,2.72500000e-009,-1.93640561e-003
,,,2.75000000e-009,-1.95515561e-003
,,,2.77500000e-009,-1.96640561e-003
,,,2.80000000e-009,-1.97390561e-003
,,,2.82500000e-009,-1.97999936e-003
,,,2.85000000e-009,-1.98937436e-003
,,,2.87500000e-009,-1.99968686e-003
,,,2.90000000e-009,-2.01234311e-003
,,,2.92500000e-009,-2.02781186e-003
,,,2.95000000e-009,-2.04515561e-003
,,,2.97500000e-009,-2.06343686e-003
,,,3.00000000e-009,-2.08218686e-003
,,,3.02500000e-009,-2.09999936e-003
,,,3.05000000e-009,-2.11078061e-003
,,,3.07500000e-009,-2.11828061e-003
,,,3.10000000e-009,-2.12203061e-003
,,,3.12500000e-009,-2.12249936e-003
,,,3.15000000e-009,-2.12015561e-003
,,,3.17500000e-009,-2.11499936e-003
,,,3.20000000e-009,-2.10843686e-003
,,,3.22500000e-009,-2.09999936e-003
,,,3.25000000e-009,-2.08265561e-003
,,,3.27500000e-009,-2.06437436e-003
,,,3.30000000e-009,-2.04656186e-003
,,,3.32500000e-009,-2.02921811e-003
,,,3.35000000e-009,-2.01374936e-003
,,,3.37500000e-009,-2.00062436e-003
,,,3.40000000e-009,-1.98937436e-003
,,,3.42500000e-009,-1.97999936e-003
,,,3.45000000e-009,-1.96265561e-003
,,,3.47500000e-009,-1.94578061e-003
,,,3.50000000e-009,-1.92984311e-003
,,,3.52500000e-009,-1.91531186e-003
,,,3.55000000e-009,-1.90171811e-003
,,,3.57500000e-009,-1.88812436e-003
,,,3.60000000e-009,-1.87453061e-003
,,,3.62500000e-009,-1.85999935e-003
,,,3.65000000e-009,-1.83656185e-003
,,,3.67500000e-009,-1.80984310e-003
,,,3.70000000e-009,-1.78124935e-003
,,,3.72500000e-009,-1.75078060e-003
,,,3.75000000e-009,-1.71890560e-003
,,,3.77500000e-009,-1.68656185e-003
,,,3.80000000e-009,-1.65374935e-003
,,,3.82500000e-009,-1.61999935e-003
,,,3.85000000e-009,-1.58109310e-003
,,,3.87500000e-009,-1.53984310e-003
,,,3.90000000e-009,-1.49671810e-003
,,,3.92500000e-009,-1.45218685e-003
,,,3.95000000e-009,-1.40671810e-003
,,,3.97500000e-009,-1.35937435e-003
,,,4.00000000e-009,-1.31062435e-003
,,,4.02500000e-009,-1.25999935e-003
,,,4.05000000e-009,-1.20703060e-003
,,,4.07500000e-009,-1.15124935e-003
,,,4.10000000e-009,-1.09218685e-003
,,,4.12500000e-009,-1.03171810e-003
,,,4.15000000e-009,-9.68905597e-004
,,,4.17500000e-009,-9.05624347e-004
,,,4.20000000e-009,-8.42343096e-004
,,,4.22500000e-009,-7.79999346e-004
,,,4.25000000e-009,-7.22811845e-004
,,,4.27500000e-009,-6.66561845e-004
,,,4.30000000e-009,-6.13593094e-004
,,,4.32500000e-009,-5.63905594e-004
,,,4.35000000e-009,-5.19374343e-004
,,,4.37500000e-009,-4.79999343e-004
,,,4.40000000e-009,-4.47186843e-004
,,,4.42500000e-009,-4.19999342e-004
,,,4.45000000e-009,-4.05936842e-004
,,,4.47500000e-009,-3.94218092e-004
,,,4.50000000e-009,-3.83905592e-004
,,,4.52500000e-009,-3.72655592e-004
,,,4.55000000e-009,-3.59530592e-004
,,,4.57500000e-009,-3.43593092e-004
,,,4.60000000e-009,-3.23905592e-004
,,,4.62500000e-009,-2.99999341e-004
,,,4.65000000e-009,-2.80780591e-004
,,,4.67500000e-009,-2.58280591e-004
,,,4.70000000e-009,-2.34843091e-004
,,,4.72500000e-009,-2.12343091e-004
,,,4.75000000e-009,-1.93593090e-004
,,,4.77500000e-009,-1.80936840e-004
,,,4.80000000e-009,-1.76249340e-004
,,,4.82500000e-009,-1.79999340e-004
,,,4.85000000e-009,-1.99686840e-004
,,,4.87500000e-009,-2.23593091e-004
,,,4.90000000e-009,-2.49843091e-004
,,,4.92500000e-009,-2.74218091e-004
,,,4.95000000e-009,-2.93905591e-004
,,,4.97500000e-009,-3.05624341e-004
,,,5.00000000e-009,-3.07968091e-004
,,,5.02500000e-009,-2.99999341e-004
,,,5.05000000e-009,-2.86874341e-004
,,,5.07500000e-009,-2.65311841e-004
,,,5.10000000e-009,-2.38124341e-004
,,,5.12500000e-009,-2.10468091e-004
,,,5.15000000e-009,-1.87030590e-004
,,,5.17500000e-009,-1.71561840e-004
,,,5.20000000e-009,-1.68749340e-004
,,,5.22500000e-009,-1.79999340e-004
,,,5.25000000e-009,-2.09999341e-004
,,,5.27500000e-009,-2.52186841e-004
,,,5.30000000e-009,-3.03749341e-004
,,,5.32500000e-009,-3.59999342e-004
,,,5.35000000e-009,-4.16718092e-004
,,,5.37500000e-009,-4.68280593e-004
,,,5.40000000e-009,-5.10468093e-004
,,,5.42500000e-009,-5.39999343e-004
,,,5.45000000e-009,-5.52655594e-004
,,,5.47500000e-009,-5.49843094e-004
,,,5.50000000e-009,-5.35311843e-004
,,,5.52500000e-009,-5.11874343e-004
,,,5.55000000e-009,-4.84218093e-004
,,,5.57500000e-009,-4.57030593e-004
,,,5.60000000e-009,-4.34530593e-004
,,,5.62500000e-009,-4.19999342e-004
,,,5.65000000e-009,-4.12499342e-004
,,,5.67500000e-009,-4.15311842e-004
,,,5.70000000e-009,-4.27968092e-004
,,,5.72500000e-009,-4.47655593e-004
,,,5.75000000e-009,-4.72499343e-004
,,,5.77500000e-009,-4.98280593e-004
,,,5.80000000e-009,-5.21718093e-004
,,,5.82500000e-009,-5.39999343e-004
,,,5.85000000e-009,-5.46561844e-004
,,,5.87500000e-009,-5.44218093e-004
,,,5.90000000e-009,-5.33905593e-004
,,,5.92500000e-009,-5.16561843e-004
,,,5.95000000e-009,-4.94061843e-004
