RawData/SinglePhotoelectron/L5_2pt2A_5mV/wave021_Ch1.csv

"Record Length",1000,"Points",-7.72500000e-009,3.75066127e-006
"Sample Interval",2.50000000e-011,s,-7.70000000e-009,2.57819115e-005
"Trigger Point",309,"Samples",-7.67500000e-009,4.54694116e-005
"Trigger Time",3.59692308e-012,s,-7.65000000e-009,6.00006618e-005
"",,,-7.62500000e-009,6.75006618e-005
"Horizontal Offset",-7.72500000e-009,s,-7.60000000e-009,6.93756618e-005
,,,-7.57500000e-009,6.70319118e-005
,,,-7.55000000e-009,6.23444118e-005
,,,-7.52500000e-009,5.71881617e-005
,,,-7.50000000e-009,5.39069117e-005
,,,-7.47500000e-009,5.43756617e-005
,,,-7.45000000e-009,6.00006618e-005
,,,-7.42500000e-009,7.03131619e-005
,,,-7.40000000e-009,8.62506620e-005
,,,-7.37500000e-009,1.05938162e-004
,,,-7.35000000e-009,1.27500662e-004
,,,-7.32500000e-009,1.47656913e-004
,,,-7.30000000e-009,1.64531913e-004
,,,-7.27500000e-009,1.75781913e-004
,,,-7.25000000e-009,1.80000663e-004
,,,-7.22500000e-009,1.74844413e-004
,,,-7.20000000e-009,1.63594413e-004
,,,-7.17500000e-009,1.46719413e-004
,,,-7.15000000e-009,1.26563162e-004
,,,-7.12500000e-009,1.05000662e-004
,,,-7.10000000e-009,8.57819120e-005
,,,-7.07500000e-009,6.98444118e-005
,,,-7.05000000e-009,6.00006618e-005
,,,-7.02500000e-009,5.81256617e-005
,,,-7.00000000e-009,6.32819118e-005
,,,-6.97500000e-009,7.59381619e-005
,,,-6.95000000e-009,9.37506621e-005
,,,-6.92500000e-009,1.14844412e-004
,,,-6.90000000e-009,1.37813162e-004
,,,-6.87500000e-009,1.59844413e-004
,,,-6.85000000e-009,1.80000663e-004
,,,-6.82500000e-009,1.94531913e-004
,,,-6.80000000e-009,2.04375663e-004
,,,-6.77500000e-009,2.09063163e-004
,,,-6.75000000e-009,2.09063163e-004
,,,-6.72500000e-009,2.04844413e-004
,,,-6.70000000e-009,1.98281913e-004
,,,-6.67500000e-009,1.89375663e-004
,,,-6.65000000e-009,1.80000663e-004
,,,-6.62500000e-009,1.70625663e-004
,,,-6.60000000e-009,1.63125663e-004
,,,-6.57500000e-009,1.57969413e-004
,,,-6.55000000e-009,1.56094413e-004
,,,-6.52500000e-009,1.57500663e-004
,,,-6.50000000e-009,1.62188163e-004
,,,-6.47500000e-009,1.69688163e-004
,,,-6.45000000e-009,1.80000663e-004
,,,-6.42500000e-009,1.91250663e-004
,,,-6.40000000e-009,2.04375663e-004
,,,-6.37500000e-009,2.19375663e-004
,,,-6.35000000e-009,2.35313163e-004
,,,-6.32500000e-009,2.51719413e-004
,,,-6.30000000e-009,2.68125664e-004
,,,-6.27500000e-009,2.84531914e-004
,,,-6.25000000e-009,3.00000664e-004
,,,-6.22500000e-009,3.11719414e-004
,,,-6.20000000e-009,3.20625664e-004
,,,-6.17500000e-009,3.26719414e-004
,,,-6.15000000e-009,3.29063164e-004
,,,-6.12500000e-009,3.27188164e-004
,,,-6.10000000e-009,3.22031914e-004
,,,-6.07500000e-009,3.12656914e-004
,,,-6.05000000e-009,3.00000664e-004
,,,-6.02500000e-009,2.81719414e-004
,,,-6.00000000e-009,2.62031914e-004
,,,-5.97500000e-009,2.41875663e-004
,,,-5.95000000e-009,2.23125663e-004
,,,-5.92500000e-009,2.06719413e-004
,,,-5.90000000e-009,1.93594413e-004
,,,-5.87500000e-009,1.84688163e-004
,,,-5.85000000e-009,1.80000663e-004
,,,-5.82500000e-009,1.78125663e-004
,,,-5.80000000e-009,1.79531913e-004
,,,-5.77500000e-009,1.83281913e-004
,,,-5.75000000e-009,1.87031913e-004
,,,-5.72500000e-009,1.89844413e-004
,,,-5.70000000e-009,1.90313163e-004
,,,-5.67500000e-009,1.87031913e-004
,,,-5.65000000e-009,1.80000663e-004
,,,-5.62500000e-009,1.66875663e-004
,,,-5.60000000e-009,1.50000663e-004
,,,-5.57500000e-009,1.30781912e-004
,,,-5.55000000e-009,1.11094412e-004
,,,-5.52500000e-009,9.28131620e-005
,,,-5.50000000e-009,7.73444119e-005
,,,-5.47500000e-009,6.60944118e-005
,,,-5.45000000e-009,6.00006618e-005
,,,-5.42500000e-009,5.85944117e-005
,,,-5.40000000e-009,6.09381618e-005
,,,-5.37500000e-009,6.60944118e-005
,,,-5.35000000e-009,7.17194119e-005
,,,-5.32500000e-009,7.54694119e-005
,,,-5.30000000e-009,7.54694119e-005
,,,-5.27500000e-009,7.03131619e-005
,,,-5.25000000e-009,6.00006618e-005
,,,-5.22500000e-009,4.31256616e-005
,,,-5.20000000e-009,2.20319114e-005
,,,-5.17500000e-009,-1.40558877e-006
,,,-5.15000000e-009,-2.43743390e-005
,,,-5.12500000e-009,-4.40618391e-005
,,,-5.10000000e-009,-5.81243393e-005
,,,-5.07500000e-009,-6.37493393e-005
,,,-5.05000000e-009,-5.99993393e-005
,,,-5.02500000e-009,-4.64055892e-005
,,,-5.00000000e-009,-2.57805890e-005
,,,-4.97500000e-009,-1.40558877e-006
,,,-4.95000000e-009,2.34381614e-005
,,,-4.92500000e-009,4.50006616e-005
,,,-4.90000000e-009,6.00006618e-005
,,,-4.87500000e-009,6.56256618e-005
,,,-4.85000000e-009,6.00006618e-005
,,,-4.82500000e-009,4.17194116e-005
,,,-4.80000000e-009,1.31256614e-005
,,,-4.77500000e-009,-2.29680890e-005
,,,-4.75000000e-009,-6.28118393e-005
,,,-4.72500000e-009,-1.02186840e-004
,,,-4.70000000e-009,-1.37343090e-004
,,,-4.67500000e-009,-1.64061840e-004
,,,-4.65000000e-009,-1.79999340e-004
,,,-4.62500000e-009,-1.84218090e-004
,,,-4.60000000e-009,-1.76718090e-004
,,,-4.57500000e-009,-1.60780590e-004
,,,-4.55000000e-009,-1.38749340e-004
,,,-4.52500000e-009,-1.13905590e-004
,,,-4.50000000e-009,-9.04680895e-005
,,,-4.47500000e-009,-7.17180894e-005
,,,-4.45000000e-009,-5.99993393e-005
,,,-4.42500000e-009,-5.85930893e-005
,,,-4.40000000e-009,-6.65618393e-005
,,,-4.37500000e-009,-8.20305895e-005
,,,-4.35000000e-009,-1.03124340e-004
,,,-4.32500000e-009,-1.27030590e-004
,,,-4.30000000e-009,-1.49530590e-004
,,,-4.27500000e-009,-1.68280590e-004
,,,-4.25000000e-009,-1.79999340e-004
,,,-4.22500000e-009,-1.83749340e-004
,,,-4.20000000e-009,-1.78593090e-004
,,,-4.17500000e-009,-1.65936840e-004
,,,-4.15000000e-009,-1.47186840e-004
,,,-4.12500000e-009,-1.24218090e-004
,,,-4.10000000e-009,-1.00780590e-004
,,,-4.07500000e-009,-7.82805894e-005
,,,-4.05000000e-009,-5.99993393e-005
,,,-4.02500000e-009,-4.87493392e-005
,,,-4.00000000e-009,-4.54680892e-005
,,,-3.97500000e-009,-5.06243392e-005
,,,-3.95000000e-009,-6.37493393e-005
,,,-3.92500000e-009,-8.48430895e-005
,,,-3.90000000e-009,-1.12030590e-004
,,,-3.87500000e-009,-1.44374340e-004
,,,-3.85000000e-009,-1.79999340e-004
,,,-3.82500000e-009,-2.16093091e-004
,,,-3.80000000e-009,-2.52186841e-004
,,,-3.77500000e-009,-2.86874341e-004
,,,-3.75000000e-009,-3.19686842e-004
,,,-3.72500000e-009,-3.49686842e-004
,,,-3.70000000e-009,-3.76874342e-004
,,,-3.67500000e-009,-4.00311842e-004
,,,-3.65000000e-009,-4.19999342e-004
,,,-3.62500000e-009,-4.33124343e-004
,,,-3.60000000e-009,-4.41561843e-004
,,,-3.57500000e-009,-4.45780593e-004
,,,-3.55000000e-009,-4.46718093e-004
,,,-3.52500000e-009,-4.43905593e-004
,,,-3.50000000e-009,-4.38749343e-004
,,,-3.47500000e-009,-4.30311843e-004
,,,-3.45000000e-009,-4.19999342e-004
,,,-3.42500000e-009,-4.04061842e-004
,,,-3.40000000e-009,-3.87186842e-004
,,,-3.37500000e-009,-3.69843092e-004
,,,-3.35000000e-009,-3.53436842e-004
,,,-3.32500000e-009,-3.37968092e-004
,,,-3.30000000e-009,-3.23905592e-004
,,,-3.27500000e-009,-3.11249341e-004
,,,-3.25000000e-009,-2.99999341e-004
,,,-3.22500000e-009,-2.88280591e-004
,,,-3.20000000e-009,-2.77030591e-004
,,,-3.17500000e-009,-2.65311841e-004
,,,-3.15000000e-009,-2.52655591e-004
,,,-3.12500000e-009,-2.38124341e-004
,,,-3.10000000e-009,-2.21249341e-004
,,,-3.07500000e-009,-2.02030591e-004
,,,-3.05000000e-009,-1.79999340e-004
,,,-3.02500000e-009,-1.57499340e-004
,,,-3.00000000e-009,-1.34530590e-004
,,,-2.97500000e-009,-1.12968090e-004
,,,-2.95000000e-009,-9.37493396e-005
,,,-2.92500000e-009,-7.82805894e-005
,,,-2.90000000e-009,-6.70305893e-005
,,,-2.87500000e-009,-6.09368393e-005
,,,-2.85000000e-009,-5.99993393e-005
,,,-2.82500000e-009,-6.56243393e-005
,,,-2.80000000e-009,-7.40618394e-005
,,,-2.77500000e-009,-8.34368395e-005
,,,-2.75000000e-009,-9.04680895e-005
,,,-2.72500000e-009,-9.37493396e-005
,,,-2.70000000e-009,-9.09368396e-005
,,,-2.67500000e-009,-7.96868395e-005
,,,-2.65000000e-009,-5.99993393e-005
,,,-2.62500000e-009,-3.51555891e-005
,,,-2.60000000e-009,-3.28058879e-006
,,,-2.57500000e-009,3.32819115e-005
,,,-2.55000000e-009,7.17194119e-005
,,,-2.52500000e-009,1.08750662e-004
,,,-2.50000000e-009,1.41094412e-004
,,,-2.47500000e-009,1.65469413e-004
,,,-2.45000000e-009,1.80000663e-004
,,,-2.42500000e-009,1.77656913e-004
,,,-2.40000000e-009,1.64063163e-004
,,,-2.37500000e-009,1.40156912e-004
,,,-2.35000000e-009,1.07813162e-004
,,,-2.32500000e-009,6.89069118e-005
,,,-2.30000000e-009,2.67194115e-005
,,,-2.27500000e-009,-1.73430889e-005
,,,-2.25000000e-009,-5.99993393e-005
,,,-2.22500000e-009,-1.03124340e-004
,,,-2.20000000e-009,-1.41561840e-004
,,,-2.17500000e-009,-1.75780590e-004
,,,-2.15000000e-009,-2.05780591e-004
,,,-2.12500000e-009,-2.32499341e-004
,,,-2.10000000e-009,-2.56405591e-004
,,,-2.07500000e-009,-2.78436841e-004
,,,-2.05000000e-009,-2.99999341e-004
,,,-2.02500000e-009,-3.21561842e-004
,,,-2.00000000e-009,-3.42655592e-004
,,,-1.97500000e-009,-3.62343092e-004
,,,-1.95000000e-009,-3.81093092e-004
,,,-1.92500000e-009,-3.97030592e-004
,,,-1.90000000e-009,-4.09686842e-004
,,,-1.87500000e-009,-4.17655592e-004
,,,-1.85000000e-009,-4.19999342e-004
,,,-1.82500000e-009,-4.15311842e-004
,,,-1.80000000e-009,-4.05468092e-004
,,,-1.77500000e-009,-3.91405592e-004
,,,-1.75000000e-009,-3.74530592e-004
,,,-1.72500000e-009,-3.55311842e-004
,,,-1.70000000e-009,-3.36093092e-004
,,,-1.67500000e-009,-3.16874342e-004
,,,-1.65000000e-009,-2.99999341e-004
,,,-1.62500000e-009,-2.87811841e-004
,,,-1.60000000e-009,-2.79843091e-004
,,,-1.57500000e-009,-2.76093091e-004
,,,-1.55000000e-009,-2.76093091e-004
,,,-1.52500000e-009,-2.79374341e-004
,,,-1.50000000e-009,-2.84999341e-004
,,,-1.47500000e-009,-2.92030591e-004
,,,-1.45000000e-009,-2.99999341e-004
,,,-1.42500000e-009,-3.13124341e-004
,,,-1.40000000e-009,-3.28124342e-004
,,,-1.37500000e-009,-3.44061842e-004
,,,-1.35000000e-009,-3.60936842e-004
,,,-1.32500000e-009,-3.77343092e-004
,,,-1.30000000e-009,-3.93280592e-004
,,,-1.27500000e-009,-4.07811842e-004
,,,-1.25000000e-009,-4.19999342e-004
,,,-1.22500000e-009,-4.39686843e-004
,,,-1.20000000e-009,-4.57030593e-004
,,,-1.17500000e-009,-4.70624343e-004
,,,-1.15000000e-009,-4.78124343e-004
,,,-1.12500000e-009,-4.78124343e-004
,,,-1.10000000e-009,-4.68280593e-004
,,,-1.07500000e-009,-4.49061843e-004
,,,-1.05000000e-009,-4.19999342e-004
,,,-1.02500000e-009,-4.03593092e-004
,,,-1.00000000e-009,-3.84843092e-004
,,,-9.75000000e-010,-3.65155592e-004
,,,-9.50000000e-010,-3.45936842e-004
,,,-9.25000000e-010,-3.28593092e-004
,,,-9.00000000e-010,-3.13593091e-004
,,,-8.75000000e-010,-3.03749341e-004
,,,-8.50000000e-010,-2.99999341e-004
,,,-8.25000000e-010,-3.37499342e-004
,,,-8.00000000e-010,-3.88593092e-004
,,,-7.75000000e-010,-4.49530593e-004
,,,-7.50000000e-010,-5.17499343e-004
,,,-7.25000000e-010,-5.87343094e-004
,,,-7.00000000e-010,-6.55780594e-004
,,,-6.75000000e-010,-7.20468095e-004
,,,-6.50000000e-010,-7.79999346e-004
,,,-6.25000000e-010,-8.69999346e-004
,,,-6.00000000e-010,-9.61405597e-004
,,,-5.75000000e-010,-1.05281185e-003
,,,-5.50000000e-010,-1.14328060e-003
,,,-5.25000000e-010,-1.23281185e-003
,,,-5.00000000e-010,-1.32140560e-003
,,,-4.75000000e-010,-1.40953060e-003
,,,-4.50000000e-010,-1.49999935e-003
,,,-4.25000000e-010,-1.62890560e-003
,,,-4.00000000e-010,-1.76859310e-003
,,,-3.75000000e-010,-1.91718686e-003
,,,-3.50000000e-010,-2.07140561e-003
,,,-3.25000000e-010,-2.22890561e-003
,,,-3.00000000e-010,-2.38687436e-003
,,,-2.75000000e-010,-2.54343686e-003
,,,-2.50000000e-010,-2.69999936e-003
,,,-2.25000000e-010,-2.88140561e-003
,,,-2.00000000e-010,-3.07218687e-003
,,,-1.75000000e-010,-3.27468687e-003
,,,-1.50000000e-010,-3.49031187e-003
,,,-1.25000000e-010,-3.71999937e-003
,,,-1.00000000e-010,-3.96468687e-003
,,,-7.50000000e-011,-4.22484313e-003
,,,-5.00000000e-011,-4.49999938e-003
,,,-2.50000000e-011,-4.79109313e-003
,,,0.00000000e+000,-5.09578063e-003
,,,2.50000000e-011,-5.40984314e-003
,,,5.00000000e-011,-5.72671814e-003
,,,7.50000000e-011,-6.04031189e-003
,,,1.00000000e-010,-6.34406189e-003
,,,1.25000000e-010,-6.63187440e-003
,,,1.50000000e-010,-6.89999940e-003
,,,1.75000000e-010,-7.12078065e-003
,,,2.00000000e-010,-7.32468690e-003
,,,2.25000000e-010,-7.51828065e-003
,,,2.50000000e-010,-7.70484316e-003
,,,2.75000000e-010,-7.88906191e-003
,,,3.00000000e-010,-8.07515566e-003
,,,3.25000000e-010,-8.26499941e-003
,,,3.50000000e-010,-8.45999941e-003
,,,3.75000000e-010,-8.61187441e-003
,,,4.00000000e-010,-8.77078066e-003
,,,4.25000000e-010,-8.93437442e-003
,,,4.50000000e-010,-9.09984317e-003
,,,4.75000000e-010,-9.26156192e-003
,,,5.00000000e-010,-9.41343692e-003
,,,5.25000000e-010,-9.54796817e-003
,,,5.50000000e-010,-9.65999942e-003
,,,5.75000000e-010,-9.68296817e-003
,,,6.00000000e-010,-9.68249942e-003
,,,6.25000000e-010,-9.66234317e-003
,,,6.50000000e-010,-9.62765567e-003
,,,6.75000000e-010,-9.58218692e-003
,,,7.00000000e-010,-9.53109317e-003
,,,7.25000000e-010,-9.47624942e-003
,,,7.50000000e-010,-9.41999942e-003
,,,7.75000000e-010,-9.30468692e-003
,,,8.00000000e-010,-9.19312442e-003
,,,8.25000000e-010,-9.08671817e-003
,,,8.50000000e-010,-8.98593692e-003
,,,8.75000000e-010,-8.88843692e-003
,,,9.00000000e-010,-8.79140567e-003
,,,9.25000000e-010,-8.68968691e-003
,,,9.50000000e-010,-8.57999941e-003
,,,9.75000000e-010,-8.41078066e-003
,,,1.00000000e-009,-8.23031191e-003
,,,1.02500000e-009,-8.03999941e-003
,,,1.05000000e-009,-7.84218691e-003
,,,1.07500000e-009,-7.63921816e-003
,,,1.10000000e-009,-7.43343690e-003
,,,1.12500000e-009,-7.22718690e-003
,,,1.15000000e-009,-7.01999940e-003
,,,1.17500000e-009,-6.78843690e-003
,,,1.20000000e-009,-6.55593690e-003
,,,1.22500000e-009,-6.32531189e-003
,,,1.25000000e-009,-6.09656189e-003
,,,1.27500000e-009,-5.87156189e-003
,,,1.30000000e-009,-5.65031189e-003
,,,1.32500000e-009,-5.43328064e-003
,,,1.35000000e-009,-5.21999938e-003
,,,1.37500000e-009,-5.00812438e-003
,,,1.40000000e-009,-4.79718688e-003
,,,1.42500000e-009,-4.58859313e-003
,,,1.45000000e-009,-4.38421813e-003
,,,1.47500000e-009,-4.18734313e-003
,,,1.50000000e-009,-3.99984312e-003
,,,1.52500000e-009,-3.82359312e-003
,,,1.55000000e-009,-3.65999937e-003
,,,1.57500000e-009,-3.52499937e-003
,,,1.60000000e-009,-3.39562437e-003
,,,1.62500000e-009,-3.27093687e-003
,,,1.65000000e-009,-3.14999937e-003
,,,1.67500000e-009,-3.03187437e-003
,,,1.70000000e-009,-2.91796811e-003
,,,1.72500000e-009,-2.80734311e-003
,,,1.75000000e-009,-2.69999936e-003
,,,1.77500000e-009,-2.61937436e-003
,,,1.80000000e-009,-2.53406186e-003
,,,1.82500000e-009,-2.44406186e-003
,,,1.85000000e-009,-2.35031186e-003
,,,1.87500000e-009,-2.25421811e-003
,,,1.90000000e-009,-2.15906186e-003
,,,1.92500000e-009,-2.06671811e-003
,,,1.95000000e-009,-1.97999936e-003
,,,1.97500000e-009,-1.92656186e-003
,,,2.00000000e-009,-1.87453061e-003
,,,2.02500000e-009,-1.82343685e-003
,,,2.05000000e-009,-1.77421810e-003
,,,2.07500000e-009,-1.72781185e-003
,,,2.10000000e-009,-1.68609310e-003
,,,2.12500000e-009,-1.64953060e-003
,,,2.15000000e-009,-1.61999935e-003
,,,2.17500000e-009,-1.61999935e-003
,,,2.20000000e-009,-1.62046810e-003
,,,2.22500000e-009,-1.62046810e-003
,,,2.25000000e-009,-1.61953060e-003
,,,2.27500000e-009,-1.61859310e-003
,,,2.30000000e-009,-1.61765560e-003
,,,2.32500000e-009,-1.61765560e-003
,,,2.35000000e-009,-1.61999935e-003
,,,2.37500000e-009,-1.64015560e-003
,,,2.40000000e-009,-1.65843685e-003
,,,2.42500000e-009,-1.67437435e-003
,,,2.45000000e-009,-1.68843685e-003
,,,2.47500000e-009,-1.70156185e-003
,,,2.50000000e-009,-1.71374935e-003
,,,2.52500000e-009,-1.72640560e-003
,,,2.55000000e-009,-1.73999935e-003
,,,2.57500000e-009,-1.76203060e-003
,,,2.60000000e-009,-1.78265560e-003
,,,2.62500000e-009,-1.80093685e-003
,,,2.65000000e-009,-1.81687435e-003
,,,2.67500000e-009,-1.83093685e-003
,,,2.70000000e-009,-1.84265560e-003
,,,2.72500000e-009,-1.85249935e-003
,,,2.75000000e-009,-1.85999935e-003
,,,2.77500000e-009,-1.86749935e-003
,,,2.80000000e-009,-1.87171811e-003
,,,2.82500000e-009,-1.87265561e-003
,,,2.85000000e-009,-1.87171811e-003
,,,2.87500000e-009,-1.86937436e-003
,,,2.90000000e-009,-1.86609310e-003
,,,2.92500000e-009,-1.86281185e-003
,,,2.95000000e-009,-1.85999935e-003
,,,2.97500000e-009,-1.85624935e-003
,,,3.00000000e-009,-1.85249935e-003
,,,3.02500000e-009,-1.85015560e-003
,,,3.05000000e-009,-1.84921810e-003
,,,3.07500000e-009,-1.85015560e-003
,,,3.10000000e-009,-1.85203060e-003
,,,3.12500000e-009,-1.85578060e-003
,,,3.15000000e-009,-1.85999935e-003
,,,3.17500000e-009,-1.86046810e-003
,,,3.20000000e-009,-1.86093685e-003
,,,3.22500000e-009,-1.86140560e-003
,,,3.25000000e-009,-1.86187435e-003
,,,3.27500000e-009,-1.86187435e-003
,,,3.30000000e-009,-1.86187435e-003
,,,3.32500000e-009,-1.86140560e-003
,,,3.35000000e-009,-1.85999935e-003
,,,3.37500000e-009,-1.85109310e-003
,,,3.40000000e-009,-1.83937435e-003
,,,3.42500000e-009,-1.82624935e-003
,,,3.45000000e-009,-1.81124935e-003
,,,3.47500000e-009,-1.79531185e-003
,,,3.50000000e-009,-1.77796810e-003
,,,3.52500000e-009,-1.75968685e-003
,,,3.55000000e-009,-1.73999935e-003
,,,3.57500000e-009,-1.71468685e-003
,,,3.60000000e-009,-1.68703060e-003
,,,3.62500000e-009,-1.65796810e-003
,,,3.65000000e-009,-1.62796810e-003
,,,3.67500000e-009,-1.59656185e-003
,,,3.70000000e-009,-1.56468685e-003
,,,3.72500000e-009,-1.53234310e-003
,,,3.75000000e-009,-1.49999935e-003
,,,3.77500000e-009,-1.46390560e-003
,,,3.80000000e-009,-1.42781185e-003
,,,3.82500000e-009,-1.39265560e-003
,,,3.85000000e-009,-1.35984310e-003
,,,3.87500000e-009,-1.32937435e-003
,,,3.90000000e-009,-1.30265560e-003
,,,3.92500000e-009,-1.27968685e-003
,,,3.95000000e-009,-1.25999935e-003
,,,3.97500000e-009,-1.24171810e-003
,,,4.00000000e-009,-1.22343685e-003
,,,4.02500000e-009,-1.20234310e-003
,,,4.05000000e-009,-1.17796810e-003
,,,4.07500000e-009,-1.14843685e-003
,,,4.10000000e-009,-1.11234310e-003
,,,4.12500000e-009,-1.06968685e-003
,,,4.15000000e-009,-1.01999935e-003
,,,4.17500000e-009,-9.65624347e-004
,,,4.20000000e-009,-9.07499347e-004
,,,4.22500000e-009,-8.48436846e-004
,,,4.25000000e-009,-7.92186846e-004
,,,4.27500000e-009,-7.42499345e-004
,,,4.30000000e-009,-7.02655595e-004
,,,4.32500000e-009,-6.74999345e-004
,,,4.35000000e-009,-6.59999344e-004
,,,4.37500000e-009,-6.60936845e-004
,,,4.40000000e-009,-6.69843095e-004
,,,4.42500000e-009,-6.82968095e-004
,,,4.45000000e-009,-6.95155595e-004
,,,4.47500000e-009,-7.02655595e-004
,,,4.50000000e-009,-7.01249345e-004
,,,4.52500000e-009,-6.87655595e-004
,,,4.55000000e-009,-6.59999344e-004
,,,4.57500000e-009,-6.22030594e-004
,,,4.60000000e-009,-5.71874344e-004
,,,4.62500000e-009,-5.13749343e-004
,,,4.65000000e-009,-4.53280593e-004
,,,4.67500000e-009,-3.96093092e-004
,,,4.70000000e-009,-3.48749342e-004
,,,4.72500000e-009,-3.15468092e-004
,,,4.75000000e-009,-2.99999341e-004
,,,4.77500000e-009,-3.07968091e-004
,,,4.80000000e-009,-3.31405592e-004
,,,4.82500000e-009,-3.67499342e-004
,,,4.85000000e-009,-4.10155592e-004
,,,4.87500000e-009,-4.54218093e-004
,,,4.90000000e-009,-4.93593093e-004
,,,4.92500000e-009,-5.23593093e-004
,,,4.95000000e-009,-5.39999343e-004
,,,4.97500000e-009,-5.42343093e-004
,,,5.00000000e-009,-5.28280593e-004
,,,5.02500000e-009,-4.99218093e-004
,,,5.05000000e-009,-4.59843093e-004
,,,5.07500000e-009,-4.14843092e-004
,,,5.10000000e-009,-3.69843092e-004
,,,5.12500000e-009,-3.30468092e-004
,,,5.15000000e-009,-2.99999341e-004
,,,5.17500000e-009,-2.86405591e-004
,,,5.20000000e-009,-2.84999341e-004
,,,5.22500000e-009,-2.95780591e-004
,,,5.25000000e-009,-3.15936842e-004
,,,5.27500000e-009,-3.42655592e-004
,,,5.30000000e-009,-3.71249342e-004
,,,5.32500000e-009,-3.98436842e-004
,,,5.35000000e-009,-4.19999342e-004
,,,5.37500000e-009,-4.34061843e-004
,,,5.40000000e-009,-4.37811843e-004
,,,5.42500000e-009,-4.30780593e-004
,,,5.45000000e-009,-4.15311842e-004
,,,5.47500000e-009,-3.91874342e-004
,,,5.50000000e-009,-3.63280592e-004
,,,5.52500000e-009,-3.31874342e-004
,,,5.55000000e-009,-2.99999341e-004
,,,5.57500000e-009,-2.71874341e-004
,,,5.60000000e-009,-2.47030591e-004
,,,5.62500000e-009,-2.26405591e-004
,,,5.65000000e-009,-2.09530591e-004
,,,5.67500000e-009,-1.96874340e-004
,,,5.70000000e-009,-1.87968090e-004
,,,5.72500000e-009,-1.82343090e-004
,,,5.75000000e-009,-1.79999340e-004
,,,5.77500000e-009,-1.80936840e-004
,,,5.80000000e-009,-1.85155590e-004
,,,5.82500000e-009,-1.92655590e-004
,,,5.85000000e-009,-2.04374341e-004
,,,5.87500000e-009,-2.21249341e-004
,,,5.90000000e-009,-2.42811841e-004
