RawData/SinglePhotoelectron/L7_2pt2A_5mV/wave013_Ch1.csv

"Record Length",1000,"Points",-7.72500000e-009,-7.92180894e-005
"Sample Interval",2.50000000e-011,s,-7.70000000e-009,-9.89055896e-005
"Trigger Point",309,"Samples",-7.67500000e-009,-1.17186840e-004
"Trigger Time",1.91576936e-011,s,-7.65000000e-009,-1.34530590e-004
"",,,-7.62500000e-009,-1.49530590e-004
"Horizontal Offset",-7.72500000e-009,s,-7.60000000e-009,-1.62655590e-004
,,,-7.57500000e-009,-1.72499340e-004
,,,-7.55000000e-009,-1.79999340e-004
,,,-7.52500000e-009,-1.84218090e-004
,,,-7.50000000e-009,-1.85624340e-004
,,,-7.47500000e-009,-1.84686840e-004
,,,-7.45000000e-009,-1.83280590e-004
,,,-7.42500000e-009,-1.81405590e-004
,,,-7.40000000e-009,-1.79999340e-004
,,,-7.37500000e-009,-1.79530590e-004
,,,-7.35000000e-009,-1.79999340e-004
,,,-7.32500000e-009,-1.79530590e-004
,,,-7.30000000e-009,-1.79999340e-004
,,,-7.27500000e-009,-1.81405590e-004
,,,-7.25000000e-009,-1.82811840e-004
,,,-7.22500000e-009,-1.83749340e-004
,,,-7.20000000e-009,-1.84218090e-004
,,,-7.17500000e-009,-1.83280590e-004
,,,-7.15000000e-009,-1.79999340e-004
,,,-7.12500000e-009,-1.72968090e-004
,,,-7.10000000e-009,-1.62655590e-004
,,,-7.07500000e-009,-1.49999340e-004
,,,-7.05000000e-009,-1.34530590e-004
,,,-7.02500000e-009,-1.17186840e-004
,,,-7.00000000e-009,-9.89055896e-005
,,,-6.97500000e-009,-7.96868395e-005
,,,-6.95000000e-009,-5.99993393e-005
,,,-6.92500000e-009,-4.03118391e-005
,,,-6.90000000e-009,-2.15618389e-005
,,,-6.87500000e-009,-4.21808880e-006
,,,-6.85000000e-009,1.17194113e-005
,,,-6.82500000e-009,2.57819115e-005
,,,-6.80000000e-009,3.79694116e-005
,,,-6.77500000e-009,4.92194117e-005
,,,-6.75000000e-009,6.00006618e-005
,,,-6.72500000e-009,6.89069118e-005
,,,-6.70000000e-009,7.82819119e-005
,,,-6.67500000e-009,8.85944120e-005
,,,-6.65000000e-009,1.01250662e-004
,,,-6.62500000e-009,1.16250662e-004
,,,-6.60000000e-009,1.34531912e-004
,,,-6.57500000e-009,1.56094413e-004
,,,-6.55000000e-009,1.80000663e-004
,,,-6.52500000e-009,2.03906913e-004
,,,-6.50000000e-009,2.28281913e-004
,,,-6.47500000e-009,2.52188163e-004
,,,-6.45000000e-009,2.72813164e-004
,,,-6.42500000e-009,2.89219414e-004
,,,-6.40000000e-009,3.00000664e-004
,,,-6.37500000e-009,3.03281914e-004
,,,-6.35000000e-009,3.00000664e-004
,,,-6.32500000e-009,2.86406914e-004
,,,-6.30000000e-009,2.68125664e-004
,,,-6.27500000e-009,2.47031913e-004
,,,-6.25000000e-009,2.25938163e-004
,,,-6.22500000e-009,2.06719413e-004
,,,-6.20000000e-009,1.91719413e-004
,,,-6.17500000e-009,1.82344413e-004
,,,-6.15000000e-009,1.80000663e-004
,,,-6.12500000e-009,1.82344413e-004
,,,-6.10000000e-009,1.89375663e-004
,,,-6.07500000e-009,1.99219413e-004
,,,-6.05000000e-009,2.08594413e-004
,,,-6.02500000e-009,2.13750663e-004
,,,-6.00000000e-009,2.11875663e-004
,,,-5.97500000e-009,2.01094413e-004
,,,-5.95000000e-009,1.80000663e-004
,,,-5.92500000e-009,1.48594413e-004
,,,-5.90000000e-009,1.10156912e-004
,,,-5.87500000e-009,6.84381618e-005
,,,-5.85000000e-009,2.67194115e-005
,,,-5.82500000e-009,-1.07805889e-005
,,,-5.80000000e-009,-3.98430891e-005
,,,-5.77500000e-009,-5.67180893e-005
,,,-5.75000000e-009,-5.99993393e-005
,,,-5.72500000e-009,-4.64055892e-005
,,,-5.70000000e-009,-2.01555889e-005
,,,-5.67500000e-009,1.59381614e-005
,,,-5.65000000e-009,5.71881617e-005
,,,-5.62500000e-009,9.89069121e-005
,,,-5.60000000e-009,1.35469412e-004
,,,-5.57500000e-009,1.63594413e-004
,,,-5.55000000e-009,1.80000663e-004
,,,-5.52500000e-009,1.83281913e-004
,,,-5.50000000e-009,1.74844413e-004
,,,-5.47500000e-009,1.56094413e-004
,,,-5.45000000e-009,1.31719412e-004
,,,-5.42500000e-009,1.05469412e-004
,,,-5.40000000e-009,8.20319120e-005
,,,-5.37500000e-009,6.56256618e-005
,,,-5.35000000e-009,6.00006618e-005
,,,-5.32500000e-009,6.75006618e-005
,,,-5.30000000e-009,8.71881620e-005
,,,-5.27500000e-009,1.16719412e-004
,,,-5.25000000e-009,1.53750663e-004
,,,-5.22500000e-009,1.94063163e-004
,,,-5.20000000e-009,2.34375663e-004
,,,-5.17500000e-009,2.70469414e-004
,,,-5.15000000e-009,3.00000664e-004
,,,-5.12500000e-009,3.18750664e-004
,,,-5.10000000e-009,3.27656914e-004
,,,-5.07500000e-009,3.29063164e-004
,,,-5.05000000e-009,3.23906914e-004
,,,-5.02500000e-009,3.15469414e-004
,,,-5.00000000e-009,3.06563164e-004
,,,-4.97500000e-009,3.00938164e-004
,,,-4.95000000e-009,3.00000664e-004
,,,-4.92500000e-009,3.03750664e-004
,,,-4.90000000e-009,3.14531914e-004
,,,-4.87500000e-009,3.30469414e-004
,,,-4.85000000e-009,3.50156914e-004
,,,-4.82500000e-009,3.71719414e-004
,,,-4.80000000e-009,3.91875665e-004
,,,-4.77500000e-009,4.08750665e-004
,,,-4.75000000e-009,4.20000665e-004
,,,-4.72500000e-009,4.20938165e-004
,,,-4.70000000e-009,4.14844415e-004
,,,-4.67500000e-009,4.03125665e-004
,,,-4.65000000e-009,3.85781915e-004
,,,-4.62500000e-009,3.65156914e-004
,,,-4.60000000e-009,3.43125664e-004
,,,-4.57500000e-009,3.20625664e-004
,,,-4.55000000e-009,3.00000664e-004
,,,-4.52500000e-009,2.79844414e-004
,,,-4.50000000e-009,2.62969414e-004
,,,-4.47500000e-009,2.48438163e-004
,,,-4.45000000e-009,2.35781913e-004
,,,-4.42500000e-009,2.23594413e-004
,,,-4.40000000e-009,2.10469413e-004
,,,-4.37500000e-009,1.96406913e-004
,,,-4.35000000e-009,1.80000663e-004
,,,-4.32500000e-009,1.60781913e-004
,,,-4.30000000e-009,1.40625662e-004
,,,-4.27500000e-009,1.20469412e-004
,,,-4.25000000e-009,1.00781912e-004
,,,-4.22500000e-009,8.39069120e-005
,,,-4.20000000e-009,7.07819119e-005
,,,-4.17500000e-009,6.23444118e-005
,,,-4.15000000e-009,6.00006618e-005
,,,-4.12500000e-009,6.46881618e-005
,,,-4.10000000e-009,7.54694119e-005
,,,-4.07500000e-009,9.00006620e-005
,,,-4.05000000e-009,1.08281912e-004
,,,-4.02500000e-009,1.27500662e-004
,,,-4.00000000e-009,1.47188163e-004
,,,-3.97500000e-009,1.65000663e-004
,,,-3.95000000e-009,1.80000663e-004
,,,-3.92500000e-009,1.90781913e-004
,,,-3.90000000e-009,1.97344413e-004
,,,-3.87500000e-009,1.99688163e-004
,,,-3.85000000e-009,1.98750663e-004
,,,-3.82500000e-009,1.95000663e-004
,,,-3.80000000e-009,1.89844413e-004
,,,-3.77500000e-009,1.84688163e-004
,,,-3.75000000e-009,1.80000663e-004
,,,-3.72500000e-009,1.76719413e-004
,,,-3.70000000e-009,1.74844413e-004
,,,-3.67500000e-009,1.73906913e-004
,,,-3.65000000e-009,1.74375663e-004
,,,-3.62500000e-009,1.75781913e-004
,,,-3.60000000e-009,1.77188163e-004
,,,-3.57500000e-009,1.78594413e-004
,,,-3.55000000e-009,1.80000663e-004
,,,-3.52500000e-009,1.80000663e-004
,,,-3.50000000e-009,1.79531913e-004
,,,-3.47500000e-009,1.78594413e-004
,,,-3.45000000e-009,1.77188163e-004
,,,-3.42500000e-009,1.76250663e-004
,,,-3.40000000e-009,1.76250663e-004
,,,-3.37500000e-009,1.77188163e-004
,,,-3.35000000e-009,1.80000663e-004
,,,-3.32500000e-009,1.83750663e-004
,,,-3.30000000e-009,1.88438163e-004
,,,-3.27500000e-009,1.92656913e-004
,,,-3.25000000e-009,1.95938163e-004
,,,-3.22500000e-009,1.97344413e-004
,,,-3.20000000e-009,1.95000663e-004
,,,-3.17500000e-009,1.89375663e-004
,,,-3.15000000e-009,1.80000663e-004
,,,-3.12500000e-009,1.65469413e-004
,,,-3.10000000e-009,1.48125663e-004
,,,-3.07500000e-009,1.29375662e-004
,,,-3.05000000e-009,1.10625662e-004
,,,-3.02500000e-009,9.28131620e-005
,,,-3.00000000e-009,7.82819119e-005
,,,-2.97500000e-009,6.70319118e-005
,,,-2.95000000e-009,6.00006618e-005
,,,-2.92500000e-009,5.76569117e-005
,,,-2.90000000e-009,5.95319118e-005
,,,-2.87500000e-009,6.28131618e-005
,,,-2.85000000e-009,6.70319118e-005
,,,-2.82500000e-009,6.98444118e-005
,,,-2.80000000e-009,7.03131619e-005
,,,-2.77500000e-009,6.70319118e-005
,,,-2.75000000e-009,6.00006618e-005
,,,-2.72500000e-009,5.06256617e-005
,,,-2.70000000e-009,3.98444116e-005
,,,-2.67500000e-009,2.90631615e-005
,,,-2.65000000e-009,2.15631614e-005
,,,-2.62500000e-009,1.87506614e-005
,,,-2.60000000e-009,2.34381614e-005
,,,-2.57500000e-009,3.70319116e-005
,,,-2.55000000e-009,6.00006618e-005
,,,-2.52500000e-009,9.14069120e-005
,,,-2.50000000e-009,1.29375662e-004
,,,-2.47500000e-009,1.70625663e-004
,,,-2.45000000e-009,2.10938163e-004
,,,-2.42500000e-009,2.47500663e-004
,,,-2.40000000e-009,2.76094414e-004
,,,-2.37500000e-009,2.94375664e-004
,,,-2.35000000e-009,3.00000664e-004
,,,-2.32500000e-009,2.90156914e-004
,,,-2.30000000e-009,2.68594414e-004
,,,-2.27500000e-009,2.36719413e-004
,,,-2.25000000e-009,1.98750663e-004
,,,-2.22500000e-009,1.57969413e-004
,,,-2.20000000e-009,1.18594412e-004
,,,-2.17500000e-009,8.48444120e-005
,,,-2.15000000e-009,6.00006618e-005
,,,-2.12500000e-009,4.45319116e-005
,,,-2.10000000e-009,4.07819116e-005
,,,-2.07500000e-009,4.82819117e-005
,,,-2.05000000e-009,6.56256618e-005
,,,-2.02500000e-009,9.00006620e-005
,,,-2.00000000e-009,1.19063162e-004
,,,-1.97500000e-009,1.50000663e-004
,,,-1.95000000e-009,1.80000663e-004
,,,-1.92500000e-009,2.03438163e-004
,,,-1.90000000e-009,2.20781913e-004
,,,-1.87500000e-009,2.30625663e-004
,,,-1.85000000e-009,2.32969413e-004
,,,-1.82500000e-009,2.28281913e-004
,,,-1.80000000e-009,2.16563163e-004
,,,-1.77500000e-009,2.00156913e-004
,,,-1.75000000e-009,1.80000663e-004
,,,-1.72500000e-009,1.53750663e-004
,,,-1.70000000e-009,1.27500662e-004
,,,-1.67500000e-009,1.03125662e-004
,,,-1.65000000e-009,8.29694120e-005
,,,-1.62500000e-009,6.75006618e-005
,,,-1.60000000e-009,5.85944117e-005
,,,-1.57500000e-009,5.62506617e-005
,,,-1.55000000e-009,6.00006618e-005
,,,-1.52500000e-009,6.28131618e-005
,,,-1.50000000e-009,6.84381618e-005
,,,-1.47500000e-009,7.50006619e-005
,,,-1.45000000e-009,8.01569119e-005
,,,-1.42500000e-009,8.25006620e-005
,,,-1.40000000e-009,8.10944119e-005
,,,-1.37500000e-009,7.35944119e-005
,,,-1.35000000e-009,6.00006618e-005
,,,-1.32500000e-009,3.00006615e-005
,,,-1.30000000e-009,-6.56183882e-006
,,,-1.27500000e-009,-4.68743392e-005
,,,-1.25000000e-009,-8.67180895e-005
,,,-1.22500000e-009,-1.23280590e-004
,,,-1.20000000e-009,-1.52343090e-004
,,,-1.17500000e-009,-1.72030590e-004
,,,-1.15000000e-009,-1.79999340e-004
,,,-1.12500000e-009,-1.94061840e-004
,,,-1.10000000e-009,-2.01093091e-004
,,,-1.07500000e-009,-2.02030591e-004
,,,-1.05000000e-009,-1.98280590e-004
,,,-1.02500000e-009,-1.92186840e-004
,,,-1.00000000e-009,-1.85155590e-004
,,,-9.75000000e-010,-1.80468090e-004
,,,-9.50000000e-010,-1.79999340e-004
,,,-9.25000000e-010,-2.11874341e-004
,,,-9.00000000e-010,-2.54530591e-004
,,,-8.75000000e-010,-3.05624341e-004
,,,-8.50000000e-010,-3.59999342e-004
,,,-8.25000000e-010,-4.14374342e-004
,,,-8.00000000e-010,-4.64061843e-004
,,,-7.75000000e-010,-5.06249343e-004
,,,-7.50000000e-010,-5.39999343e-004
,,,-7.25000000e-010,-5.99061844e-004
,,,-7.00000000e-010,-6.57655594e-004
,,,-6.75000000e-010,-7.15311845e-004
,,,-6.50000000e-010,-7.72499345e-004
,,,-6.25000000e-010,-8.29686846e-004
,,,-6.00000000e-010,-8.88280596e-004
,,,-5.75000000e-010,-9.51093097e-004
,,,-5.50000000e-010,-1.01999935e-003
,,,-5.25000000e-010,-1.13437435e-003
,,,-5.00000000e-010,-1.26562435e-003
,,,-4.75000000e-010,-1.41093685e-003
,,,-4.50000000e-010,-1.56703060e-003
,,,-4.25000000e-010,-1.72921810e-003
,,,-4.00000000e-010,-1.89421811e-003
,,,-3.75000000e-010,-2.05828061e-003
,,,-3.50000000e-010,-2.21999936e-003
,,,-3.25000000e-010,-2.40656186e-003
,,,-3.00000000e-010,-2.59640561e-003
,,,-2.75000000e-010,-2.78953061e-003
,,,-2.50000000e-010,-2.98406186e-003
,,,-2.25000000e-010,-3.18046812e-003
,,,-2.00000000e-010,-3.37781187e-003
,,,-1.75000000e-010,-3.57703062e-003
,,,-1.50000000e-010,-3.77999937e-003
,,,-1.25000000e-010,-3.99796812e-003
,,,-1.00000000e-010,-4.22765563e-003
,,,-7.50000000e-011,-4.46953063e-003
,,,-5.00000000e-011,-4.72312438e-003
,,,-2.50000000e-011,-4.98703063e-003
,,,0.00000000e+000,-5.25937438e-003
,,,2.50000000e-011,-5.53781189e-003
,,,5.00000000e-011,-5.81999939e-003
,,,7.50000000e-011,-6.08906189e-003
,,,1.00000000e-010,-6.36234314e-003
,,,1.25000000e-010,-6.63796815e-003
,,,1.50000000e-010,-6.91499940e-003
,,,1.75000000e-010,-7.19015565e-003
,,,2.00000000e-010,-7.46109315e-003
,,,2.25000000e-010,-7.72499941e-003
,,,2.50000000e-010,-7.97999941e-003
,,,2.75000000e-010,-8.18296816e-003
,,,3.00000000e-010,-8.37796816e-003
,,,3.25000000e-010,-8.56687441e-003
,,,3.50000000e-010,-8.75015566e-003
,,,3.75000000e-010,-8.92874942e-003
,,,4.00000000e-010,-9.10078067e-003
,,,4.25000000e-010,-9.26531192e-003
,,,4.50000000e-010,-9.41999942e-003
,,,4.75000000e-010,-9.50624942e-003
,,,5.00000000e-010,-9.58265567e-003
,,,5.25000000e-010,-9.64968692e-003
,,,5.50000000e-010,-9.70593692e-003
,,,5.75000000e-010,-9.74999942e-003
,,,6.00000000e-010,-9.77859317e-003
,,,6.25000000e-010,-9.78984317e-003
,,,6.50000000e-010,-9.77999942e-003
,,,6.75000000e-010,-9.69046817e-003
,,,7.00000000e-010,-9.58453067e-003
,,,7.25000000e-010,-9.46734317e-003
,,,7.50000000e-010,-9.34265567e-003
,,,7.75000000e-010,-9.21374942e-003
,,,8.00000000e-010,-9.08296817e-003
,,,8.25000000e-010,-8.95124942e-003
,,,8.50000000e-010,-8.81999942e-003
,,,8.75000000e-010,-8.64140566e-003
,,,9.00000000e-010,-8.46703066e-003
,,,9.25000000e-010,-8.29734316e-003
,,,9.50000000e-010,-8.13281191e-003
,,,9.75000000e-010,-7.97296816e-003
,,,1.00000000e-009,-7.81499941e-003
,,,1.02500000e-009,-7.65843691e-003
,,,1.05000000e-009,-7.49999940e-003
,,,1.07500000e-009,-7.30828065e-003
,,,1.10000000e-009,-7.11562440e-003
,,,1.12500000e-009,-6.92249940e-003
,,,1.15000000e-009,-6.73312440e-003
,,,1.17500000e-009,-6.55031190e-003
,,,1.20000000e-009,-6.37593689e-003
,,,1.22500000e-009,-6.21234314e-003
,,,1.25000000e-009,-6.05999939e-003
,,,1.27500000e-009,-5.90718689e-003
,,,1.30000000e-009,-5.76140564e-003
,,,1.32500000e-009,-5.62124939e-003
,,,1.35000000e-009,-5.48671814e-003
,,,1.37500000e-009,-5.35640564e-003
,,,1.40000000e-009,-5.22937438e-003
,,,1.42500000e-009,-5.10468688e-003
,,,1.45000000e-009,-4.97999938e-003
,,,1.47500000e-009,-4.85765563e-003
,,,1.50000000e-009,-4.72828063e-003
,,,1.52500000e-009,-4.59187438e-003
,,,1.55000000e-009,-4.45124938e-003
,,,1.57500000e-009,-4.30874938e-003
,,,1.60000000e-009,-4.16765562e-003
,,,1.62500000e-009,-4.03078062e-003
,,,1.65000000e-009,-3.89999937e-003
,,,1.67500000e-009,-3.79031187e-003
,,,1.70000000e-009,-3.68109312e-003
,,,1.72500000e-009,-3.57281187e-003
,,,1.75000000e-009,-3.46593687e-003
,,,1.77500000e-009,-3.36046812e-003
,,,1.80000000e-009,-3.25734312e-003
,,,1.82500000e-009,-3.15703062e-003
,,,1.85000000e-009,-3.05999937e-003
,,,1.87500000e-009,-2.98265561e-003
,,,1.90000000e-009,-2.90062436e-003
,,,1.92500000e-009,-2.81296811e-003
,,,1.95000000e-009,-2.72109311e-003
,,,1.97500000e-009,-2.62593686e-003
,,,2.00000000e-009,-2.52890561e-003
,,,2.02500000e-009,-2.43328061e-003
,,,2.05000000e-009,-2.33999936e-003
,,,2.07500000e-009,-2.27015561e-003
,,,2.10000000e-009,-2.20078061e-003
,,,2.12500000e-009,-2.13234311e-003
,,,2.15000000e-009,-2.06671811e-003
,,,2.17500000e-009,-2.00531186e-003
,,,2.20000000e-009,-1.94953061e-003
,,,2.22500000e-009,-1.90078061e-003
,,,2.25000000e-009,-1.85999935e-003
,,,2.27500000e-009,-1.84406185e-003
,,,2.30000000e-009,-1.83093685e-003
,,,2.32500000e-009,-1.81828060e-003
,,,2.35000000e-009,-1.80562435e-003
,,,2.37500000e-009,-1.79203060e-003
,,,2.40000000e-009,-1.77656185e-003
,,,2.42500000e-009,-1.75921810e-003
,,,2.45000000e-009,-1.73999935e-003
,,,2.47500000e-009,-1.73390560e-003
,,,2.50000000e-009,-1.72265560e-003
,,,2.52500000e-009,-1.70718685e-003
,,,2.55000000e-009,-1.68890560e-003
,,,2.57500000e-009,-1.66874935e-003
,,,2.60000000e-009,-1.64953060e-003
,,,2.62500000e-009,-1.63265560e-003
,,,2.65000000e-009,-1.61999935e-003
,,,2.67500000e-009,-1.62421810e-003
,,,2.70000000e-009,-1.63218685e-003
,,,2.72500000e-009,-1.64343685e-003
,,,2.75000000e-009,-1.65843685e-003
,,,2.77500000e-009,-1.67578060e-003
,,,2.80000000e-009,-1.69593685e-003
,,,2.82500000e-009,-1.71749935e-003
,,,2.85000000e-009,-1.73999935e-003
,,,2.87500000e-009,-1.76906185e-003
,,,2.90000000e-009,-1.79484310e-003
,,,2.92500000e-009,-1.81687435e-003
,,,2.95000000e-009,-1.83468685e-003
,,,2.97500000e-009,-1.84734310e-003
,,,3.00000000e-009,-1.85578060e-003
,,,3.02500000e-009,-1.85953060e-003
,,,3.05000000e-009,-1.85999935e-003
,,,3.07500000e-009,-1.85812435e-003
,,,3.10000000e-009,-1.85390560e-003
,,,3.12500000e-009,-1.84874935e-003
,,,3.15000000e-009,-1.84453060e-003
,,,3.17500000e-009,-1.84218685e-003
,,,3.20000000e-009,-1.84359310e-003
,,,3.22500000e-009,-1.84968685e-003
,,,3.25000000e-009,-1.85999935e-003
,,,3.27500000e-009,-1.87218686e-003
,,,3.30000000e-009,-1.88671811e-003
,,,3.32500000e-009,-1.90359311e-003
,,,3.35000000e-009,-1.92187436e-003
,,,3.37500000e-009,-1.93921811e-003
,,,3.40000000e-009,-1.95562436e-003
,,,3.42500000e-009,-1.96968686e-003
,,,3.45000000e-009,-1.97999936e-003
,,,3.47500000e-009,-1.98187436e-003
,,,3.50000000e-009,-1.97999936e-003
,,,3.52500000e-009,-1.97624936e-003
,,,3.55000000e-009,-1.97156186e-003
,,,3.57500000e-009,-1.96874936e-003
,,,3.60000000e-009,-1.96874936e-003
,,,3.62500000e-009,-1.97249936e-003
,,,3.65000000e-009,-1.97999936e-003
,,,3.67500000e-009,-1.98374936e-003
,,,3.70000000e-009,-1.98890561e-003
,,,3.72500000e-009,-1.99546811e-003
,,,3.75000000e-009,-2.00109311e-003
,,,3.77500000e-009,-2.00437436e-003
,,,3.80000000e-009,-2.00343686e-003
,,,3.82500000e-009,-1.99593686e-003
,,,3.85000000e-009,-1.97999936e-003
,,,3.87500000e-009,-1.94671811e-003
,,,3.90000000e-009,-1.90265561e-003
,,,3.92500000e-009,-1.84874935e-003
,,,3.95000000e-009,-1.78687435e-003
,,,3.97500000e-009,-1.71843685e-003
,,,4.00000000e-009,-1.64624935e-003
,,,4.02500000e-009,-1.57265560e-003
,,,4.05000000e-009,-1.49999935e-003
,,,4.07500000e-009,-1.42828060e-003
,,,4.10000000e-009,-1.36171810e-003
,,,4.12500000e-009,-1.30218685e-003
,,,4.15000000e-009,-1.25109310e-003
,,,4.17500000e-009,-1.20937435e-003
,,,4.20000000e-009,-1.17749935e-003
,,,4.22500000e-009,-1.15453060e-003
,,,4.25000000e-009,-1.13999935e-003
,,,4.27500000e-009,-1.13156185e-003
,,,4.30000000e-009,-1.12546810e-003
,,,4.32500000e-009,-1.11937435e-003
,,,4.35000000e-009,-1.11140560e-003
,,,4.37500000e-009,-1.09921810e-003
,,,4.40000000e-009,-1.08093685e-003
,,,4.42500000e-009,-1.05468685e-003
,,,4.45000000e-009,-1.01999935e-003
,,,4.47500000e-009,-9.78280597e-004
,,,4.50000000e-009,-9.27186847e-004
,,,4.52500000e-009,-8.68124346e-004
,,,4.55000000e-009,-8.03436846e-004
,,,4.57500000e-009,-7.35468095e-004
,,,4.60000000e-009,-6.67030595e-004
,,,4.62500000e-009,-6.00936844e-004
,,,4.65000000e-009,-5.39999343e-004
,,,4.67500000e-009,-4.94061843e-004
,,,4.70000000e-009,-4.56093093e-004
,,,4.72500000e-009,-4.27499342e-004
,,,4.75000000e-009,-4.08749342e-004
,,,4.77500000e-009,-3.99374342e-004
,,,4.80000000e-009,-3.98905592e-004
,,,4.82500000e-009,-4.05936842e-004
,,,4.85000000e-009,-4.19999342e-004
,,,4.87500000e-009,-4.46249343e-004
,,,4.90000000e-009,-4.72499343e-004
,,,4.92500000e-009,-4.96874343e-004
,,,4.95000000e-009,-5.17499343e-004
,,,4.97500000e-009,-5.32499343e-004
,,,5.00000000e-009,-5.41874343e-004
,,,5.02500000e-009,-5.44218093e-004
,,,5.05000000e-009,-5.39999343e-004
,,,5.07500000e-009,-5.33905593e-004
,,,5.10000000e-009,-5.21249343e-004
,,,5.12500000e-009,-5.04374343e-004
,,,5.15000000e-009,-4.84686843e-004
,,,5.17500000e-009,-4.64061843e-004
,,,5.20000000e-009,-4.45311843e-004
,,,5.22500000e-009,-4.30311843e-004
,,,5.25000000e-009,-4.19999342e-004
,,,5.27500000e-009,-4.19530592e-004
,,,5.30000000e-009,-4.24218092e-004
,,,5.32500000e-009,-4.34999343e-004
,,,5.35000000e-009,-4.50468093e-004
,,,5.37500000e-009,-4.69686843e-004
,,,5.40000000e-009,-4.92186843e-004
,,,5.42500000e-009,-5.16093093e-004
,,,5.45000000e-009,-5.39999343e-004
,,,5.47500000e-009,-5.64843094e-004
,,,5.50000000e-009,-5.86874344e-004
,,,5.52500000e-009,-6.06093094e-004
,,,5.55000000e-009,-6.21561844e-004
,,,5.57500000e-009,-6.34686844e-004
,,,5.60000000e-009,-6.44999344e-004
,,,5.62500000e-009,-6.53436844e-004
,,,5.65000000e-009,-6.59999344e-004
,,,5.67500000e-009,-6.64218095e-004
,,,5.70000000e-009,-6.67030595e-004
,,,5.72500000e-009,-6.68905595e-004
,,,5.75000000e-009,-6.69843095e-004
,,,5.77500000e-009,-6.69843095e-004
,,,5.80000000e-009,-6.68436845e-004
,,,5.82500000e-009,-6.65155595e-004
,,,5.85000000e-009,-6.59999344e-004
,,,5.87500000e-009,-6.51093094e-004
,,,5.90000000e-009,-6.39843094e-004
,,,5.92500000e-009,-6.26718094e-004
,,,5.95000000e-009,-6.11718094e-004
