RawData/SinglePhotoelectron/L7_2pt2A_5mV/wave021_Ch1.csv

"Record Length",1000,"Points",-7.72500000e-009,1.69219413e-004
"Sample Interval",2.50000000e-011,s,-7.70000000e-009,1.57031913e-004
"Trigger Point",309,"Samples",-7.67500000e-009,1.42500662e-004
"Trigger Time",6.08521739e-012,s,-7.65000000e-009,1.27031912e-004
"",,,-7.62500000e-009,1.10625662e-004
"Horizontal Offset",-7.72500000e-009,s,-7.60000000e-009,9.37506621e-005
,,,-7.57500000e-009,7.64069119e-005
,,,-7.55000000e-009,6.00006618e-005
,,,-7.52500000e-009,4.45319116e-005
,,,-7.50000000e-009,2.90631615e-005
,,,-7.47500000e-009,1.40631614e-005
,,,-7.45000000e-009,-9.36838769e-007
,,,-7.42500000e-009,-1.59368389e-005
,,,-7.40000000e-009,-3.09368390e-005
,,,-7.37500000e-009,-4.59368392e-005
,,,-7.35000000e-009,-5.99993393e-005
,,,-7.32500000e-009,-7.03118394e-005
,,,-7.30000000e-009,-7.87493394e-005
,,,-7.27500000e-009,-8.43743395e-005
,,,-7.25000000e-009,-8.71868395e-005
,,,-7.22500000e-009,-8.67180895e-005
,,,-7.20000000e-009,-8.20305895e-005
,,,-7.17500000e-009,-7.31243394e-005
,,,-7.15000000e-009,-5.99993393e-005
,,,-7.12500000e-009,-4.21868391e-005
,,,-7.10000000e-009,-2.15618389e-005
,,,-7.07500000e-009,-9.36838769e-007
,,,-7.05000000e-009,1.87506614e-005
,,,-7.02500000e-009,3.60944116e-005
,,,-7.00000000e-009,4.92194117e-005
,,,-6.97500000e-009,5.76569117e-005
,,,-6.95000000e-009,6.00006618e-005
,,,-6.92500000e-009,5.62506617e-005
,,,-6.90000000e-009,4.68756616e-005
,,,-6.87500000e-009,3.23444115e-005
,,,-6.85000000e-009,1.40631614e-005
,,,-6.82500000e-009,-6.09308881e-006
,,,-6.80000000e-009,-2.62493390e-005
,,,-6.77500000e-009,-4.49993392e-005
,,,-6.75000000e-009,-5.99993393e-005
,,,-6.72500000e-009,-6.79680894e-005
,,,-6.70000000e-009,-6.93743394e-005
,,,-6.67500000e-009,-6.37493393e-005
,,,-6.65000000e-009,-5.10930892e-005
,,,-6.62500000e-009,-3.14055890e-005
,,,-6.60000000e-009,-6.09308881e-006
,,,-6.57500000e-009,2.48444115e-005
,,,-6.55000000e-009,6.00006618e-005
,,,-6.52500000e-009,9.70319121e-005
,,,-6.50000000e-009,1.35000662e-004
,,,-6.47500000e-009,1.71563163e-004
,,,-6.45000000e-009,2.06250663e-004
,,,-6.42500000e-009,2.37656913e-004
,,,-6.40000000e-009,2.63906914e-004
,,,-6.37500000e-009,2.85000664e-004
,,,-6.35000000e-009,3.00000664e-004
,,,-6.32500000e-009,3.05625664e-004
,,,-6.30000000e-009,3.04688164e-004
,,,-6.27500000e-009,2.96719414e-004
,,,-6.25000000e-009,2.82656914e-004
,,,-6.22500000e-009,2.62969414e-004
,,,-6.20000000e-009,2.38594413e-004
,,,-6.17500000e-009,2.10469413e-004
,,,-6.15000000e-009,1.80000663e-004
,,,-6.12500000e-009,1.47188163e-004
,,,-6.10000000e-009,1.17188162e-004
,,,-6.07500000e-009,9.04694120e-005
,,,-6.05000000e-009,6.93756618e-005
,,,-6.02500000e-009,5.53131617e-005
,,,-6.00000000e-009,4.87506617e-005
,,,-5.97500000e-009,5.06256617e-005
,,,-5.95000000e-009,6.00006618e-005
,,,-5.92500000e-009,7.59381619e-005
,,,-5.90000000e-009,9.65631621e-005
,,,-5.87500000e-009,1.19531912e-004
,,,-5.85000000e-009,1.42031912e-004
,,,-5.82500000e-009,1.60781913e-004
,,,-5.80000000e-009,1.74844413e-004
,,,-5.77500000e-009,1.81406913e-004
,,,-5.75000000e-009,1.80000663e-004
,,,-5.72500000e-009,1.69688163e-004
,,,-5.70000000e-009,1.53281913e-004
,,,-5.67500000e-009,1.32656912e-004
,,,-5.65000000e-009,1.10625662e-004
,,,-5.62500000e-009,9.00006620e-005
,,,-5.60000000e-009,7.31256619e-005
,,,-5.57500000e-009,6.28131618e-005
,,,-5.55000000e-009,6.00006618e-005
,,,-5.52500000e-009,6.56256618e-005
,,,-5.50000000e-009,7.87506619e-005
,,,-5.47500000e-009,9.75006621e-005
,,,-5.45000000e-009,1.19063162e-004
,,,-5.42500000e-009,1.41094412e-004
,,,-5.40000000e-009,1.59844413e-004
,,,-5.37500000e-009,1.73438163e-004
,,,-5.35000000e-009,1.80000663e-004
,,,-5.32500000e-009,1.78125663e-004
,,,-5.30000000e-009,1.68750663e-004
,,,-5.27500000e-009,1.52344413e-004
,,,-5.25000000e-009,1.31719412e-004
,,,-5.22500000e-009,1.09219412e-004
,,,-5.20000000e-009,8.81256620e-005
,,,-5.17500000e-009,7.07819119e-005
,,,-5.15000000e-009,6.00006618e-005
,,,-5.12500000e-009,5.67194117e-005
,,,-5.10000000e-009,6.18756618e-005
,,,-5.07500000e-009,7.35944119e-005
,,,-5.05000000e-009,9.14069120e-005
,,,-5.02500000e-009,1.13438162e-004
,,,-5.00000000e-009,1.36875662e-004
,,,-4.97500000e-009,1.59375663e-004
,,,-4.95000000e-009,1.80000663e-004
,,,-4.92500000e-009,1.94063163e-004
,,,-4.90000000e-009,2.03438163e-004
,,,-4.87500000e-009,2.07188163e-004
,,,-4.85000000e-009,2.06250663e-004
,,,-4.82500000e-009,2.02031913e-004
,,,-4.80000000e-009,1.95000663e-004
,,,-4.77500000e-009,1.87500663e-004
,,,-4.75000000e-009,1.80000663e-004
,,,-4.72500000e-009,1.72500663e-004
,,,-4.70000000e-009,1.66875663e-004
,,,-4.67500000e-009,1.64063163e-004
,,,-4.65000000e-009,1.63125663e-004
,,,-4.62500000e-009,1.65000663e-004
,,,-4.60000000e-009,1.68750663e-004
,,,-4.57500000e-009,1.73906913e-004
,,,-4.55000000e-009,1.80000663e-004
,,,-4.52500000e-009,1.84219413e-004
,,,-4.50000000e-009,1.87500663e-004
,,,-4.47500000e-009,1.90313163e-004
,,,-4.45000000e-009,1.91250663e-004
,,,-4.42500000e-009,1.91250663e-004
,,,-4.40000000e-009,1.89375663e-004
,,,-4.37500000e-009,1.85625663e-004
,,,-4.35000000e-009,1.80000663e-004
,,,-4.32500000e-009,1.69688163e-004
,,,-4.30000000e-009,1.57500663e-004
,,,-4.27500000e-009,1.43438162e-004
,,,-4.25000000e-009,1.27969412e-004
,,,-4.22500000e-009,1.11563162e-004
,,,-4.20000000e-009,9.42194121e-005
,,,-4.17500000e-009,7.68756619e-005
,,,-4.15000000e-009,6.00006618e-005
,,,-4.12500000e-009,4.26569116e-005
,,,-4.10000000e-009,2.57819115e-005
,,,-4.07500000e-009,9.84441132e-006
,,,-4.05000000e-009,-5.15558881e-006
,,,-4.02500000e-009,-2.01555889e-005
,,,-4.00000000e-009,-3.42180891e-005
,,,-3.97500000e-009,-4.78118392e-005
,,,-3.95000000e-009,-5.99993393e-005
,,,-3.92500000e-009,-7.07805894e-005
,,,-3.90000000e-009,-7.96868395e-005
,,,-3.87500000e-009,-8.57805895e-005
,,,-3.85000000e-009,-8.90618395e-005
,,,-3.82500000e-009,-8.81243395e-005
,,,-3.80000000e-009,-8.24993395e-005
,,,-3.77500000e-009,-7.31243394e-005
,,,-3.75000000e-009,-5.99993393e-005
,,,-3.72500000e-009,-4.49993392e-005
,,,-3.70000000e-009,-2.99993390e-005
,,,-3.67500000e-009,-1.73430889e-005
,,,-3.65000000e-009,-9.84308885e-006
,,,-3.62500000e-009,-9.37433884e-006
,,,-3.60000000e-009,-1.68743389e-005
,,,-3.57500000e-009,-3.37493391e-005
,,,-3.55000000e-009,-5.99993393e-005
,,,-3.52500000e-009,-9.23430896e-005
,,,-3.50000000e-009,-1.30311840e-004
,,,-3.47500000e-009,-1.70624340e-004
,,,-3.45000000e-009,-2.10468091e-004
,,,-3.42500000e-009,-2.46561841e-004
,,,-3.40000000e-009,-2.75155591e-004
,,,-3.37500000e-009,-2.93436841e-004
,,,-3.35000000e-009,-2.99999341e-004
,,,-3.32500000e-009,-2.90624341e-004
,,,-3.30000000e-009,-2.69530591e-004
,,,-3.27500000e-009,-2.39061841e-004
,,,-3.25000000e-009,-2.02030591e-004
,,,-3.22500000e-009,-1.62186840e-004
,,,-3.20000000e-009,-1.22811840e-004
,,,-3.17500000e-009,-8.81243395e-005
,,,-3.15000000e-009,-5.99993393e-005
,,,-3.12500000e-009,-4.12493391e-005
,,,-3.10000000e-009,-3.37493391e-005
,,,-3.07500000e-009,-3.79680891e-005
,,,-3.05000000e-009,-5.29680892e-005
,,,-3.02500000e-009,-7.73430894e-005
,,,-3.00000000e-009,-1.08280590e-004
,,,-2.97500000e-009,-1.43905590e-004
,,,-2.95000000e-009,-1.79999340e-004
,,,-2.92500000e-009,-2.12811841e-004
,,,-2.90000000e-009,-2.39999341e-004
,,,-2.87500000e-009,-2.58280591e-004
,,,-2.85000000e-009,-2.66249341e-004
,,,-2.82500000e-009,-2.62499341e-004
,,,-2.80000000e-009,-2.47030591e-004
,,,-2.77500000e-009,-2.18905591e-004
,,,-2.75000000e-009,-1.79999340e-004
,,,-2.72500000e-009,-1.31249340e-004
,,,-2.70000000e-009,-7.64055894e-005
,,,-2.67500000e-009,-2.01555889e-005
,,,-2.65000000e-009,3.51569115e-005
,,,-2.62500000e-009,8.53131620e-005
,,,-2.60000000e-009,1.27500662e-004
,,,-2.57500000e-009,1.59375663e-004
,,,-2.55000000e-009,1.80000663e-004
,,,-2.52500000e-009,1.85625663e-004
,,,-2.50000000e-009,1.80000663e-004
,,,-2.47500000e-009,1.65469413e-004
,,,-2.45000000e-009,1.44375662e-004
,,,-2.42500000e-009,1.20469412e-004
,,,-2.40000000e-009,9.65631621e-005
,,,-2.37500000e-009,7.54694119e-005
,,,-2.35000000e-009,6.00006618e-005
,,,-2.32500000e-009,4.87506617e-005
,,,-2.30000000e-009,4.50006616e-005
,,,-2.27500000e-009,4.64069116e-005
,,,-2.25000000e-009,5.20319117e-005
,,,-2.22500000e-009,5.85944117e-005
,,,-2.20000000e-009,6.32819118e-005
,,,-2.17500000e-009,6.42194118e-005
,,,-2.15000000e-009,6.00006618e-005
,,,-2.12500000e-009,4.82819117e-005
,,,-2.10000000e-009,3.09381615e-005
,,,-2.07500000e-009,1.03131613e-005
,,,-2.05000000e-009,-1.17180889e-005
,,,-2.02500000e-009,-3.18743390e-005
,,,-2.00000000e-009,-4.82805892e-005
,,,-1.97500000e-009,-5.81243393e-005
,,,-1.95000000e-009,-5.99993393e-005
,,,-1.92500000e-009,-5.39055892e-005
,,,-1.90000000e-009,-3.93743391e-005
,,,-1.87500000e-009,-1.96868389e-005
,,,-1.85000000e-009,2.81316126e-006
,,,-1.82500000e-009,2.48444115e-005
,,,-1.80000000e-009,4.35944116e-005
,,,-1.77500000e-009,5.57819117e-005
,,,-1.75000000e-009,6.00006618e-005
,,,-1.72500000e-009,5.06256617e-005
,,,-1.70000000e-009,3.37506615e-005
,,,-1.67500000e-009,1.12506613e-005
,,,-1.65000000e-009,-1.31243389e-005
,,,-1.62500000e-009,-3.56243391e-005
,,,-1.60000000e-009,-5.24993392e-005
,,,-1.57500000e-009,-6.14055893e-005
,,,-1.55000000e-009,-5.99993393e-005
,,,-1.52500000e-009,-5.39055892e-005
,,,-1.50000000e-009,-3.98430891e-005
,,,-1.47500000e-009,-2.01555889e-005
,,,-1.45000000e-009,2.34441126e-006
,,,-1.42500000e-009,2.43756615e-005
,,,-1.40000000e-009,4.31256616e-005
,,,-1.37500000e-009,5.53131617e-005
,,,-1.35000000e-009,6.00006618e-005
,,,-1.32500000e-009,4.40631616e-005
,,,-1.30000000e-009,2.01569114e-005
,,,-1.27500000e-009,-8.43683883e-006
,,,-1.25000000e-009,-3.74993391e-005
,,,-1.22500000e-009,-6.09368393e-005
,,,-1.20000000e-009,-7.45305894e-005
,,,-1.17500000e-009,-7.45305894e-005
,,,-1.15000000e-009,-5.99993393e-005
,,,-1.12500000e-009,-4.96868392e-005
,,,-1.10000000e-009,-3.09368390e-005
,,,-1.07500000e-009,-6.56183882e-006
,,,-1.05000000e-009,1.96881614e-005
,,,-1.02500000e-009,4.40631616e-005
,,,-1.00000000e-009,6.18756618e-005
,,,-9.75000000e-010,6.84381618e-005
,,,-9.50000000e-010,6.00006618e-005
,,,-9.25000000e-010,6.56316130e-006
,,,-9.00000000e-010,-6.74993393e-005
,,,-8.75000000e-010,-1.58436840e-004
,,,-8.50000000e-010,-2.60624341e-004
,,,-8.25000000e-010,-3.67968092e-004
,,,-8.00000000e-010,-4.73436843e-004
,,,-7.75000000e-010,-5.72343094e-004
,,,-7.50000000e-010,-6.59999344e-004
,,,-7.25000000e-010,-7.60780595e-004
,,,-7.00000000e-010,-8.52655596e-004
,,,-6.75000000e-010,-9.34686847e-004
,,,-6.50000000e-010,-1.00828060e-003
,,,-6.25000000e-010,-1.07437435e-003
,,,-6.00000000e-010,-1.13624935e-003
,,,-5.75000000e-010,-1.19671810e-003
,,,-5.50000000e-010,-1.25999935e-003
,,,-5.25000000e-010,-1.35374935e-003
,,,-5.00000000e-010,-1.46203060e-003
,,,-4.75000000e-010,-1.58390560e-003
,,,-4.50000000e-010,-1.71890560e-003
,,,-4.25000000e-010,-1.86421810e-003
,,,-4.00000000e-010,-2.01749936e-003
,,,-3.75000000e-010,-2.17640561e-003
,,,-3.50000000e-010,-2.33999936e-003
,,,-3.25000000e-010,-2.52140561e-003
,,,-3.00000000e-010,-2.70937436e-003
,,,-2.75000000e-010,-2.90296811e-003
,,,-2.50000000e-010,-3.10031187e-003
,,,-2.25000000e-010,-3.29999937e-003
,,,-2.00000000e-010,-3.50062437e-003
,,,-1.75000000e-010,-3.70078062e-003
,,,-1.50000000e-010,-3.89999937e-003
,,,-1.25000000e-010,-4.09828062e-003
,,,-1.00000000e-010,-4.29890563e-003
,,,-7.50000000e-011,-4.50046813e-003
,,,-5.00000000e-011,-4.70203063e-003
,,,-2.50000000e-011,-4.90078063e-003
,,,0.00000000e+000,-5.09484313e-003
,,,2.50000000e-011,-5.28187438e-003
,,,5.00000000e-011,-5.45999939e-003
,,,7.50000000e-011,-5.61328064e-003
,,,1.00000000e-010,-5.76140564e-003
,,,1.25000000e-010,-5.90531189e-003
,,,1.50000000e-010,-6.04453064e-003
,,,1.75000000e-010,-6.17859314e-003
,,,2.00000000e-010,-6.30656189e-003
,,,2.25000000e-010,-6.42749939e-003
,,,2.50000000e-010,-6.53999940e-003
,,,2.75000000e-010,-6.61921815e-003
,,,3.00000000e-010,-6.69609315e-003
,,,3.25000000e-010,-6.77156190e-003
,,,3.50000000e-010,-6.84749940e-003
,,,3.75000000e-010,-6.92343690e-003
,,,4.00000000e-010,-6.99796815e-003
,,,4.25000000e-010,-7.07109315e-003
,,,4.50000000e-010,-7.13999940e-003
,,,4.75000000e-010,-7.17140565e-003
,,,5.00000000e-010,-7.20234315e-003
,,,5.25000000e-010,-7.23374940e-003
,,,5.50000000e-010,-7.26515565e-003
,,,5.75000000e-010,-7.29703065e-003
,,,6.00000000e-010,-7.32796815e-003
,,,6.25000000e-010,-7.35609315e-003
,,,6.50000000e-010,-7.37999940e-003
,,,6.75000000e-010,-7.36265565e-003
,,,7.00000000e-010,-7.34390565e-003
,,,7.25000000e-010,-7.32515565e-003
,,,7.50000000e-010,-7.30781190e-003
,,,7.75000000e-010,-7.29281190e-003
,,,8.00000000e-010,-7.28015565e-003
,,,8.25000000e-010,-7.26984315e-003
,,,8.50000000e-010,-7.25999940e-003
,,,8.75000000e-010,-7.21593690e-003
,,,9.00000000e-010,-7.17140565e-003
,,,9.25000000e-010,-7.12687440e-003
,,,9.50000000e-010,-7.08328065e-003
,,,9.75000000e-010,-7.03968690e-003
,,,1.00000000e-009,-6.99609315e-003
,,,1.02500000e-009,-6.95015565e-003
,,,1.05000000e-009,-6.89999940e-003
,,,1.07500000e-009,-6.81703065e-003
,,,1.10000000e-009,-6.72609315e-003
,,,1.12500000e-009,-6.62765565e-003
,,,1.15000000e-009,-6.52312440e-003
,,,1.17500000e-009,-6.41343689e-003
,,,1.20000000e-009,-6.29906189e-003
,,,1.22500000e-009,-6.18140564e-003
,,,1.25000000e-009,-6.05999939e-003
,,,1.27500000e-009,-5.91937439e-003
,,,1.30000000e-009,-5.77546814e-003
,,,1.32500000e-009,-5.63156189e-003
,,,1.35000000e-009,-5.48906189e-003
,,,1.37500000e-009,-5.35171814e-003
,,,1.40000000e-009,-5.22046813e-003
,,,1.42500000e-009,-5.09671813e-003
,,,1.45000000e-009,-4.97999938e-003
,,,1.47500000e-009,-4.86374938e-003
,,,1.50000000e-009,-4.74890563e-003
,,,1.52500000e-009,-4.63359313e-003
,,,1.55000000e-009,-4.51734313e-003
,,,1.57500000e-009,-4.39828063e-003
,,,1.60000000e-009,-4.27640563e-003
,,,1.62500000e-009,-4.15031187e-003
,,,1.65000000e-009,-4.01999937e-003
,,,1.67500000e-009,-3.88921812e-003
,,,1.70000000e-009,-3.75140562e-003
,,,1.72500000e-009,-3.60843687e-003
,,,1.75000000e-009,-3.46406187e-003
,,,1.77500000e-009,-3.32156187e-003
,,,1.80000000e-009,-3.18468687e-003
,,,1.82500000e-009,-3.05671812e-003
,,,1.85000000e-009,-2.93999936e-003
,,,1.87500000e-009,-2.84812436e-003
,,,1.90000000e-009,-2.76374936e-003
,,,1.92500000e-009,-2.68593686e-003
,,,1.95000000e-009,-2.61234311e-003
,,,1.97500000e-009,-2.54249936e-003
,,,2.00000000e-009,-2.47453061e-003
,,,2.02500000e-009,-2.40703061e-003
,,,2.05000000e-009,-2.33999936e-003
,,,2.07500000e-009,-2.28843686e-003
,,,2.10000000e-009,-2.23124936e-003
,,,2.12500000e-009,-2.16890561e-003
,,,2.15000000e-009,-2.10328061e-003
,,,2.17500000e-009,-2.03671811e-003
,,,2.20000000e-009,-1.97203061e-003
,,,2.22500000e-009,-1.91249936e-003
,,,2.25000000e-009,-1.85999935e-003
,,,2.27500000e-009,-1.83421810e-003
,,,2.30000000e-009,-1.81312435e-003
,,,2.32500000e-009,-1.79578060e-003
,,,2.35000000e-009,-1.78171810e-003
,,,2.37500000e-009,-1.76953060e-003
,,,2.40000000e-009,-1.75874935e-003
,,,2.42500000e-009,-1.74937435e-003
,,,2.45000000e-009,-1.73999935e-003
,,,2.47500000e-009,-1.74421810e-003
,,,2.50000000e-009,-1.74515560e-003
,,,2.52500000e-009,-1.74328060e-003
,,,2.55000000e-009,-1.73953060e-003
,,,2.57500000e-009,-1.73531185e-003
,,,2.60000000e-009,-1.73343685e-003
,,,2.62500000e-009,-1.73437435e-003
,,,2.65000000e-009,-1.73999935e-003
,,,2.67500000e-009,-1.75828060e-003
,,,2.70000000e-009,-1.77796810e-003
,,,2.72500000e-009,-1.79718685e-003
,,,2.75000000e-009,-1.81546810e-003
,,,2.77500000e-009,-1.83187435e-003
,,,2.80000000e-009,-1.84499935e-003
,,,2.82500000e-009,-1.85437435e-003
,,,2.85000000e-009,-1.85999935e-003
,,,2.87500000e-009,-1.86421810e-003
,,,2.90000000e-009,-1.86328060e-003
,,,2.92500000e-009,-1.85953060e-003
,,,2.95000000e-009,-1.85437435e-003
,,,2.97500000e-009,-1.85015560e-003
,,,3.00000000e-009,-1.84874935e-003
,,,3.02500000e-009,-1.85156185e-003
,,,3.05000000e-009,-1.85999935e-003
,,,3.07500000e-009,-1.87406186e-003
,,,3.10000000e-009,-1.89140561e-003
,,,3.12500000e-009,-1.91109311e-003
,,,3.15000000e-009,-1.93171811e-003
,,,3.17500000e-009,-1.95093686e-003
,,,3.20000000e-009,-1.96687436e-003
,,,3.22500000e-009,-1.97718686e-003
,,,3.25000000e-009,-1.97999936e-003
,,,3.27500000e-009,-1.97156186e-003
,,,3.30000000e-009,-1.95374936e-003
,,,3.32500000e-009,-1.92843686e-003
,,,3.35000000e-009,-1.89656186e-003
,,,3.37500000e-009,-1.85999935e-003
,,,3.40000000e-009,-1.82062435e-003
,,,3.42500000e-009,-1.77984310e-003
,,,3.45000000e-009,-1.73999935e-003
,,,3.47500000e-009,-1.70015560e-003
,,,3.50000000e-009,-1.66359310e-003
,,,3.52500000e-009,-1.62984310e-003
,,,3.55000000e-009,-1.59937435e-003
,,,3.57500000e-009,-1.57171810e-003
,,,3.60000000e-009,-1.54640560e-003
,,,3.62500000e-009,-1.52249935e-003
,,,3.65000000e-009,-1.49999935e-003
,,,3.67500000e-009,-1.47843685e-003
,,,3.70000000e-009,-1.45734310e-003
,,,3.72500000e-009,-1.43718685e-003
,,,3.75000000e-009,-1.41937435e-003
,,,3.77500000e-009,-1.40390560e-003
,,,3.80000000e-009,-1.39218685e-003
,,,3.82500000e-009,-1.38421810e-003
,,,3.85000000e-009,-1.37999935e-003
,,,3.87500000e-009,-1.37999935e-003
,,,3.90000000e-009,-1.38187435e-003
,,,3.92500000e-009,-1.38515560e-003
,,,3.95000000e-009,-1.38796810e-003
,,,3.97500000e-009,-1.38984310e-003
,,,4.00000000e-009,-1.38984310e-003
,,,4.02500000e-009,-1.38656185e-003
,,,4.05000000e-009,-1.37999935e-003
,,,4.07500000e-009,-1.36968685e-003
,,,4.10000000e-009,-1.35562435e-003
,,,4.12500000e-009,-1.33828060e-003
,,,4.15000000e-009,-1.31953060e-003
,,,4.17500000e-009,-1.30124935e-003
,,,4.20000000e-009,-1.28437435e-003
,,,4.22500000e-009,-1.27031185e-003
,,,4.25000000e-009,-1.25999935e-003
,,,4.27500000e-009,-1.25437435e-003
,,,4.30000000e-009,-1.25156185e-003
,,,4.32500000e-009,-1.25156185e-003
,,,4.35000000e-009,-1.25296810e-003
,,,4.37500000e-009,-1.25578060e-003
,,,4.40000000e-009,-1.25812435e-003
,,,4.42500000e-009,-1.25999935e-003
,,,4.45000000e-009,-1.25999935e-003
,,,4.47500000e-009,-1.25531185e-003
,,,4.50000000e-009,-1.24640560e-003
,,,4.52500000e-009,-1.23374935e-003
,,,4.55000000e-009,-1.21781185e-003
,,,4.57500000e-009,-1.19906185e-003
,,,4.60000000e-009,-1.17937435e-003
,,,4.62500000e-009,-1.15968685e-003
,,,4.65000000e-009,-1.13999935e-003
,,,4.67500000e-009,-1.11937435e-003
,,,4.70000000e-009,-1.09921810e-003
,,,4.72500000e-009,-1.08093685e-003
,,,4.75000000e-009,-1.06406185e-003
,,,4.77500000e-009,-1.04999935e-003
,,,4.80000000e-009,-1.03828060e-003
,,,4.82500000e-009,-1.02843685e-003
,,,4.85000000e-009,-1.01999935e-003
,,,4.87500000e-009,-1.00921810e-003
,,,4.90000000e-009,-9.97499347e-004
,,,4.92500000e-009,-9.84374347e-004
,,,4.95000000e-009,-9.70311847e-004
,,,4.97500000e-009,-9.54843097e-004
,,,5.00000000e-009,-9.37968097e-004
,,,5.02500000e-009,-9.20155597e-004
,,,5.05000000e-009,-8.99999347e-004
,,,5.07500000e-009,-8.76093096e-004
,,,5.10000000e-009,-8.49374346e-004
,,,5.12500000e-009,-8.20780596e-004
,,,5.15000000e-009,-7.89843096e-004
,,,5.17500000e-009,-7.57968095e-004
,,,5.20000000e-009,-7.25155595e-004
,,,5.22500000e-009,-6.92343095e-004
,,,5.25000000e-009,-6.59999344e-004
,,,5.27500000e-009,-6.27655594e-004
,,,5.30000000e-009,-5.95311844e-004
,,,5.32500000e-009,-5.63436844e-004
,,,5.35000000e-009,-5.32499343e-004
,,,5.37500000e-009,-5.02499343e-004
,,,5.40000000e-009,-4.73905593e-004
,,,5.42500000e-009,-4.46718093e-004
,,,5.45000000e-009,-4.19999342e-004
,,,5.47500000e-009,-3.97499342e-004
,,,5.50000000e-009,-3.73593092e-004
,,,5.52500000e-009,-3.48280592e-004
,,,5.55000000e-009,-3.20155592e-004
,,,5.57500000e-009,-2.89686841e-004
,,,5.60000000e-009,-2.55936841e-004
,,,5.62500000e-009,-2.19374341e-004
,,,5.65000000e-009,-1.79999340e-004
,,,5.67500000e-009,-1.43436840e-004
,,,5.70000000e-009,-1.05936840e-004
,,,5.72500000e-009,-6.84368394e-005
,,,5.75000000e-009,-3.32805891e-005
,,,5.77500000e-009,-1.40558877e-006
,,,5.80000000e-009,2.53131615e-005
,,,5.82500000e-009,4.59381616e-005
,,,5.85000000e-009,6.00006618e-005
,,,5.87500000e-009,6.04694118e-005
,,,5.90000000e-009,5.62506617e-005
,,,5.92500000e-009,5.06256617e-005
