RawData/SinglePhotoelectron/L7_2pt2A_5mV/wave022_Ch1.csv

"Record Length",1000,"Points",-7.72500000e-009,6.37506618e-005
"Sample Interval",2.50000000e-011,s,-7.70000000e-009,6.56256618e-005
"Trigger Point",309,"Samples",-7.67500000e-009,6.56256618e-005
"Trigger Time",1.54688172e-012,s,-7.65000000e-009,6.42194118e-005
"",,,-7.62500000e-009,6.23444118e-005
"Horizontal Offset",-7.72500000e-009,s,-7.60000000e-009,6.04694118e-005
,,,-7.57500000e-009,5.95319118e-005
,,,-7.55000000e-009,6.00006618e-005
,,,-7.52500000e-009,6.14069118e-005
,,,-7.50000000e-009,6.37506618e-005
,,,-7.47500000e-009,6.70319118e-005
,,,-7.45000000e-009,6.93756618e-005
,,,-7.42500000e-009,7.07819119e-005
,,,-7.40000000e-009,7.03131619e-005
,,,-7.37500000e-009,6.65631618e-005
,,,-7.35000000e-009,6.00006618e-005
,,,-7.32500000e-009,4.92194117e-005
,,,-7.30000000e-009,3.51569115e-005
,,,-7.27500000e-009,1.92194114e-005
,,,-7.25000000e-009,1.87566126e-006
,,,-7.22500000e-009,-1.59368389e-005
,,,-7.20000000e-009,-3.28118390e-005
,,,-7.17500000e-009,-4.78118392e-005
,,,-7.15000000e-009,-5.99993393e-005
,,,-7.12500000e-009,-6.84368394e-005
,,,-7.10000000e-009,-7.31243394e-005
,,,-7.07500000e-009,-7.49993394e-005
,,,-7.05000000e-009,-7.45305894e-005
,,,-7.02500000e-009,-7.21868394e-005
,,,-7.00000000e-009,-6.84368394e-005
,,,-6.97500000e-009,-6.42180893e-005
,,,-6.95000000e-009,-5.99993393e-005
,,,-6.92500000e-009,-5.67180893e-005
,,,-6.90000000e-009,-5.39055892e-005
,,,-6.87500000e-009,-5.29680892e-005
,,,-6.85000000e-009,-5.29680892e-005
,,,-6.82500000e-009,-5.43743392e-005
,,,-6.80000000e-009,-5.57805892e-005
,,,-6.77500000e-009,-5.81243393e-005
,,,-6.75000000e-009,-5.99993393e-005
,,,-6.72500000e-009,-6.18743393e-005
,,,-6.70000000e-009,-6.37493393e-005
,,,-6.67500000e-009,-6.46868393e-005
,,,-6.65000000e-009,-6.46868393e-005
,,,-6.62500000e-009,-6.46868393e-005
,,,-6.60000000e-009,-6.37493393e-005
,,,-6.57500000e-009,-6.18743393e-005
,,,-6.55000000e-009,-5.99993393e-005
,,,-6.52500000e-009,-5.90618393e-005
,,,-6.50000000e-009,-5.81243393e-005
,,,-6.47500000e-009,-5.76555893e-005
,,,-6.45000000e-009,-5.76555893e-005
,,,-6.42500000e-009,-5.81243393e-005
,,,-6.40000000e-009,-5.85930893e-005
,,,-6.37500000e-009,-5.95305893e-005
,,,-6.35000000e-009,-5.99993393e-005
,,,-6.32500000e-009,-6.09368393e-005
,,,-6.30000000e-009,-6.18743393e-005
,,,-6.27500000e-009,-6.23430893e-005
,,,-6.25000000e-009,-6.28118393e-005
,,,-6.22500000e-009,-6.28118393e-005
,,,-6.20000000e-009,-6.23430893e-005
,,,-6.17500000e-009,-6.14055893e-005
,,,-6.15000000e-009,-5.99993393e-005
,,,-6.12500000e-009,-5.85930893e-005
,,,-6.10000000e-009,-5.67180893e-005
,,,-6.07500000e-009,-5.48430892e-005
,,,-6.05000000e-009,-5.34368392e-005
,,,-6.02500000e-009,-5.29680892e-005
,,,-6.00000000e-009,-5.39055892e-005
,,,-5.97500000e-009,-5.62493392e-005
,,,-5.95000000e-009,-5.99993393e-005
,,,-5.92500000e-009,-6.60930893e-005
,,,-5.90000000e-009,-7.45305894e-005
,,,-5.87500000e-009,-8.53118395e-005
,,,-5.85000000e-009,-9.93743396e-005
,,,-5.82500000e-009,-1.15780590e-004
,,,-5.80000000e-009,-1.34999340e-004
,,,-5.77500000e-009,-1.57030590e-004
,,,-5.75000000e-009,-1.79999340e-004
,,,-5.72500000e-009,-2.01093091e-004
,,,-5.70000000e-009,-2.21249341e-004
,,,-5.67500000e-009,-2.40468091e-004
,,,-5.65000000e-009,-2.58280591e-004
,,,-5.62500000e-009,-2.73280591e-004
,,,-5.60000000e-009,-2.85936841e-004
,,,-5.57500000e-009,-2.94843091e-004
,,,-5.55000000e-009,-2.99999341e-004
,,,-5.52500000e-009,-2.97186841e-004
,,,-5.50000000e-009,-2.89218091e-004
,,,-5.47500000e-009,-2.77499341e-004
,,,-5.45000000e-009,-2.62030591e-004
,,,-5.42500000e-009,-2.43749341e-004
,,,-5.40000000e-009,-2.23593091e-004
,,,-5.37500000e-009,-2.02030591e-004
,,,-5.35000000e-009,-1.79999340e-004
,,,-5.32500000e-009,-1.55155590e-004
,,,-5.30000000e-009,-1.31249340e-004
,,,-5.27500000e-009,-1.09686840e-004
,,,-5.25000000e-009,-9.18743396e-005
,,,-5.22500000e-009,-7.78118394e-005
,,,-5.20000000e-009,-6.84368394e-005
,,,-5.17500000e-009,-6.28118393e-005
,,,-5.15000000e-009,-5.99993393e-005
,,,-5.12500000e-009,-5.57805892e-005
,,,-5.10000000e-009,-5.10930892e-005
,,,-5.07500000e-009,-4.45305891e-005
,,,-5.05000000e-009,-3.51555891e-005
,,,-5.02500000e-009,-2.06243389e-005
,,,-5.00000000e-009,-4.68088765e-007
,,,-4.97500000e-009,2.62506615e-005
,,,-4.95000000e-009,6.00006618e-005
,,,-4.92500000e-009,1.02656912e-004
,,,-4.90000000e-009,1.50469413e-004
,,,-4.87500000e-009,2.01563163e-004
,,,-4.85000000e-009,2.53594413e-004
,,,-4.82500000e-009,3.03750664e-004
,,,-4.80000000e-009,3.49688164e-004
,,,-4.77500000e-009,3.88594415e-004
,,,-4.75000000e-009,4.20000665e-004
,,,-4.72500000e-009,4.41563165e-004
,,,-4.70000000e-009,4.54688165e-004
,,,-4.67500000e-009,4.59844415e-004
,,,-4.65000000e-009,4.57969415e-004
,,,-4.62500000e-009,4.51406915e-004
,,,-4.60000000e-009,4.41563165e-004
,,,-4.57500000e-009,4.30313165e-004
,,,-4.55000000e-009,4.20000665e-004
,,,-4.52500000e-009,4.11563165e-004
,,,-4.50000000e-009,4.08750665e-004
,,,-4.47500000e-009,4.13438165e-004
,,,-4.45000000e-009,4.25625665e-004
,,,-4.42500000e-009,4.44844415e-004
,,,-4.40000000e-009,4.71094415e-004
,,,-4.37500000e-009,5.03438166e-004
,,,-4.35000000e-009,5.40000666e-004
,,,-4.32500000e-009,5.76094416e-004
,,,-4.30000000e-009,6.13594417e-004
,,,-4.27500000e-009,6.50625667e-004
,,,-4.25000000e-009,6.85313167e-004
,,,-4.22500000e-009,7.16719417e-004
,,,-4.20000000e-009,7.43438168e-004
,,,-4.17500000e-009,7.64531918e-004
,,,-4.15000000e-009,7.80000668e-004
,,,-4.12500000e-009,7.83750668e-004
,,,-4.10000000e-009,7.83750668e-004
,,,-4.07500000e-009,7.80938168e-004
,,,-4.05000000e-009,7.76719418e-004
,,,-4.02500000e-009,7.72969418e-004
,,,-4.00000000e-009,7.71563168e-004
,,,-3.97500000e-009,7.73438168e-004
,,,-3.95000000e-009,7.80000668e-004
,,,-3.92500000e-009,7.86094418e-004
,,,-3.90000000e-009,7.96875668e-004
,,,-3.87500000e-009,8.11875668e-004
,,,-3.85000000e-009,8.30156918e-004
,,,-3.82500000e-009,8.49844419e-004
,,,-3.80000000e-009,8.69531919e-004
,,,-3.77500000e-009,8.86406919e-004
,,,-3.75000000e-009,9.00000669e-004
,,,-3.72500000e-009,9.02813169e-004
,,,-3.70000000e-009,9.00000669e-004
,,,-3.67500000e-009,8.91094419e-004
,,,-3.65000000e-009,8.76563169e-004
,,,-3.62500000e-009,8.57344419e-004
,,,-3.60000000e-009,8.33906918e-004
,,,-3.57500000e-009,8.08125668e-004
,,,-3.55000000e-009,7.80000668e-004
,,,-3.52500000e-009,7.47656918e-004
,,,-3.50000000e-009,7.15313167e-004
,,,-3.47500000e-009,6.83906917e-004
,,,-3.45000000e-009,6.52969417e-004
,,,-3.42500000e-009,6.23438167e-004
,,,-3.40000000e-009,5.94375666e-004
,,,-3.37500000e-009,5.66719416e-004
,,,-3.35000000e-009,5.40000666e-004
,,,-3.32500000e-009,5.13281916e-004
,,,-3.30000000e-009,4.88906915e-004
,,,-3.27500000e-009,4.67344415e-004
,,,-3.25000000e-009,4.49063165e-004
,,,-3.22500000e-009,4.35000665e-004
,,,-3.20000000e-009,4.25156915e-004
,,,-3.17500000e-009,4.20469415e-004
,,,-3.15000000e-009,4.20000665e-004
,,,-3.12500000e-009,4.23750665e-004
,,,-3.10000000e-009,4.28906915e-004
,,,-3.07500000e-009,4.35000665e-004
,,,-3.05000000e-009,4.39219415e-004
,,,-3.02500000e-009,4.41094415e-004
,,,-3.00000000e-009,4.38750665e-004
,,,-2.97500000e-009,4.31719415e-004
,,,-2.95000000e-009,4.20000665e-004
,,,-2.92500000e-009,4.03125665e-004
,,,-2.90000000e-009,3.82500665e-004
,,,-2.87500000e-009,3.60000664e-004
,,,-2.85000000e-009,3.38438164e-004
,,,-2.82500000e-009,3.19219414e-004
,,,-2.80000000e-009,3.05625664e-004
,,,-2.77500000e-009,2.98594414e-004
,,,-2.75000000e-009,3.00000664e-004
,,,-2.72500000e-009,3.10781914e-004
,,,-2.70000000e-009,3.27656914e-004
,,,-2.67500000e-009,3.48750664e-004
,,,-2.65000000e-009,3.70313164e-004
,,,-2.62500000e-009,3.90938165e-004
,,,-2.60000000e-009,4.07344415e-004
,,,-2.57500000e-009,4.17188165e-004
,,,-2.55000000e-009,4.20000665e-004
,,,-2.52500000e-009,4.14844415e-004
,,,-2.50000000e-009,4.01719415e-004
,,,-2.47500000e-009,3.83438165e-004
,,,-2.45000000e-009,3.61875664e-004
,,,-2.42500000e-009,3.39844414e-004
,,,-2.40000000e-009,3.21094414e-004
,,,-2.37500000e-009,3.07031914e-004
,,,-2.35000000e-009,3.00000664e-004
,,,-2.32500000e-009,2.99531914e-004
,,,-2.30000000e-009,3.04688164e-004
,,,-2.27500000e-009,3.12656914e-004
,,,-2.25000000e-009,3.21094414e-004
,,,-2.22500000e-009,3.26719414e-004
,,,-2.20000000e-009,3.26719414e-004
,,,-2.17500000e-009,3.17813164e-004
,,,-2.15000000e-009,3.00000664e-004
,,,-2.12500000e-009,2.70938164e-004
,,,-2.10000000e-009,2.34375663e-004
,,,-2.07500000e-009,1.93594413e-004
,,,-2.05000000e-009,1.51875663e-004
,,,-2.02500000e-009,1.13438162e-004
,,,-2.00000000e-009,8.34381620e-005
,,,-1.97500000e-009,6.46881618e-005
,,,-1.95000000e-009,6.00006618e-005
,,,-1.92500000e-009,7.03131619e-005
,,,-1.90000000e-009,9.32819120e-005
,,,-1.87500000e-009,1.26563162e-004
,,,-1.85000000e-009,1.65938163e-004
,,,-1.82500000e-009,2.07188163e-004
,,,-1.80000000e-009,2.45625663e-004
,,,-1.77500000e-009,2.77500664e-004
,,,-1.75000000e-009,3.00000664e-004
,,,-1.72500000e-009,3.07500664e-004
,,,-1.70000000e-009,3.02813164e-004
,,,-1.67500000e-009,2.88281914e-004
,,,-1.65000000e-009,2.66250664e-004
,,,-1.62500000e-009,2.40938163e-004
,,,-1.60000000e-009,2.16094413e-004
,,,-1.57500000e-009,1.94531913e-004
,,,-1.55000000e-009,1.80000663e-004
,,,-1.52500000e-009,1.67813163e-004
,,,-1.50000000e-009,1.62188163e-004
,,,-1.47500000e-009,1.62656913e-004
,,,-1.45000000e-009,1.67344413e-004
,,,-1.42500000e-009,1.73906913e-004
,,,-1.40000000e-009,1.80000663e-004
,,,-1.37500000e-009,1.82344413e-004
,,,-1.35000000e-009,1.80000663e-004
,,,-1.32500000e-009,1.60313163e-004
,,,-1.30000000e-009,1.32656912e-004
,,,-1.27500000e-009,9.84381621e-005
,,,-1.25000000e-009,6.09381618e-005
,,,-1.22500000e-009,2.29694114e-005
,,,-1.20000000e-009,-1.17180889e-005
,,,-1.17500000e-009,-4.03118391e-005
,,,-1.15000000e-009,-5.99993393e-005
,,,-1.12500000e-009,-8.62493395e-005
,,,-1.10000000e-009,-1.05468090e-004
,,,-1.07500000e-009,-1.16249340e-004
,,,-1.05000000e-009,-1.18124340e-004
,,,-1.02500000e-009,-1.12499340e-004
,,,-1.00000000e-009,-9.93743396e-005
,,,-9.75000000e-010,-8.10930895e-005
,,,-9.50000000e-010,-5.99993393e-005
,,,-9.25000000e-010,-6.60930893e-005
,,,-9.00000000e-010,-8.01555895e-005
,,,-8.75000000e-010,-1.01718090e-004
,,,-8.50000000e-010,-1.30311840e-004
,,,-8.25000000e-010,-1.65936840e-004
,,,-8.00000000e-010,-2.06249341e-004
,,,-7.75000000e-010,-2.51249341e-004
,,,-7.50000000e-010,-2.99999341e-004
,,,-7.25000000e-010,-3.81093092e-004
,,,-7.00000000e-010,-4.70155593e-004
,,,-6.75000000e-010,-5.64374344e-004
,,,-6.50000000e-010,-6.60468095e-004
,,,-6.25000000e-010,-7.56093095e-004
,,,-6.00000000e-010,-8.48436846e-004
,,,-5.75000000e-010,-9.36561847e-004
,,,-5.50000000e-010,-1.01999935e-003
,,,-5.25000000e-010,-1.12593685e-003
,,,-5.00000000e-010,-1.23562435e-003
,,,-4.75000000e-010,-1.34812435e-003
,,,-4.50000000e-010,-1.46484310e-003
,,,-4.25000000e-010,-1.58531185e-003
,,,-4.00000000e-010,-1.71046810e-003
,,,-3.75000000e-010,-1.84124935e-003
,,,-3.50000000e-010,-1.97999936e-003
,,,-3.25000000e-010,-2.14359311e-003
,,,-3.00000000e-010,-2.32265561e-003
,,,-2.75000000e-010,-2.51671811e-003
,,,-2.50000000e-010,-2.72531186e-003
,,,-2.25000000e-010,-2.94656186e-003
,,,-2.00000000e-010,-3.17765562e-003
,,,-1.75000000e-010,-3.41671812e-003
,,,-1.50000000e-010,-3.65999937e-003
,,,-1.25000000e-010,-3.89999937e-003
,,,-1.00000000e-010,-4.14093687e-003
,,,-7.50000000e-011,-4.38046813e-003
,,,-5.00000000e-011,-4.61578063e-003
,,,-2.50000000e-011,-4.84406188e-003
,,,0.00000000e+000,-5.06203063e-003
,,,2.50000000e-011,-5.26781188e-003
,,,5.00000000e-011,-5.45999939e-003
,,,7.50000000e-011,-5.61234314e-003
,,,1.00000000e-010,-5.75437439e-003
,,,1.25000000e-010,-5.89031189e-003
,,,1.50000000e-010,-6.02156189e-003
,,,1.75000000e-010,-6.15140564e-003
,,,2.00000000e-010,-6.28078064e-003
,,,2.25000000e-010,-6.41015564e-003
,,,2.50000000e-010,-6.53999940e-003
,,,2.75000000e-010,-6.63046815e-003
,,,3.00000000e-010,-6.72281190e-003
,,,3.25000000e-010,-6.81843690e-003
,,,3.50000000e-010,-6.91546815e-003
,,,3.75000000e-010,-7.01203065e-003
,,,4.00000000e-010,-7.10484315e-003
,,,4.25000000e-010,-7.18874940e-003
,,,4.50000000e-010,-7.25999940e-003
,,,4.75000000e-010,-7.26656190e-003
,,,5.00000000e-010,-7.25765565e-003
,,,5.25000000e-010,-7.23281190e-003
,,,5.50000000e-010,-7.19343690e-003
,,,5.75000000e-010,-7.14046815e-003
,,,6.00000000e-010,-7.07390565e-003
,,,6.25000000e-010,-6.99374940e-003
,,,6.50000000e-010,-6.89999940e-003
,,,6.75000000e-010,-6.75140565e-003
,,,7.00000000e-010,-6.59578065e-003
,,,7.25000000e-010,-6.43781189e-003
,,,7.50000000e-010,-6.28078064e-003
,,,7.75000000e-010,-6.12749939e-003
,,,8.00000000e-010,-5.97890564e-003
,,,8.25000000e-010,-5.83687439e-003
,,,8.50000000e-010,-5.69999939e-003
,,,8.75000000e-010,-5.54156189e-003
,,,9.00000000e-010,-5.39015564e-003
,,,9.25000000e-010,-5.24578063e-003
,,,9.50000000e-010,-5.10890563e-003
,,,9.75000000e-010,-4.97906188e-003
,,,1.00000000e-009,-4.85531188e-003
,,,1.02500000e-009,-4.73624938e-003
,,,1.05000000e-009,-4.61999938e-003
,,,1.07500000e-009,-4.49296813e-003
,,,1.10000000e-009,-4.36265563e-003
,,,1.12500000e-009,-4.22999938e-003
,,,1.15000000e-009,-4.09499937e-003
,,,1.17500000e-009,-3.95765562e-003
,,,1.20000000e-009,-3.81890562e-003
,,,1.22500000e-009,-3.67921812e-003
,,,1.25000000e-009,-3.53999937e-003
,,,1.27500000e-009,-3.40265562e-003
,,,1.30000000e-009,-3.26296812e-003
,,,1.32500000e-009,-3.12234312e-003
,,,1.35000000e-009,-2.98171811e-003
,,,1.37500000e-009,-2.84343686e-003
,,,1.40000000e-009,-2.70984311e-003
,,,1.42500000e-009,-2.58140561e-003
,,,1.45000000e-009,-2.45999936e-003
,,,1.47500000e-009,-2.36062436e-003
,,,1.50000000e-009,-2.26359311e-003
,,,1.52500000e-009,-2.16890561e-003
,,,1.55000000e-009,-2.07609311e-003
,,,1.57500000e-009,-1.98609311e-003
,,,1.60000000e-009,-1.89937436e-003
,,,1.62500000e-009,-1.81687435e-003
,,,1.65000000e-009,-1.73999935e-003
,,,1.67500000e-009,-1.68843685e-003
,,,1.70000000e-009,-1.63781185e-003
,,,1.72500000e-009,-1.58765560e-003
,,,1.75000000e-009,-1.53890560e-003
,,,1.77500000e-009,-1.49203060e-003
,,,1.80000000e-009,-1.44937435e-003
,,,1.82500000e-009,-1.41187435e-003
,,,1.85000000e-009,-1.37999935e-003
,,,1.87500000e-009,-1.37203060e-003
,,,1.90000000e-009,-1.36406185e-003
,,,1.92500000e-009,-1.35421810e-003
,,,1.95000000e-009,-1.34203060e-003
,,,1.97500000e-009,-1.32656185e-003
,,,2.00000000e-009,-1.30781185e-003
,,,2.02500000e-009,-1.28531185e-003
,,,2.05000000e-009,-1.25999935e-003
,,,2.07500000e-009,-1.24640560e-003
,,,2.10000000e-009,-1.22812435e-003
,,,2.12500000e-009,-1.20703060e-003
,,,2.15000000e-009,-1.18499935e-003
,,,2.17500000e-009,-1.16484310e-003
,,,2.20000000e-009,-1.14890560e-003
,,,2.22500000e-009,-1.14046810e-003
,,,2.25000000e-009,-1.13999935e-003
,,,2.27500000e-009,-1.15874935e-003
,,,2.30000000e-009,-1.18406185e-003
,,,2.32500000e-009,-1.21359310e-003
,,,2.35000000e-009,-1.24640560e-003
,,,2.37500000e-009,-1.28109310e-003
,,,2.40000000e-009,-1.31578060e-003
,,,2.42500000e-009,-1.34906185e-003
,,,2.45000000e-009,-1.37999935e-003
,,,2.47500000e-009,-1.40999935e-003
,,,2.50000000e-009,-1.43390560e-003
,,,2.52500000e-009,-1.45218685e-003
,,,2.55000000e-009,-1.46578060e-003
,,,2.57500000e-009,-1.47609310e-003
,,,2.60000000e-009,-1.48453060e-003
,,,2.62500000e-009,-1.49203060e-003
,,,2.65000000e-009,-1.49999935e-003
,,,2.67500000e-009,-1.50656185e-003
,,,2.70000000e-009,-1.51265560e-003
,,,2.72500000e-009,-1.51781185e-003
,,,2.75000000e-009,-1.52156185e-003
,,,2.77500000e-009,-1.52249935e-003
,,,2.80000000e-009,-1.51968685e-003
,,,2.82500000e-009,-1.51265560e-003
,,,2.85000000e-009,-1.49999935e-003
,,,2.87500000e-009,-1.47749935e-003
,,,2.90000000e-009,-1.44937435e-003
,,,2.92500000e-009,-1.41749935e-003
,,,2.95000000e-009,-1.38374935e-003
,,,2.97500000e-009,-1.34906185e-003
,,,3.00000000e-009,-1.31624935e-003
,,,3.02500000e-009,-1.28624935e-003
,,,3.05000000e-009,-1.25999935e-003
,,,3.07500000e-009,-1.23468685e-003
,,,3.10000000e-009,-1.21359310e-003
,,,3.12500000e-009,-1.19671810e-003
,,,3.15000000e-009,-1.18265560e-003
,,,3.17500000e-009,-1.17140560e-003
,,,3.20000000e-009,-1.16109310e-003
,,,3.22500000e-009,-1.15078060e-003
,,,3.25000000e-009,-1.13999935e-003
,,,3.27500000e-009,-1.12453060e-003
,,,3.30000000e-009,-1.10718685e-003
,,,3.32500000e-009,-1.08937435e-003
,,,3.35000000e-009,-1.07156185e-003
,,,3.37500000e-009,-1.05468685e-003
,,,3.40000000e-009,-1.04062435e-003
,,,3.42500000e-009,-1.02890560e-003
,,,3.45000000e-009,-1.01999935e-003
,,,3.47500000e-009,-1.01203060e-003
,,,3.50000000e-009,-1.00453060e-003
,,,3.52500000e-009,-9.96561847e-004
,,,3.55000000e-009,-9.86249347e-004
,,,3.57500000e-009,-9.72655597e-004
,,,3.60000000e-009,-9.54374347e-004
,,,3.62500000e-009,-9.30468097e-004
,,,3.65000000e-009,-8.99999347e-004
,,,3.67500000e-009,-8.63905596e-004
,,,3.70000000e-009,-8.21249346e-004
,,,3.72500000e-009,-7.73905595e-004
,,,3.75000000e-009,-7.23749345e-004
,,,3.77500000e-009,-6.73124345e-004
,,,3.80000000e-009,-6.24374344e-004
,,,3.82500000e-009,-5.79374344e-004
,,,3.85000000e-009,-5.39999343e-004
,,,3.87500000e-009,-5.11874343e-004
,,,3.90000000e-009,-4.89843093e-004
,,,3.92500000e-009,-4.72968093e-004
,,,3.95000000e-009,-4.59843093e-004
,,,3.97500000e-009,-4.49530593e-004
,,,4.00000000e-009,-4.40624343e-004
,,,4.02500000e-009,-4.30780593e-004
,,,4.05000000e-009,-4.19999342e-004
,,,4.07500000e-009,-4.11093092e-004
,,,4.10000000e-009,-3.99374342e-004
,,,4.12500000e-009,-3.84374342e-004
,,,4.15000000e-009,-3.67030592e-004
,,,4.17500000e-009,-3.48749342e-004
,,,4.20000000e-009,-3.30936842e-004
,,,4.22500000e-009,-3.14061841e-004
,,,4.25000000e-009,-2.99999341e-004
,,,4.27500000e-009,-2.93905591e-004
,,,4.30000000e-009,-2.90624341e-004
,,,4.32500000e-009,-2.89686841e-004
,,,4.35000000e-009,-2.90155591e-004
,,,4.37500000e-009,-2.92030591e-004
,,,4.40000000e-009,-2.94374341e-004
,,,4.42500000e-009,-2.97186841e-004
,,,4.45000000e-009,-2.99999341e-004
,,,4.47500000e-009,-3.07499341e-004
,,,4.50000000e-009,-3.15468092e-004
,,,4.52500000e-009,-3.24374342e-004
,,,4.55000000e-009,-3.35155592e-004
,,,4.57500000e-009,-3.49218092e-004
,,,4.60000000e-009,-3.67968092e-004
,,,4.62500000e-009,-3.91405592e-004
,,,4.65000000e-009,-4.19999342e-004
,,,4.67500000e-009,-4.55155593e-004
,,,4.70000000e-009,-4.92186843e-004
,,,4.72500000e-009,-5.30155593e-004
,,,4.75000000e-009,-5.66249344e-004
,,,4.77500000e-009,-5.99061844e-004
,,,4.80000000e-009,-6.26718094e-004
,,,4.82500000e-009,-6.47343094e-004
,,,4.85000000e-009,-6.59999344e-004
,,,4.87500000e-009,-6.61874345e-004
,,,4.90000000e-009,-6.54843094e-004
,,,4.92500000e-009,-6.40780594e-004
,,,4.95000000e-009,-6.22030594e-004
,,,4.97500000e-009,-6.00468094e-004
,,,5.00000000e-009,-5.78436844e-004
,,,5.02500000e-009,-5.57811844e-004
,,,5.05000000e-009,-5.39999343e-004
,,,5.07500000e-009,-5.24999343e-004
,,,5.10000000e-009,-5.14686843e-004
,,,5.12500000e-009,-5.09530593e-004
,,,5.15000000e-009,-5.09999343e-004
,,,5.17500000e-009,-5.14218093e-004
,,,5.20000000e-009,-5.21249343e-004
,,,5.22500000e-009,-5.30624343e-004
,,,5.25000000e-009,-5.39999343e-004
,,,5.27500000e-009,-5.44218093e-004
,,,5.30000000e-009,-5.46561844e-004
,,,5.32500000e-009,-5.47499344e-004
,,,5.35000000e-009,-5.47030594e-004
,,,5.37500000e-009,-5.45624344e-004
,,,5.40000000e-009,-5.43749343e-004
,,,5.42500000e-009,-5.41874343e-004
,,,5.45000000e-009,-5.39999343e-004
,,,5.47500000e-009,-5.32968093e-004
,,,5.50000000e-009,-5.24999343e-004
,,,5.52500000e-009,-5.14686843e-004
,,,5.55000000e-009,-5.02499343e-004
,,,5.57500000e-009,-4.87499343e-004
,,,5.60000000e-009,-4.68749343e-004
,,,5.62500000e-009,-4.46718093e-004
,,,5.65000000e-009,-4.19999342e-004
,,,5.67500000e-009,-3.87186842e-004
,,,5.70000000e-009,-3.52030592e-004
,,,5.72500000e-009,-3.15936842e-004
,,,5.75000000e-009,-2.80780591e-004
,,,5.77500000e-009,-2.48436841e-004
,,,5.80000000e-009,-2.20311841e-004
,,,5.82500000e-009,-1.97343090e-004
,,,5.85000000e-009,-1.79999340e-004
,,,5.87500000e-009,-1.67811840e-004
,,,5.90000000e-009,-1.58436840e-004
,,,5.92500000e-009,-1.50468090e-004
