RawData/SinglePhotoelectron/L7_2pt2A_5mV/wave009_Ch1.csv

"Record Length",1000,"Points",-7.72500000e-009,-6.85311845e-004
"Sample Interval",2.50000000e-011,s,-7.70000000e-009,-7.18593095e-004
"Trigger Point",309,"Samples",-7.67500000e-009,-7.46718095e-004
"Trigger Time",1.48771429e-011,s,-7.65000000e-009,-7.67811845e-004
"",,,-7.62500000e-009,-7.79999346e-004
"Horizontal Offset",-7.72500000e-009,s,-7.60000000e-009,-7.78593096e-004
,,,-7.57500000e-009,-7.68749345e-004
,,,-7.55000000e-009,-7.52811845e-004
,,,-7.52500000e-009,-7.32655595e-004
,,,-7.50000000e-009,-7.11561845e-004
,,,-7.47500000e-009,-6.90936845e-004
,,,-7.45000000e-009,-6.73124345e-004
,,,-7.42500000e-009,-6.59999344e-004
,,,-7.40000000e-009,-6.47343094e-004
,,,-7.37500000e-009,-6.40780594e-004
,,,-7.35000000e-009,-6.39374344e-004
,,,-7.32500000e-009,-6.42186844e-004
,,,-7.30000000e-009,-6.47811844e-004
,,,-7.27500000e-009,-6.53905594e-004
,,,-7.25000000e-009,-6.59061844e-004
,,,-7.22500000e-009,-6.59999344e-004
,,,-7.20000000e-009,-6.52030594e-004
,,,-7.17500000e-009,-6.37030594e-004
,,,-7.15000000e-009,-6.14999344e-004
,,,-7.12500000e-009,-5.86405594e-004
,,,-7.10000000e-009,-5.51249344e-004
,,,-7.07500000e-009,-5.10936843e-004
,,,-7.05000000e-009,-4.66874343e-004
,,,-7.02500000e-009,-4.19999342e-004
,,,-7.00000000e-009,-3.72655592e-004
,,,-6.97500000e-009,-3.27186842e-004
,,,-6.95000000e-009,-2.85936841e-004
,,,-6.92500000e-009,-2.49843091e-004
,,,-6.90000000e-009,-2.21249341e-004
,,,-6.87500000e-009,-1.99686840e-004
,,,-6.85000000e-009,-1.86561840e-004
,,,-6.82500000e-009,-1.79999340e-004
,,,-6.80000000e-009,-1.81874340e-004
,,,-6.77500000e-009,-1.87499340e-004
,,,-6.75000000e-009,-1.94530590e-004
,,,-6.72500000e-009,-2.01561841e-004
,,,-6.70000000e-009,-2.04843091e-004
,,,-6.67500000e-009,-2.03905591e-004
,,,-6.65000000e-009,-1.95936840e-004
,,,-6.62500000e-009,-1.79999340e-004
,,,-6.60000000e-009,-1.60780590e-004
,,,-6.57500000e-009,-1.34061840e-004
,,,-6.55000000e-009,-1.02186840e-004
,,,-6.52500000e-009,-6.65618393e-005
,,,-6.50000000e-009,-2.99993390e-005
,,,-6.47500000e-009,5.15691128e-006
,,,-6.45000000e-009,3.56256615e-005
,,,-6.42500000e-009,6.00006618e-005
,,,-6.40000000e-009,6.89069118e-005
,,,-6.37500000e-009,6.93756618e-005
,,,-6.35000000e-009,6.09381618e-005
,,,-6.32500000e-009,4.45319116e-005
,,,-6.30000000e-009,2.29694114e-005
,,,-6.27500000e-009,-3.28058879e-006
,,,-6.25000000e-009,-3.14055890e-005
,,,-6.22500000e-009,-5.99993393e-005
,,,-6.20000000e-009,-9.14055896e-005
,,,-6.17500000e-009,-1.18593090e-004
,,,-6.15000000e-009,-1.41093090e-004
,,,-6.12500000e-009,-1.58436840e-004
,,,-6.10000000e-009,-1.70155590e-004
,,,-6.07500000e-009,-1.77655590e-004
,,,-6.05000000e-009,-1.80468090e-004
,,,-6.02500000e-009,-1.79999340e-004
,,,-6.00000000e-009,-1.79999340e-004
,,,-5.97500000e-009,-1.78124340e-004
,,,-5.95000000e-009,-1.75311840e-004
,,,-5.92500000e-009,-1.72968090e-004
,,,-5.90000000e-009,-1.71561840e-004
,,,-5.87500000e-009,-1.71561840e-004
,,,-5.85000000e-009,-1.74374340e-004
,,,-5.82500000e-009,-1.79999340e-004
,,,-5.80000000e-009,-1.90311840e-004
,,,-5.77500000e-009,-2.05311841e-004
,,,-5.75000000e-009,-2.25936841e-004
,,,-5.72500000e-009,-2.52655591e-004
,,,-5.70000000e-009,-2.85936841e-004
,,,-5.67500000e-009,-3.25311842e-004
,,,-5.65000000e-009,-3.70780592e-004
,,,-5.62500000e-009,-4.19999342e-004
,,,-5.60000000e-009,-4.69218093e-004
,,,-5.57500000e-009,-5.17030593e-004
,,,-5.55000000e-009,-5.62030594e-004
,,,-5.52500000e-009,-6.00936844e-004
,,,-5.50000000e-009,-6.31874344e-004
,,,-5.47500000e-009,-6.52968094e-004
,,,-5.45000000e-009,-6.62343095e-004
,,,-5.42500000e-009,-6.59999344e-004
,,,-5.40000000e-009,-6.40780594e-004
,,,-5.37500000e-009,-6.12655594e-004
,,,-5.35000000e-009,-5.77968094e-004
,,,-5.32500000e-009,-5.40468093e-004
,,,-5.30000000e-009,-5.02968093e-004
,,,-5.27500000e-009,-4.69218093e-004
,,,-5.25000000e-009,-4.41093093e-004
,,,-5.22500000e-009,-4.19999342e-004
,,,-5.20000000e-009,-4.05468092e-004
,,,-5.17500000e-009,-3.99374342e-004
,,,-5.15000000e-009,-4.00311842e-004
,,,-5.12500000e-009,-4.05936842e-004
,,,-5.10000000e-009,-4.13436842e-004
,,,-5.07500000e-009,-4.19999342e-004
,,,-5.05000000e-009,-4.23280592e-004
,,,-5.02500000e-009,-4.19999342e-004
,,,-5.00000000e-009,-4.07811842e-004
,,,-4.97500000e-009,-3.87655592e-004
,,,-4.95000000e-009,-3.60468092e-004
,,,-4.92500000e-009,-3.27655592e-004
,,,-4.90000000e-009,-2.91093091e-004
,,,-4.87500000e-009,-2.52655591e-004
,,,-4.85000000e-009,-2.15155591e-004
,,,-4.82500000e-009,-1.79999340e-004
,,,-4.80000000e-009,-1.49999340e-004
,,,-4.77500000e-009,-1.25624340e-004
,,,-4.75000000e-009,-1.06405590e-004
,,,-4.72500000e-009,-9.18743396e-005
,,,-4.70000000e-009,-8.10930895e-005
,,,-4.67500000e-009,-7.26555894e-005
,,,-4.65000000e-009,-6.60930893e-005
,,,-4.62500000e-009,-5.99993393e-005
,,,-4.60000000e-009,-5.76555893e-005
,,,-4.57500000e-009,-5.48430892e-005
,,,-4.55000000e-009,-5.20305892e-005
,,,-4.52500000e-009,-4.96868392e-005
,,,-4.50000000e-009,-4.87493392e-005
,,,-4.47500000e-009,-4.96868392e-005
,,,-4.45000000e-009,-5.34368392e-005
,,,-4.42500000e-009,-5.99993393e-005
,,,-4.40000000e-009,-7.49993394e-005
,,,-4.37500000e-009,-9.23430896e-005
,,,-4.35000000e-009,-1.10624340e-004
,,,-4.32500000e-009,-1.28905590e-004
,,,-4.30000000e-009,-1.46249340e-004
,,,-4.27500000e-009,-1.61249340e-004
,,,-4.25000000e-009,-1.72499340e-004
,,,-4.22500000e-009,-1.79999340e-004
,,,-4.20000000e-009,-1.86561840e-004
,,,-4.17500000e-009,-1.89374340e-004
,,,-4.15000000e-009,-1.88905590e-004
,,,-4.12500000e-009,-1.86561840e-004
,,,-4.10000000e-009,-1.83280590e-004
,,,-4.07500000e-009,-1.79999340e-004
,,,-4.05000000e-009,-1.79061840e-004
,,,-4.02500000e-009,-1.79999340e-004
,,,-4.00000000e-009,-1.87499340e-004
,,,-3.97500000e-009,-1.98280590e-004
,,,-3.95000000e-009,-2.11874341e-004
,,,-3.92500000e-009,-2.27811841e-004
,,,-3.90000000e-009,-2.45624341e-004
,,,-3.87500000e-009,-2.63905591e-004
,,,-3.85000000e-009,-2.82655591e-004
,,,-3.82500000e-009,-2.99999341e-004
,,,-3.80000000e-009,-3.17343092e-004
,,,-3.77500000e-009,-3.33749342e-004
,,,-3.75000000e-009,-3.48749342e-004
,,,-3.72500000e-009,-3.62811842e-004
,,,-3.70000000e-009,-3.76874342e-004
,,,-3.67500000e-009,-3.90468092e-004
,,,-3.65000000e-009,-4.04999342e-004
,,,-3.62500000e-009,-4.19999342e-004
,,,-3.60000000e-009,-4.34999343e-004
,,,-3.57500000e-009,-4.50468093e-004
,,,-3.55000000e-009,-4.66874343e-004
,,,-3.52500000e-009,-4.83280593e-004
,,,-3.50000000e-009,-4.99686843e-004
,,,-3.47500000e-009,-5.15155593e-004
,,,-3.45000000e-009,-5.28749343e-004
,,,-3.42500000e-009,-5.39999343e-004
,,,-3.40000000e-009,-5.46093094e-004
,,,-3.37500000e-009,-5.49374344e-004
,,,-3.35000000e-009,-5.50780594e-004
,,,-3.32500000e-009,-5.50311844e-004
,,,-3.30000000e-009,-5.48436844e-004
,,,-3.27500000e-009,-5.46093094e-004
,,,-3.25000000e-009,-5.43280593e-004
,,,-3.22500000e-009,-5.39999343e-004
,,,-3.20000000e-009,-5.34374343e-004
,,,-3.17500000e-009,-5.29218093e-004
,,,-3.15000000e-009,-5.25936843e-004
,,,-3.12500000e-009,-5.24999343e-004
,,,-3.10000000e-009,-5.25468093e-004
,,,-3.07500000e-009,-5.28749343e-004
,,,-3.05000000e-009,-5.33905593e-004
,,,-3.02500000e-009,-5.39999343e-004
,,,-3.00000000e-009,-5.43749343e-004
,,,-2.97500000e-009,-5.47499344e-004
,,,-2.95000000e-009,-5.50780594e-004
,,,-2.92500000e-009,-5.53124344e-004
,,,-2.90000000e-009,-5.53593094e-004
,,,-2.87500000e-009,-5.51718094e-004
,,,-2.85000000e-009,-5.47499344e-004
,,,-2.82500000e-009,-5.39999343e-004
,,,-2.80000000e-009,-5.26405593e-004
,,,-2.77500000e-009,-5.10936843e-004
,,,-2.75000000e-009,-4.93593093e-004
,,,-2.72500000e-009,-4.76249343e-004
,,,-2.70000000e-009,-4.59374343e-004
,,,-2.67500000e-009,-4.44374343e-004
,,,-2.65000000e-009,-4.31249343e-004
,,,-2.62500000e-009,-4.19999342e-004
,,,-2.60000000e-009,-4.09686842e-004
,,,-2.57500000e-009,-3.99843092e-004
,,,-2.55000000e-009,-3.89999342e-004
,,,-2.52500000e-009,-3.79218092e-004
,,,-2.50000000e-009,-3.65624342e-004
,,,-2.47500000e-009,-3.48280592e-004
,,,-2.45000000e-009,-3.26718092e-004
,,,-2.42500000e-009,-2.99999341e-004
,,,-2.40000000e-009,-2.69061841e-004
,,,-2.37500000e-009,-2.33905591e-004
,,,-2.35000000e-009,-1.97343090e-004
,,,-2.32500000e-009,-1.61249340e-004
,,,-2.30000000e-009,-1.27499340e-004
,,,-2.27500000e-009,-9.89055896e-005
,,,-2.25000000e-009,-7.59368394e-005
,,,-2.22500000e-009,-5.99993393e-005
,,,-2.20000000e-009,-5.39055892e-005
,,,-2.17500000e-009,-5.34368392e-005
,,,-2.15000000e-009,-5.67180893e-005
,,,-2.12500000e-009,-6.23430893e-005
,,,-2.10000000e-009,-6.74993393e-005
,,,-2.07500000e-009,-6.98430894e-005
,,,-2.05000000e-009,-6.79680894e-005
,,,-2.02500000e-009,-5.99993393e-005
,,,-2.00000000e-009,-5.06243392e-005
,,,-1.97500000e-009,-3.56243391e-005
,,,-1.95000000e-009,-1.68743389e-005
,,,-1.92500000e-009,3.75066127e-006
,,,-1.90000000e-009,2.39069114e-005
,,,-1.87500000e-009,4.12506616e-005
,,,-1.85000000e-009,5.39069117e-005
,,,-1.82500000e-009,6.00006618e-005
,,,-1.80000000e-009,5.20319117e-005
,,,-1.77500000e-009,3.79694116e-005
,,,-1.75000000e-009,1.87506614e-005
,,,-1.72500000e-009,-2.81183879e-006
,,,-1.70000000e-009,-2.39055890e-005
,,,-1.67500000e-009,-4.21868391e-005
,,,-1.65000000e-009,-5.48430892e-005
,,,-1.62500000e-009,-5.99993393e-005
,,,-1.60000000e-009,-6.51555893e-005
,,,-1.57500000e-009,-6.28118393e-005
,,,-1.55000000e-009,-5.24993392e-005
,,,-1.52500000e-009,-3.56243391e-005
,,,-1.50000000e-009,-1.40618389e-005
,,,-1.47500000e-009,1.07819113e-005
,,,-1.45000000e-009,3.60944116e-005
,,,-1.42500000e-009,6.00006618e-005
,,,-1.40000000e-009,6.60944118e-005
,,,-1.37500000e-009,6.46881618e-005
,,,-1.35000000e-009,5.62506617e-005
,,,-1.32500000e-009,4.17194116e-005
,,,-1.30000000e-009,2.10944114e-005
,,,-1.27500000e-009,-3.28058879e-006
,,,-1.25000000e-009,-3.04680890e-005
,,,-1.22500000e-009,-5.99993393e-005
,,,-1.20000000e-009,-1.08749340e-004
,,,-1.17500000e-009,-1.59843090e-004
,,,-1.15000000e-009,-2.11405591e-004
,,,-1.12500000e-009,-2.61561841e-004
,,,-1.10000000e-009,-3.08436841e-004
,,,-1.07500000e-009,-3.50624342e-004
,,,-1.05000000e-009,-3.88124342e-004
,,,-1.02500000e-009,-4.19999342e-004
,,,-1.00000000e-009,-4.68749343e-004
,,,-9.75000000e-010,-5.17499343e-004
,,,-9.50000000e-010,-5.65311844e-004
,,,-9.25000000e-010,-6.11718094e-004
,,,-9.00000000e-010,-6.56718094e-004
,,,-8.75000000e-010,-6.99374345e-004
,,,-8.50000000e-010,-7.40155595e-004
,,,-8.25000000e-010,-7.79999346e-004
,,,-8.00000000e-010,-8.43280596e-004
,,,-7.75000000e-010,-9.12186847e-004
,,,-7.50000000e-010,-9.86249347e-004
,,,-7.25000000e-010,-1.06312435e-003
,,,-7.00000000e-010,-1.14234310e-003
,,,-6.75000000e-010,-1.22156185e-003
,,,-6.50000000e-010,-1.30078060e-003
,,,-6.25000000e-010,-1.37999935e-003
,,,-6.00000000e-010,-1.48031185e-003
,,,-5.75000000e-010,-1.58671810e-003
,,,-5.50000000e-010,-1.69968685e-003
,,,-5.25000000e-010,-1.81828060e-003
,,,-5.00000000e-010,-1.94203061e-003
,,,-4.75000000e-010,-2.07046811e-003
,,,-4.50000000e-010,-2.20312436e-003
,,,-4.25000000e-010,-2.33999936e-003
,,,-4.00000000e-010,-2.49234311e-003
,,,-3.75000000e-010,-2.65265561e-003
,,,-3.50000000e-010,-2.81906186e-003
,,,-3.25000000e-010,-2.98921811e-003
,,,-3.00000000e-010,-3.16078062e-003
,,,-2.75000000e-010,-3.33046812e-003
,,,-2.50000000e-010,-3.49734312e-003
,,,-2.25000000e-010,-3.65999937e-003
,,,-2.00000000e-010,-3.81515562e-003
,,,-1.75000000e-010,-3.97078062e-003
,,,-1.50000000e-010,-4.12874937e-003
,,,-1.25000000e-010,-4.29046813e-003
,,,-1.00000000e-010,-4.45640563e-003
,,,-7.50000000e-011,-4.62656188e-003
,,,-5.00000000e-011,-4.80187438e-003
,,,-2.50000000e-011,-4.97999938e-003
,,,0.00000000e+000,-5.14406188e-003
,,,2.50000000e-011,-5.30999938e-003
,,,5.00000000e-011,-5.47687439e-003
,,,7.50000000e-011,-5.63999939e-003
,,,1.00000000e-010,-5.79562439e-003
,,,1.25000000e-010,-5.93999939e-003
,,,1.50000000e-010,-6.06890564e-003
,,,1.75000000e-010,-6.17999939e-003
,,,2.00000000e-010,-6.24281189e-003
,,,2.25000000e-010,-6.29249939e-003
,,,2.50000000e-010,-6.33328064e-003
,,,2.75000000e-010,-6.36984314e-003
,,,3.00000000e-010,-6.40640564e-003
,,,3.25000000e-010,-6.44578064e-003
,,,3.50000000e-010,-6.49031190e-003
,,,3.75000000e-010,-6.53999940e-003
,,,4.00000000e-010,-6.56109315e-003
,,,4.25000000e-010,-6.58734315e-003
,,,4.50000000e-010,-6.61687440e-003
,,,4.75000000e-010,-6.64640565e-003
,,,5.00000000e-010,-6.67031190e-003
,,,5.25000000e-010,-6.68390565e-003
,,,5.50000000e-010,-6.68156190e-003
,,,5.75000000e-010,-6.65999940e-003
,,,6.00000000e-010,-6.58453065e-003
,,,6.25000000e-010,-6.49312440e-003
,,,6.50000000e-010,-6.39187439e-003
,,,6.75000000e-010,-6.28687439e-003
,,,7.00000000e-010,-6.18421814e-003
,,,7.25000000e-010,-6.08999939e-003
,,,7.50000000e-010,-6.00796814e-003
,,,7.75000000e-010,-5.93999939e-003
,,,8.00000000e-010,-5.86124939e-003
,,,8.25000000e-010,-5.79656189e-003
,,,8.50000000e-010,-5.74218689e-003
,,,8.75000000e-010,-5.69484314e-003
,,,9.00000000e-010,-5.64843689e-003
,,,9.25000000e-010,-5.59734314e-003
,,,9.50000000e-010,-5.53640564e-003
,,,9.75000000e-010,-5.45999939e-003
,,,1.00000000e-009,-5.34937439e-003
,,,1.02500000e-009,-5.22093688e-003
,,,1.05000000e-009,-5.07984313e-003
,,,1.07500000e-009,-4.93031188e-003
,,,1.10000000e-009,-4.77984313e-003
,,,1.12500000e-009,-4.63453063e-003
,,,1.15000000e-009,-4.49999938e-003
,,,1.17500000e-009,-4.37999938e-003
,,,1.20000000e-009,-4.27312438e-003
,,,1.22500000e-009,-4.18124938e-003
,,,1.25000000e-009,-4.10156187e-003
,,,1.27500000e-009,-4.03265562e-003
,,,1.30000000e-009,-3.96984312e-003
,,,1.32500000e-009,-3.90984312e-003
,,,1.35000000e-009,-3.84796812e-003
,,,1.37500000e-009,-3.77999937e-003
,,,1.40000000e-009,-3.70453062e-003
,,,1.42500000e-009,-3.61546812e-003
,,,1.45000000e-009,-3.51374937e-003
,,,1.47500000e-009,-3.40218687e-003
,,,1.50000000e-009,-3.28453062e-003
,,,1.52500000e-009,-3.16546812e-003
,,,1.55000000e-009,-3.04968687e-003
,,,1.57500000e-009,-2.93999936e-003
,,,1.60000000e-009,-2.84765561e-003
,,,1.62500000e-009,-2.76140561e-003
,,,1.65000000e-009,-2.68031186e-003
,,,1.67500000e-009,-2.60484311e-003
,,,1.70000000e-009,-2.53359311e-003
,,,1.72500000e-009,-2.46609311e-003
,,,1.75000000e-009,-2.40187436e-003
,,,1.77500000e-009,-2.33999936e-003
,,,1.80000000e-009,-2.29078061e-003
,,,1.82500000e-009,-2.23921811e-003
,,,1.85000000e-009,-2.18718686e-003
,,,1.87500000e-009,-2.13562436e-003
,,,1.90000000e-009,-2.08687436e-003
,,,1.92500000e-009,-2.04328061e-003
,,,1.95000000e-009,-2.00765561e-003
,,,1.97500000e-009,-1.97999936e-003
,,,2.00000000e-009,-1.97062436e-003
,,,2.02500000e-009,-1.96312436e-003
,,,2.05000000e-009,-1.95609311e-003
,,,2.07500000e-009,-1.94718686e-003
,,,2.10000000e-009,-1.93453061e-003
,,,2.12500000e-009,-1.91624936e-003
,,,2.15000000e-009,-1.89187436e-003
,,,2.17500000e-009,-1.85999935e-003
,,,2.20000000e-009,-1.82718685e-003
,,,2.22500000e-009,-1.78546810e-003
,,,2.25000000e-009,-1.73624935e-003
,,,2.27500000e-009,-1.68281185e-003
,,,2.30000000e-009,-1.62937435e-003
,,,2.32500000e-009,-1.57874935e-003
,,,2.35000000e-009,-1.53468685e-003
,,,2.37500000e-009,-1.49999935e-003
,,,2.40000000e-009,-1.48359310e-003
,,,2.42500000e-009,-1.47468685e-003
,,,2.45000000e-009,-1.47281185e-003
,,,2.47500000e-009,-1.47609310e-003
,,,2.50000000e-009,-1.48265560e-003
,,,2.52500000e-009,-1.48968685e-003
,,,2.55000000e-009,-1.49624935e-003
,,,2.57500000e-009,-1.49999935e-003
,,,2.60000000e-009,-1.50187435e-003
,,,2.62500000e-009,-1.49718685e-003
,,,2.65000000e-009,-1.48546810e-003
,,,2.67500000e-009,-1.46859310e-003
,,,2.70000000e-009,-1.44749935e-003
,,,2.72500000e-009,-1.42499935e-003
,,,2.75000000e-009,-1.40249935e-003
,,,2.77500000e-009,-1.37999935e-003
,,,2.80000000e-009,-1.36078060e-003
,,,2.82500000e-009,-1.34062435e-003
,,,2.85000000e-009,-1.31859310e-003
,,,2.87500000e-009,-1.29328060e-003
,,,2.90000000e-009,-1.26328060e-003
,,,2.92500000e-009,-1.22812435e-003
,,,2.95000000e-009,-1.18687435e-003
,,,2.97500000e-009,-1.13999935e-003
,,,3.00000000e-009,-1.09124935e-003
,,,3.02500000e-009,-1.04062435e-003
,,,3.05000000e-009,-9.91405597e-004
,,,3.07500000e-009,-9.47811847e-004
,,,3.10000000e-009,-9.14530597e-004
,,,3.12500000e-009,-8.93905597e-004
,,,3.15000000e-009,-8.88749346e-004
,,,3.17500000e-009,-8.99999347e-004
,,,3.20000000e-009,-9.29999347e-004
,,,3.22500000e-009,-9.69843097e-004
,,,3.25000000e-009,-1.01531185e-003
,,,3.27500000e-009,-1.06078060e-003
,,,3.30000000e-009,-1.10062435e-003
,,,3.32500000e-009,-1.12968685e-003
,,,3.35000000e-009,-1.14374935e-003
,,,3.37500000e-009,-1.13999935e-003
,,,3.40000000e-009,-1.11749935e-003
,,,3.42500000e-009,-1.07812435e-003
,,,3.45000000e-009,-1.02609310e-003
,,,3.47500000e-009,-9.67030597e-004
,,,3.50000000e-009,-9.07030597e-004
,,,3.52500000e-009,-8.52655596e-004
,,,3.55000000e-009,-8.09061846e-004
,,,3.57500000e-009,-7.79999346e-004
,,,3.60000000e-009,-7.70155595e-004
,,,3.62500000e-009,-7.75311846e-004
,,,3.65000000e-009,-7.92655596e-004
,,,3.67500000e-009,-8.17968096e-004
,,,3.70000000e-009,-8.47030596e-004
,,,3.72500000e-009,-8.73280596e-004
,,,3.75000000e-009,-8.92030597e-004
,,,3.77500000e-009,-8.99999347e-004
,,,3.80000000e-009,-8.94843097e-004
,,,3.82500000e-009,-8.75155596e-004
,,,3.85000000e-009,-8.43749346e-004
,,,3.87500000e-009,-8.04374346e-004
,,,3.90000000e-009,-7.61249345e-004
,,,3.92500000e-009,-7.19999345e-004
,,,3.95000000e-009,-6.84843095e-004
,,,3.97500000e-009,-6.59999344e-004
,,,4.00000000e-009,-6.47343094e-004
,,,4.02500000e-009,-6.47343094e-004
,,,4.05000000e-009,-6.58124344e-004
,,,4.07500000e-009,-6.78280595e-004
,,,4.10000000e-009,-7.04061845e-004
,,,4.12500000e-009,-7.32186845e-004
,,,4.15000000e-009,-7.58436845e-004
,,,4.17500000e-009,-7.79999346e-004
,,,4.20000000e-009,-7.91249346e-004
,,,4.22500000e-009,-7.92655596e-004
,,,4.25000000e-009,-7.84218096e-004
,,,4.27500000e-009,-7.67811845e-004
,,,4.30000000e-009,-7.44843095e-004
,,,4.32500000e-009,-7.17655595e-004
,,,4.35000000e-009,-6.88593095e-004
,,,4.37500000e-009,-6.59999344e-004
,,,4.40000000e-009,-6.33280594e-004
,,,4.42500000e-009,-6.09843094e-004
,,,4.45000000e-009,-5.90155594e-004
,,,4.47500000e-009,-5.74218094e-004
,,,4.50000000e-009,-5.61561844e-004
,,,4.52500000e-009,-5.52655594e-004
,,,4.55000000e-009,-5.46093094e-004
,,,4.57500000e-009,-5.39999343e-004
,,,4.60000000e-009,-5.33436843e-004
,,,4.62500000e-009,-5.24999343e-004
,,,4.65000000e-009,-5.14218093e-004
,,,4.67500000e-009,-5.01093093e-004
,,,4.70000000e-009,-4.85155593e-004
,,,4.72500000e-009,-4.66405593e-004
,,,4.75000000e-009,-4.44374343e-004
,,,4.77500000e-009,-4.19999342e-004
,,,4.80000000e-009,-3.95155592e-004
,,,4.82500000e-009,-3.67499342e-004
,,,4.85000000e-009,-3.37968092e-004
,,,4.87500000e-009,-3.07030591e-004
,,,4.90000000e-009,-2.75155591e-004
,,,4.92500000e-009,-2.42811841e-004
,,,4.95000000e-009,-2.10936841e-004
,,,4.97500000e-009,-1.79999340e-004
,,,5.00000000e-009,-1.54686840e-004
,,,5.02500000e-009,-1.31718090e-004
,,,5.05000000e-009,-1.12030590e-004
,,,5.07500000e-009,-9.51555896e-005
,,,5.10000000e-009,-8.15618395e-005
,,,5.12500000e-009,-7.17180894e-005
,,,5.15000000e-009,-6.46868393e-005
,,,5.17500000e-009,-5.99993393e-005
,,,5.20000000e-009,-6.32805893e-005
,,,5.22500000e-009,-6.74993393e-005
,,,5.25000000e-009,-7.12493394e-005
,,,5.27500000e-009,-7.35930894e-005
,,,5.30000000e-009,-7.45305894e-005
,,,5.32500000e-009,-7.21868394e-005
,,,5.35000000e-009,-6.74993393e-005
,,,5.37500000e-009,-5.99993393e-005
,,,5.40000000e-009,-5.62493392e-005
,,,5.42500000e-009,-5.15618392e-005
,,,5.45000000e-009,-4.64055892e-005
,,,5.47500000e-009,-4.26555891e-005
,,,5.50000000e-009,-4.07805891e-005
,,,5.52500000e-009,-4.21868391e-005
,,,5.55000000e-009,-4.87493392e-005
,,,5.57500000e-009,-5.99993393e-005
,,,5.60000000e-009,-8.15618395e-005
,,,5.62500000e-009,-1.07343090e-004
,,,5.65000000e-009,-1.37343090e-004
,,,5.67500000e-009,-1.70155590e-004
,,,5.70000000e-009,-2.03905591e-004
,,,5.72500000e-009,-2.37655591e-004
,,,5.75000000e-009,-2.70468091e-004
,,,5.77500000e-009,-2.99999341e-004
,,,5.80000000e-009,-3.27655592e-004
,,,5.82500000e-009,-3.50624342e-004
