RawData/SinglePhotoelectron/L7_2pt2A_5mV/wave019_Ch1.csv

"Record Length",1000,"Points",-7.72500000e-009,-1.68749340e-004
"Sample Interval",2.50000000e-011,s,-7.70000000e-009,-1.57499340e-004
"Trigger Point",309,"Samples",-7.67500000e-009,-1.45780590e-004
"Trigger Time",6.63904762e-012,s,-7.65000000e-009,-1.33124340e-004
"",,,-7.62500000e-009,-1.18593090e-004
"Horizontal Offset",-7.72500000e-009,s,-7.60000000e-009,-1.01718090e-004
,,,-7.57500000e-009,-8.24993395e-005
,,,-7.55000000e-009,-5.99993393e-005
,,,-7.52500000e-009,-3.37493391e-005
,,,-7.50000000e-009,-7.03058882e-006
,,,-7.47500000e-009,1.82819114e-005
,,,-7.45000000e-009,4.03131616e-005
,,,-7.42500000e-009,5.67194117e-005
,,,-7.40000000e-009,6.60944118e-005
,,,-7.37500000e-009,6.75006618e-005
,,,-7.35000000e-009,6.00006618e-005
,,,-7.32500000e-009,4.40631616e-005
,,,-7.30000000e-009,2.29694114e-005
,,,-7.27500000e-009,-4.68088765e-007
,,,-7.25000000e-009,-2.43743390e-005
,,,-7.22500000e-009,-4.45305891e-005
,,,-7.20000000e-009,-5.90618393e-005
,,,-7.17500000e-009,-6.46868393e-005
,,,-7.15000000e-009,-5.99993393e-005
,,,-7.12500000e-009,-4.35930891e-005
,,,-7.10000000e-009,-1.78118389e-005
,,,-7.07500000e-009,1.50006614e-005
,,,-7.05000000e-009,5.25006617e-005
,,,-7.02500000e-009,9.09381620e-005
,,,-7.00000000e-009,1.26563162e-004
,,,-6.97500000e-009,1.57031913e-004
,,,-6.95000000e-009,1.80000663e-004
,,,-6.92500000e-009,1.92656913e-004
,,,-6.90000000e-009,1.97344413e-004
,,,-6.87500000e-009,1.95938163e-004
,,,-6.85000000e-009,1.89844413e-004
,,,-6.82500000e-009,1.82813163e-004
,,,-6.80000000e-009,1.77656913e-004
,,,-6.77500000e-009,1.75781913e-004
,,,-6.75000000e-009,1.80000663e-004
,,,-6.72500000e-009,1.88438163e-004
,,,-6.70000000e-009,2.03438163e-004
,,,-6.67500000e-009,2.23125663e-004
,,,-6.65000000e-009,2.44688163e-004
,,,-6.62500000e-009,2.66250664e-004
,,,-6.60000000e-009,2.83594414e-004
,,,-6.57500000e-009,2.95781914e-004
,,,-6.55000000e-009,3.00000664e-004
,,,-6.52500000e-009,2.92969414e-004
,,,-6.50000000e-009,2.78906914e-004
,,,-6.47500000e-009,2.59688163e-004
,,,-6.45000000e-009,2.37656913e-004
,,,-6.42500000e-009,2.15625663e-004
,,,-6.40000000e-009,1.97344413e-004
,,,-6.37500000e-009,1.84688163e-004
,,,-6.35000000e-009,1.80000663e-004
,,,-6.32500000e-009,1.81875663e-004
,,,-6.30000000e-009,1.91719413e-004
,,,-6.27500000e-009,2.08125663e-004
,,,-6.25000000e-009,2.29219413e-004
,,,-6.22500000e-009,2.51250663e-004
,,,-6.20000000e-009,2.72344414e-004
,,,-6.17500000e-009,2.89219414e-004
,,,-6.15000000e-009,3.00000664e-004
,,,-6.12500000e-009,2.99531914e-004
,,,-6.10000000e-009,2.92031914e-004
,,,-6.07500000e-009,2.77969414e-004
,,,-6.05000000e-009,2.59219413e-004
,,,-6.02500000e-009,2.37656913e-004
,,,-6.00000000e-009,2.15625663e-004
,,,-5.97500000e-009,1.95938163e-004
,,,-5.95000000e-009,1.80000663e-004
,,,-5.92500000e-009,1.66875663e-004
,,,-5.90000000e-009,1.59375663e-004
,,,-5.87500000e-009,1.57031913e-004
,,,-5.85000000e-009,1.58906913e-004
,,,-5.82500000e-009,1.63594413e-004
,,,-5.80000000e-009,1.69688163e-004
,,,-5.77500000e-009,1.75781913e-004
,,,-5.75000000e-009,1.80000663e-004
,,,-5.72500000e-009,1.79531913e-004
,,,-5.70000000e-009,1.74375663e-004
,,,-5.67500000e-009,1.65000663e-004
,,,-5.65000000e-009,1.50469413e-004
,,,-5.62500000e-009,1.31719412e-004
,,,-5.60000000e-009,1.09688162e-004
,,,-5.57500000e-009,8.53131620e-005
,,,-5.55000000e-009,6.00006618e-005
,,,-5.52500000e-009,3.42194115e-005
,,,-5.50000000e-009,9.84441132e-006
,,,-5.47500000e-009,-1.21868389e-005
,,,-5.45000000e-009,-3.09368390e-005
,,,-5.42500000e-009,-4.54680892e-005
,,,-5.40000000e-009,-5.48430892e-005
,,,-5.37500000e-009,-5.99993393e-005
,,,-5.35000000e-009,-5.99993393e-005
,,,-5.32500000e-009,-5.62493392e-005
,,,-5.30000000e-009,-5.01555892e-005
,,,-5.27500000e-009,-4.40618391e-005
,,,-5.25000000e-009,-3.93743391e-005
,,,-5.22500000e-009,-3.74993391e-005
,,,-5.20000000e-009,-3.98430891e-005
,,,-5.17500000e-009,-4.73430892e-005
,,,-5.15000000e-009,-5.99993393e-005
,,,-5.12500000e-009,-7.68743394e-005
,,,-5.10000000e-009,-9.74993396e-005
,,,-5.07500000e-009,-1.19999340e-004
,,,-5.05000000e-009,-1.41561840e-004
,,,-5.02500000e-009,-1.60780590e-004
,,,-5.00000000e-009,-1.74374340e-004
,,,-4.97500000e-009,-1.81405590e-004
,,,-4.95000000e-009,-1.79999340e-004
,,,-4.92500000e-009,-1.71093090e-004
,,,-4.90000000e-009,-1.55624340e-004
,,,-4.87500000e-009,-1.36405590e-004
,,,-4.85000000e-009,-1.14843090e-004
,,,-4.82500000e-009,-9.46868396e-005
,,,-4.80000000e-009,-7.73430894e-005
,,,-4.77500000e-009,-6.51555893e-005
,,,-4.75000000e-009,-5.99993393e-005
,,,-4.72500000e-009,-6.42180893e-005
,,,-4.70000000e-009,-7.59368394e-005
,,,-4.67500000e-009,-9.37493396e-005
,,,-4.65000000e-009,-1.15311840e-004
,,,-4.62500000e-009,-1.37343090e-004
,,,-4.60000000e-009,-1.57030590e-004
,,,-4.57500000e-009,-1.72030590e-004
,,,-4.55000000e-009,-1.79999340e-004
,,,-4.52500000e-009,-1.80468090e-004
,,,-4.50000000e-009,-1.72968090e-004
,,,-4.47500000e-009,-1.58905590e-004
,,,-4.45000000e-009,-1.39686840e-004
,,,-4.42500000e-009,-1.18124340e-004
,,,-4.40000000e-009,-9.56243396e-005
,,,-4.37500000e-009,-7.59368394e-005
,,,-4.35000000e-009,-5.99993393e-005
,,,-4.32500000e-009,-5.24993392e-005
,,,-4.30000000e-009,-5.29680892e-005
,,,-4.27500000e-009,-6.04680893e-005
,,,-4.25000000e-009,-7.54680894e-005
,,,-4.22500000e-009,-9.60930896e-005
,,,-4.20000000e-009,-1.21405590e-004
,,,-4.17500000e-009,-1.49999340e-004
,,,-4.15000000e-009,-1.79999340e-004
,,,-4.12500000e-009,-2.11874341e-004
,,,-4.10000000e-009,-2.43280591e-004
,,,-4.07500000e-009,-2.74686841e-004
,,,-4.05000000e-009,-3.04686841e-004
,,,-4.02500000e-009,-3.34686842e-004
,,,-4.00000000e-009,-3.63749342e-004
,,,-3.97500000e-009,-3.92343092e-004
,,,-3.95000000e-009,-4.19999342e-004
,,,-3.92500000e-009,-4.45780593e-004
,,,-3.90000000e-009,-4.69218093e-004
,,,-3.87500000e-009,-4.90780593e-004
,,,-3.85000000e-009,-5.09530593e-004
,,,-3.82500000e-009,-5.24061843e-004
,,,-3.80000000e-009,-5.34374343e-004
,,,-3.77500000e-009,-5.39999343e-004
,,,-3.75000000e-009,-5.39999343e-004
,,,-3.72500000e-009,-5.31561843e-004
,,,-3.70000000e-009,-5.18905593e-004
,,,-3.67500000e-009,-5.02968093e-004
,,,-3.65000000e-009,-4.85155593e-004
,,,-3.62500000e-009,-4.66874343e-004
,,,-3.60000000e-009,-4.49061843e-004
,,,-3.57500000e-009,-4.33124343e-004
,,,-3.55000000e-009,-4.19999342e-004
,,,-3.52500000e-009,-4.08749342e-004
,,,-3.50000000e-009,-4.00780592e-004
,,,-3.47500000e-009,-3.97030592e-004
,,,-3.45000000e-009,-3.97030592e-004
,,,-3.42500000e-009,-4.00311842e-004
,,,-3.40000000e-009,-4.05468092e-004
,,,-3.37500000e-009,-4.12499342e-004
,,,-3.35000000e-009,-4.19999342e-004
,,,-3.32500000e-009,-4.24218092e-004
,,,-3.30000000e-009,-4.27968092e-004
,,,-3.27500000e-009,-4.29843092e-004
,,,-3.25000000e-009,-4.30780593e-004
,,,-3.22500000e-009,-4.30780593e-004
,,,-3.20000000e-009,-4.28905592e-004
,,,-3.17500000e-009,-4.25155592e-004
,,,-3.15000000e-009,-4.19999342e-004
,,,-3.12500000e-009,-4.10624342e-004
,,,-3.10000000e-009,-3.99843092e-004
,,,-3.07500000e-009,-3.86718092e-004
,,,-3.05000000e-009,-3.72655592e-004
,,,-3.02500000e-009,-3.56718092e-004
,,,-3.00000000e-009,-3.38905592e-004
,,,-2.97500000e-009,-3.20155592e-004
,,,-2.95000000e-009,-2.99999341e-004
,,,-2.92500000e-009,-2.78905591e-004
,,,-2.90000000e-009,-2.57343091e-004
,,,-2.87500000e-009,-2.37186841e-004
,,,-2.85000000e-009,-2.18905591e-004
,,,-2.82500000e-009,-2.03436841e-004
,,,-2.80000000e-009,-1.91718090e-004
,,,-2.77500000e-009,-1.83749340e-004
,,,-2.75000000e-009,-1.79999340e-004
,,,-2.72500000e-009,-1.80468090e-004
,,,-2.70000000e-009,-1.83280590e-004
,,,-2.67500000e-009,-1.86561840e-004
,,,-2.65000000e-009,-1.89843090e-004
,,,-2.62500000e-009,-1.92186840e-004
,,,-2.60000000e-009,-1.91718090e-004
,,,-2.57500000e-009,-1.87968090e-004
,,,-2.55000000e-009,-1.79999340e-004
,,,-2.52500000e-009,-1.69686840e-004
,,,-2.50000000e-009,-1.56093090e-004
,,,-2.47500000e-009,-1.39686840e-004
,,,-2.45000000e-009,-1.21874340e-004
,,,-2.42500000e-009,-1.03593090e-004
,,,-2.40000000e-009,-8.67180895e-005
,,,-2.37500000e-009,-7.17180894e-005
,,,-2.35000000e-009,-5.99993393e-005
,,,-2.32500000e-009,-5.48430892e-005
,,,-2.30000000e-009,-5.29680892e-005
,,,-2.27500000e-009,-5.39055892e-005
,,,-2.25000000e-009,-5.67180893e-005
,,,-2.22500000e-009,-5.99993393e-005
,,,-2.20000000e-009,-6.23430893e-005
,,,-2.17500000e-009,-6.28118393e-005
,,,-2.15000000e-009,-5.99993393e-005
,,,-2.12500000e-009,-5.67180893e-005
,,,-2.10000000e-009,-4.87493392e-005
,,,-2.07500000e-009,-3.70305891e-005
,,,-2.05000000e-009,-2.15618389e-005
,,,-2.02500000e-009,-2.81183879e-006
,,,-2.00000000e-009,1.78131614e-005
,,,-1.97500000e-009,3.93756616e-005
,,,-1.95000000e-009,6.00006618e-005
,,,-1.92500000e-009,7.26569119e-005
,,,-1.90000000e-009,8.25006620e-005
,,,-1.87500000e-009,8.81256620e-005
,,,-1.85000000e-009,9.00006620e-005
,,,-1.82500000e-009,8.76569120e-005
,,,-1.80000000e-009,8.20319120e-005
,,,-1.77500000e-009,7.26569119e-005
,,,-1.75000000e-009,6.00006618e-005
,,,-1.72500000e-009,3.60944116e-005
,,,-1.70000000e-009,8.90691132e-006
,,,-1.67500000e-009,-2.10930889e-005
,,,-1.65000000e-009,-5.29680892e-005
,,,-1.62500000e-009,-8.57805895e-005
,,,-1.60000000e-009,-1.18593090e-004
,,,-1.57500000e-009,-1.50468090e-004
,,,-1.55000000e-009,-1.79999340e-004
,,,-1.52500000e-009,-2.15155591e-004
,,,-1.50000000e-009,-2.47030591e-004
,,,-1.47500000e-009,-2.74218091e-004
,,,-1.45000000e-009,-2.95311841e-004
,,,-1.42500000e-009,-3.08436841e-004
,,,-1.40000000e-009,-3.14061841e-004
,,,-1.37500000e-009,-3.10780591e-004
,,,-1.35000000e-009,-2.99999341e-004
,,,-1.32500000e-009,-2.94843091e-004
,,,-1.30000000e-009,-2.87811841e-004
,,,-1.27500000e-009,-2.80780591e-004
,,,-1.25000000e-009,-2.75155591e-004
,,,-1.22500000e-009,-2.72811841e-004
,,,-1.20000000e-009,-2.75624341e-004
,,,-1.17500000e-009,-2.84061841e-004
,,,-1.15000000e-009,-2.99999341e-004
,,,-1.12500000e-009,-3.41249342e-004
,,,-1.10000000e-009,-3.92811842e-004
,,,-1.07500000e-009,-4.53280593e-004
,,,-1.05000000e-009,-5.19374343e-004
,,,-1.02500000e-009,-5.87811844e-004
,,,-1.00000000e-009,-6.55780594e-004
,,,-9.75000000e-010,-7.20468095e-004
,,,-9.50000000e-010,-7.79999346e-004
,,,-9.25000000e-010,-8.53593096e-004
,,,-9.00000000e-010,-9.24843097e-004
,,,-8.75000000e-010,-9.92811847e-004
,,,-8.50000000e-010,-1.05609310e-003
,,,-8.25000000e-010,-1.11421810e-003
,,,-8.00000000e-010,-1.16671810e-003
,,,-7.75000000e-010,-1.21499935e-003
,,,-7.50000000e-010,-1.25999935e-003
,,,-7.25000000e-010,-1.32374935e-003
,,,-7.00000000e-010,-1.39218685e-003
,,,-6.75000000e-010,-1.46531185e-003
,,,-6.50000000e-010,-1.54171810e-003
,,,-6.25000000e-010,-1.62046810e-003
,,,-6.00000000e-010,-1.70062435e-003
,,,-5.75000000e-010,-1.78031185e-003
,,,-5.50000000e-010,-1.85999935e-003
,,,-5.25000000e-010,-1.95796811e-003
,,,-5.00000000e-010,-2.06015561e-003
,,,-4.75000000e-010,-2.16609311e-003
,,,-4.50000000e-010,-2.27343686e-003
,,,-4.25000000e-010,-2.38124936e-003
,,,-4.00000000e-010,-2.48859311e-003
,,,-3.75000000e-010,-2.59453061e-003
,,,-3.50000000e-010,-2.69999936e-003
,,,-3.25000000e-010,-2.81624936e-003
,,,-3.00000000e-010,-2.94046811e-003
,,,-2.75000000e-010,-3.07359312e-003
,,,-2.50000000e-010,-3.21703062e-003
,,,-2.25000000e-010,-3.37171812e-003
,,,-2.00000000e-010,-3.53718687e-003
,,,-1.75000000e-010,-3.71390562e-003
,,,-1.50000000e-010,-3.89999937e-003
,,,-1.25000000e-010,-4.08984312e-003
,,,-1.00000000e-010,-4.28812438e-003
,,,-7.50000000e-011,-4.49249938e-003
,,,-5.00000000e-011,-4.69921813e-003
,,,-2.50000000e-011,-4.90312438e-003
,,,0.00000000e+000,-5.09999938e-003
,,,2.50000000e-011,-5.28703063e-003
,,,5.00000000e-011,-5.45999939e-003
,,,7.50000000e-011,-5.59687439e-003
,,,1.00000000e-010,-5.72296814e-003
,,,1.25000000e-010,-5.84156189e-003
,,,1.50000000e-010,-5.95593689e-003
,,,1.75000000e-010,-6.06890564e-003
,,,2.00000000e-010,-6.18328064e-003
,,,2.25000000e-010,-6.30046814e-003
,,,2.50000000e-010,-6.41999939e-003
,,,2.75000000e-010,-6.50999940e-003
,,,3.00000000e-010,-6.60187440e-003
,,,3.25000000e-010,-6.69468690e-003
,,,3.50000000e-010,-6.78421815e-003
,,,3.75000000e-010,-6.86624940e-003
,,,4.00000000e-010,-6.93562440e-003
,,,4.25000000e-010,-6.98859315e-003
,,,4.50000000e-010,-7.01999940e-003
,,,4.75000000e-010,-6.99093690e-003
,,,5.00000000e-010,-6.94312440e-003
,,,5.25000000e-010,-6.88218690e-003
,,,5.50000000e-010,-6.81234315e-003
,,,5.75000000e-010,-6.73968690e-003
,,,6.00000000e-010,-6.66796815e-003
,,,6.25000000e-010,-6.60093690e-003
,,,6.50000000e-010,-6.53999940e-003
,,,6.75000000e-010,-6.45328064e-003
,,,7.00000000e-010,-6.37499939e-003
,,,7.25000000e-010,-6.30468689e-003
,,,7.50000000e-010,-6.23859314e-003
,,,7.75000000e-010,-6.17343689e-003
,,,8.00000000e-010,-6.10499939e-003
,,,8.25000000e-010,-6.02812439e-003
,,,8.50000000e-010,-5.93999939e-003
,,,8.75000000e-010,-5.81343689e-003
,,,9.00000000e-010,-5.67562439e-003
,,,9.25000000e-010,-5.52984314e-003
,,,9.50000000e-010,-5.38218689e-003
,,,9.75000000e-010,-5.23687438e-003
,,,1.00000000e-009,-5.09906188e-003
,,,1.02500000e-009,-4.97296813e-003
,,,1.05000000e-009,-4.85999938e-003
,,,1.07500000e-009,-4.75031188e-003
,,,1.10000000e-009,-4.65234313e-003
,,,1.12500000e-009,-4.56374938e-003
,,,1.15000000e-009,-4.48124938e-003
,,,1.17500000e-009,-4.40156188e-003
,,,1.20000000e-009,-4.32046813e-003
,,,1.22500000e-009,-4.23421813e-003
,,,1.25000000e-009,-4.13999937e-003
,,,1.27500000e-009,-4.03359312e-003
,,,1.30000000e-009,-3.91499937e-003
,,,1.32500000e-009,-3.78749937e-003
,,,1.35000000e-009,-3.65484312e-003
,,,1.37500000e-009,-3.52265562e-003
,,,1.40000000e-009,-3.39656187e-003
,,,1.42500000e-009,-3.28124937e-003
,,,1.45000000e-009,-3.17999937e-003
,,,1.47500000e-009,-3.10078062e-003
,,,1.50000000e-009,-3.03234312e-003
,,,1.52500000e-009,-2.97187436e-003
,,,1.55000000e-009,-2.91703061e-003
,,,1.57500000e-009,-2.86499936e-003
,,,1.60000000e-009,-2.81343686e-003
,,,1.62500000e-009,-2.75906186e-003
,,,1.65000000e-009,-2.69999936e-003
,,,1.67500000e-009,-2.64234311e-003
,,,1.70000000e-009,-2.57390561e-003
,,,1.72500000e-009,-2.49609311e-003
,,,1.75000000e-009,-2.41171811e-003
,,,1.77500000e-009,-2.32546811e-003
,,,1.80000000e-009,-2.24249936e-003
,,,1.82500000e-009,-2.16609311e-003
,,,1.85000000e-009,-2.09999936e-003
,,,1.87500000e-009,-2.05687436e-003
,,,1.90000000e-009,-2.02078061e-003
,,,1.92500000e-009,-1.99078061e-003
,,,1.95000000e-009,-1.96499936e-003
,,,1.97500000e-009,-1.94109311e-003
,,,2.00000000e-009,-1.91671811e-003
,,,2.02500000e-009,-1.89046811e-003
,,,2.05000000e-009,-1.85999935e-003
,,,2.07500000e-009,-1.83187435e-003
,,,2.10000000e-009,-1.79484310e-003
,,,2.12500000e-009,-1.74984310e-003
,,,2.15000000e-009,-1.69921810e-003
,,,2.17500000e-009,-1.64624935e-003
,,,2.20000000e-009,-1.59328060e-003
,,,2.22500000e-009,-1.54406185e-003
,,,2.25000000e-009,-1.49999935e-003
,,,2.27500000e-009,-1.47046810e-003
,,,2.30000000e-009,-1.44374935e-003
,,,2.32500000e-009,-1.41843685e-003
,,,2.35000000e-009,-1.39265560e-003
,,,2.37500000e-009,-1.36499935e-003
,,,2.40000000e-009,-1.33453060e-003
,,,2.42500000e-009,-1.29937435e-003
,,,2.45000000e-009,-1.25999935e-003
,,,2.47500000e-009,-1.22296810e-003
,,,2.50000000e-009,-1.18124935e-003
,,,2.52500000e-009,-1.13859310e-003
,,,2.55000000e-009,-1.09781185e-003
,,,2.57500000e-009,-1.06265560e-003
,,,2.60000000e-009,-1.03640560e-003
,,,2.62500000e-009,-1.02187435e-003
,,,2.65000000e-009,-1.01999935e-003
,,,2.67500000e-009,-1.03593685e-003
,,,2.70000000e-009,-1.05890560e-003
,,,2.72500000e-009,-1.08609310e-003
,,,2.75000000e-009,-1.11328060e-003
,,,2.77500000e-009,-1.13578060e-003
,,,2.80000000e-009,-1.14984310e-003
,,,2.82500000e-009,-1.15171810e-003
,,,2.85000000e-009,-1.13999935e-003
,,,2.87500000e-009,-1.11421810e-003
,,,2.90000000e-009,-1.07343685e-003
,,,2.92500000e-009,-1.02234310e-003
,,,2.95000000e-009,-9.64686847e-004
,,,2.97500000e-009,-9.07030597e-004
,,,3.00000000e-009,-8.53593096e-004
,,,3.02500000e-009,-8.09999346e-004
,,,3.05000000e-009,-7.79999346e-004
,,,3.07500000e-009,-7.68749345e-004
,,,3.10000000e-009,-7.71093095e-004
,,,3.12500000e-009,-7.85155596e-004
,,,3.15000000e-009,-8.07655596e-004
,,,3.17500000e-009,-8.34843096e-004
,,,3.20000000e-009,-8.61561846e-004
,,,3.22500000e-009,-8.84530596e-004
,,,3.25000000e-009,-8.99999347e-004
,,,3.27500000e-009,-9.06561847e-004
,,,3.30000000e-009,-9.02811847e-004
,,,3.32500000e-009,-8.88749346e-004
,,,3.35000000e-009,-8.68124346e-004
,,,3.37500000e-009,-8.44218096e-004
,,,3.40000000e-009,-8.19374346e-004
,,,3.42500000e-009,-7.97343096e-004
,,,3.45000000e-009,-7.79999346e-004
,,,3.47500000e-009,-7.68749345e-004
,,,3.50000000e-009,-7.60780595e-004
,,,3.52500000e-009,-7.55155595e-004
,,,3.55000000e-009,-7.49061845e-004
,,,3.57500000e-009,-7.38749345e-004
,,,3.60000000e-009,-7.21874345e-004
,,,3.62500000e-009,-6.96093095e-004
,,,3.65000000e-009,-6.59999344e-004
,,,3.67500000e-009,-6.14999344e-004
,,,3.70000000e-009,-5.61561844e-004
,,,3.72500000e-009,-5.03905593e-004
,,,3.75000000e-009,-4.45780593e-004
,,,3.77500000e-009,-3.92343092e-004
,,,3.80000000e-009,-3.47811842e-004
,,,3.82500000e-009,-3.16405592e-004
,,,3.85000000e-009,-2.99999341e-004
,,,3.87500000e-009,-3.04686841e-004
,,,3.90000000e-009,-3.23905592e-004
,,,3.92500000e-009,-3.55311842e-004
,,,3.95000000e-009,-3.94218092e-004
,,,3.97500000e-009,-4.36874343e-004
,,,4.00000000e-009,-4.78124343e-004
,,,4.02500000e-009,-5.13749343e-004
,,,4.05000000e-009,-5.39999343e-004
,,,4.07500000e-009,-5.55468094e-004
,,,4.10000000e-009,-5.58280594e-004
,,,4.12500000e-009,-5.48905594e-004
,,,4.15000000e-009,-5.30155593e-004
,,,4.17500000e-009,-5.04374343e-004
,,,4.20000000e-009,-4.75311843e-004
,,,4.22500000e-009,-4.46249343e-004
,,,4.25000000e-009,-4.19999342e-004
,,,4.27500000e-009,-4.02655592e-004
,,,4.30000000e-009,-3.91405592e-004
,,,4.32500000e-009,-3.86718092e-004
,,,4.35000000e-009,-3.88124342e-004
,,,4.37500000e-009,-3.93749342e-004
,,,4.40000000e-009,-4.02186842e-004
,,,4.42500000e-009,-4.11561842e-004
,,,4.45000000e-009,-4.19999342e-004
,,,4.47500000e-009,-4.27968092e-004
,,,4.50000000e-009,-4.32186843e-004
,,,4.52500000e-009,-4.33593093e-004
,,,4.55000000e-009,-4.32186843e-004
,,,4.57500000e-009,-4.28905592e-004
,,,4.60000000e-009,-4.25155592e-004
,,,4.62500000e-009,-4.21874342e-004
,,,4.65000000e-009,-4.19999342e-004
,,,4.67500000e-009,-4.20936842e-004
,,,4.70000000e-009,-4.22811842e-004
,,,4.72500000e-009,-4.25624342e-004
,,,4.75000000e-009,-4.27968092e-004
,,,4.77500000e-009,-4.29374342e-004
,,,4.80000000e-009,-4.28905592e-004
,,,4.82500000e-009,-4.25624342e-004
,,,4.85000000e-009,-4.19999342e-004
,,,4.87500000e-009,-4.12030592e-004
,,,4.90000000e-009,-4.02655592e-004
,,,4.92500000e-009,-3.94686842e-004
,,,4.95000000e-009,-3.89061842e-004
,,,4.97500000e-009,-3.87655592e-004
,,,5.00000000e-009,-3.91874342e-004
,,,5.02500000e-009,-4.02655592e-004
,,,5.05000000e-009,-4.19999342e-004
,,,5.07500000e-009,-4.42968093e-004
,,,5.10000000e-009,-4.68280593e-004
,,,5.12500000e-009,-4.94530593e-004
,,,5.15000000e-009,-5.18436843e-004
,,,5.17500000e-009,-5.37186843e-004
,,,5.20000000e-009,-5.48436844e-004
,,,5.22500000e-009,-5.49843094e-004
,,,5.25000000e-009,-5.39999343e-004
,,,5.27500000e-009,-5.18905593e-004
,,,5.30000000e-009,-4.88436843e-004
,,,5.32500000e-009,-4.51874343e-004
,,,5.35000000e-009,-4.12968092e-004
,,,5.37500000e-009,-3.74999342e-004
,,,5.40000000e-009,-3.41718092e-004
,,,5.42500000e-009,-3.15936842e-004
,,,5.45000000e-009,-2.99999341e-004
,,,5.47500000e-009,-2.94843091e-004
,,,5.50000000e-009,-2.99999341e-004
,,,5.52500000e-009,-3.14061841e-004
,,,5.55000000e-009,-3.34686842e-004
,,,5.57500000e-009,-3.58593092e-004
,,,5.60000000e-009,-3.82968092e-004
,,,5.62500000e-009,-4.04530592e-004
,,,5.65000000e-009,-4.19999342e-004
,,,5.67500000e-009,-4.26093092e-004
,,,5.70000000e-009,-4.23280592e-004
,,,5.72500000e-009,-4.12499342e-004
,,,5.75000000e-009,-3.94686842e-004
,,,5.77500000e-009,-3.72186842e-004
,,,5.80000000e-009,-3.47343092e-004
,,,5.82500000e-009,-3.22499342e-004
,,,5.85000000e-009,-2.99999341e-004
,,,5.87500000e-009,-2.82655591e-004
