RawData/SinglePhotoelectron/L7_2pt2A_5mV/wave025_Ch1.csv

"Record Length",1000,"Points",-7.72500000e-009,-2.76093091e-004
"Sample Interval",2.50000000e-011,s,-7.70000000e-009,-2.52186841e-004
"Trigger Point",309,"Samples",-7.67500000e-009,-2.29686841e-004
"Trigger Time",2.31633022e-011,s,-7.65000000e-009,-2.09530591e-004
"",,,-7.62500000e-009,-1.93593090e-004
"Horizontal Offset",-7.72500000e-009,s,-7.60000000e-009,-1.82811840e-004
,,,-7.57500000e-009,-1.78124340e-004
,,,-7.55000000e-009,-1.79999340e-004
,,,-7.52500000e-009,-1.89843090e-004
,,,-7.50000000e-009,-2.04843091e-004
,,,-7.47500000e-009,-2.23124341e-004
,,,-7.45000000e-009,-2.42811841e-004
,,,-7.42500000e-009,-2.62030591e-004
,,,-7.40000000e-009,-2.78905591e-004
,,,-7.37500000e-009,-2.92030591e-004
,,,-7.35000000e-009,-2.99999341e-004
,,,-7.32500000e-009,-3.03280591e-004
,,,-7.30000000e-009,-3.02343091e-004
,,,-7.27500000e-009,-2.98124341e-004
,,,-7.25000000e-009,-2.92968091e-004
,,,-7.22500000e-009,-2.89218091e-004
,,,-7.20000000e-009,-2.87811841e-004
,,,-7.17500000e-009,-2.91561841e-004
,,,-7.15000000e-009,-2.99999341e-004
,,,-7.12500000e-009,-3.15936842e-004
,,,-7.10000000e-009,-3.36093092e-004
,,,-7.07500000e-009,-3.58593092e-004
,,,-7.05000000e-009,-3.80624342e-004
,,,-7.02500000e-009,-4.00311842e-004
,,,-7.00000000e-009,-4.14374342e-004
,,,-6.97500000e-009,-4.21405592e-004
,,,-6.95000000e-009,-4.19999342e-004
,,,-6.92500000e-009,-4.10624342e-004
,,,-6.90000000e-009,-3.94218092e-004
,,,-6.87500000e-009,-3.73124342e-004
,,,-6.85000000e-009,-3.50624342e-004
,,,-6.82500000e-009,-3.29061842e-004
,,,-6.80000000e-009,-3.11718091e-004
,,,-6.77500000e-009,-3.01874341e-004
,,,-6.75000000e-009,-2.99999341e-004
,,,-6.72500000e-009,-3.08436841e-004
,,,-6.70000000e-009,-3.24843092e-004
,,,-6.67500000e-009,-3.46405592e-004
,,,-6.65000000e-009,-3.69843092e-004
,,,-6.62500000e-009,-3.92343092e-004
,,,-6.60000000e-009,-4.09686842e-004
,,,-6.57500000e-009,-4.19530592e-004
,,,-6.55000000e-009,-4.19999342e-004
,,,-6.52500000e-009,-4.10155592e-004
,,,-6.50000000e-009,-3.92343092e-004
,,,-6.47500000e-009,-3.68905592e-004
,,,-6.45000000e-009,-3.44061842e-004
,,,-6.42500000e-009,-3.21093092e-004
,,,-6.40000000e-009,-3.04218091e-004
,,,-6.37500000e-009,-2.96718091e-004
,,,-6.35000000e-009,-2.99999341e-004
,,,-6.32500000e-009,-3.16874342e-004
,,,-6.30000000e-009,-3.44530592e-004
,,,-6.27500000e-009,-3.80155592e-004
,,,-6.25000000e-009,-4.20468092e-004
,,,-6.22500000e-009,-4.60311843e-004
,,,-6.20000000e-009,-4.95936843e-004
,,,-6.17500000e-009,-5.23593093e-004
,,,-6.15000000e-009,-5.39999343e-004
,,,-6.12500000e-009,-5.43280593e-004
,,,-6.10000000e-009,-5.35311843e-004
,,,-6.07500000e-009,-5.17968093e-004
,,,-6.05000000e-009,-4.94530593e-004
,,,-6.02500000e-009,-4.69218093e-004
,,,-6.00000000e-009,-4.46249343e-004
,,,-5.97500000e-009,-4.29374342e-004
,,,-5.95000000e-009,-4.19999342e-004
,,,-5.92500000e-009,-4.20468092e-004
,,,-5.90000000e-009,-4.29843092e-004
,,,-5.87500000e-009,-4.46718093e-004
,,,-5.85000000e-009,-4.68749343e-004
,,,-5.82500000e-009,-4.92655593e-004
,,,-5.80000000e-009,-5.14218093e-004
,,,-5.77500000e-009,-5.31093093e-004
,,,-5.75000000e-009,-5.39999343e-004
,,,-5.72500000e-009,-5.37655593e-004
,,,-5.70000000e-009,-5.25936843e-004
,,,-5.67500000e-009,-5.08124343e-004
,,,-5.65000000e-009,-4.85624343e-004
,,,-5.62500000e-009,-4.62655593e-004
,,,-5.60000000e-009,-4.42499343e-004
,,,-5.57500000e-009,-4.27499342e-004
,,,-5.55000000e-009,-4.19999342e-004
,,,-5.52500000e-009,-4.19530592e-004
,,,-5.50000000e-009,-4.27499342e-004
,,,-5.47500000e-009,-4.42030593e-004
,,,-5.45000000e-009,-4.62186843e-004
,,,-5.42500000e-009,-4.84686843e-004
,,,-5.40000000e-009,-5.07186843e-004
,,,-5.37500000e-009,-5.26405593e-004
,,,-5.35000000e-009,-5.39999343e-004
,,,-5.32500000e-009,-5.43280593e-004
,,,-5.30000000e-009,-5.38124343e-004
,,,-5.27500000e-009,-5.26405593e-004
,,,-5.25000000e-009,-5.08593093e-004
,,,-5.22500000e-009,-4.87499343e-004
,,,-5.20000000e-009,-4.64061843e-004
,,,-5.17500000e-009,-4.41561843e-004
,,,-5.15000000e-009,-4.19999342e-004
,,,-5.12500000e-009,-4.00311842e-004
,,,-5.10000000e-009,-3.82968092e-004
,,,-5.07500000e-009,-3.68436842e-004
,,,-5.05000000e-009,-3.55311842e-004
,,,-5.02500000e-009,-3.43593092e-004
,,,-5.00000000e-009,-3.31405592e-004
,,,-4.97500000e-009,-3.17343092e-004
,,,-4.95000000e-009,-2.99999341e-004
,,,-4.92500000e-009,-2.78905591e-004
,,,-4.90000000e-009,-2.54061841e-004
,,,-4.87500000e-009,-2.25468091e-004
,,,-4.85000000e-009,-1.94061840e-004
,,,-4.82500000e-009,-1.60780590e-004
,,,-4.80000000e-009,-1.26093090e-004
,,,-4.77500000e-009,-9.23430896e-005
,,,-4.75000000e-009,-5.99993393e-005
,,,-4.72500000e-009,-3.28118390e-005
,,,-4.70000000e-009,-8.90558884e-006
,,,-4.67500000e-009,1.17194113e-005
,,,-4.65000000e-009,2.81256615e-005
,,,-4.62500000e-009,4.12506616e-005
,,,-4.60000000e-009,5.01569117e-005
,,,-4.57500000e-009,5.62506617e-005
,,,-4.55000000e-009,6.00006618e-005
,,,-4.52500000e-009,5.85944117e-005
,,,-4.50000000e-009,5.67194117e-005
,,,-4.47500000e-009,5.43756617e-005
,,,-4.45000000e-009,5.29694117e-005
,,,-4.42500000e-009,5.25006617e-005
,,,-4.40000000e-009,5.34381617e-005
,,,-4.37500000e-009,5.62506617e-005
,,,-4.35000000e-009,6.00006618e-005
,,,-4.32500000e-009,6.18756618e-005
,,,-4.30000000e-009,6.51569118e-005
,,,-4.27500000e-009,6.89069118e-005
,,,-4.25000000e-009,7.21881619e-005
,,,-4.22500000e-009,7.31256619e-005
,,,-4.20000000e-009,7.21881619e-005
,,,-4.17500000e-009,6.79694118e-005
,,,-4.15000000e-009,6.00006618e-005
,,,-4.12500000e-009,4.68756616e-005
,,,-4.10000000e-009,3.18756615e-005
,,,-4.07500000e-009,1.50006614e-005
,,,-4.05000000e-009,-2.34308878e-006
,,,-4.02500000e-009,-1.92180889e-005
,,,-4.00000000e-009,-3.51555891e-005
,,,-3.97500000e-009,-4.92180892e-005
,,,-3.95000000e-009,-5.99993393e-005
,,,-3.92500000e-009,-6.84368394e-005
,,,-3.90000000e-009,-7.35930894e-005
,,,-3.87500000e-009,-7.49993394e-005
,,,-3.85000000e-009,-7.40618394e-005
,,,-3.82500000e-009,-7.12493394e-005
,,,-3.80000000e-009,-6.70305893e-005
,,,-3.77500000e-009,-6.32805893e-005
,,,-3.75000000e-009,-5.99993393e-005
,,,-3.72500000e-009,-5.81243393e-005
,,,-3.70000000e-009,-5.76555893e-005
,,,-3.67500000e-009,-5.81243393e-005
,,,-3.65000000e-009,-5.95305893e-005
,,,-3.62500000e-009,-6.14055893e-005
,,,-3.60000000e-009,-6.23430893e-005
,,,-3.57500000e-009,-6.23430893e-005
,,,-3.55000000e-009,-5.99993393e-005
,,,-3.52500000e-009,-5.57805892e-005
,,,-3.50000000e-009,-4.82805892e-005
,,,-3.47500000e-009,-3.74993391e-005
,,,-3.45000000e-009,-2.39055890e-005
,,,-3.42500000e-009,-6.56183882e-006
,,,-3.40000000e-009,1.31256614e-005
,,,-3.37500000e-009,3.56256615e-005
,,,-3.35000000e-009,6.00006618e-005
,,,-3.32500000e-009,8.29694120e-005
,,,-3.30000000e-009,1.05000662e-004
,,,-3.27500000e-009,1.25625662e-004
,,,-3.25000000e-009,1.43906912e-004
,,,-3.22500000e-009,1.58906913e-004
,,,-3.20000000e-009,1.70156913e-004
,,,-3.17500000e-009,1.77188163e-004
,,,-3.15000000e-009,1.80000663e-004
,,,-3.12500000e-009,1.73906913e-004
,,,-3.10000000e-009,1.63594413e-004
,,,-3.07500000e-009,1.49063163e-004
,,,-3.05000000e-009,1.32656912e-004
,,,-3.02500000e-009,1.13906912e-004
,,,-3.00000000e-009,9.51569121e-005
,,,-2.97500000e-009,7.68756619e-005
,,,-2.95000000e-009,6.00006618e-005
,,,-2.92500000e-009,4.17194116e-005
,,,-2.90000000e-009,2.57819115e-005
,,,-2.87500000e-009,1.07819113e-005
,,,-2.85000000e-009,-2.81183879e-006
,,,-2.82500000e-009,-1.64055889e-005
,,,-2.80000000e-009,-2.99993390e-005
,,,-2.77500000e-009,-4.45305891e-005
,,,-2.75000000e-009,-5.99993393e-005
,,,-2.72500000e-009,-7.78118394e-005
,,,-2.70000000e-009,-9.60930896e-005
,,,-2.67500000e-009,-1.14374340e-004
,,,-2.65000000e-009,-1.32186840e-004
,,,-2.62500000e-009,-1.47655590e-004
,,,-2.60000000e-009,-1.61249340e-004
,,,-2.57500000e-009,-1.72030590e-004
,,,-2.55000000e-009,-1.79999340e-004
,,,-2.52500000e-009,-1.86561840e-004
,,,-2.50000000e-009,-1.92655590e-004
,,,-2.47500000e-009,-1.99218090e-004
,,,-2.45000000e-009,-2.09061841e-004
,,,-2.42500000e-009,-2.22655591e-004
,,,-2.40000000e-009,-2.41874341e-004
,,,-2.37500000e-009,-2.68124341e-004
,,,-2.35000000e-009,-2.99999341e-004
,,,-2.32500000e-009,-3.36561842e-004
,,,-2.30000000e-009,-3.75936842e-004
,,,-2.27500000e-009,-4.17186842e-004
,,,-2.25000000e-009,-4.56561843e-004
,,,-2.22500000e-009,-4.91249343e-004
,,,-2.20000000e-009,-5.17968093e-004
,,,-2.17500000e-009,-5.34843093e-004
,,,-2.15000000e-009,-5.39999343e-004
,,,-2.12500000e-009,-5.29218093e-004
,,,-2.10000000e-009,-5.08124343e-004
,,,-2.07500000e-009,-4.78124343e-004
,,,-2.05000000e-009,-4.42030593e-004
,,,-2.02500000e-009,-4.03593092e-004
,,,-2.00000000e-009,-3.65155592e-004
,,,-1.97500000e-009,-3.29999342e-004
,,,-1.95000000e-009,-2.99999341e-004
,,,-1.92500000e-009,-2.77499341e-004
,,,-1.90000000e-009,-2.63436841e-004
,,,-1.87500000e-009,-2.57811841e-004
,,,-1.85000000e-009,-2.59686841e-004
,,,-1.82500000e-009,-2.67186841e-004
,,,-1.80000000e-009,-2.77499341e-004
,,,-1.77500000e-009,-2.89218091e-004
,,,-1.75000000e-009,-2.99999341e-004
,,,-1.72500000e-009,-3.08905591e-004
,,,-1.70000000e-009,-3.14999341e-004
,,,-1.67500000e-009,-3.17343092e-004
,,,-1.65000000e-009,-3.17343092e-004
,,,-1.62500000e-009,-3.14530591e-004
,,,-1.60000000e-009,-3.10311841e-004
,,,-1.57500000e-009,-3.05155591e-004
,,,-1.55000000e-009,-2.99999341e-004
,,,-1.52500000e-009,-2.98593091e-004
,,,-1.50000000e-009,-2.98593091e-004
,,,-1.47500000e-009,-2.99999341e-004
,,,-1.45000000e-009,-3.01874341e-004
,,,-1.42500000e-009,-3.03749341e-004
,,,-1.40000000e-009,-3.04218091e-004
,,,-1.37500000e-009,-3.03280591e-004
,,,-1.35000000e-009,-2.99999341e-004
,,,-1.32500000e-009,-3.03280591e-004
,,,-1.30000000e-009,-3.05624341e-004
,,,-1.27500000e-009,-3.07499341e-004
,,,-1.25000000e-009,-3.07968091e-004
,,,-1.22500000e-009,-3.07030591e-004
,,,-1.20000000e-009,-3.05155591e-004
,,,-1.17500000e-009,-3.02811841e-004
,,,-1.15000000e-009,-2.99999341e-004
,,,-1.12500000e-009,-3.15468092e-004
,,,-1.10000000e-009,-3.33749342e-004
,,,-1.07500000e-009,-3.53436842e-004
,,,-1.05000000e-009,-3.73124342e-004
,,,-1.02500000e-009,-3.90936842e-004
,,,-1.00000000e-009,-4.04999342e-004
,,,-9.75000000e-010,-4.14843092e-004
,,,-9.50000000e-010,-4.19999342e-004
,,,-9.25000000e-010,-4.47186843e-004
,,,-9.00000000e-010,-4.74374343e-004
,,,-8.75000000e-010,-4.98749343e-004
,,,-8.50000000e-010,-5.19374343e-004
,,,-8.25000000e-010,-5.34374343e-004
,,,-8.00000000e-010,-5.42343093e-004
,,,-7.75000000e-010,-5.43749343e-004
,,,-7.50000000e-010,-5.39999343e-004
,,,-7.25000000e-010,-5.69530594e-004
,,,-7.00000000e-010,-6.04218094e-004
,,,-6.75000000e-010,-6.44061844e-004
,,,-6.50000000e-010,-6.87655595e-004
,,,-6.25000000e-010,-7.35468095e-004
,,,-6.00000000e-010,-7.86093096e-004
,,,-5.75000000e-010,-8.40468096e-004
,,,-5.50000000e-010,-8.99999347e-004
,,,-5.25000000e-010,-1.00453060e-003
,,,-5.00000000e-010,-1.12265560e-003
,,,-4.75000000e-010,-1.25203060e-003
,,,-4.50000000e-010,-1.38984310e-003
,,,-4.25000000e-010,-1.53328060e-003
,,,-4.00000000e-010,-1.68046810e-003
,,,-3.75000000e-010,-1.82906185e-003
,,,-3.50000000e-010,-1.97999936e-003
,,,-3.25000000e-010,-2.16187436e-003
,,,-3.00000000e-010,-2.35312436e-003
,,,-2.75000000e-010,-2.55281186e-003
,,,-2.50000000e-010,-2.76046811e-003
,,,-2.25000000e-010,-2.97515561e-003
,,,-2.00000000e-010,-3.19640562e-003
,,,-1.75000000e-010,-3.42468687e-003
,,,-1.50000000e-010,-3.65999937e-003
,,,-1.25000000e-010,-3.91124937e-003
,,,-1.00000000e-010,-4.17421813e-003
,,,-7.50000000e-011,-4.44937438e-003
,,,-5.00000000e-011,-4.73531188e-003
,,,-2.50000000e-011,-5.02968688e-003
,,,0.00000000e+000,-5.33062439e-003
,,,2.50000000e-011,-5.63484314e-003
,,,5.00000000e-011,-5.93999939e-003
,,,7.50000000e-011,-6.22359314e-003
,,,1.00000000e-010,-6.50578065e-003
,,,1.25000000e-010,-6.78656190e-003
,,,1.50000000e-010,-7.06406190e-003
,,,1.75000000e-010,-7.33593690e-003
,,,2.00000000e-010,-7.60078065e-003
,,,2.25000000e-010,-7.85624941e-003
,,,2.50000000e-010,-8.09999941e-003
,,,2.75000000e-010,-8.28328066e-003
,,,3.00000000e-010,-8.45484316e-003
,,,3.25000000e-010,-8.61749941e-003
,,,3.50000000e-010,-8.77218692e-003
,,,3.75000000e-010,-8.91890567e-003
,,,4.00000000e-010,-9.05671817e-003
,,,4.25000000e-010,-9.18468692e-003
,,,4.50000000e-010,-9.29999942e-003
,,,4.75000000e-010,-9.33890567e-003
,,,5.00000000e-010,-9.36609317e-003
,,,5.25000000e-010,-9.38343692e-003
,,,5.50000000e-010,-9.39093692e-003
,,,5.75000000e-010,-9.38812442e-003
,,,6.00000000e-010,-9.37359317e-003
,,,6.25000000e-010,-9.34499942e-003
,,,6.50000000e-010,-9.29999942e-003
,,,6.75000000e-010,-9.17671817e-003
,,,7.00000000e-010,-9.04078067e-003
,,,7.25000000e-010,-8.89546817e-003
,,,7.50000000e-010,-8.74312441e-003
,,,7.75000000e-010,-8.58656191e-003
,,,8.00000000e-010,-8.42671816e-003
,,,8.25000000e-010,-8.26453066e-003
,,,8.50000000e-010,-8.09999941e-003
,,,8.75000000e-010,-7.88718691e-003
,,,9.00000000e-010,-7.67624941e-003
,,,9.25000000e-010,-7.47046815e-003
,,,9.50000000e-010,-7.27031190e-003
,,,9.75000000e-010,-7.07859315e-003
,,,1.00000000e-009,-6.89343690e-003
,,,1.02500000e-009,-6.71484315e-003
,,,1.05000000e-009,-6.53999940e-003
,,,1.07500000e-009,-6.34406189e-003
,,,1.10000000e-009,-6.14859314e-003
,,,1.12500000e-009,-5.95359314e-003
,,,1.15000000e-009,-5.75859314e-003
,,,1.17500000e-009,-5.56359314e-003
,,,1.20000000e-009,-5.36859314e-003
,,,1.22500000e-009,-5.17406188e-003
,,,1.25000000e-009,-4.97999938e-003
,,,1.27500000e-009,-4.78546813e-003
,,,1.30000000e-009,-4.58953063e-003
,,,1.32500000e-009,-4.39499938e-003
,,,1.35000000e-009,-4.20468688e-003
,,,1.37500000e-009,-4.02093687e-003
,,,1.40000000e-009,-3.84749937e-003
,,,1.42500000e-009,-3.68671812e-003
,,,1.45000000e-009,-3.53999937e-003
,,,1.47500000e-009,-3.42234312e-003
,,,1.50000000e-009,-3.31124937e-003
,,,1.52500000e-009,-3.20437437e-003
,,,1.55000000e-009,-3.10078062e-003
,,,1.57500000e-009,-2.99953061e-003
,,,1.60000000e-009,-2.89921811e-003
,,,1.62500000e-009,-2.79937436e-003
,,,1.65000000e-009,-2.69999936e-003
,,,1.67500000e-009,-2.62359311e-003
,,,1.70000000e-009,-2.53968686e-003
,,,1.72500000e-009,-2.44874936e-003
,,,1.75000000e-009,-2.35265561e-003
,,,1.77500000e-009,-2.25421811e-003
,,,1.80000000e-009,-2.15671811e-003
,,,1.82500000e-009,-2.06437436e-003
,,,1.85000000e-009,-1.97999936e-003
,,,1.87500000e-009,-1.93078061e-003
,,,1.90000000e-009,-1.88718686e-003
,,,1.92500000e-009,-1.84874935e-003
,,,1.95000000e-009,-1.81546810e-003
,,,1.97500000e-009,-1.78828060e-003
,,,2.00000000e-009,-1.76624935e-003
,,,2.02500000e-009,-1.75031185e-003
,,,2.05000000e-009,-1.73999935e-003
,,,2.07500000e-009,-1.75312435e-003
,,,2.10000000e-009,-1.76390560e-003
,,,2.12500000e-009,-1.77046810e-003
,,,2.15000000e-009,-1.77187435e-003
,,,2.17500000e-009,-1.76859310e-003
,,,2.20000000e-009,-1.76156185e-003
,,,2.22500000e-009,-1.75171810e-003
,,,2.25000000e-009,-1.73999935e-003
,,,2.27500000e-009,-1.74046810e-003
,,,2.30000000e-009,-1.73765560e-003
,,,2.32500000e-009,-1.73296810e-003
,,,2.35000000e-009,-1.72828060e-003
,,,2.37500000e-009,-1.72453060e-003
,,,2.40000000e-009,-1.72406185e-003
,,,2.42500000e-009,-1.72921810e-003
,,,2.45000000e-009,-1.73999935e-003
,,,2.47500000e-009,-1.76484310e-003
,,,2.50000000e-009,-1.79343685e-003
,,,2.52500000e-009,-1.82437435e-003
,,,2.55000000e-009,-1.85765560e-003
,,,2.57500000e-009,-1.89093686e-003
,,,2.60000000e-009,-1.92328061e-003
,,,2.62500000e-009,-1.95328061e-003
,,,2.65000000e-009,-1.97999936e-003
,,,2.67500000e-009,-2.00249936e-003
,,,2.70000000e-009,-2.01796811e-003
,,,2.72500000e-009,-2.02640561e-003
,,,2.75000000e-009,-2.02781186e-003
,,,2.77500000e-009,-2.02312436e-003
,,,2.80000000e-009,-2.01281186e-003
,,,2.82500000e-009,-1.99828061e-003
,,,2.85000000e-009,-1.97999936e-003
,,,2.87500000e-009,-1.95562436e-003
,,,2.90000000e-009,-1.92843686e-003
,,,2.92500000e-009,-1.89890561e-003
,,,2.95000000e-009,-1.86843686e-003
,,,2.97500000e-009,-1.83656185e-003
,,,3.00000000e-009,-1.80421810e-003
,,,3.02500000e-009,-1.77187435e-003
,,,3.05000000e-009,-1.73999935e-003
,,,3.07500000e-009,-1.70624935e-003
,,,3.10000000e-009,-1.67531185e-003
,,,3.12500000e-009,-1.64812435e-003
,,,3.15000000e-009,-1.62703060e-003
,,,3.17500000e-009,-1.61296810e-003
,,,3.20000000e-009,-1.60687435e-003
,,,3.22500000e-009,-1.60921810e-003
,,,3.25000000e-009,-1.61999935e-003
,,,3.27500000e-009,-1.63453060e-003
,,,3.30000000e-009,-1.65328060e-003
,,,3.32500000e-009,-1.67484310e-003
,,,3.35000000e-009,-1.69593685e-003
,,,3.37500000e-009,-1.71515560e-003
,,,3.40000000e-009,-1.73015560e-003
,,,3.42500000e-009,-1.73906185e-003
,,,3.45000000e-009,-1.73999935e-003
,,,3.47500000e-009,-1.72828060e-003
,,,3.50000000e-009,-1.70765560e-003
,,,3.52500000e-009,-1.67953060e-003
,,,3.55000000e-009,-1.64624935e-003
,,,3.57500000e-009,-1.60921810e-003
,,,3.60000000e-009,-1.57171810e-003
,,,3.62500000e-009,-1.53468685e-003
,,,3.65000000e-009,-1.49999935e-003
,,,3.67500000e-009,-1.46624935e-003
,,,3.70000000e-009,-1.43484310e-003
,,,3.72500000e-009,-1.40531185e-003
,,,3.75000000e-009,-1.37765560e-003
,,,3.77500000e-009,-1.35046810e-003
,,,3.80000000e-009,-1.32234310e-003
,,,3.82500000e-009,-1.29281185e-003
,,,3.85000000e-009,-1.25999935e-003
,,,3.87500000e-009,-1.22343685e-003
,,,3.90000000e-009,-1.18171810e-003
,,,3.92500000e-009,-1.13624935e-003
,,,3.95000000e-009,-1.08796810e-003
,,,3.97500000e-009,-1.03828060e-003
,,,4.00000000e-009,-9.89530597e-004
,,,4.02500000e-009,-9.42655597e-004
,,,4.05000000e-009,-8.99999347e-004
,,,4.07500000e-009,-8.64843096e-004
,,,4.10000000e-009,-8.35311846e-004
,,,4.12500000e-009,-8.11874346e-004
,,,4.15000000e-009,-7.94530596e-004
,,,4.17500000e-009,-7.83749346e-004
,,,4.20000000e-009,-7.78124346e-004
,,,4.22500000e-009,-7.77186846e-004
,,,4.25000000e-009,-7.79999346e-004
,,,4.27500000e-009,-7.87968096e-004
,,,4.30000000e-009,-7.95468096e-004
,,,4.32500000e-009,-8.01561846e-004
,,,4.35000000e-009,-8.05311846e-004
,,,4.37500000e-009,-8.05780596e-004
,,,4.40000000e-009,-8.02030596e-004
,,,4.42500000e-009,-7.93593096e-004
,,,4.45000000e-009,-7.79999346e-004
,,,4.47500000e-009,-7.65468095e-004
,,,4.50000000e-009,-7.44374345e-004
,,,4.52500000e-009,-7.18593095e-004
,,,4.55000000e-009,-6.87655595e-004
,,,4.57500000e-009,-6.52968094e-004
,,,4.60000000e-009,-6.15936844e-004
,,,4.62500000e-009,-5.77499344e-004
,,,4.65000000e-009,-5.39999343e-004
,,,4.67500000e-009,-5.09061843e-004
,,,4.70000000e-009,-4.80468093e-004
,,,4.72500000e-009,-4.55624343e-004
,,,4.75000000e-009,-4.36405593e-004
,,,4.77500000e-009,-4.22343092e-004
,,,4.80000000e-009,-4.15311842e-004
,,,4.82500000e-009,-4.14374342e-004
,,,4.85000000e-009,-4.19999342e-004
,,,4.87500000e-009,-4.35468093e-004
,,,4.90000000e-009,-4.53280593e-004
,,,4.92500000e-009,-4.72968093e-004
,,,4.95000000e-009,-4.92186843e-004
,,,4.97500000e-009,-5.09530593e-004
,,,5.00000000e-009,-5.24061843e-004
,,,5.02500000e-009,-5.34374343e-004
,,,5.05000000e-009,-5.39999343e-004
,,,5.07500000e-009,-5.43280593e-004
,,,5.10000000e-009,-5.42811843e-004
,,,5.12500000e-009,-5.39530593e-004
,,,5.15000000e-009,-5.35311843e-004
,,,5.17500000e-009,-5.31561843e-004
,,,5.20000000e-009,-5.30155593e-004
,,,5.22500000e-009,-5.32968093e-004
,,,5.25000000e-009,-5.39999343e-004
,,,5.27500000e-009,-5.52655594e-004
,,,5.30000000e-009,-5.68593094e-004
,,,5.32500000e-009,-5.87343094e-004
,,,5.35000000e-009,-6.07030594e-004
,,,5.37500000e-009,-6.25780594e-004
,,,5.40000000e-009,-6.41718094e-004
,,,5.42500000e-009,-6.53905594e-004
,,,5.45000000e-009,-6.59999344e-004
,,,5.47500000e-009,-6.58593094e-004
,,,5.50000000e-009,-6.50155594e-004
,,,5.52500000e-009,-6.36093094e-004
,,,5.55000000e-009,-6.17811844e-004
,,,5.57500000e-009,-5.96718094e-004
,,,5.60000000e-009,-5.76093094e-004
,,,5.62500000e-009,-5.56405594e-004
,,,5.65000000e-009,-5.39999343e-004
,,,5.67500000e-009,-5.27343093e-004
,,,5.70000000e-009,-5.19374343e-004
,,,5.72500000e-009,-5.15624343e-004
,,,5.75000000e-009,-5.16561843e-004
,,,5.77500000e-009,-5.20780593e-004
,,,5.80000000e-009,-5.26405593e-004
,,,5.82500000e-009,-5.33436843e-004
