RawData/SinglePhotoelectron/L7_2pt2A_5mV/wave002_Ch1.csv

"Record Length",1000,"Points",-7.72500000e-009,-3.14055890e-005
"Sample Interval",2.50000000e-011,s,-7.70000000e-009,-3.93743391e-005
"Trigger Point",309,"Samples",-7.67500000e-009,-4.92180892e-005
"Trigger Time",2.22158763e-011,s,-7.65000000e-009,-5.99993393e-005
"",,,-7.62500000e-009,-6.79680894e-005
"Horizontal Offset",-7.72500000e-009,s,-7.60000000e-009,-7.45305894e-005
,,,-7.57500000e-009,-7.87493394e-005
,,,-7.55000000e-009,-8.01555895e-005
,,,-7.52500000e-009,-7.92180894e-005
,,,-7.50000000e-009,-7.54680894e-005
,,,-7.47500000e-009,-6.89055894e-005
,,,-7.45000000e-009,-5.99993393e-005
,,,-7.42500000e-009,-4.78118392e-005
,,,-7.40000000e-009,-3.32805891e-005
,,,-7.37500000e-009,-1.73430889e-005
,,,-7.35000000e-009,-9.36838769e-007
,,,-7.32500000e-009,1.59381614e-005
,,,-7.30000000e-009,3.18756615e-005
,,,-7.27500000e-009,4.68756616e-005
,,,-7.25000000e-009,6.00006618e-005
,,,-7.22500000e-009,7.03131619e-005
,,,-7.20000000e-009,7.82819119e-005
,,,-7.17500000e-009,8.29694120e-005
,,,-7.15000000e-009,8.43756620e-005
,,,-7.12500000e-009,8.25006620e-005
,,,-7.10000000e-009,7.73444119e-005
,,,-7.07500000e-009,6.93756618e-005
,,,-7.05000000e-009,6.00006618e-005
,,,-7.02500000e-009,4.82819117e-005
,,,-7.00000000e-009,3.75006616e-005
,,,-6.97500000e-009,2.90631615e-005
,,,-6.95000000e-009,2.43756615e-005
,,,-6.92500000e-009,2.43756615e-005
,,,-6.90000000e-009,3.00006615e-005
,,,-6.87500000e-009,4.17194116e-005
,,,-6.85000000e-009,6.00006618e-005
,,,-6.82500000e-009,8.15631619e-005
,,,-6.80000000e-009,1.08281912e-004
,,,-6.77500000e-009,1.38750662e-004
,,,-6.75000000e-009,1.71563163e-004
,,,-6.72500000e-009,2.05781913e-004
,,,-6.70000000e-009,2.39531913e-004
,,,-6.67500000e-009,2.71406914e-004
,,,-6.65000000e-009,3.00000664e-004
,,,-6.62500000e-009,3.19219414e-004
,,,-6.60000000e-009,3.32344414e-004
,,,-6.57500000e-009,3.39844414e-004
,,,-6.55000000e-009,3.41250664e-004
,,,-6.52500000e-009,3.37031914e-004
,,,-6.50000000e-009,3.28125664e-004
,,,-6.47500000e-009,3.15469414e-004
,,,-6.45000000e-009,3.00000664e-004
,,,-6.42500000e-009,2.77500664e-004
,,,-6.40000000e-009,2.55469413e-004
,,,-6.37500000e-009,2.34375663e-004
,,,-6.35000000e-009,2.16094413e-004
,,,-6.32500000e-009,2.01094413e-004
,,,-6.30000000e-009,1.90313163e-004
,,,-6.27500000e-009,1.83281913e-004
,,,-6.25000000e-009,1.80000663e-004
,,,-6.22500000e-009,1.75313163e-004
,,,-6.20000000e-009,1.70625663e-004
,,,-6.17500000e-009,1.65000663e-004
,,,-6.15000000e-009,1.56094413e-004
,,,-6.12500000e-009,1.42031912e-004
,,,-6.10000000e-009,1.22344412e-004
,,,-6.07500000e-009,9.46881621e-005
,,,-6.05000000e-009,6.00006618e-005
,,,-6.02500000e-009,1.59381614e-005
,,,-6.00000000e-009,-3.37493391e-005
,,,-5.97500000e-009,-8.57805895e-005
,,,-5.95000000e-009,-1.38749340e-004
,,,-5.92500000e-009,-1.88905590e-004
,,,-5.90000000e-009,-2.33905591e-004
,,,-5.87500000e-009,-2.71405591e-004
,,,-5.85000000e-009,-2.99999341e-004
,,,-5.82500000e-009,-3.18749342e-004
,,,-5.80000000e-009,-3.28124342e-004
,,,-5.77500000e-009,-3.29999342e-004
,,,-5.75000000e-009,-3.26249342e-004
,,,-5.72500000e-009,-3.18749342e-004
,,,-5.70000000e-009,-3.10780591e-004
,,,-5.67500000e-009,-3.03749341e-004
,,,-5.65000000e-009,-2.99999341e-004
,,,-5.62500000e-009,-2.99999341e-004
,,,-5.60000000e-009,-3.05624341e-004
,,,-5.57500000e-009,-3.17343092e-004
,,,-5.55000000e-009,-3.34686842e-004
,,,-5.52500000e-009,-3.55311842e-004
,,,-5.50000000e-009,-3.77811842e-004
,,,-5.47500000e-009,-3.99843092e-004
,,,-5.45000000e-009,-4.19999342e-004
,,,-5.42500000e-009,-4.33593093e-004
,,,-5.40000000e-009,-4.42499343e-004
,,,-5.37500000e-009,-4.47186843e-004
,,,-5.35000000e-009,-4.47655593e-004
,,,-5.32500000e-009,-4.44843093e-004
,,,-5.30000000e-009,-4.38280593e-004
,,,-5.27500000e-009,-4.29843092e-004
,,,-5.25000000e-009,-4.19999342e-004
,,,-5.22500000e-009,-4.07811842e-004
,,,-5.20000000e-009,-3.97968092e-004
,,,-5.17500000e-009,-3.90936842e-004
,,,-5.15000000e-009,-3.88124342e-004
,,,-5.12500000e-009,-3.89530592e-004
,,,-5.10000000e-009,-3.95624342e-004
,,,-5.07500000e-009,-4.05936842e-004
,,,-5.05000000e-009,-4.19999342e-004
,,,-5.02500000e-009,-4.34999343e-004
,,,-5.00000000e-009,-4.52343093e-004
,,,-4.97500000e-009,-4.71093093e-004
,,,-4.95000000e-009,-4.89843093e-004
,,,-4.92500000e-009,-5.07186843e-004
,,,-4.90000000e-009,-5.22186843e-004
,,,-4.87500000e-009,-5.33436843e-004
,,,-4.85000000e-009,-5.39999343e-004
,,,-4.82500000e-009,-5.39061843e-004
,,,-4.80000000e-009,-5.32030593e-004
,,,-4.77500000e-009,-5.20780593e-004
,,,-4.75000000e-009,-5.04843093e-004
,,,-4.72500000e-009,-4.85624343e-004
,,,-4.70000000e-009,-4.64530593e-004
,,,-4.67500000e-009,-4.42499343e-004
,,,-4.65000000e-009,-4.19999342e-004
,,,-4.62500000e-009,-3.96561842e-004
,,,-4.60000000e-009,-3.74999342e-004
,,,-4.57500000e-009,-3.55780592e-004
,,,-4.55000000e-009,-3.39374342e-004
,,,-4.52500000e-009,-3.25311842e-004
,,,-4.50000000e-009,-3.14530591e-004
,,,-4.47500000e-009,-3.06093091e-004
,,,-4.45000000e-009,-2.99999341e-004
,,,-4.42500000e-009,-2.95780591e-004
,,,-4.40000000e-009,-2.92968091e-004
,,,-4.37500000e-009,-2.91093091e-004
,,,-4.35000000e-009,-2.91093091e-004
,,,-4.32500000e-009,-2.92030591e-004
,,,-4.30000000e-009,-2.93905591e-004
,,,-4.27500000e-009,-2.96718091e-004
,,,-4.25000000e-009,-2.99999341e-004
,,,-4.22500000e-009,-3.04218091e-004
,,,-4.20000000e-009,-3.07499341e-004
,,,-4.17500000e-009,-3.10311841e-004
,,,-4.15000000e-009,-3.12186841e-004
,,,-4.12500000e-009,-3.12186841e-004
,,,-4.10000000e-009,-3.10311841e-004
,,,-4.07500000e-009,-3.06561841e-004
,,,-4.05000000e-009,-2.99999341e-004
,,,-4.02500000e-009,-2.92030591e-004
,,,-4.00000000e-009,-2.81249341e-004
,,,-3.97500000e-009,-2.68593091e-004
,,,-3.95000000e-009,-2.53593091e-004
,,,-3.92500000e-009,-2.36718091e-004
,,,-3.90000000e-009,-2.18905591e-004
,,,-3.87500000e-009,-1.99686840e-004
,,,-3.85000000e-009,-1.79999340e-004
,,,-3.82500000e-009,-1.63124340e-004
,,,-3.80000000e-009,-1.46718090e-004
,,,-3.77500000e-009,-1.30311840e-004
,,,-3.75000000e-009,-1.14843090e-004
,,,-3.72500000e-009,-9.93743396e-005
,,,-3.70000000e-009,-8.53118395e-005
,,,-3.67500000e-009,-7.21868394e-005
,,,-3.65000000e-009,-5.99993393e-005
,,,-3.62500000e-009,-5.29680892e-005
,,,-3.60000000e-009,-4.78118392e-005
,,,-3.57500000e-009,-4.45305891e-005
,,,-3.55000000e-009,-4.35930891e-005
,,,-3.52500000e-009,-4.45305891e-005
,,,-3.50000000e-009,-4.73430892e-005
,,,-3.47500000e-009,-5.24993392e-005
,,,-3.45000000e-009,-5.99993393e-005
,,,-3.42500000e-009,-7.21868394e-005
,,,-3.40000000e-009,-8.53118395e-005
,,,-3.37500000e-009,-1.00311840e-004
,,,-3.35000000e-009,-1.15780590e-004
,,,-3.32500000e-009,-1.31718090e-004
,,,-3.30000000e-009,-1.48124340e-004
,,,-3.27500000e-009,-1.64530590e-004
,,,-3.25000000e-009,-1.79999340e-004
,,,-3.22500000e-009,-1.96874340e-004
,,,-3.20000000e-009,-2.12343091e-004
,,,-3.17500000e-009,-2.27811841e-004
,,,-3.15000000e-009,-2.42343091e-004
,,,-3.12500000e-009,-2.56405591e-004
,,,-3.10000000e-009,-2.70936841e-004
,,,-3.07500000e-009,-2.85468091e-004
,,,-3.05000000e-009,-2.99999341e-004
,,,-3.02500000e-009,-3.14999341e-004
,,,-3.00000000e-009,-3.29530592e-004
,,,-2.97500000e-009,-3.44999342e-004
,,,-2.95000000e-009,-3.59999342e-004
,,,-2.92500000e-009,-3.75468092e-004
,,,-2.90000000e-009,-3.90936842e-004
,,,-2.87500000e-009,-4.05936842e-004
,,,-2.85000000e-009,-4.19999342e-004
,,,-2.82500000e-009,-4.30780593e-004
,,,-2.80000000e-009,-4.38749343e-004
,,,-2.77500000e-009,-4.44374343e-004
,,,-2.75000000e-009,-4.46718093e-004
,,,-2.72500000e-009,-4.45780593e-004
,,,-2.70000000e-009,-4.40624343e-004
,,,-2.67500000e-009,-4.32186843e-004
,,,-2.65000000e-009,-4.19999342e-004
,,,-2.62500000e-009,-4.02655592e-004
,,,-2.60000000e-009,-3.83905592e-004
,,,-2.57500000e-009,-3.64686842e-004
,,,-2.55000000e-009,-3.46405592e-004
,,,-2.52500000e-009,-3.29999342e-004
,,,-2.50000000e-009,-3.16405592e-004
,,,-2.47500000e-009,-3.06561841e-004
,,,-2.45000000e-009,-2.99999341e-004
,,,-2.42500000e-009,-2.96249341e-004
,,,-2.40000000e-009,-2.95780591e-004
,,,-2.37500000e-009,-2.97655591e-004
,,,-2.35000000e-009,-3.00936841e-004
,,,-2.32500000e-009,-3.03749341e-004
,,,-2.30000000e-009,-3.05624341e-004
,,,-2.27500000e-009,-3.04686841e-004
,,,-2.25000000e-009,-2.99999341e-004
,,,-2.22500000e-009,-2.91561841e-004
,,,-2.20000000e-009,-2.79374341e-004
,,,-2.17500000e-009,-2.64374341e-004
,,,-2.15000000e-009,-2.47499341e-004
,,,-2.12500000e-009,-2.29218091e-004
,,,-2.10000000e-009,-2.11405591e-004
,,,-2.07500000e-009,-1.94530590e-004
,,,-2.05000000e-009,-1.79999340e-004
,,,-2.02500000e-009,-1.71093090e-004
,,,-2.00000000e-009,-1.65936840e-004
,,,-1.97500000e-009,-1.64061840e-004
,,,-1.95000000e-009,-1.64999340e-004
,,,-1.92500000e-009,-1.67811840e-004
,,,-1.90000000e-009,-1.72030590e-004
,,,-1.87500000e-009,-1.76249340e-004
,,,-1.85000000e-009,-1.79999340e-004
,,,-1.82500000e-009,-1.87499340e-004
,,,-1.80000000e-009,-1.93124340e-004
,,,-1.77500000e-009,-1.96405590e-004
,,,-1.75000000e-009,-1.97811840e-004
,,,-1.72500000e-009,-1.96405590e-004
,,,-1.70000000e-009,-1.92655590e-004
,,,-1.67500000e-009,-1.87499340e-004
,,,-1.65000000e-009,-1.79999340e-004
,,,-1.62500000e-009,-1.81405590e-004
,,,-1.60000000e-009,-1.83280590e-004
,,,-1.57500000e-009,-1.85155590e-004
,,,-1.55000000e-009,-1.86561840e-004
,,,-1.52500000e-009,-1.87030590e-004
,,,-1.50000000e-009,-1.86093090e-004
,,,-1.47500000e-009,-1.83749340e-004
,,,-1.45000000e-009,-1.79999340e-004
,,,-1.42500000e-009,-1.89374340e-004
,,,-1.40000000e-009,-2.00624341e-004
,,,-1.37500000e-009,-2.14218091e-004
,,,-1.35000000e-009,-2.29218091e-004
,,,-1.32500000e-009,-2.45624341e-004
,,,-1.30000000e-009,-2.62968091e-004
,,,-1.27500000e-009,-2.81249341e-004
,,,-1.25000000e-009,-2.99999341e-004
,,,-1.22500000e-009,-3.37030592e-004
,,,-1.20000000e-009,-3.76405592e-004
,,,-1.17500000e-009,-4.15311842e-004
,,,-1.15000000e-009,-4.51874343e-004
,,,-1.12500000e-009,-4.83749343e-004
,,,-1.10000000e-009,-5.09061843e-004
,,,-1.07500000e-009,-5.27811843e-004
,,,-1.05000000e-009,-5.39999343e-004
,,,-1.02500000e-009,-5.68593094e-004
,,,-1.00000000e-009,-5.98593094e-004
,,,-9.75000000e-010,-6.32343094e-004
,,,-9.50000000e-010,-6.70311845e-004
,,,-9.25000000e-010,-7.14843095e-004
,,,-9.00000000e-010,-7.67343095e-004
,,,-8.75000000e-010,-8.28749346e-004
,,,-8.50000000e-010,-8.99999347e-004
,,,-8.25000000e-010,-1.00031185e-003
,,,-8.00000000e-010,-1.11328060e-003
,,,-7.75000000e-010,-1.23562435e-003
,,,-7.50000000e-010,-1.36453060e-003
,,,-7.25000000e-010,-1.49484310e-003
,,,-7.00000000e-010,-1.62281185e-003
,,,-6.75000000e-010,-1.74515560e-003
,,,-6.50000000e-010,-1.85999935e-003
,,,-6.25000000e-010,-1.97531186e-003
,,,-6.00000000e-010,-2.08453061e-003
,,,-5.75000000e-010,-2.18953061e-003
,,,-5.50000000e-010,-2.29078061e-003
,,,-5.25000000e-010,-2.39062436e-003
,,,-5.00000000e-010,-2.49046811e-003
,,,-4.75000000e-010,-2.59265561e-003
,,,-4.50000000e-010,-2.69999936e-003
,,,-4.25000000e-010,-2.81390561e-003
,,,-4.00000000e-010,-2.93906186e-003
,,,-3.75000000e-010,-3.07687437e-003
,,,-3.50000000e-010,-3.22640562e-003
,,,-3.25000000e-010,-3.38578062e-003
,,,-3.00000000e-010,-3.55312437e-003
,,,-2.75000000e-010,-3.72562437e-003
,,,-2.50000000e-010,-3.89999937e-003
,,,-2.25000000e-010,-4.05796812e-003
,,,-2.00000000e-010,-4.21359313e-003
,,,-1.75000000e-010,-4.36453063e-003
,,,-1.50000000e-010,-4.50937438e-003
,,,-1.25000000e-010,-4.64484313e-003
,,,-1.00000000e-010,-4.76999938e-003
,,,-7.50000000e-011,-4.88203063e-003
,,,-5.00000000e-011,-4.97999938e-003
,,,-2.50000000e-011,-5.03671813e-003
,,,0.00000000e+000,-5.08218688e-003
,,,2.50000000e-011,-5.11781188e-003
,,,5.00000000e-011,-5.14687438e-003
,,,7.50000000e-011,-5.17078063e-003
,,,1.00000000e-010,-5.19046813e-003
,,,1.25000000e-010,-5.20687438e-003
,,,1.50000000e-010,-5.21999938e-003
,,,1.75000000e-010,-5.20218688e-003
,,,2.00000000e-010,-5.18484313e-003
,,,2.25000000e-010,-5.16937438e-003
,,,2.50000000e-010,-5.15624938e-003
,,,2.75000000e-010,-5.14406188e-003
,,,3.00000000e-010,-5.13234313e-003
,,,3.25000000e-010,-5.11828063e-003
,,,3.50000000e-010,-5.09999938e-003
,,,3.75000000e-010,-5.05078063e-003
,,,4.00000000e-010,-4.99734313e-003
,,,4.25000000e-010,-4.94062438e-003
,,,4.50000000e-010,-4.88062438e-003
,,,4.75000000e-010,-4.81874938e-003
,,,5.00000000e-010,-4.75453063e-003
,,,5.25000000e-010,-4.68890563e-003
,,,5.50000000e-010,-4.61999938e-003
,,,5.75000000e-010,-4.52953063e-003
,,,6.00000000e-010,-4.43812438e-003
,,,6.25000000e-010,-4.34624938e-003
,,,6.50000000e-010,-4.25531188e-003
,,,6.75000000e-010,-4.16531187e-003
,,,7.00000000e-010,-4.07624937e-003
,,,7.25000000e-010,-3.98812437e-003
,,,7.50000000e-010,-3.89999937e-003
,,,7.75000000e-010,-3.80296812e-003
,,,8.00000000e-010,-3.70593687e-003
,,,8.25000000e-010,-3.60984312e-003
,,,8.50000000e-010,-3.51562437e-003
,,,8.75000000e-010,-3.42515562e-003
,,,9.00000000e-010,-3.33843687e-003
,,,9.25000000e-010,-3.25687437e-003
,,,9.50000000e-010,-3.17999937e-003
,,,9.75000000e-010,-3.10781187e-003
,,,1.00000000e-009,-3.03890562e-003
,,,1.02500000e-009,-2.97234311e-003
,,,1.05000000e-009,-2.90999936e-003
,,,1.07500000e-009,-2.85093686e-003
,,,1.10000000e-009,-2.79656186e-003
,,,1.12500000e-009,-2.74640561e-003
,,,1.15000000e-009,-2.69999936e-003
,,,1.17500000e-009,-2.66062436e-003
,,,1.20000000e-009,-2.62031186e-003
,,,1.22500000e-009,-2.57765561e-003
,,,1.25000000e-009,-2.53312436e-003
,,,1.27500000e-009,-2.48671811e-003
,,,1.30000000e-009,-2.43890561e-003
,,,1.32500000e-009,-2.38968686e-003
,,,1.35000000e-009,-2.33999936e-003
,,,1.37500000e-009,-2.29640561e-003
,,,1.40000000e-009,-2.24999936e-003
,,,1.42500000e-009,-2.20171811e-003
,,,1.45000000e-009,-2.15249936e-003
,,,1.47500000e-009,-2.10468686e-003
,,,1.50000000e-009,-2.05921811e-003
,,,1.52500000e-009,-2.01749936e-003
,,,1.55000000e-009,-1.97999936e-003
,,,1.57500000e-009,-1.95468686e-003
,,,1.60000000e-009,-1.92937436e-003
,,,1.62500000e-009,-1.90406186e-003
,,,1.65000000e-009,-1.87687436e-003
,,,1.67500000e-009,-1.84734310e-003
,,,1.70000000e-009,-1.81499935e-003
,,,1.72500000e-009,-1.77937435e-003
,,,1.75000000e-009,-1.73999935e-003
,,,1.77500000e-009,-1.70437435e-003
,,,1.80000000e-009,-1.66265560e-003
,,,1.82500000e-009,-1.61718685e-003
,,,1.85000000e-009,-1.56796810e-003
,,,1.87500000e-009,-1.51781185e-003
,,,1.90000000e-009,-1.46859310e-003
,,,1.92500000e-009,-1.42218685e-003
,,,1.95000000e-009,-1.37999935e-003
,,,1.97500000e-009,-1.35046810e-003
,,,2.00000000e-009,-1.32515560e-003
,,,2.02500000e-009,-1.30453060e-003
,,,2.05000000e-009,-1.28812435e-003
,,,2.07500000e-009,-1.27593685e-003
,,,2.10000000e-009,-1.26749935e-003
,,,2.12500000e-009,-1.26281185e-003
,,,2.15000000e-009,-1.25999935e-003
,,,2.17500000e-009,-1.26515560e-003
,,,2.20000000e-009,-1.26937435e-003
,,,2.22500000e-009,-1.27218685e-003
,,,2.25000000e-009,-1.27312435e-003
,,,2.27500000e-009,-1.27218685e-003
,,,2.30000000e-009,-1.26937435e-003
,,,2.32500000e-009,-1.26515560e-003
,,,2.35000000e-009,-1.25999935e-003
,,,2.37500000e-009,-1.25906185e-003
,,,2.40000000e-009,-1.25671810e-003
,,,2.42500000e-009,-1.25390560e-003
,,,2.45000000e-009,-1.25203060e-003
,,,2.47500000e-009,-1.25109310e-003
,,,2.50000000e-009,-1.25203060e-003
,,,2.52500000e-009,-1.25531185e-003
,,,2.55000000e-009,-1.25999935e-003
,,,2.57500000e-009,-1.26843685e-003
,,,2.60000000e-009,-1.27593685e-003
,,,2.62500000e-009,-1.28249935e-003
,,,2.65000000e-009,-1.28578060e-003
,,,2.67500000e-009,-1.28578060e-003
,,,2.70000000e-009,-1.28203060e-003
,,,2.72500000e-009,-1.27312435e-003
,,,2.75000000e-009,-1.25999935e-003
,,,2.77500000e-009,-1.24312435e-003
,,,2.80000000e-009,-1.22249935e-003
,,,2.82500000e-009,-1.20046810e-003
,,,2.85000000e-009,-1.17937435e-003
,,,2.87500000e-009,-1.16062435e-003
,,,2.90000000e-009,-1.14703060e-003
,,,2.92500000e-009,-1.13999935e-003
,,,2.95000000e-009,-1.13999935e-003
,,,2.97500000e-009,-1.14656185e-003
,,,3.00000000e-009,-1.15921810e-003
,,,3.02500000e-009,-1.17609310e-003
,,,3.05000000e-009,-1.19624935e-003
,,,3.07500000e-009,-1.21640560e-003
,,,3.10000000e-009,-1.23515560e-003
,,,3.12500000e-009,-1.25015560e-003
,,,3.15000000e-009,-1.25999935e-003
,,,3.17500000e-009,-1.26046810e-003
,,,3.20000000e-009,-1.25343685e-003
,,,3.22500000e-009,-1.23984310e-003
,,,3.25000000e-009,-1.22203060e-003
,,,3.27500000e-009,-1.20140560e-003
,,,3.30000000e-009,-1.17984310e-003
,,,3.32500000e-009,-1.15921810e-003
,,,3.35000000e-009,-1.13999935e-003
,,,3.37500000e-009,-1.12265560e-003
,,,3.40000000e-009,-1.10718685e-003
,,,3.42500000e-009,-1.09406185e-003
,,,3.45000000e-009,-1.08234310e-003
,,,3.47500000e-009,-1.07015560e-003
,,,3.50000000e-009,-1.05656185e-003
,,,3.52500000e-009,-1.04015560e-003
,,,3.55000000e-009,-1.01999935e-003
,,,3.57500000e-009,-9.94686847e-004
,,,3.60000000e-009,-9.65155597e-004
,,,3.62500000e-009,-9.32343097e-004
,,,3.65000000e-009,-8.98124347e-004
,,,3.67500000e-009,-8.64374346e-004
,,,3.70000000e-009,-8.32499346e-004
,,,3.72500000e-009,-8.04374346e-004
,,,3.75000000e-009,-7.79999346e-004
,,,3.77500000e-009,-7.61249345e-004
,,,3.80000000e-009,-7.45780595e-004
,,,3.82500000e-009,-7.32655595e-004
,,,3.85000000e-009,-7.20936845e-004
,,,3.87500000e-009,-7.08749345e-004
,,,3.90000000e-009,-6.95155595e-004
,,,3.92500000e-009,-6.79218095e-004
,,,3.95000000e-009,-6.59999344e-004
,,,3.97500000e-009,-6.38436844e-004
,,,4.00000000e-009,-6.14061844e-004
,,,4.02500000e-009,-5.89686844e-004
,,,4.05000000e-009,-5.67186844e-004
,,,4.07500000e-009,-5.48905594e-004
,,,4.10000000e-009,-5.37655593e-004
,,,4.12500000e-009,-5.34374343e-004
,,,4.15000000e-009,-5.39999343e-004
,,,4.17500000e-009,-5.54999344e-004
,,,4.20000000e-009,-5.75155594e-004
,,,4.22500000e-009,-5.98593094e-004
,,,4.25000000e-009,-6.21561844e-004
,,,4.27500000e-009,-6.42186844e-004
,,,4.30000000e-009,-6.56718094e-004
,,,4.32500000e-009,-6.63280595e-004
,,,4.35000000e-009,-6.59999344e-004
,,,4.37500000e-009,-6.45936844e-004
,,,4.40000000e-009,-6.21561844e-004
,,,4.42500000e-009,-5.88749344e-004
,,,4.45000000e-009,-5.51249344e-004
,,,4.47500000e-009,-5.12343093e-004
,,,4.50000000e-009,-4.75780593e-004
,,,4.52500000e-009,-4.43905593e-004
,,,4.55000000e-009,-4.19999342e-004
,,,4.57500000e-009,-4.06405592e-004
,,,4.60000000e-009,-4.00780592e-004
,,,4.62500000e-009,-4.01718092e-004
,,,4.65000000e-009,-4.07343092e-004
,,,4.67500000e-009,-4.14843092e-004
,,,4.70000000e-009,-4.20936842e-004
,,,4.72500000e-009,-4.23749342e-004
,,,4.75000000e-009,-4.19999342e-004
,,,4.77500000e-009,-4.09218092e-004
,,,4.80000000e-009,-3.89530592e-004
,,,4.82500000e-009,-3.62343092e-004
,,,4.85000000e-009,-3.29061842e-004
,,,4.87500000e-009,-2.91561841e-004
,,,4.90000000e-009,-2.53124341e-004
,,,4.92500000e-009,-2.15155591e-004
,,,4.95000000e-009,-1.79999340e-004
,,,4.97500000e-009,-1.52343090e-004
,,,5.00000000e-009,-1.29843090e-004
,,,5.02500000e-009,-1.12030590e-004
,,,5.05000000e-009,-9.84368396e-005
,,,5.07500000e-009,-8.71868395e-005
,,,5.10000000e-009,-7.78118394e-005
,,,5.12500000e-009,-6.93743394e-005
,,,5.15000000e-009,-5.99993393e-005
,,,5.17500000e-009,-5.39055892e-005
,,,5.20000000e-009,-4.78118392e-005
,,,5.22500000e-009,-4.21868391e-005
,,,5.25000000e-009,-3.79680891e-005
,,,5.27500000e-009,-3.65618391e-005
,,,5.30000000e-009,-3.93743391e-005
,,,5.32500000e-009,-4.73430892e-005
,,,5.35000000e-009,-5.99993393e-005
,,,5.37500000e-009,-8.15618395e-005
,,,5.40000000e-009,-1.04999340e-004
,,,5.42500000e-009,-1.28905590e-004
,,,5.45000000e-009,-1.50936840e-004
,,,5.47500000e-009,-1.69218090e-004
,,,5.50000000e-009,-1.80468090e-004
,,,5.52500000e-009,-1.84686840e-004
,,,5.55000000e-009,-1.79999340e-004
,,,5.57500000e-009,-1.67811840e-004
,,,5.60000000e-009,-1.48593090e-004
,,,5.62500000e-009,-1.25624340e-004
,,,5.65000000e-009,-1.01249340e-004
,,,5.67500000e-009,-7.96868395e-005
,,,5.70000000e-009,-6.42180893e-005
,,,5.72500000e-009,-5.67180893e-005
,,,5.75000000e-009,-5.99993393e-005
,,,5.77500000e-009,-7.54680894e-005
,,,5.80000000e-009,-9.98430896e-005
,,,5.82500000e-009,-1.31718090e-004
,,,5.85000000e-009,-1.68280590e-004
