RawData/SinglePhotoelectron/L7_2pt2A_5mV/wave032_Ch1.csv

"Record Length",1000,"Points",-7.72500000e-009,-6.79680894e-005
"Sample Interval",2.50000000e-011,s,-7.70000000e-009,-8.29680895e-005
"Trigger Point",309,"Samples",-7.67500000e-009,-1.02655590e-004
"Trigger Time",1.99281836e-011,s,-7.65000000e-009,-1.25155590e-004
"",,,-7.62500000e-009,-1.47186840e-004
"Horizontal Offset",-7.72500000e-009,s,-7.60000000e-009,-1.66405590e-004
,,,-7.57500000e-009,-1.79999340e-004
,,,-7.55000000e-009,-1.86561840e-004
,,,-7.52500000e-009,-1.85155590e-004
,,,-7.50000000e-009,-1.76249340e-004
,,,-7.47500000e-009,-1.60780590e-004
,,,-7.45000000e-009,-1.39686840e-004
,,,-7.42500000e-009,-1.14374340e-004
,,,-7.40000000e-009,-8.76555895e-005
,,,-7.37500000e-009,-5.99993393e-005
,,,-7.35000000e-009,-3.51555891e-005
,,,-7.32500000e-009,-1.31243389e-005
,,,-7.30000000e-009,5.62566129e-006
,,,-7.27500000e-009,2.10944114e-005
,,,-7.25000000e-009,3.37506615e-005
,,,-7.22500000e-009,4.40631616e-005
,,,-7.20000000e-009,5.25006617e-005
,,,-7.17500000e-009,6.00006618e-005
,,,-7.15000000e-009,6.37506618e-005
,,,-7.12500000e-009,6.70319118e-005
,,,-7.10000000e-009,6.89069118e-005
,,,-7.07500000e-009,6.98444118e-005
,,,-7.05000000e-009,6.98444118e-005
,,,-7.02500000e-009,6.79694118e-005
,,,-7.00000000e-009,6.51569118e-005
,,,-6.97500000e-009,6.00006618e-005
,,,-6.95000000e-009,4.87506617e-005
,,,-6.92500000e-009,3.56256615e-005
,,,-6.90000000e-009,2.06256614e-005
,,,-6.87500000e-009,4.68816128e-006
,,,-6.85000000e-009,-1.17180889e-005
,,,-6.82500000e-009,-2.85930890e-005
,,,-6.80000000e-009,-4.45305891e-005
,,,-6.77500000e-009,-5.99993393e-005
,,,-6.75000000e-009,-7.78118394e-005
,,,-6.72500000e-009,-9.46868396e-005
,,,-6.70000000e-009,-1.11093090e-004
,,,-6.67500000e-009,-1.26561840e-004
,,,-6.65000000e-009,-1.41093090e-004
,,,-6.62500000e-009,-1.54686840e-004
,,,-6.60000000e-009,-1.67811840e-004
,,,-6.57500000e-009,-1.79999340e-004
,,,-6.55000000e-009,-1.93593090e-004
,,,-6.52500000e-009,-2.07186841e-004
,,,-6.50000000e-009,-2.21249341e-004
,,,-6.47500000e-009,-2.35780591e-004
,,,-6.45000000e-009,-2.50780591e-004
,,,-6.42500000e-009,-2.66718091e-004
,,,-6.40000000e-009,-2.83124341e-004
,,,-6.37500000e-009,-2.99999341e-004
,,,-6.35000000e-009,-3.16874342e-004
,,,-6.32500000e-009,-3.33280592e-004
,,,-6.30000000e-009,-3.49686842e-004
,,,-6.27500000e-009,-3.65624342e-004
,,,-6.25000000e-009,-3.81093092e-004
,,,-6.22500000e-009,-3.95155592e-004
,,,-6.20000000e-009,-4.08280592e-004
,,,-6.17500000e-009,-4.19999342e-004
,,,-6.15000000e-009,-4.28436842e-004
,,,-6.12500000e-009,-4.37343093e-004
,,,-6.10000000e-009,-4.47655593e-004
,,,-6.07500000e-009,-4.59374343e-004
,,,-6.05000000e-009,-4.74843093e-004
,,,-6.02500000e-009,-4.93124343e-004
,,,-6.00000000e-009,-5.15155593e-004
,,,-5.97500000e-009,-5.39999343e-004
,,,-5.95000000e-009,-5.62030594e-004
,,,-5.92500000e-009,-5.84999344e-004
,,,-5.90000000e-009,-6.07030594e-004
,,,-5.87500000e-009,-6.27655594e-004
,,,-5.85000000e-009,-6.44530594e-004
,,,-5.82500000e-009,-6.56718094e-004
,,,-5.80000000e-009,-6.62343095e-004
,,,-5.77500000e-009,-6.59999344e-004
,,,-5.75000000e-009,-6.44999344e-004
,,,-5.72500000e-009,-6.22968094e-004
,,,-5.70000000e-009,-5.94843094e-004
,,,-5.67500000e-009,-5.62030594e-004
,,,-5.65000000e-009,-5.26405593e-004
,,,-5.62500000e-009,-4.89843093e-004
,,,-5.60000000e-009,-4.53749343e-004
,,,-5.57500000e-009,-4.19999342e-004
,,,-5.55000000e-009,-3.87186842e-004
,,,-5.52500000e-009,-3.59061842e-004
,,,-5.50000000e-009,-3.36561842e-004
,,,-5.47500000e-009,-3.20155592e-004
,,,-5.45000000e-009,-3.09374341e-004
,,,-5.42500000e-009,-3.02811841e-004
,,,-5.40000000e-009,-3.00468091e-004
,,,-5.37500000e-009,-2.99999341e-004
,,,-5.35000000e-009,-2.99530591e-004
,,,-5.32500000e-009,-2.96718091e-004
,,,-5.30000000e-009,-2.91561841e-004
,,,-5.27500000e-009,-2.81249341e-004
,,,-5.25000000e-009,-2.65311841e-004
,,,-5.22500000e-009,-2.43280591e-004
,,,-5.20000000e-009,-2.14686841e-004
,,,-5.17500000e-009,-1.79999340e-004
,,,-5.15000000e-009,-1.41093090e-004
,,,-5.12500000e-009,-9.98430896e-005
,,,-5.10000000e-009,-5.85930893e-005
,,,-5.07500000e-009,-1.96868389e-005
,,,-5.05000000e-009,1.31256614e-005
,,,-5.02500000e-009,3.84381616e-005
,,,-5.00000000e-009,5.43756617e-005
,,,-4.97500000e-009,6.00006618e-005
,,,-4.95000000e-009,5.25006617e-005
,,,-4.92500000e-009,3.70319116e-005
,,,-4.90000000e-009,1.64069114e-005
,,,-4.87500000e-009,-6.56183882e-006
,,,-4.85000000e-009,-2.81243390e-005
,,,-4.82500000e-009,-4.59368392e-005
,,,-4.80000000e-009,-5.71868393e-005
,,,-4.77500000e-009,-5.99993393e-005
,,,-4.75000000e-009,-5.71868393e-005
,,,-4.72500000e-009,-4.49993392e-005
,,,-4.70000000e-009,-2.67180890e-005
,,,-4.67500000e-009,-4.21808880e-006
,,,-4.65000000e-009,1.82819114e-005
,,,-4.62500000e-009,3.84381616e-005
,,,-4.60000000e-009,5.29694117e-005
,,,-4.57500000e-009,6.00006618e-005
,,,-4.55000000e-009,5.39069117e-005
,,,-4.52500000e-009,4.07819116e-005
,,,-4.50000000e-009,2.10944114e-005
,,,-4.47500000e-009,-1.40558877e-006
,,,-4.45000000e-009,-2.34368390e-005
,,,-4.42500000e-009,-4.26555891e-005
,,,-4.40000000e-009,-5.53118392e-005
,,,-4.37500000e-009,-5.99993393e-005
,,,-4.35000000e-009,-5.85930893e-005
,,,-4.32500000e-009,-4.87493392e-005
,,,-4.30000000e-009,-3.23430890e-005
,,,-4.27500000e-009,-1.07805889e-005
,,,-4.25000000e-009,1.17194113e-005
,,,-4.22500000e-009,3.28131615e-005
,,,-4.20000000e-009,4.96881617e-005
,,,-4.17500000e-009,6.00006618e-005
,,,-4.15000000e-009,5.95319118e-005
,,,-4.12500000e-009,5.10944117e-005
,,,-4.10000000e-009,3.56256615e-005
,,,-4.07500000e-009,1.59381614e-005
,,,-4.05000000e-009,-6.09308881e-006
,,,-4.02500000e-009,-2.76555890e-005
,,,-4.00000000e-009,-4.59368392e-005
,,,-3.97500000e-009,-5.99993393e-005
,,,-3.95000000e-009,-6.93743394e-005
,,,-3.92500000e-009,-7.26555894e-005
,,,-3.90000000e-009,-7.17180894e-005
,,,-3.87500000e-009,-6.74993393e-005
,,,-3.85000000e-009,-6.18743393e-005
,,,-3.82500000e-009,-5.76555893e-005
,,,-3.80000000e-009,-5.62493392e-005
,,,-3.77500000e-009,-5.99993393e-005
,,,-3.75000000e-009,-7.21868394e-005
,,,-3.72500000e-009,-9.14055896e-005
,,,-3.70000000e-009,-1.17186840e-004
,,,-3.67500000e-009,-1.49061840e-004
,,,-3.65000000e-009,-1.84686840e-004
,,,-3.62500000e-009,-2.23593091e-004
,,,-3.60000000e-009,-2.62499341e-004
,,,-3.57500000e-009,-2.99999341e-004
,,,-3.55000000e-009,-3.33280592e-004
,,,-3.52500000e-009,-3.61874342e-004
,,,-3.50000000e-009,-3.85311842e-004
,,,-3.47500000e-009,-4.03124342e-004
,,,-3.45000000e-009,-4.15311842e-004
,,,-3.42500000e-009,-4.21874342e-004
,,,-3.40000000e-009,-4.23280592e-004
,,,-3.37500000e-009,-4.19999342e-004
,,,-3.35000000e-009,-4.11561842e-004
,,,-3.32500000e-009,-3.99843092e-004
,,,-3.30000000e-009,-3.85780592e-004
,,,-3.27500000e-009,-3.69843092e-004
,,,-3.25000000e-009,-3.52968092e-004
,,,-3.22500000e-009,-3.35155592e-004
,,,-3.20000000e-009,-3.17343092e-004
,,,-3.17500000e-009,-2.99999341e-004
,,,-3.15000000e-009,-2.83124341e-004
,,,-3.12500000e-009,-2.69061841e-004
,,,-3.10000000e-009,-2.59686841e-004
,,,-3.07500000e-009,-2.55468091e-004
,,,-3.05000000e-009,-2.57811841e-004
,,,-3.02500000e-009,-2.65780591e-004
,,,-3.00000000e-009,-2.80311841e-004
,,,-2.97500000e-009,-2.99999341e-004
,,,-2.95000000e-009,-3.22968092e-004
,,,-2.92500000e-009,-3.47811842e-004
,,,-2.90000000e-009,-3.72655592e-004
,,,-2.87500000e-009,-3.94686842e-004
,,,-2.85000000e-009,-4.12030592e-004
,,,-2.82500000e-009,-4.22811842e-004
,,,-2.80000000e-009,-4.25624342e-004
,,,-2.77500000e-009,-4.19999342e-004
,,,-2.75000000e-009,-4.04061842e-004
,,,-2.72500000e-009,-3.82499342e-004
,,,-2.70000000e-009,-3.58593092e-004
,,,-2.67500000e-009,-3.34686842e-004
,,,-2.65000000e-009,-3.14530591e-004
,,,-2.62500000e-009,-3.00936841e-004
,,,-2.60000000e-009,-2.95780591e-004
,,,-2.57500000e-009,-2.99999341e-004
,,,-2.55000000e-009,-3.12186841e-004
,,,-2.52500000e-009,-3.31405592e-004
,,,-2.50000000e-009,-3.54843092e-004
,,,-2.47500000e-009,-3.79686842e-004
,,,-2.45000000e-009,-4.01718092e-004
,,,-2.42500000e-009,-4.17655592e-004
,,,-2.40000000e-009,-4.24218092e-004
,,,-2.37500000e-009,-4.19999342e-004
,,,-2.35000000e-009,-4.01718092e-004
,,,-2.32500000e-009,-3.72655592e-004
,,,-2.30000000e-009,-3.36561842e-004
,,,-2.27500000e-009,-2.96249341e-004
,,,-2.25000000e-009,-2.56405591e-004
,,,-2.22500000e-009,-2.21718091e-004
,,,-2.20000000e-009,-1.95468090e-004
,,,-2.17500000e-009,-1.79999340e-004
,,,-2.15000000e-009,-1.77655590e-004
,,,-2.12500000e-009,-1.86093090e-004
,,,-2.10000000e-009,-2.03905591e-004
,,,-2.07500000e-009,-2.27811841e-004
,,,-2.05000000e-009,-2.53124341e-004
,,,-2.02500000e-009,-2.76561841e-004
,,,-2.00000000e-009,-2.92968091e-004
,,,-1.97500000e-009,-2.99999341e-004
,,,-1.95000000e-009,-2.94843091e-004
,,,-1.92500000e-009,-2.77968091e-004
,,,-1.90000000e-009,-2.50780591e-004
,,,-1.87500000e-009,-2.15624341e-004
,,,-1.85000000e-009,-1.75780590e-004
,,,-1.82500000e-009,-1.34530590e-004
,,,-1.80000000e-009,-9.51555896e-005
,,,-1.77500000e-009,-5.99993393e-005
,,,-1.75000000e-009,-3.56243391e-005
,,,-1.72500000e-009,-1.82805889e-005
,,,-1.70000000e-009,-5.62433881e-006
,,,-1.67500000e-009,3.75066127e-006
,,,-1.65000000e-009,1.26569113e-005
,,,-1.62500000e-009,2.39069114e-005
,,,-1.60000000e-009,3.93756616e-005
,,,-1.57500000e-009,6.00006618e-005
,,,-1.55000000e-009,7.78131619e-005
,,,-1.52500000e-009,9.89069121e-005
,,,-1.50000000e-009,1.21875662e-004
,,,-1.47500000e-009,1.44375662e-004
,,,-1.45000000e-009,1.63594413e-004
,,,-1.42500000e-009,1.77188163e-004
,,,-1.40000000e-009,1.83281913e-004
,,,-1.37500000e-009,1.80000663e-004
,,,-1.35000000e-009,1.51875663e-004
,,,-1.32500000e-009,1.14844412e-004
,,,-1.30000000e-009,7.26569119e-005
,,,-1.27500000e-009,3.04694115e-005
,,,-1.25000000e-009,-7.96808883e-006
,,,-1.22500000e-009,-3.74993391e-005
,,,-1.20000000e-009,-5.57805892e-005
,,,-1.17500000e-009,-5.99993393e-005
,,,-1.15000000e-009,-6.98430894e-005
,,,-1.12500000e-009,-7.07805894e-005
,,,-1.10000000e-009,-6.56243393e-005
,,,-1.07500000e-009,-5.71868393e-005
,,,-1.05000000e-009,-4.82805892e-005
,,,-1.02500000e-009,-4.35930891e-005
,,,-1.00000000e-009,-4.64055892e-005
,,,-9.75000000e-010,-5.99993393e-005
,,,-9.50000000e-010,-1.13436840e-004
,,,-9.25000000e-010,-1.82811840e-004
,,,-9.00000000e-010,-2.63436841e-004
,,,-8.75000000e-010,-3.51093092e-004
,,,-8.50000000e-010,-4.39218093e-004
,,,-8.25000000e-010,-5.22186843e-004
,,,-8.00000000e-010,-5.96718094e-004
,,,-7.75000000e-010,-6.59999344e-004
,,,-7.50000000e-010,-7.39218095e-004
,,,-7.25000000e-010,-8.12811846e-004
,,,-7.00000000e-010,-8.82186846e-004
,,,-6.75000000e-010,-9.50155597e-004
,,,-6.50000000e-010,-1.01859310e-003
,,,-6.25000000e-010,-1.09124935e-003
,,,-6.00000000e-010,-1.17046810e-003
,,,-5.75000000e-010,-1.25999935e-003
,,,-5.50000000e-010,-1.38515560e-003
,,,-5.25000000e-010,-1.52624935e-003
,,,-5.00000000e-010,-1.67999935e-003
,,,-4.75000000e-010,-1.84124935e-003
,,,-4.50000000e-010,-2.00484311e-003
,,,-4.25000000e-010,-2.16515561e-003
,,,-4.00000000e-010,-2.31749936e-003
,,,-3.75000000e-010,-2.45999936e-003
,,,-3.50000000e-010,-2.60343686e-003
,,,-3.25000000e-010,-2.74312436e-003
,,,-3.00000000e-010,-2.88093686e-003
,,,-2.75000000e-010,-3.02062437e-003
,,,-2.50000000e-010,-3.16499937e-003
,,,-2.25000000e-010,-3.31781187e-003
,,,-2.00000000e-010,-3.48187437e-003
,,,-1.75000000e-010,-3.65999937e-003
,,,-1.50000000e-010,-3.85124937e-003
,,,-1.25000000e-010,-4.05984312e-003
,,,-1.00000000e-010,-4.28390563e-003
,,,-7.50000000e-011,-4.51968688e-003
,,,-5.00000000e-011,-4.76062438e-003
,,,-2.50000000e-011,-5.00156188e-003
,,,0.00000000e+000,-5.23640563e-003
,,,2.50000000e-011,-5.45999939e-003
,,,5.00000000e-011,-5.64562439e-003
,,,7.50000000e-011,-5.81812439e-003
,,,1.00000000e-010,-5.97843689e-003
,,,1.25000000e-010,-6.12890564e-003
,,,1.50000000e-010,-6.27093689e-003
,,,1.75000000e-010,-6.40593689e-003
,,,2.00000000e-010,-6.53578065e-003
,,,2.25000000e-010,-6.65999940e-003
,,,2.50000000e-010,-6.74390565e-003
,,,2.75000000e-010,-6.82640565e-003
,,,3.00000000e-010,-6.90843690e-003
,,,3.25000000e-010,-6.98999940e-003
,,,3.50000000e-010,-7.06921815e-003
,,,3.75000000e-010,-7.14234315e-003
,,,4.00000000e-010,-7.20749940e-003
,,,4.25000000e-010,-7.25999940e-003
,,,4.50000000e-010,-7.25624940e-003
,,,4.75000000e-010,-7.24124940e-003
,,,5.00000000e-010,-7.21781190e-003
,,,5.25000000e-010,-7.18687440e-003
,,,5.50000000e-010,-7.15124940e-003
,,,5.75000000e-010,-7.11140565e-003
,,,6.00000000e-010,-7.06781190e-003
,,,6.25000000e-010,-7.01999940e-003
,,,6.50000000e-010,-6.92953065e-003
,,,6.75000000e-010,-6.83812440e-003
,,,7.00000000e-010,-6.74718690e-003
,,,7.25000000e-010,-6.65812440e-003
,,,7.50000000e-010,-6.56953065e-003
,,,7.75000000e-010,-6.48187440e-003
,,,8.00000000e-010,-6.39281189e-003
,,,8.25000000e-010,-6.29999939e-003
,,,8.50000000e-010,-6.17203064e-003
,,,8.75000000e-010,-6.03937439e-003
,,,9.00000000e-010,-5.90437439e-003
,,,9.25000000e-010,-5.76703064e-003
,,,9.50000000e-010,-5.62921814e-003
,,,9.75000000e-010,-5.49187439e-003
,,,1.00000000e-009,-5.35546814e-003
,,,1.02500000e-009,-5.21999938e-003
,,,1.05000000e-009,-5.06953063e-003
,,,1.07500000e-009,-4.91999938e-003
,,,1.10000000e-009,-4.77328063e-003
,,,1.12500000e-009,-4.63171813e-003
,,,1.15000000e-009,-4.49671813e-003
,,,1.17500000e-009,-4.36921813e-003
,,,1.20000000e-009,-4.25062438e-003
,,,1.22500000e-009,-4.13999937e-003
,,,1.25000000e-009,-4.03124937e-003
,,,1.27500000e-009,-3.92437437e-003
,,,1.30000000e-009,-3.81890562e-003
,,,1.32500000e-009,-3.71390562e-003
,,,1.35000000e-009,-3.60937437e-003
,,,1.37500000e-009,-3.50578062e-003
,,,1.40000000e-009,-3.40265562e-003
,,,1.42500000e-009,-3.29999937e-003
,,,1.45000000e-009,-3.20203062e-003
,,,1.47500000e-009,-3.09937437e-003
,,,1.50000000e-009,-2.99203061e-003
,,,1.52500000e-009,-2.88187436e-003
,,,1.55000000e-009,-2.77171811e-003
,,,1.57500000e-009,-2.66296811e-003
,,,1.60000000e-009,-2.55843686e-003
,,,1.62500000e-009,-2.45999936e-003
,,,1.65000000e-009,-2.38031186e-003
,,,1.67500000e-009,-2.30249936e-003
,,,1.70000000e-009,-2.22562436e-003
,,,1.72500000e-009,-2.15015561e-003
,,,1.75000000e-009,-2.07562436e-003
,,,1.77500000e-009,-2.00296811e-003
,,,1.80000000e-009,-1.93078061e-003
,,,1.82500000e-009,-1.85999935e-003
,,,1.85000000e-009,-1.80421810e-003
,,,1.87500000e-009,-1.74328060e-003
,,,1.90000000e-009,-1.67531185e-003
,,,1.92500000e-009,-1.60124935e-003
,,,1.95000000e-009,-1.52109310e-003
,,,1.97500000e-009,-1.43624935e-003
,,,2.00000000e-009,-1.34859310e-003
,,,2.02500000e-009,-1.25999935e-003
,,,2.05000000e-009,-1.18921810e-003
,,,2.07500000e-009,-1.11749935e-003
,,,2.10000000e-009,-1.04671810e-003
,,,2.12500000e-009,-9.78749347e-004
,,,2.15000000e-009,-9.15936847e-004
,,,2.17500000e-009,-8.60624346e-004
,,,2.20000000e-009,-8.14686846e-004
,,,2.22500000e-009,-7.79999346e-004
,,,2.25000000e-009,-7.73905595e-004
,,,2.27500000e-009,-7.76249346e-004
,,,2.30000000e-009,-7.85624346e-004
,,,2.32500000e-009,-8.01093096e-004
,,,2.35000000e-009,-8.21249346e-004
,,,2.37500000e-009,-8.45155596e-004
,,,2.40000000e-009,-8.71874346e-004
,,,2.42500000e-009,-8.99999347e-004
,,,2.45000000e-009,-9.40311847e-004
,,,2.47500000e-009,-9.77811847e-004
,,,2.50000000e-009,-1.01156185e-003
,,,2.52500000e-009,-1.04203060e-003
,,,2.55000000e-009,-1.06921810e-003
,,,2.57500000e-009,-1.09406185e-003
,,,2.60000000e-009,-1.11749935e-003
,,,2.62500000e-009,-1.13999935e-003
,,,2.65000000e-009,-1.16765560e-003
,,,2.67500000e-009,-1.19249935e-003
,,,2.70000000e-009,-1.21359310e-003
,,,2.72500000e-009,-1.23140560e-003
,,,2.75000000e-009,-1.24499935e-003
,,,2.77500000e-009,-1.25437435e-003
,,,2.80000000e-009,-1.25906185e-003
,,,2.82500000e-009,-1.25999935e-003
,,,2.85000000e-009,-1.25999935e-003
,,,2.87500000e-009,-1.25671810e-003
,,,2.90000000e-009,-1.25203060e-003
,,,2.92500000e-009,-1.24734310e-003
,,,2.95000000e-009,-1.24453060e-003
,,,2.97500000e-009,-1.24499935e-003
,,,3.00000000e-009,-1.25015560e-003
,,,3.02500000e-009,-1.25999935e-003
,,,3.05000000e-009,-1.27453060e-003
,,,3.07500000e-009,-1.29234310e-003
,,,3.10000000e-009,-1.31249935e-003
,,,3.12500000e-009,-1.33312435e-003
,,,3.15000000e-009,-1.35187435e-003
,,,3.17500000e-009,-1.36687435e-003
,,,3.20000000e-009,-1.37671810e-003
,,,3.22500000e-009,-1.37999935e-003
,,,3.25000000e-009,-1.37249935e-003
,,,3.27500000e-009,-1.35890560e-003
,,,3.30000000e-009,-1.34156185e-003
,,,3.32500000e-009,-1.32187435e-003
,,,3.35000000e-009,-1.30171810e-003
,,,3.37500000e-009,-1.28390560e-003
,,,3.40000000e-009,-1.26984310e-003
,,,3.42500000e-009,-1.25999935e-003
,,,3.45000000e-009,-1.25203060e-003
,,,3.47500000e-009,-1.24921810e-003
,,,3.50000000e-009,-1.25015560e-003
,,,3.52500000e-009,-1.25390560e-003
,,,3.55000000e-009,-1.25859310e-003
,,,3.57500000e-009,-1.26234310e-003
,,,3.60000000e-009,-1.26328060e-003
,,,3.62500000e-009,-1.25999935e-003
,,,3.65000000e-009,-1.25015560e-003
,,,3.67500000e-009,-1.23562435e-003
,,,3.70000000e-009,-1.21734310e-003
,,,3.72500000e-009,-1.19812435e-003
,,,3.75000000e-009,-1.17890560e-003
,,,3.77500000e-009,-1.16203060e-003
,,,3.80000000e-009,-1.14890560e-003
,,,3.82500000e-009,-1.13999935e-003
,,,3.85000000e-009,-1.13484310e-003
,,,3.87500000e-009,-1.13390560e-003
,,,3.90000000e-009,-1.13671810e-003
,,,3.92500000e-009,-1.14093685e-003
,,,3.95000000e-009,-1.14515560e-003
,,,3.97500000e-009,-1.14749935e-003
,,,4.00000000e-009,-1.14656185e-003
,,,4.02500000e-009,-1.13999935e-003
,,,4.05000000e-009,-1.12499935e-003
,,,4.07500000e-009,-1.10296810e-003
,,,4.10000000e-009,-1.07484310e-003
,,,4.12500000e-009,-1.04249935e-003
,,,4.15000000e-009,-1.00640560e-003
,,,4.17500000e-009,-9.69843097e-004
,,,4.20000000e-009,-9.33749347e-004
,,,4.22500000e-009,-8.99999347e-004
,,,4.25000000e-009,-8.69530596e-004
,,,4.27500000e-009,-8.43280596e-004
,,,4.30000000e-009,-8.21718096e-004
,,,4.32500000e-009,-8.04843096e-004
,,,4.35000000e-009,-7.92655596e-004
,,,4.37500000e-009,-7.85155596e-004
,,,4.40000000e-009,-7.80936846e-004
,,,4.42500000e-009,-7.79999346e-004
,,,4.45000000e-009,-7.79999346e-004
,,,4.47500000e-009,-7.80468096e-004
,,,4.50000000e-009,-7.80468096e-004
,,,4.52500000e-009,-7.80936846e-004
,,,4.55000000e-009,-7.80936846e-004
,,,4.57500000e-009,-7.80936846e-004
,,,4.60000000e-009,-7.80936846e-004
,,,4.62500000e-009,-7.79999346e-004
,,,4.65000000e-009,-7.75780596e-004
,,,4.67500000e-009,-7.68749345e-004
,,,4.70000000e-009,-7.58436845e-004
,,,4.72500000e-009,-7.44843095e-004
,,,4.75000000e-009,-7.27968095e-004
,,,4.77500000e-009,-7.08280595e-004
,,,4.80000000e-009,-6.85780595e-004
,,,4.82500000e-009,-6.59999344e-004
,,,4.85000000e-009,-6.31874344e-004
,,,4.87500000e-009,-6.00936844e-004
,,,4.90000000e-009,-5.69061844e-004
,,,4.92500000e-009,-5.36718093e-004
,,,4.95000000e-009,-5.04374343e-004
,,,4.97500000e-009,-4.73905593e-004
,,,5.00000000e-009,-4.45780593e-004
,,,5.02500000e-009,-4.19999342e-004
,,,5.05000000e-009,-3.98905592e-004
,,,5.07500000e-009,-3.79686842e-004
,,,5.10000000e-009,-3.62811842e-004
,,,5.12500000e-009,-3.47811842e-004
,,,5.15000000e-009,-3.34686842e-004
,,,5.17500000e-009,-3.22968092e-004
,,,5.20000000e-009,-3.11718091e-004
,,,5.22500000e-009,-2.99999341e-004
,,,5.25000000e-009,-2.88749341e-004
,,,5.27500000e-009,-2.73749341e-004
,,,5.30000000e-009,-2.53593091e-004
,,,5.32500000e-009,-2.27343091e-004
,,,5.35000000e-009,-1.94999340e-004
,,,5.37500000e-009,-1.55624340e-004
,,,5.40000000e-009,-1.10155590e-004
,,,5.42500000e-009,-5.99993393e-005
,,,5.45000000e-009,-1.17180889e-005
,,,5.47500000e-009,3.70319116e-005
,,,5.50000000e-009,8.29694120e-005
,,,5.52500000e-009,1.23281912e-004
,,,5.55000000e-009,1.55156913e-004
,,,5.57500000e-009,1.75781913e-004
,,,5.60000000e-009,1.84219413e-004
,,,5.62500000e-009,1.80000663e-004
,,,5.65000000e-009,1.57500663e-004
,,,5.67500000e-009,1.25625662e-004
,,,5.70000000e-009,8.81256620e-005
,,,5.72500000e-009,4.82819117e-005
,,,5.75000000e-009,1.03131613e-005
,,,5.77500000e-009,-2.24993390e-005
,,,5.80000000e-009,-4.64055892e-005
,,,5.82500000e-009,-5.99993393e-005
,,,5.85000000e-009,-6.51555893e-005
