RawData/SinglePhotoelectron/L7_2pt2A_5mV/wave012_Ch1.csv

"Record Length",1000,"Points",-7.72500000e-009,-4.35930891e-005
"Sample Interval",2.50000000e-011,s,-7.70000000e-009,-3.51555891e-005
"Trigger Point",309,"Samples",-7.67500000e-009,-2.95305890e-005
"Trigger Time",1.33057143e-011,s,-7.65000000e-009,-2.76555890e-005
"",,,-7.62500000e-009,-3.18743390e-005
"Horizontal Offset",-7.72500000e-009,s,-7.60000000e-009,-4.21868391e-005
,,,-7.57500000e-009,-5.99993393e-005
,,,-7.55000000e-009,-8.53118395e-005
,,,-7.52500000e-009,-1.15780590e-004
,,,-7.50000000e-009,-1.49999340e-004
,,,-7.47500000e-009,-1.85155590e-004
,,,-7.45000000e-009,-2.20311841e-004
,,,-7.42500000e-009,-2.52186841e-004
,,,-7.40000000e-009,-2.79374341e-004
,,,-7.37500000e-009,-2.99999341e-004
,,,-7.35000000e-009,-3.11718091e-004
,,,-7.32500000e-009,-3.16874342e-004
,,,-7.30000000e-009,-3.16405592e-004
,,,-7.27500000e-009,-3.12186841e-004
,,,-7.25000000e-009,-3.07030591e-004
,,,-7.22500000e-009,-3.02343091e-004
,,,-7.20000000e-009,-2.99530591e-004
,,,-7.17500000e-009,-2.99999341e-004
,,,-7.15000000e-009,-3.00936841e-004
,,,-7.12500000e-009,-3.04218091e-004
,,,-7.10000000e-009,-3.09843091e-004
,,,-7.07500000e-009,-3.14999341e-004
,,,-7.05000000e-009,-3.18280592e-004
,,,-7.02500000e-009,-3.18280592e-004
,,,-7.00000000e-009,-3.12655591e-004
,,,-6.97500000e-009,-2.99999341e-004
,,,-6.95000000e-009,-2.78436841e-004
,,,-6.92500000e-009,-2.50311841e-004
,,,-6.90000000e-009,-2.17968091e-004
,,,-6.87500000e-009,-1.82811840e-004
,,,-6.85000000e-009,-1.47186840e-004
,,,-6.82500000e-009,-1.13436840e-004
,,,-6.80000000e-009,-8.39055895e-005
,,,-6.77500000e-009,-5.99993393e-005
,,,-6.75000000e-009,-4.40618391e-005
,,,-6.72500000e-009,-3.51555891e-005
,,,-6.70000000e-009,-3.32805891e-005
,,,-6.67500000e-009,-3.60930891e-005
,,,-6.65000000e-009,-4.21868391e-005
,,,-6.62500000e-009,-4.96868392e-005
,,,-6.60000000e-009,-5.62493392e-005
,,,-6.57500000e-009,-5.99993393e-005
,,,-6.55000000e-009,-6.04680893e-005
,,,-6.52500000e-009,-5.57805892e-005
,,,-6.50000000e-009,-4.59368392e-005
,,,-6.47500000e-009,-3.09368390e-005
,,,-6.45000000e-009,-1.21868389e-005
,,,-6.42500000e-009,1.03131613e-005
,,,-6.40000000e-009,3.46881615e-005
,,,-6.37500000e-009,6.00006618e-005
,,,-6.35000000e-009,8.15631619e-005
,,,-6.32500000e-009,1.01719412e-004
,,,-6.30000000e-009,1.20469412e-004
,,,-6.27500000e-009,1.36875662e-004
,,,-6.25000000e-009,1.51406913e-004
,,,-6.22500000e-009,1.63594413e-004
,,,-6.20000000e-009,1.72969413e-004
,,,-6.17500000e-009,1.80000663e-004
,,,-6.15000000e-009,1.79531913e-004
,,,-6.12500000e-009,1.75781913e-004
,,,-6.10000000e-009,1.67813163e-004
,,,-6.07500000e-009,1.56094413e-004
,,,-6.05000000e-009,1.39219412e-004
,,,-6.02500000e-009,1.17656912e-004
,,,-6.00000000e-009,9.09381620e-005
,,,-5.97500000e-009,6.00006618e-005
,,,-5.95000000e-009,2.34381614e-005
,,,-5.92500000e-009,-1.45305889e-005
,,,-5.90000000e-009,-5.15618392e-005
,,,-5.87500000e-009,-8.67180895e-005
,,,-5.85000000e-009,-1.18593090e-004
,,,-5.82500000e-009,-1.45311840e-004
,,,-5.80000000e-009,-1.65936840e-004
,,,-5.77500000e-009,-1.79999340e-004
,,,-5.75000000e-009,-1.86561840e-004
,,,-5.72500000e-009,-1.87499340e-004
,,,-5.70000000e-009,-1.84686840e-004
,,,-5.67500000e-009,-1.79999340e-004
,,,-5.65000000e-009,-1.75311840e-004
,,,-5.62500000e-009,-1.72968090e-004
,,,-5.60000000e-009,-1.74374340e-004
,,,-5.57500000e-009,-1.79999340e-004
,,,-5.55000000e-009,-1.89374340e-004
,,,-5.52500000e-009,-2.03436841e-004
,,,-5.50000000e-009,-2.20780591e-004
,,,-5.47500000e-009,-2.39999341e-004
,,,-5.45000000e-009,-2.59686841e-004
,,,-5.42500000e-009,-2.77030591e-004
,,,-5.40000000e-009,-2.91093091e-004
,,,-5.37500000e-009,-2.99999341e-004
,,,-5.35000000e-009,-3.00468091e-004
,,,-5.32500000e-009,-2.94843091e-004
,,,-5.30000000e-009,-2.83124341e-004
,,,-5.27500000e-009,-2.66718091e-004
,,,-5.25000000e-009,-2.47030591e-004
,,,-5.22500000e-009,-2.24999341e-004
,,,-5.20000000e-009,-2.02499341e-004
,,,-5.17500000e-009,-1.79999340e-004
,,,-5.15000000e-009,-1.58905590e-004
,,,-5.12500000e-009,-1.40155590e-004
,,,-5.10000000e-009,-1.24218090e-004
,,,-5.07500000e-009,-1.10624340e-004
,,,-5.05000000e-009,-9.79680896e-005
,,,-5.02500000e-009,-8.62493395e-005
,,,-5.00000000e-009,-7.35930894e-005
,,,-4.97500000e-009,-5.99993393e-005
,,,-4.95000000e-009,-4.59368392e-005
,,,-4.92500000e-009,-3.04680890e-005
,,,-4.90000000e-009,-1.45305889e-005
,,,-4.87500000e-009,2.34441126e-006
,,,-4.85000000e-009,1.87506614e-005
,,,-4.82500000e-009,3.42194115e-005
,,,-4.80000000e-009,4.78131617e-005
,,,-4.77500000e-009,6.00006618e-005
,,,-4.75000000e-009,6.60944118e-005
,,,-4.72500000e-009,7.03131619e-005
,,,-4.70000000e-009,7.17194119e-005
,,,-4.67500000e-009,7.12506619e-005
,,,-4.65000000e-009,6.93756618e-005
,,,-4.62500000e-009,6.70319118e-005
,,,-4.60000000e-009,6.37506618e-005
,,,-4.57500000e-009,6.00006618e-005
,,,-4.55000000e-009,5.34381617e-005
,,,-4.52500000e-009,4.64069116e-005
,,,-4.50000000e-009,3.75006616e-005
,,,-4.47500000e-009,2.57819115e-005
,,,-4.45000000e-009,1.07819113e-005
,,,-4.42500000e-009,-8.43683883e-006
,,,-4.40000000e-009,-3.18743390e-005
,,,-4.37500000e-009,-5.99993393e-005
,,,-4.35000000e-009,-9.37493396e-005
,,,-4.32500000e-009,-1.29374340e-004
,,,-4.30000000e-009,-1.65936840e-004
,,,-4.27500000e-009,-2.01093091e-004
,,,-4.25000000e-009,-2.33436841e-004
,,,-4.22500000e-009,-2.61561841e-004
,,,-4.20000000e-009,-2.84061841e-004
,,,-4.17500000e-009,-2.99999341e-004
,,,-4.15000000e-009,-3.08436841e-004
,,,-4.12500000e-009,-3.10780591e-004
,,,-4.10000000e-009,-3.08905591e-004
,,,-4.07500000e-009,-3.04686841e-004
,,,-4.05000000e-009,-2.99999341e-004
,,,-4.02500000e-009,-2.97186841e-004
,,,-4.00000000e-009,-2.96718091e-004
,,,-3.97500000e-009,-2.99999341e-004
,,,-3.95000000e-009,-3.04686841e-004
,,,-3.92500000e-009,-3.12186841e-004
,,,-3.90000000e-009,-3.20155592e-004
,,,-3.87500000e-009,-3.26718092e-004
,,,-3.85000000e-009,-3.29999342e-004
,,,-3.82500000e-009,-3.27655592e-004
,,,-3.80000000e-009,-3.18280592e-004
,,,-3.77500000e-009,-2.99999341e-004
,,,-3.75000000e-009,-2.71874341e-004
,,,-3.72500000e-009,-2.38124341e-004
,,,-3.70000000e-009,-2.00155591e-004
,,,-3.67500000e-009,-1.61718090e-004
,,,-3.65000000e-009,-1.25624340e-004
,,,-3.62500000e-009,-9.51555896e-005
,,,-3.60000000e-009,-7.31243394e-005
,,,-3.57500000e-009,-5.99993393e-005
,,,-3.55000000e-009,-5.81243393e-005
,,,-3.52500000e-009,-6.60930893e-005
,,,-3.50000000e-009,-8.24993395e-005
,,,-3.47500000e-009,-1.04061840e-004
,,,-3.45000000e-009,-1.27499340e-004
,,,-3.42500000e-009,-1.49999340e-004
,,,-3.40000000e-009,-1.68749340e-004
,,,-3.37500000e-009,-1.79999340e-004
,,,-3.35000000e-009,-1.83280590e-004
,,,-3.32500000e-009,-1.78124340e-004
,,,-3.30000000e-009,-1.64999340e-004
,,,-3.27500000e-009,-1.46249340e-004
,,,-3.25000000e-009,-1.24218090e-004
,,,-3.22500000e-009,-1.00780590e-004
,,,-3.20000000e-009,-7.87493394e-005
,,,-3.17500000e-009,-5.99993393e-005
,,,-3.15000000e-009,-4.82805892e-005
,,,-3.12500000e-009,-4.21868391e-005
,,,-3.10000000e-009,-4.07805891e-005
,,,-3.07500000e-009,-4.26555891e-005
,,,-3.05000000e-009,-4.73430892e-005
,,,-3.02500000e-009,-5.29680892e-005
,,,-3.00000000e-009,-5.76555893e-005
,,,-2.97500000e-009,-5.99993393e-005
,,,-2.95000000e-009,-6.32805893e-005
,,,-2.92500000e-009,-6.37493393e-005
,,,-2.90000000e-009,-6.18743393e-005
,,,-2.87500000e-009,-5.90618393e-005
,,,-2.85000000e-009,-5.62493392e-005
,,,-2.82500000e-009,-5.48430892e-005
,,,-2.80000000e-009,-5.57805892e-005
,,,-2.77500000e-009,-5.99993393e-005
,,,-2.75000000e-009,-7.03118394e-005
,,,-2.72500000e-009,-8.39055895e-005
,,,-2.70000000e-009,-1.00311840e-004
,,,-2.67500000e-009,-1.18124340e-004
,,,-2.65000000e-009,-1.36405590e-004
,,,-2.62500000e-009,-1.53749340e-004
,,,-2.60000000e-009,-1.68280590e-004
,,,-2.57500000e-009,-1.79999340e-004
,,,-2.55000000e-009,-1.87499340e-004
,,,-2.52500000e-009,-1.91718090e-004
,,,-2.50000000e-009,-1.92186840e-004
,,,-2.47500000e-009,-1.89843090e-004
,,,-2.45000000e-009,-1.86561840e-004
,,,-2.42500000e-009,-1.83280590e-004
,,,-2.40000000e-009,-1.80468090e-004
,,,-2.37500000e-009,-1.79999340e-004
,,,-2.35000000e-009,-1.83749340e-004
,,,-2.32500000e-009,-1.90780590e-004
,,,-2.30000000e-009,-2.01561841e-004
,,,-2.27500000e-009,-2.16093091e-004
,,,-2.25000000e-009,-2.33905591e-004
,,,-2.22500000e-009,-2.54530591e-004
,,,-2.20000000e-009,-2.77030591e-004
,,,-2.17500000e-009,-2.99999341e-004
,,,-2.15000000e-009,-3.23905592e-004
,,,-2.12500000e-009,-3.46405592e-004
,,,-2.10000000e-009,-3.67499342e-004
,,,-2.07500000e-009,-3.85780592e-004
,,,-2.05000000e-009,-4.00780592e-004
,,,-2.02500000e-009,-4.12030592e-004
,,,-2.00000000e-009,-4.18593092e-004
,,,-1.97500000e-009,-4.19999342e-004
,,,-1.95000000e-009,-4.16249342e-004
,,,-1.92500000e-009,-4.08280592e-004
,,,-1.90000000e-009,-3.96561842e-004
,,,-1.87500000e-009,-3.81561842e-004
,,,-1.85000000e-009,-3.64218092e-004
,,,-1.82500000e-009,-3.44061842e-004
,,,-1.80000000e-009,-3.22499342e-004
,,,-1.77500000e-009,-2.99999341e-004
,,,-1.75000000e-009,-2.79374341e-004
,,,-1.72500000e-009,-2.59686841e-004
,,,-1.70000000e-009,-2.41405591e-004
,,,-1.67500000e-009,-2.25468091e-004
,,,-1.65000000e-009,-2.10936841e-004
,,,-1.62500000e-009,-1.98749340e-004
,,,-1.60000000e-009,-1.87968090e-004
,,,-1.57500000e-009,-1.79999340e-004
,,,-1.55000000e-009,-1.83280590e-004
,,,-1.52500000e-009,-1.91249340e-004
,,,-1.50000000e-009,-2.02968091e-004
,,,-1.47500000e-009,-2.18436841e-004
,,,-1.45000000e-009,-2.36249341e-004
,,,-1.42500000e-009,-2.55936841e-004
,,,-1.40000000e-009,-2.77499341e-004
,,,-1.37500000e-009,-2.99999341e-004
,,,-1.35000000e-009,-3.35624342e-004
,,,-1.32500000e-009,-3.73593092e-004
,,,-1.30000000e-009,-4.11093092e-004
,,,-1.27500000e-009,-4.47186843e-004
,,,-1.25000000e-009,-4.79530593e-004
,,,-1.22500000e-009,-5.06249343e-004
,,,-1.20000000e-009,-5.26874343e-004
,,,-1.17500000e-009,-5.39999343e-004
,,,-1.15000000e-009,-5.62968094e-004
,,,-1.12500000e-009,-5.80780594e-004
,,,-1.10000000e-009,-5.92499344e-004
,,,-1.07500000e-009,-5.96718094e-004
,,,-1.05000000e-009,-5.93436844e-004
,,,-1.02500000e-009,-5.81718094e-004
,,,-1.00000000e-009,-5.63436844e-004
,,,-9.75000000e-010,-5.39999343e-004
,,,-9.50000000e-010,-5.38124343e-004
,,,-9.25000000e-010,-5.41874343e-004
,,,-9.00000000e-010,-5.53593094e-004
,,,-8.75000000e-010,-5.74686844e-004
,,,-8.50000000e-010,-6.07030594e-004
,,,-8.25000000e-010,-6.51093094e-004
,,,-8.00000000e-010,-7.08749345e-004
,,,-7.75000000e-010,-7.79999346e-004
,,,-7.50000000e-010,-8.87343096e-004
,,,-7.25000000e-010,-1.01109310e-003
,,,-7.00000000e-010,-1.14656185e-003
,,,-6.75000000e-010,-1.29046810e-003
,,,-6.50000000e-010,-1.43718685e-003
,,,-6.25000000e-010,-1.58296810e-003
,,,-6.00000000e-010,-1.72499935e-003
,,,-5.75000000e-010,-1.85999935e-003
,,,-5.50000000e-010,-1.99781186e-003
,,,-5.25000000e-010,-2.13140561e-003
,,,-5.00000000e-010,-2.26265561e-003
,,,-4.75000000e-010,-2.39249936e-003
,,,-4.50000000e-010,-2.52328061e-003
,,,-4.25000000e-010,-2.65687436e-003
,,,-4.00000000e-010,-2.79562436e-003
,,,-3.75000000e-010,-2.93999936e-003
,,,-3.50000000e-010,-3.08906187e-003
,,,-3.25000000e-010,-3.24656187e-003
,,,-3.00000000e-010,-3.41249937e-003
,,,-2.75000000e-010,-3.58359312e-003
,,,-2.50000000e-010,-3.75703062e-003
,,,-2.25000000e-010,-3.92999937e-003
,,,-2.00000000e-010,-4.09874937e-003
,,,-1.75000000e-010,-4.25999938e-003
,,,-1.50000000e-010,-4.39406188e-003
,,,-1.25000000e-010,-4.52109313e-003
,,,-1.00000000e-010,-4.64249938e-003
,,,-7.50000000e-011,-4.75968688e-003
,,,-5.00000000e-011,-4.87546813e-003
,,,-2.50000000e-011,-4.99078063e-003
,,,0.00000000e+000,-5.10562438e-003
,,,2.50000000e-011,-5.21999938e-003
,,,5.00000000e-011,-5.30156188e-003
,,,7.50000000e-011,-5.38124939e-003
,,,1.00000000e-010,-5.45812439e-003
,,,1.25000000e-010,-5.52984314e-003
,,,1.50000000e-010,-5.59312439e-003
,,,1.75000000e-010,-5.64468689e-003
,,,2.00000000e-010,-5.68124939e-003
,,,2.25000000e-010,-5.69999939e-003
,,,2.50000000e-010,-5.66390564e-003
,,,2.75000000e-010,-5.61281189e-003
,,,3.00000000e-010,-5.55140564e-003
,,,3.25000000e-010,-5.48390564e-003
,,,3.50000000e-010,-5.41406189e-003
,,,3.75000000e-010,-5.34562439e-003
,,,4.00000000e-010,-5.28046813e-003
,,,4.25000000e-010,-5.21999938e-003
,,,4.50000000e-010,-5.13515563e-003
,,,4.75000000e-010,-5.05640563e-003
,,,5.00000000e-010,-4.98328063e-003
,,,5.25000000e-010,-4.91484313e-003
,,,5.50000000e-010,-4.84781188e-003
,,,5.75000000e-010,-4.77890563e-003
,,,6.00000000e-010,-4.70390563e-003
,,,6.25000000e-010,-4.61999938e-003
,,,6.50000000e-010,-4.50374938e-003
,,,6.75000000e-010,-4.37624938e-003
,,,7.00000000e-010,-4.24078063e-003
,,,7.25000000e-010,-4.09968687e-003
,,,7.50000000e-010,-3.95578062e-003
,,,7.75000000e-010,-3.81281187e-003
,,,8.00000000e-010,-3.67359312e-003
,,,8.25000000e-010,-3.53999937e-003
,,,8.50000000e-010,-3.40734312e-003
,,,8.75000000e-010,-3.28265562e-003
,,,9.00000000e-010,-3.16687437e-003
,,,9.25000000e-010,-3.05953062e-003
,,,9.50000000e-010,-2.96015561e-003
,,,9.75000000e-010,-2.86781186e-003
,,,1.00000000e-009,-2.78156186e-003
,,,1.02500000e-009,-2.69999936e-003
,,,1.05000000e-009,-2.62499936e-003
,,,1.07500000e-009,-2.54859311e-003
,,,1.10000000e-009,-2.47171811e-003
,,,1.12500000e-009,-2.39390561e-003
,,,1.15000000e-009,-2.31703061e-003
,,,1.17500000e-009,-2.24156186e-003
,,,1.20000000e-009,-2.16890561e-003
,,,1.22500000e-009,-2.09999936e-003
,,,1.25000000e-009,-2.04562436e-003
,,,1.27500000e-009,-1.99031186e-003
,,,1.30000000e-009,-1.93312436e-003
,,,1.32500000e-009,-1.87406186e-003
,,,1.35000000e-009,-1.81265560e-003
,,,1.37500000e-009,-1.74937435e-003
,,,1.40000000e-009,-1.68515560e-003
,,,1.42500000e-009,-1.61999935e-003
,,,1.45000000e-009,-1.56843685e-003
,,,1.47500000e-009,-1.51453060e-003
,,,1.50000000e-009,-1.46015560e-003
,,,1.52500000e-009,-1.40765560e-003
,,,1.55000000e-009,-1.35937435e-003
,,,1.57500000e-009,-1.31718685e-003
,,,1.60000000e-009,-1.28390560e-003
,,,1.62500000e-009,-1.25999935e-003
,,,1.65000000e-009,-1.25906185e-003
,,,1.67500000e-009,-1.26281185e-003
,,,1.70000000e-009,-1.26843685e-003
,,,1.72500000e-009,-1.27359310e-003
,,,1.75000000e-009,-1.27687435e-003
,,,1.77500000e-009,-1.27640560e-003
,,,1.80000000e-009,-1.27124935e-003
,,,1.82500000e-009,-1.25999935e-003
,,,1.85000000e-009,-1.25343685e-003
,,,1.87500000e-009,-1.24031185e-003
,,,1.90000000e-009,-1.22156185e-003
,,,1.92500000e-009,-1.19999935e-003
,,,1.95000000e-009,-1.17796810e-003
,,,1.97500000e-009,-1.15921810e-003
,,,2.00000000e-009,-1.14609310e-003
,,,2.02500000e-009,-1.13999935e-003
,,,2.05000000e-009,-1.14984310e-003
,,,2.07500000e-009,-1.16484310e-003
,,,2.10000000e-009,-1.18406185e-003
,,,2.12500000e-009,-1.20562435e-003
,,,2.15000000e-009,-1.22578060e-003
,,,2.17500000e-009,-1.24312435e-003
,,,2.20000000e-009,-1.25484310e-003
,,,2.22500000e-009,-1.25999935e-003
,,,2.25000000e-009,-1.26093685e-003
,,,2.27500000e-009,-1.25343685e-003
,,,2.30000000e-009,-1.23890560e-003
,,,2.32500000e-009,-1.21874935e-003
,,,2.35000000e-009,-1.19624935e-003
,,,2.37500000e-009,-1.17374935e-003
,,,2.40000000e-009,-1.15453060e-003
,,,2.42500000e-009,-1.13999935e-003
,,,2.45000000e-009,-1.13437435e-003
,,,2.47500000e-009,-1.13624935e-003
,,,2.50000000e-009,-1.14515560e-003
,,,2.52500000e-009,-1.16015560e-003
,,,2.55000000e-009,-1.18124935e-003
,,,2.57500000e-009,-1.20562435e-003
,,,2.60000000e-009,-1.23281185e-003
,,,2.62500000e-009,-1.25999935e-003
,,,2.65000000e-009,-1.28343685e-003
,,,2.67500000e-009,-1.30359310e-003
,,,2.70000000e-009,-1.32140560e-003
,,,2.72500000e-009,-1.33593685e-003
,,,2.75000000e-009,-1.34859310e-003
,,,2.77500000e-009,-1.35984310e-003
,,,2.80000000e-009,-1.37015560e-003
,,,2.82500000e-009,-1.37999935e-003
,,,2.85000000e-009,-1.38374935e-003
,,,2.87500000e-009,-1.38656185e-003
,,,2.90000000e-009,-1.38796810e-003
,,,2.92500000e-009,-1.38890560e-003
,,,2.95000000e-009,-1.38843685e-003
,,,2.97500000e-009,-1.38703060e-003
,,,3.00000000e-009,-1.38468685e-003
,,,3.02500000e-009,-1.37999935e-003
,,,3.05000000e-009,-1.36781185e-003
,,,3.07500000e-009,-1.35281185e-003
,,,3.10000000e-009,-1.33687435e-003
,,,3.12500000e-009,-1.32046810e-003
,,,3.15000000e-009,-1.30406185e-003
,,,3.17500000e-009,-1.28859310e-003
,,,3.20000000e-009,-1.27406185e-003
,,,3.22500000e-009,-1.25999935e-003
,,,3.25000000e-009,-1.24078060e-003
,,,3.27500000e-009,-1.21968685e-003
,,,3.30000000e-009,-1.19624935e-003
,,,3.32500000e-009,-1.16999935e-003
,,,3.35000000e-009,-1.13953060e-003
,,,3.37500000e-009,-1.10484310e-003
,,,3.40000000e-009,-1.06546810e-003
,,,3.42500000e-009,-1.01999935e-003
,,,3.45000000e-009,-9.66561847e-004
,,,3.47500000e-009,-9.08436847e-004
,,,3.50000000e-009,-8.46561846e-004
,,,3.52500000e-009,-7.82811846e-004
,,,3.55000000e-009,-7.18593095e-004
,,,3.57500000e-009,-6.55780594e-004
,,,3.60000000e-009,-5.95780594e-004
,,,3.62500000e-009,-5.39999343e-004
,,,3.65000000e-009,-4.91249343e-004
,,,3.67500000e-009,-4.48124343e-004
,,,3.70000000e-009,-4.11093092e-004
,,,3.72500000e-009,-3.79218092e-004
,,,3.75000000e-009,-3.52968092e-004
,,,3.77500000e-009,-3.31874342e-004
,,,3.80000000e-009,-3.14530591e-004
,,,3.82500000e-009,-2.99999341e-004
,,,3.85000000e-009,-2.91093091e-004
,,,3.87500000e-009,-2.81249341e-004
,,,3.90000000e-009,-2.70468091e-004
,,,3.92500000e-009,-2.56874341e-004
,,,3.95000000e-009,-2.40936841e-004
,,,3.97500000e-009,-2.22655591e-004
,,,4.00000000e-009,-2.02499341e-004
,,,4.02500000e-009,-1.79999340e-004
,,,4.05000000e-009,-1.62186840e-004
,,,4.07500000e-009,-1.42968090e-004
,,,4.10000000e-009,-1.23280590e-004
,,,4.12500000e-009,-1.04530590e-004
,,,4.15000000e-009,-8.76555895e-005
,,,4.17500000e-009,-7.40618394e-005
,,,4.20000000e-009,-6.46868393e-005
,,,4.22500000e-009,-5.99993393e-005
,,,4.25000000e-009,-6.65618393e-005
,,,4.27500000e-009,-7.68743394e-005
,,,4.30000000e-009,-9.04680895e-005
,,,4.32500000e-009,-1.06405590e-004
,,,4.35000000e-009,-1.24218090e-004
,,,4.37500000e-009,-1.43436840e-004
,,,4.40000000e-009,-1.62186840e-004
,,,4.42500000e-009,-1.79999340e-004
,,,4.45000000e-009,-1.97811840e-004
,,,4.47500000e-009,-2.10936841e-004
,,,4.50000000e-009,-2.18436841e-004
,,,4.52500000e-009,-2.20780591e-004
,,,4.55000000e-009,-2.17499341e-004
,,,4.57500000e-009,-2.09061841e-004
,,,4.60000000e-009,-1.96405590e-004
,,,4.62500000e-009,-1.79999340e-004
,,,4.65000000e-009,-1.62186840e-004
,,,4.67500000e-009,-1.42499340e-004
,,,4.70000000e-009,-1.22343090e-004
,,,4.72500000e-009,-1.03124340e-004
,,,4.75000000e-009,-8.67180895e-005
,,,4.77500000e-009,-7.31243394e-005
,,,4.80000000e-009,-6.42180893e-005
,,,4.82500000e-009,-5.99993393e-005
,,,4.85000000e-009,-6.18743393e-005
,,,4.87500000e-009,-6.89055894e-005
,,,4.90000000e-009,-8.06243395e-005
,,,4.92500000e-009,-9.60930896e-005
,,,4.95000000e-009,-1.14843090e-004
,,,4.97500000e-009,-1.35936840e-004
,,,5.00000000e-009,-1.58436840e-004
,,,5.02500000e-009,-1.79999340e-004
,,,5.05000000e-009,-1.97811840e-004
,,,5.07500000e-009,-2.11405591e-004
,,,5.10000000e-009,-2.20780591e-004
,,,5.12500000e-009,-2.24061841e-004
,,,5.15000000e-009,-2.22186841e-004
,,,5.17500000e-009,-2.13749341e-004
,,,5.20000000e-009,-1.99686840e-004
,,,5.22500000e-009,-1.79999340e-004
,,,5.25000000e-009,-1.53749340e-004
,,,5.27500000e-009,-1.23749340e-004
,,,5.30000000e-009,-9.09368396e-005
,,,5.32500000e-009,-5.76555893e-005
,,,5.35000000e-009,-2.43743390e-005
,,,5.37500000e-009,7.03191130e-006
,,,5.40000000e-009,3.56256615e-005
,,,5.42500000e-009,6.00006618e-005
,,,5.45000000e-009,7.92194119e-005
,,,5.47500000e-009,9.28131620e-005
,,,5.50000000e-009,1.00781912e-004
,,,5.52500000e-009,1.02656912e-004
,,,5.55000000e-009,9.89069121e-005
,,,5.57500000e-009,8.95319120e-005
,,,5.60000000e-009,7.64069119e-005
,,,5.62500000e-009,6.00006618e-005
,,,5.65000000e-009,4.21881616e-005
,,,5.67500000e-009,2.57819115e-005
,,,5.70000000e-009,1.35944114e-005
,,,5.72500000e-009,7.03191130e-006
,,,5.75000000e-009,7.50066130e-006
,,,5.77500000e-009,1.64069114e-005
,,,5.80000000e-009,3.37506615e-005
,,,5.82500000e-009,6.00006618e-005
,,,5.85000000e-009,9.28131620e-005
