RawData/SinglePhotoelectron/L7_2pt2A_5mV/wave029_Ch1.csv

"Record Length",1000,"Points",-7.72500000e-009,-5.99993393e-005
"Sample Interval",2.50000000e-011,s,-7.70000000e-009,-5.95305893e-005
"Trigger Point",309,"Samples",-7.67500000e-009,-5.90618393e-005
"Trigger Time",2.49528358e-011,s,-7.65000000e-009,-5.90618393e-005
"",,,-7.62500000e-009,-5.95305893e-005
"Horizontal Offset",-7.72500000e-009,s,-7.60000000e-009,-5.99993393e-005
,,,-7.57500000e-009,-6.04680893e-005
,,,-7.55000000e-009,-6.04680893e-005
,,,-7.52500000e-009,-5.99993393e-005
,,,-7.50000000e-009,-6.04680893e-005
,,,-7.47500000e-009,-6.04680893e-005
,,,-7.45000000e-009,-6.04680893e-005
,,,-7.42500000e-009,-6.04680893e-005
,,,-7.40000000e-009,-5.99993393e-005
,,,-7.37500000e-009,-5.99993393e-005
,,,-7.35000000e-009,-5.99993393e-005
,,,-7.32500000e-009,-5.99993393e-005
,,,-7.30000000e-009,-5.99993393e-005
,,,-7.27500000e-009,-5.99993393e-005
,,,-7.25000000e-009,-6.04680893e-005
,,,-7.22500000e-009,-6.09368393e-005
,,,-7.20000000e-009,-6.14055893e-005
,,,-7.17500000e-009,-6.14055893e-005
,,,-7.15000000e-009,-6.09368393e-005
,,,-7.12500000e-009,-5.99993393e-005
,,,-7.10000000e-009,-5.85930893e-005
,,,-7.07500000e-009,-5.67180893e-005
,,,-7.05000000e-009,-5.48430892e-005
,,,-7.02500000e-009,-5.34368392e-005
,,,-7.00000000e-009,-5.29680892e-005
,,,-6.97500000e-009,-5.39055892e-005
,,,-6.95000000e-009,-5.62493392e-005
,,,-6.92500000e-009,-5.99993393e-005
,,,-6.90000000e-009,-6.65618393e-005
,,,-6.87500000e-009,-7.54680894e-005
,,,-6.85000000e-009,-8.71868395e-005
,,,-6.82500000e-009,-1.01249340e-004
,,,-6.80000000e-009,-1.18124340e-004
,,,-6.77500000e-009,-1.36874340e-004
,,,-6.75000000e-009,-1.57968090e-004
,,,-6.72500000e-009,-1.79999340e-004
,,,-6.70000000e-009,-2.01561841e-004
,,,-6.67500000e-009,-2.22186841e-004
,,,-6.65000000e-009,-2.41874341e-004
,,,-6.62500000e-009,-2.59686841e-004
,,,-6.60000000e-009,-2.75155591e-004
,,,-6.57500000e-009,-2.87343091e-004
,,,-6.55000000e-009,-2.95780591e-004
,,,-6.52500000e-009,-2.99999341e-004
,,,-6.50000000e-009,-2.97655591e-004
,,,-6.47500000e-009,-2.90624341e-004
,,,-6.45000000e-009,-2.79374341e-004
,,,-6.42500000e-009,-2.64374341e-004
,,,-6.40000000e-009,-2.46093091e-004
,,,-6.37500000e-009,-2.25468091e-004
,,,-6.35000000e-009,-2.03436841e-004
,,,-6.32500000e-009,-1.79999340e-004
,,,-6.30000000e-009,-1.55624340e-004
,,,-6.27500000e-009,-1.32655590e-004
,,,-6.25000000e-009,-1.12030590e-004
,,,-6.22500000e-009,-9.42180896e-005
,,,-6.20000000e-009,-7.96868395e-005
,,,-6.17500000e-009,-6.93743394e-005
,,,-6.15000000e-009,-6.28118393e-005
,,,-6.12500000e-009,-5.99993393e-005
,,,-6.10000000e-009,-5.95305893e-005
,,,-6.07500000e-009,-6.09368393e-005
,,,-6.05000000e-009,-6.32805893e-005
,,,-6.02500000e-009,-6.60930893e-005
,,,-6.00000000e-009,-6.79680894e-005
,,,-5.97500000e-009,-6.79680894e-005
,,,-5.95000000e-009,-6.56243393e-005
,,,-5.92500000e-009,-5.99993393e-005
,,,-5.90000000e-009,-5.10930892e-005
,,,-5.87500000e-009,-3.89055891e-005
,,,-5.85000000e-009,-2.43743390e-005
,,,-5.82500000e-009,-7.49933883e-006
,,,-5.80000000e-009,1.03131613e-005
,,,-5.77500000e-009,2.81256615e-005
,,,-5.75000000e-009,4.50006616e-005
,,,-5.72500000e-009,6.00006618e-005
,,,-5.70000000e-009,7.17194119e-005
,,,-5.67500000e-009,8.01569119e-005
,,,-5.65000000e-009,8.53131620e-005
,,,-5.62500000e-009,8.62506620e-005
,,,-5.60000000e-009,8.39069120e-005
,,,-5.57500000e-009,7.82819119e-005
,,,-5.55000000e-009,6.98444118e-005
,,,-5.52500000e-009,6.00006618e-005
,,,-5.50000000e-009,4.68756616e-005
,,,-5.47500000e-009,3.56256615e-005
,,,-5.45000000e-009,2.67194115e-005
,,,-5.42500000e-009,2.25006614e-005
,,,-5.40000000e-009,2.29694114e-005
,,,-5.37500000e-009,2.95319115e-005
,,,-5.35000000e-009,4.17194116e-005
,,,-5.32500000e-009,6.00006618e-005
,,,-5.30000000e-009,8.15631619e-005
,,,-5.27500000e-009,1.05938162e-004
,,,-5.25000000e-009,1.30313162e-004
,,,-5.22500000e-009,1.52813163e-004
,,,-5.20000000e-009,1.71094413e-004
,,,-5.17500000e-009,1.82344413e-004
,,,-5.15000000e-009,1.85156913e-004
,,,-5.12500000e-009,1.80000663e-004
,,,-5.10000000e-009,1.65469413e-004
,,,-5.07500000e-009,1.45313163e-004
,,,-5.05000000e-009,1.21875662e-004
,,,-5.02500000e-009,9.79694121e-005
,,,-5.00000000e-009,7.78131619e-005
,,,-4.97500000e-009,6.32819118e-005
,,,-4.95000000e-009,5.67194117e-005
,,,-4.92500000e-009,6.00006618e-005
,,,-4.90000000e-009,7.12506619e-005
,,,-4.87500000e-009,9.04694120e-005
,,,-4.85000000e-009,1.14375662e-004
,,,-4.82500000e-009,1.39219412e-004
,,,-4.80000000e-009,1.61719413e-004
,,,-4.77500000e-009,1.77656913e-004
,,,-4.75000000e-009,1.84688163e-004
,,,-4.72500000e-009,1.80000663e-004
,,,-4.70000000e-009,1.60313163e-004
,,,-4.67500000e-009,1.30313162e-004
,,,-4.65000000e-009,9.28131620e-005
,,,-4.62500000e-009,5.15631617e-005
,,,-4.60000000e-009,1.12506613e-005
,,,-4.57500000e-009,-2.29680890e-005
,,,-4.55000000e-009,-4.78118392e-005
,,,-4.52500000e-009,-5.99993393e-005
,,,-4.50000000e-009,-5.81243393e-005
,,,-4.47500000e-009,-4.26555891e-005
,,,-4.45000000e-009,-1.49993389e-005
,,,-4.42500000e-009,2.15631614e-005
,,,-4.40000000e-009,6.32819118e-005
,,,-4.37500000e-009,1.05938162e-004
,,,-4.35000000e-009,1.46250663e-004
,,,-4.32500000e-009,1.80000663e-004
,,,-4.30000000e-009,2.02031913e-004
,,,-4.27500000e-009,2.14688163e-004
,,,-4.25000000e-009,2.18906913e-004
,,,-4.22500000e-009,2.15625663e-004
,,,-4.20000000e-009,2.07656913e-004
,,,-4.17500000e-009,1.97813163e-004
,,,-4.15000000e-009,1.87969413e-004
,,,-4.12500000e-009,1.80000663e-004
,,,-4.10000000e-009,1.72031913e-004
,,,-4.07500000e-009,1.66406913e-004
,,,-4.05000000e-009,1.60781913e-004
,,,-4.02500000e-009,1.52813163e-004
,,,-4.00000000e-009,1.41094412e-004
,,,-3.97500000e-009,1.22344412e-004
,,,-3.95000000e-009,9.56256621e-005
,,,-3.92500000e-009,6.00006618e-005
,,,-3.90000000e-009,1.45319114e-005
,,,-3.87500000e-009,-3.70305891e-005
,,,-3.85000000e-009,-9.18743396e-005
,,,-3.82500000e-009,-1.47655590e-004
,,,-3.80000000e-009,-1.99218090e-004
,,,-3.77500000e-009,-2.43749341e-004
,,,-3.75000000e-009,-2.78436841e-004
,,,-3.72500000e-009,-2.99999341e-004
,,,-3.70000000e-009,-3.05155591e-004
,,,-3.67500000e-009,-2.98593091e-004
,,,-3.65000000e-009,-2.81718091e-004
,,,-3.62500000e-009,-2.59218091e-004
,,,-3.60000000e-009,-2.33905591e-004
,,,-3.57500000e-009,-2.09999341e-004
,,,-3.55000000e-009,-1.91249340e-004
,,,-3.52500000e-009,-1.79999340e-004
,,,-3.50000000e-009,-1.76718090e-004
,,,-3.47500000e-009,-1.82343090e-004
,,,-3.45000000e-009,-1.96405590e-004
,,,-3.42500000e-009,-2.16561841e-004
,,,-3.40000000e-009,-2.39999341e-004
,,,-3.37500000e-009,-2.63436841e-004
,,,-3.35000000e-009,-2.84530591e-004
,,,-3.32500000e-009,-2.99999341e-004
,,,-3.30000000e-009,-3.05155591e-004
,,,-3.27500000e-009,-3.01874341e-004
,,,-3.25000000e-009,-2.91093091e-004
,,,-3.22500000e-009,-2.74686841e-004
,,,-3.20000000e-009,-2.53124341e-004
,,,-3.17500000e-009,-2.29218091e-004
,,,-3.15000000e-009,-2.04374341e-004
,,,-3.12500000e-009,-1.79999340e-004
,,,-3.10000000e-009,-1.56093090e-004
,,,-3.07500000e-009,-1.35468090e-004
,,,-3.05000000e-009,-1.18124340e-004
,,,-3.02500000e-009,-1.04530590e-004
,,,-3.00000000e-009,-9.28118396e-005
,,,-2.97500000e-009,-8.20305895e-005
,,,-2.95000000e-009,-7.17180894e-005
,,,-2.92500000e-009,-5.99993393e-005
,,,-2.90000000e-009,-4.64055892e-005
,,,-2.87500000e-009,-3.09368390e-005
,,,-2.85000000e-009,-1.45305889e-005
,,,-2.82500000e-009,2.34441126e-006
,,,-2.80000000e-009,1.92194114e-005
,,,-2.77500000e-009,3.46881615e-005
,,,-2.75000000e-009,4.87506617e-005
,,,-2.72500000e-009,6.00006618e-005
,,,-2.70000000e-009,6.56256618e-005
,,,-2.67500000e-009,6.79694118e-005
,,,-2.65000000e-009,6.84381618e-005
,,,-2.62500000e-009,6.75006618e-005
,,,-2.60000000e-009,6.51569118e-005
,,,-2.57500000e-009,6.28131618e-005
,,,-2.55000000e-009,6.09381618e-005
,,,-2.52500000e-009,6.00006618e-005
,,,-2.50000000e-009,5.71881617e-005
,,,-2.47500000e-009,5.57819117e-005
,,,-2.45000000e-009,5.53131617e-005
,,,-2.42500000e-009,5.62506617e-005
,,,-2.40000000e-009,5.71881617e-005
,,,-2.37500000e-009,5.85944117e-005
,,,-2.35000000e-009,5.95319118e-005
,,,-2.32500000e-009,6.00006618e-005
,,,-2.30000000e-009,5.53131617e-005
,,,-2.27500000e-009,5.06256617e-005
,,,-2.25000000e-009,4.68756616e-005
,,,-2.22500000e-009,4.45319116e-005
,,,-2.20000000e-009,4.40631616e-005
,,,-2.17500000e-009,4.64069116e-005
,,,-2.15000000e-009,5.15631617e-005
,,,-2.12500000e-009,6.00006618e-005
,,,-2.10000000e-009,6.51569118e-005
,,,-2.07500000e-009,7.07819119e-005
,,,-2.05000000e-009,7.59381619e-005
,,,-2.02500000e-009,8.01569119e-005
,,,-2.00000000e-009,8.15631619e-005
,,,-1.97500000e-009,7.92194119e-005
,,,-1.95000000e-009,7.21881619e-005
,,,-1.92500000e-009,6.00006618e-005
,,,-1.90000000e-009,3.65631616e-005
,,,-1.87500000e-009,7.50066130e-006
,,,-1.85000000e-009,-2.48430890e-005
,,,-1.82500000e-009,-5.95305893e-005
,,,-1.80000000e-009,-9.37493396e-005
,,,-1.77500000e-009,-1.26561840e-004
,,,-1.75000000e-009,-1.55624340e-004
,,,-1.72500000e-009,-1.79999340e-004
,,,-1.70000000e-009,-2.05311841e-004
,,,-1.67500000e-009,-2.26405591e-004
,,,-1.65000000e-009,-2.43749341e-004
,,,-1.62500000e-009,-2.57811841e-004
,,,-1.60000000e-009,-2.69530591e-004
,,,-1.57500000e-009,-2.79374341e-004
,,,-1.55000000e-009,-2.89218091e-004
,,,-1.52500000e-009,-2.99999341e-004
,,,-1.50000000e-009,-3.22968092e-004
,,,-1.47500000e-009,-3.50155592e-004
,,,-1.45000000e-009,-3.80624342e-004
,,,-1.42500000e-009,-4.13905592e-004
,,,-1.40000000e-009,-4.48124343e-004
,,,-1.37500000e-009,-4.81405593e-004
,,,-1.35000000e-009,-5.12343093e-004
,,,-1.32500000e-009,-5.39999343e-004
,,,-1.30000000e-009,-5.77499344e-004
,,,-1.27500000e-009,-6.14530594e-004
,,,-1.25000000e-009,-6.49686844e-004
,,,-1.22500000e-009,-6.82499345e-004
,,,-1.20000000e-009,-7.12030595e-004
,,,-1.17500000e-009,-7.38280595e-004
,,,-1.15000000e-009,-7.60780595e-004
,,,-1.12500000e-009,-7.79999346e-004
,,,-1.10000000e-009,-8.13280596e-004
,,,-1.07500000e-009,-8.47499346e-004
,,,-1.05000000e-009,-8.82186846e-004
,,,-1.02500000e-009,-9.15936847e-004
,,,-1.00000000e-009,-9.47343097e-004
,,,-9.75000000e-010,-9.74999347e-004
,,,-9.50000000e-010,-9.98905597e-004
,,,-9.25000000e-010,-1.01999935e-003
,,,-9.00000000e-010,-1.05609310e-003
,,,-8.75000000e-010,-1.09734310e-003
,,,-8.50000000e-010,-1.14468685e-003
,,,-8.25000000e-010,-1.19859310e-003
,,,-8.00000000e-010,-1.26093685e-003
,,,-7.75000000e-010,-1.33124935e-003
,,,-7.50000000e-010,-1.41093685e-003
,,,-7.25000000e-010,-1.49999935e-003
,,,-7.00000000e-010,-1.61109310e-003
,,,-6.75000000e-010,-1.73437435e-003
,,,-6.50000000e-010,-1.86796810e-003
,,,-6.25000000e-010,-2.00812436e-003
,,,-6.00000000e-010,-2.15203061e-003
,,,-5.75000000e-010,-2.29687436e-003
,,,-5.50000000e-010,-2.44031186e-003
,,,-5.25000000e-010,-2.57999936e-003
,,,-5.00000000e-010,-2.71546811e-003
,,,-4.75000000e-010,-2.84906186e-003
,,,-4.50000000e-010,-2.98124936e-003
,,,-4.25000000e-010,-3.11343687e-003
,,,-4.00000000e-010,-3.24703062e-003
,,,-3.75000000e-010,-3.38203062e-003
,,,-3.50000000e-010,-3.51937437e-003
,,,-3.25000000e-010,-3.65999937e-003
,,,-3.00000000e-010,-3.79124937e-003
,,,-2.75000000e-010,-3.92671812e-003
,,,-2.50000000e-010,-4.06546812e-003
,,,-2.25000000e-010,-4.20609313e-003
,,,-2.00000000e-010,-4.34671813e-003
,,,-1.75000000e-010,-4.48453063e-003
,,,-1.50000000e-010,-4.61671813e-003
,,,-1.25000000e-010,-4.73999938e-003
,,,-1.00000000e-010,-4.82953063e-003
,,,-7.50000000e-011,-4.90921813e-003
,,,-5.00000000e-011,-4.97953063e-003
,,,-2.50000000e-011,-5.04234313e-003
,,,0.00000000e+000,-5.09718688e-003
,,,2.50000000e-011,-5.14546813e-003
,,,5.00000000e-011,-5.18624938e-003
,,,7.50000000e-011,-5.21999938e-003
,,,1.00000000e-010,-5.21718688e-003
,,,1.25000000e-010,-5.20921813e-003
,,,1.50000000e-010,-5.19890563e-003
,,,1.75000000e-010,-5.18578063e-003
,,,2.00000000e-010,-5.17031188e-003
,,,2.25000000e-010,-5.15203063e-003
,,,2.50000000e-010,-5.12906188e-003
,,,2.75000000e-010,-5.09999938e-003
,,,3.00000000e-010,-5.03531188e-003
,,,3.25000000e-010,-4.96546813e-003
,,,3.50000000e-010,-4.89234313e-003
,,,3.75000000e-010,-4.81640563e-003
,,,4.00000000e-010,-4.73906188e-003
,,,4.25000000e-010,-4.66078063e-003
,,,4.50000000e-010,-4.58109313e-003
,,,4.75000000e-010,-4.49999938e-003
,,,5.00000000e-010,-4.39640563e-003
,,,5.25000000e-010,-4.29328063e-003
,,,5.50000000e-010,-4.19390563e-003
,,,5.75000000e-010,-4.09874937e-003
,,,6.00000000e-010,-4.00921812e-003
,,,6.25000000e-010,-3.92671812e-003
,,,6.50000000e-010,-3.85031187e-003
,,,6.75000000e-010,-3.77999937e-003
,,,7.00000000e-010,-3.70078062e-003
,,,7.25000000e-010,-3.62437437e-003
,,,7.50000000e-010,-3.54937437e-003
,,,7.75000000e-010,-3.47624937e-003
,,,8.00000000e-010,-3.40312437e-003
,,,8.25000000e-010,-3.32999937e-003
,,,8.50000000e-010,-3.25593687e-003
,,,8.75000000e-010,-3.17999937e-003
,,,9.00000000e-010,-3.09796812e-003
,,,9.25000000e-010,-3.01124936e-003
,,,9.50000000e-010,-2.91984311e-003
,,,9.75000000e-010,-2.82656186e-003
,,,1.00000000e-009,-2.73187436e-003
,,,1.02500000e-009,-2.63859311e-003
,,,1.05000000e-009,-2.54765561e-003
,,,1.07500000e-009,-2.45999936e-003
,,,1.10000000e-009,-2.38171811e-003
,,,1.12500000e-009,-2.30437436e-003
,,,1.15000000e-009,-2.22796811e-003
,,,1.17500000e-009,-2.15249936e-003
,,,1.20000000e-009,-2.07843686e-003
,,,1.22500000e-009,-2.00484311e-003
,,,1.25000000e-009,-1.93218686e-003
,,,1.27500000e-009,-1.85999935e-003
,,,1.30000000e-009,-1.79812435e-003
,,,1.32500000e-009,-1.73203060e-003
,,,1.35000000e-009,-1.66124935e-003
,,,1.37500000e-009,-1.58578060e-003
,,,1.40000000e-009,-1.50656185e-003
,,,1.42500000e-009,-1.42453060e-003
,,,1.45000000e-009,-1.34156185e-003
,,,1.47500000e-009,-1.25999935e-003
,,,1.50000000e-009,-1.19437435e-003
,,,1.52500000e-009,-1.13109310e-003
,,,1.55000000e-009,-1.07156185e-003
,,,1.57500000e-009,-1.01812435e-003
,,,1.60000000e-009,-9.72655597e-004
,,,1.62500000e-009,-9.37030597e-004
,,,1.65000000e-009,-9.12655597e-004
,,,1.67500000e-009,-8.99999347e-004
,,,1.70000000e-009,-9.10780597e-004
,,,1.72500000e-009,-9.27186847e-004
,,,1.75000000e-009,-9.46874347e-004
,,,1.77500000e-009,-9.67968097e-004
,,,1.80000000e-009,-9.87186847e-004
,,,1.82500000e-009,-1.00312435e-003
,,,1.85000000e-009,-1.01437435e-003
,,,1.87500000e-009,-1.01999935e-003
,,,1.90000000e-009,-1.02843685e-003
,,,1.92500000e-009,-1.02984310e-003
,,,1.95000000e-009,-1.02562435e-003
,,,1.97500000e-009,-1.01812435e-003
,,,2.00000000e-009,-1.01109310e-003
,,,2.02500000e-009,-1.00734310e-003
,,,2.05000000e-009,-1.00968685e-003
,,,2.07500000e-009,-1.01999935e-003
,,,2.10000000e-009,-1.04390560e-003
,,,2.12500000e-009,-1.07296810e-003
,,,2.15000000e-009,-1.10718685e-003
,,,2.17500000e-009,-1.14328060e-003
,,,2.20000000e-009,-1.17890560e-003
,,,2.22500000e-009,-1.21218685e-003
,,,2.25000000e-009,-1.23984310e-003
,,,2.27500000e-009,-1.25999935e-003
,,,2.30000000e-009,-1.27124935e-003
,,,2.32500000e-009,-1.27171810e-003
,,,2.35000000e-009,-1.26234310e-003
,,,2.37500000e-009,-1.24499935e-003
,,,2.40000000e-009,-1.22156185e-003
,,,2.42500000e-009,-1.19484310e-003
,,,2.45000000e-009,-1.16718685e-003
,,,2.47500000e-009,-1.13999935e-003
,,,2.50000000e-009,-1.11328060e-003
,,,2.52500000e-009,-1.08984310e-003
,,,2.55000000e-009,-1.07062435e-003
,,,2.57500000e-009,-1.05515560e-003
,,,2.60000000e-009,-1.04296810e-003
,,,2.62500000e-009,-1.03406185e-003
,,,2.65000000e-009,-1.02703060e-003
,,,2.67500000e-009,-1.01999935e-003
,,,2.70000000e-009,-1.00874935e-003
,,,2.72500000e-009,-9.96093097e-004
,,,2.75000000e-009,-9.82030597e-004
,,,2.77500000e-009,-9.66561847e-004
,,,2.80000000e-009,-9.50155597e-004
,,,2.82500000e-009,-9.33280597e-004
,,,2.85000000e-009,-9.16405597e-004
,,,2.87500000e-009,-8.99999347e-004
,,,2.90000000e-009,-8.81718096e-004
,,,2.92500000e-009,-8.63905596e-004
,,,2.95000000e-009,-8.47030596e-004
,,,2.97500000e-009,-8.31561846e-004
,,,3.00000000e-009,-8.17030596e-004
,,,3.02500000e-009,-8.03905596e-004
,,,3.05000000e-009,-7.91718096e-004
,,,3.07500000e-009,-7.79999346e-004
,,,3.10000000e-009,-7.66874345e-004
,,,3.12500000e-009,-7.53280595e-004
,,,3.15000000e-009,-7.39218095e-004
,,,3.17500000e-009,-7.24686845e-004
,,,3.20000000e-009,-7.09686845e-004
,,,3.22500000e-009,-6.94218095e-004
,,,3.25000000e-009,-6.77811845e-004
,,,3.27500000e-009,-6.59999344e-004
,,,3.30000000e-009,-6.41718094e-004
,,,3.32500000e-009,-6.20624344e-004
,,,3.35000000e-009,-5.96249344e-004
,,,3.37500000e-009,-5.67655594e-004
,,,3.40000000e-009,-5.35780593e-004
,,,3.42500000e-009,-5.00155593e-004
,,,3.45000000e-009,-4.61249343e-004
,,,3.47500000e-009,-4.19999342e-004
,,,3.50000000e-009,-3.79218092e-004
,,,3.52500000e-009,-3.37968092e-004
,,,3.55000000e-009,-2.98124341e-004
,,,3.57500000e-009,-2.62030591e-004
,,,3.60000000e-009,-2.30624341e-004
,,,3.62500000e-009,-2.06249341e-004
,,,3.65000000e-009,-1.89374340e-004
,,,3.67500000e-009,-1.79999340e-004
,,,3.70000000e-009,-1.82343090e-004
,,,3.72500000e-009,-1.89374340e-004
,,,3.75000000e-009,-1.97811840e-004
,,,3.77500000e-009,-2.05311841e-004
,,,3.80000000e-009,-2.09530591e-004
,,,3.82500000e-009,-2.07186841e-004
,,,3.85000000e-009,-1.97811840e-004
,,,3.87500000e-009,-1.79999340e-004
,,,3.90000000e-009,-1.60780590e-004
,,,3.92500000e-009,-1.35936840e-004
,,,3.95000000e-009,-1.08749340e-004
,,,3.97500000e-009,-8.29680895e-005
,,,4.00000000e-009,-6.23430893e-005
,,,4.02500000e-009,-5.01555892e-005
,,,4.05000000e-009,-4.87493392e-005
,,,4.07500000e-009,-5.99993393e-005
,,,4.10000000e-009,-8.85930895e-005
,,,4.12500000e-009,-1.26561840e-004
,,,4.15000000e-009,-1.69218090e-004
,,,4.17500000e-009,-2.12811841e-004
,,,4.20000000e-009,-2.51718091e-004
,,,4.22500000e-009,-2.81249341e-004
,,,4.25000000e-009,-2.98593091e-004
,,,4.27500000e-009,-2.99999341e-004
,,,4.30000000e-009,-2.87811841e-004
,,,4.32500000e-009,-2.61093091e-004
,,,4.35000000e-009,-2.23593091e-004
,,,4.37500000e-009,-1.80468090e-004
,,,4.40000000e-009,-1.36874340e-004
,,,4.42500000e-009,-9.89055896e-005
,,,4.45000000e-009,-7.21868394e-005
,,,4.47500000e-009,-5.99993393e-005
,,,4.50000000e-009,-6.74993393e-005
,,,4.52500000e-009,-9.18743396e-005
,,,4.55000000e-009,-1.31718090e-004
,,,4.57500000e-009,-1.83280590e-004
,,,4.60000000e-009,-2.42811841e-004
,,,4.62500000e-009,-3.04686841e-004
,,,4.65000000e-009,-3.65155592e-004
,,,4.67500000e-009,-4.19999342e-004
,,,4.70000000e-009,-4.63593093e-004
,,,4.72500000e-009,-4.95936843e-004
,,,4.75000000e-009,-5.17968093e-004
,,,4.77500000e-009,-5.30624343e-004
,,,4.80000000e-009,-5.37186843e-004
,,,4.82500000e-009,-5.39061843e-004
,,,4.85000000e-009,-5.39530593e-004
,,,4.87500000e-009,-5.39999343e-004
,,,4.90000000e-009,-5.40468093e-004
,,,4.92500000e-009,-5.42811843e-004
,,,4.95000000e-009,-5.47030594e-004
,,,4.97500000e-009,-5.51718094e-004
,,,5.00000000e-009,-5.55468094e-004
,,,5.02500000e-009,-5.55936844e-004
,,,5.05000000e-009,-5.51249344e-004
,,,5.07500000e-009,-5.39999343e-004
,,,5.10000000e-009,-5.17968093e-004
,,,5.12500000e-009,-4.90311843e-004
,,,5.15000000e-009,-4.57499343e-004
,,,5.17500000e-009,-4.22811842e-004
,,,5.20000000e-009,-3.87655592e-004
,,,5.22500000e-009,-3.54374342e-004
,,,5.25000000e-009,-3.24843092e-004
,,,5.27500000e-009,-2.99999341e-004
,,,5.30000000e-009,-2.79374341e-004
,,,5.32500000e-009,-2.63436841e-004
,,,5.35000000e-009,-2.50780591e-004
,,,5.37500000e-009,-2.39999341e-004
,,,5.40000000e-009,-2.28749341e-004
,,,5.42500000e-009,-2.16093091e-004
,,,5.45000000e-009,-2.00155591e-004
,,,5.47500000e-009,-1.79999340e-004
,,,5.50000000e-009,-1.55155590e-004
,,,5.52500000e-009,-1.28436840e-004
,,,5.55000000e-009,-1.01718090e-004
,,,5.57500000e-009,-7.78118394e-005
,,,5.60000000e-009,-5.95305893e-005
,,,5.62500000e-009,-4.92180892e-005
,,,5.65000000e-009,-4.92180892e-005
,,,5.67500000e-009,-5.99993393e-005
,,,5.70000000e-009,-8.24993395e-005
,,,5.72500000e-009,-1.13436840e-004
,,,5.75000000e-009,-1.50468090e-004
,,,5.77500000e-009,-1.89374340e-004
,,,5.80000000e-009,-2.27343091e-004
,,,5.82500000e-009,-2.60624341e-004
,,,5.85000000e-009,-2.85936841e-004
,,,5.87500000e-009,-2.99999341e-004
