RawData/SinglePhotoelectron/L7_2pt2A_5mV/wave028_Ch1.csv

"Record Length",1000,"Points",-7.72500000e-009,1.80000663e-004
"Sample Interval",2.50000000e-011,s,-7.70000000e-009,1.89844413e-004
"Trigger Point",309,"Samples",-7.67500000e-009,2.02969413e-004
"Trigger Time",1.45867702e-011,s,-7.65000000e-009,2.18438163e-004
"",,,-7.62500000e-009,2.34844413e-004
"Horizontal Offset",-7.72500000e-009,s,-7.60000000e-009,2.52188163e-004
,,,-7.57500000e-009,2.69531914e-004
,,,-7.55000000e-009,2.85000664e-004
,,,-7.52500000e-009,3.00000664e-004
,,,-7.50000000e-009,3.09844414e-004
,,,-7.47500000e-009,3.19688164e-004
,,,-7.45000000e-009,3.30000664e-004
,,,-7.42500000e-009,3.41719414e-004
,,,-7.40000000e-009,3.56250664e-004
,,,-7.37500000e-009,3.74531914e-004
,,,-7.35000000e-009,3.95625665e-004
,,,-7.32500000e-009,4.20000665e-004
,,,-7.30000000e-009,4.40156915e-004
,,,-7.27500000e-009,4.59375665e-004
,,,-7.25000000e-009,4.75313165e-004
,,,-7.22500000e-009,4.85156915e-004
,,,-7.20000000e-009,4.86563165e-004
,,,-7.17500000e-009,4.76719415e-004
,,,-7.15000000e-009,4.54219415e-004
,,,-7.12500000e-009,4.20000665e-004
,,,-7.10000000e-009,3.69375664e-004
,,,-7.07500000e-009,3.11250664e-004
,,,-7.05000000e-009,2.50313163e-004
,,,-7.02500000e-009,1.90313163e-004
,,,-7.00000000e-009,1.37344412e-004
,,,-6.97500000e-009,9.60944121e-005
,,,-6.95000000e-009,6.93756618e-005
,,,-6.92500000e-009,6.00006618e-005
,,,-6.90000000e-009,6.65631618e-005
,,,-6.87500000e-009,8.85944120e-005
,,,-6.85000000e-009,1.22344412e-004
,,,-6.82500000e-009,1.64063163e-004
,,,-6.80000000e-009,2.07188163e-004
,,,-6.77500000e-009,2.47500663e-004
,,,-6.75000000e-009,2.79375664e-004
,,,-6.72500000e-009,3.00000664e-004
,,,-6.70000000e-009,3.02344414e-004
,,,-6.67500000e-009,2.89688164e-004
,,,-6.65000000e-009,2.63906914e-004
,,,-6.62500000e-009,2.27813163e-004
,,,-6.60000000e-009,1.85156913e-004
,,,-6.57500000e-009,1.40625662e-004
,,,-6.55000000e-009,9.75006621e-005
,,,-6.52500000e-009,6.00006618e-005
,,,-6.50000000e-009,2.95319115e-005
,,,-6.47500000e-009,7.03191130e-006
,,,-6.45000000e-009,-7.96808883e-006
,,,-6.42500000e-009,-1.82805889e-005
,,,-6.40000000e-009,-2.57805890e-005
,,,-6.37500000e-009,-3.37493391e-005
,,,-6.35000000e-009,-4.45305891e-005
,,,-6.32500000e-009,-5.99993393e-005
,,,-6.30000000e-009,-8.01555895e-005
,,,-6.27500000e-009,-1.06874340e-004
,,,-6.25000000e-009,-1.38749340e-004
,,,-6.22500000e-009,-1.73905590e-004
,,,-6.20000000e-009,-2.10468091e-004
,,,-6.17500000e-009,-2.45155591e-004
,,,-6.15000000e-009,-2.75624341e-004
,,,-6.12500000e-009,-2.99999341e-004
,,,-6.10000000e-009,-3.12655591e-004
,,,-6.07500000e-009,-3.18280592e-004
,,,-6.05000000e-009,-3.18280592e-004
,,,-6.02500000e-009,-3.14530591e-004
,,,-6.00000000e-009,-3.08905591e-004
,,,-5.97500000e-009,-3.03280591e-004
,,,-5.95000000e-009,-2.99999341e-004
,,,-5.92500000e-009,-2.99999341e-004
,,,-5.90000000e-009,-3.00468091e-004
,,,-5.87500000e-009,-3.04218091e-004
,,,-5.85000000e-009,-3.09843091e-004
,,,-5.82500000e-009,-3.15468092e-004
,,,-5.80000000e-009,-3.19218092e-004
,,,-5.77500000e-009,-3.19218092e-004
,,,-5.75000000e-009,-3.13124341e-004
,,,-5.72500000e-009,-2.99999341e-004
,,,-5.70000000e-009,-2.75624341e-004
,,,-5.67500000e-009,-2.44686841e-004
,,,-5.65000000e-009,-2.10468091e-004
,,,-5.62500000e-009,-1.73905590e-004
,,,-5.60000000e-009,-1.38749340e-004
,,,-5.57500000e-009,-1.06405590e-004
,,,-5.55000000e-009,-8.01555895e-005
,,,-5.52500000e-009,-5.99993393e-005
,,,-5.50000000e-009,-4.64055892e-005
,,,-5.47500000e-009,-4.03118391e-005
,,,-5.45000000e-009,-4.03118391e-005
,,,-5.42500000e-009,-4.45305891e-005
,,,-5.40000000e-009,-5.06243392e-005
,,,-5.37500000e-009,-5.67180893e-005
,,,-5.35000000e-009,-6.04680893e-005
,,,-5.32500000e-009,-5.99993393e-005
,,,-5.30000000e-009,-5.48430892e-005
,,,-5.27500000e-009,-4.45305891e-005
,,,-5.25000000e-009,-2.95305890e-005
,,,-5.22500000e-009,-1.17180889e-005
,,,-5.20000000e-009,7.96941131e-006
,,,-5.17500000e-009,2.76569115e-005
,,,-5.15000000e-009,4.54694116e-005
,,,-5.12500000e-009,6.00006618e-005
,,,-5.10000000e-009,6.70319118e-005
,,,-5.07500000e-009,6.98444118e-005
,,,-5.05000000e-009,6.89069118e-005
,,,-5.02500000e-009,6.60944118e-005
,,,-5.00000000e-009,6.18756618e-005
,,,-4.97500000e-009,5.85944117e-005
,,,-4.95000000e-009,5.76569117e-005
,,,-4.92500000e-009,6.00006618e-005
,,,-4.90000000e-009,6.28131618e-005
,,,-4.87500000e-009,7.07819119e-005
,,,-4.85000000e-009,8.29694120e-005
,,,-4.82500000e-009,9.89069121e-005
,,,-4.80000000e-009,1.18125662e-004
,,,-4.77500000e-009,1.38750662e-004
,,,-4.75000000e-009,1.59844413e-004
,,,-4.72500000e-009,1.80000663e-004
,,,-4.70000000e-009,1.92188163e-004
,,,-4.67500000e-009,2.01563163e-004
,,,-4.65000000e-009,2.07188163e-004
,,,-4.62500000e-009,2.08594413e-004
,,,-4.60000000e-009,2.06719413e-004
,,,-4.57500000e-009,2.01094413e-004
,,,-4.55000000e-009,1.92188163e-004
,,,-4.52500000e-009,1.80000663e-004
,,,-4.50000000e-009,1.60313163e-004
,,,-4.47500000e-009,1.36875662e-004
,,,-4.45000000e-009,1.11094412e-004
,,,-4.42500000e-009,8.15631619e-005
,,,-4.40000000e-009,4.96881617e-005
,,,-4.37500000e-009,1.50006614e-005
,,,-4.35000000e-009,-2.15618389e-005
,,,-4.32500000e-009,-5.99993393e-005
,,,-4.30000000e-009,-1.00311840e-004
,,,-4.27500000e-009,-1.39686840e-004
,,,-4.25000000e-009,-1.77186840e-004
,,,-4.22500000e-009,-2.11405591e-004
,,,-4.20000000e-009,-2.41874341e-004
,,,-4.17500000e-009,-2.66718091e-004
,,,-4.15000000e-009,-2.86405591e-004
,,,-4.12500000e-009,-2.99999341e-004
,,,-4.10000000e-009,-3.06561841e-004
,,,-4.07500000e-009,-3.07968091e-004
,,,-4.05000000e-009,-3.06093091e-004
,,,-4.02500000e-009,-3.02811841e-004
,,,-4.00000000e-009,-2.99061841e-004
,,,-3.97500000e-009,-2.96718091e-004
,,,-3.95000000e-009,-2.96718091e-004
,,,-3.92500000e-009,-2.99999341e-004
,,,-3.90000000e-009,-3.06561841e-004
,,,-3.87500000e-009,-3.16874342e-004
,,,-3.85000000e-009,-3.30936842e-004
,,,-3.82500000e-009,-3.48280592e-004
,,,-3.80000000e-009,-3.67030592e-004
,,,-3.77500000e-009,-3.86249342e-004
,,,-3.75000000e-009,-4.04530592e-004
,,,-3.72500000e-009,-4.19999342e-004
,,,-3.70000000e-009,-4.28905592e-004
,,,-3.67500000e-009,-4.34061843e-004
,,,-3.65000000e-009,-4.36405593e-004
,,,-3.62500000e-009,-4.35936843e-004
,,,-3.60000000e-009,-4.33593093e-004
,,,-3.57500000e-009,-4.30311843e-004
,,,-3.55000000e-009,-4.25624342e-004
,,,-3.52500000e-009,-4.19999342e-004
,,,-3.50000000e-009,-4.10624342e-004
,,,-3.47500000e-009,-4.00780592e-004
,,,-3.45000000e-009,-3.89999342e-004
,,,-3.42500000e-009,-3.77811842e-004
,,,-3.40000000e-009,-3.62811842e-004
,,,-3.37500000e-009,-3.45468092e-004
,,,-3.35000000e-009,-3.24374342e-004
,,,-3.32500000e-009,-2.99999341e-004
,,,-3.30000000e-009,-2.72343091e-004
,,,-3.27500000e-009,-2.43749341e-004
,,,-3.25000000e-009,-2.17499341e-004
,,,-3.22500000e-009,-1.94999340e-004
,,,-3.20000000e-009,-1.79061840e-004
,,,-3.17500000e-009,-1.70624340e-004
,,,-3.15000000e-009,-1.71093090e-004
,,,-3.12500000e-009,-1.79999340e-004
,,,-3.10000000e-009,-1.96874340e-004
,,,-3.07500000e-009,-2.18905591e-004
,,,-3.05000000e-009,-2.43280591e-004
,,,-3.02500000e-009,-2.67655591e-004
,,,-3.00000000e-009,-2.87811841e-004
,,,-2.97500000e-009,-3.01405591e-004
,,,-2.95000000e-009,-3.06093091e-004
,,,-2.92500000e-009,-2.99999341e-004
,,,-2.90000000e-009,-2.81718091e-004
,,,-2.87500000e-009,-2.54061841e-004
,,,-2.85000000e-009,-2.18905591e-004
,,,-2.82500000e-009,-1.80468090e-004
,,,-2.80000000e-009,-1.41561840e-004
,,,-2.77500000e-009,-1.06405590e-004
,,,-2.75000000e-009,-7.87493394e-005
,,,-2.72500000e-009,-5.99993393e-005
,,,-2.70000000e-009,-5.43743392e-005
,,,-2.67500000e-009,-5.90618393e-005
,,,-2.65000000e-009,-7.26555894e-005
,,,-2.62500000e-009,-9.28118396e-005
,,,-2.60000000e-009,-1.17186840e-004
,,,-2.57500000e-009,-1.41561840e-004
,,,-2.55000000e-009,-1.63593090e-004
,,,-2.52500000e-009,-1.79999340e-004
,,,-2.50000000e-009,-1.89374340e-004
,,,-2.47500000e-009,-1.89843090e-004
,,,-2.45000000e-009,-1.81405590e-004
,,,-2.42500000e-009,-1.65468090e-004
,,,-2.40000000e-009,-1.42968090e-004
,,,-2.37500000e-009,-1.16718090e-004
,,,-2.35000000e-009,-8.81243395e-005
,,,-2.32500000e-009,-5.99993393e-005
,,,-2.30000000e-009,-3.46868391e-005
,,,-2.27500000e-009,-1.17180889e-005
,,,-2.25000000e-009,7.50066130e-006
,,,-2.22500000e-009,2.34381614e-005
,,,-2.20000000e-009,3.56256615e-005
,,,-2.17500000e-009,4.54694116e-005
,,,-2.15000000e-009,5.34381617e-005
,,,-2.12500000e-009,6.00006618e-005
,,,-2.10000000e-009,6.42194118e-005
,,,-2.07500000e-009,6.75006618e-005
,,,-2.05000000e-009,7.03131619e-005
,,,-2.02500000e-009,7.21881619e-005
,,,-2.00000000e-009,7.21881619e-005
,,,-1.97500000e-009,7.07819119e-005
,,,-1.95000000e-009,6.65631618e-005
,,,-1.92500000e-009,6.00006618e-005
,,,-1.90000000e-009,4.82819117e-005
,,,-1.87500000e-009,3.42194115e-005
,,,-1.85000000e-009,1.87506614e-005
,,,-1.82500000e-009,2.34441126e-006
,,,-1.80000000e-009,-1.45305889e-005
,,,-1.77500000e-009,-3.09368390e-005
,,,-1.75000000e-009,-4.64055892e-005
,,,-1.72500000e-009,-5.99993393e-005
,,,-1.70000000e-009,-7.21868394e-005
,,,-1.67500000e-009,-8.06243395e-005
,,,-1.65000000e-009,-8.62493395e-005
,,,-1.62500000e-009,-8.76555895e-005
,,,-1.60000000e-009,-8.62493395e-005
,,,-1.57500000e-009,-8.06243395e-005
,,,-1.55000000e-009,-7.17180894e-005
,,,-1.52500000e-009,-5.99993393e-005
,,,-1.50000000e-009,-4.92180892e-005
,,,-1.47500000e-009,-3.70305891e-005
,,,-1.45000000e-009,-2.29680890e-005
,,,-1.42500000e-009,-7.96808883e-006
,,,-1.40000000e-009,8.43816131e-006
,,,-1.37500000e-009,2.53131615e-005
,,,-1.35000000e-009,4.26569116e-005
,,,-1.32500000e-009,6.00006618e-005
,,,-1.30000000e-009,6.65631618e-005
,,,-1.27500000e-009,7.03131619e-005
,,,-1.25000000e-009,7.12506619e-005
,,,-1.22500000e-009,7.03131619e-005
,,,-1.20000000e-009,6.84381618e-005
,,,-1.17500000e-009,6.56256618e-005
,,,-1.15000000e-009,6.28131618e-005
,,,-1.12500000e-009,6.00006618e-005
,,,-1.10000000e-009,3.79694116e-005
,,,-1.07500000e-009,1.40631614e-005
,,,-1.05000000e-009,-9.84308885e-006
,,,-1.02500000e-009,-3.18743390e-005
,,,-1.00000000e-009,-4.87493392e-005
,,,-9.75000000e-010,-5.95305893e-005
,,,-9.50000000e-010,-6.32805893e-005
,,,-9.25000000e-010,-5.99993393e-005
,,,-9.00000000e-010,-8.06243395e-005
,,,-8.75000000e-010,-1.00780590e-004
,,,-8.50000000e-010,-1.19999340e-004
,,,-8.25000000e-010,-1.37343090e-004
,,,-8.00000000e-010,-1.51874340e-004
,,,-7.75000000e-010,-1.63124340e-004
,,,-7.50000000e-010,-1.72499340e-004
,,,-7.25000000e-010,-1.79999340e-004
,,,-7.00000000e-010,-2.30624341e-004
,,,-6.75000000e-010,-2.89218091e-004
,,,-6.50000000e-010,-3.52968092e-004
,,,-6.25000000e-010,-4.19061842e-004
,,,-6.00000000e-010,-4.84218093e-004
,,,-5.75000000e-010,-5.46561844e-004
,,,-5.50000000e-010,-6.04686844e-004
,,,-5.25000000e-010,-6.59999344e-004
,,,-5.00000000e-010,-7.61718095e-004
,,,-4.75000000e-010,-8.73749346e-004
,,,-4.50000000e-010,-9.95155597e-004
,,,-4.25000000e-010,-1.12593685e-003
,,,-4.00000000e-010,-1.26515560e-003
,,,-3.75000000e-010,-1.41374935e-003
,,,-3.50000000e-010,-1.57124935e-003
,,,-3.25000000e-010,-1.73999935e-003
,,,-3.00000000e-010,-1.96031186e-003
,,,-2.75000000e-010,-2.19937436e-003
,,,-2.50000000e-010,-2.45296811e-003
,,,-2.25000000e-010,-2.71640561e-003
,,,-2.00000000e-010,-2.98453061e-003
,,,-1.75000000e-010,-3.25312437e-003
,,,-1.50000000e-010,-3.51843687e-003
,,,-1.25000000e-010,-3.77999937e-003
,,,-1.00000000e-010,-4.05890562e-003
,,,-7.50000000e-011,-4.34203063e-003
,,,-5.00000000e-011,-4.63078063e-003
,,,-2.50000000e-011,-4.92609313e-003
,,,0.00000000e+000,-5.22796813e-003
,,,2.50000000e-011,-5.53687439e-003
,,,5.00000000e-011,-5.85421814e-003
,,,7.50000000e-011,-6.17999939e-003
,,,1.00000000e-010,-6.50812440e-003
,,,1.25000000e-010,-6.84843690e-003
,,,1.50000000e-010,-7.19953065e-003
,,,1.75000000e-010,-7.55624940e-003
,,,2.00000000e-010,-7.91437441e-003
,,,2.25000000e-010,-8.26828066e-003
,,,2.50000000e-010,-8.61187441e-003
,,,2.75000000e-010,-8.93999942e-003
,,,3.00000000e-010,-9.21046817e-003
,,,3.25000000e-010,-9.46593692e-003
,,,3.50000000e-010,-9.70781192e-003
,,,3.75000000e-010,-9.93703068e-003
,,,4.00000000e-010,-1.01549994e-002
,,,4.25000000e-010,-1.03612494e-002
,,,4.50000000e-010,-1.05562494e-002
,,,4.75000000e-010,-1.07399994e-002
,,,5.00000000e-010,-1.08529682e-002
,,,5.25000000e-010,-1.09621869e-002
,,,5.50000000e-010,-1.10704682e-002
,,,5.75000000e-010,-1.11787494e-002
,,,6.00000000e-010,-1.12860932e-002
,,,6.25000000e-010,-1.13910932e-002
,,,6.50000000e-010,-1.14904682e-002
,,,6.75000000e-010,-1.15799994e-002
,,,7.00000000e-010,-1.15874994e-002
,,,7.25000000e-010,-1.15865619e-002
,,,7.50000000e-010,-1.15804682e-002
,,,7.75000000e-010,-1.15692182e-002
,,,8.00000000e-010,-1.15528119e-002
,,,8.25000000e-010,-1.15312494e-002
,,,8.50000000e-010,-1.15012494e-002
,,,8.75000000e-010,-1.14599994e-002
,,,9.00000000e-010,-1.13395307e-002
,,,9.25000000e-010,-1.12087494e-002
,,,9.50000000e-010,-1.10695307e-002
,,,9.75000000e-010,-1.09223432e-002
,,,1.00000000e-009,-1.07685932e-002
,,,1.02500000e-009,-1.06073432e-002
,,,1.05000000e-009,-1.04381244e-002
,,,1.07500000e-009,-1.02599994e-002
,,,1.10000000e-009,-1.00237494e-002
,,,1.12500000e-009,-9.78281192e-003
,,,1.15000000e-009,-9.54187442e-003
,,,1.17500000e-009,-9.30515567e-003
,,,1.20000000e-009,-9.07687442e-003
,,,1.22500000e-009,-8.85937442e-003
,,,1.25000000e-009,-8.65359316e-003
,,,1.27500000e-009,-8.45999941e-003
,,,1.30000000e-009,-8.25140566e-003
,,,1.32500000e-009,-8.04984316e-003
,,,1.35000000e-009,-7.85343691e-003
,,,1.37500000e-009,-7.66078066e-003
,,,1.40000000e-009,-7.47093690e-003
,,,1.42500000e-009,-7.28203065e-003
,,,1.45000000e-009,-7.09265565e-003
,,,1.47500000e-009,-6.89999940e-003
,,,1.50000000e-009,-6.69843690e-003
,,,1.52500000e-009,-6.48796815e-003
,,,1.55000000e-009,-6.27093689e-003
,,,1.57500000e-009,-6.05062439e-003
,,,1.60000000e-009,-5.83124939e-003
,,,1.62500000e-009,-5.61703064e-003
,,,1.65000000e-009,-5.41265564e-003
,,,1.67500000e-009,-5.21999938e-003
,,,1.70000000e-009,-5.05265563e-003
,,,1.72500000e-009,-4.89140563e-003
,,,1.75000000e-009,-4.73578063e-003
,,,1.77500000e-009,-4.58437438e-003
,,,1.80000000e-009,-4.43765563e-003
,,,1.82500000e-009,-4.29468688e-003
,,,1.85000000e-009,-4.15593687e-003
,,,1.87500000e-009,-4.01999937e-003
,,,1.90000000e-009,-3.90843687e-003
,,,1.92500000e-009,-3.79124937e-003
,,,1.95000000e-009,-3.66796812e-003
,,,1.97500000e-009,-3.54093687e-003
,,,2.00000000e-009,-3.41296812e-003
,,,2.02500000e-009,-3.28781187e-003
,,,2.05000000e-009,-3.16921812e-003
,,,2.07500000e-009,-3.05999937e-003
,,,2.10000000e-009,-2.98781186e-003
,,,2.12500000e-009,-2.91937436e-003
,,,2.15000000e-009,-2.85421811e-003
,,,2.17500000e-009,-2.79234311e-003
,,,2.20000000e-009,-2.73328061e-003
,,,2.22500000e-009,-2.67796811e-003
,,,2.25000000e-009,-2.62687436e-003
,,,2.27500000e-009,-2.57999936e-003
,,,2.30000000e-009,-2.55937436e-003
,,,2.32500000e-009,-2.53546811e-003
,,,2.35000000e-009,-2.50734311e-003
,,,2.37500000e-009,-2.47546811e-003
,,,2.40000000e-009,-2.44124936e-003
,,,2.42500000e-009,-2.40609311e-003
,,,2.45000000e-009,-2.37187436e-003
,,,2.47500000e-009,-2.33999936e-003
,,,2.50000000e-009,-2.33015561e-003
,,,2.52500000e-009,-2.31890561e-003
,,,2.55000000e-009,-2.30531186e-003
,,,2.57500000e-009,-2.28984311e-003
,,,2.60000000e-009,-2.27249936e-003
,,,2.62500000e-009,-2.25468686e-003
,,,2.65000000e-009,-2.23687436e-003
,,,2.67500000e-009,-2.21999936e-003
,,,2.70000000e-009,-2.21718686e-003
,,,2.72500000e-009,-2.21343686e-003
,,,2.75000000e-009,-2.20921811e-003
,,,2.77500000e-009,-2.20546811e-003
,,,2.80000000e-009,-2.20359311e-003
,,,2.82500000e-009,-2.20499936e-003
,,,2.85000000e-009,-2.21062436e-003
,,,2.87500000e-009,-2.21999936e-003
,,,2.90000000e-009,-2.24062436e-003
,,,2.92500000e-009,-2.26171811e-003
,,,2.95000000e-009,-2.28187436e-003
,,,2.97500000e-009,-2.30062436e-003
,,,3.00000000e-009,-2.31656186e-003
,,,3.02500000e-009,-2.32874936e-003
,,,3.05000000e-009,-2.33671811e-003
,,,3.07500000e-009,-2.33999936e-003
,,,3.10000000e-009,-2.33999936e-003
,,,3.12500000e-009,-2.33624936e-003
,,,3.15000000e-009,-2.32968686e-003
,,,3.17500000e-009,-2.32359311e-003
,,,3.20000000e-009,-2.31984311e-003
,,,3.22500000e-009,-2.32078061e-003
,,,3.25000000e-009,-2.32687436e-003
,,,3.27500000e-009,-2.33999936e-003
,,,3.30000000e-009,-2.35640561e-003
,,,3.32500000e-009,-2.37609311e-003
,,,3.35000000e-009,-2.39812436e-003
,,,3.37500000e-009,-2.42015561e-003
,,,3.40000000e-009,-2.43937436e-003
,,,3.42500000e-009,-2.45390561e-003
,,,3.45000000e-009,-2.46093686e-003
,,,3.47500000e-009,-2.45999936e-003
,,,3.50000000e-009,-2.44406186e-003
,,,3.52500000e-009,-2.41921811e-003
,,,3.55000000e-009,-2.38687436e-003
,,,3.57500000e-009,-2.35078061e-003
,,,3.60000000e-009,-2.31328061e-003
,,,3.62500000e-009,-2.27765561e-003
,,,3.65000000e-009,-2.24578061e-003
,,,3.67500000e-009,-2.21999936e-003
,,,3.70000000e-009,-2.19609311e-003
,,,3.72500000e-009,-2.17781186e-003
,,,3.75000000e-009,-2.16421811e-003
,,,3.77500000e-009,-2.15390561e-003
,,,3.80000000e-009,-2.14453061e-003
,,,3.82500000e-009,-2.13421811e-003
,,,3.85000000e-009,-2.11968686e-003
,,,3.87500000e-009,-2.09999936e-003
,,,3.90000000e-009,-2.06906186e-003
,,,3.92500000e-009,-2.03015561e-003
,,,3.95000000e-009,-1.98515561e-003
,,,3.97500000e-009,-1.93546811e-003
,,,4.00000000e-009,-1.88390561e-003
,,,4.02500000e-009,-1.83281185e-003
,,,4.05000000e-009,-1.78453060e-003
,,,4.07500000e-009,-1.73999935e-003
,,,4.10000000e-009,-1.69921810e-003
,,,4.12500000e-009,-1.66265560e-003
,,,4.15000000e-009,-1.63031185e-003
,,,4.17500000e-009,-1.60171810e-003
,,,4.20000000e-009,-1.57546810e-003
,,,4.22500000e-009,-1.55062435e-003
,,,4.25000000e-009,-1.52578060e-003
,,,4.27500000e-009,-1.49999935e-003
,,,4.30000000e-009,-1.47187435e-003
,,,4.32500000e-009,-1.44046810e-003
,,,4.35000000e-009,-1.40718685e-003
,,,4.37500000e-009,-1.37296810e-003
,,,4.40000000e-009,-1.33968685e-003
,,,4.42500000e-009,-1.30921810e-003
,,,4.45000000e-009,-1.28249935e-003
,,,4.47500000e-009,-1.25999935e-003
,,,4.50000000e-009,-1.24406185e-003
,,,4.52500000e-009,-1.23093685e-003
,,,4.55000000e-009,-1.21874935e-003
,,,4.57500000e-009,-1.20703060e-003
,,,4.60000000e-009,-1.19437435e-003
,,,4.62500000e-009,-1.17937435e-003
,,,4.65000000e-009,-1.16156185e-003
,,,4.67500000e-009,-1.13999935e-003
,,,4.70000000e-009,-1.11656185e-003
,,,4.72500000e-009,-1.08796810e-003
,,,4.75000000e-009,-1.05562435e-003
,,,4.77500000e-009,-1.02140560e-003
,,,4.80000000e-009,-9.86718097e-004
,,,4.82500000e-009,-9.53905597e-004
,,,4.85000000e-009,-9.24843097e-004
,,,4.87500000e-009,-8.99999347e-004
,,,4.90000000e-009,-8.84061846e-004
,,,4.92500000e-009,-8.70936846e-004
,,,4.95000000e-009,-8.59686846e-004
,,,4.97500000e-009,-8.48436846e-004
,,,5.00000000e-009,-8.36249346e-004
,,,5.02500000e-009,-8.21718096e-004
,,,5.05000000e-009,-8.02968096e-004
,,,5.07500000e-009,-7.79999346e-004
,,,5.10000000e-009,-7.55155595e-004
,,,5.12500000e-009,-7.24686845e-004
,,,5.15000000e-009,-6.90936845e-004
,,,5.17500000e-009,-6.55311844e-004
,,,5.20000000e-009,-6.20155594e-004
,,,5.22500000e-009,-5.88280594e-004
,,,5.25000000e-009,-5.61093094e-004
,,,5.27500000e-009,-5.39999343e-004
,,,5.30000000e-009,-5.29218093e-004
,,,5.32500000e-009,-5.24061843e-004
,,,5.35000000e-009,-5.23124343e-004
,,,5.37500000e-009,-5.25936843e-004
,,,5.40000000e-009,-5.30624343e-004
,,,5.42500000e-009,-5.35311843e-004
,,,5.45000000e-009,-5.38593093e-004
,,,5.47500000e-009,-5.39999343e-004
,,,5.50000000e-009,-5.39999343e-004
,,,5.52500000e-009,-5.36718093e-004
,,,5.55000000e-009,-5.31561843e-004
,,,5.57500000e-009,-5.25936843e-004
,,,5.60000000e-009,-5.22186843e-004
,,,5.62500000e-009,-5.22655593e-004
,,,5.65000000e-009,-5.28280593e-004
,,,5.67500000e-009,-5.39999343e-004
,,,5.70000000e-009,-5.57343094e-004
,,,5.72500000e-009,-5.77968094e-004
,,,5.75000000e-009,-5.99999344e-004
,,,5.77500000e-009,-6.21561844e-004
,,,5.80000000e-009,-6.40780594e-004
,,,5.82500000e-009,-6.54374344e-004
,,,5.85000000e-009,-6.61405595e-004
,,,5.87500000e-009,-6.59999344e-004
