RawData/SinglePhotoelectron/L7_2pt2A_5mV/wave000_Ch1.csv

"Record Length",1000,"Points",-7.72500000e-009,-1.34530590e-004
"Sample Interval",2.50000000e-011,s,-7.70000000e-009,-1.10155590e-004
"Trigger Point",309,"Samples",-7.67500000e-009,-8.76555895e-005
"Trigger Time",1.91708621e-011,s,-7.65000000e-009,-6.89055894e-005
"",,,-7.62500000e-009,-5.71868393e-005
"Horizontal Offset",-7.72500000e-009,s,-7.60000000e-009,-5.39055892e-005
,,,-7.57500000e-009,-5.99993393e-005
,,,-7.55000000e-009,-7.49993394e-005
,,,-7.52500000e-009,-9.79680896e-005
,,,-7.50000000e-009,-1.28436840e-004
,,,-7.47500000e-009,-1.63593090e-004
,,,-7.45000000e-009,-2.01561841e-004
,,,-7.42500000e-009,-2.38593091e-004
,,,-7.40000000e-009,-2.72343091e-004
,,,-7.37500000e-009,-2.99999341e-004
,,,-7.35000000e-009,-3.17811842e-004
,,,-7.32500000e-009,-3.25311842e-004
,,,-7.30000000e-009,-3.22499342e-004
,,,-7.27500000e-009,-3.09374341e-004
,,,-7.25000000e-009,-2.86874341e-004
,,,-7.22500000e-009,-2.56874341e-004
,,,-7.20000000e-009,-2.20780591e-004
,,,-7.17500000e-009,-1.79999340e-004
,,,-7.15000000e-009,-1.38749340e-004
,,,-7.12500000e-009,-9.79680896e-005
,,,-7.10000000e-009,-5.95305893e-005
,,,-7.07500000e-009,-2.53118390e-005
,,,-7.05000000e-009,4.21941128e-006
,,,-7.02500000e-009,2.85944115e-005
,,,-7.00000000e-009,4.68756616e-005
,,,-6.97500000e-009,6.00006618e-005
,,,-6.95000000e-009,6.42194118e-005
,,,-6.92500000e-009,6.46881618e-005
,,,-6.90000000e-009,6.18756618e-005
,,,-6.87500000e-009,5.81256617e-005
,,,-6.85000000e-009,5.48444117e-005
,,,-6.82500000e-009,5.29694117e-005
,,,-6.80000000e-009,5.43756617e-005
,,,-6.77500000e-009,6.00006618e-005
,,,-6.75000000e-009,6.60944118e-005
,,,-6.72500000e-009,7.64069119e-005
,,,-6.70000000e-009,9.00006620e-005
,,,-6.67500000e-009,1.07344412e-004
,,,-6.65000000e-009,1.26094412e-004
,,,-6.62500000e-009,1.45313163e-004
,,,-6.60000000e-009,1.64063163e-004
,,,-6.57500000e-009,1.80000663e-004
,,,-6.55000000e-009,1.87031913e-004
,,,-6.52500000e-009,1.87969413e-004
,,,-6.50000000e-009,1.82813163e-004
,,,-6.47500000e-009,1.70625663e-004
,,,-6.45000000e-009,1.52344413e-004
,,,-6.42500000e-009,1.27031912e-004
,,,-6.40000000e-009,9.60944121e-005
,,,-6.37500000e-009,6.00006618e-005
,,,-6.35000000e-009,1.78131614e-005
,,,-6.32500000e-009,-2.62493390e-005
,,,-6.30000000e-009,-7.21868394e-005
,,,-6.27500000e-009,-1.18593090e-004
,,,-6.25000000e-009,-1.65468090e-004
,,,-6.22500000e-009,-2.12343091e-004
,,,-6.20000000e-009,-2.57343091e-004
,,,-6.17500000e-009,-2.99999341e-004
,,,-6.15000000e-009,-3.36561842e-004
,,,-6.12500000e-009,-3.67968092e-004
,,,-6.10000000e-009,-3.92811842e-004
,,,-6.07500000e-009,-4.11561842e-004
,,,-6.05000000e-009,-4.22811842e-004
,,,-6.02500000e-009,-4.27968092e-004
,,,-6.00000000e-009,-4.26561842e-004
,,,-5.97500000e-009,-4.19999342e-004
,,,-5.95000000e-009,-4.05936842e-004
,,,-5.92500000e-009,-3.90936842e-004
,,,-5.90000000e-009,-3.77811842e-004
,,,-5.87500000e-009,-3.69843092e-004
,,,-5.85000000e-009,-3.68436842e-004
,,,-5.82500000e-009,-3.76405592e-004
,,,-5.80000000e-009,-3.93749342e-004
,,,-5.77500000e-009,-4.19999342e-004
,,,-5.75000000e-009,-4.49999343e-004
,,,-5.72500000e-009,-4.83749343e-004
,,,-5.70000000e-009,-5.17499343e-004
,,,-5.67500000e-009,-5.47030594e-004
,,,-5.65000000e-009,-5.67655594e-004
,,,-5.62500000e-009,-5.75624344e-004
,,,-5.60000000e-009,-5.67186844e-004
,,,-5.57500000e-009,-5.39999343e-004
,,,-5.55000000e-009,-4.90311843e-004
,,,-5.52500000e-009,-4.25155592e-004
,,,-5.50000000e-009,-3.47811842e-004
,,,-5.47500000e-009,-2.62030591e-004
,,,-5.45000000e-009,-1.73905590e-004
,,,-5.42500000e-009,-8.81243395e-005
,,,-5.40000000e-009,-8.90558884e-006
,,,-5.37500000e-009,6.00006618e-005
,,,-5.35000000e-009,1.12500662e-004
,,,-5.32500000e-009,1.50000663e-004
,,,-5.30000000e-009,1.72969413e-004
,,,-5.27500000e-009,1.84688163e-004
,,,-5.25000000e-009,1.87500663e-004
,,,-5.22500000e-009,1.85625663e-004
,,,-5.20000000e-009,1.82344413e-004
,,,-5.17500000e-009,1.80000663e-004
,,,-5.15000000e-009,1.75313163e-004
,,,-5.12500000e-009,1.74844413e-004
,,,-5.10000000e-009,1.77188163e-004
,,,-5.07500000e-009,1.81875663e-004
,,,-5.05000000e-009,1.86563163e-004
,,,-5.02500000e-009,1.89375663e-004
,,,-5.00000000e-009,1.87500663e-004
,,,-4.97500000e-009,1.80000663e-004
,,,-4.95000000e-009,1.59375663e-004
,,,-4.92500000e-009,1.32188162e-004
,,,-4.90000000e-009,1.00313162e-004
,,,-4.87500000e-009,6.51569118e-005
,,,-4.85000000e-009,2.95319115e-005
,,,-4.82500000e-009,-4.21808880e-006
,,,-4.80000000e-009,-3.46868391e-005
,,,-4.77500000e-009,-5.99993393e-005
,,,-4.75000000e-009,-8.34368395e-005
,,,-4.72500000e-009,-1.01718090e-004
,,,-4.70000000e-009,-1.14843090e-004
,,,-4.67500000e-009,-1.25155590e-004
,,,-4.65000000e-009,-1.34999340e-004
,,,-4.62500000e-009,-1.46249340e-004
,,,-4.60000000e-009,-1.60780590e-004
,,,-4.57500000e-009,-1.79999340e-004
,,,-4.55000000e-009,-2.07186841e-004
,,,-4.52500000e-009,-2.38124341e-004
,,,-4.50000000e-009,-2.72343091e-004
,,,-4.47500000e-009,-3.07499341e-004
,,,-4.45000000e-009,-3.41718092e-004
,,,-4.42500000e-009,-3.73124342e-004
,,,-4.40000000e-009,-3.99843092e-004
,,,-4.37500000e-009,-4.19999342e-004
,,,-4.35000000e-009,-4.32186843e-004
,,,-4.32500000e-009,-4.37811843e-004
,,,-4.30000000e-009,-4.38280593e-004
,,,-4.27500000e-009,-4.34999343e-004
,,,-4.25000000e-009,-4.29843092e-004
,,,-4.22500000e-009,-4.24218092e-004
,,,-4.20000000e-009,-4.20936842e-004
,,,-4.17500000e-009,-4.19999342e-004
,,,-4.15000000e-009,-4.21405592e-004
,,,-4.12500000e-009,-4.28436842e-004
,,,-4.10000000e-009,-4.40624343e-004
,,,-4.07500000e-009,-4.57030593e-004
,,,-4.05000000e-009,-4.76718093e-004
,,,-4.02500000e-009,-4.98280593e-004
,,,-4.00000000e-009,-5.20311843e-004
,,,-3.97500000e-009,-5.39999343e-004
,,,-3.95000000e-009,-5.52655594e-004
,,,-3.92500000e-009,-5.61561844e-004
,,,-3.90000000e-009,-5.66718094e-004
,,,-3.87500000e-009,-5.67655594e-004
,,,-3.85000000e-009,-5.65311844e-004
,,,-3.82500000e-009,-5.59686844e-004
,,,-3.80000000e-009,-5.51249344e-004
,,,-3.77500000e-009,-5.39999343e-004
,,,-3.75000000e-009,-5.23593093e-004
,,,-3.72500000e-009,-5.06249343e-004
,,,-3.70000000e-009,-4.88905593e-004
,,,-3.67500000e-009,-4.72030593e-004
,,,-3.65000000e-009,-4.56561843e-004
,,,-3.62500000e-009,-4.42499343e-004
,,,-3.60000000e-009,-4.30311843e-004
,,,-3.57500000e-009,-4.19999342e-004
,,,-3.55000000e-009,-4.09218092e-004
,,,-3.52500000e-009,-4.01249342e-004
,,,-3.50000000e-009,-3.96093092e-004
,,,-3.47500000e-009,-3.94686842e-004
,,,-3.45000000e-009,-3.96561842e-004
,,,-3.42500000e-009,-4.01718092e-004
,,,-3.40000000e-009,-4.09686842e-004
,,,-3.37500000e-009,-4.19999342e-004
,,,-3.35000000e-009,-4.28436842e-004
,,,-3.32500000e-009,-4.35936843e-004
,,,-3.30000000e-009,-4.42030593e-004
,,,-3.27500000e-009,-4.45311843e-004
,,,-3.25000000e-009,-4.45311843e-004
,,,-3.22500000e-009,-4.41561843e-004
,,,-3.20000000e-009,-4.33593093e-004
,,,-3.17500000e-009,-4.19999342e-004
,,,-3.15000000e-009,-3.97968092e-004
,,,-3.12500000e-009,-3.71249342e-004
,,,-3.10000000e-009,-3.40780592e-004
,,,-3.07500000e-009,-3.07968091e-004
,,,-3.05000000e-009,-2.73749341e-004
,,,-3.02500000e-009,-2.40468091e-004
,,,-3.00000000e-009,-2.09061841e-004
,,,-2.97500000e-009,-1.79999340e-004
,,,-2.95000000e-009,-1.53749340e-004
,,,-2.92500000e-009,-1.30780590e-004
,,,-2.90000000e-009,-1.11561840e-004
,,,-2.87500000e-009,-9.60930896e-005
,,,-2.85000000e-009,-8.39055895e-005
,,,-2.82500000e-009,-7.40618394e-005
,,,-2.80000000e-009,-6.65618393e-005
,,,-2.77500000e-009,-5.99993393e-005
,,,-2.75000000e-009,-5.34368392e-005
,,,-2.72500000e-009,-4.54680892e-005
,,,-2.70000000e-009,-3.51555891e-005
,,,-2.67500000e-009,-2.15618389e-005
,,,-2.65000000e-009,-5.62433881e-006
,,,-2.62500000e-009,1.31256614e-005
,,,-2.60000000e-009,3.51569115e-005
,,,-2.57500000e-009,6.00006618e-005
,,,-2.55000000e-009,8.62506620e-005
,,,-2.52500000e-009,1.15313162e-004
,,,-2.50000000e-009,1.45781913e-004
,,,-2.47500000e-009,1.77656913e-004
,,,-2.45000000e-009,2.09531913e-004
,,,-2.42500000e-009,2.41406913e-004
,,,-2.40000000e-009,2.71406914e-004
,,,-2.37500000e-009,3.00000664e-004
,,,-2.35000000e-009,3.23438164e-004
,,,-2.32500000e-009,3.44531914e-004
,,,-2.30000000e-009,3.63281914e-004
,,,-2.27500000e-009,3.79688165e-004
,,,-2.25000000e-009,3.93281915e-004
,,,-2.22500000e-009,4.04531915e-004
,,,-2.20000000e-009,4.13438165e-004
,,,-2.17500000e-009,4.20000665e-004
,,,-2.15000000e-009,4.19531915e-004
,,,-2.12500000e-009,4.18594415e-004
,,,-2.10000000e-009,4.17188165e-004
,,,-2.07500000e-009,4.16250665e-004
,,,-2.05000000e-009,4.15781915e-004
,,,-2.02500000e-009,4.16250665e-004
,,,-2.00000000e-009,4.17656915e-004
,,,-1.97500000e-009,4.20000665e-004
,,,-1.95000000e-009,4.17188165e-004
,,,-1.92500000e-009,4.15781915e-004
,,,-1.90000000e-009,4.14844415e-004
,,,-1.87500000e-009,4.14375665e-004
,,,-1.85000000e-009,4.15313165e-004
,,,-1.82500000e-009,4.16250665e-004
,,,-1.80000000e-009,4.18125665e-004
,,,-1.77500000e-009,4.20000665e-004
,,,-1.75000000e-009,4.13906915e-004
,,,-1.72500000e-009,4.08750665e-004
,,,-1.70000000e-009,4.04063165e-004
,,,-1.67500000e-009,4.01250665e-004
,,,-1.65000000e-009,4.01250665e-004
,,,-1.62500000e-009,4.04063165e-004
,,,-1.60000000e-009,4.10625665e-004
,,,-1.57500000e-009,4.20000665e-004
,,,-1.55000000e-009,4.19531915e-004
,,,-1.52500000e-009,4.20000665e-004
,,,-1.50000000e-009,4.20469415e-004
,,,-1.47500000e-009,4.20938165e-004
,,,-1.45000000e-009,4.21875665e-004
,,,-1.42500000e-009,4.22344415e-004
,,,-1.40000000e-009,4.22344415e-004
,,,-1.37500000e-009,4.20000665e-004
,,,-1.35000000e-009,3.97031915e-004
,,,-1.32500000e-009,3.68438164e-004
,,,-1.30000000e-009,3.36563164e-004
,,,-1.27500000e-009,3.02344414e-004
,,,-1.25000000e-009,2.68594414e-004
,,,-1.22500000e-009,2.36250663e-004
,,,-1.20000000e-009,2.06719413e-004
,,,-1.17500000e-009,1.80000663e-004
,,,-1.15000000e-009,1.35000662e-004
,,,-1.12500000e-009,8.95319120e-005
,,,-1.10000000e-009,4.31256616e-005
,,,-1.07500000e-009,-2.81183879e-006
,,,-1.05000000e-009,-4.82805892e-005
,,,-1.02500000e-009,-9.23430896e-005
,,,-1.00000000e-009,-1.36405590e-004
,,,-9.75000000e-010,-1.79999340e-004
,,,-9.50000000e-010,-2.47030591e-004
,,,-9.25000000e-010,-3.19686842e-004
,,,-9.00000000e-010,-3.96093092e-004
,,,-8.75000000e-010,-4.74374343e-004
,,,-8.50000000e-010,-5.52655594e-004
,,,-8.25000000e-010,-6.29999344e-004
,,,-8.00000000e-010,-7.05468095e-004
,,,-7.75000000e-010,-7.79999346e-004
,,,-7.50000000e-010,-8.72343096e-004
,,,-7.25000000e-010,-9.70780597e-004
,,,-7.00000000e-010,-1.07624935e-003
,,,-6.75000000e-010,-1.19015560e-003
,,,-6.50000000e-010,-1.31296810e-003
,,,-6.25000000e-010,-1.44515560e-003
,,,-6.00000000e-010,-1.58765560e-003
,,,-5.75000000e-010,-1.73999935e-003
,,,-5.50000000e-010,-1.90968686e-003
,,,-5.25000000e-010,-2.08921811e-003
,,,-5.00000000e-010,-2.27624936e-003
,,,-4.75000000e-010,-2.46656186e-003
,,,-4.50000000e-010,-2.65593686e-003
,,,-4.25000000e-010,-2.83968686e-003
,,,-4.00000000e-010,-3.01546811e-003
,,,-3.75000000e-010,-3.17999937e-003
,,,-3.50000000e-010,-3.32671812e-003
,,,-3.25000000e-010,-3.46546812e-003
,,,-3.00000000e-010,-3.59953062e-003
,,,-2.75000000e-010,-3.72984312e-003
,,,-2.50000000e-010,-3.85968687e-003
,,,-2.25000000e-010,-3.99046812e-003
,,,-2.00000000e-010,-4.12406187e-003
,,,-1.75000000e-010,-4.25999938e-003
,,,-1.50000000e-010,-4.38187438e-003
,,,-1.25000000e-010,-4.50890563e-003
,,,-1.00000000e-010,-4.63921813e-003
,,,-7.50000000e-011,-4.77046813e-003
,,,-5.00000000e-011,-4.89843688e-003
,,,-2.50000000e-011,-5.01890563e-003
,,,0.00000000e+000,-5.12765563e-003
,,,2.50000000e-011,-5.21999938e-003
,,,5.00000000e-011,-5.26828063e-003
,,,7.50000000e-011,-5.30203063e-003
,,,1.00000000e-010,-5.32406189e-003
,,,1.25000000e-010,-5.33671814e-003
,,,1.50000000e-010,-5.34234314e-003
,,,1.75000000e-010,-5.34374939e-003
,,,2.00000000e-010,-5.34281189e-003
,,,2.25000000e-010,-5.33999939e-003
,,,2.50000000e-010,-5.31046813e-003
,,,2.75000000e-010,-5.28562438e-003
,,,3.00000000e-010,-5.26687438e-003
,,,3.25000000e-010,-5.25374938e-003
,,,3.50000000e-010,-5.24531188e-003
,,,3.75000000e-010,-5.23828063e-003
,,,4.00000000e-010,-5.23078063e-003
,,,4.25000000e-010,-5.21999938e-003
,,,4.50000000e-010,-5.17921813e-003
,,,4.75000000e-010,-5.13515563e-003
,,,5.00000000e-010,-5.08874938e-003
,,,5.25000000e-010,-5.04187438e-003
,,,5.50000000e-010,-4.99499938e-003
,,,5.75000000e-010,-4.94906188e-003
,,,6.00000000e-010,-4.90406188e-003
,,,6.25000000e-010,-4.85999938e-003
,,,6.50000000e-010,-4.79812438e-003
,,,6.75000000e-010,-4.73671813e-003
,,,7.00000000e-010,-4.67718688e-003
,,,7.25000000e-010,-4.61812438e-003
,,,7.50000000e-010,-4.55953063e-003
,,,7.75000000e-010,-4.50140563e-003
,,,8.00000000e-010,-4.44187438e-003
,,,8.25000000e-010,-4.37999938e-003
,,,8.50000000e-010,-4.30453063e-003
,,,8.75000000e-010,-4.22531188e-003
,,,9.00000000e-010,-4.14515562e-003
,,,9.25000000e-010,-4.06546812e-003
,,,9.50000000e-010,-3.98765562e-003
,,,9.75000000e-010,-3.91312437e-003
,,,1.00000000e-009,-3.84421812e-003
,,,1.02500000e-009,-3.77999937e-003
,,,1.05000000e-009,-3.71531187e-003
,,,1.07500000e-009,-3.65249937e-003
,,,1.10000000e-009,-3.59156187e-003
,,,1.12500000e-009,-3.53203062e-003
,,,1.15000000e-009,-3.47343687e-003
,,,1.17500000e-009,-3.41578062e-003
,,,1.20000000e-009,-3.35859312e-003
,,,1.22500000e-009,-3.29999937e-003
,,,1.25000000e-009,-3.23718687e-003
,,,1.27500000e-009,-3.16874937e-003
,,,1.30000000e-009,-3.09468687e-003
,,,1.32500000e-009,-3.01734311e-003
,,,1.35000000e-009,-2.93718686e-003
,,,1.37500000e-009,-2.85656186e-003
,,,1.40000000e-009,-2.77687436e-003
,,,1.42500000e-009,-2.69999936e-003
,,,1.45000000e-009,-2.62968686e-003
,,,1.47500000e-009,-2.56031186e-003
,,,1.50000000e-009,-2.49328061e-003
,,,1.52500000e-009,-2.42953061e-003
,,,1.55000000e-009,-2.36999936e-003
,,,1.57500000e-009,-2.31468686e-003
,,,1.60000000e-009,-2.26499936e-003
,,,1.62500000e-009,-2.21999936e-003
,,,1.65000000e-009,-2.18343686e-003
,,,1.67500000e-009,-2.14593686e-003
,,,1.70000000e-009,-2.10656186e-003
,,,1.72500000e-009,-2.06437436e-003
,,,1.75000000e-009,-2.01890561e-003
,,,1.77500000e-009,-1.97015561e-003
,,,1.80000000e-009,-1.91718686e-003
,,,1.82500000e-009,-1.85999935e-003
,,,1.85000000e-009,-1.80421810e-003
,,,1.87500000e-009,-1.74140560e-003
,,,1.90000000e-009,-1.67109310e-003
,,,1.92500000e-009,-1.59421810e-003
,,,1.95000000e-009,-1.51265560e-003
,,,1.97500000e-009,-1.42874935e-003
,,,2.00000000e-009,-1.34343685e-003
,,,2.02500000e-009,-1.25999935e-003
,,,2.05000000e-009,-1.18874935e-003
,,,2.07500000e-009,-1.12171810e-003
,,,2.10000000e-009,-1.06031185e-003
,,,2.12500000e-009,-1.00687435e-003
,,,2.15000000e-009,-9.62811847e-004
,,,2.17500000e-009,-9.29999347e-004
,,,2.20000000e-009,-9.08905597e-004
,,,2.22500000e-009,-8.99999347e-004
,,,2.25000000e-009,-9.11249347e-004
,,,2.27500000e-009,-9.28593097e-004
,,,2.30000000e-009,-9.49218097e-004
,,,2.32500000e-009,-9.70780597e-004
,,,2.35000000e-009,-9.90468097e-004
,,,2.37500000e-009,-1.00593685e-003
,,,2.40000000e-009,-1.01624935e-003
,,,2.42500000e-009,-1.01999935e-003
,,,2.45000000e-009,-1.02187435e-003
,,,2.47500000e-009,-1.01484310e-003
,,,2.50000000e-009,-1.00031185e-003
,,,2.52500000e-009,-9.80155597e-004
,,,2.55000000e-009,-9.57655597e-004
,,,2.57500000e-009,-9.35155597e-004
,,,2.60000000e-009,-9.15468097e-004
,,,2.62500000e-009,-8.99999347e-004
,,,2.65000000e-009,-8.93905597e-004
,,,2.67500000e-009,-8.92030597e-004
,,,2.70000000e-009,-8.92968097e-004
,,,2.72500000e-009,-8.96249347e-004
,,,2.75000000e-009,-8.99530597e-004
,,,2.77500000e-009,-9.02343097e-004
,,,2.80000000e-009,-9.03280597e-004
,,,2.82500000e-009,-8.99999347e-004
,,,2.85000000e-009,-8.95311847e-004
,,,2.87500000e-009,-8.84999346e-004
,,,2.90000000e-009,-8.69999346e-004
,,,2.92500000e-009,-8.51249346e-004
,,,2.95000000e-009,-8.31561846e-004
,,,2.97500000e-009,-8.11874346e-004
,,,3.00000000e-009,-7.94061846e-004
,,,3.02500000e-009,-7.79999346e-004
,,,3.05000000e-009,-7.70155595e-004
,,,3.07500000e-009,-7.63593095e-004
,,,3.10000000e-009,-7.61249345e-004
,,,3.12500000e-009,-7.62186845e-004
,,,3.15000000e-009,-7.65936845e-004
,,,3.17500000e-009,-7.71093095e-004
,,,3.20000000e-009,-7.76249346e-004
,,,3.22500000e-009,-7.79999346e-004
,,,3.25000000e-009,-7.79061846e-004
,,,3.27500000e-009,-7.73436845e-004
,,,3.30000000e-009,-7.63593095e-004
,,,3.32500000e-009,-7.49530595e-004
,,,3.35000000e-009,-7.31249345e-004
,,,3.37500000e-009,-7.09686845e-004
,,,3.40000000e-009,-6.85780595e-004
,,,3.42500000e-009,-6.59999344e-004
,,,3.45000000e-009,-6.33280594e-004
,,,3.47500000e-009,-6.07499344e-004
,,,3.50000000e-009,-5.84061844e-004
,,,3.52500000e-009,-5.64374344e-004
,,,3.55000000e-009,-5.49374344e-004
,,,3.57500000e-009,-5.40468093e-004
,,,3.60000000e-009,-5.37655593e-004
,,,3.62500000e-009,-5.39999343e-004
,,,3.65000000e-009,-5.46561844e-004
,,,3.67500000e-009,-5.55468094e-004
,,,3.70000000e-009,-5.63905594e-004
,,,3.72500000e-009,-5.70936844e-004
,,,3.75000000e-009,-5.73749344e-004
,,,3.77500000e-009,-5.70468094e-004
,,,3.80000000e-009,-5.59686844e-004
,,,3.82500000e-009,-5.39999343e-004
,,,3.85000000e-009,-5.11405593e-004
,,,3.87500000e-009,-4.73905593e-004
,,,3.90000000e-009,-4.28905592e-004
,,,3.92500000e-009,-3.79218092e-004
,,,3.95000000e-009,-3.26718092e-004
,,,3.97500000e-009,-2.74686841e-004
,,,4.00000000e-009,-2.24999341e-004
,,,4.02500000e-009,-1.79999340e-004
,,,4.05000000e-009,-1.44374340e-004
,,,4.07500000e-009,-1.15780590e-004
,,,4.10000000e-009,-9.42180896e-005
,,,4.12500000e-009,-7.87493394e-005
,,,4.15000000e-009,-6.89055894e-005
,,,4.17500000e-009,-6.37493393e-005
,,,4.20000000e-009,-6.09368393e-005
,,,4.22500000e-009,-5.99993393e-005
,,,4.25000000e-009,-6.42180893e-005
,,,4.27500000e-009,-6.70305893e-005
,,,4.30000000e-009,-6.89055894e-005
,,,4.32500000e-009,-6.89055894e-005
,,,4.35000000e-009,-6.79680894e-005
,,,4.37500000e-009,-6.56243393e-005
,,,4.40000000e-009,-6.28118393e-005
,,,4.42500000e-009,-5.99993393e-005
,,,4.45000000e-009,-6.09368393e-005
,,,4.47500000e-009,-6.14055893e-005
,,,4.50000000e-009,-6.18743393e-005
,,,4.52500000e-009,-6.23430893e-005
,,,4.55000000e-009,-6.23430893e-005
,,,4.57500000e-009,-6.23430893e-005
,,,4.60000000e-009,-6.14055893e-005
,,,4.62500000e-009,-5.99993393e-005
,,,4.65000000e-009,-6.14055893e-005
,,,4.67500000e-009,-6.23430893e-005
,,,4.70000000e-009,-6.18743393e-005
,,,4.72500000e-009,-6.14055893e-005
,,,4.75000000e-009,-6.04680893e-005
,,,4.77500000e-009,-5.95305893e-005
,,,4.80000000e-009,-5.90618393e-005
,,,4.82500000e-009,-5.99993393e-005
,,,4.85000000e-009,-6.46868393e-005
,,,4.87500000e-009,-7.07805894e-005
,,,4.90000000e-009,-7.96868395e-005
,,,4.92500000e-009,-9.18743396e-005
,,,4.95000000e-009,-1.08280590e-004
,,,4.97500000e-009,-1.28436840e-004
,,,5.00000000e-009,-1.52811840e-004
,,,5.02500000e-009,-1.79999340e-004
,,,5.05000000e-009,-2.08593091e-004
,,,5.07500000e-009,-2.36249341e-004
,,,5.10000000e-009,-2.62030591e-004
,,,5.12500000e-009,-2.83593091e-004
,,,5.15000000e-009,-2.99530591e-004
,,,5.17500000e-009,-3.07968091e-004
,,,5.20000000e-009,-3.07968091e-004
,,,5.22500000e-009,-2.99999341e-004
,,,5.25000000e-009,-2.82655591e-004
,,,5.27500000e-009,-2.60155591e-004
,,,5.30000000e-009,-2.35311841e-004
,,,5.32500000e-009,-2.11405591e-004
,,,5.35000000e-009,-1.91718090e-004
,,,5.37500000e-009,-1.78593090e-004
,,,5.40000000e-009,-1.74843090e-004
,,,5.42500000e-009,-1.79999340e-004
,,,5.45000000e-009,-1.94530590e-004
,,,5.47500000e-009,-2.16093091e-004
,,,5.50000000e-009,-2.41874341e-004
,,,5.52500000e-009,-2.68124341e-004
,,,5.55000000e-009,-2.91093091e-004
,,,5.57500000e-009,-3.05624341e-004
,,,5.60000000e-009,-3.09843091e-004
,,,5.62500000e-009,-2.99999341e-004
,,,5.65000000e-009,-2.75624341e-004
,,,5.67500000e-009,-2.38124341e-004
,,,5.70000000e-009,-1.90780590e-004
,,,5.72500000e-009,-1.37343090e-004
,,,5.75000000e-009,-8.10930895e-005
,,,5.77500000e-009,-2.71868390e-005
,,,5.80000000e-009,2.06256614e-005
,,,5.82500000e-009,6.00006618e-005
,,,5.85000000e-009,8.48444120e-005
,,,5.87500000e-009,9.79694121e-005
