RawData/SinglePhotoelectron/L7_2pt2A_5mV/wave008_Ch1.csv

"Record Length",1000,"Points",-7.72500000e-009,6.89069118e-005
"Sample Interval",2.50000000e-011,s,-7.70000000e-009,6.93756618e-005
"Trigger Point",309,"Samples",-7.67500000e-009,6.65631618e-005
"Trigger Time",8.87477178e-012,s,-7.65000000e-009,6.00006618e-005
"",,,-7.62500000e-009,4.87506617e-005
"Horizontal Offset",-7.72500000e-009,s,-7.60000000e-009,3.32819115e-005
,,,-7.57500000e-009,1.54694114e-005
,,,-7.55000000e-009,-3.28058879e-006
,,,-7.52500000e-009,-2.20305890e-005
,,,-7.50000000e-009,-3.84368391e-005
,,,-7.47500000e-009,-5.15618392e-005
,,,-7.45000000e-009,-5.99993393e-005
,,,-7.42500000e-009,-6.28118393e-005
,,,-7.40000000e-009,-6.14055893e-005
,,,-7.37500000e-009,-5.76555893e-005
,,,-7.35000000e-009,-5.29680892e-005
,,,-7.32500000e-009,-4.92180892e-005
,,,-7.30000000e-009,-4.87493392e-005
,,,-7.27500000e-009,-5.20305892e-005
,,,-7.25000000e-009,-5.99993393e-005
,,,-7.22500000e-009,-7.31243394e-005
,,,-7.20000000e-009,-8.99993395e-005
,,,-7.17500000e-009,-1.09686840e-004
,,,-7.15000000e-009,-1.29843090e-004
,,,-7.12500000e-009,-1.49061840e-004
,,,-7.10000000e-009,-1.64999340e-004
,,,-7.07500000e-009,-1.75780590e-004
,,,-7.05000000e-009,-1.79999340e-004
,,,-7.02500000e-009,-1.76249340e-004
,,,-7.00000000e-009,-1.65936840e-004
,,,-6.97500000e-009,-1.50936840e-004
,,,-6.95000000e-009,-1.31718090e-004
,,,-6.92500000e-009,-1.11561840e-004
,,,-6.90000000e-009,-9.18743396e-005
,,,-6.87500000e-009,-7.40618394e-005
,,,-6.85000000e-009,-5.99993393e-005
,,,-6.82500000e-009,-5.15618392e-005
,,,-6.80000000e-009,-4.82805892e-005
,,,-6.77500000e-009,-4.87493392e-005
,,,-6.75000000e-009,-5.24993392e-005
,,,-6.72500000e-009,-5.71868393e-005
,,,-6.70000000e-009,-6.09368393e-005
,,,-6.67500000e-009,-6.28118393e-005
,,,-6.65000000e-009,-5.99993393e-005
,,,-6.62500000e-009,-5.29680892e-005
,,,-6.60000000e-009,-4.12493391e-005
,,,-6.57500000e-009,-2.57805890e-005
,,,-6.55000000e-009,-7.96808883e-006
,,,-6.52500000e-009,1.07819113e-005
,,,-6.50000000e-009,2.95319115e-005
,,,-6.47500000e-009,4.59381616e-005
,,,-6.45000000e-009,6.00006618e-005
,,,-6.42500000e-009,6.79694118e-005
,,,-6.40000000e-009,7.21881619e-005
,,,-6.37500000e-009,7.31256619e-005
,,,-6.35000000e-009,7.12506619e-005
,,,-6.32500000e-009,6.84381618e-005
,,,-6.30000000e-009,6.51569118e-005
,,,-6.27500000e-009,6.23444118e-005
,,,-6.25000000e-009,6.00006618e-005
,,,-6.22500000e-009,5.67194117e-005
,,,-6.20000000e-009,5.29694117e-005
,,,-6.17500000e-009,4.73444117e-005
,,,-6.15000000e-009,3.79694116e-005
,,,-6.12500000e-009,2.39069114e-005
,,,-6.10000000e-009,2.81316126e-006
,,,-6.07500000e-009,-2.48430890e-005
,,,-6.05000000e-009,-5.99993393e-005
,,,-6.02500000e-009,-1.02186840e-004
,,,-6.00000000e-009,-1.46718090e-004
,,,-5.97500000e-009,-1.91249340e-004
,,,-5.95000000e-009,-2.32499341e-004
,,,-5.92500000e-009,-2.66718091e-004
,,,-5.90000000e-009,-2.90624341e-004
,,,-5.87500000e-009,-3.02343091e-004
,,,-5.85000000e-009,-2.99999341e-004
,,,-5.82500000e-009,-2.84530591e-004
,,,-5.80000000e-009,-2.57811841e-004
,,,-5.77500000e-009,-2.23124341e-004
,,,-5.75000000e-009,-1.83749340e-004
,,,-5.72500000e-009,-1.43905590e-004
,,,-5.70000000e-009,-1.08280590e-004
,,,-5.67500000e-009,-7.92180894e-005
,,,-5.65000000e-009,-5.99993393e-005
,,,-5.62500000e-009,-5.43743392e-005
,,,-5.60000000e-009,-5.95305893e-005
,,,-5.57500000e-009,-7.45305894e-005
,,,-5.55000000e-009,-9.60930896e-005
,,,-5.52500000e-009,-1.20936840e-004
,,,-5.50000000e-009,-1.45780590e-004
,,,-5.47500000e-009,-1.66405590e-004
,,,-5.45000000e-009,-1.79999340e-004
,,,-5.42500000e-009,-1.85155590e-004
,,,-5.40000000e-009,-1.80936840e-004
,,,-5.37500000e-009,-1.68749340e-004
,,,-5.35000000e-009,-1.49999340e-004
,,,-5.32500000e-009,-1.27030590e-004
,,,-5.30000000e-009,-1.02655590e-004
,,,-5.27500000e-009,-7.92180894e-005
,,,-5.25000000e-009,-5.99993393e-005
,,,-5.22500000e-009,-4.82805892e-005
,,,-5.20000000e-009,-4.45305891e-005
,,,-5.17500000e-009,-4.96868392e-005
,,,-5.15000000e-009,-6.32805893e-005
,,,-5.12500000e-009,-8.48430895e-005
,,,-5.10000000e-009,-1.12499340e-004
,,,-5.07500000e-009,-1.44843090e-004
,,,-5.05000000e-009,-1.79999340e-004
,,,-5.02500000e-009,-2.16561841e-004
,,,-5.00000000e-009,-2.52186841e-004
,,,-4.97500000e-009,-2.86874341e-004
,,,-4.95000000e-009,-3.19218092e-004
,,,-4.92500000e-009,-3.49218092e-004
,,,-4.90000000e-009,-3.75936842e-004
,,,-4.87500000e-009,-3.99843092e-004
,,,-4.85000000e-009,-4.19999342e-004
,,,-4.82500000e-009,-4.34999343e-004
,,,-4.80000000e-009,-4.45780593e-004
,,,-4.77500000e-009,-4.51874343e-004
,,,-4.75000000e-009,-4.53749343e-004
,,,-4.72500000e-009,-4.51405593e-004
,,,-4.70000000e-009,-4.44843093e-004
,,,-4.67500000e-009,-4.34061843e-004
,,,-4.65000000e-009,-4.19999342e-004
,,,-4.62500000e-009,-3.99374342e-004
,,,-4.60000000e-009,-3.77811842e-004
,,,-4.57500000e-009,-3.56249342e-004
,,,-4.55000000e-009,-3.37030592e-004
,,,-4.52500000e-009,-3.21093092e-004
,,,-4.50000000e-009,-3.08905591e-004
,,,-4.47500000e-009,-3.02343091e-004
,,,-4.45000000e-009,-2.99999341e-004
,,,-4.42500000e-009,-3.00468091e-004
,,,-4.40000000e-009,-3.03749341e-004
,,,-4.37500000e-009,-3.08436841e-004
,,,-4.35000000e-009,-3.13124341e-004
,,,-4.32500000e-009,-3.15936842e-004
,,,-4.30000000e-009,-3.14999341e-004
,,,-4.27500000e-009,-3.10311841e-004
,,,-4.25000000e-009,-2.99999341e-004
,,,-4.22500000e-009,-2.82655591e-004
,,,-4.20000000e-009,-2.61093091e-004
,,,-4.17500000e-009,-2.38593091e-004
,,,-4.15000000e-009,-2.17030591e-004
,,,-4.12500000e-009,-1.98749340e-004
,,,-4.10000000e-009,-1.85624340e-004
,,,-4.07500000e-009,-1.79530590e-004
,,,-4.05000000e-009,-1.79999340e-004
,,,-4.02500000e-009,-1.85155590e-004
,,,-4.00000000e-009,-1.94061840e-004
,,,-3.97500000e-009,-2.04843091e-004
,,,-3.95000000e-009,-2.14218091e-004
,,,-3.92500000e-009,-2.18905591e-004
,,,-3.90000000e-009,-2.16093091e-004
,,,-3.87500000e-009,-2.03905591e-004
,,,-3.85000000e-009,-1.79999340e-004
,,,-3.82500000e-009,-1.44843090e-004
,,,-3.80000000e-009,-9.98430896e-005
,,,-3.77500000e-009,-4.78118392e-005
,,,-3.75000000e-009,7.50066130e-006
,,,-3.72500000e-009,6.18756618e-005
,,,-3.70000000e-009,1.11094412e-004
,,,-3.67500000e-009,1.51406913e-004
,,,-3.65000000e-009,1.80000663e-004
,,,-3.62500000e-009,1.92656913e-004
,,,-3.60000000e-009,1.92188163e-004
,,,-3.57500000e-009,1.80938163e-004
,,,-3.55000000e-009,1.60781913e-004
,,,-3.52500000e-009,1.35000662e-004
,,,-3.50000000e-009,1.07344412e-004
,,,-3.47500000e-009,8.10944119e-005
,,,-3.45000000e-009,6.00006618e-005
,,,-3.42500000e-009,4.64069116e-005
,,,-3.40000000e-009,4.26569116e-005
,,,-3.37500000e-009,4.87506617e-005
,,,-3.35000000e-009,6.42194118e-005
,,,-3.32500000e-009,8.71881620e-005
,,,-3.30000000e-009,1.15781912e-004
,,,-3.27500000e-009,1.47656913e-004
,,,-3.25000000e-009,1.80000663e-004
,,,-3.22500000e-009,2.09063163e-004
,,,-3.20000000e-009,2.35781913e-004
,,,-3.17500000e-009,2.58281913e-004
,,,-3.15000000e-009,2.76094414e-004
,,,-3.12500000e-009,2.89219414e-004
,,,-3.10000000e-009,2.97188164e-004
,,,-3.07500000e-009,3.00938164e-004
,,,-3.05000000e-009,3.00000664e-004
,,,-3.02500000e-009,2.92031914e-004
,,,-3.00000000e-009,2.81719414e-004
,,,-2.97500000e-009,2.68594414e-004
,,,-2.95000000e-009,2.53125663e-004
,,,-2.92500000e-009,2.36250663e-004
,,,-2.90000000e-009,2.17500663e-004
,,,-2.87500000e-009,1.98750663e-004
,,,-2.85000000e-009,1.80000663e-004
,,,-2.82500000e-009,1.62188163e-004
,,,-2.80000000e-009,1.47656913e-004
,,,-2.77500000e-009,1.37813162e-004
,,,-2.75000000e-009,1.33594412e-004
,,,-2.72500000e-009,1.35469412e-004
,,,-2.70000000e-009,1.43438162e-004
,,,-2.67500000e-009,1.58438163e-004
,,,-2.65000000e-009,1.80000663e-004
,,,-2.62500000e-009,2.07188163e-004
,,,-2.60000000e-009,2.38594413e-004
,,,-2.57500000e-009,2.72344414e-004
,,,-2.55000000e-009,3.07500664e-004
,,,-2.52500000e-009,3.41250664e-004
,,,-2.50000000e-009,3.72656914e-004
,,,-2.47500000e-009,3.99375665e-004
,,,-2.45000000e-009,4.20000665e-004
,,,-2.42500000e-009,4.29844415e-004
,,,-2.40000000e-009,4.31250665e-004
,,,-2.37500000e-009,4.25156915e-004
,,,-2.35000000e-009,4.11094415e-004
,,,-2.32500000e-009,3.90000665e-004
,,,-2.30000000e-009,3.63750664e-004
,,,-2.27500000e-009,3.32813164e-004
,,,-2.25000000e-009,3.00000664e-004
,,,-2.22500000e-009,2.64844414e-004
,,,-2.20000000e-009,2.32500663e-004
,,,-2.17500000e-009,2.04375663e-004
,,,-2.15000000e-009,1.82344413e-004
,,,-2.12500000e-009,1.68281913e-004
,,,-2.10000000e-009,1.62656913e-004
,,,-2.07500000e-009,1.66406913e-004
,,,-2.05000000e-009,1.80000663e-004
,,,-2.02500000e-009,1.99688163e-004
,,,-2.00000000e-009,2.25938163e-004
,,,-1.97500000e-009,2.57344413e-004
,,,-1.95000000e-009,2.91563164e-004
,,,-1.92500000e-009,3.27188164e-004
,,,-1.90000000e-009,3.61875664e-004
,,,-1.87500000e-009,3.93281915e-004
,,,-1.85000000e-009,4.20000665e-004
,,,-1.82500000e-009,4.33125665e-004
,,,-1.80000000e-009,4.37344415e-004
,,,-1.77500000e-009,4.32656915e-004
,,,-1.75000000e-009,4.19063165e-004
,,,-1.72500000e-009,3.97969415e-004
,,,-1.70000000e-009,3.69844414e-004
,,,-1.67500000e-009,3.36563164e-004
,,,-1.65000000e-009,3.00000664e-004
,,,-1.62500000e-009,2.53125663e-004
,,,-1.60000000e-009,2.06250663e-004
,,,-1.57500000e-009,1.62656913e-004
,,,-1.55000000e-009,1.24219412e-004
,,,-1.52500000e-009,9.37506621e-005
,,,-1.50000000e-009,7.26569119e-005
,,,-1.47500000e-009,6.14069118e-005
,,,-1.45000000e-009,6.00006618e-005
,,,-1.42500000e-009,5.57819117e-005
,,,-1.40000000e-009,5.62506617e-005
,,,-1.37500000e-009,5.95319118e-005
,,,-1.35000000e-009,6.37506618e-005
,,,-1.32500000e-009,6.75006618e-005
,,,-1.30000000e-009,6.93756618e-005
,,,-1.27500000e-009,6.70319118e-005
,,,-1.25000000e-009,6.00006618e-005
,,,-1.22500000e-009,2.81256615e-005
,,,-1.20000000e-009,-1.26555889e-005
,,,-1.17500000e-009,-6.04680893e-005
,,,-1.15000000e-009,-1.12030590e-004
,,,-1.12500000e-009,-1.64999340e-004
,,,-1.10000000e-009,-2.15155591e-004
,,,-1.07500000e-009,-2.60624341e-004
,,,-1.05000000e-009,-2.99999341e-004
,,,-1.02500000e-009,-3.53436842e-004
,,,-1.00000000e-009,-4.03593092e-004
,,,-9.75000000e-010,-4.51405593e-004
,,,-9.50000000e-010,-4.95468093e-004
,,,-9.25000000e-010,-5.37655593e-004
,,,-9.00000000e-010,-5.77968094e-004
,,,-8.75000000e-010,-6.17811844e-004
,,,-8.50000000e-010,-6.59999344e-004
,,,-8.25000000e-010,-7.26561845e-004
,,,-8.00000000e-010,-8.02499346e-004
,,,-7.75000000e-010,-8.87343096e-004
,,,-7.50000000e-010,-9.79218097e-004
,,,-7.25000000e-010,-1.07624935e-003
,,,-7.00000000e-010,-1.17609310e-003
,,,-6.75000000e-010,-1.27781185e-003
,,,-6.50000000e-010,-1.37999935e-003
,,,-6.25000000e-010,-1.49812435e-003
,,,-6.00000000e-010,-1.62187435e-003
,,,-5.75000000e-010,-1.75031185e-003
,,,-5.50000000e-010,-1.88390561e-003
,,,-5.25000000e-010,-2.02171811e-003
,,,-5.00000000e-010,-2.16374936e-003
,,,-4.75000000e-010,-2.30999936e-003
,,,-4.50000000e-010,-2.45999936e-003
,,,-4.25000000e-010,-2.61843686e-003
,,,-4.00000000e-010,-2.78249936e-003
,,,-3.75000000e-010,-2.95124936e-003
,,,-3.50000000e-010,-3.12234312e-003
,,,-3.25000000e-010,-3.29296812e-003
,,,-3.00000000e-010,-3.46078062e-003
,,,-2.75000000e-010,-3.62390562e-003
,,,-2.50000000e-010,-3.77999937e-003
,,,-2.25000000e-010,-3.91968687e-003
,,,-2.00000000e-010,-4.05609312e-003
,,,-1.75000000e-010,-4.19015563e-003
,,,-1.50000000e-010,-4.32374938e-003
,,,-1.25000000e-010,-4.45734313e-003
,,,-1.00000000e-010,-4.59140563e-003
,,,-7.50000000e-011,-4.72593688e-003
,,,-5.00000000e-011,-4.85999938e-003
,,,-2.50000000e-011,-4.97156188e-003
,,,0.00000000e+000,-5.08453063e-003
,,,2.50000000e-011,-5.19749938e-003
,,,5.00000000e-011,-5.30999938e-003
,,,7.50000000e-011,-5.41921814e-003
,,,1.00000000e-010,-5.52281189e-003
,,,1.25000000e-010,-5.61703064e-003
,,,1.50000000e-010,-5.69999939e-003
,,,1.75000000e-010,-5.73890564e-003
,,,2.00000000e-010,-5.76703064e-003
,,,2.25000000e-010,-5.78718689e-003
,,,2.50000000e-010,-5.80124939e-003
,,,2.75000000e-010,-5.81062439e-003
,,,3.00000000e-010,-5.81671814e-003
,,,3.25000000e-010,-5.81953064e-003
,,,3.50000000e-010,-5.81999939e-003
,,,3.75000000e-010,-5.78578064e-003
,,,4.00000000e-010,-5.75156189e-003
,,,4.25000000e-010,-5.72015564e-003
,,,4.50000000e-010,-5.69109314e-003
,,,4.75000000e-010,-5.66437439e-003
,,,5.00000000e-010,-5.63812439e-003
,,,5.25000000e-010,-5.61093689e-003
,,,5.50000000e-010,-5.57999939e-003
,,,5.75000000e-010,-5.51437439e-003
,,,6.00000000e-010,-5.44406189e-003
,,,6.25000000e-010,-5.37046814e-003
,,,6.50000000e-010,-5.29453063e-003
,,,6.75000000e-010,-5.21718688e-003
,,,7.00000000e-010,-5.13937438e-003
,,,7.25000000e-010,-5.06015563e-003
,,,7.50000000e-010,-4.97999938e-003
,,,7.75000000e-010,-4.87546813e-003
,,,8.00000000e-010,-4.76859313e-003
,,,8.25000000e-010,-4.66124938e-003
,,,8.50000000e-010,-4.55390563e-003
,,,8.75000000e-010,-4.44796813e-003
,,,9.00000000e-010,-4.34343688e-003
,,,9.25000000e-010,-4.24078063e-003
,,,9.50000000e-010,-4.13999937e-003
,,,9.75000000e-010,-4.02656187e-003
,,,1.00000000e-009,-3.91265562e-003
,,,1.02500000e-009,-3.79968687e-003
,,,1.05000000e-009,-3.68953062e-003
,,,1.07500000e-009,-3.58312437e-003
,,,1.10000000e-009,-3.48281187e-003
,,,1.12500000e-009,-3.38859312e-003
,,,1.15000000e-009,-3.29999937e-003
,,,1.17500000e-009,-3.21281187e-003
,,,1.20000000e-009,-3.12562437e-003
,,,1.22500000e-009,-3.03796812e-003
,,,1.25000000e-009,-2.94937436e-003
,,,1.27500000e-009,-2.85937436e-003
,,,1.30000000e-009,-2.76796811e-003
,,,1.32500000e-009,-2.67515561e-003
,,,1.35000000e-009,-2.57999936e-003
,,,1.37500000e-009,-2.48484311e-003
,,,1.40000000e-009,-2.38359311e-003
,,,1.42500000e-009,-2.27718686e-003
,,,1.45000000e-009,-2.16749936e-003
,,,1.47500000e-009,-2.05687436e-003
,,,1.50000000e-009,-1.94765561e-003
,,,1.52500000e-009,-1.84171810e-003
,,,1.55000000e-009,-1.73999935e-003
,,,1.57500000e-009,-1.65187435e-003
,,,1.60000000e-009,-1.56421810e-003
,,,1.62500000e-009,-1.47609310e-003
,,,1.65000000e-009,-1.38656185e-003
,,,1.67500000e-009,-1.29609310e-003
,,,1.70000000e-009,-1.20468685e-003
,,,1.72500000e-009,-1.11281185e-003
,,,1.75000000e-009,-1.01999935e-003
,,,1.77500000e-009,-9.40780597e-004
,,,1.80000000e-009,-8.58749346e-004
,,,1.82500000e-009,-7.75780596e-004
,,,1.85000000e-009,-6.92811845e-004
,,,1.87500000e-009,-6.13593094e-004
,,,1.90000000e-009,-5.39999343e-004
,,,1.92500000e-009,-4.74843093e-004
,,,1.95000000e-009,-4.19999342e-004
,,,1.97500000e-009,-3.90936842e-004
,,,2.00000000e-009,-3.68436842e-004
,,,2.02500000e-009,-3.51093092e-004
,,,2.05000000e-009,-3.37968092e-004
,,,2.07500000e-009,-3.27655592e-004
,,,2.10000000e-009,-3.18280592e-004
,,,2.12500000e-009,-3.09843091e-004
,,,2.15000000e-009,-2.99999341e-004
,,,2.17500000e-009,-3.00936841e-004
,,,2.20000000e-009,-2.95780591e-004
,,,2.22500000e-009,-2.84530591e-004
,,,2.25000000e-009,-2.68124341e-004
,,,2.27500000e-009,-2.47499341e-004
,,,2.30000000e-009,-2.24999341e-004
,,,2.32500000e-009,-2.01561841e-004
,,,2.35000000e-009,-1.79999340e-004
,,,2.37500000e-009,-1.72968090e-004
,,,2.40000000e-009,-1.67343090e-004
,,,2.42500000e-009,-1.64061840e-004
,,,2.45000000e-009,-1.62186840e-004
,,,2.47500000e-009,-1.63124340e-004
,,,2.50000000e-009,-1.66405590e-004
,,,2.52500000e-009,-1.72030590e-004
,,,2.55000000e-009,-1.79999340e-004
,,,2.57500000e-009,-1.97811840e-004
,,,2.60000000e-009,-2.15155591e-004
,,,2.62500000e-009,-2.32030591e-004
,,,2.65000000e-009,-2.47968091e-004
,,,2.67500000e-009,-2.62968091e-004
,,,2.70000000e-009,-2.76561841e-004
,,,2.72500000e-009,-2.89218091e-004
,,,2.75000000e-009,-2.99999341e-004
,,,2.77500000e-009,-3.13593091e-004
,,,2.80000000e-009,-3.23905592e-004
,,,2.82500000e-009,-3.30468092e-004
,,,2.85000000e-009,-3.33280592e-004
,,,2.87500000e-009,-3.30936842e-004
,,,2.90000000e-009,-3.24374342e-004
,,,2.92500000e-009,-3.13593091e-004
,,,2.95000000e-009,-2.99999341e-004
,,,2.97500000e-009,-2.86874341e-004
,,,3.00000000e-009,-2.73749341e-004
,,,3.02500000e-009,-2.62968091e-004
,,,3.05000000e-009,-2.56874341e-004
,,,3.07500000e-009,-2.55936841e-004
,,,3.10000000e-009,-2.62968091e-004
,,,3.12500000e-009,-2.77499341e-004
,,,3.15000000e-009,-2.99999341e-004
,,,3.17500000e-009,-3.31874342e-004
,,,3.20000000e-009,-3.68436842e-004
,,,3.22500000e-009,-4.07811842e-004
,,,3.25000000e-009,-4.46249343e-004
,,,3.27500000e-009,-4.81405593e-004
,,,3.30000000e-009,-5.10468093e-004
,,,3.32500000e-009,-5.30155593e-004
,,,3.35000000e-009,-5.39999343e-004
,,,3.37500000e-009,-5.38124343e-004
,,,3.40000000e-009,-5.27343093e-004
,,,3.42500000e-009,-5.09530593e-004
,,,3.45000000e-009,-4.87968093e-004
,,,3.47500000e-009,-4.64999343e-004
,,,3.50000000e-009,-4.44843093e-004
,,,3.52500000e-009,-4.28905592e-004
,,,3.55000000e-009,-4.19999342e-004
,,,3.57500000e-009,-4.19530592e-004
,,,3.60000000e-009,-4.26561842e-004
,,,3.62500000e-009,-4.41561843e-004
,,,3.65000000e-009,-4.61249343e-004
,,,3.67500000e-009,-4.83749343e-004
,,,3.70000000e-009,-5.05780593e-004
,,,3.72500000e-009,-5.25468093e-004
,,,3.75000000e-009,-5.39999343e-004
,,,3.77500000e-009,-5.47499344e-004
,,,3.80000000e-009,-5.48905594e-004
,,,3.82500000e-009,-5.46561844e-004
,,,3.85000000e-009,-5.41405593e-004
,,,3.87500000e-009,-5.35780593e-004
,,,3.90000000e-009,-5.32968093e-004
,,,3.92500000e-009,-5.33905593e-004
,,,3.95000000e-009,-5.39999343e-004
,,,3.97500000e-009,-5.49843094e-004
,,,4.00000000e-009,-5.64374344e-004
,,,4.02500000e-009,-5.83124344e-004
,,,4.05000000e-009,-6.03749344e-004
,,,4.07500000e-009,-6.23905594e-004
,,,4.10000000e-009,-6.41249344e-004
,,,4.12500000e-009,-6.53905594e-004
,,,4.15000000e-009,-6.59999344e-004
,,,4.17500000e-009,-6.54843094e-004
,,,4.20000000e-009,-6.42655594e-004
,,,4.22500000e-009,-6.25311844e-004
,,,4.25000000e-009,-6.05155594e-004
,,,4.27500000e-009,-5.84530594e-004
,,,4.30000000e-009,-5.65311844e-004
,,,4.32500000e-009,-5.50311844e-004
,,,4.35000000e-009,-5.39999343e-004
,,,4.37500000e-009,-5.32030593e-004
,,,4.40000000e-009,-5.29218093e-004
,,,4.42500000e-009,-5.30624343e-004
,,,4.45000000e-009,-5.34374343e-004
,,,4.47500000e-009,-5.39530593e-004
,,,4.50000000e-009,-5.43280593e-004
,,,4.52500000e-009,-5.44218093e-004
,,,4.55000000e-009,-5.39999343e-004
,,,4.57500000e-009,-5.24999343e-004
,,,4.60000000e-009,-5.03436843e-004
,,,4.62500000e-009,-4.75311843e-004
,,,4.65000000e-009,-4.42499343e-004
,,,4.67500000e-009,-4.06874342e-004
,,,4.70000000e-009,-3.69843092e-004
,,,4.72500000e-009,-3.33749342e-004
,,,4.75000000e-009,-2.99999341e-004
,,,4.77500000e-009,-2.68124341e-004
,,,4.80000000e-009,-2.40936841e-004
,,,4.82500000e-009,-2.18905591e-004
,,,4.85000000e-009,-2.02030591e-004
,,,4.87500000e-009,-1.90780590e-004
,,,4.90000000e-009,-1.84218090e-004
,,,4.92500000e-009,-1.80936840e-004
,,,4.95000000e-009,-1.79999340e-004
,,,4.97500000e-009,-1.79061840e-004
,,,5.00000000e-009,-1.76249340e-004
,,,5.02500000e-009,-1.70624340e-004
,,,5.05000000e-009,-1.60311840e-004
,,,5.07500000e-009,-1.44374340e-004
,,,5.10000000e-009,-1.22811840e-004
,,,5.12500000e-009,-9.46868396e-005
,,,5.15000000e-009,-5.99993393e-005
,,,5.17500000e-009,-2.15618389e-005
,,,5.20000000e-009,2.20319114e-005
,,,5.22500000e-009,6.89069118e-005
,,,5.25000000e-009,1.18125662e-004
,,,5.27500000e-009,1.67344413e-004
,,,5.30000000e-009,2.15156913e-004
,,,5.32500000e-009,2.59688163e-004
,,,5.35000000e-009,3.00000664e-004
,,,5.37500000e-009,3.29531914e-004
,,,5.40000000e-009,3.53438164e-004
,,,5.42500000e-009,3.72656914e-004
,,,5.45000000e-009,3.87188165e-004
,,,5.47500000e-009,3.98438165e-004
,,,5.50000000e-009,4.06875665e-004
,,,5.52500000e-009,4.13906915e-004
,,,5.55000000e-009,4.20000665e-004
,,,5.57500000e-009,4.19531915e-004
,,,5.60000000e-009,4.20000665e-004
,,,5.62500000e-009,4.20938165e-004
,,,5.65000000e-009,4.22813165e-004
,,,5.67500000e-009,4.24219415e-004
,,,5.70000000e-009,4.24688165e-004
,,,5.72500000e-009,4.23281915e-004
,,,5.75000000e-009,4.20000665e-004
,,,5.77500000e-009,4.08750665e-004
,,,5.80000000e-009,3.96094415e-004
,,,5.82500000e-009,3.81094415e-004
,,,5.85000000e-009,3.65156914e-004
,,,5.87500000e-009,3.48750664e-004
,,,5.90000000e-009,3.31875664e-004
,,,5.92500000e-009,3.15469414e-004
