RawData/SinglePhotoelectron/L7_2pt2A_5mV/wave023_Ch1.csv

"Record Length",1000,"Points",-7.72500000e-009,3.23906914e-004
"Sample Interval",2.50000000e-011,s,-7.70000000e-009,3.23906914e-004
"Trigger Point",309,"Samples",-7.67500000e-009,3.19688164e-004
"Trigger Time",1.36974194e-011,s,-7.65000000e-009,3.11719414e-004
"",,,-7.62500000e-009,3.00000664e-004
"Horizontal Offset",-7.72500000e-009,s,-7.60000000e-009,2.82188164e-004
,,,-7.57500000e-009,2.62031914e-004
,,,-7.55000000e-009,2.41406913e-004
,,,-7.52500000e-009,2.21250663e-004
,,,-7.50000000e-009,2.03906913e-004
,,,-7.47500000e-009,1.90781913e-004
,,,-7.45000000e-009,1.82344413e-004
,,,-7.42500000e-009,1.80000663e-004
,,,-7.40000000e-009,1.81406913e-004
,,,-7.37500000e-009,1.87031913e-004
,,,-7.35000000e-009,1.94063163e-004
,,,-7.32500000e-009,2.00625663e-004
,,,-7.30000000e-009,2.04375663e-004
,,,-7.27500000e-009,2.03438163e-004
,,,-7.25000000e-009,1.95469413e-004
,,,-7.22500000e-009,1.80000663e-004
,,,-7.20000000e-009,1.57031913e-004
,,,-7.17500000e-009,1.27500662e-004
,,,-7.15000000e-009,9.32819120e-005
,,,-7.12500000e-009,5.67194117e-005
,,,-7.10000000e-009,2.06256614e-005
,,,-7.07500000e-009,-1.21868389e-005
,,,-7.05000000e-009,-3.98430891e-005
,,,-7.02500000e-009,-5.99993393e-005
,,,-7.00000000e-009,-6.93743394e-005
,,,-6.97500000e-009,-7.12493394e-005
,,,-6.95000000e-009,-6.74993393e-005
,,,-6.92500000e-009,-6.09368393e-005
,,,-6.90000000e-009,-5.48430892e-005
,,,-6.87500000e-009,-5.10930892e-005
,,,-6.85000000e-009,-5.24993392e-005
,,,-6.82500000e-009,-5.99993393e-005
,,,-6.80000000e-009,-7.07805894e-005
,,,-6.77500000e-009,-8.71868395e-005
,,,-6.75000000e-009,-1.07811840e-004
,,,-6.72500000e-009,-1.30311840e-004
,,,-6.70000000e-009,-1.51405590e-004
,,,-6.67500000e-009,-1.68749340e-004
,,,-6.65000000e-009,-1.78593090e-004
,,,-6.62500000e-009,-1.79999340e-004
,,,-6.60000000e-009,-1.67343090e-004
,,,-6.57500000e-009,-1.44843090e-004
,,,-6.55000000e-009,-1.14843090e-004
,,,-6.52500000e-009,-7.96868395e-005
,,,-6.50000000e-009,-4.17180891e-005
,,,-6.47500000e-009,-4.68683880e-006
,,,-6.45000000e-009,3.00006615e-005
,,,-6.42500000e-009,6.00006618e-005
,,,-6.40000000e-009,8.43756620e-005
,,,-6.37500000e-009,1.03125662e-004
,,,-6.35000000e-009,1.16719412e-004
,,,-6.32500000e-009,1.27031912e-004
,,,-6.30000000e-009,1.36406912e-004
,,,-6.27500000e-009,1.46719413e-004
,,,-6.25000000e-009,1.60781913e-004
,,,-6.22500000e-009,1.80000663e-004
,,,-6.20000000e-009,2.04375663e-004
,,,-6.17500000e-009,2.33906913e-004
,,,-6.15000000e-009,2.67188164e-004
,,,-6.12500000e-009,3.02344414e-004
,,,-6.10000000e-009,3.37031914e-004
,,,-6.07500000e-009,3.69844414e-004
,,,-6.05000000e-009,3.97969415e-004
,,,-6.02500000e-009,4.20000665e-004
,,,-6.00000000e-009,4.31250665e-004
,,,-5.97500000e-009,4.35938165e-004
,,,-5.95000000e-009,4.35469415e-004
,,,-5.92500000e-009,4.31719415e-004
,,,-5.90000000e-009,4.26563165e-004
,,,-5.87500000e-009,4.21875665e-004
,,,-5.85000000e-009,4.19063165e-004
,,,-5.82500000e-009,4.20000665e-004
,,,-5.80000000e-009,4.20000665e-004
,,,-5.77500000e-009,4.23750665e-004
,,,-5.75000000e-009,4.29375665e-004
,,,-5.72500000e-009,4.35000665e-004
,,,-5.70000000e-009,4.38750665e-004
,,,-5.67500000e-009,4.38750665e-004
,,,-5.65000000e-009,4.32656915e-004
,,,-5.62500000e-009,4.20000665e-004
,,,-5.60000000e-009,3.95625665e-004
,,,-5.57500000e-009,3.65625664e-004
,,,-5.55000000e-009,3.31406914e-004
,,,-5.52500000e-009,2.95781914e-004
,,,-5.50000000e-009,2.60156914e-004
,,,-5.47500000e-009,2.27813163e-004
,,,-5.45000000e-009,2.00625663e-004
,,,-5.42500000e-009,1.80000663e-004
,,,-5.40000000e-009,1.65938163e-004
,,,-5.37500000e-009,1.59375663e-004
,,,-5.35000000e-009,1.59375663e-004
,,,-5.32500000e-009,1.63594413e-004
,,,-5.30000000e-009,1.69688163e-004
,,,-5.27500000e-009,1.75781913e-004
,,,-5.25000000e-009,1.80000663e-004
,,,-5.22500000e-009,1.80000663e-004
,,,-5.20000000e-009,1.74844413e-004
,,,-5.17500000e-009,1.64531913e-004
,,,-5.15000000e-009,1.49531913e-004
,,,-5.12500000e-009,1.31719412e-004
,,,-5.10000000e-009,1.12031912e-004
,,,-5.07500000e-009,9.23444120e-005
,,,-5.05000000e-009,7.45319119e-005
,,,-5.02500000e-009,6.00006618e-005
,,,-5.00000000e-009,5.15631617e-005
,,,-4.97500000e-009,4.78131617e-005
,,,-4.95000000e-009,4.73444117e-005
,,,-4.92500000e-009,4.96881617e-005
,,,-4.90000000e-009,5.29694117e-005
,,,-4.87500000e-009,5.67194117e-005
,,,-4.85000000e-009,5.90631618e-005
,,,-4.82500000e-009,6.00006618e-005
,,,-4.80000000e-009,6.09381618e-005
,,,-4.77500000e-009,6.00006618e-005
,,,-4.75000000e-009,5.71881617e-005
,,,-4.72500000e-009,5.43756617e-005
,,,-4.70000000e-009,5.15631617e-005
,,,-4.67500000e-009,5.10944117e-005
,,,-4.65000000e-009,5.34381617e-005
,,,-4.62500000e-009,6.00006618e-005
,,,-4.60000000e-009,7.21881619e-005
,,,-4.57500000e-009,8.81256620e-005
,,,-4.55000000e-009,1.05938162e-004
,,,-4.52500000e-009,1.24219412e-004
,,,-4.50000000e-009,1.42500662e-004
,,,-4.47500000e-009,1.58438163e-004
,,,-4.45000000e-009,1.71094413e-004
,,,-4.42500000e-009,1.80000663e-004
,,,-4.40000000e-009,1.85156913e-004
,,,-4.37500000e-009,1.86563163e-004
,,,-4.35000000e-009,1.85156913e-004
,,,-4.32500000e-009,1.81875663e-004
,,,-4.30000000e-009,1.78125663e-004
,,,-4.27500000e-009,1.76250663e-004
,,,-4.25000000e-009,1.76250663e-004
,,,-4.22500000e-009,1.80000663e-004
,,,-4.20000000e-009,1.87500663e-004
,,,-4.17500000e-009,1.98750663e-004
,,,-4.15000000e-009,2.13281913e-004
,,,-4.12500000e-009,2.30625663e-004
,,,-4.10000000e-009,2.48906913e-004
,,,-4.07500000e-009,2.67656914e-004
,,,-4.05000000e-009,2.85000664e-004
,,,-4.02500000e-009,3.00000664e-004
,,,-4.00000000e-009,3.09375664e-004
,,,-3.97500000e-009,3.15469414e-004
,,,-3.95000000e-009,3.17813164e-004
,,,-3.92500000e-009,3.17344414e-004
,,,-3.90000000e-009,3.14063164e-004
,,,-3.87500000e-009,3.09844414e-004
,,,-3.85000000e-009,3.04688164e-004
,,,-3.82500000e-009,3.00000664e-004
,,,-3.80000000e-009,2.94844414e-004
,,,-3.77500000e-009,2.91563164e-004
,,,-3.75000000e-009,2.89688164e-004
,,,-3.72500000e-009,2.89688164e-004
,,,-3.70000000e-009,2.91563164e-004
,,,-3.67500000e-009,2.93906914e-004
,,,-3.65000000e-009,2.96719414e-004
,,,-3.62500000e-009,3.00000664e-004
,,,-3.60000000e-009,2.99531914e-004
,,,-3.57500000e-009,2.99531914e-004
,,,-3.55000000e-009,2.98594414e-004
,,,-3.52500000e-009,2.98125664e-004
,,,-3.50000000e-009,2.98125664e-004
,,,-3.47500000e-009,2.98594414e-004
,,,-3.45000000e-009,2.99063164e-004
,,,-3.42500000e-009,3.00000664e-004
,,,-3.40000000e-009,2.97656914e-004
,,,-3.37500000e-009,2.93906914e-004
,,,-3.35000000e-009,2.87344414e-004
,,,-3.32500000e-009,2.76094414e-004
,,,-3.30000000e-009,2.60156914e-004
,,,-3.27500000e-009,2.38594413e-004
,,,-3.25000000e-009,2.11406913e-004
,,,-3.22500000e-009,1.80000663e-004
,,,-3.20000000e-009,1.43906912e-004
,,,-3.17500000e-009,1.07813162e-004
,,,-3.15000000e-009,7.50006619e-005
,,,-3.12500000e-009,4.87506617e-005
,,,-3.10000000e-009,3.18756615e-005
,,,-3.07500000e-009,2.76569115e-005
,,,-3.05000000e-009,3.65631616e-005
,,,-3.02500000e-009,6.00006618e-005
,,,-3.00000000e-009,9.51569121e-005
,,,-2.97500000e-009,1.38281912e-004
,,,-2.95000000e-009,1.84688163e-004
,,,-2.92500000e-009,2.30156913e-004
,,,-2.90000000e-009,2.68125664e-004
,,,-2.87500000e-009,2.94844414e-004
,,,-2.85000000e-009,3.06094414e-004
,,,-2.82500000e-009,3.00000664e-004
,,,-2.80000000e-009,2.73750664e-004
,,,-2.77500000e-009,2.32031913e-004
,,,-2.75000000e-009,1.78594413e-004
,,,-2.72500000e-009,1.19531912e-004
,,,-2.70000000e-009,6.09381618e-005
,,,-2.67500000e-009,7.96941131e-006
,,,-2.65000000e-009,-3.32805891e-005
,,,-2.62500000e-009,-5.99993393e-005
,,,-2.60000000e-009,-6.84368394e-005
,,,-2.57500000e-009,-6.14055893e-005
,,,-2.55000000e-009,-4.21868391e-005
,,,-2.52500000e-009,-1.54680889e-005
,,,-2.50000000e-009,1.31256614e-005
,,,-2.47500000e-009,3.84381616e-005
,,,-2.45000000e-009,5.48444117e-005
,,,-2.42500000e-009,6.00006618e-005
,,,-2.40000000e-009,5.15631617e-005
,,,-2.37500000e-009,2.95319115e-005
,,,-2.35000000e-009,-3.28058879e-006
,,,-2.32500000e-009,-4.35930891e-005
,,,-2.30000000e-009,-8.62493395e-005
,,,-2.27500000e-009,-1.26093090e-004
,,,-2.25000000e-009,-1.58905590e-004
,,,-2.22500000e-009,-1.79999340e-004
,,,-2.20000000e-009,-1.85624340e-004
,,,-2.17500000e-009,-1.78593090e-004
,,,-2.15000000e-009,-1.61249340e-004
,,,-2.12500000e-009,-1.36874340e-004
,,,-2.10000000e-009,-1.10624340e-004
,,,-2.07500000e-009,-8.67180895e-005
,,,-2.05000000e-009,-6.89055894e-005
,,,-2.02500000e-009,-5.99993393e-005
,,,-2.00000000e-009,-6.23430893e-005
,,,-1.97500000e-009,-7.49993394e-005
,,,-1.95000000e-009,-9.51555896e-005
,,,-1.92500000e-009,-1.19999340e-004
,,,-1.90000000e-009,-1.45311840e-004
,,,-1.87500000e-009,-1.65936840e-004
,,,-1.85000000e-009,-1.78593090e-004
,,,-1.82500000e-009,-1.79999340e-004
,,,-1.80000000e-009,-1.69686840e-004
,,,-1.77500000e-009,-1.47655590e-004
,,,-1.75000000e-009,-1.17186840e-004
,,,-1.72500000e-009,-8.01555895e-005
,,,-1.70000000e-009,-4.07805891e-005
,,,-1.67500000e-009,-1.87433878e-006
,,,-1.65000000e-009,3.23444115e-005
,,,-1.62500000e-009,6.00006618e-005
,,,-1.60000000e-009,7.17194119e-005
,,,-1.57500000e-009,7.45319119e-005
,,,-1.55000000e-009,6.98444118e-005
,,,-1.52500000e-009,6.18756618e-005
,,,-1.50000000e-009,5.29694117e-005
,,,-1.47500000e-009,4.82819117e-005
,,,-1.45000000e-009,4.96881617e-005
,,,-1.42500000e-009,6.00006618e-005
,,,-1.40000000e-009,6.75006618e-005
,,,-1.37500000e-009,8.10944119e-005
,,,-1.35000000e-009,9.98444121e-005
,,,-1.32500000e-009,1.20938162e-004
,,,-1.30000000e-009,1.42500662e-004
,,,-1.27500000e-009,1.61719413e-004
,,,-1.25000000e-009,1.74844413e-004
,,,-1.22500000e-009,1.80000663e-004
,,,-1.20000000e-009,1.55156913e-004
,,,-1.17500000e-009,1.18594412e-004
,,,-1.15000000e-009,7.17194119e-005
,,,-1.12500000e-009,1.87506614e-005
,,,-1.10000000e-009,-3.60930891e-005
,,,-1.07500000e-009,-8.95305895e-005
,,,-1.05000000e-009,-1.38280590e-004
,,,-1.02500000e-009,-1.79999340e-004
,,,-1.00000000e-009,-2.37186841e-004
,,,-9.75000000e-010,-2.90155591e-004
,,,-9.50000000e-010,-3.38905592e-004
,,,-9.25000000e-010,-3.82968092e-004
,,,-9.00000000e-010,-4.23280592e-004
,,,-8.75000000e-010,-4.61718093e-004
,,,-8.50000000e-010,-4.99686843e-004
,,,-8.25000000e-010,-5.39999343e-004
,,,-8.00000000e-010,-6.10311844e-004
,,,-7.75000000e-010,-6.89999345e-004
,,,-7.50000000e-010,-7.77655596e-004
,,,-7.25000000e-010,-8.71405596e-004
,,,-7.00000000e-010,-9.68905597e-004
,,,-6.75000000e-010,-1.06734310e-003
,,,-6.50000000e-010,-1.16437435e-003
,,,-6.25000000e-010,-1.25999935e-003
,,,-6.00000000e-010,-1.37531185e-003
,,,-5.75000000e-010,-1.49249935e-003
,,,-5.50000000e-010,-1.61203060e-003
,,,-5.25000000e-010,-1.73249935e-003
,,,-5.00000000e-010,-1.85343685e-003
,,,-4.75000000e-010,-1.97437436e-003
,,,-4.50000000e-010,-2.09624936e-003
,,,-4.25000000e-010,-2.21999936e-003
,,,-4.00000000e-010,-2.36109311e-003
,,,-3.75000000e-010,-2.51062436e-003
,,,-3.50000000e-010,-2.66906186e-003
,,,-3.25000000e-010,-2.83499936e-003
,,,-3.00000000e-010,-3.00656186e-003
,,,-2.75000000e-010,-3.18234312e-003
,,,-2.50000000e-010,-3.36093687e-003
,,,-2.25000000e-010,-3.53999937e-003
,,,-2.00000000e-010,-3.71999937e-003
,,,-1.75000000e-010,-3.90328062e-003
,,,-1.50000000e-010,-4.08843687e-003
,,,-1.25000000e-010,-4.27453063e-003
,,,-1.00000000e-010,-4.45828063e-003
,,,-7.50000000e-011,-4.63874938e-003
,,,-5.00000000e-011,-4.81312438e-003
,,,-2.50000000e-011,-4.97999938e-003
,,,0.00000000e+000,-5.12531188e-003
,,,2.50000000e-011,-5.26687438e-003
,,,5.00000000e-011,-5.40562439e-003
,,,7.50000000e-011,-5.54203064e-003
,,,1.00000000e-010,-5.67656189e-003
,,,1.25000000e-010,-5.80828064e-003
,,,1.50000000e-010,-5.93624939e-003
,,,1.75000000e-010,-6.05999939e-003
,,,2.00000000e-010,-6.15421814e-003
,,,2.25000000e-010,-6.24703064e-003
,,,2.50000000e-010,-6.34078064e-003
,,,2.75000000e-010,-6.43406189e-003
,,,3.00000000e-010,-6.52640565e-003
,,,3.25000000e-010,-6.61640565e-003
,,,3.50000000e-010,-6.70124940e-003
,,,3.75000000e-010,-6.77999940e-003
,,,4.00000000e-010,-6.81796815e-003
,,,4.25000000e-010,-6.85171815e-003
,,,4.50000000e-010,-6.88359315e-003
,,,4.75000000e-010,-6.91359315e-003
,,,5.00000000e-010,-6.94312440e-003
,,,5.25000000e-010,-6.97124940e-003
,,,5.50000000e-010,-6.99749940e-003
,,,5.75000000e-010,-7.01999940e-003
,,,6.00000000e-010,-7.00218690e-003
,,,6.25000000e-010,-6.98062440e-003
,,,6.50000000e-010,-6.95718690e-003
,,,6.75000000e-010,-6.93093690e-003
,,,7.00000000e-010,-6.90093690e-003
,,,7.25000000e-010,-6.86718690e-003
,,,7.50000000e-010,-6.82734315e-003
,,,7.75000000e-010,-6.77999940e-003
,,,8.00000000e-010,-6.69421815e-003
,,,8.25000000e-010,-6.60234315e-003
,,,8.50000000e-010,-6.50765565e-003
,,,8.75000000e-010,-6.41249939e-003
,,,9.00000000e-010,-6.31874939e-003
,,,9.25000000e-010,-6.22828064e-003
,,,9.50000000e-010,-6.14203064e-003
,,,9.75000000e-010,-6.05999939e-003
,,,1.00000000e-009,-5.96015564e-003
,,,1.02500000e-009,-5.86359314e-003
,,,1.05000000e-009,-5.77031189e-003
,,,1.07500000e-009,-5.68078064e-003
,,,1.10000000e-009,-5.59453064e-003
,,,1.12500000e-009,-5.50968689e-003
,,,1.15000000e-009,-5.42578064e-003
,,,1.17500000e-009,-5.33999939e-003
,,,1.20000000e-009,-5.23921813e-003
,,,1.22500000e-009,-5.13187438e-003
,,,1.25000000e-009,-5.01749938e-003
,,,1.27500000e-009,-4.89749938e-003
,,,1.30000000e-009,-4.77234313e-003
,,,1.32500000e-009,-4.64343688e-003
,,,1.35000000e-009,-4.51218688e-003
,,,1.37500000e-009,-4.37999938e-003
,,,1.40000000e-009,-4.24593688e-003
,,,1.42500000e-009,-4.11140562e-003
,,,1.45000000e-009,-3.97828062e-003
,,,1.47500000e-009,-3.84984312e-003
,,,1.50000000e-009,-3.72796812e-003
,,,1.52500000e-009,-3.61453062e-003
,,,1.55000000e-009,-3.51187437e-003
,,,1.57500000e-009,-3.41999937e-003
,,,1.60000000e-009,-3.34312437e-003
,,,1.62500000e-009,-3.26953062e-003
,,,1.65000000e-009,-3.19781187e-003
,,,1.67500000e-009,-3.12609312e-003
,,,1.70000000e-009,-3.05343687e-003
,,,1.72500000e-009,-2.97843686e-003
,,,1.75000000e-009,-2.90062436e-003
,,,1.77500000e-009,-2.81999936e-003
,,,1.80000000e-009,-2.74640561e-003
,,,1.82500000e-009,-2.66671811e-003
,,,1.85000000e-009,-2.58328061e-003
,,,1.87500000e-009,-2.49843686e-003
,,,1.90000000e-009,-2.41640561e-003
,,,1.92500000e-009,-2.34046811e-003
,,,1.95000000e-009,-2.27437436e-003
,,,1.97500000e-009,-2.21999936e-003
,,,2.00000000e-009,-2.18999936e-003
,,,2.02500000e-009,-2.16749936e-003
,,,2.05000000e-009,-2.15156186e-003
,,,2.07500000e-009,-2.13984311e-003
,,,2.10000000e-009,-2.13093686e-003
,,,2.12500000e-009,-2.12296811e-003
,,,2.15000000e-009,-2.11312436e-003
,,,2.17500000e-009,-2.09999936e-003
,,,2.20000000e-009,-2.09015561e-003
,,,2.22500000e-009,-2.06906186e-003
,,,2.25000000e-009,-2.03578061e-003
,,,2.27500000e-009,-1.99124936e-003
,,,2.30000000e-009,-1.93687436e-003
,,,2.32500000e-009,-1.87499936e-003
,,,2.35000000e-009,-1.80843685e-003
,,,2.37500000e-009,-1.73999935e-003
,,,2.40000000e-009,-1.68093685e-003
,,,2.42500000e-009,-1.62234310e-003
,,,2.45000000e-009,-1.56656185e-003
,,,2.47500000e-009,-1.51453060e-003
,,,2.50000000e-009,-1.46906185e-003
,,,2.52500000e-009,-1.43109310e-003
,,,2.55000000e-009,-1.40109310e-003
,,,2.57500000e-009,-1.37999935e-003
,,,2.60000000e-009,-1.37437435e-003
,,,2.62500000e-009,-1.37343685e-003
,,,2.65000000e-009,-1.37531185e-003
,,,2.67500000e-009,-1.37906185e-003
,,,2.70000000e-009,-1.38234310e-003
,,,2.72500000e-009,-1.38421810e-003
,,,2.75000000e-009,-1.38374935e-003
,,,2.77500000e-009,-1.37999935e-003
,,,2.80000000e-009,-1.37812435e-003
,,,2.82500000e-009,-1.37062435e-003
,,,2.85000000e-009,-1.35796810e-003
,,,2.87500000e-009,-1.34109310e-003
,,,2.90000000e-009,-1.32093685e-003
,,,2.92500000e-009,-1.29984310e-003
,,,2.95000000e-009,-1.27874935e-003
,,,2.97500000e-009,-1.25999935e-003
,,,3.00000000e-009,-1.24734310e-003
,,,3.02500000e-009,-1.23796810e-003
,,,3.05000000e-009,-1.23234310e-003
,,,3.07500000e-009,-1.23046810e-003
,,,3.10000000e-009,-1.23281185e-003
,,,3.12500000e-009,-1.23937435e-003
,,,3.15000000e-009,-1.24874935e-003
,,,3.17500000e-009,-1.25999935e-003
,,,3.20000000e-009,-1.27406185e-003
,,,3.22500000e-009,-1.28578060e-003
,,,3.25000000e-009,-1.29421810e-003
,,,3.27500000e-009,-1.29796810e-003
,,,3.30000000e-009,-1.29656185e-003
,,,3.32500000e-009,-1.28953060e-003
,,,3.35000000e-009,-1.27734310e-003
,,,3.37500000e-009,-1.25999935e-003
,,,3.40000000e-009,-1.23796810e-003
,,,3.42500000e-009,-1.21312435e-003
,,,3.45000000e-009,-1.18828060e-003
,,,3.47500000e-009,-1.16531185e-003
,,,3.50000000e-009,-1.14749935e-003
,,,3.52500000e-009,-1.13624935e-003
,,,3.55000000e-009,-1.13390560e-003
,,,3.57500000e-009,-1.13999935e-003
,,,3.60000000e-009,-1.15171810e-003
,,,3.62500000e-009,-1.16953060e-003
,,,3.65000000e-009,-1.19062435e-003
,,,3.67500000e-009,-1.21312435e-003
,,,3.70000000e-009,-1.23374935e-003
,,,3.72500000e-009,-1.24968685e-003
,,,3.75000000e-009,-1.25906185e-003
,,,3.77500000e-009,-1.25999935e-003
,,,3.80000000e-009,-1.24734310e-003
,,,3.82500000e-009,-1.22437435e-003
,,,3.85000000e-009,-1.19343685e-003
,,,3.87500000e-009,-1.15734310e-003
,,,3.90000000e-009,-1.11937435e-003
,,,3.92500000e-009,-1.08187435e-003
,,,3.95000000e-009,-1.04812435e-003
,,,3.97500000e-009,-1.01999935e-003
,,,4.00000000e-009,-9.95624347e-004
,,,4.02500000e-009,-9.76874347e-004
,,,4.05000000e-009,-9.63280597e-004
,,,4.07500000e-009,-9.52968097e-004
,,,4.10000000e-009,-9.43593097e-004
,,,4.12500000e-009,-9.33280597e-004
,,,4.15000000e-009,-9.19686847e-004
,,,4.17500000e-009,-8.99999347e-004
,,,4.20000000e-009,-8.71874346e-004
,,,4.22500000e-009,-8.35780596e-004
,,,4.25000000e-009,-7.92655596e-004
,,,4.27500000e-009,-7.44374345e-004
,,,4.30000000e-009,-6.92811845e-004
,,,4.32500000e-009,-6.39843094e-004
,,,4.35000000e-009,-5.88749344e-004
,,,4.37500000e-009,-5.39999343e-004
,,,4.40000000e-009,-4.96405593e-004
,,,4.42500000e-009,-4.57499343e-004
,,,4.45000000e-009,-4.22811842e-004
,,,4.47500000e-009,-3.92343092e-004
,,,4.50000000e-009,-3.65624342e-004
,,,4.52500000e-009,-3.41718092e-004
,,,4.55000000e-009,-3.20155592e-004
,,,4.57500000e-009,-2.99999341e-004
,,,4.60000000e-009,-2.84061841e-004
,,,4.62500000e-009,-2.67655591e-004
,,,4.65000000e-009,-2.50780591e-004
,,,4.67500000e-009,-2.34374341e-004
,,,4.70000000e-009,-2.17968091e-004
,,,4.72500000e-009,-2.03436841e-004
,,,4.75000000e-009,-1.90311840e-004
,,,4.77500000e-009,-1.79999340e-004
,,,4.80000000e-009,-1.77186840e-004
,,,4.82500000e-009,-1.75780590e-004
,,,4.85000000e-009,-1.75780590e-004
,,,4.87500000e-009,-1.76718090e-004
,,,4.90000000e-009,-1.78124340e-004
,,,4.92500000e-009,-1.79530590e-004
,,,4.95000000e-009,-1.80468090e-004
,,,4.97500000e-009,-1.79999340e-004
,,,5.00000000e-009,-1.80936840e-004
,,,5.02500000e-009,-1.77655590e-004
,,,5.05000000e-009,-1.70155590e-004
,,,5.07500000e-009,-1.57030590e-004
,,,5.10000000e-009,-1.39218090e-004
,,,5.12500000e-009,-1.16718090e-004
,,,5.15000000e-009,-8.99993395e-005
,,,5.17500000e-009,-5.99993393e-005
,,,5.20000000e-009,-3.32805891e-005
,,,5.22500000e-009,-6.09308881e-006
,,,5.25000000e-009,1.92194114e-005
,,,5.27500000e-009,4.12506616e-005
,,,5.30000000e-009,5.76569117e-005
,,,5.32500000e-009,6.70319118e-005
,,,5.35000000e-009,6.79694118e-005
,,,5.37500000e-009,6.00006618e-005
,,,5.40000000e-009,3.93756616e-005
,,,5.42500000e-009,1.21881613e-005
,,,5.45000000e-009,-2.01555889e-005
,,,5.47500000e-009,-5.53118392e-005
,,,5.50000000e-009,-9.09368396e-005
,,,5.52500000e-009,-1.25155590e-004
,,,5.55000000e-009,-1.55155590e-004
,,,5.57500000e-009,-1.79999340e-004
,,,5.60000000e-009,-1.98749340e-004
,,,5.62500000e-009,-2.10468091e-004
,,,5.65000000e-009,-2.14686841e-004
,,,5.67500000e-009,-2.13749341e-004
,,,5.70000000e-009,-2.07655591e-004
,,,5.72500000e-009,-1.99218090e-004
,,,5.75000000e-009,-1.89374340e-004
,,,5.77500000e-009,-1.79999340e-004
,,,5.80000000e-009,-1.72968090e-004
,,,5.82500000e-009,-1.68749340e-004
,,,5.85000000e-009,-1.66874340e-004
,,,5.87500000e-009,-1.67343090e-004
,,,5.90000000e-009,-1.69686840e-004
,,,5.92500000e-009,-1.73436840e-004
,,,5.95000000e-009,-1.76718090e-004
