RawData/SinglePhotoelectron/L7_2pt2A_5mV/wave017_Ch1.csv

"Record Length",1000,"Points",-7.72500000e-009,4.26569116e-005
"Sample Interval",2.50000000e-011,s,-7.70000000e-009,5.90631618e-005
"Trigger Point",309,"Samples",-7.67500000e-009,6.79694118e-005
"Trigger Time",1.77821832e-011,s,-7.65000000e-009,6.84381618e-005
"",,,-7.62500000e-009,6.00006618e-005
"Horizontal Offset",-7.72500000e-009,s,-7.60000000e-009,4.26569116e-005
,,,-7.57500000e-009,1.96881614e-005
,,,-7.55000000e-009,-5.62433881e-006
,,,-7.52500000e-009,-3.04680890e-005
,,,-7.50000000e-009,-5.10930892e-005
,,,-7.47500000e-009,-6.42180893e-005
,,,-7.45000000e-009,-6.79680894e-005
,,,-7.42500000e-009,-5.99993393e-005
,,,-7.40000000e-009,-4.12493391e-005
,,,-7.37500000e-009,-1.31243389e-005
,,,-7.35000000e-009,2.25006614e-005
,,,-7.32500000e-009,6.18756618e-005
,,,-7.30000000e-009,1.00313162e-004
,,,-7.27500000e-009,1.35000662e-004
,,,-7.25000000e-009,1.62656913e-004
,,,-7.22500000e-009,1.80000663e-004
,,,-7.20000000e-009,1.84688163e-004
,,,-7.17500000e-009,1.79063163e-004
,,,-7.15000000e-009,1.64531913e-004
,,,-7.12500000e-009,1.43438162e-004
,,,-7.10000000e-009,1.19063162e-004
,,,-7.07500000e-009,9.51569121e-005
,,,-7.05000000e-009,7.45319119e-005
,,,-7.02500000e-009,6.00006618e-005
,,,-7.00000000e-009,5.25006617e-005
,,,-6.97500000e-009,5.15631617e-005
,,,-6.95000000e-009,5.62506617e-005
,,,-6.92500000e-009,6.37506618e-005
,,,-6.90000000e-009,7.07819119e-005
,,,-6.87500000e-009,7.40631619e-005
,,,-6.85000000e-009,7.12506619e-005
,,,-6.82500000e-009,6.00006618e-005
,,,-6.80000000e-009,3.93756616e-005
,,,-6.77500000e-009,1.17194113e-005
,,,-6.75000000e-009,-2.24993390e-005
,,,-6.72500000e-009,-5.99993393e-005
,,,-6.70000000e-009,-9.79680896e-005
,,,-6.67500000e-009,-1.32186840e-004
,,,-6.65000000e-009,-1.60311840e-004
,,,-6.62500000e-009,-1.79999340e-004
,,,-6.60000000e-009,-1.88436840e-004
,,,-6.57500000e-009,-1.86093090e-004
,,,-6.55000000e-009,-1.75311840e-004
,,,-6.52500000e-009,-1.57030590e-004
,,,-6.50000000e-009,-1.34061840e-004
,,,-6.47500000e-009,-1.08749340e-004
,,,-6.45000000e-009,-8.34368395e-005
,,,-6.42500000e-009,-5.99993393e-005
,,,-6.40000000e-009,-4.07805891e-005
,,,-6.37500000e-009,-2.53118390e-005
,,,-6.35000000e-009,-1.31243389e-005
,,,-6.32500000e-009,-2.34308878e-006
,,,-6.30000000e-009,8.43816131e-006
,,,-6.27500000e-009,2.15631614e-005
,,,-6.25000000e-009,3.84381616e-005
,,,-6.22500000e-009,6.00006618e-005
,,,-6.20000000e-009,8.62506620e-005
,,,-6.17500000e-009,1.17188162e-004
,,,-6.15000000e-009,1.50938163e-004
,,,-6.12500000e-009,1.86094413e-004
,,,-6.10000000e-009,2.20781913e-004
,,,-6.07500000e-009,2.52656913e-004
,,,-6.05000000e-009,2.79844414e-004
,,,-6.02500000e-009,3.00000664e-004
,,,-6.00000000e-009,3.09844414e-004
,,,-5.97500000e-009,3.10781914e-004
,,,-5.95000000e-009,3.03750664e-004
,,,-5.92500000e-009,2.88750664e-004
,,,-5.90000000e-009,2.67656914e-004
,,,-5.87500000e-009,2.41406913e-004
,,,-5.85000000e-009,2.11406913e-004
,,,-5.82500000e-009,1.80000663e-004
,,,-5.80000000e-009,1.47188163e-004
,,,-5.77500000e-009,1.15313162e-004
,,,-5.75000000e-009,8.43756620e-005
,,,-5.72500000e-009,5.43756617e-005
,,,-5.70000000e-009,2.53131615e-005
,,,-5.67500000e-009,-3.28058879e-006
,,,-5.65000000e-009,-3.18743390e-005
,,,-5.62500000e-009,-5.99993393e-005
,,,-5.60000000e-009,-8.57805895e-005
,,,-5.57500000e-009,-1.09686840e-004
,,,-5.55000000e-009,-1.30780590e-004
,,,-5.52500000e-009,-1.48593090e-004
,,,-5.50000000e-009,-1.63124340e-004
,,,-5.47500000e-009,-1.73436840e-004
,,,-5.45000000e-009,-1.79061840e-004
,,,-5.42500000e-009,-1.79999340e-004
,,,-5.40000000e-009,-1.72968090e-004
,,,-5.37500000e-009,-1.61718090e-004
,,,-5.35000000e-009,-1.46249340e-004
,,,-5.32500000e-009,-1.29374340e-004
,,,-5.30000000e-009,-1.11093090e-004
,,,-5.27500000e-009,-9.28118396e-005
,,,-5.25000000e-009,-7.54680894e-005
,,,-5.22500000e-009,-5.99993393e-005
,,,-5.20000000e-009,-4.40618391e-005
,,,-5.17500000e-009,-2.95305890e-005
,,,-5.15000000e-009,-1.59368389e-005
,,,-5.12500000e-009,-3.28058879e-006
,,,-5.10000000e-009,9.84441132e-006
,,,-5.07500000e-009,2.43756615e-005
,,,-5.05000000e-009,4.07819116e-005
,,,-5.02500000e-009,6.00006618e-005
,,,-5.00000000e-009,8.34381620e-005
,,,-4.97500000e-009,1.10156912e-004
,,,-4.95000000e-009,1.39219412e-004
,,,-4.92500000e-009,1.70156913e-004
,,,-4.90000000e-009,2.02500663e-004
,,,-4.87500000e-009,2.35313163e-004
,,,-4.85000000e-009,2.68125664e-004
,,,-4.82500000e-009,3.00000664e-004
,,,-4.80000000e-009,3.27188164e-004
,,,-4.77500000e-009,3.51563164e-004
,,,-4.75000000e-009,3.72188164e-004
,,,-4.72500000e-009,3.88594415e-004
,,,-4.70000000e-009,4.01719415e-004
,,,-4.67500000e-009,4.10625665e-004
,,,-4.65000000e-009,4.16719415e-004
,,,-4.62500000e-009,4.20000665e-004
,,,-4.60000000e-009,4.15313165e-004
,,,-4.57500000e-009,4.10156915e-004
,,,-4.55000000e-009,4.05469415e-004
,,,-4.52500000e-009,4.02188165e-004
,,,-4.50000000e-009,4.01719415e-004
,,,-4.47500000e-009,4.04063165e-004
,,,-4.45000000e-009,4.10156915e-004
,,,-4.42500000e-009,4.20000665e-004
,,,-4.40000000e-009,4.24688165e-004
,,,-4.37500000e-009,4.30313165e-004
,,,-4.35000000e-009,4.35938165e-004
,,,-4.32500000e-009,4.40625665e-004
,,,-4.30000000e-009,4.42500665e-004
,,,-4.27500000e-009,4.40156915e-004
,,,-4.25000000e-009,4.32656915e-004
,,,-4.22500000e-009,4.20000665e-004
,,,-4.20000000e-009,3.93750665e-004
,,,-4.17500000e-009,3.63281914e-004
,,,-4.15000000e-009,3.29063164e-004
,,,-4.12500000e-009,2.93906914e-004
,,,-4.10000000e-009,2.59688163e-004
,,,-4.07500000e-009,2.28281913e-004
,,,-4.05000000e-009,2.01563163e-004
,,,-4.02500000e-009,1.80000663e-004
,,,-4.00000000e-009,1.59844413e-004
,,,-3.97500000e-009,1.44375662e-004
,,,-3.95000000e-009,1.32188162e-004
,,,-3.92500000e-009,1.22344412e-004
,,,-3.90000000e-009,1.12031912e-004
,,,-3.87500000e-009,9.93756621e-005
,,,-3.85000000e-009,8.25006620e-005
,,,-3.82500000e-009,6.00006618e-005
,,,-3.80000000e-009,2.85944115e-005
,,,-3.77500000e-009,-8.90558884e-006
,,,-3.75000000e-009,-5.29680892e-005
,,,-3.72500000e-009,-1.01249340e-004
,,,-3.70000000e-009,-1.52343090e-004
,,,-3.67500000e-009,-2.03436841e-004
,,,-3.65000000e-009,-2.53593091e-004
,,,-3.62500000e-009,-2.99999341e-004
,,,-3.60000000e-009,-3.39374342e-004
,,,-3.57500000e-009,-3.74061842e-004
,,,-3.55000000e-009,-4.04999342e-004
,,,-3.52500000e-009,-4.33593093e-004
,,,-3.50000000e-009,-4.60311843e-004
,,,-3.47500000e-009,-4.86561843e-004
,,,-3.45000000e-009,-5.12811843e-004
,,,-3.42500000e-009,-5.39999343e-004
,,,-3.40000000e-009,-5.61561844e-004
,,,-3.37500000e-009,-5.82655594e-004
,,,-3.35000000e-009,-6.03749344e-004
,,,-3.32500000e-009,-6.23436844e-004
,,,-3.30000000e-009,-6.40311844e-004
,,,-3.27500000e-009,-6.52499344e-004
,,,-3.25000000e-009,-6.59530594e-004
,,,-3.22500000e-009,-6.59999344e-004
,,,-3.20000000e-009,-6.47811844e-004
,,,-3.17500000e-009,-6.30936844e-004
,,,-3.15000000e-009,-6.11249344e-004
,,,-3.12500000e-009,-5.91093094e-004
,,,-3.10000000e-009,-5.72343094e-004
,,,-3.07500000e-009,-5.56874344e-004
,,,-3.05000000e-009,-5.46093094e-004
,,,-3.02500000e-009,-5.39999343e-004
,,,-3.00000000e-009,-5.35780593e-004
,,,-2.97500000e-009,-5.36718093e-004
,,,-2.95000000e-009,-5.41405593e-004
,,,-2.92500000e-009,-5.47499344e-004
,,,-2.90000000e-009,-5.53124344e-004
,,,-2.87500000e-009,-5.55468094e-004
,,,-2.85000000e-009,-5.51718094e-004
,,,-2.82500000e-009,-5.39999343e-004
,,,-2.80000000e-009,-5.16093093e-004
,,,-2.77500000e-009,-4.83749343e-004
,,,-2.75000000e-009,-4.43436843e-004
,,,-2.72500000e-009,-3.96561842e-004
,,,-2.70000000e-009,-3.44999342e-004
,,,-2.67500000e-009,-2.90155591e-004
,,,-2.65000000e-009,-2.34843091e-004
,,,-2.62500000e-009,-1.79999340e-004
,,,-2.60000000e-009,-1.30780590e-004
,,,-2.57500000e-009,-8.62493395e-005
,,,-2.55000000e-009,-4.73430892e-005
,,,-2.52500000e-009,-1.49993389e-005
,,,-2.50000000e-009,1.21881613e-005
,,,-2.47500000e-009,3.32819115e-005
,,,-2.45000000e-009,4.92194117e-005
,,,-2.42500000e-009,6.00006618e-005
,,,-2.40000000e-009,6.00006618e-005
,,,-2.37500000e-009,5.57819117e-005
,,,-2.35000000e-009,4.68756616e-005
,,,-2.32500000e-009,3.37506615e-005
,,,-2.30000000e-009,1.64069114e-005
,,,-2.27500000e-009,-5.15558881e-006
,,,-2.25000000e-009,-3.09368390e-005
,,,-2.22500000e-009,-5.99993393e-005
,,,-2.20000000e-009,-9.74993396e-005
,,,-2.17500000e-009,-1.35468090e-004
,,,-2.15000000e-009,-1.72968090e-004
,,,-2.12500000e-009,-2.08124341e-004
,,,-2.10000000e-009,-2.39530591e-004
,,,-2.07500000e-009,-2.65780591e-004
,,,-2.05000000e-009,-2.85936841e-004
,,,-2.02500000e-009,-2.99999341e-004
,,,-2.00000000e-009,-3.10311841e-004
,,,-1.97500000e-009,-3.14530591e-004
,,,-1.95000000e-009,-3.14061841e-004
,,,-1.92500000e-009,-3.10780591e-004
,,,-1.90000000e-009,-3.06093091e-004
,,,-1.87500000e-009,-3.01874341e-004
,,,-1.85000000e-009,-2.99530591e-004
,,,-1.82500000e-009,-2.99999341e-004
,,,-1.80000000e-009,-3.07030591e-004
,,,-1.77500000e-009,-3.17343092e-004
,,,-1.75000000e-009,-3.31405592e-004
,,,-1.72500000e-009,-3.47811842e-004
,,,-1.70000000e-009,-3.66093092e-004
,,,-1.67500000e-009,-3.84843092e-004
,,,-1.65000000e-009,-4.03124342e-004
,,,-1.62500000e-009,-4.19999342e-004
,,,-1.60000000e-009,-4.36874343e-004
,,,-1.57500000e-009,-4.51874343e-004
,,,-1.55000000e-009,-4.66405593e-004
,,,-1.52500000e-009,-4.79999343e-004
,,,-1.50000000e-009,-4.94061843e-004
,,,-1.47500000e-009,-5.08124343e-004
,,,-1.45000000e-009,-5.23593093e-004
,,,-1.42500000e-009,-5.39999343e-004
,,,-1.40000000e-009,-5.60155594e-004
,,,-1.37500000e-009,-5.81718094e-004
,,,-1.35000000e-009,-6.03749344e-004
,,,-1.32500000e-009,-6.24843094e-004
,,,-1.30000000e-009,-6.42186844e-004
,,,-1.27500000e-009,-6.54843094e-004
,,,-1.25000000e-009,-6.61405595e-004
,,,-1.22500000e-009,-6.59999344e-004
,,,-1.20000000e-009,-6.59999344e-004
,,,-1.17500000e-009,-6.55311844e-004
,,,-1.15000000e-009,-6.45468094e-004
,,,-1.12500000e-009,-6.31405594e-004
,,,-1.10000000e-009,-6.13124344e-004
,,,-1.07500000e-009,-5.91093094e-004
,,,-1.05000000e-009,-5.66249344e-004
,,,-1.02500000e-009,-5.39999343e-004
,,,-1.00000000e-009,-5.35311843e-004
,,,-9.75000000e-010,-5.34843093e-004
,,,-9.50000000e-010,-5.38124343e-004
,,,-9.25000000e-010,-5.42343093e-004
,,,-9.00000000e-010,-5.46561844e-004
,,,-8.75000000e-010,-5.47968094e-004
,,,-8.50000000e-010,-5.45624344e-004
,,,-8.25000000e-010,-5.39999343e-004
,,,-8.00000000e-010,-5.62499344e-004
,,,-7.75000000e-010,-5.88749344e-004
,,,-7.50000000e-010,-6.17343094e-004
,,,-7.25000000e-010,-6.48280594e-004
,,,-7.00000000e-010,-6.79686845e-004
,,,-6.75000000e-010,-7.12030595e-004
,,,-6.50000000e-010,-7.45311845e-004
,,,-6.25000000e-010,-7.79999346e-004
,,,-6.00000000e-010,-8.55936846e-004
,,,-5.75000000e-010,-9.41249347e-004
,,,-5.50000000e-010,-1.03312435e-003
,,,-5.25000000e-010,-1.12874935e-003
,,,-5.00000000e-010,-1.22437435e-003
,,,-4.75000000e-010,-1.31859310e-003
,,,-4.50000000e-010,-1.41046810e-003
,,,-4.25000000e-010,-1.49999935e-003
,,,-4.00000000e-010,-1.62468685e-003
,,,-3.75000000e-010,-1.75828060e-003
,,,-3.50000000e-010,-1.90265561e-003
,,,-3.25000000e-010,-2.05874936e-003
,,,-3.00000000e-010,-2.22796811e-003
,,,-2.75000000e-010,-2.41031186e-003
,,,-2.50000000e-010,-2.60765561e-003
,,,-2.25000000e-010,-2.81999936e-003
,,,-2.00000000e-010,-3.06703062e-003
,,,-1.75000000e-010,-3.33093687e-003
,,,-1.50000000e-010,-3.60703062e-003
,,,-1.25000000e-010,-3.88968687e-003
,,,-1.00000000e-010,-4.17328063e-003
,,,-7.50000000e-011,-4.45171813e-003
,,,-5.00000000e-011,-4.72171813e-003
,,,-2.50000000e-011,-4.97999938e-003
,,,0.00000000e+000,-5.22046813e-003
,,,2.50000000e-011,-5.45437439e-003
,,,5.00000000e-011,-5.68453064e-003
,,,7.50000000e-011,-5.91468689e-003
,,,1.00000000e-010,-6.14906189e-003
,,,1.25000000e-010,-6.38999939e-003
,,,1.50000000e-010,-6.64031190e-003
,,,1.75000000e-010,-6.89999940e-003
,,,2.00000000e-010,-7.13859315e-003
,,,2.25000000e-010,-7.38562440e-003
,,,2.50000000e-010,-7.64015566e-003
,,,2.75000000e-010,-7.89749941e-003
,,,3.00000000e-010,-8.15062441e-003
,,,3.25000000e-010,-8.39343691e-003
,,,3.50000000e-010,-8.61843691e-003
,,,3.75000000e-010,-8.81999942e-003
,,,4.00000000e-010,-8.94046817e-003
,,,4.25000000e-010,-9.03656192e-003
,,,4.50000000e-010,-9.11109317e-003
,,,4.75000000e-010,-9.16921817e-003
,,,5.00000000e-010,-9.21374942e-003
,,,5.25000000e-010,-9.24890567e-003
,,,5.50000000e-010,-9.27749942e-003
,,,5.75000000e-010,-9.29999942e-003
,,,6.00000000e-010,-9.25828067e-003
,,,6.25000000e-010,-9.21703067e-003
,,,6.50000000e-010,-9.17765567e-003
,,,6.75000000e-010,-9.13968692e-003
,,,7.00000000e-010,-9.10031192e-003
,,,7.25000000e-010,-9.05718692e-003
,,,7.50000000e-010,-9.00515567e-003
,,,7.75000000e-010,-8.93999942e-003
,,,8.00000000e-010,-8.80406192e-003
,,,8.25000000e-010,-8.65499941e-003
,,,8.50000000e-010,-8.49515566e-003
,,,8.75000000e-010,-8.32687441e-003
,,,9.00000000e-010,-8.15343691e-003
,,,9.25000000e-010,-7.97671816e-003
,,,9.50000000e-010,-7.79859316e-003
,,,9.75000000e-010,-7.61999940e-003
,,,1.00000000e-009,-7.40484315e-003
,,,1.02500000e-009,-7.19343690e-003
,,,1.05000000e-009,-6.98671815e-003
,,,1.07500000e-009,-6.78703065e-003
,,,1.10000000e-009,-6.59531190e-003
,,,1.12500000e-009,-6.41062439e-003
,,,1.15000000e-009,-6.23296814e-003
,,,1.17500000e-009,-6.05999939e-003
,,,1.20000000e-009,-5.87390564e-003
,,,1.22500000e-009,-5.68781189e-003
,,,1.25000000e-009,-5.50312439e-003
,,,1.27500000e-009,-5.31937438e-003
,,,1.30000000e-009,-5.13843688e-003
,,,1.32500000e-009,-4.96124938e-003
,,,1.35000000e-009,-4.78828063e-003
,,,1.37500000e-009,-4.61999938e-003
,,,1.40000000e-009,-4.45968688e-003
,,,1.42500000e-009,-4.29984313e-003
,,,1.45000000e-009,-4.14093687e-003
,,,1.47500000e-009,-3.98484312e-003
,,,1.50000000e-009,-3.83296812e-003
,,,1.52500000e-009,-3.68718687e-003
,,,1.55000000e-009,-3.54937437e-003
,,,1.57500000e-009,-3.41999937e-003
,,,1.60000000e-009,-3.31453062e-003
,,,1.62500000e-009,-3.20953062e-003
,,,1.65000000e-009,-3.10453062e-003
,,,1.67500000e-009,-2.99906186e-003
,,,1.70000000e-009,-2.89359311e-003
,,,1.72500000e-009,-2.78812436e-003
,,,1.75000000e-009,-2.68312436e-003
,,,1.77500000e-009,-2.57999936e-003
,,,1.80000000e-009,-2.50078061e-003
,,,1.82500000e-009,-2.41593686e-003
,,,1.85000000e-009,-2.32640561e-003
,,,1.87500000e-009,-2.23265561e-003
,,,1.90000000e-009,-2.13656186e-003
,,,1.92500000e-009,-2.04046811e-003
,,,1.95000000e-009,-1.94765561e-003
,,,1.97500000e-009,-1.85999935e-003
,,,2.00000000e-009,-1.80328060e-003
,,,2.02500000e-009,-1.74890560e-003
,,,2.05000000e-009,-1.69687435e-003
,,,2.07500000e-009,-1.64812435e-003
,,,2.10000000e-009,-1.60265560e-003
,,,2.12500000e-009,-1.56234310e-003
,,,2.15000000e-009,-1.52812435e-003
,,,2.17500000e-009,-1.49999935e-003
,,,2.20000000e-009,-1.49953060e-003
,,,2.22500000e-009,-1.49999935e-003
,,,2.25000000e-009,-1.50046810e-003
,,,2.27500000e-009,-1.50046810e-003
,,,2.30000000e-009,-1.49999935e-003
,,,2.32500000e-009,-1.49953060e-003
,,,2.35000000e-009,-1.49906185e-003
,,,2.37500000e-009,-1.49999935e-003
,,,2.40000000e-009,-1.51734310e-003
,,,2.42500000e-009,-1.53281185e-003
,,,2.45000000e-009,-1.54640560e-003
,,,2.47500000e-009,-1.55953060e-003
,,,2.50000000e-009,-1.57218685e-003
,,,2.52500000e-009,-1.58578060e-003
,,,2.55000000e-009,-1.60171810e-003
,,,2.57500000e-009,-1.61999935e-003
,,,2.60000000e-009,-1.64999935e-003
,,,2.62500000e-009,-1.68046810e-003
,,,2.65000000e-009,-1.71187435e-003
,,,2.67500000e-009,-1.74281185e-003
,,,2.70000000e-009,-1.77328060e-003
,,,2.72500000e-009,-1.80374935e-003
,,,2.75000000e-009,-1.83281185e-003
,,,2.77500000e-009,-1.85999935e-003
,,,2.80000000e-009,-1.88718686e-003
,,,2.82500000e-009,-1.91062436e-003
,,,2.85000000e-009,-1.93031186e-003
,,,2.87500000e-009,-1.94624936e-003
,,,2.90000000e-009,-1.95843686e-003
,,,2.92500000e-009,-1.96828061e-003
,,,2.95000000e-009,-1.97531186e-003
,,,2.97500000e-009,-1.97999936e-003
,,,3.00000000e-009,-1.98046811e-003
,,,3.02500000e-009,-1.97953061e-003
,,,3.05000000e-009,-1.97812436e-003
,,,3.07500000e-009,-1.97624936e-003
,,,3.10000000e-009,-1.97578061e-003
,,,3.12500000e-009,-1.97578061e-003
,,,3.15000000e-009,-1.97765561e-003
,,,3.17500000e-009,-1.97999936e-003
,,,3.20000000e-009,-1.97718686e-003
,,,3.22500000e-009,-1.97437436e-003
,,,3.25000000e-009,-1.97296811e-003
,,,3.27500000e-009,-1.97296811e-003
,,,3.30000000e-009,-1.97390561e-003
,,,3.32500000e-009,-1.97578061e-003
,,,3.35000000e-009,-1.97812436e-003
,,,3.37500000e-009,-1.97999936e-003
,,,3.40000000e-009,-1.97343686e-003
,,,3.42500000e-009,-1.96406186e-003
,,,3.45000000e-009,-1.95281186e-003
,,,3.47500000e-009,-1.93921811e-003
,,,3.50000000e-009,-1.92281186e-003
,,,3.52500000e-009,-1.90453061e-003
,,,3.55000000e-009,-1.88343686e-003
,,,3.57500000e-009,-1.85999935e-003
,,,3.60000000e-009,-1.82812435e-003
,,,3.62500000e-009,-1.79390560e-003
,,,3.65000000e-009,-1.76015560e-003
,,,3.67500000e-009,-1.72687435e-003
,,,3.70000000e-009,-1.69546810e-003
,,,3.72500000e-009,-1.66734310e-003
,,,3.75000000e-009,-1.64203060e-003
,,,3.77500000e-009,-1.61999935e-003
,,,3.80000000e-009,-1.59656185e-003
,,,3.82500000e-009,-1.57359310e-003
,,,3.85000000e-009,-1.54968685e-003
,,,3.87500000e-009,-1.52437435e-003
,,,3.90000000e-009,-1.49531185e-003
,,,3.92500000e-009,-1.46249935e-003
,,,3.95000000e-009,-1.42453060e-003
,,,3.97500000e-009,-1.37999935e-003
,,,4.00000000e-009,-1.32937435e-003
,,,4.02500000e-009,-1.27265560e-003
,,,4.05000000e-009,-1.21124935e-003
,,,4.07500000e-009,-1.14703060e-003
,,,4.10000000e-009,-1.08187435e-003
,,,4.12500000e-009,-1.01765560e-003
,,,4.15000000e-009,-9.56718097e-004
,,,4.17500000e-009,-8.99999347e-004
,,,4.20000000e-009,-8.52186846e-004
,,,4.22500000e-009,-8.09999346e-004
,,,4.25000000e-009,-7.72968095e-004
,,,4.27500000e-009,-7.42030595e-004
,,,4.30000000e-009,-7.15780595e-004
,,,4.32500000e-009,-6.94218095e-004
,,,4.35000000e-009,-6.75936845e-004
,,,4.37500000e-009,-6.59999344e-004
,,,4.40000000e-009,-6.49218094e-004
,,,4.42500000e-009,-6.37030594e-004
,,,4.45000000e-009,-6.22968094e-004
,,,4.47500000e-009,-6.07499344e-004
,,,4.50000000e-009,-5.91093094e-004
,,,4.52500000e-009,-5.73280594e-004
,,,4.55000000e-009,-5.56405594e-004
,,,4.57500000e-009,-5.39999343e-004
,,,4.60000000e-009,-5.29218093e-004
,,,4.62500000e-009,-5.19843093e-004
,,,4.65000000e-009,-5.12343093e-004
,,,4.67500000e-009,-5.08593093e-004
,,,4.70000000e-009,-5.08593093e-004
,,,4.72500000e-009,-5.13749343e-004
,,,4.75000000e-009,-5.24530593e-004
,,,4.77500000e-009,-5.39999343e-004
,,,4.80000000e-009,-5.62499344e-004
,,,4.82500000e-009,-5.85936844e-004
,,,4.85000000e-009,-6.08905594e-004
,,,4.87500000e-009,-6.29061844e-004
,,,4.90000000e-009,-6.45936844e-004
,,,4.92500000e-009,-6.57655594e-004
,,,4.95000000e-009,-6.62343095e-004
,,,4.97500000e-009,-6.59999344e-004
,,,5.00000000e-009,-6.50155594e-004
,,,5.02500000e-009,-6.31405594e-004
,,,5.05000000e-009,-6.05155594e-004
,,,5.07500000e-009,-5.72811844e-004
,,,5.10000000e-009,-5.36249343e-004
,,,5.12500000e-009,-4.97343093e-004
,,,5.15000000e-009,-4.58436843e-004
,,,5.17500000e-009,-4.19999342e-004
,,,5.20000000e-009,-3.84374342e-004
,,,5.22500000e-009,-3.51093092e-004
,,,5.25000000e-009,-3.20155592e-004
,,,5.27500000e-009,-2.90624341e-004
,,,5.30000000e-009,-2.62499341e-004
,,,5.32500000e-009,-2.34843091e-004
,,,5.35000000e-009,-2.07655591e-004
,,,5.37500000e-009,-1.79999340e-004
,,,5.40000000e-009,-1.54686840e-004
,,,5.42500000e-009,-1.30311840e-004
,,,5.45000000e-009,-1.07343090e-004
,,,5.47500000e-009,-8.71868395e-005
,,,5.50000000e-009,-7.12493394e-005
,,,5.52500000e-009,-6.09368393e-005
,,,5.55000000e-009,-5.71868393e-005
,,,5.57500000e-009,-5.99993393e-005
,,,5.60000000e-009,-7.17180894e-005
,,,5.62500000e-009,-8.81243395e-005
,,,5.65000000e-009,-1.07343090e-004
,,,5.67500000e-009,-1.27499340e-004
,,,5.70000000e-009,-1.46718090e-004
,,,5.72500000e-009,-1.63124340e-004
,,,5.75000000e-009,-1.74843090e-004
,,,5.77500000e-009,-1.79999340e-004
,,,5.80000000e-009,-1.79999340e-004
,,,5.82500000e-009,-1.72499340e-004
,,,5.85000000e-009,-1.58905590e-004
,,,5.87500000e-009,-1.40624340e-004
