RawData/SinglePhotoelectron/L7_2pt2A_5mV/wave026_Ch1.csv

"Record Length",1000,"Points",-7.72500000e-009,-2.01093091e-004
"Sample Interval",2.50000000e-011,s,-7.70000000e-009,-1.95468090e-004
"Trigger Point",309,"Samples",-7.67500000e-009,-1.88436840e-004
"Trigger Time",2.24893878e-011,s,-7.65000000e-009,-1.79999340e-004
"",,,-7.62500000e-009,-1.70624340e-004
"Horizontal Offset",-7.72500000e-009,s,-7.60000000e-009,-1.60780590e-004
,,,-7.57500000e-009,-1.49530590e-004
,,,-7.55000000e-009,-1.36405590e-004
,,,-7.52500000e-009,-1.21405590e-004
,,,-7.50000000e-009,-1.04061840e-004
,,,-7.47500000e-009,-8.34368395e-005
,,,-7.45000000e-009,-5.99993393e-005
,,,-7.42500000e-009,-3.65618391e-005
,,,-7.40000000e-009,-1.31243389e-005
,,,-7.37500000e-009,9.37566132e-006
,,,-7.35000000e-009,2.90631615e-005
,,,-7.32500000e-009,4.50006616e-005
,,,-7.30000000e-009,5.57819117e-005
,,,-7.27500000e-009,6.09381618e-005
,,,-7.25000000e-009,6.00006618e-005
,,,-7.22500000e-009,4.96881617e-005
,,,-7.20000000e-009,3.42194115e-005
,,,-7.17500000e-009,1.50006614e-005
,,,-7.15000000e-009,-5.15558881e-006
,,,-7.12500000e-009,-2.43743390e-005
,,,-7.10000000e-009,-4.07805891e-005
,,,-7.07500000e-009,-5.34368392e-005
,,,-7.05000000e-009,-5.99993393e-005
,,,-7.02500000e-009,-6.42180893e-005
,,,-7.00000000e-009,-6.37493393e-005
,,,-6.97500000e-009,-5.99993393e-005
,,,-6.95000000e-009,-5.53118392e-005
,,,-6.92500000e-009,-5.10930892e-005
,,,-6.90000000e-009,-4.92180892e-005
,,,-6.87500000e-009,-5.15618392e-005
,,,-6.85000000e-009,-5.99993393e-005
,,,-6.82500000e-009,-7.78118394e-005
,,,-6.80000000e-009,-1.02186840e-004
,,,-6.77500000e-009,-1.31718090e-004
,,,-6.75000000e-009,-1.65468090e-004
,,,-6.72500000e-009,-2.01093091e-004
,,,-6.70000000e-009,-2.36249341e-004
,,,-6.67500000e-009,-2.69999341e-004
,,,-6.65000000e-009,-2.99999341e-004
,,,-6.62500000e-009,-3.25311842e-004
,,,-6.60000000e-009,-3.45936842e-004
,,,-6.57500000e-009,-3.62343092e-004
,,,-6.55000000e-009,-3.74999342e-004
,,,-6.52500000e-009,-3.85780592e-004
,,,-6.50000000e-009,-3.96561842e-004
,,,-6.47500000e-009,-4.07343092e-004
,,,-6.45000000e-009,-4.19999342e-004
,,,-6.42500000e-009,-4.32655593e-004
,,,-6.40000000e-009,-4.47186843e-004
,,,-6.37500000e-009,-4.63593093e-004
,,,-6.35000000e-009,-4.80936843e-004
,,,-6.32500000e-009,-4.98749343e-004
,,,-6.30000000e-009,-5.15155593e-004
,,,-6.27500000e-009,-5.29218093e-004
,,,-6.25000000e-009,-5.39999343e-004
,,,-6.22500000e-009,-5.44218093e-004
,,,-6.20000000e-009,-5.45624344e-004
,,,-6.17500000e-009,-5.44686843e-004
,,,-6.15000000e-009,-5.42343093e-004
,,,-6.12500000e-009,-5.40468093e-004
,,,-6.10000000e-009,-5.38593093e-004
,,,-6.07500000e-009,-5.38593093e-004
,,,-6.05000000e-009,-5.39999343e-004
,,,-6.02500000e-009,-5.39999343e-004
,,,-6.00000000e-009,-5.41874343e-004
,,,-5.97500000e-009,-5.45155593e-004
,,,-5.95000000e-009,-5.48436844e-004
,,,-5.92500000e-009,-5.50780594e-004
,,,-5.90000000e-009,-5.51249344e-004
,,,-5.87500000e-009,-5.47968094e-004
,,,-5.85000000e-009,-5.39999343e-004
,,,-5.82500000e-009,-5.24061843e-004
,,,-5.80000000e-009,-5.02968093e-004
,,,-5.77500000e-009,-4.77186843e-004
,,,-5.75000000e-009,-4.46718093e-004
,,,-5.72500000e-009,-4.12968092e-004
,,,-5.70000000e-009,-3.76405592e-004
,,,-5.67500000e-009,-3.37968092e-004
,,,-5.65000000e-009,-2.99999341e-004
,,,-5.62500000e-009,-2.64374341e-004
,,,-5.60000000e-009,-2.32499341e-004
,,,-5.57500000e-009,-2.05780591e-004
,,,-5.55000000e-009,-1.85624340e-004
,,,-5.52500000e-009,-1.72499340e-004
,,,-5.50000000e-009,-1.67811840e-004
,,,-5.47500000e-009,-1.70155590e-004
,,,-5.45000000e-009,-1.79999340e-004
,,,-5.42500000e-009,-1.97343090e-004
,,,-5.40000000e-009,-2.18436841e-004
,,,-5.37500000e-009,-2.40468091e-004
,,,-5.35000000e-009,-2.62030591e-004
,,,-5.32500000e-009,-2.80311841e-004
,,,-5.30000000e-009,-2.93436841e-004
,,,-5.27500000e-009,-3.00468091e-004
,,,-5.25000000e-009,-2.99999341e-004
,,,-5.22500000e-009,-2.92968091e-004
,,,-5.20000000e-009,-2.79843091e-004
,,,-5.17500000e-009,-2.61093091e-004
,,,-5.15000000e-009,-2.40468091e-004
,,,-5.12500000e-009,-2.19374341e-004
,,,-5.10000000e-009,-2.01093091e-004
,,,-5.07500000e-009,-1.87499340e-004
,,,-5.05000000e-009,-1.79999340e-004
,,,-5.02500000e-009,-1.81874340e-004
,,,-5.00000000e-009,-1.90311840e-004
,,,-4.97500000e-009,-2.04374341e-004
,,,-4.95000000e-009,-2.22655591e-004
,,,-4.92500000e-009,-2.43749341e-004
,,,-4.90000000e-009,-2.64374341e-004
,,,-4.87500000e-009,-2.84061841e-004
,,,-4.85000000e-009,-2.99999341e-004
,,,-4.82500000e-009,-3.13124341e-004
,,,-4.80000000e-009,-3.20155592e-004
,,,-4.77500000e-009,-3.22968092e-004
,,,-4.75000000e-009,-3.21093092e-004
,,,-4.72500000e-009,-3.16874342e-004
,,,-4.70000000e-009,-3.10780591e-004
,,,-4.67500000e-009,-3.05155591e-004
,,,-4.65000000e-009,-2.99999341e-004
,,,-4.62500000e-009,-2.98124341e-004
,,,-4.60000000e-009,-2.97655591e-004
,,,-4.57500000e-009,-2.99530591e-004
,,,-4.55000000e-009,-3.02343091e-004
,,,-4.52500000e-009,-3.04686841e-004
,,,-4.50000000e-009,-3.06093091e-004
,,,-4.47500000e-009,-3.04686841e-004
,,,-4.45000000e-009,-2.99999341e-004
,,,-4.42500000e-009,-2.93905591e-004
,,,-4.40000000e-009,-2.84061841e-004
,,,-4.37500000e-009,-2.71405591e-004
,,,-4.35000000e-009,-2.55468091e-004
,,,-4.32500000e-009,-2.37655591e-004
,,,-4.30000000e-009,-2.18436841e-004
,,,-4.27500000e-009,-1.99218090e-004
,,,-4.25000000e-009,-1.79999340e-004
,,,-4.22500000e-009,-1.66405590e-004
,,,-4.20000000e-009,-1.55624340e-004
,,,-4.17500000e-009,-1.49530590e-004
,,,-4.15000000e-009,-1.47186840e-004
,,,-4.12500000e-009,-1.49530590e-004
,,,-4.10000000e-009,-1.56093090e-004
,,,-4.07500000e-009,-1.66405590e-004
,,,-4.05000000e-009,-1.79999340e-004
,,,-4.02500000e-009,-1.98280590e-004
,,,-4.00000000e-009,-2.17499341e-004
,,,-3.97500000e-009,-2.37186841e-004
,,,-3.95000000e-009,-2.55468091e-004
,,,-3.92500000e-009,-2.71405591e-004
,,,-3.90000000e-009,-2.84061841e-004
,,,-3.87500000e-009,-2.93905591e-004
,,,-3.85000000e-009,-2.99999341e-004
,,,-3.82500000e-009,-3.04686841e-004
,,,-3.80000000e-009,-3.07968091e-004
,,,-3.77500000e-009,-3.12655591e-004
,,,-3.75000000e-009,-3.20155592e-004
,,,-3.72500000e-009,-3.33749342e-004
,,,-3.70000000e-009,-3.53905592e-004
,,,-3.67500000e-009,-3.82499342e-004
,,,-3.65000000e-009,-4.19999342e-004
,,,-3.62500000e-009,-4.64530593e-004
,,,-3.60000000e-009,-5.14686843e-004
,,,-3.57500000e-009,-5.67655594e-004
,,,-3.55000000e-009,-6.21561844e-004
,,,-3.52500000e-009,-6.72655595e-004
,,,-3.50000000e-009,-7.17655595e-004
,,,-3.47500000e-009,-7.54218095e-004
,,,-3.45000000e-009,-7.79999346e-004
,,,-3.42500000e-009,-7.89843096e-004
,,,-3.40000000e-009,-7.87499346e-004
,,,-3.37500000e-009,-7.75780596e-004
,,,-3.35000000e-009,-7.56561845e-004
,,,-3.32500000e-009,-7.32655595e-004
,,,-3.30000000e-009,-7.06874345e-004
,,,-3.27500000e-009,-6.82030595e-004
,,,-3.25000000e-009,-6.59999344e-004
,,,-3.22500000e-009,-6.38436844e-004
,,,-3.20000000e-009,-6.21561844e-004
,,,-3.17500000e-009,-6.08436844e-004
,,,-3.15000000e-009,-5.98124344e-004
,,,-3.12500000e-009,-5.87811844e-004
,,,-3.10000000e-009,-5.76093094e-004
,,,-3.07500000e-009,-5.60624344e-004
,,,-3.05000000e-009,-5.39999343e-004
,,,-3.02500000e-009,-5.12343093e-004
,,,-3.00000000e-009,-4.79999343e-004
,,,-2.97500000e-009,-4.44843093e-004
,,,-2.95000000e-009,-4.08749342e-004
,,,-2.92500000e-009,-3.74530592e-004
,,,-2.90000000e-009,-3.43593092e-004
,,,-2.87500000e-009,-3.18749342e-004
,,,-2.85000000e-009,-2.99999341e-004
,,,-2.82500000e-009,-2.89218091e-004
,,,-2.80000000e-009,-2.85468091e-004
,,,-2.77500000e-009,-2.86874341e-004
,,,-2.75000000e-009,-2.91561841e-004
,,,-2.72500000e-009,-2.97655591e-004
,,,-2.70000000e-009,-3.02343091e-004
,,,-2.67500000e-009,-3.03749341e-004
,,,-2.65000000e-009,-2.99999341e-004
,,,-2.62500000e-009,-2.91093091e-004
,,,-2.60000000e-009,-2.76561841e-004
,,,-2.57500000e-009,-2.58280591e-004
,,,-2.55000000e-009,-2.37655591e-004
,,,-2.52500000e-009,-2.17499341e-004
,,,-2.50000000e-009,-1.99686840e-004
,,,-2.47500000e-009,-1.87030590e-004
,,,-2.45000000e-009,-1.79999340e-004
,,,-2.42500000e-009,-1.84218090e-004
,,,-2.40000000e-009,-1.94530590e-004
,,,-2.37500000e-009,-2.10468091e-004
,,,-2.35000000e-009,-2.29686841e-004
,,,-2.32500000e-009,-2.49843091e-004
,,,-2.30000000e-009,-2.69530591e-004
,,,-2.27500000e-009,-2.86874341e-004
,,,-2.25000000e-009,-2.99999341e-004
,,,-2.22500000e-009,-3.10780591e-004
,,,-2.20000000e-009,-3.15936842e-004
,,,-2.17500000e-009,-3.16405592e-004
,,,-2.15000000e-009,-3.13593091e-004
,,,-2.12500000e-009,-3.08905591e-004
,,,-2.10000000e-009,-3.04218091e-004
,,,-2.07500000e-009,-3.00936841e-004
,,,-2.05000000e-009,-2.99999341e-004
,,,-2.02500000e-009,-3.04686841e-004
,,,-2.00000000e-009,-3.10780591e-004
,,,-1.97500000e-009,-3.17811842e-004
,,,-1.95000000e-009,-3.23436842e-004
,,,-1.92500000e-009,-3.25780592e-004
,,,-1.90000000e-009,-3.23436842e-004
,,,-1.87500000e-009,-3.14999341e-004
,,,-1.85000000e-009,-2.99999341e-004
,,,-1.82500000e-009,-2.83124341e-004
,,,-1.80000000e-009,-2.62030591e-004
,,,-1.77500000e-009,-2.39530591e-004
,,,-1.75000000e-009,-2.17030591e-004
,,,-1.72500000e-009,-1.97811840e-004
,,,-1.70000000e-009,-1.84218090e-004
,,,-1.67500000e-009,-1.77655590e-004
,,,-1.65000000e-009,-1.79999340e-004
,,,-1.62500000e-009,-2.00624341e-004
,,,-1.60000000e-009,-2.30155591e-004
,,,-1.57500000e-009,-2.65780591e-004
,,,-1.55000000e-009,-3.05155591e-004
,,,-1.52500000e-009,-3.43124342e-004
,,,-1.50000000e-009,-3.76874342e-004
,,,-1.47500000e-009,-4.03124342e-004
,,,-1.45000000e-009,-4.19999342e-004
,,,-1.42500000e-009,-4.38280593e-004
,,,-1.40000000e-009,-4.49061843e-004
,,,-1.37500000e-009,-4.52343093e-004
,,,-1.35000000e-009,-4.49530593e-004
,,,-1.32500000e-009,-4.42968093e-004
,,,-1.30000000e-009,-4.34061843e-004
,,,-1.27500000e-009,-4.26093092e-004
,,,-1.25000000e-009,-4.19999342e-004
,,,-1.22500000e-009,-4.36405593e-004
,,,-1.20000000e-009,-4.60311843e-004
,,,-1.17500000e-009,-4.91249343e-004
,,,-1.15000000e-009,-5.26405593e-004
,,,-1.12500000e-009,-5.62968094e-004
,,,-1.10000000e-009,-5.98593094e-004
,,,-1.07500000e-009,-6.31405594e-004
,,,-1.05000000e-009,-6.59999344e-004
,,,-1.02500000e-009,-7.04061845e-004
,,,-1.00000000e-009,-7.48124345e-004
,,,-9.75000000e-010,-7.91249346e-004
,,,-9.50000000e-010,-8.33905596e-004
,,,-9.25000000e-010,-8.77030596e-004
,,,-9.00000000e-010,-9.21561847e-004
,,,-8.75000000e-010,-9.68436847e-004
,,,-8.50000000e-010,-1.01999935e-003
,,,-8.25000000e-010,-1.09593685e-003
,,,-8.00000000e-010,-1.18218685e-003
,,,-7.75000000e-010,-1.27874935e-003
,,,-7.50000000e-010,-1.38468685e-003
,,,-7.25000000e-010,-1.49718685e-003
,,,-7.00000000e-010,-1.61531185e-003
,,,-6.75000000e-010,-1.73671810e-003
,,,-6.50000000e-010,-1.85999935e-003
,,,-6.25000000e-010,-1.99359311e-003
,,,-6.00000000e-010,-2.12999936e-003
,,,-5.75000000e-010,-2.26781186e-003
,,,-5.50000000e-010,-2.40562436e-003
,,,-5.25000000e-010,-2.54249936e-003
,,,-5.00000000e-010,-2.67749936e-003
,,,-4.75000000e-010,-2.81015561e-003
,,,-4.50000000e-010,-2.93999936e-003
,,,-4.25000000e-010,-3.06609312e-003
,,,-4.00000000e-010,-3.19312437e-003
,,,-3.75000000e-010,-3.32343687e-003
,,,-3.50000000e-010,-3.45656187e-003
,,,-3.25000000e-010,-3.59296812e-003
,,,-3.00000000e-010,-3.73312437e-003
,,,-2.75000000e-010,-3.87562437e-003
,,,-2.50000000e-010,-4.01999937e-003
,,,-2.25000000e-010,-4.14843687e-003
,,,-2.00000000e-010,-4.27734313e-003
,,,-1.75000000e-010,-4.40671813e-003
,,,-1.50000000e-010,-4.53374938e-003
,,,-1.25000000e-010,-4.65749938e-003
,,,-1.00000000e-010,-4.77468688e-003
,,,-7.50000000e-011,-4.88296813e-003
,,,-5.00000000e-011,-4.97999938e-003
,,,-2.50000000e-011,-5.03718688e-003
,,,0.00000000e+000,-5.08312438e-003
,,,2.50000000e-011,-5.12015563e-003
,,,5.00000000e-011,-5.15015563e-003
,,,7.50000000e-011,-5.17406188e-003
,,,1.00000000e-010,-5.19328063e-003
,,,1.25000000e-010,-5.20828063e-003
,,,1.50000000e-010,-5.21999938e-003
,,,1.75000000e-010,-5.19796813e-003
,,,2.00000000e-010,-5.17593688e-003
,,,2.25000000e-010,-5.15671813e-003
,,,2.50000000e-010,-5.14078063e-003
,,,2.75000000e-010,-5.12859313e-003
,,,3.00000000e-010,-5.11874938e-003
,,,3.25000000e-010,-5.11031188e-003
,,,3.50000000e-010,-5.09999938e-003
,,,3.75000000e-010,-5.05828063e-003
,,,4.00000000e-010,-5.01187438e-003
,,,4.25000000e-010,-4.96171813e-003
,,,4.50000000e-010,-4.90687438e-003
,,,4.75000000e-010,-4.84593688e-003
,,,5.00000000e-010,-4.77843688e-003
,,,5.25000000e-010,-4.70343688e-003
,,,5.50000000e-010,-4.61999938e-003
,,,5.75000000e-010,-4.50703063e-003
,,,6.00000000e-010,-4.38703063e-003
,,,6.25000000e-010,-4.26281188e-003
,,,6.50000000e-010,-4.13765562e-003
,,,6.75000000e-010,-4.01249937e-003
,,,7.00000000e-010,-3.89062437e-003
,,,7.25000000e-010,-3.77296812e-003
,,,7.50000000e-010,-3.65999937e-003
,,,7.75000000e-010,-3.54328062e-003
,,,8.00000000e-010,-3.43078062e-003
,,,8.25000000e-010,-3.32249937e-003
,,,8.50000000e-010,-3.21796812e-003
,,,8.75000000e-010,-3.11578062e-003
,,,9.00000000e-010,-3.01640561e-003
,,,9.25000000e-010,-2.91796811e-003
,,,9.50000000e-010,-2.81999936e-003
,,,9.75000000e-010,-2.72484311e-003
,,,1.00000000e-009,-2.62781186e-003
,,,1.02500000e-009,-2.52984311e-003
,,,1.05000000e-009,-2.43328061e-003
,,,1.07500000e-009,-2.33999936e-003
,,,1.10000000e-009,-2.25234311e-003
,,,1.12500000e-009,-2.17218686e-003
,,,1.15000000e-009,-2.09999936e-003
,,,1.17500000e-009,-2.04562436e-003
,,,1.20000000e-009,-1.99546811e-003
,,,1.22500000e-009,-1.94953061e-003
,,,1.25000000e-009,-1.90640561e-003
,,,1.27500000e-009,-1.86468685e-003
,,,1.30000000e-009,-1.82343685e-003
,,,1.32500000e-009,-1.78218685e-003
,,,1.35000000e-009,-1.73999935e-003
,,,1.37500000e-009,-1.70671810e-003
,,,1.40000000e-009,-1.66734310e-003
,,,1.42500000e-009,-1.62281185e-003
,,,1.45000000e-009,-1.57406185e-003
,,,1.47500000e-009,-1.52296810e-003
,,,1.50000000e-009,-1.47234310e-003
,,,1.52500000e-009,-1.42406185e-003
,,,1.55000000e-009,-1.37999935e-003
,,,1.57500000e-009,-1.35468685e-003
,,,1.60000000e-009,-1.33265560e-003
,,,1.62500000e-009,-1.31343685e-003
,,,1.65000000e-009,-1.29749935e-003
,,,1.67500000e-009,-1.28390560e-003
,,,1.70000000e-009,-1.27359310e-003
,,,1.72500000e-009,-1.26562435e-003
,,,1.75000000e-009,-1.25999935e-003
,,,1.77500000e-009,-1.26703060e-003
,,,1.80000000e-009,-1.27218685e-003
,,,1.82500000e-009,-1.27546810e-003
,,,1.85000000e-009,-1.27640560e-003
,,,1.87500000e-009,-1.27499935e-003
,,,1.90000000e-009,-1.27171810e-003
,,,1.92500000e-009,-1.26656185e-003
,,,1.95000000e-009,-1.25999935e-003
,,,1.97500000e-009,-1.25906185e-003
,,,2.00000000e-009,-1.25437435e-003
,,,2.02500000e-009,-1.24546810e-003
,,,2.05000000e-009,-1.23234310e-003
,,,2.07500000e-009,-1.21453060e-003
,,,2.10000000e-009,-1.19296810e-003
,,,2.12500000e-009,-1.16765560e-003
,,,2.15000000e-009,-1.13999935e-003
,,,2.17500000e-009,-1.11656185e-003
,,,2.20000000e-009,-1.09218685e-003
,,,2.22500000e-009,-1.06874935e-003
,,,2.25000000e-009,-1.04812435e-003
,,,2.27500000e-009,-1.03124935e-003
,,,2.30000000e-009,-1.02046810e-003
,,,2.32500000e-009,-1.01624935e-003
,,,2.35000000e-009,-1.01999935e-003
,,,2.37500000e-009,-1.03640560e-003
,,,2.40000000e-009,-1.05937435e-003
,,,2.42500000e-009,-1.08796810e-003
,,,2.45000000e-009,-1.12078060e-003
,,,2.47500000e-009,-1.15593685e-003
,,,2.50000000e-009,-1.19203060e-003
,,,2.52500000e-009,-1.22718685e-003
,,,2.55000000e-009,-1.25999935e-003
,,,2.57500000e-009,-1.28999935e-003
,,,2.60000000e-009,-1.31531185e-003
,,,2.62500000e-009,-1.33593685e-003
,,,2.65000000e-009,-1.35140560e-003
,,,2.67500000e-009,-1.36312435e-003
,,,2.70000000e-009,-1.37109310e-003
,,,2.72500000e-009,-1.37671810e-003
,,,2.75000000e-009,-1.37999935e-003
,,,2.77500000e-009,-1.38093685e-003
,,,2.80000000e-009,-1.38093685e-003
,,,2.82500000e-009,-1.38046810e-003
,,,2.85000000e-009,-1.37999935e-003
,,,2.87500000e-009,-1.37999935e-003
,,,2.90000000e-009,-1.37999935e-003
,,,2.92500000e-009,-1.37999935e-003
,,,2.95000000e-009,-1.37999935e-003
,,,2.97500000e-009,-1.37859310e-003
,,,3.00000000e-009,-1.37718685e-003
,,,3.02500000e-009,-1.37624935e-003
,,,3.05000000e-009,-1.37531185e-003
,,,3.07500000e-009,-1.37531185e-003
,,,3.10000000e-009,-1.37624935e-003
,,,3.12500000e-009,-1.37765560e-003
,,,3.15000000e-009,-1.37999935e-003
,,,3.17500000e-009,-1.38140560e-003
,,,3.20000000e-009,-1.38281185e-003
,,,3.22500000e-009,-1.38421810e-003
,,,3.25000000e-009,-1.38562435e-003
,,,3.27500000e-009,-1.38656185e-003
,,,3.30000000e-009,-1.38609310e-003
,,,3.32500000e-009,-1.38421810e-003
,,,3.35000000e-009,-1.37999935e-003
,,,3.37500000e-009,-1.37062435e-003
,,,3.40000000e-009,-1.35937435e-003
,,,3.42500000e-009,-1.34578060e-003
,,,3.45000000e-009,-1.33031185e-003
,,,3.47500000e-009,-1.31390560e-003
,,,3.50000000e-009,-1.29656185e-003
,,,3.52500000e-009,-1.27828060e-003
,,,3.55000000e-009,-1.25999935e-003
,,,3.57500000e-009,-1.24031185e-003
,,,3.60000000e-009,-1.22109310e-003
,,,3.62500000e-009,-1.20328060e-003
,,,3.65000000e-009,-1.18640560e-003
,,,3.67500000e-009,-1.17140560e-003
,,,3.70000000e-009,-1.15874935e-003
,,,3.72500000e-009,-1.14843685e-003
,,,3.75000000e-009,-1.13999935e-003
,,,3.77500000e-009,-1.13390560e-003
,,,3.80000000e-009,-1.12968685e-003
,,,3.82500000e-009,-1.12687435e-003
,,,3.85000000e-009,-1.12640560e-003
,,,3.87500000e-009,-1.12781185e-003
,,,3.90000000e-009,-1.13062435e-003
,,,3.92500000e-009,-1.13484310e-003
,,,3.95000000e-009,-1.13999935e-003
,,,3.97500000e-009,-1.14468685e-003
,,,4.00000000e-009,-1.14843685e-003
,,,4.02500000e-009,-1.15124935e-003
,,,4.05000000e-009,-1.15265560e-003
,,,4.07500000e-009,-1.15218685e-003
,,,4.10000000e-009,-1.15031185e-003
,,,4.12500000e-009,-1.14609310e-003
,,,4.15000000e-009,-1.13999935e-003
,,,4.17500000e-009,-1.13109310e-003
,,,4.20000000e-009,-1.11890560e-003
,,,4.22500000e-009,-1.10484310e-003
,,,4.25000000e-009,-1.08937435e-003
,,,4.27500000e-009,-1.07249935e-003
,,,4.30000000e-009,-1.05515560e-003
,,,4.32500000e-009,-1.03734310e-003
,,,4.35000000e-009,-1.01999935e-003
,,,4.37500000e-009,-1.00406185e-003
,,,4.40000000e-009,-9.87655597e-004
,,,4.42500000e-009,-9.72186847e-004
,,,4.45000000e-009,-9.57186847e-004
,,,4.47500000e-009,-9.42186847e-004
,,,4.50000000e-009,-9.28124347e-004
,,,4.52500000e-009,-9.14061847e-004
,,,4.55000000e-009,-8.99999347e-004
,,,4.57500000e-009,-8.87811846e-004
,,,4.60000000e-009,-8.75155596e-004
,,,4.62500000e-009,-8.61561846e-004
,,,4.65000000e-009,-8.47030596e-004
,,,4.67500000e-009,-8.31561846e-004
,,,4.70000000e-009,-8.15155596e-004
,,,4.72500000e-009,-7.98280596e-004
,,,4.75000000e-009,-7.79999346e-004
,,,4.77500000e-009,-7.64530595e-004
,,,4.80000000e-009,-7.49061845e-004
,,,4.82500000e-009,-7.33124345e-004
,,,4.85000000e-009,-7.17186845e-004
,,,4.87500000e-009,-7.01718095e-004
,,,4.90000000e-009,-6.86718095e-004
,,,4.92500000e-009,-6.73124345e-004
,,,4.95000000e-009,-6.59999344e-004
,,,4.97500000e-009,-6.52499344e-004
,,,5.00000000e-009,-6.46405594e-004
,,,5.02500000e-009,-6.42655594e-004
,,,5.05000000e-009,-6.40780594e-004
,,,5.07500000e-009,-6.41718094e-004
,,,5.10000000e-009,-6.44999344e-004
,,,5.12500000e-009,-6.51561844e-004
,,,5.15000000e-009,-6.59999344e-004
,,,5.17500000e-009,-6.74530595e-004
,,,5.20000000e-009,-6.89999345e-004
,,,5.22500000e-009,-7.05936845e-004
,,,5.25000000e-009,-7.22343095e-004
,,,5.27500000e-009,-7.38280595e-004
,,,5.30000000e-009,-7.53280595e-004
,,,5.32500000e-009,-7.67343095e-004
,,,5.35000000e-009,-7.79999346e-004
,,,5.37500000e-009,-7.94061846e-004
,,,5.40000000e-009,-8.06718096e-004
,,,5.42500000e-009,-8.19374346e-004
,,,5.45000000e-009,-8.32499346e-004
,,,5.47500000e-009,-8.46561846e-004
,,,5.50000000e-009,-8.62499346e-004
,,,5.52500000e-009,-8.80311846e-004
,,,5.55000000e-009,-8.99999347e-004
,,,5.57500000e-009,-9.20155597e-004
,,,5.60000000e-009,-9.40780597e-004
,,,5.62500000e-009,-9.60936847e-004
,,,5.65000000e-009,-9.79686847e-004
,,,5.67500000e-009,-9.95624347e-004
,,,5.70000000e-009,-1.00874935e-003
,,,5.72500000e-009,-1.01671810e-003
,,,5.75000000e-009,-1.01999935e-003
,,,5.77500000e-009,-1.01484310e-003
,,,5.80000000e-009,-1.00499935e-003
