RawData/SinglePhotoelectron/L7_2pt2A_5mV/wave016_Ch1.csv

"Record Length",1000,"Points",-7.72500000e-009,2.34844413e-004
"Sample Interval",2.50000000e-011,s,-7.70000000e-009,2.11875663e-004
"Trigger Point",309,"Samples",-7.67500000e-009,1.93125663e-004
"Trigger Time",5.48117359e-013,s,-7.65000000e-009,1.81875663e-004
"",,,-7.62500000e-009,1.80000663e-004
"Horizontal Offset",-7.72500000e-009,s,-7.60000000e-009,1.86094413e-004
,,,-7.57500000e-009,2.01563163e-004
,,,-7.55000000e-009,2.23594413e-004
,,,-7.52500000e-009,2.48438163e-004
,,,-7.50000000e-009,2.72344414e-004
,,,-7.47500000e-009,2.91094414e-004
,,,-7.45000000e-009,3.00938164e-004
,,,-7.42500000e-009,3.00000664e-004
,,,-7.40000000e-009,2.83125664e-004
,,,-7.37500000e-009,2.56406913e-004
,,,-7.35000000e-009,2.21719413e-004
,,,-7.32500000e-009,1.82344413e-004
,,,-7.30000000e-009,1.42969412e-004
,,,-7.27500000e-009,1.06875662e-004
,,,-7.25000000e-009,7.82819119e-005
,,,-7.22500000e-009,6.00006618e-005
,,,-7.20000000e-009,5.34381617e-005
,,,-7.17500000e-009,5.81256617e-005
,,,-7.15000000e-009,7.21881619e-005
,,,-7.12500000e-009,9.37506621e-005
,,,-7.10000000e-009,1.18594412e-004
,,,-7.07500000e-009,1.43438162e-004
,,,-7.05000000e-009,1.64531913e-004
,,,-7.02500000e-009,1.80000663e-004
,,,-7.00000000e-009,1.85156913e-004
,,,-6.97500000e-009,1.81875663e-004
,,,-6.95000000e-009,1.69688163e-004
,,,-6.92500000e-009,1.50938163e-004
,,,-6.90000000e-009,1.27969412e-004
,,,-6.87500000e-009,1.03594412e-004
,,,-6.85000000e-009,8.01569119e-005
,,,-6.82500000e-009,6.00006618e-005
,,,-6.80000000e-009,4.54694116e-005
,,,-6.77500000e-009,3.70319116e-005
,,,-6.75000000e-009,3.42194115e-005
,,,-6.72500000e-009,3.56256615e-005
,,,-6.70000000e-009,4.07819116e-005
,,,-6.67500000e-009,4.73444117e-005
,,,-6.65000000e-009,5.39069117e-005
,,,-6.62500000e-009,6.00006618e-005
,,,-6.60000000e-009,6.32819118e-005
,,,-6.57500000e-009,6.46881618e-005
,,,-6.55000000e-009,6.37506618e-005
,,,-6.52500000e-009,6.18756618e-005
,,,-6.50000000e-009,5.95319118e-005
,,,-6.47500000e-009,5.76569117e-005
,,,-6.45000000e-009,5.76569117e-005
,,,-6.42500000e-009,6.00006618e-005
,,,-6.40000000e-009,6.42194118e-005
,,,-6.37500000e-009,6.98444118e-005
,,,-6.35000000e-009,7.50006619e-005
,,,-6.32500000e-009,7.92194119e-005
,,,-6.30000000e-009,8.06256619e-005
,,,-6.27500000e-009,7.82819119e-005
,,,-6.25000000e-009,7.17194119e-005
,,,-6.22500000e-009,6.00006618e-005
,,,-6.20000000e-009,4.17194116e-005
,,,-6.17500000e-009,2.06256614e-005
,,,-6.15000000e-009,-1.87433878e-006
,,,-6.12500000e-009,-2.39055890e-005
,,,-6.10000000e-009,-4.21868391e-005
,,,-6.07500000e-009,-5.57805892e-005
,,,-6.05000000e-009,-6.18743393e-005
,,,-6.02500000e-009,-5.99993393e-005
,,,-6.00000000e-009,-5.01555892e-005
,,,-5.97500000e-009,-3.37493391e-005
,,,-5.95000000e-009,-1.31243389e-005
,,,-5.92500000e-009,8.90691132e-006
,,,-5.90000000e-009,2.95319115e-005
,,,-5.87500000e-009,4.64069116e-005
,,,-5.85000000e-009,5.67194117e-005
,,,-5.82500000e-009,6.00006618e-005
,,,-5.80000000e-009,5.39069117e-005
,,,-5.77500000e-009,4.12506616e-005
,,,-5.75000000e-009,2.29694114e-005
,,,-5.72500000e-009,1.87566126e-006
,,,-5.70000000e-009,-1.96868389e-005
,,,-5.67500000e-009,-3.84368391e-005
,,,-5.65000000e-009,-5.24993392e-005
,,,-5.62500000e-009,-5.99993393e-005
,,,-5.60000000e-009,-6.04680893e-005
,,,-5.57500000e-009,-5.57805892e-005
,,,-5.55000000e-009,-4.78118392e-005
,,,-5.52500000e-009,-3.93743391e-005
,,,-5.50000000e-009,-3.37493391e-005
,,,-5.47500000e-009,-3.37493391e-005
,,,-5.45000000e-009,-4.21868391e-005
,,,-5.42500000e-009,-5.99993393e-005
,,,-5.40000000e-009,-8.57805895e-005
,,,-5.37500000e-009,-1.19061840e-004
,,,-5.35000000e-009,-1.57499340e-004
,,,-5.32500000e-009,-1.97343090e-004
,,,-5.30000000e-009,-2.35311841e-004
,,,-5.27500000e-009,-2.67186841e-004
,,,-5.25000000e-009,-2.89686841e-004
,,,-5.22500000e-009,-2.99999341e-004
,,,-5.20000000e-009,-2.93905591e-004
,,,-5.17500000e-009,-2.75155591e-004
,,,-5.15000000e-009,-2.45624341e-004
,,,-5.12500000e-009,-2.08593091e-004
,,,-5.10000000e-009,-1.68280590e-004
,,,-5.07500000e-009,-1.27499340e-004
,,,-5.05000000e-009,-9.04680895e-005
,,,-5.02500000e-009,-5.99993393e-005
,,,-5.00000000e-009,-3.79680891e-005
,,,-4.97500000e-009,-2.48430890e-005
,,,-4.95000000e-009,-2.10930889e-005
,,,-4.92500000e-009,-2.43743390e-005
,,,-4.90000000e-009,-3.23430890e-005
,,,-4.87500000e-009,-4.31243391e-005
,,,-4.85000000e-009,-5.29680892e-005
,,,-4.82500000e-009,-5.99993393e-005
,,,-4.80000000e-009,-6.18743393e-005
,,,-4.77500000e-009,-5.71868393e-005
,,,-4.75000000e-009,-4.73430892e-005
,,,-4.72500000e-009,-3.14055890e-005
,,,-4.70000000e-009,-1.17180889e-005
,,,-4.67500000e-009,1.12506613e-005
,,,-4.65000000e-009,3.56256615e-005
,,,-4.62500000e-009,6.00006618e-005
,,,-4.60000000e-009,8.15631619e-005
,,,-4.57500000e-009,1.01719412e-004
,,,-4.55000000e-009,1.19063162e-004
,,,-4.52500000e-009,1.34063162e-004
,,,-4.50000000e-009,1.47188163e-004
,,,-4.47500000e-009,1.58906913e-004
,,,-4.45000000e-009,1.69688163e-004
,,,-4.42500000e-009,1.80000663e-004
,,,-4.40000000e-009,1.86563163e-004
,,,-4.37500000e-009,1.92656913e-004
,,,-4.35000000e-009,1.97344413e-004
,,,-4.32500000e-009,1.99688163e-004
,,,-4.30000000e-009,1.99688163e-004
,,,-4.27500000e-009,1.96406913e-004
,,,-4.25000000e-009,1.89844413e-004
,,,-4.22500000e-009,1.80000663e-004
,,,-4.20000000e-009,1.62656913e-004
,,,-4.17500000e-009,1.43906912e-004
,,,-4.15000000e-009,1.24688162e-004
,,,-4.12500000e-009,1.05938162e-004
,,,-4.10000000e-009,8.90631620e-005
,,,-4.07500000e-009,7.54694119e-005
,,,-4.05000000e-009,6.56256618e-005
,,,-4.02500000e-009,6.00006618e-005
,,,-4.00000000e-009,5.71881617e-005
,,,-3.97500000e-009,5.81256617e-005
,,,-3.95000000e-009,6.09381618e-005
,,,-3.92500000e-009,6.46881618e-005
,,,-3.90000000e-009,6.79694118e-005
,,,-3.87500000e-009,6.89069118e-005
,,,-3.85000000e-009,6.65631618e-005
,,,-3.82500000e-009,6.00006618e-005
,,,-3.80000000e-009,4.73444117e-005
,,,-3.77500000e-009,3.09381615e-005
,,,-3.75000000e-009,1.26569113e-005
,,,-3.72500000e-009,-7.03058882e-006
,,,-3.70000000e-009,-2.53118390e-005
,,,-3.67500000e-009,-4.12493391e-005
,,,-3.65000000e-009,-5.29680892e-005
,,,-3.62500000e-009,-5.99993393e-005
,,,-3.60000000e-009,-6.32805893e-005
,,,-3.57500000e-009,-6.28118393e-005
,,,-3.55000000e-009,-5.95305893e-005
,,,-3.52500000e-009,-5.48430892e-005
,,,-3.50000000e-009,-5.15618392e-005
,,,-3.47500000e-009,-5.01555892e-005
,,,-3.45000000e-009,-5.29680892e-005
,,,-3.42500000e-009,-5.99993393e-005
,,,-3.40000000e-009,-7.31243394e-005
,,,-3.37500000e-009,-9.04680895e-005
,,,-3.35000000e-009,-1.10624340e-004
,,,-3.32500000e-009,-1.32186840e-004
,,,-3.30000000e-009,-1.51874340e-004
,,,-3.27500000e-009,-1.67343090e-004
,,,-3.25000000e-009,-1.77655590e-004
,,,-3.22500000e-009,-1.79999340e-004
,,,-3.20000000e-009,-1.75780590e-004
,,,-3.17500000e-009,-1.64999340e-004
,,,-3.15000000e-009,-1.49061840e-004
,,,-3.12500000e-009,-1.29374340e-004
,,,-3.10000000e-009,-1.08749340e-004
,,,-3.07500000e-009,-8.90618395e-005
,,,-3.05000000e-009,-7.21868394e-005
,,,-3.02500000e-009,-5.99993393e-005
,,,-3.00000000e-009,-5.62493392e-005
,,,-2.97500000e-009,-5.99993393e-005
,,,-2.95000000e-009,-7.07805894e-005
,,,-2.92500000e-009,-8.71868395e-005
,,,-2.90000000e-009,-1.07811840e-004
,,,-2.87500000e-009,-1.31718090e-004
,,,-2.85000000e-009,-1.56093090e-004
,,,-2.82500000e-009,-1.79999340e-004
,,,-2.80000000e-009,-2.03905591e-004
,,,-2.77500000e-009,-2.24999341e-004
,,,-2.75000000e-009,-2.43749341e-004
,,,-2.72500000e-009,-2.59218091e-004
,,,-2.70000000e-009,-2.72343091e-004
,,,-2.67500000e-009,-2.82655591e-004
,,,-2.65000000e-009,-2.92030591e-004
,,,-2.62500000e-009,-2.99999341e-004
,,,-2.60000000e-009,-3.10311841e-004
,,,-2.57500000e-009,-3.22030592e-004
,,,-2.55000000e-009,-3.35155592e-004
,,,-2.52500000e-009,-3.50155592e-004
,,,-2.50000000e-009,-3.66093092e-004
,,,-2.47500000e-009,-3.83436842e-004
,,,-2.45000000e-009,-4.01718092e-004
,,,-2.42500000e-009,-4.19999342e-004
,,,-2.40000000e-009,-4.38749343e-004
,,,-2.37500000e-009,-4.57499343e-004
,,,-2.35000000e-009,-4.75311843e-004
,,,-2.32500000e-009,-4.92186843e-004
,,,-2.30000000e-009,-5.07186843e-004
,,,-2.27500000e-009,-5.20780593e-004
,,,-2.25000000e-009,-5.31561843e-004
,,,-2.22500000e-009,-5.39999343e-004
,,,-2.20000000e-009,-5.47030594e-004
,,,-2.17500000e-009,-5.51718094e-004
,,,-2.15000000e-009,-5.54061844e-004
,,,-2.12500000e-009,-5.54530594e-004
,,,-2.10000000e-009,-5.53124344e-004
,,,-2.07500000e-009,-5.49374344e-004
,,,-2.05000000e-009,-5.45155593e-004
,,,-2.02500000e-009,-5.39999343e-004
,,,-2.00000000e-009,-5.37186843e-004
,,,-1.97500000e-009,-5.37186843e-004
,,,-1.95000000e-009,-5.41874343e-004
,,,-1.92500000e-009,-5.52655594e-004
,,,-1.90000000e-009,-5.69530594e-004
,,,-1.87500000e-009,-5.93436844e-004
,,,-1.85000000e-009,-6.23905594e-004
,,,-1.82500000e-009,-6.59999344e-004
,,,-1.80000000e-009,-7.01249345e-004
,,,-1.77500000e-009,-7.44843095e-004
,,,-1.75000000e-009,-7.88436846e-004
,,,-1.72500000e-009,-8.27811846e-004
,,,-1.70000000e-009,-8.61093096e-004
,,,-1.67500000e-009,-8.84999346e-004
,,,-1.65000000e-009,-8.98593097e-004
,,,-1.62500000e-009,-8.99999347e-004
,,,-1.60000000e-009,-8.92030597e-004
,,,-1.57500000e-009,-8.76093096e-004
,,,-1.55000000e-009,-8.54999346e-004
,,,-1.52500000e-009,-8.32030596e-004
,,,-1.50000000e-009,-8.09999346e-004
,,,-1.47500000e-009,-7.92186846e-004
,,,-1.45000000e-009,-7.81874346e-004
,,,-1.42500000e-009,-7.79999346e-004
,,,-1.40000000e-009,-7.94999346e-004
,,,-1.37500000e-009,-8.20311846e-004
,,,-1.35000000e-009,-8.54061846e-004
,,,-1.32500000e-009,-8.92968097e-004
,,,-1.30000000e-009,-9.32811847e-004
,,,-1.27500000e-009,-9.69374347e-004
,,,-1.25000000e-009,-9.99374347e-004
,,,-1.22500000e-009,-1.01999935e-003
,,,-1.20000000e-009,-1.04062435e-003
,,,-1.17500000e-009,-1.05281185e-003
,,,-1.15000000e-009,-1.05749935e-003
,,,-1.12500000e-009,-1.05515560e-003
,,,-1.10000000e-009,-1.04812435e-003
,,,-1.07500000e-009,-1.03828060e-003
,,,-1.05000000e-009,-1.02796810e-003
,,,-1.02500000e-009,-1.01999935e-003
,,,-1.00000000e-009,-1.03359310e-003
,,,-9.75000000e-010,-1.05609310e-003
,,,-9.50000000e-010,-1.08609310e-003
,,,-9.25000000e-010,-1.12124935e-003
,,,-9.00000000e-010,-1.15874935e-003
,,,-8.75000000e-010,-1.19578060e-003
,,,-8.50000000e-010,-1.22999935e-003
,,,-8.25000000e-010,-1.25999935e-003
,,,-8.00000000e-010,-1.30874935e-003
,,,-7.75000000e-010,-1.35749935e-003
,,,-7.50000000e-010,-1.40484310e-003
,,,-7.25000000e-010,-1.45078060e-003
,,,-7.00000000e-010,-1.49484310e-003
,,,-6.75000000e-010,-1.53703060e-003
,,,-6.50000000e-010,-1.57828060e-003
,,,-6.25000000e-010,-1.61999935e-003
,,,-6.00000000e-010,-1.68937435e-003
,,,-5.75000000e-010,-1.76671810e-003
,,,-5.50000000e-010,-1.85203060e-003
,,,-5.25000000e-010,-1.94343686e-003
,,,-5.00000000e-010,-2.03953061e-003
,,,-4.75000000e-010,-2.13796811e-003
,,,-4.50000000e-010,-2.23828061e-003
,,,-4.25000000e-010,-2.33999936e-003
,,,-4.00000000e-010,-2.46093686e-003
,,,-3.75000000e-010,-2.58703061e-003
,,,-3.50000000e-010,-2.71828061e-003
,,,-3.25000000e-010,-2.85374936e-003
,,,-3.00000000e-010,-2.99203061e-003
,,,-2.75000000e-010,-3.13265562e-003
,,,-2.50000000e-010,-3.27515562e-003
,,,-2.25000000e-010,-3.41999937e-003
,,,-2.00000000e-010,-3.57515562e-003
,,,-1.75000000e-010,-3.73734312e-003
,,,-1.50000000e-010,-3.90749937e-003
,,,-1.25000000e-010,-4.08562437e-003
,,,-1.00000000e-010,-4.27078063e-003
,,,-7.50000000e-011,-4.46249938e-003
,,,-5.00000000e-011,-4.65937438e-003
,,,-2.50000000e-011,-4.85999938e-003
,,,0.00000000e+000,-5.05171813e-003
,,,2.50000000e-011,-5.24671813e-003
,,,5.00000000e-011,-5.44546814e-003
,,,7.50000000e-011,-5.64562439e-003
,,,1.00000000e-010,-5.84624939e-003
,,,1.25000000e-010,-6.04359314e-003
,,,1.50000000e-010,-6.23624939e-003
,,,1.75000000e-010,-6.41999939e-003
,,,2.00000000e-010,-6.56249940e-003
,,,2.25000000e-010,-6.69421815e-003
,,,2.50000000e-010,-6.81562440e-003
,,,2.75000000e-010,-6.92671815e-003
,,,3.00000000e-010,-7.02749940e-003
,,,3.25000000e-010,-7.11703065e-003
,,,3.50000000e-010,-7.19484315e-003
,,,3.75000000e-010,-7.25999940e-003
,,,4.00000000e-010,-7.27124940e-003
,,,4.25000000e-010,-7.27499940e-003
,,,4.50000000e-010,-7.27359315e-003
,,,4.75000000e-010,-7.27078065e-003
,,,5.00000000e-010,-7.26749940e-003
,,,5.25000000e-010,-7.26468690e-003
,,,5.50000000e-010,-7.26281190e-003
,,,5.75000000e-010,-7.25999940e-003
,,,6.00000000e-010,-7.21265565e-003
,,,6.25000000e-010,-7.16296815e-003
,,,6.50000000e-010,-7.11187440e-003
,,,6.75000000e-010,-7.05796815e-003
,,,7.00000000e-010,-7.00031190e-003
,,,7.25000000e-010,-6.93656190e-003
,,,7.50000000e-010,-6.86390565e-003
,,,7.75000000e-010,-6.77999940e-003
,,,8.00000000e-010,-6.64921815e-003
,,,8.25000000e-010,-6.50812440e-003
,,,8.50000000e-010,-6.35859314e-003
,,,8.75000000e-010,-6.20437439e-003
,,,9.00000000e-010,-6.04734314e-003
,,,9.25000000e-010,-5.88984314e-003
,,,9.50000000e-010,-5.73374939e-003
,,,9.75000000e-010,-5.57999939e-003
,,,1.00000000e-009,-5.41078064e-003
,,,1.02500000e-009,-5.24578063e-003
,,,1.05000000e-009,-5.08640563e-003
,,,1.07500000e-009,-4.93359313e-003
,,,1.10000000e-009,-4.78734313e-003
,,,1.12500000e-009,-4.64671813e-003
,,,1.15000000e-009,-4.51171813e-003
,,,1.17500000e-009,-4.37999938e-003
,,,1.20000000e-009,-4.24640563e-003
,,,1.22500000e-009,-4.11093687e-003
,,,1.25000000e-009,-3.97406187e-003
,,,1.27500000e-009,-3.83671812e-003
,,,1.30000000e-009,-3.69890562e-003
,,,1.32500000e-009,-3.56296812e-003
,,,1.35000000e-009,-3.42937437e-003
,,,1.37500000e-009,-3.29999937e-003
,,,1.40000000e-009,-3.18328062e-003
,,,1.42500000e-009,-3.06749937e-003
,,,1.45000000e-009,-2.95359311e-003
,,,1.47500000e-009,-2.84249936e-003
,,,1.50000000e-009,-2.73609311e-003
,,,1.52500000e-009,-2.63578061e-003
,,,1.55000000e-009,-2.54343686e-003
,,,1.57500000e-009,-2.45999936e-003
,,,1.60000000e-009,-2.40046811e-003
,,,1.62500000e-009,-2.34468686e-003
,,,1.65000000e-009,-2.29312436e-003
,,,1.67500000e-009,-2.24484311e-003
,,,1.70000000e-009,-2.20124936e-003
,,,1.72500000e-009,-2.16234311e-003
,,,1.75000000e-009,-2.12859311e-003
,,,1.77500000e-009,-2.09999936e-003
,,,1.80000000e-009,-2.09015561e-003
,,,1.82500000e-009,-2.07656186e-003
,,,1.85000000e-009,-2.05687436e-003
,,,1.87500000e-009,-2.03062436e-003
,,,1.90000000e-009,-1.99734311e-003
,,,1.92500000e-009,-1.95703061e-003
,,,1.95000000e-009,-1.91109311e-003
,,,1.97500000e-009,-1.85999935e-003
,,,2.00000000e-009,-1.81781185e-003
,,,2.02500000e-009,-1.76953060e-003
,,,2.05000000e-009,-1.71749935e-003
,,,2.07500000e-009,-1.66453060e-003
,,,2.10000000e-009,-1.61343685e-003
,,,2.12500000e-009,-1.56749935e-003
,,,2.15000000e-009,-1.52906185e-003
,,,2.17500000e-009,-1.49999935e-003
,,,2.20000000e-009,-1.49156185e-003
,,,2.22500000e-009,-1.48921810e-003
,,,2.25000000e-009,-1.49109310e-003
,,,2.27500000e-009,-1.49531185e-003
,,,2.30000000e-009,-1.49999935e-003
,,,2.32500000e-009,-1.50328060e-003
,,,2.35000000e-009,-1.50374935e-003
,,,2.37500000e-009,-1.49999935e-003
,,,2.40000000e-009,-1.49859310e-003
,,,2.42500000e-009,-1.49062435e-003
,,,2.45000000e-009,-1.47656185e-003
,,,2.47500000e-009,-1.45781185e-003
,,,2.50000000e-009,-1.43671810e-003
,,,2.52500000e-009,-1.41515560e-003
,,,2.55000000e-009,-1.39593685e-003
,,,2.57500000e-009,-1.37999935e-003
,,,2.60000000e-009,-1.37437435e-003
,,,2.62500000e-009,-1.37203060e-003
,,,2.65000000e-009,-1.37296810e-003
,,,2.67500000e-009,-1.37624935e-003
,,,2.70000000e-009,-1.37999935e-003
,,,2.72500000e-009,-1.38234310e-003
,,,2.75000000e-009,-1.38328060e-003
,,,2.77500000e-009,-1.37999935e-003
,,,2.80000000e-009,-1.37578060e-003
,,,2.82500000e-009,-1.36593685e-003
,,,2.85000000e-009,-1.35187435e-003
,,,2.87500000e-009,-1.33406185e-003
,,,2.90000000e-009,-1.31437435e-003
,,,2.92500000e-009,-1.29468685e-003
,,,2.95000000e-009,-1.27593685e-003
,,,2.97500000e-009,-1.25999935e-003
,,,3.00000000e-009,-1.25062435e-003
,,,3.02500000e-009,-1.24406185e-003
,,,3.05000000e-009,-1.24124935e-003
,,,3.07500000e-009,-1.24124935e-003
,,,3.10000000e-009,-1.24406185e-003
,,,3.12500000e-009,-1.24828060e-003
,,,3.15000000e-009,-1.25343685e-003
,,,3.17500000e-009,-1.25999935e-003
,,,3.20000000e-009,-1.26843685e-003
,,,3.22500000e-009,-1.27781185e-003
,,,3.25000000e-009,-1.28812435e-003
,,,3.27500000e-009,-1.30078060e-003
,,,3.30000000e-009,-1.31578060e-003
,,,3.32500000e-009,-1.33406185e-003
,,,3.35000000e-009,-1.35562435e-003
,,,3.37500000e-009,-1.37999935e-003
,,,3.40000000e-009,-1.40624935e-003
,,,3.42500000e-009,-1.43249935e-003
,,,3.45000000e-009,-1.45734310e-003
,,,3.47500000e-009,-1.47843685e-003
,,,3.50000000e-009,-1.49484310e-003
,,,3.52500000e-009,-1.50468685e-003
,,,3.55000000e-009,-1.50703060e-003
,,,3.57500000e-009,-1.49999935e-003
,,,3.60000000e-009,-1.48218685e-003
,,,3.62500000e-009,-1.45687435e-003
,,,3.65000000e-009,-1.42499935e-003
,,,3.67500000e-009,-1.38984310e-003
,,,3.70000000e-009,-1.35328060e-003
,,,3.72500000e-009,-1.31812435e-003
,,,3.75000000e-009,-1.28624935e-003
,,,3.77500000e-009,-1.25999935e-003
,,,3.80000000e-009,-1.23984310e-003
,,,3.82500000e-009,-1.22624935e-003
,,,3.85000000e-009,-1.22015560e-003
,,,3.87500000e-009,-1.22015560e-003
,,,3.90000000e-009,-1.22578060e-003
,,,3.92500000e-009,-1.23562435e-003
,,,3.95000000e-009,-1.24734310e-003
,,,3.97500000e-009,-1.25999935e-003
,,,4.00000000e-009,-1.26890560e-003
,,,4.02500000e-009,-1.27499935e-003
,,,4.05000000e-009,-1.27828060e-003
,,,4.07500000e-009,-1.27874935e-003
,,,4.10000000e-009,-1.27687435e-003
,,,4.12500000e-009,-1.27265560e-003
,,,4.15000000e-009,-1.26703060e-003
,,,4.17500000e-009,-1.25999935e-003
,,,4.20000000e-009,-1.24828060e-003
,,,4.22500000e-009,-1.23515560e-003
,,,4.25000000e-009,-1.22109310e-003
,,,4.27500000e-009,-1.20562435e-003
,,,4.30000000e-009,-1.19015560e-003
,,,4.32500000e-009,-1.17374935e-003
,,,4.35000000e-009,-1.15734310e-003
,,,4.37500000e-009,-1.13999935e-003
,,,4.40000000e-009,-1.12031185e-003
,,,4.42500000e-009,-1.10015560e-003
,,,4.45000000e-009,-1.08093685e-003
,,,4.47500000e-009,-1.06312435e-003
,,,4.50000000e-009,-1.04765560e-003
,,,4.52500000e-009,-1.03546810e-003
,,,4.55000000e-009,-1.02656185e-003
,,,4.57500000e-009,-1.01999935e-003
,,,4.60000000e-009,-1.01484310e-003
,,,4.62500000e-009,-1.00874935e-003
,,,4.65000000e-009,-1.00171810e-003
,,,4.67500000e-009,-9.91405597e-004
,,,4.70000000e-009,-9.77343097e-004
,,,4.72500000e-009,-9.57655597e-004
,,,4.75000000e-009,-9.31874347e-004
,,,4.77500000e-009,-8.99999347e-004
,,,4.80000000e-009,-8.59218096e-004
,,,4.82500000e-009,-8.12811846e-004
,,,4.85000000e-009,-7.63124345e-004
,,,4.87500000e-009,-7.11561845e-004
,,,4.90000000e-009,-6.61405595e-004
,,,4.92500000e-009,-6.14999344e-004
,,,4.95000000e-009,-5.74218094e-004
,,,4.97500000e-009,-5.39999343e-004
,,,5.00000000e-009,-5.13749343e-004
,,,5.02500000e-009,-4.93593093e-004
,,,5.05000000e-009,-4.78124343e-004
,,,5.07500000e-009,-4.65936843e-004
,,,5.10000000e-009,-4.55624343e-004
,,,5.12500000e-009,-4.45311843e-004
,,,5.15000000e-009,-4.34061843e-004
,,,5.17500000e-009,-4.19999342e-004
,,,5.20000000e-009,-4.04530592e-004
,,,5.22500000e-009,-3.85311842e-004
,,,5.25000000e-009,-3.64218092e-004
,,,5.27500000e-009,-3.43593092e-004
,,,5.30000000e-009,-3.24843092e-004
,,,5.32500000e-009,-3.10311841e-004
,,,5.35000000e-009,-3.01874341e-004
,,,5.37500000e-009,-2.99999341e-004
,,,5.40000000e-009,-3.05155591e-004
,,,5.42500000e-009,-3.13593091e-004
,,,5.45000000e-009,-3.22968092e-004
,,,5.47500000e-009,-3.30936842e-004
,,,5.50000000e-009,-3.35155592e-004
,,,5.52500000e-009,-3.32343092e-004
,,,5.55000000e-009,-3.21093092e-004
,,,5.57500000e-009,-2.99999341e-004
,,,5.60000000e-009,-2.68593091e-004
,,,5.62500000e-009,-2.26874341e-004
,,,5.65000000e-009,-1.77655590e-004
,,,5.67500000e-009,-1.24218090e-004
,,,5.70000000e-009,-7.03118394e-005
,,,5.72500000e-009,-1.92180889e-005
,,,5.75000000e-009,2.48444115e-005
,,,5.77500000e-009,6.00006618e-005
,,,5.80000000e-009,8.10944119e-005
,,,5.82500000e-009,9.28131620e-005
,,,5.85000000e-009,9.56256621e-005
,,,5.87500000e-009,9.14069120e-005
