RawData/SinglePhotoelectron/L7_2pt2A_5mV/wave003_Ch1.csv

"Record Length",1000,"Points",-7.72500000e-009,-1.77655590e-004
"Sample Interval",2.50000000e-011,s,-7.70000000e-009,-1.84686840e-004
"Trigger Point",309,"Samples",-7.67500000e-009,-1.86093090e-004
"Trigger Time",1.48762368e-011,s,-7.65000000e-009,-1.79999340e-004
"",,,-7.62500000e-009,-1.67343090e-004
"Horizontal Offset",-7.72500000e-009,s,-7.60000000e-009,-1.48124340e-004
,,,-7.57500000e-009,-1.24218090e-004
,,,-7.55000000e-009,-9.89055896e-005
,,,-7.52500000e-009,-7.64055894e-005
,,,-7.50000000e-009,-5.99993393e-005
,,,-7.47500000e-009,-5.39055892e-005
,,,-7.45000000e-009,-5.99993393e-005
,,,-7.42500000e-009,-8.29680895e-005
,,,-7.40000000e-009,-1.18124340e-004
,,,-7.37500000e-009,-1.63593090e-004
,,,-7.35000000e-009,-2.16561841e-004
,,,-7.32500000e-009,-2.72811841e-004
,,,-7.30000000e-009,-3.28124342e-004
,,,-7.27500000e-009,-3.78280592e-004
,,,-7.25000000e-009,-4.19999342e-004
,,,-7.22500000e-009,-4.50468093e-004
,,,-7.20000000e-009,-4.69218093e-004
,,,-7.17500000e-009,-4.76718093e-004
,,,-7.15000000e-009,-4.74374343e-004
,,,-7.12500000e-009,-4.64999343e-004
,,,-7.10000000e-009,-4.51405593e-004
,,,-7.07500000e-009,-4.35468093e-004
,,,-7.05000000e-009,-4.19999342e-004
,,,-7.02500000e-009,-4.08280592e-004
,,,-7.00000000e-009,-4.00780592e-004
,,,-6.97500000e-009,-3.97499342e-004
,,,-6.95000000e-009,-3.97968092e-004
,,,-6.92500000e-009,-4.02186842e-004
,,,-6.90000000e-009,-4.07811842e-004
,,,-6.87500000e-009,-4.14374342e-004
,,,-6.85000000e-009,-4.19999342e-004
,,,-6.82500000e-009,-4.23280592e-004
,,,-6.80000000e-009,-4.24686842e-004
,,,-6.77500000e-009,-4.24686842e-004
,,,-6.75000000e-009,-4.23280592e-004
,,,-6.72500000e-009,-4.21405592e-004
,,,-6.70000000e-009,-4.19999342e-004
,,,-6.67500000e-009,-4.19530592e-004
,,,-6.65000000e-009,-4.19999342e-004
,,,-6.62500000e-009,-4.21874342e-004
,,,-6.60000000e-009,-4.24686842e-004
,,,-6.57500000e-009,-4.27499342e-004
,,,-6.55000000e-009,-4.30311843e-004
,,,-6.52500000e-009,-4.31718093e-004
,,,-6.50000000e-009,-4.30780593e-004
,,,-6.47500000e-009,-4.27030592e-004
,,,-6.45000000e-009,-4.19999342e-004
,,,-6.42500000e-009,-4.10155592e-004
,,,-6.40000000e-009,-3.99374342e-004
,,,-6.37500000e-009,-3.90468092e-004
,,,-6.35000000e-009,-3.84374342e-004
,,,-6.32500000e-009,-3.83436842e-004
,,,-6.30000000e-009,-3.88593092e-004
,,,-6.27500000e-009,-4.01249342e-004
,,,-6.25000000e-009,-4.19999342e-004
,,,-6.22500000e-009,-4.45311843e-004
,,,-6.20000000e-009,-4.73905593e-004
,,,-6.17500000e-009,-5.02499343e-004
,,,-6.15000000e-009,-5.27811843e-004
,,,-6.12500000e-009,-5.47030594e-004
,,,-6.10000000e-009,-5.56405594e-004
,,,-6.07500000e-009,-5.54530594e-004
,,,-6.05000000e-009,-5.39999343e-004
,,,-6.02500000e-009,-5.12811843e-004
,,,-6.00000000e-009,-4.76249343e-004
,,,-5.97500000e-009,-4.34530593e-004
,,,-5.95000000e-009,-3.91874342e-004
,,,-5.92500000e-009,-3.53436842e-004
,,,-5.90000000e-009,-3.22968092e-004
,,,-5.87500000e-009,-3.04218091e-004
,,,-5.85000000e-009,-2.99999341e-004
,,,-5.82500000e-009,-3.11249341e-004
,,,-5.80000000e-009,-3.35624342e-004
,,,-5.77500000e-009,-3.70311842e-004
,,,-5.75000000e-009,-4.11093092e-004
,,,-5.72500000e-009,-4.52811843e-004
,,,-5.70000000e-009,-4.90780593e-004
,,,-5.67500000e-009,-5.20780593e-004
,,,-5.65000000e-009,-5.39999343e-004
,,,-5.62500000e-009,-5.44686843e-004
,,,-5.60000000e-009,-5.36718093e-004
,,,-5.57500000e-009,-5.18905593e-004
,,,-5.55000000e-009,-4.94999343e-004
,,,-5.52500000e-009,-4.69218093e-004
,,,-5.50000000e-009,-4.45311843e-004
,,,-5.47500000e-009,-4.28436842e-004
,,,-5.45000000e-009,-4.19999342e-004
,,,-5.42500000e-009,-4.21874342e-004
,,,-5.40000000e-009,-4.34061843e-004
,,,-5.37500000e-009,-4.53280593e-004
,,,-5.35000000e-009,-4.77655593e-004
,,,-5.32500000e-009,-5.02030593e-004
,,,-5.30000000e-009,-5.23124343e-004
,,,-5.27500000e-009,-5.36718093e-004
,,,-5.25000000e-009,-5.39999343e-004
,,,-5.22500000e-009,-5.30155593e-004
,,,-5.20000000e-009,-5.09061843e-004
,,,-5.17500000e-009,-4.78593093e-004
,,,-5.15000000e-009,-4.41093093e-004
,,,-5.12500000e-009,-4.01249342e-004
,,,-5.10000000e-009,-3.61874342e-004
,,,-5.07500000e-009,-3.27655592e-004
,,,-5.05000000e-009,-2.99999341e-004
,,,-5.02500000e-009,-2.83593091e-004
,,,-5.00000000e-009,-2.75624341e-004
,,,-4.97500000e-009,-2.75624341e-004
,,,-4.95000000e-009,-2.81249341e-004
,,,-4.92500000e-009,-2.89218091e-004
,,,-4.90000000e-009,-2.96718091e-004
,,,-4.87500000e-009,-3.01405591e-004
,,,-4.85000000e-009,-2.99999341e-004
,,,-4.82500000e-009,-2.92968091e-004
,,,-4.80000000e-009,-2.79374341e-004
,,,-4.77500000e-009,-2.61093091e-004
,,,-4.75000000e-009,-2.40468091e-004
,,,-4.72500000e-009,-2.19374341e-004
,,,-4.70000000e-009,-2.00624341e-004
,,,-4.67500000e-009,-1.87030590e-004
,,,-4.65000000e-009,-1.79999340e-004
,,,-4.62500000e-009,-1.83749340e-004
,,,-4.60000000e-009,-1.94061840e-004
,,,-4.57500000e-009,-2.10468091e-004
,,,-4.55000000e-009,-2.30624341e-004
,,,-4.52500000e-009,-2.51718091e-004
,,,-4.50000000e-009,-2.71874341e-004
,,,-4.47500000e-009,-2.88280591e-004
,,,-4.45000000e-009,-2.99999341e-004
,,,-4.42500000e-009,-3.07030591e-004
,,,-4.40000000e-009,-3.07968091e-004
,,,-4.37500000e-009,-3.05155591e-004
,,,-4.35000000e-009,-2.99530591e-004
,,,-4.32500000e-009,-2.94374341e-004
,,,-4.30000000e-009,-2.91561841e-004
,,,-4.27500000e-009,-2.93436841e-004
,,,-4.25000000e-009,-2.99999341e-004
,,,-4.22500000e-009,-3.14061841e-004
,,,-4.20000000e-009,-3.31874342e-004
,,,-4.17500000e-009,-3.52968092e-004
,,,-4.15000000e-009,-3.74530592e-004
,,,-4.12500000e-009,-3.94218092e-004
,,,-4.10000000e-009,-4.09686842e-004
,,,-4.07500000e-009,-4.18593092e-004
,,,-4.05000000e-009,-4.19999342e-004
,,,-4.02500000e-009,-4.12499342e-004
,,,-4.00000000e-009,-3.97499342e-004
,,,-3.97500000e-009,-3.77811842e-004
,,,-3.95000000e-009,-3.55780592e-004
,,,-3.92500000e-009,-3.34218092e-004
,,,-3.90000000e-009,-3.16405592e-004
,,,-3.87500000e-009,-3.04218091e-004
,,,-3.85000000e-009,-2.99999341e-004
,,,-3.82500000e-009,-3.03280591e-004
,,,-3.80000000e-009,-3.14061841e-004
,,,-3.77500000e-009,-3.30936842e-004
,,,-3.75000000e-009,-3.51561842e-004
,,,-3.72500000e-009,-3.73593092e-004
,,,-3.70000000e-009,-3.93749342e-004
,,,-3.67500000e-009,-4.10155592e-004
,,,-3.65000000e-009,-4.19999342e-004
,,,-3.62500000e-009,-4.19999342e-004
,,,-3.60000000e-009,-4.12499342e-004
,,,-3.57500000e-009,-3.98436842e-004
,,,-3.55000000e-009,-3.79686842e-004
,,,-3.52500000e-009,-3.58124342e-004
,,,-3.50000000e-009,-3.36093092e-004
,,,-3.47500000e-009,-3.16405592e-004
,,,-3.45000000e-009,-2.99999341e-004
,,,-3.42500000e-009,-2.87343091e-004
,,,-3.40000000e-009,-2.79843091e-004
,,,-3.37500000e-009,-2.77499341e-004
,,,-3.35000000e-009,-2.79374341e-004
,,,-3.32500000e-009,-2.84061841e-004
,,,-3.30000000e-009,-2.90155591e-004
,,,-3.27500000e-009,-2.96249341e-004
,,,-3.25000000e-009,-2.99999341e-004
,,,-3.22500000e-009,-2.99999341e-004
,,,-3.20000000e-009,-2.94843091e-004
,,,-3.17500000e-009,-2.85468091e-004
,,,-3.15000000e-009,-2.70936841e-004
,,,-3.12500000e-009,-2.52186841e-004
,,,-3.10000000e-009,-2.30155591e-004
,,,-3.07500000e-009,-2.05780591e-004
,,,-3.05000000e-009,-1.79999340e-004
,,,-3.02500000e-009,-1.56093090e-004
,,,-3.00000000e-009,-1.33593090e-004
,,,-2.97500000e-009,-1.12968090e-004
,,,-2.95000000e-009,-9.56243396e-005
,,,-2.92500000e-009,-8.15618395e-005
,,,-2.90000000e-009,-7.07805894e-005
,,,-2.87500000e-009,-6.37493393e-005
,,,-2.85000000e-009,-5.99993393e-005
,,,-2.82500000e-009,-6.09368393e-005
,,,-2.80000000e-009,-6.32805893e-005
,,,-2.77500000e-009,-6.65618393e-005
,,,-2.75000000e-009,-6.93743394e-005
,,,-2.72500000e-009,-7.12493394e-005
,,,-2.70000000e-009,-7.07805894e-005
,,,-2.67500000e-009,-6.70305893e-005
,,,-2.65000000e-009,-5.99993393e-005
,,,-2.62500000e-009,-5.24993392e-005
,,,-2.60000000e-009,-4.12493391e-005
,,,-2.57500000e-009,-2.67180890e-005
,,,-2.55000000e-009,-9.84308885e-006
,,,-2.52500000e-009,8.90691132e-006
,,,-2.50000000e-009,2.76569115e-005
,,,-2.47500000e-009,4.50006616e-005
,,,-2.45000000e-009,6.00006618e-005
,,,-2.42500000e-009,6.75006618e-005
,,,-2.40000000e-009,7.03131619e-005
,,,-2.37500000e-009,6.60944118e-005
,,,-2.35000000e-009,5.48444117e-005
,,,-2.32500000e-009,3.65631616e-005
,,,-2.30000000e-009,1.07819113e-005
,,,-2.27500000e-009,-2.20305890e-005
,,,-2.25000000e-009,-5.99993393e-005
,,,-2.22500000e-009,-1.03593090e-004
,,,-2.20000000e-009,-1.47655590e-004
,,,-2.17500000e-009,-1.89843090e-004
,,,-2.15000000e-009,-2.27811841e-004
,,,-2.12500000e-009,-2.59218091e-004
,,,-2.10000000e-009,-2.82655591e-004
,,,-2.07500000e-009,-2.96249341e-004
,,,-2.05000000e-009,-2.99999341e-004
,,,-2.02500000e-009,-2.93436841e-004
,,,-2.00000000e-009,-2.79374341e-004
,,,-1.97500000e-009,-2.59686841e-004
,,,-1.95000000e-009,-2.37655591e-004
,,,-1.92500000e-009,-2.16093091e-004
,,,-1.90000000e-009,-1.97811840e-004
,,,-1.87500000e-009,-1.85155590e-004
,,,-1.85000000e-009,-1.79999340e-004
,,,-1.82500000e-009,-1.83749340e-004
,,,-1.80000000e-009,-1.95468090e-004
,,,-1.77500000e-009,-2.13280591e-004
,,,-1.75000000e-009,-2.34374341e-004
,,,-1.72500000e-009,-2.56405591e-004
,,,-1.70000000e-009,-2.76561841e-004
,,,-1.67500000e-009,-2.92030591e-004
,,,-1.65000000e-009,-2.99999341e-004
,,,-1.62500000e-009,-3.01874341e-004
,,,-1.60000000e-009,-2.96249341e-004
,,,-1.57500000e-009,-2.83593091e-004
,,,-1.55000000e-009,-2.65780591e-004
,,,-1.52500000e-009,-2.44686841e-004
,,,-1.50000000e-009,-2.21718091e-004
,,,-1.47500000e-009,-1.99686840e-004
,,,-1.45000000e-009,-1.79999340e-004
,,,-1.42500000e-009,-1.70155590e-004
,,,-1.40000000e-009,-1.66405590e-004
,,,-1.37500000e-009,-1.66874340e-004
,,,-1.35000000e-009,-1.71093090e-004
,,,-1.32500000e-009,-1.76249340e-004
,,,-1.30000000e-009,-1.80468090e-004
,,,-1.27500000e-009,-1.82343090e-004
,,,-1.25000000e-009,-1.79999340e-004
,,,-1.22500000e-009,-1.87030590e-004
,,,-1.20000000e-009,-1.91718090e-004
,,,-1.17500000e-009,-1.94061840e-004
,,,-1.15000000e-009,-1.94061840e-004
,,,-1.12500000e-009,-1.92186840e-004
,,,-1.10000000e-009,-1.87968090e-004
,,,-1.07500000e-009,-1.83749340e-004
,,,-1.05000000e-009,-1.79999340e-004
,,,-1.02500000e-009,-2.01561841e-004
,,,-1.00000000e-009,-2.29218091e-004
,,,-9.75000000e-010,-2.61093091e-004
,,,-9.50000000e-010,-2.95780591e-004
,,,-9.25000000e-010,-3.30936842e-004
,,,-9.00000000e-010,-3.64218092e-004
,,,-8.75000000e-010,-3.93749342e-004
,,,-8.50000000e-010,-4.19999342e-004
,,,-8.25000000e-010,-4.71561843e-004
,,,-8.00000000e-010,-5.23593093e-004
,,,-7.75000000e-010,-5.75155594e-004
,,,-7.50000000e-010,-6.23905594e-004
,,,-7.25000000e-010,-6.68905595e-004
,,,-7.00000000e-010,-7.09686845e-004
,,,-6.75000000e-010,-7.46249345e-004
,,,-6.50000000e-010,-7.79999346e-004
,,,-6.25000000e-010,-8.47030596e-004
,,,-6.00000000e-010,-9.21561847e-004
,,,-5.75000000e-010,-1.00312435e-003
,,,-5.50000000e-010,-1.09124935e-003
,,,-5.25000000e-010,-1.18546810e-003
,,,-5.00000000e-010,-1.28437435e-003
,,,-4.75000000e-010,-1.38890560e-003
,,,-4.50000000e-010,-1.49999935e-003
,,,-4.25000000e-010,-1.64765560e-003
,,,-4.00000000e-010,-1.80843685e-003
,,,-3.75000000e-010,-1.98093686e-003
,,,-3.50000000e-010,-2.16281186e-003
,,,-3.25000000e-010,-2.35171811e-003
,,,-3.00000000e-010,-2.54531186e-003
,,,-2.75000000e-010,-2.74171811e-003
,,,-2.50000000e-010,-2.93999936e-003
,,,-2.25000000e-010,-3.15515562e-003
,,,-2.00000000e-010,-3.37593687e-003
,,,-1.75000000e-010,-3.60140562e-003
,,,-1.50000000e-010,-3.82921812e-003
,,,-1.25000000e-010,-4.05890562e-003
,,,-1.00000000e-010,-4.28765563e-003
,,,-7.50000000e-011,-4.51499938e-003
,,,-5.00000000e-011,-4.73999938e-003
,,,-2.50000000e-011,-4.95890563e-003
,,,0.00000000e+000,-5.18062438e-003
,,,2.50000000e-011,-5.40515564e-003
,,,5.00000000e-011,-5.63203064e-003
,,,7.50000000e-011,-5.86078064e-003
,,,1.00000000e-010,-6.08953064e-003
,,,1.25000000e-010,-6.31640564e-003
,,,1.50000000e-010,-6.53999940e-003
,,,1.75000000e-010,-6.73593690e-003
,,,2.00000000e-010,-6.92999940e-003
,,,2.25000000e-010,-7.12124940e-003
,,,2.50000000e-010,-7.30874940e-003
,,,2.75000000e-010,-7.49109315e-003
,,,3.00000000e-010,-7.66546816e-003
,,,3.25000000e-010,-7.82906191e-003
,,,3.50000000e-010,-7.97999941e-003
,,,3.75000000e-010,-8.07843691e-003
,,,4.00000000e-010,-8.16749941e-003
,,,4.25000000e-010,-8.24999941e-003
,,,4.50000000e-010,-8.32687441e-003
,,,4.75000000e-010,-8.39906191e-003
,,,5.00000000e-010,-8.46562441e-003
,,,5.25000000e-010,-8.52656191e-003
,,,5.50000000e-010,-8.57999941e-003
,,,5.75000000e-010,-8.57999941e-003
,,,6.00000000e-010,-8.57578066e-003
,,,6.25000000e-010,-8.56921816e-003
,,,6.50000000e-010,-8.55890566e-003
,,,6.75000000e-010,-8.54484316e-003
,,,7.00000000e-010,-8.52515566e-003
,,,7.25000000e-010,-8.49703066e-003
,,,7.50000000e-010,-8.45999941e-003
,,,7.75000000e-010,-8.37140566e-003
,,,8.00000000e-010,-8.27765566e-003
,,,8.25000000e-010,-8.18156191e-003
,,,8.50000000e-010,-8.08546816e-003
,,,8.75000000e-010,-7.99265566e-003
,,,9.00000000e-010,-7.90359316e-003
,,,9.25000000e-010,-7.81921816e-003
,,,9.50000000e-010,-7.73999941e-003
,,,9.75000000e-010,-7.63406191e-003
,,,1.00000000e-009,-7.53421815e-003
,,,1.02500000e-009,-7.43999940e-003
,,,1.05000000e-009,-7.35140565e-003
,,,1.07500000e-009,-7.26656190e-003
,,,1.10000000e-009,-7.18546815e-003
,,,1.12500000e-009,-7.10390565e-003
,,,1.15000000e-009,-7.01999940e-003
,,,1.17500000e-009,-6.91312440e-003
,,,1.20000000e-009,-6.79968690e-003
,,,1.22500000e-009,-6.68109315e-003
,,,1.25000000e-009,-6.55874940e-003
,,,1.27500000e-009,-6.43406189e-003
,,,1.30000000e-009,-6.30843689e-003
,,,1.32500000e-009,-6.18328064e-003
,,,1.35000000e-009,-6.05999939e-003
,,,1.37500000e-009,-5.93156189e-003
,,,1.40000000e-009,-5.80265564e-003
,,,1.42500000e-009,-5.67515564e-003
,,,1.45000000e-009,-5.54999939e-003
,,,1.47500000e-009,-5.42906189e-003
,,,1.50000000e-009,-5.31328063e-003
,,,1.52500000e-009,-5.20359313e-003
,,,1.55000000e-009,-5.09999938e-003
,,,1.57500000e-009,-5.00296813e-003
,,,1.60000000e-009,-4.90687438e-003
,,,1.62500000e-009,-4.81171813e-003
,,,1.65000000e-009,-4.71796813e-003
,,,1.67500000e-009,-4.62703063e-003
,,,1.70000000e-009,-4.53984313e-003
,,,1.72500000e-009,-4.45781188e-003
,,,1.75000000e-009,-4.37999938e-003
,,,1.77500000e-009,-4.31109313e-003
,,,1.80000000e-009,-4.24031188e-003
,,,1.82500000e-009,-4.16671812e-003
,,,1.85000000e-009,-4.09078062e-003
,,,1.87500000e-009,-4.01296812e-003
,,,1.90000000e-009,-3.93515562e-003
,,,1.92500000e-009,-3.85734312e-003
,,,1.95000000e-009,-3.77999937e-003
,,,1.97500000e-009,-3.71109312e-003
,,,2.00000000e-009,-3.63843687e-003
,,,2.02500000e-009,-3.56203062e-003
,,,2.05000000e-009,-3.48374937e-003
,,,2.07500000e-009,-3.40499937e-003
,,,2.10000000e-009,-3.32718687e-003
,,,2.12500000e-009,-3.25171812e-003
,,,2.15000000e-009,-3.17999937e-003
,,,2.17500000e-009,-3.12093687e-003
,,,2.20000000e-009,-3.06093687e-003
,,,2.22500000e-009,-3.00046811e-003
,,,2.25000000e-009,-2.93953061e-003
,,,2.27500000e-009,-2.87812436e-003
,,,2.30000000e-009,-2.81765561e-003
,,,2.32500000e-009,-2.75812436e-003
,,,2.35000000e-009,-2.69999936e-003
,,,2.37500000e-009,-2.65124936e-003
,,,2.40000000e-009,-2.59874936e-003
,,,2.42500000e-009,-2.54249936e-003
,,,2.45000000e-009,-2.48203061e-003
,,,2.47500000e-009,-2.41828061e-003
,,,2.50000000e-009,-2.35265561e-003
,,,2.52500000e-009,-2.28609311e-003
,,,2.55000000e-009,-2.21999936e-003
,,,2.57500000e-009,-2.16421811e-003
,,,2.60000000e-009,-2.10843686e-003
,,,2.62500000e-009,-2.05406186e-003
,,,2.65000000e-009,-2.00249936e-003
,,,2.67500000e-009,-1.95609311e-003
,,,2.70000000e-009,-1.91578061e-003
,,,2.72500000e-009,-1.88343686e-003
,,,2.75000000e-009,-1.85999935e-003
,,,2.77500000e-009,-1.85343685e-003
,,,2.80000000e-009,-1.85156185e-003
,,,2.82500000e-009,-1.85296810e-003
,,,2.85000000e-009,-1.85578060e-003
,,,2.87500000e-009,-1.85906185e-003
,,,2.90000000e-009,-1.86140560e-003
,,,2.92500000e-009,-1.86234310e-003
,,,2.95000000e-009,-1.85999935e-003
,,,2.97500000e-009,-1.86046810e-003
,,,3.00000000e-009,-1.85484310e-003
,,,3.02500000e-009,-1.84359310e-003
,,,3.05000000e-009,-1.82671810e-003
,,,3.07500000e-009,-1.80656185e-003
,,,3.10000000e-009,-1.78453060e-003
,,,3.12500000e-009,-1.76203060e-003
,,,3.15000000e-009,-1.73999935e-003
,,,3.17500000e-009,-1.72359310e-003
,,,3.20000000e-009,-1.70765560e-003
,,,3.22500000e-009,-1.69171810e-003
,,,3.25000000e-009,-1.67671810e-003
,,,3.27500000e-009,-1.66218685e-003
,,,3.30000000e-009,-1.64812435e-003
,,,3.32500000e-009,-1.63406185e-003
,,,3.35000000e-009,-1.61999935e-003
,,,3.37500000e-009,-1.60687435e-003
,,,3.40000000e-009,-1.59187435e-003
,,,3.42500000e-009,-1.57546810e-003
,,,3.45000000e-009,-1.55812435e-003
,,,3.47500000e-009,-1.54124935e-003
,,,3.50000000e-009,-1.52484310e-003
,,,3.52500000e-009,-1.51124935e-003
,,,3.55000000e-009,-1.49999935e-003
,,,3.57500000e-009,-1.49156185e-003
,,,3.60000000e-009,-1.48499935e-003
,,,3.62500000e-009,-1.48078060e-003
,,,3.65000000e-009,-1.47984310e-003
,,,3.67500000e-009,-1.48124935e-003
,,,3.70000000e-009,-1.48546810e-003
,,,3.72500000e-009,-1.49203060e-003
,,,3.75000000e-009,-1.49999935e-003
,,,3.77500000e-009,-1.50703060e-003
,,,3.80000000e-009,-1.51265560e-003
,,,3.82500000e-009,-1.51687435e-003
,,,3.85000000e-009,-1.51921810e-003
,,,3.87500000e-009,-1.51874935e-003
,,,3.90000000e-009,-1.51593685e-003
,,,3.92500000e-009,-1.50984310e-003
,,,3.95000000e-009,-1.49999935e-003
,,,3.97500000e-009,-1.48359310e-003
,,,4.00000000e-009,-1.46203060e-003
,,,4.02500000e-009,-1.43624935e-003
,,,4.05000000e-009,-1.40624935e-003
,,,4.07500000e-009,-1.37296810e-003
,,,4.10000000e-009,-1.33734310e-003
,,,4.12500000e-009,-1.29937435e-003
,,,4.15000000e-009,-1.25999935e-003
,,,4.17500000e-009,-1.21781185e-003
,,,4.20000000e-009,-1.17374935e-003
,,,4.22500000e-009,-1.12874935e-003
,,,4.25000000e-009,-1.08281185e-003
,,,4.27500000e-009,-1.03640560e-003
,,,4.30000000e-009,-9.90468097e-004
,,,4.32500000e-009,-9.44530597e-004
,,,4.35000000e-009,-8.99999347e-004
,,,4.37500000e-009,-8.57811846e-004
,,,4.40000000e-009,-8.17030596e-004
,,,4.42500000e-009,-7.79061846e-004
,,,4.45000000e-009,-7.44843095e-004
,,,4.47500000e-009,-7.15311845e-004
,,,4.50000000e-009,-6.90936845e-004
,,,4.52500000e-009,-6.72655595e-004
,,,4.55000000e-009,-6.59999344e-004
,,,4.57500000e-009,-6.56718094e-004
,,,4.60000000e-009,-6.57186844e-004
,,,4.62500000e-009,-6.59999344e-004
,,,4.65000000e-009,-6.63749345e-004
,,,4.67500000e-009,-6.67030595e-004
,,,4.70000000e-009,-6.67968095e-004
,,,4.72500000e-009,-6.66093095e-004
,,,4.75000000e-009,-6.59999344e-004
,,,4.77500000e-009,-6.52499344e-004
,,,4.80000000e-009,-6.40311844e-004
,,,4.82500000e-009,-6.24843094e-004
,,,4.85000000e-009,-6.06561844e-004
,,,4.87500000e-009,-5.87811844e-004
,,,4.90000000e-009,-5.69530594e-004
,,,4.92500000e-009,-5.53593094e-004
,,,4.95000000e-009,-5.39999343e-004
,,,4.97500000e-009,-5.33436843e-004
,,,5.00000000e-009,-5.26874343e-004
,,,5.02500000e-009,-5.19843093e-004
,,,5.05000000e-009,-5.09999343e-004
,,,5.07500000e-009,-4.95936843e-004
,,,5.10000000e-009,-4.76718093e-004
,,,5.12500000e-009,-4.50936843e-004
,,,5.15000000e-009,-4.19999342e-004
,,,5.17500000e-009,-3.88593092e-004
,,,5.20000000e-009,-3.55311842e-004
,,,5.22500000e-009,-3.22968092e-004
,,,5.25000000e-009,-2.95311841e-004
,,,5.27500000e-009,-2.76561841e-004
,,,5.30000000e-009,-2.69530591e-004
,,,5.32500000e-009,-2.77030591e-004
,,,5.35000000e-009,-2.99999341e-004
,,,5.37500000e-009,-3.40311842e-004
,,,5.40000000e-009,-3.90936842e-004
,,,5.42500000e-009,-4.48124343e-004
,,,5.45000000e-009,-5.07186843e-004
,,,5.47500000e-009,-5.62030594e-004
,,,5.50000000e-009,-6.08905594e-004
,,,5.52500000e-009,-6.42186844e-004
,,,5.55000000e-009,-6.59999344e-004
,,,5.57500000e-009,-6.58124344e-004
,,,5.60000000e-009,-6.39374344e-004
,,,5.62500000e-009,-6.07499344e-004
,,,5.65000000e-009,-5.66718094e-004
,,,5.67500000e-009,-5.22655593e-004
,,,5.70000000e-009,-4.80468093e-004
,,,5.72500000e-009,-4.44843093e-004
,,,5.75000000e-009,-4.19999342e-004
,,,5.77500000e-009,-4.08280592e-004
,,,5.80000000e-009,-4.09686842e-004
