RawData/SinglePhotoelectron/L7_2pt2A_5mV/wave006_Ch1.csv

"Record Length",1000,"Points",-7.72500000e-009,-2.99999341e-004
"Sample Interval",2.50000000e-011,s,-7.70000000e-009,-3.41718092e-004
"Trigger Point",309,"Samples",-7.67500000e-009,-3.79686842e-004
"Trigger Time",5.66682540e-012,s,-7.65000000e-009,-4.14374342e-004
"",,,-7.62500000e-009,-4.45311843e-004
"Horizontal Offset",-7.72500000e-009,s,-7.60000000e-009,-4.72968093e-004
,,,-7.57500000e-009,-4.97343093e-004
,,,-7.55000000e-009,-5.19843093e-004
,,,-7.52500000e-009,-5.39999343e-004
,,,-7.50000000e-009,-5.52655594e-004
,,,-7.47500000e-009,-5.62499344e-004
,,,-7.45000000e-009,-5.69530594e-004
,,,-7.42500000e-009,-5.72811844e-004
,,,-7.40000000e-009,-5.71874344e-004
,,,-7.37500000e-009,-5.66249344e-004
,,,-7.35000000e-009,-5.55468094e-004
,,,-7.32500000e-009,-5.39999343e-004
,,,-7.30000000e-009,-5.14218093e-004
,,,-7.27500000e-009,-4.86561843e-004
,,,-7.25000000e-009,-4.60311843e-004
,,,-7.22500000e-009,-4.37811843e-004
,,,-7.20000000e-009,-4.21405592e-004
,,,-7.17500000e-009,-4.12499342e-004
,,,-7.15000000e-009,-4.12499342e-004
,,,-7.12500000e-009,-4.19999342e-004
,,,-7.10000000e-009,-4.29374342e-004
,,,-7.07500000e-009,-4.42499343e-004
,,,-7.05000000e-009,-4.56093093e-004
,,,-7.02500000e-009,-4.67343093e-004
,,,-7.00000000e-009,-4.72030593e-004
,,,-6.97500000e-009,-4.67343093e-004
,,,-6.95000000e-009,-4.50468093e-004
,,,-6.92500000e-009,-4.19999342e-004
,,,-6.90000000e-009,-3.71718092e-004
,,,-6.87500000e-009,-3.12186841e-004
,,,-6.85000000e-009,-2.44686841e-004
,,,-6.82500000e-009,-1.73436840e-004
,,,-6.80000000e-009,-1.03124340e-004
,,,-6.77500000e-009,-3.84368391e-005
,,,-6.75000000e-009,1.68756614e-005
,,,-6.72500000e-009,6.00006618e-005
,,,-6.70000000e-009,8.85944120e-005
,,,-6.67500000e-009,1.03594412e-004
,,,-6.65000000e-009,1.06875662e-004
,,,-6.62500000e-009,1.00781912e-004
,,,-6.60000000e-009,8.90631620e-005
,,,-6.57500000e-009,7.59381619e-005
,,,-6.55000000e-009,6.51569118e-005
,,,-6.52500000e-009,6.00006618e-005
,,,-6.50000000e-009,6.09381618e-005
,,,-6.47500000e-009,7.21881619e-005
,,,-6.45000000e-009,9.37506621e-005
,,,-6.42500000e-009,1.25156912e-004
,,,-6.40000000e-009,1.64063163e-004
,,,-6.37500000e-009,2.08125663e-004
,,,-6.35000000e-009,2.54531913e-004
,,,-6.32500000e-009,3.00000664e-004
,,,-6.30000000e-009,3.38438164e-004
,,,-6.27500000e-009,3.71250664e-004
,,,-6.25000000e-009,3.97969415e-004
,,,-6.22500000e-009,4.17656915e-004
,,,-6.20000000e-009,4.28906915e-004
,,,-6.17500000e-009,4.32656915e-004
,,,-6.15000000e-009,4.29375665e-004
,,,-6.12500000e-009,4.20000665e-004
,,,-6.10000000e-009,4.01719415e-004
,,,-6.07500000e-009,3.81094415e-004
,,,-6.05000000e-009,3.60938164e-004
,,,-6.02500000e-009,3.41719414e-004
,,,-6.00000000e-009,3.25313164e-004
,,,-5.97500000e-009,3.12656914e-004
,,,-5.95000000e-009,3.04219414e-004
,,,-5.92500000e-009,3.00000664e-004
,,,-5.90000000e-009,2.97188164e-004
,,,-5.87500000e-009,2.98594414e-004
,,,-5.85000000e-009,3.02344414e-004
,,,-5.82500000e-009,3.07031914e-004
,,,-5.80000000e-009,3.10781914e-004
,,,-5.77500000e-009,3.11250664e-004
,,,-5.75000000e-009,3.07969414e-004
,,,-5.72500000e-009,3.00000664e-004
,,,-5.70000000e-009,2.85938164e-004
,,,-5.67500000e-009,2.68594414e-004
,,,-5.65000000e-009,2.48906913e-004
,,,-5.62500000e-009,2.28750663e-004
,,,-5.60000000e-009,2.09531913e-004
,,,-5.57500000e-009,1.94063163e-004
,,,-5.55000000e-009,1.83750663e-004
,,,-5.52500000e-009,1.80000663e-004
,,,-5.50000000e-009,1.82813163e-004
,,,-5.47500000e-009,1.92188163e-004
,,,-5.45000000e-009,2.07188163e-004
,,,-5.42500000e-009,2.25938163e-004
,,,-5.40000000e-009,2.46563163e-004
,,,-5.37500000e-009,2.67188164e-004
,,,-5.35000000e-009,2.85469414e-004
,,,-5.32500000e-009,3.00000664e-004
,,,-5.30000000e-009,3.09375664e-004
,,,-5.27500000e-009,3.14063164e-004
,,,-5.25000000e-009,3.14531914e-004
,,,-5.22500000e-009,3.11719414e-004
,,,-5.20000000e-009,3.07031914e-004
,,,-5.17500000e-009,3.02344414e-004
,,,-5.15000000e-009,2.99531914e-004
,,,-5.12500000e-009,3.00000664e-004
,,,-5.10000000e-009,3.04688164e-004
,,,-5.07500000e-009,3.13594414e-004
,,,-5.05000000e-009,3.26250664e-004
,,,-5.02500000e-009,3.42656914e-004
,,,-5.00000000e-009,3.61406914e-004
,,,-4.97500000e-009,3.81563165e-004
,,,-4.95000000e-009,4.01250665e-004
,,,-4.92500000e-009,4.20000665e-004
,,,-4.90000000e-009,4.33594415e-004
,,,-4.87500000e-009,4.43906915e-004
,,,-4.85000000e-009,4.49531915e-004
,,,-4.82500000e-009,4.50938165e-004
,,,-4.80000000e-009,4.48125665e-004
,,,-4.77500000e-009,4.42031915e-004
,,,-4.75000000e-009,4.32188165e-004
,,,-4.72500000e-009,4.20000665e-004
,,,-4.70000000e-009,4.03594415e-004
,,,-4.67500000e-009,3.85781915e-004
,,,-4.65000000e-009,3.67969414e-004
,,,-4.62500000e-009,3.51094414e-004
,,,-4.60000000e-009,3.35156914e-004
,,,-4.57500000e-009,3.21094414e-004
,,,-4.55000000e-009,3.08906914e-004
,,,-4.52500000e-009,3.00000664e-004
,,,-4.50000000e-009,2.92500664e-004
,,,-4.47500000e-009,2.88281914e-004
,,,-4.45000000e-009,2.86875664e-004
,,,-4.42500000e-009,2.87344414e-004
,,,-4.40000000e-009,2.89688164e-004
,,,-4.37500000e-009,2.92500664e-004
,,,-4.35000000e-009,2.96250664e-004
,,,-4.32500000e-009,3.00000664e-004
,,,-4.30000000e-009,3.02344414e-004
,,,-4.27500000e-009,3.03750664e-004
,,,-4.25000000e-009,3.04688164e-004
,,,-4.22500000e-009,3.04688164e-004
,,,-4.20000000e-009,3.04688164e-004
,,,-4.17500000e-009,3.03750664e-004
,,,-4.15000000e-009,3.01875664e-004
,,,-4.12500000e-009,3.00000664e-004
,,,-4.10000000e-009,2.96250664e-004
,,,-4.07500000e-009,2.90625664e-004
,,,-4.05000000e-009,2.82188164e-004
,,,-4.02500000e-009,2.70469414e-004
,,,-4.00000000e-009,2.54531913e-004
,,,-3.97500000e-009,2.33906913e-004
,,,-3.95000000e-009,2.08594413e-004
,,,-3.92500000e-009,1.80000663e-004
,,,-3.90000000e-009,1.49531913e-004
,,,-3.87500000e-009,1.19063162e-004
,,,-3.85000000e-009,9.09381620e-005
,,,-3.82500000e-009,6.70319118e-005
,,,-3.80000000e-009,5.01569117e-005
,,,-3.77500000e-009,4.26569116e-005
,,,-3.75000000e-009,4.59381616e-005
,,,-3.72500000e-009,6.00006618e-005
,,,-3.70000000e-009,8.57819120e-005
,,,-3.67500000e-009,1.19531912e-004
,,,-3.65000000e-009,1.57500663e-004
,,,-3.62500000e-009,1.96875663e-004
,,,-3.60000000e-009,2.33438163e-004
,,,-3.57500000e-009,2.64844414e-004
,,,-3.55000000e-009,2.87344414e-004
,,,-3.52500000e-009,3.00000664e-004
,,,-3.50000000e-009,3.00000664e-004
,,,-3.47500000e-009,2.90156914e-004
,,,-3.45000000e-009,2.72344414e-004
,,,-3.42500000e-009,2.49375663e-004
,,,-3.40000000e-009,2.25469413e-004
,,,-3.37500000e-009,2.03906913e-004
,,,-3.35000000e-009,1.87969413e-004
,,,-3.32500000e-009,1.80000663e-004
,,,-3.30000000e-009,1.80469413e-004
,,,-3.27500000e-009,1.89844413e-004
,,,-3.25000000e-009,2.06250663e-004
,,,-3.22500000e-009,2.27344413e-004
,,,-3.20000000e-009,2.50313163e-004
,,,-3.17500000e-009,2.71875664e-004
,,,-3.15000000e-009,2.89219414e-004
,,,-3.12500000e-009,3.00000664e-004
,,,-3.10000000e-009,3.00938164e-004
,,,-3.07500000e-009,2.93438164e-004
,,,-3.05000000e-009,2.78906914e-004
,,,-3.02500000e-009,2.59219413e-004
,,,-3.00000000e-009,2.36719413e-004
,,,-2.97500000e-009,2.14688163e-004
,,,-2.95000000e-009,1.95000663e-004
,,,-2.92500000e-009,1.80000663e-004
,,,-2.90000000e-009,1.69688163e-004
,,,-2.87500000e-009,1.65469413e-004
,,,-2.85000000e-009,1.66406913e-004
,,,-2.82500000e-009,1.70625663e-004
,,,-2.80000000e-009,1.75781913e-004
,,,-2.77500000e-009,1.80469413e-004
,,,-2.75000000e-009,1.82344413e-004
,,,-2.72500000e-009,1.80000663e-004
,,,-2.70000000e-009,1.72500663e-004
,,,-2.67500000e-009,1.60313163e-004
,,,-2.65000000e-009,1.44375662e-004
,,,-2.62500000e-009,1.26094412e-004
,,,-2.60000000e-009,1.06406912e-004
,,,-2.57500000e-009,8.81256620e-005
,,,-2.55000000e-009,7.21881619e-005
,,,-2.52500000e-009,6.00006618e-005
,,,-2.50000000e-009,5.39069117e-005
,,,-2.47500000e-009,5.20319117e-005
,,,-2.45000000e-009,5.39069117e-005
,,,-2.42500000e-009,5.71881617e-005
,,,-2.40000000e-009,6.14069118e-005
,,,-2.37500000e-009,6.37506618e-005
,,,-2.35000000e-009,6.37506618e-005
,,,-2.32500000e-009,6.00006618e-005
,,,-2.30000000e-009,5.34381617e-005
,,,-2.27500000e-009,4.31256616e-005
,,,-2.25000000e-009,2.85944115e-005
,,,-2.22500000e-009,1.12506613e-005
,,,-2.20000000e-009,-7.96808883e-006
,,,-2.17500000e-009,-2.76555890e-005
,,,-2.15000000e-009,-4.54680892e-005
,,,-2.12500000e-009,-5.99993393e-005
,,,-2.10000000e-009,-6.70305893e-005
,,,-2.07500000e-009,-6.79680894e-005
,,,-2.05000000e-009,-6.28118393e-005
,,,-2.02500000e-009,-5.01555892e-005
,,,-2.00000000e-009,-3.14055890e-005
,,,-1.97500000e-009,-6.09308881e-006
,,,-1.95000000e-009,2.48444115e-005
,,,-1.92500000e-009,6.00006618e-005
,,,-1.90000000e-009,9.89069121e-005
,,,-1.87500000e-009,1.39219412e-004
,,,-1.85000000e-009,1.77656913e-004
,,,-1.82500000e-009,2.13281913e-004
,,,-1.80000000e-009,2.44219413e-004
,,,-1.77500000e-009,2.69063164e-004
,,,-1.75000000e-009,2.87813164e-004
,,,-1.72500000e-009,3.00000664e-004
,,,-1.70000000e-009,3.03281914e-004
,,,-1.67500000e-009,3.01406914e-004
,,,-1.65000000e-009,2.96719414e-004
,,,-1.62500000e-009,2.91094414e-004
,,,-1.60000000e-009,2.86406914e-004
,,,-1.57500000e-009,2.85938164e-004
,,,-1.55000000e-009,2.89688164e-004
,,,-1.52500000e-009,3.00000664e-004
,,,-1.50000000e-009,3.09375664e-004
,,,-1.47500000e-009,3.23438164e-004
,,,-1.45000000e-009,3.40313164e-004
,,,-1.42500000e-009,3.59531914e-004
,,,-1.40000000e-009,3.78750665e-004
,,,-1.37500000e-009,3.96563165e-004
,,,-1.35000000e-009,4.10625665e-004
,,,-1.32500000e-009,4.20000665e-004
,,,-1.30000000e-009,4.10625665e-004
,,,-1.27500000e-009,3.95156915e-004
,,,-1.25000000e-009,3.74531914e-004
,,,-1.22500000e-009,3.52500664e-004
,,,-1.20000000e-009,3.31406914e-004
,,,-1.17500000e-009,3.14063164e-004
,,,-1.15000000e-009,3.03281914e-004
,,,-1.12500000e-009,3.00000664e-004
,,,-1.10000000e-009,2.82188164e-004
,,,-1.07500000e-009,2.69531914e-004
,,,-1.05000000e-009,2.62969414e-004
,,,-1.02500000e-009,2.62031914e-004
,,,-1.00000000e-009,2.66719414e-004
,,,-9.75000000e-010,2.76094414e-004
,,,-9.50000000e-010,2.87813164e-004
,,,-9.25000000e-010,3.00000664e-004
,,,-9.00000000e-010,2.77969414e-004
,,,-8.75000000e-010,2.47031913e-004
,,,-8.50000000e-010,2.07656913e-004
,,,-8.25000000e-010,1.61250663e-004
,,,-8.00000000e-010,1.09688162e-004
,,,-7.75000000e-010,5.48444117e-005
,,,-7.50000000e-010,-1.87433878e-006
,,,-7.25000000e-010,-5.99993393e-005
,,,-7.00000000e-010,-1.54218090e-004
,,,-6.75000000e-010,-2.52655591e-004
,,,-6.50000000e-010,-3.52968092e-004
,,,-6.25000000e-010,-4.51405593e-004
,,,-6.00000000e-010,-5.44686843e-004
,,,-5.75000000e-010,-6.30468094e-004
,,,-5.50000000e-010,-7.08280595e-004
,,,-5.25000000e-010,-7.79999346e-004
,,,-5.00000000e-010,-8.80780596e-004
,,,-4.75000000e-010,-9.88124347e-004
,,,-4.50000000e-010,-1.10343685e-003
,,,-4.25000000e-010,-1.22859310e-003
,,,-4.00000000e-010,-1.36546810e-003
,,,-3.75000000e-010,-1.51499935e-003
,,,-3.50000000e-010,-1.67953060e-003
,,,-3.25000000e-010,-1.85999935e-003
,,,-3.00000000e-010,-2.07796811e-003
,,,-2.75000000e-010,-2.31609311e-003
,,,-2.50000000e-010,-2.57015561e-003
,,,-2.25000000e-010,-2.83546811e-003
,,,-2.00000000e-010,-3.10593687e-003
,,,-1.75000000e-010,-3.37640562e-003
,,,-1.50000000e-010,-3.64218687e-003
,,,-1.25000000e-010,-3.89999937e-003
,,,-1.00000000e-010,-4.14843687e-003
,,,-7.50000000e-011,-4.39124938e-003
,,,-5.00000000e-011,-4.63031188e-003
,,,-2.50000000e-011,-4.86656188e-003
,,,0.00000000e+000,-5.10281188e-003
,,,2.50000000e-011,-5.33953064e-003
,,,5.00000000e-011,-5.57859314e-003
,,,7.50000000e-011,-5.81999939e-003
,,,1.00000000e-010,-6.04312439e-003
,,,1.25000000e-010,-6.27234314e-003
,,,1.50000000e-010,-6.50671815e-003
,,,1.75000000e-010,-6.74296815e-003
,,,2.00000000e-010,-6.97781190e-003
,,,2.25000000e-010,-7.20562440e-003
,,,2.50000000e-010,-7.42078065e-003
,,,2.75000000e-010,-7.61999940e-003
,,,3.00000000e-010,-7.75874941e-003
,,,3.25000000e-010,-7.88062441e-003
,,,3.50000000e-010,-7.98749941e-003
,,,3.75000000e-010,-8.08124941e-003
,,,4.00000000e-010,-8.16234316e-003
,,,4.25000000e-010,-8.23218691e-003
,,,4.50000000e-010,-8.29124941e-003
,,,4.75000000e-010,-8.33999941e-003
,,,5.00000000e-010,-8.33203066e-003
,,,5.25000000e-010,-8.32124941e-003
,,,5.50000000e-010,-8.30953066e-003
,,,5.75000000e-010,-8.29734316e-003
,,,6.00000000e-010,-8.28421816e-003
,,,6.25000000e-010,-8.26874941e-003
,,,6.50000000e-010,-8.24812441e-003
,,,6.75000000e-010,-8.21999941e-003
,,,7.00000000e-010,-8.13796816e-003
,,,7.25000000e-010,-8.05124941e-003
,,,7.50000000e-010,-7.96171816e-003
,,,7.75000000e-010,-7.87078066e-003
,,,8.00000000e-010,-7.77937441e-003
,,,8.25000000e-010,-7.68703066e-003
,,,8.50000000e-010,-7.59421815e-003
,,,8.75000000e-010,-7.49999940e-003
,,,9.00000000e-010,-7.36968690e-003
,,,9.25000000e-010,-7.24124940e-003
,,,9.50000000e-010,-7.11468690e-003
,,,9.75000000e-010,-6.99140565e-003
,,,1.00000000e-009,-6.87234315e-003
,,,1.02500000e-009,-6.75749940e-003
,,,1.05000000e-009,-6.64734315e-003
,,,1.07500000e-009,-6.53999940e-003
,,,1.10000000e-009,-6.41718689e-003
,,,1.12500000e-009,-6.29718689e-003
,,,1.15000000e-009,-6.18140564e-003
,,,1.17500000e-009,-6.07171814e-003
,,,1.20000000e-009,-5.96812439e-003
,,,1.22500000e-009,-5.87203064e-003
,,,1.25000000e-009,-5.78296814e-003
,,,1.27500000e-009,-5.69999939e-003
,,,1.30000000e-009,-5.61374939e-003
,,,1.32500000e-009,-5.52749939e-003
,,,1.35000000e-009,-5.43984314e-003
,,,1.37500000e-009,-5.35124939e-003
,,,1.40000000e-009,-5.26124938e-003
,,,1.42500000e-009,-5.16937438e-003
,,,1.45000000e-009,-5.07609313e-003
,,,1.47500000e-009,-4.97999938e-003
,,,1.50000000e-009,-4.87968688e-003
,,,1.52500000e-009,-4.77046813e-003
,,,1.55000000e-009,-4.65374938e-003
,,,1.57500000e-009,-4.52999938e-003
,,,1.60000000e-009,-4.40249938e-003
,,,1.62500000e-009,-4.27312438e-003
,,,1.65000000e-009,-4.14468687e-003
,,,1.67500000e-009,-4.01999937e-003
,,,1.70000000e-009,-3.90749937e-003
,,,1.72500000e-009,-3.79734312e-003
,,,1.75000000e-009,-3.69187437e-003
,,,1.77500000e-009,-3.59249937e-003
,,,1.80000000e-009,-3.50249937e-003
,,,1.82500000e-009,-3.42328062e-003
,,,1.85000000e-009,-3.35578062e-003
,,,1.87500000e-009,-3.29999937e-003
,,,1.90000000e-009,-3.26343687e-003
,,,1.92500000e-009,-3.22874937e-003
,,,1.95000000e-009,-3.19406187e-003
,,,1.97500000e-009,-3.15562437e-003
,,,2.00000000e-009,-3.11249937e-003
,,,2.02500000e-009,-3.06281187e-003
,,,2.05000000e-009,-3.00562436e-003
,,,2.07500000e-009,-2.93999936e-003
,,,2.10000000e-009,-2.87437436e-003
,,,2.12500000e-009,-2.79609311e-003
,,,2.15000000e-009,-2.70749936e-003
,,,2.17500000e-009,-2.61093686e-003
,,,2.20000000e-009,-2.50968686e-003
,,,2.22500000e-009,-2.40843686e-003
,,,2.25000000e-009,-2.31093686e-003
,,,2.27500000e-009,-2.21999936e-003
,,,2.30000000e-009,-2.14828061e-003
,,,2.32500000e-009,-2.08359311e-003
,,,2.35000000e-009,-2.02687436e-003
,,,2.37500000e-009,-1.97812436e-003
,,,2.40000000e-009,-1.93734311e-003
,,,2.42500000e-009,-1.90453061e-003
,,,2.45000000e-009,-1.87921811e-003
,,,2.47500000e-009,-1.85999935e-003
,,,2.50000000e-009,-1.85578060e-003
,,,2.52500000e-009,-1.85015560e-003
,,,2.55000000e-009,-1.84171810e-003
,,,2.57500000e-009,-1.82906185e-003
,,,2.60000000e-009,-1.81218685e-003
,,,2.62500000e-009,-1.79109310e-003
,,,2.65000000e-009,-1.76671810e-003
,,,2.67500000e-009,-1.73999935e-003
,,,2.70000000e-009,-1.71843685e-003
,,,2.72500000e-009,-1.69406185e-003
,,,2.75000000e-009,-1.67015560e-003
,,,2.77500000e-009,-1.64812435e-003
,,,2.80000000e-009,-1.63031185e-003
,,,2.82500000e-009,-1.61953060e-003
,,,2.85000000e-009,-1.61578060e-003
,,,2.87500000e-009,-1.61999935e-003
,,,2.90000000e-009,-1.63312435e-003
,,,2.92500000e-009,-1.64718685e-003
,,,2.95000000e-009,-1.66031185e-003
,,,2.97500000e-009,-1.66921810e-003
,,,3.00000000e-009,-1.67156185e-003
,,,3.02500000e-009,-1.66499935e-003
,,,3.05000000e-009,-1.64812435e-003
,,,3.07500000e-009,-1.61999935e-003
,,,3.10000000e-009,-1.58156185e-003
,,,3.12500000e-009,-1.53234310e-003
,,,3.15000000e-009,-1.47656185e-003
,,,3.17500000e-009,-1.41843685e-003
,,,3.20000000e-009,-1.36359310e-003
,,,3.22500000e-009,-1.31624935e-003
,,,3.25000000e-009,-1.28109310e-003
,,,3.27500000e-009,-1.25999935e-003
,,,3.30000000e-009,-1.25390560e-003
,,,3.32500000e-009,-1.26046810e-003
,,,3.35000000e-009,-1.27734310e-003
,,,3.37500000e-009,-1.30124935e-003
,,,3.40000000e-009,-1.32749935e-003
,,,3.42500000e-009,-1.35234310e-003
,,,3.45000000e-009,-1.37109310e-003
,,,3.47500000e-009,-1.37999935e-003
,,,3.50000000e-009,-1.37249935e-003
,,,3.52500000e-009,-1.34999935e-003
,,,3.55000000e-009,-1.31343685e-003
,,,3.57500000e-009,-1.26515560e-003
,,,3.60000000e-009,-1.20843685e-003
,,,3.62500000e-009,-1.14609310e-003
,,,3.65000000e-009,-1.08234310e-003
,,,3.67500000e-009,-1.01999935e-003
,,,3.70000000e-009,-9.61874347e-004
,,,3.72500000e-009,-9.08436847e-004
,,,3.75000000e-009,-8.59686846e-004
,,,3.77500000e-009,-8.15155596e-004
,,,3.80000000e-009,-7.73905595e-004
,,,3.82500000e-009,-7.35468095e-004
,,,3.85000000e-009,-6.97499345e-004
,,,3.87500000e-009,-6.59999344e-004
,,,3.90000000e-009,-6.25311844e-004
,,,3.92500000e-009,-5.90155594e-004
,,,3.95000000e-009,-5.54530594e-004
,,,3.97500000e-009,-5.19843093e-004
,,,4.00000000e-009,-4.87968093e-004
,,,4.02500000e-009,-4.60311843e-004
,,,4.05000000e-009,-4.37343093e-004
,,,4.07500000e-009,-4.19999342e-004
,,,4.10000000e-009,-4.12499342e-004
,,,4.12500000e-009,-4.07343092e-004
,,,4.15000000e-009,-4.01718092e-004
,,,4.17500000e-009,-3.93749342e-004
,,,4.20000000e-009,-3.81093092e-004
,,,4.22500000e-009,-3.61874342e-004
,,,4.25000000e-009,-3.35155592e-004
,,,4.27500000e-009,-2.99999341e-004
,,,4.30000000e-009,-2.63436841e-004
,,,4.32500000e-009,-2.21718091e-004
,,,4.35000000e-009,-1.77655590e-004
,,,4.37500000e-009,-1.35936840e-004
,,,4.40000000e-009,-9.98430896e-005
,,,4.42500000e-009,-7.31243394e-005
,,,4.45000000e-009,-5.90618393e-005
,,,4.47500000e-009,-5.99993393e-005
,,,4.50000000e-009,-8.29680895e-005
,,,4.52500000e-009,-1.19061840e-004
,,,4.55000000e-009,-1.64999340e-004
,,,4.57500000e-009,-2.17968091e-004
,,,4.60000000e-009,-2.73280591e-004
,,,4.62500000e-009,-3.28124342e-004
,,,4.65000000e-009,-3.78280592e-004
,,,4.67500000e-009,-4.19999342e-004
,,,4.70000000e-009,-4.53749343e-004
,,,4.72500000e-009,-4.74843093e-004
,,,4.75000000e-009,-4.83280593e-004
,,,4.77500000e-009,-4.81874343e-004
,,,4.80000000e-009,-4.71561843e-004
,,,4.82500000e-009,-4.56093093e-004
,,,4.85000000e-009,-4.37811843e-004
,,,4.87500000e-009,-4.19999342e-004
,,,4.90000000e-009,-4.04530592e-004
,,,4.92500000e-009,-3.92343092e-004
,,,4.95000000e-009,-3.85780592e-004
,,,4.97500000e-009,-3.84374342e-004
,,,5.00000000e-009,-3.87655592e-004
,,,5.02500000e-009,-3.96093092e-004
,,,5.05000000e-009,-4.07343092e-004
,,,5.07500000e-009,-4.19999342e-004
,,,5.10000000e-009,-4.31249343e-004
,,,5.12500000e-009,-4.40155593e-004
,,,5.15000000e-009,-4.46718093e-004
,,,5.17500000e-009,-4.49530593e-004
,,,5.20000000e-009,-4.48124343e-004
,,,5.22500000e-009,-4.42499343e-004
,,,5.25000000e-009,-4.33124343e-004
,,,5.27500000e-009,-4.19999342e-004
,,,5.30000000e-009,-4.01718092e-004
,,,5.32500000e-009,-3.81561842e-004
,,,5.35000000e-009,-3.61405592e-004
,,,5.37500000e-009,-3.42186842e-004
,,,5.40000000e-009,-3.25780592e-004
,,,5.42500000e-009,-3.12655591e-004
,,,5.45000000e-009,-3.04218091e-004
,,,5.47500000e-009,-2.99999341e-004
,,,5.50000000e-009,-2.97186841e-004
,,,5.52500000e-009,-2.98124341e-004
,,,5.55000000e-009,-3.01405591e-004
,,,5.57500000e-009,-3.05155591e-004
,,,5.60000000e-009,-3.08905591e-004
,,,5.62500000e-009,-3.10311841e-004
,,,5.65000000e-009,-3.07499341e-004
,,,5.67500000e-009,-2.99999341e-004
,,,5.70000000e-009,-2.85468091e-004
,,,5.72500000e-009,-2.64843091e-004
,,,5.75000000e-009,-2.38124341e-004
,,,5.77500000e-009,-2.06249341e-004
,,,5.80000000e-009,-1.71093090e-004
,,,5.82500000e-009,-1.34061840e-004
,,,5.85000000e-009,-9.65618396e-005
,,,5.87500000e-009,-5.99993393e-005
,,,5.90000000e-009,-2.85930890e-005
,,,5.92500000e-009,-1.40558877e-006
,,,5.95000000e-009,2.15631614e-005
,,,5.97500000e-009,3.89069116e-005
