RawData/SinglePhotoelectron/L7_2pt2A_5mV/wave007_Ch1.csv

"Record Length",1000,"Points",-7.72500000e-009,4.78131617e-005
"Sample Interval",2.50000000e-011,s,-7.70000000e-009,6.00006618e-005
"Trigger Point",309,"Samples",-7.67500000e-009,7.40631619e-005
"Trigger Time",2.54422907e-012,s,-7.65000000e-009,8.95319120e-005
"",,,-7.62500000e-009,1.06406912e-004
"Horizontal Offset",-7.72500000e-009,s,-7.60000000e-009,1.23750662e-004
,,,-7.57500000e-009,1.40625662e-004
,,,-7.55000000e-009,1.56094413e-004
,,,-7.52500000e-009,1.69219413e-004
,,,-7.50000000e-009,1.80000663e-004
,,,-7.47500000e-009,1.85625663e-004
,,,-7.45000000e-009,1.88438163e-004
,,,-7.42500000e-009,1.88438163e-004
,,,-7.40000000e-009,1.87031913e-004
,,,-7.37500000e-009,1.84219413e-004
,,,-7.35000000e-009,1.81875663e-004
,,,-7.32500000e-009,1.80000663e-004
,,,-7.30000000e-009,1.80000663e-004
,,,-7.27500000e-009,1.79063163e-004
,,,-7.25000000e-009,1.80000663e-004
,,,-7.22500000e-009,1.81406913e-004
,,,-7.20000000e-009,1.83281913e-004
,,,-7.17500000e-009,1.84688163e-004
,,,-7.15000000e-009,1.84688163e-004
,,,-7.12500000e-009,1.83281913e-004
,,,-7.10000000e-009,1.80000663e-004
,,,-7.07500000e-009,1.71563163e-004
,,,-7.05000000e-009,1.62656913e-004
,,,-7.02500000e-009,1.55156913e-004
,,,-7.00000000e-009,1.50000663e-004
,,,-6.97500000e-009,1.49063163e-004
,,,-6.95000000e-009,1.53281913e-004
,,,-6.92500000e-009,1.63594413e-004
,,,-6.90000000e-009,1.80000663e-004
,,,-6.87500000e-009,1.98281913e-004
,,,-6.85000000e-009,2.20313163e-004
,,,-6.82500000e-009,2.43750663e-004
,,,-6.80000000e-009,2.66250664e-004
,,,-6.77500000e-009,2.85000664e-004
,,,-6.75000000e-009,2.98125664e-004
,,,-6.72500000e-009,3.03750664e-004
,,,-6.70000000e-009,3.00000664e-004
,,,-6.67500000e-009,2.84063164e-004
,,,-6.65000000e-009,2.59688163e-004
,,,-6.62500000e-009,2.28750663e-004
,,,-6.60000000e-009,1.93594413e-004
,,,-6.57500000e-009,1.56563163e-004
,,,-6.55000000e-009,1.20469412e-004
,,,-6.52500000e-009,8.76569120e-005
,,,-6.50000000e-009,6.00006618e-005
,,,-6.47500000e-009,3.65631616e-005
,,,-6.45000000e-009,1.92194114e-005
,,,-6.42500000e-009,5.62566129e-006
,,,-6.40000000e-009,-4.68683880e-006
,,,-6.37500000e-009,-1.49993389e-005
,,,-6.35000000e-009,-2.62493390e-005
,,,-6.32500000e-009,-4.07805891e-005
,,,-6.30000000e-009,-5.99993393e-005
,,,-6.27500000e-009,-8.43743395e-005
,,,-6.25000000e-009,-1.13436840e-004
,,,-6.22500000e-009,-1.46718090e-004
,,,-6.20000000e-009,-1.82343090e-004
,,,-6.17500000e-009,-2.17499341e-004
,,,-6.15000000e-009,-2.50780591e-004
,,,-6.12500000e-009,-2.78905591e-004
,,,-6.10000000e-009,-2.99999341e-004
,,,-6.07500000e-009,-3.11249341e-004
,,,-6.05000000e-009,-3.13593091e-004
,,,-6.02500000e-009,-3.07030591e-004
,,,-6.00000000e-009,-2.92499341e-004
,,,-5.97500000e-009,-2.70936841e-004
,,,-5.95000000e-009,-2.43749341e-004
,,,-5.92500000e-009,-2.12811841e-004
,,,-5.90000000e-009,-1.79999340e-004
,,,-5.87500000e-009,-1.47186840e-004
,,,-5.85000000e-009,-1.17655590e-004
,,,-5.82500000e-009,-9.23430896e-005
,,,-5.80000000e-009,-7.31243394e-005
,,,-5.77500000e-009,-5.99993393e-005
,,,-5.75000000e-009,-5.39055892e-005
,,,-5.72500000e-009,-5.39055892e-005
,,,-5.70000000e-009,-5.99993393e-005
,,,-5.67500000e-009,-7.12493394e-005
,,,-5.65000000e-009,-8.62493395e-005
,,,-5.62500000e-009,-1.04530590e-004
,,,-5.60000000e-009,-1.23280590e-004
,,,-5.57500000e-009,-1.42030590e-004
,,,-5.55000000e-009,-1.57968090e-004
,,,-5.52500000e-009,-1.71093090e-004
,,,-5.50000000e-009,-1.79999340e-004
,,,-5.47500000e-009,-1.84686840e-004
,,,-5.45000000e-009,-1.85624340e-004
,,,-5.42500000e-009,-1.83749340e-004
,,,-5.40000000e-009,-1.80936840e-004
,,,-5.37500000e-009,-1.77655590e-004
,,,-5.35000000e-009,-1.75780590e-004
,,,-5.32500000e-009,-1.76249340e-004
,,,-5.30000000e-009,-1.79999340e-004
,,,-5.27500000e-009,-1.87030590e-004
,,,-5.25000000e-009,-1.97343090e-004
,,,-5.22500000e-009,-2.11405591e-004
,,,-5.20000000e-009,-2.28280591e-004
,,,-5.17500000e-009,-2.47030591e-004
,,,-5.15000000e-009,-2.65780591e-004
,,,-5.12500000e-009,-2.84061841e-004
,,,-5.10000000e-009,-2.99999341e-004
,,,-5.07500000e-009,-3.11718091e-004
,,,-5.05000000e-009,-3.19218092e-004
,,,-5.02500000e-009,-3.22499342e-004
,,,-5.00000000e-009,-3.22030592e-004
,,,-4.97500000e-009,-3.18749342e-004
,,,-4.95000000e-009,-3.13593091e-004
,,,-4.92500000e-009,-3.07030591e-004
,,,-4.90000000e-009,-2.99999341e-004
,,,-4.87500000e-009,-2.92030591e-004
,,,-4.85000000e-009,-2.85468091e-004
,,,-4.82500000e-009,-2.80780591e-004
,,,-4.80000000e-009,-2.78905591e-004
,,,-4.77500000e-009,-2.80311841e-004
,,,-4.75000000e-009,-2.84530591e-004
,,,-4.72500000e-009,-2.91561841e-004
,,,-4.70000000e-009,-2.99999341e-004
,,,-4.67500000e-009,-3.07499341e-004
,,,-4.65000000e-009,-3.14530591e-004
,,,-4.62500000e-009,-3.20155592e-004
,,,-4.60000000e-009,-3.24374342e-004
,,,-4.57500000e-009,-3.24843092e-004
,,,-4.55000000e-009,-3.21561842e-004
,,,-4.52500000e-009,-3.13593091e-004
,,,-4.50000000e-009,-2.99999341e-004
,,,-4.47500000e-009,-2.79374341e-004
,,,-4.45000000e-009,-2.54061841e-004
,,,-4.42500000e-009,-2.24530591e-004
,,,-4.40000000e-009,-1.92655590e-004
,,,-4.37500000e-009,-1.58905590e-004
,,,-4.35000000e-009,-1.24686840e-004
,,,-4.32500000e-009,-9.14055896e-005
,,,-4.30000000e-009,-5.99993393e-005
,,,-4.27500000e-009,-3.23430890e-005
,,,-4.25000000e-009,-7.96808883e-006
,,,-4.22500000e-009,1.21881613e-005
,,,-4.20000000e-009,2.85944115e-005
,,,-4.17500000e-009,4.07819116e-005
,,,-4.15000000e-009,4.96881617e-005
,,,-4.12500000e-009,5.57819117e-005
,,,-4.10000000e-009,6.00006618e-005
,,,-4.07500000e-009,6.14069118e-005
,,,-4.05000000e-009,6.28131618e-005
,,,-4.02500000e-009,6.32819118e-005
,,,-4.00000000e-009,6.37506618e-005
,,,-3.97500000e-009,6.37506618e-005
,,,-3.95000000e-009,6.28131618e-005
,,,-3.92500000e-009,6.18756618e-005
,,,-3.90000000e-009,6.00006618e-005
,,,-3.87500000e-009,5.71881617e-005
,,,-3.85000000e-009,5.48444117e-005
,,,-3.82500000e-009,5.34381617e-005
,,,-3.80000000e-009,5.25006617e-005
,,,-3.77500000e-009,5.29694117e-005
,,,-3.75000000e-009,5.43756617e-005
,,,-3.72500000e-009,5.67194117e-005
,,,-3.70000000e-009,6.00006618e-005
,,,-3.67500000e-009,6.37506618e-005
,,,-3.65000000e-009,6.79694118e-005
,,,-3.62500000e-009,7.21881619e-005
,,,-3.60000000e-009,7.45319119e-005
,,,-3.57500000e-009,7.54694119e-005
,,,-3.55000000e-009,7.31256619e-005
,,,-3.52500000e-009,6.79694118e-005
,,,-3.50000000e-009,6.00006618e-005
,,,-3.47500000e-009,4.87506617e-005
,,,-3.45000000e-009,3.79694116e-005
,,,-3.42500000e-009,2.85944115e-005
,,,-3.40000000e-009,2.25006614e-005
,,,-3.37500000e-009,2.15631614e-005
,,,-3.35000000e-009,2.67194115e-005
,,,-3.32500000e-009,3.93756616e-005
,,,-3.30000000e-009,6.00006618e-005
,,,-3.27500000e-009,8.76569120e-005
,,,-3.25000000e-009,1.20469412e-004
,,,-3.22500000e-009,1.57031913e-004
,,,-3.20000000e-009,1.94063163e-004
,,,-3.17500000e-009,2.29219413e-004
,,,-3.15000000e-009,2.59688163e-004
,,,-3.12500000e-009,2.83594414e-004
,,,-3.10000000e-009,3.00000664e-004
,,,-3.07500000e-009,3.06094414e-004
,,,-3.05000000e-009,3.05156914e-004
,,,-3.02500000e-009,3.00000664e-004
,,,-3.00000000e-009,2.92969414e-004
,,,-2.97500000e-009,2.86875664e-004
,,,-2.95000000e-009,2.85000664e-004
,,,-2.92500000e-009,2.88750664e-004
,,,-2.90000000e-009,3.00000664e-004
,,,-2.87500000e-009,3.15469414e-004
,,,-2.85000000e-009,3.37031914e-004
,,,-2.82500000e-009,3.61875664e-004
,,,-2.80000000e-009,3.86250665e-004
,,,-2.77500000e-009,4.07344415e-004
,,,-2.75000000e-009,4.21406915e-004
,,,-2.72500000e-009,4.26094415e-004
,,,-2.70000000e-009,4.20000665e-004
,,,-2.67500000e-009,3.98906915e-004
,,,-2.65000000e-009,3.67969414e-004
,,,-2.62500000e-009,3.30469414e-004
,,,-2.60000000e-009,2.90625664e-004
,,,-2.57500000e-009,2.51719413e-004
,,,-2.55000000e-009,2.17969413e-004
,,,-2.52500000e-009,1.93125663e-004
,,,-2.50000000e-009,1.80000663e-004
,,,-2.47500000e-009,1.77188163e-004
,,,-2.45000000e-009,1.86563163e-004
,,,-2.42500000e-009,2.04844413e-004
,,,-2.40000000e-009,2.28281913e-004
,,,-2.37500000e-009,2.54063163e-004
,,,-2.35000000e-009,2.76563164e-004
,,,-2.32500000e-009,2.92969414e-004
,,,-2.30000000e-009,3.00000664e-004
,,,-2.27500000e-009,2.93438164e-004
,,,-2.25000000e-009,2.76094414e-004
,,,-2.22500000e-009,2.48438163e-004
,,,-2.20000000e-009,2.13281913e-004
,,,-2.17500000e-009,1.72969413e-004
,,,-2.15000000e-009,1.32188162e-004
,,,-2.12500000e-009,9.32819120e-005
,,,-2.10000000e-009,6.00006618e-005
,,,-2.07500000e-009,3.60944116e-005
,,,-2.05000000e-009,2.10944114e-005
,,,-2.02500000e-009,1.50006614e-005
,,,-2.00000000e-009,1.64069114e-005
,,,-1.97500000e-009,2.34381614e-005
,,,-1.95000000e-009,3.46881615e-005
,,,-1.92500000e-009,4.73444117e-005
,,,-1.90000000e-009,6.00006618e-005
,,,-1.87500000e-009,7.03131619e-005
,,,-1.85000000e-009,7.73444119e-005
,,,-1.82500000e-009,8.01569119e-005
,,,-1.80000000e-009,7.92194119e-005
,,,-1.77500000e-009,7.59381619e-005
,,,-1.75000000e-009,7.07819119e-005
,,,-1.72500000e-009,6.51569118e-005
,,,-1.70000000e-009,6.00006618e-005
,,,-1.67500000e-009,5.53131617e-005
,,,-1.65000000e-009,5.20319117e-005
,,,-1.62500000e-009,4.96881617e-005
,,,-1.60000000e-009,4.92194117e-005
,,,-1.57500000e-009,4.96881617e-005
,,,-1.55000000e-009,5.15631617e-005
,,,-1.52500000e-009,5.48444117e-005
,,,-1.50000000e-009,6.00006618e-005
,,,-1.47500000e-009,6.09381618e-005
,,,-1.45000000e-009,6.37506618e-005
,,,-1.42500000e-009,6.89069118e-005
,,,-1.40000000e-009,7.87506619e-005
,,,-1.37500000e-009,9.42194121e-005
,,,-1.35000000e-009,1.16250662e-004
,,,-1.32500000e-009,1.44844412e-004
,,,-1.30000000e-009,1.80000663e-004
,,,-1.27500000e-009,2.05313163e-004
,,,-1.25000000e-009,2.30156913e-004
,,,-1.22500000e-009,2.53594413e-004
,,,-1.20000000e-009,2.73750664e-004
,,,-1.17500000e-009,2.89688164e-004
,,,-1.15000000e-009,3.00469414e-004
,,,-1.12500000e-009,3.03750664e-004
,,,-1.10000000e-009,3.00000664e-004
,,,-1.07500000e-009,2.64375664e-004
,,,-1.05000000e-009,2.18906913e-004
,,,-1.02500000e-009,1.66875663e-004
,,,-1.00000000e-009,1.11563162e-004
,,,-9.75000000e-010,5.81256617e-005
,,,-9.50000000e-010,9.84441132e-006
,,,-9.25000000e-010,-2.99993390e-005
,,,-9.00000000e-010,-5.99993393e-005
,,,-8.75000000e-010,-1.08280590e-004
,,,-8.50000000e-010,-1.50468090e-004
,,,-8.25000000e-010,-1.87030590e-004
,,,-8.00000000e-010,-2.17030591e-004
,,,-7.75000000e-010,-2.40936841e-004
,,,-7.50000000e-010,-2.61093091e-004
,,,-7.25000000e-010,-2.79843091e-004
,,,-7.00000000e-010,-2.99999341e-004
,,,-6.75000000e-010,-3.58124342e-004
,,,-6.50000000e-010,-4.30780593e-004
,,,-6.25000000e-010,-5.17968093e-004
,,,-6.00000000e-010,-6.19218094e-004
,,,-5.75000000e-010,-7.33124345e-004
,,,-5.50000000e-010,-8.58749346e-004
,,,-5.25000000e-010,-9.94686847e-004
,,,-5.00000000e-010,-1.13999935e-003
,,,-4.75000000e-010,-1.31906185e-003
,,,-4.50000000e-010,-1.50937435e-003
,,,-4.25000000e-010,-1.70718685e-003
,,,-4.00000000e-010,-1.90921811e-003
,,,-3.75000000e-010,-2.11218686e-003
,,,-3.50000000e-010,-2.31281186e-003
,,,-3.25000000e-010,-2.50921811e-003
,,,-3.00000000e-010,-2.69999936e-003
,,,-2.75000000e-010,-2.89359311e-003
,,,-2.50000000e-010,-3.08578062e-003
,,,-2.25000000e-010,-3.27843687e-003
,,,-2.00000000e-010,-3.47109312e-003
,,,-1.75000000e-010,-3.66562437e-003
,,,-1.50000000e-010,-3.86109312e-003
,,,-1.25000000e-010,-4.05937437e-003
,,,-1.00000000e-010,-4.25999938e-003
,,,-7.50000000e-011,-4.45218688e-003
,,,-5.00000000e-011,-4.65093688e-003
,,,-2.50000000e-011,-4.85718688e-003
,,,0.00000000e+000,-5.06999938e-003
,,,2.50000000e-011,-5.28749938e-003
,,,5.00000000e-011,-5.50687439e-003
,,,7.50000000e-011,-5.72578064e-003
,,,1.00000000e-010,-5.93999939e-003
,,,1.25000000e-010,-6.11624939e-003
,,,1.50000000e-010,-6.28593689e-003
,,,1.75000000e-010,-6.44953064e-003
,,,2.00000000e-010,-6.60609315e-003
,,,2.25000000e-010,-6.75515565e-003
,,,2.50000000e-010,-6.89484315e-003
,,,2.75000000e-010,-7.02374940e-003
,,,3.00000000e-010,-7.13999940e-003
,,,3.25000000e-010,-7.19671815e-003
,,,3.50000000e-010,-7.24265565e-003
,,,3.75000000e-010,-7.28062440e-003
,,,4.00000000e-010,-7.31296815e-003
,,,4.25000000e-010,-7.33968690e-003
,,,4.50000000e-010,-7.36078065e-003
,,,4.75000000e-010,-7.37484315e-003
,,,5.00000000e-010,-7.37999940e-003
,,,5.25000000e-010,-7.32609315e-003
,,,5.50000000e-010,-7.26562440e-003
,,,5.75000000e-010,-7.19953065e-003
,,,6.00000000e-010,-7.12828065e-003
,,,6.25000000e-010,-7.05140565e-003
,,,6.50000000e-010,-6.96843690e-003
,,,6.75000000e-010,-6.87890565e-003
,,,7.00000000e-010,-6.77999940e-003
,,,7.25000000e-010,-6.63234315e-003
,,,7.50000000e-010,-6.47812440e-003
,,,7.75000000e-010,-6.32203064e-003
,,,8.00000000e-010,-6.16593689e-003
,,,8.25000000e-010,-6.01218689e-003
,,,8.50000000e-010,-5.86312439e-003
,,,8.75000000e-010,-5.71921814e-003
,,,9.00000000e-010,-5.57999939e-003
,,,9.25000000e-010,-5.42062439e-003
,,,9.50000000e-010,-5.26499938e-003
,,,9.75000000e-010,-5.11312438e-003
,,,1.00000000e-009,-4.96406188e-003
,,,1.02500000e-009,-4.81781188e-003
,,,1.05000000e-009,-4.67203063e-003
,,,1.07500000e-009,-4.52671813e-003
,,,1.10000000e-009,-4.37999938e-003
,,,1.12500000e-009,-4.22343688e-003
,,,1.15000000e-009,-4.06312437e-003
,,,1.17500000e-009,-3.90234312e-003
,,,1.20000000e-009,-3.74296812e-003
,,,1.22500000e-009,-3.58874937e-003
,,,1.25000000e-009,-3.44249937e-003
,,,1.27500000e-009,-3.30562437e-003
,,,1.30000000e-009,-3.17999937e-003
,,,1.32500000e-009,-3.07124937e-003
,,,1.35000000e-009,-2.96718686e-003
,,,1.37500000e-009,-2.86546811e-003
,,,1.40000000e-009,-2.76468686e-003
,,,1.42500000e-009,-2.66296811e-003
,,,1.45000000e-009,-2.55890561e-003
,,,1.47500000e-009,-2.45109311e-003
,,,1.50000000e-009,-2.33999936e-003
,,,1.52500000e-009,-2.23968686e-003
,,,1.55000000e-009,-2.13140561e-003
,,,1.57500000e-009,-2.01749936e-003
,,,1.60000000e-009,-1.90124936e-003
,,,1.62500000e-009,-1.78687435e-003
,,,1.65000000e-009,-1.67953060e-003
,,,1.67500000e-009,-1.58296810e-003
,,,1.70000000e-009,-1.49999935e-003
,,,1.72500000e-009,-1.45265560e-003
,,,1.75000000e-009,-1.41468685e-003
,,,1.77500000e-009,-1.38421810e-003
,,,1.80000000e-009,-1.35796810e-003
,,,1.82500000e-009,-1.33453060e-003
,,,1.85000000e-009,-1.31156185e-003
,,,1.87500000e-009,-1.28718685e-003
,,,1.90000000e-009,-1.25999935e-003
,,,1.92500000e-009,-1.24687435e-003
,,,1.95000000e-009,-1.22484310e-003
,,,1.97500000e-009,-1.19531185e-003
,,,2.00000000e-009,-1.15968685e-003
,,,2.02500000e-009,-1.12078060e-003
,,,2.05000000e-009,-1.08281185e-003
,,,2.07500000e-009,-1.04859310e-003
,,,2.10000000e-009,-1.01999935e-003
,,,2.12500000e-009,-1.01437435e-003
,,,2.15000000e-009,-1.01249935e-003
,,,2.17500000e-009,-1.01390560e-003
,,,2.20000000e-009,-1.01671810e-003
,,,2.22500000e-009,-1.01999935e-003
,,,2.25000000e-009,-1.02234310e-003
,,,2.27500000e-009,-1.02281185e-003
,,,2.30000000e-009,-1.01999935e-003
,,,2.32500000e-009,-1.02468685e-003
,,,2.35000000e-009,-1.02468685e-003
,,,2.37500000e-009,-1.02093685e-003
,,,2.40000000e-009,-1.01531185e-003
,,,2.42500000e-009,-1.01015560e-003
,,,2.45000000e-009,-1.00781185e-003
,,,2.47500000e-009,-1.01062435e-003
,,,2.50000000e-009,-1.01999935e-003
,,,2.52500000e-009,-1.04343685e-003
,,,2.55000000e-009,-1.07203060e-003
,,,2.57500000e-009,-1.10437435e-003
,,,2.60000000e-009,-1.13906185e-003
,,,2.62500000e-009,-1.17421810e-003
,,,2.65000000e-009,-1.20703060e-003
,,,2.67500000e-009,-1.23609310e-003
,,,2.70000000e-009,-1.25999935e-003
,,,2.72500000e-009,-1.27687435e-003
,,,2.75000000e-009,-1.28624935e-003
,,,2.77500000e-009,-1.28906185e-003
,,,2.80000000e-009,-1.28671810e-003
,,,2.82500000e-009,-1.28109310e-003
,,,2.85000000e-009,-1.27359310e-003
,,,2.87500000e-009,-1.26609310e-003
,,,2.90000000e-009,-1.25999935e-003
,,,2.92500000e-009,-1.25390560e-003
,,,2.95000000e-009,-1.25015560e-003
,,,2.97500000e-009,-1.24874935e-003
,,,3.00000000e-009,-1.24921810e-003
,,,3.02500000e-009,-1.25156185e-003
,,,3.05000000e-009,-1.25484310e-003
,,,3.07500000e-009,-1.25765560e-003
,,,3.10000000e-009,-1.25999935e-003
,,,3.12500000e-009,-1.25624935e-003
,,,3.15000000e-009,-1.25156185e-003
,,,3.17500000e-009,-1.24640560e-003
,,,3.20000000e-009,-1.24265560e-003
,,,3.22500000e-009,-1.24124935e-003
,,,3.25000000e-009,-1.24359310e-003
,,,3.27500000e-009,-1.25015560e-003
,,,3.30000000e-009,-1.25999935e-003
,,,3.32500000e-009,-1.26749935e-003
,,,3.35000000e-009,-1.27593685e-003
,,,3.37500000e-009,-1.28390560e-003
,,,3.40000000e-009,-1.29046810e-003
,,,3.42500000e-009,-1.29281185e-003
,,,3.45000000e-009,-1.28906185e-003
,,,3.47500000e-009,-1.27874935e-003
,,,3.50000000e-009,-1.25999935e-003
,,,3.52500000e-009,-1.22578060e-003
,,,3.55000000e-009,-1.18312435e-003
,,,3.57500000e-009,-1.13484310e-003
,,,3.60000000e-009,-1.08374935e-003
,,,3.62500000e-009,-1.03218685e-003
,,,3.65000000e-009,-9.82968097e-004
,,,3.67500000e-009,-9.38905597e-004
,,,3.70000000e-009,-8.99999347e-004
,,,3.72500000e-009,-8.64843096e-004
,,,3.75000000e-009,-8.34374346e-004
,,,3.77500000e-009,-8.07655596e-004
,,,3.80000000e-009,-7.82811846e-004
,,,3.82500000e-009,-7.57499345e-004
,,,3.85000000e-009,-7.29374345e-004
,,,3.87500000e-009,-6.97499345e-004
,,,3.90000000e-009,-6.59999344e-004
,,,3.92500000e-009,-6.15468094e-004
,,,3.95000000e-009,-5.65780594e-004
,,,3.97500000e-009,-5.12811843e-004
,,,4.00000000e-009,-4.59374343e-004
,,,4.02500000e-009,-4.08749342e-004
,,,4.05000000e-009,-3.64218092e-004
,,,4.07500000e-009,-3.27655592e-004
,,,4.10000000e-009,-2.99999341e-004
,,,4.12500000e-009,-2.83124341e-004
,,,4.15000000e-009,-2.72343091e-004
,,,4.17500000e-009,-2.65780591e-004
,,,4.20000000e-009,-2.59218091e-004
,,,4.22500000e-009,-2.50311841e-004
,,,4.25000000e-009,-2.35780591e-004
,,,4.27500000e-009,-2.12811841e-004
,,,4.30000000e-009,-1.79999340e-004
,,,4.32500000e-009,-1.41093090e-004
,,,4.35000000e-009,-9.28118396e-005
,,,4.37500000e-009,-3.84368391e-005
,,,4.40000000e-009,1.82819114e-005
,,,4.42500000e-009,7.21881619e-005
,,,4.45000000e-009,1.19531912e-004
,,,4.47500000e-009,1.56563163e-004
,,,4.50000000e-009,1.80000663e-004
,,,4.52500000e-009,1.82344413e-004
,,,4.55000000e-009,1.73438163e-004
,,,4.57500000e-009,1.55156913e-004
,,,4.60000000e-009,1.30781912e-004
,,,4.62500000e-009,1.05469412e-004
,,,4.65000000e-009,8.25006620e-005
,,,4.67500000e-009,6.65631618e-005
,,,4.70000000e-009,6.00006618e-005
,,,4.72500000e-009,6.00006618e-005
,,,4.75000000e-009,7.35944119e-005
,,,4.77500000e-009,9.89069121e-005
,,,4.80000000e-009,1.33594412e-004
,,,4.82500000e-009,1.74844413e-004
,,,4.85000000e-009,2.18438163e-004
,,,4.87500000e-009,2.61563164e-004
,,,4.90000000e-009,3.00000664e-004
,,,4.92500000e-009,3.24375664e-004
,,,4.95000000e-009,3.40781914e-004
,,,4.97500000e-009,3.48750664e-004
,,,5.00000000e-009,3.48750664e-004
,,,5.02500000e-009,3.42188164e-004
,,,5.05000000e-009,3.30938164e-004
,,,5.07500000e-009,3.15938164e-004
,,,5.10000000e-009,3.00000664e-004
,,,5.12500000e-009,2.77500664e-004
,,,5.15000000e-009,2.56875663e-004
,,,5.17500000e-009,2.38125663e-004
,,,5.20000000e-009,2.22188163e-004
,,,5.22500000e-009,2.09063163e-004
,,,5.25000000e-009,1.97813163e-004
,,,5.27500000e-009,1.88438163e-004
,,,5.30000000e-009,1.80000663e-004
,,,5.32500000e-009,1.68750663e-004
,,,5.35000000e-009,1.57031913e-004
,,,5.37500000e-009,1.44375662e-004
,,,5.40000000e-009,1.30781912e-004
,,,5.42500000e-009,1.15781912e-004
,,,5.45000000e-009,9.84381621e-005
,,,5.47500000e-009,7.96881619e-005
,,,5.50000000e-009,6.00006618e-005
,,,5.52500000e-009,3.84381616e-005
,,,5.55000000e-009,1.73444114e-005
,,,5.57500000e-009,-3.28058879e-006
,,,5.60000000e-009,-2.10930889e-005
,,,5.62500000e-009,-3.60930891e-005
,,,5.65000000e-009,-4.78118392e-005
,,,5.67500000e-009,-5.57805892e-005
,,,5.70000000e-009,-5.99993393e-005
,,,5.72500000e-009,-6.23430893e-005
,,,5.75000000e-009,-6.37493393e-005
,,,5.77500000e-009,-6.74993393e-005
,,,5.80000000e-009,-7.49993394e-005
,,,5.82500000e-009,-8.90618395e-005
,,,5.85000000e-009,-1.10624340e-004
,,,5.87500000e-009,-1.41093090e-004
,,,5.90000000e-009,-1.79999340e-004
,,,5.92500000e-009,-2.23124341e-004
,,,5.95000000e-009,-2.69999341e-004
,,,5.97500000e-009,-3.17343092e-004
