RawData/SinglePhotoelectron/L7_2pt2A_5mV/wave020_Ch1.csv

"Record Length",1000,"Points",-7.72500000e-009,-5.99993393e-005
"Sample Interval",2.50000000e-011,s,-7.70000000e-009,-9.04680895e-005
"Trigger Point",309,"Samples",-7.67500000e-009,-1.24218090e-004
"Trigger Time",9.77050710e-012,s,-7.65000000e-009,-1.59843090e-004
"",,,-7.62500000e-009,-1.95468090e-004
"Horizontal Offset",-7.72500000e-009,s,-7.60000000e-009,-2.29218091e-004
,,,-7.57500000e-009,-2.58749341e-004
,,,-7.55000000e-009,-2.82655591e-004
,,,-7.52500000e-009,-2.99999341e-004
,,,-7.50000000e-009,-3.12186841e-004
,,,-7.47500000e-009,-3.17343092e-004
,,,-7.45000000e-009,-3.17343092e-004
,,,-7.42500000e-009,-3.14061841e-004
,,,-7.40000000e-009,-3.08905591e-004
,,,-7.37500000e-009,-3.03749341e-004
,,,-7.35000000e-009,-3.00468091e-004
,,,-7.32500000e-009,-2.99999341e-004
,,,-7.30000000e-009,-3.03280591e-004
,,,-7.27500000e-009,-3.08905591e-004
,,,-7.25000000e-009,-3.15468092e-004
,,,-7.22500000e-009,-3.21093092e-004
,,,-7.20000000e-009,-3.23905592e-004
,,,-7.17500000e-009,-3.22499342e-004
,,,-7.15000000e-009,-3.14530591e-004
,,,-7.12500000e-009,-2.99999341e-004
,,,-7.10000000e-009,-2.80780591e-004
,,,-7.07500000e-009,-2.57343091e-004
,,,-7.05000000e-009,-2.32499341e-004
,,,-7.02500000e-009,-2.09061841e-004
,,,-7.00000000e-009,-1.89374340e-004
,,,-6.97500000e-009,-1.76718090e-004
,,,-6.95000000e-009,-1.73436840e-004
,,,-6.92500000e-009,-1.79999340e-004
,,,-6.90000000e-009,-1.98749340e-004
,,,-6.87500000e-009,-2.26874341e-004
,,,-6.85000000e-009,-2.62030591e-004
,,,-6.82500000e-009,-3.00936841e-004
,,,-6.80000000e-009,-3.39374342e-004
,,,-6.77500000e-009,-3.74530592e-004
,,,-6.75000000e-009,-4.02186842e-004
,,,-6.72500000e-009,-4.19999342e-004
,,,-6.70000000e-009,-4.26561842e-004
,,,-6.67500000e-009,-4.22343092e-004
,,,-6.65000000e-009,-4.09218092e-004
,,,-6.62500000e-009,-3.89061842e-004
,,,-6.60000000e-009,-3.65155592e-004
,,,-6.57500000e-009,-3.40311842e-004
,,,-6.55000000e-009,-3.17811842e-004
,,,-6.52500000e-009,-2.99999341e-004
,,,-6.50000000e-009,-2.91093091e-004
,,,-6.47500000e-009,-2.90624341e-004
,,,-6.45000000e-009,-2.99061841e-004
,,,-6.42500000e-009,-3.14530591e-004
,,,-6.40000000e-009,-3.36561842e-004
,,,-6.37500000e-009,-3.62811842e-004
,,,-6.35000000e-009,-3.91405592e-004
,,,-6.32500000e-009,-4.19999342e-004
,,,-6.30000000e-009,-4.48124343e-004
,,,-6.27500000e-009,-4.72968093e-004
,,,-6.25000000e-009,-4.94061843e-004
,,,-6.22500000e-009,-5.10936843e-004
,,,-6.20000000e-009,-5.23593093e-004
,,,-6.17500000e-009,-5.32499343e-004
,,,-6.15000000e-009,-5.37655593e-004
,,,-6.12500000e-009,-5.39999343e-004
,,,-6.10000000e-009,-5.40468093e-004
,,,-6.07500000e-009,-5.39999343e-004
,,,-6.05000000e-009,-5.39061843e-004
,,,-6.02500000e-009,-5.38124343e-004
,,,-6.00000000e-009,-5.37655593e-004
,,,-5.97500000e-009,-5.38124343e-004
,,,-5.95000000e-009,-5.39061843e-004
,,,-5.92500000e-009,-5.39999343e-004
,,,-5.90000000e-009,-5.40936843e-004
,,,-5.87500000e-009,-5.42343093e-004
,,,-5.85000000e-009,-5.43749343e-004
,,,-5.82500000e-009,-5.44686843e-004
,,,-5.80000000e-009,-5.45155593e-004
,,,-5.77500000e-009,-5.44686843e-004
,,,-5.75000000e-009,-5.43280593e-004
,,,-5.72500000e-009,-5.39999343e-004
,,,-5.70000000e-009,-5.35780593e-004
,,,-5.67500000e-009,-5.31093093e-004
,,,-5.65000000e-009,-5.27343093e-004
,,,-5.62500000e-009,-5.24530593e-004
,,,-5.60000000e-009,-5.23593093e-004
,,,-5.57500000e-009,-5.25936843e-004
,,,-5.55000000e-009,-5.31093093e-004
,,,-5.52500000e-009,-5.39999343e-004
,,,-5.50000000e-009,-5.49843094e-004
,,,-5.47500000e-009,-5.62499344e-004
,,,-5.45000000e-009,-5.77968094e-004
,,,-5.42500000e-009,-5.94843094e-004
,,,-5.40000000e-009,-6.12186844e-004
,,,-5.37500000e-009,-6.29530594e-004
,,,-5.35000000e-009,-6.45936844e-004
,,,-5.32500000e-009,-6.59999344e-004
,,,-5.30000000e-009,-6.68436845e-004
,,,-5.27500000e-009,-6.73593095e-004
,,,-5.25000000e-009,-6.75468095e-004
,,,-5.22500000e-009,-6.74999345e-004
,,,-5.20000000e-009,-6.72655595e-004
,,,-5.17500000e-009,-6.68436845e-004
,,,-5.15000000e-009,-6.64218095e-004
,,,-5.12500000e-009,-6.59999344e-004
,,,-5.10000000e-009,-6.55311844e-004
,,,-5.07500000e-009,-6.51561844e-004
,,,-5.05000000e-009,-6.49686844e-004
,,,-5.02500000e-009,-6.49686844e-004
,,,-5.00000000e-009,-6.51093094e-004
,,,-4.97500000e-009,-6.53905594e-004
,,,-4.95000000e-009,-6.57186844e-004
,,,-4.92500000e-009,-6.59999344e-004
,,,-4.90000000e-009,-6.59999344e-004
,,,-4.87500000e-009,-6.57655594e-004
,,,-4.85000000e-009,-6.51561844e-004
,,,-4.82500000e-009,-6.40780594e-004
,,,-4.80000000e-009,-6.24843094e-004
,,,-4.77500000e-009,-6.02811844e-004
,,,-4.75000000e-009,-5.74686844e-004
,,,-4.72500000e-009,-5.39999343e-004
,,,-4.70000000e-009,-4.99686843e-004
,,,-4.67500000e-009,-4.55155593e-004
,,,-4.65000000e-009,-4.07343092e-004
,,,-4.62500000e-009,-3.58124342e-004
,,,-4.60000000e-009,-3.09374341e-004
,,,-4.57500000e-009,-2.62030591e-004
,,,-4.55000000e-009,-2.18436841e-004
,,,-4.52500000e-009,-1.79999340e-004
,,,-4.50000000e-009,-1.51405590e-004
,,,-4.47500000e-009,-1.31249340e-004
,,,-4.45000000e-009,-1.19061840e-004
,,,-4.42500000e-009,-1.15780590e-004
,,,-4.40000000e-009,-1.20936840e-004
,,,-4.37500000e-009,-1.34061840e-004
,,,-4.35000000e-009,-1.54218090e-004
,,,-4.32500000e-009,-1.79999340e-004
,,,-4.30000000e-009,-2.13280591e-004
,,,-4.27500000e-009,-2.47968091e-004
,,,-4.25000000e-009,-2.83124341e-004
,,,-4.22500000e-009,-3.17343092e-004
,,,-4.20000000e-009,-3.48749342e-004
,,,-4.17500000e-009,-3.77343092e-004
,,,-4.15000000e-009,-4.01249342e-004
,,,-4.12500000e-009,-4.19999342e-004
,,,-4.10000000e-009,-4.34530593e-004
,,,-4.07500000e-009,-4.42968093e-004
,,,-4.05000000e-009,-4.46718093e-004
,,,-4.02500000e-009,-4.45780593e-004
,,,-4.00000000e-009,-4.41561843e-004
,,,-3.97500000e-009,-4.35468093e-004
,,,-3.95000000e-009,-4.27968092e-004
,,,-3.92500000e-009,-4.19999342e-004
,,,-3.90000000e-009,-4.13905592e-004
,,,-3.87500000e-009,-4.08749342e-004
,,,-3.85000000e-009,-4.05936842e-004
,,,-3.82500000e-009,-4.04530592e-004
,,,-3.80000000e-009,-4.05936842e-004
,,,-3.77500000e-009,-4.09218092e-004
,,,-3.75000000e-009,-4.13905592e-004
,,,-3.72500000e-009,-4.19999342e-004
,,,-3.70000000e-009,-4.27968092e-004
,,,-3.67500000e-009,-4.34999343e-004
,,,-3.65000000e-009,-4.40624343e-004
,,,-3.62500000e-009,-4.43905593e-004
,,,-3.60000000e-009,-4.43436843e-004
,,,-3.57500000e-009,-4.39686843e-004
,,,-3.55000000e-009,-4.32186843e-004
,,,-3.52500000e-009,-4.19999342e-004
,,,-3.50000000e-009,-4.03593092e-004
,,,-3.47500000e-009,-3.85311842e-004
,,,-3.45000000e-009,-3.65624342e-004
,,,-3.42500000e-009,-3.46874342e-004
,,,-3.40000000e-009,-3.29999342e-004
,,,-3.37500000e-009,-3.16405592e-004
,,,-3.35000000e-009,-3.06093091e-004
,,,-3.32500000e-009,-2.99999341e-004
,,,-3.30000000e-009,-2.97655591e-004
,,,-3.27500000e-009,-2.98593091e-004
,,,-3.25000000e-009,-3.01874341e-004
,,,-3.22500000e-009,-3.05624341e-004
,,,-3.20000000e-009,-3.08436841e-004
,,,-3.17500000e-009,-3.08905591e-004
,,,-3.15000000e-009,-3.06093091e-004
,,,-3.12500000e-009,-2.99999341e-004
,,,-3.10000000e-009,-2.91093091e-004
,,,-3.07500000e-009,-2.80311841e-004
,,,-3.05000000e-009,-2.69999341e-004
,,,-3.02500000e-009,-2.62499341e-004
,,,-3.00000000e-009,-2.59686841e-004
,,,-2.97500000e-009,-2.64374341e-004
,,,-2.95000000e-009,-2.77499341e-004
,,,-2.92500000e-009,-2.99999341e-004
,,,-2.90000000e-009,-3.31874342e-004
,,,-2.87500000e-009,-3.69374342e-004
,,,-2.85000000e-009,-4.10155592e-004
,,,-2.82500000e-009,-4.50936843e-004
,,,-2.80000000e-009,-4.87499343e-004
,,,-2.77500000e-009,-5.16093093e-004
,,,-2.75000000e-009,-5.34374343e-004
,,,-2.72500000e-009,-5.39999343e-004
,,,-2.70000000e-009,-5.31093093e-004
,,,-2.67500000e-009,-5.09999343e-004
,,,-2.65000000e-009,-4.78593093e-004
,,,-2.62500000e-009,-4.41093093e-004
,,,-2.60000000e-009,-4.00780592e-004
,,,-2.57500000e-009,-3.61874342e-004
,,,-2.55000000e-009,-3.27186842e-004
,,,-2.52500000e-009,-2.99999341e-004
,,,-2.50000000e-009,-2.83593091e-004
,,,-2.47500000e-009,-2.76561841e-004
,,,-2.45000000e-009,-2.77030591e-004
,,,-2.42500000e-009,-2.82655591e-004
,,,-2.40000000e-009,-2.91093091e-004
,,,-2.37500000e-009,-2.98124341e-004
,,,-2.35000000e-009,-3.01874341e-004
,,,-2.32500000e-009,-2.99999341e-004
,,,-2.30000000e-009,-2.92030591e-004
,,,-2.27500000e-009,-2.77030591e-004
,,,-2.25000000e-009,-2.57811841e-004
,,,-2.22500000e-009,-2.36249341e-004
,,,-2.20000000e-009,-2.15155591e-004
,,,-2.17500000e-009,-1.96874340e-004
,,,-2.15000000e-009,-1.84686840e-004
,,,-2.12500000e-009,-1.79999340e-004
,,,-2.10000000e-009,-1.85624340e-004
,,,-2.07500000e-009,-1.98280590e-004
,,,-2.05000000e-009,-2.16561841e-004
,,,-2.02500000e-009,-2.38124341e-004
,,,-2.00000000e-009,-2.60155591e-004
,,,-1.97500000e-009,-2.78905591e-004
,,,-1.95000000e-009,-2.92968091e-004
,,,-1.92500000e-009,-2.99999341e-004
,,,-1.90000000e-009,-3.00936841e-004
,,,-1.87500000e-009,-2.95780591e-004
,,,-1.85000000e-009,-2.86874341e-004
,,,-1.82500000e-009,-2.77968091e-004
,,,-1.80000000e-009,-2.72343091e-004
,,,-1.77500000e-009,-2.72343091e-004
,,,-1.75000000e-009,-2.81249341e-004
,,,-1.72500000e-009,-2.99999341e-004
,,,-1.70000000e-009,-3.30936842e-004
,,,-1.67500000e-009,-3.68905592e-004
,,,-1.65000000e-009,-4.10624342e-004
,,,-1.62500000e-009,-4.52811843e-004
,,,-1.60000000e-009,-4.90780593e-004
,,,-1.57500000e-009,-5.19843093e-004
,,,-1.55000000e-009,-5.37186843e-004
,,,-1.52500000e-009,-5.39999343e-004
,,,-1.50000000e-009,-5.31093093e-004
,,,-1.47500000e-009,-5.09530593e-004
,,,-1.45000000e-009,-4.77655593e-004
,,,-1.42500000e-009,-4.39218093e-004
,,,-1.40000000e-009,-3.97968092e-004
,,,-1.37500000e-009,-3.58593092e-004
,,,-1.35000000e-009,-3.25311842e-004
,,,-1.32500000e-009,-2.99999341e-004
,,,-1.30000000e-009,-2.96718091e-004
,,,-1.27500000e-009,-3.05624341e-004
,,,-1.25000000e-009,-3.24374342e-004
,,,-1.22500000e-009,-3.48749342e-004
,,,-1.20000000e-009,-3.75468092e-004
,,,-1.17500000e-009,-3.98436842e-004
,,,-1.15000000e-009,-4.14374342e-004
,,,-1.12500000e-009,-4.19999342e-004
,,,-1.10000000e-009,-4.31249343e-004
,,,-1.07500000e-009,-4.33124343e-004
,,,-1.05000000e-009,-4.25624342e-004
,,,-1.02500000e-009,-4.09686842e-004
,,,-1.00000000e-009,-3.86718092e-004
,,,-9.75000000e-010,-3.59061842e-004
,,,-9.50000000e-010,-3.29061842e-004
,,,-9.25000000e-010,-2.99999341e-004
,,,-9.00000000e-010,-3.03280591e-004
,,,-8.75000000e-010,-3.16874342e-004
,,,-8.50000000e-010,-3.41249342e-004
,,,-8.25000000e-010,-3.73124342e-004
,,,-8.00000000e-010,-4.11093092e-004
,,,-7.75000000e-010,-4.52811843e-004
,,,-7.50000000e-010,-4.95936843e-004
,,,-7.25000000e-010,-5.39999343e-004
,,,-7.00000000e-010,-6.16874344e-004
,,,-6.75000000e-010,-6.99374345e-004
,,,-6.50000000e-010,-7.87030596e-004
,,,-6.25000000e-010,-8.77499346e-004
,,,-6.00000000e-010,-9.70311847e-004
,,,-5.75000000e-010,-1.06499935e-003
,,,-5.50000000e-010,-1.16109310e-003
,,,-5.25000000e-010,-1.25999935e-003
,,,-5.00000000e-010,-1.39078060e-003
,,,-4.75000000e-010,-1.53046810e-003
,,,-4.50000000e-010,-1.67718685e-003
,,,-4.25000000e-010,-1.82953060e-003
,,,-4.00000000e-010,-1.98515561e-003
,,,-3.75000000e-010,-2.14265561e-003
,,,-3.50000000e-010,-2.30109311e-003
,,,-3.25000000e-010,-2.45999936e-003
,,,-3.00000000e-010,-2.63484311e-003
,,,-2.75000000e-010,-2.81531186e-003
,,,-2.50000000e-010,-3.00234311e-003
,,,-2.25000000e-010,-3.19546812e-003
,,,-2.00000000e-010,-3.39421812e-003
,,,-1.75000000e-010,-3.59812437e-003
,,,-1.50000000e-010,-3.80671812e-003
,,,-1.25000000e-010,-4.01999937e-003
,,,-1.00000000e-010,-4.23328063e-003
,,,-7.50000000e-011,-4.45312438e-003
,,,-5.00000000e-011,-4.67859313e-003
,,,-2.50000000e-011,-4.90828063e-003
,,,0.00000000e+000,-5.13937438e-003
,,,2.50000000e-011,-5.37046814e-003
,,,5.00000000e-011,-5.59828064e-003
,,,7.50000000e-011,-5.81999939e-003
,,,1.00000000e-010,-6.00749939e-003
,,,1.25000000e-010,-6.18843689e-003
,,,1.50000000e-010,-6.36374939e-003
,,,1.75000000e-010,-6.53343690e-003
,,,2.00000000e-010,-6.69703065e-003
,,,2.25000000e-010,-6.85359315e-003
,,,2.50000000e-010,-7.00171815e-003
,,,2.75000000e-010,-7.13999940e-003
,,,3.00000000e-010,-7.22484315e-003
,,,3.25000000e-010,-7.30078065e-003
,,,3.50000000e-010,-7.37062440e-003
,,,3.75000000e-010,-7.43437440e-003
,,,4.00000000e-010,-7.49249940e-003
,,,4.25000000e-010,-7.54406190e-003
,,,4.50000000e-010,-7.58718690e-003
,,,4.75000000e-010,-7.61999940e-003
,,,5.00000000e-010,-7.59234315e-003
,,,5.25000000e-010,-7.55718690e-003
,,,5.50000000e-010,-7.51640565e-003
,,,5.75000000e-010,-7.47140565e-003
,,,6.00000000e-010,-7.42406190e-003
,,,6.25000000e-010,-7.37343690e-003
,,,6.50000000e-010,-7.31906190e-003
,,,6.75000000e-010,-7.25999940e-003
,,,7.00000000e-010,-7.15124940e-003
,,,7.25000000e-010,-7.03828065e-003
,,,7.50000000e-010,-6.92249940e-003
,,,7.75000000e-010,-6.80390565e-003
,,,8.00000000e-010,-6.68343690e-003
,,,8.25000000e-010,-6.55968690e-003
,,,8.50000000e-010,-6.43218689e-003
,,,8.75000000e-010,-6.29999939e-003
,,,9.00000000e-010,-6.13312439e-003
,,,9.25000000e-010,-5.96249939e-003
,,,9.50000000e-010,-5.79046814e-003
,,,9.75000000e-010,-5.61984314e-003
,,,1.00000000e-009,-5.45249939e-003
,,,1.02500000e-009,-5.28937438e-003
,,,1.05000000e-009,-5.13234313e-003
,,,1.07500000e-009,-4.97999938e-003
,,,1.10000000e-009,-4.82156188e-003
,,,1.12500000e-009,-4.66593688e-003
,,,1.15000000e-009,-4.51312438e-003
,,,1.17500000e-009,-4.36312438e-003
,,,1.20000000e-009,-4.21499938e-003
,,,1.22500000e-009,-4.06874937e-003
,,,1.25000000e-009,-3.92390562e-003
,,,1.27500000e-009,-3.77999937e-003
,,,1.30000000e-009,-3.64031187e-003
,,,1.32500000e-009,-3.49828062e-003
,,,1.35000000e-009,-3.35531187e-003
,,,1.37500000e-009,-3.21281187e-003
,,,1.40000000e-009,-3.07312437e-003
,,,1.42500000e-009,-2.93999936e-003
,,,1.45000000e-009,-2.81484311e-003
,,,1.47500000e-009,-2.69999936e-003
,,,1.50000000e-009,-2.61046811e-003
,,,1.52500000e-009,-2.52609311e-003
,,,1.55000000e-009,-2.44640561e-003
,,,1.57500000e-009,-2.36999936e-003
,,,1.60000000e-009,-2.29734311e-003
,,,1.62500000e-009,-2.22843686e-003
,,,1.65000000e-009,-2.16234311e-003
,,,1.67500000e-009,-2.09999936e-003
,,,1.70000000e-009,-2.05874936e-003
,,,1.72500000e-009,-2.01421811e-003
,,,1.75000000e-009,-1.96687436e-003
,,,1.77500000e-009,-1.91765561e-003
,,,1.80000000e-009,-1.86843686e-003
,,,1.82500000e-009,-1.82109310e-003
,,,1.85000000e-009,-1.77749935e-003
,,,1.87500000e-009,-1.73999935e-003
,,,1.90000000e-009,-1.72640560e-003
,,,1.92500000e-009,-1.71374935e-003
,,,1.95000000e-009,-1.70062435e-003
,,,1.97500000e-009,-1.68703060e-003
,,,2.00000000e-009,-1.67249935e-003
,,,2.02500000e-009,-1.65609310e-003
,,,2.05000000e-009,-1.63874935e-003
,,,2.07500000e-009,-1.61999935e-003
,,,2.10000000e-009,-1.61390560e-003
,,,2.12500000e-009,-1.60312435e-003
,,,2.15000000e-009,-1.58859310e-003
,,,2.17500000e-009,-1.57078060e-003
,,,2.20000000e-009,-1.55109310e-003
,,,2.22500000e-009,-1.53187435e-003
,,,2.25000000e-009,-1.51453060e-003
,,,2.27500000e-009,-1.49999935e-003
,,,2.30000000e-009,-1.49999935e-003
,,,2.32500000e-009,-1.50140560e-003
,,,2.35000000e-009,-1.50328060e-003
,,,2.37500000e-009,-1.50515560e-003
,,,2.40000000e-009,-1.50609310e-003
,,,2.42500000e-009,-1.50562435e-003
,,,2.45000000e-009,-1.50374935e-003
,,,2.47500000e-009,-1.49999935e-003
,,,2.50000000e-009,-1.50046810e-003
,,,2.52500000e-009,-1.49859310e-003
,,,2.55000000e-009,-1.49578060e-003
,,,2.57500000e-009,-1.49203060e-003
,,,2.60000000e-009,-1.48968685e-003
,,,2.62500000e-009,-1.48968685e-003
,,,2.65000000e-009,-1.49296810e-003
,,,2.67500000e-009,-1.49999935e-003
,,,2.70000000e-009,-1.51359310e-003
,,,2.72500000e-009,-1.52953060e-003
,,,2.75000000e-009,-1.54734310e-003
,,,2.77500000e-009,-1.56562435e-003
,,,2.80000000e-009,-1.58296810e-003
,,,2.82500000e-009,-1.59843685e-003
,,,2.85000000e-009,-1.61109310e-003
,,,2.87500000e-009,-1.61999935e-003
,,,2.90000000e-009,-1.62328060e-003
,,,2.92500000e-009,-1.62234310e-003
,,,2.95000000e-009,-1.61859310e-003
,,,2.97500000e-009,-1.61390560e-003
,,,3.00000000e-009,-1.61015560e-003
,,,3.02500000e-009,-1.60921810e-003
,,,3.05000000e-009,-1.61249935e-003
,,,3.07500000e-009,-1.61999935e-003
,,,3.10000000e-009,-1.62843685e-003
,,,3.12500000e-009,-1.64109310e-003
,,,3.15000000e-009,-1.65656185e-003
,,,3.17500000e-009,-1.67437435e-003
,,,3.20000000e-009,-1.69312435e-003
,,,3.22500000e-009,-1.71140560e-003
,,,3.25000000e-009,-1.72781185e-003
,,,3.27500000e-009,-1.73999935e-003
,,,3.30000000e-009,-1.74140560e-003
,,,3.32500000e-009,-1.73624935e-003
,,,3.35000000e-009,-1.72546810e-003
,,,3.37500000e-009,-1.70953060e-003
,,,3.40000000e-009,-1.69031185e-003
,,,3.42500000e-009,-1.66828060e-003
,,,3.45000000e-009,-1.64484310e-003
,,,3.47500000e-009,-1.61999935e-003
,,,3.50000000e-009,-1.59093685e-003
,,,3.52500000e-009,-1.56093685e-003
,,,3.55000000e-009,-1.53187435e-003
,,,3.57500000e-009,-1.50234310e-003
,,,3.60000000e-009,-1.47328060e-003
,,,3.62500000e-009,-1.44374935e-003
,,,3.65000000e-009,-1.41281185e-003
,,,3.67500000e-009,-1.37999935e-003
,,,3.70000000e-009,-1.34343685e-003
,,,3.72500000e-009,-1.30359310e-003
,,,3.75000000e-009,-1.26140560e-003
,,,3.77500000e-009,-1.21640560e-003
,,,3.80000000e-009,-1.16953060e-003
,,,3.82500000e-009,-1.12078060e-003
,,,3.85000000e-009,-1.07109310e-003
,,,3.87500000e-009,-1.01999935e-003
,,,3.90000000e-009,-9.70780597e-004
,,,3.92500000e-009,-9.21561847e-004
,,,3.95000000e-009,-8.73280596e-004
,,,3.97500000e-009,-8.25936846e-004
,,,4.00000000e-009,-7.80468096e-004
,,,4.02500000e-009,-7.37343095e-004
,,,4.05000000e-009,-6.97030595e-004
,,,4.07500000e-009,-6.59999344e-004
,,,4.10000000e-009,-6.31405594e-004
,,,4.12500000e-009,-6.06093094e-004
,,,4.15000000e-009,-5.84530594e-004
,,,4.17500000e-009,-5.66718094e-004
,,,4.20000000e-009,-5.53124344e-004
,,,4.22500000e-009,-5.44218093e-004
,,,4.25000000e-009,-5.39999343e-004
,,,4.27500000e-009,-5.39999343e-004
,,,4.30000000e-009,-5.50311844e-004
,,,4.32500000e-009,-5.62499344e-004
,,,4.35000000e-009,-5.76561844e-004
,,,4.37500000e-009,-5.92030594e-004
,,,4.40000000e-009,-6.08436844e-004
,,,4.42500000e-009,-6.25311844e-004
,,,4.45000000e-009,-6.42655594e-004
,,,4.47500000e-009,-6.59999344e-004
,,,4.50000000e-009,-6.81561845e-004
,,,4.52500000e-009,-7.01718095e-004
,,,4.55000000e-009,-7.19530595e-004
,,,4.57500000e-009,-7.34999345e-004
,,,4.60000000e-009,-7.49061845e-004
,,,4.62500000e-009,-7.60780595e-004
,,,4.65000000e-009,-7.71093095e-004
,,,4.67500000e-009,-7.79999346e-004
,,,4.70000000e-009,-7.89843096e-004
,,,4.72500000e-009,-7.96874346e-004
,,,4.75000000e-009,-8.01093096e-004
,,,4.77500000e-009,-8.02499346e-004
,,,4.80000000e-009,-8.01093096e-004
,,,4.82500000e-009,-7.96874346e-004
,,,4.85000000e-009,-7.89843096e-004
,,,4.87500000e-009,-7.79999346e-004
,,,4.90000000e-009,-7.67811845e-004
,,,4.92500000e-009,-7.53749345e-004
,,,4.95000000e-009,-7.37811845e-004
,,,4.97500000e-009,-7.20936845e-004
,,,5.00000000e-009,-7.03593095e-004
,,,5.02500000e-009,-6.87655595e-004
,,,5.05000000e-009,-6.72655595e-004
,,,5.07500000e-009,-6.59999344e-004
,,,5.10000000e-009,-6.49218094e-004
,,,5.12500000e-009,-6.41249344e-004
,,,5.15000000e-009,-6.36561844e-004
,,,5.17500000e-009,-6.35155594e-004
,,,5.20000000e-009,-6.37030594e-004
,,,5.22500000e-009,-6.42186844e-004
,,,5.25000000e-009,-6.49686844e-004
,,,5.27500000e-009,-6.59999344e-004
,,,5.30000000e-009,-6.69374345e-004
,,,5.32500000e-009,-6.80624345e-004
,,,5.35000000e-009,-6.92811845e-004
,,,5.37500000e-009,-7.07343095e-004
,,,5.40000000e-009,-7.23749345e-004
,,,5.42500000e-009,-7.41561845e-004
,,,5.45000000e-009,-7.60780595e-004
,,,5.47500000e-009,-7.79999346e-004
,,,5.50000000e-009,-7.95936846e-004
,,,5.52500000e-009,-8.08593096e-004
,,,5.55000000e-009,-8.18436846e-004
,,,5.57500000e-009,-8.23124346e-004
,,,5.60000000e-009,-8.22186846e-004
,,,5.62500000e-009,-8.15155596e-004
,,,5.65000000e-009,-8.01093096e-004
,,,5.67500000e-009,-7.79999346e-004
,,,5.70000000e-009,-7.51405595e-004
,,,5.72500000e-009,-7.18593095e-004
,,,5.75000000e-009,-6.82968095e-004
,,,5.77500000e-009,-6.47343094e-004
,,,5.80000000e-009,-6.13593094e-004
