RawData/SinglePhotoelectron/L6_2pt2C_5mV/wave023_Ch3.csv

"Record Length",1000,"Points",-7.72500000e-009,-1.00000147e-004
"Sample Interval",2.50000000e-011,s,-7.70000000e-009,-8.98438961e-005
"Trigger Point",309,"Samples",-7.67500000e-009,-7.65626451e-005
"Trigger Time",2.83355932e-012,s,-7.65000000e-009,-5.85938938e-005
"",,,-7.62500000e-009,-3.51563922e-005
"Horizontal Offset",-7.72500000e-009,s,-7.60000000e-009,-7.81264025e-006
,,,-7.57500000e-009,2.49998621e-005
,,,-7.55000000e-009,6.09373646e-005
,,,-7.52500000e-009,9.99998674e-005
,,,-7.50000000e-009,1.39843620e-004
,,,-7.47500000e-009,1.79687373e-004
,,,-7.45000000e-009,2.15624876e-004
,,,-7.42500000e-009,2.48437378e-004
,,,-7.40000000e-009,2.74218630e-004
,,,-7.37500000e-009,2.92187381e-004
,,,-7.35000000e-009,3.00781132e-004
,,,-7.32500000e-009,2.99999882e-004
,,,-7.30000000e-009,2.88281131e-004
,,,-7.27500000e-009,2.67968629e-004
,,,-7.25000000e-009,2.42187377e-004
,,,-7.22500000e-009,2.12499875e-004
,,,-7.20000000e-009,1.81249873e-004
,,,-7.17500000e-009,1.50781121e-004
,,,-7.15000000e-009,1.23437369e-004
,,,-7.12500000e-009,9.99998674e-005
,,,-7.10000000e-009,8.43748663e-005
,,,-7.07500000e-009,7.57811157e-005
,,,-7.05000000e-009,7.34373655e-005
,,,-7.02500000e-009,7.57811157e-005
,,,-7.00000000e-009,8.12498661e-005
,,,-6.97500000e-009,8.82811166e-005
,,,-6.95000000e-009,9.53123670e-005
,,,-6.92500000e-009,9.99998674e-005
,,,-6.90000000e-009,1.02343618e-004
,,,-6.87500000e-009,1.02343618e-004
,,,-6.85000000e-009,1.00781117e-004
,,,-6.82500000e-009,9.76561172e-005
,,,-6.80000000e-009,9.60936171e-005
,,,-6.77500000e-009,9.45311170e-005
,,,-6.75000000e-009,9.60936171e-005
,,,-6.72500000e-009,9.99998674e-005
,,,-6.70000000e-009,1.06249868e-004
,,,-6.67500000e-009,1.13281118e-004
,,,-6.65000000e-009,1.20312369e-004
,,,-6.62500000e-009,1.24999869e-004
,,,-6.60000000e-009,1.27343619e-004
,,,-6.57500000e-009,1.23437369e-004
,,,-6.55000000e-009,1.14843618e-004
,,,-6.52500000e-009,9.99998674e-005
,,,-6.50000000e-009,8.28123662e-005
,,,-6.47500000e-009,6.40623648e-005
,,,-6.45000000e-009,4.68748636e-005
,,,-6.42500000e-009,3.51561128e-005
,,,-6.40000000e-009,3.28123626e-005
,,,-6.37500000e-009,4.14061132e-005
,,,-6.35000000e-009,6.32811148e-005
,,,-6.32500000e-009,9.99998674e-005
,,,-6.30000000e-009,1.50781121e-004
,,,-6.27500000e-009,2.10156125e-004
,,,-6.25000000e-009,2.75781130e-004
,,,-6.22500000e-009,3.40624884e-004
,,,-6.20000000e-009,3.99999889e-004
,,,-6.17500000e-009,4.49999892e-004
,,,-6.15000000e-009,4.84374895e-004
,,,-6.12500000e-009,4.99999896e-004
,,,-6.10000000e-009,4.92968645e-004
,,,-6.07500000e-009,4.65624893e-004
,,,-6.05000000e-009,4.21874890e-004
,,,-6.02500000e-009,3.64062386e-004
,,,-6.00000000e-009,2.98437381e-004
,,,-5.97500000e-009,2.28906127e-004
,,,-5.95000000e-009,1.60937372e-004
,,,-5.92500000e-009,9.99998674e-005
,,,-5.90000000e-009,4.99998638e-005
,,,-5.87500000e-009,1.40623613e-005
,,,-5.85000000e-009,-6.25014014e-006
,,,-5.82500000e-009,-1.09376405e-005
,,,-5.80000000e-009,-1.39698386e-010
,,,-5.77500000e-009,2.42186120e-005
,,,-5.75000000e-009,5.85936144e-005
,,,-5.72500000e-009,9.99998674e-005
,,,-5.70000000e-009,1.45312371e-004
,,,-5.67500000e-009,1.89843624e-004
,,,-5.65000000e-009,2.30468627e-004
,,,-5.62500000e-009,2.64062379e-004
,,,-5.60000000e-009,2.89062381e-004
,,,-5.57500000e-009,3.03906132e-004
,,,-5.55000000e-009,3.07812382e-004
,,,-5.52500000e-009,2.99999882e-004
,,,-5.50000000e-009,2.80468630e-004
,,,-5.47500000e-009,2.53906128e-004
,,,-5.45000000e-009,2.21874876e-004
,,,-5.42500000e-009,1.89062374e-004
,,,-5.40000000e-009,1.58593622e-004
,,,-5.37500000e-009,1.32031120e-004
,,,-5.35000000e-009,1.12499868e-004
,,,-5.32500000e-009,9.99998674e-005
,,,-5.30000000e-009,9.68748672e-005
,,,-5.27500000e-009,9.92186173e-005
,,,-5.25000000e-009,1.06249868e-004
,,,-5.22500000e-009,1.14843618e-004
,,,-5.20000000e-009,1.21093619e-004
,,,-5.17500000e-009,1.22656119e-004
,,,-5.15000000e-009,1.15624868e-004
,,,-5.12500000e-009,9.99998674e-005
,,,-5.10000000e-009,7.89061159e-005
,,,-5.07500000e-009,4.92186138e-005
,,,-5.05000000e-009,1.56248614e-005
,,,-5.02500000e-009,-2.03126411e-005
,,,-5.00000000e-009,-5.31251435e-005
,,,-4.97500000e-009,-7.89063953e-005
,,,-4.95000000e-009,-9.53126464e-005
,,,-4.92500000e-009,-1.00000147e-004
,,,-4.90000000e-009,-8.98438961e-005
,,,-4.87500000e-009,-6.79688945e-005
,,,-4.85000000e-009,-3.75001424e-005
,,,-4.82500000e-009,-3.12513992e-006
,,,-4.80000000e-009,3.28123626e-005
,,,-4.77500000e-009,6.40623648e-005
,,,-4.75000000e-009,8.74998665e-005
,,,-4.72500000e-009,9.99998674e-005
,,,-4.70000000e-009,1.01562367e-004
,,,-4.67500000e-009,8.98436167e-005
,,,-4.65000000e-009,6.71873651e-005
,,,-4.62500000e-009,3.51561128e-005
,,,-4.60000000e-009,-7.81389754e-007
,,,-4.57500000e-009,-3.82813924e-005
,,,-4.55000000e-009,-7.26563948e-005
,,,-4.52500000e-009,-1.00000147e-004
,,,-4.50000000e-009,-1.14843898e-004
,,,-4.47500000e-009,-1.18750148e-004
,,,-4.45000000e-009,-1.09375147e-004
,,,-4.42500000e-009,-8.67188958e-005
,,,-4.40000000e-009,-5.23438934e-005
,,,-4.37500000e-009,-7.81264025e-006
,,,-4.35000000e-009,4.37498634e-005
,,,-4.32500000e-009,9.99998674e-005
,,,-4.30000000e-009,1.56249871e-004
,,,-4.27500000e-009,2.08593625e-004
,,,-4.25000000e-009,2.53124878e-004
,,,-4.22500000e-009,2.88281131e-004
,,,-4.20000000e-009,3.10937382e-004
,,,-4.17500000e-009,3.21093633e-004
,,,-4.15000000e-009,3.17187383e-004
,,,-4.12500000e-009,2.99999882e-004
,,,-4.10000000e-009,2.69531129e-004
,,,-4.07500000e-009,2.32031127e-004
,,,-4.05000000e-009,1.91406124e-004
,,,-4.02500000e-009,1.53124871e-004
,,,-4.00000000e-009,1.21874869e-004
,,,-3.97500000e-009,1.00781117e-004
,,,-3.95000000e-009,9.29686169e-005
,,,-3.92500000e-009,9.99998674e-005
,,,-3.90000000e-009,1.17968619e-004
,,,-3.87500000e-009,1.46093621e-004
,,,-3.85000000e-009,1.82031123e-004
,,,-3.82500000e-009,2.21093626e-004
,,,-3.80000000e-009,2.56249878e-004
,,,-3.77500000e-009,2.84374880e-004
,,,-3.75000000e-009,2.99999882e-004
,,,-3.72500000e-009,2.99999882e-004
,,,-3.70000000e-009,2.78124880e-004
,,,-3.67500000e-009,2.39062377e-004
,,,-3.65000000e-009,1.86718624e-004
,,,-3.62500000e-009,1.25781119e-004
,,,-3.60000000e-009,6.17186147e-005
,,,-3.57500000e-009,-7.81389754e-007
,,,-3.55000000e-009,-5.54688936e-005
,,,-3.52500000e-009,-1.00000147e-004
,,,-3.50000000e-009,-1.31250149e-004
,,,-3.47500000e-009,-1.49218900e-004
,,,-3.45000000e-009,-1.53125151e-004
,,,-3.42500000e-009,-1.47656400e-004
,,,-3.40000000e-009,-1.35156399e-004
,,,-3.37500000e-009,-1.20312648e-004
,,,-3.35000000e-009,-1.07031397e-004
,,,-3.32500000e-009,-1.00000147e-004
,,,-3.30000000e-009,-1.00000147e-004
,,,-3.27500000e-009,-1.10156397e-004
,,,-3.25000000e-009,-1.29687649e-004
,,,-3.22500000e-009,-1.57031401e-004
,,,-3.20000000e-009,-1.89843903e-004
,,,-3.17500000e-009,-2.26562656e-004
,,,-3.15000000e-009,-2.64062658e-004
,,,-3.12500000e-009,-3.00000161e-004
,,,-3.10000000e-009,-3.28906413e-004
,,,-3.07500000e-009,-3.55468915e-004
,,,-3.05000000e-009,-3.78906417e-004
,,,-3.02500000e-009,-4.00000168e-004
,,,-3.00000000e-009,-4.21875170e-004
,,,-2.97500000e-009,-4.45312671e-004
,,,-2.95000000e-009,-4.70312673e-004
,,,-2.92500000e-009,-5.00000175e-004
,,,-2.90000000e-009,-5.28125177e-004
,,,-2.87500000e-009,-5.59375179e-004
,,,-2.85000000e-009,-5.92187682e-004
,,,-2.82500000e-009,-6.24218934e-004
,,,-2.80000000e-009,-6.53125186e-004
,,,-2.77500000e-009,-6.76562688e-004
,,,-2.75000000e-009,-6.92187689e-004
,,,-2.72500000e-009,-7.00000189e-004
,,,-2.70000000e-009,-6.91406439e-004
,,,-2.67500000e-009,-6.75000187e-004
,,,-2.65000000e-009,-6.51562686e-004
,,,-2.62500000e-009,-6.23437684e-004
,,,-2.60000000e-009,-5.92187682e-004
,,,-2.57500000e-009,-5.60156429e-004
,,,-2.55000000e-009,-5.28906427e-004
,,,-2.52500000e-009,-5.00000175e-004
,,,-2.50000000e-009,-4.69531423e-004
,,,-2.47500000e-009,-4.42968921e-004
,,,-2.45000000e-009,-4.19531419e-004
,,,-2.42500000e-009,-3.96875168e-004
,,,-2.40000000e-009,-3.75000166e-004
,,,-2.37500000e-009,-3.52343915e-004
,,,-2.35000000e-009,-3.27343913e-004
,,,-2.32500000e-009,-3.00000161e-004
,,,-2.30000000e-009,-2.68750159e-004
,,,-2.27500000e-009,-2.35937656e-004
,,,-2.25000000e-009,-2.03125154e-004
,,,-2.22500000e-009,-1.72656402e-004
,,,-2.20000000e-009,-1.44531400e-004
,,,-2.17500000e-009,-1.22656398e-004
,,,-2.15000000e-009,-1.07031397e-004
,,,-2.12500000e-009,-1.00000147e-004
,,,-2.10000000e-009,-1.02343897e-004
,,,-2.07500000e-009,-1.14062648e-004
,,,-2.05000000e-009,-1.33593899e-004
,,,-2.02500000e-009,-1.60156401e-004
,,,-2.00000000e-009,-1.92968903e-004
,,,-1.97500000e-009,-2.28125156e-004
,,,-1.95000000e-009,-2.64843908e-004
,,,-1.92500000e-009,-3.00000161e-004
,,,-1.90000000e-009,-3.31250163e-004
,,,-1.87500000e-009,-3.56250165e-004
,,,-1.85000000e-009,-3.71875166e-004
,,,-1.82500000e-009,-3.78125166e-004
,,,-1.80000000e-009,-3.73437666e-004
,,,-1.77500000e-009,-3.58593915e-004
,,,-1.75000000e-009,-3.32812663e-004
,,,-1.72500000e-009,-3.00000161e-004
,,,-1.70000000e-009,-2.64062658e-004
,,,-1.67500000e-009,-2.25781406e-004
,,,-1.65000000e-009,-1.87500153e-004
,,,-1.62500000e-009,-1.53125151e-004
,,,-1.60000000e-009,-1.25000149e-004
,,,-1.57500000e-009,-1.06250147e-004
,,,-1.55000000e-009,-9.68751466e-005
,,,-1.52500000e-009,-1.00000147e-004
,,,-1.50000000e-009,-1.20312648e-004
,,,-1.47500000e-009,-1.49218900e-004
,,,-1.45000000e-009,-1.84375153e-004
,,,-1.42500000e-009,-2.21093905e-004
,,,-1.40000000e-009,-2.54687658e-004
,,,-1.37500000e-009,-2.80468910e-004
,,,-1.35000000e-009,-2.96093911e-004
,,,-1.32500000e-009,-3.00000161e-004
,,,-1.30000000e-009,-3.00781411e-004
,,,-1.27500000e-009,-2.91406410e-004
,,,-1.25000000e-009,-2.71875159e-004
,,,-1.22500000e-009,-2.42968907e-004
,,,-1.20000000e-009,-2.08593904e-004
,,,-1.17500000e-009,-1.71093902e-004
,,,-1.15000000e-009,-1.33593899e-004
,,,-1.12500000e-009,-1.00000147e-004
,,,-1.10000000e-009,-9.21876462e-005
,,,-1.07500000e-009,-9.76563966e-005
,,,-1.05000000e-009,-1.14843898e-004
,,,-1.02500000e-009,-1.42187650e-004
,,,-1.00000000e-009,-1.76562652e-004
,,,-9.75000000e-010,-2.15625155e-004
,,,-9.50000000e-010,-2.57812658e-004
,,,-9.25000000e-010,-3.00000161e-004
,,,-9.00000000e-010,-3.64843916e-004
,,,-8.75000000e-010,-4.30468920e-004
,,,-8.50000000e-010,-4.92968925e-004
,,,-8.25000000e-010,-5.50000179e-004
,,,-8.00000000e-010,-5.99218932e-004
,,,-7.75000000e-010,-6.39843935e-004
,,,-7.50000000e-010,-6.72656437e-004
,,,-7.25000000e-010,-7.00000189e-004
,,,-7.00000000e-010,-7.46875193e-004
,,,-6.75000000e-010,-7.98437696e-004
,,,-6.50000000e-010,-8.56250200e-004
,,,-6.25000000e-010,-9.21875205e-004
,,,-6.00000000e-010,-9.97656460e-004
,,,-5.75000000e-010,-1.08515647e-003
,,,-5.50000000e-010,-1.18515647e-003
,,,-5.25000000e-010,-1.30000023e-003
,,,-5.00000000e-010,-1.44453149e-003
,,,-4.75000000e-010,-1.60625025e-003
,,,-4.50000000e-010,-1.78046902e-003
,,,-4.25000000e-010,-1.96328153e-003
,,,-4.00000000e-010,-2.15078154e-003
,,,-3.75000000e-010,-2.33750031e-003
,,,-3.50000000e-010,-2.52109407e-003
,,,-3.25000000e-010,-2.70000033e-003
,,,-3.00000000e-010,-2.87265659e-003
,,,-2.75000000e-010,-3.04218786e-003
,,,-2.50000000e-010,-3.21015662e-003
,,,-2.25000000e-010,-3.37890663e-003
,,,-2.00000000e-010,-3.55078164e-003
,,,-1.75000000e-010,-3.72734415e-003
,,,-1.50000000e-010,-3.91015667e-003
,,,-1.25000000e-010,-4.10000043e-003
,,,-1.00000000e-010,-4.27968794e-003
,,,-7.50000000e-011,-4.46562546e-003
,,,-5.00000000e-011,-4.65468797e-003
,,,-2.50000000e-011,-4.84375048e-003
,,,0.00000000e+000,-5.02812550e-003
,,,2.50000000e-011,-5.20156301e-003
,,,5.00000000e-011,-5.36015677e-003
,,,7.50000000e-011,-5.50000053e-003
,,,1.00000000e-010,-5.58593804e-003
,,,1.25000000e-010,-5.65468804e-003
,,,1.50000000e-010,-5.70937554e-003
,,,1.75000000e-010,-5.75390680e-003
,,,2.00000000e-010,-5.79218805e-003
,,,2.25000000e-010,-5.82734430e-003
,,,2.50000000e-010,-5.86328180e-003
,,,2.75000000e-010,-5.90000056e-003
,,,3.00000000e-010,-5.90078181e-003
,,,3.25000000e-010,-5.90546931e-003
,,,3.50000000e-010,-5.91406306e-003
,,,3.75000000e-010,-5.92421931e-003
,,,4.00000000e-010,-5.93203181e-003
,,,4.25000000e-010,-5.93281306e-003
,,,4.50000000e-010,-5.92343806e-003
,,,4.75000000e-010,-5.90000056e-003
,,,5.00000000e-010,-5.82343805e-003
,,,5.25000000e-010,-5.73359430e-003
,,,5.50000000e-010,-5.63359429e-003
,,,5.75000000e-010,-5.52734428e-003
,,,6.00000000e-010,-5.41718802e-003
,,,6.25000000e-010,-5.30781302e-003
,,,6.50000000e-010,-5.20156301e-003
,,,6.75000000e-010,-5.10000050e-003
,,,7.00000000e-010,-4.97734424e-003
,,,7.25000000e-010,-4.86328173e-003
,,,7.50000000e-010,-4.75703173e-003
,,,7.75000000e-010,-4.65859422e-003
,,,8.00000000e-010,-4.56562546e-003
,,,8.25000000e-010,-4.47734421e-003
,,,8.50000000e-010,-4.38906295e-003
,,,8.75000000e-010,-4.30000044e-003
,,,9.00000000e-010,-4.18906294e-003
,,,9.25000000e-010,-4.07109418e-003
,,,9.50000000e-010,-3.94765667e-003
,,,9.75000000e-010,-3.81953166e-003
,,,1.00000000e-009,-3.68828165e-003
,,,1.02500000e-009,-3.55625039e-003
,,,1.05000000e-009,-3.42656288e-003
,,,1.07500000e-009,-3.30000037e-003
,,,1.10000000e-009,-3.17421911e-003
,,,1.12500000e-009,-3.05234411e-003
,,,1.15000000e-009,-2.93671910e-003
,,,1.17500000e-009,-2.82890659e-003
,,,1.20000000e-009,-2.73046908e-003
,,,1.22500000e-009,-2.64218783e-003
,,,1.25000000e-009,-2.56562532e-003
,,,1.27500000e-009,-2.50000032e-003
,,,1.30000000e-009,-2.44765656e-003
,,,1.32500000e-009,-2.39921906e-003
,,,1.35000000e-009,-2.35156281e-003
,,,1.37500000e-009,-2.30468780e-003
,,,1.40000000e-009,-2.25703155e-003
,,,1.42500000e-009,-2.20703155e-003
,,,1.45000000e-009,-2.15468779e-003
,,,1.47500000e-009,-2.10000029e-003
,,,1.50000000e-009,-2.04687528e-003
,,,1.52500000e-009,-1.98515653e-003
,,,1.55000000e-009,-1.91406278e-003
,,,1.57500000e-009,-1.83671902e-003
,,,1.60000000e-009,-1.75390651e-003
,,,1.62500000e-009,-1.66875026e-003
,,,1.65000000e-009,-1.58359400e-003
,,,1.67500000e-009,-1.50000025e-003
,,,1.70000000e-009,-1.42734399e-003
,,,1.72500000e-009,-1.35390649e-003
,,,1.75000000e-009,-1.27968773e-003
,,,1.77500000e-009,-1.20390647e-003
,,,1.80000000e-009,-1.12734397e-003
,,,1.82500000e-009,-1.05078146e-003
,,,1.85000000e-009,-9.74218959e-004
,,,1.87500000e-009,-9.00000203e-004
,,,1.90000000e-009,-8.38281449e-004
,,,1.92500000e-009,-7.77343945e-004
,,,1.95000000e-009,-7.17968941e-004
,,,1.97500000e-009,-6.60937686e-004
,,,2.00000000e-009,-6.08593933e-004
,,,2.02500000e-009,-5.63281430e-004
,,,2.05000000e-009,-5.26562677e-004
,,,2.07500000e-009,-5.00000175e-004
,,,2.10000000e-009,-4.92968925e-004
,,,2.12500000e-009,-4.91406424e-004
,,,2.15000000e-009,-4.93750175e-004
,,,2.17500000e-009,-4.98437675e-004
,,,2.20000000e-009,-5.02343925e-004
,,,2.22500000e-009,-5.05468925e-004
,,,2.25000000e-009,-5.04687675e-004
,,,2.27500000e-009,-5.00000175e-004
,,,2.30000000e-009,-4.96093925e-004
,,,2.32500000e-009,-4.84375174e-004
,,,2.35000000e-009,-4.64062673e-004
,,,2.37500000e-009,-4.37500171e-004
,,,2.40000000e-009,-4.05468918e-004
,,,2.42500000e-009,-3.69531416e-004
,,,2.45000000e-009,-3.33593913e-004
,,,2.47500000e-009,-3.00000161e-004
,,,2.50000000e-009,-2.75781409e-004
,,,2.52500000e-009,-2.57031408e-004
,,,2.55000000e-009,-2.43750157e-004
,,,2.57500000e-009,-2.38281407e-004
,,,2.60000000e-009,-2.40625157e-004
,,,2.62500000e-009,-2.51562658e-004
,,,2.65000000e-009,-2.71875159e-004
,,,2.67500000e-009,-3.00000161e-004
,,,2.70000000e-009,-3.37500164e-004
,,,2.72500000e-009,-3.77343916e-004
,,,2.75000000e-009,-4.15625169e-004
,,,2.77500000e-009,-4.50000172e-004
,,,2.80000000e-009,-4.77343923e-004
,,,2.82500000e-009,-4.95312675e-004
,,,2.85000000e-009,-5.03125175e-004
,,,2.87500000e-009,-5.00000175e-004
,,,2.90000000e-009,-4.84375174e-004
,,,2.92500000e-009,-4.60156422e-004
,,,2.95000000e-009,-4.29687670e-004
,,,2.97500000e-009,-3.96093918e-004
,,,3.00000000e-009,-3.63281415e-004
,,,3.02500000e-009,-3.34375163e-004
,,,3.05000000e-009,-3.12500162e-004
,,,3.07500000e-009,-3.00000161e-004
,,,3.10000000e-009,-2.96093911e-004
,,,3.12500000e-009,-3.00000161e-004
,,,3.15000000e-009,-3.08593912e-004
,,,3.17500000e-009,-3.17968912e-004
,,,3.20000000e-009,-3.25000163e-004
,,,3.22500000e-009,-3.25781413e-004
,,,3.25000000e-009,-3.17968912e-004
,,,3.27500000e-009,-3.00000161e-004
,,,3.30000000e-009,-2.71875159e-004
,,,3.32500000e-009,-2.37500157e-004
,,,3.35000000e-009,-1.97656404e-004
,,,3.37500000e-009,-1.59375151e-004
,,,3.40000000e-009,-1.26562649e-004
,,,3.42500000e-009,-1.03125147e-004
,,,3.45000000e-009,-9.37501463e-005
,,,3.47500000e-009,-1.00000147e-004
,,,3.50000000e-009,-1.21875148e-004
,,,3.52500000e-009,-1.56250151e-004
,,,3.55000000e-009,-1.97656404e-004
,,,3.57500000e-009,-2.39843907e-004
,,,3.60000000e-009,-2.76562659e-004
,,,3.62500000e-009,-3.02343911e-004
,,,3.65000000e-009,-3.10937662e-004
,,,3.67500000e-009,-3.00000161e-004
,,,3.70000000e-009,-2.67968909e-004
,,,3.72500000e-009,-2.17968905e-004
,,,3.75000000e-009,-1.56250151e-004
,,,3.77500000e-009,-8.75001459e-005
,,,3.80000000e-009,-2.10938912e-005
,,,3.82500000e-009,3.67186129e-005
,,,3.85000000e-009,7.89061159e-005
,,,3.87500000e-009,9.99998674e-005
,,,3.90000000e-009,9.53123670e-005
,,,3.92500000e-009,6.79686151e-005
,,,3.95000000e-009,2.10936118e-005
,,,3.97500000e-009,-3.98438925e-005
,,,4.00000000e-009,-1.08593897e-004
,,,4.02500000e-009,-1.78906402e-004
,,,4.05000000e-009,-2.44531407e-004
,,,4.07500000e-009,-3.00000161e-004
,,,4.10000000e-009,-3.39843914e-004
,,,4.12500000e-009,-3.63281415e-004
,,,4.15000000e-009,-3.71875166e-004
,,,4.17500000e-009,-3.67187666e-004
,,,4.20000000e-009,-3.53125165e-004
,,,4.22500000e-009,-3.35156413e-004
,,,4.25000000e-009,-3.15625162e-004
,,,4.27500000e-009,-3.00000161e-004
,,,4.30000000e-009,-2.86718910e-004
,,,4.32500000e-009,-2.80468910e-004
,,,4.35000000e-009,-2.79687659e-004
,,,4.37500000e-009,-2.84375160e-004
,,,4.40000000e-009,-2.90625160e-004
,,,4.42500000e-009,-2.97656411e-004
,,,4.45000000e-009,-3.00781411e-004
,,,4.47500000e-009,-3.00000161e-004
,,,4.50000000e-009,-2.89843910e-004
,,,4.52500000e-009,-2.73437659e-004
,,,4.55000000e-009,-2.50781407e-004
,,,4.57500000e-009,-2.22656405e-004
,,,4.60000000e-009,-1.91406403e-004
,,,4.62500000e-009,-1.58593901e-004
,,,4.65000000e-009,-1.27343899e-004
,,,4.67500000e-009,-1.00000147e-004
,,,4.70000000e-009,-7.65626451e-005
,,,4.72500000e-009,-6.01563940e-005
,,,4.75000000e-009,-5.15626433e-005
,,,4.77500000e-009,-4.92188932e-005
,,,4.80000000e-009,-5.39063935e-005
,,,4.82500000e-009,-6.56251443e-005
,,,4.85000000e-009,-8.12501454e-005
,,,4.87500000e-009,-1.00000147e-004
,,,4.90000000e-009,-1.17968898e-004
,,,4.92500000e-009,-1.35156399e-004
,,,4.95000000e-009,-1.48437650e-004
,,,4.97500000e-009,-1.55468901e-004
,,,5.00000000e-009,-1.54687651e-004
,,,5.02500000e-009,-1.45312650e-004
,,,5.05000000e-009,-1.26562649e-004
,,,5.07500000e-009,-1.00000147e-004
,,,5.10000000e-009,-6.56251443e-005
,,,5.12500000e-009,-2.73438916e-005
,,,5.15000000e-009,1.17186111e-005
,,,5.17500000e-009,4.84373637e-005
,,,5.20000000e-009,7.81248658e-005
,,,5.22500000e-009,9.76561172e-005
,,,5.25000000e-009,1.05468618e-004
,,,5.27500000e-009,9.99998674e-005
,,,5.30000000e-009,8.28123662e-005
,,,5.32500000e-009,5.62498643e-005
,,,5.35000000e-009,2.26561119e-005
,,,5.37500000e-009,-1.25001406e-005
,,,5.40000000e-009,-4.60938930e-005
,,,5.42500000e-009,-7.42188950e-005
,,,5.45000000e-009,-9.21876462e-005
,,,5.47500000e-009,-1.00000147e-004
,,,5.50000000e-009,-9.21876462e-005
,,,5.52500000e-009,-7.26563948e-005
,,,5.55000000e-009,-4.29688927e-005
,,,5.57500000e-009,-7.81264025e-006
,,,5.60000000e-009,2.81248623e-005
,,,5.62500000e-009,6.09373646e-005
,,,5.65000000e-009,8.59373664e-005
,,,5.67500000e-009,9.99998674e-005
,,,5.70000000e-009,1.03124868e-004
,,,5.72500000e-009,9.29686169e-005
,,,5.75000000e-009,7.10936153e-005
,,,5.77500000e-009,4.06248632e-005
,,,5.80000000e-009,4.68736063e-006
,,,5.82500000e-009,-3.35938921e-005
,,,5.85000000e-009,-6.95313946e-005
,,,5.87500000e-009,-1.00000147e-004
,,,5.90000000e-009,-1.17968898e-004
,,,5.92500000e-009,-1.23437648e-004
