RawData/SinglePhotoelectron/L6_2pt2C_5mV/wave024_Ch3.csv

"Record Length",1000,"Points",-7.72500000e-009,-4.67968923e-004
"Sample Interval",2.50000000e-011,s,-7.70000000e-009,-4.89843924e-004
"Trigger Point",309,"Samples",-7.67500000e-009,-5.00000175e-004
"Trigger Time",2.47144444e-011,s,-7.65000000e-009,-4.96093925e-004
"",,,-7.62500000e-009,-4.78125174e-004
"Horizontal Offset",-7.72500000e-009,s,-7.60000000e-009,-4.50000172e-004
,,,-7.57500000e-009,-4.14843919e-004
,,,-7.55000000e-009,-3.77343916e-004
,,,-7.52500000e-009,-3.42968914e-004
,,,-7.50000000e-009,-3.15625162e-004
,,,-7.47500000e-009,-3.00000161e-004
,,,-7.45000000e-009,-3.00000161e-004
,,,-7.42500000e-009,-3.14062662e-004
,,,-7.40000000e-009,-3.38281414e-004
,,,-7.37500000e-009,-3.71875166e-004
,,,-7.35000000e-009,-4.07812669e-004
,,,-7.32500000e-009,-4.43750171e-004
,,,-7.30000000e-009,-4.75781423e-004
,,,-7.27500000e-009,-5.00000175e-004
,,,-7.25000000e-009,-5.15625176e-004
,,,-7.22500000e-009,-5.21875177e-004
,,,-7.20000000e-009,-5.21093927e-004
,,,-7.17500000e-009,-5.14843926e-004
,,,-7.15000000e-009,-5.07031426e-004
,,,-7.12500000e-009,-4.99218925e-004
,,,-7.10000000e-009,-4.96093925e-004
,,,-7.07500000e-009,-5.00000175e-004
,,,-7.05000000e-009,-5.12500176e-004
,,,-7.02500000e-009,-5.33593927e-004
,,,-7.00000000e-009,-5.60937679e-004
,,,-6.97500000e-009,-5.92187682e-004
,,,-6.95000000e-009,-6.24218934e-004
,,,-6.92500000e-009,-6.54687686e-004
,,,-6.90000000e-009,-6.80468938e-004
,,,-6.87500000e-009,-7.00000189e-004
,,,-6.85000000e-009,-7.09375190e-004
,,,-6.82500000e-009,-7.12500190e-004
,,,-6.80000000e-009,-7.09375190e-004
,,,-6.77500000e-009,-7.03906440e-004
,,,-6.75000000e-009,-6.97656439e-004
,,,-6.72500000e-009,-6.92968939e-004
,,,-6.70000000e-009,-6.92968939e-004
,,,-6.67500000e-009,-7.00000189e-004
,,,-6.65000000e-009,-7.13281440e-004
,,,-6.62500000e-009,-7.34375192e-004
,,,-6.60000000e-009,-7.60937694e-004
,,,-6.57500000e-009,-7.92187696e-004
,,,-6.55000000e-009,-8.23437698e-004
,,,-6.52500000e-009,-8.53125200e-004
,,,-6.50000000e-009,-8.79687702e-004
,,,-6.47500000e-009,-9.00000203e-004
,,,-6.45000000e-009,-9.10937704e-004
,,,-6.42500000e-009,-9.15625205e-004
,,,-6.40000000e-009,-9.14843954e-004
,,,-6.37500000e-009,-9.11718954e-004
,,,-6.35000000e-009,-9.06250204e-004
,,,-6.32500000e-009,-9.01562704e-004
,,,-6.30000000e-009,-8.99218953e-004
,,,-6.27500000e-009,-9.00000203e-004
,,,-6.25000000e-009,-9.02343954e-004
,,,-6.22500000e-009,-9.08593954e-004
,,,-6.20000000e-009,-9.16406455e-004
,,,-6.17500000e-009,-9.23437705e-004
,,,-6.15000000e-009,-9.27343955e-004
,,,-6.12500000e-009,-9.25781455e-004
,,,-6.10000000e-009,-9.16406455e-004
,,,-6.07500000e-009,-9.00000203e-004
,,,-6.05000000e-009,-8.72656451e-004
,,,-6.02500000e-009,-8.39843949e-004
,,,-6.00000000e-009,-8.03906447e-004
,,,-5.97500000e-009,-7.68750194e-004
,,,-5.95000000e-009,-7.38281442e-004
,,,-5.92500000e-009,-7.14843940e-004
,,,-5.90000000e-009,-7.01562689e-004
,,,-5.87500000e-009,-7.00000189e-004
,,,-5.85000000e-009,-7.10156440e-004
,,,-5.82500000e-009,-7.30468941e-004
,,,-5.80000000e-009,-7.59375193e-004
,,,-5.77500000e-009,-7.92968946e-004
,,,-5.75000000e-009,-8.26562698e-004
,,,-5.72500000e-009,-8.57812700e-004
,,,-5.70000000e-009,-8.82812702e-004
,,,-5.67500000e-009,-9.00000203e-004
,,,-5.65000000e-009,-9.03906454e-004
,,,-5.62500000e-009,-9.00000203e-004
,,,-5.60000000e-009,-8.91406453e-004
,,,-5.57500000e-009,-8.80468952e-004
,,,-5.55000000e-009,-8.73437702e-004
,,,-5.52500000e-009,-8.71875201e-004
,,,-5.50000000e-009,-8.80468952e-004
,,,-5.47500000e-009,-9.00000203e-004
,,,-5.45000000e-009,-9.26562705e-004
,,,-5.42500000e-009,-9.61718958e-004
,,,-5.40000000e-009,-1.00078146e-003
,,,-5.37500000e-009,-1.03984396e-003
,,,-5.35000000e-009,-1.07343772e-003
,,,-5.32500000e-009,-1.09687522e-003
,,,-5.30000000e-009,-1.10625022e-003
,,,-5.27500000e-009,-1.10000022e-003
,,,-5.25000000e-009,-1.07187522e-003
,,,-5.22500000e-009,-1.02812521e-003
,,,-5.20000000e-009,-9.72656459e-004
,,,-5.17500000e-009,-9.10156454e-004
,,,-5.15000000e-009,-8.46875200e-004
,,,-5.12500000e-009,-7.87500195e-004
,,,-5.10000000e-009,-7.37500192e-004
,,,-5.07500000e-009,-7.00000189e-004
,,,-5.05000000e-009,-6.78125188e-004
,,,-5.02500000e-009,-6.71093937e-004
,,,-5.00000000e-009,-6.75781438e-004
,,,-4.97500000e-009,-6.86718938e-004
,,,-4.95000000e-009,-7.00000189e-004
,,,-4.92500000e-009,-7.09375190e-004
,,,-4.90000000e-009,-7.10156440e-004
,,,-4.87500000e-009,-7.00000189e-004
,,,-4.85000000e-009,-6.75781438e-004
,,,-4.82500000e-009,-6.38281435e-004
,,,-4.80000000e-009,-5.89062681e-004
,,,-4.77500000e-009,-5.31250177e-004
,,,-4.75000000e-009,-4.68750173e-004
,,,-4.72500000e-009,-4.07031419e-004
,,,-4.70000000e-009,-3.49218914e-004
,,,-4.67500000e-009,-3.00000161e-004
,,,-4.65000000e-009,-2.67968909e-004
,,,-4.62500000e-009,-2.48437657e-004
,,,-4.60000000e-009,-2.41406407e-004
,,,-4.57500000e-009,-2.43750157e-004
,,,-4.55000000e-009,-2.53125158e-004
,,,-4.52500000e-009,-2.67187659e-004
,,,-4.50000000e-009,-2.83593910e-004
,,,-4.47500000e-009,-3.00000161e-004
,,,-4.45000000e-009,-3.19531412e-004
,,,-4.42500000e-009,-3.38281414e-004
,,,-4.40000000e-009,-3.56250165e-004
,,,-4.37500000e-009,-3.75000166e-004
,,,-4.35000000e-009,-3.96875168e-004
,,,-4.32500000e-009,-4.24218920e-004
,,,-4.30000000e-009,-4.57812672e-004
,,,-4.27500000e-009,-5.00000175e-004
,,,-4.25000000e-009,-5.55468929e-004
,,,-4.22500000e-009,-6.17187683e-004
,,,-4.20000000e-009,-6.80468938e-004
,,,-4.17500000e-009,-7.41406442e-004
,,,-4.15000000e-009,-7.96875196e-004
,,,-4.12500000e-009,-8.43750199e-004
,,,-4.10000000e-009,-8.78125202e-004
,,,-4.07500000e-009,-9.00000203e-004
,,,-4.05000000e-009,-9.07031454e-004
,,,-4.02500000e-009,-9.04687704e-004
,,,-4.00000000e-009,-8.95312703e-004
,,,-3.97500000e-009,-8.83593952e-004
,,,-3.95000000e-009,-8.74218952e-004
,,,-3.92500000e-009,-8.71875201e-004
,,,-3.90000000e-009,-8.79687702e-004
,,,-3.87500000e-009,-9.00000203e-004
,,,-3.85000000e-009,-9.29687706e-004
,,,-3.82500000e-009,-9.68750208e-004
,,,-3.80000000e-009,-1.01093771e-003
,,,-3.77500000e-009,-1.05234396e-003
,,,-3.75000000e-009,-1.08671897e-003
,,,-3.72500000e-009,-1.10781272e-003
,,,-3.70000000e-009,-1.11250022e-003
,,,-3.67500000e-009,-1.10000022e-003
,,,-3.65000000e-009,-1.06640647e-003
,,,-3.62500000e-009,-1.02187521e-003
,,,-3.60000000e-009,-9.71875208e-004
,,,-3.57500000e-009,-9.24218955e-004
,,,-3.55000000e-009,-8.86718952e-004
,,,-3.52500000e-009,-8.67187701e-004
,,,-3.50000000e-009,-8.70312701e-004
,,,-3.47500000e-009,-9.00000203e-004
,,,-3.45000000e-009,-9.54687707e-004
,,,-3.42500000e-009,-1.03281271e-003
,,,-3.40000000e-009,-1.12656272e-003
,,,-3.37500000e-009,-1.22734398e-003
,,,-3.35000000e-009,-1.32500023e-003
,,,-3.32500000e-009,-1.40859399e-003
,,,-3.30000000e-009,-1.46875024e-003
,,,-3.27500000e-009,-1.50000025e-003
,,,-3.25000000e-009,-1.49218775e-003
,,,-3.22500000e-009,-1.45234399e-003
,,,-3.20000000e-009,-1.38437524e-003
,,,-3.17500000e-009,-1.29531273e-003
,,,-3.15000000e-009,-1.19375022e-003
,,,-3.12500000e-009,-1.08750022e-003
,,,-3.10000000e-009,-9.87500210e-004
,,,-3.07500000e-009,-9.00000203e-004
,,,-3.05000000e-009,-8.33593949e-004
,,,-3.02500000e-009,-7.90625196e-004
,,,-3.00000000e-009,-7.71093944e-004
,,,-2.97500000e-009,-7.72656444e-004
,,,-2.95000000e-009,-7.91406446e-004
,,,-2.92500000e-009,-8.21875198e-004
,,,-2.90000000e-009,-8.59375201e-004
,,,-2.87500000e-009,-9.00000203e-004
,,,-2.85000000e-009,-9.39062706e-004
,,,-2.82500000e-009,-9.74218959e-004
,,,-2.80000000e-009,-1.00390646e-003
,,,-2.77500000e-009,-1.02812521e-003
,,,-2.75000000e-009,-1.04765646e-003
,,,-2.72500000e-009,-1.06484397e-003
,,,-2.70000000e-009,-1.08125022e-003
,,,-2.67500000e-009,-1.10000022e-003
,,,-2.65000000e-009,-1.12109397e-003
,,,-2.62500000e-009,-1.14531272e-003
,,,-2.60000000e-009,-1.17187522e-003
,,,-2.57500000e-009,-1.20078147e-003
,,,-2.55000000e-009,-1.22890648e-003
,,,-2.52500000e-009,-1.25625023e-003
,,,-2.50000000e-009,-1.27968773e-003
,,,-2.47500000e-009,-1.30000023e-003
,,,-2.45000000e-009,-1.31250023e-003
,,,-2.42500000e-009,-1.31953148e-003
,,,-2.40000000e-009,-1.32265648e-003
,,,-2.37500000e-009,-1.32187523e-003
,,,-2.35000000e-009,-1.31796898e-003
,,,-2.32500000e-009,-1.31171898e-003
,,,-2.30000000e-009,-1.30546898e-003
,,,-2.27500000e-009,-1.30000023e-003
,,,-2.25000000e-009,-1.29531273e-003
,,,-2.22500000e-009,-1.29296898e-003
,,,-2.20000000e-009,-1.29140648e-003
,,,-2.17500000e-009,-1.29218773e-003
,,,-2.15000000e-009,-1.29296898e-003
,,,-2.12500000e-009,-1.29531273e-003
,,,-2.10000000e-009,-1.29765648e-003
,,,-2.07500000e-009,-1.30000023e-003
,,,-2.05000000e-009,-1.30000023e-003
,,,-2.02500000e-009,-1.30000023e-003
,,,-2.00000000e-009,-1.30078148e-003
,,,-1.97500000e-009,-1.30078148e-003
,,,-1.95000000e-009,-1.30000023e-003
,,,-1.92500000e-009,-1.30000023e-003
,,,-1.90000000e-009,-1.30000023e-003
,,,-1.87500000e-009,-1.30000023e-003
,,,-1.85000000e-009,-1.29843773e-003
,,,-1.82500000e-009,-1.29843773e-003
,,,-1.80000000e-009,-1.29921898e-003
,,,-1.77500000e-009,-1.30000023e-003
,,,-1.75000000e-009,-1.30000023e-003
,,,-1.72500000e-009,-1.30078148e-003
,,,-1.70000000e-009,-1.30078148e-003
,,,-1.67500000e-009,-1.30000023e-003
,,,-1.65000000e-009,-1.29921898e-003
,,,-1.62500000e-009,-1.29921898e-003
,,,-1.60000000e-009,-1.29921898e-003
,,,-1.57500000e-009,-1.29843773e-003
,,,-1.55000000e-009,-1.29843773e-003
,,,-1.52500000e-009,-1.29921898e-003
,,,-1.50000000e-009,-1.29921898e-003
,,,-1.47500000e-009,-1.30000023e-003
,,,-1.45000000e-009,-1.30390648e-003
,,,-1.42500000e-009,-1.30781273e-003
,,,-1.40000000e-009,-1.31171898e-003
,,,-1.37500000e-009,-1.31406273e-003
,,,-1.35000000e-009,-1.31484398e-003
,,,-1.32500000e-009,-1.31250023e-003
,,,-1.30000000e-009,-1.30703148e-003
,,,-1.27500000e-009,-1.30000023e-003
,,,-1.25000000e-009,-1.29687523e-003
,,,-1.22500000e-009,-1.29375023e-003
,,,-1.20000000e-009,-1.29140648e-003
,,,-1.17500000e-009,-1.28984398e-003
,,,-1.15000000e-009,-1.28906273e-003
,,,-1.12500000e-009,-1.28984398e-003
,,,-1.10000000e-009,-1.29296898e-003
,,,-1.07500000e-009,-1.30000023e-003
,,,-1.05000000e-009,-1.32421898e-003
,,,-1.02500000e-009,-1.35390649e-003
,,,-1.00000000e-009,-1.38593774e-003
,,,-9.75000000e-010,-1.41796899e-003
,,,-9.50000000e-010,-1.44687524e-003
,,,-9.25000000e-010,-1.47109399e-003
,,,-9.00000000e-010,-1.48828150e-003
,,,-8.75000000e-010,-1.50000025e-003
,,,-8.50000000e-010,-1.52812525e-003
,,,-8.25000000e-010,-1.55625025e-003
,,,-8.00000000e-010,-1.58203150e-003
,,,-7.75000000e-010,-1.60781275e-003
,,,-7.50000000e-010,-1.63125026e-003
,,,-7.25000000e-010,-1.65468776e-003
,,,-7.00000000e-010,-1.67656276e-003
,,,-6.75000000e-010,-1.70000026e-003
,,,-6.50000000e-010,-1.75390651e-003
,,,-6.25000000e-010,-1.81328152e-003
,,,-6.00000000e-010,-1.87578152e-003
,,,-5.75000000e-010,-1.93593778e-003
,,,-5.50000000e-010,-1.99140653e-003
,,,-5.25000000e-010,-2.03750028e-003
,,,-5.00000000e-010,-2.07343779e-003
,,,-4.75000000e-010,-2.10000029e-003
,,,-4.50000000e-010,-2.15000029e-003
,,,-4.25000000e-010,-2.20312530e-003
,,,-4.00000000e-010,-2.26015655e-003
,,,-3.75000000e-010,-2.32421905e-003
,,,-3.50000000e-010,-2.39687531e-003
,,,-3.25000000e-010,-2.48125032e-003
,,,-3.00000000e-010,-2.58125032e-003
,,,-2.75000000e-010,-2.70000033e-003
,,,-2.50000000e-010,-2.86406284e-003
,,,-2.25000000e-010,-3.05390661e-003
,,,-2.00000000e-010,-3.26562537e-003
,,,-1.75000000e-010,-3.49609414e-003
,,,-1.50000000e-010,-3.73984415e-003
,,,-1.25000000e-010,-3.99140667e-003
,,,-1.00000000e-010,-4.24531294e-003
,,,-7.50000000e-011,-4.50000046e-003
,,,-5.00000000e-011,-4.75390673e-003
,,,-2.50000000e-011,-5.00703174e-003
,,,0.00000000e+000,-5.25859426e-003
,,,2.50000000e-011,-5.50859428e-003
,,,5.00000000e-011,-5.75703180e-003
,,,7.50000000e-011,-6.00468806e-003
,,,1.00000000e-010,-6.25234433e-003
,,,1.25000000e-010,-6.50000060e-003
,,,1.50000000e-010,-6.72578187e-003
,,,1.75000000e-010,-6.95390688e-003
,,,2.00000000e-010,-7.18359440e-003
,,,2.25000000e-010,-7.41484441e-003
,,,2.50000000e-010,-7.64453193e-003
,,,2.75000000e-010,-7.87109445e-003
,,,3.00000000e-010,-8.09062571e-003
,,,3.25000000e-010,-8.30000073e-003
,,,3.50000000e-010,-8.45390699e-003
,,,3.75000000e-010,-8.59765700e-003
,,,4.00000000e-010,-8.73281326e-003
,,,4.25000000e-010,-8.86015702e-003
,,,4.50000000e-010,-8.98125078e-003
,,,4.75000000e-010,-9.09531328e-003
,,,5.00000000e-010,-9.20156329e-003
,,,5.25000000e-010,-9.30000080e-003
,,,5.50000000e-010,-9.32968830e-003
,,,5.75000000e-010,-9.35156330e-003
,,,6.00000000e-010,-9.36484455e-003
,,,6.25000000e-010,-9.37187580e-003
,,,6.50000000e-010,-9.37109455e-003
,,,6.75000000e-010,-9.36015705e-003
,,,7.00000000e-010,-9.33750080e-003
,,,7.25000000e-010,-9.30000080e-003
,,,7.50000000e-010,-9.18593829e-003
,,,7.75000000e-010,-9.05781328e-003
,,,8.00000000e-010,-8.91718827e-003
,,,8.25000000e-010,-8.76718826e-003
,,,8.50000000e-010,-8.60937575e-003
,,,8.75000000e-010,-8.44531324e-003
,,,9.00000000e-010,-8.27500073e-003
,,,9.25000000e-010,-8.10000071e-003
,,,9.50000000e-010,-7.87968820e-003
,,,9.75000000e-010,-7.66015693e-003
,,,1.00000000e-009,-7.44453192e-003
,,,1.02500000e-009,-7.23593815e-003
,,,1.05000000e-009,-7.03671939e-003
,,,1.07500000e-009,-6.84765687e-003
,,,1.10000000e-009,-6.66875061e-003
,,,1.12500000e-009,-6.50000060e-003
,,,1.15000000e-009,-6.31796934e-003
,,,1.17500000e-009,-6.14062557e-003
,,,1.20000000e-009,-5.96718806e-003
,,,1.22500000e-009,-5.79531305e-003
,,,1.25000000e-009,-5.62421929e-003
,,,1.27500000e-009,-5.45234428e-003
,,,1.30000000e-009,-5.27812551e-003
,,,1.32500000e-009,-5.10000050e-003
,,,1.35000000e-009,-4.91406299e-003
,,,1.37500000e-009,-4.72031297e-003
,,,1.40000000e-009,-4.51875046e-003
,,,1.42500000e-009,-4.31171919e-003
,,,1.45000000e-009,-4.10234418e-003
,,,1.47500000e-009,-3.89453167e-003
,,,1.50000000e-009,-3.69296915e-003
,,,1.52500000e-009,-3.50000039e-003
,,,1.55000000e-009,-3.33515663e-003
,,,1.57500000e-009,-3.17968786e-003
,,,1.60000000e-009,-3.03359410e-003
,,,1.62500000e-009,-2.89843784e-003
,,,1.65000000e-009,-2.77656284e-003
,,,1.67500000e-009,-2.66875033e-003
,,,1.70000000e-009,-2.57656282e-003
,,,1.72500000e-009,-2.50000032e-003
,,,1.75000000e-009,-2.46093781e-003
,,,1.77500000e-009,-2.42890656e-003
,,,1.80000000e-009,-2.40000031e-003
,,,1.82500000e-009,-2.37500031e-003
,,,1.85000000e-009,-2.35156281e-003
,,,1.87500000e-009,-2.33203155e-003
,,,1.90000000e-009,-2.31484405e-003
,,,1.92500000e-009,-2.30000030e-003
,,,1.95000000e-009,-2.30234405e-003
,,,1.97500000e-009,-2.29765655e-003
,,,2.00000000e-009,-2.28359405e-003
,,,2.02500000e-009,-2.26015655e-003
,,,2.05000000e-009,-2.22812530e-003
,,,2.07500000e-009,-2.18906279e-003
,,,2.10000000e-009,-2.14531279e-003
,,,2.12500000e-009,-2.10000029e-003
,,,2.15000000e-009,-2.06640654e-003
,,,2.17500000e-009,-2.03046903e-003
,,,2.20000000e-009,-1.99296903e-003
,,,2.22500000e-009,-1.95859403e-003
,,,2.25000000e-009,-1.92890653e-003
,,,2.27500000e-009,-1.90781277e-003
,,,2.30000000e-009,-1.89765652e-003
,,,2.32500000e-009,-1.90000027e-003
,,,2.35000000e-009,-1.92031278e-003
,,,2.37500000e-009,-1.94687528e-003
,,,2.40000000e-009,-1.97734403e-003
,,,2.42500000e-009,-2.00859403e-003
,,,2.45000000e-009,-2.03906278e-003
,,,2.47500000e-009,-2.06562529e-003
,,,2.50000000e-009,-2.08671904e-003
,,,2.52500000e-009,-2.10000029e-003
,,,2.55000000e-009,-2.10078154e-003
,,,2.57500000e-009,-2.08671904e-003
,,,2.60000000e-009,-2.05625029e-003
,,,2.62500000e-009,-2.01015653e-003
,,,2.65000000e-009,-1.95000028e-003
,,,2.67500000e-009,-1.87578152e-003
,,,2.70000000e-009,-1.79140652e-003
,,,2.72500000e-009,-1.70000026e-003
,,,2.75000000e-009,-1.60390650e-003
,,,2.77500000e-009,-1.50703150e-003
,,,2.80000000e-009,-1.41328149e-003
,,,2.82500000e-009,-1.32734398e-003
,,,2.85000000e-009,-1.25000023e-003
,,,2.87500000e-009,-1.18593772e-003
,,,2.90000000e-009,-1.13515647e-003
,,,2.92500000e-009,-1.10000022e-003
,,,2.95000000e-009,-1.08203147e-003
,,,2.97500000e-009,-1.07500022e-003
,,,3.00000000e-009,-1.07656272e-003
,,,3.02500000e-009,-1.08359397e-003
,,,3.05000000e-009,-1.09218772e-003
,,,3.07500000e-009,-1.09921897e-003
,,,3.10000000e-009,-1.10234397e-003
,,,3.12500000e-009,-1.10000022e-003
,,,3.15000000e-009,-1.09140647e-003
,,,3.17500000e-009,-1.07500022e-003
,,,3.20000000e-009,-1.05078146e-003
,,,3.22500000e-009,-1.02031271e-003
,,,3.25000000e-009,-9.87500210e-004
,,,3.27500000e-009,-9.54687707e-004
,,,3.30000000e-009,-9.24218955e-004
,,,3.32500000e-009,-9.00000203e-004
,,,3.35000000e-009,-8.82031452e-004
,,,3.37500000e-009,-8.69531451e-004
,,,3.40000000e-009,-8.64062701e-004
,,,3.42500000e-009,-8.64062701e-004
,,,3.45000000e-009,-8.68750201e-004
,,,3.47500000e-009,-8.77343952e-004
,,,3.50000000e-009,-8.88281453e-004
,,,3.52500000e-009,-9.00000203e-004
,,,3.55000000e-009,-9.10156454e-004
,,,3.57500000e-009,-9.17187705e-004
,,,3.60000000e-009,-9.20312705e-004
,,,3.62500000e-009,-9.18750205e-004
,,,3.65000000e-009,-9.15625205e-004
,,,3.67500000e-009,-9.10156454e-004
,,,3.70000000e-009,-9.04687704e-004
,,,3.72500000e-009,-9.00000203e-004
,,,3.75000000e-009,-8.94531453e-004
,,,3.77500000e-009,-8.90625203e-004
,,,3.80000000e-009,-8.88281453e-004
,,,3.82500000e-009,-8.87500203e-004
,,,3.85000000e-009,-8.88281453e-004
,,,3.87500000e-009,-8.91406453e-004
,,,3.90000000e-009,-8.95312703e-004
,,,3.92500000e-009,-9.00000203e-004
,,,3.95000000e-009,-8.96875203e-004
,,,3.97500000e-009,-8.90625203e-004
,,,4.00000000e-009,-8.78125202e-004
,,,4.02500000e-009,-8.59375201e-004
,,,4.05000000e-009,-8.32031449e-004
,,,4.07500000e-009,-7.96875196e-004
,,,4.10000000e-009,-7.53125193e-004
,,,4.12500000e-009,-7.00000189e-004
,,,4.15000000e-009,-6.34375185e-004
,,,4.17500000e-009,-5.60937679e-004
,,,4.20000000e-009,-4.82031424e-004
,,,4.22500000e-009,-4.00781418e-004
,,,4.25000000e-009,-3.18750162e-004
,,,4.27500000e-009,-2.39843907e-004
,,,4.30000000e-009,-1.65625151e-004
,,,4.32500000e-009,-1.00000147e-004
,,,4.35000000e-009,-4.53126429e-005
,,,4.37500000e-009,-7.81389754e-007
,,,4.40000000e-009,3.43748627e-005
,,,4.42500000e-009,6.09373646e-005
,,,4.45000000e-009,7.96873659e-005
,,,4.47500000e-009,9.14061168e-005
,,,4.50000000e-009,9.76561172e-005
,,,4.52500000e-009,9.99998674e-005
,,,4.55000000e-009,9.68748672e-005
,,,4.57500000e-009,9.29686169e-005
,,,4.60000000e-009,9.06248667e-005
,,,4.62500000e-009,8.90623666e-005
,,,4.65000000e-009,8.90623666e-005
,,,4.67500000e-009,9.14061168e-005
,,,4.70000000e-009,9.45311170e-005
,,,4.72500000e-009,9.99998674e-005
,,,4.75000000e-009,1.03906118e-004
,,,4.77500000e-009,1.11718618e-004
,,,4.80000000e-009,1.25781119e-004
,,,4.82500000e-009,1.46093621e-004
,,,4.85000000e-009,1.74218623e-004
,,,4.87500000e-009,2.10156125e-004
,,,4.90000000e-009,2.52343628e-004
,,,4.92500000e-009,2.99999882e-004
,,,4.95000000e-009,3.46093635e-004
,,,4.97500000e-009,3.92187388e-004
,,,5.00000000e-009,4.35937391e-004
,,,5.02500000e-009,4.73437394e-004
,,,5.05000000e-009,5.01562396e-004
,,,5.07500000e-009,5.17187397e-004
,,,5.10000000e-009,5.17187397e-004
,,,5.12500000e-009,4.99999896e-004
,,,5.15000000e-009,4.64062393e-004
,,,5.17500000e-009,4.15624890e-004
,,,5.20000000e-009,3.59374886e-004
,,,5.22500000e-009,2.99218631e-004
,,,5.25000000e-009,2.39843627e-004
,,,5.27500000e-009,1.84374873e-004
,,,5.30000000e-009,1.37499870e-004
,,,5.32500000e-009,9.99998674e-005
,,,5.35000000e-009,7.65623657e-005
,,,5.37500000e-009,6.56248649e-005
,,,5.40000000e-009,6.56248649e-005
,,,5.42500000e-009,7.26561154e-005
,,,5.45000000e-009,8.28123662e-005
,,,5.47500000e-009,9.37498669e-005
,,,5.50000000e-009,9.99998674e-005
,,,5.52500000e-009,9.99998674e-005
,,,5.55000000e-009,9.45311170e-005
,,,5.57500000e-009,8.04686160e-005
,,,5.60000000e-009,5.78123644e-005
,,,5.62500000e-009,2.89061123e-005
,,,5.65000000e-009,-4.68764003e-006
,,,5.67500000e-009,-3.90626425e-005
,,,5.70000000e-009,-7.18751448e-005
,,,5.72500000e-009,-1.00000147e-004
,,,5.75000000e-009,-1.14062648e-004
,,,5.77500000e-009,-1.17187648e-004
,,,5.80000000e-009,-1.08593897e-004
,,,5.82500000e-009,-8.75001459e-005
,,,5.85000000e-009,-5.46876436e-005
