RawData/SinglePhotoelectron/L6_2pt2C_5mV/wave022_Ch3.csv

"Record Length",1000,"Points",-7.72500000e-009,2.82031130e-004
"Sample Interval",2.50000000e-011,s,-7.70000000e-009,2.45312378e-004
"Trigger Point",309,"Samples",-7.67500000e-009,1.93749874e-004
"Trigger Time",2.80787879e-012,s,-7.65000000e-009,1.32031120e-004
"",,,-7.62500000e-009,6.56248649e-005
"Horizontal Offset",-7.72500000e-009,s,-7.60000000e-009,1.56236041e-006
,,,-7.57500000e-009,-5.46876436e-005
,,,-7.55000000e-009,-1.00000147e-004
,,,-7.52500000e-009,-1.28906399e-004
,,,-7.50000000e-009,-1.43750150e-004
,,,-7.47500000e-009,-1.46093900e-004
,,,-7.45000000e-009,-1.39062650e-004
,,,-7.42500000e-009,-1.26562649e-004
,,,-7.40000000e-009,-1.13281398e-004
,,,-7.37500000e-009,-1.03125147e-004
,,,-7.35000000e-009,-1.00000147e-004
,,,-7.32500000e-009,-1.06250147e-004
,,,-7.30000000e-009,-1.23437648e-004
,,,-7.27500000e-009,-1.48437650e-004
,,,-7.25000000e-009,-1.79687652e-004
,,,-7.22500000e-009,-2.14062655e-004
,,,-7.20000000e-009,-2.47656407e-004
,,,-7.17500000e-009,-2.77343909e-004
,,,-7.15000000e-009,-3.00000161e-004
,,,-7.12500000e-009,-3.12500162e-004
,,,-7.10000000e-009,-3.17968912e-004
,,,-7.07500000e-009,-3.17187662e-004
,,,-7.05000000e-009,-3.11718912e-004
,,,-7.02500000e-009,-3.04687661e-004
,,,-7.00000000e-009,-2.98437661e-004
,,,-6.97500000e-009,-2.96093911e-004
,,,-6.95000000e-009,-3.00000161e-004
,,,-6.92500000e-009,-3.08593912e-004
,,,-6.90000000e-009,-3.25000163e-004
,,,-6.87500000e-009,-3.48437664e-004
,,,-6.85000000e-009,-3.77343916e-004
,,,-6.82500000e-009,-4.09375169e-004
,,,-6.80000000e-009,-4.42187671e-004
,,,-6.77500000e-009,-4.72656423e-004
,,,-6.75000000e-009,-5.00000175e-004
,,,-6.72500000e-009,-5.15625176e-004
,,,-6.70000000e-009,-5.25781427e-004
,,,-6.67500000e-009,-5.29687677e-004
,,,-6.65000000e-009,-5.28906427e-004
,,,-6.62500000e-009,-5.23437677e-004
,,,-6.60000000e-009,-5.16406426e-004
,,,-6.57500000e-009,-5.07812676e-004
,,,-6.55000000e-009,-5.00000175e-004
,,,-6.52500000e-009,-4.89062674e-004
,,,-6.50000000e-009,-4.82031424e-004
,,,-6.47500000e-009,-4.77343923e-004
,,,-6.45000000e-009,-4.76562673e-004
,,,-6.42500000e-009,-4.78906424e-004
,,,-6.40000000e-009,-4.83593924e-004
,,,-6.37500000e-009,-4.91406424e-004
,,,-6.35000000e-009,-5.00000175e-004
,,,-6.32500000e-009,-5.04687675e-004
,,,-6.30000000e-009,-5.09375176e-004
,,,-6.27500000e-009,-5.13281426e-004
,,,-6.25000000e-009,-5.15625176e-004
,,,-6.22500000e-009,-5.15625176e-004
,,,-6.20000000e-009,-5.13281426e-004
,,,-6.17500000e-009,-5.08593926e-004
,,,-6.15000000e-009,-5.00000175e-004
,,,-6.12500000e-009,-4.85937674e-004
,,,-6.10000000e-009,-4.68750173e-004
,,,-6.07500000e-009,-4.47656421e-004
,,,-6.05000000e-009,-4.23437670e-004
,,,-6.02500000e-009,-3.96093918e-004
,,,-6.00000000e-009,-3.66406416e-004
,,,-5.97500000e-009,-3.33593913e-004
,,,-5.95000000e-009,-3.00000161e-004
,,,-5.92500000e-009,-2.64843908e-004
,,,-5.90000000e-009,-2.32031406e-004
,,,-5.87500000e-009,-2.00000154e-004
,,,-5.85000000e-009,-1.71875152e-004
,,,-5.82500000e-009,-1.46875150e-004
,,,-5.80000000e-009,-1.26562649e-004
,,,-5.77500000e-009,-1.10156397e-004
,,,-5.75000000e-009,-1.00000147e-004
,,,-5.72500000e-009,-9.45313964e-005
,,,-5.70000000e-009,-9.37501463e-005
,,,-5.67500000e-009,-9.45313964e-005
,,,-5.65000000e-009,-9.60938965e-005
,,,-5.62500000e-009,-9.84376467e-005
,,,-5.60000000e-009,-1.00781397e-004
,,,-5.57500000e-009,-1.00781397e-004
,,,-5.55000000e-009,-1.00000147e-004
,,,-5.52500000e-009,-9.76563966e-005
,,,-5.50000000e-009,-9.37501463e-005
,,,-5.47500000e-009,-8.82813959e-005
,,,-5.45000000e-009,-8.43751457e-005
,,,-5.42500000e-009,-8.20313955e-005
,,,-5.40000000e-009,-8.28126456e-005
,,,-5.37500000e-009,-8.82813959e-005
,,,-5.35000000e-009,-1.00000147e-004
,,,-5.32500000e-009,-1.16406398e-004
,,,-5.30000000e-009,-1.38281399e-004
,,,-5.27500000e-009,-1.63281401e-004
,,,-5.25000000e-009,-1.90625153e-004
,,,-5.22500000e-009,-2.19531405e-004
,,,-5.20000000e-009,-2.48437657e-004
,,,-5.17500000e-009,-2.75781409e-004
,,,-5.15000000e-009,-3.00000161e-004
,,,-5.12500000e-009,-3.17968912e-004
,,,-5.10000000e-009,-3.30468913e-004
,,,-5.07500000e-009,-3.37500164e-004
,,,-5.05000000e-009,-3.39062664e-004
,,,-5.02500000e-009,-3.34375163e-004
,,,-5.00000000e-009,-3.26562663e-004
,,,-4.97500000e-009,-3.14843912e-004
,,,-4.95000000e-009,-3.00000161e-004
,,,-4.92500000e-009,-2.82031410e-004
,,,-4.90000000e-009,-2.63281408e-004
,,,-4.87500000e-009,-2.41406407e-004
,,,-4.85000000e-009,-2.17968905e-004
,,,-4.82500000e-009,-1.92187653e-004
,,,-4.80000000e-009,-1.64062651e-004
,,,-4.77500000e-009,-1.32812649e-004
,,,-4.75000000e-009,-1.00000147e-004
,,,-4.72500000e-009,-6.48438943e-005
,,,-4.70000000e-009,-3.04688919e-005
,,,-4.67500000e-009,2.34361047e-006
,,,-4.65000000e-009,3.20311126e-005
,,,-4.62500000e-009,5.78123644e-005
,,,-4.60000000e-009,7.81248658e-005
,,,-4.57500000e-009,9.21873668e-005
,,,-4.55000000e-009,9.99998674e-005
,,,-4.52500000e-009,1.02343618e-004
,,,-4.50000000e-009,9.99998674e-005
,,,-4.47500000e-009,9.53123670e-005
,,,-4.45000000e-009,9.06248667e-005
,,,-4.42500000e-009,8.74998665e-005
,,,-4.40000000e-009,8.74998665e-005
,,,-4.37500000e-009,9.14061168e-005
,,,-4.35000000e-009,9.99998674e-005
,,,-4.32500000e-009,1.11718618e-004
,,,-4.30000000e-009,1.24999869e-004
,,,-4.27500000e-009,1.38281120e-004
,,,-4.25000000e-009,1.48437371e-004
,,,-4.22500000e-009,1.51562371e-004
,,,-4.20000000e-009,1.46093621e-004
,,,-4.17500000e-009,1.29687369e-004
,,,-4.15000000e-009,9.99998674e-005
,,,-4.12500000e-009,5.85936144e-005
,,,-4.10000000e-009,7.03111080e-006
,,,-4.07500000e-009,-5.07813933e-005
,,,-4.05000000e-009,-1.10937648e-004
,,,-4.02500000e-009,-1.69531402e-004
,,,-4.00000000e-009,-2.22656405e-004
,,,-3.97500000e-009,-2.67187659e-004
,,,-3.95000000e-009,-3.00000161e-004
,,,-3.92500000e-009,-3.15625162e-004
,,,-3.90000000e-009,-3.15625162e-004
,,,-3.87500000e-009,-3.01562661e-004
,,,-3.85000000e-009,-2.74218909e-004
,,,-3.82500000e-009,-2.37500157e-004
,,,-3.80000000e-009,-1.93750153e-004
,,,-3.77500000e-009,-1.46875150e-004
,,,-3.75000000e-009,-1.00000147e-004
,,,-3.72500000e-009,-5.39063935e-005
,,,-3.70000000e-009,-1.32813906e-005
,,,-3.67500000e-009,2.10936118e-005
,,,-3.65000000e-009,4.84373637e-005
,,,-3.62500000e-009,6.95311152e-005
,,,-3.60000000e-009,8.43748663e-005
,,,-3.57500000e-009,9.45311170e-005
,,,-3.55000000e-009,9.99998674e-005
,,,-3.52500000e-009,1.03124868e-004
,,,-3.50000000e-009,1.04687368e-004
,,,-3.47500000e-009,1.04687368e-004
,,,-3.45000000e-009,1.03906118e-004
,,,-3.42500000e-009,1.03124868e-004
,,,-3.40000000e-009,1.01562367e-004
,,,-3.37500000e-009,1.00781117e-004
,,,-3.35000000e-009,9.99998674e-005
,,,-3.32500000e-009,9.99998674e-005
,,,-3.30000000e-009,9.92186173e-005
,,,-3.27500000e-009,9.92186173e-005
,,,-3.25000000e-009,9.92186173e-005
,,,-3.22500000e-009,9.92186173e-005
,,,-3.20000000e-009,9.99998674e-005
,,,-3.17500000e-009,9.99998674e-005
,,,-3.15000000e-009,9.99998674e-005
,,,-3.12500000e-009,1.01562367e-004
,,,-3.10000000e-009,1.03124868e-004
,,,-3.07500000e-009,1.03906118e-004
,,,-3.05000000e-009,1.04687368e-004
,,,-3.02500000e-009,1.04687368e-004
,,,-3.00000000e-009,1.03906118e-004
,,,-2.97500000e-009,1.02343618e-004
,,,-2.95000000e-009,9.99998674e-005
,,,-2.92500000e-009,9.76561172e-005
,,,-2.90000000e-009,9.45311170e-005
,,,-2.87500000e-009,9.29686169e-005
,,,-2.85000000e-009,9.29686169e-005
,,,-2.82500000e-009,9.29686169e-005
,,,-2.80000000e-009,9.45311170e-005
,,,-2.77500000e-009,9.76561172e-005
,,,-2.75000000e-009,9.99998674e-005
,,,-2.72500000e-009,1.03124868e-004
,,,-2.70000000e-009,1.05468618e-004
,,,-2.67500000e-009,1.07812368e-004
,,,-2.65000000e-009,1.09374868e-004
,,,-2.62500000e-009,1.09374868e-004
,,,-2.60000000e-009,1.07812368e-004
,,,-2.57500000e-009,1.04687368e-004
,,,-2.55000000e-009,9.99998674e-005
,,,-2.52500000e-009,9.53123670e-005
,,,-2.50000000e-009,8.90623666e-005
,,,-2.47500000e-009,8.43748663e-005
,,,-2.45000000e-009,8.04686160e-005
,,,-2.42500000e-009,7.96873659e-005
,,,-2.40000000e-009,8.20311161e-005
,,,-2.37500000e-009,8.90623666e-005
,,,-2.35000000e-009,9.99998674e-005
,,,-2.32500000e-009,1.15624868e-004
,,,-2.30000000e-009,1.35156120e-004
,,,-2.27500000e-009,1.58593622e-004
,,,-2.25000000e-009,1.85156123e-004
,,,-2.22500000e-009,2.13281125e-004
,,,-2.20000000e-009,2.42968627e-004
,,,-2.17500000e-009,2.72656130e-004
,,,-2.15000000e-009,2.99999882e-004
,,,-2.12500000e-009,3.22656133e-004
,,,-2.10000000e-009,3.39843634e-004
,,,-2.07500000e-009,3.51562385e-004
,,,-2.05000000e-009,3.55468635e-004
,,,-2.02500000e-009,3.53124885e-004
,,,-2.00000000e-009,3.42187385e-004
,,,-1.97500000e-009,3.24218633e-004
,,,-1.95000000e-009,2.99999882e-004
,,,-1.92500000e-009,2.69531129e-004
,,,-1.90000000e-009,2.36718627e-004
,,,-1.87500000e-009,2.03124875e-004
,,,-1.85000000e-009,1.71874872e-004
,,,-1.82500000e-009,1.44531121e-004
,,,-1.80000000e-009,1.23437369e-004
,,,-1.77500000e-009,1.08593618e-004
,,,-1.75000000e-009,9.99998674e-005
,,,-1.72500000e-009,9.53123670e-005
,,,-1.70000000e-009,9.53123670e-005
,,,-1.67500000e-009,9.84373673e-005
,,,-1.65000000e-009,1.03124868e-004
,,,-1.62500000e-009,1.07812368e-004
,,,-1.60000000e-009,1.09374868e-004
,,,-1.57500000e-009,1.07812368e-004
,,,-1.55000000e-009,9.99998674e-005
,,,-1.52500000e-009,7.96873659e-005
,,,-1.50000000e-009,5.31248641e-005
,,,-1.47500000e-009,2.18748618e-005
,,,-1.45000000e-009,-1.17188905e-005
,,,-1.42500000e-009,-4.29688927e-005
,,,-1.40000000e-009,-7.03126447e-005
,,,-1.37500000e-009,-8.98438961e-005
,,,-1.35000000e-009,-1.00000147e-004
,,,-1.32500000e-009,-1.10937648e-004
,,,-1.30000000e-009,-1.13281398e-004
,,,-1.27500000e-009,-1.03906397e-004
,,,-1.25000000e-009,-8.28126456e-005
,,,-1.22500000e-009,-5.00001432e-005
,,,-1.20000000e-009,-7.03139020e-006
,,,-1.17500000e-009,4.37498634e-005
,,,-1.15000000e-009,9.99998674e-005
,,,-1.12500000e-009,1.37499870e-004
,,,-1.10000000e-009,1.67187372e-004
,,,-1.07500000e-009,1.87499874e-004
,,,-1.05000000e-009,1.96093624e-004
,,,-1.02500000e-009,1.92968624e-004
,,,-1.00000000e-009,1.75781123e-004
,,,-9.75000000e-010,1.45312371e-004
,,,-9.50000000e-010,9.99998674e-005
,,,-9.25000000e-010,1.71873615e-005
,,,-9.00000000e-010,-8.04688954e-005
,,,-8.75000000e-010,-1.87500153e-004
,,,-8.50000000e-010,-2.99218911e-004
,,,-8.25000000e-010,-4.10937669e-004
,,,-8.00000000e-010,-5.16406426e-004
,,,-7.75000000e-010,-6.12500183e-004
,,,-7.50000000e-010,-7.00000189e-004
,,,-7.25000000e-010,-7.97656446e-004
,,,-7.00000000e-010,-8.91406453e-004
,,,-6.75000000e-010,-9.82812709e-004
,,,-6.50000000e-010,-1.07421897e-003
,,,-6.25000000e-010,-1.16875022e-003
,,,-6.00000000e-010,-1.26875023e-003
,,,-5.75000000e-010,-1.37812524e-003
,,,-5.50000000e-010,-1.50000025e-003
,,,-5.25000000e-010,-1.64609401e-003
,,,-5.00000000e-010,-1.80859402e-003
,,,-4.75000000e-010,-1.98359403e-003
,,,-4.50000000e-010,-2.16718779e-003
,,,-4.25000000e-010,-2.35546906e-003
,,,-4.00000000e-010,-2.54296907e-003
,,,-3.75000000e-010,-2.72578158e-003
,,,-3.50000000e-010,-2.90000034e-003
,,,-3.25000000e-010,-3.06093786e-003
,,,-3.00000000e-010,-3.21484412e-003
,,,-2.75000000e-010,-3.36250038e-003
,,,-2.50000000e-010,-3.50703164e-003
,,,-2.25000000e-010,-3.65078165e-003
,,,-2.00000000e-010,-3.79609416e-003
,,,-1.75000000e-010,-3.94531292e-003
,,,-1.50000000e-010,-4.10000043e-003
,,,-1.25000000e-010,-4.24218794e-003
,,,-1.00000000e-010,-4.39218795e-003
,,,-7.50000000e-011,-4.54921921e-003
,,,-5.00000000e-011,-4.70937547e-003
,,,-2.50000000e-011,-4.86875048e-003
,,,0.00000000e+000,-5.02343800e-003
,,,2.50000000e-011,-5.16796926e-003
,,,5.00000000e-011,-5.30000051e-003
,,,7.50000000e-011,-5.38125052e-003
,,,1.00000000e-010,-5.45000053e-003
,,,1.25000000e-010,-5.50703178e-003
,,,1.50000000e-010,-5.55468803e-003
,,,1.75000000e-010,-5.59687554e-003
,,,2.00000000e-010,-5.63437554e-003
,,,2.25000000e-010,-5.66875054e-003
,,,2.50000000e-010,-5.70000054e-003
,,,2.75000000e-010,-5.69218804e-003
,,,3.00000000e-010,-5.68203179e-003
,,,3.25000000e-010,-5.67031304e-003
,,,3.50000000e-010,-5.65468804e-003
,,,3.75000000e-010,-5.63281304e-003
,,,4.00000000e-010,-5.60078179e-003
,,,4.25000000e-010,-5.55703178e-003
,,,4.50000000e-010,-5.50000053e-003
,,,4.75000000e-010,-5.39296927e-003
,,,5.00000000e-010,-5.27812551e-003
,,,5.25000000e-010,-5.15937550e-003
,,,5.50000000e-010,-5.04453175e-003
,,,5.75000000e-010,-4.93750049e-003
,,,6.00000000e-010,-4.84296923e-003
,,,6.25000000e-010,-4.76328173e-003
,,,6.50000000e-010,-4.70000047e-003
,,,6.75000000e-010,-4.62421922e-003
,,,7.00000000e-010,-4.55937546e-003
,,,7.25000000e-010,-4.50078171e-003
,,,7.50000000e-010,-4.44218795e-003
,,,7.75000000e-010,-4.37812545e-003
,,,8.00000000e-010,-4.30234419e-003
,,,8.25000000e-010,-4.21015669e-003
,,,8.50000000e-010,-4.10000043e-003
,,,8.75000000e-010,-3.95312542e-003
,,,9.00000000e-010,-3.78984416e-003
,,,9.25000000e-010,-3.61640665e-003
,,,9.50000000e-010,-3.44218788e-003
,,,9.75000000e-010,-3.27578162e-003
,,,1.00000000e-009,-3.12578161e-003
,,,1.02500000e-009,-2.99921910e-003
,,,1.05000000e-009,-2.90000034e-003
,,,1.07500000e-009,-2.82578159e-003
,,,1.10000000e-009,-2.77343784e-003
,,,1.12500000e-009,-2.73671908e-003
,,,1.15000000e-009,-2.70625033e-003
,,,1.17500000e-009,-2.67578158e-003
,,,1.20000000e-009,-2.63593783e-003
,,,1.22500000e-009,-2.57890657e-003
,,,1.25000000e-009,-2.50000032e-003
,,,1.27500000e-009,-2.39765656e-003
,,,1.30000000e-009,-2.26796905e-003
,,,1.32500000e-009,-2.11484404e-003
,,,1.35000000e-009,-1.94531278e-003
,,,1.37500000e-009,-1.76953151e-003
,,,1.40000000e-009,-1.59687525e-003
,,,1.42500000e-009,-1.43828149e-003
,,,1.45000000e-009,-1.30000023e-003
,,,1.47500000e-009,-1.19843772e-003
,,,1.50000000e-009,-1.11953147e-003
,,,1.52500000e-009,-1.06015646e-003
,,,1.55000000e-009,-1.01718771e-003
,,,1.57500000e-009,-9.84375209e-004
,,,1.60000000e-009,-9.57812707e-004
,,,1.62500000e-009,-9.30468956e-004
,,,1.65000000e-009,-9.00000203e-004
,,,1.67500000e-009,-8.72656451e-004
,,,1.70000000e-009,-8.32031449e-004
,,,1.72500000e-009,-7.80468945e-004
,,,1.75000000e-009,-7.20312691e-004
,,,1.77500000e-009,-6.57031436e-004
,,,1.80000000e-009,-5.95312682e-004
,,,1.82500000e-009,-5.41406428e-004
,,,1.85000000e-009,-5.00000175e-004
,,,1.87500000e-009,-4.84375174e-004
,,,1.90000000e-009,-4.78906424e-004
,,,1.92500000e-009,-4.82031424e-004
,,,1.95000000e-009,-4.89062674e-004
,,,1.97500000e-009,-4.96875175e-004
,,,2.00000000e-009,-5.03906425e-004
,,,2.02500000e-009,-5.05468925e-004
,,,2.05000000e-009,-5.00000175e-004
,,,2.07500000e-009,-4.93750175e-004
,,,2.10000000e-009,-4.77343923e-004
,,,2.12500000e-009,-4.51562672e-004
,,,2.15000000e-009,-4.19531419e-004
,,,2.17500000e-009,-3.84375167e-004
,,,2.20000000e-009,-3.50000164e-004
,,,2.22500000e-009,-3.21093912e-004
,,,2.25000000e-009,-3.00000161e-004
,,,2.27500000e-009,-2.94531411e-004
,,,2.30000000e-009,-2.95312661e-004
,,,2.32500000e-009,-3.00000161e-004
,,,2.35000000e-009,-3.06250161e-004
,,,2.37500000e-009,-3.11718912e-004
,,,2.40000000e-009,-3.14062662e-004
,,,2.42500000e-009,-3.10156412e-004
,,,2.45000000e-009,-3.00000161e-004
,,,2.47500000e-009,-2.85156410e-004
,,,2.50000000e-009,-2.63281408e-004
,,,2.52500000e-009,-2.34375156e-004
,,,2.55000000e-009,-2.02343904e-004
,,,2.57500000e-009,-1.69531402e-004
,,,2.60000000e-009,-1.39062650e-004
,,,2.62500000e-009,-1.14843898e-004
,,,2.65000000e-009,-1.00000147e-004
,,,2.67500000e-009,-9.76563966e-005
,,,2.70000000e-009,-1.06250147e-004
,,,2.72500000e-009,-1.25000149e-004
,,,2.75000000e-009,-1.51562650e-004
,,,2.77500000e-009,-1.85156403e-004
,,,2.80000000e-009,-2.22656405e-004
,,,2.82500000e-009,-2.61718908e-004
,,,2.85000000e-009,-3.00000161e-004
,,,2.87500000e-009,-3.33593913e-004
,,,2.90000000e-009,-3.59375165e-004
,,,2.92500000e-009,-3.76562666e-004
,,,2.95000000e-009,-3.82812667e-004
,,,2.97500000e-009,-3.77343916e-004
,,,3.00000000e-009,-3.60937665e-004
,,,3.02500000e-009,-3.34375163e-004
,,,3.05000000e-009,-3.00000161e-004
,,,3.07500000e-009,-2.60156408e-004
,,,3.10000000e-009,-2.18750155e-004
,,,3.12500000e-009,-1.78906402e-004
,,,3.15000000e-009,-1.42968900e-004
,,,3.17500000e-009,-1.15625148e-004
,,,3.20000000e-009,-9.84376467e-005
,,,3.22500000e-009,-9.29688963e-005
,,,3.25000000e-009,-1.00000147e-004
,,,3.27500000e-009,-1.19531398e-004
,,,3.30000000e-009,-1.48437650e-004
,,,3.32500000e-009,-1.83593903e-004
,,,3.35000000e-009,-2.19531405e-004
,,,3.37500000e-009,-2.52343908e-004
,,,3.40000000e-009,-2.78906409e-004
,,,3.42500000e-009,-2.95312661e-004
,,,3.45000000e-009,-3.00000161e-004
,,,3.47500000e-009,-2.91406410e-004
,,,3.50000000e-009,-2.71093909e-004
,,,3.52500000e-009,-2.42187657e-004
,,,3.55000000e-009,-2.08593904e-004
,,,3.57500000e-009,-1.72656402e-004
,,,3.60000000e-009,-1.40625150e-004
,,,3.62500000e-009,-1.14843898e-004
,,,3.65000000e-009,-1.00000147e-004
,,,3.67500000e-009,-9.84376467e-005
,,,3.70000000e-009,-1.09375147e-004
,,,3.72500000e-009,-1.32031399e-004
,,,3.75000000e-009,-1.62500151e-004
,,,3.77500000e-009,-1.98437654e-004
,,,3.80000000e-009,-2.35937656e-004
,,,3.82500000e-009,-2.70312659e-004
,,,3.85000000e-009,-3.00000161e-004
,,,3.87500000e-009,-3.21875162e-004
,,,3.90000000e-009,-3.35937663e-004
,,,3.92500000e-009,-3.40625164e-004
,,,3.95000000e-009,-3.39062664e-004
,,,3.97500000e-009,-3.31250163e-004
,,,4.00000000e-009,-3.21093912e-004
,,,4.02500000e-009,-3.10156412e-004
,,,4.05000000e-009,-3.00000161e-004
,,,4.07500000e-009,-2.92968910e-004
,,,4.10000000e-009,-2.89843910e-004
,,,4.12500000e-009,-2.89843910e-004
,,,4.15000000e-009,-2.92187660e-004
,,,4.17500000e-009,-2.95312661e-004
,,,4.20000000e-009,-2.98437661e-004
,,,4.22500000e-009,-3.00000161e-004
,,,4.25000000e-009,-3.00000161e-004
,,,4.27500000e-009,-2.96093911e-004
,,,4.30000000e-009,-2.90625160e-004
,,,4.32500000e-009,-2.85156410e-004
,,,4.35000000e-009,-2.79687659e-004
,,,4.37500000e-009,-2.77343909e-004
,,,4.40000000e-009,-2.79687659e-004
,,,4.42500000e-009,-2.86718910e-004
,,,4.45000000e-009,-3.00000161e-004
,,,4.47500000e-009,-3.18750162e-004
,,,4.50000000e-009,-3.42968914e-004
,,,4.52500000e-009,-3.71093916e-004
,,,4.55000000e-009,-4.00781418e-004
,,,4.57500000e-009,-4.29687670e-004
,,,4.60000000e-009,-4.57812672e-004
,,,4.62500000e-009,-4.81250174e-004
,,,4.65000000e-009,-5.00000175e-004
,,,4.67500000e-009,-5.09375176e-004
,,,4.70000000e-009,-5.14062676e-004
,,,4.72500000e-009,-5.14062676e-004
,,,4.75000000e-009,-5.11718926e-004
,,,4.77500000e-009,-5.07031426e-004
,,,4.80000000e-009,-5.03125175e-004
,,,4.82500000e-009,-5.00000175e-004
,,,4.85000000e-009,-5.00000175e-004
,,,4.87500000e-009,-5.00000175e-004
,,,4.90000000e-009,-5.03125175e-004
,,,4.92500000e-009,-5.07031426e-004
,,,4.95000000e-009,-5.11718926e-004
,,,4.97500000e-009,-5.14062676e-004
,,,5.00000000e-009,-5.14062676e-004
,,,5.02500000e-009,-5.09375176e-004
,,,5.05000000e-009,-5.00000175e-004
,,,5.07500000e-009,-4.82031424e-004
,,,5.10000000e-009,-4.59375172e-004
,,,5.12500000e-009,-4.32812670e-004
,,,5.15000000e-009,-4.03906418e-004
,,,5.17500000e-009,-3.74218916e-004
,,,5.20000000e-009,-3.46093914e-004
,,,5.22500000e-009,-3.20312662e-004
,,,5.25000000e-009,-3.00000161e-004
,,,5.27500000e-009,-2.84375160e-004
,,,5.30000000e-009,-2.75000159e-004
,,,5.32500000e-009,-2.71093909e-004
,,,5.35000000e-009,-2.72656409e-004
,,,5.37500000e-009,-2.77343909e-004
,,,5.40000000e-009,-2.84375160e-004
,,,5.42500000e-009,-2.92187660e-004
,,,5.45000000e-009,-3.00000161e-004
,,,5.47500000e-009,-3.04687661e-004
,,,5.50000000e-009,-3.07812661e-004
,,,5.52500000e-009,-3.09375162e-004
,,,5.55000000e-009,-3.08593912e-004
,,,5.57500000e-009,-3.06250161e-004
,,,5.60000000e-009,-3.03906411e-004
,,,5.62500000e-009,-3.01562661e-004
,,,5.65000000e-009,-3.00000161e-004
,,,5.67500000e-009,-2.98437661e-004
,,,5.70000000e-009,-2.98437661e-004
,,,5.72500000e-009,-2.99218911e-004
,,,5.75000000e-009,-3.00000161e-004
,,,5.77500000e-009,-3.00000161e-004
,,,5.80000000e-009,-3.00781411e-004
,,,5.82500000e-009,-3.00781411e-004
,,,5.85000000e-009,-3.00000161e-004
,,,5.87500000e-009,-2.97656411e-004
,,,5.90000000e-009,-2.95312661e-004
