RawData/SinglePhotoelectron/L6_2pt2C_5mV/wave021_Ch3.csv

"Record Length",1000,"Points",-7.72500000e-009,2.99999882e-004
"Sample Interval",2.50000000e-011,s,-7.70000000e-009,3.00781132e-004
"Trigger Point",309,"Samples",-7.67500000e-009,3.01562382e-004
"Trigger Time",1.39571069e-011,s,-7.65000000e-009,3.01562382e-004
"",,,-7.62500000e-009,2.99999882e-004
"Horizontal Offset",-7.72500000e-009,s,-7.60000000e-009,2.96874881e-004
,,,-7.57500000e-009,2.93749881e-004
,,,-7.55000000e-009,2.91406131e-004
,,,-7.52500000e-009,2.89062381e-004
,,,-7.50000000e-009,2.89062381e-004
,,,-7.47500000e-009,2.90624881e-004
,,,-7.45000000e-009,2.94531131e-004
,,,-7.42500000e-009,2.99999882e-004
,,,-7.40000000e-009,3.06249882e-004
,,,-7.37500000e-009,3.12499882e-004
,,,-7.35000000e-009,3.17968633e-004
,,,-7.32500000e-009,3.21093633e-004
,,,-7.30000000e-009,3.21093633e-004
,,,-7.27500000e-009,3.17968633e-004
,,,-7.25000000e-009,3.10937382e-004
,,,-7.22500000e-009,2.99999882e-004
,,,-7.20000000e-009,2.87499881e-004
,,,-7.17500000e-009,2.74999880e-004
,,,-7.15000000e-009,2.63281129e-004
,,,-7.12500000e-009,2.55468628e-004
,,,-7.10000000e-009,2.54687378e-004
,,,-7.07500000e-009,2.60937379e-004
,,,-7.05000000e-009,2.76562380e-004
,,,-7.02500000e-009,2.99999882e-004
,,,-7.00000000e-009,3.33593634e-004
,,,-6.97500000e-009,3.72656137e-004
,,,-6.95000000e-009,4.12499889e-004
,,,-6.92500000e-009,4.50781142e-004
,,,-6.90000000e-009,4.82031144e-004
,,,-6.87500000e-009,5.02343646e-004
,,,-6.85000000e-009,5.09374896e-004
,,,-6.82500000e-009,4.99999896e-004
,,,-6.80000000e-009,4.75781144e-004
,,,-6.77500000e-009,4.36718641e-004
,,,-6.75000000e-009,3.85937388e-004
,,,-6.72500000e-009,3.28124884e-004
,,,-6.70000000e-009,2.65624879e-004
,,,-6.67500000e-009,2.04687375e-004
,,,-6.65000000e-009,1.48437371e-004
,,,-6.62500000e-009,9.99998674e-005
,,,-6.60000000e-009,6.71873651e-005
,,,-6.57500000e-009,4.68748636e-005
,,,-6.55000000e-009,3.90623631e-005
,,,-6.52500000e-009,4.06248632e-005
,,,-6.50000000e-009,5.07811139e-005
,,,-6.47500000e-009,6.48436149e-005
,,,-6.45000000e-009,8.28123662e-005
,,,-6.42500000e-009,9.99998674e-005
,,,-6.40000000e-009,1.21093619e-004
,,,-6.37500000e-009,1.41406120e-004
,,,-6.35000000e-009,1.60937372e-004
,,,-6.32500000e-009,1.81249873e-004
,,,-6.30000000e-009,2.03124875e-004
,,,-6.27500000e-009,2.29687377e-004
,,,-6.25000000e-009,2.61718629e-004
,,,-6.22500000e-009,2.99999882e-004
,,,-6.20000000e-009,3.46874885e-004
,,,-6.17500000e-009,3.99218639e-004
,,,-6.15000000e-009,4.55468643e-004
,,,-6.12500000e-009,5.12499897e-004
,,,-6.10000000e-009,5.67968651e-004
,,,-6.07500000e-009,6.19531154e-004
,,,-6.05000000e-009,6.64062407e-004
,,,-6.02500000e-009,6.99999910e-004
,,,-6.00000000e-009,7.22656161e-004
,,,-5.97500000e-009,7.35156162e-004
,,,-5.95000000e-009,7.39062413e-004
,,,-5.92500000e-009,7.35937412e-004
,,,-5.90000000e-009,7.28124912e-004
,,,-5.87500000e-009,7.18749911e-004
,,,-5.85000000e-009,7.08593660e-004
,,,-5.82500000e-009,6.99999910e-004
,,,-5.80000000e-009,6.93749909e-004
,,,-5.77500000e-009,6.90624909e-004
,,,-5.75000000e-009,6.89843659e-004
,,,-5.72500000e-009,6.92187409e-004
,,,-5.70000000e-009,6.96093660e-004
,,,-5.67500000e-009,6.99218660e-004
,,,-5.65000000e-009,7.00781160e-004
,,,-5.62500000e-009,6.99999910e-004
,,,-5.60000000e-009,6.94531159e-004
,,,-5.57500000e-009,6.88281159e-004
,,,-5.55000000e-009,6.82031159e-004
,,,-5.52500000e-009,6.77343658e-004
,,,-5.50000000e-009,6.75781158e-004
,,,-5.47500000e-009,6.78906158e-004
,,,-5.45000000e-009,6.87499909e-004
,,,-5.42500000e-009,6.99999910e-004
,,,-5.40000000e-009,7.14843661e-004
,,,-5.37500000e-009,7.30468662e-004
,,,-5.35000000e-009,7.46093663e-004
,,,-5.32500000e-009,7.57031164e-004
,,,-5.30000000e-009,7.60156164e-004
,,,-5.27500000e-009,7.53124914e-004
,,,-5.25000000e-009,7.33593662e-004
,,,-5.22500000e-009,6.99999910e-004
,,,-5.20000000e-009,6.53124907e-004
,,,-5.17500000e-009,5.96874903e-004
,,,-5.15000000e-009,5.35156148e-004
,,,-5.12500000e-009,4.72656144e-004
,,,-5.10000000e-009,4.13281140e-004
,,,-5.07500000e-009,3.62499886e-004
,,,-5.05000000e-009,3.24218633e-004
,,,-5.02500000e-009,2.99999882e-004
,,,-5.00000000e-009,2.96093631e-004
,,,-4.97500000e-009,3.07812382e-004
,,,-4.95000000e-009,3.32031134e-004
,,,-4.92500000e-009,3.64843636e-004
,,,-4.90000000e-009,4.02343639e-004
,,,-4.87500000e-009,4.39843641e-004
,,,-4.85000000e-009,4.73437394e-004
,,,-4.82500000e-009,4.99999896e-004
,,,-4.80000000e-009,5.17968647e-004
,,,-4.77500000e-009,5.24999897e-004
,,,-4.75000000e-009,5.24218647e-004
,,,-4.72500000e-009,5.17968647e-004
,,,-4.70000000e-009,5.08593646e-004
,,,-4.67500000e-009,5.00781146e-004
,,,-4.65000000e-009,4.96874895e-004
,,,-4.62500000e-009,4.99999896e-004
,,,-4.60000000e-009,5.13281147e-004
,,,-4.57500000e-009,5.33593648e-004
,,,-4.55000000e-009,5.60937400e-004
,,,-4.52500000e-009,5.91406152e-004
,,,-4.50000000e-009,6.24218654e-004
,,,-4.47500000e-009,6.54687407e-004
,,,-4.45000000e-009,6.80468658e-004
,,,-4.42500000e-009,6.99999910e-004
,,,-4.40000000e-009,7.09374911e-004
,,,-4.37500000e-009,7.10937411e-004
,,,-4.35000000e-009,7.07031160e-004
,,,-4.32500000e-009,6.99999910e-004
,,,-4.30000000e-009,6.93749909e-004
,,,-4.27500000e-009,6.89843659e-004
,,,-4.25000000e-009,6.92187409e-004
,,,-4.22500000e-009,6.99999910e-004
,,,-4.20000000e-009,7.10937411e-004
,,,-4.17500000e-009,7.24218662e-004
,,,-4.15000000e-009,7.38281163e-004
,,,-4.12500000e-009,7.49999913e-004
,,,-4.10000000e-009,7.54687414e-004
,,,-4.07500000e-009,7.49218663e-004
,,,-4.05000000e-009,7.32031162e-004
,,,-4.02500000e-009,6.99999910e-004
,,,-4.00000000e-009,6.49999906e-004
,,,-3.97500000e-009,5.89062402e-004
,,,-3.95000000e-009,5.23437397e-004
,,,-3.92500000e-009,4.57812393e-004
,,,-3.90000000e-009,3.97656138e-004
,,,-3.87500000e-009,3.48437385e-004
,,,-3.85000000e-009,3.15624883e-004
,,,-3.82500000e-009,2.99999882e-004
,,,-3.80000000e-009,3.03906132e-004
,,,-3.77500000e-009,3.24218633e-004
,,,-3.75000000e-009,3.57031136e-004
,,,-3.72500000e-009,3.96093638e-004
,,,-3.70000000e-009,4.35937391e-004
,,,-3.67500000e-009,4.70312394e-004
,,,-3.65000000e-009,4.92968645e-004
,,,-3.62500000e-009,4.99999896e-004
,,,-3.60000000e-009,4.86718645e-004
,,,-3.57500000e-009,4.54687392e-004
,,,-3.55000000e-009,4.07031139e-004
,,,-3.52500000e-009,3.48437385e-004
,,,-3.50000000e-009,2.82812380e-004
,,,-3.47500000e-009,2.16406126e-004
,,,-3.45000000e-009,1.54687371e-004
,,,-3.42500000e-009,9.99998674e-005
,,,-3.40000000e-009,6.01561146e-005
,,,-3.37500000e-009,2.96873624e-005
,,,-3.35000000e-009,7.81236085e-006
,,,-3.32500000e-009,-8.59389031e-006
,,,-3.30000000e-009,-2.50001415e-005
,,,-3.27500000e-009,-4.29688927e-005
,,,-3.25000000e-009,-6.71876445e-005
,,,-3.22500000e-009,-1.00000147e-004
,,,-3.20000000e-009,-1.33593899e-004
,,,-3.17500000e-009,-1.74218902e-004
,,,-3.15000000e-009,-2.16406405e-004
,,,-3.12500000e-009,-2.56250158e-004
,,,-3.10000000e-009,-2.89062660e-004
,,,-3.07500000e-009,-3.10156412e-004
,,,-3.05000000e-009,-3.14062662e-004
,,,-3.02500000e-009,-3.00000161e-004
,,,-3.00000000e-009,-2.60156408e-004
,,,-2.97500000e-009,-2.06250154e-004
,,,-2.95000000e-009,-1.42187650e-004
,,,-2.92500000e-009,-7.57813951e-005
,,,-2.90000000e-009,-1.17188905e-005
,,,-2.87500000e-009,4.21873633e-005
,,,-2.85000000e-009,8.04686160e-005
,,,-2.82500000e-009,9.99998674e-005
,,,-2.80000000e-009,1.02343618e-004
,,,-2.77500000e-009,8.59373664e-005
,,,-2.75000000e-009,5.46873642e-005
,,,-2.72500000e-009,1.48436114e-005
,,,-2.70000000e-009,-2.65626416e-005
,,,-2.67500000e-009,-6.40626442e-005
,,,-2.65000000e-009,-8.98438961e-005
,,,-2.62500000e-009,-1.00000147e-004
,,,-2.60000000e-009,-8.75001459e-005
,,,-2.57500000e-009,-5.70313937e-005
,,,-2.55000000e-009,-1.09376405e-005
,,,-2.52500000e-009,4.84373637e-005
,,,-2.50000000e-009,1.14062368e-004
,,,-2.47500000e-009,1.82031123e-004
,,,-2.45000000e-009,2.45312378e-004
,,,-2.42500000e-009,2.99999882e-004
,,,-2.40000000e-009,3.42187385e-004
,,,-2.37500000e-009,3.68749886e-004
,,,-2.35000000e-009,3.81249887e-004
,,,-2.32500000e-009,3.79687387e-004
,,,-2.30000000e-009,3.67968636e-004
,,,-2.27500000e-009,3.48437385e-004
,,,-2.25000000e-009,3.24218633e-004
,,,-2.22500000e-009,2.99999882e-004
,,,-2.20000000e-009,2.77343630e-004
,,,-2.17500000e-009,2.60937379e-004
,,,-2.15000000e-009,2.50781128e-004
,,,-2.12500000e-009,2.49218628e-004
,,,-2.10000000e-009,2.54687378e-004
,,,-2.07500000e-009,2.65624879e-004
,,,-2.05000000e-009,2.82031130e-004
,,,-2.02500000e-009,2.99999882e-004
,,,-2.00000000e-009,3.15624883e-004
,,,-1.97500000e-009,3.28906134e-004
,,,-1.95000000e-009,3.39062384e-004
,,,-1.92500000e-009,3.44531135e-004
,,,-1.90000000e-009,3.43749885e-004
,,,-1.87500000e-009,3.36718634e-004
,,,-1.85000000e-009,3.21874883e-004
,,,-1.82500000e-009,2.99999882e-004
,,,-1.80000000e-009,2.71093629e-004
,,,-1.77500000e-009,2.37499877e-004
,,,-1.75000000e-009,2.03124875e-004
,,,-1.72500000e-009,1.70312372e-004
,,,-1.70000000e-009,1.41406120e-004
,,,-1.67500000e-009,1.19531119e-004
,,,-1.65000000e-009,1.04687368e-004
,,,-1.62500000e-009,9.99998674e-005
,,,-1.60000000e-009,1.03124868e-004
,,,-1.57500000e-009,1.15624868e-004
,,,-1.55000000e-009,1.37499870e-004
,,,-1.52500000e-009,1.65624872e-004
,,,-1.50000000e-009,1.98437374e-004
,,,-1.47500000e-009,2.33593627e-004
,,,-1.45000000e-009,2.67968629e-004
,,,-1.42500000e-009,2.99999882e-004
,,,-1.40000000e-009,3.18749883e-004
,,,-1.37500000e-009,3.29687384e-004
,,,-1.35000000e-009,3.33593634e-004
,,,-1.32500000e-009,3.32031134e-004
,,,-1.30000000e-009,3.26562383e-004
,,,-1.27500000e-009,3.17968633e-004
,,,-1.25000000e-009,3.09374882e-004
,,,-1.22500000e-009,2.99999882e-004
,,,-1.20000000e-009,2.75781130e-004
,,,-1.17500000e-009,2.48437378e-004
,,,-1.15000000e-009,2.21093626e-004
,,,-1.12500000e-009,1.94531124e-004
,,,-1.10000000e-009,1.67968622e-004
,,,-1.07500000e-009,1.43749870e-004
,,,-1.05000000e-009,1.21093619e-004
,,,-1.02500000e-009,9.99998674e-005
,,,-1.00000000e-009,5.85936144e-005
,,,-9.75000000e-010,1.56248614e-005
,,,-9.50000000e-010,-2.57813915e-005
,,,-9.25000000e-010,-6.09376440e-005
,,,-9.00000000e-010,-8.75001459e-005
,,,-8.75000000e-010,-1.03125147e-004
,,,-8.50000000e-010,-1.07031397e-004
,,,-8.25000000e-010,-1.00000147e-004
,,,-8.00000000e-010,-1.14843898e-004
,,,-7.75000000e-010,-1.29687649e-004
,,,-7.50000000e-010,-1.45312650e-004
,,,-7.25000000e-010,-1.63281401e-004
,,,-7.00000000e-010,-1.85937653e-004
,,,-6.75000000e-010,-2.14062655e-004
,,,-6.50000000e-010,-2.50781407e-004
,,,-6.25000000e-010,-3.00000161e-004
,,,-6.00000000e-010,-3.97656418e-004
,,,-5.75000000e-010,-5.16406426e-004
,,,-5.50000000e-010,-6.54687686e-004
,,,-5.25000000e-010,-8.07812697e-004
,,,-5.00000000e-010,-9.72656459e-004
,,,-4.75000000e-010,-1.14453147e-003
,,,-4.50000000e-010,-1.32109398e-003
,,,-4.25000000e-010,-1.50000025e-003
,,,-4.00000000e-010,-1.70234401e-003
,,,-3.75000000e-010,-1.90781277e-003
,,,-3.50000000e-010,-2.11484404e-003
,,,-3.25000000e-010,-2.31953155e-003
,,,-3.00000000e-010,-2.52109407e-003
,,,-2.75000000e-010,-2.71796908e-003
,,,-2.50000000e-010,-2.91015660e-003
,,,-2.25000000e-010,-3.10000036e-003
,,,-2.00000000e-010,-3.29296912e-003
,,,-1.75000000e-010,-3.49296914e-003
,,,-1.50000000e-010,-3.70156290e-003
,,,-1.25000000e-010,-3.91953167e-003
,,,-1.00000000e-010,-4.14843793e-003
,,,-7.50000000e-011,-4.38906295e-003
,,,-5.00000000e-011,-4.63984422e-003
,,,-2.50000000e-011,-4.90000049e-003
,,,0.00000000e+000,-5.14843800e-003
,,,2.50000000e-011,-5.40468802e-003
,,,5.00000000e-011,-5.66484429e-003
,,,7.50000000e-011,-5.92734431e-003
,,,1.00000000e-010,-6.18593808e-003
,,,1.25000000e-010,-6.43671935e-003
,,,1.50000000e-010,-6.67656311e-003
,,,1.75000000e-010,-6.90000063e-003
,,,2.00000000e-010,-7.06328189e-003
,,,2.25000000e-010,-7.21093815e-003
,,,2.50000000e-010,-7.34531316e-003
,,,2.75000000e-010,-7.46953192e-003
,,,3.00000000e-010,-7.58593818e-003
,,,3.25000000e-010,-7.69609443e-003
,,,3.50000000e-010,-7.80078194e-003
,,,3.75000000e-010,-7.90000070e-003
,,,4.00000000e-010,-7.93828195e-003
,,,4.25000000e-010,-7.97421945e-003
,,,4.50000000e-010,-8.00937571e-003
,,,4.75000000e-010,-8.04218821e-003
,,,5.00000000e-010,-8.07109446e-003
,,,5.25000000e-010,-8.09296946e-003
,,,5.50000000e-010,-8.10468821e-003
,,,5.75000000e-010,-8.10000071e-003
,,,6.00000000e-010,-8.02265696e-003
,,,6.25000000e-010,-7.92812570e-003
,,,6.50000000e-010,-7.81953194e-003
,,,6.75000000e-010,-7.69687568e-003
,,,7.00000000e-010,-7.56328193e-003
,,,7.25000000e-010,-7.41796941e-003
,,,7.50000000e-010,-7.26328190e-003
,,,7.75000000e-010,-7.10000064e-003
,,,8.00000000e-010,-6.88828188e-003
,,,8.25000000e-010,-6.67500061e-003
,,,8.50000000e-010,-6.46328185e-003
,,,8.75000000e-010,-6.25625058e-003
,,,9.00000000e-010,-6.05546932e-003
,,,9.25000000e-010,-5.86250055e-003
,,,9.50000000e-010,-5.67734429e-003
,,,9.75000000e-010,-5.50000053e-003
,,,1.00000000e-009,-5.30781302e-003
,,,1.02500000e-009,-5.12187550e-003
,,,1.05000000e-009,-4.94062549e-003
,,,1.07500000e-009,-4.76484423e-003
,,,1.10000000e-009,-4.59375046e-003
,,,1.12500000e-009,-4.42578170e-003
,,,1.15000000e-009,-4.26171919e-003
,,,1.17500000e-009,-4.10000043e-003
,,,1.20000000e-009,-3.93906292e-003
,,,1.22500000e-009,-3.77890666e-003
,,,1.25000000e-009,-3.61796915e-003
,,,1.27500000e-009,-3.46015663e-003
,,,1.30000000e-009,-3.30703162e-003
,,,1.32500000e-009,-3.16093786e-003
,,,1.35000000e-009,-3.02421910e-003
,,,1.37500000e-009,-2.90000034e-003
,,,1.40000000e-009,-2.80000034e-003
,,,1.42500000e-009,-2.70781283e-003
,,,1.45000000e-009,-2.62265658e-003
,,,1.47500000e-009,-2.54375032e-003
,,,1.50000000e-009,-2.47265656e-003
,,,1.52500000e-009,-2.40859406e-003
,,,1.55000000e-009,-2.35078156e-003
,,,1.57500000e-009,-2.30000030e-003
,,,1.60000000e-009,-2.27031280e-003
,,,1.62500000e-009,-2.23750030e-003
,,,1.65000000e-009,-2.19687530e-003
,,,1.67500000e-009,-2.15000029e-003
,,,1.70000000e-009,-2.09453154e-003
,,,1.72500000e-009,-2.03359403e-003
,,,1.75000000e-009,-1.96796903e-003
,,,1.77500000e-009,-1.90000027e-003
,,,1.80000000e-009,-1.84687527e-003
,,,1.82500000e-009,-1.78984402e-003
,,,1.85000000e-009,-1.73046901e-003
,,,1.87500000e-009,-1.67109401e-003
,,,1.90000000e-009,-1.61484400e-003
,,,1.92500000e-009,-1.56640650e-003
,,,1.95000000e-009,-1.52734400e-003
,,,1.97500000e-009,-1.50000025e-003
,,,2.00000000e-009,-1.49687525e-003
,,,2.02500000e-009,-1.50000025e-003
,,,2.05000000e-009,-1.50546900e-003
,,,2.07500000e-009,-1.51171900e-003
,,,2.10000000e-009,-1.51562525e-003
,,,2.12500000e-009,-1.51562525e-003
,,,2.15000000e-009,-1.51093775e-003
,,,2.17500000e-009,-1.50000025e-003
,,,2.20000000e-009,-1.48906275e-003
,,,2.22500000e-009,-1.46953149e-003
,,,2.25000000e-009,-1.44218774e-003
,,,2.27500000e-009,-1.41015649e-003
,,,2.30000000e-009,-1.37656274e-003
,,,2.32500000e-009,-1.34531273e-003
,,,2.35000000e-009,-1.31875023e-003
,,,2.37500000e-009,-1.30000023e-003
,,,2.40000000e-009,-1.29140648e-003
,,,2.42500000e-009,-1.28906273e-003
,,,2.45000000e-009,-1.29062523e-003
,,,2.47500000e-009,-1.29531273e-003
,,,2.50000000e-009,-1.30078148e-003
,,,2.52500000e-009,-1.30390648e-003
,,,2.55000000e-009,-1.30468773e-003
,,,2.57500000e-009,-1.30000023e-003
,,,2.60000000e-009,-1.28906273e-003
,,,2.62500000e-009,-1.27031273e-003
,,,2.65000000e-009,-1.24453148e-003
,,,2.67500000e-009,-1.21484398e-003
,,,2.70000000e-009,-1.18281272e-003
,,,2.72500000e-009,-1.15078147e-003
,,,2.75000000e-009,-1.12265647e-003
,,,2.77500000e-009,-1.10000022e-003
,,,2.80000000e-009,-1.08281272e-003
,,,2.82500000e-009,-1.07187522e-003
,,,2.85000000e-009,-1.06718772e-003
,,,2.87500000e-009,-1.06796897e-003
,,,2.90000000e-009,-1.07343772e-003
,,,2.92500000e-009,-1.08125022e-003
,,,2.95000000e-009,-1.09140647e-003
,,,2.97500000e-009,-1.10000022e-003
,,,3.00000000e-009,-1.10234397e-003
,,,3.02500000e-009,-1.09843772e-003
,,,3.05000000e-009,-1.08750022e-003
,,,3.07500000e-009,-1.06718772e-003
,,,3.10000000e-009,-1.03750021e-003
,,,3.12500000e-009,-9.99218960e-004
,,,3.15000000e-009,-9.53125207e-004
,,,3.17500000e-009,-9.00000203e-004
,,,3.20000000e-009,-8.41406449e-004
,,,3.22500000e-009,-7.79687695e-004
,,,3.25000000e-009,-7.17968941e-004
,,,3.27500000e-009,-6.59375186e-004
,,,3.30000000e-009,-6.06250183e-004
,,,3.32500000e-009,-5.60937679e-004
,,,3.35000000e-009,-5.25000177e-004
,,,3.37500000e-009,-5.00000175e-004
,,,3.40000000e-009,-4.87500174e-004
,,,3.42500000e-009,-4.82812674e-004
,,,3.45000000e-009,-4.85156424e-004
,,,3.47500000e-009,-4.91406424e-004
,,,3.50000000e-009,-4.97656425e-004
,,,3.52500000e-009,-5.03125175e-004
,,,3.55000000e-009,-5.04687675e-004
,,,3.57500000e-009,-5.00000175e-004
,,,3.60000000e-009,-4.89843924e-004
,,,3.62500000e-009,-4.72656423e-004
,,,3.65000000e-009,-4.48437671e-004
,,,3.67500000e-009,-4.19531419e-004
,,,3.70000000e-009,-3.87500167e-004
,,,3.72500000e-009,-3.54687665e-004
,,,3.75000000e-009,-3.25000163e-004
,,,3.77500000e-009,-3.00000161e-004
,,,3.80000000e-009,-2.82812660e-004
,,,3.82500000e-009,-2.71875159e-004
,,,3.85000000e-009,-2.67187659e-004
,,,3.87500000e-009,-2.67187659e-004
,,,3.90000000e-009,-2.71875159e-004
,,,3.92500000e-009,-2.79687659e-004
,,,3.95000000e-009,-2.89843910e-004
,,,3.97500000e-009,-3.00000161e-004
,,,4.00000000e-009,-3.10937662e-004
,,,4.02500000e-009,-3.18750162e-004
,,,4.05000000e-009,-3.22656413e-004
,,,4.07500000e-009,-3.22656413e-004
,,,4.10000000e-009,-3.19531412e-004
,,,4.12500000e-009,-3.14062662e-004
,,,4.15000000e-009,-3.07031411e-004
,,,4.17500000e-009,-3.00000161e-004
,,,4.20000000e-009,-2.93750160e-004
,,,4.22500000e-009,-2.89062660e-004
,,,4.25000000e-009,-2.85156410e-004
,,,4.27500000e-009,-2.83593910e-004
,,,4.30000000e-009,-2.83593910e-004
,,,4.32500000e-009,-2.86718910e-004
,,,4.35000000e-009,-2.92187660e-004
,,,4.37500000e-009,-3.00000161e-004
,,,4.40000000e-009,-3.07812661e-004
,,,4.42500000e-009,-3.16406412e-004
,,,4.45000000e-009,-3.22656413e-004
,,,4.47500000e-009,-3.26562663e-004
,,,4.50000000e-009,-3.27343913e-004
,,,4.52500000e-009,-3.23437663e-004
,,,4.55000000e-009,-3.14062662e-004
,,,4.57500000e-009,-3.00000161e-004
,,,4.60000000e-009,-2.81250160e-004
,,,4.62500000e-009,-2.57812658e-004
,,,4.65000000e-009,-2.31250156e-004
,,,4.67500000e-009,-2.03125154e-004
,,,4.70000000e-009,-1.74218902e-004
,,,4.72500000e-009,-1.46093900e-004
,,,4.75000000e-009,-1.21093898e-004
,,,4.77500000e-009,-1.00000147e-004
,,,4.80000000e-009,-8.35938956e-005
,,,4.82500000e-009,-7.34376449e-005
,,,4.85000000e-009,-6.79688945e-005
,,,4.87500000e-009,-6.79688945e-005
,,,4.90000000e-009,-7.18751448e-005
,,,4.92500000e-009,-7.96876453e-005
,,,4.95000000e-009,-8.90626460e-005
,,,4.97500000e-009,-1.00000147e-004
,,,5.00000000e-009,-1.09375147e-004
,,,5.02500000e-009,-1.17968898e-004
,,,5.05000000e-009,-1.22656398e-004
,,,5.07500000e-009,-1.24218898e-004
,,,5.10000000e-009,-1.22656398e-004
,,,5.12500000e-009,-1.17968898e-004
,,,5.15000000e-009,-1.09375147e-004
,,,5.17500000e-009,-1.00000147e-004
,,,5.20000000e-009,-8.75001459e-005
,,,5.22500000e-009,-7.57813951e-005
,,,5.25000000e-009,-6.64063944e-005
,,,5.27500000e-009,-6.01563940e-005
,,,5.30000000e-009,-5.93751439e-005
,,,5.32500000e-009,-6.56251443e-005
,,,5.35000000e-009,-7.89063953e-005
,,,5.37500000e-009,-1.00000147e-004
,,,5.40000000e-009,-1.26562649e-004
,,,5.42500000e-009,-1.57031401e-004
,,,5.45000000e-009,-1.89843903e-004
,,,5.47500000e-009,-2.22656405e-004
,,,5.50000000e-009,-2.51562658e-004
,,,5.52500000e-009,-2.75781409e-004
,,,5.55000000e-009,-2.92187660e-004
,,,5.57500000e-009,-3.00000161e-004
,,,5.60000000e-009,-2.95312661e-004
,,,5.62500000e-009,-2.81250160e-004
,,,5.65000000e-009,-2.59375158e-004
,,,5.67500000e-009,-2.31250156e-004
,,,5.70000000e-009,-1.98437654e-004
,,,5.72500000e-009,-1.64843901e-004
,,,5.75000000e-009,-1.31250149e-004
,,,5.77500000e-009,-1.00000147e-004
,,,5.80000000e-009,-7.03126447e-005
,,,5.82500000e-009,-4.45313929e-005
,,,5.85000000e-009,-2.10938912e-005
,,,5.87500000e-009,-1.39698386e-010
,,,5.90000000e-009,2.18748618e-005
,,,5.92500000e-009,4.53123635e-005
,,,5.95000000e-009,7.10936153e-005
,,,5.97500000e-009,9.99998674e-005
