RawData/SinglePhotoelectron/L6_2pt2C_5mV/wave025_Ch3.csv

"Record Length",1000,"Points",-7.72500000e-009,-7.81251452e-005
"Sample Interval",2.50000000e-011,s,-7.70000000e-009,-5.15626433e-005
"Trigger Point",309,"Samples",-7.67500000e-009,-2.18751412e-005
"Trigger Time",1.73923197e-011,s,-7.65000000e-009,9.37486097e-006
"",,,-7.62500000e-009,3.90623631e-005
"Horizontal Offset",-7.72500000e-009,s,-7.60000000e-009,6.48436149e-005
,,,-7.57500000e-009,8.59373664e-005
,,,-7.55000000e-009,9.99998674e-005
,,,-7.52500000e-009,1.07812368e-004
,,,-7.50000000e-009,1.08593618e-004
,,,-7.47500000e-009,1.05468618e-004
,,,-7.45000000e-009,9.92186173e-005
,,,-7.42500000e-009,9.37498669e-005
,,,-7.40000000e-009,9.06248667e-005
,,,-7.37500000e-009,9.21873668e-005
,,,-7.35000000e-009,9.99998674e-005
,,,-7.32500000e-009,1.15624868e-004
,,,-7.30000000e-009,1.37499870e-004
,,,-7.27500000e-009,1.64843622e-004
,,,-7.25000000e-009,1.96093624e-004
,,,-7.22500000e-009,2.27343626e-004
,,,-7.20000000e-009,2.57031128e-004
,,,-7.17500000e-009,2.82812380e-004
,,,-7.15000000e-009,2.99999882e-004
,,,-7.12500000e-009,3.07812382e-004
,,,-7.10000000e-009,3.04687382e-004
,,,-7.07500000e-009,2.91406131e-004
,,,-7.05000000e-009,2.67968629e-004
,,,-7.02500000e-009,2.35156127e-004
,,,-7.00000000e-009,1.95312374e-004
,,,-6.97500000e-009,1.49218621e-004
,,,-6.95000000e-009,9.99998674e-005
,,,-6.92500000e-009,5.07811139e-005
,,,-6.90000000e-009,3.90611058e-006
,,,-6.87500000e-009,-3.75001424e-005
,,,-6.85000000e-009,-7.03126447e-005
,,,-6.82500000e-009,-9.37501463e-005
,,,-6.80000000e-009,-1.07031397e-004
,,,-6.77500000e-009,-1.08593897e-004
,,,-6.75000000e-009,-1.00000147e-004
,,,-6.72500000e-009,-8.04688954e-005
,,,-6.70000000e-009,-5.39063935e-005
,,,-6.67500000e-009,-2.34376414e-005
,,,-6.65000000e-009,9.37486097e-006
,,,-6.62500000e-009,3.98436131e-005
,,,-6.60000000e-009,6.64061150e-005
,,,-6.57500000e-009,8.74998665e-005
,,,-6.55000000e-009,9.99998674e-005
,,,-6.52500000e-009,1.05468618e-004
,,,-6.50000000e-009,1.03124868e-004
,,,-6.47500000e-009,9.68748672e-005
,,,-6.45000000e-009,8.90623666e-005
,,,-6.42500000e-009,8.28123662e-005
,,,-6.40000000e-009,8.12498661e-005
,,,-6.37500000e-009,8.67186164e-005
,,,-6.35000000e-009,9.99998674e-005
,,,-6.32500000e-009,1.21093619e-004
,,,-6.30000000e-009,1.49218621e-004
,,,-6.27500000e-009,1.82031123e-004
,,,-6.25000000e-009,2.15624876e-004
,,,-6.22500000e-009,2.47656128e-004
,,,-6.20000000e-009,2.74218630e-004
,,,-6.17500000e-009,2.92968631e-004
,,,-6.15000000e-009,2.99999882e-004
,,,-6.12500000e-009,2.94531131e-004
,,,-6.10000000e-009,2.78124880e-004
,,,-6.07500000e-009,2.51562378e-004
,,,-6.05000000e-009,2.19531126e-004
,,,-6.02500000e-009,1.85156123e-004
,,,-6.00000000e-009,1.51562371e-004
,,,-5.97500000e-009,1.22656119e-004
,,,-5.95000000e-009,9.99998674e-005
,,,-5.92500000e-009,8.35936162e-005
,,,-5.90000000e-009,7.49998656e-005
,,,-5.87500000e-009,7.42186156e-005
,,,-5.85000000e-009,7.81248658e-005
,,,-5.82500000e-009,8.59373664e-005
,,,-5.80000000e-009,9.37498669e-005
,,,-5.77500000e-009,9.92186173e-005
,,,-5.75000000e-009,9.99998674e-005
,,,-5.72500000e-009,9.21873668e-005
,,,-5.70000000e-009,7.73436158e-005
,,,-5.67500000e-009,5.62498643e-005
,,,-5.65000000e-009,2.89061123e-005
,,,-5.62500000e-009,-3.12513992e-006
,,,-5.60000000e-009,-3.59376422e-005
,,,-5.57500000e-009,-6.95313946e-005
,,,-5.55000000e-009,-1.00000147e-004
,,,-5.52500000e-009,-1.25000149e-004
,,,-5.50000000e-009,-1.44531400e-004
,,,-5.47500000e-009,-1.56250151e-004
,,,-5.45000000e-009,-1.59375151e-004
,,,-5.42500000e-009,-1.54687651e-004
,,,-5.40000000e-009,-1.42187650e-004
,,,-5.37500000e-009,-1.22656398e-004
,,,-5.35000000e-009,-1.00000147e-004
,,,-5.32500000e-009,-7.42188950e-005
,,,-5.30000000e-009,-5.00001432e-005
,,,-5.27500000e-009,-3.12501419e-005
,,,-5.25000000e-009,-2.10938912e-005
,,,-5.22500000e-009,-2.10938912e-005
,,,-5.20000000e-009,-3.35938921e-005
,,,-5.17500000e-009,-6.01563940e-005
,,,-5.15000000e-009,-1.00000147e-004
,,,-5.12500000e-009,-1.49218900e-004
,,,-5.10000000e-009,-2.07031404e-004
,,,-5.07500000e-009,-2.69531409e-004
,,,-5.05000000e-009,-3.32031413e-004
,,,-5.02500000e-009,-3.90625167e-004
,,,-5.00000000e-009,-4.39843921e-004
,,,-4.97500000e-009,-4.77343923e-004
,,,-4.95000000e-009,-5.00000175e-004
,,,-4.92500000e-009,-5.00781425e-004
,,,-4.90000000e-009,-4.87500174e-004
,,,-4.87500000e-009,-4.61718922e-004
,,,-4.85000000e-009,-4.28125170e-004
,,,-4.82500000e-009,-3.91406417e-004
,,,-4.80000000e-009,-3.55468915e-004
,,,-4.77500000e-009,-3.23437663e-004
,,,-4.75000000e-009,-3.00000161e-004
,,,-4.72500000e-009,-2.81250160e-004
,,,-4.70000000e-009,-2.73437659e-004
,,,-4.67500000e-009,-2.73437659e-004
,,,-4.65000000e-009,-2.79687659e-004
,,,-4.62500000e-009,-2.89062660e-004
,,,-4.60000000e-009,-2.96875161e-004
,,,-4.57500000e-009,-3.01562661e-004
,,,-4.55000000e-009,-3.00000161e-004
,,,-4.52500000e-009,-2.86718910e-004
,,,-4.50000000e-009,-2.66406409e-004
,,,-4.47500000e-009,-2.39062657e-004
,,,-4.45000000e-009,-2.07812654e-004
,,,-4.42500000e-009,-1.75781402e-004
,,,-4.40000000e-009,-1.45312650e-004
,,,-4.37500000e-009,-1.18750148e-004
,,,-4.35000000e-009,-1.00000147e-004
,,,-4.32500000e-009,-8.82813959e-005
,,,-4.30000000e-009,-8.35938956e-005
,,,-4.27500000e-009,-8.59376458e-005
,,,-4.25000000e-009,-9.21876462e-005
,,,-4.22500000e-009,-9.92188967e-005
,,,-4.20000000e-009,-1.04687647e-004
,,,-4.17500000e-009,-1.05468897e-004
,,,-4.15000000e-009,-1.00000147e-004
,,,-4.12500000e-009,-8.75001459e-005
,,,-4.10000000e-009,-6.87501446e-005
,,,-4.07500000e-009,-4.37501428e-005
,,,-4.05000000e-009,-1.40626407e-005
,,,-4.02500000e-009,1.71873615e-005
,,,-4.00000000e-009,4.84373637e-005
,,,-3.97500000e-009,7.65623657e-005
,,,-3.95000000e-009,9.99998674e-005
,,,-3.92500000e-009,1.14843618e-004
,,,-3.90000000e-009,1.23437369e-004
,,,-3.87500000e-009,1.25781119e-004
,,,-3.85000000e-009,1.24218619e-004
,,,-3.82500000e-009,1.19531119e-004
,,,-3.80000000e-009,1.12499868e-004
,,,-3.77500000e-009,1.06249868e-004
,,,-3.75000000e-009,9.99998674e-005
,,,-3.72500000e-009,9.21873668e-005
,,,-3.70000000e-009,8.74998665e-005
,,,-3.67500000e-009,8.51561163e-005
,,,-3.65000000e-009,8.59373664e-005
,,,-3.62500000e-009,8.90623666e-005
,,,-3.60000000e-009,9.29686169e-005
,,,-3.57500000e-009,9.76561172e-005
,,,-3.55000000e-009,9.99998674e-005
,,,-3.52500000e-009,9.45311170e-005
,,,-3.50000000e-009,8.35936162e-005
,,,-3.47500000e-009,6.79686151e-005
,,,-3.45000000e-009,4.53123635e-005
,,,-3.42500000e-009,1.71873615e-005
,,,-3.40000000e-009,-1.71876409e-005
,,,-3.37500000e-009,-5.62501437e-005
,,,-3.35000000e-009,-1.00000147e-004
,,,-3.32500000e-009,-1.46875150e-004
,,,-3.30000000e-009,-1.92968903e-004
,,,-3.27500000e-009,-2.35156406e-004
,,,-3.25000000e-009,-2.70312659e-004
,,,-3.22500000e-009,-2.96093911e-004
,,,-3.20000000e-009,-3.10156412e-004
,,,-3.17500000e-009,-3.11718912e-004
,,,-3.15000000e-009,-3.00000161e-004
,,,-3.12500000e-009,-2.76562659e-004
,,,-3.10000000e-009,-2.45312657e-004
,,,-3.07500000e-009,-2.09375155e-004
,,,-3.05000000e-009,-1.72656402e-004
,,,-3.02500000e-009,-1.39062650e-004
,,,-3.00000000e-009,-1.14062648e-004
,,,-2.97500000e-009,-1.00000147e-004
,,,-2.95000000e-009,-1.00000147e-004
,,,-2.92500000e-009,-1.15625148e-004
,,,-2.90000000e-009,-1.47656400e-004
,,,-2.87500000e-009,-1.92968903e-004
,,,-2.85000000e-009,-2.48437657e-004
,,,-2.82500000e-009,-3.10937662e-004
,,,-2.80000000e-009,-3.75781416e-004
,,,-2.77500000e-009,-4.39843921e-004
,,,-2.75000000e-009,-5.00000175e-004
,,,-2.72500000e-009,-5.49218929e-004
,,,-2.70000000e-009,-5.90625182e-004
,,,-2.67500000e-009,-6.23437684e-004
,,,-2.65000000e-009,-6.48437686e-004
,,,-2.62500000e-009,-6.66406437e-004
,,,-2.60000000e-009,-6.80468938e-004
,,,-2.57500000e-009,-6.90625189e-004
,,,-2.55000000e-009,-7.00000189e-004
,,,-2.52500000e-009,-7.02343939e-004
,,,-2.50000000e-009,-7.05468940e-004
,,,-2.47500000e-009,-7.09375190e-004
,,,-2.45000000e-009,-7.12500190e-004
,,,-2.42500000e-009,-7.14062690e-004
,,,-2.40000000e-009,-7.13281440e-004
,,,-2.37500000e-009,-7.08593940e-004
,,,-2.35000000e-009,-7.00000189e-004
,,,-2.32500000e-009,-6.80468938e-004
,,,-2.30000000e-009,-6.56250186e-004
,,,-2.27500000e-009,-6.28906434e-004
,,,-2.25000000e-009,-6.00000182e-004
,,,-2.22500000e-009,-5.71093930e-004
,,,-2.20000000e-009,-5.43750178e-004
,,,-2.17500000e-009,-5.19531426e-004
,,,-2.15000000e-009,-5.00000175e-004
,,,-2.12500000e-009,-4.82031424e-004
,,,-2.10000000e-009,-4.71093923e-004
,,,-2.07500000e-009,-4.65625173e-004
,,,-2.05000000e-009,-4.65625173e-004
,,,-2.02500000e-009,-4.69531423e-004
,,,-2.00000000e-009,-4.78125174e-004
,,,-1.97500000e-009,-4.88281424e-004
,,,-1.95000000e-009,-5.00000175e-004
,,,-1.92500000e-009,-5.06250176e-004
,,,-1.90000000e-009,-5.11718926e-004
,,,-1.87500000e-009,-5.14843926e-004
,,,-1.85000000e-009,-5.16406426e-004
,,,-1.82500000e-009,-5.16406426e-004
,,,-1.80000000e-009,-5.13281426e-004
,,,-1.77500000e-009,-5.07812676e-004
,,,-1.75000000e-009,-5.00000175e-004
,,,-1.72500000e-009,-4.87500174e-004
,,,-1.70000000e-009,-4.71875173e-004
,,,-1.67500000e-009,-4.53125172e-004
,,,-1.65000000e-009,-4.30468920e-004
,,,-1.62500000e-009,-4.03125168e-004
,,,-1.60000000e-009,-3.71875166e-004
,,,-1.57500000e-009,-3.37500164e-004
,,,-1.55000000e-009,-3.00000161e-004
,,,-1.52500000e-009,-2.64062658e-004
,,,-1.50000000e-009,-2.28906406e-004
,,,-1.47500000e-009,-1.95312654e-004
,,,-1.45000000e-009,-1.65625151e-004
,,,-1.42500000e-009,-1.39843900e-004
,,,-1.40000000e-009,-1.20312648e-004
,,,-1.37500000e-009,-1.07031397e-004
,,,-1.35000000e-009,-1.00000147e-004
,,,-1.32500000e-009,-1.07031397e-004
,,,-1.30000000e-009,-1.18750148e-004
,,,-1.27500000e-009,-1.31250149e-004
,,,-1.25000000e-009,-1.40625150e-004
,,,-1.22500000e-009,-1.44531400e-004
,,,-1.20000000e-009,-1.39843900e-004
,,,-1.17500000e-009,-1.25000149e-004
,,,-1.15000000e-009,-1.00000147e-004
,,,-1.12500000e-009,-8.04688954e-005
,,,-1.10000000e-009,-5.54688936e-005
,,,-1.07500000e-009,-2.57813915e-005
,,,-1.05000000e-009,6.24986074e-006
,,,-1.02500000e-009,3.74998630e-005
,,,-1.00000000e-009,6.56248649e-005
,,,-9.75000000e-010,8.74998665e-005
,,,-9.50000000e-010,9.99998674e-005
,,,-9.25000000e-010,7.03123653e-005
,,,-9.00000000e-010,2.49998621e-005
,,,-8.75000000e-010,-3.04688919e-005
,,,-8.50000000e-010,-9.21876462e-005
,,,-8.25000000e-010,-1.53906401e-004
,,,-8.00000000e-010,-2.11718905e-004
,,,-7.75000000e-010,-2.60937658e-004
,,,-7.50000000e-010,-3.00000161e-004
,,,-7.25000000e-010,-3.71875166e-004
,,,-7.00000000e-010,-4.39062671e-004
,,,-6.75000000e-010,-5.00781425e-004
,,,-6.50000000e-010,-5.53906429e-004
,,,-6.25000000e-010,-6.00000182e-004
,,,-6.00000000e-010,-6.37500185e-004
,,,-5.75000000e-010,-6.70312687e-004
,,,-5.50000000e-010,-7.00000189e-004
,,,-5.25000000e-010,-7.83593945e-004
,,,-5.00000000e-010,-8.78125202e-004
,,,-4.75000000e-010,-9.81250209e-004
,,,-4.50000000e-010,-1.08828147e-003
,,,-4.25000000e-010,-1.19609397e-003
,,,-4.00000000e-010,-1.30078148e-003
,,,-3.75000000e-010,-1.40156274e-003
,,,-3.50000000e-010,-1.50000025e-003
,,,-3.25000000e-010,-1.64921901e-003
,,,-3.00000000e-010,-1.81171902e-003
,,,-2.75000000e-010,-1.98828153e-003
,,,-2.50000000e-010,-2.17812529e-003
,,,-2.25000000e-010,-2.38359406e-003
,,,-2.00000000e-010,-2.60390657e-003
,,,-1.75000000e-010,-2.84218784e-003
,,,-1.50000000e-010,-3.10000036e-003
,,,-1.25000000e-010,-3.41171913e-003
,,,-1.00000000e-010,-3.75234416e-003
,,,-7.50000000e-011,-4.11640668e-003
,,,-5.00000000e-011,-4.49843796e-003
,,,-2.50000000e-011,-4.89375049e-003
,,,0.00000000e+000,-5.29453176e-003
,,,2.50000000e-011,-5.69843804e-003
,,,5.00000000e-011,-6.10000057e-003
,,,7.50000000e-011,-6.49375060e-003
,,,1.00000000e-010,-6.88906313e-003
,,,1.25000000e-010,-7.28515691e-003
,,,1.50000000e-010,-7.68437568e-003
,,,1.75000000e-010,-8.08515696e-003
,,,2.00000000e-010,-8.48828199e-003
,,,2.25000000e-010,-8.89375077e-003
,,,2.50000000e-010,-9.30000080e-003
,,,2.75000000e-010,-9.66406332e-003
,,,3.00000000e-010,-1.00296883e-002
,,,3.25000000e-010,-1.03953134e-002
,,,3.50000000e-010,-1.07593759e-002
,,,3.75000000e-010,-1.11164072e-002
,,,4.00000000e-010,-1.14632822e-002
,,,4.25000000e-010,-1.17921885e-002
,,,4.50000000e-010,-1.21000010e-002
,,,4.75000000e-010,-1.23054698e-002
,,,5.00000000e-010,-1.24898448e-002
,,,5.25000000e-010,-1.26554698e-002
,,,5.50000000e-010,-1.28078135e-002
,,,5.75000000e-010,-1.29476573e-002
,,,6.00000000e-010,-1.30773448e-002
,,,6.25000000e-010,-1.31953136e-002
,,,6.50000000e-010,-1.33000011e-002
,,,6.75000000e-010,-1.32984386e-002
,,,7.00000000e-010,-1.32859386e-002
,,,7.25000000e-010,-1.32617198e-002
,,,7.50000000e-010,-1.32257823e-002
,,,7.75000000e-010,-1.31750011e-002
,,,8.00000000e-010,-1.31070323e-002
,,,8.25000000e-010,-1.30164073e-002
,,,8.50000000e-010,-1.29000011e-002
,,,8.75000000e-010,-1.26726573e-002
,,,9.00000000e-010,-1.24273448e-002
,,,9.25000000e-010,-1.21703135e-002
,,,9.50000000e-010,-1.19078135e-002
,,,9.75000000e-010,-1.16460947e-002
,,,1.00000000e-009,-1.13898447e-002
,,,1.02500000e-009,-1.11406259e-002
,,,1.05000000e-009,-1.09000009e-002
,,,1.07500000e-009,-1.06085946e-002
,,,1.10000000e-009,-1.03265634e-002
,,,1.12500000e-009,-1.00523446e-002
,,,1.15000000e-009,-9.78437583e-003
,,,1.17500000e-009,-9.51953206e-003
,,,1.20000000e-009,-9.25312579e-003
,,,1.22500000e-009,-8.98046953e-003
,,,1.25000000e-009,-8.70000076e-003
,,,1.27500000e-009,-8.38046948e-003
,,,1.30000000e-009,-8.05000071e-003
,,,1.32500000e-009,-7.71093819e-003
,,,1.35000000e-009,-7.36953191e-003
,,,1.37500000e-009,-7.03125064e-003
,,,1.40000000e-009,-6.70312561e-003
,,,1.42500000e-009,-6.39140684e-003
,,,1.45000000e-009,-6.10000057e-003
,,,1.47500000e-009,-5.83671930e-003
,,,1.50000000e-009,-5.59218804e-003
,,,1.52500000e-009,-5.36640677e-003
,,,1.55000000e-009,-5.15859425e-003
,,,1.57500000e-009,-4.96953174e-003
,,,1.60000000e-009,-4.79843798e-003
,,,1.62500000e-009,-4.64218797e-003
,,,1.65000000e-009,-4.50000046e-003
,,,1.67500000e-009,-4.38906295e-003
,,,1.70000000e-009,-4.27500044e-003
,,,1.72500000e-009,-4.15546918e-003
,,,1.75000000e-009,-4.02890667e-003
,,,1.77500000e-009,-3.89765667e-003
,,,1.80000000e-009,-3.76406291e-003
,,,1.82500000e-009,-3.63046915e-003
,,,1.85000000e-009,-3.50000039e-003
,,,1.87500000e-009,-3.40078163e-003
,,,1.90000000e-009,-3.29609412e-003
,,,1.92500000e-009,-3.18906287e-003
,,,1.95000000e-009,-3.07968786e-003
,,,1.97500000e-009,-2.97343785e-003
,,,2.00000000e-009,-2.87265659e-003
,,,2.02500000e-009,-2.78046909e-003
,,,2.05000000e-009,-2.70000033e-003
,,,2.07500000e-009,-2.65390658e-003
,,,2.10000000e-009,-2.60781282e-003
,,,2.12500000e-009,-2.56093782e-003
,,,2.15000000e-009,-2.51171907e-003
,,,2.17500000e-009,-2.46015656e-003
,,,2.20000000e-009,-2.40781281e-003
,,,2.22500000e-009,-2.35390656e-003
,,,2.25000000e-009,-2.30000030e-003
,,,2.27500000e-009,-2.26406280e-003
,,,2.30000000e-009,-2.22031280e-003
,,,2.32500000e-009,-2.16953154e-003
,,,2.35000000e-009,-2.11406279e-003
,,,2.37500000e-009,-2.05625029e-003
,,,2.40000000e-009,-1.99921903e-003
,,,2.42500000e-009,-1.94609403e-003
,,,2.45000000e-009,-1.90000027e-003
,,,2.47500000e-009,-1.87109402e-003
,,,2.50000000e-009,-1.84453152e-003
,,,2.52500000e-009,-1.81953152e-003
,,,2.55000000e-009,-1.79609402e-003
,,,2.57500000e-009,-1.77265652e-003
,,,2.60000000e-009,-1.75000026e-003
,,,2.62500000e-009,-1.72578151e-003
,,,2.65000000e-009,-1.70000026e-003
,,,2.67500000e-009,-1.67656276e-003
,,,2.70000000e-009,-1.64531276e-003
,,,2.72500000e-009,-1.60546900e-003
,,,2.75000000e-009,-1.55703150e-003
,,,2.77500000e-009,-1.50000025e-003
,,,2.80000000e-009,-1.43750024e-003
,,,2.82500000e-009,-1.36953149e-003
,,,2.85000000e-009,-1.30000023e-003
,,,2.87500000e-009,-1.23515648e-003
,,,2.90000000e-009,-1.17109397e-003
,,,2.92500000e-009,-1.10859397e-003
,,,2.95000000e-009,-1.05000021e-003
,,,2.97500000e-009,-9.98437710e-004
,,,3.00000000e-009,-9.55468957e-004
,,,3.02500000e-009,-9.22656455e-004
,,,3.05000000e-009,-9.00000203e-004
,,,3.07500000e-009,-8.92187703e-004
,,,3.10000000e-009,-8.90625203e-004
,,,3.12500000e-009,-8.93750203e-004
,,,3.15000000e-009,-8.99218953e-004
,,,3.17500000e-009,-9.03906454e-004
,,,3.20000000e-009,-9.07031454e-004
,,,3.22500000e-009,-9.05468954e-004
,,,3.25000000e-009,-9.00000203e-004
,,,3.27500000e-009,-8.92187703e-004
,,,3.30000000e-009,-8.76562702e-004
,,,3.32500000e-009,-8.54687700e-004
,,,3.35000000e-009,-8.26562698e-004
,,,3.37500000e-009,-7.94531446e-004
,,,3.40000000e-009,-7.60937694e-004
,,,3.42500000e-009,-7.28906441e-004
,,,3.45000000e-009,-7.00000189e-004
,,,3.47500000e-009,-6.81250188e-004
,,,3.50000000e-009,-6.68750187e-004
,,,3.52500000e-009,-6.62500187e-004
,,,3.55000000e-009,-6.60937686e-004
,,,3.57500000e-009,-6.65625187e-004
,,,3.60000000e-009,-6.74218937e-004
,,,3.62500000e-009,-6.85937688e-004
,,,3.65000000e-009,-7.00000189e-004
,,,3.67500000e-009,-7.17187690e-004
,,,3.70000000e-009,-7.32031442e-004
,,,3.72500000e-009,-7.42187692e-004
,,,3.75000000e-009,-7.46875193e-004
,,,3.77500000e-009,-7.44531442e-004
,,,3.80000000e-009,-7.35937692e-004
,,,3.82500000e-009,-7.21093941e-004
,,,3.85000000e-009,-7.00000189e-004
,,,3.87500000e-009,-6.75781438e-004
,,,3.90000000e-009,-6.48437686e-004
,,,3.92500000e-009,-6.17968933e-004
,,,3.95000000e-009,-5.87500181e-004
,,,3.97500000e-009,-5.58593929e-004
,,,4.00000000e-009,-5.32812677e-004
,,,4.02500000e-009,-5.12500176e-004
,,,4.05000000e-009,-5.00000175e-004
,,,4.07500000e-009,-4.96093925e-004
,,,4.10000000e-009,-5.02343925e-004
,,,4.12500000e-009,-5.16406426e-004
,,,4.15000000e-009,-5.39843928e-004
,,,4.17500000e-009,-5.71093930e-004
,,,4.20000000e-009,-6.09375183e-004
,,,4.22500000e-009,-6.53125186e-004
,,,4.25000000e-009,-7.00000189e-004
,,,4.27500000e-009,-7.46093943e-004
,,,4.30000000e-009,-7.89843946e-004
,,,4.32500000e-009,-8.28125198e-004
,,,4.35000000e-009,-8.60156451e-004
,,,4.37500000e-009,-8.84375202e-004
,,,4.40000000e-009,-8.98437703e-004
,,,4.42500000e-009,-9.03906454e-004
,,,4.45000000e-009,-9.00000203e-004
,,,4.47500000e-009,-8.82812702e-004
,,,4.50000000e-009,-8.59375201e-004
,,,4.52500000e-009,-8.30468948e-004
,,,4.55000000e-009,-7.99218946e-004
,,,4.57500000e-009,-7.68750194e-004
,,,4.60000000e-009,-7.40625192e-004
,,,4.62500000e-009,-7.17187690e-004
,,,4.65000000e-009,-7.00000189e-004
,,,4.67500000e-009,-6.86718938e-004
,,,4.70000000e-009,-6.80468938e-004
,,,4.72500000e-009,-6.79687688e-004
,,,4.75000000e-009,-6.82812688e-004
,,,4.77500000e-009,-6.89062688e-004
,,,4.80000000e-009,-6.94531439e-004
,,,4.82500000e-009,-6.99218939e-004
,,,4.85000000e-009,-7.00000189e-004
,,,4.87500000e-009,-6.93750189e-004
,,,4.90000000e-009,-6.82031438e-004
,,,4.92500000e-009,-6.64062687e-004
,,,4.95000000e-009,-6.39843935e-004
,,,4.97500000e-009,-6.10156433e-004
,,,5.00000000e-009,-5.75781430e-004
,,,5.02500000e-009,-5.38281428e-004
,,,5.05000000e-009,-5.00000175e-004
,,,5.07500000e-009,-4.60937672e-004
,,,5.10000000e-009,-4.25000170e-004
,,,5.12500000e-009,-3.92187667e-004
,,,5.15000000e-009,-3.64062665e-004
,,,5.17500000e-009,-3.40625164e-004
,,,5.20000000e-009,-3.21875162e-004
,,,5.22500000e-009,-3.08593912e-004
,,,5.25000000e-009,-3.00000161e-004
,,,5.27500000e-009,-2.97656411e-004
,,,5.30000000e-009,-2.98437661e-004
,,,5.32500000e-009,-3.00781411e-004
,,,5.35000000e-009,-3.03125161e-004
,,,5.37500000e-009,-3.05468911e-004
,,,5.40000000e-009,-3.05468911e-004
,,,5.42500000e-009,-3.03906411e-004
,,,5.45000000e-009,-3.00000161e-004
,,,5.47500000e-009,-2.96093911e-004
,,,5.50000000e-009,-2.90625160e-004
,,,5.52500000e-009,-2.85156410e-004
,,,5.55000000e-009,-2.80468910e-004
,,,5.57500000e-009,-2.78125159e-004
,,,5.60000000e-009,-2.79687659e-004
,,,5.62500000e-009,-2.86718910e-004
,,,5.65000000e-009,-3.00000161e-004
,,,5.67500000e-009,-3.21093912e-004
,,,5.70000000e-009,-3.46875164e-004
,,,5.72500000e-009,-3.76562666e-004
,,,5.75000000e-009,-4.06250168e-004
,,,5.77500000e-009,-4.35937671e-004
,,,5.80000000e-009,-4.61718922e-004
,,,5.82500000e-009,-4.83593924e-004
,,,5.85000000e-009,-5.00000175e-004
,,,5.87500000e-009,-5.09375176e-004
