RawData/SinglePhotoelectron/L6_2pt2C_5mV/wave019_Ch3.csv

"Record Length",1000,"Points",-7.72500000e-009,6.09374903e-004
"Sample Interval",2.50000000e-011,s,-7.70000000e-009,6.10937404e-004
"Trigger Point",309,"Samples",-7.67500000e-009,5.98437403e-004
"Trigger Time",5.87224839e-012,s,-7.65000000e-009,5.73437401e-004
"",,,-7.62500000e-009,5.39843649e-004
"Horizontal Offset",-7.72500000e-009,s,-7.60000000e-009,4.99999896e-004
,,,-7.57500000e-009,4.56249893e-004
,,,-7.55000000e-009,4.14843640e-004
,,,-7.52500000e-009,3.78124887e-004
,,,-7.50000000e-009,3.48437385e-004
,,,-7.47500000e-009,3.25781133e-004
,,,-7.45000000e-009,3.10156132e-004
,,,-7.42500000e-009,3.02343632e-004
,,,-7.40000000e-009,2.99999882e-004
,,,-7.37500000e-009,3.02343632e-004
,,,-7.35000000e-009,3.07031132e-004
,,,-7.32500000e-009,3.12499882e-004
,,,-7.30000000e-009,3.17187383e-004
,,,-7.27500000e-009,3.19531133e-004
,,,-7.25000000e-009,3.17968633e-004
,,,-7.22500000e-009,3.10937382e-004
,,,-7.20000000e-009,2.99999882e-004
,,,-7.17500000e-009,2.85156130e-004
,,,-7.15000000e-009,2.67968629e-004
,,,-7.12500000e-009,2.53124878e-004
,,,-7.10000000e-009,2.42968627e-004
,,,-7.07500000e-009,2.40624877e-004
,,,-7.05000000e-009,2.48437378e-004
,,,-7.02500000e-009,2.67968629e-004
,,,-7.00000000e-009,2.99999882e-004
,,,-6.97500000e-009,3.40624884e-004
,,,-6.95000000e-009,3.91406138e-004
,,,-6.92500000e-009,4.48437392e-004
,,,-6.90000000e-009,5.08593646e-004
,,,-6.87500000e-009,5.67968651e-004
,,,-6.85000000e-009,6.22656154e-004
,,,-6.82500000e-009,6.67187408e-004
,,,-6.80000000e-009,6.99999910e-004
,,,-6.77500000e-009,7.14843661e-004
,,,-6.75000000e-009,7.14062411e-004
,,,-6.72500000e-009,6.98437410e-004
,,,-6.70000000e-009,6.71093658e-004
,,,-6.67500000e-009,6.34374905e-004
,,,-6.65000000e-009,5.91406152e-004
,,,-6.62500000e-009,5.45312399e-004
,,,-6.60000000e-009,4.99999896e-004
,,,-6.57500000e-009,4.57031143e-004
,,,-6.55000000e-009,4.17968640e-004
,,,-6.52500000e-009,3.85937388e-004
,,,-6.50000000e-009,3.60156136e-004
,,,-6.47500000e-009,3.39843634e-004
,,,-6.45000000e-009,3.24218633e-004
,,,-6.42500000e-009,3.11718632e-004
,,,-6.40000000e-009,2.99999882e-004
,,,-6.37500000e-009,2.89062381e-004
,,,-6.35000000e-009,2.74999880e-004
,,,-6.32500000e-009,2.57812379e-004
,,,-6.30000000e-009,2.36718627e-004
,,,-6.27500000e-009,2.09374875e-004
,,,-6.25000000e-009,1.77343623e-004
,,,-6.22500000e-009,1.40624870e-004
,,,-6.20000000e-009,9.99998674e-005
,,,-6.17500000e-009,5.85936144e-005
,,,-6.15000000e-009,1.79686116e-005
,,,-6.12500000e-009,-2.03126411e-005
,,,-6.10000000e-009,-5.39063935e-005
,,,-6.07500000e-009,-7.96876453e-005
,,,-6.05000000e-009,-9.68751466e-005
,,,-6.02500000e-009,-1.03906397e-004
,,,-6.00000000e-009,-1.00000147e-004
,,,-5.97500000e-009,-8.20313955e-005
,,,-5.95000000e-009,-5.62501437e-005
,,,-5.92500000e-009,-2.57813915e-005
,,,-5.90000000e-009,7.03111080e-006
,,,-5.87500000e-009,3.90623631e-005
,,,-5.85000000e-009,6.64061150e-005
,,,-5.82500000e-009,8.74998665e-005
,,,-5.80000000e-009,9.99998674e-005
,,,-5.77500000e-009,1.07812368e-004
,,,-5.75000000e-009,1.07031118e-004
,,,-5.72500000e-009,1.00781117e-004
,,,-5.70000000e-009,9.21873668e-005
,,,-5.67500000e-009,8.43748663e-005
,,,-5.65000000e-009,8.20311161e-005
,,,-5.62500000e-009,8.67186164e-005
,,,-5.60000000e-009,9.99998674e-005
,,,-5.57500000e-009,1.24218619e-004
,,,-5.55000000e-009,1.54687371e-004
,,,-5.52500000e-009,1.89062374e-004
,,,-5.50000000e-009,2.24218626e-004
,,,-5.47500000e-009,2.56249878e-004
,,,-5.45000000e-009,2.82031130e-004
,,,-5.42500000e-009,2.96874881e-004
,,,-5.40000000e-009,2.99999882e-004
,,,-5.37500000e-009,2.89062381e-004
,,,-5.35000000e-009,2.67187379e-004
,,,-5.32500000e-009,2.35937377e-004
,,,-5.30000000e-009,1.99999874e-004
,,,-5.27500000e-009,1.64843622e-004
,,,-5.25000000e-009,1.33593620e-004
,,,-5.22500000e-009,1.10937368e-004
,,,-5.20000000e-009,9.99998674e-005
,,,-5.17500000e-009,1.02343618e-004
,,,-5.15000000e-009,1.17187369e-004
,,,-5.12500000e-009,1.42968620e-004
,,,-5.10000000e-009,1.76562373e-004
,,,-5.07500000e-009,2.12499875e-004
,,,-5.05000000e-009,2.48437378e-004
,,,-5.02500000e-009,2.78906130e-004
,,,-5.00000000e-009,2.99999882e-004
,,,-4.97500000e-009,3.07812382e-004
,,,-4.95000000e-009,3.03124882e-004
,,,-4.92500000e-009,2.86718631e-004
,,,-4.90000000e-009,2.60156129e-004
,,,-4.87500000e-009,2.25781126e-004
,,,-4.85000000e-009,1.85156123e-004
,,,-4.82500000e-009,1.42968620e-004
,,,-4.80000000e-009,9.99998674e-005
,,,-4.77500000e-009,6.09373646e-005
,,,-4.75000000e-009,2.49998621e-005
,,,-4.72500000e-009,-5.46889009e-006
,,,-4.70000000e-009,-3.12501419e-005
,,,-4.67500000e-009,-5.23438934e-005
,,,-4.65000000e-009,-7.03126447e-005
,,,-4.62500000e-009,-8.59376458e-005
,,,-4.60000000e-009,-1.00000147e-004
,,,-4.57500000e-009,-1.09375147e-004
,,,-4.55000000e-009,-1.17968898e-004
,,,-4.52500000e-009,-1.24218898e-004
,,,-4.50000000e-009,-1.27343899e-004
,,,-4.47500000e-009,-1.27343899e-004
,,,-4.45000000e-009,-1.23437648e-004
,,,-4.42500000e-009,-1.14062648e-004
,,,-4.40000000e-009,-1.00000147e-004
,,,-4.37500000e-009,-7.73438952e-005
,,,-4.35000000e-009,-5.23438934e-005
,,,-4.32500000e-009,-2.42188914e-005
,,,-4.30000000e-009,4.68736063e-006
,,,-4.27500000e-009,3.28123626e-005
,,,-4.25000000e-009,5.93748645e-005
,,,-4.22500000e-009,8.20311161e-005
,,,-4.20000000e-009,9.99998674e-005
,,,-4.17500000e-009,1.14843618e-004
,,,-4.15000000e-009,1.23437369e-004
,,,-4.12500000e-009,1.27343619e-004
,,,-4.10000000e-009,1.26562369e-004
,,,-4.07500000e-009,1.22656119e-004
,,,-4.05000000e-009,1.16406119e-004
,,,-4.02500000e-009,1.08593618e-004
,,,-4.00000000e-009,9.99998674e-005
,,,-3.97500000e-009,9.37498669e-005
,,,-3.95000000e-009,8.82811166e-005
,,,-3.92500000e-009,8.51561163e-005
,,,-3.90000000e-009,8.43748663e-005
,,,-3.87500000e-009,8.51561163e-005
,,,-3.85000000e-009,8.90623666e-005
,,,-3.82500000e-009,9.37498669e-005
,,,-3.80000000e-009,9.99998674e-005
,,,-3.77500000e-009,1.07031118e-004
,,,-3.75000000e-009,1.13281118e-004
,,,-3.72500000e-009,1.18749869e-004
,,,-3.70000000e-009,1.21093619e-004
,,,-3.67500000e-009,1.20312369e-004
,,,-3.65000000e-009,1.17187369e-004
,,,-3.62500000e-009,1.10156118e-004
,,,-3.60000000e-009,9.99998674e-005
,,,-3.57500000e-009,8.90623666e-005
,,,-3.55000000e-009,7.89061159e-005
,,,-3.52500000e-009,6.95311152e-005
,,,-3.50000000e-009,6.48436149e-005
,,,-3.47500000e-009,6.40623648e-005
,,,-3.45000000e-009,6.95311152e-005
,,,-3.42500000e-009,8.12498661e-005
,,,-3.40000000e-009,9.99998674e-005
,,,-3.37500000e-009,1.24218619e-004
,,,-3.35000000e-009,1.53124871e-004
,,,-3.32500000e-009,1.84374873e-004
,,,-3.30000000e-009,2.16406126e-004
,,,-3.27500000e-009,2.46093628e-004
,,,-3.25000000e-009,2.71874880e-004
,,,-3.22500000e-009,2.90624881e-004
,,,-3.20000000e-009,2.99999882e-004
,,,-3.17500000e-009,2.99999882e-004
,,,-3.15000000e-009,2.89843631e-004
,,,-3.12500000e-009,2.71093629e-004
,,,-3.10000000e-009,2.43749878e-004
,,,-3.07500000e-009,2.10937375e-004
,,,-3.05000000e-009,1.74218623e-004
,,,-3.02500000e-009,1.36718620e-004
,,,-3.00000000e-009,9.99998674e-005
,,,-2.97500000e-009,6.79686151e-005
,,,-2.95000000e-009,4.29686133e-005
,,,-2.92500000e-009,2.73436122e-005
,,,-2.90000000e-009,2.10936118e-005
,,,-2.87500000e-009,2.57811121e-005
,,,-2.85000000e-009,4.14061132e-005
,,,-2.82500000e-009,6.64061150e-005
,,,-2.80000000e-009,9.99998674e-005
,,,-2.77500000e-009,1.40624870e-004
,,,-2.75000000e-009,1.82812373e-004
,,,-2.72500000e-009,2.24218626e-004
,,,-2.70000000e-009,2.60156129e-004
,,,-2.67500000e-009,2.88281131e-004
,,,-2.65000000e-009,3.04687382e-004
,,,-2.62500000e-009,3.09374882e-004
,,,-2.60000000e-009,2.99999882e-004
,,,-2.57500000e-009,2.78124880e-004
,,,-2.55000000e-009,2.46874878e-004
,,,-2.52500000e-009,2.10156125e-004
,,,-2.50000000e-009,1.73437373e-004
,,,-2.47500000e-009,1.39843620e-004
,,,-2.45000000e-009,1.14843618e-004
,,,-2.42500000e-009,1.00781117e-004
,,,-2.40000000e-009,9.99998674e-005
,,,-2.37500000e-009,1.14062368e-004
,,,-2.35000000e-009,1.39843620e-004
,,,-2.32500000e-009,1.74218623e-004
,,,-2.30000000e-009,2.11718625e-004
,,,-2.27500000e-009,2.47656128e-004
,,,-2.25000000e-009,2.76562380e-004
,,,-2.22500000e-009,2.95312381e-004
,,,-2.20000000e-009,2.99999882e-004
,,,-2.17500000e-009,2.91406131e-004
,,,-2.15000000e-009,2.69531129e-004
,,,-2.12500000e-009,2.37499877e-004
,,,-2.10000000e-009,1.99999874e-004
,,,-2.07500000e-009,1.63281122e-004
,,,-2.05000000e-009,1.31249870e-004
,,,-2.02500000e-009,1.09374868e-004
,,,-2.00000000e-009,9.99998674e-005
,,,-1.97500000e-009,1.06249868e-004
,,,-1.95000000e-009,1.25781119e-004
,,,-1.92500000e-009,1.56249871e-004
,,,-1.90000000e-009,1.92968624e-004
,,,-1.87500000e-009,2.30468627e-004
,,,-1.85000000e-009,2.63281129e-004
,,,-1.82500000e-009,2.88281131e-004
,,,-1.80000000e-009,2.99999882e-004
,,,-1.77500000e-009,2.96874881e-004
,,,-1.75000000e-009,2.79687380e-004
,,,-1.72500000e-009,2.51562378e-004
,,,-1.70000000e-009,2.16406126e-004
,,,-1.67500000e-009,1.78906123e-004
,,,-1.65000000e-009,1.44531121e-004
,,,-1.62500000e-009,1.17187369e-004
,,,-1.60000000e-009,9.99998674e-005
,,,-1.57500000e-009,9.45311170e-005
,,,-1.55000000e-009,1.02343618e-004
,,,-1.52500000e-009,1.21874869e-004
,,,-1.50000000e-009,1.50781121e-004
,,,-1.47500000e-009,1.86718624e-004
,,,-1.45000000e-009,2.26562376e-004
,,,-1.42500000e-009,2.64843629e-004
,,,-1.40000000e-009,2.99999882e-004
,,,-1.37500000e-009,3.21093633e-004
,,,-1.35000000e-009,3.33593634e-004
,,,-1.32500000e-009,3.37499884e-004
,,,-1.30000000e-009,3.34374884e-004
,,,-1.27500000e-009,3.26562383e-004
,,,-1.25000000e-009,3.17187383e-004
,,,-1.22500000e-009,3.07812382e-004
,,,-1.20000000e-009,2.99999882e-004
,,,-1.17500000e-009,2.83593630e-004
,,,-1.15000000e-009,2.69531129e-004
,,,-1.12500000e-009,2.60937379e-004
,,,-1.10000000e-009,2.57812379e-004
,,,-1.07500000e-009,2.60156129e-004
,,,-1.05000000e-009,2.69531129e-004
,,,-1.02500000e-009,2.83593630e-004
,,,-1.00000000e-009,2.99999882e-004
,,,-9.75000000e-010,2.90624881e-004
,,,-9.50000000e-010,2.74999880e-004
,,,-9.25000000e-010,2.54687378e-004
,,,-9.00000000e-010,2.28906127e-004
,,,-8.75000000e-010,2.00781125e-004
,,,-8.50000000e-010,1.69531122e-004
,,,-8.25000000e-010,1.35937370e-004
,,,-8.00000000e-010,9.99998674e-005
,,,-7.75000000e-010,2.26561119e-005
,,,-7.50000000e-010,-6.25001441e-005
,,,-7.25000000e-010,-1.51562650e-004
,,,-7.00000000e-010,-2.38281407e-004
,,,-6.75000000e-010,-3.20312662e-004
,,,-6.50000000e-010,-3.92187667e-004
,,,-6.25000000e-010,-4.51562672e-004
,,,-6.00000000e-010,-5.00000175e-004
,,,-5.75000000e-010,-5.85156431e-004
,,,-5.50000000e-010,-6.69531437e-004
,,,-5.25000000e-010,-7.50781443e-004
,,,-5.00000000e-010,-8.28125198e-004
,,,-4.75000000e-010,-9.00781453e-004
,,,-4.50000000e-010,-9.68750208e-004
,,,-4.25000000e-010,-1.03359396e-003
,,,-4.00000000e-010,-1.10000022e-003
,,,-3.75000000e-010,-1.22187523e-003
,,,-3.50000000e-010,-1.36250024e-003
,,,-3.25000000e-010,-1.52031275e-003
,,,-3.00000000e-010,-1.69296901e-003
,,,-2.75000000e-010,-1.87812527e-003
,,,-2.50000000e-010,-2.07500029e-003
,,,-2.25000000e-010,-2.28203155e-003
,,,-2.00000000e-010,-2.50000032e-003
,,,-1.75000000e-010,-2.76875034e-003
,,,-1.50000000e-010,-3.05781286e-003
,,,-1.25000000e-010,-3.36718788e-003
,,,-1.00000000e-010,-3.69140665e-003
,,,-7.50000000e-011,-4.02968792e-003
,,,-5.00000000e-011,-4.37812545e-003
,,,-2.50000000e-011,-4.73515672e-003
,,,0.00000000e+000,-5.10000050e-003
,,,2.50000000e-011,-5.48125053e-003
,,,5.00000000e-011,-5.87421931e-003
,,,7.50000000e-011,-6.27656308e-003
,,,1.00000000e-010,-6.68437561e-003
,,,1.25000000e-010,-7.09453189e-003
,,,1.50000000e-010,-7.50234442e-003
,,,1.75000000e-010,-7.90468820e-003
,,,2.00000000e-010,-8.30000073e-003
,,,2.25000000e-010,-8.66093825e-003
,,,2.50000000e-010,-9.01875078e-003
,,,2.75000000e-010,-9.37421955e-003
,,,3.00000000e-010,-9.72812583e-003
,,,3.25000000e-010,-1.00796884e-002
,,,3.50000000e-010,-1.04265634e-002
,,,3.75000000e-010,-1.07679697e-002
,,,4.00000000e-010,-1.11000009e-002
,,,4.25000000e-010,-1.13656259e-002
,,,4.50000000e-010,-1.16226572e-002
,,,4.75000000e-010,-1.18726572e-002
,,,5.00000000e-010,-1.21117197e-002
,,,5.25000000e-010,-1.23382823e-002
,,,5.50000000e-010,-1.25476573e-002
,,,5.75000000e-010,-1.27359385e-002
,,,6.00000000e-010,-1.29000011e-002
,,,6.25000000e-010,-1.29609386e-002
,,,6.50000000e-010,-1.30039073e-002
,,,6.75000000e-010,-1.30351573e-002
,,,7.00000000e-010,-1.30570323e-002
,,,7.25000000e-010,-1.30734386e-002
,,,7.50000000e-010,-1.30867198e-002
,,,7.75000000e-010,-1.30960948e-002
,,,8.00000000e-010,-1.31000011e-002
,,,8.25000000e-010,-1.30179698e-002
,,,8.50000000e-010,-1.29335948e-002
,,,8.75000000e-010,-1.28468760e-002
,,,9.00000000e-010,-1.27578135e-002
,,,9.25000000e-010,-1.26617198e-002
,,,9.50000000e-010,-1.25562510e-002
,,,9.75000000e-010,-1.24367198e-002
,,,1.00000000e-009,-1.23000010e-002
,,,1.02500000e-009,-1.20781260e-002
,,,1.05000000e-009,-1.18437510e-002
,,,1.07500000e-009,-1.16031260e-002
,,,1.10000000e-009,-1.13625009e-002
,,,1.12500000e-009,-1.11289072e-002
,,,1.15000000e-009,-1.09046884e-002
,,,1.17500000e-009,-1.06953134e-002
,,,1.20000000e-009,-1.05000009e-002
,,,1.22500000e-009,-1.02757821e-002
,,,1.25000000e-009,-1.00640634e-002
,,,1.27500000e-009,-9.86250084e-003
,,,1.30000000e-009,-9.66953207e-003
,,,1.32500000e-009,-9.48046956e-003
,,,1.35000000e-009,-9.29218830e-003
,,,1.37500000e-009,-9.10000078e-003
,,,1.40000000e-009,-8.90000077e-003
,,,1.42500000e-009,-8.66718825e-003
,,,1.45000000e-009,-8.41953199e-003
,,,1.47500000e-009,-8.16093822e-003
,,,1.50000000e-009,-7.89609445e-003
,,,1.52500000e-009,-7.63125068e-003
,,,1.55000000e-009,-7.37343816e-003
,,,1.57500000e-009,-7.12812564e-003
,,,1.60000000e-009,-6.90000063e-003
,,,1.62500000e-009,-6.68984436e-003
,,,1.65000000e-009,-6.49140685e-003
,,,1.67500000e-009,-6.30390684e-003
,,,1.70000000e-009,-6.12656307e-003
,,,1.72500000e-009,-5.95859431e-003
,,,1.75000000e-009,-5.79921930e-003
,,,1.77500000e-009,-5.64687554e-003
,,,1.80000000e-009,-5.50000053e-003
,,,1.82500000e-009,-5.36640677e-003
,,,1.85000000e-009,-5.22500051e-003
,,,1.87500000e-009,-5.07421925e-003
,,,1.90000000e-009,-4.91796924e-003
,,,1.92500000e-009,-4.75859423e-003
,,,1.95000000e-009,-4.60000047e-003
,,,1.97500000e-009,-4.44609420e-003
,,,2.00000000e-009,-4.30000044e-003
,,,2.02500000e-009,-4.17968794e-003
,,,2.05000000e-009,-4.05781293e-003
,,,2.07500000e-009,-3.93437542e-003
,,,2.10000000e-009,-3.80937541e-003
,,,2.12500000e-009,-3.68281290e-003
,,,2.15000000e-009,-3.55468789e-003
,,,2.17500000e-009,-3.42734413e-003
,,,2.20000000e-009,-3.30000037e-003
,,,2.22500000e-009,-3.19140662e-003
,,,2.25000000e-009,-3.07500036e-003
,,,2.27500000e-009,-2.95078160e-003
,,,2.30000000e-009,-2.82031284e-003
,,,2.32500000e-009,-2.68671908e-003
,,,2.35000000e-009,-2.55312532e-003
,,,2.37500000e-009,-2.42265656e-003
,,,2.40000000e-009,-2.30000030e-003
,,,2.42500000e-009,-2.20468780e-003
,,,2.45000000e-009,-2.11328154e-003
,,,2.47500000e-009,-2.02578153e-003
,,,2.50000000e-009,-1.94375028e-003
,,,2.52500000e-009,-1.86875027e-003
,,,2.55000000e-009,-1.80234402e-003
,,,2.57500000e-009,-1.74609401e-003
,,,2.60000000e-009,-1.70000026e-003
,,,2.62500000e-009,-1.68046901e-003
,,,2.65000000e-009,-1.66250026e-003
,,,2.67500000e-009,-1.64453151e-003
,,,2.70000000e-009,-1.62343775e-003
,,,2.72500000e-009,-1.59843775e-003
,,,2.75000000e-009,-1.56875025e-003
,,,2.77500000e-009,-1.53593775e-003
,,,2.80000000e-009,-1.50000025e-003
,,,2.82500000e-009,-1.47421899e-003
,,,2.85000000e-009,-1.44375024e-003
,,,2.87500000e-009,-1.41015649e-003
,,,2.90000000e-009,-1.37578149e-003
,,,2.92500000e-009,-1.34531273e-003
,,,2.95000000e-009,-1.32109398e-003
,,,2.97500000e-009,-1.30546898e-003
,,,3.00000000e-009,-1.30000023e-003
,,,3.02500000e-009,-1.31093773e-003
,,,3.05000000e-009,-1.32500023e-003
,,,3.07500000e-009,-1.33906273e-003
,,,3.10000000e-009,-1.34921899e-003
,,,3.12500000e-009,-1.35234399e-003
,,,3.15000000e-009,-1.34687524e-003
,,,3.17500000e-009,-1.32890648e-003
,,,3.20000000e-009,-1.30000023e-003
,,,3.22500000e-009,-1.26015648e-003
,,,3.25000000e-009,-1.20859398e-003
,,,3.27500000e-009,-1.14765647e-003
,,,3.30000000e-009,-1.08359397e-003
,,,3.32500000e-009,-1.02109396e-003
,,,3.35000000e-009,-9.66406458e-004
,,,3.37500000e-009,-9.25000205e-004
,,,3.40000000e-009,-9.00000203e-004
,,,3.42500000e-009,-8.93750203e-004
,,,3.45000000e-009,-9.03906454e-004
,,,3.47500000e-009,-9.26562705e-004
,,,3.50000000e-009,-9.59375208e-004
,,,3.52500000e-009,-9.97656460e-004
,,,3.55000000e-009,-1.03671896e-003
,,,3.57500000e-009,-1.07187522e-003
,,,3.60000000e-009,-1.10000022e-003
,,,3.62500000e-009,-1.11484397e-003
,,,3.65000000e-009,-1.11640647e-003
,,,3.67500000e-009,-1.10312522e-003
,,,3.70000000e-009,-1.07812522e-003
,,,3.72500000e-009,-1.04218771e-003
,,,3.75000000e-009,-9.98437710e-004
,,,3.77500000e-009,-9.50000207e-004
,,,3.80000000e-009,-9.00000203e-004
,,,3.82500000e-009,-8.46093950e-004
,,,3.85000000e-009,-7.93750196e-004
,,,3.87500000e-009,-7.42187692e-004
,,,3.90000000e-009,-6.92187689e-004
,,,3.92500000e-009,-6.42968935e-004
,,,3.95000000e-009,-5.95312682e-004
,,,3.97500000e-009,-5.47656428e-004
,,,4.00000000e-009,-5.00000175e-004
,,,4.02500000e-009,-4.52343922e-004
,,,4.05000000e-009,-4.02343918e-004
,,,4.07500000e-009,-3.51562665e-004
,,,4.10000000e-009,-2.99218911e-004
,,,4.12500000e-009,-2.46093907e-004
,,,4.15000000e-009,-1.93750153e-004
,,,4.17500000e-009,-1.44531400e-004
,,,4.20000000e-009,-1.00000147e-004
,,,4.22500000e-009,-6.64063944e-005
,,,4.25000000e-009,-3.98438925e-005
,,,4.27500000e-009,-2.26563913e-005
,,,4.30000000e-009,-1.64063909e-005
,,,4.32500000e-009,-2.03126411e-005
,,,4.35000000e-009,-3.59376422e-005
,,,4.37500000e-009,-6.32813942e-005
,,,4.40000000e-009,-1.00000147e-004
,,,4.42500000e-009,-1.46093900e-004
,,,4.45000000e-009,-1.93750153e-004
,,,4.47500000e-009,-2.39843907e-004
,,,4.50000000e-009,-2.78125159e-004
,,,4.52500000e-009,-3.06250161e-004
,,,4.55000000e-009,-3.20312662e-004
,,,4.57500000e-009,-3.18750162e-004
,,,4.60000000e-009,-3.00000161e-004
,,,4.62500000e-009,-2.66406409e-004
,,,4.65000000e-009,-2.18750155e-004
,,,4.67500000e-009,-1.60937651e-004
,,,4.70000000e-009,-9.76563966e-005
,,,4.72500000e-009,-3.51563922e-005
,,,4.75000000e-009,2.18748618e-005
,,,4.77500000e-009,6.87498652e-005
,,,4.80000000e-009,9.99998674e-005
,,,4.82500000e-009,1.10156118e-004
,,,4.85000000e-009,1.04687368e-004
,,,4.87500000e-009,8.43748663e-005
,,,4.90000000e-009,5.31248641e-005
,,,4.92500000e-009,1.56248614e-005
,,,4.95000000e-009,-2.57813915e-005
,,,4.97500000e-009,-6.48438943e-005
,,,5.00000000e-009,-1.00000147e-004
,,,5.02500000e-009,-1.28906399e-004
,,,5.05000000e-009,-1.47656400e-004
,,,5.07500000e-009,-1.56250151e-004
,,,5.10000000e-009,-1.55468901e-004
,,,5.12500000e-009,-1.46875150e-004
,,,5.15000000e-009,-1.32812649e-004
,,,5.17500000e-009,-1.16406398e-004
,,,5.20000000e-009,-1.00000147e-004
,,,5.22500000e-009,-8.51563957e-005
,,,5.25000000e-009,-7.50001450e-005
,,,5.27500000e-009,-6.87501446e-005
,,,5.30000000e-009,-6.79688945e-005
,,,5.32500000e-009,-7.18751448e-005
,,,5.35000000e-009,-7.89063953e-005
,,,5.37500000e-009,-8.90626460e-005
,,,5.40000000e-009,-1.00000147e-004
,,,5.42500000e-009,-1.09375147e-004
,,,5.45000000e-009,-1.16406398e-004
,,,5.47500000e-009,-1.21875148e-004
,,,5.50000000e-009,-1.23437648e-004
,,,5.52500000e-009,-1.21875148e-004
,,,5.55000000e-009,-1.17187648e-004
,,,5.57500000e-009,-1.09375147e-004
,,,5.60000000e-009,-1.00000147e-004
,,,5.62500000e-009,-8.98438961e-005
,,,5.65000000e-009,-8.04688954e-005
,,,5.67500000e-009,-7.26563948e-005
,,,5.70000000e-009,-6.79688945e-005
,,,5.72500000e-009,-6.71876445e-005
,,,5.75000000e-009,-7.18751448e-005
,,,5.77500000e-009,-8.28126456e-005
,,,5.80000000e-009,-1.00000147e-004
,,,5.82500000e-009,-1.20312648e-004
,,,5.85000000e-009,-1.45312650e-004
,,,5.87500000e-009,-1.73437652e-004
,,,5.90000000e-009,-2.03906404e-004
,,,5.92500000e-009,-2.33593906e-004
,,,5.95000000e-009,-2.60937658e-004
,,,5.97500000e-009,-2.83593910e-004
