RawData/SinglePhotoelectron/L6_2pt2C_5mV/wave014_Ch3.csv

"Record Length",1000,"Points",-7.72500000e-009,7.34373655e-005
"Sample Interval",2.50000000e-011,s,-7.70000000e-009,8.59361091e-006
"Trigger Point",309,"Samples",-7.67500000e-009,-4.53126429e-005
"Trigger Time",8.41024390e-012,s,-7.65000000e-009,-8.20313955e-005
"",,,-7.62500000e-009,-1.00000147e-004
"Horizontal Offset",-7.72500000e-009,s,-7.60000000e-009,-9.53126464e-005
,,,-7.57500000e-009,-7.34376449e-005
,,,-7.55000000e-009,-3.82813924e-005
,,,-7.52500000e-009,3.90611058e-006
,,,-7.50000000e-009,4.53123635e-005
,,,-7.47500000e-009,7.89061159e-005
,,,-7.45000000e-009,9.92186173e-005
,,,-7.42500000e-009,9.99998674e-005
,,,-7.40000000e-009,8.20311161e-005
,,,-7.37500000e-009,4.29686133e-005
,,,-7.35000000e-009,-1.17188905e-005
,,,-7.32500000e-009,-7.65626451e-005
,,,-7.30000000e-009,-1.44531400e-004
,,,-7.27500000e-009,-2.09375155e-004
,,,-7.25000000e-009,-2.62500158e-004
,,,-7.22500000e-009,-3.00000161e-004
,,,-7.20000000e-009,-3.14062662e-004
,,,-7.17500000e-009,-3.08593912e-004
,,,-7.15000000e-009,-2.86718910e-004
,,,-7.12500000e-009,-2.51562658e-004
,,,-7.10000000e-009,-2.09375155e-004
,,,-7.07500000e-009,-1.66406401e-004
,,,-7.05000000e-009,-1.28125149e-004
,,,-7.02500000e-009,-1.00000147e-004
,,,-7.00000000e-009,-8.51563957e-005
,,,-6.97500000e-009,-8.59376458e-005
,,,-6.95000000e-009,-1.02343897e-004
,,,-6.92500000e-009,-1.32031399e-004
,,,-6.90000000e-009,-1.70312652e-004
,,,-6.87500000e-009,-2.14062655e-004
,,,-6.85000000e-009,-2.58593908e-004
,,,-6.82500000e-009,-3.00000161e-004
,,,-6.80000000e-009,-3.29687663e-004
,,,-6.77500000e-009,-3.50781415e-004
,,,-6.75000000e-009,-3.61718915e-004
,,,-6.72500000e-009,-3.63281415e-004
,,,-6.70000000e-009,-3.56250165e-004
,,,-6.67500000e-009,-3.42187664e-004
,,,-6.65000000e-009,-3.22656413e-004
,,,-6.62500000e-009,-3.00000161e-004
,,,-6.60000000e-009,-2.71875159e-004
,,,-6.57500000e-009,-2.43750157e-004
,,,-6.55000000e-009,-2.15625155e-004
,,,-6.52500000e-009,-1.89062653e-004
,,,-6.50000000e-009,-1.64062651e-004
,,,-6.47500000e-009,-1.40625150e-004
,,,-6.45000000e-009,-1.19531398e-004
,,,-6.42500000e-009,-1.00000147e-004
,,,-6.40000000e-009,-8.12501454e-005
,,,-6.37500000e-009,-6.64063944e-005
,,,-6.35000000e-009,-5.62501437e-005
,,,-6.32500000e-009,-5.15626433e-005
,,,-6.30000000e-009,-5.31251435e-005
,,,-6.27500000e-009,-6.17188941e-005
,,,-6.25000000e-009,-7.73438952e-005
,,,-6.22500000e-009,-1.00000147e-004
,,,-6.20000000e-009,-1.26562649e-004
,,,-6.17500000e-009,-1.57031401e-004
,,,-6.15000000e-009,-1.89062653e-004
,,,-6.12500000e-009,-2.20312655e-004
,,,-6.10000000e-009,-2.48437657e-004
,,,-6.07500000e-009,-2.72656409e-004
,,,-6.05000000e-009,-2.89843910e-004
,,,-6.02500000e-009,-3.00000161e-004
,,,-6.00000000e-009,-2.97656411e-004
,,,-5.97500000e-009,-2.87500160e-004
,,,-5.95000000e-009,-2.68750159e-004
,,,-5.92500000e-009,-2.42968907e-004
,,,-5.90000000e-009,-2.11718905e-004
,,,-5.87500000e-009,-1.75781402e-004
,,,-5.85000000e-009,-1.38281399e-004
,,,-5.82500000e-009,-1.00000147e-004
,,,-5.80000000e-009,-6.32813942e-005
,,,-5.77500000e-009,-2.89063917e-005
,,,-5.75000000e-009,2.34361047e-006
,,,-5.72500000e-009,2.96873624e-005
,,,-5.70000000e-009,5.31248641e-005
,,,-5.67500000e-009,7.26561154e-005
,,,-5.65000000e-009,8.82811166e-005
,,,-5.62500000e-009,9.99998674e-005
,,,-5.60000000e-009,1.07812368e-004
,,,-5.57500000e-009,1.12499868e-004
,,,-5.55000000e-009,1.14843618e-004
,,,-5.52500000e-009,1.15624868e-004
,,,-5.50000000e-009,1.14062368e-004
,,,-5.47500000e-009,1.10937368e-004
,,,-5.45000000e-009,1.06249868e-004
,,,-5.42500000e-009,9.99998674e-005
,,,-5.40000000e-009,9.21873668e-005
,,,-5.37500000e-009,8.51561163e-005
,,,-5.35000000e-009,7.96873659e-005
,,,-5.32500000e-009,7.65623657e-005
,,,-5.30000000e-009,7.65623657e-005
,,,-5.27500000e-009,8.12498661e-005
,,,-5.25000000e-009,8.90623666e-005
,,,-5.22500000e-009,9.99998674e-005
,,,-5.20000000e-009,1.11718618e-004
,,,-5.17500000e-009,1.24218619e-004
,,,-5.15000000e-009,1.34374870e-004
,,,-5.12500000e-009,1.41406120e-004
,,,-5.10000000e-009,1.42187370e-004
,,,-5.07500000e-009,1.36718620e-004
,,,-5.05000000e-009,1.22656119e-004
,,,-5.02500000e-009,9.99998674e-005
,,,-5.00000000e-009,7.10936153e-005
,,,-4.97500000e-009,3.67186129e-005
,,,-4.95000000e-009,1.56236041e-006
,,,-4.92500000e-009,-3.20313920e-005
,,,-4.90000000e-009,-6.17188941e-005
,,,-4.87500000e-009,-8.35938956e-005
,,,-4.85000000e-009,-9.68751466e-005
,,,-4.82500000e-009,-1.00000147e-004
,,,-4.80000000e-009,-8.90626460e-005
,,,-4.77500000e-009,-6.87501446e-005
,,,-4.75000000e-009,-4.06251426e-005
,,,-4.72500000e-009,-7.81264025e-006
,,,-4.70000000e-009,2.57811121e-005
,,,-4.67500000e-009,5.78123644e-005
,,,-4.65000000e-009,8.35936162e-005
,,,-4.62500000e-009,9.99998674e-005
,,,-4.60000000e-009,1.06249868e-004
,,,-4.57500000e-009,1.00781117e-004
,,,-4.55000000e-009,8.35936162e-005
,,,-4.52500000e-009,5.70311143e-005
,,,-4.50000000e-009,2.18748618e-005
,,,-4.47500000e-009,-1.71876409e-005
,,,-4.45000000e-009,-5.93751439e-005
,,,-4.42500000e-009,-1.00000147e-004
,,,-4.40000000e-009,-1.33593899e-004
,,,-4.37500000e-009,-1.60156401e-004
,,,-4.35000000e-009,-1.76562652e-004
,,,-4.32500000e-009,-1.83593903e-004
,,,-4.30000000e-009,-1.78125152e-004
,,,-4.27500000e-009,-1.62500151e-004
,,,-4.25000000e-009,-1.35937649e-004
,,,-4.22500000e-009,-1.00000147e-004
,,,-4.20000000e-009,-5.46876436e-005
,,,-4.17500000e-009,-3.90638997e-006
,,,-4.15000000e-009,4.92186138e-005
,,,-4.12500000e-009,1.04687368e-004
,,,-4.10000000e-009,1.59374872e-004
,,,-4.07500000e-009,2.10937375e-004
,,,-4.05000000e-009,2.58593629e-004
,,,-4.02500000e-009,2.99999882e-004
,,,-4.00000000e-009,3.32031134e-004
,,,-3.97500000e-009,3.55468635e-004
,,,-3.95000000e-009,3.68749886e-004
,,,-3.92500000e-009,3.71874887e-004
,,,-3.90000000e-009,3.66406136e-004
,,,-3.87500000e-009,3.51562385e-004
,,,-3.85000000e-009,3.28906134e-004
,,,-3.82500000e-009,2.99999882e-004
,,,-3.80000000e-009,2.63281129e-004
,,,-3.77500000e-009,2.25781126e-004
,,,-3.75000000e-009,1.89062374e-004
,,,-3.72500000e-009,1.57031121e-004
,,,-3.70000000e-009,1.30468620e-004
,,,-3.67500000e-009,1.11718618e-004
,,,-3.65000000e-009,1.02343618e-004
,,,-3.62500000e-009,9.99998674e-005
,,,-3.60000000e-009,1.04687368e-004
,,,-3.57500000e-009,1.13281118e-004
,,,-3.55000000e-009,1.24218619e-004
,,,-3.52500000e-009,1.32812370e-004
,,,-3.50000000e-009,1.36718620e-004
,,,-3.47500000e-009,1.34374870e-004
,,,-3.45000000e-009,1.21874869e-004
,,,-3.42500000e-009,9.99998674e-005
,,,-3.40000000e-009,6.71873651e-005
,,,-3.37500000e-009,2.89061123e-005
,,,-3.35000000e-009,-1.17188905e-005
,,,-3.32500000e-009,-5.00001432e-005
,,,-3.30000000e-009,-8.12501454e-005
,,,-3.27500000e-009,-1.01562647e-004
,,,-3.25000000e-009,-1.08593897e-004
,,,-3.22500000e-009,-1.00000147e-004
,,,-3.20000000e-009,-7.73438952e-005
,,,-3.17500000e-009,-4.45313929e-005
,,,-3.15000000e-009,-4.68764003e-006
,,,-3.12500000e-009,3.59373628e-005
,,,-3.10000000e-009,7.26561154e-005
,,,-3.07500000e-009,9.76561172e-005
,,,-3.05000000e-009,1.08593618e-004
,,,-3.02500000e-009,9.99998674e-005
,,,-3.00000000e-009,7.42186156e-005
,,,-2.97500000e-009,3.12498625e-005
,,,-2.95000000e-009,-2.50001415e-005
,,,-2.92500000e-009,-8.90626460e-005
,,,-2.90000000e-009,-1.55468901e-004
,,,-2.87500000e-009,-2.15625155e-004
,,,-2.85000000e-009,-2.65625158e-004
,,,-2.82500000e-009,-3.00000161e-004
,,,-2.80000000e-009,-3.13281412e-004
,,,-2.77500000e-009,-3.08593912e-004
,,,-2.75000000e-009,-2.88281410e-004
,,,-2.72500000e-009,-2.54687658e-004
,,,-2.70000000e-009,-2.14062655e-004
,,,-2.67500000e-009,-1.71093902e-004
,,,-2.65000000e-009,-1.31250149e-004
,,,-2.62500000e-009,-1.00000147e-004
,,,-2.60000000e-009,-7.89063953e-005
,,,-2.57500000e-009,-7.34376449e-005
,,,-2.55000000e-009,-8.35938956e-005
,,,-2.52500000e-009,-1.07812647e-004
,,,-2.50000000e-009,-1.46093900e-004
,,,-2.47500000e-009,-1.92968903e-004
,,,-2.45000000e-009,-2.46093907e-004
,,,-2.42500000e-009,-3.00000161e-004
,,,-2.40000000e-009,-3.46875164e-004
,,,-2.37500000e-009,-3.85937667e-004
,,,-2.35000000e-009,-4.11718919e-004
,,,-2.32500000e-009,-4.23437670e-004
,,,-2.30000000e-009,-4.17968919e-004
,,,-2.27500000e-009,-3.94531418e-004
,,,-2.25000000e-009,-3.54687665e-004
,,,-2.22500000e-009,-3.00000161e-004
,,,-2.20000000e-009,-2.32031406e-004
,,,-2.17500000e-009,-1.57812651e-004
,,,-2.15000000e-009,-8.43751457e-005
,,,-2.12500000e-009,-1.64063909e-005
,,,-2.10000000e-009,3.98436131e-005
,,,-2.07500000e-009,8.04686160e-005
,,,-2.05000000e-009,1.00781117e-004
,,,-2.02500000e-009,9.99998674e-005
,,,-2.00000000e-009,7.73436158e-005
,,,-1.97500000e-009,3.59373628e-005
,,,-1.95000000e-009,-1.95313911e-005
,,,-1.92500000e-009,-8.35938956e-005
,,,-1.90000000e-009,-1.49218900e-004
,,,-1.87500000e-009,-2.10937655e-004
,,,-1.85000000e-009,-2.62500158e-004
,,,-1.82500000e-009,-3.00000161e-004
,,,-1.80000000e-009,-3.18750162e-004
,,,-1.77500000e-009,-3.18750162e-004
,,,-1.75000000e-009,-3.02343911e-004
,,,-1.72500000e-009,-2.71093909e-004
,,,-1.70000000e-009,-2.31250156e-004
,,,-1.67500000e-009,-1.85937653e-004
,,,-1.65000000e-009,-1.40625150e-004
,,,-1.62500000e-009,-1.00000147e-004
,,,-1.60000000e-009,-7.03126447e-005
,,,-1.57500000e-009,-5.15626433e-005
,,,-1.55000000e-009,-4.37501428e-005
,,,-1.52500000e-009,-4.60938930e-005
,,,-1.50000000e-009,-5.54688936e-005
,,,-1.47500000e-009,-6.95313946e-005
,,,-1.45000000e-009,-8.51563957e-005
,,,-1.42500000e-009,-1.00000147e-004
,,,-1.40000000e-009,-1.21093898e-004
,,,-1.37500000e-009,-1.39062650e-004
,,,-1.35000000e-009,-1.50000150e-004
,,,-1.32500000e-009,-1.53906401e-004
,,,-1.30000000e-009,-1.50781400e-004
,,,-1.27500000e-009,-1.39843900e-004
,,,-1.25000000e-009,-1.21875148e-004
,,,-1.22500000e-009,-1.00000147e-004
,,,-1.20000000e-009,-9.21876462e-005
,,,-1.17500000e-009,-8.67188958e-005
,,,-1.15000000e-009,-8.35938956e-005
,,,-1.12500000e-009,-8.28126456e-005
,,,-1.10000000e-009,-8.43751457e-005
,,,-1.07500000e-009,-8.75001459e-005
,,,-1.05000000e-009,-9.29688963e-005
,,,-1.02500000e-009,-1.00000147e-004
,,,-1.00000000e-009,-1.29687649e-004
,,,-9.75000000e-010,-1.64843901e-004
,,,-9.50000000e-010,-2.00000154e-004
,,,-9.25000000e-010,-2.33593906e-004
,,,-9.00000000e-010,-2.61718908e-004
,,,-8.75000000e-010,-2.82031410e-004
,,,-8.50000000e-010,-2.94531411e-004
,,,-8.25000000e-010,-3.00000161e-004
,,,-8.00000000e-010,-3.28125163e-004
,,,-7.75000000e-010,-3.59375165e-004
,,,-7.50000000e-010,-3.93750168e-004
,,,-7.25000000e-010,-4.34375170e-004
,,,-7.00000000e-010,-4.82812674e-004
,,,-6.75000000e-010,-5.41406428e-004
,,,-6.50000000e-010,-6.13281433e-004
,,,-6.25000000e-010,-7.00000189e-004
,,,-6.00000000e-010,-8.32812699e-004
,,,-5.75000000e-010,-9.87500210e-004
,,,-5.50000000e-010,-1.15937522e-003
,,,-5.25000000e-010,-1.34296898e-003
,,,-5.00000000e-010,-1.53437525e-003
,,,-4.75000000e-010,-1.72656276e-003
,,,-4.50000000e-010,-1.91640653e-003
,,,-4.25000000e-010,-2.10000029e-003
,,,-4.00000000e-010,-2.29296905e-003
,,,-3.75000000e-010,-2.48203157e-003
,,,-3.50000000e-010,-2.66484408e-003
,,,-3.25000000e-010,-2.84218784e-003
,,,-3.00000000e-010,-3.01250035e-003
,,,-2.75000000e-010,-3.17890661e-003
,,,-2.50000000e-010,-3.34062538e-003
,,,-2.25000000e-010,-3.50000039e-003
,,,-2.00000000e-010,-3.66328165e-003
,,,-1.75000000e-010,-3.83281291e-003
,,,-1.50000000e-010,-4.00703167e-003
,,,-1.25000000e-010,-4.18515669e-003
,,,-1.00000000e-010,-4.36562545e-003
,,,-7.50000000e-011,-4.54531296e-003
,,,-5.00000000e-011,-4.72421922e-003
,,,-2.50000000e-011,-4.90000049e-003
,,,0.00000000e+000,-5.06015675e-003
,,,2.50000000e-011,-5.22343801e-003
,,,5.00000000e-011,-5.38984427e-003
,,,7.50000000e-011,-5.56171928e-003
,,,1.00000000e-010,-5.73906305e-003
,,,1.25000000e-010,-5.92187556e-003
,,,1.50000000e-010,-6.10937557e-003
,,,1.75000000e-010,-6.30000059e-003
,,,2.00000000e-010,-6.46250060e-003
,,,2.25000000e-010,-6.62812561e-003
,,,2.50000000e-010,-6.79375062e-003
,,,2.75000000e-010,-6.95703188e-003
,,,3.00000000e-010,-7.11250064e-003
,,,3.25000000e-010,-7.25781315e-003
,,,3.50000000e-010,-7.38750066e-003
,,,3.75000000e-010,-7.50000067e-003
,,,4.00000000e-010,-7.55000067e-003
,,,4.25000000e-010,-7.58671943e-003
,,,4.50000000e-010,-7.61250068e-003
,,,4.75000000e-010,-7.63281318e-003
,,,5.00000000e-010,-7.64921943e-003
,,,5.25000000e-010,-7.66484443e-003
,,,5.50000000e-010,-7.68203193e-003
,,,5.75000000e-010,-7.70000068e-003
,,,6.00000000e-010,-7.67578193e-003
,,,6.25000000e-010,-7.65546943e-003
,,,6.50000000e-010,-7.63750068e-003
,,,6.75000000e-010,-7.62031318e-003
,,,7.00000000e-010,-7.60234443e-003
,,,7.25000000e-010,-7.57890693e-003
,,,7.50000000e-010,-7.54531317e-003
,,,7.75000000e-010,-7.50000067e-003
,,,8.00000000e-010,-7.39843816e-003
,,,8.25000000e-010,-7.28281316e-003
,,,8.50000000e-010,-7.15781315e-003
,,,8.75000000e-010,-7.02578189e-003
,,,9.00000000e-010,-6.89062563e-003
,,,9.25000000e-010,-6.75625062e-003
,,,9.50000000e-010,-6.62500061e-003
,,,9.75000000e-010,-6.50000060e-003
,,,1.00000000e-009,-6.35156309e-003
,,,1.02500000e-009,-6.21015683e-003
,,,1.05000000e-009,-6.07656307e-003
,,,1.07500000e-009,-5.95078181e-003
,,,1.10000000e-009,-5.83125055e-003
,,,1.12500000e-009,-5.71796929e-003
,,,1.15000000e-009,-5.60781304e-003
,,,1.17500000e-009,-5.50000053e-003
,,,1.20000000e-009,-5.37500052e-003
,,,1.22500000e-009,-5.24687551e-003
,,,1.25000000e-009,-5.11640675e-003
,,,1.27500000e-009,-4.98593799e-003
,,,1.30000000e-009,-4.85703173e-003
,,,1.32500000e-009,-4.73281297e-003
,,,1.35000000e-009,-4.61328172e-003
,,,1.37500000e-009,-4.50000046e-003
,,,1.40000000e-009,-4.38593795e-003
,,,1.42500000e-009,-4.27031294e-003
,,,1.45000000e-009,-4.15234418e-003
,,,1.47500000e-009,-4.03125043e-003
,,,1.50000000e-009,-3.90625042e-003
,,,1.52500000e-009,-3.77578166e-003
,,,1.55000000e-009,-3.64062540e-003
,,,1.57500000e-009,-3.50000039e-003
,,,1.60000000e-009,-3.35859413e-003
,,,1.62500000e-009,-3.20859412e-003
,,,1.65000000e-009,-3.05234411e-003
,,,1.67500000e-009,-2.89218784e-003
,,,1.70000000e-009,-2.73281283e-003
,,,1.72500000e-009,-2.57812532e-003
,,,1.75000000e-009,-2.43281281e-003
,,,1.77500000e-009,-2.30000030e-003
,,,1.80000000e-009,-2.19296904e-003
,,,1.82500000e-009,-2.09609404e-003
,,,1.85000000e-009,-2.00781278e-003
,,,1.87500000e-009,-1.92890653e-003
,,,1.90000000e-009,-1.85937527e-003
,,,1.92500000e-009,-1.79843777e-003
,,,1.95000000e-009,-1.74609401e-003
,,,1.97500000e-009,-1.70000026e-003
,,,2.00000000e-009,-1.67109401e-003
,,,2.02500000e-009,-1.63828151e-003
,,,2.05000000e-009,-1.59921900e-003
,,,2.07500000e-009,-1.55234400e-003
,,,2.10000000e-009,-1.49765650e-003
,,,2.12500000e-009,-1.43671899e-003
,,,2.15000000e-009,-1.36953149e-003
,,,2.17500000e-009,-1.30000023e-003
,,,2.20000000e-009,-1.24062523e-003
,,,2.22500000e-009,-1.17890647e-003
,,,2.25000000e-009,-1.11562522e-003
,,,2.27500000e-009,-1.05546896e-003
,,,2.30000000e-009,-1.00078146e-003
,,,2.32500000e-009,-9.54687707e-004
,,,2.35000000e-009,-9.21093955e-004
,,,2.37500000e-009,-9.00000203e-004
,,,2.40000000e-009,-9.02343954e-004
,,,2.42500000e-009,-9.10937704e-004
,,,2.45000000e-009,-9.21875205e-004
,,,2.47500000e-009,-9.31250206e-004
,,,2.50000000e-009,-9.36718956e-004
,,,2.52500000e-009,-9.34375206e-004
,,,2.55000000e-009,-9.22656455e-004
,,,2.57500000e-009,-9.00000203e-004
,,,2.60000000e-009,-8.75000202e-004
,,,2.62500000e-009,-8.36718949e-004
,,,2.65000000e-009,-7.86718945e-004
,,,2.67500000e-009,-7.28906441e-004
,,,2.70000000e-009,-6.66406437e-004
,,,2.72500000e-009,-6.04687682e-004
,,,2.75000000e-009,-5.47656428e-004
,,,2.77500000e-009,-5.00000175e-004
,,,2.80000000e-009,-4.68750173e-004
,,,2.82500000e-009,-4.48437671e-004
,,,2.85000000e-009,-4.39062671e-004
,,,2.87500000e-009,-4.39062671e-004
,,,2.90000000e-009,-4.47656421e-004
,,,2.92500000e-009,-4.61718922e-004
,,,2.95000000e-009,-4.79687674e-004
,,,2.97500000e-009,-5.00000175e-004
,,,3.00000000e-009,-5.21875177e-004
,,,3.02500000e-009,-5.38281428e-004
,,,3.05000000e-009,-5.48437679e-004
,,,3.07500000e-009,-5.50781429e-004
,,,3.10000000e-009,-5.46093928e-004
,,,3.12500000e-009,-5.35156428e-004
,,,3.15000000e-009,-5.18750176e-004
,,,3.17500000e-009,-5.00000175e-004
,,,3.20000000e-009,-4.82031424e-004
,,,3.22500000e-009,-4.64843923e-004
,,,3.25000000e-009,-4.50781422e-004
,,,3.27500000e-009,-4.42968921e-004
,,,3.30000000e-009,-4.42968921e-004
,,,3.32500000e-009,-4.52343922e-004
,,,3.35000000e-009,-4.71093923e-004
,,,3.37500000e-009,-5.00000175e-004
,,,3.40000000e-009,-5.35156428e-004
,,,3.42500000e-009,-5.74218930e-004
,,,3.45000000e-009,-6.14062683e-004
,,,3.47500000e-009,-6.50781436e-004
,,,3.50000000e-009,-6.80468938e-004
,,,3.52500000e-009,-7.00000189e-004
,,,3.55000000e-009,-7.07031440e-004
,,,3.57500000e-009,-7.00000189e-004
,,,3.60000000e-009,-6.75781438e-004
,,,3.62500000e-009,-6.38281435e-004
,,,3.65000000e-009,-5.89062681e-004
,,,3.67500000e-009,-5.31250177e-004
,,,3.70000000e-009,-4.68750173e-004
,,,3.72500000e-009,-4.07031419e-004
,,,3.75000000e-009,-3.49218914e-004
,,,3.77500000e-009,-3.00000161e-004
,,,3.80000000e-009,-2.63281408e-004
,,,3.82500000e-009,-2.39843907e-004
,,,3.85000000e-009,-2.29687656e-004
,,,3.87500000e-009,-2.30468906e-004
,,,3.90000000e-009,-2.40625157e-004
,,,3.92500000e-009,-2.57812658e-004
,,,3.95000000e-009,-2.78125159e-004
,,,3.97500000e-009,-3.00000161e-004
,,,4.00000000e-009,-3.19531412e-004
,,,4.02500000e-009,-3.35937663e-004
,,,4.05000000e-009,-3.45312664e-004
,,,4.07500000e-009,-3.48437664e-004
,,,4.10000000e-009,-3.45312664e-004
,,,4.12500000e-009,-3.35156413e-004
,,,4.15000000e-009,-3.19531412e-004
,,,4.17500000e-009,-3.00000161e-004
,,,4.20000000e-009,-2.76562659e-004
,,,4.22500000e-009,-2.51562658e-004
,,,4.25000000e-009,-2.24218906e-004
,,,4.27500000e-009,-1.96093904e-004
,,,4.30000000e-009,-1.68750152e-004
,,,4.32500000e-009,-1.42187650e-004
,,,4.35000000e-009,-1.18750148e-004
,,,4.37500000e-009,-1.00000147e-004
,,,4.40000000e-009,-8.90626460e-005
,,,4.42500000e-009,-8.67188958e-005
,,,4.45000000e-009,-9.29688963e-005
,,,4.47500000e-009,-1.10937648e-004
,,,4.50000000e-009,-1.40625150e-004
,,,4.52500000e-009,-1.82031403e-004
,,,4.55000000e-009,-2.35937656e-004
,,,4.57500000e-009,-3.00000161e-004
,,,4.60000000e-009,-3.71093916e-004
,,,4.62500000e-009,-4.44531421e-004
,,,4.65000000e-009,-5.15625176e-004
,,,4.67500000e-009,-5.79687681e-004
,,,4.70000000e-009,-6.33593935e-004
,,,4.72500000e-009,-6.73437687e-004
,,,4.75000000e-009,-6.96093939e-004
,,,4.77500000e-009,-7.00000189e-004
,,,4.80000000e-009,-6.79687688e-004
,,,4.82500000e-009,-6.42187685e-004
,,,4.85000000e-009,-5.91406432e-004
,,,4.87500000e-009,-5.32031427e-004
,,,4.90000000e-009,-4.67968923e-004
,,,4.92500000e-009,-4.05468918e-004
,,,4.95000000e-009,-3.47656414e-004
,,,4.97500000e-009,-3.00000161e-004
,,,5.00000000e-009,-2.61718908e-004
,,,5.02500000e-009,-2.37500157e-004
,,,5.05000000e-009,-2.26562656e-004
,,,5.07500000e-009,-2.27343906e-004
,,,5.10000000e-009,-2.38281407e-004
,,,5.12500000e-009,-2.56250158e-004
,,,5.15000000e-009,-2.77343909e-004
,,,5.17500000e-009,-3.00000161e-004
,,,5.20000000e-009,-3.16406412e-004
,,,5.22500000e-009,-3.28906413e-004
,,,5.25000000e-009,-3.35937663e-004
,,,5.27500000e-009,-3.37500164e-004
,,,5.30000000e-009,-3.33593913e-004
,,,5.32500000e-009,-3.25000163e-004
,,,5.35000000e-009,-3.14062662e-004
,,,5.37500000e-009,-3.00000161e-004
,,,5.40000000e-009,-2.81250160e-004
,,,5.42500000e-009,-2.60937658e-004
,,,5.45000000e-009,-2.39062657e-004
,,,5.47500000e-009,-2.15625155e-004
,,,5.50000000e-009,-1.90625153e-004
,,,5.52500000e-009,-1.62500151e-004
,,,5.55000000e-009,-1.32031399e-004
,,,5.57500000e-009,-1.00000147e-004
,,,5.60000000e-009,-6.40626442e-005
,,,5.62500000e-009,-2.89063917e-005
,,,5.65000000e-009,5.46861069e-006
,,,5.67500000e-009,3.74998630e-005
,,,5.70000000e-009,6.32811148e-005
,,,5.72500000e-009,8.35936162e-005
,,,5.75000000e-009,9.53123670e-005
,,,5.77500000e-009,9.99998674e-005
,,,5.80000000e-009,9.60936171e-005
,,,5.82500000e-009,8.82811166e-005
,,,5.85000000e-009,7.96873659e-005
,,,5.87500000e-009,7.18748654e-005
