RawData/SinglePhotoelectron/L6_2pt2C_5mV/wave029_Ch3.csv

"Record Length",1000,"Points",-7.72500000e-009,8.82811166e-005
"Sample Interval",2.50000000e-011,s,-7.70000000e-009,6.87498652e-005
"Trigger Point",309,"Samples",-7.67500000e-009,4.45311135e-005
"Trigger Time",2.49209009e-011,s,-7.65000000e-009,1.56248614e-005
"",,,-7.62500000e-009,-1.48438907e-005
"Horizontal Offset",-7.72500000e-009,s,-7.60000000e-009,-4.53126429e-005
,,,-7.57500000e-009,-7.42188950e-005
,,,-7.55000000e-009,-1.00000147e-004
,,,-7.52500000e-009,-1.18750148e-004
,,,-7.50000000e-009,-1.31250149e-004
,,,-7.47500000e-009,-1.38281399e-004
,,,-7.45000000e-009,-1.39843900e-004
,,,-7.42500000e-009,-1.35937649e-004
,,,-7.40000000e-009,-1.27343899e-004
,,,-7.37500000e-009,-1.14843898e-004
,,,-7.35000000e-009,-1.00000147e-004
,,,-7.32500000e-009,-7.96876453e-005
,,,-7.30000000e-009,-5.85938938e-005
,,,-7.27500000e-009,-3.51563922e-005
,,,-7.25000000e-009,-1.09376405e-005
,,,-7.22500000e-009,1.56248614e-005
,,,-7.20000000e-009,4.29686133e-005
,,,-7.17500000e-009,7.10936153e-005
,,,-7.15000000e-009,9.99998674e-005
,,,-7.12500000e-009,1.28906119e-004
,,,-7.10000000e-009,1.57031121e-004
,,,-7.07500000e-009,1.85937373e-004
,,,-7.05000000e-009,2.13281125e-004
,,,-7.02500000e-009,2.39062377e-004
,,,-7.00000000e-009,2.62499879e-004
,,,-6.97500000e-009,2.83593630e-004
,,,-6.95000000e-009,2.99999882e-004
,,,-6.92500000e-009,3.10937382e-004
,,,-6.90000000e-009,3.17187383e-004
,,,-6.87500000e-009,3.20312383e-004
,,,-6.85000000e-009,3.19531133e-004
,,,-6.82500000e-009,3.17187383e-004
,,,-6.80000000e-009,3.12499882e-004
,,,-6.77500000e-009,3.06249882e-004
,,,-6.75000000e-009,2.99999882e-004
,,,-6.72500000e-009,2.92968631e-004
,,,-6.70000000e-009,2.86718631e-004
,,,-6.67500000e-009,2.82031130e-004
,,,-6.65000000e-009,2.80468630e-004
,,,-6.62500000e-009,2.81249880e-004
,,,-6.60000000e-009,2.85156130e-004
,,,-6.57500000e-009,2.92187381e-004
,,,-6.55000000e-009,2.99999882e-004
,,,-6.52500000e-009,3.07031132e-004
,,,-6.50000000e-009,3.14843633e-004
,,,-6.47500000e-009,3.21093633e-004
,,,-6.45000000e-009,3.24999883e-004
,,,-6.42500000e-009,3.25781133e-004
,,,-6.40000000e-009,3.22656133e-004
,,,-6.37500000e-009,3.14062383e-004
,,,-6.35000000e-009,2.99999882e-004
,,,-6.32500000e-009,2.78906130e-004
,,,-6.30000000e-009,2.53906128e-004
,,,-6.27500000e-009,2.25781126e-004
,,,-6.25000000e-009,1.96874874e-004
,,,-6.22500000e-009,1.68749872e-004
,,,-6.20000000e-009,1.42187370e-004
,,,-6.17500000e-009,1.18749869e-004
,,,-6.15000000e-009,9.99998674e-005
,,,-6.12500000e-009,8.67186164e-005
,,,-6.10000000e-009,7.89061159e-005
,,,-6.07500000e-009,7.57811157e-005
,,,-6.05000000e-009,7.65623657e-005
,,,-6.02500000e-009,8.04686160e-005
,,,-6.00000000e-009,8.67186164e-005
,,,-5.97500000e-009,9.37498669e-005
,,,-5.95000000e-009,9.99998674e-005
,,,-5.92500000e-009,1.06249868e-004
,,,-5.90000000e-009,1.10937368e-004
,,,-5.87500000e-009,1.12499868e-004
,,,-5.85000000e-009,1.12499868e-004
,,,-5.82500000e-009,1.10156118e-004
,,,-5.80000000e-009,1.07812368e-004
,,,-5.77500000e-009,1.03906118e-004
,,,-5.75000000e-009,9.99998674e-005
,,,-5.72500000e-009,9.84373673e-005
,,,-5.70000000e-009,9.68748672e-005
,,,-5.67500000e-009,9.60936171e-005
,,,-5.65000000e-009,9.60936171e-005
,,,-5.62500000e-009,9.68748672e-005
,,,-5.60000000e-009,9.76561172e-005
,,,-5.57500000e-009,9.92186173e-005
,,,-5.55000000e-009,9.99998674e-005
,,,-5.52500000e-009,1.01562367e-004
,,,-5.50000000e-009,1.01562367e-004
,,,-5.47500000e-009,1.00781117e-004
,,,-5.45000000e-009,9.99998674e-005
,,,-5.42500000e-009,9.99998674e-005
,,,-5.40000000e-009,9.92186173e-005
,,,-5.37500000e-009,9.92186173e-005
,,,-5.35000000e-009,9.99998674e-005
,,,-5.32500000e-009,1.01562367e-004
,,,-5.30000000e-009,1.03124868e-004
,,,-5.27500000e-009,1.03906118e-004
,,,-5.25000000e-009,1.04687368e-004
,,,-5.22500000e-009,1.04687368e-004
,,,-5.20000000e-009,1.03906118e-004
,,,-5.17500000e-009,1.02343618e-004
,,,-5.15000000e-009,9.99998674e-005
,,,-5.12500000e-009,9.60936171e-005
,,,-5.10000000e-009,9.14061168e-005
,,,-5.07500000e-009,8.74998665e-005
,,,-5.05000000e-009,8.51561163e-005
,,,-5.02500000e-009,8.43748663e-005
,,,-5.00000000e-009,8.67186164e-005
,,,-4.97500000e-009,9.21873668e-005
,,,-4.95000000e-009,9.99998674e-005
,,,-4.92500000e-009,1.08593618e-004
,,,-4.90000000e-009,1.16406119e-004
,,,-4.87500000e-009,1.23437369e-004
,,,-4.85000000e-009,1.28124869e-004
,,,-4.82500000e-009,1.29687369e-004
,,,-4.80000000e-009,1.25781119e-004
,,,-4.77500000e-009,1.16406119e-004
,,,-4.75000000e-009,9.99998674e-005
,,,-4.72500000e-009,7.73436158e-005
,,,-4.70000000e-009,4.92186138e-005
,,,-4.67500000e-009,1.95311117e-005
,,,-4.65000000e-009,-1.17188905e-005
,,,-4.62500000e-009,-4.06251426e-005
,,,-4.60000000e-009,-6.64063944e-005
,,,-4.57500000e-009,-8.59376458e-005
,,,-4.55000000e-009,-1.00000147e-004
,,,-4.52500000e-009,-1.06250147e-004
,,,-4.50000000e-009,-1.07812647e-004
,,,-4.47500000e-009,-1.04687647e-004
,,,-4.45000000e-009,-1.00000147e-004
,,,-4.42500000e-009,-9.45313964e-005
,,,-4.40000000e-009,-9.14063962e-005
,,,-4.37500000e-009,-9.29688963e-005
,,,-4.35000000e-009,-1.00000147e-004
,,,-4.32500000e-009,-1.10937648e-004
,,,-4.30000000e-009,-1.28906399e-004
,,,-4.27500000e-009,-1.53125151e-004
,,,-4.25000000e-009,-1.80468902e-004
,,,-4.22500000e-009,-2.11718905e-004
,,,-4.20000000e-009,-2.42968907e-004
,,,-4.17500000e-009,-2.72656409e-004
,,,-4.15000000e-009,-3.00000161e-004
,,,-4.12500000e-009,-3.17968912e-004
,,,-4.10000000e-009,-3.29687663e-004
,,,-4.07500000e-009,-3.35937663e-004
,,,-4.05000000e-009,-3.35937663e-004
,,,-4.02500000e-009,-3.31250163e-004
,,,-4.00000000e-009,-3.22656413e-004
,,,-3.97500000e-009,-3.11718912e-004
,,,-3.95000000e-009,-3.00000161e-004
,,,-3.92500000e-009,-2.84375160e-004
,,,-3.90000000e-009,-2.71875159e-004
,,,-3.87500000e-009,-2.63281408e-004
,,,-3.85000000e-009,-2.60156408e-004
,,,-3.82500000e-009,-2.62500158e-004
,,,-3.80000000e-009,-2.70312659e-004
,,,-3.77500000e-009,-2.82812660e-004
,,,-3.75000000e-009,-3.00000161e-004
,,,-3.72500000e-009,-3.14062662e-004
,,,-3.70000000e-009,-3.28125163e-004
,,,-3.67500000e-009,-3.40625164e-004
,,,-3.65000000e-009,-3.48437664e-004
,,,-3.62500000e-009,-3.49218914e-004
,,,-3.60000000e-009,-3.42187664e-004
,,,-3.57500000e-009,-3.25781413e-004
,,,-3.55000000e-009,-3.00000161e-004
,,,-3.52500000e-009,-2.59375158e-004
,,,-3.50000000e-009,-2.11718905e-004
,,,-3.47500000e-009,-1.57812651e-004
,,,-3.45000000e-009,-1.00781397e-004
,,,-3.42500000e-009,-4.29688927e-005
,,,-3.40000000e-009,1.09373611e-005
,,,-3.37500000e-009,6.01561146e-005
,,,-3.35000000e-009,9.99998674e-005
,,,-3.32500000e-009,1.29687369e-004
,,,-3.30000000e-009,1.49218621e-004
,,,-3.27500000e-009,1.57812371e-004
,,,-3.25000000e-009,1.57031121e-004
,,,-3.22500000e-009,1.48437371e-004
,,,-3.20000000e-009,1.35156120e-004
,,,-3.17500000e-009,1.17968619e-004
,,,-3.15000000e-009,9.99998674e-005
,,,-3.12500000e-009,8.28123662e-005
,,,-3.10000000e-009,6.87498652e-005
,,,-3.07500000e-009,6.01561146e-005
,,,-3.05000000e-009,5.70311143e-005
,,,-3.02500000e-009,5.93748645e-005
,,,-3.00000000e-009,6.79686151e-005
,,,-2.97500000e-009,8.20311161e-005
,,,-2.95000000e-009,9.99998674e-005
,,,-2.92500000e-009,1.19531119e-004
,,,-2.90000000e-009,1.42187370e-004
,,,-2.87500000e-009,1.67187372e-004
,,,-2.85000000e-009,1.93749874e-004
,,,-2.82500000e-009,2.21093626e-004
,,,-2.80000000e-009,2.48437378e-004
,,,-2.77500000e-009,2.74999880e-004
,,,-2.75000000e-009,2.99999882e-004
,,,-2.72500000e-009,3.17968633e-004
,,,-2.70000000e-009,3.32031134e-004
,,,-2.67500000e-009,3.41406134e-004
,,,-2.65000000e-009,3.45312385e-004
,,,-2.62500000e-009,3.43749885e-004
,,,-2.60000000e-009,3.35156134e-004
,,,-2.57500000e-009,3.21093633e-004
,,,-2.55000000e-009,2.99999882e-004
,,,-2.52500000e-009,2.71093629e-004
,,,-2.50000000e-009,2.39062377e-004
,,,-2.47500000e-009,2.07031125e-004
,,,-2.45000000e-009,1.76562373e-004
,,,-2.42500000e-009,1.49218621e-004
,,,-2.40000000e-009,1.26562369e-004
,,,-2.37500000e-009,1.10156118e-004
,,,-2.35000000e-009,9.99998674e-005
,,,-2.32500000e-009,9.53123670e-005
,,,-2.30000000e-009,9.60936171e-005
,,,-2.27500000e-009,9.92186173e-005
,,,-2.25000000e-009,1.04687368e-004
,,,-2.22500000e-009,1.09374868e-004
,,,-2.20000000e-009,1.10937368e-004
,,,-2.17500000e-009,1.08593618e-004
,,,-2.15000000e-009,9.99998674e-005
,,,-2.12500000e-009,8.51561163e-005
,,,-2.10000000e-009,6.40623648e-005
,,,-2.07500000e-009,3.82811130e-005
,,,-2.05000000e-009,9.37486097e-006
,,,-2.02500000e-009,-2.10938912e-005
,,,-2.00000000e-009,-5.07813933e-005
,,,-1.97500000e-009,-7.73438952e-005
,,,-1.95000000e-009,-1.00000147e-004
,,,-1.92500000e-009,-1.16406398e-004
,,,-1.90000000e-009,-1.26562649e-004
,,,-1.87500000e-009,-1.31250149e-004
,,,-1.85000000e-009,-1.31250149e-004
,,,-1.82500000e-009,-1.26562649e-004
,,,-1.80000000e-009,-1.18750148e-004
,,,-1.77500000e-009,-1.09375147e-004
,,,-1.75000000e-009,-1.00000147e-004
,,,-1.72500000e-009,-9.21876462e-005
,,,-1.70000000e-009,-8.75001459e-005
,,,-1.67500000e-009,-8.59376458e-005
,,,-1.65000000e-009,-8.67188958e-005
,,,-1.62500000e-009,-8.90626460e-005
,,,-1.60000000e-009,-9.29688963e-005
,,,-1.57500000e-009,-9.68751466e-005
,,,-1.55000000e-009,-1.00000147e-004
,,,-1.52500000e-009,-1.08593897e-004
,,,-1.50000000e-009,-1.17187648e-004
,,,-1.47500000e-009,-1.23437648e-004
,,,-1.45000000e-009,-1.28125149e-004
,,,-1.42500000e-009,-1.28125149e-004
,,,-1.40000000e-009,-1.23437648e-004
,,,-1.37500000e-009,-1.13281398e-004
,,,-1.35000000e-009,-1.00000147e-004
,,,-1.32500000e-009,-9.45313964e-005
,,,-1.30000000e-009,-8.98438961e-005
,,,-1.27500000e-009,-8.67188958e-005
,,,-1.25000000e-009,-8.43751457e-005
,,,-1.22500000e-009,-8.43751457e-005
,,,-1.20000000e-009,-8.67188958e-005
,,,-1.17500000e-009,-9.21876462e-005
,,,-1.15000000e-009,-1.00000147e-004
,,,-1.12500000e-009,-1.28906399e-004
,,,-1.10000000e-009,-1.61718901e-004
,,,-1.07500000e-009,-1.97656404e-004
,,,-1.05000000e-009,-2.30468906e-004
,,,-1.02500000e-009,-2.59375158e-004
,,,-1.00000000e-009,-2.81250160e-004
,,,-9.75000000e-010,-2.93750160e-004
,,,-9.50000000e-010,-3.00000161e-004
,,,-9.25000000e-010,-3.24218913e-004
,,,-9.00000000e-010,-3.51562665e-004
,,,-8.75000000e-010,-3.83593917e-004
,,,-8.50000000e-010,-4.22656420e-004
,,,-8.25000000e-010,-4.71093923e-004
,,,-8.00000000e-010,-5.32812677e-004
,,,-7.75000000e-010,-6.07812683e-004
,,,-7.50000000e-010,-7.00000189e-004
,,,-7.25000000e-010,-8.31250199e-004
,,,-7.00000000e-010,-9.80468959e-004
,,,-6.75000000e-010,-1.14140647e-003
,,,-6.50000000e-010,-1.30781273e-003
,,,-6.25000000e-010,-1.47265649e-003
,,,-6.00000000e-010,-1.62968776e-003
,,,-5.75000000e-010,-1.77265652e-003
,,,-5.50000000e-010,-1.90000027e-003
,,,-5.25000000e-010,-2.02187528e-003
,,,-5.00000000e-010,-2.13203154e-003
,,,-4.75000000e-010,-2.23125030e-003
,,,-4.50000000e-010,-2.32343780e-003
,,,-4.25000000e-010,-2.41171906e-003
,,,-4.00000000e-010,-2.50078157e-003
,,,-3.75000000e-010,-2.59531282e-003
,,,-3.50000000e-010,-2.70000033e-003
,,,-3.25000000e-010,-2.82343784e-003
,,,-3.00000000e-010,-2.96640660e-003
,,,-2.75000000e-010,-3.12812536e-003
,,,-2.50000000e-010,-3.30546912e-003
,,,-2.25000000e-010,-3.49609414e-003
,,,-2.00000000e-010,-3.69453165e-003
,,,-1.75000000e-010,-3.89765667e-003
,,,-1.50000000e-010,-4.10000043e-003
,,,-1.25000000e-010,-4.28750044e-003
,,,-1.00000000e-010,-4.47265671e-003
,,,-7.50000000e-011,-4.65468797e-003
,,,-5.00000000e-011,-4.83281298e-003
,,,-2.50000000e-011,-5.00625049e-003
,,,0.00000000e+000,-5.17656301e-003
,,,2.50000000e-011,-5.34062552e-003
,,,5.00000000e-011,-5.50000053e-003
,,,7.50000000e-011,-5.62421929e-003
,,,1.00000000e-010,-5.74375055e-003
,,,1.25000000e-010,-5.85859430e-003
,,,1.50000000e-010,-5.96718806e-003
,,,1.75000000e-010,-6.06718807e-003
,,,2.00000000e-010,-6.15781308e-003
,,,2.25000000e-010,-6.23593808e-003
,,,2.50000000e-010,-6.30000059e-003
,,,2.75000000e-010,-6.31250059e-003
,,,3.00000000e-010,-6.31562559e-003
,,,3.25000000e-010,-6.31250059e-003
,,,3.50000000e-010,-6.30703184e-003
,,,3.75000000e-010,-6.30156309e-003
,,,4.00000000e-010,-6.29765684e-003
,,,4.25000000e-010,-6.29687559e-003
,,,4.50000000e-010,-6.30000059e-003
,,,4.75000000e-010,-6.27109433e-003
,,,5.00000000e-010,-6.24687558e-003
,,,5.25000000e-010,-6.22578183e-003
,,,5.50000000e-010,-6.20703183e-003
,,,5.75000000e-010,-6.18828183e-003
,,,6.00000000e-010,-6.16640683e-003
,,,6.25000000e-010,-6.13750057e-003
,,,6.50000000e-010,-6.10000057e-003
,,,6.75000000e-010,-6.01718807e-003
,,,7.00000000e-010,-5.92421931e-003
,,,7.25000000e-010,-5.82421930e-003
,,,7.50000000e-010,-5.71953179e-003
,,,7.75000000e-010,-5.61328179e-003
,,,8.00000000e-010,-5.50703178e-003
,,,8.25000000e-010,-5.40234427e-003
,,,8.50000000e-010,-5.30000051e-003
,,,8.75000000e-010,-5.17656301e-003
,,,9.00000000e-010,-5.05468800e-003
,,,9.25000000e-010,-4.93359424e-003
,,,9.50000000e-010,-4.81250048e-003
,,,9.75000000e-010,-4.68906297e-003
,,,1.00000000e-009,-4.56328171e-003
,,,1.02500000e-009,-4.43359420e-003
,,,1.05000000e-009,-4.30000044e-003
,,,1.07500000e-009,-4.15390668e-003
,,,1.10000000e-009,-4.00546917e-003
,,,1.12500000e-009,-3.85781291e-003
,,,1.15000000e-009,-3.71718790e-003
,,,1.17500000e-009,-3.58671914e-003
,,,1.20000000e-009,-3.47187539e-003
,,,1.22500000e-009,-3.37578163e-003
,,,1.25000000e-009,-3.30000037e-003
,,,1.27500000e-009,-3.24296912e-003
,,,1.30000000e-009,-3.19843787e-003
,,,1.32500000e-009,-3.15937536e-003
,,,1.35000000e-009,-3.12265661e-003
,,,1.37500000e-009,-3.08281286e-003
,,,1.40000000e-009,-3.03515660e-003
,,,1.42500000e-009,-2.97500035e-003
,,,1.45000000e-009,-2.90000034e-003
,,,1.47500000e-009,-2.81171909e-003
,,,1.50000000e-009,-2.70390658e-003
,,,1.52500000e-009,-2.57812532e-003
,,,1.55000000e-009,-2.44062531e-003
,,,1.57500000e-009,-2.29765655e-003
,,,1.60000000e-009,-2.15546904e-003
,,,1.62500000e-009,-2.02109403e-003
,,,1.65000000e-009,-1.90000027e-003
,,,1.67500000e-009,-1.80703152e-003
,,,1.70000000e-009,-1.72812526e-003
,,,1.72500000e-009,-1.66406276e-003
,,,1.75000000e-009,-1.61250025e-003
,,,1.77500000e-009,-1.57265650e-003
,,,1.80000000e-009,-1.54218775e-003
,,,1.82500000e-009,-1.51875025e-003
,,,1.85000000e-009,-1.50000025e-003
,,,1.87500000e-009,-1.49062525e-003
,,,1.90000000e-009,-1.47656274e-003
,,,1.92500000e-009,-1.45625024e-003
,,,1.95000000e-009,-1.42968774e-003
,,,1.97500000e-009,-1.39843774e-003
,,,2.00000000e-009,-1.36484399e-003
,,,2.02500000e-009,-1.33125023e-003
,,,2.05000000e-009,-1.30000023e-003
,,,2.07500000e-009,-1.27734398e-003
,,,2.10000000e-009,-1.25468773e-003
,,,2.12500000e-009,-1.23046898e-003
,,,2.15000000e-009,-1.20546898e-003
,,,2.17500000e-009,-1.18046897e-003
,,,2.20000000e-009,-1.15390647e-003
,,,2.22500000e-009,-1.12656272e-003
,,,2.25000000e-009,-1.10000022e-003
,,,2.27500000e-009,-1.07812522e-003
,,,2.30000000e-009,-1.05390646e-003
,,,2.32500000e-009,-1.02734396e-003
,,,2.35000000e-009,-9.99218960e-004
,,,2.37500000e-009,-9.71875208e-004
,,,2.40000000e-009,-9.45312707e-004
,,,2.42500000e-009,-9.21093955e-004
,,,2.45000000e-009,-9.00000203e-004
,,,2.47500000e-009,-8.85156452e-004
,,,2.50000000e-009,-8.69531451e-004
,,,2.52500000e-009,-8.51562700e-004
,,,2.55000000e-009,-8.30468948e-004
,,,2.57500000e-009,-8.05468947e-004
,,,2.60000000e-009,-7.75000195e-004
,,,2.62500000e-009,-7.39843942e-004
,,,2.65000000e-009,-7.00000189e-004
,,,2.67500000e-009,-6.57031436e-004
,,,2.70000000e-009,-6.09375183e-004
,,,2.72500000e-009,-5.57812679e-004
,,,2.75000000e-009,-5.03125175e-004
,,,2.77500000e-009,-4.47656421e-004
,,,2.80000000e-009,-3.93750168e-004
,,,2.82500000e-009,-3.43750164e-004
,,,2.85000000e-009,-3.00000161e-004
,,,2.87500000e-009,-2.70312659e-004
,,,2.90000000e-009,-2.49218907e-004
,,,2.92500000e-009,-2.37500157e-004
,,,2.95000000e-009,-2.33593906e-004
,,,2.97500000e-009,-2.39062657e-004
,,,3.00000000e-009,-2.53125158e-004
,,,3.02500000e-009,-2.73437659e-004
,,,3.05000000e-009,-3.00000161e-004
,,,3.07500000e-009,-3.34375163e-004
,,,3.10000000e-009,-3.70312666e-004
,,,3.12500000e-009,-4.03906418e-004
,,,3.15000000e-009,-4.35156420e-004
,,,3.17500000e-009,-4.60937672e-004
,,,3.20000000e-009,-4.81250174e-004
,,,3.22500000e-009,-4.93750175e-004
,,,3.25000000e-009,-5.00000175e-004
,,,3.27500000e-009,-4.98437675e-004
,,,3.30000000e-009,-4.88281424e-004
,,,3.32500000e-009,-4.69531423e-004
,,,3.35000000e-009,-4.42968921e-004
,,,3.37500000e-009,-4.10937669e-004
,,,3.40000000e-009,-3.75000166e-004
,,,3.42500000e-009,-3.36718914e-004
,,,3.45000000e-009,-3.00000161e-004
,,,3.47500000e-009,-2.68750159e-004
,,,3.50000000e-009,-2.43750157e-004
,,,3.52500000e-009,-2.26562656e-004
,,,3.55000000e-009,-2.18750155e-004
,,,3.57500000e-009,-2.21093905e-004
,,,3.60000000e-009,-2.35937656e-004
,,,3.62500000e-009,-2.61718908e-004
,,,3.65000000e-009,-3.00000161e-004
,,,3.67500000e-009,-3.49218914e-004
,,,3.70000000e-009,-4.04687668e-004
,,,3.72500000e-009,-4.64062673e-004
,,,3.75000000e-009,-5.23437677e-004
,,,3.77500000e-009,-5.79687681e-004
,,,3.80000000e-009,-6.29687684e-004
,,,3.82500000e-009,-6.70312687e-004
,,,3.85000000e-009,-7.00000189e-004
,,,3.87500000e-009,-7.13281440e-004
,,,3.90000000e-009,-7.13281440e-004
,,,3.92500000e-009,-7.00000189e-004
,,,3.95000000e-009,-6.75781438e-004
,,,3.97500000e-009,-6.40625185e-004
,,,4.00000000e-009,-5.97656432e-004
,,,4.02500000e-009,-5.50000179e-004
,,,4.05000000e-009,-5.00000175e-004
,,,4.07500000e-009,-4.48437671e-004
,,,4.10000000e-009,-4.00781418e-004
,,,4.12500000e-009,-3.60156415e-004
,,,4.15000000e-009,-3.28125163e-004
,,,4.17500000e-009,-3.05468911e-004
,,,4.20000000e-009,-2.92968910e-004
,,,4.22500000e-009,-2.91406410e-004
,,,4.25000000e-009,-3.00000161e-004
,,,4.27500000e-009,-3.17968912e-004
,,,4.30000000e-009,-3.43750164e-004
,,,4.32500000e-009,-3.72656416e-004
,,,4.35000000e-009,-4.03906418e-004
,,,4.37500000e-009,-4.33593920e-004
,,,4.40000000e-009,-4.60937672e-004
,,,4.42500000e-009,-4.83593924e-004
,,,4.45000000e-009,-5.00000175e-004
,,,4.47500000e-009,-5.07812676e-004
,,,4.50000000e-009,-5.10937676e-004
,,,4.52500000e-009,-5.08593926e-004
,,,4.55000000e-009,-5.04687675e-004
,,,4.57500000e-009,-5.00000175e-004
,,,4.60000000e-009,-4.96875175e-004
,,,4.62500000e-009,-4.96093925e-004
,,,4.65000000e-009,-5.00000175e-004
,,,4.67500000e-009,-5.05468925e-004
,,,4.70000000e-009,-5.14062676e-004
,,,4.72500000e-009,-5.22656427e-004
,,,4.75000000e-009,-5.30468927e-004
,,,4.77500000e-009,-5.33593927e-004
,,,4.80000000e-009,-5.30468927e-004
,,,4.82500000e-009,-5.19531426e-004
,,,4.85000000e-009,-5.00000175e-004
,,,4.87500000e-009,-4.70312673e-004
,,,4.90000000e-009,-4.35156420e-004
,,,4.92500000e-009,-3.97656418e-004
,,,4.95000000e-009,-3.60156415e-004
,,,4.97500000e-009,-3.28906413e-004
,,,5.00000000e-009,-3.06250161e-004
,,,5.02500000e-009,-2.96093911e-004
,,,5.05000000e-009,-3.00000161e-004
,,,5.07500000e-009,-3.15625162e-004
,,,5.10000000e-009,-3.42187664e-004
,,,5.12500000e-009,-3.76562666e-004
,,,5.15000000e-009,-4.13281419e-004
,,,5.17500000e-009,-4.48437671e-004
,,,5.20000000e-009,-4.76562673e-004
,,,5.22500000e-009,-4.94531425e-004
,,,5.25000000e-009,-5.00000175e-004
,,,5.27500000e-009,-4.87500174e-004
,,,5.30000000e-009,-4.62500172e-004
,,,5.32500000e-009,-4.29687670e-004
,,,5.35000000e-009,-3.92187667e-004
,,,5.37500000e-009,-3.55468915e-004
,,,5.40000000e-009,-3.25000163e-004
,,,5.42500000e-009,-3.05468911e-004
,,,5.45000000e-009,-3.00000161e-004
,,,5.47500000e-009,-3.06250161e-004
,,,5.50000000e-009,-3.25781413e-004
,,,5.52500000e-009,-3.55468915e-004
,,,5.55000000e-009,-3.91406417e-004
,,,5.57500000e-009,-4.28906420e-004
,,,5.60000000e-009,-4.62500172e-004
,,,5.62500000e-009,-4.87500174e-004
,,,5.65000000e-009,-5.00000175e-004
,,,5.67500000e-009,-4.92968925e-004
,,,5.70000000e-009,-4.68750173e-004
,,,5.72500000e-009,-4.28906420e-004
,,,5.75000000e-009,-3.75000166e-004
,,,5.77500000e-009,-3.10156412e-004
,,,5.80000000e-009,-2.40625157e-004
,,,5.82500000e-009,-1.68750152e-004
,,,5.85000000e-009,-1.00000147e-004
,,,5.87500000e-009,-3.90626425e-005
,,,5.90000000e-009,1.17186111e-005
,,,5.92500000e-009,5.23436140e-005
