RawData/SinglePhotoelectron/L6_2pt2C_5mV/wave018_Ch3.csv

"Record Length",1000,"Points",-7.72500000e-009,8.82811166e-005
"Sample Interval",2.50000000e-011,s,-7.70000000e-009,8.98436167e-005
"Trigger Point",309,"Samples",-7.67500000e-009,9.45311170e-005
"Trigger Time",3.17472779e-012,s,-7.65000000e-009,9.99998674e-005
"",,,-7.62500000e-009,1.06249868e-004
"Horizontal Offset",-7.72500000e-009,s,-7.60000000e-009,1.11718618e-004
,,,-7.57500000e-009,1.17187369e-004
,,,-7.55000000e-009,1.21093619e-004
,,,-7.52500000e-009,1.21874869e-004
,,,-7.50000000e-009,1.18749869e-004
,,,-7.47500000e-009,1.12499868e-004
,,,-7.45000000e-009,9.99998674e-005
,,,-7.42500000e-009,8.28123662e-005
,,,-7.40000000e-009,6.09373646e-005
,,,-7.37500000e-009,3.59373628e-005
,,,-7.35000000e-009,7.81236085e-006
,,,-7.32500000e-009,-2.10938912e-005
,,,-7.30000000e-009,-4.92188932e-005
,,,-7.27500000e-009,-7.57813951e-005
,,,-7.25000000e-009,-1.00000147e-004
,,,-7.22500000e-009,-1.18750148e-004
,,,-7.20000000e-009,-1.32812649e-004
,,,-7.17500000e-009,-1.40625150e-004
,,,-7.15000000e-009,-1.42968900e-004
,,,-7.12500000e-009,-1.39062650e-004
,,,-7.10000000e-009,-1.29687649e-004
,,,-7.07500000e-009,-1.16406398e-004
,,,-7.05000000e-009,-1.00000147e-004
,,,-7.02500000e-009,-8.20313955e-005
,,,-7.00000000e-009,-6.64063944e-005
,,,-6.97500000e-009,-5.39063935e-005
,,,-6.95000000e-009,-4.76563931e-005
,,,-6.92500000e-009,-4.84376431e-005
,,,-6.90000000e-009,-5.70313937e-005
,,,-6.87500000e-009,-7.42188950e-005
,,,-6.85000000e-009,-1.00000147e-004
,,,-6.82500000e-009,-1.29687649e-004
,,,-6.80000000e-009,-1.63281401e-004
,,,-6.77500000e-009,-1.99218904e-004
,,,-6.75000000e-009,-2.32812656e-004
,,,-6.72500000e-009,-2.62500158e-004
,,,-6.70000000e-009,-2.84375160e-004
,,,-6.67500000e-009,-2.97656411e-004
,,,-6.65000000e-009,-3.00000161e-004
,,,-6.62500000e-009,-2.88281410e-004
,,,-6.60000000e-009,-2.67968909e-004
,,,-6.57500000e-009,-2.40625157e-004
,,,-6.55000000e-009,-2.07812654e-004
,,,-6.52500000e-009,-1.75000152e-004
,,,-6.50000000e-009,-1.43750150e-004
,,,-6.47500000e-009,-1.17187648e-004
,,,-6.45000000e-009,-1.00000147e-004
,,,-6.42500000e-009,-9.06251461e-005
,,,-6.40000000e-009,-9.29688963e-005
,,,-6.37500000e-009,-1.07031397e-004
,,,-6.35000000e-009,-1.32031399e-004
,,,-6.32500000e-009,-1.66406401e-004
,,,-6.30000000e-009,-2.07812654e-004
,,,-6.27500000e-009,-2.53906408e-004
,,,-6.25000000e-009,-3.00000161e-004
,,,-6.22500000e-009,-3.39843914e-004
,,,-6.20000000e-009,-3.71875166e-004
,,,-6.17500000e-009,-3.93750168e-004
,,,-6.15000000e-009,-4.03906418e-004
,,,-6.12500000e-009,-3.99218918e-004
,,,-6.10000000e-009,-3.80468917e-004
,,,-6.07500000e-009,-3.46093914e-004
,,,-6.05000000e-009,-3.00000161e-004
,,,-6.02500000e-009,-2.41406407e-004
,,,-6.00000000e-009,-1.76562652e-004
,,,-5.97500000e-009,-1.10937648e-004
,,,-5.95000000e-009,-4.76563931e-005
,,,-5.92500000e-009,8.59361091e-006
,,,-5.90000000e-009,5.31248641e-005
,,,-5.87500000e-009,8.43748663e-005
,,,-5.85000000e-009,9.99998674e-005
,,,-5.82500000e-009,9.84373673e-005
,,,-5.80000000e-009,8.28123662e-005
,,,-5.77500000e-009,5.54686142e-005
,,,-5.75000000e-009,2.10936118e-005
,,,-5.72500000e-009,-1.64063909e-005
,,,-5.70000000e-009,-5.15626433e-005
,,,-5.67500000e-009,-8.04688954e-005
,,,-5.65000000e-009,-1.00000147e-004
,,,-5.62500000e-009,-1.08593897e-004
,,,-5.60000000e-009,-1.03906397e-004
,,,-5.57500000e-009,-8.75001459e-005
,,,-5.55000000e-009,-5.93751439e-005
,,,-5.52500000e-009,-2.34376414e-005
,,,-5.50000000e-009,1.79686116e-005
,,,-5.47500000e-009,6.01561146e-005
,,,-5.45000000e-009,9.99998674e-005
,,,-5.42500000e-009,1.32031120e-004
,,,-5.40000000e-009,1.55468621e-004
,,,-5.37500000e-009,1.69531122e-004
,,,-5.35000000e-009,1.72656123e-004
,,,-5.32500000e-009,1.66406122e-004
,,,-5.30000000e-009,1.51562371e-004
,,,-5.27500000e-009,1.28906119e-004
,,,-5.25000000e-009,9.99998674e-005
,,,-5.22500000e-009,6.56248649e-005
,,,-5.20000000e-009,2.96873624e-005
,,,-5.17500000e-009,-3.90638997e-006
,,,-5.15000000e-009,-3.43751421e-005
,,,-5.12500000e-009,-6.01563940e-005
,,,-5.10000000e-009,-7.96876453e-005
,,,-5.07500000e-009,-9.29688963e-005
,,,-5.05000000e-009,-1.00000147e-004
,,,-5.02500000e-009,-1.02343897e-004
,,,-5.00000000e-009,-1.01562647e-004
,,,-4.97500000e-009,-9.68751466e-005
,,,-4.95000000e-009,-9.21876462e-005
,,,-4.92500000e-009,-8.82813959e-005
,,,-4.90000000e-009,-8.67188958e-005
,,,-4.87500000e-009,-9.06251461e-005
,,,-4.85000000e-009,-1.00000147e-004
,,,-4.82500000e-009,-1.14843898e-004
,,,-4.80000000e-009,-1.35937649e-004
,,,-4.77500000e-009,-1.61718901e-004
,,,-4.75000000e-009,-1.90625153e-004
,,,-4.72500000e-009,-2.21093905e-004
,,,-4.70000000e-009,-2.50781407e-004
,,,-4.67500000e-009,-2.77343909e-004
,,,-4.65000000e-009,-3.00000161e-004
,,,-4.62500000e-009,-3.14062662e-004
,,,-4.60000000e-009,-3.22656413e-004
,,,-4.57500000e-009,-3.25781413e-004
,,,-4.55000000e-009,-3.24218913e-004
,,,-4.52500000e-009,-3.19531412e-004
,,,-4.50000000e-009,-3.12500162e-004
,,,-4.47500000e-009,-3.05468911e-004
,,,-4.45000000e-009,-3.00000161e-004
,,,-4.42500000e-009,-2.93750160e-004
,,,-4.40000000e-009,-2.90625160e-004
,,,-4.37500000e-009,-2.90625160e-004
,,,-4.35000000e-009,-2.92187660e-004
,,,-4.32500000e-009,-2.94531411e-004
,,,-4.30000000e-009,-2.96875161e-004
,,,-4.27500000e-009,-2.99218911e-004
,,,-4.25000000e-009,-3.00000161e-004
,,,-4.22500000e-009,-2.96875161e-004
,,,-4.20000000e-009,-2.93750160e-004
,,,-4.17500000e-009,-2.89843910e-004
,,,-4.15000000e-009,-2.87500160e-004
,,,-4.12500000e-009,-2.86718910e-004
,,,-4.10000000e-009,-2.88281410e-004
,,,-4.07500000e-009,-2.92187660e-004
,,,-4.05000000e-009,-3.00000161e-004
,,,-4.02500000e-009,-3.07812661e-004
,,,-4.00000000e-009,-3.17187662e-004
,,,-3.97500000e-009,-3.25781413e-004
,,,-3.95000000e-009,-3.32031413e-004
,,,-3.92500000e-009,-3.33593913e-004
,,,-3.90000000e-009,-3.29687663e-004
,,,-3.87500000e-009,-3.18750162e-004
,,,-3.85000000e-009,-3.00000161e-004
,,,-3.82500000e-009,-2.71093909e-004
,,,-3.80000000e-009,-2.38281407e-004
,,,-3.77500000e-009,-2.03125154e-004
,,,-3.75000000e-009,-1.68750152e-004
,,,-3.72500000e-009,-1.39062650e-004
,,,-3.70000000e-009,-1.15625148e-004
,,,-3.67500000e-009,-1.02343897e-004
,,,-3.65000000e-009,-1.00000147e-004
,,,-3.62500000e-009,-1.10156397e-004
,,,-3.60000000e-009,-1.30468899e-004
,,,-3.57500000e-009,-1.58593901e-004
,,,-3.55000000e-009,-1.91406403e-004
,,,-3.52500000e-009,-2.24218906e-004
,,,-3.50000000e-009,-2.55468908e-004
,,,-3.47500000e-009,-2.81250160e-004
,,,-3.45000000e-009,-3.00000161e-004
,,,-3.42500000e-009,-3.07812661e-004
,,,-3.40000000e-009,-3.08593912e-004
,,,-3.37500000e-009,-3.03906411e-004
,,,-3.35000000e-009,-2.96093911e-004
,,,-3.32500000e-009,-2.89062660e-004
,,,-3.30000000e-009,-2.86718910e-004
,,,-3.27500000e-009,-2.89843910e-004
,,,-3.25000000e-009,-3.00000161e-004
,,,-3.22500000e-009,-3.15625162e-004
,,,-3.20000000e-009,-3.35937663e-004
,,,-3.17500000e-009,-3.55468915e-004
,,,-3.15000000e-009,-3.70312666e-004
,,,-3.12500000e-009,-3.75781416e-004
,,,-3.10000000e-009,-3.67187666e-004
,,,-3.07500000e-009,-3.42187664e-004
,,,-3.05000000e-009,-3.00000161e-004
,,,-3.02500000e-009,-2.41406407e-004
,,,-3.00000000e-009,-1.72656402e-004
,,,-2.97500000e-009,-9.84376467e-005
,,,-2.95000000e-009,-2.73438916e-005
,,,-2.92500000e-009,3.43748627e-005
,,,-2.90000000e-009,7.96873659e-005
,,,-2.87500000e-009,1.02343618e-004
,,,-2.85000000e-009,9.99998674e-005
,,,-2.82500000e-009,7.03123653e-005
,,,-2.80000000e-009,2.03123617e-005
,,,-2.77500000e-009,-4.53126429e-005
,,,-2.75000000e-009,-1.17187648e-004
,,,-2.72500000e-009,-1.85937653e-004
,,,-2.70000000e-009,-2.44531407e-004
,,,-2.67500000e-009,-2.83593910e-004
,,,-2.65000000e-009,-3.00000161e-004
,,,-2.62500000e-009,-2.87500160e-004
,,,-2.60000000e-009,-2.51562658e-004
,,,-2.57500000e-009,-1.96093904e-004
,,,-2.55000000e-009,-1.28125149e-004
,,,-2.52500000e-009,-5.54688936e-005
,,,-2.50000000e-009,1.17186111e-005
,,,-2.47500000e-009,6.56248649e-005
,,,-2.45000000e-009,9.99998674e-005
,,,-2.42500000e-009,1.08593618e-004
,,,-2.40000000e-009,9.14061168e-005
,,,-2.37500000e-009,5.15623640e-005
,,,-2.35000000e-009,-7.03139020e-006
,,,-2.32500000e-009,-7.89063953e-005
,,,-2.30000000e-009,-1.55468901e-004
,,,-2.27500000e-009,-2.31250156e-004
,,,-2.25000000e-009,-3.00000161e-004
,,,-2.22500000e-009,-3.51562665e-004
,,,-2.20000000e-009,-3.86718917e-004
,,,-2.17500000e-009,-4.03125168e-004
,,,-2.15000000e-009,-4.03906418e-004
,,,-2.12500000e-009,-3.89843917e-004
,,,-2.10000000e-009,-3.65625166e-004
,,,-2.07500000e-009,-3.34375163e-004
,,,-2.05000000e-009,-3.00000161e-004
,,,-2.02500000e-009,-2.62500158e-004
,,,-2.00000000e-009,-2.27343906e-004
,,,-1.97500000e-009,-1.96093904e-004
,,,-1.95000000e-009,-1.68750152e-004
,,,-1.92500000e-009,-1.46093900e-004
,,,-1.90000000e-009,-1.27343899e-004
,,,-1.87500000e-009,-1.12500148e-004
,,,-1.85000000e-009,-1.00000147e-004
,,,-1.82500000e-009,-8.67188958e-005
,,,-1.80000000e-009,-7.65626451e-005
,,,-1.77500000e-009,-7.03126447e-005
,,,-1.75000000e-009,-6.71876445e-005
,,,-1.72500000e-009,-6.79688945e-005
,,,-1.70000000e-009,-7.42188950e-005
,,,-1.67500000e-009,-8.51563957e-005
,,,-1.65000000e-009,-1.00000147e-004
,,,-1.62500000e-009,-1.17968898e-004
,,,-1.60000000e-009,-1.36718899e-004
,,,-1.57500000e-009,-1.52343900e-004
,,,-1.55000000e-009,-1.62500151e-004
,,,-1.52500000e-009,-1.64062651e-004
,,,-1.50000000e-009,-1.55468901e-004
,,,-1.47500000e-009,-1.33593899e-004
,,,-1.45000000e-009,-1.00000147e-004
,,,-1.42500000e-009,-5.93751439e-005
,,,-1.40000000e-009,-1.09376405e-005
,,,-1.37500000e-009,4.37498634e-005
,,,-1.35000000e-009,1.00781117e-004
,,,-1.32500000e-009,1.57031121e-004
,,,-1.30000000e-009,2.11718625e-004
,,,-1.27500000e-009,2.60156129e-004
,,,-1.25000000e-009,2.99999882e-004
,,,-1.22500000e-009,3.15624883e-004
,,,-1.20000000e-009,3.20312383e-004
,,,-1.17500000e-009,3.17187383e-004
,,,-1.15000000e-009,3.09374882e-004
,,,-1.12500000e-009,3.00781132e-004
,,,-1.10000000e-009,2.94531131e-004
,,,-1.07500000e-009,2.93749881e-004
,,,-1.05000000e-009,2.99999882e-004
,,,-1.02500000e-009,2.88281131e-004
,,,-1.00000000e-009,2.80468630e-004
,,,-9.75000000e-010,2.78124880e-004
,,,-9.50000000e-010,2.78906130e-004
,,,-9.25000000e-010,2.84374880e-004
,,,-9.00000000e-010,2.91406131e-004
,,,-8.75000000e-010,2.97656131e-004
,,,-8.50000000e-010,2.99999882e-004
,,,-8.25000000e-010,2.60937379e-004
,,,-8.00000000e-010,2.07812375e-004
,,,-7.75000000e-010,1.41406120e-004
,,,-7.50000000e-010,6.48436149e-005
,,,-7.25000000e-010,-2.03126411e-005
,,,-7.00000000e-010,-1.10937648e-004
,,,-6.75000000e-010,-2.03906404e-004
,,,-6.50000000e-010,-3.00000161e-004
,,,-6.25000000e-010,-4.28125170e-004
,,,-6.00000000e-010,-5.60937679e-004
,,,-5.75000000e-010,-6.94531439e-004
,,,-5.50000000e-010,-8.26562698e-004
,,,-5.25000000e-010,-9.53125207e-004
,,,-5.00000000e-010,-1.07421897e-003
,,,-4.75000000e-010,-1.18984397e-003
,,,-4.50000000e-010,-1.30000023e-003
,,,-4.25000000e-010,-1.43046899e-003
,,,-4.00000000e-010,-1.56484400e-003
,,,-3.75000000e-010,-1.70312526e-003
,,,-3.50000000e-010,-1.84765652e-003
,,,-3.25000000e-010,-1.99765653e-003
,,,-3.00000000e-010,-2.15546904e-003
,,,-2.75000000e-010,-2.32265655e-003
,,,-2.50000000e-010,-2.50000032e-003
,,,-2.25000000e-010,-2.69687533e-003
,,,-2.00000000e-010,-2.91093785e-003
,,,-1.75000000e-010,-3.14296911e-003
,,,-1.50000000e-010,-3.39140663e-003
,,,-1.25000000e-010,-3.65390665e-003
,,,-1.00000000e-010,-3.92812542e-003
,,,-7.50000000e-011,-4.21171919e-003
,,,-5.00000000e-011,-4.50000046e-003
,,,-2.50000000e-011,-4.77265673e-003
,,,0.00000000e+000,-5.04531300e-003
,,,2.50000000e-011,-5.31484427e-003
,,,5.00000000e-011,-5.57812553e-003
,,,7.50000000e-011,-5.83203180e-003
,,,1.00000000e-010,-6.07187557e-003
,,,1.25000000e-010,-6.29531309e-003
,,,1.50000000e-010,-6.50000060e-003
,,,1.75000000e-010,-6.64375061e-003
,,,2.00000000e-010,-6.77031312e-003
,,,2.25000000e-010,-6.88281313e-003
,,,2.50000000e-010,-6.98359438e-003
,,,2.75000000e-010,-7.07421939e-003
,,,3.00000000e-010,-7.15703190e-003
,,,3.25000000e-010,-7.23281315e-003
,,,3.50000000e-010,-7.30000066e-003
,,,3.75000000e-010,-7.31015691e-003
,,,4.00000000e-010,-7.31640691e-003
,,,4.25000000e-010,-7.32109441e-003
,,,4.50000000e-010,-7.32500066e-003
,,,4.75000000e-010,-7.32734441e-003
,,,5.00000000e-010,-7.32500066e-003
,,,5.25000000e-010,-7.31718816e-003
,,,5.50000000e-010,-7.30000066e-003
,,,5.75000000e-010,-7.22187565e-003
,,,6.00000000e-010,-7.13593814e-003
,,,6.25000000e-010,-7.04218814e-003
,,,6.50000000e-010,-6.94296938e-003
,,,6.75000000e-010,-6.83828187e-003
,,,7.00000000e-010,-6.72968812e-003
,,,7.25000000e-010,-6.61718811e-003
,,,7.50000000e-010,-6.50000060e-003
,,,7.75000000e-010,-6.33906309e-003
,,,8.00000000e-010,-6.17812558e-003
,,,8.25000000e-010,-6.01953182e-003
,,,8.50000000e-010,-5.86484430e-003
,,,8.75000000e-010,-5.71562554e-003
,,,9.00000000e-010,-5.57187553e-003
,,,9.25000000e-010,-5.43359427e-003
,,,9.50000000e-010,-5.30000051e-003
,,,9.75000000e-010,-5.14609425e-003
,,,1.00000000e-009,-4.99296924e-003
,,,1.02500000e-009,-4.84218798e-003
,,,1.05000000e-009,-4.69218797e-003
,,,1.07500000e-009,-4.54296921e-003
,,,1.10000000e-009,-4.39453170e-003
,,,1.12500000e-009,-4.24687544e-003
,,,1.15000000e-009,-4.10000043e-003
,,,1.17500000e-009,-3.94765667e-003
,,,1.20000000e-009,-3.79296916e-003
,,,1.22500000e-009,-3.63593790e-003
,,,1.25000000e-009,-3.47968789e-003
,,,1.27500000e-009,-3.32500038e-003
,,,1.30000000e-009,-3.17578161e-003
,,,1.32500000e-009,-3.03359410e-003
,,,1.35000000e-009,-2.90000034e-003
,,,1.37500000e-009,-2.78359409e-003
,,,1.40000000e-009,-2.67109408e-003
,,,1.42500000e-009,-2.56406282e-003
,,,1.45000000e-009,-2.46093781e-003
,,,1.47500000e-009,-2.36250031e-003
,,,1.50000000e-009,-2.26953155e-003
,,,1.52500000e-009,-2.18203154e-003
,,,1.55000000e-009,-2.10000029e-003
,,,1.57500000e-009,-2.03515653e-003
,,,1.60000000e-009,-1.96718778e-003
,,,1.62500000e-009,-1.89609402e-003
,,,1.65000000e-009,-1.81953152e-003
,,,1.67500000e-009,-1.74062526e-003
,,,1.70000000e-009,-1.65937526e-003
,,,1.72500000e-009,-1.57890650e-003
,,,1.75000000e-009,-1.50000025e-003
,,,1.77500000e-009,-1.43984399e-003
,,,1.80000000e-009,-1.38046899e-003
,,,1.82500000e-009,-1.32031273e-003
,,,1.85000000e-009,-1.26328148e-003
,,,1.87500000e-009,-1.21015648e-003
,,,1.90000000e-009,-1.16406272e-003
,,,1.92500000e-009,-1.12734397e-003
,,,1.95000000e-009,-1.10000022e-003
,,,1.97500000e-009,-1.09531272e-003
,,,2.00000000e-009,-1.09531272e-003
,,,2.02500000e-009,-1.09687522e-003
,,,2.05000000e-009,-1.10000022e-003
,,,2.07500000e-009,-1.10234397e-003
,,,2.10000000e-009,-1.10390647e-003
,,,2.12500000e-009,-1.10312522e-003
,,,2.15000000e-009,-1.10000022e-003
,,,2.17500000e-009,-1.10312522e-003
,,,2.20000000e-009,-1.09765647e-003
,,,2.22500000e-009,-1.08281272e-003
,,,2.25000000e-009,-1.05937521e-003
,,,2.27500000e-009,-1.02734396e-003
,,,2.30000000e-009,-9.89062710e-004
,,,2.32500000e-009,-9.45312707e-004
,,,2.35000000e-009,-9.00000203e-004
,,,2.37500000e-009,-8.60937701e-004
,,,2.40000000e-009,-8.21875198e-004
,,,2.42500000e-009,-7.85156445e-004
,,,2.45000000e-009,-7.53906443e-004
,,,2.47500000e-009,-7.28125191e-004
,,,2.50000000e-009,-7.10156440e-004
,,,2.52500000e-009,-7.00781439e-004
,,,2.55000000e-009,-7.00000189e-004
,,,2.57500000e-009,-7.11718940e-004
,,,2.60000000e-009,-7.26562691e-004
,,,2.62500000e-009,-7.40625192e-004
,,,2.65000000e-009,-7.50000193e-004
,,,2.67500000e-009,-7.53125193e-004
,,,2.70000000e-009,-7.46093943e-004
,,,2.72500000e-009,-7.28125191e-004
,,,2.75000000e-009,-7.00000189e-004
,,,2.77500000e-009,-6.64843937e-004
,,,2.80000000e-009,-6.24218934e-004
,,,2.82500000e-009,-5.80468931e-004
,,,2.85000000e-009,-5.39843928e-004
,,,2.87500000e-009,-5.07031426e-004
,,,2.90000000e-009,-4.87500174e-004
,,,2.92500000e-009,-4.84375174e-004
,,,2.95000000e-009,-5.00000175e-004
,,,2.97500000e-009,-5.36718928e-004
,,,3.00000000e-009,-5.87500181e-004
,,,3.02500000e-009,-6.49218936e-004
,,,3.05000000e-009,-7.14843940e-004
,,,3.07500000e-009,-7.78906445e-004
,,,3.10000000e-009,-8.33593949e-004
,,,3.12500000e-009,-8.75000202e-004
,,,3.15000000e-009,-9.00000203e-004
,,,3.17500000e-009,-9.03906454e-004
,,,3.20000000e-009,-8.89843953e-004
,,,3.22500000e-009,-8.61718951e-004
,,,3.25000000e-009,-8.23437698e-004
,,,3.27500000e-009,-7.82031445e-004
,,,3.30000000e-009,-7.44531442e-004
,,,3.32500000e-009,-7.15625190e-004
,,,3.35000000e-009,-7.00000189e-004
,,,3.37500000e-009,-6.99218939e-004
,,,3.40000000e-009,-7.13281440e-004
,,,3.42500000e-009,-7.40625192e-004
,,,3.45000000e-009,-7.75781445e-004
,,,3.47500000e-009,-8.14062697e-004
,,,3.50000000e-009,-8.50781450e-004
,,,3.52500000e-009,-8.80468952e-004
,,,3.55000000e-009,-9.00000203e-004
,,,3.57500000e-009,-9.02343954e-004
,,,3.60000000e-009,-8.91406453e-004
,,,3.62500000e-009,-8.67968951e-004
,,,3.65000000e-009,-8.35156449e-004
,,,3.67500000e-009,-7.98437696e-004
,,,3.70000000e-009,-7.60937694e-004
,,,3.72500000e-009,-7.26562691e-004
,,,3.75000000e-009,-7.00000189e-004
,,,3.77500000e-009,-6.79687688e-004
,,,3.80000000e-009,-6.69531437e-004
,,,3.82500000e-009,-6.67968937e-004
,,,3.85000000e-009,-6.73437687e-004
,,,3.87500000e-009,-6.82031438e-004
,,,3.90000000e-009,-6.91406439e-004
,,,3.92500000e-009,-6.98437689e-004
,,,3.95000000e-009,-7.00000189e-004
,,,3.97500000e-009,-6.90625189e-004
,,,4.00000000e-009,-6.73437687e-004
,,,4.02500000e-009,-6.49218936e-004
,,,4.05000000e-009,-6.20312684e-004
,,,4.07500000e-009,-5.88281431e-004
,,,4.10000000e-009,-5.55468929e-004
,,,4.12500000e-009,-5.25000177e-004
,,,4.15000000e-009,-5.00000175e-004
,,,4.17500000e-009,-4.80468924e-004
,,,4.20000000e-009,-4.68750173e-004
,,,4.22500000e-009,-4.63281422e-004
,,,4.25000000e-009,-4.64062673e-004
,,,4.27500000e-009,-4.68750173e-004
,,,4.30000000e-009,-4.78125174e-004
,,,4.32500000e-009,-4.88281424e-004
,,,4.35000000e-009,-5.00000175e-004
,,,4.37500000e-009,-5.09375176e-004
,,,4.40000000e-009,-5.17187676e-004
,,,4.42500000e-009,-5.21093927e-004
,,,4.45000000e-009,-5.22656427e-004
,,,4.47500000e-009,-5.21093927e-004
,,,4.50000000e-009,-5.16406426e-004
,,,4.52500000e-009,-5.09375176e-004
,,,4.55000000e-009,-5.00000175e-004
,,,4.57500000e-009,-4.88281424e-004
,,,4.60000000e-009,-4.72656423e-004
,,,4.62500000e-009,-4.53906422e-004
,,,4.65000000e-009,-4.31250170e-004
,,,4.67500000e-009,-4.03906418e-004
,,,4.70000000e-009,-3.72656416e-004
,,,4.72500000e-009,-3.37500164e-004
,,,4.75000000e-009,-3.00000161e-004
,,,4.77500000e-009,-2.61718908e-004
,,,4.80000000e-009,-2.23437656e-004
,,,4.82500000e-009,-1.87500153e-004
,,,4.85000000e-009,-1.55468901e-004
,,,4.87500000e-009,-1.28906399e-004
,,,4.90000000e-009,-1.10156397e-004
,,,4.92500000e-009,-1.00000147e-004
,,,4.95000000e-009,-1.00000147e-004
,,,4.97500000e-009,-1.11718898e-004
,,,5.00000000e-009,-1.32031399e-004
,,,5.02500000e-009,-1.57812651e-004
,,,5.05000000e-009,-1.87500153e-004
,,,5.07500000e-009,-2.18750155e-004
,,,5.10000000e-009,-2.49218907e-004
,,,5.12500000e-009,-2.76562659e-004
,,,5.15000000e-009,-3.00000161e-004
,,,5.17500000e-009,-3.15625162e-004
,,,5.20000000e-009,-3.24218913e-004
,,,5.22500000e-009,-3.26562663e-004
,,,5.25000000e-009,-3.24218913e-004
,,,5.27500000e-009,-3.18750162e-004
,,,5.30000000e-009,-3.11718912e-004
,,,5.32500000e-009,-3.04687661e-004
,,,5.35000000e-009,-3.00000161e-004
,,,5.37500000e-009,-2.94531411e-004
,,,5.40000000e-009,-2.91406410e-004
,,,5.42500000e-009,-2.90625160e-004
,,,5.45000000e-009,-2.92187660e-004
,,,5.47500000e-009,-2.93750160e-004
,,,5.50000000e-009,-2.96093911e-004
,,,5.52500000e-009,-2.98437661e-004
,,,5.55000000e-009,-3.00000161e-004
,,,5.57500000e-009,-2.96875161e-004
,,,5.60000000e-009,-2.92968910e-004
,,,5.62500000e-009,-2.88281410e-004
,,,5.65000000e-009,-2.84375160e-004
,,,5.67500000e-009,-2.82031410e-004
,,,5.70000000e-009,-2.84375160e-004
,,,5.72500000e-009,-2.89843910e-004
,,,5.75000000e-009,-3.00000161e-004
,,,5.77500000e-009,-3.07812661e-004
,,,5.80000000e-009,-3.17187662e-004
,,,5.82500000e-009,-3.25781413e-004
,,,5.85000000e-009,-3.32812663e-004
