RawData/SinglePhotoelectron/L6_2pt2C_5mV/wave015_Ch3.csv

"Record Length",1000,"Points",-7.72500000e-009,1.32031120e-004
"Sample Interval",2.50000000e-011,s,-7.70000000e-009,9.99998674e-005
"Trigger Point",309,"Samples",-7.67500000e-009,5.07811139e-005
"Trigger Time",2.09896970e-011,s,-7.65000000e-009,-1.09376405e-005
"",,,-7.62500000e-009,-8.04688954e-005
"Horizontal Offset",-7.72500000e-009,s,-7.60000000e-009,-1.50000150e-004
,,,-7.57500000e-009,-2.12500155e-004
,,,-7.55000000e-009,-2.62500158e-004
,,,-7.52500000e-009,-2.92187660e-004
,,,-7.50000000e-009,-3.00000161e-004
,,,-7.47500000e-009,-2.80468910e-004
,,,-7.45000000e-009,-2.39843907e-004
,,,-7.42500000e-009,-1.82031403e-004
,,,-7.40000000e-009,-1.14843898e-004
,,,-7.37500000e-009,-4.53126429e-005
,,,-7.35000000e-009,1.79686116e-005
,,,-7.32500000e-009,6.79686151e-005
,,,-7.30000000e-009,9.99998674e-005
,,,-7.27500000e-009,1.11718618e-004
,,,-7.25000000e-009,1.02343618e-004
,,,-7.22500000e-009,7.65623657e-005
,,,-7.20000000e-009,3.90623631e-005
,,,-7.17500000e-009,-3.90638997e-006
,,,-7.15000000e-009,-4.53126429e-005
,,,-7.12500000e-009,-7.89063953e-005
,,,-7.10000000e-009,-1.00000147e-004
,,,-7.07500000e-009,-1.02343897e-004
,,,-7.05000000e-009,-8.90626460e-005
,,,-7.02500000e-009,-6.32813942e-005
,,,-7.00000000e-009,-2.81251417e-005
,,,-6.97500000e-009,1.17186111e-005
,,,-6.95000000e-009,4.92186138e-005
,,,-6.92500000e-009,8.04686160e-005
,,,-6.90000000e-009,9.99998674e-005
,,,-6.87500000e-009,1.06249868e-004
,,,-6.85000000e-009,9.76561172e-005
,,,-6.82500000e-009,7.57811157e-005
,,,-6.80000000e-009,4.37498634e-005
,,,-6.77500000e-009,5.46861069e-006
,,,-6.75000000e-009,-3.43751421e-005
,,,-6.72500000e-009,-7.03126447e-005
,,,-6.70000000e-009,-1.00000147e-004
,,,-6.67500000e-009,-1.15625148e-004
,,,-6.65000000e-009,-1.17968898e-004
,,,-6.62500000e-009,-1.07031397e-004
,,,-6.60000000e-009,-8.28126456e-005
,,,-6.57500000e-009,-4.68751430e-005
,,,-6.55000000e-009,-2.34388986e-006
,,,-6.52500000e-009,4.76561137e-005
,,,-6.50000000e-009,9.99998674e-005
,,,-6.47500000e-009,1.48437371e-004
,,,-6.45000000e-009,1.92187374e-004
,,,-6.42500000e-009,2.30468627e-004
,,,-6.40000000e-009,2.60937379e-004
,,,-6.37500000e-009,2.83593630e-004
,,,-6.35000000e-009,2.97656131e-004
,,,-6.32500000e-009,3.03124882e-004
,,,-6.30000000e-009,2.99999882e-004
,,,-6.27500000e-009,2.88281131e-004
,,,-6.25000000e-009,2.70312379e-004
,,,-6.22500000e-009,2.46874878e-004
,,,-6.20000000e-009,2.19531126e-004
,,,-6.17500000e-009,1.89843624e-004
,,,-6.15000000e-009,1.59374872e-004
,,,-6.12500000e-009,1.28906119e-004
,,,-6.10000000e-009,9.99998674e-005
,,,-6.07500000e-009,7.42186156e-005
,,,-6.05000000e-009,5.39061141e-005
,,,-6.02500000e-009,4.06248632e-005
,,,-6.00000000e-009,3.59373628e-005
,,,-5.97500000e-009,4.06248632e-005
,,,-5.95000000e-009,5.31248641e-005
,,,-5.92500000e-009,7.42186156e-005
,,,-5.90000000e-009,9.99998674e-005
,,,-5.87500000e-009,1.26562369e-004
,,,-5.85000000e-009,1.51562371e-004
,,,-5.82500000e-009,1.71093622e-004
,,,-5.80000000e-009,1.82812373e-004
,,,-5.77500000e-009,1.82812373e-004
,,,-5.75000000e-009,1.69531122e-004
,,,-5.72500000e-009,1.42187370e-004
,,,-5.70000000e-009,9.99998674e-005
,,,-5.67500000e-009,4.37498634e-005
,,,-5.65000000e-009,-2.10938912e-005
,,,-5.62500000e-009,-8.90626460e-005
,,,-5.60000000e-009,-1.55468901e-004
,,,-5.57500000e-009,-2.14062655e-004
,,,-5.55000000e-009,-2.60156408e-004
,,,-5.52500000e-009,-2.89843910e-004
,,,-5.50000000e-009,-3.00000161e-004
,,,-5.47500000e-009,-2.87500160e-004
,,,-5.45000000e-009,-2.55468908e-004
,,,-5.42500000e-009,-2.07812654e-004
,,,-5.40000000e-009,-1.48437650e-004
,,,-5.37500000e-009,-8.20313955e-005
,,,-5.35000000e-009,-1.48438907e-005
,,,-5.32500000e-009,4.76561137e-005
,,,-5.30000000e-009,9.99998674e-005
,,,-5.27500000e-009,1.38281120e-004
,,,-5.25000000e-009,1.57031121e-004
,,,-5.22500000e-009,1.56249871e-004
,,,-5.20000000e-009,1.35156120e-004
,,,-5.17500000e-009,9.68748672e-005
,,,-5.15000000e-009,4.21873633e-005
,,,-5.12500000e-009,-2.50001415e-005
,,,-5.10000000e-009,-1.00000147e-004
,,,-5.07500000e-009,-1.75781402e-004
,,,-5.05000000e-009,-2.50781407e-004
,,,-5.02500000e-009,-3.20312662e-004
,,,-5.00000000e-009,-3.80468917e-004
,,,-4.97500000e-009,-4.30468920e-004
,,,-4.95000000e-009,-4.67187673e-004
,,,-4.92500000e-009,-4.90625174e-004
,,,-4.90000000e-009,-5.00000175e-004
,,,-4.87500000e-009,-4.90625174e-004
,,,-4.85000000e-009,-4.71093923e-004
,,,-4.82500000e-009,-4.43750171e-004
,,,-4.80000000e-009,-4.12500169e-004
,,,-4.77500000e-009,-3.78906417e-004
,,,-4.75000000e-009,-3.47656414e-004
,,,-4.72500000e-009,-3.20312662e-004
,,,-4.70000000e-009,-3.00000161e-004
,,,-4.67500000e-009,-2.83593910e-004
,,,-4.65000000e-009,-2.75000159e-004
,,,-4.62500000e-009,-2.74218909e-004
,,,-4.60000000e-009,-2.78125159e-004
,,,-4.57500000e-009,-2.85156410e-004
,,,-4.55000000e-009,-2.92968910e-004
,,,-4.52500000e-009,-2.98437661e-004
,,,-4.50000000e-009,-3.00000161e-004
,,,-4.47500000e-009,-2.95312661e-004
,,,-4.45000000e-009,-2.83593910e-004
,,,-4.42500000e-009,-2.64843908e-004
,,,-4.40000000e-009,-2.39843907e-004
,,,-4.37500000e-009,-2.09375155e-004
,,,-4.35000000e-009,-1.74218902e-004
,,,-4.32500000e-009,-1.37500149e-004
,,,-4.30000000e-009,-1.00000147e-004
,,,-4.27500000e-009,-6.40626442e-005
,,,-4.25000000e-009,-3.12501419e-005
,,,-4.22500000e-009,-1.56263981e-006
,,,-4.20000000e-009,2.42186120e-005
,,,-4.17500000e-009,4.68748636e-005
,,,-4.15000000e-009,6.71873651e-005
,,,-4.12500000e-009,8.43748663e-005
,,,-4.10000000e-009,9.99998674e-005
,,,-4.07500000e-009,1.10156118e-004
,,,-4.05000000e-009,1.17968619e-004
,,,-4.02500000e-009,1.22656119e-004
,,,-4.00000000e-009,1.24999869e-004
,,,-3.97500000e-009,1.24218619e-004
,,,-3.95000000e-009,1.19531119e-004
,,,-3.92500000e-009,1.11718618e-004
,,,-3.90000000e-009,9.99998674e-005
,,,-3.87500000e-009,7.96873659e-005
,,,-3.85000000e-009,5.62498643e-005
,,,-3.82500000e-009,3.12498625e-005
,,,-3.80000000e-009,4.68736063e-006
,,,-3.77500000e-009,-2.26563913e-005
,,,-3.75000000e-009,-4.92188932e-005
,,,-3.72500000e-009,-7.50001450e-005
,,,-3.70000000e-009,-1.00000147e-004
,,,-3.67500000e-009,-1.25781399e-004
,,,-3.65000000e-009,-1.50781400e-004
,,,-3.62500000e-009,-1.75000152e-004
,,,-3.60000000e-009,-1.98437654e-004
,,,-3.57500000e-009,-2.22656405e-004
,,,-3.55000000e-009,-2.46875157e-004
,,,-3.52500000e-009,-2.72656409e-004
,,,-3.50000000e-009,-3.00000161e-004
,,,-3.47500000e-009,-3.26562663e-004
,,,-3.45000000e-009,-3.53906415e-004
,,,-3.42500000e-009,-3.81250167e-004
,,,-3.40000000e-009,-4.07812669e-004
,,,-3.37500000e-009,-4.34375170e-004
,,,-3.35000000e-009,-4.58593922e-004
,,,-3.32500000e-009,-4.80468924e-004
,,,-3.30000000e-009,-5.00000175e-004
,,,-3.27500000e-009,-5.10937676e-004
,,,-3.25000000e-009,-5.17968926e-004
,,,-3.22500000e-009,-5.21093927e-004
,,,-3.20000000e-009,-5.21093927e-004
,,,-3.17500000e-009,-5.17968926e-004
,,,-3.15000000e-009,-5.12500176e-004
,,,-3.12500000e-009,-5.06250176e-004
,,,-3.10000000e-009,-5.00000175e-004
,,,-3.07500000e-009,-4.88281424e-004
,,,-3.05000000e-009,-4.78125174e-004
,,,-3.02500000e-009,-4.71875173e-004
,,,-3.00000000e-009,-4.68750173e-004
,,,-2.97500000e-009,-4.70312673e-004
,,,-2.95000000e-009,-4.75781423e-004
,,,-2.92500000e-009,-4.85937674e-004
,,,-2.90000000e-009,-5.00000175e-004
,,,-2.87500000e-009,-5.10937676e-004
,,,-2.85000000e-009,-5.21875177e-004
,,,-2.82500000e-009,-5.32812677e-004
,,,-2.80000000e-009,-5.39843928e-004
,,,-2.77500000e-009,-5.41406428e-004
,,,-2.75000000e-009,-5.35937678e-004
,,,-2.72500000e-009,-5.22656427e-004
,,,-2.70000000e-009,-5.00000175e-004
,,,-2.67500000e-009,-4.64062673e-004
,,,-2.65000000e-009,-4.20312669e-004
,,,-2.62500000e-009,-3.70312666e-004
,,,-2.60000000e-009,-3.15625162e-004
,,,-2.57500000e-009,-2.59375158e-004
,,,-2.55000000e-009,-2.03125154e-004
,,,-2.52500000e-009,-1.49218900e-004
,,,-2.50000000e-009,-1.00000147e-004
,,,-2.47500000e-009,-5.85938938e-005
,,,-2.45000000e-009,-2.34376414e-005
,,,-2.42500000e-009,5.46861069e-006
,,,-2.40000000e-009,2.89061123e-005
,,,-2.37500000e-009,4.92186138e-005
,,,-2.35000000e-009,6.71873651e-005
,,,-2.32500000e-009,8.43748663e-005
,,,-2.30000000e-009,9.99998674e-005
,,,-2.27500000e-009,1.11718618e-004
,,,-2.25000000e-009,1.21874869e-004
,,,-2.22500000e-009,1.30468620e-004
,,,-2.20000000e-009,1.35937370e-004
,,,-2.17500000e-009,1.36718620e-004
,,,-2.15000000e-009,1.32031120e-004
,,,-2.12500000e-009,1.19531119e-004
,,,-2.10000000e-009,9.99998674e-005
,,,-2.07500000e-009,6.87498652e-005
,,,-2.05000000e-009,3.28123626e-005
,,,-2.02500000e-009,-3.90638997e-006
,,,-2.00000000e-009,-3.82813924e-005
,,,-1.97500000e-009,-6.71876445e-005
,,,-1.95000000e-009,-8.82813959e-005
,,,-1.92500000e-009,-9.92188967e-005
,,,-1.90000000e-009,-1.00000147e-004
,,,-1.87500000e-009,-9.45313964e-005
,,,-1.85000000e-009,-8.28126456e-005
,,,-1.82500000e-009,-6.79688945e-005
,,,-1.80000000e-009,-5.46876436e-005
,,,-1.77500000e-009,-4.76563931e-005
,,,-1.75000000e-009,-5.07813933e-005
,,,-1.72500000e-009,-6.71876445e-005
,,,-1.70000000e-009,-1.00000147e-004
,,,-1.67500000e-009,-1.50000150e-004
,,,-1.65000000e-009,-2.11718905e-004
,,,-1.62500000e-009,-2.78906409e-004
,,,-1.60000000e-009,-3.46875164e-004
,,,-1.57500000e-009,-4.07031419e-004
,,,-1.55000000e-009,-4.56250172e-004
,,,-1.52500000e-009,-4.87500174e-004
,,,-1.50000000e-009,-5.00000175e-004
,,,-1.47500000e-009,-4.93750175e-004
,,,-1.45000000e-009,-4.71875173e-004
,,,-1.42500000e-009,-4.38281421e-004
,,,-1.40000000e-009,-3.97656418e-004
,,,-1.37500000e-009,-3.57812665e-004
,,,-1.35000000e-009,-3.24218913e-004
,,,-1.32500000e-009,-3.03906411e-004
,,,-1.30000000e-009,-3.00000161e-004
,,,-1.27500000e-009,-3.20312662e-004
,,,-1.25000000e-009,-3.60937665e-004
,,,-1.22500000e-009,-4.16406419e-004
,,,-1.20000000e-009,-4.81250174e-004
,,,-1.17500000e-009,-5.49218929e-004
,,,-1.15000000e-009,-6.12500183e-004
,,,-1.12500000e-009,-6.64843937e-004
,,,-1.10000000e-009,-7.00000189e-004
,,,-1.07500000e-009,-7.27343941e-004
,,,-1.05000000e-009,-7.35937692e-004
,,,-1.02500000e-009,-7.27343941e-004
,,,-1.00000000e-009,-7.01562689e-004
,,,-9.75000000e-010,-6.60937686e-004
,,,-9.50000000e-010,-6.10937683e-004
,,,-9.25000000e-010,-5.54687679e-004
,,,-9.00000000e-010,-5.00000175e-004
,,,-8.75000000e-010,-4.78906424e-004
,,,-8.50000000e-010,-4.74218923e-004
,,,-8.25000000e-010,-4.85156424e-004
,,,-8.00000000e-010,-5.10156426e-004
,,,-7.75000000e-010,-5.47656428e-004
,,,-7.50000000e-010,-5.92968932e-004
,,,-7.25000000e-010,-6.44531435e-004
,,,-7.00000000e-010,-7.00000189e-004
,,,-6.75000000e-010,-7.92187696e-004
,,,-6.50000000e-010,-8.89062703e-004
,,,-6.25000000e-010,-9.84375209e-004
,,,-6.00000000e-010,-1.07421897e-003
,,,-5.75000000e-010,-1.15234397e-003
,,,-5.50000000e-010,-1.21640648e-003
,,,-5.25000000e-010,-1.26562523e-003
,,,-5.00000000e-010,-1.30000023e-003
,,,-4.75000000e-010,-1.36250024e-003
,,,-4.50000000e-010,-1.42500024e-003
,,,-4.25000000e-010,-1.48906275e-003
,,,-4.00000000e-010,-1.55468775e-003
,,,-3.75000000e-010,-1.62578150e-003
,,,-3.50000000e-010,-1.70468776e-003
,,,-3.25000000e-010,-1.79453152e-003
,,,-3.00000000e-010,-1.90000027e-003
,,,-2.75000000e-010,-2.05781279e-003
,,,-2.50000000e-010,-2.24609405e-003
,,,-2.25000000e-010,-2.46328156e-003
,,,-2.00000000e-010,-2.70781283e-003
,,,-1.75000000e-010,-2.97734410e-003
,,,-1.50000000e-010,-3.26796912e-003
,,,-1.25000000e-010,-3.57656289e-003
,,,-1.00000000e-010,-3.90000042e-003
,,,-7.50000000e-011,-4.24296919e-003
,,,-5.00000000e-011,-4.59687547e-003
,,,-2.50000000e-011,-4.95625049e-003
,,,0.00000000e+000,-5.31718802e-003
,,,2.50000000e-011,-5.67500054e-003
,,,5.00000000e-011,-6.02656307e-003
,,,7.50000000e-011,-6.36875059e-003
,,,1.00000000e-010,-6.70000061e-003
,,,1.25000000e-010,-6.99296938e-003
,,,1.50000000e-010,-7.27656315e-003
,,,1.75000000e-010,-7.55468817e-003
,,,2.00000000e-010,-7.82812569e-003
,,,2.25000000e-010,-8.10000071e-003
,,,2.50000000e-010,-8.36875073e-003
,,,2.75000000e-010,-8.63593825e-003
,,,3.00000000e-010,-8.90000077e-003
,,,3.25000000e-010,-9.10546953e-003
,,,3.50000000e-010,-9.30546955e-003
,,,3.75000000e-010,-9.50078206e-003
,,,4.00000000e-010,-9.68984458e-003
,,,4.25000000e-010,-9.86796959e-003
,,,4.50000000e-010,-1.00320321e-002
,,,4.75000000e-010,-1.01773446e-002
,,,5.00000000e-010,-1.03000009e-002
,,,5.25000000e-010,-1.03265634e-002
,,,5.50000000e-010,-1.03304696e-002
,,,5.75000000e-010,-1.03171884e-002
,,,6.00000000e-010,-1.02906259e-002
,,,6.25000000e-010,-1.02531259e-002
,,,6.50000000e-010,-1.02085946e-002
,,,6.75000000e-010,-1.01578134e-002
,,,7.00000000e-010,-1.01000009e-002
,,,7.25000000e-010,-9.96562585e-003
,,,7.50000000e-010,-9.82812584e-003
,,,7.75000000e-010,-9.68828208e-003
,,,8.00000000e-010,-9.54531332e-003
,,,8.25000000e-010,-9.39843830e-003
,,,8.50000000e-010,-9.24375079e-003
,,,8.75000000e-010,-9.07890703e-003
,,,9.00000000e-010,-8.90000077e-003
,,,9.25000000e-010,-8.65468825e-003
,,,9.50000000e-010,-8.39921948e-003
,,,9.75000000e-010,-8.13906322e-003
,,,1.00000000e-009,-7.87734445e-003
,,,1.02500000e-009,-7.61953193e-003
,,,1.05000000e-009,-7.36953191e-003
,,,1.07500000e-009,-7.12968814e-003
,,,1.10000000e-009,-6.90000063e-003
,,,1.12500000e-009,-6.65625061e-003
,,,1.15000000e-009,-6.42187559e-003
,,,1.17500000e-009,-6.19453183e-003
,,,1.20000000e-009,-5.97343806e-003
,,,1.22500000e-009,-5.75625055e-003
,,,1.25000000e-009,-5.53906303e-003
,,,1.27500000e-009,-5.32109427e-003
,,,1.30000000e-009,-5.10000050e-003
,,,1.32500000e-009,-4.87500048e-003
,,,1.35000000e-009,-4.64218797e-003
,,,1.37500000e-009,-4.40546920e-003
,,,1.40000000e-009,-4.16640668e-003
,,,1.42500000e-009,-3.93125042e-003
,,,1.45000000e-009,-3.70468790e-003
,,,1.47500000e-009,-3.49296914e-003
,,,1.50000000e-009,-3.30000037e-003
,,,1.52500000e-009,-3.14921911e-003
,,,1.55000000e-009,-3.01484410e-003
,,,1.57500000e-009,-2.89531284e-003
,,,1.60000000e-009,-2.79062534e-003
,,,1.62500000e-009,-2.69921908e-003
,,,1.65000000e-009,-2.62187533e-003
,,,1.67500000e-009,-2.55546907e-003
,,,1.70000000e-009,-2.50000032e-003
,,,1.72500000e-009,-2.47421906e-003
,,,1.75000000e-009,-2.44375031e-003
,,,1.77500000e-009,-2.40546906e-003
,,,1.80000000e-009,-2.35781281e-003
,,,1.82500000e-009,-2.30156280e-003
,,,1.85000000e-009,-2.23828155e-003
,,,1.87500000e-009,-2.16953154e-003
,,,1.90000000e-009,-2.10000029e-003
,,,1.92500000e-009,-2.05078153e-003
,,,1.95000000e-009,-1.99687528e-003
,,,1.97500000e-009,-1.93750028e-003
,,,2.00000000e-009,-1.87812527e-003
,,,2.02500000e-009,-1.82031277e-003
,,,2.05000000e-009,-1.76875026e-003
,,,2.07500000e-009,-1.72812526e-003
,,,2.10000000e-009,-1.70000026e-003
,,,2.12500000e-009,-1.70312526e-003
,,,2.15000000e-009,-1.71406276e-003
,,,2.17500000e-009,-1.73281276e-003
,,,2.20000000e-009,-1.75781276e-003
,,,2.22500000e-009,-1.78828152e-003
,,,2.25000000e-009,-1.82265652e-003
,,,2.27500000e-009,-1.86093777e-003
,,,2.30000000e-009,-1.90000027e-003
,,,2.32500000e-009,-1.94296903e-003
,,,2.35000000e-009,-1.97656278e-003
,,,2.37500000e-009,-1.99765653e-003
,,,2.40000000e-009,-2.00546903e-003
,,,2.42500000e-009,-1.99921903e-003
,,,2.45000000e-009,-1.97890653e-003
,,,2.47500000e-009,-1.94531278e-003
,,,2.50000000e-009,-1.90000027e-003
,,,2.52500000e-009,-1.84296902e-003
,,,2.55000000e-009,-1.77578152e-003
,,,2.57500000e-009,-1.69921901e-003
,,,2.60000000e-009,-1.61796900e-003
,,,2.62500000e-009,-1.53437525e-003
,,,2.65000000e-009,-1.45156274e-003
,,,2.67500000e-009,-1.37265649e-003
,,,2.70000000e-009,-1.30000023e-003
,,,2.72500000e-009,-1.23828148e-003
,,,2.75000000e-009,-1.18593772e-003
,,,2.77500000e-009,-1.14531272e-003
,,,2.80000000e-009,-1.11484397e-003
,,,2.82500000e-009,-1.09609397e-003
,,,2.85000000e-009,-1.08828147e-003
,,,2.87500000e-009,-1.08984397e-003
,,,2.90000000e-009,-1.10000022e-003
,,,2.92500000e-009,-1.11640647e-003
,,,2.95000000e-009,-1.13281272e-003
,,,2.97500000e-009,-1.14765647e-003
,,,3.00000000e-009,-1.15625022e-003
,,,3.02500000e-009,-1.15703147e-003
,,,3.05000000e-009,-1.14843772e-003
,,,3.07500000e-009,-1.12968772e-003
,,,3.10000000e-009,-1.10000022e-003
,,,3.12500000e-009,-1.06015646e-003
,,,3.15000000e-009,-1.01171896e-003
,,,3.17500000e-009,-9.57031457e-004
,,,3.20000000e-009,-8.99218953e-004
,,,3.22500000e-009,-8.40625199e-004
,,,3.25000000e-009,-7.86718945e-004
,,,3.27500000e-009,-7.38281442e-004
,,,3.30000000e-009,-7.00000189e-004
,,,3.32500000e-009,-6.75000187e-004
,,,3.35000000e-009,-6.59375186e-004
,,,3.37500000e-009,-6.53125186e-004
,,,3.40000000e-009,-6.54687686e-004
,,,3.42500000e-009,-6.61718937e-004
,,,3.45000000e-009,-6.72656437e-004
,,,3.47500000e-009,-6.85937688e-004
,,,3.50000000e-009,-7.00000189e-004
,,,3.52500000e-009,-7.14062690e-004
,,,3.55000000e-009,-7.24218941e-004
,,,3.57500000e-009,-7.28125191e-004
,,,3.60000000e-009,-7.28125191e-004
,,,3.62500000e-009,-7.23437691e-004
,,,3.65000000e-009,-7.16406440e-004
,,,3.67500000e-009,-7.07812690e-004
,,,3.70000000e-009,-7.00000189e-004
,,,3.72500000e-009,-6.93750189e-004
,,,3.75000000e-009,-6.89843939e-004
,,,3.77500000e-009,-6.87500188e-004
,,,3.80000000e-009,-6.86718938e-004
,,,3.82500000e-009,-6.88281438e-004
,,,3.85000000e-009,-6.90625189e-004
,,,3.87500000e-009,-6.94531439e-004
,,,3.90000000e-009,-7.00000189e-004
,,,3.92500000e-009,-7.03906440e-004
,,,3.95000000e-009,-7.07812690e-004
,,,3.97500000e-009,-7.09375190e-004
,,,4.00000000e-009,-7.10937690e-004
,,,4.02500000e-009,-7.10156440e-004
,,,4.05000000e-009,-7.08593940e-004
,,,4.07500000e-009,-7.04687690e-004
,,,4.10000000e-009,-7.00000189e-004
,,,4.12500000e-009,-6.91406439e-004
,,,4.15000000e-009,-6.78906438e-004
,,,4.17500000e-009,-6.61718937e-004
,,,4.20000000e-009,-6.39843935e-004
,,,4.22500000e-009,-6.11718933e-004
,,,4.25000000e-009,-5.78906431e-004
,,,4.27500000e-009,-5.41406428e-004
,,,4.30000000e-009,-5.00000175e-004
,,,4.32500000e-009,-4.53125172e-004
,,,4.35000000e-009,-4.07812669e-004
,,,4.37500000e-009,-3.65625166e-004
,,,4.40000000e-009,-3.29687663e-004
,,,4.42500000e-009,-3.03125161e-004
,,,4.45000000e-009,-2.89062660e-004
,,,4.47500000e-009,-2.87500160e-004
,,,4.50000000e-009,-3.00000161e-004
,,,4.52500000e-009,-3.23437663e-004
,,,4.55000000e-009,-3.54687665e-004
,,,4.57500000e-009,-3.91406417e-004
,,,4.60000000e-009,-4.28125170e-004
,,,4.62500000e-009,-4.60156422e-004
,,,4.65000000e-009,-4.85156424e-004
,,,4.67500000e-009,-4.98437675e-004
,,,4.70000000e-009,-5.00000175e-004
,,,4.72500000e-009,-4.85937674e-004
,,,4.75000000e-009,-4.60937672e-004
,,,4.77500000e-009,-4.27343920e-004
,,,4.80000000e-009,-3.90625167e-004
,,,4.82500000e-009,-3.55468915e-004
,,,4.85000000e-009,-3.26562663e-004
,,,4.87500000e-009,-3.07812661e-004
,,,4.90000000e-009,-3.00000161e-004
,,,4.92500000e-009,-3.03125161e-004
,,,4.95000000e-009,-3.14843912e-004
,,,4.97500000e-009,-3.31250163e-004
,,,5.00000000e-009,-3.46093914e-004
,,,5.02500000e-009,-3.56250165e-004
,,,5.05000000e-009,-3.53906415e-004
,,,5.07500000e-009,-3.35937663e-004
,,,5.10000000e-009,-3.00000161e-004
,,,5.12500000e-009,-2.45312657e-004
,,,5.15000000e-009,-1.73437652e-004
,,,5.17500000e-009,-8.98438961e-005
,,,5.20000000e-009,1.56236041e-006
,,,5.22500000e-009,9.21873668e-005
,,,5.25000000e-009,1.76562373e-004
,,,5.27500000e-009,2.47656128e-004
,,,5.30000000e-009,2.99999882e-004
,,,5.32500000e-009,3.26562383e-004
,,,5.35000000e-009,3.30468634e-004
,,,5.37500000e-009,3.15624883e-004
,,,5.40000000e-009,2.83593630e-004
,,,5.42500000e-009,2.41406127e-004
,,,5.45000000e-009,1.92968624e-004
,,,5.47500000e-009,1.44531121e-004
,,,5.50000000e-009,9.99998674e-005
,,,5.52500000e-009,6.17186147e-005
,,,5.55000000e-009,3.59373628e-005
,,,5.57500000e-009,2.26561119e-005
,,,5.60000000e-009,2.18748618e-005
,,,5.62500000e-009,3.20311126e-005
,,,5.65000000e-009,5.07811139e-005
,,,5.67500000e-009,7.42186156e-005
,,,5.70000000e-009,9.99998674e-005
,,,5.72500000e-009,1.21874869e-004
,,,5.75000000e-009,1.39843620e-004
,,,5.77500000e-009,1.51562371e-004
,,,5.80000000e-009,1.57031121e-004
,,,5.82500000e-009,1.53906121e-004
,,,5.85000000e-009,1.42968620e-004
,,,5.87500000e-009,1.24999869e-004
,,,5.90000000e-009,9.99998674e-005
