RawData/SinglePhotoelectron/L6_2pt2C_5mV/wave000_Ch3.csv

"Record Length",1000,"Points",-7.72500000e-009,3.18749883e-004
"Sample Interval",2.50000000e-011,s,-7.70000000e-009,3.08593632e-004
"Trigger Point",309,"Samples",-7.67500000e-009,2.99999882e-004
"Trigger Time",1.28909677e-011,s,-7.65000000e-009,2.95312381e-004
"",,,-7.62500000e-009,2.94531131e-004
"Horizontal Offset",-7.72500000e-009,s,-7.60000000e-009,2.96093631e-004
,,,-7.57500000e-009,2.99218631e-004
,,,-7.55000000e-009,3.03124882e-004
,,,-7.52500000e-009,3.05468632e-004
,,,-7.50000000e-009,3.04687382e-004
,,,-7.47500000e-009,2.99999882e-004
,,,-7.45000000e-009,2.92187381e-004
,,,-7.42500000e-009,2.82812380e-004
,,,-7.40000000e-009,2.72656130e-004
,,,-7.37500000e-009,2.65624879e-004
,,,-7.35000000e-009,2.62499879e-004
,,,-7.32500000e-009,2.67187379e-004
,,,-7.30000000e-009,2.78906130e-004
,,,-7.27500000e-009,2.99999882e-004
,,,-7.25000000e-009,3.28906134e-004
,,,-7.22500000e-009,3.63281136e-004
,,,-7.20000000e-009,4.00781139e-004
,,,-7.17500000e-009,4.37499891e-004
,,,-7.15000000e-009,4.68749893e-004
,,,-7.12500000e-009,4.91406145e-004
,,,-7.10000000e-009,5.02343646e-004
,,,-7.07500000e-009,4.99999896e-004
,,,-7.05000000e-009,4.82812394e-004
,,,-7.02500000e-009,4.55468643e-004
,,,-7.00000000e-009,4.21093640e-004
,,,-6.97500000e-009,3.84374888e-004
,,,-6.95000000e-009,3.49999885e-004
,,,-6.92500000e-009,3.21874883e-004
,,,-6.90000000e-009,3.04687382e-004
,,,-6.87500000e-009,2.99999882e-004
,,,-6.85000000e-009,3.10156132e-004
,,,-6.82500000e-009,3.32812384e-004
,,,-6.80000000e-009,3.64062386e-004
,,,-6.77500000e-009,3.99999889e-004
,,,-6.75000000e-009,4.36718641e-004
,,,-6.72500000e-009,4.67968643e-004
,,,-6.70000000e-009,4.90624895e-004
,,,-6.67500000e-009,4.99999896e-004
,,,-6.65000000e-009,4.96093645e-004
,,,-6.62500000e-009,4.78906144e-004
,,,-6.60000000e-009,4.50781142e-004
,,,-6.57500000e-009,4.16406140e-004
,,,-6.55000000e-009,3.79687387e-004
,,,-6.52500000e-009,3.45312385e-004
,,,-6.50000000e-009,3.17968633e-004
,,,-6.47500000e-009,2.99999882e-004
,,,-6.45000000e-009,2.97656131e-004
,,,-6.42500000e-009,3.07812382e-004
,,,-6.40000000e-009,3.29687384e-004
,,,-6.37500000e-009,3.60156136e-004
,,,-6.35000000e-009,3.96874888e-004
,,,-6.32500000e-009,4.34374891e-004
,,,-6.30000000e-009,4.70312394e-004
,,,-6.27500000e-009,4.99999896e-004
,,,-6.25000000e-009,5.21874897e-004
,,,-6.22500000e-009,5.34374898e-004
,,,-6.20000000e-009,5.39062398e-004
,,,-6.17500000e-009,5.35937398e-004
,,,-6.15000000e-009,5.28906148e-004
,,,-6.12500000e-009,5.18749897e-004
,,,-6.10000000e-009,5.08593646e-004
,,,-6.07500000e-009,4.99999896e-004
,,,-6.05000000e-009,4.96093645e-004
,,,-6.02500000e-009,4.95312395e-004
,,,-6.00000000e-009,4.96874895e-004
,,,-5.97500000e-009,5.00781146e-004
,,,-5.95000000e-009,5.03906146e-004
,,,-5.92500000e-009,5.05468646e-004
,,,-5.90000000e-009,5.04687396e-004
,,,-5.87500000e-009,4.99999896e-004
,,,-5.85000000e-009,4.91406145e-004
,,,-5.82500000e-009,4.79687394e-004
,,,-5.80000000e-009,4.68749893e-004
,,,-5.77500000e-009,4.60937393e-004
,,,-5.75000000e-009,4.58593643e-004
,,,-5.72500000e-009,4.63281143e-004
,,,-5.70000000e-009,4.77343644e-004
,,,-5.67500000e-009,4.99999896e-004
,,,-5.65000000e-009,5.29687398e-004
,,,-5.62500000e-009,5.64843650e-004
,,,-5.60000000e-009,6.02343653e-004
,,,-5.57500000e-009,6.38281155e-004
,,,-5.55000000e-009,6.68749908e-004
,,,-5.52500000e-009,6.90624909e-004
,,,-5.50000000e-009,7.02343660e-004
,,,-5.47500000e-009,6.99999910e-004
,,,-5.45000000e-009,6.81249909e-004
,,,-5.42500000e-009,6.51562406e-004
,,,-5.40000000e-009,6.14843654e-004
,,,-5.37500000e-009,5.77343651e-004
,,,-5.35000000e-009,5.42187399e-004
,,,-5.32500000e-009,5.15624897e-004
,,,-5.30000000e-009,5.00781146e-004
,,,-5.27500000e-009,4.99999896e-004
,,,-5.25000000e-009,5.10937396e-004
,,,-5.22500000e-009,5.34374898e-004
,,,-5.20000000e-009,5.67187400e-004
,,,-5.17500000e-009,6.04687403e-004
,,,-5.15000000e-009,6.41406156e-004
,,,-5.12500000e-009,6.72656158e-004
,,,-5.10000000e-009,6.93749909e-004
,,,-5.07500000e-009,6.99999910e-004
,,,-5.05000000e-009,6.85156159e-004
,,,-5.02500000e-009,6.53124907e-004
,,,-5.00000000e-009,6.06249903e-004
,,,-4.97500000e-009,5.49218649e-004
,,,-4.95000000e-009,4.85156145e-004
,,,-4.92500000e-009,4.19531140e-004
,,,-4.90000000e-009,3.56249886e-004
,,,-4.87500000e-009,2.99999882e-004
,,,-4.85000000e-009,2.52343628e-004
,,,-4.82500000e-009,2.14062375e-004
,,,-4.80000000e-009,1.85937373e-004
,,,-4.77500000e-009,1.64843622e-004
,,,-4.75000000e-009,1.48437371e-004
,,,-4.72500000e-009,1.33593620e-004
,,,-4.70000000e-009,1.18749869e-004
,,,-4.67500000e-009,9.99998674e-005
,,,-4.65000000e-009,7.81248658e-005
,,,-4.62500000e-009,5.07811139e-005
,,,-4.60000000e-009,2.03123617e-005
,,,-4.57500000e-009,-1.17188905e-005
,,,-4.55000000e-009,-4.14063926e-005
,,,-4.52500000e-009,-6.79688945e-005
,,,-4.50000000e-009,-8.75001459e-005
,,,-4.47500000e-009,-1.00000147e-004
,,,-4.45000000e-009,-1.01562647e-004
,,,-4.42500000e-009,-9.76563966e-005
,,,-4.40000000e-009,-9.06251461e-005
,,,-4.37500000e-009,-8.28126456e-005
,,,-4.35000000e-009,-7.81251452e-005
,,,-4.32500000e-009,-7.73438952e-005
,,,-4.30000000e-009,-8.43751457e-005
,,,-4.27500000e-009,-1.00000147e-004
,,,-4.25000000e-009,-1.21093898e-004
,,,-4.22500000e-009,-1.49218900e-004
,,,-4.20000000e-009,-1.82812653e-004
,,,-4.17500000e-009,-2.17187655e-004
,,,-4.15000000e-009,-2.50000157e-004
,,,-4.12500000e-009,-2.76562659e-004
,,,-4.10000000e-009,-2.93750160e-004
,,,-4.07500000e-009,-3.00000161e-004
,,,-4.05000000e-009,-2.86718910e-004
,,,-4.02500000e-009,-2.63281408e-004
,,,-4.00000000e-009,-2.32812656e-004
,,,-3.97500000e-009,-1.97656404e-004
,,,-3.95000000e-009,-1.63281401e-004
,,,-3.92500000e-009,-1.33593899e-004
,,,-3.90000000e-009,-1.10937648e-004
,,,-3.87500000e-009,-1.00000147e-004
,,,-3.85000000e-009,-9.76563966e-005
,,,-3.82500000e-009,-1.08593897e-004
,,,-3.80000000e-009,-1.29687649e-004
,,,-3.77500000e-009,-1.60156401e-004
,,,-3.75000000e-009,-1.96093904e-004
,,,-3.72500000e-009,-2.32812656e-004
,,,-3.70000000e-009,-2.68750159e-004
,,,-3.67500000e-009,-3.00000161e-004
,,,-3.65000000e-009,-3.19531412e-004
,,,-3.62500000e-009,-3.32031413e-004
,,,-3.60000000e-009,-3.36718914e-004
,,,-3.57500000e-009,-3.35156413e-004
,,,-3.55000000e-009,-3.28906413e-004
,,,-3.52500000e-009,-3.20312662e-004
,,,-3.50000000e-009,-3.10156412e-004
,,,-3.47500000e-009,-3.00000161e-004
,,,-3.45000000e-009,-2.87500160e-004
,,,-3.42500000e-009,-2.75000159e-004
,,,-3.40000000e-009,-2.60937658e-004
,,,-3.37500000e-009,-2.42968907e-004
,,,-3.35000000e-009,-2.19531405e-004
,,,-3.32500000e-009,-1.88281403e-004
,,,-3.30000000e-009,-1.48437650e-004
,,,-3.27500000e-009,-1.00000147e-004
,,,-3.25000000e-009,-4.37501428e-005
,,,-3.22500000e-009,1.71873615e-005
,,,-3.20000000e-009,7.96873659e-005
,,,-3.17500000e-009,1.41406120e-004
,,,-3.15000000e-009,1.97656124e-004
,,,-3.12500000e-009,2.44531128e-004
,,,-3.10000000e-009,2.79687380e-004
,,,-3.07500000e-009,2.99999882e-004
,,,-3.05000000e-009,3.03124882e-004
,,,-3.02500000e-009,2.92187381e-004
,,,-3.00000000e-009,2.69531129e-004
,,,-2.97500000e-009,2.38281127e-004
,,,-2.95000000e-009,2.02343625e-004
,,,-2.92500000e-009,1.65624872e-004
,,,-2.90000000e-009,1.30468620e-004
,,,-2.87500000e-009,9.99998674e-005
,,,-2.85000000e-009,7.73436158e-005
,,,-2.82500000e-009,6.32811148e-005
,,,-2.80000000e-009,5.78123644e-005
,,,-2.77500000e-009,6.01561146e-005
,,,-2.75000000e-009,6.79686151e-005
,,,-2.72500000e-009,7.96873659e-005
,,,-2.70000000e-009,9.14061168e-005
,,,-2.67500000e-009,9.99998674e-005
,,,-2.65000000e-009,1.03124868e-004
,,,-2.62500000e-009,9.92186173e-005
,,,-2.60000000e-009,8.67186164e-005
,,,-2.57500000e-009,6.56248649e-005
,,,-2.55000000e-009,3.51561128e-005
,,,-2.52500000e-009,-3.12513992e-006
,,,-2.50000000e-009,-4.92188932e-005
,,,-2.47500000e-009,-1.00000147e-004
,,,-2.45000000e-009,-1.50781400e-004
,,,-2.42500000e-009,-2.00000154e-004
,,,-2.40000000e-009,-2.42968907e-004
,,,-2.37500000e-009,-2.78906409e-004
,,,-2.35000000e-009,-3.03906411e-004
,,,-2.32500000e-009,-3.16406412e-004
,,,-2.30000000e-009,-3.14843912e-004
,,,-2.27500000e-009,-3.00000161e-004
,,,-2.25000000e-009,-2.67968909e-004
,,,-2.22500000e-009,-2.25000156e-004
,,,-2.20000000e-009,-1.73437652e-004
,,,-2.17500000e-009,-1.15625148e-004
,,,-2.15000000e-009,-5.62501437e-005
,,,-2.12500000e-009,1.56236041e-006
,,,-2.10000000e-009,5.46873642e-005
,,,-2.07500000e-009,9.99998674e-005
,,,-2.05000000e-009,1.35937370e-004
,,,-2.02500000e-009,1.60156122e-004
,,,-2.00000000e-009,1.71874872e-004
,,,-1.97500000e-009,1.71874872e-004
,,,-1.95000000e-009,1.62499872e-004
,,,-1.92500000e-009,1.46093621e-004
,,,-1.90000000e-009,1.24218619e-004
,,,-1.87500000e-009,9.99998674e-005
,,,-1.85000000e-009,7.49998656e-005
,,,-1.82500000e-009,5.23436140e-005
,,,-1.80000000e-009,3.67186129e-005
,,,-1.77500000e-009,2.96873624e-005
,,,-1.75000000e-009,3.20311126e-005
,,,-1.72500000e-009,4.45311135e-005
,,,-1.70000000e-009,6.79686151e-005
,,,-1.67500000e-009,9.99998674e-005
,,,-1.65000000e-009,1.34374870e-004
,,,-1.62500000e-009,1.71874872e-004
,,,-1.60000000e-009,2.08593625e-004
,,,-1.57500000e-009,2.42187377e-004
,,,-1.55000000e-009,2.70312379e-004
,,,-1.52500000e-009,2.89843631e-004
,,,-1.50000000e-009,3.00781132e-004
,,,-1.47500000e-009,2.99999882e-004
,,,-1.45000000e-009,2.75781130e-004
,,,-1.42500000e-009,2.42968627e-004
,,,-1.40000000e-009,2.04687375e-004
,,,-1.37500000e-009,1.66406122e-004
,,,-1.35000000e-009,1.32812370e-004
,,,-1.32500000e-009,1.09374868e-004
,,,-1.30000000e-009,9.76561172e-005
,,,-1.27500000e-009,9.99998674e-005
,,,-1.25000000e-009,9.68748672e-005
,,,-1.22500000e-009,1.00781117e-004
,,,-1.20000000e-009,1.10156118e-004
,,,-1.17500000e-009,1.21093619e-004
,,,-1.15000000e-009,1.29687369e-004
,,,-1.12500000e-009,1.31249870e-004
,,,-1.10000000e-009,1.22656119e-004
,,,-1.07500000e-009,9.99998674e-005
,,,-1.05000000e-009,4.06248632e-005
,,,-1.02500000e-009,-3.59376422e-005
,,,-1.00000000e-009,-1.22656398e-004
,,,-9.75000000e-010,-2.14843905e-004
,,,-9.50000000e-010,-3.03906411e-004
,,,-9.25000000e-010,-3.84375167e-004
,,,-9.00000000e-010,-4.50000172e-004
,,,-8.75000000e-010,-5.00000175e-004
,,,-8.50000000e-010,-5.55468929e-004
,,,-8.25000000e-010,-6.00781432e-004
,,,-8.00000000e-010,-6.39843935e-004
,,,-7.75000000e-010,-6.75781438e-004
,,,-7.50000000e-010,-7.14062690e-004
,,,-7.25000000e-010,-7.60937694e-004
,,,-7.00000000e-010,-8.21093948e-004
,,,-6.75000000e-010,-9.00000203e-004
,,,-6.50000000e-010,-1.02265646e-003
,,,-6.25000000e-010,-1.17109397e-003
,,,-6.00000000e-010,-1.34218773e-003
,,,-5.75000000e-010,-1.52890650e-003
,,,-5.50000000e-010,-1.72500026e-003
,,,-5.25000000e-010,-1.92343778e-003
,,,-5.00000000e-010,-2.11640654e-003
,,,-4.75000000e-010,-2.30000030e-003
,,,-4.50000000e-010,-2.47890657e-003
,,,-4.25000000e-010,-2.64765658e-003
,,,-4.00000000e-010,-2.80625034e-003
,,,-3.75000000e-010,-2.95546910e-003
,,,-3.50000000e-010,-3.09687536e-003
,,,-3.25000000e-010,-3.23281287e-003
,,,-3.00000000e-010,-3.36640663e-003
,,,-2.75000000e-010,-3.50000039e-003
,,,-2.50000000e-010,-3.63437540e-003
,,,-2.25000000e-010,-3.77656291e-003
,,,-2.00000000e-010,-3.92656292e-003
,,,-1.75000000e-010,-4.08203168e-003
,,,-1.50000000e-010,-4.24062544e-003
,,,-1.25000000e-010,-4.39843795e-003
,,,-1.00000000e-010,-4.55234421e-003
,,,-7.50000000e-011,-4.70000047e-003
,,,-5.00000000e-011,-4.82421923e-003
,,,-2.50000000e-011,-4.94609424e-003
,,,0.00000000e+000,-5.06718800e-003
,,,2.50000000e-011,-5.18906301e-003
,,,5.00000000e-011,-5.31250052e-003
,,,7.50000000e-011,-5.43828177e-003
,,,1.00000000e-010,-5.56796928e-003
,,,1.25000000e-010,-5.70000054e-003
,,,1.50000000e-010,-5.80625055e-003
,,,1.75000000e-010,-5.91484431e-003
,,,2.00000000e-010,-6.02578182e-003
,,,2.25000000e-010,-6.13671932e-003
,,,2.50000000e-010,-6.24218808e-003
,,,2.75000000e-010,-6.34062559e-003
,,,3.00000000e-010,-6.42734434e-003
,,,3.25000000e-010,-6.50000060e-003
,,,3.50000000e-010,-6.51718810e-003
,,,3.75000000e-010,-6.52265685e-003
,,,4.00000000e-010,-6.52031310e-003
,,,4.25000000e-010,-6.51328185e-003
,,,4.50000000e-010,-6.50546935e-003
,,,4.75000000e-010,-6.49921935e-003
,,,5.00000000e-010,-6.49765685e-003
,,,5.25000000e-010,-6.50000060e-003
,,,5.50000000e-010,-6.46796935e-003
,,,5.75000000e-010,-6.44140685e-003
,,,6.00000000e-010,-6.41953184e-003
,,,6.25000000e-010,-6.40000059e-003
,,,6.50000000e-010,-6.38203184e-003
,,,6.75000000e-010,-6.36171934e-003
,,,7.00000000e-010,-6.33515684e-003
,,,7.25000000e-010,-6.30000059e-003
,,,7.50000000e-010,-6.21953183e-003
,,,7.75000000e-010,-6.12734432e-003
,,,8.00000000e-010,-6.02734432e-003
,,,8.25000000e-010,-5.92187556e-003
,,,8.50000000e-010,-5.81406305e-003
,,,8.75000000e-010,-5.70625054e-003
,,,9.00000000e-010,-5.60156304e-003
,,,9.25000000e-010,-5.50000053e-003
,,,9.50000000e-010,-5.37500052e-003
,,,9.75000000e-010,-5.25156301e-003
,,,1.00000000e-009,-5.12968800e-003
,,,1.02500000e-009,-5.00859424e-003
,,,1.05000000e-009,-4.88671924e-003
,,,1.07500000e-009,-4.76250048e-003
,,,1.10000000e-009,-4.63437547e-003
,,,1.12500000e-009,-4.50000046e-003
,,,1.15000000e-009,-4.34218795e-003
,,,1.17500000e-009,-4.17343794e-003
,,,1.20000000e-009,-3.99687542e-003
,,,1.22500000e-009,-3.81406291e-003
,,,1.25000000e-009,-3.62968790e-003
,,,1.27500000e-009,-3.44687538e-003
,,,1.30000000e-009,-3.26875037e-003
,,,1.32500000e-009,-3.10000036e-003
,,,1.35000000e-009,-2.94062535e-003
,,,1.37500000e-009,-2.78906284e-003
,,,1.40000000e-009,-2.64687533e-003
,,,1.42500000e-009,-2.51562532e-003
,,,1.45000000e-009,-2.39453156e-003
,,,1.47500000e-009,-2.28515655e-003
,,,1.50000000e-009,-2.18671904e-003
,,,1.52500000e-009,-2.10000029e-003
,,,1.55000000e-009,-2.02890653e-003
,,,1.57500000e-009,-1.95937528e-003
,,,1.60000000e-009,-1.88906277e-003
,,,1.62500000e-009,-1.81640652e-003
,,,1.65000000e-009,-1.74140651e-003
,,,1.67500000e-009,-1.66328151e-003
,,,1.70000000e-009,-1.58281275e-003
,,,1.72500000e-009,-1.50000025e-003
,,,1.75000000e-009,-1.42656274e-003
,,,1.77500000e-009,-1.34375023e-003
,,,1.80000000e-009,-1.25156273e-003
,,,1.82500000e-009,-1.15078147e-003
,,,1.85000000e-009,-1.04218771e-003
,,,1.87500000e-009,-9.29687706e-004
,,,1.90000000e-009,-8.14062697e-004
,,,1.92500000e-009,-7.00000189e-004
,,,1.95000000e-009,-6.04687682e-004
,,,1.97500000e-009,-5.10937676e-004
,,,2.00000000e-009,-4.20312669e-004
,,,2.02500000e-009,-3.35156413e-004
,,,2.05000000e-009,-2.58593908e-004
,,,2.07500000e-009,-1.92187653e-004
,,,2.10000000e-009,-1.39062650e-004
,,,2.12500000e-009,-1.00000147e-004
,,,2.15000000e-009,-9.21876462e-005
,,,2.17500000e-009,-9.14063962e-005
,,,2.20000000e-009,-9.53126464e-005
,,,2.22500000e-009,-1.00000147e-004
,,,2.25000000e-009,-1.04687647e-004
,,,2.27500000e-009,-1.06250147e-004
,,,2.30000000e-009,-1.04687647e-004
,,,2.32500000e-009,-1.00000147e-004
,,,2.35000000e-009,-1.03906397e-004
,,,2.37500000e-009,-1.02343897e-004
,,,2.40000000e-009,-9.60938965e-005
,,,2.42500000e-009,-8.90626460e-005
,,,2.45000000e-009,-8.28126456e-005
,,,2.47500000e-009,-8.12501454e-005
,,,2.50000000e-009,-8.59376458e-005
,,,2.52500000e-009,-1.00000147e-004
,,,2.55000000e-009,-1.31250149e-004
,,,2.57500000e-009,-1.67187652e-004
,,,2.60000000e-009,-2.04687654e-004
,,,2.62500000e-009,-2.39843907e-004
,,,2.65000000e-009,-2.69531409e-004
,,,2.67500000e-009,-2.91406410e-004
,,,2.70000000e-009,-3.01562661e-004
,,,2.72500000e-009,-3.00000161e-004
,,,2.75000000e-009,-2.89062660e-004
,,,2.77500000e-009,-2.66406409e-004
,,,2.80000000e-009,-2.35156406e-004
,,,2.82500000e-009,-1.98437654e-004
,,,2.85000000e-009,-1.62500151e-004
,,,2.87500000e-009,-1.31250149e-004
,,,2.90000000e-009,-1.09375147e-004
,,,2.92500000e-009,-1.00000147e-004
,,,2.95000000e-009,-1.05468897e-004
,,,2.97500000e-009,-1.23437648e-004
,,,3.00000000e-009,-1.50781400e-004
,,,3.02500000e-009,-1.84375153e-004
,,,3.05000000e-009,-2.19531405e-004
,,,3.07500000e-009,-2.53125158e-004
,,,3.10000000e-009,-2.80468910e-004
,,,3.12500000e-009,-3.00000161e-004
,,,3.15000000e-009,-3.08593912e-004
,,,3.17500000e-009,-3.09375162e-004
,,,3.20000000e-009,-3.03906411e-004
,,,3.22500000e-009,-2.95312661e-004
,,,3.25000000e-009,-2.87500160e-004
,,,3.27500000e-009,-2.83593910e-004
,,,3.30000000e-009,-2.86718910e-004
,,,3.32500000e-009,-3.00000161e-004
,,,3.35000000e-009,-3.20312662e-004
,,,3.37500000e-009,-3.49218914e-004
,,,3.40000000e-009,-3.83593917e-004
,,,3.42500000e-009,-4.20312669e-004
,,,3.45000000e-009,-4.53906422e-004
,,,3.47500000e-009,-4.81250174e-004
,,,3.50000000e-009,-4.97656425e-004
,,,3.52500000e-009,-5.00000175e-004
,,,3.55000000e-009,-4.82812674e-004
,,,3.57500000e-009,-4.50000172e-004
,,,3.60000000e-009,-4.03906418e-004
,,,3.62500000e-009,-3.47656414e-004
,,,3.65000000e-009,-2.84375160e-004
,,,3.67500000e-009,-2.18750155e-004
,,,3.70000000e-009,-1.56250151e-004
,,,3.72500000e-009,-1.00000147e-004
,,,3.75000000e-009,-5.31251435e-005
,,,3.77500000e-009,-2.03126411e-005
,,,3.80000000e-009,-1.56263981e-006
,,,3.82500000e-009,3.12486052e-006
,,,3.85000000e-009,-7.03139020e-006
,,,3.87500000e-009,-2.81251417e-005
,,,3.90000000e-009,-6.01563940e-005
,,,3.92500000e-009,-1.00000147e-004
,,,3.95000000e-009,-1.41406400e-004
,,,3.97500000e-009,-1.83593903e-004
,,,4.00000000e-009,-2.22656405e-004
,,,4.02500000e-009,-2.56250158e-004
,,,4.05000000e-009,-2.81250160e-004
,,,4.07500000e-009,-2.97656411e-004
,,,4.10000000e-009,-3.03906411e-004
,,,4.12500000e-009,-3.00000161e-004
,,,4.15000000e-009,-2.85156410e-004
,,,4.17500000e-009,-2.62500158e-004
,,,4.20000000e-009,-2.34375156e-004
,,,4.22500000e-009,-2.03125154e-004
,,,4.25000000e-009,-1.71875152e-004
,,,4.27500000e-009,-1.42187650e-004
,,,4.30000000e-009,-1.17968898e-004
,,,4.32500000e-009,-1.00000147e-004
,,,4.35000000e-009,-8.75001459e-005
,,,4.37500000e-009,-8.28126456e-005
,,,4.40000000e-009,-8.28126456e-005
,,,4.42500000e-009,-8.67188958e-005
,,,4.45000000e-009,-9.21876462e-005
,,,4.47500000e-009,-9.76563966e-005
,,,4.50000000e-009,-1.00781397e-004
,,,4.52500000e-009,-1.00000147e-004
,,,4.55000000e-009,-9.37501463e-005
,,,4.57500000e-009,-8.12501454e-005
,,,4.60000000e-009,-6.17188941e-005
,,,4.62500000e-009,-3.59376422e-005
,,,4.65000000e-009,-4.68764003e-006
,,,4.67500000e-009,3.04686125e-005
,,,4.70000000e-009,6.56248649e-005
,,,4.72500000e-009,9.99998674e-005
,,,4.75000000e-009,1.28906119e-004
,,,4.77500000e-009,1.51562371e-004
,,,4.80000000e-009,1.66406122e-004
,,,4.82500000e-009,1.71874872e-004
,,,4.85000000e-009,1.67968622e-004
,,,4.87500000e-009,1.53906121e-004
,,,4.90000000e-009,1.31249870e-004
,,,4.92500000e-009,9.99998674e-005
,,,4.95000000e-009,6.17186147e-005
,,,4.97500000e-009,2.10936118e-005
,,,5.00000000e-009,-1.87501410e-005
,,,5.02500000e-009,-5.46876436e-005
,,,5.05000000e-009,-8.20313955e-005
,,,5.07500000e-009,-1.00000147e-004
,,,5.10000000e-009,-1.06250147e-004
,,,5.12500000e-009,-1.00000147e-004
,,,5.15000000e-009,-8.28126456e-005
,,,5.17500000e-009,-5.62501437e-005
,,,5.20000000e-009,-2.34376414e-005
,,,5.22500000e-009,1.24998612e-005
,,,5.25000000e-009,4.60936136e-005
,,,5.27500000e-009,7.42186156e-005
,,,5.30000000e-009,9.29686169e-005
,,,5.32500000e-009,9.99998674e-005
,,,5.35000000e-009,9.45311170e-005
,,,5.37500000e-009,7.81248658e-005
,,,5.40000000e-009,5.23436140e-005
,,,5.42500000e-009,2.03123617e-005
,,,5.45000000e-009,-1.48438907e-005
,,,5.47500000e-009,-4.84376431e-005
,,,5.50000000e-009,-7.73438952e-005
,,,5.52500000e-009,-1.00000147e-004
,,,5.55000000e-009,-1.11718898e-004
,,,5.57500000e-009,-1.14843898e-004
,,,5.60000000e-009,-1.11718898e-004
,,,5.62500000e-009,-1.04687647e-004
,,,5.65000000e-009,-9.68751466e-005
,,,5.67500000e-009,-9.14063962e-005
,,,5.70000000e-009,-9.14063962e-005
,,,5.72500000e-009,-1.00000147e-004
,,,5.75000000e-009,-1.15625148e-004
,,,5.77500000e-009,-1.39062650e-004
,,,5.80000000e-009,-1.69531402e-004
,,,5.82500000e-009,-2.03125154e-004
,,,5.85000000e-009,-2.35937656e-004
,,,5.87500000e-009,-2.65625158e-004
,,,5.90000000e-009,-2.87500160e-004
,,,5.92500000e-009,-3.00000161e-004
,,,5.95000000e-009,-2.98437661e-004
