RawData/SinglePhotoelectron/L6_2pt2C_5mV/wave027_Ch3.csv

"Record Length",1000,"Points",-7.72500000e-009,-2.90625160e-004
"Sample Interval",2.50000000e-011,s,-7.70000000e-009,-3.03125161e-004
"Trigger Point",309,"Samples",-7.67500000e-009,-3.00000161e-004
"Trigger Time",7.83924198e-012,s,-7.65000000e-009,-2.78906409e-004
"",,,-7.62500000e-009,-2.42187657e-004
"Horizontal Offset",-7.72500000e-009,s,-7.60000000e-009,-1.92968903e-004
,,,-7.57500000e-009,-1.34375149e-004
,,,-7.55000000e-009,-7.10938947e-005
,,,-7.52500000e-009,-7.81264025e-006
,,,-7.50000000e-009,5.07811139e-005
,,,-7.47500000e-009,9.99998674e-005
,,,-7.45000000e-009,1.34374870e-004
,,,-7.42500000e-009,1.55468621e-004
,,,-7.40000000e-009,1.64062372e-004
,,,-7.37500000e-009,1.61718622e-004
,,,-7.35000000e-009,1.51562371e-004
,,,-7.32500000e-009,1.35937370e-004
,,,-7.30000000e-009,1.17968619e-004
,,,-7.27500000e-009,9.99998674e-005
,,,-7.25000000e-009,8.12498661e-005
,,,-7.22500000e-009,6.64061150e-005
,,,-7.20000000e-009,5.85936144e-005
,,,-7.17500000e-009,5.78123644e-005
,,,-7.15000000e-009,6.24998647e-005
,,,-7.12500000e-009,7.18748654e-005
,,,-7.10000000e-009,8.51561163e-005
,,,-7.07500000e-009,9.99998674e-005
,,,-7.05000000e-009,1.10156118e-004
,,,-7.02500000e-009,1.17968619e-004
,,,-7.00000000e-009,1.22656119e-004
,,,-6.97500000e-009,1.24999869e-004
,,,-6.95000000e-009,1.24218619e-004
,,,-6.92500000e-009,1.19531119e-004
,,,-6.90000000e-009,1.11718618e-004
,,,-6.87500000e-009,9.99998674e-005
,,,-6.85000000e-009,8.28123662e-005
,,,-6.82500000e-009,6.17186147e-005
,,,-6.80000000e-009,3.82811130e-005
,,,-6.77500000e-009,1.32811112e-005
,,,-6.75000000e-009,-1.40626407e-005
,,,-6.72500000e-009,-4.21876427e-005
,,,-6.70000000e-009,-7.03126447e-005
,,,-6.67500000e-009,-1.00000147e-004
,,,-6.65000000e-009,-1.29687649e-004
,,,-6.62500000e-009,-1.59375151e-004
,,,-6.60000000e-009,-1.86718903e-004
,,,-6.57500000e-009,-2.12500155e-004
,,,-6.55000000e-009,-2.36718906e-004
,,,-6.52500000e-009,-2.58593908e-004
,,,-6.50000000e-009,-2.79687659e-004
,,,-6.47500000e-009,-3.00000161e-004
,,,-6.45000000e-009,-3.17968912e-004
,,,-6.42500000e-009,-3.36718914e-004
,,,-6.40000000e-009,-3.57031415e-004
,,,-6.37500000e-009,-3.79687667e-004
,,,-6.35000000e-009,-4.05468918e-004
,,,-6.32500000e-009,-4.33593920e-004
,,,-6.30000000e-009,-4.65625173e-004
,,,-6.27500000e-009,-5.00000175e-004
,,,-6.25000000e-009,-5.29687677e-004
,,,-6.22500000e-009,-5.60937679e-004
,,,-6.20000000e-009,-5.91406432e-004
,,,-6.17500000e-009,-6.21093934e-004
,,,-6.15000000e-009,-6.47656436e-004
,,,-6.12500000e-009,-6.70312687e-004
,,,-6.10000000e-009,-6.88281438e-004
,,,-6.07500000e-009,-7.00000189e-004
,,,-6.05000000e-009,-6.97656439e-004
,,,-6.02500000e-009,-6.88281438e-004
,,,-6.00000000e-009,-6.71875187e-004
,,,-5.97500000e-009,-6.47656436e-004
,,,-5.95000000e-009,-6.17968933e-004
,,,-5.92500000e-009,-5.82031431e-004
,,,-5.90000000e-009,-5.42187678e-004
,,,-5.87500000e-009,-5.00000175e-004
,,,-5.85000000e-009,-4.52343922e-004
,,,-5.82500000e-009,-4.07812669e-004
,,,-5.80000000e-009,-3.68750166e-004
,,,-5.77500000e-009,-3.35937663e-004
,,,-5.75000000e-009,-3.12500162e-004
,,,-5.72500000e-009,-2.99218911e-004
,,,-5.70000000e-009,-2.95312661e-004
,,,-5.67500000e-009,-3.00000161e-004
,,,-5.65000000e-009,-3.10156412e-004
,,,-5.62500000e-009,-3.25000163e-004
,,,-5.60000000e-009,-3.39843914e-004
,,,-5.57500000e-009,-3.51562665e-004
,,,-5.55000000e-009,-3.56250165e-004
,,,-5.52500000e-009,-3.50781415e-004
,,,-5.50000000e-009,-3.32031413e-004
,,,-5.47500000e-009,-3.00000161e-004
,,,-5.45000000e-009,-2.55468908e-004
,,,-5.42500000e-009,-2.01562654e-004
,,,-5.40000000e-009,-1.41406400e-004
,,,-5.37500000e-009,-7.89063953e-005
,,,-5.35000000e-009,-1.95313911e-005
,,,-5.32500000e-009,3.28123626e-005
,,,-5.30000000e-009,7.34373655e-005
,,,-5.27500000e-009,9.99998674e-005
,,,-5.25000000e-009,1.07031118e-004
,,,-5.22500000e-009,9.84373673e-005
,,,-5.20000000e-009,7.65623657e-005
,,,-5.17500000e-009,4.45311135e-005
,,,-5.15000000e-009,7.03111080e-006
,,,-5.12500000e-009,-3.20313920e-005
,,,-5.10000000e-009,-6.87501446e-005
,,,-5.07500000e-009,-1.00000147e-004
,,,-5.05000000e-009,-1.26562649e-004
,,,-5.02500000e-009,-1.42968900e-004
,,,-5.00000000e-009,-1.49218900e-004
,,,-4.97500000e-009,-1.46875150e-004
,,,-4.95000000e-009,-1.37500149e-004
,,,-4.92500000e-009,-1.24218898e-004
,,,-4.90000000e-009,-1.10937648e-004
,,,-4.87500000e-009,-1.00000147e-004
,,,-4.85000000e-009,-9.84376467e-005
,,,-4.82500000e-009,-1.04687647e-004
,,,-4.80000000e-009,-1.19531398e-004
,,,-4.77500000e-009,-1.42187650e-004
,,,-4.75000000e-009,-1.73437652e-004
,,,-4.72500000e-009,-2.10937655e-004
,,,-4.70000000e-009,-2.53906408e-004
,,,-4.67500000e-009,-3.00000161e-004
,,,-4.65000000e-009,-3.46093914e-004
,,,-4.62500000e-009,-3.90625167e-004
,,,-4.60000000e-009,-4.30468920e-004
,,,-4.57500000e-009,-4.62500172e-004
,,,-4.55000000e-009,-4.86718924e-004
,,,-4.52500000e-009,-5.01562675e-004
,,,-4.50000000e-009,-5.05468925e-004
,,,-4.47500000e-009,-5.00000175e-004
,,,-4.45000000e-009,-4.82031424e-004
,,,-4.42500000e-009,-4.56250172e-004
,,,-4.40000000e-009,-4.25781420e-004
,,,-4.37500000e-009,-3.93750168e-004
,,,-4.35000000e-009,-3.61718915e-004
,,,-4.32500000e-009,-3.34375163e-004
,,,-4.30000000e-009,-3.12500162e-004
,,,-4.27500000e-009,-3.00000161e-004
,,,-4.25000000e-009,-2.92968910e-004
,,,-4.22500000e-009,-2.97656411e-004
,,,-4.20000000e-009,-3.12500162e-004
,,,-4.17500000e-009,-3.37500164e-004
,,,-4.15000000e-009,-3.70312666e-004
,,,-4.12500000e-009,-4.10156419e-004
,,,-4.10000000e-009,-4.53906422e-004
,,,-4.07500000e-009,-5.00000175e-004
,,,-4.05000000e-009,-5.40625178e-004
,,,-4.02500000e-009,-5.78125181e-004
,,,-4.00000000e-009,-6.11718933e-004
,,,-3.97500000e-009,-6.40625185e-004
,,,-3.95000000e-009,-6.64062687e-004
,,,-3.92500000e-009,-6.82031438e-004
,,,-3.90000000e-009,-6.93750189e-004
,,,-3.87500000e-009,-7.00000189e-004
,,,-3.85000000e-009,-6.92968939e-004
,,,-3.82500000e-009,-6.80468938e-004
,,,-3.80000000e-009,-6.62500187e-004
,,,-3.77500000e-009,-6.39843935e-004
,,,-3.75000000e-009,-6.11718933e-004
,,,-3.72500000e-009,-5.78125181e-004
,,,-3.70000000e-009,-5.41406428e-004
,,,-3.67500000e-009,-5.00000175e-004
,,,-3.65000000e-009,-4.50000172e-004
,,,-3.62500000e-009,-3.98437668e-004
,,,-3.60000000e-009,-3.45312664e-004
,,,-3.57500000e-009,-2.92187660e-004
,,,-3.55000000e-009,-2.39843907e-004
,,,-3.52500000e-009,-1.89843903e-004
,,,-3.50000000e-009,-1.42968900e-004
,,,-3.47500000e-009,-1.00000147e-004
,,,-3.45000000e-009,-6.09376440e-005
,,,-3.42500000e-009,-2.57813915e-005
,,,-3.40000000e-009,4.68736063e-006
,,,-3.37500000e-009,3.12498625e-005
,,,-3.35000000e-009,5.39061141e-005
,,,-3.32500000e-009,7.26561154e-005
,,,-3.30000000e-009,8.82811166e-005
,,,-3.27500000e-009,9.99998674e-005
,,,-3.25000000e-009,1.07812368e-004
,,,-3.22500000e-009,1.13281118e-004
,,,-3.20000000e-009,1.15624868e-004
,,,-3.17500000e-009,1.16406119e-004
,,,-3.15000000e-009,1.14843618e-004
,,,-3.12500000e-009,1.11718618e-004
,,,-3.10000000e-009,1.07031118e-004
,,,-3.07500000e-009,9.99998674e-005
,,,-3.05000000e-009,9.06248667e-005
,,,-3.02500000e-009,8.12498661e-005
,,,-3.00000000e-009,7.42186156e-005
,,,-2.97500000e-009,7.03123653e-005
,,,-2.95000000e-009,7.03123653e-005
,,,-2.92500000e-009,7.49998656e-005
,,,-2.90000000e-009,8.51561163e-005
,,,-2.87500000e-009,9.99998674e-005
,,,-2.85000000e-009,1.15624868e-004
,,,-2.82500000e-009,1.35156120e-004
,,,-2.80000000e-009,1.59374872e-004
,,,-2.77500000e-009,1.86718624e-004
,,,-2.75000000e-009,2.15624876e-004
,,,-2.72500000e-009,2.45312378e-004
,,,-2.70000000e-009,2.74218630e-004
,,,-2.67500000e-009,2.99999882e-004
,,,-2.65000000e-009,3.16406133e-004
,,,-2.62500000e-009,3.28124884e-004
,,,-2.60000000e-009,3.35156134e-004
,,,-2.57500000e-009,3.36718634e-004
,,,-2.55000000e-009,3.34374884e-004
,,,-2.52500000e-009,3.27343633e-004
,,,-2.50000000e-009,3.15624883e-004
,,,-2.47500000e-009,2.99999882e-004
,,,-2.45000000e-009,2.76562380e-004
,,,-2.42500000e-009,2.50781128e-004
,,,-2.40000000e-009,2.24218626e-004
,,,-2.37500000e-009,1.96874874e-004
,,,-2.35000000e-009,1.70312372e-004
,,,-2.32500000e-009,1.45312371e-004
,,,-2.30000000e-009,1.21874869e-004
,,,-2.27500000e-009,9.99998674e-005
,,,-2.25000000e-009,7.81248658e-005
,,,-2.22500000e-009,5.62498643e-005
,,,-2.20000000e-009,3.51561128e-005
,,,-2.17500000e-009,1.24998612e-005
,,,-2.15000000e-009,-1.17188905e-005
,,,-2.12500000e-009,-3.82813924e-005
,,,-2.10000000e-009,-6.79688945e-005
,,,-2.07500000e-009,-1.00000147e-004
,,,-2.05000000e-009,-1.32812649e-004
,,,-2.02500000e-009,-1.67187652e-004
,,,-2.00000000e-009,-2.00781404e-004
,,,-1.97500000e-009,-2.31250156e-004
,,,-1.95000000e-009,-2.57812658e-004
,,,-1.92500000e-009,-2.78125159e-004
,,,-1.90000000e-009,-2.92187660e-004
,,,-1.87500000e-009,-3.00000161e-004
,,,-1.85000000e-009,-2.97656411e-004
,,,-1.82500000e-009,-2.92187660e-004
,,,-1.80000000e-009,-2.83593910e-004
,,,-1.77500000e-009,-2.76562659e-004
,,,-1.75000000e-009,-2.71875159e-004
,,,-1.72500000e-009,-2.73437659e-004
,,,-1.70000000e-009,-2.82812660e-004
,,,-1.67500000e-009,-3.00000161e-004
,,,-1.65000000e-009,-3.23437663e-004
,,,-1.62500000e-009,-3.53906415e-004
,,,-1.60000000e-009,-3.88281417e-004
,,,-1.57500000e-009,-4.23437670e-004
,,,-1.55000000e-009,-4.55468922e-004
,,,-1.52500000e-009,-4.80468924e-004
,,,-1.50000000e-009,-4.96093925e-004
,,,-1.47500000e-009,-5.00000175e-004
,,,-1.45000000e-009,-4.91406424e-004
,,,-1.42500000e-009,-4.74218923e-004
,,,-1.40000000e-009,-4.48437671e-004
,,,-1.37500000e-009,-4.17187669e-004
,,,-1.35000000e-009,-3.84375167e-004
,,,-1.32500000e-009,-3.51562665e-004
,,,-1.30000000e-009,-3.22656413e-004
,,,-1.27500000e-009,-3.00000161e-004
,,,-1.25000000e-009,-2.92187660e-004
,,,-1.22500000e-009,-2.93750160e-004
,,,-1.20000000e-009,-3.01562661e-004
,,,-1.17500000e-009,-3.11718912e-004
,,,-1.15000000e-009,-3.20312662e-004
,,,-1.12500000e-009,-3.22656413e-004
,,,-1.10000000e-009,-3.16406412e-004
,,,-1.07500000e-009,-3.00000161e-004
,,,-1.05000000e-009,-2.89843910e-004
,,,-1.02500000e-009,-2.73437659e-004
,,,-1.00000000e-009,-2.50000157e-004
,,,-9.75000000e-010,-2.21093905e-004
,,,-9.50000000e-010,-1.89062653e-004
,,,-9.25000000e-010,-1.56250151e-004
,,,-9.00000000e-010,-1.25000149e-004
,,,-8.75000000e-010,-1.00000147e-004
,,,-8.50000000e-010,-1.14062648e-004
,,,-8.25000000e-010,-1.43750150e-004
,,,-8.00000000e-010,-1.86718903e-004
,,,-7.75000000e-010,-2.40625157e-004
,,,-7.50000000e-010,-3.01562661e-004
,,,-7.25000000e-010,-3.66406416e-004
,,,-7.00000000e-010,-4.32812670e-004
,,,-6.75000000e-010,-5.00000175e-004
,,,-6.50000000e-010,-5.99218932e-004
,,,-6.25000000e-010,-7.01562689e-004
,,,-6.00000000e-010,-8.06250197e-004
,,,-5.75000000e-010,-9.09375204e-004
,,,-5.50000000e-010,-1.01015646e-003
,,,-5.25000000e-010,-1.10859397e-003
,,,-5.00000000e-010,-1.20468772e-003
,,,-4.75000000e-010,-1.30000023e-003
,,,-4.50000000e-010,-1.43046899e-003
,,,-4.25000000e-010,-1.56875025e-003
,,,-4.00000000e-010,-1.71484401e-003
,,,-3.75000000e-010,-1.86640652e-003
,,,-3.50000000e-010,-2.02109403e-003
,,,-3.25000000e-010,-2.17812529e-003
,,,-3.00000000e-010,-2.33750031e-003
,,,-2.75000000e-010,-2.50000032e-003
,,,-2.50000000e-010,-2.68906283e-003
,,,-2.25000000e-010,-2.89062534e-003
,,,-2.00000000e-010,-3.10312536e-003
,,,-1.75000000e-010,-3.32578163e-003
,,,-1.50000000e-010,-3.55859414e-003
,,,-1.25000000e-010,-3.79921916e-003
,,,-1.00000000e-010,-4.04687543e-003
,,,-7.50000000e-011,-4.30000044e-003
,,,-5.00000000e-011,-4.56093796e-003
,,,-2.50000000e-011,-4.82656298e-003
,,,0.00000000e+000,-5.09453175e-003
,,,2.50000000e-011,-5.35859427e-003
,,,5.00000000e-011,-5.61484429e-003
,,,7.50000000e-011,-5.85937555e-003
,,,1.00000000e-010,-6.08750057e-003
,,,1.25000000e-010,-6.30000059e-003
,,,1.50000000e-010,-6.47734435e-003
,,,1.75000000e-010,-6.64687561e-003
,,,2.00000000e-010,-6.81250062e-003
,,,2.25000000e-010,-6.97812563e-003
,,,2.50000000e-010,-7.14765690e-003
,,,2.75000000e-010,-7.32343816e-003
,,,3.00000000e-010,-7.50703192e-003
,,,3.25000000e-010,-7.70000068e-003
,,,3.50000000e-010,-7.86640695e-003
,,,3.75000000e-010,-8.04375071e-003
,,,4.00000000e-010,-8.23046947e-003
,,,4.25000000e-010,-8.42031324e-003
,,,4.50000000e-010,-8.60937575e-003
,,,4.75000000e-010,-8.78984451e-003
,,,5.00000000e-010,-8.95468827e-003
,,,5.25000000e-010,-9.10000078e-003
,,,5.50000000e-010,-9.17031329e-003
,,,5.75000000e-010,-9.22109454e-003
,,,6.00000000e-010,-9.25468829e-003
,,,6.25000000e-010,-9.27578205e-003
,,,6.50000000e-010,-9.28828205e-003
,,,6.75000000e-010,-9.29531330e-003
,,,7.00000000e-010,-9.29843830e-003
,,,7.25000000e-010,-9.30000080e-003
,,,7.50000000e-010,-9.24687579e-003
,,,7.75000000e-010,-9.19609454e-003
,,,8.00000000e-010,-9.14843829e-003
,,,8.25000000e-010,-9.10468828e-003
,,,8.50000000e-010,-9.06093828e-003
,,,8.75000000e-010,-9.01406328e-003
,,,9.00000000e-010,-8.96171952e-003
,,,9.25000000e-010,-8.90000077e-003
,,,9.50000000e-010,-8.78046951e-003
,,,9.75000000e-010,-8.65234450e-003
,,,1.00000000e-009,-8.51953199e-003
,,,1.02500000e-009,-8.38515698e-003
,,,1.05000000e-009,-8.25312572e-003
,,,1.07500000e-009,-8.12734446e-003
,,,1.10000000e-009,-8.00937571e-003
,,,1.12500000e-009,-7.90000070e-003
,,,1.15000000e-009,-7.76640694e-003
,,,1.17500000e-009,-7.63906318e-003
,,,1.20000000e-009,-7.51718817e-003
,,,1.22500000e-009,-7.39843816e-003
,,,1.25000000e-009,-7.28046941e-003
,,,1.27500000e-009,-7.16015690e-003
,,,1.30000000e-009,-7.03437564e-003
,,,1.32500000e-009,-6.90000063e-003
,,,1.35000000e-009,-6.73281312e-003
,,,1.37500000e-009,-6.55078185e-003
,,,1.40000000e-009,-6.35546934e-003
,,,1.42500000e-009,-6.15000057e-003
,,,1.45000000e-009,-5.93750056e-003
,,,1.47500000e-009,-5.72265679e-003
,,,1.50000000e-009,-5.50859428e-003
,,,1.52500000e-009,-5.30000051e-003
,,,1.55000000e-009,-5.09531300e-003
,,,1.57500000e-009,-4.89609424e-003
,,,1.60000000e-009,-4.70390672e-003
,,,1.62500000e-009,-4.51953171e-003
,,,1.65000000e-009,-4.34609420e-003
,,,1.67500000e-009,-4.18437544e-003
,,,1.70000000e-009,-4.03593793e-003
,,,1.72500000e-009,-3.90000042e-003
,,,1.75000000e-009,-3.78515666e-003
,,,1.77500000e-009,-3.67500040e-003
,,,1.80000000e-009,-3.56796914e-003
,,,1.82500000e-009,-3.46484413e-003
,,,1.85000000e-009,-3.36562538e-003
,,,1.87500000e-009,-3.27187537e-003
,,,1.90000000e-009,-3.18281286e-003
,,,1.92500000e-009,-3.10000036e-003
,,,1.95000000e-009,-3.03593785e-003
,,,1.97500000e-009,-2.96875035e-003
,,,2.00000000e-009,-2.89843784e-003
,,,2.02500000e-009,-2.82343784e-003
,,,2.05000000e-009,-2.74453158e-003
,,,2.07500000e-009,-2.66328158e-003
,,,2.10000000e-009,-2.58125032e-003
,,,2.12500000e-009,-2.50000032e-003
,,,2.15000000e-009,-2.43359406e-003
,,,2.17500000e-009,-2.36328156e-003
,,,2.20000000e-009,-2.28828155e-003
,,,2.22500000e-009,-2.20937530e-003
,,,2.25000000e-009,-2.12890654e-003
,,,2.27500000e-009,-2.04921903e-003
,,,2.30000000e-009,-1.97265653e-003
,,,2.32500000e-009,-1.90000027e-003
,,,2.35000000e-009,-1.84765652e-003
,,,2.37500000e-009,-1.79609402e-003
,,,2.40000000e-009,-1.74375026e-003
,,,2.42500000e-009,-1.69140651e-003
,,,2.45000000e-009,-1.63984401e-003
,,,2.47500000e-009,-1.58984400e-003
,,,2.50000000e-009,-1.54296900e-003
,,,2.52500000e-009,-1.50000025e-003
,,,2.55000000e-009,-1.47265649e-003
,,,2.57500000e-009,-1.44531274e-003
,,,2.60000000e-009,-1.41718774e-003
,,,2.62500000e-009,-1.38984399e-003
,,,2.65000000e-009,-1.36328149e-003
,,,2.67500000e-009,-1.33828148e-003
,,,2.70000000e-009,-1.31718773e-003
,,,2.72500000e-009,-1.30000023e-003
,,,2.75000000e-009,-1.29296898e-003
,,,2.77500000e-009,-1.28828148e-003
,,,2.80000000e-009,-1.28437523e-003
,,,2.82500000e-009,-1.28281273e-003
,,,2.85000000e-009,-1.28281273e-003
,,,2.87500000e-009,-1.28593773e-003
,,,2.90000000e-009,-1.29140648e-003
,,,2.92500000e-009,-1.30000023e-003
,,,2.95000000e-009,-1.31171898e-003
,,,2.97500000e-009,-1.32109398e-003
,,,3.00000000e-009,-1.32734398e-003
,,,3.02500000e-009,-1.33046898e-003
,,,3.05000000e-009,-1.32890648e-003
,,,3.07500000e-009,-1.32265648e-003
,,,3.10000000e-009,-1.31328148e-003
,,,3.12500000e-009,-1.30000023e-003
,,,3.15000000e-009,-1.28125023e-003
,,,3.17500000e-009,-1.25859398e-003
,,,3.20000000e-009,-1.23125023e-003
,,,3.22500000e-009,-1.20312522e-003
,,,3.25000000e-009,-1.17421897e-003
,,,3.27500000e-009,-1.14609397e-003
,,,3.30000000e-009,-1.12109397e-003
,,,3.32500000e-009,-1.10000022e-003
,,,3.35000000e-009,-1.08046897e-003
,,,3.37500000e-009,-1.06171896e-003
,,,3.40000000e-009,-1.04296896e-003
,,,3.42500000e-009,-1.02265646e-003
,,,3.45000000e-009,-9.99218960e-004
,,,3.47500000e-009,-9.71093958e-004
,,,3.50000000e-009,-9.38281456e-004
,,,3.52500000e-009,-9.00000203e-004
,,,3.55000000e-009,-8.54687700e-004
,,,3.57500000e-009,-8.04687697e-004
,,,3.60000000e-009,-7.50781443e-004
,,,3.62500000e-009,-6.95312689e-004
,,,3.65000000e-009,-6.40625185e-004
,,,3.67500000e-009,-5.88281431e-004
,,,3.70000000e-009,-5.40625178e-004
,,,3.72500000e-009,-5.00000175e-004
,,,3.75000000e-009,-4.66406423e-004
,,,3.77500000e-009,-4.37500171e-004
,,,3.80000000e-009,-4.14062669e-004
,,,3.82500000e-009,-3.92187667e-004
,,,3.85000000e-009,-3.71093916e-004
,,,3.87500000e-009,-3.50000164e-004
,,,3.90000000e-009,-3.26562663e-004
,,,3.92500000e-009,-3.00000161e-004
,,,3.95000000e-009,-2.74218909e-004
,,,3.97500000e-009,-2.45312657e-004
,,,4.00000000e-009,-2.14062655e-004
,,,4.02500000e-009,-1.82812653e-004
,,,4.05000000e-009,-1.53125151e-004
,,,4.07500000e-009,-1.28125149e-004
,,,4.10000000e-009,-1.09375147e-004
,,,4.12500000e-009,-1.00000147e-004
,,,4.15000000e-009,-1.03906397e-004
,,,4.17500000e-009,-1.16406398e-004
,,,4.20000000e-009,-1.36718899e-004
,,,4.22500000e-009,-1.63281401e-004
,,,4.25000000e-009,-1.94531403e-004
,,,4.27500000e-009,-2.29687656e-004
,,,4.30000000e-009,-2.64843908e-004
,,,4.32500000e-009,-3.00000161e-004
,,,4.35000000e-009,-3.32812663e-004
,,,4.37500000e-009,-3.59375165e-004
,,,4.40000000e-009,-3.75781416e-004
,,,4.42500000e-009,-3.81250167e-004
,,,4.45000000e-009,-3.76562666e-004
,,,4.47500000e-009,-3.60156415e-004
,,,4.50000000e-009,-3.34375163e-004
,,,4.52500000e-009,-3.00000161e-004
,,,4.55000000e-009,-2.61718908e-004
,,,4.57500000e-009,-2.21875155e-004
,,,4.60000000e-009,-1.82031403e-004
,,,4.62500000e-009,-1.46875150e-004
,,,4.65000000e-009,-1.17968898e-004
,,,4.67500000e-009,-1.00000147e-004
,,,4.70000000e-009,-9.37501463e-005
,,,4.72500000e-009,-1.00000147e-004
,,,4.75000000e-009,-1.20312648e-004
,,,4.77500000e-009,-1.50781400e-004
,,,4.80000000e-009,-1.85937653e-004
,,,4.82500000e-009,-2.22656405e-004
,,,4.85000000e-009,-2.56250158e-004
,,,4.87500000e-009,-2.82031410e-004
,,,4.90000000e-009,-2.96875161e-004
,,,4.92500000e-009,-3.00000161e-004
,,,4.95000000e-009,-2.89062660e-004
,,,4.97500000e-009,-2.67187659e-004
,,,5.00000000e-009,-2.35937656e-004
,,,5.02500000e-009,-2.00781404e-004
,,,5.05000000e-009,-1.64843901e-004
,,,5.07500000e-009,-1.33593899e-004
,,,5.10000000e-009,-1.10937648e-004
,,,5.12500000e-009,-1.00000147e-004
,,,5.15000000e-009,-1.02343897e-004
,,,5.17500000e-009,-1.17187648e-004
,,,5.20000000e-009,-1.42968900e-004
,,,5.22500000e-009,-1.75781402e-004
,,,5.25000000e-009,-2.11718905e-004
,,,5.27500000e-009,-2.46875157e-004
,,,5.30000000e-009,-2.76562659e-004
,,,5.32500000e-009,-3.00000161e-004
,,,5.35000000e-009,-3.13281412e-004
,,,5.37500000e-009,-3.17968912e-004
,,,5.40000000e-009,-3.14843912e-004
,,,5.42500000e-009,-3.07031411e-004
,,,5.45000000e-009,-2.98437661e-004
,,,5.47500000e-009,-2.92968910e-004
,,,5.50000000e-009,-2.92187660e-004
,,,5.52500000e-009,-3.00000161e-004
,,,5.55000000e-009,-3.16406412e-004
,,,5.57500000e-009,-3.42187664e-004
,,,5.60000000e-009,-3.73437666e-004
,,,5.62500000e-009,-4.07031419e-004
,,,5.65000000e-009,-4.40625171e-004
,,,5.67500000e-009,-4.68750173e-004
,,,5.70000000e-009,-4.89843924e-004
,,,5.72500000e-009,-5.00000175e-004
,,,5.75000000e-009,-4.95312675e-004
,,,5.77500000e-009,-4.79687674e-004
,,,5.80000000e-009,-4.54687672e-004
,,,5.82500000e-009,-4.23437670e-004
,,,5.85000000e-009,-3.89062667e-004
,,,5.87500000e-009,-3.54687665e-004
