RawData/SinglePhotoelectron/L6_2pt2C_5mV/wave013_Ch3.csv

"Record Length",1000,"Points",-7.72500000e-009,2.22656126e-004
"Sample Interval",2.50000000e-011,s,-7.70000000e-009,1.92968624e-004
"Trigger Point",309,"Samples",-7.67500000e-009,1.64062372e-004
"Trigger Time",1.02088112e-011,s,-7.65000000e-009,1.38281120e-004
"",,,-7.62500000e-009,1.17187369e-004
"Horizontal Offset",-7.72500000e-009,s,-7.60000000e-009,9.99998674e-005
,,,-7.57500000e-009,8.82811166e-005
,,,-7.55000000e-009,8.20311161e-005
,,,-7.52500000e-009,7.96873659e-005
,,,-7.50000000e-009,8.20311161e-005
,,,-7.47500000e-009,8.59373664e-005
,,,-7.45000000e-009,9.14061168e-005
,,,-7.42500000e-009,9.60936171e-005
,,,-7.40000000e-009,9.99998674e-005
,,,-7.37500000e-009,1.03124868e-004
,,,-7.35000000e-009,1.03906118e-004
,,,-7.32500000e-009,1.03124868e-004
,,,-7.30000000e-009,1.00781117e-004
,,,-7.27500000e-009,9.76561172e-005
,,,-7.25000000e-009,9.60936171e-005
,,,-7.22500000e-009,9.60936171e-005
,,,-7.20000000e-009,9.99998674e-005
,,,-7.17500000e-009,1.09374868e-004
,,,-7.15000000e-009,1.24218619e-004
,,,-7.12500000e-009,1.42968620e-004
,,,-7.10000000e-009,1.67968622e-004
,,,-7.07500000e-009,1.96874874e-004
,,,-7.05000000e-009,2.29687377e-004
,,,-7.02500000e-009,2.64843629e-004
,,,-7.00000000e-009,2.99999882e-004
,,,-6.97500000e-009,3.31249884e-004
,,,-6.95000000e-009,3.57031136e-004
,,,-6.92500000e-009,3.75781137e-004
,,,-6.90000000e-009,3.84374888e-004
,,,-6.87500000e-009,3.81249887e-004
,,,-6.85000000e-009,3.66406136e-004
,,,-6.82500000e-009,3.39843634e-004
,,,-6.80000000e-009,2.99999882e-004
,,,-6.77500000e-009,2.50781128e-004
,,,-6.75000000e-009,1.93749874e-004
,,,-6.72500000e-009,1.32812370e-004
,,,-6.70000000e-009,7.18748654e-005
,,,-6.67500000e-009,1.48436114e-005
,,,-6.65000000e-009,-3.43751421e-005
,,,-6.62500000e-009,-7.34376449e-005
,,,-6.60000000e-009,-1.00000147e-004
,,,-6.57500000e-009,-1.09375147e-004
,,,-6.55000000e-009,-1.05468897e-004
,,,-6.52500000e-009,-8.75001459e-005
,,,-6.50000000e-009,-5.93751439e-005
,,,-6.47500000e-009,-2.26563913e-005
,,,-6.45000000e-009,1.79686116e-005
,,,-6.42500000e-009,6.01561146e-005
,,,-6.40000000e-009,9.99998674e-005
,,,-6.37500000e-009,1.33593620e-004
,,,-6.35000000e-009,1.58593622e-004
,,,-6.32500000e-009,1.73437373e-004
,,,-6.30000000e-009,1.77343623e-004
,,,-6.27500000e-009,1.71093622e-004
,,,-6.25000000e-009,1.55468621e-004
,,,-6.22500000e-009,1.31249870e-004
,,,-6.20000000e-009,9.99998674e-005
,,,-6.17500000e-009,6.40623648e-005
,,,-6.15000000e-009,2.57811121e-005
,,,-6.12500000e-009,-1.01563904e-005
,,,-6.10000000e-009,-4.29688927e-005
,,,-6.07500000e-009,-7.03126447e-005
,,,-6.05000000e-009,-8.90626460e-005
,,,-6.02500000e-009,-9.92188967e-005
,,,-6.00000000e-009,-1.00000147e-004
,,,-5.97500000e-009,-8.98438961e-005
,,,-5.95000000e-009,-7.26563948e-005
,,,-5.92500000e-009,-4.84376431e-005
,,,-5.90000000e-009,-2.03126411e-005
,,,-5.87500000e-009,1.09373611e-005
,,,-5.85000000e-009,4.29686133e-005
,,,-5.82500000e-009,7.34373655e-005
,,,-5.80000000e-009,9.99998674e-005
,,,-5.77500000e-009,1.22656119e-004
,,,-5.75000000e-009,1.38281120e-004
,,,-5.72500000e-009,1.46093621e-004
,,,-5.70000000e-009,1.48437371e-004
,,,-5.67500000e-009,1.43749870e-004
,,,-5.65000000e-009,1.33593620e-004
,,,-5.62500000e-009,1.18749869e-004
,,,-5.60000000e-009,9.99998674e-005
,,,-5.57500000e-009,7.81248658e-005
,,,-5.55000000e-009,5.39061141e-005
,,,-5.52500000e-009,2.89061123e-005
,,,-5.50000000e-009,3.90611058e-006
,,,-5.47500000e-009,-2.18751412e-005
,,,-5.45000000e-009,-4.76563931e-005
,,,-5.42500000e-009,-7.34376449e-005
,,,-5.40000000e-009,-1.00000147e-004
,,,-5.37500000e-009,-1.24218898e-004
,,,-5.35000000e-009,-1.49218900e-004
,,,-5.32500000e-009,-1.75000152e-004
,,,-5.30000000e-009,-2.00781404e-004
,,,-5.27500000e-009,-2.25781406e-004
,,,-5.25000000e-009,-2.51562658e-004
,,,-5.22500000e-009,-2.76562659e-004
,,,-5.20000000e-009,-3.00000161e-004
,,,-5.17500000e-009,-3.16406412e-004
,,,-5.15000000e-009,-3.29687663e-004
,,,-5.12500000e-009,-3.39062664e-004
,,,-5.10000000e-009,-3.42968914e-004
,,,-5.07500000e-009,-3.41406414e-004
,,,-5.05000000e-009,-3.33593913e-004
,,,-5.02500000e-009,-3.19531412e-004
,,,-5.00000000e-009,-3.00000161e-004
,,,-4.97500000e-009,-2.71093909e-004
,,,-4.95000000e-009,-2.39843907e-004
,,,-4.92500000e-009,-2.07812654e-004
,,,-4.90000000e-009,-1.76562652e-004
,,,-4.87500000e-009,-1.48437650e-004
,,,-4.85000000e-009,-1.25781399e-004
,,,-4.82500000e-009,-1.09375147e-004
,,,-4.80000000e-009,-1.00000147e-004
,,,-4.77500000e-009,-9.53126464e-005
,,,-4.75000000e-009,-9.68751466e-005
,,,-4.72500000e-009,-1.01562647e-004
,,,-4.70000000e-009,-1.07812647e-004
,,,-4.67500000e-009,-1.13281398e-004
,,,-4.65000000e-009,-1.14843898e-004
,,,-4.62500000e-009,-1.10937648e-004
,,,-4.60000000e-009,-1.00000147e-004
,,,-4.57500000e-009,-7.96876453e-005
,,,-4.55000000e-009,-5.39063935e-005
,,,-4.52500000e-009,-2.34376414e-005
,,,-4.50000000e-009,7.81236085e-006
,,,-4.47500000e-009,3.82811130e-005
,,,-4.45000000e-009,6.56248649e-005
,,,-4.42500000e-009,8.67186164e-005
,,,-4.40000000e-009,9.99998674e-005
,,,-4.37500000e-009,1.07031118e-004
,,,-4.35000000e-009,1.07031118e-004
,,,-4.32500000e-009,1.02343618e-004
,,,-4.30000000e-009,9.60936171e-005
,,,-4.27500000e-009,8.98436167e-005
,,,-4.25000000e-009,8.74998665e-005
,,,-4.22500000e-009,9.06248667e-005
,,,-4.20000000e-009,9.99998674e-005
,,,-4.17500000e-009,1.16406119e-004
,,,-4.15000000e-009,1.39843620e-004
,,,-4.12500000e-009,1.68749872e-004
,,,-4.10000000e-009,2.01562375e-004
,,,-4.07500000e-009,2.33593627e-004
,,,-4.05000000e-009,2.62499879e-004
,,,-4.02500000e-009,2.85937381e-004
,,,-4.00000000e-009,2.99999882e-004
,,,-3.97500000e-009,3.02343632e-004
,,,-3.95000000e-009,2.93749881e-004
,,,-3.92500000e-009,2.74999880e-004
,,,-3.90000000e-009,2.48437378e-004
,,,-3.87500000e-009,2.14843626e-004
,,,-3.85000000e-009,1.77343623e-004
,,,-3.82500000e-009,1.38281120e-004
,,,-3.80000000e-009,9.99998674e-005
,,,-3.77500000e-009,6.56248649e-005
,,,-3.75000000e-009,3.82811130e-005
,,,-3.72500000e-009,2.10936118e-005
,,,-3.70000000e-009,1.40623613e-005
,,,-3.67500000e-009,1.95311117e-005
,,,-3.65000000e-009,3.59373628e-005
,,,-3.62500000e-009,6.40623648e-005
,,,-3.60000000e-009,9.99998674e-005
,,,-3.57500000e-009,1.40624870e-004
,,,-3.55000000e-009,1.83593623e-004
,,,-3.52500000e-009,2.24999876e-004
,,,-3.50000000e-009,2.60937379e-004
,,,-3.47500000e-009,2.89062381e-004
,,,-3.45000000e-009,3.05468632e-004
,,,-3.42500000e-009,3.09374882e-004
,,,-3.40000000e-009,2.99999882e-004
,,,-3.37500000e-009,2.75781130e-004
,,,-3.35000000e-009,2.42187377e-004
,,,-3.32500000e-009,2.03906125e-004
,,,-3.30000000e-009,1.65624872e-004
,,,-3.27500000e-009,1.32031120e-004
,,,-3.25000000e-009,1.07812368e-004
,,,-3.22500000e-009,9.68748672e-005
,,,-3.20000000e-009,9.99998674e-005
,,,-3.17500000e-009,1.17187369e-004
,,,-3.15000000e-009,1.46874871e-004
,,,-3.12500000e-009,1.83593623e-004
,,,-3.10000000e-009,2.23437376e-004
,,,-3.07500000e-009,2.60156129e-004
,,,-3.05000000e-009,2.88281131e-004
,,,-3.02500000e-009,3.02343632e-004
,,,-3.00000000e-009,2.99999882e-004
,,,-2.97500000e-009,2.78124880e-004
,,,-2.95000000e-009,2.39062377e-004
,,,-2.92500000e-009,1.85937373e-004
,,,-2.90000000e-009,1.24218619e-004
,,,-2.87500000e-009,5.93748645e-005
,,,-2.85000000e-009,-3.12513992e-006
,,,-2.82500000e-009,-5.70313937e-005
,,,-2.80000000e-009,-1.00000147e-004
,,,-2.77500000e-009,-1.25781399e-004
,,,-2.75000000e-009,-1.37500149e-004
,,,-2.72500000e-009,-1.36718899e-004
,,,-2.70000000e-009,-1.27343899e-004
,,,-2.67500000e-009,-1.14843898e-004
,,,-2.65000000e-009,-1.03125147e-004
,,,-2.62500000e-009,-9.68751466e-005
,,,-2.60000000e-009,-1.00000147e-004
,,,-2.57500000e-009,-1.10156397e-004
,,,-2.55000000e-009,-1.30468899e-004
,,,-2.52500000e-009,-1.58593901e-004
,,,-2.50000000e-009,-1.92968903e-004
,,,-2.47500000e-009,-2.27343906e-004
,,,-2.45000000e-009,-2.59375158e-004
,,,-2.42500000e-009,-2.84375160e-004
,,,-2.40000000e-009,-3.00000161e-004
,,,-2.37500000e-009,-2.97656411e-004
,,,-2.35000000e-009,-2.82812660e-004
,,,-2.32500000e-009,-2.59375158e-004
,,,-2.30000000e-009,-2.27343906e-004
,,,-2.27500000e-009,-1.92187653e-004
,,,-2.25000000e-009,-1.57031401e-004
,,,-2.22500000e-009,-1.25000149e-004
,,,-2.20000000e-009,-1.00000147e-004
,,,-2.17500000e-009,-8.04688954e-005
,,,-2.15000000e-009,-7.03126447e-005
,,,-2.12500000e-009,-6.79688945e-005
,,,-2.10000000e-009,-7.18751448e-005
,,,-2.07500000e-009,-8.04688954e-005
,,,-2.05000000e-009,-8.98438961e-005
,,,-2.02500000e-009,-9.68751466e-005
,,,-2.00000000e-009,-1.00000147e-004
,,,-1.97500000e-009,-9.37501463e-005
,,,-1.95000000e-009,-8.04688954e-005
,,,-1.92500000e-009,-6.09376440e-005
,,,-1.90000000e-009,-3.51563922e-005
,,,-1.87500000e-009,-4.68764003e-006
,,,-1.85000000e-009,2.89061123e-005
,,,-1.82500000e-009,6.48436149e-005
,,,-1.80000000e-009,9.99998674e-005
,,,-1.77500000e-009,1.32031120e-004
,,,-1.75000000e-009,1.61718622e-004
,,,-1.72500000e-009,1.88281124e-004
,,,-1.70000000e-009,2.13281125e-004
,,,-1.67500000e-009,2.35937377e-004
,,,-1.65000000e-009,2.58593629e-004
,,,-1.62500000e-009,2.79687380e-004
,,,-1.60000000e-009,2.99999882e-004
,,,-1.57500000e-009,3.14062383e-004
,,,-1.55000000e-009,3.25781133e-004
,,,-1.52500000e-009,3.33593634e-004
,,,-1.50000000e-009,3.37499884e-004
,,,-1.47500000e-009,3.37499884e-004
,,,-1.45000000e-009,3.31249884e-004
,,,-1.42500000e-009,3.18749883e-004
,,,-1.40000000e-009,2.99999882e-004
,,,-1.37500000e-009,2.65624879e-004
,,,-1.35000000e-009,2.26562376e-004
,,,-1.32500000e-009,1.87499874e-004
,,,-1.30000000e-009,1.52343621e-004
,,,-1.27500000e-009,1.23437369e-004
,,,-1.25000000e-009,1.04687368e-004
,,,-1.22500000e-009,9.68748672e-005
,,,-1.20000000e-009,9.99998674e-005
,,,-1.17500000e-009,9.76561172e-005
,,,-1.15000000e-009,1.00781117e-004
,,,-1.12500000e-009,1.07031118e-004
,,,-1.10000000e-009,1.14843618e-004
,,,-1.07500000e-009,1.20312369e-004
,,,-1.05000000e-009,1.21093619e-004
,,,-1.02500000e-009,1.15624868e-004
,,,-1.00000000e-009,9.99998674e-005
,,,-9.75000000e-010,5.07811139e-005
,,,-9.50000000e-010,-1.01563904e-005
,,,-9.25000000e-010,-7.73438952e-005
,,,-9.00000000e-010,-1.43750150e-004
,,,-8.75000000e-010,-2.03906404e-004
,,,-8.50000000e-010,-2.51562658e-004
,,,-8.25000000e-010,-2.84375160e-004
,,,-8.00000000e-010,-3.00000161e-004
,,,-7.75000000e-010,-3.25000163e-004
,,,-7.50000000e-010,-3.42968914e-004
,,,-7.25000000e-010,-3.55468915e-004
,,,-7.00000000e-010,-3.67187666e-004
,,,-6.75000000e-010,-3.82812667e-004
,,,-6.50000000e-010,-4.06250168e-004
,,,-6.25000000e-010,-4.44531421e-004
,,,-6.00000000e-010,-5.00000175e-004
,,,-5.75000000e-010,-6.03125182e-004
,,,-5.50000000e-010,-7.31250191e-004
,,,-5.25000000e-010,-8.79687702e-004
,,,-5.00000000e-010,-1.04140646e-003
,,,-4.75000000e-010,-1.21093773e-003
,,,-4.50000000e-010,-1.37968774e-003
,,,-4.25000000e-010,-1.54375025e-003
,,,-4.00000000e-010,-1.70000026e-003
,,,-3.75000000e-010,-1.86171902e-003
,,,-3.50000000e-010,-2.02031278e-003
,,,-3.25000000e-010,-2.17890654e-003
,,,-3.00000000e-010,-2.34062531e-003
,,,-2.75000000e-010,-2.50937532e-003
,,,-2.50000000e-010,-2.68984408e-003
,,,-2.25000000e-010,-2.88593784e-003
,,,-2.00000000e-010,-3.10000036e-003
,,,-1.75000000e-010,-3.32890663e-003
,,,-1.50000000e-010,-3.57578164e-003
,,,-1.25000000e-010,-3.83671916e-003
,,,-1.00000000e-010,-4.10468793e-003
,,,-7.50000000e-011,-4.37265670e-003
,,,-5.00000000e-011,-4.63203172e-003
,,,-2.50000000e-011,-4.87656298e-003
,,,0.00000000e+000,-5.10000050e-003
,,,2.50000000e-011,-5.27109426e-003
,,,5.00000000e-011,-5.41953177e-003
,,,7.50000000e-011,-5.55000053e-003
,,,1.00000000e-010,-5.66718804e-003
,,,1.25000000e-010,-5.77500055e-003
,,,1.50000000e-010,-5.88046931e-003
,,,1.75000000e-010,-5.98828181e-003
,,,2.00000000e-010,-6.10000057e-003
,,,2.25000000e-010,-6.17890683e-003
,,,2.50000000e-010,-6.26875058e-003
,,,2.75000000e-010,-6.36875059e-003
,,,3.00000000e-010,-6.47656310e-003
,,,3.25000000e-010,-6.58906311e-003
,,,3.50000000e-010,-6.70156311e-003
,,,3.75000000e-010,-6.80703187e-003
,,,4.00000000e-010,-6.90000063e-003
,,,4.25000000e-010,-6.92656313e-003
,,,4.50000000e-010,-6.93593813e-003
,,,4.75000000e-010,-6.92968813e-003
,,,5.00000000e-010,-6.90781313e-003
,,,5.25000000e-010,-6.87421938e-003
,,,5.50000000e-010,-6.82734437e-003
,,,5.75000000e-010,-6.76953187e-003
,,,6.00000000e-010,-6.70000061e-003
,,,6.25000000e-010,-6.57421936e-003
,,,6.50000000e-010,-6.43984435e-003
,,,6.75000000e-010,-6.29921934e-003
,,,7.00000000e-010,-6.15234433e-003
,,,7.25000000e-010,-6.00000056e-003
,,,7.50000000e-010,-5.84062555e-003
,,,7.75000000e-010,-5.67421929e-003
,,,8.00000000e-010,-5.50000053e-003
,,,8.25000000e-010,-5.28828176e-003
,,,8.50000000e-010,-5.07265675e-003
,,,8.75000000e-010,-4.85703173e-003
,,,9.00000000e-010,-4.64531297e-003
,,,9.25000000e-010,-4.44140670e-003
,,,9.50000000e-010,-4.24765669e-003
,,,9.75000000e-010,-4.06640668e-003
,,,1.00000000e-009,-3.90000042e-003
,,,1.02500000e-009,-3.73828165e-003
,,,1.05000000e-009,-3.58984414e-003
,,,1.07500000e-009,-3.45312538e-003
,,,1.10000000e-009,-3.32734413e-003
,,,1.12500000e-009,-3.21093787e-003
,,,1.15000000e-009,-3.10234411e-003
,,,1.17500000e-009,-2.99843785e-003
,,,1.20000000e-009,-2.90000034e-003
,,,1.22500000e-009,-2.80312534e-003
,,,1.25000000e-009,-2.70312533e-003
,,,1.27500000e-009,-2.60078157e-003
,,,1.30000000e-009,-2.49609407e-003
,,,1.32500000e-009,-2.39140656e-003
,,,1.35000000e-009,-2.28906280e-003
,,,1.37500000e-009,-2.19140654e-003
,,,1.40000000e-009,-2.10000029e-003
,,,1.42500000e-009,-2.02421903e-003
,,,1.45000000e-009,-1.95000028e-003
,,,1.47500000e-009,-1.87500027e-003
,,,1.50000000e-009,-1.79921902e-003
,,,1.52500000e-009,-1.72343776e-003
,,,1.55000000e-009,-1.64687526e-003
,,,1.57500000e-009,-1.57265650e-003
,,,1.60000000e-009,-1.50000025e-003
,,,1.62500000e-009,-1.44453149e-003
,,,1.65000000e-009,-1.38671899e-003
,,,1.67500000e-009,-1.32734398e-003
,,,1.70000000e-009,-1.26953148e-003
,,,1.72500000e-009,-1.21562523e-003
,,,1.75000000e-009,-1.16796897e-003
,,,1.77500000e-009,-1.12890647e-003
,,,1.80000000e-009,-1.10000022e-003
,,,1.82500000e-009,-1.09062522e-003
,,,1.85000000e-009,-1.08281272e-003
,,,1.87500000e-009,-1.07187522e-003
,,,1.90000000e-009,-1.05625021e-003
,,,1.92500000e-009,-1.03281271e-003
,,,1.95000000e-009,-9.99218960e-004
,,,1.97500000e-009,-9.54687707e-004
,,,2.00000000e-009,-9.00000203e-004
,,,2.02500000e-009,-8.40625199e-004
,,,2.05000000e-009,-7.68750194e-004
,,,2.07500000e-009,-6.88281438e-004
,,,2.10000000e-009,-6.01562682e-004
,,,2.12500000e-009,-5.14843926e-004
,,,2.15000000e-009,-4.32031420e-004
,,,2.17500000e-009,-3.59375165e-004
,,,2.20000000e-009,-3.00000161e-004
,,,2.22500000e-009,-2.64062658e-004
,,,2.25000000e-009,-2.42187657e-004
,,,2.27500000e-009,-2.32812656e-004
,,,2.30000000e-009,-2.33593906e-004
,,,2.32500000e-009,-2.43750157e-004
,,,2.35000000e-009,-2.60156408e-004
,,,2.37500000e-009,-2.79687659e-004
,,,2.40000000e-009,-3.00000161e-004
,,,2.42500000e-009,-3.22656413e-004
,,,2.45000000e-009,-3.39843914e-004
,,,2.47500000e-009,-3.48437664e-004
,,,2.50000000e-009,-3.50000164e-004
,,,2.52500000e-009,-3.44531414e-004
,,,2.55000000e-009,-3.33593913e-004
,,,2.57500000e-009,-3.17968912e-004
,,,2.60000000e-009,-3.00000161e-004
,,,2.62500000e-009,-2.82812660e-004
,,,2.65000000e-009,-2.63281408e-004
,,,2.67500000e-009,-2.41406407e-004
,,,2.70000000e-009,-2.17187655e-004
,,,2.72500000e-009,-1.91406403e-004
,,,2.75000000e-009,-1.62500151e-004
,,,2.77500000e-009,-1.32031399e-004
,,,2.80000000e-009,-1.00000147e-004
,,,2.82500000e-009,-6.95313946e-005
,,,2.85000000e-009,-3.82813924e-005
,,,2.87500000e-009,-7.81264025e-006
,,,2.90000000e-009,2.18748618e-005
,,,2.92500000e-009,4.84373637e-005
,,,2.95000000e-009,7.10936153e-005
,,,2.97500000e-009,8.82811166e-005
,,,3.00000000e-009,9.99998674e-005
,,,3.02500000e-009,1.03124868e-004
,,,3.05000000e-009,1.02343618e-004
,,,3.07500000e-009,9.92186173e-005
,,,3.10000000e-009,9.60936171e-005
,,,3.12500000e-009,9.37498669e-005
,,,3.15000000e-009,9.29686169e-005
,,,3.17500000e-009,9.53123670e-005
,,,3.20000000e-009,9.99998674e-005
,,,3.22500000e-009,1.06249868e-004
,,,3.25000000e-009,1.14062368e-004
,,,3.27500000e-009,1.21874869e-004
,,,3.30000000e-009,1.28124869e-004
,,,3.32500000e-009,1.31249870e-004
,,,3.35000000e-009,1.28124869e-004
,,,3.37500000e-009,1.17968619e-004
,,,3.40000000e-009,9.99998674e-005
,,,3.42500000e-009,7.34373655e-005
,,,3.45000000e-009,4.14061132e-005
,,,3.47500000e-009,7.81236085e-006
,,,3.50000000e-009,-2.57813915e-005
,,,3.52500000e-009,-5.62501437e-005
,,,3.55000000e-009,-7.96876453e-005
,,,3.57500000e-009,-9.53126464e-005
,,,3.60000000e-009,-1.00000147e-004
,,,3.62500000e-009,-9.21876462e-005
,,,3.65000000e-009,-7.42188950e-005
,,,3.67500000e-009,-4.76563931e-005
,,,3.70000000e-009,-1.56251408e-005
,,,3.72500000e-009,1.79686116e-005
,,,3.75000000e-009,5.07811139e-005
,,,3.77500000e-009,7.89061159e-005
,,,3.80000000e-009,9.99998674e-005
,,,3.82500000e-009,1.13281118e-004
,,,3.85000000e-009,1.18749869e-004
,,,3.87500000e-009,1.17187369e-004
,,,3.90000000e-009,1.12499868e-004
,,,3.92500000e-009,1.06249868e-004
,,,3.95000000e-009,1.00781117e-004
,,,3.97500000e-009,9.84373673e-005
,,,4.00000000e-009,9.99998674e-005
,,,4.02500000e-009,1.06249868e-004
,,,4.05000000e-009,1.14843618e-004
,,,4.07500000e-009,1.24218619e-004
,,,4.10000000e-009,1.32812370e-004
,,,4.12500000e-009,1.36718620e-004
,,,4.15000000e-009,1.33593620e-004
,,,4.17500000e-009,1.21874869e-004
,,,4.20000000e-009,9.99998674e-005
,,,4.22500000e-009,7.03123653e-005
,,,4.25000000e-009,3.35936127e-005
,,,4.27500000e-009,-6.25014014e-006
,,,4.30000000e-009,-4.37501428e-005
,,,4.32500000e-009,-7.65626451e-005
,,,4.35000000e-009,-9.84376467e-005
,,,4.37500000e-009,-1.07031397e-004
,,,4.40000000e-009,-1.00000147e-004
,,,4.42500000e-009,-7.34376449e-005
,,,4.45000000e-009,-3.28126420e-005
,,,4.47500000e-009,2.03123617e-005
,,,4.50000000e-009,8.04686160e-005
,,,4.52500000e-009,1.44531121e-004
,,,4.55000000e-009,2.05468625e-004
,,,4.57500000e-009,2.58593629e-004
,,,4.60000000e-009,2.99999882e-004
,,,4.62500000e-009,3.24218633e-004
,,,4.65000000e-009,3.31249884e-004
,,,4.67500000e-009,3.21093633e-004
,,,4.70000000e-009,2.96093631e-004
,,,4.72500000e-009,2.57812379e-004
,,,4.75000000e-009,2.10156125e-004
,,,4.77500000e-009,1.56249871e-004
,,,4.80000000e-009,9.99998674e-005
,,,4.82500000e-009,4.60936136e-005
,,,4.85000000e-009,-3.12513992e-006
,,,4.87500000e-009,-4.37501428e-005
,,,4.90000000e-009,-7.57813951e-005
,,,4.92500000e-009,-9.68751466e-005
,,,4.95000000e-009,-1.07812647e-004
,,,4.97500000e-009,-1.08593897e-004
,,,5.00000000e-009,-1.00000147e-004
,,,5.02500000e-009,-8.12501454e-005
,,,5.05000000e-009,-5.70313937e-005
,,,5.07500000e-009,-2.89063917e-005
,,,5.10000000e-009,7.81110357e-007
,,,5.12500000e-009,2.96873624e-005
,,,5.15000000e-009,5.70311143e-005
,,,5.17500000e-009,8.12498661e-005
,,,5.20000000e-009,9.99998674e-005
,,,5.22500000e-009,1.15624868e-004
,,,5.25000000e-009,1.24999869e-004
,,,5.27500000e-009,1.28906119e-004
,,,5.30000000e-009,1.28906119e-004
,,,5.32500000e-009,1.24218619e-004
,,,5.35000000e-009,1.17187369e-004
,,,5.37500000e-009,1.09374868e-004
,,,5.40000000e-009,9.99998674e-005
,,,5.42500000e-009,9.29686169e-005
,,,5.45000000e-009,8.67186164e-005
,,,5.47500000e-009,8.35936162e-005
,,,5.50000000e-009,8.35936162e-005
,,,5.52500000e-009,8.51561163e-005
,,,5.55000000e-009,8.90623666e-005
,,,5.57500000e-009,9.45311170e-005
,,,5.60000000e-009,9.99998674e-005
,,,5.62500000e-009,1.07812368e-004
,,,5.65000000e-009,1.14062368e-004
,,,5.67500000e-009,1.17968619e-004
,,,5.70000000e-009,1.20312369e-004
,,,5.72500000e-009,1.18749869e-004
,,,5.75000000e-009,1.14843618e-004
,,,5.77500000e-009,1.08593618e-004
,,,5.80000000e-009,9.99998674e-005
,,,5.82500000e-009,9.14061168e-005
,,,5.85000000e-009,8.20311161e-005
,,,5.87500000e-009,7.42186156e-005
,,,5.90000000e-009,6.95311152e-005
,,,5.92500000e-009,6.95311152e-005
,,,5.95000000e-009,7.34373655e-005
,,,5.97500000e-009,8.43748663e-005
,,,6.00000000e-009,9.99998674e-005
