RawData/SinglePhotoelectron/R4_2pt2D_5mV/wave017_Ch4.csv

"Record Length",1000,"Points",-7.72500000e-009,8.98437489e-004
"Sample Interval",2.50000000e-011,s,-7.70000000e-009,8.93749989e-004
"Trigger Point",309,"Samples",-7.67500000e-009,8.74999987e-004
"Trigger Time",9.98417266e-013,s,-7.65000000e-009,8.42187485e-004
"",,,-7.62500000e-009,7.99999982e-004
"Horizontal Offset",-7.72500000e-009,s,-7.60000000e-009,7.51562479e-004
,,,-7.57500000e-009,7.03124975e-004
,,,-7.55000000e-009,6.64062472e-004
,,,-7.52500000e-009,6.40624971e-004
,,,-7.50000000e-009,6.37499971e-004
,,,-7.47500000e-009,6.62499972e-004
,,,-7.45000000e-009,7.17187476e-004
,,,-7.42500000e-009,7.99999982e-004
,,,-7.40000000e-009,9.10937490e-004
,,,-7.37500000e-009,1.03750000e-003
,,,-7.35000000e-009,1.17187501e-003
,,,-7.32500000e-009,1.30468752e-003
,,,-7.30000000e-009,1.42343753e-003
,,,-7.27500000e-009,1.51718753e-003
,,,-7.25000000e-009,1.57812504e-003
,,,-7.22500000e-009,1.60000004e-003
,,,-7.20000000e-009,1.57343754e-003
,,,-7.17500000e-009,1.50625003e-003
,,,-7.15000000e-009,1.40937503e-003
,,,-7.12500000e-009,1.28906252e-003
,,,-7.10000000e-009,1.15781251e-003
,,,-7.07500000e-009,1.02656250e-003
,,,-7.05000000e-009,9.04687490e-004
,,,-7.02500000e-009,7.99999982e-004
,,,-7.00000000e-009,7.20312476e-004
,,,-6.97500000e-009,6.68749973e-004
,,,-6.95000000e-009,6.46874971e-004
,,,-6.92500000e-009,6.49999972e-004
,,,-6.90000000e-009,6.74999973e-004
,,,-6.87500000e-009,7.12499976e-004
,,,-6.85000000e-009,7.56249979e-004
,,,-6.82500000e-009,7.99999982e-004
,,,-6.80000000e-009,8.34374985e-004
,,,-6.77500000e-009,8.57812486e-004
,,,-6.75000000e-009,8.68749987e-004
,,,-6.72500000e-009,8.67187487e-004
,,,-6.70000000e-009,8.57812486e-004
,,,-6.67500000e-009,8.40624985e-004
,,,-6.65000000e-009,8.20312484e-004
,,,-6.62500000e-009,7.99999982e-004
,,,-6.60000000e-009,7.84374981e-004
,,,-6.57500000e-009,7.73437480e-004
,,,-6.55000000e-009,7.67187480e-004
,,,-6.52500000e-009,7.68749980e-004
,,,-6.50000000e-009,7.73437480e-004
,,,-6.47500000e-009,7.81249981e-004
,,,-6.45000000e-009,7.90624981e-004
,,,-6.42500000e-009,7.99999982e-004
,,,-6.40000000e-009,8.07812483e-004
,,,-6.37500000e-009,8.10937483e-004
,,,-6.35000000e-009,8.14062483e-004
,,,-6.32500000e-009,8.14062483e-004
,,,-6.30000000e-009,8.12499983e-004
,,,-6.27500000e-009,8.10937483e-004
,,,-6.25000000e-009,8.07812483e-004
,,,-6.22500000e-009,7.99999982e-004
,,,-6.20000000e-009,7.93749982e-004
,,,-6.17500000e-009,7.78124981e-004
,,,-6.15000000e-009,7.51562479e-004
,,,-6.12500000e-009,7.12499976e-004
,,,-6.10000000e-009,6.57812472e-004
,,,-6.07500000e-009,5.85937467e-004
,,,-6.05000000e-009,4.99999961e-004
,,,-6.02500000e-009,3.99999954e-004
,,,-6.00000000e-009,2.96874947e-004
,,,-5.97500000e-009,1.92187439e-004
,,,-5.95000000e-009,9.68749324e-005
,,,-5.92500000e-009,1.87499268e-005
,,,-5.90000000e-009,-3.59375770e-005
,,,-5.87500000e-009,-5.93750787e-005
,,,-5.85000000e-009,-4.68750778e-005
,,,-5.82500000e-009,-7.45058060e-011
,,,-5.80000000e-009,8.74999317e-005
,,,-5.77500000e-009,1.99999940e-004
,,,-5.75000000e-009,3.26562449e-004
,,,-5.72500000e-009,4.57812458e-004
,,,-5.70000000e-009,5.79687467e-004
,,,-5.67500000e-009,6.84374974e-004
,,,-5.65000000e-009,7.59374979e-004
,,,-5.62500000e-009,7.99999982e-004
,,,-5.60000000e-009,8.04687482e-004
,,,-5.57500000e-009,7.76562480e-004
,,,-5.55000000e-009,7.20312476e-004
,,,-5.52500000e-009,6.46874971e-004
,,,-5.50000000e-009,5.67187466e-004
,,,-5.47500000e-009,4.93749960e-004
,,,-5.45000000e-009,4.35937456e-004
,,,-5.42500000e-009,3.99999954e-004
,,,-5.40000000e-009,3.96874954e-004
,,,-5.37500000e-009,4.20312455e-004
,,,-5.35000000e-009,4.68749959e-004
,,,-5.32500000e-009,5.35937463e-004
,,,-5.30000000e-009,6.10937469e-004
,,,-5.27500000e-009,6.87499974e-004
,,,-5.25000000e-009,7.53124979e-004
,,,-5.22500000e-009,7.99999982e-004
,,,-5.20000000e-009,8.21874984e-004
,,,-5.17500000e-009,8.17187483e-004
,,,-5.15000000e-009,7.84374981e-004
,,,-5.12500000e-009,7.28124977e-004
,,,-5.10000000e-009,6.56249972e-004
,,,-5.07500000e-009,5.71874966e-004
,,,-5.05000000e-009,4.84374960e-004
,,,-5.02500000e-009,3.99999954e-004
,,,-5.00000000e-009,3.29687449e-004
,,,-4.97500000e-009,2.76562445e-004
,,,-4.95000000e-009,2.43749943e-004
,,,-4.92500000e-009,2.34374942e-004
,,,-4.90000000e-009,2.48437443e-004
,,,-4.87500000e-009,2.82812446e-004
,,,-4.85000000e-009,3.34374949e-004
,,,-4.82500000e-009,3.99999954e-004
,,,-4.80000000e-009,4.71874959e-004
,,,-4.77500000e-009,5.45312464e-004
,,,-4.75000000e-009,6.17187469e-004
,,,-4.72500000e-009,6.81249974e-004
,,,-4.70000000e-009,7.34374977e-004
,,,-4.67500000e-009,7.73437480e-004
,,,-4.65000000e-009,7.96874982e-004
,,,-4.62500000e-009,7.99999982e-004
,,,-4.60000000e-009,7.84374981e-004
,,,-4.57500000e-009,7.53124979e-004
,,,-4.55000000e-009,7.06249975e-004
,,,-4.52500000e-009,6.48437471e-004
,,,-4.50000000e-009,5.84374967e-004
,,,-4.47500000e-009,5.20312462e-004
,,,-4.45000000e-009,4.56249958e-004
,,,-4.42500000e-009,3.99999954e-004
,,,-4.40000000e-009,3.54687451e-004
,,,-4.37500000e-009,3.23437448e-004
,,,-4.35000000e-009,3.06249947e-004
,,,-4.32500000e-009,3.03124947e-004
,,,-4.30000000e-009,3.14062448e-004
,,,-4.27500000e-009,3.35937449e-004
,,,-4.25000000e-009,3.65624951e-004
,,,-4.22500000e-009,3.99999954e-004
,,,-4.20000000e-009,4.37499956e-004
,,,-4.17500000e-009,4.70312459e-004
,,,-4.15000000e-009,4.93749960e-004
,,,-4.12500000e-009,5.04687461e-004
,,,-4.10000000e-009,5.03124961e-004
,,,-4.07500000e-009,4.84374960e-004
,,,-4.05000000e-009,4.49999957e-004
,,,-4.02500000e-009,3.99999954e-004
,,,-4.00000000e-009,3.39062449e-004
,,,-3.97500000e-009,2.68749945e-004
,,,-3.95000000e-009,1.98437440e-004
,,,-3.92500000e-009,1.31249935e-004
,,,-3.90000000e-009,7.34374307e-005
,,,-3.87500000e-009,2.96874276e-005
,,,-3.85000000e-009,4.68742583e-006
,,,-3.82500000e-009,-7.45058060e-011
,,,-3.80000000e-009,2.03124269e-005
,,,-3.77500000e-009,5.93749297e-005
,,,-3.75000000e-009,1.12499933e-004
,,,-3.72500000e-009,1.74999938e-004
,,,-3.70000000e-009,2.40624943e-004
,,,-3.67500000e-009,3.03124947e-004
,,,-3.65000000e-009,3.57812451e-004
,,,-3.62500000e-009,3.99999954e-004
,,,-3.60000000e-009,4.31249956e-004
,,,-3.57500000e-009,4.45312457e-004
,,,-3.55000000e-009,4.46874957e-004
,,,-3.52500000e-009,4.40624957e-004
,,,-3.50000000e-009,4.26562456e-004
,,,-3.47500000e-009,4.14062455e-004
,,,-3.45000000e-009,4.04687454e-004
,,,-3.42500000e-009,3.99999954e-004
,,,-3.40000000e-009,4.04687454e-004
,,,-3.37500000e-009,4.14062455e-004
,,,-3.35000000e-009,4.26562456e-004
,,,-3.32500000e-009,4.40624957e-004
,,,-3.30000000e-009,4.46874957e-004
,,,-3.27500000e-009,4.45312457e-004
,,,-3.25000000e-009,4.31249956e-004
,,,-3.22500000e-009,3.99999954e-004
,,,-3.20000000e-009,3.56249951e-004
,,,-3.17500000e-009,2.99999947e-004
,,,-3.15000000e-009,2.34374942e-004
,,,-3.12500000e-009,1.68749937e-004
,,,-3.10000000e-009,1.06249933e-004
,,,-3.07500000e-009,5.31249293e-005
,,,-3.05000000e-009,1.71874267e-005
,,,-3.02500000e-009,-7.45058060e-011
,,,-3.00000000e-009,1.09374263e-005
,,,-2.97500000e-009,4.21874285e-005
,,,-2.95000000e-009,9.21874320e-005
,,,-2.92500000e-009,1.53124936e-004
,,,-2.90000000e-009,2.20312441e-004
,,,-2.87500000e-009,2.87499946e-004
,,,-2.85000000e-009,3.49999950e-004
,,,-2.82500000e-009,3.99999954e-004
,,,-2.80000000e-009,4.37499956e-004
,,,-2.77500000e-009,4.59374958e-004
,,,-2.75000000e-009,4.67187459e-004
,,,-2.72500000e-009,4.64062458e-004
,,,-2.70000000e-009,4.51562457e-004
,,,-2.67500000e-009,4.34374956e-004
,,,-2.65000000e-009,4.17187455e-004
,,,-2.62500000e-009,3.99999954e-004
,,,-2.60000000e-009,3.90624953e-004
,,,-2.57500000e-009,3.87499953e-004
,,,-2.55000000e-009,3.87499953e-004
,,,-2.52500000e-009,3.92187453e-004
,,,-2.50000000e-009,3.98437454e-004
,,,-2.47500000e-009,4.01562454e-004
,,,-2.45000000e-009,4.03124954e-004
,,,-2.42500000e-009,3.99999954e-004
,,,-2.40000000e-009,3.96874954e-004
,,,-2.37500000e-009,3.90624953e-004
,,,-2.35000000e-009,3.82812453e-004
,,,-2.32500000e-009,3.74999952e-004
,,,-2.30000000e-009,3.70312452e-004
,,,-2.27500000e-009,3.71874952e-004
,,,-2.25000000e-009,3.81249952e-004
,,,-2.22500000e-009,3.99999954e-004
,,,-2.20000000e-009,4.32812456e-004
,,,-2.17500000e-009,4.73437459e-004
,,,-2.15000000e-009,5.23437463e-004
,,,-2.12500000e-009,5.78124966e-004
,,,-2.10000000e-009,6.37499971e-004
,,,-2.07500000e-009,6.96874975e-004
,,,-2.05000000e-009,7.51562479e-004
,,,-2.02500000e-009,7.99999982e-004
,,,-2.00000000e-009,8.37499985e-004
,,,-1.97500000e-009,8.64062487e-004
,,,-1.95000000e-009,8.78124988e-004
,,,-1.92500000e-009,8.81249988e-004
,,,-1.90000000e-009,8.73437487e-004
,,,-1.87500000e-009,8.56249986e-004
,,,-1.85000000e-009,8.31249984e-004
,,,-1.82500000e-009,7.99999982e-004
,,,-1.80000000e-009,7.68749980e-004
,,,-1.77500000e-009,7.39062478e-004
,,,-1.75000000e-009,7.17187476e-004
,,,-1.72500000e-009,7.04687475e-004
,,,-1.70000000e-009,7.06249975e-004
,,,-1.67500000e-009,7.21874977e-004
,,,-1.65000000e-009,7.54687479e-004
,,,-1.62500000e-009,7.99999982e-004
,,,-1.60000000e-009,8.51562486e-004
,,,-1.57500000e-009,9.10937490e-004
,,,-1.55000000e-009,9.73437494e-004
,,,-1.52500000e-009,1.03593750e-003
,,,-1.50000000e-009,1.09531250e-003
,,,-1.47500000e-009,1.14375001e-003
,,,-1.45000000e-009,1.17968751e-003
,,,-1.42500000e-009,1.20000001e-003
,,,-1.40000000e-009,1.18750001e-003
,,,-1.37500000e-009,1.15468751e-003
,,,-1.35000000e-009,1.10625000e-003
,,,-1.32500000e-009,1.04687500e-003
,,,-1.30000000e-009,9.81249995e-004
,,,-1.27500000e-009,9.15624990e-004
,,,-1.25000000e-009,8.53124986e-004
,,,-1.22500000e-009,7.99999982e-004
,,,-1.20000000e-009,7.39062478e-004
,,,-1.17500000e-009,6.90624974e-004
,,,-1.15000000e-009,6.59374972e-004
,,,-1.12500000e-009,6.48437471e-004
,,,-1.10000000e-009,6.57812472e-004
,,,-1.07500000e-009,6.89062474e-004
,,,-1.05000000e-009,7.39062478e-004
,,,-1.02500000e-009,7.99999982e-004
,,,-1.00000000e-009,8.43749985e-004
,,,-9.75000000e-010,8.81249988e-004
,,,-9.50000000e-010,9.10937490e-004
,,,-9.25000000e-010,9.26562491e-004
,,,-9.00000000e-010,9.26562491e-004
,,,-8.75000000e-010,9.06249990e-004
,,,-8.50000000e-010,8.65624987e-004
,,,-8.25000000e-010,7.99999982e-004
,,,-8.00000000e-010,6.76562473e-004
,,,-7.75000000e-010,5.28124963e-004
,,,-7.50000000e-010,3.64062451e-004
,,,-7.25000000e-010,1.93749939e-004
,,,-7.00000000e-010,2.49999273e-005
,,,-6.75000000e-010,-1.32812584e-004
,,,-6.50000000e-010,-2.75000094e-004
,,,-6.25000000e-010,-4.00000103e-004
,,,-6.00000000e-010,-5.42187613e-004
,,,-5.75000000e-010,-6.78125123e-004
,,,-5.50000000e-010,-8.10937632e-004
,,,-5.25000000e-010,-9.45312641e-004
,,,-5.00000000e-010,-1.08593765e-003
,,,-4.75000000e-010,-1.24062516e-003
,,,-4.50000000e-010,-1.40937517e-003
,,,-4.25000000e-010,-1.60000019e-003
,,,-4.00000000e-010,-1.83750020e-003
,,,-3.75000000e-010,-2.10000022e-003
,,,-3.50000000e-010,-2.37656274e-003
,,,-3.25000000e-010,-2.65781276e-003
,,,-3.00000000e-010,-2.93125028e-003
,,,-2.75000000e-010,-3.18437530e-003
,,,-2.50000000e-010,-3.40781282e-003
,,,-2.25000000e-010,-3.60000033e-003
,,,-2.00000000e-010,-3.77343784e-003
,,,-1.75000000e-010,-3.92500035e-003
,,,-1.50000000e-010,-4.06093786e-003
,,,-1.25000000e-010,-4.18906287e-003
,,,-1.00000000e-010,-4.31875038e-003
,,,-7.50000000e-011,-4.45781289e-003
,,,-5.00000000e-011,-4.61562540e-003
,,,-2.50000000e-011,-4.80000041e-003
,,,0.00000000e+000,-5.01718793e-003
,,,2.50000000e-011,-5.27500045e-003
,,,5.00000000e-011,-5.56562547e-003
,,,7.50000000e-011,-5.88437549e-003
,,,1.00000000e-010,-6.21875051e-003
,,,1.25000000e-010,-6.55625054e-003
,,,1.50000000e-010,-6.88750056e-003
,,,1.75000000e-010,-7.20000058e-003
,,,2.00000000e-010,-7.46562560e-003
,,,2.25000000e-010,-7.70937562e-003
,,,2.50000000e-010,-7.93281314e-003
,,,2.75000000e-010,-8.13593815e-003
,,,3.00000000e-010,-8.32031316e-003
,,,3.25000000e-010,-8.48906318e-003
,,,3.50000000e-010,-8.64843819e-003
,,,3.75000000e-010,-8.80000070e-003
,,,4.00000000e-010,-8.91250071e-003
,,,4.25000000e-010,-9.03281321e-003
,,,4.50000000e-010,-9.16718822e-003
,,,4.75000000e-010,-9.31406323e-003
,,,5.00000000e-010,-9.47500075e-003
,,,5.25000000e-010,-9.64531326e-003
,,,5.50000000e-010,-9.82187577e-003
,,,5.75000000e-010,-1.00000008e-002
,,,6.00000000e-010,-1.01250008e-002
,,,6.25000000e-010,-1.02500008e-002
,,,6.50000000e-010,-1.03687508e-002
,,,6.75000000e-010,-1.04812508e-002
,,,7.00000000e-010,-1.05843758e-002
,,,7.25000000e-010,-1.06734383e-002
,,,7.50000000e-010,-1.07468758e-002
,,,7.75000000e-010,-1.08000008e-002
,,,8.00000000e-010,-1.07796883e-002
,,,8.25000000e-010,-1.07453133e-002
,,,8.50000000e-010,-1.06984383e-002
,,,8.75000000e-010,-1.06437508e-002
,,,9.00000000e-010,-1.05843758e-002
,,,9.25000000e-010,-1.05234383e-002
,,,9.50000000e-010,-1.04625008e-002
,,,9.75000000e-010,-1.04000008e-002
,,,1.00000000e-009,-1.02843758e-002
,,,1.02500000e-009,-1.01718758e-002
,,,1.05000000e-009,-1.00656258e-002
,,,1.07500000e-009,-9.96406328e-003
,,,1.10000000e-009,-9.86875077e-003
,,,1.12500000e-009,-9.77812577e-003
,,,1.15000000e-009,-9.68906326e-003
,,,1.17500000e-009,-9.60000075e-003
,,,1.20000000e-009,-9.46093824e-003
,,,1.22500000e-009,-9.31562573e-003
,,,1.25000000e-009,-9.16562572e-003
,,,1.27500000e-009,-9.01093821e-003
,,,1.30000000e-009,-8.85468820e-003
,,,1.32500000e-009,-8.70000069e-003
,,,1.35000000e-009,-8.54843818e-003
,,,1.37500000e-009,-8.40000067e-003
,,,1.40000000e-009,-8.22500066e-003
,,,1.42500000e-009,-8.05156314e-003
,,,1.45000000e-009,-7.88437563e-003
,,,1.47500000e-009,-7.72500062e-003
,,,1.50000000e-009,-7.57656311e-003
,,,1.52500000e-009,-7.43906310e-003
,,,1.55000000e-009,-7.31406309e-003
,,,1.57500000e-009,-7.20000058e-003
,,,1.60000000e-009,-7.07812558e-003
,,,1.62500000e-009,-6.95312557e-003
,,,1.65000000e-009,-6.82343806e-003
,,,1.67500000e-009,-6.68437555e-003
,,,1.70000000e-009,-6.53437554e-003
,,,1.72500000e-009,-6.37187553e-003
,,,1.75000000e-009,-6.19375051e-003
,,,1.77500000e-009,-6.00000050e-003
,,,1.80000000e-009,-5.78437548e-003
,,,1.82500000e-009,-5.54687547e-003
,,,1.85000000e-009,-5.29375045e-003
,,,1.87500000e-009,-5.02968793e-003
,,,1.90000000e-009,-4.76250041e-003
,,,1.92500000e-009,-4.49687539e-003
,,,1.95000000e-009,-4.24218787e-003
,,,1.97500000e-009,-4.00000036e-003
,,,2.00000000e-009,-3.78281284e-003
,,,2.02500000e-009,-3.57343783e-003
,,,2.05000000e-009,-3.37187531e-003
,,,2.07500000e-009,-3.17343780e-003
,,,2.10000000e-009,-2.97656279e-003
,,,2.12500000e-009,-2.78125027e-003
,,,2.15000000e-009,-2.58906276e-003
,,,2.17500000e-009,-2.40000024e-003
,,,2.20000000e-009,-2.23593773e-003
,,,2.22500000e-009,-2.07656272e-003
,,,2.25000000e-009,-1.92812521e-003
,,,2.27500000e-009,-1.79687520e-003
,,,2.30000000e-009,-1.69218769e-003
,,,2.32500000e-009,-1.62187519e-003
,,,2.35000000e-009,-1.59062519e-003
,,,2.37500000e-009,-1.60000019e-003
,,,2.40000000e-009,-1.66718769e-003
,,,2.42500000e-009,-1.75468770e-003
,,,2.45000000e-009,-1.84843771e-003
,,,2.47500000e-009,-1.93593771e-003
,,,2.50000000e-009,-2.00468772e-003
,,,2.52500000e-009,-2.04375022e-003
,,,2.55000000e-009,-2.04375022e-003
,,,2.57500000e-009,-2.00000022e-003
,,,2.60000000e-009,-1.92031271e-003
,,,2.62500000e-009,-1.79531270e-003
,,,2.65000000e-009,-1.63437519e-003
,,,2.67500000e-009,-1.44843768e-003
,,,2.70000000e-009,-1.25781266e-003
,,,2.72500000e-009,-1.07656265e-003
,,,2.75000000e-009,-9.20312640e-004
,,,2.77500000e-009,-8.00000131e-004
,,,2.80000000e-009,-7.39062627e-004
,,,2.82500000e-009,-7.12500125e-004
,,,2.85000000e-009,-7.15625125e-004
,,,2.87500000e-009,-7.37500127e-004
,,,2.90000000e-009,-7.67187629e-004
,,,2.92500000e-009,-7.93750131e-004
,,,2.95000000e-009,-8.06250132e-004
,,,2.97500000e-009,-8.00000131e-004
,,,3.00000000e-009,-7.75000129e-004
,,,3.02500000e-009,-7.25000126e-004
,,,3.05000000e-009,-6.54687621e-004
,,,3.07500000e-009,-5.75000115e-004
,,,3.10000000e-009,-4.98437610e-004
,,,3.12500000e-009,-4.37500105e-004
,,,3.15000000e-009,-4.03125103e-004
,,,3.17500000e-009,-4.00000103e-004
,,,3.20000000e-009,-4.32812605e-004
,,,3.22500000e-009,-4.93750109e-004
,,,3.25000000e-009,-5.71875115e-004
,,,3.27500000e-009,-6.56250121e-004
,,,3.30000000e-009,-7.31250126e-004
,,,3.32500000e-009,-7.87500130e-004
,,,3.35000000e-009,-8.12500132e-004
,,,3.37500000e-009,-8.00000131e-004
,,,3.40000000e-009,-7.42187627e-004
,,,3.42500000e-009,-6.46875120e-004
,,,3.45000000e-009,-5.25000112e-004
,,,3.47500000e-009,-3.89062602e-004
,,,3.50000000e-009,-2.54687593e-004
,,,3.52500000e-009,-1.35937584e-004
,,,3.55000000e-009,-4.84375779e-005
,,,3.57500000e-009,-7.45058060e-011
,,,3.60000000e-009,3.12492572e-006
,,,3.62500000e-009,-3.12500767e-005
,,,3.65000000e-009,-9.53125813e-005
,,,3.67500000e-009,-1.75000087e-004
,,,3.70000000e-009,-2.59375093e-004
,,,3.72500000e-009,-3.32812598e-004
,,,3.75000000e-009,-3.82812602e-004
,,,3.77500000e-009,-4.00000103e-004
,,,3.80000000e-009,-3.73437601e-004
,,,3.82500000e-009,-3.07812596e-004
,,,3.85000000e-009,-2.09375089e-004
,,,3.87500000e-009,-8.59375806e-005
,,,3.90000000e-009,4.84374289e-005
,,,3.92500000e-009,1.82812438e-004
,,,3.95000000e-009,3.03124947e-004
,,,3.97500000e-009,3.99999954e-004
,,,4.00000000e-009,4.65624958e-004
,,,4.02500000e-009,5.01562461e-004
,,,4.05000000e-009,5.09374962e-004
,,,4.07500000e-009,4.96874961e-004
,,,4.10000000e-009,4.70312459e-004
,,,4.12500000e-009,4.39062457e-004
,,,4.15000000e-009,4.14062455e-004
,,,4.17500000e-009,3.99999954e-004
,,,4.20000000e-009,4.03124954e-004
,,,4.22500000e-009,4.28124956e-004
,,,4.25000000e-009,4.71874959e-004
,,,4.27500000e-009,5.31249963e-004
,,,4.30000000e-009,5.99999968e-004
,,,4.32500000e-009,6.71874973e-004
,,,4.35000000e-009,7.40624978e-004
,,,4.37500000e-009,7.99999982e-004
,,,4.40000000e-009,8.40624985e-004
,,,4.42500000e-009,8.64062487e-004
,,,4.45000000e-009,8.74999987e-004
,,,4.47500000e-009,8.71874987e-004
,,,4.50000000e-009,8.59374986e-004
,,,4.52500000e-009,8.42187485e-004
,,,4.55000000e-009,8.20312484e-004
,,,4.57500000e-009,7.99999982e-004
,,,4.60000000e-009,7.81249981e-004
,,,4.62500000e-009,7.68749980e-004
,,,4.65000000e-009,7.62499979e-004
,,,4.67500000e-009,7.62499979e-004
,,,4.70000000e-009,7.68749980e-004
,,,4.72500000e-009,7.79687481e-004
,,,4.75000000e-009,7.90624981e-004
,,,4.77500000e-009,7.99999982e-004
,,,4.80000000e-009,8.03124982e-004
,,,4.82500000e-009,8.04687482e-004
,,,4.85000000e-009,8.03124982e-004
,,,4.87500000e-009,8.03124982e-004
,,,4.90000000e-009,8.01562482e-004
,,,4.92500000e-009,7.99999982e-004
,,,4.95000000e-009,7.99999982e-004
,,,4.97500000e-009,7.99999982e-004
,,,5.00000000e-009,7.99999982e-004
,,,5.02500000e-009,7.99999982e-004
,,,5.05000000e-009,8.01562482e-004
,,,5.07500000e-009,8.03124982e-004
,,,5.10000000e-009,8.03124982e-004
,,,5.12500000e-009,8.04687482e-004
,,,5.15000000e-009,8.03124982e-004
,,,5.17500000e-009,7.99999982e-004
,,,5.20000000e-009,7.93749982e-004
,,,5.22500000e-009,7.85937481e-004
,,,5.25000000e-009,7.81249981e-004
,,,5.27500000e-009,7.76562480e-004
,,,5.30000000e-009,7.76562480e-004
,,,5.32500000e-009,7.79687481e-004
,,,5.35000000e-009,7.89062481e-004
,,,5.37500000e-009,7.99999982e-004
,,,5.40000000e-009,8.14062483e-004
,,,5.42500000e-009,8.28124984e-004
,,,5.45000000e-009,8.40624985e-004
,,,5.47500000e-009,8.48437486e-004
,,,5.50000000e-009,8.49999986e-004
,,,5.52500000e-009,8.43749985e-004
,,,5.55000000e-009,8.28124984e-004
,,,5.57500000e-009,7.99999982e-004
,,,5.60000000e-009,7.60937479e-004
,,,5.62500000e-009,7.14062476e-004
,,,5.65000000e-009,6.59374972e-004
,,,5.67500000e-009,5.99999968e-004
,,,5.70000000e-009,5.42187464e-004
,,,5.72500000e-009,4.87499960e-004
,,,5.75000000e-009,4.40624957e-004
,,,5.77500000e-009,3.99999954e-004
,,,5.80000000e-009,3.73437452e-004
,,,5.82500000e-009,3.57812451e-004
,,,5.85000000e-009,3.51562450e-004
,,,5.87500000e-009,3.53124950e-004
,,,5.90000000e-009,3.60937451e-004
,,,5.92500000e-009,3.73437452e-004
,,,5.95000000e-009,3.87499953e-004
,,,5.97500000e-009,3.99999954e-004
,,,6.00000000e-009,4.12499955e-004
,,,6.02500000e-009,4.21874955e-004
,,,6.05000000e-009,4.24999956e-004
