RawData/SinglePhotoelectron/R4_2pt2D_5mV/wave016_Ch4.csv

"Record Length",1000,"Points",-7.72500000e-009,8.15624983e-004
"Sample Interval",2.50000000e-011,s,-7.70000000e-009,7.99999982e-004
"Trigger Point",309,"Samples",-7.67500000e-009,7.59374979e-004
"Trigger Time",2.35333333e-012,s,-7.65000000e-009,6.96874975e-004
"",,,-7.62500000e-009,6.21874970e-004
"Horizontal Offset",-7.72500000e-009,s,-7.60000000e-009,5.42187464e-004
,,,-7.57500000e-009,4.65624958e-004
,,,-7.55000000e-009,3.99999954e-004
,,,-7.52500000e-009,3.54687451e-004
,,,-7.50000000e-009,3.26562449e-004
,,,-7.47500000e-009,3.17187448e-004
,,,-7.45000000e-009,3.21874948e-004
,,,-7.42500000e-009,3.39062449e-004
,,,-7.40000000e-009,3.60937451e-004
,,,-7.37500000e-009,3.82812453e-004
,,,-7.35000000e-009,3.99999954e-004
,,,-7.32500000e-009,4.17187455e-004
,,,-7.30000000e-009,4.26562456e-004
,,,-7.27500000e-009,4.26562456e-004
,,,-7.25000000e-009,4.21874955e-004
,,,-7.22500000e-009,4.12499955e-004
,,,-7.20000000e-009,4.03124954e-004
,,,-7.17500000e-009,3.98437454e-004
,,,-7.15000000e-009,3.99999954e-004
,,,-7.12500000e-009,4.18749955e-004
,,,-7.10000000e-009,4.46874957e-004
,,,-7.07500000e-009,4.87499960e-004
,,,-7.05000000e-009,5.37499964e-004
,,,-7.02500000e-009,5.96874968e-004
,,,-7.00000000e-009,6.64062472e-004
,,,-6.97500000e-009,7.32812477e-004
,,,-6.95000000e-009,7.99999982e-004
,,,-6.92500000e-009,8.60937486e-004
,,,-6.90000000e-009,9.10937490e-004
,,,-6.87500000e-009,9.45312492e-004
,,,-6.85000000e-009,9.59374993e-004
,,,-6.82500000e-009,9.53124993e-004
,,,-6.80000000e-009,9.23437491e-004
,,,-6.77500000e-009,8.71874987e-004
,,,-6.75000000e-009,7.99999982e-004
,,,-6.72500000e-009,7.15624976e-004
,,,-6.70000000e-009,6.24999970e-004
,,,-6.67500000e-009,5.35937463e-004
,,,-6.65000000e-009,4.57812458e-004
,,,-6.62500000e-009,3.98437454e-004
,,,-6.60000000e-009,3.67187451e-004
,,,-6.57500000e-009,3.67187451e-004
,,,-6.55000000e-009,3.99999954e-004
,,,-6.52500000e-009,4.67187459e-004
,,,-6.50000000e-009,5.62499965e-004
,,,-6.47500000e-009,6.78124973e-004
,,,-6.45000000e-009,8.03124982e-004
,,,-6.42500000e-009,9.26562491e-004
,,,-6.40000000e-009,1.04062500e-003
,,,-6.37500000e-009,1.13437501e-003
,,,-6.35000000e-009,1.20000001e-003
,,,-6.32500000e-009,1.22656251e-003
,,,-6.30000000e-009,1.22031251e-003
,,,-6.27500000e-009,1.18281251e-003
,,,-6.25000000e-009,1.12187500e-003
,,,-6.22500000e-009,1.04531250e-003
,,,-6.20000000e-009,9.59374993e-004
,,,-6.17500000e-009,8.76562488e-004
,,,-6.15000000e-009,7.99999982e-004
,,,-6.12500000e-009,7.37499978e-004
,,,-6.10000000e-009,6.95312475e-004
,,,-6.07500000e-009,6.73437473e-004
,,,-6.05000000e-009,6.71874973e-004
,,,-6.02500000e-009,6.89062474e-004
,,,-6.00000000e-009,7.20312476e-004
,,,-5.97500000e-009,7.59374979e-004
,,,-5.95000000e-009,7.99999982e-004
,,,-5.92500000e-009,8.39062485e-004
,,,-5.90000000e-009,8.68749987e-004
,,,-5.87500000e-009,8.89062488e-004
,,,-5.85000000e-009,8.96874989e-004
,,,-5.82500000e-009,8.90624989e-004
,,,-5.80000000e-009,8.71874987e-004
,,,-5.77500000e-009,8.42187485e-004
,,,-5.75000000e-009,7.99999982e-004
,,,-5.72500000e-009,7.49999979e-004
,,,-5.70000000e-009,6.93749975e-004
,,,-5.67500000e-009,6.35937471e-004
,,,-5.65000000e-009,5.78124966e-004
,,,-5.62500000e-009,5.24999963e-004
,,,-5.60000000e-009,4.74999959e-004
,,,-5.57500000e-009,4.34374956e-004
,,,-5.55000000e-009,3.99999954e-004
,,,-5.52500000e-009,3.76562452e-004
,,,-5.50000000e-009,3.64062451e-004
,,,-5.47500000e-009,3.57812451e-004
,,,-5.45000000e-009,3.59374951e-004
,,,-5.42500000e-009,3.67187451e-004
,,,-5.40000000e-009,3.78124952e-004
,,,-5.37500000e-009,3.89062453e-004
,,,-5.35000000e-009,3.99999954e-004
,,,-5.32500000e-009,4.15624955e-004
,,,-5.30000000e-009,4.24999956e-004
,,,-5.27500000e-009,4.31249956e-004
,,,-5.25000000e-009,4.31249956e-004
,,,-5.22500000e-009,4.28124956e-004
,,,-5.20000000e-009,4.20312455e-004
,,,-5.17500000e-009,4.10937455e-004
,,,-5.15000000e-009,3.99999954e-004
,,,-5.12500000e-009,3.90624953e-004
,,,-5.10000000e-009,3.81249952e-004
,,,-5.07500000e-009,3.73437452e-004
,,,-5.05000000e-009,3.70312452e-004
,,,-5.02500000e-009,3.70312452e-004
,,,-5.00000000e-009,3.76562452e-004
,,,-4.97500000e-009,3.87499953e-004
,,,-4.95000000e-009,3.99999954e-004
,,,-4.92500000e-009,4.18749955e-004
,,,-4.90000000e-009,4.34374956e-004
,,,-4.87500000e-009,4.48437457e-004
,,,-4.85000000e-009,4.54687458e-004
,,,-4.82500000e-009,4.54687458e-004
,,,-4.80000000e-009,4.45312457e-004
,,,-4.77500000e-009,4.26562456e-004
,,,-4.75000000e-009,3.99999954e-004
,,,-4.72500000e-009,3.70312452e-004
,,,-4.70000000e-009,3.40624950e-004
,,,-4.67500000e-009,3.14062448e-004
,,,-4.65000000e-009,2.96874947e-004
,,,-4.62500000e-009,2.93749946e-004
,,,-4.60000000e-009,3.09374947e-004
,,,-4.57500000e-009,3.45312450e-004
,,,-4.55000000e-009,3.99999954e-004
,,,-4.52500000e-009,4.73437459e-004
,,,-4.50000000e-009,5.56249965e-004
,,,-4.47500000e-009,6.42187471e-004
,,,-4.45000000e-009,7.20312476e-004
,,,-4.42500000e-009,7.82812481e-004
,,,-4.40000000e-009,8.20312484e-004
,,,-4.37500000e-009,8.28124984e-004
,,,-4.35000000e-009,7.99999982e-004
,,,-4.32500000e-009,7.35937478e-004
,,,-4.30000000e-009,6.42187471e-004
,,,-4.27500000e-009,5.26562463e-004
,,,-4.25000000e-009,4.01562454e-004
,,,-4.22500000e-009,2.74999945e-004
,,,-4.20000000e-009,1.59374937e-004
,,,-4.17500000e-009,6.56249301e-005
,,,-4.15000000e-009,-7.45058060e-011
,,,-4.12500000e-009,-2.81250765e-005
,,,-4.10000000e-009,-2.34375762e-005
,,,-4.07500000e-009,1.24999264e-005
,,,-4.05000000e-009,7.49999308e-005
,,,-4.02500000e-009,1.53124936e-004
,,,-4.00000000e-009,2.39062442e-004
,,,-3.97500000e-009,3.24999948e-004
,,,-3.95000000e-009,3.99999954e-004
,,,-3.92500000e-009,4.62499958e-004
,,,-3.90000000e-009,5.06249961e-004
,,,-3.87500000e-009,5.26562463e-004
,,,-3.85000000e-009,5.26562463e-004
,,,-3.82500000e-009,5.10937462e-004
,,,-3.80000000e-009,4.79687459e-004
,,,-3.77500000e-009,4.42187457e-004
,,,-3.75000000e-009,3.99999954e-004
,,,-3.72500000e-009,3.64062451e-004
,,,-3.70000000e-009,3.35937449e-004
,,,-3.67500000e-009,3.17187448e-004
,,,-3.65000000e-009,3.12499948e-004
,,,-3.62500000e-009,3.18749948e-004
,,,-3.60000000e-009,3.37499949e-004
,,,-3.57500000e-009,3.65624951e-004
,,,-3.55000000e-009,3.99999954e-004
,,,-3.52500000e-009,4.37499956e-004
,,,-3.50000000e-009,4.71874959e-004
,,,-3.47500000e-009,4.96874961e-004
,,,-3.45000000e-009,5.12499962e-004
,,,-3.42500000e-009,5.10937462e-004
,,,-3.40000000e-009,4.92187460e-004
,,,-3.37500000e-009,4.54687458e-004
,,,-3.35000000e-009,3.99999954e-004
,,,-3.32500000e-009,3.37499949e-004
,,,-3.30000000e-009,2.65624944e-004
,,,-3.27500000e-009,1.92187439e-004
,,,-3.25000000e-009,1.20312434e-004
,,,-3.22500000e-009,6.09374298e-005
,,,-3.20000000e-009,1.71874267e-005
,,,-3.17500000e-009,-4.68757484e-006
,,,-3.15000000e-009,-7.45058060e-011
,,,-3.12500000e-009,3.90624283e-005
,,,-3.10000000e-009,1.04687433e-004
,,,-3.07500000e-009,1.95312439e-004
,,,-3.05000000e-009,3.04687447e-004
,,,-3.02500000e-009,4.28124956e-004
,,,-3.00000000e-009,5.57812465e-004
,,,-2.97500000e-009,6.84374974e-004
,,,-2.95000000e-009,7.99999982e-004
,,,-2.92500000e-009,8.96874989e-004
,,,-2.90000000e-009,9.68749994e-004
,,,-2.87500000e-009,1.01250000e-003
,,,-2.85000000e-009,1.02500000e-003
,,,-2.82500000e-009,1.00781250e-003
,,,-2.80000000e-009,9.60937494e-004
,,,-2.77500000e-009,8.90624989e-004
,,,-2.75000000e-009,7.99999982e-004
,,,-2.72500000e-009,6.98437475e-004
,,,-2.70000000e-009,5.96874968e-004
,,,-2.67500000e-009,5.01562461e-004
,,,-2.65000000e-009,4.24999956e-004
,,,-2.62500000e-009,3.71874952e-004
,,,-2.60000000e-009,3.46874950e-004
,,,-2.57500000e-009,3.57812451e-004
,,,-2.55000000e-009,3.99999954e-004
,,,-2.52500000e-009,4.78124959e-004
,,,-2.50000000e-009,5.79687467e-004
,,,-2.47500000e-009,6.98437475e-004
,,,-2.45000000e-009,8.24999984e-004
,,,-2.42500000e-009,9.46874993e-004
,,,-2.40000000e-009,1.05625000e-003
,,,-2.37500000e-009,1.14218751e-003
,,,-2.35000000e-009,1.20000001e-003
,,,-2.32500000e-009,1.21875001e-003
,,,-2.30000000e-009,1.20468751e-003
,,,-2.27500000e-009,1.16250001e-003
,,,-2.25000000e-009,1.10000000e-003
,,,-2.22500000e-009,1.02343750e-003
,,,-2.20000000e-009,9.42187492e-004
,,,-2.17500000e-009,8.65624987e-004
,,,-2.15000000e-009,7.99999982e-004
,,,-2.12500000e-009,7.46874978e-004
,,,-2.10000000e-009,7.14062476e-004
,,,-2.07500000e-009,6.99999975e-004
,,,-2.05000000e-009,7.04687475e-004
,,,-2.02500000e-009,7.21874977e-004
,,,-2.00000000e-009,7.46874978e-004
,,,-1.97500000e-009,7.74999980e-004
,,,-1.95000000e-009,7.99999982e-004
,,,-1.92500000e-009,8.14062483e-004
,,,-1.90000000e-009,8.20312484e-004
,,,-1.87500000e-009,8.17187483e-004
,,,-1.85000000e-009,8.10937483e-004
,,,-1.82500000e-009,8.03124982e-004
,,,-1.80000000e-009,7.96874982e-004
,,,-1.77500000e-009,7.95312482e-004
,,,-1.75000000e-009,7.99999982e-004
,,,-1.72500000e-009,8.07812483e-004
,,,-1.70000000e-009,8.18749983e-004
,,,-1.67500000e-009,8.31249984e-004
,,,-1.65000000e-009,8.43749985e-004
,,,-1.62500000e-009,8.49999986e-004
,,,-1.60000000e-009,8.45312485e-004
,,,-1.57500000e-009,8.29687484e-004
,,,-1.55000000e-009,7.99999982e-004
,,,-1.52500000e-009,7.43749978e-004
,,,-1.50000000e-009,6.74999973e-004
,,,-1.47500000e-009,6.03124968e-004
,,,-1.45000000e-009,5.32812463e-004
,,,-1.42500000e-009,4.71874959e-004
,,,-1.40000000e-009,4.26562456e-004
,,,-1.37500000e-009,4.03124954e-004
,,,-1.35000000e-009,3.99999954e-004
,,,-1.32500000e-009,4.07812454e-004
,,,-1.30000000e-009,4.28124956e-004
,,,-1.27500000e-009,4.53124958e-004
,,,-1.25000000e-009,4.74999959e-004
,,,-1.22500000e-009,4.87499960e-004
,,,-1.20000000e-009,4.82812460e-004
,,,-1.17500000e-009,4.54687458e-004
,,,-1.15000000e-009,3.99999954e-004
,,,-1.12500000e-009,3.01562447e-004
,,,-1.10000000e-009,1.79687438e-004
,,,-1.07500000e-009,4.53124287e-005
,,,-1.05000000e-009,-9.06250809e-005
,,,-1.02500000e-009,-2.12500090e-004
,,,-1.00000000e-009,-3.09375096e-004
,,,-9.75000000e-010,-3.73437601e-004
,,,-9.50000000e-010,-4.00000103e-004
,,,-9.25000000e-010,-4.07812603e-004
,,,-9.00000000e-010,-3.90625102e-004
,,,-8.75000000e-010,-3.57812600e-004
,,,-8.50000000e-010,-3.23437597e-004
,,,-8.25000000e-010,-2.96875096e-004
,,,-8.00000000e-010,-2.95312595e-004
,,,-7.75000000e-010,-3.26562598e-004
,,,-7.50000000e-010,-4.00000103e-004
,,,-7.25000000e-010,-5.37500113e-004
,,,-7.00000000e-010,-7.20312625e-004
,,,-6.75000000e-010,-9.37500141e-004
,,,-6.50000000e-010,-1.17343766e-003
,,,-6.25000000e-010,-1.41406267e-003
,,,-6.00000000e-010,-1.64062519e-003
,,,-5.75000000e-010,-1.83906270e-003
,,,-5.50000000e-010,-2.00000022e-003
,,,-5.25000000e-010,-2.12343772e-003
,,,-5.00000000e-010,-2.20781273e-003
,,,-4.75000000e-010,-2.25937523e-003
,,,-4.50000000e-010,-2.28593774e-003
,,,-4.25000000e-010,-2.30156274e-003
,,,-4.00000000e-010,-2.31718774e-003
,,,-3.75000000e-010,-2.34531274e-003
,,,-3.50000000e-010,-2.40000024e-003
,,,-3.25000000e-010,-2.49375025e-003
,,,-3.00000000e-010,-2.62968776e-003
,,,-2.75000000e-010,-2.80625027e-003
,,,-2.50000000e-010,-3.01562529e-003
,,,-2.25000000e-010,-3.25156280e-003
,,,-2.00000000e-010,-3.50156282e-003
,,,-1.75000000e-010,-3.75468784e-003
,,,-1.50000000e-010,-4.00000036e-003
,,,-1.25000000e-010,-4.21875037e-003
,,,-1.00000000e-010,-4.42187539e-003
,,,-7.50000000e-011,-4.60156290e-003
,,,-5.00000000e-011,-4.76093791e-003
,,,-2.50000000e-011,-4.89843792e-003
,,,0.00000000e+000,-5.01562543e-003
,,,2.50000000e-011,-5.11406294e-003
,,,5.00000000e-011,-5.20000044e-003
,,,7.50000000e-011,-5.25468795e-003
,,,1.00000000e-010,-5.30625045e-003
,,,1.25000000e-010,-5.35625045e-003
,,,1.50000000e-010,-5.40625046e-003
,,,1.75000000e-010,-5.45468796e-003
,,,2.00000000e-010,-5.50468796e-003
,,,2.25000000e-010,-5.55312547e-003
,,,2.50000000e-010,-5.60000047e-003
,,,2.75000000e-010,-5.61875047e-003
,,,3.00000000e-010,-5.64375047e-003
,,,3.25000000e-010,-5.67500048e-003
,,,3.50000000e-010,-5.71875048e-003
,,,3.75000000e-010,-5.77187548e-003
,,,4.00000000e-010,-5.83750049e-003
,,,4.25000000e-010,-5.91406299e-003
,,,4.50000000e-010,-6.00000050e-003
,,,4.75000000e-010,-6.06093800e-003
,,,5.00000000e-010,-6.12812551e-003
,,,5.25000000e-010,-6.19375051e-003
,,,5.50000000e-010,-6.25625052e-003
,,,5.75000000e-010,-6.31250052e-003
,,,6.00000000e-010,-6.35625052e-003
,,,6.25000000e-010,-6.38593803e-003
,,,6.50000000e-010,-6.40000053e-003
,,,6.75000000e-010,-6.36250052e-003
,,,7.00000000e-010,-6.31093802e-003
,,,7.25000000e-010,-6.25156302e-003
,,,7.50000000e-010,-6.19062551e-003
,,,7.75000000e-010,-6.12968801e-003
,,,8.00000000e-010,-6.07656300e-003
,,,8.25000000e-010,-6.03281300e-003
,,,8.50000000e-010,-6.00000050e-003
,,,8.75000000e-010,-5.95000050e-003
,,,9.00000000e-010,-5.90781299e-003
,,,9.25000000e-010,-5.87031299e-003
,,,9.50000000e-010,-5.83437549e-003
,,,9.75000000e-010,-5.79375048e-003
,,,1.00000000e-009,-5.74375048e-003
,,,1.02500000e-009,-5.67968798e-003
,,,1.05000000e-009,-5.60000047e-003
,,,1.07500000e-009,-5.47500046e-003
,,,1.10000000e-009,-5.33125045e-003
,,,1.12500000e-009,-5.17187544e-003
,,,1.15000000e-009,-5.00625043e-003
,,,1.17500000e-009,-4.83906292e-003
,,,1.20000000e-009,-4.67812541e-003
,,,1.22500000e-009,-4.53125040e-003
,,,1.25000000e-009,-4.40000039e-003
,,,1.27500000e-009,-4.27343788e-003
,,,1.30000000e-009,-4.16250037e-003
,,,1.32500000e-009,-4.06250036e-003
,,,1.35000000e-009,-3.97031286e-003
,,,1.37500000e-009,-3.88125035e-003
,,,1.40000000e-009,-3.79218784e-003
,,,1.42500000e-009,-3.70000034e-003
,,,1.45000000e-009,-3.60000033e-003
,,,1.47500000e-009,-3.48437532e-003
,,,1.50000000e-009,-3.36093781e-003
,,,1.52500000e-009,-3.23437530e-003
,,,1.55000000e-009,-3.11250029e-003
,,,1.57500000e-009,-3.00156279e-003
,,,1.60000000e-009,-2.90937528e-003
,,,1.62500000e-009,-2.84218778e-003
,,,1.65000000e-009,-2.80000027e-003
,,,1.67500000e-009,-2.77968777e-003
,,,1.70000000e-009,-2.76875027e-003
,,,1.72500000e-009,-2.75937527e-003
,,,1.75000000e-009,-2.74062527e-003
,,,1.77500000e-009,-2.70312527e-003
,,,1.80000000e-009,-2.63750026e-003
,,,1.82500000e-009,-2.53750025e-003
,,,1.85000000e-009,-2.40000024e-003
,,,1.87500000e-009,-2.22812523e-003
,,,1.90000000e-009,-2.02187522e-003
,,,1.92500000e-009,-1.79375020e-003
,,,1.95000000e-009,-1.55468768e-003
,,,1.97500000e-009,-1.32187517e-003
,,,2.00000000e-009,-1.11093765e-003
,,,2.02500000e-009,-9.32812641e-004
,,,2.05000000e-009,-8.00000131e-004
,,,2.07500000e-009,-7.28125126e-004
,,,2.10000000e-009,-6.98437624e-004
,,,2.12500000e-009,-7.00000124e-004
,,,2.15000000e-009,-7.25000126e-004
,,,2.17500000e-009,-7.57812628e-004
,,,2.20000000e-009,-7.89062630e-004
,,,2.22500000e-009,-8.06250132e-004
,,,2.25000000e-009,-8.00000131e-004
,,,2.27500000e-009,-7.73437629e-004
,,,2.30000000e-009,-7.10937625e-004
,,,2.32500000e-009,-6.18750118e-004
,,,2.35000000e-009,-5.00000110e-004
,,,2.37500000e-009,-3.68750101e-004
,,,2.40000000e-009,-2.32812591e-004
,,,2.42500000e-009,-1.06250082e-004
,,,2.45000000e-009,-7.45058060e-011
,,,2.47500000e-009,7.03124305e-005
,,,2.50000000e-009,1.14062434e-004
,,,2.52500000e-009,1.32812435e-004
,,,2.55000000e-009,1.29687435e-004
,,,2.57500000e-009,1.09374933e-004
,,,2.60000000e-009,7.65624309e-005
,,,2.62500000e-009,3.90624283e-005
,,,2.65000000e-009,-7.45058060e-011
,,,2.67500000e-009,-4.21875775e-005
,,,2.70000000e-009,-7.34375797e-005
,,,2.72500000e-009,-8.90625808e-005
,,,2.75000000e-009,-8.90625808e-005
,,,2.77500000e-009,-7.81250800e-005
,,,2.80000000e-009,-5.62500785e-005
,,,2.82500000e-009,-2.81250765e-005
,,,2.85000000e-009,-7.45058060e-011
,,,2.87500000e-009,1.87499268e-005
,,,2.90000000e-009,3.43749279e-005
,,,2.92500000e-009,4.53124287e-005
,,,2.95000000e-009,4.99999290e-005
,,,2.97500000e-009,4.84374289e-005
,,,3.00000000e-009,3.90624283e-005
,,,3.02500000e-009,2.18749270e-005
,,,3.05000000e-009,-7.45058060e-011
,,,3.07500000e-009,-2.34375762e-005
,,,3.10000000e-009,-4.53125777e-005
,,,3.12500000e-009,-6.09375788e-005
,,,3.15000000e-009,-7.03125795e-005
,,,3.17500000e-009,-7.03125795e-005
,,,3.20000000e-009,-5.93750787e-005
,,,3.22500000e-009,-3.59375770e-005
,,,3.25000000e-009,-7.45058060e-011
,,,3.27500000e-009,4.84374289e-005
,,,3.30000000e-009,1.04687433e-004
,,,3.32500000e-009,1.67187437e-004
,,,3.35000000e-009,2.31249942e-004
,,,3.37500000e-009,2.90624946e-004
,,,3.40000000e-009,3.42187450e-004
,,,3.42500000e-009,3.79687452e-004
,,,3.45000000e-009,3.99999954e-004
,,,3.47500000e-009,4.03124954e-004
,,,3.50000000e-009,3.84374953e-004
,,,3.52500000e-009,3.48437450e-004
,,,3.55000000e-009,2.96874947e-004
,,,3.57500000e-009,2.31249942e-004
,,,3.60000000e-009,1.56249937e-004
,,,3.62500000e-009,7.81249310e-005
,,,3.65000000e-009,-7.45058060e-011
,,,3.67500000e-009,-6.56250792e-005
,,,3.70000000e-009,-1.17187583e-004
,,,3.72500000e-009,-1.51562585e-004
,,,3.75000000e-009,-1.67187586e-004
,,,3.77500000e-009,-1.57812586e-004
,,,3.80000000e-009,-1.26562583e-004
,,,3.82500000e-009,-7.34375797e-005
,,,3.85000000e-009,-7.45058060e-011
,,,3.87500000e-009,9.53124322e-005
,,,3.90000000e-009,2.03124940e-004
,,,3.92500000e-009,3.17187448e-004
,,,3.95000000e-009,4.32812456e-004
,,,3.97500000e-009,5.43749964e-004
,,,4.00000000e-009,6.45312471e-004
,,,4.02500000e-009,7.31249977e-004
,,,4.05000000e-009,7.99999982e-004
,,,4.07500000e-009,8.45312485e-004
,,,4.10000000e-009,8.70312487e-004
,,,4.12500000e-009,8.79687488e-004
,,,4.15000000e-009,8.73437487e-004
,,,4.17500000e-009,8.59374986e-004
,,,4.20000000e-009,8.40624985e-004
,,,4.22500000e-009,8.18749983e-004
,,,4.25000000e-009,7.99999982e-004
,,,4.27500000e-009,7.84374981e-004
,,,4.30000000e-009,7.74999980e-004
,,,4.32500000e-009,7.71874980e-004
,,,4.35000000e-009,7.74999980e-004
,,,4.37500000e-009,7.81249981e-004
,,,4.40000000e-009,7.89062481e-004
,,,4.42500000e-009,7.96874982e-004
,,,4.45000000e-009,7.99999982e-004
,,,4.47500000e-009,7.98437482e-004
,,,4.50000000e-009,7.92187482e-004
,,,4.52500000e-009,7.84374981e-004
,,,4.55000000e-009,7.78124981e-004
,,,4.57500000e-009,7.74999980e-004
,,,4.60000000e-009,7.76562480e-004
,,,4.62500000e-009,7.85937481e-004
,,,4.65000000e-009,7.99999982e-004
,,,4.67500000e-009,8.15624983e-004
,,,4.70000000e-009,8.34374985e-004
,,,4.72500000e-009,8.53124986e-004
,,,4.75000000e-009,8.67187487e-004
,,,4.77500000e-009,8.71874987e-004
,,,4.80000000e-009,8.64062487e-004
,,,4.82500000e-009,8.40624985e-004
,,,4.85000000e-009,7.99999982e-004
,,,4.87500000e-009,7.39062478e-004
,,,4.90000000e-009,6.68749973e-004
,,,4.92500000e-009,5.93749968e-004
,,,4.95000000e-009,5.21874962e-004
,,,4.97500000e-009,4.60937458e-004
,,,5.00000000e-009,4.18749955e-004
,,,5.02500000e-009,3.96874954e-004
,,,5.05000000e-009,3.99999954e-004
,,,5.07500000e-009,4.31249956e-004
,,,5.10000000e-009,4.81249960e-004
,,,5.12500000e-009,5.45312464e-004
,,,5.15000000e-009,6.15624969e-004
,,,5.17500000e-009,6.84374974e-004
,,,5.20000000e-009,7.42187478e-004
,,,5.22500000e-009,7.82812481e-004
,,,5.25000000e-009,7.99999982e-004
,,,5.27500000e-009,7.92187482e-004
,,,5.30000000e-009,7.57812479e-004
,,,5.32500000e-009,7.06249975e-004
,,,5.35000000e-009,6.40624971e-004
,,,5.37500000e-009,5.68749966e-004
,,,5.40000000e-009,5.01562461e-004
,,,5.42500000e-009,4.43749957e-004
,,,5.45000000e-009,3.99999954e-004
,,,5.47500000e-009,3.76562452e-004
,,,5.50000000e-009,3.70312452e-004
,,,5.52500000e-009,3.78124952e-004
,,,5.55000000e-009,3.92187453e-004
,,,5.57500000e-009,4.07812454e-004
,,,5.60000000e-009,4.18749955e-004
,,,5.62500000e-009,4.17187455e-004
,,,5.65000000e-009,3.99999954e-004
,,,5.67500000e-009,3.68749952e-004
,,,5.70000000e-009,3.20312448e-004
,,,5.72500000e-009,2.59374944e-004
,,,5.75000000e-009,1.92187439e-004
,,,5.77500000e-009,1.26562434e-004
,,,5.80000000e-009,6.71874302e-005
,,,5.82500000e-009,2.49999273e-005
,,,5.85000000e-009,-7.45058060e-011
,,,5.87500000e-009,4.68742583e-006
,,,5.90000000e-009,3.12499277e-005
,,,5.92500000e-009,7.81249310e-005
,,,5.95000000e-009,1.37499935e-004
,,,5.97500000e-009,2.06249940e-004
,,,6.00000000e-009,2.76562445e-004
,,,6.02500000e-009,3.43749950e-004
,,,6.05000000e-009,3.99999954e-004
,,,6.07500000e-009,4.43749957e-004
