RawData/SinglePhotoelectron/R4_2pt2D_5mV/wave014_Ch4.csv

"Record Length",1000,"Points",-7.72500000e-009,8.20312484e-004
"Sample Interval",2.50000000e-011,s,-7.70000000e-009,7.99999982e-004
"Trigger Point",309,"Samples",-7.67500000e-009,7.73437480e-004
"Trigger Time",9.80784314e-013,s,-7.65000000e-009,7.45312478e-004
"",,,-7.62500000e-009,7.20312476e-004
"Horizontal Offset",-7.72500000e-009,s,-7.60000000e-009,7.04687475e-004
,,,-7.57500000e-009,7.01562475e-004
,,,-7.55000000e-009,7.15624976e-004
,,,-7.52500000e-009,7.48437478e-004
,,,-7.50000000e-009,7.99999982e-004
,,,-7.47500000e-009,8.67187487e-004
,,,-7.45000000e-009,9.42187492e-004
,,,-7.42500000e-009,1.02187500e-003
,,,-7.40000000e-009,1.09687500e-003
,,,-7.37500000e-009,1.15781251e-003
,,,-7.35000000e-009,1.20000001e-003
,,,-7.32500000e-009,1.21562501e-003
,,,-7.30000000e-009,1.20000001e-003
,,,-7.27500000e-009,1.15000001e-003
,,,-7.25000000e-009,1.06875000e-003
,,,-7.22500000e-009,9.67187494e-004
,,,-7.20000000e-009,8.48437486e-004
,,,-7.17500000e-009,7.24999977e-004
,,,-7.15000000e-009,6.03124968e-004
,,,-7.12500000e-009,4.92187460e-004
,,,-7.10000000e-009,3.99999954e-004
,,,-7.07500000e-009,3.32812449e-004
,,,-7.05000000e-009,2.89062446e-004
,,,-7.02500000e-009,2.71874945e-004
,,,-7.00000000e-009,2.74999945e-004
,,,-6.97500000e-009,2.95312446e-004
,,,-6.95000000e-009,3.26562449e-004
,,,-6.92500000e-009,3.64062451e-004
,,,-6.90000000e-009,3.99999954e-004
,,,-6.87500000e-009,4.35937456e-004
,,,-6.85000000e-009,4.62499958e-004
,,,-6.82500000e-009,4.76562459e-004
,,,-6.80000000e-009,4.79687459e-004
,,,-6.77500000e-009,4.70312459e-004
,,,-6.75000000e-009,4.53124958e-004
,,,-6.72500000e-009,4.28124956e-004
,,,-6.70000000e-009,3.99999954e-004
,,,-6.67500000e-009,3.76562452e-004
,,,-6.65000000e-009,3.56249951e-004
,,,-6.62500000e-009,3.42187450e-004
,,,-6.60000000e-009,3.35937449e-004
,,,-6.57500000e-009,3.39062449e-004
,,,-6.55000000e-009,3.51562450e-004
,,,-6.52500000e-009,3.73437452e-004
,,,-6.50000000e-009,3.99999954e-004
,,,-6.47500000e-009,4.32812456e-004
,,,-6.45000000e-009,4.64062458e-004
,,,-6.42500000e-009,4.89062460e-004
,,,-6.40000000e-009,5.03124961e-004
,,,-6.37500000e-009,5.03124961e-004
,,,-6.35000000e-009,4.87499960e-004
,,,-6.32500000e-009,4.53124958e-004
,,,-6.30000000e-009,3.99999954e-004
,,,-6.27500000e-009,3.39062449e-004
,,,-6.25000000e-009,2.68749945e-004
,,,-6.22500000e-009,1.92187439e-004
,,,-6.20000000e-009,1.20312434e-004
,,,-6.17500000e-009,5.93749297e-005
,,,-6.15000000e-009,1.40624265e-005
,,,-6.12500000e-009,-6.25007495e-006
,,,-6.10000000e-009,-7.45058060e-011
,,,-6.07500000e-009,3.90624283e-005
,,,-6.05000000e-009,1.04687433e-004
,,,-6.02500000e-009,1.96874939e-004
,,,-6.00000000e-009,3.06249947e-004
,,,-5.97500000e-009,4.29687456e-004
,,,-5.95000000e-009,5.59374965e-004
,,,-5.92500000e-009,6.84374974e-004
,,,-5.90000000e-009,7.99999982e-004
,,,-5.87500000e-009,8.93749989e-004
,,,-5.85000000e-009,9.64062494e-004
,,,-5.82500000e-009,1.00468750e-003
,,,-5.80000000e-009,1.01562500e-003
,,,-5.77500000e-009,9.98437496e-004
,,,-5.75000000e-009,9.53124993e-004
,,,-5.72500000e-009,8.85937488e-004
,,,-5.70000000e-009,7.99999982e-004
,,,-5.67500000e-009,7.03124975e-004
,,,-5.65000000e-009,6.04687468e-004
,,,-5.62500000e-009,5.14062462e-004
,,,-5.60000000e-009,4.39062457e-004
,,,-5.57500000e-009,3.87499953e-004
,,,-5.55000000e-009,3.62499951e-004
,,,-5.52500000e-009,3.67187451e-004
,,,-5.50000000e-009,3.99999954e-004
,,,-5.47500000e-009,4.57812458e-004
,,,-5.45000000e-009,5.32812463e-004
,,,-5.42500000e-009,6.15624969e-004
,,,-5.40000000e-009,6.96874975e-004
,,,-5.37500000e-009,7.64062480e-004
,,,-5.35000000e-009,8.07812483e-004
,,,-5.32500000e-009,8.21874984e-004
,,,-5.30000000e-009,7.99999982e-004
,,,-5.27500000e-009,7.40624978e-004
,,,-5.25000000e-009,6.51562472e-004
,,,-5.22500000e-009,5.37499964e-004
,,,-5.20000000e-009,4.10937455e-004
,,,-5.17500000e-009,2.82812446e-004
,,,-5.15000000e-009,1.65624937e-004
,,,-5.12500000e-009,6.87499304e-005
,,,-5.10000000e-009,-7.45058060e-011
,,,-5.07500000e-009,-2.81250765e-005
,,,-5.05000000e-009,-2.18750761e-005
,,,-5.02500000e-009,1.56249266e-005
,,,-5.00000000e-009,7.96874311e-005
,,,-4.97500000e-009,1.59374937e-004
,,,-4.95000000e-009,2.45312443e-004
,,,-4.92500000e-009,3.29687449e-004
,,,-4.90000000e-009,3.99999954e-004
,,,-4.87500000e-009,4.56249958e-004
,,,-4.85000000e-009,4.89062460e-004
,,,-4.82500000e-009,5.01562461e-004
,,,-4.80000000e-009,4.96874961e-004
,,,-4.77500000e-009,4.78124959e-004
,,,-4.75000000e-009,4.51562457e-004
,,,-4.72500000e-009,4.24999956e-004
,,,-4.70000000e-009,3.99999954e-004
,,,-4.67500000e-009,3.87499953e-004
,,,-4.65000000e-009,3.82812453e-004
,,,-4.62500000e-009,3.85937453e-004
,,,-4.60000000e-009,3.92187453e-004
,,,-4.57500000e-009,3.99999954e-004
,,,-4.55000000e-009,4.06249954e-004
,,,-4.52500000e-009,4.07812454e-004
,,,-4.50000000e-009,3.99999954e-004
,,,-4.47500000e-009,3.90624953e-004
,,,-4.45000000e-009,3.78124952e-004
,,,-4.42500000e-009,3.62499951e-004
,,,-4.40000000e-009,3.49999950e-004
,,,-4.37500000e-009,3.43749950e-004
,,,-4.35000000e-009,3.48437450e-004
,,,-4.32500000e-009,3.67187451e-004
,,,-4.30000000e-009,3.99999954e-004
,,,-4.27500000e-009,4.53124958e-004
,,,-4.25000000e-009,5.14062462e-004
,,,-4.22500000e-009,5.82812467e-004
,,,-4.20000000e-009,6.49999972e-004
,,,-4.17500000e-009,7.12499976e-004
,,,-4.15000000e-009,7.60937479e-004
,,,-4.12500000e-009,7.90624981e-004
,,,-4.10000000e-009,7.99999982e-004
,,,-4.07500000e-009,7.84374981e-004
,,,-4.05000000e-009,7.48437478e-004
,,,-4.02500000e-009,6.96874975e-004
,,,-4.00000000e-009,6.32812470e-004
,,,-3.97500000e-009,5.65624966e-004
,,,-3.95000000e-009,4.99999961e-004
,,,-3.92500000e-009,4.42187457e-004
,,,-3.90000000e-009,3.99999954e-004
,,,-3.87500000e-009,3.82812453e-004
,,,-3.85000000e-009,3.87499953e-004
,,,-3.82500000e-009,4.14062455e-004
,,,-3.80000000e-009,4.64062458e-004
,,,-3.77500000e-009,5.31249963e-004
,,,-3.75000000e-009,6.14062469e-004
,,,-3.72500000e-009,7.04687475e-004
,,,-3.70000000e-009,7.99999982e-004
,,,-3.67500000e-009,8.92187489e-004
,,,-3.65000000e-009,9.78124995e-004
,,,-3.62500000e-009,1.05156250e-003
,,,-3.60000000e-009,1.11406250e-003
,,,-3.57500000e-009,1.15937501e-003
,,,-3.55000000e-009,1.19062501e-003
,,,-3.52500000e-009,1.20312501e-003
,,,-3.50000000e-009,1.20000001e-003
,,,-3.47500000e-009,1.17656251e-003
,,,-3.45000000e-009,1.13750001e-003
,,,-3.42500000e-009,1.09062500e-003
,,,-3.40000000e-009,1.03437500e-003
,,,-3.37500000e-009,9.74999995e-004
,,,-3.35000000e-009,9.14062490e-004
,,,-3.32500000e-009,8.54687486e-004
,,,-3.30000000e-009,7.99999982e-004
,,,-3.27500000e-009,7.51562479e-004
,,,-3.25000000e-009,7.14062476e-004
,,,-3.22500000e-009,6.89062474e-004
,,,-3.20000000e-009,6.81249974e-004
,,,-3.17500000e-009,6.89062474e-004
,,,-3.15000000e-009,7.10937476e-004
,,,-3.12500000e-009,7.49999979e-004
,,,-3.10000000e-009,7.99999982e-004
,,,-3.07500000e-009,8.60937486e-004
,,,-3.05000000e-009,9.26562491e-004
,,,-3.02500000e-009,9.93749996e-004
,,,-3.00000000e-009,1.05625000e-003
,,,-2.97500000e-009,1.11250000e-003
,,,-2.95000000e-009,1.15781251e-003
,,,-2.92500000e-009,1.18750001e-003
,,,-2.90000000e-009,1.20000001e-003
,,,-2.87500000e-009,1.19218751e-003
,,,-2.85000000e-009,1.16562501e-003
,,,-2.82500000e-009,1.12500001e-003
,,,-2.80000000e-009,1.07187500e-003
,,,-2.77500000e-009,1.01093750e-003
,,,-2.75000000e-009,9.42187492e-004
,,,-2.72500000e-009,8.71874987e-004
,,,-2.70000000e-009,7.99999982e-004
,,,-2.67500000e-009,7.34374977e-004
,,,-2.65000000e-009,6.73437473e-004
,,,-2.62500000e-009,6.17187469e-004
,,,-2.60000000e-009,5.67187466e-004
,,,-2.57500000e-009,5.20312462e-004
,,,-2.55000000e-009,4.78124959e-004
,,,-2.52500000e-009,4.37499956e-004
,,,-2.50000000e-009,3.99999954e-004
,,,-2.47500000e-009,3.73437452e-004
,,,-2.45000000e-009,3.49999950e-004
,,,-2.42500000e-009,3.31249949e-004
,,,-2.40000000e-009,3.21874948e-004
,,,-2.37500000e-009,3.23437448e-004
,,,-2.35000000e-009,3.35937449e-004
,,,-2.32500000e-009,3.62499951e-004
,,,-2.30000000e-009,3.99999954e-004
,,,-2.27500000e-009,4.54687458e-004
,,,-2.25000000e-009,5.15624962e-004
,,,-2.22500000e-009,5.79687467e-004
,,,-2.20000000e-009,6.42187471e-004
,,,-2.17500000e-009,6.98437475e-004
,,,-2.15000000e-009,7.46874978e-004
,,,-2.12500000e-009,7.81249981e-004
,,,-2.10000000e-009,7.99999982e-004
,,,-2.07500000e-009,8.03124982e-004
,,,-2.05000000e-009,7.93749982e-004
,,,-2.02500000e-009,7.78124981e-004
,,,-2.00000000e-009,7.60937479e-004
,,,-1.97500000e-009,7.49999979e-004
,,,-1.95000000e-009,7.49999979e-004
,,,-1.92500000e-009,7.67187480e-004
,,,-1.90000000e-009,7.99999982e-004
,,,-1.87500000e-009,8.49999986e-004
,,,-1.85000000e-009,9.10937490e-004
,,,-1.82500000e-009,9.79687495e-004
,,,-1.80000000e-009,1.04843750e-003
,,,-1.77500000e-009,1.11093750e-003
,,,-1.75000000e-009,1.16093751e-003
,,,-1.72500000e-009,1.19218751e-003
,,,-1.70000000e-009,1.20000001e-003
,,,-1.67500000e-009,1.17343751e-003
,,,-1.65000000e-009,1.12343751e-003
,,,-1.62500000e-009,1.05937500e-003
,,,-1.60000000e-009,9.89062496e-004
,,,-1.57500000e-009,9.18749991e-004
,,,-1.55000000e-009,8.60937486e-004
,,,-1.52500000e-009,8.20312484e-004
,,,-1.50000000e-009,7.99999982e-004
,,,-1.47500000e-009,7.87499981e-004
,,,-1.45000000e-009,7.92187482e-004
,,,-1.42500000e-009,8.07812483e-004
,,,-1.40000000e-009,8.29687484e-004
,,,-1.37500000e-009,8.46874985e-004
,,,-1.35000000e-009,8.51562486e-004
,,,-1.32500000e-009,8.39062485e-004
,,,-1.30000000e-009,7.99999982e-004
,,,-1.27500000e-009,7.17187476e-004
,,,-1.25000000e-009,6.09374969e-004
,,,-1.22500000e-009,4.85937460e-004
,,,-1.20000000e-009,3.57812451e-004
,,,-1.17500000e-009,2.34374942e-004
,,,-1.15000000e-009,1.29687435e-004
,,,-1.12500000e-009,4.99999290e-005
,,,-1.10000000e-009,-7.45058060e-011
,,,-1.07500000e-009,-3.28125768e-005
,,,-1.05000000e-009,-4.21875775e-005
,,,-1.02500000e-009,-3.12500767e-005
,,,-1.00000000e-009,-9.37507517e-006
,,,-9.75000000e-010,1.40624265e-005
,,,-9.50000000e-010,2.96874276e-005
,,,-9.25000000e-010,2.81249275e-005
,,,-9.00000000e-010,-7.45058060e-011
,,,-8.75000000e-010,-8.12500803e-005
,,,-8.50000000e-010,-1.98437589e-004
,,,-8.25000000e-010,-3.46875099e-004
,,,-8.00000000e-010,-5.15625111e-004
,,,-7.75000000e-010,-6.95312624e-004
,,,-7.50000000e-010,-8.76562637e-004
,,,-7.25000000e-010,-1.04687515e-003
,,,-7.00000000e-010,-1.20000016e-003
,,,-6.75000000e-010,-1.34375017e-003
,,,-6.50000000e-010,-1.46875018e-003
,,,-6.25000000e-010,-1.57656269e-003
,,,-6.00000000e-010,-1.67031269e-003
,,,-5.75000000e-010,-1.75312520e-003
,,,-5.50000000e-010,-1.83125020e-003
,,,-5.25000000e-010,-1.91250021e-003
,,,-5.00000000e-010,-2.00000022e-003
,,,-4.75000000e-010,-2.10625022e-003
,,,-4.50000000e-010,-2.23125023e-003
,,,-4.25000000e-010,-2.37343774e-003
,,,-4.00000000e-010,-2.52968775e-003
,,,-3.75000000e-010,-2.69531277e-003
,,,-3.50000000e-010,-2.86562528e-003
,,,-3.25000000e-010,-3.03437529e-003
,,,-3.00000000e-010,-3.20000030e-003
,,,-2.75000000e-010,-3.35312531e-003
,,,-2.50000000e-010,-3.50468782e-003
,,,-2.25000000e-010,-3.65312533e-003
,,,-2.00000000e-010,-3.80000034e-003
,,,-1.75000000e-010,-3.94687535e-003
,,,-1.50000000e-010,-4.09531286e-003
,,,-1.25000000e-010,-4.24531287e-003
,,,-1.00000000e-010,-4.40000039e-003
,,,-7.50000000e-011,-4.54375040e-003
,,,-5.00000000e-011,-4.69531291e-003
,,,-2.50000000e-011,-4.85312542e-003
,,,0.00000000e+000,-5.01250043e-003
,,,2.50000000e-011,-5.17187544e-003
,,,5.00000000e-011,-5.32500045e-003
,,,7.50000000e-011,-5.46875046e-003
,,,1.00000000e-010,-5.60000047e-003
,,,1.25000000e-010,-5.68281298e-003
,,,1.50000000e-010,-5.75468798e-003
,,,1.75000000e-010,-5.81406299e-003
,,,2.00000000e-010,-5.86406299e-003
,,,2.25000000e-010,-5.90625049e-003
,,,2.50000000e-010,-5.94218800e-003
,,,2.75000000e-010,-5.97187550e-003
,,,3.00000000e-010,-6.00000050e-003
,,,3.25000000e-010,-5.99218800e-003
,,,3.50000000e-010,-5.98593800e-003
,,,3.75000000e-010,-5.98281300e-003
,,,4.00000000e-010,-5.98281300e-003
,,,4.25000000e-010,-5.98593800e-003
,,,4.50000000e-010,-5.98906300e-003
,,,4.75000000e-010,-5.99375050e-003
,,,5.00000000e-010,-6.00000050e-003
,,,5.25000000e-010,-5.97187550e-003
,,,5.50000000e-010,-5.94687550e-003
,,,5.75000000e-010,-5.92812549e-003
,,,6.00000000e-010,-5.92031299e-003
,,,6.25000000e-010,-5.92343799e-003
,,,6.50000000e-010,-5.93906299e-003
,,,6.75000000e-010,-5.96562550e-003
,,,7.00000000e-010,-6.00000050e-003
,,,7.25000000e-010,-6.00468800e-003
,,,7.50000000e-010,-6.00625050e-003
,,,7.75000000e-010,-5.99843800e-003
,,,8.00000000e-010,-5.97343800e-003
,,,8.25000000e-010,-5.92500049e-003
,,,8.50000000e-010,-5.84843799e-003
,,,8.75000000e-010,-5.74062548e-003
,,,9.00000000e-010,-5.60000047e-003
,,,9.25000000e-010,-5.40468796e-003
,,,9.50000000e-010,-5.18593794e-003
,,,9.75000000e-010,-4.95468793e-003
,,,1.00000000e-009,-4.72187541e-003
,,,1.02500000e-009,-4.50000039e-003
,,,1.05000000e-009,-4.30000038e-003
,,,1.07500000e-009,-4.13125037e-003
,,,1.10000000e-009,-4.00000036e-003
,,,1.12500000e-009,-3.89375035e-003
,,,1.15000000e-009,-3.81875034e-003
,,,1.17500000e-009,-3.77031284e-003
,,,1.20000000e-009,-3.73906284e-003
,,,1.22500000e-009,-3.71718784e-003
,,,1.25000000e-009,-3.69062534e-003
,,,1.27500000e-009,-3.65468783e-003
,,,1.30000000e-009,-3.60000033e-003
,,,1.32500000e-009,-3.51093782e-003
,,,1.35000000e-009,-3.39375031e-003
,,,1.37500000e-009,-3.24843780e-003
,,,1.40000000e-009,-3.08125029e-003
,,,1.42500000e-009,-2.90312528e-003
,,,1.45000000e-009,-2.72500027e-003
,,,1.47500000e-009,-2.55312526e-003
,,,1.50000000e-009,-2.40000024e-003
,,,1.52500000e-009,-2.27500024e-003
,,,1.55000000e-009,-2.17343773e-003
,,,1.57500000e-009,-2.09687522e-003
,,,1.60000000e-009,-2.04375022e-003
,,,1.62500000e-009,-2.01250022e-003
,,,1.65000000e-009,-1.99843772e-003
,,,1.67500000e-009,-1.99531272e-003
,,,1.70000000e-009,-2.00000022e-003
,,,1.72500000e-009,-2.00781272e-003
,,,1.75000000e-009,-2.00468772e-003
,,,1.77500000e-009,-1.98593772e-003
,,,1.80000000e-009,-1.94687521e-003
,,,1.82500000e-009,-1.88750021e-003
,,,1.85000000e-009,-1.80937520e-003
,,,1.87500000e-009,-1.71250020e-003
,,,1.90000000e-009,-1.60000019e-003
,,,1.92500000e-009,-1.47968768e-003
,,,1.95000000e-009,-1.34531267e-003
,,,1.97500000e-009,-1.19531266e-003
,,,2.00000000e-009,-1.03750015e-003
,,,2.02500000e-009,-8.73437636e-004
,,,2.05000000e-009,-7.09375125e-004
,,,2.07500000e-009,-5.48437613e-004
,,,2.10000000e-009,-4.00000103e-004
,,,2.12500000e-009,-2.76562594e-004
,,,2.15000000e-009,-1.71875087e-004
,,,2.17500000e-009,-8.43750805e-005
,,,2.20000000e-009,-2.03125759e-005
,,,2.22500000e-009,2.18749270e-005
,,,2.25000000e-009,3.74999281e-005
,,,2.27500000e-009,3.12499277e-005
,,,2.30000000e-009,-7.45058060e-011
,,,2.32500000e-009,-6.09375788e-005
,,,2.35000000e-009,-1.31250084e-004
,,,2.37500000e-009,-2.03125089e-004
,,,2.40000000e-009,-2.70312594e-004
,,,2.42500000e-009,-3.26562598e-004
,,,2.45000000e-009,-3.68750101e-004
,,,2.47500000e-009,-3.93750102e-004
,,,2.50000000e-009,-4.00000103e-004
,,,2.52500000e-009,-3.89062602e-004
,,,2.55000000e-009,-3.56250100e-004
,,,2.57500000e-009,-3.06250096e-004
,,,2.60000000e-009,-2.45312592e-004
,,,2.62500000e-009,-1.78125087e-004
,,,2.65000000e-009,-1.10937582e-004
,,,2.67500000e-009,-5.00000780e-005
,,,2.70000000e-009,-7.45058060e-011
,,,2.72500000e-009,3.12499277e-005
,,,2.75000000e-009,4.99999290e-005
,,,2.77500000e-009,5.62499295e-005
,,,2.80000000e-009,5.15624291e-005
,,,2.82500000e-009,4.21874285e-005
,,,2.85000000e-009,2.81249275e-005
,,,2.87500000e-009,1.40624265e-005
,,,2.90000000e-009,-7.45058060e-011
,,,2.92500000e-009,-1.09375753e-005
,,,2.95000000e-009,-1.56250756e-005
,,,2.97500000e-009,-1.40625755e-005
,,,3.00000000e-009,-7.81257506e-006
,,,3.02500000e-009,-1.56257462e-006
,,,3.05000000e-009,4.68742583e-006
,,,3.07500000e-009,4.68742583e-006
,,,3.10000000e-009,-7.45058060e-011
,,,3.12500000e-009,-9.37507517e-006
,,,3.15000000e-009,-2.18750761e-005
,,,3.17500000e-009,-3.59375770e-005
,,,3.20000000e-009,-4.68750778e-005
,,,3.22500000e-009,-5.15625782e-005
,,,3.25000000e-009,-4.68750778e-005
,,,3.27500000e-009,-2.96875766e-005
,,,3.30000000e-009,-7.45058060e-011
,,,3.32500000e-009,4.53124287e-005
,,,3.35000000e-009,1.01562433e-004
,,,3.37500000e-009,1.62499937e-004
,,,3.40000000e-009,2.26562442e-004
,,,3.42500000e-009,2.85937446e-004
,,,3.45000000e-009,3.37499949e-004
,,,3.47500000e-009,3.76562452e-004
,,,3.50000000e-009,3.99999954e-004
,,,3.52500000e-009,4.06249954e-004
,,,3.55000000e-009,3.98437454e-004
,,,3.57500000e-009,3.85937453e-004
,,,3.60000000e-009,3.70312452e-004
,,,3.62500000e-009,3.59374951e-004
,,,3.65000000e-009,3.57812451e-004
,,,3.67500000e-009,3.70312452e-004
,,,3.70000000e-009,3.99999954e-004
,,,3.72500000e-009,4.46874957e-004
,,,3.75000000e-009,5.07812461e-004
,,,3.77500000e-009,5.76562466e-004
,,,3.80000000e-009,6.46874971e-004
,,,3.82500000e-009,7.10937476e-004
,,,3.85000000e-009,7.60937479e-004
,,,3.87500000e-009,7.93749982e-004
,,,3.90000000e-009,7.99999982e-004
,,,3.92500000e-009,7.79687481e-004
,,,3.95000000e-009,7.35937478e-004
,,,3.97500000e-009,6.76562473e-004
,,,4.00000000e-009,6.09374969e-004
,,,4.02500000e-009,5.40624964e-004
,,,4.05000000e-009,4.79687459e-004
,,,4.07500000e-009,4.31249956e-004
,,,4.10000000e-009,3.99999954e-004
,,,4.12500000e-009,3.89062453e-004
,,,4.15000000e-009,3.95312453e-004
,,,4.17500000e-009,4.12499955e-004
,,,4.20000000e-009,4.32812456e-004
,,,4.22500000e-009,4.49999957e-004
,,,4.25000000e-009,4.53124958e-004
,,,4.27500000e-009,4.39062457e-004
,,,4.30000000e-009,3.99999954e-004
,,,4.32500000e-009,3.40624950e-004
,,,4.35000000e-009,2.64062444e-004
,,,4.37500000e-009,1.79687438e-004
,,,4.40000000e-009,9.84374325e-005
,,,4.42500000e-009,3.12499277e-005
,,,4.45000000e-009,-1.25000754e-005
,,,4.47500000e-009,-2.50000763e-005
,,,4.50000000e-009,-7.45058060e-011
,,,4.52500000e-009,6.87499304e-005
,,,4.55000000e-009,1.68749937e-004
,,,4.57500000e-009,2.92187446e-004
,,,4.60000000e-009,4.24999956e-004
,,,4.62500000e-009,5.54687465e-004
,,,4.65000000e-009,6.67187473e-004
,,,4.67500000e-009,7.51562479e-004
,,,4.70000000e-009,7.99999982e-004
,,,4.72500000e-009,8.06249983e-004
,,,4.75000000e-009,7.76562480e-004
,,,4.77500000e-009,7.17187476e-004
,,,4.80000000e-009,6.40624971e-004
,,,4.82500000e-009,5.57812465e-004
,,,4.85000000e-009,4.82812460e-004
,,,4.87500000e-009,4.28124956e-004
,,,4.90000000e-009,3.99999954e-004
,,,4.92500000e-009,4.07812454e-004
,,,4.95000000e-009,4.46874957e-004
,,,4.97500000e-009,5.07812461e-004
,,,5.00000000e-009,5.82812467e-004
,,,5.02500000e-009,6.60937472e-004
,,,5.05000000e-009,7.29687477e-004
,,,5.07500000e-009,7.79687481e-004
,,,5.10000000e-009,7.99999982e-004
,,,5.12500000e-009,7.89062481e-004
,,,5.15000000e-009,7.46874978e-004
,,,5.17500000e-009,6.84374974e-004
,,,5.20000000e-009,6.09374969e-004
,,,5.22500000e-009,5.32812463e-004
,,,5.25000000e-009,4.65624958e-004
,,,5.27500000e-009,4.20312455e-004
,,,5.30000000e-009,3.99999954e-004
,,,5.32500000e-009,4.14062455e-004
,,,5.35000000e-009,4.54687458e-004
,,,5.37500000e-009,5.18749962e-004
,,,5.40000000e-009,5.93749968e-004
,,,5.42500000e-009,6.70312473e-004
,,,5.45000000e-009,7.35937478e-004
,,,5.47500000e-009,7.82812481e-004
,,,5.50000000e-009,7.99999982e-004
,,,5.52500000e-009,7.84374981e-004
,,,5.55000000e-009,7.40624978e-004
,,,5.57500000e-009,6.76562473e-004
,,,5.60000000e-009,5.99999968e-004
,,,5.62500000e-009,5.24999963e-004
,,,5.65000000e-009,4.60937458e-004
,,,5.67500000e-009,4.17187455e-004
,,,5.70000000e-009,3.99999954e-004
,,,5.72500000e-009,4.15624955e-004
,,,5.75000000e-009,4.57812458e-004
,,,5.77500000e-009,5.20312462e-004
,,,5.80000000e-009,5.93749968e-004
,,,5.82500000e-009,6.68749973e-004
,,,5.85000000e-009,7.34374977e-004
,,,5.87500000e-009,7.81249981e-004
,,,5.90000000e-009,7.99999982e-004
,,,5.92500000e-009,7.89062481e-004
,,,5.95000000e-009,7.49999979e-004
,,,5.97500000e-009,6.89062474e-004
,,,6.00000000e-009,6.15624969e-004
,,,6.02500000e-009,5.40624964e-004
,,,6.05000000e-009,4.74999959e-004
,,,6.07500000e-009,4.24999956e-004
