RawData/SinglePhotoelectron/R5_2pt2B_5mV/wave021_Ch2.csv

"Record Length",1000,"Points",-7.72500000e-009,-3.98437528e-005
"Sample Interval",2.50000000e-011,s,-7.70000000e-009,0.00000000e+000
"Trigger Point",309,"Samples",-7.67500000e-009,5.31250038e-005
"Trigger Time",5.56296875e-012,s,-7.65000000e-009,1.16406258e-004
"",,,-7.62500000e-009,1.83593763e-004
"Horizontal Offset",-7.72500000e-009,s,-7.60000000e-009,2.50781268e-004
,,,-7.57500000e-009,3.10937522e-004
,,,-7.55000000e-009,3.58593775e-004
,,,-7.52500000e-009,3.89062528e-004
,,,-7.50000000e-009,4.00000028e-004
,,,-7.47500000e-009,3.85156277e-004
,,,-7.45000000e-009,3.50781275e-004
,,,-7.42500000e-009,3.00781271e-004
,,,-7.40000000e-009,2.39843767e-004
,,,-7.37500000e-009,1.73437512e-004
,,,-7.35000000e-009,1.07812508e-004
,,,-7.32500000e-009,4.84375034e-005
,,,-7.30000000e-009,0.00000000e+000
,,,-7.27500000e-009,-3.43750024e-005
,,,-7.25000000e-009,-5.39062538e-005
,,,-7.22500000e-009,-6.01562543e-005
,,,-7.20000000e-009,-5.54687539e-005
,,,-7.17500000e-009,-4.29687530e-005
,,,-7.15000000e-009,-2.65625019e-005
,,,-7.12500000e-009,-1.17187508e-005
,,,-7.10000000e-009,0.00000000e+000
,,,-7.07500000e-009,7.03125050e-006
,,,-7.05000000e-009,8.59375061e-006
,,,-7.02500000e-009,5.46875039e-006
,,,-7.00000000e-009,0.00000000e+000
,,,-6.97500000e-009,-5.46875039e-006
,,,-6.95000000e-009,-9.37500066e-006
,,,-6.92500000e-009,-7.81250055e-006
,,,-6.90000000e-009,0.00000000e+000
,,,-6.87500000e-009,1.56250011e-005
,,,-6.85000000e-009,3.90625028e-005
,,,-6.82500000e-009,6.87500049e-005
,,,-6.80000000e-009,1.00781257e-004
,,,-6.77500000e-009,1.32812509e-004
,,,-6.75000000e-009,1.62500012e-004
,,,-6.72500000e-009,1.85156263e-004
,,,-6.70000000e-009,2.00000014e-004
,,,-6.67500000e-009,2.00781264e-004
,,,-6.65000000e-009,1.91406264e-004
,,,-6.62500000e-009,1.71093762e-004
,,,-6.60000000e-009,1.42968760e-004
,,,-6.57500000e-009,1.09375008e-004
,,,-6.55000000e-009,7.18750051e-005
,,,-6.52500000e-009,3.43750024e-005
,,,-6.50000000e-009,0.00000000e+000
,,,-6.47500000e-009,-2.81250020e-005
,,,-6.45000000e-009,-5.00000035e-005
,,,-6.42500000e-009,-6.32812545e-005
,,,-6.40000000e-009,-6.71875048e-005
,,,-6.37500000e-009,-6.25000044e-005
,,,-6.35000000e-009,-4.84375034e-005
,,,-6.32500000e-009,-2.73437519e-005
,,,-6.30000000e-009,0.00000000e+000
,,,-6.27500000e-009,3.04687522e-005
,,,-6.25000000e-009,6.40625045e-005
,,,-6.22500000e-009,9.68750069e-005
,,,-6.20000000e-009,1.27343759e-004
,,,-6.17500000e-009,1.54687511e-004
,,,-6.15000000e-009,1.76562512e-004
,,,-6.12500000e-009,1.92187514e-004
,,,-6.10000000e-009,2.00000014e-004
,,,-6.07500000e-009,1.96093764e-004
,,,-6.05000000e-009,1.84375013e-004
,,,-6.02500000e-009,1.65625012e-004
,,,-6.00000000e-009,1.39843760e-004
,,,-5.97500000e-009,1.08593758e-004
,,,-5.95000000e-009,7.42187553e-005
,,,-5.92500000e-009,3.75000027e-005
,,,-5.90000000e-009,0.00000000e+000
,,,-5.87500000e-009,-3.75000027e-005
,,,-5.85000000e-009,-7.26562551e-005
,,,-5.82500000e-009,-1.03906257e-004
,,,-5.80000000e-009,-1.32031259e-004
,,,-5.77500000e-009,-1.55468761e-004
,,,-5.75000000e-009,-1.74218762e-004
,,,-5.72500000e-009,-1.89062513e-004
,,,-5.70000000e-009,-2.00000014e-004
,,,-5.67500000e-009,-2.04687514e-004
,,,-5.65000000e-009,-2.07031265e-004
,,,-5.62500000e-009,-2.07812515e-004
,,,-5.60000000e-009,-2.07031265e-004
,,,-5.57500000e-009,-2.05468765e-004
,,,-5.55000000e-009,-2.03906264e-004
,,,-5.52500000e-009,-2.01562514e-004
,,,-5.50000000e-009,-2.00000014e-004
,,,-5.47500000e-009,-1.96093764e-004
,,,-5.45000000e-009,-1.93750014e-004
,,,-5.42500000e-009,-1.92187514e-004
,,,-5.40000000e-009,-1.92187514e-004
,,,-5.37500000e-009,-1.92187514e-004
,,,-5.35000000e-009,-1.93750014e-004
,,,-5.32500000e-009,-1.96875014e-004
,,,-5.30000000e-009,-2.00000014e-004
,,,-5.27500000e-009,-2.01562514e-004
,,,-5.25000000e-009,-2.03125014e-004
,,,-5.22500000e-009,-2.03906264e-004
,,,-5.20000000e-009,-2.04687514e-004
,,,-5.17500000e-009,-2.04687514e-004
,,,-5.15000000e-009,-2.03906264e-004
,,,-5.12500000e-009,-2.02343764e-004
,,,-5.10000000e-009,-2.00000014e-004
,,,-5.07500000e-009,-1.92187514e-004
,,,-5.05000000e-009,-1.85937513e-004
,,,-5.02500000e-009,-1.80468763e-004
,,,-5.00000000e-009,-1.77343763e-004
,,,-4.97500000e-009,-1.77343763e-004
,,,-4.95000000e-009,-1.81250013e-004
,,,-4.92500000e-009,-1.89062513e-004
,,,-4.90000000e-009,-2.00000014e-004
,,,-4.87500000e-009,-2.09375015e-004
,,,-4.85000000e-009,-2.20312516e-004
,,,-4.82500000e-009,-2.28906266e-004
,,,-4.80000000e-009,-2.35156267e-004
,,,-4.77500000e-009,-2.36718767e-004
,,,-4.75000000e-009,-2.31250016e-004
,,,-4.72500000e-009,-2.19531266e-004
,,,-4.70000000e-009,-2.00000014e-004
,,,-4.67500000e-009,-1.72656262e-004
,,,-4.65000000e-009,-1.41406260e-004
,,,-4.62500000e-009,-1.07812508e-004
,,,-4.60000000e-009,-7.50000053e-005
,,,-4.57500000e-009,-4.53125032e-005
,,,-4.55000000e-009,-2.18750015e-005
,,,-4.52500000e-009,-6.25000044e-006
,,,-4.50000000e-009,0.00000000e+000
,,,-4.47500000e-009,-1.56250011e-006
,,,-4.45000000e-009,-9.37500066e-006
,,,-4.42500000e-009,-2.03125014e-005
,,,-4.40000000e-009,-3.12500022e-005
,,,-4.37500000e-009,-3.75000027e-005
,,,-4.35000000e-009,-3.59375025e-005
,,,-4.32500000e-009,-2.42187517e-005
,,,-4.30000000e-009,0.00000000e+000
,,,-4.27500000e-009,3.67187526e-005
,,,-4.25000000e-009,8.51562560e-005
,,,-4.22500000e-009,1.42187510e-004
,,,-4.20000000e-009,2.03125014e-004
,,,-4.17500000e-009,2.63281269e-004
,,,-4.15000000e-009,3.19531273e-004
,,,-4.12500000e-009,3.65625026e-004
,,,-4.10000000e-009,4.00000028e-004
,,,-4.07500000e-009,4.13281279e-004
,,,-4.05000000e-009,4.11718779e-004
,,,-4.02500000e-009,3.96093778e-004
,,,-4.00000000e-009,3.67968776e-004
,,,-3.97500000e-009,3.30468773e-004
,,,-3.95000000e-009,2.88281270e-004
,,,-3.92500000e-009,2.43750017e-004
,,,-3.90000000e-009,2.00000014e-004
,,,-3.87500000e-009,1.57812511e-004
,,,-3.85000000e-009,1.21875009e-004
,,,-3.82500000e-009,9.21875065e-005
,,,-3.80000000e-009,6.79687548e-005
,,,-3.77500000e-009,4.76562534e-005
,,,-3.75000000e-009,3.04687522e-005
,,,-3.72500000e-009,1.48437511e-005
,,,-3.70000000e-009,0.00000000e+000
,,,-3.67500000e-009,-1.40625010e-005
,,,-3.65000000e-009,-2.65625019e-005
,,,-3.62500000e-009,-3.67187526e-005
,,,-3.60000000e-009,-4.29687530e-005
,,,-3.57500000e-009,-4.37500031e-005
,,,-3.55000000e-009,-3.67187526e-005
,,,-3.52500000e-009,-2.18750015e-005
,,,-3.50000000e-009,0.00000000e+000
,,,-3.47500000e-009,2.89062520e-005
,,,-3.45000000e-009,6.25000044e-005
,,,-3.42500000e-009,9.84375070e-005
,,,-3.40000000e-009,1.32812509e-004
,,,-3.37500000e-009,1.63281262e-004
,,,-3.35000000e-009,1.85937513e-004
,,,-3.32500000e-009,1.98437514e-004
,,,-3.30000000e-009,2.00000014e-004
,,,-3.27500000e-009,1.87500013e-004
,,,-3.25000000e-009,1.65625012e-004
,,,-3.22500000e-009,1.36718760e-004
,,,-3.20000000e-009,1.03125007e-004
,,,-3.17500000e-009,6.87500049e-005
,,,-3.15000000e-009,3.82812527e-005
,,,-3.12500000e-009,1.40625010e-005
,,,-3.10000000e-009,0.00000000e+000
,,,-3.07500000e-009,-1.56250011e-006
,,,-3.05000000e-009,7.03125050e-006
,,,-3.02500000e-009,2.65625019e-005
,,,-3.00000000e-009,5.54687539e-005
,,,-2.97500000e-009,8.90625063e-005
,,,-2.95000000e-009,1.26562509e-004
,,,-2.92500000e-009,1.64843762e-004
,,,-2.90000000e-009,2.00000014e-004
,,,-2.87500000e-009,2.31250016e-004
,,,-2.85000000e-009,2.54687518e-004
,,,-2.82500000e-009,2.69531269e-004
,,,-2.80000000e-009,2.73437519e-004
,,,-2.77500000e-009,2.67968769e-004
,,,-2.75000000e-009,2.53125018e-004
,,,-2.72500000e-009,2.29687516e-004
,,,-2.70000000e-009,2.00000014e-004
,,,-2.67500000e-009,1.64843762e-004
,,,-2.65000000e-009,1.29687509e-004
,,,-2.62500000e-009,9.53125067e-005
,,,-2.60000000e-009,6.40625045e-005
,,,-2.57500000e-009,3.75000027e-005
,,,-2.55000000e-009,1.79687513e-005
,,,-2.52500000e-009,5.46875039e-006
,,,-2.50000000e-009,0.00000000e+000
,,,-2.47500000e-009,1.56250011e-006
,,,-2.45000000e-009,7.81250055e-006
,,,-2.42500000e-009,1.64062512e-005
,,,-2.40000000e-009,2.34375017e-005
,,,-2.37500000e-009,2.73437519e-005
,,,-2.35000000e-009,2.50000018e-005
,,,-2.32500000e-009,1.56250011e-005
,,,-2.30000000e-009,0.00000000e+000
,,,-2.27500000e-009,-1.87500013e-005
,,,-2.25000000e-009,-3.98437528e-005
,,,-2.22500000e-009,-6.01562543e-005
,,,-2.20000000e-009,-7.42187553e-005
,,,-2.17500000e-009,-7.89062556e-005
,,,-2.15000000e-009,-7.03125050e-005
,,,-2.12500000e-009,-4.37500031e-005
,,,-2.10000000e-009,0.00000000e+000
,,,-2.07500000e-009,6.25000044e-005
,,,-2.05000000e-009,1.39062510e-004
,,,-2.02500000e-009,2.25000016e-004
,,,-2.00000000e-009,3.15625022e-004
,,,-1.97500000e-009,4.04687529e-004
,,,-1.95000000e-009,4.84375034e-004
,,,-1.92500000e-009,5.50781289e-004
,,,-1.90000000e-009,6.00000042e-004
,,,-1.87500000e-009,6.22656294e-004
,,,-1.85000000e-009,6.24218794e-004
,,,-1.82500000e-009,6.07812543e-004
,,,-1.80000000e-009,5.75781291e-004
,,,-1.77500000e-009,5.33593788e-004
,,,-1.75000000e-009,4.86718784e-004
,,,-1.72500000e-009,4.40625031e-004
,,,-1.70000000e-009,4.00000028e-004
,,,-1.67500000e-009,3.64062526e-004
,,,-1.65000000e-009,3.40625024e-004
,,,-1.62500000e-009,3.28906273e-004
,,,-1.60000000e-009,3.28125023e-004
,,,-1.57500000e-009,3.38281274e-004
,,,-1.55000000e-009,3.55468775e-004
,,,-1.52500000e-009,3.76562527e-004
,,,-1.50000000e-009,4.00000028e-004
,,,-1.47500000e-009,4.12500029e-004
,,,-1.45000000e-009,4.21875030e-004
,,,-1.42500000e-009,4.26562530e-004
,,,-1.40000000e-009,4.26562530e-004
,,,-1.37500000e-009,4.23437530e-004
,,,-1.35000000e-009,4.17187530e-004
,,,-1.32500000e-009,4.09375029e-004
,,,-1.30000000e-009,4.00000028e-004
,,,-1.27500000e-009,3.75000027e-004
,,,-1.25000000e-009,3.48437525e-004
,,,-1.22500000e-009,3.21093773e-004
,,,-1.20000000e-009,2.93750021e-004
,,,-1.17500000e-009,2.67187519e-004
,,,-1.15000000e-009,2.42968767e-004
,,,-1.12500000e-009,2.20312516e-004
,,,-1.10000000e-009,2.00000014e-004
,,,-1.07500000e-009,1.58593761e-004
,,,-1.05000000e-009,1.17968758e-004
,,,-1.02500000e-009,7.96875056e-005
,,,-1.00000000e-009,4.60937533e-005
,,,-9.75000000e-010,2.03125014e-005
,,,-9.50000000e-010,3.90625028e-006
,,,-9.25000000e-010,-1.56250011e-006
,,,-9.00000000e-010,0.00000000e+000
,,,-8.75000000e-010,-1.64062512e-005
,,,-8.50000000e-010,-3.35937524e-005
,,,-8.25000000e-010,-5.15625036e-005
,,,-8.00000000e-010,-7.26562551e-005
,,,-7.75000000e-010,-9.68750069e-005
,,,-7.50000000e-010,-1.25781259e-004
,,,-7.25000000e-010,-1.59375011e-004
,,,-7.00000000e-010,-2.00000014e-004
,,,-6.75000000e-010,-2.79687520e-004
,,,-6.50000000e-010,-3.71875026e-004
,,,-6.25000000e-010,-4.75000034e-004
,,,-6.00000000e-010,-5.82812541e-004
,,,-5.75000000e-010,-6.92187549e-004
,,,-5.50000000e-010,-7.99218807e-004
,,,-5.25000000e-010,-9.01562564e-004
,,,-5.00000000e-010,-1.00000007e-003
,,,-4.75000000e-010,-1.12187508e-003
,,,-4.50000000e-010,-1.24843759e-003
,,,-4.25000000e-010,-1.38125010e-003
,,,-4.00000000e-010,-1.52187511e-003
,,,-3.75000000e-010,-1.67265637e-003
,,,-3.50000000e-010,-1.83437513e-003
,,,-3.25000000e-010,-2.00937514e-003
,,,-3.00000000e-010,-2.20000016e-003
,,,-2.75000000e-010,-2.42031267e-003
,,,-2.50000000e-010,-2.66015644e-003
,,,-2.25000000e-010,-2.91328146e-003
,,,-2.00000000e-010,-3.17578147e-003
,,,-1.75000000e-010,-3.44140649e-003
,,,-1.50000000e-010,-3.70390651e-003
,,,-1.25000000e-010,-3.95781278e-003
,,,-1.00000000e-010,-4.20000030e-003
,,,-7.50000000e-011,-4.42656281e-003
,,,-5.00000000e-011,-4.64453158e-003
,,,-2.50000000e-011,-4.85234409e-003
,,,0.00000000e+000,-5.05234411e-003
,,,2.50000000e-011,-5.24531287e-003
,,,5.00000000e-011,-5.43281288e-003
,,,7.50000000e-011,-5.61718790e-003
,,,1.00000000e-010,-5.80000041e-003
,,,1.25000000e-010,-5.96562542e-003
,,,1.50000000e-010,-6.13671918e-003
,,,1.75000000e-010,-6.31406295e-003
,,,2.00000000e-010,-6.49609421e-003
,,,2.25000000e-010,-6.67968797e-003
,,,2.50000000e-010,-6.86093799e-003
,,,2.75000000e-010,-7.03593800e-003
,,,3.00000000e-010,-7.20000051e-003
,,,3.25000000e-010,-7.31875052e-003
,,,3.50000000e-010,-7.42656303e-003
,,,3.75000000e-010,-7.52343803e-003
,,,4.00000000e-010,-7.60703179e-003
,,,4.25000000e-010,-7.67734429e-003
,,,4.50000000e-010,-7.73281305e-003
,,,4.75000000e-010,-7.77343805e-003
,,,5.00000000e-010,-7.80000055e-003
,,,5.25000000e-010,-7.77734430e-003
,,,5.50000000e-010,-7.75234430e-003
,,,5.75000000e-010,-7.73203180e-003
,,,6.00000000e-010,-7.71953180e-003
,,,6.25000000e-010,-7.71875055e-003
,,,6.50000000e-010,-7.73203180e-003
,,,6.75000000e-010,-7.75937555e-003
,,,7.00000000e-010,-7.80000055e-003
,,,7.25000000e-010,-7.81328180e-003
,,,7.50000000e-010,-7.83828180e-003
,,,7.75000000e-010,-7.87187556e-003
,,,8.00000000e-010,-7.91015681e-003
,,,8.25000000e-010,-7.94687556e-003
,,,8.50000000e-010,-7.97734431e-003
,,,8.75000000e-010,-7.99687557e-003
,,,9.00000000e-010,-8.00000057e-003
,,,9.25000000e-010,-7.94687556e-003
,,,9.50000000e-010,-7.87734431e-003
,,,9.75000000e-010,-7.79609430e-003
,,,1.00000000e-009,-7.70937555e-003
,,,1.02500000e-009,-7.62187554e-003
,,,1.05000000e-009,-7.53828178e-003
,,,1.07500000e-009,-7.46406303e-003
,,,1.10000000e-009,-7.40000052e-003
,,,1.12500000e-009,-7.31562552e-003
,,,1.15000000e-009,-7.23984426e-003
,,,1.17500000e-009,-7.17031301e-003
,,,1.20000000e-009,-7.10468800e-003
,,,1.22500000e-009,-7.03906300e-003
,,,1.25000000e-009,-6.96875049e-003
,,,1.27500000e-009,-6.89062549e-003
,,,1.30000000e-009,-6.80000048e-003
,,,1.32500000e-009,-6.67343797e-003
,,,1.35000000e-009,-6.53125046e-003
,,,1.37500000e-009,-6.37656295e-003
,,,1.40000000e-009,-6.21328169e-003
,,,1.42500000e-009,-6.04921918e-003
,,,1.45000000e-009,-5.88984417e-003
,,,1.47500000e-009,-5.73906291e-003
,,,1.50000000e-009,-5.60000040e-003
,,,1.52500000e-009,-5.46171914e-003
,,,1.55000000e-009,-5.33203163e-003
,,,1.57500000e-009,-5.20859412e-003
,,,1.60000000e-009,-5.08984411e-003
,,,1.62500000e-009,-4.97343785e-003
,,,1.65000000e-009,-4.85468784e-003
,,,1.67500000e-009,-4.73125033e-003
,,,1.70000000e-009,-4.60000033e-003
,,,1.72500000e-009,-4.45312532e-003
,,,1.75000000e-009,-4.29140655e-003
,,,1.77500000e-009,-4.11640654e-003
,,,1.80000000e-009,-3.93125028e-003
,,,1.82500000e-009,-3.74218776e-003
,,,1.85000000e-009,-3.55312525e-003
,,,1.87500000e-009,-3.37109399e-003
,,,1.90000000e-009,-3.20000023e-003
,,,1.92500000e-009,-3.05000022e-003
,,,1.95000000e-009,-2.91171896e-003
,,,1.97500000e-009,-2.78750020e-003
,,,2.00000000e-009,-2.67890644e-003
,,,2.02500000e-009,-2.58593768e-003
,,,2.05000000e-009,-2.50937518e-003
,,,2.07500000e-009,-2.44765642e-003
,,,2.10000000e-009,-2.40000017e-003
,,,2.12500000e-009,-2.37031267e-003
,,,2.15000000e-009,-2.34062517e-003
,,,2.17500000e-009,-2.30625016e-003
,,,2.20000000e-009,-2.26406266e-003
,,,2.22500000e-009,-2.21250016e-003
,,,2.25000000e-009,-2.15156265e-003
,,,2.27500000e-009,-2.08046890e-003
,,,2.30000000e-009,-2.00000014e-003
,,,2.32500000e-009,-1.92109389e-003
,,,2.35000000e-009,-1.82968763e-003
,,,2.37500000e-009,-1.72734387e-003
,,,2.40000000e-009,-1.61875011e-003
,,,2.42500000e-009,-1.50703136e-003
,,,2.45000000e-009,-1.39687510e-003
,,,2.47500000e-009,-1.29375009e-003
,,,2.50000000e-009,-1.20000008e-003
,,,2.52500000e-009,-1.12968758e-003
,,,2.55000000e-009,-1.06796883e-003
,,,2.57500000e-009,-1.01250007e-003
,,,2.60000000e-009,-9.63281318e-004
,,,2.62500000e-009,-9.17968815e-004
,,,2.65000000e-009,-8.77343812e-004
,,,2.67500000e-009,-8.38281309e-004
,,,2.70000000e-009,-8.00000057e-004
,,,2.72500000e-009,-7.71875055e-004
,,,2.75000000e-009,-7.38281302e-004
,,,2.77500000e-009,-6.95312549e-004
,,,2.80000000e-009,-6.45312546e-004
,,,2.82500000e-009,-5.88281292e-004
,,,2.85000000e-009,-5.26562537e-004
,,,2.87500000e-009,-4.62500033e-004
,,,2.90000000e-009,-4.00000028e-004
,,,2.92500000e-009,-3.50781275e-004
,,,2.95000000e-009,-3.06250022e-004
,,,2.97500000e-009,-2.66406269e-004
,,,3.00000000e-009,-2.33593767e-004
,,,3.02500000e-009,-2.09375015e-004
,,,3.05000000e-009,-1.95312514e-004
,,,3.07500000e-009,-1.92187514e-004
,,,3.10000000e-009,-2.00000014e-004
,,,3.12500000e-009,-2.25781266e-004
,,,3.15000000e-009,-2.56250018e-004
,,,3.17500000e-009,-2.89062520e-004
,,,3.20000000e-009,-3.21093773e-004
,,,3.22500000e-009,-3.50000025e-004
,,,3.25000000e-009,-3.74218776e-004
,,,3.27500000e-009,-3.91406278e-004
,,,3.30000000e-009,-4.00000028e-004
,,,3.32500000e-009,-4.04687529e-004
,,,3.35000000e-009,-3.98437528e-004
,,,3.37500000e-009,-3.80468777e-004
,,,3.40000000e-009,-3.53125025e-004
,,,3.42500000e-009,-3.18750023e-004
,,,3.45000000e-009,-2.79687520e-004
,,,3.47500000e-009,-2.39062517e-004
,,,3.50000000e-009,-2.00000014e-004
,,,3.52500000e-009,-1.70312512e-004
,,,3.55000000e-009,-1.46875010e-004
,,,3.57500000e-009,-1.32031259e-004
,,,3.60000000e-009,-1.25781259e-004
,,,3.62500000e-009,-1.30468759e-004
,,,3.65000000e-009,-1.44531260e-004
,,,3.67500000e-009,-1.67968762e-004
,,,3.70000000e-009,-2.00000014e-004
,,,3.72500000e-009,-2.40625017e-004
,,,3.75000000e-009,-2.82812520e-004
,,,3.77500000e-009,-3.23437523e-004
,,,3.80000000e-009,-3.58593775e-004
,,,3.82500000e-009,-3.85937527e-004
,,,3.85000000e-009,-4.02343778e-004
,,,3.87500000e-009,-4.07031279e-004
,,,3.90000000e-009,-4.00000028e-004
,,,3.92500000e-009,-3.82031277e-004
,,,3.95000000e-009,-3.54687525e-004
,,,3.97500000e-009,-3.22656273e-004
,,,4.00000000e-009,-2.87500020e-004
,,,4.02500000e-009,-2.54687518e-004
,,,4.05000000e-009,-2.27343766e-004
,,,4.07500000e-009,-2.07812515e-004
,,,4.10000000e-009,-2.00000014e-004
,,,4.12500000e-009,-2.04687514e-004
,,,4.15000000e-009,-2.21093766e-004
,,,4.17500000e-009,-2.46875017e-004
,,,4.20000000e-009,-2.78906270e-004
,,,4.22500000e-009,-3.14062522e-004
,,,4.25000000e-009,-3.47656275e-004
,,,4.27500000e-009,-3.77343777e-004
,,,4.30000000e-009,-4.00000028e-004
,,,4.32500000e-009,-4.14843779e-004
,,,4.35000000e-009,-4.21875030e-004
,,,4.37500000e-009,-4.21093780e-004
,,,4.40000000e-009,-4.15625029e-004
,,,4.42500000e-009,-4.07812529e-004
,,,4.45000000e-009,-4.00781278e-004
,,,4.47500000e-009,-3.97656278e-004
,,,4.50000000e-009,-4.00000028e-004
,,,4.52500000e-009,-4.09375029e-004
,,,4.55000000e-009,-4.26562530e-004
,,,4.57500000e-009,-4.50781282e-004
,,,4.60000000e-009,-4.79687534e-004
,,,4.62500000e-009,-5.11718786e-004
,,,4.65000000e-009,-5.44531289e-004
,,,4.67500000e-009,-5.74218791e-004
,,,4.70000000e-009,-6.00000042e-004
,,,4.72500000e-009,-6.14843794e-004
,,,4.75000000e-009,-6.24218794e-004
,,,4.77500000e-009,-6.26562544e-004
,,,4.80000000e-009,-6.24218794e-004
,,,4.82500000e-009,-6.18750044e-004
,,,4.85000000e-009,-6.11718793e-004
,,,4.87500000e-009,-6.04687543e-004
,,,4.90000000e-009,-6.00000042e-004
,,,4.92500000e-009,-5.92968792e-004
,,,4.95000000e-009,-5.89062542e-004
,,,4.97500000e-009,-5.88281292e-004
,,,5.00000000e-009,-5.89062542e-004
,,,5.02500000e-009,-5.91406292e-004
,,,5.05000000e-009,-5.94531292e-004
,,,5.07500000e-009,-5.97656292e-004
,,,5.10000000e-009,-6.00000042e-004
,,,5.12500000e-009,-5.95312542e-004
,,,5.15000000e-009,-5.89843792e-004
,,,5.17500000e-009,-5.84375041e-004
,,,5.20000000e-009,-5.80468791e-004
,,,5.22500000e-009,-5.79687541e-004
,,,5.25000000e-009,-5.82031291e-004
,,,5.27500000e-009,-5.89062542e-004
,,,5.30000000e-009,-6.00000042e-004
,,,5.32500000e-009,-6.08593793e-004
,,,5.35000000e-009,-6.19531294e-004
,,,5.37500000e-009,-6.28906295e-004
,,,5.40000000e-009,-6.35937545e-004
,,,5.42500000e-009,-6.38281295e-004
,,,5.45000000e-009,-6.34375045e-004
,,,5.47500000e-009,-6.21875044e-004
,,,5.50000000e-009,-6.00000042e-004
,,,5.52500000e-009,-5.62500040e-004
,,,5.55000000e-009,-5.16406287e-004
,,,5.57500000e-009,-4.64062533e-004
,,,5.60000000e-009,-4.07812529e-004
,,,5.62500000e-009,-3.50781275e-004
,,,5.65000000e-009,-2.95312521e-004
,,,5.67500000e-009,-2.44531267e-004
,,,5.70000000e-009,-2.00000014e-004
,,,5.72500000e-009,-1.62500012e-004
,,,5.75000000e-009,-1.32031259e-004
,,,5.77500000e-009,-1.07812508e-004
,,,5.80000000e-009,-8.67187561e-005
,,,5.82500000e-009,-6.71875048e-005
,,,5.85000000e-009,-4.76562534e-005
,,,5.87500000e-009,-2.50000018e-005
,,,5.90000000e-009,0.00000000e+000
,,,5.92500000e-009,2.57812518e-005
