RawData/SinglePhotoelectron/R5_2pt2B_5mV/wave026_Ch2.csv

"Record Length",1000,"Points",-7.72500000e-009,-8.00000057e-004
"Sample Interval",2.50000000e-011,s,-7.70000000e-009,-8.25000058e-004
"Trigger Point",309,"Samples",-7.67500000e-009,-8.40625059e-004
"Trigger Time",1.96306870e-011,s,-7.65000000e-009,-8.48437560e-004
"",,,-7.62500000e-009,-8.47656310e-004
"Horizontal Offset",-7.72500000e-009,s,-7.60000000e-009,-8.41406310e-004
,,,-7.57500000e-009,-8.30468809e-004
,,,-7.55000000e-009,-8.16406308e-004
,,,-7.52500000e-009,-8.00000057e-004
,,,-7.50000000e-009,-7.75781305e-004
,,,-7.47500000e-009,-7.51562553e-004
,,,-7.45000000e-009,-7.28125052e-004
,,,-7.42500000e-009,-7.04687550e-004
,,,-7.40000000e-009,-6.80468798e-004
,,,-7.37500000e-009,-6.55468796e-004
,,,-7.35000000e-009,-6.28125044e-004
,,,-7.32500000e-009,-6.00000042e-004
,,,-7.30000000e-009,-5.65625040e-004
,,,-7.27500000e-009,-5.31250038e-004
,,,-7.25000000e-009,-4.98437535e-004
,,,-7.22500000e-009,-4.68750033e-004
,,,-7.20000000e-009,-4.42968781e-004
,,,-7.17500000e-009,-4.22656280e-004
,,,-7.15000000e-009,-4.07812529e-004
,,,-7.12500000e-009,-4.00000028e-004
,,,-7.10000000e-009,-3.95312528e-004
,,,-7.07500000e-009,-3.96093778e-004
,,,-7.05000000e-009,-4.00000028e-004
,,,-7.02500000e-009,-4.04687529e-004
,,,-7.00000000e-009,-4.09375029e-004
,,,-6.97500000e-009,-4.10937529e-004
,,,-6.95000000e-009,-4.07812529e-004
,,,-6.92500000e-009,-4.00000028e-004
,,,-6.90000000e-009,-3.82812527e-004
,,,-6.87500000e-009,-3.60937526e-004
,,,-6.85000000e-009,-3.33593774e-004
,,,-6.82500000e-009,-3.03906272e-004
,,,-6.80000000e-009,-2.73437519e-004
,,,-6.77500000e-009,-2.44531267e-004
,,,-6.75000000e-009,-2.19531266e-004
,,,-6.72500000e-009,-2.00000014e-004
,,,-6.70000000e-009,-1.86718763e-004
,,,-6.67500000e-009,-1.79687513e-004
,,,-6.65000000e-009,-1.77343763e-004
,,,-6.62500000e-009,-1.78906263e-004
,,,-6.60000000e-009,-1.83593763e-004
,,,-6.57500000e-009,-1.89062513e-004
,,,-6.55000000e-009,-1.94531264e-004
,,,-6.52500000e-009,-2.00000014e-004
,,,-6.50000000e-009,-2.03906264e-004
,,,-6.47500000e-009,-2.06250015e-004
,,,-6.45000000e-009,-2.05468765e-004
,,,-6.42500000e-009,-2.03125014e-004
,,,-6.40000000e-009,-2.00000014e-004
,,,-6.37500000e-009,-1.98437514e-004
,,,-6.35000000e-009,-1.97656264e-004
,,,-6.32500000e-009,-2.00000014e-004
,,,-6.30000000e-009,-2.03906264e-004
,,,-6.27500000e-009,-2.09375015e-004
,,,-6.25000000e-009,-2.14843765e-004
,,,-6.22500000e-009,-2.19531266e-004
,,,-6.20000000e-009,-2.21093766e-004
,,,-6.17500000e-009,-2.18750015e-004
,,,-6.15000000e-009,-2.11718765e-004
,,,-6.12500000e-009,-2.00000014e-004
,,,-6.10000000e-009,-1.80468763e-004
,,,-6.07500000e-009,-1.57031261e-004
,,,-6.05000000e-009,-1.28906259e-004
,,,-6.02500000e-009,-9.92187570e-005
,,,-6.00000000e-009,-7.03125050e-005
,,,-5.97500000e-009,-4.21875030e-005
,,,-5.95000000e-009,-1.87500013e-005
,,,-5.92500000e-009,0.00000000e+000
,,,-5.90000000e-009,1.09375008e-005
,,,-5.87500000e-009,1.71875012e-005
,,,-5.85000000e-009,1.79687513e-005
,,,-5.82500000e-009,1.56250011e-005
,,,-5.80000000e-009,1.17187508e-005
,,,-5.77500000e-009,6.25000044e-006
,,,-5.75000000e-009,2.34375017e-006
,,,-5.72500000e-009,0.00000000e+000
,,,-5.70000000e-009,0.00000000e+000
,,,-5.67500000e-009,7.81250055e-007
,,,-5.65000000e-009,3.90625028e-006
,,,-5.62500000e-009,7.03125050e-006
,,,-5.60000000e-009,9.37500066e-006
,,,-5.57500000e-009,9.37500066e-006
,,,-5.55000000e-009,6.25000044e-006
,,,-5.52500000e-009,0.00000000e+000
,,,-5.50000000e-009,-1.01562507e-005
,,,-5.47500000e-009,-2.10937515e-005
,,,-5.45000000e-009,-3.12500022e-005
,,,-5.42500000e-009,-3.90625028e-005
,,,-5.40000000e-009,-4.06250029e-005
,,,-5.37500000e-009,-3.59375025e-005
,,,-5.35000000e-009,-2.18750015e-005
,,,-5.32500000e-009,0.00000000e+000
,,,-5.30000000e-009,3.04687522e-005
,,,-5.27500000e-009,6.71875048e-005
,,,-5.25000000e-009,1.06250008e-004
,,,-5.22500000e-009,1.42968760e-004
,,,-5.20000000e-009,1.74218762e-004
,,,-5.17500000e-009,1.95312514e-004
,,,-5.15000000e-009,2.04687514e-004
,,,-5.12500000e-009,2.00000014e-004
,,,-5.10000000e-009,1.78906263e-004
,,,-5.07500000e-009,1.48437511e-004
,,,-5.05000000e-009,1.10937508e-004
,,,-5.02500000e-009,7.26562551e-005
,,,-5.00000000e-009,3.75000027e-005
,,,-4.97500000e-009,1.17187508e-005
,,,-4.95000000e-009,-7.81250055e-007
,,,-4.92500000e-009,0.00000000e+000
,,,-4.90000000e-009,1.56250011e-005
,,,-4.87500000e-009,4.37500031e-005
,,,-4.85000000e-009,8.04687557e-005
,,,-4.82500000e-009,1.20312509e-004
,,,-4.80000000e-009,1.57031261e-004
,,,-4.77500000e-009,1.85156263e-004
,,,-4.75000000e-009,2.00000014e-004
,,,-4.72500000e-009,2.00000014e-004
,,,-4.70000000e-009,1.80468763e-004
,,,-4.67500000e-009,1.48437511e-004
,,,-4.65000000e-009,1.07812508e-004
,,,-4.62500000e-009,6.48437546e-005
,,,-4.60000000e-009,2.65625019e-005
,,,-4.57500000e-009,0.00000000e+000
,,,-4.55000000e-009,-1.01562507e-005
,,,-4.52500000e-009,0.00000000e+000
,,,-4.50000000e-009,2.96875021e-005
,,,-4.47500000e-009,7.81250055e-005
,,,-4.45000000e-009,1.39843760e-004
,,,-4.42500000e-009,2.07812515e-004
,,,-4.40000000e-009,2.75781270e-004
,,,-4.37500000e-009,3.34375024e-004
,,,-4.35000000e-009,3.77343777e-004
,,,-4.32500000e-009,4.00000028e-004
,,,-4.30000000e-009,3.93750028e-004
,,,-4.27500000e-009,3.65625026e-004
,,,-4.25000000e-009,3.17187522e-004
,,,-4.22500000e-009,2.54687518e-004
,,,-4.20000000e-009,1.85156263e-004
,,,-4.17500000e-009,1.15625008e-004
,,,-4.15000000e-009,5.15625036e-005
,,,-4.12500000e-009,0.00000000e+000
,,,-4.10000000e-009,-3.67187526e-005
,,,-4.07500000e-009,-5.70312540e-005
,,,-4.05000000e-009,-6.17187544e-005
,,,-4.02500000e-009,-5.54687539e-005
,,,-4.00000000e-009,-4.06250029e-005
,,,-3.97500000e-009,-2.34375017e-005
,,,-3.95000000e-009,-8.59375061e-006
,,,-3.92500000e-009,0.00000000e+000
,,,-3.90000000e-009,-7.81250055e-007
,,,-3.87500000e-009,-1.25000009e-005
,,,-3.85000000e-009,-3.43750024e-005
,,,-3.82500000e-009,-6.32812545e-005
,,,-3.80000000e-009,-9.84375070e-005
,,,-3.77500000e-009,-1.35156260e-004
,,,-3.75000000e-009,-1.69531262e-004
,,,-3.72500000e-009,-2.00000014e-004
,,,-3.70000000e-009,-2.20312516e-004
,,,-3.67500000e-009,-2.32812516e-004
,,,-3.65000000e-009,-2.37500017e-004
,,,-3.62500000e-009,-2.35156267e-004
,,,-3.60000000e-009,-2.28906266e-004
,,,-3.57500000e-009,-2.18750015e-004
,,,-3.55000000e-009,-2.08593765e-004
,,,-3.52500000e-009,-2.00000014e-004
,,,-3.50000000e-009,-1.91406264e-004
,,,-3.47500000e-009,-1.85937513e-004
,,,-3.45000000e-009,-1.83593763e-004
,,,-3.42500000e-009,-1.85156263e-004
,,,-3.40000000e-009,-1.88281263e-004
,,,-3.37500000e-009,-1.92187514e-004
,,,-3.35000000e-009,-1.96093764e-004
,,,-3.32500000e-009,-2.00000014e-004
,,,-3.30000000e-009,-1.98437514e-004
,,,-3.27500000e-009,-1.96093764e-004
,,,-3.25000000e-009,-1.93750014e-004
,,,-3.22500000e-009,-1.92187514e-004
,,,-3.20000000e-009,-1.90625013e-004
,,,-3.17500000e-009,-1.91406264e-004
,,,-3.15000000e-009,-1.94531264e-004
,,,-3.12500000e-009,-2.00000014e-004
,,,-3.10000000e-009,-2.04687514e-004
,,,-3.07500000e-009,-2.10156265e-004
,,,-3.05000000e-009,-2.15625015e-004
,,,-3.02500000e-009,-2.20312516e-004
,,,-3.00000000e-009,-2.21875016e-004
,,,-2.97500000e-009,-2.19531266e-004
,,,-2.95000000e-009,-2.12500015e-004
,,,-2.92500000e-009,-2.00000014e-004
,,,-2.90000000e-009,-1.79687513e-004
,,,-2.87500000e-009,-1.56250011e-004
,,,-2.85000000e-009,-1.28906259e-004
,,,-2.82500000e-009,-1.00000007e-004
,,,-2.80000000e-009,-7.03125050e-005
,,,-2.77500000e-009,-4.29687530e-005
,,,-2.75000000e-009,-1.95312514e-005
,,,-2.72500000e-009,0.00000000e+000
,,,-2.70000000e-009,1.32812509e-005
,,,-2.67500000e-009,2.10937515e-005
,,,-2.65000000e-009,2.42187517e-005
,,,-2.62500000e-009,2.34375017e-005
,,,-2.60000000e-009,1.95312514e-005
,,,-2.57500000e-009,1.32812509e-005
,,,-2.55000000e-009,6.25000044e-006
,,,-2.52500000e-009,0.00000000e+000
,,,-2.50000000e-009,-5.46875039e-006
,,,-2.47500000e-009,-1.01562507e-005
,,,-2.45000000e-009,-1.17187508e-005
,,,-2.42500000e-009,-1.17187508e-005
,,,-2.40000000e-009,-9.37500066e-006
,,,-2.37500000e-009,-7.03125050e-006
,,,-2.35000000e-009,-3.12500022e-006
,,,-2.32500000e-009,0.00000000e+000
,,,-2.30000000e-009,1.56250011e-006
,,,-2.27500000e-009,3.12500022e-006
,,,-2.25000000e-009,3.90625028e-006
,,,-2.22500000e-009,3.90625028e-006
,,,-2.20000000e-009,3.12500022e-006
,,,-2.17500000e-009,2.34375017e-006
,,,-2.15000000e-009,7.81250055e-007
,,,-2.12500000e-009,0.00000000e+000
,,,-2.10000000e-009,-1.56250011e-006
,,,-2.07500000e-009,-2.34375017e-006
,,,-2.05000000e-009,-3.12500022e-006
,,,-2.02500000e-009,-3.12500022e-006
,,,-2.00000000e-009,-2.34375017e-006
,,,-1.97500000e-009,-1.56250011e-006
,,,-1.95000000e-009,-7.81250055e-007
,,,-1.92500000e-009,0.00000000e+000
,,,-1.90000000e-009,0.00000000e+000
,,,-1.87500000e-009,0.00000000e+000
,,,-1.85000000e-009,0.00000000e+000
,,,-1.82500000e-009,0.00000000e+000
,,,-1.80000000e-009,0.00000000e+000
,,,-1.77500000e-009,0.00000000e+000
,,,-1.75000000e-009,0.00000000e+000
,,,-1.72500000e-009,0.00000000e+000
,,,-1.70000000e-009,-7.81250055e-007
,,,-1.67500000e-009,-1.56250011e-006
,,,-1.65000000e-009,-2.34375017e-006
,,,-1.62500000e-009,-3.12500022e-006
,,,-1.60000000e-009,-3.12500022e-006
,,,-1.57500000e-009,-2.34375017e-006
,,,-1.55000000e-009,-1.56250011e-006
,,,-1.52500000e-009,0.00000000e+000
,,,-1.50000000e-009,-2.34375017e-006
,,,-1.47500000e-009,-4.68750033e-006
,,,-1.45000000e-009,-7.03125050e-006
,,,-1.42500000e-009,-8.59375061e-006
,,,-1.40000000e-009,-9.37500066e-006
,,,-1.37500000e-009,-7.81250055e-006
,,,-1.35000000e-009,-4.68750033e-006
,,,-1.32500000e-009,0.00000000e+000
,,,-1.30000000e-009,-3.12500022e-006
,,,-1.27500000e-009,-6.25000044e-006
,,,-1.25000000e-009,-9.37500066e-006
,,,-1.22500000e-009,-1.17187508e-005
,,,-1.20000000e-009,-1.25000009e-005
,,,-1.17500000e-009,-1.01562507e-005
,,,-1.15000000e-009,-6.25000044e-006
,,,-1.12500000e-009,0.00000000e+000
,,,-1.10000000e-009,-9.37500066e-006
,,,-1.07500000e-009,-1.95312514e-005
,,,-1.05000000e-009,-2.81250020e-005
,,,-1.02500000e-009,-3.28125023e-005
,,,-1.00000000e-009,-3.35937524e-005
,,,-9.75000000e-010,-2.81250020e-005
,,,-9.50000000e-010,-1.64062512e-005
,,,-9.25000000e-010,0.00000000e+000
,,,-9.00000000e-010,-1.01562507e-005
,,,-8.75000000e-010,-2.50000018e-005
,,,-8.50000000e-010,-4.37500031e-005
,,,-8.25000000e-010,-6.71875048e-005
,,,-8.00000000e-010,-9.37500066e-005
,,,-7.75000000e-010,-1.24218759e-004
,,,-7.50000000e-010,-1.59375011e-004
,,,-7.25000000e-010,-2.00000014e-004
,,,-7.00000000e-010,-2.86718770e-004
,,,-6.75000000e-010,-3.85156277e-004
,,,-6.50000000e-010,-4.92187535e-004
,,,-6.25000000e-010,-6.02343793e-004
,,,-6.00000000e-010,-7.10937550e-004
,,,-5.75000000e-010,-8.15625058e-004
,,,-5.50000000e-010,-9.11718815e-004
,,,-5.25000000e-010,-1.00000007e-003
,,,-5.00000000e-010,-1.11953133e-003
,,,-4.75000000e-010,-1.24062509e-003
,,,-4.50000000e-010,-1.36250010e-003
,,,-4.25000000e-010,-1.48515636e-003
,,,-4.00000000e-010,-1.60937511e-003
,,,-3.75000000e-010,-1.73437512e-003
,,,-3.50000000e-010,-1.86406263e-003
,,,-3.25000000e-010,-2.00000014e-003
,,,-3.00000000e-010,-2.17812515e-003
,,,-2.75000000e-010,-2.37421892e-003
,,,-2.50000000e-010,-2.58671893e-003
,,,-2.25000000e-010,-2.81328145e-003
,,,-2.00000000e-010,-3.05078147e-003
,,,-1.75000000e-010,-3.29531273e-003
,,,-1.50000000e-010,-3.54531275e-003
,,,-1.25000000e-010,-3.80000027e-003
,,,-1.00000000e-010,-4.07265654e-003
,,,-7.50000000e-011,-4.35468781e-003
,,,-5.00000000e-011,-4.64609408e-003
,,,-2.50000000e-011,-4.94609410e-003
,,,0.00000000e+000,-5.25312537e-003
,,,2.50000000e-011,-5.56484414e-003
,,,5.00000000e-011,-5.88125042e-003
,,,7.50000000e-011,-6.20000044e-003
,,,1.00000000e-010,-6.50546921e-003
,,,1.25000000e-010,-6.81562548e-003
,,,1.50000000e-010,-7.12812550e-003
,,,1.75000000e-010,-7.43906303e-003
,,,2.00000000e-010,-7.74609430e-003
,,,2.25000000e-010,-8.04453182e-003
,,,2.50000000e-010,-8.32968809e-003
,,,2.75000000e-010,-8.60000061e-003
,,,3.00000000e-010,-8.81093812e-003
,,,3.25000000e-010,-9.00859439e-003
,,,3.50000000e-010,-9.19609440e-003
,,,3.75000000e-010,-9.37343816e-003
,,,4.00000000e-010,-9.54218818e-003
,,,4.25000000e-010,-9.70312569e-003
,,,4.50000000e-010,-9.85546945e-003
,,,4.75000000e-010,-1.00000007e-002
,,,5.00000000e-010,-1.00773445e-002
,,,5.25000000e-010,-1.01531257e-002
,,,5.50000000e-010,-1.02281257e-002
,,,5.75000000e-010,-1.03054695e-002
,,,6.00000000e-010,-1.03835945e-002
,,,6.25000000e-010,-1.04609382e-002
,,,6.50000000e-010,-1.05343757e-002
,,,6.75000000e-010,-1.06000008e-002
,,,7.00000000e-010,-1.05882820e-002
,,,7.25000000e-010,-1.05671882e-002
,,,7.50000000e-010,-1.05359382e-002
,,,7.75000000e-010,-1.04945320e-002
,,,8.00000000e-010,-1.04421882e-002
,,,8.25000000e-010,-1.03765632e-002
,,,8.50000000e-010,-1.02960945e-002
,,,8.75000000e-010,-1.02000007e-002
,,,9.00000000e-010,-1.00273445e-002
,,,9.25000000e-010,-9.84375070e-003
,,,9.50000000e-010,-9.65625068e-003
,,,9.75000000e-010,-9.46953192e-003
,,,1.00000000e-009,-9.28828191e-003
,,,1.02500000e-009,-9.11484440e-003
,,,1.05000000e-009,-8.95234438e-003
,,,1.07500000e-009,-8.80000062e-003
,,,1.10000000e-009,-8.61484436e-003
,,,1.12500000e-009,-8.43671935e-003
,,,1.15000000e-009,-8.26406308e-003
,,,1.17500000e-009,-8.09531307e-003
,,,1.20000000e-009,-7.92812556e-003
,,,1.22500000e-009,-7.75781305e-003
,,,1.25000000e-009,-7.58281304e-003
,,,1.27500000e-009,-7.40000052e-003
,,,1.30000000e-009,-7.18437551e-003
,,,1.32500000e-009,-6.95781299e-003
,,,1.35000000e-009,-6.72187548e-003
,,,1.37500000e-009,-6.48359421e-003
,,,1.40000000e-009,-6.24687544e-003
,,,1.42500000e-009,-6.01796918e-003
,,,1.45000000e-009,-5.80156291e-003
,,,1.47500000e-009,-5.60000040e-003
,,,1.50000000e-009,-5.41171913e-003
,,,1.52500000e-009,-5.23281287e-003
,,,1.55000000e-009,-5.05937536e-003
,,,1.57500000e-009,-4.88984410e-003
,,,1.60000000e-009,-4.72109408e-003
,,,1.62500000e-009,-4.55078157e-003
,,,1.65000000e-009,-4.37734406e-003
,,,1.67500000e-009,-4.20000030e-003
,,,1.70000000e-009,-4.02968779e-003
,,,1.72500000e-009,-3.85000027e-003
,,,1.75000000e-009,-3.66171901e-003
,,,1.77500000e-009,-3.47031275e-003
,,,1.80000000e-009,-3.28281273e-003
,,,1.82500000e-009,-3.10468772e-003
,,,1.85000000e-009,-2.94218771e-003
,,,1.87500000e-009,-2.80000020e-003
,,,1.90000000e-009,-2.70078144e-003
,,,1.92500000e-009,-2.61406269e-003
,,,1.95000000e-009,-2.53750018e-003
,,,1.97500000e-009,-2.46718767e-003
,,,2.00000000e-009,-2.40078142e-003
,,,2.02500000e-009,-2.33515642e-003
,,,2.05000000e-009,-2.26875016e-003
,,,2.07500000e-009,-2.20000016e-003
,,,2.10000000e-009,-2.14765640e-003
,,,2.12500000e-009,-2.08437515e-003
,,,2.15000000e-009,-2.00859389e-003
,,,2.17500000e-009,-1.92500014e-003
,,,2.20000000e-009,-1.83671888e-003
,,,2.22500000e-009,-1.74921887e-003
,,,2.25000000e-009,-1.66875012e-003
,,,2.27500000e-009,-1.60000011e-003
,,,2.30000000e-009,-1.56484386e-003
,,,2.32500000e-009,-1.54062511e-003
,,,2.35000000e-009,-1.52656261e-003
,,,2.37500000e-009,-1.52343761e-003
,,,2.40000000e-009,-1.52968761e-003
,,,2.42500000e-009,-1.54609386e-003
,,,2.45000000e-009,-1.57031261e-003
,,,2.47500000e-009,-1.60000011e-003
,,,2.50000000e-009,-1.64375012e-003
,,,2.52500000e-009,-1.67968762e-003
,,,2.55000000e-009,-1.70468762e-003
,,,2.57500000e-009,-1.71484387e-003
,,,2.60000000e-009,-1.70937512e-003
,,,2.62500000e-009,-1.68750012e-003
,,,2.65000000e-009,-1.65078137e-003
,,,2.67500000e-009,-1.60000011e-003
,,,2.70000000e-009,-1.54453136e-003
,,,2.72500000e-009,-1.48046885e-003
,,,2.75000000e-009,-1.41250010e-003
,,,2.77500000e-009,-1.34609385e-003
,,,2.80000000e-009,-1.28671884e-003
,,,2.82500000e-009,-1.23984384e-003
,,,2.85000000e-009,-1.21015634e-003
,,,2.87500000e-009,-1.20000008e-003
,,,2.90000000e-009,-1.20937509e-003
,,,2.92500000e-009,-1.23281259e-003
,,,2.95000000e-009,-1.26562509e-003
,,,2.97500000e-009,-1.30390634e-003
,,,3.00000000e-009,-1.34140634e-003
,,,3.02500000e-009,-1.37265635e-003
,,,3.05000000e-009,-1.39375010e-003
,,,3.07500000e-009,-1.40000010e-003
,,,3.10000000e-009,-1.38515635e-003
,,,3.12500000e-009,-1.35312510e-003
,,,3.15000000e-009,-1.30468759e-003
,,,3.17500000e-009,-1.24453134e-003
,,,3.20000000e-009,-1.17890633e-003
,,,3.22500000e-009,-1.11250008e-003
,,,3.25000000e-009,-1.05078132e-003
,,,3.27500000e-009,-1.00000007e-003
,,,3.30000000e-009,-9.59375068e-004
,,,3.32500000e-009,-9.33593816e-004
,,,3.35000000e-009,-9.21875065e-004
,,,3.37500000e-009,-9.23437565e-004
,,,3.40000000e-009,-9.35156316e-004
,,,3.42500000e-009,-9.54687568e-004
,,,3.45000000e-009,-9.77343819e-004
,,,3.47500000e-009,-1.00000007e-003
,,,3.50000000e-009,-1.01484382e-003
,,,3.52500000e-009,-1.01953132e-003
,,,3.55000000e-009,-1.01328132e-003
,,,3.57500000e-009,-9.94531320e-004
,,,3.60000000e-009,-9.62500068e-004
,,,3.62500000e-009,-9.18750065e-004
,,,3.65000000e-009,-8.64062561e-004
,,,3.67500000e-009,-8.00000057e-004
,,,3.70000000e-009,-7.26562551e-004
,,,3.72500000e-009,-6.48437546e-004
,,,3.75000000e-009,-5.66406290e-004
,,,3.77500000e-009,-4.84375034e-004
,,,3.80000000e-009,-4.04687529e-004
,,,3.82500000e-009,-3.28906273e-004
,,,3.85000000e-009,-2.60156268e-004
,,,3.87500000e-009,-2.00000014e-004
,,,3.90000000e-009,-1.49218761e-004
,,,3.92500000e-009,-1.07812508e-004
,,,3.95000000e-009,-7.42187553e-005
,,,3.97500000e-009,-4.76562534e-005
,,,4.00000000e-009,-2.81250020e-005
,,,4.02500000e-009,-1.40625010e-005
,,,4.05000000e-009,-5.46875039e-006
,,,4.07500000e-009,0.00000000e+000
,,,4.10000000e-009,7.81250055e-007
,,,4.12500000e-009,2.34375017e-006
,,,4.15000000e-009,3.90625028e-006
,,,4.17500000e-009,6.25000044e-006
,,,4.20000000e-009,7.81250055e-006
,,,4.22500000e-009,7.03125050e-006
,,,4.25000000e-009,4.68750033e-006
,,,4.27500000e-009,0.00000000e+000
,,,4.30000000e-009,-7.03125050e-006
,,,4.32500000e-009,-1.32812509e-005
,,,4.35000000e-009,-1.95312514e-005
,,,4.37500000e-009,-2.26562516e-005
,,,4.40000000e-009,-2.26562516e-005
,,,4.42500000e-009,-1.95312514e-005
,,,4.45000000e-009,-1.17187508e-005
,,,4.47500000e-009,0.00000000e+000
,,,4.50000000e-009,1.71875012e-005
,,,4.52500000e-009,4.06250029e-005
,,,4.55000000e-009,6.79687548e-005
,,,4.57500000e-009,9.76562569e-005
,,,4.60000000e-009,1.26562509e-004
,,,4.62500000e-009,1.54687511e-004
,,,4.65000000e-009,1.78906263e-004
,,,4.67500000e-009,2.00000014e-004
,,,4.70000000e-009,2.16406265e-004
,,,4.72500000e-009,2.32812516e-004
,,,4.75000000e-009,2.49218768e-004
,,,4.77500000e-009,2.67968769e-004
,,,4.80000000e-009,2.91406271e-004
,,,4.82500000e-009,3.20312523e-004
,,,4.85000000e-009,3.56250025e-004
,,,4.87500000e-009,4.00000028e-004
,,,4.90000000e-009,4.47656282e-004
,,,4.92500000e-009,5.01562536e-004
,,,4.95000000e-009,5.58593790e-004
,,,4.97500000e-009,6.16406294e-004
,,,5.00000000e-009,6.72656298e-004
,,,5.02500000e-009,7.22656301e-004
,,,5.05000000e-009,7.66406304e-004
,,,5.07500000e-009,8.00000057e-004
,,,5.10000000e-009,8.19531308e-004
,,,5.12500000e-009,8.29687559e-004
,,,5.15000000e-009,8.32031309e-004
,,,5.17500000e-009,8.27343809e-004
,,,5.20000000e-009,8.19531308e-004
,,,5.22500000e-009,8.10937557e-004
,,,5.25000000e-009,8.03125057e-004
,,,5.27500000e-009,8.00000057e-004
,,,5.30000000e-009,8.00000057e-004
,,,5.32500000e-009,8.08593807e-004
,,,5.35000000e-009,8.25781308e-004
,,,5.37500000e-009,8.51562560e-004
,,,5.40000000e-009,8.83593813e-004
,,,5.42500000e-009,9.21093815e-004
,,,5.45000000e-009,9.60937568e-004
,,,5.47500000e-009,1.00000007e-003
,,,5.50000000e-009,1.02812507e-003
,,,5.52500000e-009,1.05156257e-003
,,,5.55000000e-009,1.06718758e-003
,,,5.57500000e-009,1.07421883e-003
,,,5.60000000e-009,1.07109383e-003
,,,5.62500000e-009,1.05781257e-003
,,,5.65000000e-009,1.03359382e-003
,,,5.67500000e-009,1.00000007e-003
,,,5.70000000e-009,9.52343817e-004
,,,5.72500000e-009,8.99218814e-004
,,,5.75000000e-009,8.42187560e-004
,,,5.77500000e-009,7.85156306e-004
,,,5.80000000e-009,7.29687552e-004
,,,5.82500000e-009,6.78906298e-004
,,,5.85000000e-009,6.34375045e-004
,,,5.87500000e-009,6.00000042e-004
,,,5.90000000e-009,5.75000041e-004
,,,5.92500000e-009,5.64062540e-004
