RawData/SinglePhotoelectron/R5_2pt2B_5mV/wave025_Ch2.csv

"Record Length",1000,"Points",-7.72500000e-009,2.11718765e-004
"Sample Interval",2.50000000e-011,s,-7.70000000e-009,2.07031265e-004
"Trigger Point",309,"Samples",-7.67500000e-009,2.03125014e-004
"Trigger Time",2.40200000e-011,s,-7.65000000e-009,2.00000014e-004
"",,,-7.62500000e-009,2.00000014e-004
"Horizontal Offset",-7.72500000e-009,s,-7.60000000e-009,1.99218764e-004
,,,-7.57500000e-009,2.00781264e-004
,,,-7.55000000e-009,2.03906264e-004
,,,-7.52500000e-009,2.07812515e-004
,,,-7.50000000e-009,2.10937515e-004
,,,-7.47500000e-009,2.10937515e-004
,,,-7.45000000e-009,2.07812515e-004
,,,-7.42500000e-009,2.00000014e-004
,,,-7.40000000e-009,1.83593763e-004
,,,-7.37500000e-009,1.61718761e-004
,,,-7.35000000e-009,1.36718760e-004
,,,-7.32500000e-009,1.07812508e-004
,,,-7.30000000e-009,7.81250055e-005
,,,-7.27500000e-009,4.92187535e-005
,,,-7.25000000e-009,2.26562516e-005
,,,-7.22500000e-009,0.00000000e+000
,,,-7.20000000e-009,-1.87500013e-005
,,,-7.17500000e-009,-3.12500022e-005
,,,-7.15000000e-009,-3.82812527e-005
,,,-7.12500000e-009,-3.90625028e-005
,,,-7.10000000e-009,-3.43750024e-005
,,,-7.07500000e-009,-2.57812518e-005
,,,-7.05000000e-009,-1.32812509e-005
,,,-7.02500000e-009,0.00000000e+000
,,,-7.00000000e-009,1.25000009e-005
,,,-6.97500000e-009,2.34375017e-005
,,,-6.95000000e-009,3.12500022e-005
,,,-6.92500000e-009,3.51562525e-005
,,,-6.90000000e-009,3.43750024e-005
,,,-6.87500000e-009,2.81250020e-005
,,,-6.85000000e-009,1.64062512e-005
,,,-6.82500000e-009,0.00000000e+000
,,,-6.80000000e-009,-2.10937515e-005
,,,-6.77500000e-009,-4.68750033e-005
,,,-6.75000000e-009,-7.50000053e-005
,,,-6.72500000e-009,-1.03906257e-004
,,,-6.70000000e-009,-1.32031259e-004
,,,-6.67500000e-009,-1.58593761e-004
,,,-6.65000000e-009,-1.81250013e-004
,,,-6.62500000e-009,-2.00000014e-004
,,,-6.60000000e-009,-2.11718765e-004
,,,-6.57500000e-009,-2.17968765e-004
,,,-6.55000000e-009,-2.21093766e-004
,,,-6.52500000e-009,-2.20312516e-004
,,,-6.50000000e-009,-2.16406265e-004
,,,-6.47500000e-009,-2.10937515e-004
,,,-6.45000000e-009,-2.05468765e-004
,,,-6.42500000e-009,-2.00000014e-004
,,,-6.40000000e-009,-1.92187514e-004
,,,-6.37500000e-009,-1.87500013e-004
,,,-6.35000000e-009,-1.84375013e-004
,,,-6.32500000e-009,-1.84375013e-004
,,,-6.30000000e-009,-1.85937513e-004
,,,-6.27500000e-009,-1.89843763e-004
,,,-6.25000000e-009,-1.94531264e-004
,,,-6.22500000e-009,-2.00000014e-004
,,,-6.20000000e-009,-2.03125014e-004
,,,-6.17500000e-009,-2.05468765e-004
,,,-6.15000000e-009,-2.07812515e-004
,,,-6.12500000e-009,-2.07812515e-004
,,,-6.10000000e-009,-2.07812515e-004
,,,-6.07500000e-009,-2.05468765e-004
,,,-6.05000000e-009,-2.03125014e-004
,,,-6.02500000e-009,-2.00000014e-004
,,,-6.00000000e-009,-1.94531264e-004
,,,-5.97500000e-009,-1.89843763e-004
,,,-5.95000000e-009,-1.85937513e-004
,,,-5.92500000e-009,-1.84375013e-004
,,,-5.90000000e-009,-1.84375013e-004
,,,-5.87500000e-009,-1.87500013e-004
,,,-5.85000000e-009,-1.92187514e-004
,,,-5.82500000e-009,-2.00000014e-004
,,,-5.80000000e-009,-2.04687514e-004
,,,-5.77500000e-009,-2.09375015e-004
,,,-5.75000000e-009,-2.13281265e-004
,,,-5.72500000e-009,-2.16406265e-004
,,,-5.70000000e-009,-2.17187515e-004
,,,-5.67500000e-009,-2.15625015e-004
,,,-5.65000000e-009,-2.09375015e-004
,,,-5.62500000e-009,-2.00000014e-004
,,,-5.60000000e-009,-1.83593763e-004
,,,-5.57500000e-009,-1.62500012e-004
,,,-5.55000000e-009,-1.38281260e-004
,,,-5.52500000e-009,-1.11718758e-004
,,,-5.50000000e-009,-8.28125059e-005
,,,-5.47500000e-009,-5.31250038e-005
,,,-5.45000000e-009,-2.50000018e-005
,,,-5.42500000e-009,0.00000000e+000
,,,-5.40000000e-009,2.03125014e-005
,,,-5.37500000e-009,3.59375025e-005
,,,-5.35000000e-009,4.53125032e-005
,,,-5.32500000e-009,4.84375034e-005
,,,-5.30000000e-009,4.45312532e-005
,,,-5.27500000e-009,3.43750024e-005
,,,-5.25000000e-009,1.87500013e-005
,,,-5.22500000e-009,0.00000000e+000
,,,-5.20000000e-009,-2.10937515e-005
,,,-5.17500000e-009,-4.14062529e-005
,,,-5.15000000e-009,-5.78125041e-005
,,,-5.12500000e-009,-6.71875048e-005
,,,-5.10000000e-009,-6.71875048e-005
,,,-5.07500000e-009,-5.70312540e-005
,,,-5.05000000e-009,-3.43750024e-005
,,,-5.02500000e-009,0.00000000e+000
,,,-5.00000000e-009,4.29687530e-005
,,,-4.97500000e-009,9.53125067e-005
,,,-4.95000000e-009,1.52343761e-004
,,,-4.92500000e-009,2.12500015e-004
,,,-4.90000000e-009,2.70312519e-004
,,,-4.87500000e-009,3.23437523e-004
,,,-4.85000000e-009,3.67187526e-004
,,,-4.82500000e-009,4.00000028e-004
,,,-4.80000000e-009,4.13281279e-004
,,,-4.77500000e-009,4.12500029e-004
,,,-4.75000000e-009,3.98437528e-004
,,,-4.72500000e-009,3.71875026e-004
,,,-4.70000000e-009,3.36718774e-004
,,,-4.67500000e-009,2.93750021e-004
,,,-4.65000000e-009,2.46875017e-004
,,,-4.62500000e-009,2.00000014e-004
,,,-4.60000000e-009,1.50781261e-004
,,,-4.57500000e-009,1.06250008e-004
,,,-4.55000000e-009,6.87500049e-005
,,,-4.52500000e-009,3.98437528e-005
,,,-4.50000000e-009,1.87500013e-005
,,,-4.47500000e-009,5.46875039e-006
,,,-4.45000000e-009,0.00000000e+000
,,,-4.42500000e-009,0.00000000e+000
,,,-4.40000000e-009,3.12500022e-006
,,,-4.37500000e-009,9.37500066e-006
,,,-4.35000000e-009,1.56250011e-005
,,,-4.32500000e-009,2.03125014e-005
,,,-4.30000000e-009,2.18750015e-005
,,,-4.27500000e-009,1.95312514e-005
,,,-4.25000000e-009,1.25000009e-005
,,,-4.22500000e-009,0.00000000e+000
,,,-4.20000000e-009,-1.87500013e-005
,,,-4.17500000e-009,-4.21875030e-005
,,,-4.15000000e-009,-6.95312549e-005
,,,-4.12500000e-009,-9.84375070e-005
,,,-4.10000000e-009,-1.27343759e-004
,,,-4.07500000e-009,-1.55468761e-004
,,,-4.05000000e-009,-1.79687513e-004
,,,-4.02500000e-009,-2.00000014e-004
,,,-4.00000000e-009,-2.12500015e-004
,,,-3.97500000e-009,-2.20312516e-004
,,,-3.95000000e-009,-2.22656266e-004
,,,-3.92500000e-009,-2.21093766e-004
,,,-3.90000000e-009,-2.16406265e-004
,,,-3.87500000e-009,-2.10937515e-004
,,,-3.85000000e-009,-2.04687514e-004
,,,-3.82500000e-009,-2.00000014e-004
,,,-3.80000000e-009,-1.92187514e-004
,,,-3.77500000e-009,-1.86718763e-004
,,,-3.75000000e-009,-1.84375013e-004
,,,-3.72500000e-009,-1.85156263e-004
,,,-3.70000000e-009,-1.87500013e-004
,,,-3.67500000e-009,-1.91406264e-004
,,,-3.65000000e-009,-1.95312514e-004
,,,-3.62500000e-009,-2.00000014e-004
,,,-3.60000000e-009,-2.00781264e-004
,,,-3.57500000e-009,-2.00781264e-004
,,,-3.55000000e-009,-2.00000014e-004
,,,-3.52500000e-009,-1.99218764e-004
,,,-3.50000000e-009,-1.98437514e-004
,,,-3.47500000e-009,-1.98437514e-004
,,,-3.45000000e-009,-1.98437514e-004
,,,-3.42500000e-009,-2.00000014e-004
,,,-3.40000000e-009,-2.00000014e-004
,,,-3.37500000e-009,-2.00781264e-004
,,,-3.35000000e-009,-2.02343764e-004
,,,-3.32500000e-009,-2.03906264e-004
,,,-3.30000000e-009,-2.05468765e-004
,,,-3.27500000e-009,-2.05468765e-004
,,,-3.25000000e-009,-2.03906264e-004
,,,-3.22500000e-009,-2.00000014e-004
,,,-3.20000000e-009,-1.89843763e-004
,,,-3.17500000e-009,-1.76562512e-004
,,,-3.15000000e-009,-1.58593761e-004
,,,-3.12500000e-009,-1.35156260e-004
,,,-3.10000000e-009,-1.07812508e-004
,,,-3.07500000e-009,-7.50000053e-005
,,,-3.05000000e-009,-3.90625028e-005
,,,-3.02500000e-009,0.00000000e+000
,,,-3.00000000e-009,3.90625028e-005
,,,-2.97500000e-009,7.89062556e-005
,,,-2.95000000e-009,1.14843758e-004
,,,-2.92500000e-009,1.47656260e-004
,,,-2.90000000e-009,1.73437512e-004
,,,-2.87500000e-009,1.91406264e-004
,,,-2.85000000e-009,2.00000014e-004
,,,-2.82500000e-009,2.00000014e-004
,,,-2.80000000e-009,1.87500013e-004
,,,-2.77500000e-009,1.67187512e-004
,,,-2.75000000e-009,1.41406260e-004
,,,-2.72500000e-009,1.11718758e-004
,,,-2.70000000e-009,8.04687557e-005
,,,-2.67500000e-009,5.00000035e-005
,,,-2.65000000e-009,2.26562516e-005
,,,-2.62500000e-009,0.00000000e+000
,,,-2.60000000e-009,-1.79687513e-005
,,,-2.57500000e-009,-2.96875021e-005
,,,-2.55000000e-009,-3.51562525e-005
,,,-2.52500000e-009,-3.43750024e-005
,,,-2.50000000e-009,-2.96875021e-005
,,,-2.47500000e-009,-2.03125014e-005
,,,-2.45000000e-009,-1.01562507e-005
,,,-2.42500000e-009,0.00000000e+000
,,,-2.40000000e-009,7.03125050e-006
,,,-2.37500000e-009,1.32812509e-005
,,,-2.35000000e-009,1.64062512e-005
,,,-2.32500000e-009,1.64062512e-005
,,,-2.30000000e-009,1.48437511e-005
,,,-2.27500000e-009,1.09375008e-005
,,,-2.25000000e-009,5.46875039e-006
,,,-2.22500000e-009,0.00000000e+000
,,,-2.20000000e-009,-7.03125050e-006
,,,-2.17500000e-009,-1.32812509e-005
,,,-2.15000000e-009,-1.71875012e-005
,,,-2.12500000e-009,-1.95312514e-005
,,,-2.10000000e-009,-1.79687513e-005
,,,-2.07500000e-009,-1.40625010e-005
,,,-2.05000000e-009,-7.81250055e-006
,,,-2.02500000e-009,0.00000000e+000
,,,-2.00000000e-009,5.46875039e-006
,,,-1.97500000e-009,1.01562507e-005
,,,-1.95000000e-009,1.40625010e-005
,,,-1.92500000e-009,1.64062512e-005
,,,-1.90000000e-009,1.71875012e-005
,,,-1.87500000e-009,1.40625010e-005
,,,-1.85000000e-009,8.59375061e-006
,,,-1.82500000e-009,0.00000000e+000
,,,-1.80000000e-009,-2.10937515e-005
,,,-1.77500000e-009,-4.76562534e-005
,,,-1.75000000e-009,-7.65625054e-005
,,,-1.72500000e-009,-1.07031258e-004
,,,-1.70000000e-009,-1.36718760e-004
,,,-1.67500000e-009,-1.63281262e-004
,,,-1.65000000e-009,-1.84375013e-004
,,,-1.62500000e-009,-2.00000014e-004
,,,-1.60000000e-009,-2.18750015e-004
,,,-1.57500000e-009,-2.33593767e-004
,,,-1.55000000e-009,-2.41406267e-004
,,,-1.52500000e-009,-2.44531267e-004
,,,-1.50000000e-009,-2.40625017e-004
,,,-1.47500000e-009,-2.31250016e-004
,,,-1.45000000e-009,-2.17187515e-004
,,,-1.42500000e-009,-2.00000014e-004
,,,-1.40000000e-009,-1.95312514e-004
,,,-1.37500000e-009,-1.92968764e-004
,,,-1.35000000e-009,-1.92187514e-004
,,,-1.32500000e-009,-1.92187514e-004
,,,-1.30000000e-009,-1.92968764e-004
,,,-1.27500000e-009,-1.93750014e-004
,,,-1.25000000e-009,-1.95312514e-004
,,,-1.22500000e-009,-2.00000014e-004
,,,-1.20000000e-009,-2.28906266e-004
,,,-1.17500000e-009,-2.69531269e-004
,,,-1.15000000e-009,-3.22656273e-004
,,,-1.12500000e-009,-3.89062528e-004
,,,-1.10000000e-009,-4.70312533e-004
,,,-1.07500000e-009,-5.65625040e-004
,,,-1.05000000e-009,-6.75781298e-004
,,,-1.02500000e-009,-8.00000057e-004
,,,-1.00000000e-009,-9.51562567e-004
,,,-9.75000000e-010,-1.11484383e-003
,,,-9.50000000e-010,-1.28281259e-003
,,,-9.25000000e-010,-1.44921885e-003
,,,-9.00000000e-010,-1.60937511e-003
,,,-8.75000000e-010,-1.75703137e-003
,,,-8.50000000e-010,-1.88750013e-003
,,,-8.25000000e-010,-2.00000014e-003
,,,-8.00000000e-010,-2.09921890e-003
,,,-7.75000000e-010,-2.18515640e-003
,,,-7.50000000e-010,-2.25937516e-003
,,,-7.25000000e-010,-2.32578141e-003
,,,-7.00000000e-010,-2.38984392e-003
,,,-6.75000000e-010,-2.45390642e-003
,,,-6.50000000e-010,-2.52265643e-003
,,,-6.25000000e-010,-2.60000018e-003
,,,-6.00000000e-010,-2.68984394e-003
,,,-5.75000000e-010,-2.79453145e-003
,,,-5.50000000e-010,-2.91406271e-003
,,,-5.25000000e-010,-3.04453147e-003
,,,-5.00000000e-010,-3.18281273e-003
,,,-4.75000000e-010,-3.32421899e-003
,,,-4.50000000e-010,-3.46484400e-003
,,,-4.25000000e-010,-3.60000025e-003
,,,-4.00000000e-010,-3.71953151e-003
,,,-3.75000000e-010,-3.83359402e-003
,,,-3.50000000e-010,-3.94140653e-003
,,,-3.25000000e-010,-4.04296904e-003
,,,-3.00000000e-010,-4.13828154e-003
,,,-2.75000000e-010,-4.22968780e-003
,,,-2.50000000e-010,-4.31640656e-003
,,,-2.25000000e-010,-4.40000031e-003
,,,-2.00000000e-010,-4.46484407e-003
,,,-1.75000000e-010,-4.53281282e-003
,,,-1.50000000e-010,-4.60468783e-003
,,,-1.25000000e-010,-4.68125033e-003
,,,-1.00000000e-010,-4.76093784e-003
,,,-7.50000000e-011,-4.84218784e-003
,,,-5.00000000e-011,-4.92265660e-003
,,,-2.50000000e-011,-5.00000035e-003
,,,0.00000000e+000,-5.04687536e-003
,,,2.50000000e-011,-5.08984411e-003
,,,5.00000000e-011,-5.12656286e-003
,,,7.50000000e-011,-5.15703162e-003
,,,1.00000000e-010,-5.18046912e-003
,,,1.25000000e-010,-5.19531287e-003
,,,1.50000000e-010,-5.20234412e-003
,,,1.75000000e-010,-5.20000037e-003
,,,2.00000000e-010,-5.16406287e-003
,,,2.25000000e-010,-5.12500036e-003
,,,2.50000000e-010,-5.08671911e-003
,,,2.75000000e-010,-5.05156286e-003
,,,3.00000000e-010,-5.02343786e-003
,,,3.25000000e-010,-5.00468785e-003
,,,3.50000000e-010,-4.99687535e-003
,,,3.75000000e-010,-5.00000035e-003
,,,4.00000000e-010,-4.98906285e-003
,,,4.25000000e-010,-4.98750035e-003
,,,4.50000000e-010,-4.99218785e-003
,,,4.75000000e-010,-5.00078160e-003
,,,5.00000000e-010,-5.00937535e-003
,,,5.25000000e-010,-5.01484410e-003
,,,5.50000000e-010,-5.01250035e-003
,,,5.75000000e-010,-5.00000035e-003
,,,6.00000000e-010,-4.95234410e-003
,,,6.25000000e-010,-4.89140660e-003
,,,6.50000000e-010,-4.81953159e-003
,,,6.75000000e-010,-4.73906284e-003
,,,7.00000000e-010,-4.65468783e-003
,,,7.25000000e-010,-4.56796907e-003
,,,7.50000000e-010,-4.48281282e-003
,,,7.75000000e-010,-4.40000031e-003
,,,8.00000000e-010,-4.30468780e-003
,,,8.25000000e-010,-4.21015655e-003
,,,8.50000000e-010,-4.11640654e-003
,,,8.75000000e-010,-4.02187528e-003
,,,9.00000000e-010,-3.92421903e-003
,,,9.25000000e-010,-3.82187527e-003
,,,9.50000000e-010,-3.71406276e-003
,,,9.75000000e-010,-3.60000025e-003
,,,1.00000000e-009,-3.47187525e-003
,,,1.02500000e-009,-3.33750024e-003
,,,1.05000000e-009,-3.19843773e-003
,,,1.07500000e-009,-3.06015647e-003
,,,1.10000000e-009,-2.92734396e-003
,,,1.12500000e-009,-2.80390645e-003
,,,1.15000000e-009,-2.69375019e-003
,,,1.17500000e-009,-2.60000018e-003
,,,1.20000000e-009,-2.52343768e-003
,,,1.22500000e-009,-2.45937517e-003
,,,1.25000000e-009,-2.40625017e-003
,,,1.27500000e-009,-2.36093767e-003
,,,1.30000000e-009,-2.32031266e-003
,,,1.32500000e-009,-2.28203141e-003
,,,1.35000000e-009,-2.24296891e-003
,,,1.37500000e-009,-2.20000016e-003
,,,1.40000000e-009,-2.15390640e-003
,,,1.42500000e-009,-2.09609390e-003
,,,1.45000000e-009,-2.02734389e-003
,,,1.47500000e-009,-1.94921889e-003
,,,1.50000000e-009,-1.86406263e-003
,,,1.52500000e-009,-1.77500013e-003
,,,1.55000000e-009,-1.68593762e-003
,,,1.57500000e-009,-1.60000011e-003
,,,1.60000000e-009,-1.52812511e-003
,,,1.62500000e-009,-1.46093760e-003
,,,1.65000000e-009,-1.39921885e-003
,,,1.67500000e-009,-1.34453135e-003
,,,1.70000000e-009,-1.29687509e-003
,,,1.72500000e-009,-1.25703134e-003
,,,1.75000000e-009,-1.22500009e-003
,,,1.77500000e-009,-1.20000008e-003
,,,1.80000000e-009,-1.19062508e-003
,,,1.82500000e-009,-1.18046883e-003
,,,1.85000000e-009,-1.16640633e-003
,,,1.87500000e-009,-1.14765633e-003
,,,1.90000000e-009,-1.12187508e-003
,,,1.92500000e-009,-1.08828133e-003
,,,1.95000000e-009,-1.04765632e-003
,,,1.97500000e-009,-1.00000007e-003
,,,2.00000000e-009,-9.53906318e-004
,,,2.02500000e-009,-9.01562564e-004
,,,2.05000000e-009,-8.44531310e-004
,,,2.07500000e-009,-7.85937556e-004
,,,2.10000000e-009,-7.28906302e-004
,,,2.12500000e-009,-6.77343798e-004
,,,2.15000000e-009,-6.33593795e-004
,,,2.17500000e-009,-6.00000042e-004
,,,2.20000000e-009,-5.83593791e-004
,,,2.22500000e-009,-5.75781291e-004
,,,2.25000000e-009,-5.75000041e-004
,,,2.27500000e-009,-5.78125041e-004
,,,2.30000000e-009,-5.84375041e-004
,,,2.32500000e-009,-5.91406292e-004
,,,2.35000000e-009,-5.96875042e-004
,,,2.37500000e-009,-6.00000042e-004
,,,2.40000000e-009,-6.03906293e-004
,,,2.42500000e-009,-6.02343793e-004
,,,2.45000000e-009,-5.97656292e-004
,,,2.47500000e-009,-5.91406292e-004
,,,2.50000000e-009,-5.85937541e-004
,,,2.52500000e-009,-5.83593791e-004
,,,2.55000000e-009,-5.87500042e-004
,,,2.57500000e-009,-6.00000042e-004
,,,2.60000000e-009,-6.21093794e-004
,,,2.62500000e-009,-6.48437546e-004
,,,2.65000000e-009,-6.78906298e-004
,,,2.67500000e-009,-7.10937550e-004
,,,2.70000000e-009,-7.41406302e-004
,,,2.72500000e-009,-7.67968804e-004
,,,2.75000000e-009,-7.88281306e-004
,,,2.77500000e-009,-8.00000057e-004
,,,2.80000000e-009,-8.00000057e-004
,,,2.82500000e-009,-7.89843806e-004
,,,2.85000000e-009,-7.70312555e-004
,,,2.87500000e-009,-7.42187553e-004
,,,2.90000000e-009,-7.08593800e-004
,,,2.92500000e-009,-6.71875048e-004
,,,2.95000000e-009,-6.35156295e-004
,,,2.97500000e-009,-6.00000042e-004
,,,3.00000000e-009,-5.67187540e-004
,,,3.02500000e-009,-5.37500038e-004
,,,3.05000000e-009,-5.10937536e-004
,,,3.07500000e-009,-4.87500035e-004
,,,3.10000000e-009,-4.65625033e-004
,,,3.12500000e-009,-4.44531281e-004
,,,3.15000000e-009,-4.22656280e-004
,,,3.17500000e-009,-4.00000028e-004
,,,3.20000000e-009,-3.75000027e-004
,,,3.22500000e-009,-3.48437525e-004
,,,3.25000000e-009,-3.20312523e-004
,,,3.27500000e-009,-2.92187521e-004
,,,3.30000000e-009,-2.64843769e-004
,,,3.32500000e-009,-2.39062517e-004
,,,3.35000000e-009,-2.17187515e-004
,,,3.37500000e-009,-2.00000014e-004
,,,3.40000000e-009,-1.89062513e-004
,,,3.42500000e-009,-1.83593763e-004
,,,3.45000000e-009,-1.82031263e-004
,,,3.47500000e-009,-1.83593763e-004
,,,3.50000000e-009,-1.87500013e-004
,,,3.52500000e-009,-1.91406264e-004
,,,3.55000000e-009,-1.96093764e-004
,,,3.57500000e-009,-2.00000014e-004
,,,3.60000000e-009,-2.05468765e-004
,,,3.62500000e-009,-2.08593765e-004
,,,3.65000000e-009,-2.10156265e-004
,,,3.67500000e-009,-2.10156265e-004
,,,3.70000000e-009,-2.07812515e-004
,,,3.72500000e-009,-2.05468765e-004
,,,3.75000000e-009,-2.02343764e-004
,,,3.77500000e-009,-2.00000014e-004
,,,3.80000000e-009,-2.00781264e-004
,,,3.82500000e-009,-2.01562514e-004
,,,3.85000000e-009,-2.02343764e-004
,,,3.87500000e-009,-2.03125014e-004
,,,3.90000000e-009,-2.03125014e-004
,,,3.92500000e-009,-2.03125014e-004
,,,3.95000000e-009,-2.01562514e-004
,,,3.97500000e-009,-2.00000014e-004
,,,4.00000000e-009,-1.99218764e-004
,,,4.02500000e-009,-1.98437514e-004
,,,4.05000000e-009,-1.96875014e-004
,,,4.07500000e-009,-1.95312514e-004
,,,4.10000000e-009,-1.93750014e-004
,,,4.12500000e-009,-1.93750014e-004
,,,4.15000000e-009,-1.95312514e-004
,,,4.17500000e-009,-2.00000014e-004
,,,4.20000000e-009,-2.10156265e-004
,,,4.22500000e-009,-2.25000016e-004
,,,4.25000000e-009,-2.43750017e-004
,,,4.27500000e-009,-2.67187519e-004
,,,4.30000000e-009,-2.95312521e-004
,,,4.32500000e-009,-3.26562523e-004
,,,4.35000000e-009,-3.61718776e-004
,,,4.37500000e-009,-4.00000028e-004
,,,4.40000000e-009,-4.37500031e-004
,,,4.42500000e-009,-4.74218784e-004
,,,4.45000000e-009,-5.08593786e-004
,,,4.47500000e-009,-5.39843788e-004
,,,4.50000000e-009,-5.65625040e-004
,,,4.52500000e-009,-5.84375041e-004
,,,4.55000000e-009,-5.96093792e-004
,,,4.57500000e-009,-6.00000042e-004
,,,4.60000000e-009,-5.92187542e-004
,,,4.62500000e-009,-5.76562541e-004
,,,4.65000000e-009,-5.54687539e-004
,,,4.67500000e-009,-5.27343787e-004
,,,4.70000000e-009,-4.96875035e-004
,,,4.72500000e-009,-4.64062533e-004
,,,4.75000000e-009,-4.30468780e-004
,,,4.77500000e-009,-4.00000028e-004
,,,4.80000000e-009,-3.71093776e-004
,,,4.82500000e-009,-3.48437525e-004
,,,4.85000000e-009,-3.34375024e-004
,,,4.87500000e-009,-3.28906273e-004
,,,4.90000000e-009,-3.32812524e-004
,,,4.92500000e-009,-3.46875025e-004
,,,4.95000000e-009,-3.69531276e-004
,,,4.97500000e-009,-4.00000028e-004
,,,5.00000000e-009,-4.33593781e-004
,,,5.02500000e-009,-4.70312533e-004
,,,5.05000000e-009,-5.07031286e-004
,,,5.07500000e-009,-5.40625038e-004
,,,5.10000000e-009,-5.68750040e-004
,,,5.12500000e-009,-5.89062542e-004
,,,5.15000000e-009,-5.99218792e-004
,,,5.17500000e-009,-6.00000042e-004
,,,5.20000000e-009,-5.85937541e-004
,,,5.22500000e-009,-5.64062540e-004
,,,5.25000000e-009,-5.35937538e-004
,,,5.27500000e-009,-5.03906286e-004
,,,5.30000000e-009,-4.71875033e-004
,,,5.32500000e-009,-4.42187531e-004
,,,5.35000000e-009,-4.17187530e-004
,,,5.37500000e-009,-4.00000028e-004
,,,5.40000000e-009,-3.88281277e-004
,,,5.42500000e-009,-3.84375027e-004
,,,5.45000000e-009,-3.85937527e-004
,,,5.47500000e-009,-3.90625028e-004
,,,5.50000000e-009,-3.97656278e-004
,,,5.52500000e-009,-4.02343778e-004
,,,5.55000000e-009,-4.03906279e-004
,,,5.57500000e-009,-4.00000028e-004
,,,5.60000000e-009,-3.88281277e-004
,,,5.62500000e-009,-3.69531276e-004
,,,5.65000000e-009,-3.45312524e-004
,,,5.67500000e-009,-3.15625022e-004
,,,5.70000000e-009,-2.84375020e-004
,,,5.72500000e-009,-2.53125018e-004
,,,5.75000000e-009,-2.24218766e-004
,,,5.77500000e-009,-2.00000014e-004
,,,5.80000000e-009,-1.82031263e-004
,,,5.82500000e-009,-1.71093762e-004
,,,5.85000000e-009,-1.67187512e-004
,,,5.87500000e-009,-1.67968762e-004
