RawData/SinglePhotoelectron/R5_2pt2B_5mV/wave006_Ch2.csv

"Record Length",1000,"Points",-7.72500000e-009,4.92187535e-005
"Sample Interval",2.50000000e-011,s,-7.70000000e-009,7.57812554e-005
"Trigger Point",309,"Samples",-7.67500000e-009,1.03906257e-004
"Trigger Time",1.19937609e-011,s,-7.65000000e-009,1.31250009e-004
"",,,-7.62500000e-009,1.57031261e-004
"Horizontal Offset",-7.72500000e-009,s,-7.60000000e-009,1.79687513e-004
,,,-7.57500000e-009,2.00000014e-004
,,,-7.55000000e-009,2.12500015e-004
,,,-7.52500000e-009,2.20312516e-004
,,,-7.50000000e-009,2.23437516e-004
,,,-7.47500000e-009,2.23437516e-004
,,,-7.45000000e-009,2.19531266e-004
,,,-7.42500000e-009,2.14062515e-004
,,,-7.40000000e-009,2.07031265e-004
,,,-7.37500000e-009,2.00000014e-004
,,,-7.35000000e-009,1.91406264e-004
,,,-7.32500000e-009,1.85156263e-004
,,,-7.30000000e-009,1.81250013e-004
,,,-7.27500000e-009,1.79687513e-004
,,,-7.25000000e-009,1.81250013e-004
,,,-7.22500000e-009,1.85937513e-004
,,,-7.20000000e-009,1.92187514e-004
,,,-7.17500000e-009,2.00000014e-004
,,,-7.15000000e-009,2.04687514e-004
,,,-7.12500000e-009,2.09375015e-004
,,,-7.10000000e-009,2.14062515e-004
,,,-7.07500000e-009,2.16406265e-004
,,,-7.05000000e-009,2.17187515e-004
,,,-7.02500000e-009,2.15625015e-004
,,,-7.00000000e-009,2.09375015e-004
,,,-6.97500000e-009,2.00000014e-004
,,,-6.95000000e-009,1.83593763e-004
,,,-6.92500000e-009,1.64062512e-004
,,,-6.90000000e-009,1.41406260e-004
,,,-6.87500000e-009,1.15625008e-004
,,,-6.85000000e-009,8.75000062e-005
,,,-6.82500000e-009,5.85937541e-005
,,,-6.80000000e-009,2.81250020e-005
,,,-6.77500000e-009,0.00000000e+000
,,,-6.75000000e-009,-2.42187517e-005
,,,-6.72500000e-009,-4.45312532e-005
,,,-6.70000000e-009,-5.78125041e-005
,,,-6.67500000e-009,-6.32812545e-005
,,,-6.65000000e-009,-6.09375043e-005
,,,-6.62500000e-009,-4.84375034e-005
,,,-6.60000000e-009,-2.81250020e-005
,,,-6.57500000e-009,0.00000000e+000
,,,-6.55000000e-009,3.43750024e-005
,,,-6.52500000e-009,7.26562551e-005
,,,-6.50000000e-009,1.10156258e-004
,,,-6.47500000e-009,1.43750010e-004
,,,-6.45000000e-009,1.72656262e-004
,,,-6.42500000e-009,1.92187514e-004
,,,-6.40000000e-009,2.01562514e-004
,,,-6.37500000e-009,2.00000014e-004
,,,-6.35000000e-009,1.85156263e-004
,,,-6.32500000e-009,1.60937511e-004
,,,-6.30000000e-009,1.30468759e-004
,,,-6.27500000e-009,9.60937568e-005
,,,-6.25000000e-009,6.25000044e-005
,,,-6.22500000e-009,3.35937524e-005
,,,-6.20000000e-009,1.17187508e-005
,,,-6.17500000e-009,0.00000000e+000
,,,-6.15000000e-009,0.00000000e+000
,,,-6.12500000e-009,9.37500066e-006
,,,-6.10000000e-009,3.04687522e-005
,,,-6.07500000e-009,5.93750042e-005
,,,-6.05000000e-009,9.37500066e-005
,,,-6.02500000e-009,1.30468759e-004
,,,-6.00000000e-009,1.66406262e-004
,,,-5.97500000e-009,2.00000014e-004
,,,-5.95000000e-009,2.23437516e-004
,,,-5.92500000e-009,2.39843767e-004
,,,-5.90000000e-009,2.47656268e-004
,,,-5.87500000e-009,2.48437518e-004
,,,-5.85000000e-009,2.42187517e-004
,,,-5.82500000e-009,2.31250016e-004
,,,-5.80000000e-009,2.16406265e-004
,,,-5.77500000e-009,2.00000014e-004
,,,-5.75000000e-009,1.78906263e-004
,,,-5.72500000e-009,1.57031261e-004
,,,-5.70000000e-009,1.34375010e-004
,,,-5.67500000e-009,1.11718758e-004
,,,-5.65000000e-009,8.67187561e-005
,,,-5.62500000e-009,6.01562543e-005
,,,-5.60000000e-009,3.12500022e-005
,,,-5.57500000e-009,0.00000000e+000
,,,-5.55000000e-009,-3.43750024e-005
,,,-5.52500000e-009,-7.03125050e-005
,,,-5.50000000e-009,-1.03906257e-004
,,,-5.47500000e-009,-1.35156260e-004
,,,-5.45000000e-009,-1.61718761e-004
,,,-5.42500000e-009,-1.82031263e-004
,,,-5.40000000e-009,-1.94531264e-004
,,,-5.37500000e-009,-2.00000014e-004
,,,-5.35000000e-009,-1.98437514e-004
,,,-5.32500000e-009,-1.92968764e-004
,,,-5.30000000e-009,-1.85156263e-004
,,,-5.27500000e-009,-1.78125013e-004
,,,-5.25000000e-009,-1.74218762e-004
,,,-5.22500000e-009,-1.75000012e-004
,,,-5.20000000e-009,-1.83593763e-004
,,,-5.17500000e-009,-2.00000014e-004
,,,-5.15000000e-009,-2.23437516e-004
,,,-5.12500000e-009,-2.53125018e-004
,,,-5.10000000e-009,-2.85937520e-004
,,,-5.07500000e-009,-3.20312523e-004
,,,-5.05000000e-009,-3.51562525e-004
,,,-5.02500000e-009,-3.76562527e-004
,,,-5.00000000e-009,-3.93750028e-004
,,,-4.97500000e-009,-4.00000028e-004
,,,-4.95000000e-009,-3.90625028e-004
,,,-4.92500000e-009,-3.72656276e-004
,,,-4.90000000e-009,-3.45312524e-004
,,,-4.87500000e-009,-3.13281272e-004
,,,-4.85000000e-009,-2.78906270e-004
,,,-4.82500000e-009,-2.46875017e-004
,,,-4.80000000e-009,-2.19531266e-004
,,,-4.77500000e-009,-2.00000014e-004
,,,-4.75000000e-009,-1.89062513e-004
,,,-4.72500000e-009,-1.89843763e-004
,,,-4.70000000e-009,-2.03906264e-004
,,,-4.67500000e-009,-2.28906266e-004
,,,-4.65000000e-009,-2.63281269e-004
,,,-4.62500000e-009,-3.04687522e-004
,,,-4.60000000e-009,-3.51562525e-004
,,,-4.57500000e-009,-4.00000028e-004
,,,-4.55000000e-009,-4.44531281e-004
,,,-4.52500000e-009,-4.85156284e-004
,,,-4.50000000e-009,-5.21875037e-004
,,,-4.47500000e-009,-5.51562539e-004
,,,-4.45000000e-009,-5.75000041e-004
,,,-4.42500000e-009,-5.90625042e-004
,,,-4.40000000e-009,-5.98437542e-004
,,,-4.37500000e-009,-6.00000042e-004
,,,-4.35000000e-009,-5.89062542e-004
,,,-4.32500000e-009,-5.72656291e-004
,,,-4.30000000e-009,-5.50000039e-004
,,,-4.27500000e-009,-5.24218787e-004
,,,-4.25000000e-009,-4.95312535e-004
,,,-4.22500000e-009,-4.64062533e-004
,,,-4.20000000e-009,-4.32031281e-004
,,,-4.17500000e-009,-4.00000028e-004
,,,-4.15000000e-009,-3.65625026e-004
,,,-4.12500000e-009,-3.32812524e-004
,,,-4.10000000e-009,-3.03125021e-004
,,,-4.07500000e-009,-2.75781270e-004
,,,-4.05000000e-009,-2.51562518e-004
,,,-4.02500000e-009,-2.30468766e-004
,,,-4.00000000e-009,-2.13281265e-004
,,,-3.97500000e-009,-2.00000014e-004
,,,-3.95000000e-009,-1.89843763e-004
,,,-3.92500000e-009,-1.83593763e-004
,,,-3.90000000e-009,-1.80468763e-004
,,,-3.87500000e-009,-1.79687513e-004
,,,-3.85000000e-009,-1.82031263e-004
,,,-3.82500000e-009,-1.85937513e-004
,,,-3.80000000e-009,-1.92187514e-004
,,,-3.77500000e-009,-2.00000014e-004
,,,-3.75000000e-009,-2.06250015e-004
,,,-3.72500000e-009,-2.12500015e-004
,,,-3.70000000e-009,-2.17187515e-004
,,,-3.67500000e-009,-2.20312516e-004
,,,-3.65000000e-009,-2.20312516e-004
,,,-3.62500000e-009,-2.17187515e-004
,,,-3.60000000e-009,-2.10156265e-004
,,,-3.57500000e-009,-2.00000014e-004
,,,-3.55000000e-009,-1.85156263e-004
,,,-3.52500000e-009,-1.66406262e-004
,,,-3.50000000e-009,-1.44531260e-004
,,,-3.47500000e-009,-1.18750008e-004
,,,-3.45000000e-009,-8.98437564e-005
,,,-3.42500000e-009,-5.93750042e-005
,,,-3.40000000e-009,-2.89062520e-005
,,,-3.37500000e-009,0.00000000e+000
,,,-3.35000000e-009,2.18750015e-005
,,,-3.32500000e-009,3.98437528e-005
,,,-3.30000000e-009,5.15625036e-005
,,,-3.27500000e-009,5.70312540e-005
,,,-3.25000000e-009,5.46875039e-005
,,,-3.22500000e-009,4.37500031e-005
,,,-3.20000000e-009,2.50000018e-005
,,,-3.17500000e-009,0.00000000e+000
,,,-3.15000000e-009,-3.43750024e-005
,,,-3.12500000e-009,-7.18750051e-005
,,,-3.10000000e-009,-1.09375008e-004
,,,-3.07500000e-009,-1.42968760e-004
,,,-3.05000000e-009,-1.71875012e-004
,,,-3.02500000e-009,-1.91406264e-004
,,,-3.00000000e-009,-2.00781264e-004
,,,-2.97500000e-009,-2.00000014e-004
,,,-2.95000000e-009,-1.88281263e-004
,,,-2.92500000e-009,-1.67187512e-004
,,,-2.90000000e-009,-1.39843760e-004
,,,-2.87500000e-009,-1.07031258e-004
,,,-2.85000000e-009,-7.42187553e-005
,,,-2.82500000e-009,-4.29687530e-005
,,,-2.80000000e-009,-1.71875012e-005
,,,-2.77500000e-009,0.00000000e+000
,,,-2.75000000e-009,4.68750033e-006
,,,-2.72500000e-009,-7.81250055e-007
,,,-2.70000000e-009,-1.71875012e-005
,,,-2.67500000e-009,-4.29687530e-005
,,,-2.65000000e-009,-7.65625054e-005
,,,-2.62500000e-009,-1.15625008e-004
,,,-2.60000000e-009,-1.57031261e-004
,,,-2.57500000e-009,-2.00000014e-004
,,,-2.55000000e-009,-2.41406267e-004
,,,-2.52500000e-009,-2.78906270e-004
,,,-2.50000000e-009,-3.11718772e-004
,,,-2.47500000e-009,-3.39843774e-004
,,,-2.45000000e-009,-3.61718776e-004
,,,-2.42500000e-009,-3.78906277e-004
,,,-2.40000000e-009,-3.91406278e-004
,,,-2.37500000e-009,-4.00000028e-004
,,,-2.35000000e-009,-4.02343778e-004
,,,-2.32500000e-009,-4.02343778e-004
,,,-2.30000000e-009,-4.01562528e-004
,,,-2.27500000e-009,-4.00781278e-004
,,,-2.25000000e-009,-3.99218778e-004
,,,-2.22500000e-009,-3.98437528e-004
,,,-2.20000000e-009,-3.98437528e-004
,,,-2.17500000e-009,-4.00000028e-004
,,,-2.15000000e-009,-3.99218778e-004
,,,-2.12500000e-009,-4.00000028e-004
,,,-2.10000000e-009,-4.01562528e-004
,,,-2.07500000e-009,-4.03125029e-004
,,,-2.05000000e-009,-4.03906279e-004
,,,-2.02500000e-009,-4.03906279e-004
,,,-2.00000000e-009,-4.02343778e-004
,,,-1.97500000e-009,-4.00000028e-004
,,,-1.95000000e-009,-3.94531278e-004
,,,-1.92500000e-009,-3.89062528e-004
,,,-1.90000000e-009,-3.83593777e-004
,,,-1.87500000e-009,-3.80468777e-004
,,,-1.85000000e-009,-3.80468777e-004
,,,-1.82500000e-009,-3.83593777e-004
,,,-1.80000000e-009,-3.89843778e-004
,,,-1.77500000e-009,-4.00000028e-004
,,,-1.75000000e-009,-4.09375029e-004
,,,-1.72500000e-009,-4.19531280e-004
,,,-1.70000000e-009,-4.29687530e-004
,,,-1.67500000e-009,-4.36718781e-004
,,,-1.65000000e-009,-4.38281281e-004
,,,-1.62500000e-009,-4.33593781e-004
,,,-1.60000000e-009,-4.20312530e-004
,,,-1.57500000e-009,-4.00000028e-004
,,,-1.55000000e-009,-3.72656276e-004
,,,-1.52500000e-009,-3.41406274e-004
,,,-1.50000000e-009,-3.07031272e-004
,,,-1.47500000e-009,-2.74218769e-004
,,,-1.45000000e-009,-2.43750017e-004
,,,-1.42500000e-009,-2.20312516e-004
,,,-1.40000000e-009,-2.04687514e-004
,,,-1.37500000e-009,-2.00000014e-004
,,,-1.35000000e-009,-2.14843765e-004
,,,-1.32500000e-009,-2.41406267e-004
,,,-1.30000000e-009,-2.74218769e-004
,,,-1.27500000e-009,-3.10937522e-004
,,,-1.25000000e-009,-3.45312524e-004
,,,-1.22500000e-009,-3.74218776e-004
,,,-1.20000000e-009,-3.92968778e-004
,,,-1.17500000e-009,-4.00000028e-004
,,,-1.15000000e-009,-4.07031279e-004
,,,-1.12500000e-009,-4.03125029e-004
,,,-1.10000000e-009,-3.87500027e-004
,,,-1.07500000e-009,-3.62500026e-004
,,,-1.05000000e-009,-3.28125023e-004
,,,-1.02500000e-009,-2.87500020e-004
,,,-1.00000000e-009,-2.43750017e-004
,,,-9.75000000e-010,-2.00000014e-004
,,,-9.50000000e-010,-1.84375013e-004
,,,-9.25000000e-010,-1.77343763e-004
,,,-9.00000000e-010,-1.76562512e-004
,,,-8.75000000e-010,-1.80468763e-004
,,,-8.50000000e-010,-1.86718763e-004
,,,-8.25000000e-010,-1.92187514e-004
,,,-8.00000000e-010,-1.96093764e-004
,,,-7.75000000e-010,-2.00000014e-004
,,,-7.50000000e-010,-2.39062517e-004
,,,-7.25000000e-010,-2.87500020e-004
,,,-7.00000000e-010,-3.45312524e-004
,,,-6.75000000e-010,-4.12500029e-004
,,,-6.50000000e-010,-4.90625035e-004
,,,-6.25000000e-010,-5.80468791e-004
,,,-6.00000000e-010,-6.83593798e-004
,,,-5.75000000e-010,-8.00000057e-004
,,,-5.50000000e-010,-9.64062568e-004
,,,-5.25000000e-010,-1.14453133e-003
,,,-5.00000000e-010,-1.33437509e-003
,,,-4.75000000e-010,-1.52656261e-003
,,,-4.50000000e-010,-1.71406262e-003
,,,-4.25000000e-010,-1.89140638e-003
,,,-4.00000000e-010,-2.05390640e-003
,,,-3.75000000e-010,-2.20000016e-003
,,,-3.50000000e-010,-2.35468767e-003
,,,-3.25000000e-010,-2.50234393e-003
,,,-3.00000000e-010,-2.64453144e-003
,,,-2.75000000e-010,-2.78437520e-003
,,,-2.50000000e-010,-2.92578146e-003
,,,-2.25000000e-010,-3.07265647e-003
,,,-2.00000000e-010,-3.22968773e-003
,,,-1.75000000e-010,-3.40000024e-003
,,,-1.50000000e-010,-3.60234400e-003
,,,-1.25000000e-010,-3.82734402e-003
,,,-1.00000000e-010,-4.07187529e-003
,,,-7.50000000e-011,-4.33125031e-003
,,,-5.00000000e-011,-4.60000033e-003
,,,-2.50000000e-011,-4.87109409e-003
,,,0.00000000e+000,-5.13906286e-003
,,,2.50000000e-011,-5.40000038e-003
,,,5.00000000e-011,-5.64609415e-003
,,,7.50000000e-011,-5.88671917e-003
,,,1.00000000e-010,-6.11953168e-003
,,,1.25000000e-010,-6.34687545e-003
,,,1.50000000e-010,-6.56796921e-003
,,,1.75000000e-010,-6.78359423e-003
,,,2.00000000e-010,-6.99375050e-003
,,,2.25000000e-010,-7.20000051e-003
,,,2.50000000e-010,-7.38046927e-003
,,,2.75000000e-010,-7.56328179e-003
,,,3.00000000e-010,-7.74843805e-003
,,,3.25000000e-010,-7.93359431e-003
,,,3.50000000e-010,-8.11484432e-003
,,,3.75000000e-010,-8.28906309e-003
,,,4.00000000e-010,-8.45156310e-003
,,,4.25000000e-010,-8.60000061e-003
,,,4.50000000e-010,-8.69609437e-003
,,,4.75000000e-010,-8.78281312e-003
,,,5.00000000e-010,-8.86171938e-003
,,,5.25000000e-010,-8.93593813e-003
,,,5.50000000e-010,-9.00625064e-003
,,,5.75000000e-010,-9.07343814e-003
,,,6.00000000e-010,-9.13828190e-003
,,,6.25000000e-010,-9.20000065e-003
,,,6.50000000e-010,-9.21875065e-003
,,,6.75000000e-010,-9.24140690e-003
,,,7.00000000e-010,-9.26640691e-003
,,,7.25000000e-010,-9.29531316e-003
,,,7.50000000e-010,-9.32500066e-003
,,,7.75000000e-010,-9.35468816e-003
,,,8.00000000e-010,-9.38046941e-003
,,,8.25000000e-010,-9.40000067e-003
,,,8.50000000e-010,-9.36796941e-003
,,,8.75000000e-010,-9.33359441e-003
,,,9.00000000e-010,-9.29921941e-003
,,,9.25000000e-010,-9.26796941e-003
,,,9.50000000e-010,-9.24218815e-003
,,,9.75000000e-010,-9.22187565e-003
,,,1.00000000e-009,-9.20781315e-003
,,,1.02500000e-009,-9.20000065e-003
,,,1.05000000e-009,-9.15625065e-003
,,,1.07500000e-009,-9.11484440e-003
,,,1.10000000e-009,-9.07421939e-003
,,,1.12500000e-009,-9.03203189e-003
,,,1.15000000e-009,-8.98671939e-003
,,,1.17500000e-009,-8.93437563e-003
,,,1.20000000e-009,-8.87265688e-003
,,,1.22500000e-009,-8.80000062e-003
,,,1.25000000e-009,-8.68125061e-003
,,,1.27500000e-009,-8.55000061e-003
,,,1.30000000e-009,-8.41328185e-003
,,,1.32500000e-009,-8.27421934e-003
,,,1.35000000e-009,-8.13984433e-003
,,,1.37500000e-009,-8.01406307e-003
,,,1.40000000e-009,-7.90078181e-003
,,,1.42500000e-009,-7.80000055e-003
,,,1.45000000e-009,-7.68593804e-003
,,,1.47500000e-009,-7.57656304e-003
,,,1.50000000e-009,-7.46796928e-003
,,,1.52500000e-009,-7.35546927e-003
,,,1.55000000e-009,-7.23593801e-003
,,,1.57500000e-009,-7.10546925e-003
,,,1.60000000e-009,-6.96093799e-003
,,,1.62500000e-009,-6.80000048e-003
,,,1.65000000e-009,-6.60625047e-003
,,,1.67500000e-009,-6.39609420e-003
,,,1.70000000e-009,-6.17421919e-003
,,,1.72500000e-009,-5.95000042e-003
,,,1.75000000e-009,-5.73281291e-003
,,,1.77500000e-009,-5.53046914e-003
,,,1.80000000e-009,-5.35156288e-003
,,,1.82500000e-009,-5.20000037e-003
,,,1.85000000e-009,-5.07109411e-003
,,,1.87500000e-009,-4.96171910e-003
,,,1.90000000e-009,-4.86640659e-003
,,,1.92500000e-009,-4.78046909e-003
,,,1.95000000e-009,-4.69609408e-003
,,,1.97500000e-009,-4.60859408e-003
,,,2.00000000e-009,-4.51171907e-003
,,,2.02500000e-009,-4.40000031e-003
,,,2.05000000e-009,-4.27031280e-003
,,,2.07500000e-009,-4.11562529e-003
,,,2.10000000e-009,-3.94062528e-003
,,,2.12500000e-009,-3.74921902e-003
,,,2.15000000e-009,-3.55156275e-003
,,,2.17500000e-009,-3.35546899e-003
,,,2.20000000e-009,-3.16953147e-003
,,,2.22500000e-009,-3.00000021e-003
,,,2.25000000e-009,-2.86015645e-003
,,,2.27500000e-009,-2.73593769e-003
,,,2.30000000e-009,-2.62656269e-003
,,,2.32500000e-009,-2.52812518e-003
,,,2.35000000e-009,-2.43984392e-003
,,,2.37500000e-009,-2.35781267e-003
,,,2.40000000e-009,-2.27890641e-003
,,,2.42500000e-009,-2.20000016e-003
,,,2.45000000e-009,-2.13281265e-003
,,,2.47500000e-009,-2.05468765e-003
,,,2.50000000e-009,-1.96328139e-003
,,,2.52500000e-009,-1.86015638e-003
,,,2.55000000e-009,-1.74921887e-003
,,,2.57500000e-009,-1.63203137e-003
,,,2.60000000e-009,-1.51406261e-003
,,,2.62500000e-009,-1.40000010e-003
,,,2.65000000e-009,-1.30859384e-003
,,,2.67500000e-009,-1.22031259e-003
,,,2.70000000e-009,-1.13593758e-003
,,,2.72500000e-009,-1.05546882e-003
,,,2.75000000e-009,-9.82031320e-004
,,,2.77500000e-009,-9.14062565e-004
,,,2.80000000e-009,-8.53906310e-004
,,,2.82500000e-009,-8.00000057e-004
,,,2.85000000e-009,-7.65625054e-004
,,,2.87500000e-009,-7.30468802e-004
,,,2.90000000e-009,-6.89843799e-004
,,,2.92500000e-009,-6.43750046e-004
,,,2.95000000e-009,-5.90625042e-004
,,,2.97500000e-009,-5.31250038e-004
,,,3.00000000e-009,-4.67187533e-004
,,,3.02500000e-009,-4.00000028e-004
,,,3.05000000e-009,-3.46875025e-004
,,,3.07500000e-009,-2.93750021e-004
,,,3.10000000e-009,-2.43750017e-004
,,,3.12500000e-009,-2.01562514e-004
,,,3.15000000e-009,-1.72656262e-004
,,,3.17500000e-009,-1.60156261e-004
,,,3.20000000e-009,-1.68750012e-004
,,,3.22500000e-009,-2.00000014e-004
,,,3.25000000e-009,-2.62500019e-004
,,,3.27500000e-009,-3.39843774e-004
,,,3.30000000e-009,-4.26562530e-004
,,,3.32500000e-009,-5.16406287e-004
,,,3.35000000e-009,-6.04687543e-004
,,,3.37500000e-009,-6.84375048e-004
,,,3.40000000e-009,-7.50781303e-004
,,,3.42500000e-009,-8.00000057e-004
,,,3.45000000e-009,-8.31250059e-004
,,,3.47500000e-009,-8.39843809e-004
,,,3.50000000e-009,-8.26562559e-004
,,,3.52500000e-009,-7.96875056e-004
,,,3.55000000e-009,-7.53906303e-004
,,,3.57500000e-009,-7.03125050e-004
,,,3.60000000e-009,-6.50000046e-004
,,,3.62500000e-009,-6.00000042e-004
,,,3.65000000e-009,-5.56250039e-004
,,,3.67500000e-009,-5.18750037e-004
,,,3.70000000e-009,-4.89062535e-004
,,,3.72500000e-009,-4.66406283e-004
,,,3.75000000e-009,-4.47656282e-004
,,,3.77500000e-009,-4.32031281e-004
,,,3.80000000e-009,-4.16406279e-004
,,,3.82500000e-009,-4.00000028e-004
,,,3.85000000e-009,-3.80468777e-004
,,,3.87500000e-009,-3.58593775e-004
,,,3.90000000e-009,-3.32031274e-004
,,,3.92500000e-009,-3.03906272e-004
,,,3.95000000e-009,-2.75000019e-004
,,,3.97500000e-009,-2.46093767e-004
,,,4.00000000e-009,-2.21093766e-004
,,,4.02500000e-009,-2.00000014e-004
,,,4.05000000e-009,-1.84375013e-004
,,,4.07500000e-009,-1.75781262e-004
,,,4.10000000e-009,-1.71875012e-004
,,,4.12500000e-009,-1.73437512e-004
,,,4.15000000e-009,-1.78125013e-004
,,,4.17500000e-009,-1.85156263e-004
,,,4.20000000e-009,-1.92187514e-004
,,,4.22500000e-009,-2.00000014e-004
,,,4.25000000e-009,-2.05468765e-004
,,,4.27500000e-009,-2.09375015e-004
,,,4.30000000e-009,-2.10937515e-004
,,,4.32500000e-009,-2.10937515e-004
,,,4.35000000e-009,-2.08593765e-004
,,,4.37500000e-009,-2.06250015e-004
,,,4.40000000e-009,-2.03125014e-004
,,,4.42500000e-009,-2.00000014e-004
,,,4.45000000e-009,-2.00000014e-004
,,,4.47500000e-009,-2.00781264e-004
,,,4.50000000e-009,-2.01562514e-004
,,,4.52500000e-009,-2.02343764e-004
,,,4.55000000e-009,-2.02343764e-004
,,,4.57500000e-009,-2.02343764e-004
,,,4.60000000e-009,-2.00781264e-004
,,,4.62500000e-009,-2.00000014e-004
,,,4.65000000e-009,-2.00000014e-004
,,,4.67500000e-009,-2.00000014e-004
,,,4.70000000e-009,-1.99218764e-004
,,,4.72500000e-009,-1.98437514e-004
,,,4.75000000e-009,-1.98437514e-004
,,,4.77500000e-009,-1.97656264e-004
,,,4.80000000e-009,-1.98437514e-004
,,,4.82500000e-009,-2.00000014e-004
,,,4.85000000e-009,-2.02343764e-004
,,,4.87500000e-009,-2.04687514e-004
,,,4.90000000e-009,-2.07031265e-004
,,,4.92500000e-009,-2.08593765e-004
,,,4.95000000e-009,-2.08593765e-004
,,,4.97500000e-009,-2.07031265e-004
,,,5.00000000e-009,-2.03906264e-004
,,,5.02500000e-009,-2.00000014e-004
,,,5.05000000e-009,-1.94531264e-004
,,,5.07500000e-009,-1.88281263e-004
,,,5.10000000e-009,-1.83593763e-004
,,,5.12500000e-009,-1.79687513e-004
,,,5.15000000e-009,-1.78906263e-004
,,,5.17500000e-009,-1.81250013e-004
,,,5.20000000e-009,-1.88281263e-004
,,,5.22500000e-009,-2.00000014e-004
,,,5.25000000e-009,-2.15625015e-004
,,,5.27500000e-009,-2.35937517e-004
,,,5.30000000e-009,-2.60156268e-004
,,,5.32500000e-009,-2.87500020e-004
,,,5.35000000e-009,-3.16406272e-004
,,,5.37500000e-009,-3.45312524e-004
,,,5.40000000e-009,-3.73437526e-004
,,,5.42500000e-009,-4.00000028e-004
,,,5.45000000e-009,-4.18750030e-004
,,,5.47500000e-009,-4.32812531e-004
,,,5.50000000e-009,-4.41406281e-004
,,,5.52500000e-009,-4.43750031e-004
,,,5.55000000e-009,-4.40625031e-004
,,,5.57500000e-009,-4.32031281e-004
,,,5.60000000e-009,-4.17968780e-004
,,,5.62500000e-009,-4.00000028e-004
,,,5.65000000e-009,-3.75000027e-004
,,,5.67500000e-009,-3.48437525e-004
,,,5.70000000e-009,-3.20312523e-004
,,,5.72500000e-009,-2.92187521e-004
,,,5.75000000e-009,-2.64843769e-004
,,,5.77500000e-009,-2.39843767e-004
,,,5.80000000e-009,-2.17968765e-004
,,,5.82500000e-009,-2.00000014e-004
,,,5.85000000e-009,-1.84375013e-004
,,,5.87500000e-009,-1.74218762e-004
