RawData/SinglePhotoelectron/R5_2pt2B_5mV/wave009_Ch2.csv

"Record Length",1000,"Points",-7.72500000e-009,3.39843774e-004
"Sample Interval",2.50000000e-011,s,-7.70000000e-009,3.60937526e-004
"Trigger Point",309,"Samples",-7.67500000e-009,3.78125027e-004
"Trigger Time",2.40200000e-011,s,-7.65000000e-009,3.90625028e-004
"",,,-7.62500000e-009,4.00000028e-004
"Horizontal Offset",-7.72500000e-009,s,-7.60000000e-009,4.05468779e-004
,,,-7.57500000e-009,4.08593779e-004
,,,-7.55000000e-009,4.10937529e-004
,,,-7.52500000e-009,4.11718779e-004
,,,-7.50000000e-009,4.10937529e-004
,,,-7.47500000e-009,4.08593779e-004
,,,-7.45000000e-009,4.04687529e-004
,,,-7.42500000e-009,4.00000028e-004
,,,-7.40000000e-009,3.91406278e-004
,,,-7.37500000e-009,3.84375027e-004
,,,-7.35000000e-009,3.78906277e-004
,,,-7.32500000e-009,3.75781277e-004
,,,-7.30000000e-009,3.75781277e-004
,,,-7.27500000e-009,3.80468777e-004
,,,-7.25000000e-009,3.88281277e-004
,,,-7.22500000e-009,4.00000028e-004
,,,-7.20000000e-009,4.10156279e-004
,,,-7.17500000e-009,4.21093780e-004
,,,-7.15000000e-009,4.31250031e-004
,,,-7.12500000e-009,4.37500031e-004
,,,-7.10000000e-009,4.38281281e-004
,,,-7.07500000e-009,4.32812531e-004
,,,-7.05000000e-009,4.20312530e-004
,,,-7.02500000e-009,4.00000028e-004
,,,-7.00000000e-009,3.69531276e-004
,,,-6.97500000e-009,3.35156274e-004
,,,-6.95000000e-009,2.99218771e-004
,,,-6.92500000e-009,2.64843769e-004
,,,-6.90000000e-009,2.35156267e-004
,,,-6.87500000e-009,2.13281265e-004
,,,-6.85000000e-009,2.00781264e-004
,,,-6.82500000e-009,2.00000014e-004
,,,-6.80000000e-009,2.08593765e-004
,,,-6.77500000e-009,2.28125016e-004
,,,-6.75000000e-009,2.55468768e-004
,,,-6.72500000e-009,2.87500020e-004
,,,-6.70000000e-009,3.21875023e-004
,,,-6.67500000e-009,3.53906275e-004
,,,-6.65000000e-009,3.80468777e-004
,,,-6.62500000e-009,4.00000028e-004
,,,-6.60000000e-009,4.06250029e-004
,,,-6.57500000e-009,4.01562528e-004
,,,-6.55000000e-009,3.85156277e-004
,,,-6.52500000e-009,3.59375025e-004
,,,-6.50000000e-009,3.25000023e-004
,,,-6.47500000e-009,2.85937520e-004
,,,-6.45000000e-009,2.42968767e-004
,,,-6.42500000e-009,2.00000014e-004
,,,-6.40000000e-009,1.59375011e-004
,,,-6.37500000e-009,1.21875009e-004
,,,-6.35000000e-009,8.98437564e-005
,,,-6.32500000e-009,6.25000044e-005
,,,-6.30000000e-009,4.06250029e-005
,,,-6.27500000e-009,2.34375017e-005
,,,-6.25000000e-009,9.37500066e-006
,,,-6.22500000e-009,0.00000000e+000
,,,-6.20000000e-009,-5.46875039e-006
,,,-6.17500000e-009,-8.59375061e-006
,,,-6.15000000e-009,-1.09375008e-005
,,,-6.12500000e-009,-1.17187508e-005
,,,-6.10000000e-009,-1.09375008e-005
,,,-6.07500000e-009,-8.59375061e-006
,,,-6.05000000e-009,-4.68750033e-006
,,,-6.02500000e-009,0.00000000e+000
,,,-6.00000000e-009,6.25000044e-006
,,,-5.97500000e-009,1.32812509e-005
,,,-5.95000000e-009,1.79687513e-005
,,,-5.92500000e-009,2.03125014e-005
,,,-5.90000000e-009,1.95312514e-005
,,,-5.87500000e-009,1.64062512e-005
,,,-5.85000000e-009,9.37500066e-006
,,,-5.82500000e-009,0.00000000e+000
,,,-5.80000000e-009,-1.01562507e-005
,,,-5.77500000e-009,-2.10937515e-005
,,,-5.75000000e-009,-3.04687522e-005
,,,-5.72500000e-009,-3.67187526e-005
,,,-5.70000000e-009,-3.75000027e-005
,,,-5.67500000e-009,-3.20312523e-005
,,,-5.65000000e-009,-1.95312514e-005
,,,-5.62500000e-009,0.00000000e+000
,,,-5.60000000e-009,2.65625019e-005
,,,-5.57500000e-009,5.78125041e-005
,,,-5.55000000e-009,9.06250064e-005
,,,-5.52500000e-009,1.23437509e-004
,,,-5.50000000e-009,1.53125011e-004
,,,-5.47500000e-009,1.76562512e-004
,,,-5.45000000e-009,1.92968764e-004
,,,-5.42500000e-009,2.00000014e-004
,,,-5.40000000e-009,1.93750014e-004
,,,-5.37500000e-009,1.78125013e-004
,,,-5.35000000e-009,1.53906261e-004
,,,-5.32500000e-009,1.24218759e-004
,,,-5.30000000e-009,9.14062565e-005
,,,-5.27500000e-009,5.78125041e-005
,,,-5.25000000e-009,2.65625019e-005
,,,-5.22500000e-009,0.00000000e+000
,,,-5.20000000e-009,-2.18750015e-005
,,,-5.17500000e-009,-3.59375025e-005
,,,-5.15000000e-009,-4.29687530e-005
,,,-5.12500000e-009,-4.29687530e-005
,,,-5.10000000e-009,-3.75000027e-005
,,,-5.07500000e-009,-2.73437519e-005
,,,-5.05000000e-009,-1.40625010e-005
,,,-5.02500000e-009,0.00000000e+000
,,,-5.00000000e-009,1.32812509e-005
,,,-4.97500000e-009,2.42187517e-005
,,,-4.95000000e-009,3.12500022e-005
,,,-4.92500000e-009,3.43750024e-005
,,,-4.90000000e-009,3.28125023e-005
,,,-4.87500000e-009,2.65625019e-005
,,,-4.85000000e-009,1.56250011e-005
,,,-4.82500000e-009,0.00000000e+000
,,,-4.80000000e-009,-1.87500013e-005
,,,-4.77500000e-009,-4.14062529e-005
,,,-4.75000000e-009,-6.56250046e-005
,,,-4.72500000e-009,-9.21875065e-005
,,,-4.70000000e-009,-1.18750008e-004
,,,-4.67500000e-009,-1.46093760e-004
,,,-4.65000000e-009,-1.72656262e-004
,,,-4.62500000e-009,-2.00000014e-004
,,,-4.60000000e-009,-2.24218766e-004
,,,-4.57500000e-009,-2.47656268e-004
,,,-4.55000000e-009,-2.71875019e-004
,,,-4.52500000e-009,-2.96093771e-004
,,,-4.50000000e-009,-3.21093773e-004
,,,-4.47500000e-009,-3.46875025e-004
,,,-4.45000000e-009,-3.73437526e-004
,,,-4.42500000e-009,-4.00000028e-004
,,,-4.40000000e-009,-4.20312530e-004
,,,-4.37500000e-009,-4.38281281e-004
,,,-4.35000000e-009,-4.51562532e-004
,,,-4.32500000e-009,-4.59375033e-004
,,,-4.30000000e-009,-4.58593782e-004
,,,-4.27500000e-009,-4.49218782e-004
,,,-4.25000000e-009,-4.29687530e-004
,,,-4.22500000e-009,-4.00000028e-004
,,,-4.20000000e-009,-3.56250025e-004
,,,-4.17500000e-009,-3.05468772e-004
,,,-4.15000000e-009,-2.50000018e-004
,,,-4.12500000e-009,-1.92187514e-004
,,,-4.10000000e-009,-1.35156260e-004
,,,-4.07500000e-009,-8.28125059e-005
,,,-4.05000000e-009,-3.67187526e-005
,,,-4.02500000e-009,0.00000000e+000
,,,-4.00000000e-009,2.57812518e-005
,,,-3.97500000e-009,4.06250029e-005
,,,-3.95000000e-009,4.60937533e-005
,,,-3.92500000e-009,4.29687530e-005
,,,-3.90000000e-009,3.43750024e-005
,,,-3.87500000e-009,2.34375017e-005
,,,-3.85000000e-009,1.09375008e-005
,,,-3.82500000e-009,0.00000000e+000
,,,-3.80000000e-009,-8.59375061e-006
,,,-3.77500000e-009,-1.48437511e-005
,,,-3.75000000e-009,-1.71875012e-005
,,,-3.72500000e-009,-1.64062512e-005
,,,-3.70000000e-009,-1.25000009e-005
,,,-3.67500000e-009,-7.81250055e-006
,,,-3.65000000e-009,-3.12500022e-006
,,,-3.62500000e-009,0.00000000e+000
,,,-3.60000000e-009,0.00000000e+000
,,,-3.57500000e-009,0.00000000e+000
,,,-3.55000000e-009,-7.81250055e-007
,,,-3.52500000e-009,-3.12500022e-006
,,,-3.50000000e-009,-4.68750033e-006
,,,-3.47500000e-009,-4.68750033e-006
,,,-3.45000000e-009,-3.12500022e-006
,,,-3.42500000e-009,0.00000000e+000
,,,-3.40000000e-009,2.34375017e-006
,,,-3.37500000e-009,7.03125050e-006
,,,-3.35000000e-009,1.25000009e-005
,,,-3.32500000e-009,1.64062512e-005
,,,-3.30000000e-009,1.87500013e-005
,,,-3.27500000e-009,1.71875012e-005
,,,-3.25000000e-009,1.09375008e-005
,,,-3.22500000e-009,0.00000000e+000
,,,-3.20000000e-009,-1.95312514e-005
,,,-3.17500000e-009,-4.29687530e-005
,,,-3.15000000e-009,-7.03125050e-005
,,,-3.12500000e-009,-1.00000007e-004
,,,-3.10000000e-009,-1.28906259e-004
,,,-3.07500000e-009,-1.56250011e-004
,,,-3.05000000e-009,-1.79687513e-004
,,,-3.02500000e-009,-2.00000014e-004
,,,-3.00000000e-009,-2.13281265e-004
,,,-2.97500000e-009,-2.21093766e-004
,,,-2.95000000e-009,-2.24218766e-004
,,,-2.92500000e-009,-2.23437516e-004
,,,-2.90000000e-009,-2.19531266e-004
,,,-2.87500000e-009,-2.13281265e-004
,,,-2.85000000e-009,-2.06250015e-004
,,,-2.82500000e-009,-2.00000014e-004
,,,-2.80000000e-009,-1.93750014e-004
,,,-2.77500000e-009,-1.89062513e-004
,,,-2.75000000e-009,-1.87500013e-004
,,,-2.72500000e-009,-1.87500013e-004
,,,-2.70000000e-009,-1.89843763e-004
,,,-2.67500000e-009,-1.92187514e-004
,,,-2.65000000e-009,-1.96093764e-004
,,,-2.62500000e-009,-2.00000014e-004
,,,-2.60000000e-009,-2.00781264e-004
,,,-2.57500000e-009,-2.01562514e-004
,,,-2.55000000e-009,-2.00781264e-004
,,,-2.52500000e-009,-2.00781264e-004
,,,-2.50000000e-009,-2.00000014e-004
,,,-2.47500000e-009,-1.99218764e-004
,,,-2.45000000e-009,-1.99218764e-004
,,,-2.42500000e-009,-2.00000014e-004
,,,-2.40000000e-009,-2.00000014e-004
,,,-2.37500000e-009,-2.00781264e-004
,,,-2.35000000e-009,-2.02343764e-004
,,,-2.32500000e-009,-2.03906264e-004
,,,-2.30000000e-009,-2.04687514e-004
,,,-2.27500000e-009,-2.03906264e-004
,,,-2.25000000e-009,-2.02343764e-004
,,,-2.22500000e-009,-2.00000014e-004
,,,-2.20000000e-009,-1.96093764e-004
,,,-2.17500000e-009,-1.92187514e-004
,,,-2.15000000e-009,-1.89062513e-004
,,,-2.12500000e-009,-1.86718763e-004
,,,-2.10000000e-009,-1.86718763e-004
,,,-2.07500000e-009,-1.88281263e-004
,,,-2.05000000e-009,-1.92968764e-004
,,,-2.02500000e-009,-2.00000014e-004
,,,-2.00000000e-009,-2.06250015e-004
,,,-1.97500000e-009,-2.14062515e-004
,,,-1.95000000e-009,-2.20312516e-004
,,,-1.92500000e-009,-2.24218766e-004
,,,-1.90000000e-009,-2.25781266e-004
,,,-1.87500000e-009,-2.21875016e-004
,,,-1.85000000e-009,-2.13281265e-004
,,,-1.82500000e-009,-2.00000014e-004
,,,-1.80000000e-009,-1.79687513e-004
,,,-1.77500000e-009,-1.54687511e-004
,,,-1.75000000e-009,-1.26562509e-004
,,,-1.72500000e-009,-9.60937568e-005
,,,-1.70000000e-009,-6.64062547e-005
,,,-1.67500000e-009,-3.90625028e-005
,,,-1.65000000e-009,-1.64062512e-005
,,,-1.62500000e-009,0.00000000e+000
,,,-1.60000000e-009,6.25000044e-006
,,,-1.57500000e-009,3.12500022e-006
,,,-1.55000000e-009,-8.59375061e-006
,,,-1.52500000e-009,-3.12500022e-005
,,,-1.50000000e-009,-6.32812545e-005
,,,-1.47500000e-009,-1.03125007e-004
,,,-1.45000000e-009,-1.49218761e-004
,,,-1.42500000e-009,-2.00000014e-004
,,,-1.40000000e-009,-2.53906268e-004
,,,-1.37500000e-009,-3.05468772e-004
,,,-1.35000000e-009,-3.52343775e-004
,,,-1.32500000e-009,-3.89062528e-004
,,,-1.30000000e-009,-4.14062529e-004
,,,-1.27500000e-009,-4.25000030e-004
,,,-1.25000000e-009,-4.20312530e-004
,,,-1.22500000e-009,-4.00000028e-004
,,,-1.20000000e-009,-3.72656276e-004
,,,-1.17500000e-009,-3.35156274e-004
,,,-1.15000000e-009,-2.87500020e-004
,,,-1.12500000e-009,-2.33593767e-004
,,,-1.10000000e-009,-1.75000012e-004
,,,-1.07500000e-009,-1.14062508e-004
,,,-1.05000000e-009,-5.46875039e-005
,,,-1.02500000e-009,0.00000000e+000
,,,-1.00000000e-009,2.26562516e-005
,,,-9.75000000e-010,3.43750024e-005
,,,-9.50000000e-010,3.51562525e-005
,,,-9.25000000e-010,2.96875021e-005
,,,-9.00000000e-010,1.95312514e-005
,,,-8.75000000e-010,1.01562507e-005
,,,-8.50000000e-010,3.12500022e-006
,,,-8.25000000e-010,0.00000000e+000
,,,-8.00000000e-010,-3.59375025e-005
,,,-7.75000000e-010,-7.26562551e-005
,,,-7.50000000e-010,-1.07812508e-004
,,,-7.25000000e-010,-1.38281260e-004
,,,-7.00000000e-010,-1.62500012e-004
,,,-6.75000000e-010,-1.79687513e-004
,,,-6.50000000e-010,-1.91406264e-004
,,,-6.25000000e-010,-2.00000014e-004
,,,-6.00000000e-010,-2.55468768e-004
,,,-5.75000000e-010,-3.20312523e-004
,,,-5.50000000e-010,-3.92187528e-004
,,,-5.25000000e-010,-4.69531283e-004
,,,-5.00000000e-010,-5.49218789e-004
,,,-4.75000000e-010,-6.30468795e-004
,,,-4.50000000e-010,-7.13281300e-004
,,,-4.25000000e-010,-8.00000057e-004
,,,-4.00000000e-010,-9.48437567e-004
,,,-3.75000000e-010,-1.11562508e-003
,,,-3.50000000e-010,-1.29921884e-003
,,,-3.25000000e-010,-1.49687511e-003
,,,-3.00000000e-010,-1.70703137e-003
,,,-2.75000000e-010,-1.92812514e-003
,,,-2.50000000e-010,-2.15859390e-003
,,,-2.25000000e-010,-2.40000017e-003
,,,-2.00000000e-010,-2.69843769e-003
,,,-1.75000000e-010,-3.01406271e-003
,,,-1.50000000e-010,-3.34296899e-003
,,,-1.25000000e-010,-3.67890651e-003
,,,-1.00000000e-010,-4.01640653e-003
,,,-7.50000000e-011,-4.35156281e-003
,,,-5.00000000e-011,-4.67968783e-003
,,,-2.50000000e-011,-5.00000035e-003
,,,0.00000000e+000,-5.33515663e-003
,,,2.50000000e-011,-5.67031290e-003
,,,5.00000000e-011,-6.00390667e-003
,,,7.50000000e-011,-6.33437545e-003
,,,1.00000000e-010,-6.65937547e-003
,,,1.25000000e-010,-6.97812549e-003
,,,1.50000000e-010,-7.29062552e-003
,,,1.75000000e-010,-7.60000054e-003
,,,2.00000000e-010,-7.91015681e-003
,,,2.25000000e-010,-8.23281308e-003
,,,2.50000000e-010,-8.56875061e-003
,,,2.75000000e-010,-8.91796938e-003
,,,3.00000000e-010,-9.27812566e-003
,,,3.25000000e-010,-9.64765693e-003
,,,3.50000000e-010,-1.00226570e-002
,,,3.75000000e-010,-1.04000007e-002
,,,4.00000000e-010,-1.07515633e-002
,,,4.25000000e-010,-1.11078133e-002
,,,4.50000000e-010,-1.14625008e-002
,,,4.75000000e-010,-1.18109383e-002
,,,5.00000000e-010,-1.21453134e-002
,,,5.25000000e-010,-1.24593759e-002
,,,5.50000000e-010,-1.27453134e-002
,,,5.75000000e-010,-1.30000009e-002
,,,6.00000000e-010,-1.31734384e-002
,,,6.25000000e-010,-1.33257822e-002
,,,6.50000000e-010,-1.34617197e-002
,,,6.75000000e-010,-1.35843760e-002
,,,7.00000000e-010,-1.36976572e-002
,,,7.25000000e-010,-1.38031260e-002
,,,7.50000000e-010,-1.39039072e-002
,,,7.75000000e-010,-1.40000010e-002
,,,8.00000000e-010,-1.40375010e-002
,,,8.25000000e-010,-1.40859385e-002
,,,8.50000000e-010,-1.41484385e-002
,,,8.75000000e-010,-1.42242198e-002
,,,9.00000000e-010,-1.43109385e-002
,,,9.25000000e-010,-1.44062510e-002
,,,9.50000000e-010,-1.45039073e-002
,,,9.75000000e-010,-1.46000010e-002
,,,1.00000000e-009,-1.46296885e-002
,,,1.02500000e-009,-1.46585948e-002
,,,1.05000000e-009,-1.46859385e-002
,,,1.07500000e-009,-1.47132823e-002
,,,1.10000000e-009,-1.47390635e-002
,,,1.12500000e-009,-1.47632823e-002
,,,1.15000000e-009,-1.47843760e-002
,,,1.17500000e-009,-1.48000010e-002
,,,1.20000000e-009,-1.47476573e-002
,,,1.22500000e-009,-1.46921885e-002
,,,1.25000000e-009,-1.46367198e-002
,,,1.27500000e-009,-1.45843760e-002
,,,1.30000000e-009,-1.45343760e-002
,,,1.32500000e-009,-1.44890635e-002
,,,1.35000000e-009,-1.44445323e-002
,,,1.37500000e-009,-1.44000010e-002
,,,1.40000000e-009,-1.42960948e-002
,,,1.42500000e-009,-1.41851573e-002
,,,1.45000000e-009,-1.40687510e-002
,,,1.47500000e-009,-1.39460947e-002
,,,1.50000000e-009,-1.38187510e-002
,,,1.52500000e-009,-1.36859385e-002
,,,1.55000000e-009,-1.35460947e-002
,,,1.57500000e-009,-1.34000009e-002
,,,1.60000000e-009,-1.32023447e-002
,,,1.62500000e-009,-1.29945322e-002
,,,1.65000000e-009,-1.27812509e-002
,,,1.67500000e-009,-1.25679696e-002
,,,1.70000000e-009,-1.23601571e-002
,,,1.72500000e-009,-1.21609384e-002
,,,1.75000000e-009,-1.19742196e-002
,,,1.77500000e-009,-1.18000008e-002
,,,1.80000000e-009,-1.16046883e-002
,,,1.82500000e-009,-1.14117196e-002
,,,1.85000000e-009,-1.12187508e-002
,,,1.87500000e-009,-1.10250008e-002
,,,1.90000000e-009,-1.08281258e-002
,,,1.92500000e-009,-1.06257820e-002
,,,1.95000000e-009,-1.04171882e-002
,,,1.97500000e-009,-1.02000007e-002
,,,2.00000000e-009,-9.95234445e-003
,,,2.02500000e-009,-9.68671944e-003
,,,2.05000000e-009,-9.40625067e-003
,,,2.07500000e-009,-9.11718815e-003
,,,2.10000000e-009,-8.82656312e-003
,,,2.12500000e-009,-8.53906310e-003
,,,2.15000000e-009,-8.26250058e-003
,,,2.17500000e-009,-8.00000057e-003
,,,2.20000000e-009,-7.75078180e-003
,,,2.22500000e-009,-7.50859428e-003
,,,2.25000000e-009,-7.27421926e-003
,,,2.27500000e-009,-7.04609425e-003
,,,2.30000000e-009,-6.82500048e-003
,,,2.32500000e-009,-6.61093797e-003
,,,2.35000000e-009,-6.40234420e-003
,,,2.37500000e-009,-6.20000044e-003
,,,2.40000000e-009,-6.01093793e-003
,,,2.42500000e-009,-5.81484416e-003
,,,2.45000000e-009,-5.61093790e-003
,,,2.47500000e-009,-5.40312538e-003
,,,2.50000000e-009,-5.19296912e-003
,,,2.52500000e-009,-4.98671910e-003
,,,2.55000000e-009,-4.78828159e-003
,,,2.57500000e-009,-4.60000033e-003
,,,2.60000000e-009,-4.44296906e-003
,,,2.62500000e-009,-4.28828155e-003
,,,2.65000000e-009,-4.13437529e-003
,,,2.67500000e-009,-3.98125028e-003
,,,2.70000000e-009,-3.83046902e-003
,,,2.72500000e-009,-3.68281276e-003
,,,2.75000000e-009,-3.53906275e-003
,,,2.77500000e-009,-3.40000024e-003
,,,2.80000000e-009,-3.28593773e-003
,,,2.82500000e-009,-3.16562522e-003
,,,2.85000000e-009,-3.03984397e-003
,,,2.87500000e-009,-2.90859396e-003
,,,2.90000000e-009,-2.77578145e-003
,,,2.92500000e-009,-2.64453144e-003
,,,2.95000000e-009,-2.51796893e-003
,,,2.97500000e-009,-2.40000017e-003
,,,3.00000000e-009,-2.31406266e-003
,,,3.02500000e-009,-2.22968766e-003
,,,3.05000000e-009,-2.14687515e-003
,,,3.07500000e-009,-2.06562515e-003
,,,3.10000000e-009,-1.98906264e-003
,,,3.12500000e-009,-1.91796889e-003
,,,3.15000000e-009,-1.85468763e-003
,,,3.17500000e-009,-1.80000013e-003
,,,3.20000000e-009,-1.77265638e-003
,,,3.22500000e-009,-1.74687512e-003
,,,3.25000000e-009,-1.72031262e-003
,,,3.27500000e-009,-1.69375012e-003
,,,3.30000000e-009,-1.66796887e-003
,,,3.32500000e-009,-1.64296887e-003
,,,3.35000000e-009,-1.62031261e-003
,,,3.37500000e-009,-1.60000011e-003
,,,3.40000000e-009,-1.59375011e-003
,,,3.42500000e-009,-1.58281261e-003
,,,3.45000000e-009,-1.56640636e-003
,,,3.47500000e-009,-1.54296886e-003
,,,3.50000000e-009,-1.51406261e-003
,,,3.52500000e-009,-1.48046885e-003
,,,3.55000000e-009,-1.44140635e-003
,,,3.57500000e-009,-1.40000010e-003
,,,3.60000000e-009,-1.36328135e-003
,,,3.62500000e-009,-1.32109384e-003
,,,3.65000000e-009,-1.27265634e-003
,,,3.67500000e-009,-1.22031259e-003
,,,3.70000000e-009,-1.16484383e-003
,,,3.72500000e-009,-1.10781258e-003
,,,3.75000000e-009,-1.05234382e-003
,,,3.77500000e-009,-1.00000007e-003
,,,3.80000000e-009,-9.57812568e-004
,,,3.82500000e-009,-9.18750065e-004
,,,3.85000000e-009,-8.84375063e-004
,,,3.87500000e-009,-8.54687560e-004
,,,3.90000000e-009,-8.30468809e-004
,,,3.92500000e-009,-8.13281308e-004
,,,3.95000000e-009,-8.03125057e-004
,,,3.97500000e-009,-8.00000057e-004
,,,4.00000000e-009,-8.04687557e-004
,,,4.02500000e-009,-8.11718807e-004
,,,4.05000000e-009,-8.18750058e-004
,,,4.07500000e-009,-8.23437558e-004
,,,4.10000000e-009,-8.25000058e-004
,,,4.12500000e-009,-8.21875058e-004
,,,4.15000000e-009,-8.13281308e-004
,,,4.17500000e-009,-8.00000057e-004
,,,4.20000000e-009,-7.82031305e-004
,,,4.22500000e-009,-7.59375054e-004
,,,4.25000000e-009,-7.32031302e-004
,,,4.27500000e-009,-7.02343800e-004
,,,4.30000000e-009,-6.71875048e-004
,,,4.32500000e-009,-6.43750046e-004
,,,4.35000000e-009,-6.18750044e-004
,,,4.37500000e-009,-6.00000042e-004
,,,4.40000000e-009,-5.90625042e-004
,,,4.42500000e-009,-5.85937541e-004
,,,4.45000000e-009,-5.85937541e-004
,,,4.47500000e-009,-5.89062542e-004
,,,4.50000000e-009,-5.93750042e-004
,,,4.52500000e-009,-5.98437542e-004
,,,4.55000000e-009,-6.00781293e-004
,,,4.57500000e-009,-6.00000042e-004
,,,4.60000000e-009,-5.96875042e-004
,,,4.62500000e-009,-5.87500042e-004
,,,4.65000000e-009,-5.70312540e-004
,,,4.67500000e-009,-5.46875039e-004
,,,4.70000000e-009,-5.16406287e-004
,,,4.72500000e-009,-4.80468784e-004
,,,4.75000000e-009,-4.41406281e-004
,,,4.77500000e-009,-4.00000028e-004
,,,4.80000000e-009,-3.63281276e-004
,,,4.82500000e-009,-3.28125023e-004
,,,4.85000000e-009,-2.95312521e-004
,,,4.87500000e-009,-2.66406269e-004
,,,4.90000000e-009,-2.41406267e-004
,,,4.92500000e-009,-2.21875016e-004
,,,4.95000000e-009,-2.07812515e-004
,,,4.97500000e-009,-2.00000014e-004
,,,5.00000000e-009,-2.02343764e-004
,,,5.02500000e-009,-2.12500015e-004
,,,5.05000000e-009,-2.28906266e-004
,,,5.07500000e-009,-2.52343768e-004
,,,5.10000000e-009,-2.81250020e-004
,,,5.12500000e-009,-3.16406272e-004
,,,5.15000000e-009,-3.56250025e-004
,,,5.17500000e-009,-4.00000028e-004
,,,5.20000000e-009,-4.45312532e-004
,,,5.22500000e-009,-4.89062535e-004
,,,5.25000000e-009,-5.28125037e-004
,,,5.27500000e-009,-5.60156290e-004
,,,5.30000000e-009,-5.84375041e-004
,,,5.32500000e-009,-5.99218792e-004
,,,5.35000000e-009,-6.03906293e-004
,,,5.37500000e-009,-6.00000042e-004
,,,5.40000000e-009,-5.86718792e-004
,,,5.42500000e-009,-5.69531290e-004
,,,5.45000000e-009,-5.52343789e-004
,,,5.47500000e-009,-5.39843788e-004
,,,5.50000000e-009,-5.35156288e-004
,,,5.52500000e-009,-5.42187538e-004
,,,5.55000000e-009,-5.63281290e-004
,,,5.57500000e-009,-6.00000042e-004
,,,5.60000000e-009,-6.46875046e-004
,,,5.62500000e-009,-7.03906300e-004
,,,5.65000000e-009,-7.67187554e-004
,,,5.67500000e-009,-8.32031309e-004
,,,5.70000000e-009,-8.92187563e-004
,,,5.72500000e-009,-9.42968817e-004
,,,5.75000000e-009,-9.80468819e-004
,,,5.77500000e-009,-1.00000007e-003
,,,5.80000000e-009,-9.92187570e-004
,,,5.82500000e-009,-9.64843818e-004
,,,5.85000000e-009,-9.21093815e-004
,,,5.87500000e-009,-8.64062561e-004
,,,5.90000000e-009,-7.98437557e-004
