RawData/SinglePhotoelectron/R5_2pt2B_5mV/wave031_Ch2.csv

"Record Length",1000,"Points",-7.72500000e-009,1.99218764e-004
"Sample Interval",2.50000000e-011,s,-7.70000000e-009,2.00000014e-004
"Trigger Point",309,"Samples",-7.67500000e-009,1.92968764e-004
"Trigger Time",1.35672062e-011,s,-7.65000000e-009,1.79687513e-004
"",,,-7.62500000e-009,1.58593761e-004
"Horizontal Offset",-7.72500000e-009,s,-7.60000000e-009,1.32031259e-004
,,,-7.57500000e-009,1.00781257e-004
,,,-7.55000000e-009,6.71875048e-005
,,,-7.52500000e-009,3.20312523e-005
,,,-7.50000000e-009,0.00000000e+000
,,,-7.47500000e-009,-2.73437519e-005
,,,-7.45000000e-009,-4.84375034e-005
,,,-7.42500000e-009,-6.17187544e-005
,,,-7.40000000e-009,-6.71875048e-005
,,,-7.37500000e-009,-6.25000044e-005
,,,-7.35000000e-009,-5.00000035e-005
,,,-7.32500000e-009,-2.81250020e-005
,,,-7.30000000e-009,0.00000000e+000
,,,-7.27500000e-009,3.51562525e-005
,,,-7.25000000e-009,7.18750051e-005
,,,-7.22500000e-009,1.08593758e-004
,,,-7.20000000e-009,1.42187510e-004
,,,-7.17500000e-009,1.69531262e-004
,,,-7.15000000e-009,1.89843763e-004
,,,-7.12500000e-009,2.00000014e-004
,,,-7.10000000e-009,2.00000014e-004
,,,-7.07500000e-009,1.89843763e-004
,,,-7.05000000e-009,1.71093762e-004
,,,-7.02500000e-009,1.45312510e-004
,,,-7.00000000e-009,1.14843758e-004
,,,-6.97500000e-009,8.28125059e-005
,,,-6.95000000e-009,5.07812536e-005
,,,-6.92500000e-009,2.26562516e-005
,,,-6.90000000e-009,0.00000000e+000
,,,-6.87500000e-009,-1.48437511e-005
,,,-6.85000000e-009,-2.34375017e-005
,,,-6.82500000e-009,-2.57812518e-005
,,,-6.80000000e-009,-2.34375017e-005
,,,-6.77500000e-009,-1.79687513e-005
,,,-6.75000000e-009,-1.09375008e-005
,,,-6.72500000e-009,-4.68750033e-006
,,,-6.70000000e-009,0.00000000e+000
,,,-6.67500000e-009,2.34375017e-006
,,,-6.65000000e-009,2.34375017e-006
,,,-6.62500000e-009,0.00000000e+000
,,,-6.60000000e-009,-3.12500022e-006
,,,-6.57500000e-009,-6.25000044e-006
,,,-6.55000000e-009,-7.81250055e-006
,,,-6.52500000e-009,-6.25000044e-006
,,,-6.50000000e-009,0.00000000e+000
,,,-6.47500000e-009,1.09375008e-005
,,,-6.45000000e-009,2.81250020e-005
,,,-6.42500000e-009,5.00000035e-005
,,,-6.40000000e-009,7.65625054e-005
,,,-6.37500000e-009,1.06250008e-004
,,,-6.35000000e-009,1.38281260e-004
,,,-6.32500000e-009,1.69531262e-004
,,,-6.30000000e-009,2.00000014e-004
,,,-6.27500000e-009,2.22656266e-004
,,,-6.25000000e-009,2.40625017e-004
,,,-6.22500000e-009,2.51562518e-004
,,,-6.20000000e-009,2.54687518e-004
,,,-6.17500000e-009,2.51562518e-004
,,,-6.15000000e-009,2.40625017e-004
,,,-6.12500000e-009,2.22656266e-004
,,,-6.10000000e-009,2.00000014e-004
,,,-6.07500000e-009,1.70312512e-004
,,,-6.05000000e-009,1.38281260e-004
,,,-6.02500000e-009,1.06250008e-004
,,,-6.00000000e-009,7.57812554e-005
,,,-5.97500000e-009,4.84375034e-005
,,,-5.95000000e-009,2.57812518e-005
,,,-5.92500000e-009,9.37500066e-006
,,,-5.90000000e-009,0.00000000e+000
,,,-5.87500000e-009,-4.68750033e-006
,,,-5.85000000e-009,-3.90625028e-006
,,,-5.82500000e-009,-7.81250055e-007
,,,-5.80000000e-009,3.90625028e-006
,,,-5.77500000e-009,8.59375061e-006
,,,-5.75000000e-009,1.01562507e-005
,,,-5.72500000e-009,7.81250055e-006
,,,-5.70000000e-009,0.00000000e+000
,,,-5.67500000e-009,-1.48437511e-005
,,,-5.65000000e-009,-3.59375025e-005
,,,-5.62500000e-009,-6.17187544e-005
,,,-5.60000000e-009,-9.06250064e-005
,,,-5.57500000e-009,-1.21093759e-004
,,,-5.55000000e-009,-1.50781261e-004
,,,-5.52500000e-009,-1.77343763e-004
,,,-5.50000000e-009,-2.00000014e-004
,,,-5.47500000e-009,-2.14062515e-004
,,,-5.45000000e-009,-2.22656266e-004
,,,-5.42500000e-009,-2.25781266e-004
,,,-5.40000000e-009,-2.24218766e-004
,,,-5.37500000e-009,-2.19531266e-004
,,,-5.35000000e-009,-2.12500015e-004
,,,-5.32500000e-009,-2.05468765e-004
,,,-5.30000000e-009,-2.00000014e-004
,,,-5.27500000e-009,-1.93750014e-004
,,,-5.25000000e-009,-1.90625013e-004
,,,-5.22500000e-009,-1.90625013e-004
,,,-5.20000000e-009,-1.92187514e-004
,,,-5.17500000e-009,-1.94531264e-004
,,,-5.15000000e-009,-1.96875014e-004
,,,-5.12500000e-009,-1.99218764e-004
,,,-5.10000000e-009,-2.00000014e-004
,,,-5.07500000e-009,-1.96093764e-004
,,,-5.05000000e-009,-1.91406264e-004
,,,-5.02500000e-009,-1.87500013e-004
,,,-5.00000000e-009,-1.84375013e-004
,,,-4.97500000e-009,-1.82812513e-004
,,,-4.95000000e-009,-1.85156263e-004
,,,-4.92500000e-009,-1.90625013e-004
,,,-4.90000000e-009,-2.00000014e-004
,,,-4.87500000e-009,-2.09375015e-004
,,,-4.85000000e-009,-2.19531266e-004
,,,-4.82500000e-009,-2.29687516e-004
,,,-4.80000000e-009,-2.36718767e-004
,,,-4.77500000e-009,-2.38281267e-004
,,,-4.75000000e-009,-2.33593767e-004
,,,-4.72500000e-009,-2.20312516e-004
,,,-4.70000000e-009,-2.00000014e-004
,,,-4.67500000e-009,-1.69531262e-004
,,,-4.65000000e-009,-1.35156260e-004
,,,-4.62500000e-009,-9.84375070e-005
,,,-4.60000000e-009,-6.40625045e-005
,,,-4.57500000e-009,-3.35937524e-005
,,,-4.55000000e-009,-1.09375008e-005
,,,-4.52500000e-009,0.00000000e+000
,,,-4.50000000e-009,0.00000000e+000
,,,-4.47500000e-009,-1.25000009e-005
,,,-4.45000000e-009,-3.51562525e-005
,,,-4.42500000e-009,-6.56250046e-005
,,,-4.40000000e-009,-1.00000007e-004
,,,-4.37500000e-009,-1.33593759e-004
,,,-4.35000000e-009,-1.64062512e-004
,,,-4.32500000e-009,-1.86718763e-004
,,,-4.30000000e-009,-2.00000014e-004
,,,-4.27500000e-009,-1.98437514e-004
,,,-4.25000000e-009,-1.85937513e-004
,,,-4.22500000e-009,-1.63281262e-004
,,,-4.20000000e-009,-1.32031259e-004
,,,-4.17500000e-009,-9.68750069e-005
,,,-4.15000000e-009,-6.09375043e-005
,,,-4.12500000e-009,-2.73437519e-005
,,,-4.10000000e-009,0.00000000e+000
,,,-4.07500000e-009,2.03125014e-005
,,,-4.05000000e-009,3.28125023e-005
,,,-4.02500000e-009,3.75000027e-005
,,,-4.00000000e-009,3.51562525e-005
,,,-3.97500000e-009,2.89062520e-005
,,,-3.95000000e-009,1.87500013e-005
,,,-3.92500000e-009,8.59375061e-006
,,,-3.90000000e-009,0.00000000e+000
,,,-3.87500000e-009,-5.46875039e-006
,,,-3.85000000e-009,-7.81250055e-006
,,,-3.82500000e-009,-7.03125050e-006
,,,-3.80000000e-009,-3.90625028e-006
,,,-3.77500000e-009,-7.81250055e-007
,,,-3.75000000e-009,1.56250011e-006
,,,-3.72500000e-009,1.56250011e-006
,,,-3.70000000e-009,0.00000000e+000
,,,-3.67500000e-009,-3.90625028e-006
,,,-3.65000000e-009,-9.37500066e-006
,,,-3.62500000e-009,-1.48437511e-005
,,,-3.60000000e-009,-2.03125014e-005
,,,-3.57500000e-009,-2.26562516e-005
,,,-3.55000000e-009,-2.03125014e-005
,,,-3.52500000e-009,-1.32812509e-005
,,,-3.50000000e-009,0.00000000e+000
,,,-3.47500000e-009,2.18750015e-005
,,,-3.45000000e-009,4.92187535e-005
,,,-3.42500000e-009,8.04687557e-005
,,,-3.40000000e-009,1.11718758e-004
,,,-3.37500000e-009,1.41406260e-004
,,,-3.35000000e-009,1.67187512e-004
,,,-3.32500000e-009,1.86718763e-004
,,,-3.30000000e-009,2.00000014e-004
,,,-3.27500000e-009,2.05468765e-004
,,,-3.25000000e-009,2.05468765e-004
,,,-3.22500000e-009,2.01562514e-004
,,,-3.20000000e-009,1.95312514e-004
,,,-3.17500000e-009,1.89843763e-004
,,,-3.15000000e-009,1.87500013e-004
,,,-3.12500000e-009,1.90625013e-004
,,,-3.10000000e-009,2.00000014e-004
,,,-3.07500000e-009,2.17187515e-004
,,,-3.05000000e-009,2.42187517e-004
,,,-3.02500000e-009,2.71093769e-004
,,,-3.00000000e-009,3.03125021e-004
,,,-2.97500000e-009,3.34375024e-004
,,,-2.95000000e-009,3.62500026e-004
,,,-2.92500000e-009,3.84375027e-004
,,,-2.90000000e-009,4.00000028e-004
,,,-2.87500000e-009,4.05468779e-004
,,,-2.85000000e-009,4.04687529e-004
,,,-2.82500000e-009,4.00000028e-004
,,,-2.80000000e-009,3.92968778e-004
,,,-2.77500000e-009,3.86718777e-004
,,,-2.75000000e-009,3.84375027e-004
,,,-2.72500000e-009,3.88281277e-004
,,,-2.70000000e-009,4.00000028e-004
,,,-2.67500000e-009,4.16406279e-004
,,,-2.65000000e-009,4.39843781e-004
,,,-2.62500000e-009,4.69531283e-004
,,,-2.60000000e-009,5.01562536e-004
,,,-2.57500000e-009,5.32812538e-004
,,,-2.55000000e-009,5.61718790e-004
,,,-2.52500000e-009,5.84375041e-004
,,,-2.50000000e-009,6.00000042e-004
,,,-2.47500000e-009,6.02343793e-004
,,,-2.45000000e-009,5.97656292e-004
,,,-2.42500000e-009,5.89843792e-004
,,,-2.40000000e-009,5.80468791e-004
,,,-2.37500000e-009,5.74218791e-004
,,,-2.35000000e-009,5.74218791e-004
,,,-2.32500000e-009,5.82031291e-004
,,,-2.30000000e-009,6.00000042e-004
,,,-2.27500000e-009,6.22656294e-004
,,,-2.25000000e-009,6.52343796e-004
,,,-2.22500000e-009,6.87500049e-004
,,,-2.20000000e-009,7.24218801e-004
,,,-2.17500000e-009,7.57812554e-004
,,,-2.15000000e-009,7.83593805e-004
,,,-2.12500000e-009,7.98437557e-004
,,,-2.10000000e-009,8.00000057e-004
,,,-2.07500000e-009,7.78906305e-004
,,,-2.05000000e-009,7.43750053e-004
,,,-2.02500000e-009,6.96093799e-004
,,,-2.00000000e-009,6.39843795e-004
,,,-1.97500000e-009,5.77343791e-004
,,,-1.95000000e-009,5.14843786e-004
,,,-1.92500000e-009,4.53906282e-004
,,,-1.90000000e-009,4.00000028e-004
,,,-1.87500000e-009,3.51562525e-004
,,,-1.85000000e-009,3.12500022e-004
,,,-1.82500000e-009,2.82812520e-004
,,,-1.80000000e-009,2.60156268e-004
,,,-1.77500000e-009,2.42968767e-004
,,,-1.75000000e-009,2.28906266e-004
,,,-1.72500000e-009,2.14843765e-004
,,,-1.70000000e-009,2.00000014e-004
,,,-1.67500000e-009,1.79687513e-004
,,,-1.65000000e-009,1.56250011e-004
,,,-1.62500000e-009,1.29687509e-004
,,,-1.60000000e-009,1.00781257e-004
,,,-1.57500000e-009,7.10937550e-005
,,,-1.55000000e-009,4.37500031e-005
,,,-1.52500000e-009,1.87500013e-005
,,,-1.50000000e-009,0.00000000e+000
,,,-1.47500000e-009,-1.25000009e-005
,,,-1.45000000e-009,-2.03125014e-005
,,,-1.42500000e-009,-2.34375017e-005
,,,-1.40000000e-009,-2.26562516e-005
,,,-1.37500000e-009,-1.87500013e-005
,,,-1.35000000e-009,-1.25000009e-005
,,,-1.32500000e-009,-5.46875039e-006
,,,-1.30000000e-009,0.00000000e+000
,,,-1.27500000e-009,-1.56250011e-006
,,,-1.25000000e-009,-7.03125050e-006
,,,-1.22500000e-009,-1.40625010e-005
,,,-1.20000000e-009,-2.03125014e-005
,,,-1.17500000e-009,-2.34375017e-005
,,,-1.15000000e-009,-2.18750015e-005
,,,-1.12500000e-009,-1.40625010e-005
,,,-1.10000000e-009,0.00000000e+000
,,,-1.07500000e-009,3.90625028e-006
,,,-1.05000000e-009,7.81250055e-006
,,,-1.02500000e-009,1.17187508e-005
,,,-1.00000000e-009,1.40625010e-005
,,,-9.75000000e-010,1.40625010e-005
,,,-9.50000000e-010,1.25000009e-005
,,,-9.25000000e-010,7.81250055e-006
,,,-9.00000000e-010,0.00000000e+000
,,,-8.75000000e-010,-4.29687530e-005
,,,-8.50000000e-010,-9.14062565e-005
,,,-8.25000000e-010,-1.41406260e-004
,,,-8.00000000e-010,-1.84375013e-004
,,,-7.75000000e-010,-2.15625015e-004
,,,-7.50000000e-010,-2.30468766e-004
,,,-7.25000000e-010,-2.24218766e-004
,,,-7.00000000e-010,-2.00000014e-004
,,,-6.75000000e-010,-2.06250015e-004
,,,-6.50000000e-010,-2.10937515e-004
,,,-6.25000000e-010,-2.16406265e-004
,,,-6.00000000e-010,-2.27343766e-004
,,,-5.75000000e-010,-2.46875017e-004
,,,-5.50000000e-010,-2.78906270e-004
,,,-5.25000000e-010,-3.28125023e-004
,,,-5.00000000e-010,-4.00000028e-004
,,,-4.75000000e-010,-5.50781289e-004
,,,-4.50000000e-010,-7.32812552e-004
,,,-4.25000000e-010,-9.38281316e-004
,,,-4.00000000e-010,-1.15859383e-003
,,,-3.75000000e-010,-1.38281260e-003
,,,-3.50000000e-010,-1.60156261e-003
,,,-3.25000000e-010,-1.80859388e-003
,,,-3.00000000e-010,-2.00000014e-003
,,,-2.75000000e-010,-2.22031266e-003
,,,-2.50000000e-010,-2.43593767e-003
,,,-2.25000000e-010,-2.64843769e-003
,,,-2.00000000e-010,-2.86015645e-003
,,,-1.75000000e-010,-3.07578147e-003
,,,-1.50000000e-010,-3.30000023e-003
,,,-1.25000000e-010,-3.53984400e-003
,,,-1.00000000e-010,-3.80000027e-003
,,,-7.50000000e-011,-4.10937529e-003
,,,-5.00000000e-011,-4.45390657e-003
,,,-2.50000000e-011,-4.83046909e-003
,,,0.00000000e+000,-5.23593787e-003
,,,2.50000000e-011,-5.66250040e-003
,,,5.00000000e-011,-6.10312543e-003
,,,7.50000000e-011,-6.55156296e-003
,,,1.00000000e-010,-7.00000050e-003
,,,1.25000000e-010,-7.42890678e-003
,,,1.50000000e-010,-7.85390681e-003
,,,1.75000000e-010,-8.27109434e-003
,,,2.00000000e-010,-8.67968811e-003
,,,2.25000000e-010,-9.07812564e-003
,,,2.50000000e-010,-9.46484442e-003
,,,2.75000000e-010,-9.83906320e-003
,,,3.00000000e-010,-1.02000007e-002
,,,3.25000000e-010,-1.04945320e-002
,,,3.50000000e-010,-1.07812508e-002
,,,3.75000000e-010,-1.10632820e-002
,,,4.00000000e-010,-1.13421883e-002
,,,4.25000000e-010,-1.16171883e-002
,,,4.50000000e-010,-1.18875008e-002
,,,4.75000000e-010,-1.21500009e-002
,,,5.00000000e-010,-1.24000009e-002
,,,5.25000000e-010,-1.25531259e-002
,,,5.50000000e-010,-1.26937509e-002
,,,5.75000000e-010,-1.28210947e-002
,,,6.00000000e-010,-1.29351572e-002
,,,6.25000000e-010,-1.30328134e-002
,,,6.50000000e-010,-1.31125009e-002
,,,6.75000000e-010,-1.31695322e-002
,,,7.00000000e-010,-1.32000009e-002
,,,7.25000000e-010,-1.31148447e-002
,,,7.50000000e-010,-1.30093759e-002
,,,7.75000000e-010,-1.28882822e-002
,,,8.00000000e-010,-1.27585947e-002
,,,8.25000000e-010,-1.26234384e-002
,,,8.50000000e-010,-1.24843759e-002
,,,8.75000000e-010,-1.23437509e-002
,,,9.00000000e-010,-1.22000009e-002
,,,9.25000000e-010,-1.19765633e-002
,,,9.50000000e-010,-1.17531258e-002
,,,9.75000000e-010,-1.15320321e-002
,,,1.00000000e-009,-1.13117196e-002
,,,1.02500000e-009,-1.10914070e-002
,,,1.05000000e-009,-1.08687508e-002
,,,1.07500000e-009,-1.06390633e-002
,,,1.10000000e-009,-1.04000007e-002
,,,1.12500000e-009,-1.00992195e-002
,,,1.15000000e-009,-9.78984444e-003
,,,1.17500000e-009,-9.47578192e-003
,,,1.20000000e-009,-9.16250065e-003
,,,1.22500000e-009,-8.85468813e-003
,,,1.25000000e-009,-8.55625061e-003
,,,1.27500000e-009,-8.27109434e-003
,,,1.30000000e-009,-8.00000057e-003
,,,1.32500000e-009,-7.72343805e-003
,,,1.35000000e-009,-7.45781303e-003
,,,1.37500000e-009,-7.20078176e-003
,,,1.40000000e-009,-6.95156299e-003
,,,1.42500000e-009,-6.70859422e-003
,,,1.45000000e-009,-6.46953171e-003
,,,1.47500000e-009,-6.23359419e-003
,,,1.50000000e-009,-6.00000042e-003
,,,1.52500000e-009,-5.77265666e-003
,,,1.55000000e-009,-5.53984414e-003
,,,1.57500000e-009,-5.30234413e-003
,,,1.60000000e-009,-5.06406286e-003
,,,1.62500000e-009,-4.82890659e-003
,,,1.65000000e-009,-4.60390658e-003
,,,1.67500000e-009,-4.39296906e-003
,,,1.70000000e-009,-4.20000030e-003
,,,1.72500000e-009,-4.05234404e-003
,,,1.75000000e-009,-3.91484403e-003
,,,1.77500000e-009,-3.78437527e-003
,,,1.80000000e-009,-3.65937526e-003
,,,1.82500000e-009,-3.53984400e-003
,,,1.85000000e-009,-3.42343774e-003
,,,1.87500000e-009,-3.31015648e-003
,,,1.90000000e-009,-3.20000023e-003
,,,1.92500000e-009,-3.12031272e-003
,,,1.95000000e-009,-3.03125021e-003
,,,1.97500000e-009,-2.93281271e-003
,,,2.00000000e-009,-2.82656270e-003
,,,2.02500000e-009,-2.71640644e-003
,,,2.05000000e-009,-2.60546893e-003
,,,2.07500000e-009,-2.49843768e-003
,,,2.10000000e-009,-2.40000017e-003
,,,2.12500000e-009,-2.34140642e-003
,,,2.15000000e-009,-2.28593766e-003
,,,2.17500000e-009,-2.23203141e-003
,,,2.20000000e-009,-2.17968765e-003
,,,2.22500000e-009,-2.12968765e-003
,,,2.25000000e-009,-2.08203140e-003
,,,2.27500000e-009,-2.03828139e-003
,,,2.30000000e-009,-2.00000014e-003
,,,2.32500000e-009,-1.98984389e-003
,,,2.35000000e-009,-1.97968764e-003
,,,2.37500000e-009,-1.96953139e-003
,,,2.40000000e-009,-1.96250014e-003
,,,2.42500000e-009,-1.95937514e-003
,,,2.45000000e-009,-1.96406264e-003
,,,2.47500000e-009,-1.97734389e-003
,,,2.50000000e-009,-2.00000014e-003
,,,2.52500000e-009,-2.04531264e-003
,,,2.55000000e-009,-2.09218765e-003
,,,2.57500000e-009,-2.13515640e-003
,,,2.60000000e-009,-2.17109390e-003
,,,2.62500000e-009,-2.19765641e-003
,,,2.65000000e-009,-2.21171891e-003
,,,2.67500000e-009,-2.21250016e-003
,,,2.70000000e-009,-2.20000016e-003
,,,2.72500000e-009,-2.18125015e-003
,,,2.75000000e-009,-2.15234390e-003
,,,2.77500000e-009,-2.11562515e-003
,,,2.80000000e-009,-2.07656265e-003
,,,2.82500000e-009,-2.04062514e-003
,,,2.85000000e-009,-2.01328139e-003
,,,2.87500000e-009,-1.99921889e-003
,,,2.90000000e-009,-2.00000014e-003
,,,2.92500000e-009,-2.01875014e-003
,,,2.95000000e-009,-2.04921890e-003
,,,2.97500000e-009,-2.08750015e-003
,,,3.00000000e-009,-2.12656265e-003
,,,3.02500000e-009,-2.16328140e-003
,,,3.05000000e-009,-2.18984390e-003
,,,3.07500000e-009,-2.20312516e-003
,,,3.10000000e-009,-2.20000016e-003
,,,3.12500000e-009,-2.17421890e-003
,,,3.15000000e-009,-2.13125015e-003
,,,3.17500000e-009,-2.07421890e-003
,,,3.20000000e-009,-2.01015639e-003
,,,3.22500000e-009,-1.94375014e-003
,,,3.25000000e-009,-1.88281263e-003
,,,3.27500000e-009,-1.83359388e-003
,,,3.30000000e-009,-1.80000013e-003
,,,3.32500000e-009,-1.78046888e-003
,,,3.35000000e-009,-1.77968763e-003
,,,3.37500000e-009,-1.79609388e-003
,,,3.40000000e-009,-1.82578138e-003
,,,3.42500000e-009,-1.86640638e-003
,,,3.45000000e-009,-1.91171889e-003
,,,3.47500000e-009,-1.95781264e-003
,,,3.50000000e-009,-2.00000014e-003
,,,3.52500000e-009,-2.02734389e-003
,,,3.55000000e-009,-2.04375014e-003
,,,3.57500000e-009,-2.05078140e-003
,,,3.60000000e-009,-2.04765639e-003
,,,3.62500000e-009,-2.03906264e-003
,,,3.65000000e-009,-2.02656264e-003
,,,3.67500000e-009,-2.01250014e-003
,,,3.70000000e-009,-2.00000014e-003
,,,3.72500000e-009,-1.97968764e-003
,,,3.75000000e-009,-1.96093764e-003
,,,3.77500000e-009,-1.94140639e-003
,,,3.80000000e-009,-1.92031264e-003
,,,3.82500000e-009,-1.89765638e-003
,,,3.85000000e-009,-1.87109388e-003
,,,3.87500000e-009,-1.83906263e-003
,,,3.90000000e-009,-1.80000013e-003
,,,3.92500000e-009,-1.74453137e-003
,,,3.95000000e-009,-1.67968762e-003
,,,3.97500000e-009,-1.60625011e-003
,,,4.00000000e-009,-1.52734386e-003
,,,4.02500000e-009,-1.44453135e-003
,,,4.05000000e-009,-1.36093760e-003
,,,4.07500000e-009,-1.27812509e-003
,,,4.10000000e-009,-1.20000008e-003
,,,4.12500000e-009,-1.12500008e-003
,,,4.15000000e-009,-1.05625007e-003
,,,4.17500000e-009,-9.94531320e-004
,,,4.20000000e-009,-9.40625067e-004
,,,4.22500000e-009,-8.94531313e-004
,,,4.25000000e-009,-8.56250061e-004
,,,4.27500000e-009,-8.25000058e-004
,,,4.30000000e-009,-8.00000057e-004
,,,4.32500000e-009,-7.78125055e-004
,,,4.35000000e-009,-7.57812554e-004
,,,4.37500000e-009,-7.37500052e-004
,,,4.40000000e-009,-7.16406301e-004
,,,4.42500000e-009,-6.92187549e-004
,,,4.45000000e-009,-6.64843797e-004
,,,4.47500000e-009,-6.34375045e-004
,,,4.50000000e-009,-6.00000042e-004
,,,4.52500000e-009,-5.61718790e-004
,,,4.55000000e-009,-5.17187537e-004
,,,4.57500000e-009,-4.67968783e-004
,,,4.60000000e-009,-4.14843779e-004
,,,4.62500000e-009,-3.60156275e-004
,,,4.65000000e-009,-3.04687522e-004
,,,4.67500000e-009,-2.50000018e-004
,,,4.70000000e-009,-2.00000014e-004
,,,4.72500000e-009,-1.60156261e-004
,,,4.75000000e-009,-1.24218759e-004
,,,4.77500000e-009,-9.21875065e-005
,,,4.80000000e-009,-6.48437546e-005
,,,4.82500000e-009,-4.14062529e-005
,,,4.85000000e-009,-2.34375017e-005
,,,4.87500000e-009,-9.37500066e-006
,,,4.90000000e-009,0.00000000e+000
,,,4.92500000e-009,-7.81250055e-007
,,,4.95000000e-009,-2.34375017e-006
,,,4.97500000e-009,-3.90625028e-006
,,,5.00000000e-009,-5.46875039e-006
,,,5.02500000e-009,-6.25000044e-006
,,,5.05000000e-009,-5.46875039e-006
,,,5.07500000e-009,-3.90625028e-006
,,,5.10000000e-009,0.00000000e+000
,,,5.12500000e-009,1.56250011e-006
,,,5.15000000e-009,9.37500066e-006
,,,5.17500000e-009,2.34375017e-005
,,,5.20000000e-009,4.45312532e-005
,,,5.22500000e-009,7.34375052e-005
,,,5.25000000e-009,1.09375008e-004
,,,5.27500000e-009,1.52343761e-004
,,,5.30000000e-009,2.00000014e-004
,,,5.32500000e-009,2.43750017e-004
,,,5.35000000e-009,2.87500020e-004
,,,5.37500000e-009,3.29687523e-004
,,,5.40000000e-009,3.65625026e-004
,,,5.42500000e-009,3.92187528e-004
,,,5.45000000e-009,4.08593779e-004
,,,5.47500000e-009,4.10937529e-004
,,,5.50000000e-009,4.00000028e-004
,,,5.52500000e-009,3.67187526e-004
,,,5.55000000e-009,3.23437523e-004
,,,5.57500000e-009,2.70312519e-004
,,,5.60000000e-009,2.12500015e-004
,,,5.62500000e-009,1.52343761e-004
,,,5.65000000e-009,9.53125067e-005
,,,5.67500000e-009,4.29687530e-005
,,,5.70000000e-009,0.00000000e+000
,,,5.72500000e-009,-3.35937524e-005
,,,5.75000000e-009,-5.46875039e-005
,,,5.77500000e-009,-6.48437546e-005
,,,5.80000000e-009,-6.40625045e-005
,,,5.82500000e-009,-5.39062538e-005
,,,5.85000000e-009,-3.82812527e-005
,,,5.87500000e-009,-1.95312514e-005
,,,5.90000000e-009,0.00000000e+000
,,,5.92500000e-009,1.64062512e-005
,,,5.95000000e-009,2.96875021e-005
