RawData/SinglePhotoelectron/R5_2pt2B_5mV/wave018_Ch2.csv

"Record Length",1000,"Points",-7.72500000e-009,2.12500015e-004
"Sample Interval",2.50000000e-011,s,-7.70000000e-009,2.14843765e-004
"Trigger Point",309,"Samples",-7.67500000e-009,2.14843765e-004
"Trigger Time",2.40200000e-011,s,-7.65000000e-009,2.10156265e-004
"",,,-7.62500000e-009,2.00000014e-004
"Horizontal Offset",-7.72500000e-009,s,-7.60000000e-009,1.79687513e-004
,,,-7.57500000e-009,1.54687511e-004
,,,-7.55000000e-009,1.26562509e-004
,,,-7.52500000e-009,9.68750069e-005
,,,-7.50000000e-009,6.79687548e-005
,,,-7.47500000e-009,4.06250029e-005
,,,-7.45000000e-009,1.79687513e-005
,,,-7.42500000e-009,0.00000000e+000
,,,-7.40000000e-009,-1.40625010e-005
,,,-7.37500000e-009,-2.18750015e-005
,,,-7.35000000e-009,-2.42187517e-005
,,,-7.32500000e-009,-2.26562516e-005
,,,-7.30000000e-009,-1.79687513e-005
,,,-7.27500000e-009,-1.17187508e-005
,,,-7.25000000e-009,-4.68750033e-006
,,,-7.22500000e-009,0.00000000e+000
,,,-7.20000000e-009,2.34375017e-006
,,,-7.17500000e-009,3.12500022e-006
,,,-7.15000000e-009,1.56250011e-006
,,,-7.12500000e-009,0.00000000e+000
,,,-7.10000000e-009,-1.56250011e-006
,,,-7.07500000e-009,-3.12500022e-006
,,,-7.05000000e-009,-2.34375017e-006
,,,-7.02500000e-009,0.00000000e+000
,,,-7.00000000e-009,3.90625028e-006
,,,-6.97500000e-009,9.37500066e-006
,,,-6.95000000e-009,1.48437511e-005
,,,-6.92500000e-009,1.95312514e-005
,,,-6.90000000e-009,2.10937515e-005
,,,-6.87500000e-009,1.87500013e-005
,,,-6.85000000e-009,1.17187508e-005
,,,-6.82500000e-009,0.00000000e+000
,,,-6.80000000e-009,-1.71875012e-005
,,,-6.77500000e-009,-4.06250029e-005
,,,-6.75000000e-009,-6.71875048e-005
,,,-6.72500000e-009,-9.60937568e-005
,,,-6.70000000e-009,-1.25781259e-004
,,,-6.67500000e-009,-1.53906261e-004
,,,-6.65000000e-009,-1.78906263e-004
,,,-6.62500000e-009,-2.00000014e-004
,,,-6.60000000e-009,-2.13281265e-004
,,,-6.57500000e-009,-2.21093766e-004
,,,-6.55000000e-009,-2.24218766e-004
,,,-6.52500000e-009,-2.23437516e-004
,,,-6.50000000e-009,-2.19531266e-004
,,,-6.47500000e-009,-2.13281265e-004
,,,-6.45000000e-009,-2.06250015e-004
,,,-6.42500000e-009,-2.00000014e-004
,,,-6.40000000e-009,-1.92187514e-004
,,,-6.37500000e-009,-1.87500013e-004
,,,-6.35000000e-009,-1.84375013e-004
,,,-6.32500000e-009,-1.84375013e-004
,,,-6.30000000e-009,-1.85937513e-004
,,,-6.27500000e-009,-1.89843763e-004
,,,-6.25000000e-009,-1.94531264e-004
,,,-6.22500000e-009,-2.00000014e-004
,,,-6.20000000e-009,-2.03125014e-004
,,,-6.17500000e-009,-2.05468765e-004
,,,-6.15000000e-009,-2.07812515e-004
,,,-6.12500000e-009,-2.07812515e-004
,,,-6.10000000e-009,-2.07812515e-004
,,,-6.07500000e-009,-2.05468765e-004
,,,-6.05000000e-009,-2.03125014e-004
,,,-6.02500000e-009,-2.00000014e-004
,,,-6.00000000e-009,-1.94531264e-004
,,,-5.97500000e-009,-1.89843763e-004
,,,-5.95000000e-009,-1.85937513e-004
,,,-5.92500000e-009,-1.84375013e-004
,,,-5.90000000e-009,-1.84375013e-004
,,,-5.87500000e-009,-1.87500013e-004
,,,-5.85000000e-009,-1.92187514e-004
,,,-5.82500000e-009,-2.00000014e-004
,,,-5.80000000e-009,-2.06250015e-004
,,,-5.77500000e-009,-2.13281265e-004
,,,-5.75000000e-009,-2.19531266e-004
,,,-5.72500000e-009,-2.23437516e-004
,,,-5.70000000e-009,-2.24218766e-004
,,,-5.67500000e-009,-2.21093766e-004
,,,-5.65000000e-009,-2.13281265e-004
,,,-5.62500000e-009,-2.00000014e-004
,,,-5.60000000e-009,-1.79687513e-004
,,,-5.57500000e-009,-1.56250011e-004
,,,-5.55000000e-009,-1.28906259e-004
,,,-5.52500000e-009,-1.00000007e-004
,,,-5.50000000e-009,-7.03125050e-005
,,,-5.47500000e-009,-4.29687530e-005
,,,-5.45000000e-009,-1.95312514e-005
,,,-5.42500000e-009,0.00000000e+000
,,,-5.40000000e-009,1.32812509e-005
,,,-5.37500000e-009,2.10937515e-005
,,,-5.35000000e-009,2.42187517e-005
,,,-5.32500000e-009,2.34375017e-005
,,,-5.30000000e-009,1.95312514e-005
,,,-5.27500000e-009,1.32812509e-005
,,,-5.25000000e-009,6.25000044e-006
,,,-5.22500000e-009,0.00000000e+000
,,,-5.20000000e-009,-5.46875039e-006
,,,-5.17500000e-009,-1.01562507e-005
,,,-5.15000000e-009,-1.17187508e-005
,,,-5.12500000e-009,-1.17187508e-005
,,,-5.10000000e-009,-9.37500066e-006
,,,-5.07500000e-009,-7.03125050e-006
,,,-5.05000000e-009,-3.12500022e-006
,,,-5.02500000e-009,0.00000000e+000
,,,-5.00000000e-009,1.56250011e-006
,,,-4.97500000e-009,3.12500022e-006
,,,-4.95000000e-009,3.90625028e-006
,,,-4.92500000e-009,3.90625028e-006
,,,-4.90000000e-009,3.12500022e-006
,,,-4.87500000e-009,2.34375017e-006
,,,-4.85000000e-009,7.81250055e-007
,,,-4.82500000e-009,0.00000000e+000
,,,-4.80000000e-009,-1.56250011e-006
,,,-4.77500000e-009,-2.34375017e-006
,,,-4.75000000e-009,-3.12500022e-006
,,,-4.72500000e-009,-3.12500022e-006
,,,-4.70000000e-009,-2.34375017e-006
,,,-4.67500000e-009,-1.56250011e-006
,,,-4.65000000e-009,-7.81250055e-007
,,,-4.62500000e-009,0.00000000e+000
,,,-4.60000000e-009,-7.81250055e-007
,,,-4.57500000e-009,-1.56250011e-006
,,,-4.55000000e-009,-2.34375017e-006
,,,-4.52500000e-009,-3.12500022e-006
,,,-4.50000000e-009,-3.12500022e-006
,,,-4.47500000e-009,-2.34375017e-006
,,,-4.45000000e-009,-1.56250011e-006
,,,-4.42500000e-009,0.00000000e+000
,,,-4.40000000e-009,7.81250055e-007
,,,-4.37500000e-009,2.34375017e-006
,,,-4.35000000e-009,3.12500022e-006
,,,-4.32500000e-009,3.90625028e-006
,,,-4.30000000e-009,3.90625028e-006
,,,-4.27500000e-009,3.12500022e-006
,,,-4.25000000e-009,1.56250011e-006
,,,-4.22500000e-009,0.00000000e+000
,,,-4.20000000e-009,-3.12500022e-006
,,,-4.17500000e-009,-7.03125050e-006
,,,-4.15000000e-009,-9.37500066e-006
,,,-4.12500000e-009,-1.17187508e-005
,,,-4.10000000e-009,-1.17187508e-005
,,,-4.07500000e-009,-1.01562507e-005
,,,-4.05000000e-009,-5.46875039e-006
,,,-4.02500000e-009,0.00000000e+000
,,,-4.00000000e-009,5.46875039e-006
,,,-3.97500000e-009,1.09375008e-005
,,,-3.95000000e-009,1.64062512e-005
,,,-3.92500000e-009,2.03125014e-005
,,,-3.90000000e-009,2.10937515e-005
,,,-3.87500000e-009,1.79687513e-005
,,,-3.85000000e-009,1.17187508e-005
,,,-3.82500000e-009,0.00000000e+000
,,,-3.80000000e-009,-1.71875012e-005
,,,-3.77500000e-009,-3.90625028e-005
,,,-3.75000000e-009,-6.40625045e-005
,,,-3.72500000e-009,-9.21875065e-005
,,,-3.70000000e-009,-1.21093759e-004
,,,-3.67500000e-009,-1.49218761e-004
,,,-3.65000000e-009,-1.75781262e-004
,,,-3.62500000e-009,-2.00000014e-004
,,,-3.60000000e-009,-2.17187515e-004
,,,-3.57500000e-009,-2.28906266e-004
,,,-3.55000000e-009,-2.35156267e-004
,,,-3.52500000e-009,-2.36718767e-004
,,,-3.50000000e-009,-2.32031266e-004
,,,-3.47500000e-009,-2.24218766e-004
,,,-3.45000000e-009,-2.12500015e-004
,,,-3.42500000e-009,-2.00000014e-004
,,,-3.40000000e-009,-1.84375013e-004
,,,-3.37500000e-009,-1.71093762e-004
,,,-3.35000000e-009,-1.60937511e-004
,,,-3.32500000e-009,-1.56250011e-004
,,,-3.30000000e-009,-1.57031261e-004
,,,-3.27500000e-009,-1.64062512e-004
,,,-3.25000000e-009,-1.78906263e-004
,,,-3.22500000e-009,-2.00000014e-004
,,,-3.20000000e-009,-2.24218766e-004
,,,-3.17500000e-009,-2.53125018e-004
,,,-3.15000000e-009,-2.84375020e-004
,,,-3.12500000e-009,-3.15625022e-004
,,,-3.10000000e-009,-3.44531274e-004
,,,-3.07500000e-009,-3.69531276e-004
,,,-3.05000000e-009,-3.88281277e-004
,,,-3.02500000e-009,-4.00000028e-004
,,,-3.00000000e-009,-3.98437528e-004
,,,-2.97500000e-009,-3.88281277e-004
,,,-2.95000000e-009,-3.69531276e-004
,,,-2.92500000e-009,-3.43750024e-004
,,,-2.90000000e-009,-3.12500022e-004
,,,-2.87500000e-009,-2.76562520e-004
,,,-2.85000000e-009,-2.38281267e-004
,,,-2.82500000e-009,-2.00000014e-004
,,,-2.80000000e-009,-1.60156261e-004
,,,-2.77500000e-009,-1.24218759e-004
,,,-2.75000000e-009,-9.14062565e-005
,,,-2.72500000e-009,-6.40625045e-005
,,,-2.70000000e-009,-4.06250029e-005
,,,-2.67500000e-009,-2.26562516e-005
,,,-2.65000000e-009,-9.37500066e-006
,,,-2.62500000e-009,0.00000000e+000
,,,-2.60000000e-009,3.90625028e-006
,,,-2.57500000e-009,5.46875039e-006
,,,-2.55000000e-009,5.46875039e-006
,,,-2.52500000e-009,3.90625028e-006
,,,-2.50000000e-009,2.34375017e-006
,,,-2.47500000e-009,7.81250055e-007
,,,-2.45000000e-009,0.00000000e+000
,,,-2.42500000e-009,0.00000000e+000
,,,-2.40000000e-009,-7.81250055e-007
,,,-2.37500000e-009,-7.81250055e-007
,,,-2.35000000e-009,-7.81250055e-007
,,,-2.32500000e-009,0.00000000e+000
,,,-2.30000000e-009,0.00000000e+000
,,,-2.27500000e-009,7.81250055e-007
,,,-2.25000000e-009,7.81250055e-007
,,,-2.22500000e-009,0.00000000e+000
,,,-2.20000000e-009,-3.90625028e-006
,,,-2.17500000e-009,-7.81250055e-006
,,,-2.15000000e-009,-1.17187508e-005
,,,-2.12500000e-009,-1.40625010e-005
,,,-2.10000000e-009,-1.48437511e-005
,,,-2.07500000e-009,-1.25000009e-005
,,,-2.05000000e-009,-7.03125050e-006
,,,-2.02500000e-009,0.00000000e+000
,,,-2.00000000e-009,4.68750033e-006
,,,-1.97500000e-009,1.09375008e-005
,,,-1.95000000e-009,1.64062512e-005
,,,-1.92500000e-009,2.10937515e-005
,,,-1.90000000e-009,2.26562516e-005
,,,-1.87500000e-009,2.03125014e-005
,,,-1.85000000e-009,1.25000009e-005
,,,-1.82500000e-009,0.00000000e+000
,,,-1.80000000e-009,-2.42187517e-005
,,,-1.77500000e-009,-5.39062538e-005
,,,-1.75000000e-009,-8.59375061e-005
,,,-1.72500000e-009,-1.17187508e-004
,,,-1.70000000e-009,-1.46875010e-004
,,,-1.67500000e-009,-1.71875012e-004
,,,-1.65000000e-009,-1.89062513e-004
,,,-1.62500000e-009,-2.00000014e-004
,,,-1.60000000e-009,-2.09375015e-004
,,,-1.57500000e-009,-2.13281265e-004
,,,-1.55000000e-009,-2.12500015e-004
,,,-1.52500000e-009,-2.09375015e-004
,,,-1.50000000e-009,-2.03906264e-004
,,,-1.47500000e-009,-2.00000014e-004
,,,-1.45000000e-009,-1.97656264e-004
,,,-1.42500000e-009,-2.00000014e-004
,,,-1.40000000e-009,-2.17187515e-004
,,,-1.37500000e-009,-2.40625017e-004
,,,-1.35000000e-009,-2.69531269e-004
,,,-1.32500000e-009,-3.00781271e-004
,,,-1.30000000e-009,-3.31250023e-004
,,,-1.27500000e-009,-3.59375025e-004
,,,-1.25000000e-009,-3.82031277e-004
,,,-1.22500000e-009,-4.00000028e-004
,,,-1.20000000e-009,-4.27343780e-004
,,,-1.17500000e-009,-4.52343782e-004
,,,-1.15000000e-009,-4.76562534e-004
,,,-1.12500000e-009,-4.99218785e-004
,,,-1.10000000e-009,-5.21093787e-004
,,,-1.07500000e-009,-5.44531289e-004
,,,-1.05000000e-009,-5.69531290e-004
,,,-1.02500000e-009,-6.00000042e-004
,,,-1.00000000e-009,-6.53906296e-004
,,,-9.75000000e-010,-7.18750051e-004
,,,-9.50000000e-010,-7.92187556e-004
,,,-9.25000000e-010,-8.71875062e-004
,,,-9.00000000e-010,-9.54687568e-004
,,,-8.75000000e-010,-1.03906257e-003
,,,-8.50000000e-010,-1.12109383e-003
,,,-8.25000000e-010,-1.20000008e-003
,,,-8.00000000e-010,-1.29062509e-003
,,,-7.75000000e-010,-1.37968760e-003
,,,-7.50000000e-010,-1.46484385e-003
,,,-7.25000000e-010,-1.54453136e-003
,,,-7.00000000e-010,-1.61796886e-003
,,,-6.75000000e-010,-1.68359387e-003
,,,-6.50000000e-010,-1.74375012e-003
,,,-6.25000000e-010,-1.80000013e-003
,,,-6.00000000e-010,-1.86875013e-003
,,,-5.75000000e-010,-1.94375014e-003
,,,-5.50000000e-010,-2.02656264e-003
,,,-5.25000000e-010,-2.11875015e-003
,,,-5.00000000e-010,-2.22187516e-003
,,,-4.75000000e-010,-2.33593767e-003
,,,-4.50000000e-010,-2.46171892e-003
,,,-4.25000000e-010,-2.60000018e-003
,,,-4.00000000e-010,-2.75625020e-003
,,,-3.75000000e-010,-2.92656271e-003
,,,-3.50000000e-010,-3.10625022e-003
,,,-3.25000000e-010,-3.29218773e-003
,,,-3.00000000e-010,-3.47812525e-003
,,,-2.75000000e-010,-3.66093776e-003
,,,-2.50000000e-010,-3.83515652e-003
,,,-2.25000000e-010,-4.00000028e-003
,,,-2.00000000e-010,-4.14687529e-003
,,,-1.75000000e-010,-4.28593780e-003
,,,-1.50000000e-010,-4.41718781e-003
,,,-1.25000000e-010,-4.54218782e-003
,,,-1.00000000e-010,-4.66171908e-003
,,,-7.50000000e-011,-4.77656284e-003
,,,-5.00000000e-011,-4.88906285e-003
,,,-2.50000000e-011,-5.00000035e-003
,,,0.00000000e+000,-5.09531286e-003
,,,2.50000000e-011,-5.19453162e-003
,,,5.00000000e-011,-5.29765662e-003
,,,7.50000000e-011,-5.40312538e-003
,,,1.00000000e-010,-5.50859414e-003
,,,1.25000000e-010,-5.61171915e-003
,,,1.50000000e-010,-5.70937540e-003
,,,1.75000000e-010,-5.80000041e-003
,,,2.00000000e-010,-5.85859416e-003
,,,2.25000000e-010,-5.91250042e-003
,,,2.50000000e-010,-5.96250042e-003
,,,2.75000000e-010,-6.01015668e-003
,,,3.00000000e-010,-6.05703168e-003
,,,3.25000000e-010,-6.10390668e-003
,,,3.50000000e-010,-6.15156294e-003
,,,3.75000000e-010,-6.20000044e-003
,,,4.00000000e-010,-6.22031294e-003
,,,4.25000000e-010,-6.24453169e-003
,,,4.50000000e-010,-6.27109419e-003
,,,4.75000000e-010,-6.30000045e-003
,,,5.00000000e-010,-6.32968795e-003
,,,5.25000000e-010,-6.35703170e-003
,,,5.50000000e-010,-6.38125045e-003
,,,5.75000000e-010,-6.40000045e-003
,,,6.00000000e-010,-6.38125045e-003
,,,6.25000000e-010,-6.35781295e-003
,,,6.50000000e-010,-6.33046920e-003
,,,6.75000000e-010,-6.30234420e-003
,,,7.00000000e-010,-6.27421919e-003
,,,7.25000000e-010,-6.24765669e-003
,,,7.50000000e-010,-6.22265669e-003
,,,7.75000000e-010,-6.20000044e-003
,,,8.00000000e-010,-6.15156294e-003
,,,8.25000000e-010,-6.10390668e-003
,,,8.50000000e-010,-6.05625043e-003
,,,8.75000000e-010,-6.00937543e-003
,,,9.00000000e-010,-5.96171917e-003
,,,9.25000000e-010,-5.91171917e-003
,,,9.50000000e-010,-5.85859416e-003
,,,9.75000000e-010,-5.80000041e-003
,,,1.00000000e-009,-5.71328165e-003
,,,1.02500000e-009,-5.61953165e-003
,,,1.05000000e-009,-5.51953164e-003
,,,1.07500000e-009,-5.41562538e-003
,,,1.10000000e-009,-5.30937538e-003
,,,1.12500000e-009,-5.20390662e-003
,,,1.15000000e-009,-5.10000036e-003
,,,1.17500000e-009,-5.00000035e-003
,,,1.20000000e-009,-4.88750035e-003
,,,1.22500000e-009,-4.77734409e-003
,,,1.25000000e-009,-4.67031283e-003
,,,1.27500000e-009,-4.56718782e-003
,,,1.30000000e-009,-4.46796907e-003
,,,1.32500000e-009,-4.37421906e-003
,,,1.35000000e-009,-4.28515655e-003
,,,1.37500000e-009,-4.20000030e-003
,,,1.40000000e-009,-4.10703154e-003
,,,1.42500000e-009,-4.01250028e-003
,,,1.45000000e-009,-3.91406278e-003
,,,1.47500000e-009,-3.81328152e-003
,,,1.50000000e-009,-3.71093776e-003
,,,1.52500000e-009,-3.60703151e-003
,,,1.55000000e-009,-3.50312525e-003
,,,1.57500000e-009,-3.40000024e-003
,,,1.60000000e-009,-3.29531273e-003
,,,1.62500000e-009,-3.18906273e-003
,,,1.65000000e-009,-3.08125022e-003
,,,1.67500000e-009,-2.97500021e-003
,,,1.70000000e-009,-2.87187520e-003
,,,1.72500000e-009,-2.77421895e-003
,,,1.75000000e-009,-2.68281269e-003
,,,1.77500000e-009,-2.60000018e-003
,,,1.80000000e-009,-2.52812518e-003
,,,1.82500000e-009,-2.45781267e-003
,,,1.85000000e-009,-2.38750017e-003
,,,1.87500000e-009,-2.31562516e-003
,,,1.90000000e-009,-2.24218766e-003
,,,1.92500000e-009,-2.16484390e-003
,,,1.95000000e-009,-2.08437515e-003
,,,1.97500000e-009,-2.00000014e-003
,,,2.00000000e-009,-1.91796889e-003
,,,2.02500000e-009,-1.82734388e-003
,,,2.05000000e-009,-1.72890637e-003
,,,2.07500000e-009,-1.62500012e-003
,,,2.10000000e-009,-1.51640636e-003
,,,2.12500000e-009,-1.40781260e-003
,,,2.15000000e-009,-1.30156259e-003
,,,2.17500000e-009,-1.20000008e-003
,,,2.20000000e-009,-1.11406258e-003
,,,2.22500000e-009,-1.03125007e-003
,,,2.25000000e-009,-9.50781317e-004
,,,2.27500000e-009,-8.73437562e-004
,,,2.30000000e-009,-7.99218807e-004
,,,2.32500000e-009,-7.28125052e-004
,,,2.35000000e-009,-6.61718797e-004
,,,2.37500000e-009,-6.00000042e-004
,,,2.40000000e-009,-5.57031289e-004
,,,2.42500000e-009,-5.17187537e-004
,,,2.45000000e-009,-4.80468784e-004
,,,2.47500000e-009,-4.48437532e-004
,,,2.50000000e-009,-4.23437530e-004
,,,2.52500000e-009,-4.05468779e-004
,,,2.55000000e-009,-3.97656278e-004
,,,2.57500000e-009,-4.00000028e-004
,,,2.60000000e-009,-4.22656280e-004
,,,2.62500000e-009,-4.50781282e-004
,,,2.65000000e-009,-4.82031284e-004
,,,2.67500000e-009,-5.12500036e-004
,,,2.70000000e-009,-5.41406288e-004
,,,2.72500000e-009,-5.67187540e-004
,,,2.75000000e-009,-5.86718792e-004
,,,2.77500000e-009,-6.00000042e-004
,,,2.80000000e-009,-6.09375043e-004
,,,2.82500000e-009,-6.07812543e-004
,,,2.85000000e-009,-5.93750042e-004
,,,2.87500000e-009,-5.68750040e-004
,,,2.90000000e-009,-5.34375038e-004
,,,2.92500000e-009,-4.92968785e-004
,,,2.95000000e-009,-4.47656282e-004
,,,2.97500000e-009,-4.00000028e-004
,,,3.00000000e-009,-3.57812525e-004
,,,3.02500000e-009,-3.17968773e-004
,,,3.05000000e-009,-2.81250020e-004
,,,3.07500000e-009,-2.50000018e-004
,,,3.10000000e-009,-2.25000016e-004
,,,3.12500000e-009,-2.07812515e-004
,,,3.15000000e-009,-1.99218764e-004
,,,3.17500000e-009,-2.00000014e-004
,,,3.20000000e-009,-2.12500015e-004
,,,3.22500000e-009,-2.31250016e-004
,,,3.25000000e-009,-2.55468768e-004
,,,3.27500000e-009,-2.83593770e-004
,,,3.30000000e-009,-3.13281272e-004
,,,3.32500000e-009,-3.43750024e-004
,,,3.35000000e-009,-3.72656276e-004
,,,3.37500000e-009,-4.00000028e-004
,,,3.40000000e-009,-4.21093780e-004
,,,3.42500000e-009,-4.36718781e-004
,,,3.45000000e-009,-4.46093782e-004
,,,3.47500000e-009,-4.48437532e-004
,,,3.50000000e-009,-4.44531281e-004
,,,3.52500000e-009,-4.34375031e-004
,,,3.55000000e-009,-4.19531280e-004
,,,3.57500000e-009,-4.00000028e-004
,,,3.60000000e-009,-3.75781277e-004
,,,3.62500000e-009,-3.49218775e-004
,,,3.65000000e-009,-3.21875023e-004
,,,3.67500000e-009,-2.94531271e-004
,,,3.70000000e-009,-2.67187519e-004
,,,3.72500000e-009,-2.42187517e-004
,,,3.75000000e-009,-2.19531266e-004
,,,3.77500000e-009,-2.00000014e-004
,,,3.80000000e-009,-1.85156263e-004
,,,3.82500000e-009,-1.75000012e-004
,,,3.85000000e-009,-1.68750012e-004
,,,3.87500000e-009,-1.67187512e-004
,,,3.90000000e-009,-1.69531262e-004
,,,3.92500000e-009,-1.76562512e-004
,,,3.95000000e-009,-1.86718763e-004
,,,3.97500000e-009,-2.00000014e-004
,,,4.00000000e-009,-2.14062515e-004
,,,4.02500000e-009,-2.27343766e-004
,,,4.05000000e-009,-2.38281267e-004
,,,4.07500000e-009,-2.43750017e-004
,,,4.10000000e-009,-2.43750017e-004
,,,4.12500000e-009,-2.36718767e-004
,,,4.15000000e-009,-2.21875016e-004
,,,4.17500000e-009,-2.00000014e-004
,,,4.20000000e-009,-1.71093762e-004
,,,4.22500000e-009,-1.39062510e-004
,,,4.25000000e-009,-1.04687507e-004
,,,4.27500000e-009,-7.18750051e-005
,,,4.30000000e-009,-4.21875030e-005
,,,4.32500000e-009,-1.87500013e-005
,,,4.35000000e-009,-4.68750033e-006
,,,4.37500000e-009,0.00000000e+000
,,,4.40000000e-009,-6.25000044e-006
,,,4.42500000e-009,-2.26562516e-005
,,,4.45000000e-009,-4.60937533e-005
,,,4.47500000e-009,-7.57812554e-005
,,,4.50000000e-009,-1.08593758e-004
,,,4.52500000e-009,-1.41406260e-004
,,,4.55000000e-009,-1.72656262e-004
,,,4.57500000e-009,-2.00000014e-004
,,,4.60000000e-009,-2.20312516e-004
,,,4.62500000e-009,-2.34375017e-004
,,,4.65000000e-009,-2.40625017e-004
,,,4.67500000e-009,-2.39843767e-004
,,,4.70000000e-009,-2.33593767e-004
,,,4.72500000e-009,-2.23437516e-004
,,,4.75000000e-009,-2.11718765e-004
,,,4.77500000e-009,-2.00000014e-004
,,,4.80000000e-009,-1.86718763e-004
,,,4.82500000e-009,-1.76562512e-004
,,,4.85000000e-009,-1.70312512e-004
,,,4.87500000e-009,-1.67968762e-004
,,,4.90000000e-009,-1.70312512e-004
,,,4.92500000e-009,-1.76562512e-004
,,,4.95000000e-009,-1.86718763e-004
,,,4.97500000e-009,-2.00000014e-004
,,,5.00000000e-009,-2.11718765e-004
,,,5.02500000e-009,-2.21875016e-004
,,,5.05000000e-009,-2.30468766e-004
,,,5.07500000e-009,-2.35156267e-004
,,,5.10000000e-009,-2.35156267e-004
,,,5.12500000e-009,-2.29687516e-004
,,,5.15000000e-009,-2.17187515e-004
,,,5.17500000e-009,-2.00000014e-004
,,,5.20000000e-009,-1.75781262e-004
,,,5.22500000e-009,-1.47656260e-004
,,,5.25000000e-009,-1.17968758e-004
,,,5.27500000e-009,-8.75000062e-005
,,,5.30000000e-009,-5.93750042e-005
,,,5.32500000e-009,-3.43750024e-005
,,,5.35000000e-009,-1.40625010e-005
,,,5.37500000e-009,0.00000000e+000
,,,5.40000000e-009,7.03125050e-006
,,,5.42500000e-009,8.59375061e-006
,,,5.45000000e-009,5.46875039e-006
,,,5.47500000e-009,7.81250055e-007
,,,5.50000000e-009,-3.90625028e-006
,,,5.52500000e-009,-7.03125050e-006
,,,5.55000000e-009,-6.25000044e-006
,,,5.57500000e-009,0.00000000e+000
,,,5.60000000e-009,1.09375008e-005
,,,5.62500000e-009,2.81250020e-005
,,,5.65000000e-009,5.15625036e-005
,,,5.67500000e-009,7.96875056e-005
,,,5.70000000e-009,1.10156258e-004
,,,5.72500000e-009,1.42187510e-004
,,,5.75000000e-009,1.72656262e-004
,,,5.77500000e-009,2.00000014e-004
,,,5.80000000e-009,2.19531266e-004
,,,5.82500000e-009,2.33593767e-004
,,,5.85000000e-009,2.41406267e-004
,,,5.87500000e-009,2.42968767e-004
