RawData/SinglePhotoelectron/R5_2pt2B_5mV/wave000_Ch2.csv

"Record Length",1000,"Points",-7.72500000e-009,-2.07812515e-004
"Sample Interval",2.50000000e-011,s,-7.70000000e-009,-2.10937515e-004
"Trigger Point",309,"Samples",-7.67500000e-009,-2.10937515e-004
"Trigger Time",2.40200000e-011,s,-7.65000000e-009,-2.07812515e-004
"",,,-7.62500000e-009,-2.00000014e-004
"Horizontal Offset",-7.72500000e-009,s,-7.60000000e-009,-1.84375013e-004
,,,-7.57500000e-009,-1.64062512e-004
,,,-7.55000000e-009,-1.39062510e-004
,,,-7.52500000e-009,-1.11718758e-004
,,,-7.50000000e-009,-8.20312558e-005
,,,-7.47500000e-009,-5.23437537e-005
,,,-7.45000000e-009,-2.42187517e-005
,,,-7.42500000e-009,0.00000000e+000
,,,-7.40000000e-009,1.95312514e-005
,,,-7.37500000e-009,3.35937524e-005
,,,-7.35000000e-009,4.14062529e-005
,,,-7.32500000e-009,4.29687530e-005
,,,-7.30000000e-009,3.82812527e-005
,,,-7.27500000e-009,2.89062520e-005
,,,-7.25000000e-009,1.56250011e-005
,,,-7.22500000e-009,0.00000000e+000
,,,-7.20000000e-009,-1.56250011e-005
,,,-7.17500000e-009,-3.04687522e-005
,,,-7.15000000e-009,-4.14062529e-005
,,,-7.12500000e-009,-4.76562534e-005
,,,-7.10000000e-009,-4.68750033e-005
,,,-7.07500000e-009,-3.90625028e-005
,,,-7.05000000e-009,-2.26562516e-005
,,,-7.02500000e-009,0.00000000e+000
,,,-7.00000000e-009,2.73437519e-005
,,,-6.97500000e-009,5.85937541e-005
,,,-6.95000000e-009,9.14062565e-005
,,,-6.92500000e-009,1.24218759e-004
,,,-6.90000000e-009,1.53906261e-004
,,,-6.87500000e-009,1.77343763e-004
,,,-6.85000000e-009,1.92968764e-004
,,,-6.82500000e-009,2.00000014e-004
,,,-6.80000000e-009,1.92968764e-004
,,,-6.77500000e-009,1.77343763e-004
,,,-6.75000000e-009,1.53906261e-004
,,,-6.72500000e-009,1.24218759e-004
,,,-6.70000000e-009,9.14062565e-005
,,,-6.67500000e-009,5.85937541e-005
,,,-6.65000000e-009,2.73437519e-005
,,,-6.62500000e-009,0.00000000e+000
,,,-6.60000000e-009,-2.26562516e-005
,,,-6.57500000e-009,-3.90625028e-005
,,,-6.55000000e-009,-4.68750033e-005
,,,-6.52500000e-009,-4.76562534e-005
,,,-6.50000000e-009,-4.14062529e-005
,,,-6.47500000e-009,-3.04687522e-005
,,,-6.45000000e-009,-1.56250011e-005
,,,-6.42500000e-009,0.00000000e+000
,,,-6.40000000e-009,1.48437511e-005
,,,-6.37500000e-009,2.73437519e-005
,,,-6.35000000e-009,3.59375025e-005
,,,-6.32500000e-009,3.98437528e-005
,,,-6.30000000e-009,3.82812527e-005
,,,-6.27500000e-009,3.12500022e-005
,,,-6.25000000e-009,1.79687513e-005
,,,-6.22500000e-009,0.00000000e+000
,,,-6.20000000e-009,-2.18750015e-005
,,,-6.17500000e-009,-4.76562534e-005
,,,-6.15000000e-009,-7.57812554e-005
,,,-6.12500000e-009,-1.03906257e-004
,,,-6.10000000e-009,-1.31250009e-004
,,,-6.07500000e-009,-1.57031261e-004
,,,-6.05000000e-009,-1.80468763e-004
,,,-6.02500000e-009,-2.00000014e-004
,,,-6.00000000e-009,-2.13281265e-004
,,,-5.97500000e-009,-2.22656266e-004
,,,-5.95000000e-009,-2.27343766e-004
,,,-5.92500000e-009,-2.27343766e-004
,,,-5.90000000e-009,-2.24218766e-004
,,,-5.87500000e-009,-2.17968765e-004
,,,-5.85000000e-009,-2.09375015e-004
,,,-5.82500000e-009,-2.00000014e-004
,,,-5.80000000e-009,-1.87500013e-004
,,,-5.77500000e-009,-1.78125013e-004
,,,-5.75000000e-009,-1.71093762e-004
,,,-5.72500000e-009,-1.67968762e-004
,,,-5.70000000e-009,-1.69531262e-004
,,,-5.67500000e-009,-1.75781262e-004
,,,-5.65000000e-009,-1.85937513e-004
,,,-5.62500000e-009,-2.00000014e-004
,,,-5.60000000e-009,-2.13281265e-004
,,,-5.57500000e-009,-2.26562516e-004
,,,-5.55000000e-009,-2.37500017e-004
,,,-5.52500000e-009,-2.43750017e-004
,,,-5.50000000e-009,-2.44531267e-004
,,,-5.47500000e-009,-2.37500017e-004
,,,-5.45000000e-009,-2.22656266e-004
,,,-5.42500000e-009,-2.00000014e-004
,,,-5.40000000e-009,-1.67968762e-004
,,,-5.37500000e-009,-1.32031259e-004
,,,-5.35000000e-009,-9.53125067e-005
,,,-5.32500000e-009,-6.01562543e-005
,,,-5.30000000e-009,-3.04687522e-005
,,,-5.27500000e-009,-9.37500066e-006
,,,-5.25000000e-009,7.81250055e-007
,,,-5.22500000e-009,0.00000000e+000
,,,-5.20000000e-009,-1.32812509e-005
,,,-5.17500000e-009,-3.75000027e-005
,,,-5.15000000e-009,-6.79687548e-005
,,,-5.12500000e-009,-1.03125007e-004
,,,-5.10000000e-009,-1.37500010e-004
,,,-5.07500000e-009,-1.67187512e-004
,,,-5.05000000e-009,-1.88281263e-004
,,,-5.02500000e-009,-2.00000014e-004
,,,-5.00000000e-009,-1.97656264e-004
,,,-4.97500000e-009,-1.83593763e-004
,,,-4.95000000e-009,-1.59375011e-004
,,,-4.92500000e-009,-1.28125009e-004
,,,-4.90000000e-009,-9.29687566e-005
,,,-4.87500000e-009,-5.70312540e-005
,,,-4.85000000e-009,-2.57812518e-005
,,,-4.82500000e-009,0.00000000e+000
,,,-4.80000000e-009,1.56250011e-005
,,,-4.77500000e-009,2.34375017e-005
,,,-4.75000000e-009,2.42187517e-005
,,,-4.72500000e-009,2.03125014e-005
,,,-4.70000000e-009,1.32812509e-005
,,,-4.67500000e-009,5.46875039e-006
,,,-4.65000000e-009,7.81250055e-007
,,,-4.62500000e-009,0.00000000e+000
,,,-4.60000000e-009,1.56250011e-006
,,,-4.57500000e-009,7.81250055e-006
,,,-4.55000000e-009,1.56250011e-005
,,,-4.52500000e-009,2.34375017e-005
,,,-4.50000000e-009,2.81250020e-005
,,,-4.47500000e-009,2.65625019e-005
,,,-4.45000000e-009,1.79687513e-005
,,,-4.42500000e-009,0.00000000e+000
,,,-4.40000000e-009,-2.73437519e-005
,,,-4.37500000e-009,-6.17187544e-005
,,,-4.35000000e-009,-9.92187570e-005
,,,-4.32500000e-009,-1.35156260e-004
,,,-4.30000000e-009,-1.67187512e-004
,,,-4.27500000e-009,-1.89843763e-004
,,,-4.25000000e-009,-2.01562514e-004
,,,-4.22500000e-009,-2.00000014e-004
,,,-4.20000000e-009,-1.85156263e-004
,,,-4.17500000e-009,-1.59375011e-004
,,,-4.15000000e-009,-1.26562509e-004
,,,-4.12500000e-009,-8.98437564e-005
,,,-4.10000000e-009,-5.54687539e-005
,,,-4.07500000e-009,-2.57812518e-005
,,,-4.05000000e-009,-7.03125050e-006
,,,-4.02500000e-009,0.00000000e+000
,,,-4.00000000e-009,-8.59375061e-006
,,,-3.97500000e-009,-2.96875021e-005
,,,-3.95000000e-009,-5.93750042e-005
,,,-3.92500000e-009,-9.53125067e-005
,,,-3.90000000e-009,-1.31250009e-004
,,,-3.87500000e-009,-1.64062512e-004
,,,-3.85000000e-009,-1.87500013e-004
,,,-3.82500000e-009,-2.00000014e-004
,,,-3.80000000e-009,-1.98437514e-004
,,,-3.77500000e-009,-1.85156263e-004
,,,-3.75000000e-009,-1.60156261e-004
,,,-3.72500000e-009,-1.28125009e-004
,,,-3.70000000e-009,-9.14062565e-005
,,,-3.67500000e-009,-5.54687539e-005
,,,-3.65000000e-009,-2.34375017e-005
,,,-3.62500000e-009,0.00000000e+000
,,,-3.60000000e-009,9.37500066e-006
,,,-3.57500000e-009,6.25000044e-006
,,,-3.55000000e-009,-8.59375061e-006
,,,-3.52500000e-009,-3.59375025e-005
,,,-3.50000000e-009,-7.10937550e-005
,,,-3.47500000e-009,-1.11718758e-004
,,,-3.45000000e-009,-1.56250011e-004
,,,-3.42500000e-009,-2.00000014e-004
,,,-3.40000000e-009,-2.42968767e-004
,,,-3.37500000e-009,-2.81250020e-004
,,,-3.35000000e-009,-3.14843772e-004
,,,-3.32500000e-009,-3.42187524e-004
,,,-3.30000000e-009,-3.64062526e-004
,,,-3.27500000e-009,-3.80468777e-004
,,,-3.25000000e-009,-3.92187528e-004
,,,-3.22500000e-009,-4.00000028e-004
,,,-3.20000000e-009,-4.03125029e-004
,,,-3.17500000e-009,-4.04687529e-004
,,,-3.15000000e-009,-4.05468779e-004
,,,-3.12500000e-009,-4.04687529e-004
,,,-3.10000000e-009,-4.03906279e-004
,,,-3.07500000e-009,-4.02343778e-004
,,,-3.05000000e-009,-4.00781278e-004
,,,-3.02500000e-009,-4.00000028e-004
,,,-3.00000000e-009,-3.97656278e-004
,,,-2.97500000e-009,-3.96093778e-004
,,,-2.95000000e-009,-3.95312528e-004
,,,-2.92500000e-009,-3.95312528e-004
,,,-2.90000000e-009,-3.95312528e-004
,,,-2.87500000e-009,-3.96093778e-004
,,,-2.85000000e-009,-3.96875028e-004
,,,-2.82500000e-009,-4.00000028e-004
,,,-2.80000000e-009,-4.03906279e-004
,,,-2.77500000e-009,-4.11718779e-004
,,,-2.75000000e-009,-4.25000030e-004
,,,-2.72500000e-009,-4.44531281e-004
,,,-2.70000000e-009,-4.71875033e-004
,,,-2.67500000e-009,-5.07812536e-004
,,,-2.65000000e-009,-5.50781289e-004
,,,-2.62500000e-009,-6.00000042e-004
,,,-2.60000000e-009,-6.48437546e-004
,,,-2.57500000e-009,-6.96875049e-004
,,,-2.55000000e-009,-7.42187553e-004
,,,-2.52500000e-009,-7.80468805e-004
,,,-2.50000000e-009,-8.08593807e-004
,,,-2.47500000e-009,-8.21875058e-004
,,,-2.45000000e-009,-8.19531308e-004
,,,-2.42500000e-009,-8.00000057e-004
,,,-2.40000000e-009,-7.59375054e-004
,,,-2.37500000e-009,-7.07031300e-004
,,,-2.35000000e-009,-6.46875046e-004
,,,-2.32500000e-009,-5.82812541e-004
,,,-2.30000000e-009,-5.21875037e-004
,,,-2.27500000e-009,-4.67968783e-004
,,,-2.25000000e-009,-4.26562530e-004
,,,-2.22500000e-009,-4.00000028e-004
,,,-2.20000000e-009,-3.90625028e-004
,,,-2.17500000e-009,-3.99218778e-004
,,,-2.15000000e-009,-4.21875030e-004
,,,-2.12500000e-009,-4.55468782e-004
,,,-2.10000000e-009,-4.94531285e-004
,,,-2.07500000e-009,-5.35156288e-004
,,,-2.05000000e-009,-5.71093790e-004
,,,-2.02500000e-009,-6.00000042e-004
,,,-2.00000000e-009,-6.17187544e-004
,,,-1.97500000e-009,-6.21093794e-004
,,,-1.95000000e-009,-6.10937543e-004
,,,-1.92500000e-009,-5.86718792e-004
,,,-1.90000000e-009,-5.50781289e-004
,,,-1.87500000e-009,-5.06250036e-004
,,,-1.85000000e-009,-4.54687532e-004
,,,-1.82500000e-009,-4.00000028e-004
,,,-1.80000000e-009,-3.51562525e-004
,,,-1.77500000e-009,-3.07812522e-004
,,,-1.75000000e-009,-2.71093769e-004
,,,-1.72500000e-009,-2.41406267e-004
,,,-1.70000000e-009,-2.20312516e-004
,,,-1.67500000e-009,-2.06250015e-004
,,,-1.65000000e-009,-1.99218764e-004
,,,-1.62500000e-009,-2.00000014e-004
,,,-1.60000000e-009,-2.19531266e-004
,,,-1.57500000e-009,-2.46093767e-004
,,,-1.55000000e-009,-2.75781270e-004
,,,-1.52500000e-009,-3.06250022e-004
,,,-1.50000000e-009,-3.35937524e-004
,,,-1.47500000e-009,-3.61718776e-004
,,,-1.45000000e-009,-3.82812527e-004
,,,-1.42500000e-009,-4.00000028e-004
,,,-1.40000000e-009,-4.29687530e-004
,,,-1.37500000e-009,-4.57812532e-004
,,,-1.35000000e-009,-4.83593784e-004
,,,-1.32500000e-009,-5.07812536e-004
,,,-1.30000000e-009,-5.30468788e-004
,,,-1.27500000e-009,-5.53125039e-004
,,,-1.25000000e-009,-5.75781291e-004
,,,-1.22500000e-009,-6.00000042e-004
,,,-1.20000000e-009,-6.45312546e-004
,,,-1.17500000e-009,-6.96875049e-004
,,,-1.15000000e-009,-7.51562553e-004
,,,-1.12500000e-009,-8.07031307e-004
,,,-1.10000000e-009,-8.60937561e-004
,,,-1.07500000e-009,-9.11718815e-004
,,,-1.05000000e-009,-9.57812568e-004
,,,-1.02500000e-009,-1.00000007e-003
,,,-1.00000000e-009,-1.05546882e-003
,,,-9.75000000e-010,-1.11406258e-003
,,,-9.50000000e-010,-1.17500008e-003
,,,-9.25000000e-010,-1.24218759e-003
,,,-9.00000000e-010,-1.31640634e-003
,,,-8.75000000e-010,-1.39921885e-003
,,,-8.50000000e-010,-1.49375011e-003
,,,-8.25000000e-010,-1.60000011e-003
,,,-8.00000000e-010,-1.73125012e-003
,,,-7.75000000e-010,-1.87578138e-003
,,,-7.50000000e-010,-2.03125014e-003
,,,-7.25000000e-010,-2.19140641e-003
,,,-7.00000000e-010,-2.35234392e-003
,,,-6.75000000e-010,-2.51015643e-003
,,,-6.50000000e-010,-2.65937519e-003
,,,-6.25000000e-010,-2.80000020e-003
,,,-6.00000000e-010,-2.92890646e-003
,,,-5.75000000e-010,-3.05234397e-003
,,,-5.50000000e-010,-3.17109397e-003
,,,-5.25000000e-010,-3.28906273e-003
,,,-5.00000000e-010,-3.40859399e-003
,,,-4.75000000e-010,-3.53281275e-003
,,,-4.50000000e-010,-3.66250026e-003
,,,-4.25000000e-010,-3.80000027e-003
,,,-4.00000000e-010,-3.93281278e-003
,,,-3.75000000e-010,-4.07343779e-003
,,,-3.50000000e-010,-4.21640655e-003
,,,-3.25000000e-010,-4.35781281e-003
,,,-3.00000000e-010,-4.49218782e-003
,,,-2.75000000e-010,-4.61328158e-003
,,,-2.50000000e-010,-4.71640658e-003
,,,-2.25000000e-010,-4.80000034e-003
,,,-2.00000000e-010,-4.84296909e-003
,,,-1.75000000e-010,-4.87031284e-003
,,,-1.50000000e-010,-4.88750035e-003
,,,-1.25000000e-010,-4.90000035e-003
,,,-1.00000000e-010,-4.91250035e-003
,,,-7.50000000e-011,-4.93125035e-003
,,,-5.00000000e-011,-4.95937535e-003
,,,-2.50000000e-011,-5.00000035e-003
,,,0.00000000e+000,-5.03125036e-003
,,,2.50000000e-011,-5.07656286e-003
,,,5.00000000e-011,-5.13359411e-003
,,,7.50000000e-011,-5.19843787e-003
,,,1.00000000e-010,-5.26328162e-003
,,,1.25000000e-010,-5.32265663e-003
,,,1.50000000e-010,-5.36953163e-003
,,,1.75000000e-010,-5.40000038e-003
,,,2.00000000e-010,-5.38515663e-003
,,,2.25000000e-010,-5.35312538e-003
,,,2.50000000e-010,-5.30625038e-003
,,,2.75000000e-010,-5.24843787e-003
,,,3.00000000e-010,-5.18437537e-003
,,,3.25000000e-010,-5.11875036e-003
,,,3.50000000e-010,-5.05625036e-003
,,,3.75000000e-010,-5.00000035e-003
,,,4.00000000e-010,-4.93515660e-003
,,,4.25000000e-010,-4.88281285e-003
,,,4.50000000e-010,-4.84531284e-003
,,,4.75000000e-010,-4.82109409e-003
,,,5.00000000e-010,-4.80703159e-003
,,,5.25000000e-010,-4.80234409e-003
,,,5.50000000e-010,-4.80078159e-003
,,,5.75000000e-010,-4.80000034e-003
,,,6.00000000e-010,-4.78046909e-003
,,,6.25000000e-010,-4.75468784e-003
,,,6.50000000e-010,-4.71953158e-003
,,,6.75000000e-010,-4.67343783e-003
,,,7.00000000e-010,-4.61796908e-003
,,,7.25000000e-010,-4.55312532e-003
,,,7.50000000e-010,-4.47968782e-003
,,,7.75000000e-010,-4.40000031e-003
,,,8.00000000e-010,-4.30859405e-003
,,,8.25000000e-010,-4.21484405e-003
,,,8.50000000e-010,-4.12343779e-003
,,,8.75000000e-010,-4.03750029e-003
,,,9.00000000e-010,-3.95937528e-003
,,,9.25000000e-010,-3.89296903e-003
,,,9.50000000e-010,-3.83984402e-003
,,,9.75000000e-010,-3.80000027e-003
,,,1.00000000e-009,-3.76796902e-003
,,,1.02500000e-009,-3.74375026e-003
,,,1.05000000e-009,-3.72500026e-003
,,,1.07500000e-009,-3.70859401e-003
,,,1.10000000e-009,-3.68984401e-003
,,,1.12500000e-009,-3.66796901e-003
,,,1.15000000e-009,-3.63828151e-003
,,,1.17500000e-009,-3.60000025e-003
,,,1.20000000e-009,-3.54921900e-003
,,,1.22500000e-009,-3.48593775e-003
,,,1.25000000e-009,-3.41093774e-003
,,,1.27500000e-009,-3.32812524e-003
,,,1.30000000e-009,-3.24062523e-003
,,,1.32500000e-009,-3.15468772e-003
,,,1.35000000e-009,-3.07265647e-003
,,,1.37500000e-009,-3.00000021e-003
,,,1.40000000e-009,-2.93828146e-003
,,,1.42500000e-009,-2.88750020e-003
,,,1.45000000e-009,-2.84765645e-003
,,,1.47500000e-009,-2.81953145e-003
,,,1.50000000e-009,-2.80234395e-003
,,,1.52500000e-009,-2.79453145e-003
,,,1.55000000e-009,-2.79453145e-003
,,,1.57500000e-009,-2.80000020e-003
,,,1.60000000e-009,-2.80625020e-003
,,,1.62500000e-009,-2.80703145e-003
,,,1.65000000e-009,-2.80000020e-003
,,,1.67500000e-009,-2.78281270e-003
,,,1.70000000e-009,-2.75390644e-003
,,,1.72500000e-009,-2.71328144e-003
,,,1.75000000e-009,-2.66171894e-003
,,,1.77500000e-009,-2.60000018e-003
,,,1.80000000e-009,-2.52656268e-003
,,,1.82500000e-009,-2.44531267e-003
,,,1.85000000e-009,-2.35937517e-003
,,,1.87500000e-009,-2.27265641e-003
,,,1.90000000e-009,-2.18906265e-003
,,,1.92500000e-009,-2.11406265e-003
,,,1.95000000e-009,-2.05078140e-003
,,,1.97500000e-009,-2.00000014e-003
,,,2.00000000e-009,-1.96328139e-003
,,,2.02500000e-009,-1.93593764e-003
,,,2.05000000e-009,-1.91484389e-003
,,,2.07500000e-009,-1.89765638e-003
,,,2.10000000e-009,-1.88046888e-003
,,,2.12500000e-009,-1.86015638e-003
,,,2.15000000e-009,-1.83359388e-003
,,,2.17500000e-009,-1.80000013e-003
,,,2.20000000e-009,-1.75703137e-003
,,,2.22500000e-009,-1.70468762e-003
,,,2.25000000e-009,-1.64609387e-003
,,,2.27500000e-009,-1.58437511e-003
,,,2.30000000e-009,-1.52500011e-003
,,,2.32500000e-009,-1.47265635e-003
,,,2.35000000e-009,-1.42968760e-003
,,,2.37500000e-009,-1.40000010e-003
,,,2.40000000e-009,-1.38281260e-003
,,,2.42500000e-009,-1.37187510e-003
,,,2.45000000e-009,-1.36406260e-003
,,,2.47500000e-009,-1.35468760e-003
,,,2.50000000e-009,-1.33671884e-003
,,,2.52500000e-009,-1.30703134e-003
,,,2.55000000e-009,-1.26171884e-003
,,,2.57500000e-009,-1.20000008e-003
,,,2.60000000e-009,-1.12343758e-003
,,,2.62500000e-009,-1.03359382e-003
,,,2.65000000e-009,-9.35937566e-004
,,,2.67500000e-009,-8.38281309e-004
,,,2.70000000e-009,-7.48437553e-004
,,,2.72500000e-009,-6.75000048e-004
,,,2.75000000e-009,-6.24218794e-004
,,,2.77500000e-009,-6.00000042e-004
,,,2.80000000e-009,-6.07031293e-004
,,,2.82500000e-009,-6.34375045e-004
,,,2.85000000e-009,-6.75781298e-004
,,,2.87500000e-009,-7.22656301e-004
,,,2.90000000e-009,-7.66406304e-004
,,,2.92500000e-009,-7.98437557e-004
,,,2.95000000e-009,-8.10937557e-004
,,,2.97500000e-009,-8.00000057e-004
,,,3.00000000e-009,-7.63281304e-004
,,,3.02500000e-009,-7.00781300e-004
,,,3.05000000e-009,-6.17968794e-004
,,,3.07500000e-009,-5.22656287e-004
,,,3.10000000e-009,-4.24218780e-004
,,,3.12500000e-009,-3.32031274e-004
,,,3.15000000e-009,-2.54687518e-004
,,,3.17500000e-009,-2.00000014e-004
,,,3.20000000e-009,-1.76562512e-004
,,,3.22500000e-009,-1.78125013e-004
,,,3.25000000e-009,-2.00781264e-004
,,,3.27500000e-009,-2.38281267e-004
,,,3.30000000e-009,-2.84375020e-004
,,,3.32500000e-009,-3.30468773e-004
,,,3.35000000e-009,-3.71093776e-004
,,,3.37500000e-009,-4.00000028e-004
,,,3.40000000e-009,-4.14843779e-004
,,,3.42500000e-009,-4.11718779e-004
,,,3.45000000e-009,-3.91406278e-004
,,,3.47500000e-009,-3.57812525e-004
,,,3.50000000e-009,-3.16406272e-004
,,,3.52500000e-009,-2.72656269e-004
,,,3.55000000e-009,-2.32031266e-004
,,,3.57500000e-009,-2.00000014e-004
,,,3.60000000e-009,-1.81250013e-004
,,,3.62500000e-009,-1.72656262e-004
,,,3.65000000e-009,-1.73437512e-004
,,,3.67500000e-009,-1.80468763e-004
,,,3.70000000e-009,-1.89843763e-004
,,,3.72500000e-009,-1.98437514e-004
,,,3.75000000e-009,-2.03125014e-004
,,,3.77500000e-009,-2.00000014e-004
,,,3.80000000e-009,-1.89062513e-004
,,,3.82500000e-009,-1.69531262e-004
,,,3.85000000e-009,-1.42187510e-004
,,,3.87500000e-009,-1.10156258e-004
,,,3.90000000e-009,-7.57812554e-005
,,,3.92500000e-009,-4.37500031e-005
,,,3.95000000e-009,-1.71875012e-005
,,,3.97500000e-009,0.00000000e+000
,,,4.00000000e-009,2.34375017e-006
,,,4.02500000e-009,-5.46875039e-006
,,,4.05000000e-009,-2.42187517e-005
,,,4.07500000e-009,-5.15625036e-005
,,,4.10000000e-009,-8.59375061e-005
,,,4.12500000e-009,-1.24218759e-004
,,,4.15000000e-009,-1.62500012e-004
,,,4.17500000e-009,-2.00000014e-004
,,,4.20000000e-009,-2.32031266e-004
,,,4.22500000e-009,-2.57031268e-004
,,,4.25000000e-009,-2.72656269e-004
,,,4.27500000e-009,-2.78125020e-004
,,,4.30000000e-009,-2.72656269e-004
,,,4.32500000e-009,-2.57031268e-004
,,,4.35000000e-009,-2.32031266e-004
,,,4.37500000e-009,-2.00000014e-004
,,,4.40000000e-009,-1.64062512e-004
,,,4.42500000e-009,-1.25781259e-004
,,,4.45000000e-009,-8.90625063e-005
,,,4.47500000e-009,-5.54687539e-005
,,,4.50000000e-009,-2.81250020e-005
,,,4.52500000e-009,-8.59375061e-006
,,,4.55000000e-009,0.00000000e+000
,,,4.57500000e-009,0.00000000e+000
,,,4.60000000e-009,-1.25000009e-005
,,,4.62500000e-009,-3.35937524e-005
,,,4.65000000e-009,-6.09375043e-005
,,,4.67500000e-009,-9.21875065e-005
,,,4.70000000e-009,-1.24218759e-004
,,,4.72500000e-009,-1.53906261e-004
,,,4.75000000e-009,-1.79687513e-004
,,,4.77500000e-009,-2.00000014e-004
,,,4.80000000e-009,-2.12500015e-004
,,,4.82500000e-009,-2.17968765e-004
,,,4.85000000e-009,-2.17187515e-004
,,,4.87500000e-009,-2.12500015e-004
,,,4.90000000e-009,-2.06250015e-004
,,,4.92500000e-009,-2.00000014e-004
,,,4.95000000e-009,-1.97656264e-004
,,,4.97500000e-009,-2.00000014e-004
,,,5.00000000e-009,-2.08593765e-004
,,,5.02500000e-009,-2.24218766e-004
,,,5.05000000e-009,-2.46875017e-004
,,,5.07500000e-009,-2.75000019e-004
,,,5.10000000e-009,-3.06250022e-004
,,,5.12500000e-009,-3.39062524e-004
,,,5.15000000e-009,-3.71093776e-004
,,,5.17500000e-009,-4.00000028e-004
,,,5.20000000e-009,-4.22656280e-004
,,,5.22500000e-009,-4.39062531e-004
,,,5.25000000e-009,-4.48437532e-004
,,,5.27500000e-009,-4.50781282e-004
,,,5.30000000e-009,-4.46093782e-004
,,,5.32500000e-009,-4.35937531e-004
,,,5.35000000e-009,-4.19531280e-004
,,,5.37500000e-009,-4.00000028e-004
,,,5.40000000e-009,-3.76562527e-004
,,,5.42500000e-009,-3.51562525e-004
,,,5.45000000e-009,-3.25781273e-004
,,,5.47500000e-009,-3.00000021e-004
,,,5.50000000e-009,-2.73437519e-004
,,,5.52500000e-009,-2.47656268e-004
,,,5.55000000e-009,-2.22656266e-004
,,,5.57500000e-009,-2.00000014e-004
,,,5.60000000e-009,-1.80468763e-004
,,,5.62500000e-009,-1.65625012e-004
,,,5.65000000e-009,-1.55468761e-004
,,,5.67500000e-009,-1.51562511e-004
,,,5.70000000e-009,-1.54687511e-004
,,,5.72500000e-009,-1.63281262e-004
,,,5.75000000e-009,-1.78906263e-004
,,,5.77500000e-009,-2.00000014e-004
,,,5.80000000e-009,-2.28125016e-004
,,,5.82500000e-009,-2.59375018e-004
,,,5.85000000e-009,-2.92187521e-004
