RawData/SinglePhotoelectron/R5_2pt2B_5mV/wave027_Ch2.csv

"Record Length",1000,"Points",-7.72500000e-009,2.96875021e-005
"Sample Interval",2.50000000e-011,s,-7.70000000e-009,6.40625045e-005
"Trigger Point",309,"Samples",-7.67500000e-009,1.00781257e-004
"Trigger Time",1.24285213e-011,s,-7.65000000e-009,1.35156260e-004
"",,,-7.62500000e-009,1.65625012e-004
"Horizontal Offset",-7.72500000e-009,s,-7.60000000e-009,1.88281263e-004
,,,-7.57500000e-009,2.00000014e-004
,,,-7.55000000e-009,2.00000014e-004
,,,-7.52500000e-009,1.85937513e-004
,,,-7.50000000e-009,1.61718761e-004
,,,-7.47500000e-009,1.31250009e-004
,,,-7.45000000e-009,9.60937568e-005
,,,-7.42500000e-009,6.17187544e-005
,,,-7.40000000e-009,3.20312523e-005
,,,-7.37500000e-009,1.09375008e-005
,,,-7.35000000e-009,0.00000000e+000
,,,-7.32500000e-009,7.81250055e-007
,,,-7.30000000e-009,1.40625010e-005
,,,-7.27500000e-009,3.67187526e-005
,,,-7.25000000e-009,6.79687548e-005
,,,-7.22500000e-009,1.03125007e-004
,,,-7.20000000e-009,1.39062510e-004
,,,-7.17500000e-009,1.71875012e-004
,,,-7.15000000e-009,2.00000014e-004
,,,-7.12500000e-009,2.17187515e-004
,,,-7.10000000e-009,2.26562516e-004
,,,-7.07500000e-009,2.28125016e-004
,,,-7.05000000e-009,2.24218766e-004
,,,-7.02500000e-009,2.17187515e-004
,,,-7.00000000e-009,2.09375015e-004
,,,-6.97500000e-009,2.03125014e-004
,,,-6.95000000e-009,2.00000014e-004
,,,-6.92500000e-009,1.97656264e-004
,,,-6.90000000e-009,1.98437514e-004
,,,-6.87500000e-009,2.03125014e-004
,,,-6.85000000e-009,2.07812515e-004
,,,-6.82500000e-009,2.12500015e-004
,,,-6.80000000e-009,2.13281265e-004
,,,-6.77500000e-009,2.09375015e-004
,,,-6.75000000e-009,2.00000014e-004
,,,-6.72500000e-009,1.80468763e-004
,,,-6.70000000e-009,1.55468761e-004
,,,-6.67500000e-009,1.26562509e-004
,,,-6.65000000e-009,9.53125067e-005
,,,-6.62500000e-009,6.48437546e-005
,,,-6.60000000e-009,3.75000027e-005
,,,-6.57500000e-009,1.56250011e-005
,,,-6.55000000e-009,0.00000000e+000
,,,-6.52500000e-009,-7.03125050e-006
,,,-6.50000000e-009,-8.59375061e-006
,,,-6.47500000e-009,-5.46875039e-006
,,,-6.45000000e-009,0.00000000e+000
,,,-6.42500000e-009,5.46875039e-006
,,,-6.40000000e-009,8.59375061e-006
,,,-6.37500000e-009,7.03125050e-006
,,,-6.35000000e-009,0.00000000e+000
,,,-6.32500000e-009,-1.32812509e-005
,,,-6.30000000e-009,-3.35937524e-005
,,,-6.27500000e-009,-5.93750042e-005
,,,-6.25000000e-009,-8.82812562e-005
,,,-6.22500000e-009,-1.19531258e-004
,,,-6.20000000e-009,-1.49218761e-004
,,,-6.17500000e-009,-1.76562512e-004
,,,-6.15000000e-009,-2.00000014e-004
,,,-6.12500000e-009,-2.13281265e-004
,,,-6.10000000e-009,-2.20312516e-004
,,,-6.07500000e-009,-2.21875016e-004
,,,-6.05000000e-009,-2.20312516e-004
,,,-6.02500000e-009,-2.14843765e-004
,,,-6.00000000e-009,-2.08593765e-004
,,,-5.97500000e-009,-2.03125014e-004
,,,-5.95000000e-009,-2.00000014e-004
,,,-5.92500000e-009,-1.94531264e-004
,,,-5.90000000e-009,-1.92968764e-004
,,,-5.87500000e-009,-1.93750014e-004
,,,-5.85000000e-009,-1.96093764e-004
,,,-5.82500000e-009,-1.99218764e-004
,,,-5.80000000e-009,-2.02343764e-004
,,,-5.77500000e-009,-2.02343764e-004
,,,-5.75000000e-009,-2.00000014e-004
,,,-5.72500000e-009,-1.89062513e-004
,,,-5.70000000e-009,-1.72656262e-004
,,,-5.67500000e-009,-1.52343761e-004
,,,-5.65000000e-009,-1.27343759e-004
,,,-5.62500000e-009,-9.92187570e-005
,,,-5.60000000e-009,-6.71875048e-005
,,,-5.57500000e-009,-3.43750024e-005
,,,-5.55000000e-009,0.00000000e+000
,,,-5.52500000e-009,3.43750024e-005
,,,-5.50000000e-009,6.79687548e-005
,,,-5.47500000e-009,9.92187570e-005
,,,-5.45000000e-009,1.26562509e-004
,,,-5.42500000e-009,1.50781261e-004
,,,-5.40000000e-009,1.71093762e-004
,,,-5.37500000e-009,1.87500013e-004
,,,-5.35000000e-009,2.00000014e-004
,,,-5.32500000e-009,2.07812515e-004
,,,-5.30000000e-009,2.13281265e-004
,,,-5.27500000e-009,2.14843765e-004
,,,-5.25000000e-009,2.14843765e-004
,,,-5.22500000e-009,2.12500015e-004
,,,-5.20000000e-009,2.09375015e-004
,,,-5.17500000e-009,2.04687514e-004
,,,-5.15000000e-009,2.00000014e-004
,,,-5.12500000e-009,1.93750014e-004
,,,-5.10000000e-009,1.88281263e-004
,,,-5.07500000e-009,1.85156263e-004
,,,-5.05000000e-009,1.84375013e-004
,,,-5.02500000e-009,1.85156263e-004
,,,-5.00000000e-009,1.88281263e-004
,,,-4.97500000e-009,1.93750014e-004
,,,-4.95000000e-009,2.00000014e-004
,,,-4.92500000e-009,2.03906264e-004
,,,-4.90000000e-009,2.07812515e-004
,,,-4.87500000e-009,2.10937515e-004
,,,-4.85000000e-009,2.13281265e-004
,,,-4.82500000e-009,2.13281265e-004
,,,-4.80000000e-009,2.10937515e-004
,,,-4.77500000e-009,2.06250015e-004
,,,-4.75000000e-009,2.00000014e-004
,,,-4.72500000e-009,1.89843763e-004
,,,-4.70000000e-009,1.80468763e-004
,,,-4.67500000e-009,1.72656262e-004
,,,-4.65000000e-009,1.67968762e-004
,,,-4.62500000e-009,1.67187512e-004
,,,-4.60000000e-009,1.71875012e-004
,,,-4.57500000e-009,1.82812513e-004
,,,-4.55000000e-009,2.00000014e-004
,,,-4.52500000e-009,2.20312516e-004
,,,-4.50000000e-009,2.45312517e-004
,,,-4.47500000e-009,2.73437519e-004
,,,-4.45000000e-009,3.03906272e-004
,,,-4.42500000e-009,3.33593774e-004
,,,-4.40000000e-009,3.60937526e-004
,,,-4.37500000e-009,3.83593777e-004
,,,-4.35000000e-009,4.00000028e-004
,,,-4.32500000e-009,4.04687529e-004
,,,-4.30000000e-009,4.00781278e-004
,,,-4.27500000e-009,3.86718777e-004
,,,-4.25000000e-009,3.63281276e-004
,,,-4.22500000e-009,3.32031274e-004
,,,-4.20000000e-009,2.92187521e-004
,,,-4.17500000e-009,2.47656268e-004
,,,-4.15000000e-009,2.00000014e-004
,,,-4.12500000e-009,1.50000011e-004
,,,-4.10000000e-009,1.03125007e-004
,,,-4.07500000e-009,6.17187544e-005
,,,-4.05000000e-009,2.81250020e-005
,,,-4.02500000e-009,3.90625028e-006
,,,-4.00000000e-009,-8.59375061e-006
,,,-3.97500000e-009,-1.01562507e-005
,,,-3.95000000e-009,0.00000000e+000
,,,-3.92500000e-009,2.03125014e-005
,,,-3.90000000e-009,4.92187535e-005
,,,-3.87500000e-009,8.20312558e-005
,,,-3.85000000e-009,1.15625008e-004
,,,-3.82500000e-009,1.47656260e-004
,,,-3.80000000e-009,1.73437512e-004
,,,-3.77500000e-009,1.91406264e-004
,,,-3.75000000e-009,2.00000014e-004
,,,-3.72500000e-009,1.96093764e-004
,,,-3.70000000e-009,1.81250013e-004
,,,-3.67500000e-009,1.57812511e-004
,,,-3.65000000e-009,1.28125009e-004
,,,-3.62500000e-009,9.37500066e-005
,,,-3.60000000e-009,5.93750042e-005
,,,-3.57500000e-009,2.73437519e-005
,,,-3.55000000e-009,0.00000000e+000
,,,-3.52500000e-009,-1.95312514e-005
,,,-3.50000000e-009,-3.20312523e-005
,,,-3.47500000e-009,-3.75000027e-005
,,,-3.45000000e-009,-3.67187526e-005
,,,-3.42500000e-009,-3.04687522e-005
,,,-3.40000000e-009,-2.10937515e-005
,,,-3.37500000e-009,-1.01562507e-005
,,,-3.35000000e-009,0.00000000e+000
,,,-3.32500000e-009,9.37500066e-006
,,,-3.30000000e-009,1.64062512e-005
,,,-3.27500000e-009,1.95312514e-005
,,,-3.25000000e-009,1.95312514e-005
,,,-3.22500000e-009,1.64062512e-005
,,,-3.20000000e-009,1.09375008e-005
,,,-3.17500000e-009,5.46875039e-006
,,,-3.15000000e-009,0.00000000e+000
,,,-3.12500000e-009,-3.90625028e-006
,,,-3.10000000e-009,-6.25000044e-006
,,,-3.07500000e-009,-7.03125050e-006
,,,-3.05000000e-009,-7.03125050e-006
,,,-3.02500000e-009,-6.25000044e-006
,,,-3.00000000e-009,-3.90625028e-006
,,,-2.97500000e-009,-1.56250011e-006
,,,-2.95000000e-009,0.00000000e+000
,,,-2.92500000e-009,2.34375017e-006
,,,-2.90000000e-009,4.68750033e-006
,,,-2.87500000e-009,6.25000044e-006
,,,-2.85000000e-009,6.25000044e-006
,,,-2.82500000e-009,6.25000044e-006
,,,-2.80000000e-009,4.68750033e-006
,,,-2.77500000e-009,2.34375017e-006
,,,-2.75000000e-009,0.00000000e+000
,,,-2.72500000e-009,-7.81250055e-007
,,,-2.70000000e-009,-2.34375017e-006
,,,-2.67500000e-009,-3.12500022e-006
,,,-2.65000000e-009,-3.90625028e-006
,,,-2.62500000e-009,-3.90625028e-006
,,,-2.60000000e-009,-3.12500022e-006
,,,-2.57500000e-009,-1.56250011e-006
,,,-2.55000000e-009,0.00000000e+000
,,,-2.52500000e-009,3.90625028e-006
,,,-2.50000000e-009,8.59375061e-006
,,,-2.47500000e-009,1.25000009e-005
,,,-2.45000000e-009,1.48437511e-005
,,,-2.42500000e-009,1.56250011e-005
,,,-2.40000000e-009,1.32812509e-005
,,,-2.37500000e-009,7.81250055e-006
,,,-2.35000000e-009,0.00000000e+000
,,,-2.32500000e-009,-5.46875039e-006
,,,-2.30000000e-009,-1.17187508e-005
,,,-2.27500000e-009,-1.71875012e-005
,,,-2.25000000e-009,-2.10937515e-005
,,,-2.22500000e-009,-2.18750015e-005
,,,-2.20000000e-009,-1.87500013e-005
,,,-2.17500000e-009,-1.17187508e-005
,,,-2.15000000e-009,0.00000000e+000
,,,-2.12500000e-009,2.03125014e-005
,,,-2.10000000e-009,4.53125032e-005
,,,-2.07500000e-009,7.34375052e-005
,,,-2.05000000e-009,1.03125007e-004
,,,-2.02500000e-009,1.32031259e-004
,,,-2.00000000e-009,1.59375011e-004
,,,-1.97500000e-009,1.82031263e-004
,,,-1.95000000e-009,2.00000014e-004
,,,-1.92500000e-009,2.12500015e-004
,,,-1.90000000e-009,2.20312516e-004
,,,-1.87500000e-009,2.21875016e-004
,,,-1.85000000e-009,2.20312516e-004
,,,-1.82500000e-009,2.15625015e-004
,,,-1.80000000e-009,2.09375015e-004
,,,-1.77500000e-009,2.03125014e-004
,,,-1.75000000e-009,2.00000014e-004
,,,-1.72500000e-009,1.99218764e-004
,,,-1.70000000e-009,2.04687514e-004
,,,-1.67500000e-009,2.17187515e-004
,,,-1.65000000e-009,2.37500017e-004
,,,-1.62500000e-009,2.66406269e-004
,,,-1.60000000e-009,3.03125021e-004
,,,-1.57500000e-009,3.47656275e-004
,,,-1.55000000e-009,4.00000028e-004
,,,-1.52500000e-009,4.51562532e-004
,,,-1.50000000e-009,5.06250036e-004
,,,-1.47500000e-009,5.62500040e-004
,,,-1.45000000e-009,6.17187544e-004
,,,-1.42500000e-009,6.70312547e-004
,,,-1.40000000e-009,7.18750051e-004
,,,-1.37500000e-009,7.62500054e-004
,,,-1.35000000e-009,8.00000057e-004
,,,-1.32500000e-009,8.14843808e-004
,,,-1.30000000e-009,8.22656308e-004
,,,-1.27500000e-009,8.23437558e-004
,,,-1.25000000e-009,8.19531308e-004
,,,-1.22500000e-009,8.14062558e-004
,,,-1.20000000e-009,8.07812557e-004
,,,-1.17500000e-009,8.03125057e-004
,,,-1.15000000e-009,8.00000057e-004
,,,-1.12500000e-009,7.74218805e-004
,,,-1.10000000e-009,7.47656303e-004
,,,-1.07500000e-009,7.21093801e-004
,,,-1.05000000e-009,6.95312549e-004
,,,-1.02500000e-009,6.70312547e-004
,,,-1.00000000e-009,6.46093796e-004
,,,-9.75000000e-010,6.23437544e-004
,,,-9.50000000e-010,6.00000042e-004
,,,-9.25000000e-010,5.42968788e-004
,,,-9.00000000e-010,4.81250034e-004
,,,-8.75000000e-010,4.18750030e-004
,,,-8.50000000e-010,3.57812525e-004
,,,-8.25000000e-010,3.03906272e-004
,,,-8.00000000e-010,2.58593768e-004
,,,-7.75000000e-010,2.23437516e-004
,,,-7.50000000e-010,2.00000014e-004
,,,-7.25000000e-010,1.45312510e-004
,,,-7.00000000e-010,9.29687566e-005
,,,-6.75000000e-010,4.21875030e-005
,,,-6.50000000e-010,-5.46875039e-006
,,,-6.25000000e-010,-5.23437537e-005
,,,-6.00000000e-010,-9.84375070e-005
,,,-5.75000000e-010,-1.46875010e-004
,,,-5.50000000e-010,-2.00000014e-004
,,,-5.25000000e-010,-3.00781271e-004
,,,-5.00000000e-010,-4.19531280e-004
,,,-4.75000000e-010,-5.54687539e-004
,,,-4.50000000e-010,-7.03906300e-004
,,,-4.25000000e-010,-8.64843811e-004
,,,-4.00000000e-010,-1.03515632e-003
,,,-3.75000000e-010,-1.21328134e-003
,,,-3.50000000e-010,-1.40000010e-003
,,,-3.25000000e-010,-1.62031261e-003
,,,-3.00000000e-010,-1.85312513e-003
,,,-2.75000000e-010,-2.09687515e-003
,,,-2.50000000e-010,-2.34843767e-003
,,,-2.25000000e-010,-2.60625018e-003
,,,-2.00000000e-010,-2.86796895e-003
,,,-1.75000000e-010,-3.13203147e-003
,,,-1.50000000e-010,-3.40000024e-003
,,,-1.25000000e-010,-3.67421901e-003
,,,-1.00000000e-010,-3.95703153e-003
,,,-7.50000000e-011,-4.24843780e-003
,,,-5.00000000e-011,-4.54843782e-003
,,,-2.50000000e-011,-4.85546909e-003
,,,0.00000000e+000,-5.16718787e-003
,,,2.50000000e-011,-5.48281289e-003
,,,5.00000000e-011,-5.80000041e-003
,,,7.50000000e-011,-6.08984418e-003
,,,1.00000000e-010,-6.38046920e-003
,,,1.25000000e-010,-6.67031297e-003
,,,1.50000000e-010,-6.95546924e-003
,,,1.75000000e-010,-7.23515676e-003
,,,2.00000000e-010,-7.50468803e-003
,,,2.25000000e-010,-7.76093805e-003
,,,2.50000000e-010,-8.00000057e-003
,,,2.75000000e-010,-8.16875058e-003
,,,3.00000000e-010,-8.32109434e-003
,,,3.25000000e-010,-8.46015685e-003
,,,3.50000000e-010,-8.58750061e-003
,,,3.75000000e-010,-8.70468812e-003
,,,4.00000000e-010,-8.81250062e-003
,,,4.25000000e-010,-8.91171938e-003
,,,4.50000000e-010,-9.00000064e-003
,,,4.75000000e-010,-9.01406314e-003
,,,5.00000000e-010,-9.02343814e-003
,,,5.25000000e-010,-9.02890689e-003
,,,5.50000000e-010,-9.03281314e-003
,,,5.75000000e-010,-9.03359439e-003
,,,6.00000000e-010,-9.03046939e-003
,,,6.25000000e-010,-9.02031314e-003
,,,6.50000000e-010,-9.00000064e-003
,,,6.75000000e-010,-8.90234438e-003
,,,7.00000000e-010,-8.79531312e-003
,,,7.25000000e-010,-8.67968811e-003
,,,7.50000000e-010,-8.55703186e-003
,,,7.75000000e-010,-8.42812560e-003
,,,8.00000000e-010,-8.29375059e-003
,,,8.25000000e-010,-8.15078183e-003
,,,8.50000000e-010,-8.00000057e-003
,,,8.75000000e-010,-7.78828180e-003
,,,9.00000000e-010,-7.56953179e-003
,,,9.25000000e-010,-7.34609427e-003
,,,9.50000000e-010,-7.11875050e-003
,,,9.75000000e-010,-6.88984424e-003
,,,1.00000000e-009,-6.65937547e-003
,,,1.02500000e-009,-6.42968796e-003
,,,1.05000000e-009,-6.20000044e-003
,,,1.07500000e-009,-5.94609417e-003
,,,1.10000000e-009,-5.69453165e-003
,,,1.12500000e-009,-5.44921914e-003
,,,1.15000000e-009,-5.21250037e-003
,,,1.17500000e-009,-4.98750035e-003
,,,1.20000000e-009,-4.77656284e-003
,,,1.22500000e-009,-4.58046907e-003
,,,1.25000000e-009,-4.40000031e-003
,,,1.27500000e-009,-4.22968780e-003
,,,1.30000000e-009,-4.06875029e-003
,,,1.32500000e-009,-3.91406278e-003
,,,1.35000000e-009,-3.76406277e-003
,,,1.37500000e-009,-3.61953151e-003
,,,1.40000000e-009,-3.47734400e-003
,,,1.42500000e-009,-3.33828149e-003
,,,1.45000000e-009,-3.20000023e-003
,,,1.47500000e-009,-3.07265647e-003
,,,1.50000000e-009,-2.93671896e-003
,,,1.52500000e-009,-2.79218770e-003
,,,1.55000000e-009,-2.63906269e-003
,,,1.57500000e-009,-2.47968768e-003
,,,1.60000000e-009,-2.31796891e-003
,,,1.62500000e-009,-2.15703140e-003
,,,1.65000000e-009,-2.00000014e-003
,,,1.67500000e-009,-1.87343763e-003
,,,1.70000000e-009,-1.75000012e-003
,,,1.72500000e-009,-1.63125012e-003
,,,1.75000000e-009,-1.51953136e-003
,,,1.77500000e-009,-1.41875010e-003
,,,1.80000000e-009,-1.33046884e-003
,,,1.82500000e-009,-1.25781259e-003
,,,1.85000000e-009,-1.20000008e-003
,,,1.87500000e-009,-1.18046883e-003
,,,1.90000000e-009,-1.16562508e-003
,,,1.92500000e-009,-1.15156258e-003
,,,1.95000000e-009,-1.13359383e-003
,,,1.97500000e-009,-1.11093758e-003
,,,2.00000000e-009,-1.08125008e-003
,,,2.02500000e-009,-1.04375007e-003
,,,2.05000000e-009,-1.00000007e-003
,,,2.07500000e-009,-9.67187568e-004
,,,2.10000000e-009,-9.24218815e-004
,,,2.12500000e-009,-8.71093812e-004
,,,2.15000000e-009,-8.10937557e-004
,,,2.17500000e-009,-7.49218803e-004
,,,2.20000000e-009,-6.90625049e-004
,,,2.22500000e-009,-6.39062545e-004
,,,2.25000000e-009,-6.00000042e-004
,,,2.27500000e-009,-5.91406292e-004
,,,2.30000000e-009,-5.95312542e-004
,,,2.32500000e-009,-6.10156293e-004
,,,2.35000000e-009,-6.35156295e-004
,,,2.37500000e-009,-6.67968797e-004
,,,2.40000000e-009,-7.08593800e-004
,,,2.42500000e-009,-7.53125053e-004
,,,2.45000000e-009,-8.00000057e-004
,,,2.47500000e-009,-8.55468811e-004
,,,2.50000000e-009,-9.04687564e-004
,,,2.52500000e-009,-9.46093817e-004
,,,2.55000000e-009,-9.76562569e-004
,,,2.57500000e-009,-9.96875071e-004
,,,2.60000000e-009,-1.00703132e-003
,,,2.62500000e-009,-1.00781257e-003
,,,2.65000000e-009,-1.00000007e-003
,,,2.67500000e-009,-9.87500070e-004
,,,2.70000000e-009,-9.67968819e-004
,,,2.72500000e-009,-9.43750067e-004
,,,2.75000000e-009,-9.14843815e-004
,,,2.77500000e-009,-8.84375063e-004
,,,2.80000000e-009,-8.53906310e-004
,,,2.82500000e-009,-8.25000058e-004
,,,2.85000000e-009,-8.00000057e-004
,,,2.87500000e-009,-7.80468805e-004
,,,2.90000000e-009,-7.66406304e-004
,,,2.92500000e-009,-7.57812554e-004
,,,2.95000000e-009,-7.55468803e-004
,,,2.97500000e-009,-7.58593804e-004
,,,3.00000000e-009,-7.67187554e-004
,,,3.02500000e-009,-7.81250055e-004
,,,3.05000000e-009,-8.00000057e-004
,,,3.07500000e-009,-8.20312558e-004
,,,3.10000000e-009,-8.43750060e-004
,,,3.12500000e-009,-8.67968811e-004
,,,3.15000000e-009,-8.93750063e-004
,,,3.17500000e-009,-9.20312565e-004
,,,3.20000000e-009,-9.46875067e-004
,,,3.22500000e-009,-9.74218819e-004
,,,3.25000000e-009,-1.00000007e-003
,,,3.27500000e-009,-1.01875007e-003
,,,3.30000000e-009,-1.03359382e-003
,,,3.32500000e-009,-1.04375007e-003
,,,3.35000000e-009,-1.04843757e-003
,,,3.37500000e-009,-1.04609382e-003
,,,3.40000000e-009,-1.03750007e-003
,,,3.42500000e-009,-1.02187507e-003
,,,3.45000000e-009,-1.00000007e-003
,,,3.47500000e-009,-9.66406318e-004
,,,3.50000000e-009,-9.30468816e-004
,,,3.52500000e-009,-8.93750063e-004
,,,3.55000000e-009,-8.60156311e-004
,,,3.57500000e-009,-8.32031309e-004
,,,3.60000000e-009,-8.11718807e-004
,,,3.62500000e-009,-8.00781307e-004
,,,3.65000000e-009,-8.00000057e-004
,,,3.67500000e-009,-8.04687557e-004
,,,3.70000000e-009,-8.15625058e-004
,,,3.72500000e-009,-8.28125059e-004
,,,3.75000000e-009,-8.39843809e-004
,,,3.77500000e-009,-8.45312560e-004
,,,3.80000000e-009,-8.42187560e-004
,,,3.82500000e-009,-8.27343809e-004
,,,3.85000000e-009,-8.00000057e-004
,,,3.87500000e-009,-7.55468803e-004
,,,3.90000000e-009,-7.00781300e-004
,,,3.92500000e-009,-6.39843795e-004
,,,3.95000000e-009,-5.76562541e-004
,,,3.97500000e-009,-5.16406287e-004
,,,4.00000000e-009,-4.64843783e-004
,,,4.02500000e-009,-4.25000030e-004
,,,4.05000000e-009,-4.00000028e-004
,,,4.07500000e-009,-3.86718777e-004
,,,4.10000000e-009,-3.85156277e-004
,,,4.12500000e-009,-3.92968778e-004
,,,4.15000000e-009,-4.04687529e-004
,,,4.17500000e-009,-4.15625029e-004
,,,4.20000000e-009,-4.21093780e-004
,,,4.22500000e-009,-4.17187530e-004
,,,4.25000000e-009,-4.00000028e-004
,,,4.27500000e-009,-3.67968776e-004
,,,4.30000000e-009,-3.21875023e-004
,,,4.32500000e-009,-2.65625019e-004
,,,4.35000000e-009,-2.03125014e-004
,,,4.37500000e-009,-1.39843760e-004
,,,4.40000000e-009,-8.12500058e-005
,,,4.42500000e-009,-3.28125023e-005
,,,4.45000000e-009,0.00000000e+000
,,,4.47500000e-009,1.32812509e-005
,,,4.50000000e-009,9.37500066e-006
,,,4.52500000e-009,-7.81250055e-006
,,,4.55000000e-009,-3.90625028e-005
,,,4.57500000e-009,-7.81250055e-005
,,,4.60000000e-009,-1.21093759e-004
,,,4.62500000e-009,-1.63281262e-004
,,,4.65000000e-009,-2.00000014e-004
,,,4.67500000e-009,-2.26562516e-004
,,,4.70000000e-009,-2.38281267e-004
,,,4.72500000e-009,-2.34375017e-004
,,,4.75000000e-009,-2.14062515e-004
,,,4.77500000e-009,-1.78125013e-004
,,,4.80000000e-009,-1.28906259e-004
,,,4.82500000e-009,-6.79687548e-005
,,,4.85000000e-009,0.00000000e+000
,,,4.87500000e-009,6.95312549e-005
,,,4.90000000e-009,1.39843760e-004
,,,4.92500000e-009,2.07031265e-004
,,,4.95000000e-009,2.67968769e-004
,,,4.97500000e-009,3.19531273e-004
,,,5.00000000e-009,3.59375025e-004
,,,5.02500000e-009,3.86718777e-004
,,,5.05000000e-009,4.00000028e-004
,,,5.07500000e-009,3.95312528e-004
,,,5.10000000e-009,3.79687527e-004
,,,5.12500000e-009,3.54687525e-004
,,,5.15000000e-009,3.24218773e-004
,,,5.17500000e-009,2.90625021e-004
,,,5.20000000e-009,2.57031268e-004
,,,5.22500000e-009,2.25781266e-004
,,,5.25000000e-009,2.00000014e-004
,,,5.27500000e-009,1.78906263e-004
,,,5.30000000e-009,1.65625012e-004
,,,5.32500000e-009,1.60937511e-004
,,,5.35000000e-009,1.62500012e-004
,,,5.37500000e-009,1.69531262e-004
,,,5.40000000e-009,1.79687513e-004
,,,5.42500000e-009,1.89843763e-004
,,,5.45000000e-009,2.00000014e-004
,,,5.47500000e-009,2.07031265e-004
,,,5.50000000e-009,2.11718765e-004
,,,5.52500000e-009,2.13281265e-004
,,,5.55000000e-009,2.12500015e-004
,,,5.57500000e-009,2.10156265e-004
,,,5.60000000e-009,2.06250015e-004
,,,5.62500000e-009,2.02343764e-004
,,,5.65000000e-009,2.00000014e-004
,,,5.67500000e-009,1.97656264e-004
,,,5.70000000e-009,1.96875014e-004
,,,5.72500000e-009,1.98437514e-004
,,,5.75000000e-009,2.00781264e-004
,,,5.77500000e-009,2.02343764e-004
,,,5.80000000e-009,2.03906264e-004
,,,5.82500000e-009,2.02343764e-004
,,,5.85000000e-009,2.00000014e-004
,,,5.87500000e-009,1.93750014e-004
,,,5.90000000e-009,1.86718763e-004
,,,5.92500000e-009,1.80468763e-004
,,,5.95000000e-009,1.75781262e-004
,,,5.97500000e-009,1.74218762e-004
,,,6.00000000e-009,1.76562512e-004
