RawData/SinglePhotoelectron/R5_2pt2B_5mV/wave003_Ch2.csv

"Record Length",1000,"Points",-7.72500000e-009,2.18750015e-005
"Sample Interval",2.50000000e-011,s,-7.70000000e-009,1.48437511e-005
"Trigger Point",309,"Samples",-7.67500000e-009,7.03125050e-006
"Trigger Time",2.23533333e-011,s,-7.65000000e-009,0.00000000e+000
"",,,-7.62500000e-009,-4.68750033e-006
"Horizontal Offset",-7.72500000e-009,s,-7.60000000e-009,-7.81250055e-006
,,,-7.57500000e-009,-9.37500066e-006
,,,-7.55000000e-009,-8.59375061e-006
,,,-7.52500000e-009,-6.25000044e-006
,,,-7.50000000e-009,-3.90625028e-006
,,,-7.47500000e-009,-1.56250011e-006
,,,-7.45000000e-009,0.00000000e+000
,,,-7.42500000e-009,0.00000000e+000
,,,-7.40000000e-009,-7.81250055e-007
,,,-7.37500000e-009,-1.56250011e-006
,,,-7.35000000e-009,-3.12500022e-006
,,,-7.32500000e-009,-3.90625028e-006
,,,-7.30000000e-009,-3.90625028e-006
,,,-7.27500000e-009,-2.34375017e-006
,,,-7.25000000e-009,0.00000000e+000
,,,-7.22500000e-009,2.34375017e-006
,,,-7.20000000e-009,6.25000044e-006
,,,-7.17500000e-009,1.01562507e-005
,,,-7.15000000e-009,1.25000009e-005
,,,-7.12500000e-009,1.32812509e-005
,,,-7.10000000e-009,1.17187508e-005
,,,-7.07500000e-009,7.03125050e-006
,,,-7.05000000e-009,0.00000000e+000
,,,-7.02500000e-009,-9.37500066e-006
,,,-7.00000000e-009,-2.03125014e-005
,,,-6.97500000e-009,-2.96875021e-005
,,,-6.95000000e-009,-3.51562525e-005
,,,-6.92500000e-009,-3.67187526e-005
,,,-6.90000000e-009,-3.20312523e-005
,,,-6.87500000e-009,-1.95312514e-005
,,,-6.85000000e-009,0.00000000e+000
,,,-6.82500000e-009,2.57812518e-005
,,,-6.80000000e-009,5.70312540e-005
,,,-6.77500000e-009,9.06250064e-005
,,,-6.75000000e-009,1.23437509e-004
,,,-6.72500000e-009,1.53125011e-004
,,,-6.70000000e-009,1.77343763e-004
,,,-6.67500000e-009,1.93750014e-004
,,,-6.65000000e-009,2.00000014e-004
,,,-6.62500000e-009,1.93750014e-004
,,,-6.60000000e-009,1.77343763e-004
,,,-6.57500000e-009,1.53125011e-004
,,,-6.55000000e-009,1.23437509e-004
,,,-6.52500000e-009,9.06250064e-005
,,,-6.50000000e-009,5.70312540e-005
,,,-6.47500000e-009,2.57812518e-005
,,,-6.45000000e-009,0.00000000e+000
,,,-6.42500000e-009,-2.03125014e-005
,,,-6.40000000e-009,-3.35937524e-005
,,,-6.37500000e-009,-3.98437528e-005
,,,-6.35000000e-009,-3.90625028e-005
,,,-6.32500000e-009,-3.28125023e-005
,,,-6.30000000e-009,-2.34375017e-005
,,,-6.27500000e-009,-1.17187508e-005
,,,-6.25000000e-009,0.00000000e+000
,,,-6.22500000e-009,1.01562507e-005
,,,-6.20000000e-009,1.79687513e-005
,,,-6.17500000e-009,2.26562516e-005
,,,-6.15000000e-009,2.34375017e-005
,,,-6.12500000e-009,2.10937515e-005
,,,-6.10000000e-009,1.56250011e-005
,,,-6.07500000e-009,8.59375061e-006
,,,-6.05000000e-009,0.00000000e+000
,,,-6.02500000e-009,-8.59375061e-006
,,,-6.00000000e-009,-1.56250011e-005
,,,-5.97500000e-009,-2.10937515e-005
,,,-5.95000000e-009,-2.34375017e-005
,,,-5.92500000e-009,-2.26562516e-005
,,,-5.90000000e-009,-1.79687513e-005
,,,-5.87500000e-009,-1.01562507e-005
,,,-5.85000000e-009,0.00000000e+000
,,,-5.82500000e-009,1.17187508e-005
,,,-5.80000000e-009,2.34375017e-005
,,,-5.77500000e-009,3.28125023e-005
,,,-5.75000000e-009,3.90625028e-005
,,,-5.72500000e-009,3.98437528e-005
,,,-5.70000000e-009,3.35937524e-005
,,,-5.67500000e-009,2.03125014e-005
,,,-5.65000000e-009,0.00000000e+000
,,,-5.62500000e-009,-2.50000018e-005
,,,-5.60000000e-009,-5.46875039e-005
,,,-5.57500000e-009,-8.75000062e-005
,,,-5.55000000e-009,-1.20312509e-004
,,,-5.52500000e-009,-1.50000011e-004
,,,-5.50000000e-009,-1.75000012e-004
,,,-5.47500000e-009,-1.91406264e-004
,,,-5.45000000e-009,-2.00000014e-004
,,,-5.42500000e-009,-1.94531264e-004
,,,-5.40000000e-009,-1.80468763e-004
,,,-5.37500000e-009,-1.57031261e-004
,,,-5.35000000e-009,-1.27343759e-004
,,,-5.32500000e-009,-9.45312567e-005
,,,-5.30000000e-009,-6.01562543e-005
,,,-5.27500000e-009,-2.81250020e-005
,,,-5.25000000e-009,0.00000000e+000
,,,-5.22500000e-009,2.18750015e-005
,,,-5.20000000e-009,3.67187526e-005
,,,-5.17500000e-009,4.37500031e-005
,,,-5.15000000e-009,4.37500031e-005
,,,-5.12500000e-009,3.82812527e-005
,,,-5.10000000e-009,2.73437519e-005
,,,-5.07500000e-009,1.40625010e-005
,,,-5.05000000e-009,0.00000000e+000
,,,-5.02500000e-009,-1.25000009e-005
,,,-5.00000000e-009,-2.26562516e-005
,,,-4.97500000e-009,-2.96875021e-005
,,,-4.95000000e-009,-3.20312523e-005
,,,-4.92500000e-009,-3.04687522e-005
,,,-4.90000000e-009,-2.42187517e-005
,,,-4.87500000e-009,-1.40625010e-005
,,,-4.85000000e-009,0.00000000e+000
,,,-4.82500000e-009,1.71875012e-005
,,,-4.80000000e-009,3.82812527e-005
,,,-4.77500000e-009,6.17187544e-005
,,,-4.75000000e-009,8.75000062e-005
,,,-4.72500000e-009,1.14843758e-004
,,,-4.70000000e-009,1.43750010e-004
,,,-4.67500000e-009,1.71875012e-004
,,,-4.65000000e-009,2.00000014e-004
,,,-4.62500000e-009,2.23437516e-004
,,,-4.60000000e-009,2.43750017e-004
,,,-4.57500000e-009,2.57031268e-004
,,,-4.55000000e-009,2.63281269e-004
,,,-4.52500000e-009,2.61718769e-004
,,,-4.50000000e-009,2.50000018e-004
,,,-4.47500000e-009,2.28906266e-004
,,,-4.45000000e-009,2.00000014e-004
,,,-4.42500000e-009,1.61718761e-004
,,,-4.40000000e-009,1.20312509e-004
,,,-4.37500000e-009,8.04687557e-005
,,,-4.35000000e-009,4.37500031e-005
,,,-4.32500000e-009,1.56250011e-005
,,,-4.30000000e-009,-1.56250011e-006
,,,-4.27500000e-009,-7.03125050e-006
,,,-4.25000000e-009,0.00000000e+000
,,,-4.22500000e-009,1.95312514e-005
,,,-4.20000000e-009,4.84375034e-005
,,,-4.17500000e-009,8.35937559e-005
,,,-4.15000000e-009,1.20312509e-004
,,,-4.12500000e-009,1.53906261e-004
,,,-4.10000000e-009,1.80468763e-004
,,,-4.07500000e-009,1.96093764e-004
,,,-4.05000000e-009,2.00000014e-004
,,,-4.02500000e-009,1.87500013e-004
,,,-4.00000000e-009,1.64062512e-004
,,,-3.97500000e-009,1.32031259e-004
,,,-3.95000000e-009,9.60937568e-005
,,,-3.92500000e-009,6.01562543e-005
,,,-3.90000000e-009,2.96875021e-005
,,,-3.87500000e-009,8.59375061e-006
,,,-3.85000000e-009,0.00000000e+000
,,,-3.82500000e-009,3.90625028e-006
,,,-3.80000000e-009,2.10937515e-005
,,,-3.77500000e-009,4.92187535e-005
,,,-3.75000000e-009,8.35937559e-005
,,,-3.72500000e-009,1.20312509e-004
,,,-3.70000000e-009,1.54687511e-004
,,,-3.67500000e-009,1.82031263e-004
,,,-3.65000000e-009,2.00000014e-004
,,,-3.62500000e-009,2.03906264e-004
,,,-3.60000000e-009,1.94531264e-004
,,,-3.57500000e-009,1.73437512e-004
,,,-3.55000000e-009,1.42968760e-004
,,,-3.52500000e-009,1.07031258e-004
,,,-3.50000000e-009,6.87500049e-005
,,,-3.47500000e-009,3.12500022e-005
,,,-3.45000000e-009,0.00000000e+000
,,,-3.42500000e-009,-2.34375017e-005
,,,-3.40000000e-009,-3.82812527e-005
,,,-3.37500000e-009,-4.45312532e-005
,,,-3.35000000e-009,-4.29687530e-005
,,,-3.32500000e-009,-3.59375025e-005
,,,-3.30000000e-009,-2.50000018e-005
,,,-3.27500000e-009,-1.17187508e-005
,,,-3.25000000e-009,0.00000000e+000
,,,-3.22500000e-009,9.37500066e-006
,,,-3.20000000e-009,1.64062512e-005
,,,-3.17500000e-009,1.95312514e-005
,,,-3.15000000e-009,1.95312514e-005
,,,-3.12500000e-009,1.64062512e-005
,,,-3.10000000e-009,1.09375008e-005
,,,-3.07500000e-009,5.46875039e-006
,,,-3.05000000e-009,0.00000000e+000
,,,-3.02500000e-009,-4.68750033e-006
,,,-3.00000000e-009,-7.81250055e-006
,,,-2.97500000e-009,-1.01562507e-005
,,,-2.95000000e-009,-1.09375008e-005
,,,-2.92500000e-009,-9.37500066e-006
,,,-2.90000000e-009,-7.03125050e-006
,,,-2.87500000e-009,-3.90625028e-006
,,,-2.85000000e-009,0.00000000e+000
,,,-2.82500000e-009,2.34375017e-006
,,,-2.80000000e-009,5.46875039e-006
,,,-2.77500000e-009,7.03125050e-006
,,,-2.75000000e-009,7.03125050e-006
,,,-2.72500000e-009,7.03125050e-006
,,,-2.70000000e-009,5.46875039e-006
,,,-2.67500000e-009,2.34375017e-006
,,,-2.65000000e-009,0.00000000e+000
,,,-2.62500000e-009,-2.34375017e-006
,,,-2.60000000e-009,-4.68750033e-006
,,,-2.57500000e-009,-7.03125050e-006
,,,-2.55000000e-009,-8.59375061e-006
,,,-2.52500000e-009,-8.59375061e-006
,,,-2.50000000e-009,-7.03125050e-006
,,,-2.47500000e-009,-3.90625028e-006
,,,-2.45000000e-009,0.00000000e+000
,,,-2.42500000e-009,4.68750033e-006
,,,-2.40000000e-009,1.09375008e-005
,,,-2.37500000e-009,1.56250011e-005
,,,-2.35000000e-009,1.95312514e-005
,,,-2.32500000e-009,2.03125014e-005
,,,-2.30000000e-009,1.79687513e-005
,,,-2.27500000e-009,1.09375008e-005
,,,-2.25000000e-009,0.00000000e+000
,,,-2.22500000e-009,-1.56250011e-005
,,,-2.20000000e-009,-3.59375025e-005
,,,-2.17500000e-009,-6.01562543e-005
,,,-2.15000000e-009,-8.75000062e-005
,,,-2.12500000e-009,-1.16406258e-004
,,,-2.10000000e-009,-1.45312510e-004
,,,-2.07500000e-009,-1.73437512e-004
,,,-2.05000000e-009,-2.00000014e-004
,,,-2.02500000e-009,-2.19531266e-004
,,,-2.00000000e-009,-2.35156267e-004
,,,-1.97500000e-009,-2.44531267e-004
,,,-1.95000000e-009,-2.47656268e-004
,,,-1.92500000e-009,-2.44531267e-004
,,,-1.90000000e-009,-2.35156267e-004
,,,-1.87500000e-009,-2.19531266e-004
,,,-1.85000000e-009,-2.00000014e-004
,,,-1.82500000e-009,-1.75000012e-004
,,,-1.80000000e-009,-1.47656260e-004
,,,-1.77500000e-009,-1.19531258e-004
,,,-1.75000000e-009,-9.06250064e-005
,,,-1.72500000e-009,-6.40625045e-005
,,,-1.70000000e-009,-3.90625028e-005
,,,-1.67500000e-009,-1.71875012e-005
,,,-1.65000000e-009,0.00000000e+000
,,,-1.62500000e-009,9.37500066e-006
,,,-1.60000000e-009,1.40625010e-005
,,,-1.57500000e-009,1.56250011e-005
,,,-1.55000000e-009,1.32812509e-005
,,,-1.52500000e-009,9.37500066e-006
,,,-1.50000000e-009,5.46875039e-006
,,,-1.47500000e-009,1.56250011e-006
,,,-1.45000000e-009,0.00000000e+000
,,,-1.42500000e-009,-8.59375061e-006
,,,-1.40000000e-009,-1.64062512e-005
,,,-1.37500000e-009,-2.18750015e-005
,,,-1.35000000e-009,-2.42187517e-005
,,,-1.32500000e-009,-2.34375017e-005
,,,-1.30000000e-009,-1.87500013e-005
,,,-1.27500000e-009,-1.09375008e-005
,,,-1.25000000e-009,0.00000000e+000
,,,-1.22500000e-009,-7.81250055e-007
,,,-1.20000000e-009,-2.34375017e-006
,,,-1.17500000e-009,-4.68750033e-006
,,,-1.15000000e-009,-7.03125050e-006
,,,-1.12500000e-009,-7.03125050e-006
,,,-1.10000000e-009,-6.25000044e-006
,,,-1.07500000e-009,-3.12500022e-006
,,,-1.05000000e-009,0.00000000e+000
,,,-1.02500000e-009,-1.95312514e-005
,,,-1.00000000e-009,-4.29687530e-005
,,,-9.75000000e-010,-6.95312549e-005
,,,-9.50000000e-010,-9.68750069e-005
,,,-9.25000000e-010,-1.23437509e-004
,,,-9.00000000e-010,-1.49218761e-004
,,,-8.75000000e-010,-1.74218762e-004
,,,-8.50000000e-010,-2.00000014e-004
,,,-8.25000000e-010,-2.54687518e-004
,,,-8.00000000e-010,-3.16406272e-004
,,,-7.75000000e-010,-3.84375027e-004
,,,-7.50000000e-010,-4.58593782e-004
,,,-7.25000000e-010,-5.37500038e-004
,,,-7.00000000e-010,-6.21093794e-004
,,,-6.75000000e-010,-7.08593800e-004
,,,-6.50000000e-010,-8.00000057e-004
,,,-6.25000000e-010,-9.20312565e-004
,,,-6.00000000e-010,-1.04765632e-003
,,,-5.75000000e-010,-1.17968758e-003
,,,-5.50000000e-010,-1.31250009e-003
,,,-5.25000000e-010,-1.44218760e-003
,,,-5.00000000e-010,-1.56796886e-003
,,,-4.75000000e-010,-1.68671887e-003
,,,-4.50000000e-010,-1.80000013e-003
,,,-4.25000000e-010,-1.92656264e-003
,,,-4.00000000e-010,-2.05703140e-003
,,,-3.75000000e-010,-2.19218766e-003
,,,-3.50000000e-010,-2.33437517e-003
,,,-3.25000000e-010,-2.48437518e-003
,,,-3.00000000e-010,-2.64453144e-003
,,,-2.75000000e-010,-2.81562520e-003
,,,-2.50000000e-010,-3.00000021e-003
,,,-2.25000000e-010,-3.20312523e-003
,,,-2.00000000e-010,-3.42109399e-003
,,,-1.75000000e-010,-3.65156276e-003
,,,-1.50000000e-010,-3.88828153e-003
,,,-1.25000000e-010,-4.12734404e-003
,,,-1.00000000e-010,-4.36171906e-003
,,,-7.50000000e-011,-4.58750032e-003
,,,-5.00000000e-011,-4.80000034e-003
,,,-2.50000000e-011,-4.98828160e-003
,,,0.00000000e+000,-5.16406287e-003
,,,2.50000000e-011,-5.32890663e-003
,,,5.00000000e-011,-5.48203164e-003
,,,7.50000000e-011,-5.62421915e-003
,,,1.00000000e-010,-5.75781291e-003
,,,1.25000000e-010,-5.88203167e-003
,,,1.50000000e-010,-6.00000042e-003
,,,1.75000000e-010,-6.09140668e-003
,,,2.00000000e-010,-6.18515669e-003
,,,2.25000000e-010,-6.28359419e-003
,,,2.50000000e-010,-6.38515670e-003
,,,2.75000000e-010,-6.48984421e-003
,,,3.00000000e-010,-6.59531297e-003
,,,3.25000000e-010,-6.70000047e-003
,,,3.50000000e-010,-6.80000048e-003
,,,3.75000000e-010,-6.86406299e-003
,,,4.00000000e-010,-6.92656299e-003
,,,4.25000000e-010,-6.98515674e-003
,,,4.50000000e-010,-7.03984425e-003
,,,4.75000000e-010,-7.08984425e-003
,,,5.00000000e-010,-7.13359425e-003
,,,5.25000000e-010,-7.17109426e-003
,,,5.50000000e-010,-7.20000051e-003
,,,5.75000000e-010,-7.18750051e-003
,,,6.00000000e-010,-7.17343801e-003
,,,6.25000000e-010,-7.16171926e-003
,,,6.50000000e-010,-7.15468801e-003
,,,6.75000000e-010,-7.15390676e-003
,,,7.00000000e-010,-7.16171926e-003
,,,7.25000000e-010,-7.17734426e-003
,,,7.50000000e-010,-7.20000051e-003
,,,7.75000000e-010,-7.19531301e-003
,,,8.00000000e-010,-7.19687551e-003
,,,8.25000000e-010,-7.20312551e-003
,,,8.50000000e-010,-7.21093801e-003
,,,8.75000000e-010,-7.21796926e-003
,,,9.00000000e-010,-7.22031301e-003
,,,9.25000000e-010,-7.21562551e-003
,,,9.50000000e-010,-7.20000051e-003
,,,9.75000000e-010,-7.14140676e-003
,,,1.00000000e-009,-7.07187550e-003
,,,1.02500000e-009,-6.99296924e-003
,,,1.05000000e-009,-6.91015674e-003
,,,1.07500000e-009,-6.82656298e-003
,,,1.10000000e-009,-6.74609423e-003
,,,1.12500000e-009,-6.67031297e-003
,,,1.15000000e-009,-6.60000047e-003
,,,1.17500000e-009,-6.51093796e-003
,,,1.20000000e-009,-6.42265670e-003
,,,1.22500000e-009,-6.33437545e-003
,,,1.25000000e-009,-6.24375044e-003
,,,1.27500000e-009,-6.14687544e-003
,,,1.30000000e-009,-6.04218793e-003
,,,1.32500000e-009,-5.92656292e-003
,,,1.35000000e-009,-5.80000041e-003
,,,1.37500000e-009,-5.64609415e-003
,,,1.40000000e-009,-5.48125039e-003
,,,1.42500000e-009,-5.31171913e-003
,,,1.45000000e-009,-5.14218786e-003
,,,1.47500000e-009,-4.98125035e-003
,,,1.50000000e-009,-4.83359409e-003
,,,1.52500000e-009,-4.70625033e-003
,,,1.55000000e-009,-4.60000033e-003
,,,1.57500000e-009,-4.50781282e-003
,,,1.60000000e-009,-4.43046906e-003
,,,1.62500000e-009,-4.36328156e-003
,,,1.65000000e-009,-4.30156280e-003
,,,1.67500000e-009,-4.23906280e-003
,,,1.70000000e-009,-4.17109405e-003
,,,1.72500000e-009,-4.09296904e-003
,,,1.75000000e-009,-4.00000028e-003
,,,1.77500000e-009,-3.88515652e-003
,,,1.80000000e-009,-3.75000027e-003
,,,1.82500000e-009,-3.59687525e-003
,,,1.85000000e-009,-3.43125024e-003
,,,1.87500000e-009,-3.26171898e-003
,,,1.90000000e-009,-3.09531272e-003
,,,1.92500000e-009,-2.93984396e-003
,,,1.95000000e-009,-2.80000020e-003
,,,1.97500000e-009,-2.68437519e-003
,,,2.00000000e-009,-2.58437518e-003
,,,2.02500000e-009,-2.49921893e-003
,,,2.05000000e-009,-2.42578142e-003
,,,2.07500000e-009,-2.36171892e-003
,,,2.10000000e-009,-2.30546891e-003
,,,2.12500000e-009,-2.25234391e-003
,,,2.15000000e-009,-2.20000016e-003
,,,2.17500000e-009,-2.15234390e-003
,,,2.20000000e-009,-2.09453140e-003
,,,2.22500000e-009,-2.02578139e-003
,,,2.25000000e-009,-1.94765639e-003
,,,2.27500000e-009,-1.86250013e-003
,,,2.30000000e-009,-1.77421888e-003
,,,2.32500000e-009,-1.68593762e-003
,,,2.35000000e-009,-1.60000011e-003
,,,2.37500000e-009,-1.52734386e-003
,,,2.40000000e-009,-1.45546885e-003
,,,2.42500000e-009,-1.38203135e-003
,,,2.45000000e-009,-1.30859384e-003
,,,2.47500000e-009,-1.23359384e-003
,,,2.50000000e-009,-1.15703133e-003
,,,2.52500000e-009,-1.07890633e-003
,,,2.55000000e-009,-1.00000007e-003
,,,2.57500000e-009,-9.29687566e-004
,,,2.60000000e-009,-8.54687560e-004
,,,2.62500000e-009,-7.76562555e-004
,,,2.65000000e-009,-6.95312549e-004
,,,2.67500000e-009,-6.14843794e-004
,,,2.70000000e-009,-5.37500038e-004
,,,2.72500000e-009,-4.64843783e-004
,,,2.75000000e-009,-4.00000028e-004
,,,2.77500000e-009,-3.57031275e-004
,,,2.80000000e-009,-3.19531273e-004
,,,2.82500000e-009,-2.88281270e-004
,,,2.85000000e-009,-2.61718769e-004
,,,2.87500000e-009,-2.39843767e-004
,,,2.90000000e-009,-2.21875016e-004
,,,2.92500000e-009,-2.08593765e-004
,,,2.95000000e-009,-2.00000014e-004
,,,2.97500000e-009,-2.03906264e-004
,,,3.00000000e-009,-2.07031265e-004
,,,3.02500000e-009,-2.09375015e-004
,,,3.05000000e-009,-2.09375015e-004
,,,3.07500000e-009,-2.07812515e-004
,,,3.10000000e-009,-2.05468765e-004
,,,3.12500000e-009,-2.02343764e-004
,,,3.15000000e-009,-2.00000014e-004
,,,3.17500000e-009,-2.03906264e-004
,,,3.20000000e-009,-2.06250015e-004
,,,3.22500000e-009,-2.06250015e-004
,,,3.25000000e-009,-2.05468765e-004
,,,3.27500000e-009,-2.03906264e-004
,,,3.30000000e-009,-2.02343764e-004
,,,3.32500000e-009,-2.00781264e-004
,,,3.35000000e-009,-2.00000014e-004
,,,3.37500000e-009,-2.04687514e-004
,,,3.40000000e-009,-2.09375015e-004
,,,3.42500000e-009,-2.12500015e-004
,,,3.45000000e-009,-2.13281265e-004
,,,3.47500000e-009,-2.12500015e-004
,,,3.50000000e-009,-2.09375015e-004
,,,3.52500000e-009,-2.05468765e-004
,,,3.55000000e-009,-2.00000014e-004
,,,3.57500000e-009,-1.96875014e-004
,,,3.60000000e-009,-1.92968764e-004
,,,3.62500000e-009,-1.89062513e-004
,,,3.65000000e-009,-1.86718763e-004
,,,3.67500000e-009,-1.85937513e-004
,,,3.70000000e-009,-1.87500013e-004
,,,3.72500000e-009,-1.92187514e-004
,,,3.75000000e-009,-2.00000014e-004
,,,3.77500000e-009,-2.09375015e-004
,,,3.80000000e-009,-2.20312516e-004
,,,3.82500000e-009,-2.29687516e-004
,,,3.85000000e-009,-2.35156267e-004
,,,3.87500000e-009,-2.36718767e-004
,,,3.90000000e-009,-2.32031266e-004
,,,3.92500000e-009,-2.19531266e-004
,,,3.95000000e-009,-2.00000014e-004
,,,3.97500000e-009,-1.73437512e-004
,,,4.00000000e-009,-1.42187510e-004
,,,4.02500000e-009,-1.08593758e-004
,,,4.05000000e-009,-7.57812554e-005
,,,4.07500000e-009,-4.60937533e-005
,,,4.10000000e-009,-2.18750015e-005
,,,4.12500000e-009,-5.46875039e-006
,,,4.15000000e-009,0.00000000e+000
,,,4.17500000e-009,-5.46875039e-006
,,,4.20000000e-009,-2.18750015e-005
,,,4.22500000e-009,-4.60937533e-005
,,,4.25000000e-009,-7.57812554e-005
,,,4.27500000e-009,-1.08593758e-004
,,,4.30000000e-009,-1.42187510e-004
,,,4.32500000e-009,-1.73437512e-004
,,,4.35000000e-009,-2.00000014e-004
,,,4.37500000e-009,-2.18750015e-004
,,,4.40000000e-009,-2.29687516e-004
,,,4.42500000e-009,-2.33593767e-004
,,,4.45000000e-009,-2.32031266e-004
,,,4.47500000e-009,-2.25781266e-004
,,,4.50000000e-009,-2.17187515e-004
,,,4.52500000e-009,-2.07812515e-004
,,,4.55000000e-009,-2.00000014e-004
,,,4.57500000e-009,-1.92187514e-004
,,,4.60000000e-009,-1.88281263e-004
,,,4.62500000e-009,-1.86718763e-004
,,,4.65000000e-009,-1.87500013e-004
,,,4.67500000e-009,-1.89843763e-004
,,,4.70000000e-009,-1.93750014e-004
,,,4.72500000e-009,-1.96875014e-004
,,,4.75000000e-009,-2.00000014e-004
,,,4.77500000e-009,-1.98437514e-004
,,,4.80000000e-009,-1.95312514e-004
,,,4.82500000e-009,-1.91406264e-004
,,,4.85000000e-009,-1.88281263e-004
,,,4.87500000e-009,-1.86718763e-004
,,,4.90000000e-009,-1.87500013e-004
,,,4.92500000e-009,-1.92187514e-004
,,,4.95000000e-009,-2.00000014e-004
,,,4.97500000e-009,-2.07031265e-004
,,,5.00000000e-009,-2.14843765e-004
,,,5.02500000e-009,-2.22656266e-004
,,,5.05000000e-009,-2.28906266e-004
,,,5.07500000e-009,-2.30468766e-004
,,,5.10000000e-009,-2.26562516e-004
,,,5.12500000e-009,-2.16406265e-004
,,,5.15000000e-009,-2.00000014e-004
,,,5.17500000e-009,-1.72656262e-004
,,,5.20000000e-009,-1.41406260e-004
,,,5.22500000e-009,-1.08593758e-004
,,,5.25000000e-009,-7.57812554e-005
,,,5.27500000e-009,-4.60937533e-005
,,,5.30000000e-009,-2.26562516e-005
,,,5.32500000e-009,-7.03125050e-006
,,,5.35000000e-009,0.00000000e+000
,,,5.37500000e-009,0.00000000e+000
,,,5.40000000e-009,-7.03125050e-006
,,,5.42500000e-009,-1.71875012e-005
,,,5.45000000e-009,-2.65625019e-005
,,,5.47500000e-009,-3.28125023e-005
,,,5.50000000e-009,-3.28125023e-005
,,,5.52500000e-009,-2.18750015e-005
,,,5.55000000e-009,0.00000000e+000
,,,5.57500000e-009,3.35937524e-005
,,,5.60000000e-009,7.89062556e-005
,,,5.62500000e-009,1.32812509e-004
,,,5.65000000e-009,1.92187514e-004
,,,5.67500000e-009,2.51562518e-004
,,,5.70000000e-009,3.08593772e-004
,,,5.72500000e-009,3.58593775e-004
,,,5.75000000e-009,4.00000028e-004
,,,5.77500000e-009,4.26562530e-004
,,,5.80000000e-009,4.41406281e-004
,,,5.82500000e-009,4.46093782e-004
,,,5.85000000e-009,4.42968781e-004
,,,5.87500000e-009,4.33593781e-004
,,,5.90000000e-009,4.21875030e-004
,,,5.92500000e-009,4.09375029e-004
