RawData/SinglePhotoelectron/R5_2pt2B_5mV/wave022_Ch2.csv

"Record Length",1000,"Points",-7.72500000e-009,-8.35937559e-005
"Sample Interval",2.50000000e-011,s,-7.70000000e-009,-1.14843758e-004
"Trigger Point",309,"Samples",-7.67500000e-009,-1.46093760e-004
"Trigger Time",2.40200000e-011,s,-7.65000000e-009,-1.75000012e-004
"",,,-7.62500000e-009,-2.00000014e-004
"Horizontal Offset",-7.72500000e-009,s,-7.60000000e-009,-2.17187515e-004
,,,-7.57500000e-009,-2.28125016e-004
,,,-7.55000000e-009,-2.32031266e-004
,,,-7.52500000e-009,-2.31250016e-004
,,,-7.50000000e-009,-2.25781266e-004
,,,-7.47500000e-009,-2.17968765e-004
,,,-7.45000000e-009,-2.08593765e-004
,,,-7.42500000e-009,-2.00000014e-004
,,,-7.40000000e-009,-1.91406264e-004
,,,-7.37500000e-009,-1.85937513e-004
,,,-7.35000000e-009,-1.83593763e-004
,,,-7.32500000e-009,-1.84375013e-004
,,,-7.30000000e-009,-1.86718763e-004
,,,-7.27500000e-009,-1.90625013e-004
,,,-7.25000000e-009,-1.95312514e-004
,,,-7.22500000e-009,-2.00000014e-004
,,,-7.20000000e-009,-2.00781264e-004
,,,-7.17500000e-009,-2.01562514e-004
,,,-7.15000000e-009,-2.00781264e-004
,,,-7.12500000e-009,-2.00781264e-004
,,,-7.10000000e-009,-2.00000014e-004
,,,-7.07500000e-009,-1.99218764e-004
,,,-7.05000000e-009,-1.99218764e-004
,,,-7.02500000e-009,-2.00000014e-004
,,,-7.00000000e-009,-1.99218764e-004
,,,-6.97500000e-009,-1.99218764e-004
,,,-6.95000000e-009,-2.00000014e-004
,,,-6.92500000e-009,-2.00781264e-004
,,,-6.90000000e-009,-2.00781264e-004
,,,-6.87500000e-009,-2.01562514e-004
,,,-6.85000000e-009,-2.00781264e-004
,,,-6.82500000e-009,-2.00000014e-004
,,,-6.80000000e-009,-1.96093764e-004
,,,-6.77500000e-009,-1.92187514e-004
,,,-6.75000000e-009,-1.89843763e-004
,,,-6.72500000e-009,-1.87500013e-004
,,,-6.70000000e-009,-1.87500013e-004
,,,-6.67500000e-009,-1.89062513e-004
,,,-6.65000000e-009,-1.93750014e-004
,,,-6.62500000e-009,-2.00000014e-004
,,,-6.60000000e-009,-2.06250015e-004
,,,-6.57500000e-009,-2.13281265e-004
,,,-6.55000000e-009,-2.19531266e-004
,,,-6.52500000e-009,-2.23437516e-004
,,,-6.50000000e-009,-2.24218766e-004
,,,-6.47500000e-009,-2.21093766e-004
,,,-6.45000000e-009,-2.13281265e-004
,,,-6.42500000e-009,-2.00000014e-004
,,,-6.40000000e-009,-1.79687513e-004
,,,-6.37500000e-009,-1.56250011e-004
,,,-6.35000000e-009,-1.28906259e-004
,,,-6.32500000e-009,-1.00000007e-004
,,,-6.30000000e-009,-7.03125050e-005
,,,-6.27500000e-009,-4.29687530e-005
,,,-6.25000000e-009,-1.95312514e-005
,,,-6.22500000e-009,0.00000000e+000
,,,-6.20000000e-009,1.40625010e-005
,,,-6.17500000e-009,2.34375017e-005
,,,-6.15000000e-009,2.73437519e-005
,,,-6.12500000e-009,2.65625019e-005
,,,-6.10000000e-009,2.26562516e-005
,,,-6.07500000e-009,1.64062512e-005
,,,-6.05000000e-009,7.81250055e-006
,,,-6.02500000e-009,0.00000000e+000
,,,-6.00000000e-009,-7.81250055e-006
,,,-5.97500000e-009,-1.40625010e-005
,,,-5.95000000e-009,-1.79687513e-005
,,,-5.92500000e-009,-1.95312514e-005
,,,-5.90000000e-009,-1.71875012e-005
,,,-5.87500000e-009,-1.32812509e-005
,,,-5.85000000e-009,-7.03125050e-006
,,,-5.82500000e-009,0.00000000e+000
,,,-5.80000000e-009,7.03125050e-006
,,,-5.77500000e-009,1.48437511e-005
,,,-5.75000000e-009,2.03125014e-005
,,,-5.72500000e-009,2.34375017e-005
,,,-5.70000000e-009,2.34375017e-005
,,,-5.67500000e-009,1.87500013e-005
,,,-5.65000000e-009,1.09375008e-005
,,,-5.62500000e-009,0.00000000e+000
,,,-5.60000000e-009,-1.25000009e-005
,,,-5.57500000e-009,-2.57812518e-005
,,,-5.55000000e-009,-3.67187526e-005
,,,-5.52500000e-009,-4.29687530e-005
,,,-5.50000000e-009,-4.37500031e-005
,,,-5.47500000e-009,-3.75000027e-005
,,,-5.45000000e-009,-2.26562516e-005
,,,-5.42500000e-009,0.00000000e+000
,,,-5.40000000e-009,2.81250020e-005
,,,-5.37500000e-009,6.17187544e-005
,,,-5.35000000e-009,9.76562569e-005
,,,-5.32500000e-009,1.32031259e-004
,,,-5.30000000e-009,1.62500012e-004
,,,-5.27500000e-009,1.85156263e-004
,,,-5.25000000e-009,1.97656264e-004
,,,-5.22500000e-009,2.00000014e-004
,,,-5.20000000e-009,1.88281263e-004
,,,-5.17500000e-009,1.66406262e-004
,,,-5.15000000e-009,1.37500010e-004
,,,-5.12500000e-009,1.03906257e-004
,,,-5.10000000e-009,6.95312549e-005
,,,-5.07500000e-009,3.90625028e-005
,,,-5.05000000e-009,1.48437511e-005
,,,-5.02500000e-009,0.00000000e+000
,,,-5.00000000e-009,-3.12500022e-006
,,,-4.97500000e-009,3.90625028e-006
,,,-4.95000000e-009,2.34375017e-005
,,,-4.92500000e-009,5.15625036e-005
,,,-4.90000000e-009,8.67187561e-005
,,,-4.87500000e-009,1.25000009e-004
,,,-4.85000000e-009,1.63281262e-004
,,,-4.82500000e-009,2.00000014e-004
,,,-4.80000000e-009,2.27343766e-004
,,,-4.77500000e-009,2.46875017e-004
,,,-4.75000000e-009,2.57812518e-004
,,,-4.72500000e-009,2.60156268e-004
,,,-4.70000000e-009,2.54687518e-004
,,,-4.67500000e-009,2.41406267e-004
,,,-4.65000000e-009,2.22656266e-004
,,,-4.62500000e-009,2.00000014e-004
,,,-4.60000000e-009,1.71093762e-004
,,,-4.57500000e-009,1.41406260e-004
,,,-4.55000000e-009,1.12500008e-004
,,,-4.52500000e-009,8.43750060e-005
,,,-4.50000000e-009,5.85937541e-005
,,,-4.47500000e-009,3.51562525e-005
,,,-4.45000000e-009,1.56250011e-005
,,,-4.42500000e-009,0.00000000e+000
,,,-4.40000000e-009,-1.25000009e-005
,,,-4.37500000e-009,-2.18750015e-005
,,,-4.35000000e-009,-2.65625019e-005
,,,-4.32500000e-009,-2.81250020e-005
,,,-4.30000000e-009,-2.50000018e-005
,,,-4.27500000e-009,-1.87500013e-005
,,,-4.25000000e-009,-1.01562507e-005
,,,-4.22500000e-009,0.00000000e+000
,,,-4.20000000e-009,1.09375008e-005
,,,-4.17500000e-009,2.03125014e-005
,,,-4.15000000e-009,2.81250020e-005
,,,-4.12500000e-009,3.20312523e-005
,,,-4.10000000e-009,3.20312523e-005
,,,-4.07500000e-009,2.65625019e-005
,,,-4.05000000e-009,1.56250011e-005
,,,-4.02500000e-009,0.00000000e+000
,,,-4.00000000e-009,-2.10937515e-005
,,,-3.97500000e-009,-4.68750033e-005
,,,-3.95000000e-009,-7.50000053e-005
,,,-3.92500000e-009,-1.03906257e-004
,,,-3.90000000e-009,-1.32031259e-004
,,,-3.87500000e-009,-1.58593761e-004
,,,-3.85000000e-009,-1.81250013e-004
,,,-3.82500000e-009,-2.00000014e-004
,,,-3.80000000e-009,-2.11718765e-004
,,,-3.77500000e-009,-2.17968765e-004
,,,-3.75000000e-009,-2.21093766e-004
,,,-3.72500000e-009,-2.20312516e-004
,,,-3.70000000e-009,-2.16406265e-004
,,,-3.67500000e-009,-2.10937515e-004
,,,-3.65000000e-009,-2.05468765e-004
,,,-3.62500000e-009,-2.00000014e-004
,,,-3.60000000e-009,-1.92187514e-004
,,,-3.57500000e-009,-1.87500013e-004
,,,-3.55000000e-009,-1.84375013e-004
,,,-3.52500000e-009,-1.84375013e-004
,,,-3.50000000e-009,-1.85937513e-004
,,,-3.47500000e-009,-1.89843763e-004
,,,-3.45000000e-009,-1.94531264e-004
,,,-3.42500000e-009,-2.00000014e-004
,,,-3.40000000e-009,-2.03125014e-004
,,,-3.37500000e-009,-2.05468765e-004
,,,-3.35000000e-009,-2.07812515e-004
,,,-3.32500000e-009,-2.07812515e-004
,,,-3.30000000e-009,-2.07812515e-004
,,,-3.27500000e-009,-2.05468765e-004
,,,-3.25000000e-009,-2.03125014e-004
,,,-3.22500000e-009,-2.00000014e-004
,,,-3.20000000e-009,-1.95312514e-004
,,,-3.17500000e-009,-1.91406264e-004
,,,-3.15000000e-009,-1.89062513e-004
,,,-3.12500000e-009,-1.87500013e-004
,,,-3.10000000e-009,-1.88281263e-004
,,,-3.07500000e-009,-1.90625013e-004
,,,-3.05000000e-009,-1.94531264e-004
,,,-3.02500000e-009,-2.00000014e-004
,,,-3.00000000e-009,-2.04687514e-004
,,,-2.97500000e-009,-2.10937515e-004
,,,-2.95000000e-009,-2.15625015e-004
,,,-2.92500000e-009,-2.19531266e-004
,,,-2.90000000e-009,-2.20312516e-004
,,,-2.87500000e-009,-2.17968765e-004
,,,-2.85000000e-009,-2.10937515e-004
,,,-2.82500000e-009,-2.00000014e-004
,,,-2.80000000e-009,-1.84375013e-004
,,,-2.77500000e-009,-1.64843762e-004
,,,-2.75000000e-009,-1.41406260e-004
,,,-2.72500000e-009,-1.14843758e-004
,,,-2.70000000e-009,-8.67187561e-005
,,,-2.67500000e-009,-5.70312540e-005
,,,-2.65000000e-009,-2.73437519e-005
,,,-2.62500000e-009,0.00000000e+000
,,,-2.60000000e-009,2.18750015e-005
,,,-2.57500000e-009,3.90625028e-005
,,,-2.55000000e-009,5.07812536e-005
,,,-2.52500000e-009,5.46875039e-005
,,,-2.50000000e-009,5.23437537e-005
,,,-2.47500000e-009,4.14062529e-005
,,,-2.45000000e-009,2.34375017e-005
,,,-2.42500000e-009,0.00000000e+000
,,,-2.40000000e-009,-3.04687522e-005
,,,-2.37500000e-009,-6.32812545e-005
,,,-2.35000000e-009,-9.68750069e-005
,,,-2.32500000e-009,-1.28125009e-004
,,,-2.30000000e-009,-1.55468761e-004
,,,-2.27500000e-009,-1.76562512e-004
,,,-2.25000000e-009,-1.91406264e-004
,,,-2.22500000e-009,-2.00000014e-004
,,,-2.20000000e-009,-2.03906264e-004
,,,-2.17500000e-009,-2.03125014e-004
,,,-2.15000000e-009,-1.99218764e-004
,,,-2.12500000e-009,-1.93750014e-004
,,,-2.10000000e-009,-1.89062513e-004
,,,-2.07500000e-009,-1.87500013e-004
,,,-2.05000000e-009,-1.90625013e-004
,,,-2.02500000e-009,-2.00000014e-004
,,,-2.00000000e-009,-2.18750015e-004
,,,-1.97500000e-009,-2.43750017e-004
,,,-1.95000000e-009,-2.73437519e-004
,,,-1.92500000e-009,-3.05468772e-004
,,,-1.90000000e-009,-3.36718774e-004
,,,-1.87500000e-009,-3.64843776e-004
,,,-1.85000000e-009,-3.86718777e-004
,,,-1.82500000e-009,-4.00000028e-004
,,,-1.80000000e-009,-4.08593779e-004
,,,-1.77500000e-009,-4.07812529e-004
,,,-1.75000000e-009,-3.96093778e-004
,,,-1.72500000e-009,-3.73437526e-004
,,,-1.70000000e-009,-3.40625024e-004
,,,-1.67500000e-009,-2.98437521e-004
,,,-1.65000000e-009,-2.50781268e-004
,,,-1.62500000e-009,-2.00000014e-004
,,,-1.60000000e-009,-1.62500012e-004
,,,-1.57500000e-009,-1.32812509e-004
,,,-1.55000000e-009,-1.12500008e-004
,,,-1.52500000e-009,-1.03906257e-004
,,,-1.50000000e-009,-1.08593758e-004
,,,-1.47500000e-009,-1.25781259e-004
,,,-1.45000000e-009,-1.56250011e-004
,,,-1.42500000e-009,-2.00000014e-004
,,,-1.40000000e-009,-2.72656269e-004
,,,-1.37500000e-009,-3.56250025e-004
,,,-1.35000000e-009,-4.45312532e-004
,,,-1.32500000e-009,-5.35156288e-004
,,,-1.30000000e-009,-6.19531294e-004
,,,-1.27500000e-009,-6.93750049e-004
,,,-1.25000000e-009,-7.54687553e-004
,,,-1.22500000e-009,-8.00000057e-004
,,,-1.20000000e-009,-8.44531310e-004
,,,-1.17500000e-009,-8.78906312e-004
,,,-1.15000000e-009,-9.03906314e-004
,,,-1.12500000e-009,-9.21875065e-004
,,,-1.10000000e-009,-9.36718816e-004
,,,-1.07500000e-009,-9.51562567e-004
,,,-1.05000000e-009,-9.71093819e-004
,,,-1.02500000e-009,-1.00000007e-003
,,,-1.00000000e-009,-1.05546882e-003
,,,-9.75000000e-010,-1.12812508e-003
,,,-9.50000000e-010,-1.21640634e-003
,,,-9.25000000e-010,-1.31796884e-003
,,,-9.00000000e-010,-1.43046885e-003
,,,-8.75000000e-010,-1.54921886e-003
,,,-8.50000000e-010,-1.67343762e-003
,,,-8.25000000e-010,-1.80000013e-003
,,,-8.00000000e-010,-1.93750014e-003
,,,-7.75000000e-010,-2.07890640e-003
,,,-7.50000000e-010,-2.22343766e-003
,,,-7.25000000e-010,-2.37187517e-003
,,,-7.00000000e-010,-2.52265643e-003
,,,-6.75000000e-010,-2.67812519e-003
,,,-6.50000000e-010,-2.83671895e-003
,,,-6.25000000e-010,-3.00000021e-003
,,,-6.00000000e-010,-3.16328147e-003
,,,-5.75000000e-010,-3.32968774e-003
,,,-5.50000000e-010,-3.49687525e-003
,,,-5.25000000e-010,-3.66093776e-003
,,,-5.00000000e-010,-3.81640652e-003
,,,-4.75000000e-010,-3.96093778e-003
,,,-4.50000000e-010,-4.08906279e-003
,,,-4.25000000e-010,-4.20000030e-003
,,,-4.00000000e-010,-4.27890655e-003
,,,-3.75000000e-010,-4.34453156e-003
,,,-3.50000000e-010,-4.39921906e-003
,,,-3.25000000e-010,-4.44531281e-003
,,,-3.00000000e-010,-4.48515657e-003
,,,-2.75000000e-010,-4.52343782e-003
,,,-2.50000000e-010,-4.56015657e-003
,,,-2.25000000e-010,-4.60000033e-003
,,,-2.00000000e-010,-4.62734408e-003
,,,-1.75000000e-010,-4.66328158e-003
,,,-1.50000000e-010,-4.70781283e-003
,,,-1.25000000e-010,-4.76093784e-003
,,,-1.00000000e-010,-4.81875034e-003
,,,-7.50000000e-011,-4.88046910e-003
,,,-5.00000000e-011,-4.94140660e-003
,,,-2.50000000e-011,-5.00000035e-003
,,,0.00000000e+000,-5.03125036e-003
,,,2.50000000e-011,-5.06015661e-003
,,,5.00000000e-011,-5.08671911e-003
,,,7.50000000e-011,-5.11093786e-003
,,,1.00000000e-010,-5.13437536e-003
,,,1.25000000e-010,-5.15703162e-003
,,,1.50000000e-010,-5.17890662e-003
,,,1.75000000e-010,-5.20000037e-003
,,,2.00000000e-010,-5.19531287e-003
,,,2.25000000e-010,-5.19140662e-003
,,,2.50000000e-010,-5.18984412e-003
,,,2.75000000e-010,-5.19062537e-003
,,,3.00000000e-010,-5.19296912e-003
,,,3.25000000e-010,-5.19609412e-003
,,,3.50000000e-010,-5.19843787e-003
,,,3.75000000e-010,-5.20000037e-003
,,,4.00000000e-010,-5.17500037e-003
,,,4.25000000e-010,-5.14765661e-003
,,,4.50000000e-010,-5.12031286e-003
,,,4.75000000e-010,-5.09218786e-003
,,,5.00000000e-010,-5.06640661e-003
,,,5.25000000e-010,-5.04218786e-003
,,,5.50000000e-010,-5.02031286e-003
,,,5.75000000e-010,-5.00000035e-003
,,,6.00000000e-010,-4.96093785e-003
,,,6.25000000e-010,-4.92031285e-003
,,,6.50000000e-010,-4.87734410e-003
,,,6.75000000e-010,-4.83046909e-003
,,,7.00000000e-010,-4.78046909e-003
,,,7.25000000e-010,-4.72578158e-003
,,,7.50000000e-010,-4.66562533e-003
,,,7.75000000e-010,-4.60000033e-003
,,,8.00000000e-010,-4.51171907e-003
,,,8.25000000e-010,-4.41562531e-003
,,,8.50000000e-010,-4.31406281e-003
,,,8.75000000e-010,-4.20937530e-003
,,,9.00000000e-010,-4.10390654e-003
,,,9.25000000e-010,-3.99921903e-003
,,,9.50000000e-010,-3.89765653e-003
,,,9.75000000e-010,-3.80000027e-003
,,,1.00000000e-009,-3.69687526e-003
,,,1.02500000e-009,-3.59609400e-003
,,,1.05000000e-009,-3.49609400e-003
,,,1.07500000e-009,-3.39687524e-003
,,,1.10000000e-009,-3.29843773e-003
,,,1.12500000e-009,-3.19921898e-003
,,,1.15000000e-009,-3.10000022e-003
,,,1.17500000e-009,-3.00000021e-003
,,,1.20000000e-009,-2.89609395e-003
,,,1.22500000e-009,-2.78906270e-003
,,,1.25000000e-009,-2.68046894e-003
,,,1.27500000e-009,-2.57265643e-003
,,,1.30000000e-009,-2.46796892e-003
,,,1.32500000e-009,-2.36953142e-003
,,,1.35000000e-009,-2.27968766e-003
,,,1.37500000e-009,-2.20000016e-003
,,,1.40000000e-009,-2.13437515e-003
,,,1.42500000e-009,-2.07656265e-003
,,,1.45000000e-009,-2.02343764e-003
,,,1.47500000e-009,-1.97421889e-003
,,,1.50000000e-009,-1.92812514e-003
,,,1.52500000e-009,-1.88515638e-003
,,,1.55000000e-009,-1.84218763e-003
,,,1.57500000e-009,-1.80000013e-003
,,,1.60000000e-009,-1.76171887e-003
,,,1.62500000e-009,-1.71875012e-003
,,,1.65000000e-009,-1.66953137e-003
,,,1.67500000e-009,-1.61718761e-003
,,,1.70000000e-009,-1.56171886e-003
,,,1.72500000e-009,-1.50546886e-003
,,,1.75000000e-009,-1.45156260e-003
,,,1.77500000e-009,-1.40000010e-003
,,,1.80000000e-009,-1.35859385e-003
,,,1.82500000e-009,-1.31640634e-003
,,,1.85000000e-009,-1.27187509e-003
,,,1.87500000e-009,-1.22421884e-003
,,,1.90000000e-009,-1.17343758e-003
,,,1.92500000e-009,-1.11875008e-003
,,,1.95000000e-009,-1.06093758e-003
,,,1.97500000e-009,-1.00000007e-003
,,,2.00000000e-009,-9.46093817e-004
,,,2.02500000e-009,-8.89062563e-004
,,,2.05000000e-009,-8.30468809e-004
,,,2.07500000e-009,-7.72656305e-004
,,,2.10000000e-009,-7.17968801e-004
,,,2.12500000e-009,-6.69531297e-004
,,,2.15000000e-009,-6.29687545e-004
,,,2.17500000e-009,-6.00000042e-004
,,,2.20000000e-009,-5.88281292e-004
,,,2.22500000e-009,-5.84375041e-004
,,,2.25000000e-009,-5.85937541e-004
,,,2.27500000e-009,-5.90625042e-004
,,,2.30000000e-009,-5.96093792e-004
,,,2.32500000e-009,-6.00781293e-004
,,,2.35000000e-009,-6.02343793e-004
,,,2.37500000e-009,-6.00000042e-004
,,,2.40000000e-009,-5.96093792e-004
,,,2.42500000e-009,-5.85156291e-004
,,,2.45000000e-009,-5.64843790e-004
,,,2.47500000e-009,-5.38281288e-004
,,,2.50000000e-009,-5.05468786e-004
,,,2.52500000e-009,-4.70312533e-004
,,,2.55000000e-009,-4.33593781e-004
,,,2.57500000e-009,-4.00000028e-004
,,,2.60000000e-009,-3.76562527e-004
,,,2.62500000e-009,-3.57812525e-004
,,,2.65000000e-009,-3.46093774e-004
,,,2.67500000e-009,-3.41406274e-004
,,,2.70000000e-009,-3.44531274e-004
,,,2.72500000e-009,-3.55468775e-004
,,,2.75000000e-009,-3.74218776e-004
,,,2.77500000e-009,-4.00000028e-004
,,,2.80000000e-009,-4.33593781e-004
,,,2.82500000e-009,-4.68750033e-004
,,,2.85000000e-009,-5.03125036e-004
,,,2.87500000e-009,-5.34375038e-004
,,,2.90000000e-009,-5.61718790e-004
,,,2.92500000e-009,-5.82031291e-004
,,,2.95000000e-009,-5.95312542e-004
,,,2.97500000e-009,-6.00000042e-004
,,,3.00000000e-009,-5.96875042e-004
,,,3.02500000e-009,-5.85156291e-004
,,,3.05000000e-009,-5.65625040e-004
,,,3.07500000e-009,-5.39062538e-004
,,,3.10000000e-009,-5.07031286e-004
,,,3.12500000e-009,-4.71093783e-004
,,,3.15000000e-009,-4.34375031e-004
,,,3.17500000e-009,-4.00000028e-004
,,,3.20000000e-009,-3.69531276e-004
,,,3.22500000e-009,-3.45312524e-004
,,,3.25000000e-009,-3.29687523e-004
,,,3.27500000e-009,-3.23437523e-004
,,,3.30000000e-009,-3.27343773e-004
,,,3.32500000e-009,-3.42187524e-004
,,,3.35000000e-009,-3.66406276e-004
,,,3.37500000e-009,-4.00000028e-004
,,,3.40000000e-009,-4.38281281e-004
,,,3.42500000e-009,-4.78125034e-004
,,,3.45000000e-009,-5.17968787e-004
,,,3.47500000e-009,-5.52343789e-004
,,,3.50000000e-009,-5.80468791e-004
,,,3.52500000e-009,-5.98437542e-004
,,,3.55000000e-009,-6.04687543e-004
,,,3.57500000e-009,-6.00000042e-004
,,,3.60000000e-009,-5.80468791e-004
,,,3.62500000e-009,-5.53125039e-004
,,,3.65000000e-009,-5.19531287e-004
,,,3.67500000e-009,-4.84375034e-004
,,,3.70000000e-009,-4.50781282e-004
,,,3.72500000e-009,-4.24218780e-004
,,,3.75000000e-009,-4.06250029e-004
,,,3.77500000e-009,-4.00000028e-004
,,,3.80000000e-009,-4.04687529e-004
,,,3.82500000e-009,-4.21093780e-004
,,,3.85000000e-009,-4.46875032e-004
,,,3.87500000e-009,-4.78906284e-004
,,,3.90000000e-009,-5.14062536e-004
,,,3.92500000e-009,-5.48437539e-004
,,,3.95000000e-009,-5.78125041e-004
,,,3.97500000e-009,-6.00000042e-004
,,,4.00000000e-009,-6.08593793e-004
,,,4.02500000e-009,-6.04687543e-004
,,,4.05000000e-009,-5.89843792e-004
,,,4.07500000e-009,-5.63281290e-004
,,,4.10000000e-009,-5.28906287e-004
,,,4.12500000e-009,-4.88281285e-004
,,,4.15000000e-009,-4.44531281e-004
,,,4.17500000e-009,-4.00000028e-004
,,,4.20000000e-009,-3.56250025e-004
,,,4.22500000e-009,-3.17187522e-004
,,,4.25000000e-009,-2.83593770e-004
,,,4.27500000e-009,-2.56250018e-004
,,,4.30000000e-009,-2.34375017e-004
,,,4.32500000e-009,-2.17968765e-004
,,,4.35000000e-009,-2.07031265e-004
,,,4.37500000e-009,-2.00000014e-004
,,,4.40000000e-009,-1.96093764e-004
,,,4.42500000e-009,-1.94531264e-004
,,,4.45000000e-009,-1.94531264e-004
,,,4.47500000e-009,-1.95312514e-004
,,,4.50000000e-009,-1.96093764e-004
,,,4.52500000e-009,-1.97656264e-004
,,,4.55000000e-009,-1.98437514e-004
,,,4.57500000e-009,-2.00000014e-004
,,,4.60000000e-009,-2.00781264e-004
,,,4.62500000e-009,-2.01562514e-004
,,,4.65000000e-009,-2.01562514e-004
,,,4.67500000e-009,-2.00781264e-004
,,,4.70000000e-009,-2.00000014e-004
,,,4.72500000e-009,-1.99218764e-004
,,,4.75000000e-009,-1.99218764e-004
,,,4.77500000e-009,-2.00000014e-004
,,,4.80000000e-009,-2.00781264e-004
,,,4.82500000e-009,-2.01562514e-004
,,,4.85000000e-009,-2.02343764e-004
,,,4.87500000e-009,-2.03125014e-004
,,,4.90000000e-009,-2.03125014e-004
,,,4.92500000e-009,-2.02343764e-004
,,,4.95000000e-009,-2.01562514e-004
,,,4.97500000e-009,-2.00000014e-004
,,,5.00000000e-009,-1.97656264e-004
,,,5.02500000e-009,-1.95312514e-004
,,,5.05000000e-009,-1.92968764e-004
,,,5.07500000e-009,-1.90625013e-004
,,,5.10000000e-009,-1.89843763e-004
,,,5.12500000e-009,-1.91406264e-004
,,,5.15000000e-009,-1.94531264e-004
,,,5.17500000e-009,-2.00000014e-004
,,,5.20000000e-009,-2.06250015e-004
,,,5.22500000e-009,-2.13281265e-004
,,,5.25000000e-009,-2.19531266e-004
,,,5.27500000e-009,-2.23437516e-004
,,,5.30000000e-009,-2.24218766e-004
,,,5.32500000e-009,-2.21093766e-004
,,,5.35000000e-009,-2.13281265e-004
,,,5.37500000e-009,-2.00000014e-004
,,,5.40000000e-009,-1.81250013e-004
,,,5.42500000e-009,-1.57812511e-004
,,,5.45000000e-009,-1.31250009e-004
,,,5.47500000e-009,-1.03125007e-004
,,,5.50000000e-009,-7.42187553e-005
,,,5.52500000e-009,-4.60937533e-005
,,,5.55000000e-009,-2.10937515e-005
,,,5.57500000e-009,0.00000000e+000
,,,5.60000000e-009,1.56250011e-005
,,,5.62500000e-009,2.57812518e-005
,,,5.65000000e-009,3.12500022e-005
,,,5.67500000e-009,3.12500022e-005
,,,5.70000000e-009,2.73437519e-005
,,,5.72500000e-009,1.95312514e-005
,,,5.75000000e-009,1.01562507e-005
,,,5.77500000e-009,0.00000000e+000
,,,5.80000000e-009,-1.25000009e-005
,,,5.82500000e-009,-2.34375017e-005
,,,5.85000000e-009,-3.12500022e-005
,,,5.87500000e-009,-3.43750024e-005
