RawData/SinglePhotoelectron/R5_2pt2B_5mV/wave002_Ch2.csv

"Record Length",1000,"Points",-7.72500000e-009,-1.81250013e-004
"Sample Interval",2.50000000e-011,s,-7.70000000e-009,-1.89062513e-004
"Trigger Point",309,"Samples",-7.67500000e-009,-2.00000014e-004
"Trigger Time",2.25436220e-011,s,-7.65000000e-009,-2.07031265e-004
"",,,-7.62500000e-009,-2.15625015e-004
"Horizontal Offset",-7.72500000e-009,s,-7.60000000e-009,-2.22656266e-004
,,,-7.57500000e-009,-2.27343766e-004
,,,-7.55000000e-009,-2.28906266e-004
,,,-7.52500000e-009,-2.25000016e-004
,,,-7.50000000e-009,-2.15625015e-004
,,,-7.47500000e-009,-2.00000014e-004
,,,-7.45000000e-009,-1.75000012e-004
,,,-7.42500000e-009,-1.46093760e-004
,,,-7.40000000e-009,-1.15625008e-004
,,,-7.37500000e-009,-8.51562560e-005
,,,-7.35000000e-009,-5.62500040e-005
,,,-7.32500000e-009,-3.12500022e-005
,,,-7.30000000e-009,-1.25000009e-005
,,,-7.27500000e-009,0.00000000e+000
,,,-7.25000000e-009,8.59375061e-006
,,,-7.22500000e-009,1.09375008e-005
,,,-7.20000000e-009,8.59375061e-006
,,,-7.17500000e-009,3.12500022e-006
,,,-7.15000000e-009,-2.34375017e-006
,,,-7.12500000e-009,-5.46875039e-006
,,,-7.10000000e-009,-5.46875039e-006
,,,-7.07500000e-009,0.00000000e+000
,,,-7.05000000e-009,1.40625010e-005
,,,-7.02500000e-009,3.51562525e-005
,,,-7.00000000e-009,6.09375043e-005
,,,-6.97500000e-009,9.06250064e-005
,,,-6.95000000e-009,1.21875009e-004
,,,-6.92500000e-009,1.51562511e-004
,,,-6.90000000e-009,1.78125013e-004
,,,-6.87500000e-009,2.00000014e-004
,,,-6.85000000e-009,2.13281265e-004
,,,-6.82500000e-009,2.20312516e-004
,,,-6.80000000e-009,2.22656266e-004
,,,-6.77500000e-009,2.20312516e-004
,,,-6.75000000e-009,2.14843765e-004
,,,-6.72500000e-009,2.09375015e-004
,,,-6.70000000e-009,2.03906264e-004
,,,-6.67500000e-009,2.00000014e-004
,,,-6.65000000e-009,1.96093764e-004
,,,-6.62500000e-009,1.96093764e-004
,,,-6.60000000e-009,1.97656264e-004
,,,-6.57500000e-009,2.00781264e-004
,,,-6.55000000e-009,2.03125014e-004
,,,-6.52500000e-009,2.04687514e-004
,,,-6.50000000e-009,2.03125014e-004
,,,-6.47500000e-009,2.00000014e-004
,,,-6.45000000e-009,1.91406264e-004
,,,-6.42500000e-009,1.82812513e-004
,,,-6.40000000e-009,1.74218762e-004
,,,-6.37500000e-009,1.67968762e-004
,,,-6.35000000e-009,1.66406262e-004
,,,-6.32500000e-009,1.70312512e-004
,,,-6.30000000e-009,1.81250013e-004
,,,-6.27500000e-009,2.00000014e-004
,,,-6.25000000e-009,2.23437516e-004
,,,-6.22500000e-009,2.52343768e-004
,,,-6.20000000e-009,2.84375020e-004
,,,-6.17500000e-009,3.16406272e-004
,,,-6.15000000e-009,3.46875025e-004
,,,-6.12500000e-009,3.72656276e-004
,,,-6.10000000e-009,3.90625028e-004
,,,-6.07500000e-009,4.00000028e-004
,,,-6.05000000e-009,3.96875028e-004
,,,-6.02500000e-009,3.83593777e-004
,,,-6.00000000e-009,3.62500026e-004
,,,-5.97500000e-009,3.34375024e-004
,,,-5.95000000e-009,3.01562521e-004
,,,-5.92500000e-009,2.66406269e-004
,,,-5.90000000e-009,2.31250016e-004
,,,-5.87500000e-009,2.00000014e-004
,,,-5.85000000e-009,1.74218762e-004
,,,-5.82500000e-009,1.55468761e-004
,,,-5.80000000e-009,1.45312510e-004
,,,-5.77500000e-009,1.42968760e-004
,,,-5.75000000e-009,1.49218761e-004
,,,-5.72500000e-009,1.61718761e-004
,,,-5.70000000e-009,1.78906263e-004
,,,-5.67500000e-009,2.00000014e-004
,,,-5.65000000e-009,2.21875016e-004
,,,-5.62500000e-009,2.41406267e-004
,,,-5.60000000e-009,2.56250018e-004
,,,-5.57500000e-009,2.64062519e-004
,,,-5.55000000e-009,2.62500019e-004
,,,-5.52500000e-009,2.51562518e-004
,,,-5.50000000e-009,2.30468766e-004
,,,-5.47500000e-009,2.00000014e-004
,,,-5.45000000e-009,1.62500012e-004
,,,-5.42500000e-009,1.21875009e-004
,,,-5.40000000e-009,8.12500058e-005
,,,-5.37500000e-009,4.45312532e-005
,,,-5.35000000e-009,1.48437511e-005
,,,-5.32500000e-009,-3.90625028e-006
,,,-5.30000000e-009,-9.37500066e-006
,,,-5.27500000e-009,0.00000000e+000
,,,-5.25000000e-009,2.81250020e-005
,,,-5.22500000e-009,7.03125050e-005
,,,-5.20000000e-009,1.23437509e-004
,,,-5.17500000e-009,1.82812513e-004
,,,-5.15000000e-009,2.44531267e-004
,,,-5.12500000e-009,3.03125021e-004
,,,-5.10000000e-009,3.56250025e-004
,,,-5.07500000e-009,4.00000028e-004
,,,-5.05000000e-009,4.32031281e-004
,,,-5.02500000e-009,4.50781282e-004
,,,-5.00000000e-009,4.57812532e-004
,,,-4.97500000e-009,4.55468782e-004
,,,-4.95000000e-009,4.44531281e-004
,,,-4.92500000e-009,4.30468780e-004
,,,-4.90000000e-009,4.14062529e-004
,,,-4.87500000e-009,4.00000028e-004
,,,-4.85000000e-009,3.89843778e-004
,,,-4.82500000e-009,3.84375027e-004
,,,-4.80000000e-009,3.83593777e-004
,,,-4.77500000e-009,3.86718777e-004
,,,-4.75000000e-009,3.91406278e-004
,,,-4.72500000e-009,3.96093778e-004
,,,-4.70000000e-009,3.99218778e-004
,,,-4.67500000e-009,4.00000028e-004
,,,-4.65000000e-009,3.96875028e-004
,,,-4.62500000e-009,3.91406278e-004
,,,-4.60000000e-009,3.85937527e-004
,,,-4.57500000e-009,3.79687527e-004
,,,-4.55000000e-009,3.76562527e-004
,,,-4.52500000e-009,3.78125027e-004
,,,-4.50000000e-009,3.85937527e-004
,,,-4.47500000e-009,4.00000028e-004
,,,-4.45000000e-009,4.19531280e-004
,,,-4.42500000e-009,4.45312532e-004
,,,-4.40000000e-009,4.74218784e-004
,,,-4.37500000e-009,5.05468786e-004
,,,-4.35000000e-009,5.35937538e-004
,,,-4.32500000e-009,5.63281290e-004
,,,-4.30000000e-009,5.84375041e-004
,,,-4.27500000e-009,6.00000042e-004
,,,-4.25000000e-009,6.03906293e-004
,,,-4.22500000e-009,6.03125043e-004
,,,-4.20000000e-009,5.98437542e-004
,,,-4.17500000e-009,5.92187542e-004
,,,-4.15000000e-009,5.86718792e-004
,,,-4.12500000e-009,5.84375041e-004
,,,-4.10000000e-009,5.88281292e-004
,,,-4.07500000e-009,6.00000042e-004
,,,-4.05000000e-009,6.15625044e-004
,,,-4.02500000e-009,6.37500045e-004
,,,-4.00000000e-009,6.64843797e-004
,,,-3.97500000e-009,6.96093799e-004
,,,-3.95000000e-009,7.27343801e-004
,,,-3.92500000e-009,7.57031304e-004
,,,-3.90000000e-009,7.82031305e-004
,,,-3.87500000e-009,8.00000057e-004
,,,-3.85000000e-009,8.02343807e-004
,,,-3.82500000e-009,7.95312556e-004
,,,-3.80000000e-009,7.78125055e-004
,,,-3.77500000e-009,7.52343803e-004
,,,-3.75000000e-009,7.19531301e-004
,,,-3.72500000e-009,6.82031298e-004
,,,-3.70000000e-009,6.41406295e-004
,,,-3.67500000e-009,6.00000042e-004
,,,-3.65000000e-009,5.57031289e-004
,,,-3.62500000e-009,5.17968787e-004
,,,-3.60000000e-009,4.84375034e-004
,,,-3.57500000e-009,4.56250032e-004
,,,-3.55000000e-009,4.33593781e-004
,,,-3.52500000e-009,4.17187530e-004
,,,-3.50000000e-009,4.06250029e-004
,,,-3.47500000e-009,4.00000028e-004
,,,-3.45000000e-009,3.96875028e-004
,,,-3.42500000e-009,3.97656278e-004
,,,-3.40000000e-009,4.00000028e-004
,,,-3.37500000e-009,4.03125029e-004
,,,-3.35000000e-009,4.05468779e-004
,,,-3.32500000e-009,4.06250029e-004
,,,-3.30000000e-009,4.04687529e-004
,,,-3.27500000e-009,4.00000028e-004
,,,-3.25000000e-009,3.89062528e-004
,,,-3.22500000e-009,3.74218776e-004
,,,-3.20000000e-009,3.53906275e-004
,,,-3.17500000e-009,3.28906273e-004
,,,-3.15000000e-009,3.00000021e-004
,,,-3.12500000e-009,2.68750019e-004
,,,-3.10000000e-009,2.34375017e-004
,,,-3.07500000e-009,2.00000014e-004
,,,-3.05000000e-009,1.65625012e-004
,,,-3.02500000e-009,1.32031259e-004
,,,-3.00000000e-009,1.00781257e-004
,,,-2.97500000e-009,7.18750051e-005
,,,-2.95000000e-009,4.60937533e-005
,,,-2.92500000e-009,2.50000018e-005
,,,-2.90000000e-009,9.37500066e-006
,,,-2.87500000e-009,0.00000000e+000
,,,-2.85000000e-009,7.81250055e-007
,,,-2.82500000e-009,9.37500066e-006
,,,-2.80000000e-009,2.42187517e-005
,,,-2.77500000e-009,4.68750033e-005
,,,-2.75000000e-009,7.57812554e-005
,,,-2.72500000e-009,1.11718758e-004
,,,-2.70000000e-009,1.53906261e-004
,,,-2.67500000e-009,2.00000014e-004
,,,-2.65000000e-009,2.49218768e-004
,,,-2.62500000e-009,2.96093771e-004
,,,-2.60000000e-009,3.39062524e-004
,,,-2.57500000e-009,3.75000027e-004
,,,-2.55000000e-009,4.00000028e-004
,,,-2.52500000e-009,4.14062529e-004
,,,-2.50000000e-009,4.14062529e-004
,,,-2.47500000e-009,4.00000028e-004
,,,-2.45000000e-009,3.69531276e-004
,,,-2.42500000e-009,3.28125023e-004
,,,-2.40000000e-009,2.76562520e-004
,,,-2.37500000e-009,2.19531266e-004
,,,-2.35000000e-009,1.59375011e-004
,,,-2.32500000e-009,1.00000007e-004
,,,-2.30000000e-009,4.60937533e-005
,,,-2.27500000e-009,0.00000000e+000
,,,-2.25000000e-009,-3.43750024e-005
,,,-2.22500000e-009,-5.78125041e-005
,,,-2.20000000e-009,-7.03125050e-005
,,,-2.17500000e-009,-7.10937550e-005
,,,-2.15000000e-009,-6.32812545e-005
,,,-2.12500000e-009,-4.76562534e-005
,,,-2.10000000e-009,-2.57812518e-005
,,,-2.07500000e-009,0.00000000e+000
,,,-2.05000000e-009,2.81250020e-005
,,,-2.02500000e-009,5.78125041e-005
,,,-2.00000000e-009,8.59375061e-005
,,,-1.97500000e-009,1.12500008e-004
,,,-1.95000000e-009,1.37500010e-004
,,,-1.92500000e-009,1.60156261e-004
,,,-1.90000000e-009,1.81250013e-004
,,,-1.87500000e-009,2.00000014e-004
,,,-1.85000000e-009,2.14062515e-004
,,,-1.82500000e-009,2.25000016e-004
,,,-1.80000000e-009,2.32031266e-004
,,,-1.77500000e-009,2.35156267e-004
,,,-1.75000000e-009,2.34375017e-004
,,,-1.72500000e-009,2.28125016e-004
,,,-1.70000000e-009,2.16406265e-004
,,,-1.67500000e-009,2.00000014e-004
,,,-1.65000000e-009,1.76562512e-004
,,,-1.62500000e-009,1.49218761e-004
,,,-1.60000000e-009,1.20312509e-004
,,,-1.57500000e-009,9.06250064e-005
,,,-1.55000000e-009,6.25000044e-005
,,,-1.52500000e-009,3.75000027e-005
,,,-1.50000000e-009,1.56250011e-005
,,,-1.47500000e-009,0.00000000e+000
,,,-1.45000000e-009,-1.32812509e-005
,,,-1.42500000e-009,-2.26562516e-005
,,,-1.40000000e-009,-2.81250020e-005
,,,-1.37500000e-009,-2.89062520e-005
,,,-1.35000000e-009,-2.50000018e-005
,,,-1.32500000e-009,-1.87500013e-005
,,,-1.30000000e-009,-1.01562507e-005
,,,-1.27500000e-009,0.00000000e+000
,,,-1.25000000e-009,-2.34375017e-006
,,,-1.22500000e-009,-7.03125050e-006
,,,-1.20000000e-009,-1.17187508e-005
,,,-1.17500000e-009,-1.64062512e-005
,,,-1.15000000e-009,-1.87500013e-005
,,,-1.12500000e-009,-1.71875012e-005
,,,-1.10000000e-009,-1.09375008e-005
,,,-1.07500000e-009,0.00000000e+000
,,,-1.05000000e-009,-6.25000044e-006
,,,-1.02500000e-009,-1.25000009e-005
,,,-1.00000000e-009,-1.79687513e-005
,,,-9.75000000e-010,-2.03125014e-005
,,,-9.50000000e-010,-2.03125014e-005
,,,-9.25000000e-010,-1.64062512e-005
,,,-9.00000000e-010,-8.59375061e-006
,,,-8.75000000e-010,0.00000000e+000
,,,-8.50000000e-010,-1.87500013e-005
,,,-8.25000000e-010,-4.21875030e-005
,,,-8.00000000e-010,-6.95312549e-005
,,,-7.75000000e-010,-9.76562569e-005
,,,-7.50000000e-010,-1.25781259e-004
,,,-7.25000000e-010,-1.51562511e-004
,,,-7.00000000e-010,-1.75781262e-004
,,,-6.75000000e-010,-2.00000014e-004
,,,-6.50000000e-010,-2.60156268e-004
,,,-6.25000000e-010,-3.31250023e-004
,,,-6.00000000e-010,-4.13281279e-004
,,,-5.75000000e-010,-5.07031286e-004
,,,-5.50000000e-010,-6.11718793e-004
,,,-5.25000000e-010,-7.28125052e-004
,,,-5.00000000e-010,-8.57031311e-004
,,,-4.75000000e-010,-1.00000007e-003
,,,-4.50000000e-010,-1.18593758e-003
,,,-4.25000000e-010,-1.39062510e-003
,,,-4.00000000e-010,-1.61015636e-003
,,,-3.75000000e-010,-1.84140638e-003
,,,-3.50000000e-010,-2.07968765e-003
,,,-3.25000000e-010,-2.32109391e-003
,,,-3.00000000e-010,-2.56171893e-003
,,,-2.75000000e-010,-2.80000020e-003
,,,-2.50000000e-010,-3.04062522e-003
,,,-2.25000000e-010,-3.27890648e-003
,,,-2.00000000e-010,-3.51328150e-003
,,,-1.75000000e-010,-3.74140651e-003
,,,-1.50000000e-010,-3.96484403e-003
,,,-1.25000000e-010,-4.18203155e-003
,,,-1.00000000e-010,-4.39296906e-003
,,,-7.50000000e-011,-4.60000033e-003
,,,-5.00000000e-011,-4.79375034e-003
,,,-2.50000000e-011,-4.98828160e-003
,,,0.00000000e+000,-5.18671912e-003
,,,2.50000000e-011,-5.38671913e-003
,,,5.00000000e-011,-5.58984415e-003
,,,7.50000000e-011,-5.79375041e-003
,,,1.00000000e-010,-5.99687542e-003
,,,1.25000000e-010,-6.20000044e-003
,,,1.50000000e-010,-6.37421920e-003
,,,1.75000000e-010,-6.55078171e-003
,,,2.00000000e-010,-6.72890673e-003
,,,2.25000000e-010,-6.90937549e-003
,,,2.50000000e-010,-7.08906300e-003
,,,2.75000000e-010,-7.26640676e-003
,,,3.00000000e-010,-7.43828178e-003
,,,3.25000000e-010,-7.60000054e-003
,,,3.50000000e-010,-7.70703180e-003
,,,3.75000000e-010,-7.80156305e-003
,,,4.00000000e-010,-7.88281306e-003
,,,4.25000000e-010,-7.94843806e-003
,,,4.50000000e-010,-7.99531307e-003
,,,4.75000000e-010,-8.02109432e-003
,,,5.00000000e-010,-8.02265682e-003
,,,5.25000000e-010,-8.00000057e-003
,,,5.50000000e-010,-7.90937556e-003
,,,5.75000000e-010,-7.80625055e-003
,,,6.00000000e-010,-7.69453179e-003
,,,6.25000000e-010,-7.58125054e-003
,,,6.50000000e-010,-7.47187553e-003
,,,6.75000000e-010,-7.36953177e-003
,,,7.00000000e-010,-7.27812552e-003
,,,7.25000000e-010,-7.20000051e-003
,,,7.50000000e-010,-7.10234425e-003
,,,7.75000000e-010,-7.02265675e-003
,,,8.00000000e-010,-6.96015674e-003
,,,8.25000000e-010,-6.91328174e-003
,,,8.50000000e-010,-6.87734424e-003
,,,8.75000000e-010,-6.85000048e-003
,,,9.00000000e-010,-6.82578173e-003
,,,9.25000000e-010,-6.80000048e-003
,,,9.50000000e-010,-6.73984423e-003
,,,9.75000000e-010,-6.67265672e-003
,,,1.00000000e-009,-6.59921922e-003
,,,1.02500000e-009,-6.52109421e-003
,,,1.05000000e-009,-6.43984421e-003
,,,1.07500000e-009,-6.35859420e-003
,,,1.10000000e-009,-6.27812544e-003
,,,1.12500000e-009,-6.20000044e-003
,,,1.15000000e-009,-6.10468793e-003
,,,1.17500000e-009,-6.00859418e-003
,,,1.20000000e-009,-5.91171917e-003
,,,1.22500000e-009,-5.81406291e-003
,,,1.25000000e-009,-5.71406290e-003
,,,1.27500000e-009,-5.61171915e-003
,,,1.30000000e-009,-5.50703164e-003
,,,1.32500000e-009,-5.40000038e-003
,,,1.35000000e-009,-5.28281287e-003
,,,1.37500000e-009,-5.16328162e-003
,,,1.40000000e-009,-5.04453161e-003
,,,1.42500000e-009,-4.93046910e-003
,,,1.45000000e-009,-4.82578159e-003
,,,1.47500000e-009,-4.73437534e-003
,,,1.50000000e-009,-4.65937533e-003
,,,1.52500000e-009,-4.60000033e-003
,,,1.55000000e-009,-4.55156282e-003
,,,1.57500000e-009,-4.50703157e-003
,,,1.60000000e-009,-4.45937532e-003
,,,1.62500000e-009,-4.40312531e-003
,,,1.65000000e-009,-4.33281281e-003
,,,1.67500000e-009,-4.24375030e-003
,,,1.70000000e-009,-4.13359404e-003
,,,1.72500000e-009,-4.00000028e-003
,,,1.75000000e-009,-3.84218777e-003
,,,1.77500000e-009,-3.66328151e-003
,,,1.80000000e-009,-3.46796900e-003
,,,1.82500000e-009,-3.26718773e-003
,,,1.85000000e-009,-3.07109397e-003
,,,1.87500000e-009,-2.88828145e-003
,,,1.90000000e-009,-2.72890644e-003
,,,1.92500000e-009,-2.60000018e-003
,,,1.95000000e-009,-2.51328143e-003
,,,1.97500000e-009,-2.45468767e-003
,,,2.00000000e-009,-2.42031267e-003
,,,2.02500000e-009,-2.40468767e-003
,,,2.05000000e-009,-2.40156267e-003
,,,2.07500000e-009,-2.40390642e-003
,,,2.10000000e-009,-2.40468767e-003
,,,2.12500000e-009,-2.40000017e-003
,,,2.15000000e-009,-2.39062517e-003
,,,2.17500000e-009,-2.36328142e-003
,,,2.20000000e-009,-2.31953141e-003
,,,2.22500000e-009,-2.26171891e-003
,,,2.25000000e-009,-2.19531266e-003
,,,2.27500000e-009,-2.12578140e-003
,,,2.30000000e-009,-2.05937515e-003
,,,2.32500000e-009,-2.00000014e-003
,,,2.35000000e-009,-1.95546889e-003
,,,2.37500000e-009,-1.91562514e-003
,,,2.40000000e-009,-1.87656263e-003
,,,2.42500000e-009,-1.83671888e-003
,,,2.45000000e-009,-1.79140638e-003
,,,2.47500000e-009,-1.73828137e-003
,,,2.50000000e-009,-1.67421887e-003
,,,2.52500000e-009,-1.60000011e-003
,,,2.55000000e-009,-1.52265636e-003
,,,2.57500000e-009,-1.43515635e-003
,,,2.60000000e-009,-1.34140634e-003
,,,2.62500000e-009,-1.24765634e-003
,,,2.65000000e-009,-1.16015633e-003
,,,2.67500000e-009,-1.08671883e-003
,,,2.70000000e-009,-1.03203132e-003
,,,2.72500000e-009,-1.00000007e-003
,,,2.75000000e-009,-1.00156257e-003
,,,2.77500000e-009,-1.02187507e-003
,,,2.80000000e-009,-1.05468757e-003
,,,2.82500000e-009,-1.09453133e-003
,,,2.85000000e-009,-1.13515633e-003
,,,2.87500000e-009,-1.16953133e-003
,,,2.90000000e-009,-1.19296883e-003
,,,2.92500000e-009,-1.20000008e-003
,,,2.95000000e-009,-1.19062508e-003
,,,2.97500000e-009,-1.16171883e-003
,,,3.00000000e-009,-1.11484383e-003
,,,3.02500000e-009,-1.05468757e-003
,,,3.05000000e-009,-9.86718820e-004
,,,3.07500000e-009,-9.17968815e-004
,,,3.10000000e-009,-8.53906310e-004
,,,3.12500000e-009,-8.00000057e-004
,,,3.15000000e-009,-7.64843804e-004
,,,3.17500000e-009,-7.43750053e-004
,,,3.20000000e-009,-7.35156302e-004
,,,3.22500000e-009,-7.38281302e-004
,,,3.25000000e-009,-7.49218803e-004
,,,3.27500000e-009,-7.65625054e-004
,,,3.30000000e-009,-7.82812555e-004
,,,3.32500000e-009,-8.00000057e-004
,,,3.35000000e-009,-8.15625058e-004
,,,3.37500000e-009,-8.25781308e-004
,,,3.40000000e-009,-8.28906309e-004
,,,3.42500000e-009,-8.25781308e-004
,,,3.45000000e-009,-8.19531308e-004
,,,3.47500000e-009,-8.11718807e-004
,,,3.50000000e-009,-8.04687557e-004
,,,3.52500000e-009,-8.00000057e-004
,,,3.55000000e-009,-8.00781307e-004
,,,3.57500000e-009,-8.04687557e-004
,,,3.60000000e-009,-8.10156307e-004
,,,3.62500000e-009,-8.14843808e-004
,,,3.65000000e-009,-8.17968808e-004
,,,3.67500000e-009,-8.17187558e-004
,,,3.70000000e-009,-8.11718807e-004
,,,3.72500000e-009,-8.00000057e-004
,,,3.75000000e-009,-7.81250055e-004
,,,3.77500000e-009,-7.57031304e-004
,,,3.80000000e-009,-7.28906302e-004
,,,3.82500000e-009,-6.98437549e-004
,,,3.85000000e-009,-6.68750047e-004
,,,3.87500000e-009,-6.40625045e-004
,,,3.90000000e-009,-6.17187544e-004
,,,3.92500000e-009,-6.00000042e-004
,,,3.95000000e-009,-5.90625042e-004
,,,3.97500000e-009,-5.87500042e-004
,,,4.00000000e-009,-5.88281292e-004
,,,4.02500000e-009,-5.92187542e-004
,,,4.05000000e-009,-5.96093792e-004
,,,4.07500000e-009,-6.00000042e-004
,,,4.10000000e-009,-6.01562543e-004
,,,4.12500000e-009,-6.00000042e-004
,,,4.15000000e-009,-5.95312542e-004
,,,4.17500000e-009,-5.89062542e-004
,,,4.20000000e-009,-5.82031291e-004
,,,4.22500000e-009,-5.75781291e-004
,,,4.25000000e-009,-5.72656291e-004
,,,4.27500000e-009,-5.75000041e-004
,,,4.30000000e-009,-5.83593791e-004
,,,4.32500000e-009,-6.00000042e-004
,,,4.35000000e-009,-6.22656294e-004
,,,4.37500000e-009,-6.51562546e-004
,,,4.40000000e-009,-6.83593798e-004
,,,4.42500000e-009,-7.15625051e-004
,,,4.45000000e-009,-7.46093803e-004
,,,4.47500000e-009,-7.71875055e-004
,,,4.50000000e-009,-7.90625056e-004
,,,4.52500000e-009,-8.00000057e-004
,,,4.55000000e-009,-7.97656306e-004
,,,4.57500000e-009,-7.85156306e-004
,,,4.60000000e-009,-7.63281304e-004
,,,4.62500000e-009,-7.34375052e-004
,,,4.65000000e-009,-7.00781300e-004
,,,4.67500000e-009,-6.65625047e-004
,,,4.70000000e-009,-6.30468795e-004
,,,4.72500000e-009,-6.00000042e-004
,,,4.75000000e-009,-5.75000041e-004
,,,4.77500000e-009,-5.57812539e-004
,,,4.80000000e-009,-5.48437539e-004
,,,4.82500000e-009,-5.47656289e-004
,,,4.85000000e-009,-5.53125039e-004
,,,4.87500000e-009,-5.64843790e-004
,,,4.90000000e-009,-5.81250041e-004
,,,4.92500000e-009,-6.00000042e-004
,,,4.95000000e-009,-6.16406294e-004
,,,4.97500000e-009,-6.30468795e-004
,,,5.00000000e-009,-6.40625045e-004
,,,5.02500000e-009,-6.45312546e-004
,,,5.05000000e-009,-6.43750046e-004
,,,5.07500000e-009,-6.35156295e-004
,,,5.10000000e-009,-6.20312544e-004
,,,5.12500000e-009,-6.00000042e-004
,,,5.15000000e-009,-5.71875040e-004
,,,5.17500000e-009,-5.40625038e-004
,,,5.20000000e-009,-5.08593786e-004
,,,5.22500000e-009,-4.76562534e-004
,,,5.25000000e-009,-4.47656282e-004
,,,5.27500000e-009,-4.24218780e-004
,,,5.30000000e-009,-4.07812529e-004
,,,5.32500000e-009,-4.00000028e-004
,,,5.35000000e-009,-3.99218778e-004
,,,5.37500000e-009,-4.08593779e-004
,,,5.40000000e-009,-4.26562530e-004
,,,5.42500000e-009,-4.51562532e-004
,,,5.45000000e-009,-4.83593784e-004
,,,5.47500000e-009,-5.20312537e-004
,,,5.50000000e-009,-5.60156290e-004
,,,5.52500000e-009,-6.00000042e-004
,,,5.55000000e-009,-6.33593795e-004
,,,5.57500000e-009,-6.60937547e-004
,,,5.60000000e-009,-6.79687548e-004
,,,5.62500000e-009,-6.87500049e-004
,,,5.65000000e-009,-6.83593798e-004
,,,5.67500000e-009,-6.67187547e-004
,,,5.70000000e-009,-6.39062545e-004
,,,5.72500000e-009,-6.00000042e-004
,,,5.75000000e-009,-5.49218789e-004
,,,5.77500000e-009,-4.92968785e-004
,,,5.80000000e-009,-4.33593781e-004
,,,5.82500000e-009,-3.75000027e-004
,,,5.85000000e-009,-3.19531273e-004
,,,5.87500000e-009,-2.70312519e-004
,,,5.90000000e-009,-2.29687516e-004
,,,5.92500000e-009,-2.00000014e-004
,,,5.95000000e-009,-1.82031263e-004
