RawData/SinglePhotoelectron/R5_2pt2B_5mV/wave032_Ch2.csv

"Record Length",1000,"Points",-7.72500000e-009,-1.90625013e-004
"Sample Interval",2.50000000e-011,s,-7.70000000e-009,-1.86718763e-004
"Trigger Point",309,"Samples",-7.67500000e-009,-1.84375013e-004
"Trigger Time",7.20527919e-012,s,-7.65000000e-009,-1.83593763e-004
"",,,-7.62500000e-009,-1.85937513e-004
"Horizontal Offset",-7.72500000e-009,s,-7.60000000e-009,-1.91406264e-004
,,,-7.57500000e-009,-2.00000014e-004
,,,-7.55000000e-009,-2.06250015e-004
,,,-7.52500000e-009,-2.14062515e-004
,,,-7.50000000e-009,-2.20312516e-004
,,,-7.47500000e-009,-2.24218766e-004
,,,-7.45000000e-009,-2.25000016e-004
,,,-7.42500000e-009,-2.21875016e-004
,,,-7.40000000e-009,-2.13281265e-004
,,,-7.37500000e-009,-2.00000014e-004
,,,-7.35000000e-009,-1.79687513e-004
,,,-7.32500000e-009,-1.55468761e-004
,,,-7.30000000e-009,-1.27343759e-004
,,,-7.27500000e-009,-9.84375070e-005
,,,-7.25000000e-009,-6.95312549e-005
,,,-7.22500000e-009,-4.21875030e-005
,,,-7.20000000e-009,-1.87500013e-005
,,,-7.17500000e-009,0.00000000e+000
,,,-7.15000000e-009,1.25000009e-005
,,,-7.12500000e-009,1.95312514e-005
,,,-7.10000000e-009,2.18750015e-005
,,,-7.07500000e-009,2.03125014e-005
,,,-7.05000000e-009,1.56250011e-005
,,,-7.02500000e-009,9.37500066e-006
,,,-7.00000000e-009,3.12500022e-006
,,,-6.97500000e-009,0.00000000e+000
,,,-6.95000000e-009,0.00000000e+000
,,,-6.92500000e-009,5.46875039e-006
,,,-6.90000000e-009,1.87500013e-005
,,,-6.87500000e-009,3.98437528e-005
,,,-6.85000000e-009,6.87500049e-005
,,,-6.82500000e-009,1.06250008e-004
,,,-6.80000000e-009,1.50781261e-004
,,,-6.77500000e-009,2.00000014e-004
,,,-6.75000000e-009,2.48437518e-004
,,,-6.72500000e-009,2.96093771e-004
,,,-6.70000000e-009,3.39062524e-004
,,,-6.67500000e-009,3.75781277e-004
,,,-6.65000000e-009,4.01562528e-004
,,,-6.62500000e-009,4.15625029e-004
,,,-6.60000000e-009,4.14843779e-004
,,,-6.57500000e-009,4.00000028e-004
,,,-6.55000000e-009,3.65625026e-004
,,,-6.52500000e-009,3.20312523e-004
,,,-6.50000000e-009,2.66406269e-004
,,,-6.47500000e-009,2.07812515e-004
,,,-6.45000000e-009,1.48437511e-004
,,,-6.42500000e-009,9.14062565e-005
,,,-6.40000000e-009,4.14062529e-005
,,,-6.37500000e-009,0.00000000e+000
,,,-6.35000000e-009,-3.04687522e-005
,,,-6.32500000e-009,-5.00000035e-005
,,,-6.30000000e-009,-5.70312540e-005
,,,-6.27500000e-009,-5.54687539e-005
,,,-6.25000000e-009,-4.53125032e-005
,,,-6.22500000e-009,-3.12500022e-005
,,,-6.20000000e-009,-1.48437511e-005
,,,-6.17500000e-009,0.00000000e+000
,,,-6.15000000e-009,1.17187508e-005
,,,-6.12500000e-009,1.87500013e-005
,,,-6.10000000e-009,2.18750015e-005
,,,-6.07500000e-009,2.10937515e-005
,,,-6.05000000e-009,1.71875012e-005
,,,-6.02500000e-009,1.17187508e-005
,,,-6.00000000e-009,5.46875039e-006
,,,-5.97500000e-009,0.00000000e+000
,,,-5.95000000e-009,-3.12500022e-006
,,,-5.92500000e-009,-5.46875039e-006
,,,-5.90000000e-009,-5.46875039e-006
,,,-5.87500000e-009,-3.90625028e-006
,,,-5.85000000e-009,-1.56250011e-006
,,,-5.82500000e-009,0.00000000e+000
,,,-5.80000000e-009,0.00000000e+000
,,,-5.77500000e-009,0.00000000e+000
,,,-5.75000000e-009,-1.56250011e-006
,,,-5.72500000e-009,-5.46875039e-006
,,,-5.70000000e-009,-9.37500066e-006
,,,-5.67500000e-009,-1.25000009e-005
,,,-5.65000000e-009,-1.40625010e-005
,,,-5.62500000e-009,-1.25000009e-005
,,,-5.60000000e-009,-7.81250055e-006
,,,-5.57500000e-009,0.00000000e+000
,,,-5.55000000e-009,1.09375008e-005
,,,-5.52500000e-009,2.26562516e-005
,,,-5.50000000e-009,3.28125023e-005
,,,-5.47500000e-009,3.98437528e-005
,,,-5.45000000e-009,4.14062529e-005
,,,-5.42500000e-009,3.51562525e-005
,,,-5.40000000e-009,2.10937515e-005
,,,-5.37500000e-009,0.00000000e+000
,,,-5.35000000e-009,-3.04687522e-005
,,,-5.32500000e-009,-6.56250046e-005
,,,-5.30000000e-009,-1.03125007e-004
,,,-5.27500000e-009,-1.39062510e-004
,,,-5.25000000e-009,-1.69531262e-004
,,,-5.22500000e-009,-1.90625013e-004
,,,-5.20000000e-009,-2.01562514e-004
,,,-5.17500000e-009,-2.00000014e-004
,,,-5.15000000e-009,-1.86718763e-004
,,,-5.12500000e-009,-1.63281262e-004
,,,-5.10000000e-009,-1.32812509e-004
,,,-5.07500000e-009,-9.84375070e-005
,,,-5.05000000e-009,-6.48437546e-005
,,,-5.02500000e-009,-3.43750024e-005
,,,-5.00000000e-009,-1.17187508e-005
,,,-4.97500000e-009,0.00000000e+000
,,,-4.95000000e-009,-1.56250011e-006
,,,-4.92500000e-009,-1.56250011e-005
,,,-4.90000000e-009,-3.98437528e-005
,,,-4.87500000e-009,-7.18750051e-005
,,,-4.85000000e-009,-1.07031258e-004
,,,-4.82500000e-009,-1.42187510e-004
,,,-4.80000000e-009,-1.74218762e-004
,,,-4.77500000e-009,-2.00000014e-004
,,,-4.75000000e-009,-2.16406265e-004
,,,-4.72500000e-009,-2.25000016e-004
,,,-4.70000000e-009,-2.25781266e-004
,,,-4.67500000e-009,-2.21093766e-004
,,,-4.65000000e-009,-2.13281265e-004
,,,-4.62500000e-009,-2.05468765e-004
,,,-4.60000000e-009,-2.00000014e-004
,,,-4.57500000e-009,-2.00000014e-004
,,,-4.55000000e-009,-2.04687514e-004
,,,-4.52500000e-009,-2.17968765e-004
,,,-4.50000000e-009,-2.38281267e-004
,,,-4.47500000e-009,-2.64843769e-004
,,,-4.45000000e-009,-2.96093771e-004
,,,-4.42500000e-009,-3.29687523e-004
,,,-4.40000000e-009,-3.64843776e-004
,,,-4.37500000e-009,-4.00000028e-004
,,,-4.35000000e-009,-4.28906280e-004
,,,-4.32500000e-009,-4.55468782e-004
,,,-4.30000000e-009,-4.80468784e-004
,,,-4.27500000e-009,-5.03906286e-004
,,,-4.25000000e-009,-5.26562537e-004
,,,-4.22500000e-009,-5.50000039e-004
,,,-4.20000000e-009,-5.74218791e-004
,,,-4.17500000e-009,-6.00000042e-004
,,,-4.15000000e-009,-6.19531294e-004
,,,-4.12500000e-009,-6.37500045e-004
,,,-4.10000000e-009,-6.51562546e-004
,,,-4.07500000e-009,-6.60156297e-004
,,,-4.05000000e-009,-6.60156297e-004
,,,-4.02500000e-009,-6.51562546e-004
,,,-4.00000000e-009,-6.31250045e-004
,,,-3.97500000e-009,-6.00000042e-004
,,,-3.95000000e-009,-5.53906289e-004
,,,-3.92500000e-009,-5.00000035e-004
,,,-3.90000000e-009,-4.42187531e-004
,,,-3.87500000e-009,-3.82812527e-004
,,,-3.85000000e-009,-3.26562523e-004
,,,-3.82500000e-009,-2.75000019e-004
,,,-3.80000000e-009,-2.32031266e-004
,,,-3.77500000e-009,-2.00000014e-004
,,,-3.75000000e-009,-1.78125013e-004
,,,-3.72500000e-009,-1.67968762e-004
,,,-3.70000000e-009,-1.66406262e-004
,,,-3.67500000e-009,-1.72656262e-004
,,,-3.65000000e-009,-1.81250013e-004
,,,-3.62500000e-009,-1.91406264e-004
,,,-3.60000000e-009,-1.98437514e-004
,,,-3.57500000e-009,-2.00000014e-004
,,,-3.55000000e-009,-1.92968764e-004
,,,-3.52500000e-009,-1.78906263e-004
,,,-3.50000000e-009,-1.57031261e-004
,,,-3.47500000e-009,-1.28906259e-004
,,,-3.45000000e-009,-9.68750069e-005
,,,-3.42500000e-009,-6.25000044e-005
,,,-3.40000000e-009,-2.96875021e-005
,,,-3.37500000e-009,0.00000000e+000
,,,-3.35000000e-009,2.26562516e-005
,,,-3.32500000e-009,3.98437528e-005
,,,-3.30000000e-009,4.92187535e-005
,,,-3.27500000e-009,5.15625036e-005
,,,-3.25000000e-009,4.68750033e-005
,,,-3.22500000e-009,3.59375025e-005
,,,-3.20000000e-009,2.03125014e-005
,,,-3.17500000e-009,0.00000000e+000
,,,-3.15000000e-009,-2.65625019e-005
,,,-3.12500000e-009,-5.46875039e-005
,,,-3.10000000e-009,-8.28125059e-005
,,,-3.07500000e-009,-1.10156258e-004
,,,-3.05000000e-009,-1.35937510e-004
,,,-3.02500000e-009,-1.59375011e-004
,,,-3.00000000e-009,-1.81250013e-004
,,,-2.97500000e-009,-2.00000014e-004
,,,-2.95000000e-009,-2.16406265e-004
,,,-2.92500000e-009,-2.28906266e-004
,,,-2.90000000e-009,-2.35937517e-004
,,,-2.87500000e-009,-2.39062517e-004
,,,-2.85000000e-009,-2.35937517e-004
,,,-2.82500000e-009,-2.28906266e-004
,,,-2.80000000e-009,-2.16406265e-004
,,,-2.77500000e-009,-2.00000014e-004
,,,-2.75000000e-009,-1.78906263e-004
,,,-2.72500000e-009,-1.55468761e-004
,,,-2.70000000e-009,-1.29687509e-004
,,,-2.67500000e-009,-1.03125007e-004
,,,-2.65000000e-009,-7.57812554e-005
,,,-2.62500000e-009,-4.84375034e-005
,,,-2.60000000e-009,-2.26562516e-005
,,,-2.57500000e-009,0.00000000e+000
,,,-2.55000000e-009,1.79687513e-005
,,,-2.52500000e-009,3.12500022e-005
,,,-2.50000000e-009,3.98437528e-005
,,,-2.47500000e-009,4.29687530e-005
,,,-2.45000000e-009,4.06250029e-005
,,,-2.42500000e-009,3.20312523e-005
,,,-2.40000000e-009,1.87500013e-005
,,,-2.37500000e-009,0.00000000e+000
,,,-2.35000000e-009,-2.34375017e-005
,,,-2.32500000e-009,-5.07812536e-005
,,,-2.30000000e-009,-7.96875056e-005
,,,-2.27500000e-009,-1.08593758e-004
,,,-2.25000000e-009,-1.35937510e-004
,,,-2.22500000e-009,-1.60937511e-004
,,,-2.20000000e-009,-1.82812513e-004
,,,-2.17500000e-009,-2.00000014e-004
,,,-2.15000000e-009,-2.10937515e-004
,,,-2.12500000e-009,-2.17968765e-004
,,,-2.10000000e-009,-2.20312516e-004
,,,-2.07500000e-009,-2.19531266e-004
,,,-2.05000000e-009,-2.15625015e-004
,,,-2.02500000e-009,-2.10937515e-004
,,,-2.00000000e-009,-2.04687514e-004
,,,-1.97500000e-009,-2.00000014e-004
,,,-1.95000000e-009,-1.94531264e-004
,,,-1.92500000e-009,-1.90625013e-004
,,,-1.90000000e-009,-1.88281263e-004
,,,-1.87500000e-009,-1.87500013e-004
,,,-1.85000000e-009,-1.89062513e-004
,,,-1.82500000e-009,-1.91406264e-004
,,,-1.80000000e-009,-1.95312514e-004
,,,-1.77500000e-009,-2.00000014e-004
,,,-1.75000000e-009,-2.03906264e-004
,,,-1.72500000e-009,-2.07812515e-004
,,,-1.70000000e-009,-2.10156265e-004
,,,-1.67500000e-009,-2.11718765e-004
,,,-1.65000000e-009,-2.10937515e-004
,,,-1.62500000e-009,-2.08593765e-004
,,,-1.60000000e-009,-2.04687514e-004
,,,-1.57500000e-009,-2.00000014e-004
,,,-1.55000000e-009,-1.92968764e-004
,,,-1.52500000e-009,-1.86718763e-004
,,,-1.50000000e-009,-1.82031263e-004
,,,-1.47500000e-009,-1.79687513e-004
,,,-1.45000000e-009,-1.80468763e-004
,,,-1.42500000e-009,-1.83593763e-004
,,,-1.40000000e-009,-1.90625013e-004
,,,-1.37500000e-009,-2.00000014e-004
,,,-1.35000000e-009,-2.14062515e-004
,,,-1.32500000e-009,-2.29687516e-004
,,,-1.30000000e-009,-2.43750017e-004
,,,-1.27500000e-009,-2.52343768e-004
,,,-1.25000000e-009,-2.53906268e-004
,,,-1.22500000e-009,-2.46875017e-004
,,,-1.20000000e-009,-2.28125016e-004
,,,-1.17500000e-009,-2.00000014e-004
,,,-1.15000000e-009,-1.75781262e-004
,,,-1.12500000e-009,-1.46875010e-004
,,,-1.10000000e-009,-1.16406258e-004
,,,-1.07500000e-009,-8.51562560e-005
,,,-1.05000000e-009,-5.54687539e-005
,,,-1.02500000e-009,-3.04687522e-005
,,,-1.00000000e-009,-1.09375008e-005
,,,-9.75000000e-010,0.00000000e+000
,,,-9.50000000e-010,-2.34375017e-005
,,,-9.25000000e-010,-5.78125041e-005
,,,-9.00000000e-010,-9.76562569e-005
,,,-8.75000000e-010,-1.38281260e-004
,,,-8.50000000e-010,-1.73437512e-004
,,,-8.25000000e-010,-1.97656264e-004
,,,-8.00000000e-010,-2.06250015e-004
,,,-7.75000000e-010,-2.00000014e-004
,,,-7.50000000e-010,-2.10937515e-004
,,,-7.25000000e-010,-2.14843765e-004
,,,-7.00000000e-010,-2.11718765e-004
,,,-6.75000000e-010,-2.03906264e-004
,,,-6.50000000e-010,-1.95312514e-004
,,,-6.25000000e-010,-1.88281263e-004
,,,-6.00000000e-010,-1.88281263e-004
,,,-5.75000000e-010,-2.00000014e-004
,,,-5.50000000e-010,-2.64062519e-004
,,,-5.25000000e-010,-3.52343775e-004
,,,-5.00000000e-010,-4.61718783e-004
,,,-4.75000000e-010,-5.88281292e-004
,,,-4.50000000e-010,-7.28906302e-004
,,,-4.25000000e-010,-8.79687562e-004
,,,-4.00000000e-010,-1.03671882e-003
,,,-3.75000000e-010,-1.20000008e-003
,,,-3.50000000e-010,-1.39609385e-003
,,,-3.25000000e-010,-1.60078136e-003
,,,-3.00000000e-010,-1.81406263e-003
,,,-2.75000000e-010,-2.03515639e-003
,,,-2.50000000e-010,-2.26328141e-003
,,,-2.25000000e-010,-2.49921893e-003
,,,-2.00000000e-010,-2.74453144e-003
,,,-1.75000000e-010,-3.00000021e-003
,,,-1.50000000e-010,-3.27500023e-003
,,,-1.25000000e-010,-3.56328150e-003
,,,-1.00000000e-010,-3.86250027e-003
,,,-7.50000000e-011,-4.16953155e-003
,,,-5.00000000e-011,-4.48125032e-003
,,,-2.50000000e-011,-4.79296909e-003
,,,0.00000000e+000,-5.10078161e-003
,,,2.50000000e-011,-5.40000038e-003
,,,5.00000000e-011,-5.67109415e-003
,,,7.50000000e-011,-5.93125042e-003
,,,1.00000000e-010,-6.17968794e-003
,,,1.25000000e-010,-6.41484420e-003
,,,1.50000000e-010,-6.63515672e-003
,,,1.75000000e-010,-6.83984423e-003
,,,2.00000000e-010,-7.02812550e-003
,,,2.25000000e-010,-7.20000051e-003
,,,2.50000000e-010,-7.31953177e-003
,,,2.75000000e-010,-7.42890678e-003
,,,3.00000000e-010,-7.53203178e-003
,,,3.25000000e-010,-7.63125054e-003
,,,3.50000000e-010,-7.72734430e-003
,,,3.75000000e-010,-7.82187555e-003
,,,4.00000000e-010,-7.91250056e-003
,,,4.25000000e-010,-8.00000057e-003
,,,4.50000000e-010,-8.03593807e-003
,,,4.75000000e-010,-8.07109432e-003
,,,5.00000000e-010,-8.10546932e-003
,,,5.25000000e-010,-8.13828183e-003
,,,5.50000000e-010,-8.16718808e-003
,,,5.75000000e-010,-8.18906308e-003
,,,6.00000000e-010,-8.20078183e-003
,,,6.25000000e-010,-8.20000058e-003
,,,6.50000000e-010,-8.13750058e-003
,,,6.75000000e-010,-8.06640682e-003
,,,7.00000000e-010,-7.99062557e-003
,,,7.25000000e-010,-7.91171931e-003
,,,7.50000000e-010,-7.83203180e-003
,,,7.75000000e-010,-7.75312555e-003
,,,8.00000000e-010,-7.67578179e-003
,,,8.25000000e-010,-7.60000054e-003
,,,8.50000000e-010,-7.48515678e-003
,,,8.75000000e-010,-7.37500052e-003
,,,9.00000000e-010,-7.26953176e-003
,,,9.25000000e-010,-7.17031301e-003
,,,9.50000000e-010,-7.07500050e-003
,,,9.75000000e-010,-6.98281299e-003
,,,1.00000000e-009,-6.89218799e-003
,,,1.02500000e-009,-6.80000048e-003
,,,1.05000000e-009,-6.67812547e-003
,,,1.07500000e-009,-6.55234421e-003
,,,1.10000000e-009,-6.42343795e-003
,,,1.12500000e-009,-6.29375045e-003
,,,1.15000000e-009,-6.16484419e-003
,,,1.17500000e-009,-6.03828168e-003
,,,1.20000000e-009,-5.91640667e-003
,,,1.22500000e-009,-5.80000041e-003
,,,1.25000000e-009,-5.67578165e-003
,,,1.27500000e-009,-5.55546914e-003
,,,1.30000000e-009,-5.44140664e-003
,,,1.32500000e-009,-5.33437538e-003
,,,1.35000000e-009,-5.23750037e-003
,,,1.37500000e-009,-5.14921911e-003
,,,1.40000000e-009,-5.07031286e-003
,,,1.42500000e-009,-5.00000035e-003
,,,1.45000000e-009,-4.92734410e-003
,,,1.47500000e-009,-4.85078159e-003
,,,1.50000000e-009,-4.76718784e-003
,,,1.52500000e-009,-4.67500033e-003
,,,1.55000000e-009,-4.57265657e-003
,,,1.57500000e-009,-4.45937532e-003
,,,1.60000000e-009,-4.33437531e-003
,,,1.62500000e-009,-4.20000030e-003
,,,1.65000000e-009,-4.05546904e-003
,,,1.67500000e-009,-3.89921903e-003
,,,1.70000000e-009,-3.73593776e-003
,,,1.72500000e-009,-3.56953150e-003
,,,1.75000000e-009,-3.40781274e-003
,,,1.77500000e-009,-3.25625023e-003
,,,1.80000000e-009,-3.11875022e-003
,,,1.82500000e-009,-3.00000021e-003
,,,1.85000000e-009,-2.90546896e-003
,,,1.87500000e-009,-2.82343770e-003
,,,1.90000000e-009,-2.74921894e-003
,,,1.92500000e-009,-2.68125019e-003
,,,1.95000000e-009,-2.61484394e-003
,,,1.97500000e-009,-2.54765643e-003
,,,2.00000000e-009,-2.47656268e-003
,,,2.02500000e-009,-2.40000017e-003
,,,2.05000000e-009,-2.32343766e-003
,,,2.07500000e-009,-2.23437516e-003
,,,2.10000000e-009,-2.13359390e-003
,,,2.12500000e-009,-2.02500014e-003
,,,2.15000000e-009,-1.91171889e-003
,,,2.17500000e-009,-1.80000013e-003
,,,2.20000000e-009,-1.69453137e-003
,,,2.22500000e-009,-1.60000011e-003
,,,2.25000000e-009,-1.52890636e-003
,,,2.27500000e-009,-1.46640635e-003
,,,2.30000000e-009,-1.41250010e-003
,,,2.32500000e-009,-1.36406260e-003
,,,2.35000000e-009,-1.32031259e-003
,,,2.37500000e-009,-1.27968759e-003
,,,2.40000000e-009,-1.23984384e-003
,,,2.42500000e-009,-1.20000008e-003
,,,2.45000000e-009,-1.16953133e-003
,,,2.47500000e-009,-1.13281258e-003
,,,2.50000000e-009,-1.08750008e-003
,,,2.52500000e-009,-1.03515632e-003
,,,2.55000000e-009,-9.77343819e-004
,,,2.57500000e-009,-9.17187565e-004
,,,2.60000000e-009,-8.57031311e-004
,,,2.62500000e-009,-8.00000057e-004
,,,2.65000000e-009,-7.60937554e-004
,,,2.67500000e-009,-7.25000051e-004
,,,2.70000000e-009,-6.92968799e-004
,,,2.72500000e-009,-6.64843797e-004
,,,2.75000000e-009,-6.41406295e-004
,,,2.77500000e-009,-6.22656294e-004
,,,2.80000000e-009,-6.08593793e-004
,,,2.82500000e-009,-6.00000042e-004
,,,2.85000000e-009,-6.03906293e-004
,,,2.87500000e-009,-6.08593793e-004
,,,2.90000000e-009,-6.11718793e-004
,,,2.92500000e-009,-6.13281293e-004
,,,2.95000000e-009,-6.13281293e-004
,,,2.97500000e-009,-6.10156293e-004
,,,3.00000000e-009,-6.05468793e-004
,,,3.02500000e-009,-6.00000042e-004
,,,3.05000000e-009,-5.98437542e-004
,,,3.07500000e-009,-5.96093792e-004
,,,3.10000000e-009,-5.91406292e-004
,,,3.12500000e-009,-5.86718792e-004
,,,3.15000000e-009,-5.84375041e-004
,,,3.17500000e-009,-5.84375041e-004
,,,3.20000000e-009,-5.89062542e-004
,,,3.22500000e-009,-6.00000042e-004
,,,3.25000000e-009,-6.19531294e-004
,,,3.27500000e-009,-6.42968796e-004
,,,3.30000000e-009,-6.69531297e-004
,,,3.32500000e-009,-6.97656299e-004
,,,3.35000000e-009,-7.26562551e-004
,,,3.37500000e-009,-7.53125053e-004
,,,3.40000000e-009,-7.78125055e-004
,,,3.42500000e-009,-8.00000057e-004
,,,3.45000000e-009,-8.15625058e-004
,,,3.47500000e-009,-8.26562559e-004
,,,3.50000000e-009,-8.31250059e-004
,,,3.52500000e-009,-8.31250059e-004
,,,3.55000000e-009,-8.27343809e-004
,,,3.57500000e-009,-8.19531308e-004
,,,3.60000000e-009,-8.10937557e-004
,,,3.62500000e-009,-8.00000057e-004
,,,3.65000000e-009,-7.84375056e-004
,,,3.67500000e-009,-7.66406304e-004
,,,3.70000000e-009,-7.46875053e-004
,,,3.72500000e-009,-7.24218801e-004
,,,3.75000000e-009,-6.98437549e-004
,,,3.77500000e-009,-6.68750047e-004
,,,3.80000000e-009,-6.35937545e-004
,,,3.82500000e-009,-6.00000042e-004
,,,3.85000000e-009,-5.59375040e-004
,,,3.87500000e-009,-5.19531287e-004
,,,3.90000000e-009,-4.82031284e-004
,,,3.92500000e-009,-4.48437532e-004
,,,3.95000000e-009,-4.21875030e-004
,,,3.97500000e-009,-4.03906279e-004
,,,4.00000000e-009,-3.96093778e-004
,,,4.02500000e-009,-4.00000028e-004
,,,4.05000000e-009,-4.13281279e-004
,,,4.07500000e-009,-4.35156281e-004
,,,4.10000000e-009,-4.64062533e-004
,,,4.12500000e-009,-4.96093785e-004
,,,4.15000000e-009,-5.28906287e-004
,,,4.17500000e-009,-5.58593790e-004
,,,4.20000000e-009,-5.83593791e-004
,,,4.22500000e-009,-6.00000042e-004
,,,4.25000000e-009,-6.03125043e-004
,,,4.27500000e-009,-5.96093792e-004
,,,4.30000000e-009,-5.78125041e-004
,,,4.32500000e-009,-5.51562539e-004
,,,4.35000000e-009,-5.17968787e-004
,,,4.37500000e-009,-4.80468784e-004
,,,4.40000000e-009,-4.39843781e-004
,,,4.42500000e-009,-4.00000028e-004
,,,4.45000000e-009,-3.61718776e-004
,,,4.47500000e-009,-3.27343773e-004
,,,4.50000000e-009,-2.96875021e-004
,,,4.52500000e-009,-2.70312519e-004
,,,4.55000000e-009,-2.47656268e-004
,,,4.57500000e-009,-2.28906266e-004
,,,4.60000000e-009,-2.12500015e-004
,,,4.62500000e-009,-2.00000014e-004
,,,4.65000000e-009,-1.90625013e-004
,,,4.67500000e-009,-1.83593763e-004
,,,4.70000000e-009,-1.78125013e-004
,,,4.72500000e-009,-1.75781262e-004
,,,4.75000000e-009,-1.76562512e-004
,,,4.77500000e-009,-1.80468763e-004
,,,4.80000000e-009,-1.88281263e-004
,,,4.82500000e-009,-2.00000014e-004
,,,4.85000000e-009,-2.13281265e-004
,,,4.87500000e-009,-2.26562516e-004
,,,4.90000000e-009,-2.37500017e-004
,,,4.92500000e-009,-2.43750017e-004
,,,4.95000000e-009,-2.44531267e-004
,,,4.97500000e-009,-2.37500017e-004
,,,5.00000000e-009,-2.22656266e-004
,,,5.02500000e-009,-2.00000014e-004
,,,5.05000000e-009,-1.69531262e-004
,,,5.07500000e-009,-1.34375010e-004
,,,5.10000000e-009,-9.76562569e-005
,,,5.12500000e-009,-6.25000044e-005
,,,5.15000000e-009,-3.28125023e-005
,,,5.17500000e-009,-1.09375008e-005
,,,5.20000000e-009,0.00000000e+000
,,,5.22500000e-009,0.00000000e+000
,,,5.25000000e-009,-1.32812509e-005
,,,5.27500000e-009,-3.59375025e-005
,,,5.30000000e-009,-6.64062547e-005
,,,5.32500000e-009,-9.92187570e-005
,,,5.35000000e-009,-1.32812509e-004
,,,5.37500000e-009,-1.63281262e-004
,,,5.40000000e-009,-1.85937513e-004
,,,5.42500000e-009,-2.00000014e-004
,,,5.45000000e-009,-2.00781264e-004
,,,5.47500000e-009,-1.90625013e-004
,,,5.50000000e-009,-1.69531262e-004
,,,5.52500000e-009,-1.39843760e-004
,,,5.55000000e-009,-1.04687507e-004
,,,5.57500000e-009,-6.71875048e-005
,,,5.60000000e-009,-3.12500022e-005
,,,5.62500000e-009,0.00000000e+000
,,,5.65000000e-009,2.42187517e-005
,,,5.67500000e-009,4.06250029e-005
,,,5.70000000e-009,4.84375034e-005
,,,5.72500000e-009,4.84375034e-005
,,,5.75000000e-009,4.14062529e-005
,,,5.77500000e-009,3.04687522e-005
,,,5.80000000e-009,1.56250011e-005
,,,5.82500000e-009,0.00000000e+000
,,,5.85000000e-009,-1.64062512e-005
,,,5.87500000e-009,-2.96875021e-005
