RawData/SinglePhotoelectron/R5_2pt2B_5mV/wave019_Ch2.csv

"Record Length",1000,"Points",-7.72500000e-009,1.19531258e-004
"Sample Interval",2.50000000e-011,s,-7.70000000e-009,8.98437564e-005
"Trigger Point",309,"Samples",-7.67500000e-009,5.93750042e-005
"Trigger Time",3.03639344e-012,s,-7.65000000e-009,2.81250020e-005
"",,,-7.62500000e-009,0.00000000e+000
"Horizontal Offset",-7.72500000e-009,s,-7.60000000e-009,-2.26562516e-005
,,,-7.57500000e-009,-4.06250029e-005
,,,-7.55000000e-009,-5.15625036e-005
,,,-7.52500000e-009,-5.46875039e-005
,,,-7.50000000e-009,-5.15625036e-005
,,,-7.47500000e-009,-4.06250029e-005
,,,-7.45000000e-009,-2.26562516e-005
,,,-7.42500000e-009,0.00000000e+000
,,,-7.40000000e-009,2.81250020e-005
,,,-7.37500000e-009,5.85937541e-005
,,,-7.35000000e-009,8.98437564e-005
,,,-7.32500000e-009,1.20312509e-004
,,,-7.30000000e-009,1.47656260e-004
,,,-7.27500000e-009,1.70312512e-004
,,,-7.25000000e-009,1.87500013e-004
,,,-7.22500000e-009,2.00000014e-004
,,,-7.20000000e-009,2.05468765e-004
,,,-7.17500000e-009,2.07031265e-004
,,,-7.15000000e-009,2.03906264e-004
,,,-7.12500000e-009,2.00000014e-004
,,,-7.10000000e-009,1.95312514e-004
,,,-7.07500000e-009,1.92187514e-004
,,,-7.05000000e-009,1.93750014e-004
,,,-7.02500000e-009,2.00000014e-004
,,,-7.00000000e-009,2.11718765e-004
,,,-6.97500000e-009,2.28906266e-004
,,,-6.95000000e-009,2.51562518e-004
,,,-6.92500000e-009,2.78906270e-004
,,,-6.90000000e-009,3.09375022e-004
,,,-6.87500000e-009,3.40625024e-004
,,,-6.85000000e-009,3.71093776e-004
,,,-6.82500000e-009,4.00000028e-004
,,,-6.80000000e-009,4.21875030e-004
,,,-6.77500000e-009,4.38281281e-004
,,,-6.75000000e-009,4.48437532e-004
,,,-6.72500000e-009,4.51562532e-004
,,,-6.70000000e-009,4.47656282e-004
,,,-6.67500000e-009,4.37500031e-004
,,,-6.65000000e-009,4.21093780e-004
,,,-6.62500000e-009,4.00000028e-004
,,,-6.60000000e-009,3.71093776e-004
,,,-6.57500000e-009,3.40625024e-004
,,,-6.55000000e-009,3.10156272e-004
,,,-6.52500000e-009,2.80468770e-004
,,,-6.50000000e-009,2.53906268e-004
,,,-6.47500000e-009,2.31250016e-004
,,,-6.45000000e-009,2.13281265e-004
,,,-6.42500000e-009,2.00000014e-004
,,,-6.40000000e-009,1.89062513e-004
,,,-6.37500000e-009,1.84375013e-004
,,,-6.35000000e-009,1.82812513e-004
,,,-6.32500000e-009,1.84375013e-004
,,,-6.30000000e-009,1.87500013e-004
,,,-6.27500000e-009,1.92187514e-004
,,,-6.25000000e-009,1.96093764e-004
,,,-6.22500000e-009,2.00000014e-004
,,,-6.20000000e-009,2.00781264e-004
,,,-6.17500000e-009,2.00000014e-004
,,,-6.15000000e-009,1.98437514e-004
,,,-6.12500000e-009,1.96093764e-004
,,,-6.10000000e-009,1.94531264e-004
,,,-6.07500000e-009,1.94531264e-004
,,,-6.05000000e-009,1.96093764e-004
,,,-6.02500000e-009,2.00000014e-004
,,,-6.00000000e-009,2.03906264e-004
,,,-5.97500000e-009,2.09375015e-004
,,,-5.95000000e-009,2.14843765e-004
,,,-5.92500000e-009,2.19531266e-004
,,,-5.90000000e-009,2.21093766e-004
,,,-5.87500000e-009,2.18750015e-004
,,,-5.85000000e-009,2.11718765e-004
,,,-5.82500000e-009,2.00000014e-004
,,,-5.80000000e-009,1.82031263e-004
,,,-5.77500000e-009,1.58593761e-004
,,,-5.75000000e-009,1.32031259e-004
,,,-5.72500000e-009,1.03125007e-004
,,,-5.70000000e-009,7.34375052e-005
,,,-5.67500000e-009,4.53125032e-005
,,,-5.65000000e-009,2.03125014e-005
,,,-5.62500000e-009,0.00000000e+000
,,,-5.60000000e-009,-1.32812509e-005
,,,-5.57500000e-009,-2.10937515e-005
,,,-5.55000000e-009,-2.42187517e-005
,,,-5.52500000e-009,-2.34375017e-005
,,,-5.50000000e-009,-1.95312514e-005
,,,-5.47500000e-009,-1.32812509e-005
,,,-5.45000000e-009,-6.25000044e-006
,,,-5.42500000e-009,0.00000000e+000
,,,-5.40000000e-009,4.68750033e-006
,,,-5.37500000e-009,7.81250055e-006
,,,-5.35000000e-009,9.37500066e-006
,,,-5.32500000e-009,8.59375061e-006
,,,-5.30000000e-009,6.25000044e-006
,,,-5.27500000e-009,3.90625028e-006
,,,-5.25000000e-009,1.56250011e-006
,,,-5.22500000e-009,0.00000000e+000
,,,-5.20000000e-009,0.00000000e+000
,,,-5.17500000e-009,7.81250055e-007
,,,-5.15000000e-009,1.56250011e-006
,,,-5.12500000e-009,3.12500022e-006
,,,-5.10000000e-009,3.90625028e-006
,,,-5.07500000e-009,3.90625028e-006
,,,-5.05000000e-009,2.34375017e-006
,,,-5.02500000e-009,0.00000000e+000
,,,-5.00000000e-009,-2.34375017e-006
,,,-4.97500000e-009,-6.25000044e-006
,,,-4.95000000e-009,-1.01562507e-005
,,,-4.92500000e-009,-1.25000009e-005
,,,-4.90000000e-009,-1.32812509e-005
,,,-4.87500000e-009,-1.17187508e-005
,,,-4.85000000e-009,-7.03125050e-006
,,,-4.82500000e-009,0.00000000e+000
,,,-4.80000000e-009,9.37500066e-006
,,,-4.77500000e-009,2.03125014e-005
,,,-4.75000000e-009,2.96875021e-005
,,,-4.72500000e-009,3.51562525e-005
,,,-4.70000000e-009,3.67187526e-005
,,,-4.67500000e-009,3.20312523e-005
,,,-4.65000000e-009,1.95312514e-005
,,,-4.62500000e-009,0.00000000e+000
,,,-4.60000000e-009,-2.57812518e-005
,,,-4.57500000e-009,-5.70312540e-005
,,,-4.55000000e-009,-9.06250064e-005
,,,-4.52500000e-009,-1.23437509e-004
,,,-4.50000000e-009,-1.53125011e-004
,,,-4.47500000e-009,-1.77343763e-004
,,,-4.45000000e-009,-1.93750014e-004
,,,-4.42500000e-009,-2.00000014e-004
,,,-4.40000000e-009,-1.93750014e-004
,,,-4.37500000e-009,-1.77343763e-004
,,,-4.35000000e-009,-1.53125011e-004
,,,-4.32500000e-009,-1.23437509e-004
,,,-4.30000000e-009,-9.06250064e-005
,,,-4.27500000e-009,-5.70312540e-005
,,,-4.25000000e-009,-2.57812518e-005
,,,-4.22500000e-009,0.00000000e+000
,,,-4.20000000e-009,1.95312514e-005
,,,-4.17500000e-009,3.20312523e-005
,,,-4.15000000e-009,3.67187526e-005
,,,-4.12500000e-009,3.51562525e-005
,,,-4.10000000e-009,2.96875021e-005
,,,-4.07500000e-009,2.03125014e-005
,,,-4.05000000e-009,9.37500066e-006
,,,-4.02500000e-009,0.00000000e+000
,,,-4.00000000e-009,-8.59375061e-006
,,,-3.97500000e-009,-1.56250011e-005
,,,-3.95000000e-009,-1.87500013e-005
,,,-3.92500000e-009,-1.95312514e-005
,,,-3.90000000e-009,-1.71875012e-005
,,,-3.87500000e-009,-1.25000009e-005
,,,-3.85000000e-009,-6.25000044e-006
,,,-3.82500000e-009,0.00000000e+000
,,,-3.80000000e-009,4.68750033e-006
,,,-3.77500000e-009,8.59375061e-006
,,,-3.75000000e-009,1.09375008e-005
,,,-3.72500000e-009,1.17187508e-005
,,,-3.70000000e-009,1.01562507e-005
,,,-3.67500000e-009,7.81250055e-006
,,,-3.65000000e-009,3.90625028e-006
,,,-3.62500000e-009,0.00000000e+000
,,,-3.60000000e-009,-5.46875039e-006
,,,-3.57500000e-009,-1.17187508e-005
,,,-3.55000000e-009,-1.64062512e-005
,,,-3.52500000e-009,-1.87500013e-005
,,,-3.50000000e-009,-1.79687513e-005
,,,-3.47500000e-009,-1.48437511e-005
,,,-3.45000000e-009,-8.59375061e-006
,,,-3.42500000e-009,0.00000000e+000
,,,-3.40000000e-009,8.59375061e-006
,,,-3.37500000e-009,1.79687513e-005
,,,-3.35000000e-009,2.57812518e-005
,,,-3.32500000e-009,3.12500022e-005
,,,-3.30000000e-009,3.20312523e-005
,,,-3.27500000e-009,2.81250020e-005
,,,-3.25000000e-009,1.71875012e-005
,,,-3.22500000e-009,0.00000000e+000
,,,-3.20000000e-009,-2.34375017e-005
,,,-3.17500000e-009,-5.07812536e-005
,,,-3.15000000e-009,-8.12500058e-005
,,,-3.12500000e-009,-1.12500008e-004
,,,-3.10000000e-009,-1.41406260e-004
,,,-3.07500000e-009,-1.67187512e-004
,,,-3.05000000e-009,-1.86718763e-004
,,,-3.02500000e-009,-2.00000014e-004
,,,-3.00000000e-009,-2.03906264e-004
,,,-2.97500000e-009,-2.03125014e-004
,,,-2.95000000e-009,-1.98437514e-004
,,,-2.92500000e-009,-1.92187514e-004
,,,-2.90000000e-009,-1.86718763e-004
,,,-2.87500000e-009,-1.84375013e-004
,,,-2.85000000e-009,-1.88281263e-004
,,,-2.82500000e-009,-2.00000014e-004
,,,-2.80000000e-009,-2.16406265e-004
,,,-2.77500000e-009,-2.39843767e-004
,,,-2.75000000e-009,-2.67968769e-004
,,,-2.72500000e-009,-2.99218771e-004
,,,-2.70000000e-009,-3.31250023e-004
,,,-2.67500000e-009,-3.60156275e-004
,,,-2.65000000e-009,-3.83593777e-004
,,,-2.62500000e-009,-4.00000028e-004
,,,-2.60000000e-009,-4.00000028e-004
,,,-2.57500000e-009,-3.90625028e-004
,,,-2.55000000e-009,-3.71875026e-004
,,,-2.52500000e-009,-3.44531274e-004
,,,-2.50000000e-009,-3.11718772e-004
,,,-2.47500000e-009,-2.75000019e-004
,,,-2.45000000e-009,-2.37500017e-004
,,,-2.42500000e-009,-2.00000014e-004
,,,-2.40000000e-009,-1.60156261e-004
,,,-2.37500000e-009,-1.24218759e-004
,,,-2.35000000e-009,-9.21875065e-005
,,,-2.32500000e-009,-6.56250046e-005
,,,-2.30000000e-009,-4.29687530e-005
,,,-2.27500000e-009,-2.50000018e-005
,,,-2.25000000e-009,-1.09375008e-005
,,,-2.22500000e-009,0.00000000e+000
,,,-2.20000000e-009,8.59375061e-006
,,,-2.17500000e-009,1.48437511e-005
,,,-2.15000000e-009,1.87500013e-005
,,,-2.12500000e-009,2.03125014e-005
,,,-2.10000000e-009,1.87500013e-005
,,,-2.07500000e-009,1.48437511e-005
,,,-2.05000000e-009,7.81250055e-006
,,,-2.02500000e-009,0.00000000e+000
,,,-2.00000000e-009,-1.01562507e-005
,,,-1.97500000e-009,-2.03125014e-005
,,,-1.95000000e-009,-2.89062520e-005
,,,-1.92500000e-009,-3.43750024e-005
,,,-1.90000000e-009,-3.59375025e-005
,,,-1.87500000e-009,-3.12500022e-005
,,,-1.85000000e-009,-1.95312514e-005
,,,-1.82500000e-009,0.00000000e+000
,,,-1.80000000e-009,2.57812518e-005
,,,-1.77500000e-009,6.09375043e-005
,,,-1.75000000e-009,1.03125007e-004
,,,-1.72500000e-009,1.53125011e-004
,,,-1.70000000e-009,2.10156265e-004
,,,-1.67500000e-009,2.71093769e-004
,,,-1.65000000e-009,3.35156274e-004
,,,-1.62500000e-009,4.00000028e-004
,,,-1.60000000e-009,4.53906282e-004
,,,-1.57500000e-009,5.02343786e-004
,,,-1.55000000e-009,5.43750038e-004
,,,-1.52500000e-009,5.77343791e-004
,,,-1.50000000e-009,6.00000042e-004
,,,-1.47500000e-009,6.11718793e-004
,,,-1.45000000e-009,6.11718793e-004
,,,-1.42500000e-009,6.00000042e-004
,,,-1.40000000e-009,5.63281290e-004
,,,-1.37500000e-009,5.17187537e-004
,,,-1.35000000e-009,4.63281283e-004
,,,-1.32500000e-009,4.06250029e-004
,,,-1.30000000e-009,3.48437525e-004
,,,-1.27500000e-009,2.92968771e-004
,,,-1.25000000e-009,2.42968767e-004
,,,-1.22500000e-009,2.00000014e-004
,,,-1.20000000e-009,1.49218761e-004
,,,-1.17500000e-009,1.05468757e-004
,,,-1.15000000e-009,6.95312549e-005
,,,-1.12500000e-009,4.14062529e-005
,,,-1.10000000e-009,2.10937515e-005
,,,-1.07500000e-009,8.59375061e-006
,,,-1.05000000e-009,2.34375017e-006
,,,-1.02500000e-009,0.00000000e+000
,,,-1.00000000e-009,-2.34375017e-005
,,,-9.75000000e-010,-5.00000035e-005
,,,-9.50000000e-010,-7.81250055e-005
,,,-9.25000000e-010,-1.06250008e-004
,,,-9.00000000e-010,-1.34375010e-004
,,,-8.75000000e-010,-1.59375011e-004
,,,-8.50000000e-010,-1.81250013e-004
,,,-8.25000000e-010,-2.00000014e-004
,,,-8.00000000e-010,-2.45312517e-004
,,,-7.75000000e-010,-2.94531271e-004
,,,-7.50000000e-010,-3.45312524e-004
,,,-7.25000000e-010,-3.96875028e-004
,,,-7.00000000e-010,-4.48437532e-004
,,,-6.75000000e-010,-4.99218785e-004
,,,-6.50000000e-010,-5.49218789e-004
,,,-6.25000000e-010,-6.00000042e-004
,,,-6.00000000e-010,-6.79687548e-004
,,,-5.75000000e-010,-7.68750054e-004
,,,-5.50000000e-010,-8.64062561e-004
,,,-5.25000000e-010,-9.65625068e-004
,,,-5.00000000e-010,-1.07031258e-003
,,,-4.75000000e-010,-1.17812508e-003
,,,-4.50000000e-010,-1.28750009e-003
,,,-4.25000000e-010,-1.40000010e-003
,,,-4.00000000e-010,-1.53906261e-003
,,,-3.75000000e-010,-1.68906262e-003
,,,-3.50000000e-010,-1.85078138e-003
,,,-3.25000000e-010,-2.02265639e-003
,,,-3.00000000e-010,-2.20390641e-003
,,,-2.75000000e-010,-2.39453142e-003
,,,-2.50000000e-010,-2.59296893e-003
,,,-2.25000000e-010,-2.80000020e-003
,,,-2.00000000e-010,-3.02500021e-003
,,,-1.75000000e-010,-3.26171898e-003
,,,-1.50000000e-010,-3.50937525e-003
,,,-1.25000000e-010,-3.76484402e-003
,,,-1.00000000e-010,-4.02500028e-003
,,,-7.50000000e-011,-4.28593780e-003
,,,-5.00000000e-011,-4.54531282e-003
,,,-2.50000000e-011,-4.80000034e-003
,,,0.00000000e+000,-5.03828161e-003
,,,2.50000000e-011,-5.27031287e-003
,,,5.00000000e-011,-5.49375039e-003
,,,7.50000000e-011,-5.70546915e-003
,,,1.00000000e-010,-5.90390667e-003
,,,1.25000000e-010,-6.08671918e-003
,,,1.50000000e-010,-6.25234419e-003
,,,1.75000000e-010,-6.40000045e-003
,,,2.00000000e-010,-6.50781296e-003
,,,2.25000000e-010,-6.60703172e-003
,,,2.50000000e-010,-6.70234422e-003
,,,2.75000000e-010,-6.79687548e-003
,,,3.00000000e-010,-6.89296924e-003
,,,3.25000000e-010,-6.99140674e-003
,,,3.50000000e-010,-7.09375050e-003
,,,3.75000000e-010,-7.20000051e-003
,,,4.00000000e-010,-7.27421926e-003
,,,4.25000000e-010,-7.35468802e-003
,,,4.50000000e-010,-7.43906303e-003
,,,4.75000000e-010,-7.52500053e-003
,,,5.00000000e-010,-7.60859429e-003
,,,5.25000000e-010,-7.68515679e-003
,,,5.50000000e-010,-7.75000055e-003
,,,5.75000000e-010,-7.80000055e-003
,,,6.00000000e-010,-7.79375055e-003
,,,6.25000000e-010,-7.77578180e-003
,,,6.50000000e-010,-7.75000055e-003
,,,6.75000000e-010,-7.71875055e-003
,,,7.00000000e-010,-7.68515679e-003
,,,7.25000000e-010,-7.65312554e-003
,,,7.50000000e-010,-7.62421929e-003
,,,7.75000000e-010,-7.60000054e-003
,,,8.00000000e-010,-7.54375053e-003
,,,8.25000000e-010,-7.49765678e-003
,,,8.50000000e-010,-7.46250053e-003
,,,8.75000000e-010,-7.43750053e-003
,,,9.00000000e-010,-7.42187553e-003
,,,9.25000000e-010,-7.41328177e-003
,,,9.50000000e-010,-7.40703177e-003
,,,9.75000000e-010,-7.40000052e-003
,,,1.00000000e-009,-7.35468802e-003
,,,1.02500000e-009,-7.30078177e-003
,,,1.05000000e-009,-7.23828176e-003
,,,1.07500000e-009,-7.16640676e-003
,,,1.10000000e-009,-7.08671925e-003
,,,1.12500000e-009,-6.99765675e-003
,,,1.15000000e-009,-6.90234424e-003
,,,1.17500000e-009,-6.80000048e-003
,,,1.20000000e-009,-6.66718797e-003
,,,1.22500000e-009,-6.53046921e-003
,,,1.25000000e-009,-6.39218795e-003
,,,1.27500000e-009,-6.25625044e-003
,,,1.30000000e-009,-6.12734418e-003
,,,1.32500000e-009,-6.00703168e-003
,,,1.35000000e-009,-5.89765667e-003
,,,1.37500000e-009,-5.80000041e-003
,,,1.40000000e-009,-5.69531290e-003
,,,1.42500000e-009,-5.59453165e-003
,,,1.45000000e-009,-5.49765664e-003
,,,1.47500000e-009,-5.40234413e-003
,,,1.50000000e-009,-5.30625038e-003
,,,1.52500000e-009,-5.20859412e-003
,,,1.55000000e-009,-5.10703161e-003
,,,1.57500000e-009,-5.00000035e-003
,,,1.60000000e-009,-4.87656285e-003
,,,1.62500000e-009,-4.73984409e-003
,,,1.65000000e-009,-4.59218783e-003
,,,1.67500000e-009,-4.43671906e-003
,,,1.70000000e-009,-4.27500030e-003
,,,1.72500000e-009,-4.11328154e-003
,,,1.75000000e-009,-3.95390653e-003
,,,1.77500000e-009,-3.80000027e-003
,,,1.80000000e-009,-3.65234401e-003
,,,1.82500000e-009,-3.51015650e-003
,,,1.85000000e-009,-3.37265649e-003
,,,1.87500000e-009,-3.24218773e-003
,,,1.90000000e-009,-3.11953147e-003
,,,1.92500000e-009,-3.00546896e-003
,,,1.95000000e-009,-2.89843771e-003
,,,1.97500000e-009,-2.80000020e-003
,,,2.00000000e-009,-2.71171894e-003
,,,2.02500000e-009,-2.62187519e-003
,,,2.05000000e-009,-2.52734393e-003
,,,2.07500000e-009,-2.42890642e-003
,,,2.10000000e-009,-2.32578141e-003
,,,2.12500000e-009,-2.21875016e-003
,,,2.15000000e-009,-2.11015640e-003
,,,2.17500000e-009,-2.00000014e-003
,,,2.20000000e-009,-1.90000013e-003
,,,2.22500000e-009,-1.79531263e-003
,,,2.25000000e-009,-1.68828137e-003
,,,2.27500000e-009,-1.58046886e-003
,,,2.30000000e-009,-1.47500010e-003
,,,2.32500000e-009,-1.37500010e-003
,,,2.35000000e-009,-1.28203134e-003
,,,2.37500000e-009,-1.20000008e-003
,,,2.40000000e-009,-1.14062508e-003
,,,2.42500000e-009,-1.08671883e-003
,,,2.45000000e-009,-1.03593757e-003
,,,2.47500000e-009,-9.87500070e-004
,,,2.50000000e-009,-9.39843817e-004
,,,2.52500000e-009,-8.92968813e-004
,,,2.55000000e-009,-8.46875060e-004
,,,2.57500000e-009,-8.00000057e-004
,,,2.60000000e-009,-7.64843804e-004
,,,2.62500000e-009,-7.24218801e-004
,,,2.65000000e-009,-6.76562548e-004
,,,2.67500000e-009,-6.24218794e-004
,,,2.70000000e-009,-5.67187540e-004
,,,2.72500000e-009,-5.09375036e-004
,,,2.75000000e-009,-4.53125032e-004
,,,2.77500000e-009,-4.00000028e-004
,,,2.80000000e-009,-3.64062526e-004
,,,2.82500000e-009,-3.30468773e-004
,,,2.85000000e-009,-3.00000021e-004
,,,2.87500000e-009,-2.72656269e-004
,,,2.90000000e-009,-2.48437518e-004
,,,2.92500000e-009,-2.28125016e-004
,,,2.95000000e-009,-2.11718765e-004
,,,2.97500000e-009,-2.00000014e-004
,,,3.00000000e-009,-2.01562514e-004
,,,3.02500000e-009,-2.03125014e-004
,,,3.05000000e-009,-2.04687514e-004
,,,3.07500000e-009,-2.04687514e-004
,,,3.10000000e-009,-2.03906264e-004
,,,3.12500000e-009,-2.03125014e-004
,,,3.15000000e-009,-2.01562514e-004
,,,3.17500000e-009,-2.00000014e-004
,,,3.20000000e-009,-2.05468765e-004
,,,3.22500000e-009,-2.08593765e-004
,,,3.25000000e-009,-2.10156265e-004
,,,3.27500000e-009,-2.10156265e-004
,,,3.30000000e-009,-2.07812515e-004
,,,3.32500000e-009,-2.05468765e-004
,,,3.35000000e-009,-2.02343764e-004
,,,3.37500000e-009,-2.00000014e-004
,,,3.40000000e-009,-2.00781264e-004
,,,3.42500000e-009,-2.02343764e-004
,,,3.45000000e-009,-2.02343764e-004
,,,3.47500000e-009,-2.02343764e-004
,,,3.50000000e-009,-2.01562514e-004
,,,3.52500000e-009,-2.00781264e-004
,,,3.55000000e-009,-2.00000014e-004
,,,3.57500000e-009,-2.00000014e-004
,,,3.60000000e-009,-2.01562514e-004
,,,3.62500000e-009,-2.02343764e-004
,,,3.65000000e-009,-2.03125014e-004
,,,3.67500000e-009,-2.03125014e-004
,,,3.70000000e-009,-2.02343764e-004
,,,3.72500000e-009,-2.01562514e-004
,,,3.75000000e-009,-2.00781264e-004
,,,3.77500000e-009,-2.00000014e-004
,,,3.80000000e-009,-1.98437514e-004
,,,3.82500000e-009,-1.97656264e-004
,,,3.85000000e-009,-1.96875014e-004
,,,3.87500000e-009,-1.96093764e-004
,,,3.90000000e-009,-1.96093764e-004
,,,3.92500000e-009,-1.96875014e-004
,,,3.95000000e-009,-1.97656264e-004
,,,3.97500000e-009,-2.00000014e-004
,,,4.00000000e-009,-2.00781264e-004
,,,4.02500000e-009,-2.02343764e-004
,,,4.05000000e-009,-2.03125014e-004
,,,4.07500000e-009,-2.03906264e-004
,,,4.10000000e-009,-2.03906264e-004
,,,4.12500000e-009,-2.03125014e-004
,,,4.15000000e-009,-2.01562514e-004
,,,4.17500000e-009,-2.00000014e-004
,,,4.20000000e-009,-1.96093764e-004
,,,4.22500000e-009,-1.92187514e-004
,,,4.25000000e-009,-1.89843763e-004
,,,4.27500000e-009,-1.87500013e-004
,,,4.30000000e-009,-1.87500013e-004
,,,4.32500000e-009,-1.89062513e-004
,,,4.35000000e-009,-1.93750014e-004
,,,4.37500000e-009,-2.00000014e-004
,,,4.40000000e-009,-2.05468765e-004
,,,4.42500000e-009,-2.10937515e-004
,,,4.45000000e-009,-2.16406265e-004
,,,4.47500000e-009,-2.20312516e-004
,,,4.50000000e-009,-2.21093766e-004
,,,4.52500000e-009,-2.17968765e-004
,,,4.55000000e-009,-2.11718765e-004
,,,4.57500000e-009,-2.00000014e-004
,,,4.60000000e-009,-1.81250013e-004
,,,4.62500000e-009,-1.58593761e-004
,,,4.65000000e-009,-1.32031259e-004
,,,4.67500000e-009,-1.03906257e-004
,,,4.70000000e-009,-7.50000053e-005
,,,4.72500000e-009,-4.68750033e-005
,,,4.75000000e-009,-2.10937515e-005
,,,4.77500000e-009,0.00000000e+000
,,,4.80000000e-009,1.56250011e-005
,,,4.82500000e-009,2.65625019e-005
,,,4.85000000e-009,3.20312523e-005
,,,4.87500000e-009,3.20312523e-005
,,,4.90000000e-009,2.81250020e-005
,,,4.92500000e-009,2.03125014e-005
,,,4.95000000e-009,1.09375008e-005
,,,4.97500000e-009,0.00000000e+000
,,,5.00000000e-009,-9.37500066e-006
,,,5.02500000e-009,-1.71875012e-005
,,,5.05000000e-009,-2.26562516e-005
,,,5.07500000e-009,-2.42187517e-005
,,,5.10000000e-009,-2.34375017e-005
,,,5.12500000e-009,-1.87500013e-005
,,,5.15000000e-009,-1.09375008e-005
,,,5.17500000e-009,0.00000000e+000
,,,5.20000000e-009,1.48437511e-005
,,,5.22500000e-009,3.28125023e-005
,,,5.25000000e-009,5.46875039e-005
,,,5.27500000e-009,7.96875056e-005
,,,5.30000000e-009,1.07812508e-004
,,,5.32500000e-009,1.38281260e-004
,,,5.35000000e-009,1.68750012e-004
,,,5.37500000e-009,2.00000014e-004
,,,5.40000000e-009,2.25000016e-004
,,,5.42500000e-009,2.46875017e-004
,,,5.45000000e-009,2.61718769e-004
,,,5.47500000e-009,2.68750019e-004
,,,5.50000000e-009,2.66406269e-004
,,,5.52500000e-009,2.53906268e-004
,,,5.55000000e-009,2.31250016e-004
,,,5.57500000e-009,2.00000014e-004
,,,5.60000000e-009,1.59375011e-004
,,,5.62500000e-009,1.15625008e-004
,,,5.65000000e-009,7.34375052e-005
,,,5.67500000e-009,3.51562525e-005
,,,5.70000000e-009,6.25000044e-006
,,,5.72500000e-009,-1.01562507e-005
,,,5.75000000e-009,-1.25000009e-005
,,,5.77500000e-009,0.00000000e+000
,,,5.80000000e-009,2.81250020e-005
,,,5.82500000e-009,7.10937550e-005
,,,5.85000000e-009,1.24218759e-004
,,,5.87500000e-009,1.84375013e-004
,,,5.90000000e-009,2.46093767e-004
,,,5.92500000e-009,3.06250022e-004
,,,5.95000000e-009,3.58593775e-004
