RawData/SinglePhotoelectron/R5_2pt2B_5mV/wave017_Ch2.csv

"Record Length",1000,"Points",-7.72500000e-009,-4.27343780e-004
"Sample Interval",2.50000000e-011,s,-7.70000000e-009,-4.17968780e-004
"Trigger Point",309,"Samples",-7.67500000e-009,-3.94531278e-004
"Trigger Time",9.38269430e-012,s,-7.65000000e-009,-3.57812525e-004
"",,,-7.62500000e-009,-3.10937522e-004
"Horizontal Offset",-7.72500000e-009,s,-7.60000000e-009,-2.57031268e-004
,,,-7.57500000e-009,-2.00000014e-004
,,,-7.55000000e-009,-1.42968760e-004
,,,-7.52500000e-009,-9.06250064e-005
,,,-7.50000000e-009,-4.60937533e-005
,,,-7.47500000e-009,-1.17187508e-005
,,,-7.45000000e-009,1.01562507e-005
,,,-7.42500000e-009,1.95312514e-005
,,,-7.40000000e-009,1.56250011e-005
,,,-7.37500000e-009,0.00000000e+000
,,,-7.35000000e-009,-2.65625019e-005
,,,-7.32500000e-009,-6.01562543e-005
,,,-7.30000000e-009,-9.60937568e-005
,,,-7.27500000e-009,-1.32031259e-004
,,,-7.25000000e-009,-1.63281262e-004
,,,-7.22500000e-009,-1.86718763e-004
,,,-7.20000000e-009,-1.99218764e-004
,,,-7.17500000e-009,-2.00000014e-004
,,,-7.15000000e-009,-1.87500013e-004
,,,-7.12500000e-009,-1.64843762e-004
,,,-7.10000000e-009,-1.34375010e-004
,,,-7.07500000e-009,-1.00781257e-004
,,,-7.05000000e-009,-6.64062547e-005
,,,-7.02500000e-009,-3.59375025e-005
,,,-7.00000000e-009,-1.25000009e-005
,,,-6.97500000e-009,0.00000000e+000
,,,-6.95000000e-009,0.00000000e+000
,,,-6.92500000e-009,-1.25000009e-005
,,,-6.90000000e-009,-3.51562525e-005
,,,-6.87500000e-009,-6.64062547e-005
,,,-6.85000000e-009,-1.01562507e-004
,,,-6.82500000e-009,-1.37500010e-004
,,,-6.80000000e-009,-1.71093762e-004
,,,-6.77500000e-009,-2.00000014e-004
,,,-6.75000000e-009,-2.21875016e-004
,,,-6.72500000e-009,-2.35937517e-004
,,,-6.70000000e-009,-2.40625017e-004
,,,-6.67500000e-009,-2.39062517e-004
,,,-6.65000000e-009,-2.31250016e-004
,,,-6.62500000e-009,-2.21093766e-004
,,,-6.60000000e-009,-2.10156265e-004
,,,-6.57500000e-009,-2.00000014e-004
,,,-6.55000000e-009,-1.92968764e-004
,,,-6.52500000e-009,-1.89843763e-004
,,,-6.50000000e-009,-1.89843763e-004
,,,-6.47500000e-009,-1.92187514e-004
,,,-6.45000000e-009,-1.95312514e-004
,,,-6.42500000e-009,-1.98437514e-004
,,,-6.40000000e-009,-2.00000014e-004
,,,-6.37500000e-009,-2.00000014e-004
,,,-6.35000000e-009,-1.96093764e-004
,,,-6.32500000e-009,-1.90625013e-004
,,,-6.30000000e-009,-1.85156263e-004
,,,-6.27500000e-009,-1.79687513e-004
,,,-6.25000000e-009,-1.77343763e-004
,,,-6.22500000e-009,-1.79687513e-004
,,,-6.20000000e-009,-1.86718763e-004
,,,-6.17500000e-009,-2.00000014e-004
,,,-6.15000000e-009,-2.18750015e-004
,,,-6.12500000e-009,-2.42968767e-004
,,,-6.10000000e-009,-2.71093769e-004
,,,-6.07500000e-009,-3.00781271e-004
,,,-6.05000000e-009,-3.29687523e-004
,,,-6.02500000e-009,-3.57812525e-004
,,,-6.00000000e-009,-3.81250027e-004
,,,-5.97500000e-009,-4.00000028e-004
,,,-5.95000000e-009,-4.09375029e-004
,,,-5.92500000e-009,-4.14062529e-004
,,,-5.90000000e-009,-4.14062529e-004
,,,-5.87500000e-009,-4.11718779e-004
,,,-5.85000000e-009,-4.07031279e-004
,,,-5.82500000e-009,-4.03125029e-004
,,,-5.80000000e-009,-4.00000028e-004
,,,-5.77500000e-009,-4.00000028e-004
,,,-5.75000000e-009,-3.99218778e-004
,,,-5.72500000e-009,-4.00781278e-004
,,,-5.70000000e-009,-4.03906279e-004
,,,-5.67500000e-009,-4.07812529e-004
,,,-5.65000000e-009,-4.10937529e-004
,,,-5.62500000e-009,-4.10937529e-004
,,,-5.60000000e-009,-4.07812529e-004
,,,-5.57500000e-009,-4.00000028e-004
,,,-5.55000000e-009,-3.84375027e-004
,,,-5.52500000e-009,-3.64062526e-004
,,,-5.50000000e-009,-3.39062524e-004
,,,-5.47500000e-009,-3.11718772e-004
,,,-5.45000000e-009,-2.82031270e-004
,,,-5.42500000e-009,-2.52343768e-004
,,,-5.40000000e-009,-2.24218766e-004
,,,-5.37500000e-009,-2.00000014e-004
,,,-5.35000000e-009,-1.79687513e-004
,,,-5.32500000e-009,-1.65625012e-004
,,,-5.30000000e-009,-1.57812511e-004
,,,-5.27500000e-009,-1.56250011e-004
,,,-5.25000000e-009,-1.60937511e-004
,,,-5.22500000e-009,-1.70312512e-004
,,,-5.20000000e-009,-1.83593763e-004
,,,-5.17500000e-009,-2.00000014e-004
,,,-5.15000000e-009,-2.15625015e-004
,,,-5.12500000e-009,-2.30468766e-004
,,,-5.10000000e-009,-2.41406267e-004
,,,-5.07500000e-009,-2.47656268e-004
,,,-5.05000000e-009,-2.46875017e-004
,,,-5.02500000e-009,-2.39062517e-004
,,,-5.00000000e-009,-2.22656266e-004
,,,-4.97500000e-009,-2.00000014e-004
,,,-4.95000000e-009,-1.71093762e-004
,,,-4.92500000e-009,-1.39062510e-004
,,,-4.90000000e-009,-1.04687507e-004
,,,-4.87500000e-009,-7.18750051e-005
,,,-4.85000000e-009,-4.21875030e-005
,,,-4.82500000e-009,-1.87500013e-005
,,,-4.80000000e-009,-4.68750033e-006
,,,-4.77500000e-009,0.00000000e+000
,,,-4.75000000e-009,-6.25000044e-006
,,,-4.72500000e-009,-2.26562516e-005
,,,-4.70000000e-009,-4.60937533e-005
,,,-4.67500000e-009,-7.57812554e-005
,,,-4.65000000e-009,-1.08593758e-004
,,,-4.62500000e-009,-1.41406260e-004
,,,-4.60000000e-009,-1.72656262e-004
,,,-4.57500000e-009,-2.00000014e-004
,,,-4.55000000e-009,-2.21875016e-004
,,,-4.52500000e-009,-2.35937517e-004
,,,-4.50000000e-009,-2.42968767e-004
,,,-4.47500000e-009,-2.42968767e-004
,,,-4.45000000e-009,-2.37500017e-004
,,,-4.42500000e-009,-2.26562516e-004
,,,-4.40000000e-009,-2.13281265e-004
,,,-4.37500000e-009,-2.00000014e-004
,,,-4.35000000e-009,-1.85937513e-004
,,,-4.32500000e-009,-1.74218762e-004
,,,-4.30000000e-009,-1.66406262e-004
,,,-4.27500000e-009,-1.63281262e-004
,,,-4.25000000e-009,-1.65625012e-004
,,,-4.22500000e-009,-1.73437512e-004
,,,-4.20000000e-009,-1.85156263e-004
,,,-4.17500000e-009,-2.00000014e-004
,,,-4.15000000e-009,-2.14062515e-004
,,,-4.12500000e-009,-2.27343766e-004
,,,-4.10000000e-009,-2.38281267e-004
,,,-4.07500000e-009,-2.43750017e-004
,,,-4.05000000e-009,-2.43750017e-004
,,,-4.02500000e-009,-2.36718767e-004
,,,-4.00000000e-009,-2.21875016e-004
,,,-3.97500000e-009,-2.00000014e-004
,,,-3.95000000e-009,-1.70312512e-004
,,,-3.92500000e-009,-1.36718760e-004
,,,-3.90000000e-009,-1.01562507e-004
,,,-3.87500000e-009,-6.79687548e-005
,,,-3.85000000e-009,-3.82812527e-005
,,,-3.82500000e-009,-1.56250011e-005
,,,-3.80000000e-009,-2.34375017e-006
,,,-3.77500000e-009,0.00000000e+000
,,,-3.75000000e-009,-7.81250055e-006
,,,-3.72500000e-009,-2.57812518e-005
,,,-3.70000000e-009,-5.15625036e-005
,,,-3.67500000e-009,-8.35937559e-005
,,,-3.65000000e-009,-1.17187508e-004
,,,-3.62500000e-009,-1.50000011e-004
,,,-3.60000000e-009,-1.78906263e-004
,,,-3.57500000e-009,-2.00000014e-004
,,,-3.55000000e-009,-2.07031265e-004
,,,-3.52500000e-009,-2.02343764e-004
,,,-3.50000000e-009,-1.86718763e-004
,,,-3.47500000e-009,-1.60937511e-004
,,,-3.45000000e-009,-1.27343759e-004
,,,-3.42500000e-009,-8.67187561e-005
,,,-3.40000000e-009,-4.37500031e-005
,,,-3.37500000e-009,0.00000000e+000
,,,-3.35000000e-009,4.29687530e-005
,,,-3.32500000e-009,8.28125059e-005
,,,-3.30000000e-009,1.17968758e-004
,,,-3.27500000e-009,1.47656260e-004
,,,-3.25000000e-009,1.70312512e-004
,,,-3.22500000e-009,1.86718763e-004
,,,-3.20000000e-009,1.96875014e-004
,,,-3.17500000e-009,2.00000014e-004
,,,-3.15000000e-009,1.95312514e-004
,,,-3.12500000e-009,1.84375013e-004
,,,-3.10000000e-009,1.67187512e-004
,,,-3.07500000e-009,1.43750010e-004
,,,-3.05000000e-009,1.14843758e-004
,,,-3.02500000e-009,7.96875056e-005
,,,-3.00000000e-009,4.06250029e-005
,,,-2.97500000e-009,0.00000000e+000
,,,-2.95000000e-009,-3.98437528e-005
,,,-2.92500000e-009,-7.50000053e-005
,,,-2.90000000e-009,-1.00781257e-004
,,,-2.87500000e-009,-1.14843758e-004
,,,-2.85000000e-009,-1.13281258e-004
,,,-2.82500000e-009,-9.45312567e-005
,,,-2.80000000e-009,-5.62500040e-005
,,,-2.77500000e-009,0.00000000e+000
,,,-2.75000000e-009,7.26562551e-005
,,,-2.72500000e-009,1.57812511e-004
,,,-2.70000000e-009,2.49218768e-004
,,,-2.67500000e-009,3.40625024e-004
,,,-2.65000000e-009,4.26562530e-004
,,,-2.62500000e-009,5.01562536e-004
,,,-2.60000000e-009,5.60156290e-004
,,,-2.57500000e-009,6.00000042e-004
,,,-2.55000000e-009,6.12500043e-004
,,,-2.52500000e-009,6.05468793e-004
,,,-2.50000000e-009,5.82812541e-004
,,,-2.47500000e-009,5.48437539e-004
,,,-2.45000000e-009,5.07812536e-004
,,,-2.42500000e-009,4.66406283e-004
,,,-2.40000000e-009,4.28906280e-004
,,,-2.37500000e-009,4.00000028e-004
,,,-2.35000000e-009,3.77343777e-004
,,,-2.32500000e-009,3.65625026e-004
,,,-2.30000000e-009,3.64843776e-004
,,,-2.27500000e-009,3.71093776e-004
,,,-2.25000000e-009,3.81250027e-004
,,,-2.22500000e-009,3.92187528e-004
,,,-2.20000000e-009,3.99218778e-004
,,,-2.17500000e-009,4.00000028e-004
,,,-2.15000000e-009,3.89062528e-004
,,,-2.12500000e-009,3.70312526e-004
,,,-2.10000000e-009,3.43750024e-004
,,,-2.07500000e-009,3.12500022e-004
,,,-2.05000000e-009,2.78906270e-004
,,,-2.02500000e-009,2.47656268e-004
,,,-2.00000000e-009,2.20312516e-004
,,,-1.97500000e-009,2.00000014e-004
,,,-1.95000000e-009,1.84375013e-004
,,,-1.92500000e-009,1.77343763e-004
,,,-1.90000000e-009,1.76562512e-004
,,,-1.87500000e-009,1.82031263e-004
,,,-1.85000000e-009,1.89062513e-004
,,,-1.82500000e-009,1.96093764e-004
,,,-1.80000000e-009,2.00781264e-004
,,,-1.77500000e-009,2.00000014e-004
,,,-1.75000000e-009,1.89062513e-004
,,,-1.72500000e-009,1.71875012e-004
,,,-1.70000000e-009,1.47656260e-004
,,,-1.67500000e-009,1.19531258e-004
,,,-1.65000000e-009,8.75000062e-005
,,,-1.62500000e-009,5.62500040e-005
,,,-1.60000000e-009,2.57812518e-005
,,,-1.57500000e-009,0.00000000e+000
,,,-1.55000000e-009,-2.26562516e-005
,,,-1.52500000e-009,-3.98437528e-005
,,,-1.50000000e-009,-5.00000035e-005
,,,-1.47500000e-009,-5.31250038e-005
,,,-1.45000000e-009,-4.92187535e-005
,,,-1.42500000e-009,-3.82812527e-005
,,,-1.40000000e-009,-2.10937515e-005
,,,-1.37500000e-009,0.00000000e+000
,,,-1.35000000e-009,1.32812509e-005
,,,-1.32500000e-009,2.50000018e-005
,,,-1.30000000e-009,3.28125023e-005
,,,-1.27500000e-009,3.51562525e-005
,,,-1.25000000e-009,3.35937524e-005
,,,-1.22500000e-009,2.65625019e-005
,,,-1.20000000e-009,1.56250011e-005
,,,-1.17500000e-009,0.00000000e+000
,,,-1.15000000e-009,-3.51562525e-005
,,,-1.12500000e-009,-7.57812554e-005
,,,-1.10000000e-009,-1.16406258e-004
,,,-1.07500000e-009,-1.53906261e-004
,,,-1.05000000e-009,-1.83593763e-004
,,,-1.02500000e-009,-2.01562514e-004
,,,-1.00000000e-009,-2.07812515e-004
,,,-9.75000000e-010,-2.00000014e-004
,,,-9.50000000e-010,-2.02343764e-004
,,,-9.25000000e-010,-2.00000014e-004
,,,-9.00000000e-010,-1.93750014e-004
,,,-8.75000000e-010,-1.86718763e-004
,,,-8.50000000e-010,-1.80468763e-004
,,,-8.25000000e-010,-1.78125013e-004
,,,-8.00000000e-010,-1.83593763e-004
,,,-7.75000000e-010,-2.00000014e-004
,,,-7.50000000e-010,-2.55468768e-004
,,,-7.25000000e-010,-3.29687523e-004
,,,-7.00000000e-010,-4.20312530e-004
,,,-6.75000000e-010,-5.24218787e-004
,,,-6.50000000e-010,-6.38281295e-004
,,,-6.25000000e-010,-7.57031304e-004
,,,-6.00000000e-010,-8.78125062e-004
,,,-5.75000000e-010,-1.00000007e-003
,,,-5.50000000e-010,-1.14296883e-003
,,,-5.25000000e-010,-1.28906259e-003
,,,-5.00000000e-010,-1.43671885e-003
,,,-4.75000000e-010,-1.58593761e-003
,,,-4.50000000e-010,-1.73593762e-003
,,,-4.25000000e-010,-1.88750013e-003
,,,-4.00000000e-010,-2.04140639e-003
,,,-3.75000000e-010,-2.20000016e-003
,,,-3.50000000e-010,-2.37421892e-003
,,,-3.25000000e-010,-2.55937518e-003
,,,-3.00000000e-010,-2.75390644e-003
,,,-2.75000000e-010,-2.95625021e-003
,,,-2.50000000e-010,-3.16484397e-003
,,,-2.25000000e-010,-3.37656274e-003
,,,-2.00000000e-010,-3.58906275e-003
,,,-1.75000000e-010,-3.80000027e-003
,,,-1.50000000e-010,-4.00000028e-003
,,,-1.25000000e-010,-4.19765655e-003
,,,-1.00000000e-010,-4.38906281e-003
,,,-7.50000000e-011,-4.57343782e-003
,,,-5.00000000e-011,-4.74843784e-003
,,,-2.50000000e-011,-4.91171910e-003
,,,0.00000000e+000,-5.06250036e-003
,,,2.50000000e-011,-5.20000037e-003
,,,5.00000000e-011,-5.30546913e-003
,,,7.50000000e-011,-5.40468788e-003
,,,1.00000000e-010,-5.50156289e-003
,,,1.25000000e-010,-5.59687540e-003
,,,1.50000000e-010,-5.69375040e-003
,,,1.75000000e-010,-5.79296916e-003
,,,2.00000000e-010,-5.89531292e-003
,,,2.25000000e-010,-6.00000042e-003
,,,2.50000000e-010,-6.07656293e-003
,,,2.75000000e-010,-6.15703169e-003
,,,3.00000000e-010,-6.24140669e-003
,,,3.25000000e-010,-6.32656295e-003
,,,3.50000000e-010,-6.40937545e-003
,,,3.75000000e-010,-6.48437546e-003
,,,4.00000000e-010,-6.54921921e-003
,,,4.25000000e-010,-6.60000047e-003
,,,4.50000000e-010,-6.59921922e-003
,,,4.75000000e-010,-6.58671922e-003
,,,5.00000000e-010,-6.56484421e-003
,,,5.25000000e-010,-6.53671921e-003
,,,5.50000000e-010,-6.50390671e-003
,,,5.75000000e-010,-6.46953171e-003
,,,6.00000000e-010,-6.43437546e-003
,,,6.25000000e-010,-6.40000045e-003
,,,6.50000000e-010,-6.33359420e-003
,,,6.75000000e-010,-6.27265669e-003
,,,7.00000000e-010,-6.21796919e-003
,,,7.25000000e-010,-6.16875044e-003
,,,7.50000000e-010,-6.12421918e-003
,,,7.75000000e-010,-6.08281293e-003
,,,8.00000000e-010,-6.04218793e-003
,,,8.25000000e-010,-6.00000042e-003
,,,8.50000000e-010,-5.92812542e-003
,,,8.75000000e-010,-5.85312541e-003
,,,9.00000000e-010,-5.77578166e-003
,,,9.25000000e-010,-5.69765665e-003
,,,9.50000000e-010,-5.61953165e-003
,,,9.75000000e-010,-5.54375039e-003
,,,1.00000000e-009,-5.47031289e-003
,,,1.02500000e-009,-5.40000038e-003
,,,1.05000000e-009,-5.31484413e-003
,,,1.07500000e-009,-5.23203162e-003
,,,1.10000000e-009,-5.15234411e-003
,,,1.12500000e-009,-5.07578161e-003
,,,1.15000000e-009,-5.00234410e-003
,,,1.17500000e-009,-4.93281285e-003
,,,1.20000000e-009,-4.86562534e-003
,,,1.22500000e-009,-4.80000034e-003
,,,1.25000000e-009,-4.71875033e-003
,,,1.27500000e-009,-4.63281283e-003
,,,1.30000000e-009,-4.53984407e-003
,,,1.32500000e-009,-4.44140656e-003
,,,1.35000000e-009,-4.33750031e-003
,,,1.37500000e-009,-4.22812530e-003
,,,1.40000000e-009,-4.11562529e-003
,,,1.42500000e-009,-4.00000028e-003
,,,1.45000000e-009,-3.87656277e-003
,,,1.47500000e-009,-3.74765652e-003
,,,1.50000000e-009,-3.61640651e-003
,,,1.52500000e-009,-3.48359400e-003
,,,1.55000000e-009,-3.35312524e-003
,,,1.57500000e-009,-3.22734398e-003
,,,1.60000000e-009,-3.10859397e-003
,,,1.62500000e-009,-3.00000021e-003
,,,1.65000000e-009,-2.90312521e-003
,,,1.67500000e-009,-2.81250020e-003
,,,1.70000000e-009,-2.72812519e-003
,,,1.72500000e-009,-2.65000019e-003
,,,1.75000000e-009,-2.57890643e-003
,,,1.77500000e-009,-2.51406268e-003
,,,1.80000000e-009,-2.45468767e-003
,,,1.82500000e-009,-2.40000017e-003
,,,1.85000000e-009,-2.35078142e-003
,,,1.87500000e-009,-2.29687516e-003
,,,1.90000000e-009,-2.23593766e-003
,,,1.92500000e-009,-2.16562515e-003
,,,1.95000000e-009,-2.08671890e-003
,,,1.97500000e-009,-1.99843764e-003
,,,2.00000000e-009,-1.90234388e-003
,,,2.02500000e-009,-1.80000013e-003
,,,2.05000000e-009,-1.70078137e-003
,,,2.07500000e-009,-1.59531261e-003
,,,2.10000000e-009,-1.48593761e-003
,,,2.12500000e-009,-1.37578135e-003
,,,2.15000000e-009,-1.26875009e-003
,,,2.17500000e-009,-1.16796883e-003
,,,2.20000000e-009,-1.07734383e-003
,,,2.22500000e-009,-1.00000007e-003
,,,2.25000000e-009,-9.46875067e-004
,,,2.27500000e-009,-9.03906314e-004
,,,2.30000000e-009,-8.70312562e-004
,,,2.32500000e-009,-8.45312560e-004
,,,2.35000000e-009,-8.26562559e-004
,,,2.37500000e-009,-8.14062558e-004
,,,2.40000000e-009,-8.05468807e-004
,,,2.42500000e-009,-8.00000057e-004
,,,2.45000000e-009,-8.03125057e-004
,,,2.47500000e-009,-7.99218807e-004
,,,2.50000000e-009,-7.87500056e-004
,,,2.52500000e-009,-7.65625054e-004
,,,2.55000000e-009,-7.35156302e-004
,,,2.57500000e-009,-6.95312549e-004
,,,2.60000000e-009,-6.50000046e-004
,,,2.62500000e-009,-6.00000042e-004
,,,2.65000000e-009,-5.55468789e-004
,,,2.67500000e-009,-5.11718786e-004
,,,2.70000000e-009,-4.69531283e-004
,,,2.72500000e-009,-4.32812531e-004
,,,2.75000000e-009,-4.05468779e-004
,,,2.77500000e-009,-3.89843778e-004
,,,2.80000000e-009,-3.88281277e-004
,,,2.82500000e-009,-4.00000028e-004
,,,2.85000000e-009,-4.30468780e-004
,,,2.87500000e-009,-4.67187533e-004
,,,2.90000000e-009,-5.07031286e-004
,,,2.92500000e-009,-5.44531289e-004
,,,2.95000000e-009,-5.76562541e-004
,,,2.97500000e-009,-5.97656292e-004
,,,3.00000000e-009,-6.06250043e-004
,,,3.02500000e-009,-6.00000042e-004
,,,3.05000000e-009,-5.79687541e-004
,,,3.07500000e-009,-5.43750038e-004
,,,3.10000000e-009,-4.93750035e-004
,,,3.12500000e-009,-4.34375031e-004
,,,3.15000000e-009,-3.70312526e-004
,,,3.17500000e-009,-3.07031272e-004
,,,3.20000000e-009,-2.48437518e-004
,,,3.22500000e-009,-2.00000014e-004
,,,3.25000000e-009,-1.65625012e-004
,,,3.27500000e-009,-1.45312510e-004
,,,3.30000000e-009,-1.36718760e-004
,,,3.32500000e-009,-1.39062510e-004
,,,3.35000000e-009,-1.49218761e-004
,,,3.37500000e-009,-1.64843762e-004
,,,3.40000000e-009,-1.82812513e-004
,,,3.42500000e-009,-2.00000014e-004
,,,3.45000000e-009,-2.15625015e-004
,,,3.47500000e-009,-2.26562516e-004
,,,3.50000000e-009,-2.32031266e-004
,,,3.52500000e-009,-2.31250016e-004
,,,3.55000000e-009,-2.26562516e-004
,,,3.57500000e-009,-2.17968765e-004
,,,3.60000000e-009,-2.08593765e-004
,,,3.62500000e-009,-2.00000014e-004
,,,3.65000000e-009,-1.93750014e-004
,,,3.67500000e-009,-1.89062513e-004
,,,3.70000000e-009,-1.87500013e-004
,,,3.72500000e-009,-1.87500013e-004
,,,3.75000000e-009,-1.89843763e-004
,,,3.77500000e-009,-1.92968764e-004
,,,3.80000000e-009,-1.96093764e-004
,,,3.82500000e-009,-2.00000014e-004
,,,3.85000000e-009,-2.03125014e-004
,,,3.87500000e-009,-2.05468765e-004
,,,3.90000000e-009,-2.06250015e-004
,,,3.92500000e-009,-2.06250015e-004
,,,3.95000000e-009,-2.05468765e-004
,,,3.97500000e-009,-2.03125014e-004
,,,4.00000000e-009,-2.01562514e-004
,,,4.02500000e-009,-2.00000014e-004
,,,4.05000000e-009,-1.99218764e-004
,,,4.07500000e-009,-1.99218764e-004
,,,4.10000000e-009,-2.00000014e-004
,,,4.12500000e-009,-2.00000014e-004
,,,4.15000000e-009,-2.00000014e-004
,,,4.17500000e-009,-1.99218764e-004
,,,4.20000000e-009,-1.99218764e-004
,,,4.22500000e-009,-2.00000014e-004
,,,4.25000000e-009,-1.99218764e-004
,,,4.27500000e-009,-1.99218764e-004
,,,4.30000000e-009,-2.00000014e-004
,,,4.32500000e-009,-2.00000014e-004
,,,4.35000000e-009,-2.00000014e-004
,,,4.37500000e-009,-1.99218764e-004
,,,4.40000000e-009,-1.99218764e-004
,,,4.42500000e-009,-2.00000014e-004
,,,4.45000000e-009,-1.99218764e-004
,,,4.47500000e-009,-1.99218764e-004
,,,4.50000000e-009,-2.00000014e-004
,,,4.52500000e-009,-2.00000014e-004
,,,4.55000000e-009,-2.00000014e-004
,,,4.57500000e-009,-1.99218764e-004
,,,4.60000000e-009,-1.99218764e-004
,,,4.62500000e-009,-2.00000014e-004
,,,4.65000000e-009,-1.98437514e-004
,,,4.67500000e-009,-1.97656264e-004
,,,4.70000000e-009,-1.96875014e-004
,,,4.72500000e-009,-1.96093764e-004
,,,4.75000000e-009,-1.96093764e-004
,,,4.77500000e-009,-1.96875014e-004
,,,4.80000000e-009,-1.97656264e-004
,,,4.82500000e-009,-2.00000014e-004
,,,4.85000000e-009,-2.01562514e-004
,,,4.87500000e-009,-2.03906264e-004
,,,4.90000000e-009,-2.06250015e-004
,,,4.92500000e-009,-2.07031265e-004
,,,4.95000000e-009,-2.07031265e-004
,,,4.97500000e-009,-2.06250015e-004
,,,5.00000000e-009,-2.03906264e-004
,,,5.02500000e-009,-2.00000014e-004
,,,5.05000000e-009,-1.93750014e-004
,,,5.07500000e-009,-1.88281263e-004
,,,5.10000000e-009,-1.82812513e-004
,,,5.12500000e-009,-1.79687513e-004
,,,5.15000000e-009,-1.79687513e-004
,,,5.17500000e-009,-1.82812513e-004
,,,5.20000000e-009,-1.89843763e-004
,,,5.22500000e-009,-2.00000014e-004
,,,5.25000000e-009,-2.10937515e-004
,,,5.27500000e-009,-2.22656266e-004
,,,5.30000000e-009,-2.32812516e-004
,,,5.32500000e-009,-2.39843767e-004
,,,5.35000000e-009,-2.41406267e-004
,,,5.37500000e-009,-2.35156267e-004
,,,5.40000000e-009,-2.21093766e-004
,,,5.42500000e-009,-2.00000014e-004
,,,5.45000000e-009,-1.69531262e-004
,,,5.47500000e-009,-1.35156260e-004
,,,5.50000000e-009,-9.84375070e-005
,,,5.52500000e-009,-6.40625045e-005
,,,5.55000000e-009,-3.35937524e-005
,,,5.57500000e-009,-1.09375008e-005
,,,5.60000000e-009,0.00000000e+000
,,,5.62500000e-009,0.00000000e+000
,,,5.65000000e-009,-1.32812509e-005
,,,5.67500000e-009,-3.75000027e-005
,,,5.70000000e-009,-6.79687548e-005
,,,5.72500000e-009,-1.03125007e-004
,,,5.75000000e-009,-1.37500010e-004
,,,5.77500000e-009,-1.67187512e-004
,,,5.80000000e-009,-1.88281263e-004
,,,5.82500000e-009,-2.00000014e-004
,,,5.85000000e-009,-1.99218764e-004
,,,5.87500000e-009,-1.87500013e-004
