RawData/SinglePhotoelectron/R5_2pt2B_5mV/wave013_Ch2.csv

"Record Length",1000,"Points",-7.72500000e-009,-2.00000014e-004
"Sample Interval",2.50000000e-011,s,-7.70000000e-009,-2.00781264e-004
"Trigger Point",309,"Samples",-7.67500000e-009,-2.02343764e-004
"Trigger Time",1.77262937e-011,s,-7.65000000e-009,-2.03125014e-004
"",,,-7.62500000e-009,-2.03906264e-004
"Horizontal Offset",-7.72500000e-009,s,-7.60000000e-009,-2.03906264e-004
,,,-7.57500000e-009,-2.03125014e-004
,,,-7.55000000e-009,-2.01562514e-004
,,,-7.52500000e-009,-2.00000014e-004
,,,-7.50000000e-009,-1.94531264e-004
,,,-7.47500000e-009,-1.89062513e-004
,,,-7.45000000e-009,-1.83593763e-004
,,,-7.42500000e-009,-1.80468763e-004
,,,-7.40000000e-009,-1.80468763e-004
,,,-7.37500000e-009,-1.83593763e-004
,,,-7.35000000e-009,-1.89843763e-004
,,,-7.32500000e-009,-2.00000014e-004
,,,-7.30000000e-009,-2.09375015e-004
,,,-7.27500000e-009,-2.20312516e-004
,,,-7.25000000e-009,-2.28906266e-004
,,,-7.22500000e-009,-2.35156267e-004
,,,-7.20000000e-009,-2.36718767e-004
,,,-7.17500000e-009,-2.31250016e-004
,,,-7.15000000e-009,-2.19531266e-004
,,,-7.12500000e-009,-2.00000014e-004
,,,-7.10000000e-009,-1.71093762e-004
,,,-7.07500000e-009,-1.37500010e-004
,,,-7.05000000e-009,-1.01562507e-004
,,,-7.02500000e-009,-6.79687548e-005
,,,-7.00000000e-009,-3.82812527e-005
,,,-6.97500000e-009,-1.64062512e-005
,,,-6.95000000e-009,-3.12500022e-006
,,,-6.92500000e-009,0.00000000e+000
,,,-6.90000000e-009,-4.68750033e-006
,,,-6.87500000e-009,-1.64062512e-005
,,,-6.85000000e-009,-3.04687522e-005
,,,-6.82500000e-009,-4.29687530e-005
,,,-6.80000000e-009,-5.00000035e-005
,,,-6.77500000e-009,-4.60937533e-005
,,,-6.75000000e-009,-3.04687522e-005
,,,-6.72500000e-009,0.00000000e+000
,,,-6.70000000e-009,4.53125032e-005
,,,-6.67500000e-009,1.01562507e-004
,,,-6.65000000e-009,1.65625012e-004
,,,-6.62500000e-009,2.31250016e-004
,,,-6.60000000e-009,2.92187521e-004
,,,-6.57500000e-009,3.43750024e-004
,,,-6.55000000e-009,3.80468777e-004
,,,-6.52500000e-009,4.00000028e-004
,,,-6.50000000e-009,3.96875028e-004
,,,-6.47500000e-009,3.78125027e-004
,,,-6.45000000e-009,3.46093774e-004
,,,-6.42500000e-009,3.07812522e-004
,,,-6.40000000e-009,2.68750019e-004
,,,-6.37500000e-009,2.34375017e-004
,,,-6.35000000e-009,2.10156265e-004
,,,-6.32500000e-009,2.00000014e-004
,,,-6.30000000e-009,2.02343764e-004
,,,-6.27500000e-009,2.19531266e-004
,,,-6.25000000e-009,2.48437518e-004
,,,-6.22500000e-009,2.85156270e-004
,,,-6.20000000e-009,3.23437523e-004
,,,-6.17500000e-009,3.58593775e-004
,,,-6.15000000e-009,3.85156277e-004
,,,-6.12500000e-009,4.00000028e-004
,,,-6.10000000e-009,3.95312528e-004
,,,-6.07500000e-009,3.77343777e-004
,,,-6.05000000e-009,3.48437525e-004
,,,-6.02500000e-009,3.12500022e-004
,,,-6.00000000e-009,2.75000019e-004
,,,-5.97500000e-009,2.40625017e-004
,,,-5.95000000e-009,2.14062515e-004
,,,-5.92500000e-009,2.00000014e-004
,,,-5.90000000e-009,1.96875014e-004
,,,-5.87500000e-009,2.08593765e-004
,,,-5.85000000e-009,2.32031266e-004
,,,-5.82500000e-009,2.64843769e-004
,,,-5.80000000e-009,3.02343771e-004
,,,-5.77500000e-009,3.40625024e-004
,,,-5.75000000e-009,3.74218776e-004
,,,-5.72500000e-009,4.00000028e-004
,,,-5.70000000e-009,4.10156279e-004
,,,-5.67500000e-009,4.07812529e-004
,,,-5.65000000e-009,3.92968778e-004
,,,-5.62500000e-009,3.67187526e-004
,,,-5.60000000e-009,3.32031274e-004
,,,-5.57500000e-009,2.89843771e-004
,,,-5.55000000e-009,2.45312517e-004
,,,-5.52500000e-009,2.00000014e-004
,,,-5.50000000e-009,1.55468761e-004
,,,-5.47500000e-009,1.15625008e-004
,,,-5.45000000e-009,8.12500058e-005
,,,-5.42500000e-009,5.23437537e-005
,,,-5.40000000e-009,3.12500022e-005
,,,-5.37500000e-009,1.56250011e-005
,,,-5.35000000e-009,5.46875039e-006
,,,-5.32500000e-009,0.00000000e+000
,,,-5.30000000e-009,-1.56250011e-006
,,,-5.27500000e-009,-1.56250011e-006
,,,-5.25000000e-009,-7.81250055e-007
,,,-5.22500000e-009,0.00000000e+000
,,,-5.20000000e-009,7.81250055e-007
,,,-5.17500000e-009,7.81250055e-007
,,,-5.15000000e-009,7.81250055e-007
,,,-5.12500000e-009,0.00000000e+000
,,,-5.10000000e-009,-7.81250055e-007
,,,-5.07500000e-009,-3.12500022e-006
,,,-5.05000000e-009,-5.46875039e-006
,,,-5.02500000e-009,-7.03125050e-006
,,,-5.00000000e-009,-7.81250055e-006
,,,-4.97500000e-009,-7.03125050e-006
,,,-4.95000000e-009,-4.68750033e-006
,,,-4.92500000e-009,0.00000000e+000
,,,-4.90000000e-009,6.25000044e-006
,,,-4.87500000e-009,1.25000009e-005
,,,-4.85000000e-009,1.87500013e-005
,,,-4.82500000e-009,2.26562516e-005
,,,-4.80000000e-009,2.34375017e-005
,,,-4.77500000e-009,2.10937515e-005
,,,-4.75000000e-009,1.25000009e-005
,,,-4.72500000e-009,0.00000000e+000
,,,-4.70000000e-009,-1.87500013e-005
,,,-4.67500000e-009,-4.21875030e-005
,,,-4.65000000e-009,-7.03125050e-005
,,,-4.62500000e-009,-1.00000007e-004
,,,-4.60000000e-009,-1.28906259e-004
,,,-4.57500000e-009,-1.57031261e-004
,,,-4.55000000e-009,-1.80468763e-004
,,,-4.52500000e-009,-2.00000014e-004
,,,-4.50000000e-009,-2.10937515e-004
,,,-4.47500000e-009,-2.17187515e-004
,,,-4.45000000e-009,-2.17968765e-004
,,,-4.42500000e-009,-2.15625015e-004
,,,-4.40000000e-009,-2.11718765e-004
,,,-4.37500000e-009,-2.06250015e-004
,,,-4.35000000e-009,-2.02343764e-004
,,,-4.32500000e-009,-2.00000014e-004
,,,-4.30000000e-009,-1.98437514e-004
,,,-4.27500000e-009,-1.99218764e-004
,,,-4.25000000e-009,-2.00781264e-004
,,,-4.22500000e-009,-2.03906264e-004
,,,-4.20000000e-009,-2.06250015e-004
,,,-4.17500000e-009,-2.06250015e-004
,,,-4.15000000e-009,-2.04687514e-004
,,,-4.12500000e-009,-2.00000014e-004
,,,-4.10000000e-009,-1.90625013e-004
,,,-4.07500000e-009,-1.80468763e-004
,,,-4.05000000e-009,-1.71093762e-004
,,,-4.02500000e-009,-1.64843762e-004
,,,-4.00000000e-009,-1.62500012e-004
,,,-3.97500000e-009,-1.67187512e-004
,,,-3.95000000e-009,-1.79687513e-004
,,,-3.92500000e-009,-2.00000014e-004
,,,-3.90000000e-009,-2.24218766e-004
,,,-3.87500000e-009,-2.54687518e-004
,,,-3.85000000e-009,-2.87500020e-004
,,,-3.82500000e-009,-3.21093773e-004
,,,-3.80000000e-009,-3.51562525e-004
,,,-3.77500000e-009,-3.76562527e-004
,,,-3.75000000e-009,-3.92968778e-004
,,,-3.72500000e-009,-4.00000028e-004
,,,-3.70000000e-009,-3.92187528e-004
,,,-3.67500000e-009,-3.75000027e-004
,,,-3.65000000e-009,-3.50000025e-004
,,,-3.62500000e-009,-3.18750023e-004
,,,-3.60000000e-009,-2.85937520e-004
,,,-3.57500000e-009,-2.53125018e-004
,,,-3.55000000e-009,-2.23437516e-004
,,,-3.52500000e-009,-2.00000014e-004
,,,-3.50000000e-009,-1.82812513e-004
,,,-3.47500000e-009,-1.73437512e-004
,,,-3.45000000e-009,-1.71093762e-004
,,,-3.42500000e-009,-1.75000012e-004
,,,-3.40000000e-009,-1.82031263e-004
,,,-3.37500000e-009,-1.89843763e-004
,,,-3.35000000e-009,-1.96875014e-004
,,,-3.32500000e-009,-2.00000014e-004
,,,-3.30000000e-009,-1.96875014e-004
,,,-3.27500000e-009,-1.88281263e-004
,,,-3.25000000e-009,-1.71093762e-004
,,,-3.22500000e-009,-1.47656260e-004
,,,-3.20000000e-009,-1.17187508e-004
,,,-3.17500000e-009,-8.12500058e-005
,,,-3.15000000e-009,-4.14062529e-005
,,,-3.12500000e-009,0.00000000e+000
,,,-3.10000000e-009,3.98437528e-005
,,,-3.07500000e-009,7.81250055e-005
,,,-3.05000000e-009,1.12500008e-004
,,,-3.02500000e-009,1.42968760e-004
,,,-3.00000000e-009,1.67187512e-004
,,,-2.97500000e-009,1.85156263e-004
,,,-2.95000000e-009,1.96093764e-004
,,,-2.92500000e-009,2.00000014e-004
,,,-2.90000000e-009,1.92968764e-004
,,,-2.87500000e-009,1.79687513e-004
,,,-2.85000000e-009,1.60156261e-004
,,,-2.82500000e-009,1.35156260e-004
,,,-2.80000000e-009,1.05468757e-004
,,,-2.77500000e-009,7.26562551e-005
,,,-2.75000000e-009,3.67187526e-005
,,,-2.72500000e-009,0.00000000e+000
,,,-2.70000000e-009,-3.82812527e-005
,,,-2.67500000e-009,-7.42187553e-005
,,,-2.65000000e-009,-1.07031258e-004
,,,-2.62500000e-009,-1.35156260e-004
,,,-2.60000000e-009,-1.59375011e-004
,,,-2.57500000e-009,-1.77343763e-004
,,,-2.55000000e-009,-1.90625013e-004
,,,-2.52500000e-009,-2.00000014e-004
,,,-2.50000000e-009,-2.03906264e-004
,,,-2.47500000e-009,-2.05468765e-004
,,,-2.45000000e-009,-2.03906264e-004
,,,-2.42500000e-009,-2.01562514e-004
,,,-2.40000000e-009,-2.00000014e-004
,,,-2.37500000e-009,-1.98437514e-004
,,,-2.35000000e-009,-1.98437514e-004
,,,-2.32500000e-009,-2.00000014e-004
,,,-2.30000000e-009,-2.01562514e-004
,,,-2.27500000e-009,-2.04687514e-004
,,,-2.25000000e-009,-2.08593765e-004
,,,-2.22500000e-009,-2.11718765e-004
,,,-2.20000000e-009,-2.13281265e-004
,,,-2.17500000e-009,-2.12500015e-004
,,,-2.15000000e-009,-2.07812515e-004
,,,-2.12500000e-009,-2.00000014e-004
,,,-2.10000000e-009,-1.85156263e-004
,,,-2.07500000e-009,-1.66406262e-004
,,,-2.05000000e-009,-1.42968760e-004
,,,-2.02500000e-009,-1.16406258e-004
,,,-2.00000000e-009,-8.82812562e-005
,,,-1.97500000e-009,-5.78125041e-005
,,,-1.95000000e-009,-2.81250020e-005
,,,-1.92500000e-009,0.00000000e+000
,,,-1.90000000e-009,2.50000018e-005
,,,-1.87500000e-009,4.45312532e-005
,,,-1.85000000e-009,5.78125041e-005
,,,-1.82500000e-009,6.25000044e-005
,,,-1.80000000e-009,5.93750042e-005
,,,-1.77500000e-009,4.68750033e-005
,,,-1.75000000e-009,2.65625019e-005
,,,-1.72500000e-009,0.00000000e+000
,,,-1.70000000e-009,-3.35937524e-005
,,,-1.67500000e-009,-7.10937550e-005
,,,-1.65000000e-009,-1.07812508e-004
,,,-1.62500000e-009,-1.42187510e-004
,,,-1.60000000e-009,-1.70312512e-004
,,,-1.57500000e-009,-1.90625013e-004
,,,-1.55000000e-009,-2.00781264e-004
,,,-1.52500000e-009,-2.00000014e-004
,,,-1.50000000e-009,-1.89843763e-004
,,,-1.47500000e-009,-1.71093762e-004
,,,-1.45000000e-009,-1.44531260e-004
,,,-1.42500000e-009,-1.14062508e-004
,,,-1.40000000e-009,-8.20312558e-005
,,,-1.37500000e-009,-5.00000035e-005
,,,-1.35000000e-009,-2.18750015e-005
,,,-1.32500000e-009,0.00000000e+000
,,,-1.30000000e-009,7.03125050e-006
,,,-1.27500000e-009,7.03125050e-006
,,,-1.25000000e-009,2.34375017e-006
,,,-1.22500000e-009,-3.90625028e-006
,,,-1.20000000e-009,-1.01562507e-005
,,,-1.17500000e-009,-1.25000009e-005
,,,-1.15000000e-009,-9.37500066e-006
,,,-1.12500000e-009,0.00000000e+000
,,,-1.10000000e-009,-1.56250011e-006
,,,-1.07500000e-009,0.00000000e+000
,,,-1.05000000e-009,2.34375017e-006
,,,-1.02500000e-009,6.25000044e-006
,,,-1.00000000e-009,1.01562507e-005
,,,-9.75000000e-010,1.17187508e-005
,,,-9.50000000e-010,8.59375061e-006
,,,-9.25000000e-010,0.00000000e+000
,,,-9.00000000e-010,-4.53125032e-005
,,,-8.75000000e-010,-1.02343757e-004
,,,-8.50000000e-010,-1.65625012e-004
,,,-8.25000000e-010,-2.29687516e-004
,,,-8.00000000e-010,-2.89843771e-004
,,,-7.75000000e-010,-3.40625024e-004
,,,-7.50000000e-010,-3.77343777e-004
,,,-7.25000000e-010,-4.00000028e-004
,,,-7.00000000e-010,-4.45312532e-004
,,,-6.75000000e-010,-4.82812534e-004
,,,-6.50000000e-010,-5.14062536e-004
,,,-6.25000000e-010,-5.37500038e-004
,,,-6.00000000e-010,-5.54687539e-004
,,,-5.75000000e-010,-5.68750040e-004
,,,-5.50000000e-010,-5.82031291e-004
,,,-5.25000000e-010,-6.00000042e-004
,,,-5.00000000e-010,-6.74218798e-004
,,,-4.75000000e-010,-7.68750054e-004
,,,-4.50000000e-010,-8.80468812e-004
,,,-4.25000000e-010,-1.00703132e-003
,,,-4.00000000e-010,-1.14453133e-003
,,,-3.75000000e-010,-1.29062509e-003
,,,-3.50000000e-010,-1.44218760e-003
,,,-3.25000000e-010,-1.60000011e-003
,,,-3.00000000e-010,-1.80703138e-003
,,,-2.75000000e-010,-2.03046889e-003
,,,-2.50000000e-010,-2.26718766e-003
,,,-2.25000000e-010,-2.51562518e-003
,,,-2.00000000e-010,-2.77421895e-003
,,,-1.75000000e-010,-3.04140647e-003
,,,-1.50000000e-010,-3.31718773e-003
,,,-1.25000000e-010,-3.60000025e-003
,,,-1.00000000e-010,-3.91484403e-003
,,,-7.50000000e-011,-4.24296905e-003
,,,-5.00000000e-011,-4.57812532e-003
,,,-2.50000000e-011,-4.91562535e-003
,,,0.00000000e+000,-5.25078162e-003
,,,2.50000000e-011,-5.57890664e-003
,,,5.00000000e-011,-5.89531292e-003
,,,7.50000000e-011,-6.20000044e-003
,,,1.00000000e-010,-6.49218796e-003
,,,1.25000000e-010,-6.78281298e-003
,,,1.50000000e-010,-7.07343800e-003
,,,1.75000000e-010,-7.36640677e-003
,,,2.00000000e-010,-7.66484429e-003
,,,2.25000000e-010,-7.96953181e-003
,,,2.50000000e-010,-8.28125059e-003
,,,2.75000000e-010,-8.60000061e-003
,,,3.00000000e-010,-8.90078188e-003
,,,3.25000000e-010,-9.21250065e-003
,,,3.50000000e-010,-9.53046942e-003
,,,3.75000000e-010,-9.85000070e-003
,,,4.00000000e-010,-1.01640632e-002
,,,4.25000000e-010,-1.04648445e-002
,,,4.50000000e-010,-1.07453133e-002
,,,4.75000000e-010,-1.10000008e-002
,,,5.00000000e-010,-1.11789070e-002
,,,5.25000000e-010,-1.13367196e-002
,,,5.50000000e-010,-1.14765633e-002
,,,5.75000000e-010,-1.16023446e-002
,,,6.00000000e-010,-1.17148446e-002
,,,6.25000000e-010,-1.18179696e-002
,,,6.50000000e-010,-1.19132821e-002
,,,6.75000000e-010,-1.20000008e-002
,,,7.00000000e-010,-1.20210946e-002
,,,7.25000000e-010,-1.20445321e-002
,,,7.50000000e-010,-1.20718759e-002
,,,7.75000000e-010,-1.21031259e-002
,,,8.00000000e-010,-1.21359384e-002
,,,8.25000000e-010,-1.21656259e-002
,,,8.50000000e-010,-1.21882821e-002
,,,8.75000000e-010,-1.22000009e-002
,,,9.00000000e-010,-1.21359384e-002
,,,9.25000000e-010,-1.20632821e-002
,,,9.50000000e-010,-1.19851571e-002
,,,9.75000000e-010,-1.19046883e-002
,,,1.00000000e-009,-1.18242196e-002
,,,1.02500000e-009,-1.17453133e-002
,,,1.05000000e-009,-1.16703133e-002
,,,1.07500000e-009,-1.16000008e-002
,,,1.10000000e-009,-1.14820321e-002
,,,1.12500000e-009,-1.13734383e-002
,,,1.15000000e-009,-1.12765633e-002
,,,1.17500000e-009,-1.11945320e-002
,,,1.20000000e-009,-1.11273445e-002
,,,1.22500000e-009,-1.10750008e-002
,,,1.25000000e-009,-1.10335945e-002
,,,1.27500000e-009,-1.10000008e-002
,,,1.30000000e-009,-1.09250008e-002
,,,1.32500000e-009,-1.08460945e-002
,,,1.35000000e-009,-1.07625008e-002
,,,1.37500000e-009,-1.06710945e-002
,,,1.40000000e-009,-1.05718757e-002
,,,1.42500000e-009,-1.04609382e-002
,,,1.45000000e-009,-1.03375007e-002
,,,1.47500000e-009,-1.02000007e-002
,,,1.50000000e-009,-1.00117195e-002
,,,1.52500000e-009,-9.80312569e-003
,,,1.55000000e-009,-9.57968818e-003
,,,1.57500000e-009,-9.34453191e-003
,,,1.60000000e-009,-9.10390689e-003
,,,1.62500000e-009,-8.86406313e-003
,,,1.65000000e-009,-8.62812561e-003
,,,1.67500000e-009,-8.40000059e-003
,,,1.70000000e-009,-8.16328183e-003
,,,1.72500000e-009,-7.92968806e-003
,,,1.75000000e-009,-7.69921929e-003
,,,1.77500000e-009,-7.47187553e-003
,,,1.80000000e-009,-7.24843801e-003
,,,1.82500000e-009,-7.02890675e-003
,,,1.85000000e-009,-6.81250048e-003
,,,1.87500000e-009,-6.60000047e-003
,,,1.90000000e-009,-6.38750045e-003
,,,1.92500000e-009,-6.17109419e-003
,,,1.95000000e-009,-5.95390667e-003
,,,1.97500000e-009,-5.73984416e-003
,,,2.00000000e-009,-5.53359414e-003
,,,2.02500000e-009,-5.33984413e-003
,,,2.05000000e-009,-5.16171912e-003
,,,2.07500000e-009,-5.00000035e-003
,,,2.10000000e-009,-4.86015659e-003
,,,2.12500000e-009,-4.72500033e-003
,,,2.15000000e-009,-4.58906282e-003
,,,2.17500000e-009,-4.44921906e-003
,,,2.20000000e-009,-4.30156280e-003
,,,2.22500000e-009,-4.14453154e-003
,,,2.25000000e-009,-3.97734403e-003
,,,2.27500000e-009,-3.80000027e-003
,,,2.30000000e-009,-3.62656276e-003
,,,2.32500000e-009,-3.43984399e-003
,,,2.35000000e-009,-3.24375023e-003
,,,2.37500000e-009,-3.04531272e-003
,,,2.40000000e-009,-2.85390645e-003
,,,2.42500000e-009,-2.67812519e-003
,,,2.45000000e-009,-2.52500018e-003
,,,2.47500000e-009,-2.40000017e-003
,,,2.50000000e-009,-2.32578141e-003
,,,2.52500000e-009,-2.26953141e-003
,,,2.55000000e-009,-2.22578141e-003
,,,2.57500000e-009,-2.18906265e-003
,,,2.60000000e-009,-2.15312515e-003
,,,2.62500000e-009,-2.11171890e-003
,,,2.65000000e-009,-2.06171890e-003
,,,2.67500000e-009,-2.00000014e-003
,,,2.70000000e-009,-1.94062514e-003
,,,2.72500000e-009,-1.86015638e-003
,,,2.75000000e-009,-1.76015637e-003
,,,2.77500000e-009,-1.64609387e-003
,,,2.80000000e-009,-1.52500011e-003
,,,2.82500000e-009,-1.40546885e-003
,,,2.85000000e-009,-1.29531259e-003
,,,2.87500000e-009,-1.20000008e-003
,,,2.90000000e-009,-1.14218758e-003
,,,2.92500000e-009,-1.09843758e-003
,,,2.95000000e-009,-1.06796883e-003
,,,2.97500000e-009,-1.04687507e-003
,,,3.00000000e-009,-1.03281257e-003
,,,3.02500000e-009,-1.02265632e-003
,,,3.05000000e-009,-1.01250007e-003
,,,3.07500000e-009,-1.00000007e-003
,,,3.10000000e-009,-9.95312570e-004
,,,3.12500000e-009,-9.80468819e-004
,,,3.15000000e-009,-9.55468818e-004
,,,3.17500000e-009,-9.23437565e-004
,,,3.20000000e-009,-8.88281313e-004
,,,3.22500000e-009,-8.53125060e-004
,,,3.25000000e-009,-8.22656308e-004
,,,3.27500000e-009,-8.00000057e-004
,,,3.30000000e-009,-7.95312556e-004
,,,3.32500000e-009,-7.96093806e-004
,,,3.35000000e-009,-8.00000057e-004
,,,3.37500000e-009,-8.05468807e-004
,,,3.40000000e-009,-8.10156307e-004
,,,3.42500000e-009,-8.12500058e-004
,,,3.45000000e-009,-8.09375057e-004
,,,3.47500000e-009,-8.00000057e-004
,,,3.50000000e-009,-7.87500056e-004
,,,3.52500000e-009,-7.67187554e-004
,,,3.55000000e-009,-7.40625052e-004
,,,3.57500000e-009,-7.08593800e-004
,,,3.60000000e-009,-6.76562548e-004
,,,3.62500000e-009,-6.45312546e-004
,,,3.65000000e-009,-6.18750044e-004
,,,3.67500000e-009,-6.00000042e-004
,,,3.70000000e-009,-5.92187542e-004
,,,3.72500000e-009,-5.90625042e-004
,,,3.75000000e-009,-5.93750042e-004
,,,3.77500000e-009,-5.98437542e-004
,,,3.80000000e-009,-6.03906293e-004
,,,3.82500000e-009,-6.07031293e-004
,,,3.85000000e-009,-6.06250043e-004
,,,3.87500000e-009,-6.00000042e-004
,,,3.90000000e-009,-5.90625042e-004
,,,3.92500000e-009,-5.75000041e-004
,,,3.95000000e-009,-5.53125039e-004
,,,3.97500000e-009,-5.25000037e-004
,,,4.00000000e-009,-4.93750035e-004
,,,4.02500000e-009,-4.60937533e-004
,,,4.05000000e-009,-4.28906280e-004
,,,4.07500000e-009,-4.00000028e-004
,,,4.10000000e-009,-3.80468777e-004
,,,4.12500000e-009,-3.66406276e-004
,,,4.15000000e-009,-3.59375025e-004
,,,4.17500000e-009,-3.58593775e-004
,,,4.20000000e-009,-3.63281276e-004
,,,4.22500000e-009,-3.72656276e-004
,,,4.25000000e-009,-3.85156277e-004
,,,4.27500000e-009,-4.00000028e-004
,,,4.30000000e-009,-4.17968780e-004
,,,4.32500000e-009,-4.34375031e-004
,,,4.35000000e-009,-4.45312532e-004
,,,4.37500000e-009,-4.50781282e-004
,,,4.40000000e-009,-4.49218782e-004
,,,4.42500000e-009,-4.39843781e-004
,,,4.45000000e-009,-4.22656280e-004
,,,4.47500000e-009,-4.00000028e-004
,,,4.50000000e-009,-3.76562527e-004
,,,4.52500000e-009,-3.53125025e-004
,,,4.55000000e-009,-3.33593774e-004
,,,4.57500000e-009,-3.20312523e-004
,,,4.60000000e-009,-3.17968773e-004
,,,4.62500000e-009,-3.28906273e-004
,,,4.65000000e-009,-3.56250025e-004
,,,4.67500000e-009,-4.00000028e-004
,,,4.70000000e-009,-4.61718783e-004
,,,4.72500000e-009,-5.35937538e-004
,,,4.75000000e-009,-6.19531294e-004
,,,4.77500000e-009,-7.07031300e-004
,,,4.80000000e-009,-7.93750056e-004
,,,4.82500000e-009,-8.74218812e-004
,,,4.85000000e-009,-9.43750067e-004
,,,4.87500000e-009,-1.00000007e-003
,,,4.90000000e-009,-1.03359382e-003
,,,4.92500000e-009,-1.05156257e-003
,,,4.95000000e-009,-1.05546882e-003
,,,4.97500000e-009,-1.04921882e-003
,,,5.00000000e-009,-1.03593757e-003
,,,5.02500000e-009,-1.02109382e-003
,,,5.05000000e-009,-1.00781257e-003
,,,5.07500000e-009,-1.00000007e-003
,,,5.10000000e-009,-9.91406320e-004
,,,5.12500000e-009,-9.89843820e-004
,,,5.15000000e-009,-9.92968820e-004
,,,5.17500000e-009,-1.00000007e-003
,,,5.20000000e-009,-1.00703132e-003
,,,5.22500000e-009,-1.01093757e-003
,,,5.25000000e-009,-1.00937507e-003
,,,5.27500000e-009,-1.00000007e-003
,,,5.30000000e-009,-9.75000069e-004
,,,5.32500000e-009,-9.43750067e-004
,,,5.35000000e-009,-9.08593814e-004
,,,5.37500000e-009,-8.72656312e-004
,,,5.40000000e-009,-8.41406310e-004
,,,5.42500000e-009,-8.17187558e-004
,,,5.45000000e-009,-8.02343807e-004
,,,5.47500000e-009,-8.00000057e-004
,,,5.50000000e-009,-8.03125057e-004
,,,5.52500000e-009,-8.14062558e-004
,,,5.55000000e-009,-8.29687559e-004
,,,5.57500000e-009,-8.44531310e-004
,,,5.60000000e-009,-8.53906310e-004
,,,5.62500000e-009,-8.51562560e-004
,,,5.65000000e-009,-8.34375059e-004
,,,5.67500000e-009,-8.00000057e-004
,,,5.70000000e-009,-7.41406302e-004
,,,5.72500000e-009,-6.67187547e-004
,,,5.75000000e-009,-5.82031291e-004
,,,5.77500000e-009,-4.92187535e-004
,,,5.80000000e-009,-4.03125029e-004
,,,5.82500000e-009,-3.21093773e-004
,,,5.85000000e-009,-2.51562518e-004
,,,5.87500000e-009,-2.00000014e-004
