RawData/SinglePhotoelectron/R5_2pt2B_5mV/wave038_Ch2.csv

"Record Length",1000,"Points",-7.72500000e-009,4.59375033e-004
"Sample Interval",2.50000000e-011,s,-7.70000000e-009,4.00000028e-004
"Trigger Point",309,"Samples",-7.67500000e-009,3.35156274e-004
"Trigger Time",2.14776271e-011,s,-7.65000000e-009,2.71875019e-004
"",,,-7.62500000e-009,2.10937515e-004
"Horizontal Offset",-7.72500000e-009,s,-7.60000000e-009,1.55468761e-004
,,,-7.57500000e-009,1.05468757e-004
,,,-7.55000000e-009,6.25000044e-005
,,,-7.52500000e-009,2.73437519e-005
,,,-7.50000000e-009,0.00000000e+000
,,,-7.47500000e-009,-1.71875012e-005
,,,-7.45000000e-009,-2.81250020e-005
,,,-7.42500000e-009,-3.20312523e-005
,,,-7.40000000e-009,-3.12500022e-005
,,,-7.37500000e-009,-2.57812518e-005
,,,-7.35000000e-009,-1.79687513e-005
,,,-7.32500000e-009,-9.37500066e-006
,,,-7.30000000e-009,0.00000000e+000
,,,-7.27500000e-009,8.59375061e-006
,,,-7.25000000e-009,1.56250011e-005
,,,-7.22500000e-009,2.03125014e-005
,,,-7.20000000e-009,2.10937515e-005
,,,-7.17500000e-009,1.95312514e-005
,,,-7.15000000e-009,1.48437511e-005
,,,-7.12500000e-009,7.81250055e-006
,,,-7.10000000e-009,0.00000000e+000
,,,-7.07500000e-009,-7.81250055e-006
,,,-7.05000000e-009,-1.48437511e-005
,,,-7.02500000e-009,-2.10937515e-005
,,,-7.00000000e-009,-2.42187517e-005
,,,-6.97500000e-009,-2.42187517e-005
,,,-6.95000000e-009,-2.10937515e-005
,,,-6.92500000e-009,-1.25000009e-005
,,,-6.90000000e-009,0.00000000e+000
,,,-6.87500000e-009,1.95312514e-005
,,,-6.85000000e-009,4.21875030e-005
,,,-6.82500000e-009,6.71875048e-005
,,,-6.80000000e-009,9.45312567e-005
,,,-6.77500000e-009,1.21875009e-004
,,,-6.75000000e-009,1.49218761e-004
,,,-6.72500000e-009,1.75781262e-004
,,,-6.70000000e-009,2.00000014e-004
,,,-6.67500000e-009,2.19531266e-004
,,,-6.65000000e-009,2.35156267e-004
,,,-6.62500000e-009,2.44531267e-004
,,,-6.60000000e-009,2.47656268e-004
,,,-6.57500000e-009,2.44531267e-004
,,,-6.55000000e-009,2.35156267e-004
,,,-6.52500000e-009,2.19531266e-004
,,,-6.50000000e-009,2.00000014e-004
,,,-6.47500000e-009,1.72656262e-004
,,,-6.45000000e-009,1.43750010e-004
,,,-6.42500000e-009,1.13281258e-004
,,,-6.40000000e-009,8.43750060e-005
,,,-6.37500000e-009,5.70312540e-005
,,,-6.35000000e-009,3.35937524e-005
,,,-6.32500000e-009,1.40625010e-005
,,,-6.30000000e-009,0.00000000e+000
,,,-6.27500000e-009,-1.01562507e-005
,,,-6.25000000e-009,-1.48437511e-005
,,,-6.22500000e-009,-1.64062512e-005
,,,-6.20000000e-009,-1.48437511e-005
,,,-6.17500000e-009,-1.17187508e-005
,,,-6.15000000e-009,-7.03125050e-006
,,,-6.12500000e-009,-3.12500022e-006
,,,-6.10000000e-009,0.00000000e+000
,,,-6.07500000e-009,1.56250011e-006
,,,-6.05000000e-009,1.56250011e-006
,,,-6.02500000e-009,7.81250055e-007
,,,-6.00000000e-009,0.00000000e+000
,,,-5.97500000e-009,-7.81250055e-007
,,,-5.95000000e-009,-1.56250011e-006
,,,-5.92500000e-009,-1.56250011e-006
,,,-5.90000000e-009,0.00000000e+000
,,,-5.87500000e-009,3.12500022e-006
,,,-5.85000000e-009,7.03125050e-006
,,,-5.82500000e-009,1.17187508e-005
,,,-5.80000000e-009,1.48437511e-005
,,,-5.77500000e-009,1.64062512e-005
,,,-5.75000000e-009,1.48437511e-005
,,,-5.72500000e-009,1.01562507e-005
,,,-5.70000000e-009,0.00000000e+000
,,,-5.67500000e-009,-1.17187508e-005
,,,-5.65000000e-009,-2.96875021e-005
,,,-5.62500000e-009,-5.15625036e-005
,,,-5.60000000e-009,-7.73437555e-005
,,,-5.57500000e-009,-1.06250008e-004
,,,-5.55000000e-009,-1.37500010e-004
,,,-5.52500000e-009,-1.69531262e-004
,,,-5.50000000e-009,-2.00000014e-004
,,,-5.47500000e-009,-2.22656266e-004
,,,-5.45000000e-009,-2.39843767e-004
,,,-5.42500000e-009,-2.51562518e-004
,,,-5.40000000e-009,-2.55468768e-004
,,,-5.37500000e-009,-2.53125018e-004
,,,-5.35000000e-009,-2.42187517e-004
,,,-5.32500000e-009,-2.24218766e-004
,,,-5.30000000e-009,-2.00000014e-004
,,,-5.27500000e-009,-1.66406262e-004
,,,-5.25000000e-009,-1.31250009e-004
,,,-5.22500000e-009,-9.60937568e-005
,,,-5.20000000e-009,-6.32812545e-005
,,,-5.17500000e-009,-3.59375025e-005
,,,-5.15000000e-009,-1.56250011e-005
,,,-5.12500000e-009,-3.12500022e-006
,,,-5.10000000e-009,0.00000000e+000
,,,-5.07500000e-009,-1.56250011e-006
,,,-5.05000000e-009,-8.59375061e-006
,,,-5.02500000e-009,-1.87500013e-005
,,,-5.00000000e-009,-2.73437519e-005
,,,-4.97500000e-009,-3.35937524e-005
,,,-4.95000000e-009,-3.20312523e-005
,,,-4.92500000e-009,-2.10937515e-005
,,,-4.90000000e-009,0.00000000e+000
,,,-4.87500000e-009,3.43750024e-005
,,,-4.85000000e-009,7.96875056e-005
,,,-4.82500000e-009,1.32812509e-004
,,,-4.80000000e-009,1.90625013e-004
,,,-4.77500000e-009,2.50000018e-004
,,,-4.75000000e-009,3.07031272e-004
,,,-4.72500000e-009,3.57812525e-004
,,,-4.70000000e-009,4.00000028e-004
,,,-4.67500000e-009,4.28125030e-004
,,,-4.65000000e-009,4.44531281e-004
,,,-4.62500000e-009,4.50781282e-004
,,,-4.60000000e-009,4.48437532e-004
,,,-4.57500000e-009,4.39062531e-004
,,,-4.55000000e-009,4.26562530e-004
,,,-4.52500000e-009,4.12500029e-004
,,,-4.50000000e-009,4.00000028e-004
,,,-4.47500000e-009,3.86718777e-004
,,,-4.45000000e-009,3.78125027e-004
,,,-4.42500000e-009,3.75000027e-004
,,,-4.40000000e-009,3.76562527e-004
,,,-4.37500000e-009,3.80468777e-004
,,,-4.35000000e-009,3.87500027e-004
,,,-4.32500000e-009,3.93750028e-004
,,,-4.30000000e-009,4.00000028e-004
,,,-4.27500000e-009,4.00000028e-004
,,,-4.25000000e-009,4.00000028e-004
,,,-4.22500000e-009,3.98437528e-004
,,,-4.20000000e-009,3.96093778e-004
,,,-4.17500000e-009,3.94531278e-004
,,,-4.15000000e-009,3.94531278e-004
,,,-4.12500000e-009,3.96093778e-004
,,,-4.10000000e-009,4.00000028e-004
,,,-4.07500000e-009,4.02343778e-004
,,,-4.05000000e-009,4.07031279e-004
,,,-4.02500000e-009,4.12500029e-004
,,,-4.00000000e-009,4.16406279e-004
,,,-3.97500000e-009,4.18750030e-004
,,,-3.95000000e-009,4.17187530e-004
,,,-3.92500000e-009,4.10937529e-004
,,,-3.90000000e-009,4.00000028e-004
,,,-3.87500000e-009,3.78906277e-004
,,,-3.85000000e-009,3.53906275e-004
,,,-3.82500000e-009,3.25781273e-004
,,,-3.80000000e-009,2.96093771e-004
,,,-3.77500000e-009,2.67187519e-004
,,,-3.75000000e-009,2.40625017e-004
,,,-3.72500000e-009,2.17187515e-004
,,,-3.70000000e-009,2.00000014e-004
,,,-3.67500000e-009,1.87500013e-004
,,,-3.65000000e-009,1.80468763e-004
,,,-3.62500000e-009,1.78125013e-004
,,,-3.60000000e-009,1.79687513e-004
,,,-3.57500000e-009,1.84375013e-004
,,,-3.55000000e-009,1.89843763e-004
,,,-3.52500000e-009,1.95312514e-004
,,,-3.50000000e-009,2.00000014e-004
,,,-3.47500000e-009,2.02343764e-004
,,,-3.45000000e-009,2.03125014e-004
,,,-3.42500000e-009,2.01562514e-004
,,,-3.40000000e-009,2.00000014e-004
,,,-3.37500000e-009,1.97656264e-004
,,,-3.35000000e-009,1.96093764e-004
,,,-3.32500000e-009,1.96875014e-004
,,,-3.30000000e-009,2.00000014e-004
,,,-3.27500000e-009,2.03906264e-004
,,,-3.25000000e-009,2.09375015e-004
,,,-3.22500000e-009,2.14843765e-004
,,,-3.20000000e-009,2.19531266e-004
,,,-3.17500000e-009,2.21093766e-004
,,,-3.15000000e-009,2.18750015e-004
,,,-3.12500000e-009,2.11718765e-004
,,,-3.10000000e-009,2.00000014e-004
,,,-3.07500000e-009,1.82031263e-004
,,,-3.05000000e-009,1.58593761e-004
,,,-3.02500000e-009,1.32031259e-004
,,,-3.00000000e-009,1.03125007e-004
,,,-2.97500000e-009,7.34375052e-005
,,,-2.95000000e-009,4.53125032e-005
,,,-2.92500000e-009,2.03125014e-005
,,,-2.90000000e-009,0.00000000e+000
,,,-2.87500000e-009,-1.32812509e-005
,,,-2.85000000e-009,-2.10937515e-005
,,,-2.82500000e-009,-2.42187517e-005
,,,-2.80000000e-009,-2.34375017e-005
,,,-2.77500000e-009,-1.95312514e-005
,,,-2.75000000e-009,-1.32812509e-005
,,,-2.72500000e-009,-6.25000044e-006
,,,-2.70000000e-009,0.00000000e+000
,,,-2.67500000e-009,5.46875039e-006
,,,-2.65000000e-009,1.01562507e-005
,,,-2.62500000e-009,1.17187508e-005
,,,-2.60000000e-009,1.17187508e-005
,,,-2.57500000e-009,9.37500066e-006
,,,-2.55000000e-009,7.03125050e-006
,,,-2.52500000e-009,3.12500022e-006
,,,-2.50000000e-009,0.00000000e+000
,,,-2.47500000e-009,-1.56250011e-006
,,,-2.45000000e-009,-3.12500022e-006
,,,-2.42500000e-009,-3.90625028e-006
,,,-2.40000000e-009,-3.90625028e-006
,,,-2.37500000e-009,-3.12500022e-006
,,,-2.35000000e-009,-2.34375017e-006
,,,-2.32500000e-009,-7.81250055e-007
,,,-2.30000000e-009,0.00000000e+000
,,,-2.27500000e-009,1.56250011e-006
,,,-2.25000000e-009,2.34375017e-006
,,,-2.22500000e-009,3.12500022e-006
,,,-2.20000000e-009,3.12500022e-006
,,,-2.17500000e-009,2.34375017e-006
,,,-2.15000000e-009,1.56250011e-006
,,,-2.12500000e-009,7.81250055e-007
,,,-2.10000000e-009,0.00000000e+000
,,,-2.07500000e-009,7.81250055e-007
,,,-2.05000000e-009,1.56250011e-006
,,,-2.02500000e-009,2.34375017e-006
,,,-2.00000000e-009,3.12500022e-006
,,,-1.97500000e-009,3.12500022e-006
,,,-1.95000000e-009,2.34375017e-006
,,,-1.92500000e-009,1.56250011e-006
,,,-1.90000000e-009,0.00000000e+000
,,,-1.87500000e-009,-1.56250011e-006
,,,-1.85000000e-009,-3.90625028e-006
,,,-1.82500000e-009,-6.25000044e-006
,,,-1.80000000e-009,-7.03125050e-006
,,,-1.77500000e-009,-7.03125050e-006
,,,-1.75000000e-009,-6.25000044e-006
,,,-1.72500000e-009,-3.90625028e-006
,,,-1.70000000e-009,0.00000000e+000
,,,-1.67500000e-009,3.12500022e-006
,,,-1.65000000e-009,7.03125050e-006
,,,-1.62500000e-009,1.01562507e-005
,,,-1.60000000e-009,1.25000009e-005
,,,-1.57500000e-009,1.25000009e-005
,,,-1.55000000e-009,1.09375008e-005
,,,-1.52500000e-009,6.25000044e-006
,,,-1.50000000e-009,0.00000000e+000
,,,-1.47500000e-009,-1.25000009e-005
,,,-1.45000000e-009,-2.57812518e-005
,,,-1.42500000e-009,-3.67187526e-005
,,,-1.40000000e-009,-4.45312532e-005
,,,-1.37500000e-009,-4.60937533e-005
,,,-1.35000000e-009,-3.98437528e-005
,,,-1.32500000e-009,-2.42187517e-005
,,,-1.30000000e-009,0.00000000e+000
,,,-1.27500000e-009,2.10937515e-005
,,,-1.25000000e-009,4.60937533e-005
,,,-1.22500000e-009,7.50000053e-005
,,,-1.20000000e-009,1.04687507e-004
,,,-1.17500000e-009,1.33593759e-004
,,,-1.15000000e-009,1.60937511e-004
,,,-1.12500000e-009,1.83593763e-004
,,,-1.10000000e-009,2.00000014e-004
,,,-1.07500000e-009,1.86718763e-004
,,,-1.05000000e-009,1.63281262e-004
,,,-1.02500000e-009,1.32812509e-004
,,,-1.00000000e-009,9.84375070e-005
,,,-9.75000000e-010,6.48437546e-005
,,,-9.50000000e-010,3.59375025e-005
,,,-9.25000000e-010,1.32812509e-005
,,,-9.00000000e-010,0.00000000e+000
,,,-8.75000000e-010,-3.59375025e-005
,,,-8.50000000e-010,-6.95312549e-005
,,,-8.25000000e-010,-9.84375070e-005
,,,-8.00000000e-010,-1.23437509e-004
,,,-7.75000000e-010,-1.44531260e-004
,,,-7.50000000e-010,-1.62500012e-004
,,,-7.25000000e-010,-1.79687513e-004
,,,-7.00000000e-010,-2.00000014e-004
,,,-6.75000000e-010,-2.64062519e-004
,,,-6.50000000e-010,-3.42968774e-004
,,,-6.25000000e-010,-4.33593781e-004
,,,-6.00000000e-010,-5.35937538e-004
,,,-5.75000000e-010,-6.45312546e-004
,,,-5.50000000e-010,-7.60156304e-004
,,,-5.25000000e-010,-8.78125062e-004
,,,-5.00000000e-010,-1.00000007e-003
,,,-4.75000000e-010,-1.15937508e-003
,,,-4.50000000e-010,-1.32734384e-003
,,,-4.25000000e-010,-1.50156261e-003
,,,-4.00000000e-010,-1.67968762e-003
,,,-3.75000000e-010,-1.85937513e-003
,,,-3.50000000e-010,-2.03906264e-003
,,,-3.25000000e-010,-2.21953141e-003
,,,-3.00000000e-010,-2.40000017e-003
,,,-2.75000000e-010,-2.60546893e-003
,,,-2.50000000e-010,-2.81953145e-003
,,,-2.25000000e-010,-3.04062522e-003
,,,-2.00000000e-010,-3.26718773e-003
,,,-1.75000000e-010,-3.49687525e-003
,,,-1.50000000e-010,-3.72968776e-003
,,,-1.25000000e-010,-3.96328153e-003
,,,-1.00000000e-010,-4.20000030e-003
,,,-7.50000000e-011,-4.44687531e-003
,,,-5.00000000e-011,-4.70468783e-003
,,,-2.50000000e-011,-4.97187535e-003
,,,0.00000000e+000,-5.24843787e-003
,,,2.50000000e-011,-5.53125039e-003
,,,5.00000000e-011,-5.81953166e-003
,,,7.50000000e-011,-6.10937543e-003
,,,1.00000000e-010,-6.40000045e-003
,,,1.25000000e-010,-6.67578172e-003
,,,1.50000000e-010,-6.95156299e-003
,,,1.75000000e-010,-7.22421926e-003
,,,2.00000000e-010,-7.49062553e-003
,,,2.25000000e-010,-7.74609430e-003
,,,2.50000000e-010,-7.98515682e-003
,,,2.75000000e-010,-8.20390683e-003
,,,3.00000000e-010,-8.40000059e-003
,,,3.25000000e-010,-8.54218810e-003
,,,3.50000000e-010,-8.66796936e-003
,,,3.75000000e-010,-8.78046937e-003
,,,4.00000000e-010,-8.88203188e-003
,,,4.25000000e-010,-8.97343814e-003
,,,4.50000000e-010,-9.05625064e-003
,,,4.75000000e-010,-9.13125065e-003
,,,5.00000000e-010,-9.20000065e-003
,,,5.25000000e-010,-9.22734440e-003
,,,5.50000000e-010,-9.26015691e-003
,,,5.75000000e-010,-9.30078191e-003
,,,6.00000000e-010,-9.35000066e-003
,,,6.25000000e-010,-9.40703192e-003
,,,6.50000000e-010,-9.46953192e-003
,,,6.75000000e-010,-9.53437567e-003
,,,7.00000000e-010,-9.60000068e-003
,,,7.25000000e-010,-9.62109443e-003
,,,7.50000000e-010,-9.64453193e-003
,,,7.75000000e-010,-9.67031318e-003
,,,8.00000000e-010,-9.69765694e-003
,,,8.25000000e-010,-9.72578194e-003
,,,8.50000000e-010,-9.75312569e-003
,,,8.75000000e-010,-9.77890694e-003
,,,9.00000000e-010,-9.80000069e-003
,,,9.25000000e-010,-9.77343819e-003
,,,9.50000000e-010,-9.74453194e-003
,,,9.75000000e-010,-9.71562569e-003
,,,1.00000000e-009,-9.68828194e-003
,,,1.02500000e-009,-9.66250068e-003
,,,1.05000000e-009,-9.63984443e-003
,,,1.07500000e-009,-9.61953193e-003
,,,1.10000000e-009,-9.60000068e-003
,,,1.12500000e-009,-9.54296943e-003
,,,1.15000000e-009,-9.48593817e-003
,,,1.17500000e-009,-9.43125067e-003
,,,1.20000000e-009,-9.37890691e-003
,,,1.22500000e-009,-9.33046941e-003
,,,1.25000000e-009,-9.28515691e-003
,,,1.27500000e-009,-9.24218815e-003
,,,1.30000000e-009,-9.20000065e-003
,,,1.32500000e-009,-9.12265690e-003
,,,1.35000000e-009,-9.03828189e-003
,,,1.37500000e-009,-8.94687563e-003
,,,1.40000000e-009,-8.84921938e-003
,,,1.42500000e-009,-8.74609437e-003
,,,1.45000000e-009,-8.63671936e-003
,,,1.47500000e-009,-8.52109435e-003
,,,1.50000000e-009,-8.40000059e-003
,,,1.52500000e-009,-8.24453183e-003
,,,1.55000000e-009,-8.07890682e-003
,,,1.57500000e-009,-7.90390681e-003
,,,1.60000000e-009,-7.72421930e-003
,,,1.62500000e-009,-7.54062553e-003
,,,1.65000000e-009,-7.35781302e-003
,,,1.67500000e-009,-7.17734426e-003
,,,1.70000000e-009,-7.00000050e-003
,,,1.72500000e-009,-6.81015673e-003
,,,1.75000000e-009,-6.62031297e-003
,,,1.77500000e-009,-6.43359421e-003
,,,1.80000000e-009,-6.25078169e-003
,,,1.82500000e-009,-6.07500043e-003
,,,1.85000000e-009,-5.90703167e-003
,,,1.87500000e-009,-5.74921916e-003
,,,1.90000000e-009,-5.60000040e-003
,,,1.92500000e-009,-5.45078164e-003
,,,1.95000000e-009,-5.30234413e-003
,,,1.97500000e-009,-5.15156286e-003
,,,2.00000000e-009,-5.00078160e-003
,,,2.02500000e-009,-4.84921909e-003
,,,2.05000000e-009,-4.69765658e-003
,,,2.07500000e-009,-4.54765657e-003
,,,2.10000000e-009,-4.40000031e-003
,,,2.12500000e-009,-4.25390655e-003
,,,2.15000000e-009,-4.10234404e-003
,,,2.17500000e-009,-3.94687528e-003
,,,2.20000000e-009,-3.78984402e-003
,,,2.22500000e-009,-3.63359401e-003
,,,2.25000000e-009,-3.48203150e-003
,,,2.27500000e-009,-3.33671899e-003
,,,2.30000000e-009,-3.20000023e-003
,,,2.32500000e-009,-3.07968772e-003
,,,2.35000000e-009,-2.96015646e-003
,,,2.37500000e-009,-2.83828145e-003
,,,2.40000000e-009,-2.71406269e-003
,,,2.42500000e-009,-2.58828143e-003
,,,2.45000000e-009,-2.46015642e-003
,,,2.47500000e-009,-2.33046891e-003
,,,2.50000000e-009,-2.20000016e-003
,,,2.52500000e-009,-2.08359390e-003
,,,2.55000000e-009,-1.96015639e-003
,,,2.57500000e-009,-1.83125013e-003
,,,2.60000000e-009,-1.69843762e-003
,,,2.62500000e-009,-1.56562511e-003
,,,2.65000000e-009,-1.43593760e-003
,,,2.67500000e-009,-1.31328134e-003
,,,2.70000000e-009,-1.20000008e-003
,,,2.72500000e-009,-1.11640633e-003
,,,2.75000000e-009,-1.03671882e-003
,,,2.77500000e-009,-9.60937568e-004
,,,2.80000000e-009,-8.86718813e-004
,,,2.82500000e-009,-8.13281308e-004
,,,2.85000000e-009,-7.41406302e-004
,,,2.87500000e-009,-6.69531297e-004
,,,2.90000000e-009,-6.00000042e-004
,,,2.92500000e-009,-5.49218789e-004
,,,2.95000000e-009,-4.96093785e-004
,,,2.97500000e-009,-4.39843781e-004
,,,3.00000000e-009,-3.82812527e-004
,,,3.02500000e-009,-3.28125023e-004
,,,3.05000000e-009,-2.77343770e-004
,,,3.07500000e-009,-2.33593767e-004
,,,3.10000000e-009,-2.00000014e-004
,,,3.12500000e-009,-1.92968764e-004
,,,3.15000000e-009,-1.91406264e-004
,,,3.17500000e-009,-1.92968764e-004
,,,3.20000000e-009,-1.96093764e-004
,,,3.22500000e-009,-1.99218764e-004
,,,3.25000000e-009,-2.00781264e-004
,,,3.27500000e-009,-2.01562514e-004
,,,3.30000000e-009,-2.00000014e-004
,,,3.32500000e-009,-2.07031265e-004
,,,3.35000000e-009,-2.08593765e-004
,,,3.37500000e-009,-2.06250015e-004
,,,3.40000000e-009,-2.00781264e-004
,,,3.42500000e-009,-1.94531264e-004
,,,3.45000000e-009,-1.91406264e-004
,,,3.47500000e-009,-1.92187514e-004
,,,3.50000000e-009,-2.00000014e-004
,,,3.52500000e-009,-2.21875016e-004
,,,3.55000000e-009,-2.47656268e-004
,,,3.57500000e-009,-2.75781270e-004
,,,3.60000000e-009,-3.05468772e-004
,,,3.62500000e-009,-3.34375024e-004
,,,3.65000000e-009,-3.60156275e-004
,,,3.67500000e-009,-3.82812527e-004
,,,3.70000000e-009,-4.00000028e-004
,,,3.72500000e-009,-4.13281279e-004
,,,3.75000000e-009,-4.20312530e-004
,,,3.77500000e-009,-4.21093780e-004
,,,3.80000000e-009,-4.17968780e-004
,,,3.82500000e-009,-4.12500029e-004
,,,3.85000000e-009,-4.07031279e-004
,,,3.87500000e-009,-4.01562528e-004
,,,3.90000000e-009,-4.00000028e-004
,,,3.92500000e-009,-4.00781278e-004
,,,3.95000000e-009,-4.04687529e-004
,,,3.97500000e-009,-4.10156279e-004
,,,4.00000000e-009,-4.14843779e-004
,,,4.02500000e-009,-4.17968780e-004
,,,4.05000000e-009,-4.17187530e-004
,,,4.07500000e-009,-4.11718779e-004
,,,4.10000000e-009,-4.00000028e-004
,,,4.12500000e-009,-3.79687527e-004
,,,4.15000000e-009,-3.54687525e-004
,,,4.17500000e-009,-3.26562523e-004
,,,4.20000000e-009,-2.96093771e-004
,,,4.22500000e-009,-2.66406269e-004
,,,4.25000000e-009,-2.39062517e-004
,,,4.27500000e-009,-2.16406265e-004
,,,4.30000000e-009,-2.00000014e-004
,,,4.32500000e-009,-1.89843763e-004
,,,4.35000000e-009,-1.86718763e-004
,,,4.37500000e-009,-1.87500013e-004
,,,4.40000000e-009,-1.92187514e-004
,,,4.42500000e-009,-1.96875014e-004
,,,4.45000000e-009,-2.00781264e-004
,,,4.47500000e-009,-2.02343764e-004
,,,4.50000000e-009,-2.00000014e-004
,,,4.52500000e-009,-1.92187514e-004
,,,4.55000000e-009,-1.82812513e-004
,,,4.57500000e-009,-1.72656262e-004
,,,4.60000000e-009,-1.64843762e-004
,,,4.62500000e-009,-1.61718761e-004
,,,4.65000000e-009,-1.64843762e-004
,,,4.67500000e-009,-1.77343763e-004
,,,4.70000000e-009,-2.00000014e-004
,,,4.72500000e-009,-2.29687516e-004
,,,4.75000000e-009,-2.65625019e-004
,,,4.77500000e-009,-3.03125021e-004
,,,4.80000000e-009,-3.39843774e-004
,,,4.82500000e-009,-3.70312526e-004
,,,4.85000000e-009,-3.92968778e-004
,,,4.87500000e-009,-4.02343778e-004
,,,4.90000000e-009,-4.00000028e-004
,,,4.92500000e-009,-3.82031277e-004
,,,4.95000000e-009,-3.53125025e-004
,,,4.97500000e-009,-3.17187522e-004
,,,5.00000000e-009,-2.78906270e-004
,,,5.02500000e-009,-2.43750017e-004
,,,5.05000000e-009,-2.16406265e-004
,,,5.07500000e-009,-2.00781264e-004
,,,5.10000000e-009,-2.00000014e-004
,,,5.12500000e-009,-2.12500015e-004
,,,5.15000000e-009,-2.38281267e-004
,,,5.17500000e-009,-2.72656269e-004
,,,5.20000000e-009,-3.11718772e-004
,,,5.22500000e-009,-3.48437525e-004
,,,5.25000000e-009,-3.78906277e-004
,,,5.27500000e-009,-3.96875028e-004
,,,5.30000000e-009,-4.00000028e-004
,,,5.32500000e-009,-3.81250027e-004
,,,5.35000000e-009,-3.46093774e-004
,,,5.37500000e-009,-2.96093771e-004
,,,5.40000000e-009,-2.36718767e-004
,,,5.42500000e-009,-1.71875012e-004
,,,5.45000000e-009,-1.07031258e-004
,,,5.47500000e-009,-4.84375034e-005
,,,5.50000000e-009,0.00000000e+000
,,,5.52500000e-009,3.43750024e-005
,,,5.55000000e-009,5.54687539e-005
,,,5.57500000e-009,6.32812545e-005
,,,5.60000000e-009,5.93750042e-005
,,,5.62500000e-009,4.76562534e-005
,,,5.65000000e-009,3.20312523e-005
,,,5.67500000e-009,1.48437511e-005
,,,5.70000000e-009,0.00000000e+000
,,,5.72500000e-009,-1.09375008e-005
,,,5.75000000e-009,-1.71875012e-005
,,,5.77500000e-009,-1.79687513e-005
,,,5.80000000e-009,-1.48437511e-005
,,,5.82500000e-009,-9.37500066e-006
,,,5.85000000e-009,-3.90625028e-006
,,,5.87500000e-009,-7.81250055e-007
,,,5.90000000e-009,0.00000000e+000
,,,5.92500000e-009,-4.68750033e-006
,,,5.95000000e-009,-1.17187508e-005
