RawData/SinglePhotoelectron/R5_2pt2B_5mV/wave034_Ch2.csv

"Record Length",1000,"Points",-7.72500000e-009,1.94531264e-004
"Sample Interval",2.50000000e-011,s,-7.70000000e-009,1.80468763e-004
"Trigger Point",309,"Samples",-7.67500000e-009,1.57031261e-004
"Trigger Time",9.76380165e-012,s,-7.65000000e-009,1.27343759e-004
"",,,-7.62500000e-009,9.45312567e-005
"Horizontal Offset",-7.72500000e-009,s,-7.60000000e-009,6.01562543e-005
,,,-7.57500000e-009,2.81250020e-005
,,,-7.55000000e-009,0.00000000e+000
,,,-7.52500000e-009,-2.34375017e-005
,,,-7.50000000e-009,-4.06250029e-005
,,,-7.47500000e-009,-5.00000035e-005
,,,-7.45000000e-009,-5.07812536e-005
,,,-7.42500000e-009,-4.53125032e-005
,,,-7.40000000e-009,-3.35937524e-005
,,,-7.37500000e-009,-1.79687513e-005
,,,-7.35000000e-009,0.00000000e+000
,,,-7.32500000e-009,1.56250011e-005
,,,-7.30000000e-009,2.96875021e-005
,,,-7.27500000e-009,3.90625028e-005
,,,-7.25000000e-009,4.37500031e-005
,,,-7.22500000e-009,4.21875030e-005
,,,-7.20000000e-009,3.43750024e-005
,,,-7.17500000e-009,2.03125014e-005
,,,-7.15000000e-009,0.00000000e+000
,,,-7.12500000e-009,-2.57812518e-005
,,,-7.10000000e-009,-5.46875039e-005
,,,-7.07500000e-009,-8.59375061e-005
,,,-7.05000000e-009,-1.15625008e-004
,,,-7.02500000e-009,-1.43750010e-004
,,,-7.00000000e-009,-1.67968762e-004
,,,-6.97500000e-009,-1.86718763e-004
,,,-6.95000000e-009,-2.00000014e-004
,,,-6.92500000e-009,-2.04687514e-004
,,,-6.90000000e-009,-2.05468765e-004
,,,-6.87500000e-009,-2.02343764e-004
,,,-6.85000000e-009,-1.96875014e-004
,,,-6.82500000e-009,-1.92187514e-004
,,,-6.80000000e-009,-1.89843763e-004
,,,-6.77500000e-009,-1.92187514e-004
,,,-6.75000000e-009,-2.00000014e-004
,,,-6.72500000e-009,-2.10937515e-004
,,,-6.70000000e-009,-2.28125016e-004
,,,-6.67500000e-009,-2.51562518e-004
,,,-6.65000000e-009,-2.79687520e-004
,,,-6.62500000e-009,-3.10156272e-004
,,,-6.60000000e-009,-3.42187524e-004
,,,-6.57500000e-009,-3.72656276e-004
,,,-6.55000000e-009,-4.00000028e-004
,,,-6.52500000e-009,-4.18750030e-004
,,,-6.50000000e-009,-4.31250031e-004
,,,-6.47500000e-009,-4.38281281e-004
,,,-6.45000000e-009,-4.39843781e-004
,,,-6.42500000e-009,-4.35156281e-004
,,,-6.40000000e-009,-4.27343780e-004
,,,-6.37500000e-009,-4.14843779e-004
,,,-6.35000000e-009,-4.00000028e-004
,,,-6.32500000e-009,-3.78906277e-004
,,,-6.30000000e-009,-3.56250025e-004
,,,-6.27500000e-009,-3.32812524e-004
,,,-6.25000000e-009,-3.07812522e-004
,,,-6.22500000e-009,-2.82812520e-004
,,,-6.20000000e-009,-2.56250018e-004
,,,-6.17500000e-009,-2.28125016e-004
,,,-6.15000000e-009,-2.00000014e-004
,,,-6.12500000e-009,-1.68750012e-004
,,,-6.10000000e-009,-1.37500010e-004
,,,-6.07500000e-009,-1.07812508e-004
,,,-6.05000000e-009,-7.96875056e-005
,,,-6.02500000e-009,-5.46875039e-005
,,,-6.00000000e-009,-3.20312523e-005
,,,-5.97500000e-009,-1.40625010e-005
,,,-5.95000000e-009,0.00000000e+000
,,,-5.92500000e-009,8.59375061e-006
,,,-5.90000000e-009,1.40625010e-005
,,,-5.87500000e-009,1.56250011e-005
,,,-5.85000000e-009,1.48437511e-005
,,,-5.82500000e-009,1.17187508e-005
,,,-5.80000000e-009,7.81250055e-006
,,,-5.77500000e-009,3.90625028e-006
,,,-5.75000000e-009,0.00000000e+000
,,,-5.72500000e-009,-3.90625028e-006
,,,-5.70000000e-009,-6.25000044e-006
,,,-5.67500000e-009,-7.81250055e-006
,,,-5.65000000e-009,-7.03125050e-006
,,,-5.62500000e-009,-6.25000044e-006
,,,-5.60000000e-009,-3.90625028e-006
,,,-5.57500000e-009,-1.56250011e-006
,,,-5.55000000e-009,0.00000000e+000
,,,-5.52500000e-009,0.00000000e+000
,,,-5.50000000e-009,0.00000000e+000
,,,-5.47500000e-009,7.81250055e-007
,,,-5.45000000e-009,7.81250055e-007
,,,-5.42500000e-009,0.00000000e+000
,,,-5.40000000e-009,0.00000000e+000
,,,-5.37500000e-009,0.00000000e+000
,,,-5.35000000e-009,0.00000000e+000
,,,-5.32500000e-009,-1.56250011e-006
,,,-5.30000000e-009,-2.34375017e-006
,,,-5.27500000e-009,-3.12500022e-006
,,,-5.25000000e-009,-3.12500022e-006
,,,-5.22500000e-009,-2.34375017e-006
,,,-5.20000000e-009,-1.56250011e-006
,,,-5.17500000e-009,-7.81250055e-007
,,,-5.15000000e-009,0.00000000e+000
,,,-5.12500000e-009,0.00000000e+000
,,,-5.10000000e-009,0.00000000e+000
,,,-5.07500000e-009,0.00000000e+000
,,,-5.05000000e-009,0.00000000e+000
,,,-5.02500000e-009,0.00000000e+000
,,,-5.00000000e-009,0.00000000e+000
,,,-4.97500000e-009,0.00000000e+000
,,,-4.95000000e-009,0.00000000e+000
,,,-4.92500000e-009,0.00000000e+000
,,,-4.90000000e-009,0.00000000e+000
,,,-4.87500000e-009,0.00000000e+000
,,,-4.85000000e-009,0.00000000e+000
,,,-4.82500000e-009,0.00000000e+000
,,,-4.80000000e-009,0.00000000e+000
,,,-4.77500000e-009,0.00000000e+000
,,,-4.75000000e-009,0.00000000e+000
,,,-4.72500000e-009,-7.81250055e-007
,,,-4.70000000e-009,-1.56250011e-006
,,,-4.67500000e-009,-2.34375017e-006
,,,-4.65000000e-009,-3.12500022e-006
,,,-4.62500000e-009,-3.12500022e-006
,,,-4.60000000e-009,-2.34375017e-006
,,,-4.57500000e-009,-1.56250011e-006
,,,-4.55000000e-009,0.00000000e+000
,,,-4.52500000e-009,7.81250055e-007
,,,-4.50000000e-009,2.34375017e-006
,,,-4.47500000e-009,3.12500022e-006
,,,-4.45000000e-009,3.90625028e-006
,,,-4.42500000e-009,3.90625028e-006
,,,-4.40000000e-009,3.12500022e-006
,,,-4.37500000e-009,1.56250011e-006
,,,-4.35000000e-009,0.00000000e+000
,,,-4.32500000e-009,-3.12500022e-006
,,,-4.30000000e-009,-7.03125050e-006
,,,-4.27500000e-009,-9.37500066e-006
,,,-4.25000000e-009,-1.17187508e-005
,,,-4.22500000e-009,-1.17187508e-005
,,,-4.20000000e-009,-1.01562507e-005
,,,-4.17500000e-009,-5.46875039e-006
,,,-4.15000000e-009,0.00000000e+000
,,,-4.12500000e-009,6.25000044e-006
,,,-4.10000000e-009,1.32812509e-005
,,,-4.07500000e-009,1.95312514e-005
,,,-4.05000000e-009,2.34375017e-005
,,,-4.02500000e-009,2.42187517e-005
,,,-4.00000000e-009,2.10937515e-005
,,,-3.97500000e-009,1.32812509e-005
,,,-3.95000000e-009,0.00000000e+000
,,,-3.92500000e-009,-2.03125014e-005
,,,-3.90000000e-009,-4.53125032e-005
,,,-3.87500000e-009,-7.34375052e-005
,,,-3.85000000e-009,-1.03125007e-004
,,,-3.82500000e-009,-1.32031259e-004
,,,-3.80000000e-009,-1.58593761e-004
,,,-3.77500000e-009,-1.82031263e-004
,,,-3.75000000e-009,-2.00000014e-004
,,,-3.72500000e-009,-2.10937515e-004
,,,-3.70000000e-009,-2.17187515e-004
,,,-3.67500000e-009,-2.17968765e-004
,,,-3.65000000e-009,-2.15625015e-004
,,,-3.62500000e-009,-2.11718765e-004
,,,-3.60000000e-009,-2.06250015e-004
,,,-3.57500000e-009,-2.02343764e-004
,,,-3.55000000e-009,-2.00000014e-004
,,,-3.52500000e-009,-1.98437514e-004
,,,-3.50000000e-009,-1.99218764e-004
,,,-3.47500000e-009,-2.00781264e-004
,,,-3.45000000e-009,-2.03906264e-004
,,,-3.42500000e-009,-2.06250015e-004
,,,-3.40000000e-009,-2.06250015e-004
,,,-3.37500000e-009,-2.04687514e-004
,,,-3.35000000e-009,-2.00000014e-004
,,,-3.32500000e-009,-1.90625013e-004
,,,-3.30000000e-009,-1.80468763e-004
,,,-3.27500000e-009,-1.71093762e-004
,,,-3.25000000e-009,-1.64843762e-004
,,,-3.22500000e-009,-1.62500012e-004
,,,-3.20000000e-009,-1.67187512e-004
,,,-3.17500000e-009,-1.79687513e-004
,,,-3.15000000e-009,-2.00000014e-004
,,,-3.12500000e-009,-2.25000016e-004
,,,-3.10000000e-009,-2.56250018e-004
,,,-3.07500000e-009,-2.90625021e-004
,,,-3.05000000e-009,-3.24218773e-004
,,,-3.02500000e-009,-3.54687525e-004
,,,-3.00000000e-009,-3.78906277e-004
,,,-2.97500000e-009,-3.94531278e-004
,,,-2.95000000e-009,-4.00000028e-004
,,,-2.92500000e-009,-3.89843778e-004
,,,-2.90000000e-009,-3.70312526e-004
,,,-2.87500000e-009,-3.42968774e-004
,,,-2.85000000e-009,-3.11718772e-004
,,,-2.82500000e-009,-2.78125020e-004
,,,-2.80000000e-009,-2.46875017e-004
,,,-2.77500000e-009,-2.19531266e-004
,,,-2.75000000e-009,-2.00000014e-004
,,,-2.72500000e-009,-1.85937513e-004
,,,-2.70000000e-009,-1.78906263e-004
,,,-2.67500000e-009,-1.79687513e-004
,,,-2.65000000e-009,-1.84375013e-004
,,,-2.62500000e-009,-1.91406264e-004
,,,-2.60000000e-009,-1.97656264e-004
,,,-2.57500000e-009,-2.01562514e-004
,,,-2.55000000e-009,-2.00000014e-004
,,,-2.52500000e-009,-1.89843763e-004
,,,-2.50000000e-009,-1.72656262e-004
,,,-2.47500000e-009,-1.48437511e-004
,,,-2.45000000e-009,-1.20312509e-004
,,,-2.42500000e-009,-8.82812562e-005
,,,-2.40000000e-009,-5.62500040e-005
,,,-2.37500000e-009,-2.57812518e-005
,,,-2.35000000e-009,0.00000000e+000
,,,-2.32500000e-009,1.95312514e-005
,,,-2.30000000e-009,3.28125023e-005
,,,-2.27500000e-009,3.98437528e-005
,,,-2.25000000e-009,3.98437528e-005
,,,-2.22500000e-009,3.43750024e-005
,,,-2.20000000e-009,2.50000018e-005
,,,-2.17500000e-009,1.25000009e-005
,,,-2.15000000e-009,0.00000000e+000
,,,-2.12500000e-009,-1.48437511e-005
,,,-2.10000000e-009,-2.81250020e-005
,,,-2.07500000e-009,-3.67187526e-005
,,,-2.05000000e-009,-4.14062529e-005
,,,-2.02500000e-009,-3.98437528e-005
,,,-2.00000000e-009,-3.28125023e-005
,,,-1.97500000e-009,-1.87500013e-005
,,,-1.95000000e-009,0.00000000e+000
,,,-1.92500000e-009,1.95312514e-005
,,,-1.90000000e-009,4.29687530e-005
,,,-1.87500000e-009,6.95312549e-005
,,,-1.85000000e-009,9.68750069e-005
,,,-1.82500000e-009,1.25000009e-004
,,,-1.80000000e-009,1.52343761e-004
,,,-1.77500000e-009,1.77343763e-004
,,,-1.75000000e-009,2.00000014e-004
,,,-1.72500000e-009,2.08593765e-004
,,,-1.70000000e-009,2.12500015e-004
,,,-1.67500000e-009,2.12500015e-004
,,,-1.65000000e-009,2.10156265e-004
,,,-1.62500000e-009,2.07031265e-004
,,,-1.60000000e-009,2.03906264e-004
,,,-1.57500000e-009,2.01562514e-004
,,,-1.55000000e-009,2.00000014e-004
,,,-1.52500000e-009,1.83593763e-004
,,,-1.50000000e-009,1.65625012e-004
,,,-1.47500000e-009,1.46093760e-004
,,,-1.45000000e-009,1.23437509e-004
,,,-1.42500000e-009,9.76562569e-005
,,,-1.40000000e-009,6.87500049e-005
,,,-1.37500000e-009,3.59375025e-005
,,,-1.35000000e-009,0.00000000e+000
,,,-1.32500000e-009,-5.62500040e-005
,,,-1.30000000e-009,-1.17187508e-004
,,,-1.27500000e-009,-1.78906263e-004
,,,-1.25000000e-009,-2.39062517e-004
,,,-1.22500000e-009,-2.93750021e-004
,,,-1.20000000e-009,-3.39843774e-004
,,,-1.17500000e-009,-3.75000027e-004
,,,-1.15000000e-009,-4.00000028e-004
,,,-1.12500000e-009,-4.31250031e-004
,,,-1.10000000e-009,-4.57812532e-004
,,,-1.07500000e-009,-4.79687534e-004
,,,-1.05000000e-009,-4.99218785e-004
,,,-1.02500000e-009,-5.17968787e-004
,,,-1.00000000e-009,-5.39843788e-004
,,,-9.75000000e-010,-5.65625040e-004
,,,-9.50000000e-010,-6.00000042e-004
,,,-9.25000000e-010,-6.63281297e-004
,,,-9.00000000e-010,-7.42187553e-004
,,,-8.75000000e-010,-8.33593809e-004
,,,-8.50000000e-010,-9.36718816e-004
,,,-8.25000000e-010,-1.04765632e-003
,,,-8.00000000e-010,-1.16406258e-003
,,,-7.75000000e-010,-1.28125009e-003
,,,-7.50000000e-010,-1.40000010e-003
,,,-7.25000000e-010,-1.52890636e-003
,,,-7.00000000e-010,-1.65859387e-003
,,,-6.75000000e-010,-1.78750013e-003
,,,-6.50000000e-010,-1.91562514e-003
,,,-6.25000000e-010,-2.04062514e-003
,,,-6.00000000e-010,-2.16328140e-003
,,,-5.75000000e-010,-2.28281266e-003
,,,-5.50000000e-010,-2.40000017e-003
,,,-5.25000000e-010,-2.51875018e-003
,,,-5.00000000e-010,-2.64140644e-003
,,,-4.75000000e-010,-2.76562520e-003
,,,-4.50000000e-010,-2.89296895e-003
,,,-4.25000000e-010,-3.02031271e-003
,,,-4.00000000e-010,-3.14843772e-003
,,,-3.75000000e-010,-3.27500023e-003
,,,-3.50000000e-010,-3.40000024e-003
,,,-3.25000000e-010,-3.51718775e-003
,,,-3.00000000e-010,-3.63750026e-003
,,,-2.75000000e-010,-3.76015652e-003
,,,-2.50000000e-010,-3.88515652e-003
,,,-2.25000000e-010,-4.01328153e-003
,,,-2.00000000e-010,-4.14218779e-003
,,,-1.75000000e-010,-4.27109405e-003
,,,-1.50000000e-010,-4.40000031e-003
,,,-1.25000000e-010,-4.51250032e-003
,,,-1.00000000e-010,-4.62421908e-003
,,,-7.50000000e-011,-4.73515659e-003
,,,-5.00000000e-011,-4.84375034e-003
,,,-2.50000000e-011,-4.94609410e-003
,,,0.00000000e+000,-5.04062536e-003
,,,2.50000000e-011,-5.12578161e-003
,,,5.00000000e-011,-5.20000037e-003
,,,7.50000000e-011,-5.23828162e-003
,,,1.00000000e-010,-5.26953162e-003
,,,1.25000000e-010,-5.29531287e-003
,,,1.50000000e-010,-5.31796913e-003
,,,1.75000000e-010,-5.33906288e-003
,,,2.00000000e-010,-5.35937538e-003
,,,2.25000000e-010,-5.37968788e-003
,,,2.50000000e-010,-5.40000038e-003
,,,2.75000000e-010,-5.39375038e-003
,,,3.00000000e-010,-5.38984413e-003
,,,3.25000000e-010,-5.38906288e-003
,,,3.50000000e-010,-5.39140663e-003
,,,3.75000000e-010,-5.39531288e-003
,,,4.00000000e-010,-5.39843788e-003
,,,4.25000000e-010,-5.40078163e-003
,,,4.50000000e-010,-5.40000038e-003
,,,4.75000000e-010,-5.36875038e-003
,,,5.00000000e-010,-5.33515663e-003
,,,5.25000000e-010,-5.30234413e-003
,,,5.50000000e-010,-5.27109412e-003
,,,5.75000000e-010,-5.24453162e-003
,,,6.00000000e-010,-5.22343787e-003
,,,6.25000000e-010,-5.20859412e-003
,,,6.50000000e-010,-5.20000037e-003
,,,6.75000000e-010,-5.17343787e-003
,,,7.00000000e-010,-5.15078161e-003
,,,7.25000000e-010,-5.13125036e-003
,,,7.50000000e-010,-5.11171911e-003
,,,7.75000000e-010,-5.09140661e-003
,,,8.00000000e-010,-5.06796911e-003
,,,8.25000000e-010,-5.03828161e-003
,,,8.50000000e-010,-5.00000035e-003
,,,8.75000000e-010,-4.93203160e-003
,,,9.00000000e-010,-4.85078159e-003
,,,9.25000000e-010,-4.75859409e-003
,,,9.50000000e-010,-4.65703158e-003
,,,9.75000000e-010,-4.54843782e-003
,,,1.00000000e-009,-4.43437531e-003
,,,1.02500000e-009,-4.31796906e-003
,,,1.05000000e-009,-4.20000030e-003
,,,1.07500000e-009,-4.06953154e-003
,,,1.10000000e-009,-3.93828153e-003
,,,1.12500000e-009,-3.80703152e-003
,,,1.15000000e-009,-3.67812526e-003
,,,1.17500000e-009,-3.55234400e-003
,,,1.20000000e-009,-3.42968774e-003
,,,1.22500000e-009,-3.31250023e-003
,,,1.25000000e-009,-3.20000023e-003
,,,1.27500000e-009,-3.08828147e-003
,,,1.30000000e-009,-2.97812521e-003
,,,1.32500000e-009,-2.87031270e-003
,,,1.35000000e-009,-2.76484395e-003
,,,1.37500000e-009,-2.66406269e-003
,,,1.40000000e-009,-2.56875018e-003
,,,1.42500000e-009,-2.48046893e-003
,,,1.45000000e-009,-2.40000017e-003
,,,1.47500000e-009,-2.32812516e-003
,,,1.50000000e-009,-2.26093766e-003
,,,1.52500000e-009,-2.20000016e-003
,,,1.55000000e-009,-2.14453140e-003
,,,1.57500000e-009,-2.09687515e-003
,,,1.60000000e-009,-2.05703140e-003
,,,1.62500000e-009,-2.02500014e-003
,,,1.65000000e-009,-2.00000014e-003
,,,1.67500000e-009,-1.98125014e-003
,,,1.70000000e-009,-1.95859389e-003
,,,1.72500000e-009,-1.92890639e-003
,,,1.75000000e-009,-1.88828138e-003
,,,1.77500000e-009,-1.83593763e-003
,,,1.80000000e-009,-1.77031263e-003
,,,1.82500000e-009,-1.69140637e-003
,,,1.85000000e-009,-1.60000011e-003
,,,1.87500000e-009,-1.50468761e-003
,,,1.90000000e-009,-1.39843760e-003
,,,1.92500000e-009,-1.28515634e-003
,,,1.95000000e-009,-1.17031258e-003
,,,1.97500000e-009,-1.05937507e-003
,,,2.00000000e-009,-9.57812568e-004
,,,2.02500000e-009,-8.70312562e-004
,,,2.05000000e-009,-8.00000057e-004
,,,2.07500000e-009,-7.58593804e-004
,,,2.10000000e-009,-7.29687552e-004
,,,2.12500000e-009,-7.10937550e-004
,,,2.15000000e-009,-6.96093799e-004
,,,2.17500000e-009,-6.82031298e-004
,,,2.20000000e-009,-6.64062547e-004
,,,2.22500000e-009,-6.37500045e-004
,,,2.25000000e-009,-6.00000042e-004
,,,2.27500000e-009,-5.57812539e-004
,,,2.30000000e-009,-5.00781285e-004
,,,2.32500000e-009,-4.28906280e-004
,,,2.35000000e-009,-3.46093774e-004
,,,2.37500000e-009,-2.56250018e-004
,,,2.40000000e-009,-1.64843762e-004
,,,2.42500000e-009,-7.73437555e-005
,,,2.45000000e-009,0.00000000e+000
,,,2.47500000e-009,5.31250038e-005
,,,2.50000000e-009,9.21875065e-005
,,,2.52500000e-009,1.14062508e-004
,,,2.55000000e-009,1.20312509e-004
,,,2.57500000e-009,1.10156258e-004
,,,2.60000000e-009,8.59375061e-005
,,,2.62500000e-009,4.76562534e-005
,,,2.65000000e-009,0.00000000e+000
,,,2.67500000e-009,-6.40625045e-005
,,,2.70000000e-009,-1.28906259e-004
,,,2.72500000e-009,-1.91406264e-004
,,,2.75000000e-009,-2.49218768e-004
,,,2.77500000e-009,-3.00000021e-004
,,,2.80000000e-009,-3.42187524e-004
,,,2.82500000e-009,-3.75781277e-004
,,,2.85000000e-009,-4.00000028e-004
,,,2.87500000e-009,-4.18750030e-004
,,,2.90000000e-009,-4.28125030e-004
,,,2.92500000e-009,-4.29687530e-004
,,,2.95000000e-009,-4.25781280e-004
,,,2.97500000e-009,-4.18750030e-004
,,,3.00000000e-009,-4.10937529e-004
,,,3.02500000e-009,-4.03906279e-004
,,,3.05000000e-009,-4.00000028e-004
,,,3.07500000e-009,-4.00000028e-004
,,,3.10000000e-009,-4.03125029e-004
,,,3.12500000e-009,-4.07812529e-004
,,,3.15000000e-009,-4.13281279e-004
,,,3.17500000e-009,-4.16406279e-004
,,,3.20000000e-009,-4.15625029e-004
,,,3.22500000e-009,-4.10937529e-004
,,,3.25000000e-009,-4.00000028e-004
,,,3.27500000e-009,-3.82812527e-004
,,,3.30000000e-009,-3.60937526e-004
,,,3.32500000e-009,-3.33593774e-004
,,,3.35000000e-009,-3.03906272e-004
,,,3.37500000e-009,-2.73437519e-004
,,,3.40000000e-009,-2.44531267e-004
,,,3.42500000e-009,-2.19531266e-004
,,,3.45000000e-009,-2.00000014e-004
,,,3.47500000e-009,-1.85937513e-004
,,,3.50000000e-009,-1.78906263e-004
,,,3.52500000e-009,-1.78125013e-004
,,,3.55000000e-009,-1.81250013e-004
,,,3.57500000e-009,-1.86718763e-004
,,,3.60000000e-009,-1.92187514e-004
,,,3.62500000e-009,-1.97656264e-004
,,,3.65000000e-009,-2.00000014e-004
,,,3.67500000e-009,-1.99218764e-004
,,,3.70000000e-009,-1.96093764e-004
,,,3.72500000e-009,-1.92187514e-004
,,,3.75000000e-009,-1.87500013e-004
,,,3.77500000e-009,-1.85156263e-004
,,,3.80000000e-009,-1.85156263e-004
,,,3.82500000e-009,-1.89843763e-004
,,,3.85000000e-009,-2.00000014e-004
,,,3.87500000e-009,-2.16406265e-004
,,,3.90000000e-009,-2.37500017e-004
,,,3.92500000e-009,-2.63281269e-004
,,,3.95000000e-009,-2.92187521e-004
,,,3.97500000e-009,-3.21875023e-004
,,,4.00000000e-009,-3.50781275e-004
,,,4.02500000e-009,-3.76562527e-004
,,,4.05000000e-009,-4.00000028e-004
,,,4.07500000e-009,-4.16406279e-004
,,,4.10000000e-009,-4.26562530e-004
,,,4.12500000e-009,-4.31250031e-004
,,,4.15000000e-009,-4.31250031e-004
,,,4.17500000e-009,-4.26562530e-004
,,,4.20000000e-009,-4.18750030e-004
,,,4.22500000e-009,-4.09375029e-004
,,,4.25000000e-009,-4.00000028e-004
,,,4.27500000e-009,-3.89843778e-004
,,,4.30000000e-009,-3.82031277e-004
,,,4.32500000e-009,-3.77343777e-004
,,,4.35000000e-009,-3.75781277e-004
,,,4.37500000e-009,-3.77343777e-004
,,,4.40000000e-009,-3.82031277e-004
,,,4.42500000e-009,-3.89843778e-004
,,,4.45000000e-009,-4.00000028e-004
,,,4.47500000e-009,-4.07812529e-004
,,,4.50000000e-009,-4.14843779e-004
,,,4.52500000e-009,-4.21093780e-004
,,,4.55000000e-009,-4.24218780e-004
,,,4.57500000e-009,-4.24218780e-004
,,,4.60000000e-009,-4.21093780e-004
,,,4.62500000e-009,-4.12500029e-004
,,,4.65000000e-009,-4.00000028e-004
,,,4.67500000e-009,-3.79687527e-004
,,,4.70000000e-009,-3.55468775e-004
,,,4.72500000e-009,-3.28906273e-004
,,,4.75000000e-009,-3.00781271e-004
,,,4.77500000e-009,-2.71875019e-004
,,,4.80000000e-009,-2.45312517e-004
,,,4.82500000e-009,-2.20312516e-004
,,,4.85000000e-009,-2.00000014e-004
,,,4.87500000e-009,-1.82812513e-004
,,,4.90000000e-009,-1.71093762e-004
,,,4.92500000e-009,-1.64843762e-004
,,,4.95000000e-009,-1.64062512e-004
,,,4.97500000e-009,-1.67968762e-004
,,,5.00000000e-009,-1.75781262e-004
,,,5.02500000e-009,-1.86718763e-004
,,,5.05000000e-009,-2.00000014e-004
,,,5.07500000e-009,-2.12500015e-004
,,,5.10000000e-009,-2.23437516e-004
,,,5.12500000e-009,-2.31250016e-004
,,,5.15000000e-009,-2.35156267e-004
,,,5.17500000e-009,-2.34375017e-004
,,,5.20000000e-009,-2.28125016e-004
,,,5.22500000e-009,-2.16406265e-004
,,,5.25000000e-009,-2.00000014e-004
,,,5.27500000e-009,-1.78125013e-004
,,,5.30000000e-009,-1.52343761e-004
,,,5.32500000e-009,-1.24218759e-004
,,,5.35000000e-009,-9.53125067e-005
,,,5.37500000e-009,-6.71875048e-005
,,,5.40000000e-009,-4.06250029e-005
,,,5.42500000e-009,-1.79687513e-005
,,,5.45000000e-009,0.00000000e+000
,,,5.47500000e-009,1.17187508e-005
,,,5.50000000e-009,1.79687513e-005
,,,5.52500000e-009,2.10937515e-005
,,,5.55000000e-009,2.03125014e-005
,,,5.57500000e-009,1.64062512e-005
,,,5.60000000e-009,1.09375008e-005
,,,5.62500000e-009,5.46875039e-006
,,,5.65000000e-009,0.00000000e+000
,,,5.67500000e-009,-7.03125050e-006
,,,5.70000000e-009,-1.17187508e-005
,,,5.72500000e-009,-1.48437511e-005
,,,5.75000000e-009,-1.48437511e-005
,,,5.77500000e-009,-1.32812509e-005
,,,5.80000000e-009,-9.37500066e-006
,,,5.82500000e-009,-4.68750033e-006
,,,5.85000000e-009,0.00000000e+000
,,,5.87500000e-009,3.12500022e-006
,,,5.90000000e-009,5.46875039e-006
