RawData/SinglePhotoelectron/R5_2pt2B_5mV/wave010_Ch2.csv

"Record Length",1000,"Points",-7.72500000e-009,1.97656264e-004
"Sample Interval",2.50000000e-011,s,-7.70000000e-009,1.92187514e-004
"Trigger Point",309,"Samples",-7.67500000e-009,1.83593763e-004
"Trigger Time",2.37482609e-011,s,-7.65000000e-009,1.76562512e-004
"",,,-7.62500000e-009,1.71875012e-004
"Horizontal Offset",-7.72500000e-009,s,-7.60000000e-009,1.73437512e-004
,,,-7.57500000e-009,1.82812513e-004
,,,-7.55000000e-009,2.00000014e-004
,,,-7.52500000e-009,2.21093766e-004
,,,-7.50000000e-009,2.50000018e-004
,,,-7.47500000e-009,2.82812520e-004
,,,-7.45000000e-009,3.16406272e-004
,,,-7.42500000e-009,3.48437525e-004
,,,-7.40000000e-009,3.75000027e-004
,,,-7.37500000e-009,3.92187528e-004
,,,-7.35000000e-009,4.00000028e-004
,,,-7.32500000e-009,3.89062528e-004
,,,-7.30000000e-009,3.69531276e-004
,,,-7.27500000e-009,3.41406274e-004
,,,-7.25000000e-009,3.08593772e-004
,,,-7.22500000e-009,2.75000019e-004
,,,-7.20000000e-009,2.44531267e-004
,,,-7.17500000e-009,2.17968765e-004
,,,-7.15000000e-009,2.00000014e-004
,,,-7.12500000e-009,1.85156263e-004
,,,-7.10000000e-009,1.78906263e-004
,,,-7.07500000e-009,1.79687513e-004
,,,-7.05000000e-009,1.85156263e-004
,,,-7.02500000e-009,1.92968764e-004
,,,-7.00000000e-009,1.99218764e-004
,,,-6.97500000e-009,2.02343764e-004
,,,-6.95000000e-009,2.00000014e-004
,,,-6.92500000e-009,1.85937513e-004
,,,-6.90000000e-009,1.65625012e-004
,,,-6.87500000e-009,1.38281260e-004
,,,-6.85000000e-009,1.07812508e-004
,,,-6.82500000e-009,7.65625054e-005
,,,-6.80000000e-009,4.60937533e-005
,,,-6.77500000e-009,2.03125014e-005
,,,-6.75000000e-009,0.00000000e+000
,,,-6.72500000e-009,-1.40625010e-005
,,,-6.70000000e-009,-2.10937515e-005
,,,-6.67500000e-009,-2.26562516e-005
,,,-6.65000000e-009,-1.95312514e-005
,,,-6.62500000e-009,-1.32812509e-005
,,,-6.60000000e-009,-6.25000044e-006
,,,-6.57500000e-009,-7.81250055e-007
,,,-6.55000000e-009,0.00000000e+000
,,,-6.52500000e-009,-4.68750033e-006
,,,-6.50000000e-009,-1.64062512e-005
,,,-6.47500000e-009,-3.51562525e-005
,,,-6.45000000e-009,-6.01562543e-005
,,,-6.42500000e-009,-9.06250064e-005
,,,-6.40000000e-009,-1.25000009e-004
,,,-6.37500000e-009,-1.61718761e-004
,,,-6.35000000e-009,-2.00000014e-004
,,,-6.32500000e-009,-2.34375017e-004
,,,-6.30000000e-009,-2.66406269e-004
,,,-6.27500000e-009,-2.96875021e-004
,,,-6.25000000e-009,-3.24218773e-004
,,,-6.22500000e-009,-3.48437525e-004
,,,-6.20000000e-009,-3.68750026e-004
,,,-6.17500000e-009,-3.85937527e-004
,,,-6.15000000e-009,-4.00000028e-004
,,,-6.12500000e-009,-4.07031279e-004
,,,-6.10000000e-009,-4.12500029e-004
,,,-6.07500000e-009,-4.14843779e-004
,,,-6.05000000e-009,-4.15625029e-004
,,,-6.02500000e-009,-4.14062529e-004
,,,-6.00000000e-009,-4.10937529e-004
,,,-5.97500000e-009,-4.05468779e-004
,,,-5.95000000e-009,-4.00000028e-004
,,,-5.92500000e-009,-3.90625028e-004
,,,-5.90000000e-009,-3.83593777e-004
,,,-5.87500000e-009,-3.78125027e-004
,,,-5.85000000e-009,-3.75781277e-004
,,,-5.82500000e-009,-3.76562527e-004
,,,-5.80000000e-009,-3.81250027e-004
,,,-5.77500000e-009,-3.89062528e-004
,,,-5.75000000e-009,-4.00000028e-004
,,,-5.72500000e-009,-4.09375029e-004
,,,-5.70000000e-009,-4.18750030e-004
,,,-5.67500000e-009,-4.27343780e-004
,,,-5.65000000e-009,-4.32812531e-004
,,,-5.62500000e-009,-4.34375031e-004
,,,-5.60000000e-009,-4.28906280e-004
,,,-5.57500000e-009,-4.17968780e-004
,,,-5.55000000e-009,-4.00000028e-004
,,,-5.52500000e-009,-3.72656276e-004
,,,-5.50000000e-009,-3.42187524e-004
,,,-5.47500000e-009,-3.09375022e-004
,,,-5.45000000e-009,-2.76562520e-004
,,,-5.42500000e-009,-2.46875017e-004
,,,-5.40000000e-009,-2.23437516e-004
,,,-5.37500000e-009,-2.07031265e-004
,,,-5.35000000e-009,-2.00000014e-004
,,,-5.32500000e-009,-2.02343764e-004
,,,-5.30000000e-009,-2.14843765e-004
,,,-5.27500000e-009,-2.35937517e-004
,,,-5.25000000e-009,-2.64062519e-004
,,,-5.22500000e-009,-2.96875021e-004
,,,-5.20000000e-009,-3.32031274e-004
,,,-5.17500000e-009,-3.67187526e-004
,,,-5.15000000e-009,-4.00000028e-004
,,,-5.12500000e-009,-4.25781280e-004
,,,-5.10000000e-009,-4.45312532e-004
,,,-5.07500000e-009,-4.56250032e-004
,,,-5.05000000e-009,-4.59375033e-004
,,,-5.02500000e-009,-4.54687532e-004
,,,-5.00000000e-009,-4.42187531e-004
,,,-4.97500000e-009,-4.23437530e-004
,,,-4.95000000e-009,-4.00000028e-004
,,,-4.92500000e-009,-3.71875026e-004
,,,-4.90000000e-009,-3.42187524e-004
,,,-4.87500000e-009,-3.11718772e-004
,,,-4.85000000e-009,-2.83593770e-004
,,,-4.82500000e-009,-2.57031268e-004
,,,-4.80000000e-009,-2.33593767e-004
,,,-4.77500000e-009,-2.14843765e-004
,,,-4.75000000e-009,-2.00000014e-004
,,,-4.72500000e-009,-1.89062513e-004
,,,-4.70000000e-009,-1.82812513e-004
,,,-4.67500000e-009,-1.79687513e-004
,,,-4.65000000e-009,-1.79687513e-004
,,,-4.62500000e-009,-1.82812513e-004
,,,-4.60000000e-009,-1.87500013e-004
,,,-4.57500000e-009,-1.93750014e-004
,,,-4.55000000e-009,-2.00000014e-004
,,,-4.52500000e-009,-2.05468765e-004
,,,-4.50000000e-009,-2.09375015e-004
,,,-4.47500000e-009,-2.11718765e-004
,,,-4.45000000e-009,-2.12500015e-004
,,,-4.42500000e-009,-2.10937515e-004
,,,-4.40000000e-009,-2.08593765e-004
,,,-4.37500000e-009,-2.03906264e-004
,,,-4.35000000e-009,-2.00000014e-004
,,,-4.32500000e-009,-1.93750014e-004
,,,-4.30000000e-009,-1.89062513e-004
,,,-4.27500000e-009,-1.85156263e-004
,,,-4.25000000e-009,-1.83593763e-004
,,,-4.22500000e-009,-1.83593763e-004
,,,-4.20000000e-009,-1.86718763e-004
,,,-4.17500000e-009,-1.92187514e-004
,,,-4.15000000e-009,-2.00000014e-004
,,,-4.12500000e-009,-2.08593765e-004
,,,-4.10000000e-009,-2.17968765e-004
,,,-4.07500000e-009,-2.25781266e-004
,,,-4.05000000e-009,-2.30468766e-004
,,,-4.02500000e-009,-2.30468766e-004
,,,-4.00000000e-009,-2.26562516e-004
,,,-3.97500000e-009,-2.15625015e-004
,,,-3.95000000e-009,-2.00000014e-004
,,,-3.92500000e-009,-1.78906263e-004
,,,-3.90000000e-009,-1.53125011e-004
,,,-3.87500000e-009,-1.25000009e-004
,,,-3.85000000e-009,-9.53125067e-005
,,,-3.82500000e-009,-6.64062547e-005
,,,-3.80000000e-009,-3.98437528e-005
,,,-3.77500000e-009,-1.71875012e-005
,,,-3.75000000e-009,0.00000000e+000
,,,-3.72500000e-009,9.37500066e-006
,,,-3.70000000e-009,1.40625010e-005
,,,-3.67500000e-009,1.40625010e-005
,,,-3.65000000e-009,1.17187508e-005
,,,-3.62500000e-009,7.03125050e-006
,,,-3.60000000e-009,3.12500022e-006
,,,-3.57500000e-009,0.00000000e+000
,,,-3.55000000e-009,0.00000000e+000
,,,-3.52500000e-009,0.00000000e+000
,,,-3.50000000e-009,3.12500022e-006
,,,-3.47500000e-009,7.03125050e-006
,,,-3.45000000e-009,1.17187508e-005
,,,-3.42500000e-009,1.40625010e-005
,,,-3.40000000e-009,1.40625010e-005
,,,-3.37500000e-009,9.37500066e-006
,,,-3.35000000e-009,0.00000000e+000
,,,-3.32500000e-009,-1.56250011e-005
,,,-3.30000000e-009,-3.59375025e-005
,,,-3.27500000e-009,-6.09375043e-005
,,,-3.25000000e-009,-8.82812562e-005
,,,-3.22500000e-009,-1.17968758e-004
,,,-3.20000000e-009,-1.47656260e-004
,,,-3.17500000e-009,-1.75000012e-004
,,,-3.15000000e-009,-2.00000014e-004
,,,-3.12500000e-009,-2.17187515e-004
,,,-3.10000000e-009,-2.29687516e-004
,,,-3.07500000e-009,-2.35156267e-004
,,,-3.05000000e-009,-2.35156267e-004
,,,-3.02500000e-009,-2.30468766e-004
,,,-3.00000000e-009,-2.22656266e-004
,,,-2.97500000e-009,-2.11718765e-004
,,,-2.95000000e-009,-2.00000014e-004
,,,-2.92500000e-009,-1.86718763e-004
,,,-2.90000000e-009,-1.75000012e-004
,,,-2.87500000e-009,-1.67187512e-004
,,,-2.85000000e-009,-1.63281262e-004
,,,-2.82500000e-009,-1.64843762e-004
,,,-2.80000000e-009,-1.71875012e-004
,,,-2.77500000e-009,-1.83593763e-004
,,,-2.75000000e-009,-2.00000014e-004
,,,-2.72500000e-009,-2.14843765e-004
,,,-2.70000000e-009,-2.30468766e-004
,,,-2.67500000e-009,-2.42968767e-004
,,,-2.65000000e-009,-2.51562518e-004
,,,-2.62500000e-009,-2.53125018e-004
,,,-2.60000000e-009,-2.45312517e-004
,,,-2.57500000e-009,-2.28125016e-004
,,,-2.55000000e-009,-2.00000014e-004
,,,-2.52500000e-009,-1.59375011e-004
,,,-2.50000000e-009,-1.10937508e-004
,,,-2.47500000e-009,-5.70312540e-005
,,,-2.45000000e-009,0.00000000e+000
,,,-2.42500000e-009,5.70312540e-005
,,,-2.40000000e-009,1.10937508e-004
,,,-2.37500000e-009,1.59375011e-004
,,,-2.35000000e-009,2.00000014e-004
,,,-2.32500000e-009,2.28906266e-004
,,,-2.30000000e-009,2.47656268e-004
,,,-2.27500000e-009,2.55468768e-004
,,,-2.25000000e-009,2.54687518e-004
,,,-2.22500000e-009,2.46875017e-004
,,,-2.20000000e-009,2.33593767e-004
,,,-2.17500000e-009,2.16406265e-004
,,,-2.15000000e-009,2.00000014e-004
,,,-2.12500000e-009,1.81250013e-004
,,,-2.10000000e-009,1.67187512e-004
,,,-2.07500000e-009,1.58593761e-004
,,,-2.05000000e-009,1.56250011e-004
,,,-2.02500000e-009,1.59375011e-004
,,,-2.00000000e-009,1.68750012e-004
,,,-1.97500000e-009,1.82812513e-004
,,,-1.95000000e-009,2.00000014e-004
,,,-1.92500000e-009,2.16406265e-004
,,,-1.90000000e-009,2.32031266e-004
,,,-1.87500000e-009,2.44531267e-004
,,,-1.85000000e-009,2.51562518e-004
,,,-1.82500000e-009,2.51562518e-004
,,,-1.80000000e-009,2.42968767e-004
,,,-1.77500000e-009,2.25781266e-004
,,,-1.75000000e-009,2.00000014e-004
,,,-1.72500000e-009,1.63281262e-004
,,,-1.70000000e-009,1.22656259e-004
,,,-1.67500000e-009,8.28125059e-005
,,,-1.65000000e-009,4.60937533e-005
,,,-1.62500000e-009,1.64062512e-005
,,,-1.60000000e-009,-1.56250011e-006
,,,-1.57500000e-009,-7.03125050e-006
,,,-1.55000000e-009,0.00000000e+000
,,,-1.52500000e-009,1.48437511e-005
,,,-1.50000000e-009,3.98437528e-005
,,,-1.47500000e-009,7.10937550e-005
,,,-1.45000000e-009,1.06250008e-004
,,,-1.42500000e-009,1.40625010e-004
,,,-1.40000000e-009,1.69531262e-004
,,,-1.37500000e-009,1.89843763e-004
,,,-1.35000000e-009,2.00000014e-004
,,,-1.32500000e-009,1.82812513e-004
,,,-1.30000000e-009,1.53125011e-004
,,,-1.27500000e-009,1.14843758e-004
,,,-1.25000000e-009,7.42187553e-005
,,,-1.22500000e-009,3.67187526e-005
,,,-1.20000000e-009,9.37500066e-006
,,,-1.17500000e-009,-3.12500022e-006
,,,-1.15000000e-009,0.00000000e+000
,,,-1.12500000e-009,2.34375017e-006
,,,-1.10000000e-009,1.71875012e-005
,,,-1.07500000e-009,4.37500031e-005
,,,-1.05000000e-009,7.65625054e-005
,,,-1.02500000e-009,1.14062508e-004
,,,-1.00000000e-009,1.49218761e-004
,,,-9.75000000e-010,1.79687513e-004
,,,-9.50000000e-010,2.00000014e-004
,,,-9.25000000e-010,1.78906263e-004
,,,-9.00000000e-010,1.41406260e-004
,,,-8.75000000e-010,8.90625063e-005
,,,-8.50000000e-010,2.89062520e-005
,,,-8.25000000e-010,-3.43750024e-005
,,,-8.00000000e-010,-9.53125067e-005
,,,-7.75000000e-010,-1.50781261e-004
,,,-7.50000000e-010,-2.00000014e-004
,,,-7.25000000e-010,-2.69531269e-004
,,,-7.00000000e-010,-3.40625024e-004
,,,-6.75000000e-010,-4.16406279e-004
,,,-6.50000000e-010,-5.00781285e-004
,,,-6.25000000e-010,-5.96875042e-004
,,,-6.00000000e-010,-7.10156300e-004
,,,-5.75000000e-010,-8.43750060e-004
,,,-5.50000000e-010,-1.00000007e-003
,,,-5.25000000e-010,-1.20000008e-003
,,,-5.00000000e-010,-1.42265635e-003
,,,-4.75000000e-010,-1.66093762e-003
,,,-4.50000000e-010,-1.90703138e-003
,,,-4.25000000e-010,-2.15156265e-003
,,,-4.00000000e-010,-2.38593767e-003
,,,-3.75000000e-010,-2.60390643e-003
,,,-3.50000000e-010,-2.80000020e-003
,,,-3.25000000e-010,-2.97656271e-003
,,,-3.00000000e-010,-3.13671897e-003
,,,-2.75000000e-010,-3.28203148e-003
,,,-2.50000000e-010,-3.41875024e-003
,,,-2.25000000e-010,-3.55390650e-003
,,,-2.00000000e-010,-3.69140651e-003
,,,-1.75000000e-010,-3.83906277e-003
,,,-1.50000000e-010,-4.00000028e-003
,,,-1.25000000e-010,-4.16875030e-003
,,,-1.00000000e-010,-4.35781281e-003
,,,-7.50000000e-011,-4.56250032e-003
,,,-5.00000000e-011,-4.77812534e-003
,,,-2.50000000e-011,-4.99765660e-003
,,,0.00000000e+000,-5.21328162e-003
,,,2.50000000e-011,-5.41562538e-003
,,,5.00000000e-011,-5.60000040e-003
,,,7.50000000e-011,-5.73593791e-003
,,,1.00000000e-010,-5.85078166e-003
,,,1.25000000e-010,-5.94453167e-003
,,,1.50000000e-010,-6.02109418e-003
,,,1.75000000e-010,-6.08125043e-003
,,,2.00000000e-010,-6.12890668e-003
,,,2.25000000e-010,-6.16718794e-003
,,,2.50000000e-010,-6.20000044e-003
,,,2.75000000e-010,-6.19687544e-003
,,,3.00000000e-010,-6.20000044e-003
,,,3.25000000e-010,-6.21171919e-003
,,,3.50000000e-010,-6.23359419e-003
,,,3.75000000e-010,-6.26640669e-003
,,,4.00000000e-010,-6.30625045e-003
,,,4.25000000e-010,-6.35234420e-003
,,,4.50000000e-010,-6.40000045e-003
,,,4.75000000e-010,-6.41093795e-003
,,,5.00000000e-010,-6.42187545e-003
,,,5.25000000e-010,-6.43046921e-003
,,,5.50000000e-010,-6.43671921e-003
,,,5.75000000e-010,-6.43750046e-003
,,,6.00000000e-010,-6.43281296e-003
,,,6.25000000e-010,-6.42031295e-003
,,,6.50000000e-010,-6.40000045e-003
,,,6.75000000e-010,-6.34062545e-003
,,,7.00000000e-010,-6.27812544e-003
,,,7.25000000e-010,-6.21484419e-003
,,,7.50000000e-010,-6.15546919e-003
,,,7.75000000e-010,-6.10312543e-003
,,,8.00000000e-010,-6.05859418e-003
,,,8.25000000e-010,-6.02500043e-003
,,,8.50000000e-010,-6.00000042e-003
,,,8.75000000e-010,-5.95703167e-003
,,,9.00000000e-010,-5.91796917e-003
,,,9.25000000e-010,-5.88125042e-003
,,,9.50000000e-010,-5.84375041e-003
,,,9.75000000e-010,-5.80000041e-003
,,,1.00000000e-009,-5.74765666e-003
,,,1.02500000e-009,-5.68125040e-003
,,,1.05000000e-009,-5.60000040e-003
,,,1.07500000e-009,-5.48203164e-003
,,,1.10000000e-009,-5.34609413e-003
,,,1.12500000e-009,-5.19531287e-003
,,,1.15000000e-009,-5.03437536e-003
,,,1.17500000e-009,-4.86875034e-003
,,,1.20000000e-009,-4.70468783e-003
,,,1.22500000e-009,-4.54687532e-003
,,,1.25000000e-009,-4.40000031e-003
,,,1.27500000e-009,-4.25937530e-003
,,,1.30000000e-009,-4.13125029e-003
,,,1.32500000e-009,-4.01562528e-003
,,,1.35000000e-009,-3.91328153e-003
,,,1.37500000e-009,-3.82265652e-003
,,,1.40000000e-009,-3.74140651e-003
,,,1.42500000e-009,-3.66796901e-003
,,,1.45000000e-009,-3.60000025e-003
,,,1.47500000e-009,-3.53125025e-003
,,,1.50000000e-009,-3.45937524e-003
,,,1.52500000e-009,-3.38359399e-003
,,,1.55000000e-009,-3.30468773e-003
,,,1.57500000e-009,-3.22578148e-003
,,,1.60000000e-009,-3.14687522e-003
,,,1.62500000e-009,-3.07187522e-003
,,,1.65000000e-009,-3.00000021e-003
,,,1.67500000e-009,-2.93359396e-003
,,,1.70000000e-009,-2.86562520e-003
,,,1.72500000e-009,-2.79531270e-003
,,,1.75000000e-009,-2.72187519e-003
,,,1.77500000e-009,-2.64531269e-003
,,,1.80000000e-009,-2.56562518e-003
,,,1.82500000e-009,-2.48359393e-003
,,,1.85000000e-009,-2.40000017e-003
,,,1.87500000e-009,-2.32031266e-003
,,,1.90000000e-009,-2.23671891e-003
,,,1.92500000e-009,-2.15156265e-003
,,,1.95000000e-009,-2.06718765e-003
,,,1.97500000e-009,-1.98750014e-003
,,,2.00000000e-009,-1.91484389e-003
,,,2.02500000e-009,-1.85234388e-003
,,,2.05000000e-009,-1.80000013e-003
,,,2.07500000e-009,-1.76484387e-003
,,,2.10000000e-009,-1.73125012e-003
,,,2.12500000e-009,-1.69687512e-003
,,,2.15000000e-009,-1.65703137e-003
,,,2.17500000e-009,-1.60937511e-003
,,,2.20000000e-009,-1.55156261e-003
,,,2.22500000e-009,-1.48203135e-003
,,,2.25000000e-009,-1.40000010e-003
,,,2.27500000e-009,-1.31250009e-003
,,,2.30000000e-009,-1.21328134e-003
,,,2.32500000e-009,-1.10390633e-003
,,,2.35000000e-009,-9.89843820e-004
,,,2.37500000e-009,-8.76562562e-004
,,,2.40000000e-009,-7.70312555e-004
,,,2.42500000e-009,-6.76562548e-004
,,,2.45000000e-009,-6.00000042e-004
,,,2.47500000e-009,-5.53125039e-004
,,,2.50000000e-009,-5.24218787e-004
,,,2.52500000e-009,-5.11718786e-004
,,,2.55000000e-009,-5.13281286e-004
,,,2.57500000e-009,-5.26562537e-004
,,,2.60000000e-009,-5.47656289e-004
,,,2.62500000e-009,-5.72656291e-004
,,,2.65000000e-009,-6.00000042e-004
,,,2.67500000e-009,-6.31250045e-004
,,,2.70000000e-009,-6.54687546e-004
,,,2.72500000e-009,-6.67187547e-004
,,,2.75000000e-009,-6.69531297e-004
,,,2.77500000e-009,-6.62500047e-004
,,,2.80000000e-009,-6.47656296e-004
,,,2.82500000e-009,-6.25781294e-004
,,,2.85000000e-009,-6.00000042e-004
,,,2.87500000e-009,-5.75000041e-004
,,,2.90000000e-009,-5.47656289e-004
,,,2.92500000e-009,-5.19531287e-004
,,,2.95000000e-009,-4.90625035e-004
,,,2.97500000e-009,-4.62500033e-004
,,,3.00000000e-009,-4.37500031e-004
,,,3.02500000e-009,-4.16406279e-004
,,,3.05000000e-009,-4.00000028e-004
,,,3.07500000e-009,-3.92187528e-004
,,,3.10000000e-009,-3.87500027e-004
,,,3.12500000e-009,-3.85156277e-004
,,,3.15000000e-009,-3.85156277e-004
,,,3.17500000e-009,-3.86718777e-004
,,,3.20000000e-009,-3.89843778e-004
,,,3.22500000e-009,-3.94531278e-004
,,,3.25000000e-009,-4.00000028e-004
,,,3.27500000e-009,-4.07812529e-004
,,,3.30000000e-009,-4.14062529e-004
,,,3.32500000e-009,-4.17968780e-004
,,,3.35000000e-009,-4.19531280e-004
,,,3.37500000e-009,-4.17968780e-004
,,,3.40000000e-009,-4.14062529e-004
,,,3.42500000e-009,-4.08593779e-004
,,,3.45000000e-009,-4.00000028e-004
,,,3.47500000e-009,-3.88281277e-004
,,,3.50000000e-009,-3.72656276e-004
,,,3.52500000e-009,-3.53906275e-004
,,,3.55000000e-009,-3.31250023e-004
,,,3.57500000e-009,-3.03906272e-004
,,,3.60000000e-009,-2.72656269e-004
,,,3.62500000e-009,-2.37500017e-004
,,,3.65000000e-009,-2.00000014e-004
,,,3.67500000e-009,-1.61718761e-004
,,,3.70000000e-009,-1.23437509e-004
,,,3.72500000e-009,-8.75000062e-005
,,,3.75000000e-009,-5.54687539e-005
,,,3.77500000e-009,-2.89062520e-005
,,,3.80000000e-009,-1.01562507e-005
,,,3.82500000e-009,0.00000000e+000
,,,3.85000000e-009,0.00000000e+000
,,,3.87500000e-009,-1.17187508e-005
,,,3.90000000e-009,-3.20312523e-005
,,,3.92500000e-009,-5.78125041e-005
,,,3.95000000e-009,-8.75000062e-005
,,,3.97500000e-009,-1.18750008e-004
,,,4.00000000e-009,-1.49218761e-004
,,,4.02500000e-009,-1.76562512e-004
,,,4.05000000e-009,-2.00000014e-004
,,,4.07500000e-009,-2.17968765e-004
,,,4.10000000e-009,-2.29687516e-004
,,,4.12500000e-009,-2.35156267e-004
,,,4.15000000e-009,-2.34375017e-004
,,,4.17500000e-009,-2.29687516e-004
,,,4.20000000e-009,-2.20312516e-004
,,,4.22500000e-009,-2.10156265e-004
,,,4.25000000e-009,-2.00000014e-004
,,,4.27500000e-009,-1.92187514e-004
,,,4.30000000e-009,-1.85937513e-004
,,,4.32500000e-009,-1.82812513e-004
,,,4.35000000e-009,-1.82812513e-004
,,,4.37500000e-009,-1.84375013e-004
,,,4.40000000e-009,-1.88281263e-004
,,,4.42500000e-009,-1.93750014e-004
,,,4.45000000e-009,-2.00000014e-004
,,,4.47500000e-009,-2.07031265e-004
,,,4.50000000e-009,-2.13281265e-004
,,,4.52500000e-009,-2.17187515e-004
,,,4.55000000e-009,-2.19531266e-004
,,,4.57500000e-009,-2.17968765e-004
,,,4.60000000e-009,-2.14062515e-004
,,,4.62500000e-009,-2.07812515e-004
,,,4.65000000e-009,-2.00000014e-004
,,,4.67500000e-009,-1.91406264e-004
,,,4.70000000e-009,-1.82812513e-004
,,,4.72500000e-009,-1.76562512e-004
,,,4.75000000e-009,-1.72656262e-004
,,,4.77500000e-009,-1.71875012e-004
,,,4.80000000e-009,-1.75781262e-004
,,,4.82500000e-009,-1.85156263e-004
,,,4.85000000e-009,-2.00000014e-004
,,,4.87500000e-009,-2.17968765e-004
,,,4.90000000e-009,-2.41406267e-004
,,,4.92500000e-009,-2.67968769e-004
,,,4.95000000e-009,-2.96093771e-004
,,,4.97500000e-009,-3.25000023e-004
,,,5.00000000e-009,-3.53125025e-004
,,,5.02500000e-009,-3.78125027e-004
,,,5.05000000e-009,-4.00000028e-004
,,,5.07500000e-009,-4.14062529e-004
,,,5.10000000e-009,-4.24218780e-004
,,,5.12500000e-009,-4.28125030e-004
,,,5.15000000e-009,-4.27343780e-004
,,,5.17500000e-009,-4.23437530e-004
,,,5.20000000e-009,-4.16406279e-004
,,,5.22500000e-009,-4.08593779e-004
,,,5.25000000e-009,-4.00000028e-004
,,,5.27500000e-009,-3.89843778e-004
,,,5.30000000e-009,-3.82031277e-004
,,,5.32500000e-009,-3.77343777e-004
,,,5.35000000e-009,-3.75781277e-004
,,,5.37500000e-009,-3.77343777e-004
,,,5.40000000e-009,-3.82031277e-004
,,,5.42500000e-009,-3.89843778e-004
,,,5.45000000e-009,-4.00000028e-004
,,,5.47500000e-009,-4.07812529e-004
,,,5.50000000e-009,-4.14843779e-004
,,,5.52500000e-009,-4.21093780e-004
,,,5.55000000e-009,-4.24218780e-004
,,,5.57500000e-009,-4.24218780e-004
,,,5.60000000e-009,-4.21093780e-004
,,,5.62500000e-009,-4.12500029e-004
,,,5.65000000e-009,-4.00000028e-004
,,,5.67500000e-009,-3.80468777e-004
,,,5.70000000e-009,-3.57031275e-004
,,,5.72500000e-009,-3.31250023e-004
,,,5.75000000e-009,-3.03906272e-004
,,,5.77500000e-009,-2.75781270e-004
,,,5.80000000e-009,-2.47656268e-004
,,,5.82500000e-009,-2.21875016e-004
,,,5.85000000e-009,-2.00000014e-004
,,,5.87500000e-009,-1.80468763e-004
,,,5.90000000e-009,-1.66406262e-004
