RawData/SinglePhotoelectron/R5_2pt2B_5mV/wave024_Ch2.csv

"Record Length",1000,"Points",-7.72500000e-009,-2.06250015e-004
"Sample Interval",2.50000000e-011,s,-7.70000000e-009,-2.13281265e-004
"Trigger Point",309,"Samples",-7.67500000e-009,-2.19531266e-004
"Trigger Time",6.13625498e-013,s,-7.65000000e-009,-2.23437516e-004
"",,,-7.62500000e-009,-2.24218766e-004
"Horizontal Offset",-7.72500000e-009,s,-7.60000000e-009,-2.21093766e-004
,,,-7.57500000e-009,-2.13281265e-004
,,,-7.55000000e-009,-2.00000014e-004
,,,-7.52500000e-009,-1.79687513e-004
,,,-7.50000000e-009,-1.56250011e-004
,,,-7.47500000e-009,-1.28906259e-004
,,,-7.45000000e-009,-1.00000007e-004
,,,-7.42500000e-009,-7.03125050e-005
,,,-7.40000000e-009,-4.29687530e-005
,,,-7.37500000e-009,-1.95312514e-005
,,,-7.35000000e-009,0.00000000e+000
,,,-7.32500000e-009,1.48437511e-005
,,,-7.30000000e-009,2.50000018e-005
,,,-7.27500000e-009,3.04687522e-005
,,,-7.25000000e-009,3.04687522e-005
,,,-7.22500000e-009,2.65625019e-005
,,,-7.20000000e-009,1.87500013e-005
,,,-7.17500000e-009,1.01562507e-005
,,,-7.15000000e-009,0.00000000e+000
,,,-7.12500000e-009,-1.01562507e-005
,,,-7.10000000e-009,-1.87500013e-005
,,,-7.07500000e-009,-2.50000018e-005
,,,-7.05000000e-009,-2.65625019e-005
,,,-7.02500000e-009,-2.50000018e-005
,,,-7.00000000e-009,-1.95312514e-005
,,,-6.97500000e-009,-1.09375008e-005
,,,-6.95000000e-009,0.00000000e+000
,,,-6.92500000e-009,1.09375008e-005
,,,-6.90000000e-009,2.26562516e-005
,,,-6.87500000e-009,3.12500022e-005
,,,-6.85000000e-009,3.67187526e-005
,,,-6.82500000e-009,3.59375025e-005
,,,-6.80000000e-009,2.96875021e-005
,,,-6.77500000e-009,1.71875012e-005
,,,-6.75000000e-009,0.00000000e+000
,,,-6.72500000e-009,-2.18750015e-005
,,,-6.70000000e-009,-4.37500031e-005
,,,-6.67500000e-009,-6.25000044e-005
,,,-6.65000000e-009,-7.50000053e-005
,,,-6.62500000e-009,-7.65625054e-005
,,,-6.60000000e-009,-6.56250046e-005
,,,-6.57500000e-009,-3.98437528e-005
,,,-6.55000000e-009,0.00000000e+000
,,,-6.52500000e-009,5.23437537e-005
,,,-6.50000000e-009,1.14062508e-004
,,,-6.47500000e-009,1.81250013e-004
,,,-6.45000000e-009,2.47656268e-004
,,,-6.42500000e-009,3.07031272e-004
,,,-6.40000000e-009,3.55468775e-004
,,,-6.37500000e-009,3.87500027e-004
,,,-6.35000000e-009,4.00000028e-004
,,,-6.32500000e-009,3.87500027e-004
,,,-6.30000000e-009,3.55468775e-004
,,,-6.27500000e-009,3.07031272e-004
,,,-6.25000000e-009,2.47656268e-004
,,,-6.22500000e-009,1.81250013e-004
,,,-6.20000000e-009,1.14062508e-004
,,,-6.17500000e-009,5.23437537e-005
,,,-6.15000000e-009,0.00000000e+000
,,,-6.12500000e-009,-3.90625028e-005
,,,-6.10000000e-009,-6.40625045e-005
,,,-6.07500000e-009,-7.42187553e-005
,,,-6.05000000e-009,-7.10937550e-005
,,,-6.02500000e-009,-5.93750042e-005
,,,-6.00000000e-009,-4.06250029e-005
,,,-5.97500000e-009,-1.95312514e-005
,,,-5.95000000e-009,0.00000000e+000
,,,-5.92500000e-009,1.64062512e-005
,,,-5.90000000e-009,2.73437519e-005
,,,-5.87500000e-009,3.28125023e-005
,,,-5.85000000e-009,3.20312523e-005
,,,-5.82500000e-009,2.73437519e-005
,,,-5.80000000e-009,1.87500013e-005
,,,-5.77500000e-009,9.37500066e-006
,,,-5.75000000e-009,0.00000000e+000
,,,-5.72500000e-009,-7.81250055e-006
,,,-5.70000000e-009,-1.25000009e-005
,,,-5.67500000e-009,-1.48437511e-005
,,,-5.65000000e-009,-1.48437511e-005
,,,-5.62500000e-009,-1.25000009e-005
,,,-5.60000000e-009,-8.59375061e-006
,,,-5.57500000e-009,-3.90625028e-006
,,,-5.55000000e-009,0.00000000e+000
,,,-5.52500000e-009,3.90625028e-006
,,,-5.50000000e-009,7.81250055e-006
,,,-5.47500000e-009,9.37500066e-006
,,,-5.45000000e-009,1.01562507e-005
,,,-5.42500000e-009,8.59375061e-006
,,,-5.40000000e-009,6.25000044e-006
,,,-5.37500000e-009,3.12500022e-006
,,,-5.35000000e-009,0.00000000e+000
,,,-5.32500000e-009,-7.81250055e-007
,,,-5.30000000e-009,-2.34375017e-006
,,,-5.27500000e-009,-3.12500022e-006
,,,-5.25000000e-009,-3.90625028e-006
,,,-5.22500000e-009,-3.90625028e-006
,,,-5.20000000e-009,-3.12500022e-006
,,,-5.17500000e-009,-1.56250011e-006
,,,-5.15000000e-009,0.00000000e+000
,,,-5.12500000e-009,3.12500022e-006
,,,-5.10000000e-009,7.03125050e-006
,,,-5.07500000e-009,9.37500066e-006
,,,-5.05000000e-009,1.17187508e-005
,,,-5.02500000e-009,1.17187508e-005
,,,-5.00000000e-009,1.01562507e-005
,,,-4.97500000e-009,5.46875039e-006
,,,-4.95000000e-009,0.00000000e+000
,,,-4.92500000e-009,-6.25000044e-006
,,,-4.90000000e-009,-1.32812509e-005
,,,-4.87500000e-009,-1.95312514e-005
,,,-4.85000000e-009,-2.34375017e-005
,,,-4.82500000e-009,-2.42187517e-005
,,,-4.80000000e-009,-2.10937515e-005
,,,-4.77500000e-009,-1.32812509e-005
,,,-4.75000000e-009,0.00000000e+000
,,,-4.72500000e-009,1.95312514e-005
,,,-4.70000000e-009,4.29687530e-005
,,,-4.67500000e-009,7.03125050e-005
,,,-4.65000000e-009,1.00000007e-004
,,,-4.62500000e-009,1.28906259e-004
,,,-4.60000000e-009,1.56250011e-004
,,,-4.57500000e-009,1.79687513e-004
,,,-4.55000000e-009,2.00000014e-004
,,,-4.52500000e-009,2.12500015e-004
,,,-4.50000000e-009,2.19531266e-004
,,,-4.47500000e-009,2.21875016e-004
,,,-4.45000000e-009,2.20312516e-004
,,,-4.42500000e-009,2.15625015e-004
,,,-4.40000000e-009,2.10156265e-004
,,,-4.37500000e-009,2.04687514e-004
,,,-4.35000000e-009,2.00000014e-004
,,,-4.32500000e-009,1.94531264e-004
,,,-4.30000000e-009,1.91406264e-004
,,,-4.27500000e-009,1.90625013e-004
,,,-4.25000000e-009,1.92187514e-004
,,,-4.22500000e-009,1.93750014e-004
,,,-4.20000000e-009,1.96093764e-004
,,,-4.17500000e-009,1.98437514e-004
,,,-4.15000000e-009,2.00000014e-004
,,,-4.12500000e-009,1.99218764e-004
,,,-4.10000000e-009,1.98437514e-004
,,,-4.07500000e-009,1.96875014e-004
,,,-4.05000000e-009,1.95312514e-004
,,,-4.02500000e-009,1.94531264e-004
,,,-4.00000000e-009,1.94531264e-004
,,,-3.97500000e-009,1.96093764e-004
,,,-3.95000000e-009,2.00000014e-004
,,,-3.92500000e-009,2.02343764e-004
,,,-3.90000000e-009,2.05468765e-004
,,,-3.87500000e-009,2.09375015e-004
,,,-3.85000000e-009,2.12500015e-004
,,,-3.82500000e-009,2.14062515e-004
,,,-3.80000000e-009,2.12500015e-004
,,,-3.77500000e-009,2.08593765e-004
,,,-3.75000000e-009,2.00000014e-004
,,,-3.72500000e-009,1.85937513e-004
,,,-3.70000000e-009,1.67187512e-004
,,,-3.67500000e-009,1.45312510e-004
,,,-3.65000000e-009,1.19531258e-004
,,,-3.62500000e-009,9.06250064e-005
,,,-3.60000000e-009,6.01562543e-005
,,,-3.57500000e-009,2.96875021e-005
,,,-3.55000000e-009,0.00000000e+000
,,,-3.52500000e-009,-2.34375017e-005
,,,-3.50000000e-009,-4.21875030e-005
,,,-3.47500000e-009,-5.46875039e-005
,,,-3.45000000e-009,-6.01562543e-005
,,,-3.42500000e-009,-5.70312540e-005
,,,-3.40000000e-009,-4.60937533e-005
,,,-3.37500000e-009,-2.65625019e-005
,,,-3.35000000e-009,0.00000000e+000
,,,-3.32500000e-009,3.43750024e-005
,,,-3.30000000e-009,7.18750051e-005
,,,-3.27500000e-009,1.09375008e-004
,,,-3.25000000e-009,1.42968760e-004
,,,-3.22500000e-009,1.71875012e-004
,,,-3.20000000e-009,1.91406264e-004
,,,-3.17500000e-009,2.00781264e-004
,,,-3.15000000e-009,2.00000014e-004
,,,-3.12500000e-009,1.86718763e-004
,,,-3.10000000e-009,1.63281262e-004
,,,-3.07500000e-009,1.33593759e-004
,,,-3.05000000e-009,1.00781257e-004
,,,-3.02500000e-009,6.71875048e-005
,,,-3.00000000e-009,3.67187526e-005
,,,-2.97500000e-009,1.40625010e-005
,,,-2.95000000e-009,0.00000000e+000
,,,-2.92500000e-009,-2.34375017e-006
,,,-2.90000000e-009,5.46875039e-006
,,,-2.87500000e-009,2.42187517e-005
,,,-2.85000000e-009,5.15625036e-005
,,,-2.82500000e-009,8.51562560e-005
,,,-2.80000000e-009,1.22656259e-004
,,,-2.77500000e-009,1.61718761e-004
,,,-2.75000000e-009,2.00000014e-004
,,,-2.72500000e-009,2.34375017e-004
,,,-2.70000000e-009,2.64843769e-004
,,,-2.67500000e-009,2.92187521e-004
,,,-2.65000000e-009,3.15625022e-004
,,,-2.62500000e-009,3.37500024e-004
,,,-2.60000000e-009,3.58593775e-004
,,,-2.57500000e-009,3.78906277e-004
,,,-2.55000000e-009,4.00000028e-004
,,,-2.52500000e-009,4.15625029e-004
,,,-2.50000000e-009,4.29687530e-004
,,,-2.47500000e-009,4.41406281e-004
,,,-2.45000000e-009,4.48437532e-004
,,,-2.42500000e-009,4.49218782e-004
,,,-2.40000000e-009,4.42187531e-004
,,,-2.37500000e-009,4.25781280e-004
,,,-2.35000000e-009,4.00000028e-004
,,,-2.32500000e-009,3.60156275e-004
,,,-2.30000000e-009,3.12500022e-004
,,,-2.27500000e-009,2.59375018e-004
,,,-2.25000000e-009,2.03125014e-004
,,,-2.22500000e-009,1.46093760e-004
,,,-2.20000000e-009,9.14062565e-005
,,,-2.17500000e-009,4.14062529e-005
,,,-2.15000000e-009,0.00000000e+000
,,,-2.12500000e-009,-3.12500022e-005
,,,-2.10000000e-009,-5.23437537e-005
,,,-2.07500000e-009,-6.25000044e-005
,,,-2.05000000e-009,-6.25000044e-005
,,,-2.02500000e-009,-5.46875039e-005
,,,-2.00000000e-009,-3.98437528e-005
,,,-1.97500000e-009,-2.10937515e-005
,,,-1.95000000e-009,0.00000000e+000
,,,-1.92500000e-009,2.03125014e-005
,,,-1.90000000e-009,3.82812527e-005
,,,-1.87500000e-009,5.07812536e-005
,,,-1.85000000e-009,5.62500040e-005
,,,-1.82500000e-009,5.39062538e-005
,,,-1.80000000e-009,4.37500031e-005
,,,-1.77500000e-009,2.50000018e-005
,,,-1.75000000e-009,0.00000000e+000
,,,-1.72500000e-009,-3.12500022e-005
,,,-1.70000000e-009,-6.64062547e-005
,,,-1.67500000e-009,-1.01562507e-004
,,,-1.65000000e-009,-1.35156260e-004
,,,-1.62500000e-009,-1.64062512e-004
,,,-1.60000000e-009,-1.85937513e-004
,,,-1.57500000e-009,-1.97656264e-004
,,,-1.55000000e-009,-2.00000014e-004
,,,-1.52500000e-009,-1.93750014e-004
,,,-1.50000000e-009,-1.78906263e-004
,,,-1.47500000e-009,-1.57031261e-004
,,,-1.45000000e-009,-1.29687509e-004
,,,-1.42500000e-009,-9.76562569e-005
,,,-1.40000000e-009,-6.40625045e-005
,,,-1.37500000e-009,-3.04687522e-005
,,,-1.35000000e-009,0.00000000e+000
,,,-1.32500000e-009,1.71875012e-005
,,,-1.30000000e-009,2.73437519e-005
,,,-1.27500000e-009,3.04687522e-005
,,,-1.25000000e-009,2.73437519e-005
,,,-1.22500000e-009,2.10937515e-005
,,,-1.20000000e-009,1.32812509e-005
,,,-1.17500000e-009,5.46875039e-006
,,,-1.15000000e-009,0.00000000e+000
,,,-1.12500000e-009,-2.03125014e-005
,,,-1.10000000e-009,-3.82812527e-005
,,,-1.07500000e-009,-5.15625036e-005
,,,-1.05000000e-009,-5.78125041e-005
,,,-1.02500000e-009,-5.62500040e-005
,,,-1.00000000e-009,-4.53125032e-005
,,,-9.75000000e-010,-2.57812518e-005
,,,-9.50000000e-010,0.00000000e+000
,,,-9.25000000e-010,2.34375017e-006
,,,-9.00000000e-010,0.00000000e+000
,,,-8.75000000e-010,-8.59375061e-006
,,,-8.50000000e-010,-2.57812518e-005
,,,-8.25000000e-010,-5.23437537e-005
,,,-8.00000000e-010,-8.98437564e-005
,,,-7.75000000e-010,-1.38281260e-004
,,,-7.50000000e-010,-2.00000014e-004
,,,-7.25000000e-010,-3.04687522e-004
,,,-7.00000000e-010,-4.25000030e-004
,,,-6.75000000e-010,-5.56250039e-004
,,,-6.50000000e-010,-6.93750049e-004
,,,-6.25000000e-010,-8.30468809e-004
,,,-6.00000000e-010,-9.62500068e-004
,,,-5.75000000e-010,-1.08593758e-003
,,,-5.50000000e-010,-1.20000008e-003
,,,-5.25000000e-010,-1.32812509e-003
,,,-5.00000000e-010,-1.45234385e-003
,,,-4.75000000e-010,-1.57343761e-003
,,,-4.50000000e-010,-1.69296887e-003
,,,-4.25000000e-010,-1.81250013e-003
,,,-4.00000000e-010,-1.93437514e-003
,,,-3.75000000e-010,-2.06250015e-003
,,,-3.50000000e-010,-2.20000016e-003
,,,-3.25000000e-010,-2.36328142e-003
,,,-3.00000000e-010,-2.54296893e-003
,,,-2.75000000e-010,-2.73750019e-003
,,,-2.50000000e-010,-2.94375021e-003
,,,-2.25000000e-010,-3.15625022e-003
,,,-2.00000000e-010,-3.37265649e-003
,,,-1.75000000e-010,-3.58828150e-003
,,,-1.50000000e-010,-3.80000027e-003
,,,-1.25000000e-010,-4.00703153e-003
,,,-1.00000000e-010,-4.21250030e-003
,,,-7.50000000e-011,-4.41640656e-003
,,,-5.00000000e-011,-4.61718783e-003
,,,-2.50000000e-011,-4.81640659e-003
,,,0.00000000e+000,-5.01250035e-003
,,,2.50000000e-011,-5.20703162e-003
,,,5.00000000e-011,-5.40000038e-003
,,,7.50000000e-011,-5.57500039e-003
,,,1.00000000e-010,-5.75312541e-003
,,,1.25000000e-010,-5.93437542e-003
,,,1.50000000e-010,-6.11640668e-003
,,,1.75000000e-010,-6.29765670e-003
,,,2.00000000e-010,-6.47421921e-003
,,,2.25000000e-010,-6.64296922e-003
,,,2.50000000e-010,-6.80000048e-003
,,,2.75000000e-010,-6.91171924e-003
,,,3.00000000e-010,-7.01406300e-003
,,,3.25000000e-010,-7.10546925e-003
,,,3.50000000e-010,-7.18671926e-003
,,,3.75000000e-010,-7.25703176e-003
,,,4.00000000e-010,-7.31640677e-003
,,,4.25000000e-010,-7.36406302e-003
,,,4.50000000e-010,-7.40000052e-003
,,,4.75000000e-010,-7.39140677e-003
,,,5.00000000e-010,-7.38046927e-003
,,,5.25000000e-010,-7.37031302e-003
,,,5.50000000e-010,-7.36484427e-003
,,,5.75000000e-010,-7.36406302e-003
,,,6.00000000e-010,-7.36953177e-003
,,,6.25000000e-010,-7.38203177e-003
,,,6.50000000e-010,-7.40000052e-003
,,,6.75000000e-010,-7.38593802e-003
,,,7.00000000e-010,-7.37812552e-003
,,,7.25000000e-010,-7.37734427e-003
,,,7.50000000e-010,-7.38203177e-003
,,,7.75000000e-010,-7.38984427e-003
,,,8.00000000e-010,-7.39687552e-003
,,,8.25000000e-010,-7.40156302e-003
,,,8.50000000e-010,-7.40000052e-003
,,,8.75000000e-010,-7.35312552e-003
,,,9.00000000e-010,-7.29687552e-003
,,,9.25000000e-010,-7.23046926e-003
,,,9.50000000e-010,-7.15625051e-003
,,,9.75000000e-010,-7.07500050e-003
,,,1.00000000e-009,-6.98750049e-003
,,,1.02500000e-009,-6.89531299e-003
,,,1.05000000e-009,-6.80000048e-003
,,,1.07500000e-009,-6.67734422e-003
,,,1.10000000e-009,-6.55546921e-003
,,,1.12500000e-009,-6.43828171e-003
,,,1.15000000e-009,-6.32812545e-003
,,,1.17500000e-009,-6.22812544e-003
,,,1.20000000e-009,-6.13984418e-003
,,,1.22500000e-009,-6.06406293e-003
,,,1.25000000e-009,-6.00000042e-003
,,,1.27500000e-009,-5.92656292e-003
,,,1.30000000e-009,-5.85625041e-003
,,,1.32500000e-009,-5.78828166e-003
,,,1.35000000e-009,-5.71875040e-003
,,,1.37500000e-009,-5.64765665e-003
,,,1.40000000e-009,-5.57187539e-003
,,,1.42500000e-009,-5.49062539e-003
,,,1.45000000e-009,-5.40000038e-003
,,,1.47500000e-009,-5.28515662e-003
,,,1.50000000e-009,-5.15625036e-003
,,,1.52500000e-009,-5.01250035e-003
,,,1.55000000e-009,-4.85781284e-003
,,,1.57500000e-009,-4.69531283e-003
,,,1.60000000e-009,-4.52890657e-003
,,,1.62500000e-009,-4.36250031e-003
,,,1.65000000e-009,-4.20000030e-003
,,,1.67500000e-009,-4.04062529e-003
,,,1.70000000e-009,-3.88750028e-003
,,,1.72500000e-009,-3.74140651e-003
,,,1.75000000e-009,-3.60625026e-003
,,,1.77500000e-009,-3.48359400e-003
,,,1.80000000e-009,-3.37500024e-003
,,,1.82500000e-009,-3.28046898e-003
,,,1.85000000e-009,-3.20000023e-003
,,,1.87500000e-009,-3.13515647e-003
,,,1.90000000e-009,-3.07187522e-003
,,,1.92500000e-009,-3.00859396e-003
,,,1.95000000e-009,-2.94062521e-003
,,,1.97500000e-009,-2.86718770e-003
,,,2.00000000e-009,-2.78671895e-003
,,,2.02500000e-009,-2.69765644e-003
,,,2.05000000e-009,-2.60000018e-003
,,,2.07500000e-009,-2.50078143e-003
,,,2.10000000e-009,-2.38828142e-003
,,,2.12500000e-009,-2.26484391e-003
,,,2.15000000e-009,-2.13281265e-003
,,,2.17500000e-009,-1.99531264e-003
,,,2.20000000e-009,-1.85859388e-003
,,,2.22500000e-009,-1.72500012e-003
,,,2.25000000e-009,-1.60000011e-003
,,,2.27500000e-009,-1.49843761e-003
,,,2.30000000e-009,-1.40390635e-003
,,,2.32500000e-009,-1.31796884e-003
,,,2.35000000e-009,-1.23906259e-003
,,,2.37500000e-009,-1.16875008e-003
,,,2.40000000e-009,-1.10468758e-003
,,,2.42500000e-009,-1.04921882e-003
,,,2.45000000e-009,-1.00000007e-003
,,,2.47500000e-009,-9.71875069e-004
,,,2.50000000e-009,-9.44531317e-004
,,,2.52500000e-009,-9.17187565e-004
,,,2.55000000e-009,-8.89062563e-004
,,,2.57500000e-009,-8.61718811e-004
,,,2.60000000e-009,-8.37500059e-004
,,,2.62500000e-009,-8.15625058e-004
,,,2.65000000e-009,-8.00000057e-004
,,,2.67500000e-009,-8.00781307e-004
,,,2.70000000e-009,-8.02343807e-004
,,,2.72500000e-009,-8.03906307e-004
,,,2.75000000e-009,-8.04687557e-004
,,,2.77500000e-009,-8.04687557e-004
,,,2.80000000e-009,-8.03906307e-004
,,,2.82500000e-009,-8.02343807e-004
,,,2.85000000e-009,-8.00000057e-004
,,,2.87500000e-009,-8.04687557e-004
,,,2.90000000e-009,-8.07031307e-004
,,,2.92500000e-009,-8.06250057e-004
,,,2.95000000e-009,-8.03906307e-004
,,,2.97500000e-009,-8.00781307e-004
,,,3.00000000e-009,-7.98437557e-004
,,,3.02500000e-009,-7.97656306e-004
,,,3.05000000e-009,-8.00000057e-004
,,,3.07500000e-009,-8.09375057e-004
,,,3.10000000e-009,-8.18750058e-004
,,,3.12500000e-009,-8.25781308e-004
,,,3.15000000e-009,-8.29687559e-004
,,,3.17500000e-009,-8.29687559e-004
,,,3.20000000e-009,-8.25000058e-004
,,,3.22500000e-009,-8.14843808e-004
,,,3.25000000e-009,-8.00000057e-004
,,,3.27500000e-009,-7.82031305e-004
,,,3.30000000e-009,-7.58593804e-004
,,,3.32500000e-009,-7.32031302e-004
,,,3.35000000e-009,-7.03125050e-004
,,,3.37500000e-009,-6.73437548e-004
,,,3.40000000e-009,-6.45312546e-004
,,,3.42500000e-009,-6.20312544e-004
,,,3.45000000e-009,-6.00000042e-004
,,,3.47500000e-009,-5.86718792e-004
,,,3.50000000e-009,-5.79687541e-004
,,,3.52500000e-009,-5.77343791e-004
,,,3.55000000e-009,-5.78906291e-004
,,,3.57500000e-009,-5.83593791e-004
,,,3.60000000e-009,-5.89062542e-004
,,,3.62500000e-009,-5.94531292e-004
,,,3.65000000e-009,-6.00000042e-004
,,,3.67500000e-009,-6.01562543e-004
,,,3.70000000e-009,-6.01562543e-004
,,,3.72500000e-009,-6.00000042e-004
,,,3.75000000e-009,-5.96875042e-004
,,,3.77500000e-009,-5.95312542e-004
,,,3.80000000e-009,-5.94531292e-004
,,,3.82500000e-009,-5.95312542e-004
,,,3.85000000e-009,-6.00000042e-004
,,,3.87500000e-009,-6.04687543e-004
,,,3.90000000e-009,-6.10937543e-004
,,,3.92500000e-009,-6.16406294e-004
,,,3.95000000e-009,-6.20312544e-004
,,,3.97500000e-009,-6.21093794e-004
,,,4.00000000e-009,-6.17968794e-004
,,,4.02500000e-009,-6.10937543e-004
,,,4.05000000e-009,-6.00000042e-004
,,,4.07500000e-009,-5.84375041e-004
,,,4.10000000e-009,-5.67968790e-004
,,,4.12500000e-009,-5.53125039e-004
,,,4.15000000e-009,-5.42968788e-004
,,,4.17500000e-009,-5.40625038e-004
,,,4.20000000e-009,-5.48437539e-004
,,,4.22500000e-009,-5.68750040e-004
,,,4.25000000e-009,-6.00000042e-004
,,,4.27500000e-009,-6.39843795e-004
,,,4.30000000e-009,-6.85937549e-004
,,,4.32500000e-009,-7.32812552e-004
,,,4.35000000e-009,-7.74218805e-004
,,,4.37500000e-009,-8.07031307e-004
,,,4.40000000e-009,-8.24218808e-004
,,,4.42500000e-009,-8.22656308e-004
,,,4.45000000e-009,-8.00000057e-004
,,,4.47500000e-009,-7.53906303e-004
,,,4.50000000e-009,-6.89843799e-004
,,,4.52500000e-009,-6.10937543e-004
,,,4.55000000e-009,-5.22656287e-004
,,,4.57500000e-009,-4.31250031e-004
,,,4.60000000e-009,-3.43750024e-004
,,,4.62500000e-009,-2.64843769e-004
,,,4.65000000e-009,-2.00000014e-004
,,,4.67500000e-009,-1.53125011e-004
,,,4.70000000e-009,-1.25000009e-004
,,,4.72500000e-009,-1.13281258e-004
,,,4.75000000e-009,-1.17187508e-004
,,,4.77500000e-009,-1.31250009e-004
,,,4.80000000e-009,-1.52343761e-004
,,,4.82500000e-009,-1.76562512e-004
,,,4.85000000e-009,-2.00000014e-004
,,,4.87500000e-009,-2.19531266e-004
,,,4.90000000e-009,-2.32812516e-004
,,,4.92500000e-009,-2.38281267e-004
,,,4.95000000e-009,-2.36718767e-004
,,,4.97500000e-009,-2.29687516e-004
,,,5.00000000e-009,-2.18750015e-004
,,,5.02500000e-009,-2.08593765e-004
,,,5.05000000e-009,-2.00000014e-004
,,,5.07500000e-009,-1.96875014e-004
,,,5.10000000e-009,-2.00000014e-004
,,,5.12500000e-009,-2.11718765e-004
,,,5.15000000e-009,-2.32031266e-004
,,,5.17500000e-009,-2.62500019e-004
,,,5.20000000e-009,-3.00781271e-004
,,,5.22500000e-009,-3.47656275e-004
,,,5.25000000e-009,-4.00000028e-004
,,,5.27500000e-009,-4.53906282e-004
,,,5.30000000e-009,-5.05468786e-004
,,,5.32500000e-009,-5.51562539e-004
,,,5.35000000e-009,-5.89062542e-004
,,,5.37500000e-009,-6.14062543e-004
,,,5.40000000e-009,-6.25000044e-004
,,,5.42500000e-009,-6.20312544e-004
,,,5.45000000e-009,-6.00000042e-004
,,,5.47500000e-009,-5.63281290e-004
,,,5.50000000e-009,-5.14062536e-004
,,,5.52500000e-009,-4.56250032e-004
,,,5.55000000e-009,-3.95312528e-004
,,,5.57500000e-009,-3.34375024e-004
,,,5.60000000e-009,-2.79687520e-004
,,,5.62500000e-009,-2.33593767e-004
,,,5.65000000e-009,-2.00000014e-004
,,,5.67500000e-009,-1.78906263e-004
,,,5.70000000e-009,-1.70312512e-004
,,,5.72500000e-009,-1.71875012e-004
,,,5.75000000e-009,-1.79687513e-004
,,,5.77500000e-009,-1.90625013e-004
,,,5.80000000e-009,-2.00000014e-004
,,,5.82500000e-009,-2.03906264e-004
,,,5.85000000e-009,-2.00000014e-004
,,,5.87500000e-009,-1.86718763e-004
,,,5.90000000e-009,-1.65625012e-004
,,,5.92500000e-009,-1.36718760e-004
