RawData/SinglePhotoelectron/R5_2pt2B_5mV/wave037_Ch2.csv

"Record Length",1000,"Points",-7.72500000e-009,4.00000028e-004
"Sample Interval",2.50000000e-011,s,-7.70000000e-009,3.78125027e-004
"Trigger Point",309,"Samples",-7.67500000e-009,3.41406274e-004
"Trigger Time",5.42842640e-013,s,-7.65000000e-009,2.91406271e-004
"",,,-7.62500000e-009,2.32031266e-004
"Horizontal Offset",-7.72500000e-009,s,-7.60000000e-009,1.68750012e-004
,,,-7.57500000e-009,1.05468757e-004
,,,-7.55000000e-009,4.84375034e-005
,,,-7.52500000e-009,0.00000000e+000
,,,-7.50000000e-009,-3.59375025e-005
,,,-7.47500000e-009,-5.85937541e-005
,,,-7.45000000e-009,-6.87500049e-005
,,,-7.42500000e-009,-6.71875048e-005
,,,-7.40000000e-009,-5.62500040e-005
,,,-7.37500000e-009,-3.90625028e-005
,,,-7.35000000e-009,-1.95312514e-005
,,,-7.32500000e-009,0.00000000e+000
,,,-7.30000000e-009,1.79687513e-005
,,,-7.27500000e-009,3.12500022e-005
,,,-7.25000000e-009,3.82812527e-005
,,,-7.22500000e-009,3.90625028e-005
,,,-7.20000000e-009,3.43750024e-005
,,,-7.17500000e-009,2.50000018e-005
,,,-7.15000000e-009,1.25000009e-005
,,,-7.12500000e-009,0.00000000e+000
,,,-7.10000000e-009,-1.17187508e-005
,,,-7.07500000e-009,-2.10937515e-005
,,,-7.05000000e-009,-2.81250020e-005
,,,-7.02500000e-009,-3.12500022e-005
,,,-7.00000000e-009,-2.96875021e-005
,,,-6.97500000e-009,-2.34375017e-005
,,,-6.95000000e-009,-1.32812509e-005
,,,-6.92500000e-009,0.00000000e+000
,,,-6.90000000e-009,1.56250011e-005
,,,-6.87500000e-009,3.04687522e-005
,,,-6.85000000e-009,4.29687530e-005
,,,-6.82500000e-009,5.00000035e-005
,,,-6.80000000e-009,5.00000035e-005
,,,-6.77500000e-009,4.21875030e-005
,,,-6.75000000e-009,2.50000018e-005
,,,-6.72500000e-009,0.00000000e+000
,,,-6.70000000e-009,-2.96875021e-005
,,,-6.67500000e-009,-6.48437546e-005
,,,-6.65000000e-009,-1.01562507e-004
,,,-6.62500000e-009,-1.36718760e-004
,,,-6.60000000e-009,-1.66406262e-004
,,,-6.57500000e-009,-1.88281263e-004
,,,-6.55000000e-009,-2.00000014e-004
,,,-6.52500000e-009,-2.00000014e-004
,,,-6.50000000e-009,-1.83593763e-004
,,,-6.47500000e-009,-1.57812511e-004
,,,-6.45000000e-009,-1.24218759e-004
,,,-6.42500000e-009,-8.82812562e-005
,,,-6.40000000e-009,-5.39062538e-005
,,,-6.37500000e-009,-2.57812518e-005
,,,-6.35000000e-009,-6.25000044e-006
,,,-6.32500000e-009,0.00000000e+000
,,,-6.30000000e-009,-3.90625028e-006
,,,-6.27500000e-009,-2.03125014e-005
,,,-6.25000000e-009,-4.68750033e-005
,,,-6.22500000e-009,-7.96875056e-005
,,,-6.20000000e-009,-1.15625008e-004
,,,-6.17500000e-009,-1.50000011e-004
,,,-6.15000000e-009,-1.79687513e-004
,,,-6.12500000e-009,-2.00000014e-004
,,,-6.10000000e-009,-2.06250015e-004
,,,-6.07500000e-009,-2.00000014e-004
,,,-6.05000000e-009,-1.82031263e-004
,,,-6.02500000e-009,-1.54687511e-004
,,,-6.00000000e-009,-1.20312509e-004
,,,-5.97500000e-009,-8.04687557e-005
,,,-5.95000000e-009,-3.98437528e-005
,,,-5.92500000e-009,0.00000000e+000
,,,-5.90000000e-009,3.67187526e-005
,,,-5.87500000e-009,6.87500049e-005
,,,-5.85000000e-009,9.68750069e-005
,,,-5.82500000e-009,1.20312509e-004
,,,-5.80000000e-009,1.40625010e-004
,,,-5.77500000e-009,1.60156261e-004
,,,-5.75000000e-009,1.78906263e-004
,,,-5.72500000e-009,2.00000014e-004
,,,-5.70000000e-009,2.21093766e-004
,,,-5.67500000e-009,2.45312517e-004
,,,-5.65000000e-009,2.71875019e-004
,,,-5.62500000e-009,2.99218771e-004
,,,-5.60000000e-009,3.27343773e-004
,,,-5.57500000e-009,3.53906275e-004
,,,-5.55000000e-009,3.78906277e-004
,,,-5.52500000e-009,4.00000028e-004
,,,-5.50000000e-009,4.12500029e-004
,,,-5.47500000e-009,4.21875030e-004
,,,-5.45000000e-009,4.25781280e-004
,,,-5.42500000e-009,4.26562530e-004
,,,-5.40000000e-009,4.24218780e-004
,,,-5.37500000e-009,4.17968780e-004
,,,-5.35000000e-009,4.10156279e-004
,,,-5.32500000e-009,4.00000028e-004
,,,-5.30000000e-009,3.85156277e-004
,,,-5.27500000e-009,3.68750026e-004
,,,-5.25000000e-009,3.50000025e-004
,,,-5.22500000e-009,3.27343773e-004
,,,-5.20000000e-009,3.01562521e-004
,,,-5.17500000e-009,2.71875019e-004
,,,-5.15000000e-009,2.37500017e-004
,,,-5.12500000e-009,2.00000014e-004
,,,-5.10000000e-009,1.58593761e-004
,,,-5.07500000e-009,1.18750008e-004
,,,-5.05000000e-009,8.12500058e-005
,,,-5.02500000e-009,4.84375034e-005
,,,-5.00000000e-009,2.26562516e-005
,,,-4.97500000e-009,4.68750033e-006
,,,-4.95000000e-009,-2.34375017e-006
,,,-4.92500000e-009,0.00000000e+000
,,,-4.90000000e-009,1.32812509e-005
,,,-4.87500000e-009,3.59375025e-005
,,,-4.85000000e-009,6.48437546e-005
,,,-4.82500000e-009,9.60937568e-005
,,,-4.80000000e-009,1.28125009e-004
,,,-4.77500000e-009,1.57812511e-004
,,,-4.75000000e-009,1.82031263e-004
,,,-4.72500000e-009,2.00000014e-004
,,,-4.70000000e-009,2.09375015e-004
,,,-4.67500000e-009,2.12500015e-004
,,,-4.65000000e-009,2.10156265e-004
,,,-4.62500000e-009,2.03906264e-004
,,,-4.60000000e-009,1.97656264e-004
,,,-4.57500000e-009,1.92968764e-004
,,,-4.55000000e-009,1.92968764e-004
,,,-4.52500000e-009,2.00000014e-004
,,,-4.50000000e-009,2.14062515e-004
,,,-4.47500000e-009,2.35156267e-004
,,,-4.45000000e-009,2.60937518e-004
,,,-4.42500000e-009,2.90625021e-004
,,,-4.40000000e-009,3.21875023e-004
,,,-4.37500000e-009,3.51562525e-004
,,,-4.35000000e-009,3.78125027e-004
,,,-4.32500000e-009,4.00000028e-004
,,,-4.30000000e-009,4.12500029e-004
,,,-4.27500000e-009,4.18750030e-004
,,,-4.25000000e-009,4.19531280e-004
,,,-4.22500000e-009,4.15625029e-004
,,,-4.20000000e-009,4.10156279e-004
,,,-4.17500000e-009,4.04687529e-004
,,,-4.15000000e-009,4.00781278e-004
,,,-4.12500000e-009,4.00000028e-004
,,,-4.10000000e-009,3.99218778e-004
,,,-4.07500000e-009,4.02343778e-004
,,,-4.05000000e-009,4.07031279e-004
,,,-4.02500000e-009,4.12500029e-004
,,,-4.00000000e-009,4.15625029e-004
,,,-3.97500000e-009,4.15625029e-004
,,,-3.95000000e-009,4.10937529e-004
,,,-3.92500000e-009,4.00000028e-004
,,,-3.90000000e-009,3.78906277e-004
,,,-3.87500000e-009,3.52343775e-004
,,,-3.85000000e-009,3.22656273e-004
,,,-3.82500000e-009,2.92187521e-004
,,,-3.80000000e-009,2.61718769e-004
,,,-3.77500000e-009,2.35156267e-004
,,,-3.75000000e-009,2.14062515e-004
,,,-3.72500000e-009,2.00000014e-004
,,,-3.70000000e-009,1.90625013e-004
,,,-3.67500000e-009,1.88281263e-004
,,,-3.65000000e-009,1.90625013e-004
,,,-3.62500000e-009,1.96093764e-004
,,,-3.60000000e-009,2.02343764e-004
,,,-3.57500000e-009,2.05468765e-004
,,,-3.55000000e-009,2.05468765e-004
,,,-3.52500000e-009,2.00000014e-004
,,,-3.50000000e-009,1.85937513e-004
,,,-3.47500000e-009,1.66406262e-004
,,,-3.45000000e-009,1.40625010e-004
,,,-3.42500000e-009,1.11718758e-004
,,,-3.40000000e-009,8.04687557e-005
,,,-3.37500000e-009,5.07812536e-005
,,,-3.35000000e-009,2.26562516e-005
,,,-3.32500000e-009,0.00000000e+000
,,,-3.30000000e-009,-1.40625010e-005
,,,-3.27500000e-009,-2.26562516e-005
,,,-3.25000000e-009,-2.57812518e-005
,,,-3.22500000e-009,-2.42187517e-005
,,,-3.20000000e-009,-1.95312514e-005
,,,-3.17500000e-009,-1.25000009e-005
,,,-3.15000000e-009,-5.46875039e-006
,,,-3.12500000e-009,0.00000000e+000
,,,-3.10000000e-009,7.03125050e-006
,,,-3.07500000e-009,1.25000009e-005
,,,-3.05000000e-009,1.48437511e-005
,,,-3.02500000e-009,1.40625010e-005
,,,-3.00000000e-009,1.17187508e-005
,,,-2.97500000e-009,7.81250055e-006
,,,-2.95000000e-009,3.90625028e-006
,,,-2.92500000e-009,0.00000000e+000
,,,-2.90000000e-009,-7.81250055e-007
,,,-2.87500000e-009,-7.81250055e-007
,,,-2.85000000e-009,0.00000000e+000
,,,-2.82500000e-009,0.00000000e+000
,,,-2.80000000e-009,7.81250055e-007
,,,-2.77500000e-009,7.81250055e-007
,,,-2.75000000e-009,7.81250055e-007
,,,-2.72500000e-009,0.00000000e+000
,,,-2.70000000e-009,7.81250055e-007
,,,-2.67500000e-009,7.81250055e-007
,,,-2.65000000e-009,0.00000000e+000
,,,-2.62500000e-009,-7.81250055e-007
,,,-2.60000000e-009,-1.56250011e-006
,,,-2.57500000e-009,-2.34375017e-006
,,,-2.55000000e-009,-2.34375017e-006
,,,-2.52500000e-009,0.00000000e+000
,,,-2.50000000e-009,7.03125050e-006
,,,-2.47500000e-009,1.79687513e-005
,,,-2.45000000e-009,3.43750024e-005
,,,-2.42500000e-009,5.62500040e-005
,,,-2.40000000e-009,8.35937559e-005
,,,-2.37500000e-009,1.17187508e-004
,,,-2.35000000e-009,1.56250011e-004
,,,-2.32500000e-009,2.00000014e-004
,,,-2.30000000e-009,2.45312517e-004
,,,-2.27500000e-009,2.89843771e-004
,,,-2.25000000e-009,3.32031274e-004
,,,-2.22500000e-009,3.67187526e-004
,,,-2.20000000e-009,3.92968778e-004
,,,-2.17500000e-009,4.07812529e-004
,,,-2.15000000e-009,4.10156279e-004
,,,-2.12500000e-009,4.00000028e-004
,,,-2.10000000e-009,3.75000027e-004
,,,-2.07500000e-009,3.42187524e-004
,,,-2.05000000e-009,3.04687522e-004
,,,-2.02500000e-009,2.67968769e-004
,,,-2.00000000e-009,2.35156267e-004
,,,-1.97500000e-009,2.10937515e-004
,,,-1.95000000e-009,1.98437514e-004
,,,-1.92500000e-009,2.00000014e-004
,,,-1.90000000e-009,2.11718765e-004
,,,-1.87500000e-009,2.35937517e-004
,,,-1.85000000e-009,2.68750019e-004
,,,-1.82500000e-009,3.04687522e-004
,,,-1.80000000e-009,3.40625024e-004
,,,-1.77500000e-009,3.70312526e-004
,,,-1.75000000e-009,3.91406278e-004
,,,-1.72500000e-009,4.00000028e-004
,,,-1.70000000e-009,3.89062528e-004
,,,-1.67500000e-009,3.66406276e-004
,,,-1.65000000e-009,3.34375024e-004
,,,-1.62500000e-009,2.97656271e-004
,,,-1.60000000e-009,2.61718769e-004
,,,-1.57500000e-009,2.30468766e-004
,,,-1.55000000e-009,2.08593765e-004
,,,-1.52500000e-009,2.00000014e-004
,,,-1.50000000e-009,1.96875014e-004
,,,-1.47500000e-009,2.06250015e-004
,,,-1.45000000e-009,2.28125016e-004
,,,-1.42500000e-009,2.59375018e-004
,,,-1.40000000e-009,2.96093771e-004
,,,-1.37500000e-009,3.34375024e-004
,,,-1.35000000e-009,3.70312526e-004
,,,-1.32500000e-009,4.00000028e-004
,,,-1.30000000e-009,4.03125029e-004
,,,-1.27500000e-009,3.92968778e-004
,,,-1.25000000e-009,3.71093776e-004
,,,-1.22500000e-009,3.40625024e-004
,,,-1.20000000e-009,3.03906272e-004
,,,-1.17500000e-009,2.66406269e-004
,,,-1.15000000e-009,2.31250016e-004
,,,-1.12500000e-009,2.00000014e-004
,,,-1.10000000e-009,1.53906261e-004
,,,-1.07500000e-009,1.13281258e-004
,,,-1.05000000e-009,7.81250055e-005
,,,-1.02500000e-009,4.92187535e-005
,,,-1.00000000e-009,2.89062520e-005
,,,-9.75000000e-010,1.40625010e-005
,,,-9.50000000e-010,5.46875039e-006
,,,-9.25000000e-010,0.00000000e+000
,,,-9.00000000e-010,-3.04687522e-005
,,,-8.75000000e-010,-6.71875048e-005
,,,-8.50000000e-010,-1.10937508e-004
,,,-8.25000000e-010,-1.59375011e-004
,,,-8.00000000e-010,-2.13281265e-004
,,,-7.75000000e-010,-2.70312519e-004
,,,-7.50000000e-010,-3.32812524e-004
,,,-7.25000000e-010,-4.00000028e-004
,,,-7.00000000e-010,-4.95312535e-004
,,,-6.75000000e-010,-6.01562543e-004
,,,-6.50000000e-010,-7.17187551e-004
,,,-6.25000000e-010,-8.41406310e-004
,,,-6.00000000e-010,-9.72656319e-004
,,,-5.75000000e-010,-1.11015633e-003
,,,-5.50000000e-010,-1.25234384e-003
,,,-5.25000000e-010,-1.40000010e-003
,,,-5.00000000e-010,-1.56562511e-003
,,,-4.75000000e-010,-1.73828137e-003
,,,-4.50000000e-010,-1.91562514e-003
,,,-4.25000000e-010,-2.09609390e-003
,,,-4.00000000e-010,-2.27578141e-003
,,,-3.75000000e-010,-2.45390642e-003
,,,-3.50000000e-010,-2.62812519e-003
,,,-3.25000000e-010,-2.80000020e-003
,,,-3.00000000e-010,-2.96875021e-003
,,,-2.75000000e-010,-3.13828147e-003
,,,-2.50000000e-010,-3.31015648e-003
,,,-2.25000000e-010,-3.48515650e-003
,,,-2.00000000e-010,-3.66171901e-003
,,,-1.75000000e-010,-3.83984402e-003
,,,-1.50000000e-010,-4.01953153e-003
,,,-1.25000000e-010,-4.20000030e-003
,,,-1.00000000e-010,-4.36484406e-003
,,,-7.50000000e-011,-4.53046907e-003
,,,-5.00000000e-011,-4.69453158e-003
,,,-2.50000000e-011,-4.85546909e-003
,,,0.00000000e+000,-5.00937535e-003
,,,2.50000000e-011,-5.15312536e-003
,,,5.00000000e-011,-5.28359412e-003
,,,7.50000000e-011,-5.40000038e-003
,,,1.00000000e-010,-5.47265664e-003
,,,1.25000000e-010,-5.53437539e-003
,,,1.50000000e-010,-5.58750040e-003
,,,1.75000000e-010,-5.63437540e-003
,,,2.00000000e-010,-5.67734415e-003
,,,2.25000000e-010,-5.71875040e-003
,,,2.50000000e-010,-5.75937541e-003
,,,2.75000000e-010,-5.80000041e-003
,,,3.00000000e-010,-5.81015666e-003
,,,3.25000000e-010,-5.82578166e-003
,,,3.50000000e-010,-5.84765666e-003
,,,3.75000000e-010,-5.87578167e-003
,,,4.00000000e-010,-5.90781292e-003
,,,4.25000000e-010,-5.94062542e-003
,,,4.50000000e-010,-5.97265667e-003
,,,4.75000000e-010,-6.00000042e-003
,,,5.00000000e-010,-5.98906292e-003
,,,5.25000000e-010,-5.97343792e-003
,,,5.50000000e-010,-5.95390667e-003
,,,5.75000000e-010,-5.93046917e-003
,,,6.00000000e-010,-5.90312542e-003
,,,6.25000000e-010,-5.87265667e-003
,,,6.50000000e-010,-5.83828166e-003
,,,6.75000000e-010,-5.80000041e-003
,,,7.00000000e-010,-5.72812541e-003
,,,7.25000000e-010,-5.65390665e-003
,,,7.50000000e-010,-5.57890664e-003
,,,7.75000000e-010,-5.50234414e-003
,,,8.00000000e-010,-5.42734413e-003
,,,8.25000000e-010,-5.35156288e-003
,,,8.50000000e-010,-5.27656287e-003
,,,8.75000000e-010,-5.20000037e-003
,,,9.00000000e-010,-5.10078161e-003
,,,9.25000000e-010,-4.99921910e-003
,,,9.50000000e-010,-4.89609410e-003
,,,9.75000000e-010,-4.79296909e-003
,,,1.00000000e-009,-4.69062533e-003
,,,1.02500000e-009,-4.58984407e-003
,,,1.05000000e-009,-4.49296907e-003
,,,1.07500000e-009,-4.40000031e-003
,,,1.10000000e-009,-4.29843780e-003
,,,1.12500000e-009,-4.20000030e-003
,,,1.15000000e-009,-4.10781279e-003
,,,1.17500000e-009,-4.02343778e-003
,,,1.20000000e-009,-3.95000028e-003
,,,1.22500000e-009,-3.88750028e-003
,,,1.25000000e-009,-3.83750027e-003
,,,1.27500000e-009,-3.80000027e-003
,,,1.30000000e-009,-3.76093777e-003
,,,1.32500000e-009,-3.72421901e-003
,,,1.35000000e-009,-3.68671901e-003
,,,1.37500000e-009,-3.64453151e-003
,,,1.40000000e-009,-3.59687525e-003
,,,1.42500000e-009,-3.54140650e-003
,,,1.45000000e-009,-3.47656275e-003
,,,1.47500000e-009,-3.40000024e-003
,,,1.50000000e-009,-3.30468773e-003
,,,1.52500000e-009,-3.19453148e-003
,,,1.55000000e-009,-3.07109397e-003
,,,1.57500000e-009,-2.93750021e-003
,,,1.60000000e-009,-2.80000020e-003
,,,1.62500000e-009,-2.66171894e-003
,,,1.65000000e-009,-2.52656268e-003
,,,1.67500000e-009,-2.40000017e-003
,,,1.70000000e-009,-2.28359391e-003
,,,1.72500000e-009,-2.17343765e-003
,,,1.75000000e-009,-2.06875015e-003
,,,1.77500000e-009,-1.96875014e-003
,,,1.80000000e-009,-1.87343763e-003
,,,1.82500000e-009,-1.78046888e-003
,,,1.85000000e-009,-1.68984387e-003
,,,1.87500000e-009,-1.60000011e-003
,,,1.90000000e-009,-1.51562511e-003
,,,1.92500000e-009,-1.42500010e-003
,,,1.95000000e-009,-1.32812509e-003
,,,1.97500000e-009,-1.22578134e-003
,,,2.00000000e-009,-1.11953133e-003
,,,2.02500000e-009,-1.01093757e-003
,,,2.05000000e-009,-9.03906314e-004
,,,2.07500000e-009,-8.00000057e-004
,,,2.10000000e-009,-7.11718800e-004
,,,2.12500000e-009,-6.26562544e-004
,,,2.15000000e-009,-5.43750038e-004
,,,2.17500000e-009,-4.64843783e-004
,,,2.20000000e-009,-3.90625028e-004
,,,2.22500000e-009,-3.21093773e-004
,,,2.25000000e-009,-2.57031268e-004
,,,2.27500000e-009,-2.00000014e-004
,,,2.30000000e-009,-1.66406262e-004
,,,2.32500000e-009,-1.35937510e-004
,,,2.35000000e-009,-1.07812508e-004
,,,2.37500000e-009,-8.20312558e-005
,,,2.40000000e-009,-5.78125041e-005
,,,2.42500000e-009,-3.59375025e-005
,,,2.45000000e-009,-1.64062512e-005
,,,2.47500000e-009,0.00000000e+000
,,,2.50000000e-009,-3.12500022e-006
,,,2.52500000e-009,-6.25000044e-006
,,,2.55000000e-009,-7.81250055e-006
,,,2.57500000e-009,-7.81250055e-006
,,,2.60000000e-009,-6.25000044e-006
,,,2.62500000e-009,-4.68750033e-006
,,,2.65000000e-009,-2.34375017e-006
,,,2.67500000e-009,0.00000000e+000
,,,2.70000000e-009,-9.37500066e-006
,,,2.72500000e-009,-1.64062512e-005
,,,2.75000000e-009,-2.10937515e-005
,,,2.77500000e-009,-2.10937515e-005
,,,2.80000000e-009,-1.87500013e-005
,,,2.82500000e-009,-1.32812509e-005
,,,2.85000000e-009,-6.25000044e-006
,,,2.87500000e-009,0.00000000e+000
,,,2.90000000e-009,-3.12500022e-006
,,,2.92500000e-009,-8.59375061e-006
,,,2.95000000e-009,-1.87500013e-005
,,,2.97500000e-009,-3.51562525e-005
,,,3.00000000e-009,-5.93750042e-005
,,,3.02500000e-009,-9.45312567e-005
,,,3.05000000e-009,-1.41406260e-004
,,,3.07500000e-009,-2.00000014e-004
,,,3.10000000e-009,-2.71093769e-004
,,,3.12500000e-009,-3.49218775e-004
,,,3.15000000e-009,-4.32031281e-004
,,,3.17500000e-009,-5.15625036e-004
,,,3.20000000e-009,-5.97656292e-004
,,,3.22500000e-009,-6.74218798e-004
,,,3.25000000e-009,-7.42187553e-004
,,,3.27500000e-009,-8.00000057e-004
,,,3.30000000e-009,-8.38281309e-004
,,,3.32500000e-009,-8.63281311e-004
,,,3.35000000e-009,-8.75000062e-004
,,,3.37500000e-009,-8.75000062e-004
,,,3.40000000e-009,-8.65625061e-004
,,,3.42500000e-009,-8.48437560e-004
,,,3.45000000e-009,-8.25781308e-004
,,,3.47500000e-009,-8.00000057e-004
,,,3.50000000e-009,-7.66406304e-004
,,,3.52500000e-009,-7.35156302e-004
,,,3.55000000e-009,-7.05468800e-004
,,,3.57500000e-009,-6.79687548e-004
,,,3.60000000e-009,-6.56250046e-004
,,,3.62500000e-009,-6.35937545e-004
,,,3.65000000e-009,-6.17187544e-004
,,,3.67500000e-009,-6.00000042e-004
,,,3.70000000e-009,-5.77343791e-004
,,,3.72500000e-009,-5.55468789e-004
,,,3.75000000e-009,-5.32812538e-004
,,,3.77500000e-009,-5.08593786e-004
,,,3.80000000e-009,-4.83593784e-004
,,,3.82500000e-009,-4.57031282e-004
,,,3.85000000e-009,-4.28906280e-004
,,,3.87500000e-009,-4.00000028e-004
,,,3.90000000e-009,-3.67187526e-004
,,,3.92500000e-009,-3.35937524e-004
,,,3.95000000e-009,-3.05468772e-004
,,,3.97500000e-009,-2.77343770e-004
,,,4.00000000e-009,-2.52343768e-004
,,,4.02500000e-009,-2.31250016e-004
,,,4.05000000e-009,-2.13281265e-004
,,,4.07500000e-009,-2.00000014e-004
,,,4.10000000e-009,-1.89062513e-004
,,,4.12500000e-009,-1.82812513e-004
,,,4.15000000e-009,-1.79687513e-004
,,,4.17500000e-009,-1.80468763e-004
,,,4.20000000e-009,-1.82812513e-004
,,,4.22500000e-009,-1.87500013e-004
,,,4.25000000e-009,-1.93750014e-004
,,,4.27500000e-009,-2.00000014e-004
,,,4.30000000e-009,-2.05468765e-004
,,,4.32500000e-009,-2.10156265e-004
,,,4.35000000e-009,-2.11718765e-004
,,,4.37500000e-009,-2.11718765e-004
,,,4.40000000e-009,-2.09375015e-004
,,,4.42500000e-009,-2.07031265e-004
,,,4.45000000e-009,-2.03125014e-004
,,,4.47500000e-009,-2.00000014e-004
,,,4.50000000e-009,-1.96093764e-004
,,,4.52500000e-009,-1.92187514e-004
,,,4.55000000e-009,-1.89843763e-004
,,,4.57500000e-009,-1.87500013e-004
,,,4.60000000e-009,-1.87500013e-004
,,,4.62500000e-009,-1.89062513e-004
,,,4.65000000e-009,-1.93750014e-004
,,,4.67500000e-009,-2.00000014e-004
,,,4.70000000e-009,-2.05468765e-004
,,,4.72500000e-009,-2.11718765e-004
,,,4.75000000e-009,-2.16406265e-004
,,,4.77500000e-009,-2.18750015e-004
,,,4.80000000e-009,-2.19531266e-004
,,,4.82500000e-009,-2.16406265e-004
,,,4.85000000e-009,-2.10156265e-004
,,,4.87500000e-009,-2.00000014e-004
,,,4.90000000e-009,-1.82031263e-004
,,,4.92500000e-009,-1.60156261e-004
,,,4.95000000e-009,-1.35156260e-004
,,,4.97500000e-009,-1.07812508e-004
,,,5.00000000e-009,-7.96875056e-005
,,,5.02500000e-009,-5.15625036e-005
,,,5.05000000e-009,-2.50000018e-005
,,,5.07500000e-009,0.00000000e+000
,,,5.10000000e-009,2.42187517e-005
,,,5.12500000e-009,4.68750033e-005
,,,5.15000000e-009,6.95312549e-005
,,,5.17500000e-009,9.21875065e-005
,,,5.20000000e-009,1.15625008e-004
,,,5.22500000e-009,1.41406260e-004
,,,5.25000000e-009,1.68750012e-004
,,,5.27500000e-009,2.00000014e-004
,,,5.30000000e-009,2.29687516e-004
,,,5.32500000e-009,2.60156268e-004
,,,5.35000000e-009,2.91406271e-004
,,,5.37500000e-009,3.21093773e-004
,,,5.40000000e-009,3.47656275e-004
,,,5.42500000e-009,3.70312526e-004
,,,5.45000000e-009,3.87500027e-004
,,,5.47500000e-009,4.00000028e-004
,,,5.50000000e-009,4.01562528e-004
,,,5.52500000e-009,3.99218778e-004
,,,5.55000000e-009,3.93750028e-004
,,,5.57500000e-009,3.88281277e-004
,,,5.60000000e-009,3.84375027e-004
,,,5.62500000e-009,3.83593777e-004
,,,5.65000000e-009,3.88281277e-004
,,,5.67500000e-009,4.00000028e-004
,,,5.70000000e-009,4.13281279e-004
,,,5.72500000e-009,4.32812531e-004
,,,5.75000000e-009,4.58593782e-004
,,,5.77500000e-009,4.88281285e-004
,,,5.80000000e-009,5.19531287e-004
,,,5.82500000e-009,5.50781289e-004
,,,5.85000000e-009,5.78125041e-004
,,,5.87500000e-009,6.00000042e-004
,,,5.90000000e-009,6.07031293e-004
,,,5.92500000e-009,6.05468793e-004
,,,5.95000000e-009,5.93750042e-004
,,,5.97500000e-009,5.71875040e-004
