RawData/SinglePhotoelectron/R5_2pt2B_5mV/wave007_Ch2.csv

"Record Length",1000,"Points",-7.72500000e-009,5.26562537e-004
"Sample Interval",2.50000000e-011,s,-7.70000000e-009,5.59375040e-004
"Trigger Point",309,"Samples",-7.67500000e-009,5.85156291e-004
"Trigger Time",2.40200000e-011,s,-7.65000000e-009,5.99218792e-004
"",,,-7.62500000e-009,6.00000042e-004
"Horizontal Offset",-7.72500000e-009,s,-7.60000000e-009,5.83593791e-004
,,,-7.57500000e-009,5.51562539e-004
,,,-7.55000000e-009,5.07031286e-004
,,,-7.52500000e-009,4.50781282e-004
,,,-7.50000000e-009,3.87500027e-004
,,,-7.47500000e-009,3.21875023e-004
,,,-7.45000000e-009,2.57812518e-004
,,,-7.42500000e-009,2.00000014e-004
,,,-7.40000000e-009,1.53906261e-004
,,,-7.37500000e-009,1.21875009e-004
,,,-7.35000000e-009,1.03906257e-004
,,,-7.32500000e-009,1.00000007e-004
,,,-7.30000000e-009,1.09375008e-004
,,,-7.27500000e-009,1.30468759e-004
,,,-7.25000000e-009,1.61718761e-004
,,,-7.22500000e-009,2.00000014e-004
,,,-7.20000000e-009,2.41406267e-004
,,,-7.17500000e-009,2.83593770e-004
,,,-7.15000000e-009,3.22656273e-004
,,,-7.12500000e-009,3.56250025e-004
,,,-7.10000000e-009,3.82031277e-004
,,,-7.07500000e-009,3.97656278e-004
,,,-7.05000000e-009,4.03906279e-004
,,,-7.02500000e-009,4.00000028e-004
,,,-7.00000000e-009,3.85937527e-004
,,,-6.97500000e-009,3.63281276e-004
,,,-6.95000000e-009,3.35156274e-004
,,,-6.92500000e-009,3.03906272e-004
,,,-6.90000000e-009,2.71875019e-004
,,,-6.87500000e-009,2.42187517e-004
,,,-6.85000000e-009,2.17187515e-004
,,,-6.82500000e-009,2.00000014e-004
,,,-6.80000000e-009,1.92968764e-004
,,,-6.77500000e-009,1.96875014e-004
,,,-6.75000000e-009,2.10937515e-004
,,,-6.72500000e-009,2.34375017e-004
,,,-6.70000000e-009,2.67187519e-004
,,,-6.67500000e-009,3.07031272e-004
,,,-6.65000000e-009,3.52343775e-004
,,,-6.62500000e-009,4.00000028e-004
,,,-6.60000000e-009,4.47656282e-004
,,,-6.57500000e-009,4.92187535e-004
,,,-6.55000000e-009,5.32031288e-004
,,,-6.52500000e-009,5.63281290e-004
,,,-6.50000000e-009,5.86718792e-004
,,,-6.47500000e-009,6.00781293e-004
,,,-6.45000000e-009,6.04687543e-004
,,,-6.42500000e-009,6.00000042e-004
,,,-6.40000000e-009,5.83593791e-004
,,,-6.37500000e-009,5.60937540e-004
,,,-6.35000000e-009,5.33593788e-004
,,,-6.32500000e-009,5.03906286e-004
,,,-6.30000000e-009,4.73437534e-004
,,,-6.27500000e-009,4.45312532e-004
,,,-6.25000000e-009,4.20312530e-004
,,,-6.22500000e-009,4.00000028e-004
,,,-6.20000000e-009,3.82031277e-004
,,,-6.17500000e-009,3.70312526e-004
,,,-6.15000000e-009,3.64843776e-004
,,,-6.12500000e-009,3.64843776e-004
,,,-6.10000000e-009,3.69531276e-004
,,,-6.07500000e-009,3.77343777e-004
,,,-6.05000000e-009,3.88281277e-004
,,,-6.02500000e-009,4.00000028e-004
,,,-6.00000000e-009,4.08593779e-004
,,,-5.97500000e-009,4.15625029e-004
,,,-5.95000000e-009,4.19531280e-004
,,,-5.92500000e-009,4.21093780e-004
,,,-5.90000000e-009,4.18750030e-004
,,,-5.87500000e-009,4.14062529e-004
,,,-5.85000000e-009,4.07812529e-004
,,,-5.82500000e-009,4.00000028e-004
,,,-5.80000000e-009,3.89062528e-004
,,,-5.77500000e-009,3.78906277e-004
,,,-5.75000000e-009,3.71875026e-004
,,,-5.72500000e-009,3.67968776e-004
,,,-5.70000000e-009,3.68750026e-004
,,,-5.67500000e-009,3.74218776e-004
,,,-5.65000000e-009,3.85156277e-004
,,,-5.62500000e-009,4.00000028e-004
,,,-5.60000000e-009,4.14843779e-004
,,,-5.57500000e-009,4.29687530e-004
,,,-5.55000000e-009,4.42187531e-004
,,,-5.52500000e-009,4.50781282e-004
,,,-5.50000000e-009,4.52343782e-004
,,,-5.47500000e-009,4.45312532e-004
,,,-5.45000000e-009,4.27343780e-004
,,,-5.42500000e-009,4.00000028e-004
,,,-5.40000000e-009,3.60156275e-004
,,,-5.37500000e-009,3.12500022e-004
,,,-5.35000000e-009,2.57812518e-004
,,,-5.32500000e-009,2.00000014e-004
,,,-5.30000000e-009,1.41406260e-004
,,,-5.27500000e-009,8.67187561e-005
,,,-5.25000000e-009,3.90625028e-005
,,,-5.22500000e-009,0.00000000e+000
,,,-5.20000000e-009,-2.57812518e-005
,,,-5.17500000e-009,-4.14062529e-005
,,,-5.15000000e-009,-4.68750033e-005
,,,-5.12500000e-009,-4.37500031e-005
,,,-5.10000000e-009,-3.51562525e-005
,,,-5.07500000e-009,-2.34375017e-005
,,,-5.05000000e-009,-1.09375008e-005
,,,-5.02500000e-009,0.00000000e+000
,,,-5.00000000e-009,1.09375008e-005
,,,-4.97500000e-009,1.79687513e-005
,,,-4.95000000e-009,2.03125014e-005
,,,-4.92500000e-009,1.95312514e-005
,,,-4.90000000e-009,1.56250011e-005
,,,-4.87500000e-009,1.01562507e-005
,,,-4.85000000e-009,4.68750033e-006
,,,-4.82500000e-009,0.00000000e+000
,,,-4.80000000e-009,0.00000000e+000
,,,-4.77500000e-009,1.56250011e-006
,,,-4.75000000e-009,3.90625028e-006
,,,-4.72500000e-009,6.25000044e-006
,,,-4.70000000e-009,7.81250055e-006
,,,-4.67500000e-009,7.81250055e-006
,,,-4.65000000e-009,5.46875039e-006
,,,-4.62500000e-009,0.00000000e+000
,,,-4.60000000e-009,-4.68750033e-006
,,,-4.57500000e-009,-1.17187508e-005
,,,-4.55000000e-009,-1.87500013e-005
,,,-4.52500000e-009,-2.42187517e-005
,,,-4.50000000e-009,-2.65625019e-005
,,,-4.47500000e-009,-2.42187517e-005
,,,-4.45000000e-009,-1.48437511e-005
,,,-4.42500000e-009,0.00000000e+000
,,,-4.40000000e-009,2.42187517e-005
,,,-4.37500000e-009,5.31250038e-005
,,,-4.35000000e-009,8.43750060e-005
,,,-4.32500000e-009,1.15625008e-004
,,,-4.30000000e-009,1.45312510e-004
,,,-4.27500000e-009,1.69531262e-004
,,,-4.25000000e-009,1.88281263e-004
,,,-4.22500000e-009,2.00000014e-004
,,,-4.20000000e-009,2.03125014e-004
,,,-4.17500000e-009,2.00781264e-004
,,,-4.15000000e-009,1.94531264e-004
,,,-4.12500000e-009,1.87500013e-004
,,,-4.10000000e-009,1.82031263e-004
,,,-4.07500000e-009,1.81250013e-004
,,,-4.05000000e-009,1.86718763e-004
,,,-4.02500000e-009,2.00000014e-004
,,,-4.00000000e-009,2.18750015e-004
,,,-3.97500000e-009,2.44531267e-004
,,,-3.95000000e-009,2.75000019e-004
,,,-3.92500000e-009,3.07812522e-004
,,,-3.90000000e-009,3.39843774e-004
,,,-3.87500000e-009,3.67187526e-004
,,,-3.85000000e-009,3.88281277e-004
,,,-3.82500000e-009,4.00000028e-004
,,,-3.80000000e-009,3.96875028e-004
,,,-3.77500000e-009,3.83593777e-004
,,,-3.75000000e-009,3.61718776e-004
,,,-3.72500000e-009,3.32031274e-004
,,,-3.70000000e-009,2.98437521e-004
,,,-3.67500000e-009,2.63281269e-004
,,,-3.65000000e-009,2.28906266e-004
,,,-3.62500000e-009,2.00000014e-004
,,,-3.60000000e-009,1.73437512e-004
,,,-3.57500000e-009,1.55468761e-004
,,,-3.55000000e-009,1.46093760e-004
,,,-3.52500000e-009,1.44531260e-004
,,,-3.50000000e-009,1.51562511e-004
,,,-3.47500000e-009,1.64062512e-004
,,,-3.45000000e-009,1.80468763e-004
,,,-3.42500000e-009,2.00000014e-004
,,,-3.40000000e-009,2.14843765e-004
,,,-3.37500000e-009,2.27343766e-004
,,,-3.35000000e-009,2.36718767e-004
,,,-3.32500000e-009,2.40625017e-004
,,,-3.30000000e-009,2.39062517e-004
,,,-3.27500000e-009,2.31250016e-004
,,,-3.25000000e-009,2.17968765e-004
,,,-3.22500000e-009,2.00000014e-004
,,,-3.20000000e-009,1.75781262e-004
,,,-3.17500000e-009,1.48437511e-004
,,,-3.15000000e-009,1.19531258e-004
,,,-3.12500000e-009,9.06250064e-005
,,,-3.10000000e-009,6.32812545e-005
,,,-3.07500000e-009,3.82812527e-005
,,,-3.05000000e-009,1.64062512e-005
,,,-3.02500000e-009,0.00000000e+000
,,,-3.00000000e-009,-1.17187508e-005
,,,-2.97500000e-009,-1.87500013e-005
,,,-2.95000000e-009,-2.10937515e-005
,,,-2.92500000e-009,-2.03125014e-005
,,,-2.90000000e-009,-1.56250011e-005
,,,-2.87500000e-009,-1.01562507e-005
,,,-2.85000000e-009,-3.90625028e-006
,,,-2.82500000e-009,0.00000000e+000
,,,-2.80000000e-009,7.81250055e-007
,,,-2.77500000e-009,-3.12500022e-006
,,,-2.75000000e-009,-1.48437511e-005
,,,-2.72500000e-009,-3.51562525e-005
,,,-2.70000000e-009,-6.48437546e-005
,,,-2.67500000e-009,-1.03125007e-004
,,,-2.65000000e-009,-1.48437511e-004
,,,-2.62500000e-009,-2.00000014e-004
,,,-2.60000000e-009,-2.51562518e-004
,,,-2.57500000e-009,-3.03125021e-004
,,,-2.55000000e-009,-3.49218775e-004
,,,-2.52500000e-009,-3.87500027e-004
,,,-2.50000000e-009,-4.14062529e-004
,,,-2.47500000e-009,-4.25781280e-004
,,,-2.45000000e-009,-4.21093780e-004
,,,-2.42500000e-009,-4.00000028e-004
,,,-2.40000000e-009,-3.59375025e-004
,,,-2.37500000e-009,-3.07031272e-004
,,,-2.35000000e-009,-2.46875017e-004
,,,-2.32500000e-009,-1.84375013e-004
,,,-2.30000000e-009,-1.23437509e-004
,,,-2.27500000e-009,-7.03125050e-005
,,,-2.25000000e-009,-2.73437519e-005
,,,-2.22500000e-009,0.00000000e+000
,,,-2.20000000e-009,1.01562507e-005
,,,-2.17500000e-009,3.90625028e-006
,,,-2.15000000e-009,-1.56250011e-005
,,,-2.12500000e-009,-4.76562534e-005
,,,-2.10000000e-009,-8.59375061e-005
,,,-2.07500000e-009,-1.27343759e-004
,,,-2.05000000e-009,-1.66406262e-004
,,,-2.02500000e-009,-2.00000014e-004
,,,-2.00000000e-009,-2.25781266e-004
,,,-1.97500000e-009,-2.42187517e-004
,,,-1.95000000e-009,-2.49218768e-004
,,,-1.92500000e-009,-2.47656268e-004
,,,-1.90000000e-009,-2.39843767e-004
,,,-1.87500000e-009,-2.27343766e-004
,,,-1.85000000e-009,-2.13281265e-004
,,,-1.82500000e-009,-2.00000014e-004
,,,-1.80000000e-009,-1.91406264e-004
,,,-1.77500000e-009,-1.87500013e-004
,,,-1.75000000e-009,-1.87500013e-004
,,,-1.72500000e-009,-1.90625013e-004
,,,-1.70000000e-009,-1.94531264e-004
,,,-1.67500000e-009,-1.98437514e-004
,,,-1.65000000e-009,-2.00000014e-004
,,,-1.62500000e-009,-2.00000014e-004
,,,-1.60000000e-009,-2.05468765e-004
,,,-1.57500000e-009,-2.09375015e-004
,,,-1.55000000e-009,-2.10937515e-004
,,,-1.52500000e-009,-2.10937515e-004
,,,-1.50000000e-009,-2.08593765e-004
,,,-1.47500000e-009,-2.05468765e-004
,,,-1.45000000e-009,-2.01562514e-004
,,,-1.42500000e-009,-2.00000014e-004
,,,-1.40000000e-009,-2.14843765e-004
,,,-1.37500000e-009,-2.35156267e-004
,,,-1.35000000e-009,-2.60156268e-004
,,,-1.32500000e-009,-2.88281270e-004
,,,-1.30000000e-009,-3.17187522e-004
,,,-1.27500000e-009,-3.46093774e-004
,,,-1.25000000e-009,-3.74218776e-004
,,,-1.22500000e-009,-4.00000028e-004
,,,-1.20000000e-009,-4.39843781e-004
,,,-1.17500000e-009,-4.79687534e-004
,,,-1.15000000e-009,-5.15625036e-004
,,,-1.12500000e-009,-5.46875039e-004
,,,-1.10000000e-009,-5.71093790e-004
,,,-1.07500000e-009,-5.88281292e-004
,,,-1.05000000e-009,-5.96875042e-004
,,,-1.02500000e-009,-6.00000042e-004
,,,-1.00000000e-009,-6.19531294e-004
,,,-9.75000000e-010,-6.42968796e-004
,,,-9.50000000e-010,-6.73437548e-004
,,,-9.25000000e-010,-7.13281300e-004
,,,-9.00000000e-010,-7.64062554e-004
,,,-8.75000000e-010,-8.27343809e-004
,,,-8.50000000e-010,-9.05468814e-004
,,,-8.25000000e-010,-1.00000007e-003
,,,-8.00000000e-010,-1.12656258e-003
,,,-7.75000000e-010,-1.26953134e-003
,,,-7.50000000e-010,-1.42500010e-003
,,,-7.25000000e-010,-1.58671886e-003
,,,-7.00000000e-010,-1.74921887e-003
,,,-6.75000000e-010,-1.90859389e-003
,,,-6.50000000e-010,-2.05937515e-003
,,,-6.25000000e-010,-2.20000016e-003
,,,-6.00000000e-010,-2.33437517e-003
,,,-5.75000000e-010,-2.46171892e-003
,,,-5.50000000e-010,-2.58281268e-003
,,,-5.25000000e-010,-2.70078144e-003
,,,-5.00000000e-010,-2.81875020e-003
,,,-4.75000000e-010,-2.93906271e-003
,,,-4.50000000e-010,-3.06562522e-003
,,,-4.25000000e-010,-3.20000023e-003
,,,-4.00000000e-010,-3.33671899e-003
,,,-3.75000000e-010,-3.48515650e-003
,,,-3.50000000e-010,-3.64062526e-003
,,,-3.25000000e-010,-3.80156277e-003
,,,-3.00000000e-010,-3.96250028e-003
,,,-2.75000000e-010,-4.11875029e-003
,,,-2.50000000e-010,-4.26562530e-003
,,,-2.25000000e-010,-4.40000031e-003
,,,-2.00000000e-010,-4.50234407e-003
,,,-1.75000000e-010,-4.59218783e-003
,,,-1.50000000e-010,-4.67187533e-003
,,,-1.25000000e-010,-4.74296909e-003
,,,-1.00000000e-010,-4.80937534e-003
,,,-7.50000000e-011,-4.87343784e-003
,,,-5.00000000e-011,-4.93593785e-003
,,,-2.50000000e-011,-5.00000035e-003
,,,0.00000000e+000,-5.04062536e-003
,,,2.50000000e-011,-5.08671911e-003
,,,5.00000000e-011,-5.13906286e-003
,,,7.50000000e-011,-5.19453162e-003
,,,1.00000000e-010,-5.25234412e-003
,,,1.25000000e-010,-5.30781288e-003
,,,1.50000000e-010,-5.35781288e-003
,,,1.75000000e-010,-5.40000038e-003
,,,2.00000000e-010,-5.40000038e-003
,,,2.25000000e-010,-5.39062538e-003
,,,2.50000000e-010,-5.37187538e-003
,,,2.75000000e-010,-5.34687538e-003
,,,3.00000000e-010,-5.31562538e-003
,,,3.25000000e-010,-5.27968787e-003
,,,3.50000000e-010,-5.24062537e-003
,,,3.75000000e-010,-5.20000037e-003
,,,4.00000000e-010,-5.13046911e-003
,,,4.25000000e-010,-5.06406286e-003
,,,4.50000000e-010,-5.00234410e-003
,,,4.75000000e-010,-4.94687535e-003
,,,5.00000000e-010,-4.89921910e-003
,,,5.25000000e-010,-4.86015659e-003
,,,5.50000000e-010,-4.82734409e-003
,,,5.75000000e-010,-4.80000034e-003
,,,6.00000000e-010,-4.75390659e-003
,,,6.25000000e-010,-4.70937533e-003
,,,6.50000000e-010,-4.66484408e-003
,,,6.75000000e-010,-4.61953158e-003
,,,7.00000000e-010,-4.57187532e-003
,,,7.25000000e-010,-4.52031282e-003
,,,7.50000000e-010,-4.46328157e-003
,,,7.75000000e-010,-4.40000031e-003
,,,8.00000000e-010,-4.31406281e-003
,,,8.25000000e-010,-4.21953155e-003
,,,8.50000000e-010,-4.11875029e-003
,,,8.75000000e-010,-4.01406278e-003
,,,9.00000000e-010,-3.90781278e-003
,,,9.25000000e-010,-3.80156277e-003
,,,9.50000000e-010,-3.69921901e-003
,,,9.75000000e-010,-3.60000025e-003
,,,1.00000000e-009,-3.49843775e-003
,,,1.02500000e-009,-3.39921899e-003
,,,1.05000000e-009,-3.30078148e-003
,,,1.07500000e-009,-3.20312523e-003
,,,1.10000000e-009,-3.10468772e-003
,,,1.12500000e-009,-3.00468771e-003
,,,1.15000000e-009,-2.90312521e-003
,,,1.17500000e-009,-2.80000020e-003
,,,1.20000000e-009,-2.69531269e-003
,,,1.22500000e-009,-2.58671893e-003
,,,1.25000000e-009,-2.47656268e-003
,,,1.27500000e-009,-2.36718767e-003
,,,1.30000000e-009,-2.26250016e-003
,,,1.32500000e-009,-2.16406265e-003
,,,1.35000000e-009,-2.07578140e-003
,,,1.37500000e-009,-2.00000014e-003
,,,1.40000000e-009,-1.94062514e-003
,,,1.42500000e-009,-1.88828138e-003
,,,1.45000000e-009,-1.84062513e-003
,,,1.47500000e-009,-1.79453138e-003
,,,1.50000000e-009,-1.74921887e-003
,,,1.52500000e-009,-1.70234387e-003
,,,1.55000000e-009,-1.65312512e-003
,,,1.57500000e-009,-1.60000011e-003
,,,1.60000000e-009,-1.55000011e-003
,,,1.62500000e-009,-1.49375011e-003
,,,1.65000000e-009,-1.43437510e-003
,,,1.67500000e-009,-1.37343760e-003
,,,1.70000000e-009,-1.31562509e-003
,,,1.72500000e-009,-1.26562509e-003
,,,1.75000000e-009,-1.22656259e-003
,,,1.77500000e-009,-1.20000008e-003
,,,1.80000000e-009,-1.19453133e-003
,,,1.82500000e-009,-1.19687508e-003
,,,1.85000000e-009,-1.20390634e-003
,,,1.87500000e-009,-1.21250009e-003
,,,1.90000000e-009,-1.21953134e-003
,,,1.92500000e-009,-1.22109384e-003
,,,1.95000000e-009,-1.21484384e-003
,,,1.97500000e-009,-1.20000008e-003
,,,2.00000000e-009,-1.17968758e-003
,,,2.02500000e-009,-1.14609383e-003
,,,2.05000000e-009,-1.10000008e-003
,,,2.07500000e-009,-1.04375007e-003
,,,2.10000000e-009,-9.82031320e-004
,,,2.12500000e-009,-9.17968815e-004
,,,2.15000000e-009,-8.56250061e-004
,,,2.17500000e-009,-8.00000057e-004
,,,2.20000000e-009,-7.56250054e-004
,,,2.22500000e-009,-7.20312551e-004
,,,2.25000000e-009,-6.90625049e-004
,,,2.27500000e-009,-6.66406297e-004
,,,2.30000000e-009,-6.46875046e-004
,,,2.32500000e-009,-6.30468795e-004
,,,2.35000000e-009,-6.14843794e-004
,,,2.37500000e-009,-6.00000042e-004
,,,2.40000000e-009,-5.86718792e-004
,,,2.42500000e-009,-5.70312540e-004
,,,2.45000000e-009,-5.49218789e-004
,,,2.47500000e-009,-5.22656287e-004
,,,2.50000000e-009,-4.92968785e-004
,,,2.52500000e-009,-4.61718783e-004
,,,2.55000000e-009,-4.29687530e-004
,,,2.57500000e-009,-4.00000028e-004
,,,2.60000000e-009,-3.76562527e-004
,,,2.62500000e-009,-3.58593775e-004
,,,2.65000000e-009,-3.46093774e-004
,,,2.67500000e-009,-3.39843774e-004
,,,2.70000000e-009,-3.42187524e-004
,,,2.72500000e-009,-3.53125025e-004
,,,2.75000000e-009,-3.72656276e-004
,,,2.77500000e-009,-4.00000028e-004
,,,2.80000000e-009,-4.35937531e-004
,,,2.82500000e-009,-4.74218784e-004
,,,2.85000000e-009,-5.11718786e-004
,,,2.87500000e-009,-5.45312539e-004
,,,2.90000000e-009,-5.73437541e-004
,,,2.92500000e-009,-5.92187542e-004
,,,2.95000000e-009,-6.01562543e-004
,,,2.97500000e-009,-6.00000042e-004
,,,3.00000000e-009,-5.88281292e-004
,,,3.02500000e-009,-5.67187540e-004
,,,3.05000000e-009,-5.39062538e-004
,,,3.07500000e-009,-5.06250036e-004
,,,3.10000000e-009,-4.72656283e-004
,,,3.12500000e-009,-4.42187531e-004
,,,3.15000000e-009,-4.17187530e-004
,,,3.17500000e-009,-4.00000028e-004
,,,3.20000000e-009,-3.91406278e-004
,,,3.22500000e-009,-3.91406278e-004
,,,3.25000000e-009,-3.96093778e-004
,,,3.27500000e-009,-4.03125029e-004
,,,3.30000000e-009,-4.09375029e-004
,,,3.32500000e-009,-4.13281279e-004
,,,3.35000000e-009,-4.10156279e-004
,,,3.37500000e-009,-4.00000028e-004
,,,3.40000000e-009,-3.80468777e-004
,,,3.42500000e-009,-3.54687525e-004
,,,3.45000000e-009,-3.22656273e-004
,,,3.47500000e-009,-2.88281270e-004
,,,3.50000000e-009,-2.56250018e-004
,,,3.52500000e-009,-2.28125016e-004
,,,3.55000000e-009,-2.08593765e-004
,,,3.57500000e-009,-2.00000014e-004
,,,3.60000000e-009,-2.03906264e-004
,,,3.62500000e-009,-2.19531266e-004
,,,3.65000000e-009,-2.44531267e-004
,,,3.67500000e-009,-2.75781270e-004
,,,3.70000000e-009,-3.10156272e-004
,,,3.72500000e-009,-3.44531274e-004
,,,3.75000000e-009,-3.75000027e-004
,,,3.77500000e-009,-4.00000028e-004
,,,3.80000000e-009,-4.16406279e-004
,,,3.82500000e-009,-4.25000030e-004
,,,3.85000000e-009,-4.26562530e-004
,,,3.87500000e-009,-4.22656280e-004
,,,3.90000000e-009,-4.15625029e-004
,,,3.92500000e-009,-4.08593779e-004
,,,3.95000000e-009,-4.02343778e-004
,,,3.97500000e-009,-4.00000028e-004
,,,4.00000000e-009,-4.01562528e-004
,,,4.02500000e-009,-4.06250029e-004
,,,4.05000000e-009,-4.12500029e-004
,,,4.07500000e-009,-4.19531280e-004
,,,4.10000000e-009,-4.22656280e-004
,,,4.12500000e-009,-4.21875030e-004
,,,4.15000000e-009,-4.14843779e-004
,,,4.17500000e-009,-4.00000028e-004
,,,4.20000000e-009,-3.77343777e-004
,,,4.22500000e-009,-3.49218775e-004
,,,4.25000000e-009,-3.16406272e-004
,,,4.27500000e-009,-2.83593770e-004
,,,4.30000000e-009,-2.52343768e-004
,,,4.32500000e-009,-2.25781266e-004
,,,4.35000000e-009,-2.07812515e-004
,,,4.37500000e-009,-2.00000014e-004
,,,4.40000000e-009,-2.04687514e-004
,,,4.42500000e-009,-2.20312516e-004
,,,4.45000000e-009,-2.45312517e-004
,,,4.47500000e-009,-2.75781270e-004
,,,4.50000000e-009,-3.09375022e-004
,,,4.52500000e-009,-3.42968774e-004
,,,4.55000000e-009,-3.74218776e-004
,,,4.57500000e-009,-4.00000028e-004
,,,4.60000000e-009,-4.17187530e-004
,,,4.62500000e-009,-4.27343780e-004
,,,4.65000000e-009,-4.30468780e-004
,,,4.67500000e-009,-4.28125030e-004
,,,4.70000000e-009,-4.21875030e-004
,,,4.72500000e-009,-4.13281279e-004
,,,4.75000000e-009,-4.05468779e-004
,,,4.77500000e-009,-4.00000028e-004
,,,4.80000000e-009,-3.96093778e-004
,,,4.82500000e-009,-3.95312528e-004
,,,4.85000000e-009,-3.96875028e-004
,,,4.87500000e-009,-4.00000028e-004
,,,4.90000000e-009,-4.02343778e-004
,,,4.92500000e-009,-4.03906279e-004
,,,4.95000000e-009,-4.03125029e-004
,,,4.97500000e-009,-4.00000028e-004
,,,5.00000000e-009,-3.94531278e-004
,,,5.02500000e-009,-3.87500027e-004
,,,5.05000000e-009,-3.80468777e-004
,,,5.07500000e-009,-3.75000027e-004
,,,5.10000000e-009,-3.72656276e-004
,,,5.12500000e-009,-3.75000027e-004
,,,5.15000000e-009,-3.83593777e-004
,,,5.17500000e-009,-4.00000028e-004
,,,5.20000000e-009,-4.22656280e-004
,,,5.22500000e-009,-4.51562532e-004
,,,5.25000000e-009,-4.83593784e-004
,,,5.27500000e-009,-5.15625036e-004
,,,5.30000000e-009,-5.46093789e-004
,,,5.32500000e-009,-5.71875040e-004
,,,5.35000000e-009,-5.90625042e-004
,,,5.37500000e-009,-6.00000042e-004
,,,5.40000000e-009,-5.97656292e-004
,,,5.42500000e-009,-5.86718792e-004
,,,5.45000000e-009,-5.66406290e-004
,,,5.47500000e-009,-5.39062538e-004
,,,5.50000000e-009,-5.06250036e-004
,,,5.52500000e-009,-4.70312533e-004
,,,5.55000000e-009,-4.33593781e-004
,,,5.57500000e-009,-4.00000028e-004
,,,5.60000000e-009,-3.71875026e-004
,,,5.62500000e-009,-3.51562525e-004
,,,5.65000000e-009,-3.39062524e-004
,,,5.67500000e-009,-3.35937524e-004
,,,5.70000000e-009,-3.40625024e-004
,,,5.72500000e-009,-3.53906275e-004
,,,5.75000000e-009,-3.73437526e-004
,,,5.77500000e-009,-4.00000028e-004
,,,5.80000000e-009,-4.30468780e-004
,,,5.82500000e-009,-4.62500033e-004
,,,5.85000000e-009,-4.94531285e-004
,,,5.87500000e-009,-5.24218787e-004
,,,5.90000000e-009,-5.50781289e-004
,,,5.92500000e-009,-5.72656291e-004
