RawData/SinglePhotoelectron/R5_2pt2B_5mV/wave014_Ch2.csv

"Record Length",1000,"Points",-7.72500000e-009,-1.56250011e-004
"Sample Interval",2.50000000e-011,s,-7.70000000e-009,-1.63281262e-004
"Trigger Point",309,"Samples",-7.67500000e-009,-1.77343763e-004
"Trigger Time",1.25445902e-011,s,-7.65000000e-009,-2.00000014e-004
"",,,-7.62500000e-009,-2.28906266e-004
"Horizontal Offset",-7.72500000e-009,s,-7.60000000e-009,-2.61718769e-004
,,,-7.57500000e-009,-2.96875021e-004
,,,-7.55000000e-009,-3.30468773e-004
,,,-7.52500000e-009,-3.60156275e-004
,,,-7.50000000e-009,-3.82812527e-004
,,,-7.47500000e-009,-3.96093778e-004
,,,-7.45000000e-009,-4.00000028e-004
,,,-7.42500000e-009,-3.90625028e-004
,,,-7.40000000e-009,-3.71093776e-004
,,,-7.37500000e-009,-3.44531274e-004
,,,-7.35000000e-009,-3.12500022e-004
,,,-7.32500000e-009,-2.78906270e-004
,,,-7.30000000e-009,-2.47656268e-004
,,,-7.27500000e-009,-2.20312516e-004
,,,-7.25000000e-009,-2.00000014e-004
,,,-7.22500000e-009,-1.86718763e-004
,,,-7.20000000e-009,-1.81250013e-004
,,,-7.17500000e-009,-1.82812513e-004
,,,-7.15000000e-009,-1.87500013e-004
,,,-7.12500000e-009,-1.93750014e-004
,,,-7.10000000e-009,-1.99218764e-004
,,,-7.07500000e-009,-2.01562514e-004
,,,-7.05000000e-009,-2.00000014e-004
,,,-7.02500000e-009,-1.92968764e-004
,,,-7.00000000e-009,-1.83593763e-004
,,,-6.97500000e-009,-1.72656262e-004
,,,-6.95000000e-009,-1.64062512e-004
,,,-6.92500000e-009,-1.59375011e-004
,,,-6.90000000e-009,-1.63281262e-004
,,,-6.87500000e-009,-1.76562512e-004
,,,-6.85000000e-009,-2.00000014e-004
,,,-6.82500000e-009,-2.32031266e-004
,,,-6.80000000e-009,-2.71093769e-004
,,,-6.77500000e-009,-3.12500022e-004
,,,-6.75000000e-009,-3.51562525e-004
,,,-6.72500000e-009,-3.84375027e-004
,,,-6.70000000e-009,-4.05468779e-004
,,,-6.67500000e-009,-4.10937529e-004
,,,-6.65000000e-009,-4.00000028e-004
,,,-6.62500000e-009,-3.67187526e-004
,,,-6.60000000e-009,-3.19531273e-004
,,,-6.57500000e-009,-2.60937518e-004
,,,-6.55000000e-009,-1.96093764e-004
,,,-6.52500000e-009,-1.32031259e-004
,,,-6.50000000e-009,-7.50000053e-005
,,,-6.47500000e-009,-2.96875021e-005
,,,-6.45000000e-009,0.00000000e+000
,,,-6.42500000e-009,1.01562507e-005
,,,-6.40000000e-009,2.34375017e-006
,,,-6.37500000e-009,-1.87500013e-005
,,,-6.35000000e-009,-5.15625036e-005
,,,-6.32500000e-009,-9.14062565e-005
,,,-6.30000000e-009,-1.32031259e-004
,,,-6.27500000e-009,-1.69531262e-004
,,,-6.25000000e-009,-2.00000014e-004
,,,-6.22500000e-009,-2.18750015e-004
,,,-6.20000000e-009,-2.27343766e-004
,,,-6.17500000e-009,-2.26562516e-004
,,,-6.15000000e-009,-2.20312516e-004
,,,-6.12500000e-009,-2.10937515e-004
,,,-6.10000000e-009,-2.02343764e-004
,,,-6.07500000e-009,-1.98437514e-004
,,,-6.05000000e-009,-2.00000014e-004
,,,-6.02500000e-009,-2.05468765e-004
,,,-6.00000000e-009,-2.15625015e-004
,,,-5.97500000e-009,-2.28125016e-004
,,,-5.95000000e-009,-2.39843767e-004
,,,-5.92500000e-009,-2.46093767e-004
,,,-5.90000000e-009,-2.42968767e-004
,,,-5.87500000e-009,-2.28125016e-004
,,,-5.85000000e-009,-2.00000014e-004
,,,-5.82500000e-009,-1.56250011e-004
,,,-5.80000000e-009,-1.00781257e-004
,,,-5.77500000e-009,-3.90625028e-005
,,,-5.75000000e-009,2.42187517e-005
,,,-5.72500000e-009,8.51562560e-005
,,,-5.70000000e-009,1.37500010e-004
,,,-5.67500000e-009,1.76562512e-004
,,,-5.65000000e-009,2.00000014e-004
,,,-5.62500000e-009,2.01562514e-004
,,,-5.60000000e-009,1.86718763e-004
,,,-5.57500000e-009,1.59375011e-004
,,,-5.55000000e-009,1.23437509e-004
,,,-5.52500000e-009,8.43750060e-005
,,,-5.50000000e-009,4.76562534e-005
,,,-5.47500000e-009,1.79687513e-005
,,,-5.45000000e-009,0.00000000e+000
,,,-5.42500000e-009,-4.68750033e-006
,,,-5.40000000e-009,3.12500022e-006
,,,-5.37500000e-009,2.50000018e-005
,,,-5.35000000e-009,5.62500040e-005
,,,-5.32500000e-009,9.29687566e-005
,,,-5.30000000e-009,1.32031259e-004
,,,-5.27500000e-009,1.68750012e-004
,,,-5.25000000e-009,2.00000014e-004
,,,-5.22500000e-009,2.19531266e-004
,,,-5.20000000e-009,2.29687516e-004
,,,-5.17500000e-009,2.32031266e-004
,,,-5.15000000e-009,2.28906266e-004
,,,-5.12500000e-009,2.21093766e-004
,,,-5.10000000e-009,2.11718765e-004
,,,-5.07500000e-009,2.03906264e-004
,,,-5.05000000e-009,2.00000014e-004
,,,-5.02500000e-009,1.96875014e-004
,,,-5.00000000e-009,1.97656264e-004
,,,-4.97500000e-009,2.02343764e-004
,,,-4.95000000e-009,2.07812515e-004
,,,-4.92500000e-009,2.13281265e-004
,,,-4.90000000e-009,2.14062515e-004
,,,-4.87500000e-009,2.10156265e-004
,,,-4.85000000e-009,2.00000014e-004
,,,-4.82500000e-009,1.78125013e-004
,,,-4.80000000e-009,1.50781261e-004
,,,-4.77500000e-009,1.19531258e-004
,,,-4.75000000e-009,8.75000062e-005
,,,-4.72500000e-009,5.70312540e-005
,,,-4.70000000e-009,3.12500022e-005
,,,-4.67500000e-009,1.17187508e-005
,,,-4.65000000e-009,0.00000000e+000
,,,-4.62500000e-009,-2.34375017e-006
,,,-4.60000000e-009,0.00000000e+000
,,,-4.57500000e-009,7.81250055e-006
,,,-4.55000000e-009,1.56250011e-005
,,,-4.52500000e-009,2.18750015e-005
,,,-4.50000000e-009,2.26562516e-005
,,,-4.47500000e-009,1.56250011e-005
,,,-4.45000000e-009,0.00000000e+000
,,,-4.42500000e-009,-2.42187517e-005
,,,-4.40000000e-009,-5.62500040e-005
,,,-4.37500000e-009,-9.14062565e-005
,,,-4.35000000e-009,-1.27343759e-004
,,,-4.32500000e-009,-1.60156261e-004
,,,-4.30000000e-009,-1.84375013e-004
,,,-4.27500000e-009,-1.98437514e-004
,,,-4.25000000e-009,-2.00000014e-004
,,,-4.22500000e-009,-1.85156263e-004
,,,-4.20000000e-009,-1.60937511e-004
,,,-4.17500000e-009,-1.28125009e-004
,,,-4.15000000e-009,-9.21875065e-005
,,,-4.12500000e-009,-5.70312540e-005
,,,-4.10000000e-009,-2.73437519e-005
,,,-4.07500000e-009,-7.03125050e-006
,,,-4.05000000e-009,0.00000000e+000
,,,-4.02500000e-009,-4.68750033e-006
,,,-4.00000000e-009,-2.18750015e-005
,,,-3.97500000e-009,-5.00000035e-005
,,,-3.95000000e-009,-8.43750060e-005
,,,-3.92500000e-009,-1.21093759e-004
,,,-3.90000000e-009,-1.54687511e-004
,,,-3.87500000e-009,-1.82812513e-004
,,,-3.85000000e-009,-2.00000014e-004
,,,-3.82500000e-009,-2.01562514e-004
,,,-3.80000000e-009,-1.91406264e-004
,,,-3.77500000e-009,-1.70312512e-004
,,,-3.75000000e-009,-1.39843760e-004
,,,-3.72500000e-009,-1.03906257e-004
,,,-3.70000000e-009,-6.64062547e-005
,,,-3.67500000e-009,-3.04687522e-005
,,,-3.65000000e-009,0.00000000e+000
,,,-3.62500000e-009,2.34375017e-005
,,,-3.60000000e-009,3.82812527e-005
,,,-3.57500000e-009,4.45312532e-005
,,,-3.55000000e-009,4.29687530e-005
,,,-3.52500000e-009,3.59375025e-005
,,,-3.50000000e-009,2.50000018e-005
,,,-3.47500000e-009,1.17187508e-005
,,,-3.45000000e-009,0.00000000e+000
,,,-3.42500000e-009,-9.37500066e-006
,,,-3.40000000e-009,-1.64062512e-005
,,,-3.37500000e-009,-1.95312514e-005
,,,-3.35000000e-009,-1.95312514e-005
,,,-3.32500000e-009,-1.64062512e-005
,,,-3.30000000e-009,-1.09375008e-005
,,,-3.27500000e-009,-5.46875039e-006
,,,-3.25000000e-009,0.00000000e+000
,,,-3.22500000e-009,3.90625028e-006
,,,-3.20000000e-009,6.25000044e-006
,,,-3.17500000e-009,7.03125050e-006
,,,-3.15000000e-009,7.03125050e-006
,,,-3.12500000e-009,6.25000044e-006
,,,-3.10000000e-009,3.90625028e-006
,,,-3.07500000e-009,1.56250011e-006
,,,-3.05000000e-009,0.00000000e+000
,,,-3.02500000e-009,-1.56250011e-006
,,,-3.00000000e-009,-2.34375017e-006
,,,-2.97500000e-009,-3.12500022e-006
,,,-2.95000000e-009,-3.12500022e-006
,,,-2.92500000e-009,-2.34375017e-006
,,,-2.90000000e-009,-1.56250011e-006
,,,-2.87500000e-009,-7.81250055e-007
,,,-2.85000000e-009,0.00000000e+000
,,,-2.82500000e-009,0.00000000e+000
,,,-2.80000000e-009,0.00000000e+000
,,,-2.77500000e-009,0.00000000e+000
,,,-2.75000000e-009,0.00000000e+000
,,,-2.72500000e-009,0.00000000e+000
,,,-2.70000000e-009,0.00000000e+000
,,,-2.67500000e-009,0.00000000e+000
,,,-2.65000000e-009,0.00000000e+000
,,,-2.62500000e-009,0.00000000e+000
,,,-2.60000000e-009,0.00000000e+000
,,,-2.57500000e-009,0.00000000e+000
,,,-2.55000000e-009,0.00000000e+000
,,,-2.52500000e-009,0.00000000e+000
,,,-2.50000000e-009,0.00000000e+000
,,,-2.47500000e-009,0.00000000e+000
,,,-2.45000000e-009,0.00000000e+000
,,,-2.42500000e-009,0.00000000e+000
,,,-2.40000000e-009,0.00000000e+000
,,,-2.37500000e-009,0.00000000e+000
,,,-2.35000000e-009,0.00000000e+000
,,,-2.32500000e-009,0.00000000e+000
,,,-2.30000000e-009,0.00000000e+000
,,,-2.27500000e-009,0.00000000e+000
,,,-2.25000000e-009,0.00000000e+000
,,,-2.22500000e-009,-7.81250055e-007
,,,-2.20000000e-009,-1.56250011e-006
,,,-2.17500000e-009,-2.34375017e-006
,,,-2.15000000e-009,-3.12500022e-006
,,,-2.12500000e-009,-3.12500022e-006
,,,-2.10000000e-009,-2.34375017e-006
,,,-2.07500000e-009,-1.56250011e-006
,,,-2.05000000e-009,0.00000000e+000
,,,-2.02500000e-009,1.56250011e-006
,,,-2.00000000e-009,3.90625028e-006
,,,-1.97500000e-009,6.25000044e-006
,,,-1.95000000e-009,7.03125050e-006
,,,-1.92500000e-009,7.03125050e-006
,,,-1.90000000e-009,6.25000044e-006
,,,-1.87500000e-009,3.90625028e-006
,,,-1.85000000e-009,0.00000000e+000
,,,-1.82500000e-009,-6.25000044e-006
,,,-1.80000000e-009,-1.32812509e-005
,,,-1.77500000e-009,-1.87500013e-005
,,,-1.75000000e-009,-2.26562516e-005
,,,-1.72500000e-009,-2.34375017e-005
,,,-1.70000000e-009,-1.95312514e-005
,,,-1.67500000e-009,-1.17187508e-005
,,,-1.65000000e-009,0.00000000e+000
,,,-1.62500000e-009,9.37500066e-006
,,,-1.60000000e-009,1.95312514e-005
,,,-1.57500000e-009,2.81250020e-005
,,,-1.55000000e-009,3.35937524e-005
,,,-1.52500000e-009,3.51562525e-005
,,,-1.50000000e-009,2.96875021e-005
,,,-1.47500000e-009,1.79687513e-005
,,,-1.45000000e-009,0.00000000e+000
,,,-1.42500000e-009,-3.35937524e-005
,,,-1.40000000e-009,-7.34375052e-005
,,,-1.37500000e-009,-1.14062508e-004
,,,-1.35000000e-009,-1.51562511e-004
,,,-1.32500000e-009,-1.82812513e-004
,,,-1.30000000e-009,-2.02343764e-004
,,,-1.27500000e-009,-2.08593765e-004
,,,-1.25000000e-009,-2.00000014e-004
,,,-1.22500000e-009,-1.92187514e-004
,,,-1.20000000e-009,-1.74218762e-004
,,,-1.17500000e-009,-1.49218761e-004
,,,-1.15000000e-009,-1.17968758e-004
,,,-1.12500000e-009,-8.35937559e-005
,,,-1.10000000e-009,-5.00000035e-005
,,,-1.07500000e-009,-2.10937515e-005
,,,-1.05000000e-009,0.00000000e+000
,,,-1.02500000e-009,-1.25000009e-005
,,,-1.00000000e-009,-4.14062529e-005
,,,-9.75000000e-010,-8.43750060e-005
,,,-9.50000000e-010,-1.39062510e-004
,,,-9.25000000e-010,-2.00781264e-004
,,,-9.00000000e-010,-2.67187519e-004
,,,-8.75000000e-010,-3.34375024e-004
,,,-8.50000000e-010,-4.00000028e-004
,,,-8.25000000e-010,-4.86718784e-004
,,,-8.00000000e-010,-5.73437541e-004
,,,-7.75000000e-010,-6.57031297e-004
,,,-7.50000000e-010,-7.35156302e-004
,,,-7.25000000e-010,-8.08593807e-004
,,,-7.00000000e-010,-8.75781312e-004
,,,-6.75000000e-010,-9.38281316e-004
,,,-6.50000000e-010,-1.00000007e-003
,,,-6.25000000e-010,-1.08515633e-003
,,,-6.00000000e-010,-1.18046883e-003
,,,-5.75000000e-010,-1.28750009e-003
,,,-5.50000000e-010,-1.40546885e-003
,,,-5.25000000e-010,-1.53593761e-003
,,,-5.00000000e-010,-1.67890637e-003
,,,-4.75000000e-010,-1.83359388e-003
,,,-4.50000000e-010,-2.00000014e-003
,,,-4.25000000e-010,-2.18906265e-003
,,,-4.00000000e-010,-2.39062517e-003
,,,-3.75000000e-010,-2.59921893e-003
,,,-3.50000000e-010,-2.81093770e-003
,,,-3.25000000e-010,-3.02109396e-003
,,,-3.00000000e-010,-3.22421898e-003
,,,-2.75000000e-010,-3.41796899e-003
,,,-2.50000000e-010,-3.60000025e-003
,,,-2.25000000e-010,-3.76640652e-003
,,,-2.00000000e-010,-3.92500028e-003
,,,-1.75000000e-010,-4.07578154e-003
,,,-1.50000000e-010,-4.22265655e-003
,,,-1.25000000e-010,-4.36562531e-003
,,,-1.00000000e-010,-4.50859407e-003
,,,-7.50000000e-011,-4.65312533e-003
,,,-5.00000000e-011,-4.80000034e-003
,,,-2.50000000e-011,-4.93437535e-003
,,,0.00000000e+000,-5.07734411e-003
,,,2.50000000e-011,-5.22812537e-003
,,,5.00000000e-011,-5.38437538e-003
,,,7.50000000e-011,-5.54375039e-003
,,,1.00000000e-010,-5.70234415e-003
,,,1.25000000e-010,-5.85546916e-003
,,,1.50000000e-010,-6.00000042e-003
,,,1.75000000e-010,-6.10546918e-003
,,,2.00000000e-010,-6.20234419e-003
,,,2.25000000e-010,-6.29062545e-003
,,,2.50000000e-010,-6.36953170e-003
,,,2.75000000e-010,-6.43984421e-003
,,,3.00000000e-010,-6.50234421e-003
,,,3.25000000e-010,-6.55546921e-003
,,,3.50000000e-010,-6.60000047e-003
,,,3.75000000e-010,-6.60234422e-003
,,,4.00000000e-010,-6.60156297e-003
,,,4.25000000e-010,-6.60078172e-003
,,,4.50000000e-010,-6.60078172e-003
,,,4.75000000e-010,-6.60078172e-003
,,,5.00000000e-010,-6.60234422e-003
,,,5.25000000e-010,-6.60234422e-003
,,,5.50000000e-010,-6.60000047e-003
,,,5.75000000e-010,-6.55937546e-003
,,,6.00000000e-010,-6.51640671e-003
,,,6.25000000e-010,-6.47109421e-003
,,,6.50000000e-010,-6.42343795e-003
,,,6.75000000e-010,-6.37343795e-003
,,,7.00000000e-010,-6.31953170e-003
,,,7.25000000e-010,-6.26171919e-003
,,,7.50000000e-010,-6.20000044e-003
,,,7.75000000e-010,-6.10625043e-003
,,,8.00000000e-010,-6.01171918e-003
,,,8.25000000e-010,-5.92031292e-003
,,,8.50000000e-010,-5.83515666e-003
,,,8.75000000e-010,-5.75859416e-003
,,,9.00000000e-010,-5.69375040e-003
,,,9.25000000e-010,-5.64062540e-003
,,,9.50000000e-010,-5.60000040e-003
,,,9.75000000e-010,-5.54843789e-003
,,,1.00000000e-009,-5.50234414e-003
,,,1.02500000e-009,-5.46093789e-003
,,,1.05000000e-009,-5.41953163e-003
,,,1.07500000e-009,-5.37656288e-003
,,,1.10000000e-009,-5.32734413e-003
,,,1.12500000e-009,-5.26953162e-003
,,,1.15000000e-009,-5.20000037e-003
,,,1.17500000e-009,-5.10312536e-003
,,,1.20000000e-009,-4.99062535e-003
,,,1.22500000e-009,-4.86640659e-003
,,,1.25000000e-009,-4.73281283e-003
,,,1.27500000e-009,-4.59531283e-003
,,,1.30000000e-009,-4.45781282e-003
,,,1.32500000e-009,-4.32500031e-003
,,,1.35000000e-009,-4.20000030e-003
,,,1.37500000e-009,-4.07890654e-003
,,,1.40000000e-009,-3.96406278e-003
,,,1.42500000e-009,-3.85703152e-003
,,,1.45000000e-009,-3.75625027e-003
,,,1.47500000e-009,-3.66093776e-003
,,,1.50000000e-009,-3.57109400e-003
,,,1.52500000e-009,-3.48437525e-003
,,,1.55000000e-009,-3.40000024e-003
,,,1.57500000e-009,-3.31328148e-003
,,,1.60000000e-009,-3.22109398e-003
,,,1.62500000e-009,-3.12265647e-003
,,,1.65000000e-009,-3.01953146e-003
,,,1.67500000e-009,-2.91250021e-003
,,,1.70000000e-009,-2.80546895e-003
,,,1.72500000e-009,-2.70078144e-003
,,,1.75000000e-009,-2.60000018e-003
,,,1.77500000e-009,-2.50937518e-003
,,,1.80000000e-009,-2.42187517e-003
,,,1.82500000e-009,-2.33750017e-003
,,,1.85000000e-009,-2.25781266e-003
,,,1.87500000e-009,-2.18359390e-003
,,,1.90000000e-009,-2.11562515e-003
,,,1.92500000e-009,-2.05468765e-003
,,,1.95000000e-009,-2.00000014e-003
,,,1.97500000e-009,-1.95781264e-003
,,,2.00000000e-009,-1.91562514e-003
,,,2.02500000e-009,-1.87109388e-003
,,,2.05000000e-009,-1.82343763e-003
,,,2.07500000e-009,-1.77265638e-003
,,,2.10000000e-009,-1.71875012e-003
,,,2.12500000e-009,-1.66093762e-003
,,,2.15000000e-009,-1.60000011e-003
,,,2.17500000e-009,-1.54375011e-003
,,,2.20000000e-009,-1.48046885e-003
,,,2.22500000e-009,-1.40937510e-003
,,,2.25000000e-009,-1.33203134e-003
,,,2.27500000e-009,-1.25000009e-003
,,,2.30000000e-009,-1.16562508e-003
,,,2.32500000e-009,-1.08203133e-003
,,,2.35000000e-009,-1.00000007e-003
,,,2.37500000e-009,-9.33593816e-004
,,,2.40000000e-009,-8.71093812e-004
,,,2.42500000e-009,-8.10937557e-004
,,,2.45000000e-009,-7.56250054e-004
,,,2.47500000e-009,-7.07031300e-004
,,,2.50000000e-009,-6.64062547e-004
,,,2.52500000e-009,-6.28125044e-004
,,,2.55000000e-009,-6.00000042e-004
,,,2.57500000e-009,-5.89843792e-004
,,,2.60000000e-009,-5.84375041e-004
,,,2.62500000e-009,-5.82031291e-004
,,,2.65000000e-009,-5.82031291e-004
,,,2.67500000e-009,-5.84375041e-004
,,,2.70000000e-009,-5.88281292e-004
,,,2.72500000e-009,-5.92968792e-004
,,,2.75000000e-009,-6.00000042e-004
,,,2.77500000e-009,-6.14843794e-004
,,,2.80000000e-009,-6.27343794e-004
,,,2.82500000e-009,-6.34375045e-004
,,,2.85000000e-009,-6.37500045e-004
,,,2.87500000e-009,-6.34375045e-004
,,,2.90000000e-009,-6.27343794e-004
,,,2.92500000e-009,-6.14843794e-004
,,,2.95000000e-009,-6.00000042e-004
,,,2.97500000e-009,-5.88281292e-004
,,,3.00000000e-009,-5.76562541e-004
,,,3.02500000e-009,-5.65625040e-004
,,,3.05000000e-009,-5.57812539e-004
,,,3.07500000e-009,-5.56250039e-004
,,,3.10000000e-009,-5.61718790e-004
,,,3.12500000e-009,-5.76562541e-004
,,,3.15000000e-009,-6.00000042e-004
,,,3.17500000e-009,-6.33593795e-004
,,,3.20000000e-009,-6.70312547e-004
,,,3.22500000e-009,-7.07812550e-004
,,,3.25000000e-009,-7.42968803e-004
,,,3.27500000e-009,-7.71875055e-004
,,,3.30000000e-009,-7.92187556e-004
,,,3.32500000e-009,-8.01562557e-004
,,,3.35000000e-009,-8.00000057e-004
,,,3.37500000e-009,-7.85937556e-004
,,,3.40000000e-009,-7.61718804e-004
,,,3.42500000e-009,-7.29687552e-004
,,,3.45000000e-009,-6.95312549e-004
,,,3.47500000e-009,-6.60937547e-004
,,,3.50000000e-009,-6.31250045e-004
,,,3.52500000e-009,-6.10156293e-004
,,,3.55000000e-009,-6.00000042e-004
,,,3.57500000e-009,-6.00781293e-004
,,,3.60000000e-009,-6.13281293e-004
,,,3.62500000e-009,-6.36718795e-004
,,,3.65000000e-009,-6.67968797e-004
,,,3.67500000e-009,-7.03906300e-004
,,,3.70000000e-009,-7.39843802e-004
,,,3.72500000e-009,-7.73437555e-004
,,,3.75000000e-009,-8.00000057e-004
,,,3.77500000e-009,-8.13281308e-004
,,,3.80000000e-009,-8.14843808e-004
,,,3.82500000e-009,-8.03125057e-004
,,,3.85000000e-009,-7.79687555e-004
,,,3.87500000e-009,-7.45312553e-004
,,,3.90000000e-009,-7.02343800e-004
,,,3.92500000e-009,-6.52343796e-004
,,,3.95000000e-009,-6.00000042e-004
,,,3.97500000e-009,-5.46093789e-004
,,,4.00000000e-009,-4.96875035e-004
,,,4.02500000e-009,-4.53906282e-004
,,,4.05000000e-009,-4.20312530e-004
,,,4.07500000e-009,-3.97656278e-004
,,,4.10000000e-009,-3.85937527e-004
,,,4.12500000e-009,-3.87500027e-004
,,,4.15000000e-009,-4.00000028e-004
,,,4.17500000e-009,-4.22656280e-004
,,,4.20000000e-009,-4.52343782e-004
,,,4.22500000e-009,-4.85156284e-004
,,,4.25000000e-009,-5.19531287e-004
,,,4.27500000e-009,-5.50000039e-004
,,,4.30000000e-009,-5.75781291e-004
,,,4.32500000e-009,-5.92187542e-004
,,,4.35000000e-009,-6.00000042e-004
,,,4.37500000e-009,-5.96093792e-004
,,,4.40000000e-009,-5.81250041e-004
,,,4.42500000e-009,-5.57812539e-004
,,,4.45000000e-009,-5.28125037e-004
,,,4.47500000e-009,-4.93750035e-004
,,,4.50000000e-009,-4.59375033e-004
,,,4.52500000e-009,-4.27343780e-004
,,,4.55000000e-009,-4.00000028e-004
,,,4.57500000e-009,-3.78906277e-004
,,,4.60000000e-009,-3.64843776e-004
,,,4.62500000e-009,-3.58593775e-004
,,,4.65000000e-009,-3.59375025e-004
,,,4.67500000e-009,-3.65625026e-004
,,,4.70000000e-009,-3.75781277e-004
,,,4.72500000e-009,-3.87500027e-004
,,,4.75000000e-009,-4.00000028e-004
,,,4.77500000e-009,-4.10937529e-004
,,,4.80000000e-009,-4.18750030e-004
,,,4.82500000e-009,-4.23437530e-004
,,,4.85000000e-009,-4.23437530e-004
,,,4.87500000e-009,-4.20312530e-004
,,,4.90000000e-009,-4.14843779e-004
,,,4.92500000e-009,-4.07031279e-004
,,,4.95000000e-009,-4.00000028e-004
,,,4.97500000e-009,-3.92187528e-004
,,,5.00000000e-009,-3.85937527e-004
,,,5.02500000e-009,-3.82031277e-004
,,,5.05000000e-009,-3.79687527e-004
,,,5.07500000e-009,-3.81250027e-004
,,,5.10000000e-009,-3.85156277e-004
,,,5.12500000e-009,-3.91406278e-004
,,,5.15000000e-009,-4.00000028e-004
,,,5.17500000e-009,-4.07812529e-004
,,,5.20000000e-009,-4.16406279e-004
,,,5.22500000e-009,-4.22656280e-004
,,,5.25000000e-009,-4.26562530e-004
,,,5.27500000e-009,-4.27343780e-004
,,,5.30000000e-009,-4.23437530e-004
,,,5.32500000e-009,-4.14062529e-004
,,,5.35000000e-009,-4.00000028e-004
,,,5.37500000e-009,-3.78906277e-004
,,,5.40000000e-009,-3.53906275e-004
,,,5.42500000e-009,-3.25781273e-004
,,,5.45000000e-009,-2.96093771e-004
,,,5.47500000e-009,-2.67187519e-004
,,,5.50000000e-009,-2.40625017e-004
,,,5.52500000e-009,-2.17187515e-004
,,,5.55000000e-009,-2.00000014e-004
,,,5.57500000e-009,-1.87500013e-004
,,,5.60000000e-009,-1.80468763e-004
,,,5.62500000e-009,-1.78125013e-004
,,,5.65000000e-009,-1.79687513e-004
,,,5.67500000e-009,-1.84375013e-004
,,,5.70000000e-009,-1.89843763e-004
,,,5.72500000e-009,-1.95312514e-004
,,,5.75000000e-009,-2.00000014e-004
,,,5.77500000e-009,-2.03125014e-004
,,,5.80000000e-009,-2.04687514e-004
,,,5.82500000e-009,-2.04687514e-004
,,,5.85000000e-009,-2.03125014e-004
,,,5.87500000e-009,-2.00781264e-004
