RawData/SinglePhotoelectron/R5_2pt2B_5mV/wave016_Ch2.csv

"Record Length",1000,"Points",-7.72500000e-009,-7.96875056e-005
"Sample Interval",2.50000000e-011,s,-7.70000000e-009,-5.07812536e-005
"Trigger Point",309,"Samples",-7.67500000e-009,-2.65625019e-005
"Trigger Time",8.21876468e-012,s,-7.65000000e-009,-9.37500066e-006
"",,,-7.62500000e-009,0.00000000e+000
"Horizontal Offset",-7.72500000e-009,s,-7.60000000e-009,7.81250055e-007
,,,-7.57500000e-009,-3.12500022e-006
,,,-7.55000000e-009,-1.09375008e-005
,,,-7.52500000e-009,-1.95312514e-005
,,,-7.50000000e-009,-2.50000018e-005
,,,-7.47500000e-009,-2.50000018e-005
,,,-7.45000000e-009,-1.64062512e-005
,,,-7.42500000e-009,0.00000000e+000
,,,-7.40000000e-009,2.34375017e-005
,,,-7.37500000e-009,5.39062538e-005
,,,-7.35000000e-009,8.90625063e-005
,,,-7.32500000e-009,1.24218759e-004
,,,-7.30000000e-009,1.56250011e-004
,,,-7.27500000e-009,1.81250013e-004
,,,-7.25000000e-009,1.96875014e-004
,,,-7.22500000e-009,2.00000014e-004
,,,-7.20000000e-009,1.86718763e-004
,,,-7.17500000e-009,1.63281262e-004
,,,-7.15000000e-009,1.31250009e-004
,,,-7.12500000e-009,9.60937568e-005
,,,-7.10000000e-009,6.09375043e-005
,,,-7.07500000e-009,3.12500022e-005
,,,-7.05000000e-009,9.37500066e-006
,,,-7.02500000e-009,0.00000000e+000
,,,-7.00000000e-009,7.81250055e-007
,,,-6.97500000e-009,1.48437511e-005
,,,-6.95000000e-009,3.98437528e-005
,,,-6.92500000e-009,7.18750051e-005
,,,-6.90000000e-009,1.08593758e-004
,,,-6.87500000e-009,1.44531260e-004
,,,-6.85000000e-009,1.76562512e-004
,,,-6.82500000e-009,2.00000014e-004
,,,-6.80000000e-009,2.08593765e-004
,,,-6.77500000e-009,2.04687514e-004
,,,-6.75000000e-009,1.89843763e-004
,,,-6.72500000e-009,1.63281262e-004
,,,-6.70000000e-009,1.28906259e-004
,,,-6.67500000e-009,8.82812562e-005
,,,-6.65000000e-009,4.45312532e-005
,,,-6.62500000e-009,0.00000000e+000
,,,-6.60000000e-009,-4.29687530e-005
,,,-6.57500000e-009,-8.20312558e-005
,,,-6.55000000e-009,-1.15625008e-004
,,,-6.52500000e-009,-1.42968760e-004
,,,-6.50000000e-009,-1.64843762e-004
,,,-6.47500000e-009,-1.81250013e-004
,,,-6.45000000e-009,-1.92187514e-004
,,,-6.42500000e-009,-2.00000014e-004
,,,-6.40000000e-009,-2.03906264e-004
,,,-6.37500000e-009,-2.06250015e-004
,,,-6.35000000e-009,-2.07031265e-004
,,,-6.32500000e-009,-2.07031265e-004
,,,-6.30000000e-009,-2.06250015e-004
,,,-6.27500000e-009,-2.04687514e-004
,,,-6.25000000e-009,-2.02343764e-004
,,,-6.22500000e-009,-2.00000014e-004
,,,-6.20000000e-009,-1.96093764e-004
,,,-6.17500000e-009,-1.92968764e-004
,,,-6.15000000e-009,-1.91406264e-004
,,,-6.12500000e-009,-1.90625013e-004
,,,-6.10000000e-009,-1.91406264e-004
,,,-6.07500000e-009,-1.93750014e-004
,,,-6.05000000e-009,-1.96093764e-004
,,,-6.02500000e-009,-2.00000014e-004
,,,-6.00000000e-009,-2.04687514e-004
,,,-5.97500000e-009,-2.09375015e-004
,,,-5.95000000e-009,-2.13281265e-004
,,,-5.92500000e-009,-2.15625015e-004
,,,-5.90000000e-009,-2.16406265e-004
,,,-5.87500000e-009,-2.13281265e-004
,,,-5.85000000e-009,-2.07812515e-004
,,,-5.82500000e-009,-2.00000014e-004
,,,-5.80000000e-009,-1.87500013e-004
,,,-5.77500000e-009,-1.75000012e-004
,,,-5.75000000e-009,-1.64062512e-004
,,,-5.72500000e-009,-1.57812511e-004
,,,-5.70000000e-009,-1.57031261e-004
,,,-5.67500000e-009,-1.63281262e-004
,,,-5.65000000e-009,-1.77343763e-004
,,,-5.62500000e-009,-2.00000014e-004
,,,-5.60000000e-009,-2.27343766e-004
,,,-5.57500000e-009,-2.60156268e-004
,,,-5.55000000e-009,-2.94531271e-004
,,,-5.52500000e-009,-3.28125023e-004
,,,-5.50000000e-009,-3.57031275e-004
,,,-5.47500000e-009,-3.79687527e-004
,,,-5.45000000e-009,-3.94531278e-004
,,,-5.42500000e-009,-4.00000028e-004
,,,-5.40000000e-009,-3.93750028e-004
,,,-5.37500000e-009,-3.82031277e-004
,,,-5.35000000e-009,-3.67968776e-004
,,,-5.32500000e-009,-3.56250025e-004
,,,-5.30000000e-009,-3.50000025e-004
,,,-5.27500000e-009,-3.53906275e-004
,,,-5.25000000e-009,-3.70312526e-004
,,,-5.22500000e-009,-4.00000028e-004
,,,-5.20000000e-009,-4.37500031e-004
,,,-5.17500000e-009,-4.83593784e-004
,,,-5.15000000e-009,-5.31250038e-004
,,,-5.12500000e-009,-5.75781291e-004
,,,-5.10000000e-009,-6.09375043e-004
,,,-5.07500000e-009,-6.28125044e-004
,,,-5.05000000e-009,-6.25781294e-004
,,,-5.02500000e-009,-6.00000042e-004
,,,-5.00000000e-009,-5.46093789e-004
,,,-4.97500000e-009,-4.73437534e-004
,,,-4.95000000e-009,-3.85937527e-004
,,,-4.92500000e-009,-2.92187521e-004
,,,-4.90000000e-009,-1.99218764e-004
,,,-4.87500000e-009,-1.14843758e-004
,,,-4.85000000e-009,-4.68750033e-005
,,,-4.82500000e-009,0.00000000e+000
,,,-4.80000000e-009,2.18750015e-005
,,,-4.77500000e-009,2.10937515e-005
,,,-4.75000000e-009,0.00000000e+000
,,,-4.72500000e-009,-3.67187526e-005
,,,-4.70000000e-009,-8.12500058e-005
,,,-4.67500000e-009,-1.28125009e-004
,,,-4.65000000e-009,-1.69531262e-004
,,,-4.62500000e-009,-2.00000014e-004
,,,-4.60000000e-009,-2.14062515e-004
,,,-4.57500000e-009,-2.12500015e-004
,,,-4.55000000e-009,-1.94531264e-004
,,,-4.52500000e-009,-1.64062512e-004
,,,-4.50000000e-009,-1.24218759e-004
,,,-4.47500000e-009,-8.04687557e-005
,,,-4.45000000e-009,-3.75000027e-005
,,,-4.42500000e-009,0.00000000e+000
,,,-4.40000000e-009,2.73437519e-005
,,,-4.37500000e-009,4.53125032e-005
,,,-4.35000000e-009,5.31250038e-005
,,,-4.32500000e-009,5.15625036e-005
,,,-4.30000000e-009,4.29687530e-005
,,,-4.27500000e-009,2.96875021e-005
,,,-4.25000000e-009,1.40625010e-005
,,,-4.22500000e-009,0.00000000e+000
,,,-4.20000000e-009,-1.40625010e-005
,,,-4.17500000e-009,-2.42187517e-005
,,,-4.15000000e-009,-2.96875021e-005
,,,-4.12500000e-009,-2.96875021e-005
,,,-4.10000000e-009,-2.50000018e-005
,,,-4.07500000e-009,-1.79687513e-005
,,,-4.05000000e-009,-8.59375061e-006
,,,-4.02500000e-009,0.00000000e+000
,,,-4.00000000e-009,4.68750033e-006
,,,-3.97500000e-009,8.59375061e-006
,,,-3.95000000e-009,1.09375008e-005
,,,-3.92500000e-009,1.17187508e-005
,,,-3.90000000e-009,1.01562507e-005
,,,-3.87500000e-009,7.81250055e-006
,,,-3.85000000e-009,3.90625028e-006
,,,-3.82500000e-009,0.00000000e+000
,,,-3.80000000e-009,-4.68750033e-006
,,,-3.77500000e-009,-9.37500066e-006
,,,-3.75000000e-009,-1.32812509e-005
,,,-3.72500000e-009,-1.48437511e-005
,,,-3.70000000e-009,-1.48437511e-005
,,,-3.67500000e-009,-1.17187508e-005
,,,-3.65000000e-009,-7.03125050e-006
,,,-3.62500000e-009,0.00000000e+000
,,,-3.60000000e-009,7.03125050e-006
,,,-3.57500000e-009,1.48437511e-005
,,,-3.55000000e-009,2.18750015e-005
,,,-3.52500000e-009,2.65625019e-005
,,,-3.50000000e-009,2.81250020e-005
,,,-3.47500000e-009,2.42187517e-005
,,,-3.45000000e-009,1.48437511e-005
,,,-3.42500000e-009,0.00000000e+000
,,,-3.40000000e-009,-2.03125014e-005
,,,-3.37500000e-009,-4.60937533e-005
,,,-3.35000000e-009,-7.42187553e-005
,,,-3.32500000e-009,-1.03906257e-004
,,,-3.30000000e-009,-1.32812509e-004
,,,-3.27500000e-009,-1.59375011e-004
,,,-3.25000000e-009,-1.82031263e-004
,,,-3.22500000e-009,-2.00000014e-004
,,,-3.20000000e-009,-2.09375015e-004
,,,-3.17500000e-009,-2.14062515e-004
,,,-3.15000000e-009,-2.14062515e-004
,,,-3.12500000e-009,-2.11718765e-004
,,,-3.10000000e-009,-2.07031265e-004
,,,-3.07500000e-009,-2.03125014e-004
,,,-3.05000000e-009,-2.00000014e-004
,,,-3.02500000e-009,-2.00000014e-004
,,,-3.00000000e-009,-2.00000014e-004
,,,-2.97500000e-009,-2.03125014e-004
,,,-2.95000000e-009,-2.07031265e-004
,,,-2.92500000e-009,-2.11718765e-004
,,,-2.90000000e-009,-2.14062515e-004
,,,-2.87500000e-009,-2.14062515e-004
,,,-2.85000000e-009,-2.09375015e-004
,,,-2.82500000e-009,-2.00000014e-004
,,,-2.80000000e-009,-1.82812513e-004
,,,-2.77500000e-009,-1.61718761e-004
,,,-2.75000000e-009,-1.35937510e-004
,,,-2.72500000e-009,-1.07031258e-004
,,,-2.70000000e-009,-7.73437555e-005
,,,-2.67500000e-009,-4.84375034e-005
,,,-2.65000000e-009,-2.26562516e-005
,,,-2.62500000e-009,0.00000000e+000
,,,-2.60000000e-009,1.56250011e-005
,,,-2.57500000e-009,2.50000018e-005
,,,-2.55000000e-009,2.89062520e-005
,,,-2.52500000e-009,2.73437519e-005
,,,-2.50000000e-009,2.26562516e-005
,,,-2.47500000e-009,1.56250011e-005
,,,-2.45000000e-009,7.81250055e-006
,,,-2.42500000e-009,0.00000000e+000
,,,-2.40000000e-009,-1.17187508e-005
,,,-2.37500000e-009,-2.18750015e-005
,,,-2.35000000e-009,-2.96875021e-005
,,,-2.32500000e-009,-3.28125023e-005
,,,-2.30000000e-009,-3.12500022e-005
,,,-2.27500000e-009,-2.50000018e-005
,,,-2.25000000e-009,-1.40625010e-005
,,,-2.22500000e-009,0.00000000e+000
,,,-2.20000000e-009,6.25000044e-006
,,,-2.17500000e-009,1.17187508e-005
,,,-2.15000000e-009,1.64062512e-005
,,,-2.12500000e-009,1.87500013e-005
,,,-2.10000000e-009,1.87500013e-005
,,,-2.07500000e-009,1.56250011e-005
,,,-2.05000000e-009,9.37500066e-006
,,,-2.02500000e-009,0.00000000e+000
,,,-2.00000000e-009,-2.73437519e-005
,,,-1.97500000e-009,-5.85937541e-005
,,,-1.95000000e-009,-9.21875065e-005
,,,-1.92500000e-009,-1.24218759e-004
,,,-1.90000000e-009,-1.52343761e-004
,,,-1.87500000e-009,-1.75000012e-004
,,,-1.85000000e-009,-1.90625013e-004
,,,-1.82500000e-009,-2.00000014e-004
,,,-1.80000000e-009,-2.20312516e-004
,,,-1.77500000e-009,-2.39062517e-004
,,,-1.75000000e-009,-2.57031268e-004
,,,-1.72500000e-009,-2.75781270e-004
,,,-1.70000000e-009,-2.97656271e-004
,,,-1.67500000e-009,-3.24218773e-004
,,,-1.65000000e-009,-3.57812525e-004
,,,-1.62500000e-009,-4.00000028e-004
,,,-1.60000000e-009,-4.69531283e-004
,,,-1.57500000e-009,-5.53125039e-004
,,,-1.55000000e-009,-6.48437546e-004
,,,-1.52500000e-009,-7.53125053e-004
,,,-1.50000000e-009,-8.63281311e-004
,,,-1.47500000e-009,-9.76562569e-004
,,,-1.45000000e-009,-1.08906258e-003
,,,-1.42500000e-009,-1.20000008e-003
,,,-1.40000000e-009,-1.31718759e-003
,,,-1.37500000e-009,-1.43203135e-003
,,,-1.35000000e-009,-1.54218761e-003
,,,-1.32500000e-009,-1.64609387e-003
,,,-1.30000000e-009,-1.74375012e-003
,,,-1.27500000e-009,-1.83437513e-003
,,,-1.25000000e-009,-1.91953139e-003
,,,-1.22500000e-009,-2.00000014e-003
,,,-1.20000000e-009,-2.08281265e-003
,,,-1.17500000e-009,-2.16875015e-003
,,,-1.15000000e-009,-2.26015641e-003
,,,-1.12500000e-009,-2.35625017e-003
,,,-1.10000000e-009,-2.45859392e-003
,,,-1.07500000e-009,-2.56640643e-003
,,,-1.05000000e-009,-2.68046894e-003
,,,-1.02500000e-009,-2.80000020e-003
,,,-1.00000000e-009,-2.92031271e-003
,,,-9.75000000e-010,-3.04687522e-003
,,,-9.50000000e-010,-3.17734397e-003
,,,-9.25000000e-010,-3.30937523e-003
,,,-9.00000000e-010,-3.44062524e-003
,,,-8.75000000e-010,-3.56796900e-003
,,,-8.50000000e-010,-3.68828151e-003
,,,-8.25000000e-010,-3.80000027e-003
,,,-8.00000000e-010,-3.89218778e-003
,,,-7.75000000e-010,-3.97812528e-003
,,,-7.50000000e-010,-4.05859404e-003
,,,-7.25000000e-010,-4.13437529e-003
,,,-7.00000000e-010,-4.20546905e-003
,,,-6.75000000e-010,-4.27343780e-003
,,,-6.50000000e-010,-4.33828156e-003
,,,-6.25000000e-010,-4.40000031e-003
,,,-6.00000000e-010,-4.44140656e-003
,,,-5.75000000e-010,-4.48593782e-003
,,,-5.50000000e-010,-4.53359407e-003
,,,-5.25000000e-010,-4.58437532e-003
,,,-5.00000000e-010,-4.63828158e-003
,,,-4.75000000e-010,-4.69375033e-003
,,,-4.50000000e-010,-4.74843784e-003
,,,-4.25000000e-010,-4.80000034e-003
,,,-4.00000000e-010,-4.82421909e-003
,,,-3.75000000e-010,-4.84296909e-003
,,,-3.50000000e-010,-4.85546909e-003
,,,-3.25000000e-010,-4.86171909e-003
,,,-3.00000000e-010,-4.85937534e-003
,,,-2.75000000e-010,-4.84765659e-003
,,,-2.50000000e-010,-4.82812534e-003
,,,-2.25000000e-010,-4.80000034e-003
,,,-2.00000000e-010,-4.74531284e-003
,,,-1.75000000e-010,-4.69140658e-003
,,,-1.50000000e-010,-4.64140658e-003
,,,-1.25000000e-010,-4.60156283e-003
,,,-1.00000000e-010,-4.57578157e-003
,,,-7.50000000e-011,-4.56562532e-003
,,,-5.00000000e-011,-4.57421907e-003
,,,-2.50000000e-011,-4.60000033e-003
,,,0.00000000e+000,-4.62031283e-003
,,,2.50000000e-011,-4.65312533e-003
,,,5.00000000e-011,-4.69140658e-003
,,,7.50000000e-011,-4.73281283e-003
,,,1.00000000e-010,-4.76953159e-003
,,,1.25000000e-010,-4.79609409e-003
,,,1.50000000e-010,-4.80781284e-003
,,,1.75000000e-010,-4.80000034e-003
,,,2.00000000e-010,-4.74843784e-003
,,,2.25000000e-010,-4.67421908e-003
,,,2.50000000e-010,-4.58046907e-003
,,,2.75000000e-010,-4.47109407e-003
,,,3.00000000e-010,-4.35234406e-003
,,,3.25000000e-010,-4.23046905e-003
,,,3.50000000e-010,-4.11171904e-003
,,,3.75000000e-010,-4.00000028e-003
,,,4.00000000e-010,-3.88515652e-003
,,,4.25000000e-010,-3.78203152e-003
,,,4.50000000e-010,-3.69140651e-003
,,,4.75000000e-010,-3.61406276e-003
,,,5.00000000e-010,-3.54843775e-003
,,,5.25000000e-010,-3.49296900e-003
,,,5.50000000e-010,-3.44453149e-003
,,,5.75000000e-010,-3.40000024e-003
,,,6.00000000e-010,-3.34687524e-003
,,,6.25000000e-010,-3.28828148e-003
,,,6.50000000e-010,-3.22187523e-003
,,,6.75000000e-010,-3.14921897e-003
,,,7.00000000e-010,-3.06953147e-003
,,,7.25000000e-010,-2.98359396e-003
,,,7.50000000e-010,-2.89296895e-003
,,,7.75000000e-010,-2.80000020e-003
,,,8.00000000e-010,-2.69921894e-003
,,,8.25000000e-010,-2.59609393e-003
,,,8.50000000e-010,-2.48984393e-003
,,,8.75000000e-010,-2.38437517e-003
,,,9.00000000e-010,-2.28046891e-003
,,,9.25000000e-010,-2.18125015e-003
,,,9.50000000e-010,-2.08750015e-003
,,,9.75000000e-010,-2.00000014e-003
,,,1.00000000e-009,-1.92031264e-003
,,,1.02500000e-009,-1.84296888e-003
,,,1.05000000e-009,-1.76718763e-003
,,,1.07500000e-009,-1.69296887e-003
,,,1.10000000e-009,-1.61953136e-003
,,,1.12500000e-009,-1.54609386e-003
,,,1.15000000e-009,-1.47265635e-003
,,,1.17500000e-009,-1.40000010e-003
,,,1.20000000e-009,-1.33359384e-003
,,,1.22500000e-009,-1.26250009e-003
,,,1.25000000e-009,-1.18750008e-003
,,,1.27500000e-009,-1.10937508e-003
,,,1.30000000e-009,-1.02890632e-003
,,,1.32500000e-009,-9.50000067e-004
,,,1.35000000e-009,-8.72656312e-004
,,,1.37500000e-009,-8.00000057e-004
,,,1.40000000e-009,-7.42968803e-004
,,,1.42500000e-009,-6.88281299e-004
,,,1.45000000e-009,-6.35156295e-004
,,,1.47500000e-009,-5.84375041e-004
,,,1.50000000e-009,-5.35156288e-004
,,,1.52500000e-009,-4.88281285e-004
,,,1.55000000e-009,-4.42968781e-004
,,,1.57500000e-009,-4.00000028e-004
,,,1.60000000e-009,-3.71093776e-004
,,,1.62500000e-009,-3.42187524e-004
,,,1.65000000e-009,-3.13281272e-004
,,,1.67500000e-009,-2.84375020e-004
,,,1.70000000e-009,-2.57812518e-004
,,,1.72500000e-009,-2.34375017e-004
,,,1.75000000e-009,-2.14062515e-004
,,,1.77500000e-009,-2.00000014e-004
,,,1.80000000e-009,-2.00781264e-004
,,,1.82500000e-009,-2.03906264e-004
,,,1.85000000e-009,-2.07031265e-004
,,,1.87500000e-009,-2.09375015e-004
,,,1.90000000e-009,-2.10156265e-004
,,,1.92500000e-009,-2.08593765e-004
,,,1.95000000e-009,-2.05468765e-004
,,,1.97500000e-009,-2.00000014e-004
,,,2.00000000e-009,-1.99218764e-004
,,,2.02500000e-009,-1.96093764e-004
,,,2.05000000e-009,-1.91406264e-004
,,,2.07500000e-009,-1.85937513e-004
,,,2.10000000e-009,-1.82812513e-004
,,,2.12500000e-009,-1.82812513e-004
,,,2.15000000e-009,-1.88281263e-004
,,,2.17500000e-009,-2.00000014e-004
,,,2.20000000e-009,-2.21875016e-004
,,,2.22500000e-009,-2.48437518e-004
,,,2.25000000e-009,-2.76562520e-004
,,,2.27500000e-009,-3.06250022e-004
,,,2.30000000e-009,-3.35156274e-004
,,,2.32500000e-009,-3.60937526e-004
,,,2.35000000e-009,-3.82812527e-004
,,,2.37500000e-009,-4.00000028e-004
,,,2.40000000e-009,-4.11718779e-004
,,,2.42500000e-009,-4.17187530e-004
,,,2.45000000e-009,-4.17968780e-004
,,,2.47500000e-009,-4.14843779e-004
,,,2.50000000e-009,-4.10156279e-004
,,,2.52500000e-009,-4.04687529e-004
,,,2.55000000e-009,-4.00781278e-004
,,,2.57500000e-009,-4.00000028e-004
,,,2.60000000e-009,-3.99218778e-004
,,,2.62500000e-009,-4.00781278e-004
,,,2.65000000e-009,-4.03906279e-004
,,,2.67500000e-009,-4.07812529e-004
,,,2.70000000e-009,-4.10937529e-004
,,,2.72500000e-009,-4.10937529e-004
,,,2.75000000e-009,-4.07812529e-004
,,,2.77500000e-009,-4.00000028e-004
,,,2.80000000e-009,-3.83593777e-004
,,,2.82500000e-009,-3.61718776e-004
,,,2.85000000e-009,-3.36718774e-004
,,,2.87500000e-009,-3.07812522e-004
,,,2.90000000e-009,-2.78125020e-004
,,,2.92500000e-009,-2.49218768e-004
,,,2.95000000e-009,-2.22656266e-004
,,,2.97500000e-009,-2.00000014e-004
,,,3.00000000e-009,-1.82031263e-004
,,,3.02500000e-009,-1.69531262e-004
,,,3.05000000e-009,-1.64062512e-004
,,,3.07500000e-009,-1.64062512e-004
,,,3.10000000e-009,-1.67968762e-004
,,,3.12500000e-009,-1.76562512e-004
,,,3.15000000e-009,-1.87500013e-004
,,,3.17500000e-009,-2.00000014e-004
,,,3.20000000e-009,-2.10156265e-004
,,,3.22500000e-009,-2.18750015e-004
,,,3.25000000e-009,-2.25000016e-004
,,,3.27500000e-009,-2.28125016e-004
,,,3.30000000e-009,-2.26562516e-004
,,,3.32500000e-009,-2.21875016e-004
,,,3.35000000e-009,-2.12500015e-004
,,,3.37500000e-009,-2.00000014e-004
,,,3.40000000e-009,-1.83593763e-004
,,,3.42500000e-009,-1.64062512e-004
,,,3.45000000e-009,-1.40625010e-004
,,,3.47500000e-009,-1.14843758e-004
,,,3.50000000e-009,-8.67187561e-005
,,,3.52500000e-009,-5.78125041e-005
,,,3.55000000e-009,-2.81250020e-005
,,,3.57500000e-009,0.00000000e+000
,,,3.60000000e-009,2.26562516e-005
,,,3.62500000e-009,4.14062529e-005
,,,3.65000000e-009,5.46875039e-005
,,,3.67500000e-009,6.01562543e-005
,,,3.70000000e-009,5.78125041e-005
,,,3.72500000e-009,4.68750033e-005
,,,3.75000000e-009,2.73437519e-005
,,,3.77500000e-009,0.00000000e+000
,,,3.80000000e-009,-3.67187526e-005
,,,3.82500000e-009,-7.65625054e-005
,,,3.85000000e-009,-1.15625008e-004
,,,3.87500000e-009,-1.50781261e-004
,,,3.90000000e-009,-1.79687513e-004
,,,3.92500000e-009,-1.97656264e-004
,,,3.95000000e-009,-2.04687514e-004
,,,3.97500000e-009,-2.00000014e-004
,,,4.00000000e-009,-1.82812513e-004
,,,4.02500000e-009,-1.56250011e-004
,,,4.05000000e-009,-1.23437509e-004
,,,4.07500000e-009,-8.75000062e-005
,,,4.10000000e-009,-5.39062538e-005
,,,4.12500000e-009,-2.57812518e-005
,,,4.15000000e-009,-7.03125050e-006
,,,4.17500000e-009,0.00000000e+000
,,,4.20000000e-009,-6.25000044e-006
,,,4.22500000e-009,-2.42187517e-005
,,,4.25000000e-009,-5.07812536e-005
,,,4.27500000e-009,-8.35937559e-005
,,,4.30000000e-009,-1.17968758e-004
,,,4.32500000e-009,-1.50781261e-004
,,,4.35000000e-009,-1.78906263e-004
,,,4.37500000e-009,-2.00000014e-004
,,,4.40000000e-009,-2.10156265e-004
,,,4.42500000e-009,-2.12500015e-004
,,,4.45000000e-009,-2.08593765e-004
,,,4.47500000e-009,-2.00781264e-004
,,,4.50000000e-009,-1.92187514e-004
,,,4.52500000e-009,-1.87500013e-004
,,,4.55000000e-009,-1.89062513e-004
,,,4.57500000e-009,-2.00000014e-004
,,,4.60000000e-009,-2.17187515e-004
,,,4.62500000e-009,-2.42187517e-004
,,,4.65000000e-009,-2.74218769e-004
,,,4.67500000e-009,-3.07812522e-004
,,,4.70000000e-009,-3.41406274e-004
,,,4.72500000e-009,-3.69531276e-004
,,,4.75000000e-009,-3.89843778e-004
,,,4.77500000e-009,-4.00000028e-004
,,,4.80000000e-009,-3.94531278e-004
,,,4.82500000e-009,-3.78906277e-004
,,,4.85000000e-009,-3.53906275e-004
,,,4.87500000e-009,-3.22656273e-004
,,,4.90000000e-009,-2.88281270e-004
,,,4.92500000e-009,-2.53906268e-004
,,,4.95000000e-009,-2.23437516e-004
,,,4.97500000e-009,-2.00000014e-004
,,,5.00000000e-009,-1.82812513e-004
,,,5.02500000e-009,-1.73437512e-004
,,,5.05000000e-009,-1.72656262e-004
,,,5.07500000e-009,-1.76562512e-004
,,,5.10000000e-009,-1.84375013e-004
,,,5.12500000e-009,-1.92187514e-004
,,,5.15000000e-009,-1.98437514e-004
,,,5.17500000e-009,-2.00000014e-004
,,,5.20000000e-009,-1.93750014e-004
,,,5.22500000e-009,-1.81250013e-004
,,,5.25000000e-009,-1.61718761e-004
,,,5.27500000e-009,-1.35937510e-004
,,,5.30000000e-009,-1.04687507e-004
,,,5.32500000e-009,-6.95312549e-005
,,,5.35000000e-009,-3.43750024e-005
,,,5.37500000e-009,0.00000000e+000
,,,5.40000000e-009,2.81250020e-005
,,,5.42500000e-009,5.07812536e-005
,,,5.45000000e-009,6.56250046e-005
,,,5.47500000e-009,7.10937550e-005
,,,5.50000000e-009,6.71875048e-005
,,,5.52500000e-009,5.31250038e-005
,,,5.55000000e-009,3.04687522e-005
,,,5.57500000e-009,0.00000000e+000
,,,5.60000000e-009,-3.82812527e-005
,,,5.62500000e-009,-7.89062556e-005
,,,5.65000000e-009,-1.18750008e-004
,,,5.67500000e-009,-1.54687511e-004
,,,5.70000000e-009,-1.82031263e-004
,,,5.72500000e-009,-2.00000014e-004
,,,5.75000000e-009,-2.06250015e-004
,,,5.77500000e-009,-2.00000014e-004
,,,5.80000000e-009,-1.83593763e-004
,,,5.82500000e-009,-1.57812511e-004
,,,5.85000000e-009,-1.25781259e-004
,,,5.87500000e-009,-9.14062565e-005
