RawData/SinglePhotoelectron/R5_2pt2B_5mV/wave008_Ch2.csv

"Record Length",1000,"Points",-7.72500000e-009,0.00000000e+000
"Sample Interval",2.50000000e-011,s,-7.70000000e-009,2.03125014e-005
"Trigger Point",309,"Samples",-7.67500000e-009,5.00000035e-005
"Trigger Time",1.49774468e-011,s,-7.65000000e-009,8.59375061e-005
"",,,-7.62500000e-009,1.23437509e-004
"Horizontal Offset",-7.72500000e-009,s,-7.60000000e-009,1.57031261e-004
,,,-7.57500000e-009,1.83593763e-004
,,,-7.55000000e-009,1.98437514e-004
,,,-7.52500000e-009,2.00000014e-004
,,,-7.50000000e-009,1.85937513e-004
,,,-7.47500000e-009,1.60156261e-004
,,,-7.45000000e-009,1.25781259e-004
,,,-7.42500000e-009,8.82812562e-005
,,,-7.40000000e-009,5.23437537e-005
,,,-7.37500000e-009,2.34375017e-005
,,,-7.35000000e-009,4.68750033e-006
,,,-7.32500000e-009,0.00000000e+000
,,,-7.30000000e-009,9.37500066e-006
,,,-7.27500000e-009,3.28125023e-005
,,,-7.25000000e-009,6.56250046e-005
,,,-7.22500000e-009,1.03125007e-004
,,,-7.20000000e-009,1.39843760e-004
,,,-7.17500000e-009,1.71093762e-004
,,,-7.15000000e-009,1.92187514e-004
,,,-7.12500000e-009,2.00000014e-004
,,,-7.10000000e-009,1.91406264e-004
,,,-7.07500000e-009,1.69531262e-004
,,,-7.05000000e-009,1.37500010e-004
,,,-7.02500000e-009,1.00000007e-004
,,,-7.00000000e-009,6.17187544e-005
,,,-6.97500000e-009,2.96875021e-005
,,,-6.95000000e-009,7.81250055e-006
,,,-6.92500000e-009,0.00000000e+000
,,,-6.90000000e-009,7.03125050e-006
,,,-6.87500000e-009,2.81250020e-005
,,,-6.85000000e-009,5.93750042e-005
,,,-6.82500000e-009,9.60937568e-005
,,,-6.80000000e-009,1.33593759e-004
,,,-6.77500000e-009,1.66406262e-004
,,,-6.75000000e-009,1.89843763e-004
,,,-6.72500000e-009,2.00000014e-004
,,,-6.70000000e-009,1.93750014e-004
,,,-6.67500000e-009,1.74218762e-004
,,,-6.65000000e-009,1.43750010e-004
,,,-6.62500000e-009,1.07031258e-004
,,,-6.60000000e-009,6.95312549e-005
,,,-6.57500000e-009,3.67187526e-005
,,,-6.55000000e-009,1.17187508e-005
,,,-6.52500000e-009,0.00000000e+000
,,,-6.50000000e-009,2.34375017e-006
,,,-6.47500000e-009,1.79687513e-005
,,,-6.45000000e-009,4.53125032e-005
,,,-6.42500000e-009,7.96875056e-005
,,,-6.40000000e-009,1.17187508e-004
,,,-6.37500000e-009,1.52343761e-004
,,,-6.35000000e-009,1.81250013e-004
,,,-6.32500000e-009,2.00000014e-004
,,,-6.30000000e-009,2.03906264e-004
,,,-6.27500000e-009,1.94531264e-004
,,,-6.25000000e-009,1.73437512e-004
,,,-6.22500000e-009,1.42968760e-004
,,,-6.20000000e-009,1.07031258e-004
,,,-6.17500000e-009,6.87500049e-005
,,,-6.15000000e-009,3.12500022e-005
,,,-6.12500000e-009,0.00000000e+000
,,,-6.10000000e-009,-2.34375017e-005
,,,-6.07500000e-009,-3.82812527e-005
,,,-6.05000000e-009,-4.45312532e-005
,,,-6.02500000e-009,-4.29687530e-005
,,,-6.00000000e-009,-3.59375025e-005
,,,-5.97500000e-009,-2.50000018e-005
,,,-5.95000000e-009,-1.17187508e-005
,,,-5.92500000e-009,0.00000000e+000
,,,-5.90000000e-009,8.59375061e-006
,,,-5.87500000e-009,1.48437511e-005
,,,-5.85000000e-009,1.71875012e-005
,,,-5.82500000e-009,1.56250011e-005
,,,-5.80000000e-009,1.25000009e-005
,,,-5.77500000e-009,7.81250055e-006
,,,-5.75000000e-009,3.12500022e-006
,,,-5.72500000e-009,0.00000000e+000
,,,-5.70000000e-009,-2.34375017e-006
,,,-5.67500000e-009,-3.90625028e-006
,,,-5.65000000e-009,-3.90625028e-006
,,,-5.62500000e-009,-3.12500022e-006
,,,-5.60000000e-009,-1.56250011e-006
,,,-5.57500000e-009,-7.81250055e-007
,,,-5.55000000e-009,0.00000000e+000
,,,-5.52500000e-009,0.00000000e+000
,,,-5.50000000e-009,-1.56250011e-006
,,,-5.47500000e-009,-3.90625028e-006
,,,-5.45000000e-009,-6.25000044e-006
,,,-5.42500000e-009,-8.59375061e-006
,,,-5.40000000e-009,-9.37500066e-006
,,,-5.37500000e-009,-7.81250055e-006
,,,-5.35000000e-009,-4.68750033e-006
,,,-5.32500000e-009,0.00000000e+000
,,,-5.30000000e-009,6.25000044e-006
,,,-5.27500000e-009,1.32812509e-005
,,,-5.25000000e-009,1.95312514e-005
,,,-5.22500000e-009,2.34375017e-005
,,,-5.20000000e-009,2.42187517e-005
,,,-5.17500000e-009,2.10937515e-005
,,,-5.15000000e-009,1.32812509e-005
,,,-5.12500000e-009,0.00000000e+000
,,,-5.10000000e-009,-2.03125014e-005
,,,-5.07500000e-009,-4.53125032e-005
,,,-5.05000000e-009,-7.34375052e-005
,,,-5.02500000e-009,-1.03125007e-004
,,,-5.00000000e-009,-1.32031259e-004
,,,-4.97500000e-009,-1.58593761e-004
,,,-4.95000000e-009,-1.82031263e-004
,,,-4.92500000e-009,-2.00000014e-004
,,,-4.90000000e-009,-2.10937515e-004
,,,-4.87500000e-009,-2.17187515e-004
,,,-4.85000000e-009,-2.17968765e-004
,,,-4.82500000e-009,-2.15625015e-004
,,,-4.80000000e-009,-2.11718765e-004
,,,-4.77500000e-009,-2.06250015e-004
,,,-4.75000000e-009,-2.02343764e-004
,,,-4.72500000e-009,-2.00000014e-004
,,,-4.70000000e-009,-1.98437514e-004
,,,-4.67500000e-009,-1.99218764e-004
,,,-4.65000000e-009,-2.00781264e-004
,,,-4.62500000e-009,-2.03906264e-004
,,,-4.60000000e-009,-2.06250015e-004
,,,-4.57500000e-009,-2.06250015e-004
,,,-4.55000000e-009,-2.04687514e-004
,,,-4.52500000e-009,-2.00000014e-004
,,,-4.50000000e-009,-1.90625013e-004
,,,-4.47500000e-009,-1.80468763e-004
,,,-4.45000000e-009,-1.71093762e-004
,,,-4.42500000e-009,-1.64843762e-004
,,,-4.40000000e-009,-1.62500012e-004
,,,-4.37500000e-009,-1.67187512e-004
,,,-4.35000000e-009,-1.79687513e-004
,,,-4.32500000e-009,-2.00000014e-004
,,,-4.30000000e-009,-2.25000016e-004
,,,-4.27500000e-009,-2.56250018e-004
,,,-4.25000000e-009,-2.90625021e-004
,,,-4.22500000e-009,-3.24218773e-004
,,,-4.20000000e-009,-3.54687525e-004
,,,-4.17500000e-009,-3.78906277e-004
,,,-4.15000000e-009,-3.94531278e-004
,,,-4.12500000e-009,-4.00000028e-004
,,,-4.10000000e-009,-3.89843778e-004
,,,-4.07500000e-009,-3.70312526e-004
,,,-4.05000000e-009,-3.42968774e-004
,,,-4.02500000e-009,-3.11718772e-004
,,,-4.00000000e-009,-2.78125020e-004
,,,-3.97500000e-009,-2.46875017e-004
,,,-3.95000000e-009,-2.19531266e-004
,,,-3.92500000e-009,-2.00000014e-004
,,,-3.90000000e-009,-1.86718763e-004
,,,-3.87500000e-009,-1.81250013e-004
,,,-3.85000000e-009,-1.82031263e-004
,,,-3.82500000e-009,-1.87500013e-004
,,,-3.80000000e-009,-1.94531264e-004
,,,-3.77500000e-009,-2.00781264e-004
,,,-3.75000000e-009,-2.03125014e-004
,,,-3.72500000e-009,-2.00000014e-004
,,,-3.70000000e-009,-1.88281263e-004
,,,-3.67500000e-009,-1.69531262e-004
,,,-3.65000000e-009,-1.45312510e-004
,,,-3.62500000e-009,-1.15625008e-004
,,,-3.60000000e-009,-8.43750060e-005
,,,-3.57500000e-009,-5.31250038e-005
,,,-3.55000000e-009,-2.42187517e-005
,,,-3.52500000e-009,0.00000000e+000
,,,-3.50000000e-009,1.79687513e-005
,,,-3.47500000e-009,2.96875021e-005
,,,-3.45000000e-009,3.51562525e-005
,,,-3.42500000e-009,3.43750024e-005
,,,-3.40000000e-009,2.89062520e-005
,,,-3.37500000e-009,2.03125014e-005
,,,-3.35000000e-009,1.01562507e-005
,,,-3.32500000e-009,0.00000000e+000
,,,-3.30000000e-009,-1.01562507e-005
,,,-3.27500000e-009,-1.71875012e-005
,,,-3.25000000e-009,-2.18750015e-005
,,,-3.22500000e-009,-2.26562516e-005
,,,-3.20000000e-009,-2.03125014e-005
,,,-3.17500000e-009,-1.48437511e-005
,,,-3.15000000e-009,-7.81250055e-006
,,,-3.12500000e-009,0.00000000e+000
,,,-3.10000000e-009,6.25000044e-006
,,,-3.07500000e-009,1.25000009e-005
,,,-3.05000000e-009,1.79687513e-005
,,,-3.02500000e-009,2.03125014e-005
,,,-3.00000000e-009,1.95312514e-005
,,,-2.97500000e-009,1.64062512e-005
,,,-2.95000000e-009,9.37500066e-006
,,,-2.92500000e-009,0.00000000e+000
,,,-2.90000000e-009,-1.17187508e-005
,,,-2.87500000e-009,-2.34375017e-005
,,,-2.85000000e-009,-3.28125023e-005
,,,-2.82500000e-009,-3.90625028e-005
,,,-2.80000000e-009,-3.98437528e-005
,,,-2.77500000e-009,-3.35937524e-005
,,,-2.75000000e-009,-2.03125014e-005
,,,-2.72500000e-009,0.00000000e+000
,,,-2.70000000e-009,2.81250020e-005
,,,-2.67500000e-009,6.09375043e-005
,,,-2.65000000e-009,9.60937568e-005
,,,-2.62500000e-009,1.30468759e-004
,,,-2.60000000e-009,1.60156261e-004
,,,-2.57500000e-009,1.83593763e-004
,,,-2.55000000e-009,1.96875014e-004
,,,-2.52500000e-009,2.00000014e-004
,,,-2.50000000e-009,1.89843763e-004
,,,-2.47500000e-009,1.70312512e-004
,,,-2.45000000e-009,1.43750010e-004
,,,-2.42500000e-009,1.11718758e-004
,,,-2.40000000e-009,7.81250055e-005
,,,-2.37500000e-009,4.68750033e-005
,,,-2.35000000e-009,1.95312514e-005
,,,-2.32500000e-009,0.00000000e+000
,,,-2.30000000e-009,-1.09375008e-005
,,,-2.27500000e-009,-1.48437511e-005
,,,-2.25000000e-009,-1.32812509e-005
,,,-2.22500000e-009,-7.03125050e-006
,,,-2.20000000e-009,-7.81250055e-007
,,,-2.17500000e-009,3.12500022e-006
,,,-2.15000000e-009,3.90625028e-006
,,,-2.12500000e-009,0.00000000e+000
,,,-2.10000000e-009,-8.59375061e-006
,,,-2.07500000e-009,-2.18750015e-005
,,,-2.05000000e-009,-3.51562525e-005
,,,-2.02500000e-009,-4.60937533e-005
,,,-2.00000000e-009,-5.15625036e-005
,,,-1.97500000e-009,-4.68750033e-005
,,,-1.95000000e-009,-2.96875021e-005
,,,-1.92500000e-009,0.00000000e+000
,,,-1.90000000e-009,4.21875030e-005
,,,-1.87500000e-009,9.45312567e-005
,,,-1.85000000e-009,1.54687511e-004
,,,-1.82500000e-009,2.16406265e-004
,,,-1.80000000e-009,2.76562520e-004
,,,-1.77500000e-009,3.29687523e-004
,,,-1.75000000e-009,3.71875026e-004
,,,-1.72500000e-009,4.00000028e-004
,,,-1.70000000e-009,4.01562528e-004
,,,-1.67500000e-009,3.88281277e-004
,,,-1.65000000e-009,3.60937526e-004
,,,-1.62500000e-009,3.25781273e-004
,,,-1.60000000e-009,2.87500020e-004
,,,-1.57500000e-009,2.50781268e-004
,,,-1.55000000e-009,2.20312516e-004
,,,-1.52500000e-009,2.00000014e-004
,,,-1.50000000e-009,1.76562512e-004
,,,-1.47500000e-009,1.62500012e-004
,,,-1.45000000e-009,1.57812511e-004
,,,-1.42500000e-009,1.60937511e-004
,,,-1.40000000e-009,1.69531262e-004
,,,-1.37500000e-009,1.80468763e-004
,,,-1.35000000e-009,1.91406264e-004
,,,-1.32500000e-009,2.00000014e-004
,,,-1.30000000e-009,1.83593763e-004
,,,-1.27500000e-009,1.59375011e-004
,,,-1.25000000e-009,1.29687509e-004
,,,-1.22500000e-009,9.68750069e-005
,,,-1.20000000e-009,6.40625045e-005
,,,-1.17500000e-009,3.59375025e-005
,,,-1.15000000e-009,1.40625010e-005
,,,-1.12500000e-009,0.00000000e+000
,,,-1.10000000e-009,-2.81250020e-005
,,,-1.07500000e-009,-5.31250038e-005
,,,-1.05000000e-009,-7.50000053e-005
,,,-1.02500000e-009,-9.53125067e-005
,,,-1.00000000e-009,-1.14843758e-004
,,,-9.75000000e-010,-1.36718760e-004
,,,-9.50000000e-010,-1.63281262e-004
,,,-9.25000000e-010,-2.00000014e-004
,,,-9.00000000e-010,-2.71093769e-004
,,,-8.75000000e-010,-3.60156275e-004
,,,-8.50000000e-010,-4.67187533e-004
,,,-8.25000000e-010,-5.89843792e-004
,,,-8.00000000e-010,-7.27343801e-004
,,,-7.75000000e-010,-8.76562562e-004
,,,-7.50000000e-010,-1.03437507e-003
,,,-7.25000000e-010,-1.20000008e-003
,,,-7.00000000e-010,-1.38125010e-003
,,,-6.75000000e-010,-1.56718761e-003
,,,-6.50000000e-010,-1.75468762e-003
,,,-6.25000000e-010,-1.93906264e-003
,,,-6.00000000e-010,-2.11796890e-003
,,,-5.75000000e-010,-2.28906266e-003
,,,-5.50000000e-010,-2.45000017e-003
,,,-5.25000000e-010,-2.60000018e-003
,,,-5.00000000e-010,-2.73906269e-003
,,,-4.75000000e-010,-2.87265645e-003
,,,-4.50000000e-010,-3.00078146e-003
,,,-4.25000000e-010,-3.12421897e-003
,,,-4.00000000e-010,-3.24453148e-003
,,,-3.75000000e-010,-3.36328149e-003
,,,-3.50000000e-010,-3.48125025e-003
,,,-3.25000000e-010,-3.60000025e-003
,,,-3.00000000e-010,-3.70937526e-003
,,,-2.75000000e-010,-3.82500027e-003
,,,-2.50000000e-010,-3.94687528e-003
,,,-2.25000000e-010,-4.07421904e-003
,,,-2.00000000e-010,-4.20546905e-003
,,,-1.75000000e-010,-4.33906281e-003
,,,-1.50000000e-010,-4.47109407e-003
,,,-1.25000000e-010,-4.60000033e-003
,,,-1.00000000e-010,-4.70156283e-003
,,,-7.50000000e-011,-4.79921909e-003
,,,-5.00000000e-011,-4.88984410e-003
,,,-2.50000000e-011,-4.97343785e-003
,,,0.00000000e+000,-5.04687536e-003
,,,2.50000000e-011,-5.11015661e-003
,,,5.00000000e-011,-5.16093787e-003
,,,7.50000000e-011,-5.20000037e-003
,,,1.00000000e-010,-5.20000037e-003
,,,1.25000000e-010,-5.19531287e-003
,,,1.50000000e-010,-5.18828162e-003
,,,1.75000000e-010,-5.18281287e-003
,,,2.00000000e-010,-5.17968787e-003
,,,2.25000000e-010,-5.18125037e-003
,,,2.50000000e-010,-5.18828162e-003
,,,2.75000000e-010,-5.20000037e-003
,,,3.00000000e-010,-5.18828162e-003
,,,3.25000000e-010,-5.18281287e-003
,,,3.50000000e-010,-5.18281287e-003
,,,3.75000000e-010,-5.18750037e-003
,,,4.00000000e-010,-5.19375037e-003
,,,4.25000000e-010,-5.20000037e-003
,,,4.50000000e-010,-5.20312537e-003
,,,4.75000000e-010,-5.20000037e-003
,,,5.00000000e-010,-5.16484412e-003
,,,5.25000000e-010,-5.12265661e-003
,,,5.50000000e-010,-5.07421911e-003
,,,5.75000000e-010,-5.02109411e-003
,,,6.00000000e-010,-4.96562535e-003
,,,6.25000000e-010,-4.90937535e-003
,,,6.50000000e-010,-4.85390659e-003
,,,6.75000000e-010,-4.80000034e-003
,,,7.00000000e-010,-4.72812533e-003
,,,7.25000000e-010,-4.66015658e-003
,,,7.50000000e-010,-4.59921908e-003
,,,7.75000000e-010,-4.54453157e-003
,,,8.00000000e-010,-4.49843782e-003
,,,8.25000000e-010,-4.46015657e-003
,,,8.50000000e-010,-4.42812531e-003
,,,8.75000000e-010,-4.40000031e-003
,,,9.00000000e-010,-4.35625031e-003
,,,9.25000000e-010,-4.30781280e-003
,,,9.50000000e-010,-4.25156280e-003
,,,9.75000000e-010,-4.18593780e-003
,,,1.00000000e-009,-4.10781279e-003
,,,1.02500000e-009,-4.01796903e-003
,,,1.05000000e-009,-3.91484403e-003
,,,1.07500000e-009,-3.80000027e-003
,,,1.10000000e-009,-3.66406276e-003
,,,1.12500000e-009,-3.52031275e-003
,,,1.15000000e-009,-3.37343774e-003
,,,1.17500000e-009,-3.22968773e-003
,,,1.20000000e-009,-3.09531272e-003
,,,1.22500000e-009,-2.97656271e-003
,,,1.25000000e-009,-2.87734395e-003
,,,1.27500000e-009,-2.80000020e-003
,,,1.30000000e-009,-2.74062519e-003
,,,1.32500000e-009,-2.69453144e-003
,,,1.35000000e-009,-2.65703144e-003
,,,1.37500000e-009,-2.62265644e-003
,,,1.40000000e-009,-2.58515643e-003
,,,1.42500000e-009,-2.53828143e-003
,,,1.45000000e-009,-2.47734393e-003
,,,1.47500000e-009,-2.40000017e-003
,,,1.50000000e-009,-2.30390641e-003
,,,1.52500000e-009,-2.18828140e-003
,,,1.55000000e-009,-2.05625015e-003
,,,1.57500000e-009,-1.91406264e-003
,,,1.60000000e-009,-1.77031263e-003
,,,1.62500000e-009,-1.63203137e-003
,,,1.65000000e-009,-1.50703136e-003
,,,1.67500000e-009,-1.40000010e-003
,,,1.70000000e-009,-1.32109384e-003
,,,1.72500000e-009,-1.25859384e-003
,,,1.75000000e-009,-1.20937509e-003
,,,1.77500000e-009,-1.16953133e-003
,,,1.80000000e-009,-1.13281258e-003
,,,1.82500000e-009,-1.09531258e-003
,,,1.85000000e-009,-1.05234382e-003
,,,1.87500000e-009,-1.00000007e-003
,,,1.90000000e-009,-9.46093817e-004
,,,1.92500000e-009,-8.77343812e-004
,,,1.95000000e-009,-7.96875056e-004
,,,1.97500000e-009,-7.08593800e-004
,,,2.00000000e-009,-6.18750044e-004
,,,2.02500000e-009,-5.33593788e-004
,,,2.05000000e-009,-4.58593782e-004
,,,2.07500000e-009,-4.00000028e-004
,,,2.10000000e-009,-3.71093776e-004
,,,2.12500000e-009,-3.57031275e-004
,,,2.15000000e-009,-3.54687525e-004
,,,2.17500000e-009,-3.61718776e-004
,,,2.20000000e-009,-3.73437526e-004
,,,2.22500000e-009,-3.85937527e-004
,,,2.25000000e-009,-3.96093778e-004
,,,2.27500000e-009,-4.00000028e-004
,,,2.30000000e-009,-4.03906279e-004
,,,2.32500000e-009,-3.96875028e-004
,,,2.35000000e-009,-3.77343777e-004
,,,2.37500000e-009,-3.47656275e-004
,,,2.40000000e-009,-3.11718772e-004
,,,2.42500000e-009,-2.71875019e-004
,,,2.45000000e-009,-2.33593767e-004
,,,2.47500000e-009,-2.00000014e-004
,,,2.50000000e-009,-1.81250013e-004
,,,2.52500000e-009,-1.68750012e-004
,,,2.55000000e-009,-1.62500012e-004
,,,2.57500000e-009,-1.62500012e-004
,,,2.60000000e-009,-1.67187512e-004
,,,2.62500000e-009,-1.75781262e-004
,,,2.65000000e-009,-1.87500013e-004
,,,2.67500000e-009,-2.00000014e-004
,,,2.70000000e-009,-2.15625015e-004
,,,2.72500000e-009,-2.28125016e-004
,,,2.75000000e-009,-2.35937517e-004
,,,2.77500000e-009,-2.38281267e-004
,,,2.80000000e-009,-2.34375017e-004
,,,2.82500000e-009,-2.26562516e-004
,,,2.85000000e-009,-2.14062515e-004
,,,2.87500000e-009,-2.00000014e-004
,,,2.90000000e-009,-1.87500013e-004
,,,2.92500000e-009,-1.75781262e-004
,,,2.95000000e-009,-1.65625012e-004
,,,2.97500000e-009,-1.59375011e-004
,,,3.00000000e-009,-1.58593761e-004
,,,3.02500000e-009,-1.64843762e-004
,,,3.05000000e-009,-1.78906263e-004
,,,3.07500000e-009,-2.00000014e-004
,,,3.10000000e-009,-2.26562516e-004
,,,3.12500000e-009,-2.57812518e-004
,,,3.15000000e-009,-2.90625021e-004
,,,3.17500000e-009,-3.23437523e-004
,,,3.20000000e-009,-3.53125025e-004
,,,3.22500000e-009,-3.76562527e-004
,,,3.25000000e-009,-3.92968778e-004
,,,3.27500000e-009,-4.00000028e-004
,,,3.30000000e-009,-3.95312528e-004
,,,3.32500000e-009,-3.82031277e-004
,,,3.35000000e-009,-3.60156275e-004
,,,3.37500000e-009,-3.31250023e-004
,,,3.40000000e-009,-2.98437521e-004
,,,3.42500000e-009,-2.63281269e-004
,,,3.45000000e-009,-2.29687516e-004
,,,3.47500000e-009,-2.00000014e-004
,,,3.50000000e-009,-1.75000012e-004
,,,3.52500000e-009,-1.57812511e-004
,,,3.55000000e-009,-1.48437511e-004
,,,3.57500000e-009,-1.47656260e-004
,,,3.60000000e-009,-1.53125011e-004
,,,3.62500000e-009,-1.64843762e-004
,,,3.65000000e-009,-1.81250013e-004
,,,3.67500000e-009,-2.00000014e-004
,,,3.70000000e-009,-2.18750015e-004
,,,3.72500000e-009,-2.35937517e-004
,,,3.75000000e-009,-2.48437518e-004
,,,3.77500000e-009,-2.55468768e-004
,,,3.80000000e-009,-2.53906268e-004
,,,3.82500000e-009,-2.44531267e-004
,,,3.85000000e-009,-2.25781266e-004
,,,3.87500000e-009,-2.00000014e-004
,,,3.90000000e-009,-1.67187512e-004
,,,3.92500000e-009,-1.31250009e-004
,,,3.95000000e-009,-9.45312567e-005
,,,3.97500000e-009,-6.01562543e-005
,,,4.00000000e-009,-3.12500022e-005
,,,4.02500000e-009,-1.09375008e-005
,,,4.05000000e-009,0.00000000e+000
,,,4.07500000e-009,0.00000000e+000
,,,4.10000000e-009,-1.25000009e-005
,,,4.12500000e-009,-3.43750024e-005
,,,4.15000000e-009,-6.32812545e-005
,,,4.17500000e-009,-9.53125067e-005
,,,4.20000000e-009,-1.28125009e-004
,,,4.22500000e-009,-1.57812511e-004
,,,4.25000000e-009,-1.82812513e-004
,,,4.27500000e-009,-2.00000014e-004
,,,4.30000000e-009,-2.08593765e-004
,,,4.32500000e-009,-2.09375015e-004
,,,4.35000000e-009,-2.03906264e-004
,,,4.37500000e-009,-1.96093764e-004
,,,4.40000000e-009,-1.89062513e-004
,,,4.42500000e-009,-1.85156263e-004
,,,4.45000000e-009,-1.88281263e-004
,,,4.47500000e-009,-2.00000014e-004
,,,4.50000000e-009,-2.18750015e-004
,,,4.52500000e-009,-2.45312517e-004
,,,4.55000000e-009,-2.77343770e-004
,,,4.57500000e-009,-3.11718772e-004
,,,4.60000000e-009,-3.43750024e-004
,,,4.62500000e-009,-3.71875026e-004
,,,4.65000000e-009,-3.90625028e-004
,,,4.67500000e-009,-4.00000028e-004
,,,4.70000000e-009,-3.93750028e-004
,,,4.72500000e-009,-3.77343777e-004
,,,4.75000000e-009,-3.50781275e-004
,,,4.77500000e-009,-3.18750023e-004
,,,4.80000000e-009,-2.84375020e-004
,,,4.82500000e-009,-2.50781268e-004
,,,4.85000000e-009,-2.21875016e-004
,,,4.87500000e-009,-2.00000014e-004
,,,4.90000000e-009,-1.83593763e-004
,,,4.92500000e-009,-1.76562512e-004
,,,4.95000000e-009,-1.75781262e-004
,,,4.97500000e-009,-1.80468763e-004
,,,5.00000000e-009,-1.88281263e-004
,,,5.02500000e-009,-1.96093764e-004
,,,5.05000000e-009,-2.00000014e-004
,,,5.07500000e-009,-2.00000014e-004
,,,5.10000000e-009,-1.90625013e-004
,,,5.12500000e-009,-1.74218762e-004
,,,5.15000000e-009,-1.51562511e-004
,,,5.17500000e-009,-1.23437509e-004
,,,5.20000000e-009,-9.21875065e-005
,,,5.22500000e-009,-5.93750042e-005
,,,5.25000000e-009,-2.81250020e-005
,,,5.27500000e-009,0.00000000e+000
,,,5.30000000e-009,2.18750015e-005
,,,5.32500000e-009,3.75000027e-005
,,,5.35000000e-009,4.60937533e-005
,,,5.37500000e-009,4.76562534e-005
,,,5.40000000e-009,4.21875030e-005
,,,5.42500000e-009,3.12500022e-005
,,,5.45000000e-009,1.64062512e-005
,,,5.47500000e-009,0.00000000e+000
,,,5.50000000e-009,-1.87500013e-005
,,,5.52500000e-009,-3.51562525e-005
,,,5.55000000e-009,-4.76562534e-005
,,,5.57500000e-009,-5.46875039e-005
,,,5.60000000e-009,-5.31250038e-005
,,,5.62500000e-009,-4.37500031e-005
,,,5.65000000e-009,-2.57812518e-005
,,,5.67500000e-009,0.00000000e+000
,,,5.70000000e-009,2.89062520e-005
,,,5.72500000e-009,6.32812545e-005
,,,5.75000000e-009,9.84375070e-005
,,,5.77500000e-009,1.32031259e-004
,,,5.80000000e-009,1.61718761e-004
,,,5.82500000e-009,1.83593763e-004
,,,5.85000000e-009,1.96875014e-004
,,,5.87500000e-009,2.00000014e-004
,,,5.90000000e-009,1.89062513e-004
,,,5.92500000e-009,1.69531262e-004
