RawData/SinglePhotoelectron/L4_2pt2C_5mV/wave011_Ch3.csv

"Record Length",1000,"Points",-7.72500000e-009,9.99998674e-005
"Sample Interval",2.50000000e-011,s,-7.70000000e-009,1.21874869e-004
"Trigger Point",309,"Samples",-7.67500000e-009,1.35156120e-004
"Trigger Time",1.80633213e-011,s,-7.65000000e-009,1.39843620e-004
"",,,-7.62500000e-009,1.37499870e-004
"Horizontal Offset",-7.72500000e-009,s,-7.60000000e-009,1.29687369e-004
,,,-7.57500000e-009,1.19531119e-004
,,,-7.55000000e-009,1.09374868e-004
,,,-7.52500000e-009,9.99998674e-005
,,,-7.50000000e-009,9.37498669e-005
,,,-7.47500000e-009,9.06248667e-005
,,,-7.45000000e-009,9.06248667e-005
,,,-7.42500000e-009,9.29686169e-005
,,,-7.40000000e-009,9.60936171e-005
,,,-7.37500000e-009,9.92186173e-005
,,,-7.35000000e-009,1.00781117e-004
,,,-7.32500000e-009,9.99998674e-005
,,,-7.30000000e-009,9.53123670e-005
,,,-7.27500000e-009,8.82811166e-005
,,,-7.25000000e-009,8.12498661e-005
,,,-7.22500000e-009,7.65623657e-005
,,,-7.20000000e-009,7.42186156e-005
,,,-7.17500000e-009,7.73436158e-005
,,,-7.15000000e-009,8.59373664e-005
,,,-7.12500000e-009,9.99998674e-005
,,,-7.10000000e-009,1.16406119e-004
,,,-7.07500000e-009,1.34374870e-004
,,,-7.05000000e-009,1.49999871e-004
,,,-7.02500000e-009,1.60937372e-004
,,,-7.00000000e-009,1.64062372e-004
,,,-6.97500000e-009,1.55468621e-004
,,,-6.95000000e-009,1.35156120e-004
,,,-6.92500000e-009,9.99998674e-005
,,,-6.90000000e-009,4.99998638e-005
,,,-6.87500000e-009,-9.37514036e-006
,,,-6.85000000e-009,-7.42188950e-005
,,,-6.82500000e-009,-1.39062650e-004
,,,-6.80000000e-009,-1.98437654e-004
,,,-6.77500000e-009,-2.46875157e-004
,,,-6.75000000e-009,-2.82031410e-004
,,,-6.72500000e-009,-3.00000161e-004
,,,-6.70000000e-009,-2.99218911e-004
,,,-6.67500000e-009,-2.83593910e-004
,,,-6.65000000e-009,-2.54687658e-004
,,,-6.62500000e-009,-2.19531405e-004
,,,-6.60000000e-009,-1.80468902e-004
,,,-6.57500000e-009,-1.45312650e-004
,,,-6.55000000e-009,-1.17187648e-004
,,,-6.52500000e-009,-1.00000147e-004
,,,-6.50000000e-009,-9.60938965e-005
,,,-6.47500000e-009,-1.06250147e-004
,,,-6.45000000e-009,-1.28906399e-004
,,,-6.42500000e-009,-1.60156401e-004
,,,-6.40000000e-009,-1.97656404e-004
,,,-6.37500000e-009,-2.35937656e-004
,,,-6.35000000e-009,-2.71093909e-004
,,,-6.32500000e-009,-3.00000161e-004
,,,-6.30000000e-009,-3.17187662e-004
,,,-6.27500000e-009,-3.25781413e-004
,,,-6.25000000e-009,-3.26562663e-004
,,,-6.22500000e-009,-3.21093912e-004
,,,-6.20000000e-009,-3.12500162e-004
,,,-6.17500000e-009,-3.03906411e-004
,,,-6.15000000e-009,-2.99218911e-004
,,,-6.12500000e-009,-3.00000161e-004
,,,-6.10000000e-009,-3.03125161e-004
,,,-6.07500000e-009,-3.14843912e-004
,,,-6.05000000e-009,-3.35156413e-004
,,,-6.02500000e-009,-3.61718915e-004
,,,-6.00000000e-009,-3.94531418e-004
,,,-5.97500000e-009,-4.29687670e-004
,,,-5.95000000e-009,-4.65625173e-004
,,,-5.92500000e-009,-5.00000175e-004
,,,-5.90000000e-009,-5.21875177e-004
,,,-5.87500000e-009,-5.37500178e-004
,,,-5.85000000e-009,-5.46093928e-004
,,,-5.82500000e-009,-5.47656428e-004
,,,-5.80000000e-009,-5.43750178e-004
,,,-5.77500000e-009,-5.32812677e-004
,,,-5.75000000e-009,-5.17968926e-004
,,,-5.72500000e-009,-5.00000175e-004
,,,-5.70000000e-009,-4.75000173e-004
,,,-5.67500000e-009,-4.48437671e-004
,,,-5.65000000e-009,-4.21875170e-004
,,,-5.62500000e-009,-3.95312668e-004
,,,-5.60000000e-009,-3.69531416e-004
,,,-5.57500000e-009,-3.44531414e-004
,,,-5.55000000e-009,-3.21875162e-004
,,,-5.52500000e-009,-3.00000161e-004
,,,-5.50000000e-009,-2.76562659e-004
,,,-5.47500000e-009,-2.54687658e-004
,,,-5.45000000e-009,-2.32812656e-004
,,,-5.42500000e-009,-2.10937655e-004
,,,-5.40000000e-009,-1.86718903e-004
,,,-5.37500000e-009,-1.60937651e-004
,,,-5.35000000e-009,-1.32031399e-004
,,,-5.32500000e-009,-1.00000147e-004
,,,-5.30000000e-009,-6.25001441e-005
,,,-5.27500000e-009,-2.10938912e-005
,,,-5.25000000e-009,2.49998621e-005
,,,-5.22500000e-009,7.49998656e-005
,,,-5.20000000e-009,1.28906119e-004
,,,-5.17500000e-009,1.85156123e-004
,,,-5.15000000e-009,2.42968627e-004
,,,-5.12500000e-009,2.99999882e-004
,,,-5.10000000e-009,3.50781135e-004
,,,-5.07500000e-009,3.96093638e-004
,,,-5.05000000e-009,4.35937391e-004
,,,-5.02500000e-009,4.68749893e-004
,,,-5.00000000e-009,4.92187395e-004
,,,-4.97500000e-009,5.05468646e-004
,,,-4.95000000e-009,5.08593646e-004
,,,-4.92500000e-009,4.99999896e-004
,,,-4.90000000e-009,4.72656144e-004
,,,-4.87500000e-009,4.35937391e-004
,,,-4.85000000e-009,3.89843638e-004
,,,-4.82500000e-009,3.37499884e-004
,,,-4.80000000e-009,2.80468630e-004
,,,-4.77500000e-009,2.20312376e-004
,,,-4.75000000e-009,1.59374872e-004
,,,-4.72500000e-009,9.99998674e-005
,,,-4.70000000e-009,4.29686133e-005
,,,-4.67500000e-009,-7.03139020e-006
,,,-4.65000000e-009,-4.84376431e-005
,,,-4.62500000e-009,-7.89063953e-005
,,,-4.60000000e-009,-9.92188967e-005
,,,-4.57500000e-009,-1.09375147e-004
,,,-4.55000000e-009,-1.09375147e-004
,,,-4.52500000e-009,-1.00000147e-004
,,,-4.50000000e-009,-8.12501454e-005
,,,-4.47500000e-009,-5.54688936e-005
,,,-4.45000000e-009,-2.65626416e-005
,,,-4.42500000e-009,4.68736063e-006
,,,-4.40000000e-009,3.51561128e-005
,,,-4.37500000e-009,6.32811148e-005
,,,-4.35000000e-009,8.51561163e-005
,,,-4.32500000e-009,9.99998674e-005
,,,-4.30000000e-009,1.07031118e-004
,,,-4.27500000e-009,1.03906118e-004
,,,-4.25000000e-009,9.06248667e-005
,,,-4.22500000e-009,6.79686151e-005
,,,-4.20000000e-009,3.59373628e-005
,,,-4.17500000e-009,-3.12513992e-006
,,,-4.15000000e-009,-4.92188932e-005
,,,-4.12500000e-009,-1.00000147e-004
,,,-4.10000000e-009,-1.48437650e-004
,,,-4.07500000e-009,-1.95312654e-004
,,,-4.05000000e-009,-2.37500157e-004
,,,-4.02500000e-009,-2.71875159e-004
,,,-4.00000000e-009,-2.97656411e-004
,,,-3.97500000e-009,-3.10937662e-004
,,,-3.95000000e-009,-3.12500162e-004
,,,-3.92500000e-009,-3.00000161e-004
,,,-3.90000000e-009,-2.68750159e-004
,,,-3.87500000e-009,-2.28125156e-004
,,,-3.85000000e-009,-1.78906402e-004
,,,-3.82500000e-009,-1.23437648e-004
,,,-3.80000000e-009,-6.56251443e-005
,,,-3.77500000e-009,-7.03139020e-006
,,,-3.75000000e-009,4.84373637e-005
,,,-3.72500000e-009,9.99998674e-005
,,,-3.70000000e-009,1.46093621e-004
,,,-3.67500000e-009,1.84374873e-004
,,,-3.65000000e-009,2.15624876e-004
,,,-3.62500000e-009,2.40624877e-004
,,,-3.60000000e-009,2.60156129e-004
,,,-3.57500000e-009,2.75781130e-004
,,,-3.55000000e-009,2.89062381e-004
,,,-3.52500000e-009,2.99999882e-004
,,,-3.50000000e-009,3.07812382e-004
,,,-3.47500000e-009,3.14062383e-004
,,,-3.45000000e-009,3.19531133e-004
,,,-3.42500000e-009,3.23437383e-004
,,,-3.40000000e-009,3.24218633e-004
,,,-3.37500000e-009,3.21093633e-004
,,,-3.35000000e-009,3.13281132e-004
,,,-3.32500000e-009,2.99999882e-004
,,,-3.30000000e-009,2.78906130e-004
,,,-3.27500000e-009,2.52343628e-004
,,,-3.25000000e-009,2.23437376e-004
,,,-3.22500000e-009,1.93749874e-004
,,,-3.20000000e-009,1.64062372e-004
,,,-3.17500000e-009,1.38281120e-004
,,,-3.15000000e-009,1.16406119e-004
,,,-3.12500000e-009,9.99998674e-005
,,,-3.10000000e-009,8.90623666e-005
,,,-3.07500000e-009,8.35936162e-005
,,,-3.05000000e-009,8.28123662e-005
,,,-3.02500000e-009,8.59373664e-005
,,,-3.00000000e-009,9.06248667e-005
,,,-2.97500000e-009,9.53123670e-005
,,,-2.95000000e-009,9.92186173e-005
,,,-2.92500000e-009,9.99998674e-005
,,,-2.90000000e-009,9.53123670e-005
,,,-2.87500000e-009,8.90623666e-005
,,,-2.85000000e-009,8.28123662e-005
,,,-2.82500000e-009,7.73436158e-005
,,,-2.80000000e-009,7.57811157e-005
,,,-2.77500000e-009,7.81248658e-005
,,,-2.75000000e-009,8.67186164e-005
,,,-2.72500000e-009,9.99998674e-005
,,,-2.70000000e-009,1.17187369e-004
,,,-2.67500000e-009,1.35156120e-004
,,,-2.65000000e-009,1.52343621e-004
,,,-2.62500000e-009,1.63281122e-004
,,,-2.60000000e-009,1.66406122e-004
,,,-2.57500000e-009,1.57812371e-004
,,,-2.55000000e-009,1.36718620e-004
,,,-2.52500000e-009,9.99998674e-005
,,,-2.50000000e-009,5.07811139e-005
,,,-2.47500000e-009,-9.37514036e-006
,,,-2.45000000e-009,-7.42188950e-005
,,,-2.42500000e-009,-1.39843900e-004
,,,-2.40000000e-009,-2.00000154e-004
,,,-2.37500000e-009,-2.48437657e-004
,,,-2.35000000e-009,-2.82812660e-004
,,,-2.32500000e-009,-3.00000161e-004
,,,-2.30000000e-009,-2.94531411e-004
,,,-2.27500000e-009,-2.74218909e-004
,,,-2.25000000e-009,-2.42187657e-004
,,,-2.22500000e-009,-2.03906404e-004
,,,-2.20000000e-009,-1.64843901e-004
,,,-2.17500000e-009,-1.32031399e-004
,,,-2.15000000e-009,-1.08593897e-004
,,,-2.12500000e-009,-1.00000147e-004
,,,-2.10000000e-009,-1.03906397e-004
,,,-2.07500000e-009,-1.21875148e-004
,,,-2.05000000e-009,-1.51562650e-004
,,,-2.02500000e-009,-1.88281403e-004
,,,-2.00000000e-009,-2.26562656e-004
,,,-1.97500000e-009,-2.60937658e-004
,,,-1.95000000e-009,-2.86718910e-004
,,,-1.92500000e-009,-3.00000161e-004
,,,-1.90000000e-009,-2.96875161e-004
,,,-1.87500000e-009,-2.81250160e-004
,,,-1.85000000e-009,-2.53906408e-004
,,,-1.82500000e-009,-2.18750155e-004
,,,-1.80000000e-009,-1.82031403e-004
,,,-1.77500000e-009,-1.46093900e-004
,,,-1.75000000e-009,-1.17968898e-004
,,,-1.72500000e-009,-1.00000147e-004
,,,-1.70000000e-009,-9.76563966e-005
,,,-1.67500000e-009,-1.09375147e-004
,,,-1.65000000e-009,-1.32812649e-004
,,,-1.62500000e-009,-1.66406401e-004
,,,-1.60000000e-009,-2.03906404e-004
,,,-1.57500000e-009,-2.42187657e-004
,,,-1.55000000e-009,-2.75000159e-004
,,,-1.52500000e-009,-3.00000161e-004
,,,-1.50000000e-009,-3.17187662e-004
,,,-1.47500000e-009,-3.22656413e-004
,,,-1.45000000e-009,-3.14062662e-004
,,,-1.42500000e-009,-2.92187660e-004
,,,-1.40000000e-009,-2.57031408e-004
,,,-1.37500000e-009,-2.11718905e-004
,,,-1.35000000e-009,-1.58593901e-004
,,,-1.32500000e-009,-1.00000147e-004
,,,-1.30000000e-009,-5.39063935e-005
,,,-1.27500000e-009,-1.32813906e-005
,,,-1.25000000e-009,2.26561119e-005
,,,-1.22500000e-009,5.23436140e-005
,,,-1.20000000e-009,7.49998656e-005
,,,-1.17500000e-009,9.06248667e-005
,,,-1.15000000e-009,9.92186173e-005
,,,-1.12500000e-009,9.99998674e-005
,,,-1.10000000e-009,7.26561154e-005
,,,-1.07500000e-009,3.35936127e-005
,,,-1.05000000e-009,-1.32813906e-005
,,,-1.02500000e-009,-6.71876445e-005
,,,-1.00000000e-009,-1.24218898e-004
,,,-9.75000000e-010,-1.82812653e-004
,,,-9.50000000e-010,-2.41406407e-004
,,,-9.25000000e-010,-3.00000161e-004
,,,-9.00000000e-010,-3.82031417e-004
,,,-8.75000000e-010,-4.66406423e-004
,,,-8.50000000e-010,-5.50000179e-004
,,,-8.25000000e-010,-6.30468934e-004
,,,-8.00000000e-010,-7.05468940e-004
,,,-7.75000000e-010,-7.75781445e-004
,,,-7.50000000e-010,-8.39843949e-004
,,,-7.25000000e-010,-9.00000203e-004
,,,-7.00000000e-010,-9.78125209e-004
,,,-6.75000000e-010,-1.06093771e-003
,,,-6.50000000e-010,-1.15000022e-003
,,,-6.25000000e-010,-1.24453148e-003
,,,-6.00000000e-010,-1.34687524e-003
,,,-5.75000000e-010,-1.45703149e-003
,,,-5.50000000e-010,-1.57421900e-003
,,,-5.25000000e-010,-1.70000026e-003
,,,-5.00000000e-010,-1.84609402e-003
,,,-4.75000000e-010,-2.00078153e-003
,,,-4.50000000e-010,-2.16015654e-003
,,,-4.25000000e-010,-2.31953155e-003
,,,-4.00000000e-010,-2.47656281e-003
,,,-3.75000000e-010,-2.62578158e-003
,,,-3.50000000e-010,-2.76718784e-003
,,,-3.25000000e-010,-2.90000034e-003
,,,-3.00000000e-010,-3.02578160e-003
,,,-2.75000000e-010,-3.15078161e-003
,,,-2.50000000e-010,-3.27890662e-003
,,,-2.25000000e-010,-3.41484413e-003
,,,-2.00000000e-010,-3.56250039e-003
,,,-1.75000000e-010,-3.72500040e-003
,,,-1.50000000e-010,-3.90390667e-003
,,,-1.25000000e-010,-4.10000043e-003
,,,-1.00000000e-010,-4.29609419e-003
,,,-7.50000000e-011,-4.50703171e-003
,,,-5.00000000e-011,-4.72656297e-003
,,,-2.50000000e-011,-4.94843799e-003
,,,0.00000000e+000,-5.16484426e-003
,,,2.50000000e-011,-5.36640677e-003
,,,5.00000000e-011,-5.54687553e-003
,,,7.50000000e-011,-5.70000054e-003
,,,1.00000000e-010,-5.78906305e-003
,,,1.25000000e-010,-5.85078180e-003
,,,1.50000000e-010,-5.88828181e-003
,,,1.75000000e-010,-5.90625056e-003
,,,2.00000000e-010,-5.91093806e-003
,,,2.25000000e-010,-5.90781306e-003
,,,2.50000000e-010,-5.90312556e-003
,,,2.75000000e-010,-5.90000056e-003
,,,3.00000000e-010,-5.86640680e-003
,,,3.25000000e-010,-5.84375055e-003
,,,3.50000000e-010,-5.83437555e-003
,,,3.75000000e-010,-5.83593805e-003
,,,4.00000000e-010,-5.84765680e-003
,,,4.25000000e-010,-5.86562555e-003
,,,4.50000000e-010,-5.88437556e-003
,,,4.75000000e-010,-5.90000056e-003
,,,5.00000000e-010,-5.87187556e-003
,,,5.25000000e-010,-5.83671930e-003
,,,5.50000000e-010,-5.79375055e-003
,,,5.75000000e-010,-5.74375055e-003
,,,6.00000000e-010,-5.68906304e-003
,,,6.25000000e-010,-5.62968804e-003
,,,6.50000000e-010,-5.56640678e-003
,,,6.75000000e-010,-5.50000053e-003
,,,7.00000000e-010,-5.39843802e-003
,,,7.25000000e-010,-5.29609426e-003
,,,7.50000000e-010,-5.19296926e-003
,,,7.75000000e-010,-5.09140675e-003
,,,8.00000000e-010,-4.99140674e-003
,,,8.25000000e-010,-4.89375049e-003
,,,8.50000000e-010,-4.79687548e-003
,,,8.75000000e-010,-4.70000047e-003
,,,9.00000000e-010,-4.57968796e-003
,,,9.25000000e-010,-4.45781296e-003
,,,9.50000000e-010,-4.33281295e-003
,,,9.75000000e-010,-4.20625044e-003
,,,1.00000000e-009,-4.07890668e-003
,,,1.02500000e-009,-3.95156292e-003
,,,1.05000000e-009,-3.82500041e-003
,,,1.07500000e-009,-3.70000040e-003
,,,1.10000000e-009,-3.56796914e-003
,,,1.12500000e-009,-3.43593788e-003
,,,1.15000000e-009,-3.30312537e-003
,,,1.17500000e-009,-3.17265661e-003
,,,1.20000000e-009,-3.04531286e-003
,,,1.22500000e-009,-2.92343785e-003
,,,1.25000000e-009,-2.80781284e-003
,,,1.27500000e-009,-2.70000033e-003
,,,1.30000000e-009,-2.59921907e-003
,,,1.32500000e-009,-2.50000032e-003
,,,1.35000000e-009,-2.40156281e-003
,,,1.37500000e-009,-2.30234405e-003
,,,1.40000000e-009,-2.20312530e-003
,,,1.42500000e-009,-2.10234404e-003
,,,1.45000000e-009,-2.00156278e-003
,,,1.47500000e-009,-1.90000027e-003
,,,1.50000000e-009,-1.80546902e-003
,,,1.52500000e-009,-1.70625026e-003
,,,1.55000000e-009,-1.60234400e-003
,,,1.57500000e-009,-1.49687525e-003
,,,1.60000000e-009,-1.39062524e-003
,,,1.62500000e-009,-1.28750023e-003
,,,1.65000000e-009,-1.18984397e-003
,,,1.67500000e-009,-1.10000022e-003
,,,1.70000000e-009,-1.03437521e-003
,,,1.72500000e-009,-9.74218959e-004
,,,1.75000000e-009,-9.17968955e-004
,,,1.77500000e-009,-8.66406451e-004
,,,1.80000000e-009,-8.18750198e-004
,,,1.82500000e-009,-7.75781445e-004
,,,1.85000000e-009,-7.35937692e-004
,,,1.87500000e-009,-7.00000189e-004
,,,1.90000000e-009,-6.82031438e-004
,,,1.92500000e-009,-6.62500187e-004
,,,1.95000000e-009,-6.40625185e-004
,,,1.97500000e-009,-6.15625183e-004
,,,2.00000000e-009,-5.87500181e-004
,,,2.02500000e-009,-5.58593929e-004
,,,2.05000000e-009,-5.28906427e-004
,,,2.07500000e-009,-5.00000175e-004
,,,2.10000000e-009,-4.83593924e-004
,,,2.12500000e-009,-4.64843923e-004
,,,2.15000000e-009,-4.42187671e-004
,,,2.17500000e-009,-4.17187669e-004
,,,2.20000000e-009,-3.89062667e-004
,,,2.22500000e-009,-3.59375165e-004
,,,2.25000000e-009,-3.28906413e-004
,,,2.27500000e-009,-3.00000161e-004
,,,2.30000000e-009,-2.85156410e-004
,,,2.32500000e-009,-2.71875159e-004
,,,2.35000000e-009,-2.62500158e-004
,,,2.37500000e-009,-2.56250158e-004
,,,2.40000000e-009,-2.55468908e-004
,,,2.42500000e-009,-2.61718908e-004
,,,2.45000000e-009,-2.76562659e-004
,,,2.47500000e-009,-3.00000161e-004
,,,2.50000000e-009,-3.39062664e-004
,,,2.52500000e-009,-3.83593917e-004
,,,2.55000000e-009,-4.33593920e-004
,,,2.57500000e-009,-4.86718924e-004
,,,2.60000000e-009,-5.42187678e-004
,,,2.62500000e-009,-5.96875182e-004
,,,2.65000000e-009,-6.50781436e-004
,,,2.67500000e-009,-7.00000189e-004
,,,2.70000000e-009,-7.41406442e-004
,,,2.72500000e-009,-7.73437694e-004
,,,2.75000000e-009,-7.92968946e-004
,,,2.77500000e-009,-7.99218946e-004
,,,2.80000000e-009,-7.92968946e-004
,,,2.82500000e-009,-7.72656444e-004
,,,2.85000000e-009,-7.40625192e-004
,,,2.87500000e-009,-7.00000189e-004
,,,2.90000000e-009,-6.49218936e-004
,,,2.92500000e-009,-5.97656432e-004
,,,2.95000000e-009,-5.48437679e-004
,,,2.97500000e-009,-5.07812676e-004
,,,3.00000000e-009,-4.79687674e-004
,,,3.02500000e-009,-4.67968923e-004
,,,3.05000000e-009,-4.74218923e-004
,,,3.07500000e-009,-5.00000175e-004
,,,3.10000000e-009,-5.39843928e-004
,,,3.12500000e-009,-5.92968932e-004
,,,3.15000000e-009,-6.55468936e-004
,,,3.17500000e-009,-7.21093941e-004
,,,3.20000000e-009,-7.83593945e-004
,,,3.22500000e-009,-8.37500199e-004
,,,3.25000000e-009,-8.77343952e-004
,,,3.27500000e-009,-9.00000203e-004
,,,3.30000000e-009,-8.94531453e-004
,,,3.32500000e-009,-8.68750201e-004
,,,3.35000000e-009,-8.25781448e-004
,,,3.37500000e-009,-7.68750194e-004
,,,3.40000000e-009,-7.02343939e-004
,,,3.42500000e-009,-6.32031434e-004
,,,3.45000000e-009,-5.63281430e-004
,,,3.47500000e-009,-5.00000175e-004
,,,3.50000000e-009,-4.42187671e-004
,,,3.52500000e-009,-3.96875168e-004
,,,3.55000000e-009,-3.62500165e-004
,,,3.57500000e-009,-3.39062664e-004
,,,3.60000000e-009,-3.23437663e-004
,,,3.62500000e-009,-3.14062662e-004
,,,3.65000000e-009,-3.07031411e-004
,,,3.67500000e-009,-3.00000161e-004
,,,3.70000000e-009,-2.89843910e-004
,,,3.72500000e-009,-2.75781409e-004
,,,3.75000000e-009,-2.56250158e-004
,,,3.77500000e-009,-2.31250156e-004
,,,3.80000000e-009,-2.01562654e-004
,,,3.82500000e-009,-1.68750152e-004
,,,3.85000000e-009,-1.34375149e-004
,,,3.87500000e-009,-1.00000147e-004
,,,3.90000000e-009,-6.95313946e-005
,,,3.92500000e-009,-4.06251426e-005
,,,3.95000000e-009,-1.32813906e-005
,,,3.97500000e-009,1.17186111e-005
,,,4.00000000e-009,3.59373628e-005
,,,4.02500000e-009,5.85936144e-005
,,,4.05000000e-009,8.04686160e-005
,,,4.07500000e-009,9.99998674e-005
,,,4.10000000e-009,1.14843618e-004
,,,4.12500000e-009,1.27343619e-004
,,,4.15000000e-009,1.36718620e-004
,,,4.17500000e-009,1.41406120e-004
,,,4.20000000e-009,1.40624870e-004
,,,4.22500000e-009,1.33593620e-004
,,,4.25000000e-009,1.20312369e-004
,,,4.27500000e-009,9.99998674e-005
,,,4.30000000e-009,6.95311152e-005
,,,4.32500000e-009,3.51561128e-005
,,,4.35000000e-009,1.56236041e-006
,,,4.37500000e-009,-3.04688919e-005
,,,4.40000000e-009,-5.78126438e-005
,,,4.42500000e-009,-7.89063953e-005
,,,4.45000000e-009,-9.29688963e-005
,,,4.47500000e-009,-1.00000147e-004
,,,4.50000000e-009,-1.00781397e-004
,,,4.52500000e-009,-9.53126464e-005
,,,4.55000000e-009,-8.75001459e-005
,,,4.57500000e-009,-7.89063953e-005
,,,4.60000000e-009,-7.34376449e-005
,,,4.62500000e-009,-7.42188950e-005
,,,4.65000000e-009,-8.20313955e-005
,,,4.67500000e-009,-1.00000147e-004
,,,4.70000000e-009,-1.26562649e-004
,,,4.72500000e-009,-1.59375151e-004
,,,4.75000000e-009,-1.95312654e-004
,,,4.77500000e-009,-2.31250156e-004
,,,4.80000000e-009,-2.62500158e-004
,,,4.82500000e-009,-2.86718910e-004
,,,4.85000000e-009,-2.99218911e-004
,,,4.87500000e-009,-3.00000161e-004
,,,4.90000000e-009,-2.84375160e-004
,,,4.92500000e-009,-2.58593908e-004
,,,4.95000000e-009,-2.25000156e-004
,,,4.97500000e-009,-1.88281403e-004
,,,5.00000000e-009,-1.53125151e-004
,,,5.02500000e-009,-1.24218898e-004
,,,5.05000000e-009,-1.05468897e-004
,,,5.07500000e-009,-1.00000147e-004
,,,5.10000000e-009,-1.05468897e-004
,,,5.12500000e-009,-1.24218898e-004
,,,5.15000000e-009,-1.53125151e-004
,,,5.17500000e-009,-1.88281403e-004
,,,5.20000000e-009,-2.25000156e-004
,,,5.22500000e-009,-2.58593908e-004
,,,5.25000000e-009,-2.84375160e-004
,,,5.27500000e-009,-3.00000161e-004
,,,5.30000000e-009,-2.98437661e-004
,,,5.32500000e-009,-2.84375160e-004
,,,5.35000000e-009,-2.60156408e-004
,,,5.37500000e-009,-2.27343906e-004
,,,5.40000000e-009,-1.91406403e-004
,,,5.42500000e-009,-1.56250151e-004
,,,5.45000000e-009,-1.24218898e-004
,,,5.47500000e-009,-1.00000147e-004
,,,5.50000000e-009,-8.35938956e-005
,,,5.52500000e-009,-7.65626451e-005
,,,5.55000000e-009,-7.73438952e-005
,,,5.57500000e-009,-8.35938956e-005
,,,5.60000000e-009,-9.14063962e-005
,,,5.62500000e-009,-9.92188967e-005
,,,5.65000000e-009,-1.02343897e-004
,,,5.67500000e-009,-1.00000147e-004
,,,5.70000000e-009,-8.98438961e-005
,,,5.72500000e-009,-7.18751448e-005
,,,5.75000000e-009,-4.76563931e-005
,,,5.77500000e-009,-1.87501410e-005
,,,5.80000000e-009,1.32811112e-005
,,,5.82500000e-009,4.60936136e-005
,,,5.85000000e-009,7.57811157e-005
,,,5.87500000e-009,9.99998674e-005
,,,5.90000000e-009,1.15624868e-004
