RawData/SinglePhotoelectron/L4_2pt2C_5mV/wave029_Ch3.csv

"Record Length",1000,"Points",-7.72500000e-009,-1.01562647e-004
"Sample Interval",2.50000000e-011,s,-7.70000000e-009,-8.75001459e-005
"Trigger Point",309,"Samples",-7.67500000e-009,-6.48438943e-005
"Trigger Time",8.09676349e-012,s,-7.65000000e-009,-3.28126420e-005
"",,,-7.62500000e-009,7.03111080e-006
"Horizontal Offset",-7.72500000e-009,s,-7.60000000e-009,5.15623640e-005
,,,-7.57500000e-009,9.99998674e-005
,,,-7.55000000e-009,1.50781121e-004
,,,-7.52500000e-009,1.97656124e-004
,,,-7.50000000e-009,2.39062377e-004
,,,-7.47500000e-009,2.71874880e-004
,,,-7.45000000e-009,2.95312381e-004
,,,-7.42500000e-009,3.08593632e-004
,,,-7.40000000e-009,3.09374882e-004
,,,-7.37500000e-009,2.99999882e-004
,,,-7.35000000e-009,2.81249880e-004
,,,-7.32500000e-009,2.55468628e-004
,,,-7.30000000e-009,2.24218626e-004
,,,-7.27500000e-009,1.91406124e-004
,,,-7.25000000e-009,1.60156122e-004
,,,-7.22500000e-009,1.32812370e-004
,,,-7.20000000e-009,1.12499868e-004
,,,-7.17500000e-009,9.99998674e-005
,,,-7.15000000e-009,9.92186173e-005
,,,-7.12500000e-009,1.09374868e-004
,,,-7.10000000e-009,1.28124869e-004
,,,-7.07500000e-009,1.56249871e-004
,,,-7.05000000e-009,1.89062374e-004
,,,-7.02500000e-009,2.26562376e-004
,,,-7.00000000e-009,2.64843629e-004
,,,-6.97500000e-009,2.99999882e-004
,,,-6.95000000e-009,3.28906134e-004
,,,-6.92500000e-009,3.49999885e-004
,,,-6.90000000e-009,3.62499886e-004
,,,-6.87500000e-009,3.66406136e-004
,,,-6.85000000e-009,3.60937386e-004
,,,-6.82500000e-009,3.47656135e-004
,,,-6.80000000e-009,3.27343633e-004
,,,-6.77500000e-009,2.99999882e-004
,,,-6.75000000e-009,2.68749879e-004
,,,-6.72500000e-009,2.35156127e-004
,,,-6.70000000e-009,2.02343625e-004
,,,-6.67500000e-009,1.71874872e-004
,,,-6.65000000e-009,1.45312371e-004
,,,-6.62500000e-009,1.24218619e-004
,,,-6.60000000e-009,1.08593618e-004
,,,-6.57500000e-009,9.99998674e-005
,,,-6.55000000e-009,1.00781117e-004
,,,-6.52500000e-009,1.10156118e-004
,,,-6.50000000e-009,1.26562369e-004
,,,-6.47500000e-009,1.51562371e-004
,,,-6.45000000e-009,1.82812373e-004
,,,-6.42500000e-009,2.19531126e-004
,,,-6.40000000e-009,2.59374879e-004
,,,-6.37500000e-009,2.99999882e-004
,,,-6.35000000e-009,3.38281134e-004
,,,-6.32500000e-009,3.70312387e-004
,,,-6.30000000e-009,3.93749888e-004
,,,-6.27500000e-009,4.04687389e-004
,,,-6.25000000e-009,4.01562389e-004
,,,-6.22500000e-009,3.82812387e-004
,,,-6.20000000e-009,3.49218635e-004
,,,-6.17500000e-009,2.99999882e-004
,,,-6.15000000e-009,2.38281127e-004
,,,-6.12500000e-009,1.70312372e-004
,,,-6.10000000e-009,9.99998674e-005
,,,-6.07500000e-009,3.28123626e-005
,,,-6.05000000e-009,-2.42188914e-005
,,,-6.02500000e-009,-6.79688945e-005
,,,-6.00000000e-009,-9.37501463e-005
,,,-5.97500000e-009,-1.00000147e-004
,,,-5.95000000e-009,-8.12501454e-005
,,,-5.92500000e-009,-4.45313929e-005
,,,-5.90000000e-009,7.03111080e-006
,,,-5.87500000e-009,6.79686151e-005
,,,-5.85000000e-009,1.32812370e-004
,,,-5.82500000e-009,1.96874874e-004
,,,-5.80000000e-009,2.53906128e-004
,,,-5.77500000e-009,2.99999882e-004
,,,-5.75000000e-009,3.33593634e-004
,,,-5.72500000e-009,3.51562385e-004
,,,-5.70000000e-009,3.57812386e-004
,,,-5.67500000e-009,3.52343635e-004
,,,-5.65000000e-009,3.40624884e-004
,,,-5.62500000e-009,3.25781133e-004
,,,-5.60000000e-009,3.11718632e-004
,,,-5.57500000e-009,2.99999882e-004
,,,-5.55000000e-009,2.94531131e-004
,,,-5.52500000e-009,2.95312381e-004
,,,-5.50000000e-009,2.99999882e-004
,,,-5.47500000e-009,3.07031132e-004
,,,-5.45000000e-009,3.13281132e-004
,,,-5.42500000e-009,3.16406133e-004
,,,-5.40000000e-009,3.12499882e-004
,,,-5.37500000e-009,2.99999882e-004
,,,-5.35000000e-009,2.79687380e-004
,,,-5.32500000e-009,2.51562378e-004
,,,-5.30000000e-009,2.18749876e-004
,,,-5.27500000e-009,1.84374873e-004
,,,-5.25000000e-009,1.51562371e-004
,,,-5.22500000e-009,1.24999869e-004
,,,-5.20000000e-009,1.07031118e-004
,,,-5.17500000e-009,9.99998674e-005
,,,-5.15000000e-009,1.08593618e-004
,,,-5.12500000e-009,1.28124869e-004
,,,-5.10000000e-009,1.56249871e-004
,,,-5.07500000e-009,1.89062374e-004
,,,-5.05000000e-009,2.24218626e-004
,,,-5.02500000e-009,2.56249878e-004
,,,-5.00000000e-009,2.82031130e-004
,,,-4.97500000e-009,2.99999882e-004
,,,-4.95000000e-009,3.07812382e-004
,,,-4.92500000e-009,3.07031132e-004
,,,-4.90000000e-009,3.01562382e-004
,,,-4.87500000e-009,2.92968631e-004
,,,-4.85000000e-009,2.85156130e-004
,,,-4.82500000e-009,2.82031130e-004
,,,-4.80000000e-009,2.86718631e-004
,,,-4.77500000e-009,2.99999882e-004
,,,-4.75000000e-009,3.24218633e-004
,,,-4.72500000e-009,3.55468635e-004
,,,-4.70000000e-009,3.91406138e-004
,,,-4.67500000e-009,4.27343641e-004
,,,-4.65000000e-009,4.60937393e-004
,,,-4.62500000e-009,4.85937395e-004
,,,-4.60000000e-009,4.99999896e-004
,,,-4.57500000e-009,4.99999896e-004
,,,-4.55000000e-009,4.85937395e-004
,,,-4.52500000e-009,4.60156143e-004
,,,-4.50000000e-009,4.25781140e-004
,,,-4.47500000e-009,3.88281138e-004
,,,-4.45000000e-009,3.52343635e-004
,,,-4.42500000e-009,3.23437383e-004
,,,-4.40000000e-009,3.05468632e-004
,,,-4.37500000e-009,2.99999882e-004
,,,-4.35000000e-009,3.10937382e-004
,,,-4.32500000e-009,3.34374884e-004
,,,-4.30000000e-009,3.67187386e-004
,,,-4.27500000e-009,4.04687389e-004
,,,-4.25000000e-009,4.41406142e-004
,,,-4.22500000e-009,4.72656144e-004
,,,-4.20000000e-009,4.92968645e-004
,,,-4.17500000e-009,4.99999896e-004
,,,-4.15000000e-009,4.91406145e-004
,,,-4.12500000e-009,4.69531144e-004
,,,-4.10000000e-009,4.37499891e-004
,,,-4.07500000e-009,3.99999889e-004
,,,-4.05000000e-009,3.63281136e-004
,,,-4.02500000e-009,3.31249884e-004
,,,-4.00000000e-009,3.09374882e-004
,,,-3.97500000e-009,2.99999882e-004
,,,-3.95000000e-009,3.06249882e-004
,,,-3.92500000e-009,3.25781133e-004
,,,-3.90000000e-009,3.56249886e-004
,,,-3.87500000e-009,3.92968638e-004
,,,-3.85000000e-009,4.30468641e-004
,,,-3.82500000e-009,4.63281143e-004
,,,-3.80000000e-009,4.88281145e-004
,,,-3.77500000e-009,4.99999896e-004
,,,-3.75000000e-009,4.96093645e-004
,,,-3.72500000e-009,4.78124894e-004
,,,-3.70000000e-009,4.49218642e-004
,,,-3.67500000e-009,4.13281140e-004
,,,-3.65000000e-009,3.75781137e-004
,,,-3.62500000e-009,3.41406134e-004
,,,-3.60000000e-009,3.14843633e-004
,,,-3.57500000e-009,2.99999882e-004
,,,-3.55000000e-009,2.99999882e-004
,,,-3.52500000e-009,3.12499882e-004
,,,-3.50000000e-009,3.36718634e-004
,,,-3.47500000e-009,3.68749886e-004
,,,-3.45000000e-009,4.05468639e-004
,,,-3.42500000e-009,4.41406142e-004
,,,-3.40000000e-009,4.74218644e-004
,,,-3.37500000e-009,4.99999896e-004
,,,-3.35000000e-009,5.15624897e-004
,,,-3.32500000e-009,5.22656147e-004
,,,-3.30000000e-009,5.21093647e-004
,,,-3.27500000e-009,5.15624897e-004
,,,-3.25000000e-009,5.07812396e-004
,,,-3.22500000e-009,5.01562396e-004
,,,-3.20000000e-009,4.98437396e-004
,,,-3.17500000e-009,4.99999896e-004
,,,-3.15000000e-009,5.06249896e-004
,,,-3.12500000e-009,5.15624897e-004
,,,-3.10000000e-009,5.27343648e-004
,,,-3.07500000e-009,5.36718648e-004
,,,-3.05000000e-009,5.42187399e-004
,,,-3.02500000e-009,5.39843649e-004
,,,-3.00000000e-009,5.26562398e-004
,,,-2.97500000e-009,4.99999896e-004
,,,-2.95000000e-009,4.58593643e-004
,,,-2.92500000e-009,4.06249889e-004
,,,-2.90000000e-009,3.46874885e-004
,,,-2.87500000e-009,2.85156130e-004
,,,-2.85000000e-009,2.24999876e-004
,,,-2.82500000e-009,1.71093622e-004
,,,-2.80000000e-009,1.28906119e-004
,,,-2.77500000e-009,9.99998674e-005
,,,-2.75000000e-009,8.90623666e-005
,,,-2.72500000e-009,9.29686169e-005
,,,-2.70000000e-009,1.11718618e-004
,,,-2.67500000e-009,1.41406120e-004
,,,-2.65000000e-009,1.78906123e-004
,,,-2.62500000e-009,2.21093626e-004
,,,-2.60000000e-009,2.62499879e-004
,,,-2.57500000e-009,2.99999882e-004
,,,-2.55000000e-009,3.28906134e-004
,,,-2.52500000e-009,3.47656135e-004
,,,-2.50000000e-009,3.56249886e-004
,,,-2.47500000e-009,3.57031136e-004
,,,-2.45000000e-009,3.49218635e-004
,,,-2.42500000e-009,3.36718634e-004
,,,-2.40000000e-009,3.19531133e-004
,,,-2.37500000e-009,2.99999882e-004
,,,-2.35000000e-009,2.77343630e-004
,,,-2.32500000e-009,2.53124878e-004
,,,-2.30000000e-009,2.28906127e-004
,,,-2.27500000e-009,2.04687375e-004
,,,-2.25000000e-009,1.79687373e-004
,,,-2.22500000e-009,1.54687371e-004
,,,-2.20000000e-009,1.28124869e-004
,,,-2.17500000e-009,9.99998674e-005
,,,-2.15000000e-009,7.26561154e-005
,,,-2.12500000e-009,4.37498634e-005
,,,-2.10000000e-009,1.48436114e-005
,,,-2.07500000e-009,-1.32813906e-005
,,,-2.05000000e-009,-3.98438925e-005
,,,-2.02500000e-009,-6.40626442e-005
,,,-2.00000000e-009,-8.35938956e-005
,,,-1.97500000e-009,-1.00000147e-004
,,,-1.95000000e-009,-1.07812647e-004
,,,-1.92500000e-009,-1.12500148e-004
,,,-1.90000000e-009,-1.13281398e-004
,,,-1.87500000e-009,-1.11718898e-004
,,,-1.85000000e-009,-1.07812647e-004
,,,-1.82500000e-009,-1.03906397e-004
,,,-1.80000000e-009,-1.00781397e-004
,,,-1.77500000e-009,-1.00000147e-004
,,,-1.75000000e-009,-1.00781397e-004
,,,-1.72500000e-009,-1.07031397e-004
,,,-1.70000000e-009,-1.20312648e-004
,,,-1.67500000e-009,-1.40625150e-004
,,,-1.65000000e-009,-1.69531402e-004
,,,-1.62500000e-009,-2.06250154e-004
,,,-1.60000000e-009,-2.50000157e-004
,,,-1.57500000e-009,-3.00000161e-004
,,,-1.55000000e-009,-3.47656414e-004
,,,-1.52500000e-009,-3.95312668e-004
,,,-1.50000000e-009,-4.39062671e-004
,,,-1.47500000e-009,-4.76562673e-004
,,,-1.45000000e-009,-5.03125175e-004
,,,-1.42500000e-009,-5.17187676e-004
,,,-1.40000000e-009,-5.16406426e-004
,,,-1.37500000e-009,-5.00000175e-004
,,,-1.35000000e-009,-4.66406423e-004
,,,-1.32500000e-009,-4.21093920e-004
,,,-1.30000000e-009,-3.67968916e-004
,,,-1.27500000e-009,-3.09375162e-004
,,,-1.25000000e-009,-2.50000157e-004
,,,-1.22500000e-009,-1.92968903e-004
,,,-1.20000000e-009,-1.42187650e-004
,,,-1.17500000e-009,-1.00000147e-004
,,,-1.15000000e-009,-7.89063953e-005
,,,-1.12500000e-009,-7.03126447e-005
,,,-1.10000000e-009,-7.26563948e-005
,,,-1.07500000e-009,-8.12501454e-005
,,,-1.05000000e-009,-9.29688963e-005
,,,-1.02500000e-009,-1.02343897e-004
,,,-1.00000000e-009,-1.05468897e-004
,,,-9.75000000e-010,-1.00000147e-004
,,,-9.50000000e-010,-1.09375147e-004
,,,-9.25000000e-010,-1.11718898e-004
,,,-9.00000000e-010,-1.04687647e-004
,,,-8.75000000e-010,-8.51563957e-005
,,,-8.50000000e-010,-5.46876436e-005
,,,-8.25000000e-010,-1.17188905e-005
,,,-8.00000000e-010,4.14061132e-005
,,,-7.75000000e-010,9.99998674e-005
,,,-7.50000000e-010,1.20312369e-004
,,,-7.25000000e-010,1.33593620e-004
,,,-7.00000000e-010,1.39062370e-004
,,,-6.75000000e-010,1.39843620e-004
,,,-6.50000000e-010,1.35156120e-004
,,,-6.25000000e-010,1.27343619e-004
,,,-6.00000000e-010,1.15624868e-004
,,,-5.75000000e-010,9.99998674e-005
,,,-5.50000000e-010,2.34373620e-005
,,,-5.25000000e-010,-6.64063944e-005
,,,-5.00000000e-010,-1.66406401e-004
,,,-4.75000000e-010,-2.71875159e-004
,,,-4.50000000e-010,-3.79687667e-004
,,,-4.25000000e-010,-4.86718924e-004
,,,-4.00000000e-010,-5.92187682e-004
,,,-3.75000000e-010,-7.00000189e-004
,,,-3.50000000e-010,-8.64062701e-004
,,,-3.25000000e-010,-1.04453146e-003
,,,-3.00000000e-010,-1.24140648e-003
,,,-2.75000000e-010,-1.45546899e-003
,,,-2.50000000e-010,-1.68750026e-003
,,,-2.25000000e-010,-1.93828153e-003
,,,-2.00000000e-010,-2.20859405e-003
,,,-1.75000000e-010,-2.50000032e-003
,,,-1.50000000e-010,-2.84218784e-003
,,,-1.25000000e-010,-3.20781287e-003
,,,-1.00000000e-010,-3.58906289e-003
,,,-7.50000000e-011,-3.98046917e-003
,,,-5.00000000e-011,-4.37265670e-003
,,,-2.50000000e-011,-4.76015673e-003
,,,0.00000000e+000,-5.13671925e-003
,,,2.50000000e-011,-5.50000053e-003
,,,5.00000000e-011,-5.84453180e-003
,,,7.50000000e-011,-6.18281308e-003
,,,1.00000000e-010,-6.51796935e-003
,,,1.25000000e-010,-6.85468812e-003
,,,1.50000000e-010,-7.19843815e-003
,,,1.75000000e-010,-7.55234442e-003
,,,2.00000000e-010,-7.91875070e-003
,,,2.25000000e-010,-8.30000073e-003
,,,2.50000000e-010,-8.65156325e-003
,,,2.75000000e-010,-9.01484453e-003
,,,3.00000000e-010,-9.38671955e-003
,,,3.25000000e-010,-9.76015708e-003
,,,3.50000000e-010,-1.01273446e-002
,,,3.75000000e-010,-1.04789071e-002
,,,4.00000000e-010,-1.08054697e-002
,,,4.25000000e-010,-1.11000009e-002
,,,4.50000000e-010,-1.12796884e-002
,,,4.75000000e-010,-1.14265634e-002
,,,5.00000000e-010,-1.15437510e-002
,,,5.25000000e-010,-1.16390635e-002
,,,5.50000000e-010,-1.17187510e-002
,,,5.75000000e-010,-1.17867197e-002
,,,6.00000000e-010,-1.18460947e-002
,,,6.25000000e-010,-1.19000010e-002
,,,6.50000000e-010,-1.18632822e-002
,,,6.75000000e-010,-1.18265635e-002
,,,7.00000000e-010,-1.17914072e-002
,,,7.25000000e-010,-1.17554697e-002
,,,7.50000000e-010,-1.17148447e-002
,,,7.75000000e-010,-1.16632822e-002
,,,8.00000000e-010,-1.15937510e-002
,,,8.25000000e-010,-1.15000010e-002
,,,8.50000000e-010,-1.12992197e-002
,,,8.75000000e-010,-1.10750009e-002
,,,9.00000000e-010,-1.08312509e-002
,,,9.25000000e-010,-1.05750009e-002
,,,9.50000000e-010,-1.03093759e-002
,,,9.75000000e-010,-1.00398446e-002
,,,1.00000000e-009,-9.76953208e-003
,,,1.02500000e-009,-9.50000081e-003
,,,1.05000000e-009,-9.18203204e-003
,,,1.07500000e-009,-8.86953202e-003
,,,1.10000000e-009,-8.56328200e-003
,,,1.12500000e-009,-8.26328197e-003
,,,1.15000000e-009,-7.96953195e-003
,,,1.17500000e-009,-7.67812568e-003
,,,1.20000000e-009,-7.38906316e-003
,,,1.22500000e-009,-7.10000064e-003
,,,1.25000000e-009,-6.79218812e-003
,,,1.27500000e-009,-6.48437560e-003
,,,1.30000000e-009,-6.18125058e-003
,,,1.32500000e-009,-5.88750056e-003
,,,1.35000000e-009,-5.60859429e-003
,,,1.37500000e-009,-5.34843802e-003
,,,1.40000000e-009,-5.11171925e-003
,,,1.42500000e-009,-4.90000049e-003
,,,1.45000000e-009,-4.72265672e-003
,,,1.47500000e-009,-4.56015671e-003
,,,1.50000000e-009,-4.40937545e-003
,,,1.52500000e-009,-4.26562544e-003
,,,1.55000000e-009,-4.12578168e-003
,,,1.57500000e-009,-3.98671917e-003
,,,1.60000000e-009,-3.84531291e-003
,,,1.62500000e-009,-3.70000040e-003
,,,1.65000000e-009,-3.57187539e-003
,,,1.67500000e-009,-3.42968788e-003
,,,1.70000000e-009,-3.27500037e-003
,,,1.72500000e-009,-3.11171911e-003
,,,1.75000000e-009,-2.94609410e-003
,,,1.77500000e-009,-2.78437534e-003
,,,1.80000000e-009,-2.63359408e-003
,,,1.82500000e-009,-2.50000032e-003
,,,1.85000000e-009,-2.41718781e-003
,,,1.87500000e-009,-2.34687531e-003
,,,1.90000000e-009,-2.28593780e-003
,,,1.92500000e-009,-2.23437530e-003
,,,1.95000000e-009,-2.19140654e-003
,,,1.97500000e-009,-2.15546904e-003
,,,2.00000000e-009,-2.12500029e-003
,,,2.02500000e-009,-2.10000029e-003
,,,2.05000000e-009,-2.10156279e-003
,,,2.07500000e-009,-2.09531279e-003
,,,2.10000000e-009,-2.07890654e-003
,,,2.12500000e-009,-2.05312529e-003
,,,2.15000000e-009,-2.01953153e-003
,,,2.17500000e-009,-1.98046903e-003
,,,2.20000000e-009,-1.93984403e-003
,,,2.22500000e-009,-1.90000027e-003
,,,2.25000000e-009,-1.87812527e-003
,,,2.27500000e-009,-1.85390652e-003
,,,2.30000000e-009,-1.82734402e-003
,,,2.32500000e-009,-1.80000027e-003
,,,2.35000000e-009,-1.77187527e-003
,,,2.37500000e-009,-1.74453151e-003
,,,2.40000000e-009,-1.72031276e-003
,,,2.42500000e-009,-1.70000026e-003
,,,2.45000000e-009,-1.69218776e-003
,,,2.47500000e-009,-1.68515651e-003
,,,2.50000000e-009,-1.67968776e-003
,,,2.52500000e-009,-1.67656276e-003
,,,2.55000000e-009,-1.67578151e-003
,,,2.57500000e-009,-1.67968776e-003
,,,2.60000000e-009,-1.68750026e-003
,,,2.62500000e-009,-1.70000026e-003
,,,2.65000000e-009,-1.71718776e-003
,,,2.67500000e-009,-1.73281276e-003
,,,2.70000000e-009,-1.74453151e-003
,,,2.72500000e-009,-1.75078151e-003
,,,2.75000000e-009,-1.75000026e-003
,,,2.77500000e-009,-1.74140651e-003
,,,2.80000000e-009,-1.72500026e-003
,,,2.82500000e-009,-1.70000026e-003
,,,2.85000000e-009,-1.66406276e-003
,,,2.87500000e-009,-1.62031275e-003
,,,2.90000000e-009,-1.57031275e-003
,,,2.92500000e-009,-1.51484400e-003
,,,2.95000000e-009,-1.45781274e-003
,,,2.97500000e-009,-1.40156274e-003
,,,3.00000000e-009,-1.34843774e-003
,,,3.02500000e-009,-1.30000023e-003
,,,3.05000000e-009,-1.25781273e-003
,,,3.07500000e-009,-1.22187523e-003
,,,3.10000000e-009,-1.19218772e-003
,,,3.12500000e-009,-1.16718772e-003
,,,3.15000000e-009,-1.14687522e-003
,,,3.17500000e-009,-1.12968772e-003
,,,3.20000000e-009,-1.11406272e-003
,,,3.22500000e-009,-1.10000022e-003
,,,3.25000000e-009,-1.08671897e-003
,,,3.27500000e-009,-1.07031272e-003
,,,3.30000000e-009,-1.05078146e-003
,,,3.32500000e-009,-1.02734396e-003
,,,3.35000000e-009,-9.99218960e-004
,,,3.37500000e-009,-9.68750208e-004
,,,3.40000000e-009,-9.35156456e-004
,,,3.42500000e-009,-9.00000203e-004
,,,3.45000000e-009,-8.66406451e-004
,,,3.47500000e-009,-8.32812699e-004
,,,3.50000000e-009,-8.00781446e-004
,,,3.52500000e-009,-7.71875194e-004
,,,3.55000000e-009,-7.46093943e-004
,,,3.57500000e-009,-7.25000191e-004
,,,3.60000000e-009,-7.09375190e-004
,,,3.62500000e-009,-7.00000189e-004
,,,3.65000000e-009,-6.97656439e-004
,,,3.67500000e-009,-6.98437689e-004
,,,3.70000000e-009,-7.00781439e-004
,,,3.72500000e-009,-7.03125189e-004
,,,3.75000000e-009,-7.05468940e-004
,,,3.77500000e-009,-7.05468940e-004
,,,3.80000000e-009,-7.03906440e-004
,,,3.82500000e-009,-7.00000189e-004
,,,3.85000000e-009,-6.96875189e-004
,,,3.87500000e-009,-6.91406439e-004
,,,3.90000000e-009,-6.85156438e-004
,,,3.92500000e-009,-6.78906438e-004
,,,3.95000000e-009,-6.75781438e-004
,,,3.97500000e-009,-6.77343938e-004
,,,4.00000000e-009,-6.85156438e-004
,,,4.02500000e-009,-7.00000189e-004
,,,4.05000000e-009,-7.21093941e-004
,,,4.07500000e-009,-7.47656443e-004
,,,4.10000000e-009,-7.76562695e-004
,,,4.12500000e-009,-8.07031447e-004
,,,4.15000000e-009,-8.36718949e-004
,,,4.17500000e-009,-8.64062701e-004
,,,4.20000000e-009,-8.85156452e-004
,,,4.22500000e-009,-9.00000203e-004
,,,4.25000000e-009,-9.03906454e-004
,,,4.27500000e-009,-8.98437703e-004
,,,4.30000000e-009,-8.82812702e-004
,,,4.32500000e-009,-8.58593950e-004
,,,4.35000000e-009,-8.25781448e-004
,,,4.37500000e-009,-7.86718945e-004
,,,4.40000000e-009,-7.44531442e-004
,,,4.42500000e-009,-7.00000189e-004
,,,4.45000000e-009,-6.55468936e-004
,,,4.47500000e-009,-6.14062683e-004
,,,4.50000000e-009,-5.78125181e-004
,,,4.52500000e-009,-5.47656428e-004
,,,4.55000000e-009,-5.24218927e-004
,,,4.57500000e-009,-5.08593926e-004
,,,4.60000000e-009,-5.00781425e-004
,,,4.62500000e-009,-5.00000175e-004
,,,4.65000000e-009,-5.04687675e-004
,,,4.67500000e-009,-5.12500176e-004
,,,4.70000000e-009,-5.21093927e-004
,,,4.72500000e-009,-5.28125177e-004
,,,4.75000000e-009,-5.30468927e-004
,,,4.77500000e-009,-5.27343927e-004
,,,4.80000000e-009,-5.17187676e-004
,,,4.82500000e-009,-5.00000175e-004
,,,4.85000000e-009,-4.75781423e-004
,,,4.87500000e-009,-4.46093921e-004
,,,4.90000000e-009,-4.13281419e-004
,,,4.92500000e-009,-3.80468917e-004
,,,4.95000000e-009,-3.49218914e-004
,,,4.97500000e-009,-3.24218913e-004
,,,5.00000000e-009,-3.07031411e-004
,,,5.02500000e-009,-3.00000161e-004
,,,5.05000000e-009,-3.07031411e-004
,,,5.07500000e-009,-3.25000163e-004
,,,5.10000000e-009,-3.50781415e-004
,,,5.12500000e-009,-3.82031417e-004
,,,5.15000000e-009,-4.14843919e-004
,,,5.17500000e-009,-4.47656421e-004
,,,5.20000000e-009,-4.76562673e-004
,,,5.22500000e-009,-5.00000175e-004
,,,5.25000000e-009,-5.17968926e-004
,,,5.27500000e-009,-5.27343927e-004
,,,5.30000000e-009,-5.30468927e-004
,,,5.32500000e-009,-5.27343927e-004
,,,5.35000000e-009,-5.20312677e-004
,,,5.37500000e-009,-5.11718926e-004
,,,5.40000000e-009,-5.04687675e-004
,,,5.42500000e-009,-5.00000175e-004
,,,5.45000000e-009,-5.00781425e-004
,,,5.47500000e-009,-5.03906425e-004
,,,5.50000000e-009,-5.09375176e-004
,,,5.52500000e-009,-5.14843926e-004
,,,5.55000000e-009,-5.17968926e-004
,,,5.57500000e-009,-5.17187676e-004
,,,5.60000000e-009,-5.10937676e-004
,,,5.62500000e-009,-5.00000175e-004
,,,5.65000000e-009,-4.84375174e-004
,,,5.67500000e-009,-4.67187673e-004
,,,5.70000000e-009,-4.51562672e-004
,,,5.72500000e-009,-4.39843921e-004
,,,5.75000000e-009,-4.35937671e-004
,,,5.77500000e-009,-4.43750171e-004
,,,5.80000000e-009,-4.64843923e-004
,,,5.82500000e-009,-5.00000175e-004
,,,5.85000000e-009,-5.48437679e-004
,,,5.87500000e-009,-6.07031433e-004
,,,5.90000000e-009,-6.71875187e-004
,,,5.92500000e-009,-7.36718942e-004
,,,5.95000000e-009,-7.96093946e-004
