RawData/SinglePhotoelectron/L4_2pt2C_5mV/wave026_Ch3.csv

"Record Length",1000,"Points",-7.72500000e-009,-3.80468917e-004
"Sample Interval",2.50000000e-011,s,-7.70000000e-009,-4.17968919e-004
"Trigger Point",309,"Samples",-7.67500000e-009,-4.53125172e-004
"Trigger Time",1.26724823e-011,s,-7.65000000e-009,-4.81250174e-004
"",,,-7.62500000e-009,-5.00000175e-004
"Horizontal Offset",-7.72500000e-009,s,-7.60000000e-009,-5.01562675e-004
,,,-7.57500000e-009,-4.89843924e-004
,,,-7.55000000e-009,-4.67187673e-004
,,,-7.52500000e-009,-4.35156420e-004
,,,-7.50000000e-009,-3.99218918e-004
,,,-7.47500000e-009,-3.61718915e-004
,,,-7.45000000e-009,-3.27343913e-004
,,,-7.42500000e-009,-3.00000161e-004
,,,-7.40000000e-009,-2.78906409e-004
,,,-7.37500000e-009,-2.67187659e-004
,,,-7.35000000e-009,-2.64062658e-004
,,,-7.32500000e-009,-2.67968909e-004
,,,-7.30000000e-009,-2.75781409e-004
,,,-7.27500000e-009,-2.85937660e-004
,,,-7.25000000e-009,-2.94531411e-004
,,,-7.22500000e-009,-3.00000161e-004
,,,-7.20000000e-009,-2.97656411e-004
,,,-7.17500000e-009,-2.88281410e-004
,,,-7.15000000e-009,-2.71093909e-004
,,,-7.12500000e-009,-2.46875157e-004
,,,-7.10000000e-009,-2.15625155e-004
,,,-7.07500000e-009,-1.79687652e-004
,,,-7.05000000e-009,-1.40625150e-004
,,,-7.02500000e-009,-1.00000147e-004
,,,-7.00000000e-009,-6.25001441e-005
,,,-6.97500000e-009,-2.73438916e-005
,,,-6.95000000e-009,4.68736063e-006
,,,-6.92500000e-009,3.28123626e-005
,,,-6.90000000e-009,5.62498643e-005
,,,-6.87500000e-009,7.49998656e-005
,,,-6.85000000e-009,8.98436167e-005
,,,-6.82500000e-009,9.99998674e-005
,,,-6.80000000e-009,1.04687368e-004
,,,-6.77500000e-009,1.06249868e-004
,,,-6.75000000e-009,1.05468618e-004
,,,-6.72500000e-009,1.04687368e-004
,,,-6.70000000e-009,1.02343618e-004
,,,-6.67500000e-009,1.00781117e-004
,,,-6.65000000e-009,9.99998674e-005
,,,-6.62500000e-009,9.99998674e-005
,,,-6.60000000e-009,9.76561172e-005
,,,-6.57500000e-009,9.53123670e-005
,,,-6.55000000e-009,9.53123670e-005
,,,-6.52500000e-009,9.68748672e-005
,,,-6.50000000e-009,9.84373673e-005
,,,-6.47500000e-009,1.00781117e-004
,,,-6.45000000e-009,1.01562367e-004
,,,-6.42500000e-009,9.99998674e-005
,,,-6.40000000e-009,9.37498669e-005
,,,-6.37500000e-009,8.20311161e-005
,,,-6.35000000e-009,6.64061150e-005
,,,-6.32500000e-009,4.45311135e-005
,,,-6.30000000e-009,1.71873615e-005
,,,-6.27500000e-009,-1.64063909e-005
,,,-6.25000000e-009,-5.62501437e-005
,,,-6.22500000e-009,-1.00000147e-004
,,,-6.20000000e-009,-1.47656400e-004
,,,-6.17500000e-009,-1.95312654e-004
,,,-6.15000000e-009,-2.38281407e-004
,,,-6.12500000e-009,-2.73437659e-004
,,,-6.10000000e-009,-2.99218911e-004
,,,-6.07500000e-009,-3.13281412e-004
,,,-6.05000000e-009,-3.13281412e-004
,,,-6.02500000e-009,-3.00000161e-004
,,,-6.00000000e-009,-2.75000159e-004
,,,-5.97500000e-009,-2.41406407e-004
,,,-5.95000000e-009,-2.03906404e-004
,,,-5.92500000e-009,-1.67187652e-004
,,,-5.90000000e-009,-1.34375149e-004
,,,-5.87500000e-009,-1.10937648e-004
,,,-5.85000000e-009,-9.84376467e-005
,,,-5.82500000e-009,-1.00000147e-004
,,,-5.80000000e-009,-1.14062648e-004
,,,-5.77500000e-009,-1.40625150e-004
,,,-5.75000000e-009,-1.75000152e-004
,,,-5.72500000e-009,-2.12500155e-004
,,,-5.70000000e-009,-2.48437657e-004
,,,-5.67500000e-009,-2.77343909e-004
,,,-5.65000000e-009,-2.95312661e-004
,,,-5.62500000e-009,-3.00000161e-004
,,,-5.60000000e-009,-2.85937660e-004
,,,-5.57500000e-009,-2.60156408e-004
,,,-5.55000000e-009,-2.25000156e-004
,,,-5.52500000e-009,-1.85937653e-004
,,,-5.50000000e-009,-1.48437650e-004
,,,-5.47500000e-009,-1.18750148e-004
,,,-5.45000000e-009,-1.00781397e-004
,,,-5.42500000e-009,-1.00000147e-004
,,,-5.40000000e-009,-1.14843898e-004
,,,-5.37500000e-009,-1.48437650e-004
,,,-5.35000000e-009,-1.96875154e-004
,,,-5.32500000e-009,-2.56250158e-004
,,,-5.30000000e-009,-3.21093912e-004
,,,-5.27500000e-009,-3.86718917e-004
,,,-5.25000000e-009,-4.47656421e-004
,,,-5.22500000e-009,-5.00000175e-004
,,,-5.20000000e-009,-5.34375178e-004
,,,-5.17500000e-009,-5.54687679e-004
,,,-5.15000000e-009,-5.62500180e-004
,,,-5.12500000e-009,-5.59375179e-004
,,,-5.10000000e-009,-5.48437679e-004
,,,-5.07500000e-009,-5.32812677e-004
,,,-5.05000000e-009,-5.15625176e-004
,,,-5.02500000e-009,-5.00000175e-004
,,,-5.00000000e-009,-4.83593924e-004
,,,-4.97500000e-009,-4.69531423e-004
,,,-4.95000000e-009,-4.54687672e-004
,,,-4.92500000e-009,-4.39062671e-004
,,,-4.90000000e-009,-4.17187669e-004
,,,-4.87500000e-009,-3.88281417e-004
,,,-4.85000000e-009,-3.49218914e-004
,,,-4.82500000e-009,-3.00000161e-004
,,,-4.80000000e-009,-2.39843907e-004
,,,-4.77500000e-009,-1.75000152e-004
,,,-4.75000000e-009,-1.07812647e-004
,,,-4.72500000e-009,-4.29688927e-005
,,,-4.70000000e-009,1.40623613e-005
,,,-4.67500000e-009,5.85936144e-005
,,,-4.65000000e-009,8.82811166e-005
,,,-4.62500000e-009,9.99998674e-005
,,,-4.60000000e-009,9.14061168e-005
,,,-4.57500000e-009,6.79686151e-005
,,,-4.55000000e-009,3.35936127e-005
,,,-4.52500000e-009,-4.68764003e-006
,,,-4.50000000e-009,-4.29688927e-005
,,,-4.47500000e-009,-7.42188950e-005
,,,-4.45000000e-009,-9.45313964e-005
,,,-4.42500000e-009,-1.00000147e-004
,,,-4.40000000e-009,-9.14063962e-005
,,,-4.37500000e-009,-6.95313946e-005
,,,-4.35000000e-009,-3.67188923e-005
,,,-4.32500000e-009,7.81110357e-007
,,,-4.30000000e-009,3.90623631e-005
,,,-4.27500000e-009,7.18748654e-005
,,,-4.25000000e-009,9.37498669e-005
,,,-4.22500000e-009,9.99998674e-005
,,,-4.20000000e-009,8.51561163e-005
,,,-4.17500000e-009,5.39061141e-005
,,,-4.15000000e-009,7.03111080e-006
,,,-4.12500000e-009,-5.07813933e-005
,,,-4.10000000e-009,-1.15625148e-004
,,,-4.07500000e-009,-1.82031403e-004
,,,-4.05000000e-009,-2.44531407e-004
,,,-4.02500000e-009,-3.00000161e-004
,,,-4.00000000e-009,-3.42187664e-004
,,,-3.97500000e-009,-3.70312666e-004
,,,-3.95000000e-009,-3.83593917e-004
,,,-3.92500000e-009,-3.83593917e-004
,,,-3.90000000e-009,-3.71093916e-004
,,,-3.87500000e-009,-3.50781415e-004
,,,-3.85000000e-009,-3.25781413e-004
,,,-3.82500000e-009,-3.00000161e-004
,,,-3.80000000e-009,-2.74218909e-004
,,,-3.77500000e-009,-2.53906408e-004
,,,-3.75000000e-009,-2.41406407e-004
,,,-3.72500000e-009,-2.35937656e-004
,,,-3.70000000e-009,-2.39843907e-004
,,,-3.67500000e-009,-2.52343908e-004
,,,-3.65000000e-009,-2.72656409e-004
,,,-3.62500000e-009,-3.00000161e-004
,,,-3.60000000e-009,-3.28125163e-004
,,,-3.57500000e-009,-3.60156415e-004
,,,-3.55000000e-009,-3.92187667e-004
,,,-3.52500000e-009,-4.23437670e-004
,,,-3.50000000e-009,-4.51562672e-004
,,,-3.47500000e-009,-4.74218923e-004
,,,-3.45000000e-009,-4.90625174e-004
,,,-3.42500000e-009,-5.00000175e-004
,,,-3.40000000e-009,-4.97656425e-004
,,,-3.37500000e-009,-4.87500174e-004
,,,-3.35000000e-009,-4.68750173e-004
,,,-3.32500000e-009,-4.43750171e-004
,,,-3.30000000e-009,-4.13281419e-004
,,,-3.27500000e-009,-3.77343916e-004
,,,-3.25000000e-009,-3.39062664e-004
,,,-3.22500000e-009,-3.00000161e-004
,,,-3.20000000e-009,-2.56250158e-004
,,,-3.17500000e-009,-2.15625155e-004
,,,-3.15000000e-009,-1.79687652e-004
,,,-3.12500000e-009,-1.49218900e-004
,,,-3.10000000e-009,-1.25781399e-004
,,,-3.07500000e-009,-1.10156397e-004
,,,-3.05000000e-009,-1.01562647e-004
,,,-3.02500000e-009,-1.00000147e-004
,,,-3.00000000e-009,-1.02343897e-004
,,,-2.97500000e-009,-1.08593897e-004
,,,-2.95000000e-009,-1.14843898e-004
,,,-2.92500000e-009,-1.20312648e-004
,,,-2.90000000e-009,-1.21875148e-004
,,,-2.87500000e-009,-1.19531398e-004
,,,-2.85000000e-009,-1.11718898e-004
,,,-2.82500000e-009,-1.00000147e-004
,,,-2.80000000e-009,-8.28126456e-005
,,,-2.77500000e-009,-6.40626442e-005
,,,-2.75000000e-009,-4.76563931e-005
,,,-2.72500000e-009,-3.67188923e-005
,,,-2.70000000e-009,-3.35938921e-005
,,,-2.67500000e-009,-4.29688927e-005
,,,-2.65000000e-009,-6.48438943e-005
,,,-2.62500000e-009,-1.00000147e-004
,,,-2.60000000e-009,-1.43750150e-004
,,,-2.57500000e-009,-1.92968903e-004
,,,-2.55000000e-009,-2.42968907e-004
,,,-2.52500000e-009,-2.86718910e-004
,,,-2.50000000e-009,-3.18750162e-004
,,,-2.47500000e-009,-3.34375163e-004
,,,-2.45000000e-009,-3.28906413e-004
,,,-2.42500000e-009,-3.00000161e-004
,,,-2.40000000e-009,-2.46875157e-004
,,,-2.37500000e-009,-1.74218902e-004
,,,-2.35000000e-009,-8.82813959e-005
,,,-2.32500000e-009,5.46861069e-006
,,,-2.30000000e-009,9.84373673e-005
,,,-2.27500000e-009,1.82812373e-004
,,,-2.25000000e-009,2.51562378e-004
,,,-2.22500000e-009,2.99999882e-004
,,,-2.20000000e-009,3.21874883e-004
,,,-2.17500000e-009,3.21093633e-004
,,,-2.15000000e-009,2.99999882e-004
,,,-2.12500000e-009,2.64062379e-004
,,,-2.10000000e-009,2.20312376e-004
,,,-2.07500000e-009,1.73437373e-004
,,,-2.05000000e-009,1.32031120e-004
,,,-2.02500000e-009,9.99998674e-005
,,,-2.00000000e-009,8.20311161e-005
,,,-1.97500000e-009,8.04686160e-005
,,,-1.95000000e-009,9.53123670e-005
,,,-1.92500000e-009,1.24218619e-004
,,,-1.90000000e-009,1.63281122e-004
,,,-1.87500000e-009,2.09374875e-004
,,,-1.85000000e-009,2.56249878e-004
,,,-1.82500000e-009,2.99999882e-004
,,,-1.80000000e-009,3.32031134e-004
,,,-1.77500000e-009,3.53906135e-004
,,,-1.75000000e-009,3.64843636e-004
,,,-1.72500000e-009,3.66406136e-004
,,,-1.70000000e-009,3.57812386e-004
,,,-1.67500000e-009,3.42968635e-004
,,,-1.65000000e-009,3.23437383e-004
,,,-1.62500000e-009,2.99999882e-004
,,,-1.60000000e-009,2.69531129e-004
,,,-1.57500000e-009,2.39062377e-004
,,,-1.55000000e-009,2.10156125e-004
,,,-1.52500000e-009,1.83593623e-004
,,,-1.50000000e-009,1.58593622e-004
,,,-1.47500000e-009,1.36718620e-004
,,,-1.45000000e-009,1.17187369e-004
,,,-1.42500000e-009,9.99998674e-005
,,,-1.40000000e-009,7.89061159e-005
,,,-1.37500000e-009,6.09373646e-005
,,,-1.35000000e-009,4.84373637e-005
,,,-1.32500000e-009,4.21873633e-005
,,,-1.30000000e-009,4.45311135e-005
,,,-1.27500000e-009,5.46873642e-005
,,,-1.25000000e-009,7.42186156e-005
,,,-1.22500000e-009,9.99998674e-005
,,,-1.20000000e-009,1.17968619e-004
,,,-1.17500000e-009,1.35156120e-004
,,,-1.15000000e-009,1.49218621e-004
,,,-1.12500000e-009,1.57812371e-004
,,,-1.10000000e-009,1.58593622e-004
,,,-1.07500000e-009,1.49999871e-004
,,,-1.05000000e-009,1.31249870e-004
,,,-1.02500000e-009,9.99998674e-005
,,,-1.00000000e-009,3.35936127e-005
,,,-9.75000000e-010,-4.60938930e-005
,,,-9.50000000e-010,-1.33593899e-004
,,,-9.25000000e-010,-2.23437656e-004
,,,-9.00000000e-010,-3.10156412e-004
,,,-8.75000000e-010,-3.87500167e-004
,,,-8.50000000e-010,-4.51562672e-004
,,,-8.25000000e-010,-5.00000175e-004
,,,-8.00000000e-010,-5.56250179e-004
,,,-7.75000000e-010,-6.02343932e-004
,,,-7.50000000e-010,-6.36718935e-004
,,,-7.25000000e-010,-6.60937686e-004
,,,-7.00000000e-010,-6.76562688e-004
,,,-6.75000000e-010,-6.85937688e-004
,,,-6.50000000e-010,-6.92187689e-004
,,,-6.25000000e-010,-7.00000189e-004
,,,-6.00000000e-010,-7.42968942e-004
,,,-5.75000000e-010,-8.00000196e-004
,,,-5.50000000e-010,-8.67968951e-004
,,,-5.25000000e-010,-9.46093957e-004
,,,-5.00000000e-010,-1.02968771e-003
,,,-4.75000000e-010,-1.11796897e-003
,,,-4.50000000e-010,-1.20703148e-003
,,,-4.25000000e-010,-1.30000023e-003
,,,-4.00000000e-010,-1.42578149e-003
,,,-3.75000000e-010,-1.56406275e-003
,,,-3.50000000e-010,-1.71640651e-003
,,,-3.25000000e-010,-1.88203152e-003
,,,-3.00000000e-010,-2.06250029e-003
,,,-2.75000000e-010,-2.25859405e-003
,,,-2.50000000e-010,-2.47109406e-003
,,,-2.25000000e-010,-2.70000033e-003
,,,-2.00000000e-010,-2.95859410e-003
,,,-1.75000000e-010,-3.23515662e-003
,,,-1.50000000e-010,-3.52187539e-003
,,,-1.25000000e-010,-3.81406291e-003
,,,-1.00000000e-010,-4.10312543e-003
,,,-7.50000000e-011,-4.38437545e-003
,,,-5.00000000e-011,-4.65078172e-003
,,,-2.50000000e-011,-4.90000049e-003
,,,0.00000000e+000,-5.12031300e-003
,,,2.50000000e-011,-5.32734427e-003
,,,5.00000000e-011,-5.52500053e-003
,,,7.50000000e-011,-5.71640679e-003
,,,1.00000000e-010,-5.90625056e-003
,,,1.25000000e-010,-6.09843807e-003
,,,1.50000000e-010,-6.29531309e-003
,,,1.75000000e-010,-6.50000060e-003
,,,2.00000000e-010,-6.68515686e-003
,,,2.25000000e-010,-6.88125063e-003
,,,2.50000000e-010,-7.08750064e-003
,,,2.75000000e-010,-7.29921941e-003
,,,3.00000000e-010,-7.51250067e-003
,,,3.25000000e-010,-7.72031319e-003
,,,3.50000000e-010,-7.91796945e-003
,,,3.75000000e-010,-8.10000071e-003
,,,4.00000000e-010,-8.21484447e-003
,,,4.25000000e-010,-8.31328198e-003
,,,4.50000000e-010,-8.39765698e-003
,,,4.75000000e-010,-8.47031324e-003
,,,5.00000000e-010,-8.53593824e-003
,,,5.25000000e-010,-8.59453200e-003
,,,5.50000000e-010,-8.64921950e-003
,,,5.75000000e-010,-8.70000076e-003
,,,6.00000000e-010,-8.69218825e-003
,,,6.25000000e-010,-8.68281325e-003
,,,6.50000000e-010,-8.67265700e-003
,,,6.75000000e-010,-8.65859450e-003
,,,7.00000000e-010,-8.63828200e-003
,,,7.25000000e-010,-8.60781325e-003
,,,7.50000000e-010,-8.56250075e-003
,,,7.75000000e-010,-8.50000074e-003
,,,8.00000000e-010,-8.36875073e-003
,,,8.25000000e-010,-8.22343822e-003
,,,8.50000000e-010,-8.06875071e-003
,,,8.75000000e-010,-7.90859445e-003
,,,9.00000000e-010,-7.74843819e-003
,,,9.25000000e-010,-7.59218818e-003
,,,9.50000000e-010,-7.44218817e-003
,,,9.75000000e-010,-7.30000066e-003
,,,1.00000000e-009,-7.13359439e-003
,,,1.02500000e-009,-6.97500063e-003
,,,1.05000000e-009,-6.82500062e-003
,,,1.07500000e-009,-6.67968811e-003
,,,1.10000000e-009,-6.53750060e-003
,,,1.12500000e-009,-6.39609434e-003
,,,1.15000000e-009,-6.25078183e-003
,,,1.17500000e-009,-6.10000057e-003
,,,1.20000000e-009,-5.92500056e-003
,,,1.22500000e-009,-5.74218805e-003
,,,1.25000000e-009,-5.55546928e-003
,,,1.27500000e-009,-5.36718802e-003
,,,1.30000000e-009,-5.18359426e-003
,,,1.32500000e-009,-5.00859424e-003
,,,1.35000000e-009,-4.84609423e-003
,,,1.37500000e-009,-4.70000047e-003
,,,1.40000000e-009,-4.57109421e-003
,,,1.42500000e-009,-4.45390670e-003
,,,1.45000000e-009,-4.34843795e-003
,,,1.47500000e-009,-4.25078169e-003
,,,1.50000000e-009,-4.15937543e-003
,,,1.52500000e-009,-4.07187543e-003
,,,1.55000000e-009,-3.98593792e-003
,,,1.57500000e-009,-3.90000042e-003
,,,1.60000000e-009,-3.81875041e-003
,,,1.62500000e-009,-3.72890665e-003
,,,1.65000000e-009,-3.62968790e-003
,,,1.67500000e-009,-3.52421914e-003
,,,1.70000000e-009,-3.41406288e-003
,,,1.72500000e-009,-3.30468787e-003
,,,1.75000000e-009,-3.19921912e-003
,,,1.77500000e-009,-3.10000036e-003
,,,1.80000000e-009,-3.02187535e-003
,,,1.82500000e-009,-2.94609410e-003
,,,1.85000000e-009,-2.87031284e-003
,,,1.87500000e-009,-2.79609409e-003
,,,1.90000000e-009,-2.72109408e-003
,,,1.92500000e-009,-2.64687533e-003
,,,1.95000000e-009,-2.57265657e-003
,,,1.97500000e-009,-2.50000032e-003
,,,2.00000000e-009,-2.44375031e-003
,,,2.02500000e-009,-2.38515656e-003
,,,2.05000000e-009,-2.32500030e-003
,,,2.07500000e-009,-2.26640655e-003
,,,2.10000000e-009,-2.21171905e-003
,,,2.12500000e-009,-2.16406279e-003
,,,2.15000000e-009,-2.12578154e-003
,,,2.17500000e-009,-2.10000029e-003
,,,2.20000000e-009,-2.09765654e-003
,,,2.22500000e-009,-2.10000029e-003
,,,2.25000000e-009,-2.10625029e-003
,,,2.27500000e-009,-2.11250029e-003
,,,2.30000000e-009,-2.11718779e-003
,,,2.32500000e-009,-2.11796904e-003
,,,2.35000000e-009,-2.11250029e-003
,,,2.37500000e-009,-2.10000029e-003
,,,2.40000000e-009,-2.08515654e-003
,,,2.42500000e-009,-2.05703154e-003
,,,2.45000000e-009,-2.01640653e-003
,,,2.47500000e-009,-1.96484403e-003
,,,2.50000000e-009,-1.90390652e-003
,,,2.52500000e-009,-1.83671902e-003
,,,2.55000000e-009,-1.76796901e-003
,,,2.57500000e-009,-1.70000026e-003
,,,2.60000000e-009,-1.64218776e-003
,,,2.62500000e-009,-1.58984400e-003
,,,2.65000000e-009,-1.54531275e-003
,,,2.67500000e-009,-1.51093775e-003
,,,2.70000000e-009,-1.48828150e-003
,,,2.72500000e-009,-1.47890649e-003
,,,2.75000000e-009,-1.48281274e-003
,,,2.77500000e-009,-1.50000025e-003
,,,2.80000000e-009,-1.53046900e-003
,,,2.82500000e-009,-1.56718775e-003
,,,2.85000000e-009,-1.60390650e-003
,,,2.87500000e-009,-1.63906276e-003
,,,2.90000000e-009,-1.66796901e-003
,,,2.92500000e-009,-1.68906276e-003
,,,2.95000000e-009,-1.70000026e-003
,,,2.97500000e-009,-1.70000026e-003
,,,3.00000000e-009,-1.68593776e-003
,,,3.02500000e-009,-1.66093776e-003
,,,3.05000000e-009,-1.62812525e-003
,,,3.07500000e-009,-1.59296900e-003
,,,3.10000000e-009,-1.55859400e-003
,,,3.12500000e-009,-1.52968775e-003
,,,3.15000000e-009,-1.50937525e-003
,,,3.17500000e-009,-1.50000025e-003
,,,3.20000000e-009,-1.49843775e-003
,,,3.22500000e-009,-1.50468775e-003
,,,3.25000000e-009,-1.51562525e-003
,,,3.27500000e-009,-1.52656275e-003
,,,3.30000000e-009,-1.53437525e-003
,,,3.32500000e-009,-1.53437525e-003
,,,3.35000000e-009,-1.52343775e-003
,,,3.37500000e-009,-1.50000025e-003
,,,3.40000000e-009,-1.45937524e-003
,,,3.42500000e-009,-1.40625024e-003
,,,3.45000000e-009,-1.34453148e-003
,,,3.47500000e-009,-1.27968773e-003
,,,3.50000000e-009,-1.21796898e-003
,,,3.52500000e-009,-1.16484397e-003
,,,3.55000000e-009,-1.12421897e-003
,,,3.57500000e-009,-1.10000022e-003
,,,3.60000000e-009,-1.08906272e-003
,,,3.62500000e-009,-1.09062522e-003
,,,3.65000000e-009,-1.10156272e-003
,,,3.67500000e-009,-1.11640647e-003
,,,3.70000000e-009,-1.12890647e-003
,,,3.72500000e-009,-1.13359397e-003
,,,3.75000000e-009,-1.12500022e-003
,,,3.77500000e-009,-1.10000022e-003
,,,3.80000000e-009,-1.05390646e-003
,,,3.82500000e-009,-9.89843960e-004
,,,3.85000000e-009,-9.10937704e-004
,,,3.87500000e-009,-8.22656448e-004
,,,3.90000000e-009,-7.31250191e-004
,,,3.92500000e-009,-6.42968935e-004
,,,3.95000000e-009,-5.64062680e-004
,,,3.97500000e-009,-5.00000175e-004
,,,4.00000000e-009,-4.55468922e-004
,,,4.02500000e-009,-4.29687670e-004
,,,4.05000000e-009,-4.19531419e-004
,,,4.07500000e-009,-4.23437670e-004
,,,4.10000000e-009,-4.38281421e-004
,,,4.12500000e-009,-4.58593922e-004
,,,4.15000000e-009,-4.80468924e-004
,,,4.17500000e-009,-5.00000175e-004
,,,4.20000000e-009,-5.14062676e-004
,,,4.22500000e-009,-5.17968926e-004
,,,4.25000000e-009,-5.08593926e-004
,,,4.27500000e-009,-4.85937674e-004
,,,4.30000000e-009,-4.51562672e-004
,,,4.32500000e-009,-4.07031419e-004
,,,4.35000000e-009,-3.55468915e-004
,,,4.37500000e-009,-3.00000161e-004
,,,4.40000000e-009,-2.47656407e-004
,,,4.42500000e-009,-1.98437654e-004
,,,4.45000000e-009,-1.54687651e-004
,,,4.47500000e-009,-1.19531398e-004
,,,4.50000000e-009,-9.53126464e-005
,,,4.52500000e-009,-8.35938956e-005
,,,4.55000000e-009,-8.51563957e-005
,,,4.57500000e-009,-1.00000147e-004
,,,4.60000000e-009,-1.29687649e-004
,,,4.62500000e-009,-1.65625151e-004
,,,4.65000000e-009,-2.04687654e-004
,,,4.67500000e-009,-2.41406407e-004
,,,4.70000000e-009,-2.72656409e-004
,,,4.72500000e-009,-2.93750160e-004
,,,4.75000000e-009,-3.03125161e-004
,,,4.77500000e-009,-3.00000161e-004
,,,4.80000000e-009,-2.85156410e-004
,,,4.82500000e-009,-2.59375158e-004
,,,4.85000000e-009,-2.25000156e-004
,,,4.87500000e-009,-1.87500153e-004
,,,4.90000000e-009,-1.51562650e-004
,,,4.92500000e-009,-1.22656398e-004
,,,4.95000000e-009,-1.04687647e-004
,,,4.97500000e-009,-1.00000147e-004
,,,5.00000000e-009,-1.11718898e-004
,,,5.02500000e-009,-1.35937649e-004
,,,5.05000000e-009,-1.68750152e-004
,,,5.07500000e-009,-2.06250154e-004
,,,5.10000000e-009,-2.42968907e-004
,,,5.12500000e-009,-2.73437659e-004
,,,5.15000000e-009,-2.92968910e-004
,,,5.17500000e-009,-3.00000161e-004
,,,5.20000000e-009,-2.92187660e-004
,,,5.22500000e-009,-2.71093909e-004
,,,5.25000000e-009,-2.39843907e-004
,,,5.27500000e-009,-2.03125154e-004
,,,5.30000000e-009,-1.65625151e-004
,,,5.32500000e-009,-1.32812649e-004
,,,5.35000000e-009,-1.09375147e-004
,,,5.37500000e-009,-1.00000147e-004
,,,5.40000000e-009,-1.05468897e-004
,,,5.42500000e-009,-1.25000149e-004
,,,5.45000000e-009,-1.55468901e-004
,,,5.47500000e-009,-1.92187653e-004
,,,5.50000000e-009,-2.29687656e-004
,,,5.52500000e-009,-2.62500158e-004
,,,5.55000000e-009,-2.87500160e-004
,,,5.57500000e-009,-3.00000161e-004
,,,5.60000000e-009,-2.96875161e-004
,,,5.62500000e-009,-2.81250160e-004
,,,5.65000000e-009,-2.53906408e-004
,,,5.67500000e-009,-2.19531405e-004
,,,5.70000000e-009,-1.82031403e-004
,,,5.72500000e-009,-1.46875150e-004
,,,5.75000000e-009,-1.17968898e-004
,,,5.77500000e-009,-1.00000147e-004
,,,5.80000000e-009,-9.68751466e-005
,,,5.82500000e-009,-1.07031397e-004
,,,5.85000000e-009,-1.28906399e-004
,,,5.87500000e-009,-1.59375151e-004
