RawData/SinglePhotoelectron/L4_2pt2C_5mV/wave021_Ch3.csv

"Record Length",1000,"Points",-7.72500000e-009,-3.16406412e-004
"Sample Interval",2.50000000e-011,s,-7.70000000e-009,-3.16406412e-004
"Trigger Point",309,"Samples",-7.67500000e-009,-3.00000161e-004
"Trigger Time",1.62554949e-011,s,-7.65000000e-009,-2.60156408e-004
"",,,-7.62500000e-009,-2.07031404e-004
"Horizontal Offset",-7.72500000e-009,s,-7.60000000e-009,-1.45312650e-004
,,,-7.57500000e-009,-8.04688954e-005
,,,-7.55000000e-009,-1.87501410e-005
,,,-7.52500000e-009,3.51561128e-005
,,,-7.50000000e-009,7.57811157e-005
,,,-7.47500000e-009,9.99998674e-005
,,,-7.45000000e-009,1.09374868e-004
,,,-7.42500000e-009,1.00781117e-004
,,,-7.40000000e-009,7.73436158e-005
,,,-7.37500000e-009,4.29686133e-005
,,,-7.35000000e-009,3.12486052e-006
,,,-7.32500000e-009,-3.75001424e-005
,,,-7.30000000e-009,-7.26563948e-005
,,,-7.27500000e-009,-1.00000147e-004
,,,-7.25000000e-009,-1.10156397e-004
,,,-7.22500000e-009,-1.07031397e-004
,,,-7.20000000e-009,-9.14063962e-005
,,,-7.17500000e-009,-6.32813942e-005
,,,-7.15000000e-009,-2.73438916e-005
,,,-7.12500000e-009,1.40623613e-005
,,,-7.10000000e-009,5.78123644e-005
,,,-7.07500000e-009,9.99998674e-005
,,,-7.05000000e-009,1.42187370e-004
,,,-7.02500000e-009,1.78906123e-004
,,,-7.00000000e-009,2.10156125e-004
,,,-6.97500000e-009,2.35156127e-004
,,,-6.95000000e-009,2.55468628e-004
,,,-6.92500000e-009,2.71874880e-004
,,,-6.90000000e-009,2.86718631e-004
,,,-6.87500000e-009,2.99999882e-004
,,,-6.85000000e-009,3.14062383e-004
,,,-6.82500000e-009,3.29687384e-004
,,,-6.80000000e-009,3.49999885e-004
,,,-6.77500000e-009,3.74218637e-004
,,,-6.75000000e-009,4.01562389e-004
,,,-6.72500000e-009,4.33593641e-004
,,,-6.70000000e-009,4.66406143e-004
,,,-6.67500000e-009,4.99999896e-004
,,,-6.65000000e-009,5.28906148e-004
,,,-6.62500000e-009,5.53124899e-004
,,,-6.60000000e-009,5.71093651e-004
,,,-6.57500000e-009,5.79687401e-004
,,,-6.55000000e-009,5.78124901e-004
,,,-6.52500000e-009,5.64062400e-004
,,,-6.50000000e-009,5.37499898e-004
,,,-6.47500000e-009,4.99999896e-004
,,,-6.45000000e-009,4.52343642e-004
,,,-6.42500000e-009,4.01562389e-004
,,,-6.40000000e-009,3.51562385e-004
,,,-6.37500000e-009,3.10156132e-004
,,,-6.35000000e-009,2.79687380e-004
,,,-6.32500000e-009,2.67187379e-004
,,,-6.30000000e-009,2.73437380e-004
,,,-6.27500000e-009,2.99999882e-004
,,,-6.25000000e-009,3.44531135e-004
,,,-6.22500000e-009,4.03124889e-004
,,,-6.20000000e-009,4.71093644e-004
,,,-6.17500000e-009,5.41406149e-004
,,,-6.15000000e-009,6.05468653e-004
,,,-6.12500000e-009,6.57031157e-004
,,,-6.10000000e-009,6.89843659e-004
,,,-6.07500000e-009,6.99999910e-004
,,,-6.05000000e-009,6.81249909e-004
,,,-6.02500000e-009,6.41406156e-004
,,,-6.00000000e-009,5.84374902e-004
,,,-5.97500000e-009,5.17187397e-004
,,,-5.95000000e-009,4.48437392e-004
,,,-5.92500000e-009,3.85156138e-004
,,,-5.90000000e-009,3.33593634e-004
,,,-5.87500000e-009,2.99999882e-004
,,,-5.85000000e-009,2.85156130e-004
,,,-5.82500000e-009,2.90624881e-004
,,,-5.80000000e-009,3.13281132e-004
,,,-5.77500000e-009,3.49218635e-004
,,,-5.75000000e-009,3.92187388e-004
,,,-5.72500000e-009,4.35156141e-004
,,,-5.70000000e-009,4.73437394e-004
,,,-5.67500000e-009,4.99999896e-004
,,,-5.65000000e-009,5.09374896e-004
,,,-5.62500000e-009,5.02343646e-004
,,,-5.60000000e-009,4.81249894e-004
,,,-5.57500000e-009,4.49218642e-004
,,,-5.55000000e-009,4.10156139e-004
,,,-5.52500000e-009,3.68749886e-004
,,,-5.50000000e-009,3.31249884e-004
,,,-5.47500000e-009,2.99999882e-004
,,,-5.45000000e-009,2.78906130e-004
,,,-5.42500000e-009,2.67968629e-004
,,,-5.40000000e-009,2.66406129e-004
,,,-5.37500000e-009,2.71874880e-004
,,,-5.35000000e-009,2.82031130e-004
,,,-5.32500000e-009,2.91406131e-004
,,,-5.30000000e-009,2.99218631e-004
,,,-5.27500000e-009,2.99999882e-004
,,,-5.25000000e-009,2.92187381e-004
,,,-5.22500000e-009,2.75781130e-004
,,,-5.20000000e-009,2.52343628e-004
,,,-5.17500000e-009,2.23437376e-004
,,,-5.15000000e-009,1.91406124e-004
,,,-5.12500000e-009,1.58593622e-004
,,,-5.10000000e-009,1.28124869e-004
,,,-5.07500000e-009,9.99998674e-005
,,,-5.05000000e-009,7.96873659e-005
,,,-5.02500000e-009,6.24998647e-005
,,,-5.00000000e-009,4.60936136e-005
,,,-4.97500000e-009,2.81248623e-005
,,,-4.95000000e-009,6.24986074e-006
,,,-4.92500000e-009,-2.18751412e-005
,,,-4.90000000e-009,-5.70313937e-005
,,,-4.87500000e-009,-1.00000147e-004
,,,-4.85000000e-009,-1.43750150e-004
,,,-4.82500000e-009,-1.90625153e-004
,,,-4.80000000e-009,-2.36718906e-004
,,,-4.77500000e-009,-2.76562659e-004
,,,-4.75000000e-009,-3.06250161e-004
,,,-4.72500000e-009,-3.21093912e-004
,,,-4.70000000e-009,-3.19531412e-004
,,,-4.67500000e-009,-3.00000161e-004
,,,-4.65000000e-009,-2.56250158e-004
,,,-4.62500000e-009,-1.99218904e-004
,,,-4.60000000e-009,-1.34375149e-004
,,,-4.57500000e-009,-6.79688945e-005
,,,-4.55000000e-009,-5.46889009e-006
,,,-4.52500000e-009,4.60936136e-005
,,,-4.50000000e-009,8.28123662e-005
,,,-4.47500000e-009,9.99998674e-005
,,,-4.45000000e-009,9.92186173e-005
,,,-4.42500000e-009,8.04686160e-005
,,,-4.40000000e-009,4.84373637e-005
,,,-4.37500000e-009,7.81236085e-006
,,,-4.35000000e-009,-3.28126420e-005
,,,-4.32500000e-009,-6.87501446e-005
,,,-4.30000000e-009,-9.21876462e-005
,,,-4.27500000e-009,-1.00000147e-004
,,,-4.25000000e-009,-8.51563957e-005
,,,-4.22500000e-009,-5.23438934e-005
,,,-4.20000000e-009,-3.90638997e-006
,,,-4.17500000e-009,5.54686142e-005
,,,-4.15000000e-009,1.21874869e-004
,,,-4.12500000e-009,1.88281124e-004
,,,-4.10000000e-009,2.49218628e-004
,,,-4.07500000e-009,2.99999882e-004
,,,-4.05000000e-009,3.35156134e-004
,,,-4.02500000e-009,3.55468635e-004
,,,-4.00000000e-009,3.61718636e-004
,,,-3.97500000e-009,3.56249886e-004
,,,-3.95000000e-009,3.44531135e-004
,,,-3.92500000e-009,3.28124884e-004
,,,-3.90000000e-009,3.12499882e-004
,,,-3.87500000e-009,2.99999882e-004
,,,-3.85000000e-009,2.89062381e-004
,,,-3.82500000e-009,2.84374880e-004
,,,-3.80000000e-009,2.85156130e-004
,,,-3.77500000e-009,2.89843631e-004
,,,-3.75000000e-009,2.96874881e-004
,,,-3.72500000e-009,3.02343632e-004
,,,-3.70000000e-009,3.03906132e-004
,,,-3.67500000e-009,2.99999882e-004
,,,-3.65000000e-009,2.83593630e-004
,,,-3.62500000e-009,2.60156129e-004
,,,-3.60000000e-009,2.32031127e-004
,,,-3.57500000e-009,2.00781125e-004
,,,-3.55000000e-009,1.70312372e-004
,,,-3.52500000e-009,1.41406120e-004
,,,-3.50000000e-009,1.17968619e-004
,,,-3.47500000e-009,9.99998674e-005
,,,-3.45000000e-009,8.74998665e-005
,,,-3.42500000e-009,8.20311161e-005
,,,-3.40000000e-009,8.20311161e-005
,,,-3.37500000e-009,8.59373664e-005
,,,-3.35000000e-009,9.21873668e-005
,,,-3.32500000e-009,9.76561172e-005
,,,-3.30000000e-009,1.01562367e-004
,,,-3.27500000e-009,9.99998674e-005
,,,-3.25000000e-009,9.14061168e-005
,,,-3.22500000e-009,7.57811157e-005
,,,-3.20000000e-009,5.39061141e-005
,,,-3.17500000e-009,2.73436122e-005
,,,-3.15000000e-009,-2.34388986e-006
,,,-3.12500000e-009,-3.43751421e-005
,,,-3.10000000e-009,-6.71876445e-005
,,,-3.07500000e-009,-1.00000147e-004
,,,-3.05000000e-009,-1.30468899e-004
,,,-3.02500000e-009,-1.59375151e-004
,,,-3.00000000e-009,-1.86718903e-004
,,,-2.97500000e-009,-2.11718905e-004
,,,-2.95000000e-009,-2.34375156e-004
,,,-2.92500000e-009,-2.57031408e-004
,,,-2.90000000e-009,-2.78125159e-004
,,,-2.87500000e-009,-3.00000161e-004
,,,-2.85000000e-009,-3.19531412e-004
,,,-2.82500000e-009,-3.39843914e-004
,,,-2.80000000e-009,-3.63281415e-004
,,,-2.77500000e-009,-3.88281417e-004
,,,-2.75000000e-009,-4.15625169e-004
,,,-2.72500000e-009,-4.43750171e-004
,,,-2.70000000e-009,-4.71875173e-004
,,,-2.67500000e-009,-5.00000175e-004
,,,-2.65000000e-009,-5.19531426e-004
,,,-2.62500000e-009,-5.35937678e-004
,,,-2.60000000e-009,-5.46875178e-004
,,,-2.57500000e-009,-5.52343929e-004
,,,-2.55000000e-009,-5.50781429e-004
,,,-2.52500000e-009,-5.41406428e-004
,,,-2.50000000e-009,-5.24218927e-004
,,,-2.47500000e-009,-5.00000175e-004
,,,-2.45000000e-009,-4.64062673e-004
,,,-2.42500000e-009,-4.25781420e-004
,,,-2.40000000e-009,-3.88281417e-004
,,,-2.37500000e-009,-3.53125165e-004
,,,-2.35000000e-009,-3.25000163e-004
,,,-2.32500000e-009,-3.05468911e-004
,,,-2.30000000e-009,-2.96875161e-004
,,,-2.27500000e-009,-3.00000161e-004
,,,-2.25000000e-009,-3.10156412e-004
,,,-2.22500000e-009,-3.31250163e-004
,,,-2.20000000e-009,-3.59375165e-004
,,,-2.17500000e-009,-3.92968918e-004
,,,-2.15000000e-009,-4.26562670e-004
,,,-2.12500000e-009,-4.57812672e-004
,,,-2.10000000e-009,-4.82812674e-004
,,,-2.07500000e-009,-5.00000175e-004
,,,-2.05000000e-009,-5.02343925e-004
,,,-2.02500000e-009,-4.93750175e-004
,,,-2.00000000e-009,-4.75000173e-004
,,,-1.97500000e-009,-4.47656421e-004
,,,-1.95000000e-009,-4.14062669e-004
,,,-1.92500000e-009,-3.76562666e-004
,,,-1.90000000e-009,-3.37500164e-004
,,,-1.87500000e-009,-3.00000161e-004
,,,-1.85000000e-009,-2.62500158e-004
,,,-1.82500000e-009,-2.29687656e-004
,,,-1.80000000e-009,-2.00781404e-004
,,,-1.77500000e-009,-1.75781402e-004
,,,-1.75000000e-009,-1.54687651e-004
,,,-1.72500000e-009,-1.35156399e-004
,,,-1.70000000e-009,-1.17187648e-004
,,,-1.67500000e-009,-1.00000147e-004
,,,-1.65000000e-009,-8.43751457e-005
,,,-1.62500000e-009,-6.64063944e-005
,,,-1.60000000e-009,-4.60938930e-005
,,,-1.57500000e-009,-2.18751412e-005
,,,-1.55000000e-009,5.46861069e-006
,,,-1.52500000e-009,3.59373628e-005
,,,-1.50000000e-009,6.79686151e-005
,,,-1.47500000e-009,9.99998674e-005
,,,-1.45000000e-009,1.21874869e-004
,,,-1.42500000e-009,1.39062370e-004
,,,-1.40000000e-009,1.49999871e-004
,,,-1.37500000e-009,1.54687371e-004
,,,-1.35000000e-009,1.52343621e-004
,,,-1.32500000e-009,1.42187370e-004
,,,-1.30000000e-009,1.24999869e-004
,,,-1.27500000e-009,9.99998674e-005
,,,-1.25000000e-009,5.54686142e-005
,,,-1.22500000e-009,7.03111080e-006
,,,-1.20000000e-009,-4.06251426e-005
,,,-1.17500000e-009,-8.12501454e-005
,,,-1.15000000e-009,-1.10156397e-004
,,,-1.12500000e-009,-1.24218898e-004
,,,-1.10000000e-009,-1.21093898e-004
,,,-1.07500000e-009,-1.00000147e-004
,,,-1.05000000e-009,-8.51563957e-005
,,,-1.02500000e-009,-6.01563940e-005
,,,-1.00000000e-009,-2.81251417e-005
,,,-9.75000000e-010,7.81236085e-006
,,,-9.50000000e-010,4.21873633e-005
,,,-9.25000000e-010,7.26561154e-005
,,,-9.00000000e-010,9.29686169e-005
,,,-8.75000000e-010,9.99998674e-005
,,,-8.50000000e-010,5.93748645e-005
,,,-8.25000000e-010,-1.56263981e-006
,,,-8.00000000e-010,-7.81251452e-005
,,,-7.75000000e-010,-1.64843901e-004
,,,-7.50000000e-010,-2.54687658e-004
,,,-7.25000000e-010,-3.43750164e-004
,,,-7.00000000e-010,-4.25781420e-004
,,,-6.75000000e-010,-5.00000175e-004
,,,-6.50000000e-010,-5.94531432e-004
,,,-6.25000000e-010,-6.86718938e-004
,,,-6.00000000e-010,-7.77343945e-004
,,,-5.75000000e-010,-8.67968951e-004
,,,-5.50000000e-010,-9.62500208e-004
,,,-5.25000000e-010,-1.06328146e-003
,,,-5.00000000e-010,-1.17500022e-003
,,,-4.75000000e-010,-1.30000023e-003
,,,-4.50000000e-010,-1.46093774e-003
,,,-4.25000000e-010,-1.64218776e-003
,,,-4.00000000e-010,-1.83906277e-003
,,,-3.75000000e-010,-2.04843778e-003
,,,-3.50000000e-010,-2.26406280e-003
,,,-3.25000000e-010,-2.48046907e-003
,,,-3.00000000e-010,-2.69296908e-003
,,,-2.75000000e-010,-2.90000034e-003
,,,-2.50000000e-010,-3.10000036e-003
,,,-2.25000000e-010,-3.29687537e-003
,,,-2.00000000e-010,-3.48984414e-003
,,,-1.75000000e-010,-3.68281290e-003
,,,-1.50000000e-010,-3.87734416e-003
,,,-1.25000000e-010,-4.07734418e-003
,,,-1.00000000e-010,-4.28437544e-003
,,,-7.50000000e-011,-4.50000046e-003
,,,-5.00000000e-011,-4.70859422e-003
,,,-2.50000000e-011,-4.92890674e-003
,,,0.00000000e+000,-5.15781300e-003
,,,2.50000000e-011,-5.39375052e-003
,,,5.00000000e-011,-5.63046929e-003
,,,7.50000000e-011,-5.86484430e-003
,,,1.00000000e-010,-6.08906307e-003
,,,1.25000000e-010,-6.30000059e-003
,,,1.50000000e-010,-6.45312560e-003
,,,1.75000000e-010,-6.58828186e-003
,,,2.00000000e-010,-6.70781311e-003
,,,2.25000000e-010,-6.81171937e-003
,,,2.50000000e-010,-6.90234438e-003
,,,2.75000000e-010,-6.98046938e-003
,,,3.00000000e-010,-7.04609439e-003
,,,3.25000000e-010,-7.10000064e-003
,,,3.50000000e-010,-7.09531314e-003
,,,3.75000000e-010,-7.08359439e-003
,,,4.00000000e-010,-7.06640689e-003
,,,4.25000000e-010,-7.04531314e-003
,,,4.50000000e-010,-7.01875064e-003
,,,4.75000000e-010,-6.98671938e-003
,,,5.00000000e-010,-6.94765688e-003
,,,5.25000000e-010,-6.90000063e-003
,,,5.50000000e-010,-6.79843812e-003
,,,5.75000000e-010,-6.69296936e-003
,,,6.00000000e-010,-6.58593811e-003
,,,6.25000000e-010,-6.48046935e-003
,,,6.50000000e-010,-6.37890684e-003
,,,6.75000000e-010,-6.28125058e-003
,,,7.00000000e-010,-6.18906308e-003
,,,7.25000000e-010,-6.10000057e-003
,,,7.50000000e-010,-5.98046931e-003
,,,7.75000000e-010,-5.86250055e-003
,,,8.00000000e-010,-5.74531305e-003
,,,8.25000000e-010,-5.62734429e-003
,,,8.50000000e-010,-5.50625053e-003
,,,8.75000000e-010,-5.37890677e-003
,,,9.00000000e-010,-5.24453176e-003
,,,9.25000000e-010,-5.10000050e-003
,,,9.50000000e-010,-4.92578174e-003
,,,9.75000000e-010,-4.74296923e-003
,,,1.00000000e-009,-4.55625046e-003
,,,1.02500000e-009,-4.36796920e-003
,,,1.05000000e-009,-4.18515669e-003
,,,1.07500000e-009,-4.01015667e-003
,,,1.10000000e-009,-3.84765666e-003
,,,1.12500000e-009,-3.70000040e-003
,,,1.15000000e-009,-3.56484414e-003
,,,1.17500000e-009,-3.44296913e-003
,,,1.20000000e-009,-3.33281288e-003
,,,1.22500000e-009,-3.23281287e-003
,,,1.25000000e-009,-3.14062536e-003
,,,1.27500000e-009,-3.05625036e-003
,,,1.30000000e-009,-2.97656285e-003
,,,1.32500000e-009,-2.90000034e-003
,,,1.35000000e-009,-2.82968784e-003
,,,1.37500000e-009,-2.75468783e-003
,,,1.40000000e-009,-2.67578158e-003
,,,1.42500000e-009,-2.59375032e-003
,,,1.45000000e-009,-2.51250032e-003
,,,1.47500000e-009,-2.43515656e-003
,,,1.50000000e-009,-2.36328156e-003
,,,1.52500000e-009,-2.30000030e-003
,,,1.55000000e-009,-2.25390655e-003
,,,1.57500000e-009,-2.20937530e-003
,,,1.60000000e-009,-2.16562529e-003
,,,1.62500000e-009,-2.11953154e-003
,,,1.65000000e-009,-2.07109404e-003
,,,1.67500000e-009,-2.01875028e-003
,,,1.70000000e-009,-1.96171903e-003
,,,1.72500000e-009,-1.90000027e-003
,,,1.75000000e-009,-1.84140652e-003
,,,1.77500000e-009,-1.77343777e-003
,,,1.80000000e-009,-1.69687526e-003
,,,1.82500000e-009,-1.61484400e-003
,,,1.85000000e-009,-1.53046900e-003
,,,1.87500000e-009,-1.44843774e-003
,,,1.90000000e-009,-1.37031274e-003
,,,1.92500000e-009,-1.30000023e-003
,,,1.95000000e-009,-1.24843773e-003
,,,1.97500000e-009,-1.20000022e-003
,,,2.00000000e-009,-1.15390647e-003
,,,2.02500000e-009,-1.10859397e-003
,,,2.05000000e-009,-1.06093771e-003
,,,2.07500000e-009,-1.01093771e-003
,,,2.10000000e-009,-9.57031457e-004
,,,2.12500000e-009,-9.00000203e-004
,,,2.15000000e-009,-8.49218950e-004
,,,2.17500000e-009,-7.93750196e-004
,,,2.20000000e-009,-7.35156442e-004
,,,2.22500000e-009,-6.76562688e-004
,,,2.25000000e-009,-6.21093934e-004
,,,2.27500000e-009,-5.71093930e-004
,,,2.30000000e-009,-5.29687677e-004
,,,2.32500000e-009,-5.00000175e-004
,,,2.35000000e-009,-4.92187675e-004
,,,2.37500000e-009,-4.92187675e-004
,,,2.40000000e-009,-4.97656425e-004
,,,2.42500000e-009,-5.04687675e-004
,,,2.45000000e-009,-5.11718926e-004
,,,2.47500000e-009,-5.14062676e-004
,,,2.50000000e-009,-5.10937676e-004
,,,2.52500000e-009,-5.00000175e-004
,,,2.55000000e-009,-4.88281424e-004
,,,2.57500000e-009,-4.67187673e-004
,,,2.60000000e-009,-4.39062671e-004
,,,2.62500000e-009,-4.06250168e-004
,,,2.65000000e-009,-3.71875166e-004
,,,2.67500000e-009,-3.40625164e-004
,,,2.70000000e-009,-3.15625162e-004
,,,2.72500000e-009,-3.00000161e-004
,,,2.75000000e-009,-3.03125161e-004
,,,2.77500000e-009,-3.16406412e-004
,,,2.80000000e-009,-3.38281414e-004
,,,2.82500000e-009,-3.66406416e-004
,,,2.85000000e-009,-3.99218918e-004
,,,2.87500000e-009,-4.33593920e-004
,,,2.90000000e-009,-4.67187673e-004
,,,2.92500000e-009,-5.00000175e-004
,,,2.95000000e-009,-5.30468927e-004
,,,2.97500000e-009,-5.57031429e-004
,,,3.00000000e-009,-5.78906431e-004
,,,3.02500000e-009,-6.00000182e-004
,,,3.05000000e-009,-6.20312684e-004
,,,3.07500000e-009,-6.42187685e-004
,,,3.10000000e-009,-6.68750187e-004
,,,3.12500000e-009,-7.00000189e-004
,,,3.15000000e-009,-7.34375192e-004
,,,3.17500000e-009,-7.71875194e-004
,,,3.20000000e-009,-8.08593947e-004
,,,3.22500000e-009,-8.42968949e-004
,,,3.25000000e-009,-8.71875201e-004
,,,3.27500000e-009,-8.91406453e-004
,,,3.30000000e-009,-9.01562704e-004
,,,3.32500000e-009,-9.00000203e-004
,,,3.35000000e-009,-8.81250202e-004
,,,3.37500000e-009,-8.53125200e-004
,,,3.40000000e-009,-8.19531448e-004
,,,3.42500000e-009,-7.83593945e-004
,,,3.45000000e-009,-7.50781443e-004
,,,3.47500000e-009,-7.24218941e-004
,,,3.50000000e-009,-7.06250190e-004
,,,3.52500000e-009,-7.00000189e-004
,,,3.55000000e-009,-6.98437689e-004
,,,3.57500000e-009,-7.05468940e-004
,,,3.60000000e-009,-7.17187690e-004
,,,3.62500000e-009,-7.29687691e-004
,,,3.65000000e-009,-7.37500192e-004
,,,3.67500000e-009,-7.37500192e-004
,,,3.70000000e-009,-7.25781441e-004
,,,3.72500000e-009,-7.00000189e-004
,,,3.75000000e-009,-6.54687686e-004
,,,3.77500000e-009,-5.97656432e-004
,,,3.80000000e-009,-5.34375178e-004
,,,3.82500000e-009,-4.68750173e-004
,,,3.85000000e-009,-4.07812669e-004
,,,3.87500000e-009,-3.56250165e-004
,,,3.90000000e-009,-3.18750162e-004
,,,3.92500000e-009,-3.00000161e-004
,,,3.95000000e-009,-2.97656411e-004
,,,3.97500000e-009,-3.13281412e-004
,,,4.00000000e-009,-3.42187664e-004
,,,4.02500000e-009,-3.79687667e-004
,,,4.05000000e-009,-4.20312669e-004
,,,4.07500000e-009,-4.57031422e-004
,,,4.10000000e-009,-4.85156424e-004
,,,4.12500000e-009,-5.00000175e-004
,,,4.15000000e-009,-4.94531425e-004
,,,4.17500000e-009,-4.71093923e-004
,,,4.20000000e-009,-4.30468920e-004
,,,4.22500000e-009,-3.75000166e-004
,,,4.25000000e-009,-3.09375162e-004
,,,4.27500000e-009,-2.38281407e-004
,,,4.30000000e-009,-1.67187652e-004
,,,4.32500000e-009,-1.00000147e-004
,,,4.35000000e-009,-4.21876427e-005
,,,4.37500000e-009,4.68736063e-006
,,,4.40000000e-009,4.21873633e-005
,,,4.42500000e-009,6.87498652e-005
,,,4.45000000e-009,8.59373664e-005
,,,4.47500000e-009,9.60936171e-005
,,,4.50000000e-009,9.99998674e-005
,,,4.52500000e-009,9.99998674e-005
,,,4.55000000e-009,9.45311170e-005
,,,4.57500000e-009,8.98436167e-005
,,,4.60000000e-009,8.67186164e-005
,,,4.62500000e-009,8.59373664e-005
,,,4.65000000e-009,8.74998665e-005
,,,4.67500000e-009,9.06248667e-005
,,,4.70000000e-009,9.53123670e-005
,,,4.72500000e-009,9.99998674e-005
,,,4.75000000e-009,1.00781117e-004
,,,4.77500000e-009,1.00781117e-004
,,,4.80000000e-009,1.00781117e-004
,,,4.82500000e-009,1.00781117e-004
,,,4.85000000e-009,1.00781117e-004
,,,4.87500000e-009,1.00781117e-004
,,,4.90000000e-009,1.00781117e-004
,,,4.92500000e-009,9.99998674e-005
,,,4.95000000e-009,9.76561172e-005
,,,4.97500000e-009,9.53123670e-005
,,,5.00000000e-009,9.37498669e-005
,,,5.02500000e-009,9.37498669e-005
,,,5.05000000e-009,9.37498669e-005
,,,5.07500000e-009,9.53123670e-005
,,,5.10000000e-009,9.76561172e-005
,,,5.12500000e-009,9.99998674e-005
,,,5.15000000e-009,9.92186173e-005
,,,5.17500000e-009,9.92186173e-005
,,,5.20000000e-009,9.99998674e-005
,,,5.22500000e-009,1.01562367e-004
,,,5.25000000e-009,1.02343618e-004
,,,5.27500000e-009,1.03124868e-004
,,,5.30000000e-009,1.03124868e-004
,,,5.32500000e-009,9.99998674e-005
,,,5.35000000e-009,9.37498669e-005
,,,5.37500000e-009,8.35936162e-005
,,,5.40000000e-009,6.87498652e-005
,,,5.42500000e-009,4.76561137e-005
,,,5.45000000e-009,1.95311117e-005
,,,5.47500000e-009,-1.40626407e-005
,,,5.50000000e-009,-5.46876436e-005
,,,5.52500000e-009,-1.00000147e-004
,,,5.55000000e-009,-1.44531400e-004
,,,5.57500000e-009,-1.89062653e-004
,,,5.60000000e-009,-2.29687656e-004
,,,5.62500000e-009,-2.64843908e-004
,,,5.65000000e-009,-2.90625160e-004
,,,5.67500000e-009,-3.05468911e-004
,,,5.70000000e-009,-3.08593912e-004
,,,5.72500000e-009,-3.00000161e-004
,,,5.75000000e-009,-2.75000159e-004
,,,5.77500000e-009,-2.42187657e-004
,,,5.80000000e-009,-2.04687654e-004
,,,5.82500000e-009,-1.67968902e-004
,,,5.85000000e-009,-1.35156399e-004
,,,5.87500000e-009,-1.10937648e-004
,,,5.90000000e-009,-9.84376467e-005
,,,5.92500000e-009,-1.00000147e-004
,,,5.95000000e-009,-1.12500148e-004
