RawData/SinglePhotoelectron/L4_2pt2C_5mV/wave001_Ch3.csv

"Record Length",1000,"Points",-7.72500000e-009,-2.72656409e-004
"Sample Interval",2.50000000e-011,s,-7.70000000e-009,-3.00000161e-004
"Trigger Point",309,"Samples",-7.67500000e-009,-3.17187662e-004
"Trigger Time",2.42113265e-011,s,-7.65000000e-009,-3.28906413e-004
"",,,-7.62500000e-009,-3.35937663e-004
"Horizontal Offset",-7.72500000e-009,s,-7.60000000e-009,-3.37500164e-004
,,,-7.57500000e-009,-3.33593913e-004
,,,-7.55000000e-009,-3.25781413e-004
,,,-7.52500000e-009,-3.14062662e-004
,,,-7.50000000e-009,-3.00000161e-004
,,,-7.47500000e-009,-2.78125159e-004
,,,-7.45000000e-009,-2.54687658e-004
,,,-7.42500000e-009,-2.30468906e-004
,,,-7.40000000e-009,-2.04687654e-004
,,,-7.37500000e-009,-1.78906402e-004
,,,-7.35000000e-009,-1.51562650e-004
,,,-7.32500000e-009,-1.25000149e-004
,,,-7.30000000e-009,-1.00000147e-004
,,,-7.27500000e-009,-7.42188950e-005
,,,-7.25000000e-009,-5.39063935e-005
,,,-7.22500000e-009,-3.90626425e-005
,,,-7.20000000e-009,-3.20313920e-005
,,,-7.17500000e-009,-3.43751421e-005
,,,-7.15000000e-009,-4.60938930e-005
,,,-7.12500000e-009,-6.79688945e-005
,,,-7.10000000e-009,-1.00000147e-004
,,,-7.07500000e-009,-1.36718899e-004
,,,-7.05000000e-009,-1.78125152e-004
,,,-7.02500000e-009,-2.18750155e-004
,,,-7.00000000e-009,-2.56250158e-004
,,,-6.97500000e-009,-2.85937660e-004
,,,-6.95000000e-009,-3.04687661e-004
,,,-6.92500000e-009,-3.09375162e-004
,,,-6.90000000e-009,-3.00000161e-004
,,,-6.87500000e-009,-2.73437659e-004
,,,-6.85000000e-009,-2.34375156e-004
,,,-6.82500000e-009,-1.83593903e-004
,,,-6.80000000e-009,-1.25781399e-004
,,,-6.77500000e-009,-6.48438943e-005
,,,-6.75000000e-009,-3.90638997e-006
,,,-6.72500000e-009,5.23436140e-005
,,,-6.70000000e-009,9.99998674e-005
,,,-6.67500000e-009,1.33593620e-004
,,,-6.65000000e-009,1.53906121e-004
,,,-6.62500000e-009,1.63281122e-004
,,,-6.60000000e-009,1.61718622e-004
,,,-6.57500000e-009,1.52343621e-004
,,,-6.55000000e-009,1.36718620e-004
,,,-6.52500000e-009,1.18749869e-004
,,,-6.50000000e-009,9.99998674e-005
,,,-6.47500000e-009,8.12498661e-005
,,,-6.45000000e-009,6.64061150e-005
,,,-6.42500000e-009,5.78123644e-005
,,,-6.40000000e-009,5.54686142e-005
,,,-6.37500000e-009,6.01561146e-005
,,,-6.35000000e-009,6.95311152e-005
,,,-6.32500000e-009,8.35936162e-005
,,,-6.30000000e-009,9.99998674e-005
,,,-6.27500000e-009,1.15624868e-004
,,,-6.25000000e-009,1.29687369e-004
,,,-6.22500000e-009,1.40624870e-004
,,,-6.20000000e-009,1.46874871e-004
,,,-6.17500000e-009,1.46874871e-004
,,,-6.15000000e-009,1.39843620e-004
,,,-6.12500000e-009,1.24218619e-004
,,,-6.10000000e-009,9.99998674e-005
,,,-6.07500000e-009,6.56248649e-005
,,,-6.05000000e-009,2.34373620e-005
,,,-6.02500000e-009,-2.50001415e-005
,,,-6.00000000e-009,-7.81251452e-005
,,,-5.97500000e-009,-1.33593899e-004
,,,-5.95000000e-009,-1.90625153e-004
,,,-5.92500000e-009,-2.46093907e-004
,,,-5.90000000e-009,-3.00000161e-004
,,,-5.87500000e-009,-3.49218914e-004
,,,-5.85000000e-009,-3.92968918e-004
,,,-5.82500000e-009,-4.28906420e-004
,,,-5.80000000e-009,-4.58593922e-004
,,,-5.77500000e-009,-4.79687674e-004
,,,-5.75000000e-009,-4.93750175e-004
,,,-5.72500000e-009,-5.00000175e-004
,,,-5.70000000e-009,-5.00000175e-004
,,,-5.67500000e-009,-4.89062674e-004
,,,-5.65000000e-009,-4.73437673e-004
,,,-5.62500000e-009,-4.52343922e-004
,,,-5.60000000e-009,-4.27343920e-004
,,,-5.57500000e-009,-3.99218918e-004
,,,-5.55000000e-009,-3.67968916e-004
,,,-5.52500000e-009,-3.34375163e-004
,,,-5.50000000e-009,-3.00000161e-004
,,,-5.47500000e-009,-2.62500158e-004
,,,-5.45000000e-009,-2.27343906e-004
,,,-5.42500000e-009,-1.93750153e-004
,,,-5.40000000e-009,-1.64843901e-004
,,,-5.37500000e-009,-1.39843900e-004
,,,-5.35000000e-009,-1.20312648e-004
,,,-5.32500000e-009,-1.06250147e-004
,,,-5.30000000e-009,-1.00000147e-004
,,,-5.27500000e-009,-1.00000147e-004
,,,-5.25000000e-009,-1.09375147e-004
,,,-5.22500000e-009,-1.25781399e-004
,,,-5.20000000e-009,-1.49218900e-004
,,,-5.17500000e-009,-1.79687652e-004
,,,-5.15000000e-009,-2.15625155e-004
,,,-5.12500000e-009,-2.56250158e-004
,,,-5.10000000e-009,-3.00000161e-004
,,,-5.07500000e-009,-3.40625164e-004
,,,-5.05000000e-009,-3.80468917e-004
,,,-5.02500000e-009,-4.17187669e-004
,,,-5.00000000e-009,-4.48437671e-004
,,,-4.97500000e-009,-4.73437673e-004
,,,-4.95000000e-009,-4.90625174e-004
,,,-4.92500000e-009,-5.00000175e-004
,,,-4.90000000e-009,-5.00000175e-004
,,,-4.87500000e-009,-4.89062674e-004
,,,-4.85000000e-009,-4.71093923e-004
,,,-4.82500000e-009,-4.46875171e-004
,,,-4.80000000e-009,-4.17968919e-004
,,,-4.77500000e-009,-3.87500167e-004
,,,-4.75000000e-009,-3.55468915e-004
,,,-4.72500000e-009,-3.25781413e-004
,,,-4.70000000e-009,-3.00000161e-004
,,,-4.67500000e-009,-2.79687659e-004
,,,-4.65000000e-009,-2.66406409e-004
,,,-4.62500000e-009,-2.59375158e-004
,,,-4.60000000e-009,-2.58593908e-004
,,,-4.57500000e-009,-2.63281408e-004
,,,-4.55000000e-009,-2.72656409e-004
,,,-4.52500000e-009,-2.85156410e-004
,,,-4.50000000e-009,-3.00000161e-004
,,,-4.47500000e-009,-3.12500162e-004
,,,-4.45000000e-009,-3.22656413e-004
,,,-4.42500000e-009,-3.30468913e-004
,,,-4.40000000e-009,-3.33593913e-004
,,,-4.37500000e-009,-3.32812663e-004
,,,-4.35000000e-009,-3.26562663e-004
,,,-4.32500000e-009,-3.15625162e-004
,,,-4.30000000e-009,-3.00000161e-004
,,,-4.27500000e-009,-2.77343909e-004
,,,-4.25000000e-009,-2.52343908e-004
,,,-4.22500000e-009,-2.25000156e-004
,,,-4.20000000e-009,-1.96093904e-004
,,,-4.17500000e-009,-1.67968902e-004
,,,-4.15000000e-009,-1.41406400e-004
,,,-4.12500000e-009,-1.17968898e-004
,,,-4.10000000e-009,-1.00000147e-004
,,,-4.07500000e-009,-8.90626460e-005
,,,-4.05000000e-009,-8.75001459e-005
,,,-4.02500000e-009,-9.53126464e-005
,,,-4.00000000e-009,-1.14843898e-004
,,,-3.97500000e-009,-1.46093900e-004
,,,-3.95000000e-009,-1.88281403e-004
,,,-3.92500000e-009,-2.39843907e-004
,,,-3.90000000e-009,-3.00000161e-004
,,,-3.87500000e-009,-3.63281415e-004
,,,-3.85000000e-009,-4.25000170e-004
,,,-3.82500000e-009,-4.79687674e-004
,,,-3.80000000e-009,-5.22656427e-004
,,,-3.77500000e-009,-5.48437679e-004
,,,-3.75000000e-009,-5.54687679e-004
,,,-3.72500000e-009,-5.39062678e-004
,,,-3.70000000e-009,-5.00000175e-004
,,,-3.67500000e-009,-4.36718921e-004
,,,-3.65000000e-009,-3.57812665e-004
,,,-3.62500000e-009,-2.68750159e-004
,,,-3.60000000e-009,-1.75781402e-004
,,,-3.57500000e-009,-8.59376458e-005
,,,-3.55000000e-009,-6.25014014e-006
,,,-3.52500000e-009,5.70311143e-005
,,,-3.50000000e-009,9.99998674e-005
,,,-3.47500000e-009,1.17968619e-004
,,,-3.45000000e-009,1.14062368e-004
,,,-3.42500000e-009,9.21873668e-005
,,,-3.40000000e-009,5.70311143e-005
,,,-3.37500000e-009,1.40623613e-005
,,,-3.35000000e-009,-2.96876418e-005
,,,-3.32500000e-009,-6.87501446e-005
,,,-3.30000000e-009,-1.00000147e-004
,,,-3.27500000e-009,-1.18750148e-004
,,,-3.25000000e-009,-1.25781399e-004
,,,-3.22500000e-009,-1.22656398e-004
,,,-3.20000000e-009,-1.13281398e-004
,,,-3.17500000e-009,-1.02343897e-004
,,,-3.15000000e-009,-9.29688963e-005
,,,-3.12500000e-009,-9.14063962e-005
,,,-3.10000000e-009,-1.00000147e-004
,,,-3.07500000e-009,-1.17187648e-004
,,,-3.05000000e-009,-1.44531400e-004
,,,-3.02500000e-009,-1.78906402e-004
,,,-3.00000000e-009,-2.15625155e-004
,,,-2.97500000e-009,-2.50781407e-004
,,,-2.95000000e-009,-2.78906409e-004
,,,-2.92500000e-009,-2.96093911e-004
,,,-2.90000000e-009,-3.00000161e-004
,,,-2.87500000e-009,-2.86718910e-004
,,,-2.85000000e-009,-2.60156408e-004
,,,-2.82500000e-009,-2.25781406e-004
,,,-2.80000000e-009,-1.86718903e-004
,,,-2.77500000e-009,-1.49218900e-004
,,,-2.75000000e-009,-1.19531398e-004
,,,-2.72500000e-009,-1.02343897e-004
,,,-2.70000000e-009,-1.00000147e-004
,,,-2.67500000e-009,-1.12500148e-004
,,,-2.65000000e-009,-1.38281399e-004
,,,-2.62500000e-009,-1.72656402e-004
,,,-2.60000000e-009,-2.12500155e-004
,,,-2.57500000e-009,-2.50000157e-004
,,,-2.55000000e-009,-2.80468910e-004
,,,-2.52500000e-009,-2.98437661e-004
,,,-2.50000000e-009,-3.00000161e-004
,,,-2.47500000e-009,-2.78125159e-004
,,,-2.45000000e-009,-2.39062657e-004
,,,-2.42500000e-009,-1.85937653e-004
,,,-2.40000000e-009,-1.24218898e-004
,,,-2.37500000e-009,-5.93751439e-005
,,,-2.35000000e-009,3.12486052e-006
,,,-2.32500000e-009,5.78123644e-005
,,,-2.30000000e-009,9.99998674e-005
,,,-2.27500000e-009,1.28906119e-004
,,,-2.25000000e-009,1.42968620e-004
,,,-2.22500000e-009,1.43749870e-004
,,,-2.20000000e-009,1.35937370e-004
,,,-2.17500000e-009,1.23437369e-004
,,,-2.15000000e-009,1.10937368e-004
,,,-2.12500000e-009,1.01562367e-004
,,,-2.10000000e-009,9.99998674e-005
,,,-2.07500000e-009,1.09374868e-004
,,,-2.05000000e-009,1.28124869e-004
,,,-2.02500000e-009,1.55468621e-004
,,,-2.00000000e-009,1.88281124e-004
,,,-1.97500000e-009,2.22656126e-004
,,,-1.95000000e-009,2.54687378e-004
,,,-1.92500000e-009,2.82031130e-004
,,,-1.90000000e-009,2.99999882e-004
,,,-1.87500000e-009,3.07812382e-004
,,,-1.85000000e-009,3.07031132e-004
,,,-1.82500000e-009,3.00781132e-004
,,,-1.80000000e-009,2.92968631e-004
,,,-1.77500000e-009,2.85156130e-004
,,,-1.75000000e-009,2.82031130e-004
,,,-1.72500000e-009,2.86718631e-004
,,,-1.70000000e-009,2.99999882e-004
,,,-1.67500000e-009,3.20312383e-004
,,,-1.65000000e-009,3.49218635e-004
,,,-1.62500000e-009,3.82812387e-004
,,,-1.60000000e-009,4.17968640e-004
,,,-1.57500000e-009,4.51562392e-004
,,,-1.55000000e-009,4.78124894e-004
,,,-1.52500000e-009,4.95312395e-004
,,,-1.50000000e-009,4.99999896e-004
,,,-1.47500000e-009,4.82812394e-004
,,,-1.45000000e-009,4.53906142e-004
,,,-1.42500000e-009,4.17968640e-004
,,,-1.40000000e-009,3.79687387e-004
,,,-1.37500000e-009,3.44531135e-004
,,,-1.35000000e-009,3.17187383e-004
,,,-1.32500000e-009,3.01562382e-004
,,,-1.30000000e-009,2.99999882e-004
,,,-1.27500000e-009,3.02343632e-004
,,,-1.25000000e-009,3.16406133e-004
,,,-1.22500000e-009,3.41406134e-004
,,,-1.20000000e-009,3.73437387e-004
,,,-1.17500000e-009,4.10156139e-004
,,,-1.15000000e-009,4.45312392e-004
,,,-1.12500000e-009,4.77343644e-004
,,,-1.10000000e-009,4.99999896e-004
,,,-1.07500000e-009,4.89843645e-004
,,,-1.05000000e-009,4.66406143e-004
,,,-1.02500000e-009,4.33593641e-004
,,,-1.00000000e-009,3.96093638e-004
,,,-9.75000000e-010,3.59374886e-004
,,,-9.50000000e-010,3.28906134e-004
,,,-9.25000000e-010,3.08593632e-004
,,,-9.00000000e-010,2.99999882e-004
,,,-8.75000000e-010,2.70312379e-004
,,,-8.50000000e-010,2.45312378e-004
,,,-8.25000000e-010,2.24218626e-004
,,,-8.00000000e-010,2.05468625e-004
,,,-7.75000000e-010,1.87499874e-004
,,,-7.50000000e-010,1.65624872e-004
,,,-7.25000000e-010,1.38281120e-004
,,,-7.00000000e-010,9.99998674e-005
,,,-6.75000000e-010,9.37486097e-006
,,,-6.50000000e-010,-1.01562647e-004
,,,-6.25000000e-010,-2.27343906e-004
,,,-6.00000000e-010,-3.64062665e-004
,,,-5.75000000e-010,-5.03906425e-004
,,,-5.50000000e-010,-6.42968935e-004
,,,-5.25000000e-010,-7.75000195e-004
,,,-5.00000000e-010,-9.00000203e-004
,,,-4.75000000e-010,-1.05234396e-003
,,,-4.50000000e-010,-1.20468772e-003
,,,-4.25000000e-010,-1.35390649e-003
,,,-4.00000000e-010,-1.50156275e-003
,,,-3.75000000e-010,-1.64765651e-003
,,,-3.50000000e-010,-1.79453152e-003
,,,-3.25000000e-010,-1.94375028e-003
,,,-3.00000000e-010,-2.10000029e-003
,,,-2.75000000e-010,-2.29687530e-003
,,,-2.50000000e-010,-2.51406282e-003
,,,-2.25000000e-010,-2.75000033e-003
,,,-2.00000000e-010,-3.00156285e-003
,,,-1.75000000e-010,-3.26562537e-003
,,,-1.50000000e-010,-3.53828164e-003
,,,-1.25000000e-010,-3.81718791e-003
,,,-1.00000000e-010,-4.10000043e-003
,,,-7.50000000e-011,-4.39453170e-003
,,,-5.00000000e-011,-4.69609422e-003
,,,-2.50000000e-011,-5.00234424e-003
,,,0.00000000e+000,-5.30937552e-003
,,,2.50000000e-011,-5.61484429e-003
,,,5.00000000e-011,-5.91640681e-003
,,,7.50000000e-011,-6.21171933e-003
,,,1.00000000e-010,-6.50000060e-003
,,,1.25000000e-010,-6.76562562e-003
,,,1.50000000e-010,-7.02890689e-003
,,,1.75000000e-010,-7.28906316e-003
,,,2.00000000e-010,-7.54609442e-003
,,,2.25000000e-010,-7.79687569e-003
,,,2.50000000e-010,-8.04062571e-003
,,,2.75000000e-010,-8.27578198e-003
,,,3.00000000e-010,-8.50000074e-003
,,,3.25000000e-010,-8.67734450e-003
,,,3.50000000e-010,-8.85234452e-003
,,,3.75000000e-010,-9.02656328e-003
,,,4.00000000e-010,-9.20156329e-003
,,,4.25000000e-010,-9.37812580e-003
,,,4.50000000e-010,-9.55390707e-003
,,,4.75000000e-010,-9.72890708e-003
,,,5.00000000e-010,-9.90000084e-003
,,,5.25000000e-010,-1.00109383e-002
,,,5.50000000e-010,-1.01203134e-002
,,,5.75000000e-010,-1.02281259e-002
,,,6.00000000e-010,-1.03351571e-002
,,,6.25000000e-010,-1.04382821e-002
,,,6.50000000e-010,-1.05359384e-002
,,,6.75000000e-010,-1.06242196e-002
,,,7.00000000e-010,-1.07000009e-002
,,,7.25000000e-010,-1.06976571e-002
,,,7.50000000e-010,-1.06851571e-002
,,,7.75000000e-010,-1.06648446e-002
,,,8.00000000e-010,-1.06390634e-002
,,,8.25000000e-010,-1.06093759e-002
,,,8.50000000e-010,-1.05765634e-002
,,,8.75000000e-010,-1.05406259e-002
,,,9.00000000e-010,-1.05000009e-002
,,,9.25000000e-010,-1.03937509e-002
,,,9.50000000e-010,-1.02859384e-002
,,,9.75000000e-010,-1.01796884e-002
,,,1.00000000e-009,-1.00765634e-002
,,,1.02500000e-009,-9.97890710e-003
,,,1.05000000e-009,-9.88437584e-003
,,,1.07500000e-009,-9.79296958e-003
,,,1.10000000e-009,-9.70000083e-003
,,,1.12500000e-009,-9.55390707e-003
,,,1.15000000e-009,-9.40000081e-003
,,,1.17500000e-009,-9.23828204e-003
,,,1.20000000e-009,-9.06875078e-003
,,,1.22500000e-009,-8.89062577e-003
,,,1.25000000e-009,-8.70312576e-003
,,,1.27500000e-009,-8.50625074e-003
,,,1.30000000e-009,-8.30000073e-003
,,,1.32500000e-009,-8.05078196e-003
,,,1.35000000e-009,-7.79140694e-003
,,,1.37500000e-009,-7.52656317e-003
,,,1.40000000e-009,-7.26171940e-003
,,,1.42500000e-009,-7.00312564e-003
,,,1.45000000e-009,-6.75390687e-003
,,,1.47500000e-009,-6.51953185e-003
,,,1.50000000e-009,-6.30000059e-003
,,,1.52500000e-009,-6.08359432e-003
,,,1.55000000e-009,-5.87578181e-003
,,,1.57500000e-009,-5.67421929e-003
,,,1.60000000e-009,-5.47656303e-003
,,,1.62500000e-009,-5.28281301e-003
,,,1.65000000e-009,-5.08906300e-003
,,,1.67500000e-009,-4.89531299e-003
,,,1.70000000e-009,-4.70000047e-003
,,,1.72500000e-009,-4.50703171e-003
,,,1.75000000e-009,-4.30546919e-003
,,,1.77500000e-009,-4.09687543e-003
,,,1.80000000e-009,-3.88359416e-003
,,,1.82500000e-009,-3.67265665e-003
,,,1.85000000e-009,-3.46875039e-003
,,,1.87500000e-009,-3.27656287e-003
,,,1.90000000e-009,-3.10000036e-003
,,,1.92500000e-009,-2.95703160e-003
,,,1.95000000e-009,-2.82187534e-003
,,,1.97500000e-009,-2.69375033e-003
,,,2.00000000e-009,-2.57031282e-003
,,,2.02500000e-009,-2.45078156e-003
,,,2.05000000e-009,-2.33281280e-003
,,,2.07500000e-009,-2.21640655e-003
,,,2.10000000e-009,-2.10000029e-003
,,,2.12500000e-009,-2.00390653e-003
,,,2.15000000e-009,-1.89687527e-003
,,,2.17500000e-009,-1.77812527e-003
,,,2.20000000e-009,-1.64843776e-003
,,,2.22500000e-009,-1.51093775e-003
,,,2.25000000e-009,-1.37031274e-003
,,,2.27500000e-009,-1.23125023e-003
,,,2.30000000e-009,-1.10000022e-003
,,,2.32500000e-009,-1.00625021e-003
,,,2.35000000e-009,-9.20312705e-004
,,,2.37500000e-009,-8.44531449e-004
,,,2.40000000e-009,-7.81250195e-004
,,,2.42500000e-009,-7.33593942e-004
,,,2.45000000e-009,-7.03906440e-004
,,,2.47500000e-009,-6.92968939e-004
,,,2.50000000e-009,-7.00000189e-004
,,,2.52500000e-009,-7.42187692e-004
,,,2.55000000e-009,-7.89843946e-004
,,,2.57500000e-009,-8.35156449e-004
,,,2.60000000e-009,-8.74218952e-004
,,,2.62500000e-009,-9.03125204e-004
,,,2.65000000e-009,-9.17968955e-004
,,,2.67500000e-009,-9.17187705e-004
,,,2.70000000e-009,-9.00000203e-004
,,,2.72500000e-009,-8.78906452e-004
,,,2.75000000e-009,-8.40625199e-004
,,,2.77500000e-009,-7.86718945e-004
,,,2.80000000e-009,-7.23437691e-004
,,,2.82500000e-009,-6.57031436e-004
,,,2.85000000e-009,-5.93750182e-004
,,,2.87500000e-009,-5.39843928e-004
,,,2.90000000e-009,-5.00000175e-004
,,,2.92500000e-009,-4.85937674e-004
,,,2.95000000e-009,-4.88281424e-004
,,,2.97500000e-009,-5.04687675e-004
,,,3.00000000e-009,-5.32812677e-004
,,,3.02500000e-009,-5.70312680e-004
,,,3.05000000e-009,-6.13281433e-004
,,,3.07500000e-009,-6.57812686e-004
,,,3.10000000e-009,-7.00000189e-004
,,,3.12500000e-009,-7.38281442e-004
,,,3.15000000e-009,-7.65625194e-004
,,,3.17500000e-009,-7.80468945e-004
,,,3.20000000e-009,-7.83593945e-004
,,,3.22500000e-009,-7.74218944e-004
,,,3.25000000e-009,-7.56250193e-004
,,,3.27500000e-009,-7.30468941e-004
,,,3.30000000e-009,-7.00000189e-004
,,,3.32500000e-009,-6.64843937e-004
,,,3.35000000e-009,-6.28906434e-004
,,,3.37500000e-009,-5.95312682e-004
,,,3.40000000e-009,-5.64843930e-004
,,,3.42500000e-009,-5.39062678e-004
,,,3.45000000e-009,-5.19531426e-004
,,,3.47500000e-009,-5.06250176e-004
,,,3.50000000e-009,-5.00000175e-004
,,,3.52500000e-009,-4.95312675e-004
,,,3.55000000e-009,-4.94531425e-004
,,,3.57500000e-009,-4.96093925e-004
,,,3.60000000e-009,-4.99218925e-004
,,,3.62500000e-009,-5.02343925e-004
,,,3.65000000e-009,-5.04687675e-004
,,,3.67500000e-009,-5.03906425e-004
,,,3.70000000e-009,-5.00000175e-004
,,,3.72500000e-009,-4.89843924e-004
,,,3.75000000e-009,-4.74218923e-004
,,,3.77500000e-009,-4.53125172e-004
,,,3.80000000e-009,-4.27343920e-004
,,,3.82500000e-009,-3.98437668e-004
,,,3.85000000e-009,-3.66406416e-004
,,,3.87500000e-009,-3.32812663e-004
,,,3.90000000e-009,-3.00000161e-004
,,,3.92500000e-009,-2.65625158e-004
,,,3.95000000e-009,-2.32812656e-004
,,,3.97500000e-009,-2.02343904e-004
,,,4.00000000e-009,-1.75781402e-004
,,,4.02500000e-009,-1.52343900e-004
,,,4.05000000e-009,-1.32031399e-004
,,,4.07500000e-009,-1.14843898e-004
,,,4.10000000e-009,-1.00000147e-004
,,,4.12500000e-009,-8.59376458e-005
,,,4.15000000e-009,-7.03126447e-005
,,,4.17500000e-009,-5.31251435e-005
,,,4.20000000e-009,-3.12501419e-005
,,,4.22500000e-009,-5.46889009e-006
,,,4.25000000e-009,2.57811121e-005
,,,4.27500000e-009,6.09373646e-005
,,,4.30000000e-009,9.99998674e-005
,,,4.32500000e-009,1.39843620e-004
,,,4.35000000e-009,1.79687373e-004
,,,4.37500000e-009,2.17968626e-004
,,,4.40000000e-009,2.52343628e-004
,,,4.42500000e-009,2.79687380e-004
,,,4.45000000e-009,2.97656131e-004
,,,4.47500000e-009,3.04687382e-004
,,,4.50000000e-009,2.99999882e-004
,,,4.52500000e-009,2.82031130e-004
,,,4.55000000e-009,2.55468628e-004
,,,4.57500000e-009,2.23437376e-004
,,,4.60000000e-009,1.89062374e-004
,,,4.62500000e-009,1.57031121e-004
,,,4.65000000e-009,1.29687369e-004
,,,4.67500000e-009,1.10156118e-004
,,,4.70000000e-009,9.99998674e-005
,,,4.72500000e-009,9.99998674e-005
,,,4.75000000e-009,1.10937368e-004
,,,4.77500000e-009,1.32031120e-004
,,,4.80000000e-009,1.61718622e-004
,,,4.82500000e-009,1.96874874e-004
,,,4.85000000e-009,2.33593627e-004
,,,4.87500000e-009,2.68749879e-004
,,,4.90000000e-009,2.99999882e-004
,,,4.92500000e-009,3.19531133e-004
,,,4.95000000e-009,3.32031134e-004
,,,4.97500000e-009,3.35937384e-004
,,,5.00000000e-009,3.34374884e-004
,,,5.02500000e-009,3.28124884e-004
,,,5.05000000e-009,3.19531133e-004
,,,5.07500000e-009,3.09374882e-004
,,,5.10000000e-009,2.99999882e-004
,,,5.12500000e-009,2.89843631e-004
,,,5.15000000e-009,2.83593630e-004
,,,5.17500000e-009,2.80468630e-004
,,,5.20000000e-009,2.80468630e-004
,,,5.22500000e-009,2.83593630e-004
,,,5.25000000e-009,2.89062381e-004
,,,5.27500000e-009,2.94531131e-004
,,,5.30000000e-009,2.99999882e-004
,,,5.32500000e-009,3.03906132e-004
,,,5.35000000e-009,3.05468632e-004
,,,5.37500000e-009,3.07031132e-004
,,,5.40000000e-009,3.07031132e-004
,,,5.42500000e-009,3.06249882e-004
,,,5.45000000e-009,3.05468632e-004
,,,5.47500000e-009,3.03124882e-004
,,,5.50000000e-009,2.99999882e-004
,,,5.52500000e-009,2.94531131e-004
,,,5.55000000e-009,2.85156130e-004
,,,5.57500000e-009,2.71874880e-004
,,,5.60000000e-009,2.52343628e-004
,,,5.62500000e-009,2.26562376e-004
,,,5.65000000e-009,1.92187374e-004
,,,5.67500000e-009,1.49999871e-004
,,,5.70000000e-009,9.99998674e-005
,,,5.72500000e-009,4.53123635e-005
,,,5.75000000e-009,-1.32813906e-005
,,,5.77500000e-009,-7.34376449e-005
,,,5.80000000e-009,-1.32031399e-004
,,,5.82500000e-009,-1.86718903e-004
,,,5.85000000e-009,-2.34375156e-004
,,,5.87500000e-009,-2.72656409e-004
,,,5.90000000e-009,-3.00000161e-004
,,,5.92500000e-009,-3.07812661e-004
