RawData/SinglePhotoelectron/L4_2pt2C_5mV/wave000_Ch3.csv

"Record Length",1000,"Points",-7.72500000e-009,-2.15625155e-004
"Sample Interval",2.50000000e-011,s,-7.70000000e-009,-1.87500153e-004
"Trigger Point",309,"Samples",-7.67500000e-009,-1.60937651e-004
"Trigger Time",1.20281301e-011,s,-7.65000000e-009,-1.36718899e-004
"",,,-7.62500000e-009,-1.16406398e-004
"Horizontal Offset",-7.72500000e-009,s,-7.60000000e-009,-1.00000147e-004
,,,-7.57500000e-009,-8.75001459e-005
,,,-7.55000000e-009,-8.04688954e-005
,,,-7.52500000e-009,-7.73438952e-005
,,,-7.50000000e-009,-7.73438952e-005
,,,-7.47500000e-009,-8.12501454e-005
,,,-7.45000000e-009,-8.59376458e-005
,,,-7.42500000e-009,-9.29688963e-005
,,,-7.40000000e-009,-1.00000147e-004
,,,-7.37500000e-009,-1.04687647e-004
,,,-7.35000000e-009,-1.08593897e-004
,,,-7.32500000e-009,-1.10937648e-004
,,,-7.30000000e-009,-1.11718898e-004
,,,-7.27500000e-009,-1.10156397e-004
,,,-7.25000000e-009,-1.07812647e-004
,,,-7.22500000e-009,-1.03906397e-004
,,,-7.20000000e-009,-1.00000147e-004
,,,-7.17500000e-009,-9.60938965e-005
,,,-7.15000000e-009,-9.21876462e-005
,,,-7.12500000e-009,-8.90626460e-005
,,,-7.10000000e-009,-8.67188958e-005
,,,-7.07500000e-009,-8.67188958e-005
,,,-7.05000000e-009,-8.90626460e-005
,,,-7.02500000e-009,-9.29688963e-005
,,,-7.00000000e-009,-1.00000147e-004
,,,-6.97500000e-009,-1.05468897e-004
,,,-6.95000000e-009,-1.10156397e-004
,,,-6.92500000e-009,-1.14062648e-004
,,,-6.90000000e-009,-1.16406398e-004
,,,-6.87500000e-009,-1.17187648e-004
,,,-6.85000000e-009,-1.14062648e-004
,,,-6.82500000e-009,-1.08593897e-004
,,,-6.80000000e-009,-1.00000147e-004
,,,-6.77500000e-009,-8.67188958e-005
,,,-6.75000000e-009,-6.95313946e-005
,,,-6.72500000e-009,-4.76563931e-005
,,,-6.70000000e-009,-2.26563913e-005
,,,-6.67500000e-009,6.24986074e-006
,,,-6.65000000e-009,3.67186129e-005
,,,-6.62500000e-009,6.87498652e-005
,,,-6.60000000e-009,9.99998674e-005
,,,-6.57500000e-009,1.28124869e-004
,,,-6.55000000e-009,1.50781121e-004
,,,-6.52500000e-009,1.66406122e-004
,,,-6.50000000e-009,1.73437373e-004
,,,-6.47500000e-009,1.69531122e-004
,,,-6.45000000e-009,1.55468621e-004
,,,-6.42500000e-009,1.32031120e-004
,,,-6.40000000e-009,9.99998674e-005
,,,-6.37500000e-009,6.40623648e-005
,,,-6.35000000e-009,2.81248623e-005
,,,-6.32500000e-009,-1.56263981e-006
,,,-6.30000000e-009,-1.95313911e-005
,,,-6.27500000e-009,-2.10938912e-005
,,,-6.25000000e-009,-3.12513992e-006
,,,-6.22500000e-009,3.74998630e-005
,,,-6.20000000e-009,9.99998674e-005
,,,-6.17500000e-009,1.80468623e-004
,,,-6.15000000e-009,2.74218630e-004
,,,-6.12500000e-009,3.74218637e-004
,,,-6.10000000e-009,4.72656144e-004
,,,-6.07500000e-009,5.61718650e-004
,,,-6.05000000e-009,6.33593655e-004
,,,-6.02500000e-009,6.81249909e-004
,,,-6.00000000e-009,6.99999910e-004
,,,-5.97500000e-009,6.80468658e-004
,,,-5.95000000e-009,6.32031155e-004
,,,-5.92500000e-009,5.59374900e-004
,,,-5.90000000e-009,4.69531144e-004
,,,-5.87500000e-009,3.70312387e-004
,,,-5.85000000e-009,2.71093629e-004
,,,-5.82500000e-009,1.78906123e-004
,,,-5.80000000e-009,9.99998674e-005
,,,-5.77500000e-009,3.98436131e-005
,,,-5.75000000e-009,1.56236041e-006
,,,-5.72500000e-009,-1.48438907e-005
,,,-5.70000000e-009,-1.17188905e-005
,,,-5.67500000e-009,6.24986074e-006
,,,-5.65000000e-009,3.51561128e-005
,,,-5.62500000e-009,6.79686151e-005
,,,-5.60000000e-009,9.99998674e-005
,,,-5.57500000e-009,1.26562369e-004
,,,-5.55000000e-009,1.44531121e-004
,,,-5.52500000e-009,1.53124871e-004
,,,-5.50000000e-009,1.53124871e-004
,,,-5.47500000e-009,1.46093621e-004
,,,-5.45000000e-009,1.33593620e-004
,,,-5.42500000e-009,1.17968619e-004
,,,-5.40000000e-009,9.99998674e-005
,,,-5.37500000e-009,8.12498661e-005
,,,-5.35000000e-009,6.17186147e-005
,,,-5.32500000e-009,4.21873633e-005
,,,-5.30000000e-009,2.10936118e-005
,,,-5.27500000e-009,-3.12513992e-006
,,,-5.25000000e-009,-3.04688919e-005
,,,-5.22500000e-009,-6.25001441e-005
,,,-5.20000000e-009,-1.00000147e-004
,,,-5.17500000e-009,-1.39062650e-004
,,,-5.15000000e-009,-1.78906402e-004
,,,-5.12500000e-009,-2.18750155e-004
,,,-5.10000000e-009,-2.53125158e-004
,,,-5.07500000e-009,-2.81250160e-004
,,,-5.05000000e-009,-2.99218911e-004
,,,-5.02500000e-009,-3.05468911e-004
,,,-5.00000000e-009,-3.00000161e-004
,,,-4.97500000e-009,-2.77343909e-004
,,,-4.95000000e-009,-2.46875157e-004
,,,-4.92500000e-009,-2.11718905e-004
,,,-4.90000000e-009,-1.75781402e-004
,,,-4.87500000e-009,-1.42968900e-004
,,,-4.85000000e-009,-1.17968898e-004
,,,-4.82500000e-009,-1.02343897e-004
,,,-4.80000000e-009,-1.00000147e-004
,,,-4.77500000e-009,-1.08593897e-004
,,,-4.75000000e-009,-1.28125149e-004
,,,-4.72500000e-009,-1.57812651e-004
,,,-4.70000000e-009,-1.92187653e-004
,,,-4.67500000e-009,-2.27343906e-004
,,,-4.65000000e-009,-2.59375158e-004
,,,-4.62500000e-009,-2.84375160e-004
,,,-4.60000000e-009,-3.00000161e-004
,,,-4.57500000e-009,-3.00781411e-004
,,,-4.55000000e-009,-2.90625160e-004
,,,-4.52500000e-009,-2.69531409e-004
,,,-4.50000000e-009,-2.39843907e-004
,,,-4.47500000e-009,-2.04687654e-004
,,,-4.45000000e-009,-1.67187652e-004
,,,-4.42500000e-009,-1.31250149e-004
,,,-4.40000000e-009,-1.00000147e-004
,,,-4.37500000e-009,-7.26563948e-005
,,,-4.35000000e-009,-5.46876436e-005
,,,-4.32500000e-009,-4.53126429e-005
,,,-4.30000000e-009,-4.53126429e-005
,,,-4.27500000e-009,-5.23438934e-005
,,,-4.25000000e-009,-6.48438943e-005
,,,-4.22500000e-009,-8.12501454e-005
,,,-4.20000000e-009,-1.00000147e-004
,,,-4.17500000e-009,-1.16406398e-004
,,,-4.15000000e-009,-1.30468899e-004
,,,-4.12500000e-009,-1.39843900e-004
,,,-4.10000000e-009,-1.42968900e-004
,,,-4.07500000e-009,-1.40625150e-004
,,,-4.05000000e-009,-1.31250149e-004
,,,-4.02500000e-009,-1.17187648e-004
,,,-4.00000000e-009,-1.00000147e-004
,,,-3.97500000e-009,-7.96876453e-005
,,,-3.95000000e-009,-6.09376440e-005
,,,-3.92500000e-009,-4.53126429e-005
,,,-3.90000000e-009,-3.67188923e-005
,,,-3.87500000e-009,-3.59376422e-005
,,,-3.85000000e-009,-4.60938930e-005
,,,-3.82500000e-009,-6.71876445e-005
,,,-3.80000000e-009,-1.00000147e-004
,,,-3.77500000e-009,-1.38281399e-004
,,,-3.75000000e-009,-1.81250153e-004
,,,-3.72500000e-009,-2.24218906e-004
,,,-3.70000000e-009,-2.63281408e-004
,,,-3.67500000e-009,-2.94531411e-004
,,,-3.65000000e-009,-3.12500162e-004
,,,-3.62500000e-009,-3.14843912e-004
,,,-3.60000000e-009,-3.00000161e-004
,,,-3.57500000e-009,-2.64843908e-004
,,,-3.55000000e-009,-2.15625155e-004
,,,-3.52500000e-009,-1.56250151e-004
,,,-3.50000000e-009,-9.21876462e-005
,,,-3.47500000e-009,-2.81251417e-005
,,,-3.45000000e-009,2.81248623e-005
,,,-3.42500000e-009,7.18748654e-005
,,,-3.40000000e-009,9.99998674e-005
,,,-3.37500000e-009,1.10156118e-004
,,,-3.35000000e-009,1.02343618e-004
,,,-3.32500000e-009,7.89061159e-005
,,,-3.30000000e-009,4.45311135e-005
,,,-3.27500000e-009,4.68736063e-006
,,,-3.25000000e-009,-3.59376422e-005
,,,-3.22500000e-009,-7.26563948e-005
,,,-3.20000000e-009,-1.00000147e-004
,,,-3.17500000e-009,-1.14062648e-004
,,,-3.15000000e-009,-1.14843898e-004
,,,-3.12500000e-009,-1.00781397e-004
,,,-3.10000000e-009,-7.50001450e-005
,,,-3.07500000e-009,-3.82813924e-005
,,,-3.05000000e-009,5.46861069e-006
,,,-3.02500000e-009,5.23436140e-005
,,,-3.00000000e-009,9.99998674e-005
,,,-2.97500000e-009,1.44531121e-004
,,,-2.95000000e-009,1.83593623e-004
,,,-2.92500000e-009,2.17187376e-004
,,,-2.90000000e-009,2.43749878e-004
,,,-2.87500000e-009,2.64843629e-004
,,,-2.85000000e-009,2.80468630e-004
,,,-2.82500000e-009,2.92187381e-004
,,,-2.80000000e-009,2.99999882e-004
,,,-2.77500000e-009,3.02343632e-004
,,,-2.75000000e-009,3.02343632e-004
,,,-2.72500000e-009,3.02343632e-004
,,,-2.70000000e-009,3.02343632e-004
,,,-2.67500000e-009,3.02343632e-004
,,,-2.65000000e-009,3.02343632e-004
,,,-2.62500000e-009,3.02343632e-004
,,,-2.60000000e-009,2.99999882e-004
,,,-2.57500000e-009,2.91406131e-004
,,,-2.55000000e-009,2.78906130e-004
,,,-2.52500000e-009,2.61718629e-004
,,,-2.50000000e-009,2.40624877e-004
,,,-2.47500000e-009,2.13281125e-004
,,,-2.45000000e-009,1.80468623e-004
,,,-2.42500000e-009,1.42968620e-004
,,,-2.40000000e-009,9.99998674e-005
,,,-2.37500000e-009,5.39061141e-005
,,,-2.35000000e-009,7.81236085e-006
,,,-2.32500000e-009,-3.43751421e-005
,,,-2.30000000e-009,-7.03126447e-005
,,,-2.27500000e-009,-9.68751466e-005
,,,-2.25000000e-009,-1.10937648e-004
,,,-2.22500000e-009,-1.12500148e-004
,,,-2.20000000e-009,-1.00000147e-004
,,,-2.17500000e-009,-7.42188950e-005
,,,-2.15000000e-009,-3.90626425e-005
,,,-2.12500000e-009,-1.39698386e-010
,,,-2.10000000e-009,3.98436131e-005
,,,-2.07500000e-009,7.34373655e-005
,,,-2.05000000e-009,9.76561172e-005
,,,-2.02500000e-009,1.07031118e-004
,,,-2.00000000e-009,9.99998674e-005
,,,-1.97500000e-009,7.42186156e-005
,,,-1.95000000e-009,3.28123626e-005
,,,-1.92500000e-009,-2.18751412e-005
,,,-1.90000000e-009,-8.35938956e-005
,,,-1.87500000e-009,-1.46875150e-004
,,,-1.85000000e-009,-2.07031404e-004
,,,-1.82500000e-009,-2.59375158e-004
,,,-1.80000000e-009,-3.00000161e-004
,,,-1.77500000e-009,-3.25000163e-004
,,,-1.75000000e-009,-3.36718914e-004
,,,-1.72500000e-009,-3.37500164e-004
,,,-1.70000000e-009,-3.31250163e-004
,,,-1.67500000e-009,-3.20312662e-004
,,,-1.65000000e-009,-3.09375162e-004
,,,-1.62500000e-009,-3.01562661e-004
,,,-1.60000000e-009,-3.00000161e-004
,,,-1.57500000e-009,-3.06250161e-004
,,,-1.55000000e-009,-3.18750162e-004
,,,-1.52500000e-009,-3.34375163e-004
,,,-1.50000000e-009,-3.49218914e-004
,,,-1.47500000e-009,-3.57031415e-004
,,,-1.45000000e-009,-3.53125165e-004
,,,-1.42500000e-009,-3.35156413e-004
,,,-1.40000000e-009,-3.00000161e-004
,,,-1.37500000e-009,-2.57031408e-004
,,,-1.35000000e-009,-2.03906404e-004
,,,-1.32500000e-009,-1.42968900e-004
,,,-1.30000000e-009,-7.89063953e-005
,,,-1.27500000e-009,-1.79688910e-005
,,,-1.25000000e-009,3.59373628e-005
,,,-1.22500000e-009,7.65623657e-005
,,,-1.20000000e-009,9.99998674e-005
,,,-1.17500000e-009,8.59373664e-005
,,,-1.15000000e-009,5.07811139e-005
,,,-1.12500000e-009,-7.81389754e-007
,,,-1.10000000e-009,-6.40626442e-005
,,,-1.07500000e-009,-1.32031399e-004
,,,-1.05000000e-009,-1.96875154e-004
,,,-1.02500000e-009,-2.54687658e-004
,,,-1.00000000e-009,-3.00000161e-004
,,,-9.75000000e-010,-3.52343915e-004
,,,-9.50000000e-010,-3.93750168e-004
,,,-9.25000000e-010,-4.25000170e-004
,,,-9.00000000e-010,-4.46093921e-004
,,,-8.75000000e-010,-4.60937672e-004
,,,-8.50000000e-010,-4.71875173e-004
,,,-8.25000000e-010,-4.82812674e-004
,,,-8.00000000e-010,-5.00000175e-004
,,,-7.75000000e-010,-5.52343929e-004
,,,-7.50000000e-010,-6.21875184e-004
,,,-7.25000000e-010,-7.07031440e-004
,,,-7.00000000e-010,-8.07031447e-004
,,,-6.75000000e-010,-9.19531455e-004
,,,-6.50000000e-010,-1.04062521e-003
,,,-6.25000000e-010,-1.16796897e-003
,,,-6.00000000e-010,-1.30000023e-003
,,,-5.75000000e-010,-1.45078149e-003
,,,-5.50000000e-010,-1.60546900e-003
,,,-5.25000000e-010,-1.76015651e-003
,,,-5.00000000e-010,-1.91484403e-003
,,,-4.75000000e-010,-2.06640654e-003
,,,-4.50000000e-010,-2.21484405e-003
,,,-4.25000000e-010,-2.35859406e-003
,,,-4.00000000e-010,-2.50000032e-003
,,,-3.75000000e-010,-2.64296908e-003
,,,-3.50000000e-010,-2.78750034e-003
,,,-3.25000000e-010,-2.93437535e-003
,,,-3.00000000e-010,-3.08281286e-003
,,,-2.75000000e-010,-3.23359412e-003
,,,-2.50000000e-010,-3.38671913e-003
,,,-2.25000000e-010,-3.54140664e-003
,,,-2.00000000e-010,-3.70000040e-003
,,,-1.75000000e-010,-3.85000041e-003
,,,-1.50000000e-010,-4.00781292e-003
,,,-1.25000000e-010,-4.17343794e-003
,,,-1.00000000e-010,-4.34765670e-003
,,,-7.50000000e-011,-4.52968796e-003
,,,-5.00000000e-011,-4.71718797e-003
,,,-2.50000000e-011,-4.90781299e-003
,,,0.00000000e+000,-5.10000050e-003
,,,2.50000000e-011,-5.26093801e-003
,,,5.00000000e-011,-5.41796927e-003
,,,7.50000000e-011,-5.56718803e-003
,,,1.00000000e-010,-5.70625054e-003
,,,1.25000000e-010,-5.83203180e-003
,,,1.50000000e-010,-5.94140681e-003
,,,1.75000000e-010,-6.03125057e-003
,,,2.00000000e-010,-6.10000057e-003
,,,2.25000000e-010,-6.10937557e-003
,,,2.50000000e-010,-6.10156307e-003
,,,2.75000000e-010,-6.08046932e-003
,,,3.00000000e-010,-6.05078182e-003
,,,3.25000000e-010,-6.01484432e-003
,,,3.50000000e-010,-5.97656306e-003
,,,3.75000000e-010,-5.93750056e-003
,,,4.00000000e-010,-5.90000056e-003
,,,4.25000000e-010,-5.82968805e-003
,,,4.50000000e-010,-5.76640680e-003
,,,4.75000000e-010,-5.71093804e-003
,,,5.00000000e-010,-5.66250054e-003
,,,5.25000000e-010,-5.62031304e-003
,,,5.50000000e-010,-5.58125053e-003
,,,5.75000000e-010,-5.54218803e-003
,,,6.00000000e-010,-5.50000053e-003
,,,6.25000000e-010,-5.42187552e-003
,,,6.50000000e-010,-5.33671927e-003
,,,6.75000000e-010,-5.24531301e-003
,,,7.00000000e-010,-5.14687550e-003
,,,7.25000000e-010,-5.04296925e-003
,,,7.50000000e-010,-4.93281299e-003
,,,7.75000000e-010,-4.81796923e-003
,,,8.00000000e-010,-4.70000047e-003
,,,8.25000000e-010,-4.56015671e-003
,,,8.50000000e-010,-4.41953170e-003
,,,8.75000000e-010,-4.28125044e-003
,,,9.00000000e-010,-4.14843793e-003
,,,9.25000000e-010,-4.02265667e-003
,,,9.50000000e-010,-3.90468792e-003
,,,9.75000000e-010,-3.79687541e-003
,,,1.00000000e-009,-3.70000040e-003
,,,1.02500000e-009,-3.60546914e-003
,,,1.05000000e-009,-3.51796914e-003
,,,1.07500000e-009,-3.43593788e-003
,,,1.10000000e-009,-3.36015663e-003
,,,1.12500000e-009,-3.28984412e-003
,,,1.15000000e-009,-3.22343787e-003
,,,1.17500000e-009,-3.16093786e-003
,,,1.20000000e-009,-3.10000036e-003
,,,1.22500000e-009,-3.04140660e-003
,,,1.25000000e-009,-2.97812535e-003
,,,1.27500000e-009,-2.90859410e-003
,,,1.30000000e-009,-2.83437534e-003
,,,1.32500000e-009,-2.75390658e-003
,,,1.35000000e-009,-2.67109408e-003
,,,1.37500000e-009,-2.58515657e-003
,,,1.40000000e-009,-2.50000032e-003
,,,1.42500000e-009,-2.42109406e-003
,,,1.45000000e-009,-2.34140656e-003
,,,1.47500000e-009,-2.26015655e-003
,,,1.50000000e-009,-2.18046904e-003
,,,1.52500000e-009,-2.10234404e-003
,,,1.55000000e-009,-2.02890653e-003
,,,1.57500000e-009,-1.96171903e-003
,,,1.60000000e-009,-1.90000027e-003
,,,1.62500000e-009,-1.85312527e-003
,,,1.65000000e-009,-1.80703152e-003
,,,1.67500000e-009,-1.76093776e-003
,,,1.70000000e-009,-1.71250026e-003
,,,1.72500000e-009,-1.66250026e-003
,,,1.75000000e-009,-1.61015650e-003
,,,1.77500000e-009,-1.55546900e-003
,,,1.80000000e-009,-1.50000025e-003
,,,1.82500000e-009,-1.45000024e-003
,,,1.85000000e-009,-1.39687524e-003
,,,1.87500000e-009,-1.33984398e-003
,,,1.90000000e-009,-1.28281273e-003
,,,1.92500000e-009,-1.22734398e-003
,,,1.95000000e-009,-1.17734397e-003
,,,1.97500000e-009,-1.13359397e-003
,,,2.00000000e-009,-1.10000022e-003
,,,2.02500000e-009,-1.08203147e-003
,,,2.05000000e-009,-1.07109397e-003
,,,2.07500000e-009,-1.06640647e-003
,,,2.10000000e-009,-1.06640647e-003
,,,2.12500000e-009,-1.07109397e-003
,,,2.15000000e-009,-1.07890647e-003
,,,2.17500000e-009,-1.08906272e-003
,,,2.20000000e-009,-1.10000022e-003
,,,2.22500000e-009,-1.11406272e-003
,,,2.25000000e-009,-1.12421897e-003
,,,2.27500000e-009,-1.12890647e-003
,,,2.30000000e-009,-1.12968772e-003
,,,2.32500000e-009,-1.12578147e-003
,,,2.35000000e-009,-1.11875022e-003
,,,2.37500000e-009,-1.11015647e-003
,,,2.40000000e-009,-1.10000022e-003
,,,2.42500000e-009,-1.08984397e-003
,,,2.45000000e-009,-1.07656272e-003
,,,2.47500000e-009,-1.05937521e-003
,,,2.50000000e-009,-1.03671896e-003
,,,2.52500000e-009,-1.01015646e-003
,,,2.55000000e-009,-9.78125209e-004
,,,2.57500000e-009,-9.41406456e-004
,,,2.60000000e-009,-9.00000203e-004
,,,2.62500000e-009,-8.53906450e-004
,,,2.65000000e-009,-8.03906447e-004
,,,2.67500000e-009,-7.50000193e-004
,,,2.70000000e-009,-6.95312689e-004
,,,2.72500000e-009,-6.41406435e-004
,,,2.75000000e-009,-5.89843931e-004
,,,2.77500000e-009,-5.42187678e-004
,,,2.80000000e-009,-5.00000175e-004
,,,2.82500000e-009,-4.64062673e-004
,,,2.85000000e-009,-4.32812670e-004
,,,2.87500000e-009,-4.05468918e-004
,,,2.90000000e-009,-3.81250167e-004
,,,2.92500000e-009,-3.58593915e-004
,,,2.95000000e-009,-3.37500164e-004
,,,2.97500000e-009,-3.17968912e-004
,,,3.00000000e-009,-3.00000161e-004
,,,3.02500000e-009,-2.83593910e-004
,,,3.05000000e-009,-2.69531409e-004
,,,3.07500000e-009,-2.58593908e-004
,,,3.10000000e-009,-2.51562658e-004
,,,3.12500000e-009,-2.51562658e-004
,,,3.15000000e-009,-2.58593908e-004
,,,3.17500000e-009,-2.75000159e-004
,,,3.20000000e-009,-3.00000161e-004
,,,3.22500000e-009,-3.32812663e-004
,,,3.25000000e-009,-3.69531416e-004
,,,3.27500000e-009,-4.07031419e-004
,,,3.30000000e-009,-4.42187671e-004
,,,3.32500000e-009,-4.71875173e-004
,,,3.35000000e-009,-4.92968925e-004
,,,3.37500000e-009,-5.03125175e-004
,,,3.40000000e-009,-5.00000175e-004
,,,3.42500000e-009,-4.82812674e-004
,,,3.45000000e-009,-4.51562672e-004
,,,3.47500000e-009,-4.07812669e-004
,,,3.50000000e-009,-3.53125165e-004
,,,3.52500000e-009,-2.91406410e-004
,,,3.55000000e-009,-2.26562656e-004
,,,3.57500000e-009,-1.61718901e-004
,,,3.60000000e-009,-1.00000147e-004
,,,3.62500000e-009,-4.68751430e-005
,,,3.65000000e-009,-2.34388986e-006
,,,3.67500000e-009,3.35936127e-005
,,,3.70000000e-009,6.09373646e-005
,,,3.72500000e-009,8.04686160e-005
,,,3.75000000e-009,9.21873668e-005
,,,3.77500000e-009,9.84373673e-005
,,,3.80000000e-009,9.99998674e-005
,,,3.82500000e-009,9.53123670e-005
,,,3.85000000e-009,8.90623666e-005
,,,3.87500000e-009,8.35936162e-005
,,,3.90000000e-009,8.04686160e-005
,,,3.92500000e-009,8.04686160e-005
,,,3.95000000e-009,8.43748663e-005
,,,3.97500000e-009,9.06248667e-005
,,,4.00000000e-009,9.99998674e-005
,,,4.02500000e-009,1.07031118e-004
,,,4.05000000e-009,1.14062368e-004
,,,4.07500000e-009,1.20312369e-004
,,,4.10000000e-009,1.24999869e-004
,,,4.12500000e-009,1.25781119e-004
,,,4.15000000e-009,1.22656119e-004
,,,4.17500000e-009,1.14062368e-004
,,,4.20000000e-009,9.99998674e-005
,,,4.22500000e-009,7.73436158e-005
,,,4.25000000e-009,4.99998638e-005
,,,4.27500000e-009,2.03123617e-005
,,,4.30000000e-009,-1.01563904e-005
,,,4.32500000e-009,-3.82813924e-005
,,,4.35000000e-009,-6.40626442e-005
,,,4.37500000e-009,-8.43751457e-005
,,,4.40000000e-009,-1.00000147e-004
,,,4.42500000e-009,-1.12500148e-004
,,,4.45000000e-009,-1.19531398e-004
,,,4.47500000e-009,-1.21093898e-004
,,,4.50000000e-009,-1.18750148e-004
,,,4.52500000e-009,-1.13281398e-004
,,,4.55000000e-009,-1.07031397e-004
,,,4.57500000e-009,-1.01562647e-004
,,,4.60000000e-009,-1.00000147e-004
,,,4.62500000e-009,-1.03906397e-004
,,,4.65000000e-009,-1.14843898e-004
,,,4.67500000e-009,-1.32031399e-004
,,,4.70000000e-009,-1.56250151e-004
,,,4.72500000e-009,-1.85937653e-004
,,,4.75000000e-009,-2.20312655e-004
,,,4.77500000e-009,-2.59375158e-004
,,,4.80000000e-009,-3.00000161e-004
,,,4.82500000e-009,-3.39062664e-004
,,,4.85000000e-009,-3.76562666e-004
,,,4.87500000e-009,-4.10937669e-004
,,,4.90000000e-009,-4.40625171e-004
,,,4.92500000e-009,-4.64843923e-004
,,,4.95000000e-009,-4.82812674e-004
,,,4.97500000e-009,-4.94531425e-004
,,,5.00000000e-009,-5.00000175e-004
,,,5.02500000e-009,-4.95312675e-004
,,,5.05000000e-009,-4.88281424e-004
,,,5.07500000e-009,-4.79687674e-004
,,,5.10000000e-009,-4.72656423e-004
,,,5.12500000e-009,-4.70312673e-004
,,,5.15000000e-009,-4.72656423e-004
,,,5.17500000e-009,-4.82031424e-004
,,,5.20000000e-009,-5.00000175e-004
,,,5.22500000e-009,-5.20312677e-004
,,,5.25000000e-009,-5.47656428e-004
,,,5.27500000e-009,-5.78906431e-004
,,,5.30000000e-009,-6.10937683e-004
,,,5.32500000e-009,-6.42187685e-004
,,,5.35000000e-009,-6.69531437e-004
,,,5.37500000e-009,-6.89062688e-004
,,,5.40000000e-009,-7.00000189e-004
,,,5.42500000e-009,-6.92968939e-004
,,,5.45000000e-009,-6.76562688e-004
,,,5.47500000e-009,-6.51562686e-004
,,,5.50000000e-009,-6.21875184e-004
,,,5.52500000e-009,-5.89062681e-004
,,,5.55000000e-009,-5.56250179e-004
,,,5.57500000e-009,-5.25781427e-004
,,,5.60000000e-009,-5.00000175e-004
,,,5.62500000e-009,-4.73437673e-004
,,,5.65000000e-009,-4.50781422e-004
,,,5.67500000e-009,-4.31250170e-004
,,,5.70000000e-009,-4.12500169e-004
,,,5.72500000e-009,-3.91406417e-004
,,,5.75000000e-009,-3.66406416e-004
,,,5.77500000e-009,-3.35937663e-004
,,,5.80000000e-009,-3.00000161e-004
,,,5.82500000e-009,-2.57031408e-004
,,,5.85000000e-009,-2.12500155e-004
,,,5.87500000e-009,-1.69531402e-004
,,,5.90000000e-009,-1.31250149e-004
