RawData/SinglePhotoelectron/L4_2pt2C_5mV/wave007_Ch3.csv

"Record Length",1000,"Points",-7.72500000e-009,9.99998674e-005
"Sample Interval",2.50000000e-011,s,-7.70000000e-009,1.02343618e-004
"Trigger Point",309,"Samples",-7.67500000e-009,1.07031118e-004
"Trigger Time",2.10341700e-011,s,-7.65000000e-009,1.14062368e-004
"",,,-7.62500000e-009,1.20312369e-004
"Horizontal Offset",-7.72500000e-009,s,-7.60000000e-009,1.24999869e-004
,,,-7.57500000e-009,1.24218619e-004
,,,-7.55000000e-009,1.17187369e-004
,,,-7.52500000e-009,9.99998674e-005
,,,-7.50000000e-009,7.10936153e-005
,,,-7.47500000e-009,3.20311126e-005
,,,-7.45000000e-009,-1.48438907e-005
,,,-7.42500000e-009,-6.79688945e-005
,,,-7.40000000e-009,-1.25781399e-004
,,,-7.37500000e-009,-1.85156403e-004
,,,-7.35000000e-009,-2.43750157e-004
,,,-7.32500000e-009,-3.00000161e-004
,,,-7.30000000e-009,-3.48437664e-004
,,,-7.27500000e-009,-3.90625167e-004
,,,-7.25000000e-009,-4.25000170e-004
,,,-7.22500000e-009,-4.51562672e-004
,,,-7.20000000e-009,-4.71875173e-004
,,,-7.17500000e-009,-4.85156424e-004
,,,-7.15000000e-009,-4.94531425e-004
,,,-7.12500000e-009,-5.00000175e-004
,,,-7.10000000e-009,-4.97656425e-004
,,,-7.07500000e-009,-4.94531425e-004
,,,-7.05000000e-009,-4.90625174e-004
,,,-7.02500000e-009,-4.88281424e-004
,,,-7.00000000e-009,-4.87500174e-004
,,,-6.97500000e-009,-4.89062674e-004
,,,-6.95000000e-009,-4.93750175e-004
,,,-6.92500000e-009,-5.00000175e-004
,,,-6.90000000e-009,-5.02343925e-004
,,,-6.87500000e-009,-5.05468925e-004
,,,-6.85000000e-009,-5.09375176e-004
,,,-6.82500000e-009,-5.12500176e-004
,,,-6.80000000e-009,-5.13281426e-004
,,,-6.77500000e-009,-5.12500176e-004
,,,-6.75000000e-009,-5.07812676e-004
,,,-6.72500000e-009,-5.00000175e-004
,,,-6.70000000e-009,-4.82812674e-004
,,,-6.67500000e-009,-4.61718922e-004
,,,-6.65000000e-009,-4.38281421e-004
,,,-6.62500000e-009,-4.12500169e-004
,,,-6.60000000e-009,-3.84375167e-004
,,,-6.57500000e-009,-3.56250165e-004
,,,-6.55000000e-009,-3.28125163e-004
,,,-6.52500000e-009,-3.00000161e-004
,,,-6.50000000e-009,-2.67968909e-004
,,,-6.47500000e-009,-2.38281407e-004
,,,-6.45000000e-009,-2.10937655e-004
,,,-6.42500000e-009,-1.85156403e-004
,,,-6.40000000e-009,-1.61718901e-004
,,,-6.37500000e-009,-1.39843900e-004
,,,-6.35000000e-009,-1.19531398e-004
,,,-6.32500000e-009,-1.00000147e-004
,,,-6.30000000e-009,-7.96876453e-005
,,,-6.27500000e-009,-5.85938938e-005
,,,-6.25000000e-009,-3.59376422e-005
,,,-6.22500000e-009,-1.17188905e-005
,,,-6.20000000e-009,1.48436114e-005
,,,-6.17500000e-009,4.29686133e-005
,,,-6.15000000e-009,7.18748654e-005
,,,-6.12500000e-009,9.99998674e-005
,,,-6.10000000e-009,1.25781119e-004
,,,-6.07500000e-009,1.47656121e-004
,,,-6.05000000e-009,1.63281122e-004
,,,-6.02500000e-009,1.71874872e-004
,,,-6.00000000e-009,1.70312372e-004
,,,-5.97500000e-009,1.58593622e-004
,,,-5.95000000e-009,1.34374870e-004
,,,-5.92500000e-009,9.99998674e-005
,,,-5.90000000e-009,5.62498643e-005
,,,-5.87500000e-009,8.59361091e-006
,,,-5.85000000e-009,-3.82813924e-005
,,,-5.82500000e-009,-7.81251452e-005
,,,-5.80000000e-009,-1.07812647e-004
,,,-5.77500000e-009,-1.22656398e-004
,,,-5.75000000e-009,-1.20312648e-004
,,,-5.72500000e-009,-1.00000147e-004
,,,-5.70000000e-009,-6.32813942e-005
,,,-5.67500000e-009,-1.17188905e-005
,,,-5.65000000e-009,4.92186138e-005
,,,-5.62500000e-009,1.14062368e-004
,,,-5.60000000e-009,1.77343623e-004
,,,-5.57500000e-009,2.32812377e-004
,,,-5.55000000e-009,2.74999880e-004
,,,-5.52500000e-009,2.99999882e-004
,,,-5.50000000e-009,3.04687382e-004
,,,-5.47500000e-009,2.91406131e-004
,,,-5.45000000e-009,2.64843629e-004
,,,-5.42500000e-009,2.28124876e-004
,,,-5.40000000e-009,1.89062374e-004
,,,-5.37500000e-009,1.50781121e-004
,,,-5.35000000e-009,1.20312369e-004
,,,-5.32500000e-009,9.99998674e-005
,,,-5.30000000e-009,9.45311170e-005
,,,-5.27500000e-009,1.03906118e-004
,,,-5.25000000e-009,1.26562369e-004
,,,-5.22500000e-009,1.59374872e-004
,,,-5.20000000e-009,1.97656124e-004
,,,-5.17500000e-009,2.37499877e-004
,,,-5.15000000e-009,2.72656130e-004
,,,-5.12500000e-009,2.99999882e-004
,,,-5.10000000e-009,3.14843633e-004
,,,-5.07500000e-009,3.14843633e-004
,,,-5.05000000e-009,3.02343632e-004
,,,-5.02500000e-009,2.76562380e-004
,,,-5.00000000e-009,2.40624877e-004
,,,-4.97500000e-009,1.96874874e-004
,,,-4.95000000e-009,1.49218621e-004
,,,-4.92500000e-009,9.99998674e-005
,,,-4.90000000e-009,5.46873642e-005
,,,-4.87500000e-009,1.32811112e-005
,,,-4.85000000e-009,-2.18751412e-005
,,,-4.82500000e-009,-5.07813933e-005
,,,-4.80000000e-009,-7.26563948e-005
,,,-4.77500000e-009,-8.75001459e-005
,,,-4.75000000e-009,-9.68751466e-005
,,,-4.72500000e-009,-1.00000147e-004
,,,-4.70000000e-009,-9.68751466e-005
,,,-4.67500000e-009,-8.75001459e-005
,,,-4.65000000e-009,-7.26563948e-005
,,,-4.62500000e-009,-5.07813933e-005
,,,-4.60000000e-009,-2.18751412e-005
,,,-4.57500000e-009,1.32811112e-005
,,,-4.55000000e-009,5.46873642e-005
,,,-4.52500000e-009,9.99998674e-005
,,,-4.50000000e-009,1.49218621e-004
,,,-4.47500000e-009,1.96874874e-004
,,,-4.45000000e-009,2.40624877e-004
,,,-4.42500000e-009,2.76562380e-004
,,,-4.40000000e-009,3.02343632e-004
,,,-4.37500000e-009,3.14843633e-004
,,,-4.35000000e-009,3.14843633e-004
,,,-4.32500000e-009,2.99999882e-004
,,,-4.30000000e-009,2.71093629e-004
,,,-4.27500000e-009,2.33593627e-004
,,,-4.25000000e-009,1.92187374e-004
,,,-4.22500000e-009,1.52343621e-004
,,,-4.20000000e-009,1.19531119e-004
,,,-4.17500000e-009,9.84373673e-005
,,,-4.15000000e-009,9.14061168e-005
,,,-4.12500000e-009,9.99998674e-005
,,,-4.10000000e-009,1.24999869e-004
,,,-4.07500000e-009,1.61718622e-004
,,,-4.05000000e-009,2.04687375e-004
,,,-4.02500000e-009,2.46874878e-004
,,,-4.00000000e-009,2.83593630e-004
,,,-3.97500000e-009,3.07031132e-004
,,,-3.95000000e-009,3.14062383e-004
,,,-3.92500000e-009,2.99999882e-004
,,,-3.90000000e-009,2.64843629e-004
,,,-3.87500000e-009,2.13281125e-004
,,,-3.85000000e-009,1.49218621e-004
,,,-3.82500000e-009,8.04686160e-005
,,,-3.80000000e-009,1.48436114e-005
,,,-3.77500000e-009,-4.06251426e-005
,,,-3.75000000e-009,-8.04688954e-005
,,,-3.72500000e-009,-1.00000147e-004
,,,-3.70000000e-009,-9.68751466e-005
,,,-3.67500000e-009,-7.50001450e-005
,,,-3.65000000e-009,-3.90626425e-005
,,,-3.62500000e-009,4.68736063e-006
,,,-3.60000000e-009,4.76561137e-005
,,,-3.57500000e-009,8.20311161e-005
,,,-3.55000000e-009,1.01562367e-004
,,,-3.52500000e-009,9.99998674e-005
,,,-3.50000000e-009,7.57811157e-005
,,,-3.47500000e-009,3.12498625e-005
,,,-3.45000000e-009,-2.96876418e-005
,,,-3.42500000e-009,-9.84376467e-005
,,,-3.40000000e-009,-1.67968902e-004
,,,-3.37500000e-009,-2.29687656e-004
,,,-3.35000000e-009,-2.75000159e-004
,,,-3.32500000e-009,-3.00000161e-004
,,,-3.30000000e-009,-2.96875161e-004
,,,-3.27500000e-009,-2.71093909e-004
,,,-3.25000000e-009,-2.24218906e-004
,,,-3.22500000e-009,-1.62500151e-004
,,,-3.20000000e-009,-9.21876462e-005
,,,-3.17500000e-009,-2.10938912e-005
,,,-3.15000000e-009,4.53123635e-005
,,,-3.12500000e-009,9.99998674e-005
,,,-3.10000000e-009,1.37499870e-004
,,,-3.07500000e-009,1.57812371e-004
,,,-3.05000000e-009,1.62499872e-004
,,,-3.02500000e-009,1.55468621e-004
,,,-3.00000000e-009,1.41406120e-004
,,,-2.97500000e-009,1.24218619e-004
,,,-2.95000000e-009,1.09374868e-004
,,,-2.92500000e-009,9.99998674e-005
,,,-2.90000000e-009,9.76561172e-005
,,,-2.87500000e-009,1.00781117e-004
,,,-2.85000000e-009,1.09374868e-004
,,,-2.82500000e-009,1.19531119e-004
,,,-2.80000000e-009,1.27343619e-004
,,,-2.77500000e-009,1.28906119e-004
,,,-2.75000000e-009,1.21093619e-004
,,,-2.72500000e-009,9.99998674e-005
,,,-2.70000000e-009,6.64061150e-005
,,,-2.67500000e-009,2.03123617e-005
,,,-2.65000000e-009,-3.43751421e-005
,,,-2.62500000e-009,-9.37501463e-005
,,,-2.60000000e-009,-1.54687651e-004
,,,-2.57500000e-009,-2.10937655e-004
,,,-2.55000000e-009,-2.60937658e-004
,,,-2.52500000e-009,-3.00000161e-004
,,,-2.50000000e-009,-3.21093912e-004
,,,-2.47500000e-009,-3.29687663e-004
,,,-2.45000000e-009,-3.28125163e-004
,,,-2.42500000e-009,-3.20312662e-004
,,,-2.40000000e-009,-3.09375162e-004
,,,-2.37500000e-009,-3.00000161e-004
,,,-2.35000000e-009,-2.96093911e-004
,,,-2.32500000e-009,-3.00000161e-004
,,,-2.30000000e-009,-3.10937662e-004
,,,-2.27500000e-009,-3.31250163e-004
,,,-2.25000000e-009,-3.58593915e-004
,,,-2.22500000e-009,-3.90625167e-004
,,,-2.20000000e-009,-4.24218920e-004
,,,-2.17500000e-009,-4.56250172e-004
,,,-2.15000000e-009,-4.82031424e-004
,,,-2.12500000e-009,-5.00000175e-004
,,,-2.10000000e-009,-5.00000175e-004
,,,-2.07500000e-009,-4.89062674e-004
,,,-2.05000000e-009,-4.68750173e-004
,,,-2.02500000e-009,-4.40625171e-004
,,,-2.00000000e-009,-4.07031419e-004
,,,-1.97500000e-009,-3.71875166e-004
,,,-1.95000000e-009,-3.35156413e-004
,,,-1.92500000e-009,-3.00000161e-004
,,,-1.90000000e-009,-2.60937658e-004
,,,-1.87500000e-009,-2.22656405e-004
,,,-1.85000000e-009,-1.82812653e-004
,,,-1.82500000e-009,-1.40625150e-004
,,,-1.80000000e-009,-9.21876462e-005
,,,-1.77500000e-009,-3.67188923e-005
,,,-1.75000000e-009,2.73436122e-005
,,,-1.72500000e-009,9.99998674e-005
,,,-1.70000000e-009,1.78906123e-004
,,,-1.67500000e-009,2.59374879e-004
,,,-1.65000000e-009,3.35937384e-004
,,,-1.62500000e-009,4.04687389e-004
,,,-1.60000000e-009,4.59374893e-004
,,,-1.57500000e-009,4.95312395e-004
,,,-1.55000000e-009,5.09374896e-004
,,,-1.52500000e-009,4.99999896e-004
,,,-1.50000000e-009,4.60156143e-004
,,,-1.47500000e-009,4.03124889e-004
,,,-1.45000000e-009,3.34374884e-004
,,,-1.42500000e-009,2.62499879e-004
,,,-1.40000000e-009,1.96093624e-004
,,,-1.37500000e-009,1.42968620e-004
,,,-1.35000000e-009,1.10156118e-004
,,,-1.32500000e-009,9.99998674e-005
,,,-1.30000000e-009,1.07031118e-004
,,,-1.27500000e-009,1.36718620e-004
,,,-1.25000000e-009,1.85937373e-004
,,,-1.22500000e-009,2.49218628e-004
,,,-1.20000000e-009,3.18749883e-004
,,,-1.17500000e-009,3.88281138e-004
,,,-1.15000000e-009,4.50781142e-004
,,,-1.12500000e-009,4.99999896e-004
,,,-1.10000000e-009,5.09374896e-004
,,,-1.07500000e-009,4.97656146e-004
,,,-1.05000000e-009,4.70312394e-004
,,,-1.02500000e-009,4.32812391e-004
,,,-1.00000000e-009,3.90624888e-004
,,,-9.75000000e-010,3.51562385e-004
,,,-9.50000000e-010,3.20312383e-004
,,,-9.25000000e-010,2.99999882e-004
,,,-9.00000000e-010,2.57812379e-004
,,,-8.75000000e-010,2.23437376e-004
,,,-8.50000000e-010,1.96093624e-004
,,,-8.25000000e-010,1.75781123e-004
,,,-8.00000000e-010,1.60156122e-004
,,,-7.75000000e-010,1.44531121e-004
,,,-7.50000000e-010,1.25781119e-004
,,,-7.25000000e-010,9.99998674e-005
,,,-7.00000000e-010,1.95311117e-005
,,,-6.75000000e-010,-7.89063953e-005
,,,-6.50000000e-010,-1.89062653e-004
,,,-6.25000000e-010,-3.04687661e-004
,,,-6.00000000e-010,-4.19531419e-004
,,,-5.75000000e-010,-5.26562677e-004
,,,-5.50000000e-010,-6.20312684e-004
,,,-5.25000000e-010,-7.00000189e-004
,,,-5.00000000e-010,-8.10156447e-004
,,,-4.75000000e-010,-9.14843954e-004
,,,-4.50000000e-010,-1.01484396e-003
,,,-4.25000000e-010,-1.11015647e-003
,,,-4.00000000e-010,-1.20312522e-003
,,,-3.75000000e-010,-1.29531273e-003
,,,-3.50000000e-010,-1.39296899e-003
,,,-3.25000000e-010,-1.50000025e-003
,,,-3.00000000e-010,-1.66875026e-003
,,,-2.75000000e-010,-1.86484402e-003
,,,-2.50000000e-010,-2.08828154e-003
,,,-2.25000000e-010,-2.33593781e-003
,,,-2.00000000e-010,-2.60468782e-003
,,,-1.75000000e-010,-2.88984409e-003
,,,-1.50000000e-010,-3.18906287e-003
,,,-1.25000000e-010,-3.50000039e-003
,,,-1.00000000e-010,-3.84375041e-003
,,,-7.50000000e-011,-4.20234419e-003
,,,-5.00000000e-011,-4.57421921e-003
,,,-2.50000000e-011,-4.95390674e-003
,,,0.00000000e+000,-5.33984427e-003
,,,2.50000000e-011,-5.72812555e-003
,,,5.00000000e-011,-6.11562557e-003
,,,7.50000000e-011,-6.50000060e-003
,,,1.00000000e-010,-6.86796938e-003
,,,1.25000000e-010,-7.23515690e-003
,,,1.50000000e-010,-7.60000068e-003
,,,1.75000000e-010,-7.96015695e-003
,,,2.00000000e-010,-8.31250073e-003
,,,2.25000000e-010,-8.65468825e-003
,,,2.50000000e-010,-8.98437578e-003
,,,2.75000000e-010,-9.30000080e-003
,,,3.00000000e-010,-9.55703207e-003
,,,3.25000000e-010,-9.80781333e-003
,,,3.50000000e-010,-1.00554696e-002
,,,3.75000000e-010,-1.03031259e-002
,,,4.00000000e-010,-1.05515634e-002
,,,4.25000000e-010,-1.08015634e-002
,,,4.50000000e-010,-1.10515634e-002
,,,4.75000000e-010,-1.13000009e-002
,,,5.00000000e-010,-1.14757822e-002
,,,5.25000000e-010,-1.16484385e-002
,,,5.50000000e-010,-1.18187510e-002
,,,5.75000000e-010,-1.19835947e-002
,,,6.00000000e-010,-1.21390635e-002
,,,6.25000000e-010,-1.22812510e-002
,,,6.50000000e-010,-1.24031260e-002
,,,6.75000000e-010,-1.25000010e-002
,,,7.00000000e-010,-1.24859385e-002
,,,7.25000000e-010,-1.24484385e-002
,,,7.50000000e-010,-1.23906260e-002
,,,7.75000000e-010,-1.23171885e-002
,,,8.00000000e-010,-1.22289073e-002
,,,8.25000000e-010,-1.21304697e-002
,,,8.50000000e-010,-1.20203135e-002
,,,8.75000000e-010,-1.19000010e-002
,,,9.00000000e-010,-1.16984385e-002
,,,9.25000000e-010,-1.14945322e-002
,,,9.50000000e-010,-1.12906259e-002
,,,9.75000000e-010,-1.10898447e-002
,,,1.00000000e-009,-1.08914072e-002
,,,1.02500000e-009,-1.06953134e-002
,,,1.05000000e-009,-1.04984384e-002
,,,1.07500000e-009,-1.03000009e-002
,,,1.10000000e-009,-1.00476571e-002
,,,1.12500000e-009,-9.79296958e-003
,,,1.15000000e-009,-9.53671956e-003
,,,1.17500000e-009,-9.28203205e-003
,,,1.20000000e-009,-9.03046953e-003
,,,1.22500000e-009,-8.78203201e-003
,,,1.25000000e-009,-8.53906324e-003
,,,1.27500000e-009,-8.30000073e-003
,,,1.30000000e-009,-8.04296946e-003
,,,1.32500000e-009,-7.78750069e-003
,,,1.35000000e-009,-7.53359442e-003
,,,1.37500000e-009,-7.28046941e-003
,,,1.40000000e-009,-7.02968814e-003
,,,1.42500000e-009,-6.78203187e-003
,,,1.45000000e-009,-6.53828185e-003
,,,1.47500000e-009,-6.30000059e-003
,,,1.50000000e-009,-6.06875057e-003
,,,1.52500000e-009,-5.84062555e-003
,,,1.55000000e-009,-5.61718804e-003
,,,1.57500000e-009,-5.40234427e-003
,,,1.60000000e-009,-5.20000051e-003
,,,1.62500000e-009,-5.01328174e-003
,,,1.65000000e-009,-4.84609423e-003
,,,1.67500000e-009,-4.70000047e-003
,,,1.70000000e-009,-4.59218796e-003
,,,1.72500000e-009,-4.49218796e-003
,,,1.75000000e-009,-4.39687545e-003
,,,1.77500000e-009,-4.30234419e-003
,,,1.80000000e-009,-4.20625044e-003
,,,1.82500000e-009,-4.10781293e-003
,,,1.85000000e-009,-4.00546917e-003
,,,1.87500000e-009,-3.90000042e-003
,,,1.90000000e-009,-3.81093791e-003
,,,1.92500000e-009,-3.71015665e-003
,,,1.95000000e-009,-3.60078164e-003
,,,1.97500000e-009,-3.48593789e-003
,,,2.00000000e-009,-3.37265663e-003
,,,2.02500000e-009,-3.26640662e-003
,,,2.05000000e-009,-3.17421911e-003
,,,2.07500000e-009,-3.10000036e-003
,,,2.10000000e-009,-3.06171911e-003
,,,2.12500000e-009,-3.03281285e-003
,,,2.15000000e-009,-3.01015660e-003
,,,2.17500000e-009,-2.99062535e-003
,,,2.20000000e-009,-2.97187535e-003
,,,2.22500000e-009,-2.95156285e-003
,,,2.25000000e-009,-2.92812535e-003
,,,2.27500000e-009,-2.90000034e-003
,,,2.30000000e-009,-2.87656284e-003
,,,2.32500000e-009,-2.83906284e-003
,,,2.35000000e-009,-2.78984409e-003
,,,2.37500000e-009,-2.73125033e-003
,,,2.40000000e-009,-2.66796908e-003
,,,2.42500000e-009,-2.60546907e-003
,,,2.45000000e-009,-2.54843782e-003
,,,2.47500000e-009,-2.50000032e-003
,,,2.50000000e-009,-2.46875031e-003
,,,2.52500000e-009,-2.44218781e-003
,,,2.55000000e-009,-2.42031281e-003
,,,2.57500000e-009,-2.40000031e-003
,,,2.60000000e-009,-2.38046906e-003
,,,2.62500000e-009,-2.35859406e-003
,,,2.65000000e-009,-2.33281280e-003
,,,2.67500000e-009,-2.30000030e-003
,,,2.70000000e-009,-2.25937530e-003
,,,2.72500000e-009,-2.20546905e-003
,,,2.75000000e-009,-2.13906279e-003
,,,2.77500000e-009,-2.06171904e-003
,,,2.80000000e-009,-1.97656278e-003
,,,2.82500000e-009,-1.88515652e-003
,,,2.85000000e-009,-1.79218777e-003
,,,2.87500000e-009,-1.70000026e-003
,,,2.90000000e-009,-1.61250025e-003
,,,2.92500000e-009,-1.52812525e-003
,,,2.95000000e-009,-1.44609399e-003
,,,2.97500000e-009,-1.36718774e-003
,,,3.00000000e-009,-1.29296898e-003
,,,3.02500000e-009,-1.22265648e-003
,,,3.05000000e-009,-1.15859397e-003
,,,3.07500000e-009,-1.10000022e-003
,,,3.10000000e-009,-1.05234396e-003
,,,3.12500000e-009,-1.01015646e-003
,,,3.15000000e-009,-9.73437709e-004
,,,3.17500000e-009,-9.42968956e-004
,,,3.20000000e-009,-9.19531455e-004
,,,3.22500000e-009,-9.04687704e-004
,,,3.25000000e-009,-8.98437703e-004
,,,3.27500000e-009,-9.00000203e-004
,,,3.30000000e-009,-9.11718954e-004
,,,3.32500000e-009,-9.24218955e-004
,,,3.35000000e-009,-9.35937706e-004
,,,3.37500000e-009,-9.43750206e-004
,,,3.40000000e-009,-9.45312707e-004
,,,3.42500000e-009,-9.39062706e-004
,,,3.45000000e-009,-9.24218955e-004
,,,3.47500000e-009,-9.00000203e-004
,,,3.50000000e-009,-8.67968951e-004
,,,3.52500000e-009,-8.25781448e-004
,,,3.55000000e-009,-7.74218944e-004
,,,3.57500000e-009,-7.17187690e-004
,,,3.60000000e-009,-6.57812686e-004
,,,3.62500000e-009,-5.99218932e-004
,,,3.65000000e-009,-5.46093928e-004
,,,3.67500000e-009,-5.00000175e-004
,,,3.70000000e-009,-4.67968923e-004
,,,3.72500000e-009,-4.45312671e-004
,,,3.75000000e-009,-4.32812670e-004
,,,3.77500000e-009,-4.30468920e-004
,,,3.80000000e-009,-4.37500171e-004
,,,3.82500000e-009,-4.52343922e-004
,,,3.85000000e-009,-4.73437673e-004
,,,3.87500000e-009,-5.00000175e-004
,,,3.90000000e-009,-5.28125177e-004
,,,3.92500000e-009,-5.53125179e-004
,,,3.95000000e-009,-5.70312680e-004
,,,3.97500000e-009,-5.78906431e-004
,,,4.00000000e-009,-5.76562681e-004
,,,4.02500000e-009,-5.62500180e-004
,,,4.05000000e-009,-5.36718928e-004
,,,4.07500000e-009,-5.00000175e-004
,,,4.10000000e-009,-4.52343922e-004
,,,4.12500000e-009,-3.97656418e-004
,,,4.15000000e-009,-3.39062664e-004
,,,4.17500000e-009,-2.78906409e-004
,,,4.20000000e-009,-2.21875155e-004
,,,4.22500000e-009,-1.71875152e-004
,,,4.25000000e-009,-1.30468899e-004
,,,4.27500000e-009,-1.00000147e-004
,,,4.30000000e-009,-8.35938956e-005
,,,4.32500000e-009,-7.73438952e-005
,,,4.35000000e-009,-7.96876453e-005
,,,4.37500000e-009,-8.59376458e-005
,,,4.40000000e-009,-9.45313964e-005
,,,4.42500000e-009,-1.00781397e-004
,,,4.45000000e-009,-1.03906397e-004
,,,4.47500000e-009,-1.00000147e-004
,,,4.50000000e-009,-9.14063962e-005
,,,4.52500000e-009,-7.42188950e-005
,,,4.55000000e-009,-4.92188932e-005
,,,4.57500000e-009,-1.95313911e-005
,,,4.60000000e-009,1.32811112e-005
,,,4.62500000e-009,4.60936136e-005
,,,4.65000000e-009,7.57811157e-005
,,,4.67500000e-009,9.99998674e-005
,,,4.70000000e-009,1.14843618e-004
,,,4.72500000e-009,1.21874869e-004
,,,4.75000000e-009,1.23437369e-004
,,,4.77500000e-009,1.21093619e-004
,,,4.80000000e-009,1.14843618e-004
,,,4.82500000e-009,1.08593618e-004
,,,4.85000000e-009,1.03124868e-004
,,,4.87500000e-009,9.99998674e-005
,,,4.90000000e-009,9.84373673e-005
,,,4.92500000e-009,9.92186173e-005
,,,4.95000000e-009,1.03906118e-004
,,,4.97500000e-009,1.08593618e-004
,,,5.00000000e-009,1.13281118e-004
,,,5.02500000e-009,1.14062368e-004
,,,5.05000000e-009,1.10156118e-004
,,,5.07500000e-009,9.99998674e-005
,,,5.10000000e-009,8.12498661e-005
,,,5.12500000e-009,5.78123644e-005
,,,5.15000000e-009,2.96873624e-005
,,,5.17500000e-009,-1.39698386e-010
,,,5.20000000e-009,-2.89063917e-005
,,,5.22500000e-009,-5.70313937e-005
,,,5.25000000e-009,-8.04688954e-005
,,,5.27500000e-009,-1.00000147e-004
,,,5.30000000e-009,-1.10156397e-004
,,,5.32500000e-009,-1.15625148e-004
,,,5.35000000e-009,-1.14843898e-004
,,,5.37500000e-009,-1.11718898e-004
,,,5.40000000e-009,-1.06250147e-004
,,,5.42500000e-009,-1.01562647e-004
,,,5.45000000e-009,-9.92188967e-005
,,,5.47500000e-009,-1.00000147e-004
,,,5.50000000e-009,-1.01562647e-004
,,,5.52500000e-009,-1.05468897e-004
,,,5.55000000e-009,-1.10937648e-004
,,,5.57500000e-009,-1.15625148e-004
,,,5.60000000e-009,-1.18750148e-004
,,,5.62500000e-009,-1.17968898e-004
,,,5.65000000e-009,-1.11718898e-004
,,,5.67500000e-009,-1.00000147e-004
,,,5.70000000e-009,-7.73438952e-005
,,,5.72500000e-009,-5.07813933e-005
,,,5.75000000e-009,-2.03126411e-005
,,,5.77500000e-009,1.17186111e-005
,,,5.80000000e-009,4.14061132e-005
,,,5.82500000e-009,6.71873651e-005
,,,5.85000000e-009,8.74998665e-005
,,,5.87500000e-009,9.99998674e-005
,,,5.90000000e-009,1.07031118e-004
,,,5.92500000e-009,1.07031118e-004
