RawData/CosmicRays/L6_2pt2C_15mV/wave018_Ch3.csv

"Record Length",1000,"Points",-7.72500000e-009,-9.65624845e-004
"Sample Interval",2.50000000e-011,s,-7.70000000e-009,-8.56249837e-004
"Trigger Point",309,"Samples",-7.67500000e-009,-7.40624829e-004
"Trigger Time",2.01281794e-011,s,-7.65000000e-009,-6.23437321e-004
"",,,-7.62500000e-009,-5.07812312e-004
"Horizontal Offset",-7.72500000e-009,s,-7.60000000e-009,-3.99999805e-004
,,,-7.57500000e-009,-3.03124798e-004
,,,-7.55000000e-009,-2.18749792e-004
,,,-7.52500000e-009,-1.49999787e-004
,,,-7.50000000e-009,-9.68747833e-005
,,,-7.47500000e-009,-5.62497805e-005
,,,-7.45000000e-009,-2.81247785e-005
,,,-7.42500000e-009,-1.09372773e-005
,,,-7.40000000e-009,2.23517420e-010
,,,-7.37500000e-009,1.56272363e-006
,,,-7.35000000e-009,2.23517420e-010
,,,-7.32500000e-009,-1.56227659e-006
,,,-7.30000000e-009,-3.12477670e-006
,,,-7.27500000e-009,-3.12477670e-006
,,,-7.25000000e-009,-3.12477670e-006
,,,-7.22500000e-009,-1.56227659e-006
,,,-7.20000000e-009,2.23517420e-010
,,,-7.17500000e-009,-3.12477670e-006
,,,-7.15000000e-009,-4.68727681e-006
,,,-7.12500000e-009,-6.24977692e-006
,,,-7.10000000e-009,-7.81227704e-006
,,,-7.07500000e-009,-7.81227704e-006
,,,-7.05000000e-009,-6.24977692e-006
,,,-7.02500000e-009,-4.68727681e-006
,,,-7.00000000e-009,2.23517420e-010
,,,-6.97500000e-009,-1.56227659e-006
,,,-6.95000000e-009,2.23517420e-010
,,,-6.92500000e-009,1.56272363e-006
,,,-6.90000000e-009,3.12522374e-006
,,,-6.87500000e-009,3.12522374e-006
,,,-6.85000000e-009,3.12522374e-006
,,,-6.82500000e-009,1.56272363e-006
,,,-6.80000000e-009,2.23517420e-010
,,,-6.77500000e-009,-1.24997774e-005
,,,-6.75000000e-009,-2.49997783e-005
,,,-6.72500000e-009,-3.43747789e-005
,,,-6.70000000e-009,-3.90622792e-005
,,,-6.67500000e-009,-3.74997791e-005
,,,-6.65000000e-009,-3.12497787e-005
,,,-6.62500000e-009,-1.87497778e-005
,,,-6.60000000e-009,2.23517420e-010
,,,-6.57500000e-009,1.71877247e-005
,,,-6.55000000e-009,3.59377261e-005
,,,-6.52500000e-009,5.15627272e-005
,,,-6.50000000e-009,6.25002279e-005
,,,-6.47500000e-009,6.40627281e-005
,,,-6.45000000e-009,5.62502275e-005
,,,-6.42500000e-009,3.43752260e-005
,,,-6.40000000e-009,2.23517420e-010
,,,-6.37500000e-009,-4.99997800e-005
,,,-6.35000000e-009,-1.07812284e-004
,,,-6.32500000e-009,-1.70312289e-004
,,,-6.30000000e-009,-2.32812293e-004
,,,-6.27500000e-009,-2.92187297e-004
,,,-6.25000000e-009,-3.40624801e-004
,,,-6.22500000e-009,-3.78124803e-004
,,,-6.20000000e-009,-3.99999805e-004
,,,-6.17500000e-009,-4.07812305e-004
,,,-6.15000000e-009,-4.03124805e-004
,,,-6.12500000e-009,-3.90624804e-004
,,,-6.10000000e-009,-3.76562303e-004
,,,-6.07500000e-009,-3.65624802e-004
,,,-6.05000000e-009,-3.64062302e-004
,,,-6.02500000e-009,-3.74999803e-004
,,,-6.00000000e-009,-3.99999805e-004
,,,-5.97500000e-009,-4.42187308e-004
,,,-5.95000000e-009,-4.98437312e-004
,,,-5.92500000e-009,-5.64062316e-004
,,,-5.90000000e-009,-6.31249821e-004
,,,-5.87500000e-009,-6.95312326e-004
,,,-5.85000000e-009,-7.48437329e-004
,,,-5.82500000e-009,-7.85937332e-004
,,,-5.80000000e-009,-7.99999833e-004
,,,-5.77500000e-009,-7.89062332e-004
,,,-5.75000000e-009,-7.54687330e-004
,,,-5.72500000e-009,-7.04687326e-004
,,,-5.70000000e-009,-6.42187322e-004
,,,-5.67500000e-009,-5.73437317e-004
,,,-5.65000000e-009,-5.07812312e-004
,,,-5.62500000e-009,-4.48437308e-004
,,,-5.60000000e-009,-3.99999805e-004
,,,-5.57500000e-009,-3.67187302e-004
,,,-5.55000000e-009,-3.49999801e-004
,,,-5.52500000e-009,-3.46874801e-004
,,,-5.50000000e-009,-3.54687302e-004
,,,-5.47500000e-009,-3.68749803e-004
,,,-5.45000000e-009,-3.82812304e-004
,,,-5.42500000e-009,-3.95312304e-004
,,,-5.40000000e-009,-3.99999805e-004
,,,-5.37500000e-009,-3.98437305e-004
,,,-5.35000000e-009,-3.90624804e-004
,,,-5.32500000e-009,-3.79687303e-004
,,,-5.30000000e-009,-3.68749803e-004
,,,-5.27500000e-009,-3.60937302e-004
,,,-5.25000000e-009,-3.62499802e-004
,,,-5.22500000e-009,-3.74999803e-004
,,,-5.20000000e-009,-3.99999805e-004
,,,-5.17500000e-009,-4.43749808e-004
,,,-5.15000000e-009,-4.96874812e-004
,,,-5.12500000e-009,-5.59374816e-004
,,,-5.10000000e-009,-6.24999821e-004
,,,-5.07500000e-009,-6.87499825e-004
,,,-5.05000000e-009,-7.40624829e-004
,,,-5.02500000e-009,-7.79687332e-004
,,,-5.00000000e-009,-7.99999833e-004
,,,-4.97500000e-009,-7.96874833e-004
,,,-4.95000000e-009,-7.73437331e-004
,,,-4.92500000e-009,-7.29687328e-004
,,,-4.90000000e-009,-6.71874824e-004
,,,-4.87500000e-009,-6.04687319e-004
,,,-4.85000000e-009,-5.34374814e-004
,,,-4.82500000e-009,-4.64062309e-004
,,,-4.80000000e-009,-3.99999805e-004
,,,-4.77500000e-009,-3.53124801e-004
,,,-4.75000000e-009,-3.18749799e-004
,,,-4.72500000e-009,-2.99999798e-004
,,,-4.70000000e-009,-2.96874797e-004
,,,-4.67500000e-009,-3.06249798e-004
,,,-4.65000000e-009,-3.29687300e-004
,,,-4.62500000e-009,-3.60937302e-004
,,,-4.60000000e-009,-3.99999805e-004
,,,-4.57500000e-009,-4.46874808e-004
,,,-4.55000000e-009,-4.96874812e-004
,,,-4.52500000e-009,-5.48437315e-004
,,,-4.50000000e-009,-5.99999819e-004
,,,-4.47500000e-009,-6.53124823e-004
,,,-4.45000000e-009,-7.04687326e-004
,,,-4.42500000e-009,-7.54687330e-004
,,,-4.40000000e-009,-7.99999833e-004
,,,-4.37500000e-009,-8.40624836e-004
,,,-4.35000000e-009,-8.71874838e-004
,,,-4.32500000e-009,-8.95312340e-004
,,,-4.30000000e-009,-9.04687341e-004
,,,-4.27500000e-009,-9.01562340e-004
,,,-4.25000000e-009,-8.82812339e-004
,,,-4.22500000e-009,-8.48437337e-004
,,,-4.20000000e-009,-7.99999833e-004
,,,-4.17500000e-009,-7.39062329e-004
,,,-4.15000000e-009,-6.71874824e-004
,,,-4.12500000e-009,-6.01562319e-004
,,,-4.10000000e-009,-5.35937314e-004
,,,-4.07500000e-009,-4.78124810e-004
,,,-4.05000000e-009,-4.34374807e-004
,,,-4.02500000e-009,-4.07812305e-004
,,,-4.00000000e-009,-3.99999805e-004
,,,-3.97500000e-009,-4.15624806e-004
,,,-3.95000000e-009,-4.48437308e-004
,,,-3.92500000e-009,-4.95312312e-004
,,,-3.90000000e-009,-5.54687316e-004
,,,-3.87500000e-009,-6.20312320e-004
,,,-3.85000000e-009,-6.85937325e-004
,,,-3.82500000e-009,-7.46874829e-004
,,,-3.80000000e-009,-7.99999833e-004
,,,-3.77500000e-009,-8.39062336e-004
,,,-3.75000000e-009,-8.64062338e-004
,,,-3.72500000e-009,-8.74999838e-004
,,,-3.70000000e-009,-8.74999838e-004
,,,-3.67500000e-009,-8.64062338e-004
,,,-3.65000000e-009,-8.45312336e-004
,,,-3.62500000e-009,-8.23437335e-004
,,,-3.60000000e-009,-7.99999833e-004
,,,-3.57500000e-009,-7.76562331e-004
,,,-3.55000000e-009,-7.59374830e-004
,,,-3.52500000e-009,-7.46874829e-004
,,,-3.50000000e-009,-7.43749829e-004
,,,-3.47500000e-009,-7.48437329e-004
,,,-3.45000000e-009,-7.60937330e-004
,,,-3.42500000e-009,-7.79687332e-004
,,,-3.40000000e-009,-7.99999833e-004
,,,-3.37500000e-009,-8.20312335e-004
,,,-3.35000000e-009,-8.37499836e-004
,,,-3.32500000e-009,-8.49999837e-004
,,,-3.30000000e-009,-8.56249837e-004
,,,-3.27500000e-009,-8.56249837e-004
,,,-3.25000000e-009,-8.46874836e-004
,,,-3.22500000e-009,-8.28124835e-004
,,,-3.20000000e-009,-7.99999833e-004
,,,-3.17500000e-009,-7.62499830e-004
,,,-3.15000000e-009,-7.15624827e-004
,,,-3.12500000e-009,-6.64062323e-004
,,,-3.10000000e-009,-6.09374820e-004
,,,-3.07500000e-009,-5.53124816e-004
,,,-3.05000000e-009,-4.96874812e-004
,,,-3.02500000e-009,-4.45312308e-004
,,,-3.00000000e-009,-3.99999805e-004
,,,-2.97500000e-009,-3.64062302e-004
,,,-2.95000000e-009,-3.37499800e-004
,,,-2.92500000e-009,-3.23437299e-004
,,,-2.90000000e-009,-3.20312299e-004
,,,-2.87500000e-009,-3.28124800e-004
,,,-2.85000000e-009,-3.45312301e-004
,,,-2.82500000e-009,-3.70312303e-004
,,,-2.80000000e-009,-3.99999805e-004
,,,-2.77500000e-009,-4.31249807e-004
,,,-2.75000000e-009,-4.59374809e-004
,,,-2.72500000e-009,-4.79687310e-004
,,,-2.70000000e-009,-4.89062311e-004
,,,-2.67500000e-009,-4.87499811e-004
,,,-2.65000000e-009,-4.73437310e-004
,,,-2.62500000e-009,-4.43749808e-004
,,,-2.60000000e-009,-3.99999805e-004
,,,-2.57500000e-009,-3.46874801e-004
,,,-2.55000000e-009,-2.84374797e-004
,,,-2.52500000e-009,-2.17187292e-004
,,,-2.50000000e-009,-1.53124787e-004
,,,-2.47500000e-009,-9.37497831e-005
,,,-2.45000000e-009,-4.68747798e-005
,,,-2.42500000e-009,-1.40622775e-005
,,,-2.40000000e-009,2.23517420e-010
,,,-2.37500000e-009,-1.40622775e-005
,,,-2.35000000e-009,-4.37497796e-005
,,,-2.32500000e-009,-9.06247829e-005
,,,-2.30000000e-009,-1.49999787e-004
,,,-2.27500000e-009,-2.14062292e-004
,,,-2.25000000e-009,-2.81249796e-004
,,,-2.22500000e-009,-3.45312301e-004
,,,-2.20000000e-009,-3.99999805e-004
,,,-2.17500000e-009,-4.46874808e-004
,,,-2.15000000e-009,-4.78124810e-004
,,,-2.12500000e-009,-4.93749811e-004
,,,-2.10000000e-009,-4.96874812e-004
,,,-2.07500000e-009,-4.85937311e-004
,,,-2.05000000e-009,-4.65624809e-004
,,,-2.02500000e-009,-4.35937307e-004
,,,-2.00000000e-009,-3.99999805e-004
,,,-1.97500000e-009,-3.60937302e-004
,,,-1.95000000e-009,-3.18749799e-004
,,,-1.92500000e-009,-2.73437296e-004
,,,-1.90000000e-009,-2.24999792e-004
,,,-1.87500000e-009,-1.73437289e-004
,,,-1.85000000e-009,-1.17187285e-004
,,,-1.82500000e-009,-5.93747807e-005
,,,-1.80000000e-009,2.23517420e-010
,,,-1.77500000e-009,5.00002271e-005
,,,-1.75000000e-009,9.37502302e-005
,,,-1.72500000e-009,1.26562732e-004
,,,-1.70000000e-009,1.43750234e-004
,,,-1.67500000e-009,1.42187734e-004
,,,-1.65000000e-009,1.18750232e-004
,,,-1.62500000e-009,7.18752286e-005
,,,-1.60000000e-009,2.23517420e-010
,,,-1.57500000e-009,-9.84372835e-005
,,,-1.55000000e-009,-2.12499792e-004
,,,-1.52500000e-009,-3.34374800e-004
,,,-1.50000000e-009,-4.57812309e-004
,,,-1.47500000e-009,-5.71874817e-004
,,,-1.45000000e-009,-6.71874824e-004
,,,-1.42500000e-009,-7.49999830e-004
,,,-1.40000000e-009,-7.99999833e-004
,,,-1.37500000e-009,-8.31249835e-004
,,,-1.35000000e-009,-8.34374836e-004
,,,-1.32500000e-009,-8.09374834e-004
,,,-1.30000000e-009,-7.59374830e-004
,,,-1.27500000e-009,-6.87499825e-004
,,,-1.25000000e-009,-5.99999819e-004
,,,-1.22500000e-009,-5.01562312e-004
,,,-1.20000000e-009,-3.99999805e-004
,,,-1.17500000e-009,-3.40624801e-004
,,,-1.15000000e-009,-2.98437298e-004
,,,-1.12500000e-009,-2.76562296e-004
,,,-1.10000000e-009,-2.71874796e-004
,,,-1.07500000e-009,-2.85937297e-004
,,,-1.05000000e-009,-3.15624799e-004
,,,-1.02500000e-009,-3.54687302e-004
,,,-1.00000000e-009,-3.99999805e-004
,,,-9.75000000e-010,-5.24999814e-004
,,,-9.50000000e-010,-6.53124823e-004
,,,-9.25000000e-010,-7.73437331e-004
,,,-9.00000000e-010,-8.67187338e-004
,,,-8.75000000e-010,-9.24999842e-004
,,,-8.50000000e-010,-9.34374843e-004
,,,-8.25000000e-010,-8.92187340e-004
,,,-8.00000000e-010,-7.99999833e-004
,,,-7.75000000e-010,-7.96874833e-004
,,,-7.50000000e-010,-7.87499832e-004
,,,-7.25000000e-010,-7.73437331e-004
,,,-7.00000000e-010,-7.57812330e-004
,,,-6.75000000e-010,-7.46874829e-004
,,,-6.50000000e-010,-7.45312329e-004
,,,-6.25000000e-010,-7.59374830e-004
,,,-6.00000000e-010,-7.99999833e-004
,,,-5.75000000e-010,-1.07187485e-003
,,,-5.50000000e-010,-1.40781238e-003
,,,-5.25000000e-010,-1.79062490e-003
,,,-5.00000000e-010,-2.19374993e-003
,,,-4.75000000e-010,-2.59531246e-003
,,,-4.50000000e-010,-2.97031249e-003
,,,-4.25000000e-010,-3.30625001e-003
,,,-4.00000000e-010,-3.60000003e-003
,,,-3.75000000e-010,-4.07656257e-003
,,,-3.50000000e-010,-4.55781260e-003
,,,-3.25000000e-010,-5.04218763e-003
,,,-3.00000000e-010,-5.52812517e-003
,,,-2.75000000e-010,-6.02031270e-003
,,,-2.50000000e-010,-6.52031274e-003
,,,-2.25000000e-010,-7.04218777e-003
,,,-2.00000000e-010,-7.60000031e-003
,,,-1.75000000e-010,-8.41406287e-003
,,,-1.50000000e-010,-9.32343794e-003
,,,-1.25000000e-010,-1.03187505e-002
,,,-1.00000000e-010,-1.13843756e-002
,,,-7.50000000e-011,-1.24984382e-002
,,,-5.00000000e-011,-1.36468757e-002
,,,-2.50000000e-011,-1.48156258e-002
,,,0.00000000e+000,-1.60000009e-002
,,,2.50000000e-011,-1.73156260e-002
,,,5.00000000e-011,-1.86843761e-002
,,,7.50000000e-011,-2.01062512e-002
,,,1.00000000e-010,-2.15812513e-002
,,,1.25000000e-010,-2.31093764e-002
,,,1.50000000e-010,-2.46906265e-002
,,,1.75000000e-010,-2.63218766e-002
,,,2.00000000e-010,-2.80000018e-002
,,,2.25000000e-010,-2.96890644e-002
,,,2.50000000e-010,-3.14343770e-002
,,,2.75000000e-010,-3.32203146e-002
,,,3.00000000e-010,-3.50281273e-002
,,,3.25000000e-010,-3.68343774e-002
,,,3.50000000e-010,-3.86140650e-002
,,,3.75000000e-010,-4.03421901e-002
,,,4.00000000e-010,-4.20000027e-002
,,,4.25000000e-010,-4.33703153e-002
,,,4.50000000e-010,-4.46750029e-002
,,,4.75000000e-010,-4.59250030e-002
,,,5.00000000e-010,-4.71312531e-002
,,,5.25000000e-010,-4.83000032e-002
,,,5.50000000e-010,-4.94359408e-002
,,,5.75000000e-010,-5.05390659e-002
,,,6.00000000e-010,-5.16000034e-002
,,,6.25000000e-010,-5.23015660e-002
,,,6.50000000e-010,-5.29718785e-002
,,,6.75000000e-010,-5.36156286e-002
,,,7.00000000e-010,-5.42250036e-002
,,,7.25000000e-010,-5.47875037e-002
,,,7.50000000e-010,-5.52859412e-002
,,,7.75000000e-010,-5.56968787e-002
,,,8.00000000e-010,-5.60000037e-002
,,,8.25000000e-010,-5.58187537e-002
,,,8.50000000e-010,-5.55437537e-002
,,,8.75000000e-010,-5.51921912e-002
,,,9.00000000e-010,-5.47843787e-002
,,,9.25000000e-010,-5.43359411e-002
,,,9.50000000e-010,-5.38531286e-002
,,,9.75000000e-010,-5.33421911e-002
,,,1.00000000e-009,-5.28000035e-002
,,,1.02500000e-009,-5.19031285e-002
,,,1.05000000e-009,-5.10000034e-002
,,,1.07500000e-009,-5.01000033e-002
,,,1.10000000e-009,-4.92078158e-002
,,,1.12500000e-009,-4.83218782e-002
,,,1.15000000e-009,-4.74328156e-002
,,,1.17500000e-009,-4.65296906e-002
,,,1.20000000e-009,-4.56000030e-002
,,,1.22500000e-009,-4.44125029e-002
,,,1.25000000e-009,-4.31968778e-002
,,,1.27500000e-009,-4.19671902e-002
,,,1.30000000e-009,-4.07343777e-002
,,,1.32500000e-009,-3.95125026e-002
,,,1.35000000e-009,-3.83109400e-002
,,,1.37500000e-009,-3.71390649e-002
,,,1.40000000e-009,-3.60000023e-002
,,,1.42500000e-009,-3.48062522e-002
,,,1.45000000e-009,-3.36437522e-002
,,,1.47500000e-009,-3.25187521e-002
,,,1.50000000e-009,-3.14359395e-002
,,,1.52500000e-009,-3.04015644e-002
,,,1.55000000e-009,-2.94203144e-002
,,,1.57500000e-009,-2.84875018e-002
,,,1.60000000e-009,-2.76000017e-002
,,,1.62500000e-009,-2.67640642e-002
,,,1.65000000e-009,-2.59250016e-002
,,,1.67500000e-009,-2.50781266e-002
,,,1.70000000e-009,-2.42234390e-002
,,,1.72500000e-009,-2.33625014e-002
,,,1.75000000e-009,-2.25000014e-002
,,,1.77500000e-009,-2.16437513e-002
,,,1.80000000e-009,-2.08000012e-002
,,,1.82500000e-009,-2.00562512e-002
,,,1.85000000e-009,-1.92984386e-002
,,,1.87500000e-009,-1.85343761e-002
,,,1.90000000e-009,-1.77781260e-002
,,,1.92500000e-009,-1.70484385e-002
,,,1.95000000e-009,-1.63656259e-002
,,,1.97500000e-009,-1.57453134e-002
,,,2.00000000e-009,-1.52000009e-002
,,,2.02500000e-009,-1.48421883e-002
,,,2.05000000e-009,-1.45125008e-002
,,,2.07500000e-009,-1.42031258e-002
,,,2.10000000e-009,-1.39062508e-002
,,,2.12500000e-009,-1.36187507e-002
,,,2.15000000e-009,-1.33390632e-002
,,,2.17500000e-009,-1.30671882e-002
,,,2.20000000e-009,-1.28000007e-002
,,,2.22500000e-009,-1.26328132e-002
,,,2.25000000e-009,-1.24265632e-002
,,,2.27500000e-009,-1.21828131e-002
,,,2.30000000e-009,-1.19078131e-002
,,,2.32500000e-009,-1.16171881e-002
,,,2.35000000e-009,-1.13265631e-002
,,,2.37500000e-009,-1.10500006e-002
,,,2.40000000e-009,-1.08000005e-002
,,,2.42500000e-009,-1.06546880e-002
,,,2.45000000e-009,-1.05109380e-002
,,,2.47500000e-009,-1.03656255e-002
,,,2.50000000e-009,-1.02187505e-002
,,,2.52500000e-009,-1.00687505e-002
,,,2.55000000e-009,-9.91562548e-003
,,,2.57500000e-009,-9.76093797e-003
,,,2.60000000e-009,-9.60000046e-003
,,,2.62500000e-009,-9.47812545e-003
,,,2.65000000e-009,-9.32500044e-003
,,,2.67500000e-009,-9.13906292e-003
,,,2.70000000e-009,-8.92968791e-003
,,,2.72500000e-009,-8.70000039e-003
,,,2.75000000e-009,-8.46250038e-003
,,,2.77500000e-009,-8.22656286e-003
,,,2.80000000e-009,-8.00000034e-003
,,,2.82500000e-009,-7.81718783e-003
,,,2.85000000e-009,-7.63750032e-003
,,,2.87500000e-009,-7.46406280e-003
,,,2.90000000e-009,-7.30000029e-003
,,,2.92500000e-009,-7.15000028e-003
,,,2.95000000e-009,-7.01718777e-003
,,,2.97500000e-009,-6.90000026e-003
,,,3.00000000e-009,-6.80000026e-003
,,,3.02500000e-009,-6.73125025e-003
,,,3.05000000e-009,-6.65781275e-003
,,,3.07500000e-009,-6.57968774e-003
,,,3.10000000e-009,-6.48906274e-003
,,,3.12500000e-009,-6.38750023e-003
,,,3.15000000e-009,-6.27187522e-003
,,,3.17500000e-009,-6.14218771e-003
,,,3.20000000e-009,-6.00000020e-003
,,,3.22500000e-009,-5.86093769e-003
,,,3.25000000e-009,-5.70625018e-003
,,,3.27500000e-009,-5.54062517e-003
,,,3.30000000e-009,-5.37187516e-003
,,,3.32500000e-009,-5.20781265e-003
,,,3.35000000e-009,-5.05468763e-003
,,,3.37500000e-009,-4.91718762e-003
,,,3.40000000e-009,-4.80000012e-003
,,,3.42500000e-009,-4.71406261e-003
,,,3.45000000e-009,-4.63593760e-003
,,,3.47500000e-009,-4.55781260e-003
,,,3.50000000e-009,-4.47656259e-003
,,,3.52500000e-009,-4.38281259e-003
,,,3.55000000e-009,-4.27500008e-003
,,,3.57500000e-009,-4.14843757e-003
,,,3.60000000e-009,-4.00000006e-003
,,,3.62500000e-009,-3.84843755e-003
,,,3.65000000e-009,-3.67656254e-003
,,,3.67500000e-009,-3.49375002e-003
,,,3.70000000e-009,-3.31093751e-003
,,,3.72500000e-009,-3.13906250e-003
,,,3.75000000e-009,-2.99062499e-003
,,,3.77500000e-009,-2.87499998e-003
,,,3.80000000e-009,-2.79999997e-003
,,,3.82500000e-009,-2.78593747e-003
,,,3.85000000e-009,-2.80781248e-003
,,,3.87500000e-009,-2.85624998e-003
,,,3.90000000e-009,-2.92656248e-003
,,,3.92500000e-009,-3.00468749e-003
,,,3.95000000e-009,-3.08281249e-003
,,,3.97500000e-009,-3.15156250e-003
,,,4.00000000e-009,-3.20000000e-003
,,,4.02500000e-009,-3.23281251e-003
,,,4.05000000e-009,-3.23125001e-003
,,,4.07500000e-009,-3.20000000e-003
,,,4.10000000e-009,-3.14062500e-003
,,,4.12500000e-009,-3.06406249e-003
,,,4.15000000e-009,-2.97656249e-003
,,,4.17500000e-009,-2.88593748e-003
,,,4.20000000e-009,-2.79999997e-003
,,,4.22500000e-009,-2.72968747e-003
,,,4.25000000e-009,-2.66718747e-003
,,,4.27500000e-009,-2.61406246e-003
,,,4.30000000e-009,-2.56718746e-003
,,,4.32500000e-009,-2.52499996e-003
,,,4.35000000e-009,-2.48437495e-003
,,,4.37500000e-009,-2.44374995e-003
,,,4.40000000e-009,-2.39999995e-003
,,,4.42500000e-009,-2.35937494e-003
,,,4.45000000e-009,-2.31093744e-003
,,,4.47500000e-009,-2.25624994e-003
,,,4.50000000e-009,-2.19687493e-003
,,,4.52500000e-009,-2.13906243e-003
,,,4.55000000e-009,-2.08437492e-003
,,,4.57500000e-009,-2.03749992e-003
,,,4.60000000e-009,-1.99999992e-003
,,,4.62500000e-009,-1.98437492e-003
,,,4.65000000e-009,-1.97656242e-003
,,,4.67500000e-009,-1.97812492e-003
,,,4.70000000e-009,-1.98437492e-003
,,,4.72500000e-009,-1.99218742e-003
,,,4.75000000e-009,-1.99999992e-003
,,,4.77500000e-009,-2.00468742e-003
,,,4.80000000e-009,-1.99999992e-003
,,,4.82500000e-009,-1.99062492e-003
,,,4.85000000e-009,-1.96874992e-003
,,,4.87500000e-009,-1.93437491e-003
,,,4.90000000e-009,-1.88593741e-003
,,,4.92500000e-009,-1.82656241e-003
,,,4.95000000e-009,-1.75781240e-003
,,,4.97500000e-009,-1.68124990e-003
,,,5.00000000e-009,-1.59999989e-003
,,,5.02500000e-009,-1.52499988e-003
,,,5.05000000e-009,-1.45156238e-003
,,,5.07500000e-009,-1.38281237e-003
,,,5.10000000e-009,-1.32031237e-003
,,,5.12500000e-009,-1.27031237e-003
,,,5.15000000e-009,-1.23124986e-003
,,,5.17500000e-009,-1.20781236e-003
,,,5.20000000e-009,-1.19999986e-003
,,,5.22500000e-009,-1.21562486e-003
,,,5.25000000e-009,-1.24531236e-003
,,,5.27500000e-009,-1.28593737e-003
,,,5.30000000e-009,-1.33749987e-003
,,,5.32500000e-009,-1.39687488e-003
,,,5.35000000e-009,-1.46249988e-003
,,,5.37500000e-009,-1.53124988e-003
,,,5.40000000e-009,-1.59999989e-003
,,,5.42500000e-009,-1.67343739e-003
,,,5.45000000e-009,-1.74062490e-003
,,,5.47500000e-009,-1.80156240e-003
,,,5.50000000e-009,-1.85468741e-003
,,,5.52500000e-009,-1.90156241e-003
,,,5.55000000e-009,-1.94218741e-003
,,,5.57500000e-009,-1.97499992e-003
,,,5.60000000e-009,-1.99999992e-003
,,,5.62500000e-009,-2.01406242e-003
,,,5.65000000e-009,-2.02187492e-003
,,,5.67500000e-009,-2.02499992e-003
,,,5.70000000e-009,-2.02499992e-003
,,,5.72500000e-009,-2.02187492e-003
,,,5.75000000e-009,-2.01562492e-003
,,,5.77500000e-009,-2.00937492e-003
,,,5.80000000e-009,-1.99999992e-003
,,,5.82500000e-009,-1.98281242e-003
