RawData/CosmicRays/L6_2pt2C_15mV/wave007_Ch3.csv

"Record Length",1000,"Points",-7.72500000e-009,-3.99999805e-004
"Sample Interval",2.50000000e-011,s,-7.70000000e-009,-4.56249809e-004
"Trigger Point",309,"Samples",-7.67500000e-009,-4.92187311e-004
"Trigger Time",1.11214493e-011,s,-7.65000000e-009,-5.07812312e-004
"",,,-7.62500000e-009,-5.07812312e-004
"Horizontal Offset",-7.72500000e-009,s,-7.60000000e-009,-4.90624811e-004
,,,-7.57500000e-009,-4.65624809e-004
,,,-7.55000000e-009,-4.32812307e-004
,,,-7.52500000e-009,-3.99999805e-004
,,,-7.50000000e-009,-3.73437303e-004
,,,-7.47500000e-009,-3.53124801e-004
,,,-7.45000000e-009,-3.39062300e-004
,,,-7.42500000e-009,-3.35937300e-004
,,,-7.40000000e-009,-3.40624801e-004
,,,-7.37500000e-009,-3.53124801e-004
,,,-7.35000000e-009,-3.73437303e-004
,,,-7.32500000e-009,-3.99999805e-004
,,,-7.30000000e-009,-4.32812307e-004
,,,-7.27500000e-009,-4.70312310e-004
,,,-7.25000000e-009,-5.12499813e-004
,,,-7.22500000e-009,-5.59374816e-004
,,,-7.20000000e-009,-6.12499820e-004
,,,-7.17500000e-009,-6.71874824e-004
,,,-7.15000000e-009,-7.34374828e-004
,,,-7.12500000e-009,-7.99999833e-004
,,,-7.10000000e-009,-8.62499838e-004
,,,-7.07500000e-009,-9.15624841e-004
,,,-7.05000000e-009,-9.54687344e-004
,,,-7.02500000e-009,-9.76562346e-004
,,,-7.00000000e-009,-9.73437345e-004
,,,-6.97500000e-009,-9.45312343e-004
,,,-6.95000000e-009,-8.85937339e-004
,,,-6.92500000e-009,-7.99999833e-004
,,,-6.90000000e-009,-6.89062325e-004
,,,-6.87500000e-009,-5.62499816e-004
,,,-6.85000000e-009,-4.31249807e-004
,,,-6.82500000e-009,-3.03124798e-004
,,,-6.80000000e-009,-1.89062290e-004
,,,-6.77500000e-009,-9.68747833e-005
,,,-6.75000000e-009,-3.28122788e-005
,,,-6.72500000e-009,2.23517420e-010
,,,-6.70000000e-009,-4.68727681e-006
,,,-6.67500000e-009,-3.74997791e-005
,,,-6.65000000e-009,-9.37497831e-005
,,,-6.62500000e-009,-1.64062288e-004
,,,-6.60000000e-009,-2.39062293e-004
,,,-6.57500000e-009,-3.09374798e-004
,,,-6.55000000e-009,-3.65624802e-004
,,,-6.52500000e-009,-3.99999805e-004
,,,-6.50000000e-009,-4.07812305e-004
,,,-6.47500000e-009,-3.89062304e-004
,,,-6.45000000e-009,-3.45312301e-004
,,,-6.42500000e-009,-2.82812297e-004
,,,-6.40000000e-009,-2.09374791e-004
,,,-6.37500000e-009,-1.31249786e-004
,,,-6.35000000e-009,-5.93747807e-005
,,,-6.32500000e-009,2.23517420e-010
,,,-6.30000000e-009,3.12502257e-005
,,,-6.27500000e-009,3.75002262e-005
,,,-6.25000000e-009,1.71877247e-005
,,,-6.22500000e-009,-2.96872786e-005
,,,-6.20000000e-009,-9.99997836e-005
,,,-6.17500000e-009,-1.89062290e-004
,,,-6.15000000e-009,-2.92187297e-004
,,,-6.12500000e-009,-3.99999805e-004
,,,-6.10000000e-009,-5.10937313e-004
,,,-6.07500000e-009,-6.10937320e-004
,,,-6.05000000e-009,-6.98437326e-004
,,,-6.02500000e-009,-7.65624831e-004
,,,-6.00000000e-009,-8.12499834e-004
,,,-5.97500000e-009,-8.34374836e-004
,,,-5.95000000e-009,-8.29687335e-004
,,,-5.92500000e-009,-7.99999833e-004
,,,-5.90000000e-009,-7.43749829e-004
,,,-5.87500000e-009,-6.64062323e-004
,,,-5.85000000e-009,-5.68749817e-004
,,,-5.82500000e-009,-4.59374809e-004
,,,-5.80000000e-009,-3.42187301e-004
,,,-5.77500000e-009,-2.21874792e-004
,,,-5.75000000e-009,-1.06249784e-004
,,,-5.72500000e-009,2.23517420e-010
,,,-5.70000000e-009,8.90627298e-005
,,,-5.67500000e-009,1.56250235e-004
,,,-5.65000000e-009,2.00000238e-004
,,,-5.62500000e-009,2.14062739e-004
,,,-5.60000000e-009,2.01562738e-004
,,,-5.57500000e-009,1.59375235e-004
,,,-5.55000000e-009,9.06252299e-005
,,,-5.52500000e-009,2.23517420e-010
,,,-5.50000000e-009,-1.09374784e-004
,,,-5.47500000e-009,-2.28124793e-004
,,,-5.45000000e-009,-3.48437301e-004
,,,-5.42500000e-009,-4.67187310e-004
,,,-5.40000000e-009,-5.76562317e-004
,,,-5.37500000e-009,-6.71874824e-004
,,,-5.35000000e-009,-7.48437329e-004
,,,-5.32500000e-009,-7.99999833e-004
,,,-5.30000000e-009,-8.21874835e-004
,,,-5.27500000e-009,-8.15624834e-004
,,,-5.25000000e-009,-7.85937332e-004
,,,-5.22500000e-009,-7.35937329e-004
,,,-5.20000000e-009,-6.67187324e-004
,,,-5.17500000e-009,-5.84374818e-004
,,,-5.15000000e-009,-4.95312312e-004
,,,-5.12500000e-009,-3.99999805e-004
,,,-5.10000000e-009,-3.09374798e-004
,,,-5.07500000e-009,-2.24999792e-004
,,,-5.05000000e-009,-1.51562287e-004
,,,-5.02500000e-009,-9.21872830e-005
,,,-5.00000000e-009,-4.84372799e-005
,,,-4.97500000e-009,-1.87497778e-005
,,,-4.95000000e-009,-3.12477670e-006
,,,-4.92500000e-009,2.23517420e-010
,,,-4.90000000e-009,-1.09372773e-005
,,,-4.87500000e-009,-2.49997783e-005
,,,-4.85000000e-009,-3.90622792e-005
,,,-4.82500000e-009,-4.99997800e-005
,,,-4.80000000e-009,-5.46872804e-005
,,,-4.77500000e-009,-4.84372799e-005
,,,-4.75000000e-009,-3.12497787e-005
,,,-4.72500000e-009,2.23517420e-010
,,,-4.70000000e-009,3.75002262e-005
,,,-4.67500000e-009,8.59377296e-005
,,,-4.65000000e-009,1.40625233e-004
,,,-4.62500000e-009,1.98437738e-004
,,,-4.60000000e-009,2.57812742e-004
,,,-4.57500000e-009,3.14062746e-004
,,,-4.55000000e-009,3.62500249e-004
,,,-4.52500000e-009,4.00000252e-004
,,,-4.50000000e-009,4.14062753e-004
,,,-4.47500000e-009,4.10937753e-004
,,,-4.45000000e-009,3.87500251e-004
,,,-4.42500000e-009,3.43750248e-004
,,,-4.40000000e-009,2.81250243e-004
,,,-4.37500000e-009,2.00000238e-004
,,,-4.35000000e-009,1.04687731e-004
,,,-4.32500000e-009,2.23517420e-010
,,,-4.30000000e-009,-1.12499784e-004
,,,-4.27500000e-009,-2.18749792e-004
,,,-4.25000000e-009,-3.10937298e-004
,,,-4.22500000e-009,-3.84374804e-004
,,,-4.20000000e-009,-4.31249807e-004
,,,-4.17500000e-009,-4.49999808e-004
,,,-4.15000000e-009,-4.39062308e-004
,,,-4.12500000e-009,-3.99999805e-004
,,,-4.10000000e-009,-3.39062300e-004
,,,-4.07500000e-009,-2.60937295e-004
,,,-4.05000000e-009,-1.76562289e-004
,,,-4.02500000e-009,-9.68747833e-005
,,,-4.00000000e-009,-3.12497787e-005
,,,-3.97500000e-009,1.09377243e-005
,,,-3.95000000e-009,2.34377252e-005
,,,-3.92500000e-009,2.23517420e-010
,,,-3.90000000e-009,-6.09372808e-005
,,,-3.87500000e-009,-1.51562287e-004
,,,-3.85000000e-009,-2.65624795e-004
,,,-3.82500000e-009,-3.92187304e-004
,,,-3.80000000e-009,-5.20312313e-004
,,,-3.77500000e-009,-6.37499822e-004
,,,-3.75000000e-009,-7.32812328e-004
,,,-3.72500000e-009,-7.99999833e-004
,,,-3.70000000e-009,-8.26562335e-004
,,,-3.67500000e-009,-8.18749834e-004
,,,-3.65000000e-009,-7.78124832e-004
,,,-3.62500000e-009,-7.15624827e-004
,,,-3.60000000e-009,-6.35937321e-004
,,,-3.57500000e-009,-5.51562316e-004
,,,-3.55000000e-009,-4.70312310e-004
,,,-3.52500000e-009,-3.99999805e-004
,,,-3.50000000e-009,-3.43749801e-004
,,,-3.47500000e-009,-3.07812298e-004
,,,-3.45000000e-009,-2.93749797e-004
,,,-3.42500000e-009,-2.98437298e-004
,,,-3.40000000e-009,-3.17187299e-004
,,,-3.37500000e-009,-3.43749801e-004
,,,-3.35000000e-009,-3.73437303e-004
,,,-3.32500000e-009,-3.99999805e-004
,,,-3.30000000e-009,-4.17187306e-004
,,,-3.27500000e-009,-4.23437306e-004
,,,-3.25000000e-009,-4.23437306e-004
,,,-3.22500000e-009,-4.17187306e-004
,,,-3.20000000e-009,-4.09374805e-004
,,,-3.17500000e-009,-4.01562305e-004
,,,-3.15000000e-009,-3.98437305e-004
,,,-3.12500000e-009,-3.99999805e-004
,,,-3.10000000e-009,-4.09374805e-004
,,,-3.07500000e-009,-4.21874806e-004
,,,-3.05000000e-009,-4.35937307e-004
,,,-3.02500000e-009,-4.48437308e-004
,,,-3.00000000e-009,-4.54687309e-004
,,,-2.97500000e-009,-4.49999808e-004
,,,-2.95000000e-009,-4.32812307e-004
,,,-2.92500000e-009,-3.99999805e-004
,,,-2.90000000e-009,-3.53124801e-004
,,,-2.87500000e-009,-2.95312297e-004
,,,-2.85000000e-009,-2.31249793e-004
,,,-2.82500000e-009,-1.67187288e-004
,,,-2.80000000e-009,-1.06249784e-004
,,,-2.77500000e-009,-5.78122806e-005
,,,-2.75000000e-009,-2.03122779e-005
,,,-2.72500000e-009,2.23517420e-010
,,,-2.70000000e-009,-1.56227659e-006
,,,-2.67500000e-009,-1.24997774e-005
,,,-2.65000000e-009,-3.12497787e-005
,,,-2.62500000e-009,-4.84372799e-005
,,,-2.60000000e-009,-5.93747807e-005
,,,-2.57500000e-009,-5.78122806e-005
,,,-2.55000000e-009,-3.90622792e-005
,,,-2.52500000e-009,2.23517420e-010
,,,-2.50000000e-009,5.46877274e-005
,,,-2.47500000e-009,1.23437732e-004
,,,-2.45000000e-009,2.01562738e-004
,,,-2.42500000e-009,2.78125243e-004
,,,-2.40000000e-009,3.43750248e-004
,,,-2.37500000e-009,3.90625251e-004
,,,-2.35000000e-009,4.10937753e-004
,,,-2.32500000e-009,4.00000252e-004
,,,-2.30000000e-009,3.45312748e-004
,,,-2.27500000e-009,2.62500242e-004
,,,-2.25000000e-009,1.54687734e-004
,,,-2.22500000e-009,3.28127258e-005
,,,-2.20000000e-009,-9.21872830e-005
,,,-2.17500000e-009,-2.12499792e-004
,,,-2.15000000e-009,-3.17187299e-004
,,,-2.12500000e-009,-3.99999805e-004
,,,-2.10000000e-009,-4.57812309e-004
,,,-2.07500000e-009,-4.85937311e-004
,,,-2.05000000e-009,-4.92187311e-004
,,,-2.02500000e-009,-4.79687310e-004
,,,-2.00000000e-009,-4.56249809e-004
,,,-1.97500000e-009,-4.31249807e-004
,,,-1.95000000e-009,-4.10937306e-004
,,,-1.92500000e-009,-3.99999805e-004
,,,-1.90000000e-009,-4.03124805e-004
,,,-1.87500000e-009,-4.17187306e-004
,,,-1.85000000e-009,-4.35937307e-004
,,,-1.82500000e-009,-4.54687309e-004
,,,-1.80000000e-009,-4.67187310e-004
,,,-1.77500000e-009,-4.65624809e-004
,,,-1.75000000e-009,-4.43749808e-004
,,,-1.72500000e-009,-3.99999805e-004
,,,-1.70000000e-009,-3.43749801e-004
,,,-1.67500000e-009,-2.71874796e-004
,,,-1.65000000e-009,-1.93749790e-004
,,,-1.62500000e-009,-1.17187285e-004
,,,-1.60000000e-009,-5.15622801e-005
,,,-1.57500000e-009,-4.68727681e-006
,,,-1.55000000e-009,1.25002244e-005
,,,-1.52500000e-009,2.23517420e-010
,,,-1.50000000e-009,-6.71872812e-005
,,,-1.47500000e-009,-1.65624788e-004
,,,-1.45000000e-009,-2.87499797e-004
,,,-1.42500000e-009,-4.20312306e-004
,,,-1.40000000e-009,-5.49999815e-004
,,,-1.37500000e-009,-6.62499823e-004
,,,-1.35000000e-009,-7.49999830e-004
,,,-1.32500000e-009,-7.99999833e-004
,,,-1.30000000e-009,-8.39062336e-004
,,,-1.27500000e-009,-8.42187336e-004
,,,-1.25000000e-009,-8.12499834e-004
,,,-1.22500000e-009,-7.56249830e-004
,,,-1.20000000e-009,-6.78124824e-004
,,,-1.17500000e-009,-5.87499818e-004
,,,-1.15000000e-009,-4.90624811e-004
,,,-1.12500000e-009,-3.99999805e-004
,,,-1.10000000e-009,-3.84374804e-004
,,,-1.07500000e-009,-3.95312304e-004
,,,-1.05000000e-009,-4.34374807e-004
,,,-1.02500000e-009,-4.93749811e-004
,,,-1.00000000e-009,-5.67187317e-004
,,,-9.75000000e-010,-6.45312322e-004
,,,-9.50000000e-010,-7.24999828e-004
,,,-9.25000000e-010,-7.99999833e-004
,,,-9.00000000e-010,-9.48437344e-004
,,,-8.75000000e-010,-1.10156235e-003
,,,-8.50000000e-010,-1.25937487e-003
,,,-8.25000000e-010,-1.41406238e-003
,,,-8.00000000e-010,-1.56718739e-003
,,,-7.75000000e-010,-1.71406240e-003
,,,-7.50000000e-010,-1.85781241e-003
,,,-7.25000000e-010,-1.99999992e-003
,,,-7.00000000e-010,-2.23281243e-003
,,,-6.75000000e-010,-2.48281245e-003
,,,-6.50000000e-010,-2.74374997e-003
,,,-6.25000000e-010,-3.00937499e-003
,,,-6.00000000e-010,-3.27187501e-003
,,,-5.75000000e-010,-3.52500003e-003
,,,-5.50000000e-010,-3.76718754e-003
,,,-5.25000000e-010,-4.00000006e-003
,,,-5.00000000e-010,-4.31718758e-003
,,,-4.75000000e-010,-4.65468761e-003
,,,-4.50000000e-010,-5.01562513e-003
,,,-4.25000000e-010,-5.40156266e-003
,,,-4.00000000e-010,-5.81093769e-003
,,,-3.75000000e-010,-6.24687522e-003
,,,-3.50000000e-010,-6.70937525e-003
,,,-3.25000000e-010,-7.20000029e-003
,,,-3.00000000e-010,-7.79375033e-003
,,,-2.75000000e-010,-8.42812537e-003
,,,-2.50000000e-010,-9.09375042e-003
,,,-2.25000000e-010,-9.77656297e-003
,,,-2.00000000e-010,-1.04625005e-002
,,,-1.75000000e-010,-1.11343756e-002
,,,-1.50000000e-010,-1.17843756e-002
,,,-1.25000000e-010,-1.24000007e-002
,,,-1.00000000e-010,-1.30078132e-002
,,,-7.50000000e-011,-1.35968757e-002
,,,-5.00000000e-011,-1.41687508e-002
,,,-2.50000000e-011,-1.47218758e-002
,,,0.00000000e+000,-1.52609384e-002
,,,2.50000000e-011,-1.57843759e-002
,,,5.00000000e-011,-1.62953134e-002
,,,7.50000000e-011,-1.68000010e-002
,,,1.00000000e-010,-1.72859385e-002
,,,1.25000000e-010,-1.77921885e-002
,,,1.50000000e-010,-1.83234386e-002
,,,1.75000000e-010,-1.88781261e-002
,,,2.00000000e-010,-1.94500012e-002
,,,2.25000000e-010,-2.00328137e-002
,,,2.50000000e-010,-2.06187512e-002
,,,2.75000000e-010,-2.12000013e-002
,,,3.00000000e-010,-2.17078138e-002
,,,3.25000000e-010,-2.22203138e-002
,,,3.50000000e-010,-2.27343764e-002
,,,3.75000000e-010,-2.32484389e-002
,,,4.00000000e-010,-2.37578140e-002
,,,4.25000000e-010,-2.42562515e-002
,,,4.50000000e-010,-2.47390640e-002
,,,4.75000000e-010,-2.52000016e-002
,,,5.00000000e-010,-2.55203141e-002
,,,5.25000000e-010,-2.58296891e-002
,,,5.50000000e-010,-2.61343766e-002
,,,5.75000000e-010,-2.64375016e-002
,,,6.00000000e-010,-2.67390642e-002
,,,6.25000000e-010,-2.70359392e-002
,,,6.50000000e-010,-2.73265642e-002
,,,6.75000000e-010,-2.76000017e-002
,,,7.00000000e-010,-2.77125017e-002
,,,7.25000000e-010,-2.78093767e-002
,,,7.50000000e-010,-2.78937518e-002
,,,7.75000000e-010,-2.79609393e-002
,,,8.00000000e-010,-2.80109393e-002
,,,8.25000000e-010,-2.80375018e-002
,,,8.50000000e-010,-2.80359393e-002
,,,8.75000000e-010,-2.80000018e-002
,,,9.00000000e-010,-2.77921892e-002
,,,9.25000000e-010,-2.75625017e-002
,,,9.50000000e-010,-2.73265642e-002
,,,9.75000000e-010,-2.70968767e-002
,,,1.00000000e-009,-2.68843767e-002
,,,1.02500000e-009,-2.66968767e-002
,,,1.05000000e-009,-2.65375017e-002
,,,1.07500000e-009,-2.64000016e-002
,,,1.10000000e-009,-2.61578141e-002
,,,1.12500000e-009,-2.59171891e-002
,,,1.15000000e-009,-2.56750016e-002
,,,1.17500000e-009,-2.54171891e-002
,,,1.20000000e-009,-2.51328141e-002
,,,1.22500000e-009,-2.48093765e-002
,,,1.25000000e-009,-2.44343765e-002
,,,1.27500000e-009,-2.40000015e-002
,,,1.30000000e-009,-2.34140639e-002
,,,1.32500000e-009,-2.27718764e-002
,,,1.35000000e-009,-2.20875013e-002
,,,1.37500000e-009,-2.13843763e-002
,,,1.40000000e-009,-2.06843762e-002
,,,1.42500000e-009,-2.00109387e-002
,,,1.45000000e-009,-1.93796886e-002
,,,1.47500000e-009,-1.88000011e-002
,,,1.50000000e-009,-1.82421886e-002
,,,1.52500000e-009,-1.77312510e-002
,,,1.55000000e-009,-1.72609385e-002
,,,1.57500000e-009,-1.68250010e-002
,,,1.60000000e-009,-1.64125009e-002
,,,1.62500000e-009,-1.60125009e-002
,,,1.65000000e-009,-1.56125009e-002
,,,1.67500000e-009,-1.52000009e-002
,,,1.70000000e-009,-1.47687508e-002
,,,1.72500000e-009,-1.42984383e-002
,,,1.75000000e-009,-1.37921883e-002
,,,1.77500000e-009,-1.32625007e-002
,,,1.80000000e-009,-1.27218757e-002
,,,1.82500000e-009,-1.21875006e-002
,,,1.85000000e-009,-1.16765631e-002
,,,1.87500000e-009,-1.12000006e-002
,,,1.90000000e-009,-1.08015630e-002
,,,1.92500000e-009,-1.04328130e-002
,,,1.95000000e-009,-1.00937505e-002
,,,1.97500000e-009,-9.78437547e-003
,,,2.00000000e-009,-9.50312545e-003
,,,2.02500000e-009,-9.24843793e-003
,,,2.05000000e-009,-9.01562541e-003
,,,2.07500000e-009,-8.80000040e-003
,,,2.10000000e-009,-8.63750039e-003
,,,2.12500000e-009,-8.45312537e-003
,,,2.15000000e-009,-8.24062536e-003
,,,2.17500000e-009,-7.99843784e-003
,,,2.20000000e-009,-7.72656282e-003
,,,2.22500000e-009,-7.43281280e-003
,,,2.25000000e-009,-7.12187528e-003
,,,2.27500000e-009,-6.80000026e-003
,,,2.30000000e-009,-6.52968774e-003
,,,2.32500000e-009,-6.24687522e-003
,,,2.35000000e-009,-5.95937520e-003
,,,2.37500000e-009,-5.67500018e-003
,,,2.40000000e-009,-5.40781266e-003
,,,2.42500000e-009,-5.16875014e-003
,,,2.45000000e-009,-4.96406263e-003
,,,2.47500000e-009,-4.80000012e-003
,,,2.50000000e-009,-4.72500011e-003
,,,2.52500000e-009,-4.67187511e-003
,,,2.55000000e-009,-4.63125010e-003
,,,2.57500000e-009,-4.59687510e-003
,,,2.60000000e-009,-4.56093760e-003
,,,2.62500000e-009,-4.52031260e-003
,,,2.65000000e-009,-4.46718759e-003
,,,2.67500000e-009,-4.40000009e-003
,,,2.70000000e-009,-4.35312508e-003
,,,2.72500000e-009,-4.27656258e-003
,,,2.75000000e-009,-4.17500007e-003
,,,2.77500000e-009,-4.05625006e-003
,,,2.80000000e-009,-3.92812505e-003
,,,2.82500000e-009,-3.80312505e-003
,,,2.85000000e-009,-3.69218754e-003
,,,2.87500000e-009,-3.60000003e-003
,,,2.90000000e-009,-3.55781253e-003
,,,2.92500000e-009,-3.53437503e-003
,,,2.95000000e-009,-3.52500003e-003
,,,2.97500000e-009,-3.53125003e-003
,,,3.00000000e-009,-3.54531253e-003
,,,3.02500000e-009,-3.56562503e-003
,,,3.05000000e-009,-3.58593753e-003
,,,3.07500000e-009,-3.60000003e-003
,,,3.10000000e-009,-3.61562503e-003
,,,3.12500000e-009,-3.61093753e-003
,,,3.15000000e-009,-3.58281253e-003
,,,3.17500000e-009,-3.53281253e-003
,,,3.20000000e-009,-3.46406252e-003
,,,3.22500000e-009,-3.38281252e-003
,,,3.25000000e-009,-3.29375001e-003
,,,3.27500000e-009,-3.20000000e-003
,,,3.30000000e-009,-3.11875000e-003
,,,3.32500000e-009,-3.03749999e-003
,,,3.35000000e-009,-2.96562499e-003
,,,3.37500000e-009,-2.90312498e-003
,,,3.40000000e-009,-2.85468748e-003
,,,3.42500000e-009,-2.82031248e-003
,,,3.45000000e-009,-2.80312497e-003
,,,3.47500000e-009,-2.79999997e-003
,,,3.50000000e-009,-2.81093748e-003
,,,3.52500000e-009,-2.82656248e-003
,,,3.55000000e-009,-2.84218748e-003
,,,3.57500000e-009,-2.85468748e-003
,,,3.60000000e-009,-2.86093748e-003
,,,3.62500000e-009,-2.85624998e-003
,,,3.65000000e-009,-2.83593748e-003
,,,3.67500000e-009,-2.79999997e-003
,,,3.70000000e-009,-2.74531247e-003
,,,3.72500000e-009,-2.67187497e-003
,,,3.75000000e-009,-2.57968746e-003
,,,3.77500000e-009,-2.47187495e-003
,,,3.80000000e-009,-2.35624994e-003
,,,3.82500000e-009,-2.23593743e-003
,,,3.85000000e-009,-2.11562493e-003
,,,3.87500000e-009,-1.99999992e-003
,,,3.90000000e-009,-1.89843741e-003
,,,3.92500000e-009,-1.80781240e-003
,,,3.95000000e-009,-1.73124990e-003
,,,3.97500000e-009,-1.67343739e-003
,,,4.00000000e-009,-1.63124989e-003
,,,4.02500000e-009,-1.60624989e-003
,,,4.05000000e-009,-1.59687489e-003
,,,4.07500000e-009,-1.59999989e-003
,,,4.10000000e-009,-1.61718739e-003
,,,4.12500000e-009,-1.63749989e-003
,,,4.15000000e-009,-1.65312489e-003
,,,4.17500000e-009,-1.66406239e-003
,,,4.20000000e-009,-1.66562489e-003
,,,4.22500000e-009,-1.65624989e-003
,,,4.25000000e-009,-1.63437489e-003
,,,4.27500000e-009,-1.59999989e-003
,,,4.30000000e-009,-1.55468739e-003
,,,4.32500000e-009,-1.49843738e-003
,,,4.35000000e-009,-1.43437488e-003
,,,4.37500000e-009,-1.37031237e-003
,,,4.40000000e-009,-1.31093737e-003
,,,4.42500000e-009,-1.25937487e-003
,,,4.45000000e-009,-1.22187486e-003
,,,4.47500000e-009,-1.19999986e-003
,,,4.50000000e-009,-1.19531236e-003
,,,4.52500000e-009,-1.19843736e-003
,,,4.55000000e-009,-1.20937486e-003
,,,4.57500000e-009,-1.22343736e-003
,,,4.60000000e-009,-1.23281236e-003
,,,4.62500000e-009,-1.23437486e-003
,,,4.65000000e-009,-1.22499986e-003
,,,4.67500000e-009,-1.19999986e-003
,,,4.70000000e-009,-1.16406236e-003
,,,4.72500000e-009,-1.11093736e-003
,,,4.75000000e-009,-1.04999985e-003
,,,4.77500000e-009,-9.82812346e-004
,,,4.80000000e-009,-9.20312342e-004
,,,4.82500000e-009,-8.65624838e-004
,,,4.85000000e-009,-8.23437335e-004
,,,4.87500000e-009,-7.99999833e-004
,,,4.90000000e-009,-7.95312333e-004
,,,4.92500000e-009,-8.04687333e-004
,,,4.95000000e-009,-8.21874835e-004
,,,4.97500000e-009,-8.40624836e-004
,,,5.00000000e-009,-8.53124837e-004
,,,5.02500000e-009,-8.56249837e-004
,,,5.05000000e-009,-8.39062336e-004
,,,5.07500000e-009,-7.99999833e-004
,,,5.10000000e-009,-7.37499829e-004
,,,5.12500000e-009,-6.53124823e-004
,,,5.15000000e-009,-5.48437315e-004
,,,5.17500000e-009,-4.31249807e-004
,,,5.20000000e-009,-3.10937298e-004
,,,5.22500000e-009,-1.93749790e-004
,,,5.25000000e-009,-8.74997827e-005
,,,5.27500000e-009,2.23517420e-010
,,,5.30000000e-009,5.31252273e-005
,,,5.32500000e-009,8.59377296e-005
,,,5.35000000e-009,9.53127303e-005
,,,5.37500000e-009,8.90627298e-005
,,,5.40000000e-009,7.18752286e-005
,,,5.42500000e-009,4.68752268e-005
,,,5.45000000e-009,2.03127250e-005
,,,5.47500000e-009,2.23517420e-010
,,,5.50000000e-009,-2.65622784e-005
,,,5.52500000e-009,-4.21872795e-005
,,,5.55000000e-009,-4.84372799e-005
,,,5.57500000e-009,-4.53122797e-005
,,,5.60000000e-009,-3.59372790e-005
,,,5.62500000e-009,-2.49997783e-005
,,,5.65000000e-009,-1.09372773e-005
,,,5.67500000e-009,2.23517420e-010
,,,5.70000000e-009,-3.12477670e-006
,,,5.72500000e-009,-9.37477715e-006
,,,5.75000000e-009,-1.71872777e-005
,,,5.77500000e-009,-2.34372781e-005
,,,5.80000000e-009,-2.65622784e-005
,,,5.82500000e-009,-2.49997783e-005
,,,5.85000000e-009,-1.56247776e-005
