RawData/CosmicRays/L6_2pt2C_15mV/wave003_Ch3.csv

"Record Length",1000,"Points",-7.72500000e-009,-8.90624840e-004
"Sample Interval",2.50000000e-011,s,-7.70000000e-009,-8.71874838e-004
"Trigger Point",309,"Samples",-7.67500000e-009,-8.40624836e-004
"Trigger Time",1.45775540e-011,s,-7.65000000e-009,-7.99999833e-004
"",,,-7.62500000e-009,-7.51562330e-004
"Horizontal Offset",-7.72500000e-009,s,-7.60000000e-009,-6.96874826e-004
,,,-7.57500000e-009,-6.42187322e-004
,,,-7.55000000e-009,-5.87499818e-004
,,,-7.52500000e-009,-5.34374814e-004
,,,-7.50000000e-009,-4.84374811e-004
,,,-7.47500000e-009,-4.39062308e-004
,,,-7.45000000e-009,-3.99999805e-004
,,,-7.42500000e-009,-3.70312303e-004
,,,-7.40000000e-009,-3.48437301e-004
,,,-7.37500000e-009,-3.35937300e-004
,,,-7.35000000e-009,-3.34374800e-004
,,,-7.32500000e-009,-3.40624801e-004
,,,-7.30000000e-009,-3.56249802e-004
,,,-7.27500000e-009,-3.76562303e-004
,,,-7.25000000e-009,-3.99999805e-004
,,,-7.22500000e-009,-4.31249807e-004
,,,-7.20000000e-009,-4.57812309e-004
,,,-7.17500000e-009,-4.78124810e-004
,,,-7.15000000e-009,-4.87499811e-004
,,,-7.12500000e-009,-4.85937311e-004
,,,-7.10000000e-009,-4.71874810e-004
,,,-7.07500000e-009,-4.42187308e-004
,,,-7.05000000e-009,-3.99999805e-004
,,,-7.02500000e-009,-3.51562301e-004
,,,-7.00000000e-009,-2.93749797e-004
,,,-6.97500000e-009,-2.31249793e-004
,,,-6.95000000e-009,-1.68749788e-004
,,,-6.92500000e-009,-1.10937284e-004
,,,-6.90000000e-009,-6.09372808e-005
,,,-6.87500000e-009,-2.34372781e-005
,,,-6.85000000e-009,2.23517420e-010
,,,-6.82500000e-009,-3.12477670e-006
,,,-6.80000000e-009,-2.34372781e-005
,,,-6.77500000e-009,-6.09372808e-005
,,,-6.75000000e-009,-1.12499784e-004
,,,-6.72500000e-009,-1.74999789e-004
,,,-6.70000000e-009,-2.46874794e-004
,,,-6.67500000e-009,-3.23437299e-004
,,,-6.65000000e-009,-3.99999805e-004
,,,-6.62500000e-009,-4.81249811e-004
,,,-6.60000000e-009,-5.56249816e-004
,,,-6.57500000e-009,-6.23437321e-004
,,,-6.55000000e-009,-6.79687325e-004
,,,-6.52500000e-009,-7.24999828e-004
,,,-6.50000000e-009,-7.60937330e-004
,,,-6.47500000e-009,-7.85937332e-004
,,,-6.45000000e-009,-7.99999833e-004
,,,-6.42500000e-009,-8.06249834e-004
,,,-6.40000000e-009,-8.07812334e-004
,,,-6.37500000e-009,-8.04687333e-004
,,,-6.35000000e-009,-7.99999833e-004
,,,-6.32500000e-009,-7.96874833e-004
,,,-6.30000000e-009,-7.95312333e-004
,,,-6.27500000e-009,-7.96874833e-004
,,,-6.25000000e-009,-7.99999833e-004
,,,-6.22500000e-009,-8.07812334e-004
,,,-6.20000000e-009,-8.15624834e-004
,,,-6.17500000e-009,-8.24999835e-004
,,,-6.15000000e-009,-8.31249835e-004
,,,-6.12500000e-009,-8.32812335e-004
,,,-6.10000000e-009,-8.29687335e-004
,,,-6.07500000e-009,-8.18749834e-004
,,,-6.05000000e-009,-7.99999833e-004
,,,-6.02500000e-009,-7.76562331e-004
,,,-6.00000000e-009,-7.51562330e-004
,,,-5.97500000e-009,-7.29687328e-004
,,,-5.95000000e-009,-7.15624827e-004
,,,-5.92500000e-009,-7.12499827e-004
,,,-5.90000000e-009,-7.24999828e-004
,,,-5.87500000e-009,-7.54687330e-004
,,,-5.85000000e-009,-7.99999833e-004
,,,-5.82500000e-009,-8.59374837e-004
,,,-5.80000000e-009,-9.28124842e-004
,,,-5.77500000e-009,-1.00312485e-003
,,,-5.75000000e-009,-1.07499985e-003
,,,-5.72500000e-009,-1.13593736e-003
,,,-5.70000000e-009,-1.18124986e-003
,,,-5.67500000e-009,-1.20312486e-003
,,,-5.65000000e-009,-1.19999986e-003
,,,-5.62500000e-009,-1.16718736e-003
,,,-5.60000000e-009,-1.11093736e-003
,,,-5.57500000e-009,-1.04374985e-003
,,,-5.55000000e-009,-9.70312345e-004
,,,-5.52500000e-009,-9.01562340e-004
,,,-5.50000000e-009,-8.45312336e-004
,,,-5.47500000e-009,-8.10937334e-004
,,,-5.45000000e-009,-7.99999833e-004
,,,-5.42500000e-009,-8.18749834e-004
,,,-5.40000000e-009,-8.60937337e-004
,,,-5.37500000e-009,-9.20312342e-004
,,,-5.35000000e-009,-9.92187347e-004
,,,-5.32500000e-009,-1.06406235e-003
,,,-5.30000000e-009,-1.12812486e-003
,,,-5.27500000e-009,-1.17656236e-003
,,,-5.25000000e-009,-1.19999986e-003
,,,-5.22500000e-009,-1.19531236e-003
,,,-5.20000000e-009,-1.16562486e-003
,,,-5.17500000e-009,-1.11406236e-003
,,,-5.15000000e-009,-1.04843735e-003
,,,-5.12500000e-009,-9.76562346e-004
,,,-5.10000000e-009,-9.06249841e-004
,,,-5.07500000e-009,-8.46874836e-004
,,,-5.05000000e-009,-7.99999833e-004
,,,-5.02500000e-009,-7.73437331e-004
,,,-5.00000000e-009,-7.64062331e-004
,,,-4.97500000e-009,-7.70312331e-004
,,,-4.95000000e-009,-7.85937332e-004
,,,-4.92500000e-009,-8.03124833e-004
,,,-4.90000000e-009,-8.14062334e-004
,,,-4.87500000e-009,-8.15624834e-004
,,,-4.85000000e-009,-7.99999833e-004
,,,-4.82500000e-009,-7.64062331e-004
,,,-4.80000000e-009,-7.12499827e-004
,,,-4.77500000e-009,-6.48437322e-004
,,,-4.75000000e-009,-5.78124817e-004
,,,-4.72500000e-009,-5.12499813e-004
,,,-4.70000000e-009,-4.56249809e-004
,,,-4.67500000e-009,-4.17187306e-004
,,,-4.65000000e-009,-3.99999805e-004
,,,-4.62500000e-009,-4.12499806e-004
,,,-4.60000000e-009,-4.45312308e-004
,,,-4.57500000e-009,-4.96874812e-004
,,,-4.55000000e-009,-5.60937316e-004
,,,-4.52500000e-009,-6.31249821e-004
,,,-4.50000000e-009,-6.96874826e-004
,,,-4.47500000e-009,-7.56249830e-004
,,,-4.45000000e-009,-7.99999833e-004
,,,-4.42500000e-009,-8.29687335e-004
,,,-4.40000000e-009,-8.42187336e-004
,,,-4.37500000e-009,-8.40624836e-004
,,,-4.35000000e-009,-8.29687335e-004
,,,-4.32500000e-009,-8.15624834e-004
,,,-4.30000000e-009,-8.03124833e-004
,,,-4.27500000e-009,-7.96874833e-004
,,,-4.25000000e-009,-7.99999833e-004
,,,-4.22500000e-009,-8.15624834e-004
,,,-4.20000000e-009,-8.35937336e-004
,,,-4.17500000e-009,-8.59374837e-004
,,,-4.15000000e-009,-8.79687339e-004
,,,-4.12500000e-009,-8.89062339e-004
,,,-4.10000000e-009,-8.81249839e-004
,,,-4.07500000e-009,-8.53124837e-004
,,,-4.05000000e-009,-7.99999833e-004
,,,-4.02500000e-009,-7.23437328e-004
,,,-4.00000000e-009,-6.26562321e-004
,,,-3.97500000e-009,-5.12499813e-004
,,,-3.95000000e-009,-3.92187304e-004
,,,-3.92500000e-009,-2.71874796e-004
,,,-3.90000000e-009,-1.62499788e-004
,,,-3.87500000e-009,-6.87497813e-005
,,,-3.85000000e-009,2.23517420e-010
,,,-3.82500000e-009,3.12502257e-005
,,,-3.80000000e-009,3.12502257e-005
,,,-3.77500000e-009,3.12522374e-006
,,,-3.75000000e-009,-5.15622801e-005
,,,-3.72500000e-009,-1.24999785e-004
,,,-3.70000000e-009,-2.12499792e-004
,,,-3.67500000e-009,-3.06249798e-004
,,,-3.65000000e-009,-3.99999805e-004
,,,-3.62500000e-009,-4.92187311e-004
,,,-3.60000000e-009,-5.73437317e-004
,,,-3.57500000e-009,-6.42187322e-004
,,,-3.55000000e-009,-6.96874826e-004
,,,-3.52500000e-009,-7.39062329e-004
,,,-3.50000000e-009,-7.68749831e-004
,,,-3.47500000e-009,-7.89062332e-004
,,,-3.45000000e-009,-7.99999833e-004
,,,-3.42500000e-009,-8.06249834e-004
,,,-3.40000000e-009,-8.09374834e-004
,,,-3.37500000e-009,-8.09374834e-004
,,,-3.35000000e-009,-8.07812334e-004
,,,-3.32500000e-009,-8.06249834e-004
,,,-3.30000000e-009,-8.03124833e-004
,,,-3.27500000e-009,-8.01562333e-004
,,,-3.25000000e-009,-7.99999833e-004
,,,-3.22500000e-009,-7.99999833e-004
,,,-3.20000000e-009,-7.98437333e-004
,,,-3.17500000e-009,-7.98437333e-004
,,,-3.15000000e-009,-7.98437333e-004
,,,-3.12500000e-009,-7.98437333e-004
,,,-3.10000000e-009,-7.99999833e-004
,,,-3.07500000e-009,-7.99999833e-004
,,,-3.05000000e-009,-7.99999833e-004
,,,-3.02500000e-009,-8.01562333e-004
,,,-3.00000000e-009,-8.01562333e-004
,,,-2.97500000e-009,-8.03124833e-004
,,,-2.95000000e-009,-8.03124833e-004
,,,-2.92500000e-009,-8.01562333e-004
,,,-2.90000000e-009,-8.01562333e-004
,,,-2.87500000e-009,-8.01562333e-004
,,,-2.85000000e-009,-7.99999833e-004
,,,-2.82500000e-009,-7.96874833e-004
,,,-2.80000000e-009,-7.95312333e-004
,,,-2.77500000e-009,-7.93749833e-004
,,,-2.75000000e-009,-7.93749833e-004
,,,-2.72500000e-009,-7.95312333e-004
,,,-2.70000000e-009,-7.96874833e-004
,,,-2.67500000e-009,-7.98437333e-004
,,,-2.65000000e-009,-7.99999833e-004
,,,-2.62500000e-009,-8.03124833e-004
,,,-2.60000000e-009,-8.04687333e-004
,,,-2.57500000e-009,-8.06249834e-004
,,,-2.55000000e-009,-8.07812334e-004
,,,-2.52500000e-009,-8.07812334e-004
,,,-2.50000000e-009,-8.06249834e-004
,,,-2.47500000e-009,-8.04687333e-004
,,,-2.45000000e-009,-7.99999833e-004
,,,-2.42500000e-009,-7.96874833e-004
,,,-2.40000000e-009,-7.92187333e-004
,,,-2.37500000e-009,-7.87499832e-004
,,,-2.35000000e-009,-7.85937332e-004
,,,-2.32500000e-009,-7.85937332e-004
,,,-2.30000000e-009,-7.87499832e-004
,,,-2.27500000e-009,-7.92187333e-004
,,,-2.25000000e-009,-7.99999833e-004
,,,-2.22500000e-009,-8.10937334e-004
,,,-2.20000000e-009,-8.20312335e-004
,,,-2.17500000e-009,-8.28124835e-004
,,,-2.15000000e-009,-8.32812335e-004
,,,-2.12500000e-009,-8.34374836e-004
,,,-2.10000000e-009,-8.28124835e-004
,,,-2.07500000e-009,-8.17187334e-004
,,,-2.05000000e-009,-7.99999833e-004
,,,-2.02500000e-009,-7.82812332e-004
,,,-2.00000000e-009,-7.64062331e-004
,,,-1.97500000e-009,-7.46874829e-004
,,,-1.95000000e-009,-7.35937329e-004
,,,-1.92500000e-009,-7.32812328e-004
,,,-1.90000000e-009,-7.42187329e-004
,,,-1.87500000e-009,-7.65624831e-004
,,,-1.85000000e-009,-7.99999833e-004
,,,-1.82500000e-009,-8.53124837e-004
,,,-1.80000000e-009,-9.14062341e-004
,,,-1.77500000e-009,-9.81249846e-004
,,,-1.75000000e-009,-1.04687485e-003
,,,-1.72500000e-009,-1.10624985e-003
,,,-1.70000000e-009,-1.15624986e-003
,,,-1.67500000e-009,-1.18749986e-003
,,,-1.65000000e-009,-1.19999986e-003
,,,-1.62500000e-009,-1.20312486e-003
,,,-1.60000000e-009,-1.18593736e-003
,,,-1.57500000e-009,-1.14999986e-003
,,,-1.55000000e-009,-1.09843735e-003
,,,-1.52500000e-009,-1.03281235e-003
,,,-1.50000000e-009,-9.57812344e-004
,,,-1.47500000e-009,-8.79687339e-004
,,,-1.45000000e-009,-7.99999833e-004
,,,-1.42500000e-009,-7.56249830e-004
,,,-1.40000000e-009,-7.24999828e-004
,,,-1.37500000e-009,-7.10937327e-004
,,,-1.35000000e-009,-7.10937327e-004
,,,-1.32500000e-009,-7.21874828e-004
,,,-1.30000000e-009,-7.42187329e-004
,,,-1.27500000e-009,-7.70312331e-004
,,,-1.25000000e-009,-7.99999833e-004
,,,-1.22500000e-009,-8.79687339e-004
,,,-1.20000000e-009,-9.62499845e-004
,,,-1.17500000e-009,-1.04374985e-003
,,,-1.15000000e-009,-1.11406236e-003
,,,-1.12500000e-009,-1.16874986e-003
,,,-1.10000000e-009,-1.20156236e-003
,,,-1.07500000e-009,-1.21093736e-003
,,,-1.05000000e-009,-1.19999986e-003
,,,-1.02500000e-009,-1.23593736e-003
,,,-1.00000000e-009,-1.27031237e-003
,,,-9.75000000e-010,-1.30624987e-003
,,,-9.50000000e-010,-1.34531237e-003
,,,-9.25000000e-010,-1.39218738e-003
,,,-9.00000000e-010,-1.44687488e-003
,,,-8.75000000e-010,-1.51406238e-003
,,,-8.50000000e-010,-1.59999989e-003
,,,-8.25000000e-010,-1.78281240e-003
,,,-8.00000000e-010,-1.99843742e-003
,,,-7.75000000e-010,-2.24374994e-003
,,,-7.50000000e-010,-2.50781245e-003
,,,-7.25000000e-010,-2.78124997e-003
,,,-7.00000000e-010,-3.05937499e-003
,,,-6.75000000e-010,-3.33281251e-003
,,,-6.50000000e-010,-3.60000003e-003
,,,-6.25000000e-010,-3.92343755e-003
,,,-6.00000000e-010,-4.25468758e-003
,,,-5.75000000e-010,-4.59062510e-003
,,,-5.50000000e-010,-4.93281263e-003
,,,-5.25000000e-010,-5.28281265e-003
,,,-5.00000000e-010,-5.64218768e-003
,,,-4.75000000e-010,-6.01406270e-003
,,,-4.50000000e-010,-6.40000023e-003
,,,-4.25000000e-010,-6.83593776e-003
,,,-4.00000000e-010,-7.30156279e-003
,,,-3.75000000e-010,-7.79062533e-003
,,,-3.50000000e-010,-8.30156286e-003
,,,-3.25000000e-010,-8.82343790e-003
,,,-3.00000000e-010,-9.35156294e-003
,,,-2.75000000e-010,-9.87812548e-003
,,,-2.50000000e-010,-1.04000005e-002
,,,-2.25000000e-010,-1.08953130e-002
,,,-2.00000000e-010,-1.13890631e-002
,,,-1.75000000e-010,-1.18843756e-002
,,,-1.50000000e-010,-1.23812507e-002
,,,-1.25000000e-010,-1.28812507e-002
,,,-1.00000000e-010,-1.33859382e-002
,,,-7.50000000e-011,-1.38937508e-002
,,,-5.00000000e-011,-1.44000008e-002
,,,-2.50000000e-011,-1.48359383e-002
,,,0.00000000e+000,-1.52703134e-002
,,,2.50000000e-011,-1.57015634e-002
,,,5.00000000e-011,-1.61250009e-002
,,,7.50000000e-011,-1.65343759e-002
,,,1.00000000e-010,-1.69218760e-002
,,,1.25000000e-010,-1.72796885e-002
,,,1.50000000e-010,-1.76000010e-002
,,,1.75000000e-010,-1.77750010e-002
,,,2.00000000e-010,-1.79156260e-002
,,,2.25000000e-010,-1.80296886e-002
,,,2.50000000e-010,-1.81265636e-002
,,,2.75000000e-010,-1.82093761e-002
,,,3.00000000e-010,-1.82828136e-002
,,,3.25000000e-010,-1.83468761e-002
,,,3.50000000e-010,-1.84000011e-002
,,,3.75000000e-010,-1.83281261e-002
,,,4.00000000e-010,-1.82484386e-002
,,,4.25000000e-010,-1.81671886e-002
,,,4.50000000e-010,-1.80812511e-002
,,,4.75000000e-010,-1.79875010e-002
,,,5.00000000e-010,-1.78812510e-002
,,,5.25000000e-010,-1.77546885e-002
,,,5.50000000e-010,-1.76000010e-002
,,,5.75000000e-010,-1.73078135e-002
,,,6.00000000e-010,-1.69875010e-002
,,,6.25000000e-010,-1.66453135e-002
,,,6.50000000e-010,-1.62875009e-002
,,,6.75000000e-010,-1.59203134e-002
,,,7.00000000e-010,-1.55484384e-002
,,,7.25000000e-010,-1.51750009e-002
,,,7.50000000e-010,-1.48000008e-002
,,,7.75000000e-010,-1.43625008e-002
,,,8.00000000e-010,-1.39312508e-002
,,,8.25000000e-010,-1.35109382e-002
,,,8.50000000e-010,-1.31031257e-002
,,,8.75000000e-010,-1.27093757e-002
,,,9.00000000e-010,-1.23281256e-002
,,,9.25000000e-010,-1.19593756e-002
,,,9.50000000e-010,-1.16000006e-002
,,,9.75000000e-010,-1.12234381e-002
,,,1.00000000e-009,-1.08484380e-002
,,,1.02500000e-009,-1.04796880e-002
,,,1.05000000e-009,-1.01171880e-002
,,,1.07500000e-009,-9.76718797e-003
,,,1.10000000e-009,-9.42968794e-003
,,,1.12500000e-009,-9.10781292e-003
,,,1.15000000e-009,-8.80000040e-003
,,,1.17500000e-009,-8.51562538e-003
,,,1.20000000e-009,-8.23125036e-003
,,,1.22500000e-009,-7.94062534e-003
,,,1.25000000e-009,-7.64531282e-003
,,,1.27500000e-009,-7.34218780e-003
,,,1.30000000e-009,-7.03281277e-003
,,,1.32500000e-009,-6.71718775e-003
,,,1.35000000e-009,-6.40000023e-003
,,,1.37500000e-009,-6.11718771e-003
,,,1.40000000e-009,-5.82656269e-003
,,,1.42500000e-009,-5.53750017e-003
,,,1.45000000e-009,-5.25468765e-003
,,,1.47500000e-009,-4.99218763e-003
,,,1.50000000e-009,-4.75781261e-003
,,,1.52500000e-009,-4.55781260e-003
,,,1.55000000e-009,-4.40000009e-003
,,,1.57500000e-009,-4.32656258e-003
,,,1.60000000e-009,-4.27343758e-003
,,,1.62500000e-009,-4.23281258e-003
,,,1.65000000e-009,-4.19843757e-003
,,,1.67500000e-009,-4.16406257e-003
,,,1.70000000e-009,-4.12187507e-003
,,,1.72500000e-009,-4.06875006e-003
,,,1.75000000e-009,-4.00000006e-003
,,,1.77500000e-009,-3.95000006e-003
,,,1.80000000e-009,-3.87187505e-003
,,,1.82500000e-009,-3.76875004e-003
,,,1.85000000e-009,-3.64687503e-003
,,,1.87500000e-009,-3.52031253e-003
,,,1.90000000e-009,-3.39687502e-003
,,,1.92500000e-009,-3.28750001e-003
,,,1.95000000e-009,-3.20000000e-003
,,,1.97500000e-009,-3.16718750e-003
,,,2.00000000e-009,-3.15156250e-003
,,,2.02500000e-009,-3.15156250e-003
,,,2.05000000e-009,-3.15937500e-003
,,,2.07500000e-009,-3.17343750e-003
,,,2.10000000e-009,-3.18906250e-003
,,,2.12500000e-009,-3.19843750e-003
,,,2.15000000e-009,-3.20000000e-003
,,,2.17500000e-009,-3.20468750e-003
,,,2.20000000e-009,-3.18593750e-003
,,,2.22500000e-009,-3.14687500e-003
,,,2.25000000e-009,-3.09062500e-003
,,,2.27500000e-009,-3.02187499e-003
,,,2.30000000e-009,-2.94687499e-003
,,,2.32500000e-009,-2.87187498e-003
,,,2.35000000e-009,-2.79999997e-003
,,,2.37500000e-009,-2.74687497e-003
,,,2.40000000e-009,-2.69687497e-003
,,,2.42500000e-009,-2.65156246e-003
,,,2.45000000e-009,-2.60624996e-003
,,,2.47500000e-009,-2.55937496e-003
,,,2.50000000e-009,-2.51093745e-003
,,,2.52500000e-009,-2.45937495e-003
,,,2.55000000e-009,-2.39999995e-003
,,,2.57500000e-009,-2.34218744e-003
,,,2.60000000e-009,-2.27968744e-003
,,,2.62500000e-009,-2.21406243e-003
,,,2.65000000e-009,-2.15156243e-003
,,,2.67500000e-009,-2.09531242e-003
,,,2.70000000e-009,-2.04843742e-003
,,,2.72500000e-009,-2.01718742e-003
,,,2.75000000e-009,-1.99999992e-003
,,,2.77500000e-009,-2.00312492e-003
,,,2.80000000e-009,-2.01249992e-003
,,,2.82500000e-009,-2.02812492e-003
,,,2.85000000e-009,-2.04218742e-003
,,,2.87500000e-009,-2.04999992e-003
,,,2.90000000e-009,-2.04843742e-003
,,,2.92500000e-009,-2.03281242e-003
,,,2.95000000e-009,-1.99999992e-003
,,,2.97500000e-009,-1.95312491e-003
,,,3.00000000e-009,-1.89218741e-003
,,,3.02500000e-009,-1.82343741e-003
,,,3.05000000e-009,-1.75312490e-003
,,,3.07500000e-009,-1.68906240e-003
,,,3.10000000e-009,-1.63906239e-003
,,,3.12500000e-009,-1.60781239e-003
,,,3.15000000e-009,-1.59999989e-003
,,,3.17500000e-009,-1.62343739e-003
,,,3.20000000e-009,-1.66562489e-003
,,,3.22500000e-009,-1.72343740e-003
,,,3.25000000e-009,-1.79062490e-003
,,,3.27500000e-009,-1.85937491e-003
,,,3.30000000e-009,-1.92031241e-003
,,,3.32500000e-009,-1.97031242e-003
,,,3.35000000e-009,-1.99999992e-003
,,,3.37500000e-009,-2.00468742e-003
,,,3.40000000e-009,-1.98281242e-003
,,,3.42500000e-009,-1.94062491e-003
,,,3.45000000e-009,-1.88124991e-003
,,,3.47500000e-009,-1.81093740e-003
,,,3.50000000e-009,-1.73749990e-003
,,,3.52500000e-009,-1.66562489e-003
,,,3.55000000e-009,-1.59999989e-003
,,,3.57500000e-009,-1.54218739e-003
,,,3.60000000e-009,-1.49374988e-003
,,,3.62500000e-009,-1.44999988e-003
,,,3.65000000e-009,-1.40937488e-003
,,,3.67500000e-009,-1.36718737e-003
,,,3.70000000e-009,-1.32031237e-003
,,,3.72500000e-009,-1.26562487e-003
,,,3.75000000e-009,-1.19999986e-003
,,,3.77500000e-009,-1.12812486e-003
,,,3.80000000e-009,-1.04843735e-003
,,,3.82500000e-009,-9.68749845e-004
,,,3.85000000e-009,-8.96874840e-004
,,,3.87500000e-009,-8.37499836e-004
,,,3.90000000e-009,-7.99999833e-004
,,,3.92500000e-009,-7.85937332e-004
,,,3.95000000e-009,-7.99999833e-004
,,,3.97500000e-009,-8.43749836e-004
,,,4.00000000e-009,-9.06249841e-004
,,,4.02500000e-009,-9.81249846e-004
,,,4.05000000e-009,-1.05781235e-003
,,,4.07500000e-009,-1.12656236e-003
,,,4.10000000e-009,-1.17812486e-003
,,,4.12500000e-009,-1.20468736e-003
,,,4.15000000e-009,-1.19999986e-003
,,,4.17500000e-009,-1.16093736e-003
,,,4.20000000e-009,-1.08906235e-003
,,,4.22500000e-009,-9.89062346e-004
,,,4.25000000e-009,-8.70312338e-004
,,,4.27500000e-009,-7.42187329e-004
,,,4.30000000e-009,-6.15624820e-004
,,,4.32500000e-009,-4.98437312e-004
,,,4.35000000e-009,-3.99999805e-004
,,,4.37500000e-009,-3.37499800e-004
,,,4.40000000e-009,-2.99999798e-004
,,,4.42500000e-009,-2.85937297e-004
,,,4.45000000e-009,-2.93749797e-004
,,,4.47500000e-009,-3.14062299e-004
,,,4.50000000e-009,-3.43749801e-004
,,,4.52500000e-009,-3.73437303e-004
,,,4.55000000e-009,-3.99999805e-004
,,,4.57500000e-009,-4.28124807e-004
,,,4.60000000e-009,-4.45312308e-004
,,,4.62500000e-009,-4.51562308e-004
,,,4.65000000e-009,-4.46874808e-004
,,,4.67500000e-009,-4.37499807e-004
,,,4.70000000e-009,-4.23437306e-004
,,,4.72500000e-009,-4.10937306e-004
,,,4.75000000e-009,-3.99999805e-004
,,,4.77500000e-009,-3.99999805e-004
,,,4.80000000e-009,-4.04687305e-004
,,,4.82500000e-009,-4.10937306e-004
,,,4.85000000e-009,-4.18749806e-004
,,,4.87500000e-009,-4.23437306e-004
,,,4.90000000e-009,-4.21874806e-004
,,,4.92500000e-009,-4.15624806e-004
,,,4.95000000e-009,-3.99999805e-004
,,,4.97500000e-009,-3.85937304e-004
,,,5.00000000e-009,-3.67187302e-004
,,,5.02500000e-009,-3.48437301e-004
,,,5.05000000e-009,-3.34374800e-004
,,,5.07500000e-009,-3.28124800e-004
,,,5.10000000e-009,-3.34374800e-004
,,,5.12500000e-009,-3.57812302e-004
,,,5.15000000e-009,-3.99999805e-004
,,,5.17500000e-009,-4.65624809e-004
,,,5.20000000e-009,-5.48437315e-004
,,,5.22500000e-009,-6.46874822e-004
,,,5.25000000e-009,-7.54687330e-004
,,,5.27500000e-009,-8.70312338e-004
,,,5.30000000e-009,-9.85937346e-004
,,,5.32500000e-009,-1.09843735e-003
,,,5.35000000e-009,-1.19999986e-003
,,,5.37500000e-009,-1.28281237e-003
,,,5.40000000e-009,-1.34218737e-003
,,,5.42500000e-009,-1.37968737e-003
,,,5.45000000e-009,-1.39218738e-003
,,,5.47500000e-009,-1.37812487e-003
,,,5.50000000e-009,-1.33906237e-003
,,,5.52500000e-009,-1.27812487e-003
,,,5.55000000e-009,-1.19999986e-003
,,,5.57500000e-009,-1.10624985e-003
,,,5.60000000e-009,-1.01093735e-003
,,,5.62500000e-009,-9.23437342e-004
,,,5.65000000e-009,-8.48437337e-004
,,,5.67500000e-009,-7.95312333e-004
,,,5.70000000e-009,-7.68749831e-004
,,,5.72500000e-009,-7.70312331e-004
,,,5.75000000e-009,-7.99999833e-004
,,,5.77500000e-009,-8.53124837e-004
,,,5.80000000e-009,-9.23437342e-004
