RawData/CosmicRays/L6_2pt2C_15mV/wave019_Ch3.csv

"Record Length",1000,"Points",-7.72500000e-009,-5.89062318e-004
"Sample Interval",2.50000000e-011,s,-7.70000000e-009,-5.20312313e-004
"Trigger Point",309,"Samples",-7.67500000e-009,-4.56249809e-004
"Trigger Time",8.71135802e-012,s,-7.65000000e-009,-3.99999805e-004
"",,,-7.62500000e-009,-3.60937302e-004
"Horizontal Offset",-7.72500000e-009,s,-7.60000000e-009,-3.35937300e-004
,,,-7.57500000e-009,-3.24999799e-004
,,,-7.55000000e-009,-3.26562300e-004
,,,-7.52500000e-009,-3.39062300e-004
,,,-7.50000000e-009,-3.57812302e-004
,,,-7.47500000e-009,-3.79687303e-004
,,,-7.45000000e-009,-3.99999805e-004
,,,-7.42500000e-009,-4.20312306e-004
,,,-7.40000000e-009,-4.34374807e-004
,,,-7.37500000e-009,-4.40624808e-004
,,,-7.35000000e-009,-4.40624808e-004
,,,-7.32500000e-009,-4.34374807e-004
,,,-7.30000000e-009,-4.23437306e-004
,,,-7.27500000e-009,-4.12499806e-004
,,,-7.25000000e-009,-3.99999805e-004
,,,-7.22500000e-009,-3.95312304e-004
,,,-7.20000000e-009,-3.92187304e-004
,,,-7.17500000e-009,-3.90624804e-004
,,,-7.15000000e-009,-3.92187304e-004
,,,-7.12500000e-009,-3.95312304e-004
,,,-7.10000000e-009,-3.98437305e-004
,,,-7.07500000e-009,-3.99999805e-004
,,,-7.05000000e-009,-3.99999805e-004
,,,-7.02500000e-009,-3.99999805e-004
,,,-7.00000000e-009,-3.98437305e-004
,,,-6.97500000e-009,-3.95312304e-004
,,,-6.95000000e-009,-3.92187304e-004
,,,-6.92500000e-009,-3.90624804e-004
,,,-6.90000000e-009,-3.92187304e-004
,,,-6.87500000e-009,-3.95312304e-004
,,,-6.85000000e-009,-3.99999805e-004
,,,-6.82500000e-009,-4.12499806e-004
,,,-6.80000000e-009,-4.23437306e-004
,,,-6.77500000e-009,-4.34374807e-004
,,,-6.75000000e-009,-4.40624808e-004
,,,-6.72500000e-009,-4.40624808e-004
,,,-6.70000000e-009,-4.34374807e-004
,,,-6.67500000e-009,-4.20312306e-004
,,,-6.65000000e-009,-3.99999805e-004
,,,-6.62500000e-009,-3.76562303e-004
,,,-6.60000000e-009,-3.49999801e-004
,,,-6.57500000e-009,-3.28124800e-004
,,,-6.55000000e-009,-3.14062299e-004
,,,-6.52500000e-009,-3.10937298e-004
,,,-6.50000000e-009,-3.23437299e-004
,,,-6.47500000e-009,-3.53124801e-004
,,,-6.45000000e-009,-3.99999805e-004
,,,-6.42500000e-009,-4.64062309e-004
,,,-6.40000000e-009,-5.39062315e-004
,,,-6.37500000e-009,-6.15624820e-004
,,,-6.35000000e-009,-6.87499825e-004
,,,-6.32500000e-009,-7.48437329e-004
,,,-6.30000000e-009,-7.90624832e-004
,,,-6.27500000e-009,-8.09374834e-004
,,,-6.25000000e-009,-7.99999833e-004
,,,-6.22500000e-009,-7.65624831e-004
,,,-6.20000000e-009,-7.10937327e-004
,,,-6.17500000e-009,-6.42187322e-004
,,,-6.15000000e-009,-5.68749817e-004
,,,-6.12500000e-009,-4.99999812e-004
,,,-6.10000000e-009,-4.43749808e-004
,,,-6.07500000e-009,-4.09374805e-004
,,,-6.05000000e-009,-3.99999805e-004
,,,-6.02500000e-009,-4.23437306e-004
,,,-6.00000000e-009,-4.68749810e-004
,,,-5.97500000e-009,-5.34374814e-004
,,,-5.95000000e-009,-6.07812320e-004
,,,-5.92500000e-009,-6.79687325e-004
,,,-5.90000000e-009,-7.42187329e-004
,,,-5.87500000e-009,-7.84374832e-004
,,,-5.85000000e-009,-7.99999833e-004
,,,-5.82500000e-009,-7.85937332e-004
,,,-5.80000000e-009,-7.45312329e-004
,,,-5.77500000e-009,-6.84374825e-004
,,,-5.75000000e-009,-6.10937320e-004
,,,-5.72500000e-009,-5.37499815e-004
,,,-5.70000000e-009,-4.71874810e-004
,,,-5.67500000e-009,-4.24999807e-004
,,,-5.65000000e-009,-3.99999805e-004
,,,-5.62500000e-009,-4.04687305e-004
,,,-5.60000000e-009,-4.35937307e-004
,,,-5.57500000e-009,-4.87499811e-004
,,,-5.55000000e-009,-5.54687316e-004
,,,-5.52500000e-009,-6.28124821e-004
,,,-5.50000000e-009,-6.98437326e-004
,,,-5.47500000e-009,-7.57812330e-004
,,,-5.45000000e-009,-7.99999833e-004
,,,-5.42500000e-009,-8.23437335e-004
,,,-5.40000000e-009,-8.26562335e-004
,,,-5.37500000e-009,-8.15624834e-004
,,,-5.35000000e-009,-7.98437333e-004
,,,-5.32500000e-009,-7.81249832e-004
,,,-5.30000000e-009,-7.71874831e-004
,,,-5.27500000e-009,-7.76562331e-004
,,,-5.25000000e-009,-7.99999833e-004
,,,-5.22500000e-009,-8.42187336e-004
,,,-5.20000000e-009,-8.99999840e-004
,,,-5.17500000e-009,-9.68749845e-004
,,,-5.15000000e-009,-1.04218735e-003
,,,-5.12500000e-009,-1.10937486e-003
,,,-5.10000000e-009,-1.16406236e-003
,,,-5.07500000e-009,-1.19687486e-003
,,,-5.05000000e-009,-1.19999986e-003
,,,-5.02500000e-009,-1.16874986e-003
,,,-5.00000000e-009,-1.10468735e-003
,,,-4.97500000e-009,-1.01562485e-003
,,,-4.95000000e-009,-9.03124840e-004
,,,-4.92500000e-009,-7.76562331e-004
,,,-4.90000000e-009,-6.45312322e-004
,,,-4.87500000e-009,-5.17187313e-004
,,,-4.85000000e-009,-3.99999805e-004
,,,-4.82500000e-009,-3.07812298e-004
,,,-4.80000000e-009,-2.40624794e-004
,,,-4.77500000e-009,-2.03124791e-004
,,,-4.75000000e-009,-1.93749790e-004
,,,-4.72500000e-009,-2.14062292e-004
,,,-4.70000000e-009,-2.57812295e-004
,,,-4.67500000e-009,-3.21874799e-004
,,,-4.65000000e-009,-3.99999805e-004
,,,-4.62500000e-009,-4.89062311e-004
,,,-4.60000000e-009,-5.78124817e-004
,,,-4.57500000e-009,-6.59374823e-004
,,,-4.55000000e-009,-7.29687328e-004
,,,-4.52500000e-009,-7.81249832e-004
,,,-4.50000000e-009,-8.10937334e-004
,,,-4.47500000e-009,-8.17187334e-004
,,,-4.45000000e-009,-7.99999833e-004
,,,-4.42500000e-009,-7.60937330e-004
,,,-4.40000000e-009,-7.04687326e-004
,,,-4.37500000e-009,-6.39062322e-004
,,,-4.35000000e-009,-5.70312317e-004
,,,-4.32500000e-009,-5.06249812e-004
,,,-4.30000000e-009,-4.51562308e-004
,,,-4.27500000e-009,-4.15624806e-004
,,,-4.25000000e-009,-3.99999805e-004
,,,-4.22500000e-009,-4.12499806e-004
,,,-4.20000000e-009,-4.45312308e-004
,,,-4.17500000e-009,-4.95312312e-004
,,,-4.15000000e-009,-5.57812316e-004
,,,-4.12500000e-009,-6.26562321e-004
,,,-4.10000000e-009,-6.93749826e-004
,,,-4.07500000e-009,-7.53124830e-004
,,,-4.05000000e-009,-7.99999833e-004
,,,-4.02500000e-009,-8.34374836e-004
,,,-4.00000000e-009,-8.53124837e-004
,,,-3.97500000e-009,-8.56249837e-004
,,,-3.95000000e-009,-8.48437337e-004
,,,-3.92500000e-009,-8.34374836e-004
,,,-3.90000000e-009,-8.18749834e-004
,,,-3.87500000e-009,-8.06249834e-004
,,,-3.85000000e-009,-7.99999833e-004
,,,-3.82500000e-009,-7.98437333e-004
,,,-3.80000000e-009,-8.04687333e-004
,,,-3.77500000e-009,-8.14062334e-004
,,,-3.75000000e-009,-8.26562335e-004
,,,-3.72500000e-009,-8.34374836e-004
,,,-3.70000000e-009,-8.35937336e-004
,,,-3.67500000e-009,-8.24999835e-004
,,,-3.65000000e-009,-7.99999833e-004
,,,-3.62500000e-009,-7.57812330e-004
,,,-3.60000000e-009,-7.04687326e-004
,,,-3.57500000e-009,-6.42187322e-004
,,,-3.55000000e-009,-5.76562317e-004
,,,-3.52500000e-009,-5.14062313e-004
,,,-3.50000000e-009,-4.60937309e-004
,,,-3.47500000e-009,-4.21874806e-004
,,,-3.45000000e-009,-3.99999805e-004
,,,-3.42500000e-009,-4.04687305e-004
,,,-3.40000000e-009,-4.28124807e-004
,,,-3.37500000e-009,-4.71874810e-004
,,,-3.35000000e-009,-5.29687314e-004
,,,-3.32500000e-009,-5.96874819e-004
,,,-3.30000000e-009,-6.67187324e-004
,,,-3.27500000e-009,-7.37499829e-004
,,,-3.25000000e-009,-7.99999833e-004
,,,-3.22500000e-009,-8.51562337e-004
,,,-3.20000000e-009,-8.87499839e-004
,,,-3.17500000e-009,-9.07812341e-004
,,,-3.15000000e-009,-9.12499841e-004
,,,-3.12500000e-009,-9.01562340e-004
,,,-3.10000000e-009,-8.78124839e-004
,,,-3.07500000e-009,-8.43749836e-004
,,,-3.05000000e-009,-7.99999833e-004
,,,-3.02500000e-009,-7.48437329e-004
,,,-3.00000000e-009,-6.92187325e-004
,,,-2.97500000e-009,-6.34374821e-004
,,,-2.95000000e-009,-5.78124817e-004
,,,-2.92500000e-009,-5.26562314e-004
,,,-2.90000000e-009,-4.78124810e-004
,,,-2.87500000e-009,-4.35937307e-004
,,,-2.85000000e-009,-3.99999805e-004
,,,-2.82500000e-009,-3.74999803e-004
,,,-2.80000000e-009,-3.57812302e-004
,,,-2.77500000e-009,-3.46874801e-004
,,,-2.75000000e-009,-3.43749801e-004
,,,-2.72500000e-009,-3.48437301e-004
,,,-2.70000000e-009,-3.59374802e-004
,,,-2.67500000e-009,-3.76562303e-004
,,,-2.65000000e-009,-3.99999805e-004
,,,-2.62500000e-009,-4.34374807e-004
,,,-2.60000000e-009,-4.73437310e-004
,,,-2.57500000e-009,-5.18749813e-004
,,,-2.55000000e-009,-5.68749817e-004
,,,-2.52500000e-009,-6.23437321e-004
,,,-2.50000000e-009,-6.81249825e-004
,,,-2.47500000e-009,-7.40624829e-004
,,,-2.45000000e-009,-7.99999833e-004
,,,-2.42500000e-009,-8.54687337e-004
,,,-2.40000000e-009,-8.99999840e-004
,,,-2.37500000e-009,-9.34374843e-004
,,,-2.35000000e-009,-9.51562344e-004
,,,-2.32500000e-009,-9.48437344e-004
,,,-2.30000000e-009,-9.23437342e-004
,,,-2.27500000e-009,-8.73437338e-004
,,,-2.25000000e-009,-7.99999833e-004
,,,-2.22500000e-009,-7.07812327e-004
,,,-2.20000000e-009,-5.98437319e-004
,,,-2.17500000e-009,-4.79687310e-004
,,,-2.15000000e-009,-3.59374802e-004
,,,-2.12500000e-009,-2.45312294e-004
,,,-2.10000000e-009,-1.42187287e-004
,,,-2.07500000e-009,-5.93747807e-005
,,,-2.05000000e-009,2.23517420e-010
,,,-2.02500000e-009,2.34377252e-005
,,,-2.00000000e-009,1.87502248e-005
,,,-1.97500000e-009,-1.24997774e-005
,,,-1.95000000e-009,-6.56247811e-005
,,,-1.92500000e-009,-1.37499786e-004
,,,-1.90000000e-009,-2.20312292e-004
,,,-1.87500000e-009,-3.10937298e-004
,,,-1.85000000e-009,-3.99999805e-004
,,,-1.82500000e-009,-4.90624811e-004
,,,-1.80000000e-009,-5.70312317e-004
,,,-1.77500000e-009,-6.40624822e-004
,,,-1.75000000e-009,-6.96874826e-004
,,,-1.72500000e-009,-7.40624829e-004
,,,-1.70000000e-009,-7.70312331e-004
,,,-1.67500000e-009,-7.90624832e-004
,,,-1.65000000e-009,-7.99999833e-004
,,,-1.62500000e-009,-8.09374834e-004
,,,-1.60000000e-009,-8.15624834e-004
,,,-1.57500000e-009,-8.18749834e-004
,,,-1.55000000e-009,-8.18749834e-004
,,,-1.52500000e-009,-8.17187334e-004
,,,-1.50000000e-009,-8.14062334e-004
,,,-1.47500000e-009,-8.07812334e-004
,,,-1.45000000e-009,-7.99999833e-004
,,,-1.42500000e-009,-8.10937334e-004
,,,-1.40000000e-009,-8.21874835e-004
,,,-1.37500000e-009,-8.31249835e-004
,,,-1.35000000e-009,-8.37499836e-004
,,,-1.32500000e-009,-8.39062336e-004
,,,-1.30000000e-009,-8.34374836e-004
,,,-1.27500000e-009,-8.21874835e-004
,,,-1.25000000e-009,-7.99999833e-004
,,,-1.22500000e-009,-8.15624834e-004
,,,-1.20000000e-009,-8.29687335e-004
,,,-1.17500000e-009,-8.42187336e-004
,,,-1.15000000e-009,-8.49999837e-004
,,,-1.12500000e-009,-8.51562337e-004
,,,-1.10000000e-009,-8.42187336e-004
,,,-1.07500000e-009,-8.24999835e-004
,,,-1.05000000e-009,-7.99999833e-004
,,,-1.02500000e-009,-8.34374836e-004
,,,-1.00000000e-009,-8.76562339e-004
,,,-9.75000000e-010,-9.28124842e-004
,,,-9.50000000e-010,-9.82812346e-004
,,,-9.25000000e-010,-1.04062485e-003
,,,-9.00000000e-010,-1.09531235e-003
,,,-8.75000000e-010,-1.14843736e-003
,,,-8.50000000e-010,-1.19999986e-003
,,,-8.25000000e-010,-1.33749987e-003
,,,-8.00000000e-010,-1.48906238e-003
,,,-7.75000000e-010,-1.64999989e-003
,,,-7.50000000e-010,-1.81249990e-003
,,,-7.25000000e-010,-1.97187492e-003
,,,-7.00000000e-010,-2.12343743e-003
,,,-6.75000000e-010,-2.26562494e-003
,,,-6.50000000e-010,-2.39999995e-003
,,,-6.25000000e-010,-2.62812496e-003
,,,-6.00000000e-010,-2.87656248e-003
,,,-5.75000000e-010,-3.14531250e-003
,,,-5.50000000e-010,-3.43437502e-003
,,,-5.25000000e-010,-3.74375004e-003
,,,-5.00000000e-010,-4.07343756e-003
,,,-4.75000000e-010,-4.42500009e-003
,,,-4.50000000e-010,-4.80000012e-003
,,,-4.25000000e-010,-5.27968765e-003
,,,-4.00000000e-010,-5.79687519e-003
,,,-3.75000000e-010,-6.34531273e-003
,,,-3.50000000e-010,-6.91406277e-003
,,,-3.25000000e-010,-7.49218781e-003
,,,-3.00000000e-010,-8.07031285e-003
,,,-2.75000000e-010,-8.64062539e-003
,,,-2.50000000e-010,-9.20000043e-003
,,,-2.25000000e-010,-9.78593797e-003
,,,-2.00000000e-010,-1.03734380e-002
,,,-1.75000000e-010,-1.09656256e-002
,,,-1.50000000e-010,-1.15625006e-002
,,,-1.25000000e-010,-1.21625006e-002
,,,-1.00000000e-010,-1.27687507e-002
,,,-7.50000000e-011,-1.33812507e-002
,,,-5.00000000e-011,-1.40000008e-002
,,,-2.50000000e-011,-1.46125008e-002
,,,0.00000000e+000,-1.52453134e-002
,,,2.50000000e-011,-1.58984384e-002
,,,5.00000000e-011,-1.65656259e-002
,,,7.50000000e-011,-1.72390635e-002
,,,1.00000000e-010,-1.79093760e-002
,,,1.25000000e-010,-1.85656261e-002
,,,1.50000000e-010,-1.92000011e-002
,,,1.75000000e-010,-1.97328137e-002
,,,2.00000000e-010,-2.02421887e-002
,,,2.25000000e-010,-2.07312512e-002
,,,2.50000000e-010,-2.11968763e-002
,,,2.75000000e-010,-2.16406263e-002
,,,3.00000000e-010,-2.20562513e-002
,,,3.25000000e-010,-2.24437514e-002
,,,3.50000000e-010,-2.28000014e-002
,,,3.75000000e-010,-2.30125014e-002
,,,4.00000000e-010,-2.32125014e-002
,,,4.25000000e-010,-2.34093764e-002
,,,4.50000000e-010,-2.36046889e-002
,,,4.75000000e-010,-2.38062515e-002
,,,5.00000000e-010,-2.40078140e-002
,,,5.25000000e-010,-2.42078140e-002
,,,5.50000000e-010,-2.44000015e-002
,,,5.75000000e-010,-2.44437515e-002
,,,6.00000000e-010,-2.44796890e-002
,,,6.25000000e-010,-2.45093765e-002
,,,6.50000000e-010,-2.45281265e-002
,,,6.75000000e-010,-2.45343765e-002
,,,7.00000000e-010,-2.45203140e-002
,,,7.25000000e-010,-2.44781265e-002
,,,7.50000000e-010,-2.44000015e-002
,,,7.75000000e-010,-2.41531265e-002
,,,8.00000000e-010,-2.38750015e-002
,,,8.25000000e-010,-2.35765639e-002
,,,8.50000000e-010,-2.32625014e-002
,,,8.75000000e-010,-2.29437514e-002
,,,9.00000000e-010,-2.26250014e-002
,,,9.25000000e-010,-2.23109389e-002
,,,9.50000000e-010,-2.20000013e-002
,,,9.75000000e-010,-2.16015638e-002
,,,1.00000000e-009,-2.12125013e-002
,,,1.02500000e-009,-2.08406263e-002
,,,1.05000000e-009,-2.04843762e-002
,,,1.07500000e-009,-2.01468762e-002
,,,1.10000000e-009,-1.98234387e-002
,,,1.12500000e-009,-1.95109387e-002
,,,1.15000000e-009,-1.92000011e-002
,,,1.17500000e-009,-1.88281261e-002
,,,1.20000000e-009,-1.84437511e-002
,,,1.22500000e-009,-1.80484386e-002
,,,1.25000000e-009,-1.76453135e-002
,,,1.27500000e-009,-1.72359385e-002
,,,1.30000000e-009,-1.68250010e-002
,,,1.32500000e-009,-1.64125009e-002
,,,1.35000000e-009,-1.60000009e-002
,,,1.37500000e-009,-1.55656259e-002
,,,1.40000000e-009,-1.51187508e-002
,,,1.42500000e-009,-1.46640633e-002
,,,1.45000000e-009,-1.42031258e-002
,,,1.47500000e-009,-1.37421882e-002
,,,1.50000000e-009,-1.32843757e-002
,,,1.52500000e-009,-1.28359382e-002
,,,1.55000000e-009,-1.24000007e-002
,,,1.57500000e-009,-1.19906256e-002
,,,1.60000000e-009,-1.15843756e-002
,,,1.62500000e-009,-1.11906256e-002
,,,1.65000000e-009,-1.08125005e-002
,,,1.67500000e-009,-1.04593755e-002
,,,1.70000000e-009,-1.01375005e-002
,,,1.72500000e-009,-9.85000047e-003
,,,1.75000000e-009,-9.60000046e-003
,,,1.77500000e-009,-9.41406294e-003
,,,1.80000000e-009,-9.23593793e-003
,,,1.82500000e-009,-9.05781292e-003
,,,1.85000000e-009,-8.87187540e-003
,,,1.87500000e-009,-8.67656289e-003
,,,1.90000000e-009,-8.46562538e-003
,,,1.92500000e-009,-8.24062536e-003
,,,1.95000000e-009,-8.00000034e-003
,,,1.97500000e-009,-7.77656283e-003
,,,2.00000000e-009,-7.52656281e-003
,,,2.02500000e-009,-7.25468779e-003
,,,2.05000000e-009,-6.97500027e-003
,,,2.07500000e-009,-6.69687525e-003
,,,2.10000000e-009,-6.43437523e-003
,,,2.12500000e-009,-6.20000022e-003
,,,2.15000000e-009,-6.00000020e-003
,,,2.17500000e-009,-5.87187519e-003
,,,2.20000000e-009,-5.76406268e-003
,,,2.22500000e-009,-5.66875018e-003
,,,2.25000000e-009,-5.58281267e-003
,,,2.27500000e-009,-5.49687517e-003
,,,2.30000000e-009,-5.40781266e-003
,,,2.32500000e-009,-5.31093765e-003
,,,2.35000000e-009,-5.20000014e-003
,,,2.37500000e-009,-5.10312514e-003
,,,2.40000000e-009,-4.97656263e-003
,,,2.42500000e-009,-4.82500012e-003
,,,2.45000000e-009,-4.65625011e-003
,,,2.47500000e-009,-4.47812509e-003
,,,2.50000000e-009,-4.30312508e-003
,,,2.52500000e-009,-4.14062507e-003
,,,2.55000000e-009,-4.00000006e-003
,,,2.57500000e-009,-3.91093755e-003
,,,2.60000000e-009,-3.83750005e-003
,,,2.62500000e-009,-3.78125004e-003
,,,2.65000000e-009,-3.73750004e-003
,,,2.67500000e-009,-3.70312504e-003
,,,2.70000000e-009,-3.67031254e-003
,,,2.72500000e-009,-3.63906253e-003
,,,2.75000000e-009,-3.60000003e-003
,,,2.77500000e-009,-3.56562503e-003
,,,2.80000000e-009,-3.50937502e-003
,,,2.82500000e-009,-3.43125002e-003
,,,2.85000000e-009,-3.33125001e-003
,,,2.87500000e-009,-3.21250000e-003
,,,2.90000000e-009,-3.08124999e-003
,,,2.92500000e-009,-2.94218748e-003
,,,2.95000000e-009,-2.79999997e-003
,,,2.97500000e-009,-2.67968747e-003
,,,3.00000000e-009,-2.55937496e-003
,,,3.02500000e-009,-2.44218745e-003
,,,3.05000000e-009,-2.33281244e-003
,,,3.07500000e-009,-2.23124993e-003
,,,3.10000000e-009,-2.14218743e-003
,,,3.12500000e-009,-2.06406242e-003
,,,3.15000000e-009,-1.99999992e-003
,,,3.17500000e-009,-1.96406242e-003
,,,3.20000000e-009,-1.93906241e-003
,,,3.22500000e-009,-1.92343741e-003
,,,3.25000000e-009,-1.91874991e-003
,,,3.27500000e-009,-1.92499991e-003
,,,3.30000000e-009,-1.94218741e-003
,,,3.32500000e-009,-1.96718742e-003
,,,3.35000000e-009,-1.99999992e-003
,,,3.37500000e-009,-2.04531242e-003
,,,3.40000000e-009,-2.08437492e-003
,,,3.42500000e-009,-2.11406243e-003
,,,3.45000000e-009,-2.12812493e-003
,,,3.47500000e-009,-2.12343743e-003
,,,3.50000000e-009,-2.10156243e-003
,,,3.52500000e-009,-2.05937492e-003
,,,3.55000000e-009,-1.99999992e-003
,,,3.57500000e-009,-1.93281241e-003
,,,3.60000000e-009,-1.85624991e-003
,,,3.62500000e-009,-1.77499990e-003
,,,3.65000000e-009,-1.70156240e-003
,,,3.67500000e-009,-1.64062489e-003
,,,3.70000000e-009,-1.60156239e-003
,,,3.72500000e-009,-1.58749989e-003
,,,3.75000000e-009,-1.59999989e-003
,,,3.77500000e-009,-1.64843739e-003
,,,3.80000000e-009,-1.71406240e-003
,,,3.82500000e-009,-1.79218740e-003
,,,3.85000000e-009,-1.86874991e-003
,,,3.87500000e-009,-1.93749991e-003
,,,3.90000000e-009,-1.98749992e-003
,,,3.92500000e-009,-2.00937492e-003
,,,3.95000000e-009,-1.99999992e-003
,,,3.97500000e-009,-1.95937492e-003
,,,4.00000000e-009,-1.88437491e-003
,,,4.02500000e-009,-1.78437490e-003
,,,4.05000000e-009,-1.66406239e-003
,,,4.07500000e-009,-1.53593739e-003
,,,4.10000000e-009,-1.40937488e-003
,,,4.12500000e-009,-1.29531237e-003
,,,4.15000000e-009,-1.19999986e-003
,,,4.17500000e-009,-1.13437486e-003
,,,4.20000000e-009,-1.09687485e-003
,,,4.22500000e-009,-1.08281235e-003
,,,4.25000000e-009,-1.09062485e-003
,,,4.27500000e-009,-1.11249986e-003
,,,4.30000000e-009,-1.14218736e-003
,,,4.32500000e-009,-1.17343736e-003
,,,4.35000000e-009,-1.19999986e-003
,,,4.37500000e-009,-1.22187486e-003
,,,4.40000000e-009,-1.23281236e-003
,,,4.42500000e-009,-1.23281236e-003
,,,4.45000000e-009,-1.22499986e-003
,,,4.47500000e-009,-1.21249986e-003
,,,4.50000000e-009,-1.20156236e-003
,,,4.52500000e-009,-1.19687486e-003
,,,4.55000000e-009,-1.19999986e-003
,,,4.57500000e-009,-1.21874986e-003
,,,4.60000000e-009,-1.24999986e-003
,,,4.62500000e-009,-1.29218737e-003
,,,4.65000000e-009,-1.34687487e-003
,,,4.67500000e-009,-1.40781238e-003
,,,4.70000000e-009,-1.47343738e-003
,,,4.72500000e-009,-1.53906239e-003
,,,4.75000000e-009,-1.59999989e-003
,,,4.77500000e-009,-1.64999989e-003
,,,4.80000000e-009,-1.68749990e-003
,,,4.82500000e-009,-1.71093740e-003
,,,4.85000000e-009,-1.71874990e-003
,,,4.87500000e-009,-1.70937490e-003
,,,4.90000000e-009,-1.68593740e-003
,,,4.92500000e-009,-1.64843739e-003
,,,4.95000000e-009,-1.59999989e-003
,,,4.97500000e-009,-1.54531239e-003
,,,5.00000000e-009,-1.48593738e-003
,,,5.02500000e-009,-1.42499988e-003
,,,5.05000000e-009,-1.36562487e-003
,,,5.07500000e-009,-1.31249987e-003
,,,5.10000000e-009,-1.26562487e-003
,,,5.12500000e-009,-1.22812486e-003
,,,5.15000000e-009,-1.19999986e-003
,,,5.17500000e-009,-1.18281236e-003
,,,5.20000000e-009,-1.17343736e-003
,,,5.22500000e-009,-1.17343736e-003
,,,5.25000000e-009,-1.17812486e-003
,,,5.27500000e-009,-1.18749986e-003
,,,5.30000000e-009,-1.19531236e-003
,,,5.32500000e-009,-1.20156236e-003
,,,5.35000000e-009,-1.19999986e-003
,,,5.37500000e-009,-1.19062486e-003
,,,5.40000000e-009,-1.17031236e-003
,,,5.42500000e-009,-1.13593736e-003
,,,5.45000000e-009,-1.09062485e-003
,,,5.47500000e-009,-1.03124985e-003
,,,5.50000000e-009,-9.60937344e-004
,,,5.52500000e-009,-8.82812339e-004
,,,5.55000000e-009,-7.99999833e-004
,,,5.57500000e-009,-7.24999828e-004
,,,5.60000000e-009,-6.59374823e-004
,,,5.62500000e-009,-6.10937320e-004
,,,5.65000000e-009,-5.85937318e-004
,,,5.67500000e-009,-5.90624818e-004
,,,5.70000000e-009,-6.26562321e-004
,,,5.72500000e-009,-6.98437326e-004
,,,5.75000000e-009,-7.99999833e-004
,,,5.77500000e-009,-9.29687342e-004
,,,5.80000000e-009,-1.07187485e-003
