RawData/CosmicRays/L6_2pt2C_15mV/wave026_Ch3.csv

"Record Length",1000,"Points",-7.72500000e-009,-7.45312329e-004
"Sample Interval",2.50000000e-011,s,-7.70000000e-009,-7.32812328e-004
"Trigger Point",309,"Samples",-7.67500000e-009,-7.29687328e-004
"Trigger Time",3.43379310e-012,s,-7.65000000e-009,-7.39062329e-004
"",,,-7.62500000e-009,-7.64062331e-004
"Horizontal Offset",-7.72500000e-009,s,-7.60000000e-009,-7.99999833e-004
,,,-7.57500000e-009,-8.43749836e-004
,,,-7.55000000e-009,-8.90624840e-004
,,,-7.52500000e-009,-9.31249842e-004
,,,-7.50000000e-009,-9.59374844e-004
,,,-7.47500000e-009,-9.65624845e-004
,,,-7.45000000e-009,-9.43749843e-004
,,,-7.42500000e-009,-8.89062339e-004
,,,-7.40000000e-009,-7.99999833e-004
,,,-7.37500000e-009,-6.78124824e-004
,,,-7.35000000e-009,-5.37499815e-004
,,,-7.32500000e-009,-3.89062304e-004
,,,-7.30000000e-009,-2.48437294e-004
,,,-7.27500000e-009,-1.29687286e-004
,,,-7.25000000e-009,-4.21872795e-005
,,,-7.22500000e-009,1.56272363e-006
,,,-7.20000000e-009,2.23517420e-010
,,,-7.17500000e-009,-5.15622801e-005
,,,-7.15000000e-009,-1.34374786e-004
,,,-7.12500000e-009,-2.34374793e-004
,,,-7.10000000e-009,-3.35937300e-004
,,,-7.07500000e-009,-4.18749806e-004
,,,-7.05000000e-009,-4.64062309e-004
,,,-7.02500000e-009,-4.60937309e-004
,,,-7.00000000e-009,-3.99999805e-004
,,,-6.97500000e-009,-2.84374797e-004
,,,-6.95000000e-009,-1.18749785e-004
,,,-6.92500000e-009,7.81252290e-005
,,,-6.90000000e-009,2.85937744e-004
,,,-6.87500000e-009,4.82812758e-004
,,,-6.85000000e-009,6.45312769e-004
,,,-6.82500000e-009,7.56250277e-004
,,,-6.80000000e-009,8.00000280e-004
,,,-6.77500000e-009,7.59375277e-004
,,,-6.75000000e-009,6.51562770e-004
,,,-6.72500000e-009,4.92187758e-004
,,,-6.70000000e-009,2.96875245e-004
,,,-6.67500000e-009,8.90627298e-005
,,,-6.65000000e-009,-1.09374784e-004
,,,-6.62500000e-009,-2.78124796e-004
,,,-6.60000000e-009,-3.99999805e-004
,,,-6.57500000e-009,-4.68749810e-004
,,,-6.55000000e-009,-4.78124810e-004
,,,-6.52500000e-009,-4.37499807e-004
,,,-6.50000000e-009,-3.57812302e-004
,,,-6.47500000e-009,-2.57812295e-004
,,,-6.45000000e-009,-1.53124787e-004
,,,-6.42500000e-009,-6.40622810e-005
,,,-6.40000000e-009,2.23517420e-010
,,,-6.37500000e-009,2.03127250e-005
,,,-6.35000000e-009,3.12522374e-006
,,,-6.32500000e-009,-4.68747798e-005
,,,-6.30000000e-009,-1.20312285e-004
,,,-6.27500000e-009,-2.06249791e-004
,,,-6.25000000e-009,-2.89062297e-004
,,,-6.22500000e-009,-3.57812302e-004
,,,-6.20000000e-009,-3.99999805e-004
,,,-6.17500000e-009,-4.09374805e-004
,,,-6.15000000e-009,-3.85937304e-004
,,,-6.12500000e-009,-3.34374800e-004
,,,-6.10000000e-009,-2.64062295e-004
,,,-6.07500000e-009,-1.84374790e-004
,,,-6.05000000e-009,-1.06249784e-004
,,,-6.02500000e-009,-4.21872795e-005
,,,-6.00000000e-009,2.23517420e-010
,,,-5.97500000e-009,1.25002244e-005
,,,-5.95000000e-009,-4.68727681e-006
,,,-5.92500000e-009,-4.68747798e-005
,,,-5.90000000e-009,-1.09374784e-004
,,,-5.87500000e-009,-1.84374790e-004
,,,-5.85000000e-009,-2.62499795e-004
,,,-5.82500000e-009,-3.37499800e-004
,,,-5.80000000e-009,-3.99999805e-004
,,,-5.77500000e-009,-4.40624808e-004
,,,-5.75000000e-009,-4.64062309e-004
,,,-5.72500000e-009,-4.70312310e-004
,,,-5.70000000e-009,-4.64062309e-004
,,,-5.67500000e-009,-4.48437308e-004
,,,-5.65000000e-009,-4.29687307e-004
,,,-5.62500000e-009,-4.12499806e-004
,,,-5.60000000e-009,-3.99999805e-004
,,,-5.57500000e-009,-3.93749804e-004
,,,-5.55000000e-009,-3.93749804e-004
,,,-5.52500000e-009,-3.99999805e-004
,,,-5.50000000e-009,-4.09374805e-004
,,,-5.47500000e-009,-4.17187306e-004
,,,-5.45000000e-009,-4.21874806e-004
,,,-5.42500000e-009,-4.17187306e-004
,,,-5.40000000e-009,-3.99999805e-004
,,,-5.37500000e-009,-3.68749803e-004
,,,-5.35000000e-009,-3.26562300e-004
,,,-5.32500000e-009,-2.74999796e-004
,,,-5.30000000e-009,-2.15624792e-004
,,,-5.27500000e-009,-1.56249788e-004
,,,-5.25000000e-009,-9.68747833e-005
,,,-5.22500000e-009,-4.37497796e-005
,,,-5.20000000e-009,2.23517420e-010
,,,-5.17500000e-009,2.81252255e-005
,,,-5.15000000e-009,4.53127267e-005
,,,-5.12500000e-009,5.00002271e-005
,,,-5.10000000e-009,4.68752268e-005
,,,-5.07500000e-009,3.75002262e-005
,,,-5.05000000e-009,2.50002253e-005
,,,-5.02500000e-009,1.09377243e-005
,,,-5.00000000e-009,2.23517420e-010
,,,-4.97500000e-009,-9.37477715e-006
,,,-4.95000000e-009,-1.24997774e-005
,,,-4.92500000e-009,-1.24997774e-005
,,,-4.90000000e-009,-9.37477715e-006
,,,-4.87500000e-009,-4.68727681e-006
,,,-4.85000000e-009,-1.56227659e-006
,,,-4.82500000e-009,2.23517420e-010
,,,-4.80000000e-009,2.23517420e-010
,,,-4.77500000e-009,-4.68727681e-006
,,,-4.75000000e-009,-9.37477715e-006
,,,-4.72500000e-009,-1.40622775e-005
,,,-4.70000000e-009,-1.87497778e-005
,,,-4.67500000e-009,-2.03122779e-005
,,,-4.65000000e-009,-1.71872777e-005
,,,-4.62500000e-009,-1.09372773e-005
,,,-4.60000000e-009,2.23517420e-010
,,,-4.57500000e-009,9.37522418e-006
,,,-4.55000000e-009,2.18752251e-005
,,,-4.52500000e-009,3.28127258e-005
,,,-4.50000000e-009,4.21877265e-005
,,,-4.47500000e-009,4.53127267e-005
,,,-4.45000000e-009,4.06252264e-005
,,,-4.42500000e-009,2.50002253e-005
,,,-4.40000000e-009,2.23517420e-010
,,,-4.37500000e-009,-3.90622792e-005
,,,-4.35000000e-009,-8.74997827e-005
,,,-4.32500000e-009,-1.42187287e-004
,,,-4.30000000e-009,-1.99999791e-004
,,,-4.27500000e-009,-2.59374795e-004
,,,-4.25000000e-009,-3.15624799e-004
,,,-4.22500000e-009,-3.64062302e-004
,,,-4.20000000e-009,-3.99999805e-004
,,,-4.17500000e-009,-4.18749806e-004
,,,-4.15000000e-009,-4.17187306e-004
,,,-4.12500000e-009,-3.95312304e-004
,,,-4.10000000e-009,-3.53124801e-004
,,,-4.07500000e-009,-2.89062297e-004
,,,-4.05000000e-009,-2.07812291e-004
,,,-4.02500000e-009,-1.09374784e-004
,,,-4.00000000e-009,2.23517420e-010
,,,-3.97500000e-009,1.10937731e-004
,,,-3.95000000e-009,2.18750239e-004
,,,-3.92500000e-009,3.14062746e-004
,,,-3.90000000e-009,3.90625251e-004
,,,-3.87500000e-009,4.40625255e-004
,,,-3.85000000e-009,4.60937756e-004
,,,-3.82500000e-009,4.46875255e-004
,,,-3.80000000e-009,4.00000252e-004
,,,-3.77500000e-009,3.15625246e-004
,,,-3.75000000e-009,2.09375238e-004
,,,-3.72500000e-009,8.75002297e-005
,,,-3.70000000e-009,-4.06247794e-005
,,,-3.67500000e-009,-1.60937288e-004
,,,-3.65000000e-009,-2.67187295e-004
,,,-3.62500000e-009,-3.48437301e-004
,,,-3.60000000e-009,-3.99999805e-004
,,,-3.57500000e-009,-4.20312306e-004
,,,-3.55000000e-009,-4.06249805e-004
,,,-3.52500000e-009,-3.65624802e-004
,,,-3.50000000e-009,-3.03124798e-004
,,,-3.47500000e-009,-2.28124793e-004
,,,-3.45000000e-009,-1.46874787e-004
,,,-3.42500000e-009,-6.87497813e-005
,,,-3.40000000e-009,2.23517420e-010
,,,-3.37500000e-009,4.68752268e-005
,,,-3.35000000e-009,7.65627289e-005
,,,-3.32500000e-009,8.59377296e-005
,,,-3.30000000e-009,8.12502293e-005
,,,-3.27500000e-009,6.40627281e-005
,,,-3.25000000e-009,4.21877265e-005
,,,-3.22500000e-009,1.87502248e-005
,,,-3.20000000e-009,2.23517420e-010
,,,-3.17500000e-009,-1.87497778e-005
,,,-3.15000000e-009,-2.81247785e-005
,,,-3.12500000e-009,-2.96872786e-005
,,,-3.10000000e-009,-2.49997783e-005
,,,-3.07500000e-009,-1.56247776e-005
,,,-3.05000000e-009,-6.24977692e-006
,,,-3.02500000e-009,2.23517420e-010
,,,-3.00000000e-009,2.23517420e-010
,,,-2.97500000e-009,-1.40622775e-005
,,,-2.95000000e-009,-3.74997791e-005
,,,-2.92500000e-009,-7.49997818e-005
,,,-2.90000000e-009,-1.23437285e-004
,,,-2.87500000e-009,-1.82812289e-004
,,,-2.85000000e-009,-2.51562294e-004
,,,-2.82500000e-009,-3.24999799e-004
,,,-2.80000000e-009,-3.99999805e-004
,,,-2.77500000e-009,-4.73437310e-004
,,,-2.75000000e-009,-5.42187315e-004
,,,-2.72500000e-009,-6.06249819e-004
,,,-2.70000000e-009,-6.64062323e-004
,,,-2.67500000e-009,-7.12499827e-004
,,,-2.65000000e-009,-7.51562330e-004
,,,-2.62500000e-009,-7.81249832e-004
,,,-2.60000000e-009,-7.99999833e-004
,,,-2.57500000e-009,-8.07812334e-004
,,,-2.55000000e-009,-8.09374834e-004
,,,-2.52500000e-009,-8.06249834e-004
,,,-2.50000000e-009,-7.99999833e-004
,,,-2.47500000e-009,-7.95312333e-004
,,,-2.45000000e-009,-7.93749833e-004
,,,-2.42500000e-009,-7.95312333e-004
,,,-2.40000000e-009,-7.99999833e-004
,,,-2.37500000e-009,-8.07812334e-004
,,,-2.35000000e-009,-8.18749834e-004
,,,-2.32500000e-009,-8.29687335e-004
,,,-2.30000000e-009,-8.39062336e-004
,,,-2.27500000e-009,-8.43749836e-004
,,,-2.25000000e-009,-8.40624836e-004
,,,-2.22500000e-009,-8.26562335e-004
,,,-2.20000000e-009,-7.99999833e-004
,,,-2.17500000e-009,-7.57812330e-004
,,,-2.15000000e-009,-7.06249826e-004
,,,-2.12500000e-009,-6.46874822e-004
,,,-2.10000000e-009,-5.87499818e-004
,,,-2.07500000e-009,-5.28124814e-004
,,,-2.05000000e-009,-4.76562310e-004
,,,-2.02500000e-009,-4.32812307e-004
,,,-2.00000000e-009,-3.99999805e-004
,,,-1.97500000e-009,-3.81249803e-004
,,,-1.95000000e-009,-3.74999803e-004
,,,-1.92500000e-009,-3.76562303e-004
,,,-1.90000000e-009,-3.85937304e-004
,,,-1.87500000e-009,-3.95312304e-004
,,,-1.85000000e-009,-4.03124805e-004
,,,-1.82500000e-009,-4.06249805e-004
,,,-1.80000000e-009,-3.99999805e-004
,,,-1.77500000e-009,-3.89062304e-004
,,,-1.75000000e-009,-3.71874803e-004
,,,-1.72500000e-009,-3.53124801e-004
,,,-1.70000000e-009,-3.37499800e-004
,,,-1.67500000e-009,-3.31249800e-004
,,,-1.65000000e-009,-3.37499800e-004
,,,-1.62500000e-009,-3.60937302e-004
,,,-1.60000000e-009,-3.99999805e-004
,,,-1.57500000e-009,-4.64062309e-004
,,,-1.55000000e-009,-5.39062315e-004
,,,-1.52500000e-009,-6.17187320e-004
,,,-1.50000000e-009,-6.92187325e-004
,,,-1.47500000e-009,-7.54687330e-004
,,,-1.45000000e-009,-7.96874833e-004
,,,-1.42500000e-009,-8.14062334e-004
,,,-1.40000000e-009,-7.99999833e-004
,,,-1.37500000e-009,-7.71874831e-004
,,,-1.35000000e-009,-7.21874828e-004
,,,-1.32500000e-009,-6.56249823e-004
,,,-1.30000000e-009,-5.85937318e-004
,,,-1.27500000e-009,-5.15624813e-004
,,,-1.25000000e-009,-4.57812309e-004
,,,-1.22500000e-009,-4.17187306e-004
,,,-1.20000000e-009,-3.99999805e-004
,,,-1.17500000e-009,-4.43749808e-004
,,,-1.15000000e-009,-5.12499813e-004
,,,-1.12500000e-009,-5.96874819e-004
,,,-1.10000000e-009,-6.82812325e-004
,,,-1.07500000e-009,-7.57812330e-004
,,,-1.05000000e-009,-8.07812334e-004
,,,-1.02500000e-009,-8.23437335e-004
,,,-1.00000000e-009,-7.99999833e-004
,,,-9.75000000e-010,-8.06249834e-004
,,,-9.50000000e-010,-7.87499832e-004
,,,-9.25000000e-010,-7.45312329e-004
,,,-9.00000000e-010,-6.84374825e-004
,,,-8.75000000e-010,-6.12499820e-004
,,,-8.50000000e-010,-5.34374814e-004
,,,-8.25000000e-010,-4.59374809e-004
,,,-8.00000000e-010,-3.99999805e-004
,,,-7.75000000e-010,-4.87499811e-004
,,,-7.50000000e-010,-6.18749820e-004
,,,-7.25000000e-010,-7.84374832e-004
,,,-7.00000000e-010,-9.70312345e-004
,,,-6.75000000e-010,-1.15781236e-003
,,,-6.50000000e-010,-1.33124987e-003
,,,-6.25000000e-010,-1.48124988e-003
,,,-6.00000000e-010,-1.59999989e-003
,,,-5.75000000e-010,-1.84843741e-003
,,,-5.50000000e-010,-2.09218742e-003
,,,-5.25000000e-010,-2.32343744e-003
,,,-5.00000000e-010,-2.53593746e-003
,,,-4.75000000e-010,-2.72656247e-003
,,,-4.50000000e-010,-2.89687498e-003
,,,-4.25000000e-010,-3.04999999e-003
,,,-4.00000000e-010,-3.20000000e-003
,,,-3.75000000e-010,-3.54531253e-003
,,,-3.50000000e-010,-3.94218756e-003
,,,-3.25000000e-010,-4.39218759e-003
,,,-3.00000000e-010,-4.88593762e-003
,,,-2.75000000e-010,-5.41718766e-003
,,,-2.50000000e-010,-5.97968770e-003
,,,-2.25000000e-010,-6.57343774e-003
,,,-2.00000000e-010,-7.20000029e-003
,,,-1.75000000e-010,-8.01562534e-003
,,,-1.50000000e-010,-8.89843791e-003
,,,-1.25000000e-010,-9.84375047e-003
,,,-1.00000000e-010,-1.08421880e-002
,,,-7.50000000e-011,-1.18843756e-002
,,,-5.00000000e-011,-1.29609382e-002
,,,-2.50000000e-011,-1.40671883e-002
,,,0.00000000e+000,-1.52000009e-002
,,,2.50000000e-011,-1.64171884e-002
,,,5.00000000e-011,-1.76734385e-002
,,,7.50000000e-011,-1.89656261e-002
,,,1.00000000e-010,-2.02812512e-002
,,,1.25000000e-010,-2.16125013e-002
,,,1.50000000e-010,-2.29484389e-002
,,,1.75000000e-010,-2.42796890e-002
,,,2.00000000e-010,-2.56000016e-002
,,,2.25000000e-010,-2.68375017e-002
,,,2.50000000e-010,-2.80765643e-002
,,,2.75000000e-010,-2.93234394e-002
,,,3.00000000e-010,-3.05765644e-002
,,,3.25000000e-010,-3.18390645e-002
,,,3.50000000e-010,-3.31015646e-002
,,,3.75000000e-010,-3.43593772e-002
,,,4.00000000e-010,-3.56000023e-002
,,,4.25000000e-010,-3.66187524e-002
,,,4.50000000e-010,-3.76156274e-002
,,,4.75000000e-010,-3.85890650e-002
,,,5.00000000e-010,-3.95343776e-002
,,,5.25000000e-010,-4.04421901e-002
,,,5.50000000e-010,-4.12984402e-002
,,,5.75000000e-010,-4.20890653e-002
,,,6.00000000e-010,-4.28000028e-002
,,,6.25000000e-010,-4.31390653e-002
,,,6.50000000e-010,-4.34046903e-002
,,,6.75000000e-010,-4.36109404e-002
,,,7.00000000e-010,-4.37687529e-002
,,,7.25000000e-010,-4.38859404e-002
,,,7.50000000e-010,-4.39656279e-002
,,,7.75000000e-010,-4.40062529e-002
,,,8.00000000e-010,-4.40000029e-002
,,,8.25000000e-010,-4.36500029e-002
,,,8.50000000e-010,-4.32671903e-002
,,,8.75000000e-010,-4.28609403e-002
,,,9.00000000e-010,-4.24328153e-002
,,,9.25000000e-010,-4.19828152e-002
,,,9.50000000e-010,-4.15000027e-002
,,,9.75000000e-010,-4.09765652e-002
,,,1.00000000e-009,-4.04000026e-002
,,,1.02500000e-009,-3.95187526e-002
,,,1.05000000e-009,-3.85937525e-002
,,,1.07500000e-009,-3.76375024e-002
,,,1.10000000e-009,-3.66671899e-002
,,,1.12500000e-009,-3.56906273e-002
,,,1.15000000e-009,-3.47171897e-002
,,,1.17500000e-009,-3.37531272e-002
,,,1.20000000e-009,-3.28000021e-002
,,,1.22500000e-009,-3.17187520e-002
,,,1.25000000e-009,-3.06546894e-002
,,,1.27500000e-009,-2.96125019e-002
,,,1.30000000e-009,-2.86000018e-002
,,,1.32500000e-009,-2.76109392e-002
,,,1.35000000e-009,-2.66500017e-002
,,,1.37500000e-009,-2.57140641e-002
,,,1.40000000e-009,-2.48000015e-002
,,,1.42500000e-009,-2.38703140e-002
,,,1.45000000e-009,-2.29484389e-002
,,,1.47500000e-009,-2.20406263e-002
,,,1.50000000e-009,-2.11531263e-002
,,,1.52500000e-009,-2.02968762e-002
,,,1.55000000e-009,-1.94828137e-002
,,,1.57500000e-009,-1.87156261e-002
,,,1.60000000e-009,-1.80000011e-002
,,,1.62500000e-009,-1.73796885e-002
,,,1.65000000e-009,-1.67718760e-002
,,,1.67500000e-009,-1.61703134e-002
,,,1.70000000e-009,-1.55718759e-002
,,,1.72500000e-009,-1.49734383e-002
,,,1.75000000e-009,-1.43781258e-002
,,,1.77500000e-009,-1.37843758e-002
,,,1.80000000e-009,-1.32000007e-002
,,,1.82500000e-009,-1.27171882e-002
,,,1.85000000e-009,-1.22171881e-002
,,,1.87500000e-009,-1.17093756e-002
,,,1.90000000e-009,-1.12062506e-002
,,,1.92500000e-009,-1.07265630e-002
,,,1.95000000e-009,-1.02890630e-002
,,,1.97500000e-009,-9.90937548e-003
,,,2.00000000e-009,-9.60000046e-003
,,,2.02500000e-009,-9.46250045e-003
,,,2.05000000e-009,-9.35312544e-003
,,,2.07500000e-009,-9.26406293e-003
,,,2.10000000e-009,-9.18281293e-003
,,,2.12500000e-009,-9.10156292e-003
,,,2.15000000e-009,-9.01562541e-003
,,,2.17500000e-009,-8.91562541e-003
,,,2.20000000e-009,-8.80000040e-003
,,,2.22500000e-009,-8.73125039e-003
,,,2.25000000e-009,-8.60781289e-003
,,,2.27500000e-009,-8.43281287e-003
,,,2.30000000e-009,-8.21250036e-003
,,,2.32500000e-009,-7.96250034e-003
,,,2.35000000e-009,-7.69843782e-003
,,,2.37500000e-009,-7.44062530e-003
,,,2.40000000e-009,-7.20000029e-003
,,,2.42500000e-009,-7.03906277e-003
,,,2.45000000e-009,-6.89218776e-003
,,,2.47500000e-009,-6.76250026e-003
,,,2.50000000e-009,-6.65000025e-003
,,,2.52500000e-009,-6.55937524e-003
,,,2.55000000e-009,-6.48750024e-003
,,,2.57500000e-009,-6.43593773e-003
,,,2.60000000e-009,-6.40000023e-003
,,,2.62500000e-009,-6.40000023e-003
,,,2.65000000e-009,-6.38906273e-003
,,,2.67500000e-009,-6.36250023e-003
,,,2.70000000e-009,-6.32031272e-003
,,,2.72500000e-009,-6.26093772e-003
,,,2.75000000e-009,-6.18593771e-003
,,,2.77500000e-009,-6.09843771e-003
,,,2.80000000e-009,-6.00000020e-003
,,,2.82500000e-009,-5.89843769e-003
,,,2.85000000e-009,-5.77500019e-003
,,,2.87500000e-009,-5.63437518e-003
,,,2.90000000e-009,-5.47968766e-003
,,,2.92500000e-009,-5.31406265e-003
,,,2.95000000e-009,-5.14375014e-003
,,,2.97500000e-009,-4.97031263e-003
,,,3.00000000e-009,-4.80000012e-003
,,,3.02500000e-009,-4.63906260e-003
,,,3.05000000e-009,-4.47812509e-003
,,,3.07500000e-009,-4.31875008e-003
,,,3.10000000e-009,-4.16250007e-003
,,,3.12500000e-009,-4.01250006e-003
,,,3.15000000e-009,-3.86718755e-003
,,,3.17500000e-009,-3.72968754e-003
,,,3.20000000e-009,-3.60000003e-003
,,,3.22500000e-009,-3.48906252e-003
,,,3.25000000e-009,-3.37968752e-003
,,,3.27500000e-009,-3.27187501e-003
,,,3.30000000e-009,-3.16718750e-003
,,,3.32500000e-009,-3.06718749e-003
,,,3.35000000e-009,-2.97187499e-003
,,,3.37500000e-009,-2.88281248e-003
,,,3.40000000e-009,-2.79999997e-003
,,,3.42500000e-009,-2.72968747e-003
,,,3.45000000e-009,-2.65468746e-003
,,,3.47500000e-009,-2.57187496e-003
,,,3.50000000e-009,-2.47968745e-003
,,,3.52500000e-009,-2.37656244e-003
,,,3.55000000e-009,-2.26093744e-003
,,,3.57500000e-009,-2.13593743e-003
,,,3.60000000e-009,-1.99999992e-003
,,,3.62500000e-009,-1.87343741e-003
,,,3.65000000e-009,-1.74062490e-003
,,,3.67500000e-009,-1.60937489e-003
,,,3.70000000e-009,-1.48437488e-003
,,,3.72500000e-009,-1.37656237e-003
,,,3.75000000e-009,-1.28906237e-003
,,,3.77500000e-009,-1.22968736e-003
,,,3.80000000e-009,-1.19999986e-003
,,,3.82500000e-009,-1.21874986e-003
,,,3.85000000e-009,-1.25937487e-003
,,,3.87500000e-009,-1.31562487e-003
,,,3.90000000e-009,-1.38124987e-003
,,,3.92500000e-009,-1.44843738e-003
,,,3.95000000e-009,-1.51093738e-003
,,,3.97500000e-009,-1.56406239e-003
,,,4.00000000e-009,-1.59999989e-003
,,,4.02500000e-009,-1.62499989e-003
,,,4.05000000e-009,-1.62343739e-003
,,,4.07500000e-009,-1.59374989e-003
,,,4.10000000e-009,-1.54062489e-003
,,,4.12500000e-009,-1.46874988e-003
,,,4.15000000e-009,-1.38437487e-003
,,,4.17500000e-009,-1.29374987e-003
,,,4.20000000e-009,-1.19999986e-003
,,,4.22500000e-009,-1.12031236e-003
,,,4.25000000e-009,-1.04687485e-003
,,,4.27500000e-009,-9.81249846e-004
,,,4.30000000e-009,-9.24999842e-004
,,,4.32500000e-009,-8.79687339e-004
,,,4.35000000e-009,-8.45312336e-004
,,,4.37500000e-009,-8.18749834e-004
,,,4.40000000e-009,-7.99999833e-004
,,,4.42500000e-009,-7.96874833e-004
,,,4.45000000e-009,-7.96874833e-004
,,,4.47500000e-009,-7.98437333e-004
,,,4.50000000e-009,-7.98437333e-004
,,,4.52500000e-009,-7.99999833e-004
,,,4.55000000e-009,-7.99999833e-004
,,,4.57500000e-009,-7.99999833e-004
,,,4.60000000e-009,-7.99999833e-004
,,,4.62500000e-009,-8.07812334e-004
,,,4.65000000e-009,-8.12499834e-004
,,,4.67500000e-009,-8.15624834e-004
,,,4.70000000e-009,-8.15624834e-004
,,,4.72500000e-009,-8.15624834e-004
,,,4.75000000e-009,-8.12499834e-004
,,,4.77500000e-009,-8.06249834e-004
,,,4.80000000e-009,-7.99999833e-004
,,,4.82500000e-009,-7.95312333e-004
,,,4.85000000e-009,-7.90624832e-004
,,,4.87500000e-009,-7.85937332e-004
,,,4.90000000e-009,-7.84374832e-004
,,,4.92500000e-009,-7.84374832e-004
,,,4.95000000e-009,-7.85937332e-004
,,,4.97500000e-009,-7.92187333e-004
,,,5.00000000e-009,-7.99999833e-004
,,,5.02500000e-009,-8.15624834e-004
,,,5.05000000e-009,-8.29687335e-004
,,,5.07500000e-009,-8.40624836e-004
,,,5.10000000e-009,-8.46874836e-004
,,,5.12500000e-009,-8.46874836e-004
,,,5.15000000e-009,-8.39062336e-004
,,,5.17500000e-009,-8.23437335e-004
,,,5.20000000e-009,-7.99999833e-004
,,,5.22500000e-009,-7.78124832e-004
,,,5.25000000e-009,-7.54687330e-004
,,,5.27500000e-009,-7.34374828e-004
,,,5.30000000e-009,-7.20312327e-004
,,,5.32500000e-009,-7.17187327e-004
,,,5.35000000e-009,-7.29687328e-004
,,,5.37500000e-009,-7.57812330e-004
,,,5.40000000e-009,-7.99999833e-004
,,,5.42500000e-009,-8.57812337e-004
,,,5.45000000e-009,-9.24999842e-004
,,,5.47500000e-009,-9.96874847e-004
,,,5.50000000e-009,-1.06562485e-003
,,,5.52500000e-009,-1.12656236e-003
,,,5.55000000e-009,-1.17187486e-003
,,,5.57500000e-009,-1.19687486e-003
,,,5.60000000e-009,-1.19999986e-003
,,,5.62500000e-009,-1.17656236e-003
,,,5.65000000e-009,-1.13124986e-003
,,,5.67500000e-009,-1.07031235e-003
,,,5.70000000e-009,-1.00312485e-003
,,,5.72500000e-009,-9.34374843e-004
,,,5.75000000e-009,-8.73437338e-004
,,,5.77500000e-009,-8.26562335e-004
,,,5.80000000e-009,-7.99999833e-004
,,,5.82500000e-009,-7.98437333e-004
,,,5.85000000e-009,-8.18749834e-004
