RawData/CosmicRays/L6_2pt2C_15mV/wave005_Ch3.csv

"Record Length",1000,"Points",-7.72500000e-009,-1.03124784e-004
"Sample Interval",2.50000000e-011,s,-7.70000000e-009,-1.84374790e-004
"Trigger Point",309,"Samples",-7.67500000e-009,-2.68749796e-004
"Trigger Time",7.08878307e-012,s,-7.65000000e-009,-3.43749801e-004
"",,,-7.62500000e-009,-3.99999805e-004
"Horizontal Offset",-7.72500000e-009,s,-7.60000000e-009,-4.31249807e-004
,,,-7.57500000e-009,-4.32812307e-004
,,,-7.55000000e-009,-4.04687305e-004
,,,-7.52500000e-009,-3.51562301e-004
,,,-7.50000000e-009,-2.76562296e-004
,,,-7.47500000e-009,-1.89062290e-004
,,,-7.45000000e-009,-9.37497831e-005
,,,-7.42500000e-009,2.23517420e-010
,,,-7.40000000e-009,7.96877292e-005
,,,-7.37500000e-009,1.50000234e-004
,,,-7.35000000e-009,2.07812738e-004
,,,-7.32500000e-009,2.57812742e-004
,,,-7.30000000e-009,2.98437745e-004
,,,-7.27500000e-009,3.34375247e-004
,,,-7.25000000e-009,3.67187750e-004
,,,-7.22500000e-009,4.00000252e-004
,,,-7.20000000e-009,4.21875253e-004
,,,-7.17500000e-009,4.43750255e-004
,,,-7.15000000e-009,4.60937756e-004
,,,-7.12500000e-009,4.71875257e-004
,,,-7.10000000e-009,4.73437757e-004
,,,-7.07500000e-009,4.62500256e-004
,,,-7.05000000e-009,4.39062755e-004
,,,-7.02500000e-009,4.00000252e-004
,,,-7.00000000e-009,3.35937747e-004
,,,-6.97500000e-009,2.62500242e-004
,,,-6.95000000e-009,1.89062737e-004
,,,-6.92500000e-009,1.20312732e-004
,,,-6.90000000e-009,6.25002279e-005
,,,-6.87500000e-009,2.03127250e-005
,,,-6.85000000e-009,2.23517420e-010
,,,-6.82500000e-009,2.23517420e-010
,,,-6.80000000e-009,1.25002244e-005
,,,-6.77500000e-009,3.90627263e-005
,,,-6.75000000e-009,7.03127285e-005
,,,-6.72500000e-009,9.68752304e-005
,,,-6.70000000e-009,1.09375231e-004
,,,-6.67500000e-009,1.01562731e-004
,,,-6.65000000e-009,6.56252282e-005
,,,-6.62500000e-009,2.23517420e-010
,,,-6.60000000e-009,-1.01562284e-004
,,,-6.57500000e-009,-2.24999792e-004
,,,-6.55000000e-009,-3.59374802e-004
,,,-6.52500000e-009,-4.95312312e-004
,,,-6.50000000e-009,-6.15624820e-004
,,,-6.47500000e-009,-7.14062327e-004
,,,-6.45000000e-009,-7.76562331e-004
,,,-6.42500000e-009,-7.99999833e-004
,,,-6.40000000e-009,-7.82812332e-004
,,,-6.37500000e-009,-7.29687328e-004
,,,-6.35000000e-009,-6.54687323e-004
,,,-6.32500000e-009,-5.70312317e-004
,,,-6.30000000e-009,-4.89062311e-004
,,,-6.27500000e-009,-4.26562307e-004
,,,-6.25000000e-009,-3.95312304e-004
,,,-6.22500000e-009,-3.99999805e-004
,,,-6.20000000e-009,-4.48437308e-004
,,,-6.17500000e-009,-5.34374814e-004
,,,-6.15000000e-009,-6.51562323e-004
,,,-6.12500000e-009,-7.85937332e-004
,,,-6.10000000e-009,-9.20312342e-004
,,,-6.07500000e-009,-1.04374985e-003
,,,-6.05000000e-009,-1.14062486e-003
,,,-6.02500000e-009,-1.19999986e-003
,,,-6.00000000e-009,-1.21406236e-003
,,,-5.97500000e-009,-1.18906236e-003
,,,-5.95000000e-009,-1.13281236e-003
,,,-5.92500000e-009,-1.05624985e-003
,,,-5.90000000e-009,-9.73437345e-004
,,,-5.87500000e-009,-8.95312340e-004
,,,-5.85000000e-009,-8.34374836e-004
,,,-5.82500000e-009,-7.99999833e-004
,,,-5.80000000e-009,-7.93749833e-004
,,,-5.77500000e-009,-8.17187334e-004
,,,-5.75000000e-009,-8.70312338e-004
,,,-5.72500000e-009,-9.40624843e-004
,,,-5.70000000e-009,-1.02031235e-003
,,,-5.67500000e-009,-1.09687485e-003
,,,-5.65000000e-009,-1.16093736e-003
,,,-5.62500000e-009,-1.19999986e-003
,,,-5.60000000e-009,-1.20624986e-003
,,,-5.57500000e-009,-1.18437486e-003
,,,-5.55000000e-009,-1.13749986e-003
,,,-5.52500000e-009,-1.07187485e-003
,,,-5.50000000e-009,-9.96874847e-004
,,,-5.47500000e-009,-9.20312342e-004
,,,-5.45000000e-009,-8.51562337e-004
,,,-5.42500000e-009,-7.99999833e-004
,,,-5.40000000e-009,-7.70312331e-004
,,,-5.37500000e-009,-7.67187331e-004
,,,-5.35000000e-009,-7.92187333e-004
,,,-5.32500000e-009,-8.43749836e-004
,,,-5.30000000e-009,-9.15624841e-004
,,,-5.27500000e-009,-1.00468735e-003
,,,-5.25000000e-009,-1.10312485e-003
,,,-5.22500000e-009,-1.19999986e-003
,,,-5.20000000e-009,-1.28437487e-003
,,,-5.17500000e-009,-1.35156237e-003
,,,-5.15000000e-009,-1.39687488e-003
,,,-5.12500000e-009,-1.41562488e-003
,,,-5.10000000e-009,-1.40624988e-003
,,,-5.07500000e-009,-1.36562487e-003
,,,-5.05000000e-009,-1.29687487e-003
,,,-5.02500000e-009,-1.19999986e-003
,,,-5.00000000e-009,-1.08437485e-003
,,,-4.97500000e-009,-9.54687344e-004
,,,-4.95000000e-009,-8.23437335e-004
,,,-4.92500000e-009,-6.96874826e-004
,,,-4.90000000e-009,-5.84374818e-004
,,,-4.87500000e-009,-4.95312312e-004
,,,-4.85000000e-009,-4.32812307e-004
,,,-4.82500000e-009,-3.99999805e-004
,,,-4.80000000e-009,-4.04687305e-004
,,,-4.77500000e-009,-4.35937307e-004
,,,-4.75000000e-009,-4.90624811e-004
,,,-4.72500000e-009,-5.59374816e-004
,,,-4.70000000e-009,-6.34374821e-004
,,,-4.67500000e-009,-7.04687326e-004
,,,-4.65000000e-009,-7.62499830e-004
,,,-4.62500000e-009,-7.99999833e-004
,,,-4.60000000e-009,-8.15624834e-004
,,,-4.57500000e-009,-8.03124833e-004
,,,-4.55000000e-009,-7.65624831e-004
,,,-4.52500000e-009,-7.07812327e-004
,,,-4.50000000e-009,-6.34374821e-004
,,,-4.47500000e-009,-5.54687316e-004
,,,-4.45000000e-009,-4.73437310e-004
,,,-4.42500000e-009,-3.99999805e-004
,,,-4.40000000e-009,-3.43749801e-004
,,,-4.37500000e-009,-3.04687298e-004
,,,-4.35000000e-009,-2.82812297e-004
,,,-4.32500000e-009,-2.79687296e-004
,,,-4.30000000e-009,-2.92187297e-004
,,,-4.27500000e-009,-3.18749799e-004
,,,-4.25000000e-009,-3.56249802e-004
,,,-4.22500000e-009,-3.99999805e-004
,,,-4.20000000e-009,-4.56249809e-004
,,,-4.17500000e-009,-5.12499813e-004
,,,-4.15000000e-009,-5.68749817e-004
,,,-4.12500000e-009,-6.21874820e-004
,,,-4.10000000e-009,-6.71874824e-004
,,,-4.07500000e-009,-7.18749827e-004
,,,-4.05000000e-009,-7.60937330e-004
,,,-4.02500000e-009,-7.99999833e-004
,,,-4.00000000e-009,-8.34374836e-004
,,,-3.97500000e-009,-8.59374837e-004
,,,-3.95000000e-009,-8.76562339e-004
,,,-3.92500000e-009,-8.82812339e-004
,,,-3.90000000e-009,-8.79687339e-004
,,,-3.87500000e-009,-8.64062338e-004
,,,-3.85000000e-009,-8.37499836e-004
,,,-3.82500000e-009,-7.99999833e-004
,,,-3.80000000e-009,-7.49999830e-004
,,,-3.77500000e-009,-6.92187325e-004
,,,-3.75000000e-009,-6.31249821e-004
,,,-3.72500000e-009,-5.70312317e-004
,,,-3.70000000e-009,-5.12499813e-004
,,,-3.67500000e-009,-4.64062309e-004
,,,-3.65000000e-009,-4.24999807e-004
,,,-3.62500000e-009,-3.99999805e-004
,,,-3.60000000e-009,-3.96874805e-004
,,,-3.57500000e-009,-4.09374805e-004
,,,-3.55000000e-009,-4.40624808e-004
,,,-3.52500000e-009,-4.87499811e-004
,,,-3.50000000e-009,-5.49999815e-004
,,,-3.47500000e-009,-6.24999821e-004
,,,-3.45000000e-009,-7.10937327e-004
,,,-3.42500000e-009,-7.99999833e-004
,,,-3.40000000e-009,-8.89062339e-004
,,,-3.37500000e-009,-9.71874845e-004
,,,-3.35000000e-009,-1.04843735e-003
,,,-3.32500000e-009,-1.11406236e-003
,,,-3.30000000e-009,-1.16406236e-003
,,,-3.27500000e-009,-1.19687486e-003
,,,-3.25000000e-009,-1.20937486e-003
,,,-3.22500000e-009,-1.19999986e-003
,,,-3.20000000e-009,-1.16406236e-003
,,,-3.17500000e-009,-1.10624985e-003
,,,-3.15000000e-009,-1.02656235e-003
,,,-3.12500000e-009,-9.26562342e-004
,,,-3.10000000e-009,-8.10937334e-004
,,,-3.07500000e-009,-6.81249825e-004
,,,-3.05000000e-009,-5.42187315e-004
,,,-3.02500000e-009,-3.99999805e-004
,,,-3.00000000e-009,-2.67187295e-004
,,,-2.97500000e-009,-1.45312287e-004
,,,-2.95000000e-009,-4.37497796e-005
,,,-2.92500000e-009,3.12502257e-005
,,,-2.90000000e-009,7.65627289e-005
,,,-2.87500000e-009,8.59377296e-005
,,,-2.85000000e-009,5.93752277e-005
,,,-2.82500000e-009,2.23517420e-010
,,,-2.80000000e-009,-9.84372835e-005
,,,-2.77500000e-009,-2.15624792e-004
,,,-2.75000000e-009,-3.45312301e-004
,,,-2.72500000e-009,-4.74999810e-004
,,,-2.70000000e-009,-5.93749819e-004
,,,-2.67500000e-009,-6.92187325e-004
,,,-2.65000000e-009,-7.62499830e-004
,,,-2.62500000e-009,-7.99999833e-004
,,,-2.60000000e-009,-8.04687333e-004
,,,-2.57500000e-009,-7.76562331e-004
,,,-2.55000000e-009,-7.24999828e-004
,,,-2.52500000e-009,-6.56249823e-004
,,,-2.50000000e-009,-5.79687318e-004
,,,-2.47500000e-009,-5.04687312e-004
,,,-2.45000000e-009,-4.43749808e-004
,,,-2.42500000e-009,-3.99999805e-004
,,,-2.40000000e-009,-3.89062304e-004
,,,-2.37500000e-009,-4.03124805e-004
,,,-2.35000000e-009,-4.42187308e-004
,,,-2.32500000e-009,-5.01562312e-004
,,,-2.30000000e-009,-5.74999817e-004
,,,-2.27500000e-009,-6.53124823e-004
,,,-2.25000000e-009,-7.31249828e-004
,,,-2.22500000e-009,-7.99999833e-004
,,,-2.20000000e-009,-8.59374837e-004
,,,-2.17500000e-009,-8.99999840e-004
,,,-2.15000000e-009,-9.18749842e-004
,,,-2.12500000e-009,-9.20312342e-004
,,,-2.10000000e-009,-9.04687341e-004
,,,-2.07500000e-009,-8.76562339e-004
,,,-2.05000000e-009,-8.40624836e-004
,,,-2.02500000e-009,-7.99999833e-004
,,,-2.00000000e-009,-7.65624831e-004
,,,-1.97500000e-009,-7.37499829e-004
,,,-1.95000000e-009,-7.20312327e-004
,,,-1.92500000e-009,-7.14062327e-004
,,,-1.90000000e-009,-7.18749827e-004
,,,-1.87500000e-009,-7.35937329e-004
,,,-1.85000000e-009,-7.64062331e-004
,,,-1.82500000e-009,-7.99999833e-004
,,,-1.80000000e-009,-8.43749836e-004
,,,-1.77500000e-009,-8.92187340e-004
,,,-1.75000000e-009,-9.45312343e-004
,,,-1.72500000e-009,-1.00156235e-003
,,,-1.70000000e-009,-1.05624985e-003
,,,-1.67500000e-009,-1.10937486e-003
,,,-1.65000000e-009,-1.15781236e-003
,,,-1.62500000e-009,-1.19999986e-003
,,,-1.60000000e-009,-1.23749986e-003
,,,-1.57500000e-009,-1.26562487e-003
,,,-1.55000000e-009,-1.28281237e-003
,,,-1.52500000e-009,-1.28749987e-003
,,,-1.50000000e-009,-1.28124987e-003
,,,-1.47500000e-009,-1.26406237e-003
,,,-1.45000000e-009,-1.23593736e-003
,,,-1.42500000e-009,-1.19999986e-003
,,,-1.40000000e-009,-1.17499986e-003
,,,-1.37500000e-009,-1.15156236e-003
,,,-1.35000000e-009,-1.13593736e-003
,,,-1.32500000e-009,-1.12812486e-003
,,,-1.30000000e-009,-1.13124986e-003
,,,-1.27500000e-009,-1.14374986e-003
,,,-1.25000000e-009,-1.16718736e-003
,,,-1.22500000e-009,-1.19999986e-003
,,,-1.20000000e-009,-1.27343737e-003
,,,-1.17500000e-009,-1.35624987e-003
,,,-1.15000000e-009,-1.43906238e-003
,,,-1.12500000e-009,-1.51562488e-003
,,,-1.10000000e-009,-1.57656239e-003
,,,-1.07500000e-009,-1.61406239e-003
,,,-1.05000000e-009,-1.62187489e-003
,,,-1.02500000e-009,-1.59999989e-003
,,,-1.00000000e-009,-1.60781239e-003
,,,-9.75000000e-010,-1.59843739e-003
,,,-9.50000000e-010,-1.57031239e-003
,,,-9.25000000e-010,-1.52343738e-003
,,,-9.00000000e-010,-1.45781238e-003
,,,-8.75000000e-010,-1.37968737e-003
,,,-8.50000000e-010,-1.29062487e-003
,,,-8.25000000e-010,-1.19999986e-003
,,,-8.00000000e-010,-1.21718736e-003
,,,-7.75000000e-010,-1.26562487e-003
,,,-7.50000000e-010,-1.34374987e-003
,,,-7.25000000e-010,-1.44531238e-003
,,,-7.00000000e-010,-1.56718739e-003
,,,-6.75000000e-010,-1.70156240e-003
,,,-6.50000000e-010,-1.84687491e-003
,,,-6.25000000e-010,-1.99999992e-003
,,,-6.00000000e-010,-2.28437494e-003
,,,-5.75000000e-010,-2.59374996e-003
,,,-5.50000000e-010,-2.91562498e-003
,,,-5.25000000e-010,-3.24062501e-003
,,,-5.00000000e-010,-3.55625003e-003
,,,-4.75000000e-010,-3.85468755e-003
,,,-4.50000000e-010,-4.13593757e-003
,,,-4.25000000e-010,-4.40000009e-003
,,,-4.00000000e-010,-4.77656261e-003
,,,-3.75000000e-010,-5.17343764e-003
,,,-3.50000000e-010,-5.58906267e-003
,,,-3.25000000e-010,-6.02500020e-003
,,,-3.00000000e-010,-6.48281274e-003
,,,-2.75000000e-010,-6.96093777e-003
,,,-2.50000000e-010,-7.46562530e-003
,,,-2.25000000e-010,-8.00000034e-003
,,,-2.00000000e-010,-8.65937539e-003
,,,-1.75000000e-010,-9.37500044e-003
,,,-1.50000000e-010,-1.01421880e-002
,,,-1.25000000e-010,-1.09500006e-002
,,,-1.00000000e-010,-1.17906256e-002
,,,-7.50000000e-011,-1.26515632e-002
,,,-5.00000000e-011,-1.35234382e-002
,,,-2.50000000e-011,-1.44000008e-002
,,,0.00000000e+000,-1.52859384e-002
,,,2.50000000e-011,-1.61796884e-002
,,,5.00000000e-011,-1.70812510e-002
,,,7.50000000e-011,-1.79875010e-002
,,,1.00000000e-010,-1.88953136e-002
,,,1.25000000e-010,-1.98015637e-002
,,,1.50000000e-010,-2.07046887e-002
,,,1.75000000e-010,-2.16000013e-002
,,,2.00000000e-010,-2.24093764e-002
,,,2.25000000e-010,-2.32218764e-002
,,,2.50000000e-010,-2.40359390e-002
,,,2.75000000e-010,-2.48515640e-002
,,,3.00000000e-010,-2.56640641e-002
,,,3.25000000e-010,-2.64656266e-002
,,,3.50000000e-010,-2.72468767e-002
,,,3.75000000e-010,-2.80000018e-002
,,,4.00000000e-010,-2.85671893e-002
,,,4.25000000e-010,-2.91093768e-002
,,,4.50000000e-010,-2.96328144e-002
,,,4.75000000e-010,-3.01453144e-002
,,,5.00000000e-010,-3.06437519e-002
,,,5.25000000e-010,-3.11234395e-002
,,,5.50000000e-010,-3.15796895e-002
,,,5.75000000e-010,-3.20000020e-002
,,,6.00000000e-010,-3.21687521e-002
,,,6.25000000e-010,-3.22953146e-002
,,,6.50000000e-010,-3.23781271e-002
,,,6.75000000e-010,-3.24187521e-002
,,,7.00000000e-010,-3.24078146e-002
,,,7.25000000e-010,-3.23390646e-002
,,,7.50000000e-010,-3.22062521e-002
,,,7.75000000e-010,-3.20000020e-002
,,,8.00000000e-010,-3.15218770e-002
,,,8.25000000e-010,-3.09906270e-002
,,,8.50000000e-010,-3.04281269e-002
,,,8.75000000e-010,-2.98468769e-002
,,,9.00000000e-010,-2.92656268e-002
,,,9.25000000e-010,-2.86937518e-002
,,,9.50000000e-010,-2.81375018e-002
,,,9.75000000e-010,-2.76000017e-002
,,,1.00000000e-009,-2.69437517e-002
,,,1.02500000e-009,-2.63187516e-002
,,,1.05000000e-009,-2.57296891e-002
,,,1.07500000e-009,-2.51781266e-002
,,,1.10000000e-009,-2.46593765e-002
,,,1.12500000e-009,-2.41625015e-002
,,,1.15000000e-009,-2.36812515e-002
,,,1.17500000e-009,-2.32000014e-002
,,,1.20000000e-009,-2.26250014e-002
,,,1.22500000e-009,-2.20265638e-002
,,,1.25000000e-009,-2.14031263e-002
,,,1.27500000e-009,-2.07546887e-002
,,,1.30000000e-009,-2.00859387e-002
,,,1.32500000e-009,-1.94015636e-002
,,,1.35000000e-009,-1.87046886e-002
,,,1.37500000e-009,-1.80000011e-002
,,,1.40000000e-009,-1.72828135e-002
,,,1.42500000e-009,-1.65640634e-002
,,,1.45000000e-009,-1.58515634e-002
,,,1.47500000e-009,-1.51593758e-002
,,,1.50000000e-009,-1.45000008e-002
,,,1.52500000e-009,-1.38812508e-002
,,,1.55000000e-009,-1.33125007e-002
,,,1.57500000e-009,-1.28000007e-002
,,,1.60000000e-009,-1.23843757e-002
,,,1.62500000e-009,-1.19968756e-002
,,,1.65000000e-009,-1.16312506e-002
,,,1.67500000e-009,-1.12828131e-002
,,,1.70000000e-009,-1.09484381e-002
,,,1.72500000e-009,-1.06250005e-002
,,,1.75000000e-009,-1.03093755e-002
,,,1.77500000e-009,-1.00000005e-002
,,,1.80000000e-009,-9.75468797e-003
,,,1.82500000e-009,-9.48281295e-003
,,,1.85000000e-009,-9.18437543e-003
,,,1.87500000e-009,-8.86562540e-003
,,,1.90000000e-009,-8.53750038e-003
,,,1.92500000e-009,-8.20937536e-003
,,,1.95000000e-009,-7.89375034e-003
,,,1.97500000e-009,-7.60000031e-003
,,,2.00000000e-009,-7.40000030e-003
,,,2.02500000e-009,-7.21093779e-003
,,,2.05000000e-009,-7.03437527e-003
,,,2.07500000e-009,-6.87031276e-003
,,,2.10000000e-009,-6.72343775e-003
,,,2.12500000e-009,-6.59531274e-003
,,,2.15000000e-009,-6.48750024e-003
,,,2.17500000e-009,-6.40000023e-003
,,,2.20000000e-009,-6.38281273e-003
,,,2.22500000e-009,-6.35781273e-003
,,,2.25000000e-009,-6.32187522e-003
,,,2.27500000e-009,-6.27343772e-003
,,,2.30000000e-009,-6.21406272e-003
,,,2.32500000e-009,-6.14687521e-003
,,,2.35000000e-009,-6.07500021e-003
,,,2.37500000e-009,-6.00000020e-003
,,,2.40000000e-009,-5.95625020e-003
,,,2.42500000e-009,-5.89375019e-003
,,,2.45000000e-009,-5.81093769e-003
,,,2.47500000e-009,-5.71093768e-003
,,,2.50000000e-009,-5.59531267e-003
,,,2.52500000e-009,-5.46875016e-003
,,,2.55000000e-009,-5.33593765e-003
,,,2.57500000e-009,-5.20000014e-003
,,,2.60000000e-009,-5.08906264e-003
,,,2.62500000e-009,-4.97187513e-003
,,,2.65000000e-009,-4.85625012e-003
,,,2.67500000e-009,-4.74375011e-003
,,,2.70000000e-009,-4.63906260e-003
,,,2.72500000e-009,-4.54531260e-003
,,,2.75000000e-009,-4.46562509e-003
,,,2.77500000e-009,-4.40000009e-003
,,,2.80000000e-009,-4.36093759e-003
,,,2.82500000e-009,-4.32500008e-003
,,,2.85000000e-009,-4.28750008e-003
,,,2.87500000e-009,-4.24687508e-003
,,,2.90000000e-009,-4.20000007e-003
,,,2.92500000e-009,-4.14375007e-003
,,,2.95000000e-009,-4.07812507e-003
,,,2.97500000e-009,-4.00000006e-003
,,,3.00000000e-009,-3.92031255e-003
,,,3.02500000e-009,-3.82500005e-003
,,,3.05000000e-009,-3.72031254e-003
,,,3.07500000e-009,-3.60781253e-003
,,,3.10000000e-009,-3.49375002e-003
,,,3.12500000e-009,-3.38437502e-003
,,,3.15000000e-009,-3.28593751e-003
,,,3.17500000e-009,-3.20000000e-003
,,,3.20000000e-009,-3.14062500e-003
,,,3.22500000e-009,-3.09687500e-003
,,,3.25000000e-009,-3.07031249e-003
,,,3.27500000e-009,-3.06406249e-003
,,,3.30000000e-009,-3.07656249e-003
,,,3.32500000e-009,-3.10468750e-003
,,,3.35000000e-009,-3.14843750e-003
,,,3.37500000e-009,-3.20000000e-003
,,,3.40000000e-009,-3.26250001e-003
,,,3.42500000e-009,-3.31562501e-003
,,,3.45000000e-009,-3.35312501e-003
,,,3.47500000e-009,-3.37343752e-003
,,,3.50000000e-009,-3.36875001e-003
,,,3.52500000e-009,-3.33906251e-003
,,,3.55000000e-009,-3.28281251e-003
,,,3.57500000e-009,-3.20000000e-003
,,,3.60000000e-009,-3.09843750e-003
,,,3.62500000e-009,-2.97968749e-003
,,,3.65000000e-009,-2.85312498e-003
,,,3.67500000e-009,-2.72656247e-003
,,,3.70000000e-009,-2.61093746e-003
,,,3.72500000e-009,-2.51562495e-003
,,,3.75000000e-009,-2.44374995e-003
,,,3.77500000e-009,-2.39999995e-003
,,,3.80000000e-009,-2.38906245e-003
,,,3.82500000e-009,-2.39843745e-003
,,,3.85000000e-009,-2.42187495e-003
,,,3.87500000e-009,-2.44687495e-003
,,,3.90000000e-009,-2.46562495e-003
,,,3.92500000e-009,-2.46874995e-003
,,,3.95000000e-009,-2.44843745e-003
,,,3.97500000e-009,-2.39999995e-003
,,,4.00000000e-009,-2.32656244e-003
,,,4.02500000e-009,-2.22656243e-003
,,,4.05000000e-009,-2.10624993e-003
,,,4.07500000e-009,-1.97656242e-003
,,,4.10000000e-009,-1.85156241e-003
,,,4.12500000e-009,-1.74062490e-003
,,,4.15000000e-009,-1.65312489e-003
,,,4.17500000e-009,-1.59999989e-003
,,,4.20000000e-009,-1.59062489e-003
,,,4.22500000e-009,-1.61406239e-003
,,,4.25000000e-009,-1.66562489e-003
,,,4.27500000e-009,-1.73593740e-003
,,,4.30000000e-009,-1.81562490e-003
,,,4.32500000e-009,-1.89218741e-003
,,,4.35000000e-009,-1.95781242e-003
,,,4.37500000e-009,-1.99999992e-003
,,,4.40000000e-009,-2.02031242e-003
,,,4.42500000e-009,-2.00937492e-003
,,,4.45000000e-009,-1.97187492e-003
,,,4.47500000e-009,-1.91093741e-003
,,,4.50000000e-009,-1.83437491e-003
,,,4.52500000e-009,-1.75156240e-003
,,,4.55000000e-009,-1.67031239e-003
,,,4.57500000e-009,-1.59999989e-003
,,,4.60000000e-009,-1.55312489e-003
,,,4.62500000e-009,-1.52187488e-003
,,,4.65000000e-009,-1.50937488e-003
,,,4.67500000e-009,-1.51249988e-003
,,,4.70000000e-009,-1.52656238e-003
,,,4.72500000e-009,-1.54999989e-003
,,,4.75000000e-009,-1.57499989e-003
,,,4.77500000e-009,-1.59999989e-003
,,,4.80000000e-009,-1.62499989e-003
,,,4.82500000e-009,-1.64062489e-003
,,,4.85000000e-009,-1.64843739e-003
,,,4.87500000e-009,-1.64687489e-003
,,,4.90000000e-009,-1.63906239e-003
,,,4.92500000e-009,-1.62812489e-003
,,,4.95000000e-009,-1.61406239e-003
,,,4.97500000e-009,-1.59999989e-003
,,,5.00000000e-009,-1.59218739e-003
,,,5.02500000e-009,-1.58749989e-003
,,,5.05000000e-009,-1.58593739e-003
,,,5.07500000e-009,-1.58593739e-003
,,,5.10000000e-009,-1.58749989e-003
,,,5.12500000e-009,-1.59218739e-003
,,,5.15000000e-009,-1.59687489e-003
,,,5.17500000e-009,-1.59999989e-003
,,,5.20000000e-009,-1.60468739e-003
,,,5.22500000e-009,-1.60624989e-003
,,,5.25000000e-009,-1.60781239e-003
,,,5.27500000e-009,-1.60781239e-003
,,,5.30000000e-009,-1.60624989e-003
,,,5.32500000e-009,-1.60468739e-003
,,,5.35000000e-009,-1.60312489e-003
,,,5.37500000e-009,-1.59999989e-003
,,,5.40000000e-009,-1.60156239e-003
,,,5.42500000e-009,-1.60156239e-003
,,,5.45000000e-009,-1.59999989e-003
,,,5.47500000e-009,-1.59999989e-003
,,,5.50000000e-009,-1.59999989e-003
,,,5.52500000e-009,-1.60156239e-003
,,,5.55000000e-009,-1.59999989e-003
,,,5.57500000e-009,-1.59999989e-003
,,,5.60000000e-009,-1.59843739e-003
,,,5.62500000e-009,-1.59687489e-003
,,,5.65000000e-009,-1.59531239e-003
,,,5.67500000e-009,-1.59374989e-003
,,,5.70000000e-009,-1.59374989e-003
,,,5.72500000e-009,-1.59531239e-003
,,,5.75000000e-009,-1.59687489e-003
,,,5.77500000e-009,-1.59999989e-003
,,,5.80000000e-009,-1.60312489e-003
,,,5.82500000e-009,-1.60624989e-003
