RawData/CosmicRays/L6_2pt2C_15mV/wave013_Ch3.csv

"Record Length",1000,"Points",-7.72500000e-009,-8.37499836e-004
"Sample Interval",2.50000000e-011,s,-7.70000000e-009,-7.06249826e-004
"Trigger Point",309,"Samples",-7.67500000e-009,-5.89062318e-004
"Trigger Time",1.80676190e-011,s,-7.65000000e-009,-4.95312312e-004
"",,,-7.62500000e-009,-4.29687307e-004
"Horizontal Offset",-7.72500000e-009,s,-7.60000000e-009,-3.99999805e-004
,,,-7.57500000e-009,-4.10937306e-004
,,,-7.55000000e-009,-4.51562308e-004
,,,-7.52500000e-009,-5.15624813e-004
,,,-7.50000000e-009,-5.92187318e-004
,,,-7.47500000e-009,-6.70312324e-004
,,,-7.45000000e-009,-7.35937329e-004
,,,-7.42500000e-009,-7.82812332e-004
,,,-7.40000000e-009,-7.99999833e-004
,,,-7.37500000e-009,-7.90624832e-004
,,,-7.35000000e-009,-7.51562330e-004
,,,-7.32500000e-009,-6.90624825e-004
,,,-7.30000000e-009,-6.15624820e-004
,,,-7.27500000e-009,-5.39062315e-004
,,,-7.25000000e-009,-4.71874810e-004
,,,-7.22500000e-009,-4.23437306e-004
,,,-7.20000000e-009,-3.99999805e-004
,,,-7.17500000e-009,-4.12499806e-004
,,,-7.15000000e-009,-4.51562308e-004
,,,-7.12500000e-009,-5.10937313e-004
,,,-7.10000000e-009,-5.84374818e-004
,,,-7.07500000e-009,-6.59374823e-004
,,,-7.05000000e-009,-7.26562328e-004
,,,-7.02500000e-009,-7.74999831e-004
,,,-7.00000000e-009,-7.99999833e-004
,,,-6.97500000e-009,-7.98437333e-004
,,,-6.95000000e-009,-7.68749831e-004
,,,-6.92500000e-009,-7.15624827e-004
,,,-6.90000000e-009,-6.46874822e-004
,,,-6.87500000e-009,-5.71874817e-004
,,,-6.85000000e-009,-4.98437312e-004
,,,-6.82500000e-009,-4.39062308e-004
,,,-6.80000000e-009,-3.99999805e-004
,,,-6.77500000e-009,-3.92187304e-004
,,,-6.75000000e-009,-4.10937306e-004
,,,-6.72500000e-009,-4.53124809e-004
,,,-6.70000000e-009,-5.14062313e-004
,,,-6.67500000e-009,-5.85937318e-004
,,,-6.65000000e-009,-6.62499823e-004
,,,-6.62500000e-009,-7.37499829e-004
,,,-6.60000000e-009,-7.99999833e-004
,,,-6.57500000e-009,-8.49999837e-004
,,,-6.55000000e-009,-8.81249839e-004
,,,-6.52500000e-009,-8.96874840e-004
,,,-6.50000000e-009,-8.95312340e-004
,,,-6.47500000e-009,-8.79687339e-004
,,,-6.45000000e-009,-8.56249837e-004
,,,-6.42500000e-009,-8.29687335e-004
,,,-6.40000000e-009,-7.99999833e-004
,,,-6.37500000e-009,-7.78124832e-004
,,,-6.35000000e-009,-7.62499830e-004
,,,-6.32500000e-009,-7.53124830e-004
,,,-6.30000000e-009,-7.53124830e-004
,,,-6.27500000e-009,-7.59374830e-004
,,,-6.25000000e-009,-7.70312331e-004
,,,-6.22500000e-009,-7.85937332e-004
,,,-6.20000000e-009,-7.99999833e-004
,,,-6.17500000e-009,-8.15624834e-004
,,,-6.15000000e-009,-8.28124835e-004
,,,-6.12500000e-009,-8.35937336e-004
,,,-6.10000000e-009,-8.40624836e-004
,,,-6.07500000e-009,-8.37499836e-004
,,,-6.05000000e-009,-8.29687335e-004
,,,-6.02500000e-009,-8.17187334e-004
,,,-6.00000000e-009,-7.99999833e-004
,,,-5.97500000e-009,-7.84374832e-004
,,,-5.95000000e-009,-7.67187331e-004
,,,-5.92500000e-009,-7.54687330e-004
,,,-5.90000000e-009,-7.46874829e-004
,,,-5.87500000e-009,-7.45312329e-004
,,,-5.85000000e-009,-7.53124830e-004
,,,-5.82500000e-009,-7.71874831e-004
,,,-5.80000000e-009,-7.99999833e-004
,,,-5.77500000e-009,-8.40624836e-004
,,,-5.75000000e-009,-8.87499839e-004
,,,-5.72500000e-009,-9.42187343e-004
,,,-5.70000000e-009,-9.99999847e-004
,,,-5.67500000e-009,-1.05937485e-003
,,,-5.65000000e-009,-1.11406236e-003
,,,-5.62500000e-009,-1.16093736e-003
,,,-5.60000000e-009,-1.19999986e-003
,,,-5.57500000e-009,-1.22812486e-003
,,,-5.55000000e-009,-1.24374986e-003
,,,-5.52500000e-009,-1.24999986e-003
,,,-5.50000000e-009,-1.24843736e-003
,,,-5.47500000e-009,-1.24062486e-003
,,,-5.45000000e-009,-1.22812486e-003
,,,-5.42500000e-009,-1.21406236e-003
,,,-5.40000000e-009,-1.19999986e-003
,,,-5.37500000e-009,-1.18593736e-003
,,,-5.35000000e-009,-1.17656236e-003
,,,-5.32500000e-009,-1.17031236e-003
,,,-5.30000000e-009,-1.17031236e-003
,,,-5.27500000e-009,-1.17343736e-003
,,,-5.25000000e-009,-1.18124986e-003
,,,-5.22500000e-009,-1.19062486e-003
,,,-5.20000000e-009,-1.19999986e-003
,,,-5.17500000e-009,-1.20937486e-003
,,,-5.15000000e-009,-1.21718736e-003
,,,-5.12500000e-009,-1.22187486e-003
,,,-5.10000000e-009,-1.22499986e-003
,,,-5.07500000e-009,-1.22343736e-003
,,,-5.05000000e-009,-1.21874986e-003
,,,-5.02500000e-009,-1.21093736e-003
,,,-5.00000000e-009,-1.19999986e-003
,,,-4.97500000e-009,-1.18593736e-003
,,,-4.95000000e-009,-1.17187486e-003
,,,-4.92500000e-009,-1.16093736e-003
,,,-4.90000000e-009,-1.15468736e-003
,,,-4.87500000e-009,-1.15468736e-003
,,,-4.85000000e-009,-1.16249986e-003
,,,-4.82500000e-009,-1.17812486e-003
,,,-4.80000000e-009,-1.19999986e-003
,,,-4.77500000e-009,-1.22499986e-003
,,,-4.75000000e-009,-1.25156237e-003
,,,-4.72500000e-009,-1.27343737e-003
,,,-4.70000000e-009,-1.28749987e-003
,,,-4.67500000e-009,-1.29062487e-003
,,,-4.65000000e-009,-1.27812487e-003
,,,-4.62500000e-009,-1.24843736e-003
,,,-4.60000000e-009,-1.19999986e-003
,,,-4.57500000e-009,-1.13906236e-003
,,,-4.55000000e-009,-1.06718735e-003
,,,-4.52500000e-009,-9.92187347e-004
,,,-4.50000000e-009,-9.20312342e-004
,,,-4.47500000e-009,-8.59374837e-004
,,,-4.45000000e-009,-8.17187334e-004
,,,-4.42500000e-009,-7.96874833e-004
,,,-4.40000000e-009,-7.99999833e-004
,,,-4.37500000e-009,-8.34374836e-004
,,,-4.35000000e-009,-8.90624840e-004
,,,-4.32500000e-009,-9.57812344e-004
,,,-4.30000000e-009,-1.03124985e-003
,,,-4.27500000e-009,-1.09999985e-003
,,,-4.25000000e-009,-1.15624986e-003
,,,-4.22500000e-009,-1.19062486e-003
,,,-4.20000000e-009,-1.19999986e-003
,,,-4.17500000e-009,-1.18281236e-003
,,,-4.15000000e-009,-1.14062486e-003
,,,-4.12500000e-009,-1.08124985e-003
,,,-4.10000000e-009,-1.00937485e-003
,,,-4.07500000e-009,-9.37499843e-004
,,,-4.05000000e-009,-8.73437338e-004
,,,-4.02500000e-009,-8.24999835e-004
,,,-4.00000000e-009,-7.99999833e-004
,,,-3.97500000e-009,-8.06249834e-004
,,,-3.95000000e-009,-8.35937336e-004
,,,-3.92500000e-009,-8.87499839e-004
,,,-3.90000000e-009,-9.53124844e-004
,,,-3.87500000e-009,-1.02499985e-003
,,,-3.85000000e-009,-1.09531235e-003
,,,-3.82500000e-009,-1.15468736e-003
,,,-3.80000000e-009,-1.19999986e-003
,,,-3.77500000e-009,-1.22812486e-003
,,,-3.75000000e-009,-1.23749986e-003
,,,-3.72500000e-009,-1.23124986e-003
,,,-3.70000000e-009,-1.21562486e-003
,,,-3.67500000e-009,-1.19843736e-003
,,,-3.65000000e-009,-1.18749986e-003
,,,-3.62500000e-009,-1.18593736e-003
,,,-3.60000000e-009,-1.19999986e-003
,,,-3.57500000e-009,-1.23437486e-003
,,,-3.55000000e-009,-1.28593737e-003
,,,-3.52500000e-009,-1.34843737e-003
,,,-3.50000000e-009,-1.41562488e-003
,,,-3.47500000e-009,-1.48281238e-003
,,,-3.45000000e-009,-1.53906239e-003
,,,-3.42500000e-009,-1.58124989e-003
,,,-3.40000000e-009,-1.59999989e-003
,,,-3.37500000e-009,-1.59218739e-003
,,,-3.35000000e-009,-1.56093739e-003
,,,-3.32500000e-009,-1.51093738e-003
,,,-3.30000000e-009,-1.44843738e-003
,,,-3.27500000e-009,-1.37968737e-003
,,,-3.25000000e-009,-1.31093737e-003
,,,-3.22500000e-009,-1.24999986e-003
,,,-3.20000000e-009,-1.19999986e-003
,,,-3.17500000e-009,-1.17031236e-003
,,,-3.15000000e-009,-1.15781236e-003
,,,-3.12500000e-009,-1.15781236e-003
,,,-3.10000000e-009,-1.16874986e-003
,,,-3.07500000e-009,-1.18281236e-003
,,,-3.05000000e-009,-1.19531236e-003
,,,-3.02500000e-009,-1.20312486e-003
,,,-3.00000000e-009,-1.19999986e-003
,,,-2.97500000e-009,-1.18906236e-003
,,,-2.95000000e-009,-1.17031236e-003
,,,-2.92500000e-009,-1.14843736e-003
,,,-2.90000000e-009,-1.13124986e-003
,,,-2.87500000e-009,-1.12343736e-003
,,,-2.85000000e-009,-1.12968736e-003
,,,-2.82500000e-009,-1.15468736e-003
,,,-2.80000000e-009,-1.19999986e-003
,,,-2.77500000e-009,-1.26249987e-003
,,,-2.75000000e-009,-1.33593737e-003
,,,-2.72500000e-009,-1.41562488e-003
,,,-2.70000000e-009,-1.49218738e-003
,,,-2.67500000e-009,-1.55468739e-003
,,,-2.65000000e-009,-1.59687489e-003
,,,-2.62500000e-009,-1.61406239e-003
,,,-2.60000000e-009,-1.59999989e-003
,,,-2.57500000e-009,-1.55624989e-003
,,,-2.55000000e-009,-1.48906238e-003
,,,-2.52500000e-009,-1.40937488e-003
,,,-2.50000000e-009,-1.32656237e-003
,,,-2.47500000e-009,-1.25468737e-003
,,,-2.45000000e-009,-1.20468736e-003
,,,-2.42500000e-009,-1.18437486e-003
,,,-2.40000000e-009,-1.19999986e-003
,,,-2.37500000e-009,-1.25468737e-003
,,,-2.35000000e-009,-1.34218737e-003
,,,-2.32500000e-009,-1.45624988e-003
,,,-2.30000000e-009,-1.58437489e-003
,,,-2.27500000e-009,-1.71718740e-003
,,,-2.25000000e-009,-1.83749991e-003
,,,-2.22500000e-009,-1.93593741e-003
,,,-2.20000000e-009,-1.99999992e-003
,,,-2.17500000e-009,-2.01562492e-003
,,,-2.15000000e-009,-1.98749992e-003
,,,-2.12500000e-009,-1.91562491e-003
,,,-2.10000000e-009,-1.80937490e-003
,,,-2.07500000e-009,-1.67343739e-003
,,,-2.05000000e-009,-1.52031238e-003
,,,-2.02500000e-009,-1.35937487e-003
,,,-2.00000000e-009,-1.19999986e-003
,,,-1.97500000e-009,-1.05468735e-003
,,,-1.95000000e-009,-9.31249842e-004
,,,-1.92500000e-009,-8.34374836e-004
,,,-1.90000000e-009,-7.70312331e-004
,,,-1.87500000e-009,-7.35937329e-004
,,,-1.85000000e-009,-7.32812328e-004
,,,-1.82500000e-009,-7.56249830e-004
,,,-1.80000000e-009,-7.99999833e-004
,,,-1.77500000e-009,-8.62499838e-004
,,,-1.75000000e-009,-9.34374843e-004
,,,-1.72500000e-009,-1.00624985e-003
,,,-1.70000000e-009,-1.07343735e-003
,,,-1.67500000e-009,-1.12968736e-003
,,,-1.65000000e-009,-1.17187486e-003
,,,-1.62500000e-009,-1.19687486e-003
,,,-1.60000000e-009,-1.19999986e-003
,,,-1.57500000e-009,-1.19062486e-003
,,,-1.55000000e-009,-1.16249986e-003
,,,-1.52500000e-009,-1.11874986e-003
,,,-1.50000000e-009,-1.06249985e-003
,,,-1.47500000e-009,-9.98437347e-004
,,,-1.45000000e-009,-9.29687342e-004
,,,-1.42500000e-009,-8.62499838e-004
,,,-1.40000000e-009,-7.99999833e-004
,,,-1.37500000e-009,-7.65624831e-004
,,,-1.35000000e-009,-7.45312329e-004
,,,-1.32500000e-009,-7.39062329e-004
,,,-1.30000000e-009,-7.42187329e-004
,,,-1.27500000e-009,-7.54687330e-004
,,,-1.25000000e-009,-7.70312331e-004
,,,-1.22500000e-009,-7.87499832e-004
,,,-1.20000000e-009,-7.99999833e-004
,,,-1.17500000e-009,-8.54687337e-004
,,,-1.15000000e-009,-9.01562340e-004
,,,-1.12500000e-009,-9.39062343e-004
,,,-1.10000000e-009,-9.57812344e-004
,,,-1.07500000e-009,-9.54687344e-004
,,,-1.05000000e-009,-9.26562342e-004
,,,-1.02500000e-009,-8.74999838e-004
,,,-1.00000000e-009,-7.99999833e-004
,,,-9.75000000e-010,-7.85937332e-004
,,,-9.50000000e-010,-7.73437331e-004
,,,-9.25000000e-010,-7.65624831e-004
,,,-9.00000000e-010,-7.60937330e-004
,,,-8.75000000e-010,-7.60937330e-004
,,,-8.50000000e-010,-7.67187331e-004
,,,-8.25000000e-010,-7.78124832e-004
,,,-8.00000000e-010,-7.99999833e-004
,,,-7.75000000e-010,-9.37499843e-004
,,,-7.50000000e-010,-1.09843735e-003
,,,-7.25000000e-010,-1.27499987e-003
,,,-7.00000000e-010,-1.45468738e-003
,,,-6.75000000e-010,-1.62343739e-003
,,,-6.50000000e-010,-1.77343740e-003
,,,-6.25000000e-010,-1.89999991e-003
,,,-6.00000000e-010,-1.99999992e-003
,,,-5.75000000e-010,-2.20312493e-003
,,,-5.50000000e-010,-2.41249995e-003
,,,-5.25000000e-010,-2.63124996e-003
,,,-5.00000000e-010,-2.86093748e-003
,,,-4.75000000e-010,-3.10625000e-003
,,,-4.50000000e-010,-3.37343752e-003
,,,-4.25000000e-010,-3.66875004e-003
,,,-4.00000000e-010,-4.00000006e-003
,,,-3.75000000e-010,-4.48437509e-003
,,,-3.50000000e-010,-5.03593763e-003
,,,-3.25000000e-010,-5.64531268e-003
,,,-3.00000000e-010,-6.30468772e-003
,,,-2.75000000e-010,-7.00156277e-003
,,,-2.50000000e-010,-7.72343782e-003
,,,-2.25000000e-010,-8.45937538e-003
,,,-2.00000000e-010,-9.20000043e-003
,,,-1.75000000e-010,-9.99375048e-003
,,,-1.50000000e-010,-1.07968755e-002
,,,-1.25000000e-010,-1.16062506e-002
,,,-1.00000000e-010,-1.24140632e-002
,,,-7.50000000e-011,-1.32203132e-002
,,,-5.00000000e-011,-1.40203133e-002
,,,-2.50000000e-011,-1.48125008e-002
,,,0.00000000e+000,-1.56000009e-002
,,,2.50000000e-011,-1.63562509e-002
,,,5.00000000e-011,-1.71218760e-002
,,,7.50000000e-011,-1.79031260e-002
,,,1.00000000e-010,-1.87015636e-002
,,,1.25000000e-010,-1.95156262e-002
,,,1.50000000e-010,-2.03406262e-002
,,,1.75000000e-010,-2.11718763e-002
,,,2.00000000e-010,-2.20000013e-002
,,,2.25000000e-010,-2.27078139e-002
,,,2.50000000e-010,-2.34062514e-002
,,,2.75000000e-010,-2.40968765e-002
,,,3.00000000e-010,-2.47750015e-002
,,,3.25000000e-010,-2.54343766e-002
,,,3.50000000e-010,-2.60640641e-002
,,,3.75000000e-010,-2.66562517e-002
,,,4.00000000e-010,-2.72000017e-002
,,,4.25000000e-010,-2.75171892e-002
,,,4.50000000e-010,-2.77890642e-002
,,,4.75000000e-010,-2.80234393e-002
,,,5.00000000e-010,-2.82296893e-002
,,,5.25000000e-010,-2.84109393e-002
,,,5.50000000e-010,-2.85687518e-002
,,,5.75000000e-010,-2.87000018e-002
,,,6.00000000e-010,-2.88000018e-002
,,,6.25000000e-010,-2.86734393e-002
,,,6.50000000e-010,-2.85234393e-002
,,,6.75000000e-010,-2.83562518e-002
,,,7.00000000e-010,-2.81734393e-002
,,,7.25000000e-010,-2.79734393e-002
,,,7.50000000e-010,-2.77515642e-002
,,,7.75000000e-010,-2.74968767e-002
,,,8.00000000e-010,-2.72000017e-002
,,,8.25000000e-010,-2.66921892e-002
,,,8.50000000e-010,-2.61437516e-002
,,,8.75000000e-010,-2.55640641e-002
,,,9.00000000e-010,-2.49609390e-002
,,,9.25000000e-010,-2.43390640e-002
,,,9.50000000e-010,-2.37046890e-002
,,,9.75000000e-010,-2.30578139e-002
,,,1.00000000e-009,-2.24000014e-002
,,,1.02500000e-009,-2.16359388e-002
,,,1.05000000e-009,-2.08734388e-002
,,,1.07500000e-009,-2.01265637e-002
,,,1.10000000e-009,-1.94000011e-002
,,,1.12500000e-009,-1.87015636e-002
,,,1.15000000e-009,-1.80359386e-002
,,,1.17500000e-009,-1.74031260e-002
,,,1.20000000e-009,-1.68000010e-002
,,,1.22500000e-009,-1.61968759e-002
,,,1.25000000e-009,-1.56109384e-002
,,,1.27500000e-009,-1.50421883e-002
,,,1.30000000e-009,-1.44875008e-002
,,,1.32500000e-009,-1.39484383e-002
,,,1.35000000e-009,-1.34203132e-002
,,,1.37500000e-009,-1.29046882e-002
,,,1.40000000e-009,-1.24000007e-002
,,,1.42500000e-009,-1.19312506e-002
,,,1.45000000e-009,-1.14578131e-002
,,,1.47500000e-009,-1.09796881e-002
,,,1.50000000e-009,-1.05062505e-002
,,,1.52500000e-009,-1.00421880e-002
,,,1.55000000e-009,-9.59843796e-003
,,,1.57500000e-009,-9.18281293e-003
,,,1.60000000e-009,-8.80000040e-003
,,,1.62500000e-009,-8.50937538e-003
,,,1.65000000e-009,-8.23125036e-003
,,,1.67500000e-009,-7.96406284e-003
,,,1.70000000e-009,-7.70625032e-003
,,,1.72500000e-009,-7.45937530e-003
,,,1.75000000e-009,-7.22500029e-003
,,,1.77500000e-009,-7.00468777e-003
,,,1.80000000e-009,-6.80000026e-003
,,,1.82500000e-009,-6.67500025e-003
,,,1.85000000e-009,-6.53906274e-003
,,,1.87500000e-009,-6.39062523e-003
,,,1.90000000e-009,-6.22968772e-003
,,,1.92500000e-009,-6.06250021e-003
,,,1.95000000e-009,-5.89843769e-003
,,,1.97500000e-009,-5.74218768e-003
,,,2.00000000e-009,-5.60000017e-003
,,,2.02500000e-009,-5.53281267e-003
,,,2.05000000e-009,-5.46875016e-003
,,,2.07500000e-009,-5.40468766e-003
,,,2.10000000e-009,-5.34531265e-003
,,,2.12500000e-009,-5.29218765e-003
,,,2.15000000e-009,-5.25000015e-003
,,,2.17500000e-009,-5.22031265e-003
,,,2.20000000e-009,-5.20000014e-003
,,,2.22500000e-009,-5.22031265e-003
,,,2.25000000e-009,-5.22812515e-003
,,,2.27500000e-009,-5.21562515e-003
,,,2.30000000e-009,-5.18125014e-003
,,,2.32500000e-009,-5.12343764e-003
,,,2.35000000e-009,-5.03906263e-003
,,,2.37500000e-009,-4.93125013e-003
,,,2.40000000e-009,-4.80000012e-003
,,,2.42500000e-009,-4.66875011e-003
,,,2.45000000e-009,-4.51562510e-003
,,,2.47500000e-009,-4.34687508e-003
,,,2.50000000e-009,-4.17187507e-003
,,,2.52500000e-009,-4.00000006e-003
,,,2.55000000e-009,-3.84218755e-003
,,,2.57500000e-009,-3.70625004e-003
,,,2.60000000e-009,-3.60000003e-003
,,,2.62500000e-009,-3.54062503e-003
,,,2.65000000e-009,-3.50625002e-003
,,,2.67500000e-009,-3.49375002e-003
,,,2.70000000e-009,-3.50156252e-003
,,,2.72500000e-009,-3.52187503e-003
,,,2.75000000e-009,-3.55000003e-003
,,,2.77500000e-009,-3.57812503e-003
,,,2.80000000e-009,-3.60000003e-003
,,,2.82500000e-009,-3.61562503e-003
,,,2.85000000e-009,-3.61093753e-003
,,,2.87500000e-009,-3.58281253e-003
,,,2.90000000e-009,-3.53593753e-003
,,,2.92500000e-009,-3.47031252e-003
,,,2.95000000e-009,-3.38906252e-003
,,,2.97500000e-009,-3.29843751e-003
,,,3.00000000e-009,-3.20000000e-003
,,,3.02500000e-009,-3.10156250e-003
,,,3.05000000e-009,-2.99843749e-003
,,,3.07500000e-009,-2.89531248e-003
,,,3.10000000e-009,-2.79062497e-003
,,,3.12500000e-009,-2.68749997e-003
,,,3.15000000e-009,-2.58749996e-003
,,,3.17500000e-009,-2.49218745e-003
,,,3.20000000e-009,-2.39999995e-003
,,,3.22500000e-009,-2.32187494e-003
,,,3.25000000e-009,-2.24687494e-003
,,,3.27500000e-009,-2.17812493e-003
,,,3.30000000e-009,-2.11874993e-003
,,,3.32500000e-009,-2.07031242e-003
,,,3.35000000e-009,-2.03281242e-003
,,,3.37500000e-009,-2.01093742e-003
,,,3.40000000e-009,-1.99999992e-003
,,,3.42500000e-009,-2.01406242e-003
,,,3.45000000e-009,-2.03124992e-003
,,,3.47500000e-009,-2.04999992e-003
,,,3.50000000e-009,-2.06249992e-003
,,,3.52500000e-009,-2.06718742e-003
,,,3.55000000e-009,-2.05937492e-003
,,,3.57500000e-009,-2.03749992e-003
,,,3.60000000e-009,-1.99999992e-003
,,,3.62500000e-009,-1.95312491e-003
,,,3.65000000e-009,-1.89374991e-003
,,,3.67500000e-009,-1.82656241e-003
,,,3.70000000e-009,-1.75937490e-003
,,,3.72500000e-009,-1.69843740e-003
,,,3.75000000e-009,-1.64999989e-003
,,,3.77500000e-009,-1.61562489e-003
,,,3.80000000e-009,-1.59999989e-003
,,,3.82500000e-009,-1.60937489e-003
,,,3.85000000e-009,-1.62812489e-003
,,,3.87500000e-009,-1.64999989e-003
,,,3.90000000e-009,-1.67031239e-003
,,,3.92500000e-009,-1.68124990e-003
,,,3.95000000e-009,-1.67499990e-003
,,,3.97500000e-009,-1.64843739e-003
,,,4.00000000e-009,-1.59999989e-003
,,,4.02500000e-009,-1.53749989e-003
,,,4.05000000e-009,-1.45781238e-003
,,,4.07500000e-009,-1.37031237e-003
,,,4.10000000e-009,-1.28749987e-003
,,,4.12500000e-009,-1.22031236e-003
,,,4.15000000e-009,-1.17812486e-003
,,,4.17500000e-009,-1.17031236e-003
,,,4.20000000e-009,-1.19999986e-003
,,,4.22500000e-009,-1.27499987e-003
,,,4.25000000e-009,-1.37968737e-003
,,,4.27500000e-009,-1.50468738e-003
,,,4.30000000e-009,-1.64062489e-003
,,,4.32500000e-009,-1.77031240e-003
,,,4.35000000e-009,-1.88124991e-003
,,,4.37500000e-009,-1.96093742e-003
,,,4.40000000e-009,-1.99999992e-003
,,,4.42500000e-009,-1.99062492e-003
,,,4.45000000e-009,-1.93593741e-003
,,,4.47500000e-009,-1.84218741e-003
,,,4.50000000e-009,-1.72031240e-003
,,,4.52500000e-009,-1.58281239e-003
,,,4.55000000e-009,-1.44218738e-003
,,,4.57500000e-009,-1.31093737e-003
,,,4.60000000e-009,-1.19999986e-003
,,,4.62500000e-009,-1.12187486e-003
,,,4.65000000e-009,-1.07499985e-003
,,,4.67500000e-009,-1.05624985e-003
,,,4.70000000e-009,-1.06406235e-003
,,,4.72500000e-009,-1.09062485e-003
,,,4.75000000e-009,-1.12656236e-003
,,,4.77500000e-009,-1.16562486e-003
,,,4.80000000e-009,-1.19999986e-003
,,,4.82500000e-009,-1.22812486e-003
,,,4.85000000e-009,-1.24374986e-003
,,,4.87500000e-009,-1.24687486e-003
,,,4.90000000e-009,-1.24062486e-003
,,,4.92500000e-009,-1.22812486e-003
,,,4.95000000e-009,-1.21562486e-003
,,,4.97500000e-009,-1.20468736e-003
,,,5.00000000e-009,-1.19999986e-003
,,,5.02500000e-009,-1.20468736e-003
,,,5.05000000e-009,-1.21562486e-003
,,,5.07500000e-009,-1.22968736e-003
,,,5.10000000e-009,-1.24218736e-003
,,,5.12500000e-009,-1.24999986e-003
,,,5.15000000e-009,-1.24687486e-003
,,,5.17500000e-009,-1.23124986e-003
,,,5.20000000e-009,-1.19999986e-003
,,,5.22500000e-009,-1.15468736e-003
,,,5.25000000e-009,-1.09843735e-003
,,,5.27500000e-009,-1.03281235e-003
,,,5.30000000e-009,-9.67187345e-004
,,,5.32500000e-009,-9.04687341e-004
,,,5.35000000e-009,-8.53124837e-004
,,,5.37500000e-009,-8.17187334e-004
,,,5.40000000e-009,-7.99999833e-004
,,,5.42500000e-009,-8.10937334e-004
,,,5.45000000e-009,-8.40624836e-004
,,,5.47500000e-009,-8.87499839e-004
,,,5.50000000e-009,-9.46874844e-004
,,,5.52500000e-009,-1.01249985e-003
,,,5.55000000e-009,-1.07968735e-003
,,,5.57500000e-009,-1.14531236e-003
,,,5.60000000e-009,-1.19999986e-003
,,,5.62500000e-009,-1.24062486e-003
,,,5.65000000e-009,-1.26562487e-003
,,,5.67500000e-009,-1.27656237e-003
,,,5.70000000e-009,-1.27499987e-003
,,,5.72500000e-009,-1.26249987e-003
,,,5.75000000e-009,-1.24374986e-003
,,,5.77500000e-009,-1.22187486e-003
,,,5.80000000e-009,-1.19999986e-003
