RawData/CosmicRays/L6_2pt2C_15mV/wave001_Ch3.csv

"Record Length",1000,"Points",-7.72500000e-009,-1.84374790e-004
"Sample Interval",2.50000000e-011,s,-7.70000000e-009,-2.34374793e-004
"Trigger Point",309,"Samples",-7.67500000e-009,-2.87499797e-004
"Trigger Time",8.09960199e-012,s,-7.65000000e-009,-3.43749801e-004
"",,,-7.62500000e-009,-3.99999805e-004
"Horizontal Offset",-7.72500000e-009,s,-7.60000000e-009,-4.60937309e-004
,,,-7.57500000e-009,-5.20312313e-004
,,,-7.55000000e-009,-5.78124817e-004
,,,-7.52500000e-009,-6.32812321e-004
,,,-7.50000000e-009,-6.84374825e-004
,,,-7.47500000e-009,-7.29687328e-004
,,,-7.45000000e-009,-7.68749831e-004
,,,-7.42500000e-009,-7.99999833e-004
,,,-7.40000000e-009,-8.23437335e-004
,,,-7.37500000e-009,-8.39062336e-004
,,,-7.35000000e-009,-8.45312336e-004
,,,-7.32500000e-009,-8.46874836e-004
,,,-7.30000000e-009,-8.40624836e-004
,,,-7.27500000e-009,-8.31249835e-004
,,,-7.25000000e-009,-8.17187334e-004
,,,-7.22500000e-009,-7.99999833e-004
,,,-7.20000000e-009,-7.82812332e-004
,,,-7.17500000e-009,-7.68749831e-004
,,,-7.15000000e-009,-7.57812330e-004
,,,-7.12500000e-009,-7.53124830e-004
,,,-7.10000000e-009,-7.54687330e-004
,,,-7.07500000e-009,-7.64062331e-004
,,,-7.05000000e-009,-7.79687332e-004
,,,-7.02500000e-009,-7.99999833e-004
,,,-7.00000000e-009,-8.20312335e-004
,,,-6.97500000e-009,-8.39062336e-004
,,,-6.95000000e-009,-8.56249837e-004
,,,-6.92500000e-009,-8.67187338e-004
,,,-6.90000000e-009,-8.70312338e-004
,,,-6.87500000e-009,-8.59374837e-004
,,,-6.85000000e-009,-8.37499836e-004
,,,-6.82500000e-009,-7.99999833e-004
,,,-6.80000000e-009,-7.48437329e-004
,,,-6.77500000e-009,-6.89062325e-004
,,,-6.75000000e-009,-6.24999821e-004
,,,-6.72500000e-009,-5.60937316e-004
,,,-6.70000000e-009,-5.03124812e-004
,,,-6.67500000e-009,-4.54687309e-004
,,,-6.65000000e-009,-4.18749806e-004
,,,-6.62500000e-009,-3.99999805e-004
,,,-6.60000000e-009,-4.03124805e-004
,,,-6.57500000e-009,-4.24999807e-004
,,,-6.55000000e-009,-4.65624809e-004
,,,-6.52500000e-009,-5.20312313e-004
,,,-6.50000000e-009,-5.85937318e-004
,,,-6.47500000e-009,-6.57812323e-004
,,,-6.45000000e-009,-7.31249828e-004
,,,-6.42500000e-009,-7.99999833e-004
,,,-6.40000000e-009,-8.59374837e-004
,,,-6.37500000e-009,-9.01562340e-004
,,,-6.35000000e-009,-9.29687342e-004
,,,-6.32500000e-009,-9.37499843e-004
,,,-6.30000000e-009,-9.28124842e-004
,,,-6.27500000e-009,-8.99999840e-004
,,,-6.25000000e-009,-8.56249837e-004
,,,-6.22500000e-009,-7.99999833e-004
,,,-6.20000000e-009,-7.35937329e-004
,,,-6.17500000e-009,-6.67187324e-004
,,,-6.15000000e-009,-5.98437319e-004
,,,-6.12500000e-009,-5.35937314e-004
,,,-6.10000000e-009,-4.81249811e-004
,,,-6.07500000e-009,-4.39062308e-004
,,,-6.05000000e-009,-4.10937306e-004
,,,-6.02500000e-009,-3.99999805e-004
,,,-6.00000000e-009,-4.09374805e-004
,,,-5.97500000e-009,-4.34374807e-004
,,,-5.95000000e-009,-4.74999810e-004
,,,-5.92500000e-009,-5.29687314e-004
,,,-5.90000000e-009,-5.92187318e-004
,,,-5.87500000e-009,-6.60937323e-004
,,,-5.85000000e-009,-7.32812328e-004
,,,-5.82500000e-009,-7.99999833e-004
,,,-5.80000000e-009,-8.59374837e-004
,,,-5.77500000e-009,-9.04687341e-004
,,,-5.75000000e-009,-9.34374843e-004
,,,-5.72500000e-009,-9.45312343e-004
,,,-5.70000000e-009,-9.37499843e-004
,,,-5.67500000e-009,-9.09374841e-004
,,,-5.65000000e-009,-8.62499838e-004
,,,-5.62500000e-009,-7.99999833e-004
,,,-5.60000000e-009,-7.26562328e-004
,,,-5.57500000e-009,-6.48437322e-004
,,,-5.55000000e-009,-5.71874817e-004
,,,-5.52500000e-009,-5.03124812e-004
,,,-5.50000000e-009,-4.48437308e-004
,,,-5.47500000e-009,-4.10937306e-004
,,,-5.45000000e-009,-3.95312304e-004
,,,-5.42500000e-009,-3.99999805e-004
,,,-5.40000000e-009,-4.31249807e-004
,,,-5.37500000e-009,-4.79687310e-004
,,,-5.35000000e-009,-5.40624815e-004
,,,-5.32500000e-009,-6.07812320e-004
,,,-5.30000000e-009,-6.73437324e-004
,,,-5.27500000e-009,-7.31249828e-004
,,,-5.25000000e-009,-7.74999831e-004
,,,-5.22500000e-009,-7.99999833e-004
,,,-5.20000000e-009,-8.06249834e-004
,,,-5.17500000e-009,-7.89062332e-004
,,,-5.15000000e-009,-7.51562330e-004
,,,-5.12500000e-009,-6.96874826e-004
,,,-5.10000000e-009,-6.28124821e-004
,,,-5.07500000e-009,-5.51562316e-004
,,,-5.05000000e-009,-4.74999810e-004
,,,-5.02500000e-009,-3.99999805e-004
,,,-5.00000000e-009,-3.39062300e-004
,,,-4.97500000e-009,-2.93749797e-004
,,,-4.95000000e-009,-2.65624795e-004
,,,-4.92500000e-009,-2.57812295e-004
,,,-4.90000000e-009,-2.68749796e-004
,,,-4.87500000e-009,-2.98437298e-004
,,,-4.85000000e-009,-3.43749801e-004
,,,-4.82500000e-009,-3.99999805e-004
,,,-4.80000000e-009,-4.70312310e-004
,,,-4.77500000e-009,-5.40624815e-004
,,,-4.75000000e-009,-6.10937320e-004
,,,-4.72500000e-009,-6.73437324e-004
,,,-4.70000000e-009,-7.24999828e-004
,,,-4.67500000e-009,-7.64062331e-004
,,,-4.65000000e-009,-7.89062332e-004
,,,-4.62500000e-009,-7.99999833e-004
,,,-4.60000000e-009,-7.98437333e-004
,,,-4.57500000e-009,-7.85937332e-004
,,,-4.55000000e-009,-7.70312331e-004
,,,-4.52500000e-009,-7.54687330e-004
,,,-4.50000000e-009,-7.46874829e-004
,,,-4.47500000e-009,-7.48437329e-004
,,,-4.45000000e-009,-7.67187331e-004
,,,-4.42500000e-009,-7.99999833e-004
,,,-4.40000000e-009,-8.45312336e-004
,,,-4.37500000e-009,-9.01562340e-004
,,,-4.35000000e-009,-9.65624845e-004
,,,-4.32500000e-009,-1.03281235e-003
,,,-4.30000000e-009,-1.09531235e-003
,,,-4.27500000e-009,-1.14843736e-003
,,,-4.25000000e-009,-1.18437486e-003
,,,-4.22500000e-009,-1.19999986e-003
,,,-4.20000000e-009,-1.19062486e-003
,,,-4.17500000e-009,-1.15937486e-003
,,,-4.15000000e-009,-1.10937486e-003
,,,-4.12500000e-009,-1.04843735e-003
,,,-4.10000000e-009,-9.79687346e-004
,,,-4.07500000e-009,-9.12499841e-004
,,,-4.05000000e-009,-8.51562337e-004
,,,-4.02500000e-009,-7.99999833e-004
,,,-4.00000000e-009,-7.60937330e-004
,,,-3.97500000e-009,-7.39062329e-004
,,,-3.95000000e-009,-7.31249828e-004
,,,-3.92500000e-009,-7.37499829e-004
,,,-3.90000000e-009,-7.51562330e-004
,,,-3.87500000e-009,-7.71874831e-004
,,,-3.85000000e-009,-7.89062332e-004
,,,-3.82500000e-009,-7.99999833e-004
,,,-3.80000000e-009,-7.98437333e-004
,,,-3.77500000e-009,-7.82812332e-004
,,,-3.75000000e-009,-7.51562330e-004
,,,-3.72500000e-009,-7.04687326e-004
,,,-3.70000000e-009,-6.43749822e-004
,,,-3.67500000e-009,-5.71874817e-004
,,,-3.65000000e-009,-4.89062311e-004
,,,-3.62500000e-009,-3.99999805e-004
,,,-3.60000000e-009,-3.14062299e-004
,,,-3.57500000e-009,-2.29687293e-004
,,,-3.55000000e-009,-1.54687287e-004
,,,-3.52500000e-009,-9.06247829e-005
,,,-3.50000000e-009,-4.06247794e-005
,,,-3.47500000e-009,-9.37477715e-006
,,,-3.45000000e-009,4.68772385e-006
,,,-3.42500000e-009,2.23517420e-010
,,,-3.40000000e-009,-2.96872786e-005
,,,-3.37500000e-009,-7.18747816e-005
,,,-3.35000000e-009,-1.24999785e-004
,,,-3.32500000e-009,-1.84374790e-004
,,,-3.30000000e-009,-2.45312294e-004
,,,-3.27500000e-009,-3.04687298e-004
,,,-3.25000000e-009,-3.57812302e-004
,,,-3.22500000e-009,-3.99999805e-004
,,,-3.20000000e-009,-4.34374807e-004
,,,-3.17500000e-009,-4.53124809e-004
,,,-3.15000000e-009,-4.60937309e-004
,,,-3.12500000e-009,-4.57812309e-004
,,,-3.10000000e-009,-4.46874808e-004
,,,-3.07500000e-009,-4.31249807e-004
,,,-3.05000000e-009,-4.15624806e-004
,,,-3.02500000e-009,-3.99999805e-004
,,,-3.00000000e-009,-3.93749804e-004
,,,-2.97500000e-009,-3.92187304e-004
,,,-2.95000000e-009,-3.93749804e-004
,,,-2.92500000e-009,-3.96874805e-004
,,,-2.90000000e-009,-4.01562305e-004
,,,-2.87500000e-009,-4.04687305e-004
,,,-2.85000000e-009,-4.04687305e-004
,,,-2.82500000e-009,-3.99999805e-004
,,,-2.80000000e-009,-3.92187304e-004
,,,-2.77500000e-009,-3.81249803e-004
,,,-2.75000000e-009,-3.70312303e-004
,,,-2.72500000e-009,-3.60937302e-004
,,,-2.70000000e-009,-3.57812302e-004
,,,-2.67500000e-009,-3.62499802e-004
,,,-2.65000000e-009,-3.76562303e-004
,,,-2.62500000e-009,-3.99999805e-004
,,,-2.60000000e-009,-4.31249807e-004
,,,-2.57500000e-009,-4.64062309e-004
,,,-2.55000000e-009,-4.93749811e-004
,,,-2.52500000e-009,-5.14062313e-004
,,,-2.50000000e-009,-5.18749813e-004
,,,-2.47500000e-009,-5.01562312e-004
,,,-2.45000000e-009,-4.62499809e-004
,,,-2.42500000e-009,-3.99999805e-004
,,,-2.40000000e-009,-3.20312299e-004
,,,-2.37500000e-009,-2.29687293e-004
,,,-2.35000000e-009,-1.37499786e-004
,,,-2.32500000e-009,-5.62497805e-005
,,,-2.30000000e-009,7.81272407e-006
,,,-2.27500000e-009,4.06252264e-005
,,,-2.25000000e-009,3.90627263e-005
,,,-2.22500000e-009,2.23517420e-010
,,,-2.20000000e-009,-8.59372826e-005
,,,-2.17500000e-009,-1.99999791e-004
,,,-2.15000000e-009,-3.32812300e-004
,,,-2.12500000e-009,-4.70312310e-004
,,,-2.10000000e-009,-5.99999819e-004
,,,-2.07500000e-009,-7.04687326e-004
,,,-2.05000000e-009,-7.74999831e-004
,,,-2.02500000e-009,-7.99999833e-004
,,,-2.00000000e-009,-7.79687332e-004
,,,-1.97500000e-009,-7.15624827e-004
,,,-1.95000000e-009,-6.14062320e-004
,,,-1.92500000e-009,-4.87499811e-004
,,,-1.90000000e-009,-3.49999801e-004
,,,-1.87500000e-009,-2.14062292e-004
,,,-1.85000000e-009,-9.37497831e-005
,,,-1.82500000e-009,2.23517420e-010
,,,-1.80000000e-009,5.15627272e-005
,,,-1.77500000e-009,6.40627281e-005
,,,-1.75000000e-009,3.90627263e-005
,,,-1.72500000e-009,-1.87497778e-005
,,,-1.70000000e-009,-9.99997836e-005
,,,-1.67500000e-009,-1.96874790e-004
,,,-1.65000000e-009,-2.99999798e-004
,,,-1.62500000e-009,-3.99999805e-004
,,,-1.60000000e-009,-4.96874812e-004
,,,-1.57500000e-009,-5.79687318e-004
,,,-1.55000000e-009,-6.45312322e-004
,,,-1.52500000e-009,-6.95312326e-004
,,,-1.50000000e-009,-7.31249828e-004
,,,-1.47500000e-009,-7.57812330e-004
,,,-1.45000000e-009,-7.79687332e-004
,,,-1.42500000e-009,-7.99999833e-004
,,,-1.40000000e-009,-8.35937336e-004
,,,-1.37500000e-009,-8.79687339e-004
,,,-1.35000000e-009,-9.31249842e-004
,,,-1.32500000e-009,-9.87499846e-004
,,,-1.30000000e-009,-1.04531235e-003
,,,-1.27500000e-009,-1.10312485e-003
,,,-1.25000000e-009,-1.15624986e-003
,,,-1.22500000e-009,-1.19999986e-003
,,,-1.20000000e-009,-1.26093737e-003
,,,-1.17500000e-009,-1.31093737e-003
,,,-1.15000000e-009,-1.34843737e-003
,,,-1.12500000e-009,-1.36718737e-003
,,,-1.10000000e-009,-1.36406237e-003
,,,-1.07500000e-009,-1.33437487e-003
,,,-1.05000000e-009,-1.27968737e-003
,,,-1.02500000e-009,-1.19999986e-003
,,,-1.00000000e-009,-1.16562486e-003
,,,-9.75000000e-010,-1.12656236e-003
,,,-9.50000000e-010,-1.08281235e-003
,,,-9.25000000e-010,-1.03437485e-003
,,,-9.00000000e-010,-9.79687346e-004
,,,-8.75000000e-010,-9.20312342e-004
,,,-8.50000000e-010,-8.59374837e-004
,,,-8.25000000e-010,-7.99999833e-004
,,,-8.00000000e-010,-8.49999837e-004
,,,-7.75000000e-010,-9.28124842e-004
,,,-7.50000000e-010,-1.02656235e-003
,,,-7.25000000e-010,-1.14062486e-003
,,,-7.00000000e-010,-1.26093737e-003
,,,-6.75000000e-010,-1.37968737e-003
,,,-6.50000000e-010,-1.49374988e-003
,,,-6.25000000e-010,-1.59999989e-003
,,,-6.00000000e-010,-1.83124991e-003
,,,-5.75000000e-010,-2.07968742e-003
,,,-5.50000000e-010,-2.33749994e-003
,,,-5.25000000e-010,-2.59999996e-003
,,,-5.00000000e-010,-2.85781248e-003
,,,-4.75000000e-010,-3.10937500e-003
,,,-4.50000000e-010,-3.35468751e-003
,,,-4.25000000e-010,-3.60000003e-003
,,,-4.00000000e-010,-3.98593756e-003
,,,-3.75000000e-010,-4.40781259e-003
,,,-3.50000000e-010,-4.86718762e-003
,,,-3.25000000e-010,-5.35937516e-003
,,,-3.00000000e-010,-5.87968769e-003
,,,-2.75000000e-010,-6.42656273e-003
,,,-2.50000000e-010,-6.99843777e-003
,,,-2.25000000e-010,-7.60000031e-003
,,,-2.00000000e-010,-8.32343787e-003
,,,-1.75000000e-010,-9.09687542e-003
,,,-1.50000000e-010,-9.91406298e-003
,,,-1.25000000e-010,-1.07703130e-002
,,,-1.00000000e-010,-1.16546881e-002
,,,-7.50000000e-011,-1.25578132e-002
,,,-5.00000000e-011,-1.34750007e-002
,,,-2.50000000e-011,-1.44000008e-002
,,,0.00000000e+000,-1.53421884e-002
,,,2.50000000e-011,-1.62968759e-002
,,,5.00000000e-011,-1.72593760e-002
,,,7.50000000e-011,-1.82250011e-002
,,,1.00000000e-010,-1.91875011e-002
,,,1.25000000e-010,-2.01390637e-002
,,,1.50000000e-010,-2.10781263e-002
,,,1.75000000e-010,-2.20000013e-002
,,,2.00000000e-010,-2.28234389e-002
,,,2.25000000e-010,-2.36453140e-002
,,,2.50000000e-010,-2.44750015e-002
,,,2.75000000e-010,-2.53187516e-002
,,,3.00000000e-010,-2.61765641e-002
,,,3.25000000e-010,-2.70484392e-002
,,,3.50000000e-010,-2.79265643e-002
,,,3.75000000e-010,-2.88000018e-002
,,,4.00000000e-010,-2.94906269e-002
,,,4.25000000e-010,-3.01593769e-002
,,,4.50000000e-010,-3.08031270e-002
,,,4.75000000e-010,-3.14125020e-002
,,,5.00000000e-010,-3.19718770e-002
,,,5.25000000e-010,-3.24656271e-002
,,,5.50000000e-010,-3.28796896e-002
,,,5.75000000e-010,-3.32000021e-002
,,,6.00000000e-010,-3.32031271e-002
,,,6.25000000e-010,-3.31281271e-002
,,,6.50000000e-010,-3.29937521e-002
,,,6.75000000e-010,-3.28187521e-002
,,,7.00000000e-010,-3.26218771e-002
,,,7.25000000e-010,-3.24156271e-002
,,,7.50000000e-010,-3.22078146e-002
,,,7.75000000e-010,-3.20000020e-002
,,,8.00000000e-010,-3.15906270e-002
,,,8.25000000e-010,-3.11937520e-002
,,,8.50000000e-010,-3.08125020e-002
,,,8.75000000e-010,-3.04406269e-002
,,,9.00000000e-010,-3.00671894e-002
,,,9.25000000e-010,-2.96812519e-002
,,,9.50000000e-010,-2.92640643e-002
,,,9.75000000e-010,-2.88000018e-002
,,,1.00000000e-009,-2.81281268e-002
,,,1.02500000e-009,-2.74078142e-002
,,,1.05000000e-009,-2.66515642e-002
,,,1.07500000e-009,-2.58734391e-002
,,,1.10000000e-009,-2.50890641e-002
,,,1.12500000e-009,-2.43078140e-002
,,,1.15000000e-009,-2.35437514e-002
,,,1.17500000e-009,-2.28000014e-002
,,,1.20000000e-009,-2.20093763e-002
,,,1.22500000e-009,-2.12468763e-002
,,,1.25000000e-009,-2.05140637e-002
,,,1.27500000e-009,-1.98109387e-002
,,,1.30000000e-009,-1.91312511e-002
,,,1.32500000e-009,-1.84734386e-002
,,,1.35000000e-009,-1.78328135e-002
,,,1.37500000e-009,-1.72000010e-002
,,,1.40000000e-009,-1.65671884e-002
,,,1.42500000e-009,-1.59281259e-002
,,,1.45000000e-009,-1.52859384e-002
,,,1.47500000e-009,-1.46500008e-002
,,,1.50000000e-009,-1.40328133e-002
,,,1.52500000e-009,-1.34453132e-002
,,,1.55000000e-009,-1.28984382e-002
,,,1.57500000e-009,-1.24000007e-002
,,,1.60000000e-009,-1.19968756e-002
,,,1.62500000e-009,-1.16156256e-002
,,,1.65000000e-009,-1.12531256e-002
,,,1.67500000e-009,-1.09031255e-002
,,,1.70000000e-009,-1.05640630e-002
,,,1.72500000e-009,-1.02328130e-002
,,,1.75000000e-009,-9.91250048e-003
,,,1.77500000e-009,-9.60000046e-003
,,,1.80000000e-009,-9.35937544e-003
,,,1.82500000e-009,-9.10000042e-003
,,,1.85000000e-009,-8.82656290e-003
,,,1.87500000e-009,-8.54843788e-003
,,,1.90000000e-009,-8.27343786e-003
,,,1.92500000e-009,-8.01875034e-003
,,,1.95000000e-009,-7.79062533e-003
,,,1.97500000e-009,-7.60000031e-003
,,,2.00000000e-009,-7.50937531e-003
,,,2.02500000e-009,-7.42812530e-003
,,,2.05000000e-009,-7.34687530e-003
,,,2.07500000e-009,-7.26093779e-003
,,,2.10000000e-009,-7.16718778e-003
,,,2.12500000e-009,-7.06093778e-003
,,,2.15000000e-009,-6.93906277e-003
,,,2.17500000e-009,-6.80000026e-003
,,,2.20000000e-009,-6.68750025e-003
,,,2.22500000e-009,-6.53437524e-003
,,,2.25000000e-009,-6.34687523e-003
,,,2.27500000e-009,-6.12968771e-003
,,,2.30000000e-009,-5.89375019e-003
,,,2.32500000e-009,-5.65312518e-003
,,,2.35000000e-009,-5.41875016e-003
,,,2.37500000e-009,-5.20000014e-003
,,,2.40000000e-009,-5.04062513e-003
,,,2.42500000e-009,-4.89531262e-003
,,,2.45000000e-009,-4.76718761e-003
,,,2.47500000e-009,-4.65781261e-003
,,,2.50000000e-009,-4.56718760e-003
,,,2.52500000e-009,-4.49531259e-003
,,,2.55000000e-009,-4.44062509e-003
,,,2.57500000e-009,-4.40000009e-003
,,,2.60000000e-009,-4.39062509e-003
,,,2.62500000e-009,-4.37500009e-003
,,,2.65000000e-009,-4.34843758e-003
,,,2.67500000e-009,-4.30625008e-003
,,,2.70000000e-009,-4.25156258e-003
,,,2.72500000e-009,-4.17968757e-003
,,,2.75000000e-009,-4.09687507e-003
,,,2.77500000e-009,-4.00000006e-003
,,,2.80000000e-009,-3.90937505e-003
,,,2.82500000e-009,-3.80625005e-003
,,,2.85000000e-009,-3.69375004e-003
,,,2.87500000e-009,-3.57968753e-003
,,,2.90000000e-009,-3.46875002e-003
,,,2.92500000e-009,-3.36718751e-003
,,,2.95000000e-009,-3.27656251e-003
,,,2.97500000e-009,-3.20000000e-003
,,,3.00000000e-009,-3.14843750e-003
,,,3.02500000e-009,-3.10312500e-003
,,,3.05000000e-009,-3.06249999e-003
,,,3.07500000e-009,-3.02187499e-003
,,,3.10000000e-009,-2.97812499e-003
,,,3.12500000e-009,-2.92812498e-003
,,,3.15000000e-009,-2.87031248e-003
,,,3.17500000e-009,-2.79999997e-003
,,,3.20000000e-009,-2.72812497e-003
,,,3.22500000e-009,-2.63906246e-003
,,,3.25000000e-009,-2.53593746e-003
,,,3.27500000e-009,-2.42343745e-003
,,,3.30000000e-009,-2.30781244e-003
,,,3.32500000e-009,-2.19374993e-003
,,,3.35000000e-009,-2.09062492e-003
,,,3.37500000e-009,-1.99999992e-003
,,,3.40000000e-009,-1.93749991e-003
,,,3.42500000e-009,-1.89374991e-003
,,,3.45000000e-009,-1.86874991e-003
,,,3.47500000e-009,-1.86406241e-003
,,,3.50000000e-009,-1.87812491e-003
,,,3.52500000e-009,-1.90781241e-003
,,,3.55000000e-009,-1.94999991e-003
,,,3.57500000e-009,-1.99999992e-003
,,,3.60000000e-009,-2.05937492e-003
,,,3.62500000e-009,-2.10937493e-003
,,,3.65000000e-009,-2.14687493e-003
,,,3.67500000e-009,-2.16406243e-003
,,,3.70000000e-009,-2.16093743e-003
,,,3.72500000e-009,-2.13124993e-003
,,,3.75000000e-009,-2.07812492e-003
,,,3.77500000e-009,-1.99999992e-003
,,,3.80000000e-009,-1.90781241e-003
,,,3.82500000e-009,-1.79843740e-003
,,,3.85000000e-009,-1.67968740e-003
,,,3.87500000e-009,-1.55781239e-003
,,,3.90000000e-009,-1.44374988e-003
,,,3.92500000e-009,-1.34218737e-003
,,,3.95000000e-009,-1.25937487e-003
,,,3.97500000e-009,-1.19999986e-003
,,,4.00000000e-009,-1.17343736e-003
,,,4.02500000e-009,-1.16718736e-003
,,,4.05000000e-009,-1.17499986e-003
,,,4.07500000e-009,-1.19062486e-003
,,,4.10000000e-009,-1.20781236e-003
,,,4.12500000e-009,-1.21874986e-003
,,,4.15000000e-009,-1.21718736e-003
,,,4.17500000e-009,-1.19999986e-003
,,,4.20000000e-009,-1.17343736e-003
,,,4.22500000e-009,-1.12812486e-003
,,,4.25000000e-009,-1.06874985e-003
,,,4.27500000e-009,-1.00156235e-003
,,,4.30000000e-009,-9.32812343e-004
,,,4.32500000e-009,-8.73437338e-004
,,,4.35000000e-009,-8.26562335e-004
,,,4.37500000e-009,-7.99999833e-004
,,,4.40000000e-009,-8.04687333e-004
,,,4.42500000e-009,-8.29687335e-004
,,,4.45000000e-009,-8.76562339e-004
,,,4.47500000e-009,-9.35937343e-004
,,,4.50000000e-009,-1.00468735e-003
,,,4.52500000e-009,-1.07656235e-003
,,,4.55000000e-009,-1.14374986e-003
,,,4.57500000e-009,-1.19999986e-003
,,,4.60000000e-009,-1.24531236e-003
,,,4.62500000e-009,-1.27343737e-003
,,,4.65000000e-009,-1.28281237e-003
,,,4.67500000e-009,-1.27968737e-003
,,,4.70000000e-009,-1.26406237e-003
,,,4.72500000e-009,-1.24374986e-003
,,,4.75000000e-009,-1.22187486e-003
,,,4.77500000e-009,-1.19999986e-003
,,,4.80000000e-009,-1.18593736e-003
,,,4.82500000e-009,-1.17812486e-003
,,,4.85000000e-009,-1.17499986e-003
,,,4.87500000e-009,-1.17656236e-003
,,,4.90000000e-009,-1.18124986e-003
,,,4.92500000e-009,-1.18906236e-003
,,,4.95000000e-009,-1.19531236e-003
,,,4.97500000e-009,-1.19999986e-003
,,,5.00000000e-009,-1.20156236e-003
,,,5.02500000e-009,-1.19999986e-003
,,,5.05000000e-009,-1.19687486e-003
,,,5.07500000e-009,-1.19218736e-003
,,,5.10000000e-009,-1.18906236e-003
,,,5.12500000e-009,-1.18906236e-003
,,,5.15000000e-009,-1.19218736e-003
,,,5.17500000e-009,-1.19999986e-003
,,,5.20000000e-009,-1.21093736e-003
,,,5.22500000e-009,-1.22187486e-003
,,,5.25000000e-009,-1.23281236e-003
,,,5.27500000e-009,-1.24218736e-003
,,,5.30000000e-009,-1.24531236e-003
,,,5.32500000e-009,-1.24062486e-003
,,,5.35000000e-009,-1.22656236e-003
,,,5.37500000e-009,-1.19999986e-003
,,,5.40000000e-009,-1.15937486e-003
,,,5.42500000e-009,-1.10937486e-003
,,,5.45000000e-009,-1.05312485e-003
,,,5.47500000e-009,-9.93749847e-004
,,,5.50000000e-009,-9.35937343e-004
,,,5.52500000e-009,-8.82812339e-004
,,,5.55000000e-009,-8.35937336e-004
,,,5.57500000e-009,-7.99999833e-004
,,,5.60000000e-009,-7.78124832e-004
,,,5.62500000e-009,-7.65624831e-004
,,,5.65000000e-009,-7.64062331e-004
,,,5.67500000e-009,-7.68749831e-004
,,,5.70000000e-009,-7.76562331e-004
,,,5.72500000e-009,-7.87499832e-004
,,,5.75000000e-009,-7.95312333e-004
,,,5.77500000e-009,-7.99999833e-004
,,,5.80000000e-009,-8.01562333e-004
