RawData/CosmicRays/L6_2pt2C_15mV/wave017_Ch3.csv

"Record Length",1000,"Points",-7.72500000e-009,-9.43749843e-004
"Sample Interval",2.50000000e-011,s,-7.70000000e-009,-8.79687339e-004
"Trigger Point",309,"Samples",-7.67500000e-009,-8.29687335e-004
"Trigger Time",1.22696940e-011,s,-7.65000000e-009,-8.03124833e-004
"",,,-7.62500000e-009,-7.99999833e-004
"Horizontal Offset",-7.72500000e-009,s,-7.60000000e-009,-8.24999835e-004
,,,-7.57500000e-009,-8.71874838e-004
,,,-7.55000000e-009,-9.37499843e-004
,,,-7.52500000e-009,-1.00937485e-003
,,,-7.50000000e-009,-1.08124985e-003
,,,-7.47500000e-009,-1.14062486e-003
,,,-7.45000000e-009,-1.18281236e-003
,,,-7.42500000e-009,-1.19999986e-003
,,,-7.40000000e-009,-1.18906236e-003
,,,-7.37500000e-009,-1.15156236e-003
,,,-7.35000000e-009,-1.09531235e-003
,,,-7.32500000e-009,-1.02656235e-003
,,,-7.30000000e-009,-9.54687344e-004
,,,-7.27500000e-009,-8.87499839e-004
,,,-7.25000000e-009,-8.34374836e-004
,,,-7.22500000e-009,-7.99999833e-004
,,,-7.20000000e-009,-7.90624832e-004
,,,-7.17500000e-009,-8.07812334e-004
,,,-7.15000000e-009,-8.46874836e-004
,,,-7.12500000e-009,-9.06249841e-004
,,,-7.10000000e-009,-9.79687346e-004
,,,-7.07500000e-009,-1.05781235e-003
,,,-7.05000000e-009,-1.13281236e-003
,,,-7.02500000e-009,-1.19999986e-003
,,,-7.00000000e-009,-1.24999986e-003
,,,-6.97500000e-009,-1.28281237e-003
,,,-6.95000000e-009,-1.29843737e-003
,,,-6.92500000e-009,-1.29687487e-003
,,,-6.90000000e-009,-1.28124987e-003
,,,-6.87500000e-009,-1.25781237e-003
,,,-6.85000000e-009,-1.22968736e-003
,,,-6.82500000e-009,-1.19999986e-003
,,,-6.80000000e-009,-1.17343736e-003
,,,-6.77500000e-009,-1.15312486e-003
,,,-6.75000000e-009,-1.14062486e-003
,,,-6.72500000e-009,-1.13749986e-003
,,,-6.70000000e-009,-1.14374986e-003
,,,-6.67500000e-009,-1.15781236e-003
,,,-6.65000000e-009,-1.17656236e-003
,,,-6.62500000e-009,-1.19999986e-003
,,,-6.60000000e-009,-1.22187486e-003
,,,-6.57500000e-009,-1.24062486e-003
,,,-6.55000000e-009,-1.25624987e-003
,,,-6.52500000e-009,-1.26406237e-003
,,,-6.50000000e-009,-1.26406237e-003
,,,-6.47500000e-009,-1.25312487e-003
,,,-6.45000000e-009,-1.23281236e-003
,,,-6.42500000e-009,-1.19999986e-003
,,,-6.40000000e-009,-1.15468736e-003
,,,-6.37500000e-009,-1.09999985e-003
,,,-6.35000000e-009,-1.04062485e-003
,,,-6.32500000e-009,-9.79687346e-004
,,,-6.30000000e-009,-9.23437342e-004
,,,-6.27500000e-009,-8.71874838e-004
,,,-6.25000000e-009,-8.31249835e-004
,,,-6.22500000e-009,-7.99999833e-004
,,,-6.20000000e-009,-7.84374832e-004
,,,-6.17500000e-009,-7.79687332e-004
,,,-6.15000000e-009,-7.82812332e-004
,,,-6.12500000e-009,-7.90624832e-004
,,,-6.10000000e-009,-7.99999833e-004
,,,-6.07500000e-009,-8.06249834e-004
,,,-6.05000000e-009,-8.06249834e-004
,,,-6.02500000e-009,-7.99999833e-004
,,,-6.00000000e-009,-7.90624832e-004
,,,-5.97500000e-009,-7.74999831e-004
,,,-5.95000000e-009,-7.57812330e-004
,,,-5.92500000e-009,-7.43749829e-004
,,,-5.90000000e-009,-7.39062329e-004
,,,-5.87500000e-009,-7.45312329e-004
,,,-5.85000000e-009,-7.67187331e-004
,,,-5.82500000e-009,-7.99999833e-004
,,,-5.80000000e-009,-8.46874836e-004
,,,-5.77500000e-009,-8.95312340e-004
,,,-5.75000000e-009,-9.39062343e-004
,,,-5.72500000e-009,-9.68749845e-004
,,,-5.70000000e-009,-9.74999845e-004
,,,-5.67500000e-009,-9.51562344e-004
,,,-5.65000000e-009,-8.93749840e-004
,,,-5.62500000e-009,-7.99999833e-004
,,,-5.60000000e-009,-6.79687325e-004
,,,-5.57500000e-009,-5.35937314e-004
,,,-5.55000000e-009,-3.85937304e-004
,,,-5.52500000e-009,-2.40624794e-004
,,,-5.50000000e-009,-1.17187285e-004
,,,-5.47500000e-009,-2.81247785e-005
,,,-5.45000000e-009,1.25002244e-005
,,,-5.42500000e-009,2.23517420e-010
,,,-5.40000000e-009,-7.96872821e-005
,,,-5.37500000e-009,-2.07812291e-004
,,,-5.35000000e-009,-3.71874803e-004
,,,-5.32500000e-009,-5.59374816e-004
,,,-5.30000000e-009,-7.53124830e-004
,,,-5.27500000e-009,-9.32812343e-004
,,,-5.25000000e-009,-1.08749985e-003
,,,-5.22500000e-009,-1.19999986e-003
,,,-5.20000000e-009,-1.26249987e-003
,,,-5.17500000e-009,-1.27656237e-003
,,,-5.15000000e-009,-1.24374986e-003
,,,-5.12500000e-009,-1.17656236e-003
,,,-5.10000000e-009,-1.08593735e-003
,,,-5.07500000e-009,-9.84374846e-004
,,,-5.05000000e-009,-8.85937339e-004
,,,-5.02500000e-009,-7.99999833e-004
,,,-5.00000000e-009,-7.37499829e-004
,,,-4.97500000e-009,-6.99999826e-004
,,,-4.95000000e-009,-6.87499825e-004
,,,-4.92500000e-009,-6.96874826e-004
,,,-4.90000000e-009,-7.18749827e-004
,,,-4.87500000e-009,-7.48437329e-004
,,,-4.85000000e-009,-7.78124832e-004
,,,-4.82500000e-009,-7.99999833e-004
,,,-4.80000000e-009,-8.14062334e-004
,,,-4.77500000e-009,-8.17187334e-004
,,,-4.75000000e-009,-8.10937334e-004
,,,-4.72500000e-009,-7.98437333e-004
,,,-4.70000000e-009,-7.85937332e-004
,,,-4.67500000e-009,-7.79687332e-004
,,,-4.65000000e-009,-7.82812332e-004
,,,-4.62500000e-009,-7.99999833e-004
,,,-4.60000000e-009,-8.35937336e-004
,,,-4.57500000e-009,-8.85937339e-004
,,,-4.55000000e-009,-9.45312343e-004
,,,-4.52500000e-009,-1.01093735e-003
,,,-4.50000000e-009,-1.07656235e-003
,,,-4.47500000e-009,-1.13281236e-003
,,,-4.45000000e-009,-1.17656236e-003
,,,-4.42500000e-009,-1.19999986e-003
,,,-4.40000000e-009,-1.19687486e-003
,,,-4.37500000e-009,-1.17343736e-003
,,,-4.35000000e-009,-1.12968736e-003
,,,-4.32500000e-009,-1.07187485e-003
,,,-4.30000000e-009,-1.00468735e-003
,,,-4.27500000e-009,-9.34374843e-004
,,,-4.25000000e-009,-8.64062338e-004
,,,-4.22500000e-009,-7.99999833e-004
,,,-4.20000000e-009,-7.49999830e-004
,,,-4.17500000e-009,-7.14062327e-004
,,,-4.15000000e-009,-6.93749826e-004
,,,-4.12500000e-009,-6.89062325e-004
,,,-4.10000000e-009,-6.99999826e-004
,,,-4.07500000e-009,-7.23437328e-004
,,,-4.05000000e-009,-7.57812330e-004
,,,-4.02500000e-009,-7.99999833e-004
,,,-4.00000000e-009,-8.48437337e-004
,,,-3.97500000e-009,-8.98437340e-004
,,,-3.95000000e-009,-9.49999844e-004
,,,-3.92500000e-009,-1.00312485e-003
,,,-3.90000000e-009,-1.05468735e-003
,,,-3.87500000e-009,-1.10624985e-003
,,,-3.85000000e-009,-1.15468736e-003
,,,-3.82500000e-009,-1.19999986e-003
,,,-3.80000000e-009,-1.23593736e-003
,,,-3.77500000e-009,-1.26249987e-003
,,,-3.75000000e-009,-1.28124987e-003
,,,-3.72500000e-009,-1.28906237e-003
,,,-3.70000000e-009,-1.28593737e-003
,,,-3.67500000e-009,-1.27031237e-003
,,,-3.65000000e-009,-1.24062486e-003
,,,-3.62500000e-009,-1.19999986e-003
,,,-3.60000000e-009,-1.14687486e-003
,,,-3.57500000e-009,-1.08906235e-003
,,,-3.55000000e-009,-1.02656235e-003
,,,-3.52500000e-009,-9.65624845e-004
,,,-3.50000000e-009,-9.10937341e-004
,,,-3.47500000e-009,-8.62499838e-004
,,,-3.45000000e-009,-8.26562335e-004
,,,-3.42500000e-009,-7.99999833e-004
,,,-3.40000000e-009,-7.89062332e-004
,,,-3.37500000e-009,-7.85937332e-004
,,,-3.35000000e-009,-7.92187333e-004
,,,-3.32500000e-009,-7.99999833e-004
,,,-3.30000000e-009,-8.09374834e-004
,,,-3.27500000e-009,-8.15624834e-004
,,,-3.25000000e-009,-8.12499834e-004
,,,-3.22500000e-009,-7.99999833e-004
,,,-3.20000000e-009,-7.76562331e-004
,,,-3.17500000e-009,-7.42187329e-004
,,,-3.15000000e-009,-6.96874826e-004
,,,-3.12500000e-009,-6.42187322e-004
,,,-3.10000000e-009,-5.81249818e-004
,,,-3.07500000e-009,-5.18749813e-004
,,,-3.05000000e-009,-4.57812309e-004
,,,-3.02500000e-009,-3.99999805e-004
,,,-3.00000000e-009,-3.56249802e-004
,,,-2.97500000e-009,-3.23437299e-004
,,,-2.95000000e-009,-3.03124798e-004
,,,-2.92500000e-009,-2.96874797e-004
,,,-2.90000000e-009,-3.04687298e-004
,,,-2.87500000e-009,-3.24999799e-004
,,,-2.85000000e-009,-3.57812302e-004
,,,-2.82500000e-009,-3.99999805e-004
,,,-2.80000000e-009,-4.56249809e-004
,,,-2.77500000e-009,-5.15624813e-004
,,,-2.75000000e-009,-5.74999817e-004
,,,-2.72500000e-009,-6.31249821e-004
,,,-2.70000000e-009,-6.84374825e-004
,,,-2.67500000e-009,-7.31249828e-004
,,,-2.65000000e-009,-7.70312331e-004
,,,-2.62500000e-009,-7.99999833e-004
,,,-2.60000000e-009,-8.24999835e-004
,,,-2.57500000e-009,-8.40624836e-004
,,,-2.55000000e-009,-8.46874836e-004
,,,-2.52500000e-009,-8.46874836e-004
,,,-2.50000000e-009,-8.40624836e-004
,,,-2.47500000e-009,-8.28124835e-004
,,,-2.45000000e-009,-8.15624834e-004
,,,-2.42500000e-009,-7.99999833e-004
,,,-2.40000000e-009,-7.87499832e-004
,,,-2.37500000e-009,-7.76562331e-004
,,,-2.35000000e-009,-7.70312331e-004
,,,-2.32500000e-009,-7.68749831e-004
,,,-2.30000000e-009,-7.70312331e-004
,,,-2.27500000e-009,-7.78124832e-004
,,,-2.25000000e-009,-7.87499832e-004
,,,-2.22500000e-009,-7.99999833e-004
,,,-2.20000000e-009,-8.12499834e-004
,,,-2.17500000e-009,-8.23437335e-004
,,,-2.15000000e-009,-8.31249835e-004
,,,-2.12500000e-009,-8.34374836e-004
,,,-2.10000000e-009,-8.34374836e-004
,,,-2.07500000e-009,-8.28124835e-004
,,,-2.05000000e-009,-8.15624834e-004
,,,-2.02500000e-009,-7.99999833e-004
,,,-2.00000000e-009,-7.81249832e-004
,,,-1.97500000e-009,-7.62499830e-004
,,,-1.95000000e-009,-7.46874829e-004
,,,-1.92500000e-009,-7.37499829e-004
,,,-1.90000000e-009,-7.35937329e-004
,,,-1.87500000e-009,-7.45312329e-004
,,,-1.85000000e-009,-7.67187331e-004
,,,-1.82500000e-009,-7.99999833e-004
,,,-1.80000000e-009,-8.43749836e-004
,,,-1.77500000e-009,-8.96874840e-004
,,,-1.75000000e-009,-9.54687344e-004
,,,-1.72500000e-009,-1.01562485e-003
,,,-1.70000000e-009,-1.07499985e-003
,,,-1.67500000e-009,-1.12812486e-003
,,,-1.65000000e-009,-1.17187486e-003
,,,-1.62500000e-009,-1.19999986e-003
,,,-1.60000000e-009,-1.20937486e-003
,,,-1.57500000e-009,-1.19843736e-003
,,,-1.55000000e-009,-1.16874986e-003
,,,-1.52500000e-009,-1.12031236e-003
,,,-1.50000000e-009,-1.05624985e-003
,,,-1.47500000e-009,-9.79687346e-004
,,,-1.45000000e-009,-8.92187340e-004
,,,-1.42500000e-009,-7.99999833e-004
,,,-1.40000000e-009,-7.15624827e-004
,,,-1.37500000e-009,-6.37499822e-004
,,,-1.35000000e-009,-5.67187317e-004
,,,-1.32500000e-009,-5.07812312e-004
,,,-1.30000000e-009,-4.60937309e-004
,,,-1.27500000e-009,-4.28124807e-004
,,,-1.25000000e-009,-4.07812305e-004
,,,-1.22500000e-009,-3.99999805e-004
,,,-1.20000000e-009,-4.39062308e-004
,,,-1.17500000e-009,-4.90624811e-004
,,,-1.15000000e-009,-5.53124816e-004
,,,-1.12500000e-009,-6.18749820e-004
,,,-1.10000000e-009,-6.82812325e-004
,,,-1.07500000e-009,-7.35937329e-004
,,,-1.05000000e-009,-7.76562331e-004
,,,-1.02500000e-009,-7.99999833e-004
,,,-1.00000000e-009,-8.73437338e-004
,,,-9.75000000e-010,-9.35937343e-004
,,,-9.50000000e-010,-9.81249846e-004
,,,-9.25000000e-010,-1.00468735e-003
,,,-9.00000000e-010,-9.98437347e-004
,,,-8.75000000e-010,-9.62499845e-004
,,,-8.50000000e-010,-8.95312340e-004
,,,-8.25000000e-010,-7.99999833e-004
,,,-8.00000000e-010,-8.09374834e-004
,,,-7.75000000e-010,-8.23437335e-004
,,,-7.50000000e-010,-8.39062336e-004
,,,-7.25000000e-010,-8.51562337e-004
,,,-7.00000000e-010,-8.54687337e-004
,,,-6.75000000e-010,-8.46874836e-004
,,,-6.50000000e-010,-8.26562335e-004
,,,-6.25000000e-010,-7.99999833e-004
,,,-6.00000000e-010,-9.65624845e-004
,,,-5.75000000e-010,-1.16562486e-003
,,,-5.50000000e-010,-1.38437487e-003
,,,-5.25000000e-010,-1.61093739e-003
,,,-5.00000000e-010,-1.83281241e-003
,,,-4.75000000e-010,-2.03906242e-003
,,,-4.50000000e-010,-2.22656243e-003
,,,-4.25000000e-010,-2.39999995e-003
,,,-4.00000000e-010,-2.80468747e-003
,,,-3.75000000e-010,-3.25000001e-003
,,,-3.50000000e-010,-3.72968754e-003
,,,-3.25000000e-010,-4.23437508e-003
,,,-3.00000000e-010,-4.75625011e-003
,,,-2.75000000e-010,-5.28906265e-003
,,,-2.50000000e-010,-5.83437519e-003
,,,-2.25000000e-010,-6.40000023e-003
,,,-2.00000000e-010,-7.21875029e-003
,,,-1.75000000e-010,-8.11250035e-003
,,,-1.50000000e-010,-9.07031292e-003
,,,-1.25000000e-010,-1.00796880e-002
,,,-1.00000000e-010,-1.11265631e-002
,,,-7.50000000e-011,-1.21984381e-002
,,,-5.00000000e-011,-1.32890632e-002
,,,-2.50000000e-011,-1.44000008e-002
,,,0.00000000e+000,-1.56765634e-002
,,,2.50000000e-011,-1.70125010e-002
,,,5.00000000e-011,-1.84046886e-002
,,,7.50000000e-011,-1.98468762e-002
,,,1.00000000e-010,-2.13328138e-002
,,,1.25000000e-010,-2.28562514e-002
,,,1.50000000e-010,-2.44125015e-002
,,,1.75000000e-010,-2.60000016e-002
,,,2.00000000e-010,-2.76187517e-002
,,,2.25000000e-010,-2.92921893e-002
,,,2.50000000e-010,-3.10125020e-002
,,,2.75000000e-010,-3.27781271e-002
,,,3.00000000e-010,-3.45750022e-002
,,,3.25000000e-010,-3.63859399e-002
,,,3.50000000e-010,-3.82000025e-002
,,,3.75000000e-010,-4.00000026e-002
,,,4.00000000e-010,-4.15921902e-002
,,,4.25000000e-010,-4.31687528e-002
,,,4.50000000e-010,-4.47265654e-002
,,,4.75000000e-010,-4.62625031e-002
,,,5.00000000e-010,-4.77718782e-002
,,,5.25000000e-010,-4.92421908e-002
,,,5.50000000e-010,-5.06562534e-002
,,,5.75000000e-010,-5.20000035e-002
,,,6.00000000e-010,-5.29328160e-002
,,,6.25000000e-010,-5.37937536e-002
,,,6.50000000e-010,-5.45937536e-002
,,,6.75000000e-010,-5.53328162e-002
,,,7.00000000e-010,-5.60140662e-002
,,,7.25000000e-010,-5.66265663e-002
,,,7.50000000e-010,-5.71593788e-002
,,,7.75000000e-010,-5.76000039e-002
,,,8.00000000e-010,-5.75468788e-002
,,,8.25000000e-010,-5.74156288e-002
,,,8.50000000e-010,-5.72250038e-002
,,,8.75000000e-010,-5.69875038e-002
,,,9.00000000e-010,-5.67093788e-002
,,,9.25000000e-010,-5.63906288e-002
,,,9.50000000e-010,-5.60250037e-002
,,,9.75000000e-010,-5.56000037e-002
,,,1.00000000e-009,-5.47484412e-002
,,,1.02500000e-009,-5.38531286e-002
,,,1.05000000e-009,-5.29296910e-002
,,,1.07500000e-009,-5.19859410e-002
,,,1.10000000e-009,-5.10234409e-002
,,,1.12500000e-009,-5.00437533e-002
,,,1.15000000e-009,-4.90390657e-002
,,,1.17500000e-009,-4.80000032e-002
,,,1.20000000e-009,-4.66625031e-002
,,,1.22500000e-009,-4.53000030e-002
,,,1.25000000e-009,-4.39250029e-002
,,,1.27500000e-009,-4.25500028e-002
,,,1.30000000e-009,-4.11859402e-002
,,,1.32500000e-009,-3.98375026e-002
,,,1.35000000e-009,-3.85093775e-002
,,,1.37500000e-009,-3.72000024e-002
,,,1.40000000e-009,-3.57937523e-002
,,,1.42500000e-009,-3.44046897e-002
,,,1.45000000e-009,-3.30390646e-002
,,,1.47500000e-009,-3.17046895e-002
,,,1.50000000e-009,-3.04078144e-002
,,,1.52500000e-009,-2.91578143e-002
,,,1.55000000e-009,-2.79546893e-002
,,,1.57500000e-009,-2.68000017e-002
,,,1.60000000e-009,-2.57125016e-002
,,,1.62500000e-009,-2.46437515e-002
,,,1.65000000e-009,-2.35921889e-002
,,,1.67500000e-009,-2.25609389e-002
,,,1.70000000e-009,-2.15593763e-002
,,,1.72500000e-009,-2.05921887e-002
,,,1.75000000e-009,-1.96718762e-002
,,,1.77500000e-009,-1.88000011e-002
,,,1.80000000e-009,-1.80843761e-002
,,,1.82500000e-009,-1.73781260e-002
,,,1.85000000e-009,-1.66812510e-002
,,,1.87500000e-009,-1.59968759e-002
,,,1.90000000e-009,-1.53375009e-002
,,,1.92500000e-009,-1.47109383e-002
,,,1.95000000e-009,-1.41296883e-002
,,,1.97500000e-009,-1.36000007e-002
,,,2.00000000e-009,-1.32562507e-002
,,,2.02500000e-009,-1.29125007e-002
,,,2.05000000e-009,-1.25625007e-002
,,,2.07500000e-009,-1.22031256e-002
,,,2.10000000e-009,-1.18390631e-002
,,,2.12500000e-009,-1.14796881e-002
,,,2.15000000e-009,-1.11312506e-002
,,,2.17500000e-009,-1.08000005e-002
,,,2.20000000e-009,-1.06125005e-002
,,,2.22500000e-009,-1.04062505e-002
,,,2.25000000e-009,-1.01828130e-002
,,,2.27500000e-009,-9.95156298e-003
,,,2.30000000e-009,-9.72500046e-003
,,,2.32500000e-009,-9.51718795e-003
,,,2.35000000e-009,-9.33906294e-003
,,,2.37500000e-009,-9.20000043e-003
,,,2.40000000e-009,-9.18593793e-003
,,,2.42500000e-009,-9.17187543e-003
,,,2.45000000e-009,-9.14843792e-003
,,,2.47500000e-009,-9.11250042e-003
,,,2.50000000e-009,-9.05937542e-003
,,,2.52500000e-009,-8.99062541e-003
,,,2.55000000e-009,-8.90468791e-003
,,,2.57500000e-009,-8.80000040e-003
,,,2.60000000e-009,-8.72656289e-003
,,,2.62500000e-009,-8.61406289e-003
,,,2.65000000e-009,-8.46718788e-003
,,,2.67500000e-009,-8.29531286e-003
,,,2.70000000e-009,-8.11250035e-003
,,,2.72500000e-009,-7.92812534e-003
,,,2.75000000e-009,-7.75468783e-003
,,,2.77500000e-009,-7.60000031e-003
,,,2.80000000e-009,-7.49375031e-003
,,,2.82500000e-009,-7.39687530e-003
,,,2.85000000e-009,-7.30468779e-003
,,,2.87500000e-009,-7.21562529e-003
,,,2.90000000e-009,-7.12500028e-003
,,,2.92500000e-009,-7.02812527e-003
,,,2.95000000e-009,-6.92187527e-003
,,,2.97500000e-009,-6.80000026e-003
,,,3.00000000e-009,-6.67031275e-003
,,,3.02500000e-009,-6.51093774e-003
,,,3.05000000e-009,-6.32500022e-003
,,,3.07500000e-009,-6.11718771e-003
,,,3.10000000e-009,-5.89218769e-003
,,,3.12500000e-009,-5.65937518e-003
,,,3.15000000e-009,-5.42656266e-003
,,,3.17500000e-009,-5.20000014e-003
,,,3.20000000e-009,-4.99687513e-003
,,,3.22500000e-009,-4.80468762e-003
,,,3.25000000e-009,-4.62656260e-003
,,,3.27500000e-009,-4.46406259e-003
,,,3.30000000e-009,-4.32031258e-003
,,,3.32500000e-009,-4.19531257e-003
,,,3.35000000e-009,-4.08906257e-003
,,,3.37500000e-009,-4.00000006e-003
,,,3.40000000e-009,-3.94062506e-003
,,,3.42500000e-009,-3.88750005e-003
,,,3.45000000e-009,-3.83750005e-003
,,,3.47500000e-009,-3.78906254e-003
,,,3.50000000e-009,-3.74218754e-003
,,,3.52500000e-009,-3.69531254e-003
,,,3.55000000e-009,-3.64843753e-003
,,,3.57500000e-009,-3.60000003e-003
,,,3.60000000e-009,-3.56406253e-003
,,,3.62500000e-009,-3.52031253e-003
,,,3.65000000e-009,-3.47031252e-003
,,,3.67500000e-009,-3.41562502e-003
,,,3.70000000e-009,-3.35781251e-003
,,,3.72500000e-009,-3.30156251e-003
,,,3.75000000e-009,-3.24843751e-003
,,,3.77500000e-009,-3.20000000e-003
,,,3.80000000e-009,-3.16406250e-003
,,,3.82500000e-009,-3.12656250e-003
,,,3.85000000e-009,-3.08437499e-003
,,,3.87500000e-009,-3.03593749e-003
,,,3.90000000e-009,-2.98437499e-003
,,,3.92500000e-009,-2.92812498e-003
,,,3.95000000e-009,-2.86562498e-003
,,,3.97500000e-009,-2.79999997e-003
,,,4.00000000e-009,-2.74062497e-003
,,,4.02500000e-009,-2.67343747e-003
,,,4.05000000e-009,-2.60624996e-003
,,,4.07500000e-009,-2.54218746e-003
,,,4.10000000e-009,-2.48593745e-003
,,,4.12500000e-009,-2.44218745e-003
,,,4.15000000e-009,-2.41249995e-003
,,,4.17500000e-009,-2.39999995e-003
,,,4.20000000e-009,-2.40781245e-003
,,,4.22500000e-009,-2.42187495e-003
,,,4.25000000e-009,-2.43906245e-003
,,,4.27500000e-009,-2.45468745e-003
,,,4.30000000e-009,-2.46406245e-003
,,,4.32500000e-009,-2.45937495e-003
,,,4.35000000e-009,-2.44062495e-003
,,,4.37500000e-009,-2.39999995e-003
,,,4.40000000e-009,-2.34374994e-003
,,,4.42500000e-009,-2.26562494e-003
,,,4.45000000e-009,-2.17031243e-003
,,,4.47500000e-009,-2.06093742e-003
,,,4.50000000e-009,-1.94218741e-003
,,,4.52500000e-009,-1.82343741e-003
,,,4.55000000e-009,-1.70781240e-003
,,,4.57500000e-009,-1.59999989e-003
,,,4.60000000e-009,-1.51249988e-003
,,,4.62500000e-009,-1.43906238e-003
,,,4.65000000e-009,-1.37656237e-003
,,,4.67500000e-009,-1.32812487e-003
,,,4.70000000e-009,-1.28749987e-003
,,,4.72500000e-009,-1.25624987e-003
,,,4.75000000e-009,-1.22812486e-003
,,,4.77500000e-009,-1.19999986e-003
,,,4.80000000e-009,-1.17968736e-003
,,,4.82500000e-009,-1.14999986e-003
,,,4.85000000e-009,-1.11249986e-003
,,,4.87500000e-009,-1.06406235e-003
,,,4.90000000e-009,-1.00781235e-003
,,,4.92500000e-009,-9.42187343e-004
,,,4.95000000e-009,-8.71874838e-004
,,,4.97500000e-009,-7.99999833e-004
,,,5.00000000e-009,-7.42187329e-004
,,,5.02500000e-009,-6.92187325e-004
,,,5.05000000e-009,-6.53124823e-004
,,,5.07500000e-009,-6.34374821e-004
,,,5.10000000e-009,-6.35937321e-004
,,,5.12500000e-009,-6.64062323e-004
,,,5.15000000e-009,-7.18749827e-004
,,,5.17500000e-009,-7.99999833e-004
,,,5.20000000e-009,-9.12499841e-004
,,,5.22500000e-009,-1.03749985e-003
,,,5.25000000e-009,-1.16718736e-003
,,,5.27500000e-009,-1.29218737e-003
,,,5.30000000e-009,-1.40624988e-003
,,,5.32500000e-009,-1.49999988e-003
,,,5.35000000e-009,-1.56562489e-003
,,,5.37500000e-009,-1.59999989e-003
,,,5.40000000e-009,-1.60624989e-003
,,,5.42500000e-009,-1.57968739e-003
,,,5.45000000e-009,-1.52968738e-003
,,,5.47500000e-009,-1.46249988e-003
,,,5.50000000e-009,-1.38749987e-003
,,,5.52500000e-009,-1.31406237e-003
,,,5.55000000e-009,-1.24999986e-003
,,,5.57500000e-009,-1.19999986e-003
,,,5.60000000e-009,-1.17343736e-003
,,,5.62500000e-009,-1.16249986e-003
,,,5.65000000e-009,-1.16874986e-003
,,,5.67500000e-009,-1.18281236e-003
,,,5.70000000e-009,-1.20156236e-003
,,,5.72500000e-009,-1.21406236e-003
,,,5.75000000e-009,-1.21562486e-003
,,,5.77500000e-009,-1.19999986e-003
,,,5.80000000e-009,-1.16718736e-003
