RawData/CosmicRays/L6_2pt2C_15mV/wave023_Ch3.csv

"Record Length",1000,"Points",-7.72500000e-009,-2.03281242e-003
"Sample Interval",2.50000000e-011,s,-7.70000000e-009,-1.99999992e-003
"Trigger Point",309,"Samples",-7.67500000e-009,-1.98437492e-003
"Trigger Time",5.59894737e-012,s,-7.65000000e-009,-1.98437492e-003
"",,,-7.62500000e-009,-1.99374992e-003
"Horizontal Offset",-7.72500000e-009,s,-7.60000000e-009,-2.00781242e-003
,,,-7.57500000e-009,-2.02031242e-003
,,,-7.55000000e-009,-2.02812492e-003
,,,-7.52500000e-009,-2.02187492e-003
,,,-7.50000000e-009,-1.99999992e-003
,,,-7.47500000e-009,-1.96562492e-003
,,,-7.45000000e-009,-1.91406241e-003
,,,-7.42500000e-009,-1.85312491e-003
,,,-7.40000000e-009,-1.78593740e-003
,,,-7.37500000e-009,-1.72031240e-003
,,,-7.35000000e-009,-1.66406239e-003
,,,-7.32500000e-009,-1.62187489e-003
,,,-7.30000000e-009,-1.59999989e-003
,,,-7.27500000e-009,-1.60312489e-003
,,,-7.25000000e-009,-1.62812489e-003
,,,-7.22500000e-009,-1.67187489e-003
,,,-7.20000000e-009,-1.73124990e-003
,,,-7.17500000e-009,-1.79999990e-003
,,,-7.15000000e-009,-1.87187491e-003
,,,-7.12500000e-009,-1.94062491e-003
,,,-7.10000000e-009,-1.99999992e-003
,,,-7.07500000e-009,-2.04687492e-003
,,,-7.05000000e-009,-2.07656242e-003
,,,-7.02500000e-009,-2.08906242e-003
,,,-7.00000000e-009,-2.08749992e-003
,,,-6.97500000e-009,-2.07499992e-003
,,,-6.95000000e-009,-2.05312492e-003
,,,-6.92500000e-009,-2.02656242e-003
,,,-6.90000000e-009,-1.99999992e-003
,,,-6.87500000e-009,-1.97499992e-003
,,,-6.85000000e-009,-1.95468741e-003
,,,-6.82500000e-009,-1.94218741e-003
,,,-6.80000000e-009,-1.93749991e-003
,,,-6.77500000e-009,-1.94218741e-003
,,,-6.75000000e-009,-1.95468741e-003
,,,-6.72500000e-009,-1.97499992e-003
,,,-6.70000000e-009,-1.99999992e-003
,,,-6.67500000e-009,-2.02499992e-003
,,,-6.65000000e-009,-2.04531242e-003
,,,-6.62500000e-009,-2.06249992e-003
,,,-6.60000000e-009,-2.07187492e-003
,,,-6.57500000e-009,-2.07187492e-003
,,,-6.55000000e-009,-2.06093742e-003
,,,-6.52500000e-009,-2.03593742e-003
,,,-6.50000000e-009,-1.99999992e-003
,,,-6.47500000e-009,-1.95156241e-003
,,,-6.45000000e-009,-1.89374991e-003
,,,-6.42500000e-009,-1.83124991e-003
,,,-6.40000000e-009,-1.77031240e-003
,,,-6.37500000e-009,-1.71249990e-003
,,,-6.35000000e-009,-1.66406239e-003
,,,-6.32500000e-009,-1.62656239e-003
,,,-6.30000000e-009,-1.59999989e-003
,,,-6.27500000e-009,-1.58749989e-003
,,,-6.25000000e-009,-1.58437489e-003
,,,-6.22500000e-009,-1.59062489e-003
,,,-6.20000000e-009,-1.59999989e-003
,,,-6.17500000e-009,-1.61093739e-003
,,,-6.15000000e-009,-1.61718739e-003
,,,-6.12500000e-009,-1.61406239e-003
,,,-6.10000000e-009,-1.59999989e-003
,,,-6.07500000e-009,-1.57187489e-003
,,,-6.05000000e-009,-1.52968738e-003
,,,-6.02500000e-009,-1.47812488e-003
,,,-6.00000000e-009,-1.41874988e-003
,,,-5.97500000e-009,-1.35624987e-003
,,,-5.95000000e-009,-1.29687487e-003
,,,-5.92500000e-009,-1.24374986e-003
,,,-5.90000000e-009,-1.19999986e-003
,,,-5.87500000e-009,-1.17187486e-003
,,,-5.85000000e-009,-1.15468736e-003
,,,-5.82500000e-009,-1.14999986e-003
,,,-5.80000000e-009,-1.15312486e-003
,,,-5.77500000e-009,-1.16249986e-003
,,,-5.75000000e-009,-1.17656236e-003
,,,-5.72500000e-009,-1.18906236e-003
,,,-5.70000000e-009,-1.19999986e-003
,,,-5.67500000e-009,-1.21093736e-003
,,,-5.65000000e-009,-1.21718736e-003
,,,-5.62500000e-009,-1.21718736e-003
,,,-5.60000000e-009,-1.21406236e-003
,,,-5.57500000e-009,-1.20937486e-003
,,,-5.55000000e-009,-1.20468736e-003
,,,-5.52500000e-009,-1.20156236e-003
,,,-5.50000000e-009,-1.19999986e-003
,,,-5.47500000e-009,-1.20468736e-003
,,,-5.45000000e-009,-1.21249986e-003
,,,-5.42500000e-009,-1.21874986e-003
,,,-5.40000000e-009,-1.22499986e-003
,,,-5.37500000e-009,-1.22812486e-003
,,,-5.35000000e-009,-1.22656236e-003
,,,-5.32500000e-009,-1.21718736e-003
,,,-5.30000000e-009,-1.19999986e-003
,,,-5.27500000e-009,-1.17656236e-003
,,,-5.25000000e-009,-1.14218736e-003
,,,-5.22500000e-009,-1.09843735e-003
,,,-5.20000000e-009,-1.04687485e-003
,,,-5.17500000e-009,-9.89062346e-004
,,,-5.15000000e-009,-9.26562342e-004
,,,-5.12500000e-009,-8.62499838e-004
,,,-5.10000000e-009,-7.99999833e-004
,,,-5.07500000e-009,-7.48437329e-004
,,,-5.05000000e-009,-7.07812327e-004
,,,-5.02500000e-009,-6.78124824e-004
,,,-5.00000000e-009,-6.65624824e-004
,,,-4.97500000e-009,-6.71874824e-004
,,,-4.95000000e-009,-6.96874826e-004
,,,-4.92500000e-009,-7.40624829e-004
,,,-4.90000000e-009,-7.99999833e-004
,,,-4.87500000e-009,-8.74999838e-004
,,,-4.85000000e-009,-9.54687344e-004
,,,-4.82500000e-009,-1.03437485e-003
,,,-4.80000000e-009,-1.10468735e-003
,,,-4.77500000e-009,-1.16249986e-003
,,,-4.75000000e-009,-1.19843736e-003
,,,-4.72500000e-009,-1.21249986e-003
,,,-4.70000000e-009,-1.19999986e-003
,,,-4.67500000e-009,-1.16406236e-003
,,,-4.65000000e-009,-1.10781235e-003
,,,-4.62500000e-009,-1.04062485e-003
,,,-4.60000000e-009,-9.68749845e-004
,,,-4.57500000e-009,-9.01562340e-004
,,,-4.55000000e-009,-8.46874836e-004
,,,-4.52500000e-009,-8.10937334e-004
,,,-4.50000000e-009,-7.99999833e-004
,,,-4.47500000e-009,-8.17187334e-004
,,,-4.45000000e-009,-8.57812337e-004
,,,-4.42500000e-009,-9.15624841e-004
,,,-4.40000000e-009,-9.82812346e-004
,,,-4.37500000e-009,-1.05468735e-003
,,,-4.35000000e-009,-1.11874986e-003
,,,-4.32500000e-009,-1.17031236e-003
,,,-4.30000000e-009,-1.19999986e-003
,,,-4.27500000e-009,-1.20312486e-003
,,,-4.25000000e-009,-1.18124986e-003
,,,-4.22500000e-009,-1.13593736e-003
,,,-4.20000000e-009,-1.07499985e-003
,,,-4.17500000e-009,-1.00312485e-003
,,,-4.15000000e-009,-9.28124842e-004
,,,-4.12500000e-009,-8.59374837e-004
,,,-4.10000000e-009,-7.99999833e-004
,,,-4.07500000e-009,-7.57812330e-004
,,,-4.05000000e-009,-7.32812328e-004
,,,-4.02500000e-009,-7.23437328e-004
,,,-4.00000000e-009,-7.29687328e-004
,,,-3.97500000e-009,-7.43749829e-004
,,,-3.95000000e-009,-7.64062331e-004
,,,-3.92500000e-009,-7.84374832e-004
,,,-3.90000000e-009,-7.99999833e-004
,,,-3.87500000e-009,-8.09374834e-004
,,,-3.85000000e-009,-8.10937334e-004
,,,-3.82500000e-009,-8.07812334e-004
,,,-3.80000000e-009,-7.99999833e-004
,,,-3.77500000e-009,-7.93749833e-004
,,,-3.75000000e-009,-7.90624832e-004
,,,-3.72500000e-009,-7.92187333e-004
,,,-3.70000000e-009,-7.99999833e-004
,,,-3.67500000e-009,-8.12499834e-004
,,,-3.65000000e-009,-8.26562335e-004
,,,-3.62500000e-009,-8.40624836e-004
,,,-3.60000000e-009,-8.51562337e-004
,,,-3.57500000e-009,-8.56249837e-004
,,,-3.55000000e-009,-8.51562337e-004
,,,-3.52500000e-009,-8.32812335e-004
,,,-3.50000000e-009,-7.99999833e-004
,,,-3.47500000e-009,-7.51562330e-004
,,,-3.45000000e-009,-6.92187325e-004
,,,-3.42500000e-009,-6.26562321e-004
,,,-3.40000000e-009,-5.59374816e-004
,,,-3.37500000e-009,-4.98437312e-004
,,,-3.35000000e-009,-4.48437308e-004
,,,-3.32500000e-009,-4.14062306e-004
,,,-3.30000000e-009,-3.99999805e-004
,,,-3.27500000e-009,-4.09374805e-004
,,,-3.25000000e-009,-4.39062308e-004
,,,-3.22500000e-009,-4.84374811e-004
,,,-3.20000000e-009,-5.43749815e-004
,,,-3.17500000e-009,-6.10937320e-004
,,,-3.15000000e-009,-6.81249825e-004
,,,-3.12500000e-009,-7.46874829e-004
,,,-3.10000000e-009,-7.99999833e-004
,,,-3.07500000e-009,-8.34374836e-004
,,,-3.05000000e-009,-8.45312336e-004
,,,-3.02500000e-009,-8.31249835e-004
,,,-3.00000000e-009,-7.92187333e-004
,,,-2.97500000e-009,-7.26562328e-004
,,,-2.95000000e-009,-6.37499822e-004
,,,-2.92500000e-009,-5.26562314e-004
,,,-2.90000000e-009,-3.99999805e-004
,,,-2.87500000e-009,-2.68749796e-004
,,,-2.85000000e-009,-1.35937286e-004
,,,-2.82500000e-009,-6.24977692e-006
,,,-2.80000000e-009,1.14062732e-004
,,,-2.77500000e-009,2.17187739e-004
,,,-2.75000000e-009,3.01562745e-004
,,,-2.72500000e-009,3.64062749e-004
,,,-2.70000000e-009,4.00000252e-004
,,,-2.67500000e-009,4.00000252e-004
,,,-2.65000000e-009,3.78125250e-004
,,,-2.62500000e-009,3.35937747e-004
,,,-2.60000000e-009,2.79687743e-004
,,,-2.57500000e-009,2.10937738e-004
,,,-2.55000000e-009,1.37500233e-004
,,,-2.52500000e-009,6.56252282e-005
,,,-2.50000000e-009,2.23517420e-010
,,,-2.47500000e-009,-6.09372808e-005
,,,-2.45000000e-009,-1.06249784e-004
,,,-2.42500000e-009,-1.31249786e-004
,,,-2.40000000e-009,-1.37499786e-004
,,,-2.37500000e-009,-1.24999785e-004
,,,-2.35000000e-009,-9.53122832e-005
,,,-2.32500000e-009,-5.31247802e-005
,,,-2.30000000e-009,2.23517420e-010
,,,-2.27500000e-009,5.15627272e-005
,,,-2.25000000e-009,1.00000231e-004
,,,-2.22500000e-009,1.39062733e-004
,,,-2.20000000e-009,1.59375235e-004
,,,-2.17500000e-009,1.59375235e-004
,,,-2.15000000e-009,1.32812733e-004
,,,-2.12500000e-009,7.96877292e-005
,,,-2.10000000e-009,2.23517420e-010
,,,-2.07500000e-009,-1.06249784e-004
,,,-2.05000000e-009,-2.26562293e-004
,,,-2.02500000e-009,-3.54687302e-004
,,,-2.00000000e-009,-4.79687310e-004
,,,-1.97500000e-009,-5.93749819e-004
,,,-1.95000000e-009,-6.89062325e-004
,,,-1.92500000e-009,-7.59374830e-004
,,,-1.90000000e-009,-7.99999833e-004
,,,-1.87500000e-009,-8.06249834e-004
,,,-1.85000000e-009,-7.84374832e-004
,,,-1.82500000e-009,-7.35937329e-004
,,,-1.80000000e-009,-6.71874824e-004
,,,-1.77500000e-009,-5.98437319e-004
,,,-1.75000000e-009,-5.23437314e-004
,,,-1.72500000e-009,-4.56249809e-004
,,,-1.70000000e-009,-3.99999805e-004
,,,-1.67500000e-009,-3.64062302e-004
,,,-1.65000000e-009,-3.45312301e-004
,,,-1.62500000e-009,-3.45312301e-004
,,,-1.60000000e-009,-3.57812302e-004
,,,-1.57500000e-009,-3.76562303e-004
,,,-1.55000000e-009,-3.93749804e-004
,,,-1.52500000e-009,-4.03124805e-004
,,,-1.50000000e-009,-3.99999805e-004
,,,-1.47500000e-009,-3.93749804e-004
,,,-1.45000000e-009,-3.71874803e-004
,,,-1.42500000e-009,-3.34374800e-004
,,,-1.40000000e-009,-2.82812297e-004
,,,-1.37500000e-009,-2.20312292e-004
,,,-1.35000000e-009,-1.48437287e-004
,,,-1.32500000e-009,-7.34372817e-005
,,,-1.30000000e-009,2.23517420e-010
,,,-1.27500000e-009,3.12502257e-005
,,,-1.25000000e-009,4.68752268e-005
,,,-1.22500000e-009,5.00002271e-005
,,,-1.20000000e-009,4.37502266e-005
,,,-1.17500000e-009,3.12502257e-005
,,,-1.15000000e-009,1.71877247e-005
,,,-1.12500000e-009,6.25022396e-006
,,,-1.10000000e-009,2.23517420e-010
,,,-1.07500000e-009,-6.40622810e-005
,,,-1.05000000e-009,-1.31249786e-004
,,,-1.02500000e-009,-1.98437291e-004
,,,-1.00000000e-009,-2.59374795e-004
,,,-9.75000000e-010,-3.12499799e-004
,,,-9.50000000e-010,-3.53124801e-004
,,,-9.25000000e-010,-3.81249803e-004
,,,-9.00000000e-010,-3.99999805e-004
,,,-8.75000000e-010,-4.99999812e-004
,,,-8.50000000e-010,-6.06249819e-004
,,,-8.25000000e-010,-7.17187327e-004
,,,-8.00000000e-010,-8.26562335e-004
,,,-7.75000000e-010,-9.31249842e-004
,,,-7.50000000e-010,-1.02656235e-003
,,,-7.25000000e-010,-1.11562486e-003
,,,-7.00000000e-010,-1.19999986e-003
,,,-6.75000000e-010,-1.38593737e-003
,,,-6.50000000e-010,-1.59531239e-003
,,,-6.25000000e-010,-1.82343741e-003
,,,-6.00000000e-010,-2.07031242e-003
,,,-5.75000000e-010,-2.33124994e-003
,,,-5.50000000e-010,-2.60624996e-003
,,,-5.25000000e-010,-2.89531248e-003
,,,-5.00000000e-010,-3.20000000e-003
,,,-4.75000000e-010,-3.61562503e-003
,,,-4.50000000e-010,-4.06718756e-003
,,,-4.25000000e-010,-4.55000010e-003
,,,-4.00000000e-010,-5.05625013e-003
,,,-3.75000000e-010,-5.57968767e-003
,,,-3.50000000e-010,-6.11406271e-003
,,,-3.25000000e-010,-6.65468775e-003
,,,-3.00000000e-010,-7.20000029e-003
,,,-2.75000000e-010,-7.80000033e-003
,,,-2.50000000e-010,-8.42031287e-003
,,,-2.25000000e-010,-9.05625042e-003
,,,-2.00000000e-010,-9.70781296e-003
,,,-1.75000000e-010,-1.03718755e-002
,,,-1.50000000e-010,-1.10421881e-002
,,,-1.25000000e-010,-1.17187506e-002
,,,-1.00000000e-010,-1.24000007e-002
,,,-7.50000000e-011,-1.30781257e-002
,,,-5.00000000e-011,-1.37703133e-002
,,,-2.50000000e-011,-1.44750008e-002
,,,0.00000000e+000,-1.51875009e-002
,,,2.50000000e-011,-1.59031259e-002
,,,5.00000000e-011,-1.66156260e-002
,,,7.50000000e-011,-1.73171885e-002
,,,1.00000000e-010,-1.80000011e-002
,,,1.25000000e-010,-1.85953136e-002
,,,1.50000000e-010,-1.91781261e-002
,,,1.75000000e-010,-1.97515637e-002
,,,2.00000000e-010,-2.03156262e-002
,,,2.25000000e-010,-2.08671888e-002
,,,2.50000000e-010,-2.14015638e-002
,,,2.75000000e-010,-2.19156263e-002
,,,3.00000000e-010,-2.24000014e-002
,,,3.25000000e-010,-2.27312514e-002
,,,3.50000000e-010,-2.30406264e-002
,,,3.75000000e-010,-2.33296889e-002
,,,4.00000000e-010,-2.35984389e-002
,,,4.25000000e-010,-2.38453140e-002
,,,4.50000000e-010,-2.40656265e-002
,,,4.75000000e-010,-2.42531265e-002
,,,5.00000000e-010,-2.44000015e-002
,,,5.25000000e-010,-2.43578140e-002
,,,5.50000000e-010,-2.42875015e-002
,,,5.75000000e-010,-2.41968765e-002
,,,6.00000000e-010,-2.40921890e-002
,,,6.25000000e-010,-2.39796890e-002
,,,6.50000000e-010,-2.38609390e-002
,,,6.75000000e-010,-2.37343765e-002
,,,7.00000000e-010,-2.36000014e-002
,,,7.25000000e-010,-2.33218764e-002
,,,7.50000000e-010,-2.30453139e-002
,,,7.75000000e-010,-2.27765639e-002
,,,8.00000000e-010,-2.25203139e-002
,,,8.25000000e-010,-2.22781264e-002
,,,8.50000000e-010,-2.20484388e-002
,,,8.75000000e-010,-2.18234388e-002
,,,9.00000000e-010,-2.16000013e-002
,,,9.25000000e-010,-2.12656263e-002
,,,9.50000000e-010,-2.09234388e-002
,,,9.75000000e-010,-2.05796887e-002
,,,1.00000000e-009,-2.02312512e-002
,,,1.02500000e-009,-1.98812512e-002
,,,1.05000000e-009,-1.95296887e-002
,,,1.07500000e-009,-1.91703136e-002
,,,1.10000000e-009,-1.88000011e-002
,,,1.12500000e-009,-1.83515636e-002
,,,1.15000000e-009,-1.78812510e-002
,,,1.17500000e-009,-1.73937510e-002
,,,1.20000000e-009,-1.68906260e-002
,,,1.22500000e-009,-1.63765634e-002
,,,1.25000000e-009,-1.58546884e-002
,,,1.27500000e-009,-1.53281259e-002
,,,1.30000000e-009,-1.48000008e-002
,,,1.32500000e-009,-1.42562508e-002
,,,1.35000000e-009,-1.37078132e-002
,,,1.37500000e-009,-1.31640632e-002
,,,1.40000000e-009,-1.26343757e-002
,,,1.42500000e-009,-1.21250006e-002
,,,1.45000000e-009,-1.16468756e-002
,,,1.47500000e-009,-1.12046881e-002
,,,1.50000000e-009,-1.08000005e-002
,,,1.52500000e-009,-1.04593755e-002
,,,1.55000000e-009,-1.01359380e-002
,,,1.57500000e-009,-9.82812547e-003
,,,1.60000000e-009,-9.53125045e-003
,,,1.62500000e-009,-9.24062543e-003
,,,1.65000000e-009,-8.95625041e-003
,,,1.67500000e-009,-8.67656289e-003
,,,1.70000000e-009,-8.40000037e-003
,,,1.72500000e-009,-8.16093785e-003
,,,1.75000000e-009,-7.90625034e-003
,,,1.77500000e-009,-7.64062532e-003
,,,1.80000000e-009,-7.36875030e-003
,,,1.82500000e-009,-7.10000028e-003
,,,1.85000000e-009,-6.84375026e-003
,,,1.87500000e-009,-6.60937524e-003
,,,1.90000000e-009,-6.40000023e-003
,,,1.92500000e-009,-6.26093772e-003
,,,1.95000000e-009,-6.12500021e-003
,,,1.97500000e-009,-5.99062520e-003
,,,2.00000000e-009,-5.85156269e-003
,,,2.02500000e-009,-5.70468768e-003
,,,2.05000000e-009,-5.54687517e-003
,,,2.07500000e-009,-5.37812516e-003
,,,2.10000000e-009,-5.20000014e-003
,,,2.12500000e-009,-5.05312513e-003
,,,2.15000000e-009,-4.88593762e-003
,,,2.17500000e-009,-4.70625011e-003
,,,2.20000000e-009,-4.52500010e-003
,,,2.22500000e-009,-4.35156258e-003
,,,2.25000000e-009,-4.20000007e-003
,,,2.27500000e-009,-4.08125007e-003
,,,2.30000000e-009,-4.00000006e-003
,,,2.32500000e-009,-3.99062506e-003
,,,2.35000000e-009,-4.00000006e-003
,,,2.37500000e-009,-4.02343756e-003
,,,2.40000000e-009,-4.04843756e-003
,,,2.42500000e-009,-4.06718756e-003
,,,2.45000000e-009,-4.07031256e-003
,,,2.47500000e-009,-4.05000006e-003
,,,2.50000000e-009,-4.00000006e-003
,,,2.52500000e-009,-3.93125005e-003
,,,2.55000000e-009,-3.82343755e-003
,,,2.57500000e-009,-3.67812504e-003
,,,2.60000000e-009,-3.50625002e-003
,,,2.62500000e-009,-3.32187501e-003
,,,2.65000000e-009,-3.13437500e-003
,,,2.67500000e-009,-2.95624999e-003
,,,2.70000000e-009,-2.79999997e-003
,,,2.72500000e-009,-2.68437497e-003
,,,2.75000000e-009,-2.59374996e-003
,,,2.77500000e-009,-2.52499996e-003
,,,2.80000000e-009,-2.47812495e-003
,,,2.82500000e-009,-2.44687495e-003
,,,2.85000000e-009,-2.42812495e-003
,,,2.87500000e-009,-2.41406245e-003
,,,2.90000000e-009,-2.39999995e-003
,,,2.92500000e-009,-2.39062495e-003
,,,2.95000000e-009,-2.36718744e-003
,,,2.97500000e-009,-2.32968744e-003
,,,3.00000000e-009,-2.27812494e-003
,,,3.02500000e-009,-2.21562493e-003
,,,3.05000000e-009,-2.14531243e-003
,,,3.07500000e-009,-2.07187492e-003
,,,3.10000000e-009,-1.99999992e-003
,,,3.12500000e-009,-1.93906241e-003
,,,3.15000000e-009,-1.87812491e-003
,,,3.17500000e-009,-1.82187491e-003
,,,3.20000000e-009,-1.76874990e-003
,,,3.22500000e-009,-1.72031240e-003
,,,3.25000000e-009,-1.67656240e-003
,,,3.27500000e-009,-1.63749989e-003
,,,3.30000000e-009,-1.59999989e-003
,,,3.32500000e-009,-1.56718739e-003
,,,3.35000000e-009,-1.52968738e-003
,,,3.37500000e-009,-1.48593738e-003
,,,3.40000000e-009,-1.43906238e-003
,,,3.42500000e-009,-1.38437487e-003
,,,3.45000000e-009,-1.32656237e-003
,,,3.47500000e-009,-1.26406237e-003
,,,3.50000000e-009,-1.19999986e-003
,,,3.52500000e-009,-1.14218736e-003
,,,3.55000000e-009,-1.07968735e-003
,,,3.57500000e-009,-1.01874985e-003
,,,3.60000000e-009,-9.59374844e-004
,,,3.62500000e-009,-9.06249841e-004
,,,3.65000000e-009,-8.60937337e-004
,,,3.67500000e-009,-8.24999835e-004
,,,3.70000000e-009,-7.99999833e-004
,,,3.72500000e-009,-7.89062332e-004
,,,3.75000000e-009,-7.85937332e-004
,,,3.77500000e-009,-7.87499832e-004
,,,3.80000000e-009,-7.92187333e-004
,,,3.82500000e-009,-7.98437333e-004
,,,3.85000000e-009,-8.03124833e-004
,,,3.87500000e-009,-8.04687333e-004
,,,3.90000000e-009,-7.99999833e-004
,,,3.92500000e-009,-7.89062332e-004
,,,3.95000000e-009,-7.65624831e-004
,,,3.97500000e-009,-7.28124828e-004
,,,4.00000000e-009,-6.79687325e-004
,,,4.02500000e-009,-6.20312320e-004
,,,4.05000000e-009,-5.51562316e-004
,,,4.07500000e-009,-4.78124810e-004
,,,4.10000000e-009,-3.99999805e-004
,,,4.12500000e-009,-3.26562300e-004
,,,4.15000000e-009,-2.54687295e-004
,,,4.17500000e-009,-1.87499790e-004
,,,4.20000000e-009,-1.26562285e-004
,,,4.22500000e-009,-7.81247820e-005
,,,4.25000000e-009,-3.90622792e-005
,,,4.27500000e-009,-1.40622775e-005
,,,4.30000000e-009,2.23517420e-010
,,,4.32500000e-009,-3.12477670e-006
,,,4.35000000e-009,-1.09372773e-005
,,,4.37500000e-009,-2.18747780e-005
,,,4.40000000e-009,-3.12497787e-005
,,,4.42500000e-009,-3.74997791e-005
,,,4.45000000e-009,-3.43747789e-005
,,,4.47500000e-009,-2.34372781e-005
,,,4.50000000e-009,2.23517420e-010
,,,4.52500000e-009,2.81252255e-005
,,,4.55000000e-009,6.87502284e-005
,,,4.57500000e-009,1.20312732e-004
,,,4.60000000e-009,1.76562736e-004
,,,4.62500000e-009,2.37500240e-004
,,,4.65000000e-009,2.96875245e-004
,,,4.67500000e-009,3.51562748e-004
,,,4.70000000e-009,4.00000252e-004
,,,4.72500000e-009,4.29687754e-004
,,,4.75000000e-009,4.48437755e-004
,,,4.77500000e-009,4.57812756e-004
,,,4.80000000e-009,4.57812756e-004
,,,4.82500000e-009,4.48437755e-004
,,,4.85000000e-009,4.34375254e-004
,,,4.87500000e-009,4.17187753e-004
,,,4.90000000e-009,4.00000252e-004
,,,4.92500000e-009,3.76562750e-004
,,,4.95000000e-009,3.57812749e-004
,,,4.97500000e-009,3.46875248e-004
,,,5.00000000e-009,3.43750248e-004
,,,5.02500000e-009,3.48437748e-004
,,,5.05000000e-009,3.60937749e-004
,,,5.07500000e-009,3.78125250e-004
,,,5.10000000e-009,4.00000252e-004
,,,5.12500000e-009,4.15625253e-004
,,,5.15000000e-009,4.29687754e-004
,,,5.17500000e-009,4.42187755e-004
,,,5.20000000e-009,4.48437755e-004
,,,5.22500000e-009,4.48437755e-004
,,,5.25000000e-009,4.42187755e-004
,,,5.27500000e-009,4.25000254e-004
,,,5.30000000e-009,4.00000252e-004
,,,5.32500000e-009,3.59375249e-004
,,,5.35000000e-009,3.10937746e-004
,,,5.37500000e-009,2.57812742e-004
,,,5.40000000e-009,2.01562738e-004
,,,5.42500000e-009,1.43750234e-004
,,,5.45000000e-009,9.06252299e-005
,,,5.47500000e-009,4.06252264e-005
,,,5.50000000e-009,2.23517420e-010
,,,5.52500000e-009,-3.74997791e-005
,,,5.55000000e-009,-6.24997809e-005
,,,5.57500000e-009,-7.65622819e-005
,,,5.60000000e-009,-7.96872821e-005
,,,5.62500000e-009,-7.18747816e-005
,,,5.65000000e-009,-5.46872804e-005
,,,5.67500000e-009,-2.96872786e-005
,,,5.70000000e-009,2.23517420e-010
,,,5.72500000e-009,3.12502257e-005
,,,5.75000000e-009,5.93752277e-005
,,,5.77500000e-009,8.12502293e-005
,,,5.80000000e-009,9.37502302e-005
,,,5.82500000e-009,9.21877300e-005
,,,5.85000000e-009,7.65627289e-005
