RawData/CosmicRays/L6_2pt2C_15mV/wave002_Ch3.csv

"Record Length",1000,"Points",-7.72500000e-009,-8.45312336e-004
"Sample Interval",2.50000000e-011,s,-7.70000000e-009,-8.39062336e-004
"Trigger Point",309,"Samples",-7.67500000e-009,-8.23437335e-004
"Trigger Time",7.54994555e-012,s,-7.65000000e-009,-7.99999833e-004
"",,,-7.62500000e-009,-7.70312331e-004
"Horizontal Offset",-7.72500000e-009,s,-7.60000000e-009,-7.32812328e-004
,,,-7.57500000e-009,-6.89062325e-004
,,,-7.55000000e-009,-6.40624822e-004
,,,-7.52500000e-009,-5.85937318e-004
,,,-7.50000000e-009,-5.26562314e-004
,,,-7.47500000e-009,-4.64062309e-004
,,,-7.45000000e-009,-3.99999805e-004
,,,-7.42500000e-009,-3.34374800e-004
,,,-7.40000000e-009,-2.71874796e-004
,,,-7.37500000e-009,-2.10937291e-004
,,,-7.35000000e-009,-1.54687287e-004
,,,-7.32500000e-009,-1.04687284e-004
,,,-7.30000000e-009,-6.24997809e-005
,,,-7.27500000e-009,-2.81247785e-005
,,,-7.25000000e-009,2.23517420e-010
,,,-7.22500000e-009,1.56252246e-005
,,,-7.20000000e-009,2.50002253e-005
,,,-7.17500000e-009,2.96877256e-005
,,,-7.15000000e-009,2.96877256e-005
,,,-7.12500000e-009,2.65627254e-005
,,,-7.10000000e-009,2.03127250e-005
,,,-7.07500000e-009,1.09377243e-005
,,,-7.05000000e-009,2.23517420e-010
,,,-7.02500000e-009,-2.34372781e-005
,,,-7.00000000e-009,-4.99997800e-005
,,,-6.97500000e-009,-8.43747825e-005
,,,-6.95000000e-009,-1.26562285e-004
,,,-6.92500000e-009,-1.79687289e-004
,,,-6.90000000e-009,-2.43749794e-004
,,,-6.87500000e-009,-3.17187299e-004
,,,-6.85000000e-009,-3.99999805e-004
,,,-6.82500000e-009,-4.89062311e-004
,,,-6.80000000e-009,-5.74999817e-004
,,,-6.77500000e-009,-6.56249823e-004
,,,-6.75000000e-009,-7.26562328e-004
,,,-6.72500000e-009,-7.81249832e-004
,,,-6.70000000e-009,-8.12499834e-004
,,,-6.67500000e-009,-8.20312335e-004
,,,-6.65000000e-009,-7.99999833e-004
,,,-6.62500000e-009,-7.53124830e-004
,,,-6.60000000e-009,-6.81249825e-004
,,,-6.57500000e-009,-5.87499818e-004
,,,-6.55000000e-009,-4.78124810e-004
,,,-6.52500000e-009,-3.56249802e-004
,,,-6.50000000e-009,-2.32812293e-004
,,,-6.47500000e-009,-1.10937284e-004
,,,-6.45000000e-009,2.23517420e-010
,,,-6.42500000e-009,8.90627298e-005
,,,-6.40000000e-009,1.54687734e-004
,,,-6.37500000e-009,1.93750237e-004
,,,-6.35000000e-009,2.06250238e-004
,,,-6.32500000e-009,1.89062737e-004
,,,-6.30000000e-009,1.46875234e-004
,,,-6.27500000e-009,8.12502293e-005
,,,-6.25000000e-009,2.23517420e-010
,,,-6.22500000e-009,-9.53122832e-005
,,,-6.20000000e-009,-1.90624790e-004
,,,-6.17500000e-009,-2.79687296e-004
,,,-6.15000000e-009,-3.54687302e-004
,,,-6.12500000e-009,-4.07812305e-004
,,,-6.10000000e-009,-4.34374807e-004
,,,-6.07500000e-009,-4.32812307e-004
,,,-6.05000000e-009,-3.99999805e-004
,,,-6.02500000e-009,-3.46874801e-004
,,,-6.00000000e-009,-2.76562296e-004
,,,-5.97500000e-009,-1.96874790e-004
,,,-5.95000000e-009,-1.18749785e-004
,,,-5.92500000e-009,-5.15622801e-005
,,,-5.90000000e-009,-6.24977692e-006
,,,-5.87500000e-009,1.25002244e-005
,,,-5.85000000e-009,2.23517420e-010
,,,-5.82500000e-009,-5.31247802e-005
,,,-5.80000000e-009,-1.35937286e-004
,,,-5.77500000e-009,-2.43749794e-004
,,,-5.75000000e-009,-3.67187302e-004
,,,-5.72500000e-009,-4.93749811e-004
,,,-5.70000000e-009,-6.15624820e-004
,,,-5.67500000e-009,-7.20312327e-004
,,,-5.65000000e-009,-7.99999833e-004
,,,-5.62500000e-009,-8.45312336e-004
,,,-5.60000000e-009,-8.53124837e-004
,,,-5.57500000e-009,-8.28124835e-004
,,,-5.55000000e-009,-7.71874831e-004
,,,-5.52500000e-009,-6.92187325e-004
,,,-5.50000000e-009,-5.98437319e-004
,,,-5.47500000e-009,-4.98437312e-004
,,,-5.45000000e-009,-3.99999805e-004
,,,-5.42500000e-009,-3.15624799e-004
,,,-5.40000000e-009,-2.53124794e-004
,,,-5.37500000e-009,-2.12499792e-004
,,,-5.35000000e-009,-1.99999791e-004
,,,-5.32500000e-009,-2.15624792e-004
,,,-5.30000000e-009,-2.54687295e-004
,,,-5.27500000e-009,-3.18749799e-004
,,,-5.25000000e-009,-3.99999805e-004
,,,-5.22500000e-009,-4.96874812e-004
,,,-5.20000000e-009,-6.01562319e-004
,,,-5.17500000e-009,-7.12499827e-004
,,,-5.15000000e-009,-8.24999835e-004
,,,-5.12500000e-009,-9.32812343e-004
,,,-5.10000000e-009,-1.03593735e-003
,,,-5.07500000e-009,-1.12656236e-003
,,,-5.05000000e-009,-1.19999986e-003
,,,-5.02500000e-009,-1.24687486e-003
,,,-5.00000000e-009,-1.26874987e-003
,,,-4.97500000e-009,-1.26249987e-003
,,,-4.95000000e-009,-1.22656236e-003
,,,-4.92500000e-009,-1.16093736e-003
,,,-4.90000000e-009,-1.06562485e-003
,,,-4.87500000e-009,-9.43749843e-004
,,,-4.85000000e-009,-7.99999833e-004
,,,-4.82500000e-009,-6.40624822e-004
,,,-4.80000000e-009,-4.78124810e-004
,,,-4.77500000e-009,-3.26562300e-004
,,,-4.75000000e-009,-1.92187290e-004
,,,-4.72500000e-009,-8.59372826e-005
,,,-4.70000000e-009,-1.71872777e-005
,,,-4.67500000e-009,1.25002244e-005
,,,-4.65000000e-009,2.23517420e-010
,,,-4.62500000e-009,-5.93747807e-005
,,,-4.60000000e-009,-1.51562287e-004
,,,-4.57500000e-009,-2.65624795e-004
,,,-4.55000000e-009,-3.93749804e-004
,,,-4.52500000e-009,-5.21874813e-004
,,,-4.50000000e-009,-6.39062322e-004
,,,-4.47500000e-009,-7.34374828e-004
,,,-4.45000000e-009,-7.99999833e-004
,,,-4.42500000e-009,-8.29687335e-004
,,,-4.40000000e-009,-8.21874835e-004
,,,-4.37500000e-009,-7.84374832e-004
,,,-4.35000000e-009,-7.21874828e-004
,,,-4.32500000e-009,-6.43749822e-004
,,,-4.30000000e-009,-5.57812316e-004
,,,-4.27500000e-009,-4.74999810e-004
,,,-4.25000000e-009,-3.99999805e-004
,,,-4.22500000e-009,-3.42187301e-004
,,,-4.20000000e-009,-3.03124798e-004
,,,-4.17500000e-009,-2.85937297e-004
,,,-4.15000000e-009,-2.87499797e-004
,,,-4.12500000e-009,-3.04687298e-004
,,,-4.10000000e-009,-3.32812300e-004
,,,-4.07500000e-009,-3.67187302e-004
,,,-4.05000000e-009,-3.99999805e-004
,,,-4.02500000e-009,-4.31249807e-004
,,,-4.00000000e-009,-4.53124809e-004
,,,-3.97500000e-009,-4.64062309e-004
,,,-3.95000000e-009,-4.64062309e-004
,,,-3.92500000e-009,-4.54687309e-004
,,,-3.90000000e-009,-4.40624808e-004
,,,-3.87500000e-009,-4.20312306e-004
,,,-3.85000000e-009,-3.99999805e-004
,,,-3.82500000e-009,-3.82812304e-004
,,,-3.80000000e-009,-3.67187302e-004
,,,-3.77500000e-009,-3.57812302e-004
,,,-3.75000000e-009,-3.54687302e-004
,,,-3.72500000e-009,-3.57812302e-004
,,,-3.70000000e-009,-3.67187302e-004
,,,-3.67500000e-009,-3.82812304e-004
,,,-3.65000000e-009,-3.99999805e-004
,,,-3.62500000e-009,-4.18749806e-004
,,,-3.60000000e-009,-4.37499807e-004
,,,-3.57500000e-009,-4.53124809e-004
,,,-3.55000000e-009,-4.62499809e-004
,,,-3.52500000e-009,-4.62499809e-004
,,,-3.50000000e-009,-4.54687309e-004
,,,-3.47500000e-009,-4.32812307e-004
,,,-3.45000000e-009,-3.99999805e-004
,,,-3.42500000e-009,-3.59374802e-004
,,,-3.40000000e-009,-3.07812298e-004
,,,-3.37500000e-009,-2.51562294e-004
,,,-3.35000000e-009,-1.92187290e-004
,,,-3.32500000e-009,-1.34374786e-004
,,,-3.30000000e-009,-8.12497822e-005
,,,-3.27500000e-009,-3.59372790e-005
,,,-3.25000000e-009,2.23517420e-010
,,,-3.22500000e-009,1.71877247e-005
,,,-3.20000000e-009,2.50002253e-005
,,,-3.17500000e-009,2.34377252e-005
,,,-3.15000000e-009,1.56252246e-005
,,,-3.12500000e-009,7.81272407e-006
,,,-3.10000000e-009,2.23517420e-010
,,,-3.07500000e-009,-3.12477670e-006
,,,-3.05000000e-009,2.23517420e-010
,,,-3.02500000e-009,3.12522374e-006
,,,-3.00000000e-009,1.09377243e-005
,,,-2.97500000e-009,2.18752251e-005
,,,-2.95000000e-009,3.12502257e-005
,,,-2.92500000e-009,3.75002262e-005
,,,-2.90000000e-009,3.59377261e-005
,,,-2.87500000e-009,2.34377252e-005
,,,-2.85000000e-009,2.23517420e-010
,,,-2.82500000e-009,-4.21872795e-005
,,,-2.80000000e-009,-9.53122832e-005
,,,-2.77500000e-009,-1.54687287e-004
,,,-2.75000000e-009,-2.15624792e-004
,,,-2.72500000e-009,-2.76562296e-004
,,,-2.70000000e-009,-3.29687300e-004
,,,-2.67500000e-009,-3.71874803e-004
,,,-2.65000000e-009,-3.99999805e-004
,,,-2.62500000e-009,-4.15624806e-004
,,,-2.60000000e-009,-4.18749806e-004
,,,-2.57500000e-009,-4.12499806e-004
,,,-2.55000000e-009,-3.99999805e-004
,,,-2.52500000e-009,-3.89062304e-004
,,,-2.50000000e-009,-3.82812304e-004
,,,-2.47500000e-009,-3.85937304e-004
,,,-2.45000000e-009,-3.99999805e-004
,,,-2.42500000e-009,-4.29687307e-004
,,,-2.40000000e-009,-4.71874810e-004
,,,-2.37500000e-009,-5.24999814e-004
,,,-2.35000000e-009,-5.85937318e-004
,,,-2.32500000e-009,-6.46874822e-004
,,,-2.30000000e-009,-7.06249826e-004
,,,-2.27500000e-009,-7.59374830e-004
,,,-2.25000000e-009,-7.99999833e-004
,,,-2.22500000e-009,-8.24999835e-004
,,,-2.20000000e-009,-8.37499836e-004
,,,-2.17500000e-009,-8.39062336e-004
,,,-2.15000000e-009,-8.32812335e-004
,,,-2.12500000e-009,-8.23437335e-004
,,,-2.10000000e-009,-8.12499834e-004
,,,-2.07500000e-009,-8.04687333e-004
,,,-2.05000000e-009,-7.99999833e-004
,,,-2.02500000e-009,-7.96874833e-004
,,,-2.00000000e-009,-7.96874833e-004
,,,-1.97500000e-009,-8.03124833e-004
,,,-1.95000000e-009,-8.10937334e-004
,,,-1.92500000e-009,-8.17187334e-004
,,,-1.90000000e-009,-8.20312335e-004
,,,-1.87500000e-009,-8.15624834e-004
,,,-1.85000000e-009,-7.99999833e-004
,,,-1.82500000e-009,-7.70312331e-004
,,,-1.80000000e-009,-7.29687328e-004
,,,-1.77500000e-009,-6.79687325e-004
,,,-1.75000000e-009,-6.24999821e-004
,,,-1.72500000e-009,-5.65624817e-004
,,,-1.70000000e-009,-5.06249812e-004
,,,-1.67500000e-009,-4.49999808e-004
,,,-1.65000000e-009,-3.99999805e-004
,,,-1.62500000e-009,-3.65624802e-004
,,,-1.60000000e-009,-3.43749801e-004
,,,-1.57500000e-009,-3.32812300e-004
,,,-1.55000000e-009,-3.34374800e-004
,,,-1.52500000e-009,-3.43749801e-004
,,,-1.50000000e-009,-3.59374802e-004
,,,-1.47500000e-009,-3.79687303e-004
,,,-1.45000000e-009,-3.99999805e-004
,,,-1.42500000e-009,-4.31249807e-004
,,,-1.40000000e-009,-4.59374809e-004
,,,-1.37500000e-009,-4.79687310e-004
,,,-1.35000000e-009,-4.92187311e-004
,,,-1.32500000e-009,-4.90624811e-004
,,,-1.30000000e-009,-4.74999810e-004
,,,-1.27500000e-009,-4.45312308e-004
,,,-1.25000000e-009,-3.99999805e-004
,,,-1.22500000e-009,-3.78124803e-004
,,,-1.20000000e-009,-3.48437301e-004
,,,-1.17500000e-009,-3.12499799e-004
,,,-1.15000000e-009,-2.65624795e-004
,,,-1.12500000e-009,-2.10937291e-004
,,,-1.10000000e-009,-1.45312287e-004
,,,-1.07500000e-009,-7.34372817e-005
,,,-1.05000000e-009,2.23517420e-010
,,,-1.02500000e-009,2.23517420e-010
,,,-1.00000000e-009,-1.87497778e-005
,,,-9.75000000e-010,-5.31247802e-005
,,,-9.50000000e-010,-1.04687284e-004
,,,-9.25000000e-010,-1.65624788e-004
,,,-9.00000000e-010,-2.37499793e-004
,,,-8.75000000e-010,-3.15624799e-004
,,,-8.50000000e-010,-3.99999805e-004
,,,-8.25000000e-010,-5.90624818e-004
,,,-8.00000000e-010,-7.93749833e-004
,,,-7.75000000e-010,-9.98437347e-004
,,,-7.50000000e-010,-1.18749986e-003
,,,-7.25000000e-010,-1.34999987e-003
,,,-7.00000000e-010,-1.47499988e-003
,,,-6.75000000e-010,-1.55781239e-003
,,,-6.50000000e-010,-1.59999989e-003
,,,-6.25000000e-010,-1.73749990e-003
,,,-6.00000000e-010,-1.87187491e-003
,,,-5.75000000e-010,-2.00468742e-003
,,,-5.50000000e-010,-2.13906243e-003
,,,-5.25000000e-010,-2.27968744e-003
,,,-5.00000000e-010,-2.42968745e-003
,,,-4.75000000e-010,-2.59999996e-003
,,,-4.50000000e-010,-2.79999997e-003
,,,-4.25000000e-010,-3.17187500e-003
,,,-4.00000000e-010,-3.61093753e-003
,,,-3.75000000e-010,-4.11250007e-003
,,,-3.50000000e-010,-4.66718761e-003
,,,-3.25000000e-010,-5.26250015e-003
,,,-3.00000000e-010,-5.88906269e-003
,,,-2.75000000e-010,-6.53750024e-003
,,,-2.50000000e-010,-7.20000029e-003
,,,-2.25000000e-010,-7.95781284e-003
,,,-2.00000000e-010,-8.73750039e-003
,,,-1.75000000e-010,-9.53593795e-003
,,,-1.50000000e-010,-1.03421880e-002
,,,-1.25000000e-010,-1.11546881e-002
,,,-1.00000000e-010,-1.19687506e-002
,,,-7.50000000e-011,-1.27828132e-002
,,,-5.00000000e-011,-1.36000007e-002
,,,-2.50000000e-011,-1.44328133e-002
,,,0.00000000e+000,-1.52937509e-002
,,,2.50000000e-011,-1.61906259e-002
,,,5.00000000e-011,-1.71234385e-002
,,,7.50000000e-011,-1.80953136e-002
,,,1.00000000e-010,-1.91031261e-002
,,,1.25000000e-010,-2.01406262e-002
,,,1.50000000e-010,-2.12000013e-002
,,,1.75000000e-010,-2.21843763e-002
,,,2.00000000e-010,-2.31812514e-002
,,,2.25000000e-010,-2.41828140e-002
,,,2.50000000e-010,-2.51796891e-002
,,,2.75000000e-010,-2.61546891e-002
,,,3.00000000e-010,-2.70953142e-002
,,,3.25000000e-010,-2.79812518e-002
,,,3.50000000e-010,-2.88000018e-002
,,,3.75000000e-010,-2.93609394e-002
,,,4.00000000e-010,-2.98453144e-002
,,,4.25000000e-010,-3.02656269e-002
,,,4.50000000e-010,-3.06296894e-002
,,,4.75000000e-010,-3.09421895e-002
,,,5.00000000e-010,-3.12062520e-002
,,,5.25000000e-010,-3.14265645e-002
,,,5.50000000e-010,-3.16000020e-002
,,,5.75000000e-010,-3.15093770e-002
,,,6.00000000e-010,-3.13921895e-002
,,,6.25000000e-010,-3.12578145e-002
,,,6.50000000e-010,-3.11156270e-002
,,,6.75000000e-010,-3.09625020e-002
,,,7.00000000e-010,-3.07984395e-002
,,,7.25000000e-010,-3.06140644e-002
,,,7.50000000e-010,-3.04000019e-002
,,,7.75000000e-010,-2.99484394e-002
,,,8.00000000e-010,-2.94765644e-002
,,,8.25000000e-010,-2.89843768e-002
,,,8.50000000e-010,-2.84828143e-002
,,,8.75000000e-010,-2.79750018e-002
,,,9.00000000e-010,-2.74593767e-002
,,,9.25000000e-010,-2.69359392e-002
,,,9.50000000e-010,-2.64000016e-002
,,,9.75000000e-010,-2.57031266e-002
,,,1.00000000e-009,-2.49984390e-002
,,,1.02500000e-009,-2.42906265e-002
,,,1.05000000e-009,-2.35859389e-002
,,,1.07500000e-009,-2.28843764e-002
,,,1.10000000e-009,-2.21875013e-002
,,,1.12500000e-009,-2.14937513e-002
,,,1.15000000e-009,-2.08000012e-002
,,,1.17500000e-009,-2.00343762e-002
,,,1.20000000e-009,-1.92640636e-002
,,,1.22500000e-009,-1.84921886e-002
,,,1.25000000e-009,-1.77250010e-002
,,,1.27500000e-009,-1.69671885e-002
,,,1.30000000e-009,-1.62250009e-002
,,,1.32500000e-009,-1.55015634e-002
,,,1.35000000e-009,-1.48000008e-002
,,,1.37500000e-009,-1.41328133e-002
,,,1.40000000e-009,-1.34750007e-002
,,,1.42500000e-009,-1.28312507e-002
,,,1.45000000e-009,-1.22046881e-002
,,,1.47500000e-009,-1.16031256e-002
,,,1.50000000e-009,-1.10328131e-002
,,,1.52500000e-009,-1.04968755e-002
,,,1.55000000e-009,-1.00000005e-002
,,,1.57500000e-009,-9.60468796e-003
,,,1.60000000e-009,-9.22187543e-003
,,,1.62500000e-009,-8.85000040e-003
,,,1.65000000e-009,-8.48906288e-003
,,,1.67500000e-009,-8.14062535e-003
,,,1.70000000e-009,-7.80781283e-003
,,,1.72500000e-009,-7.49375031e-003
,,,1.75000000e-009,-7.20000029e-003
,,,1.77500000e-009,-7.00468777e-003
,,,1.80000000e-009,-6.80312526e-003
,,,1.82500000e-009,-6.59375024e-003
,,,1.85000000e-009,-6.38125023e-003
,,,1.87500000e-009,-6.16875021e-003
,,,1.90000000e-009,-5.96406270e-003
,,,1.92500000e-009,-5.77187519e-003
,,,1.95000000e-009,-5.60000017e-003
,,,1.97500000e-009,-5.51875017e-003
,,,2.00000000e-009,-5.43281266e-003
,,,2.02500000e-009,-5.33906265e-003
,,,2.05000000e-009,-5.23593765e-003
,,,2.07500000e-009,-5.12812514e-003
,,,2.10000000e-009,-5.01562513e-003
,,,2.12500000e-009,-4.90625012e-003
,,,2.15000000e-009,-4.80000012e-003
,,,2.17500000e-009,-4.75625011e-003
,,,2.20000000e-009,-4.70312511e-003
,,,2.22500000e-009,-4.64218761e-003
,,,2.25000000e-009,-4.57656260e-003
,,,2.27500000e-009,-4.51562510e-003
,,,2.30000000e-009,-4.46250009e-003
,,,2.32500000e-009,-4.42187509e-003
,,,2.35000000e-009,-4.40000009e-003
,,,2.37500000e-009,-4.42656259e-003
,,,2.40000000e-009,-4.45312509e-003
,,,2.42500000e-009,-4.47500009e-003
,,,2.45000000e-009,-4.48750009e-003
,,,2.47500000e-009,-4.48906259e-003
,,,2.50000000e-009,-4.47656259e-003
,,,2.52500000e-009,-4.44687509e-003
,,,2.55000000e-009,-4.40000009e-003
,,,2.57500000e-009,-4.34531258e-003
,,,2.60000000e-009,-4.26562508e-003
,,,2.62500000e-009,-4.16718757e-003
,,,2.65000000e-009,-4.05312506e-003
,,,2.67500000e-009,-3.93281255e-003
,,,2.70000000e-009,-3.81406255e-003
,,,2.72500000e-009,-3.70000004e-003
,,,2.75000000e-009,-3.60000003e-003
,,,2.77500000e-009,-3.52187503e-003
,,,2.80000000e-009,-3.45468752e-003
,,,2.82500000e-009,-3.39843752e-003
,,,2.85000000e-009,-3.35156251e-003
,,,2.87500000e-009,-3.31093751e-003
,,,2.90000000e-009,-3.27343751e-003
,,,2.92500000e-009,-3.23750001e-003
,,,2.95000000e-009,-3.20000000e-003
,,,2.97500000e-009,-3.16406250e-003
,,,3.00000000e-009,-3.12031250e-003
,,,3.02500000e-009,-3.06874999e-003
,,,3.05000000e-009,-3.01406249e-003
,,,3.07500000e-009,-2.95781249e-003
,,,3.10000000e-009,-2.90156248e-003
,,,3.12500000e-009,-2.84843748e-003
,,,3.15000000e-009,-2.79999997e-003
,,,3.17500000e-009,-2.76093747e-003
,,,3.20000000e-009,-2.72187497e-003
,,,3.22500000e-009,-2.68281247e-003
,,,3.25000000e-009,-2.64062496e-003
,,,3.27500000e-009,-2.59374996e-003
,,,3.30000000e-009,-2.53906246e-003
,,,3.32500000e-009,-2.47499995e-003
,,,3.35000000e-009,-2.39999995e-003
,,,3.37500000e-009,-2.31718744e-003
,,,3.40000000e-009,-2.22343743e-003
,,,3.42500000e-009,-2.11874993e-003
,,,3.45000000e-009,-2.00781242e-003
,,,3.47500000e-009,-1.89531241e-003
,,,3.50000000e-009,-1.78749990e-003
,,,3.52500000e-009,-1.68749990e-003
,,,3.55000000e-009,-1.59999989e-003
,,,3.57500000e-009,-1.53906239e-003
,,,3.60000000e-009,-1.49374988e-003
,,,3.62500000e-009,-1.46562488e-003
,,,3.65000000e-009,-1.45781238e-003
,,,3.67500000e-009,-1.46874988e-003
,,,3.70000000e-009,-1.49687488e-003
,,,3.72500000e-009,-1.54218739e-003
,,,3.75000000e-009,-1.59999989e-003
,,,3.77500000e-009,-1.67343739e-003
,,,3.80000000e-009,-1.74687490e-003
,,,3.82500000e-009,-1.81718741e-003
,,,3.85000000e-009,-1.87968741e-003
,,,3.87500000e-009,-1.93124991e-003
,,,3.90000000e-009,-1.97031242e-003
,,,3.92500000e-009,-1.99374992e-003
,,,3.95000000e-009,-1.99999992e-003
,,,3.97500000e-009,-1.98749992e-003
,,,4.00000000e-009,-1.95781242e-003
,,,4.02500000e-009,-1.91249991e-003
,,,4.05000000e-009,-1.85468741e-003
,,,4.07500000e-009,-1.79218740e-003
,,,4.10000000e-009,-1.72656240e-003
,,,4.12500000e-009,-1.66093739e-003
,,,4.15000000e-009,-1.59999989e-003
,,,4.17500000e-009,-1.54687489e-003
,,,4.20000000e-009,-1.49687488e-003
,,,4.22500000e-009,-1.44999988e-003
,,,4.25000000e-009,-1.40624988e-003
,,,4.27500000e-009,-1.35937487e-003
,,,4.30000000e-009,-1.31093737e-003
,,,4.32500000e-009,-1.25781237e-003
,,,4.35000000e-009,-1.19999986e-003
,,,4.37500000e-009,-1.13906236e-003
,,,4.40000000e-009,-1.07499985e-003
,,,4.42500000e-009,-1.00937485e-003
,,,4.45000000e-009,-9.46874844e-004
,,,4.47500000e-009,-8.90624840e-004
,,,4.50000000e-009,-8.46874836e-004
,,,4.52500000e-009,-8.15624834e-004
,,,4.55000000e-009,-7.99999833e-004
,,,4.57500000e-009,-8.03124833e-004
,,,4.60000000e-009,-8.15624834e-004
,,,4.62500000e-009,-8.32812335e-004
,,,4.65000000e-009,-8.48437337e-004
,,,4.67500000e-009,-8.59374837e-004
,,,4.70000000e-009,-8.56249837e-004
,,,4.72500000e-009,-8.37499836e-004
,,,4.75000000e-009,-7.99999833e-004
,,,4.77500000e-009,-7.51562330e-004
,,,4.80000000e-009,-6.90624825e-004
,,,4.82500000e-009,-6.20312320e-004
,,,4.85000000e-009,-5.49999815e-004
,,,4.87500000e-009,-4.85937311e-004
,,,4.90000000e-009,-4.35937307e-004
,,,4.92500000e-009,-4.06249805e-004
,,,4.95000000e-009,-3.99999805e-004
,,,4.97500000e-009,-4.26562307e-004
,,,5.00000000e-009,-4.71874810e-004
,,,5.02500000e-009,-5.32812314e-004
,,,5.05000000e-009,-6.01562319e-004
,,,5.07500000e-009,-6.68749824e-004
,,,5.10000000e-009,-7.29687328e-004
,,,5.12500000e-009,-7.74999831e-004
,,,5.15000000e-009,-7.99999833e-004
,,,5.17500000e-009,-8.03124833e-004
,,,5.20000000e-009,-7.79687332e-004
,,,5.22500000e-009,-7.34374828e-004
,,,5.25000000e-009,-6.73437324e-004
,,,5.27500000e-009,-5.99999819e-004
,,,5.30000000e-009,-5.24999814e-004
,,,5.32500000e-009,-4.56249809e-004
,,,5.35000000e-009,-3.99999805e-004
,,,5.37500000e-009,-3.68749803e-004
,,,5.40000000e-009,-3.60937302e-004
,,,5.42500000e-009,-3.79687303e-004
,,,5.45000000e-009,-4.24999807e-004
,,,5.47500000e-009,-4.93749811e-004
,,,5.50000000e-009,-5.82812318e-004
,,,5.52500000e-009,-6.87499825e-004
,,,5.55000000e-009,-7.99999833e-004
,,,5.57500000e-009,-9.14062341e-004
,,,5.60000000e-009,-1.02031235e-003
,,,5.62500000e-009,-1.11093736e-003
,,,5.65000000e-009,-1.18281236e-003
,,,5.67500000e-009,-1.23124986e-003
,,,5.70000000e-009,-1.24999986e-003
,,,5.72500000e-009,-1.24062486e-003
,,,5.75000000e-009,-1.19999986e-003
,,,5.77500000e-009,-1.12656236e-003
,,,5.80000000e-009,-1.03124985e-003
,,,5.82500000e-009,-9.20312342e-004
