RawData/CosmicRays/L6_2pt2C_15mV/wave010_Ch3.csv

"Record Length",1000,"Points",-7.72500000e-009,-5.48437315e-004
"Sample Interval",2.50000000e-011,s,-7.70000000e-009,-6.99999826e-004
"Trigger Point",309,"Samples",-7.67500000e-009,-8.45312336e-004
"Trigger Time",2.20393662e-011,s,-7.65000000e-009,-9.74999845e-004
"",,,-7.62500000e-009,-1.08124985e-003
"Horizontal Offset",-7.72500000e-009,s,-7.60000000e-009,-1.15781236e-003
,,,-7.57500000e-009,-1.19843736e-003
,,,-7.55000000e-009,-1.19999986e-003
,,,-7.52500000e-009,-1.16093736e-003
,,,-7.50000000e-009,-1.08906235e-003
,,,-7.47500000e-009,-9.89062346e-004
,,,-7.45000000e-009,-8.70312338e-004
,,,-7.42500000e-009,-7.43749829e-004
,,,-7.40000000e-009,-6.17187320e-004
,,,-7.37500000e-009,-4.99999812e-004
,,,-7.35000000e-009,-3.99999805e-004
,,,-7.32500000e-009,-3.24999799e-004
,,,-7.30000000e-009,-2.76562296e-004
,,,-7.27500000e-009,-2.54687295e-004
,,,-7.25000000e-009,-2.57812295e-004
,,,-7.22500000e-009,-2.78124796e-004
,,,-7.20000000e-009,-3.14062299e-004
,,,-7.17500000e-009,-3.56249802e-004
,,,-7.15000000e-009,-3.99999805e-004
,,,-7.12500000e-009,-4.40624808e-004
,,,-7.10000000e-009,-4.70312310e-004
,,,-7.07500000e-009,-4.87499811e-004
,,,-7.05000000e-009,-4.92187311e-004
,,,-7.02500000e-009,-4.82812311e-004
,,,-7.00000000e-009,-4.62499809e-004
,,,-6.97500000e-009,-4.34374807e-004
,,,-6.95000000e-009,-3.99999805e-004
,,,-6.92500000e-009,-3.67187302e-004
,,,-6.90000000e-009,-3.37499800e-004
,,,-6.87500000e-009,-3.15624799e-004
,,,-6.85000000e-009,-3.04687298e-004
,,,-6.82500000e-009,-3.07812298e-004
,,,-6.80000000e-009,-3.24999799e-004
,,,-6.77500000e-009,-3.56249802e-004
,,,-6.75000000e-009,-3.99999805e-004
,,,-6.72500000e-009,-4.56249809e-004
,,,-6.70000000e-009,-5.18749813e-004
,,,-6.67500000e-009,-5.82812318e-004
,,,-6.65000000e-009,-6.46874822e-004
,,,-6.62500000e-009,-7.04687326e-004
,,,-6.60000000e-009,-7.51562330e-004
,,,-6.57500000e-009,-7.84374832e-004
,,,-6.55000000e-009,-7.99999833e-004
,,,-6.52500000e-009,-7.98437333e-004
,,,-6.50000000e-009,-7.76562331e-004
,,,-6.47500000e-009,-7.35937329e-004
,,,-6.45000000e-009,-6.81249825e-004
,,,-6.42500000e-009,-6.15624820e-004
,,,-6.40000000e-009,-5.43749815e-004
,,,-6.37500000e-009,-4.70312310e-004
,,,-6.35000000e-009,-3.99999805e-004
,,,-6.32500000e-009,-3.40624801e-004
,,,-6.30000000e-009,-2.95312297e-004
,,,-6.27500000e-009,-2.67187295e-004
,,,-6.25000000e-009,-2.57812295e-004
,,,-6.22500000e-009,-2.67187295e-004
,,,-6.20000000e-009,-2.95312297e-004
,,,-6.17500000e-009,-3.40624801e-004
,,,-6.15000000e-009,-3.99999805e-004
,,,-6.12500000e-009,-4.70312310e-004
,,,-6.10000000e-009,-5.43749815e-004
,,,-6.07500000e-009,-6.15624820e-004
,,,-6.05000000e-009,-6.81249825e-004
,,,-6.02500000e-009,-7.35937329e-004
,,,-6.00000000e-009,-7.76562331e-004
,,,-5.97500000e-009,-7.98437333e-004
,,,-5.95000000e-009,-7.99999833e-004
,,,-5.92500000e-009,-7.81249832e-004
,,,-5.90000000e-009,-7.43749829e-004
,,,-5.87500000e-009,-6.92187325e-004
,,,-5.85000000e-009,-6.32812321e-004
,,,-5.82500000e-009,-5.68749817e-004
,,,-5.80000000e-009,-5.06249812e-004
,,,-5.77500000e-009,-4.48437308e-004
,,,-5.75000000e-009,-3.99999805e-004
,,,-5.72500000e-009,-3.65624802e-004
,,,-5.70000000e-009,-3.42187301e-004
,,,-5.67500000e-009,-3.32812300e-004
,,,-5.65000000e-009,-3.35937300e-004
,,,-5.62500000e-009,-3.46874801e-004
,,,-5.60000000e-009,-3.64062302e-004
,,,-5.57500000e-009,-3.82812304e-004
,,,-5.55000000e-009,-3.99999805e-004
,,,-5.52500000e-009,-4.17187306e-004
,,,-5.50000000e-009,-4.28124807e-004
,,,-5.47500000e-009,-4.34374807e-004
,,,-5.45000000e-009,-4.32812307e-004
,,,-5.42500000e-009,-4.28124807e-004
,,,-5.40000000e-009,-4.20312306e-004
,,,-5.37500000e-009,-4.10937306e-004
,,,-5.35000000e-009,-3.99999805e-004
,,,-5.32500000e-009,-3.92187304e-004
,,,-5.30000000e-009,-3.87499804e-004
,,,-5.27500000e-009,-3.85937304e-004
,,,-5.25000000e-009,-3.85937304e-004
,,,-5.22500000e-009,-3.87499804e-004
,,,-5.20000000e-009,-3.92187304e-004
,,,-5.17500000e-009,-3.96874805e-004
,,,-5.15000000e-009,-3.99999805e-004
,,,-5.12500000e-009,-4.06249805e-004
,,,-5.10000000e-009,-4.10937306e-004
,,,-5.07500000e-009,-4.14062306e-004
,,,-5.05000000e-009,-4.14062306e-004
,,,-5.02500000e-009,-4.14062306e-004
,,,-5.00000000e-009,-4.10937306e-004
,,,-4.97500000e-009,-4.06249805e-004
,,,-4.95000000e-009,-3.99999805e-004
,,,-4.92500000e-009,-3.96874805e-004
,,,-4.90000000e-009,-3.92187304e-004
,,,-4.87500000e-009,-3.87499804e-004
,,,-4.85000000e-009,-3.85937304e-004
,,,-4.82500000e-009,-3.85937304e-004
,,,-4.80000000e-009,-3.87499804e-004
,,,-4.77500000e-009,-3.92187304e-004
,,,-4.75000000e-009,-3.99999805e-004
,,,-4.72500000e-009,-4.07812305e-004
,,,-4.70000000e-009,-4.15624806e-004
,,,-4.67500000e-009,-4.21874806e-004
,,,-4.65000000e-009,-4.26562307e-004
,,,-4.62500000e-009,-4.26562307e-004
,,,-4.60000000e-009,-4.23437306e-004
,,,-4.57500000e-009,-4.14062306e-004
,,,-4.55000000e-009,-3.99999805e-004
,,,-4.52500000e-009,-3.84374804e-004
,,,-4.50000000e-009,-3.68749803e-004
,,,-4.47500000e-009,-3.54687302e-004
,,,-4.45000000e-009,-3.43749801e-004
,,,-4.42500000e-009,-3.42187301e-004
,,,-4.40000000e-009,-3.49999801e-004
,,,-4.37500000e-009,-3.68749803e-004
,,,-4.35000000e-009,-3.99999805e-004
,,,-4.32500000e-009,-4.43749808e-004
,,,-4.30000000e-009,-4.96874812e-004
,,,-4.27500000e-009,-5.54687316e-004
,,,-4.25000000e-009,-6.15624820e-004
,,,-4.22500000e-009,-6.74999824e-004
,,,-4.20000000e-009,-7.28124828e-004
,,,-4.17500000e-009,-7.71874831e-004
,,,-4.15000000e-009,-7.99999833e-004
,,,-4.12500000e-009,-8.10937334e-004
,,,-4.10000000e-009,-8.01562333e-004
,,,-4.07500000e-009,-7.73437331e-004
,,,-4.05000000e-009,-7.26562328e-004
,,,-4.02500000e-009,-6.64062323e-004
,,,-4.00000000e-009,-5.85937318e-004
,,,-3.97500000e-009,-4.96874812e-004
,,,-3.95000000e-009,-3.99999805e-004
,,,-3.92500000e-009,-3.06249798e-004
,,,-3.90000000e-009,-2.17187292e-004
,,,-3.87500000e-009,-1.37499786e-004
,,,-3.85000000e-009,-7.34372817e-005
,,,-3.82500000e-009,-2.49997783e-005
,,,-3.80000000e-009,3.12522374e-006
,,,-3.77500000e-009,1.09377243e-005
,,,-3.75000000e-009,2.23517420e-010
,,,-3.72500000e-009,-3.59372790e-005
,,,-3.70000000e-009,-8.74997827e-005
,,,-3.67500000e-009,-1.46874787e-004
,,,-3.65000000e-009,-2.09374791e-004
,,,-3.62500000e-009,-2.71874796e-004
,,,-3.60000000e-009,-3.26562300e-004
,,,-3.57500000e-009,-3.70312303e-004
,,,-3.55000000e-009,-3.99999805e-004
,,,-3.52500000e-009,-4.18749806e-004
,,,-3.50000000e-009,-4.24999807e-004
,,,-3.47500000e-009,-4.20312306e-004
,,,-3.45000000e-009,-4.09374805e-004
,,,-3.42500000e-009,-3.98437305e-004
,,,-3.40000000e-009,-3.89062304e-004
,,,-3.37500000e-009,-3.89062304e-004
,,,-3.35000000e-009,-3.99999805e-004
,,,-3.32500000e-009,-4.26562307e-004
,,,-3.30000000e-009,-4.65624809e-004
,,,-3.27500000e-009,-5.17187313e-004
,,,-3.25000000e-009,-5.74999817e-004
,,,-3.22500000e-009,-6.37499822e-004
,,,-3.20000000e-009,-6.98437326e-004
,,,-3.17500000e-009,-7.53124830e-004
,,,-3.15000000e-009,-7.99999833e-004
,,,-3.12500000e-009,-8.34374836e-004
,,,-3.10000000e-009,-8.53124837e-004
,,,-3.07500000e-009,-8.60937337e-004
,,,-3.05000000e-009,-8.56249837e-004
,,,-3.02500000e-009,-8.45312336e-004
,,,-3.00000000e-009,-8.31249835e-004
,,,-2.97500000e-009,-8.15624834e-004
,,,-2.95000000e-009,-7.99999833e-004
,,,-2.92500000e-009,-7.89062332e-004
,,,-2.90000000e-009,-7.82812332e-004
,,,-2.87500000e-009,-7.82812332e-004
,,,-2.85000000e-009,-7.85937332e-004
,,,-2.82500000e-009,-7.90624832e-004
,,,-2.80000000e-009,-7.95312333e-004
,,,-2.77500000e-009,-7.99999833e-004
,,,-2.75000000e-009,-7.99999833e-004
,,,-2.72500000e-009,-7.95312333e-004
,,,-2.70000000e-009,-7.89062332e-004
,,,-2.67500000e-009,-7.81249832e-004
,,,-2.65000000e-009,-7.76562331e-004
,,,-2.62500000e-009,-7.74999831e-004
,,,-2.60000000e-009,-7.78124832e-004
,,,-2.57500000e-009,-7.85937332e-004
,,,-2.55000000e-009,-7.99999833e-004
,,,-2.52500000e-009,-8.17187334e-004
,,,-2.50000000e-009,-8.35937336e-004
,,,-2.47500000e-009,-8.53124837e-004
,,,-2.45000000e-009,-8.65624838e-004
,,,-2.42500000e-009,-8.68749838e-004
,,,-2.40000000e-009,-8.60937337e-004
,,,-2.37500000e-009,-8.39062336e-004
,,,-2.35000000e-009,-7.99999833e-004
,,,-2.32500000e-009,-7.43749829e-004
,,,-2.30000000e-009,-6.78124824e-004
,,,-2.27500000e-009,-6.07812320e-004
,,,-2.25000000e-009,-5.39062315e-004
,,,-2.22500000e-009,-4.79687310e-004
,,,-2.20000000e-009,-4.32812307e-004
,,,-2.17500000e-009,-4.06249805e-004
,,,-2.15000000e-009,-3.99999805e-004
,,,-2.12500000e-009,-4.21874806e-004
,,,-2.10000000e-009,-4.62499809e-004
,,,-2.07500000e-009,-5.18749813e-004
,,,-2.05000000e-009,-5.84374818e-004
,,,-2.02500000e-009,-6.49999822e-004
,,,-2.00000000e-009,-7.12499827e-004
,,,-1.97500000e-009,-7.64062331e-004
,,,-1.95000000e-009,-7.99999833e-004
,,,-1.92500000e-009,-8.21874835e-004
,,,-1.90000000e-009,-8.26562335e-004
,,,-1.87500000e-009,-8.20312335e-004
,,,-1.85000000e-009,-8.07812334e-004
,,,-1.82500000e-009,-7.93749833e-004
,,,-1.80000000e-009,-7.85937332e-004
,,,-1.77500000e-009,-7.87499832e-004
,,,-1.75000000e-009,-7.99999833e-004
,,,-1.72500000e-009,-8.28124835e-004
,,,-1.70000000e-009,-8.62499838e-004
,,,-1.67500000e-009,-8.98437340e-004
,,,-1.65000000e-009,-9.24999842e-004
,,,-1.62500000e-009,-9.35937343e-004
,,,-1.60000000e-009,-9.21874842e-004
,,,-1.57500000e-009,-8.78124839e-004
,,,-1.55000000e-009,-7.99999833e-004
,,,-1.52500000e-009,-7.01562326e-004
,,,-1.50000000e-009,-5.82812318e-004
,,,-1.47500000e-009,-4.49999808e-004
,,,-1.45000000e-009,-3.17187299e-004
,,,-1.42500000e-009,-1.95312290e-004
,,,-1.40000000e-009,-9.53122832e-005
,,,-1.37500000e-009,-2.81247785e-005
,,,-1.35000000e-009,2.23517420e-010
,,,-1.32500000e-009,-4.53122797e-005
,,,-1.30000000e-009,-1.32812286e-004
,,,-1.27500000e-009,-2.49999794e-004
,,,-1.25000000e-009,-3.84374804e-004
,,,-1.22500000e-009,-5.20312313e-004
,,,-1.20000000e-009,-6.42187322e-004
,,,-1.17500000e-009,-7.39062329e-004
,,,-1.15000000e-009,-7.99999833e-004
,,,-1.12500000e-009,-8.71874838e-004
,,,-1.10000000e-009,-9.12499841e-004
,,,-1.07500000e-009,-9.26562342e-004
,,,-1.05000000e-009,-9.17187341e-004
,,,-1.02500000e-009,-8.92187340e-004
,,,-1.00000000e-009,-8.57812337e-004
,,,-9.75000000e-010,-8.23437335e-004
,,,-9.50000000e-010,-7.99999833e-004
,,,-9.25000000e-010,-8.74999838e-004
,,,-9.00000000e-010,-9.79687346e-004
,,,-8.75000000e-010,-1.10468735e-003
,,,-8.50000000e-010,-1.23749986e-003
,,,-8.25000000e-010,-1.36562487e-003
,,,-8.00000000e-010,-1.47343738e-003
,,,-7.75000000e-010,-1.55312489e-003
,,,-7.50000000e-010,-1.59999989e-003
,,,-7.25000000e-010,-1.72343740e-003
,,,-7.00000000e-010,-1.83593741e-003
,,,-6.75000000e-010,-1.93749991e-003
,,,-6.50000000e-010,-2.02812492e-003
,,,-6.25000000e-010,-2.11406243e-003
,,,-6.00000000e-010,-2.19843743e-003
,,,-5.75000000e-010,-2.29062494e-003
,,,-5.50000000e-010,-2.39999995e-003
,,,-5.25000000e-010,-2.66562497e-003
,,,-5.00000000e-010,-2.98593749e-003
,,,-4.75000000e-010,-3.35625001e-003
,,,-4.50000000e-010,-3.76718754e-003
,,,-4.25000000e-010,-4.20468757e-003
,,,-4.00000000e-010,-4.66093761e-003
,,,-3.75000000e-010,-5.12812514e-003
,,,-3.50000000e-010,-5.60000017e-003
,,,-3.25000000e-010,-6.17812521e-003
,,,-3.00000000e-010,-6.78437526e-003
,,,-2.75000000e-010,-7.41250030e-003
,,,-2.50000000e-010,-8.05937535e-003
,,,-2.25000000e-010,-8.72187539e-003
,,,-2.00000000e-010,-9.40000044e-003
,,,-1.75000000e-010,-1.00921880e-002
,,,-1.50000000e-010,-1.08000005e-002
,,,-1.25000000e-010,-1.15656256e-002
,,,-1.00000000e-010,-1.23656257e-002
,,,-7.50000000e-011,-1.31968757e-002
,,,-5.00000000e-011,-1.40531258e-002
,,,-2.50000000e-011,-1.49296883e-002
,,,0.00000000e+000,-1.58171884e-002
,,,2.50000000e-011,-1.67093760e-002
,,,5.00000000e-011,-1.76000010e-002
,,,7.50000000e-011,-1.84453136e-002
,,,1.00000000e-010,-1.92937511e-002
,,,1.25000000e-010,-2.01484387e-002
,,,1.50000000e-010,-2.10046888e-002
,,,1.75000000e-010,-2.18640638e-002
,,,2.00000000e-010,-2.27187514e-002
,,,2.25000000e-010,-2.35671889e-002
,,,2.50000000e-010,-2.44000015e-002
,,,2.75000000e-010,-2.50921891e-002
,,,3.00000000e-010,-2.57718766e-002
,,,3.25000000e-010,-2.64453141e-002
,,,3.50000000e-010,-2.71140642e-002
,,,3.75000000e-010,-2.77703142e-002
,,,4.00000000e-010,-2.84125018e-002
,,,4.25000000e-010,-2.90265643e-002
,,,4.50000000e-010,-2.96000019e-002
,,,4.75000000e-010,-2.99312519e-002
,,,5.00000000e-010,-3.02156269e-002
,,,5.25000000e-010,-3.04515644e-002
,,,5.50000000e-010,-3.06390644e-002
,,,5.75000000e-010,-3.07718770e-002
,,,6.00000000e-010,-3.08484395e-002
,,,6.25000000e-010,-3.08593770e-002
,,,6.50000000e-010,-3.08000020e-002
,,,6.75000000e-010,-3.04671894e-002
,,,7.00000000e-010,-3.00859394e-002
,,,7.25000000e-010,-2.96750019e-002
,,,7.50000000e-010,-2.92500018e-002
,,,7.75000000e-010,-2.88218768e-002
,,,8.00000000e-010,-2.84031268e-002
,,,8.25000000e-010,-2.79953143e-002
,,,8.50000000e-010,-2.76000017e-002
,,,8.75000000e-010,-2.70578142e-002
,,,9.00000000e-010,-2.65343767e-002
,,,9.25000000e-010,-2.60328141e-002
,,,9.50000000e-010,-2.55468766e-002
,,,9.75000000e-010,-2.50703141e-002
,,,1.00000000e-009,-2.45953140e-002
,,,1.02500000e-009,-2.41093765e-002
,,,1.05000000e-009,-2.36000014e-002
,,,1.07500000e-009,-2.29578139e-002
,,,1.10000000e-009,-2.22812514e-002
,,,1.12500000e-009,-2.15812513e-002
,,,1.15000000e-009,-2.08640638e-002
,,,1.17500000e-009,-2.01390637e-002
,,,1.20000000e-009,-1.94156262e-002
,,,1.22500000e-009,-1.87000011e-002
,,,1.25000000e-009,-1.80000011e-002
,,,1.27500000e-009,-1.72906260e-002
,,,1.30000000e-009,-1.65953135e-002
,,,1.32500000e-009,-1.59156259e-002
,,,1.35000000e-009,-1.52515634e-002
,,,1.37500000e-009,-1.46078133e-002
,,,1.40000000e-009,-1.39843758e-002
,,,1.42500000e-009,-1.33812507e-002
,,,1.45000000e-009,-1.28000007e-002
,,,1.47500000e-009,-1.22750006e-002
,,,1.50000000e-009,-1.17578131e-002
,,,1.52500000e-009,-1.12531256e-002
,,,1.55000000e-009,-1.07671880e-002
,,,1.57500000e-009,-1.03109380e-002
,,,1.60000000e-009,-9.89375048e-003
,,,1.62500000e-009,-9.52187545e-003
,,,1.65000000e-009,-9.20000043e-003
,,,1.67500000e-009,-8.99218791e-003
,,,1.70000000e-009,-8.80312540e-003
,,,1.72500000e-009,-8.61875039e-003
,,,1.75000000e-009,-8.43437537e-003
,,,1.77500000e-009,-8.24218786e-003
,,,1.80000000e-009,-8.04062535e-003
,,,1.82500000e-009,-7.82656283e-003
,,,1.85000000e-009,-7.60000031e-003
,,,1.87500000e-009,-7.42656280e-003
,,,1.90000000e-009,-7.22187529e-003
,,,1.92500000e-009,-6.99531277e-003
,,,1.95000000e-009,-6.75781275e-003
,,,1.97500000e-009,-6.52500024e-003
,,,2.00000000e-009,-6.31250022e-003
,,,2.02500000e-009,-6.13437521e-003
,,,2.05000000e-009,-6.00000020e-003
,,,2.07500000e-009,-5.97343770e-003
,,,2.10000000e-009,-5.96875020e-003
,,,2.12500000e-009,-5.97968770e-003
,,,2.15000000e-009,-6.00000020e-003
,,,2.17500000e-009,-6.01875020e-003
,,,2.20000000e-009,-6.02812520e-003
,,,2.22500000e-009,-6.02500020e-003
,,,2.25000000e-009,-6.00000020e-003
,,,2.27500000e-009,-5.98437520e-003
,,,2.30000000e-009,-5.92968770e-003
,,,2.32500000e-009,-5.83750019e-003
,,,2.35000000e-009,-5.71875018e-003
,,,2.37500000e-009,-5.58281267e-003
,,,2.40000000e-009,-5.44375016e-003
,,,2.42500000e-009,-5.31406265e-003
,,,2.45000000e-009,-5.20000014e-003
,,,2.47500000e-009,-5.12500014e-003
,,,2.50000000e-009,-5.06406263e-003
,,,2.52500000e-009,-5.01406263e-003
,,,2.55000000e-009,-4.97343763e-003
,,,2.57500000e-009,-4.93593763e-003
,,,2.60000000e-009,-4.89843762e-003
,,,2.62500000e-009,-4.85468762e-003
,,,2.65000000e-009,-4.80000012e-003
,,,2.67500000e-009,-4.74062511e-003
,,,2.70000000e-009,-4.66093761e-003
,,,2.72500000e-009,-4.56250010e-003
,,,2.75000000e-009,-4.45156259e-003
,,,2.77500000e-009,-4.33281258e-003
,,,2.80000000e-009,-4.21406257e-003
,,,2.82500000e-009,-4.10156257e-003
,,,2.85000000e-009,-4.00000006e-003
,,,2.87500000e-009,-3.91718755e-003
,,,2.90000000e-009,-3.84531255e-003
,,,2.92500000e-009,-3.78593754e-003
,,,2.95000000e-009,-3.73750004e-003
,,,2.97500000e-009,-3.69843754e-003
,,,3.00000000e-009,-3.66406254e-003
,,,3.02500000e-009,-3.63281253e-003
,,,3.05000000e-009,-3.60000003e-003
,,,3.07500000e-009,-3.55937503e-003
,,,3.10000000e-009,-3.50312502e-003
,,,3.12500000e-009,-3.42968752e-003
,,,3.15000000e-009,-3.33593751e-003
,,,3.17500000e-009,-3.22500000e-003
,,,3.20000000e-009,-3.09531250e-003
,,,3.22500000e-009,-2.95312499e-003
,,,3.25000000e-009,-2.79999997e-003
,,,3.27500000e-009,-2.64843746e-003
,,,3.30000000e-009,-2.49687495e-003
,,,3.32500000e-009,-2.35312494e-003
,,,3.35000000e-009,-2.22499993e-003
,,,3.37500000e-009,-2.12031243e-003
,,,3.40000000e-009,-2.04531242e-003
,,,3.42500000e-009,-2.00624992e-003
,,,3.45000000e-009,-1.99999992e-003
,,,3.47500000e-009,-2.03593742e-003
,,,3.50000000e-009,-2.09218742e-003
,,,3.52500000e-009,-2.16406243e-003
,,,3.55000000e-009,-2.23906243e-003
,,,3.57500000e-009,-2.30781244e-003
,,,3.60000000e-009,-2.36406244e-003
,,,3.62500000e-009,-2.39687495e-003
,,,3.65000000e-009,-2.39999995e-003
,,,3.67500000e-009,-2.37343744e-003
,,,3.70000000e-009,-2.31093744e-003
,,,3.72500000e-009,-2.21874993e-003
,,,3.75000000e-009,-2.10312493e-003
,,,3.77500000e-009,-1.97499992e-003
,,,3.80000000e-009,-1.84218741e-003
,,,3.82500000e-009,-1.71406240e-003
,,,3.85000000e-009,-1.59999989e-003
,,,3.87500000e-009,-1.51093738e-003
,,,3.90000000e-009,-1.43906238e-003
,,,3.92500000e-009,-1.38437487e-003
,,,3.95000000e-009,-1.34062487e-003
,,,3.97500000e-009,-1.30624987e-003
,,,4.00000000e-009,-1.27343737e-003
,,,4.02500000e-009,-1.24062486e-003
,,,4.05000000e-009,-1.19999986e-003
,,,4.07500000e-009,-1.16093736e-003
,,,4.10000000e-009,-1.11093736e-003
,,,4.12500000e-009,-1.05312485e-003
,,,4.15000000e-009,-9.90624847e-004
,,,4.17500000e-009,-9.29687342e-004
,,,4.20000000e-009,-8.74999838e-004
,,,4.22500000e-009,-8.29687335e-004
,,,4.25000000e-009,-7.99999833e-004
,,,4.27500000e-009,-7.92187333e-004
,,,4.30000000e-009,-7.95312333e-004
,,,4.32500000e-009,-8.04687333e-004
,,,4.35000000e-009,-8.18749834e-004
,,,4.37500000e-009,-8.29687335e-004
,,,4.40000000e-009,-8.31249835e-004
,,,4.42500000e-009,-8.23437335e-004
,,,4.45000000e-009,-7.99999833e-004
,,,4.47500000e-009,-7.65624831e-004
,,,4.50000000e-009,-7.17187327e-004
,,,4.52500000e-009,-6.56249823e-004
,,,4.55000000e-009,-5.90624818e-004
,,,4.57500000e-009,-5.26562314e-004
,,,4.60000000e-009,-4.68749810e-004
,,,4.62500000e-009,-4.24999807e-004
,,,4.65000000e-009,-3.99999805e-004
,,,4.67500000e-009,-4.07812305e-004
,,,4.70000000e-009,-4.32812307e-004
,,,4.72500000e-009,-4.76562310e-004
,,,4.75000000e-009,-5.34374814e-004
,,,4.77500000e-009,-5.99999819e-004
,,,4.80000000e-009,-6.70312324e-004
,,,4.82500000e-009,-7.39062329e-004
,,,4.85000000e-009,-7.99999833e-004
,,,4.87500000e-009,-8.56249837e-004
,,,4.90000000e-009,-8.96874840e-004
,,,4.92500000e-009,-9.20312342e-004
,,,4.95000000e-009,-9.24999842e-004
,,,4.97500000e-009,-9.14062341e-004
,,,5.00000000e-009,-8.87499839e-004
,,,5.02500000e-009,-8.49999837e-004
,,,5.05000000e-009,-7.99999833e-004
,,,5.07500000e-009,-7.46874829e-004
,,,5.10000000e-009,-6.90624825e-004
,,,5.12500000e-009,-6.32812321e-004
,,,5.15000000e-009,-5.76562317e-004
,,,5.17500000e-009,-5.24999814e-004
,,,5.20000000e-009,-4.76562310e-004
,,,5.22500000e-009,-4.35937307e-004
,,,5.25000000e-009,-3.99999805e-004
,,,5.27500000e-009,-3.78124803e-004
,,,5.30000000e-009,-3.62499802e-004
,,,5.32500000e-009,-3.54687302e-004
,,,5.35000000e-009,-3.53124801e-004
,,,5.37500000e-009,-3.57812302e-004
,,,5.40000000e-009,-3.67187302e-004
,,,5.42500000e-009,-3.81249803e-004
,,,5.45000000e-009,-3.99999805e-004
,,,5.47500000e-009,-4.26562307e-004
,,,5.50000000e-009,-4.57812309e-004
,,,5.52500000e-009,-4.95312312e-004
,,,5.55000000e-009,-5.39062315e-004
,,,5.57500000e-009,-5.92187318e-004
,,,5.60000000e-009,-6.53124823e-004
,,,5.62500000e-009,-7.23437328e-004
,,,5.65000000e-009,-7.99999833e-004
,,,5.67500000e-009,-8.78124839e-004
,,,5.70000000e-009,-9.56249844e-004
,,,5.72500000e-009,-1.03124985e-003
,,,5.75000000e-009,-1.09687485e-003
,,,5.77500000e-009,-1.14999986e-003
,,,5.80000000e-009,-1.18593736e-003
