RawData/CosmicRays/L6_2pt2C_15mV/wave027_Ch3.csv

"Record Length",1000,"Points",-7.72500000e-009,-3.04687298e-004
"Sample Interval",2.50000000e-011,s,-7.70000000e-009,-3.07812298e-004
"Trigger Point",309,"Samples",-7.67500000e-009,-3.24999799e-004
"Trigger Time",9.29607362e-012,s,-7.65000000e-009,-3.56249802e-004
"",,,-7.62500000e-009,-3.99999805e-004
"Horizontal Offset",-7.72500000e-009,s,-7.60000000e-009,-4.57812309e-004
,,,-7.57500000e-009,-5.20312313e-004
,,,-7.55000000e-009,-5.85937318e-004
,,,-7.52500000e-009,-6.48437322e-004
,,,-7.50000000e-009,-7.04687326e-004
,,,-7.47500000e-009,-7.49999830e-004
,,,-7.45000000e-009,-7.82812332e-004
,,,-7.42500000e-009,-7.99999833e-004
,,,-7.40000000e-009,-8.04687333e-004
,,,-7.37500000e-009,-7.96874833e-004
,,,-7.35000000e-009,-7.84374832e-004
,,,-7.32500000e-009,-7.70312331e-004
,,,-7.30000000e-009,-7.60937330e-004
,,,-7.27500000e-009,-7.59374830e-004
,,,-7.25000000e-009,-7.73437331e-004
,,,-7.22500000e-009,-7.99999833e-004
,,,-7.20000000e-009,-8.39062336e-004
,,,-7.17500000e-009,-8.90624840e-004
,,,-7.15000000e-009,-9.51562344e-004
,,,-7.12500000e-009,-1.01718735e-003
,,,-7.10000000e-009,-1.08124985e-003
,,,-7.07500000e-009,-1.13593736e-003
,,,-7.05000000e-009,-1.17812486e-003
,,,-7.02500000e-009,-1.19999986e-003
,,,-7.00000000e-009,-1.19687486e-003
,,,-6.97500000e-009,-1.17343736e-003
,,,-6.95000000e-009,-1.12968736e-003
,,,-6.92500000e-009,-1.07187485e-003
,,,-6.90000000e-009,-1.00468735e-003
,,,-6.87500000e-009,-9.32812343e-004
,,,-6.85000000e-009,-8.64062338e-004
,,,-6.82500000e-009,-7.99999833e-004
,,,-6.80000000e-009,-7.48437329e-004
,,,-6.77500000e-009,-7.10937327e-004
,,,-6.75000000e-009,-6.92187325e-004
,,,-6.72500000e-009,-6.89062325e-004
,,,-6.70000000e-009,-7.03124826e-004
,,,-6.67500000e-009,-7.28124828e-004
,,,-6.65000000e-009,-7.62499830e-004
,,,-6.62500000e-009,-7.99999833e-004
,,,-6.60000000e-009,-8.35937336e-004
,,,-6.57500000e-009,-8.65624838e-004
,,,-6.55000000e-009,-8.87499839e-004
,,,-6.52500000e-009,-8.98437340e-004
,,,-6.50000000e-009,-8.95312340e-004
,,,-6.47500000e-009,-8.78124839e-004
,,,-6.45000000e-009,-8.46874836e-004
,,,-6.42500000e-009,-7.99999833e-004
,,,-6.40000000e-009,-7.42187329e-004
,,,-6.37500000e-009,-6.78124824e-004
,,,-6.35000000e-009,-6.10937320e-004
,,,-6.32500000e-009,-5.46874815e-004
,,,-6.30000000e-009,-4.89062311e-004
,,,-6.27500000e-009,-4.43749808e-004
,,,-6.25000000e-009,-4.12499806e-004
,,,-6.22500000e-009,-3.99999805e-004
,,,-6.20000000e-009,-4.09374805e-004
,,,-6.17500000e-009,-4.35937307e-004
,,,-6.15000000e-009,-4.79687310e-004
,,,-6.12500000e-009,-5.35937314e-004
,,,-6.10000000e-009,-5.99999819e-004
,,,-6.07500000e-009,-6.68749824e-004
,,,-6.05000000e-009,-7.37499829e-004
,,,-6.02500000e-009,-7.99999833e-004
,,,-6.00000000e-009,-8.53124837e-004
,,,-5.97500000e-009,-8.92187340e-004
,,,-5.95000000e-009,-9.14062341e-004
,,,-5.92500000e-009,-9.20312342e-004
,,,-5.90000000e-009,-9.09374841e-004
,,,-5.87500000e-009,-8.85937339e-004
,,,-5.85000000e-009,-8.48437337e-004
,,,-5.82500000e-009,-7.99999833e-004
,,,-5.80000000e-009,-7.46874829e-004
,,,-5.77500000e-009,-6.89062325e-004
,,,-5.75000000e-009,-6.31249821e-004
,,,-5.72500000e-009,-5.74999817e-004
,,,-5.70000000e-009,-5.21874813e-004
,,,-5.67500000e-009,-4.74999810e-004
,,,-5.65000000e-009,-4.34374807e-004
,,,-5.62500000e-009,-3.99999805e-004
,,,-5.60000000e-009,-3.76562303e-004
,,,-5.57500000e-009,-3.60937302e-004
,,,-5.55000000e-009,-3.53124801e-004
,,,-5.52500000e-009,-3.53124801e-004
,,,-5.50000000e-009,-3.59374802e-004
,,,-5.47500000e-009,-3.68749803e-004
,,,-5.45000000e-009,-3.84374804e-004
,,,-5.42500000e-009,-3.99999805e-004
,,,-5.40000000e-009,-4.18749806e-004
,,,-5.37500000e-009,-4.34374807e-004
,,,-5.35000000e-009,-4.45312308e-004
,,,-5.32500000e-009,-4.49999808e-004
,,,-5.30000000e-009,-4.48437308e-004
,,,-5.27500000e-009,-4.39062308e-004
,,,-5.25000000e-009,-4.21874806e-004
,,,-5.22500000e-009,-3.99999805e-004
,,,-5.20000000e-009,-3.78124803e-004
,,,-5.17500000e-009,-3.56249802e-004
,,,-5.15000000e-009,-3.37499800e-004
,,,-5.12500000e-009,-3.26562300e-004
,,,-5.10000000e-009,-3.26562300e-004
,,,-5.07500000e-009,-3.37499800e-004
,,,-5.05000000e-009,-3.62499802e-004
,,,-5.02500000e-009,-3.99999805e-004
,,,-5.00000000e-009,-4.56249809e-004
,,,-4.97500000e-009,-5.20312313e-004
,,,-4.95000000e-009,-5.87499818e-004
,,,-4.92500000e-009,-6.53124823e-004
,,,-4.90000000e-009,-7.12499827e-004
,,,-4.87500000e-009,-7.59374830e-004
,,,-4.85000000e-009,-7.89062332e-004
,,,-4.82500000e-009,-7.99999833e-004
,,,-4.80000000e-009,-7.89062332e-004
,,,-4.77500000e-009,-7.57812330e-004
,,,-4.75000000e-009,-7.10937327e-004
,,,-4.72500000e-009,-6.49999822e-004
,,,-4.70000000e-009,-5.84374818e-004
,,,-4.67500000e-009,-5.17187313e-004
,,,-4.65000000e-009,-4.54687309e-004
,,,-4.62500000e-009,-3.99999805e-004
,,,-4.60000000e-009,-3.62499802e-004
,,,-4.57500000e-009,-3.37499800e-004
,,,-4.55000000e-009,-3.28124800e-004
,,,-4.52500000e-009,-3.29687300e-004
,,,-4.50000000e-009,-3.40624801e-004
,,,-4.47500000e-009,-3.57812302e-004
,,,-4.45000000e-009,-3.78124803e-004
,,,-4.42500000e-009,-3.99999805e-004
,,,-4.40000000e-009,-4.23437306e-004
,,,-4.37500000e-009,-4.48437308e-004
,,,-4.35000000e-009,-4.78124810e-004
,,,-4.32500000e-009,-5.15624813e-004
,,,-4.30000000e-009,-5.65624817e-004
,,,-4.27500000e-009,-6.28124821e-004
,,,-4.25000000e-009,-7.07812327e-004
,,,-4.22500000e-009,-7.99999833e-004
,,,-4.20000000e-009,-8.98437340e-004
,,,-4.17500000e-009,-9.96874847e-004
,,,-4.15000000e-009,-1.09062485e-003
,,,-4.12500000e-009,-1.17031236e-003
,,,-4.10000000e-009,-1.22656236e-003
,,,-4.07500000e-009,-1.25312487e-003
,,,-4.05000000e-009,-1.24531236e-003
,,,-4.02500000e-009,-1.19999986e-003
,,,-4.00000000e-009,-1.11249986e-003
,,,-3.97500000e-009,-9.98437347e-004
,,,-3.95000000e-009,-8.68749838e-004
,,,-3.92500000e-009,-7.35937329e-004
,,,-3.90000000e-009,-6.10937320e-004
,,,-3.87500000e-009,-5.07812312e-004
,,,-3.85000000e-009,-4.35937307e-004
,,,-3.82500000e-009,-3.99999805e-004
,,,-3.80000000e-009,-4.06249805e-004
,,,-3.77500000e-009,-4.45312308e-004
,,,-3.75000000e-009,-5.12499813e-004
,,,-3.72500000e-009,-5.92187318e-004
,,,-3.70000000e-009,-6.73437324e-004
,,,-3.67500000e-009,-7.42187329e-004
,,,-3.65000000e-009,-7.87499832e-004
,,,-3.62500000e-009,-7.99999833e-004
,,,-3.60000000e-009,-7.71874831e-004
,,,-3.57500000e-009,-7.06249826e-004
,,,-3.55000000e-009,-6.09374820e-004
,,,-3.52500000e-009,-4.89062311e-004
,,,-3.50000000e-009,-3.57812302e-004
,,,-3.47500000e-009,-2.24999792e-004
,,,-3.45000000e-009,-1.03124784e-004
,,,-3.42500000e-009,2.23517420e-010
,,,-3.40000000e-009,6.87502284e-005
,,,-3.37500000e-009,1.09375231e-004
,,,-3.35000000e-009,1.21875232e-004
,,,-3.32500000e-009,1.10937731e-004
,,,-3.30000000e-009,8.75002297e-005
,,,-3.27500000e-009,5.46877274e-005
,,,-3.25000000e-009,2.34377252e-005
,,,-3.22500000e-009,2.23517420e-010
,,,-3.20000000e-009,-1.87497778e-005
,,,-3.17500000e-009,-2.49997783e-005
,,,-3.15000000e-009,-2.03122779e-005
,,,-3.12500000e-009,-7.81227704e-006
,,,-3.10000000e-009,6.25022396e-006
,,,-3.07500000e-009,1.40627245e-005
,,,-3.05000000e-009,1.40627245e-005
,,,-3.02500000e-009,2.23517420e-010
,,,-3.00000000e-009,-3.90622792e-005
,,,-2.97500000e-009,-9.06247829e-005
,,,-2.95000000e-009,-1.51562287e-004
,,,-2.92500000e-009,-2.15624792e-004
,,,-2.90000000e-009,-2.78124796e-004
,,,-2.87500000e-009,-3.32812300e-004
,,,-2.85000000e-009,-3.74999803e-004
,,,-2.82500000e-009,-3.99999805e-004
,,,-2.80000000e-009,-4.07812305e-004
,,,-2.77500000e-009,-4.01562305e-004
,,,-2.75000000e-009,-3.85937304e-004
,,,-2.72500000e-009,-3.68749803e-004
,,,-2.70000000e-009,-3.54687302e-004
,,,-2.67500000e-009,-3.53124801e-004
,,,-2.65000000e-009,-3.67187302e-004
,,,-2.62500000e-009,-3.99999805e-004
,,,-2.60000000e-009,-4.54687309e-004
,,,-2.57500000e-009,-5.23437314e-004
,,,-2.55000000e-009,-5.98437319e-004
,,,-2.52500000e-009,-6.71874824e-004
,,,-2.50000000e-009,-7.37499829e-004
,,,-2.47500000e-009,-7.84374832e-004
,,,-2.45000000e-009,-8.06249834e-004
,,,-2.42500000e-009,-7.99999833e-004
,,,-2.40000000e-009,-7.60937330e-004
,,,-2.37500000e-009,-6.99999826e-004
,,,-2.35000000e-009,-6.24999821e-004
,,,-2.32500000e-009,-5.45312315e-004
,,,-2.30000000e-009,-4.74999810e-004
,,,-2.27500000e-009,-4.21874806e-004
,,,-2.25000000e-009,-3.96874805e-004
,,,-2.22500000e-009,-3.99999805e-004
,,,-2.20000000e-009,-4.37499807e-004
,,,-2.17500000e-009,-4.99999812e-004
,,,-2.15000000e-009,-5.79687318e-004
,,,-2.12500000e-009,-6.64062323e-004
,,,-2.10000000e-009,-7.40624829e-004
,,,-2.07500000e-009,-7.95312333e-004
,,,-2.05000000e-009,-8.17187334e-004
,,,-2.02500000e-009,-7.99999833e-004
,,,-2.00000000e-009,-7.39062329e-004
,,,-1.97500000e-009,-6.42187322e-004
,,,-1.95000000e-009,-5.20312313e-004
,,,-1.92500000e-009,-3.85937304e-004
,,,-1.90000000e-009,-2.53124794e-004
,,,-1.87500000e-009,-1.37499786e-004
,,,-1.85000000e-009,-4.99997800e-005
,,,-1.82500000e-009,2.23517420e-010
,,,-1.80000000e-009,3.12522374e-006
,,,-1.77500000e-009,-3.12497787e-005
,,,-1.75000000e-009,-9.53122832e-005
,,,-1.72500000e-009,-1.76562289e-004
,,,-1.70000000e-009,-2.60937295e-004
,,,-1.67500000e-009,-3.34374800e-004
,,,-1.65000000e-009,-3.82812304e-004
,,,-1.62500000e-009,-3.99999805e-004
,,,-1.60000000e-009,-3.89062304e-004
,,,-1.57500000e-009,-3.45312301e-004
,,,-1.55000000e-009,-2.78124796e-004
,,,-1.52500000e-009,-1.96874790e-004
,,,-1.50000000e-009,-1.17187285e-004
,,,-1.47500000e-009,-4.99997800e-005
,,,-1.45000000e-009,-7.81227704e-006
,,,-1.42500000e-009,2.23517420e-010
,,,-1.40000000e-009,-5.46872804e-005
,,,-1.37500000e-009,-1.45312287e-004
,,,-1.35000000e-009,-2.65624795e-004
,,,-1.32500000e-009,-3.99999805e-004
,,,-1.30000000e-009,-5.35937314e-004
,,,-1.27500000e-009,-6.56249823e-004
,,,-1.25000000e-009,-7.46874829e-004
,,,-1.22500000e-009,-7.99999833e-004
,,,-1.20000000e-009,-8.42187336e-004
,,,-1.17500000e-009,-8.45312336e-004
,,,-1.15000000e-009,-8.14062334e-004
,,,-1.12500000e-009,-7.53124830e-004
,,,-1.10000000e-009,-6.70312324e-004
,,,-1.07500000e-009,-5.78124817e-004
,,,-1.05000000e-009,-4.84374811e-004
,,,-1.02500000e-009,-3.99999805e-004
,,,-1.00000000e-009,-4.04687305e-004
,,,-9.75000000e-010,-4.42187308e-004
,,,-9.50000000e-010,-5.03124812e-004
,,,-9.25000000e-010,-5.78124817e-004
,,,-9.00000000e-010,-6.54687323e-004
,,,-8.75000000e-010,-7.21874828e-004
,,,-8.50000000e-010,-7.71874831e-004
,,,-8.25000000e-010,-7.99999833e-004
,,,-8.00000000e-010,-9.15624841e-004
,,,-7.75000000e-010,-1.02812485e-003
,,,-7.50000000e-010,-1.13593736e-003
,,,-7.25000000e-010,-1.23906236e-003
,,,-7.00000000e-010,-1.33281237e-003
,,,-6.75000000e-010,-1.42031238e-003
,,,-6.50000000e-010,-1.50781238e-003
,,,-6.25000000e-010,-1.59999989e-003
,,,-6.00000000e-010,-1.85624991e-003
,,,-5.75000000e-010,-2.14999993e-003
,,,-5.50000000e-010,-2.47031245e-003
,,,-5.25000000e-010,-2.80468747e-003
,,,-5.00000000e-010,-3.13437500e-003
,,,-4.75000000e-010,-3.44687502e-003
,,,-4.50000000e-010,-3.73593754e-003
,,,-4.25000000e-010,-4.00000006e-003
,,,-4.00000000e-010,-4.40156259e-003
,,,-3.75000000e-010,-4.81718762e-003
,,,-3.50000000e-010,-5.24531265e-003
,,,-3.25000000e-010,-5.68593768e-003
,,,-3.00000000e-010,-6.13750021e-003
,,,-2.75000000e-010,-6.60312524e-003
,,,-2.50000000e-010,-7.08906278e-003
,,,-2.25000000e-010,-7.60000031e-003
,,,-2.00000000e-010,-8.28593786e-003
,,,-1.75000000e-010,-9.04062542e-003
,,,-1.50000000e-010,-9.85312547e-003
,,,-1.25000000e-010,-1.07140630e-002
,,,-1.00000000e-010,-1.16078131e-002
,,,-7.50000000e-011,-1.25250007e-002
,,,-5.00000000e-011,-1.34578132e-002
,,,-2.50000000e-011,-1.44000008e-002
,,,0.00000000e+000,-1.54187509e-002
,,,2.50000000e-011,-1.64765634e-002
,,,5.00000000e-011,-1.75734385e-002
,,,7.50000000e-011,-1.87093761e-002
,,,1.00000000e-010,-1.98828137e-002
,,,1.25000000e-010,-2.10906263e-002
,,,1.50000000e-010,-2.23328139e-002
,,,1.75000000e-010,-2.36000014e-002
,,,2.00000000e-010,-2.48484390e-002
,,,2.25000000e-010,-2.61250016e-002
,,,2.50000000e-010,-2.74218767e-002
,,,2.75000000e-010,-2.87234393e-002
,,,3.00000000e-010,-3.00093769e-002
,,,3.25000000e-010,-3.12625020e-002
,,,3.50000000e-010,-3.24656271e-002
,,,3.75000000e-010,-3.36000022e-002
,,,4.00000000e-010,-3.45015647e-002
,,,4.25000000e-010,-3.53437523e-002
,,,4.50000000e-010,-3.61375023e-002
,,,4.75000000e-010,-3.68921899e-002
,,,5.00000000e-010,-3.76125024e-002
,,,5.25000000e-010,-3.83031275e-002
,,,5.50000000e-010,-3.89671900e-002
,,,5.75000000e-010,-3.96000026e-002
,,,6.00000000e-010,-3.99734401e-002
,,,6.25000000e-010,-4.03328151e-002
,,,6.50000000e-010,-4.06812527e-002
,,,6.75000000e-010,-4.10171902e-002
,,,7.00000000e-010,-4.13296902e-002
,,,7.25000000e-010,-4.16093777e-002
,,,7.50000000e-010,-4.18375027e-002
,,,7.75000000e-010,-4.20000027e-002
,,,8.00000000e-010,-4.18343777e-002
,,,8.25000000e-010,-4.16109402e-002
,,,8.50000000e-010,-4.13421902e-002
,,,8.75000000e-010,-4.10390652e-002
,,,9.00000000e-010,-4.07093777e-002
,,,9.25000000e-010,-4.03593776e-002
,,,9.50000000e-010,-3.99890651e-002
,,,9.75000000e-010,-3.96000026e-002
,,,1.00000000e-009,-3.89703150e-002
,,,1.02500000e-009,-3.83406275e-002
,,,1.05000000e-009,-3.77203149e-002
,,,1.07500000e-009,-3.71156274e-002
,,,1.10000000e-009,-3.65250024e-002
,,,1.12500000e-009,-3.59484398e-002
,,,1.15000000e-009,-3.53750023e-002
,,,1.17500000e-009,-3.48000022e-002
,,,1.20000000e-009,-3.40578147e-002
,,,1.22500000e-009,-3.33046896e-002
,,,1.25000000e-009,-3.25453146e-002
,,,1.27500000e-009,-3.17843770e-002
,,,1.30000000e-009,-3.10265645e-002
,,,1.32500000e-009,-3.02765644e-002
,,,1.35000000e-009,-2.95343769e-002
,,,1.37500000e-009,-2.88000018e-002
,,,1.40000000e-009,-2.80062518e-002
,,,1.42500000e-009,-2.72109392e-002
,,,1.45000000e-009,-2.64218766e-002
,,,1.47500000e-009,-2.56468766e-002
,,,1.50000000e-009,-2.48906265e-002
,,,1.52500000e-009,-2.41625015e-002
,,,1.55000000e-009,-2.34656264e-002
,,,1.57500000e-009,-2.28000014e-002
,,,1.60000000e-009,-2.21656263e-002
,,,1.62500000e-009,-2.15359388e-002
,,,1.65000000e-009,-2.09140638e-002
,,,1.67500000e-009,-2.03000012e-002
,,,1.70000000e-009,-1.96984387e-002
,,,1.72500000e-009,-1.91125011e-002
,,,1.75000000e-009,-1.85468761e-002
,,,1.77500000e-009,-1.80000011e-002
,,,1.80000000e-009,-1.75140635e-002
,,,1.82500000e-009,-1.70171885e-002
,,,1.85000000e-009,-1.65062509e-002
,,,1.87500000e-009,-1.59875009e-002
,,,1.90000000e-009,-1.54687509e-002
,,,1.92500000e-009,-1.49593758e-002
,,,1.95000000e-009,-1.44671883e-002
,,,1.97500000e-009,-1.40000008e-002
,,,2.00000000e-009,-1.36250007e-002
,,,2.02500000e-009,-1.32484382e-002
,,,2.05000000e-009,-1.28718757e-002
,,,2.07500000e-009,-1.25015632e-002
,,,2.10000000e-009,-1.21421881e-002
,,,2.12500000e-009,-1.18015631e-002
,,,2.15000000e-009,-1.14859381e-002
,,,2.17500000e-009,-1.12000006e-002
,,,2.20000000e-009,-1.10046881e-002
,,,2.22500000e-009,-1.08062505e-002
,,,2.25000000e-009,-1.06046880e-002
,,,2.27500000e-009,-1.03984380e-002
,,,2.30000000e-009,-1.01921880e-002
,,,2.32500000e-009,-9.98750048e-003
,,,2.35000000e-009,-9.79062547e-003
,,,2.37500000e-009,-9.60000046e-003
,,,2.40000000e-009,-9.46718795e-003
,,,2.42500000e-009,-9.31250044e-003
,,,2.45000000e-009,-9.13593792e-003
,,,2.47500000e-009,-8.93593791e-003
,,,2.50000000e-009,-8.71718789e-003
,,,2.52500000e-009,-8.48593788e-003
,,,2.55000000e-009,-8.24375036e-003
,,,2.57500000e-009,-8.00000034e-003
,,,2.60000000e-009,-7.79531283e-003
,,,2.62500000e-009,-7.57812531e-003
,,,2.65000000e-009,-7.35468780e-003
,,,2.67500000e-009,-7.13281278e-003
,,,2.70000000e-009,-6.91875027e-003
,,,2.72500000e-009,-6.72187525e-003
,,,2.75000000e-009,-6.54843774e-003
,,,2.77500000e-009,-6.40000023e-003
,,,2.80000000e-009,-6.30468772e-003
,,,2.82500000e-009,-6.21718772e-003
,,,2.85000000e-009,-6.13125021e-003
,,,2.87500000e-009,-6.04218770e-003
,,,2.90000000e-009,-5.94687520e-003
,,,2.92500000e-009,-5.84218769e-003
,,,2.95000000e-009,-5.72812518e-003
,,,2.97500000e-009,-5.60000017e-003
,,,3.00000000e-009,-5.47812516e-003
,,,3.02500000e-009,-5.33437515e-003
,,,3.05000000e-009,-5.17500014e-003
,,,3.07500000e-009,-5.00468763e-003
,,,3.10000000e-009,-4.83437512e-003
,,,3.12500000e-009,-4.67187511e-003
,,,3.15000000e-009,-4.52500010e-003
,,,3.17500000e-009,-4.40000009e-003
,,,3.20000000e-009,-4.31562508e-003
,,,3.22500000e-009,-4.24687508e-003
,,,3.25000000e-009,-4.19218757e-003
,,,3.27500000e-009,-4.14843757e-003
,,,3.30000000e-009,-4.11093757e-003
,,,3.32500000e-009,-4.07656257e-003
,,,3.35000000e-009,-4.04218756e-003
,,,3.37500000e-009,-4.00000006e-003
,,,3.40000000e-009,-3.95937506e-003
,,,3.42500000e-009,-3.89843755e-003
,,,3.45000000e-009,-3.81718755e-003
,,,3.47500000e-009,-3.71562504e-003
,,,3.50000000e-009,-3.59843753e-003
,,,3.52500000e-009,-3.47031252e-003
,,,3.55000000e-009,-3.33593751e-003
,,,3.57500000e-009,-3.20000000e-003
,,,3.60000000e-009,-3.07968749e-003
,,,3.62500000e-009,-2.95937499e-003
,,,3.65000000e-009,-2.84374998e-003
,,,3.67500000e-009,-2.73437497e-003
,,,3.70000000e-009,-2.63437496e-003
,,,3.72500000e-009,-2.54531246e-003
,,,3.75000000e-009,-2.46718745e-003
,,,3.77500000e-009,-2.39999995e-003
,,,3.80000000e-009,-2.35468744e-003
,,,3.82500000e-009,-2.31093744e-003
,,,3.85000000e-009,-2.26718744e-003
,,,3.87500000e-009,-2.22187493e-003
,,,3.90000000e-009,-2.17187493e-003
,,,3.92500000e-009,-2.11874993e-003
,,,3.95000000e-009,-2.06249992e-003
,,,3.97500000e-009,-1.99999992e-003
,,,4.00000000e-009,-1.94687491e-003
,,,4.02500000e-009,-1.88906241e-003
,,,4.05000000e-009,-1.82812491e-003
,,,4.07500000e-009,-1.76718740e-003
,,,4.10000000e-009,-1.71093740e-003
,,,4.12500000e-009,-1.66249989e-003
,,,4.15000000e-009,-1.62499989e-003
,,,4.17500000e-009,-1.59999989e-003
,,,4.20000000e-009,-1.59843739e-003
,,,4.22500000e-009,-1.60312489e-003
,,,4.25000000e-009,-1.61093739e-003
,,,4.27500000e-009,-1.62187489e-003
,,,4.30000000e-009,-1.62812489e-003
,,,4.32500000e-009,-1.62812489e-003
,,,4.35000000e-009,-1.62031239e-003
,,,4.37500000e-009,-1.59999989e-003
,,,4.40000000e-009,-1.57499989e-003
,,,4.42500000e-009,-1.53437489e-003
,,,4.45000000e-009,-1.48281238e-003
,,,4.47500000e-009,-1.42343738e-003
,,,4.50000000e-009,-1.36093737e-003
,,,4.52500000e-009,-1.29843737e-003
,,,4.55000000e-009,-1.24531236e-003
,,,4.57500000e-009,-1.19999986e-003
,,,4.60000000e-009,-1.17968736e-003
,,,4.62500000e-009,-1.16874986e-003
,,,4.65000000e-009,-1.16718736e-003
,,,4.67500000e-009,-1.17343736e-003
,,,4.70000000e-009,-1.18281236e-003
,,,4.72500000e-009,-1.19218736e-003
,,,4.75000000e-009,-1.19843736e-003
,,,4.77500000e-009,-1.19999986e-003
,,,4.80000000e-009,-1.20312486e-003
,,,4.82500000e-009,-1.19999986e-003
,,,4.85000000e-009,-1.19218736e-003
,,,4.87500000e-009,-1.18437486e-003
,,,4.90000000e-009,-1.17812486e-003
,,,4.92500000e-009,-1.17812486e-003
,,,4.95000000e-009,-1.18437486e-003
,,,4.97500000e-009,-1.19999986e-003
,,,5.00000000e-009,-1.22656236e-003
,,,5.02500000e-009,-1.25468737e-003
,,,5.05000000e-009,-1.27968737e-003
,,,5.07500000e-009,-1.29687487e-003
,,,5.10000000e-009,-1.30156237e-003
,,,5.12500000e-009,-1.28749987e-003
,,,5.15000000e-009,-1.25468737e-003
,,,5.17500000e-009,-1.19999986e-003
,,,5.20000000e-009,-1.12968736e-003
,,,5.22500000e-009,-1.04687485e-003
,,,5.25000000e-009,-9.60937344e-004
,,,5.27500000e-009,-8.81249839e-004
,,,5.30000000e-009,-8.17187334e-004
,,,5.32500000e-009,-7.78124832e-004
,,,5.35000000e-009,-7.71874831e-004
,,,5.37500000e-009,-7.99999833e-004
,,,5.40000000e-009,-8.68749838e-004
,,,5.42500000e-009,-9.64062345e-004
,,,5.45000000e-009,-1.08124985e-003
,,,5.47500000e-009,-1.20937486e-003
,,,5.50000000e-009,-1.33593737e-003
,,,5.52500000e-009,-1.44999988e-003
,,,5.55000000e-009,-1.54062489e-003
,,,5.57500000e-009,-1.59999989e-003
,,,5.60000000e-009,-1.61874989e-003
,,,5.62500000e-009,-1.60312489e-003
,,,5.65000000e-009,-1.55624989e-003
,,,5.67500000e-009,-1.48906238e-003
,,,5.70000000e-009,-1.41093738e-003
,,,5.72500000e-009,-1.32968737e-003
,,,5.75000000e-009,-1.25781237e-003
,,,5.77500000e-009,-1.19999986e-003
,,,5.80000000e-009,-1.16249986e-003
,,,5.82500000e-009,-1.14531236e-003
