RawData/CosmicRays/L6_2pt2C_15mV/wave028_Ch3.csv

"Record Length",1000,"Points",-7.72500000e-009,-1.26406237e-003
"Sample Interval",2.50000000e-011,s,-7.70000000e-009,-1.26406237e-003
"Trigger Point",309,"Samples",-7.67500000e-009,-1.25468737e-003
"Trigger Time",4.60464223e-012,s,-7.65000000e-009,-1.23906236e-003
"",,,-7.62500000e-009,-1.22031236e-003
"Horizontal Offset",-7.72500000e-009,s,-7.60000000e-009,-1.19999986e-003
,,,-7.57500000e-009,-1.18124986e-003
,,,-7.55000000e-009,-1.16562486e-003
,,,-7.52500000e-009,-1.15624986e-003
,,,-7.50000000e-009,-1.15312486e-003
,,,-7.47500000e-009,-1.15624986e-003
,,,-7.45000000e-009,-1.16562486e-003
,,,-7.42500000e-009,-1.18124986e-003
,,,-7.40000000e-009,-1.19999986e-003
,,,-7.37500000e-009,-1.21874986e-003
,,,-7.35000000e-009,-1.23437486e-003
,,,-7.32500000e-009,-1.24843736e-003
,,,-7.30000000e-009,-1.25624987e-003
,,,-7.27500000e-009,-1.25781237e-003
,,,-7.25000000e-009,-1.24999986e-003
,,,-7.22500000e-009,-1.22968736e-003
,,,-7.20000000e-009,-1.19999986e-003
,,,-7.17500000e-009,-1.15624986e-003
,,,-7.15000000e-009,-1.10312485e-003
,,,-7.12500000e-009,-1.04687485e-003
,,,-7.10000000e-009,-9.87499846e-004
,,,-7.07500000e-009,-9.29687342e-004
,,,-7.05000000e-009,-8.78124839e-004
,,,-7.02500000e-009,-8.34374836e-004
,,,-7.00000000e-009,-7.99999833e-004
,,,-6.97500000e-009,-7.78124832e-004
,,,-6.95000000e-009,-7.65624831e-004
,,,-6.92500000e-009,-7.64062331e-004
,,,-6.90000000e-009,-7.68749831e-004
,,,-6.87500000e-009,-7.76562331e-004
,,,-6.85000000e-009,-7.87499832e-004
,,,-6.82500000e-009,-7.95312333e-004
,,,-6.80000000e-009,-7.99999833e-004
,,,-6.77500000e-009,-8.06249834e-004
,,,-6.75000000e-009,-8.06249834e-004
,,,-6.72500000e-009,-8.03124833e-004
,,,-6.70000000e-009,-7.98437333e-004
,,,-6.67500000e-009,-7.95312333e-004
,,,-6.65000000e-009,-7.92187333e-004
,,,-6.62500000e-009,-7.95312333e-004
,,,-6.60000000e-009,-7.99999833e-004
,,,-6.57500000e-009,-8.12499834e-004
,,,-6.55000000e-009,-8.26562335e-004
,,,-6.52500000e-009,-8.39062336e-004
,,,-6.50000000e-009,-8.48437337e-004
,,,-6.47500000e-009,-8.51562337e-004
,,,-6.45000000e-009,-8.46874836e-004
,,,-6.42500000e-009,-8.29687335e-004
,,,-6.40000000e-009,-7.99999833e-004
,,,-6.37500000e-009,-7.60937330e-004
,,,-6.35000000e-009,-7.10937327e-004
,,,-6.32500000e-009,-6.53124823e-004
,,,-6.30000000e-009,-5.92187318e-004
,,,-6.27500000e-009,-5.31249814e-004
,,,-6.25000000e-009,-4.76562310e-004
,,,-6.22500000e-009,-4.31249807e-004
,,,-6.20000000e-009,-3.99999805e-004
,,,-6.17500000e-009,-3.95312304e-004
,,,-6.15000000e-009,-4.07812305e-004
,,,-6.12500000e-009,-4.39062308e-004
,,,-6.10000000e-009,-4.87499811e-004
,,,-6.07500000e-009,-5.51562316e-004
,,,-6.05000000e-009,-6.28124821e-004
,,,-6.02500000e-009,-7.12499827e-004
,,,-6.00000000e-009,-7.99999833e-004
,,,-5.97500000e-009,-8.90624840e-004
,,,-5.95000000e-009,-9.74999845e-004
,,,-5.92500000e-009,-1.04999985e-003
,,,-5.90000000e-009,-1.11249986e-003
,,,-5.87500000e-009,-1.15937486e-003
,,,-5.85000000e-009,-1.19062486e-003
,,,-5.82500000e-009,-1.20468736e-003
,,,-5.80000000e-009,-1.19999986e-003
,,,-5.77500000e-009,-1.17812486e-003
,,,-5.75000000e-009,-1.14374986e-003
,,,-5.72500000e-009,-1.09531235e-003
,,,-5.70000000e-009,-1.04062485e-003
,,,-5.67500000e-009,-9.79687346e-004
,,,-5.65000000e-009,-9.17187341e-004
,,,-5.62500000e-009,-8.56249837e-004
,,,-5.60000000e-009,-7.99999833e-004
,,,-5.57500000e-009,-7.54687330e-004
,,,-5.55000000e-009,-7.18749827e-004
,,,-5.52500000e-009,-6.96874826e-004
,,,-5.50000000e-009,-6.89062325e-004
,,,-5.47500000e-009,-6.96874826e-004
,,,-5.45000000e-009,-7.18749827e-004
,,,-5.42500000e-009,-7.54687330e-004
,,,-5.40000000e-009,-7.99999833e-004
,,,-5.37500000e-009,-8.56249837e-004
,,,-5.35000000e-009,-9.15624841e-004
,,,-5.32500000e-009,-9.76562346e-004
,,,-5.30000000e-009,-1.03437485e-003
,,,-5.27500000e-009,-1.08906235e-003
,,,-5.25000000e-009,-1.13593736e-003
,,,-5.22500000e-009,-1.17343736e-003
,,,-5.20000000e-009,-1.19999986e-003
,,,-5.17500000e-009,-1.21249986e-003
,,,-5.15000000e-009,-1.21718736e-003
,,,-5.12500000e-009,-1.21406236e-003
,,,-5.10000000e-009,-1.20937486e-003
,,,-5.07500000e-009,-1.20312486e-003
,,,-5.05000000e-009,-1.19843736e-003
,,,-5.02500000e-009,-1.19687486e-003
,,,-5.00000000e-009,-1.19999986e-003
,,,-4.97500000e-009,-1.20468736e-003
,,,-4.95000000e-009,-1.21249986e-003
,,,-4.92500000e-009,-1.22187486e-003
,,,-4.90000000e-009,-1.23124986e-003
,,,-4.87500000e-009,-1.23593736e-003
,,,-4.85000000e-009,-1.23437486e-003
,,,-4.82500000e-009,-1.22343736e-003
,,,-4.80000000e-009,-1.19999986e-003
,,,-4.77500000e-009,-1.16406236e-003
,,,-4.75000000e-009,-1.11718736e-003
,,,-4.72500000e-009,-1.06093735e-003
,,,-4.70000000e-009,-1.00312485e-003
,,,-4.67500000e-009,-9.43749843e-004
,,,-4.65000000e-009,-8.87499839e-004
,,,-4.62500000e-009,-8.39062336e-004
,,,-4.60000000e-009,-7.99999833e-004
,,,-4.57500000e-009,-7.71874831e-004
,,,-4.55000000e-009,-7.56249830e-004
,,,-4.52500000e-009,-7.51562330e-004
,,,-4.50000000e-009,-7.54687330e-004
,,,-4.47500000e-009,-7.64062331e-004
,,,-4.45000000e-009,-7.76562331e-004
,,,-4.42500000e-009,-7.90624832e-004
,,,-4.40000000e-009,-7.99999833e-004
,,,-4.37500000e-009,-8.07812334e-004
,,,-4.35000000e-009,-8.10937334e-004
,,,-4.32500000e-009,-8.10937334e-004
,,,-4.30000000e-009,-8.07812334e-004
,,,-4.27500000e-009,-8.03124833e-004
,,,-4.25000000e-009,-7.99999833e-004
,,,-4.22500000e-009,-7.98437333e-004
,,,-4.20000000e-009,-7.99999833e-004
,,,-4.17500000e-009,-8.04687333e-004
,,,-4.15000000e-009,-8.12499834e-004
,,,-4.12500000e-009,-8.18749834e-004
,,,-4.10000000e-009,-8.24999835e-004
,,,-4.07500000e-009,-8.28124835e-004
,,,-4.05000000e-009,-8.26562335e-004
,,,-4.02500000e-009,-8.17187334e-004
,,,-4.00000000e-009,-7.99999833e-004
,,,-3.97500000e-009,-7.76562331e-004
,,,-3.95000000e-009,-7.42187329e-004
,,,-3.92500000e-009,-6.98437326e-004
,,,-3.90000000e-009,-6.46874822e-004
,,,-3.87500000e-009,-5.89062318e-004
,,,-3.85000000e-009,-5.26562314e-004
,,,-3.82500000e-009,-4.62499809e-004
,,,-3.80000000e-009,-3.99999805e-004
,,,-3.77500000e-009,-3.51562301e-004
,,,-3.75000000e-009,-3.10937298e-004
,,,-3.72500000e-009,-2.84374797e-004
,,,-3.70000000e-009,-2.73437296e-004
,,,-3.67500000e-009,-2.78124796e-004
,,,-3.65000000e-009,-3.03124798e-004
,,,-3.62500000e-009,-3.43749801e-004
,,,-3.60000000e-009,-3.99999805e-004
,,,-3.57500000e-009,-4.73437310e-004
,,,-3.55000000e-009,-5.49999815e-004
,,,-3.52500000e-009,-6.26562321e-004
,,,-3.50000000e-009,-6.96874826e-004
,,,-3.47500000e-009,-7.53124830e-004
,,,-3.45000000e-009,-7.92187333e-004
,,,-3.42500000e-009,-8.07812334e-004
,,,-3.40000000e-009,-7.99999833e-004
,,,-3.37500000e-009,-7.70312331e-004
,,,-3.35000000e-009,-7.21874828e-004
,,,-3.32500000e-009,-6.60937323e-004
,,,-3.30000000e-009,-5.92187318e-004
,,,-3.27500000e-009,-5.24999814e-004
,,,-3.25000000e-009,-4.67187310e-004
,,,-3.22500000e-009,-4.23437306e-004
,,,-3.20000000e-009,-3.99999805e-004
,,,-3.17500000e-009,-4.04687305e-004
,,,-3.15000000e-009,-4.29687307e-004
,,,-3.12500000e-009,-4.74999810e-004
,,,-3.10000000e-009,-5.35937314e-004
,,,-3.07500000e-009,-6.04687319e-004
,,,-3.05000000e-009,-6.76562324e-004
,,,-3.02500000e-009,-7.43749829e-004
,,,-3.00000000e-009,-7.99999833e-004
,,,-2.97500000e-009,-8.46874836e-004
,,,-2.95000000e-009,-8.76562339e-004
,,,-2.92500000e-009,-8.89062339e-004
,,,-2.90000000e-009,-8.87499839e-004
,,,-2.87500000e-009,-8.74999838e-004
,,,-2.85000000e-009,-8.53124837e-004
,,,-2.82500000e-009,-8.26562335e-004
,,,-2.80000000e-009,-7.99999833e-004
,,,-2.77500000e-009,-7.78124832e-004
,,,-2.75000000e-009,-7.62499830e-004
,,,-2.72500000e-009,-7.53124830e-004
,,,-2.70000000e-009,-7.53124830e-004
,,,-2.67500000e-009,-7.59374830e-004
,,,-2.65000000e-009,-7.70312331e-004
,,,-2.62500000e-009,-7.85937332e-004
,,,-2.60000000e-009,-7.99999833e-004
,,,-2.57500000e-009,-8.15624834e-004
,,,-2.55000000e-009,-8.28124835e-004
,,,-2.52500000e-009,-8.35937336e-004
,,,-2.50000000e-009,-8.40624836e-004
,,,-2.47500000e-009,-8.37499836e-004
,,,-2.45000000e-009,-8.29687335e-004
,,,-2.42500000e-009,-8.17187334e-004
,,,-2.40000000e-009,-7.99999833e-004
,,,-2.37500000e-009,-7.84374832e-004
,,,-2.35000000e-009,-7.67187331e-004
,,,-2.32500000e-009,-7.54687330e-004
,,,-2.30000000e-009,-7.46874829e-004
,,,-2.27500000e-009,-7.45312329e-004
,,,-2.25000000e-009,-7.53124830e-004
,,,-2.22500000e-009,-7.71874831e-004
,,,-2.20000000e-009,-7.99999833e-004
,,,-2.17500000e-009,-8.40624836e-004
,,,-2.15000000e-009,-8.87499839e-004
,,,-2.12500000e-009,-9.42187343e-004
,,,-2.10000000e-009,-9.99999847e-004
,,,-2.07500000e-009,-1.05937485e-003
,,,-2.05000000e-009,-1.11406236e-003
,,,-2.02500000e-009,-1.16093736e-003
,,,-2.00000000e-009,-1.19999986e-003
,,,-1.97500000e-009,-1.22968736e-003
,,,-1.95000000e-009,-1.24843736e-003
,,,-1.92500000e-009,-1.25624987e-003
,,,-1.90000000e-009,-1.25468737e-003
,,,-1.87500000e-009,-1.24687486e-003
,,,-1.85000000e-009,-1.23437486e-003
,,,-1.82500000e-009,-1.21718736e-003
,,,-1.80000000e-009,-1.19999986e-003
,,,-1.77500000e-009,-1.18593736e-003
,,,-1.75000000e-009,-1.17499986e-003
,,,-1.72500000e-009,-1.16874986e-003
,,,-1.70000000e-009,-1.16874986e-003
,,,-1.67500000e-009,-1.17187486e-003
,,,-1.65000000e-009,-1.17968736e-003
,,,-1.62500000e-009,-1.18906236e-003
,,,-1.60000000e-009,-1.19999986e-003
,,,-1.57500000e-009,-1.21562486e-003
,,,-1.55000000e-009,-1.22968736e-003
,,,-1.52500000e-009,-1.24062486e-003
,,,-1.50000000e-009,-1.24687486e-003
,,,-1.47500000e-009,-1.24687486e-003
,,,-1.45000000e-009,-1.23906236e-003
,,,-1.42500000e-009,-1.22343736e-003
,,,-1.40000000e-009,-1.19999986e-003
,,,-1.37500000e-009,-1.18593736e-003
,,,-1.35000000e-009,-1.17343736e-003
,,,-1.32500000e-009,-1.16249986e-003
,,,-1.30000000e-009,-1.15624986e-003
,,,-1.27500000e-009,-1.15624986e-003
,,,-1.25000000e-009,-1.16249986e-003
,,,-1.22500000e-009,-1.17812486e-003
,,,-1.20000000e-009,-1.19999986e-003
,,,-1.17500000e-009,-1.26718737e-003
,,,-1.15000000e-009,-1.34218737e-003
,,,-1.12500000e-009,-1.42187488e-003
,,,-1.10000000e-009,-1.49687488e-003
,,,-1.07500000e-009,-1.55781239e-003
,,,-1.05000000e-009,-1.59687489e-003
,,,-1.02500000e-009,-1.61249989e-003
,,,-1.00000000e-009,-1.59999989e-003
,,,-9.75000000e-010,-1.62968739e-003
,,,-9.50000000e-010,-1.64843739e-003
,,,-9.25000000e-010,-1.65624989e-003
,,,-9.00000000e-010,-1.65624989e-003
,,,-8.75000000e-010,-1.64687489e-003
,,,-8.50000000e-010,-1.63281239e-003
,,,-8.25000000e-010,-1.61562489e-003
,,,-8.00000000e-010,-1.59999989e-003
,,,-7.75000000e-010,-1.69687490e-003
,,,-7.50000000e-010,-1.81718741e-003
,,,-7.25000000e-010,-1.94843741e-003
,,,-7.00000000e-010,-2.08124992e-003
,,,-6.75000000e-010,-2.19999993e-003
,,,-6.50000000e-010,-2.29531244e-003
,,,-6.25000000e-010,-2.36249994e-003
,,,-6.00000000e-010,-2.39999995e-003
,,,-5.75000000e-010,-2.54843746e-003
,,,-5.50000000e-010,-2.70624997e-003
,,,-5.25000000e-010,-2.87343748e-003
,,,-5.00000000e-010,-3.05468749e-003
,,,-4.75000000e-010,-3.25156251e-003
,,,-4.50000000e-010,-3.47031252e-003
,,,-4.25000000e-010,-3.71718754e-003
,,,-4.00000000e-010,-4.00000006e-003
,,,-3.75000000e-010,-4.46093759e-003
,,,-3.50000000e-010,-4.98906263e-003
,,,-3.25000000e-010,-5.57187517e-003
,,,-3.00000000e-010,-6.19531271e-003
,,,-2.75000000e-010,-6.84218776e-003
,,,-2.50000000e-010,-7.49843781e-003
,,,-2.25000000e-010,-8.15312535e-003
,,,-2.00000000e-010,-8.80000040e-003
,,,-1.75000000e-010,-9.52812545e-003
,,,-1.50000000e-010,-1.02703130e-002
,,,-1.25000000e-010,-1.10312506e-002
,,,-1.00000000e-010,-1.18109381e-002
,,,-7.50000000e-011,-1.26140632e-002
,,,-5.00000000e-011,-1.34437507e-002
,,,-2.50000000e-011,-1.43046883e-002
,,,0.00000000e+000,-1.52000009e-002
,,,2.50000000e-011,-1.61500009e-002
,,,5.00000000e-011,-1.71500010e-002
,,,7.50000000e-011,-1.81937511e-002
,,,1.00000000e-010,-1.92703136e-002
,,,1.25000000e-010,-2.03656262e-002
,,,1.50000000e-010,-2.14609388e-002
,,,1.75000000e-010,-2.25437514e-002
,,,2.00000000e-010,-2.36000014e-002
,,,2.25000000e-010,-2.45421890e-002
,,,2.50000000e-010,-2.54546891e-002
,,,2.75000000e-010,-2.63437516e-002
,,,3.00000000e-010,-2.72062517e-002
,,,3.25000000e-010,-2.80468768e-002
,,,3.50000000e-010,-2.88609393e-002
,,,3.75000000e-010,-2.96453144e-002
,,,4.00000000e-010,-3.04000019e-002
,,,4.25000000e-010,-3.09609395e-002
,,,4.50000000e-010,-3.14968770e-002
,,,4.75000000e-010,-3.20093770e-002
,,,5.00000000e-010,-3.24968771e-002
,,,5.25000000e-010,-3.29500021e-002
,,,5.50000000e-010,-3.33593771e-002
,,,5.75000000e-010,-3.37125022e-002
,,,6.00000000e-010,-3.40000022e-002
,,,6.25000000e-010,-3.40140647e-002
,,,6.50000000e-010,-3.39765647e-002
,,,6.75000000e-010,-3.39000022e-002
,,,7.00000000e-010,-3.37953147e-002
,,,7.25000000e-010,-3.36687522e-002
,,,7.50000000e-010,-3.35265646e-002
,,,7.75000000e-010,-3.33703146e-002
,,,8.00000000e-010,-3.32000021e-002
,,,8.25000000e-010,-3.28234396e-002
,,,8.50000000e-010,-3.24484396e-002
,,,8.75000000e-010,-3.20859395e-002
,,,9.00000000e-010,-3.17359395e-002
,,,9.25000000e-010,-3.13984395e-002
,,,9.50000000e-010,-3.10671895e-002
,,,9.75000000e-010,-3.07375020e-002
,,,1.00000000e-009,-3.04000019e-002
,,,1.02500000e-009,-2.98906269e-002
,,,1.05000000e-009,-2.93750019e-002
,,,1.07500000e-009,-2.88562518e-002
,,,1.10000000e-009,-2.83421893e-002
,,,1.12500000e-009,-2.78390642e-002
,,,1.15000000e-009,-2.73468767e-002
,,,1.17500000e-009,-2.68687517e-002
,,,1.20000000e-009,-2.64000016e-002
,,,1.22500000e-009,-2.58453141e-002
,,,1.25000000e-009,-2.52906266e-002
,,,1.27500000e-009,-2.47375015e-002
,,,1.30000000e-009,-2.41875015e-002
,,,1.32500000e-009,-2.36390639e-002
,,,1.35000000e-009,-2.30937514e-002
,,,1.37500000e-009,-2.25484389e-002
,,,1.40000000e-009,-2.20000013e-002
,,,1.42500000e-009,-2.14093763e-002
,,,1.45000000e-009,-2.08015637e-002
,,,1.47500000e-009,-2.01796887e-002
,,,1.50000000e-009,-1.95546887e-002
,,,1.52500000e-009,-1.89375011e-002
,,,1.55000000e-009,-1.83343761e-002
,,,1.57500000e-009,-1.77531260e-002
,,,1.60000000e-009,-1.72000010e-002
,,,1.62500000e-009,-1.66843760e-002
,,,1.65000000e-009,-1.61718759e-002
,,,1.67500000e-009,-1.56625009e-002
,,,1.70000000e-009,-1.51562508e-002
,,,1.72500000e-009,-1.46546883e-002
,,,1.75000000e-009,-1.41593758e-002
,,,1.77500000e-009,-1.36734382e-002
,,,1.80000000e-009,-1.32000007e-002
,,,1.82500000e-009,-1.27765632e-002
,,,1.85000000e-009,-1.23453132e-002
,,,1.87500000e-009,-1.19093756e-002
,,,1.90000000e-009,-1.14781256e-002
,,,1.92500000e-009,-1.10609381e-002
,,,1.95000000e-009,-1.06687505e-002
,,,1.97500000e-009,-1.03140630e-002
,,,2.00000000e-009,-1.00000005e-002
,,,2.02500000e-009,-9.77968797e-003
,,,2.05000000e-009,-9.57500045e-003
,,,2.07500000e-009,-9.37812544e-003
,,,2.10000000e-009,-9.18437543e-003
,,,2.12500000e-009,-8.99375041e-003
,,,2.15000000e-009,-8.80000040e-003
,,,2.17500000e-009,-8.60312539e-003
,,,2.20000000e-009,-8.40000037e-003
,,,2.22500000e-009,-8.23437536e-003
,,,2.25000000e-009,-8.03593785e-003
,,,2.27500000e-009,-7.80312533e-003
,,,2.30000000e-009,-7.54375031e-003
,,,2.32500000e-009,-7.26250029e-003
,,,2.35000000e-009,-6.97187527e-003
,,,2.37500000e-009,-6.68281275e-003
,,,2.40000000e-009,-6.40000023e-003
,,,2.42500000e-009,-6.17812521e-003
,,,2.45000000e-009,-5.95625020e-003
,,,2.47500000e-009,-5.73750018e-003
,,,2.50000000e-009,-5.52500017e-003
,,,2.52500000e-009,-5.32187515e-003
,,,2.55000000e-009,-5.13125014e-003
,,,2.57500000e-009,-4.95781263e-003
,,,2.60000000e-009,-4.80000012e-003
,,,2.62500000e-009,-4.70000011e-003
,,,2.65000000e-009,-4.60156260e-003
,,,2.67500000e-009,-4.50000009e-003
,,,2.70000000e-009,-4.39843759e-003
,,,2.72500000e-009,-4.29375008e-003
,,,2.75000000e-009,-4.19218757e-003
,,,2.77500000e-009,-4.09375007e-003
,,,2.80000000e-009,-4.00000006e-003
,,,2.82500000e-009,-3.94531256e-003
,,,2.85000000e-009,-3.88750005e-003
,,,2.87500000e-009,-3.82812505e-003
,,,2.90000000e-009,-3.77031254e-003
,,,2.92500000e-009,-3.71718754e-003
,,,2.95000000e-009,-3.67031254e-003
,,,2.97500000e-009,-3.63125003e-003
,,,3.00000000e-009,-3.60000003e-003
,,,3.02500000e-009,-3.59375003e-003
,,,3.05000000e-009,-3.58125003e-003
,,,3.07500000e-009,-3.55937503e-003
,,,3.10000000e-009,-3.52187503e-003
,,,3.12500000e-009,-3.46875002e-003
,,,3.15000000e-009,-3.39687502e-003
,,,3.17500000e-009,-3.30781251e-003
,,,3.20000000e-009,-3.20000000e-003
,,,3.22500000e-009,-3.09531250e-003
,,,3.25000000e-009,-2.97656249e-003
,,,3.27500000e-009,-2.84999998e-003
,,,3.30000000e-009,-2.72343747e-003
,,,3.32500000e-009,-2.60781246e-003
,,,3.35000000e-009,-2.51093745e-003
,,,3.37500000e-009,-2.44062495e-003
,,,3.40000000e-009,-2.39999995e-003
,,,3.42500000e-009,-2.40624995e-003
,,,3.45000000e-009,-2.43593745e-003
,,,3.47500000e-009,-2.48593745e-003
,,,3.50000000e-009,-2.55156246e-003
,,,3.52500000e-009,-2.62187496e-003
,,,3.55000000e-009,-2.69218747e-003
,,,3.57500000e-009,-2.75468747e-003
,,,3.60000000e-009,-2.79999997e-003
,,,3.62500000e-009,-2.82656248e-003
,,,3.65000000e-009,-2.82499998e-003
,,,3.67500000e-009,-2.79687497e-003
,,,3.70000000e-009,-2.74374997e-003
,,,3.72500000e-009,-2.67187497e-003
,,,3.75000000e-009,-2.58749996e-003
,,,3.77500000e-009,-2.49374995e-003
,,,3.80000000e-009,-2.39999995e-003
,,,3.82500000e-009,-2.31093744e-003
,,,3.85000000e-009,-2.22812493e-003
,,,3.87500000e-009,-2.15624993e-003
,,,3.90000000e-009,-2.09687492e-003
,,,3.92500000e-009,-2.05156242e-003
,,,3.95000000e-009,-2.02187492e-003
,,,3.97500000e-009,-2.00468742e-003
,,,4.00000000e-009,-1.99999992e-003
,,,4.02500000e-009,-2.00468742e-003
,,,4.05000000e-009,-2.01093742e-003
,,,4.07500000e-009,-2.01874992e-003
,,,4.10000000e-009,-2.02499992e-003
,,,4.12500000e-009,-2.02656242e-003
,,,4.15000000e-009,-2.02499992e-003
,,,4.17500000e-009,-2.01562492e-003
,,,4.20000000e-009,-1.99999992e-003
,,,4.22500000e-009,-1.97499992e-003
,,,4.25000000e-009,-1.93906241e-003
,,,4.27500000e-009,-1.89374991e-003
,,,4.30000000e-009,-1.84218741e-003
,,,4.32500000e-009,-1.78437490e-003
,,,4.35000000e-009,-1.72343740e-003
,,,4.37500000e-009,-1.66093739e-003
,,,4.40000000e-009,-1.59999989e-003
,,,4.42500000e-009,-1.54374989e-003
,,,4.45000000e-009,-1.48906238e-003
,,,4.47500000e-009,-1.43749988e-003
,,,4.50000000e-009,-1.38906237e-003
,,,4.52500000e-009,-1.34062487e-003
,,,4.55000000e-009,-1.29531237e-003
,,,4.57500000e-009,-1.24843736e-003
,,,4.60000000e-009,-1.19999986e-003
,,,4.62500000e-009,-1.15624986e-003
,,,4.65000000e-009,-1.10937486e-003
,,,4.67500000e-009,-1.05937485e-003
,,,4.70000000e-009,-1.00781235e-003
,,,4.72500000e-009,-9.54687344e-004
,,,4.75000000e-009,-9.01562340e-004
,,,4.77500000e-009,-8.49999837e-004
,,,4.80000000e-009,-7.99999833e-004
,,,4.82500000e-009,-7.60937330e-004
,,,4.85000000e-009,-7.20312327e-004
,,,4.87500000e-009,-6.78124824e-004
,,,4.90000000e-009,-6.32812321e-004
,,,4.92500000e-009,-5.81249818e-004
,,,4.95000000e-009,-5.24999814e-004
,,,4.97500000e-009,-4.64062309e-004
,,,5.00000000e-009,-3.99999805e-004
,,,5.02500000e-009,-3.49999801e-004
,,,5.05000000e-009,-3.03124798e-004
,,,5.07500000e-009,-2.67187295e-004
,,,5.10000000e-009,-2.46874794e-004
,,,5.12500000e-009,-2.46874794e-004
,,,5.15000000e-009,-2.71874796e-004
,,,5.17500000e-009,-3.23437299e-004
,,,5.20000000e-009,-3.99999805e-004
,,,5.22500000e-009,-5.09374813e-004
,,,5.25000000e-009,-6.32812321e-004
,,,5.27500000e-009,-7.62499830e-004
,,,5.30000000e-009,-8.87499839e-004
,,,5.32500000e-009,-1.00312485e-003
,,,5.35000000e-009,-1.09687485e-003
,,,5.37500000e-009,-1.16406236e-003
,,,5.40000000e-009,-1.19999986e-003
,,,5.42500000e-009,-1.20468736e-003
,,,5.45000000e-009,-1.17656236e-003
,,,5.47500000e-009,-1.12499986e-003
,,,5.50000000e-009,-1.05468735e-003
,,,5.52500000e-009,-9.78124846e-004
,,,5.55000000e-009,-9.04687341e-004
,,,5.57500000e-009,-8.43749836e-004
,,,5.60000000e-009,-7.99999833e-004
,,,5.62500000e-009,-7.81249832e-004
,,,5.65000000e-009,-7.87499832e-004
,,,5.67500000e-009,-8.20312335e-004
,,,5.70000000e-009,-8.73437338e-004
,,,5.72500000e-009,-9.46874844e-004
,,,5.75000000e-009,-1.02968735e-003
,,,5.77500000e-009,-1.11718736e-003
,,,5.80000000e-009,-1.19999986e-003
