RawData/CosmicRays/L6_2pt2C_15mV/wave009_Ch3.csv

"Record Length",1000,"Points",-7.72500000e-009,-8.43749836e-004
"Sample Interval",2.50000000e-011,s,-7.70000000e-009,-8.31249835e-004
"Trigger Point",309,"Samples",-7.67500000e-009,-7.99999833e-004
"Trigger Time",1.35506859e-011,s,-7.65000000e-009,-7.53124830e-004
"",,,-7.62500000e-009,-6.90624825e-004
"Horizontal Offset",-7.72500000e-009,s,-7.60000000e-009,-6.21874820e-004
,,,-7.57500000e-009,-5.51562316e-004
,,,-7.55000000e-009,-4.87499811e-004
,,,-7.52500000e-009,-4.37499807e-004
,,,-7.50000000e-009,-4.06249805e-004
,,,-7.47500000e-009,-3.99999805e-004
,,,-7.45000000e-009,-4.20312306e-004
,,,-7.42500000e-009,-4.62499809e-004
,,,-7.40000000e-009,-5.20312313e-004
,,,-7.37500000e-009,-5.87499818e-004
,,,-7.35000000e-009,-6.56249823e-004
,,,-7.32500000e-009,-7.20312327e-004
,,,-7.30000000e-009,-7.70312331e-004
,,,-7.27500000e-009,-7.99999833e-004
,,,-7.25000000e-009,-8.04687333e-004
,,,-7.22500000e-009,-7.85937332e-004
,,,-7.20000000e-009,-7.45312329e-004
,,,-7.17500000e-009,-6.87499825e-004
,,,-7.15000000e-009,-6.18749820e-004
,,,-7.12500000e-009,-5.42187315e-004
,,,-7.10000000e-009,-4.68749810e-004
,,,-7.07500000e-009,-3.99999805e-004
,,,-7.05000000e-009,-3.46874801e-004
,,,-7.02500000e-009,-3.10937298e-004
,,,-7.00000000e-009,-2.90624797e-004
,,,-6.97500000e-009,-2.87499797e-004
,,,-6.95000000e-009,-3.01562298e-004
,,,-6.92500000e-009,-3.26562300e-004
,,,-6.90000000e-009,-3.60937302e-004
,,,-6.87500000e-009,-3.99999805e-004
,,,-6.85000000e-009,-4.40624808e-004
,,,-6.82500000e-009,-4.76562310e-004
,,,-6.80000000e-009,-4.99999812e-004
,,,-6.77500000e-009,-5.12499813e-004
,,,-6.75000000e-009,-5.07812312e-004
,,,-6.72500000e-009,-4.87499811e-004
,,,-6.70000000e-009,-4.51562308e-004
,,,-6.67500000e-009,-3.99999805e-004
,,,-6.65000000e-009,-3.42187301e-004
,,,-6.62500000e-009,-2.76562296e-004
,,,-6.60000000e-009,-2.09374791e-004
,,,-6.57500000e-009,-1.45312287e-004
,,,-6.55000000e-009,-8.74997827e-005
,,,-6.52500000e-009,-4.21872795e-005
,,,-6.50000000e-009,-1.24997774e-005
,,,-6.47500000e-009,2.23517420e-010
,,,-6.45000000e-009,-1.56247776e-005
,,,-6.42500000e-009,-4.99997800e-005
,,,-6.40000000e-009,-9.84372835e-005
,,,-6.37500000e-009,-1.57812288e-004
,,,-6.35000000e-009,-2.23437292e-004
,,,-6.32500000e-009,-2.89062297e-004
,,,-6.30000000e-009,-3.49999801e-004
,,,-6.27500000e-009,-3.99999805e-004
,,,-6.25000000e-009,-4.42187308e-004
,,,-6.22500000e-009,-4.70312310e-004
,,,-6.20000000e-009,-4.82812311e-004
,,,-6.17500000e-009,-4.81249811e-004
,,,-6.15000000e-009,-4.68749810e-004
,,,-6.12500000e-009,-4.49999808e-004
,,,-6.10000000e-009,-4.24999807e-004
,,,-6.07500000e-009,-3.99999805e-004
,,,-6.05000000e-009,-3.79687303e-004
,,,-6.02500000e-009,-3.65624802e-004
,,,-6.00000000e-009,-3.56249802e-004
,,,-5.97500000e-009,-3.53124801e-004
,,,-5.95000000e-009,-3.56249802e-004
,,,-5.92500000e-009,-3.65624802e-004
,,,-5.90000000e-009,-3.81249803e-004
,,,-5.87500000e-009,-3.99999805e-004
,,,-5.85000000e-009,-4.29687307e-004
,,,-5.82500000e-009,-4.64062309e-004
,,,-5.80000000e-009,-5.04687312e-004
,,,-5.77500000e-009,-5.51562316e-004
,,,-5.75000000e-009,-6.04687319e-004
,,,-5.72500000e-009,-6.64062323e-004
,,,-5.70000000e-009,-7.29687328e-004
,,,-5.67500000e-009,-7.99999833e-004
,,,-5.65000000e-009,-8.74999838e-004
,,,-5.62500000e-009,-9.48437344e-004
,,,-5.60000000e-009,-1.01718735e-003
,,,-5.57500000e-009,-1.08124985e-003
,,,-5.55000000e-009,-1.13437486e-003
,,,-5.52500000e-009,-1.17343736e-003
,,,-5.50000000e-009,-1.19531236e-003
,,,-5.47500000e-009,-1.19999986e-003
,,,-5.45000000e-009,-1.17968736e-003
,,,-5.42500000e-009,-1.14218736e-003
,,,-5.40000000e-009,-1.09374985e-003
,,,-5.37500000e-009,-1.03437485e-003
,,,-5.35000000e-009,-9.71874845e-004
,,,-5.32500000e-009,-9.09374841e-004
,,,-5.30000000e-009,-8.51562337e-004
,,,-5.27500000e-009,-7.99999833e-004
,,,-5.25000000e-009,-7.59374830e-004
,,,-5.22500000e-009,-7.31249828e-004
,,,-5.20000000e-009,-7.15624827e-004
,,,-5.17500000e-009,-7.14062327e-004
,,,-5.15000000e-009,-7.23437328e-004
,,,-5.12500000e-009,-7.42187329e-004
,,,-5.10000000e-009,-7.68749831e-004
,,,-5.07500000e-009,-7.99999833e-004
,,,-5.05000000e-009,-8.34374836e-004
,,,-5.02500000e-009,-8.73437338e-004
,,,-5.00000000e-009,-9.15624841e-004
,,,-4.97500000e-009,-9.62499845e-004
,,,-4.95000000e-009,-1.01562485e-003
,,,-4.92500000e-009,-1.07343735e-003
,,,-4.90000000e-009,-1.13593736e-003
,,,-4.87500000e-009,-1.19999986e-003
,,,-4.85000000e-009,-1.25624987e-003
,,,-4.82500000e-009,-1.30468737e-003
,,,-4.80000000e-009,-1.34062487e-003
,,,-4.77500000e-009,-1.36093737e-003
,,,-4.75000000e-009,-1.35937487e-003
,,,-4.72500000e-009,-1.33437487e-003
,,,-4.70000000e-009,-1.28124987e-003
,,,-4.67500000e-009,-1.19999986e-003
,,,-4.65000000e-009,-1.09687485e-003
,,,-4.62500000e-009,-9.78124846e-004
,,,-4.60000000e-009,-8.51562337e-004
,,,-4.57500000e-009,-7.24999828e-004
,,,-4.55000000e-009,-6.09374820e-004
,,,-4.52500000e-009,-5.12499813e-004
,,,-4.50000000e-009,-4.42187308e-004
,,,-4.47500000e-009,-3.99999805e-004
,,,-4.45000000e-009,-3.96874805e-004
,,,-4.42500000e-009,-4.21874806e-004
,,,-4.40000000e-009,-4.71874810e-004
,,,-4.37500000e-009,-5.37499815e-004
,,,-4.35000000e-009,-6.12499820e-004
,,,-4.32500000e-009,-6.87499825e-004
,,,-4.30000000e-009,-7.53124830e-004
,,,-4.27500000e-009,-7.99999833e-004
,,,-4.25000000e-009,-8.28124835e-004
,,,-4.22500000e-009,-8.29687335e-004
,,,-4.20000000e-009,-8.03124833e-004
,,,-4.17500000e-009,-7.53124830e-004
,,,-4.15000000e-009,-6.81249825e-004
,,,-4.12500000e-009,-5.93749819e-004
,,,-4.10000000e-009,-4.98437312e-004
,,,-4.07500000e-009,-3.99999805e-004
,,,-4.05000000e-009,-3.12499799e-004
,,,-4.02500000e-009,-2.40624794e-004
,,,-4.00000000e-009,-1.92187290e-004
,,,-3.97500000e-009,-1.70312289e-004
,,,-3.95000000e-009,-1.79687289e-004
,,,-3.92500000e-009,-2.23437292e-004
,,,-3.90000000e-009,-2.96874797e-004
,,,-3.87500000e-009,-3.99999805e-004
,,,-3.85000000e-009,-5.29687314e-004
,,,-3.82500000e-009,-6.70312324e-004
,,,-3.80000000e-009,-8.10937334e-004
,,,-3.77500000e-009,-9.42187343e-004
,,,-3.75000000e-009,-1.05312485e-003
,,,-3.72500000e-009,-1.13749986e-003
,,,-3.70000000e-009,-1.18749986e-003
,,,-3.67500000e-009,-1.19999986e-003
,,,-3.65000000e-009,-1.17812486e-003
,,,-3.62500000e-009,-1.12656236e-003
,,,-3.60000000e-009,-1.05624985e-003
,,,-3.57500000e-009,-9.76562346e-004
,,,-3.55000000e-009,-9.01562340e-004
,,,-3.52500000e-009,-8.42187336e-004
,,,-3.50000000e-009,-8.06249834e-004
,,,-3.47500000e-009,-7.99999833e-004
,,,-3.45000000e-009,-8.26562335e-004
,,,-3.42500000e-009,-8.81249839e-004
,,,-3.40000000e-009,-9.56249844e-004
,,,-3.37500000e-009,-1.03749985e-003
,,,-3.35000000e-009,-1.11562486e-003
,,,-3.32500000e-009,-1.17499986e-003
,,,-3.30000000e-009,-1.20624986e-003
,,,-3.27500000e-009,-1.19999986e-003
,,,-3.25000000e-009,-1.15312486e-003
,,,-3.22500000e-009,-1.06874985e-003
,,,-3.20000000e-009,-9.56249844e-004
,,,-3.17500000e-009,-8.26562335e-004
,,,-3.15000000e-009,-6.93749826e-004
,,,-3.12500000e-009,-5.70312317e-004
,,,-3.10000000e-009,-4.70312310e-004
,,,-3.07500000e-009,-3.99999805e-004
,,,-3.05000000e-009,-3.73437303e-004
,,,-3.02500000e-009,-3.84374804e-004
,,,-3.00000000e-009,-4.29687307e-004
,,,-2.97500000e-009,-4.98437312e-004
,,,-2.95000000e-009,-5.81249818e-004
,,,-2.92500000e-009,-6.65624824e-004
,,,-2.90000000e-009,-7.42187329e-004
,,,-2.87500000e-009,-7.99999833e-004
,,,-2.85000000e-009,-8.37499836e-004
,,,-2.82500000e-009,-8.53124837e-004
,,,-2.80000000e-009,-8.48437337e-004
,,,-2.77500000e-009,-8.31249835e-004
,,,-2.75000000e-009,-8.10937334e-004
,,,-2.72500000e-009,-7.93749833e-004
,,,-2.70000000e-009,-7.89062332e-004
,,,-2.67500000e-009,-7.99999833e-004
,,,-2.65000000e-009,-8.35937336e-004
,,,-2.62500000e-009,-8.89062339e-004
,,,-2.60000000e-009,-9.53124844e-004
,,,-2.57500000e-009,-1.02499985e-003
,,,-2.55000000e-009,-1.09218735e-003
,,,-2.52500000e-009,-1.14999986e-003
,,,-2.50000000e-009,-1.18749986e-003
,,,-2.47500000e-009,-1.19999986e-003
,,,-2.45000000e-009,-1.18749986e-003
,,,-2.42500000e-009,-1.14843736e-003
,,,-2.40000000e-009,-1.09218735e-003
,,,-2.37500000e-009,-1.02343735e-003
,,,-2.35000000e-009,-9.51562344e-004
,,,-2.32500000e-009,-8.84374839e-004
,,,-2.30000000e-009,-8.32812335e-004
,,,-2.27500000e-009,-7.99999833e-004
,,,-2.25000000e-009,-7.98437333e-004
,,,-2.22500000e-009,-8.21874835e-004
,,,-2.20000000e-009,-8.67187338e-004
,,,-2.17500000e-009,-9.29687342e-004
,,,-2.15000000e-009,-9.99999847e-004
,,,-2.12500000e-009,-1.07343735e-003
,,,-2.10000000e-009,-1.14218736e-003
,,,-2.07500000e-009,-1.19999986e-003
,,,-2.05000000e-009,-1.24531236e-003
,,,-2.02500000e-009,-1.27499987e-003
,,,-2.00000000e-009,-1.28749987e-003
,,,-1.97500000e-009,-1.28593737e-003
,,,-1.95000000e-009,-1.27343737e-003
,,,-1.92500000e-009,-1.25156237e-003
,,,-1.90000000e-009,-1.22656236e-003
,,,-1.87500000e-009,-1.19999986e-003
,,,-1.85000000e-009,-1.19062486e-003
,,,-1.82500000e-009,-1.18593736e-003
,,,-1.80000000e-009,-1.18906236e-003
,,,-1.77500000e-009,-1.19531236e-003
,,,-1.75000000e-009,-1.20312486e-003
,,,-1.72500000e-009,-1.20781236e-003
,,,-1.70000000e-009,-1.20781236e-003
,,,-1.67500000e-009,-1.19999986e-003
,,,-1.65000000e-009,-1.20624986e-003
,,,-1.62500000e-009,-1.21093736e-003
,,,-1.60000000e-009,-1.21093736e-003
,,,-1.57500000e-009,-1.20937486e-003
,,,-1.55000000e-009,-1.20624986e-003
,,,-1.52500000e-009,-1.20312486e-003
,,,-1.50000000e-009,-1.19999986e-003
,,,-1.47500000e-009,-1.19999986e-003
,,,-1.45000000e-009,-1.23906236e-003
,,,-1.42500000e-009,-1.28749987e-003
,,,-1.40000000e-009,-1.34374987e-003
,,,-1.37500000e-009,-1.40156238e-003
,,,-1.35000000e-009,-1.45937488e-003
,,,-1.32500000e-009,-1.51249988e-003
,,,-1.30000000e-009,-1.55937489e-003
,,,-1.27500000e-009,-1.59999989e-003
,,,-1.25000000e-009,-1.67968740e-003
,,,-1.22500000e-009,-1.76406240e-003
,,,-1.20000000e-009,-1.85468741e-003
,,,-1.17500000e-009,-1.94999991e-003
,,,-1.15000000e-009,-2.05156242e-003
,,,-1.12500000e-009,-2.16093743e-003
,,,-1.10000000e-009,-2.27656244e-003
,,,-1.07500000e-009,-2.39999995e-003
,,,-1.05000000e-009,-2.58593746e-003
,,,-1.02500000e-009,-2.78906247e-003
,,,-1.00000000e-009,-3.00312499e-003
,,,-9.75000000e-010,-3.22031250e-003
,,,-9.50000000e-010,-3.43437502e-003
,,,-9.25000000e-010,-3.63906253e-003
,,,-9.00000000e-010,-3.82812505e-003
,,,-8.75000000e-010,-4.00000006e-003
,,,-8.50000000e-010,-4.21250007e-003
,,,-8.25000000e-010,-4.42031259e-003
,,,-8.00000000e-010,-4.62656260e-003
,,,-7.75000000e-010,-4.82656262e-003
,,,-7.50000000e-010,-5.02343763e-003
,,,-7.25000000e-010,-5.21562515e-003
,,,-7.00000000e-010,-5.40781266e-003
,,,-6.75000000e-010,-5.60000017e-003
,,,-6.50000000e-010,-5.85781269e-003
,,,-6.25000000e-010,-6.13750021e-003
,,,-6.00000000e-010,-6.43593773e-003
,,,-5.75000000e-010,-6.74843775e-003
,,,-5.50000000e-010,-7.06718778e-003
,,,-5.25000000e-010,-7.38437530e-003
,,,-5.00000000e-010,-7.69687532e-003
,,,-4.75000000e-010,-8.00000034e-003
,,,-4.50000000e-010,-8.34218787e-003
,,,-4.25000000e-010,-8.69218789e-003
,,,-4.00000000e-010,-9.04687542e-003
,,,-3.75000000e-010,-9.40312544e-003
,,,-3.50000000e-010,-9.75937547e-003
,,,-3.25000000e-010,-1.01109380e-002
,,,-3.00000000e-010,-1.04578130e-002
,,,-2.75000000e-010,-1.08000005e-002
,,,-2.50000000e-010,-1.11609381e-002
,,,-2.25000000e-010,-1.15359381e-002
,,,-2.00000000e-010,-1.19250006e-002
,,,-1.75000000e-010,-1.23281256e-002
,,,-1.50000000e-010,-1.27406257e-002
,,,-1.25000000e-010,-1.31578132e-002
,,,-1.00000000e-010,-1.35796882e-002
,,,-7.50000000e-011,-1.40000008e-002
,,,-5.00000000e-011,-1.44031258e-002
,,,-2.50000000e-011,-1.48187508e-002
,,,0.00000000e+000,-1.52515634e-002
,,,2.50000000e-011,-1.56984384e-002
,,,5.00000000e-011,-1.61593759e-002
,,,7.50000000e-011,-1.66312510e-002
,,,1.00000000e-010,-1.71140635e-002
,,,1.25000000e-010,-1.76000010e-002
,,,1.50000000e-010,-1.80265636e-002
,,,1.75000000e-010,-1.84609386e-002
,,,2.00000000e-010,-1.89062511e-002
,,,2.25000000e-010,-1.93609386e-002
,,,2.50000000e-010,-1.98234387e-002
,,,2.75000000e-010,-2.02890637e-002
,,,3.00000000e-010,-2.07500012e-002
,,,3.25000000e-010,-2.12000013e-002
,,,3.50000000e-010,-2.15187513e-002
,,,3.75000000e-010,-2.18171888e-002
,,,4.00000000e-010,-2.21000013e-002
,,,4.25000000e-010,-2.23640639e-002
,,,4.50000000e-010,-2.26109389e-002
,,,4.75000000e-010,-2.28359389e-002
,,,5.00000000e-010,-2.30343764e-002
,,,5.25000000e-010,-2.32000014e-002
,,,5.50000000e-010,-2.31937514e-002
,,,5.75000000e-010,-2.31515639e-002
,,,6.00000000e-010,-2.30812514e-002
,,,6.25000000e-010,-2.29859389e-002
,,,6.50000000e-010,-2.28703139e-002
,,,6.75000000e-010,-2.27343764e-002
,,,7.00000000e-010,-2.25781264e-002
,,,7.25000000e-010,-2.24000014e-002
,,,7.50000000e-010,-2.20734388e-002
,,,7.75000000e-010,-2.17281263e-002
,,,8.00000000e-010,-2.13734388e-002
,,,8.25000000e-010,-2.10156263e-002
,,,8.50000000e-010,-2.06593762e-002
,,,8.75000000e-010,-2.03062512e-002
,,,9.00000000e-010,-1.99546887e-002
,,,9.25000000e-010,-1.96000012e-002
,,,9.50000000e-010,-1.91453136e-002
,,,9.75000000e-010,-1.86765636e-002
,,,1.00000000e-009,-1.81984386e-002
,,,1.02500000e-009,-1.77062510e-002
,,,1.05000000e-009,-1.72031260e-002
,,,1.07500000e-009,-1.66843760e-002
,,,1.10000000e-009,-1.61515634e-002
,,,1.12500000e-009,-1.56000009e-002
,,,1.15000000e-009,-1.49859383e-002
,,,1.17500000e-009,-1.43578133e-002
,,,1.20000000e-009,-1.37218757e-002
,,,1.22500000e-009,-1.30906257e-002
,,,1.25000000e-009,-1.24734382e-002
,,,1.27500000e-009,-1.18812506e-002
,,,1.30000000e-009,-1.13218756e-002
,,,1.32500000e-009,-1.08000005e-002
,,,1.35000000e-009,-1.03265630e-002
,,,1.37500000e-009,-9.87812548e-003
,,,1.40000000e-009,-9.45625045e-003
,,,1.42500000e-009,-9.05468792e-003
,,,1.45000000e-009,-8.67031289e-003
,,,1.47500000e-009,-8.30156286e-003
,,,1.50000000e-009,-7.94531284e-003
,,,1.52500000e-009,-7.60000031e-003
,,,1.55000000e-009,-7.30468779e-003
,,,1.57500000e-009,-7.00000027e-003
,,,1.60000000e-009,-6.68437525e-003
,,,1.62500000e-009,-6.36562523e-003
,,,1.65000000e-009,-6.04843770e-003
,,,1.67500000e-009,-5.74375018e-003
,,,1.70000000e-009,-5.45937516e-003
,,,1.72500000e-009,-5.20000014e-003
,,,1.75000000e-009,-5.03125013e-003
,,,1.77500000e-009,-4.87031262e-003
,,,1.80000000e-009,-4.71718761e-003
,,,1.82500000e-009,-4.56875010e-003
,,,1.85000000e-009,-4.42187509e-003
,,,1.87500000e-009,-4.27812508e-003
,,,1.90000000e-009,-4.13750007e-003
,,,1.92500000e-009,-4.00000006e-003
,,,1.95000000e-009,-3.92343755e-003
,,,1.97500000e-009,-3.83281255e-003
,,,2.00000000e-009,-3.72968754e-003
,,,2.02500000e-009,-3.61562503e-003
,,,2.05000000e-009,-3.49843752e-003
,,,2.07500000e-009,-3.38593752e-003
,,,2.10000000e-009,-3.28437501e-003
,,,2.12500000e-009,-3.20000000e-003
,,,2.15000000e-009,-3.18437500e-003
,,,2.17500000e-009,-3.17656250e-003
,,,2.20000000e-009,-3.17343750e-003
,,,2.22500000e-009,-3.17343750e-003
,,,2.25000000e-009,-3.17812500e-003
,,,2.27500000e-009,-3.18437500e-003
,,,2.30000000e-009,-3.19218750e-003
,,,2.32500000e-009,-3.20000000e-003
,,,2.35000000e-009,-3.23437501e-003
,,,2.37500000e-009,-3.25781251e-003
,,,2.40000000e-009,-3.26718751e-003
,,,2.42500000e-009,-3.26562501e-003
,,,2.45000000e-009,-3.25468751e-003
,,,2.47500000e-009,-3.23906251e-003
,,,2.50000000e-009,-3.21875000e-003
,,,2.52500000e-009,-3.20000000e-003
,,,2.55000000e-009,-3.19843750e-003
,,,2.57500000e-009,-3.19531250e-003
,,,2.60000000e-009,-3.19218750e-003
,,,2.62500000e-009,-3.18906250e-003
,,,2.65000000e-009,-3.18750000e-003
,,,2.67500000e-009,-3.18906250e-003
,,,2.70000000e-009,-3.19375000e-003
,,,2.72500000e-009,-3.20000000e-003
,,,2.75000000e-009,-3.21093750e-003
,,,2.77500000e-009,-3.21718750e-003
,,,2.80000000e-009,-3.22187500e-003
,,,2.82500000e-009,-3.22500000e-003
,,,2.85000000e-009,-3.22343750e-003
,,,2.87500000e-009,-3.21875000e-003
,,,2.90000000e-009,-3.21250000e-003
,,,2.92500000e-009,-3.20000000e-003
,,,2.95000000e-009,-3.17656250e-003
,,,2.97500000e-009,-3.14218750e-003
,,,3.00000000e-009,-3.10156250e-003
,,,3.02500000e-009,-3.05156249e-003
,,,3.05000000e-009,-2.99531249e-003
,,,3.07500000e-009,-2.93437498e-003
,,,3.10000000e-009,-2.86874998e-003
,,,3.12500000e-009,-2.79999997e-003
,,,3.15000000e-009,-2.72499997e-003
,,,3.17500000e-009,-2.65156246e-003
,,,3.20000000e-009,-2.58281246e-003
,,,3.22500000e-009,-2.52187495e-003
,,,3.25000000e-009,-2.47187495e-003
,,,3.27500000e-009,-2.43437495e-003
,,,3.30000000e-009,-2.41093745e-003
,,,3.32500000e-009,-2.39999995e-003
,,,3.35000000e-009,-2.39843745e-003
,,,3.37500000e-009,-2.40468745e-003
,,,3.40000000e-009,-2.41406245e-003
,,,3.42500000e-009,-2.42499995e-003
,,,3.45000000e-009,-2.43281245e-003
,,,3.47500000e-009,-2.43281245e-003
,,,3.50000000e-009,-2.42343745e-003
,,,3.52500000e-009,-2.39999995e-003
,,,3.55000000e-009,-2.35624994e-003
,,,3.57500000e-009,-2.29374994e-003
,,,3.60000000e-009,-2.21093743e-003
,,,3.62500000e-009,-2.11249993e-003
,,,3.65000000e-009,-1.99687492e-003
,,,3.67500000e-009,-1.87187491e-003
,,,3.70000000e-009,-1.73749990e-003
,,,3.72500000e-009,-1.59999989e-003
,,,3.75000000e-009,-1.46874988e-003
,,,3.77500000e-009,-1.34218737e-003
,,,3.80000000e-009,-1.22187486e-003
,,,3.82500000e-009,-1.11093736e-003
,,,3.85000000e-009,-1.01093735e-003
,,,3.87500000e-009,-9.26562342e-004
,,,3.90000000e-009,-8.56249837e-004
,,,3.92500000e-009,-7.99999833e-004
,,,3.95000000e-009,-7.71874831e-004
,,,3.97500000e-009,-7.56249830e-004
,,,4.00000000e-009,-7.49999830e-004
,,,4.02500000e-009,-7.51562330e-004
,,,4.05000000e-009,-7.59374830e-004
,,,4.07500000e-009,-7.71874831e-004
,,,4.10000000e-009,-7.85937332e-004
,,,4.12500000e-009,-7.99999833e-004
,,,4.15000000e-009,-8.21874835e-004
,,,4.17500000e-009,-8.37499836e-004
,,,4.20000000e-009,-8.46874836e-004
,,,4.22500000e-009,-8.48437337e-004
,,,4.25000000e-009,-8.43749836e-004
,,,4.27500000e-009,-8.34374836e-004
,,,4.30000000e-009,-8.18749834e-004
,,,4.32500000e-009,-7.99999833e-004
,,,4.35000000e-009,-7.90624832e-004
,,,4.37500000e-009,-7.79687332e-004
,,,4.40000000e-009,-7.70312331e-004
,,,4.42500000e-009,-7.65624831e-004
,,,4.45000000e-009,-7.64062331e-004
,,,4.47500000e-009,-7.68749831e-004
,,,4.50000000e-009,-7.79687332e-004
,,,4.52500000e-009,-7.99999833e-004
,,,4.55000000e-009,-8.35937336e-004
,,,4.57500000e-009,-8.76562339e-004
,,,4.60000000e-009,-9.23437342e-004
,,,4.62500000e-009,-9.74999845e-004
,,,4.65000000e-009,-1.02968735e-003
,,,4.67500000e-009,-1.08749985e-003
,,,4.70000000e-009,-1.14531236e-003
,,,4.72500000e-009,-1.19999986e-003
,,,4.75000000e-009,-1.25312487e-003
,,,4.77500000e-009,-1.29374987e-003
,,,4.80000000e-009,-1.32343737e-003
,,,4.82500000e-009,-1.33593737e-003
,,,4.85000000e-009,-1.32968737e-003
,,,4.87500000e-009,-1.30468737e-003
,,,4.90000000e-009,-1.26093737e-003
,,,4.92500000e-009,-1.19999986e-003
,,,4.95000000e-009,-1.12499986e-003
,,,4.97500000e-009,-1.04218735e-003
,,,5.00000000e-009,-9.62499845e-004
,,,5.02500000e-009,-8.89062339e-004
,,,5.05000000e-009,-8.32812335e-004
,,,5.07500000e-009,-7.96874833e-004
,,,5.10000000e-009,-7.85937332e-004
,,,5.12500000e-009,-7.99999833e-004
,,,5.15000000e-009,-8.40624836e-004
,,,5.17500000e-009,-8.98437340e-004
,,,5.20000000e-009,-9.68749845e-004
,,,5.22500000e-009,-1.04218735e-003
,,,5.25000000e-009,-1.10937486e-003
,,,5.27500000e-009,-1.16249986e-003
,,,5.30000000e-009,-1.19374986e-003
,,,5.32500000e-009,-1.19999986e-003
,,,5.35000000e-009,-1.17656236e-003
,,,5.37500000e-009,-1.12968736e-003
,,,5.40000000e-009,-1.06562485e-003
,,,5.42500000e-009,-9.93749847e-004
,,,5.45000000e-009,-9.21874842e-004
,,,5.47500000e-009,-8.60937337e-004
,,,5.50000000e-009,-8.18749834e-004
,,,5.52500000e-009,-7.99999833e-004
,,,5.55000000e-009,-8.06249834e-004
,,,5.57500000e-009,-8.35937336e-004
,,,5.60000000e-009,-8.87499839e-004
,,,5.62500000e-009,-9.54687344e-004
,,,5.65000000e-009,-1.02812485e-003
,,,5.67500000e-009,-1.09843735e-003
,,,5.70000000e-009,-1.15937486e-003
,,,5.72500000e-009,-1.19999986e-003
,,,5.75000000e-009,-1.21406236e-003
,,,5.77500000e-009,-1.19999986e-003
,,,5.80000000e-009,-1.16249986e-003
