RawData/CosmicRays/L6_2pt2C_15mV/wave025_Ch3.csv

"Record Length",1000,"Points",-7.72500000e-009,-3.87499804e-004
"Sample Interval",2.50000000e-011,s,-7.70000000e-009,-3.49999801e-004
"Trigger Point",309,"Samples",-7.67500000e-009,-2.93749797e-004
"Trigger Time",1.97517073e-011,s,-7.65000000e-009,-2.24999792e-004
"",,,-7.62500000e-009,-1.53124787e-004
"Horizontal Offset",-7.72500000e-009,s,-7.60000000e-009,-8.59372826e-005
,,,-7.57500000e-009,-3.28122788e-005
,,,-7.55000000e-009,2.23517420e-010
,,,-7.52500000e-009,7.81272407e-006
,,,-7.50000000e-009,-9.37477715e-006
,,,-7.47500000e-009,-4.84372799e-005
,,,-7.45000000e-009,-1.06249784e-004
,,,-7.42500000e-009,-1.78124789e-004
,,,-7.40000000e-009,-2.54687295e-004
,,,-7.37500000e-009,-3.31249800e-004
,,,-7.35000000e-009,-3.99999805e-004
,,,-7.32500000e-009,-4.54687309e-004
,,,-7.30000000e-009,-4.92187311e-004
,,,-7.27500000e-009,-5.10937313e-004
,,,-7.25000000e-009,-5.10937313e-004
,,,-7.22500000e-009,-4.96874812e-004
,,,-7.20000000e-009,-4.71874810e-004
,,,-7.17500000e-009,-4.37499807e-004
,,,-7.15000000e-009,-3.99999805e-004
,,,-7.12500000e-009,-3.64062302e-004
,,,-7.10000000e-009,-3.34374800e-004
,,,-7.07500000e-009,-3.12499799e-004
,,,-7.05000000e-009,-3.04687298e-004
,,,-7.02500000e-009,-3.10937298e-004
,,,-7.00000000e-009,-3.29687300e-004
,,,-6.97500000e-009,-3.60937302e-004
,,,-6.95000000e-009,-3.99999805e-004
,,,-6.92500000e-009,-4.43749808e-004
,,,-6.90000000e-009,-4.85937311e-004
,,,-6.87500000e-009,-5.20312313e-004
,,,-6.85000000e-009,-5.42187315e-004
,,,-6.82500000e-009,-5.45312315e-004
,,,-6.80000000e-009,-5.23437314e-004
,,,-6.77500000e-009,-4.74999810e-004
,,,-6.75000000e-009,-3.99999805e-004
,,,-6.72500000e-009,-3.03124798e-004
,,,-6.70000000e-009,-1.87499790e-004
,,,-6.67500000e-009,-6.24997809e-005
,,,-6.65000000e-009,6.25002279e-005
,,,-6.62500000e-009,1.79687736e-004
,,,-6.60000000e-009,2.78125243e-004
,,,-6.57500000e-009,3.53125249e-004
,,,-6.55000000e-009,4.00000252e-004
,,,-6.52500000e-009,4.10937753e-004
,,,-6.50000000e-009,3.92187751e-004
,,,-6.47500000e-009,3.48437748e-004
,,,-6.45000000e-009,2.84375244e-004
,,,-6.42500000e-009,2.09375238e-004
,,,-6.40000000e-009,1.32812733e-004
,,,-6.37500000e-009,5.93752277e-005
,,,-6.35000000e-009,2.23517420e-010
,,,-6.32500000e-009,-4.84372799e-005
,,,-6.30000000e-009,-7.65622819e-005
,,,-6.27500000e-009,-8.59372826e-005
,,,-6.25000000e-009,-7.96872821e-005
,,,-6.22500000e-009,-6.24997809e-005
,,,-6.20000000e-009,-3.90622792e-005
,,,-6.17500000e-009,-1.71872777e-005
,,,-6.15000000e-009,2.23517420e-010
,,,-6.12500000e-009,2.23517420e-010
,,,-6.10000000e-009,-1.56247776e-005
,,,-6.07500000e-009,-4.68747798e-005
,,,-6.05000000e-009,-9.53122832e-005
,,,-6.02500000e-009,-1.57812288e-004
,,,-6.00000000e-009,-2.32812293e-004
,,,-5.97500000e-009,-3.15624799e-004
,,,-5.95000000e-009,-3.99999805e-004
,,,-5.92500000e-009,-4.79687310e-004
,,,-5.90000000e-009,-5.45312315e-004
,,,-5.87500000e-009,-5.92187318e-004
,,,-5.85000000e-009,-6.14062320e-004
,,,-5.82500000e-009,-6.07812320e-004
,,,-5.80000000e-009,-5.68749817e-004
,,,-5.77500000e-009,-4.99999812e-004
,,,-5.75000000e-009,-3.99999805e-004
,,,-5.72500000e-009,-2.79687296e-004
,,,-5.70000000e-009,-1.45312287e-004
,,,-5.67500000e-009,-6.24977692e-006
,,,-5.65000000e-009,1.25000232e-004
,,,-5.62500000e-009,2.40625241e-004
,,,-5.60000000e-009,3.29687747e-004
,,,-5.57500000e-009,3.84375251e-004
,,,-5.55000000e-009,4.00000252e-004
,,,-5.52500000e-009,3.70312750e-004
,,,-5.50000000e-009,3.04687745e-004
,,,-5.47500000e-009,2.06250238e-004
,,,-5.45000000e-009,8.59377296e-005
,,,-5.42500000e-009,-4.53122797e-005
,,,-5.40000000e-009,-1.76562289e-004
,,,-5.37500000e-009,-2.98437298e-004
,,,-5.35000000e-009,-3.99999805e-004
,,,-5.32500000e-009,-4.74999810e-004
,,,-5.30000000e-009,-5.18749813e-004
,,,-5.27500000e-009,-5.35937314e-004
,,,-5.25000000e-009,-5.31249814e-004
,,,-5.22500000e-009,-5.07812312e-004
,,,-5.20000000e-009,-4.73437310e-004
,,,-5.17500000e-009,-4.35937307e-004
,,,-5.15000000e-009,-3.99999805e-004
,,,-5.12500000e-009,-3.73437303e-004
,,,-5.10000000e-009,-3.57812302e-004
,,,-5.07500000e-009,-3.53124801e-004
,,,-5.05000000e-009,-3.57812302e-004
,,,-5.02500000e-009,-3.68749803e-004
,,,-5.00000000e-009,-3.81249803e-004
,,,-4.97500000e-009,-3.93749804e-004
,,,-4.95000000e-009,-3.99999805e-004
,,,-4.92500000e-009,-4.04687305e-004
,,,-4.90000000e-009,-4.03124805e-004
,,,-4.87500000e-009,-3.96874805e-004
,,,-4.85000000e-009,-3.90624804e-004
,,,-4.82500000e-009,-3.84374804e-004
,,,-4.80000000e-009,-3.82812304e-004
,,,-4.77500000e-009,-3.89062304e-004
,,,-4.75000000e-009,-3.99999805e-004
,,,-4.72500000e-009,-4.20312306e-004
,,,-4.70000000e-009,-4.43749808e-004
,,,-4.67500000e-009,-4.67187310e-004
,,,-4.65000000e-009,-4.82812311e-004
,,,-4.62500000e-009,-4.87499811e-004
,,,-4.60000000e-009,-4.78124810e-004
,,,-4.57500000e-009,-4.48437308e-004
,,,-4.55000000e-009,-3.99999805e-004
,,,-4.52500000e-009,-3.34374800e-004
,,,-4.50000000e-009,-2.59374795e-004
,,,-4.47500000e-009,-1.79687289e-004
,,,-4.45000000e-009,-1.04687284e-004
,,,-4.42500000e-009,-4.37497796e-005
,,,-4.40000000e-009,-1.56227659e-006
,,,-4.37500000e-009,1.40627245e-005
,,,-4.35000000e-009,2.23517420e-010
,,,-4.32500000e-009,-4.99997800e-005
,,,-4.30000000e-009,-1.28124786e-004
,,,-4.27500000e-009,-2.29687293e-004
,,,-4.25000000e-009,-3.46874801e-004
,,,-4.22500000e-009,-4.70312310e-004
,,,-4.20000000e-009,-5.92187318e-004
,,,-4.17500000e-009,-7.04687326e-004
,,,-4.15000000e-009,-7.99999833e-004
,,,-4.12500000e-009,-8.71874838e-004
,,,-4.10000000e-009,-9.17187341e-004
,,,-4.07500000e-009,-9.37499843e-004
,,,-4.05000000e-009,-9.35937343e-004
,,,-4.02500000e-009,-9.15624841e-004
,,,-4.00000000e-009,-8.82812339e-004
,,,-3.97500000e-009,-8.42187336e-004
,,,-3.95000000e-009,-7.99999833e-004
,,,-3.92500000e-009,-7.60937330e-004
,,,-3.90000000e-009,-7.29687328e-004
,,,-3.87500000e-009,-7.10937327e-004
,,,-3.85000000e-009,-7.04687326e-004
,,,-3.82500000e-009,-7.12499827e-004
,,,-3.80000000e-009,-7.34374828e-004
,,,-3.77500000e-009,-7.64062331e-004
,,,-3.75000000e-009,-7.99999833e-004
,,,-3.72500000e-009,-8.39062336e-004
,,,-3.70000000e-009,-8.74999838e-004
,,,-3.67500000e-009,-9.03124840e-004
,,,-3.65000000e-009,-9.18749842e-004
,,,-3.62500000e-009,-9.17187341e-004
,,,-3.60000000e-009,-8.98437340e-004
,,,-3.57500000e-009,-8.57812337e-004
,,,-3.55000000e-009,-7.99999833e-004
,,,-3.52500000e-009,-7.29687328e-004
,,,-3.50000000e-009,-6.49999822e-004
,,,-3.47500000e-009,-5.70312317e-004
,,,-3.45000000e-009,-4.98437312e-004
,,,-3.42500000e-009,-4.40624808e-004
,,,-3.40000000e-009,-4.01562305e-004
,,,-3.37500000e-009,-3.89062304e-004
,,,-3.35000000e-009,-3.99999805e-004
,,,-3.32500000e-009,-4.39062308e-004
,,,-3.30000000e-009,-4.96874812e-004
,,,-3.27500000e-009,-5.67187317e-004
,,,-3.25000000e-009,-6.42187322e-004
,,,-3.22500000e-009,-7.10937327e-004
,,,-3.20000000e-009,-7.65624831e-004
,,,-3.17500000e-009,-7.96874833e-004
,,,-3.15000000e-009,-7.99999833e-004
,,,-3.12500000e-009,-7.78124832e-004
,,,-3.10000000e-009,-7.32812328e-004
,,,-3.07500000e-009,-6.67187324e-004
,,,-3.05000000e-009,-5.92187318e-004
,,,-3.02500000e-009,-5.18749813e-004
,,,-3.00000000e-009,-4.56249809e-004
,,,-2.97500000e-009,-4.14062306e-004
,,,-2.95000000e-009,-3.99999805e-004
,,,-2.92500000e-009,-4.26562307e-004
,,,-2.90000000e-009,-4.85937311e-004
,,,-2.87500000e-009,-5.74999817e-004
,,,-2.85000000e-009,-6.87499825e-004
,,,-2.82500000e-009,-8.17187334e-004
,,,-2.80000000e-009,-9.51562344e-004
,,,-2.77500000e-009,-1.08281235e-003
,,,-2.75000000e-009,-1.19999986e-003
,,,-2.72500000e-009,-1.29374987e-003
,,,-2.70000000e-009,-1.35937487e-003
,,,-2.67500000e-009,-1.39374988e-003
,,,-2.65000000e-009,-1.39999988e-003
,,,-2.62500000e-009,-1.37968737e-003
,,,-2.60000000e-009,-1.33593737e-003
,,,-2.57500000e-009,-1.27499987e-003
,,,-2.55000000e-009,-1.19999986e-003
,,,-2.52500000e-009,-1.11874986e-003
,,,-2.50000000e-009,-1.03749985e-003
,,,-2.47500000e-009,-9.62499845e-004
,,,-2.45000000e-009,-8.98437340e-004
,,,-2.42500000e-009,-8.48437337e-004
,,,-2.40000000e-009,-8.15624834e-004
,,,-2.37500000e-009,-7.98437333e-004
,,,-2.35000000e-009,-7.99999833e-004
,,,-2.32500000e-009,-8.18749834e-004
,,,-2.30000000e-009,-8.51562337e-004
,,,-2.27500000e-009,-8.96874840e-004
,,,-2.25000000e-009,-9.53124844e-004
,,,-2.22500000e-009,-1.01562485e-003
,,,-2.20000000e-009,-1.07968735e-003
,,,-2.17500000e-009,-1.14218736e-003
,,,-2.15000000e-009,-1.19999986e-003
,,,-2.12500000e-009,-1.24687486e-003
,,,-2.10000000e-009,-1.27968737e-003
,,,-2.07500000e-009,-1.29999987e-003
,,,-2.05000000e-009,-1.30624987e-003
,,,-2.02500000e-009,-1.29843737e-003
,,,-2.00000000e-009,-1.27812487e-003
,,,-1.97500000e-009,-1.24374986e-003
,,,-1.95000000e-009,-1.19999986e-003
,,,-1.92500000e-009,-1.14531236e-003
,,,-1.90000000e-009,-1.08593735e-003
,,,-1.87500000e-009,-1.02499985e-003
,,,-1.85000000e-009,-9.68749845e-004
,,,-1.82500000e-009,-9.15624841e-004
,,,-1.80000000e-009,-8.68749838e-004
,,,-1.77500000e-009,-8.31249835e-004
,,,-1.75000000e-009,-7.99999833e-004
,,,-1.72500000e-009,-7.81249832e-004
,,,-1.70000000e-009,-7.70312331e-004
,,,-1.67500000e-009,-7.67187331e-004
,,,-1.65000000e-009,-7.68749831e-004
,,,-1.62500000e-009,-7.73437331e-004
,,,-1.60000000e-009,-7.82812332e-004
,,,-1.57500000e-009,-7.92187333e-004
,,,-1.55000000e-009,-7.99999833e-004
,,,-1.52500000e-009,-8.15624834e-004
,,,-1.50000000e-009,-8.26562335e-004
,,,-1.47500000e-009,-8.35937336e-004
,,,-1.45000000e-009,-8.39062336e-004
,,,-1.42500000e-009,-8.35937336e-004
,,,-1.40000000e-009,-8.28124835e-004
,,,-1.37500000e-009,-8.17187334e-004
,,,-1.35000000e-009,-7.99999833e-004
,,,-1.32500000e-009,-7.98437333e-004
,,,-1.30000000e-009,-7.98437333e-004
,,,-1.27500000e-009,-7.98437333e-004
,,,-1.25000000e-009,-7.99999833e-004
,,,-1.22500000e-009,-8.03124833e-004
,,,-1.20000000e-009,-8.03124833e-004
,,,-1.17500000e-009,-8.03124833e-004
,,,-1.15000000e-009,-7.99999833e-004
,,,-1.12500000e-009,-8.40624836e-004
,,,-1.10000000e-009,-8.82812339e-004
,,,-1.07500000e-009,-9.17187341e-004
,,,-1.05000000e-009,-9.39062343e-004
,,,-1.02500000e-009,-9.42187343e-004
,,,-1.00000000e-009,-9.20312342e-004
,,,-9.75000000e-010,-8.71874838e-004
,,,-9.50000000e-010,-7.99999833e-004
,,,-9.25000000e-010,-7.96874833e-004
,,,-9.00000000e-010,-7.92187333e-004
,,,-8.75000000e-010,-7.89062332e-004
,,,-8.50000000e-010,-7.85937332e-004
,,,-8.25000000e-010,-7.84374832e-004
,,,-8.00000000e-010,-7.84374832e-004
,,,-7.75000000e-010,-7.89062332e-004
,,,-7.50000000e-010,-7.99999833e-004
,,,-7.25000000e-010,-9.59374844e-004
,,,-7.00000000e-010,-1.14687486e-003
,,,-6.75000000e-010,-1.34843737e-003
,,,-6.50000000e-010,-1.54374989e-003
,,,-6.25000000e-010,-1.71718740e-003
,,,-6.00000000e-010,-1.85468741e-003
,,,-5.75000000e-010,-1.94843741e-003
,,,-5.50000000e-010,-1.99999992e-003
,,,-5.25000000e-010,-2.20156243e-003
,,,-5.00000000e-010,-2.41249995e-003
,,,-4.75000000e-010,-2.63124996e-003
,,,-4.50000000e-010,-2.86093748e-003
,,,-4.25000000e-010,-3.10625000e-003
,,,-4.00000000e-010,-3.37187502e-003
,,,-3.75000000e-010,-3.66562504e-003
,,,-3.50000000e-010,-4.00000006e-003
,,,-3.25000000e-010,-4.58906260e-003
,,,-3.00000000e-010,-5.26093765e-003
,,,-2.75000000e-010,-6.00312520e-003
,,,-2.50000000e-010,-6.79062526e-003
,,,-2.25000000e-010,-7.60312531e-003
,,,-2.00000000e-010,-8.41562537e-003
,,,-1.75000000e-010,-9.21718793e-003
,,,-1.50000000e-010,-1.00000005e-002
,,,-1.25000000e-010,-1.09265630e-002
,,,-1.00000000e-010,-1.18734381e-002
,,,-7.50000000e-011,-1.28390632e-002
,,,-5.00000000e-011,-1.38218758e-002
,,,-2.50000000e-011,-1.48250008e-002
,,,0.00000000e+000,-1.58500009e-002
,,,2.50000000e-011,-1.69062510e-002
,,,5.00000000e-011,-1.80000011e-002
,,,7.50000000e-011,-1.92125011e-002
,,,1.00000000e-010,-2.05015637e-002
,,,1.25000000e-010,-2.18625013e-002
,,,1.50000000e-010,-2.32796889e-002
,,,1.75000000e-010,-2.47406265e-002
,,,2.00000000e-010,-2.62234391e-002
,,,2.25000000e-010,-2.77156267e-002
,,,2.50000000e-010,-2.92000018e-002
,,,2.75000000e-010,-3.06109394e-002
,,,3.00000000e-010,-3.20265645e-002
,,,3.25000000e-010,-3.34421896e-002
,,,3.50000000e-010,-3.48562522e-002
,,,3.75000000e-010,-3.62656273e-002
,,,4.00000000e-010,-3.76640649e-002
,,,4.25000000e-010,-3.90437525e-002
,,,4.50000000e-010,-4.04000026e-002
,,,4.75000000e-010,-4.15406277e-002
,,,5.00000000e-010,-4.26656278e-002
,,,5.25000000e-010,-4.37765654e-002
,,,5.50000000e-010,-4.48703155e-002
,,,5.75000000e-010,-4.59343780e-002
,,,6.00000000e-010,-4.69546906e-002
,,,6.25000000e-010,-4.79171907e-002
,,,6.50000000e-010,-4.88000032e-002
,,,6.75000000e-010,-4.93140658e-002
,,,7.00000000e-010,-4.97593783e-002
,,,7.25000000e-010,-5.01421908e-002
,,,7.50000000e-010,-5.04703158e-002
,,,7.75000000e-010,-5.07453159e-002
,,,8.00000000e-010,-5.09625034e-002
,,,8.25000000e-010,-5.11171909e-002
,,,8.50000000e-010,-5.12000034e-002
,,,8.75000000e-010,-5.09171909e-002
,,,9.00000000e-010,-5.05875034e-002
,,,9.25000000e-010,-5.02250033e-002
,,,9.50000000e-010,-4.98359408e-002
,,,9.75000000e-010,-4.94203158e-002
,,,1.00000000e-009,-4.89812532e-002
,,,1.02500000e-009,-4.85093782e-002
,,,1.05000000e-009,-4.80000032e-002
,,,1.07500000e-009,-4.72093781e-002
,,,1.10000000e-009,-4.64093781e-002
,,,1.12500000e-009,-4.56156280e-002
,,,1.15000000e-009,-4.48390655e-002
,,,1.17500000e-009,-4.40890654e-002
,,,1.20000000e-009,-4.33687528e-002
,,,1.22500000e-009,-4.26734403e-002
,,,1.25000000e-009,-4.20000027e-002
,,,1.27500000e-009,-4.11828152e-002
,,,1.30000000e-009,-4.03781276e-002
,,,1.32500000e-009,-3.95843776e-002
,,,1.35000000e-009,-3.87968775e-002
,,,1.37500000e-009,-3.80109400e-002
,,,1.40000000e-009,-3.72203149e-002
,,,1.42500000e-009,-3.64171899e-002
,,,1.45000000e-009,-3.56000023e-002
,,,1.47500000e-009,-3.47031272e-002
,,,1.50000000e-009,-3.37890647e-002
,,,1.52500000e-009,-3.28703146e-002
,,,1.55000000e-009,-3.19640645e-002
,,,1.57500000e-009,-3.10890645e-002
,,,1.60000000e-009,-3.02609394e-002
,,,1.62500000e-009,-2.94968769e-002
,,,1.65000000e-009,-2.88000018e-002
,,,1.67500000e-009,-2.81906268e-002
,,,1.70000000e-009,-2.76250017e-002
,,,1.72500000e-009,-2.70953142e-002
,,,1.75000000e-009,-2.65968767e-002
,,,1.77500000e-009,-2.61234391e-002
,,,1.80000000e-009,-2.56703141e-002
,,,1.82500000e-009,-2.52312516e-002
,,,1.85000000e-009,-2.48000015e-002
,,,1.87500000e-009,-2.44125015e-002
,,,1.90000000e-009,-2.39890640e-002
,,,1.92500000e-009,-2.35296889e-002
,,,1.95000000e-009,-2.30453139e-002
,,,1.97500000e-009,-2.25546889e-002
,,,2.00000000e-009,-2.20718763e-002
,,,2.02500000e-009,-2.16156263e-002
,,,2.05000000e-009,-2.12000013e-002
,,,2.07500000e-009,-2.08843763e-002
,,,2.10000000e-009,-2.05828137e-002
,,,2.12500000e-009,-2.02984387e-002
,,,2.15000000e-009,-2.00328137e-002
,,,2.17500000e-009,-1.97890637e-002
,,,2.20000000e-009,-1.95687512e-002
,,,2.22500000e-009,-1.93734386e-002
,,,2.25000000e-009,-1.92000011e-002
,,,2.27500000e-009,-1.90796886e-002
,,,2.30000000e-009,-1.89359386e-002
,,,2.32500000e-009,-1.87640636e-002
,,,2.35000000e-009,-1.85656261e-002
,,,2.37500000e-009,-1.83453136e-002
,,,2.40000000e-009,-1.81078136e-002
,,,2.42500000e-009,-1.78593760e-002
,,,2.45000000e-009,-1.76000010e-002
,,,2.47500000e-009,-1.73484385e-002
,,,2.50000000e-009,-1.70593760e-002
,,,2.52500000e-009,-1.67375010e-002
,,,2.55000000e-009,-1.63828134e-002
,,,2.57500000e-009,-1.60062509e-002
,,,2.60000000e-009,-1.56109384e-002
,,,2.62500000e-009,-1.52078134e-002
,,,2.65000000e-009,-1.48000008e-002
,,,2.67500000e-009,-1.44000008e-002
,,,2.70000000e-009,-1.39859383e-002
,,,2.72500000e-009,-1.35625007e-002
,,,2.75000000e-009,-1.31390632e-002
,,,2.77500000e-009,-1.27234382e-002
,,,2.80000000e-009,-1.23234381e-002
,,,2.82500000e-009,-1.19484381e-002
,,,2.85000000e-009,-1.16000006e-002
,,,2.87500000e-009,-1.13015631e-002
,,,2.90000000e-009,-1.10156256e-002
,,,2.92500000e-009,-1.07437505e-002
,,,2.95000000e-009,-1.04859380e-002
,,,2.97500000e-009,-1.02406255e-002
,,,3.00000000e-009,-1.00125005e-002
,,,3.02500000e-009,-9.80000047e-003
,,,3.05000000e-009,-9.60000046e-003
,,,3.07500000e-009,-9.43125044e-003
,,,3.10000000e-009,-9.25312543e-003
,,,3.12500000e-009,-9.06562542e-003
,,,3.15000000e-009,-8.86718790e-003
,,,3.17500000e-009,-8.65937539e-003
,,,3.20000000e-009,-8.44375037e-003
,,,3.22500000e-009,-8.22343786e-003
,,,3.25000000e-009,-8.00000034e-003
,,,3.27500000e-009,-7.79843783e-003
,,,3.30000000e-009,-7.58125031e-003
,,,3.32500000e-009,-7.34375030e-003
,,,3.35000000e-009,-7.09218778e-003
,,,3.37500000e-009,-6.82656276e-003
,,,3.40000000e-009,-6.55312524e-003
,,,3.42500000e-009,-6.27656272e-003
,,,3.45000000e-009,-6.00000020e-003
,,,3.47500000e-009,-5.76250018e-003
,,,3.50000000e-009,-5.52500017e-003
,,,3.52500000e-009,-5.28906265e-003
,,,3.55000000e-009,-5.06562514e-003
,,,3.57500000e-009,-4.85781262e-003
,,,3.60000000e-009,-4.67500011e-003
,,,3.62500000e-009,-4.52187510e-003
,,,3.65000000e-009,-4.40000009e-003
,,,3.67500000e-009,-4.34375008e-003
,,,3.70000000e-009,-4.30000008e-003
,,,3.72500000e-009,-4.26406258e-003
,,,3.75000000e-009,-4.22812508e-003
,,,3.77500000e-009,-4.18593757e-003
,,,3.80000000e-009,-4.13593757e-003
,,,3.82500000e-009,-4.07343756e-003
,,,3.85000000e-009,-4.00000006e-003
,,,3.87500000e-009,-3.94218756e-003
,,,3.90000000e-009,-3.87031255e-003
,,,3.92500000e-009,-3.79218754e-003
,,,3.95000000e-009,-3.71406254e-003
,,,3.97500000e-009,-3.64843753e-003
,,,4.00000000e-009,-3.60312503e-003
,,,4.02500000e-009,-3.58593753e-003
,,,4.05000000e-009,-3.60000003e-003
,,,4.07500000e-009,-3.66406254e-003
,,,4.10000000e-009,-3.74375004e-003
,,,4.12500000e-009,-3.83125005e-003
,,,4.15000000e-009,-3.91406255e-003
,,,4.17500000e-009,-3.98125006e-003
,,,4.20000000e-009,-4.02343756e-003
,,,4.22500000e-009,-4.03281256e-003
,,,4.25000000e-009,-4.00000006e-003
,,,4.27500000e-009,-3.93281255e-003
,,,4.30000000e-009,-3.82031255e-003
,,,4.32500000e-009,-3.67031254e-003
,,,4.35000000e-009,-3.49218752e-003
,,,4.37500000e-009,-3.30312501e-003
,,,4.40000000e-009,-3.11562500e-003
,,,4.42500000e-009,-2.94531248e-003
,,,4.45000000e-009,-2.79999997e-003
,,,4.47500000e-009,-2.69999997e-003
,,,4.50000000e-009,-2.63593746e-003
,,,4.52500000e-009,-2.60624996e-003
,,,4.55000000e-009,-2.60937496e-003
,,,4.57500000e-009,-2.63749996e-003
,,,4.60000000e-009,-2.68437497e-003
,,,4.62500000e-009,-2.74218747e-003
,,,4.65000000e-009,-2.79999997e-003
,,,4.67500000e-009,-2.85312498e-003
,,,4.70000000e-009,-2.89062498e-003
,,,4.72500000e-009,-2.91093748e-003
,,,4.75000000e-009,-2.91406248e-003
,,,4.77500000e-009,-2.90156248e-003
,,,4.80000000e-009,-2.87656248e-003
,,,4.82500000e-009,-2.84218748e-003
,,,4.85000000e-009,-2.79999997e-003
,,,4.87500000e-009,-2.75312497e-003
,,,4.90000000e-009,-2.70312497e-003
,,,4.92500000e-009,-2.65156246e-003
,,,4.95000000e-009,-2.59999996e-003
,,,4.97500000e-009,-2.54999996e-003
,,,5.00000000e-009,-2.49843745e-003
,,,5.02500000e-009,-2.44999995e-003
,,,5.05000000e-009,-2.39999995e-003
,,,5.07500000e-009,-2.35156244e-003
,,,5.10000000e-009,-2.29999994e-003
,,,5.12500000e-009,-2.24843744e-003
,,,5.15000000e-009,-2.19687493e-003
,,,5.17500000e-009,-2.14531243e-003
,,,5.20000000e-009,-2.09531242e-003
,,,5.22500000e-009,-2.04687492e-003
,,,5.25000000e-009,-1.99999992e-003
,,,5.27500000e-009,-1.96249992e-003
,,,5.30000000e-009,-1.92187491e-003
,,,5.32500000e-009,-1.87812491e-003
,,,5.35000000e-009,-1.83124991e-003
,,,5.37500000e-009,-1.77968740e-003
,,,5.40000000e-009,-1.72499990e-003
,,,5.42500000e-009,-1.66406239e-003
,,,5.45000000e-009,-1.59999989e-003
,,,5.47500000e-009,-1.53749989e-003
,,,5.50000000e-009,-1.47499988e-003
,,,5.52500000e-009,-1.41249988e-003
,,,5.55000000e-009,-1.35312487e-003
,,,5.57500000e-009,-1.30156237e-003
,,,5.60000000e-009,-1.25781237e-003
,,,5.62500000e-009,-1.22343736e-003
,,,5.65000000e-009,-1.19999986e-003
,,,5.67500000e-009,-1.19218736e-003
,,,5.70000000e-009,-1.19218736e-003
,,,5.72500000e-009,-1.19531236e-003
,,,5.75000000e-009,-1.20156236e-003
,,,5.77500000e-009,-1.20624986e-003
,,,5.80000000e-009,-1.20781236e-003
,,,5.82500000e-009,-1.20624986e-003
