RawData/CosmicRays/L6_2pt2C_15mV/wave024_Ch3.csv

"Record Length",1000,"Points",-7.72500000e-009,-8.35937336e-004
"Sample Interval",2.50000000e-011,s,-7.70000000e-009,-8.03124833e-004
"Trigger Point",309,"Samples",-7.67500000e-009,-7.99999833e-004
"Trigger Time",8.05307888e-012,s,-7.65000000e-009,-8.31249835e-004
"",,,-7.62500000e-009,-8.93749840e-004
"Horizontal Offset",-7.72500000e-009,s,-7.60000000e-009,-9.84374846e-004
,,,-7.57500000e-009,-1.09843735e-003
,,,-7.55000000e-009,-1.22499986e-003
,,,-7.52500000e-009,-1.35781237e-003
,,,-7.50000000e-009,-1.48593738e-003
,,,-7.47500000e-009,-1.59999989e-003
,,,-7.45000000e-009,-1.68749990e-003
,,,-7.42500000e-009,-1.74687490e-003
,,,-7.40000000e-009,-1.77968740e-003
,,,-7.37500000e-009,-1.78437490e-003
,,,-7.35000000e-009,-1.76562490e-003
,,,-7.32500000e-009,-1.72499990e-003
,,,-7.30000000e-009,-1.66874989e-003
,,,-7.27500000e-009,-1.59999989e-003
,,,-7.25000000e-009,-1.52343738e-003
,,,-7.22500000e-009,-1.44843738e-003
,,,-7.20000000e-009,-1.37968737e-003
,,,-7.17500000e-009,-1.32031237e-003
,,,-7.15000000e-009,-1.27187487e-003
,,,-7.12500000e-009,-1.23593736e-003
,,,-7.10000000e-009,-1.21249986e-003
,,,-7.07500000e-009,-1.19999986e-003
,,,-7.05000000e-009,-1.19218736e-003
,,,-7.02500000e-009,-1.19218736e-003
,,,-7.00000000e-009,-1.19531236e-003
,,,-6.97500000e-009,-1.20312486e-003
,,,-6.95000000e-009,-1.20937486e-003
,,,-6.92500000e-009,-1.21249986e-003
,,,-6.90000000e-009,-1.20937486e-003
,,,-6.87500000e-009,-1.19999986e-003
,,,-6.85000000e-009,-1.18281236e-003
,,,-6.82500000e-009,-1.15468736e-003
,,,-6.80000000e-009,-1.11562486e-003
,,,-6.77500000e-009,-1.06562485e-003
,,,-6.75000000e-009,-1.00781235e-003
,,,-6.72500000e-009,-9.42187343e-004
,,,-6.70000000e-009,-8.71874838e-004
,,,-6.67500000e-009,-7.99999833e-004
,,,-6.65000000e-009,-7.35937329e-004
,,,-6.62500000e-009,-6.81249825e-004
,,,-6.60000000e-009,-6.42187322e-004
,,,-6.57500000e-009,-6.24999821e-004
,,,-6.55000000e-009,-6.31249821e-004
,,,-6.52500000e-009,-6.64062323e-004
,,,-6.50000000e-009,-7.20312327e-004
,,,-6.47500000e-009,-7.99999833e-004
,,,-6.45000000e-009,-8.98437340e-004
,,,-6.42500000e-009,-1.00156235e-003
,,,-6.40000000e-009,-1.09999985e-003
,,,-6.37500000e-009,-1.18437486e-003
,,,-6.35000000e-009,-1.24218736e-003
,,,-6.32500000e-009,-1.26718737e-003
,,,-6.30000000e-009,-1.25312487e-003
,,,-6.27500000e-009,-1.19999986e-003
,,,-6.25000000e-009,-1.11562486e-003
,,,-6.22500000e-009,-1.00156235e-003
,,,-6.20000000e-009,-8.70312338e-004
,,,-6.17500000e-009,-7.34374828e-004
,,,-6.15000000e-009,-6.06249819e-004
,,,-6.12500000e-009,-5.01562312e-004
,,,-6.10000000e-009,-4.31249807e-004
,,,-6.07500000e-009,-3.99999805e-004
,,,-6.05000000e-009,-4.20312306e-004
,,,-6.02500000e-009,-4.82812311e-004
,,,-6.00000000e-009,-5.81249818e-004
,,,-5.97500000e-009,-7.04687326e-004
,,,-5.95000000e-009,-8.42187336e-004
,,,-5.92500000e-009,-9.78124846e-004
,,,-5.90000000e-009,-1.10156235e-003
,,,-5.87500000e-009,-1.19999986e-003
,,,-5.85000000e-009,-1.26249987e-003
,,,-5.82500000e-009,-1.28281237e-003
,,,-5.80000000e-009,-1.26562487e-003
,,,-5.77500000e-009,-1.21093736e-003
,,,-5.75000000e-009,-1.12812486e-003
,,,-5.72500000e-009,-1.02499985e-003
,,,-5.70000000e-009,-9.12499841e-004
,,,-5.67500000e-009,-7.99999833e-004
,,,-5.65000000e-009,-6.99999826e-004
,,,-5.62500000e-009,-6.21874820e-004
,,,-5.60000000e-009,-5.71874817e-004
,,,-5.57500000e-009,-5.53124816e-004
,,,-5.55000000e-009,-5.68749817e-004
,,,-5.52500000e-009,-6.17187320e-004
,,,-5.50000000e-009,-6.95312326e-004
,,,-5.47500000e-009,-7.99999833e-004
,,,-5.45000000e-009,-9.24999842e-004
,,,-5.42500000e-009,-1.05781235e-003
,,,-5.40000000e-009,-1.19218736e-003
,,,-5.37500000e-009,-1.31874987e-003
,,,-5.35000000e-009,-1.42968738e-003
,,,-5.32500000e-009,-1.51718738e-003
,,,-5.30000000e-009,-1.57499989e-003
,,,-5.27500000e-009,-1.59999989e-003
,,,-5.25000000e-009,-1.58593739e-003
,,,-5.22500000e-009,-1.53437489e-003
,,,-5.20000000e-009,-1.45312488e-003
,,,-5.17500000e-009,-1.34531237e-003
,,,-5.15000000e-009,-1.21874986e-003
,,,-5.12500000e-009,-1.08124985e-003
,,,-5.10000000e-009,-9.39062343e-004
,,,-5.07500000e-009,-7.99999833e-004
,,,-5.05000000e-009,-6.70312324e-004
,,,-5.02500000e-009,-5.59374816e-004
,,,-5.00000000e-009,-4.71874810e-004
,,,-4.97500000e-009,-4.09374805e-004
,,,-4.95000000e-009,-3.71874803e-004
,,,-4.92500000e-009,-3.60937302e-004
,,,-4.90000000e-009,-3.70312303e-004
,,,-4.87500000e-009,-3.99999805e-004
,,,-4.85000000e-009,-4.49999808e-004
,,,-4.82500000e-009,-5.09374813e-004
,,,-4.80000000e-009,-5.71874817e-004
,,,-4.77500000e-009,-6.32812321e-004
,,,-4.75000000e-009,-6.89062325e-004
,,,-4.72500000e-009,-7.37499829e-004
,,,-4.70000000e-009,-7.74999831e-004
,,,-4.67500000e-009,-7.99999833e-004
,,,-4.65000000e-009,-8.12499834e-004
,,,-4.62500000e-009,-8.15624834e-004
,,,-4.60000000e-009,-8.10937334e-004
,,,-4.57500000e-009,-8.03124833e-004
,,,-4.55000000e-009,-7.95312333e-004
,,,-4.52500000e-009,-7.90624832e-004
,,,-4.50000000e-009,-7.92187333e-004
,,,-4.47500000e-009,-7.99999833e-004
,,,-4.45000000e-009,-8.15624834e-004
,,,-4.42500000e-009,-8.34374836e-004
,,,-4.40000000e-009,-8.54687337e-004
,,,-4.37500000e-009,-8.68749838e-004
,,,-4.35000000e-009,-8.74999838e-004
,,,-4.32500000e-009,-8.67187338e-004
,,,-4.30000000e-009,-8.42187336e-004
,,,-4.27500000e-009,-7.99999833e-004
,,,-4.25000000e-009,-7.46874829e-004
,,,-4.22500000e-009,-6.79687325e-004
,,,-4.20000000e-009,-6.07812320e-004
,,,-4.17500000e-009,-5.35937314e-004
,,,-4.15000000e-009,-4.73437310e-004
,,,-4.12500000e-009,-4.26562307e-004
,,,-4.10000000e-009,-3.99999805e-004
,,,-4.07500000e-009,-3.99999805e-004
,,,-4.05000000e-009,-4.31249807e-004
,,,-4.02500000e-009,-4.84374811e-004
,,,-4.00000000e-009,-5.51562316e-004
,,,-3.97500000e-009,-6.24999821e-004
,,,-3.95000000e-009,-6.95312326e-004
,,,-3.92500000e-009,-7.53124830e-004
,,,-3.90000000e-009,-7.89062332e-004
,,,-3.87500000e-009,-7.99999833e-004
,,,-3.85000000e-009,-7.82812332e-004
,,,-3.82500000e-009,-7.40624829e-004
,,,-3.80000000e-009,-6.81249825e-004
,,,-3.77500000e-009,-6.09374820e-004
,,,-3.75000000e-009,-5.37499815e-004
,,,-3.72500000e-009,-4.73437310e-004
,,,-3.70000000e-009,-4.24999807e-004
,,,-3.67500000e-009,-3.99999805e-004
,,,-3.65000000e-009,-4.04687305e-004
,,,-3.62500000e-009,-4.32812307e-004
,,,-3.60000000e-009,-4.81249811e-004
,,,-3.57500000e-009,-5.46874815e-004
,,,-3.55000000e-009,-6.18749820e-004
,,,-3.52500000e-009,-6.89062325e-004
,,,-3.50000000e-009,-7.51562330e-004
,,,-3.47500000e-009,-7.99999833e-004
,,,-3.45000000e-009,-8.32812335e-004
,,,-3.42500000e-009,-8.45312336e-004
,,,-3.40000000e-009,-8.43749836e-004
,,,-3.37500000e-009,-8.31249835e-004
,,,-3.35000000e-009,-8.14062334e-004
,,,-3.32500000e-009,-7.99999833e-004
,,,-3.30000000e-009,-7.93749833e-004
,,,-3.27500000e-009,-7.99999833e-004
,,,-3.25000000e-009,-8.23437335e-004
,,,-3.22500000e-009,-8.62499838e-004
,,,-3.20000000e-009,-9.14062341e-004
,,,-3.17500000e-009,-9.76562346e-004
,,,-3.15000000e-009,-1.04218735e-003
,,,-3.12500000e-009,-1.10624985e-003
,,,-3.10000000e-009,-1.16093736e-003
,,,-3.07500000e-009,-1.19999986e-003
,,,-3.05000000e-009,-1.21718736e-003
,,,-3.02500000e-009,-1.21093736e-003
,,,-3.00000000e-009,-1.18437486e-003
,,,-2.97500000e-009,-1.13593736e-003
,,,-2.95000000e-009,-1.06874985e-003
,,,-2.92500000e-009,-9.89062346e-004
,,,-2.90000000e-009,-8.96874840e-004
,,,-2.87500000e-009,-7.99999833e-004
,,,-2.85000000e-009,-7.03124826e-004
,,,-2.82500000e-009,-6.12499820e-004
,,,-2.80000000e-009,-5.32812314e-004
,,,-2.77500000e-009,-4.67187310e-004
,,,-2.75000000e-009,-4.20312306e-004
,,,-2.72500000e-009,-3.93749804e-004
,,,-2.70000000e-009,-3.87499804e-004
,,,-2.67500000e-009,-3.99999805e-004
,,,-2.65000000e-009,-4.32812307e-004
,,,-2.62500000e-009,-4.78124810e-004
,,,-2.60000000e-009,-5.32812314e-004
,,,-2.57500000e-009,-5.93749819e-004
,,,-2.55000000e-009,-6.54687323e-004
,,,-2.52500000e-009,-7.12499827e-004
,,,-2.50000000e-009,-7.62499830e-004
,,,-2.47500000e-009,-7.99999833e-004
,,,-2.45000000e-009,-8.26562335e-004
,,,-2.42500000e-009,-8.42187336e-004
,,,-2.40000000e-009,-8.45312336e-004
,,,-2.37500000e-009,-8.40624836e-004
,,,-2.35000000e-009,-8.29687335e-004
,,,-2.32500000e-009,-8.18749834e-004
,,,-2.30000000e-009,-8.07812334e-004
,,,-2.27500000e-009,-7.99999833e-004
,,,-2.25000000e-009,-7.98437333e-004
,,,-2.22500000e-009,-8.01562333e-004
,,,-2.20000000e-009,-8.06249834e-004
,,,-2.17500000e-009,-8.14062334e-004
,,,-2.15000000e-009,-8.20312335e-004
,,,-2.12500000e-009,-8.21874835e-004
,,,-2.10000000e-009,-8.15624834e-004
,,,-2.07500000e-009,-7.99999833e-004
,,,-2.05000000e-009,-7.76562331e-004
,,,-2.02500000e-009,-7.40624829e-004
,,,-2.00000000e-009,-6.93749826e-004
,,,-1.97500000e-009,-6.40624822e-004
,,,-1.95000000e-009,-5.79687318e-004
,,,-1.92500000e-009,-5.17187313e-004
,,,-1.90000000e-009,-4.56249809e-004
,,,-1.87500000e-009,-3.99999805e-004
,,,-1.85000000e-009,-3.62499802e-004
,,,-1.82500000e-009,-3.35937300e-004
,,,-1.80000000e-009,-3.21874799e-004
,,,-1.77500000e-009,-3.18749799e-004
,,,-1.75000000e-009,-3.26562300e-004
,,,-1.72500000e-009,-3.43749801e-004
,,,-1.70000000e-009,-3.68749803e-004
,,,-1.67500000e-009,-3.99999805e-004
,,,-1.65000000e-009,-4.43749808e-004
,,,-1.62500000e-009,-4.90624811e-004
,,,-1.60000000e-009,-5.40624815e-004
,,,-1.57500000e-009,-5.92187318e-004
,,,-1.55000000e-009,-6.46874822e-004
,,,-1.52500000e-009,-6.99999826e-004
,,,-1.50000000e-009,-7.51562330e-004
,,,-1.47500000e-009,-7.99999833e-004
,,,-1.45000000e-009,-8.53124837e-004
,,,-1.42500000e-009,-8.95312340e-004
,,,-1.40000000e-009,-9.26562342e-004
,,,-1.37500000e-009,-9.40624843e-004
,,,-1.35000000e-009,-9.35937343e-004
,,,-1.32500000e-009,-9.09374841e-004
,,,-1.30000000e-009,-8.64062338e-004
,,,-1.27500000e-009,-7.99999833e-004
,,,-1.25000000e-009,-7.54687330e-004
,,,-1.22500000e-009,-7.10937327e-004
,,,-1.20000000e-009,-6.73437324e-004
,,,-1.17500000e-009,-6.51562323e-004
,,,-1.15000000e-009,-6.49999822e-004
,,,-1.12500000e-009,-6.71874824e-004
,,,-1.10000000e-009,-7.21874828e-004
,,,-1.07500000e-009,-7.99999833e-004
,,,-1.05000000e-009,-9.60937344e-004
,,,-1.02500000e-009,-1.14843736e-003
,,,-1.00000000e-009,-1.34999987e-003
,,,-9.75000000e-010,-1.54843739e-003
,,,-9.50000000e-010,-1.72499990e-003
,,,-9.25000000e-010,-1.86718741e-003
,,,-9.00000000e-010,-1.96093742e-003
,,,-8.75000000e-010,-1.99999992e-003
,,,-8.50000000e-010,-2.07499992e-003
,,,-8.25000000e-010,-2.10937493e-003
,,,-8.00000000e-010,-2.10468743e-003
,,,-7.75000000e-010,-2.06093742e-003
,,,-7.50000000e-010,-1.98124992e-003
,,,-7.25000000e-010,-1.86874991e-003
,,,-7.00000000e-010,-1.73749990e-003
,,,-6.75000000e-010,-1.59999989e-003
,,,-6.50000000e-010,-1.62343739e-003
,,,-6.25000000e-010,-1.69374990e-003
,,,-6.00000000e-010,-1.81093740e-003
,,,-5.75000000e-010,-1.96562492e-003
,,,-5.50000000e-010,-2.14999993e-003
,,,-5.25000000e-010,-2.35468744e-003
,,,-5.00000000e-010,-2.57187496e-003
,,,-4.75000000e-010,-2.79999997e-003
,,,-4.50000000e-010,-3.23437501e-003
,,,-4.25000000e-010,-3.70625004e-003
,,,-4.00000000e-010,-4.19531257e-003
,,,-3.75000000e-010,-4.68593761e-003
,,,-3.50000000e-010,-5.15937514e-003
,,,-3.25000000e-010,-5.60468767e-003
,,,-3.00000000e-010,-6.01562520e-003
,,,-2.75000000e-010,-6.40000023e-003
,,,-2.50000000e-010,-6.96875027e-003
,,,-2.25000000e-010,-7.57031281e-003
,,,-2.00000000e-010,-8.20937536e-003
,,,-1.75000000e-010,-8.88593791e-003
,,,-1.50000000e-010,-9.60000046e-003
,,,-1.25000000e-010,-1.03531255e-002
,,,-1.00000000e-010,-1.11515631e-002
,,,-7.50000000e-011,-1.20000006e-002
,,,-5.00000000e-011,-1.30625007e-002
,,,-2.50000000e-011,-1.42156258e-002
,,,0.00000000e+000,-1.54437509e-002
,,,2.50000000e-011,-1.67265635e-002
,,,5.00000000e-011,-1.80421886e-002
,,,7.50000000e-011,-1.93703136e-002
,,,1.00000000e-010,-2.06921887e-002
,,,1.25000000e-010,-2.20000013e-002
,,,1.50000000e-010,-2.33421889e-002
,,,1.75000000e-010,-2.46968765e-002
,,,2.00000000e-010,-2.60656266e-002
,,,2.25000000e-010,-2.74515642e-002
,,,2.50000000e-010,-2.88578143e-002
,,,2.75000000e-010,-3.02812519e-002
,,,3.00000000e-010,-3.17296895e-002
,,,3.25000000e-010,-3.32000021e-002
,,,3.50000000e-010,-3.46031272e-002
,,,3.75000000e-010,-3.60453148e-002
,,,4.00000000e-010,-3.75203149e-002
,,,4.25000000e-010,-3.90156275e-002
,,,4.50000000e-010,-4.05140651e-002
,,,4.75000000e-010,-4.19906277e-002
,,,5.00000000e-010,-4.34265654e-002
,,,5.25000000e-010,-4.48000029e-002
,,,5.50000000e-010,-4.58656280e-002
,,,5.75000000e-010,-4.68703156e-002
,,,6.00000000e-010,-4.78250032e-002
,,,6.25000000e-010,-4.87375032e-002
,,,6.50000000e-010,-4.96125033e-002
,,,6.75000000e-010,-5.04500033e-002
,,,7.00000000e-010,-5.12484409e-002
,,,7.25000000e-010,-5.20000035e-002
,,,7.50000000e-010,-5.23812535e-002
,,,7.75000000e-010,-5.27265660e-002
,,,8.00000000e-010,-5.30453160e-002
,,,8.25000000e-010,-5.33343786e-002
,,,8.50000000e-010,-5.35875036e-002
,,,8.75000000e-010,-5.37937536e-002
,,,9.00000000e-010,-5.39375036e-002
,,,9.25000000e-010,-5.40000036e-002
,,,9.50000000e-010,-5.36359411e-002
,,,9.75000000e-010,-5.32046910e-002
,,,1.00000000e-009,-5.27250035e-002
,,,1.02500000e-009,-5.22125035e-002
,,,1.05000000e-009,-5.16796909e-002
,,,1.07500000e-009,-5.11343784e-002
,,,1.10000000e-009,-5.05750034e-002
,,,1.12500000e-009,-5.00000033e-002
,,,1.15000000e-009,-4.91234408e-002
,,,1.17500000e-009,-4.82359407e-002
,,,1.20000000e-009,-4.73468781e-002
,,,1.22500000e-009,-4.64593781e-002
,,,1.25000000e-009,-4.55671905e-002
,,,1.27500000e-009,-4.46671904e-002
,,,1.30000000e-009,-4.37484404e-002
,,,1.32500000e-009,-4.28000028e-002
,,,1.35000000e-009,-4.16296902e-002
,,,1.37500000e-009,-4.04265651e-002
,,,1.40000000e-009,-3.92000026e-002
,,,1.42500000e-009,-3.79640650e-002
,,,1.45000000e-009,-3.67359399e-002
,,,1.47500000e-009,-3.55250023e-002
,,,1.50000000e-009,-3.43453147e-002
,,,1.52500000e-009,-3.32000021e-002
,,,1.55000000e-009,-3.20296895e-002
,,,1.57500000e-009,-3.08859395e-002
,,,1.60000000e-009,-2.97718769e-002
,,,1.62500000e-009,-2.86937518e-002
,,,1.65000000e-009,-2.76546892e-002
,,,1.67500000e-009,-2.66593767e-002
,,,1.70000000e-009,-2.57078141e-002
,,,1.72500000e-009,-2.48000015e-002
,,,1.75000000e-009,-2.39625015e-002
,,,1.77500000e-009,-2.31281264e-002
,,,1.80000000e-009,-2.22968764e-002
,,,1.82500000e-009,-2.14703138e-002
,,,1.85000000e-009,-2.06578137e-002
,,,1.87500000e-009,-1.98687512e-002
,,,1.90000000e-009,-1.91140636e-002
,,,1.92500000e-009,-1.84000011e-002
,,,1.95000000e-009,-1.78171885e-002
,,,1.97500000e-009,-1.72359385e-002
,,,2.00000000e-009,-1.66546885e-002
,,,2.02500000e-009,-1.60796884e-002
,,,2.05000000e-009,-1.55187509e-002
,,,2.07500000e-009,-1.49796883e-002
,,,2.10000000e-009,-1.44718758e-002
,,,2.12500000e-009,-1.40000008e-002
,,,2.15000000e-009,-1.36718757e-002
,,,2.17500000e-009,-1.33343757e-002
,,,2.20000000e-009,-1.29843757e-002
,,,2.22500000e-009,-1.26234382e-002
,,,2.25000000e-009,-1.22578131e-002
,,,2.27500000e-009,-1.18921881e-002
,,,2.30000000e-009,-1.15390631e-002
,,,2.32500000e-009,-1.12000006e-002
,,,2.35000000e-009,-1.09781256e-002
,,,2.37500000e-009,-1.07375005e-002
,,,2.40000000e-009,-1.04812505e-002
,,,2.42500000e-009,-1.02125005e-002
,,,2.45000000e-009,-9.94062548e-003
,,,2.47500000e-009,-9.67500046e-003
,,,2.50000000e-009,-9.42656294e-003
,,,2.52500000e-009,-9.20000043e-003
,,,2.55000000e-009,-9.07187542e-003
,,,2.57500000e-009,-8.93750041e-003
,,,2.60000000e-009,-8.79531290e-003
,,,2.62500000e-009,-8.64375039e-003
,,,2.65000000e-009,-8.48593788e-003
,,,2.67500000e-009,-8.32500037e-003
,,,2.70000000e-009,-8.16250035e-003
,,,2.72500000e-009,-8.00000034e-003
,,,2.75000000e-009,-7.89062533e-003
,,,2.77500000e-009,-7.76250033e-003
,,,2.80000000e-009,-7.61718782e-003
,,,2.82500000e-009,-7.45781280e-003
,,,2.85000000e-009,-7.28906279e-003
,,,2.87500000e-009,-7.12031278e-003
,,,2.90000000e-009,-6.95468777e-003
,,,2.92500000e-009,-6.80000026e-003
,,,2.95000000e-009,-6.69062525e-003
,,,2.97500000e-009,-6.58125024e-003
,,,3.00000000e-009,-6.47343773e-003
,,,3.02500000e-009,-6.36875023e-003
,,,3.05000000e-009,-6.26718772e-003
,,,3.07500000e-009,-6.17187521e-003
,,,3.10000000e-009,-6.08281271e-003
,,,3.12500000e-009,-6.00000020e-003
,,,3.15000000e-009,-5.93906270e-003
,,,3.17500000e-009,-5.87031269e-003
,,,3.20000000e-009,-5.78750019e-003
,,,3.22500000e-009,-5.69218768e-003
,,,3.25000000e-009,-5.58281267e-003
,,,3.27500000e-009,-5.46406266e-003
,,,3.30000000e-009,-5.33437515e-003
,,,3.32500000e-009,-5.20000014e-003
,,,3.35000000e-009,-5.07812514e-003
,,,3.37500000e-009,-4.95000013e-003
,,,3.40000000e-009,-4.82187512e-003
,,,3.42500000e-009,-4.70156261e-003
,,,3.45000000e-009,-4.59531260e-003
,,,3.47500000e-009,-4.50625010e-003
,,,3.50000000e-009,-4.44062509e-003
,,,3.52500000e-009,-4.40000009e-003
,,,3.55000000e-009,-4.39218759e-003
,,,3.57500000e-009,-4.39687509e-003
,,,3.60000000e-009,-4.40781259e-003
,,,3.62500000e-009,-4.42343759e-003
,,,3.65000000e-009,-4.43437509e-003
,,,3.67500000e-009,-4.43750009e-003
,,,3.70000000e-009,-4.42812509e-003
,,,3.72500000e-009,-4.40000009e-003
,,,3.75000000e-009,-4.35625008e-003
,,,3.77500000e-009,-4.28750008e-003
,,,3.80000000e-009,-4.19531257e-003
,,,3.82500000e-009,-4.08593757e-003
,,,3.85000000e-009,-3.96406256e-003
,,,3.87500000e-009,-3.83906255e-003
,,,3.90000000e-009,-3.71562504e-003
,,,3.92500000e-009,-3.60000003e-003
,,,3.95000000e-009,-3.50312502e-003
,,,3.97500000e-009,-3.41875002e-003
,,,4.00000000e-009,-3.35000001e-003
,,,4.02500000e-009,-3.29531251e-003
,,,4.05000000e-009,-3.25468751e-003
,,,4.07500000e-009,-3.22812500e-003
,,,4.10000000e-009,-3.21093750e-003
,,,4.12500000e-009,-3.20000000e-003
,,,4.15000000e-009,-3.19531250e-003
,,,4.17500000e-009,-3.18281250e-003
,,,4.20000000e-009,-3.15781250e-003
,,,4.22500000e-009,-3.11875000e-003
,,,4.25000000e-009,-3.06406249e-003
,,,4.27500000e-009,-2.99062499e-003
,,,4.30000000e-009,-2.90312498e-003
,,,4.32500000e-009,-2.79999997e-003
,,,4.35000000e-009,-2.69218747e-003
,,,4.37500000e-009,-2.57499996e-003
,,,4.40000000e-009,-2.45468745e-003
,,,4.42500000e-009,-2.33593744e-003
,,,4.45000000e-009,-2.22656243e-003
,,,4.47500000e-009,-2.13124993e-003
,,,4.50000000e-009,-2.05624992e-003
,,,4.52500000e-009,-1.99999992e-003
,,,4.55000000e-009,-1.97499992e-003
,,,4.57500000e-009,-1.96718742e-003
,,,4.60000000e-009,-1.97031242e-003
,,,4.62500000e-009,-1.98281242e-003
,,,4.65000000e-009,-1.99687492e-003
,,,4.67500000e-009,-2.00624992e-003
,,,4.70000000e-009,-2.00937492e-003
,,,4.72500000e-009,-1.99999992e-003
,,,4.75000000e-009,-1.98437492e-003
,,,4.77500000e-009,-1.94999991e-003
,,,4.80000000e-009,-1.89999991e-003
,,,4.82500000e-009,-1.84062491e-003
,,,4.85000000e-009,-1.77499990e-003
,,,4.87500000e-009,-1.70937490e-003
,,,4.90000000e-009,-1.64999989e-003
,,,4.92500000e-009,-1.59999989e-003
,,,4.95000000e-009,-1.57187489e-003
,,,4.97500000e-009,-1.55468739e-003
,,,5.00000000e-009,-1.54843739e-003
,,,5.02500000e-009,-1.55156239e-003
,,,5.05000000e-009,-1.56093739e-003
,,,5.07500000e-009,-1.57499989e-003
,,,5.10000000e-009,-1.58906239e-003
,,,5.12500000e-009,-1.59999989e-003
,,,5.15000000e-009,-1.61406239e-003
,,,5.17500000e-009,-1.61874989e-003
,,,5.20000000e-009,-1.61874989e-003
,,,5.22500000e-009,-1.61406239e-003
,,,5.25000000e-009,-1.60781239e-003
,,,5.27500000e-009,-1.60156239e-003
,,,5.30000000e-009,-1.59843739e-003
,,,5.32500000e-009,-1.59999989e-003
,,,5.35000000e-009,-1.60781239e-003
,,,5.37500000e-009,-1.61718739e-003
,,,5.40000000e-009,-1.62656239e-003
,,,5.42500000e-009,-1.63281239e-003
,,,5.45000000e-009,-1.63593739e-003
,,,5.47500000e-009,-1.63281239e-003
,,,5.50000000e-009,-1.62187489e-003
,,,5.52500000e-009,-1.59999989e-003
,,,5.55000000e-009,-1.56874989e-003
,,,5.57500000e-009,-1.52812488e-003
,,,5.60000000e-009,-1.47812488e-003
,,,5.62500000e-009,-1.42343738e-003
,,,5.65000000e-009,-1.36406237e-003
,,,5.67500000e-009,-1.30468737e-003
,,,5.70000000e-009,-1.24999986e-003
,,,5.72500000e-009,-1.19999986e-003
,,,5.75000000e-009,-1.16249986e-003
,,,5.77500000e-009,-1.13437486e-003
,,,5.80000000e-009,-1.11718736e-003
