RawData/CosmicRays/L6_2pt2C_15mV/wave014_Ch3.csv

"Record Length",1000,"Points",-7.72500000e-009,-8.49999837e-004
"Sample Interval",2.50000000e-011,s,-7.70000000e-009,-8.26562335e-004
"Trigger Point",309,"Samples",-7.67500000e-009,-7.99999833e-004
"Trigger Time",3.22650096e-012,s,-7.65000000e-009,-7.76562331e-004
"",,,-7.62500000e-009,-7.54687330e-004
"Horizontal Offset",-7.72500000e-009,s,-7.60000000e-009,-7.39062329e-004
,,,-7.57500000e-009,-7.31249828e-004
,,,-7.55000000e-009,-7.32812328e-004
,,,-7.52500000e-009,-7.45312329e-004
,,,-7.50000000e-009,-7.67187331e-004
,,,-7.47500000e-009,-7.99999833e-004
,,,-7.45000000e-009,-8.43749836e-004
,,,-7.42500000e-009,-8.93749840e-004
,,,-7.40000000e-009,-9.49999844e-004
,,,-7.37500000e-009,-1.00781235e-003
,,,-7.35000000e-009,-1.06406235e-003
,,,-7.32500000e-009,-1.11718736e-003
,,,-7.30000000e-009,-1.16406236e-003
,,,-7.27500000e-009,-1.19999986e-003
,,,-7.25000000e-009,-1.22812486e-003
,,,-7.22500000e-009,-1.24374986e-003
,,,-7.20000000e-009,-1.24999986e-003
,,,-7.17500000e-009,-1.24843736e-003
,,,-7.15000000e-009,-1.24062486e-003
,,,-7.12500000e-009,-1.22812486e-003
,,,-7.10000000e-009,-1.21406236e-003
,,,-7.07500000e-009,-1.19999986e-003
,,,-7.05000000e-009,-1.18906236e-003
,,,-7.02500000e-009,-1.17968736e-003
,,,-7.00000000e-009,-1.17656236e-003
,,,-6.97500000e-009,-1.17656236e-003
,,,-6.95000000e-009,-1.18124986e-003
,,,-6.92500000e-009,-1.18593736e-003
,,,-6.90000000e-009,-1.19374986e-003
,,,-6.87500000e-009,-1.19999986e-003
,,,-6.85000000e-009,-1.20468736e-003
,,,-6.82500000e-009,-1.20781236e-003
,,,-6.80000000e-009,-1.20937486e-003
,,,-6.77500000e-009,-1.20937486e-003
,,,-6.75000000e-009,-1.20781236e-003
,,,-6.72500000e-009,-1.20624986e-003
,,,-6.70000000e-009,-1.20312486e-003
,,,-6.67500000e-009,-1.19999986e-003
,,,-6.65000000e-009,-1.19687486e-003
,,,-6.62500000e-009,-1.19531236e-003
,,,-6.60000000e-009,-1.19374986e-003
,,,-6.57500000e-009,-1.19374986e-003
,,,-6.55000000e-009,-1.19531236e-003
,,,-6.52500000e-009,-1.19687486e-003
,,,-6.50000000e-009,-1.19843736e-003
,,,-6.47500000e-009,-1.19999986e-003
,,,-6.45000000e-009,-1.19999986e-003
,,,-6.42500000e-009,-1.20156236e-003
,,,-6.40000000e-009,-1.19999986e-003
,,,-6.37500000e-009,-1.19999986e-003
,,,-6.35000000e-009,-1.19999986e-003
,,,-6.32500000e-009,-1.19999986e-003
,,,-6.30000000e-009,-1.20156236e-003
,,,-6.27500000e-009,-1.19999986e-003
,,,-6.25000000e-009,-1.19999986e-003
,,,-6.22500000e-009,-1.20156236e-003
,,,-6.20000000e-009,-1.19999986e-003
,,,-6.17500000e-009,-1.19999986e-003
,,,-6.15000000e-009,-1.19999986e-003
,,,-6.12500000e-009,-1.19999986e-003
,,,-6.10000000e-009,-1.20156236e-003
,,,-6.07500000e-009,-1.19999986e-003
,,,-6.05000000e-009,-1.19999986e-003
,,,-6.02500000e-009,-1.20156236e-003
,,,-6.00000000e-009,-1.19999986e-003
,,,-5.97500000e-009,-1.19999986e-003
,,,-5.95000000e-009,-1.19999986e-003
,,,-5.92500000e-009,-1.19999986e-003
,,,-5.90000000e-009,-1.20156236e-003
,,,-5.87500000e-009,-1.19999986e-003
,,,-5.85000000e-009,-1.19999986e-003
,,,-5.82500000e-009,-1.20156236e-003
,,,-5.80000000e-009,-1.19999986e-003
,,,-5.77500000e-009,-1.19999986e-003
,,,-5.75000000e-009,-1.19999986e-003
,,,-5.72500000e-009,-1.19999986e-003
,,,-5.70000000e-009,-1.20156236e-003
,,,-5.67500000e-009,-1.19999986e-003
,,,-5.65000000e-009,-1.19843736e-003
,,,-5.62500000e-009,-1.19687486e-003
,,,-5.60000000e-009,-1.19531236e-003
,,,-5.57500000e-009,-1.19374986e-003
,,,-5.55000000e-009,-1.19374986e-003
,,,-5.52500000e-009,-1.19531236e-003
,,,-5.50000000e-009,-1.19687486e-003
,,,-5.47500000e-009,-1.19999986e-003
,,,-5.45000000e-009,-1.20156236e-003
,,,-5.42500000e-009,-1.20156236e-003
,,,-5.40000000e-009,-1.20156236e-003
,,,-5.37500000e-009,-1.20312486e-003
,,,-5.35000000e-009,-1.20312486e-003
,,,-5.32500000e-009,-1.20156236e-003
,,,-5.30000000e-009,-1.20156236e-003
,,,-5.27500000e-009,-1.19999986e-003
,,,-5.25000000e-009,-1.19843736e-003
,,,-5.22500000e-009,-1.19531236e-003
,,,-5.20000000e-009,-1.19374986e-003
,,,-5.17500000e-009,-1.19218736e-003
,,,-5.15000000e-009,-1.19218736e-003
,,,-5.12500000e-009,-1.19374986e-003
,,,-5.10000000e-009,-1.19687486e-003
,,,-5.07500000e-009,-1.19999986e-003
,,,-5.05000000e-009,-1.20468736e-003
,,,-5.02500000e-009,-1.20937486e-003
,,,-5.00000000e-009,-1.21249986e-003
,,,-4.97500000e-009,-1.21562486e-003
,,,-4.95000000e-009,-1.21718736e-003
,,,-4.92500000e-009,-1.21562486e-003
,,,-4.90000000e-009,-1.21093736e-003
,,,-4.87500000e-009,-1.19999986e-003
,,,-4.85000000e-009,-1.18124986e-003
,,,-4.82500000e-009,-1.15468736e-003
,,,-4.80000000e-009,-1.11874986e-003
,,,-4.77500000e-009,-1.07187485e-003
,,,-4.75000000e-009,-1.01718735e-003
,,,-4.72500000e-009,-9.51562344e-004
,,,-4.70000000e-009,-8.79687339e-004
,,,-4.67500000e-009,-7.99999833e-004
,,,-4.65000000e-009,-7.23437328e-004
,,,-4.62500000e-009,-6.46874822e-004
,,,-4.60000000e-009,-5.74999817e-004
,,,-4.57500000e-009,-5.12499813e-004
,,,-4.55000000e-009,-4.60937309e-004
,,,-4.52500000e-009,-4.23437306e-004
,,,-4.50000000e-009,-4.03124805e-004
,,,-4.47500000e-009,-3.99999805e-004
,,,-4.45000000e-009,-4.20312306e-004
,,,-4.42500000e-009,-4.56249809e-004
,,,-4.40000000e-009,-5.04687312e-004
,,,-4.37500000e-009,-5.62499816e-004
,,,-4.35000000e-009,-6.23437321e-004
,,,-4.32500000e-009,-6.87499825e-004
,,,-4.30000000e-009,-7.46874829e-004
,,,-4.27500000e-009,-7.99999833e-004
,,,-4.25000000e-009,-8.45312336e-004
,,,-4.22500000e-009,-8.76562339e-004
,,,-4.20000000e-009,-8.93749840e-004
,,,-4.17500000e-009,-8.96874840e-004
,,,-4.15000000e-009,-8.85937339e-004
,,,-4.12500000e-009,-8.64062338e-004
,,,-4.10000000e-009,-8.35937336e-004
,,,-4.07500000e-009,-7.99999833e-004
,,,-4.05000000e-009,-7.67187331e-004
,,,-4.02500000e-009,-7.37499829e-004
,,,-4.00000000e-009,-7.15624827e-004
,,,-3.97500000e-009,-7.03124826e-004
,,,-3.95000000e-009,-7.04687326e-004
,,,-3.92500000e-009,-7.21874828e-004
,,,-3.90000000e-009,-7.53124830e-004
,,,-3.87500000e-009,-7.99999833e-004
,,,-3.85000000e-009,-8.60937337e-004
,,,-3.82500000e-009,-9.28124842e-004
,,,-3.80000000e-009,-9.98437347e-004
,,,-3.77500000e-009,-1.06406235e-003
,,,-3.75000000e-009,-1.12187486e-003
,,,-3.72500000e-009,-1.16562486e-003
,,,-3.70000000e-009,-1.19218736e-003
,,,-3.67500000e-009,-1.19999986e-003
,,,-3.65000000e-009,-1.18437486e-003
,,,-3.62500000e-009,-1.15156236e-003
,,,-3.60000000e-009,-1.10156235e-003
,,,-3.57500000e-009,-1.04218735e-003
,,,-3.55000000e-009,-9.76562346e-004
,,,-3.52500000e-009,-9.10937341e-004
,,,-3.50000000e-009,-8.51562337e-004
,,,-3.47500000e-009,-7.99999833e-004
,,,-3.45000000e-009,-7.59374830e-004
,,,-3.42500000e-009,-7.32812328e-004
,,,-3.40000000e-009,-7.20312327e-004
,,,-3.37500000e-009,-7.21874828e-004
,,,-3.35000000e-009,-7.34374828e-004
,,,-3.32500000e-009,-7.53124830e-004
,,,-3.30000000e-009,-7.76562331e-004
,,,-3.27500000e-009,-7.99999833e-004
,,,-3.25000000e-009,-8.21874835e-004
,,,-3.22500000e-009,-8.37499836e-004
,,,-3.20000000e-009,-8.46874836e-004
,,,-3.17500000e-009,-8.48437337e-004
,,,-3.15000000e-009,-8.43749836e-004
,,,-3.12500000e-009,-8.32812335e-004
,,,-3.10000000e-009,-8.18749834e-004
,,,-3.07500000e-009,-7.99999833e-004
,,,-3.05000000e-009,-7.81249832e-004
,,,-3.02500000e-009,-7.64062331e-004
,,,-3.00000000e-009,-7.51562330e-004
,,,-2.97500000e-009,-7.46874829e-004
,,,-2.95000000e-009,-7.48437329e-004
,,,-2.92500000e-009,-7.57812330e-004
,,,-2.90000000e-009,-7.76562331e-004
,,,-2.87500000e-009,-7.99999833e-004
,,,-2.85000000e-009,-8.29687335e-004
,,,-2.82500000e-009,-8.56249837e-004
,,,-2.80000000e-009,-8.79687339e-004
,,,-2.77500000e-009,-8.95312340e-004
,,,-2.75000000e-009,-8.96874840e-004
,,,-2.72500000e-009,-8.81249839e-004
,,,-2.70000000e-009,-8.49999837e-004
,,,-2.67500000e-009,-7.99999833e-004
,,,-2.65000000e-009,-7.39062329e-004
,,,-2.62500000e-009,-6.67187324e-004
,,,-2.60000000e-009,-5.92187318e-004
,,,-2.57500000e-009,-5.20312313e-004
,,,-2.55000000e-009,-4.59374809e-004
,,,-2.52500000e-009,-4.17187306e-004
,,,-2.50000000e-009,-3.96874805e-004
,,,-2.47500000e-009,-3.99999805e-004
,,,-2.45000000e-009,-4.34374807e-004
,,,-2.42500000e-009,-4.90624811e-004
,,,-2.40000000e-009,-5.57812316e-004
,,,-2.37500000e-009,-6.31249821e-004
,,,-2.35000000e-009,-6.99999826e-004
,,,-2.32500000e-009,-7.56249830e-004
,,,-2.30000000e-009,-7.90624832e-004
,,,-2.27500000e-009,-7.99999833e-004
,,,-2.25000000e-009,-7.81249832e-004
,,,-2.22500000e-009,-7.37499829e-004
,,,-2.20000000e-009,-6.74999824e-004
,,,-2.17500000e-009,-6.03124819e-004
,,,-2.15000000e-009,-5.29687314e-004
,,,-2.12500000e-009,-4.67187310e-004
,,,-2.10000000e-009,-4.21874806e-004
,,,-2.07500000e-009,-3.99999805e-004
,,,-2.05000000e-009,-4.10937306e-004
,,,-2.02500000e-009,-4.45312308e-004
,,,-2.00000000e-009,-4.99999812e-004
,,,-1.97500000e-009,-5.68749817e-004
,,,-1.95000000e-009,-6.40624822e-004
,,,-1.92500000e-009,-7.07812327e-004
,,,-1.90000000e-009,-7.62499830e-004
,,,-1.87500000e-009,-7.99999833e-004
,,,-1.85000000e-009,-8.18749834e-004
,,,-1.82500000e-009,-8.17187334e-004
,,,-1.80000000e-009,-8.03124833e-004
,,,-1.77500000e-009,-7.82812332e-004
,,,-1.75000000e-009,-7.65624831e-004
,,,-1.72500000e-009,-7.59374830e-004
,,,-1.70000000e-009,-7.68749831e-004
,,,-1.67500000e-009,-7.99999833e-004
,,,-1.65000000e-009,-8.59374837e-004
,,,-1.62500000e-009,-9.34374843e-004
,,,-1.60000000e-009,-1.01874985e-003
,,,-1.57500000e-009,-1.10156235e-003
,,,-1.55000000e-009,-1.17031236e-003
,,,-1.52500000e-009,-1.21562486e-003
,,,-1.50000000e-009,-1.22812486e-003
,,,-1.47500000e-009,-1.19999986e-003
,,,-1.45000000e-009,-1.14531236e-003
,,,-1.42500000e-009,-1.05937485e-003
,,,-1.40000000e-009,-9.49999844e-004
,,,-1.37500000e-009,-8.24999835e-004
,,,-1.35000000e-009,-6.96874826e-004
,,,-1.32500000e-009,-5.76562317e-004
,,,-1.30000000e-009,-4.74999810e-004
,,,-1.27500000e-009,-3.99999805e-004
,,,-1.25000000e-009,-3.96874805e-004
,,,-1.22500000e-009,-4.31249807e-004
,,,-1.20000000e-009,-4.93749811e-004
,,,-1.17500000e-009,-5.71874817e-004
,,,-1.15000000e-009,-6.54687323e-004
,,,-1.12500000e-009,-7.26562328e-004
,,,-1.10000000e-009,-7.78124832e-004
,,,-1.07500000e-009,-7.99999833e-004
,,,-1.05000000e-009,-8.49999837e-004
,,,-1.02500000e-009,-8.78124839e-004
,,,-1.00000000e-009,-8.87499839e-004
,,,-9.75000000e-010,-8.78124839e-004
,,,-9.50000000e-010,-8.59374837e-004
,,,-9.25000000e-010,-8.34374836e-004
,,,-9.00000000e-010,-8.10937334e-004
,,,-8.75000000e-010,-7.99999833e-004
,,,-8.50000000e-010,-8.98437340e-004
,,,-8.25000000e-010,-1.02968735e-003
,,,-8.00000000e-010,-1.18749986e-003
,,,-7.75000000e-010,-1.36093737e-003
,,,-7.50000000e-010,-1.53906239e-003
,,,-7.25000000e-010,-1.70937490e-003
,,,-7.00000000e-010,-1.86406241e-003
,,,-6.75000000e-010,-1.99999992e-003
,,,-6.50000000e-010,-2.21874993e-003
,,,-6.25000000e-010,-2.44062495e-003
,,,-6.00000000e-010,-2.66718747e-003
,,,-5.75000000e-010,-2.90312498e-003
,,,-5.50000000e-010,-3.14843750e-003
,,,-5.25000000e-010,-3.40937502e-003
,,,-5.00000000e-010,-3.69218754e-003
,,,-4.75000000e-010,-4.00000006e-003
,,,-4.50000000e-010,-4.42343759e-003
,,,-4.25000000e-010,-4.89218762e-003
,,,-4.00000000e-010,-5.39375016e-003
,,,-3.75000000e-010,-5.91718770e-003
,,,-3.50000000e-010,-6.44843773e-003
,,,-3.25000000e-010,-6.97812527e-003
,,,-3.00000000e-010,-7.49687531e-003
,,,-2.75000000e-010,-8.00000034e-003
,,,-2.50000000e-010,-8.52968788e-003
,,,-2.25000000e-010,-9.06562542e-003
,,,-2.00000000e-010,-9.61406296e-003
,,,-1.75000000e-010,-1.01828130e-002
,,,-1.50000000e-010,-1.07812505e-002
,,,-1.25000000e-010,-1.14125006e-002
,,,-1.00000000e-010,-1.20859381e-002
,,,-7.50000000e-011,-1.28000007e-002
,,,-5.00000000e-011,-1.35375007e-002
,,,-2.50000000e-011,-1.43203133e-002
,,,0.00000000e+000,-1.51375008e-002
,,,2.50000000e-011,-1.59765634e-002
,,,5.00000000e-011,-1.68218760e-002
,,,7.50000000e-011,-1.76515635e-002
,,,1.00000000e-010,-1.84500011e-002
,,,1.25000000e-010,-1.92000011e-002
,,,1.50000000e-010,-1.97968762e-002
,,,1.75000000e-010,-2.03406262e-002
,,,2.00000000e-010,-2.08343763e-002
,,,2.25000000e-010,-2.12875013e-002
,,,2.50000000e-010,-2.17046888e-002
,,,2.75000000e-010,-2.20937513e-002
,,,3.00000000e-010,-2.24593764e-002
,,,3.25000000e-010,-2.28000014e-002
,,,3.50000000e-010,-2.29875014e-002
,,,3.75000000e-010,-2.31640639e-002
,,,4.00000000e-010,-2.33390639e-002
,,,4.25000000e-010,-2.35078139e-002
,,,4.50000000e-010,-2.36687515e-002
,,,4.75000000e-010,-2.38109390e-002
,,,5.00000000e-010,-2.39250015e-002
,,,5.25000000e-010,-2.40000015e-002
,,,5.50000000e-010,-2.38796890e-002
,,,5.75000000e-010,-2.37234390e-002
,,,6.00000000e-010,-2.35406264e-002
,,,6.25000000e-010,-2.33359389e-002
,,,6.50000000e-010,-2.31187514e-002
,,,6.75000000e-010,-2.28890639e-002
,,,7.00000000e-010,-2.26500014e-002
,,,7.25000000e-010,-2.24000014e-002
,,,7.50000000e-010,-2.20093763e-002
,,,7.75000000e-010,-2.16140638e-002
,,,8.00000000e-010,-2.12187513e-002
,,,8.25000000e-010,-2.08250013e-002
,,,8.50000000e-010,-2.04296887e-002
,,,8.75000000e-010,-2.00296887e-002
,,,9.00000000e-010,-1.96218762e-002
,,,9.25000000e-010,-1.92000011e-002
,,,9.50000000e-010,-1.86796886e-002
,,,9.75000000e-010,-1.81515636e-002
,,,1.00000000e-009,-1.76203135e-002
,,,1.02500000e-009,-1.70984385e-002
,,,1.05000000e-009,-1.65890635e-002
,,,1.07500000e-009,-1.61015634e-002
,,,1.10000000e-009,-1.56375009e-002
,,,1.12500000e-009,-1.52000009e-002
,,,1.15000000e-009,-1.47546883e-002
,,,1.17500000e-009,-1.43265633e-002
,,,1.20000000e-009,-1.39125008e-002
,,,1.22500000e-009,-1.35125007e-002
,,,1.25000000e-009,-1.31250007e-002
,,,1.27500000e-009,-1.27453132e-002
,,,1.30000000e-009,-1.23718757e-002
,,,1.32500000e-009,-1.20000006e-002
,,,1.35000000e-009,-1.16343756e-002
,,,1.37500000e-009,-1.12500006e-002
,,,1.40000000e-009,-1.08500005e-002
,,,1.42500000e-009,-1.04359380e-002
,,,1.45000000e-009,-1.00171880e-002
,,,1.47500000e-009,-9.59843796e-003
,,,1.50000000e-009,-9.19062543e-003
,,,1.52500000e-009,-8.80000040e-003
,,,1.55000000e-009,-8.47187538e-003
,,,1.57500000e-009,-8.15625035e-003
,,,1.60000000e-009,-7.85781283e-003
,,,1.62500000e-009,-7.58125031e-003
,,,1.65000000e-009,-7.33437530e-003
,,,1.67500000e-009,-7.12031278e-003
,,,1.70000000e-009,-6.94218777e-003
,,,1.72500000e-009,-6.80000026e-003
,,,1.75000000e-009,-6.73281275e-003
,,,1.77500000e-009,-6.66718775e-003
,,,1.80000000e-009,-6.59843774e-003
,,,1.82500000e-009,-6.51562524e-003
,,,1.85000000e-009,-6.41875023e-003
,,,1.87500000e-009,-6.30000022e-003
,,,1.90000000e-009,-6.16093771e-003
,,,1.92500000e-009,-6.00000020e-003
,,,1.95000000e-009,-5.85468769e-003
,,,1.97500000e-009,-5.67656268e-003
,,,2.00000000e-009,-5.47031266e-003
,,,2.02500000e-009,-5.24531265e-003
,,,2.05000000e-009,-5.01406263e-003
,,,2.07500000e-009,-4.78906262e-003
,,,2.10000000e-009,-4.58125010e-003
,,,2.12500000e-009,-4.40000009e-003
,,,2.15000000e-009,-4.28437508e-003
,,,2.17500000e-009,-4.19218757e-003
,,,2.20000000e-009,-4.12187507e-003
,,,2.22500000e-009,-4.07187506e-003
,,,2.25000000e-009,-4.03750006e-003
,,,2.27500000e-009,-4.01718756e-003
,,,2.30000000e-009,-4.00625006e-003
,,,2.32500000e-009,-4.00000006e-003
,,,2.35000000e-009,-4.01562506e-003
,,,2.37500000e-009,-4.01250006e-003
,,,2.40000000e-009,-3.99062506e-003
,,,2.42500000e-009,-3.94687506e-003
,,,2.45000000e-009,-3.88125005e-003
,,,2.47500000e-009,-3.80000005e-003
,,,2.50000000e-009,-3.70468754e-003
,,,2.52500000e-009,-3.60000003e-003
,,,2.55000000e-009,-3.50156252e-003
,,,2.57500000e-009,-3.39531252e-003
,,,2.60000000e-009,-3.28437501e-003
,,,2.62500000e-009,-3.17343750e-003
,,,2.65000000e-009,-3.06718749e-003
,,,2.67500000e-009,-2.96718749e-003
,,,2.70000000e-009,-2.87812498e-003
,,,2.72500000e-009,-2.79999997e-003
,,,2.75000000e-009,-2.74687497e-003
,,,2.77500000e-009,-2.69999997e-003
,,,2.80000000e-009,-2.65468746e-003
,,,2.82500000e-009,-2.61093746e-003
,,,2.85000000e-009,-2.56562496e-003
,,,2.87500000e-009,-2.51562495e-003
,,,2.90000000e-009,-2.46093745e-003
,,,2.92500000e-009,-2.39999995e-003
,,,2.95000000e-009,-2.34687494e-003
,,,2.97500000e-009,-2.28749994e-003
,,,3.00000000e-009,-2.22343743e-003
,,,3.02500000e-009,-2.15937493e-003
,,,3.05000000e-009,-2.10156243e-003
,,,3.07500000e-009,-2.05468742e-003
,,,3.10000000e-009,-2.02031242e-003
,,,3.12500000e-009,-1.99999992e-003
,,,3.15000000e-009,-2.00624992e-003
,,,3.17500000e-009,-2.02031242e-003
,,,3.20000000e-009,-2.03749992e-003
,,,3.22500000e-009,-2.05468742e-003
,,,3.25000000e-009,-2.06249992e-003
,,,3.27500000e-009,-2.05937492e-003
,,,3.30000000e-009,-2.03906242e-003
,,,3.32500000e-009,-1.99999992e-003
,,,3.35000000e-009,-1.95156241e-003
,,,3.37500000e-009,-1.88906241e-003
,,,3.40000000e-009,-1.81562490e-003
,,,3.42500000e-009,-1.74218740e-003
,,,3.45000000e-009,-1.67812490e-003
,,,3.47500000e-009,-1.62812489e-003
,,,3.50000000e-009,-1.60156239e-003
,,,3.52500000e-009,-1.59999989e-003
,,,3.55000000e-009,-1.63281239e-003
,,,3.57500000e-009,-1.68593740e-003
,,,3.60000000e-009,-1.75312490e-003
,,,3.62500000e-009,-1.82499991e-003
,,,3.65000000e-009,-1.89374991e-003
,,,3.67500000e-009,-1.94999991e-003
,,,3.70000000e-009,-1.98749992e-003
,,,3.72500000e-009,-1.99999992e-003
,,,3.75000000e-009,-1.98749992e-003
,,,3.77500000e-009,-1.94687491e-003
,,,3.80000000e-009,-1.88749991e-003
,,,3.82500000e-009,-1.81562490e-003
,,,3.85000000e-009,-1.74218740e-003
,,,3.87500000e-009,-1.67656240e-003
,,,3.90000000e-009,-1.62656239e-003
,,,3.92500000e-009,-1.59999989e-003
,,,3.95000000e-009,-1.59999989e-003
,,,3.97500000e-009,-1.62656239e-003
,,,4.00000000e-009,-1.67343739e-003
,,,4.02500000e-009,-1.73749990e-003
,,,4.05000000e-009,-1.81093740e-003
,,,4.07500000e-009,-1.88437491e-003
,,,4.10000000e-009,-1.94999991e-003
,,,4.12500000e-009,-1.99999992e-003
,,,4.15000000e-009,-2.02499992e-003
,,,4.17500000e-009,-2.02343742e-003
,,,4.20000000e-009,-1.99531242e-003
,,,4.22500000e-009,-1.94374991e-003
,,,4.25000000e-009,-1.87343741e-003
,,,4.27500000e-009,-1.78906240e-003
,,,4.30000000e-009,-1.69531240e-003
,,,4.32500000e-009,-1.59999989e-003
,,,4.35000000e-009,-1.50781238e-003
,,,4.37500000e-009,-1.42187488e-003
,,,4.40000000e-009,-1.34843737e-003
,,,4.42500000e-009,-1.28906237e-003
,,,4.45000000e-009,-1.24531236e-003
,,,4.47500000e-009,-1.21718736e-003
,,,4.50000000e-009,-1.20312486e-003
,,,4.52500000e-009,-1.19999986e-003
,,,4.55000000e-009,-1.20781236e-003
,,,4.57500000e-009,-1.21874986e-003
,,,4.60000000e-009,-1.22968736e-003
,,,4.62500000e-009,-1.24062486e-003
,,,4.65000000e-009,-1.24374986e-003
,,,4.67500000e-009,-1.24062486e-003
,,,4.70000000e-009,-1.22656236e-003
,,,4.72500000e-009,-1.19999986e-003
,,,4.75000000e-009,-1.16718736e-003
,,,4.77500000e-009,-1.12499986e-003
,,,4.80000000e-009,-1.07343735e-003
,,,4.82500000e-009,-1.01562485e-003
,,,4.85000000e-009,-9.57812344e-004
,,,4.87500000e-009,-8.99999840e-004
,,,4.90000000e-009,-8.46874836e-004
,,,4.92500000e-009,-7.99999833e-004
,,,4.95000000e-009,-7.70312331e-004
,,,4.97500000e-009,-7.51562330e-004
,,,5.00000000e-009,-7.42187329e-004
,,,5.02500000e-009,-7.42187329e-004
,,,5.05000000e-009,-7.51562330e-004
,,,5.07500000e-009,-7.65624831e-004
,,,5.10000000e-009,-7.82812332e-004
,,,5.12500000e-009,-7.99999833e-004
,,,5.15000000e-009,-8.23437335e-004
,,,5.17500000e-009,-8.42187336e-004
,,,5.20000000e-009,-8.53124837e-004
,,,5.22500000e-009,-8.56249837e-004
,,,5.25000000e-009,-8.51562337e-004
,,,5.27500000e-009,-8.39062336e-004
,,,5.30000000e-009,-8.21874835e-004
,,,5.32500000e-009,-7.99999833e-004
,,,5.35000000e-009,-7.81249832e-004
,,,5.37500000e-009,-7.62499830e-004
,,,5.40000000e-009,-7.46874829e-004
,,,5.42500000e-009,-7.37499829e-004
,,,5.45000000e-009,-7.37499829e-004
,,,5.47500000e-009,-7.46874829e-004
,,,5.50000000e-009,-7.67187331e-004
,,,5.52500000e-009,-7.99999833e-004
,,,5.55000000e-009,-8.46874836e-004
,,,5.57500000e-009,-8.98437340e-004
,,,5.60000000e-009,-9.56249844e-004
,,,5.62500000e-009,-1.01562485e-003
,,,5.65000000e-009,-1.07343735e-003
,,,5.67500000e-009,-1.12499986e-003
,,,5.70000000e-009,-1.16718736e-003
,,,5.72500000e-009,-1.19999986e-003
,,,5.75000000e-009,-1.22031236e-003
,,,5.77500000e-009,-1.22968736e-003
,,,5.80000000e-009,-1.22968736e-003
