RawData/CosmicRays/L6_2pt2C_15mV/wave015_Ch3.csv

"Record Length",1000,"Points",-7.72500000e-009,-7.51562330e-004
"Sample Interval",2.50000000e-011,s,-7.70000000e-009,-6.89062325e-004
"Trigger Point",309,"Samples",-7.67500000e-009,-6.18749820e-004
"Trigger Time",1.71978402e-012,s,-7.65000000e-009,-5.46874815e-004
"",,,-7.62500000e-009,-4.81249811e-004
"Horizontal Offset",-7.72500000e-009,s,-7.60000000e-009,-4.32812307e-004
,,,-7.57500000e-009,-4.04687305e-004
,,,-7.55000000e-009,-3.99999805e-004
,,,-7.52500000e-009,-4.24999807e-004
,,,-7.50000000e-009,-4.73437310e-004
,,,-7.47500000e-009,-5.37499815e-004
,,,-7.45000000e-009,-6.09374820e-004
,,,-7.42500000e-009,-6.81249825e-004
,,,-7.40000000e-009,-7.40624829e-004
,,,-7.37500000e-009,-7.82812332e-004
,,,-7.35000000e-009,-7.99999833e-004
,,,-7.32500000e-009,-7.90624832e-004
,,,-7.30000000e-009,-7.56249830e-004
,,,-7.27500000e-009,-6.99999826e-004
,,,-7.25000000e-009,-6.31249821e-004
,,,-7.22500000e-009,-5.57812316e-004
,,,-7.20000000e-009,-4.90624811e-004
,,,-7.17500000e-009,-4.34374807e-004
,,,-7.15000000e-009,-3.99999805e-004
,,,-7.12500000e-009,-3.93749804e-004
,,,-7.10000000e-009,-4.12499806e-004
,,,-7.07500000e-009,-4.54687309e-004
,,,-7.05000000e-009,-5.14062313e-004
,,,-7.02500000e-009,-5.84374818e-004
,,,-7.00000000e-009,-6.60937323e-004
,,,-6.97500000e-009,-7.35937329e-004
,,,-6.95000000e-009,-7.99999833e-004
,,,-6.92500000e-009,-8.53124837e-004
,,,-6.90000000e-009,-8.87499839e-004
,,,-6.87500000e-009,-9.03124840e-004
,,,-6.85000000e-009,-9.03124840e-004
,,,-6.82500000e-009,-8.89062339e-004
,,,-6.80000000e-009,-8.64062338e-004
,,,-6.77500000e-009,-8.32812335e-004
,,,-6.75000000e-009,-7.99999833e-004
,,,-6.72500000e-009,-7.68749831e-004
,,,-6.70000000e-009,-7.43749829e-004
,,,-6.67500000e-009,-7.28124828e-004
,,,-6.65000000e-009,-7.21874828e-004
,,,-6.62500000e-009,-7.28124828e-004
,,,-6.60000000e-009,-7.43749829e-004
,,,-6.57500000e-009,-7.68749831e-004
,,,-6.55000000e-009,-7.99999833e-004
,,,-6.52500000e-009,-8.31249835e-004
,,,-6.50000000e-009,-8.60937337e-004
,,,-6.47500000e-009,-8.82812339e-004
,,,-6.45000000e-009,-8.96874840e-004
,,,-6.42500000e-009,-8.96874840e-004
,,,-6.40000000e-009,-8.81249839e-004
,,,-6.37500000e-009,-8.48437337e-004
,,,-6.35000000e-009,-7.99999833e-004
,,,-6.32500000e-009,-7.39062329e-004
,,,-6.30000000e-009,-6.70312324e-004
,,,-6.27500000e-009,-5.98437319e-004
,,,-6.25000000e-009,-5.29687314e-004
,,,-6.22500000e-009,-4.70312310e-004
,,,-6.20000000e-009,-4.26562307e-004
,,,-6.17500000e-009,-4.01562305e-004
,,,-6.15000000e-009,-3.99999805e-004
,,,-6.12500000e-009,-4.23437306e-004
,,,-6.10000000e-009,-4.67187310e-004
,,,-6.07500000e-009,-5.24999814e-004
,,,-6.05000000e-009,-5.92187318e-004
,,,-6.02500000e-009,-6.60937323e-004
,,,-6.00000000e-009,-7.21874828e-004
,,,-5.97500000e-009,-7.70312331e-004
,,,-5.95000000e-009,-7.99999833e-004
,,,-5.92500000e-009,-8.06249834e-004
,,,-5.90000000e-009,-7.87499832e-004
,,,-5.87500000e-009,-7.46874829e-004
,,,-5.85000000e-009,-6.89062325e-004
,,,-5.82500000e-009,-6.20312320e-004
,,,-5.80000000e-009,-5.43749815e-004
,,,-5.77500000e-009,-4.68749810e-004
,,,-5.75000000e-009,-3.99999805e-004
,,,-5.72500000e-009,-3.46874801e-004
,,,-5.70000000e-009,-3.07812298e-004
,,,-5.67500000e-009,-2.85937297e-004
,,,-5.65000000e-009,-2.81249796e-004
,,,-5.62500000e-009,-2.92187297e-004
,,,-5.60000000e-009,-3.18749799e-004
,,,-5.57500000e-009,-3.54687302e-004
,,,-5.55000000e-009,-3.99999805e-004
,,,-5.52500000e-009,-4.53124809e-004
,,,-5.50000000e-009,-5.07812312e-004
,,,-5.47500000e-009,-5.62499816e-004
,,,-5.45000000e-009,-6.15624820e-004
,,,-5.42500000e-009,-6.67187324e-004
,,,-5.40000000e-009,-7.15624827e-004
,,,-5.37500000e-009,-7.60937330e-004
,,,-5.35000000e-009,-7.99999833e-004
,,,-5.32500000e-009,-8.32812335e-004
,,,-5.30000000e-009,-8.57812337e-004
,,,-5.27500000e-009,-8.74999838e-004
,,,-5.25000000e-009,-8.81249839e-004
,,,-5.22500000e-009,-8.76562339e-004
,,,-5.20000000e-009,-8.62499838e-004
,,,-5.17500000e-009,-8.37499836e-004
,,,-5.15000000e-009,-7.99999833e-004
,,,-5.12500000e-009,-7.53124830e-004
,,,-5.10000000e-009,-6.98437326e-004
,,,-5.07500000e-009,-6.40624822e-004
,,,-5.05000000e-009,-5.82812318e-004
,,,-5.02500000e-009,-5.28124814e-004
,,,-5.00000000e-009,-4.78124810e-004
,,,-4.97500000e-009,-4.34374807e-004
,,,-4.95000000e-009,-3.99999805e-004
,,,-4.92500000e-009,-3.78124803e-004
,,,-4.90000000e-009,-3.64062302e-004
,,,-4.87500000e-009,-3.59374802e-004
,,,-4.85000000e-009,-3.60937302e-004
,,,-4.82500000e-009,-3.68749803e-004
,,,-4.80000000e-009,-3.78124803e-004
,,,-4.77500000e-009,-3.90624804e-004
,,,-4.75000000e-009,-3.99999805e-004
,,,-4.72500000e-009,-4.09374805e-004
,,,-4.70000000e-009,-4.15624806e-004
,,,-4.67500000e-009,-4.18749806e-004
,,,-4.65000000e-009,-4.18749806e-004
,,,-4.62500000e-009,-4.15624806e-004
,,,-4.60000000e-009,-4.10937306e-004
,,,-4.57500000e-009,-4.06249805e-004
,,,-4.55000000e-009,-3.99999805e-004
,,,-4.52500000e-009,-3.98437305e-004
,,,-4.50000000e-009,-3.96874805e-004
,,,-4.47500000e-009,-3.98437305e-004
,,,-4.45000000e-009,-3.98437305e-004
,,,-4.42500000e-009,-3.99999805e-004
,,,-4.40000000e-009,-4.01562305e-004
,,,-4.37500000e-009,-4.01562305e-004
,,,-4.35000000e-009,-3.99999805e-004
,,,-4.32500000e-009,-4.01562305e-004
,,,-4.30000000e-009,-4.01562305e-004
,,,-4.27500000e-009,-3.99999805e-004
,,,-4.25000000e-009,-3.98437305e-004
,,,-4.22500000e-009,-3.98437305e-004
,,,-4.20000000e-009,-3.96874805e-004
,,,-4.17500000e-009,-3.98437305e-004
,,,-4.15000000e-009,-3.99999805e-004
,,,-4.12500000e-009,-4.06249805e-004
,,,-4.10000000e-009,-4.10937306e-004
,,,-4.07500000e-009,-4.15624806e-004
,,,-4.05000000e-009,-4.18749806e-004
,,,-4.02500000e-009,-4.18749806e-004
,,,-4.00000000e-009,-4.15624806e-004
,,,-3.97500000e-009,-4.09374805e-004
,,,-3.95000000e-009,-3.99999805e-004
,,,-3.92500000e-009,-3.90624804e-004
,,,-3.90000000e-009,-3.78124803e-004
,,,-3.87500000e-009,-3.68749803e-004
,,,-3.85000000e-009,-3.60937302e-004
,,,-3.82500000e-009,-3.59374802e-004
,,,-3.80000000e-009,-3.64062302e-004
,,,-3.77500000e-009,-3.78124803e-004
,,,-3.75000000e-009,-3.99999805e-004
,,,-3.72500000e-009,-4.32812307e-004
,,,-3.70000000e-009,-4.73437310e-004
,,,-3.67500000e-009,-5.21874813e-004
,,,-3.65000000e-009,-5.76562317e-004
,,,-3.62500000e-009,-6.34374821e-004
,,,-3.60000000e-009,-6.92187325e-004
,,,-3.57500000e-009,-7.48437329e-004
,,,-3.55000000e-009,-7.99999833e-004
,,,-3.52500000e-009,-8.40624836e-004
,,,-3.50000000e-009,-8.71874838e-004
,,,-3.47500000e-009,-8.90624840e-004
,,,-3.45000000e-009,-8.96874840e-004
,,,-3.42500000e-009,-8.90624840e-004
,,,-3.40000000e-009,-8.71874838e-004
,,,-3.37500000e-009,-8.40624836e-004
,,,-3.35000000e-009,-7.99999833e-004
,,,-3.32500000e-009,-7.48437329e-004
,,,-3.30000000e-009,-6.92187325e-004
,,,-3.27500000e-009,-6.34374821e-004
,,,-3.25000000e-009,-5.76562317e-004
,,,-3.22500000e-009,-5.21874813e-004
,,,-3.20000000e-009,-4.73437310e-004
,,,-3.17500000e-009,-4.32812307e-004
,,,-3.15000000e-009,-3.99999805e-004
,,,-3.12500000e-009,-3.79687303e-004
,,,-3.10000000e-009,-3.68749803e-004
,,,-3.07500000e-009,-3.65624802e-004
,,,-3.05000000e-009,-3.68749803e-004
,,,-3.02500000e-009,-3.74999803e-004
,,,-3.00000000e-009,-3.84374804e-004
,,,-2.97500000e-009,-3.93749804e-004
,,,-2.95000000e-009,-3.99999805e-004
,,,-2.92500000e-009,-4.04687305e-004
,,,-2.90000000e-009,-4.06249805e-004
,,,-2.87500000e-009,-4.06249805e-004
,,,-2.85000000e-009,-4.03124805e-004
,,,-2.82500000e-009,-3.99999805e-004
,,,-2.80000000e-009,-3.98437305e-004
,,,-2.77500000e-009,-3.98437305e-004
,,,-2.75000000e-009,-3.99999805e-004
,,,-2.72500000e-009,-4.07812305e-004
,,,-2.70000000e-009,-4.17187306e-004
,,,-2.67500000e-009,-4.24999807e-004
,,,-2.65000000e-009,-4.31249807e-004
,,,-2.62500000e-009,-4.34374807e-004
,,,-2.60000000e-009,-4.29687307e-004
,,,-2.57500000e-009,-4.18749806e-004
,,,-2.55000000e-009,-3.99999805e-004
,,,-2.52500000e-009,-3.79687303e-004
,,,-2.50000000e-009,-3.56249802e-004
,,,-2.47500000e-009,-3.35937300e-004
,,,-2.45000000e-009,-3.20312299e-004
,,,-2.42500000e-009,-3.17187299e-004
,,,-2.40000000e-009,-3.28124800e-004
,,,-2.37500000e-009,-3.54687302e-004
,,,-2.35000000e-009,-3.99999805e-004
,,,-2.32500000e-009,-4.62499809e-004
,,,-2.30000000e-009,-5.34374814e-004
,,,-2.27500000e-009,-6.09374820e-004
,,,-2.25000000e-009,-6.81249825e-004
,,,-2.22500000e-009,-7.42187329e-004
,,,-2.20000000e-009,-7.84374832e-004
,,,-2.17500000e-009,-8.04687333e-004
,,,-2.15000000e-009,-7.99999833e-004
,,,-2.12500000e-009,-7.70312331e-004
,,,-2.10000000e-009,-7.18749827e-004
,,,-2.07500000e-009,-6.54687323e-004
,,,-2.05000000e-009,-5.82812318e-004
,,,-2.02500000e-009,-5.15624813e-004
,,,-2.00000000e-009,-4.57812309e-004
,,,-1.97500000e-009,-4.17187306e-004
,,,-1.95000000e-009,-3.99999805e-004
,,,-1.92500000e-009,-4.12499806e-004
,,,-1.90000000e-009,-4.49999808e-004
,,,-1.87500000e-009,-5.06249812e-004
,,,-1.85000000e-009,-5.74999817e-004
,,,-1.82500000e-009,-6.46874822e-004
,,,-1.80000000e-009,-7.14062327e-004
,,,-1.77500000e-009,-7.67187331e-004
,,,-1.75000000e-009,-7.99999833e-004
,,,-1.72500000e-009,-8.10937334e-004
,,,-1.70000000e-009,-7.96874833e-004
,,,-1.67500000e-009,-7.60937330e-004
,,,-1.65000000e-009,-7.03124826e-004
,,,-1.62500000e-009,-6.32812321e-004
,,,-1.60000000e-009,-5.54687316e-004
,,,-1.57500000e-009,-4.74999810e-004
,,,-1.55000000e-009,-3.99999805e-004
,,,-1.52500000e-009,-3.51562301e-004
,,,-1.50000000e-009,-3.20312299e-004
,,,-1.47500000e-009,-3.07812298e-004
,,,-1.45000000e-009,-3.09374798e-004
,,,-1.42500000e-009,-3.21874799e-004
,,,-1.40000000e-009,-3.43749801e-004
,,,-1.37500000e-009,-3.71874803e-004
,,,-1.35000000e-009,-3.99999805e-004
,,,-1.32500000e-009,-4.60937309e-004
,,,-1.30000000e-009,-5.23437314e-004
,,,-1.27500000e-009,-5.85937318e-004
,,,-1.25000000e-009,-6.43749822e-004
,,,-1.22500000e-009,-6.95312326e-004
,,,-1.20000000e-009,-7.39062329e-004
,,,-1.17500000e-009,-7.73437331e-004
,,,-1.15000000e-009,-7.99999833e-004
,,,-1.12500000e-009,-8.70312338e-004
,,,-1.10000000e-009,-9.42187343e-004
,,,-1.07500000e-009,-1.01093735e-003
,,,-1.05000000e-009,-1.07343735e-003
,,,-1.02500000e-009,-1.12656236e-003
,,,-1.00000000e-009,-1.16562486e-003
,,,-9.75000000e-010,-1.19062486e-003
,,,-9.50000000e-010,-1.19999986e-003
,,,-9.25000000e-010,-1.27031237e-003
,,,-9.00000000e-010,-1.33906237e-003
,,,-8.75000000e-010,-1.40624988e-003
,,,-8.50000000e-010,-1.46718738e-003
,,,-8.25000000e-010,-1.51718738e-003
,,,-8.00000000e-010,-1.55312489e-003
,,,-7.75000000e-010,-1.57968739e-003
,,,-7.50000000e-010,-1.59999989e-003
,,,-7.25000000e-010,-1.70781240e-003
,,,-7.00000000e-010,-1.83906241e-003
,,,-6.75000000e-010,-1.99531242e-003
,,,-6.50000000e-010,-2.17968743e-003
,,,-6.25000000e-010,-2.39218745e-003
,,,-6.00000000e-010,-2.63124996e-003
,,,-5.75000000e-010,-2.90156248e-003
,,,-5.50000000e-010,-3.20000000e-003
,,,-5.25000000e-010,-3.60312503e-003
,,,-5.00000000e-010,-4.04375006e-003
,,,-4.75000000e-010,-4.50937510e-003
,,,-4.50000000e-010,-4.98750013e-003
,,,-4.25000000e-010,-5.46562516e-003
,,,-4.00000000e-010,-5.93125020e-003
,,,-3.75000000e-010,-6.37656273e-003
,,,-3.50000000e-010,-6.80000026e-003
,,,-3.25000000e-010,-7.23906279e-003
,,,-3.00000000e-010,-7.67812532e-003
,,,-2.75000000e-010,-8.12656285e-003
,,,-2.50000000e-010,-8.59218788e-003
,,,-2.25000000e-010,-9.08593792e-003
,,,-2.00000000e-010,-9.61406296e-003
,,,-1.75000000e-010,-1.01843755e-002
,,,-1.50000000e-010,-1.08000005e-002
,,,-1.25000000e-010,-1.14484381e-002
,,,-1.00000000e-010,-1.21421881e-002
,,,-7.50000000e-011,-1.28671882e-002
,,,-5.00000000e-011,-1.36109382e-002
,,,-2.50000000e-011,-1.43546883e-002
,,,0.00000000e+000,-1.50781258e-002
,,,2.50000000e-011,-1.57640634e-002
,,,5.00000000e-011,-1.64000009e-002
,,,7.50000000e-011,-1.68984385e-002
,,,1.00000000e-010,-1.73453135e-002
,,,1.25000000e-010,-1.77531260e-002
,,,1.50000000e-010,-1.81343761e-002
,,,1.75000000e-010,-1.85000011e-002
,,,2.00000000e-010,-1.88625011e-002
,,,2.25000000e-010,-1.92281261e-002
,,,2.50000000e-010,-1.96000012e-002
,,,2.75000000e-010,-1.98562512e-002
,,,3.00000000e-010,-2.01156262e-002
,,,3.25000000e-010,-2.03765637e-002
,,,3.50000000e-010,-2.06265637e-002
,,,3.75000000e-010,-2.08500013e-002
,,,4.00000000e-010,-2.10312513e-002
,,,4.25000000e-010,-2.11515638e-002
,,,4.50000000e-010,-2.12000013e-002
,,,4.75000000e-010,-2.10312513e-002
,,,5.00000000e-010,-2.08031262e-002
,,,5.25000000e-010,-2.05312512e-002
,,,5.50000000e-010,-2.02375012e-002
,,,5.75000000e-010,-1.99437512e-002
,,,6.00000000e-010,-1.96640637e-002
,,,6.25000000e-010,-1.94156262e-002
,,,6.50000000e-010,-1.92000011e-002
,,,6.75000000e-010,-1.89062511e-002
,,,7.00000000e-010,-1.86484386e-002
,,,7.25000000e-010,-1.84203136e-002
,,,7.50000000e-010,-1.82125011e-002
,,,7.75000000e-010,-1.80046886e-002
,,,8.00000000e-010,-1.77781260e-002
,,,8.25000000e-010,-1.75156260e-002
,,,8.50000000e-010,-1.72000010e-002
,,,8.75000000e-010,-1.67406260e-002
,,,9.00000000e-010,-1.62218759e-002
,,,9.25000000e-010,-1.56609384e-002
,,,9.50000000e-010,-1.50718758e-002
,,,9.75000000e-010,-1.44734383e-002
,,,1.00000000e-009,-1.38859383e-002
,,,1.02500000e-009,-1.33234382e-002
,,,1.05000000e-009,-1.28000007e-002
,,,1.07500000e-009,-1.22953131e-002
,,,1.10000000e-009,-1.18343756e-002
,,,1.12500000e-009,-1.14109381e-002
,,,1.15000000e-009,-1.10218756e-002
,,,1.17500000e-009,-1.06578130e-002
,,,1.20000000e-009,-1.03046880e-002
,,,1.22500000e-009,-9.95625048e-003
,,,1.25000000e-009,-9.60000046e-003
,,,1.27500000e-009,-9.24375043e-003
,,,1.30000000e-009,-8.86093790e-003
,,,1.32500000e-009,-8.45156287e-003
,,,1.35000000e-009,-8.02656284e-003
,,,1.37500000e-009,-7.59531281e-003
,,,1.40000000e-009,-7.17343778e-003
,,,1.42500000e-009,-6.77031276e-003
,,,1.45000000e-009,-6.40000023e-003
,,,1.47500000e-009,-6.11250021e-003
,,,1.50000000e-009,-5.85156269e-003
,,,1.52500000e-009,-5.61875017e-003
,,,1.55000000e-009,-5.40937516e-003
,,,1.57500000e-009,-5.22656265e-003
,,,1.60000000e-009,-5.06562514e-003
,,,1.62500000e-009,-4.92500013e-003
,,,1.65000000e-009,-4.80000012e-003
,,,1.67500000e-009,-4.73750011e-003
,,,1.70000000e-009,-4.66718761e-003
,,,1.72500000e-009,-4.58125010e-003
,,,1.75000000e-009,-4.48125009e-003
,,,1.77500000e-009,-4.36718759e-003
,,,1.80000000e-009,-4.24687508e-003
,,,1.82500000e-009,-4.12187507e-003
,,,1.85000000e-009,-4.00000006e-003
,,,1.87500000e-009,-3.93125005e-003
,,,1.90000000e-009,-3.85781255e-003
,,,1.92500000e-009,-3.78593754e-003
,,,1.95000000e-009,-3.71718754e-003
,,,1.97500000e-009,-3.66093754e-003
,,,2.00000000e-009,-3.62031253e-003
,,,2.02500000e-009,-3.60000003e-003
,,,2.05000000e-009,-3.60000003e-003
,,,2.07500000e-009,-3.64687503e-003
,,,2.10000000e-009,-3.69218754e-003
,,,2.12500000e-009,-3.72968754e-003
,,,2.15000000e-009,-3.75156254e-003
,,,2.17500000e-009,-3.75312504e-003
,,,2.20000000e-009,-3.72812504e-003
,,,2.22500000e-009,-3.67812504e-003
,,,2.25000000e-009,-3.60000003e-003
,,,2.27500000e-009,-3.51562503e-003
,,,2.30000000e-009,-3.40625002e-003
,,,2.32500000e-009,-3.27968751e-003
,,,2.35000000e-009,-3.14687500e-003
,,,2.37500000e-009,-3.02343749e-003
,,,2.40000000e-009,-2.91718748e-003
,,,2.42500000e-009,-2.84062498e-003
,,,2.45000000e-009,-2.79999997e-003
,,,2.47500000e-009,-2.80312497e-003
,,,2.50000000e-009,-2.83437498e-003
,,,2.52500000e-009,-2.89062498e-003
,,,2.55000000e-009,-2.96093749e-003
,,,2.57500000e-009,-3.03749999e-003
,,,2.60000000e-009,-3.11093750e-003
,,,2.62500000e-009,-3.16718750e-003
,,,2.65000000e-009,-3.20000000e-003
,,,2.67500000e-009,-3.20156250e-003
,,,2.70000000e-009,-3.16718750e-003
,,,2.72500000e-009,-3.09531250e-003
,,,2.75000000e-009,-2.99062499e-003
,,,2.77500000e-009,-2.85937498e-003
,,,2.80000000e-009,-2.71249997e-003
,,,2.82500000e-009,-2.55624996e-003
,,,2.85000000e-009,-2.39999995e-003
,,,2.87500000e-009,-2.26093744e-003
,,,2.90000000e-009,-2.13906243e-003
,,,2.92500000e-009,-2.04218742e-003
,,,2.95000000e-009,-1.97499992e-003
,,,2.97500000e-009,-1.93906241e-003
,,,3.00000000e-009,-1.93281241e-003
,,,3.02500000e-009,-1.95624991e-003
,,,3.05000000e-009,-1.99999992e-003
,,,3.07500000e-009,-2.06093742e-003
,,,3.10000000e-009,-2.12343743e-003
,,,3.12500000e-009,-2.17499993e-003
,,,3.15000000e-009,-2.20781243e-003
,,,3.17500000e-009,-2.21093743e-003
,,,3.20000000e-009,-2.17968743e-003
,,,3.22500000e-009,-2.11093743e-003
,,,3.25000000e-009,-1.99999992e-003
,,,3.27500000e-009,-1.85468741e-003
,,,3.30000000e-009,-1.68124990e-003
,,,3.32500000e-009,-1.49218738e-003
,,,3.35000000e-009,-1.29999987e-003
,,,3.37500000e-009,-1.12187486e-003
,,,3.40000000e-009,-9.71874845e-004
,,,3.42500000e-009,-8.60937337e-004
,,,3.45000000e-009,-7.99999833e-004
,,,3.47500000e-009,-8.01562333e-004
,,,3.50000000e-009,-8.49999837e-004
,,,3.52500000e-009,-9.40624843e-004
,,,3.55000000e-009,-1.06249985e-003
,,,3.57500000e-009,-1.20156236e-003
,,,3.60000000e-009,-1.34687487e-003
,,,3.62500000e-009,-1.48281238e-003
,,,3.65000000e-009,-1.59999989e-003
,,,3.67500000e-009,-1.69062490e-003
,,,3.70000000e-009,-1.74531240e-003
,,,3.72500000e-009,-1.76718740e-003
,,,3.75000000e-009,-1.75937490e-003
,,,3.77500000e-009,-1.73124990e-003
,,,3.80000000e-009,-1.69062490e-003
,,,3.82500000e-009,-1.64531239e-003
,,,3.85000000e-009,-1.59999989e-003
,,,3.87500000e-009,-1.56249989e-003
,,,3.90000000e-009,-1.52812488e-003
,,,3.92500000e-009,-1.49531238e-003
,,,3.95000000e-009,-1.46249988e-003
,,,3.97500000e-009,-1.42031238e-003
,,,4.00000000e-009,-1.36562487e-003
,,,4.02500000e-009,-1.29374987e-003
,,,4.05000000e-009,-1.19999986e-003
,,,4.07500000e-009,-1.09218735e-003
,,,4.10000000e-009,-9.68749845e-004
,,,4.12500000e-009,-8.37499836e-004
,,,4.15000000e-009,-7.09374827e-004
,,,4.17500000e-009,-5.93749819e-004
,,,4.20000000e-009,-4.98437312e-004
,,,4.22500000e-009,-4.32812307e-004
,,,4.25000000e-009,-3.99999805e-004
,,,4.27500000e-009,-4.10937306e-004
,,,4.30000000e-009,-4.51562308e-004
,,,4.32500000e-009,-5.14062313e-004
,,,4.35000000e-009,-5.87499818e-004
,,,4.37500000e-009,-6.62499823e-004
,,,4.40000000e-009,-7.29687328e-004
,,,4.42500000e-009,-7.78124832e-004
,,,4.45000000e-009,-7.99999833e-004
,,,4.47500000e-009,-7.95312333e-004
,,,4.50000000e-009,-7.64062331e-004
,,,4.52500000e-009,-7.09374827e-004
,,,4.55000000e-009,-6.40624822e-004
,,,4.57500000e-009,-5.65624817e-004
,,,4.60000000e-009,-4.95312312e-004
,,,4.62500000e-009,-4.37499807e-004
,,,4.65000000e-009,-3.99999805e-004
,,,4.67500000e-009,-3.95312304e-004
,,,4.70000000e-009,-4.15624806e-004
,,,4.72500000e-009,-4.57812309e-004
,,,4.75000000e-009,-5.18749813e-004
,,,4.77500000e-009,-5.90624818e-004
,,,4.80000000e-009,-6.65624824e-004
,,,4.82500000e-009,-7.37499829e-004
,,,4.85000000e-009,-7.99999833e-004
,,,4.87500000e-009,-8.51562337e-004
,,,4.90000000e-009,-8.84374839e-004
,,,4.92500000e-009,-8.96874840e-004
,,,4.95000000e-009,-8.95312340e-004
,,,4.97500000e-009,-8.78124839e-004
,,,5.00000000e-009,-8.54687337e-004
,,,5.02500000e-009,-8.26562335e-004
,,,5.05000000e-009,-7.99999833e-004
,,,5.07500000e-009,-7.82812332e-004
,,,5.10000000e-009,-7.70312331e-004
,,,5.12500000e-009,-7.65624831e-004
,,,5.15000000e-009,-7.68749831e-004
,,,5.17500000e-009,-7.74999831e-004
,,,5.20000000e-009,-7.84374832e-004
,,,5.22500000e-009,-7.93749833e-004
,,,5.25000000e-009,-7.99999833e-004
,,,5.27500000e-009,-8.06249834e-004
,,,5.30000000e-009,-8.09374834e-004
,,,5.32500000e-009,-8.09374834e-004
,,,5.35000000e-009,-8.07812334e-004
,,,5.37500000e-009,-8.04687333e-004
,,,5.40000000e-009,-8.03124833e-004
,,,5.42500000e-009,-8.01562333e-004
,,,5.45000000e-009,-7.99999833e-004
,,,5.47500000e-009,-8.01562333e-004
,,,5.50000000e-009,-8.04687333e-004
,,,5.52500000e-009,-8.07812334e-004
,,,5.55000000e-009,-8.10937334e-004
,,,5.57500000e-009,-8.12499834e-004
,,,5.60000000e-009,-8.10937334e-004
,,,5.62500000e-009,-8.07812334e-004
,,,5.65000000e-009,-7.99999833e-004
,,,5.67500000e-009,-7.87499832e-004
,,,5.70000000e-009,-7.74999831e-004
,,,5.72500000e-009,-7.62499830e-004
,,,5.75000000e-009,-7.54687330e-004
,,,5.77500000e-009,-7.53124830e-004
,,,5.80000000e-009,-7.59374830e-004
