RawData/CosmicRays/L6_2pt2C_15mV/wave022_Ch3.csv

"Record Length",1000,"Points",-7.72500000e-009,-3.74999803e-004
"Sample Interval",2.50000000e-011,s,-7.70000000e-009,-3.53124801e-004
"Trigger Point",309,"Samples",-7.67500000e-009,-3.37499800e-004
"Trigger Time",9.32927835e-012,s,-7.65000000e-009,-3.31249800e-004
"",,,-7.62500000e-009,-3.32812300e-004
"Horizontal Offset",-7.72500000e-009,s,-7.60000000e-009,-3.45312301e-004
,,,-7.57500000e-009,-3.68749803e-004
,,,-7.55000000e-009,-3.99999805e-004
,,,-7.52500000e-009,-4.40624808e-004
,,,-7.50000000e-009,-4.81249811e-004
,,,-7.47500000e-009,-5.15624813e-004
,,,-7.45000000e-009,-5.35937314e-004
,,,-7.42500000e-009,-5.37499815e-004
,,,-7.40000000e-009,-5.17187313e-004
,,,-7.37500000e-009,-4.70312310e-004
,,,-7.35000000e-009,-3.99999805e-004
,,,-7.32500000e-009,-3.14062299e-004
,,,-7.30000000e-009,-2.15624792e-004
,,,-7.27500000e-009,-1.17187285e-004
,,,-7.25000000e-009,-3.12497787e-005
,,,-7.22500000e-009,3.12502257e-005
,,,-7.20000000e-009,6.09377278e-005
,,,-7.17500000e-009,5.15627272e-005
,,,-7.15000000e-009,2.23517420e-010
,,,-7.12500000e-009,-9.99997836e-005
,,,-7.10000000e-009,-2.29687293e-004
,,,-7.07500000e-009,-3.73437303e-004
,,,-7.05000000e-009,-5.18749813e-004
,,,-7.02500000e-009,-6.46874822e-004
,,,-7.00000000e-009,-7.43749829e-004
,,,-6.97500000e-009,-7.96874833e-004
,,,-6.95000000e-009,-7.99999833e-004
,,,-6.92500000e-009,-7.53124830e-004
,,,-6.90000000e-009,-6.59374823e-004
,,,-6.87500000e-009,-5.34374814e-004
,,,-6.85000000e-009,-3.92187304e-004
,,,-6.82500000e-009,-2.51562294e-004
,,,-6.80000000e-009,-1.29687286e-004
,,,-6.77500000e-009,-4.21872795e-005
,,,-6.75000000e-009,2.23517420e-010
,,,-6.72500000e-009,-1.56247776e-005
,,,-6.70000000e-009,-8.12497822e-005
,,,-6.67500000e-009,-1.87499790e-004
,,,-6.65000000e-009,-3.20312299e-004
,,,-6.62500000e-009,-4.64062309e-004
,,,-6.60000000e-009,-6.03124819e-004
,,,-6.57500000e-009,-7.18749827e-004
,,,-6.55000000e-009,-7.99999833e-004
,,,-6.52500000e-009,-8.37499836e-004
,,,-6.50000000e-009,-8.31249835e-004
,,,-6.47500000e-009,-7.85937332e-004
,,,-6.45000000e-009,-7.14062327e-004
,,,-6.42500000e-009,-6.24999821e-004
,,,-6.40000000e-009,-5.35937314e-004
,,,-6.37500000e-009,-4.56249809e-004
,,,-6.35000000e-009,-3.99999805e-004
,,,-6.32500000e-009,-3.76562303e-004
,,,-6.30000000e-009,-3.85937304e-004
,,,-6.27500000e-009,-4.26562307e-004
,,,-6.25000000e-009,-4.89062311e-004
,,,-6.22500000e-009,-5.68749817e-004
,,,-6.20000000e-009,-6.53124823e-004
,,,-6.17500000e-009,-7.32812328e-004
,,,-6.15000000e-009,-7.99999833e-004
,,,-6.12500000e-009,-8.46874836e-004
,,,-6.10000000e-009,-8.71874838e-004
,,,-6.07500000e-009,-8.78124839e-004
,,,-6.05000000e-009,-8.70312338e-004
,,,-6.02500000e-009,-8.53124837e-004
,,,-6.00000000e-009,-8.31249835e-004
,,,-5.97500000e-009,-8.12499834e-004
,,,-5.95000000e-009,-7.99999833e-004
,,,-5.92500000e-009,-7.95312333e-004
,,,-5.90000000e-009,-7.98437333e-004
,,,-5.87500000e-009,-8.07812334e-004
,,,-5.85000000e-009,-8.20312335e-004
,,,-5.82500000e-009,-8.29687335e-004
,,,-5.80000000e-009,-8.32812335e-004
,,,-5.77500000e-009,-8.23437335e-004
,,,-5.75000000e-009,-7.99999833e-004
,,,-5.72500000e-009,-7.56249830e-004
,,,-5.70000000e-009,-6.99999826e-004
,,,-5.67500000e-009,-6.35937321e-004
,,,-5.65000000e-009,-5.70312317e-004
,,,-5.62500000e-009,-5.07812312e-004
,,,-5.60000000e-009,-4.54687309e-004
,,,-5.57500000e-009,-4.18749806e-004
,,,-5.55000000e-009,-3.99999805e-004
,,,-5.52500000e-009,-4.06249805e-004
,,,-5.50000000e-009,-4.34374807e-004
,,,-5.47500000e-009,-4.78124810e-004
,,,-5.45000000e-009,-5.37499815e-004
,,,-5.42500000e-009,-6.04687319e-004
,,,-5.40000000e-009,-6.74999824e-004
,,,-5.37500000e-009,-7.42187329e-004
,,,-5.35000000e-009,-7.99999833e-004
,,,-5.32500000e-009,-8.42187336e-004
,,,-5.30000000e-009,-8.68749838e-004
,,,-5.27500000e-009,-8.81249839e-004
,,,-5.25000000e-009,-8.81249839e-004
,,,-5.22500000e-009,-8.70312338e-004
,,,-5.20000000e-009,-8.51562337e-004
,,,-5.17500000e-009,-8.28124835e-004
,,,-5.15000000e-009,-7.99999833e-004
,,,-5.12500000e-009,-7.68749831e-004
,,,-5.10000000e-009,-7.35937329e-004
,,,-5.07500000e-009,-6.98437326e-004
,,,-5.05000000e-009,-6.54687323e-004
,,,-5.02500000e-009,-6.04687319e-004
,,,-5.00000000e-009,-5.46874815e-004
,,,-4.97500000e-009,-4.78124810e-004
,,,-4.95000000e-009,-3.99999805e-004
,,,-4.92500000e-009,-3.17187299e-004
,,,-4.90000000e-009,-2.32812293e-004
,,,-4.87500000e-009,-1.51562287e-004
,,,-4.85000000e-009,-8.12497822e-005
,,,-4.82500000e-009,-2.65622784e-005
,,,-4.80000000e-009,7.81272407e-006
,,,-4.77500000e-009,1.56252246e-005
,,,-4.75000000e-009,2.23517420e-010
,,,-4.72500000e-009,-4.68747798e-005
,,,-4.70000000e-009,-1.09374784e-004
,,,-4.67500000e-009,-1.82812289e-004
,,,-4.65000000e-009,-2.57812295e-004
,,,-4.62500000e-009,-3.23437299e-004
,,,-4.60000000e-009,-3.73437303e-004
,,,-4.57500000e-009,-3.99999805e-004
,,,-4.55000000e-009,-3.99999805e-004
,,,-4.52500000e-009,-3.71874803e-004
,,,-4.50000000e-009,-3.20312299e-004
,,,-4.47500000e-009,-2.51562294e-004
,,,-4.45000000e-009,-1.76562289e-004
,,,-4.42500000e-009,-1.04687284e-004
,,,-4.40000000e-009,-4.68747798e-005
,,,-4.37500000e-009,-1.09372773e-005
,,,-4.35000000e-009,2.23517420e-010
,,,-4.32500000e-009,-2.18747780e-005
,,,-4.30000000e-009,-6.87497813e-005
,,,-4.27500000e-009,-1.34374786e-004
,,,-4.25000000e-009,-2.07812291e-004
,,,-4.22500000e-009,-2.79687296e-004
,,,-4.20000000e-009,-3.42187301e-004
,,,-4.17500000e-009,-3.84374804e-004
,,,-4.15000000e-009,-3.99999805e-004
,,,-4.12500000e-009,-3.89062304e-004
,,,-4.10000000e-009,-3.49999801e-004
,,,-4.07500000e-009,-2.89062297e-004
,,,-4.05000000e-009,-2.15624792e-004
,,,-4.02500000e-009,-1.40624786e-004
,,,-4.00000000e-009,-7.49997818e-005
,,,-3.97500000e-009,-2.49997783e-005
,,,-3.95000000e-009,2.23517420e-010
,,,-3.92500000e-009,-9.37477715e-006
,,,-3.90000000e-009,-4.53122797e-005
,,,-3.87500000e-009,-1.03124784e-004
,,,-3.85000000e-009,-1.74999789e-004
,,,-3.82500000e-009,-2.49999794e-004
,,,-3.80000000e-009,-3.18749799e-004
,,,-3.77500000e-009,-3.71874803e-004
,,,-3.75000000e-009,-3.99999805e-004
,,,-3.72500000e-009,-3.99999805e-004
,,,-3.70000000e-009,-3.73437303e-004
,,,-3.67500000e-009,-3.23437299e-004
,,,-3.65000000e-009,-2.57812295e-004
,,,-3.62500000e-009,-1.84374790e-004
,,,-3.60000000e-009,-1.12499784e-004
,,,-3.57500000e-009,-4.84372799e-005
,,,-3.55000000e-009,2.23517420e-010
,,,-3.52500000e-009,2.50002253e-005
,,,-3.50000000e-009,3.43752260e-005
,,,-3.47500000e-009,2.81252255e-005
,,,-3.45000000e-009,1.40627245e-005
,,,-3.42500000e-009,-1.56227659e-006
,,,-3.40000000e-009,-1.24997774e-005
,,,-3.37500000e-009,-1.24997774e-005
,,,-3.35000000e-009,2.23517420e-010
,,,-3.32500000e-009,2.18752251e-005
,,,-3.30000000e-009,5.31252273e-005
,,,-3.27500000e-009,8.59377296e-005
,,,-3.25000000e-009,1.12500231e-004
,,,-3.22500000e-009,1.23437732e-004
,,,-3.20000000e-009,1.10937731e-004
,,,-3.17500000e-009,7.03127285e-005
,,,-3.15000000e-009,2.23517420e-010
,,,-3.12500000e-009,-1.04687284e-004
,,,-3.10000000e-009,-2.31249793e-004
,,,-3.07500000e-009,-3.68749803e-004
,,,-3.05000000e-009,-5.04687312e-004
,,,-3.02500000e-009,-6.28124821e-004
,,,-3.00000000e-009,-7.24999828e-004
,,,-2.97500000e-009,-7.84374832e-004
,,,-2.95000000e-009,-7.99999833e-004
,,,-2.92500000e-009,-7.67187331e-004
,,,-2.90000000e-009,-6.92187325e-004
,,,-2.87500000e-009,-5.84374818e-004
,,,-2.85000000e-009,-4.54687309e-004
,,,-2.82500000e-009,-3.18749799e-004
,,,-2.80000000e-009,-1.90624790e-004
,,,-2.77500000e-009,-8.12497822e-005
,,,-2.75000000e-009,2.23517420e-010
,,,-2.72500000e-009,3.75002262e-005
,,,-2.70000000e-009,3.59377261e-005
,,,-2.67500000e-009,2.23517420e-010
,,,-2.65000000e-009,-6.40622810e-005
,,,-2.62500000e-009,-1.46874787e-004
,,,-2.60000000e-009,-2.37499793e-004
,,,-2.57500000e-009,-3.24999799e-004
,,,-2.55000000e-009,-3.99999805e-004
,,,-2.52500000e-009,-4.56249809e-004
,,,-2.50000000e-009,-4.90624811e-004
,,,-2.47500000e-009,-5.03124812e-004
,,,-2.45000000e-009,-4.98437312e-004
,,,-2.42500000e-009,-4.79687310e-004
,,,-2.40000000e-009,-4.53124809e-004
,,,-2.37500000e-009,-4.24999807e-004
,,,-2.35000000e-009,-3.99999805e-004
,,,-2.32500000e-009,-3.84374804e-004
,,,-2.30000000e-009,-3.76562303e-004
,,,-2.27500000e-009,-3.78124803e-004
,,,-2.25000000e-009,-3.85937304e-004
,,,-2.22500000e-009,-3.95312304e-004
,,,-2.20000000e-009,-4.03124805e-004
,,,-2.17500000e-009,-4.04687305e-004
,,,-2.15000000e-009,-3.99999805e-004
,,,-2.12500000e-009,-3.89062304e-004
,,,-2.10000000e-009,-3.73437303e-004
,,,-2.07500000e-009,-3.56249802e-004
,,,-2.05000000e-009,-3.42187301e-004
,,,-2.02500000e-009,-3.35937300e-004
,,,-2.00000000e-009,-3.42187301e-004
,,,-1.97500000e-009,-3.64062302e-004
,,,-1.95000000e-009,-3.99999805e-004
,,,-1.92500000e-009,-4.56249809e-004
,,,-1.90000000e-009,-5.23437314e-004
,,,-1.87500000e-009,-5.95312319e-004
,,,-1.85000000e-009,-6.65624824e-004
,,,-1.82500000e-009,-7.28124828e-004
,,,-1.80000000e-009,-7.73437331e-004
,,,-1.77500000e-009,-7.98437333e-004
,,,-1.75000000e-009,-7.99999833e-004
,,,-1.72500000e-009,-7.74999831e-004
,,,-1.70000000e-009,-7.29687328e-004
,,,-1.67500000e-009,-6.68749824e-004
,,,-1.65000000e-009,-5.99999819e-004
,,,-1.62500000e-009,-5.32812314e-004
,,,-1.60000000e-009,-4.71874810e-004
,,,-1.57500000e-009,-4.26562307e-004
,,,-1.55000000e-009,-3.99999805e-004
,,,-1.52500000e-009,-4.07812305e-004
,,,-1.50000000e-009,-4.39062308e-004
,,,-1.47500000e-009,-4.90624811e-004
,,,-1.45000000e-009,-5.56249816e-004
,,,-1.42500000e-009,-6.26562321e-004
,,,-1.40000000e-009,-6.95312326e-004
,,,-1.37500000e-009,-7.56249830e-004
,,,-1.35000000e-009,-7.99999833e-004
,,,-1.32500000e-009,-8.45312336e-004
,,,-1.30000000e-009,-8.74999838e-004
,,,-1.27500000e-009,-8.89062339e-004
,,,-1.25000000e-009,-8.87499839e-004
,,,-1.22500000e-009,-8.74999838e-004
,,,-1.20000000e-009,-8.53124837e-004
,,,-1.17500000e-009,-8.28124835e-004
,,,-1.15000000e-009,-7.99999833e-004
,,,-1.12500000e-009,-8.15624834e-004
,,,-1.10000000e-009,-8.39062336e-004
,,,-1.07500000e-009,-8.65624838e-004
,,,-1.05000000e-009,-8.87499839e-004
,,,-1.02500000e-009,-8.98437340e-004
,,,-1.00000000e-009,-8.89062339e-004
,,,-9.75000000e-010,-8.56249837e-004
,,,-9.50000000e-010,-7.99999833e-004
,,,-9.25000000e-010,-8.04687333e-004
,,,-9.00000000e-010,-8.07812334e-004
,,,-8.75000000e-010,-8.06249834e-004
,,,-8.50000000e-010,-8.03124833e-004
,,,-8.25000000e-010,-7.98437333e-004
,,,-8.00000000e-010,-7.92187333e-004
,,,-7.75000000e-010,-7.92187333e-004
,,,-7.50000000e-010,-7.99999833e-004
,,,-7.25000000e-010,-9.49999844e-004
,,,-7.00000000e-010,-1.13593736e-003
,,,-6.75000000e-010,-1.34843737e-003
,,,-6.50000000e-010,-1.57656239e-003
,,,-6.25000000e-010,-1.80468740e-003
,,,-6.00000000e-010,-2.02187492e-003
,,,-5.75000000e-010,-2.22031243e-003
,,,-5.50000000e-010,-2.39999995e-003
,,,-5.25000000e-010,-2.70312497e-003
,,,-5.00000000e-010,-3.01093749e-003
,,,-4.75000000e-010,-3.32187501e-003
,,,-4.50000000e-010,-3.62812503e-003
,,,-4.25000000e-010,-3.92812505e-003
,,,-4.00000000e-010,-4.22031258e-003
,,,-3.75000000e-010,-4.50781260e-003
,,,-3.50000000e-010,-4.80000012e-003
,,,-3.25000000e-010,-5.24062515e-003
,,,-3.00000000e-010,-5.72968768e-003
,,,-2.75000000e-010,-6.27031272e-003
,,,-2.50000000e-010,-6.85468776e-003
,,,-2.25000000e-010,-7.48437531e-003
,,,-2.00000000e-010,-8.15156285e-003
,,,-1.75000000e-010,-8.85625040e-003
,,,-1.50000000e-010,-9.60000046e-003
,,,-1.25000000e-010,-1.04578130e-002
,,,-1.00000000e-010,-1.13703131e-002
,,,-7.50000000e-011,-1.23343756e-002
,,,-5.00000000e-011,-1.33390632e-002
,,,-2.50000000e-011,-1.43765633e-002
,,,0.00000000e+000,-1.54375009e-002
,,,2.50000000e-011,-1.65140634e-002
,,,5.00000000e-011,-1.76000010e-002
,,,7.50000000e-011,-1.86734386e-002
,,,1.00000000e-010,-1.97625012e-002
,,,1.25000000e-010,-2.08640638e-002
,,,1.50000000e-010,-2.19750013e-002
,,,1.75000000e-010,-2.30921889e-002
,,,2.00000000e-010,-2.42078140e-002
,,,2.25000000e-010,-2.53125016e-002
,,,2.50000000e-010,-2.64000016e-002
,,,2.75000000e-010,-2.73328142e-002
,,,3.00000000e-010,-2.82453143e-002
,,,3.25000000e-010,-2.91406268e-002
,,,3.50000000e-010,-3.00171894e-002
,,,3.75000000e-010,-3.08718770e-002
,,,4.00000000e-010,-3.16937520e-002
,,,4.25000000e-010,-3.24750021e-002
,,,4.50000000e-010,-3.32000021e-002
,,,4.75000000e-010,-3.36453147e-002
,,,5.00000000e-010,-3.40312522e-002
,,,5.25000000e-010,-3.43625022e-002
,,,5.50000000e-010,-3.46421897e-002
,,,5.75000000e-010,-3.48687522e-002
,,,6.00000000e-010,-3.50390648e-002
,,,6.25000000e-010,-3.51515648e-002
,,,6.50000000e-010,-3.52000023e-002
,,,6.75000000e-010,-3.49453147e-002
,,,7.00000000e-010,-3.46515647e-002
,,,7.25000000e-010,-3.43375022e-002
,,,7.50000000e-010,-3.40171897e-002
,,,7.75000000e-010,-3.37015647e-002
,,,8.00000000e-010,-3.33937521e-002
,,,8.25000000e-010,-3.30968771e-002
,,,8.50000000e-010,-3.28000021e-002
,,,8.75000000e-010,-3.22890646e-002
,,,9.00000000e-010,-3.17781270e-002
,,,9.25000000e-010,-3.12656270e-002
,,,9.50000000e-010,-3.07468770e-002
,,,9.75000000e-010,-3.02125019e-002
,,,1.00000000e-009,-2.96500019e-002
,,,1.02500000e-009,-2.90515643e-002
,,,1.05000000e-009,-2.84000018e-002
,,,1.07500000e-009,-2.75531267e-002
,,,1.10000000e-009,-2.66593767e-002
,,,1.12500000e-009,-2.57359391e-002
,,,1.15000000e-009,-2.47984390e-002
,,,1.17500000e-009,-2.38625015e-002
,,,1.20000000e-009,-2.29437514e-002
,,,1.22500000e-009,-2.20531263e-002
,,,1.25000000e-009,-2.12000013e-002
,,,1.27500000e-009,-2.03390637e-002
,,,1.30000000e-009,-1.95156262e-002
,,,1.32500000e-009,-1.87265636e-002
,,,1.35000000e-009,-1.79703135e-002
,,,1.37500000e-009,-1.72453135e-002
,,,1.40000000e-009,-1.65437509e-002
,,,1.42500000e-009,-1.58640634e-002
,,,1.45000000e-009,-1.52000009e-002
,,,1.47500000e-009,-1.45734383e-002
,,,1.50000000e-009,-1.39375008e-002
,,,1.52500000e-009,-1.32968757e-002
,,,1.55000000e-009,-1.26593757e-002
,,,1.57500000e-009,-1.20375006e-002
,,,1.60000000e-009,-1.14453131e-002
,,,1.62500000e-009,-1.08968755e-002
,,,1.65000000e-009,-1.04000005e-002
,,,1.67500000e-009,-1.00296880e-002
,,,1.70000000e-009,-9.68750046e-003
,,,1.72500000e-009,-9.36718794e-003
,,,1.75000000e-009,-9.06406292e-003
,,,1.77500000e-009,-8.77656290e-003
,,,1.80000000e-009,-8.50468788e-003
,,,1.82500000e-009,-8.24687536e-003
,,,1.85000000e-009,-8.00000034e-003
,,,1.87500000e-009,-7.84375033e-003
,,,1.90000000e-009,-7.66406282e-003
,,,1.92500000e-009,-7.46406280e-003
,,,1.95000000e-009,-7.24687529e-003
,,,1.97500000e-009,-7.02187527e-003
,,,2.00000000e-009,-6.79843776e-003
,,,2.02500000e-009,-6.58906274e-003
,,,2.05000000e-009,-6.40000023e-003
,,,2.07500000e-009,-6.30937522e-003
,,,2.10000000e-009,-6.21718772e-003
,,,2.12500000e-009,-6.12031271e-003
,,,2.15000000e-009,-6.02031270e-003
,,,2.17500000e-009,-5.91718770e-003
,,,2.20000000e-009,-5.81093769e-003
,,,2.22500000e-009,-5.70625018e-003
,,,2.25000000e-009,-5.60000017e-003
,,,2.27500000e-009,-5.54375017e-003
,,,2.30000000e-009,-5.46875016e-003
,,,2.32500000e-009,-5.37500016e-003
,,,2.35000000e-009,-5.26562515e-003
,,,2.37500000e-009,-5.14687514e-003
,,,2.40000000e-009,-5.02500013e-003
,,,2.42500000e-009,-4.90781262e-003
,,,2.45000000e-009,-4.80000012e-003
,,,2.47500000e-009,-4.73750011e-003
,,,2.50000000e-009,-4.67812511e-003
,,,2.52500000e-009,-4.62187510e-003
,,,2.55000000e-009,-4.56875010e-003
,,,2.57500000e-009,-4.51875010e-003
,,,2.60000000e-009,-4.47500009e-003
,,,2.62500000e-009,-4.43593759e-003
,,,2.65000000e-009,-4.40000009e-003
,,,2.67500000e-009,-4.38125009e-003
,,,2.70000000e-009,-4.35312508e-003
,,,2.72500000e-009,-4.31562508e-003
,,,2.75000000e-009,-4.26875008e-003
,,,2.77500000e-009,-4.21250007e-003
,,,2.80000000e-009,-4.14843757e-003
,,,2.82500000e-009,-4.07812507e-003
,,,2.85000000e-009,-4.00000006e-003
,,,2.87500000e-009,-3.92500005e-003
,,,2.90000000e-009,-3.83750005e-003
,,,2.92500000e-009,-3.74218754e-003
,,,2.95000000e-009,-3.63906253e-003
,,,2.97500000e-009,-3.52968753e-003
,,,3.00000000e-009,-3.41875002e-003
,,,3.02500000e-009,-3.30781251e-003
,,,3.05000000e-009,-3.20000000e-003
,,,3.07500000e-009,-3.10625000e-003
,,,3.10000000e-009,-3.02031249e-003
,,,3.12500000e-009,-2.94218748e-003
,,,3.15000000e-009,-2.87968748e-003
,,,3.17500000e-009,-2.83281248e-003
,,,3.20000000e-009,-2.80312497e-003
,,,3.22500000e-009,-2.79374997e-003
,,,3.25000000e-009,-2.79999997e-003
,,,3.27500000e-009,-2.82499998e-003
,,,3.30000000e-009,-2.85312498e-003
,,,3.32500000e-009,-2.87812498e-003
,,,3.35000000e-009,-2.89687498e-003
,,,3.37500000e-009,-2.90156248e-003
,,,3.40000000e-009,-2.88906248e-003
,,,3.42500000e-009,-2.85624998e-003
,,,3.45000000e-009,-2.79999997e-003
,,,3.47500000e-009,-2.72187497e-003
,,,3.50000000e-009,-2.62187496e-003
,,,3.52500000e-009,-2.50624995e-003
,,,3.55000000e-009,-2.38593745e-003
,,,3.57500000e-009,-2.26718744e-003
,,,3.60000000e-009,-2.15781243e-003
,,,3.62500000e-009,-2.06874992e-003
,,,3.65000000e-009,-1.99999992e-003
,,,3.67500000e-009,-1.96249992e-003
,,,3.70000000e-009,-1.94531241e-003
,,,3.72500000e-009,-1.94531241e-003
,,,3.75000000e-009,-1.95781242e-003
,,,3.77500000e-009,-1.97499992e-003
,,,3.80000000e-009,-1.99218742e-003
,,,3.82500000e-009,-2.00312492e-003
,,,3.85000000e-009,-1.99999992e-003
,,,3.87500000e-009,-1.98593742e-003
,,,3.90000000e-009,-1.95468741e-003
,,,3.92500000e-009,-1.90624991e-003
,,,3.95000000e-009,-1.84687491e-003
,,,3.97500000e-009,-1.78124990e-003
,,,4.00000000e-009,-1.71562490e-003
,,,4.02500000e-009,-1.65468739e-003
,,,4.05000000e-009,-1.59999989e-003
,,,4.07500000e-009,-1.55937489e-003
,,,4.10000000e-009,-1.52343738e-003
,,,4.12500000e-009,-1.49062488e-003
,,,4.15000000e-009,-1.45624988e-003
,,,4.17500000e-009,-1.41249988e-003
,,,4.20000000e-009,-1.35937487e-003
,,,4.22500000e-009,-1.28906237e-003
,,,4.25000000e-009,-1.19999986e-003
,,,4.27500000e-009,-1.10312485e-003
,,,4.30000000e-009,-9.92187347e-004
,,,4.32500000e-009,-8.71874838e-004
,,,4.35000000e-009,-7.49999830e-004
,,,4.37500000e-009,-6.34374821e-004
,,,4.40000000e-009,-5.32812314e-004
,,,4.42500000e-009,-4.53124809e-004
,,,4.45000000e-009,-3.99999805e-004
,,,4.47500000e-009,-3.92187304e-004
,,,4.50000000e-009,-4.09374805e-004
,,,4.52500000e-009,-4.51562308e-004
,,,4.55000000e-009,-5.12499813e-004
,,,4.57500000e-009,-5.84374818e-004
,,,4.60000000e-009,-6.60937323e-004
,,,4.62500000e-009,-7.35937329e-004
,,,4.65000000e-009,-7.99999833e-004
,,,4.67500000e-009,-8.57812337e-004
,,,4.70000000e-009,-8.95312340e-004
,,,4.72500000e-009,-9.12499841e-004
,,,4.75000000e-009,-9.12499841e-004
,,,4.77500000e-009,-8.96874840e-004
,,,4.80000000e-009,-8.70312338e-004
,,,4.82500000e-009,-8.35937336e-004
,,,4.85000000e-009,-7.99999833e-004
,,,4.87500000e-009,-7.74999831e-004
,,,4.90000000e-009,-7.53124830e-004
,,,4.92500000e-009,-7.39062329e-004
,,,4.95000000e-009,-7.34374828e-004
,,,4.97500000e-009,-7.37499829e-004
,,,5.00000000e-009,-7.49999830e-004
,,,5.02500000e-009,-7.71874831e-004
,,,5.05000000e-009,-7.99999833e-004
,,,5.07500000e-009,-8.42187336e-004
,,,5.10000000e-009,-8.87499839e-004
,,,5.12500000e-009,-9.37499843e-004
,,,5.15000000e-009,-9.90624847e-004
,,,5.17500000e-009,-1.04374985e-003
,,,5.20000000e-009,-1.09843735e-003
,,,5.22500000e-009,-1.15156236e-003
,,,5.25000000e-009,-1.19999986e-003
,,,5.27500000e-009,-1.24218736e-003
,,,5.30000000e-009,-1.27499987e-003
,,,5.32500000e-009,-1.29687487e-003
,,,5.35000000e-009,-1.30624987e-003
,,,5.37500000e-009,-1.30156237e-003
,,,5.40000000e-009,-1.28281237e-003
,,,5.42500000e-009,-1.24843736e-003
,,,5.45000000e-009,-1.19999986e-003
,,,5.47500000e-009,-1.13593736e-003
,,,5.50000000e-009,-1.06718735e-003
,,,5.52500000e-009,-9.96874847e-004
,,,5.55000000e-009,-9.31249842e-004
,,,5.57500000e-009,-8.74999838e-004
,,,5.60000000e-009,-8.31249835e-004
,,,5.62500000e-009,-8.06249834e-004
,,,5.65000000e-009,-7.99999833e-004
,,,5.67500000e-009,-8.14062334e-004
,,,5.70000000e-009,-8.46874836e-004
,,,5.72500000e-009,-8.93749840e-004
,,,5.75000000e-009,-9.53124844e-004
,,,5.77500000e-009,-1.01718735e-003
,,,5.80000000e-009,-1.08437485e-003
,,,5.82500000e-009,-1.14687486e-003
