RawData/CosmicRays/L6_2pt2C_15mV/wave000_Ch3.csv

"Record Length",1000,"Points",-7.72500000e-009,-9.18749842e-004
"Sample Interval",2.50000000e-011,s,-7.70000000e-009,-9.21874842e-004
"Trigger Point",309,"Samples",-7.67500000e-009,-9.09374841e-004
"Trigger Time",7.48560847e-012,s,-7.65000000e-009,-8.82812339e-004
"",,,-7.62500000e-009,-8.45312336e-004
"Horizontal Offset",-7.72500000e-009,s,-7.60000000e-009,-7.99999833e-004
,,,-7.57500000e-009,-7.46874829e-004
,,,-7.55000000e-009,-6.92187325e-004
,,,-7.52500000e-009,-6.39062322e-004
,,,-7.50000000e-009,-5.87499818e-004
,,,-7.47500000e-009,-5.37499815e-004
,,,-7.45000000e-009,-4.89062311e-004
,,,-7.42500000e-009,-4.43749808e-004
,,,-7.40000000e-009,-3.99999805e-004
,,,-7.37500000e-009,-3.62499802e-004
,,,-7.35000000e-009,-3.32812300e-004
,,,-7.32500000e-009,-3.12499799e-004
,,,-7.30000000e-009,-3.03124798e-004
,,,-7.27500000e-009,-3.06249798e-004
,,,-7.25000000e-009,-3.24999799e-004
,,,-7.22500000e-009,-3.56249802e-004
,,,-7.20000000e-009,-3.99999805e-004
,,,-7.17500000e-009,-4.57812309e-004
,,,-7.15000000e-009,-5.21874813e-004
,,,-7.12500000e-009,-5.87499818e-004
,,,-7.10000000e-009,-6.49999822e-004
,,,-7.07500000e-009,-7.07812327e-004
,,,-7.05000000e-009,-7.53124830e-004
,,,-7.02500000e-009,-7.85937332e-004
,,,-7.00000000e-009,-7.99999833e-004
,,,-6.97500000e-009,-7.92187333e-004
,,,-6.95000000e-009,-7.64062331e-004
,,,-6.92500000e-009,-7.21874828e-004
,,,-6.90000000e-009,-6.65624824e-004
,,,-6.87500000e-009,-6.01562319e-004
,,,-6.85000000e-009,-5.32812314e-004
,,,-6.82500000e-009,-4.64062309e-004
,,,-6.80000000e-009,-3.99999805e-004
,,,-6.77500000e-009,-3.46874801e-004
,,,-6.75000000e-009,-3.06249798e-004
,,,-6.72500000e-009,-2.81249796e-004
,,,-6.70000000e-009,-2.71874796e-004
,,,-6.67500000e-009,-2.81249796e-004
,,,-6.65000000e-009,-3.06249798e-004
,,,-6.62500000e-009,-3.46874801e-004
,,,-6.60000000e-009,-3.99999805e-004
,,,-6.57500000e-009,-4.65624809e-004
,,,-6.55000000e-009,-5.32812314e-004
,,,-6.52500000e-009,-5.99999819e-004
,,,-6.50000000e-009,-6.64062323e-004
,,,-6.47500000e-009,-7.18749827e-004
,,,-6.45000000e-009,-7.60937330e-004
,,,-6.42500000e-009,-7.89062332e-004
,,,-6.40000000e-009,-7.99999833e-004
,,,-6.37500000e-009,-7.95312333e-004
,,,-6.35000000e-009,-7.73437331e-004
,,,-6.32500000e-009,-7.35937329e-004
,,,-6.30000000e-009,-6.85937325e-004
,,,-6.27500000e-009,-6.24999821e-004
,,,-6.25000000e-009,-5.54687316e-004
,,,-6.22500000e-009,-4.79687310e-004
,,,-6.20000000e-009,-3.99999805e-004
,,,-6.17500000e-009,-3.24999799e-004
,,,-6.15000000e-009,-2.54687295e-004
,,,-6.12500000e-009,-1.92187290e-004
,,,-6.10000000e-009,-1.35937286e-004
,,,-6.07500000e-009,-8.90622828e-005
,,,-6.05000000e-009,-5.15622801e-005
,,,-6.02500000e-009,-2.18747780e-005
,,,-6.00000000e-009,2.23517420e-010
,,,-5.97500000e-009,6.25022396e-006
,,,-5.95000000e-009,9.37522418e-006
,,,-5.92500000e-009,7.81272407e-006
,,,-5.90000000e-009,6.25022396e-006
,,,-5.87500000e-009,3.12522374e-006
,,,-5.85000000e-009,1.56272363e-006
,,,-5.82500000e-009,1.56272363e-006
,,,-5.80000000e-009,2.23517420e-010
,,,-5.77500000e-009,-1.09372773e-005
,,,-5.75000000e-009,-2.81247785e-005
,,,-5.72500000e-009,-5.31247802e-005
,,,-5.70000000e-009,-9.06247829e-005
,,,-5.67500000e-009,-1.42187287e-004
,,,-5.65000000e-009,-2.10937291e-004
,,,-5.62500000e-009,-2.96874797e-004
,,,-5.60000000e-009,-3.99999805e-004
,,,-5.57500000e-009,-5.18749813e-004
,,,-5.55000000e-009,-6.45312322e-004
,,,-5.52500000e-009,-7.71874831e-004
,,,-5.50000000e-009,-8.93749840e-004
,,,-5.47500000e-009,-1.00468735e-003
,,,-5.45000000e-009,-1.09531235e-003
,,,-5.42500000e-009,-1.16249986e-003
,,,-5.40000000e-009,-1.19999986e-003
,,,-5.37500000e-009,-1.20624986e-003
,,,-5.35000000e-009,-1.18593736e-003
,,,-5.32500000e-009,-1.14062486e-003
,,,-5.30000000e-009,-1.07968735e-003
,,,-5.27500000e-009,-1.00624985e-003
,,,-5.25000000e-009,-9.32812343e-004
,,,-5.22500000e-009,-8.60937337e-004
,,,-5.20000000e-009,-7.99999833e-004
,,,-5.17500000e-009,-7.51562330e-004
,,,-5.15000000e-009,-7.18749827e-004
,,,-5.12500000e-009,-7.04687326e-004
,,,-5.10000000e-009,-7.06249826e-004
,,,-5.07500000e-009,-7.21874828e-004
,,,-5.05000000e-009,-7.45312329e-004
,,,-5.02500000e-009,-7.71874831e-004
,,,-5.00000000e-009,-7.99999833e-004
,,,-4.97500000e-009,-8.20312335e-004
,,,-4.95000000e-009,-8.34374836e-004
,,,-4.92500000e-009,-8.42187336e-004
,,,-4.90000000e-009,-8.43749836e-004
,,,-4.87500000e-009,-8.39062336e-004
,,,-4.85000000e-009,-8.28124835e-004
,,,-4.82500000e-009,-8.15624834e-004
,,,-4.80000000e-009,-7.99999833e-004
,,,-4.77500000e-009,-7.82812332e-004
,,,-4.75000000e-009,-7.67187331e-004
,,,-4.72500000e-009,-7.57812330e-004
,,,-4.70000000e-009,-7.54687330e-004
,,,-4.67500000e-009,-7.57812330e-004
,,,-4.65000000e-009,-7.67187331e-004
,,,-4.62500000e-009,-7.82812332e-004
,,,-4.60000000e-009,-7.99999833e-004
,,,-4.57500000e-009,-8.17187334e-004
,,,-4.55000000e-009,-8.34374836e-004
,,,-4.52500000e-009,-8.46874836e-004
,,,-4.50000000e-009,-8.54687337e-004
,,,-4.47500000e-009,-8.56249837e-004
,,,-4.45000000e-009,-8.48437337e-004
,,,-4.42500000e-009,-8.29687335e-004
,,,-4.40000000e-009,-7.99999833e-004
,,,-4.37500000e-009,-7.60937330e-004
,,,-4.35000000e-009,-7.14062327e-004
,,,-4.32500000e-009,-6.59374823e-004
,,,-4.30000000e-009,-5.99999819e-004
,,,-4.27500000e-009,-5.42187315e-004
,,,-4.25000000e-009,-4.87499811e-004
,,,-4.22500000e-009,-4.40624808e-004
,,,-4.20000000e-009,-3.99999805e-004
,,,-4.17500000e-009,-3.73437303e-004
,,,-4.15000000e-009,-3.57812302e-004
,,,-4.12500000e-009,-3.51562301e-004
,,,-4.10000000e-009,-3.53124801e-004
,,,-4.07500000e-009,-3.60937302e-004
,,,-4.05000000e-009,-3.73437303e-004
,,,-4.02500000e-009,-3.87499804e-004
,,,-4.00000000e-009,-3.99999805e-004
,,,-3.97500000e-009,-4.15624806e-004
,,,-3.95000000e-009,-4.24999807e-004
,,,-3.92500000e-009,-4.31249807e-004
,,,-3.90000000e-009,-4.31249807e-004
,,,-3.87500000e-009,-4.28124807e-004
,,,-3.85000000e-009,-4.20312306e-004
,,,-3.82500000e-009,-4.10937306e-004
,,,-3.80000000e-009,-3.99999805e-004
,,,-3.77500000e-009,-3.93749804e-004
,,,-3.75000000e-009,-3.89062304e-004
,,,-3.72500000e-009,-3.84374804e-004
,,,-3.70000000e-009,-3.84374804e-004
,,,-3.67500000e-009,-3.84374804e-004
,,,-3.65000000e-009,-3.89062304e-004
,,,-3.62500000e-009,-3.93749804e-004
,,,-3.60000000e-009,-3.99999805e-004
,,,-3.57500000e-009,-4.10937306e-004
,,,-3.55000000e-009,-4.20312306e-004
,,,-3.52500000e-009,-4.28124807e-004
,,,-3.50000000e-009,-4.31249807e-004
,,,-3.47500000e-009,-4.31249807e-004
,,,-3.45000000e-009,-4.24999807e-004
,,,-3.42500000e-009,-4.15624806e-004
,,,-3.40000000e-009,-3.99999805e-004
,,,-3.37500000e-009,-3.85937304e-004
,,,-3.35000000e-009,-3.70312303e-004
,,,-3.32500000e-009,-3.56249802e-004
,,,-3.30000000e-009,-3.46874801e-004
,,,-3.27500000e-009,-3.43749801e-004
,,,-3.25000000e-009,-3.51562301e-004
,,,-3.22500000e-009,-3.70312303e-004
,,,-3.20000000e-009,-3.99999805e-004
,,,-3.17500000e-009,-4.40624808e-004
,,,-3.15000000e-009,-4.89062311e-004
,,,-3.12500000e-009,-5.43749815e-004
,,,-3.10000000e-009,-6.03124819e-004
,,,-3.07500000e-009,-6.60937323e-004
,,,-3.05000000e-009,-7.14062327e-004
,,,-3.02500000e-009,-7.62499830e-004
,,,-3.00000000e-009,-7.99999833e-004
,,,-2.97500000e-009,-8.26562335e-004
,,,-2.95000000e-009,-8.42187336e-004
,,,-2.92500000e-009,-8.48437337e-004
,,,-2.90000000e-009,-8.46874836e-004
,,,-2.87500000e-009,-8.37499836e-004
,,,-2.85000000e-009,-8.26562335e-004
,,,-2.82500000e-009,-8.12499834e-004
,,,-2.80000000e-009,-7.99999833e-004
,,,-2.77500000e-009,-7.92187333e-004
,,,-2.75000000e-009,-7.87499832e-004
,,,-2.72500000e-009,-7.87499832e-004
,,,-2.70000000e-009,-7.90624832e-004
,,,-2.67500000e-009,-7.95312333e-004
,,,-2.65000000e-009,-8.01562333e-004
,,,-2.62500000e-009,-8.03124833e-004
,,,-2.60000000e-009,-7.99999833e-004
,,,-2.57500000e-009,-7.84374832e-004
,,,-2.55000000e-009,-7.59374830e-004
,,,-2.52500000e-009,-7.23437328e-004
,,,-2.50000000e-009,-6.76562324e-004
,,,-2.47500000e-009,-6.18749820e-004
,,,-2.45000000e-009,-5.53124816e-004
,,,-2.42500000e-009,-4.79687310e-004
,,,-2.40000000e-009,-3.99999805e-004
,,,-2.37500000e-009,-3.20312299e-004
,,,-2.35000000e-009,-2.42187294e-004
,,,-2.32500000e-009,-1.70312289e-004
,,,-2.30000000e-009,-1.07812284e-004
,,,-2.27500000e-009,-5.62497805e-005
,,,-2.25000000e-009,-1.87497778e-005
,,,-2.22500000e-009,2.23517420e-010
,,,-2.20000000e-009,2.23517420e-010
,,,-2.17500000e-009,-2.96872786e-005
,,,-2.15000000e-009,-8.28122823e-005
,,,-2.12500000e-009,-1.57812288e-004
,,,-2.10000000e-009,-2.56249795e-004
,,,-2.07500000e-009,-3.73437303e-004
,,,-2.05000000e-009,-5.06249812e-004
,,,-2.02500000e-009,-6.51562323e-004
,,,-2.00000000e-009,-7.99999833e-004
,,,-1.97500000e-009,-9.46874844e-004
,,,-1.95000000e-009,-1.07968735e-003
,,,-1.92500000e-009,-1.18906236e-003
,,,-1.90000000e-009,-1.27031237e-003
,,,-1.87500000e-009,-1.31562487e-003
,,,-1.85000000e-009,-1.32031237e-003
,,,-1.82500000e-009,-1.28124987e-003
,,,-1.80000000e-009,-1.19999986e-003
,,,-1.77500000e-009,-1.07968735e-003
,,,-1.75000000e-009,-9.29687342e-004
,,,-1.72500000e-009,-7.60937330e-004
,,,-1.70000000e-009,-5.81249818e-004
,,,-1.67500000e-009,-4.06249805e-004
,,,-1.65000000e-009,-2.43749794e-004
,,,-1.62500000e-009,-1.06249784e-004
,,,-1.60000000e-009,2.23517420e-010
,,,-1.57500000e-009,4.84377269e-005
,,,-1.55000000e-009,5.46877274e-005
,,,-1.52500000e-009,2.50002253e-005
,,,-1.50000000e-009,-3.43747789e-005
,,,-1.47500000e-009,-1.17187285e-004
,,,-1.45000000e-009,-2.10937291e-004
,,,-1.42500000e-009,-3.07812298e-004
,,,-1.40000000e-009,-3.99999805e-004
,,,-1.37500000e-009,-5.07812312e-004
,,,-1.35000000e-009,-6.01562319e-004
,,,-1.32500000e-009,-6.78124824e-004
,,,-1.30000000e-009,-7.37499829e-004
,,,-1.27500000e-009,-7.78124832e-004
,,,-1.25000000e-009,-7.99999833e-004
,,,-1.22500000e-009,-8.06249834e-004
,,,-1.20000000e-009,-7.99999833e-004
,,,-1.17500000e-009,-8.26562335e-004
,,,-1.15000000e-009,-8.51562337e-004
,,,-1.12500000e-009,-8.73437338e-004
,,,-1.10000000e-009,-8.89062339e-004
,,,-1.07500000e-009,-8.90624840e-004
,,,-1.05000000e-009,-8.76562339e-004
,,,-1.02500000e-009,-8.46874836e-004
,,,-1.00000000e-009,-7.99999833e-004
,,,-9.75000000e-010,-8.15624834e-004
,,,-9.50000000e-010,-8.37499836e-004
,,,-9.25000000e-010,-8.67187338e-004
,,,-9.00000000e-010,-9.06249841e-004
,,,-8.75000000e-010,-9.56249844e-004
,,,-8.50000000e-010,-1.02031235e-003
,,,-8.25000000e-010,-1.10156235e-003
,,,-8.00000000e-010,-1.19999986e-003
,,,-7.75000000e-010,-1.40624988e-003
,,,-7.50000000e-010,-1.64531239e-003
,,,-7.25000000e-010,-1.90624991e-003
,,,-7.00000000e-010,-2.17968743e-003
,,,-6.75000000e-010,-2.45312495e-003
,,,-6.50000000e-010,-2.71874997e-003
,,,-6.25000000e-010,-2.96874999e-003
,,,-6.00000000e-010,-3.20000000e-003
,,,-5.75000000e-010,-3.48750002e-003
,,,-5.50000000e-010,-3.77500004e-003
,,,-5.25000000e-010,-4.06406256e-003
,,,-5.00000000e-010,-4.35468758e-003
,,,-4.75000000e-010,-4.64843761e-003
,,,-4.50000000e-010,-4.95000013e-003
,,,-4.25000000e-010,-5.26562515e-003
,,,-4.00000000e-010,-5.60000017e-003
,,,-3.75000000e-010,-6.01406270e-003
,,,-3.50000000e-010,-6.47343773e-003
,,,-3.25000000e-010,-6.97656277e-003
,,,-3.00000000e-010,-7.52187531e-003
,,,-2.75000000e-010,-8.10468785e-003
,,,-2.50000000e-010,-8.71562539e-003
,,,-2.25000000e-010,-9.35000044e-003
,,,-2.00000000e-010,-1.00000005e-002
,,,-1.75000000e-010,-1.06625005e-002
,,,-1.50000000e-010,-1.13328131e-002
,,,-1.25000000e-010,-1.20093756e-002
,,,-1.00000000e-010,-1.26828132e-002
,,,-7.50000000e-011,-1.33437507e-002
,,,-5.00000000e-011,-1.39890633e-002
,,,-2.50000000e-011,-1.46093758e-002
,,,0.00000000e+000,-1.52000009e-002
,,,2.50000000e-011,-1.57000009e-002
,,,5.00000000e-011,-1.61781259e-002
,,,7.50000000e-011,-1.66421885e-002
,,,1.00000000e-010,-1.70921885e-002
,,,1.25000000e-010,-1.75328135e-002
,,,1.50000000e-010,-1.79656260e-002
,,,1.75000000e-010,-1.83890636e-002
,,,2.00000000e-010,-1.88000011e-002
,,,2.25000000e-010,-1.90937511e-002
,,,2.50000000e-010,-1.93781261e-002
,,,2.75000000e-010,-1.96562512e-002
,,,3.00000000e-010,-1.99265637e-002
,,,3.25000000e-010,-2.01828137e-002
,,,3.50000000e-010,-2.04187512e-002
,,,3.75000000e-010,-2.06281262e-002
,,,4.00000000e-010,-2.08000012e-002
,,,4.25000000e-010,-2.08078137e-002
,,,4.50000000e-010,-2.07843762e-002
,,,4.75000000e-010,-2.07421887e-002
,,,5.00000000e-010,-2.06859387e-002
,,,5.25000000e-010,-2.06218762e-002
,,,5.50000000e-010,-2.05531262e-002
,,,5.75000000e-010,-2.04812512e-002
,,,6.00000000e-010,-2.04000012e-002
,,,6.25000000e-010,-2.01906262e-002
,,,6.50000000e-010,-1.99734387e-002
,,,6.75000000e-010,-1.97531262e-002
,,,7.00000000e-010,-1.95234387e-002
,,,7.25000000e-010,-1.92796886e-002
,,,7.50000000e-010,-1.90156261e-002
,,,7.75000000e-010,-1.87234386e-002
,,,8.00000000e-010,-1.84000011e-002
,,,8.25000000e-010,-1.79562510e-002
,,,8.50000000e-010,-1.74890635e-002
,,,8.75000000e-010,-1.70093760e-002
,,,9.00000000e-010,-1.65296884e-002
,,,9.25000000e-010,-1.60609384e-002
,,,9.50000000e-010,-1.56125009e-002
,,,9.75000000e-010,-1.51906259e-002
,,,1.00000000e-009,-1.48000008e-002
,,,1.02500000e-009,-1.44031258e-002
,,,1.05000000e-009,-1.40312508e-002
,,,1.07500000e-009,-1.36796882e-002
,,,1.10000000e-009,-1.33453132e-002
,,,1.12500000e-009,-1.30171882e-002
,,,1.15000000e-009,-1.26890632e-002
,,,1.17500000e-009,-1.23515632e-002
,,,1.20000000e-009,-1.20000006e-002
,,,1.22500000e-009,-1.16296881e-002
,,,1.25000000e-009,-1.12343756e-002
,,,1.27500000e-009,-1.08187505e-002
,,,1.30000000e-009,-1.03921880e-002
,,,1.32500000e-009,-9.96562548e-003
,,,1.35000000e-009,-9.55000045e-003
,,,1.37500000e-009,-9.15937542e-003
,,,1.40000000e-009,-8.80000040e-003
,,,1.42500000e-009,-8.51250038e-003
,,,1.45000000e-009,-8.25468786e-003
,,,1.47500000e-009,-8.02343784e-003
,,,1.50000000e-009,-7.81875033e-003
,,,1.52500000e-009,-7.63593782e-003
,,,1.55000000e-009,-7.47343781e-003
,,,1.57500000e-009,-7.32968780e-003
,,,1.60000000e-009,-7.20000029e-003
,,,1.62500000e-009,-7.12031278e-003
,,,1.65000000e-009,-7.03125027e-003
,,,1.67500000e-009,-6.93125027e-003
,,,1.70000000e-009,-6.82187526e-003
,,,1.72500000e-009,-6.70937525e-003
,,,1.75000000e-009,-6.59843774e-003
,,,1.77500000e-009,-6.49375024e-003
,,,1.80000000e-009,-6.40000023e-003
,,,1.82500000e-009,-6.35781273e-003
,,,1.85000000e-009,-6.31250022e-003
,,,1.87500000e-009,-6.26562522e-003
,,,1.90000000e-009,-6.21562522e-003
,,,1.92500000e-009,-6.16250021e-003
,,,1.95000000e-009,-6.10781271e-003
,,,1.97500000e-009,-6.05468771e-003
,,,2.00000000e-009,-6.00000020e-003
,,,2.02500000e-009,-5.96875020e-003
,,,2.05000000e-009,-5.92656270e-003
,,,2.07500000e-009,-5.87500019e-003
,,,2.10000000e-009,-5.81562519e-003
,,,2.12500000e-009,-5.75625018e-003
,,,2.15000000e-009,-5.69687518e-003
,,,2.17500000e-009,-5.64531268e-003
,,,2.20000000e-009,-5.60000017e-003
,,,2.22500000e-009,-5.57187517e-003
,,,2.25000000e-009,-5.53906267e-003
,,,2.27500000e-009,-5.50000017e-003
,,,2.30000000e-009,-5.45468766e-003
,,,2.32500000e-009,-5.40312516e-003
,,,2.35000000e-009,-5.34375015e-003
,,,2.37500000e-009,-5.27656265e-003
,,,2.40000000e-009,-5.20000014e-003
,,,2.42500000e-009,-5.11562514e-003
,,,2.45000000e-009,-5.01718763e-003
,,,2.47500000e-009,-4.91093762e-003
,,,2.50000000e-009,-4.80000012e-003
,,,2.52500000e-009,-4.68906261e-003
,,,2.55000000e-009,-4.58281260e-003
,,,2.57500000e-009,-4.48593759e-003
,,,2.60000000e-009,-4.40000009e-003
,,,2.62500000e-009,-4.32500008e-003
,,,2.65000000e-009,-4.25937508e-003
,,,2.67500000e-009,-4.20156257e-003
,,,2.70000000e-009,-4.15312507e-003
,,,2.72500000e-009,-4.11093757e-003
,,,2.75000000e-009,-4.07343756e-003
,,,2.77500000e-009,-4.03750006e-003
,,,2.80000000e-009,-4.00000006e-003
,,,2.82500000e-009,-3.95625006e-003
,,,2.85000000e-009,-3.89843755e-003
,,,2.87500000e-009,-3.82500005e-003
,,,2.90000000e-009,-3.73437504e-003
,,,2.92500000e-009,-3.62500003e-003
,,,2.95000000e-009,-3.49843752e-003
,,,2.97500000e-009,-3.35625001e-003
,,,3.00000000e-009,-3.20000000e-003
,,,3.02500000e-009,-3.03749999e-003
,,,3.05000000e-009,-2.86718748e-003
,,,3.07500000e-009,-2.69531247e-003
,,,3.10000000e-009,-2.52812496e-003
,,,3.12500000e-009,-2.36874994e-003
,,,3.15000000e-009,-2.22656243e-003
,,,3.17500000e-009,-2.10312493e-003
,,,3.20000000e-009,-1.99999992e-003
,,,3.22500000e-009,-1.93124991e-003
,,,3.25000000e-009,-1.87499991e-003
,,,3.27500000e-009,-1.83124991e-003
,,,3.30000000e-009,-1.79062490e-003
,,,3.32500000e-009,-1.75156240e-003
,,,3.35000000e-009,-1.70937490e-003
,,,3.37500000e-009,-1.65937489e-003
,,,3.40000000e-009,-1.59999989e-003
,,,3.42500000e-009,-1.54374989e-003
,,,3.45000000e-009,-1.47812488e-003
,,,3.47500000e-009,-1.40624988e-003
,,,3.50000000e-009,-1.33593737e-003
,,,3.52500000e-009,-1.27343737e-003
,,,3.55000000e-009,-1.22656236e-003
,,,3.57500000e-009,-1.20156236e-003
,,,3.60000000e-009,-1.19999986e-003
,,,3.62500000e-009,-1.23906236e-003
,,,3.65000000e-009,-1.29531237e-003
,,,3.67500000e-009,-1.36406237e-003
,,,3.70000000e-009,-1.43437488e-003
,,,3.72500000e-009,-1.50156238e-003
,,,3.75000000e-009,-1.55624989e-003
,,,3.77500000e-009,-1.59062489e-003
,,,3.80000000e-009,-1.59999989e-003
,,,3.82500000e-009,-1.59218739e-003
,,,3.85000000e-009,-1.55624989e-003
,,,3.87500000e-009,-1.49999988e-003
,,,3.90000000e-009,-1.42968738e-003
,,,3.92500000e-009,-1.35624987e-003
,,,3.95000000e-009,-1.28906237e-003
,,,3.97500000e-009,-1.23593736e-003
,,,4.00000000e-009,-1.19999986e-003
,,,4.02500000e-009,-1.19218736e-003
,,,4.05000000e-009,-1.20156236e-003
,,,4.07500000e-009,-1.21874986e-003
,,,4.10000000e-009,-1.24062486e-003
,,,4.12500000e-009,-1.25624987e-003
,,,4.15000000e-009,-1.25781237e-003
,,,4.17500000e-009,-1.24062486e-003
,,,4.20000000e-009,-1.19999986e-003
,,,4.22500000e-009,-1.13906236e-003
,,,4.25000000e-009,-1.06093735e-003
,,,4.27500000e-009,-9.73437345e-004
,,,4.30000000e-009,-8.89062339e-004
,,,4.32500000e-009,-8.20312335e-004
,,,4.35000000e-009,-7.76562331e-004
,,,4.37500000e-009,-7.68749831e-004
,,,4.40000000e-009,-7.99999833e-004
,,,4.42500000e-009,-8.73437338e-004
,,,4.45000000e-009,-9.78124846e-004
,,,4.47500000e-009,-1.10624985e-003
,,,4.50000000e-009,-1.24218736e-003
,,,4.52500000e-009,-1.37187487e-003
,,,4.55000000e-009,-1.48437488e-003
,,,4.57500000e-009,-1.56249989e-003
,,,4.60000000e-009,-1.59999989e-003
,,,4.62500000e-009,-1.58749989e-003
,,,4.65000000e-009,-1.52968738e-003
,,,4.67500000e-009,-1.43281238e-003
,,,4.70000000e-009,-1.30937487e-003
,,,4.72500000e-009,-1.17187486e-003
,,,4.75000000e-009,-1.03281235e-003
,,,4.77500000e-009,-9.06249841e-004
,,,4.80000000e-009,-7.99999833e-004
,,,4.82500000e-009,-7.26562328e-004
,,,4.85000000e-009,-6.84374825e-004
,,,4.87500000e-009,-6.70312324e-004
,,,4.90000000e-009,-6.81249825e-004
,,,4.92500000e-009,-7.07812327e-004
,,,4.95000000e-009,-7.43749829e-004
,,,4.97500000e-009,-7.76562331e-004
,,,5.00000000e-009,-7.99999833e-004
,,,5.02500000e-009,-8.09374834e-004
,,,5.05000000e-009,-7.98437333e-004
,,,5.07500000e-009,-7.65624831e-004
,,,5.10000000e-009,-7.12499827e-004
,,,5.12500000e-009,-6.43749822e-004
,,,5.15000000e-009,-5.64062316e-004
,,,5.17500000e-009,-4.81249811e-004
,,,5.20000000e-009,-3.99999805e-004
,,,5.22500000e-009,-3.35937300e-004
,,,5.25000000e-009,-2.84374797e-004
,,,5.27500000e-009,-2.53124794e-004
,,,5.30000000e-009,-2.42187294e-004
,,,5.32500000e-009,-2.53124794e-004
,,,5.35000000e-009,-2.84374797e-004
,,,5.37500000e-009,-3.34374800e-004
,,,5.40000000e-009,-3.99999805e-004
,,,5.42500000e-009,-4.81249811e-004
,,,5.45000000e-009,-5.65624817e-004
,,,5.47500000e-009,-6.46874822e-004
,,,5.50000000e-009,-7.17187327e-004
,,,5.52500000e-009,-7.71874831e-004
,,,5.55000000e-009,-8.04687333e-004
,,,5.57500000e-009,-8.15624834e-004
,,,5.60000000e-009,-7.99999833e-004
,,,5.62500000e-009,-7.68749831e-004
,,,5.65000000e-009,-7.17187327e-004
,,,5.67500000e-009,-6.53124823e-004
,,,5.70000000e-009,-5.84374818e-004
,,,5.72500000e-009,-5.17187313e-004
,,,5.75000000e-009,-4.59374809e-004
,,,5.77500000e-009,-4.18749806e-004
,,,5.80000000e-009,-3.99999805e-004
,,,5.82500000e-009,-4.10937306e-004
