RawData/CosmicRays/L6_2pt2C_15mV/wave029_Ch3.csv

"Record Length",1000,"Points",-7.72500000e-009,-6.96874826e-004
"Sample Interval",2.50000000e-011,s,-7.70000000e-009,-6.23437321e-004
"Trigger Point",309,"Samples",-7.67500000e-009,-5.45312315e-004
"Trigger Time",5.64525880e-012,s,-7.65000000e-009,-4.76562310e-004
"",,,-7.62500000e-009,-4.24999807e-004
"Horizontal Offset",-7.72500000e-009,s,-7.60000000e-009,-3.99999805e-004
,,,-7.57500000e-009,-4.07812305e-004
,,,-7.55000000e-009,-4.42187308e-004
,,,-7.52500000e-009,-4.99999812e-004
,,,-7.50000000e-009,-5.71874817e-004
,,,-7.47500000e-009,-6.48437322e-004
,,,-7.45000000e-009,-7.17187327e-004
,,,-7.42500000e-009,-7.70312331e-004
,,,-7.40000000e-009,-7.99999833e-004
,,,-7.37500000e-009,-7.99999833e-004
,,,-7.35000000e-009,-7.71874831e-004
,,,-7.32500000e-009,-7.21874828e-004
,,,-7.30000000e-009,-6.54687323e-004
,,,-7.27500000e-009,-5.81249818e-004
,,,-7.25000000e-009,-5.07812312e-004
,,,-7.22500000e-009,-4.45312308e-004
,,,-7.20000000e-009,-3.99999805e-004
,,,-7.17500000e-009,-3.81249803e-004
,,,-7.15000000e-009,-3.87499804e-004
,,,-7.12500000e-009,-4.20312306e-004
,,,-7.10000000e-009,-4.74999810e-004
,,,-7.07500000e-009,-5.46874815e-004
,,,-7.05000000e-009,-6.29687321e-004
,,,-7.02500000e-009,-7.17187327e-004
,,,-7.00000000e-009,-7.99999833e-004
,,,-6.97500000e-009,-8.73437338e-004
,,,-6.95000000e-009,-9.28124842e-004
,,,-6.92500000e-009,-9.62499845e-004
,,,-6.90000000e-009,-9.74999845e-004
,,,-6.87500000e-009,-9.62499845e-004
,,,-6.85000000e-009,-9.28124842e-004
,,,-6.82500000e-009,-8.73437338e-004
,,,-6.80000000e-009,-7.99999833e-004
,,,-6.77500000e-009,-7.17187327e-004
,,,-6.75000000e-009,-6.29687321e-004
,,,-6.72500000e-009,-5.46874815e-004
,,,-6.70000000e-009,-4.74999810e-004
,,,-6.67500000e-009,-4.20312306e-004
,,,-6.65000000e-009,-3.87499804e-004
,,,-6.62500000e-009,-3.81249803e-004
,,,-6.60000000e-009,-3.99999805e-004
,,,-6.57500000e-009,-4.46874808e-004
,,,-6.55000000e-009,-5.12499813e-004
,,,-6.52500000e-009,-5.85937318e-004
,,,-6.50000000e-009,-6.62499823e-004
,,,-6.47500000e-009,-7.29687328e-004
,,,-6.45000000e-009,-7.78124832e-004
,,,-6.42500000e-009,-8.03124833e-004
,,,-6.40000000e-009,-7.99999833e-004
,,,-6.37500000e-009,-7.68749831e-004
,,,-6.35000000e-009,-7.12499827e-004
,,,-6.32500000e-009,-6.40624822e-004
,,,-6.30000000e-009,-5.64062316e-004
,,,-6.27500000e-009,-4.92187311e-004
,,,-6.25000000e-009,-4.35937307e-004
,,,-6.22500000e-009,-4.03124805e-004
,,,-6.20000000e-009,-3.99999805e-004
,,,-6.17500000e-009,-4.28124807e-004
,,,-6.15000000e-009,-4.82812311e-004
,,,-6.12500000e-009,-5.54687316e-004
,,,-6.10000000e-009,-6.32812321e-004
,,,-6.07500000e-009,-7.07812327e-004
,,,-6.05000000e-009,-7.65624831e-004
,,,-6.02500000e-009,-7.98437333e-004
,,,-6.00000000e-009,-7.99999833e-004
,,,-5.97500000e-009,-7.67187331e-004
,,,-5.95000000e-009,-7.04687326e-004
,,,-5.92500000e-009,-6.23437321e-004
,,,-5.90000000e-009,-5.37499815e-004
,,,-5.87500000e-009,-4.59374809e-004
,,,-5.85000000e-009,-4.04687305e-004
,,,-5.82500000e-009,-3.82812304e-004
,,,-5.80000000e-009,-3.99999805e-004
,,,-5.77500000e-009,-4.62499809e-004
,,,-5.75000000e-009,-5.60937316e-004
,,,-5.72500000e-009,-6.85937325e-004
,,,-5.70000000e-009,-8.24999835e-004
,,,-5.67500000e-009,-9.59374844e-004
,,,-5.65000000e-009,-1.07499985e-003
,,,-5.62500000e-009,-1.15937486e-003
,,,-5.60000000e-009,-1.19999986e-003
,,,-5.57500000e-009,-1.18749986e-003
,,,-5.55000000e-009,-1.12812486e-003
,,,-5.52500000e-009,-1.02812485e-003
,,,-5.50000000e-009,-9.03124840e-004
,,,-5.47500000e-009,-7.64062331e-004
,,,-5.45000000e-009,-6.24999821e-004
,,,-5.42500000e-009,-4.99999812e-004
,,,-5.40000000e-009,-3.99999805e-004
,,,-5.37500000e-009,-3.35937300e-004
,,,-5.35000000e-009,-3.04687298e-004
,,,-5.32500000e-009,-3.01562298e-004
,,,-5.30000000e-009,-3.20312299e-004
,,,-5.27500000e-009,-3.49999801e-004
,,,-5.25000000e-009,-3.79687303e-004
,,,-5.22500000e-009,-3.98437305e-004
,,,-5.20000000e-009,-3.99999805e-004
,,,-5.17500000e-009,-3.81249803e-004
,,,-5.15000000e-009,-3.39062300e-004
,,,-5.12500000e-009,-2.79687296e-004
,,,-5.10000000e-009,-2.09374791e-004
,,,-5.07500000e-009,-1.37499786e-004
,,,-5.05000000e-009,-7.34372817e-005
,,,-5.02500000e-009,-2.65622784e-005
,,,-5.00000000e-009,2.23517420e-010
,,,-4.97500000e-009,-4.68727681e-006
,,,-4.95000000e-009,-3.43747789e-005
,,,-4.92500000e-009,-8.43747825e-005
,,,-4.90000000e-009,-1.48437287e-004
,,,-4.87500000e-009,-2.20312292e-004
,,,-4.85000000e-009,-2.90624797e-004
,,,-4.82500000e-009,-3.53124801e-004
,,,-4.80000000e-009,-3.99999805e-004
,,,-4.77500000e-009,-4.35937307e-004
,,,-4.75000000e-009,-4.51562308e-004
,,,-4.72500000e-009,-4.53124809e-004
,,,-4.70000000e-009,-4.43749808e-004
,,,-4.67500000e-009,-4.26562307e-004
,,,-4.65000000e-009,-4.10937306e-004
,,,-4.62500000e-009,-3.99999805e-004
,,,-4.60000000e-009,-3.99999805e-004
,,,-4.57500000e-009,-4.20312306e-004
,,,-4.55000000e-009,-4.54687309e-004
,,,-4.52500000e-009,-5.01562312e-004
,,,-4.50000000e-009,-5.59374816e-004
,,,-4.47500000e-009,-6.23437321e-004
,,,-4.45000000e-009,-6.89062325e-004
,,,-4.42500000e-009,-7.49999830e-004
,,,-4.40000000e-009,-7.99999833e-004
,,,-4.37500000e-009,-8.34374836e-004
,,,-4.35000000e-009,-8.48437337e-004
,,,-4.32500000e-009,-8.37499836e-004
,,,-4.30000000e-009,-7.98437333e-004
,,,-4.27500000e-009,-7.34374828e-004
,,,-4.25000000e-009,-6.42187322e-004
,,,-4.22500000e-009,-5.29687314e-004
,,,-4.20000000e-009,-3.99999805e-004
,,,-4.17500000e-009,-2.65624795e-004
,,,-4.15000000e-009,-1.34374786e-004
,,,-4.12500000e-009,-2.03122779e-005
,,,-4.10000000e-009,6.71877283e-005
,,,-4.07500000e-009,1.18750232e-004
,,,-4.05000000e-009,1.26562732e-004
,,,-4.02500000e-009,8.75002297e-005
,,,-4.00000000e-009,2.23517420e-010
,,,-3.97500000e-009,-1.35937286e-004
,,,-3.95000000e-009,-3.03124798e-004
,,,-3.92500000e-009,-4.89062311e-004
,,,-3.90000000e-009,-6.81249825e-004
,,,-3.87500000e-009,-8.60937337e-004
,,,-3.85000000e-009,-1.01406235e-003
,,,-3.82500000e-009,-1.13124986e-003
,,,-3.80000000e-009,-1.19999986e-003
,,,-3.77500000e-009,-1.21562486e-003
,,,-3.75000000e-009,-1.18749986e-003
,,,-3.72500000e-009,-1.12499986e-003
,,,-3.70000000e-009,-1.04218735e-003
,,,-3.67500000e-009,-9.54687344e-004
,,,-3.65000000e-009,-8.76562339e-004
,,,-3.62500000e-009,-8.23437335e-004
,,,-3.60000000e-009,-7.99999833e-004
,,,-3.57500000e-009,-8.09374834e-004
,,,-3.55000000e-009,-8.51562337e-004
,,,-3.52500000e-009,-9.18749842e-004
,,,-3.50000000e-009,-9.99999847e-004
,,,-3.47500000e-009,-1.08281235e-003
,,,-3.45000000e-009,-1.15156236e-003
,,,-3.42500000e-009,-1.19374986e-003
,,,-3.40000000e-009,-1.19999986e-003
,,,-3.37500000e-009,-1.16249986e-003
,,,-3.35000000e-009,-1.08437485e-003
,,,-3.32500000e-009,-9.76562346e-004
,,,-3.30000000e-009,-8.48437337e-004
,,,-3.27500000e-009,-7.12499827e-004
,,,-3.25000000e-009,-5.84374818e-004
,,,-3.22500000e-009,-4.78124810e-004
,,,-3.20000000e-009,-3.99999805e-004
,,,-3.17500000e-009,-3.65624802e-004
,,,-3.15000000e-009,-3.71874803e-004
,,,-3.12500000e-009,-4.12499806e-004
,,,-3.10000000e-009,-4.81249811e-004
,,,-3.07500000e-009,-5.65624817e-004
,,,-3.05000000e-009,-6.56249823e-004
,,,-3.02500000e-009,-7.37499829e-004
,,,-3.00000000e-009,-7.99999833e-004
,,,-2.97500000e-009,-8.34374836e-004
,,,-2.95000000e-009,-8.39062336e-004
,,,-2.92500000e-009,-8.12499834e-004
,,,-2.90000000e-009,-7.59374830e-004
,,,-2.87500000e-009,-6.85937325e-004
,,,-2.85000000e-009,-5.96874819e-004
,,,-2.82500000e-009,-4.98437312e-004
,,,-2.80000000e-009,-3.99999805e-004
,,,-2.77500000e-009,-3.15624799e-004
,,,-2.75000000e-009,-2.39062293e-004
,,,-2.72500000e-009,-1.74999789e-004
,,,-2.70000000e-009,-1.20312285e-004
,,,-2.67500000e-009,-7.81247820e-005
,,,-2.65000000e-009,-4.37497796e-005
,,,-2.62500000e-009,-1.87497778e-005
,,,-2.60000000e-009,2.23517420e-010
,,,-2.57500000e-009,1.56272363e-006
,,,-2.55000000e-009,-7.81227704e-006
,,,-2.52500000e-009,-2.81247785e-005
,,,-2.50000000e-009,-6.40622810e-005
,,,-2.47500000e-009,-1.18749785e-004
,,,-2.45000000e-009,-1.92187290e-004
,,,-2.42500000e-009,-2.87499797e-004
,,,-2.40000000e-009,-3.99999805e-004
,,,-2.37500000e-009,-5.34374814e-004
,,,-2.35000000e-009,-6.73437324e-004
,,,-2.32500000e-009,-8.10937334e-004
,,,-2.30000000e-009,-9.37499843e-004
,,,-2.27500000e-009,-1.04687485e-003
,,,-2.25000000e-009,-1.12968736e-003
,,,-2.22500000e-009,-1.18124986e-003
,,,-2.20000000e-009,-1.19999986e-003
,,,-2.17500000e-009,-1.18281236e-003
,,,-2.15000000e-009,-1.13749986e-003
,,,-2.12500000e-009,-1.07187485e-003
,,,-2.10000000e-009,-9.98437347e-004
,,,-2.07500000e-009,-9.24999842e-004
,,,-2.05000000e-009,-8.62499838e-004
,,,-2.02500000e-009,-8.20312335e-004
,,,-2.00000000e-009,-7.99999833e-004
,,,-1.97500000e-009,-8.09374834e-004
,,,-1.95000000e-009,-8.43749836e-004
,,,-1.92500000e-009,-8.98437340e-004
,,,-1.90000000e-009,-9.67187345e-004
,,,-1.87500000e-009,-1.04218735e-003
,,,-1.85000000e-009,-1.11093736e-003
,,,-1.82500000e-009,-1.16562486e-003
,,,-1.80000000e-009,-1.19999986e-003
,,,-1.77500000e-009,-1.20781236e-003
,,,-1.75000000e-009,-1.18906236e-003
,,,-1.72500000e-009,-1.14843736e-003
,,,-1.70000000e-009,-1.08906235e-003
,,,-1.67500000e-009,-1.01874985e-003
,,,-1.65000000e-009,-9.42187343e-004
,,,-1.62500000e-009,-8.67187338e-004
,,,-1.60000000e-009,-7.99999833e-004
,,,-1.57500000e-009,-7.53124830e-004
,,,-1.55000000e-009,-7.24999828e-004
,,,-1.52500000e-009,-7.14062327e-004
,,,-1.50000000e-009,-7.18749827e-004
,,,-1.47500000e-009,-7.34374828e-004
,,,-1.45000000e-009,-7.57812330e-004
,,,-1.42500000e-009,-7.81249832e-004
,,,-1.40000000e-009,-7.99999833e-004
,,,-1.37500000e-009,-8.31249835e-004
,,,-1.35000000e-009,-8.56249837e-004
,,,-1.32500000e-009,-8.73437338e-004
,,,-1.30000000e-009,-8.79687339e-004
,,,-1.27500000e-009,-8.74999838e-004
,,,-1.25000000e-009,-8.57812337e-004
,,,-1.22500000e-009,-8.32812335e-004
,,,-1.20000000e-009,-7.99999833e-004
,,,-1.17500000e-009,-8.07812334e-004
,,,-1.15000000e-009,-8.18749834e-004
,,,-1.12500000e-009,-8.31249835e-004
,,,-1.10000000e-009,-8.40624836e-004
,,,-1.07500000e-009,-8.43749836e-004
,,,-1.05000000e-009,-8.39062336e-004
,,,-1.02500000e-009,-8.23437335e-004
,,,-1.00000000e-009,-7.99999833e-004
,,,-9.75000000e-010,-8.42187336e-004
,,,-9.50000000e-010,-8.92187340e-004
,,,-9.25000000e-010,-9.45312343e-004
,,,-9.00000000e-010,-1.00156235e-003
,,,-8.75000000e-010,-1.05624985e-003
,,,-8.50000000e-010,-1.10781235e-003
,,,-8.25000000e-010,-1.15468736e-003
,,,-8.00000000e-010,-1.19999986e-003
,,,-7.75000000e-010,-1.34687487e-003
,,,-7.50000000e-010,-1.50937488e-003
,,,-7.25000000e-010,-1.67812490e-003
,,,-7.00000000e-010,-1.84687491e-003
,,,-6.75000000e-010,-2.00781242e-003
,,,-6.50000000e-010,-2.15312493e-003
,,,-6.25000000e-010,-2.28281244e-003
,,,-6.00000000e-010,-2.39999995e-003
,,,-5.75000000e-010,-2.62656246e-003
,,,-5.50000000e-010,-2.87187498e-003
,,,-5.25000000e-010,-3.13906250e-003
,,,-5.00000000e-010,-3.42812502e-003
,,,-4.75000000e-010,-3.73750004e-003
,,,-4.50000000e-010,-4.06718756e-003
,,,-4.25000000e-010,-4.42031259e-003
,,,-4.00000000e-010,-4.80000012e-003
,,,-3.75000000e-010,-5.31250015e-003
,,,-3.50000000e-010,-5.87031269e-003
,,,-3.25000000e-010,-6.46718773e-003
,,,-3.00000000e-010,-7.08750028e-003
,,,-2.75000000e-010,-7.72187532e-003
,,,-2.50000000e-010,-8.35625037e-003
,,,-2.25000000e-010,-8.98437541e-003
,,,-2.00000000e-010,-9.60000046e-003
,,,-1.75000000e-010,-1.02593755e-002
,,,-1.50000000e-010,-1.09281255e-002
,,,-1.25000000e-010,-1.16046881e-002
,,,-1.00000000e-010,-1.22937506e-002
,,,-7.50000000e-011,-1.29953132e-002
,,,-5.00000000e-011,-1.37109382e-002
,,,-2.50000000e-011,-1.44453133e-002
,,,0.00000000e+000,-1.52000009e-002
,,,2.50000000e-011,-1.59671884e-002
,,,5.00000000e-011,-1.67703135e-002
,,,7.50000000e-011,-1.76078135e-002
,,,1.00000000e-010,-1.84734386e-002
,,,1.25000000e-010,-1.93578136e-002
,,,1.50000000e-010,-2.02484387e-002
,,,1.75000000e-010,-2.11328138e-002
,,,2.00000000e-010,-2.20000013e-002
,,,2.25000000e-010,-2.27437514e-002
,,,2.50000000e-010,-2.34625014e-002
,,,2.75000000e-010,-2.41578140e-002
,,,3.00000000e-010,-2.48296890e-002
,,,3.25000000e-010,-2.54734391e-002
,,,3.50000000e-010,-2.60859391e-002
,,,3.75000000e-010,-2.66640642e-002
,,,4.00000000e-010,-2.72000017e-002
,,,4.25000000e-010,-2.75359392e-002
,,,4.50000000e-010,-2.78406267e-002
,,,4.75000000e-010,-2.81203143e-002
,,,5.00000000e-010,-2.83812518e-002
,,,5.25000000e-010,-2.86234393e-002
,,,5.50000000e-010,-2.88437518e-002
,,,5.75000000e-010,-2.90375018e-002
,,,6.00000000e-010,-2.92000018e-002
,,,6.25000000e-010,-2.91453143e-002
,,,6.50000000e-010,-2.90687518e-002
,,,6.75000000e-010,-2.89765643e-002
,,,7.00000000e-010,-2.88781268e-002
,,,7.25000000e-010,-2.87750018e-002
,,,7.50000000e-010,-2.86640643e-002
,,,7.75000000e-010,-2.85421893e-002
,,,8.00000000e-010,-2.84000018e-002
,,,8.25000000e-010,-2.80640643e-002
,,,8.50000000e-010,-2.77062517e-002
,,,8.75000000e-010,-2.73312517e-002
,,,9.00000000e-010,-2.69421892e-002
,,,9.25000000e-010,-2.65375017e-002
,,,9.50000000e-010,-2.61156266e-002
,,,9.75000000e-010,-2.56718766e-002
,,,1.00000000e-009,-2.52000016e-002
,,,1.02500000e-009,-2.45750015e-002
,,,1.05000000e-009,-2.39250015e-002
,,,1.07500000e-009,-2.32625014e-002
,,,1.10000000e-009,-2.25937514e-002
,,,1.12500000e-009,-2.19281263e-002
,,,1.15000000e-009,-2.12718763e-002
,,,1.17500000e-009,-2.06281262e-002
,,,1.20000000e-009,-2.00000012e-002
,,,1.22500000e-009,-1.93343761e-002
,,,1.25000000e-009,-1.86828136e-002
,,,1.27500000e-009,-1.80484386e-002
,,,1.30000000e-009,-1.74343760e-002
,,,1.32500000e-009,-1.68421885e-002
,,,1.35000000e-009,-1.62734384e-002
,,,1.37500000e-009,-1.57265634e-002
,,,1.40000000e-009,-1.52000009e-002
,,,1.42500000e-009,-1.46921883e-002
,,,1.45000000e-009,-1.41828133e-002
,,,1.47500000e-009,-1.36703132e-002
,,,1.50000000e-009,-1.31609382e-002
,,,1.52500000e-009,-1.26531257e-002
,,,1.55000000e-009,-1.21546881e-002
,,,1.57500000e-009,-1.16703131e-002
,,,1.60000000e-009,-1.12000006e-002
,,,1.62500000e-009,-1.07875005e-002
,,,1.65000000e-009,-1.03703130e-002
,,,1.67500000e-009,-9.95156298e-003
,,,1.70000000e-009,-9.53437545e-003
,,,1.72500000e-009,-9.12500042e-003
,,,1.75000000e-009,-8.72656289e-003
,,,1.77500000e-009,-8.35000037e-003
,,,1.80000000e-009,-8.00000034e-003
,,,1.82500000e-009,-7.74375032e-003
,,,1.85000000e-009,-7.49687531e-003
,,,1.87500000e-009,-7.25937529e-003
,,,1.90000000e-009,-7.03906277e-003
,,,1.92500000e-009,-6.83750026e-003
,,,1.95000000e-009,-6.66093775e-003
,,,1.97500000e-009,-6.51406274e-003
,,,2.00000000e-009,-6.40000023e-003
,,,2.02500000e-009,-6.37656273e-003
,,,2.05000000e-009,-6.35312523e-003
,,,2.07500000e-009,-6.32500022e-003
,,,2.10000000e-009,-6.28750022e-003
,,,2.12500000e-009,-6.23593772e-003
,,,2.15000000e-009,-6.17187521e-003
,,,2.17500000e-009,-6.09375021e-003
,,,2.20000000e-009,-6.00000020e-003
,,,2.22500000e-009,-5.93281270e-003
,,,2.25000000e-009,-5.83125019e-003
,,,2.27500000e-009,-5.69843768e-003
,,,2.30000000e-009,-5.53906267e-003
,,,2.32500000e-009,-5.36093766e-003
,,,2.35000000e-009,-5.17343764e-003
,,,2.37500000e-009,-4.98281263e-003
,,,2.40000000e-009,-4.80000012e-003
,,,2.42500000e-009,-4.66250011e-003
,,,2.45000000e-009,-4.53125010e-003
,,,2.47500000e-009,-4.40781259e-003
,,,2.50000000e-009,-4.29531258e-003
,,,2.52500000e-009,-4.19531257e-003
,,,2.55000000e-009,-4.11250007e-003
,,,2.57500000e-009,-4.04843756e-003
,,,2.60000000e-009,-4.00000006e-003
,,,2.62500000e-009,-3.99062506e-003
,,,2.65000000e-009,-3.98750006e-003
,,,2.67500000e-009,-3.98750006e-003
,,,2.70000000e-009,-3.98906256e-003
,,,2.72500000e-009,-3.99218756e-003
,,,2.75000000e-009,-3.99531256e-003
,,,2.77500000e-009,-3.99843756e-003
,,,2.80000000e-009,-4.00000006e-003
,,,2.82500000e-009,-4.00156256e-003
,,,2.85000000e-009,-3.99062506e-003
,,,2.87500000e-009,-3.96406256e-003
,,,2.90000000e-009,-3.92031255e-003
,,,2.92500000e-009,-3.86093755e-003
,,,2.95000000e-009,-3.78750004e-003
,,,2.97500000e-009,-3.70000004e-003
,,,3.00000000e-009,-3.60000003e-003
,,,3.02500000e-009,-3.49375002e-003
,,,3.05000000e-009,-3.37812502e-003
,,,3.07500000e-009,-3.25937501e-003
,,,3.10000000e-009,-3.14218750e-003
,,,3.12500000e-009,-3.03437499e-003
,,,3.15000000e-009,-2.93749998e-003
,,,3.17500000e-009,-2.85937498e-003
,,,3.20000000e-009,-2.79999997e-003
,,,3.22500000e-009,-2.76718747e-003
,,,3.25000000e-009,-2.74999997e-003
,,,3.27500000e-009,-2.74531247e-003
,,,3.30000000e-009,-2.75156247e-003
,,,3.32500000e-009,-2.76249997e-003
,,,3.35000000e-009,-2.77812497e-003
,,,3.37500000e-009,-2.79218747e-003
,,,3.40000000e-009,-2.79999997e-003
,,,3.42500000e-009,-2.80156247e-003
,,,3.45000000e-009,-2.78749997e-003
,,,3.47500000e-009,-2.75781247e-003
,,,3.50000000e-009,-2.71249997e-003
,,,3.52500000e-009,-2.65156246e-003
,,,3.55000000e-009,-2.57812496e-003
,,,3.57500000e-009,-2.49374995e-003
,,,3.60000000e-009,-2.39999995e-003
,,,3.62500000e-009,-2.30156244e-003
,,,3.65000000e-009,-2.19687493e-003
,,,3.67500000e-009,-2.09062492e-003
,,,3.70000000e-009,-1.98437492e-003
,,,3.72500000e-009,-1.87968741e-003
,,,3.75000000e-009,-1.77968740e-003
,,,3.77500000e-009,-1.68593740e-003
,,,3.80000000e-009,-1.59999989e-003
,,,3.82500000e-009,-1.52968738e-003
,,,3.85000000e-009,-1.46406238e-003
,,,3.87500000e-009,-1.40468738e-003
,,,3.90000000e-009,-1.35156237e-003
,,,3.92500000e-009,-1.30468737e-003
,,,3.95000000e-009,-1.26249987e-003
,,,3.97500000e-009,-1.22812486e-003
,,,4.00000000e-009,-1.19999986e-003
,,,4.02500000e-009,-1.18906236e-003
,,,4.05000000e-009,-1.18124986e-003
,,,4.07500000e-009,-1.17656236e-003
,,,4.10000000e-009,-1.17499986e-003
,,,4.12500000e-009,-1.17656236e-003
,,,4.15000000e-009,-1.18281236e-003
,,,4.17500000e-009,-1.19062486e-003
,,,4.20000000e-009,-1.19999986e-003
,,,4.22500000e-009,-1.21718736e-003
,,,4.25000000e-009,-1.23124986e-003
,,,4.27500000e-009,-1.24218736e-003
,,,4.30000000e-009,-1.24687486e-003
,,,4.32500000e-009,-1.24687486e-003
,,,4.35000000e-009,-1.23906236e-003
,,,4.37500000e-009,-1.22343736e-003
,,,4.40000000e-009,-1.19999986e-003
,,,4.42500000e-009,-1.17343736e-003
,,,4.45000000e-009,-1.13749986e-003
,,,4.47500000e-009,-1.09218735e-003
,,,4.50000000e-009,-1.03906235e-003
,,,4.52500000e-009,-9.79687346e-004
,,,4.55000000e-009,-9.18749842e-004
,,,4.57500000e-009,-8.57812337e-004
,,,4.60000000e-009,-7.99999833e-004
,,,4.62500000e-009,-7.56249830e-004
,,,4.65000000e-009,-7.21874828e-004
,,,4.67500000e-009,-6.98437326e-004
,,,4.70000000e-009,-6.87499825e-004
,,,4.72500000e-009,-6.92187325e-004
,,,4.75000000e-009,-7.14062327e-004
,,,4.77500000e-009,-7.49999830e-004
,,,4.80000000e-009,-7.99999833e-004
,,,4.82500000e-009,-8.68749838e-004
,,,4.85000000e-009,-9.43749843e-004
,,,4.87500000e-009,-1.01718735e-003
,,,4.90000000e-009,-1.08593735e-003
,,,4.92500000e-009,-1.14218736e-003
,,,4.95000000e-009,-1.18281236e-003
,,,4.97500000e-009,-1.20312486e-003
,,,5.00000000e-009,-1.19999986e-003
,,,5.02500000e-009,-1.17499986e-003
,,,5.05000000e-009,-1.13124986e-003
,,,5.07500000e-009,-1.07499985e-003
,,,5.10000000e-009,-1.00937485e-003
,,,5.12500000e-009,-9.43749843e-004
,,,5.15000000e-009,-8.84374839e-004
,,,5.17500000e-009,-8.35937336e-004
,,,5.20000000e-009,-7.99999833e-004
,,,5.22500000e-009,-7.84374832e-004
,,,5.25000000e-009,-7.81249832e-004
,,,5.27500000e-009,-7.89062332e-004
,,,5.30000000e-009,-8.01562333e-004
,,,5.32500000e-009,-8.12499834e-004
,,,5.35000000e-009,-8.18749834e-004
,,,5.37500000e-009,-8.15624834e-004
,,,5.40000000e-009,-7.99999833e-004
,,,5.42500000e-009,-7.76562331e-004
,,,5.45000000e-009,-7.46874829e-004
,,,5.47500000e-009,-7.14062327e-004
,,,5.50000000e-009,-6.89062325e-004
,,,5.52500000e-009,-6.79687325e-004
,,,5.55000000e-009,-6.92187325e-004
,,,5.57500000e-009,-7.31249828e-004
,,,5.60000000e-009,-7.99999833e-004
,,,5.62500000e-009,-8.98437340e-004
,,,5.65000000e-009,-1.01718735e-003
,,,5.67500000e-009,-1.14843736e-003
,,,5.70000000e-009,-1.28124987e-003
,,,5.72500000e-009,-1.40312488e-003
,,,5.75000000e-009,-1.50312488e-003
,,,5.77500000e-009,-1.57187489e-003
,,,5.80000000e-009,-1.59999989e-003
