RawData/CosmicRays/L6_2pt2C_15mV/wave012_Ch3.csv

"Record Length",1000,"Points",-7.72500000e-009,-4.48437308e-004
"Sample Interval",2.50000000e-011,s,-7.70000000e-009,-3.99999805e-004
"Trigger Point",309,"Samples",-7.67500000e-009,-3.53124801e-004
"Trigger Time",2.04194565e-011,s,-7.65000000e-009,-3.10937298e-004
"",,,-7.62500000e-009,-2.79687296e-004
"Horizontal Offset",-7.72500000e-009,s,-7.60000000e-009,-2.62499795e-004
,,,-7.57500000e-009,-2.64062295e-004
,,,-7.55000000e-009,-2.89062297e-004
,,,-7.52500000e-009,-3.34374800e-004
,,,-7.50000000e-009,-3.99999805e-004
,,,-7.47500000e-009,-4.82812311e-004
,,,-7.45000000e-009,-5.71874817e-004
,,,-7.42500000e-009,-6.59374823e-004
,,,-7.40000000e-009,-7.35937329e-004
,,,-7.37500000e-009,-7.93749833e-004
,,,-7.35000000e-009,-8.28124835e-004
,,,-7.32500000e-009,-8.31249835e-004
,,,-7.30000000e-009,-7.99999833e-004
,,,-7.27500000e-009,-7.34374828e-004
,,,-7.25000000e-009,-6.40624822e-004
,,,-7.22500000e-009,-5.26562314e-004
,,,-7.20000000e-009,-4.03124805e-004
,,,-7.17500000e-009,-2.78124796e-004
,,,-7.15000000e-009,-1.62499788e-004
,,,-7.12500000e-009,-6.71872812e-005
,,,-7.10000000e-009,2.23517420e-010
,,,-7.07500000e-009,3.12502257e-005
,,,-7.05000000e-009,2.96877256e-005
,,,-7.02500000e-009,-4.68727681e-006
,,,-7.00000000e-009,-6.40622810e-005
,,,-6.97500000e-009,-1.42187287e-004
,,,-6.95000000e-009,-2.29687293e-004
,,,-6.92500000e-009,-3.18749799e-004
,,,-6.90000000e-009,-3.99999805e-004
,,,-6.87500000e-009,-4.67187310e-004
,,,-6.85000000e-009,-5.14062313e-004
,,,-6.82500000e-009,-5.40624815e-004
,,,-6.80000000e-009,-5.43749815e-004
,,,-6.77500000e-009,-5.29687314e-004
,,,-6.75000000e-009,-4.96874812e-004
,,,-6.72500000e-009,-4.53124809e-004
,,,-6.70000000e-009,-3.99999805e-004
,,,-6.67500000e-009,-3.45312301e-004
,,,-6.65000000e-009,-2.90624797e-004
,,,-6.62500000e-009,-2.35937293e-004
,,,-6.60000000e-009,-1.84374790e-004
,,,-6.57500000e-009,-1.34374786e-004
,,,-6.55000000e-009,-8.74997827e-005
,,,-6.52500000e-009,-4.21872795e-005
,,,-6.50000000e-009,2.23517420e-010
,,,-6.47500000e-009,3.12502257e-005
,,,-6.45000000e-009,5.62502275e-005
,,,-6.42500000e-009,7.34377287e-005
,,,-6.40000000e-009,8.12502293e-005
,,,-6.37500000e-009,7.81252290e-005
,,,-6.35000000e-009,6.40627281e-005
,,,-6.32500000e-009,3.75002262e-005
,,,-6.30000000e-009,2.23517420e-010
,,,-6.27500000e-009,-5.46872804e-005
,,,-6.25000000e-009,-1.12499784e-004
,,,-6.22500000e-009,-1.74999789e-004
,,,-6.20000000e-009,-2.35937293e-004
,,,-6.17500000e-009,-2.90624797e-004
,,,-6.15000000e-009,-3.39062300e-004
,,,-6.12500000e-009,-3.74999803e-004
,,,-6.10000000e-009,-3.99999805e-004
,,,-6.07500000e-009,-4.17187306e-004
,,,-6.05000000e-009,-4.23437306e-004
,,,-6.02500000e-009,-4.20312306e-004
,,,-6.00000000e-009,-4.14062306e-004
,,,-5.97500000e-009,-4.06249805e-004
,,,-5.95000000e-009,-3.98437305e-004
,,,-5.92500000e-009,-3.95312304e-004
,,,-5.90000000e-009,-3.99999805e-004
,,,-5.87500000e-009,-4.17187306e-004
,,,-5.85000000e-009,-4.45312308e-004
,,,-5.82500000e-009,-4.84374811e-004
,,,-5.80000000e-009,-5.35937314e-004
,,,-5.77500000e-009,-5.95312319e-004
,,,-5.75000000e-009,-6.62499823e-004
,,,-5.72500000e-009,-7.31249828e-004
,,,-5.70000000e-009,-7.99999833e-004
,,,-5.67500000e-009,-8.62499838e-004
,,,-5.65000000e-009,-9.12499841e-004
,,,-5.62500000e-009,-9.46874844e-004
,,,-5.60000000e-009,-9.60937344e-004
,,,-5.57500000e-009,-9.54687344e-004
,,,-5.55000000e-009,-9.24999842e-004
,,,-5.52500000e-009,-8.73437338e-004
,,,-5.50000000e-009,-7.99999833e-004
,,,-5.47500000e-009,-7.09374827e-004
,,,-5.45000000e-009,-6.14062320e-004
,,,-5.42500000e-009,-5.21874813e-004
,,,-5.40000000e-009,-4.43749808e-004
,,,-5.37500000e-009,-3.85937304e-004
,,,-5.35000000e-009,-3.56249802e-004
,,,-5.32500000e-009,-3.60937302e-004
,,,-5.30000000e-009,-3.99999805e-004
,,,-5.27500000e-009,-4.73437310e-004
,,,-5.25000000e-009,-5.74999817e-004
,,,-5.22500000e-009,-6.95312326e-004
,,,-5.20000000e-009,-8.24999835e-004
,,,-5.17500000e-009,-9.49999844e-004
,,,-5.15000000e-009,-1.06093735e-003
,,,-5.12500000e-009,-1.14687486e-003
,,,-5.10000000e-009,-1.19999986e-003
,,,-5.07500000e-009,-1.21249986e-003
,,,-5.05000000e-009,-1.19218736e-003
,,,-5.02500000e-009,-1.14218736e-003
,,,-5.00000000e-009,-1.07343735e-003
,,,-4.97500000e-009,-9.96874847e-004
,,,-4.95000000e-009,-9.18749842e-004
,,,-4.92500000e-009,-8.51562337e-004
,,,-4.90000000e-009,-7.99999833e-004
,,,-4.87500000e-009,-7.67187331e-004
,,,-4.85000000e-009,-7.54687330e-004
,,,-4.82500000e-009,-7.60937330e-004
,,,-4.80000000e-009,-7.76562331e-004
,,,-4.77500000e-009,-7.96874833e-004
,,,-4.75000000e-009,-8.10937334e-004
,,,-4.72500000e-009,-8.14062334e-004
,,,-4.70000000e-009,-7.99999833e-004
,,,-4.67500000e-009,-7.64062331e-004
,,,-4.65000000e-009,-7.09374827e-004
,,,-4.62500000e-009,-6.42187322e-004
,,,-4.60000000e-009,-5.70312317e-004
,,,-4.57500000e-009,-5.01562312e-004
,,,-4.55000000e-009,-4.46874808e-004
,,,-4.52500000e-009,-4.10937306e-004
,,,-4.50000000e-009,-3.99999805e-004
,,,-4.47500000e-009,-4.18749806e-004
,,,-4.45000000e-009,-4.62499809e-004
,,,-4.42500000e-009,-5.23437314e-004
,,,-4.40000000e-009,-5.93749819e-004
,,,-4.37500000e-009,-6.65624824e-004
,,,-4.35000000e-009,-7.29687328e-004
,,,-4.32500000e-009,-7.76562331e-004
,,,-4.30000000e-009,-7.99999833e-004
,,,-4.27500000e-009,-7.93749833e-004
,,,-4.25000000e-009,-7.60937330e-004
,,,-4.22500000e-009,-7.06249826e-004
,,,-4.20000000e-009,-6.40624822e-004
,,,-4.17500000e-009,-5.68749817e-004
,,,-4.15000000e-009,-4.99999812e-004
,,,-4.12500000e-009,-4.42187308e-004
,,,-4.10000000e-009,-3.99999805e-004
,,,-4.07500000e-009,-3.79687303e-004
,,,-4.05000000e-009,-3.74999803e-004
,,,-4.02500000e-009,-3.84374804e-004
,,,-4.00000000e-009,-4.01562305e-004
,,,-3.97500000e-009,-4.17187306e-004
,,,-3.95000000e-009,-4.26562307e-004
,,,-3.92500000e-009,-4.21874806e-004
,,,-3.90000000e-009,-3.99999805e-004
,,,-3.87500000e-009,-3.65624802e-004
,,,-3.85000000e-009,-3.14062299e-004
,,,-3.82500000e-009,-2.49999794e-004
,,,-3.80000000e-009,-1.81249789e-004
,,,-3.77500000e-009,-1.15624785e-004
,,,-3.75000000e-009,-5.93747807e-005
,,,-3.72500000e-009,-1.87497778e-005
,,,-3.70000000e-009,2.23517420e-010
,,,-3.67500000e-009,-1.40622775e-005
,,,-3.65000000e-009,-4.84372799e-005
,,,-3.62500000e-009,-1.03124784e-004
,,,-3.60000000e-009,-1.68749788e-004
,,,-3.57500000e-009,-2.39062293e-004
,,,-3.55000000e-009,-3.06249798e-004
,,,-3.52500000e-009,-3.62499802e-004
,,,-3.50000000e-009,-3.99999805e-004
,,,-3.47500000e-009,-4.20312306e-004
,,,-3.45000000e-009,-4.15624806e-004
,,,-3.42500000e-009,-3.85937304e-004
,,,-3.40000000e-009,-3.34374800e-004
,,,-3.37500000e-009,-2.64062295e-004
,,,-3.35000000e-009,-1.81249789e-004
,,,-3.32500000e-009,-9.06247829e-005
,,,-3.30000000e-009,2.23517420e-010
,,,-3.27500000e-009,7.18752286e-005
,,,-3.25000000e-009,1.29687733e-004
,,,-3.22500000e-009,1.68750235e-004
,,,-3.20000000e-009,1.82812736e-004
,,,-3.17500000e-009,1.73437736e-004
,,,-3.15000000e-009,1.39062733e-004
,,,-3.12500000e-009,7.96877292e-005
,,,-3.10000000e-009,2.23517420e-010
,,,-3.07500000e-009,-1.06249784e-004
,,,-3.05000000e-009,-2.23437292e-004
,,,-3.02500000e-009,-3.45312301e-004
,,,-3.00000000e-009,-4.64062309e-004
,,,-2.97500000e-009,-5.73437317e-004
,,,-2.95000000e-009,-6.70312324e-004
,,,-2.92500000e-009,-7.45312329e-004
,,,-2.90000000e-009,-7.99999833e-004
,,,-2.87500000e-009,-8.35937336e-004
,,,-2.85000000e-009,-8.51562337e-004
,,,-2.82500000e-009,-8.51562337e-004
,,,-2.80000000e-009,-8.40624836e-004
,,,-2.77500000e-009,-8.23437335e-004
,,,-2.75000000e-009,-8.09374834e-004
,,,-2.72500000e-009,-7.99999833e-004
,,,-2.70000000e-009,-7.99999833e-004
,,,-2.67500000e-009,-8.12499834e-004
,,,-2.65000000e-009,-8.40624836e-004
,,,-2.62500000e-009,-8.82812339e-004
,,,-2.60000000e-009,-9.37499843e-004
,,,-2.57500000e-009,-1.00156235e-003
,,,-2.55000000e-009,-1.07031235e-003
,,,-2.52500000e-009,-1.13749986e-003
,,,-2.50000000e-009,-1.19999986e-003
,,,-2.47500000e-009,-1.24687486e-003
,,,-2.45000000e-009,-1.27812487e-003
,,,-2.42500000e-009,-1.29687487e-003
,,,-2.40000000e-009,-1.29999987e-003
,,,-2.37500000e-009,-1.28906237e-003
,,,-2.35000000e-009,-1.26718737e-003
,,,-2.32500000e-009,-1.23593736e-003
,,,-2.30000000e-009,-1.19999986e-003
,,,-2.27500000e-009,-1.15624986e-003
,,,-2.25000000e-009,-1.11718736e-003
,,,-2.22500000e-009,-1.08906235e-003
,,,-2.20000000e-009,-1.07499985e-003
,,,-2.17500000e-009,-1.07968735e-003
,,,-2.15000000e-009,-1.10156235e-003
,,,-2.12500000e-009,-1.14218736e-003
,,,-2.10000000e-009,-1.19999986e-003
,,,-2.07500000e-009,-1.26718737e-003
,,,-2.05000000e-009,-1.34374987e-003
,,,-2.02500000e-009,-1.42187488e-003
,,,-2.00000000e-009,-1.49374988e-003
,,,-1.97500000e-009,-1.55468739e-003
,,,-1.95000000e-009,-1.59687489e-003
,,,-1.92500000e-009,-1.61249989e-003
,,,-1.90000000e-009,-1.59999989e-003
,,,-1.87500000e-009,-1.55468739e-003
,,,-1.85000000e-009,-1.47968738e-003
,,,-1.82500000e-009,-1.38437487e-003
,,,-1.80000000e-009,-1.27187487e-003
,,,-1.77500000e-009,-1.15156236e-003
,,,-1.75000000e-009,-1.02812485e-003
,,,-1.72500000e-009,-9.09374841e-004
,,,-1.70000000e-009,-7.99999833e-004
,,,-1.67500000e-009,-7.15624827e-004
,,,-1.65000000e-009,-6.49999822e-004
,,,-1.62500000e-009,-5.98437319e-004
,,,-1.60000000e-009,-5.56249816e-004
,,,-1.57500000e-009,-5.20312313e-004
,,,-1.55000000e-009,-4.84374811e-004
,,,-1.52500000e-009,-4.45312308e-004
,,,-1.50000000e-009,-3.99999805e-004
,,,-1.47500000e-009,-3.78124803e-004
,,,-1.45000000e-009,-3.54687302e-004
,,,-1.42500000e-009,-3.34374800e-004
,,,-1.40000000e-009,-3.20312299e-004
,,,-1.37500000e-009,-3.17187299e-004
,,,-1.35000000e-009,-3.26562300e-004
,,,-1.32500000e-009,-3.54687302e-004
,,,-1.30000000e-009,-3.99999805e-004
,,,-1.27500000e-009,-5.09374813e-004
,,,-1.25000000e-009,-6.37499822e-004
,,,-1.22500000e-009,-7.73437331e-004
,,,-1.20000000e-009,-9.07812341e-004
,,,-1.17500000e-009,-1.02656235e-003
,,,-1.15000000e-009,-1.11874986e-003
,,,-1.12500000e-009,-1.17812486e-003
,,,-1.10000000e-009,-1.19999986e-003
,,,-1.07500000e-009,-1.24531236e-003
,,,-1.05000000e-009,-1.26562487e-003
,,,-1.02500000e-009,-1.26718737e-003
,,,-1.00000000e-009,-1.25312487e-003
,,,-9.75000000e-010,-1.23124986e-003
,,,-9.50000000e-010,-1.20937486e-003
,,,-9.25000000e-010,-1.19531236e-003
,,,-9.00000000e-010,-1.19999986e-003
,,,-8.75000000e-010,-1.31406237e-003
,,,-8.50000000e-010,-1.46718738e-003
,,,-8.25000000e-010,-1.65624989e-003
,,,-8.00000000e-010,-1.87031241e-003
,,,-7.75000000e-010,-2.10156243e-003
,,,-7.50000000e-010,-2.33906244e-003
,,,-7.25000000e-010,-2.57343746e-003
,,,-7.00000000e-010,-2.79999997e-003
,,,-6.75000000e-010,-3.09218750e-003
,,,-6.50000000e-010,-3.38906252e-003
,,,-6.25000000e-010,-3.68593754e-003
,,,-6.00000000e-010,-3.98437506e-003
,,,-5.75000000e-010,-4.28281258e-003
,,,-5.50000000e-010,-4.58125010e-003
,,,-5.25000000e-010,-4.88593762e-003
,,,-5.00000000e-010,-5.20000014e-003
,,,-4.75000000e-010,-5.57812517e-003
,,,-4.50000000e-010,-5.98593770e-003
,,,-4.25000000e-010,-6.41875023e-003
,,,-4.00000000e-010,-6.87500026e-003
,,,-3.75000000e-010,-7.34531280e-003
,,,-3.50000000e-010,-7.82656283e-003
,,,-3.25000000e-010,-8.31250036e-003
,,,-3.00000000e-010,-8.80000040e-003
,,,-2.75000000e-010,-9.29531293e-003
,,,-2.50000000e-010,-9.80312547e-003
,,,-2.25000000e-010,-1.03265630e-002
,,,-2.00000000e-010,-1.08671880e-002
,,,-1.75000000e-010,-1.14265631e-002
,,,-1.50000000e-010,-1.20015631e-002
,,,-1.25000000e-010,-1.25953132e-002
,,,-1.00000000e-010,-1.32000007e-002
,,,-7.50000000e-011,-1.37656258e-002
,,,-5.00000000e-011,-1.43390633e-002
,,,-2.50000000e-011,-1.49171883e-002
,,,0.00000000e+000,-1.54921884e-002
,,,2.50000000e-011,-1.60578134e-002
,,,5.00000000e-011,-1.66046885e-002
,,,7.50000000e-011,-1.71218760e-002
,,,1.00000000e-010,-1.76000010e-002
,,,1.25000000e-010,-1.79312510e-002
,,,1.50000000e-010,-1.82250011e-002
,,,1.75000000e-010,-1.84906261e-002
,,,2.00000000e-010,-1.87375011e-002
,,,2.25000000e-010,-1.89687511e-002
,,,2.50000000e-010,-1.91890636e-002
,,,2.75000000e-010,-1.94000011e-002
,,,3.00000000e-010,-1.96000012e-002
,,,3.25000000e-010,-1.96562512e-002
,,,3.50000000e-010,-1.97015637e-002
,,,3.75000000e-010,-1.97375012e-002
,,,4.00000000e-010,-1.97625012e-002
,,,4.25000000e-010,-1.97687512e-002
,,,4.50000000e-010,-1.97500012e-002
,,,4.75000000e-010,-1.96968762e-002
,,,5.00000000e-010,-1.96000012e-002
,,,5.25000000e-010,-1.93265636e-002
,,,5.50000000e-010,-1.90140636e-002
,,,5.75000000e-010,-1.86703136e-002
,,,6.00000000e-010,-1.83062511e-002
,,,6.25000000e-010,-1.79328135e-002
,,,6.50000000e-010,-1.75531260e-002
,,,6.75000000e-010,-1.71765635e-002
,,,7.00000000e-010,-1.68000010e-002
,,,7.25000000e-010,-1.63359384e-002
,,,7.50000000e-010,-1.58781259e-002
,,,7.75000000e-010,-1.54296884e-002
,,,8.00000000e-010,-1.49875008e-002
,,,8.25000000e-010,-1.45484383e-002
,,,8.50000000e-010,-1.41078133e-002
,,,8.75000000e-010,-1.36593757e-002
,,,9.00000000e-010,-1.32000007e-002
,,,9.25000000e-010,-1.26875007e-002
,,,9.50000000e-010,-1.21640631e-002
,,,9.75000000e-010,-1.16359381e-002
,,,1.00000000e-009,-1.11109381e-002
,,,1.02500000e-009,-1.05968755e-002
,,,1.05000000e-009,-1.01031255e-002
,,,1.07500000e-009,-9.63750046e-003
,,,1.10000000e-009,-9.20000043e-003
,,,1.12500000e-009,-8.80312540e-003
,,,1.15000000e-009,-8.42656287e-003
,,,1.17500000e-009,-8.06718785e-003
,,,1.20000000e-009,-7.72031282e-003
,,,1.22500000e-009,-7.38437530e-003
,,,1.25000000e-009,-7.05468778e-003
,,,1.27500000e-009,-6.72812525e-003
,,,1.30000000e-009,-6.40000023e-003
,,,1.32500000e-009,-6.10937521e-003
,,,1.35000000e-009,-5.80312519e-003
,,,1.37500000e-009,-5.48437516e-003
,,,1.40000000e-009,-5.16093764e-003
,,,1.42500000e-009,-4.83906262e-003
,,,1.45000000e-009,-4.53125010e-003
,,,1.47500000e-009,-4.24843758e-003
,,,1.50000000e-009,-4.00000006e-003
,,,1.52500000e-009,-3.85000005e-003
,,,1.55000000e-009,-3.72812504e-003
,,,1.57500000e-009,-3.63593753e-003
,,,1.60000000e-009,-3.57187503e-003
,,,1.62500000e-009,-3.53750003e-003
,,,1.65000000e-009,-3.53125003e-003
,,,1.67500000e-009,-3.55312503e-003
,,,1.70000000e-009,-3.60000003e-003
,,,1.72500000e-009,-3.71250004e-003
,,,1.75000000e-009,-3.81875005e-003
,,,1.77500000e-009,-3.90781255e-003
,,,1.80000000e-009,-3.97656256e-003
,,,1.82500000e-009,-4.02187506e-003
,,,1.85000000e-009,-4.04062506e-003
,,,1.87500000e-009,-4.03281256e-003
,,,1.90000000e-009,-4.00000006e-003
,,,1.92500000e-009,-3.97031256e-003
,,,1.95000000e-009,-3.90781255e-003
,,,1.97500000e-009,-3.81562505e-003
,,,2.00000000e-009,-3.70312504e-003
,,,2.02500000e-009,-3.57656253e-003
,,,2.05000000e-009,-3.44531252e-003
,,,2.07500000e-009,-3.31718751e-003
,,,2.10000000e-009,-3.20000000e-003
,,,2.12500000e-009,-3.11718750e-003
,,,2.15000000e-009,-3.04374999e-003
,,,2.17500000e-009,-2.98281249e-003
,,,2.20000000e-009,-2.93124998e-003
,,,2.22500000e-009,-2.88749998e-003
,,,2.25000000e-009,-2.85312498e-003
,,,2.27500000e-009,-2.82343748e-003
,,,2.30000000e-009,-2.79999997e-003
,,,2.32500000e-009,-2.78906247e-003
,,,2.35000000e-009,-2.77656247e-003
,,,2.37500000e-009,-2.76406247e-003
,,,2.40000000e-009,-2.75468747e-003
,,,2.42500000e-009,-2.75156247e-003
,,,2.45000000e-009,-2.75781247e-003
,,,2.47500000e-009,-2.77343747e-003
,,,2.50000000e-009,-2.79999997e-003
,,,2.52500000e-009,-2.83281248e-003
,,,2.55000000e-009,-2.86562498e-003
,,,2.57500000e-009,-2.89374998e-003
,,,2.60000000e-009,-2.91406248e-003
,,,2.62500000e-009,-2.91718748e-003
,,,2.65000000e-009,-2.90156248e-003
,,,2.67500000e-009,-2.86406248e-003
,,,2.70000000e-009,-2.79999997e-003
,,,2.72500000e-009,-2.71093747e-003
,,,2.75000000e-009,-2.60156246e-003
,,,2.77500000e-009,-2.48124995e-003
,,,2.80000000e-009,-2.35781244e-003
,,,2.82500000e-009,-2.24062494e-003
,,,2.85000000e-009,-2.13749993e-003
,,,2.87500000e-009,-2.05624992e-003
,,,2.90000000e-009,-1.99999992e-003
,,,2.92500000e-009,-1.97499992e-003
,,,2.95000000e-009,-1.97031242e-003
,,,2.97500000e-009,-1.98124992e-003
,,,3.00000000e-009,-1.99999992e-003
,,,3.02500000e-009,-2.02031242e-003
,,,3.05000000e-009,-2.03124992e-003
,,,3.07500000e-009,-2.02656242e-003
,,,3.10000000e-009,-1.99999992e-003
,,,3.12500000e-009,-1.94687491e-003
,,,3.15000000e-009,-1.86874991e-003
,,,3.17500000e-009,-1.76718740e-003
,,,3.20000000e-009,-1.64999989e-003
,,,3.22500000e-009,-1.52656238e-003
,,,3.25000000e-009,-1.40468738e-003
,,,3.27500000e-009,-1.29374987e-003
,,,3.30000000e-009,-1.19999986e-003
,,,3.32500000e-009,-1.13281236e-003
,,,3.35000000e-009,-1.09062485e-003
,,,3.37500000e-009,-1.07031235e-003
,,,3.40000000e-009,-1.07343735e-003
,,,3.42500000e-009,-1.09218735e-003
,,,3.45000000e-009,-1.12343736e-003
,,,3.47500000e-009,-1.16093736e-003
,,,3.50000000e-009,-1.19999986e-003
,,,3.52500000e-009,-1.24062486e-003
,,,3.55000000e-009,-1.27031237e-003
,,,3.57500000e-009,-1.28906237e-003
,,,3.60000000e-009,-1.29218737e-003
,,,3.62500000e-009,-1.28437487e-003
,,,3.65000000e-009,-1.26562487e-003
,,,3.67500000e-009,-1.23749986e-003
,,,3.70000000e-009,-1.19999986e-003
,,,3.72500000e-009,-1.16406236e-003
,,,3.75000000e-009,-1.12031236e-003
,,,3.77500000e-009,-1.07343735e-003
,,,3.80000000e-009,-1.02343735e-003
,,,3.82500000e-009,-9.70312345e-004
,,,3.85000000e-009,-9.14062341e-004
,,,3.87500000e-009,-8.57812337e-004
,,,3.90000000e-009,-7.99999833e-004
,,,3.92500000e-009,-7.49999830e-004
,,,3.95000000e-009,-6.99999826e-004
,,,3.97500000e-009,-6.48437322e-004
,,,4.00000000e-009,-5.96874819e-004
,,,4.02500000e-009,-5.46874815e-004
,,,4.05000000e-009,-4.95312312e-004
,,,4.07500000e-009,-4.46874808e-004
,,,4.10000000e-009,-3.99999805e-004
,,,4.12500000e-009,-3.68749803e-004
,,,4.15000000e-009,-3.42187301e-004
,,,4.17500000e-009,-3.23437299e-004
,,,4.20000000e-009,-3.14062299e-004
,,,4.22500000e-009,-3.15624799e-004
,,,4.25000000e-009,-3.31249800e-004
,,,4.27500000e-009,-3.59374802e-004
,,,4.30000000e-009,-3.99999805e-004
,,,4.32500000e-009,-4.57812309e-004
,,,4.35000000e-009,-5.20312313e-004
,,,4.37500000e-009,-5.85937318e-004
,,,4.40000000e-009,-6.48437322e-004
,,,4.42500000e-009,-7.04687326e-004
,,,4.45000000e-009,-7.49999830e-004
,,,4.47500000e-009,-7.82812332e-004
,,,4.50000000e-009,-7.99999833e-004
,,,4.52500000e-009,-8.04687333e-004
,,,4.55000000e-009,-7.98437333e-004
,,,4.57500000e-009,-7.84374832e-004
,,,4.60000000e-009,-7.68749831e-004
,,,4.62500000e-009,-7.57812330e-004
,,,4.65000000e-009,-7.56249830e-004
,,,4.67500000e-009,-7.70312331e-004
,,,4.70000000e-009,-7.99999833e-004
,,,4.72500000e-009,-8.46874836e-004
,,,4.75000000e-009,-9.06249841e-004
,,,4.77500000e-009,-9.71874845e-004
,,,4.80000000e-009,-1.03906235e-003
,,,4.82500000e-009,-1.10312485e-003
,,,4.85000000e-009,-1.15312486e-003
,,,4.87500000e-009,-1.18749986e-003
,,,4.90000000e-009,-1.19999986e-003
,,,4.92500000e-009,-1.18437486e-003
,,,4.95000000e-009,-1.14531236e-003
,,,4.97500000e-009,-1.09062485e-003
,,,5.00000000e-009,-1.02656235e-003
,,,5.02500000e-009,-9.57812344e-004
,,,5.05000000e-009,-8.93749840e-004
,,,5.07500000e-009,-8.40624836e-004
,,,5.10000000e-009,-7.99999833e-004
,,,5.12500000e-009,-7.73437331e-004
,,,5.15000000e-009,-7.62499830e-004
,,,5.17500000e-009,-7.65624831e-004
,,,5.20000000e-009,-7.78124832e-004
,,,5.22500000e-009,-7.93749833e-004
,,,5.25000000e-009,-8.06249834e-004
,,,5.27500000e-009,-8.09374834e-004
,,,5.30000000e-009,-7.99999833e-004
,,,5.32500000e-009,-7.71874831e-004
,,,5.35000000e-009,-7.26562328e-004
,,,5.37500000e-009,-6.71874824e-004
,,,5.40000000e-009,-6.09374820e-004
,,,5.42500000e-009,-5.45312315e-004
,,,5.45000000e-009,-4.85937311e-004
,,,5.47500000e-009,-4.37499807e-004
,,,5.50000000e-009,-3.99999805e-004
,,,5.52500000e-009,-3.81249803e-004
,,,5.55000000e-009,-3.74999803e-004
,,,5.57500000e-009,-3.81249803e-004
,,,5.60000000e-009,-3.92187304e-004
,,,5.62500000e-009,-4.04687305e-004
,,,5.65000000e-009,-4.14062306e-004
,,,5.67500000e-009,-4.14062306e-004
,,,5.70000000e-009,-3.99999805e-004
,,,5.72500000e-009,-3.74999803e-004
,,,5.75000000e-009,-3.34374800e-004
,,,5.77500000e-009,-2.82812297e-004
,,,5.80000000e-009,-2.23437292e-004
,,,5.82500000e-009,-1.59374788e-004
