RawData/CosmicRays/L6_2pt2C_15mV/wave006_Ch3.csv

"Record Length",1000,"Points",-7.72500000e-009,-7.78124832e-004
"Sample Interval",2.50000000e-011,s,-7.70000000e-009,-7.32812328e-004
"Trigger Point",309,"Samples",-7.67500000e-009,-6.71874824e-004
"Trigger Time",7.39037037e-012,s,-7.65000000e-009,-6.03124819e-004
"",,,-7.62500000e-009,-5.29687314e-004
"Horizontal Offset",-7.72500000e-009,s,-7.60000000e-009,-4.60937309e-004
,,,-7.57500000e-009,-3.99999805e-004
,,,-7.55000000e-009,-3.57812302e-004
,,,-7.52500000e-009,-3.29687300e-004
,,,-7.50000000e-009,-3.17187299e-004
,,,-7.47500000e-009,-3.20312299e-004
,,,-7.45000000e-009,-3.34374800e-004
,,,-7.42500000e-009,-3.54687302e-004
,,,-7.40000000e-009,-3.78124803e-004
,,,-7.37500000e-009,-3.99999805e-004
,,,-7.35000000e-009,-4.23437306e-004
,,,-7.32500000e-009,-4.39062308e-004
,,,-7.30000000e-009,-4.46874808e-004
,,,-7.27500000e-009,-4.46874808e-004
,,,-7.25000000e-009,-4.40624808e-004
,,,-7.22500000e-009,-4.29687307e-004
,,,-7.20000000e-009,-4.15624806e-004
,,,-7.17500000e-009,-3.99999805e-004
,,,-7.15000000e-009,-3.89062304e-004
,,,-7.12500000e-009,-3.78124803e-004
,,,-7.10000000e-009,-3.71874803e-004
,,,-7.07500000e-009,-3.70312303e-004
,,,-7.05000000e-009,-3.71874803e-004
,,,-7.02500000e-009,-3.78124803e-004
,,,-7.00000000e-009,-3.89062304e-004
,,,-6.97500000e-009,-3.99999805e-004
,,,-6.95000000e-009,-4.14062306e-004
,,,-6.92500000e-009,-4.26562307e-004
,,,-6.90000000e-009,-4.35937307e-004
,,,-6.87500000e-009,-4.40624808e-004
,,,-6.85000000e-009,-4.39062308e-004
,,,-6.82500000e-009,-4.32812307e-004
,,,-6.80000000e-009,-4.18749806e-004
,,,-6.77500000e-009,-3.99999805e-004
,,,-6.75000000e-009,-3.82812304e-004
,,,-6.72500000e-009,-3.64062302e-004
,,,-6.70000000e-009,-3.46874801e-004
,,,-6.67500000e-009,-3.35937300e-004
,,,-6.65000000e-009,-3.32812300e-004
,,,-6.62500000e-009,-3.42187301e-004
,,,-6.60000000e-009,-3.65624802e-004
,,,-6.57500000e-009,-3.99999805e-004
,,,-6.55000000e-009,-4.48437308e-004
,,,-6.52500000e-009,-5.06249812e-004
,,,-6.50000000e-009,-5.68749817e-004
,,,-6.47500000e-009,-6.32812321e-004
,,,-6.45000000e-009,-6.92187325e-004
,,,-6.42500000e-009,-7.43749829e-004
,,,-6.40000000e-009,-7.81249832e-004
,,,-6.37500000e-009,-7.99999833e-004
,,,-6.35000000e-009,-7.99999833e-004
,,,-6.32500000e-009,-7.79687332e-004
,,,-6.30000000e-009,-7.42187329e-004
,,,-6.27500000e-009,-6.87499825e-004
,,,-6.25000000e-009,-6.21874820e-004
,,,-6.22500000e-009,-5.48437315e-004
,,,-6.20000000e-009,-4.73437310e-004
,,,-6.17500000e-009,-3.99999805e-004
,,,-6.15000000e-009,-3.35937300e-004
,,,-6.12500000e-009,-2.85937297e-004
,,,-6.10000000e-009,-2.54687295e-004
,,,-6.07500000e-009,-2.42187294e-004
,,,-6.05000000e-009,-2.51562294e-004
,,,-6.02500000e-009,-2.82812297e-004
,,,-6.00000000e-009,-3.32812300e-004
,,,-5.97500000e-009,-3.99999805e-004
,,,-5.95000000e-009,-4.78124810e-004
,,,-5.92500000e-009,-5.57812316e-004
,,,-5.90000000e-009,-6.37499822e-004
,,,-5.87500000e-009,-7.06249826e-004
,,,-5.85000000e-009,-7.62499830e-004
,,,-5.82500000e-009,-7.98437333e-004
,,,-5.80000000e-009,-8.10937334e-004
,,,-5.77500000e-009,-7.99999833e-004
,,,-5.75000000e-009,-7.62499830e-004
,,,-5.72500000e-009,-7.07812327e-004
,,,-5.70000000e-009,-6.40624822e-004
,,,-5.67500000e-009,-5.70312317e-004
,,,-5.65000000e-009,-5.03124812e-004
,,,-5.62500000e-009,-4.49999808e-004
,,,-5.60000000e-009,-4.14062306e-004
,,,-5.57500000e-009,-3.99999805e-004
,,,-5.55000000e-009,-4.10937306e-004
,,,-5.52500000e-009,-4.43749808e-004
,,,-5.50000000e-009,-4.95312312e-004
,,,-5.47500000e-009,-5.59374816e-004
,,,-5.45000000e-009,-6.29687321e-004
,,,-5.42500000e-009,-6.98437326e-004
,,,-5.40000000e-009,-7.57812330e-004
,,,-5.37500000e-009,-7.99999833e-004
,,,-5.35000000e-009,-8.20312335e-004
,,,-5.32500000e-009,-8.15624834e-004
,,,-5.30000000e-009,-7.85937332e-004
,,,-5.27500000e-009,-7.35937329e-004
,,,-5.25000000e-009,-6.65624824e-004
,,,-5.22500000e-009,-5.84374818e-004
,,,-5.20000000e-009,-4.93749811e-004
,,,-5.17500000e-009,-3.99999805e-004
,,,-5.15000000e-009,-3.09374798e-004
,,,-5.12500000e-009,-2.26562293e-004
,,,-5.10000000e-009,-1.56249788e-004
,,,-5.07500000e-009,-9.84372835e-005
,,,-5.05000000e-009,-5.46872804e-005
,,,-5.02500000e-009,-2.49997783e-005
,,,-5.00000000e-009,-7.81227704e-006
,,,-4.97500000e-009,2.23517420e-010
,,,-4.95000000e-009,-7.81227704e-006
,,,-4.92500000e-009,-1.87497778e-005
,,,-4.90000000e-009,-2.96872786e-005
,,,-4.87500000e-009,-3.90622792e-005
,,,-4.85000000e-009,-4.21872795e-005
,,,-4.82500000e-009,-3.59372790e-005
,,,-4.80000000e-009,-2.34372781e-005
,,,-4.77500000e-009,2.23517420e-010
,,,-4.75000000e-009,1.87502248e-005
,,,-4.72500000e-009,3.90627263e-005
,,,-4.70000000e-009,5.93752277e-005
,,,-4.67500000e-009,7.18752286e-005
,,,-4.65000000e-009,7.65627289e-005
,,,-4.62500000e-009,6.71877283e-005
,,,-4.60000000e-009,4.06252264e-005
,,,-4.57500000e-009,2.23517420e-010
,,,-4.55000000e-009,-6.40622810e-005
,,,-4.52500000e-009,-1.37499786e-004
,,,-4.50000000e-009,-2.14062292e-004
,,,-4.47500000e-009,-2.85937297e-004
,,,-4.45000000e-009,-3.46874801e-004
,,,-4.42500000e-009,-3.89062304e-004
,,,-4.40000000e-009,-4.07812305e-004
,,,-4.37500000e-009,-3.99999805e-004
,,,-4.35000000e-009,-3.70312303e-004
,,,-4.32500000e-009,-3.18749799e-004
,,,-4.30000000e-009,-2.51562294e-004
,,,-4.27500000e-009,-1.76562289e-004
,,,-4.25000000e-009,-1.06249784e-004
,,,-4.22500000e-009,-4.68747798e-005
,,,-4.20000000e-009,-9.37477715e-006
,,,-4.17500000e-009,2.23517420e-010
,,,-4.15000000e-009,-2.96872786e-005
,,,-4.12500000e-009,-8.90622828e-005
,,,-4.10000000e-009,-1.78124789e-004
,,,-4.07500000e-009,-2.89062297e-004
,,,-4.05000000e-009,-4.15624806e-004
,,,-4.02500000e-009,-5.48437315e-004
,,,-4.00000000e-009,-6.79687325e-004
,,,-3.97500000e-009,-7.99999833e-004
,,,-3.95000000e-009,-9.04687341e-004
,,,-3.92500000e-009,-9.89062346e-004
,,,-3.90000000e-009,-1.05468735e-003
,,,-3.87500000e-009,-1.10468735e-003
,,,-3.85000000e-009,-1.14062486e-003
,,,-3.82500000e-009,-1.16562486e-003
,,,-3.80000000e-009,-1.18437486e-003
,,,-3.77500000e-009,-1.19999986e-003
,,,-3.75000000e-009,-1.20624986e-003
,,,-3.72500000e-009,-1.21249986e-003
,,,-3.70000000e-009,-1.22031236e-003
,,,-3.67500000e-009,-1.22656236e-003
,,,-3.65000000e-009,-1.22968736e-003
,,,-3.62500000e-009,-1.22812486e-003
,,,-3.60000000e-009,-1.21874986e-003
,,,-3.57500000e-009,-1.19999986e-003
,,,-3.55000000e-009,-1.16249986e-003
,,,-3.52500000e-009,-1.11406236e-003
,,,-3.50000000e-009,-1.05937485e-003
,,,-3.47500000e-009,-1.00156235e-003
,,,-3.45000000e-009,-9.43749843e-004
,,,-3.42500000e-009,-8.89062339e-004
,,,-3.40000000e-009,-8.40624836e-004
,,,-3.37500000e-009,-7.99999833e-004
,,,-3.35000000e-009,-7.71874831e-004
,,,-3.32500000e-009,-7.54687330e-004
,,,-3.30000000e-009,-7.49999830e-004
,,,-3.27500000e-009,-7.53124830e-004
,,,-3.25000000e-009,-7.62499830e-004
,,,-3.22500000e-009,-7.74999831e-004
,,,-3.20000000e-009,-7.89062332e-004
,,,-3.17500000e-009,-7.99999833e-004
,,,-3.15000000e-009,-8.04687333e-004
,,,-3.12500000e-009,-8.06249834e-004
,,,-3.10000000e-009,-8.04687333e-004
,,,-3.07500000e-009,-8.03124833e-004
,,,-3.05000000e-009,-8.01562333e-004
,,,-3.02500000e-009,-7.99999833e-004
,,,-3.00000000e-009,-7.99999833e-004
,,,-2.97500000e-009,-7.99999833e-004
,,,-2.95000000e-009,-7.98437333e-004
,,,-2.92500000e-009,-7.89062332e-004
,,,-2.90000000e-009,-7.70312331e-004
,,,-2.87500000e-009,-7.35937329e-004
,,,-2.85000000e-009,-6.82812325e-004
,,,-2.82500000e-009,-6.09374820e-004
,,,-2.80000000e-009,-5.14062313e-004
,,,-2.77500000e-009,-3.99999805e-004
,,,-2.75000000e-009,-2.84374797e-004
,,,-2.72500000e-009,-1.65624788e-004
,,,-2.70000000e-009,-5.62497805e-005
,,,-2.67500000e-009,3.28127258e-005
,,,-2.65000000e-009,9.06252299e-005
,,,-2.62500000e-009,1.07812731e-004
,,,-2.60000000e-009,7.81252290e-005
,,,-2.57500000e-009,2.23517420e-010
,,,-2.55000000e-009,-1.32812286e-004
,,,-2.52500000e-009,-2.99999798e-004
,,,-2.50000000e-009,-4.87499811e-004
,,,-2.47500000e-009,-6.81249825e-004
,,,-2.45000000e-009,-8.64062338e-004
,,,-2.42500000e-009,-1.02031235e-003
,,,-2.40000000e-009,-1.13593736e-003
,,,-2.37500000e-009,-1.19999986e-003
,,,-2.35000000e-009,-1.20468736e-003
,,,-2.32500000e-009,-1.15312486e-003
,,,-2.30000000e-009,-1.05937485e-003
,,,-2.27500000e-009,-9.31249842e-004
,,,-2.25000000e-009,-7.85937332e-004
,,,-2.22500000e-009,-6.39062322e-004
,,,-2.20000000e-009,-5.06249812e-004
,,,-2.17500000e-009,-3.99999805e-004
,,,-2.15000000e-009,-3.34374800e-004
,,,-2.12500000e-009,-3.10937298e-004
,,,-2.10000000e-009,-3.28124800e-004
,,,-2.07500000e-009,-3.82812304e-004
,,,-2.05000000e-009,-4.67187310e-004
,,,-2.02500000e-009,-5.71874817e-004
,,,-2.00000000e-009,-6.85937325e-004
,,,-1.97500000e-009,-7.99999833e-004
,,,-1.95000000e-009,-9.06249841e-004
,,,-1.92500000e-009,-9.98437347e-004
,,,-1.90000000e-009,-1.07187485e-003
,,,-1.87500000e-009,-1.12656236e-003
,,,-1.85000000e-009,-1.16562486e-003
,,,-1.82500000e-009,-1.18906236e-003
,,,-1.80000000e-009,-1.19999986e-003
,,,-1.77500000e-009,-1.19999986e-003
,,,-1.75000000e-009,-1.18749986e-003
,,,-1.72500000e-009,-1.16718736e-003
,,,-1.70000000e-009,-1.13749986e-003
,,,-1.67500000e-009,-1.09843735e-003
,,,-1.65000000e-009,-1.04687485e-003
,,,-1.62500000e-009,-9.79687346e-004
,,,-1.60000000e-009,-8.98437340e-004
,,,-1.57500000e-009,-7.99999833e-004
,,,-1.55000000e-009,-6.92187325e-004
,,,-1.52500000e-009,-5.74999817e-004
,,,-1.50000000e-009,-4.57812309e-004
,,,-1.47500000e-009,-3.40624801e-004
,,,-1.45000000e-009,-2.32812293e-004
,,,-1.42500000e-009,-1.35937286e-004
,,,-1.40000000e-009,-5.78122806e-005
,,,-1.37500000e-009,2.23517420e-010
,,,-1.35000000e-009,7.81272407e-006
,,,-1.32500000e-009,-9.37477715e-006
,,,-1.30000000e-009,-4.99997800e-005
,,,-1.27500000e-009,-1.07812284e-004
,,,-1.25000000e-009,-1.76562289e-004
,,,-1.22500000e-009,-2.51562294e-004
,,,-1.20000000e-009,-3.28124800e-004
,,,-1.17500000e-009,-3.99999805e-004
,,,-1.15000000e-009,-5.03124812e-004
,,,-1.12500000e-009,-5.99999819e-004
,,,-1.10000000e-009,-6.85937325e-004
,,,-1.07500000e-009,-7.53124830e-004
,,,-1.05000000e-009,-7.99999833e-004
,,,-1.02500000e-009,-8.23437335e-004
,,,-1.00000000e-009,-8.23437335e-004
,,,-9.75000000e-010,-7.99999833e-004
,,,-9.50000000e-010,-8.35937336e-004
,,,-9.25000000e-010,-8.67187338e-004
,,,-9.00000000e-010,-8.92187340e-004
,,,-8.75000000e-010,-9.06249841e-004
,,,-8.50000000e-010,-9.03124840e-004
,,,-8.25000000e-010,-8.84374839e-004
,,,-8.00000000e-010,-8.48437337e-004
,,,-7.75000000e-010,-7.99999833e-004
,,,-7.50000000e-010,-8.70312338e-004
,,,-7.25000000e-010,-9.59374844e-004
,,,-7.00000000e-010,-1.06093735e-003
,,,-6.75000000e-010,-1.17031236e-003
,,,-6.50000000e-010,-1.28124987e-003
,,,-6.25000000e-010,-1.39062487e-003
,,,-6.00000000e-010,-1.49531238e-003
,,,-5.75000000e-010,-1.59999989e-003
,,,-5.50000000e-010,-1.87499991e-003
,,,-5.25000000e-010,-2.17812493e-003
,,,-5.00000000e-010,-2.49999995e-003
,,,-4.75000000e-010,-2.82656248e-003
,,,-4.50000000e-010,-3.14687500e-003
,,,-4.25000000e-010,-3.45000002e-003
,,,-4.00000000e-010,-3.73281254e-003
,,,-3.75000000e-010,-4.00000006e-003
,,,-3.50000000e-010,-4.43281259e-003
,,,-3.25000000e-010,-4.90000012e-003
,,,-3.00000000e-010,-5.40156266e-003
,,,-2.75000000e-010,-5.93593770e-003
,,,-2.50000000e-010,-6.50156274e-003
,,,-2.25000000e-010,-7.10000028e-003
,,,-2.00000000e-010,-7.72968782e-003
,,,-1.75000000e-010,-8.40000037e-003
,,,-1.50000000e-010,-9.25625043e-003
,,,-1.25000000e-010,-1.01828130e-002
,,,-1.00000000e-010,-1.11671881e-002
,,,-7.50000000e-011,-1.21921881e-002
,,,-5.00000000e-011,-1.32406257e-002
,,,-2.50000000e-011,-1.42984383e-002
,,,0.00000000e+000,-1.53531259e-002
,,,2.50000000e-011,-1.64000009e-002
,,,5.00000000e-011,-1.75109385e-002
,,,7.50000000e-011,-1.86453136e-002
,,,1.00000000e-010,-1.98046887e-002
,,,1.25000000e-010,-2.09906263e-002
,,,1.50000000e-010,-2.22031263e-002
,,,1.75000000e-010,-2.34437514e-002
,,,2.00000000e-010,-2.47093765e-002
,,,2.25000000e-010,-2.60000016e-002
,,,2.50000000e-010,-2.72843767e-002
,,,2.75000000e-010,-2.86062518e-002
,,,3.00000000e-010,-2.99531269e-002
,,,3.25000000e-010,-3.13125020e-002
,,,3.50000000e-010,-3.26593771e-002
,,,3.75000000e-010,-3.39703147e-002
,,,4.00000000e-010,-3.52234398e-002
,,,4.25000000e-010,-3.64000024e-002
,,,4.50000000e-010,-3.73593774e-002
,,,4.75000000e-010,-3.82515650e-002
,,,5.00000000e-010,-3.90843775e-002
,,,5.25000000e-010,-3.98578151e-002
,,,5.50000000e-010,-4.05750026e-002
,,,5.75000000e-010,-4.12375027e-002
,,,6.00000000e-010,-4.18453152e-002
,,,6.25000000e-010,-4.24000028e-002
,,,6.50000000e-010,-4.27234403e-002
,,,6.75000000e-010,-4.30375028e-002
,,,7.00000000e-010,-4.33500028e-002
,,,7.25000000e-010,-4.36640654e-002
,,,7.50000000e-010,-4.39765654e-002
,,,7.75000000e-010,-4.42781279e-002
,,,8.00000000e-010,-4.45562529e-002
,,,8.25000000e-010,-4.48000029e-002
,,,8.50000000e-010,-4.47921904e-002
,,,8.75000000e-010,-4.47687529e-002
,,,9.00000000e-010,-4.47359404e-002
,,,9.25000000e-010,-4.46953154e-002
,,,9.50000000e-010,-4.46468779e-002
,,,9.75000000e-010,-4.45843779e-002
,,,1.00000000e-009,-4.45046904e-002
,,,1.02500000e-009,-4.44000029e-002
,,,1.05000000e-009,-4.40734404e-002
,,,1.07500000e-009,-4.37437529e-002
,,,1.10000000e-009,-4.34171903e-002
,,,1.12500000e-009,-4.31046903e-002
,,,1.15000000e-009,-4.28062528e-002
,,,1.17500000e-009,-4.25250028e-002
,,,1.20000000e-009,-4.22562528e-002
,,,1.22500000e-009,-4.20000027e-002
,,,1.25000000e-009,-4.15953152e-002
,,,1.27500000e-009,-4.12093777e-002
,,,1.30000000e-009,-4.08515652e-002
,,,1.32500000e-009,-4.05281276e-002
,,,1.35000000e-009,-4.02437526e-002
,,,1.37500000e-009,-3.99968776e-002
,,,1.40000000e-009,-3.97859401e-002
,,,1.42500000e-009,-3.96000026e-002
,,,1.45000000e-009,-3.93046901e-002
,,,1.47500000e-009,-3.90000025e-002
,,,1.50000000e-009,-3.86843775e-002
,,,1.52500000e-009,-3.83531275e-002
,,,1.55000000e-009,-3.80031275e-002
,,,1.57500000e-009,-3.76312524e-002
,,,1.60000000e-009,-3.72312524e-002
,,,1.62500000e-009,-3.68000024e-002
,,,1.65000000e-009,-3.62421898e-002
,,,1.67500000e-009,-3.56312523e-002
,,,1.70000000e-009,-3.49796898e-002
,,,1.72500000e-009,-3.42984397e-002
,,,1.75000000e-009,-3.36062522e-002
,,,1.77500000e-009,-3.29171896e-002
,,,1.80000000e-009,-3.22453146e-002
,,,1.82500000e-009,-3.16000020e-002
,,,1.85000000e-009,-3.09359395e-002
,,,1.87500000e-009,-3.02828144e-002
,,,1.90000000e-009,-2.96437519e-002
,,,1.92500000e-009,-2.90281268e-002
,,,1.95000000e-009,-2.84328143e-002
,,,1.97500000e-009,-2.78656267e-002
,,,2.00000000e-009,-2.73234392e-002
,,,2.02500000e-009,-2.68000017e-002
,,,2.05000000e-009,-2.62703141e-002
,,,2.07500000e-009,-2.57171891e-002
,,,2.10000000e-009,-2.51390641e-002
,,,2.12500000e-009,-2.45375015e-002
,,,2.15000000e-009,-2.39171890e-002
,,,2.17500000e-009,-2.32843764e-002
,,,2.20000000e-009,-2.26437514e-002
,,,2.22500000e-009,-2.20000013e-002
,,,2.25000000e-009,-2.13671888e-002
,,,2.27500000e-009,-2.07109387e-002
,,,2.30000000e-009,-2.00390637e-002
,,,2.32500000e-009,-1.93609386e-002
,,,2.35000000e-009,-1.86859386e-002
,,,2.37500000e-009,-1.80281261e-002
,,,2.40000000e-009,-1.73968760e-002
,,,2.42500000e-009,-1.68000010e-002
,,,2.45000000e-009,-1.62843759e-002
,,,2.47500000e-009,-1.57812509e-002
,,,2.50000000e-009,-1.52937509e-002
,,,2.52500000e-009,-1.48250008e-002
,,,2.55000000e-009,-1.43781258e-002
,,,2.57500000e-009,-1.39562508e-002
,,,2.60000000e-009,-1.35640632e-002
,,,2.62500000e-009,-1.32000007e-002
,,,2.65000000e-009,-1.29125007e-002
,,,2.67500000e-009,-1.26109382e-002
,,,2.70000000e-009,-1.22906256e-002
,,,2.72500000e-009,-1.19468756e-002
,,,2.75000000e-009,-1.15812506e-002
,,,2.77500000e-009,-1.11984381e-002
,,,2.80000000e-009,-1.08031255e-002
,,,2.82500000e-009,-1.04000005e-002
,,,2.85000000e-009,-1.00515630e-002
,,,2.87500000e-009,-9.68125046e-003
,,,2.90000000e-009,-9.29843793e-003
,,,2.92500000e-009,-8.91406291e-003
,,,2.95000000e-009,-8.53750038e-003
,,,2.97500000e-009,-8.18593786e-003
,,,3.00000000e-009,-7.87187533e-003
,,,3.02500000e-009,-7.60000031e-003
,,,3.05000000e-009,-7.43593780e-003
,,,3.07500000e-009,-7.29687529e-003
,,,3.10000000e-009,-7.17968778e-003
,,,3.12500000e-009,-7.07968778e-003
,,,3.15000000e-009,-6.99531277e-003
,,,3.17500000e-009,-6.92343777e-003
,,,3.20000000e-009,-6.85937526e-003
,,,3.22500000e-009,-6.80000026e-003
,,,3.25000000e-009,-6.78125026e-003
,,,3.27500000e-009,-6.73750025e-003
,,,3.30000000e-009,-6.66406275e-003
,,,3.32500000e-009,-6.56562524e-003
,,,3.35000000e-009,-6.44375023e-003
,,,3.37500000e-009,-6.30468772e-003
,,,3.40000000e-009,-6.15468771e-003
,,,3.42500000e-009,-6.00000020e-003
,,,3.45000000e-009,-5.87187519e-003
,,,3.47500000e-009,-5.72968768e-003
,,,3.50000000e-009,-5.57968767e-003
,,,3.52500000e-009,-5.42343766e-003
,,,3.55000000e-009,-5.26250015e-003
,,,3.57500000e-009,-5.10312514e-003
,,,3.60000000e-009,-4.94843763e-003
,,,3.62500000e-009,-4.80000012e-003
,,,3.65000000e-009,-4.68281261e-003
,,,3.67500000e-009,-4.56406260e-003
,,,3.70000000e-009,-4.44843759e-003
,,,3.72500000e-009,-4.33750008e-003
,,,3.75000000e-009,-4.23437508e-003
,,,3.77500000e-009,-4.14375007e-003
,,,3.80000000e-009,-4.06406256e-003
,,,3.82500000e-009,-4.00000006e-003
,,,3.85000000e-009,-3.96250006e-003
,,,3.87500000e-009,-3.92656255e-003
,,,3.90000000e-009,-3.88906255e-003
,,,3.92500000e-009,-3.84687505e-003
,,,3.95000000e-009,-3.79843755e-003
,,,3.97500000e-009,-3.74218754e-003
,,,4.00000000e-009,-3.67500004e-003
,,,4.02500000e-009,-3.60000003e-003
,,,4.05000000e-009,-3.52343753e-003
,,,4.07500000e-009,-3.43281252e-003
,,,4.10000000e-009,-3.32968751e-003
,,,4.12500000e-009,-3.22187500e-003
,,,4.15000000e-009,-3.10937500e-003
,,,4.17500000e-009,-2.99999999e-003
,,,4.20000000e-009,-2.89531248e-003
,,,4.22500000e-009,-2.79999997e-003
,,,4.25000000e-009,-2.72656247e-003
,,,4.27500000e-009,-2.65937496e-003
,,,4.30000000e-009,-2.60156246e-003
,,,4.32500000e-009,-2.54999996e-003
,,,4.35000000e-009,-2.50468745e-003
,,,4.37500000e-009,-2.46718745e-003
,,,4.40000000e-009,-2.43281245e-003
,,,4.42500000e-009,-2.39999995e-003
,,,4.45000000e-009,-2.37812494e-003
,,,4.47500000e-009,-2.34843744e-003
,,,4.50000000e-009,-2.30937494e-003
,,,4.52500000e-009,-2.26249994e-003
,,,4.55000000e-009,-2.20624993e-003
,,,4.57500000e-009,-2.14218743e-003
,,,4.60000000e-009,-2.07343742e-003
,,,4.62500000e-009,-1.99999992e-003
,,,4.65000000e-009,-1.93749991e-003
,,,4.67500000e-009,-1.87187491e-003
,,,4.70000000e-009,-1.80937490e-003
,,,4.72500000e-009,-1.74999990e-003
,,,4.75000000e-009,-1.69687490e-003
,,,4.77500000e-009,-1.65468739e-003
,,,4.80000000e-009,-1.62187489e-003
,,,4.82500000e-009,-1.59999989e-003
,,,4.85000000e-009,-1.59531239e-003
,,,4.87500000e-009,-1.59687489e-003
,,,4.90000000e-009,-1.60156239e-003
,,,4.92500000e-009,-1.60781239e-003
,,,4.95000000e-009,-1.61249989e-003
,,,4.97500000e-009,-1.61562489e-003
,,,5.00000000e-009,-1.61093739e-003
,,,5.02500000e-009,-1.59999989e-003
,,,5.05000000e-009,-1.58437489e-003
,,,5.07500000e-009,-1.55624989e-003
,,,5.10000000e-009,-1.51562488e-003
,,,5.12500000e-009,-1.46406238e-003
,,,5.15000000e-009,-1.40312488e-003
,,,5.17500000e-009,-1.33593737e-003
,,,5.20000000e-009,-1.26718737e-003
,,,5.22500000e-009,-1.19999986e-003
,,,5.25000000e-009,-1.14531236e-003
,,,5.27500000e-009,-1.10156235e-003
,,,5.30000000e-009,-1.07031235e-003
,,,5.32500000e-009,-1.05624985e-003
,,,5.35000000e-009,-1.06093735e-003
,,,5.37500000e-009,-1.08749985e-003
,,,5.40000000e-009,-1.13437486e-003
,,,5.42500000e-009,-1.19999986e-003
,,,5.45000000e-009,-1.28437487e-003
,,,5.47500000e-009,-1.37343737e-003
,,,5.50000000e-009,-1.45937488e-003
,,,5.52500000e-009,-1.53437489e-003
,,,5.55000000e-009,-1.59062489e-003
,,,5.57500000e-009,-1.62343739e-003
,,,5.60000000e-009,-1.62812489e-003
,,,5.62500000e-009,-1.59999989e-003
,,,5.65000000e-009,-1.54218739e-003
,,,5.67500000e-009,-1.45781238e-003
,,,5.70000000e-009,-1.34999987e-003
,,,5.72500000e-009,-1.23124986e-003
,,,5.75000000e-009,-1.10781235e-003
,,,5.77500000e-009,-9.90624847e-004
,,,5.80000000e-009,-8.85937339e-004
,,,5.82500000e-009,-7.99999833e-004
