RawData/CosmicRays/L6_2pt2C_15mV/wave008_Ch3.csv

"Record Length",1000,"Points",-7.72500000e-009,-8.21874835e-004
"Sample Interval",2.50000000e-011,s,-7.70000000e-009,-8.17187334e-004
"Trigger Point",309,"Samples",-7.67500000e-009,-8.09374834e-004
"Trigger Time",3.18666667e-012,s,-7.65000000e-009,-7.99999833e-004
"",,,-7.62500000e-009,-7.90624832e-004
"Horizontal Offset",-7.72500000e-009,s,-7.60000000e-009,-7.84374832e-004
,,,-7.57500000e-009,-7.79687332e-004
,,,-7.55000000e-009,-7.78124832e-004
,,,-7.52500000e-009,-7.81249832e-004
,,,-7.50000000e-009,-7.85937332e-004
,,,-7.47500000e-009,-7.92187333e-004
,,,-7.45000000e-009,-7.99999833e-004
,,,-7.42500000e-009,-8.07812334e-004
,,,-7.40000000e-009,-8.15624834e-004
,,,-7.37500000e-009,-8.20312335e-004
,,,-7.35000000e-009,-8.24999835e-004
,,,-7.32500000e-009,-8.24999835e-004
,,,-7.30000000e-009,-8.21874835e-004
,,,-7.27500000e-009,-8.12499834e-004
,,,-7.25000000e-009,-7.99999833e-004
,,,-7.22500000e-009,-7.87499832e-004
,,,-7.20000000e-009,-7.73437331e-004
,,,-7.17500000e-009,-7.60937330e-004
,,,-7.15000000e-009,-7.53124830e-004
,,,-7.12500000e-009,-7.51562330e-004
,,,-7.10000000e-009,-7.57812330e-004
,,,-7.07500000e-009,-7.73437331e-004
,,,-7.05000000e-009,-7.99999833e-004
,,,-7.02500000e-009,-8.37499836e-004
,,,-7.00000000e-009,-8.84374839e-004
,,,-6.97500000e-009,-9.37499843e-004
,,,-6.95000000e-009,-9.93749847e-004
,,,-6.92500000e-009,-1.05156235e-003
,,,-6.90000000e-009,-1.10781235e-003
,,,-6.87500000e-009,-1.15781236e-003
,,,-6.85000000e-009,-1.19999986e-003
,,,-6.82500000e-009,-1.23281236e-003
,,,-6.80000000e-009,-1.25312487e-003
,,,-6.77500000e-009,-1.26406237e-003
,,,-6.75000000e-009,-1.26406237e-003
,,,-6.72500000e-009,-1.25624987e-003
,,,-6.70000000e-009,-1.24062486e-003
,,,-6.67500000e-009,-1.22187486e-003
,,,-6.65000000e-009,-1.19999986e-003
,,,-6.62500000e-009,-1.17968736e-003
,,,-6.60000000e-009,-1.16093736e-003
,,,-6.57500000e-009,-1.14843736e-003
,,,-6.55000000e-009,-1.14374986e-003
,,,-6.52500000e-009,-1.14687486e-003
,,,-6.50000000e-009,-1.15937486e-003
,,,-6.47500000e-009,-1.17656236e-003
,,,-6.45000000e-009,-1.19999986e-003
,,,-6.42500000e-009,-1.22499986e-003
,,,-6.40000000e-009,-1.24843736e-003
,,,-6.37500000e-009,-1.26874987e-003
,,,-6.35000000e-009,-1.28124987e-003
,,,-6.32500000e-009,-1.28281237e-003
,,,-6.30000000e-009,-1.27031237e-003
,,,-6.27500000e-009,-1.24218736e-003
,,,-6.25000000e-009,-1.19999986e-003
,,,-6.22500000e-009,-1.14218736e-003
,,,-6.20000000e-009,-1.07656235e-003
,,,-6.17500000e-009,-1.00624985e-003
,,,-6.15000000e-009,-9.39062343e-004
,,,-6.12500000e-009,-8.79687339e-004
,,,-6.10000000e-009,-8.34374836e-004
,,,-6.07500000e-009,-8.07812334e-004
,,,-6.05000000e-009,-7.99999833e-004
,,,-6.02500000e-009,-8.15624834e-004
,,,-6.00000000e-009,-8.49999837e-004
,,,-5.97500000e-009,-8.99999840e-004
,,,-5.95000000e-009,-9.60937344e-004
,,,-5.92500000e-009,-1.02812485e-003
,,,-5.90000000e-009,-1.09374985e-003
,,,-5.87500000e-009,-1.15312486e-003
,,,-5.85000000e-009,-1.19999986e-003
,,,-5.82500000e-009,-1.23281236e-003
,,,-5.80000000e-009,-1.24999986e-003
,,,-5.77500000e-009,-1.25468737e-003
,,,-5.75000000e-009,-1.24843736e-003
,,,-5.72500000e-009,-1.23593736e-003
,,,-5.70000000e-009,-1.22187486e-003
,,,-5.67500000e-009,-1.20937486e-003
,,,-5.65000000e-009,-1.19999986e-003
,,,-5.62500000e-009,-1.19999986e-003
,,,-5.60000000e-009,-1.20312486e-003
,,,-5.57500000e-009,-1.21249986e-003
,,,-5.55000000e-009,-1.22343736e-003
,,,-5.52500000e-009,-1.22968736e-003
,,,-5.50000000e-009,-1.23124986e-003
,,,-5.47500000e-009,-1.22187486e-003
,,,-5.45000000e-009,-1.19999986e-003
,,,-5.42500000e-009,-1.16562486e-003
,,,-5.40000000e-009,-1.11718736e-003
,,,-5.37500000e-009,-1.06093735e-003
,,,-5.35000000e-009,-9.99999847e-004
,,,-5.32500000e-009,-9.40624843e-004
,,,-5.30000000e-009,-8.84374839e-004
,,,-5.27500000e-009,-8.35937336e-004
,,,-5.25000000e-009,-7.99999833e-004
,,,-5.22500000e-009,-7.79687332e-004
,,,-5.20000000e-009,-7.70312331e-004
,,,-5.17500000e-009,-7.71874831e-004
,,,-5.15000000e-009,-7.78124832e-004
,,,-5.12500000e-009,-7.89062332e-004
,,,-5.10000000e-009,-7.98437333e-004
,,,-5.07500000e-009,-8.01562333e-004
,,,-5.05000000e-009,-7.99999833e-004
,,,-5.02500000e-009,-7.92187333e-004
,,,-5.00000000e-009,-7.79687332e-004
,,,-4.97500000e-009,-7.65624831e-004
,,,-4.95000000e-009,-7.53124830e-004
,,,-4.92500000e-009,-7.46874829e-004
,,,-4.90000000e-009,-7.51562330e-004
,,,-4.87500000e-009,-7.68749831e-004
,,,-4.85000000e-009,-7.99999833e-004
,,,-4.82500000e-009,-8.51562337e-004
,,,-4.80000000e-009,-9.12499841e-004
,,,-4.77500000e-009,-9.79687346e-004
,,,-4.75000000e-009,-1.04687485e-003
,,,-4.72500000e-009,-1.10781235e-003
,,,-4.70000000e-009,-1.15781236e-003
,,,-4.67500000e-009,-1.18906236e-003
,,,-4.65000000e-009,-1.19999986e-003
,,,-4.62500000e-009,-1.18437486e-003
,,,-4.60000000e-009,-1.14531236e-003
,,,-4.57500000e-009,-1.09062485e-003
,,,-4.55000000e-009,-1.02656235e-003
,,,-4.52500000e-009,-9.57812344e-004
,,,-4.50000000e-009,-8.93749840e-004
,,,-4.47500000e-009,-8.40624836e-004
,,,-4.45000000e-009,-7.99999833e-004
,,,-4.42500000e-009,-7.78124832e-004
,,,-4.40000000e-009,-7.70312331e-004
,,,-4.37500000e-009,-7.73437331e-004
,,,-4.35000000e-009,-7.85937332e-004
,,,-4.32500000e-009,-7.98437333e-004
,,,-4.30000000e-009,-8.07812334e-004
,,,-4.27500000e-009,-8.09374834e-004
,,,-4.25000000e-009,-7.99999833e-004
,,,-4.22500000e-009,-7.82812332e-004
,,,-4.20000000e-009,-7.57812330e-004
,,,-4.17500000e-009,-7.32812328e-004
,,,-4.15000000e-009,-7.10937327e-004
,,,-4.12500000e-009,-7.03124826e-004
,,,-4.10000000e-009,-7.12499827e-004
,,,-4.07500000e-009,-7.45312329e-004
,,,-4.05000000e-009,-7.99999833e-004
,,,-4.02500000e-009,-8.76562339e-004
,,,-4.00000000e-009,-9.65624845e-004
,,,-3.97500000e-009,-1.05781235e-003
,,,-3.95000000e-009,-1.14374986e-003
,,,-3.92500000e-009,-1.21093736e-003
,,,-3.90000000e-009,-1.24843736e-003
,,,-3.87500000e-009,-1.24687486e-003
,,,-3.85000000e-009,-1.19999986e-003
,,,-3.82500000e-009,-1.10781235e-003
,,,-3.80000000e-009,-9.74999845e-004
,,,-3.77500000e-009,-8.12499834e-004
,,,-3.75000000e-009,-6.31249821e-004
,,,-3.72500000e-009,-4.46874808e-004
,,,-3.70000000e-009,-2.71874796e-004
,,,-3.67500000e-009,-1.18749785e-004
,,,-3.65000000e-009,2.23517420e-010
,,,-3.62500000e-009,6.71877283e-005
,,,-3.60000000e-009,8.90627298e-005
,,,-3.57500000e-009,7.03127285e-005
,,,-3.55000000e-009,1.40627245e-005
,,,-3.52500000e-009,-7.03122815e-005
,,,-3.50000000e-009,-1.74999789e-004
,,,-3.47500000e-009,-2.87499797e-004
,,,-3.45000000e-009,-3.99999805e-004
,,,-3.42500000e-009,-5.06249812e-004
,,,-3.40000000e-009,-5.96874819e-004
,,,-3.37500000e-009,-6.68749824e-004
,,,-3.35000000e-009,-7.21874828e-004
,,,-3.32500000e-009,-7.59374830e-004
,,,-3.30000000e-009,-7.81249832e-004
,,,-3.27500000e-009,-7.95312333e-004
,,,-3.25000000e-009,-7.99999833e-004
,,,-3.22500000e-009,-8.03124833e-004
,,,-3.20000000e-009,-8.04687333e-004
,,,-3.17500000e-009,-8.06249834e-004
,,,-3.15000000e-009,-8.07812334e-004
,,,-3.12500000e-009,-8.07812334e-004
,,,-3.10000000e-009,-8.07812334e-004
,,,-3.07500000e-009,-8.06249834e-004
,,,-3.05000000e-009,-7.99999833e-004
,,,-3.02500000e-009,-7.92187333e-004
,,,-3.00000000e-009,-7.82812332e-004
,,,-2.97500000e-009,-7.73437331e-004
,,,-2.95000000e-009,-7.65624831e-004
,,,-2.92500000e-009,-7.64062331e-004
,,,-2.90000000e-009,-7.68749831e-004
,,,-2.87500000e-009,-7.81249832e-004
,,,-2.85000000e-009,-7.99999833e-004
,,,-2.82500000e-009,-8.23437335e-004
,,,-2.80000000e-009,-8.48437337e-004
,,,-2.77500000e-009,-8.68749838e-004
,,,-2.75000000e-009,-8.82812339e-004
,,,-2.72500000e-009,-8.84374839e-004
,,,-2.70000000e-009,-8.73437338e-004
,,,-2.67500000e-009,-8.45312336e-004
,,,-2.65000000e-009,-7.99999833e-004
,,,-2.62500000e-009,-7.37499829e-004
,,,-2.60000000e-009,-6.65624824e-004
,,,-2.57500000e-009,-5.92187318e-004
,,,-2.55000000e-009,-5.21874813e-004
,,,-2.52500000e-009,-4.62499809e-004
,,,-2.50000000e-009,-4.20312306e-004
,,,-2.47500000e-009,-3.98437305e-004
,,,-2.45000000e-009,-3.99999805e-004
,,,-2.42500000e-009,-4.28124807e-004
,,,-2.40000000e-009,-4.76562310e-004
,,,-2.37500000e-009,-5.37499815e-004
,,,-2.35000000e-009,-6.07812320e-004
,,,-2.32500000e-009,-6.76562324e-004
,,,-2.30000000e-009,-7.35937329e-004
,,,-2.27500000e-009,-7.78124832e-004
,,,-2.25000000e-009,-7.99999833e-004
,,,-2.22500000e-009,-7.98437333e-004
,,,-2.20000000e-009,-7.71874831e-004
,,,-2.17500000e-009,-7.26562328e-004
,,,-2.15000000e-009,-6.64062323e-004
,,,-2.12500000e-009,-5.93749819e-004
,,,-2.10000000e-009,-5.21874813e-004
,,,-2.07500000e-009,-4.56249809e-004
,,,-2.05000000e-009,-3.99999805e-004
,,,-2.02500000e-009,-3.64062302e-004
,,,-2.00000000e-009,-3.43749801e-004
,,,-1.97500000e-009,-3.37499800e-004
,,,-1.95000000e-009,-3.45312301e-004
,,,-1.92500000e-009,-3.57812302e-004
,,,-1.90000000e-009,-3.74999803e-004
,,,-1.87500000e-009,-3.90624804e-004
,,,-1.85000000e-009,-3.99999805e-004
,,,-1.82500000e-009,-4.07812305e-004
,,,-1.80000000e-009,-4.07812305e-004
,,,-1.77500000e-009,-4.01562305e-004
,,,-1.75000000e-009,-3.92187304e-004
,,,-1.72500000e-009,-3.84374804e-004
,,,-1.70000000e-009,-3.79687303e-004
,,,-1.67500000e-009,-3.84374804e-004
,,,-1.65000000e-009,-3.99999805e-004
,,,-1.62500000e-009,-4.34374807e-004
,,,-1.60000000e-009,-4.79687310e-004
,,,-1.57500000e-009,-5.32812314e-004
,,,-1.55000000e-009,-5.92187318e-004
,,,-1.52500000e-009,-6.53124823e-004
,,,-1.50000000e-009,-7.10937327e-004
,,,-1.47500000e-009,-7.60937330e-004
,,,-1.45000000e-009,-7.99999833e-004
,,,-1.42500000e-009,-8.35937336e-004
,,,-1.40000000e-009,-8.60937337e-004
,,,-1.37500000e-009,-8.73437338e-004
,,,-1.35000000e-009,-8.73437338e-004
,,,-1.32500000e-009,-8.65624838e-004
,,,-1.30000000e-009,-8.48437337e-004
,,,-1.27500000e-009,-8.26562335e-004
,,,-1.25000000e-009,-7.99999833e-004
,,,-1.22500000e-009,-7.99999833e-004
,,,-1.20000000e-009,-8.04687333e-004
,,,-1.17500000e-009,-8.12499834e-004
,,,-1.15000000e-009,-8.21874835e-004
,,,-1.12500000e-009,-8.26562335e-004
,,,-1.10000000e-009,-8.26562335e-004
,,,-1.07500000e-009,-8.17187334e-004
,,,-1.05000000e-009,-7.99999833e-004
,,,-1.02500000e-009,-8.31249835e-004
,,,-1.00000000e-009,-8.62499838e-004
,,,-9.75000000e-010,-8.89062339e-004
,,,-9.50000000e-010,-9.04687341e-004
,,,-9.25000000e-010,-9.06249841e-004
,,,-9.00000000e-010,-8.89062339e-004
,,,-8.75000000e-010,-8.53124837e-004
,,,-8.50000000e-010,-7.99999833e-004
,,,-8.25000000e-010,-8.48437337e-004
,,,-8.00000000e-010,-9.06249841e-004
,,,-7.75000000e-010,-9.70312345e-004
,,,-7.50000000e-010,-1.03437485e-003
,,,-7.25000000e-010,-1.09218735e-003
,,,-7.00000000e-010,-1.13906236e-003
,,,-6.75000000e-010,-1.17499986e-003
,,,-6.50000000e-010,-1.19999986e-003
,,,-6.25000000e-010,-1.38906237e-003
,,,-6.00000000e-010,-1.60156239e-003
,,,-5.75000000e-010,-1.82812491e-003
,,,-5.50000000e-010,-2.05624992e-003
,,,-5.25000000e-010,-2.27499994e-003
,,,-5.00000000e-010,-2.47187495e-003
,,,-4.75000000e-010,-2.64687496e-003
,,,-4.50000000e-010,-2.79999997e-003
,,,-4.25000000e-010,-3.14375000e-003
,,,-4.00000000e-010,-3.51562503e-003
,,,-3.75000000e-010,-3.90625005e-003
,,,-3.50000000e-010,-4.31250008e-003
,,,-3.25000000e-010,-4.72500011e-003
,,,-3.00000000e-010,-5.14062514e-003
,,,-2.75000000e-010,-5.56406267e-003
,,,-2.50000000e-010,-6.00000020e-003
,,,-2.25000000e-010,-6.65937525e-003
,,,-2.00000000e-010,-7.38593780e-003
,,,-1.75000000e-010,-8.17656286e-003
,,,-1.50000000e-010,-9.02187542e-003
,,,-1.25000000e-010,-9.91093798e-003
,,,-1.00000000e-010,-1.08390630e-002
,,,-7.50000000e-011,-1.18015631e-002
,,,-5.00000000e-011,-1.28000007e-002
,,,-2.50000000e-011,-1.39687508e-002
,,,0.00000000e+000,-1.52062509e-002
,,,2.50000000e-011,-1.65062509e-002
,,,5.00000000e-011,-1.78609385e-002
,,,7.50000000e-011,-1.92562511e-002
,,,1.00000000e-010,-2.06828137e-002
,,,1.25000000e-010,-2.21328138e-002
,,,1.50000000e-010,-2.36000014e-002
,,,1.75000000e-010,-2.50828141e-002
,,,2.00000000e-010,-2.65968767e-002
,,,2.25000000e-010,-2.81421893e-002
,,,2.50000000e-010,-2.97078144e-002
,,,2.75000000e-010,-3.12890645e-002
,,,3.00000000e-010,-3.28734396e-002
,,,3.25000000e-010,-3.44468772e-002
,,,3.50000000e-010,-3.60000023e-002
,,,3.75000000e-010,-3.73625024e-002
,,,4.00000000e-010,-3.87015650e-002
,,,4.25000000e-010,-4.00156276e-002
,,,4.50000000e-010,-4.13031277e-002
,,,4.75000000e-010,-4.25562528e-002
,,,5.00000000e-010,-4.37640654e-002
,,,5.25000000e-010,-4.49156280e-002
,,,5.50000000e-010,-4.60000030e-002
,,,5.75000000e-010,-4.67343781e-002
,,,6.00000000e-010,-4.74125031e-002
,,,6.25000000e-010,-4.80515657e-002
,,,6.50000000e-010,-4.86593782e-002
,,,6.75000000e-010,-4.92437533e-002
,,,7.00000000e-010,-4.97984408e-002
,,,7.25000000e-010,-5.03218783e-002
,,,7.50000000e-010,-5.08000034e-002
,,,7.75000000e-010,-5.08875034e-002
,,,8.00000000e-010,-5.09359409e-002
,,,8.25000000e-010,-5.09531284e-002
,,,8.50000000e-010,-5.09406284e-002
,,,8.75000000e-010,-5.08921909e-002
,,,9.00000000e-010,-5.07953159e-002
,,,9.25000000e-010,-5.06390659e-002
,,,9.50000000e-010,-5.04000033e-002
,,,9.75000000e-010,-4.97453158e-002
,,,1.00000000e-009,-4.90140657e-002
,,,1.02500000e-009,-4.82203157e-002
,,,1.05000000e-009,-4.73765656e-002
,,,1.07500000e-009,-4.64875031e-002
,,,1.10000000e-009,-4.55609405e-002
,,,1.12500000e-009,-4.45984404e-002
,,,1.15000000e-009,-4.36000029e-002
,,,1.17500000e-009,-4.23390653e-002
,,,1.20000000e-009,-4.10687527e-002
,,,1.22500000e-009,-3.98062526e-002
,,,1.25000000e-009,-3.85671900e-002
,,,1.27500000e-009,-3.73625024e-002
,,,1.30000000e-009,-3.62000023e-002
,,,1.32500000e-009,-3.50796898e-002
,,,1.35000000e-009,-3.40000022e-002
,,,1.37500000e-009,-3.28562521e-002
,,,1.40000000e-009,-3.17390645e-002
,,,1.42500000e-009,-3.06500019e-002
,,,1.45000000e-009,-2.95906269e-002
,,,1.47500000e-009,-2.85562518e-002
,,,1.50000000e-009,-2.75468767e-002
,,,1.52500000e-009,-2.65625017e-002
,,,1.55000000e-009,-2.56000016e-002
,,,1.57500000e-009,-2.46625015e-002
,,,1.60000000e-009,-2.37203140e-002
,,,1.62500000e-009,-2.27765639e-002
,,,1.65000000e-009,-2.18390638e-002
,,,1.67500000e-009,-2.09218763e-002
,,,1.70000000e-009,-2.00359387e-002
,,,1.72500000e-009,-1.91921886e-002
,,,1.75000000e-009,-1.84000011e-002
,,,1.77500000e-009,-1.77406260e-002
,,,1.80000000e-009,-1.70968760e-002
,,,1.82500000e-009,-1.64671884e-002
,,,1.85000000e-009,-1.58500009e-002
,,,1.87500000e-009,-1.52484384e-002
,,,1.90000000e-009,-1.46703133e-002
,,,1.92500000e-009,-1.41187508e-002
,,,1.95000000e-009,-1.36000007e-002
,,,1.97500000e-009,-1.32296882e-002
,,,2.00000000e-009,-1.28500007e-002
,,,2.02500000e-009,-1.24656257e-002
,,,2.05000000e-009,-1.20812506e-002
,,,2.07500000e-009,-1.17093756e-002
,,,2.10000000e-009,-1.13640631e-002
,,,2.12500000e-009,-1.10578131e-002
,,,2.15000000e-009,-1.08000005e-002
,,,2.17500000e-009,-1.06968755e-002
,,,2.20000000e-009,-1.06031255e-002
,,,2.22500000e-009,-1.05093755e-002
,,,2.25000000e-009,-1.04125005e-002
,,,2.27500000e-009,-1.03125005e-002
,,,2.30000000e-009,-1.02109380e-002
,,,2.32500000e-009,-1.01062505e-002
,,,2.35000000e-009,-1.00000005e-002
,,,2.37500000e-009,-9.95625048e-003
,,,2.40000000e-009,-9.87343798e-003
,,,2.42500000e-009,-9.75156297e-003
,,,2.45000000e-009,-9.59375046e-003
,,,2.47500000e-009,-9.41093794e-003
,,,2.50000000e-009,-9.20937543e-003
,,,2.52500000e-009,-9.00312541e-003
,,,2.55000000e-009,-8.80000040e-003
,,,2.57500000e-009,-8.64843789e-003
,,,2.60000000e-009,-8.48906288e-003
,,,2.62500000e-009,-8.32656287e-003
,,,2.65000000e-009,-8.16250035e-003
,,,2.67500000e-009,-8.00468784e-003
,,,2.70000000e-009,-7.85625033e-003
,,,2.72500000e-009,-7.72031282e-003
,,,2.75000000e-009,-7.60000031e-003
,,,2.77500000e-009,-7.51406281e-003
,,,2.80000000e-009,-7.42656280e-003
,,,2.82500000e-009,-7.33281280e-003
,,,2.85000000e-009,-7.23437529e-003
,,,2.87500000e-009,-7.13125028e-003
,,,2.90000000e-009,-7.02500027e-003
,,,2.92500000e-009,-6.91406277e-003
,,,2.95000000e-009,-6.80000026e-003
,,,2.97500000e-009,-6.68750025e-003
,,,3.00000000e-009,-6.55937524e-003
,,,3.02500000e-009,-6.41718773e-003
,,,3.05000000e-009,-6.26406272e-003
,,,3.07500000e-009,-6.10156271e-003
,,,3.10000000e-009,-5.93593770e-003
,,,3.12500000e-009,-5.76718768e-003
,,,3.15000000e-009,-5.60000017e-003
,,,3.17500000e-009,-5.44218766e-003
,,,3.20000000e-009,-5.28125015e-003
,,,3.22500000e-009,-5.12187514e-003
,,,3.25000000e-009,-4.96562513e-003
,,,3.27500000e-009,-4.81250012e-003
,,,3.30000000e-009,-4.66718761e-003
,,,3.32500000e-009,-4.52968760e-003
,,,3.35000000e-009,-4.40000009e-003
,,,3.37500000e-009,-4.29218758e-003
,,,3.40000000e-009,-4.18750007e-003
,,,3.42500000e-009,-4.08281257e-003
,,,3.45000000e-009,-3.98125006e-003
,,,3.47500000e-009,-3.88125005e-003
,,,3.50000000e-009,-3.78437504e-003
,,,3.52500000e-009,-3.69062504e-003
,,,3.55000000e-009,-3.60000003e-003
,,,3.57500000e-009,-3.52343753e-003
,,,3.60000000e-009,-3.44218752e-003
,,,3.62500000e-009,-3.35156251e-003
,,,3.65000000e-009,-3.25468751e-003
,,,3.67500000e-009,-3.14843750e-003
,,,3.70000000e-009,-3.03749999e-003
,,,3.72500000e-009,-2.92031248e-003
,,,3.75000000e-009,-2.79999997e-003
,,,3.77500000e-009,-2.69062497e-003
,,,3.80000000e-009,-2.57812496e-003
,,,3.82500000e-009,-2.46249995e-003
,,,3.85000000e-009,-2.34999994e-003
,,,3.87500000e-009,-2.24374994e-003
,,,3.90000000e-009,-2.14687493e-003
,,,3.92500000e-009,-2.06562492e-003
,,,3.95000000e-009,-1.99999992e-003
,,,3.97500000e-009,-1.96874992e-003
,,,4.00000000e-009,-1.94999991e-003
,,,4.02500000e-009,-1.94062491e-003
,,,4.05000000e-009,-1.94062491e-003
,,,4.07500000e-009,-1.94843741e-003
,,,4.10000000e-009,-1.96249992e-003
,,,4.12500000e-009,-1.98124992e-003
,,,4.15000000e-009,-1.99999992e-003
,,,4.17500000e-009,-2.02968742e-003
,,,4.20000000e-009,-2.05312492e-003
,,,4.22500000e-009,-2.06562492e-003
,,,4.25000000e-009,-2.06874992e-003
,,,4.27500000e-009,-2.06406242e-003
,,,4.30000000e-009,-2.04999992e-003
,,,4.32500000e-009,-2.02812492e-003
,,,4.35000000e-009,-1.99999992e-003
,,,4.37500000e-009,-1.97343742e-003
,,,4.40000000e-009,-1.93749991e-003
,,,4.42500000e-009,-1.89531241e-003
,,,4.45000000e-009,-1.84531241e-003
,,,4.47500000e-009,-1.78906240e-003
,,,4.50000000e-009,-1.72968740e-003
,,,4.52500000e-009,-1.66562489e-003
,,,4.55000000e-009,-1.59999989e-003
,,,4.57500000e-009,-1.54531239e-003
,,,4.60000000e-009,-1.48906238e-003
,,,4.62500000e-009,-1.43437488e-003
,,,4.65000000e-009,-1.37968737e-003
,,,4.67500000e-009,-1.32812487e-003
,,,4.70000000e-009,-1.28124987e-003
,,,4.72500000e-009,-1.23749986e-003
,,,4.75000000e-009,-1.19999986e-003
,,,4.77500000e-009,-1.17968736e-003
,,,4.80000000e-009,-1.16406236e-003
,,,4.82500000e-009,-1.15624986e-003
,,,4.85000000e-009,-1.15312486e-003
,,,4.87500000e-009,-1.15781236e-003
,,,4.90000000e-009,-1.16718736e-003
,,,4.92500000e-009,-1.18281236e-003
,,,4.95000000e-009,-1.19999986e-003
,,,4.97500000e-009,-1.22343736e-003
,,,5.00000000e-009,-1.24374986e-003
,,,5.02500000e-009,-1.25937487e-003
,,,5.05000000e-009,-1.26562487e-003
,,,5.07500000e-009,-1.26406237e-003
,,,5.10000000e-009,-1.25312487e-003
,,,5.12500000e-009,-1.23124986e-003
,,,5.15000000e-009,-1.19999986e-003
,,,5.17500000e-009,-1.16874986e-003
,,,5.20000000e-009,-1.13593736e-003
,,,5.22500000e-009,-1.10781235e-003
,,,5.25000000e-009,-1.08749985e-003
,,,5.27500000e-009,-1.08437485e-003
,,,5.30000000e-009,-1.09999985e-003
,,,5.32500000e-009,-1.13749986e-003
,,,5.35000000e-009,-1.19999986e-003
,,,5.37500000e-009,-1.28906237e-003
,,,5.40000000e-009,-1.39531238e-003
,,,5.42500000e-009,-1.51093738e-003
,,,5.45000000e-009,-1.63124989e-003
,,,5.47500000e-009,-1.74687490e-003
,,,5.50000000e-009,-1.85312491e-003
,,,5.52500000e-009,-1.93906241e-003
,,,5.55000000e-009,-1.99999992e-003
,,,5.57500000e-009,-2.03124992e-003
,,,5.60000000e-009,-2.03124992e-003
,,,5.62500000e-009,-2.00312492e-003
,,,5.65000000e-009,-1.94999991e-003
,,,5.67500000e-009,-1.87812491e-003
,,,5.70000000e-009,-1.79218740e-003
,,,5.72500000e-009,-1.69687490e-003
,,,5.75000000e-009,-1.59999989e-003
,,,5.77500000e-009,-1.50156238e-003
,,,5.80000000e-009,-1.41249988e-003
