RawData/CosmicRays/L6_2pt2C_15mV/wave020_Ch3.csv

"Record Length",1000,"Points",-7.72500000e-009,-7.99999833e-004
"Sample Interval",2.50000000e-011,s,-7.70000000e-009,-7.99999833e-004
"Trigger Point",309,"Samples",-7.67500000e-009,-8.01562333e-004
"Trigger Time",2.35459166e-011,s,-7.65000000e-009,-8.03124833e-004
"",,,-7.62500000e-009,-8.04687333e-004
"Horizontal Offset",-7.72500000e-009,s,-7.60000000e-009,-8.06249834e-004
,,,-7.57500000e-009,-8.06249834e-004
,,,-7.55000000e-009,-8.04687333e-004
,,,-7.52500000e-009,-7.99999833e-004
,,,-7.50000000e-009,-7.90624832e-004
,,,-7.47500000e-009,-7.79687332e-004
,,,-7.45000000e-009,-7.70312331e-004
,,,-7.42500000e-009,-7.62499830e-004
,,,-7.40000000e-009,-7.60937330e-004
,,,-7.37500000e-009,-7.65624831e-004
,,,-7.35000000e-009,-7.78124832e-004
,,,-7.32500000e-009,-7.99999833e-004
,,,-7.30000000e-009,-8.32812335e-004
,,,-7.27500000e-009,-8.73437338e-004
,,,-7.25000000e-009,-9.20312342e-004
,,,-7.22500000e-009,-9.74999845e-004
,,,-7.20000000e-009,-1.03281235e-003
,,,-7.17500000e-009,-1.09062485e-003
,,,-7.15000000e-009,-1.14843736e-003
,,,-7.12500000e-009,-1.19999986e-003
,,,-7.10000000e-009,-1.24218736e-003
,,,-7.07500000e-009,-1.27499987e-003
,,,-7.05000000e-009,-1.29531237e-003
,,,-7.02500000e-009,-1.30312487e-003
,,,-7.00000000e-009,-1.29843737e-003
,,,-6.97500000e-009,-1.27968737e-003
,,,-6.95000000e-009,-1.24687486e-003
,,,-6.92500000e-009,-1.19999986e-003
,,,-6.90000000e-009,-1.13749986e-003
,,,-6.87500000e-009,-1.06093735e-003
,,,-6.85000000e-009,-9.71874845e-004
,,,-6.82500000e-009,-8.71874838e-004
,,,-6.80000000e-009,-7.64062331e-004
,,,-6.77500000e-009,-6.46874822e-004
,,,-6.75000000e-009,-5.24999814e-004
,,,-6.72500000e-009,-3.99999805e-004
,,,-6.70000000e-009,-2.84374797e-004
,,,-6.67500000e-009,-1.79687289e-004
,,,-6.65000000e-009,-8.90622828e-005
,,,-6.62500000e-009,-1.87497778e-005
,,,-6.60000000e-009,2.81252255e-005
,,,-6.57500000e-009,4.84377269e-005
,,,-6.55000000e-009,3.75002262e-005
,,,-6.52500000e-009,2.23517420e-010
,,,-6.50000000e-009,-7.34372817e-005
,,,-6.47500000e-009,-1.67187288e-004
,,,-6.45000000e-009,-2.76562296e-004
,,,-6.42500000e-009,-3.93749804e-004
,,,-6.40000000e-009,-5.12499813e-004
,,,-6.37500000e-009,-6.23437321e-004
,,,-6.35000000e-009,-7.20312327e-004
,,,-6.32500000e-009,-7.99999833e-004
,,,-6.30000000e-009,-8.56249837e-004
,,,-6.27500000e-009,-8.90624840e-004
,,,-6.25000000e-009,-9.01562340e-004
,,,-6.22500000e-009,-8.96874840e-004
,,,-6.20000000e-009,-8.78124839e-004
,,,-6.17500000e-009,-8.53124837e-004
,,,-6.15000000e-009,-8.24999835e-004
,,,-6.12500000e-009,-7.99999833e-004
,,,-6.10000000e-009,-7.81249832e-004
,,,-6.07500000e-009,-7.68749831e-004
,,,-6.05000000e-009,-7.64062331e-004
,,,-6.02500000e-009,-7.65624831e-004
,,,-6.00000000e-009,-7.73437331e-004
,,,-5.97500000e-009,-7.82812332e-004
,,,-5.95000000e-009,-7.92187333e-004
,,,-5.92500000e-009,-7.99999833e-004
,,,-5.90000000e-009,-8.06249834e-004
,,,-5.87500000e-009,-8.06249834e-004
,,,-5.85000000e-009,-8.04687333e-004
,,,-5.82500000e-009,-7.99999833e-004
,,,-5.80000000e-009,-7.96874833e-004
,,,-5.77500000e-009,-7.93749833e-004
,,,-5.75000000e-009,-7.95312333e-004
,,,-5.72500000e-009,-7.99999833e-004
,,,-5.70000000e-009,-8.06249834e-004
,,,-5.67500000e-009,-8.15624834e-004
,,,-5.65000000e-009,-8.26562335e-004
,,,-5.62500000e-009,-8.34374836e-004
,,,-5.60000000e-009,-8.39062336e-004
,,,-5.57500000e-009,-8.35937336e-004
,,,-5.55000000e-009,-8.23437335e-004
,,,-5.52500000e-009,-7.99999833e-004
,,,-5.50000000e-009,-7.60937330e-004
,,,-5.47500000e-009,-7.14062327e-004
,,,-5.45000000e-009,-6.59374823e-004
,,,-5.42500000e-009,-5.99999819e-004
,,,-5.40000000e-009,-5.42187315e-004
,,,-5.37500000e-009,-4.87499811e-004
,,,-5.35000000e-009,-4.40624808e-004
,,,-5.32500000e-009,-3.99999805e-004
,,,-5.30000000e-009,-3.71874803e-004
,,,-5.27500000e-009,-3.53124801e-004
,,,-5.25000000e-009,-3.45312301e-004
,,,-5.22500000e-009,-3.46874801e-004
,,,-5.20000000e-009,-3.54687302e-004
,,,-5.17500000e-009,-3.67187302e-004
,,,-5.15000000e-009,-3.84374804e-004
,,,-5.12500000e-009,-3.99999805e-004
,,,-5.10000000e-009,-4.18749806e-004
,,,-5.07500000e-009,-4.34374807e-004
,,,-5.05000000e-009,-4.43749808e-004
,,,-5.02500000e-009,-4.46874808e-004
,,,-5.00000000e-009,-4.43749808e-004
,,,-4.97500000e-009,-4.34374807e-004
,,,-4.95000000e-009,-4.18749806e-004
,,,-4.92500000e-009,-3.99999805e-004
,,,-4.90000000e-009,-3.85937304e-004
,,,-4.87500000e-009,-3.73437303e-004
,,,-4.85000000e-009,-3.62499802e-004
,,,-4.82500000e-009,-3.57812302e-004
,,,-4.80000000e-009,-3.59374802e-004
,,,-4.77500000e-009,-3.67187302e-004
,,,-4.75000000e-009,-3.81249803e-004
,,,-4.72500000e-009,-3.99999805e-004
,,,-4.70000000e-009,-4.26562307e-004
,,,-4.67500000e-009,-4.53124809e-004
,,,-4.65000000e-009,-4.74999810e-004
,,,-4.62500000e-009,-4.87499811e-004
,,,-4.60000000e-009,-4.89062311e-004
,,,-4.57500000e-009,-4.76562310e-004
,,,-4.55000000e-009,-4.46874808e-004
,,,-4.52500000e-009,-3.99999805e-004
,,,-4.50000000e-009,-3.42187301e-004
,,,-4.47500000e-009,-2.74999796e-004
,,,-4.45000000e-009,-2.01562291e-004
,,,-4.42500000e-009,-1.31249786e-004
,,,-4.40000000e-009,-6.87497813e-005
,,,-4.37500000e-009,-2.34372781e-005
,,,-4.35000000e-009,1.56272363e-006
,,,-4.32500000e-009,2.23517420e-010
,,,-4.30000000e-009,-3.43747789e-005
,,,-4.27500000e-009,-9.68747833e-005
,,,-4.25000000e-009,-1.82812289e-004
,,,-4.22500000e-009,-2.89062297e-004
,,,-4.20000000e-009,-4.10937306e-004
,,,-4.17500000e-009,-5.42187315e-004
,,,-4.15000000e-009,-6.73437324e-004
,,,-4.12500000e-009,-7.99999833e-004
,,,-4.10000000e-009,-9.12499841e-004
,,,-4.07500000e-009,-1.00937485e-003
,,,-4.05000000e-009,-1.08593735e-003
,,,-4.02500000e-009,-1.14374986e-003
,,,-4.00000000e-009,-1.18281236e-003
,,,-3.97500000e-009,-1.20468736e-003
,,,-3.95000000e-009,-1.20937486e-003
,,,-3.92500000e-009,-1.19999986e-003
,,,-3.90000000e-009,-1.17343736e-003
,,,-3.87500000e-009,-1.13593736e-003
,,,-3.85000000e-009,-1.09062485e-003
,,,-3.82500000e-009,-1.03906235e-003
,,,-3.80000000e-009,-9.84374846e-004
,,,-3.77500000e-009,-9.24999842e-004
,,,-3.75000000e-009,-8.64062338e-004
,,,-3.72500000e-009,-7.99999833e-004
,,,-3.70000000e-009,-7.34374828e-004
,,,-3.67500000e-009,-6.70312324e-004
,,,-3.65000000e-009,-6.09374820e-004
,,,-3.62500000e-009,-5.53124816e-004
,,,-3.60000000e-009,-5.03124812e-004
,,,-3.57500000e-009,-4.60937309e-004
,,,-3.55000000e-009,-4.26562307e-004
,,,-3.52500000e-009,-3.99999805e-004
,,,-3.50000000e-009,-3.84374804e-004
,,,-3.47500000e-009,-3.76562303e-004
,,,-3.45000000e-009,-3.74999803e-004
,,,-3.42500000e-009,-3.78124803e-004
,,,-3.40000000e-009,-3.84374804e-004
,,,-3.37500000e-009,-3.90624804e-004
,,,-3.35000000e-009,-3.96874805e-004
,,,-3.32500000e-009,-3.99999805e-004
,,,-3.30000000e-009,-4.03124805e-004
,,,-3.27500000e-009,-4.03124805e-004
,,,-3.25000000e-009,-4.03124805e-004
,,,-3.22500000e-009,-4.01562305e-004
,,,-3.20000000e-009,-3.99999805e-004
,,,-3.17500000e-009,-3.98437305e-004
,,,-3.15000000e-009,-3.98437305e-004
,,,-3.12500000e-009,-3.99999805e-004
,,,-3.10000000e-009,-4.07812305e-004
,,,-3.07500000e-009,-4.14062306e-004
,,,-3.05000000e-009,-4.18749806e-004
,,,-3.02500000e-009,-4.23437306e-004
,,,-3.00000000e-009,-4.23437306e-004
,,,-2.97500000e-009,-4.20312306e-004
,,,-2.95000000e-009,-4.12499806e-004
,,,-2.92500000e-009,-3.99999805e-004
,,,-2.90000000e-009,-3.90624804e-004
,,,-2.87500000e-009,-3.79687303e-004
,,,-2.85000000e-009,-3.68749803e-004
,,,-2.82500000e-009,-3.59374802e-004
,,,-2.80000000e-009,-3.56249802e-004
,,,-2.77500000e-009,-3.60937302e-004
,,,-2.75000000e-009,-3.74999803e-004
,,,-2.72500000e-009,-3.99999805e-004
,,,-2.70000000e-009,-4.37499807e-004
,,,-2.67500000e-009,-4.84374811e-004
,,,-2.65000000e-009,-5.37499815e-004
,,,-2.62500000e-009,-5.93749819e-004
,,,-2.60000000e-009,-6.51562323e-004
,,,-2.57500000e-009,-7.07812327e-004
,,,-2.55000000e-009,-7.57812330e-004
,,,-2.52500000e-009,-7.99999833e-004
,,,-2.50000000e-009,-8.32812335e-004
,,,-2.47500000e-009,-8.53124837e-004
,,,-2.45000000e-009,-8.64062338e-004
,,,-2.42500000e-009,-8.64062338e-004
,,,-2.40000000e-009,-8.56249837e-004
,,,-2.37500000e-009,-8.40624836e-004
,,,-2.35000000e-009,-8.21874835e-004
,,,-2.32500000e-009,-7.99999833e-004
,,,-2.30000000e-009,-7.79687332e-004
,,,-2.27500000e-009,-7.60937330e-004
,,,-2.25000000e-009,-7.48437329e-004
,,,-2.22500000e-009,-7.43749829e-004
,,,-2.20000000e-009,-7.46874829e-004
,,,-2.17500000e-009,-7.59374830e-004
,,,-2.15000000e-009,-7.76562331e-004
,,,-2.12500000e-009,-7.99999833e-004
,,,-2.10000000e-009,-8.24999835e-004
,,,-2.07500000e-009,-8.48437337e-004
,,,-2.05000000e-009,-8.68749838e-004
,,,-2.02500000e-009,-8.81249839e-004
,,,-2.00000000e-009,-8.82812339e-004
,,,-1.97500000e-009,-8.70312338e-004
,,,-1.95000000e-009,-8.42187336e-004
,,,-1.92500000e-009,-7.99999833e-004
,,,-1.90000000e-009,-7.46874829e-004
,,,-1.87500000e-009,-6.84374825e-004
,,,-1.85000000e-009,-6.18749820e-004
,,,-1.82500000e-009,-5.53124816e-004
,,,-1.80000000e-009,-4.93749811e-004
,,,-1.77500000e-009,-4.46874808e-004
,,,-1.75000000e-009,-4.14062306e-004
,,,-1.72500000e-009,-3.99999805e-004
,,,-1.70000000e-009,-4.10937306e-004
,,,-1.67500000e-009,-4.39062308e-004
,,,-1.65000000e-009,-4.85937311e-004
,,,-1.62500000e-009,-5.45312315e-004
,,,-1.60000000e-009,-6.10937320e-004
,,,-1.57500000e-009,-6.79687325e-004
,,,-1.55000000e-009,-7.43749829e-004
,,,-1.52500000e-009,-7.99999833e-004
,,,-1.50000000e-009,-8.51562337e-004
,,,-1.47500000e-009,-8.87499839e-004
,,,-1.45000000e-009,-9.06249841e-004
,,,-1.42500000e-009,-9.10937341e-004
,,,-1.40000000e-009,-8.98437340e-004
,,,-1.37500000e-009,-8.74999838e-004
,,,-1.35000000e-009,-8.40624836e-004
,,,-1.32500000e-009,-7.99999833e-004
,,,-1.30000000e-009,-7.76562331e-004
,,,-1.27500000e-009,-7.59374830e-004
,,,-1.25000000e-009,-7.48437329e-004
,,,-1.22500000e-009,-7.43749829e-004
,,,-1.20000000e-009,-7.48437329e-004
,,,-1.17500000e-009,-7.59374830e-004
,,,-1.15000000e-009,-7.76562331e-004
,,,-1.12500000e-009,-7.99999833e-004
,,,-1.10000000e-009,-8.74999838e-004
,,,-1.07500000e-009,-9.57812344e-004
,,,-1.05000000e-009,-1.04062485e-003
,,,-1.02500000e-009,-1.11562486e-003
,,,-1.00000000e-009,-1.17343736e-003
,,,-9.75000000e-010,-1.20937486e-003
,,,-9.50000000e-010,-1.21874986e-003
,,,-9.25000000e-010,-1.19999986e-003
,,,-9.00000000e-010,-1.24687486e-003
,,,-8.75000000e-010,-1.28593737e-003
,,,-8.50000000e-010,-1.31406237e-003
,,,-8.25000000e-010,-1.32656237e-003
,,,-8.00000000e-010,-1.32031237e-003
,,,-7.75000000e-010,-1.29531237e-003
,,,-7.50000000e-010,-1.25468737e-003
,,,-7.25000000e-010,-1.19999986e-003
,,,-7.00000000e-010,-1.28906237e-003
,,,-6.75000000e-010,-1.39999988e-003
,,,-6.50000000e-010,-1.52499988e-003
,,,-6.25000000e-010,-1.65156239e-003
,,,-6.00000000e-010,-1.76874990e-003
,,,-5.75000000e-010,-1.86718741e-003
,,,-5.50000000e-010,-1.94374991e-003
,,,-5.25000000e-010,-1.99999992e-003
,,,-5.00000000e-010,-2.24687494e-003
,,,-4.75000000e-010,-2.52187495e-003
,,,-4.50000000e-010,-2.81562498e-003
,,,-4.25000000e-010,-3.12187500e-003
,,,-4.00000000e-010,-3.43437502e-003
,,,-3.75000000e-010,-3.74843754e-003
,,,-3.50000000e-010,-4.06718756e-003
,,,-3.25000000e-010,-4.40000009e-003
,,,-3.00000000e-010,-4.97343763e-003
,,,-2.75000000e-010,-5.61718767e-003
,,,-2.50000000e-010,-6.32031272e-003
,,,-2.25000000e-010,-7.07500028e-003
,,,-2.00000000e-010,-7.86718783e-003
,,,-1.75000000e-010,-8.68750039e-003
,,,-1.50000000e-010,-9.53125045e-003
,,,-1.25000000e-010,-1.04000005e-002
,,,-1.00000000e-010,-1.14656256e-002
,,,-7.50000000e-011,-1.25890632e-002
,,,-5.00000000e-011,-1.37640633e-002
,,,-2.50000000e-011,-1.49765633e-002
,,,0.00000000e+000,-1.62125009e-002
,,,2.50000000e-011,-1.74656260e-002
,,,5.00000000e-011,-1.87281261e-002
,,,7.50000000e-011,-2.00000012e-002
,,,1.00000000e-010,-2.13484388e-002
,,,1.25000000e-010,-2.27437514e-002
,,,1.50000000e-010,-2.41875015e-002
,,,1.75000000e-010,-2.56765641e-002
,,,2.00000000e-010,-2.72093767e-002
,,,2.25000000e-010,-2.87781268e-002
,,,2.50000000e-010,-3.03765644e-002
,,,2.75000000e-010,-3.20000020e-002
,,,3.00000000e-010,-3.35515647e-002
,,,3.25000000e-010,-3.51265648e-002
,,,3.50000000e-010,-3.67218774e-002
,,,3.75000000e-010,-3.83203150e-002
,,,4.00000000e-010,-3.99062526e-002
,,,4.25000000e-010,-4.14609402e-002
,,,4.50000000e-010,-4.29640653e-002
,,,4.75000000e-010,-4.44000029e-002
,,,5.00000000e-010,-4.55218780e-002
,,,5.25000000e-010,-4.65796906e-002
,,,5.50000000e-010,-4.75875031e-002
,,,5.75000000e-010,-4.85515657e-002
,,,6.00000000e-010,-4.94781283e-002
,,,6.25000000e-010,-5.03640658e-002
,,,6.50000000e-010,-5.12078159e-002
,,,6.75000000e-010,-5.20000035e-002
,,,7.00000000e-010,-5.24015660e-002
,,,7.25000000e-010,-5.27625035e-002
,,,7.50000000e-010,-5.30875035e-002
,,,7.75000000e-010,-5.33812536e-002
,,,8.00000000e-010,-5.36328161e-002
,,,8.25000000e-010,-5.38312536e-002
,,,8.50000000e-010,-5.39609411e-002
,,,8.75000000e-010,-5.40000036e-002
,,,9.00000000e-010,-5.35890661e-002
,,,9.25000000e-010,-5.30984410e-002
,,,9.50000000e-010,-5.25453160e-002
,,,9.75000000e-010,-5.19437535e-002
,,,1.00000000e-009,-5.13031284e-002
,,,1.02500000e-009,-5.06328159e-002
,,,1.05000000e-009,-4.99312533e-002
,,,1.07500000e-009,-4.92000033e-002
,,,1.10000000e-009,-4.81515657e-002
,,,1.12500000e-009,-4.70984406e-002
,,,1.15000000e-009,-4.60546905e-002
,,,1.17500000e-009,-4.50328155e-002
,,,1.20000000e-009,-4.40375029e-002
,,,1.22500000e-009,-4.30718778e-002
,,,1.25000000e-009,-4.21296903e-002
,,,1.27500000e-009,-4.12000027e-002
,,,1.30000000e-009,-4.00921901e-002
,,,1.32500000e-009,-3.89812525e-002
,,,1.35000000e-009,-3.78718775e-002
,,,1.37500000e-009,-3.67656274e-002
,,,1.40000000e-009,-3.56656273e-002
,,,1.42500000e-009,-3.45718772e-002
,,,1.45000000e-009,-3.34828146e-002
,,,1.47500000e-009,-3.24000021e-002
,,,1.50000000e-009,-3.12578145e-002
,,,1.52500000e-009,-3.01046894e-002
,,,1.55000000e-009,-2.89531268e-002
,,,1.57500000e-009,-2.78109392e-002
,,,1.60000000e-009,-2.66906267e-002
,,,1.62500000e-009,-2.56109391e-002
,,,1.65000000e-009,-2.45781265e-002
,,,1.67500000e-009,-2.36000014e-002
,,,1.70000000e-009,-2.27187514e-002
,,,1.72500000e-009,-2.18578138e-002
,,,1.75000000e-009,-2.10187513e-002
,,,1.77500000e-009,-2.02015637e-002
,,,1.80000000e-009,-1.94062512e-002
,,,1.82500000e-009,-1.86406261e-002
,,,1.85000000e-009,-1.79046885e-002
,,,1.87500000e-009,-1.72000010e-002
,,,1.90000000e-009,-1.66187510e-002
,,,1.92500000e-009,-1.60234384e-002
,,,1.95000000e-009,-1.54093759e-002
,,,1.97500000e-009,-1.47828133e-002
,,,2.00000000e-009,-1.41546883e-002
,,,2.02500000e-009,-1.35390632e-002
,,,2.05000000e-009,-1.29515632e-002
,,,2.07500000e-009,-1.24000007e-002
,,,2.10000000e-009,-1.20062506e-002
,,,2.12500000e-009,-1.16171881e-002
,,,2.15000000e-009,-1.12328131e-002
,,,2.17500000e-009,-1.08578130e-002
,,,2.20000000e-009,-1.05000005e-002
,,,2.22500000e-009,-1.01656255e-002
,,,2.25000000e-009,-9.86406297e-003
,,,2.27500000e-009,-9.60000046e-003
,,,2.30000000e-009,-9.47187545e-003
,,,2.32500000e-009,-9.33906294e-003
,,,2.35000000e-009,-9.19687543e-003
,,,2.37500000e-009,-9.04375042e-003
,,,2.40000000e-009,-8.88281291e-003
,,,2.42500000e-009,-8.71875039e-003
,,,2.45000000e-009,-8.55625038e-003
,,,2.47500000e-009,-8.40000037e-003
,,,2.50000000e-009,-8.32343787e-003
,,,2.52500000e-009,-8.22031286e-003
,,,2.55000000e-009,-8.09218785e-003
,,,2.57500000e-009,-7.93750034e-003
,,,2.60000000e-009,-7.76562533e-003
,,,2.62500000e-009,-7.57968781e-003
,,,2.65000000e-009,-7.38906280e-003
,,,2.67500000e-009,-7.20000029e-003
,,,2.70000000e-009,-7.06250028e-003
,,,2.72500000e-009,-6.91406277e-003
,,,2.75000000e-009,-6.75625025e-003
,,,2.77500000e-009,-6.59375024e-003
,,,2.80000000e-009,-6.43281273e-003
,,,2.82500000e-009,-6.27656272e-003
,,,2.85000000e-009,-6.13125021e-003
,,,2.87500000e-009,-6.00000020e-003
,,,2.90000000e-009,-5.91406270e-003
,,,2.92500000e-009,-5.82812519e-003
,,,2.95000000e-009,-5.73750018e-003
,,,2.97500000e-009,-5.64062518e-003
,,,3.00000000e-009,-5.53750017e-003
,,,3.02500000e-009,-5.42968766e-003
,,,3.05000000e-009,-5.31718765e-003
,,,3.07500000e-009,-5.20000014e-003
,,,3.10000000e-009,-5.10000014e-003
,,,3.12500000e-009,-4.99218763e-003
,,,3.15000000e-009,-4.87968762e-003
,,,3.17500000e-009,-4.76562511e-003
,,,3.20000000e-009,-4.65625011e-003
,,,3.22500000e-009,-4.55625010e-003
,,,3.25000000e-009,-4.47031259e-003
,,,3.27500000e-009,-4.40000009e-003
,,,3.30000000e-009,-4.35312508e-003
,,,3.32500000e-009,-4.31093758e-003
,,,3.35000000e-009,-4.27187508e-003
,,,3.37500000e-009,-4.23125008e-003
,,,3.40000000e-009,-4.18750007e-003
,,,3.42500000e-009,-4.13437507e-003
,,,3.45000000e-009,-4.07343756e-003
,,,3.47500000e-009,-4.00000006e-003
,,,3.50000000e-009,-3.92500005e-003
,,,3.52500000e-009,-3.83281255e-003
,,,3.55000000e-009,-3.72656254e-003
,,,3.57500000e-009,-3.61250003e-003
,,,3.60000000e-009,-3.49687502e-003
,,,3.62500000e-009,-3.38593752e-003
,,,3.65000000e-009,-3.28437501e-003
,,,3.67500000e-009,-3.20000000e-003
,,,3.70000000e-009,-3.14218750e-003
,,,3.72500000e-009,-3.10000000e-003
,,,3.75000000e-009,-3.07656249e-003
,,,3.77500000e-009,-3.07343749e-003
,,,3.80000000e-009,-3.08593749e-003
,,,3.82500000e-009,-3.11406250e-003
,,,3.85000000e-009,-3.15468750e-003
,,,3.87500000e-009,-3.20000000e-003
,,,3.90000000e-009,-3.24375001e-003
,,,3.92500000e-009,-3.27031251e-003
,,,3.95000000e-009,-3.27343751e-003
,,,3.97500000e-009,-3.24687501e-003
,,,4.00000000e-009,-3.18750000e-003
,,,4.02500000e-009,-3.09218750e-003
,,,4.05000000e-009,-2.96249999e-003
,,,4.07500000e-009,-2.79999997e-003
,,,4.10000000e-009,-2.61718746e-003
,,,4.12500000e-009,-2.41718745e-003
,,,4.15000000e-009,-2.21406243e-003
,,,4.17500000e-009,-2.02343742e-003
,,,4.20000000e-009,-1.85624991e-003
,,,4.22500000e-009,-1.72499990e-003
,,,4.25000000e-009,-1.63749989e-003
,,,4.27500000e-009,-1.59999989e-003
,,,4.30000000e-009,-1.61874989e-003
,,,4.32500000e-009,-1.67187489e-003
,,,4.35000000e-009,-1.74999990e-003
,,,4.37500000e-009,-1.83906241e-003
,,,4.40000000e-009,-1.92187491e-003
,,,4.42500000e-009,-1.98437492e-003
,,,4.45000000e-009,-2.01406242e-003
,,,4.47500000e-009,-1.99999992e-003
,,,4.50000000e-009,-1.94531241e-003
,,,4.52500000e-009,-1.84062491e-003
,,,4.55000000e-009,-1.69531240e-003
,,,4.57500000e-009,-1.51874988e-003
,,,4.60000000e-009,-1.32656237e-003
,,,4.62500000e-009,-1.13281236e-003
,,,4.65000000e-009,-9.54687344e-004
,,,4.67500000e-009,-7.99999833e-004
,,,4.70000000e-009,-6.95312326e-004
,,,4.72500000e-009,-6.29687321e-004
,,,4.75000000e-009,-6.01562319e-004
,,,4.77500000e-009,-6.06249819e-004
,,,4.80000000e-009,-6.37499822e-004
,,,4.82500000e-009,-6.87499825e-004
,,,4.85000000e-009,-7.43749829e-004
,,,4.87500000e-009,-7.99999833e-004
,,,4.90000000e-009,-8.59374837e-004
,,,4.92500000e-009,-9.01562340e-004
,,,4.95000000e-009,-9.23437342e-004
,,,4.97500000e-009,-9.26562342e-004
,,,5.00000000e-009,-9.09374841e-004
,,,5.02500000e-009,-8.79687339e-004
,,,5.05000000e-009,-8.42187336e-004
,,,5.07500000e-009,-7.99999833e-004
,,,5.10000000e-009,-7.71874831e-004
,,,5.12500000e-009,-7.46874829e-004
,,,5.15000000e-009,-7.28124828e-004
,,,5.17500000e-009,-7.20312327e-004
,,,5.20000000e-009,-7.23437328e-004
,,,5.22500000e-009,-7.39062329e-004
,,,5.25000000e-009,-7.64062331e-004
,,,5.27500000e-009,-7.99999833e-004
,,,5.30000000e-009,-8.51562337e-004
,,,5.32500000e-009,-9.06249841e-004
,,,5.35000000e-009,-9.64062345e-004
,,,5.37500000e-009,-1.02187485e-003
,,,5.40000000e-009,-1.07499985e-003
,,,5.42500000e-009,-1.12499986e-003
,,,5.45000000e-009,-1.16718736e-003
,,,5.47500000e-009,-1.19999986e-003
,,,5.50000000e-009,-1.22812486e-003
,,,5.52500000e-009,-1.24374986e-003
,,,5.55000000e-009,-1.24999986e-003
,,,5.57500000e-009,-1.24843736e-003
,,,5.60000000e-009,-1.24062486e-003
,,,5.62500000e-009,-1.22812486e-003
,,,5.65000000e-009,-1.21406236e-003
,,,5.67500000e-009,-1.19999986e-003
,,,5.70000000e-009,-1.18593736e-003
,,,5.72500000e-009,-1.17656236e-003
,,,5.75000000e-009,-1.17031236e-003
,,,5.77500000e-009,-1.17031236e-003
,,,5.80000000e-009,-1.17343736e-003
