RawData/SinglePhotoelectron/R6_2pt2D_5mV/wave015_Ch4.csv

"Record Length",1000,"Points",-7.72500000e-009,1.71874267e-005
"Sample Interval",2.50000000e-011,s,-7.70000000e-009,2.49999273e-005
"Trigger Point",309,"Samples",-7.67500000e-009,2.96874276e-005
"Trigger Time",1.84229851e-011,s,-7.65000000e-009,3.12499277e-005
"",,,-7.62500000e-009,2.65624274e-005
"Horizontal Offset",-7.72500000e-009,s,-7.60000000e-009,1.56249266e-005
,,,-7.57500000e-009,-7.45058060e-011
,,,-7.55000000e-009,-1.40625755e-005
,,,-7.52500000e-009,-2.96875766e-005
,,,-7.50000000e-009,-4.37500776e-005
,,,-7.47500000e-009,-5.46875784e-005
,,,-7.45000000e-009,-5.93750787e-005
,,,-7.42500000e-009,-5.15625782e-005
,,,-7.40000000e-009,-3.28125768e-005
,,,-7.37500000e-009,-7.45058060e-011
,,,-7.35000000e-009,5.15624291e-005
,,,-7.32500000e-009,1.10937433e-004
,,,-7.30000000e-009,1.76562438e-004
,,,-7.27500000e-009,2.40624943e-004
,,,-7.25000000e-009,2.98437447e-004
,,,-7.22500000e-009,3.46874950e-004
,,,-7.20000000e-009,3.81249952e-004
,,,-7.17500000e-009,3.99999954e-004
,,,-7.15000000e-009,4.04687454e-004
,,,-7.12500000e-009,3.98437454e-004
,,,-7.10000000e-009,3.84374953e-004
,,,-7.07500000e-009,3.68749952e-004
,,,-7.05000000e-009,3.57812451e-004
,,,-7.02500000e-009,3.56249951e-004
,,,-7.00000000e-009,3.70312452e-004
,,,-6.97500000e-009,3.99999954e-004
,,,-6.95000000e-009,4.48437457e-004
,,,-6.92500000e-009,5.09374962e-004
,,,-6.90000000e-009,5.78124966e-004
,,,-6.87500000e-009,6.48437471e-004
,,,-6.85000000e-009,7.12499976e-004
,,,-6.82500000e-009,7.64062480e-004
,,,-6.80000000e-009,7.93749982e-004
,,,-6.77500000e-009,7.99999982e-004
,,,-6.75000000e-009,7.78124981e-004
,,,-6.72500000e-009,7.32812477e-004
,,,-6.70000000e-009,6.71874973e-004
,,,-6.67500000e-009,6.03124968e-004
,,,-6.65000000e-009,5.32812463e-004
,,,-6.62500000e-009,4.70312459e-004
,,,-6.60000000e-009,4.24999956e-004
,,,-6.57500000e-009,3.99999954e-004
,,,-6.55000000e-009,4.01562454e-004
,,,-6.52500000e-009,4.26562456e-004
,,,-6.50000000e-009,4.74999959e-004
,,,-6.47500000e-009,5.37499964e-004
,,,-6.45000000e-009,6.09374969e-004
,,,-6.42500000e-009,6.81249974e-004
,,,-6.40000000e-009,7.46874978e-004
,,,-6.37500000e-009,7.99999982e-004
,,,-6.35000000e-009,8.32812484e-004
,,,-6.32500000e-009,8.48437486e-004
,,,-6.30000000e-009,8.49999986e-004
,,,-6.27500000e-009,8.42187485e-004
,,,-6.25000000e-009,8.28124984e-004
,,,-6.22500000e-009,8.12499983e-004
,,,-6.20000000e-009,8.03124982e-004
,,,-6.17500000e-009,7.99999982e-004
,,,-6.15000000e-009,8.03124982e-004
,,,-6.12500000e-009,8.12499983e-004
,,,-6.10000000e-009,8.28124984e-004
,,,-6.07500000e-009,8.42187485e-004
,,,-6.05000000e-009,8.49999986e-004
,,,-6.02500000e-009,8.48437486e-004
,,,-6.00000000e-009,8.32812484e-004
,,,-5.97500000e-009,7.99999982e-004
,,,-5.95000000e-009,7.51562479e-004
,,,-5.92500000e-009,6.89062474e-004
,,,-5.90000000e-009,6.20312469e-004
,,,-5.87500000e-009,5.51562465e-004
,,,-5.85000000e-009,4.89062460e-004
,,,-5.82500000e-009,4.39062457e-004
,,,-5.80000000e-009,4.07812454e-004
,,,-5.77500000e-009,3.99999954e-004
,,,-5.75000000e-009,4.20312455e-004
,,,-5.72500000e-009,4.60937458e-004
,,,-5.70000000e-009,5.18749962e-004
,,,-5.67500000e-009,5.85937467e-004
,,,-5.65000000e-009,6.54687472e-004
,,,-5.62500000e-009,7.18749976e-004
,,,-5.60000000e-009,7.68749980e-004
,,,-5.57500000e-009,7.99999982e-004
,,,-5.55000000e-009,8.06249983e-004
,,,-5.52500000e-009,7.87499981e-004
,,,-5.50000000e-009,7.46874978e-004
,,,-5.47500000e-009,6.89062474e-004
,,,-5.45000000e-009,6.20312469e-004
,,,-5.42500000e-009,5.43749964e-004
,,,-5.40000000e-009,4.68749959e-004
,,,-5.37500000e-009,3.99999954e-004
,,,-5.35000000e-009,3.48437450e-004
,,,-5.32500000e-009,3.10937448e-004
,,,-5.30000000e-009,2.90624946e-004
,,,-5.27500000e-009,2.87499946e-004
,,,-5.25000000e-009,2.99999947e-004
,,,-5.22500000e-009,3.24999948e-004
,,,-5.20000000e-009,3.59374951e-004
,,,-5.17500000e-009,3.99999954e-004
,,,-5.15000000e-009,4.48437457e-004
,,,-5.12500000e-009,4.98437461e-004
,,,-5.10000000e-009,5.49999964e-004
,,,-5.07500000e-009,5.99999968e-004
,,,-5.05000000e-009,6.51562472e-004
,,,-5.02500000e-009,7.03124975e-004
,,,-5.00000000e-009,7.53124979e-004
,,,-4.97500000e-009,7.99999982e-004
,,,-4.95000000e-009,8.45312485e-004
,,,-4.92500000e-009,8.81249988e-004
,,,-4.90000000e-009,9.07812490e-004
,,,-4.87500000e-009,9.20312491e-004
,,,-4.85000000e-009,9.17187490e-004
,,,-4.82500000e-009,8.96874989e-004
,,,-4.80000000e-009,8.56249986e-004
,,,-4.77500000e-009,7.99999982e-004
,,,-4.75000000e-009,7.26562477e-004
,,,-4.72500000e-009,6.45312471e-004
,,,-4.70000000e-009,5.62499965e-004
,,,-4.67500000e-009,4.89062460e-004
,,,-4.65000000e-009,4.31249956e-004
,,,-4.62500000e-009,3.95312453e-004
,,,-4.60000000e-009,3.84374953e-004
,,,-4.57500000e-009,3.99999954e-004
,,,-4.55000000e-009,4.46874957e-004
,,,-4.52500000e-009,5.10937462e-004
,,,-4.50000000e-009,5.87499967e-004
,,,-4.47500000e-009,6.64062472e-004
,,,-4.45000000e-009,7.31249977e-004
,,,-4.42500000e-009,7.81249981e-004
,,,-4.40000000e-009,8.06249983e-004
,,,-4.37500000e-009,7.99999982e-004
,,,-4.35000000e-009,7.64062480e-004
,,,-4.32500000e-009,7.01562475e-004
,,,-4.30000000e-009,6.26562470e-004
,,,-4.27500000e-009,5.46874964e-004
,,,-4.25000000e-009,4.73437459e-004
,,,-4.22500000e-009,4.20312455e-004
,,,-4.20000000e-009,3.93749953e-004
,,,-4.17500000e-009,3.99999954e-004
,,,-4.15000000e-009,4.39062457e-004
,,,-4.12500000e-009,5.04687461e-004
,,,-4.10000000e-009,5.85937467e-004
,,,-4.07500000e-009,6.71874973e-004
,,,-4.05000000e-009,7.48437478e-004
,,,-4.02500000e-009,8.03124982e-004
,,,-4.00000000e-009,8.21874984e-004
,,,-3.97500000e-009,7.99999982e-004
,,,-3.95000000e-009,7.37499978e-004
,,,-3.92500000e-009,6.39062471e-004
,,,-3.90000000e-009,5.12499962e-004
,,,-3.87500000e-009,3.74999952e-004
,,,-3.85000000e-009,2.40624943e-004
,,,-3.82500000e-009,1.24999934e-004
,,,-3.80000000e-009,4.06249284e-005
,,,-3.77500000e-009,-7.45058060e-011
,,,-3.75000000e-009,1.40624265e-005
,,,-3.72500000e-009,7.34374307e-005
,,,-3.70000000e-009,1.71874938e-004
,,,-3.67500000e-009,2.98437447e-004
,,,-3.65000000e-009,4.39062457e-004
,,,-3.62500000e-009,5.79687467e-004
,,,-3.60000000e-009,7.03124975e-004
,,,-3.57500000e-009,7.99999982e-004
,,,-3.55000000e-009,8.57812486e-004
,,,-3.52500000e-009,8.73437487e-004
,,,-3.50000000e-009,8.49999986e-004
,,,-3.47500000e-009,7.92187482e-004
,,,-3.45000000e-009,7.07812476e-004
,,,-3.42500000e-009,6.07812469e-004
,,,-3.40000000e-009,5.01562461e-004
,,,-3.37500000e-009,3.99999954e-004
,,,-3.35000000e-009,3.18749948e-004
,,,-3.32500000e-009,2.57812444e-004
,,,-3.30000000e-009,2.23437441e-004
,,,-3.27500000e-009,2.15624941e-004
,,,-3.25000000e-009,2.34374942e-004
,,,-3.22500000e-009,2.73437445e-004
,,,-3.20000000e-009,3.31249949e-004
,,,-3.17500000e-009,3.99999954e-004
,,,-3.15000000e-009,4.79687459e-004
,,,-3.12500000e-009,5.57812465e-004
,,,-3.10000000e-009,6.31249970e-004
,,,-3.07500000e-009,6.95312475e-004
,,,-3.05000000e-009,7.45312478e-004
,,,-3.02500000e-009,7.81249981e-004
,,,-3.00000000e-009,7.99999982e-004
,,,-2.97500000e-009,7.99999982e-004
,,,-2.95000000e-009,7.82812481e-004
,,,-2.92500000e-009,7.48437478e-004
,,,-2.90000000e-009,6.99999975e-004
,,,-2.87500000e-009,6.43749971e-004
,,,-2.85000000e-009,5.81249967e-004
,,,-2.82500000e-009,5.17187462e-004
,,,-2.80000000e-009,4.56249958e-004
,,,-2.77500000e-009,3.99999954e-004
,,,-2.75000000e-009,3.51562450e-004
,,,-2.72500000e-009,3.17187448e-004
,,,-2.70000000e-009,2.95312446e-004
,,,-2.67500000e-009,2.89062446e-004
,,,-2.65000000e-009,2.98437447e-004
,,,-2.62500000e-009,3.21874948e-004
,,,-2.60000000e-009,3.56249951e-004
,,,-2.57500000e-009,3.99999954e-004
,,,-2.55000000e-009,4.54687458e-004
,,,-2.52500000e-009,5.10937462e-004
,,,-2.50000000e-009,5.68749966e-004
,,,-2.47500000e-009,6.24999970e-004
,,,-2.45000000e-009,6.76562473e-004
,,,-2.42500000e-009,7.24999977e-004
,,,-2.40000000e-009,7.65624980e-004
,,,-2.37500000e-009,7.99999982e-004
,,,-2.35000000e-009,8.23437484e-004
,,,-2.32500000e-009,8.39062485e-004
,,,-2.30000000e-009,8.46874985e-004
,,,-2.27500000e-009,8.48437486e-004
,,,-2.25000000e-009,8.43749985e-004
,,,-2.22500000e-009,8.34374985e-004
,,,-2.20000000e-009,8.20312484e-004
,,,-2.17500000e-009,7.99999982e-004
,,,-2.15000000e-009,7.70312480e-004
,,,-2.12500000e-009,7.35937478e-004
,,,-2.10000000e-009,6.95312475e-004
,,,-2.07500000e-009,6.48437471e-004
,,,-2.05000000e-009,5.95312468e-004
,,,-2.02500000e-009,5.35937463e-004
,,,-2.00000000e-009,4.70312459e-004
,,,-1.97500000e-009,3.99999954e-004
,,,-1.95000000e-009,3.28124949e-004
,,,-1.92500000e-009,2.54687444e-004
,,,-1.90000000e-009,1.85937439e-004
,,,-1.87500000e-009,1.21874934e-004
,,,-1.85000000e-009,6.87499304e-005
,,,-1.82500000e-009,2.96874276e-005
,,,-1.80000000e-009,6.24992594e-006
,,,-1.77500000e-009,-7.45058060e-011
,,,-1.75000000e-009,1.09374263e-005
,,,-1.72500000e-009,3.74999281e-005
,,,-1.70000000e-009,7.96874311e-005
,,,-1.67500000e-009,1.32812435e-004
,,,-1.65000000e-009,1.95312439e-004
,,,-1.62500000e-009,2.64062444e-004
,,,-1.60000000e-009,3.34374949e-004
,,,-1.57500000e-009,3.99999954e-004
,,,-1.55000000e-009,4.49999957e-004
,,,-1.52500000e-009,4.87499960e-004
,,,-1.50000000e-009,5.09374962e-004
,,,-1.47500000e-009,5.15624962e-004
,,,-1.45000000e-009,5.06249961e-004
,,,-1.42500000e-009,4.82812460e-004
,,,-1.40000000e-009,4.46874957e-004
,,,-1.37500000e-009,3.99999954e-004
,,,-1.35000000e-009,3.34374949e-004
,,,-1.32500000e-009,2.60937444e-004
,,,-1.30000000e-009,1.89062439e-004
,,,-1.27500000e-009,1.23437434e-004
,,,-1.25000000e-009,6.87499304e-005
,,,-1.22500000e-009,2.81249275e-005
,,,-1.20000000e-009,6.24992594e-006
,,,-1.17500000e-009,-7.45058060e-011
,,,-1.15000000e-009,-6.25007495e-006
,,,-1.12500000e-009,-4.68757484e-006
,,,-1.10000000e-009,3.12492572e-006
,,,-1.07500000e-009,1.40624265e-005
,,,-1.05000000e-009,2.18749270e-005
,,,-1.02500000e-009,2.65624274e-005
,,,-1.00000000e-009,2.03124269e-005
,,,-9.75000000e-010,-7.45058060e-011
,,,-9.50000000e-010,-5.78125786e-005
,,,-9.25000000e-010,-1.35937584e-004
,,,-9.00000000e-010,-2.29687591e-004
,,,-8.75000000e-010,-3.39062599e-004
,,,-8.50000000e-010,-4.54687607e-004
,,,-8.25000000e-010,-5.71875115e-004
,,,-8.00000000e-010,-6.89062623e-004
,,,-7.75000000e-010,-8.00000131e-004
,,,-7.50000000e-010,-9.25000140e-004
,,,-7.25000000e-010,-1.04531265e-003
,,,-7.00000000e-010,-1.15625016e-003
,,,-6.75000000e-010,-1.25937516e-003
,,,-6.50000000e-010,-1.35312517e-003
,,,-6.25000000e-010,-1.43906268e-003
,,,-6.00000000e-010,-1.52031268e-003
,,,-5.75000000e-010,-1.60000019e-003
,,,-5.50000000e-010,-1.69843769e-003
,,,-5.25000000e-010,-1.80937520e-003
,,,-5.00000000e-010,-1.93593771e-003
,,,-4.75000000e-010,-2.07812522e-003
,,,-4.50000000e-010,-2.23750023e-003
,,,-4.25000000e-010,-2.41093775e-003
,,,-4.00000000e-010,-2.59843776e-003
,,,-3.75000000e-010,-2.80000027e-003
,,,-3.50000000e-010,-3.01406279e-003
,,,-3.25000000e-010,-3.23593780e-003
,,,-3.00000000e-010,-3.45937532e-003
,,,-2.75000000e-010,-3.67968783e-003
,,,-2.50000000e-010,-3.88906285e-003
,,,-2.25000000e-010,-4.08125036e-003
,,,-2.00000000e-010,-4.25156288e-003
,,,-1.75000000e-010,-4.40000039e-003
,,,-1.50000000e-010,-4.51562539e-003
,,,-1.25000000e-010,-4.61718790e-003
,,,-1.00000000e-010,-4.70937541e-003
,,,-7.50000000e-011,-4.79531291e-003
,,,-5.00000000e-011,-4.88281292e-003
,,,-2.50000000e-011,-4.97656293e-003
,,,0.00000000e+000,-5.08125043e-003
,,,2.50000000e-011,-5.20000044e-003
,,,5.00000000e-011,-5.31406295e-003
,,,7.50000000e-011,-5.45000046e-003
,,,1.00000000e-010,-5.60156297e-003
,,,1.25000000e-010,-5.76406298e-003
,,,1.50000000e-010,-5.93281299e-003
,,,1.75000000e-010,-6.10000051e-003
,,,2.00000000e-010,-6.25781302e-003
,,,2.25000000e-010,-6.40000053e-003
,,,2.50000000e-010,-6.48906303e-003
,,,2.75000000e-010,-6.56250054e-003
,,,3.00000000e-010,-6.61875054e-003
,,,3.25000000e-010,-6.66562555e-003
,,,3.50000000e-010,-6.70312555e-003
,,,3.75000000e-010,-6.73593805e-003
,,,4.00000000e-010,-6.76718805e-003
,,,4.25000000e-010,-6.80000056e-003
,,,4.50000000e-010,-6.79531306e-003
,,,4.75000000e-010,-6.79687556e-003
,,,5.00000000e-010,-6.80156306e-003
,,,5.25000000e-010,-6.80937556e-003
,,,5.50000000e-010,-6.81562556e-003
,,,5.75000000e-010,-6.81875056e-003
,,,6.00000000e-010,-6.81406306e-003
,,,6.25000000e-010,-6.80000056e-003
,,,6.50000000e-010,-6.73750055e-003
,,,6.75000000e-010,-6.67031305e-003
,,,7.00000000e-010,-6.60000054e-003
,,,7.25000000e-010,-6.53437554e-003
,,,7.50000000e-010,-6.47968803e-003
,,,7.75000000e-010,-6.43750053e-003
,,,8.00000000e-010,-6.41093803e-003
,,,8.25000000e-010,-6.40000053e-003
,,,8.50000000e-010,-6.37031303e-003
,,,8.75000000e-010,-6.34843802e-003
,,,9.00000000e-010,-6.32812552e-003
,,,9.25000000e-010,-6.30156302e-003
,,,9.50000000e-010,-6.26093802e-003
,,,9.75000000e-010,-6.20156301e-003
,,,1.00000000e-009,-6.11562551e-003
,,,1.02500000e-009,-6.00000050e-003
,,,1.05000000e-009,-5.82656299e-003
,,,1.07500000e-009,-5.62656297e-003
,,,1.10000000e-009,-5.40781296e-003
,,,1.12500000e-009,-5.17968794e-003
,,,1.15000000e-009,-4.95625043e-003
,,,1.17500000e-009,-4.74687541e-003
,,,1.20000000e-009,-4.55937540e-003
,,,1.22500000e-009,-4.40000039e-003
,,,1.25000000e-009,-4.25937538e-003
,,,1.27500000e-009,-4.14218787e-003
,,,1.30000000e-009,-4.04531286e-003
,,,1.32500000e-009,-3.96093785e-003
,,,1.35000000e-009,-3.88281285e-003
,,,1.37500000e-009,-3.80000034e-003
,,,1.40000000e-009,-3.70781284e-003
,,,1.42500000e-009,-3.60000033e-003
,,,1.45000000e-009,-3.46718782e-003
,,,1.47500000e-009,-3.31406281e-003
,,,1.50000000e-009,-3.14375030e-003
,,,1.52500000e-009,-2.96875028e-003
,,,1.55000000e-009,-2.79687527e-003
,,,1.57500000e-009,-2.63906276e-003
,,,1.60000000e-009,-2.50468775e-003
,,,1.62500000e-009,-2.40000024e-003
,,,1.65000000e-009,-2.32968774e-003
,,,1.67500000e-009,-2.28125024e-003
,,,1.70000000e-009,-2.24687523e-003
,,,1.72500000e-009,-2.22031273e-003
,,,1.75000000e-009,-2.18906273e-003
,,,1.77500000e-009,-2.14687523e-003
,,,1.80000000e-009,-2.08593772e-003
,,,1.82500000e-009,-2.00000022e-003
,,,1.85000000e-009,-1.89375021e-003
,,,1.87500000e-009,-1.75937520e-003
,,,1.90000000e-009,-1.60000019e-003
,,,1.92500000e-009,-1.42500018e-003
,,,1.95000000e-009,-1.24687516e-003
,,,1.97500000e-009,-1.07656265e-003
,,,2.00000000e-009,-9.25000140e-004
,,,2.02500000e-009,-8.00000131e-004
,,,2.05000000e-009,-7.18750125e-004
,,,2.07500000e-009,-6.60937621e-004
,,,2.10000000e-009,-6.20312618e-004
,,,2.12500000e-009,-5.87500116e-004
,,,2.15000000e-009,-5.57812614e-004
,,,2.17500000e-009,-5.20312611e-004
,,,2.20000000e-009,-4.68750108e-004
,,,2.22500000e-009,-4.00000103e-004
,,,2.25000000e-009,-3.21875097e-004
,,,2.27500000e-009,-2.21875090e-004
,,,2.30000000e-009,-1.06250082e-004
,,,2.32500000e-009,1.87499268e-005
,,,2.35000000e-009,1.42187436e-004
,,,2.37500000e-009,2.53124943e-004
,,,2.40000000e-009,3.42187450e-004
,,,2.42500000e-009,3.99999954e-004
,,,2.45000000e-009,4.07812454e-004
,,,2.47500000e-009,3.85937453e-004
,,,2.50000000e-009,3.39062449e-004
,,,2.52500000e-009,2.74999945e-004
,,,2.55000000e-009,2.01562440e-004
,,,2.57500000e-009,1.26562434e-004
,,,2.60000000e-009,5.78124296e-005
,,,2.62500000e-009,-7.45058060e-011
,,,2.65000000e-009,-4.68750778e-005
,,,2.67500000e-009,-7.18750796e-005
,,,2.70000000e-009,-7.65625799e-005
,,,2.72500000e-009,-6.71875793e-005
,,,2.75000000e-009,-4.84375779e-005
,,,2.77500000e-009,-2.81250765e-005
,,,2.80000000e-009,-9.37507517e-006
,,,2.82500000e-009,-7.45058060e-011
,,,2.85000000e-009,-6.25007495e-006
,,,2.87500000e-009,-2.03125759e-005
,,,2.90000000e-009,-3.75000772e-005
,,,2.92500000e-009,-5.15625782e-005
,,,2.95000000e-009,-5.93750787e-005
,,,2.97500000e-009,-5.62500785e-005
,,,3.00000000e-009,-3.59375770e-005
,,,3.02500000e-009,-7.45058060e-011
,,,3.05000000e-009,5.46874294e-005
,,,3.07500000e-009,1.23437434e-004
,,,3.10000000e-009,1.98437440e-004
,,,3.12500000e-009,2.71874945e-004
,,,3.15000000e-009,3.37499949e-004
,,,3.17500000e-009,3.84374953e-004
,,,3.20000000e-009,4.06249954e-004
,,,3.22500000e-009,3.99999954e-004
,,,3.25000000e-009,3.65624951e-004
,,,3.27500000e-009,3.07812447e-004
,,,3.30000000e-009,2.35937442e-004
,,,3.32500000e-009,1.59374937e-004
,,,3.35000000e-009,8.90624318e-005
,,,3.37500000e-009,3.43749279e-005
,,,3.40000000e-009,3.12492572e-006
,,,3.42500000e-009,-7.45058060e-011
,,,3.45000000e-009,3.28124278e-005
,,,3.47500000e-009,8.90624318e-005
,,,3.50000000e-009,1.60937437e-004
,,,3.52500000e-009,2.40624943e-004
,,,3.55000000e-009,3.14062448e-004
,,,3.57500000e-009,3.70312452e-004
,,,3.60000000e-009,4.01562454e-004
,,,3.62500000e-009,3.99999954e-004
,,,3.65000000e-009,3.68749952e-004
,,,3.67500000e-009,3.10937448e-004
,,,3.70000000e-009,2.35937442e-004
,,,3.72500000e-009,1.53124936e-004
,,,3.75000000e-009,7.65624309e-005
,,,3.77500000e-009,2.03124269e-005
,,,3.80000000e-009,-7.81257506e-006
,,,3.82500000e-009,-7.45058060e-011
,,,3.85000000e-009,5.15624291e-005
,,,3.87500000e-009,1.39062435e-004
,,,3.90000000e-009,2.54687444e-004
,,,3.92500000e-009,3.85937453e-004
,,,3.95000000e-009,5.18749962e-004
,,,3.97500000e-009,6.39062471e-004
,,,4.00000000e-009,7.37499978e-004
,,,4.02500000e-009,7.99999982e-004
,,,4.05000000e-009,8.21874984e-004
,,,4.07500000e-009,8.06249983e-004
,,,4.10000000e-009,7.59374979e-004
,,,4.12500000e-009,6.87499974e-004
,,,4.15000000e-009,6.04687468e-004
,,,4.17500000e-009,5.21874962e-004
,,,4.20000000e-009,4.51562457e-004
,,,4.22500000e-009,3.99999954e-004
,,,4.25000000e-009,3.79687452e-004
,,,4.27500000e-009,3.90624953e-004
,,,4.30000000e-009,4.28124956e-004
,,,4.32500000e-009,4.89062460e-004
,,,4.35000000e-009,5.65624966e-004
,,,4.37500000e-009,6.48437471e-004
,,,4.40000000e-009,7.29687477e-004
,,,4.42500000e-009,7.99999982e-004
,,,4.45000000e-009,8.53124986e-004
,,,4.47500000e-009,8.85937488e-004
,,,4.50000000e-009,8.98437489e-004
,,,4.52500000e-009,8.96874989e-004
,,,4.55000000e-009,8.79687488e-004
,,,4.57500000e-009,8.56249986e-004
,,,4.60000000e-009,8.28124984e-004
,,,4.62500000e-009,7.99999982e-004
,,,4.65000000e-009,7.74999980e-004
,,,4.67500000e-009,7.57812479e-004
,,,4.70000000e-009,7.48437478e-004
,,,4.72500000e-009,7.48437478e-004
,,,4.75000000e-009,7.54687479e-004
,,,4.77500000e-009,7.67187480e-004
,,,4.80000000e-009,7.84374981e-004
,,,4.82500000e-009,7.99999982e-004
,,,4.85000000e-009,8.10937483e-004
,,,4.87500000e-009,8.18749983e-004
,,,4.90000000e-009,8.23437484e-004
,,,4.92500000e-009,8.24999984e-004
,,,4.95000000e-009,8.21874984e-004
,,,4.97500000e-009,8.17187483e-004
,,,5.00000000e-009,8.09374983e-004
,,,5.02500000e-009,7.99999982e-004
,,,5.05000000e-009,7.90624981e-004
,,,5.07500000e-009,7.81249981e-004
,,,5.10000000e-009,7.73437480e-004
,,,5.12500000e-009,7.70312480e-004
,,,5.15000000e-009,7.70312480e-004
,,,5.17500000e-009,7.76562480e-004
,,,5.20000000e-009,7.85937481e-004
,,,5.22500000e-009,7.99999982e-004
,,,5.25000000e-009,8.12499983e-004
,,,5.27500000e-009,8.23437484e-004
,,,5.30000000e-009,8.34374985e-004
,,,5.32500000e-009,8.42187485e-004
,,,5.35000000e-009,8.43749985e-004
,,,5.37500000e-009,8.37499985e-004
,,,5.40000000e-009,8.24999984e-004
,,,5.42500000e-009,7.99999982e-004
,,,5.45000000e-009,7.65624980e-004
,,,5.47500000e-009,7.21874977e-004
,,,5.50000000e-009,6.71874973e-004
,,,5.52500000e-009,6.15624969e-004
,,,5.55000000e-009,5.57812465e-004
,,,5.57500000e-009,5.01562461e-004
,,,5.60000000e-009,4.48437457e-004
,,,5.62500000e-009,3.99999954e-004
,,,5.65000000e-009,3.64062451e-004
,,,5.67500000e-009,3.37499949e-004
,,,5.70000000e-009,3.23437448e-004
,,,5.72500000e-009,3.20312448e-004
,,,5.75000000e-009,3.28124949e-004
,,,5.77500000e-009,3.45312450e-004
,,,5.80000000e-009,3.70312452e-004
,,,5.82500000e-009,3.99999954e-004
,,,5.85000000e-009,4.32812456e-004
,,,5.87500000e-009,4.62499958e-004
,,,5.90000000e-009,4.84374960e-004
,,,5.92500000e-009,4.96874961e-004
,,,5.95000000e-009,4.95312461e-004
,,,5.97500000e-009,4.79687459e-004
,,,6.00000000e-009,4.46874957e-004
,,,6.02500000e-009,3.99999954e-004
,,,6.05000000e-009,3.42187450e-004
,,,6.07500000e-009,2.74999945e-004
