RawData/SinglePhotoelectron/R6_2pt2D_5mV/wave017_Ch4.csv

"Record Length",1000,"Points",-7.72500000e-009,2.96874276e-005
"Sample Interval",2.50000000e-011,s,-7.70000000e-009,7.34374307e-005
"Trigger Point",309,"Samples",-7.67500000e-009,1.29687435e-004
"Trigger Time",1.67872956e-011,s,-7.65000000e-009,1.92187439e-004
"",,,-7.62500000e-009,2.54687444e-004
"Horizontal Offset",-7.72500000e-009,s,-7.60000000e-009,3.14062448e-004
,,,-7.57500000e-009,3.64062451e-004
,,,-7.55000000e-009,3.99999954e-004
,,,-7.52500000e-009,4.28124956e-004
,,,-7.50000000e-009,4.40624957e-004
,,,-7.47500000e-009,4.42187457e-004
,,,-7.45000000e-009,4.32812456e-004
,,,-7.42500000e-009,4.20312455e-004
,,,-7.40000000e-009,4.07812454e-004
,,,-7.37500000e-009,3.99999954e-004
,,,-7.35000000e-009,3.99999954e-004
,,,-7.32500000e-009,4.14062455e-004
,,,-7.30000000e-009,4.40624957e-004
,,,-7.27500000e-009,4.82812460e-004
,,,-7.25000000e-009,5.35937463e-004
,,,-7.22500000e-009,5.98437468e-004
,,,-7.20000000e-009,6.65624973e-004
,,,-7.17500000e-009,7.35937478e-004
,,,-7.15000000e-009,7.99999982e-004
,,,-7.12500000e-009,8.56249986e-004
,,,-7.10000000e-009,8.98437489e-004
,,,-7.07500000e-009,9.24999991e-004
,,,-7.05000000e-009,9.35937492e-004
,,,-7.02500000e-009,9.26562491e-004
,,,-7.00000000e-009,9.01562489e-004
,,,-6.97500000e-009,8.57812486e-004
,,,-6.95000000e-009,7.99999982e-004
,,,-6.92500000e-009,7.29687477e-004
,,,-6.90000000e-009,6.56249972e-004
,,,-6.87500000e-009,5.82812467e-004
,,,-6.85000000e-009,5.15624962e-004
,,,-6.82500000e-009,4.60937458e-004
,,,-6.80000000e-009,4.20312455e-004
,,,-6.77500000e-009,3.99999954e-004
,,,-6.75000000e-009,3.99999954e-004
,,,-6.72500000e-009,4.21874955e-004
,,,-6.70000000e-009,4.60937458e-004
,,,-6.67500000e-009,5.14062462e-004
,,,-6.65000000e-009,5.76562466e-004
,,,-6.62500000e-009,6.42187471e-004
,,,-6.60000000e-009,7.04687475e-004
,,,-6.57500000e-009,7.57812479e-004
,,,-6.55000000e-009,7.99999982e-004
,,,-6.52500000e-009,8.26562484e-004
,,,-6.50000000e-009,8.39062485e-004
,,,-6.47500000e-009,8.40624985e-004
,,,-6.45000000e-009,8.32812484e-004
,,,-6.42500000e-009,8.21874984e-004
,,,-6.40000000e-009,8.10937483e-004
,,,-6.37500000e-009,8.03124982e-004
,,,-6.35000000e-009,7.99999982e-004
,,,-6.32500000e-009,8.04687482e-004
,,,-6.30000000e-009,8.14062483e-004
,,,-6.27500000e-009,8.26562484e-004
,,,-6.25000000e-009,8.40624985e-004
,,,-6.22500000e-009,8.46874985e-004
,,,-6.20000000e-009,8.45312485e-004
,,,-6.17500000e-009,8.31249984e-004
,,,-6.15000000e-009,7.99999982e-004
,,,-6.12500000e-009,7.56249979e-004
,,,-6.10000000e-009,6.99999975e-004
,,,-6.07500000e-009,6.34374970e-004
,,,-6.05000000e-009,5.68749966e-004
,,,-6.02500000e-009,5.06249961e-004
,,,-6.00000000e-009,4.53124958e-004
,,,-5.97500000e-009,4.17187455e-004
,,,-5.95000000e-009,3.99999954e-004
,,,-5.92500000e-009,4.09374954e-004
,,,-5.90000000e-009,4.39062457e-004
,,,-5.87500000e-009,4.85937460e-004
,,,-5.85000000e-009,5.46874964e-004
,,,-5.82500000e-009,6.14062469e-004
,,,-5.80000000e-009,6.82812474e-004
,,,-5.77500000e-009,7.46874978e-004
,,,-5.75000000e-009,7.99999982e-004
,,,-5.72500000e-009,8.35937485e-004
,,,-5.70000000e-009,8.57812486e-004
,,,-5.67500000e-009,8.64062487e-004
,,,-5.65000000e-009,8.59374986e-004
,,,-5.62500000e-009,8.46874985e-004
,,,-5.60000000e-009,8.29687484e-004
,,,-5.57500000e-009,8.14062483e-004
,,,-5.55000000e-009,7.99999982e-004
,,,-5.52500000e-009,7.90624981e-004
,,,-5.50000000e-009,7.87499981e-004
,,,-5.47500000e-009,7.87499981e-004
,,,-5.45000000e-009,7.92187482e-004
,,,-5.42500000e-009,7.96874982e-004
,,,-5.40000000e-009,8.01562482e-004
,,,-5.37500000e-009,8.03124982e-004
,,,-5.35000000e-009,7.99999982e-004
,,,-5.32500000e-009,7.92187482e-004
,,,-5.30000000e-009,7.81249981e-004
,,,-5.27500000e-009,7.68749980e-004
,,,-5.25000000e-009,7.59374979e-004
,,,-5.22500000e-009,7.56249979e-004
,,,-5.20000000e-009,7.60937479e-004
,,,-5.17500000e-009,7.76562480e-004
,,,-5.15000000e-009,7.99999982e-004
,,,-5.12500000e-009,8.31249984e-004
,,,-5.10000000e-009,8.62499987e-004
,,,-5.07500000e-009,8.92187489e-004
,,,-5.05000000e-009,9.14062490e-004
,,,-5.02500000e-009,9.18749991e-004
,,,-5.00000000e-009,9.04687490e-004
,,,-4.97500000e-009,8.65624987e-004
,,,-4.95000000e-009,7.99999982e-004
,,,-4.92500000e-009,7.09374976e-004
,,,-4.90000000e-009,5.98437468e-004
,,,-4.87500000e-009,4.76562459e-004
,,,-4.85000000e-009,3.53124950e-004
,,,-4.82500000e-009,2.34374942e-004
,,,-4.80000000e-009,1.32812435e-004
,,,-4.77500000e-009,5.15624291e-005
,,,-4.75000000e-009,-7.45058060e-011
,,,-4.72500000e-009,-1.25000754e-005
,,,-4.70000000e-009,4.68742583e-006
,,,-4.67500000e-009,4.84374289e-005
,,,-4.65000000e-009,1.12499933e-004
,,,-4.62500000e-009,1.87499939e-004
,,,-4.60000000e-009,2.65624944e-004
,,,-4.57500000e-009,3.39062449e-004
,,,-4.55000000e-009,3.99999954e-004
,,,-4.52500000e-009,4.49999957e-004
,,,-4.50000000e-009,4.81249960e-004
,,,-4.47500000e-009,4.92187460e-004
,,,-4.45000000e-009,4.87499960e-004
,,,-4.42500000e-009,4.71874959e-004
,,,-4.40000000e-009,4.48437457e-004
,,,-4.37500000e-009,4.23437455e-004
,,,-4.35000000e-009,3.99999954e-004
,,,-4.32500000e-009,3.87499953e-004
,,,-4.30000000e-009,3.79687452e-004
,,,-4.27500000e-009,3.79687452e-004
,,,-4.25000000e-009,3.84374953e-004
,,,-4.22500000e-009,3.90624953e-004
,,,-4.20000000e-009,3.96874954e-004
,,,-4.17500000e-009,4.01562454e-004
,,,-4.15000000e-009,3.99999954e-004
,,,-4.12500000e-009,3.98437454e-004
,,,-4.10000000e-009,3.92187453e-004
,,,-4.07500000e-009,3.84374953e-004
,,,-4.05000000e-009,3.74999952e-004
,,,-4.02500000e-009,3.68749952e-004
,,,-4.00000000e-009,3.70312452e-004
,,,-3.97500000e-009,3.79687452e-004
,,,-3.95000000e-009,3.99999954e-004
,,,-3.92500000e-009,4.40624957e-004
,,,-3.90000000e-009,4.90624960e-004
,,,-3.87500000e-009,5.46874964e-004
,,,-3.85000000e-009,6.07812469e-004
,,,-3.82500000e-009,6.67187473e-004
,,,-3.80000000e-009,7.21874977e-004
,,,-3.77500000e-009,7.67187480e-004
,,,-3.75000000e-009,7.99999982e-004
,,,-3.72500000e-009,8.18749983e-004
,,,-3.70000000e-009,8.26562484e-004
,,,-3.67500000e-009,8.24999984e-004
,,,-3.65000000e-009,8.17187483e-004
,,,-3.62500000e-009,8.09374983e-004
,,,-3.60000000e-009,8.01562482e-004
,,,-3.57500000e-009,7.98437482e-004
,,,-3.55000000e-009,7.99999982e-004
,,,-3.52500000e-009,8.10937483e-004
,,,-3.50000000e-009,8.26562484e-004
,,,-3.47500000e-009,8.42187485e-004
,,,-3.45000000e-009,8.54687486e-004
,,,-3.42500000e-009,8.60937486e-004
,,,-3.40000000e-009,8.54687486e-004
,,,-3.37500000e-009,8.34374985e-004
,,,-3.35000000e-009,7.99999982e-004
,,,-3.32500000e-009,7.59374979e-004
,,,-3.30000000e-009,7.15624976e-004
,,,-3.27500000e-009,6.76562473e-004
,,,-3.25000000e-009,6.48437471e-004
,,,-3.22500000e-009,6.42187471e-004
,,,-3.20000000e-009,6.62499972e-004
,,,-3.17500000e-009,7.15624976e-004
,,,-3.15000000e-009,7.99999982e-004
,,,-3.12500000e-009,9.14062490e-004
,,,-3.10000000e-009,1.04843750e-003
,,,-3.07500000e-009,1.19218751e-003
,,,-3.05000000e-009,1.33125002e-003
,,,-3.02500000e-009,1.45312503e-003
,,,-3.00000000e-009,1.54375003e-003
,,,-2.97500000e-009,1.59531254e-003
,,,-2.95000000e-009,1.60000004e-003
,,,-2.92500000e-009,1.55000004e-003
,,,-2.90000000e-009,1.45937503e-003
,,,-2.87500000e-009,1.33906252e-003
,,,-2.85000000e-009,1.20312501e-003
,,,-2.82500000e-009,1.06562500e-003
,,,-2.80000000e-009,9.43749992e-004
,,,-2.77500000e-009,8.53124986e-004
,,,-2.75000000e-009,7.99999982e-004
,,,-2.72500000e-009,7.98437482e-004
,,,-2.70000000e-009,8.42187485e-004
,,,-2.67500000e-009,9.29687491e-004
,,,-2.65000000e-009,1.04843750e-003
,,,-2.62500000e-009,1.18906251e-003
,,,-2.60000000e-009,1.33593752e-003
,,,-2.57500000e-009,1.47656253e-003
,,,-2.55000000e-009,1.60000004e-003
,,,-2.52500000e-009,1.69062505e-003
,,,-2.50000000e-009,1.74687505e-003
,,,-2.47500000e-009,1.77343755e-003
,,,-2.45000000e-009,1.77031255e-003
,,,-2.42500000e-009,1.74375005e-003
,,,-2.40000000e-009,1.70312505e-003
,,,-2.37500000e-009,1.65312504e-003
,,,-2.35000000e-009,1.60000004e-003
,,,-2.32500000e-009,1.54375003e-003
,,,-2.30000000e-009,1.49218753e-003
,,,-2.27500000e-009,1.44531253e-003
,,,-2.25000000e-009,1.40312502e-003
,,,-2.22500000e-009,1.35937502e-003
,,,-2.20000000e-009,1.31406252e-003
,,,-2.17500000e-009,1.26093751e-003
,,,-2.15000000e-009,1.20000001e-003
,,,-2.12500000e-009,1.12812501e-003
,,,-2.10000000e-009,1.05156250e-003
,,,-2.07500000e-009,9.74999995e-004
,,,-2.05000000e-009,9.04687490e-004
,,,-2.02500000e-009,8.48437486e-004
,,,-2.00000000e-009,8.09374983e-004
,,,-1.97500000e-009,7.92187482e-004
,,,-1.95000000e-009,7.99999982e-004
,,,-1.92500000e-009,8.34374985e-004
,,,-1.90000000e-009,8.85937488e-004
,,,-1.87500000e-009,9.49999993e-004
,,,-1.85000000e-009,1.02031250e-003
,,,-1.82500000e-009,1.08593750e-003
,,,-1.80000000e-009,1.14375001e-003
,,,-1.77500000e-009,1.18281251e-003
,,,-1.75000000e-009,1.20000001e-003
,,,-1.72500000e-009,1.18750001e-003
,,,-1.70000000e-009,1.15156251e-003
,,,-1.67500000e-009,1.09843750e-003
,,,-1.65000000e-009,1.03281250e-003
,,,-1.62500000e-009,9.64062494e-004
,,,-1.60000000e-009,8.98437489e-004
,,,-1.57500000e-009,8.42187485e-004
,,,-1.55000000e-009,7.99999982e-004
,,,-1.52500000e-009,7.74999980e-004
,,,-1.50000000e-009,7.64062480e-004
,,,-1.47500000e-009,7.65624980e-004
,,,-1.45000000e-009,7.76562480e-004
,,,-1.42500000e-009,7.90624981e-004
,,,-1.40000000e-009,8.03124982e-004
,,,-1.37500000e-009,8.07812483e-004
,,,-1.35000000e-009,7.99999982e-004
,,,-1.32500000e-009,7.70312480e-004
,,,-1.30000000e-009,7.21874977e-004
,,,-1.27500000e-009,6.62499972e-004
,,,-1.25000000e-009,5.96874968e-004
,,,-1.22500000e-009,5.32812463e-004
,,,-1.20000000e-009,4.73437459e-004
,,,-1.17500000e-009,4.29687456e-004
,,,-1.15000000e-009,3.99999954e-004
,,,-1.12500000e-009,3.74999952e-004
,,,-1.10000000e-009,3.62499951e-004
,,,-1.07500000e-009,3.60937451e-004
,,,-1.05000000e-009,3.68749952e-004
,,,-1.02500000e-009,3.79687452e-004
,,,-1.00000000e-009,3.92187453e-004
,,,-9.75000000e-010,3.99999954e-004
,,,-9.50000000e-010,3.99999954e-004
,,,-9.25000000e-010,3.64062451e-004
,,,-9.00000000e-010,3.10937448e-004
,,,-8.75000000e-010,2.48437443e-004
,,,-8.50000000e-010,1.82812438e-004
,,,-8.25000000e-010,1.20312434e-004
,,,-8.00000000e-010,6.56249301e-005
,,,-7.75000000e-010,2.49999273e-005
,,,-7.50000000e-010,-7.45058060e-011
,,,-7.25000000e-010,-3.90625773e-005
,,,-7.00000000e-010,-7.50000798e-005
,,,-6.75000000e-010,-1.09375082e-004
,,,-6.50000000e-010,-1.45312585e-004
,,,-6.25000000e-010,-1.87500088e-004
,,,-6.00000000e-010,-2.40625092e-004
,,,-5.75000000e-010,-3.09375096e-004
,,,-5.50000000e-010,-4.00000103e-004
,,,-5.25000000e-010,-5.50000113e-004
,,,-5.00000000e-010,-7.31250126e-004
,,,-4.75000000e-010,-9.34375141e-004
,,,-4.50000000e-010,-1.15156266e-003
,,,-4.25000000e-010,-1.37500017e-003
,,,-4.00000000e-010,-1.59531269e-003
,,,-3.75000000e-010,-1.80468770e-003
,,,-3.50000000e-010,-2.00000022e-003
,,,-3.25000000e-010,-2.20312523e-003
,,,-3.00000000e-010,-2.40000024e-003
,,,-2.75000000e-010,-2.59218776e-003
,,,-2.50000000e-010,-2.78125027e-003
,,,-2.25000000e-010,-2.97343778e-003
,,,-2.00000000e-010,-3.17187530e-003
,,,-1.75000000e-010,-3.37968781e-003
,,,-1.50000000e-010,-3.60000033e-003
,,,-1.25000000e-010,-3.84843785e-003
,,,-1.00000000e-010,-4.11250037e-003
,,,-7.50000000e-011,-4.38750039e-003
,,,-5.00000000e-011,-4.66250040e-003
,,,-2.50000000e-011,-4.92812542e-003
,,,0.00000000e+000,-5.17656294e-003
,,,2.50000000e-011,-5.40156296e-003
,,,5.00000000e-011,-5.60000047e-003
,,,7.50000000e-011,-5.77187548e-003
,,,1.00000000e-010,-5.93281299e-003
,,,1.25000000e-010,-6.09531301e-003
,,,1.50000000e-010,-6.26562552e-003
,,,1.75000000e-010,-6.45468803e-003
,,,2.00000000e-010,-6.67031305e-003
,,,2.25000000e-010,-6.91718806e-003
,,,2.50000000e-010,-7.20000058e-003
,,,2.75000000e-010,-7.49375060e-003
,,,3.00000000e-010,-7.82031313e-003
,,,3.25000000e-010,-8.16406315e-003
,,,3.50000000e-010,-8.51093818e-003
,,,3.75000000e-010,-8.84375070e-003
,,,4.00000000e-010,-9.14687572e-003
,,,4.25000000e-010,-9.40156324e-003
,,,4.50000000e-010,-9.60000075e-003
,,,4.75000000e-010,-9.68906326e-003
,,,5.00000000e-010,-9.72500076e-003
,,,5.25000000e-010,-9.72187576e-003
,,,5.50000000e-010,-9.69218826e-003
,,,5.75000000e-010,-9.65000076e-003
,,,6.00000000e-010,-9.61250075e-003
,,,6.25000000e-010,-9.59218825e-003
,,,6.50000000e-010,-9.60000075e-003
,,,6.75000000e-010,-9.59687575e-003
,,,7.00000000e-010,-9.63906326e-003
,,,7.25000000e-010,-9.72031326e-003
,,,7.50000000e-010,-9.83593827e-003
,,,7.75000000e-010,-9.97500078e-003
,,,8.00000000e-010,-1.01234383e-002
,,,8.25000000e-010,-1.02687508e-002
,,,8.50000000e-010,-1.04000008e-002
,,,8.75000000e-010,-1.04515633e-002
,,,9.00000000e-010,-1.04796883e-002
,,,9.25000000e-010,-1.04859383e-002
,,,9.50000000e-010,-1.04765633e-002
,,,9.75000000e-010,-1.04578133e-002
,,,1.00000000e-009,-1.04359383e-002
,,,1.02500000e-009,-1.04156258e-002
,,,1.05000000e-009,-1.04000008e-002
,,,1.07500000e-009,-1.03328133e-002
,,,1.10000000e-009,-1.02687508e-002
,,,1.12500000e-009,-1.02000008e-002
,,,1.15000000e-009,-1.01234383e-002
,,,1.17500000e-009,-1.00312508e-002
,,,1.20000000e-009,-9.91718828e-003
,,,1.22500000e-009,-9.77343827e-003
,,,1.25000000e-009,-9.60000075e-003
,,,1.27500000e-009,-9.35000074e-003
,,,1.30000000e-009,-9.07656322e-003
,,,1.32500000e-009,-8.78906320e-003
,,,1.35000000e-009,-8.50156318e-003
,,,1.37500000e-009,-8.22656316e-003
,,,1.40000000e-009,-7.97968814e-003
,,,1.42500000e-009,-7.76875062e-003
,,,1.45000000e-009,-7.60000061e-003
,,,1.47500000e-009,-7.45312560e-003
,,,1.50000000e-009,-7.34062559e-003
,,,1.52500000e-009,-7.25312559e-003
,,,1.55000000e-009,-7.17968808e-003
,,,1.57500000e-009,-7.10937558e-003
,,,1.60000000e-009,-7.02968807e-003
,,,1.62500000e-009,-6.92968806e-003
,,,1.65000000e-009,-6.80000056e-003
,,,1.67500000e-009,-6.62187554e-003
,,,1.70000000e-009,-6.40468803e-003
,,,1.72500000e-009,-6.15312551e-003
,,,1.75000000e-009,-5.87968799e-003
,,,1.77500000e-009,-5.59531297e-003
,,,1.80000000e-009,-5.31250045e-003
,,,1.82500000e-009,-5.04375043e-003
,,,1.85000000e-009,-4.80000041e-003
,,,1.87500000e-009,-4.58750040e-003
,,,1.90000000e-009,-4.40156289e-003
,,,1.92500000e-009,-4.23750037e-003
,,,1.95000000e-009,-4.09375036e-003
,,,1.97500000e-009,-3.96406286e-003
,,,2.00000000e-009,-3.84218785e-003
,,,2.02500000e-009,-3.72187534e-003
,,,2.05000000e-009,-3.60000033e-003
,,,2.07500000e-009,-3.48281282e-003
,,,2.10000000e-009,-3.34843781e-003
,,,2.12500000e-009,-3.19687530e-003
,,,2.15000000e-009,-3.03437529e-003
,,,2.17500000e-009,-2.86406278e-003
,,,2.20000000e-009,-2.69687527e-003
,,,2.22500000e-009,-2.54062525e-003
,,,2.25000000e-009,-2.40000024e-003
,,,2.27500000e-009,-2.30156274e-003
,,,2.30000000e-009,-2.21875023e-003
,,,2.32500000e-009,-2.15156273e-003
,,,2.35000000e-009,-2.09843772e-003
,,,2.37500000e-009,-2.05937522e-003
,,,2.40000000e-009,-2.03281272e-003
,,,2.42500000e-009,-2.01406272e-003
,,,2.45000000e-009,-2.00000022e-003
,,,2.47500000e-009,-2.00000022e-003
,,,2.50000000e-009,-1.98906272e-003
,,,2.52500000e-009,-1.96250021e-003
,,,2.55000000e-009,-1.92031271e-003
,,,2.57500000e-009,-1.86250021e-003
,,,2.60000000e-009,-1.78750020e-003
,,,2.62500000e-009,-1.69843769e-003
,,,2.65000000e-009,-1.60000019e-003
,,,2.67500000e-009,-1.50468768e-003
,,,2.70000000e-009,-1.39843767e-003
,,,2.72500000e-009,-1.28593767e-003
,,,2.75000000e-009,-1.17187516e-003
,,,2.77500000e-009,-1.06093765e-003
,,,2.80000000e-009,-9.59375142e-004
,,,2.82500000e-009,-8.70312636e-004
,,,2.85000000e-009,-8.00000131e-004
,,,2.87500000e-009,-7.59375128e-004
,,,2.90000000e-009,-7.34375126e-004
,,,2.92500000e-009,-7.23437626e-004
,,,2.95000000e-009,-7.23437626e-004
,,,2.97500000e-009,-7.34375126e-004
,,,3.00000000e-009,-7.51562628e-004
,,,3.02500000e-009,-7.75000129e-004
,,,3.05000000e-009,-8.00000131e-004
,,,3.07500000e-009,-8.31250133e-004
,,,3.10000000e-009,-8.56250135e-004
,,,3.12500000e-009,-8.71875136e-004
,,,3.15000000e-009,-8.76562637e-004
,,,3.17500000e-009,-8.70312636e-004
,,,3.20000000e-009,-8.54687635e-004
,,,3.22500000e-009,-8.31250133e-004
,,,3.25000000e-009,-8.00000131e-004
,,,3.27500000e-009,-7.64062629e-004
,,,3.30000000e-009,-7.21875126e-004
,,,3.32500000e-009,-6.73437622e-004
,,,3.35000000e-009,-6.21875119e-004
,,,3.37500000e-009,-5.67187615e-004
,,,3.40000000e-009,-5.10937611e-004
,,,3.42500000e-009,-4.54687607e-004
,,,3.45000000e-009,-4.00000103e-004
,,,3.47500000e-009,-3.51562599e-004
,,,3.50000000e-009,-3.03125096e-004
,,,3.52500000e-009,-2.54687593e-004
,,,3.55000000e-009,-2.04687589e-004
,,,3.57500000e-009,-1.53125085e-004
,,,3.60000000e-009,-1.01562582e-004
,,,3.62500000e-009,-5.00000780e-005
,,,3.65000000e-009,-7.45058060e-011
,,,3.67500000e-009,4.21874285e-005
,,,3.70000000e-009,7.81249310e-005
,,,3.72500000e-009,1.04687433e-004
,,,3.75000000e-009,1.18749934e-004
,,,3.77500000e-009,1.17187434e-004
,,,3.80000000e-009,9.68749324e-005
,,,3.82500000e-009,5.78124296e-005
,,,3.85000000e-009,-7.45058060e-011
,,,3.87500000e-009,-7.34375797e-005
,,,3.90000000e-009,-1.54687585e-004
,,,3.92500000e-009,-2.37500091e-004
,,,3.95000000e-009,-3.10937597e-004
,,,3.97500000e-009,-3.68750101e-004
,,,4.00000000e-009,-4.04687603e-004
,,,4.02500000e-009,-4.15625104e-004
,,,4.05000000e-009,-4.00000103e-004
,,,4.07500000e-009,-3.53125100e-004
,,,4.10000000e-009,-2.85937595e-004
,,,4.12500000e-009,-2.07812589e-004
,,,4.15000000e-009,-1.26562583e-004
,,,4.17500000e-009,-5.78125786e-005
,,,4.20000000e-009,-9.37507517e-006
,,,4.22500000e-009,1.24999264e-005
,,,4.25000000e-009,-7.45058060e-011
,,,4.27500000e-009,-4.37500776e-005
,,,4.30000000e-009,-1.10937582e-004
,,,4.32500000e-009,-1.93750088e-004
,,,4.35000000e-009,-2.78125094e-004
,,,4.37500000e-009,-3.51562599e-004
,,,4.40000000e-009,-4.01562603e-004
,,,4.42500000e-009,-4.20312604e-004
,,,4.45000000e-009,-4.00000103e-004
,,,4.47500000e-009,-3.32812598e-004
,,,4.50000000e-009,-2.31250091e-004
,,,4.52500000e-009,-1.04687582e-004
,,,4.55000000e-009,3.12499277e-005
,,,4.57500000e-009,1.64062437e-004
,,,4.60000000e-009,2.78124945e-004
,,,4.62500000e-009,3.59374951e-004
,,,4.65000000e-009,3.99999954e-004
,,,4.67500000e-009,3.99999954e-004
,,,4.70000000e-009,3.60937451e-004
,,,4.72500000e-009,2.92187446e-004
,,,4.75000000e-009,2.07812440e-004
,,,4.77500000e-009,1.21874934e-004
,,,4.80000000e-009,4.99999290e-005
,,,4.82500000e-009,7.81242605e-006
,,,4.85000000e-009,-7.45058060e-011
,,,4.87500000e-009,4.06249284e-005
,,,4.90000000e-009,1.18749934e-004
,,,4.92500000e-009,2.29687442e-004
,,,4.95000000e-009,3.60937451e-004
,,,4.97500000e-009,4.98437461e-004
,,,5.00000000e-009,6.24999970e-004
,,,5.02500000e-009,7.29687477e-004
,,,5.05000000e-009,7.99999982e-004
,,,5.07500000e-009,8.26562484e-004
,,,5.10000000e-009,8.14062483e-004
,,,5.12500000e-009,7.67187480e-004
,,,5.15000000e-009,6.96874975e-004
,,,5.17500000e-009,6.12499969e-004
,,,5.20000000e-009,5.26562463e-004
,,,5.22500000e-009,4.53124958e-004
,,,5.25000000e-009,3.99999954e-004
,,,5.27500000e-009,3.74999952e-004
,,,5.30000000e-009,3.81249952e-004
,,,5.32500000e-009,4.15624955e-004
,,,5.35000000e-009,4.76562459e-004
,,,5.37500000e-009,5.53124965e-004
,,,5.40000000e-009,6.39062471e-004
,,,5.42500000e-009,7.24999977e-004
,,,5.45000000e-009,7.99999982e-004
,,,5.47500000e-009,8.56249986e-004
,,,5.50000000e-009,8.93749989e-004
,,,5.52500000e-009,9.12499990e-004
,,,5.55000000e-009,9.10937490e-004
,,,5.57500000e-009,8.95312489e-004
,,,5.60000000e-009,8.68749987e-004
,,,5.62500000e-009,8.35937485e-004
,,,5.65000000e-009,7.99999982e-004
,,,5.67500000e-009,7.67187480e-004
,,,5.70000000e-009,7.42187478e-004
,,,5.72500000e-009,7.26562477e-004
,,,5.75000000e-009,7.21874977e-004
,,,5.77500000e-009,7.29687477e-004
,,,5.80000000e-009,7.45312478e-004
,,,5.82500000e-009,7.70312480e-004
,,,5.85000000e-009,7.99999982e-004
,,,5.87500000e-009,8.26562484e-004
,,,5.90000000e-009,8.51562486e-004
,,,5.92500000e-009,8.70312487e-004
,,,5.95000000e-009,8.81249988e-004
,,,5.97500000e-009,8.81249988e-004
,,,6.00000000e-009,8.67187487e-004
,,,6.02500000e-009,8.40624985e-004
,,,6.05000000e-009,7.99999982e-004
