RawData/SinglePhotoelectron/R6_2pt2D_5mV/wave013_Ch4.csv

"Record Length",1000,"Points",-7.72500000e-009,1.15000001e-003
"Sample Interval",2.50000000e-011,s,-7.70000000e-009,1.20000001e-003
"Trigger Point",309,"Samples",-7.67500000e-009,1.24062501e-003
"Trigger Time",1.74779439e-011,s,-7.65000000e-009,1.26875002e-003
"",,,-7.62500000e-009,1.28437502e-003
"Horizontal Offset",-7.72500000e-009,s,-7.60000000e-009,1.28750002e-003
,,,-7.57500000e-009,1.27812502e-003
,,,-7.55000000e-009,1.25937501e-003
,,,-7.52500000e-009,1.23281251e-003
,,,-7.50000000e-009,1.20000001e-003
,,,-7.47500000e-009,1.16875001e-003
,,,-7.45000000e-009,1.13906251e-003
,,,-7.42500000e-009,1.11718750e-003
,,,-7.40000000e-009,1.10468750e-003
,,,-7.37500000e-009,1.10625000e-003
,,,-7.35000000e-009,1.12187500e-003
,,,-7.32500000e-009,1.15468751e-003
,,,-7.30000000e-009,1.20000001e-003
,,,-7.27500000e-009,1.25781251e-003
,,,-7.25000000e-009,1.32187502e-003
,,,-7.22500000e-009,1.39062502e-003
,,,-7.20000000e-009,1.45625003e-003
,,,-7.17500000e-009,1.51562503e-003
,,,-7.15000000e-009,1.56250004e-003
,,,-7.12500000e-009,1.59062504e-003
,,,-7.10000000e-009,1.60000004e-003
,,,-7.07500000e-009,1.58281254e-003
,,,-7.05000000e-009,1.54687503e-003
,,,-7.02500000e-009,1.49531253e-003
,,,-7.00000000e-009,1.43437503e-003
,,,-6.97500000e-009,1.37031252e-003
,,,-6.95000000e-009,1.30625002e-003
,,,-6.92500000e-009,1.24843751e-003
,,,-6.90000000e-009,1.20000001e-003
,,,-6.87500000e-009,1.16250001e-003
,,,-6.85000000e-009,1.13750001e-003
,,,-6.82500000e-009,1.12812501e-003
,,,-6.80000000e-009,1.13125001e-003
,,,-6.77500000e-009,1.14218751e-003
,,,-6.75000000e-009,1.16093751e-003
,,,-6.72500000e-009,1.18125001e-003
,,,-6.70000000e-009,1.20000001e-003
,,,-6.67500000e-009,1.21250001e-003
,,,-6.65000000e-009,1.22031251e-003
,,,-6.62500000e-009,1.22031251e-003
,,,-6.60000000e-009,1.21718751e-003
,,,-6.57500000e-009,1.21250001e-003
,,,-6.55000000e-009,1.20625001e-003
,,,-6.52500000e-009,1.20156251e-003
,,,-6.50000000e-009,1.20000001e-003
,,,-6.47500000e-009,1.20156251e-003
,,,-6.45000000e-009,1.20468751e-003
,,,-6.42500000e-009,1.20937501e-003
,,,-6.40000000e-009,1.21562501e-003
,,,-6.37500000e-009,1.22031251e-003
,,,-6.35000000e-009,1.22031251e-003
,,,-6.32500000e-009,1.21406251e-003
,,,-6.30000000e-009,1.20000001e-003
,,,-6.27500000e-009,1.17656251e-003
,,,-6.25000000e-009,1.14062501e-003
,,,-6.22500000e-009,1.09843750e-003
,,,-6.20000000e-009,1.04687500e-003
,,,-6.17500000e-009,9.89062496e-004
,,,-6.15000000e-009,9.28124991e-004
,,,-6.12500000e-009,8.64062487e-004
,,,-6.10000000e-009,7.99999982e-004
,,,-6.07500000e-009,7.40624978e-004
,,,-6.05000000e-009,6.84374974e-004
,,,-6.02500000e-009,6.29687470e-004
,,,-6.00000000e-009,5.76562466e-004
,,,-5.97500000e-009,5.28124963e-004
,,,-5.95000000e-009,4.81249960e-004
,,,-5.92500000e-009,4.39062457e-004
,,,-5.90000000e-009,3.99999954e-004
,,,-5.87500000e-009,3.73437452e-004
,,,-5.85000000e-009,3.51562450e-004
,,,-5.82500000e-009,3.35937449e-004
,,,-5.80000000e-009,3.29687449e-004
,,,-5.77500000e-009,3.31249949e-004
,,,-5.75000000e-009,3.43749950e-004
,,,-5.72500000e-009,3.67187451e-004
,,,-5.70000000e-009,3.99999954e-004
,,,-5.67500000e-009,4.48437457e-004
,,,-5.65000000e-009,5.01562461e-004
,,,-5.62500000e-009,5.59374965e-004
,,,-5.60000000e-009,6.15624969e-004
,,,-5.57500000e-009,6.71874973e-004
,,,-5.55000000e-009,7.21874977e-004
,,,-5.52500000e-009,7.65624980e-004
,,,-5.50000000e-009,7.99999982e-004
,,,-5.47500000e-009,8.26562484e-004
,,,-5.45000000e-009,8.42187485e-004
,,,-5.42500000e-009,8.48437486e-004
,,,-5.40000000e-009,8.46874985e-004
,,,-5.37500000e-009,8.39062485e-004
,,,-5.35000000e-009,8.26562484e-004
,,,-5.32500000e-009,8.14062483e-004
,,,-5.30000000e-009,7.99999982e-004
,,,-5.27500000e-009,7.93749982e-004
,,,-5.25000000e-009,7.90624981e-004
,,,-5.22500000e-009,7.89062481e-004
,,,-5.20000000e-009,7.90624981e-004
,,,-5.17500000e-009,7.93749982e-004
,,,-5.15000000e-009,7.96874982e-004
,,,-5.12500000e-009,7.99999982e-004
,,,-5.10000000e-009,7.99999982e-004
,,,-5.07500000e-009,7.99999982e-004
,,,-5.05000000e-009,7.98437482e-004
,,,-5.02500000e-009,7.96874982e-004
,,,-5.00000000e-009,7.93749982e-004
,,,-4.97500000e-009,7.92187482e-004
,,,-4.95000000e-009,7.92187482e-004
,,,-4.92500000e-009,7.95312482e-004
,,,-4.90000000e-009,7.99999982e-004
,,,-4.87500000e-009,8.04687482e-004
,,,-4.85000000e-009,8.09374983e-004
,,,-4.82500000e-009,8.15624983e-004
,,,-4.80000000e-009,8.20312484e-004
,,,-4.77500000e-009,8.21874984e-004
,,,-4.75000000e-009,8.18749983e-004
,,,-4.72500000e-009,8.12499983e-004
,,,-4.70000000e-009,7.99999982e-004
,,,-4.67500000e-009,7.87499981e-004
,,,-4.65000000e-009,7.71874980e-004
,,,-4.62500000e-009,7.59374979e-004
,,,-4.60000000e-009,7.51562479e-004
,,,-4.57500000e-009,7.48437478e-004
,,,-4.55000000e-009,7.56249979e-004
,,,-4.52500000e-009,7.73437480e-004
,,,-4.50000000e-009,7.99999982e-004
,,,-4.47500000e-009,8.39062485e-004
,,,-4.45000000e-009,8.87499988e-004
,,,-4.42500000e-009,9.42187492e-004
,,,-4.40000000e-009,9.99999996e-004
,,,-4.37500000e-009,1.05937500e-003
,,,-4.35000000e-009,1.11562500e-003
,,,-4.32500000e-009,1.16406251e-003
,,,-4.30000000e-009,1.20000001e-003
,,,-4.27500000e-009,1.22031251e-003
,,,-4.25000000e-009,1.22031251e-003
,,,-4.22500000e-009,1.20156251e-003
,,,-4.20000000e-009,1.15937501e-003
,,,-4.17500000e-009,1.09687500e-003
,,,-4.15000000e-009,1.01250000e-003
,,,-4.12500000e-009,9.12499990e-004
,,,-4.10000000e-009,7.99999982e-004
,,,-4.07500000e-009,6.85937474e-004
,,,-4.05000000e-009,5.76562466e-004
,,,-4.02500000e-009,4.78124959e-004
,,,-4.00000000e-009,4.01562454e-004
,,,-3.97500000e-009,3.49999950e-004
,,,-3.95000000e-009,3.32812449e-004
,,,-3.92500000e-009,3.48437450e-004
,,,-3.90000000e-009,3.99999954e-004
,,,-3.87500000e-009,4.90624960e-004
,,,-3.85000000e-009,6.04687468e-004
,,,-3.82500000e-009,7.32812477e-004
,,,-3.80000000e-009,8.64062487e-004
,,,-3.77500000e-009,9.85937495e-004
,,,-3.75000000e-009,1.08750000e-003
,,,-3.72500000e-009,1.16093751e-003
,,,-3.70000000e-009,1.20000001e-003
,,,-3.67500000e-009,1.20312501e-003
,,,-3.65000000e-009,1.17187501e-003
,,,-3.62500000e-009,1.11562500e-003
,,,-3.60000000e-009,1.04218750e-003
,,,-3.57500000e-009,9.64062494e-004
,,,-3.55000000e-009,8.90624989e-004
,,,-3.52500000e-009,8.34374985e-004
,,,-3.50000000e-009,7.99999982e-004
,,,-3.47500000e-009,7.96874982e-004
,,,-3.45000000e-009,8.21874984e-004
,,,-3.42500000e-009,8.70312487e-004
,,,-3.40000000e-009,9.35937492e-004
,,,-3.37500000e-009,1.01093750e-003
,,,-3.35000000e-009,1.08437500e-003
,,,-3.32500000e-009,1.15000001e-003
,,,-3.30000000e-009,1.20000001e-003
,,,-3.27500000e-009,1.22968751e-003
,,,-3.25000000e-009,1.24062501e-003
,,,-3.22500000e-009,1.23437501e-003
,,,-3.20000000e-009,1.21718751e-003
,,,-3.17500000e-009,1.19843751e-003
,,,-3.15000000e-009,1.18593751e-003
,,,-3.12500000e-009,1.18437501e-003
,,,-3.10000000e-009,1.20000001e-003
,,,-3.07500000e-009,1.23437501e-003
,,,-3.05000000e-009,1.28437502e-003
,,,-3.02500000e-009,1.34843752e-003
,,,-3.00000000e-009,1.41718753e-003
,,,-2.97500000e-009,1.48593753e-003
,,,-2.95000000e-009,1.54218753e-003
,,,-2.92500000e-009,1.58281254e-003
,,,-2.90000000e-009,1.60000004e-003
,,,-2.87500000e-009,1.58437504e-003
,,,-2.85000000e-009,1.54687503e-003
,,,-2.82500000e-009,1.49062503e-003
,,,-2.80000000e-009,1.42500003e-003
,,,-2.77500000e-009,1.35468752e-003
,,,-2.75000000e-009,1.29062502e-003
,,,-2.72500000e-009,1.23750001e-003
,,,-2.70000000e-009,1.20000001e-003
,,,-2.67500000e-009,1.18281251e-003
,,,-2.65000000e-009,1.18125001e-003
,,,-2.62500000e-009,1.19218751e-003
,,,-2.60000000e-009,1.20937501e-003
,,,-2.57500000e-009,1.22500001e-003
,,,-2.55000000e-009,1.23281251e-003
,,,-2.52500000e-009,1.22656251e-003
,,,-2.50000000e-009,1.20000001e-003
,,,-2.47500000e-009,1.15156251e-003
,,,-2.45000000e-009,1.08750000e-003
,,,-2.42500000e-009,1.01406250e-003
,,,-2.40000000e-009,9.39062492e-004
,,,-2.37500000e-009,8.73437487e-004
,,,-2.35000000e-009,8.24999984e-004
,,,-2.32500000e-009,7.98437482e-004
,,,-2.30000000e-009,7.99999982e-004
,,,-2.27500000e-009,8.32812484e-004
,,,-2.25000000e-009,8.87499988e-004
,,,-2.22500000e-009,9.57812493e-004
,,,-2.20000000e-009,1.03281250e-003
,,,-2.17500000e-009,1.10468750e-003
,,,-2.15000000e-009,1.16250001e-003
,,,-2.12500000e-009,1.19531251e-003
,,,-2.10000000e-009,1.20000001e-003
,,,-2.07500000e-009,1.16875001e-003
,,,-2.05000000e-009,1.11093750e-003
,,,-2.02500000e-009,1.03593750e-003
,,,-2.00000000e-009,9.54687493e-004
,,,-1.97500000e-009,8.79687488e-004
,,,-1.95000000e-009,8.23437484e-004
,,,-1.92500000e-009,7.95312482e-004
,,,-1.90000000e-009,7.99999982e-004
,,,-1.87500000e-009,8.39062485e-004
,,,-1.85000000e-009,9.04687490e-004
,,,-1.82500000e-009,9.85937495e-004
,,,-1.80000000e-009,1.07187500e-003
,,,-1.77500000e-009,1.14843751e-003
,,,-1.75000000e-009,1.20156251e-003
,,,-1.72500000e-009,1.22187501e-003
,,,-1.70000000e-009,1.20000001e-003
,,,-1.67500000e-009,1.12968751e-003
,,,-1.65000000e-009,1.02031250e-003
,,,-1.62500000e-009,8.87499988e-004
,,,-1.60000000e-009,7.45312478e-004
,,,-1.57500000e-009,6.10937469e-004
,,,-1.55000000e-009,5.01562461e-004
,,,-1.52500000e-009,4.28124956e-004
,,,-1.50000000e-009,3.99999954e-004
,,,-1.47500000e-009,4.14062455e-004
,,,-1.45000000e-009,4.65624958e-004
,,,-1.42500000e-009,5.45312464e-004
,,,-1.40000000e-009,6.35937471e-004
,,,-1.37500000e-009,7.23437477e-004
,,,-1.35000000e-009,7.89062481e-004
,,,-1.32500000e-009,8.18749983e-004
,,,-1.30000000e-009,7.99999982e-004
,,,-1.27500000e-009,7.14062476e-004
,,,-1.25000000e-009,5.79687467e-004
,,,-1.22500000e-009,4.06249954e-004
,,,-1.20000000e-009,2.12499941e-004
,,,-1.17500000e-009,1.71874267e-005
,,,-1.15000000e-009,-1.60937586e-004
,,,-1.12500000e-009,-3.03125096e-004
,,,-1.10000000e-009,-4.00000103e-004
,,,-1.07500000e-009,-4.53125107e-004
,,,-1.05000000e-009,-4.57812607e-004
,,,-1.02500000e-009,-4.17187604e-004
,,,-1.00000000e-009,-3.45312599e-004
,,,-9.75000000e-010,-2.51562592e-004
,,,-9.50000000e-010,-1.53125085e-004
,,,-9.25000000e-010,-6.40625790e-005
,,,-9.00000000e-010,-7.45058060e-011
,,,-8.75000000e-010,7.81242605e-006
,,,-8.50000000e-010,-2.96875766e-005
,,,-8.25000000e-010,-1.07812582e-004
,,,-8.00000000e-010,-2.20312590e-004
,,,-7.75000000e-010,-3.57812600e-004
,,,-7.50000000e-010,-5.06250110e-004
,,,-7.25000000e-010,-6.56250121e-004
,,,-7.00000000e-010,-8.00000131e-004
,,,-6.75000000e-010,-9.43750141e-004
,,,-6.50000000e-010,-1.07343765e-003
,,,-6.25000000e-010,-1.18750016e-003
,,,-6.00000000e-010,-1.28593767e-003
,,,-5.75000000e-010,-1.37187517e-003
,,,-5.50000000e-010,-1.44843768e-003
,,,-5.25000000e-010,-1.52187518e-003
,,,-5.00000000e-010,-1.60000019e-003
,,,-4.75000000e-010,-1.70000019e-003
,,,-4.50000000e-010,-1.81875020e-003
,,,-4.25000000e-010,-1.95312521e-003
,,,-4.00000000e-010,-2.10468772e-003
,,,-3.75000000e-010,-2.26718773e-003
,,,-3.50000000e-010,-2.43906275e-003
,,,-3.25000000e-010,-2.61718776e-003
,,,-3.00000000e-010,-2.80000027e-003
,,,-2.75000000e-010,-2.98593779e-003
,,,-2.50000000e-010,-3.17656280e-003
,,,-2.25000000e-010,-3.37343781e-003
,,,-2.00000000e-010,-3.57500033e-003
,,,-1.75000000e-010,-3.77968784e-003
,,,-1.50000000e-010,-3.98593786e-003
,,,-1.25000000e-010,-4.19375037e-003
,,,-1.00000000e-010,-4.40000039e-003
,,,-7.50000000e-011,-4.59062540e-003
,,,-5.00000000e-011,-4.77812541e-003
,,,-2.50000000e-011,-4.95625043e-003
,,,0.00000000e+000,-5.12343794e-003
,,,2.50000000e-011,-5.27343795e-003
,,,5.00000000e-011,-5.40468796e-003
,,,7.50000000e-011,-5.51250046e-003
,,,1.00000000e-010,-5.60000047e-003
,,,1.25000000e-010,-5.63750047e-003
,,,1.50000000e-010,-5.66562548e-003
,,,1.75000000e-010,-5.69062548e-003
,,,2.00000000e-010,-5.72031298e-003
,,,2.25000000e-010,-5.76093798e-003
,,,2.50000000e-010,-5.82031299e-003
,,,2.75000000e-010,-5.89843799e-003
,,,3.00000000e-010,-6.00000050e-003
,,,3.25000000e-010,-6.08906301e-003
,,,3.50000000e-010,-6.19531301e-003
,,,3.75000000e-010,-6.31562552e-003
,,,4.00000000e-010,-6.43906303e-003
,,,4.25000000e-010,-6.55781304e-003
,,,4.50000000e-010,-6.66250055e-003
,,,4.75000000e-010,-6.74531305e-003
,,,5.00000000e-010,-6.80000056e-003
,,,5.25000000e-010,-6.78281305e-003
,,,5.50000000e-010,-6.73906305e-003
,,,5.75000000e-010,-6.67812555e-003
,,,6.00000000e-010,-6.60781304e-003
,,,6.25000000e-010,-6.53750054e-003
,,,6.50000000e-010,-6.47656303e-003
,,,6.75000000e-010,-6.42968803e-003
,,,7.00000000e-010,-6.40000053e-003
,,,7.25000000e-010,-6.35156302e-003
,,,7.50000000e-010,-6.31875052e-003
,,,7.75000000e-010,-6.29375052e-003
,,,8.00000000e-010,-6.27031302e-003
,,,8.25000000e-010,-6.23750052e-003
,,,8.50000000e-010,-6.18750051e-003
,,,8.75000000e-010,-6.10937551e-003
,,,9.00000000e-010,-6.00000050e-003
,,,9.25000000e-010,-5.82343799e-003
,,,9.50000000e-010,-5.61875047e-003
,,,9.75000000e-010,-5.39218796e-003
,,,1.00000000e-009,-5.15781294e-003
,,,1.02500000e-009,-4.92968792e-003
,,,1.05000000e-009,-4.72031291e-003
,,,1.07500000e-009,-4.54062540e-003
,,,1.10000000e-009,-4.40000039e-003
,,,1.12500000e-009,-4.28437538e-003
,,,1.15000000e-009,-4.20468787e-003
,,,1.17500000e-009,-4.15312537e-003
,,,1.20000000e-009,-4.12343787e-003
,,,1.22500000e-009,-4.10468787e-003
,,,1.25000000e-009,-4.08437536e-003
,,,1.27500000e-009,-4.05156286e-003
,,,1.30000000e-009,-4.00000036e-003
,,,1.32500000e-009,-3.90937535e-003
,,,1.35000000e-009,-3.78750034e-003
,,,1.37500000e-009,-3.63906283e-003
,,,1.40000000e-009,-3.47031282e-003
,,,1.42500000e-009,-3.29375031e-003
,,,1.45000000e-009,-3.11562530e-003
,,,1.47500000e-009,-2.94843778e-003
,,,1.50000000e-009,-2.80000027e-003
,,,1.52500000e-009,-2.67187526e-003
,,,1.55000000e-009,-2.56093776e-003
,,,1.57500000e-009,-2.46250025e-003
,,,1.60000000e-009,-2.37343774e-003
,,,1.62500000e-009,-2.28906274e-003
,,,1.65000000e-009,-2.20156273e-003
,,,1.67500000e-009,-2.10625022e-003
,,,1.70000000e-009,-2.00000022e-003
,,,1.72500000e-009,-1.88281271e-003
,,,1.75000000e-009,-1.74687520e-003
,,,1.77500000e-009,-1.59218769e-003
,,,1.80000000e-009,-1.42656268e-003
,,,1.82500000e-009,-1.25625016e-003
,,,1.85000000e-009,-1.09062515e-003
,,,1.87500000e-009,-9.35937641e-004
,,,1.90000000e-009,-8.00000131e-004
,,,1.92500000e-009,-7.03125124e-004
,,,1.95000000e-009,-6.23437619e-004
,,,1.97500000e-009,-5.62500114e-004
,,,2.00000000e-009,-5.15625111e-004
,,,2.02500000e-009,-4.79687608e-004
,,,2.05000000e-009,-4.51562606e-004
,,,2.07500000e-009,-4.25000105e-004
,,,2.10000000e-009,-4.00000103e-004
,,,2.12500000e-009,-3.81250101e-004
,,,2.15000000e-009,-3.51562599e-004
,,,2.17500000e-009,-3.10937597e-004
,,,2.20000000e-009,-2.59375093e-004
,,,2.22500000e-009,-2.00000089e-004
,,,2.25000000e-009,-1.34375084e-004
,,,2.27500000e-009,-6.56250792e-005
,,,2.30000000e-009,-7.45058060e-011
,,,2.32500000e-009,4.84374289e-005
,,,2.35000000e-009,9.68749324e-005
,,,2.37500000e-009,1.46874936e-004
,,,2.40000000e-009,1.96874939e-004
,,,2.42500000e-009,2.48437443e-004
,,,2.45000000e-009,2.99999947e-004
,,,2.47500000e-009,3.51562450e-004
,,,2.50000000e-009,3.99999954e-004
,,,2.52500000e-009,4.35937456e-004
,,,2.55000000e-009,4.67187459e-004
,,,2.57500000e-009,4.92187460e-004
,,,2.60000000e-009,5.06249961e-004
,,,2.62500000e-009,5.06249961e-004
,,,2.65000000e-009,4.90624960e-004
,,,2.67500000e-009,4.54687458e-004
,,,2.70000000e-009,3.99999954e-004
,,,2.72500000e-009,3.23437448e-004
,,,2.75000000e-009,2.39062442e-004
,,,2.77500000e-009,1.56249937e-004
,,,2.80000000e-009,8.28124314e-005
,,,2.82500000e-009,2.49999273e-005
,,,2.85000000e-009,-9.37507517e-006
,,,2.87500000e-009,-1.71875757e-005
,,,2.90000000e-009,-7.45058060e-011
,,,2.92500000e-009,4.37499286e-005
,,,2.95000000e-009,1.06249933e-004
,,,2.97500000e-009,1.81249938e-004
,,,3.00000000e-009,2.59374944e-004
,,,3.02500000e-009,3.28124949e-004
,,,3.05000000e-009,3.79687452e-004
,,,3.07500000e-009,4.04687454e-004
,,,3.10000000e-009,3.99999954e-004
,,,3.12500000e-009,3.67187451e-004
,,,3.15000000e-009,3.10937448e-004
,,,3.17500000e-009,2.39062442e-004
,,,3.20000000e-009,1.59374937e-004
,,,3.22500000e-009,8.74999317e-005
,,,3.25000000e-009,2.96874276e-005
,,,3.27500000e-009,-1.56257462e-006
,,,3.30000000e-009,-7.45058060e-011
,,,3.32500000e-009,4.21874285e-005
,,,3.35000000e-009,1.17187434e-004
,,,3.37500000e-009,2.21874941e-004
,,,3.40000000e-009,3.43749950e-004
,,,3.42500000e-009,4.74999959e-004
,,,3.45000000e-009,6.03124968e-004
,,,3.47500000e-009,7.14062476e-004
,,,3.50000000e-009,7.99999982e-004
,,,3.52500000e-009,8.51562486e-004
,,,3.55000000e-009,8.67187487e-004
,,,3.57500000e-009,8.45312485e-004
,,,3.60000000e-009,7.92187482e-004
,,,3.62500000e-009,7.12499976e-004
,,,3.65000000e-009,6.14062469e-004
,,,3.67500000e-009,5.06249961e-004
,,,3.70000000e-009,3.99999954e-004
,,,3.72500000e-009,3.07812447e-004
,,,3.75000000e-009,2.34374942e-004
,,,3.77500000e-009,1.87499939e-004
,,,3.80000000e-009,1.70312438e-004
,,,3.82500000e-009,1.84374939e-004
,,,3.85000000e-009,2.29687442e-004
,,,3.87500000e-009,3.03124947e-004
,,,3.90000000e-009,3.99999954e-004
,,,3.92500000e-009,5.17187462e-004
,,,3.95000000e-009,6.43749971e-004
,,,3.97500000e-009,7.73437480e-004
,,,4.00000000e-009,8.96874989e-004
,,,4.02500000e-009,1.00625000e-003
,,,4.05000000e-009,1.09687500e-003
,,,4.07500000e-009,1.16250001e-003
,,,4.10000000e-009,1.20000001e-003
,,,4.12500000e-009,1.20781251e-003
,,,4.15000000e-009,1.18906251e-003
,,,4.17500000e-009,1.14687501e-003
,,,4.20000000e-009,1.08750000e-003
,,,4.22500000e-009,1.01718750e-003
,,,4.25000000e-009,9.42187492e-004
,,,4.27500000e-009,8.67187487e-004
,,,4.30000000e-009,7.99999982e-004
,,,4.32500000e-009,7.43749978e-004
,,,4.35000000e-009,7.04687475e-004
,,,4.37500000e-009,6.82812474e-004
,,,4.40000000e-009,6.81249974e-004
,,,4.42500000e-009,6.95312475e-004
,,,4.45000000e-009,7.23437477e-004
,,,4.47500000e-009,7.59374979e-004
,,,4.50000000e-009,7.99999982e-004
,,,4.52500000e-009,8.43749985e-004
,,,4.55000000e-009,8.81249988e-004
,,,4.57500000e-009,9.07812490e-004
,,,4.60000000e-009,9.20312491e-004
,,,4.62500000e-009,9.15624990e-004
,,,4.65000000e-009,8.92187489e-004
,,,4.67500000e-009,8.53124986e-004
,,,4.70000000e-009,7.99999982e-004
,,,4.72500000e-009,7.40624978e-004
,,,4.75000000e-009,6.81249974e-004
,,,4.77500000e-009,6.32812470e-004
,,,4.80000000e-009,6.04687468e-004
,,,4.82500000e-009,6.03124968e-004
,,,4.85000000e-009,6.32812470e-004
,,,4.87500000e-009,6.99999975e-004
,,,4.90000000e-009,7.99999982e-004
,,,4.92500000e-009,9.28124991e-004
,,,4.95000000e-009,1.07343750e-003
,,,4.97500000e-009,1.22500001e-003
,,,5.00000000e-009,1.36875002e-003
,,,5.02500000e-009,1.48750003e-003
,,,5.05000000e-009,1.57187504e-003
,,,5.07500000e-009,1.61093754e-003
,,,5.10000000e-009,1.60000004e-003
,,,5.12500000e-009,1.53593753e-003
,,,5.15000000e-009,1.42968753e-003
,,,5.17500000e-009,1.29687502e-003
,,,5.20000000e-009,1.15312501e-003
,,,5.22500000e-009,1.01562500e-003
,,,5.25000000e-009,9.01562489e-004
,,,5.27500000e-009,8.26562484e-004
,,,5.30000000e-009,7.99999982e-004
,,,5.32500000e-009,8.26562484e-004
,,,5.35000000e-009,9.01562489e-004
,,,5.37500000e-009,1.01562500e-003
,,,5.40000000e-009,1.15312501e-003
,,,5.42500000e-009,1.29687502e-003
,,,5.45000000e-009,1.42968753e-003
,,,5.47500000e-009,1.53593753e-003
,,,5.50000000e-009,1.60000004e-003
,,,5.52500000e-009,1.60781254e-003
,,,5.55000000e-009,1.56406254e-003
,,,5.57500000e-009,1.47656253e-003
,,,5.60000000e-009,1.35468752e-003
,,,5.62500000e-009,1.21093751e-003
,,,5.65000000e-009,1.06250000e-003
,,,5.67500000e-009,9.21874991e-004
,,,5.70000000e-009,7.99999982e-004
,,,5.72500000e-009,7.10937476e-004
,,,5.75000000e-009,6.54687472e-004
,,,5.77500000e-009,6.34374970e-004
,,,5.80000000e-009,6.42187471e-004
,,,5.82500000e-009,6.71874973e-004
,,,5.85000000e-009,7.14062476e-004
,,,5.87500000e-009,7.59374979e-004
,,,5.90000000e-009,7.99999982e-004
,,,5.92500000e-009,8.28124984e-004
,,,5.95000000e-009,8.42187485e-004
,,,5.97500000e-009,8.42187485e-004
,,,6.00000000e-009,8.32812484e-004
,,,6.02500000e-009,8.20312484e-004
,,,6.05000000e-009,8.07812483e-004
,,,6.07500000e-009,7.99999982e-004
,,,6.10000000e-009,7.99999982e-004
