RawData/SinglePhotoelectron/R6_2pt2D_5mV/wave026_Ch4.csv

"Record Length",1000,"Points",-7.72500000e-009,8.85937488e-004
"Sample Interval",2.50000000e-011,s,-7.70000000e-009,8.89062488e-004
"Trigger Point",309,"Samples",-7.67500000e-009,8.81249988e-004
"Trigger Time",1.92731646e-011,s,-7.65000000e-009,8.64062487e-004
"",,,-7.62500000e-009,8.35937485e-004
"Horizontal Offset",-7.72500000e-009,s,-7.60000000e-009,7.99999982e-004
,,,-7.57500000e-009,7.57812479e-004
,,,-7.55000000e-009,7.10937476e-004
,,,-7.52500000e-009,6.59374972e-004
,,,-7.50000000e-009,6.07812469e-004
,,,-7.47500000e-009,5.54687465e-004
,,,-7.45000000e-009,5.01562461e-004
,,,-7.42500000e-009,4.48437457e-004
,,,-7.40000000e-009,3.99999954e-004
,,,-7.37500000e-009,3.60937451e-004
,,,-7.35000000e-009,3.29687449e-004
,,,-7.32500000e-009,3.06249947e-004
,,,-7.30000000e-009,2.96874947e-004
,,,-7.27500000e-009,2.99999947e-004
,,,-7.25000000e-009,3.18749948e-004
,,,-7.22500000e-009,3.53124950e-004
,,,-7.20000000e-009,3.99999954e-004
,,,-7.17500000e-009,4.64062458e-004
,,,-7.15000000e-009,5.34374963e-004
,,,-7.12500000e-009,6.04687468e-004
,,,-7.10000000e-009,6.71874973e-004
,,,-7.07500000e-009,7.29687477e-004
,,,-7.05000000e-009,7.73437480e-004
,,,-7.02500000e-009,7.96874982e-004
,,,-7.00000000e-009,7.99999982e-004
,,,-6.97500000e-009,7.81249981e-004
,,,-6.95000000e-009,7.43749978e-004
,,,-6.92500000e-009,6.92187474e-004
,,,-6.90000000e-009,6.31249970e-004
,,,-6.87500000e-009,5.67187466e-004
,,,-6.85000000e-009,5.03124961e-004
,,,-6.82500000e-009,4.46874957e-004
,,,-6.80000000e-009,3.99999954e-004
,,,-6.77500000e-009,3.71874952e-004
,,,-6.75000000e-009,3.56249951e-004
,,,-6.72500000e-009,3.53124950e-004
,,,-6.70000000e-009,3.59374951e-004
,,,-6.67500000e-009,3.71874952e-004
,,,-6.65000000e-009,3.84374953e-004
,,,-6.62500000e-009,3.95312453e-004
,,,-6.60000000e-009,3.99999954e-004
,,,-6.57500000e-009,4.01562454e-004
,,,-6.55000000e-009,3.98437454e-004
,,,-6.52500000e-009,3.89062453e-004
,,,-6.50000000e-009,3.78124952e-004
,,,-6.47500000e-009,3.71874952e-004
,,,-6.45000000e-009,3.70312452e-004
,,,-6.42500000e-009,3.79687452e-004
,,,-6.40000000e-009,3.99999954e-004
,,,-6.37500000e-009,4.39062457e-004
,,,-6.35000000e-009,4.87499960e-004
,,,-6.32500000e-009,5.45312464e-004
,,,-6.30000000e-009,6.07812469e-004
,,,-6.27500000e-009,6.68749973e-004
,,,-6.25000000e-009,7.23437477e-004
,,,-6.22500000e-009,7.68749980e-004
,,,-6.20000000e-009,7.99999982e-004
,,,-6.17500000e-009,8.15624983e-004
,,,-6.15000000e-009,8.18749983e-004
,,,-6.12500000e-009,8.10937483e-004
,,,-6.10000000e-009,7.99999982e-004
,,,-6.07500000e-009,7.90624981e-004
,,,-6.05000000e-009,7.84374981e-004
,,,-6.02500000e-009,7.87499981e-004
,,,-6.00000000e-009,7.99999982e-004
,,,-5.97500000e-009,8.21874984e-004
,,,-5.95000000e-009,8.49999986e-004
,,,-5.92500000e-009,8.76562488e-004
,,,-5.90000000e-009,8.96874989e-004
,,,-5.87500000e-009,9.03124989e-004
,,,-5.85000000e-009,8.92187489e-004
,,,-5.82500000e-009,8.57812486e-004
,,,-5.80000000e-009,7.99999982e-004
,,,-5.77500000e-009,7.18749976e-004
,,,-5.75000000e-009,6.24999970e-004
,,,-5.72500000e-009,5.29687463e-004
,,,-5.70000000e-009,4.43749957e-004
,,,-5.67500000e-009,3.79687452e-004
,,,-5.65000000e-009,3.45312450e-004
,,,-5.62500000e-009,3.51562450e-004
,,,-5.60000000e-009,3.99999954e-004
,,,-5.57500000e-009,4.92187460e-004
,,,-5.55000000e-009,6.15624969e-004
,,,-5.52500000e-009,7.57812479e-004
,,,-5.50000000e-009,9.03124989e-004
,,,-5.47500000e-009,1.03437500e-003
,,,-5.45000000e-009,1.13437501e-003
,,,-5.42500000e-009,1.19218751e-003
,,,-5.40000000e-009,1.20000001e-003
,,,-5.37500000e-009,1.15156251e-003
,,,-5.35000000e-009,1.05937500e-003
,,,-5.32500000e-009,9.34374992e-004
,,,-5.30000000e-009,7.92187482e-004
,,,-5.27500000e-009,6.53124972e-004
,,,-5.25000000e-009,5.31249963e-004
,,,-5.22500000e-009,4.45312457e-004
,,,-5.20000000e-009,3.99999954e-004
,,,-5.17500000e-009,4.06249954e-004
,,,-5.15000000e-009,4.54687458e-004
,,,-5.12500000e-009,5.32812463e-004
,,,-5.10000000e-009,6.24999970e-004
,,,-5.07500000e-009,7.14062476e-004
,,,-5.05000000e-009,7.81249981e-004
,,,-5.02500000e-009,8.14062483e-004
,,,-5.00000000e-009,7.99999982e-004
,,,-4.97500000e-009,7.37499978e-004
,,,-4.95000000e-009,6.31249970e-004
,,,-4.92500000e-009,4.95312461e-004
,,,-4.90000000e-009,3.46874950e-004
,,,-4.87500000e-009,2.04687440e-004
,,,-4.85000000e-009,8.74999317e-005
,,,-4.82500000e-009,1.56249266e-005
,,,-4.80000000e-009,-7.45058060e-011
,,,-4.77500000e-009,5.46874294e-005
,,,-4.75000000e-009,1.65624937e-004
,,,-4.72500000e-009,3.23437448e-004
,,,-4.70000000e-009,5.14062462e-004
,,,-4.67500000e-009,7.15624976e-004
,,,-4.65000000e-009,9.09374990e-004
,,,-4.62500000e-009,1.07500000e-003
,,,-4.60000000e-009,1.20000001e-003
,,,-4.57500000e-009,1.26875002e-003
,,,-4.55000000e-009,1.28437502e-003
,,,-4.52500000e-009,1.25156251e-003
,,,-4.50000000e-009,1.18125001e-003
,,,-4.47500000e-009,1.08750000e-003
,,,-4.45000000e-009,9.82812495e-004
,,,-4.42500000e-009,8.82812488e-004
,,,-4.40000000e-009,7.99999982e-004
,,,-4.37500000e-009,7.45312478e-004
,,,-4.35000000e-009,7.15624976e-004
,,,-4.32500000e-009,7.12499976e-004
,,,-4.30000000e-009,7.28124977e-004
,,,-4.27500000e-009,7.54687479e-004
,,,-4.25000000e-009,7.81249981e-004
,,,-4.22500000e-009,7.98437482e-004
,,,-4.20000000e-009,7.99999982e-004
,,,-4.17500000e-009,7.81249981e-004
,,,-4.15000000e-009,7.40624978e-004
,,,-4.12500000e-009,6.82812474e-004
,,,-4.10000000e-009,6.15624969e-004
,,,-4.07500000e-009,5.46874964e-004
,,,-4.05000000e-009,4.81249960e-004
,,,-4.02500000e-009,4.31249956e-004
,,,-4.00000000e-009,3.99999954e-004
,,,-3.97500000e-009,3.98437454e-004
,,,-3.95000000e-009,4.20312455e-004
,,,-3.92500000e-009,4.64062458e-004
,,,-3.90000000e-009,5.23437463e-004
,,,-3.87500000e-009,5.95312468e-004
,,,-3.85000000e-009,6.70312473e-004
,,,-3.82500000e-009,7.40624978e-004
,,,-3.80000000e-009,7.99999982e-004
,,,-3.77500000e-009,8.43749985e-004
,,,-3.75000000e-009,8.70312487e-004
,,,-3.72500000e-009,8.81249988e-004
,,,-3.70000000e-009,8.79687488e-004
,,,-3.67500000e-009,8.65624987e-004
,,,-3.65000000e-009,8.45312485e-004
,,,-3.62500000e-009,8.23437484e-004
,,,-3.60000000e-009,7.99999982e-004
,,,-3.57500000e-009,7.85937481e-004
,,,-3.55000000e-009,7.76562480e-004
,,,-3.52500000e-009,7.73437480e-004
,,,-3.50000000e-009,7.74999980e-004
,,,-3.47500000e-009,7.79687481e-004
,,,-3.45000000e-009,7.87499981e-004
,,,-3.42500000e-009,7.95312482e-004
,,,-3.40000000e-009,7.99999982e-004
,,,-3.37500000e-009,8.04687482e-004
,,,-3.35000000e-009,8.04687482e-004
,,,-3.32500000e-009,8.03124982e-004
,,,-3.30000000e-009,7.99999982e-004
,,,-3.27500000e-009,7.98437482e-004
,,,-3.25000000e-009,7.96874982e-004
,,,-3.22500000e-009,7.96874982e-004
,,,-3.20000000e-009,7.99999982e-004
,,,-3.17500000e-009,8.06249983e-004
,,,-3.15000000e-009,8.14062483e-004
,,,-3.12500000e-009,8.21874984e-004
,,,-3.10000000e-009,8.26562484e-004
,,,-3.07500000e-009,8.28124984e-004
,,,-3.05000000e-009,8.24999984e-004
,,,-3.02500000e-009,8.15624983e-004
,,,-3.00000000e-009,7.99999982e-004
,,,-2.97500000e-009,7.82812481e-004
,,,-2.95000000e-009,7.64062480e-004
,,,-2.92500000e-009,7.46874978e-004
,,,-2.90000000e-009,7.35937478e-004
,,,-2.87500000e-009,7.32812477e-004
,,,-2.85000000e-009,7.42187478e-004
,,,-2.82500000e-009,7.65624980e-004
,,,-2.80000000e-009,7.99999982e-004
,,,-2.77500000e-009,8.51562486e-004
,,,-2.75000000e-009,9.10937490e-004
,,,-2.72500000e-009,9.74999995e-004
,,,-2.70000000e-009,1.04062500e-003
,,,-2.67500000e-009,1.10000000e-003
,,,-2.65000000e-009,1.15000001e-003
,,,-2.62500000e-009,1.18437501e-003
,,,-2.60000000e-009,1.20000001e-003
,,,-2.57500000e-009,1.19531251e-003
,,,-2.55000000e-009,1.17031251e-003
,,,-2.52500000e-009,1.12812501e-003
,,,-2.50000000e-009,1.07187500e-003
,,,-2.47500000e-009,1.00625000e-003
,,,-2.45000000e-009,9.35937492e-004
,,,-2.42500000e-009,8.65624987e-004
,,,-2.40000000e-009,7.99999982e-004
,,,-2.37500000e-009,7.48437478e-004
,,,-2.35000000e-009,7.09374976e-004
,,,-2.32500000e-009,6.87499974e-004
,,,-2.30000000e-009,6.81249974e-004
,,,-2.27500000e-009,6.90624974e-004
,,,-2.25000000e-009,7.15624976e-004
,,,-2.22500000e-009,7.53124979e-004
,,,-2.20000000e-009,7.99999982e-004
,,,-2.17500000e-009,8.56249986e-004
,,,-2.15000000e-009,9.15624990e-004
,,,-2.12500000e-009,9.76562495e-004
,,,-2.10000000e-009,1.03281250e-003
,,,-2.07500000e-009,1.08593750e-003
,,,-2.05000000e-009,1.13281251e-003
,,,-2.02500000e-009,1.17031251e-003
,,,-2.00000000e-009,1.20000001e-003
,,,-1.97500000e-009,1.21562501e-003
,,,-1.95000000e-009,1.22343751e-003
,,,-1.92500000e-009,1.22343751e-003
,,,-1.90000000e-009,1.22031251e-003
,,,-1.87500000e-009,1.21406251e-003
,,,-1.85000000e-009,1.20781251e-003
,,,-1.82500000e-009,1.20312501e-003
,,,-1.80000000e-009,1.20000001e-003
,,,-1.77500000e-009,1.19687501e-003
,,,-1.75000000e-009,1.19687501e-003
,,,-1.72500000e-009,1.19687501e-003
,,,-1.70000000e-009,1.20000001e-003
,,,-1.67500000e-009,1.20312501e-003
,,,-1.65000000e-009,1.20468751e-003
,,,-1.62500000e-009,1.20468751e-003
,,,-1.60000000e-009,1.20000001e-003
,,,-1.57500000e-009,1.18593751e-003
,,,-1.55000000e-009,1.16875001e-003
,,,-1.52500000e-009,1.15156251e-003
,,,-1.50000000e-009,1.14062501e-003
,,,-1.47500000e-009,1.13750001e-003
,,,-1.45000000e-009,1.14687501e-003
,,,-1.42500000e-009,1.16718751e-003
,,,-1.40000000e-009,1.20000001e-003
,,,-1.37500000e-009,1.22812501e-003
,,,-1.35000000e-009,1.25625001e-003
,,,-1.32500000e-009,1.28281252e-003
,,,-1.30000000e-009,1.30156252e-003
,,,-1.27500000e-009,1.30625002e-003
,,,-1.25000000e-009,1.29375002e-003
,,,-1.22500000e-009,1.25937501e-003
,,,-1.20000000e-009,1.20000001e-003
,,,-1.17500000e-009,1.10000000e-003
,,,-1.15000000e-009,9.81249995e-004
,,,-1.12500000e-009,8.53124986e-004
,,,-1.10000000e-009,7.24999977e-004
,,,-1.07500000e-009,6.07812469e-004
,,,-1.05000000e-009,5.10937462e-004
,,,-1.02500000e-009,4.40624957e-004
,,,-1.00000000e-009,3.99999954e-004
,,,-9.75000000e-010,3.68749952e-004
,,,-9.50000000e-010,3.59374951e-004
,,,-9.25000000e-010,3.67187451e-004
,,,-9.00000000e-010,3.84374953e-004
,,,-8.75000000e-010,4.06249954e-004
,,,-8.50000000e-010,4.21874955e-004
,,,-8.25000000e-010,4.21874955e-004
,,,-8.00000000e-010,3.99999954e-004
,,,-7.75000000e-010,3.21874948e-004
,,,-7.50000000e-010,2.09374940e-004
,,,-7.25000000e-010,6.71874302e-005
,,,-7.00000000e-010,-9.68750814e-005
,,,-6.75000000e-010,-2.76562594e-004
,,,-6.50000000e-010,-4.57812607e-004
,,,-6.25000000e-010,-6.35937620e-004
,,,-6.00000000e-010,-8.00000131e-004
,,,-5.75000000e-010,-9.70312643e-004
,,,-5.50000000e-010,-1.12187515e-003
,,,-5.25000000e-010,-1.25468766e-003
,,,-5.00000000e-010,-1.36250017e-003
,,,-4.75000000e-010,-1.44687518e-003
,,,-4.50000000e-010,-1.51093768e-003
,,,-4.25000000e-010,-1.55937518e-003
,,,-4.00000000e-010,-1.60000019e-003
,,,-3.75000000e-010,-1.66250019e-003
,,,-3.50000000e-010,-1.74218770e-003
,,,-3.25000000e-010,-1.84375021e-003
,,,-3.00000000e-010,-1.97500021e-003
,,,-2.75000000e-010,-2.13437523e-003
,,,-2.50000000e-010,-2.32500024e-003
,,,-2.25000000e-010,-2.54843775e-003
,,,-2.00000000e-010,-2.80000027e-003
,,,-1.75000000e-010,-3.08593779e-003
,,,-1.50000000e-010,-3.39531281e-003
,,,-1.25000000e-010,-3.72031284e-003
,,,-1.00000000e-010,-4.04843786e-003
,,,-7.50000000e-011,-4.37031288e-003
,,,-5.00000000e-011,-4.67500041e-003
,,,-2.50000000e-011,-4.95312543e-003
,,,0.00000000e+000,-5.20000044e-003
,,,2.50000000e-011,-5.40625046e-003
,,,5.00000000e-011,-5.58593797e-003
,,,7.50000000e-011,-5.74218798e-003
,,,1.00000000e-010,-5.88281299e-003
,,,1.25000000e-010,-6.01093800e-003
,,,1.50000000e-010,-6.13593801e-003
,,,1.75000000e-010,-6.26406302e-003
,,,2.00000000e-010,-6.40000053e-003
,,,2.25000000e-010,-6.52968804e-003
,,,2.50000000e-010,-6.68437555e-003
,,,2.75000000e-010,-6.86406306e-003
,,,3.00000000e-010,-7.06875057e-003
,,,3.25000000e-010,-7.29218809e-003
,,,3.50000000e-010,-7.52656311e-003
,,,3.75000000e-010,-7.76562562e-003
,,,4.00000000e-010,-8.00000064e-003
,,,4.25000000e-010,-8.18281315e-003
,,,4.50000000e-010,-8.35000067e-003
,,,4.75000000e-010,-8.49687568e-003
,,,5.00000000e-010,-8.61718818e-003
,,,5.25000000e-010,-8.70781319e-003
,,,5.50000000e-010,-8.77031320e-003
,,,5.75000000e-010,-8.80000070e-003
,,,6.00000000e-010,-8.80000070e-003
,,,6.25000000e-010,-8.73125069e-003
,,,6.50000000e-010,-8.65000069e-003
,,,6.75000000e-010,-8.56718818e-003
,,,7.00000000e-010,-8.49218818e-003
,,,7.25000000e-010,-8.43281317e-003
,,,7.50000000e-010,-8.39531317e-003
,,,7.75000000e-010,-8.38281317e-003
,,,8.00000000e-010,-8.40000067e-003
,,,8.25000000e-010,-8.39843817e-003
,,,8.50000000e-010,-8.42500067e-003
,,,8.75000000e-010,-8.47343817e-003
,,,9.00000000e-010,-8.53906318e-003
,,,9.25000000e-010,-8.61250068e-003
,,,9.50000000e-010,-8.68750069e-003
,,,9.75000000e-010,-8.75312569e-003
,,,1.00000000e-009,-8.80000070e-003
,,,1.02500000e-009,-8.77812570e-003
,,,1.05000000e-009,-8.72656319e-003
,,,1.07500000e-009,-8.64843819e-003
,,,1.10000000e-009,-8.54531318e-003
,,,1.12500000e-009,-8.42343817e-003
,,,1.15000000e-009,-8.28906316e-003
,,,1.17500000e-009,-8.14531315e-003
,,,1.20000000e-009,-8.00000064e-003
,,,1.22500000e-009,-7.81875063e-003
,,,1.25000000e-009,-7.64218812e-003
,,,1.27500000e-009,-7.47343810e-003
,,,1.30000000e-009,-7.31718809e-003
,,,1.32500000e-009,-7.17031308e-003
,,,1.35000000e-009,-7.03750057e-003
,,,1.37500000e-009,-6.91406306e-003
,,,1.40000000e-009,-6.80000056e-003
,,,1.42500000e-009,-6.66562555e-003
,,,1.45000000e-009,-6.52968804e-003
,,,1.47500000e-009,-6.38750053e-003
,,,1.50000000e-009,-6.24218802e-003
,,,1.52500000e-009,-6.08906301e-003
,,,1.55000000e-009,-5.93125049e-003
,,,1.57500000e-009,-5.76875048e-003
,,,1.60000000e-009,-5.60000047e-003
,,,1.62500000e-009,-5.41093796e-003
,,,1.65000000e-009,-5.21250044e-003
,,,1.67500000e-009,-5.00625043e-003
,,,1.70000000e-009,-4.79687541e-003
,,,1.72500000e-009,-4.58593790e-003
,,,1.75000000e-009,-4.38125038e-003
,,,1.77500000e-009,-4.18437537e-003
,,,1.80000000e-009,-4.00000036e-003
,,,1.82500000e-009,-3.82656285e-003
,,,1.85000000e-009,-3.66093783e-003
,,,1.87500000e-009,-3.50156282e-003
,,,1.90000000e-009,-3.34843781e-003
,,,1.92500000e-009,-3.20156280e-003
,,,1.95000000e-009,-3.06093779e-003
,,,1.97500000e-009,-2.92656278e-003
,,,2.00000000e-009,-2.80000027e-003
,,,2.02500000e-009,-2.68593776e-003
,,,2.05000000e-009,-2.57187526e-003
,,,2.07500000e-009,-2.45781275e-003
,,,2.10000000e-009,-2.34843774e-003
,,,2.12500000e-009,-2.24531273e-003
,,,2.15000000e-009,-2.15156273e-003
,,,2.17500000e-009,-2.07031272e-003
,,,2.20000000e-009,-2.00000022e-003
,,,2.22500000e-009,-1.94843771e-003
,,,2.25000000e-009,-1.89375021e-003
,,,2.27500000e-009,-1.82812520e-003
,,,2.30000000e-009,-1.74687520e-003
,,,2.32500000e-009,-1.64375019e-003
,,,2.35000000e-009,-1.51875018e-003
,,,2.37500000e-009,-1.37031267e-003
,,,2.40000000e-009,-1.20000016e-003
,,,2.42500000e-009,-1.02812515e-003
,,,2.45000000e-009,-8.42187634e-004
,,,2.47500000e-009,-6.50000121e-004
,,,2.50000000e-009,-4.64062607e-004
,,,2.52500000e-009,-2.96875096e-004
,,,2.55000000e-009,-1.57812586e-004
,,,2.57500000e-009,-5.62500785e-005
,,,2.60000000e-009,-7.45058060e-011
,,,2.62500000e-009,-7.81257506e-006
,,,2.65000000e-009,-5.00000780e-005
,,,2.67500000e-009,-1.15625083e-004
,,,2.70000000e-009,-1.93750088e-004
,,,2.72500000e-009,-2.73437594e-004
,,,2.75000000e-009,-3.40625099e-004
,,,2.77500000e-009,-3.84375102e-004
,,,2.80000000e-009,-4.00000103e-004
,,,2.82500000e-009,-3.90625102e-004
,,,2.85000000e-009,-3.40625099e-004
,,,2.87500000e-009,-2.54687593e-004
,,,2.90000000e-009,-1.39062584e-004
,,,2.92500000e-009,-4.68757484e-006
,,,2.95000000e-009,1.37499935e-004
,,,2.97500000e-009,2.76562445e-004
,,,3.00000000e-009,3.99999954e-004
,,,3.02500000e-009,4.85937460e-004
,,,3.05000000e-009,5.45312464e-004
,,,3.07500000e-009,5.76562466e-004
,,,3.10000000e-009,5.79687467e-004
,,,3.12500000e-009,5.59374965e-004
,,,3.15000000e-009,5.20312462e-004
,,,3.17500000e-009,4.65624958e-004
,,,3.20000000e-009,3.99999954e-004
,,,3.22500000e-009,3.23437448e-004
,,,3.25000000e-009,2.51562443e-004
,,,3.27500000e-009,1.85937439e-004
,,,3.30000000e-009,1.31249935e-004
,,,3.32500000e-009,8.59374316e-005
,,,3.35000000e-009,4.99999290e-005
,,,3.37500000e-009,2.18749270e-005
,,,3.40000000e-009,-7.45058060e-011
,,,3.42500000e-009,-1.71875757e-005
,,,3.45000000e-009,-2.65625764e-005
,,,3.47500000e-009,-3.12500767e-005
,,,3.50000000e-009,-3.12500767e-005
,,,3.52500000e-009,-2.65625764e-005
,,,3.55000000e-009,-2.03125759e-005
,,,3.57500000e-009,-9.37507517e-006
,,,3.60000000e-009,-7.45058060e-011
,,,3.62500000e-009,1.24999264e-005
,,,3.65000000e-009,2.34374272e-005
,,,3.67500000e-009,3.12499277e-005
,,,3.70000000e-009,3.59374280e-005
,,,3.72500000e-009,3.43749279e-005
,,,3.75000000e-009,2.81249275e-005
,,,3.77500000e-009,1.56249266e-005
,,,3.80000000e-009,-7.45058060e-011
,,,3.82500000e-009,-1.56250756e-005
,,,3.85000000e-009,-2.96875766e-005
,,,3.87500000e-009,-4.21875775e-005
,,,3.90000000e-009,-4.84375779e-005
,,,3.92500000e-009,-4.84375779e-005
,,,3.95000000e-009,-4.21875775e-005
,,,3.97500000e-009,-2.50000763e-005
,,,4.00000000e-009,-7.45058060e-011
,,,4.02500000e-009,4.37499286e-005
,,,4.05000000e-009,9.37499321e-005
,,,4.07500000e-009,1.48437436e-004
,,,4.10000000e-009,2.06249940e-004
,,,4.12500000e-009,2.62499944e-004
,,,4.15000000e-009,3.15624948e-004
,,,4.17500000e-009,3.62499951e-004
,,,4.20000000e-009,3.99999954e-004
,,,4.22500000e-009,4.31249956e-004
,,,4.25000000e-009,4.49999957e-004
,,,4.27500000e-009,4.57812458e-004
,,,4.30000000e-009,4.57812458e-004
,,,4.32500000e-009,4.48437457e-004
,,,4.35000000e-009,4.35937456e-004
,,,4.37500000e-009,4.18749955e-004
,,,4.40000000e-009,3.99999954e-004
,,,4.42500000e-009,3.84374953e-004
,,,4.45000000e-009,3.71874952e-004
,,,4.47500000e-009,3.64062451e-004
,,,4.50000000e-009,3.60937451e-004
,,,4.52500000e-009,3.64062451e-004
,,,4.55000000e-009,3.71874952e-004
,,,4.57500000e-009,3.82812453e-004
,,,4.60000000e-009,3.99999954e-004
,,,4.62500000e-009,4.23437455e-004
,,,4.65000000e-009,4.54687458e-004
,,,4.67500000e-009,4.92187460e-004
,,,4.70000000e-009,5.37499964e-004
,,,4.72500000e-009,5.92187467e-004
,,,4.75000000e-009,6.54687472e-004
,,,4.77500000e-009,7.24999977e-004
,,,4.80000000e-009,7.99999982e-004
,,,4.82500000e-009,8.76562488e-004
,,,4.85000000e-009,9.53124993e-004
,,,4.87500000e-009,1.02500000e-003
,,,4.90000000e-009,1.08906250e-003
,,,4.92500000e-009,1.14218751e-003
,,,4.95000000e-009,1.17968751e-003
,,,4.97500000e-009,1.20000001e-003
,,,5.00000000e-009,1.20000001e-003
,,,5.02500000e-009,1.17500001e-003
,,,5.05000000e-009,1.13281251e-003
,,,5.07500000e-009,1.07812500e-003
,,,5.10000000e-009,1.01718750e-003
,,,5.12500000e-009,9.54687493e-004
,,,5.15000000e-009,8.95312489e-004
,,,5.17500000e-009,8.42187485e-004
,,,5.20000000e-009,7.99999982e-004
,,,5.22500000e-009,7.70312480e-004
,,,5.25000000e-009,7.53124979e-004
,,,5.27500000e-009,7.48437478e-004
,,,5.30000000e-009,7.53124979e-004
,,,5.32500000e-009,7.64062480e-004
,,,5.35000000e-009,7.78124981e-004
,,,5.37500000e-009,7.90624981e-004
,,,5.40000000e-009,7.99999982e-004
,,,5.42500000e-009,8.03124982e-004
,,,5.45000000e-009,7.99999982e-004
,,,5.47500000e-009,7.93749982e-004
,,,5.50000000e-009,7.87499981e-004
,,,5.52500000e-009,7.82812481e-004
,,,5.55000000e-009,7.82812481e-004
,,,5.57500000e-009,7.87499981e-004
,,,5.60000000e-009,7.99999982e-004
,,,5.62500000e-009,8.15624983e-004
,,,5.65000000e-009,8.34374985e-004
,,,5.67500000e-009,8.51562486e-004
,,,5.70000000e-009,8.65624987e-004
,,,5.72500000e-009,8.70312487e-004
,,,5.75000000e-009,8.62499987e-004
,,,5.77500000e-009,8.40624985e-004
,,,5.80000000e-009,7.99999982e-004
,,,5.82500000e-009,7.45312478e-004
,,,5.85000000e-009,6.78124973e-004
,,,5.87500000e-009,6.06249968e-004
,,,5.90000000e-009,5.35937463e-004
,,,5.92500000e-009,4.73437459e-004
,,,5.95000000e-009,4.28124956e-004
,,,5.97500000e-009,4.03124954e-004
,,,6.00000000e-009,3.99999954e-004
,,,6.02500000e-009,4.28124956e-004
,,,6.05000000e-009,4.76562459e-004
,,,6.07500000e-009,5.37499964e-004
