RawData/SinglePhotoelectron/R6_2pt2D_5mV/wave008_Ch4.csv

"Record Length",1000,"Points",-7.72500000e-009,1.12812501e-003
"Sample Interval",2.50000000e-011,s,-7.70000000e-009,1.06562500e-003
"Trigger Point",309,"Samples",-7.67500000e-009,9.93749996e-004
"Trigger Time",2.27237037e-011,s,-7.65000000e-009,9.21874991e-004
"",,,-7.62500000e-009,8.54687486e-004
"Horizontal Offset",-7.72500000e-009,s,-7.60000000e-009,7.99999982e-004
,,,-7.57500000e-009,7.62499979e-004
,,,-7.55000000e-009,7.42187478e-004
,,,-7.52500000e-009,7.39062478e-004
,,,-7.50000000e-009,7.46874978e-004
,,,-7.47500000e-009,7.60937479e-004
,,,-7.45000000e-009,7.78124981e-004
,,,-7.42500000e-009,7.92187482e-004
,,,-7.40000000e-009,7.99999982e-004
,,,-7.37500000e-009,7.98437482e-004
,,,-7.35000000e-009,7.89062481e-004
,,,-7.32500000e-009,7.74999980e-004
,,,-7.30000000e-009,7.60937479e-004
,,,-7.27500000e-009,7.53124979e-004
,,,-7.25000000e-009,7.53124979e-004
,,,-7.22500000e-009,7.68749980e-004
,,,-7.20000000e-009,7.99999982e-004
,,,-7.17500000e-009,8.49999986e-004
,,,-7.15000000e-009,9.10937490e-004
,,,-7.12500000e-009,9.79687495e-004
,,,-7.10000000e-009,1.04843750e-003
,,,-7.07500000e-009,1.11093750e-003
,,,-7.05000000e-009,1.16093751e-003
,,,-7.02500000e-009,1.19218751e-003
,,,-7.00000000e-009,1.20000001e-003
,,,-6.97500000e-009,1.18125001e-003
,,,-6.95000000e-009,1.13906251e-003
,,,-6.92500000e-009,1.08281250e-003
,,,-6.90000000e-009,1.01562500e-003
,,,-6.87500000e-009,9.48437493e-004
,,,-6.85000000e-009,8.85937488e-004
,,,-6.82500000e-009,8.34374985e-004
,,,-6.80000000e-009,7.99999982e-004
,,,-6.77500000e-009,7.87499981e-004
,,,-6.75000000e-009,7.90624981e-004
,,,-6.72500000e-009,8.04687482e-004
,,,-6.70000000e-009,8.23437484e-004
,,,-6.67500000e-009,8.37499985e-004
,,,-6.65000000e-009,8.42187485e-004
,,,-6.62500000e-009,8.31249984e-004
,,,-6.60000000e-009,7.99999982e-004
,,,-6.57500000e-009,7.51562479e-004
,,,-6.55000000e-009,6.85937474e-004
,,,-6.52500000e-009,6.12499969e-004
,,,-6.50000000e-009,5.37499964e-004
,,,-6.47500000e-009,4.71874959e-004
,,,-6.45000000e-009,4.23437455e-004
,,,-6.42500000e-009,3.98437454e-004
,,,-6.40000000e-009,3.99999954e-004
,,,-6.37500000e-009,4.34374956e-004
,,,-6.35000000e-009,4.92187460e-004
,,,-6.32500000e-009,5.64062465e-004
,,,-6.30000000e-009,6.42187471e-004
,,,-6.27500000e-009,7.14062476e-004
,,,-6.25000000e-009,7.68749980e-004
,,,-6.22500000e-009,7.99999982e-004
,,,-6.20000000e-009,7.99999982e-004
,,,-6.17500000e-009,7.70312480e-004
,,,-6.15000000e-009,7.15624976e-004
,,,-6.12500000e-009,6.40624971e-004
,,,-6.10000000e-009,5.59374965e-004
,,,-6.07500000e-009,4.84374960e-004
,,,-6.05000000e-009,4.26562456e-004
,,,-6.02500000e-009,3.95312453e-004
,,,-6.00000000e-009,3.99999954e-004
,,,-5.97500000e-009,4.51562457e-004
,,,-5.95000000e-009,5.35937463e-004
,,,-5.92500000e-009,6.46874971e-004
,,,-5.90000000e-009,7.74999980e-004
,,,-5.87500000e-009,9.06249990e-004
,,,-5.85000000e-009,1.02968750e-003
,,,-5.82500000e-009,1.12968751e-003
,,,-5.80000000e-009,1.20000001e-003
,,,-5.77500000e-009,1.23281251e-003
,,,-5.75000000e-009,1.22968751e-003
,,,-5.72500000e-009,1.19062501e-003
,,,-5.70000000e-009,1.12656251e-003
,,,-5.67500000e-009,1.04531250e-003
,,,-5.65000000e-009,9.57812493e-004
,,,-5.62500000e-009,8.73437487e-004
,,,-5.60000000e-009,7.99999982e-004
,,,-5.57500000e-009,7.43749978e-004
,,,-5.55000000e-009,7.09374976e-004
,,,-5.52500000e-009,6.95312475e-004
,,,-5.50000000e-009,6.99999975e-004
,,,-5.47500000e-009,7.18749976e-004
,,,-5.45000000e-009,7.45312478e-004
,,,-5.42500000e-009,7.74999980e-004
,,,-5.40000000e-009,7.99999982e-004
,,,-5.37500000e-009,8.18749983e-004
,,,-5.35000000e-009,8.28124984e-004
,,,-5.32500000e-009,8.29687484e-004
,,,-5.30000000e-009,8.24999984e-004
,,,-5.27500000e-009,8.15624983e-004
,,,-5.25000000e-009,8.06249983e-004
,,,-5.22500000e-009,7.99999982e-004
,,,-5.20000000e-009,7.99999982e-004
,,,-5.17500000e-009,8.12499983e-004
,,,-5.15000000e-009,8.35937485e-004
,,,-5.12500000e-009,8.73437487e-004
,,,-5.10000000e-009,9.21874991e-004
,,,-5.07500000e-009,9.82812495e-004
,,,-5.05000000e-009,1.05156250e-003
,,,-5.02500000e-009,1.12656251e-003
,,,-5.00000000e-009,1.20000001e-003
,,,-4.97500000e-009,1.26562502e-003
,,,-4.95000000e-009,1.31875002e-003
,,,-4.92500000e-009,1.35625002e-003
,,,-4.90000000e-009,1.37500002e-003
,,,-4.87500000e-009,1.37031252e-003
,,,-4.85000000e-009,1.33906252e-003
,,,-4.82500000e-009,1.28281252e-003
,,,-4.80000000e-009,1.20000001e-003
,,,-4.77500000e-009,1.09687500e-003
,,,-4.75000000e-009,9.78124995e-004
,,,-4.72500000e-009,8.53124986e-004
,,,-4.70000000e-009,7.29687477e-004
,,,-4.67500000e-009,6.15624969e-004
,,,-4.65000000e-009,5.18749962e-004
,,,-4.62500000e-009,4.45312457e-004
,,,-4.60000000e-009,3.99999954e-004
,,,-4.57500000e-009,3.90624953e-004
,,,-4.55000000e-009,4.09374954e-004
,,,-4.52500000e-009,4.51562457e-004
,,,-4.50000000e-009,5.14062462e-004
,,,-4.47500000e-009,5.87499967e-004
,,,-4.45000000e-009,6.64062472e-004
,,,-4.42500000e-009,7.37499978e-004
,,,-4.40000000e-009,7.99999982e-004
,,,-4.37500000e-009,8.48437486e-004
,,,-4.35000000e-009,8.79687488e-004
,,,-4.32500000e-009,8.92187489e-004
,,,-4.30000000e-009,8.89062488e-004
,,,-4.27500000e-009,8.74999987e-004
,,,-4.25000000e-009,8.51562486e-004
,,,-4.22500000e-009,8.26562484e-004
,,,-4.20000000e-009,7.99999982e-004
,,,-4.17500000e-009,7.79687481e-004
,,,-4.15000000e-009,7.65624980e-004
,,,-4.12500000e-009,7.59374979e-004
,,,-4.10000000e-009,7.59374979e-004
,,,-4.07500000e-009,7.65624980e-004
,,,-4.05000000e-009,7.76562480e-004
,,,-4.02500000e-009,7.89062481e-004
,,,-4.00000000e-009,7.99999982e-004
,,,-3.97500000e-009,8.14062483e-004
,,,-3.95000000e-009,8.23437484e-004
,,,-3.92500000e-009,8.29687484e-004
,,,-3.90000000e-009,8.29687484e-004
,,,-3.87500000e-009,8.26562484e-004
,,,-3.85000000e-009,8.18749983e-004
,,,-3.82500000e-009,8.10937483e-004
,,,-3.80000000e-009,7.99999982e-004
,,,-3.77500000e-009,7.92187482e-004
,,,-3.75000000e-009,7.85937481e-004
,,,-3.72500000e-009,7.81249981e-004
,,,-3.70000000e-009,7.78124981e-004
,,,-3.67500000e-009,7.79687481e-004
,,,-3.65000000e-009,7.84374981e-004
,,,-3.62500000e-009,7.90624981e-004
,,,-3.60000000e-009,7.99999982e-004
,,,-3.57500000e-009,8.14062483e-004
,,,-3.55000000e-009,8.28124984e-004
,,,-3.52500000e-009,8.39062485e-004
,,,-3.50000000e-009,8.46874985e-004
,,,-3.47500000e-009,8.48437486e-004
,,,-3.45000000e-009,8.40624985e-004
,,,-3.42500000e-009,8.24999984e-004
,,,-3.40000000e-009,7.99999982e-004
,,,-3.37500000e-009,7.71874980e-004
,,,-3.35000000e-009,7.42187478e-004
,,,-3.32500000e-009,7.15624976e-004
,,,-3.30000000e-009,6.98437475e-004
,,,-3.27500000e-009,6.95312475e-004
,,,-3.25000000e-009,7.10937476e-004
,,,-3.22500000e-009,7.45312478e-004
,,,-3.20000000e-009,7.99999982e-004
,,,-3.17500000e-009,8.71874987e-004
,,,-3.15000000e-009,9.53124993e-004
,,,-3.12500000e-009,1.03750000e-003
,,,-3.10000000e-009,1.11406250e-003
,,,-3.07500000e-009,1.17500001e-003
,,,-3.05000000e-009,1.21250001e-003
,,,-3.02500000e-009,1.22187501e-003
,,,-3.00000000e-009,1.20000001e-003
,,,-2.97500000e-009,1.14843751e-003
,,,-2.95000000e-009,1.07500000e-003
,,,-2.92500000e-009,9.89062496e-004
,,,-2.90000000e-009,9.04687490e-004
,,,-2.87500000e-009,8.34374985e-004
,,,-2.85000000e-009,7.87499981e-004
,,,-2.82500000e-009,7.74999980e-004
,,,-2.80000000e-009,7.99999982e-004
,,,-2.77500000e-009,8.67187487e-004
,,,-2.75000000e-009,9.65624994e-004
,,,-2.72500000e-009,1.08906250e-003
,,,-2.70000000e-009,1.22500001e-003
,,,-2.67500000e-009,1.35625002e-003
,,,-2.65000000e-009,1.47187503e-003
,,,-2.62500000e-009,1.55625004e-003
,,,-2.60000000e-009,1.60000004e-003
,,,-2.57500000e-009,1.59375004e-003
,,,-2.55000000e-009,1.54062503e-003
,,,-2.52500000e-009,1.45000003e-003
,,,-2.50000000e-009,1.32812502e-003
,,,-2.47500000e-009,1.19062501e-003
,,,-2.45000000e-009,1.04843750e-003
,,,-2.42500000e-009,9.15624990e-004
,,,-2.40000000e-009,7.99999982e-004
,,,-2.37500000e-009,7.14062476e-004
,,,-2.35000000e-009,6.59374972e-004
,,,-2.32500000e-009,6.37499971e-004
,,,-2.30000000e-009,6.42187471e-004
,,,-2.27500000e-009,6.68749973e-004
,,,-2.25000000e-009,7.09374976e-004
,,,-2.22500000e-009,7.56249979e-004
,,,-2.20000000e-009,7.99999982e-004
,,,-2.17500000e-009,8.34374985e-004
,,,-2.15000000e-009,8.54687486e-004
,,,-2.12500000e-009,8.62499987e-004
,,,-2.10000000e-009,8.59374986e-004
,,,-2.07500000e-009,8.46874985e-004
,,,-2.05000000e-009,8.31249984e-004
,,,-2.02500000e-009,8.14062483e-004
,,,-2.00000000e-009,7.99999982e-004
,,,-1.97500000e-009,7.90624981e-004
,,,-1.95000000e-009,7.84374981e-004
,,,-1.92500000e-009,7.84374981e-004
,,,-1.90000000e-009,7.87499981e-004
,,,-1.87500000e-009,7.92187482e-004
,,,-1.85000000e-009,7.96874982e-004
,,,-1.82500000e-009,7.99999982e-004
,,,-1.80000000e-009,7.99999982e-004
,,,-1.77500000e-009,7.89062481e-004
,,,-1.75000000e-009,7.73437480e-004
,,,-1.72500000e-009,7.57812479e-004
,,,-1.70000000e-009,7.45312478e-004
,,,-1.67500000e-009,7.42187478e-004
,,,-1.65000000e-009,7.49999979e-004
,,,-1.62500000e-009,7.68749980e-004
,,,-1.60000000e-009,7.99999982e-004
,,,-1.57500000e-009,8.34374985e-004
,,,-1.55000000e-009,8.70312487e-004
,,,-1.52500000e-009,9.01562489e-004
,,,-1.50000000e-009,9.21874991e-004
,,,-1.47500000e-009,9.26562491e-004
,,,-1.45000000e-009,9.09374990e-004
,,,-1.42500000e-009,8.67187487e-004
,,,-1.40000000e-009,7.99999982e-004
,,,-1.37500000e-009,6.93749975e-004
,,,-1.35000000e-009,5.68749966e-004
,,,-1.32500000e-009,4.32812456e-004
,,,-1.30000000e-009,3.01562447e-004
,,,-1.27500000e-009,1.82812438e-004
,,,-1.25000000e-009,9.06249319e-005
,,,-1.22500000e-009,2.81249275e-005
,,,-1.20000000e-009,-7.45058060e-011
,,,-1.17500000e-009,-7.81257506e-006
,,,-1.15000000e-009,7.81242605e-006
,,,-1.12500000e-009,3.74999281e-005
,,,-1.10000000e-009,6.87499304e-005
,,,-1.07500000e-009,9.21874320e-005
,,,-1.05000000e-009,9.37499321e-005
,,,-1.02500000e-009,6.56249301e-005
,,,-1.00000000e-009,-7.45058060e-011
,,,-9.75000000e-010,-1.23437583e-004
,,,-9.50000000e-010,-2.82812595e-004
,,,-9.25000000e-010,-4.65625107e-004
,,,-9.00000000e-010,-6.57812621e-004
,,,-8.75000000e-010,-8.40625134e-004
,,,-8.50000000e-010,-1.00000015e-003
,,,-8.25000000e-010,-1.12343765e-003
,,,-8.00000000e-010,-1.20000016e-003
,,,-7.75000000e-010,-1.24375016e-003
,,,-7.50000000e-010,-1.25156266e-003
,,,-7.25000000e-010,-1.23125016e-003
,,,-7.00000000e-010,-1.19687516e-003
,,,-6.75000000e-010,-1.16093766e-003
,,,-6.50000000e-010,-1.14218766e-003
,,,-6.25000000e-010,-1.15000016e-003
,,,-6.00000000e-010,-1.20000016e-003
,,,-5.75000000e-010,-1.31093767e-003
,,,-5.50000000e-010,-1.47187518e-003
,,,-5.25000000e-010,-1.67343769e-003
,,,-5.00000000e-010,-1.90468771e-003
,,,-4.75000000e-010,-2.14687523e-003
,,,-4.50000000e-010,-2.38593774e-003
,,,-4.25000000e-010,-2.60781276e-003
,,,-4.00000000e-010,-2.80000027e-003
,,,-3.75000000e-010,-2.95781278e-003
,,,-3.50000000e-010,-3.08437529e-003
,,,-3.25000000e-010,-3.18437530e-003
,,,-3.00000000e-010,-3.26406281e-003
,,,-2.75000000e-010,-3.33593781e-003
,,,-2.50000000e-010,-3.40781282e-003
,,,-2.25000000e-010,-3.49375032e-003
,,,-2.00000000e-010,-3.60000033e-003
,,,-1.75000000e-010,-3.72968784e-003
,,,-1.50000000e-010,-3.89062535e-003
,,,-1.25000000e-010,-4.08437536e-003
,,,-1.00000000e-010,-4.30000038e-003
,,,-7.50000000e-011,-4.52968790e-003
,,,-5.00000000e-011,-4.76406291e-003
,,,-2.50000000e-011,-4.98906293e-003
,,,0.00000000e+000,-5.20000044e-003
,,,2.50000000e-011,-5.36250045e-003
,,,5.00000000e-011,-5.50156296e-003
,,,7.50000000e-011,-5.61875047e-003
,,,1.00000000e-010,-5.71562548e-003
,,,1.25000000e-010,-5.79843798e-003
,,,1.50000000e-010,-5.87031299e-003
,,,1.75000000e-010,-5.93593799e-003
,,,2.00000000e-010,-6.00000050e-003
,,,2.25000000e-010,-6.03437550e-003
,,,2.50000000e-010,-6.07500050e-003
,,,2.75000000e-010,-6.12187551e-003
,,,3.00000000e-010,-6.17656301e-003
,,,3.25000000e-010,-6.23437552e-003
,,,3.50000000e-010,-6.29375052e-003
,,,3.75000000e-010,-6.35000052e-003
,,,4.00000000e-010,-6.40000053e-003
,,,4.25000000e-010,-6.40625053e-003
,,,4.50000000e-010,-6.40937553e-003
,,,4.75000000e-010,-6.40781303e-003
,,,5.00000000e-010,-6.40468803e-003
,,,5.25000000e-010,-6.40156303e-003
,,,5.50000000e-010,-6.40000053e-003
,,,5.75000000e-010,-6.40000053e-003
,,,6.00000000e-010,-6.40000053e-003
,,,6.25000000e-010,-6.36406302e-003
,,,6.50000000e-010,-6.32812552e-003
,,,6.75000000e-010,-6.29062552e-003
,,,7.00000000e-010,-6.24843802e-003
,,,7.25000000e-010,-6.20156301e-003
,,,7.50000000e-010,-6.14531301e-003
,,,7.75000000e-010,-6.07968800e-003
,,,8.00000000e-010,-6.00000050e-003
,,,8.25000000e-010,-5.87500049e-003
,,,8.50000000e-010,-5.73593798e-003
,,,8.75000000e-010,-5.58750047e-003
,,,9.00000000e-010,-5.42968796e-003
,,,9.25000000e-010,-5.26875045e-003
,,,9.50000000e-010,-5.10781294e-003
,,,9.75000000e-010,-4.95000042e-003
,,,1.00000000e-009,-4.80000041e-003
,,,1.02500000e-009,-4.64375040e-003
,,,1.05000000e-009,-4.50000039e-003
,,,1.07500000e-009,-4.37031288e-003
,,,1.10000000e-009,-4.25937538e-003
,,,1.12500000e-009,-4.16562537e-003
,,,1.15000000e-009,-4.09218786e-003
,,,1.17500000e-009,-4.03750036e-003
,,,1.20000000e-009,-4.00000036e-003
,,,1.22500000e-009,-3.96250035e-003
,,,1.25000000e-009,-3.92968785e-003
,,,1.27500000e-009,-3.89531285e-003
,,,1.30000000e-009,-3.85781285e-003
,,,1.32500000e-009,-3.81093784e-003
,,,1.35000000e-009,-3.75468784e-003
,,,1.37500000e-009,-3.68437534e-003
,,,1.40000000e-009,-3.60000033e-003
,,,1.42500000e-009,-3.49218782e-003
,,,1.45000000e-009,-3.36562531e-003
,,,1.47500000e-009,-3.22031280e-003
,,,1.50000000e-009,-3.06250029e-003
,,,1.52500000e-009,-2.89531278e-003
,,,1.55000000e-009,-2.72656277e-003
,,,1.57500000e-009,-2.55937526e-003
,,,1.60000000e-009,-2.40000024e-003
,,,1.62500000e-009,-2.25312523e-003
,,,1.65000000e-009,-2.11875022e-003
,,,1.67500000e-009,-1.99531272e-003
,,,1.70000000e-009,-1.88437521e-003
,,,1.72500000e-009,-1.79062520e-003
,,,1.75000000e-009,-1.71250020e-003
,,,1.77500000e-009,-1.64843769e-003
,,,1.80000000e-009,-1.60000019e-003
,,,1.82500000e-009,-1.56562519e-003
,,,1.85000000e-009,-1.53281268e-003
,,,1.87500000e-009,-1.49687518e-003
,,,1.90000000e-009,-1.45468768e-003
,,,1.92500000e-009,-1.40468767e-003
,,,1.95000000e-009,-1.34531267e-003
,,,1.97500000e-009,-1.27656266e-003
,,,2.00000000e-009,-1.20000016e-003
,,,2.02500000e-009,-1.12031265e-003
,,,2.05000000e-009,-1.02812515e-003
,,,2.07500000e-009,-9.28125140e-004
,,,2.10000000e-009,-8.20312633e-004
,,,2.12500000e-009,-7.09375125e-004
,,,2.15000000e-009,-6.00000117e-004
,,,2.17500000e-009,-4.95312610e-004
,,,2.20000000e-009,-4.00000103e-004
,,,2.22500000e-009,-3.26562598e-004
,,,2.25000000e-009,-2.60937593e-004
,,,2.27500000e-009,-2.03125089e-004
,,,2.30000000e-009,-1.53125085e-004
,,,2.32500000e-009,-1.09375082e-004
,,,2.35000000e-009,-7.03125795e-005
,,,2.37500000e-009,-3.43750769e-005
,,,2.40000000e-009,-7.45058060e-011
,,,2.42500000e-009,2.34374272e-005
,,,2.45000000e-009,5.31249293e-005
,,,2.47500000e-009,9.21874320e-005
,,,2.50000000e-009,1.39062435e-004
,,,2.52500000e-009,1.95312439e-004
,,,2.55000000e-009,2.57812444e-004
,,,2.57500000e-009,3.28124949e-004
,,,2.60000000e-009,3.99999954e-004
,,,2.62500000e-009,4.64062458e-004
,,,2.65000000e-009,5.28124963e-004
,,,2.67500000e-009,5.90624967e-004
,,,2.70000000e-009,6.49999972e-004
,,,2.72500000e-009,7.03124975e-004
,,,2.75000000e-009,7.48437478e-004
,,,2.77500000e-009,7.81249981e-004
,,,2.80000000e-009,7.99999982e-004
,,,2.82500000e-009,7.93749982e-004
,,,2.85000000e-009,7.71874980e-004
,,,2.87500000e-009,7.37499978e-004
,,,2.90000000e-009,6.90624974e-004
,,,2.92500000e-009,6.32812470e-004
,,,2.95000000e-009,5.62499965e-004
,,,2.97500000e-009,4.84374960e-004
,,,3.00000000e-009,3.99999954e-004
,,,3.02500000e-009,3.09374947e-004
,,,3.05000000e-009,2.23437441e-004
,,,3.07500000e-009,1.46874936e-004
,,,3.10000000e-009,8.28124314e-005
,,,3.12500000e-009,3.43749279e-005
,,,3.15000000e-009,4.68742583e-006
,,,3.17500000e-009,-6.25007495e-006
,,,3.20000000e-009,-7.45058060e-011
,,,3.22500000e-009,2.34374272e-005
,,,3.25000000e-009,6.24999299e-005
,,,3.27500000e-009,1.14062434e-004
,,,3.30000000e-009,1.71874938e-004
,,,3.32500000e-009,2.34374942e-004
,,,3.35000000e-009,2.95312446e-004
,,,3.37500000e-009,3.51562450e-004
,,,3.40000000e-009,3.99999954e-004
,,,3.42500000e-009,4.37499956e-004
,,,3.45000000e-009,4.60937458e-004
,,,3.47500000e-009,4.71874959e-004
,,,3.50000000e-009,4.71874959e-004
,,,3.52500000e-009,4.62499958e-004
,,,3.55000000e-009,4.46874957e-004
,,,3.57500000e-009,4.24999956e-004
,,,3.60000000e-009,3.99999954e-004
,,,3.62500000e-009,3.79687452e-004
,,,3.65000000e-009,3.64062451e-004
,,,3.67500000e-009,3.53124950e-004
,,,3.70000000e-009,3.49999950e-004
,,,3.72500000e-009,3.53124950e-004
,,,3.75000000e-009,3.64062451e-004
,,,3.77500000e-009,3.79687452e-004
,,,3.80000000e-009,3.99999954e-004
,,,3.82500000e-009,4.26562456e-004
,,,3.85000000e-009,4.49999957e-004
,,,3.87500000e-009,4.68749959e-004
,,,3.90000000e-009,4.79687459e-004
,,,3.92500000e-009,4.79687459e-004
,,,3.95000000e-009,4.67187459e-004
,,,3.97500000e-009,4.40624957e-004
,,,4.00000000e-009,3.99999954e-004
,,,4.02500000e-009,3.51562450e-004
,,,4.05000000e-009,2.93749946e-004
,,,4.07500000e-009,2.32812442e-004
,,,4.10000000e-009,1.70312438e-004
,,,4.12500000e-009,1.12499933e-004
,,,4.15000000e-009,6.09374298e-005
,,,4.17500000e-009,2.34374272e-005
,,,4.20000000e-009,-7.45058060e-011
,,,4.22500000e-009,-1.56257462e-006
,,,4.25000000e-009,1.40624265e-005
,,,4.27500000e-009,4.84374289e-005
,,,4.30000000e-009,9.84374325e-005
,,,4.32500000e-009,1.62499937e-004
,,,4.35000000e-009,2.37499942e-004
,,,4.37500000e-009,3.17187448e-004
,,,4.40000000e-009,3.99999954e-004
,,,4.42500000e-009,4.84374960e-004
,,,4.45000000e-009,5.60937465e-004
,,,4.47500000e-009,6.29687470e-004
,,,4.50000000e-009,6.87499974e-004
,,,4.52500000e-009,7.34374977e-004
,,,4.55000000e-009,7.67187480e-004
,,,4.57500000e-009,7.89062481e-004
,,,4.60000000e-009,7.99999982e-004
,,,4.62500000e-009,8.01562482e-004
,,,4.65000000e-009,7.96874982e-004
,,,4.67500000e-009,7.90624981e-004
,,,4.70000000e-009,7.82812481e-004
,,,4.72500000e-009,7.79687481e-004
,,,4.75000000e-009,7.81249981e-004
,,,4.77500000e-009,7.87499981e-004
,,,4.80000000e-009,7.99999982e-004
,,,4.82500000e-009,8.17187483e-004
,,,4.85000000e-009,8.34374985e-004
,,,4.87500000e-009,8.51562486e-004
,,,4.90000000e-009,8.64062487e-004
,,,4.92500000e-009,8.67187487e-004
,,,4.95000000e-009,8.59374986e-004
,,,4.97500000e-009,8.37499985e-004
,,,5.00000000e-009,7.99999982e-004
,,,5.02500000e-009,7.48437478e-004
,,,5.05000000e-009,6.87499974e-004
,,,5.07500000e-009,6.20312469e-004
,,,5.10000000e-009,5.54687465e-004
,,,5.12500000e-009,4.95312461e-004
,,,5.15000000e-009,4.45312457e-004
,,,5.17500000e-009,4.14062455e-004
,,,5.20000000e-009,3.99999954e-004
,,,5.22500000e-009,4.09374954e-004
,,,5.25000000e-009,4.39062457e-004
,,,5.27500000e-009,4.85937460e-004
,,,5.30000000e-009,5.46874964e-004
,,,5.32500000e-009,6.14062469e-004
,,,5.35000000e-009,6.82812474e-004
,,,5.37500000e-009,7.46874978e-004
,,,5.40000000e-009,7.99999982e-004
,,,5.42500000e-009,8.39062485e-004
,,,5.45000000e-009,8.60937486e-004
,,,5.47500000e-009,8.68749987e-004
,,,5.50000000e-009,8.65624987e-004
,,,5.52500000e-009,8.53124986e-004
,,,5.55000000e-009,8.35937485e-004
,,,5.57500000e-009,8.17187483e-004
,,,5.60000000e-009,7.99999982e-004
,,,5.62500000e-009,7.85937481e-004
,,,5.65000000e-009,7.78124981e-004
,,,5.67500000e-009,7.74999980e-004
,,,5.70000000e-009,7.76562480e-004
,,,5.72500000e-009,7.81249981e-004
,,,5.75000000e-009,7.89062481e-004
,,,5.77500000e-009,7.95312482e-004
,,,5.80000000e-009,7.99999982e-004
,,,5.82500000e-009,8.01562482e-004
,,,5.85000000e-009,7.99999982e-004
,,,5.87500000e-009,7.96874982e-004
,,,5.90000000e-009,7.92187482e-004
,,,5.92500000e-009,7.89062481e-004
,,,5.95000000e-009,7.89062481e-004
,,,5.97500000e-009,7.92187482e-004
,,,6.00000000e-009,7.99999982e-004
,,,6.02500000e-009,8.12499983e-004
,,,6.05000000e-009,8.26562484e-004
,,,6.07500000e-009,8.39062485e-004
,,,6.10000000e-009,8.48437486e-004
