RawData/SinglePhotoelectron/R6_2pt2D_5mV/wave001_Ch4.csv

"Record Length",1000,"Points",-7.72500000e-009,7.07812476e-004
"Sample Interval",2.50000000e-011,s,-7.70000000e-009,7.18749976e-004
"Trigger Point",309,"Samples",-7.67500000e-009,7.49999979e-004
"Trigger Time",2.45925191e-011,s,-7.65000000e-009,7.99999982e-004
"",,,-7.62500000e-009,8.68749987e-004
"Horizontal Offset",-7.72500000e-009,s,-7.60000000e-009,9.48437493e-004
,,,-7.57500000e-009,1.02968750e-003
,,,-7.55000000e-009,1.10625000e-003
,,,-7.52500000e-009,1.16875001e-003
,,,-7.50000000e-009,1.20781251e-003
,,,-7.47500000e-009,1.22031251e-003
,,,-7.45000000e-009,1.20000001e-003
,,,-7.42500000e-009,1.14843751e-003
,,,-7.40000000e-009,1.07500000e-003
,,,-7.37500000e-009,9.89062496e-004
,,,-7.35000000e-009,9.04687490e-004
,,,-7.32500000e-009,8.34374985e-004
,,,-7.30000000e-009,7.87499981e-004
,,,-7.27500000e-009,7.74999980e-004
,,,-7.25000000e-009,7.99999982e-004
,,,-7.22500000e-009,8.68749987e-004
,,,-7.20000000e-009,9.70312494e-004
,,,-7.17500000e-009,1.09531250e-003
,,,-7.15000000e-009,1.23125001e-003
,,,-7.12500000e-009,1.36406252e-003
,,,-7.10000000e-009,1.47812503e-003
,,,-7.07500000e-009,1.55937504e-003
,,,-7.05000000e-009,1.60000004e-003
,,,-7.02500000e-009,1.58906254e-003
,,,-7.00000000e-009,1.53125003e-003
,,,-6.97500000e-009,1.43593753e-003
,,,-6.95000000e-009,1.31406252e-003
,,,-6.92500000e-009,1.17500001e-003
,,,-6.90000000e-009,1.03593750e-003
,,,-6.87500000e-009,9.07812490e-004
,,,-6.85000000e-009,7.99999982e-004
,,,-6.82500000e-009,7.23437477e-004
,,,-6.80000000e-009,6.78124973e-004
,,,-6.77500000e-009,6.64062472e-004
,,,-6.75000000e-009,6.74999973e-004
,,,-6.72500000e-009,7.01562475e-004
,,,-6.70000000e-009,7.37499978e-004
,,,-6.67500000e-009,7.71874980e-004
,,,-6.65000000e-009,7.99999982e-004
,,,-6.62500000e-009,8.17187483e-004
,,,-6.60000000e-009,8.21874984e-004
,,,-6.57500000e-009,8.14062483e-004
,,,-6.55000000e-009,8.01562482e-004
,,,-6.52500000e-009,7.87499981e-004
,,,-6.50000000e-009,7.78124981e-004
,,,-6.47500000e-009,7.82812481e-004
,,,-6.45000000e-009,7.99999982e-004
,,,-6.42500000e-009,8.37499985e-004
,,,-6.40000000e-009,8.89062488e-004
,,,-6.37500000e-009,9.51562493e-004
,,,-6.35000000e-009,1.01718750e-003
,,,-6.32500000e-009,1.08281250e-003
,,,-6.30000000e-009,1.13906251e-003
,,,-6.27500000e-009,1.17968751e-003
,,,-6.25000000e-009,1.20000001e-003
,,,-6.22500000e-009,1.19531251e-003
,,,-6.20000000e-009,1.16875001e-003
,,,-6.17500000e-009,1.12187500e-003
,,,-6.15000000e-009,1.06250000e-003
,,,-6.12500000e-009,9.93749996e-004
,,,-6.10000000e-009,9.23437491e-004
,,,-6.07500000e-009,8.57812486e-004
,,,-6.05000000e-009,7.99999982e-004
,,,-6.02500000e-009,7.60937479e-004
,,,-6.00000000e-009,7.35937478e-004
,,,-5.97500000e-009,7.26562477e-004
,,,-5.95000000e-009,7.29687477e-004
,,,-5.92500000e-009,7.40624978e-004
,,,-5.90000000e-009,7.59374979e-004
,,,-5.87500000e-009,7.81249981e-004
,,,-5.85000000e-009,7.99999982e-004
,,,-5.82500000e-009,8.18749983e-004
,,,-5.80000000e-009,8.32812484e-004
,,,-5.77500000e-009,8.39062485e-004
,,,-5.75000000e-009,8.40624985e-004
,,,-5.72500000e-009,8.35937485e-004
,,,-5.70000000e-009,8.26562484e-004
,,,-5.67500000e-009,8.14062483e-004
,,,-5.65000000e-009,7.99999982e-004
,,,-5.62500000e-009,7.85937481e-004
,,,-5.60000000e-009,7.74999980e-004
,,,-5.57500000e-009,7.67187480e-004
,,,-5.55000000e-009,7.64062480e-004
,,,-5.52500000e-009,7.65624980e-004
,,,-5.50000000e-009,7.73437480e-004
,,,-5.47500000e-009,7.84374981e-004
,,,-5.45000000e-009,7.99999982e-004
,,,-5.42500000e-009,8.15624983e-004
,,,-5.40000000e-009,8.31249984e-004
,,,-5.37500000e-009,8.42187485e-004
,,,-5.35000000e-009,8.48437486e-004
,,,-5.32500000e-009,8.48437486e-004
,,,-5.30000000e-009,8.39062485e-004
,,,-5.27500000e-009,8.23437484e-004
,,,-5.25000000e-009,7.99999982e-004
,,,-5.22500000e-009,7.71874980e-004
,,,-5.20000000e-009,7.42187478e-004
,,,-5.17500000e-009,7.15624976e-004
,,,-5.15000000e-009,6.98437475e-004
,,,-5.12500000e-009,6.95312475e-004
,,,-5.10000000e-009,7.09374976e-004
,,,-5.07500000e-009,7.45312478e-004
,,,-5.05000000e-009,7.99999982e-004
,,,-5.02500000e-009,8.70312487e-004
,,,-5.00000000e-009,9.51562493e-004
,,,-4.97500000e-009,1.03437500e-003
,,,-4.95000000e-009,1.11093750e-003
,,,-4.92500000e-009,1.17343751e-003
,,,-4.90000000e-009,1.21250001e-003
,,,-4.87500000e-009,1.22343751e-003
,,,-4.85000000e-009,1.20000001e-003
,,,-4.82500000e-009,1.13906251e-003
,,,-4.80000000e-009,1.05000000e-003
,,,-4.77500000e-009,9.39062492e-004
,,,-4.75000000e-009,8.15624983e-004
,,,-4.72500000e-009,6.90624974e-004
,,,-4.70000000e-009,5.74999966e-004
,,,-4.67500000e-009,4.76562459e-004
,,,-4.65000000e-009,3.99999954e-004
,,,-4.62500000e-009,3.53124950e-004
,,,-4.60000000e-009,3.31249949e-004
,,,-4.57500000e-009,3.31249949e-004
,,,-4.55000000e-009,3.46874950e-004
,,,-4.52500000e-009,3.68749952e-004
,,,-4.50000000e-009,3.90624953e-004
,,,-4.47500000e-009,4.03124954e-004
,,,-4.45000000e-009,3.99999954e-004
,,,-4.42500000e-009,3.81249952e-004
,,,-4.40000000e-009,3.43749950e-004
,,,-4.37500000e-009,2.89062446e-004
,,,-4.35000000e-009,2.24999941e-004
,,,-4.32500000e-009,1.56249937e-004
,,,-4.30000000e-009,9.06249319e-005
,,,-4.27500000e-009,3.74999281e-005
,,,-4.25000000e-009,-7.45058060e-011
,,,-4.22500000e-009,-7.81257506e-006
,,,-4.20000000e-009,4.68742583e-006
,,,-4.17500000e-009,4.21874285e-005
,,,-4.15000000e-009,9.68749324e-005
,,,-4.12500000e-009,1.65624937e-004
,,,-4.10000000e-009,2.43749943e-004
,,,-4.07500000e-009,3.24999948e-004
,,,-4.05000000e-009,3.99999954e-004
,,,-4.02500000e-009,4.67187459e-004
,,,-4.00000000e-009,5.18749962e-004
,,,-3.97500000e-009,5.48437464e-004
,,,-3.95000000e-009,5.57812465e-004
,,,-3.92500000e-009,5.45312464e-004
,,,-3.90000000e-009,5.14062462e-004
,,,-3.87500000e-009,4.64062458e-004
,,,-3.85000000e-009,3.99999954e-004
,,,-3.82500000e-009,3.31249949e-004
,,,-3.80000000e-009,2.57812444e-004
,,,-3.77500000e-009,1.85937439e-004
,,,-3.75000000e-009,1.20312434e-004
,,,-3.72500000e-009,6.56249301e-005
,,,-3.70000000e-009,2.49999273e-005
,,,-3.67500000e-009,3.12492572e-006
,,,-3.65000000e-009,-7.45058060e-011
,,,-3.62500000e-009,1.87499268e-005
,,,-3.60000000e-009,5.46874294e-005
,,,-3.57500000e-009,1.03124933e-004
,,,-3.55000000e-009,1.60937437e-004
,,,-3.52500000e-009,2.24999941e-004
,,,-3.50000000e-009,2.89062446e-004
,,,-3.47500000e-009,3.48437450e-004
,,,-3.45000000e-009,3.99999954e-004
,,,-3.42500000e-009,4.40624957e-004
,,,-3.40000000e-009,4.67187459e-004
,,,-3.37500000e-009,4.81249960e-004
,,,-3.35000000e-009,4.81249960e-004
,,,-3.32500000e-009,4.70312459e-004
,,,-3.30000000e-009,4.51562457e-004
,,,-3.27500000e-009,4.26562456e-004
,,,-3.25000000e-009,3.99999954e-004
,,,-3.22500000e-009,3.74999952e-004
,,,-3.20000000e-009,3.53124950e-004
,,,-3.17500000e-009,3.40624950e-004
,,,-3.15000000e-009,3.35937449e-004
,,,-3.12500000e-009,3.40624950e-004
,,,-3.10000000e-009,3.53124950e-004
,,,-3.07500000e-009,3.74999952e-004
,,,-3.05000000e-009,3.99999954e-004
,,,-3.02500000e-009,4.26562456e-004
,,,-3.00000000e-009,4.51562457e-004
,,,-2.97500000e-009,4.70312459e-004
,,,-2.95000000e-009,4.81249960e-004
,,,-2.92500000e-009,4.81249960e-004
,,,-2.90000000e-009,4.67187459e-004
,,,-2.87500000e-009,4.40624957e-004
,,,-2.85000000e-009,3.99999954e-004
,,,-2.82500000e-009,3.48437450e-004
,,,-2.80000000e-009,2.89062446e-004
,,,-2.77500000e-009,2.24999941e-004
,,,-2.75000000e-009,1.60937437e-004
,,,-2.72500000e-009,1.03124933e-004
,,,-2.70000000e-009,5.46874294e-005
,,,-2.67500000e-009,1.87499268e-005
,,,-2.65000000e-009,-7.45058060e-011
,,,-2.62500000e-009,1.56242560e-006
,,,-2.60000000e-009,2.18749270e-005
,,,-2.57500000e-009,5.93749297e-005
,,,-2.55000000e-009,1.14062434e-004
,,,-2.52500000e-009,1.79687438e-004
,,,-2.50000000e-009,2.53124943e-004
,,,-2.47500000e-009,3.28124949e-004
,,,-2.45000000e-009,3.99999954e-004
,,,-2.42500000e-009,4.65624958e-004
,,,-2.40000000e-009,5.15624962e-004
,,,-2.37500000e-009,5.46874964e-004
,,,-2.35000000e-009,5.59374965e-004
,,,-2.32500000e-009,5.49999964e-004
,,,-2.30000000e-009,5.18749962e-004
,,,-2.27500000e-009,4.68749959e-004
,,,-2.25000000e-009,3.99999954e-004
,,,-2.22500000e-009,3.20312448e-004
,,,-2.20000000e-009,2.35937442e-004
,,,-2.17500000e-009,1.53124936e-004
,,,-2.15000000e-009,8.12499312e-005
,,,-2.12500000e-009,2.49999273e-005
,,,-2.10000000e-009,-7.81257506e-006
,,,-2.07500000e-009,-1.71875757e-005
,,,-2.05000000e-009,-7.45058060e-011
,,,-2.02500000e-009,4.53124287e-005
,,,-2.00000000e-009,1.07812433e-004
,,,-1.97500000e-009,1.81249938e-004
,,,-1.95000000e-009,2.54687444e-004
,,,-1.92500000e-009,3.21874948e-004
,,,-1.90000000e-009,3.71874952e-004
,,,-1.87500000e-009,3.99999954e-004
,,,-1.85000000e-009,3.99999954e-004
,,,-1.82500000e-009,3.70312452e-004
,,,-1.80000000e-009,3.17187448e-004
,,,-1.77500000e-009,2.48437443e-004
,,,-1.75000000e-009,1.71874938e-004
,,,-1.72500000e-009,9.99999326e-005
,,,-1.70000000e-009,4.21874285e-005
,,,-1.67500000e-009,7.81242605e-006
,,,-1.65000000e-009,-7.45058060e-011
,,,-1.62500000e-009,2.18749270e-005
,,,-1.60000000e-009,6.87499304e-005
,,,-1.57500000e-009,1.34374935e-004
,,,-1.55000000e-009,2.09374940e-004
,,,-1.52500000e-009,2.82812446e-004
,,,-1.50000000e-009,3.45312450e-004
,,,-1.47500000e-009,3.87499953e-004
,,,-1.45000000e-009,3.99999954e-004
,,,-1.42500000e-009,3.76562452e-004
,,,-1.40000000e-009,3.23437448e-004
,,,-1.37500000e-009,2.51562443e-004
,,,-1.35000000e-009,1.71874938e-004
,,,-1.32500000e-009,9.53124322e-005
,,,-1.30000000e-009,3.59374280e-005
,,,-1.27500000e-009,1.56242560e-006
,,,-1.25000000e-009,-7.45058060e-011
,,,-1.22500000e-009,1.87499268e-005
,,,-1.20000000e-009,6.40624300e-005
,,,-1.17500000e-009,1.31249935e-004
,,,-1.15000000e-009,2.07812440e-004
,,,-1.12500000e-009,2.84374946e-004
,,,-1.10000000e-009,3.48437450e-004
,,,-1.07500000e-009,3.89062453e-004
,,,-1.05000000e-009,3.99999954e-004
,,,-1.02500000e-009,3.51562450e-004
,,,-1.00000000e-009,2.65624944e-004
,,,-9.75000000e-010,1.51562436e-004
,,,-9.50000000e-010,2.18749270e-005
,,,-9.25000000e-010,-1.09375082e-004
,,,-9.00000000e-010,-2.31250091e-004
,,,-8.75000000e-010,-3.29687598e-004
,,,-8.50000000e-010,-4.00000103e-004
,,,-8.25000000e-010,-4.59375107e-004
,,,-8.00000000e-010,-4.90625109e-004
,,,-7.75000000e-010,-4.95312610e-004
,,,-7.50000000e-010,-4.79687608e-004
,,,-7.25000000e-010,-4.53125107e-004
,,,-7.00000000e-010,-4.23437604e-004
,,,-6.75000000e-010,-4.03125103e-004
,,,-6.50000000e-010,-4.00000103e-004
,,,-6.25000000e-010,-4.54687607e-004
,,,-6.00000000e-010,-5.46875113e-004
,,,-5.75000000e-010,-6.71875122e-004
,,,-5.50000000e-010,-8.28125133e-004
,,,-5.25000000e-010,-1.00468765e-003
,,,-5.00000000e-010,-1.19843766e-003
,,,-4.75000000e-010,-1.39843767e-003
,,,-4.50000000e-010,-1.60000019e-003
,,,-4.25000000e-010,-1.82343770e-003
,,,-4.00000000e-010,-2.04375022e-003
,,,-3.75000000e-010,-2.25937523e-003
,,,-3.50000000e-010,-2.46718775e-003
,,,-3.25000000e-010,-2.66250026e-003
,,,-3.00000000e-010,-2.85000028e-003
,,,-2.75000000e-010,-3.02812529e-003
,,,-2.50000000e-010,-3.20000030e-003
,,,-2.25000000e-010,-3.38281281e-003
,,,-2.00000000e-010,-3.57187533e-003
,,,-1.75000000e-010,-3.76562534e-003
,,,-1.50000000e-010,-3.96718786e-003
,,,-1.25000000e-010,-4.17187537e-003
,,,-1.00000000e-010,-4.37968788e-003
,,,-7.50000000e-011,-4.59062540e-003
,,,-5.00000000e-011,-4.80000041e-003
,,,-2.50000000e-011,-5.00468793e-003
,,,0.00000000e+000,-5.21406294e-003
,,,2.50000000e-011,-5.42343796e-003
,,,5.00000000e-011,-5.63281297e-003
,,,7.50000000e-011,-5.83750049e-003
,,,1.00000000e-010,-6.03437550e-003
,,,1.25000000e-010,-6.22343802e-003
,,,1.50000000e-010,-6.40000053e-003
,,,1.75000000e-010,-6.54843804e-003
,,,2.00000000e-010,-6.69375055e-003
,,,2.25000000e-010,-6.83750056e-003
,,,2.50000000e-010,-6.98281307e-003
,,,2.75000000e-010,-7.13125058e-003
,,,3.00000000e-010,-7.28281309e-003
,,,3.25000000e-010,-7.43906310e-003
,,,3.50000000e-010,-7.60000061e-003
,,,3.75000000e-010,-7.73281312e-003
,,,4.00000000e-010,-7.87500063e-003
,,,4.25000000e-010,-8.02656314e-003
,,,4.50000000e-010,-8.18437565e-003
,,,4.75000000e-010,-8.34531317e-003
,,,5.00000000e-010,-8.50468818e-003
,,,5.25000000e-010,-8.65781319e-003
,,,5.50000000e-010,-8.80000070e-003
,,,5.75000000e-010,-8.88437570e-003
,,,6.00000000e-010,-8.95781321e-003
,,,6.25000000e-010,-9.02031321e-003
,,,6.50000000e-010,-9.07343822e-003
,,,6.75000000e-010,-9.11718822e-003
,,,7.00000000e-010,-9.15468822e-003
,,,7.25000000e-010,-9.18125072e-003
,,,7.50000000e-010,-9.20000073e-003
,,,7.75000000e-010,-9.15781322e-003
,,,8.00000000e-010,-9.10937572e-003
,,,8.25000000e-010,-9.05781322e-003
,,,8.50000000e-010,-9.00468821e-003
,,,8.75000000e-010,-8.95312571e-003
,,,9.00000000e-010,-8.90312570e-003
,,,9.25000000e-010,-8.85156320e-003
,,,9.50000000e-010,-8.80000070e-003
,,,9.75000000e-010,-8.70156319e-003
,,,1.00000000e-009,-8.60156318e-003
,,,1.02500000e-009,-8.50156318e-003
,,,1.05000000e-009,-8.40000067e-003
,,,1.07500000e-009,-8.29843816e-003
,,,1.10000000e-009,-8.19843815e-003
,,,1.12500000e-009,-8.09843815e-003
,,,1.15000000e-009,-8.00000064e-003
,,,1.17500000e-009,-7.86875063e-003
,,,1.20000000e-009,-7.74218812e-003
,,,1.22500000e-009,-7.62031311e-003
,,,1.25000000e-009,-7.50937561e-003
,,,1.27500000e-009,-7.41250060e-003
,,,1.30000000e-009,-7.32968809e-003
,,,1.32500000e-009,-7.25937559e-003
,,,1.35000000e-009,-7.20000058e-003
,,,1.37500000e-009,-7.11718808e-003
,,,1.40000000e-009,-7.02968807e-003
,,,1.42500000e-009,-6.92656306e-003
,,,1.45000000e-009,-6.80156306e-003
,,,1.47500000e-009,-6.65156305e-003
,,,1.50000000e-009,-6.46875053e-003
,,,1.52500000e-009,-6.25156302e-003
,,,1.55000000e-009,-6.00000050e-003
,,,1.57500000e-009,-5.70312548e-003
,,,1.60000000e-009,-5.37812546e-003
,,,1.62500000e-009,-5.03906293e-003
,,,1.65000000e-009,-4.69687541e-003
,,,1.67500000e-009,-4.36875038e-003
,,,1.70000000e-009,-4.06875036e-003
,,,1.72500000e-009,-3.80937534e-003
,,,1.75000000e-009,-3.60000033e-003
,,,1.77500000e-009,-3.44843782e-003
,,,1.80000000e-009,-3.34375031e-003
,,,1.82500000e-009,-3.27656281e-003
,,,1.85000000e-009,-3.23906280e-003
,,,1.87500000e-009,-3.22343780e-003
,,,1.90000000e-009,-3.21875030e-003
,,,1.92500000e-009,-3.21250030e-003
,,,1.95000000e-009,-3.20000030e-003
,,,1.97500000e-009,-3.17343780e-003
,,,2.00000000e-009,-3.11875030e-003
,,,2.02500000e-009,-3.03437529e-003
,,,2.05000000e-009,-2.92656278e-003
,,,2.07500000e-009,-2.80000027e-003
,,,2.10000000e-009,-2.66562526e-003
,,,2.12500000e-009,-2.52968775e-003
,,,2.15000000e-009,-2.40000024e-003
,,,2.17500000e-009,-2.29062524e-003
,,,2.20000000e-009,-2.18750023e-003
,,,2.22500000e-009,-2.08750022e-003
,,,2.25000000e-009,-1.99218772e-003
,,,2.27500000e-009,-1.89843771e-003
,,,2.30000000e-009,-1.80156270e-003
,,,2.32500000e-009,-1.70312520e-003
,,,2.35000000e-009,-1.60000019e-003
,,,2.37500000e-009,-1.50312518e-003
,,,2.40000000e-009,-1.39687517e-003
,,,2.42500000e-009,-1.28437517e-003
,,,2.45000000e-009,-1.16875016e-003
,,,2.47500000e-009,-1.05625015e-003
,,,2.50000000e-009,-9.54687642e-004
,,,2.52500000e-009,-8.68750136e-004
,,,2.55000000e-009,-8.00000131e-004
,,,2.57500000e-009,-7.64062629e-004
,,,2.60000000e-009,-7.34375126e-004
,,,2.62500000e-009,-7.07812625e-004
,,,2.65000000e-009,-6.76562622e-004
,,,2.67500000e-009,-6.34375119e-004
,,,2.70000000e-009,-5.75000115e-004
,,,2.72500000e-009,-4.96875110e-004
,,,2.75000000e-009,-4.00000103e-004
,,,2.77500000e-009,-2.92187595e-004
,,,2.80000000e-009,-1.70312587e-004
,,,2.82500000e-009,-3.90625773e-005
,,,2.85000000e-009,9.06249319e-005
,,,2.87500000e-009,2.07812440e-004
,,,2.90000000e-009,3.04687447e-004
,,,2.92500000e-009,3.70312452e-004
,,,2.95000000e-009,3.99999954e-004
,,,2.97500000e-009,3.79687452e-004
,,,3.00000000e-009,3.31249949e-004
,,,3.02500000e-009,2.64062444e-004
,,,3.05000000e-009,1.89062439e-004
,,,3.07500000e-009,1.14062434e-004
,,,3.10000000e-009,5.31249293e-005
,,,3.12500000e-009,1.40624265e-005
,,,3.15000000e-009,-7.45058060e-011
,,,3.17500000e-009,7.81242605e-006
,,,3.20000000e-009,4.53124287e-005
,,,3.22500000e-009,1.06249933e-004
,,,3.25000000e-009,1.79687438e-004
,,,3.27500000e-009,2.57812444e-004
,,,3.30000000e-009,3.26562449e-004
,,,3.32500000e-009,3.76562452e-004
,,,3.35000000e-009,3.99999954e-004
,,,3.37500000e-009,3.87499953e-004
,,,3.40000000e-009,3.48437450e-004
,,,3.42500000e-009,2.89062446e-004
,,,3.45000000e-009,2.17187441e-004
,,,3.47500000e-009,1.43749936e-004
,,,3.50000000e-009,7.81249310e-005
,,,3.52500000e-009,2.81249275e-005
,,,3.55000000e-009,-7.45058060e-011
,,,3.57500000e-009,1.56242560e-006
,,,3.60000000e-009,3.12499277e-005
,,,3.62500000e-009,8.43749315e-005
,,,3.65000000e-009,1.53124936e-004
,,,3.67500000e-009,2.28124942e-004
,,,3.70000000e-009,3.01562447e-004
,,,3.72500000e-009,3.60937451e-004
,,,3.75000000e-009,3.99999954e-004
,,,3.77500000e-009,4.10937455e-004
,,,3.80000000e-009,3.95312453e-004
,,,3.82500000e-009,3.56249951e-004
,,,3.85000000e-009,2.96874947e-004
,,,3.87500000e-009,2.23437441e-004
,,,3.90000000e-009,1.45312436e-004
,,,3.92500000e-009,6.87499304e-005
,,,3.95000000e-009,-7.45058060e-011
,,,3.97500000e-009,-4.84375779e-005
,,,4.00000000e-009,-8.12500803e-005
,,,4.02500000e-009,-9.53125813e-005
,,,4.05000000e-009,-9.53125813e-005
,,,4.07500000e-009,-8.12500803e-005
,,,4.10000000e-009,-5.93750787e-005
,,,4.12500000e-009,-3.12500767e-005
,,,4.15000000e-009,-7.45058060e-011
,,,4.17500000e-009,3.74999281e-005
,,,4.20000000e-009,7.65624309e-005
,,,4.22500000e-009,1.15624934e-004
,,,4.25000000e-009,1.59374937e-004
,,,4.27500000e-009,2.09374940e-004
,,,4.30000000e-009,2.65624944e-004
,,,4.32500000e-009,3.29687449e-004
,,,4.35000000e-009,3.99999954e-004
,,,4.37500000e-009,4.76562459e-004
,,,4.40000000e-009,5.51562465e-004
,,,4.42500000e-009,6.24999970e-004
,,,4.45000000e-009,6.92187474e-004
,,,4.47500000e-009,7.45312478e-004
,,,4.50000000e-009,7.84374981e-004
,,,4.52500000e-009,8.03124982e-004
,,,4.55000000e-009,7.99999982e-004
,,,4.57500000e-009,7.74999980e-004
,,,4.60000000e-009,7.32812477e-004
,,,4.62500000e-009,6.76562473e-004
,,,4.65000000e-009,6.14062469e-004
,,,4.67500000e-009,5.48437464e-004
,,,4.70000000e-009,4.87499960e-004
,,,4.72500000e-009,4.37499956e-004
,,,4.75000000e-009,3.99999954e-004
,,,4.77500000e-009,3.87499953e-004
,,,4.80000000e-009,3.96874954e-004
,,,4.82500000e-009,4.28124956e-004
,,,4.85000000e-009,4.79687459e-004
,,,4.87500000e-009,5.46874964e-004
,,,4.90000000e-009,6.26562470e-004
,,,4.92500000e-009,7.14062476e-004
,,,4.95000000e-009,7.99999982e-004
,,,4.97500000e-009,8.76562488e-004
,,,5.00000000e-009,9.39062492e-004
,,,5.02500000e-009,9.82812495e-004
,,,5.05000000e-009,1.00312500e-003
,,,5.07500000e-009,9.95312496e-004
,,,5.10000000e-009,9.57812493e-004
,,,5.12500000e-009,8.92187489e-004
,,,5.15000000e-009,7.99999982e-004
,,,5.17500000e-009,6.82812474e-004
,,,5.20000000e-009,5.53124965e-004
,,,5.22500000e-009,4.20312455e-004
,,,5.25000000e-009,2.92187446e-004
,,,5.27500000e-009,1.78124938e-004
,,,5.30000000e-009,8.74999317e-005
,,,5.32500000e-009,2.65624274e-005
,,,5.35000000e-009,-7.45058060e-011
,,,5.37500000e-009,1.71874267e-005
,,,5.40000000e-009,7.03124305e-005
,,,5.42500000e-009,1.54687436e-004
,,,5.45000000e-009,2.64062444e-004
,,,5.47500000e-009,3.92187453e-004
,,,5.50000000e-009,5.29687463e-004
,,,5.52500000e-009,6.68749973e-004
,,,5.55000000e-009,7.99999982e-004
,,,5.57500000e-009,9.18749991e-004
,,,5.60000000e-009,1.01875000e-003
,,,5.62500000e-009,1.09687500e-003
,,,5.65000000e-009,1.15312501e-003
,,,5.67500000e-009,1.18906251e-003
,,,5.70000000e-009,1.20781251e-003
,,,5.72500000e-009,1.21093751e-003
,,,5.75000000e-009,1.20000001e-003
,,,5.77500000e-009,1.17500001e-003
,,,5.80000000e-009,1.14218751e-003
,,,5.82500000e-009,1.10156250e-003
,,,5.85000000e-009,1.05468750e-003
,,,5.87500000e-009,1.00156250e-003
,,,5.90000000e-009,9.40624992e-004
,,,5.92500000e-009,8.73437487e-004
,,,5.95000000e-009,7.99999982e-004
,,,5.97500000e-009,7.21874977e-004
,,,6.00000000e-009,6.43749971e-004
,,,6.02500000e-009,5.70312466e-004
,,,6.05000000e-009,5.04687461e-004
,,,6.07500000e-009,4.51562457e-004
