RawData/SinglePhotoelectron/R6_2pt2D_5mV/wave025_Ch4.csv

"Record Length",1000,"Points",-7.72500000e-009,8.95312489e-004
"Sample Interval",2.50000000e-011,s,-7.70000000e-009,8.79687488e-004
"Trigger Point",309,"Samples",-7.67500000e-009,8.46874985e-004
"Trigger Time",1.96721739e-011,s,-7.65000000e-009,7.99999982e-004
"",,,-7.62500000e-009,7.43749978e-004
"Horizontal Offset",-7.72500000e-009,s,-7.60000000e-009,6.79687474e-004
,,,-7.57500000e-009,6.10937469e-004
,,,-7.55000000e-009,5.45312464e-004
,,,-7.52500000e-009,4.85937460e-004
,,,-7.50000000e-009,4.39062457e-004
,,,-7.47500000e-009,4.10937455e-004
,,,-7.45000000e-009,3.99999954e-004
,,,-7.42500000e-009,4.14062455e-004
,,,-7.40000000e-009,4.46874957e-004
,,,-7.37500000e-009,4.93749960e-004
,,,-7.35000000e-009,5.53124965e-004
,,,-7.32500000e-009,6.18749969e-004
,,,-7.30000000e-009,6.84374974e-004
,,,-7.27500000e-009,7.46874978e-004
,,,-7.25000000e-009,7.99999982e-004
,,,-7.22500000e-009,8.45312485e-004
,,,-7.20000000e-009,8.73437487e-004
,,,-7.17500000e-009,8.87499988e-004
,,,-7.15000000e-009,8.87499988e-004
,,,-7.12500000e-009,8.76562488e-004
,,,-7.10000000e-009,8.54687486e-004
,,,-7.07500000e-009,8.28124984e-004
,,,-7.05000000e-009,7.99999982e-004
,,,-7.02500000e-009,7.73437480e-004
,,,-7.00000000e-009,7.49999979e-004
,,,-6.97500000e-009,7.34374977e-004
,,,-6.95000000e-009,7.28124977e-004
,,,-6.92500000e-009,7.32812477e-004
,,,-6.90000000e-009,7.48437478e-004
,,,-6.87500000e-009,7.71874980e-004
,,,-6.85000000e-009,7.99999982e-004
,,,-6.82500000e-009,8.32812484e-004
,,,-6.80000000e-009,8.64062487e-004
,,,-6.77500000e-009,8.89062488e-004
,,,-6.75000000e-009,9.03124989e-004
,,,-6.72500000e-009,9.03124989e-004
,,,-6.70000000e-009,8.87499988e-004
,,,-6.67500000e-009,8.53124986e-004
,,,-6.65000000e-009,7.99999982e-004
,,,-6.62500000e-009,7.35937478e-004
,,,-6.60000000e-009,6.60937472e-004
,,,-6.57500000e-009,5.84374967e-004
,,,-6.55000000e-009,5.14062462e-004
,,,-6.52500000e-009,4.54687458e-004
,,,-6.50000000e-009,4.12499955e-004
,,,-6.47500000e-009,3.93749953e-004
,,,-6.45000000e-009,3.99999954e-004
,,,-6.42500000e-009,4.32812456e-004
,,,-6.40000000e-009,4.85937460e-004
,,,-6.37500000e-009,5.53124965e-004
,,,-6.35000000e-009,6.24999970e-004
,,,-6.32500000e-009,6.93749975e-004
,,,-6.30000000e-009,7.49999979e-004
,,,-6.27500000e-009,7.87499981e-004
,,,-6.25000000e-009,7.99999982e-004
,,,-6.22500000e-009,7.87499981e-004
,,,-6.20000000e-009,7.49999979e-004
,,,-6.17500000e-009,6.93749975e-004
,,,-6.15000000e-009,6.24999970e-004
,,,-6.12500000e-009,5.53124965e-004
,,,-6.10000000e-009,4.85937460e-004
,,,-6.07500000e-009,4.32812456e-004
,,,-6.05000000e-009,3.99999954e-004
,,,-6.02500000e-009,3.93749953e-004
,,,-6.00000000e-009,4.12499955e-004
,,,-5.97500000e-009,4.54687458e-004
,,,-5.95000000e-009,5.14062462e-004
,,,-5.92500000e-009,5.84374967e-004
,,,-5.90000000e-009,6.60937472e-004
,,,-5.87500000e-009,7.35937478e-004
,,,-5.85000000e-009,7.99999982e-004
,,,-5.82500000e-009,8.49999986e-004
,,,-5.80000000e-009,8.82812488e-004
,,,-5.77500000e-009,8.98437489e-004
,,,-5.75000000e-009,8.96874989e-004
,,,-5.72500000e-009,8.81249988e-004
,,,-5.70000000e-009,8.57812486e-004
,,,-5.67500000e-009,8.29687484e-004
,,,-5.65000000e-009,7.99999982e-004
,,,-5.62500000e-009,7.73437480e-004
,,,-5.60000000e-009,7.53124979e-004
,,,-5.57500000e-009,7.40624978e-004
,,,-5.55000000e-009,7.37499978e-004
,,,-5.52500000e-009,7.43749978e-004
,,,-5.50000000e-009,7.57812479e-004
,,,-5.47500000e-009,7.76562480e-004
,,,-5.45000000e-009,7.99999982e-004
,,,-5.42500000e-009,8.21874984e-004
,,,-5.40000000e-009,8.40624985e-004
,,,-5.37500000e-009,8.56249986e-004
,,,-5.35000000e-009,8.64062487e-004
,,,-5.32500000e-009,8.64062487e-004
,,,-5.30000000e-009,8.53124986e-004
,,,-5.27500000e-009,8.32812484e-004
,,,-5.25000000e-009,7.99999982e-004
,,,-5.22500000e-009,7.59374979e-004
,,,-5.20000000e-009,7.10937476e-004
,,,-5.17500000e-009,6.57812472e-004
,,,-5.15000000e-009,5.99999968e-004
,,,-5.12500000e-009,5.43749964e-004
,,,-5.10000000e-009,4.90624960e-004
,,,-5.07500000e-009,4.42187457e-004
,,,-5.05000000e-009,3.99999954e-004
,,,-5.02500000e-009,3.67187451e-004
,,,-5.00000000e-009,3.45312450e-004
,,,-4.97500000e-009,3.32812449e-004
,,,-4.95000000e-009,3.31249949e-004
,,,-4.92500000e-009,3.39062449e-004
,,,-4.90000000e-009,3.54687451e-004
,,,-4.87500000e-009,3.76562452e-004
,,,-4.85000000e-009,3.99999954e-004
,,,-4.82500000e-009,4.26562456e-004
,,,-4.80000000e-009,4.49999957e-004
,,,-4.77500000e-009,4.65624958e-004
,,,-4.75000000e-009,4.73437459e-004
,,,-4.72500000e-009,4.70312459e-004
,,,-4.70000000e-009,4.56249958e-004
,,,-4.67500000e-009,4.32812456e-004
,,,-4.65000000e-009,3.99999954e-004
,,,-4.62500000e-009,3.67187451e-004
,,,-4.60000000e-009,3.32812449e-004
,,,-4.57500000e-009,3.04687447e-004
,,,-4.55000000e-009,2.87499946e-004
,,,-4.52500000e-009,2.85937446e-004
,,,-4.50000000e-009,3.03124947e-004
,,,-4.47500000e-009,3.42187450e-004
,,,-4.45000000e-009,3.99999954e-004
,,,-4.42500000e-009,4.76562459e-004
,,,-4.40000000e-009,5.62499965e-004
,,,-4.37500000e-009,6.48437471e-004
,,,-4.35000000e-009,7.26562477e-004
,,,-4.32500000e-009,7.89062481e-004
,,,-4.30000000e-009,8.24999984e-004
,,,-4.27500000e-009,8.29687484e-004
,,,-4.25000000e-009,7.99999982e-004
,,,-4.22500000e-009,7.34374977e-004
,,,-4.20000000e-009,6.39062471e-004
,,,-4.17500000e-009,5.21874962e-004
,,,-4.15000000e-009,3.93749953e-004
,,,-4.12500000e-009,2.67187444e-004
,,,-4.10000000e-009,1.53124936e-004
,,,-4.07500000e-009,6.24999299e-005
,,,-4.05000000e-009,-7.45058060e-011
,,,-4.02500000e-009,-2.18750761e-005
,,,-4.00000000e-009,-1.09375753e-005
,,,-3.97500000e-009,3.12499277e-005
,,,-3.95000000e-009,9.68749324e-005
,,,-3.92500000e-009,1.74999938e-004
,,,-3.90000000e-009,2.57812444e-004
,,,-3.87500000e-009,3.35937449e-004
,,,-3.85000000e-009,3.99999954e-004
,,,-3.82500000e-009,4.46874957e-004
,,,-3.80000000e-009,4.73437459e-004
,,,-3.77500000e-009,4.81249960e-004
,,,-3.75000000e-009,4.71874959e-004
,,,-3.72500000e-009,4.54687458e-004
,,,-3.70000000e-009,4.32812456e-004
,,,-3.67500000e-009,4.14062455e-004
,,,-3.65000000e-009,3.99999954e-004
,,,-3.62500000e-009,3.98437454e-004
,,,-3.60000000e-009,4.04687454e-004
,,,-3.57500000e-009,4.17187455e-004
,,,-3.55000000e-009,4.31249956e-004
,,,-3.52500000e-009,4.42187457e-004
,,,-3.50000000e-009,4.42187457e-004
,,,-3.47500000e-009,4.29687456e-004
,,,-3.45000000e-009,3.99999954e-004
,,,-3.42500000e-009,3.54687451e-004
,,,-3.40000000e-009,2.96874947e-004
,,,-3.37500000e-009,2.29687442e-004
,,,-3.35000000e-009,1.59374937e-004
,,,-3.32500000e-009,9.53124322e-005
,,,-3.30000000e-009,4.37499286e-005
,,,-3.27500000e-009,1.09374263e-005
,,,-3.25000000e-009,-7.45058060e-011
,,,-3.22500000e-009,2.03124269e-005
,,,-3.20000000e-009,6.24999299e-005
,,,-3.17500000e-009,1.18749934e-004
,,,-3.15000000e-009,1.85937439e-004
,,,-3.12500000e-009,2.53124943e-004
,,,-3.10000000e-009,3.15624948e-004
,,,-3.07500000e-009,3.67187451e-004
,,,-3.05000000e-009,3.99999954e-004
,,,-3.02500000e-009,4.17187455e-004
,,,-3.00000000e-009,4.18749955e-004
,,,-2.97500000e-009,4.07812454e-004
,,,-2.95000000e-009,3.92187453e-004
,,,-2.92500000e-009,3.78124952e-004
,,,-2.90000000e-009,3.70312452e-004
,,,-2.87500000e-009,3.76562452e-004
,,,-2.85000000e-009,3.99999954e-004
,,,-2.82500000e-009,4.43749957e-004
,,,-2.80000000e-009,5.01562461e-004
,,,-2.77500000e-009,5.68749966e-004
,,,-2.75000000e-009,6.40624971e-004
,,,-2.72500000e-009,7.06249975e-004
,,,-2.70000000e-009,7.57812479e-004
,,,-2.67500000e-009,7.92187482e-004
,,,-2.65000000e-009,7.99999982e-004
,,,-2.62500000e-009,7.82812481e-004
,,,-2.60000000e-009,7.42187478e-004
,,,-2.57500000e-009,6.84374974e-004
,,,-2.55000000e-009,6.15624969e-004
,,,-2.52500000e-009,5.45312464e-004
,,,-2.50000000e-009,4.81249960e-004
,,,-2.47500000e-009,4.31249956e-004
,,,-2.45000000e-009,3.99999954e-004
,,,-2.42500000e-009,3.96874954e-004
,,,-2.40000000e-009,4.18749955e-004
,,,-2.37500000e-009,4.60937458e-004
,,,-2.35000000e-009,5.21874962e-004
,,,-2.32500000e-009,5.93749968e-004
,,,-2.30000000e-009,6.68749973e-004
,,,-2.27500000e-009,7.39062478e-004
,,,-2.25000000e-009,7.99999982e-004
,,,-2.22500000e-009,8.42187485e-004
,,,-2.20000000e-009,8.68749987e-004
,,,-2.17500000e-009,8.78124988e-004
,,,-2.15000000e-009,8.74999987e-004
,,,-2.12500000e-009,8.60937486e-004
,,,-2.10000000e-009,8.40624985e-004
,,,-2.07500000e-009,8.20312484e-004
,,,-2.05000000e-009,7.99999982e-004
,,,-2.02500000e-009,7.84374981e-004
,,,-2.00000000e-009,7.76562480e-004
,,,-1.97500000e-009,7.73437480e-004
,,,-1.95000000e-009,7.76562480e-004
,,,-1.92500000e-009,7.82812481e-004
,,,-1.90000000e-009,7.90624981e-004
,,,-1.87500000e-009,7.96874982e-004
,,,-1.85000000e-009,7.99999982e-004
,,,-1.82500000e-009,7.96874982e-004
,,,-1.80000000e-009,7.90624981e-004
,,,-1.77500000e-009,7.82812481e-004
,,,-1.75000000e-009,7.76562480e-004
,,,-1.72500000e-009,7.73437480e-004
,,,-1.70000000e-009,7.76562480e-004
,,,-1.67500000e-009,7.84374981e-004
,,,-1.65000000e-009,7.99999982e-004
,,,-1.62500000e-009,8.18749983e-004
,,,-1.60000000e-009,8.37499985e-004
,,,-1.57500000e-009,8.54687486e-004
,,,-1.55000000e-009,8.67187487e-004
,,,-1.52500000e-009,8.70312487e-004
,,,-1.50000000e-009,8.62499987e-004
,,,-1.47500000e-009,8.39062485e-004
,,,-1.45000000e-009,7.99999982e-004
,,,-1.42500000e-009,7.37499978e-004
,,,-1.40000000e-009,6.65624973e-004
,,,-1.37500000e-009,5.89062467e-004
,,,-1.35000000e-009,5.17187462e-004
,,,-1.32500000e-009,4.56249958e-004
,,,-1.30000000e-009,4.14062455e-004
,,,-1.27500000e-009,3.93749953e-004
,,,-1.25000000e-009,3.99999954e-004
,,,-1.22500000e-009,4.21874955e-004
,,,-1.20000000e-009,4.60937458e-004
,,,-1.17500000e-009,5.17187462e-004
,,,-1.15000000e-009,5.81249967e-004
,,,-1.12500000e-009,6.49999972e-004
,,,-1.10000000e-009,7.12499976e-004
,,,-1.07500000e-009,7.65624980e-004
,,,-1.05000000e-009,7.99999982e-004
,,,-1.02500000e-009,7.89062481e-004
,,,-1.00000000e-009,7.54687479e-004
,,,-9.75000000e-010,6.99999975e-004
,,,-9.50000000e-010,6.32812470e-004
,,,-9.25000000e-010,5.62499965e-004
,,,-9.00000000e-010,4.96874961e-004
,,,-8.75000000e-010,4.42187457e-004
,,,-8.50000000e-010,3.99999954e-004
,,,-8.25000000e-010,3.45312450e-004
,,,-8.00000000e-010,2.99999947e-004
,,,-7.75000000e-010,2.59374944e-004
,,,-7.50000000e-010,2.21874941e-004
,,,-7.25000000e-010,1.82812438e-004
,,,-7.00000000e-010,1.35937435e-004
,,,-6.75000000e-010,7.65624309e-005
,,,-6.50000000e-010,-7.45058060e-011
,,,-6.25000000e-010,-1.31250084e-004
,,,-6.00000000e-010,-2.85937595e-004
,,,-5.75000000e-010,-4.56250107e-004
,,,-5.50000000e-010,-6.31250119e-004
,,,-5.25000000e-010,-8.00000131e-004
,,,-5.00000000e-010,-9.54687642e-004
,,,-4.75000000e-010,-1.08906265e-003
,,,-4.50000000e-010,-1.20000016e-003
,,,-4.25000000e-010,-1.32343767e-003
,,,-4.00000000e-010,-1.44062518e-003
,,,-3.75000000e-010,-1.55625018e-003
,,,-3.50000000e-010,-1.67968769e-003
,,,-3.25000000e-010,-1.81875020e-003
,,,-3.00000000e-010,-1.98125021e-003
,,,-2.75000000e-010,-2.17343773e-003
,,,-2.50000000e-010,-2.40000024e-003
,,,-2.25000000e-010,-2.68593776e-003
,,,-2.00000000e-010,-3.00312529e-003
,,,-1.75000000e-010,-3.34218781e-003
,,,-1.50000000e-010,-3.68593784e-003
,,,-1.25000000e-010,-4.01562536e-003
,,,-1.00000000e-010,-4.31875038e-003
,,,-7.50000000e-011,-4.58281290e-003
,,,-5.00000000e-011,-4.80000041e-003
,,,-2.50000000e-011,-4.97500043e-003
,,,0.00000000e+000,-5.11875044e-003
,,,2.50000000e-011,-5.24062545e-003
,,,5.00000000e-011,-5.35312545e-003
,,,7.50000000e-011,-5.47187546e-003
,,,1.00000000e-010,-5.61250047e-003
,,,1.25000000e-010,-5.78437548e-003
,,,1.50000000e-010,-6.00000050e-003
,,,1.75000000e-010,-6.25312552e-003
,,,2.00000000e-010,-6.56093804e-003
,,,2.25000000e-010,-6.91250056e-003
,,,2.50000000e-010,-7.29375059e-003
,,,2.75000000e-010,-7.69218812e-003
,,,3.00000000e-010,-8.08593815e-003
,,,3.25000000e-010,-8.46093817e-003
,,,3.50000000e-010,-8.80000070e-003
,,,3.75000000e-010,-9.05781322e-003
,,,4.00000000e-010,-9.27343823e-003
,,,4.25000000e-010,-9.45000074e-003
,,,4.50000000e-010,-9.59218825e-003
,,,4.75000000e-010,-9.71093826e-003
,,,5.00000000e-010,-9.81250077e-003
,,,5.25000000e-010,-9.90625078e-003
,,,5.50000000e-010,-1.00000008e-002
,,,5.75000000e-010,-1.00531258e-002
,,,6.00000000e-010,-1.01250008e-002
,,,6.25000000e-010,-1.02156258e-002
,,,6.50000000e-010,-1.03218758e-002
,,,6.75000000e-010,-1.04421883e-002
,,,7.00000000e-010,-1.05671883e-002
,,,7.25000000e-010,-1.06890633e-002
,,,7.50000000e-010,-1.08000008e-002
,,,7.75000000e-010,-1.08343758e-002
,,,8.00000000e-010,-1.08546883e-002
,,,8.25000000e-010,-1.08625008e-002
,,,8.50000000e-010,-1.08609383e-002
,,,8.75000000e-010,-1.08515633e-002
,,,9.00000000e-010,-1.08375008e-002
,,,9.25000000e-010,-1.08203133e-002
,,,9.50000000e-010,-1.08000008e-002
,,,9.75000000e-010,-1.07187508e-002
,,,1.00000000e-009,-1.06343758e-002
,,,1.02500000e-009,-1.05468758e-002
,,,1.05000000e-009,-1.04546883e-002
,,,1.07500000e-009,-1.03562508e-002
,,,1.10000000e-009,-1.02484383e-002
,,,1.12500000e-009,-1.01296883e-002
,,,1.15000000e-009,-1.00000008e-002
,,,1.17500000e-009,-9.81093827e-003
,,,1.20000000e-009,-9.62031326e-003
,,,1.22500000e-009,-9.43125074e-003
,,,1.25000000e-009,-9.25625073e-003
,,,1.27500000e-009,-9.10156322e-003
,,,1.30000000e-009,-8.97187571e-003
,,,1.32500000e-009,-8.87187570e-003
,,,1.35000000e-009,-8.80000070e-003
,,,1.37500000e-009,-8.71875069e-003
,,,1.40000000e-009,-8.65156319e-003
,,,1.42500000e-009,-8.58593818e-003
,,,1.45000000e-009,-8.51718818e-003
,,,1.47500000e-009,-8.43125067e-003
,,,1.50000000e-009,-8.32187566e-003
,,,1.52500000e-009,-8.17968815e-003
,,,1.55000000e-009,-8.00000064e-003
,,,1.57500000e-009,-7.75625062e-003
,,,1.60000000e-009,-7.47187560e-003
,,,1.62500000e-009,-7.15781308e-003
,,,1.65000000e-009,-6.82656306e-003
,,,1.67500000e-009,-6.49062553e-003
,,,1.70000000e-009,-6.16718801e-003
,,,1.72500000e-009,-5.86562549e-003
,,,1.75000000e-009,-5.60000047e-003
,,,1.77500000e-009,-5.36718795e-003
,,,1.80000000e-009,-5.16875044e-003
,,,1.82500000e-009,-5.00000043e-003
,,,1.85000000e-009,-4.85625042e-003
,,,1.87500000e-009,-4.73125041e-003
,,,1.90000000e-009,-4.61875040e-003
,,,1.92500000e-009,-4.50937539e-003
,,,1.95000000e-009,-4.40000039e-003
,,,1.97500000e-009,-4.28593788e-003
,,,2.00000000e-009,-4.15156287e-003
,,,2.02500000e-009,-4.00156286e-003
,,,2.05000000e-009,-3.83750035e-003
,,,2.07500000e-009,-3.66718783e-003
,,,2.10000000e-009,-3.50000032e-003
,,,2.12500000e-009,-3.34218781e-003
,,,2.15000000e-009,-3.20000030e-003
,,,2.17500000e-009,-3.08750029e-003
,,,2.20000000e-009,-2.98750029e-003
,,,2.22500000e-009,-2.89218778e-003
,,,2.25000000e-009,-2.80156277e-003
,,,2.27500000e-009,-2.70937527e-003
,,,2.30000000e-009,-2.61406276e-003
,,,2.32500000e-009,-2.51250025e-003
,,,2.35000000e-009,-2.40000024e-003
,,,2.37500000e-009,-2.28750024e-003
,,,2.40000000e-009,-2.15781273e-003
,,,2.42500000e-009,-2.00937522e-003
,,,2.45000000e-009,-1.84687521e-003
,,,2.47500000e-009,-1.67968769e-003
,,,2.50000000e-009,-1.51093768e-003
,,,2.52500000e-009,-1.35000017e-003
,,,2.55000000e-009,-1.20000016e-003
,,,2.57500000e-009,-1.08437515e-003
,,,2.60000000e-009,-9.78125144e-004
,,,2.62500000e-009,-8.76562637e-004
,,,2.65000000e-009,-7.79687630e-004
,,,2.67500000e-009,-6.84375123e-004
,,,2.70000000e-009,-5.89062616e-004
,,,2.72500000e-009,-4.93750109e-004
,,,2.75000000e-009,-4.00000103e-004
,,,2.77500000e-009,-3.25000098e-004
,,,2.80000000e-009,-2.48437592e-004
,,,2.82500000e-009,-1.75000087e-004
,,,2.85000000e-009,-1.07812582e-004
,,,2.87500000e-009,-5.15625782e-005
,,,2.90000000e-009,-1.25000754e-005
,,,2.92500000e-009,6.24992594e-006
,,,2.95000000e-009,-7.45058060e-011
,,,2.97500000e-009,-4.37500776e-005
,,,3.00000000e-009,-1.01562582e-004
,,,3.02500000e-009,-1.68750086e-004
,,,3.05000000e-009,-2.35937591e-004
,,,3.07500000e-009,-2.98437596e-004
,,,3.10000000e-009,-3.48437599e-004
,,,3.12500000e-009,-3.84375102e-004
,,,3.15000000e-009,-4.00000103e-004
,,,3.17500000e-009,-4.00000103e-004
,,,3.20000000e-009,-3.75000101e-004
,,,3.22500000e-009,-3.29687598e-004
,,,3.25000000e-009,-2.67187593e-004
,,,3.27500000e-009,-1.96875088e-004
,,,3.30000000e-009,-1.23437583e-004
,,,3.32500000e-009,-5.62500785e-005
,,,3.35000000e-009,-7.45058060e-011
,,,3.37500000e-009,3.28124278e-005
,,,3.40000000e-009,5.15624291e-005
,,,3.42500000e-009,5.62499295e-005
,,,3.45000000e-009,5.15624291e-005
,,,3.47500000e-009,4.06249284e-005
,,,3.50000000e-009,2.65624274e-005
,,,3.52500000e-009,1.24999264e-005
,,,3.55000000e-009,-7.45058060e-011
,,,3.57500000e-009,-7.81257506e-006
,,,3.60000000e-009,-9.37507517e-006
,,,3.62500000e-009,-6.25007495e-006
,,,3.65000000e-009,-7.45058060e-011
,,,3.67500000e-009,7.81242605e-006
,,,3.70000000e-009,1.09374263e-005
,,,3.72500000e-009,9.37492616e-006
,,,3.75000000e-009,-7.45058060e-011
,,,3.77500000e-009,-1.40625755e-005
,,,3.80000000e-009,-3.28125768e-005
,,,3.82500000e-009,-5.00000780e-005
,,,3.85000000e-009,-6.40625790e-005
,,,3.87500000e-009,-6.87500794e-005
,,,3.90000000e-009,-6.09375788e-005
,,,3.92500000e-009,-3.90625773e-005
,,,3.95000000e-009,-7.45058060e-011
,,,3.97500000e-009,5.93749297e-005
,,,4.00000000e-009,1.28124935e-004
,,,4.02500000e-009,2.01562440e-004
,,,4.05000000e-009,2.71874945e-004
,,,4.07500000e-009,3.34374949e-004
,,,4.10000000e-009,3.79687452e-004
,,,4.12500000e-009,4.03124954e-004
,,,4.15000000e-009,3.99999954e-004
,,,4.17500000e-009,3.73437452e-004
,,,4.20000000e-009,3.24999948e-004
,,,4.22500000e-009,2.62499944e-004
,,,4.25000000e-009,1.92187439e-004
,,,4.27500000e-009,1.23437434e-004
,,,4.30000000e-009,6.40624300e-005
,,,4.32500000e-009,2.18749270e-005
,,,4.35000000e-009,-7.45058060e-011
,,,4.37500000e-009,7.81242605e-006
,,,4.40000000e-009,3.74999281e-005
,,,4.42500000e-009,8.90624318e-005
,,,4.45000000e-009,1.53124936e-004
,,,4.47500000e-009,2.23437441e-004
,,,4.50000000e-009,2.92187446e-004
,,,4.52500000e-009,3.53124950e-004
,,,4.55000000e-009,3.99999954e-004
,,,4.57500000e-009,4.31249956e-004
,,,4.60000000e-009,4.45312457e-004
,,,4.62500000e-009,4.43749957e-004
,,,4.65000000e-009,4.32812456e-004
,,,4.67500000e-009,4.17187455e-004
,,,4.70000000e-009,4.03124954e-004
,,,4.72500000e-009,3.96874954e-004
,,,4.75000000e-009,3.99999954e-004
,,,4.77500000e-009,4.18749955e-004
,,,4.80000000e-009,4.49999957e-004
,,,4.82500000e-009,4.96874961e-004
,,,4.85000000e-009,5.54687465e-004
,,,4.87500000e-009,6.18749969e-004
,,,4.90000000e-009,6.84374974e-004
,,,4.92500000e-009,7.46874978e-004
,,,4.95000000e-009,7.99999982e-004
,,,4.97500000e-009,8.40624985e-004
,,,5.00000000e-009,8.65624987e-004
,,,5.02500000e-009,8.79687488e-004
,,,5.05000000e-009,8.79687488e-004
,,,5.07500000e-009,8.68749987e-004
,,,5.10000000e-009,8.49999986e-004
,,,5.12500000e-009,8.26562484e-004
,,,5.15000000e-009,7.99999982e-004
,,,5.17500000e-009,7.74999980e-004
,,,5.20000000e-009,7.54687479e-004
,,,5.22500000e-009,7.42187478e-004
,,,5.25000000e-009,7.37499978e-004
,,,5.27500000e-009,7.42187478e-004
,,,5.30000000e-009,7.54687479e-004
,,,5.32500000e-009,7.74999980e-004
,,,5.35000000e-009,7.99999982e-004
,,,5.37500000e-009,8.23437484e-004
,,,5.40000000e-009,8.45312485e-004
,,,5.42500000e-009,8.64062487e-004
,,,5.45000000e-009,8.74999987e-004
,,,5.47500000e-009,8.74999987e-004
,,,5.50000000e-009,8.64062487e-004
,,,5.52500000e-009,8.39062485e-004
,,,5.55000000e-009,7.99999982e-004
,,,5.57500000e-009,7.46874978e-004
,,,5.60000000e-009,6.85937474e-004
,,,5.62500000e-009,6.20312469e-004
,,,5.65000000e-009,5.54687465e-004
,,,5.67500000e-009,4.95312461e-004
,,,5.70000000e-009,4.48437457e-004
,,,5.72500000e-009,4.15624955e-004
,,,5.75000000e-009,3.99999954e-004
,,,5.77500000e-009,4.04687454e-004
,,,5.80000000e-009,4.26562456e-004
,,,5.82500000e-009,4.67187459e-004
,,,5.85000000e-009,5.21874962e-004
,,,5.87500000e-009,5.87499967e-004
,,,5.90000000e-009,6.59374972e-004
,,,5.92500000e-009,7.32812477e-004
,,,5.95000000e-009,7.99999982e-004
,,,5.97500000e-009,8.57812486e-004
,,,6.00000000e-009,9.01562489e-004
,,,6.02500000e-009,9.26562491e-004
,,,6.05000000e-009,9.35937492e-004
,,,6.07500000e-009,9.24999991e-004
