RawData/SinglePhotoelectron/R6_2pt2D_5mV/wave022_Ch4.csv

"Record Length",1000,"Points",-7.72500000e-009,8.96874989e-004
"Sample Interval",2.50000000e-011,s,-7.70000000e-009,8.78124988e-004
"Trigger Point",309,"Samples",-7.67500000e-009,8.45312485e-004
"Trigger Time",9.31411765e-012,s,-7.65000000e-009,7.99999982e-004
"",,,-7.62500000e-009,7.45312478e-004
"Horizontal Offset",-7.72500000e-009,s,-7.60000000e-009,6.84374974e-004
,,,-7.57500000e-009,6.21874970e-004
,,,-7.55000000e-009,5.59374965e-004
,,,-7.52500000e-009,5.04687461e-004
,,,-7.50000000e-009,4.57812458e-004
,,,-7.47500000e-009,4.23437455e-004
,,,-7.45000000e-009,3.99999954e-004
,,,-7.42500000e-009,3.93749953e-004
,,,-7.40000000e-009,3.98437454e-004
,,,-7.37500000e-009,4.07812454e-004
,,,-7.35000000e-009,4.18749955e-004
,,,-7.32500000e-009,4.26562456e-004
,,,-7.30000000e-009,4.26562456e-004
,,,-7.27500000e-009,4.18749955e-004
,,,-7.25000000e-009,3.99999954e-004
,,,-7.22500000e-009,3.73437452e-004
,,,-7.20000000e-009,3.43749950e-004
,,,-7.17500000e-009,3.14062448e-004
,,,-7.15000000e-009,2.92187446e-004
,,,-7.12500000e-009,2.84374946e-004
,,,-7.10000000e-009,2.96874947e-004
,,,-7.07500000e-009,3.35937449e-004
,,,-7.05000000e-009,3.99999954e-004
,,,-7.02500000e-009,4.90624960e-004
,,,-7.00000000e-009,5.99999968e-004
,,,-6.97500000e-009,7.23437477e-004
,,,-6.95000000e-009,8.48437486e-004
,,,-6.92500000e-009,9.67187494e-004
,,,-6.90000000e-009,1.07187500e-003
,,,-6.87500000e-009,1.15156251e-003
,,,-6.85000000e-009,1.20000001e-003
,,,-6.82500000e-009,1.21250001e-003
,,,-6.80000000e-009,1.19218751e-003
,,,-6.77500000e-009,1.14531251e-003
,,,-6.75000000e-009,1.07968750e-003
,,,-6.72500000e-009,1.00312500e-003
,,,-6.70000000e-009,9.24999991e-004
,,,-6.67500000e-009,8.56249986e-004
,,,-6.65000000e-009,7.99999982e-004
,,,-6.62500000e-009,7.64062480e-004
,,,-6.60000000e-009,7.46874978e-004
,,,-6.57500000e-009,7.46874978e-004
,,,-6.55000000e-009,7.59374979e-004
,,,-6.52500000e-009,7.78124981e-004
,,,-6.50000000e-009,7.95312482e-004
,,,-6.47500000e-009,8.04687482e-004
,,,-6.45000000e-009,7.99999982e-004
,,,-6.42500000e-009,7.79687481e-004
,,,-6.40000000e-009,7.43749978e-004
,,,-6.37500000e-009,6.93749975e-004
,,,-6.35000000e-009,6.32812470e-004
,,,-6.32500000e-009,5.68749966e-004
,,,-6.30000000e-009,5.04687461e-004
,,,-6.27500000e-009,4.48437457e-004
,,,-6.25000000e-009,3.99999954e-004
,,,-6.22500000e-009,3.68749952e-004
,,,-6.20000000e-009,3.53124950e-004
,,,-6.17500000e-009,3.48437450e-004
,,,-6.15000000e-009,3.54687451e-004
,,,-6.12500000e-009,3.67187451e-004
,,,-6.10000000e-009,3.81249952e-004
,,,-6.07500000e-009,3.93749953e-004
,,,-6.05000000e-009,3.99999954e-004
,,,-6.02500000e-009,4.03124954e-004
,,,-6.00000000e-009,3.99999954e-004
,,,-5.97500000e-009,3.92187453e-004
,,,-5.95000000e-009,3.84374953e-004
,,,-5.92500000e-009,3.76562452e-004
,,,-5.90000000e-009,3.74999952e-004
,,,-5.87500000e-009,3.82812453e-004
,,,-5.85000000e-009,3.99999954e-004
,,,-5.82500000e-009,4.35937456e-004
,,,-5.80000000e-009,4.81249960e-004
,,,-5.77500000e-009,5.34374963e-004
,,,-5.75000000e-009,5.92187467e-004
,,,-5.72500000e-009,6.51562472e-004
,,,-5.70000000e-009,7.07812476e-004
,,,-5.67500000e-009,7.59374979e-004
,,,-5.65000000e-009,7.99999982e-004
,,,-5.62500000e-009,8.31249984e-004
,,,-5.60000000e-009,8.49999986e-004
,,,-5.57500000e-009,8.57812486e-004
,,,-5.55000000e-009,8.54687486e-004
,,,-5.52500000e-009,8.45312485e-004
,,,-5.50000000e-009,8.31249984e-004
,,,-5.47500000e-009,8.15624983e-004
,,,-5.45000000e-009,7.99999982e-004
,,,-5.42500000e-009,7.90624981e-004
,,,-5.40000000e-009,7.84374981e-004
,,,-5.37500000e-009,7.81249981e-004
,,,-5.35000000e-009,7.82812481e-004
,,,-5.32500000e-009,7.87499981e-004
,,,-5.30000000e-009,7.92187482e-004
,,,-5.27500000e-009,7.96874982e-004
,,,-5.25000000e-009,7.99999982e-004
,,,-5.22500000e-009,7.99999982e-004
,,,-5.20000000e-009,7.98437482e-004
,,,-5.17500000e-009,7.96874982e-004
,,,-5.15000000e-009,7.93749982e-004
,,,-5.12500000e-009,7.92187482e-004
,,,-5.10000000e-009,7.92187482e-004
,,,-5.07500000e-009,7.95312482e-004
,,,-5.05000000e-009,7.99999982e-004
,,,-5.02500000e-009,8.04687482e-004
,,,-5.00000000e-009,8.09374983e-004
,,,-4.97500000e-009,8.15624983e-004
,,,-4.95000000e-009,8.20312484e-004
,,,-4.92500000e-009,8.21874984e-004
,,,-4.90000000e-009,8.18749983e-004
,,,-4.87500000e-009,8.12499983e-004
,,,-4.85000000e-009,7.99999982e-004
,,,-4.82500000e-009,7.84374981e-004
,,,-4.80000000e-009,7.68749980e-004
,,,-4.77500000e-009,7.54687479e-004
,,,-4.75000000e-009,7.43749978e-004
,,,-4.72500000e-009,7.42187478e-004
,,,-4.70000000e-009,7.49999979e-004
,,,-4.67500000e-009,7.68749980e-004
,,,-4.65000000e-009,7.99999982e-004
,,,-4.62500000e-009,8.43749985e-004
,,,-4.60000000e-009,8.96874989e-004
,,,-4.57500000e-009,9.54687493e-004
,,,-4.55000000e-009,1.01562500e-003
,,,-4.52500000e-009,1.07500000e-003
,,,-4.50000000e-009,1.12812501e-003
,,,-4.47500000e-009,1.17187501e-003
,,,-4.45000000e-009,1.20000001e-003
,,,-4.42500000e-009,1.20625001e-003
,,,-4.40000000e-009,1.19375001e-003
,,,-4.37500000e-009,1.16250001e-003
,,,-4.35000000e-009,1.11406250e-003
,,,-4.32500000e-009,1.05000000e-003
,,,-4.30000000e-009,9.73437494e-004
,,,-4.27500000e-009,8.89062488e-004
,,,-4.25000000e-009,7.99999982e-004
,,,-4.22500000e-009,7.12499976e-004
,,,-4.20000000e-009,6.31249970e-004
,,,-4.17500000e-009,5.57812465e-004
,,,-4.15000000e-009,4.96874961e-004
,,,-4.12500000e-009,4.48437457e-004
,,,-4.10000000e-009,4.17187455e-004
,,,-4.07500000e-009,3.99999954e-004
,,,-4.05000000e-009,3.99999954e-004
,,,-4.02500000e-009,4.18749955e-004
,,,-4.00000000e-009,4.49999957e-004
,,,-3.97500000e-009,4.93749960e-004
,,,-3.95000000e-009,5.46874964e-004
,,,-3.92500000e-009,6.06249968e-004
,,,-3.90000000e-009,6.71874973e-004
,,,-3.87500000e-009,7.37499978e-004
,,,-3.85000000e-009,7.99999982e-004
,,,-3.82500000e-009,8.53124986e-004
,,,-3.80000000e-009,8.93749989e-004
,,,-3.77500000e-009,9.20312491e-004
,,,-3.75000000e-009,9.31249991e-004
,,,-3.72500000e-009,9.23437491e-004
,,,-3.70000000e-009,8.98437489e-004
,,,-3.67500000e-009,8.56249986e-004
,,,-3.65000000e-009,7.99999982e-004
,,,-3.62500000e-009,7.34374977e-004
,,,-3.60000000e-009,6.62499972e-004
,,,-3.57500000e-009,5.92187467e-004
,,,-3.55000000e-009,5.24999963e-004
,,,-3.52500000e-009,4.68749959e-004
,,,-3.50000000e-009,4.28124956e-004
,,,-3.47500000e-009,4.04687454e-004
,,,-3.45000000e-009,3.99999954e-004
,,,-3.42500000e-009,4.21874955e-004
,,,-3.40000000e-009,4.60937458e-004
,,,-3.37500000e-009,5.14062462e-004
,,,-3.35000000e-009,5.74999966e-004
,,,-3.32500000e-009,6.40624971e-004
,,,-3.30000000e-009,7.03124975e-004
,,,-3.27500000e-009,7.59374979e-004
,,,-3.25000000e-009,7.99999982e-004
,,,-3.22500000e-009,8.24999984e-004
,,,-3.20000000e-009,8.26562484e-004
,,,-3.17500000e-009,8.06249983e-004
,,,-3.15000000e-009,7.60937479e-004
,,,-3.12500000e-009,6.95312475e-004
,,,-3.10000000e-009,6.10937469e-004
,,,-3.07500000e-009,5.10937462e-004
,,,-3.05000000e-009,3.99999954e-004
,,,-3.02500000e-009,2.93749946e-004
,,,-3.00000000e-009,1.92187439e-004
,,,-2.97500000e-009,1.03124933e-004
,,,-2.95000000e-009,3.12499277e-005
,,,-2.92500000e-009,-1.71875757e-005
,,,-2.90000000e-009,-3.90625773e-005
,,,-2.87500000e-009,-3.28125768e-005
,,,-2.85000000e-009,-7.45058060e-011
,,,-2.82500000e-009,6.87499304e-005
,,,-2.80000000e-009,1.57812437e-004
,,,-2.77500000e-009,2.62499944e-004
,,,-2.75000000e-009,3.76562452e-004
,,,-2.72500000e-009,4.95312461e-004
,,,-2.70000000e-009,6.09374969e-004
,,,-2.67500000e-009,7.12499976e-004
,,,-2.65000000e-009,7.99999982e-004
,,,-2.62500000e-009,8.68749987e-004
,,,-2.60000000e-009,9.14062490e-004
,,,-2.57500000e-009,9.35937492e-004
,,,-2.55000000e-009,9.37499992e-004
,,,-2.52500000e-009,9.20312491e-004
,,,-2.50000000e-009,8.87499988e-004
,,,-2.47500000e-009,8.46874985e-004
,,,-2.45000000e-009,7.99999982e-004
,,,-2.42500000e-009,7.53124979e-004
,,,-2.40000000e-009,7.12499976e-004
,,,-2.37500000e-009,6.84374974e-004
,,,-2.35000000e-009,6.71874973e-004
,,,-2.32500000e-009,6.78124973e-004
,,,-2.30000000e-009,7.01562475e-004
,,,-2.27500000e-009,7.43749978e-004
,,,-2.25000000e-009,7.99999982e-004
,,,-2.22500000e-009,8.67187487e-004
,,,-2.20000000e-009,9.40624992e-004
,,,-2.17500000e-009,1.01406250e-003
,,,-2.15000000e-009,1.08125000e-003
,,,-2.12500000e-009,1.13750001e-003
,,,-2.10000000e-009,1.17812501e-003
,,,-2.07500000e-009,1.20000001e-003
,,,-2.05000000e-009,1.20000001e-003
,,,-2.02500000e-009,1.17187501e-003
,,,-2.00000000e-009,1.12656251e-003
,,,-1.97500000e-009,1.06875000e-003
,,,-1.95000000e-009,1.00468750e-003
,,,-1.92500000e-009,9.39062492e-004
,,,-1.90000000e-009,8.81249988e-004
,,,-1.87500000e-009,8.34374985e-004
,,,-1.85000000e-009,7.99999982e-004
,,,-1.82500000e-009,7.74999980e-004
,,,-1.80000000e-009,7.65624980e-004
,,,-1.77500000e-009,7.67187480e-004
,,,-1.75000000e-009,7.78124981e-004
,,,-1.72500000e-009,7.92187482e-004
,,,-1.70000000e-009,8.04687482e-004
,,,-1.67500000e-009,8.07812483e-004
,,,-1.65000000e-009,7.99999982e-004
,,,-1.62500000e-009,7.70312480e-004
,,,-1.60000000e-009,7.24999977e-004
,,,-1.57500000e-009,6.67187473e-004
,,,-1.55000000e-009,6.04687468e-004
,,,-1.52500000e-009,5.40624964e-004
,,,-1.50000000e-009,4.81249960e-004
,,,-1.47500000e-009,4.34374956e-004
,,,-1.45000000e-009,3.99999954e-004
,,,-1.42500000e-009,3.73437452e-004
,,,-1.40000000e-009,3.59374951e-004
,,,-1.37500000e-009,3.57812451e-004
,,,-1.35000000e-009,3.65624951e-004
,,,-1.32500000e-009,3.76562452e-004
,,,-1.30000000e-009,3.90624953e-004
,,,-1.27500000e-009,3.99999954e-004
,,,-1.25000000e-009,3.99999954e-004
,,,-1.22500000e-009,3.73437452e-004
,,,-1.20000000e-009,3.32812449e-004
,,,-1.17500000e-009,2.81249945e-004
,,,-1.15000000e-009,2.20312441e-004
,,,-1.12500000e-009,1.59374937e-004
,,,-1.10000000e-009,9.84374325e-005
,,,-1.07500000e-009,4.53124287e-005
,,,-1.05000000e-009,-7.45058060e-011
,,,-1.02500000e-009,-5.31250783e-005
,,,-1.00000000e-009,-1.03125082e-004
,,,-9.75000000e-010,-1.50000085e-004
,,,-9.50000000e-010,-1.93750088e-004
,,,-9.25000000e-010,-2.39062591e-004
,,,-9.00000000e-010,-2.87500095e-004
,,,-8.75000000e-010,-3.40625099e-004
,,,-8.50000000e-010,-4.00000103e-004
,,,-8.25000000e-010,-4.89062609e-004
,,,-8.00000000e-010,-5.89062616e-004
,,,-7.75000000e-010,-6.98437624e-004
,,,-7.50000000e-010,-8.12500132e-004
,,,-7.25000000e-010,-9.21875140e-004
,,,-7.00000000e-010,-1.02500015e-003
,,,-6.75000000e-010,-1.11875015e-003
,,,-6.50000000e-010,-1.20000016e-003
,,,-6.25000000e-010,-1.28750017e-003
,,,-6.00000000e-010,-1.37343767e-003
,,,-5.75000000e-010,-1.45937518e-003
,,,-5.50000000e-010,-1.54843768e-003
,,,-5.25000000e-010,-1.64375019e-003
,,,-5.00000000e-010,-1.74843770e-003
,,,-4.75000000e-010,-1.86562521e-003
,,,-4.50000000e-010,-2.00000022e-003
,,,-4.25000000e-010,-2.16250023e-003
,,,-4.00000000e-010,-2.34687524e-003
,,,-3.75000000e-010,-2.54843775e-003
,,,-3.50000000e-010,-2.76093777e-003
,,,-3.25000000e-010,-2.97812529e-003
,,,-3.00000000e-010,-3.19375030e-003
,,,-2.75000000e-010,-3.40312532e-003
,,,-2.50000000e-010,-3.60000033e-003
,,,-2.25000000e-010,-3.77812534e-003
,,,-2.00000000e-010,-3.94531285e-003
,,,-1.75000000e-010,-4.10156286e-003
,,,-1.50000000e-010,-4.25000038e-003
,,,-1.25000000e-010,-4.39218789e-003
,,,-1.00000000e-010,-4.52812540e-003
,,,-7.50000000e-011,-4.66406290e-003
,,,-5.00000000e-011,-4.80000041e-003
,,,-2.50000000e-011,-4.92187542e-003
,,,0.00000000e+000,-5.05468793e-003
,,,2.50000000e-011,-5.19687544e-003
,,,5.00000000e-011,-5.34843795e-003
,,,7.50000000e-011,-5.50781296e-003
,,,1.00000000e-010,-5.67187548e-003
,,,1.25000000e-010,-5.83750049e-003
,,,1.50000000e-010,-6.00000050e-003
,,,1.75000000e-010,-6.12812551e-003
,,,2.00000000e-010,-6.25156302e-003
,,,2.25000000e-010,-6.36875053e-003
,,,2.50000000e-010,-6.47656303e-003
,,,2.75000000e-010,-6.57500054e-003
,,,3.00000000e-010,-6.66406305e-003
,,,3.25000000e-010,-6.73750055e-003
,,,3.50000000e-010,-6.80000056e-003
,,,3.75000000e-010,-6.81250056e-003
,,,4.00000000e-010,-6.81718806e-003
,,,4.25000000e-010,-6.81875056e-003
,,,4.50000000e-010,-6.81562556e-003
,,,4.75000000e-010,-6.81093806e-003
,,,5.00000000e-010,-6.80781306e-003
,,,5.25000000e-010,-6.80468806e-003
,,,5.50000000e-010,-6.80000056e-003
,,,5.75000000e-010,-6.75625055e-003
,,,6.00000000e-010,-6.71250055e-003
,,,6.25000000e-010,-6.66875055e-003
,,,6.50000000e-010,-6.62343804e-003
,,,6.75000000e-010,-6.57656304e-003
,,,7.00000000e-010,-6.52500054e-003
,,,7.25000000e-010,-6.46562553e-003
,,,7.50000000e-010,-6.40000053e-003
,,,7.75000000e-010,-6.29687552e-003
,,,8.00000000e-010,-6.18750051e-003
,,,8.25000000e-010,-6.07656300e-003
,,,8.50000000e-010,-5.96562550e-003
,,,8.75000000e-010,-5.86093799e-003
,,,9.00000000e-010,-5.76250048e-003
,,,9.25000000e-010,-5.67500048e-003
,,,9.50000000e-010,-5.60000047e-003
,,,9.75000000e-010,-5.51406296e-003
,,,1.00000000e-009,-5.43906296e-003
,,,1.02500000e-009,-5.37656296e-003
,,,1.05000000e-009,-5.32500045e-003
,,,1.07500000e-009,-5.28593795e-003
,,,1.10000000e-009,-5.25312545e-003
,,,1.12500000e-009,-5.22500044e-003
,,,1.15000000e-009,-5.20000044e-003
,,,1.17500000e-009,-5.15312544e-003
,,,1.20000000e-009,-5.09375044e-003
,,,1.22500000e-009,-5.02031293e-003
,,,1.25000000e-009,-4.92968792e-003
,,,1.27500000e-009,-4.82031292e-003
,,,1.30000000e-009,-4.69531291e-003
,,,1.32500000e-009,-4.55468790e-003
,,,1.35000000e-009,-4.40000039e-003
,,,1.37500000e-009,-4.22812537e-003
,,,1.40000000e-009,-4.04843786e-003
,,,1.42500000e-009,-3.86875035e-003
,,,1.45000000e-009,-3.69531284e-003
,,,1.47500000e-009,-3.53593782e-003
,,,1.50000000e-009,-3.39843782e-003
,,,1.52500000e-009,-3.28437531e-003
,,,1.55000000e-009,-3.20000030e-003
,,,1.57500000e-009,-3.13906280e-003
,,,1.60000000e-009,-3.09531279e-003
,,,1.62500000e-009,-3.06093779e-003
,,,1.65000000e-009,-3.02968779e-003
,,,1.67500000e-009,-2.99375029e-003
,,,1.70000000e-009,-2.94687528e-003
,,,1.72500000e-009,-2.88281278e-003
,,,1.75000000e-009,-2.80000027e-003
,,,1.77500000e-009,-2.69531277e-003
,,,1.80000000e-009,-2.56562526e-003
,,,1.82500000e-009,-2.41250025e-003
,,,1.85000000e-009,-2.24531273e-003
,,,1.87500000e-009,-2.07187522e-003
,,,1.90000000e-009,-1.90000021e-003
,,,1.92500000e-009,-1.74062520e-003
,,,1.95000000e-009,-1.60000019e-003
,,,1.97500000e-009,-1.48906268e-003
,,,2.00000000e-009,-1.40156267e-003
,,,2.02500000e-009,-1.33437517e-003
,,,2.05000000e-009,-1.28437517e-003
,,,2.07500000e-009,-1.25156266e-003
,,,2.10000000e-009,-1.22968766e-003
,,,2.12500000e-009,-1.21250016e-003
,,,2.15000000e-009,-1.20000016e-003
,,,2.17500000e-009,-1.19062516e-003
,,,2.20000000e-009,-1.16875016e-003
,,,2.22500000e-009,-1.13437515e-003
,,,2.25000000e-009,-1.08437515e-003
,,,2.27500000e-009,-1.02343765e-003
,,,2.30000000e-009,-9.53125142e-004
,,,2.32500000e-009,-8.76562637e-004
,,,2.35000000e-009,-8.00000131e-004
,,,2.37500000e-009,-7.35937627e-004
,,,2.40000000e-009,-6.71875122e-004
,,,2.42500000e-009,-6.10937618e-004
,,,2.45000000e-009,-5.54687614e-004
,,,2.47500000e-009,-5.04687610e-004
,,,2.50000000e-009,-4.60937607e-004
,,,2.52500000e-009,-4.25000105e-004
,,,2.55000000e-009,-4.00000103e-004
,,,2.57500000e-009,-3.89062602e-004
,,,2.60000000e-009,-3.82812602e-004
,,,2.62500000e-009,-3.79687601e-004
,,,2.65000000e-009,-3.81250101e-004
,,,2.67500000e-009,-3.84375102e-004
,,,2.70000000e-009,-3.89062602e-004
,,,2.72500000e-009,-3.95312602e-004
,,,2.75000000e-009,-4.00000103e-004
,,,2.77500000e-009,-4.03125103e-004
,,,2.80000000e-009,-3.96875103e-004
,,,2.82500000e-009,-3.75000101e-004
,,,2.85000000e-009,-3.34375098e-004
,,,2.87500000e-009,-2.76562594e-004
,,,2.90000000e-009,-1.98437589e-004
,,,2.92500000e-009,-1.04687582e-004
,,,2.95000000e-009,-7.45058060e-011
,,,2.97500000e-009,1.10937433e-004
,,,3.00000000e-009,2.18749941e-004
,,,3.02500000e-009,3.18749948e-004
,,,3.05000000e-009,3.99999954e-004
,,,3.07500000e-009,4.54687458e-004
,,,3.10000000e-009,4.74999959e-004
,,,3.12500000e-009,4.57812458e-004
,,,3.15000000e-009,3.99999954e-004
,,,3.17500000e-009,3.06249947e-004
,,,3.20000000e-009,1.87499939e-004
,,,3.22500000e-009,5.46874294e-005
,,,3.25000000e-009,-7.96875801e-005
,,,3.27500000e-009,-2.03125089e-004
,,,3.30000000e-009,-3.03125096e-004
,,,3.32500000e-009,-3.70312601e-004
,,,3.35000000e-009,-4.00000103e-004
,,,3.37500000e-009,-3.79687601e-004
,,,3.40000000e-009,-3.18750097e-004
,,,3.42500000e-009,-2.23437590e-004
,,,3.45000000e-009,-1.01562582e-004
,,,3.47500000e-009,3.43749279e-005
,,,3.50000000e-009,1.70312438e-004
,,,3.52500000e-009,2.95312446e-004
,,,3.55000000e-009,3.99999954e-004
,,,3.57500000e-009,4.76562459e-004
,,,3.60000000e-009,5.21874962e-004
,,,3.62500000e-009,5.39062464e-004
,,,3.65000000e-009,5.31249963e-004
,,,3.67500000e-009,5.04687461e-004
,,,3.70000000e-009,4.68749959e-004
,,,3.72500000e-009,4.31249956e-004
,,,3.75000000e-009,3.99999954e-004
,,,3.77500000e-009,3.82812453e-004
,,,3.80000000e-009,3.85937453e-004
,,,3.82500000e-009,4.09374954e-004
,,,3.85000000e-009,4.57812458e-004
,,,3.87500000e-009,5.23437463e-004
,,,3.90000000e-009,6.07812469e-004
,,,3.92500000e-009,7.01562475e-004
,,,3.95000000e-009,7.99999982e-004
,,,3.97500000e-009,8.93749989e-004
,,,4.00000000e-009,9.81249995e-004
,,,4.02500000e-009,1.05781250e-003
,,,4.05000000e-009,1.12031250e-003
,,,4.07500000e-009,1.16718751e-003
,,,4.10000000e-009,1.19531251e-003
,,,4.12500000e-009,1.20625001e-003
,,,4.15000000e-009,1.20000001e-003
,,,4.17500000e-009,1.17500001e-003
,,,4.20000000e-009,1.13750001e-003
,,,4.22500000e-009,1.08906250e-003
,,,4.25000000e-009,1.03281250e-003
,,,4.27500000e-009,9.73437494e-004
,,,4.30000000e-009,9.12499990e-004
,,,4.32500000e-009,8.54687486e-004
,,,4.35000000e-009,7.99999982e-004
,,,4.37500000e-009,7.51562479e-004
,,,4.40000000e-009,7.15624976e-004
,,,4.42500000e-009,6.95312475e-004
,,,4.45000000e-009,6.89062474e-004
,,,4.47500000e-009,6.99999975e-004
,,,4.50000000e-009,7.23437477e-004
,,,4.52500000e-009,7.57812479e-004
,,,4.55000000e-009,7.99999982e-004
,,,4.57500000e-009,8.45312485e-004
,,,4.60000000e-009,8.87499988e-004
,,,4.62500000e-009,9.18749991e-004
,,,4.65000000e-009,9.37499992e-004
,,,4.67500000e-009,9.37499992e-004
,,,4.70000000e-009,9.14062490e-004
,,,4.72500000e-009,8.68749987e-004
,,,4.75000000e-009,7.99999982e-004
,,,4.77500000e-009,7.17187476e-004
,,,4.80000000e-009,6.26562470e-004
,,,4.82500000e-009,5.37499964e-004
,,,4.85000000e-009,4.57812458e-004
,,,4.87500000e-009,3.96874954e-004
,,,4.90000000e-009,3.64062451e-004
,,,4.92500000e-009,3.65624951e-004
,,,4.95000000e-009,3.99999954e-004
,,,4.97500000e-009,4.73437459e-004
,,,5.00000000e-009,5.74999966e-004
,,,5.02500000e-009,6.95312475e-004
,,,5.05000000e-009,8.24999984e-004
,,,5.07500000e-009,9.49999993e-004
,,,5.10000000e-009,1.06093750e-003
,,,5.12500000e-009,1.14687501e-003
,,,5.15000000e-009,1.20000001e-003
,,,5.17500000e-009,1.21718751e-003
,,,5.20000000e-009,1.19843751e-003
,,,5.22500000e-009,1.15000001e-003
,,,5.25000000e-009,1.08125000e-003
,,,5.27500000e-009,9.99999996e-004
,,,5.30000000e-009,9.20312491e-004
,,,5.32500000e-009,8.49999986e-004
,,,5.35000000e-009,7.99999982e-004
,,,5.37500000e-009,7.76562480e-004
,,,5.40000000e-009,7.82812481e-004
,,,5.42500000e-009,8.15624983e-004
,,,5.45000000e-009,8.71874987e-004
,,,5.47500000e-009,9.46874993e-004
,,,5.50000000e-009,1.03281250e-003
,,,5.52500000e-009,1.11875000e-003
,,,5.55000000e-009,1.20000001e-003
,,,5.57500000e-009,1.26406251e-003
,,,5.60000000e-009,1.30781252e-003
,,,5.62500000e-009,1.33281252e-003
,,,5.65000000e-009,1.33750002e-003
,,,5.67500000e-009,1.32343752e-003
,,,5.70000000e-009,1.29375002e-003
,,,5.72500000e-009,1.25156251e-003
,,,5.75000000e-009,1.20000001e-003
,,,5.77500000e-009,1.14218751e-003
,,,5.80000000e-009,1.08281250e-003
,,,5.82500000e-009,1.02500000e-003
,,,5.85000000e-009,9.70312494e-004
,,,5.87500000e-009,9.20312491e-004
,,,5.90000000e-009,8.74999987e-004
,,,5.92500000e-009,8.34374985e-004
,,,5.95000000e-009,7.99999982e-004
,,,5.97500000e-009,7.73437480e-004
,,,6.00000000e-009,7.54687479e-004
,,,6.02500000e-009,7.45312478e-004
,,,6.05000000e-009,7.42187478e-004
,,,6.07500000e-009,7.48437478e-004
