RawData/SinglePhotoelectron/R6_2pt2D_5mV/wave020_Ch4.csv

"Record Length",1000,"Points",-7.72500000e-009,7.49999979e-004
"Sample Interval",2.50000000e-011,s,-7.70000000e-009,6.89062474e-004
"Trigger Point",309,"Samples",-7.67500000e-009,6.23437470e-004
"Trigger Time",1.46044156e-011,s,-7.65000000e-009,5.57812465e-004
"",,,-7.62500000e-009,4.98437461e-004
"Horizontal Offset",-7.72500000e-009,s,-7.60000000e-009,4.49999957e-004
,,,-7.57500000e-009,4.15624955e-004
,,,-7.55000000e-009,3.99999954e-004
,,,-7.52500000e-009,4.15624955e-004
,,,-7.50000000e-009,4.49999957e-004
,,,-7.47500000e-009,4.98437461e-004
,,,-7.45000000e-009,5.57812465e-004
,,,-7.42500000e-009,6.23437470e-004
,,,-7.40000000e-009,6.89062474e-004
,,,-7.37500000e-009,7.49999979e-004
,,,-7.35000000e-009,7.99999982e-004
,,,-7.32500000e-009,8.42187485e-004
,,,-7.30000000e-009,8.70312487e-004
,,,-7.27500000e-009,8.82812488e-004
,,,-7.25000000e-009,8.81249988e-004
,,,-7.22500000e-009,8.68749987e-004
,,,-7.20000000e-009,8.49999986e-004
,,,-7.17500000e-009,8.24999984e-004
,,,-7.15000000e-009,7.99999982e-004
,,,-7.12500000e-009,7.78124981e-004
,,,-7.10000000e-009,7.60937479e-004
,,,-7.07500000e-009,7.49999979e-004
,,,-7.05000000e-009,7.46874978e-004
,,,-7.02500000e-009,7.49999979e-004
,,,-7.00000000e-009,7.60937479e-004
,,,-6.97500000e-009,7.76562480e-004
,,,-6.95000000e-009,7.99999982e-004
,,,-6.92500000e-009,8.29687484e-004
,,,-6.90000000e-009,8.65624987e-004
,,,-6.87500000e-009,9.06249990e-004
,,,-6.85000000e-009,9.53124993e-004
,,,-6.82500000e-009,1.00625000e-003
,,,-6.80000000e-009,1.06562500e-003
,,,-6.77500000e-009,1.13125001e-003
,,,-6.75000000e-009,1.20000001e-003
,,,-6.72500000e-009,1.27343752e-003
,,,-6.70000000e-009,1.34687502e-003
,,,-6.67500000e-009,1.41562503e-003
,,,-6.65000000e-009,1.47968753e-003
,,,-6.62500000e-009,1.53125003e-003
,,,-6.60000000e-009,1.57187504e-003
,,,-6.57500000e-009,1.59531254e-003
,,,-6.55000000e-009,1.60000004e-003
,,,-6.52500000e-009,1.58125004e-003
,,,-6.50000000e-009,1.54531253e-003
,,,-6.47500000e-009,1.49843753e-003
,,,-6.45000000e-009,1.44218753e-003
,,,-6.42500000e-009,1.38125002e-003
,,,-6.40000000e-009,1.31875002e-003
,,,-6.37500000e-009,1.25781251e-003
,,,-6.35000000e-009,1.20000001e-003
,,,-6.32500000e-009,1.14687501e-003
,,,-6.30000000e-009,1.09843750e-003
,,,-6.27500000e-009,1.05312500e-003
,,,-6.25000000e-009,1.00937500e-003
,,,-6.22500000e-009,9.64062494e-004
,,,-6.20000000e-009,9.14062490e-004
,,,-6.17500000e-009,8.59374986e-004
,,,-6.15000000e-009,7.99999982e-004
,,,-6.12500000e-009,7.43749978e-004
,,,-6.10000000e-009,6.92187474e-004
,,,-6.07500000e-009,6.49999972e-004
,,,-6.05000000e-009,6.26562470e-004
,,,-6.02500000e-009,6.26562470e-004
,,,-6.00000000e-009,6.53124972e-004
,,,-5.97500000e-009,7.12499976e-004
,,,-5.95000000e-009,7.99999982e-004
,,,-5.92500000e-009,9.18749991e-004
,,,-5.90000000e-009,1.05468750e-003
,,,-5.87500000e-009,1.19843751e-003
,,,-5.85000000e-009,1.33593752e-003
,,,-5.82500000e-009,1.45468753e-003
,,,-5.80000000e-009,1.54375003e-003
,,,-5.77500000e-009,1.59531254e-003
,,,-5.75000000e-009,1.60000004e-003
,,,-5.72500000e-009,1.55781254e-003
,,,-5.70000000e-009,1.47500003e-003
,,,-5.67500000e-009,1.36250002e-003
,,,-5.65000000e-009,1.23125001e-003
,,,-5.62500000e-009,1.09687500e-003
,,,-5.60000000e-009,9.71874994e-004
,,,-5.57500000e-009,8.70312487e-004
,,,-5.55000000e-009,7.99999982e-004
,,,-5.52500000e-009,7.73437480e-004
,,,-5.50000000e-009,7.84374981e-004
,,,-5.47500000e-009,8.28124984e-004
,,,-5.45000000e-009,8.96874989e-004
,,,-5.42500000e-009,9.78124995e-004
,,,-5.40000000e-009,1.06250000e-003
,,,-5.37500000e-009,1.13906251e-003
,,,-5.35000000e-009,1.20000001e-003
,,,-5.32500000e-009,1.23750001e-003
,,,-5.30000000e-009,1.25156251e-003
,,,-5.27500000e-009,1.24531251e-003
,,,-5.25000000e-009,1.22812501e-003
,,,-5.22500000e-009,1.20625001e-003
,,,-5.20000000e-009,1.19062501e-003
,,,-5.17500000e-009,1.18593751e-003
,,,-5.15000000e-009,1.20000001e-003
,,,-5.12500000e-009,1.23437501e-003
,,,-5.10000000e-009,1.28593752e-003
,,,-5.07500000e-009,1.35156252e-003
,,,-5.05000000e-009,1.42500003e-003
,,,-5.02500000e-009,1.49375003e-003
,,,-5.00000000e-009,1.55156254e-003
,,,-4.97500000e-009,1.58906254e-003
,,,-4.95000000e-009,1.60000004e-003
,,,-4.92500000e-009,1.57968754e-003
,,,-4.90000000e-009,1.53437503e-003
,,,-4.87500000e-009,1.47031253e-003
,,,-4.85000000e-009,1.39843752e-003
,,,-4.82500000e-009,1.32812502e-003
,,,-4.80000000e-009,1.26718752e-003
,,,-4.77500000e-009,1.22343751e-003
,,,-4.75000000e-009,1.20000001e-003
,,,-4.72500000e-009,1.19843751e-003
,,,-4.70000000e-009,1.21406251e-003
,,,-4.67500000e-009,1.24062501e-003
,,,-4.65000000e-009,1.26718752e-003
,,,-4.62500000e-009,1.28593752e-003
,,,-4.60000000e-009,1.28437502e-003
,,,-4.57500000e-009,1.25781251e-003
,,,-4.55000000e-009,1.20000001e-003
,,,-4.52500000e-009,1.10781250e-003
,,,-4.50000000e-009,9.90624996e-004
,,,-4.47500000e-009,8.57812486e-004
,,,-4.45000000e-009,7.21874977e-004
,,,-4.42500000e-009,5.96874968e-004
,,,-4.40000000e-009,4.95312461e-004
,,,-4.37500000e-009,4.26562456e-004
,,,-4.35000000e-009,3.99999954e-004
,,,-4.32500000e-009,4.29687456e-004
,,,-4.30000000e-009,4.99999961e-004
,,,-4.27500000e-009,6.06249968e-004
,,,-4.25000000e-009,7.34374977e-004
,,,-4.22500000e-009,8.71874987e-004
,,,-4.20000000e-009,1.00312500e-003
,,,-4.17500000e-009,1.11718750e-003
,,,-4.15000000e-009,1.20000001e-003
,,,-4.12500000e-009,1.24843751e-003
,,,-4.10000000e-009,1.25625001e-003
,,,-4.07500000e-009,1.22656251e-003
,,,-4.05000000e-009,1.16718751e-003
,,,-4.02500000e-009,1.08437500e-003
,,,-4.00000000e-009,9.90624996e-004
,,,-3.97500000e-009,8.93749989e-004
,,,-3.95000000e-009,7.99999982e-004
,,,-3.92500000e-009,7.24999977e-004
,,,-3.90000000e-009,6.60937472e-004
,,,-3.87500000e-009,6.10937469e-004
,,,-3.85000000e-009,5.68749966e-004
,,,-3.82500000e-009,5.31249963e-004
,,,-3.80000000e-009,4.92187460e-004
,,,-3.77500000e-009,4.49999957e-004
,,,-3.75000000e-009,3.99999954e-004
,,,-3.72500000e-009,3.54687451e-004
,,,-3.70000000e-009,3.09374947e-004
,,,-3.67500000e-009,2.68749945e-004
,,,-3.65000000e-009,2.40624943e-004
,,,-3.62500000e-009,2.32812442e-004
,,,-3.60000000e-009,2.54687444e-004
,,,-3.57500000e-009,3.09374947e-004
,,,-3.55000000e-009,3.99999954e-004
,,,-3.52500000e-009,5.32812463e-004
,,,-3.50000000e-009,6.92187474e-004
,,,-3.47500000e-009,8.68749987e-004
,,,-3.45000000e-009,1.05000000e-003
,,,-3.42500000e-009,1.22656251e-003
,,,-3.40000000e-009,1.38281252e-003
,,,-3.37500000e-009,1.51093753e-003
,,,-3.35000000e-009,1.60000004e-003
,,,-3.32500000e-009,1.64062504e-003
,,,-3.30000000e-009,1.63906254e-003
,,,-3.27500000e-009,1.60156254e-003
,,,-3.25000000e-009,1.53593753e-003
,,,-3.22500000e-009,1.45312503e-003
,,,-3.20000000e-009,1.36250002e-003
,,,-3.17500000e-009,1.27500002e-003
,,,-3.15000000e-009,1.20000001e-003
,,,-3.12500000e-009,1.14062501e-003
,,,-3.10000000e-009,1.10312500e-003
,,,-3.07500000e-009,1.08593750e-003
,,,-3.05000000e-009,1.08906250e-003
,,,-3.02500000e-009,1.10781250e-003
,,,-3.00000000e-009,1.13593751e-003
,,,-2.97500000e-009,1.16875001e-003
,,,-2.95000000e-009,1.20000001e-003
,,,-2.92500000e-009,1.22343751e-003
,,,-2.90000000e-009,1.23750001e-003
,,,-2.87500000e-009,1.24375001e-003
,,,-2.85000000e-009,1.24218751e-003
,,,-2.82500000e-009,1.23437501e-003
,,,-2.80000000e-009,1.22187501e-003
,,,-2.77500000e-009,1.21093751e-003
,,,-2.75000000e-009,1.20000001e-003
,,,-2.72500000e-009,1.18906251e-003
,,,-2.70000000e-009,1.18437501e-003
,,,-2.67500000e-009,1.18281251e-003
,,,-2.65000000e-009,1.18750001e-003
,,,-2.62500000e-009,1.19375001e-003
,,,-2.60000000e-009,1.20000001e-003
,,,-2.57500000e-009,1.20312501e-003
,,,-2.55000000e-009,1.20000001e-003
,,,-2.52500000e-009,1.18281251e-003
,,,-2.50000000e-009,1.15625001e-003
,,,-2.47500000e-009,1.12031250e-003
,,,-2.45000000e-009,1.07187500e-003
,,,-2.42500000e-009,1.01562500e-003
,,,-2.40000000e-009,9.49999993e-004
,,,-2.37500000e-009,8.78124988e-004
,,,-2.35000000e-009,7.99999982e-004
,,,-2.32500000e-009,7.23437477e-004
,,,-2.30000000e-009,6.48437471e-004
,,,-2.27500000e-009,5.76562466e-004
,,,-2.25000000e-009,5.14062462e-004
,,,-2.22500000e-009,4.62499958e-004
,,,-2.20000000e-009,4.24999956e-004
,,,-2.17500000e-009,4.04687454e-004
,,,-2.15000000e-009,3.99999954e-004
,,,-2.12500000e-009,4.18749955e-004
,,,-2.10000000e-009,4.51562457e-004
,,,-2.07500000e-009,4.96874961e-004
,,,-2.05000000e-009,5.53124965e-004
,,,-2.02500000e-009,6.15624969e-004
,,,-2.00000000e-009,6.79687474e-004
,,,-1.97500000e-009,7.42187478e-004
,,,-1.95000000e-009,7.99999982e-004
,,,-1.92500000e-009,8.46874985e-004
,,,-1.90000000e-009,8.81249988e-004
,,,-1.87500000e-009,8.99999989e-004
,,,-1.85000000e-009,9.04687490e-004
,,,-1.82500000e-009,8.95312489e-004
,,,-1.80000000e-009,8.74999987e-004
,,,-1.77500000e-009,8.42187485e-004
,,,-1.75000000e-009,7.99999982e-004
,,,-1.72500000e-009,7.45312478e-004
,,,-1.70000000e-009,6.84374974e-004
,,,-1.67500000e-009,6.23437470e-004
,,,-1.65000000e-009,5.62499965e-004
,,,-1.62500000e-009,5.09374962e-004
,,,-1.60000000e-009,4.62499958e-004
,,,-1.57500000e-009,4.26562456e-004
,,,-1.55000000e-009,3.99999954e-004
,,,-1.52500000e-009,3.81249952e-004
,,,-1.50000000e-009,3.71874952e-004
,,,-1.47500000e-009,3.67187451e-004
,,,-1.45000000e-009,3.70312452e-004
,,,-1.42500000e-009,3.74999952e-004
,,,-1.40000000e-009,3.82812453e-004
,,,-1.37500000e-009,3.92187453e-004
,,,-1.35000000e-009,3.99999954e-004
,,,-1.32500000e-009,3.92187453e-004
,,,-1.30000000e-009,3.81249952e-004
,,,-1.27500000e-009,3.68749952e-004
,,,-1.25000000e-009,3.59374951e-004
,,,-1.22500000e-009,3.56249951e-004
,,,-1.20000000e-009,3.62499951e-004
,,,-1.17500000e-009,3.78124952e-004
,,,-1.15000000e-009,3.99999954e-004
,,,-1.12500000e-009,4.06249954e-004
,,,-1.10000000e-009,4.04687454e-004
,,,-1.07500000e-009,3.92187453e-004
,,,-1.05000000e-009,3.64062451e-004
,,,-1.02500000e-009,3.14062448e-004
,,,-1.00000000e-009,2.37499942e-004
,,,-9.75000000e-010,1.32812435e-004
,,,-9.50000000e-010,-7.45058060e-011
,,,-9.25000000e-010,-1.78125087e-004
,,,-9.00000000e-010,-3.75000101e-004
,,,-8.75000000e-010,-5.78125115e-004
,,,-8.50000000e-010,-7.70312629e-004
,,,-8.25000000e-010,-9.40625141e-004
,,,-8.00000000e-010,-1.07343765e-003
,,,-7.75000000e-010,-1.16093766e-003
,,,-7.50000000e-010,-1.20000016e-003
,,,-7.25000000e-010,-1.20937516e-003
,,,-7.00000000e-010,-1.18906266e-003
,,,-6.75000000e-010,-1.15000016e-003
,,,-6.50000000e-010,-1.10781265e-003
,,,-6.25000000e-010,-1.07656265e-003
,,,-6.00000000e-010,-1.07343765e-003
,,,-5.75000000e-010,-1.11093765e-003
,,,-5.50000000e-010,-1.20000016e-003
,,,-5.25000000e-010,-1.36093767e-003
,,,-5.00000000e-010,-1.57812519e-003
,,,-4.75000000e-010,-1.83750020e-003
,,,-4.50000000e-010,-2.12656273e-003
,,,-4.25000000e-010,-2.42343775e-003
,,,-4.00000000e-010,-2.71250027e-003
,,,-3.75000000e-010,-2.97500029e-003
,,,-3.50000000e-010,-3.20000030e-003
,,,-3.25000000e-010,-3.38125031e-003
,,,-3.00000000e-010,-3.52187532e-003
,,,-2.75000000e-010,-3.62656283e-003
,,,-2.50000000e-010,-3.70468784e-003
,,,-2.25000000e-010,-3.76875034e-003
,,,-2.00000000e-010,-3.83125035e-003
,,,-1.75000000e-010,-3.90468785e-003
,,,-1.50000000e-010,-4.00000036e-003
,,,-1.25000000e-010,-4.11718787e-003
,,,-1.00000000e-010,-4.27031288e-003
,,,-7.50000000e-011,-4.45937539e-003
,,,-5.00000000e-011,-4.67656291e-003
,,,-2.50000000e-011,-4.90937542e-003
,,,0.00000000e+000,-5.15000044e-003
,,,2.50000000e-011,-5.38281296e-003
,,,5.00000000e-011,-5.60000047e-003
,,,7.50000000e-011,-5.76562548e-003
,,,1.00000000e-010,-5.90937549e-003
,,,1.25000000e-010,-6.02656300e-003
,,,1.50000000e-010,-6.12500051e-003
,,,1.75000000e-010,-6.20625051e-003
,,,2.00000000e-010,-6.27500052e-003
,,,2.25000000e-010,-6.33906302e-003
,,,2.50000000e-010,-6.40000053e-003
,,,2.75000000e-010,-6.43281303e-003
,,,3.00000000e-010,-6.47187553e-003
,,,3.25000000e-010,-6.52031304e-003
,,,3.50000000e-010,-6.57656304e-003
,,,3.75000000e-010,-6.63593804e-003
,,,4.00000000e-010,-6.69531305e-003
,,,4.25000000e-010,-6.75156305e-003
,,,4.50000000e-010,-6.80000056e-003
,,,4.75000000e-010,-6.79687556e-003
,,,5.00000000e-010,-6.78906306e-003
,,,5.25000000e-010,-6.77812555e-003
,,,5.50000000e-010,-6.76875055e-003
,,,5.75000000e-010,-6.76562555e-003
,,,6.00000000e-010,-6.76875055e-003
,,,6.25000000e-010,-6.78125055e-003
,,,6.50000000e-010,-6.80000056e-003
,,,6.75000000e-010,-6.78437555e-003
,,,7.00000000e-010,-6.77031305e-003
,,,7.25000000e-010,-6.75000055e-003
,,,7.50000000e-010,-6.72031305e-003
,,,7.75000000e-010,-6.67343805e-003
,,,8.00000000e-010,-6.60625054e-003
,,,8.25000000e-010,-6.51562554e-003
,,,8.50000000e-010,-6.40000053e-003
,,,8.75000000e-010,-6.22500052e-003
,,,9.00000000e-010,-6.03437550e-003
,,,9.25000000e-010,-5.84062549e-003
,,,9.50000000e-010,-5.65468797e-003
,,,9.75000000e-010,-5.49062546e-003
,,,1.00000000e-009,-5.35468795e-003
,,,1.02500000e-009,-5.25781295e-003
,,,1.05000000e-009,-5.20000044e-003
,,,1.07500000e-009,-5.15468794e-003
,,,1.10000000e-009,-5.13437544e-003
,,,1.12500000e-009,-5.12500044e-003
,,,1.15000000e-009,-5.11562544e-003
,,,1.17500000e-009,-5.08906293e-003
,,,1.20000000e-009,-5.03437543e-003
,,,1.22500000e-009,-4.94062542e-003
,,,1.25000000e-009,-4.80000041e-003
,,,1.27500000e-009,-4.59687540e-003
,,,1.30000000e-009,-4.34843788e-003
,,,1.32500000e-009,-4.07031286e-003
,,,1.35000000e-009,-3.77500034e-003
,,,1.37500000e-009,-3.48437532e-003
,,,1.40000000e-009,-3.21406280e-003
,,,1.42500000e-009,-2.98281279e-003
,,,1.45000000e-009,-2.80000027e-003
,,,1.47500000e-009,-2.67031276e-003
,,,1.50000000e-009,-2.58593776e-003
,,,1.52500000e-009,-2.54062525e-003
,,,1.55000000e-009,-2.51875025e-003
,,,1.57500000e-009,-2.50937525e-003
,,,1.60000000e-009,-2.49531275e-003
,,,1.62500000e-009,-2.46250025e-003
,,,1.65000000e-009,-2.40000024e-003
,,,1.67500000e-009,-2.30156274e-003
,,,1.70000000e-009,-2.15781273e-003
,,,1.72500000e-009,-1.97031271e-003
,,,1.75000000e-009,-1.74843770e-003
,,,1.77500000e-009,-1.50625018e-003
,,,1.80000000e-009,-1.25625016e-003
,,,1.82500000e-009,-1.01718765e-003
,,,1.85000000e-009,-8.00000131e-004
,,,1.87500000e-009,-6.29687619e-004
,,,1.90000000e-009,-4.96875110e-004
,,,1.92500000e-009,-4.00000103e-004
,,,1.95000000e-009,-3.42187599e-004
,,,1.97500000e-009,-3.17187597e-004
,,,2.00000000e-009,-3.23437597e-004
,,,2.02500000e-009,-3.53125100e-004
,,,2.05000000e-009,-4.00000103e-004
,,,2.07500000e-009,-4.64062607e-004
,,,2.10000000e-009,-5.20312611e-004
,,,2.12500000e-009,-5.59375114e-004
,,,2.15000000e-009,-5.76562615e-004
,,,2.17500000e-009,-5.70312615e-004
,,,2.20000000e-009,-5.37500113e-004
,,,2.22500000e-009,-4.79687608e-004
,,,2.25000000e-009,-4.00000103e-004
,,,2.27500000e-009,-3.14062597e-004
,,,2.30000000e-009,-2.12500090e-004
,,,2.32500000e-009,-9.84375815e-005
,,,2.35000000e-009,2.18749270e-005
,,,2.37500000e-009,1.37499935e-004
,,,2.40000000e-009,2.42187443e-004
,,,2.42500000e-009,3.32812449e-004
,,,2.45000000e-009,3.99999954e-004
,,,2.47500000e-009,4.35937456e-004
,,,2.50000000e-009,4.53124958e-004
,,,2.52500000e-009,4.54687458e-004
,,,2.55000000e-009,4.45312457e-004
,,,2.57500000e-009,4.29687456e-004
,,,2.60000000e-009,4.14062455e-004
,,,2.62500000e-009,4.03124954e-004
,,,2.65000000e-009,3.99999954e-004
,,,2.67500000e-009,4.01562454e-004
,,,2.70000000e-009,4.21874955e-004
,,,2.72500000e-009,4.59374958e-004
,,,2.75000000e-009,5.14062462e-004
,,,2.77500000e-009,5.79687467e-004
,,,2.80000000e-009,6.53124972e-004
,,,2.82500000e-009,7.29687477e-004
,,,2.85000000e-009,7.99999982e-004
,,,2.87500000e-009,8.56249986e-004
,,,2.90000000e-009,8.99999989e-004
,,,2.92500000e-009,9.26562491e-004
,,,2.95000000e-009,9.37499992e-004
,,,2.97500000e-009,9.28124991e-004
,,,3.00000000e-009,9.01562489e-004
,,,3.02500000e-009,8.57812486e-004
,,,3.05000000e-009,7.99999982e-004
,,,3.07500000e-009,7.26562477e-004
,,,3.10000000e-009,6.49999972e-004
,,,3.12500000e-009,5.74999966e-004
,,,3.15000000e-009,5.09374962e-004
,,,3.17500000e-009,4.54687458e-004
,,,3.20000000e-009,4.17187455e-004
,,,3.22500000e-009,3.98437454e-004
,,,3.25000000e-009,3.99999954e-004
,,,3.27500000e-009,4.23437455e-004
,,,3.30000000e-009,4.64062458e-004
,,,3.32500000e-009,5.20312462e-004
,,,3.35000000e-009,5.84374967e-004
,,,3.37500000e-009,6.48437471e-004
,,,3.40000000e-009,7.10937476e-004
,,,3.42500000e-009,7.62499979e-004
,,,3.45000000e-009,7.99999982e-004
,,,3.47500000e-009,8.23437484e-004
,,,3.50000000e-009,8.31249984e-004
,,,3.52500000e-009,8.28124984e-004
,,,3.55000000e-009,8.17187483e-004
,,,3.57500000e-009,8.06249983e-004
,,,3.60000000e-009,7.96874982e-004
,,,3.62500000e-009,7.95312482e-004
,,,3.65000000e-009,7.99999982e-004
,,,3.67500000e-009,8.15624983e-004
,,,3.70000000e-009,8.37499985e-004
,,,3.72500000e-009,8.60937486e-004
,,,3.75000000e-009,8.79687488e-004
,,,3.77500000e-009,8.87499988e-004
,,,3.80000000e-009,8.79687488e-004
,,,3.82500000e-009,8.51562486e-004
,,,3.85000000e-009,7.99999982e-004
,,,3.87500000e-009,7.32812477e-004
,,,3.90000000e-009,6.53124972e-004
,,,3.92500000e-009,5.68749966e-004
,,,3.95000000e-009,4.87499960e-004
,,,3.97500000e-009,4.23437455e-004
,,,4.00000000e-009,3.82812453e-004
,,,4.02500000e-009,3.73437452e-004
,,,4.05000000e-009,3.99999954e-004
,,,4.07500000e-009,4.67187459e-004
,,,4.10000000e-009,5.64062465e-004
,,,4.12500000e-009,6.82812474e-004
,,,4.15000000e-009,8.10937483e-004
,,,4.17500000e-009,9.39062492e-004
,,,4.20000000e-009,1.05312500e-003
,,,4.22500000e-009,1.14218751e-003
,,,4.25000000e-009,1.20000001e-003
,,,4.27500000e-009,1.21718751e-003
,,,4.30000000e-009,1.19843751e-003
,,,4.32500000e-009,1.15000001e-003
,,,4.35000000e-009,1.08125000e-003
,,,4.37500000e-009,9.99999996e-004
,,,4.40000000e-009,9.20312491e-004
,,,4.42500000e-009,8.49999986e-004
,,,4.45000000e-009,7.99999982e-004
,,,4.47500000e-009,7.76562480e-004
,,,4.50000000e-009,7.82812481e-004
,,,4.52500000e-009,8.15624983e-004
,,,4.55000000e-009,8.71874987e-004
,,,4.57500000e-009,9.46874993e-004
,,,4.60000000e-009,1.03281250e-003
,,,4.62500000e-009,1.11875000e-003
,,,4.65000000e-009,1.20000001e-003
,,,4.67500000e-009,1.26562502e-003
,,,4.70000000e-009,1.31250002e-003
,,,4.72500000e-009,1.33906252e-003
,,,4.75000000e-009,1.34375002e-003
,,,4.77500000e-009,1.32968752e-003
,,,4.80000000e-009,1.30000002e-003
,,,4.82500000e-009,1.25468751e-003
,,,4.85000000e-009,1.20000001e-003
,,,4.87500000e-009,1.13750001e-003
,,,4.90000000e-009,1.07343750e-003
,,,4.92500000e-009,1.01250000e-003
,,,4.95000000e-009,9.54687493e-004
,,,4.97500000e-009,9.04687490e-004
,,,5.00000000e-009,8.60937486e-004
,,,5.02500000e-009,8.26562484e-004
,,,5.05000000e-009,7.99999982e-004
,,,5.07500000e-009,7.78124981e-004
,,,5.10000000e-009,7.62499979e-004
,,,5.12500000e-009,7.54687479e-004
,,,5.15000000e-009,7.54687479e-004
,,,5.17500000e-009,7.60937479e-004
,,,5.20000000e-009,7.70312480e-004
,,,5.22500000e-009,7.84374981e-004
,,,5.25000000e-009,7.99999982e-004
,,,5.27500000e-009,8.18749983e-004
,,,5.30000000e-009,8.32812484e-004
,,,5.32500000e-009,8.43749985e-004
,,,5.35000000e-009,8.48437486e-004
,,,5.37500000e-009,8.46874985e-004
,,,5.40000000e-009,8.37499985e-004
,,,5.42500000e-009,8.21874984e-004
,,,5.45000000e-009,7.99999982e-004
,,,5.47500000e-009,7.78124981e-004
,,,5.50000000e-009,7.54687479e-004
,,,5.52500000e-009,7.37499978e-004
,,,5.55000000e-009,7.26562477e-004
,,,5.57500000e-009,7.28124977e-004
,,,5.60000000e-009,7.40624978e-004
,,,5.62500000e-009,7.65624980e-004
,,,5.65000000e-009,7.99999982e-004
,,,5.67500000e-009,8.45312485e-004
,,,5.70000000e-009,8.89062488e-004
,,,5.72500000e-009,9.26562491e-004
,,,5.75000000e-009,9.51562493e-004
,,,5.77500000e-009,9.54687493e-004
,,,5.80000000e-009,9.32812492e-004
,,,5.82500000e-009,8.81249988e-004
,,,5.85000000e-009,7.99999982e-004
,,,5.87500000e-009,6.95312475e-004
,,,5.90000000e-009,5.71874966e-004
,,,5.92500000e-009,4.37499956e-004
,,,5.95000000e-009,3.04687447e-004
,,,5.97500000e-009,1.85937439e-004
,,,6.00000000e-009,8.90624318e-005
,,,6.02500000e-009,2.49999273e-005
,,,6.05000000e-009,-7.45058060e-011
,,,6.07500000e-009,2.49999273e-005
,,,6.10000000e-009,8.90624318e-005
