RawData/SinglePhotoelectron/R6_2pt2D_5mV/wave029_Ch4.csv

"Record Length",1000,"Points",-7.72500000e-009,7.96874982e-004
"Sample Interval",2.50000000e-011,s,-7.70000000e-009,7.85937481e-004
"Trigger Point",309,"Samples",-7.67500000e-009,7.74999980e-004
"Trigger Time",1.27454902e-011,s,-7.65000000e-009,7.64062480e-004
"",,,-7.62500000e-009,7.57812479e-004
"Horizontal Offset",-7.72500000e-009,s,-7.60000000e-009,7.59374979e-004
,,,-7.57500000e-009,7.73437480e-004
,,,-7.55000000e-009,7.99999982e-004
,,,-7.52500000e-009,8.40624985e-004
,,,-7.50000000e-009,8.90624989e-004
,,,-7.47500000e-009,9.48437493e-004
,,,-7.45000000e-009,1.00937500e-003
,,,-7.42500000e-009,1.06875000e-003
,,,-7.40000000e-009,1.12343751e-003
,,,-7.37500000e-009,1.16718751e-003
,,,-7.35000000e-009,1.20000001e-003
,,,-7.32500000e-009,1.22187501e-003
,,,-7.30000000e-009,1.22968751e-003
,,,-7.27500000e-009,1.22812501e-003
,,,-7.25000000e-009,1.22031251e-003
,,,-7.22500000e-009,1.21093751e-003
,,,-7.20000000e-009,1.20156251e-003
,,,-7.17500000e-009,1.19843751e-003
,,,-7.15000000e-009,1.20000001e-003
,,,-7.12500000e-009,1.20781251e-003
,,,-7.10000000e-009,1.22031251e-003
,,,-7.07500000e-009,1.23437501e-003
,,,-7.05000000e-009,1.24843751e-003
,,,-7.02500000e-009,1.25625001e-003
,,,-7.00000000e-009,1.25312501e-003
,,,-6.97500000e-009,1.23593751e-003
,,,-6.95000000e-009,1.20000001e-003
,,,-6.92500000e-009,1.14531251e-003
,,,-6.90000000e-009,1.07031250e-003
,,,-6.87500000e-009,9.78124995e-004
,,,-6.85000000e-009,8.73437487e-004
,,,-6.82500000e-009,7.56249979e-004
,,,-6.80000000e-009,6.35937471e-004
,,,-6.77500000e-009,5.14062462e-004
,,,-6.75000000e-009,3.99999954e-004
,,,-6.72500000e-009,3.06249947e-004
,,,-6.70000000e-009,2.34374942e-004
,,,-6.67500000e-009,1.87499939e-004
,,,-6.65000000e-009,1.70312438e-004
,,,-6.62500000e-009,1.84374939e-004
,,,-6.60000000e-009,2.28124942e-004
,,,-6.57500000e-009,3.01562447e-004
,,,-6.55000000e-009,3.99999954e-004
,,,-6.52500000e-009,5.21874962e-004
,,,-6.50000000e-009,6.54687472e-004
,,,-6.47500000e-009,7.87499981e-004
,,,-6.45000000e-009,9.14062490e-004
,,,-6.42500000e-009,1.02500000e-003
,,,-6.40000000e-009,1.11250000e-003
,,,-6.37500000e-009,1.17187501e-003
,,,-6.35000000e-009,1.20000001e-003
,,,-6.32500000e-009,1.19218751e-003
,,,-6.30000000e-009,1.15625001e-003
,,,-6.27500000e-009,1.09687500e-003
,,,-6.25000000e-009,1.02656250e-003
,,,-6.22500000e-009,9.51562493e-004
,,,-6.20000000e-009,8.84374988e-004
,,,-6.17500000e-009,8.31249984e-004
,,,-6.15000000e-009,7.99999982e-004
,,,-6.12500000e-009,7.95312482e-004
,,,-6.10000000e-009,8.15624983e-004
,,,-6.07500000e-009,8.57812486e-004
,,,-6.05000000e-009,9.18749991e-004
,,,-6.02500000e-009,9.89062496e-004
,,,-6.00000000e-009,1.06562500e-003
,,,-5.97500000e-009,1.13750001e-003
,,,-5.95000000e-009,1.20000001e-003
,,,-5.92500000e-009,1.24687501e-003
,,,-5.90000000e-009,1.27656252e-003
,,,-5.87500000e-009,1.28906252e-003
,,,-5.85000000e-009,1.28750002e-003
,,,-5.82500000e-009,1.27343752e-003
,,,-5.80000000e-009,1.25312501e-003
,,,-5.77500000e-009,1.22812501e-003
,,,-5.75000000e-009,1.20000001e-003
,,,-5.72500000e-009,1.16718751e-003
,,,-5.70000000e-009,1.13281251e-003
,,,-5.67500000e-009,1.09843750e-003
,,,-5.65000000e-009,1.05937500e-003
,,,-5.62500000e-009,1.01250000e-003
,,,-5.60000000e-009,9.56249993e-004
,,,-5.57500000e-009,8.85937488e-004
,,,-5.55000000e-009,7.99999982e-004
,,,-5.52500000e-009,7.01562475e-004
,,,-5.50000000e-009,5.92187467e-004
,,,-5.47500000e-009,4.76562459e-004
,,,-5.45000000e-009,3.59374951e-004
,,,-5.42500000e-009,2.48437443e-004
,,,-5.40000000e-009,1.48437436e-004
,,,-5.37500000e-009,6.40624300e-005
,,,-5.35000000e-009,-7.45058060e-011
,,,-5.32500000e-009,-2.81250765e-005
,,,-5.30000000e-009,-2.96875766e-005
,,,-5.27500000e-009,-6.25007495e-006
,,,-5.25000000e-009,4.21874285e-005
,,,-5.22500000e-009,1.12499933e-004
,,,-5.20000000e-009,1.98437440e-004
,,,-5.17500000e-009,2.96874947e-004
,,,-5.15000000e-009,3.99999954e-004
,,,-5.12500000e-009,5.06249961e-004
,,,-5.10000000e-009,6.03124968e-004
,,,-5.07500000e-009,6.87499974e-004
,,,-5.05000000e-009,7.53124979e-004
,,,-5.02500000e-009,7.98437482e-004
,,,-5.00000000e-009,8.21874984e-004
,,,-4.97500000e-009,8.21874984e-004
,,,-4.95000000e-009,7.99999982e-004
,,,-4.92500000e-009,7.62499979e-004
,,,-4.90000000e-009,7.09374976e-004
,,,-4.87500000e-009,6.46874971e-004
,,,-4.85000000e-009,5.81249967e-004
,,,-4.82500000e-009,5.18749962e-004
,,,-4.80000000e-009,4.64062458e-004
,,,-4.77500000e-009,4.23437455e-004
,,,-4.75000000e-009,3.99999954e-004
,,,-4.72500000e-009,3.99999954e-004
,,,-4.70000000e-009,4.20312455e-004
,,,-4.67500000e-009,4.57812458e-004
,,,-4.65000000e-009,5.12499962e-004
,,,-4.62500000e-009,5.78124966e-004
,,,-4.60000000e-009,6.51562472e-004
,,,-4.57500000e-009,7.26562477e-004
,,,-4.55000000e-009,7.99999982e-004
,,,-4.52500000e-009,8.64062487e-004
,,,-4.50000000e-009,9.12499990e-004
,,,-4.47500000e-009,9.43749992e-004
,,,-4.45000000e-009,9.54687493e-004
,,,-4.42500000e-009,9.45312492e-004
,,,-4.40000000e-009,9.14062490e-004
,,,-4.37500000e-009,8.65624987e-004
,,,-4.35000000e-009,7.99999982e-004
,,,-4.32500000e-009,7.20312476e-004
,,,-4.30000000e-009,6.39062471e-004
,,,-4.27500000e-009,5.59374965e-004
,,,-4.25000000e-009,4.89062460e-004
,,,-4.22500000e-009,4.35937456e-004
,,,-4.20000000e-009,4.01562454e-004
,,,-4.17500000e-009,3.89062453e-004
,,,-4.15000000e-009,3.99999954e-004
,,,-4.12500000e-009,4.35937456e-004
,,,-4.10000000e-009,4.89062460e-004
,,,-4.07500000e-009,5.53124965e-004
,,,-4.05000000e-009,6.23437470e-004
,,,-4.02500000e-009,6.89062474e-004
,,,-4.00000000e-009,7.43749978e-004
,,,-3.97500000e-009,7.82812481e-004
,,,-3.95000000e-009,7.99999982e-004
,,,-3.92500000e-009,7.95312482e-004
,,,-3.90000000e-009,7.67187480e-004
,,,-3.87500000e-009,7.18749976e-004
,,,-3.85000000e-009,6.57812472e-004
,,,-3.82500000e-009,5.87499967e-004
,,,-3.80000000e-009,5.18749962e-004
,,,-3.77500000e-009,4.54687458e-004
,,,-3.75000000e-009,3.99999954e-004
,,,-3.72500000e-009,3.64062451e-004
,,,-3.70000000e-009,3.43749950e-004
,,,-3.67500000e-009,3.37499949e-004
,,,-3.65000000e-009,3.45312450e-004
,,,-3.62500000e-009,3.57812451e-004
,,,-3.60000000e-009,3.74999952e-004
,,,-3.57500000e-009,3.90624953e-004
,,,-3.55000000e-009,3.99999954e-004
,,,-3.52500000e-009,4.04687454e-004
,,,-3.50000000e-009,3.99999954e-004
,,,-3.47500000e-009,3.90624953e-004
,,,-3.45000000e-009,3.78124952e-004
,,,-3.42500000e-009,3.70312452e-004
,,,-3.40000000e-009,3.68749952e-004
,,,-3.37500000e-009,3.78124952e-004
,,,-3.35000000e-009,3.99999954e-004
,,,-3.32500000e-009,4.39062457e-004
,,,-3.30000000e-009,4.89062460e-004
,,,-3.27500000e-009,5.46874964e-004
,,,-3.25000000e-009,6.09374969e-004
,,,-3.22500000e-009,6.70312473e-004
,,,-3.20000000e-009,7.24999977e-004
,,,-3.17500000e-009,7.68749980e-004
,,,-3.15000000e-009,7.99999982e-004
,,,-3.12500000e-009,8.17187483e-004
,,,-3.10000000e-009,8.20312484e-004
,,,-3.07500000e-009,8.15624983e-004
,,,-3.05000000e-009,8.04687482e-004
,,,-3.02500000e-009,7.95312482e-004
,,,-3.00000000e-009,7.89062481e-004
,,,-2.97500000e-009,7.90624981e-004
,,,-2.95000000e-009,7.99999982e-004
,,,-2.92500000e-009,8.18749983e-004
,,,-2.90000000e-009,8.43749985e-004
,,,-2.87500000e-009,8.68749987e-004
,,,-2.85000000e-009,8.87499988e-004
,,,-2.82500000e-009,8.95312489e-004
,,,-2.80000000e-009,8.87499988e-004
,,,-2.77500000e-009,8.56249986e-004
,,,-2.75000000e-009,7.99999982e-004
,,,-2.72500000e-009,7.20312476e-004
,,,-2.70000000e-009,6.20312469e-004
,,,-2.67500000e-009,5.06249961e-004
,,,-2.65000000e-009,3.85937453e-004
,,,-2.62500000e-009,2.67187444e-004
,,,-2.60000000e-009,1.57812437e-004
,,,-2.57500000e-009,6.71874302e-005
,,,-2.55000000e-009,-7.45058060e-011
,,,-2.52500000e-009,-3.28125768e-005
,,,-2.50000000e-009,-3.59375770e-005
,,,-2.47500000e-009,-9.37507517e-006
,,,-2.45000000e-009,4.37499286e-005
,,,-2.42500000e-009,1.17187434e-004
,,,-2.40000000e-009,2.06249940e-004
,,,-2.37500000e-009,3.03124947e-004
,,,-2.35000000e-009,3.99999954e-004
,,,-2.32500000e-009,4.93749960e-004
,,,-2.30000000e-009,5.78124966e-004
,,,-2.27500000e-009,6.48437471e-004
,,,-2.25000000e-009,7.04687475e-004
,,,-2.22500000e-009,7.46874978e-004
,,,-2.20000000e-009,7.76562480e-004
,,,-2.17500000e-009,7.92187482e-004
,,,-2.15000000e-009,7.99999982e-004
,,,-2.12500000e-009,8.01562482e-004
,,,-2.10000000e-009,7.98437482e-004
,,,-2.07500000e-009,7.93749982e-004
,,,-2.05000000e-009,7.90624981e-004
,,,-2.02500000e-009,7.87499981e-004
,,,-2.00000000e-009,7.89062481e-004
,,,-1.97500000e-009,7.93749982e-004
,,,-1.95000000e-009,7.99999982e-004
,,,-1.92500000e-009,8.09374983e-004
,,,-1.90000000e-009,8.17187483e-004
,,,-1.87500000e-009,8.24999984e-004
,,,-1.85000000e-009,8.31249984e-004
,,,-1.82500000e-009,8.32812484e-004
,,,-1.80000000e-009,8.29687484e-004
,,,-1.77500000e-009,8.18749983e-004
,,,-1.75000000e-009,7.99999982e-004
,,,-1.72500000e-009,7.70312480e-004
,,,-1.70000000e-009,7.29687477e-004
,,,-1.67500000e-009,6.82812474e-004
,,,-1.65000000e-009,6.28124970e-004
,,,-1.62500000e-009,5.70312466e-004
,,,-1.60000000e-009,5.10937462e-004
,,,-1.57500000e-009,4.53124958e-004
,,,-1.55000000e-009,3.99999954e-004
,,,-1.52500000e-009,3.48437450e-004
,,,-1.50000000e-009,3.07812447e-004
,,,-1.47500000e-009,2.79687445e-004
,,,-1.45000000e-009,2.68749945e-004
,,,-1.42500000e-009,2.76562445e-004
,,,-1.40000000e-009,3.01562447e-004
,,,-1.37500000e-009,3.43749950e-004
,,,-1.35000000e-009,3.99999954e-004
,,,-1.32500000e-009,4.59374958e-004
,,,-1.30000000e-009,5.23437463e-004
,,,-1.27500000e-009,5.89062467e-004
,,,-1.25000000e-009,6.51562472e-004
,,,-1.22500000e-009,7.07812476e-004
,,,-1.20000000e-009,7.53124979e-004
,,,-1.17500000e-009,7.84374981e-004
,,,-1.15000000e-009,7.99999982e-004
,,,-1.12500000e-009,7.79687481e-004
,,,-1.10000000e-009,7.39062478e-004
,,,-1.07500000e-009,6.84374974e-004
,,,-1.05000000e-009,6.21874970e-004
,,,-1.02500000e-009,5.57812465e-004
,,,-1.00000000e-009,4.96874961e-004
,,,-9.75000000e-010,4.43749957e-004
,,,-9.50000000e-010,3.99999954e-004
,,,-9.25000000e-010,3.40624950e-004
,,,-9.00000000e-010,2.87499946e-004
,,,-8.75000000e-010,2.37499942e-004
,,,-8.50000000e-010,1.92187439e-004
,,,-8.25000000e-010,1.46874936e-004
,,,-8.00000000e-010,1.03124933e-004
,,,-7.75000000e-010,5.46874294e-005
,,,-7.50000000e-010,-7.45058060e-011
,,,-7.25000000e-010,-9.53125813e-005
,,,-7.00000000e-010,-2.04687589e-004
,,,-6.75000000e-010,-3.20312597e-004
,,,-6.50000000e-010,-4.37500105e-004
,,,-6.25000000e-010,-5.48437613e-004
,,,-6.00000000e-010,-6.48437620e-004
,,,-5.75000000e-010,-7.32812626e-004
,,,-5.50000000e-010,-8.00000131e-004
,,,-5.25000000e-010,-8.92187638e-004
,,,-5.00000000e-010,-9.81250144e-004
,,,-4.75000000e-010,-1.06875015e-003
,,,-4.50000000e-010,-1.15781266e-003
,,,-4.25000000e-010,-1.25000016e-003
,,,-4.00000000e-010,-1.35156267e-003
,,,-3.75000000e-010,-1.46718768e-003
,,,-3.50000000e-010,-1.60000019e-003
,,,-3.25000000e-010,-1.79062520e-003
,,,-3.00000000e-010,-2.00937522e-003
,,,-2.75000000e-010,-2.25468773e-003
,,,-2.50000000e-010,-2.51718775e-003
,,,-2.25000000e-010,-2.78906277e-003
,,,-2.00000000e-010,-3.06406279e-003
,,,-1.75000000e-010,-3.33593781e-003
,,,-1.50000000e-010,-3.60000033e-003
,,,-1.25000000e-010,-3.87031285e-003
,,,-1.00000000e-010,-4.13593787e-003
,,,-7.50000000e-011,-4.39531289e-003
,,,-5.00000000e-011,-4.64843790e-003
,,,-2.50000000e-011,-4.89218792e-003
,,,0.00000000e+000,-5.13125044e-003
,,,2.50000000e-011,-5.36562545e-003
,,,5.00000000e-011,-5.60000047e-003
,,,7.50000000e-011,-5.84375049e-003
,,,1.00000000e-010,-6.10468801e-003
,,,1.25000000e-010,-6.38437553e-003
,,,1.50000000e-010,-6.68125055e-003
,,,1.75000000e-010,-6.99375057e-003
,,,2.00000000e-010,-7.32187559e-003
,,,2.25000000e-010,-7.65781312e-003
,,,2.50000000e-010,-8.00000064e-003
,,,2.75000000e-010,-8.32343816e-003
,,,3.00000000e-010,-8.65156319e-003
,,,3.25000000e-010,-8.97968821e-003
,,,3.50000000e-010,-9.30000073e-003
,,,3.75000000e-010,-9.60937575e-003
,,,4.00000000e-010,-9.89843828e-003
,,,4.25000000e-010,-1.01640633e-002
,,,4.50000000e-010,-1.04000008e-002
,,,4.75000000e-010,-1.05609383e-002
,,,5.00000000e-010,-1.06984383e-002
,,,5.25000000e-010,-1.08156258e-002
,,,5.50000000e-010,-1.09156258e-002
,,,5.75000000e-010,-1.10015634e-002
,,,6.00000000e-010,-1.10765634e-002
,,,6.25000000e-010,-1.11406259e-002
,,,6.50000000e-010,-1.12000009e-002
,,,6.75000000e-010,-1.12031259e-002
,,,7.00000000e-010,-1.12156259e-002
,,,7.25000000e-010,-1.12421884e-002
,,,7.50000000e-010,-1.12843759e-002
,,,7.75000000e-010,-1.13437509e-002
,,,8.00000000e-010,-1.14187509e-002
,,,8.25000000e-010,-1.15046884e-002
,,,8.50000000e-010,-1.16000009e-002
,,,8.75000000e-010,-1.16421884e-002
,,,9.00000000e-010,-1.16890634e-002
,,,9.25000000e-010,-1.17421884e-002
,,,9.50000000e-010,-1.18000009e-002
,,,9.75000000e-010,-1.18578134e-002
,,,1.00000000e-009,-1.19140634e-002
,,,1.02500000e-009,-1.19625009e-002
,,,1.05000000e-009,-1.20000009e-002
,,,1.07500000e-009,-1.19578134e-002
,,,1.10000000e-009,-1.18968759e-002
,,,1.12500000e-009,-1.18203134e-002
,,,1.15000000e-009,-1.17265634e-002
,,,1.17500000e-009,-1.16171884e-002
,,,1.20000000e-009,-1.14921884e-002
,,,1.22500000e-009,-1.13531259e-002
,,,1.25000000e-009,-1.12000009e-002
,,,1.27500000e-009,-1.09828134e-002
,,,1.30000000e-009,-1.07578133e-002
,,,1.32500000e-009,-1.05312508e-002
,,,1.35000000e-009,-1.03125008e-002
,,,1.37500000e-009,-1.01062508e-002
,,,1.40000000e-009,-9.91718828e-003
,,,1.42500000e-009,-9.74843826e-003
,,,1.45000000e-009,-9.60000075e-003
,,,1.47500000e-009,-9.43437574e-003
,,,1.50000000e-009,-9.27968823e-003
,,,1.52500000e-009,-9.13281322e-003
,,,1.55000000e-009,-8.99062571e-003
,,,1.57500000e-009,-8.85000070e-003
,,,1.60000000e-009,-8.70781319e-003
,,,1.62500000e-009,-8.55781318e-003
,,,1.65000000e-009,-8.40000067e-003
,,,1.67500000e-009,-8.20156316e-003
,,,1.70000000e-009,-7.97968814e-003
,,,1.72500000e-009,-7.73906312e-003
,,,1.75000000e-009,-7.48281310e-003
,,,1.77500000e-009,-7.21562559e-003
,,,1.80000000e-009,-6.94218807e-003
,,,1.82500000e-009,-6.66875055e-003
,,,1.85000000e-009,-6.40000053e-003
,,,1.87500000e-009,-6.12968801e-003
,,,1.90000000e-009,-5.86250049e-003
,,,1.92500000e-009,-5.59843797e-003
,,,1.95000000e-009,-5.34062545e-003
,,,1.97500000e-009,-5.09218793e-003
,,,2.00000000e-009,-4.85156292e-003
,,,2.02500000e-009,-4.62031290e-003
,,,2.05000000e-009,-4.40000039e-003
,,,2.07500000e-009,-4.19843787e-003
,,,2.10000000e-009,-3.99531286e-003
,,,2.12500000e-009,-3.79218784e-003
,,,2.15000000e-009,-3.58593783e-003
,,,2.17500000e-009,-3.38125031e-003
,,,2.20000000e-009,-3.18125030e-003
,,,2.22500000e-009,-2.98593779e-003
,,,2.25000000e-009,-2.80000027e-003
,,,2.27500000e-009,-2.64062526e-003
,,,2.30000000e-009,-2.48125025e-003
,,,2.32500000e-009,-2.32187524e-003
,,,2.35000000e-009,-2.16406273e-003
,,,2.37500000e-009,-2.01093772e-003
,,,2.40000000e-009,-1.86406271e-003
,,,2.42500000e-009,-1.72656270e-003
,,,2.45000000e-009,-1.60000019e-003
,,,2.47500000e-009,-1.50625018e-003
,,,2.50000000e-009,-1.41093767e-003
,,,2.52500000e-009,-1.31562517e-003
,,,2.55000000e-009,-1.21562516e-003
,,,2.57500000e-009,-1.11250015e-003
,,,2.60000000e-009,-1.00781265e-003
,,,2.62500000e-009,-9.01562638e-004
,,,2.65000000e-009,-8.00000131e-004
,,,2.67500000e-009,-7.23437626e-004
,,,2.70000000e-009,-6.46875120e-004
,,,2.72500000e-009,-5.73437615e-004
,,,2.75000000e-009,-5.06250110e-004
,,,2.77500000e-009,-4.51562606e-004
,,,2.80000000e-009,-4.14062604e-004
,,,2.82500000e-009,-3.96875103e-004
,,,2.85000000e-009,-4.00000103e-004
,,,2.87500000e-009,-4.39062606e-004
,,,2.90000000e-009,-4.81250109e-004
,,,2.92500000e-009,-5.20312611e-004
,,,2.95000000e-009,-5.45312613e-004
,,,2.97500000e-009,-5.50000113e-004
,,,3.00000000e-009,-5.28125112e-004
,,,3.02500000e-009,-4.78125108e-004
,,,3.05000000e-009,-4.00000103e-004
,,,3.07500000e-009,-3.06250096e-004
,,,3.10000000e-009,-1.87500088e-004
,,,3.12500000e-009,-5.62500785e-005
,,,3.15000000e-009,7.81249310e-005
,,,3.17500000e-009,2.01562440e-004
,,,3.20000000e-009,3.01562447e-004
,,,3.22500000e-009,3.70312452e-004
,,,3.25000000e-009,3.99999954e-004
,,,3.27500000e-009,3.79687452e-004
,,,3.30000000e-009,3.26562449e-004
,,,3.32500000e-009,2.53124943e-004
,,,3.35000000e-009,1.71874938e-004
,,,3.37500000e-009,9.37499321e-005
,,,3.40000000e-009,3.28124278e-005
,,,3.42500000e-009,-1.56257462e-006
,,,3.45000000e-009,-7.45058060e-011
,,,3.47500000e-009,3.90624283e-005
,,,3.50000000e-009,1.15624934e-004
,,,3.52500000e-009,2.23437441e-004
,,,3.55000000e-009,3.53124950e-004
,,,3.57500000e-009,4.87499960e-004
,,,3.60000000e-009,6.15624969e-004
,,,3.62500000e-009,7.23437477e-004
,,,3.65000000e-009,7.99999982e-004
,,,3.67500000e-009,8.29687484e-004
,,,3.70000000e-009,8.21874984e-004
,,,3.72500000e-009,7.81249981e-004
,,,3.75000000e-009,7.15624976e-004
,,,3.77500000e-009,6.34374970e-004
,,,3.80000000e-009,5.46874964e-004
,,,3.82500000e-009,4.67187459e-004
,,,3.85000000e-009,3.99999954e-004
,,,3.87500000e-009,3.53124950e-004
,,,3.90000000e-009,3.28124949e-004
,,,3.92500000e-009,3.24999948e-004
,,,3.95000000e-009,3.37499949e-004
,,,3.97500000e-009,3.57812451e-004
,,,4.00000000e-009,3.79687452e-004
,,,4.02500000e-009,3.95312453e-004
,,,4.05000000e-009,3.99999954e-004
,,,4.07500000e-009,3.90624953e-004
,,,4.10000000e-009,3.71874952e-004
,,,4.12500000e-009,3.49999950e-004
,,,4.15000000e-009,3.29687449e-004
,,,4.17500000e-009,3.18749948e-004
,,,4.20000000e-009,3.23437448e-004
,,,4.22500000e-009,3.49999950e-004
,,,4.25000000e-009,3.99999954e-004
,,,4.27500000e-009,4.73437459e-004
,,,4.30000000e-009,5.60937465e-004
,,,4.32500000e-009,6.51562472e-004
,,,4.35000000e-009,7.37499978e-004
,,,4.37500000e-009,8.04687482e-004
,,,4.40000000e-009,8.42187485e-004
,,,4.42500000e-009,8.42187485e-004
,,,4.45000000e-009,7.99999982e-004
,,,4.47500000e-009,7.15624976e-004
,,,4.50000000e-009,5.98437468e-004
,,,4.52500000e-009,4.60937458e-004
,,,4.55000000e-009,3.20312448e-004
,,,4.57500000e-009,1.90624939e-004
,,,4.60000000e-009,8.59374316e-005
,,,4.62500000e-009,2.03124269e-005
,,,4.65000000e-009,-7.45058060e-011
,,,4.67500000e-009,3.74999281e-005
,,,4.70000000e-009,1.18749934e-004
,,,4.72500000e-009,2.32812442e-004
,,,4.75000000e-009,3.68749952e-004
,,,4.77500000e-009,5.07812461e-004
,,,4.80000000e-009,6.34374970e-004
,,,4.82500000e-009,7.35937478e-004
,,,4.85000000e-009,7.99999982e-004
,,,4.87500000e-009,8.18749983e-004
,,,4.90000000e-009,7.95312482e-004
,,,4.92500000e-009,7.37499978e-004
,,,4.95000000e-009,6.59374972e-004
,,,4.97500000e-009,5.71874966e-004
,,,5.00000000e-009,4.92187460e-004
,,,5.02500000e-009,4.32812456e-004
,,,5.05000000e-009,3.99999954e-004
,,,5.07500000e-009,4.03124954e-004
,,,5.10000000e-009,4.39062457e-004
,,,5.12500000e-009,4.99999961e-004
,,,5.15000000e-009,5.76562466e-004
,,,5.17500000e-009,6.57812472e-004
,,,5.20000000e-009,7.28124977e-004
,,,5.22500000e-009,7.79687481e-004
,,,5.25000000e-009,7.99999982e-004
,,,5.27500000e-009,7.84374981e-004
,,,5.30000000e-009,7.39062478e-004
,,,5.32500000e-009,6.71874973e-004
,,,5.35000000e-009,5.92187467e-004
,,,5.37500000e-009,5.14062462e-004
,,,5.40000000e-009,4.49999957e-004
,,,5.42500000e-009,4.09374954e-004
,,,5.45000000e-009,3.99999954e-004
,,,5.47500000e-009,4.26562456e-004
,,,5.50000000e-009,4.82812460e-004
,,,5.52500000e-009,5.57812465e-004
,,,5.55000000e-009,6.42187471e-004
,,,5.57500000e-009,7.20312476e-004
,,,5.60000000e-009,7.79687481e-004
,,,5.62500000e-009,8.09374983e-004
,,,5.65000000e-009,7.99999982e-004
,,,5.67500000e-009,7.46874978e-004
,,,5.70000000e-009,6.56249972e-004
,,,5.72500000e-009,5.39062464e-004
,,,5.75000000e-009,4.07812454e-004
,,,5.77500000e-009,2.74999945e-004
,,,5.80000000e-009,1.54687436e-004
,,,5.82500000e-009,6.09374298e-005
,,,5.85000000e-009,-7.45058060e-011
,,,5.87500000e-009,-1.25000754e-005
,,,5.90000000e-009,1.24999264e-005
,,,5.92500000e-009,6.87499304e-005
,,,5.95000000e-009,1.45312436e-004
,,,5.97500000e-009,2.28124942e-004
,,,6.00000000e-009,3.06249947e-004
,,,6.02500000e-009,3.67187451e-004
,,,6.05000000e-009,3.99999954e-004
,,,6.07500000e-009,4.03124954e-004
