RawData/SinglePhotoelectron/R6_2pt2D_5mV/wave005_Ch4.csv

"Record Length",1000,"Points",-7.72500000e-009,9.37499992e-004
"Sample Interval",2.50000000e-011,s,-7.70000000e-009,9.20312491e-004
"Trigger Point",309,"Samples",-7.67500000e-009,8.89062488e-004
"Trigger Time",2.25129252e-012,s,-7.65000000e-009,8.46874985e-004
"",,,-7.62500000e-009,7.99999982e-004
"Horizontal Offset",-7.72500000e-009,s,-7.60000000e-009,7.54687479e-004
,,,-7.57500000e-009,7.14062476e-004
,,,-7.55000000e-009,6.87499974e-004
,,,-7.52500000e-009,6.74999973e-004
,,,-7.50000000e-009,6.79687474e-004
,,,-7.47500000e-009,7.03124975e-004
,,,-7.45000000e-009,7.43749978e-004
,,,-7.42500000e-009,7.99999982e-004
,,,-7.40000000e-009,8.68749987e-004
,,,-7.37500000e-009,9.43749992e-004
,,,-7.35000000e-009,1.01718750e-003
,,,-7.32500000e-009,1.08593750e-003
,,,-7.30000000e-009,1.14218751e-003
,,,-7.27500000e-009,1.18281251e-003
,,,-7.25000000e-009,1.20312501e-003
,,,-7.22500000e-009,1.20000001e-003
,,,-7.20000000e-009,1.17812501e-003
,,,-7.17500000e-009,1.13593751e-003
,,,-7.15000000e-009,1.07968750e-003
,,,-7.12500000e-009,1.01562500e-003
,,,-7.10000000e-009,9.49999993e-004
,,,-7.07500000e-009,8.89062488e-004
,,,-7.05000000e-009,8.39062485e-004
,,,-7.02500000e-009,7.99999982e-004
,,,-7.00000000e-009,7.76562480e-004
,,,-6.97500000e-009,7.68749980e-004
,,,-6.95000000e-009,7.73437480e-004
,,,-6.92500000e-009,7.85937481e-004
,,,-6.90000000e-009,7.99999982e-004
,,,-6.87500000e-009,8.10937483e-004
,,,-6.85000000e-009,8.12499983e-004
,,,-6.82500000e-009,7.99999982e-004
,,,-6.80000000e-009,7.74999980e-004
,,,-6.77500000e-009,7.32812477e-004
,,,-6.75000000e-009,6.79687474e-004
,,,-6.72500000e-009,6.18749969e-004
,,,-6.70000000e-009,5.53124965e-004
,,,-6.67500000e-009,4.92187460e-004
,,,-6.65000000e-009,4.39062457e-004
,,,-6.62500000e-009,3.99999954e-004
,,,-6.60000000e-009,3.84374953e-004
,,,-6.57500000e-009,3.90624953e-004
,,,-6.55000000e-009,4.17187455e-004
,,,-6.52500000e-009,4.65624958e-004
,,,-6.50000000e-009,5.32812463e-004
,,,-6.47500000e-009,6.12499969e-004
,,,-6.45000000e-009,7.04687475e-004
,,,-6.42500000e-009,7.99999982e-004
,,,-6.40000000e-009,8.96874989e-004
,,,-6.37500000e-009,9.85937495e-004
,,,-6.35000000e-009,1.06406250e-003
,,,-6.32500000e-009,1.12656251e-003
,,,-6.30000000e-009,1.17343751e-003
,,,-6.27500000e-009,1.20156251e-003
,,,-6.25000000e-009,1.21093751e-003
,,,-6.22500000e-009,1.20000001e-003
,,,-6.20000000e-009,1.17187501e-003
,,,-6.17500000e-009,1.12812501e-003
,,,-6.15000000e-009,1.07500000e-003
,,,-6.12500000e-009,1.01562500e-003
,,,-6.10000000e-009,9.54687493e-004
,,,-6.07500000e-009,8.96874989e-004
,,,-6.05000000e-009,8.43749985e-004
,,,-6.02500000e-009,7.99999982e-004
,,,-6.00000000e-009,7.68749980e-004
,,,-5.97500000e-009,7.49999979e-004
,,,-5.95000000e-009,7.42187478e-004
,,,-5.92500000e-009,7.43749978e-004
,,,-5.90000000e-009,7.54687479e-004
,,,-5.87500000e-009,7.68749980e-004
,,,-5.85000000e-009,7.84374981e-004
,,,-5.82500000e-009,7.99999982e-004
,,,-5.80000000e-009,8.14062483e-004
,,,-5.77500000e-009,8.23437484e-004
,,,-5.75000000e-009,8.26562484e-004
,,,-5.72500000e-009,8.26562484e-004
,,,-5.70000000e-009,8.21874984e-004
,,,-5.67500000e-009,8.15624983e-004
,,,-5.65000000e-009,8.07812483e-004
,,,-5.62500000e-009,7.99999982e-004
,,,-5.60000000e-009,7.90624981e-004
,,,-5.57500000e-009,7.84374981e-004
,,,-5.55000000e-009,7.79687481e-004
,,,-5.52500000e-009,7.78124981e-004
,,,-5.50000000e-009,7.81249981e-004
,,,-5.47500000e-009,7.85937481e-004
,,,-5.45000000e-009,7.92187482e-004
,,,-5.42500000e-009,7.99999982e-004
,,,-5.40000000e-009,8.09374983e-004
,,,-5.37500000e-009,8.15624983e-004
,,,-5.35000000e-009,8.20312484e-004
,,,-5.32500000e-009,8.23437484e-004
,,,-5.30000000e-009,8.21874984e-004
,,,-5.27500000e-009,8.17187483e-004
,,,-5.25000000e-009,8.10937483e-004
,,,-5.22500000e-009,7.99999982e-004
,,,-5.20000000e-009,7.90624981e-004
,,,-5.17500000e-009,7.81249981e-004
,,,-5.15000000e-009,7.73437480e-004
,,,-5.12500000e-009,7.68749980e-004
,,,-5.10000000e-009,7.67187480e-004
,,,-5.07500000e-009,7.73437480e-004
,,,-5.05000000e-009,7.84374981e-004
,,,-5.02500000e-009,7.99999982e-004
,,,-5.00000000e-009,8.18749983e-004
,,,-4.97500000e-009,8.37499985e-004
,,,-4.95000000e-009,8.54687486e-004
,,,-4.92500000e-009,8.65624987e-004
,,,-4.90000000e-009,8.68749987e-004
,,,-4.87500000e-009,8.59374986e-004
,,,-4.85000000e-009,8.35937485e-004
,,,-4.82500000e-009,7.99999982e-004
,,,-4.80000000e-009,7.49999979e-004
,,,-4.77500000e-009,6.90624974e-004
,,,-4.75000000e-009,6.26562470e-004
,,,-4.72500000e-009,5.60937465e-004
,,,-4.70000000e-009,5.01562461e-004
,,,-4.67500000e-009,4.51562457e-004
,,,-4.65000000e-009,4.17187455e-004
,,,-4.62500000e-009,3.99999954e-004
,,,-4.60000000e-009,4.07812454e-004
,,,-4.57500000e-009,4.34374956e-004
,,,-4.55000000e-009,4.78124959e-004
,,,-4.52500000e-009,5.35937463e-004
,,,-4.50000000e-009,6.01562468e-004
,,,-4.47500000e-009,6.71874973e-004
,,,-4.45000000e-009,7.39062478e-004
,,,-4.42500000e-009,7.99999982e-004
,,,-4.40000000e-009,8.51562486e-004
,,,-4.37500000e-009,8.87499988e-004
,,,-4.35000000e-009,9.07812490e-004
,,,-4.32500000e-009,9.12499990e-004
,,,-4.30000000e-009,9.01562489e-004
,,,-4.27500000e-009,8.78124988e-004
,,,-4.25000000e-009,8.43749985e-004
,,,-4.22500000e-009,7.99999982e-004
,,,-4.20000000e-009,7.51562479e-004
,,,-4.17500000e-009,6.99999975e-004
,,,-4.15000000e-009,6.45312471e-004
,,,-4.12500000e-009,5.92187467e-004
,,,-4.10000000e-009,5.40624964e-004
,,,-4.07500000e-009,4.89062460e-004
,,,-4.05000000e-009,4.43749957e-004
,,,-4.02500000e-009,3.99999954e-004
,,,-4.00000000e-009,3.65624951e-004
,,,-3.97500000e-009,3.39062449e-004
,,,-3.95000000e-009,3.21874948e-004
,,,-3.92500000e-009,3.14062448e-004
,,,-3.90000000e-009,3.17187448e-004
,,,-3.87500000e-009,3.32812449e-004
,,,-3.85000000e-009,3.60937451e-004
,,,-3.82500000e-009,3.99999954e-004
,,,-3.80000000e-009,4.53124958e-004
,,,-3.77500000e-009,5.12499962e-004
,,,-3.75000000e-009,5.73437466e-004
,,,-3.72500000e-009,6.32812470e-004
,,,-3.70000000e-009,6.89062474e-004
,,,-3.67500000e-009,7.35937478e-004
,,,-3.65000000e-009,7.74999980e-004
,,,-3.62500000e-009,7.99999982e-004
,,,-3.60000000e-009,8.14062483e-004
,,,-3.57500000e-009,8.17187483e-004
,,,-3.55000000e-009,8.14062483e-004
,,,-3.52500000e-009,8.07812483e-004
,,,-3.50000000e-009,7.99999982e-004
,,,-3.47500000e-009,7.95312482e-004
,,,-3.45000000e-009,7.95312482e-004
,,,-3.42500000e-009,7.99999982e-004
,,,-3.40000000e-009,8.12499983e-004
,,,-3.37500000e-009,8.26562484e-004
,,,-3.35000000e-009,8.42187485e-004
,,,-3.32500000e-009,8.54687486e-004
,,,-3.30000000e-009,8.60937486e-004
,,,-3.27500000e-009,8.54687486e-004
,,,-3.25000000e-009,8.35937485e-004
,,,-3.22500000e-009,7.99999982e-004
,,,-3.20000000e-009,7.49999979e-004
,,,-3.17500000e-009,6.89062474e-004
,,,-3.15000000e-009,6.21874970e-004
,,,-3.12500000e-009,5.54687465e-004
,,,-3.10000000e-009,4.93749960e-004
,,,-3.07500000e-009,4.43749957e-004
,,,-3.05000000e-009,4.12499955e-004
,,,-3.02500000e-009,3.99999954e-004
,,,-3.00000000e-009,4.12499955e-004
,,,-2.97500000e-009,4.43749957e-004
,,,-2.95000000e-009,4.93749960e-004
,,,-2.92500000e-009,5.54687465e-004
,,,-2.90000000e-009,6.21874970e-004
,,,-2.87500000e-009,6.89062474e-004
,,,-2.85000000e-009,7.49999979e-004
,,,-2.82500000e-009,7.99999982e-004
,,,-2.80000000e-009,8.32812484e-004
,,,-2.77500000e-009,8.49999986e-004
,,,-2.75000000e-009,8.54687486e-004
,,,-2.72500000e-009,8.48437486e-004
,,,-2.70000000e-009,8.35937485e-004
,,,-2.67500000e-009,8.21874984e-004
,,,-2.65000000e-009,8.09374983e-004
,,,-2.62500000e-009,7.99999982e-004
,,,-2.60000000e-009,7.99999982e-004
,,,-2.57500000e-009,8.03124982e-004
,,,-2.55000000e-009,8.12499983e-004
,,,-2.52500000e-009,8.23437484e-004
,,,-2.50000000e-009,8.29687484e-004
,,,-2.47500000e-009,8.31249984e-004
,,,-2.45000000e-009,8.21874984e-004
,,,-2.42500000e-009,7.99999982e-004
,,,-2.40000000e-009,7.65624980e-004
,,,-2.37500000e-009,7.17187476e-004
,,,-2.35000000e-009,6.60937472e-004
,,,-2.32500000e-009,5.99999968e-004
,,,-2.30000000e-009,5.40624964e-004
,,,-2.27500000e-009,4.84374960e-004
,,,-2.25000000e-009,4.35937456e-004
,,,-2.22500000e-009,3.99999954e-004
,,,-2.20000000e-009,3.79687452e-004
,,,-2.17500000e-009,3.70312452e-004
,,,-2.15000000e-009,3.71874952e-004
,,,-2.12500000e-009,3.78124952e-004
,,,-2.10000000e-009,3.89062453e-004
,,,-2.07500000e-009,3.98437454e-004
,,,-2.05000000e-009,4.01562454e-004
,,,-2.02500000e-009,3.99999954e-004
,,,-2.00000000e-009,3.92187453e-004
,,,-1.97500000e-009,3.79687452e-004
,,,-1.95000000e-009,3.65624951e-004
,,,-1.92500000e-009,3.53124950e-004
,,,-1.90000000e-009,3.46874950e-004
,,,-1.87500000e-009,3.51562450e-004
,,,-1.85000000e-009,3.68749952e-004
,,,-1.82500000e-009,3.99999954e-004
,,,-1.80000000e-009,4.45312457e-004
,,,-1.77500000e-009,4.99999961e-004
,,,-1.75000000e-009,5.62499965e-004
,,,-1.72500000e-009,6.26562470e-004
,,,-1.70000000e-009,6.87499974e-004
,,,-1.67500000e-009,7.39062478e-004
,,,-1.65000000e-009,7.79687481e-004
,,,-1.62500000e-009,7.99999982e-004
,,,-1.60000000e-009,7.93749982e-004
,,,-1.57500000e-009,7.65624980e-004
,,,-1.55000000e-009,7.18749976e-004
,,,-1.52500000e-009,6.59374972e-004
,,,-1.50000000e-009,5.90624967e-004
,,,-1.47500000e-009,5.21874962e-004
,,,-1.45000000e-009,4.56249958e-004
,,,-1.42500000e-009,3.99999954e-004
,,,-1.40000000e-009,3.48437450e-004
,,,-1.37500000e-009,3.10937448e-004
,,,-1.35000000e-009,2.89062446e-004
,,,-1.32500000e-009,2.84374946e-004
,,,-1.30000000e-009,2.95312446e-004
,,,-1.27500000e-009,3.20312448e-004
,,,-1.25000000e-009,3.57812451e-004
,,,-1.22500000e-009,3.99999954e-004
,,,-1.20000000e-009,4.29687456e-004
,,,-1.17500000e-009,4.53124958e-004
,,,-1.15000000e-009,4.70312459e-004
,,,-1.12500000e-009,4.76562459e-004
,,,-1.10000000e-009,4.74999959e-004
,,,-1.07500000e-009,4.62499958e-004
,,,-1.05000000e-009,4.37499956e-004
,,,-1.02500000e-009,3.99999954e-004
,,,-1.00000000e-009,3.26562449e-004
,,,-9.75000000e-010,2.37499942e-004
,,,-9.50000000e-010,1.39062435e-004
,,,-9.25000000e-010,3.12499277e-005
,,,-9.00000000e-010,-7.96875801e-005
,,,-8.75000000e-010,-1.90625088e-004
,,,-8.50000000e-010,-2.96875096e-004
,,,-8.25000000e-010,-4.00000103e-004
,,,-8.00000000e-010,-5.20312611e-004
,,,-7.75000000e-010,-6.39062620e-004
,,,-7.50000000e-010,-7.51562628e-004
,,,-7.25000000e-010,-8.57812635e-004
,,,-7.00000000e-010,-9.56250142e-004
,,,-6.75000000e-010,-1.04531265e-003
,,,-6.50000000e-010,-1.12500015e-003
,,,-6.25000000e-010,-1.20000016e-003
,,,-6.00000000e-010,-1.28593767e-003
,,,-5.75000000e-010,-1.37500017e-003
,,,-5.50000000e-010,-1.46718768e-003
,,,-5.25000000e-010,-1.56562519e-003
,,,-5.00000000e-010,-1.66718769e-003
,,,-4.75000000e-010,-1.77343770e-003
,,,-4.50000000e-010,-1.88437521e-003
,,,-4.25000000e-010,-2.00000022e-003
,,,-4.00000000e-010,-2.12968773e-003
,,,-3.75000000e-010,-2.26875024e-003
,,,-3.50000000e-010,-2.41718775e-003
,,,-3.25000000e-010,-2.56875026e-003
,,,-3.00000000e-010,-2.72500027e-003
,,,-2.75000000e-010,-2.88125028e-003
,,,-2.50000000e-010,-3.04062529e-003
,,,-2.25000000e-010,-3.20000030e-003
,,,-2.00000000e-010,-3.36093781e-003
,,,-1.75000000e-010,-3.53281282e-003
,,,-1.50000000e-010,-3.71406284e-003
,,,-1.25000000e-010,-3.90625035e-003
,,,-1.00000000e-010,-4.11250037e-003
,,,-7.50000000e-011,-4.33125038e-003
,,,-5.00000000e-011,-4.56093790e-003
,,,-2.50000000e-011,-4.80000041e-003
,,,0.00000000e+000,-5.02968793e-003
,,,2.50000000e-011,-5.26250045e-003
,,,5.00000000e-011,-5.49687546e-003
,,,7.50000000e-011,-5.72187548e-003
,,,1.00000000e-010,-5.93125049e-003
,,,1.25000000e-010,-6.11718801e-003
,,,1.50000000e-010,-6.27500052e-003
,,,1.75000000e-010,-6.40000053e-003
,,,2.00000000e-010,-6.45781303e-003
,,,2.25000000e-010,-6.48750053e-003
,,,2.50000000e-010,-6.49531303e-003
,,,2.75000000e-010,-6.48593803e-003
,,,3.00000000e-010,-6.46562553e-003
,,,3.25000000e-010,-6.44062553e-003
,,,3.50000000e-010,-6.41718803e-003
,,,3.75000000e-010,-6.40000053e-003
,,,4.00000000e-010,-6.35781302e-003
,,,4.25000000e-010,-6.33125052e-003
,,,4.50000000e-010,-6.31875052e-003
,,,4.75000000e-010,-6.32187552e-003
,,,5.00000000e-010,-6.33437552e-003
,,,5.25000000e-010,-6.35468802e-003
,,,5.50000000e-010,-6.37812553e-003
,,,5.75000000e-010,-6.40000053e-003
,,,6.00000000e-010,-6.38281303e-003
,,,6.25000000e-010,-6.36562553e-003
,,,6.50000000e-010,-6.35000052e-003
,,,6.75000000e-010,-6.33906302e-003
,,,7.00000000e-010,-6.33750052e-003
,,,7.25000000e-010,-6.34531302e-003
,,,7.50000000e-010,-6.36718803e-003
,,,7.75000000e-010,-6.40000053e-003
,,,8.00000000e-010,-6.40937553e-003
,,,8.25000000e-010,-6.42500053e-003
,,,8.50000000e-010,-6.44531303e-003
,,,8.75000000e-010,-6.46250053e-003
,,,9.00000000e-010,-6.47187553e-003
,,,9.25000000e-010,-6.46718803e-003
,,,9.50000000e-010,-6.44531303e-003
,,,9.75000000e-010,-6.40000053e-003
,,,1.00000000e-009,-6.29531302e-003
,,,1.02500000e-009,-6.16562551e-003
,,,1.05000000e-009,-6.01562550e-003
,,,1.07500000e-009,-5.85156299e-003
,,,1.10000000e-009,-5.68125048e-003
,,,1.12500000e-009,-5.51250046e-003
,,,1.15000000e-009,-5.35156295e-003
,,,1.17500000e-009,-5.20000044e-003
,,,1.20000000e-009,-5.03906293e-003
,,,1.22500000e-009,-4.88593792e-003
,,,1.25000000e-009,-4.73906291e-003
,,,1.27500000e-009,-4.59531290e-003
,,,1.30000000e-009,-4.45312539e-003
,,,1.32500000e-009,-4.30625038e-003
,,,1.35000000e-009,-4.15625037e-003
,,,1.37500000e-009,-4.00000036e-003
,,,1.40000000e-009,-3.82812535e-003
,,,1.42500000e-009,-3.65000033e-003
,,,1.45000000e-009,-3.47031282e-003
,,,1.47500000e-009,-3.29687531e-003
,,,1.50000000e-009,-3.13750030e-003
,,,1.52500000e-009,-2.99843779e-003
,,,1.55000000e-009,-2.88437528e-003
,,,1.57500000e-009,-2.80000027e-003
,,,1.60000000e-009,-2.74062527e-003
,,,1.62500000e-009,-2.69843777e-003
,,,1.65000000e-009,-2.66718776e-003
,,,1.67500000e-009,-2.63906276e-003
,,,1.70000000e-009,-2.60468776e-003
,,,1.72500000e-009,-2.55937526e-003
,,,1.75000000e-009,-2.49218775e-003
,,,1.77500000e-009,-2.40000024e-003
,,,1.80000000e-009,-2.27968774e-003
,,,1.82500000e-009,-2.12343772e-003
,,,1.85000000e-009,-1.93593771e-003
,,,1.87500000e-009,-1.72187520e-003
,,,1.90000000e-009,-1.49218768e-003
,,,1.92500000e-009,-1.25468766e-003
,,,1.95000000e-009,-1.02031265e-003
,,,1.97500000e-009,-8.00000131e-004
,,,2.00000000e-009,-6.17187618e-004
,,,2.02500000e-009,-4.57812607e-004
,,,2.05000000e-009,-3.21875097e-004
,,,2.07500000e-009,-2.09375089e-004
,,,2.10000000e-009,-1.23437583e-004
,,,2.12500000e-009,-6.09375788e-005
,,,2.15000000e-009,-2.18750761e-005
,,,2.17500000e-009,-7.45058060e-011
,,,2.20000000e-009,-9.37507517e-006
,,,2.22500000e-009,-2.34375762e-005
,,,2.25000000e-009,-3.59375770e-005
,,,2.27500000e-009,-4.37500776e-005
,,,2.30000000e-009,-4.53125777e-005
,,,2.32500000e-009,-3.90625773e-005
,,,2.35000000e-009,-2.34375762e-005
,,,2.37500000e-009,-7.45058060e-011
,,,2.40000000e-009,1.71874267e-005
,,,2.42500000e-009,4.68749288e-005
,,,2.45000000e-009,8.74999317e-005
,,,2.47500000e-009,1.40624935e-004
,,,2.50000000e-009,2.01562440e-004
,,,2.52500000e-009,2.67187444e-004
,,,2.55000000e-009,3.35937449e-004
,,,2.57500000e-009,3.99999954e-004
,,,2.60000000e-009,4.46874957e-004
,,,2.62500000e-009,4.84374960e-004
,,,2.65000000e-009,5.12499962e-004
,,,2.67500000e-009,5.24999963e-004
,,,2.70000000e-009,5.21874962e-004
,,,2.72500000e-009,4.99999961e-004
,,,2.75000000e-009,4.59374958e-004
,,,2.77500000e-009,3.99999954e-004
,,,2.80000000e-009,3.18749948e-004
,,,2.82500000e-009,2.34374942e-004
,,,2.85000000e-009,1.53124936e-004
,,,2.87500000e-009,8.28124314e-005
,,,2.90000000e-009,2.81249275e-005
,,,2.92500000e-009,-4.68757484e-006
,,,2.95000000e-009,-1.40625755e-005
,,,2.97500000e-009,-7.45058060e-011
,,,3.00000000e-009,3.74999281e-005
,,,3.02500000e-009,9.37499321e-005
,,,3.05000000e-009,1.60937437e-004
,,,3.07500000e-009,2.32812442e-004
,,,3.10000000e-009,2.99999947e-004
,,,3.12500000e-009,3.54687451e-004
,,,3.15000000e-009,3.90624953e-004
,,,3.17500000e-009,3.99999954e-004
,,,3.20000000e-009,3.82812453e-004
,,,3.22500000e-009,3.40624950e-004
,,,3.25000000e-009,2.81249945e-004
,,,3.27500000e-009,2.10937440e-004
,,,3.30000000e-009,1.40624935e-004
,,,3.32500000e-009,7.65624309e-005
,,,3.35000000e-009,2.81249275e-005
,,,3.37500000e-009,-7.45058060e-011
,,,3.40000000e-009,3.12492572e-006
,,,3.42500000e-009,2.96874276e-005
,,,3.45000000e-009,7.81249310e-005
,,,3.47500000e-009,1.42187436e-004
,,,3.50000000e-009,2.14062441e-004
,,,3.52500000e-009,2.85937446e-004
,,,3.55000000e-009,3.49999950e-004
,,,3.57500000e-009,3.99999954e-004
,,,3.60000000e-009,4.35937456e-004
,,,3.62500000e-009,4.53124958e-004
,,,3.65000000e-009,4.56249958e-004
,,,3.67500000e-009,4.46874957e-004
,,,3.70000000e-009,4.31249956e-004
,,,3.72500000e-009,4.15624955e-004
,,,3.75000000e-009,4.04687454e-004
,,,3.77500000e-009,3.99999954e-004
,,,3.80000000e-009,4.07812454e-004
,,,3.82500000e-009,4.21874955e-004
,,,3.85000000e-009,4.40624957e-004
,,,3.87500000e-009,4.57812458e-004
,,,3.90000000e-009,4.67187459e-004
,,,3.92500000e-009,4.62499958e-004
,,,3.95000000e-009,4.40624957e-004
,,,3.97500000e-009,3.99999954e-004
,,,4.00000000e-009,3.40624950e-004
,,,4.02500000e-009,2.68749945e-004
,,,4.05000000e-009,1.90624939e-004
,,,4.07500000e-009,1.14062434e-004
,,,4.10000000e-009,4.84374289e-005
,,,4.12500000e-009,4.68742583e-006
,,,4.15000000e-009,-1.40625755e-005
,,,4.17500000e-009,-7.45058060e-011
,,,4.20000000e-009,5.46874294e-005
,,,4.22500000e-009,1.39062435e-004
,,,4.25000000e-009,2.46874943e-004
,,,4.27500000e-009,3.68749952e-004
,,,4.30000000e-009,4.93749960e-004
,,,4.32500000e-009,6.14062469e-004
,,,4.35000000e-009,7.18749976e-004
,,,4.37500000e-009,7.99999982e-004
,,,4.40000000e-009,8.53124986e-004
,,,4.42500000e-009,8.79687488e-004
,,,4.45000000e-009,8.84374988e-004
,,,4.47500000e-009,8.71874987e-004
,,,4.50000000e-009,8.51562486e-004
,,,4.52500000e-009,8.28124984e-004
,,,4.55000000e-009,8.09374983e-004
,,,4.57500000e-009,7.99999982e-004
,,,4.60000000e-009,7.99999982e-004
,,,4.62500000e-009,8.09374983e-004
,,,4.65000000e-009,8.24999984e-004
,,,4.67500000e-009,8.42187485e-004
,,,4.70000000e-009,8.53124986e-004
,,,4.72500000e-009,8.53124986e-004
,,,4.75000000e-009,8.37499985e-004
,,,4.77500000e-009,7.99999982e-004
,,,4.80000000e-009,7.43749978e-004
,,,4.82500000e-009,6.74999973e-004
,,,4.85000000e-009,5.96874968e-004
,,,4.87500000e-009,5.20312462e-004
,,,4.90000000e-009,4.54687458e-004
,,,4.92500000e-009,4.07812454e-004
,,,4.95000000e-009,3.87499953e-004
,,,4.97500000e-009,3.99999954e-004
,,,5.00000000e-009,4.46874957e-004
,,,5.02500000e-009,5.24999963e-004
,,,5.05000000e-009,6.28124970e-004
,,,5.07500000e-009,7.48437478e-004
,,,5.10000000e-009,8.74999987e-004
,,,5.12500000e-009,9.99999996e-004
,,,5.15000000e-009,1.11250000e-003
,,,5.17500000e-009,1.20000001e-003
,,,5.20000000e-009,1.25312501e-003
,,,5.22500000e-009,1.27031252e-003
,,,5.25000000e-009,1.25468751e-003
,,,5.27500000e-009,1.20781251e-003
,,,5.30000000e-009,1.13125001e-003
,,,5.32500000e-009,1.03437500e-003
,,,5.35000000e-009,9.20312491e-004
,,,5.37500000e-009,7.99999982e-004
,,,5.40000000e-009,6.82812474e-004
,,,5.42500000e-009,5.74999966e-004
,,,5.45000000e-009,4.84374960e-004
,,,5.47500000e-009,4.15624955e-004
,,,5.50000000e-009,3.73437452e-004
,,,5.52500000e-009,3.56249951e-004
,,,5.55000000e-009,3.67187451e-004
,,,5.57500000e-009,3.99999954e-004
,,,5.60000000e-009,4.57812458e-004
,,,5.62500000e-009,5.26562463e-004
,,,5.65000000e-009,6.01562468e-004
,,,5.67500000e-009,6.73437473e-004
,,,5.70000000e-009,7.34374977e-004
,,,5.72500000e-009,7.78124981e-004
,,,5.75000000e-009,8.01562482e-004
,,,5.77500000e-009,7.99999982e-004
,,,5.80000000e-009,7.76562480e-004
,,,5.82500000e-009,7.31249977e-004
,,,5.85000000e-009,6.70312473e-004
,,,5.87500000e-009,6.03124968e-004
,,,5.90000000e-009,5.34374963e-004
,,,5.92500000e-009,4.73437459e-004
,,,5.95000000e-009,4.26562456e-004
,,,5.97500000e-009,3.99999954e-004
,,,6.00000000e-009,3.99999954e-004
,,,6.02500000e-009,4.23437455e-004
,,,6.05000000e-009,4.67187459e-004
,,,6.07500000e-009,5.26562463e-004
,,,6.10000000e-009,5.96874968e-004
