RawData/SinglePhotoelectron/R6_2pt2D_5mV/wave016_Ch4.csv

"Record Length",1000,"Points",-7.72500000e-009,1.18281251e-003
"Sample Interval",2.50000000e-011,s,-7.70000000e-009,1.18281251e-003
"Trigger Point",309,"Samples",-7.67500000e-009,1.18593751e-003
"Trigger Time",6.62335766e-013,s,-7.65000000e-009,1.19218751e-003
"",,,-7.62500000e-009,1.20000001e-003
"Horizontal Offset",-7.72500000e-009,s,-7.60000000e-009,1.20937501e-003
,,,-7.57500000e-009,1.21875001e-003
,,,-7.55000000e-009,1.22812501e-003
,,,-7.52500000e-009,1.23281251e-003
,,,-7.50000000e-009,1.23437501e-003
,,,-7.47500000e-009,1.23125001e-003
,,,-7.45000000e-009,1.22031251e-003
,,,-7.42500000e-009,1.20000001e-003
,,,-7.40000000e-009,1.17343751e-003
,,,-7.37500000e-009,1.13593751e-003
,,,-7.35000000e-009,1.09218750e-003
,,,-7.32500000e-009,1.04062500e-003
,,,-7.30000000e-009,9.82812495e-004
,,,-7.27500000e-009,9.21874991e-004
,,,-7.25000000e-009,8.60937486e-004
,,,-7.22500000e-009,7.99999982e-004
,,,-7.20000000e-009,7.51562479e-004
,,,-7.17500000e-009,7.10937476e-004
,,,-7.15000000e-009,6.84374974e-004
,,,-7.12500000e-009,6.73437473e-004
,,,-7.10000000e-009,6.78124973e-004
,,,-7.07500000e-009,7.03124975e-004
,,,-7.05000000e-009,7.43749978e-004
,,,-7.02500000e-009,7.99999982e-004
,,,-7.00000000e-009,8.73437487e-004
,,,-6.97500000e-009,9.49999993e-004
,,,-6.95000000e-009,1.02656250e-003
,,,-6.92500000e-009,1.09687500e-003
,,,-6.90000000e-009,1.15312501e-003
,,,-6.87500000e-009,1.19218751e-003
,,,-6.85000000e-009,1.20781251e-003
,,,-6.82500000e-009,1.20000001e-003
,,,-6.80000000e-009,1.17031251e-003
,,,-6.77500000e-009,1.12187500e-003
,,,-6.75000000e-009,1.06093750e-003
,,,-6.72500000e-009,9.92187496e-004
,,,-6.70000000e-009,9.24999991e-004
,,,-6.67500000e-009,8.67187487e-004
,,,-6.65000000e-009,8.23437484e-004
,,,-6.62500000e-009,7.99999982e-004
,,,-6.60000000e-009,8.04687482e-004
,,,-6.57500000e-009,8.29687484e-004
,,,-6.55000000e-009,8.74999987e-004
,,,-6.52500000e-009,9.35937492e-004
,,,-6.50000000e-009,1.00468750e-003
,,,-6.47500000e-009,1.07656250e-003
,,,-6.45000000e-009,1.14375001e-003
,,,-6.42500000e-009,1.20000001e-003
,,,-6.40000000e-009,1.24218751e-003
,,,-6.37500000e-009,1.26875002e-003
,,,-6.35000000e-009,1.27812502e-003
,,,-6.32500000e-009,1.27500002e-003
,,,-6.30000000e-009,1.26093751e-003
,,,-6.27500000e-009,1.24062501e-003
,,,-6.25000000e-009,1.22031251e-003
,,,-6.22500000e-009,1.20000001e-003
,,,-6.20000000e-009,1.18281251e-003
,,,-6.17500000e-009,1.17187501e-003
,,,-6.15000000e-009,1.16718751e-003
,,,-6.12500000e-009,1.17031251e-003
,,,-6.10000000e-009,1.17656251e-003
,,,-6.07500000e-009,1.18437501e-003
,,,-6.05000000e-009,1.19375001e-003
,,,-6.02500000e-009,1.20000001e-003
,,,-6.00000000e-009,1.20312501e-003
,,,-5.97500000e-009,1.20312501e-003
,,,-5.95000000e-009,1.20156251e-003
,,,-5.92500000e-009,1.19843751e-003
,,,-5.90000000e-009,1.19531251e-003
,,,-5.87500000e-009,1.19531251e-003
,,,-5.85000000e-009,1.19687501e-003
,,,-5.82500000e-009,1.20000001e-003
,,,-5.80000000e-009,1.20625001e-003
,,,-5.77500000e-009,1.21250001e-003
,,,-5.75000000e-009,1.22031251e-003
,,,-5.72500000e-009,1.22656251e-003
,,,-5.70000000e-009,1.22968751e-003
,,,-5.67500000e-009,1.22656251e-003
,,,-5.65000000e-009,1.21875001e-003
,,,-5.62500000e-009,1.20000001e-003
,,,-5.60000000e-009,1.17031251e-003
,,,-5.57500000e-009,1.13281251e-003
,,,-5.55000000e-009,1.08593750e-003
,,,-5.52500000e-009,1.03281250e-003
,,,-5.50000000e-009,9.76562495e-004
,,,-5.47500000e-009,9.15624990e-004
,,,-5.45000000e-009,8.56249986e-004
,,,-5.42500000e-009,7.99999982e-004
,,,-5.40000000e-009,7.53124979e-004
,,,-5.37500000e-009,7.15624976e-004
,,,-5.35000000e-009,6.90624974e-004
,,,-5.32500000e-009,6.81249974e-004
,,,-5.30000000e-009,6.87499974e-004
,,,-5.27500000e-009,7.09374976e-004
,,,-5.25000000e-009,7.48437478e-004
,,,-5.22500000e-009,7.99999982e-004
,,,-5.20000000e-009,8.65624987e-004
,,,-5.17500000e-009,9.35937492e-004
,,,-5.15000000e-009,1.00625000e-003
,,,-5.12500000e-009,1.07187500e-003
,,,-5.10000000e-009,1.12812501e-003
,,,-5.07500000e-009,1.17031251e-003
,,,-5.05000000e-009,1.19531251e-003
,,,-5.02500000e-009,1.20000001e-003
,,,-5.00000000e-009,1.18593751e-003
,,,-4.97500000e-009,1.15312501e-003
,,,-4.95000000e-009,1.10625000e-003
,,,-4.92500000e-009,1.04687500e-003
,,,-4.90000000e-009,9.81249995e-004
,,,-4.87500000e-009,9.15624990e-004
,,,-4.85000000e-009,8.54687486e-004
,,,-4.82500000e-009,7.99999982e-004
,,,-4.80000000e-009,7.60937479e-004
,,,-4.77500000e-009,7.34374977e-004
,,,-4.75000000e-009,7.20312476e-004
,,,-4.72500000e-009,7.20312476e-004
,,,-4.70000000e-009,7.31249977e-004
,,,-4.67500000e-009,7.49999979e-004
,,,-4.65000000e-009,7.74999980e-004
,,,-4.62500000e-009,7.99999982e-004
,,,-4.60000000e-009,8.26562484e-004
,,,-4.57500000e-009,8.48437486e-004
,,,-4.55000000e-009,8.60937486e-004
,,,-4.52500000e-009,8.65624987e-004
,,,-4.50000000e-009,8.60937486e-004
,,,-4.47500000e-009,8.48437486e-004
,,,-4.45000000e-009,8.26562484e-004
,,,-4.42500000e-009,7.99999982e-004
,,,-4.40000000e-009,7.73437480e-004
,,,-4.37500000e-009,7.46874978e-004
,,,-4.35000000e-009,7.24999977e-004
,,,-4.32500000e-009,7.14062476e-004
,,,-4.30000000e-009,7.14062476e-004
,,,-4.27500000e-009,7.28124977e-004
,,,-4.25000000e-009,7.56249979e-004
,,,-4.22500000e-009,7.99999982e-004
,,,-4.20000000e-009,8.56249986e-004
,,,-4.17500000e-009,9.21874991e-004
,,,-4.15000000e-009,9.89062496e-004
,,,-4.12500000e-009,1.05468750e-003
,,,-4.10000000e-009,1.11406250e-003
,,,-4.07500000e-009,1.16093751e-003
,,,-4.05000000e-009,1.19062501e-003
,,,-4.02500000e-009,1.20000001e-003
,,,-4.00000000e-009,1.18906251e-003
,,,-3.97500000e-009,1.15625001e-003
,,,-3.95000000e-009,1.10781250e-003
,,,-3.92500000e-009,1.04843750e-003
,,,-3.90000000e-009,9.82812495e-004
,,,-3.87500000e-009,9.15624990e-004
,,,-3.85000000e-009,8.53124986e-004
,,,-3.82500000e-009,7.99999982e-004
,,,-3.80000000e-009,7.62499979e-004
,,,-3.77500000e-009,7.40624978e-004
,,,-3.75000000e-009,7.32812477e-004
,,,-3.72500000e-009,7.35937478e-004
,,,-3.70000000e-009,7.48437478e-004
,,,-3.67500000e-009,7.65624980e-004
,,,-3.65000000e-009,7.84374981e-004
,,,-3.62500000e-009,7.99999982e-004
,,,-3.60000000e-009,8.12499983e-004
,,,-3.57500000e-009,8.20312484e-004
,,,-3.55000000e-009,8.20312484e-004
,,,-3.52500000e-009,8.18749983e-004
,,,-3.50000000e-009,8.12499983e-004
,,,-3.47500000e-009,8.06249983e-004
,,,-3.45000000e-009,8.03124982e-004
,,,-3.42500000e-009,7.99999982e-004
,,,-3.40000000e-009,8.03124982e-004
,,,-3.37500000e-009,8.06249983e-004
,,,-3.35000000e-009,8.12499983e-004
,,,-3.32500000e-009,8.18749983e-004
,,,-3.30000000e-009,8.20312484e-004
,,,-3.27500000e-009,8.20312484e-004
,,,-3.25000000e-009,8.12499983e-004
,,,-3.22500000e-009,7.99999982e-004
,,,-3.20000000e-009,7.84374981e-004
,,,-3.17500000e-009,7.65624980e-004
,,,-3.15000000e-009,7.48437478e-004
,,,-3.12500000e-009,7.35937478e-004
,,,-3.10000000e-009,7.32812477e-004
,,,-3.07500000e-009,7.40624978e-004
,,,-3.05000000e-009,7.62499979e-004
,,,-3.02500000e-009,7.99999982e-004
,,,-3.00000000e-009,8.53124986e-004
,,,-2.97500000e-009,9.15624990e-004
,,,-2.95000000e-009,9.82812495e-004
,,,-2.92500000e-009,1.04843750e-003
,,,-2.90000000e-009,1.10781250e-003
,,,-2.87500000e-009,1.15625001e-003
,,,-2.85000000e-009,1.18906251e-003
,,,-2.82500000e-009,1.20000001e-003
,,,-2.80000000e-009,1.18593751e-003
,,,-2.77500000e-009,1.15312501e-003
,,,-2.75000000e-009,1.10312500e-003
,,,-2.72500000e-009,1.04218750e-003
,,,-2.70000000e-009,9.74999995e-004
,,,-2.67500000e-009,9.09374990e-004
,,,-2.65000000e-009,8.49999986e-004
,,,-2.62500000e-009,7.99999982e-004
,,,-2.60000000e-009,7.65624980e-004
,,,-2.57500000e-009,7.45312478e-004
,,,-2.55000000e-009,7.39062478e-004
,,,-2.52500000e-009,7.43749978e-004
,,,-2.50000000e-009,7.56249979e-004
,,,-2.47500000e-009,7.73437480e-004
,,,-2.45000000e-009,7.89062481e-004
,,,-2.42500000e-009,7.99999982e-004
,,,-2.40000000e-009,8.06249983e-004
,,,-2.37500000e-009,8.06249983e-004
,,,-2.35000000e-009,8.01562482e-004
,,,-2.32500000e-009,7.93749982e-004
,,,-2.30000000e-009,7.87499981e-004
,,,-2.27500000e-009,7.85937481e-004
,,,-2.25000000e-009,7.90624981e-004
,,,-2.22500000e-009,7.99999982e-004
,,,-2.20000000e-009,8.15624983e-004
,,,-2.17500000e-009,8.34374985e-004
,,,-2.15000000e-009,8.51562486e-004
,,,-2.12500000e-009,8.65624987e-004
,,,-2.10000000e-009,8.70312487e-004
,,,-2.07500000e-009,8.62499987e-004
,,,-2.05000000e-009,8.40624985e-004
,,,-2.02500000e-009,7.99999982e-004
,,,-2.00000000e-009,7.42187478e-004
,,,-1.97500000e-009,6.73437473e-004
,,,-1.95000000e-009,5.99999968e-004
,,,-1.92500000e-009,5.29687463e-004
,,,-1.90000000e-009,4.67187459e-004
,,,-1.87500000e-009,4.21874955e-004
,,,-1.85000000e-009,3.98437454e-004
,,,-1.82500000e-009,3.99999954e-004
,,,-1.80000000e-009,4.26562456e-004
,,,-1.77500000e-009,4.73437459e-004
,,,-1.75000000e-009,5.34374963e-004
,,,-1.72500000e-009,6.03124968e-004
,,,-1.70000000e-009,6.70312473e-004
,,,-1.67500000e-009,7.31249977e-004
,,,-1.65000000e-009,7.76562480e-004
,,,-1.62500000e-009,7.99999982e-004
,,,-1.60000000e-009,7.90624981e-004
,,,-1.57500000e-009,7.56249979e-004
,,,-1.55000000e-009,7.03124975e-004
,,,-1.52500000e-009,6.35937471e-004
,,,-1.50000000e-009,5.65624966e-004
,,,-1.47500000e-009,4.98437461e-004
,,,-1.45000000e-009,4.42187457e-004
,,,-1.42500000e-009,3.99999954e-004
,,,-1.40000000e-009,3.67187451e-004
,,,-1.37500000e-009,3.49999950e-004
,,,-1.35000000e-009,3.46874950e-004
,,,-1.32500000e-009,3.56249951e-004
,,,-1.30000000e-009,3.70312452e-004
,,,-1.27500000e-009,3.87499953e-004
,,,-1.25000000e-009,3.98437454e-004
,,,-1.22500000e-009,3.99999954e-004
,,,-1.20000000e-009,3.73437452e-004
,,,-1.17500000e-009,3.29687449e-004
,,,-1.15000000e-009,2.74999945e-004
,,,-1.12500000e-009,2.12499941e-004
,,,-1.10000000e-009,1.48437436e-004
,,,-1.07500000e-009,8.90624318e-005
,,,-1.05000000e-009,3.90624283e-005
,,,-1.02500000e-009,-7.45058060e-011
,,,-1.00000000e-009,-4.53125777e-005
,,,-9.75000000e-010,-8.59375806e-005
,,,-9.50000000e-010,-1.25000083e-004
,,,-9.25000000e-010,-1.62500086e-004
,,,-9.00000000e-010,-2.04687589e-004
,,,-8.75000000e-010,-2.54687593e-004
,,,-8.50000000e-010,-3.18750097e-004
,,,-8.25000000e-010,-4.00000103e-004
,,,-8.00000000e-010,-5.25000112e-004
,,,-7.75000000e-010,-6.70312622e-004
,,,-7.50000000e-010,-8.32812633e-004
,,,-7.25000000e-010,-1.00156265e-003
,,,-7.00000000e-010,-1.17031266e-003
,,,-6.75000000e-010,-1.32968767e-003
,,,-6.50000000e-010,-1.47343768e-003
,,,-6.25000000e-010,-1.60000019e-003
,,,-6.00000000e-010,-1.72343770e-003
,,,-5.75000000e-010,-1.83437520e-003
,,,-5.50000000e-010,-1.93437521e-003
,,,-5.25000000e-010,-2.02656272e-003
,,,-5.00000000e-010,-2.11562522e-003
,,,-4.75000000e-010,-2.20468773e-003
,,,-4.50000000e-010,-2.29687524e-003
,,,-4.25000000e-010,-2.40000024e-003
,,,-4.00000000e-010,-2.52656275e-003
,,,-3.75000000e-010,-2.67031276e-003
,,,-3.50000000e-010,-2.82812527e-003
,,,-3.25000000e-010,-2.99062529e-003
,,,-3.00000000e-010,-3.15625030e-003
,,,-2.75000000e-010,-3.31406281e-003
,,,-2.50000000e-010,-3.46250032e-003
,,,-2.25000000e-010,-3.60000033e-003
,,,-2.00000000e-010,-3.72968784e-003
,,,-1.75000000e-010,-3.85781285e-003
,,,-1.50000000e-010,-3.98593786e-003
,,,-1.25000000e-010,-4.12031287e-003
,,,-1.00000000e-010,-4.26562538e-003
,,,-7.50000000e-011,-4.42343789e-003
,,,-5.00000000e-011,-4.60156290e-003
,,,-2.50000000e-011,-4.80000041e-003
,,,0.00000000e+000,-5.01406293e-003
,,,2.50000000e-011,-5.25156295e-003
,,,5.00000000e-011,-5.51093796e-003
,,,7.50000000e-011,-5.77968798e-003
,,,1.00000000e-010,-6.05312550e-003
,,,1.25000000e-010,-6.32031302e-003
,,,1.50000000e-010,-6.57187554e-003
,,,1.75000000e-010,-6.80000056e-003
,,,2.00000000e-010,-6.97656307e-003
,,,2.25000000e-010,-7.12656308e-003
,,,2.50000000e-010,-7.25312559e-003
,,,2.75000000e-010,-7.35625060e-003
,,,3.00000000e-010,-7.43750060e-003
,,,3.25000000e-010,-7.50312561e-003
,,,3.50000000e-010,-7.55625061e-003
,,,3.75000000e-010,-7.60000061e-003
,,,4.00000000e-010,-7.61250061e-003
,,,4.25000000e-010,-7.63437561e-003
,,,4.50000000e-010,-7.66562562e-003
,,,4.75000000e-010,-7.70937562e-003
,,,5.00000000e-010,-7.76718812e-003
,,,5.25000000e-010,-7.83593813e-003
,,,5.50000000e-010,-7.91406313e-003
,,,5.75000000e-010,-8.00000064e-003
,,,6.00000000e-010,-8.05468814e-003
,,,6.25000000e-010,-8.11250065e-003
,,,6.50000000e-010,-8.17343815e-003
,,,6.75000000e-010,-8.23281316e-003
,,,7.00000000e-010,-8.28750066e-003
,,,7.25000000e-010,-8.33593816e-003
,,,7.50000000e-010,-8.37500067e-003
,,,7.75000000e-010,-8.40000067e-003
,,,8.00000000e-010,-8.37656317e-003
,,,8.25000000e-010,-8.34375067e-003
,,,8.50000000e-010,-8.30000066e-003
,,,8.75000000e-010,-8.24843816e-003
,,,9.00000000e-010,-8.19062565e-003
,,,9.25000000e-010,-8.12812565e-003
,,,9.50000000e-010,-8.06406315e-003
,,,9.75000000e-010,-8.00000064e-003
,,,1.00000000e-009,-7.90312563e-003
,,,1.02500000e-009,-7.81406313e-003
,,,1.05000000e-009,-7.73593812e-003
,,,1.07500000e-009,-7.67187562e-003
,,,1.10000000e-009,-7.62812561e-003
,,,1.12500000e-009,-7.60156311e-003
,,,1.15000000e-009,-7.59375061e-003
,,,1.17500000e-009,-7.60000061e-003
,,,1.20000000e-009,-7.58906311e-003
,,,1.22500000e-009,-7.57812561e-003
,,,1.25000000e-009,-7.56093811e-003
,,,1.27500000e-009,-7.53281311e-003
,,,1.30000000e-009,-7.48437560e-003
,,,1.32500000e-009,-7.41406310e-003
,,,1.35000000e-009,-7.31875059e-003
,,,1.37500000e-009,-7.20000058e-003
,,,1.40000000e-009,-7.03593807e-003
,,,1.42500000e-009,-6.85468806e-003
,,,1.45000000e-009,-6.66562555e-003
,,,1.47500000e-009,-6.48281303e-003
,,,1.50000000e-009,-6.31562552e-003
,,,1.52500000e-009,-6.17500051e-003
,,,1.55000000e-009,-6.06875050e-003
,,,1.57500000e-009,-6.00000050e-003
,,,1.60000000e-009,-5.95156300e-003
,,,1.62500000e-009,-5.92500049e-003
,,,1.65000000e-009,-5.91093799e-003
,,,1.67500000e-009,-5.89687549e-003
,,,1.70000000e-009,-5.86875049e-003
,,,1.72500000e-009,-5.81718799e-003
,,,1.75000000e-009,-5.72968798e-003
,,,1.77500000e-009,-5.60000047e-003
,,,1.80000000e-009,-5.41250046e-003
,,,1.82500000e-009,-5.17968794e-003
,,,1.85000000e-009,-4.91250042e-003
,,,1.87500000e-009,-4.62500040e-003
,,,1.90000000e-009,-4.33281288e-003
,,,1.92500000e-009,-4.05468786e-003
,,,1.95000000e-009,-3.80625034e-003
,,,1.97500000e-009,-3.60000033e-003
,,,2.00000000e-009,-3.44687532e-003
,,,2.02500000e-009,-3.33906281e-003
,,,2.05000000e-009,-3.27187531e-003
,,,2.07500000e-009,-3.23750030e-003
,,,2.10000000e-009,-3.22343780e-003
,,,2.12500000e-009,-3.22031280e-003
,,,2.15000000e-009,-3.21562530e-003
,,,2.17500000e-009,-3.20000030e-003
,,,2.20000000e-009,-3.16875030e-003
,,,2.22500000e-009,-3.10781279e-003
,,,2.25000000e-009,-3.02031279e-003
,,,2.27500000e-009,-2.90937528e-003
,,,2.30000000e-009,-2.78281277e-003
,,,2.32500000e-009,-2.65000026e-003
,,,2.35000000e-009,-2.52031275e-003
,,,2.37500000e-009,-2.40000024e-003
,,,2.40000000e-009,-2.30000024e-003
,,,2.42500000e-009,-2.20625023e-003
,,,2.45000000e-009,-2.11718772e-003
,,,2.47500000e-009,-2.02812522e-003
,,,2.50000000e-009,-1.93593771e-003
,,,2.52500000e-009,-1.83437520e-003
,,,2.55000000e-009,-1.72343770e-003
,,,2.57500000e-009,-1.60000019e-003
,,,2.60000000e-009,-1.47500018e-003
,,,2.62500000e-009,-1.34218767e-003
,,,2.65000000e-009,-1.20468766e-003
,,,2.67500000e-009,-1.07500015e-003
,,,2.70000000e-009,-9.60937643e-004
,,,2.72500000e-009,-8.71875136e-004
,,,2.75000000e-009,-8.17187632e-004
,,,2.77500000e-009,-8.00000131e-004
,,,2.80000000e-009,-8.32812633e-004
,,,2.82500000e-009,-8.92187638e-004
,,,2.85000000e-009,-9.67187643e-004
,,,2.87500000e-009,-1.04531265e-003
,,,2.90000000e-009,-1.11875015e-003
,,,2.92500000e-009,-1.17343766e-003
,,,2.95000000e-009,-1.20312516e-003
,,,2.97500000e-009,-1.20000016e-003
,,,3.00000000e-009,-1.16250016e-003
,,,3.02500000e-009,-1.08906265e-003
,,,3.05000000e-009,-9.84375144e-004
,,,3.07500000e-009,-8.60937635e-004
,,,3.10000000e-009,-7.28125126e-004
,,,3.12500000e-009,-6.00000117e-004
,,,3.15000000e-009,-4.87500109e-004
,,,3.17500000e-009,-4.00000103e-004
,,,3.20000000e-009,-3.46875099e-004
,,,3.22500000e-009,-3.21875097e-004
,,,3.25000000e-009,-3.18750097e-004
,,,3.27500000e-009,-3.32812598e-004
,,,3.30000000e-009,-3.56250100e-004
,,,3.32500000e-009,-3.79687601e-004
,,,3.35000000e-009,-3.95312602e-004
,,,3.37500000e-009,-4.00000103e-004
,,,3.40000000e-009,-3.89062602e-004
,,,3.42500000e-009,-3.57812600e-004
,,,3.45000000e-009,-3.07812596e-004
,,,3.47500000e-009,-2.45312592e-004
,,,3.50000000e-009,-1.75000087e-004
,,,3.52500000e-009,-1.06250082e-004
,,,3.55000000e-009,-4.68750778e-005
,,,3.57500000e-009,-7.45058060e-011
,,,3.60000000e-009,2.65624274e-005
,,,3.62500000e-009,3.74999281e-005
,,,3.65000000e-009,3.59374280e-005
,,,3.67500000e-009,2.49999273e-005
,,,3.70000000e-009,1.09374263e-005
,,,3.72500000e-009,-1.56257462e-006
,,,3.75000000e-009,-6.25007495e-006
,,,3.77500000e-009,-7.45058060e-011
,,,3.80000000e-009,2.03124269e-005
,,,3.82500000e-009,5.62499295e-005
,,,3.85000000e-009,1.04687433e-004
,,,3.87500000e-009,1.62499937e-004
,,,3.90000000e-009,2.26562442e-004
,,,3.92500000e-009,2.92187446e-004
,,,3.95000000e-009,3.49999950e-004
,,,3.97500000e-009,3.99999954e-004
,,,4.00000000e-009,4.29687456e-004
,,,4.02500000e-009,4.46874957e-004
,,,4.05000000e-009,4.53124958e-004
,,,4.07500000e-009,4.49999957e-004
,,,4.10000000e-009,4.40624957e-004
,,,4.12500000e-009,4.26562456e-004
,,,4.15000000e-009,4.12499955e-004
,,,4.17500000e-009,3.99999954e-004
,,,4.20000000e-009,3.89062453e-004
,,,4.22500000e-009,3.82812453e-004
,,,4.25000000e-009,3.82812453e-004
,,,4.27500000e-009,3.85937453e-004
,,,4.30000000e-009,3.90624953e-004
,,,4.32500000e-009,3.95312453e-004
,,,4.35000000e-009,3.99999954e-004
,,,4.37500000e-009,3.99999954e-004
,,,4.40000000e-009,3.93749953e-004
,,,4.42500000e-009,3.84374953e-004
,,,4.45000000e-009,3.76562452e-004
,,,4.47500000e-009,3.70312452e-004
,,,4.50000000e-009,3.67187451e-004
,,,4.52500000e-009,3.71874952e-004
,,,4.55000000e-009,3.82812453e-004
,,,4.57500000e-009,3.99999954e-004
,,,4.60000000e-009,4.20312455e-004
,,,4.62500000e-009,4.40624957e-004
,,,4.65000000e-009,4.60937458e-004
,,,4.67500000e-009,4.74999959e-004
,,,4.70000000e-009,4.78124959e-004
,,,4.72500000e-009,4.68749959e-004
,,,4.75000000e-009,4.42187457e-004
,,,4.77500000e-009,3.99999954e-004
,,,4.80000000e-009,3.43749950e-004
,,,4.82500000e-009,2.76562445e-004
,,,4.85000000e-009,2.04687440e-004
,,,4.87500000e-009,1.35937435e-004
,,,4.90000000e-009,7.49999308e-005
,,,4.92500000e-009,2.96874276e-005
,,,4.95000000e-009,4.68742583e-006
,,,4.97500000e-009,-7.45058060e-011
,,,5.00000000e-009,2.34374272e-005
,,,5.02500000e-009,6.71874302e-005
,,,5.05000000e-009,1.24999934e-004
,,,5.07500000e-009,1.92187439e-004
,,,5.10000000e-009,2.60937444e-004
,,,5.12500000e-009,3.21874948e-004
,,,5.15000000e-009,3.70312452e-004
,,,5.17500000e-009,3.99999954e-004
,,,5.20000000e-009,4.07812454e-004
,,,5.22500000e-009,3.92187453e-004
,,,5.25000000e-009,3.53124950e-004
,,,5.27500000e-009,2.96874947e-004
,,,5.30000000e-009,2.26562442e-004
,,,5.32500000e-009,1.49999936e-004
,,,5.35000000e-009,7.34374307e-005
,,,5.37500000e-009,-7.45058060e-011
,,,5.40000000e-009,-5.62500785e-005
,,,5.42500000e-009,-9.68750814e-005
,,,5.45000000e-009,-1.21875083e-004
,,,5.47500000e-009,-1.26562583e-004
,,,5.50000000e-009,-1.15625083e-004
,,,5.52500000e-009,-8.90625808e-005
,,,5.55000000e-009,-4.84375779e-005
,,,5.57500000e-009,-7.45058060e-011
,,,5.60000000e-009,6.09374298e-005
,,,5.62500000e-009,1.21874934e-004
,,,5.65000000e-009,1.82812438e-004
,,,5.67500000e-009,2.40624943e-004
,,,5.70000000e-009,2.92187446e-004
,,,5.72500000e-009,3.35937449e-004
,,,5.75000000e-009,3.73437452e-004
,,,5.77500000e-009,3.99999954e-004
,,,5.80000000e-009,4.20312455e-004
,,,5.82500000e-009,4.31249956e-004
,,,5.85000000e-009,4.34374956e-004
,,,5.87500000e-009,4.32812456e-004
,,,5.90000000e-009,4.28124956e-004
,,,5.92500000e-009,4.18749955e-004
,,,5.95000000e-009,4.09374954e-004
,,,5.97500000e-009,3.99999954e-004
,,,6.00000000e-009,3.92187453e-004
,,,6.02500000e-009,3.85937453e-004
,,,6.05000000e-009,3.82812453e-004
