RawData/SinglePhotoelectron/R6_2pt2D_5mV/wave000_Ch4.csv

"Record Length",1000,"Points",-7.72500000e-009,8.04687482e-004
"Sample Interval",2.50000000e-011,s,-7.70000000e-009,8.01562482e-004
"Trigger Point",309,"Samples",-7.67500000e-009,7.99999982e-004
"Trigger Time",1.32641860e-011,s,-7.65000000e-009,7.99999982e-004
"",,,-7.62500000e-009,8.09374983e-004
"Horizontal Offset",-7.72500000e-009,s,-7.60000000e-009,8.20312484e-004
,,,-7.57500000e-009,8.31249984e-004
,,,-7.55000000e-009,8.39062485e-004
,,,-7.52500000e-009,8.40624985e-004
,,,-7.50000000e-009,8.35937485e-004
,,,-7.47500000e-009,8.21874984e-004
,,,-7.45000000e-009,7.99999982e-004
,,,-7.42500000e-009,7.74999980e-004
,,,-7.40000000e-009,7.48437478e-004
,,,-7.37500000e-009,7.21874977e-004
,,,-7.35000000e-009,7.04687475e-004
,,,-7.32500000e-009,7.01562475e-004
,,,-7.30000000e-009,7.14062476e-004
,,,-7.27500000e-009,7.46874978e-004
,,,-7.25000000e-009,7.99999982e-004
,,,-7.22500000e-009,8.73437487e-004
,,,-7.20000000e-009,9.57812493e-004
,,,-7.17500000e-009,1.04218750e-003
,,,-7.15000000e-009,1.12031250e-003
,,,-7.12500000e-009,1.18125001e-003
,,,-7.10000000e-009,1.21875001e-003
,,,-7.07500000e-009,1.22500001e-003
,,,-7.05000000e-009,1.20000001e-003
,,,-7.02500000e-009,1.14375001e-003
,,,-7.00000000e-009,1.06562500e-003
,,,-6.97500000e-009,9.76562495e-004
,,,-6.95000000e-009,8.89062488e-004
,,,-6.92500000e-009,8.18749983e-004
,,,-6.90000000e-009,7.73437480e-004
,,,-6.87500000e-009,7.67187480e-004
,,,-6.85000000e-009,7.99999982e-004
,,,-6.82500000e-009,8.76562488e-004
,,,-6.80000000e-009,9.84374995e-004
,,,-6.77500000e-009,1.11718750e-003
,,,-6.75000000e-009,1.25625001e-003
,,,-6.72500000e-009,1.38906252e-003
,,,-6.70000000e-009,1.50000003e-003
,,,-6.67500000e-009,1.57343754e-003
,,,-6.65000000e-009,1.60000004e-003
,,,-6.62500000e-009,1.57343754e-003
,,,-6.60000000e-009,1.50000003e-003
,,,-6.57500000e-009,1.38906252e-003
,,,-6.55000000e-009,1.25625001e-003
,,,-6.52500000e-009,1.11718750e-003
,,,-6.50000000e-009,9.84374995e-004
,,,-6.47500000e-009,8.76562488e-004
,,,-6.45000000e-009,7.99999982e-004
,,,-6.42500000e-009,7.67187480e-004
,,,-6.40000000e-009,7.73437480e-004
,,,-6.37500000e-009,8.18749983e-004
,,,-6.35000000e-009,8.89062488e-004
,,,-6.32500000e-009,9.76562495e-004
,,,-6.30000000e-009,1.06562500e-003
,,,-6.27500000e-009,1.14375001e-003
,,,-6.25000000e-009,1.20000001e-003
,,,-6.22500000e-009,1.22656251e-003
,,,-6.20000000e-009,1.22187501e-003
,,,-6.17500000e-009,1.18750001e-003
,,,-6.15000000e-009,1.12656251e-003
,,,-6.12500000e-009,1.05000000e-003
,,,-6.10000000e-009,9.64062494e-004
,,,-6.07500000e-009,8.78124988e-004
,,,-6.05000000e-009,7.99999982e-004
,,,-6.02500000e-009,7.40624978e-004
,,,-6.00000000e-009,7.01562475e-004
,,,-5.97500000e-009,6.82812474e-004
,,,-5.95000000e-009,6.82812474e-004
,,,-5.92500000e-009,6.99999975e-004
,,,-5.90000000e-009,7.28124977e-004
,,,-5.87500000e-009,7.64062480e-004
,,,-5.85000000e-009,7.99999982e-004
,,,-5.82500000e-009,8.34374985e-004
,,,-5.80000000e-009,8.59374986e-004
,,,-5.77500000e-009,8.74999987e-004
,,,-5.75000000e-009,8.79687488e-004
,,,-5.72500000e-009,8.71874987e-004
,,,-5.70000000e-009,8.56249986e-004
,,,-5.67500000e-009,8.31249984e-004
,,,-5.65000000e-009,7.99999982e-004
,,,-5.62500000e-009,7.74999980e-004
,,,-5.60000000e-009,7.49999979e-004
,,,-5.57500000e-009,7.31249977e-004
,,,-5.55000000e-009,7.20312476e-004
,,,-5.52500000e-009,7.20312476e-004
,,,-5.50000000e-009,7.34374977e-004
,,,-5.47500000e-009,7.60937479e-004
,,,-5.45000000e-009,7.99999982e-004
,,,-5.42500000e-009,8.53124986e-004
,,,-5.40000000e-009,9.12499990e-004
,,,-5.37500000e-009,9.76562495e-004
,,,-5.35000000e-009,1.04062500e-003
,,,-5.32500000e-009,1.09843750e-003
,,,-5.30000000e-009,1.14687501e-003
,,,-5.27500000e-009,1.18281251e-003
,,,-5.25000000e-009,1.20000001e-003
,,,-5.22500000e-009,1.20000001e-003
,,,-5.20000000e-009,1.17968751e-003
,,,-5.17500000e-009,1.14218751e-003
,,,-5.15000000e-009,1.08750000e-003
,,,-5.12500000e-009,1.02187500e-003
,,,-5.10000000e-009,9.48437493e-004
,,,-5.07500000e-009,8.73437487e-004
,,,-5.05000000e-009,7.99999982e-004
,,,-5.02500000e-009,7.35937478e-004
,,,-5.00000000e-009,6.85937474e-004
,,,-4.97500000e-009,6.54687472e-004
,,,-4.95000000e-009,6.42187471e-004
,,,-4.92500000e-009,6.51562472e-004
,,,-4.90000000e-009,6.82812474e-004
,,,-4.87500000e-009,7.32812477e-004
,,,-4.85000000e-009,7.99999982e-004
,,,-4.82500000e-009,8.81249988e-004
,,,-4.80000000e-009,9.65624994e-004
,,,-4.77500000e-009,1.04843750e-003
,,,-4.75000000e-009,1.12031250e-003
,,,-4.72500000e-009,1.17656251e-003
,,,-4.70000000e-009,1.20937501e-003
,,,-4.67500000e-009,1.21875001e-003
,,,-4.65000000e-009,1.20000001e-003
,,,-4.62500000e-009,1.15781251e-003
,,,-4.60000000e-009,1.09687500e-003
,,,-4.57500000e-009,1.02656250e-003
,,,-4.55000000e-009,9.53124993e-004
,,,-4.52500000e-009,8.85937488e-004
,,,-4.50000000e-009,8.35937485e-004
,,,-4.47500000e-009,8.04687482e-004
,,,-4.45000000e-009,7.99999982e-004
,,,-4.42500000e-009,8.21874984e-004
,,,-4.40000000e-009,8.67187487e-004
,,,-4.37500000e-009,9.29687491e-004
,,,-4.35000000e-009,9.99999996e-004
,,,-4.32500000e-009,1.07187500e-003
,,,-4.30000000e-009,1.13437501e-003
,,,-4.27500000e-009,1.17968751e-003
,,,-4.25000000e-009,1.20000001e-003
,,,-4.22500000e-009,1.19687501e-003
,,,-4.20000000e-009,1.16562501e-003
,,,-4.17500000e-009,1.11562500e-003
,,,-4.15000000e-009,1.04843750e-003
,,,-4.12500000e-009,9.74999995e-004
,,,-4.10000000e-009,9.04687490e-004
,,,-4.07500000e-009,8.43749985e-004
,,,-4.05000000e-009,7.99999982e-004
,,,-4.02500000e-009,7.82812481e-004
,,,-4.00000000e-009,7.92187482e-004
,,,-3.97500000e-009,8.24999984e-004
,,,-3.95000000e-009,8.81249988e-004
,,,-3.92500000e-009,9.53124993e-004
,,,-3.90000000e-009,1.03593750e-003
,,,-3.87500000e-009,1.12031250e-003
,,,-3.85000000e-009,1.20000001e-003
,,,-3.82500000e-009,1.26718752e-003
,,,-3.80000000e-009,1.31562502e-003
,,,-3.77500000e-009,1.34531252e-003
,,,-3.75000000e-009,1.35312502e-003
,,,-3.72500000e-009,1.34062502e-003
,,,-3.70000000e-009,1.30937502e-003
,,,-3.67500000e-009,1.26093751e-003
,,,-3.65000000e-009,1.20000001e-003
,,,-3.62500000e-009,1.13125001e-003
,,,-3.60000000e-009,1.05781250e-003
,,,-3.57500000e-009,9.85937495e-004
,,,-3.55000000e-009,9.21874991e-004
,,,-3.52500000e-009,8.68749987e-004
,,,-3.50000000e-009,8.29687484e-004
,,,-3.47500000e-009,8.06249983e-004
,,,-3.45000000e-009,7.99999982e-004
,,,-3.42500000e-009,8.14062483e-004
,,,-3.40000000e-009,8.43749985e-004
,,,-3.37500000e-009,8.89062488e-004
,,,-3.35000000e-009,9.43749992e-004
,,,-3.32500000e-009,1.00781250e-003
,,,-3.30000000e-009,1.07500000e-003
,,,-3.27500000e-009,1.14062501e-003
,,,-3.25000000e-009,1.20000001e-003
,,,-3.22500000e-009,1.25000001e-003
,,,-3.20000000e-009,1.28593752e-003
,,,-3.17500000e-009,1.30781252e-003
,,,-3.15000000e-009,1.31406252e-003
,,,-3.12500000e-009,1.30468752e-003
,,,-3.10000000e-009,1.28125002e-003
,,,-3.07500000e-009,1.24687501e-003
,,,-3.05000000e-009,1.20000001e-003
,,,-3.02500000e-009,1.14531251e-003
,,,-3.00000000e-009,1.08593750e-003
,,,-2.97500000e-009,1.02500000e-003
,,,-2.95000000e-009,9.68749994e-004
,,,-2.92500000e-009,9.15624990e-004
,,,-2.90000000e-009,8.68749987e-004
,,,-2.87500000e-009,8.31249984e-004
,,,-2.85000000e-009,7.99999982e-004
,,,-2.82500000e-009,7.79687481e-004
,,,-2.80000000e-009,7.67187480e-004
,,,-2.77500000e-009,7.60937479e-004
,,,-2.75000000e-009,7.60937479e-004
,,,-2.72500000e-009,7.67187480e-004
,,,-2.70000000e-009,7.76562480e-004
,,,-2.67500000e-009,7.89062481e-004
,,,-2.65000000e-009,7.99999982e-004
,,,-2.62500000e-009,8.12499983e-004
,,,-2.60000000e-009,8.20312484e-004
,,,-2.57500000e-009,8.24999984e-004
,,,-2.55000000e-009,8.26562484e-004
,,,-2.52500000e-009,8.23437484e-004
,,,-2.50000000e-009,8.18749983e-004
,,,-2.47500000e-009,8.09374983e-004
,,,-2.45000000e-009,7.99999982e-004
,,,-2.42500000e-009,7.92187482e-004
,,,-2.40000000e-009,7.82812481e-004
,,,-2.37500000e-009,7.78124981e-004
,,,-2.35000000e-009,7.74999980e-004
,,,-2.32500000e-009,7.76562480e-004
,,,-2.30000000e-009,7.81249981e-004
,,,-2.27500000e-009,7.89062481e-004
,,,-2.25000000e-009,7.99999982e-004
,,,-2.22500000e-009,8.15624983e-004
,,,-2.20000000e-009,8.28124984e-004
,,,-2.17500000e-009,8.40624985e-004
,,,-2.15000000e-009,8.46874985e-004
,,,-2.12500000e-009,8.46874985e-004
,,,-2.10000000e-009,8.40624985e-004
,,,-2.07500000e-009,8.24999984e-004
,,,-2.05000000e-009,7.99999982e-004
,,,-2.02500000e-009,7.67187480e-004
,,,-2.00000000e-009,7.23437477e-004
,,,-1.97500000e-009,6.73437473e-004
,,,-1.95000000e-009,6.18749969e-004
,,,-1.92500000e-009,5.60937465e-004
,,,-1.90000000e-009,5.03124961e-004
,,,-1.87500000e-009,4.48437457e-004
,,,-1.85000000e-009,3.99999954e-004
,,,-1.82500000e-009,3.59374951e-004
,,,-1.80000000e-009,3.28124949e-004
,,,-1.77500000e-009,3.07812447e-004
,,,-1.75000000e-009,2.99999947e-004
,,,-1.72500000e-009,3.06249947e-004
,,,-1.70000000e-009,3.24999948e-004
,,,-1.67500000e-009,3.57812451e-004
,,,-1.65000000e-009,3.99999954e-004
,,,-1.62500000e-009,4.48437457e-004
,,,-1.60000000e-009,5.01562461e-004
,,,-1.57500000e-009,5.56249965e-004
,,,-1.55000000e-009,6.10937469e-004
,,,-1.52500000e-009,6.64062472e-004
,,,-1.50000000e-009,7.15624976e-004
,,,-1.47500000e-009,7.60937479e-004
,,,-1.45000000e-009,7.99999982e-004
,,,-1.42500000e-009,8.20312484e-004
,,,-1.40000000e-009,8.29687484e-004
,,,-1.37500000e-009,8.31249984e-004
,,,-1.35000000e-009,8.28124984e-004
,,,-1.32500000e-009,8.21874984e-004
,,,-1.30000000e-009,8.14062483e-004
,,,-1.27500000e-009,8.07812483e-004
,,,-1.25000000e-009,7.99999982e-004
,,,-1.22500000e-009,7.73437480e-004
,,,-1.20000000e-009,7.42187478e-004
,,,-1.17500000e-009,7.04687475e-004
,,,-1.15000000e-009,6.59374972e-004
,,,-1.12500000e-009,6.07812469e-004
,,,-1.10000000e-009,5.48437464e-004
,,,-1.07500000e-009,4.78124959e-004
,,,-1.05000000e-009,3.99999954e-004
,,,-1.02500000e-009,2.92187446e-004
,,,-1.00000000e-009,1.73437438e-004
,,,-9.75000000e-010,5.31249293e-005
,,,-9.50000000e-010,-6.40625790e-005
,,,-9.25000000e-010,-1.73437587e-004
,,,-9.00000000e-010,-2.67187593e-004
,,,-8.75000000e-010,-3.42187599e-004
,,,-8.50000000e-010,-4.00000103e-004
,,,-8.25000000e-010,-4.60937607e-004
,,,-8.00000000e-010,-5.10937611e-004
,,,-7.75000000e-010,-5.54687614e-004
,,,-7.50000000e-010,-5.92187616e-004
,,,-7.25000000e-010,-6.32812619e-004
,,,-7.00000000e-010,-6.76562622e-004
,,,-6.75000000e-010,-7.31250126e-004
,,,-6.50000000e-010,-8.00000131e-004
,,,-6.25000000e-010,-9.14062639e-004
,,,-6.00000000e-010,-1.05000015e-003
,,,-5.75000000e-010,-1.20468766e-003
,,,-5.50000000e-010,-1.36875017e-003
,,,-5.25000000e-010,-1.53750018e-003
,,,-5.00000000e-010,-1.70156269e-003
,,,-4.75000000e-010,-1.85625021e-003
,,,-4.50000000e-010,-2.00000022e-003
,,,-4.25000000e-010,-2.14843773e-003
,,,-4.00000000e-010,-2.29218774e-003
,,,-3.75000000e-010,-2.43281275e-003
,,,-3.50000000e-010,-2.57343776e-003
,,,-3.25000000e-010,-2.71875027e-003
,,,-3.00000000e-010,-2.86875028e-003
,,,-2.75000000e-010,-3.02812529e-003
,,,-2.50000000e-010,-3.20000030e-003
,,,-2.25000000e-010,-3.38906281e-003
,,,-2.00000000e-010,-3.59218783e-003
,,,-1.75000000e-010,-3.80781284e-003
,,,-1.50000000e-010,-4.02656286e-003
,,,-1.25000000e-010,-4.24218787e-003
,,,-1.00000000e-010,-4.44531289e-003
,,,-7.50000000e-011,-4.63281290e-003
,,,-5.00000000e-011,-4.80000041e-003
,,,-2.50000000e-011,-4.94218792e-003
,,,0.00000000e+000,-5.07656293e-003
,,,2.50000000e-011,-5.20625044e-003
,,,5.00000000e-011,-5.33750045e-003
,,,7.50000000e-011,-5.47656296e-003
,,,1.00000000e-010,-5.63125047e-003
,,,1.25000000e-010,-5.80312549e-003
,,,1.50000000e-010,-6.00000050e-003
,,,1.75000000e-010,-6.20312551e-003
,,,2.00000000e-010,-6.43437553e-003
,,,2.25000000e-010,-6.68750055e-003
,,,2.50000000e-010,-6.95781307e-003
,,,2.75000000e-010,-7.23437559e-003
,,,3.00000000e-010,-7.50781311e-003
,,,3.25000000e-010,-7.76562562e-003
,,,3.50000000e-010,-8.00000064e-003
,,,3.75000000e-010,-8.15937565e-003
,,,4.00000000e-010,-8.28437566e-003
,,,4.25000000e-010,-8.37656317e-003
,,,4.50000000e-010,-8.43437567e-003
,,,4.75000000e-010,-8.46093817e-003
,,,5.00000000e-010,-8.46250067e-003
,,,5.25000000e-010,-8.43906317e-003
,,,5.50000000e-010,-8.40000067e-003
,,,5.75000000e-010,-8.30468816e-003
,,,6.00000000e-010,-8.21093816e-003
,,,6.25000000e-010,-8.12656315e-003
,,,6.50000000e-010,-8.05781314e-003
,,,6.75000000e-010,-8.00937564e-003
,,,7.00000000e-010,-7.98281314e-003
,,,7.25000000e-010,-7.97968814e-003
,,,7.50000000e-010,-8.00000064e-003
,,,7.75000000e-010,-7.99843814e-003
,,,8.00000000e-010,-8.01875064e-003
,,,8.25000000e-010,-8.05781314e-003
,,,8.50000000e-010,-8.11406315e-003
,,,8.75000000e-010,-8.18281315e-003
,,,9.00000000e-010,-8.25781316e-003
,,,9.25000000e-010,-8.33281316e-003
,,,9.50000000e-010,-8.40000067e-003
,,,9.75000000e-010,-8.40468817e-003
,,,1.00000000e-009,-8.38593817e-003
,,,1.02500000e-009,-8.33750066e-003
,,,1.05000000e-009,-8.25625066e-003
,,,1.07500000e-009,-8.14218815e-003
,,,1.10000000e-009,-7.99375064e-003
,,,1.12500000e-009,-7.81250063e-003
,,,1.15000000e-009,-7.60000061e-003
,,,1.17500000e-009,-7.32656309e-003
,,,1.20000000e-009,-7.03750057e-003
,,,1.22500000e-009,-6.74531305e-003
,,,1.25000000e-009,-6.46093803e-003
,,,1.27500000e-009,-6.19531301e-003
,,,1.30000000e-009,-5.95937550e-003
,,,1.32500000e-009,-5.76093798e-003
,,,1.35000000e-009,-5.60000047e-003
,,,1.37500000e-009,-5.46406296e-003
,,,1.40000000e-009,-5.35625045e-003
,,,1.42500000e-009,-5.26875045e-003
,,,1.45000000e-009,-5.19218794e-003
,,,1.47500000e-009,-5.11562544e-003
,,,1.50000000e-009,-5.02968793e-003
,,,1.52500000e-009,-4.92656292e-003
,,,1.55000000e-009,-4.80000041e-003
,,,1.57500000e-009,-4.63906290e-003
,,,1.60000000e-009,-4.45000039e-003
,,,1.62500000e-009,-4.23593787e-003
,,,1.65000000e-009,-4.00937536e-003
,,,1.67500000e-009,-3.78125034e-003
,,,1.70000000e-009,-3.56406283e-003
,,,1.72500000e-009,-3.36718781e-003
,,,1.75000000e-009,-3.20000030e-003
,,,1.77500000e-009,-3.06562529e-003
,,,1.80000000e-009,-2.95468778e-003
,,,1.82500000e-009,-2.86250028e-003
,,,1.85000000e-009,-2.78125027e-003
,,,1.87500000e-009,-2.70156277e-003
,,,1.90000000e-009,-2.61562526e-003
,,,1.92500000e-009,-2.51562525e-003
,,,1.95000000e-009,-2.40000024e-003
,,,1.97500000e-009,-2.27343774e-003
,,,2.00000000e-009,-2.12031272e-003
,,,2.02500000e-009,-1.95000021e-003
,,,2.05000000e-009,-1.77031270e-003
,,,2.07500000e-009,-1.59375019e-003
,,,2.10000000e-009,-1.43281268e-003
,,,2.12500000e-009,-1.29843767e-003
,,,2.15000000e-009,-1.20000016e-003
,,,2.17500000e-009,-1.15468766e-003
,,,2.20000000e-009,-1.13906266e-003
,,,2.22500000e-009,-1.14375016e-003
,,,2.25000000e-009,-1.16406266e-003
,,,2.27500000e-009,-1.18750016e-003
,,,2.30000000e-009,-1.20781266e-003
,,,2.32500000e-009,-1.21250016e-003
,,,2.35000000e-009,-1.20000016e-003
,,,2.37500000e-009,-1.17031266e-003
,,,2.40000000e-009,-1.10937515e-003
,,,2.42500000e-009,-1.01875015e-003
,,,2.45000000e-009,-9.04687639e-004
,,,2.47500000e-009,-7.78125130e-004
,,,2.50000000e-009,-6.45312620e-004
,,,2.52500000e-009,-5.15625111e-004
,,,2.55000000e-009,-4.00000103e-004
,,,2.57500000e-009,-3.14062597e-004
,,,2.60000000e-009,-2.42187592e-004
,,,2.62500000e-009,-1.85937588e-004
,,,2.65000000e-009,-1.39062584e-004
,,,2.67500000e-009,-1.01562582e-004
,,,2.70000000e-009,-6.87500794e-005
,,,2.72500000e-009,-3.59375770e-005
,,,2.75000000e-009,-7.45058060e-011
,,,2.77500000e-009,3.28124278e-005
,,,2.80000000e-009,7.65624309e-005
,,,2.82500000e-009,1.28124935e-004
,,,2.85000000e-009,1.87499939e-004
,,,2.87500000e-009,2.48437443e-004
,,,2.90000000e-009,3.06249947e-004
,,,2.92500000e-009,3.59374951e-004
,,,2.95000000e-009,3.99999954e-004
,,,2.97500000e-009,4.20312455e-004
,,,3.00000000e-009,4.29687456e-004
,,,3.02500000e-009,4.29687456e-004
,,,3.05000000e-009,4.26562456e-004
,,,3.07500000e-009,4.18749955e-004
,,,3.10000000e-009,4.10937455e-004
,,,3.12500000e-009,4.04687454e-004
,,,3.15000000e-009,3.99999954e-004
,,,3.17500000e-009,3.96874954e-004
,,,3.20000000e-009,3.98437454e-004
,,,3.22500000e-009,4.04687454e-004
,,,3.25000000e-009,4.10937455e-004
,,,3.27500000e-009,4.17187455e-004
,,,3.30000000e-009,4.17187455e-004
,,,3.32500000e-009,4.12499955e-004
,,,3.35000000e-009,3.99999954e-004
,,,3.37500000e-009,3.78124952e-004
,,,3.40000000e-009,3.56249951e-004
,,,3.42500000e-009,3.35937449e-004
,,,3.45000000e-009,3.21874948e-004
,,,3.47500000e-009,3.18749948e-004
,,,3.50000000e-009,3.31249949e-004
,,,3.52500000e-009,3.57812451e-004
,,,3.55000000e-009,3.99999954e-004
,,,3.57500000e-009,4.54687458e-004
,,,3.60000000e-009,5.20312462e-004
,,,3.62500000e-009,5.89062467e-004
,,,3.65000000e-009,6.59374972e-004
,,,3.67500000e-009,7.20312476e-004
,,,3.70000000e-009,7.67187480e-004
,,,3.72500000e-009,7.95312482e-004
,,,3.75000000e-009,7.99999982e-004
,,,3.77500000e-009,7.79687481e-004
,,,3.80000000e-009,7.39062478e-004
,,,3.82500000e-009,6.81249974e-004
,,,3.85000000e-009,6.15624969e-004
,,,3.87500000e-009,5.48437464e-004
,,,3.90000000e-009,4.84374960e-004
,,,3.92500000e-009,4.34374956e-004
,,,3.95000000e-009,3.99999954e-004
,,,3.97500000e-009,3.93749953e-004
,,,4.00000000e-009,4.09374954e-004
,,,4.02500000e-009,4.46874957e-004
,,,4.05000000e-009,5.03124961e-004
,,,4.07500000e-009,5.73437466e-004
,,,4.10000000e-009,6.49999972e-004
,,,4.12500000e-009,7.28124977e-004
,,,4.15000000e-009,7.99999982e-004
,,,4.17500000e-009,8.60937486e-004
,,,4.20000000e-009,9.04687490e-004
,,,4.22500000e-009,9.29687491e-004
,,,4.25000000e-009,9.37499992e-004
,,,4.27500000e-009,9.26562491e-004
,,,4.30000000e-009,8.98437489e-004
,,,4.32500000e-009,8.54687486e-004
,,,4.35000000e-009,7.99999982e-004
,,,4.37500000e-009,7.35937478e-004
,,,4.40000000e-009,6.67187473e-004
,,,4.42500000e-009,6.01562468e-004
,,,4.45000000e-009,5.39062464e-004
,,,4.47500000e-009,4.85937460e-004
,,,4.50000000e-009,4.43749957e-004
,,,4.52500000e-009,4.14062455e-004
,,,4.55000000e-009,3.99999954e-004
,,,4.57500000e-009,4.03124954e-004
,,,4.60000000e-009,4.21874955e-004
,,,4.62500000e-009,4.56249958e-004
,,,4.65000000e-009,5.04687461e-004
,,,4.67500000e-009,5.67187466e-004
,,,4.70000000e-009,6.37499971e-004
,,,4.72500000e-009,7.17187476e-004
,,,4.75000000e-009,7.99999982e-004
,,,4.77500000e-009,8.85937488e-004
,,,4.80000000e-009,9.67187494e-004
,,,4.82500000e-009,1.04062500e-003
,,,4.85000000e-009,1.10312500e-003
,,,4.87500000e-009,1.15156251e-003
,,,4.90000000e-009,1.18593751e-003
,,,4.92500000e-009,1.20156251e-003
,,,4.95000000e-009,1.20000001e-003
,,,4.97500000e-009,1.17812501e-003
,,,5.00000000e-009,1.14218751e-003
,,,5.02500000e-009,1.09531250e-003
,,,5.05000000e-009,1.04062500e-003
,,,5.07500000e-009,9.79687495e-004
,,,5.10000000e-009,9.18749991e-004
,,,5.12500000e-009,8.59374986e-004
,,,5.15000000e-009,7.99999982e-004
,,,5.17500000e-009,7.48437478e-004
,,,5.20000000e-009,6.99999975e-004
,,,5.22500000e-009,6.53124972e-004
,,,5.25000000e-009,6.07812469e-004
,,,5.27500000e-009,5.60937465e-004
,,,5.30000000e-009,5.10937462e-004
,,,5.32500000e-009,4.56249958e-004
,,,5.35000000e-009,3.99999954e-004
,,,5.37500000e-009,3.46874950e-004
,,,5.40000000e-009,2.98437447e-004
,,,5.42500000e-009,2.59374944e-004
,,,5.45000000e-009,2.37499942e-004
,,,5.47500000e-009,2.35937442e-004
,,,5.50000000e-009,2.62499944e-004
,,,5.52500000e-009,3.17187448e-004
,,,5.55000000e-009,3.99999954e-004
,,,5.57500000e-009,5.10937462e-004
,,,5.60000000e-009,6.39062471e-004
,,,5.62500000e-009,7.73437480e-004
,,,5.65000000e-009,9.04687490e-004
,,,5.67500000e-009,1.02187500e-003
,,,5.70000000e-009,1.11562500e-003
,,,5.72500000e-009,1.17656251e-003
,,,5.75000000e-009,1.20000001e-003
,,,5.77500000e-009,1.18281251e-003
,,,5.80000000e-009,1.13437501e-003
,,,5.82500000e-009,1.06406250e-003
,,,5.85000000e-009,9.82812495e-004
,,,5.87500000e-009,9.06249990e-004
,,,5.90000000e-009,8.43749985e-004
,,,5.92500000e-009,8.06249983e-004
,,,5.95000000e-009,7.99999982e-004
,,,5.97500000e-009,8.26562484e-004
,,,6.00000000e-009,8.78124988e-004
,,,6.02500000e-009,9.51562493e-004
,,,6.05000000e-009,1.03281250e-003
,,,6.07500000e-009,1.10937500e-003
