RawData/SinglePhotoelectron/R6_2pt2D_5mV/wave021_Ch4.csv

"Record Length",1000,"Points",-7.72500000e-009,1.12343751e-003
"Sample Interval",2.50000000e-011,s,-7.70000000e-009,1.05781250e-003
"Trigger Point",309,"Samples",-7.67500000e-009,9.84374995e-004
"Trigger Time",2.25494118e-011,s,-7.65000000e-009,9.12499990e-004
"",,,-7.62500000e-009,8.48437486e-004
"Horizontal Offset",-7.72500000e-009,s,-7.60000000e-009,7.99999982e-004
,,,-7.57500000e-009,7.74999980e-004
,,,-7.55000000e-009,7.65624980e-004
,,,-7.52500000e-009,7.71874980e-004
,,,-7.50000000e-009,7.85937481e-004
,,,-7.47500000e-009,8.01562482e-004
,,,-7.45000000e-009,8.12499983e-004
,,,-7.42500000e-009,8.12499983e-004
,,,-7.40000000e-009,7.99999982e-004
,,,-7.37500000e-009,7.74999980e-004
,,,-7.35000000e-009,7.39062478e-004
,,,-7.32500000e-009,7.03124975e-004
,,,-7.30000000e-009,6.74999973e-004
,,,-7.27500000e-009,6.62499972e-004
,,,-7.25000000e-009,6.76562473e-004
,,,-7.22500000e-009,7.21874977e-004
,,,-7.20000000e-009,7.99999982e-004
,,,-7.17500000e-009,9.12499990e-004
,,,-7.15000000e-009,1.04531250e-003
,,,-7.12500000e-009,1.18906251e-003
,,,-7.10000000e-009,1.32812502e-003
,,,-7.07500000e-009,1.45156253e-003
,,,-7.05000000e-009,1.54531253e-003
,,,-7.02500000e-009,1.59687504e-003
,,,-7.00000000e-009,1.60000004e-003
,,,-6.97500000e-009,1.55000004e-003
,,,-6.95000000e-009,1.45781253e-003
,,,-6.92500000e-009,1.33593752e-003
,,,-6.90000000e-009,1.19843751e-003
,,,-6.87500000e-009,1.06250000e-003
,,,-6.85000000e-009,9.42187492e-004
,,,-6.82500000e-009,8.51562486e-004
,,,-6.80000000e-009,7.99999982e-004
,,,-6.77500000e-009,7.92187482e-004
,,,-6.75000000e-009,8.24999984e-004
,,,-6.72500000e-009,8.87499988e-004
,,,-6.70000000e-009,9.70312494e-004
,,,-6.67500000e-009,1.05625000e-003
,,,-6.65000000e-009,1.13281251e-003
,,,-6.62500000e-009,1.18437501e-003
,,,-6.60000000e-009,1.20000001e-003
,,,-6.57500000e-009,1.17343751e-003
,,,-6.55000000e-009,1.10625000e-003
,,,-6.52500000e-009,1.00625000e-003
,,,-6.50000000e-009,8.81249988e-004
,,,-6.47500000e-009,7.45312478e-004
,,,-6.45000000e-009,6.10937469e-004
,,,-6.42500000e-009,4.92187460e-004
,,,-6.40000000e-009,3.99999954e-004
,,,-6.37500000e-009,3.46874950e-004
,,,-6.35000000e-009,3.31249949e-004
,,,-6.32500000e-009,3.54687451e-004
,,,-6.30000000e-009,4.10937455e-004
,,,-6.27500000e-009,4.93749960e-004
,,,-6.25000000e-009,5.93749968e-004
,,,-6.22500000e-009,6.98437475e-004
,,,-6.20000000e-009,7.99999982e-004
,,,-6.17500000e-009,8.87499988e-004
,,,-6.15000000e-009,9.51562493e-004
,,,-6.12500000e-009,9.89062496e-004
,,,-6.10000000e-009,9.98437496e-004
,,,-6.07500000e-009,9.81249995e-004
,,,-6.05000000e-009,9.40624992e-004
,,,-6.02500000e-009,8.78124988e-004
,,,-6.00000000e-009,7.99999982e-004
,,,-5.97500000e-009,7.17187476e-004
,,,-5.95000000e-009,6.31249970e-004
,,,-5.92500000e-009,5.49999964e-004
,,,-5.90000000e-009,4.81249960e-004
,,,-5.87500000e-009,4.28124956e-004
,,,-5.85000000e-009,3.96874954e-004
,,,-5.82500000e-009,3.87499953e-004
,,,-5.80000000e-009,3.99999954e-004
,,,-5.77500000e-009,4.37499956e-004
,,,-5.75000000e-009,4.90624960e-004
,,,-5.72500000e-009,5.54687465e-004
,,,-5.70000000e-009,6.23437470e-004
,,,-5.67500000e-009,6.87499974e-004
,,,-5.65000000e-009,7.42187478e-004
,,,-5.62500000e-009,7.81249981e-004
,,,-5.60000000e-009,7.99999982e-004
,,,-5.57500000e-009,7.99999982e-004
,,,-5.55000000e-009,7.74999980e-004
,,,-5.52500000e-009,7.31249977e-004
,,,-5.50000000e-009,6.71874973e-004
,,,-5.47500000e-009,6.03124968e-004
,,,-5.45000000e-009,5.31249963e-004
,,,-5.42500000e-009,4.62499958e-004
,,,-5.40000000e-009,3.99999954e-004
,,,-5.37500000e-009,3.54687451e-004
,,,-5.35000000e-009,3.24999948e-004
,,,-5.32500000e-009,3.10937448e-004
,,,-5.30000000e-009,3.12499948e-004
,,,-5.27500000e-009,3.24999948e-004
,,,-5.25000000e-009,3.46874950e-004
,,,-5.22500000e-009,3.73437452e-004
,,,-5.20000000e-009,3.99999954e-004
,,,-5.17500000e-009,4.28124956e-004
,,,-5.15000000e-009,4.48437457e-004
,,,-5.12500000e-009,4.60937458e-004
,,,-5.10000000e-009,4.64062458e-004
,,,-5.07500000e-009,4.57812458e-004
,,,-5.05000000e-009,4.43749957e-004
,,,-5.02500000e-009,4.24999956e-004
,,,-5.00000000e-009,3.99999954e-004
,,,-4.97500000e-009,3.79687452e-004
,,,-4.95000000e-009,3.60937451e-004
,,,-4.92500000e-009,3.45312450e-004
,,,-4.90000000e-009,3.37499949e-004
,,,-4.87500000e-009,3.37499949e-004
,,,-4.85000000e-009,3.48437450e-004
,,,-4.82500000e-009,3.68749952e-004
,,,-4.80000000e-009,3.99999954e-004
,,,-4.77500000e-009,4.43749957e-004
,,,-4.75000000e-009,4.93749960e-004
,,,-4.72500000e-009,5.49999964e-004
,,,-4.70000000e-009,6.07812469e-004
,,,-4.67500000e-009,6.64062472e-004
,,,-4.65000000e-009,7.17187476e-004
,,,-4.62500000e-009,7.64062480e-004
,,,-4.60000000e-009,7.99999982e-004
,,,-4.57500000e-009,8.26562484e-004
,,,-4.55000000e-009,8.40624985e-004
,,,-4.52500000e-009,8.45312485e-004
,,,-4.50000000e-009,8.42187485e-004
,,,-4.47500000e-009,8.32812484e-004
,,,-4.45000000e-009,8.21874984e-004
,,,-4.42500000e-009,8.10937483e-004
,,,-4.40000000e-009,7.99999982e-004
,,,-4.37500000e-009,7.95312482e-004
,,,-4.35000000e-009,7.92187482e-004
,,,-4.32500000e-009,7.95312482e-004
,,,-4.30000000e-009,7.98437482e-004
,,,-4.27500000e-009,8.03124982e-004
,,,-4.25000000e-009,8.06249983e-004
,,,-4.22500000e-009,8.04687482e-004
,,,-4.20000000e-009,7.99999982e-004
,,,-4.17500000e-009,7.89062481e-004
,,,-4.15000000e-009,7.76562480e-004
,,,-4.12500000e-009,7.64062480e-004
,,,-4.10000000e-009,7.54687479e-004
,,,-4.07500000e-009,7.53124979e-004
,,,-4.05000000e-009,7.59374979e-004
,,,-4.02500000e-009,7.74999980e-004
,,,-4.00000000e-009,7.99999982e-004
,,,-3.97500000e-009,8.29687484e-004
,,,-3.95000000e-009,8.60937486e-004
,,,-3.92500000e-009,8.87499988e-004
,,,-3.90000000e-009,9.06249990e-004
,,,-3.87500000e-009,9.10937490e-004
,,,-3.85000000e-009,8.95312489e-004
,,,-3.82500000e-009,8.59374986e-004
,,,-3.80000000e-009,7.99999982e-004
,,,-3.77500000e-009,7.20312476e-004
,,,-3.75000000e-009,6.31249970e-004
,,,-3.72500000e-009,5.39062464e-004
,,,-3.70000000e-009,4.57812458e-004
,,,-3.67500000e-009,3.93749953e-004
,,,-3.65000000e-009,3.59374951e-004
,,,-3.62500000e-009,3.60937451e-004
,,,-3.60000000e-009,3.99999954e-004
,,,-3.57500000e-009,4.81249960e-004
,,,-3.55000000e-009,5.90624967e-004
,,,-3.52500000e-009,7.18749976e-004
,,,-3.50000000e-009,8.54687486e-004
,,,-3.47500000e-009,9.84374995e-004
,,,-3.45000000e-009,1.09218750e-003
,,,-3.42500000e-009,1.16718751e-003
,,,-3.40000000e-009,1.20000001e-003
,,,-3.37500000e-009,1.18593751e-003
,,,-3.35000000e-009,1.12812501e-003
,,,-3.32500000e-009,1.03281250e-003
,,,-3.30000000e-009,9.12499990e-004
,,,-3.27500000e-009,7.74999980e-004
,,,-3.25000000e-009,6.37499971e-004
,,,-3.22500000e-009,5.09374962e-004
,,,-3.20000000e-009,3.99999954e-004
,,,-3.17500000e-009,3.26562449e-004
,,,-3.15000000e-009,2.82812446e-004
,,,-3.12500000e-009,2.70312445e-004
,,,-3.10000000e-009,2.79687445e-004
,,,-3.07500000e-009,3.06249947e-004
,,,-3.05000000e-009,3.40624950e-004
,,,-3.02500000e-009,3.73437452e-004
,,,-3.00000000e-009,3.99999954e-004
,,,-2.97500000e-009,4.20312455e-004
,,,-2.95000000e-009,4.26562456e-004
,,,-2.92500000e-009,4.21874955e-004
,,,-2.90000000e-009,4.09374954e-004
,,,-2.87500000e-009,3.95312453e-004
,,,-2.85000000e-009,3.85937453e-004
,,,-2.82500000e-009,3.85937453e-004
,,,-2.80000000e-009,3.99999954e-004
,,,-2.77500000e-009,4.34374956e-004
,,,-2.75000000e-009,4.81249960e-004
,,,-2.72500000e-009,5.39062464e-004
,,,-2.70000000e-009,6.03124968e-004
,,,-2.67500000e-009,6.65624973e-004
,,,-2.65000000e-009,7.23437477e-004
,,,-2.62500000e-009,7.68749980e-004
,,,-2.60000000e-009,7.99999982e-004
,,,-2.57500000e-009,8.14062483e-004
,,,-2.55000000e-009,8.15624983e-004
,,,-2.52500000e-009,8.04687482e-004
,,,-2.50000000e-009,7.90624981e-004
,,,-2.47500000e-009,7.76562480e-004
,,,-2.45000000e-009,7.71874980e-004
,,,-2.42500000e-009,7.78124981e-004
,,,-2.40000000e-009,7.99999982e-004
,,,-2.37500000e-009,8.40624985e-004
,,,-2.35000000e-009,8.95312489e-004
,,,-2.32500000e-009,9.57812493e-004
,,,-2.30000000e-009,1.02500000e-003
,,,-2.27500000e-009,1.08750000e-003
,,,-2.25000000e-009,1.14218751e-003
,,,-2.22500000e-009,1.18125001e-003
,,,-2.20000000e-009,1.20000001e-003
,,,-2.17500000e-009,1.18750001e-003
,,,-2.15000000e-009,1.15156251e-003
,,,-2.12500000e-009,1.10000000e-003
,,,-2.10000000e-009,1.03593750e-003
,,,-2.07500000e-009,9.68749994e-004
,,,-2.05000000e-009,9.03124989e-004
,,,-2.02500000e-009,8.45312485e-004
,,,-2.00000000e-009,7.99999982e-004
,,,-1.97500000e-009,7.67187480e-004
,,,-1.95000000e-009,7.49999979e-004
,,,-1.92500000e-009,7.46874978e-004
,,,-1.90000000e-009,7.54687479e-004
,,,-1.87500000e-009,7.68749980e-004
,,,-1.85000000e-009,7.82812481e-004
,,,-1.82500000e-009,7.95312482e-004
,,,-1.80000000e-009,7.99999982e-004
,,,-1.77500000e-009,7.89062481e-004
,,,-1.75000000e-009,7.70312480e-004
,,,-1.72500000e-009,7.48437478e-004
,,,-1.70000000e-009,7.32812477e-004
,,,-1.67500000e-009,7.24999977e-004
,,,-1.65000000e-009,7.32812477e-004
,,,-1.62500000e-009,7.57812479e-004
,,,-1.60000000e-009,7.99999982e-004
,,,-1.57500000e-009,8.43749985e-004
,,,-1.55000000e-009,8.90624989e-004
,,,-1.52500000e-009,9.34374992e-004
,,,-1.50000000e-009,9.64062494e-004
,,,-1.47500000e-009,9.73437494e-004
,,,-1.45000000e-009,9.53124993e-004
,,,-1.42500000e-009,8.95312489e-004
,,,-1.40000000e-009,7.99999982e-004
,,,-1.37500000e-009,6.53124972e-004
,,,-1.35000000e-009,4.76562459e-004
,,,-1.32500000e-009,2.84374946e-004
,,,-1.30000000e-009,9.06249319e-005
,,,-1.27500000e-009,-8.75000807e-005
,,,-1.25000000e-009,-2.35937591e-004
,,,-1.22500000e-009,-3.42187599e-004
,,,-1.20000000e-009,-4.00000103e-004
,,,-1.17500000e-009,-4.15625104e-004
,,,-1.15000000e-009,-3.90625102e-004
,,,-1.12500000e-009,-3.31250098e-004
,,,-1.10000000e-009,-2.50000092e-004
,,,-1.07500000e-009,-1.62500086e-004
,,,-1.05000000e-009,-8.28125804e-005
,,,-1.02500000e-009,-2.34375762e-005
,,,-1.00000000e-009,-7.45058060e-011
,,,-9.75000000e-010,-3.90625773e-005
,,,-9.50000000e-010,-1.26562583e-004
,,,-9.25000000e-010,-2.59375093e-004
,,,-9.00000000e-010,-4.26562605e-004
,,,-8.75000000e-010,-6.17187618e-004
,,,-8.50000000e-010,-8.18750132e-004
,,,-8.25000000e-010,-1.01562515e-003
,,,-8.00000000e-010,-1.20000016e-003
,,,-7.75000000e-010,-1.38125017e-003
,,,-7.50000000e-010,-1.53906268e-003
,,,-7.25000000e-010,-1.67187519e-003
,,,-7.00000000e-010,-1.77656270e-003
,,,-6.75000000e-010,-1.85781271e-003
,,,-6.50000000e-010,-1.91875021e-003
,,,-6.25000000e-010,-1.96250021e-003
,,,-6.00000000e-010,-2.00000022e-003
,,,-5.75000000e-010,-2.05000022e-003
,,,-5.50000000e-010,-2.11406272e-003
,,,-5.25000000e-010,-2.19218773e-003
,,,-5.00000000e-010,-2.28750024e-003
,,,-4.75000000e-010,-2.39687524e-003
,,,-4.50000000e-010,-2.52187525e-003
,,,-4.25000000e-010,-2.65625026e-003
,,,-4.00000000e-010,-2.80000027e-003
,,,-3.75000000e-010,-2.95312528e-003
,,,-3.50000000e-010,-3.11562530e-003
,,,-3.25000000e-010,-3.27812531e-003
,,,-3.00000000e-010,-3.44062532e-003
,,,-2.75000000e-010,-3.59687533e-003
,,,-2.50000000e-010,-3.74218784e-003
,,,-2.25000000e-010,-3.87656285e-003
,,,-2.00000000e-010,-4.00000036e-003
,,,-1.75000000e-010,-4.11406287e-003
,,,-1.50000000e-010,-4.23125037e-003
,,,-1.25000000e-010,-4.35312538e-003
,,,-1.00000000e-010,-4.48437539e-003
,,,-7.50000000e-011,-4.63281290e-003
,,,-5.00000000e-011,-4.79843791e-003
,,,-2.50000000e-011,-4.98750043e-003
,,,0.00000000e+000,-5.20000044e-003
,,,2.50000000e-011,-5.41562546e-003
,,,5.00000000e-011,-5.65468797e-003
,,,7.50000000e-011,-5.91250049e-003
,,,1.00000000e-010,-6.18125051e-003
,,,1.25000000e-010,-6.45468803e-003
,,,1.50000000e-010,-6.72187555e-003
,,,1.75000000e-010,-6.97187557e-003
,,,2.00000000e-010,-7.20000058e-003
,,,2.25000000e-010,-7.35781310e-003
,,,2.50000000e-010,-7.48125060e-003
,,,2.75000000e-010,-7.57187561e-003
,,,3.00000000e-010,-7.62968811e-003
,,,3.25000000e-010,-7.65781312e-003
,,,3.50000000e-010,-7.65937562e-003
,,,3.75000000e-010,-7.63750062e-003
,,,4.00000000e-010,-7.60000061e-003
,,,4.25000000e-010,-7.50937561e-003
,,,4.50000000e-010,-7.42031310e-003
,,,4.75000000e-010,-7.33906309e-003
,,,5.00000000e-010,-7.27187559e-003
,,,5.25000000e-010,-7.22187559e-003
,,,5.50000000e-010,-7.19375058e-003
,,,5.75000000e-010,-7.18750058e-003
,,,6.00000000e-010,-7.20000058e-003
,,,6.25000000e-010,-7.18906308e-003
,,,6.50000000e-010,-7.19062558e-003
,,,6.75000000e-010,-7.20156308e-003
,,,7.00000000e-010,-7.21718809e-003
,,,7.25000000e-010,-7.23125059e-003
,,,7.50000000e-010,-7.23593809e-003
,,,7.75000000e-010,-7.22812559e-003
,,,8.00000000e-010,-7.20000058e-003
,,,8.25000000e-010,-7.10937558e-003
,,,8.50000000e-010,-6.99531307e-003
,,,8.75000000e-010,-6.85937556e-003
,,,9.00000000e-010,-6.70468805e-003
,,,9.25000000e-010,-6.53593804e-003
,,,9.50000000e-010,-6.35937552e-003
,,,9.75000000e-010,-6.17968801e-003
,,,1.00000000e-009,-6.00000050e-003
,,,1.02500000e-009,-5.79843798e-003
,,,1.05000000e-009,-5.60781297e-003
,,,1.07500000e-009,-5.42968796e-003
,,,1.10000000e-009,-5.26718795e-003
,,,1.12500000e-009,-5.12343794e-003
,,,1.15000000e-009,-4.99843793e-003
,,,1.17500000e-009,-4.89062542e-003
,,,1.20000000e-009,-4.80000041e-003
,,,1.22500000e-009,-4.70781291e-003
,,,1.25000000e-009,-4.61718790e-003
,,,1.27500000e-009,-4.52656289e-003
,,,1.30000000e-009,-4.43281289e-003
,,,1.32500000e-009,-4.33437538e-003
,,,1.35000000e-009,-4.22968787e-003
,,,1.37500000e-009,-4.11875037e-003
,,,1.40000000e-009,-4.00000036e-003
,,,1.42500000e-009,-3.86718785e-003
,,,1.45000000e-009,-3.72187534e-003
,,,1.47500000e-009,-3.56875033e-003
,,,1.50000000e-009,-3.40781282e-003
,,,1.52500000e-009,-3.24687530e-003
,,,1.55000000e-009,-3.08906279e-003
,,,1.57500000e-009,-2.93906278e-003
,,,1.60000000e-009,-2.80000027e-003
,,,1.62500000e-009,-2.67968776e-003
,,,1.65000000e-009,-2.56718776e-003
,,,1.67500000e-009,-2.46093775e-003
,,,1.70000000e-009,-2.36093774e-003
,,,1.72500000e-009,-2.26718773e-003
,,,1.75000000e-009,-2.17656273e-003
,,,1.77500000e-009,-2.08750022e-003
,,,1.80000000e-009,-2.00000022e-003
,,,1.82500000e-009,-1.92031271e-003
,,,1.85000000e-009,-1.83437520e-003
,,,1.87500000e-009,-1.73906270e-003
,,,1.90000000e-009,-1.63593769e-003
,,,1.92500000e-009,-1.52656268e-003
,,,1.95000000e-009,-1.41718767e-003
,,,1.97500000e-009,-1.30625017e-003
,,,2.00000000e-009,-1.20000016e-003
,,,2.02500000e-009,-1.10625015e-003
,,,2.05000000e-009,-1.01093765e-003
,,,2.07500000e-009,-9.14062639e-004
,,,2.10000000e-009,-8.14062632e-004
,,,2.12500000e-009,-7.10937625e-004
,,,2.15000000e-009,-6.06250117e-004
,,,2.17500000e-009,-5.01562610e-004
,,,2.20000000e-009,-4.00000103e-004
,,,2.22500000e-009,-3.17187597e-004
,,,2.25000000e-009,-2.37500091e-004
,,,2.27500000e-009,-1.64062586e-004
,,,2.30000000e-009,-9.84375815e-005
,,,2.32500000e-009,-4.68750778e-005
,,,2.35000000e-009,-1.09375753e-005
,,,2.37500000e-009,4.68742583e-006
,,,2.40000000e-009,-7.45058060e-011
,,,2.42500000e-009,-3.75000772e-005
,,,2.45000000e-009,-8.59375806e-005
,,,2.47500000e-009,-1.43750085e-004
,,,2.50000000e-009,-2.04687589e-004
,,,2.52500000e-009,-2.65625093e-004
,,,2.55000000e-009,-3.20312597e-004
,,,2.57500000e-009,-3.65625100e-004
,,,2.60000000e-009,-4.00000103e-004
,,,2.62500000e-009,-4.20312604e-004
,,,2.65000000e-009,-4.20312604e-004
,,,2.67500000e-009,-3.95312602e-004
,,,2.70000000e-009,-3.48437599e-004
,,,2.72500000e-009,-2.81250094e-004
,,,2.75000000e-009,-1.96875088e-004
,,,2.77500000e-009,-1.01562582e-004
,,,2.80000000e-009,-7.45058060e-011
,,,2.82500000e-009,9.68749324e-005
,,,2.85000000e-009,1.89062439e-004
,,,2.87500000e-009,2.71874945e-004
,,,2.90000000e-009,3.39062449e-004
,,,2.92500000e-009,3.89062453e-004
,,,2.95000000e-009,4.15624955e-004
,,,2.97500000e-009,4.20312455e-004
,,,3.00000000e-009,3.99999954e-004
,,,3.02500000e-009,3.54687451e-004
,,,3.05000000e-009,2.95312446e-004
,,,3.07500000e-009,2.29687442e-004
,,,3.10000000e-009,1.60937437e-004
,,,3.12500000e-009,9.99999326e-005
,,,3.15000000e-009,4.84374289e-005
,,,3.17500000e-009,1.56249266e-005
,,,3.20000000e-009,-7.45058060e-011
,,,3.22500000e-009,1.09374263e-005
,,,3.25000000e-009,4.06249284e-005
,,,3.27500000e-009,8.90624318e-005
,,,3.30000000e-009,1.51562436e-004
,,,3.32500000e-009,2.18749941e-004
,,,3.35000000e-009,2.87499946e-004
,,,3.37500000e-009,3.48437450e-004
,,,3.40000000e-009,3.99999954e-004
,,,3.42500000e-009,4.39062457e-004
,,,3.45000000e-009,4.60937458e-004
,,,3.47500000e-009,4.68749959e-004
,,,3.50000000e-009,4.65624958e-004
,,,3.52500000e-009,4.53124958e-004
,,,3.55000000e-009,4.35937456e-004
,,,3.57500000e-009,4.17187455e-004
,,,3.60000000e-009,3.99999954e-004
,,,3.62500000e-009,3.87499953e-004
,,,3.65000000e-009,3.81249952e-004
,,,3.67500000e-009,3.81249952e-004
,,,3.70000000e-009,3.85937453e-004
,,,3.72500000e-009,3.92187453e-004
,,,3.75000000e-009,3.98437454e-004
,,,3.77500000e-009,4.01562454e-004
,,,3.80000000e-009,3.99999954e-004
,,,3.82500000e-009,3.93749953e-004
,,,3.85000000e-009,3.82812453e-004
,,,3.87500000e-009,3.71874952e-004
,,,3.90000000e-009,3.60937451e-004
,,,3.92500000e-009,3.56249951e-004
,,,3.95000000e-009,3.60937451e-004
,,,3.97500000e-009,3.74999952e-004
,,,4.00000000e-009,3.99999954e-004
,,,4.02500000e-009,4.39062457e-004
,,,4.05000000e-009,4.87499960e-004
,,,4.07500000e-009,5.43749964e-004
,,,4.10000000e-009,6.03124968e-004
,,,4.12500000e-009,6.60937472e-004
,,,4.15000000e-009,7.17187476e-004
,,,4.17500000e-009,7.64062480e-004
,,,4.20000000e-009,7.99999982e-004
,,,4.22500000e-009,8.18749983e-004
,,,4.25000000e-009,8.26562484e-004
,,,4.27500000e-009,8.24999984e-004
,,,4.30000000e-009,8.17187483e-004
,,,4.32500000e-009,8.09374983e-004
,,,4.35000000e-009,8.01562482e-004
,,,4.37500000e-009,7.98437482e-004
,,,4.40000000e-009,7.99999982e-004
,,,4.42500000e-009,8.07812483e-004
,,,4.45000000e-009,8.20312484e-004
,,,4.47500000e-009,8.34374985e-004
,,,4.50000000e-009,8.46874985e-004
,,,4.52500000e-009,8.53124986e-004
,,,4.55000000e-009,8.48437486e-004
,,,4.57500000e-009,8.32812484e-004
,,,4.60000000e-009,7.99999982e-004
,,,4.62500000e-009,7.49999979e-004
,,,4.65000000e-009,6.89062474e-004
,,,4.67500000e-009,6.21874970e-004
,,,4.70000000e-009,5.54687465e-004
,,,4.72500000e-009,4.93749960e-004
,,,4.75000000e-009,4.46874957e-004
,,,4.77500000e-009,4.14062455e-004
,,,4.80000000e-009,3.99999954e-004
,,,4.82500000e-009,4.04687454e-004
,,,4.85000000e-009,4.20312455e-004
,,,4.87500000e-009,4.43749957e-004
,,,4.90000000e-009,4.65624958e-004
,,,4.92500000e-009,4.78124959e-004
,,,4.95000000e-009,4.74999959e-004
,,,4.97500000e-009,4.49999957e-004
,,,5.00000000e-009,3.99999954e-004
,,,5.02500000e-009,3.32812449e-004
,,,5.05000000e-009,2.49999943e-004
,,,5.07500000e-009,1.62499937e-004
,,,5.10000000e-009,7.96874311e-005
,,,5.12500000e-009,1.24999264e-005
,,,5.15000000e-009,-2.65625764e-005
,,,5.17500000e-009,-3.28125768e-005
,,,5.20000000e-009,-7.45058060e-011
,,,5.22500000e-009,7.65624309e-005
,,,5.25000000e-009,1.84374939e-004
,,,5.27500000e-009,3.12499948e-004
,,,5.30000000e-009,4.48437457e-004
,,,5.32500000e-009,5.78124966e-004
,,,5.35000000e-009,6.87499974e-004
,,,5.37500000e-009,7.65624980e-004
,,,5.40000000e-009,7.99999982e-004
,,,5.42500000e-009,7.89062481e-004
,,,5.45000000e-009,7.31249977e-004
,,,5.47500000e-009,6.35937471e-004
,,,5.50000000e-009,5.12499962e-004
,,,5.52500000e-009,3.73437452e-004
,,,5.55000000e-009,2.32812442e-004
,,,5.57500000e-009,1.04687433e-004
,,,5.60000000e-009,-7.45058060e-011
,,,5.62500000e-009,-6.40625790e-005
,,,5.65000000e-009,-8.90625808e-005
,,,5.67500000e-009,-7.34375797e-005
,,,5.70000000e-009,-2.34375762e-005
,,,5.72500000e-009,5.78124296e-005
,,,5.75000000e-009,1.62499937e-004
,,,5.77500000e-009,2.79687445e-004
,,,5.80000000e-009,3.99999954e-004
,,,5.82500000e-009,5.17187462e-004
,,,5.85000000e-009,6.20312469e-004
,,,5.87500000e-009,7.04687475e-004
,,,5.90000000e-009,7.68749980e-004
,,,5.92500000e-009,8.07812483e-004
,,,5.95000000e-009,8.26562484e-004
,,,5.97500000e-009,8.21874984e-004
,,,6.00000000e-009,7.99999982e-004
,,,6.02500000e-009,7.60937479e-004
,,,6.05000000e-009,7.09374976e-004
,,,6.07500000e-009,6.53124972e-004
