RawData/SinglePhotoelectron/R6_2pt2D_5mV/wave019_Ch4.csv

"Record Length",1000,"Points",-7.72500000e-009,1.10000000e-003
"Sample Interval",2.50000000e-011,s,-7.70000000e-009,1.07968750e-003
"Trigger Point",309,"Samples",-7.67500000e-009,1.07968750e-003
"Trigger Time",8.36343434e-012,s,-7.65000000e-009,1.09531250e-003
"",,,-7.62500000e-009,1.12343751e-003
"Horizontal Offset",-7.72500000e-009,s,-7.60000000e-009,1.16093751e-003
,,,-7.57500000e-009,1.20000001e-003
,,,-7.55000000e-009,1.23906251e-003
,,,-7.52500000e-009,1.26875002e-003
,,,-7.50000000e-009,1.28906252e-003
,,,-7.47500000e-009,1.29687502e-003
,,,-7.45000000e-009,1.29062502e-003
,,,-7.42500000e-009,1.27187502e-003
,,,-7.40000000e-009,1.24218751e-003
,,,-7.37500000e-009,1.20000001e-003
,,,-7.35000000e-009,1.15000001e-003
,,,-7.32500000e-009,1.09375000e-003
,,,-7.30000000e-009,1.03593750e-003
,,,-7.27500000e-009,9.78124995e-004
,,,-7.25000000e-009,9.24999991e-004
,,,-7.22500000e-009,8.74999987e-004
,,,-7.20000000e-009,8.34374985e-004
,,,-7.17500000e-009,7.99999982e-004
,,,-7.15000000e-009,7.76562480e-004
,,,-7.12500000e-009,7.64062480e-004
,,,-7.10000000e-009,7.57812479e-004
,,,-7.07500000e-009,7.59374979e-004
,,,-7.05000000e-009,7.67187480e-004
,,,-7.02500000e-009,7.78124981e-004
,,,-7.00000000e-009,7.89062481e-004
,,,-6.97500000e-009,7.99999982e-004
,,,-6.95000000e-009,8.15624983e-004
,,,-6.92500000e-009,8.24999984e-004
,,,-6.90000000e-009,8.31249984e-004
,,,-6.87500000e-009,8.31249984e-004
,,,-6.85000000e-009,8.28124984e-004
,,,-6.82500000e-009,8.20312484e-004
,,,-6.80000000e-009,8.10937483e-004
,,,-6.77500000e-009,7.99999982e-004
,,,-6.75000000e-009,7.93749982e-004
,,,-6.72500000e-009,7.89062481e-004
,,,-6.70000000e-009,7.84374981e-004
,,,-6.67500000e-009,7.84374981e-004
,,,-6.65000000e-009,7.84374981e-004
,,,-6.62500000e-009,7.89062481e-004
,,,-6.60000000e-009,7.93749982e-004
,,,-6.57500000e-009,7.99999982e-004
,,,-6.55000000e-009,8.09374983e-004
,,,-6.52500000e-009,8.17187483e-004
,,,-6.50000000e-009,8.21874984e-004
,,,-6.47500000e-009,8.24999984e-004
,,,-6.45000000e-009,8.23437484e-004
,,,-6.42500000e-009,8.18749983e-004
,,,-6.40000000e-009,8.10937483e-004
,,,-6.37500000e-009,7.99999982e-004
,,,-6.35000000e-009,7.92187482e-004
,,,-6.32500000e-009,7.82812481e-004
,,,-6.30000000e-009,7.73437480e-004
,,,-6.27500000e-009,7.68749980e-004
,,,-6.25000000e-009,7.67187480e-004
,,,-6.22500000e-009,7.70312480e-004
,,,-6.20000000e-009,7.81249981e-004
,,,-6.17500000e-009,7.99999982e-004
,,,-6.15000000e-009,8.28124984e-004
,,,-6.12500000e-009,8.65624987e-004
,,,-6.10000000e-009,9.09374990e-004
,,,-6.07500000e-009,9.60937494e-004
,,,-6.05000000e-009,1.01875000e-003
,,,-6.02500000e-009,1.07968750e-003
,,,-6.00000000e-009,1.14062501e-003
,,,-5.97500000e-009,1.20000001e-003
,,,-5.95000000e-009,1.25312501e-003
,,,-5.92500000e-009,1.29375002e-003
,,,-5.90000000e-009,1.32343752e-003
,,,-5.87500000e-009,1.33593752e-003
,,,-5.85000000e-009,1.32968752e-003
,,,-5.82500000e-009,1.30468752e-003
,,,-5.80000000e-009,1.26093751e-003
,,,-5.77500000e-009,1.20000001e-003
,,,-5.75000000e-009,1.12500001e-003
,,,-5.72500000e-009,1.04218750e-003
,,,-5.70000000e-009,9.62499994e-004
,,,-5.67500000e-009,8.89062488e-004
,,,-5.65000000e-009,8.32812484e-004
,,,-5.62500000e-009,7.96874982e-004
,,,-5.60000000e-009,7.85937481e-004
,,,-5.57500000e-009,7.99999982e-004
,,,-5.55000000e-009,8.40624985e-004
,,,-5.52500000e-009,8.98437489e-004
,,,-5.50000000e-009,9.68749994e-004
,,,-5.47500000e-009,1.04218750e-003
,,,-5.45000000e-009,1.10937500e-003
,,,-5.42500000e-009,1.16250001e-003
,,,-5.40000000e-009,1.19375001e-003
,,,-5.37500000e-009,1.20000001e-003
,,,-5.35000000e-009,1.17968751e-003
,,,-5.32500000e-009,1.13437501e-003
,,,-5.30000000e-009,1.07187500e-003
,,,-5.27500000e-009,9.99999996e-004
,,,-5.25000000e-009,9.29687491e-004
,,,-5.22500000e-009,8.67187487e-004
,,,-5.20000000e-009,8.21874984e-004
,,,-5.17500000e-009,7.99999982e-004
,,,-5.15000000e-009,8.04687482e-004
,,,-5.12500000e-009,8.35937485e-004
,,,-5.10000000e-009,8.85937488e-004
,,,-5.07500000e-009,9.53124993e-004
,,,-5.05000000e-009,1.02656250e-003
,,,-5.02500000e-009,1.09687500e-003
,,,-5.00000000e-009,1.15781251e-003
,,,-4.97500000e-009,1.20000001e-003
,,,-4.95000000e-009,1.22031251e-003
,,,-4.92500000e-009,1.21406251e-003
,,,-4.90000000e-009,1.18125001e-003
,,,-4.87500000e-009,1.12656251e-003
,,,-4.85000000e-009,1.05468750e-003
,,,-4.82500000e-009,9.71874994e-004
,,,-4.80000000e-009,8.84374988e-004
,,,-4.77500000e-009,7.99999982e-004
,,,-4.75000000e-009,7.31249977e-004
,,,-4.72500000e-009,6.76562473e-004
,,,-4.70000000e-009,6.43749971e-004
,,,-4.67500000e-009,6.32812470e-004
,,,-4.65000000e-009,6.45312471e-004
,,,-4.62500000e-009,6.79687474e-004
,,,-4.60000000e-009,7.32812477e-004
,,,-4.57500000e-009,7.99999982e-004
,,,-4.55000000e-009,8.82812488e-004
,,,-4.52500000e-009,9.67187494e-004
,,,-4.50000000e-009,1.04843750e-003
,,,-4.47500000e-009,1.11875000e-003
,,,-4.45000000e-009,1.17343751e-003
,,,-4.42500000e-009,1.20625001e-003
,,,-4.40000000e-009,1.21562501e-003
,,,-4.37500000e-009,1.20000001e-003
,,,-4.35000000e-009,1.15937501e-003
,,,-4.32500000e-009,1.10000000e-003
,,,-4.30000000e-009,1.02968750e-003
,,,-4.27500000e-009,9.56249993e-004
,,,-4.25000000e-009,8.90624989e-004
,,,-4.22500000e-009,8.37499985e-004
,,,-4.20000000e-009,8.06249983e-004
,,,-4.17500000e-009,7.99999982e-004
,,,-4.15000000e-009,8.20312484e-004
,,,-4.12500000e-009,8.62499987e-004
,,,-4.10000000e-009,9.23437491e-004
,,,-4.07500000e-009,9.92187496e-004
,,,-4.05000000e-009,1.06250000e-003
,,,-4.02500000e-009,1.12343751e-003
,,,-4.00000000e-009,1.17187501e-003
,,,-3.97500000e-009,1.20000001e-003
,,,-3.95000000e-009,1.20781251e-003
,,,-3.92500000e-009,1.19687501e-003
,,,-3.90000000e-009,1.17656251e-003
,,,-3.87500000e-009,1.15312501e-003
,,,-3.85000000e-009,1.13593751e-003
,,,-3.82500000e-009,1.13437501e-003
,,,-3.80000000e-009,1.15468751e-003
,,,-3.77500000e-009,1.20000001e-003
,,,-3.75000000e-009,1.26718752e-003
,,,-3.72500000e-009,1.35000002e-003
,,,-3.70000000e-009,1.44062503e-003
,,,-3.67500000e-009,1.52812503e-003
,,,-3.65000000e-009,1.60000004e-003
,,,-3.62500000e-009,1.64062504e-003
,,,-3.60000000e-009,1.64375004e-003
,,,-3.57500000e-009,1.60000004e-003
,,,-3.55000000e-009,1.50312503e-003
,,,-3.52500000e-009,1.36406252e-003
,,,-3.50000000e-009,1.19531251e-003
,,,-3.47500000e-009,1.00937500e-003
,,,-3.45000000e-009,8.21874984e-004
,,,-3.42500000e-009,6.49999972e-004
,,,-3.40000000e-009,5.06249961e-004
,,,-3.37500000e-009,3.99999954e-004
,,,-3.35000000e-009,3.45312450e-004
,,,-3.32500000e-009,3.35937449e-004
,,,-3.30000000e-009,3.68749952e-004
,,,-3.27500000e-009,4.35937456e-004
,,,-3.25000000e-009,5.23437463e-004
,,,-3.22500000e-009,6.21874970e-004
,,,-3.20000000e-009,7.17187476e-004
,,,-3.17500000e-009,7.99999982e-004
,,,-3.15000000e-009,8.64062487e-004
,,,-3.12500000e-009,9.03124989e-004
,,,-3.10000000e-009,9.18749991e-004
,,,-3.07500000e-009,9.12499990e-004
,,,-3.05000000e-009,8.90624989e-004
,,,-3.02500000e-009,8.60937486e-004
,,,-3.00000000e-009,8.28124984e-004
,,,-2.97500000e-009,7.99999982e-004
,,,-2.95000000e-009,7.82812481e-004
,,,-2.92500000e-009,7.74999980e-004
,,,-2.90000000e-009,7.76562480e-004
,,,-2.87500000e-009,7.84374981e-004
,,,-2.85000000e-009,7.95312482e-004
,,,-2.82500000e-009,8.04687482e-004
,,,-2.80000000e-009,8.07812483e-004
,,,-2.77500000e-009,7.99999982e-004
,,,-2.75000000e-009,7.79687481e-004
,,,-2.72500000e-009,7.45312478e-004
,,,-2.70000000e-009,6.96874975e-004
,,,-2.67500000e-009,6.40624971e-004
,,,-2.65000000e-009,5.78124966e-004
,,,-2.62500000e-009,5.14062462e-004
,,,-2.60000000e-009,4.53124958e-004
,,,-2.57500000e-009,3.99999954e-004
,,,-2.55000000e-009,3.62499951e-004
,,,-2.52500000e-009,3.34374949e-004
,,,-2.50000000e-009,3.18749948e-004
,,,-2.47500000e-009,3.15624948e-004
,,,-2.45000000e-009,3.23437448e-004
,,,-2.42500000e-009,3.40624950e-004
,,,-2.40000000e-009,3.67187451e-004
,,,-2.37500000e-009,3.99999954e-004
,,,-2.35000000e-009,4.39062457e-004
,,,-2.32500000e-009,4.81249960e-004
,,,-2.30000000e-009,5.26562463e-004
,,,-2.27500000e-009,5.76562466e-004
,,,-2.25000000e-009,6.29687470e-004
,,,-2.22500000e-009,6.85937474e-004
,,,-2.20000000e-009,7.43749978e-004
,,,-2.17500000e-009,7.99999982e-004
,,,-2.15000000e-009,8.46874985e-004
,,,-2.12500000e-009,8.82812488e-004
,,,-2.10000000e-009,9.09374990e-004
,,,-2.07500000e-009,9.21874991e-004
,,,-2.05000000e-009,9.18749991e-004
,,,-2.02500000e-009,8.98437489e-004
,,,-2.00000000e-009,8.57812486e-004
,,,-1.97500000e-009,7.99999982e-004
,,,-1.95000000e-009,7.17187476e-004
,,,-1.92500000e-009,6.17187469e-004
,,,-1.90000000e-009,5.07812461e-004
,,,-1.87500000e-009,3.93749953e-004
,,,-1.85000000e-009,2.79687445e-004
,,,-1.82500000e-009,1.73437438e-004
,,,-1.80000000e-009,7.96874311e-005
,,,-1.77500000e-009,-7.45058060e-011
,,,-1.75000000e-009,-6.56250792e-005
,,,-1.72500000e-009,-1.14062583e-004
,,,-1.70000000e-009,-1.40625084e-004
,,,-1.67500000e-009,-1.46875085e-004
,,,-1.65000000e-009,-1.32812584e-004
,,,-1.62500000e-009,-1.00000082e-004
,,,-1.60000000e-009,-5.46875784e-005
,,,-1.57500000e-009,-7.45058060e-011
,,,-1.55000000e-009,4.84374289e-005
,,,-1.52500000e-009,9.06249319e-005
,,,-1.50000000e-009,1.23437434e-004
,,,-1.47500000e-009,1.39062435e-004
,,,-1.45000000e-009,1.35937435e-004
,,,-1.42500000e-009,1.12499933e-004
,,,-1.40000000e-009,6.71874302e-005
,,,-1.37500000e-009,-7.45058060e-011
,,,-1.35000000e-009,-9.84375815e-005
,,,-1.32500000e-009,-2.10937589e-004
,,,-1.30000000e-009,-3.32812598e-004
,,,-1.27500000e-009,-4.54687607e-004
,,,-1.25000000e-009,-5.67187615e-004
,,,-1.22500000e-009,-6.65625122e-004
,,,-1.20000000e-009,-7.42187627e-004
,,,-1.17500000e-009,-8.00000131e-004
,,,-1.15000000e-009,-8.45312634e-004
,,,-1.12500000e-009,-8.78125137e-004
,,,-1.10000000e-009,-9.06250139e-004
,,,-1.07500000e-009,-9.34375141e-004
,,,-1.05000000e-009,-9.71875143e-004
,,,-1.02500000e-009,-1.02500015e-003
,,,-1.00000000e-009,-1.10000015e-003
,,,-9.75000000e-010,-1.20000016e-003
,,,-9.50000000e-010,-1.33437517e-003
,,,-9.25000000e-010,-1.49375018e-003
,,,-9.00000000e-010,-1.66875019e-003
,,,-8.75000000e-010,-1.85000021e-003
,,,-8.50000000e-010,-2.02500022e-003
,,,-8.25000000e-010,-2.18125023e-003
,,,-8.00000000e-010,-2.30781274e-003
,,,-7.75000000e-010,-2.40000024e-003
,,,-7.50000000e-010,-2.45781275e-003
,,,-7.25000000e-010,-2.48593775e-003
,,,-7.00000000e-010,-2.48750025e-003
,,,-6.75000000e-010,-2.46875025e-003
,,,-6.50000000e-010,-2.44218775e-003
,,,-6.25000000e-010,-2.41562525e-003
,,,-6.00000000e-010,-2.39843774e-003
,,,-5.75000000e-010,-2.40000024e-003
,,,-5.50000000e-010,-2.43125025e-003
,,,-5.25000000e-010,-2.49375025e-003
,,,-5.00000000e-010,-2.58437526e-003
,,,-4.75000000e-010,-2.69687527e-003
,,,-4.50000000e-010,-2.82187527e-003
,,,-4.25000000e-010,-2.95312528e-003
,,,-4.00000000e-010,-3.08125029e-003
,,,-3.75000000e-010,-3.20000030e-003
,,,-3.50000000e-010,-3.30781281e-003
,,,-3.25000000e-010,-3.40781282e-003
,,,-3.00000000e-010,-3.50156282e-003
,,,-2.75000000e-010,-3.59218783e-003
,,,-2.50000000e-010,-3.68281284e-003
,,,-2.25000000e-010,-3.77812534e-003
,,,-2.00000000e-010,-3.88281285e-003
,,,-1.75000000e-010,-4.00000036e-003
,,,-1.50000000e-010,-4.12187537e-003
,,,-1.25000000e-010,-4.25937538e-003
,,,-1.00000000e-010,-4.41250039e-003
,,,-7.50000000e-011,-4.57343790e-003
,,,-5.00000000e-011,-4.73906291e-003
,,,-2.50000000e-011,-4.90312542e-003
,,,0.00000000e+000,-5.05781293e-003
,,,2.50000000e-011,-5.20000044e-003
,,,5.00000000e-011,-5.30312545e-003
,,,7.50000000e-011,-5.38750046e-003
,,,1.00000000e-010,-5.45625046e-003
,,,1.25000000e-010,-5.50625046e-003
,,,1.50000000e-010,-5.54218797e-003
,,,1.75000000e-010,-5.56718797e-003
,,,2.00000000e-010,-5.58593797e-003
,,,2.25000000e-010,-5.60000047e-003
,,,2.50000000e-010,-5.59687547e-003
,,,2.75000000e-010,-5.60156297e-003
,,,3.00000000e-010,-5.62187547e-003
,,,3.25000000e-010,-5.65937548e-003
,,,3.50000000e-010,-5.71718798e-003
,,,3.75000000e-010,-5.79531298e-003
,,,4.00000000e-010,-5.89062549e-003
,,,4.25000000e-010,-6.00000050e-003
,,,4.50000000e-010,-6.08593801e-003
,,,4.75000000e-010,-6.17656301e-003
,,,5.00000000e-010,-6.26093802e-003
,,,5.25000000e-010,-6.33593802e-003
,,,5.50000000e-010,-6.39218803e-003
,,,5.75000000e-010,-6.42500053e-003
,,,6.00000000e-010,-6.42812553e-003
,,,6.25000000e-010,-6.40000053e-003
,,,6.50000000e-010,-6.30468802e-003
,,,6.75000000e-010,-6.17812551e-003
,,,7.00000000e-010,-6.02812550e-003
,,,7.25000000e-010,-5.86250049e-003
,,,7.50000000e-010,-5.68750048e-003
,,,7.75000000e-010,-5.51406296e-003
,,,8.00000000e-010,-5.34843795e-003
,,,8.25000000e-010,-5.20000044e-003
,,,8.50000000e-010,-5.05312543e-003
,,,8.75000000e-010,-4.93437542e-003
,,,9.00000000e-010,-4.84531292e-003
,,,9.25000000e-010,-4.78750041e-003
,,,9.50000000e-010,-4.75781291e-003
,,,9.75000000e-010,-4.75468791e-003
,,,1.00000000e-009,-4.77031291e-003
,,,1.02500000e-009,-4.80000041e-003
,,,1.05000000e-009,-4.81562542e-003
,,,1.07500000e-009,-4.82343792e-003
,,,1.10000000e-009,-4.81562542e-003
,,,1.12500000e-009,-4.78750041e-003
,,,1.15000000e-009,-4.73281291e-003
,,,1.17500000e-009,-4.65156290e-003
,,,1.20000000e-009,-4.54062540e-003
,,,1.22500000e-009,-4.40000039e-003
,,,1.25000000e-009,-4.22031287e-003
,,,1.27500000e-009,-4.01875036e-003
,,,1.30000000e-009,-3.80156284e-003
,,,1.32500000e-009,-3.57656283e-003
,,,1.35000000e-009,-3.35625031e-003
,,,1.37500000e-009,-3.14843780e-003
,,,1.40000000e-009,-2.96093778e-003
,,,1.42500000e-009,-2.80000027e-003
,,,1.45000000e-009,-2.67031276e-003
,,,1.47500000e-009,-2.56875026e-003
,,,1.50000000e-009,-2.49531275e-003
,,,1.52500000e-009,-2.44531275e-003
,,,1.55000000e-009,-2.41562525e-003
,,,1.57500000e-009,-2.40156274e-003
,,,1.60000000e-009,-2.39843774e-003
,,,1.62500000e-009,-2.40000024e-003
,,,1.65000000e-009,-2.40312524e-003
,,,1.67500000e-009,-2.39531274e-003
,,,1.70000000e-009,-2.36875024e-003
,,,1.72500000e-009,-2.32656274e-003
,,,1.75000000e-009,-2.26562523e-003
,,,1.77500000e-009,-2.18750023e-003
,,,1.80000000e-009,-2.09843772e-003
,,,1.82500000e-009,-2.00000022e-003
,,,1.85000000e-009,-1.89843771e-003
,,,1.87500000e-009,-1.79218770e-003
,,,1.90000000e-009,-1.68125019e-003
,,,1.92500000e-009,-1.57187519e-003
,,,1.95000000e-009,-1.46562518e-003
,,,1.97500000e-009,-1.36718767e-003
,,,2.00000000e-009,-1.27812516e-003
,,,2.02500000e-009,-1.20000016e-003
,,,2.05000000e-009,-1.13906266e-003
,,,2.07500000e-009,-1.08593765e-003
,,,2.10000000e-009,-1.03593765e-003
,,,2.12500000e-009,-9.87500144e-004
,,,2.15000000e-009,-9.40625141e-004
,,,2.17500000e-009,-8.95312638e-004
,,,2.20000000e-009,-8.46875134e-004
,,,2.22500000e-009,-8.00000131e-004
,,,2.25000000e-009,-7.60937628e-004
,,,2.27500000e-009,-7.17187625e-004
,,,2.30000000e-009,-6.67187622e-004
,,,2.32500000e-009,-6.12500118e-004
,,,2.35000000e-009,-5.56250114e-004
,,,2.37500000e-009,-5.00000110e-004
,,,2.40000000e-009,-4.46875106e-004
,,,2.42500000e-009,-4.00000103e-004
,,,2.45000000e-009,-3.70312601e-004
,,,2.47500000e-009,-3.48437599e-004
,,,2.50000000e-009,-3.35937598e-004
,,,2.52500000e-009,-3.32812598e-004
,,,2.55000000e-009,-3.39062599e-004
,,,2.57500000e-009,-3.51562599e-004
,,,2.60000000e-009,-3.73437601e-004
,,,2.62500000e-009,-4.00000103e-004
,,,2.65000000e-009,-4.31250105e-004
,,,2.67500000e-009,-4.57812607e-004
,,,2.70000000e-009,-4.78125108e-004
,,,2.72500000e-009,-4.85937609e-004
,,,2.75000000e-009,-4.84375109e-004
,,,2.77500000e-009,-4.68750108e-004
,,,2.80000000e-009,-4.39062606e-004
,,,2.82500000e-009,-4.00000103e-004
,,,2.85000000e-009,-3.51562599e-004
,,,2.87500000e-009,-2.93750095e-004
,,,2.90000000e-009,-2.31250091e-004
,,,2.92500000e-009,-1.67187586e-004
,,,2.95000000e-009,-1.07812582e-004
,,,2.97500000e-009,-5.62500785e-005
,,,3.00000000e-009,-1.87500758e-005
,,,3.02500000e-009,-7.45058060e-011
,,,3.05000000e-009,-3.12507473e-006
,,,3.07500000e-009,-2.50000763e-005
,,,3.10000000e-009,-6.40625790e-005
,,,3.12500000e-009,-1.17187583e-004
,,,3.15000000e-009,-1.81250087e-004
,,,3.17500000e-009,-2.53125092e-004
,,,3.20000000e-009,-3.28125098e-004
,,,3.22500000e-009,-4.00000103e-004
,,,3.25000000e-009,-4.60937607e-004
,,,3.27500000e-009,-5.09375111e-004
,,,3.30000000e-009,-5.39062613e-004
,,,3.32500000e-009,-5.51562614e-004
,,,3.35000000e-009,-5.42187613e-004
,,,3.37500000e-009,-5.14062611e-004
,,,3.40000000e-009,-4.65625107e-004
,,,3.42500000e-009,-4.00000103e-004
,,,3.45000000e-009,-3.10937597e-004
,,,3.47500000e-009,-2.10937589e-004
,,,3.50000000e-009,-1.03125082e-004
,,,3.52500000e-009,7.81242605e-006
,,,3.55000000e-009,1.18749934e-004
,,,3.57500000e-009,2.23437441e-004
,,,3.60000000e-009,3.18749948e-004
,,,3.62500000e-009,3.99999954e-004
,,,3.65000000e-009,4.62499958e-004
,,,3.67500000e-009,5.06249961e-004
,,,3.70000000e-009,5.31249963e-004
,,,3.72500000e-009,5.37499964e-004
,,,3.75000000e-009,5.24999963e-004
,,,3.77500000e-009,4.96874961e-004
,,,3.80000000e-009,4.54687458e-004
,,,3.82500000e-009,3.99999954e-004
,,,3.85000000e-009,3.35937449e-004
,,,3.87500000e-009,2.70312445e-004
,,,3.90000000e-009,2.04687440e-004
,,,3.92500000e-009,1.43749936e-004
,,,3.95000000e-009,9.06249319e-005
,,,3.97500000e-009,4.84374289e-005
,,,4.00000000e-009,1.71874267e-005
,,,4.02500000e-009,-7.45058060e-011
,,,4.05000000e-009,1.56242560e-006
,,,4.07500000e-009,1.87499268e-005
,,,4.10000000e-009,4.99999290e-005
,,,4.12500000e-009,9.84374325e-005
,,,4.15000000e-009,1.59374937e-004
,,,4.17500000e-009,2.32812442e-004
,,,4.20000000e-009,3.14062448e-004
,,,4.22500000e-009,3.99999954e-004
,,,4.25000000e-009,4.84374960e-004
,,,4.27500000e-009,5.64062465e-004
,,,4.30000000e-009,6.37499971e-004
,,,4.32500000e-009,6.99999975e-004
,,,4.35000000e-009,7.49999979e-004
,,,4.37500000e-009,7.84374981e-004
,,,4.40000000e-009,8.01562482e-004
,,,4.42500000e-009,7.99999982e-004
,,,4.45000000e-009,7.74999980e-004
,,,4.47500000e-009,7.34374977e-004
,,,4.50000000e-009,6.82812474e-004
,,,4.52500000e-009,6.24999970e-004
,,,4.55000000e-009,5.64062465e-004
,,,4.57500000e-009,5.03124961e-004
,,,4.60000000e-009,4.48437457e-004
,,,4.62500000e-009,3.99999954e-004
,,,4.65000000e-009,3.62499951e-004
,,,4.67500000e-009,3.35937449e-004
,,,4.70000000e-009,3.21874948e-004
,,,4.72500000e-009,3.20312448e-004
,,,4.75000000e-009,3.29687449e-004
,,,4.77500000e-009,3.48437450e-004
,,,4.80000000e-009,3.71874952e-004
,,,4.82500000e-009,3.99999954e-004
,,,4.85000000e-009,4.26562456e-004
,,,4.87500000e-009,4.49999957e-004
,,,4.90000000e-009,4.65624958e-004
,,,4.92500000e-009,4.74999959e-004
,,,4.95000000e-009,4.71874959e-004
,,,4.97500000e-009,4.59374958e-004
,,,5.00000000e-009,4.35937456e-004
,,,5.02500000e-009,3.99999954e-004
,,,5.05000000e-009,3.56249951e-004
,,,5.07500000e-009,3.04687447e-004
,,,5.10000000e-009,2.48437443e-004
,,,5.12500000e-009,1.92187439e-004
,,,5.15000000e-009,1.37499935e-004
,,,5.17500000e-009,8.59374316e-005
,,,5.20000000e-009,3.90624283e-005
,,,5.22500000e-009,-7.45058060e-011
,,,5.25000000e-009,-2.50000763e-005
,,,5.27500000e-009,-4.21875775e-005
,,,5.30000000e-009,-4.84375779e-005
,,,5.32500000e-009,-4.84375779e-005
,,,5.35000000e-009,-4.21875775e-005
,,,5.37500000e-009,-2.96875766e-005
,,,5.40000000e-009,-1.56250756e-005
,,,5.42500000e-009,-7.45058060e-011
,,,5.45000000e-009,1.87499268e-005
,,,5.47500000e-009,3.12499277e-005
,,,5.50000000e-009,4.06249284e-005
,,,5.52500000e-009,4.21874285e-005
,,,5.55000000e-009,3.90624283e-005
,,,5.57500000e-009,2.96874276e-005
,,,5.60000000e-009,1.71874267e-005
,,,5.62500000e-009,-7.45058060e-011
,,,5.65000000e-009,-1.56250756e-005
,,,5.67500000e-009,-3.28125768e-005
,,,5.70000000e-009,-4.53125777e-005
,,,5.72500000e-009,-5.31250783e-005
,,,5.75000000e-009,-5.46875784e-005
,,,5.77500000e-009,-4.68750778e-005
,,,5.80000000e-009,-2.81250765e-005
,,,5.82500000e-009,-7.45058060e-011
,,,5.85000000e-009,4.21874285e-005
,,,5.87500000e-009,9.21874320e-005
,,,5.90000000e-009,1.48437436e-004
,,,5.92500000e-009,2.06249940e-004
,,,5.95000000e-009,2.62499944e-004
,,,5.97500000e-009,3.15624948e-004
,,,6.00000000e-009,3.62499951e-004
,,,6.02500000e-009,3.99999954e-004
