RawData/DifferentLengths/R3/R3_12pt5_5mV/wave023_Ch3.csv

"Record Length",1000,"Points",-7.72500000e-009,-1.27500485e-004
"Sample Interval",2.50000000e-011,s,-7.70000000e-009,-1.60312986e-004
"Trigger Point",309,"Samples",-7.67500000e-009,-1.90781736e-004
"Trigger Time",4.90588235e-013,s,-7.65000000e-009,-2.17500486e-004
"",,,-7.62500000e-009,-2.40000486e-004
"Horizontal Offset",-7.72500000e-009,s,-7.60000000e-009,-2.56875487e-004
,,,-7.57500000e-009,-2.68125487e-004
,,,-7.55000000e-009,-2.73750487e-004
,,,-7.52500000e-009,-2.74219237e-004
,,,-7.50000000e-009,-2.70000487e-004
,,,-7.47500000e-009,-2.62031737e-004
,,,-7.45000000e-009,-2.51719236e-004
,,,-7.42500000e-009,-2.40000486e-004
,,,-7.40000000e-009,-2.27812986e-004
,,,-7.37500000e-009,-2.17031736e-004
,,,-7.35000000e-009,-2.09531736e-004
,,,-7.32500000e-009,-2.06250486e-004
,,,-7.30000000e-009,-2.07656736e-004
,,,-7.27500000e-009,-2.13750486e-004
,,,-7.25000000e-009,-2.25000486e-004
,,,-7.22500000e-009,-2.40000486e-004
,,,-7.20000000e-009,-2.57812987e-004
,,,-7.17500000e-009,-2.77969237e-004
,,,-7.15000000e-009,-2.98125487e-004
,,,-7.12500000e-009,-3.17812987e-004
,,,-7.10000000e-009,-3.34687987e-004
,,,-7.07500000e-009,-3.48281737e-004
,,,-7.05000000e-009,-3.57187987e-004
,,,-7.02500000e-009,-3.60000487e-004
,,,-7.00000000e-009,-3.55781737e-004
,,,-6.97500000e-009,-3.45937987e-004
,,,-6.95000000e-009,-3.32344237e-004
,,,-6.92500000e-009,-3.15000487e-004
,,,-6.90000000e-009,-2.95781737e-004
,,,-6.87500000e-009,-2.76094237e-004
,,,-6.85000000e-009,-2.57344237e-004
,,,-6.82500000e-009,-2.40000486e-004
,,,-6.80000000e-009,-2.25000486e-004
,,,-6.77500000e-009,-2.14219236e-004
,,,-6.75000000e-009,-2.08125486e-004
,,,-6.72500000e-009,-2.06719236e-004
,,,-6.70000000e-009,-2.10469236e-004
,,,-6.67500000e-009,-2.17500486e-004
,,,-6.65000000e-009,-2.28281736e-004
,,,-6.62500000e-009,-2.40000486e-004
,,,-6.60000000e-009,-2.51250486e-004
,,,-6.57500000e-009,-2.61094237e-004
,,,-6.55000000e-009,-2.68594237e-004
,,,-6.52500000e-009,-2.71875487e-004
,,,-6.50000000e-009,-2.71406737e-004
,,,-6.47500000e-009,-2.65781737e-004
,,,-6.45000000e-009,-2.55000487e-004
,,,-6.42500000e-009,-2.40000486e-004
,,,-6.40000000e-009,-2.20312986e-004
,,,-6.37500000e-009,-1.97812986e-004
,,,-6.35000000e-009,-1.75312986e-004
,,,-6.32500000e-009,-1.54687986e-004
,,,-6.30000000e-009,-1.37344235e-004
,,,-6.27500000e-009,-1.25156735e-004
,,,-6.25000000e-009,-1.19062985e-004
,,,-6.22500000e-009,-1.20000485e-004
,,,-6.20000000e-009,-1.27969235e-004
,,,-6.17500000e-009,-1.42031736e-004
,,,-6.15000000e-009,-1.59375486e-004
,,,-6.12500000e-009,-1.79531736e-004
,,,-6.10000000e-009,-1.99687986e-004
,,,-6.07500000e-009,-2.17969236e-004
,,,-6.05000000e-009,-2.31562986e-004
,,,-6.02500000e-009,-2.40000486e-004
,,,-6.00000000e-009,-2.41406736e-004
,,,-5.97500000e-009,-2.35781736e-004
,,,-5.95000000e-009,-2.23594236e-004
,,,-5.92500000e-009,-2.06250486e-004
,,,-5.90000000e-009,-1.85625486e-004
,,,-5.87500000e-009,-1.63594236e-004
,,,-5.85000000e-009,-1.41094236e-004
,,,-5.82500000e-009,-1.20000485e-004
,,,-5.80000000e-009,-1.00312985e-004
,,,-5.77500000e-009,-8.25004850e-005
,,,-5.75000000e-009,-6.75004849e-005
,,,-5.72500000e-009,-5.34379848e-005
,,,-5.70000000e-009,-4.07817346e-005
,,,-5.67500000e-009,-2.81254845e-005
,,,-5.65000000e-009,-1.50004844e-005
,,,-5.62500000e-009,-4.84287738e-010
,,,-5.60000000e-009,1.49995158e-005
,,,-5.57500000e-009,3.18745160e-005
,,,-5.55000000e-009,4.92182661e-005
,,,-5.52500000e-009,6.74995163e-005
,,,-5.50000000e-009,8.48432664e-005
,,,-5.47500000e-009,9.98432666e-005
,,,-5.45000000e-009,1.12030767e-004
,,,-5.42500000e-009,1.19999517e-004
,,,-5.40000000e-009,1.20468267e-004
,,,-5.37500000e-009,1.15780767e-004
,,,-5.35000000e-009,1.05937017e-004
,,,-5.32500000e-009,9.09370165e-005
,,,-5.30000000e-009,7.17182663e-005
,,,-5.27500000e-009,4.92182661e-005
,,,-5.25000000e-009,2.48432659e-005
,,,-5.22500000e-009,-4.84287738e-010
,,,-5.20000000e-009,-2.53129845e-005
,,,-5.17500000e-009,-4.59379847e-005
,,,-5.15000000e-009,-6.14067348e-005
,,,-5.12500000e-009,-6.84379849e-005
,,,-5.10000000e-009,-6.65629849e-005
,,,-5.07500000e-009,-5.43754848e-005
,,,-5.05000000e-009,-3.18754846e-005
,,,-5.02500000e-009,-4.84287738e-010
,,,-5.00000000e-009,3.74995160e-005
,,,-4.97500000e-009,7.92182664e-005
,,,-4.95000000e-009,1.22343267e-004
,,,-4.92500000e-009,1.63124517e-004
,,,-4.90000000e-009,1.98280767e-004
,,,-4.87500000e-009,2.24062018e-004
,,,-4.85000000e-009,2.38124518e-004
,,,-4.82500000e-009,2.39999518e-004
,,,-4.80000000e-009,2.24530768e-004
,,,-4.77500000e-009,1.98280767e-004
,,,-4.75000000e-009,1.63593267e-004
,,,-4.72500000e-009,1.24687017e-004
,,,-4.70000000e-009,8.53120165e-005
,,,-4.67500000e-009,4.96870161e-005
,,,-4.65000000e-009,2.01557659e-005
,,,-4.62500000e-009,-4.84287738e-010
,,,-4.60000000e-009,-1.21879844e-005
,,,-4.57500000e-009,-1.50004844e-005
,,,-4.55000000e-009,-1.07817344e-005
,,,-4.52500000e-009,-2.81298431e-006
,,,-4.50000000e-009,5.62451576e-006
,,,-4.47500000e-009,1.07807658e-005
,,,-4.45000000e-009,9.37451579e-006
,,,-4.42500000e-009,-4.84287738e-010
,,,-4.40000000e-009,-1.87504845e-005
,,,-4.37500000e-009,-4.59379847e-005
,,,-4.35000000e-009,-8.01567350e-005
,,,-4.32500000e-009,-1.18125485e-004
,,,-4.30000000e-009,-1.56562986e-004
,,,-4.27500000e-009,-1.91719236e-004
,,,-4.25000000e-009,-2.20781736e-004
,,,-4.22500000e-009,-2.40000486e-004
,,,-4.20000000e-009,-2.46562986e-004
,,,-4.17500000e-009,-2.41875486e-004
,,,-4.15000000e-009,-2.27812986e-004
,,,-4.12500000e-009,-2.06719236e-004
,,,-4.10000000e-009,-1.82344236e-004
,,,-4.07500000e-009,-1.57500486e-004
,,,-4.05000000e-009,-1.35937985e-004
,,,-4.02500000e-009,-1.20000485e-004
,,,-4.00000000e-009,-1.11094235e-004
,,,-3.97500000e-009,-1.10625485e-004
,,,-3.95000000e-009,-1.19062985e-004
,,,-3.92500000e-009,-1.35469235e-004
,,,-3.90000000e-009,-1.57969236e-004
,,,-3.87500000e-009,-1.84687986e-004
,,,-3.85000000e-009,-2.12812986e-004
,,,-3.82500000e-009,-2.40000486e-004
,,,-3.80000000e-009,-2.60625487e-004
,,,-3.77500000e-009,-2.75625487e-004
,,,-3.75000000e-009,-2.85000487e-004
,,,-3.72500000e-009,-2.88281737e-004
,,,-3.70000000e-009,-2.85000487e-004
,,,-3.67500000e-009,-2.75625487e-004
,,,-3.65000000e-009,-2.60156737e-004
,,,-3.62500000e-009,-2.40000486e-004
,,,-3.60000000e-009,-2.13281736e-004
,,,-3.57500000e-009,-1.83750486e-004
,,,-3.55000000e-009,-1.52812986e-004
,,,-3.52500000e-009,-1.20937985e-004
,,,-3.50000000e-009,-8.85942351e-005
,,,-3.47500000e-009,-5.76567348e-005
,,,-3.45000000e-009,-2.81254845e-005
,,,-3.42500000e-009,-4.84287738e-010
,,,-3.40000000e-009,2.62495159e-005
,,,-3.37500000e-009,4.92182661e-005
,,,-3.35000000e-009,6.93745163e-005
,,,-3.32500000e-009,8.57807665e-005
,,,-3.30000000e-009,9.89057666e-005
,,,-3.27500000e-009,1.08749517e-004
,,,-3.25000000e-009,1.15780767e-004
,,,-3.22500000e-009,1.19999517e-004
,,,-3.20000000e-009,1.19999517e-004
,,,-3.17500000e-009,1.19530767e-004
,,,-3.15000000e-009,1.18124517e-004
,,,-3.12500000e-009,1.17187017e-004
,,,-3.10000000e-009,1.16249517e-004
,,,-3.07500000e-009,1.16718267e-004
,,,-3.05000000e-009,1.17655767e-004
,,,-3.02500000e-009,1.19999517e-004
,,,-3.00000000e-009,1.21405767e-004
,,,-2.97500000e-009,1.23749517e-004
,,,-2.95000000e-009,1.25624517e-004
,,,-2.92500000e-009,1.27499517e-004
,,,-2.90000000e-009,1.27968267e-004
,,,-2.87500000e-009,1.27030767e-004
,,,-2.85000000e-009,1.24218267e-004
,,,-2.82500000e-009,1.19999517e-004
,,,-2.80000000e-009,1.12968267e-004
,,,-2.77500000e-009,1.05937017e-004
,,,-2.75000000e-009,1.00312017e-004
,,,-2.72500000e-009,9.65620166e-005
,,,-2.70000000e-009,9.60932665e-005
,,,-2.67500000e-009,9.98432666e-005
,,,-2.65000000e-009,1.07343267e-004
,,,-2.62500000e-009,1.19999517e-004
,,,-2.60000000e-009,1.34530767e-004
,,,-2.57500000e-009,1.52343267e-004
,,,-2.55000000e-009,1.72030767e-004
,,,-2.52500000e-009,1.92187017e-004
,,,-2.50000000e-009,2.10468268e-004
,,,-2.47500000e-009,2.25468268e-004
,,,-2.45000000e-009,2.35312018e-004
,,,-2.42500000e-009,2.39999518e-004
,,,-2.40000000e-009,2.36718268e-004
,,,-2.37500000e-009,2.27812018e-004
,,,-2.35000000e-009,2.13749518e-004
,,,-2.32500000e-009,1.95937017e-004
,,,-2.30000000e-009,1.76249517e-004
,,,-2.27500000e-009,1.56093267e-004
,,,-2.25000000e-009,1.36405767e-004
,,,-2.22500000e-009,1.19999517e-004
,,,-2.20000000e-009,1.05937017e-004
,,,-2.17500000e-009,9.65620166e-005
,,,-2.15000000e-009,9.18745165e-005
,,,-2.12500000e-009,9.14057665e-005
,,,-2.10000000e-009,9.51557665e-005
,,,-2.07500000e-009,1.01718267e-004
,,,-2.05000000e-009,1.10155767e-004
,,,-2.02500000e-009,1.19999517e-004
,,,-2.00000000e-009,1.27968267e-004
,,,-1.97500000e-009,1.34062017e-004
,,,-1.95000000e-009,1.38280767e-004
,,,-1.92500000e-009,1.39687017e-004
,,,-1.90000000e-009,1.38280767e-004
,,,-1.87500000e-009,1.34062017e-004
,,,-1.85000000e-009,1.27968267e-004
,,,-1.82500000e-009,1.19999517e-004
,,,-1.80000000e-009,1.06405767e-004
,,,-1.77500000e-009,9.37495165e-005
,,,-1.75000000e-009,8.29682664e-005
,,,-1.72500000e-009,7.68745164e-005
,,,-1.70000000e-009,7.64057664e-005
,,,-1.67500000e-009,8.29682664e-005
,,,-1.65000000e-009,9.79682666e-005
,,,-1.62500000e-009,1.19999517e-004
,,,-1.60000000e-009,1.39687017e-004
,,,-1.57500000e-009,1.61718267e-004
,,,-1.55000000e-009,1.84687017e-004
,,,-1.52500000e-009,2.06249518e-004
,,,-1.50000000e-009,2.24062018e-004
,,,-1.47500000e-009,2.36718268e-004
,,,-1.45000000e-009,2.42343268e-004
,,,-1.42500000e-009,2.39999518e-004
,,,-1.40000000e-009,2.14218268e-004
,,,-1.37500000e-009,1.79062017e-004
,,,-1.35000000e-009,1.39218267e-004
,,,-1.32500000e-009,9.79682666e-005
,,,-1.30000000e-009,5.99995162e-005
,,,-1.27500000e-009,2.95307660e-005
,,,-1.25000000e-009,8.90576579e-006
,,,-1.22500000e-009,-4.84287738e-010
,,,-1.20000000e-009,-1.82817344e-005
,,,-1.17500000e-009,-3.04692346e-005
,,,-1.15000000e-009,-3.89067346e-005
,,,-1.12500000e-009,-4.59379847e-005
,,,-1.10000000e-009,-5.43754848e-005
,,,-1.07500000e-009,-6.75004849e-005
,,,-1.05000000e-009,-8.85942351e-005
,,,-1.02500000e-009,-1.20000485e-004
,,,-1.00000000e-009,-1.86094236e-004
,,,-9.75000000e-010,-2.67187987e-004
,,,-9.50000000e-010,-3.60000487e-004
,,,-9.25000000e-010,-4.59844238e-004
,,,-9.00000000e-010,-5.62031739e-004
,,,-8.75000000e-010,-6.61875490e-004
,,,-8.50000000e-010,-7.55156741e-004
,,,-8.25000000e-010,-8.40000492e-004
,,,-8.00000000e-010,-9.33281742e-004
,,,-7.75000000e-010,-1.02140674e-003
,,,-7.50000000e-010,-1.10625049e-003
,,,-7.25000000e-010,-1.18921924e-003
,,,-7.00000000e-010,-1.27265675e-003
,,,-6.75000000e-010,-1.36078175e-003
,,,-6.50000000e-010,-1.45546925e-003
,,,-6.25000000e-010,-1.56000050e-003
,,,-6.00000000e-010,-1.68703175e-003
,,,-5.75000000e-010,-1.83000050e-003
,,,-5.50000000e-010,-1.98750050e-003
,,,-5.25000000e-010,-2.15671925e-003
,,,-5.00000000e-010,-2.33484425e-003
,,,-4.75000000e-010,-2.51718801e-003
,,,-4.50000000e-010,-2.70000051e-003
,,,-4.25000000e-010,-2.88000051e-003
,,,-4.00000000e-010,-3.05015676e-003
,,,-3.75000000e-010,-3.21515676e-003
,,,-3.50000000e-010,-3.37453176e-003
,,,-3.25000000e-010,-3.52828176e-003
,,,-3.00000000e-010,-3.67546927e-003
,,,-2.75000000e-010,-3.81609427e-003
,,,-2.50000000e-010,-3.95109427e-003
,,,-2.25000000e-010,-4.08000052e-003
,,,-2.00000000e-010,-4.18921927e-003
,,,-1.75000000e-010,-4.29750052e-003
,,,-1.50000000e-010,-4.40531302e-003
,,,-1.25000000e-010,-4.51312552e-003
,,,-1.00000000e-010,-4.62000052e-003
,,,-7.50000000e-011,-4.72500053e-003
,,,-5.00000000e-011,-4.82531303e-003
,,,-2.50000000e-011,-4.92000053e-003
,,,0.00000000e+000,-4.98375053e-003
,,,2.50000000e-011,-5.04281303e-003
,,,5.00000000e-011,-5.09765678e-003
,,,7.50000000e-011,-5.14781303e-003
,,,1.00000000e-010,-5.19234428e-003
,,,1.25000000e-010,-5.23031303e-003
,,,1.50000000e-010,-5.25984428e-003
,,,1.75000000e-010,-5.28000053e-003
,,,2.00000000e-010,-5.26453178e-003
,,,2.25000000e-010,-5.24250053e-003
,,,2.50000000e-010,-5.21625053e-003
,,,2.75000000e-010,-5.18625053e-003
,,,3.00000000e-010,-5.15343803e-003
,,,3.25000000e-010,-5.11781303e-003
,,,3.50000000e-010,-5.08031303e-003
,,,3.75000000e-010,-5.04000053e-003
,,,4.00000000e-010,-4.97578178e-003
,,,4.25000000e-010,-4.91484428e-003
,,,4.50000000e-010,-4.85859428e-003
,,,4.75000000e-010,-4.80937553e-003
,,,5.00000000e-010,-4.76671928e-003
,,,5.25000000e-010,-4.73156303e-003
,,,5.50000000e-010,-4.70296928e-003
,,,5.75000000e-010,-4.68000052e-003
,,,6.00000000e-010,-4.64484427e-003
,,,6.25000000e-010,-4.61343802e-003
,,,6.50000000e-010,-4.58437552e-003
,,,6.75000000e-010,-4.55765677e-003
,,,7.00000000e-010,-4.53093802e-003
,,,7.25000000e-010,-4.50375052e-003
,,,7.50000000e-010,-4.47375052e-003
,,,7.75000000e-010,-4.44000052e-003
,,,8.00000000e-010,-4.39031302e-003
,,,8.25000000e-010,-4.33500052e-003
,,,8.50000000e-010,-4.27500052e-003
,,,8.75000000e-010,-4.21218802e-003
,,,9.00000000e-010,-4.14750052e-003
,,,9.25000000e-010,-4.08375052e-003
,,,9.50000000e-010,-4.02093802e-003
,,,9.75000000e-010,-3.96000052e-003
,,,1.00000000e-009,-3.89625052e-003
,,,1.02500000e-009,-3.83343802e-003
,,,1.05000000e-009,-3.77156302e-003
,,,1.07500000e-009,-3.71109427e-003
,,,1.10000000e-009,-3.65156302e-003
,,,1.12500000e-009,-3.59343802e-003
,,,1.15000000e-009,-3.53671927e-003
,,,1.17500000e-009,-3.48000051e-003
,,,1.20000000e-009,-3.42234426e-003
,,,1.22500000e-009,-3.36187551e-003
,,,1.25000000e-009,-3.29906301e-003
,,,1.27500000e-009,-3.23578176e-003
,,,1.30000000e-009,-3.17250051e-003
,,,1.32500000e-009,-3.11156301e-003
,,,1.35000000e-009,-3.05390676e-003
,,,1.37500000e-009,-3.00000051e-003
,,,1.40000000e-009,-2.95171926e-003
,,,1.42500000e-009,-2.90437551e-003
,,,1.45000000e-009,-2.85796926e-003
,,,1.47500000e-009,-2.81250051e-003
,,,1.50000000e-009,-2.76843801e-003
,,,1.52500000e-009,-2.72484426e-003
,,,1.55000000e-009,-2.68218801e-003
,,,1.57500000e-009,-2.64000051e-003
,,,1.60000000e-009,-2.59968801e-003
,,,1.62500000e-009,-2.55656301e-003
,,,1.65000000e-009,-2.51109426e-003
,,,1.67500000e-009,-2.46375051e-003
,,,1.70000000e-009,-2.41640676e-003
,,,1.72500000e-009,-2.36906300e-003
,,,1.75000000e-009,-2.32359425e-003
,,,1.77500000e-009,-2.28000050e-003
,,,1.80000000e-009,-2.24109425e-003
,,,1.82500000e-009,-2.20031300e-003
,,,1.85000000e-009,-2.15812550e-003
,,,1.87500000e-009,-2.11359425e-003
,,,1.90000000e-009,-2.06718800e-003
,,,1.92500000e-009,-2.01937550e-003
,,,1.95000000e-009,-1.97015675e-003
,,,1.97500000e-009,-1.92000050e-003
,,,2.00000000e-009,-1.87359425e-003
,,,2.02500000e-009,-1.82437550e-003
,,,2.05000000e-009,-1.77421925e-003
,,,2.07500000e-009,-1.72453175e-003
,,,2.10000000e-009,-1.67671925e-003
,,,2.12500000e-009,-1.63218800e-003
,,,2.15000000e-009,-1.59328175e-003
,,,2.17500000e-009,-1.56000050e-003
,,,2.20000000e-009,-1.53890675e-003
,,,2.22500000e-009,-1.52156300e-003
,,,2.25000000e-009,-1.50656300e-003
,,,2.27500000e-009,-1.49343800e-003
,,,2.30000000e-009,-1.48171925e-003
,,,2.32500000e-009,-1.46906300e-003
,,,2.35000000e-009,-1.45593800e-003
,,,2.37500000e-009,-1.44000050e-003
,,,2.40000000e-009,-1.42640675e-003
,,,2.42500000e-009,-1.40718800e-003
,,,2.45000000e-009,-1.38234425e-003
,,,2.47500000e-009,-1.35234425e-003
,,,2.50000000e-009,-1.31765675e-003
,,,2.52500000e-009,-1.28015675e-003
,,,2.55000000e-009,-1.24031300e-003
,,,2.57500000e-009,-1.20000049e-003
,,,2.60000000e-009,-1.16390674e-003
,,,2.62500000e-009,-1.12734424e-003
,,,2.65000000e-009,-1.09218799e-003
,,,2.67500000e-009,-1.05843799e-003
,,,2.70000000e-009,-1.02750049e-003
,,,2.72500000e-009,-1.00031299e-003
,,,2.75000000e-009,-9.77812993e-004
,,,2.77500000e-009,-9.60000493e-004
,,,2.80000000e-009,-9.51094243e-004
,,,2.82500000e-009,-9.45000493e-004
,,,2.85000000e-009,-9.41719242e-004
,,,2.87500000e-009,-9.40781742e-004
,,,2.90000000e-009,-9.42187992e-004
,,,2.92500000e-009,-9.45937993e-004
,,,2.95000000e-009,-9.52031743e-004
,,,2.97500000e-009,-9.60000493e-004
,,,3.00000000e-009,-9.71250493e-004
,,,3.02500000e-009,-9.82969243e-004
,,,3.05000000e-009,-9.95156743e-004
,,,3.07500000e-009,-1.00828174e-003
,,,3.10000000e-009,-1.02328174e-003
,,,3.12500000e-009,-1.04062549e-003
,,,3.15000000e-009,-1.05984424e-003
,,,3.17500000e-009,-1.08000049e-003
,,,3.20000000e-009,-1.09921924e-003
,,,3.22500000e-009,-1.11562549e-003
,,,3.25000000e-009,-1.12781299e-003
,,,3.27500000e-009,-1.13437549e-003
,,,3.30000000e-009,-1.13390674e-003
,,,3.32500000e-009,-1.12500049e-003
,,,3.35000000e-009,-1.10718799e-003
,,,3.37500000e-009,-1.08000049e-003
,,,3.40000000e-009,-1.04296924e-003
,,,3.42500000e-009,-9.98437993e-004
,,,3.45000000e-009,-9.48750493e-004
,,,3.47500000e-009,-8.97187992e-004
,,,3.50000000e-009,-8.45625492e-004
,,,3.52500000e-009,-7.97812991e-004
,,,3.55000000e-009,-7.55156741e-004
,,,3.57500000e-009,-7.20000491e-004
,,,3.60000000e-009,-6.93281740e-004
,,,3.62500000e-009,-6.73125490e-004
,,,3.65000000e-009,-6.59062990e-004
,,,3.67500000e-009,-6.48281740e-004
,,,3.70000000e-009,-6.39375490e-004
,,,3.72500000e-009,-6.29531740e-004
,,,3.75000000e-009,-6.16875490e-004
,,,3.77500000e-009,-6.00000490e-004
,,,3.80000000e-009,-5.78437989e-004
,,,3.82500000e-009,-5.51719239e-004
,,,3.85000000e-009,-5.19844239e-004
,,,3.87500000e-009,-4.85625489e-004
,,,3.90000000e-009,-4.50000488e-004
,,,3.92500000e-009,-4.16250488e-004
,,,3.95000000e-009,-3.85312988e-004
,,,3.97500000e-009,-3.60000487e-004
,,,4.00000000e-009,-3.44062987e-004
,,,4.02500000e-009,-3.33750487e-004
,,,4.05000000e-009,-3.30000487e-004
,,,4.07500000e-009,-3.31406737e-004
,,,4.10000000e-009,-3.36094237e-004
,,,4.12500000e-009,-3.43594237e-004
,,,4.15000000e-009,-3.52031737e-004
,,,4.17500000e-009,-3.60000487e-004
,,,4.20000000e-009,-3.70781738e-004
,,,4.22500000e-009,-3.78281738e-004
,,,4.25000000e-009,-3.82031738e-004
,,,4.27500000e-009,-3.82500488e-004
,,,4.30000000e-009,-3.79687988e-004
,,,4.32500000e-009,-3.74062988e-004
,,,4.35000000e-009,-3.67500487e-004
,,,4.37500000e-009,-3.60000487e-004
,,,4.40000000e-009,-3.57656737e-004
,,,4.42500000e-009,-3.55781737e-004
,,,4.45000000e-009,-3.54375487e-004
,,,4.47500000e-009,-3.53906737e-004
,,,4.50000000e-009,-3.54375487e-004
,,,4.52500000e-009,-3.55781737e-004
,,,4.55000000e-009,-3.57656737e-004
,,,4.57500000e-009,-3.60000487e-004
,,,4.60000000e-009,-3.66562987e-004
,,,4.62500000e-009,-3.71719238e-004
,,,4.65000000e-009,-3.75937988e-004
,,,4.67500000e-009,-3.78281738e-004
,,,4.70000000e-009,-3.77812988e-004
,,,4.72500000e-009,-3.74531738e-004
,,,4.75000000e-009,-3.68437987e-004
,,,4.77500000e-009,-3.60000487e-004
,,,4.80000000e-009,-3.53437987e-004
,,,4.82500000e-009,-3.46875487e-004
,,,4.85000000e-009,-3.40312987e-004
,,,4.87500000e-009,-3.36094237e-004
,,,4.90000000e-009,-3.35156737e-004
,,,4.92500000e-009,-3.38437987e-004
,,,4.95000000e-009,-3.46406737e-004
,,,4.97500000e-009,-3.60000487e-004
,,,5.00000000e-009,-3.81562988e-004
,,,5.02500000e-009,-4.07812988e-004
,,,5.05000000e-009,-4.37812988e-004
,,,5.07500000e-009,-4.71094238e-004
,,,5.10000000e-009,-5.05312989e-004
,,,5.12500000e-009,-5.39062989e-004
,,,5.15000000e-009,-5.70937989e-004
,,,5.17500000e-009,-6.00000490e-004
,,,5.20000000e-009,-6.24375490e-004
,,,5.22500000e-009,-6.44531740e-004
,,,5.25000000e-009,-6.61406740e-004
,,,5.27500000e-009,-6.75000490e-004
,,,5.30000000e-009,-6.86719240e-004
,,,5.32500000e-009,-6.97500490e-004
,,,5.35000000e-009,-7.08281740e-004
,,,5.37500000e-009,-7.20000491e-004
,,,5.40000000e-009,-7.30781741e-004
,,,5.42500000e-009,-7.42969241e-004
,,,5.45000000e-009,-7.57500491e-004
,,,5.47500000e-009,-7.73437991e-004
,,,5.50000000e-009,-7.90312991e-004
,,,5.52500000e-009,-8.07656741e-004
,,,5.55000000e-009,-8.24531741e-004
,,,5.57500000e-009,-8.40000492e-004
,,,5.60000000e-009,-8.50312992e-004
,,,5.62500000e-009,-8.57812992e-004
,,,5.65000000e-009,-8.62500492e-004
,,,5.67500000e-009,-8.63906742e-004
,,,5.70000000e-009,-8.62500492e-004
,,,5.72500000e-009,-8.57812992e-004
,,,5.75000000e-009,-8.50312992e-004
,,,5.77500000e-009,-8.40000492e-004
,,,5.80000000e-009,-8.24531741e-004
,,,5.82500000e-009,-8.07656741e-004
,,,5.85000000e-009,-7.90781741e-004
,,,5.87500000e-009,-7.73906741e-004
,,,5.90000000e-009,-7.58437991e-004
