RawData/DifferentLengths/R3/R3_12pt5_5mV/wave011_Ch3.csv

"Record Length",1000,"Points",-7.72500000e-009,-2.28281736e-004
"Sample Interval",2.50000000e-011,s,-7.70000000e-009,-2.13281736e-004
"Trigger Point",309,"Samples",-7.67500000e-009,-1.95937986e-004
"Trigger Time",1.50226950e-012,s,-7.65000000e-009,-1.77656736e-004
"",,,-7.62500000e-009,-1.59844236e-004
"Horizontal Offset",-7.72500000e-009,s,-7.60000000e-009,-1.43906736e-004
,,,-7.57500000e-009,-1.30312985e-004
,,,-7.55000000e-009,-1.20000485e-004
,,,-7.52500000e-009,-1.14844235e-004
,,,-7.50000000e-009,-1.12969235e-004
,,,-7.47500000e-009,-1.13437985e-004
,,,-7.45000000e-009,-1.15781735e-004
,,,-7.42500000e-009,-1.18125485e-004
,,,-7.40000000e-009,-1.20469235e-004
,,,-7.37500000e-009,-1.21406735e-004
,,,-7.35000000e-009,-1.20000485e-004
,,,-7.32500000e-009,-1.18594235e-004
,,,-7.30000000e-009,-1.15312985e-004
,,,-7.27500000e-009,-1.11562985e-004
,,,-7.25000000e-009,-1.07812985e-004
,,,-7.22500000e-009,-1.05937985e-004
,,,-7.20000000e-009,-1.06875485e-004
,,,-7.17500000e-009,-1.11562985e-004
,,,-7.15000000e-009,-1.20000485e-004
,,,-7.12500000e-009,-1.33594235e-004
,,,-7.10000000e-009,-1.50000486e-004
,,,-7.07500000e-009,-1.68281736e-004
,,,-7.05000000e-009,-1.87500486e-004
,,,-7.02500000e-009,-2.05781736e-004
,,,-7.00000000e-009,-2.21719236e-004
,,,-6.97500000e-009,-2.33437986e-004
,,,-6.95000000e-009,-2.40000486e-004
,,,-6.92500000e-009,-2.40469236e-004
,,,-6.90000000e-009,-2.34375486e-004
,,,-6.87500000e-009,-2.22656736e-004
,,,-6.85000000e-009,-2.06250486e-004
,,,-6.82500000e-009,-1.86094236e-004
,,,-6.80000000e-009,-1.64062986e-004
,,,-6.77500000e-009,-1.41562986e-004
,,,-6.75000000e-009,-1.20000485e-004
,,,-6.72500000e-009,-1.01719235e-004
,,,-6.70000000e-009,-8.76567350e-005
,,,-6.67500000e-009,-7.82817350e-005
,,,-6.65000000e-009,-7.50004849e-005
,,,-6.62500000e-009,-7.78129850e-005
,,,-6.60000000e-009,-8.67192350e-005
,,,-6.57500000e-009,-1.01250485e-004
,,,-6.55000000e-009,-1.20000485e-004
,,,-6.52500000e-009,-1.41562986e-004
,,,-6.50000000e-009,-1.64531736e-004
,,,-6.47500000e-009,-1.86562986e-004
,,,-6.45000000e-009,-2.06719236e-004
,,,-6.42500000e-009,-2.23125486e-004
,,,-6.40000000e-009,-2.34844236e-004
,,,-6.37500000e-009,-2.40469236e-004
,,,-6.35000000e-009,-2.40000486e-004
,,,-6.32500000e-009,-2.32031736e-004
,,,-6.30000000e-009,-2.18906736e-004
,,,-6.27500000e-009,-2.02031736e-004
,,,-6.25000000e-009,-1.82812986e-004
,,,-6.22500000e-009,-1.63594236e-004
,,,-6.20000000e-009,-1.45781736e-004
,,,-6.17500000e-009,-1.30781735e-004
,,,-6.15000000e-009,-1.20000485e-004
,,,-6.12500000e-009,-1.13437985e-004
,,,-6.10000000e-009,-1.11094235e-004
,,,-6.07500000e-009,-1.12031735e-004
,,,-6.05000000e-009,-1.14844235e-004
,,,-6.02500000e-009,-1.19062985e-004
,,,-6.00000000e-009,-1.21875485e-004
,,,-5.97500000e-009,-1.22812985e-004
,,,-5.95000000e-009,-1.20000485e-004
,,,-5.92500000e-009,-1.13906735e-004
,,,-5.90000000e-009,-1.03594235e-004
,,,-5.87500000e-009,-8.90629851e-005
,,,-5.85000000e-009,-7.21879849e-005
,,,-5.82500000e-009,-5.29692347e-005
,,,-5.80000000e-009,-3.42192346e-005
,,,-5.77500000e-009,-1.59379844e-005
,,,-5.75000000e-009,-4.84287738e-010
,,,-5.72500000e-009,1.03120158e-005
,,,-5.70000000e-009,1.68745159e-005
,,,-5.67500000e-009,1.96870159e-005
,,,-5.65000000e-009,1.92182659e-005
,,,-5.62500000e-009,1.59370159e-005
,,,-5.60000000e-009,1.07807658e-005
,,,-5.57500000e-009,5.15576576e-006
,,,-5.55000000e-009,-4.84287738e-010
,,,-5.52500000e-009,-6.56298434e-006
,,,-5.50000000e-009,-1.07817344e-005
,,,-5.47500000e-009,-1.35942344e-005
,,,-5.45000000e-009,-1.40629844e-005
,,,-5.42500000e-009,-1.26567344e-005
,,,-5.40000000e-009,-9.84423437e-006
,,,-5.37500000e-009,-5.15673433e-006
,,,-5.35000000e-009,-4.84287738e-010
,,,-5.32500000e-009,3.28076574e-006
,,,-5.30000000e-009,7.03076577e-006
,,,-5.27500000e-009,9.84326580e-006
,,,-5.25000000e-009,1.12495158e-005
,,,-5.22500000e-009,1.17182658e-005
,,,-5.20000000e-009,9.84326580e-006
,,,-5.17500000e-009,6.09326577e-006
,,,-5.15000000e-009,-4.84287738e-010
,,,-5.12500000e-009,-7.96923436e-006
,,,-5.10000000e-009,-1.82817344e-005
,,,-5.07500000e-009,-3.00004845e-005
,,,-5.05000000e-009,-4.45317347e-005
,,,-5.02500000e-009,-6.04692348e-005
,,,-5.00000000e-009,-7.87504850e-005
,,,-4.97500000e-009,-9.89067351e-005
,,,-4.95000000e-009,-1.20000485e-004
,,,-4.92500000e-009,-1.41094236e-004
,,,-4.90000000e-009,-1.60781736e-004
,,,-4.87500000e-009,-1.80000486e-004
,,,-4.85000000e-009,-1.96875486e-004
,,,-4.82500000e-009,-2.11875486e-004
,,,-4.80000000e-009,-2.24062986e-004
,,,-4.77500000e-009,-2.33437986e-004
,,,-4.75000000e-009,-2.40000486e-004
,,,-4.72500000e-009,-2.40469236e-004
,,,-4.70000000e-009,-2.38594236e-004
,,,-4.67500000e-009,-2.35781736e-004
,,,-4.65000000e-009,-2.33437986e-004
,,,-4.62500000e-009,-2.32031736e-004
,,,-4.60000000e-009,-2.32969236e-004
,,,-4.57500000e-009,-2.35781736e-004
,,,-4.55000000e-009,-2.40000486e-004
,,,-4.52500000e-009,-2.42812986e-004
,,,-4.50000000e-009,-2.43750486e-004
,,,-4.47500000e-009,-2.41875486e-004
,,,-4.45000000e-009,-2.34844236e-004
,,,-4.42500000e-009,-2.20312986e-004
,,,-4.40000000e-009,-1.96875486e-004
,,,-4.37500000e-009,-1.63594236e-004
,,,-4.35000000e-009,-1.20000485e-004
,,,-4.32500000e-009,-6.79692349e-005
,,,-4.30000000e-009,-1.03129844e-005
,,,-4.27500000e-009,4.87495161e-005
,,,-4.25000000e-009,1.05468267e-004
,,,-4.22500000e-009,1.56093267e-004
,,,-4.20000000e-009,1.96874517e-004
,,,-4.17500000e-009,2.24999518e-004
,,,-4.15000000e-009,2.39999518e-004
,,,-4.12500000e-009,2.37655768e-004
,,,-4.10000000e-009,2.23593268e-004
,,,-4.07500000e-009,2.01562017e-004
,,,-4.05000000e-009,1.74843267e-004
,,,-4.02500000e-009,1.49530767e-004
,,,-4.00000000e-009,1.29374517e-004
,,,-3.97500000e-009,1.18593267e-004
,,,-3.95000000e-009,1.19999517e-004
,,,-3.92500000e-009,1.31249517e-004
,,,-3.90000000e-009,1.55155767e-004
,,,-3.87500000e-009,1.88437017e-004
,,,-3.85000000e-009,2.28280768e-004
,,,-3.82500000e-009,2.69530768e-004
,,,-3.80000000e-009,3.07968268e-004
,,,-3.77500000e-009,3.39374519e-004
,,,-3.75000000e-009,3.59999519e-004
,,,-3.72500000e-009,3.62343269e-004
,,,-3.70000000e-009,3.50624519e-004
,,,-3.67500000e-009,3.27187019e-004
,,,-3.65000000e-009,2.92968268e-004
,,,-3.62500000e-009,2.51718268e-004
,,,-3.60000000e-009,2.06718268e-004
,,,-3.57500000e-009,1.61718267e-004
,,,-3.55000000e-009,1.19999517e-004
,,,-3.52500000e-009,8.15620164e-005
,,,-3.50000000e-009,5.10932662e-005
,,,-3.47500000e-009,2.90620160e-005
,,,-3.45000000e-009,1.45307658e-005
,,,-3.42500000e-009,6.56201577e-006
,,,-3.40000000e-009,2.81201574e-006
,,,-3.37500000e-009,1.40576572e-006
,,,-3.35000000e-009,-4.84287738e-010
,,,-3.32500000e-009,-3.28173432e-006
,,,-3.30000000e-009,-8.90673437e-006
,,,-3.27500000e-009,-1.82817344e-005
,,,-3.25000000e-009,-3.18754846e-005
,,,-3.22500000e-009,-4.96879847e-005
,,,-3.20000000e-009,-7.07817349e-005
,,,-3.17500000e-009,-9.46879851e-005
,,,-3.15000000e-009,-1.20000485e-004
,,,-3.12500000e-009,-1.44375486e-004
,,,-3.10000000e-009,-1.67812986e-004
,,,-3.07500000e-009,-1.89375486e-004
,,,-3.05000000e-009,-2.08125486e-004
,,,-3.02500000e-009,-2.23125486e-004
,,,-3.00000000e-009,-2.33906736e-004
,,,-2.97500000e-009,-2.39531736e-004
,,,-2.95000000e-009,-2.40000486e-004
,,,-2.92500000e-009,-2.33906736e-004
,,,-2.90000000e-009,-2.23125486e-004
,,,-2.87500000e-009,-2.09062986e-004
,,,-2.85000000e-009,-1.92187986e-004
,,,-2.82500000e-009,-1.74375486e-004
,,,-2.80000000e-009,-1.56094236e-004
,,,-2.77500000e-009,-1.37812985e-004
,,,-2.75000000e-009,-1.20000485e-004
,,,-2.72500000e-009,-1.02656735e-004
,,,-2.70000000e-009,-8.71879850e-005
,,,-2.67500000e-009,-7.31254849e-005
,,,-2.65000000e-009,-6.00004848e-005
,,,-2.62500000e-009,-4.73442347e-005
,,,-2.60000000e-009,-3.32817346e-005
,,,-2.57500000e-009,-1.78129844e-005
,,,-2.55000000e-009,-4.84287738e-010
,,,-2.52500000e-009,1.78120159e-005
,,,-2.50000000e-009,3.65620160e-005
,,,-2.47500000e-009,5.57807662e-005
,,,-2.45000000e-009,7.40620164e-005
,,,-2.42500000e-009,9.04682665e-005
,,,-2.40000000e-009,1.04062017e-004
,,,-2.37500000e-009,1.14374517e-004
,,,-2.35000000e-009,1.19999517e-004
,,,-2.32500000e-009,1.18593267e-004
,,,-2.30000000e-009,1.12030767e-004
,,,-2.27500000e-009,1.00780767e-004
,,,-2.25000000e-009,8.53120165e-005
,,,-2.22500000e-009,6.60932663e-005
,,,-2.20000000e-009,4.49995161e-005
,,,-2.17500000e-009,2.24995159e-005
,,,-2.15000000e-009,-4.84287738e-010
,,,-2.12500000e-009,-2.39067345e-005
,,,-2.10000000e-009,-4.54692347e-005
,,,-2.07500000e-009,-6.46879849e-005
,,,-2.05000000e-009,-8.10942350e-005
,,,-2.02500000e-009,-9.46879851e-005
,,,-2.00000000e-009,-1.05469235e-004
,,,-1.97500000e-009,-1.13437985e-004
,,,-1.95000000e-009,-1.20000485e-004
,,,-1.92500000e-009,-1.27969235e-004
,,,-1.90000000e-009,-1.35937985e-004
,,,-1.87500000e-009,-1.45312986e-004
,,,-1.85000000e-009,-1.57500486e-004
,,,-1.82500000e-009,-1.72969236e-004
,,,-1.80000000e-009,-1.91719236e-004
,,,-1.77500000e-009,-2.14219236e-004
,,,-1.75000000e-009,-2.40000486e-004
,,,-1.72500000e-009,-2.68125487e-004
,,,-1.70000000e-009,-2.96250487e-004
,,,-1.67500000e-009,-3.22500487e-004
,,,-1.65000000e-009,-3.45000487e-004
,,,-1.62500000e-009,-3.61875487e-004
,,,-1.60000000e-009,-3.70781738e-004
,,,-1.57500000e-009,-3.70312988e-004
,,,-1.55000000e-009,-3.60000487e-004
,,,-1.52500000e-009,-3.42656737e-004
,,,-1.50000000e-009,-3.17812987e-004
,,,-1.47500000e-009,-2.87344237e-004
,,,-1.45000000e-009,-2.53125486e-004
,,,-1.42500000e-009,-2.16562986e-004
,,,-1.40000000e-009,-1.80937986e-004
,,,-1.37500000e-009,-1.48125486e-004
,,,-1.35000000e-009,-1.20000485e-004
,,,-1.32500000e-009,-1.09687985e-004
,,,-1.30000000e-009,-1.09219235e-004
,,,-1.27500000e-009,-1.18125485e-004
,,,-1.25000000e-009,-1.35469235e-004
,,,-1.22500000e-009,-1.58906736e-004
,,,-1.20000000e-009,-1.85625486e-004
,,,-1.17500000e-009,-2.13281736e-004
,,,-1.15000000e-009,-2.40000486e-004
,,,-1.12500000e-009,-2.80312987e-004
,,,-1.10000000e-009,-3.17812987e-004
,,,-1.07500000e-009,-3.49687987e-004
,,,-1.05000000e-009,-3.73594238e-004
,,,-1.02500000e-009,-3.87656738e-004
,,,-1.00000000e-009,-3.89531738e-004
,,,-9.75000000e-010,-3.80156738e-004
,,,-9.50000000e-010,-3.60000487e-004
,,,-9.25000000e-010,-3.55781737e-004
,,,-9.00000000e-010,-3.50156737e-004
,,,-8.75000000e-010,-3.44531737e-004
,,,-8.50000000e-010,-3.39844237e-004
,,,-8.25000000e-010,-3.37500487e-004
,,,-8.00000000e-010,-3.38906737e-004
,,,-7.75000000e-010,-3.45937987e-004
,,,-7.50000000e-010,-3.60000487e-004
,,,-7.25000000e-010,-4.15312988e-004
,,,-7.00000000e-010,-4.85156739e-004
,,,-6.75000000e-010,-5.68594239e-004
,,,-6.50000000e-010,-6.61406740e-004
,,,-6.25000000e-010,-7.61719241e-004
,,,-6.00000000e-010,-8.66250492e-004
,,,-5.75000000e-010,-9.72656743e-004
,,,-5.50000000e-010,-1.08000049e-003
,,,-5.25000000e-010,-1.21687549e-003
,,,-5.00000000e-010,-1.35937550e-003
,,,-4.75000000e-010,-1.50609425e-003
,,,-4.50000000e-010,-1.65609425e-003
,,,-4.25000000e-010,-1.80843800e-003
,,,-4.00000000e-010,-1.96312550e-003
,,,-3.75000000e-010,-2.12015675e-003
,,,-3.50000000e-010,-2.28000050e-003
,,,-3.25000000e-010,-2.46375051e-003
,,,-3.00000000e-010,-2.65546926e-003
,,,-2.75000000e-010,-2.85375051e-003
,,,-2.50000000e-010,-3.05531301e-003
,,,-2.25000000e-010,-3.25734426e-003
,,,-2.00000000e-010,-3.45656301e-003
,,,-1.75000000e-010,-3.65109427e-003
,,,-1.50000000e-010,-3.84000052e-003
,,,-1.25000000e-010,-4.02984427e-003
,,,-1.00000000e-010,-4.22015677e-003
,,,-7.50000000e-011,-4.41187552e-003
,,,-5.00000000e-011,-4.60546927e-003
,,,-2.50000000e-011,-4.80140678e-003
,,,0.00000000e+000,-4.99968803e-003
,,,2.50000000e-011,-5.19937553e-003
,,,5.00000000e-011,-5.40000053e-003
,,,7.50000000e-011,-5.59453178e-003
,,,1.00000000e-010,-5.79234428e-003
,,,1.25000000e-010,-5.99062554e-003
,,,1.50000000e-010,-6.18515679e-003
,,,1.75000000e-010,-6.37171929e-003
,,,2.00000000e-010,-6.54515679e-003
,,,2.25000000e-010,-6.70171929e-003
,,,2.50000000e-010,-6.84000054e-003
,,,2.75000000e-010,-6.93890679e-003
,,,3.00000000e-010,-7.02750055e-003
,,,3.25000000e-010,-7.11046930e-003
,,,3.50000000e-010,-7.19250055e-003
,,,3.75000000e-010,-7.27593805e-003
,,,4.00000000e-010,-7.36406305e-003
,,,4.25000000e-010,-7.45875055e-003
,,,4.50000000e-010,-7.56000055e-003
,,,4.75000000e-010,-7.64156305e-003
,,,5.00000000e-010,-7.73343805e-003
,,,5.25000000e-010,-7.83375055e-003
,,,5.50000000e-010,-7.93781305e-003
,,,5.75000000e-010,-8.04046930e-003
,,,6.00000000e-010,-8.13515681e-003
,,,6.25000000e-010,-8.21625056e-003
,,,6.50000000e-010,-8.28000056e-003
,,,6.75000000e-010,-8.29171931e-003
,,,7.00000000e-010,-8.29031306e-003
,,,7.25000000e-010,-8.28046931e-003
,,,7.50000000e-010,-8.26828181e-003
,,,7.75000000e-010,-8.25843806e-003
,,,8.00000000e-010,-8.25515681e-003
,,,8.25000000e-010,-8.26171931e-003
,,,8.50000000e-010,-8.28000056e-003
,,,8.75000000e-010,-8.27765681e-003
,,,9.00000000e-010,-8.28750056e-003
,,,9.25000000e-010,-8.30812556e-003
,,,9.50000000e-010,-8.33484431e-003
,,,9.75000000e-010,-8.36343806e-003
,,,1.00000000e-009,-8.38734431e-003
,,,1.02500000e-009,-8.40140681e-003
,,,1.05000000e-009,-8.40000056e-003
,,,1.07500000e-009,-8.34937556e-003
,,,1.10000000e-009,-8.28187556e-003
,,,1.12500000e-009,-8.20171931e-003
,,,1.15000000e-009,-8.11453180e-003
,,,1.17500000e-009,-8.02593805e-003
,,,1.20000000e-009,-7.94109430e-003
,,,1.22500000e-009,-7.86515680e-003
,,,1.25000000e-009,-7.80000055e-003
,,,1.27500000e-009,-7.72078180e-003
,,,1.30000000e-009,-7.65140680e-003
,,,1.32500000e-009,-7.59093805e-003
,,,1.35000000e-009,-7.53750055e-003
,,,1.37500000e-009,-7.48781305e-003
,,,1.40000000e-009,-7.43812555e-003
,,,1.42500000e-009,-7.38375055e-003
,,,1.45000000e-009,-7.32000055e-003
,,,1.47500000e-009,-7.22156305e-003
,,,1.50000000e-009,-7.10671930e-003
,,,1.52500000e-009,-6.97734429e-003
,,,1.55000000e-009,-6.83625054e-003
,,,1.57500000e-009,-6.68765679e-003
,,,1.60000000e-009,-6.53671929e-003
,,,1.62500000e-009,-6.38625054e-003
,,,1.65000000e-009,-6.24000054e-003
,,,1.67500000e-009,-6.08578179e-003
,,,1.70000000e-009,-5.93531304e-003
,,,1.72500000e-009,-5.78953178e-003
,,,1.75000000e-009,-5.65031303e-003
,,,1.77500000e-009,-5.51812553e-003
,,,1.80000000e-009,-5.39343803e-003
,,,1.82500000e-009,-5.27437553e-003
,,,1.85000000e-009,-5.16000053e-003
,,,1.87500000e-009,-5.04093803e-003
,,,1.90000000e-009,-4.91671928e-003
,,,1.92500000e-009,-4.78687553e-003
,,,1.95000000e-009,-4.65140677e-003
,,,1.97500000e-009,-4.51171927e-003
,,,2.00000000e-009,-4.36921927e-003
,,,2.02500000e-009,-4.22484427e-003
,,,2.05000000e-009,-4.08000052e-003
,,,2.07500000e-009,-3.93890677e-003
,,,2.10000000e-009,-3.79453177e-003
,,,2.12500000e-009,-3.64875052e-003
,,,2.15000000e-009,-3.50531301e-003
,,,2.17500000e-009,-3.36562551e-003
,,,2.20000000e-009,-3.23390676e-003
,,,2.22500000e-009,-3.11156301e-003
,,,2.25000000e-009,-3.00000051e-003
,,,2.27500000e-009,-2.90859426e-003
,,,2.30000000e-009,-2.82046926e-003
,,,2.32500000e-009,-2.73421926e-003
,,,2.35000000e-009,-2.64750051e-003
,,,2.37500000e-009,-2.55984426e-003
,,,2.40000000e-009,-2.46984426e-003
,,,2.42500000e-009,-2.37656300e-003
,,,2.45000000e-009,-2.28000050e-003
,,,2.47500000e-009,-2.19421925e-003
,,,2.50000000e-009,-2.09859425e-003
,,,2.52500000e-009,-1.99500050e-003
,,,2.55000000e-009,-1.88437550e-003
,,,2.57500000e-009,-1.77000050e-003
,,,2.60000000e-009,-1.65562550e-003
,,,2.62500000e-009,-1.54453175e-003
,,,2.65000000e-009,-1.44000050e-003
,,,2.67500000e-009,-1.36171925e-003
,,,2.70000000e-009,-1.28859425e-003
,,,2.72500000e-009,-1.22062549e-003
,,,2.75000000e-009,-1.15781299e-003
,,,2.77500000e-009,-1.10015674e-003
,,,2.80000000e-009,-1.04765674e-003
,,,2.82500000e-009,-1.00125049e-003
,,,2.85000000e-009,-9.60000493e-004
,,,2.87500000e-009,-9.42187992e-004
,,,2.90000000e-009,-9.24375492e-004
,,,2.92500000e-009,-9.07031742e-004
,,,2.95000000e-009,-8.89219242e-004
,,,2.97500000e-009,-8.72812992e-004
,,,3.00000000e-009,-8.58281742e-004
,,,3.02500000e-009,-8.47031742e-004
,,,3.05000000e-009,-8.40000492e-004
,,,3.07500000e-009,-8.51719242e-004
,,,3.10000000e-009,-8.64375492e-004
,,,3.12500000e-009,-8.78437992e-004
,,,3.15000000e-009,-8.92969242e-004
,,,3.17500000e-009,-9.07969242e-004
,,,3.20000000e-009,-9.24375492e-004
,,,3.22500000e-009,-9.41719242e-004
,,,3.25000000e-009,-9.60000493e-004
,,,3.27500000e-009,-9.85781743e-004
,,,3.30000000e-009,-1.00875049e-003
,,,3.32500000e-009,-1.02843799e-003
,,,3.35000000e-009,-1.04437549e-003
,,,3.37500000e-009,-1.05703174e-003
,,,3.40000000e-009,-1.06687549e-003
,,,3.42500000e-009,-1.07484424e-003
,,,3.45000000e-009,-1.08000049e-003
,,,3.47500000e-009,-1.08656299e-003
,,,3.50000000e-009,-1.08984424e-003
,,,3.52500000e-009,-1.09031299e-003
,,,3.55000000e-009,-1.08890674e-003
,,,3.57500000e-009,-1.08609424e-003
,,,3.60000000e-009,-1.08375049e-003
,,,3.62500000e-009,-1.08140674e-003
,,,3.65000000e-009,-1.08000049e-003
,,,3.67500000e-009,-1.07953174e-003
,,,3.70000000e-009,-1.07906299e-003
,,,3.72500000e-009,-1.07953174e-003
,,,3.75000000e-009,-1.08000049e-003
,,,3.77500000e-009,-1.08093799e-003
,,,3.80000000e-009,-1.08140674e-003
,,,3.82500000e-009,-1.08140674e-003
,,,3.85000000e-009,-1.08000049e-003
,,,3.87500000e-009,-1.07578174e-003
,,,3.90000000e-009,-1.06875049e-003
,,,3.92500000e-009,-1.05890674e-003
,,,3.95000000e-009,-1.04625049e-003
,,,3.97500000e-009,-1.02984424e-003
,,,4.00000000e-009,-1.01015674e-003
,,,4.02500000e-009,-9.86719243e-004
,,,4.05000000e-009,-9.60000493e-004
,,,4.07500000e-009,-9.30000492e-004
,,,4.10000000e-009,-8.98125492e-004
,,,4.12500000e-009,-8.65312992e-004
,,,4.15000000e-009,-8.32969242e-004
,,,4.17500000e-009,-8.01562991e-004
,,,4.20000000e-009,-7.72031741e-004
,,,4.22500000e-009,-7.44844241e-004
,,,4.25000000e-009,-7.20000491e-004
,,,4.27500000e-009,-6.99375490e-004
,,,4.30000000e-009,-6.81562990e-004
,,,4.32500000e-009,-6.65625490e-004
,,,4.35000000e-009,-6.51094240e-004
,,,4.37500000e-009,-6.37969240e-004
,,,4.40000000e-009,-6.24844240e-004
,,,4.42500000e-009,-6.12656740e-004
,,,4.45000000e-009,-6.00000490e-004
,,,4.47500000e-009,-5.90625489e-004
,,,4.50000000e-009,-5.81719239e-004
,,,4.52500000e-009,-5.74219239e-004
,,,4.55000000e-009,-5.69531739e-004
,,,4.57500000e-009,-5.69062989e-004
,,,4.60000000e-009,-5.73281739e-004
,,,4.62500000e-009,-5.83594239e-004
,,,4.65000000e-009,-6.00000490e-004
,,,4.67500000e-009,-6.24844240e-004
,,,4.70000000e-009,-6.53437990e-004
,,,4.72500000e-009,-6.85781740e-004
,,,4.75000000e-009,-7.19531741e-004
,,,4.77500000e-009,-7.53750491e-004
,,,4.80000000e-009,-7.86094241e-004
,,,4.82500000e-009,-8.15156741e-004
,,,4.85000000e-009,-8.40000492e-004
,,,4.87500000e-009,-8.57344242e-004
,,,4.90000000e-009,-8.68125492e-004
,,,4.92500000e-009,-8.72344242e-004
,,,4.95000000e-009,-8.71406742e-004
,,,4.97500000e-009,-8.66250492e-004
,,,5.00000000e-009,-8.58750492e-004
,,,5.02500000e-009,-8.49844242e-004
,,,5.05000000e-009,-8.40000492e-004
,,,5.07500000e-009,-8.28281741e-004
,,,5.10000000e-009,-8.16094241e-004
,,,5.12500000e-009,-8.03437991e-004
,,,5.15000000e-009,-7.89844241e-004
,,,5.17500000e-009,-7.74844241e-004
,,,5.20000000e-009,-7.58437991e-004
,,,5.22500000e-009,-7.40156741e-004
,,,5.25000000e-009,-7.20000491e-004
,,,5.27500000e-009,-6.96562990e-004
,,,5.30000000e-009,-6.72656740e-004
,,,5.32500000e-009,-6.49687990e-004
,,,5.35000000e-009,-6.29531740e-004
,,,5.37500000e-009,-6.13125490e-004
,,,5.40000000e-009,-6.02812990e-004
,,,5.42500000e-009,-5.98594239e-004
,,,5.45000000e-009,-6.00000490e-004
,,,5.47500000e-009,-6.06094240e-004
,,,5.50000000e-009,-6.15469240e-004
,,,5.52500000e-009,-6.25781740e-004
,,,5.55000000e-009,-6.34219240e-004
,,,5.57500000e-009,-6.37969240e-004
,,,5.60000000e-009,-6.34687990e-004
,,,5.62500000e-009,-6.22500490e-004
,,,5.65000000e-009,-6.00000490e-004
,,,5.67500000e-009,-5.66719239e-004
,,,5.70000000e-009,-5.24062989e-004
,,,5.72500000e-009,-4.74844238e-004
,,,5.75000000e-009,-4.22344238e-004
,,,5.77500000e-009,-3.69375487e-004
,,,5.80000000e-009,-3.19687987e-004
,,,5.82500000e-009,-2.75625487e-004
,,,5.85000000e-009,-2.40000486e-004
