RawData/DifferentLengths/R3/R3_12pt5_5mV/wave015_Ch3.csv

"Record Length",1000,"Points",-7.72500000e-009,-2.73281737e-004
"Sample Interval",2.50000000e-011,s,-7.70000000e-009,-2.35312986e-004
"Trigger Point",309,"Samples",-7.67500000e-009,-1.95937986e-004
"Trigger Time",9.92308370e-012,s,-7.65000000e-009,-1.56562986e-004
"",,,-7.62500000e-009,-1.20000485e-004
"Horizontal Offset",-7.72500000e-009,s,-7.60000000e-009,-9.04692351e-005
,,,-7.57500000e-009,-6.60942349e-005
,,,-7.55000000e-009,-4.64067347e-005
,,,-7.52500000e-009,-3.18754846e-005
,,,-7.50000000e-009,-2.06254845e-005
,,,-7.47500000e-009,-1.21879844e-005
,,,-7.45000000e-009,-5.62548434e-006
,,,-7.42500000e-009,-4.84287738e-010
,,,-7.40000000e-009,1.87451573e-006
,,,-7.37500000e-009,3.74951574e-006
,,,-7.35000000e-009,6.09326577e-006
,,,-7.32500000e-009,7.96826578e-006
,,,-7.30000000e-009,8.90576579e-006
,,,-7.27500000e-009,8.43701579e-006
,,,-7.25000000e-009,5.62451576e-006
,,,-7.22500000e-009,-4.84287738e-010
,,,-7.20000000e-009,-1.26567344e-005
,,,-7.17500000e-009,-2.67192345e-005
,,,-7.15000000e-009,-4.26567347e-005
,,,-7.12500000e-009,-6.00004848e-005
,,,-7.10000000e-009,-7.68754850e-005
,,,-7.07500000e-009,-9.32817351e-005
,,,-7.05000000e-009,-1.07812985e-004
,,,-7.02500000e-009,-1.20000485e-004
,,,-7.00000000e-009,-1.30312985e-004
,,,-6.97500000e-009,-1.36406735e-004
,,,-6.95000000e-009,-1.39687986e-004
,,,-6.92500000e-009,-1.39219235e-004
,,,-6.90000000e-009,-1.36406735e-004
,,,-6.87500000e-009,-1.31719235e-004
,,,-6.85000000e-009,-1.26094235e-004
,,,-6.82500000e-009,-1.20000485e-004
,,,-6.80000000e-009,-1.15781735e-004
,,,-6.77500000e-009,-1.12031735e-004
,,,-6.75000000e-009,-1.09219235e-004
,,,-6.72500000e-009,-1.07812985e-004
,,,-6.70000000e-009,-1.08281735e-004
,,,-6.67500000e-009,-1.10156735e-004
,,,-6.65000000e-009,-1.14375485e-004
,,,-6.62500000e-009,-1.20000485e-004
,,,-6.60000000e-009,-1.27969235e-004
,,,-6.57500000e-009,-1.37344235e-004
,,,-6.55000000e-009,-1.49531736e-004
,,,-6.52500000e-009,-1.63594236e-004
,,,-6.50000000e-009,-1.80469236e-004
,,,-6.47500000e-009,-1.99219236e-004
,,,-6.45000000e-009,-2.19375486e-004
,,,-6.42500000e-009,-2.40000486e-004
,,,-6.40000000e-009,-2.58750487e-004
,,,-6.37500000e-009,-2.74687987e-004
,,,-6.35000000e-009,-2.86406737e-004
,,,-6.32500000e-009,-2.92969237e-004
,,,-6.30000000e-009,-2.92031737e-004
,,,-6.27500000e-009,-2.83594237e-004
,,,-6.25000000e-009,-2.65781737e-004
,,,-6.22500000e-009,-2.40000486e-004
,,,-6.20000000e-009,-2.06719236e-004
,,,-6.17500000e-009,-1.68750486e-004
,,,-6.15000000e-009,-1.29375485e-004
,,,-6.12500000e-009,-9.09379851e-005
,,,-6.10000000e-009,-5.67192348e-005
,,,-6.07500000e-009,-2.90629845e-005
,,,-6.05000000e-009,-9.84423437e-006
,,,-6.02500000e-009,-4.84287738e-010
,,,-6.00000000e-009,-2.34423431e-006
,,,-5.97500000e-009,-1.35942344e-005
,,,-5.95000000e-009,-3.14067346e-005
,,,-5.92500000e-009,-5.29692347e-005
,,,-5.90000000e-009,-7.59379849e-005
,,,-5.87500000e-009,-9.60942351e-005
,,,-5.85000000e-009,-1.12031735e-004
,,,-5.82500000e-009,-1.20000485e-004
,,,-5.80000000e-009,-1.20937985e-004
,,,-5.77500000e-009,-1.13906735e-004
,,,-5.75000000e-009,-9.93754852e-005
,,,-5.72500000e-009,-7.96879850e-005
,,,-5.70000000e-009,-5.76567348e-005
,,,-5.67500000e-009,-3.51567346e-005
,,,-5.65000000e-009,-1.50004844e-005
,,,-5.62500000e-009,-4.84287738e-010
,,,-5.60000000e-009,5.62451576e-006
,,,-5.57500000e-009,4.21826575e-006
,,,-5.55000000e-009,-5.15673433e-006
,,,-5.52500000e-009,-2.10942345e-005
,,,-5.50000000e-009,-4.26567347e-005
,,,-5.47500000e-009,-6.75004849e-005
,,,-5.45000000e-009,-9.37504851e-005
,,,-5.42500000e-009,-1.20000485e-004
,,,-5.40000000e-009,-1.46719236e-004
,,,-5.37500000e-009,-1.69687986e-004
,,,-5.35000000e-009,-1.89844236e-004
,,,-5.32500000e-009,-2.05781736e-004
,,,-5.30000000e-009,-2.18437986e-004
,,,-5.27500000e-009,-2.27812986e-004
,,,-5.25000000e-009,-2.35312986e-004
,,,-5.22500000e-009,-2.40000486e-004
,,,-5.20000000e-009,-2.44219236e-004
,,,-5.17500000e-009,-2.47500486e-004
,,,-5.15000000e-009,-2.49375486e-004
,,,-5.12500000e-009,-2.49844236e-004
,,,-5.10000000e-009,-2.49375486e-004
,,,-5.07500000e-009,-2.47500486e-004
,,,-5.05000000e-009,-2.44687986e-004
,,,-5.02500000e-009,-2.40000486e-004
,,,-5.00000000e-009,-2.36250486e-004
,,,-4.97500000e-009,-2.32031736e-004
,,,-4.95000000e-009,-2.29219236e-004
,,,-4.92500000e-009,-2.27344236e-004
,,,-4.90000000e-009,-2.27344236e-004
,,,-4.87500000e-009,-2.29219236e-004
,,,-4.85000000e-009,-2.33437986e-004
,,,-4.82500000e-009,-2.40000486e-004
,,,-4.80000000e-009,-2.50312986e-004
,,,-4.77500000e-009,-2.62500487e-004
,,,-4.75000000e-009,-2.77500487e-004
,,,-4.72500000e-009,-2.93437987e-004
,,,-4.70000000e-009,-3.10781737e-004
,,,-4.67500000e-009,-3.28125487e-004
,,,-4.65000000e-009,-3.45000487e-004
,,,-4.62500000e-009,-3.60000487e-004
,,,-4.60000000e-009,-3.72187988e-004
,,,-4.57500000e-009,-3.81562988e-004
,,,-4.55000000e-009,-3.87187988e-004
,,,-4.52500000e-009,-3.89531738e-004
,,,-4.50000000e-009,-3.87656738e-004
,,,-4.47500000e-009,-3.81562988e-004
,,,-4.45000000e-009,-3.72187988e-004
,,,-4.42500000e-009,-3.60000487e-004
,,,-4.40000000e-009,-3.46406737e-004
,,,-4.37500000e-009,-3.33750487e-004
,,,-4.35000000e-009,-3.22969237e-004
,,,-4.32500000e-009,-3.17344237e-004
,,,-4.30000000e-009,-3.16875487e-004
,,,-4.27500000e-009,-3.23906737e-004
,,,-4.25000000e-009,-3.37969237e-004
,,,-4.22500000e-009,-3.60000487e-004
,,,-4.20000000e-009,-3.88594238e-004
,,,-4.17500000e-009,-4.21875488e-004
,,,-4.15000000e-009,-4.57969238e-004
,,,-4.12500000e-009,-4.95000489e-004
,,,-4.10000000e-009,-5.30156739e-004
,,,-4.07500000e-009,-5.60625489e-004
,,,-4.05000000e-009,-5.84531739e-004
,,,-4.02500000e-009,-6.00000490e-004
,,,-4.00000000e-009,-6.04219240e-004
,,,-3.97500000e-009,-6.00000490e-004
,,,-3.95000000e-009,-5.87344239e-004
,,,-3.92500000e-009,-5.69531739e-004
,,,-3.90000000e-009,-5.47500489e-004
,,,-3.87500000e-009,-5.23594239e-004
,,,-3.85000000e-009,-5.00625489e-004
,,,-3.82500000e-009,-4.80000488e-004
,,,-3.80000000e-009,-4.62656738e-004
,,,-3.77500000e-009,-4.50469238e-004
,,,-3.75000000e-009,-4.44375488e-004
,,,-3.72500000e-009,-4.44375488e-004
,,,-3.70000000e-009,-4.49062988e-004
,,,-3.67500000e-009,-4.57500488e-004
,,,-3.65000000e-009,-4.68281738e-004
,,,-3.62500000e-009,-4.80000488e-004
,,,-3.60000000e-009,-4.91250489e-004
,,,-3.57500000e-009,-5.00156739e-004
,,,-3.55000000e-009,-5.06250489e-004
,,,-3.52500000e-009,-5.09062989e-004
,,,-3.50000000e-009,-5.07656739e-004
,,,-3.47500000e-009,-5.02500489e-004
,,,-3.45000000e-009,-4.93125489e-004
,,,-3.42500000e-009,-4.80000488e-004
,,,-3.40000000e-009,-4.63594238e-004
,,,-3.37500000e-009,-4.45781738e-004
,,,-3.35000000e-009,-4.27031738e-004
,,,-3.32500000e-009,-4.09219238e-004
,,,-3.30000000e-009,-3.92812988e-004
,,,-3.27500000e-009,-3.78750488e-004
,,,-3.25000000e-009,-3.67969237e-004
,,,-3.22500000e-009,-3.60000487e-004
,,,-3.20000000e-009,-3.55312987e-004
,,,-3.17500000e-009,-3.53437987e-004
,,,-3.15000000e-009,-3.53906737e-004
,,,-3.12500000e-009,-3.55781737e-004
,,,-3.10000000e-009,-3.58125487e-004
,,,-3.07500000e-009,-3.60000487e-004
,,,-3.05000000e-009,-3.60937987e-004
,,,-3.02500000e-009,-3.60000487e-004
,,,-3.00000000e-009,-3.58594237e-004
,,,-2.97500000e-009,-3.55781737e-004
,,,-2.95000000e-009,-3.52031737e-004
,,,-2.92500000e-009,-3.48281737e-004
,,,-2.90000000e-009,-3.46406737e-004
,,,-2.87500000e-009,-3.47344237e-004
,,,-2.85000000e-009,-3.51562987e-004
,,,-2.82500000e-009,-3.60000487e-004
,,,-2.80000000e-009,-3.71719238e-004
,,,-2.77500000e-009,-3.85781738e-004
,,,-2.75000000e-009,-4.02656738e-004
,,,-2.72500000e-009,-4.20937988e-004
,,,-2.70000000e-009,-4.38750488e-004
,,,-2.67500000e-009,-4.55625488e-004
,,,-2.65000000e-009,-4.70156738e-004
,,,-2.62500000e-009,-4.80000488e-004
,,,-2.60000000e-009,-4.83281738e-004
,,,-2.57500000e-009,-4.80000488e-004
,,,-2.55000000e-009,-4.70625488e-004
,,,-2.52500000e-009,-4.56094238e-004
,,,-2.50000000e-009,-4.36406738e-004
,,,-2.47500000e-009,-4.12969238e-004
,,,-2.45000000e-009,-3.87187988e-004
,,,-2.42500000e-009,-3.60000487e-004
,,,-2.40000000e-009,-3.34219237e-004
,,,-2.37500000e-009,-3.09844237e-004
,,,-2.35000000e-009,-2.88281737e-004
,,,-2.32500000e-009,-2.70469237e-004
,,,-2.30000000e-009,-2.56406737e-004
,,,-2.27500000e-009,-2.47031736e-004
,,,-2.25000000e-009,-2.41875486e-004
,,,-2.22500000e-009,-2.40000486e-004
,,,-2.20000000e-009,-2.43750486e-004
,,,-2.17500000e-009,-2.49844236e-004
,,,-2.15000000e-009,-2.55937987e-004
,,,-2.12500000e-009,-2.60625487e-004
,,,-2.10000000e-009,-2.62969237e-004
,,,-2.07500000e-009,-2.61094237e-004
,,,-2.05000000e-009,-2.53594236e-004
,,,-2.02500000e-009,-2.40000486e-004
,,,-2.00000000e-009,-2.24062986e-004
,,,-1.97500000e-009,-2.02031736e-004
,,,-1.95000000e-009,-1.74844236e-004
,,,-1.92500000e-009,-1.43437986e-004
,,,-1.90000000e-009,-1.08750485e-004
,,,-1.87500000e-009,-7.21879849e-005
,,,-1.85000000e-009,-3.51567346e-005
,,,-1.82500000e-009,-4.84287738e-010
,,,-1.80000000e-009,2.24995159e-005
,,,-1.77500000e-009,3.93745161e-005
,,,-1.75000000e-009,4.92182661e-005
,,,-1.72500000e-009,5.24995162e-005
,,,-1.70000000e-009,4.87495161e-005
,,,-1.67500000e-009,3.84370160e-005
,,,-1.65000000e-009,2.20307659e-005
,,,-1.62500000e-009,-4.84287738e-010
,,,-1.60000000e-009,-3.89067346e-005
,,,-1.57500000e-009,-8.25004850e-005
,,,-1.55000000e-009,-1.29375485e-004
,,,-1.52500000e-009,-1.78125486e-004
,,,-1.50000000e-009,-2.26406736e-004
,,,-1.47500000e-009,-2.73750487e-004
,,,-1.45000000e-009,-3.18750487e-004
,,,-1.42500000e-009,-3.60000487e-004
,,,-1.40000000e-009,-4.10156738e-004
,,,-1.37500000e-009,-4.57031738e-004
,,,-1.35000000e-009,-4.98281739e-004
,,,-1.32500000e-009,-5.33906739e-004
,,,-1.30000000e-009,-5.61562989e-004
,,,-1.27500000e-009,-5.81719239e-004
,,,-1.25000000e-009,-5.93906739e-004
,,,-1.22500000e-009,-6.00000490e-004
,,,-1.20000000e-009,-6.17344240e-004
,,,-1.17500000e-009,-6.35625490e-004
,,,-1.15000000e-009,-6.56719240e-004
,,,-1.12500000e-009,-6.82031740e-004
,,,-1.10000000e-009,-7.12031740e-004
,,,-1.07500000e-009,-7.48125491e-004
,,,-1.05000000e-009,-7.90781741e-004
,,,-1.02500000e-009,-8.40000492e-004
,,,-1.00000000e-009,-9.13125492e-004
,,,-9.75000000e-010,-9.94219243e-004
,,,-9.50000000e-010,-1.08000049e-003
,,,-9.25000000e-010,-1.16578174e-003
,,,-9.00000000e-010,-1.24781300e-003
,,,-8.75000000e-010,-1.32187550e-003
,,,-8.50000000e-010,-1.38656300e-003
,,,-8.25000000e-010,-1.44000050e-003
,,,-8.00000000e-010,-1.49812550e-003
,,,-7.75000000e-010,-1.55250050e-003
,,,-7.50000000e-010,-1.60453175e-003
,,,-7.25000000e-010,-1.65703175e-003
,,,-7.00000000e-010,-1.71234425e-003
,,,-6.75000000e-010,-1.77281300e-003
,,,-6.50000000e-010,-1.84125050e-003
,,,-6.25000000e-010,-1.92000050e-003
,,,-6.00000000e-010,-2.02265675e-003
,,,-5.75000000e-010,-2.14125050e-003
,,,-5.50000000e-010,-2.27390675e-003
,,,-5.25000000e-010,-2.41640676e-003
,,,-5.00000000e-010,-2.56453176e-003
,,,-4.75000000e-010,-2.71406301e-003
,,,-4.50000000e-010,-2.86031301e-003
,,,-4.25000000e-010,-3.00000051e-003
,,,-4.00000000e-010,-3.13734426e-003
,,,-3.75000000e-010,-3.26906301e-003
,,,-3.50000000e-010,-3.39515676e-003
,,,-3.25000000e-010,-3.51609426e-003
,,,-3.00000000e-010,-3.63187552e-003
,,,-2.75000000e-010,-3.74390677e-003
,,,-2.50000000e-010,-3.85265677e-003
,,,-2.25000000e-010,-3.96000052e-003
,,,-2.00000000e-010,-4.06640677e-003
,,,-1.75000000e-010,-4.17890677e-003
,,,-1.50000000e-010,-4.29703177e-003
,,,-1.25000000e-010,-4.41984427e-003
,,,-1.00000000e-010,-4.54640677e-003
,,,-7.50000000e-011,-4.67343802e-003
,,,-5.00000000e-011,-4.79859428e-003
,,,-2.50000000e-011,-4.92000053e-003
,,,0.00000000e+000,-5.02640678e-003
,,,2.50000000e-011,-5.13000053e-003
,,,5.00000000e-011,-5.23031303e-003
,,,7.50000000e-011,-5.32593803e-003
,,,1.00000000e-010,-5.41546928e-003
,,,1.25000000e-010,-5.49843803e-003
,,,1.50000000e-010,-5.57343803e-003
,,,1.75000000e-010,-5.64000053e-003
,,,2.00000000e-010,-5.68406303e-003
,,,2.25000000e-010,-5.72531303e-003
,,,2.50000000e-010,-5.76656303e-003
,,,2.75000000e-010,-5.80921928e-003
,,,3.00000000e-010,-5.85328179e-003
,,,3.25000000e-010,-5.90015679e-003
,,,3.50000000e-010,-5.94937554e-003
,,,3.75000000e-010,-6.00000054e-003
,,,4.00000000e-010,-6.03468804e-003
,,,4.25000000e-010,-6.07406304e-003
,,,4.50000000e-010,-6.11812554e-003
,,,4.75000000e-010,-6.16640679e-003
,,,5.00000000e-010,-6.21703179e-003
,,,5.25000000e-010,-6.26718804e-003
,,,5.50000000e-010,-6.31593804e-003
,,,5.75000000e-010,-6.36000054e-003
,,,6.00000000e-010,-6.38015679e-003
,,,6.25000000e-010,-6.39656304e-003
,,,6.50000000e-010,-6.41156304e-003
,,,6.75000000e-010,-6.42562554e-003
,,,7.00000000e-010,-6.43921929e-003
,,,7.25000000e-010,-6.45281304e-003
,,,7.50000000e-010,-6.46687554e-003
,,,7.75000000e-010,-6.48000054e-003
,,,8.00000000e-010,-6.47250054e-003
,,,8.25000000e-010,-6.46406304e-003
,,,8.50000000e-010,-6.45468804e-003
,,,8.75000000e-010,-6.44390679e-003
,,,9.00000000e-010,-6.43031304e-003
,,,9.25000000e-010,-6.41250054e-003
,,,9.50000000e-010,-6.38953179e-003
,,,9.75000000e-010,-6.36000054e-003
,,,1.00000000e-009,-6.30609429e-003
,,,1.02500000e-009,-6.24656304e-003
,,,1.05000000e-009,-6.18234429e-003
,,,1.07500000e-009,-6.11671929e-003
,,,1.10000000e-009,-6.05203179e-003
,,,1.12500000e-009,-5.99015679e-003
,,,1.15000000e-009,-5.93250054e-003
,,,1.17500000e-009,-5.88000054e-003
,,,1.20000000e-009,-5.81953178e-003
,,,1.22500000e-009,-5.76328178e-003
,,,1.25000000e-009,-5.71218803e-003
,,,1.27500000e-009,-5.66625053e-003
,,,1.30000000e-009,-5.62500053e-003
,,,1.32500000e-009,-5.58796928e-003
,,,1.35000000e-009,-5.55375053e-003
,,,1.37500000e-009,-5.52000053e-003
,,,1.40000000e-009,-5.47312553e-003
,,,1.42500000e-009,-5.42109428e-003
,,,1.45000000e-009,-5.36484428e-003
,,,1.47500000e-009,-5.30484428e-003
,,,1.50000000e-009,-5.24109428e-003
,,,1.52500000e-009,-5.17546928e-003
,,,1.55000000e-009,-5.10796928e-003
,,,1.57500000e-009,-5.04000053e-003
,,,1.60000000e-009,-4.96218803e-003
,,,1.62500000e-009,-4.88156303e-003
,,,1.65000000e-009,-4.80000053e-003
,,,1.67500000e-009,-4.71984428e-003
,,,1.70000000e-009,-4.64296927e-003
,,,1.72500000e-009,-4.57031302e-003
,,,1.75000000e-009,-4.50281302e-003
,,,1.77500000e-009,-4.44000052e-003
,,,1.80000000e-009,-4.37531302e-003
,,,1.82500000e-009,-4.30921927e-003
,,,1.85000000e-009,-4.24078177e-003
,,,1.87500000e-009,-4.16859427e-003
,,,1.90000000e-009,-4.09312552e-003
,,,1.92500000e-009,-4.01343802e-003
,,,1.95000000e-009,-3.92906302e-003
,,,1.97500000e-009,-3.84000052e-003
,,,2.00000000e-009,-3.74437552e-003
,,,2.02500000e-009,-3.64078177e-003
,,,2.05000000e-009,-3.53156301e-003
,,,2.07500000e-009,-3.41953176e-003
,,,2.10000000e-009,-3.30750051e-003
,,,2.12500000e-009,-3.19875051e-003
,,,2.15000000e-009,-3.09562551e-003
,,,2.17500000e-009,-3.00000051e-003
,,,2.20000000e-009,-2.91562551e-003
,,,2.22500000e-009,-2.83500051e-003
,,,2.25000000e-009,-2.75812551e-003
,,,2.27500000e-009,-2.68453176e-003
,,,2.30000000e-009,-2.61281301e-003
,,,2.32500000e-009,-2.54203176e-003
,,,2.35000000e-009,-2.47125051e-003
,,,2.37500000e-009,-2.40000051e-003
,,,2.40000000e-009,-2.33484425e-003
,,,2.42500000e-009,-2.26406300e-003
,,,2.45000000e-009,-2.18859425e-003
,,,2.47500000e-009,-2.10984425e-003
,,,2.50000000e-009,-2.02921925e-003
,,,2.52500000e-009,-1.94906300e-003
,,,2.55000000e-009,-1.87218800e-003
,,,2.57500000e-009,-1.80000050e-003
,,,2.60000000e-009,-1.74375050e-003
,,,2.62500000e-009,-1.69078175e-003
,,,2.65000000e-009,-1.64062550e-003
,,,2.67500000e-009,-1.59375050e-003
,,,2.70000000e-009,-1.55062550e-003
,,,2.72500000e-009,-1.51078175e-003
,,,2.75000000e-009,-1.47375050e-003
,,,2.77500000e-009,-1.44000050e-003
,,,2.80000000e-009,-1.41843800e-003
,,,2.82500000e-009,-1.39406300e-003
,,,2.85000000e-009,-1.36687550e-003
,,,2.87500000e-009,-1.33687550e-003
,,,2.90000000e-009,-1.30406300e-003
,,,2.92500000e-009,-1.26984425e-003
,,,2.95000000e-009,-1.23468800e-003
,,,2.97500000e-009,-1.20000049e-003
,,,3.00000000e-009,-1.17750049e-003
,,,3.02500000e-009,-1.15500049e-003
,,,3.05000000e-009,-1.13343799e-003
,,,3.07500000e-009,-1.11375049e-003
,,,3.10000000e-009,-1.09734424e-003
,,,3.12500000e-009,-1.08609424e-003
,,,3.15000000e-009,-1.08000049e-003
,,,3.17500000e-009,-1.08000049e-003
,,,3.20000000e-009,-1.09453174e-003
,,,3.22500000e-009,-1.11187549e-003
,,,3.25000000e-009,-1.13062549e-003
,,,3.27500000e-009,-1.14937549e-003
,,,3.30000000e-009,-1.16718799e-003
,,,3.32500000e-009,-1.18218799e-003
,,,3.35000000e-009,-1.19343799e-003
,,,3.37500000e-009,-1.20000049e-003
,,,3.40000000e-009,-1.20609424e-003
,,,3.42500000e-009,-1.20515674e-003
,,,3.45000000e-009,-1.19671924e-003
,,,3.47500000e-009,-1.18171924e-003
,,,3.50000000e-009,-1.16109424e-003
,,,3.52500000e-009,-1.13625049e-003
,,,3.55000000e-009,-1.10906299e-003
,,,3.57500000e-009,-1.08000049e-003
,,,3.60000000e-009,-1.05562549e-003
,,,3.62500000e-009,-1.03218799e-003
,,,3.65000000e-009,-1.01109424e-003
,,,3.67500000e-009,-9.93281743e-004
,,,3.70000000e-009,-9.78750493e-004
,,,3.72500000e-009,-9.67969243e-004
,,,3.75000000e-009,-9.61875493e-004
,,,3.77500000e-009,-9.60000493e-004
,,,3.80000000e-009,-9.66094243e-004
,,,3.82500000e-009,-9.75469243e-004
,,,3.85000000e-009,-9.88125493e-004
,,,3.87500000e-009,-1.00359424e-003
,,,3.90000000e-009,-1.02093799e-003
,,,3.92500000e-009,-1.03968799e-003
,,,3.95000000e-009,-1.05984424e-003
,,,3.97500000e-009,-1.08000049e-003
,,,4.00000000e-009,-1.10015674e-003
,,,4.02500000e-009,-1.11937549e-003
,,,4.05000000e-009,-1.13718799e-003
,,,4.07500000e-009,-1.15312549e-003
,,,4.10000000e-009,-1.16765674e-003
,,,4.12500000e-009,-1.18031299e-003
,,,4.15000000e-009,-1.19109424e-003
,,,4.17500000e-009,-1.20000049e-003
,,,4.20000000e-009,-1.20421924e-003
,,,4.22500000e-009,-1.20609424e-003
,,,4.25000000e-009,-1.20656299e-003
,,,4.27500000e-009,-1.20562549e-003
,,,4.30000000e-009,-1.20421924e-003
,,,4.32500000e-009,-1.20281299e-003
,,,4.35000000e-009,-1.20140674e-003
,,,4.37500000e-009,-1.20000049e-003
,,,4.40000000e-009,-1.19671924e-003
,,,4.42500000e-009,-1.19390674e-003
,,,4.45000000e-009,-1.19203174e-003
,,,4.47500000e-009,-1.19062549e-003
,,,4.50000000e-009,-1.19109424e-003
,,,4.52500000e-009,-1.19296924e-003
,,,4.55000000e-009,-1.19578174e-003
,,,4.57500000e-009,-1.20000049e-003
,,,4.60000000e-009,-1.20093799e-003
,,,4.62500000e-009,-1.20187549e-003
,,,4.65000000e-009,-1.20281299e-003
,,,4.67500000e-009,-1.20375049e-003
,,,4.70000000e-009,-1.20421924e-003
,,,4.72500000e-009,-1.20421924e-003
,,,4.75000000e-009,-1.20328174e-003
,,,4.77500000e-009,-1.20000049e-003
,,,4.80000000e-009,-1.18781299e-003
,,,4.82500000e-009,-1.17093799e-003
,,,4.85000000e-009,-1.14937549e-003
,,,4.87500000e-009,-1.12218799e-003
,,,4.90000000e-009,-1.08937549e-003
,,,4.92500000e-009,-1.05140674e-003
,,,4.95000000e-009,-1.00828174e-003
,,,4.97500000e-009,-9.60000493e-004
,,,5.00000000e-009,-9.07500492e-004
,,,5.02500000e-009,-8.53594242e-004
,,,5.05000000e-009,-7.99687991e-004
,,,5.07500000e-009,-7.48594241e-004
,,,5.10000000e-009,-7.01250490e-004
,,,5.12500000e-009,-6.60000490e-004
,,,5.15000000e-009,-6.25781740e-004
,,,5.17500000e-009,-6.00000490e-004
,,,5.20000000e-009,-5.85469239e-004
,,,5.22500000e-009,-5.77969239e-004
,,,5.25000000e-009,-5.77031739e-004
,,,5.27500000e-009,-5.80312989e-004
,,,5.30000000e-009,-5.86406739e-004
,,,5.32500000e-009,-5.93437989e-004
,,,5.35000000e-009,-5.98594239e-004
,,,5.37500000e-009,-6.00000490e-004
,,,5.40000000e-009,-5.99062989e-004
,,,5.42500000e-009,-5.90625489e-004
,,,5.45000000e-009,-5.73281739e-004
,,,5.47500000e-009,-5.46562989e-004
,,,5.50000000e-009,-5.10937989e-004
,,,5.52500000e-009,-4.66875488e-004
,,,5.55000000e-009,-4.15781738e-004
,,,5.57500000e-009,-3.60000487e-004
,,,5.60000000e-009,-3.08906737e-004
,,,5.62500000e-009,-2.58281737e-004
,,,5.65000000e-009,-2.11875486e-004
,,,5.67500000e-009,-1.71562986e-004
,,,5.70000000e-009,-1.40625486e-004
,,,5.72500000e-009,-1.20937985e-004
,,,5.75000000e-009,-1.13906735e-004
,,,5.77500000e-009,-1.20000485e-004
,,,5.80000000e-009,-1.46250486e-004
,,,5.82500000e-009,-1.82812986e-004
