RawData/DifferentLengths/R3/R3_12pt5_5mV/wave014_Ch3.csv

"Record Length",1000,"Points",-7.72500000e-009,2.09062018e-004
"Sample Interval",2.50000000e-011,s,-7.70000000e-009,2.28749518e-004
"Trigger Point",309,"Samples",-7.67500000e-009,2.42343268e-004
"Trigger Time",2.49016121e-011,s,-7.65000000e-009,2.48437018e-004
"",,,-7.62500000e-009,2.47499518e-004
"Horizontal Offset",-7.72500000e-009,s,-7.60000000e-009,2.39999518e-004
,,,-7.57500000e-009,2.22655768e-004
,,,-7.55000000e-009,2.01562017e-004
,,,-7.52500000e-009,1.79530767e-004
,,,-7.50000000e-009,1.57968267e-004
,,,-7.47500000e-009,1.39687017e-004
,,,-7.45000000e-009,1.26562017e-004
,,,-7.42500000e-009,1.19530767e-004
,,,-7.40000000e-009,1.19999517e-004
,,,-7.37500000e-009,1.24687017e-004
,,,-7.35000000e-009,1.36405767e-004
,,,-7.32500000e-009,1.52812017e-004
,,,-7.30000000e-009,1.72968267e-004
,,,-7.27500000e-009,1.94062017e-004
,,,-7.25000000e-009,2.13749518e-004
,,,-7.22500000e-009,2.29687018e-004
,,,-7.20000000e-009,2.39999518e-004
,,,-7.17500000e-009,2.38124518e-004
,,,-7.15000000e-009,2.27343268e-004
,,,-7.12500000e-009,2.07187018e-004
,,,-7.10000000e-009,1.78124517e-004
,,,-7.07500000e-009,1.41562017e-004
,,,-7.05000000e-009,9.79682666e-005
,,,-7.02500000e-009,5.01557661e-005
,,,-7.00000000e-009,-4.84287738e-010
,,,-6.97500000e-009,-5.29692347e-005
,,,-6.95000000e-009,-1.02656735e-004
,,,-6.92500000e-009,-1.46719236e-004
,,,-6.90000000e-009,-1.84219236e-004
,,,-6.87500000e-009,-2.12812986e-004
,,,-6.85000000e-009,-2.32031736e-004
,,,-6.82500000e-009,-2.40937986e-004
,,,-6.80000000e-009,-2.40000486e-004
,,,-6.77500000e-009,-2.28281736e-004
,,,-6.75000000e-009,-2.10469236e-004
,,,-6.72500000e-009,-1.88906736e-004
,,,-6.70000000e-009,-1.66875486e-004
,,,-6.67500000e-009,-1.46719236e-004
,,,-6.65000000e-009,-1.31250485e-004
,,,-6.62500000e-009,-1.21875485e-004
,,,-6.60000000e-009,-1.20000485e-004
,,,-6.57500000e-009,-1.24219235e-004
,,,-6.55000000e-009,-1.35937985e-004
,,,-6.52500000e-009,-1.52812986e-004
,,,-6.50000000e-009,-1.73437986e-004
,,,-6.47500000e-009,-1.94531736e-004
,,,-6.45000000e-009,-2.14219236e-004
,,,-6.42500000e-009,-2.29687986e-004
,,,-6.40000000e-009,-2.40000486e-004
,,,-6.37500000e-009,-2.42344236e-004
,,,-6.35000000e-009,-2.39531736e-004
,,,-6.32500000e-009,-2.33437986e-004
,,,-6.30000000e-009,-2.26875486e-004
,,,-6.27500000e-009,-2.22187986e-004
,,,-6.25000000e-009,-2.21719236e-004
,,,-6.22500000e-009,-2.27344236e-004
,,,-6.20000000e-009,-2.40000486e-004
,,,-6.17500000e-009,-2.56875487e-004
,,,-6.15000000e-009,-2.78906737e-004
,,,-6.12500000e-009,-3.04219237e-004
,,,-6.10000000e-009,-3.29531737e-004
,,,-6.07500000e-009,-3.50625487e-004
,,,-6.05000000e-009,-3.65156737e-004
,,,-6.02500000e-009,-3.68906737e-004
,,,-6.00000000e-009,-3.60000487e-004
,,,-5.97500000e-009,-3.35156737e-004
,,,-5.95000000e-009,-2.98594237e-004
,,,-5.92500000e-009,-2.52187986e-004
,,,-5.90000000e-009,-1.99219236e-004
,,,-5.87500000e-009,-1.43906736e-004
,,,-5.85000000e-009,-8.95317351e-005
,,,-5.82500000e-009,-4.07817346e-005
,,,-5.80000000e-009,-4.84287738e-010
,,,-5.77500000e-009,2.85932660e-005
,,,-5.75000000e-009,4.54682661e-005
,,,-5.72500000e-009,5.24995162e-005
,,,-5.70000000e-009,5.01557661e-005
,,,-5.67500000e-009,4.07807661e-005
,,,-5.65000000e-009,2.76557660e-005
,,,-5.62500000e-009,1.31245158e-005
,,,-5.60000000e-009,-4.84287738e-010
,,,-5.57500000e-009,-1.12504844e-005
,,,-5.55000000e-009,-1.82817344e-005
,,,-5.52500000e-009,-2.10942345e-005
,,,-5.50000000e-009,-1.96879845e-005
,,,-5.47500000e-009,-1.59379844e-005
,,,-5.45000000e-009,-1.03129844e-005
,,,-5.42500000e-009,-4.68798433e-006
,,,-5.40000000e-009,-4.84287738e-010
,,,-5.37500000e-009,1.40576572e-006
,,,-5.35000000e-009,9.37015720e-007
,,,-5.32500000e-009,-4.69234292e-007
,,,-5.30000000e-009,-2.34423431e-006
,,,-5.27500000e-009,-4.21923432e-006
,,,-5.25000000e-009,-4.68798433e-006
,,,-5.22500000e-009,-3.28173432e-006
,,,-5.20000000e-009,-4.84287738e-010
,,,-5.17500000e-009,2.81201574e-006
,,,-5.15000000e-009,7.03076577e-006
,,,-5.12500000e-009,1.17182658e-005
,,,-5.10000000e-009,1.59370159e-005
,,,-5.07500000e-009,1.73432659e-005
,,,-5.05000000e-009,1.59370159e-005
,,,-5.02500000e-009,1.03120158e-005
,,,-5.00000000e-009,-4.84287738e-010
,,,-4.97500000e-009,-1.78129844e-005
,,,-4.95000000e-009,-3.84379846e-005
,,,-4.92500000e-009,-6.04692348e-005
,,,-4.90000000e-009,-8.10942350e-005
,,,-4.87500000e-009,-9.93754852e-005
,,,-4.85000000e-009,-1.12969235e-004
,,,-4.82500000e-009,-1.20000485e-004
,,,-4.80000000e-009,-1.20000485e-004
,,,-4.77500000e-009,-1.13906735e-004
,,,-4.75000000e-009,-1.01719235e-004
,,,-4.72500000e-009,-8.48442350e-005
,,,-4.70000000e-009,-6.46879849e-005
,,,-4.67500000e-009,-4.45317347e-005
,,,-4.65000000e-009,-2.57817345e-005
,,,-4.62500000e-009,-1.03129844e-005
,,,-4.60000000e-009,-4.84287738e-010
,,,-4.57500000e-009,2.34326573e-006
,,,-4.55000000e-009,-2.34423431e-006
,,,-4.52500000e-009,-1.31254844e-005
,,,-4.50000000e-009,-2.95317345e-005
,,,-4.47500000e-009,-5.01567347e-005
,,,-4.45000000e-009,-7.31254849e-005
,,,-4.42500000e-009,-9.70317351e-005
,,,-4.40000000e-009,-1.20000485e-004
,,,-4.37500000e-009,-1.41562986e-004
,,,-4.35000000e-009,-1.59844236e-004
,,,-4.32500000e-009,-1.76250486e-004
,,,-4.30000000e-009,-1.90312986e-004
,,,-4.27500000e-009,-2.03437986e-004
,,,-4.25000000e-009,-2.15156736e-004
,,,-4.22500000e-009,-2.27344236e-004
,,,-4.20000000e-009,-2.40000486e-004
,,,-4.17500000e-009,-2.52187986e-004
,,,-4.15000000e-009,-2.65312987e-004
,,,-4.12500000e-009,-2.80312987e-004
,,,-4.10000000e-009,-2.96250487e-004
,,,-4.07500000e-009,-3.12656737e-004
,,,-4.05000000e-009,-3.29531737e-004
,,,-4.02500000e-009,-3.45469237e-004
,,,-4.00000000e-009,-3.60000487e-004
,,,-3.97500000e-009,-3.69844238e-004
,,,-3.95000000e-009,-3.76406738e-004
,,,-3.92500000e-009,-3.80156738e-004
,,,-3.90000000e-009,-3.81562988e-004
,,,-3.87500000e-009,-3.80156738e-004
,,,-3.85000000e-009,-3.75937988e-004
,,,-3.82500000e-009,-3.68906737e-004
,,,-3.80000000e-009,-3.60000487e-004
,,,-3.77500000e-009,-3.46875487e-004
,,,-3.75000000e-009,-3.31875487e-004
,,,-3.72500000e-009,-3.16406737e-004
,,,-3.70000000e-009,-3.00469237e-004
,,,-3.67500000e-009,-2.85000487e-004
,,,-3.65000000e-009,-2.69531737e-004
,,,-3.62500000e-009,-2.54531737e-004
,,,-3.60000000e-009,-2.40000486e-004
,,,-3.57500000e-009,-2.24531736e-004
,,,-3.55000000e-009,-2.09531736e-004
,,,-3.52500000e-009,-1.95000486e-004
,,,-3.50000000e-009,-1.80937986e-004
,,,-3.47500000e-009,-1.66406736e-004
,,,-3.45000000e-009,-1.51875486e-004
,,,-3.42500000e-009,-1.36406735e-004
,,,-3.40000000e-009,-1.20000485e-004
,,,-3.37500000e-009,-1.03125485e-004
,,,-3.35000000e-009,-8.53129850e-005
,,,-3.32500000e-009,-6.79692349e-005
,,,-3.30000000e-009,-5.10942347e-005
,,,-3.27500000e-009,-3.56254846e-005
,,,-3.25000000e-009,-2.15629845e-005
,,,-3.22500000e-009,-9.37548437e-006
,,,-3.20000000e-009,-4.84287738e-010
,,,-3.17500000e-009,3.28076574e-006
,,,-3.15000000e-009,4.21826575e-006
,,,-3.12500000e-009,3.28076574e-006
,,,-3.10000000e-009,1.40576572e-006
,,,-3.07500000e-009,-9.37984296e-007
,,,-3.05000000e-009,-1.87548430e-006
,,,-3.02500000e-009,-1.87548430e-006
,,,-3.00000000e-009,-4.84287738e-010
,,,-2.97500000e-009,-1.40673430e-006
,,,-2.95000000e-009,-1.40673430e-006
,,,-2.92500000e-009,-4.84287738e-010
,,,-2.90000000e-009,1.40576572e-006
,,,-2.87500000e-009,2.34326573e-006
,,,-2.85000000e-009,2.81201574e-006
,,,-2.82500000e-009,1.87451573e-006
,,,-2.80000000e-009,-4.84287738e-010
,,,-2.77500000e-009,-7.50048435e-006
,,,-2.75000000e-009,-1.54692344e-005
,,,-2.72500000e-009,-2.20317345e-005
,,,-2.70000000e-009,-2.62504845e-005
,,,-2.67500000e-009,-2.67192345e-005
,,,-2.65000000e-009,-2.25004845e-005
,,,-2.62500000e-009,-1.35942344e-005
,,,-2.60000000e-009,-4.84287738e-010
,,,-2.57500000e-009,1.26557658e-005
,,,-2.55000000e-009,2.62495159e-005
,,,-2.52500000e-009,3.89057661e-005
,,,-2.50000000e-009,4.78120161e-005
,,,-2.47500000e-009,5.06245162e-005
,,,-2.45000000e-009,4.45307661e-005
,,,-2.42500000e-009,2.81245160e-005
,,,-2.40000000e-009,-4.84287738e-010
,,,-2.37500000e-009,-4.26567347e-005
,,,-2.35000000e-009,-9.60942351e-005
,,,-2.32500000e-009,-1.57031736e-004
,,,-2.30000000e-009,-2.24062986e-004
,,,-2.27500000e-009,-2.92969237e-004
,,,-2.25000000e-009,-3.60469237e-004
,,,-2.22500000e-009,-4.23750488e-004
,,,-2.20000000e-009,-4.80000488e-004
,,,-2.17500000e-009,-5.25469239e-004
,,,-2.15000000e-009,-5.60156739e-004
,,,-2.12500000e-009,-5.84531739e-004
,,,-2.10000000e-009,-6.00000490e-004
,,,-2.07500000e-009,-6.07500490e-004
,,,-2.05000000e-009,-6.08906740e-004
,,,-2.02500000e-009,-6.05625490e-004
,,,-2.00000000e-009,-6.00000490e-004
,,,-1.97500000e-009,-5.92031739e-004
,,,-1.95000000e-009,-5.85469239e-004
,,,-1.92500000e-009,-5.81250489e-004
,,,-1.90000000e-009,-5.80312989e-004
,,,-1.87500000e-009,-5.82656739e-004
,,,-1.85000000e-009,-5.86875489e-004
,,,-1.82500000e-009,-5.93437989e-004
,,,-1.80000000e-009,-6.00000490e-004
,,,-1.77500000e-009,-6.05625490e-004
,,,-1.75000000e-009,-6.10312990e-004
,,,-1.72500000e-009,-6.14531740e-004
,,,-1.70000000e-009,-6.16875490e-004
,,,-1.67500000e-009,-6.17344240e-004
,,,-1.65000000e-009,-6.14531740e-004
,,,-1.62500000e-009,-6.08906740e-004
,,,-1.60000000e-009,-6.00000490e-004
,,,-1.57500000e-009,-5.89687989e-004
,,,-1.55000000e-009,-5.77500489e-004
,,,-1.52500000e-009,-5.64375489e-004
,,,-1.50000000e-009,-5.49375489e-004
,,,-1.47500000e-009,-5.33437989e-004
,,,-1.45000000e-009,-5.16094239e-004
,,,-1.42500000e-009,-4.98281739e-004
,,,-1.40000000e-009,-4.80000488e-004
,,,-1.37500000e-009,-4.70156738e-004
,,,-1.35000000e-009,-4.63125488e-004
,,,-1.32500000e-009,-4.60312988e-004
,,,-1.30000000e-009,-4.60312988e-004
,,,-1.27500000e-009,-4.63125488e-004
,,,-1.25000000e-009,-4.67812988e-004
,,,-1.22500000e-009,-4.73437988e-004
,,,-1.20000000e-009,-4.80000488e-004
,,,-1.17500000e-009,-5.02500489e-004
,,,-1.15000000e-009,-5.26406739e-004
,,,-1.12500000e-009,-5.50312989e-004
,,,-1.10000000e-009,-5.71406739e-004
,,,-1.07500000e-009,-5.87812989e-004
,,,-1.05000000e-009,-5.98594239e-004
,,,-1.02500000e-009,-6.02344240e-004
,,,-1.00000000e-009,-6.00000490e-004
,,,-9.75000000e-010,-6.15000490e-004
,,,-9.50000000e-010,-6.29062990e-004
,,,-9.25000000e-010,-6.43125490e-004
,,,-9.00000000e-010,-6.56719240e-004
,,,-8.75000000e-010,-6.70312990e-004
,,,-8.50000000e-010,-6.84375490e-004
,,,-8.25000000e-010,-7.00781740e-004
,,,-8.00000000e-010,-7.20000491e-004
,,,-7.75000000e-010,-7.70156741e-004
,,,-7.50000000e-010,-8.30156742e-004
,,,-7.25000000e-010,-8.99062992e-004
,,,-7.00000000e-010,-9.75469243e-004
,,,-6.75000000e-010,-1.05703174e-003
,,,-6.50000000e-010,-1.14281299e-003
,,,-6.25000000e-010,-1.23046924e-003
,,,-6.00000000e-010,-1.32000050e-003
,,,-5.75000000e-010,-1.43203175e-003
,,,-5.50000000e-010,-1.54875050e-003
,,,-5.25000000e-010,-1.66828175e-003
,,,-5.00000000e-010,-1.78968800e-003
,,,-4.75000000e-010,-1.91203175e-003
,,,-4.50000000e-010,-2.03390675e-003
,,,-4.25000000e-010,-2.15671925e-003
,,,-4.00000000e-010,-2.28000050e-003
,,,-3.75000000e-010,-2.41593801e-003
,,,-3.50000000e-010,-2.55890676e-003
,,,-3.25000000e-010,-2.70984426e-003
,,,-3.00000000e-010,-2.87015676e-003
,,,-2.75000000e-010,-3.03984426e-003
,,,-2.50000000e-010,-3.21843801e-003
,,,-2.25000000e-010,-3.40546926e-003
,,,-2.00000000e-010,-3.60000052e-003
,,,-1.75000000e-010,-3.79453177e-003
,,,-1.50000000e-010,-3.99468802e-003
,,,-1.25000000e-010,-4.19859427e-003
,,,-1.00000000e-010,-4.40296927e-003
,,,-7.50000000e-011,-4.60453177e-003
,,,-5.00000000e-011,-4.80046928e-003
,,,-2.50000000e-011,-4.98656303e-003
,,,0.00000000e+000,-5.16000053e-003
,,,2.50000000e-011,-5.29734428e-003
,,,5.00000000e-011,-5.42203178e-003
,,,7.50000000e-011,-5.53687553e-003
,,,1.00000000e-010,-5.64281303e-003
,,,1.25000000e-010,-5.74125053e-003
,,,1.50000000e-010,-5.83312553e-003
,,,1.75000000e-010,-5.91984429e-003
,,,2.00000000e-010,-6.00000054e-003
,,,2.25000000e-010,-6.04171929e-003
,,,2.50000000e-010,-6.08062554e-003
,,,2.75000000e-010,-6.11812554e-003
,,,3.00000000e-010,-6.15328179e-003
,,,3.25000000e-010,-6.18562554e-003
,,,3.50000000e-010,-6.21234429e-003
,,,3.75000000e-010,-6.23156304e-003
,,,4.00000000e-010,-6.24000054e-003
,,,4.25000000e-010,-6.20109429e-003
,,,4.50000000e-010,-6.15328179e-003
,,,4.75000000e-010,-6.09796929e-003
,,,5.00000000e-010,-6.03703179e-003
,,,5.25000000e-010,-5.97234429e-003
,,,5.50000000e-010,-5.90390679e-003
,,,5.75000000e-010,-5.83312553e-003
,,,6.00000000e-010,-5.76000053e-003
,,,6.25000000e-010,-5.65546928e-003
,,,6.50000000e-010,-5.55281303e-003
,,,6.75000000e-010,-5.45390678e-003
,,,7.00000000e-010,-5.36015678e-003
,,,7.25000000e-010,-5.27296928e-003
,,,7.50000000e-010,-5.19093803e-003
,,,7.75000000e-010,-5.11406303e-003
,,,8.00000000e-010,-5.04000053e-003
,,,8.25000000e-010,-4.94718803e-003
,,,8.50000000e-010,-4.85578178e-003
,,,8.75000000e-010,-4.76531303e-003
,,,9.00000000e-010,-4.67531302e-003
,,,9.25000000e-010,-4.58671927e-003
,,,9.50000000e-010,-4.49812552e-003
,,,9.75000000e-010,-4.40953177e-003
,,,1.00000000e-009,-4.32000052e-003
,,,1.02500000e-009,-4.21875052e-003
,,,1.05000000e-009,-4.11375052e-003
,,,1.07500000e-009,-4.00593802e-003
,,,1.10000000e-009,-3.89718802e-003
,,,1.12500000e-009,-3.78890677e-003
,,,1.15000000e-009,-3.68250052e-003
,,,1.17500000e-009,-3.57937552e-003
,,,1.20000000e-009,-3.48000051e-003
,,,1.22500000e-009,-3.38484426e-003
,,,1.25000000e-009,-3.29015676e-003
,,,1.27500000e-009,-3.19640676e-003
,,,1.30000000e-009,-3.10453176e-003
,,,1.32500000e-009,-3.01453176e-003
,,,1.35000000e-009,-2.92687551e-003
,,,1.37500000e-009,-2.84203176e-003
,,,1.40000000e-009,-2.76000051e-003
,,,1.42500000e-009,-2.68640676e-003
,,,1.45000000e-009,-2.61093801e-003
,,,1.47500000e-009,-2.53406301e-003
,,,1.50000000e-009,-2.45578176e-003
,,,1.52500000e-009,-2.37843800e-003
,,,1.55000000e-009,-2.30250050e-003
,,,1.57500000e-009,-2.22937550e-003
,,,1.60000000e-009,-2.16000050e-003
,,,1.62500000e-009,-2.10468800e-003
,,,1.65000000e-009,-2.04843800e-003
,,,1.67500000e-009,-1.99078175e-003
,,,1.70000000e-009,-1.93125050e-003
,,,1.72500000e-009,-1.86984425e-003
,,,1.75000000e-009,-1.80703175e-003
,,,1.77500000e-009,-1.74375050e-003
,,,1.80000000e-009,-1.68000050e-003
,,,1.82500000e-009,-1.62796925e-003
,,,1.85000000e-009,-1.57406300e-003
,,,1.87500000e-009,-1.52062550e-003
,,,1.90000000e-009,-1.46859425e-003
,,,1.92500000e-009,-1.42078175e-003
,,,1.95000000e-009,-1.37953175e-003
,,,1.97500000e-009,-1.34578175e-003
,,,2.00000000e-009,-1.32000050e-003
,,,2.02500000e-009,-1.31390675e-003
,,,2.05000000e-009,-1.30968800e-003
,,,2.07500000e-009,-1.30546925e-003
,,,2.10000000e-009,-1.29796925e-003
,,,2.12500000e-009,-1.28484425e-003
,,,2.15000000e-009,-1.26468800e-003
,,,2.17500000e-009,-1.23656300e-003
,,,2.20000000e-009,-1.20000049e-003
,,,2.22500000e-009,-1.16578174e-003
,,,2.25000000e-009,-1.12453174e-003
,,,2.27500000e-009,-1.08046924e-003
,,,2.30000000e-009,-1.03734424e-003
,,,2.32500000e-009,-9.99844243e-004
,,,2.35000000e-009,-9.72656743e-004
,,,2.37500000e-009,-9.58594243e-004
,,,2.40000000e-009,-9.60000493e-004
,,,2.42500000e-009,-9.83906743e-004
,,,2.45000000e-009,-1.01859424e-003
,,,2.47500000e-009,-1.05984424e-003
,,,2.50000000e-009,-1.10296924e-003
,,,2.52500000e-009,-1.14281299e-003
,,,2.55000000e-009,-1.17468799e-003
,,,2.57500000e-009,-1.19484424e-003
,,,2.60000000e-009,-1.20000049e-003
,,,2.62500000e-009,-1.19296924e-003
,,,2.65000000e-009,-1.17046924e-003
,,,2.67500000e-009,-1.13578174e-003
,,,2.70000000e-009,-1.09359424e-003
,,,2.72500000e-009,-1.04953174e-003
,,,2.75000000e-009,-1.00921924e-003
,,,2.77500000e-009,-9.78281743e-004
,,,2.80000000e-009,-9.60000493e-004
,,,2.82500000e-009,-9.60000493e-004
,,,2.85000000e-009,-9.74531743e-004
,,,2.87500000e-009,-1.00171924e-003
,,,2.90000000e-009,-1.03921924e-003
,,,2.92500000e-009,-1.08234424e-003
,,,2.95000000e-009,-1.12640674e-003
,,,2.97500000e-009,-1.16671924e-003
,,,3.00000000e-009,-1.20000049e-003
,,,3.02500000e-009,-1.22156299e-003
,,,3.05000000e-009,-1.23000049e-003
,,,3.07500000e-009,-1.22531299e-003
,,,3.10000000e-009,-1.20937549e-003
,,,3.12500000e-009,-1.18359424e-003
,,,3.15000000e-009,-1.15171924e-003
,,,3.17500000e-009,-1.11609424e-003
,,,3.20000000e-009,-1.08000049e-003
,,,3.22500000e-009,-1.04531299e-003
,,,3.25000000e-009,-1.01531299e-003
,,,3.27500000e-009,-9.90937993e-004
,,,3.30000000e-009,-9.73125493e-004
,,,3.32500000e-009,-9.61875493e-004
,,,3.35000000e-009,-9.56719243e-004
,,,3.37500000e-009,-9.56250493e-004
,,,3.40000000e-009,-9.60000493e-004
,,,3.42500000e-009,-9.65156743e-004
,,,3.45000000e-009,-9.70781743e-004
,,,3.47500000e-009,-9.75937993e-004
,,,3.50000000e-009,-9.79219243e-004
,,,3.52500000e-009,-9.79687993e-004
,,,3.55000000e-009,-9.76875493e-004
,,,3.57500000e-009,-9.70312993e-004
,,,3.60000000e-009,-9.60000493e-004
,,,3.62500000e-009,-9.45469243e-004
,,,3.65000000e-009,-9.28125492e-004
,,,3.67500000e-009,-9.08906742e-004
,,,3.70000000e-009,-8.89687992e-004
,,,3.72500000e-009,-8.71875492e-004
,,,3.75000000e-009,-8.56875492e-004
,,,3.77500000e-009,-8.46562992e-004
,,,3.80000000e-009,-8.40000492e-004
,,,3.82500000e-009,-8.36719242e-004
,,,3.85000000e-009,-8.36719242e-004
,,,3.87500000e-009,-8.39062992e-004
,,,3.90000000e-009,-8.42812992e-004
,,,3.92500000e-009,-8.46094242e-004
,,,3.95000000e-009,-8.47500492e-004
,,,3.97500000e-009,-8.45625492e-004
,,,4.00000000e-009,-8.40000492e-004
,,,4.02500000e-009,-8.29687991e-004
,,,4.05000000e-009,-8.15156741e-004
,,,4.07500000e-009,-7.96875491e-004
,,,4.10000000e-009,-7.77656741e-004
,,,4.12500000e-009,-7.58437991e-004
,,,4.15000000e-009,-7.41562991e-004
,,,4.17500000e-009,-7.28437991e-004
,,,4.20000000e-009,-7.20000491e-004
,,,4.22500000e-009,-7.16250491e-004
,,,4.25000000e-009,-7.15781741e-004
,,,4.27500000e-009,-7.18594241e-004
,,,4.30000000e-009,-7.22812991e-004
,,,4.32500000e-009,-7.26562991e-004
,,,4.35000000e-009,-7.28437991e-004
,,,4.37500000e-009,-7.27031741e-004
,,,4.40000000e-009,-7.20000491e-004
,,,4.42500000e-009,-7.06875490e-004
,,,4.45000000e-009,-6.86719240e-004
,,,4.47500000e-009,-6.60000490e-004
,,,4.50000000e-009,-6.28594240e-004
,,,4.52500000e-009,-5.92969239e-004
,,,4.55000000e-009,-5.55000489e-004
,,,4.57500000e-009,-5.17031739e-004
,,,4.60000000e-009,-4.80000488e-004
,,,4.62500000e-009,-4.47656738e-004
,,,4.65000000e-009,-4.19062988e-004
,,,4.67500000e-009,-3.95156738e-004
,,,4.70000000e-009,-3.77344238e-004
,,,4.72500000e-009,-3.65156737e-004
,,,4.75000000e-009,-3.58594237e-004
,,,4.77500000e-009,-3.57187987e-004
,,,4.80000000e-009,-3.60000487e-004
,,,4.82500000e-009,-3.67031737e-004
,,,4.85000000e-009,-3.74062988e-004
,,,4.87500000e-009,-3.80625488e-004
,,,4.90000000e-009,-3.84375488e-004
,,,4.92500000e-009,-3.84844238e-004
,,,4.95000000e-009,-3.81562988e-004
,,,4.97500000e-009,-3.73125488e-004
,,,5.00000000e-009,-3.60000487e-004
,,,5.02500000e-009,-3.43594237e-004
,,,5.05000000e-009,-3.23906737e-004
,,,5.07500000e-009,-3.02344237e-004
,,,5.10000000e-009,-2.81250487e-004
,,,5.12500000e-009,-2.62969237e-004
,,,5.15000000e-009,-2.48906736e-004
,,,5.17500000e-009,-2.40937986e-004
,,,5.20000000e-009,-2.40000486e-004
,,,5.22500000e-009,-2.47031736e-004
,,,5.25000000e-009,-2.59219237e-004
,,,5.27500000e-009,-2.75625487e-004
,,,5.30000000e-009,-2.94844237e-004
,,,5.32500000e-009,-3.15000487e-004
,,,5.35000000e-009,-3.33750487e-004
,,,5.37500000e-009,-3.49687987e-004
,,,5.40000000e-009,-3.60000487e-004
,,,5.42500000e-009,-3.64687987e-004
,,,5.45000000e-009,-3.61406737e-004
,,,5.47500000e-009,-3.51562987e-004
,,,5.50000000e-009,-3.35625487e-004
,,,5.52500000e-009,-3.14531737e-004
,,,5.55000000e-009,-2.90625487e-004
,,,5.57500000e-009,-2.65312987e-004
,,,5.60000000e-009,-2.40000486e-004
,,,5.62500000e-009,-2.16562986e-004
,,,5.65000000e-009,-1.95000486e-004
,,,5.67500000e-009,-1.76250486e-004
,,,5.70000000e-009,-1.60781736e-004
,,,5.72500000e-009,-1.47656736e-004
,,,5.75000000e-009,-1.37344235e-004
,,,5.77500000e-009,-1.28437985e-004
,,,5.80000000e-009,-1.20000485e-004
,,,5.82500000e-009,-1.13437985e-004
,,,5.85000000e-009,-1.05937985e-004
