RawData/DifferentLengths/R3/R3_12pt5_5mV/wave000_Ch3.csv

"Record Length",1000,"Points",-7.72500000e-009,-8.32812335e-004
"Sample Interval",2.50000000e-011,s,-7.70000000e-009,-8.40624836e-004
"Trigger Point",309,"Samples",-7.67500000e-009,-8.42187336e-004
"Trigger Time",1.31689362e-011,s,-7.65000000e-009,-8.37499836e-004
"",,,-7.62500000e-009,-8.29687335e-004
"Horizontal Offset",-7.72500000e-009,s,-7.60000000e-009,-8.17187334e-004
,,,-7.57500000e-009,-7.99999833e-004
,,,-7.55000000e-009,-7.79687332e-004
,,,-7.52500000e-009,-7.54687330e-004
,,,-7.50000000e-009,-7.21874828e-004
,,,-7.47500000e-009,-6.79687325e-004
,,,-7.45000000e-009,-6.26562321e-004
,,,-7.42500000e-009,-5.62499816e-004
,,,-7.40000000e-009,-4.85937311e-004
,,,-7.37500000e-009,-3.99999805e-004
,,,-7.35000000e-009,-3.12499799e-004
,,,-7.32500000e-009,-2.24999792e-004
,,,-7.30000000e-009,-1.42187287e-004
,,,-7.27500000e-009,-7.03122815e-005
,,,-7.25000000e-009,-1.71872777e-005
,,,-7.22500000e-009,1.40627245e-005
,,,-7.20000000e-009,1.87502248e-005
,,,-7.17500000e-009,2.23517420e-010
,,,-7.15000000e-009,-5.31247802e-005
,,,-7.12500000e-009,-1.20312285e-004
,,,-7.10000000e-009,-1.96874790e-004
,,,-7.07500000e-009,-2.73437296e-004
,,,-7.05000000e-009,-3.39062300e-004
,,,-7.02500000e-009,-3.84374804e-004
,,,-7.00000000e-009,-4.07812305e-004
,,,-6.97500000e-009,-3.99999805e-004
,,,-6.95000000e-009,-3.68749803e-004
,,,-6.92500000e-009,-3.12499799e-004
,,,-6.90000000e-009,-2.40624794e-004
,,,-6.87500000e-009,-1.62499788e-004
,,,-6.85000000e-009,-8.90622828e-005
,,,-6.82500000e-009,-3.12497787e-005
,,,-6.80000000e-009,2.23517420e-010
,,,-6.77500000e-009,2.23517420e-010
,,,-6.75000000e-009,-4.21872795e-005
,,,-6.72500000e-009,-1.15624785e-004
,,,-6.70000000e-009,-2.15624792e-004
,,,-6.67500000e-009,-3.35937300e-004
,,,-6.65000000e-009,-4.64062309e-004
,,,-6.62500000e-009,-5.90624818e-004
,,,-6.60000000e-009,-7.06249826e-004
,,,-6.57500000e-009,-7.99999833e-004
,,,-6.55000000e-009,-8.65624838e-004
,,,-6.52500000e-009,-9.03124840e-004
,,,-6.50000000e-009,-9.14062341e-004
,,,-6.47500000e-009,-9.04687341e-004
,,,-6.45000000e-009,-8.81249839e-004
,,,-6.42500000e-009,-8.51562337e-004
,,,-6.40000000e-009,-8.23437335e-004
,,,-6.37500000e-009,-7.99999833e-004
,,,-6.35000000e-009,-7.87499832e-004
,,,-6.32500000e-009,-7.85937332e-004
,,,-6.30000000e-009,-7.93749833e-004
,,,-6.27500000e-009,-8.07812334e-004
,,,-6.25000000e-009,-8.20312335e-004
,,,-6.22500000e-009,-8.26562335e-004
,,,-6.20000000e-009,-8.20312335e-004
,,,-6.17500000e-009,-7.99999833e-004
,,,-6.15000000e-009,-7.59374830e-004
,,,-6.12500000e-009,-7.06249826e-004
,,,-6.10000000e-009,-6.42187322e-004
,,,-6.07500000e-009,-5.76562317e-004
,,,-6.05000000e-009,-5.14062313e-004
,,,-6.02500000e-009,-4.60937309e-004
,,,-6.00000000e-009,-4.21874806e-004
,,,-5.97500000e-009,-3.99999805e-004
,,,-5.95000000e-009,-3.98437305e-004
,,,-5.92500000e-009,-4.09374805e-004
,,,-5.90000000e-009,-4.29687307e-004
,,,-5.87500000e-009,-4.49999808e-004
,,,-5.85000000e-009,-4.64062309e-004
,,,-5.82500000e-009,-4.64062309e-004
,,,-5.80000000e-009,-4.43749808e-004
,,,-5.77500000e-009,-3.99999805e-004
,,,-5.75000000e-009,-3.37499800e-004
,,,-5.72500000e-009,-2.60937295e-004
,,,-5.70000000e-009,-1.76562289e-004
,,,-5.67500000e-009,-9.68747833e-005
,,,-5.65000000e-009,-2.96872786e-005
,,,-5.62500000e-009,1.25002244e-005
,,,-5.60000000e-009,2.34377252e-005
,,,-5.57500000e-009,2.23517420e-010
,,,-5.55000000e-009,-6.56247811e-005
,,,-5.52500000e-009,-1.62499788e-004
,,,-5.50000000e-009,-2.81249796e-004
,,,-5.47500000e-009,-4.09374805e-004
,,,-5.45000000e-009,-5.37499815e-004
,,,-5.42500000e-009,-6.51562323e-004
,,,-5.40000000e-009,-7.42187329e-004
,,,-5.37500000e-009,-7.99999833e-004
,,,-5.35000000e-009,-8.23437335e-004
,,,-5.32500000e-009,-8.07812334e-004
,,,-5.30000000e-009,-7.62499830e-004
,,,-5.27500000e-009,-6.95312326e-004
,,,-5.25000000e-009,-6.12499820e-004
,,,-5.22500000e-009,-5.29687314e-004
,,,-5.20000000e-009,-4.56249809e-004
,,,-5.17500000e-009,-3.99999805e-004
,,,-5.15000000e-009,-3.74999803e-004
,,,-5.12500000e-009,-3.76562303e-004
,,,-5.10000000e-009,-4.07812305e-004
,,,-5.07500000e-009,-4.64062309e-004
,,,-5.05000000e-009,-5.39062315e-004
,,,-5.02500000e-009,-6.24999821e-004
,,,-5.00000000e-009,-7.15624827e-004
,,,-4.97500000e-009,-7.99999833e-004
,,,-4.95000000e-009,-8.70312338e-004
,,,-4.92500000e-009,-9.21874842e-004
,,,-4.90000000e-009,-9.53124844e-004
,,,-4.87500000e-009,-9.60937344e-004
,,,-4.85000000e-009,-9.46874844e-004
,,,-4.82500000e-009,-9.14062341e-004
,,,-4.80000000e-009,-8.64062338e-004
,,,-4.77500000e-009,-7.99999833e-004
,,,-4.75000000e-009,-7.28124828e-004
,,,-4.72500000e-009,-6.54687323e-004
,,,-4.70000000e-009,-5.84374818e-004
,,,-4.67500000e-009,-5.21874813e-004
,,,-4.65000000e-009,-4.70312310e-004
,,,-4.62500000e-009,-4.31249807e-004
,,,-4.60000000e-009,-4.07812305e-004
,,,-4.57500000e-009,-3.99999805e-004
,,,-4.55000000e-009,-4.09374805e-004
,,,-4.52500000e-009,-4.34374807e-004
,,,-4.50000000e-009,-4.74999810e-004
,,,-4.47500000e-009,-5.29687314e-004
,,,-4.45000000e-009,-5.92187318e-004
,,,-4.42500000e-009,-6.60937323e-004
,,,-4.40000000e-009,-7.32812328e-004
,,,-4.37500000e-009,-7.99999833e-004
,,,-4.35000000e-009,-8.60937337e-004
,,,-4.32500000e-009,-9.09374841e-004
,,,-4.30000000e-009,-9.40624843e-004
,,,-4.27500000e-009,-9.53124844e-004
,,,-4.25000000e-009,-9.45312343e-004
,,,-4.22500000e-009,-9.15624841e-004
,,,-4.20000000e-009,-8.67187338e-004
,,,-4.17500000e-009,-7.99999833e-004
,,,-4.15000000e-009,-7.18749827e-004
,,,-4.12500000e-009,-6.31249821e-004
,,,-4.10000000e-009,-5.46874815e-004
,,,-4.07500000e-009,-4.74999810e-004
,,,-4.05000000e-009,-4.18749806e-004
,,,-4.02500000e-009,-3.85937304e-004
,,,-4.00000000e-009,-3.79687303e-004
,,,-3.97500000e-009,-3.99999805e-004
,,,-3.95000000e-009,-4.48437308e-004
,,,-3.92500000e-009,-5.12499813e-004
,,,-3.90000000e-009,-5.87499818e-004
,,,-3.87500000e-009,-6.64062323e-004
,,,-3.85000000e-009,-7.31249828e-004
,,,-3.82500000e-009,-7.79687332e-004
,,,-3.80000000e-009,-8.04687333e-004
,,,-3.77500000e-009,-7.99999833e-004
,,,-3.75000000e-009,-7.70312331e-004
,,,-3.72500000e-009,-7.15624827e-004
,,,-3.70000000e-009,-6.45312322e-004
,,,-3.67500000e-009,-5.68749817e-004
,,,-3.65000000e-009,-4.96874812e-004
,,,-3.62500000e-009,-4.39062308e-004
,,,-3.60000000e-009,-4.06249805e-004
,,,-3.57500000e-009,-3.99999805e-004
,,,-3.55000000e-009,-4.29687307e-004
,,,-3.52500000e-009,-4.84374811e-004
,,,-3.50000000e-009,-5.57812316e-004
,,,-3.47500000e-009,-6.39062322e-004
,,,-3.45000000e-009,-7.14062327e-004
,,,-3.42500000e-009,-7.73437331e-004
,,,-3.40000000e-009,-8.04687333e-004
,,,-3.37500000e-009,-7.99999833e-004
,,,-3.35000000e-009,-7.60937330e-004
,,,-3.32500000e-009,-6.84374825e-004
,,,-3.30000000e-009,-5.79687318e-004
,,,-3.27500000e-009,-4.56249809e-004
,,,-3.25000000e-009,-3.23437299e-004
,,,-3.22500000e-009,-1.95312290e-004
,,,-3.20000000e-009,-8.43747825e-005
,,,-3.17500000e-009,2.23517420e-010
,,,-3.15000000e-009,4.21877265e-005
,,,-3.12500000e-009,5.00002271e-005
,,,-3.10000000e-009,2.18752251e-005
,,,-3.07500000e-009,-3.59372790e-005
,,,-3.05000000e-009,-1.14062285e-004
,,,-3.02500000e-009,-2.07812291e-004
,,,-3.00000000e-009,-3.04687298e-004
,,,-2.97500000e-009,-3.99999805e-004
,,,-2.95000000e-009,-4.89062311e-004
,,,-2.92500000e-009,-5.64062316e-004
,,,-2.90000000e-009,-6.24999821e-004
,,,-2.87500000e-009,-6.73437324e-004
,,,-2.85000000e-009,-7.10937327e-004
,,,-2.82500000e-009,-7.40624829e-004
,,,-2.80000000e-009,-7.70312331e-004
,,,-2.77500000e-009,-7.99999833e-004
,,,-2.75000000e-009,-8.34374836e-004
,,,-2.72500000e-009,-8.73437338e-004
,,,-2.70000000e-009,-9.18749842e-004
,,,-2.67500000e-009,-9.70312345e-004
,,,-2.65000000e-009,-1.02656235e-003
,,,-2.62500000e-009,-1.08593735e-003
,,,-2.60000000e-009,-1.14531236e-003
,,,-2.57500000e-009,-1.19999986e-003
,,,-2.55000000e-009,-1.24218736e-003
,,,-2.52500000e-009,-1.27499987e-003
,,,-2.50000000e-009,-1.29531237e-003
,,,-2.47500000e-009,-1.30312487e-003
,,,-2.45000000e-009,-1.29687487e-003
,,,-2.42500000e-009,-1.27656237e-003
,,,-2.40000000e-009,-1.24531236e-003
,,,-2.37500000e-009,-1.19999986e-003
,,,-2.35000000e-009,-1.14062486e-003
,,,-2.32500000e-009,-1.07656235e-003
,,,-2.30000000e-009,-1.00937485e-003
,,,-2.27500000e-009,-9.46874844e-004
,,,-2.25000000e-009,-8.92187340e-004
,,,-2.22500000e-009,-8.48437337e-004
,,,-2.20000000e-009,-8.17187334e-004
,,,-2.17500000e-009,-7.99999833e-004
,,,-2.15000000e-009,-7.90624832e-004
,,,-2.12500000e-009,-7.90624832e-004
,,,-2.10000000e-009,-7.98437333e-004
,,,-2.07500000e-009,-8.10937334e-004
,,,-2.05000000e-009,-8.21874835e-004
,,,-2.02500000e-009,-8.24999835e-004
,,,-2.00000000e-009,-8.18749834e-004
,,,-1.97500000e-009,-7.99999833e-004
,,,-1.95000000e-009,-7.64062331e-004
,,,-1.92500000e-009,-7.14062327e-004
,,,-1.90000000e-009,-6.56249823e-004
,,,-1.87500000e-009,-5.93749819e-004
,,,-1.85000000e-009,-5.32812314e-004
,,,-1.82500000e-009,-4.78124810e-004
,,,-1.80000000e-009,-4.32812307e-004
,,,-1.77500000e-009,-3.99999805e-004
,,,-1.75000000e-009,-3.84374804e-004
,,,-1.72500000e-009,-3.81249803e-004
,,,-1.70000000e-009,-3.87499804e-004
,,,-1.67500000e-009,-3.98437305e-004
,,,-1.65000000e-009,-4.10937306e-004
,,,-1.62500000e-009,-4.18749806e-004
,,,-1.60000000e-009,-4.15624806e-004
,,,-1.57500000e-009,-3.99999805e-004
,,,-1.55000000e-009,-3.74999803e-004
,,,-1.52500000e-009,-3.34374800e-004
,,,-1.50000000e-009,-2.82812297e-004
,,,-1.47500000e-009,-2.23437292e-004
,,,-1.45000000e-009,-1.59374788e-004
,,,-1.42500000e-009,-9.84372835e-005
,,,-1.40000000e-009,-4.53122797e-005
,,,-1.37500000e-009,2.23517420e-010
,,,-1.35000000e-009,1.71877247e-005
,,,-1.32500000e-009,2.34377252e-005
,,,-1.30000000e-009,2.03127250e-005
,,,-1.27500000e-009,1.09377243e-005
,,,-1.25000000e-009,2.23517420e-010
,,,-1.22500000e-009,-7.81227704e-006
,,,-1.20000000e-009,-7.81227704e-006
,,,-1.17500000e-009,2.23517420e-010
,,,-1.15000000e-009,-3.12477670e-006
,,,-1.12500000e-009,2.23517420e-010
,,,-1.10000000e-009,6.25022396e-006
,,,-1.07500000e-009,1.40627245e-005
,,,-1.05000000e-009,2.03127250e-005
,,,-1.02500000e-009,2.18752251e-005
,,,-1.00000000e-009,1.56252246e-005
,,,-9.75000000e-010,2.23517420e-010
,,,-9.50000000e-010,-5.78122806e-005
,,,-9.25000000e-010,-1.26562285e-004
,,,-9.00000000e-010,-1.99999791e-004
,,,-8.75000000e-010,-2.71874796e-004
,,,-8.50000000e-010,-3.32812300e-004
,,,-8.25000000e-010,-3.76562303e-004
,,,-8.00000000e-010,-3.99999805e-004
,,,-7.75000000e-010,-3.99999805e-004
,,,-7.50000000e-010,-4.21874806e-004
,,,-7.25000000e-010,-4.29687307e-004
,,,-7.00000000e-010,-4.28124807e-004
,,,-6.75000000e-010,-4.18749806e-004
,,,-6.50000000e-010,-4.06249805e-004
,,,-6.25000000e-010,-3.95312304e-004
,,,-6.00000000e-010,-3.90624804e-004
,,,-5.75000000e-010,-3.99999805e-004
,,,-5.50000000e-010,-4.84374811e-004
,,,-5.25000000e-010,-5.96874819e-004
,,,-5.00000000e-010,-7.35937329e-004
,,,-4.75000000e-010,-8.93749840e-004
,,,-4.50000000e-010,-1.06718735e-003
,,,-4.25000000e-010,-1.24531236e-003
,,,-4.00000000e-010,-1.42499988e-003
,,,-3.75000000e-010,-1.59999989e-003
,,,-3.50000000e-010,-1.82343741e-003
,,,-3.25000000e-010,-2.04531242e-003
,,,-3.00000000e-010,-2.26406244e-003
,,,-2.75000000e-010,-2.47187495e-003
,,,-2.50000000e-010,-2.67031247e-003
,,,-2.25000000e-010,-2.85468748e-003
,,,-2.00000000e-010,-3.03124999e-003
,,,-1.75000000e-010,-3.20000000e-003
,,,-1.50000000e-010,-3.41562502e-003
,,,-1.25000000e-010,-3.65000003e-003
,,,-1.00000000e-010,-3.90625005e-003
,,,-7.50000000e-011,-4.19062507e-003
,,,-5.00000000e-011,-4.50156260e-003
,,,-2.50000000e-011,-4.84062512e-003
,,,0.00000000e+000,-5.20781265e-003
,,,2.50000000e-011,-5.60000017e-003
,,,5.00000000e-011,-6.03750020e-003
,,,7.50000000e-011,-6.50000024e-003
,,,1.00000000e-010,-6.97656277e-003
,,,1.25000000e-010,-7.45781280e-003
,,,1.50000000e-010,-7.92968784e-003
,,,1.75000000e-010,-8.38437537e-003
,,,2.00000000e-010,-8.80937540e-003
,,,2.25000000e-010,-9.20000043e-003
,,,2.50000000e-010,-9.54843795e-003
,,,2.75000000e-010,-9.87187548e-003
,,,3.00000000e-010,-1.01765630e-002
,,,3.25000000e-010,-1.04687505e-002
,,,3.50000000e-010,-1.07500005e-002
,,,3.75000000e-010,-1.10312506e-002
,,,4.00000000e-010,-1.13125006e-002
,,,4.25000000e-010,-1.16000006e-002
,,,4.50000000e-010,-1.18640631e-002
,,,4.75000000e-010,-1.21484381e-002
,,,5.00000000e-010,-1.24515632e-002
,,,5.25000000e-010,-1.27703132e-002
,,,5.50000000e-010,-1.30937507e-002
,,,5.75000000e-010,-1.34140632e-002
,,,6.00000000e-010,-1.37203132e-002
,,,6.25000000e-010,-1.40000008e-002
,,,6.50000000e-010,-1.41937508e-002
,,,6.75000000e-010,-1.43593758e-002
,,,7.00000000e-010,-1.44968758e-002
,,,7.25000000e-010,-1.46078133e-002
,,,7.50000000e-010,-1.46921883e-002
,,,7.75000000e-010,-1.47500008e-002
,,,8.00000000e-010,-1.47859383e-002
,,,8.25000000e-010,-1.48000008e-002
,,,8.50000000e-010,-1.47421883e-002
,,,8.75000000e-010,-1.46875008e-002
,,,9.00000000e-010,-1.46468758e-002
,,,9.25000000e-010,-1.46265633e-002
,,,9.50000000e-010,-1.46328133e-002
,,,9.75000000e-010,-1.46640633e-002
,,,1.00000000e-009,-1.47218758e-002
,,,1.02500000e-009,-1.48000008e-002
,,,1.05000000e-009,-1.48375008e-002
,,,1.07500000e-009,-1.48921883e-002
,,,1.10000000e-009,-1.49593758e-002
,,,1.12500000e-009,-1.50328133e-002
,,,1.15000000e-009,-1.51015633e-002
,,,1.17500000e-009,-1.51578133e-002
,,,1.20000000e-009,-1.51937509e-002
,,,1.22500000e-009,-1.52000009e-002
,,,1.25000000e-009,-1.51187508e-002
,,,1.27500000e-009,-1.50046883e-002
,,,1.30000000e-009,-1.48640633e-002
,,,1.32500000e-009,-1.47031258e-002
,,,1.35000000e-009,-1.45296883e-002
,,,1.37500000e-009,-1.43500008e-002
,,,1.40000000e-009,-1.41718758e-002
,,,1.42500000e-009,-1.40000008e-002
,,,1.45000000e-009,-1.37937508e-002
,,,1.47500000e-009,-1.36015632e-002
,,,1.50000000e-009,-1.34250007e-002
,,,1.52500000e-009,-1.32671882e-002
,,,1.55000000e-009,-1.31281257e-002
,,,1.57500000e-009,-1.30062507e-002
,,,1.60000000e-009,-1.28984382e-002
,,,1.62500000e-009,-1.28000007e-002
,,,1.65000000e-009,-1.26750007e-002
,,,1.67500000e-009,-1.25421882e-002
,,,1.70000000e-009,-1.24031257e-002
,,,1.72500000e-009,-1.22546881e-002
,,,1.75000000e-009,-1.21000006e-002
,,,1.77500000e-009,-1.19390631e-002
,,,1.80000000e-009,-1.17718756e-002
,,,1.82500000e-009,-1.16000006e-002
,,,1.85000000e-009,-1.14015631e-002
,,,1.87500000e-009,-1.11921881e-002
,,,1.90000000e-009,-1.09796881e-002
,,,1.92500000e-009,-1.07671880e-002
,,,1.95000000e-009,-1.05593755e-002
,,,1.97500000e-009,-1.03609380e-002
,,,2.00000000e-009,-1.01750005e-002
,,,2.02500000e-009,-1.00000005e-002
,,,2.05000000e-009,-9.82343797e-003
,,,2.07500000e-009,-9.64531296e-003
,,,2.10000000e-009,-9.46093795e-003
,,,2.12500000e-009,-9.27031293e-003
,,,2.15000000e-009,-9.07031292e-003
,,,2.17500000e-009,-8.85937540e-003
,,,2.20000000e-009,-8.63593789e-003
,,,2.22500000e-009,-8.40000037e-003
,,,2.25000000e-009,-8.15625035e-003
,,,2.27500000e-009,-7.89531284e-003
,,,2.30000000e-009,-7.62343782e-003
,,,2.32500000e-009,-7.35000030e-003
,,,2.35000000e-009,-7.08281278e-003
,,,2.37500000e-009,-6.83125026e-003
,,,2.40000000e-009,-6.60312524e-003
,,,2.42500000e-009,-6.40000023e-003
,,,2.45000000e-009,-6.23593772e-003
,,,2.47500000e-009,-6.08437521e-003
,,,2.50000000e-009,-5.94375020e-003
,,,2.52500000e-009,-5.80625019e-003
,,,2.55000000e-009,-5.66875018e-003
,,,2.57500000e-009,-5.52343767e-003
,,,2.60000000e-009,-5.36875016e-003
,,,2.62500000e-009,-5.20000014e-003
,,,2.65000000e-009,-5.03125013e-003
,,,2.67500000e-009,-4.83750012e-003
,,,2.70000000e-009,-4.62656260e-003
,,,2.72500000e-009,-4.40468759e-003
,,,2.75000000e-009,-4.18125007e-003
,,,2.77500000e-009,-3.96718756e-003
,,,2.80000000e-009,-3.77031254e-003
,,,2.82500000e-009,-3.60000003e-003
,,,2.85000000e-009,-3.48750002e-003
,,,2.87500000e-009,-3.39687502e-003
,,,2.90000000e-009,-3.32968751e-003
,,,2.92500000e-009,-3.28125001e-003
,,,2.95000000e-009,-3.24843751e-003
,,,2.97500000e-009,-3.22812500e-003
,,,3.00000000e-009,-3.21250000e-003
,,,3.02500000e-009,-3.20000000e-003
,,,3.05000000e-009,-3.20625000e-003
,,,3.07500000e-009,-3.19531250e-003
,,,3.10000000e-009,-3.16718750e-003
,,,3.12500000e-009,-3.12031250e-003
,,,3.15000000e-009,-3.05781249e-003
,,,3.17500000e-009,-2.98124999e-003
,,,3.20000000e-009,-2.89374998e-003
,,,3.22500000e-009,-2.79999997e-003
,,,3.25000000e-009,-2.72187497e-003
,,,3.27500000e-009,-2.63281246e-003
,,,3.30000000e-009,-2.53749996e-003
,,,3.32500000e-009,-2.43593745e-003
,,,3.35000000e-009,-2.32812494e-003
,,,3.37500000e-009,-2.21874993e-003
,,,3.40000000e-009,-2.10781243e-003
,,,3.42500000e-009,-1.99999992e-003
,,,3.45000000e-009,-1.91249991e-003
,,,3.47500000e-009,-1.82812491e-003
,,,3.50000000e-009,-1.75156240e-003
,,,3.52500000e-009,-1.68749990e-003
,,,3.55000000e-009,-1.63593739e-003
,,,3.57500000e-009,-1.60312489e-003
,,,3.60000000e-009,-1.59062489e-003
,,,3.62500000e-009,-1.59999989e-003
,,,3.65000000e-009,-1.64531239e-003
,,,3.67500000e-009,-1.70312490e-003
,,,3.70000000e-009,-1.76562490e-003
,,,3.72500000e-009,-1.82968741e-003
,,,3.75000000e-009,-1.88906241e-003
,,,3.77500000e-009,-1.93906241e-003
,,,3.80000000e-009,-1.97656242e-003
,,,3.82500000e-009,-1.99999992e-003
,,,3.85000000e-009,-2.01406242e-003
,,,3.87500000e-009,-2.01406242e-003
,,,3.90000000e-009,-2.00468742e-003
,,,3.92500000e-009,-1.99062492e-003
,,,3.95000000e-009,-1.97812492e-003
,,,3.97500000e-009,-1.97343742e-003
,,,4.00000000e-009,-1.98124992e-003
,,,4.02500000e-009,-1.99999992e-003
,,,4.05000000e-009,-2.03437492e-003
,,,4.07500000e-009,-2.07187492e-003
,,,4.10000000e-009,-2.10781243e-003
,,,4.12500000e-009,-2.13437493e-003
,,,4.15000000e-009,-2.14218743e-003
,,,4.17500000e-009,-2.12499993e-003
,,,4.20000000e-009,-2.07812492e-003
,,,4.22500000e-009,-1.99999992e-003
,,,4.25000000e-009,-1.89687491e-003
,,,4.27500000e-009,-1.77031240e-003
,,,4.30000000e-009,-1.63281239e-003
,,,4.32500000e-009,-1.49687488e-003
,,,4.35000000e-009,-1.37343737e-003
,,,4.37500000e-009,-1.27656237e-003
,,,4.40000000e-009,-1.21718736e-003
,,,4.42500000e-009,-1.19999986e-003
,,,4.45000000e-009,-1.23281236e-003
,,,4.47500000e-009,-1.30624987e-003
,,,4.50000000e-009,-1.41249988e-003
,,,4.52500000e-009,-1.53906239e-003
,,,4.55000000e-009,-1.67499990e-003
,,,4.57500000e-009,-1.80468740e-003
,,,4.60000000e-009,-1.91718741e-003
,,,4.62500000e-009,-1.99999992e-003
,,,4.65000000e-009,-2.04687492e-003
,,,4.67500000e-009,-2.05468742e-003
,,,4.70000000e-009,-2.02499992e-003
,,,4.72500000e-009,-1.96718742e-003
,,,4.75000000e-009,-1.88437491e-003
,,,4.77500000e-009,-1.78906240e-003
,,,4.80000000e-009,-1.69218740e-003
,,,4.82500000e-009,-1.59999989e-003
,,,4.85000000e-009,-1.52812488e-003
,,,4.87500000e-009,-1.47812488e-003
,,,4.90000000e-009,-1.44999988e-003
,,,4.92500000e-009,-1.44687488e-003
,,,4.95000000e-009,-1.46562488e-003
,,,4.97500000e-009,-1.49999988e-003
,,,5.00000000e-009,-1.54843739e-003
,,,5.02500000e-009,-1.59999989e-003
,,,5.05000000e-009,-1.65156239e-003
,,,5.07500000e-009,-1.69531240e-003
,,,5.10000000e-009,-1.72499990e-003
,,,5.12500000e-009,-1.73749990e-003
,,,5.15000000e-009,-1.73124990e-003
,,,5.17500000e-009,-1.70624990e-003
,,,5.20000000e-009,-1.66093739e-003
,,,5.22500000e-009,-1.59999989e-003
,,,5.25000000e-009,-1.52656238e-003
,,,5.27500000e-009,-1.44687488e-003
,,,5.30000000e-009,-1.36562487e-003
,,,5.32500000e-009,-1.29374987e-003
,,,5.35000000e-009,-1.23437486e-003
,,,5.37500000e-009,-1.19687486e-003
,,,5.40000000e-009,-1.18437486e-003
,,,5.42500000e-009,-1.19999986e-003
,,,5.45000000e-009,-1.24374986e-003
,,,5.47500000e-009,-1.31562487e-003
,,,5.50000000e-009,-1.40937488e-003
,,,5.52500000e-009,-1.52031238e-003
,,,5.55000000e-009,-1.64218739e-003
,,,5.57500000e-009,-1.76874990e-003
,,,5.60000000e-009,-1.89062491e-003
,,,5.62500000e-009,-1.99999992e-003
,,,5.65000000e-009,-2.08906242e-003
,,,5.67500000e-009,-2.15156243e-003
,,,5.70000000e-009,-2.18906243e-003
,,,5.72500000e-009,-2.19843743e-003
,,,5.75000000e-009,-2.18124993e-003
,,,5.77500000e-009,-2.14062493e-003
,,,5.80000000e-009,-2.07968742e-003
,,,5.82500000e-009,-1.99999992e-003
