RawData/DifferentLengths/R3/R3_12pt5_5mV/wave016_Ch3.csv

"Record Length",1000,"Points",-7.72500000e-009,1.19999517e-004
"Sample Interval",2.50000000e-011,s,-7.70000000e-009,1.04999517e-004
"Trigger Point",309,"Samples",-7.67500000e-009,8.90620165e-005
"Trigger Time",4.42000000e-012,s,-7.65000000e-009,7.21870163e-005
"",,,-7.62500000e-009,5.57807662e-005
"Horizontal Offset",-7.72500000e-009,s,-7.60000000e-009,3.98432661e-005
,,,-7.57500000e-009,2.48432659e-005
,,,-7.55000000e-009,1.17182658e-005
,,,-7.52500000e-009,-4.84287738e-010
,,,-7.50000000e-009,-1.45317344e-005
,,,-7.47500000e-009,-2.85942345e-005
,,,-7.45000000e-009,-4.26567347e-005
,,,-7.42500000e-009,-5.67192348e-005
,,,-7.40000000e-009,-7.12504849e-005
,,,-7.37500000e-009,-8.67192350e-005
,,,-7.35000000e-009,-1.03125485e-004
,,,-7.32500000e-009,-1.20000485e-004
,,,-7.30000000e-009,-1.39687986e-004
,,,-7.27500000e-009,-1.59375486e-004
,,,-7.25000000e-009,-1.78594236e-004
,,,-7.22500000e-009,-1.96875486e-004
,,,-7.20000000e-009,-2.12344236e-004
,,,-7.17500000e-009,-2.25469236e-004
,,,-7.15000000e-009,-2.34844236e-004
,,,-7.12500000e-009,-2.40000486e-004
,,,-7.10000000e-009,-2.42812986e-004
,,,-7.07500000e-009,-2.42812986e-004
,,,-7.05000000e-009,-2.40937986e-004
,,,-7.02500000e-009,-2.38125486e-004
,,,-7.00000000e-009,-2.35312986e-004
,,,-6.97500000e-009,-2.34375486e-004
,,,-6.95000000e-009,-2.35312986e-004
,,,-6.92500000e-009,-2.40000486e-004
,,,-6.90000000e-009,-2.48906736e-004
,,,-6.87500000e-009,-2.63906737e-004
,,,-6.85000000e-009,-2.85469237e-004
,,,-6.82500000e-009,-3.13594237e-004
,,,-6.80000000e-009,-3.47812987e-004
,,,-6.77500000e-009,-3.88125488e-004
,,,-6.75000000e-009,-4.32656738e-004
,,,-6.72500000e-009,-4.80000488e-004
,,,-6.70000000e-009,-5.24531739e-004
,,,-6.67500000e-009,-5.68125489e-004
,,,-6.65000000e-009,-6.08437990e-004
,,,-6.62500000e-009,-6.44531740e-004
,,,-6.60000000e-009,-6.75000490e-004
,,,-6.57500000e-009,-6.97969240e-004
,,,-6.55000000e-009,-7.13437990e-004
,,,-6.52500000e-009,-7.20000491e-004
,,,-6.50000000e-009,-7.12969240e-004
,,,-6.47500000e-009,-6.99375490e-004
,,,-6.45000000e-009,-6.81094240e-004
,,,-6.42500000e-009,-6.60937990e-004
,,,-6.40000000e-009,-6.40781740e-004
,,,-6.37500000e-009,-6.23437990e-004
,,,-6.35000000e-009,-6.09375490e-004
,,,-6.32500000e-009,-6.00000490e-004
,,,-6.30000000e-009,-5.91562989e-004
,,,-6.27500000e-009,-5.88281739e-004
,,,-6.25000000e-009,-5.89219239e-004
,,,-6.22500000e-009,-5.93437989e-004
,,,-6.20000000e-009,-5.98125489e-004
,,,-6.17500000e-009,-6.02344240e-004
,,,-6.15000000e-009,-6.03750490e-004
,,,-6.12500000e-009,-6.00000490e-004
,,,-6.10000000e-009,-5.87344239e-004
,,,-6.07500000e-009,-5.68125489e-004
,,,-6.05000000e-009,-5.42344239e-004
,,,-6.02500000e-009,-5.11875489e-004
,,,-6.00000000e-009,-4.77187988e-004
,,,-5.97500000e-009,-4.39219238e-004
,,,-5.95000000e-009,-3.99844238e-004
,,,-5.92500000e-009,-3.60000487e-004
,,,-5.90000000e-009,-3.21562987e-004
,,,-5.87500000e-009,-2.85000487e-004
,,,-5.85000000e-009,-2.51250486e-004
,,,-5.82500000e-009,-2.20781736e-004
,,,-5.80000000e-009,-1.92656736e-004
,,,-5.77500000e-009,-1.66875486e-004
,,,-5.75000000e-009,-1.42969236e-004
,,,-5.72500000e-009,-1.20000485e-004
,,,-5.70000000e-009,-1.01719235e-004
,,,-5.67500000e-009,-8.43754850e-005
,,,-5.65000000e-009,-6.79692349e-005
,,,-5.62500000e-009,-5.20317347e-005
,,,-5.60000000e-009,-3.75004846e-005
,,,-5.57500000e-009,-2.34379845e-005
,,,-5.55000000e-009,-1.12504844e-005
,,,-5.52500000e-009,-4.84287738e-010
,,,-5.50000000e-009,3.74951574e-006
,,,-5.47500000e-009,6.09326577e-006
,,,-5.45000000e-009,7.03076577e-006
,,,-5.42500000e-009,7.03076577e-006
,,,-5.40000000e-009,6.56201577e-006
,,,-5.37500000e-009,5.15576576e-006
,,,-5.35000000e-009,2.81201574e-006
,,,-5.32500000e-009,-4.84287738e-010
,,,-5.30000000e-009,-8.43798436e-006
,,,-5.27500000e-009,-1.73442344e-005
,,,-5.25000000e-009,-2.81254845e-005
,,,-5.22500000e-009,-4.07817346e-005
,,,-5.20000000e-009,-5.62504848e-005
,,,-5.17500000e-009,-7.40629849e-005
,,,-5.15000000e-009,-9.56254851e-005
,,,-5.12500000e-009,-1.20000485e-004
,,,-5.10000000e-009,-1.49531736e-004
,,,-5.07500000e-009,-1.80937986e-004
,,,-5.05000000e-009,-2.12812986e-004
,,,-5.02500000e-009,-2.44687986e-004
,,,-5.00000000e-009,-2.76094237e-004
,,,-4.97500000e-009,-3.06094237e-004
,,,-4.95000000e-009,-3.34219237e-004
,,,-4.92500000e-009,-3.60000487e-004
,,,-4.90000000e-009,-3.81562988e-004
,,,-4.87500000e-009,-3.99844238e-004
,,,-4.85000000e-009,-4.15781738e-004
,,,-4.82500000e-009,-4.29844238e-004
,,,-4.80000000e-009,-4.42500488e-004
,,,-4.77500000e-009,-4.55156738e-004
,,,-4.75000000e-009,-4.67812988e-004
,,,-4.72500000e-009,-4.80000488e-004
,,,-4.70000000e-009,-4.88906739e-004
,,,-4.67500000e-009,-4.96406739e-004
,,,-4.65000000e-009,-5.02969239e-004
,,,-4.62500000e-009,-5.06719239e-004
,,,-4.60000000e-009,-5.07187989e-004
,,,-4.57500000e-009,-5.03437989e-004
,,,-4.55000000e-009,-4.94531739e-004
,,,-4.52500000e-009,-4.80000488e-004
,,,-4.50000000e-009,-4.57031738e-004
,,,-4.47500000e-009,-4.29375488e-004
,,,-4.45000000e-009,-3.97969238e-004
,,,-4.42500000e-009,-3.65156737e-004
,,,-4.40000000e-009,-3.31875487e-004
,,,-4.37500000e-009,-2.99062987e-004
,,,-4.35000000e-009,-2.68125487e-004
,,,-4.32500000e-009,-2.40000486e-004
,,,-4.30000000e-009,-2.14687986e-004
,,,-4.27500000e-009,-1.93125486e-004
,,,-4.25000000e-009,-1.75781736e-004
,,,-4.22500000e-009,-1.61719236e-004
,,,-4.20000000e-009,-1.50469236e-004
,,,-4.17500000e-009,-1.40156736e-004
,,,-4.15000000e-009,-1.30312985e-004
,,,-4.12500000e-009,-1.20000485e-004
,,,-4.10000000e-009,-1.08281735e-004
,,,-4.07500000e-009,-9.46879851e-005
,,,-4.05000000e-009,-7.96879850e-005
,,,-4.02500000e-009,-6.32817348e-005
,,,-4.00000000e-009,-4.68754847e-005
,,,-3.97500000e-009,-3.00004845e-005
,,,-3.95000000e-009,-1.45317344e-005
,,,-3.92500000e-009,-4.84287738e-010
,,,-3.90000000e-009,9.84326580e-006
,,,-3.87500000e-009,1.73432659e-005
,,,-3.85000000e-009,2.20307659e-005
,,,-3.82500000e-009,2.39057659e-005
,,,-3.80000000e-009,2.20307659e-005
,,,-3.77500000e-009,1.73432659e-005
,,,-3.75000000e-009,9.84326580e-006
,,,-3.72500000e-009,-4.84287738e-010
,,,-3.70000000e-009,-1.45317344e-005
,,,-3.67500000e-009,-3.00004845e-005
,,,-3.65000000e-009,-4.59379847e-005
,,,-3.62500000e-009,-6.18754848e-005
,,,-3.60000000e-009,-7.73442350e-005
,,,-3.57500000e-009,-9.28129851e-005
,,,-3.55000000e-009,-1.07344235e-004
,,,-3.52500000e-009,-1.20000485e-004
,,,-3.50000000e-009,-1.31719235e-004
,,,-3.47500000e-009,-1.39687986e-004
,,,-3.45000000e-009,-1.44844236e-004
,,,-3.42500000e-009,-1.46250486e-004
,,,-3.40000000e-009,-1.44375486e-004
,,,-3.37500000e-009,-1.39219235e-004
,,,-3.35000000e-009,-1.31250485e-004
,,,-3.32500000e-009,-1.20000485e-004
,,,-3.30000000e-009,-1.07344235e-004
,,,-3.27500000e-009,-9.23442351e-005
,,,-3.25000000e-009,-7.64067350e-005
,,,-3.22500000e-009,-5.95317348e-005
,,,-3.20000000e-009,-4.31254847e-005
,,,-3.17500000e-009,-2.71879845e-005
,,,-3.15000000e-009,-1.26567344e-005
,,,-3.12500000e-009,-4.84287738e-010
,,,-3.10000000e-009,9.37451579e-006
,,,-3.07500000e-009,1.64057659e-005
,,,-3.05000000e-009,2.01557659e-005
,,,-3.02500000e-009,2.10932659e-005
,,,-3.00000000e-009,1.92182659e-005
,,,-2.97500000e-009,1.45307658e-005
,,,-2.95000000e-009,7.96826578e-006
,,,-2.92500000e-009,-4.84287738e-010
,,,-2.90000000e-009,-8.90673437e-006
,,,-2.87500000e-009,-1.68754844e-005
,,,-2.85000000e-009,-2.34379845e-005
,,,-2.82500000e-009,-2.71879845e-005
,,,-2.80000000e-009,-2.67192345e-005
,,,-2.77500000e-009,-2.25004845e-005
,,,-2.75000000e-009,-1.35942344e-005
,,,-2.72500000e-009,-4.84287738e-010
,,,-2.70000000e-009,1.64057659e-005
,,,-2.67500000e-009,3.51557660e-005
,,,-2.65000000e-009,5.53120162e-005
,,,-2.62500000e-009,7.45307664e-005
,,,-2.60000000e-009,9.23432665e-005
,,,-2.57500000e-009,1.06405767e-004
,,,-2.55000000e-009,1.15780767e-004
,,,-2.52500000e-009,1.19999517e-004
,,,-2.50000000e-009,1.14843267e-004
,,,-2.47500000e-009,1.04062017e-004
,,,-2.45000000e-009,8.85932665e-005
,,,-2.42500000e-009,7.03120163e-005
,,,-2.40000000e-009,5.10932662e-005
,,,-2.37500000e-009,3.14057660e-005
,,,-2.35000000e-009,1.40620158e-005
,,,-2.32500000e-009,-4.84287738e-010
,,,-2.30000000e-009,-1.50004844e-005
,,,-2.27500000e-009,-2.53129845e-005
,,,-2.25000000e-009,-3.09379846e-005
,,,-2.22500000e-009,-3.18754846e-005
,,,-2.20000000e-009,-2.85942345e-005
,,,-2.17500000e-009,-2.15629845e-005
,,,-2.15000000e-009,-1.17192344e-005
,,,-2.12500000e-009,-4.84287738e-010
,,,-2.10000000e-009,6.56201577e-006
,,,-2.07500000e-009,1.17182658e-005
,,,-2.05000000e-009,1.45307658e-005
,,,-2.02500000e-009,1.54682658e-005
,,,-2.00000000e-009,1.45307658e-005
,,,-1.97500000e-009,1.12495158e-005
,,,-1.95000000e-009,6.09326577e-006
,,,-1.92500000e-009,-4.84287738e-010
,,,-1.90000000e-009,-1.59379844e-005
,,,-1.87500000e-009,-3.37504846e-005
,,,-1.85000000e-009,-5.25004847e-005
,,,-1.82500000e-009,-7.03129849e-005
,,,-1.80000000e-009,-8.62504850e-005
,,,-1.77500000e-009,-9.98442352e-005
,,,-1.75000000e-009,-1.11094235e-004
,,,-1.72500000e-009,-1.20000485e-004
,,,-1.70000000e-009,-1.37812985e-004
,,,-1.67500000e-009,-1.57031736e-004
,,,-1.65000000e-009,-1.79062986e-004
,,,-1.62500000e-009,-2.05312986e-004
,,,-1.60000000e-009,-2.35781736e-004
,,,-1.57500000e-009,-2.71406737e-004
,,,-1.55000000e-009,-3.12656737e-004
,,,-1.52500000e-009,-3.60000487e-004
,,,-1.50000000e-009,-4.22812988e-004
,,,-1.47500000e-009,-4.90781739e-004
,,,-1.45000000e-009,-5.61562989e-004
,,,-1.42500000e-009,-6.30937990e-004
,,,-1.40000000e-009,-6.96562990e-004
,,,-1.37500000e-009,-7.54219241e-004
,,,-1.35000000e-009,-8.02500491e-004
,,,-1.32500000e-009,-8.40000492e-004
,,,-1.30000000e-009,-8.78906742e-004
,,,-1.27500000e-009,-9.11250492e-004
,,,-1.25000000e-009,-9.38906742e-004
,,,-1.22500000e-009,-9.63750493e-004
,,,-1.20000000e-009,-9.88125493e-004
,,,-1.17500000e-009,-1.01437549e-003
,,,-1.15000000e-009,-1.04437549e-003
,,,-1.12500000e-009,-1.08000049e-003
,,,-1.10000000e-009,-1.13671924e-003
,,,-1.07500000e-009,-1.20421924e-003
,,,-1.05000000e-009,-1.28062550e-003
,,,-1.02500000e-009,-1.36312550e-003
,,,-1.00000000e-009,-1.44750050e-003
,,,-9.75000000e-010,-1.53046925e-003
,,,-9.50000000e-010,-1.60875050e-003
,,,-9.25000000e-010,-1.68000050e-003
,,,-9.00000000e-010,-1.75359425e-003
,,,-8.75000000e-010,-1.82203175e-003
,,,-8.50000000e-010,-1.88625050e-003
,,,-8.25000000e-010,-1.94578175e-003
,,,-8.00000000e-010,-2.00156300e-003
,,,-7.75000000e-010,-2.05453175e-003
,,,-7.50000000e-010,-2.10703175e-003
,,,-7.25000000e-010,-2.16000050e-003
,,,-7.00000000e-010,-2.22421925e-003
,,,-6.75000000e-010,-2.29687550e-003
,,,-6.50000000e-010,-2.37843800e-003
,,,-6.25000000e-010,-2.46843801e-003
,,,-6.00000000e-010,-2.56500051e-003
,,,-5.75000000e-010,-2.66671926e-003
,,,-5.50000000e-010,-2.77218801e-003
,,,-5.25000000e-010,-2.88000051e-003
,,,-5.00000000e-010,-2.99156301e-003
,,,-4.75000000e-010,-3.10781301e-003
,,,-4.50000000e-010,-3.22734426e-003
,,,-4.25000000e-010,-3.34968801e-003
,,,-4.00000000e-010,-3.47296926e-003
,,,-3.75000000e-010,-3.59671927e-003
,,,-3.50000000e-010,-3.71953177e-003
,,,-3.25000000e-010,-3.84000052e-003
,,,-3.00000000e-010,-3.95250052e-003
,,,-2.75000000e-010,-4.06406302e-003
,,,-2.50000000e-010,-4.17515677e-003
,,,-2.25000000e-010,-4.28437552e-003
,,,-2.00000000e-010,-4.39078177e-003
,,,-1.75000000e-010,-4.49296927e-003
,,,-1.50000000e-010,-4.59000052e-003
,,,-1.25000000e-010,-4.68000052e-003
,,,-1.00000000e-010,-4.74796928e-003
,,,-7.50000000e-011,-4.81218803e-003
,,,-5.00000000e-011,-4.87406303e-003
,,,-2.50000000e-011,-4.93406303e-003
,,,0.00000000e+000,-4.99265678e-003
,,,2.50000000e-011,-5.05031303e-003
,,,5.00000000e-011,-5.10609428e-003
,,,7.50000000e-011,-5.16000053e-003
,,,1.00000000e-010,-5.19140678e-003
,,,1.25000000e-010,-5.22281303e-003
,,,1.50000000e-010,-5.25421928e-003
,,,1.75000000e-010,-5.28562553e-003
,,,2.00000000e-010,-5.31703178e-003
,,,2.25000000e-010,-5.34750053e-003
,,,2.50000000e-010,-5.37562553e-003
,,,2.75000000e-010,-5.40000053e-003
,,,3.00000000e-010,-5.39812553e-003
,,,3.25000000e-010,-5.39484428e-003
,,,3.50000000e-010,-5.39156303e-003
,,,3.75000000e-010,-5.38921928e-003
,,,4.00000000e-010,-5.38921928e-003
,,,4.25000000e-010,-5.39156303e-003
,,,4.50000000e-010,-5.39531303e-003
,,,4.75000000e-010,-5.40000053e-003
,,,5.00000000e-010,-5.38171928e-003
,,,5.25000000e-010,-5.36203178e-003
,,,5.50000000e-010,-5.34046928e-003
,,,5.75000000e-010,-5.31609428e-003
,,,6.00000000e-010,-5.28750053e-003
,,,6.25000000e-010,-5.25281303e-003
,,,6.50000000e-010,-5.21109428e-003
,,,6.75000000e-010,-5.16000053e-003
,,,7.00000000e-010,-5.08265678e-003
,,,7.25000000e-010,-4.99734428e-003
,,,7.50000000e-010,-4.90546928e-003
,,,7.75000000e-010,-4.81031303e-003
,,,8.00000000e-010,-4.71375053e-003
,,,8.25000000e-010,-4.61906302e-003
,,,8.50000000e-010,-4.52718802e-003
,,,8.75000000e-010,-4.44000052e-003
,,,9.00000000e-010,-4.34859427e-003
,,,9.25000000e-010,-4.26187552e-003
,,,9.50000000e-010,-4.18031302e-003
,,,9.75000000e-010,-4.10437552e-003
,,,1.00000000e-009,-4.03312552e-003
,,,1.02500000e-009,-3.96609427e-003
,,,1.05000000e-009,-3.90234427e-003
,,,1.07500000e-009,-3.84000052e-003
,,,1.10000000e-009,-3.77390677e-003
,,,1.12500000e-009,-3.70453177e-003
,,,1.15000000e-009,-3.63187552e-003
,,,1.17500000e-009,-3.55593802e-003
,,,1.20000000e-009,-3.47765676e-003
,,,1.22500000e-009,-3.39796926e-003
,,,1.25000000e-009,-3.31828176e-003
,,,1.27500000e-009,-3.24000051e-003
,,,1.30000000e-009,-3.16359426e-003
,,,1.32500000e-009,-3.08812551e-003
,,,1.35000000e-009,-3.01593801e-003
,,,1.37500000e-009,-2.94843801e-003
,,,1.40000000e-009,-2.88750051e-003
,,,1.42500000e-009,-2.83546926e-003
,,,1.45000000e-009,-2.79328176e-003
,,,1.47500000e-009,-2.76000051e-003
,,,1.50000000e-009,-2.73750051e-003
,,,1.52500000e-009,-2.71687551e-003
,,,1.55000000e-009,-2.69578176e-003
,,,1.57500000e-009,-2.67187551e-003
,,,1.60000000e-009,-2.64375051e-003
,,,1.62500000e-009,-2.60953176e-003
,,,1.65000000e-009,-2.56828176e-003
,,,1.67500000e-009,-2.52000051e-003
,,,1.70000000e-009,-2.46796926e-003
,,,1.72500000e-009,-2.40656301e-003
,,,1.75000000e-009,-2.33906300e-003
,,,1.77500000e-009,-2.26875050e-003
,,,1.80000000e-009,-2.20078175e-003
,,,1.82500000e-009,-2.13796925e-003
,,,1.85000000e-009,-2.08359425e-003
,,,1.87500000e-009,-2.04000050e-003
,,,1.90000000e-009,-2.01093800e-003
,,,1.92500000e-009,-1.98796925e-003
,,,1.95000000e-009,-1.96734425e-003
,,,1.97500000e-009,-1.94671925e-003
,,,2.00000000e-009,-1.92281300e-003
,,,2.02500000e-009,-1.89187550e-003
,,,2.05000000e-009,-1.85156300e-003
,,,2.07500000e-009,-1.80000050e-003
,,,2.10000000e-009,-1.74093800e-003
,,,2.12500000e-009,-1.66921925e-003
,,,2.15000000e-009,-1.58765675e-003
,,,2.17500000e-009,-1.50140675e-003
,,,2.20000000e-009,-1.41468800e-003
,,,2.22500000e-009,-1.33265675e-003
,,,2.25000000e-009,-1.26000050e-003
,,,2.27500000e-009,-1.20000049e-003
,,,2.30000000e-009,-1.16062549e-003
,,,2.32500000e-009,-1.13296924e-003
,,,2.35000000e-009,-1.11562549e-003
,,,2.37500000e-009,-1.10625049e-003
,,,2.40000000e-009,-1.10109424e-003
,,,2.42500000e-009,-1.09687549e-003
,,,2.45000000e-009,-1.09078174e-003
,,,2.47500000e-009,-1.08000049e-003
,,,2.50000000e-009,-1.06875049e-003
,,,2.52500000e-009,-1.04812549e-003
,,,2.55000000e-009,-1.01953174e-003
,,,2.57500000e-009,-9.84375493e-004
,,,2.60000000e-009,-9.45937993e-004
,,,2.62500000e-009,-9.07031742e-004
,,,2.65000000e-009,-8.70937992e-004
,,,2.67500000e-009,-8.40000492e-004
,,,2.70000000e-009,-8.22656741e-004
,,,2.72500000e-009,-8.11875491e-004
,,,2.75000000e-009,-8.07187991e-004
,,,2.77500000e-009,-8.08125491e-004
,,,2.80000000e-009,-8.13750491e-004
,,,2.82500000e-009,-8.21719241e-004
,,,2.85000000e-009,-8.31562992e-004
,,,2.87500000e-009,-8.40000492e-004
,,,2.90000000e-009,-8.50312992e-004
,,,2.92500000e-009,-8.54062992e-004
,,,2.95000000e-009,-8.50312992e-004
,,,2.97500000e-009,-8.38125492e-004
,,,3.00000000e-009,-8.17969241e-004
,,,3.02500000e-009,-7.90781741e-004
,,,3.05000000e-009,-7.57500491e-004
,,,3.07500000e-009,-7.20000491e-004
,,,3.10000000e-009,-6.85781740e-004
,,,3.12500000e-009,-6.52031740e-004
,,,3.15000000e-009,-6.21562990e-004
,,,3.17500000e-009,-5.97187989e-004
,,,3.20000000e-009,-5.81250489e-004
,,,3.22500000e-009,-5.76094239e-004
,,,3.25000000e-009,-5.82187989e-004
,,,3.27500000e-009,-6.00000490e-004
,,,3.30000000e-009,-6.31406740e-004
,,,3.32500000e-009,-6.69844240e-004
,,,3.35000000e-009,-7.11562990e-004
,,,3.37500000e-009,-7.53281741e-004
,,,3.40000000e-009,-7.89844241e-004
,,,3.42500000e-009,-8.18437991e-004
,,,3.45000000e-009,-8.35781742e-004
,,,3.47500000e-009,-8.40000492e-004
,,,3.50000000e-009,-8.32031742e-004
,,,3.52500000e-009,-8.10937991e-004
,,,3.55000000e-009,-7.79531741e-004
,,,3.57500000e-009,-7.41094241e-004
,,,3.60000000e-009,-7.00312990e-004
,,,3.62500000e-009,-6.60469240e-004
,,,3.65000000e-009,-6.26250490e-004
,,,3.67500000e-009,-6.00000490e-004
,,,3.70000000e-009,-5.87344239e-004
,,,3.72500000e-009,-5.85937989e-004
,,,3.75000000e-009,-5.95781739e-004
,,,3.77500000e-009,-6.14062990e-004
,,,3.80000000e-009,-6.38906740e-004
,,,3.82500000e-009,-6.66562990e-004
,,,3.85000000e-009,-6.94687990e-004
,,,3.87500000e-009,-7.20000491e-004
,,,3.90000000e-009,-7.40156741e-004
,,,3.92500000e-009,-7.53750491e-004
,,,3.95000000e-009,-7.59844241e-004
,,,3.97500000e-009,-7.59375491e-004
,,,4.00000000e-009,-7.53281741e-004
,,,4.02500000e-009,-7.43437991e-004
,,,4.05000000e-009,-7.32187991e-004
,,,4.07500000e-009,-7.20000491e-004
,,,4.10000000e-009,-7.08281740e-004
,,,4.12500000e-009,-6.98906740e-004
,,,4.15000000e-009,-6.92812990e-004
,,,4.17500000e-009,-6.90469240e-004
,,,4.20000000e-009,-6.92344240e-004
,,,4.22500000e-009,-6.98437990e-004
,,,4.25000000e-009,-7.07812990e-004
,,,4.27500000e-009,-7.20000491e-004
,,,4.30000000e-009,-7.32187991e-004
,,,4.32500000e-009,-7.45781741e-004
,,,4.35000000e-009,-7.60312991e-004
,,,4.37500000e-009,-7.75312991e-004
,,,4.40000000e-009,-7.91719241e-004
,,,4.42500000e-009,-8.08125491e-004
,,,4.45000000e-009,-8.24531741e-004
,,,4.47500000e-009,-8.40000492e-004
,,,4.50000000e-009,-8.51250492e-004
,,,4.52500000e-009,-8.59687992e-004
,,,4.55000000e-009,-8.64844242e-004
,,,4.57500000e-009,-8.67187992e-004
,,,4.60000000e-009,-8.65781742e-004
,,,4.62500000e-009,-8.61094242e-004
,,,4.65000000e-009,-8.52656742e-004
,,,4.67500000e-009,-8.40000492e-004
,,,4.70000000e-009,-8.18906741e-004
,,,4.72500000e-009,-7.94062991e-004
,,,4.75000000e-009,-7.65469241e-004
,,,4.77500000e-009,-7.35000491e-004
,,,4.80000000e-009,-7.02187990e-004
,,,4.82500000e-009,-6.68906740e-004
,,,4.85000000e-009,-6.34687990e-004
,,,4.87500000e-009,-6.00000490e-004
,,,4.90000000e-009,-5.64375489e-004
,,,4.92500000e-009,-5.29219239e-004
,,,4.95000000e-009,-4.95469239e-004
,,,4.97500000e-009,-4.63594238e-004
,,,5.00000000e-009,-4.34062988e-004
,,,5.02500000e-009,-4.06875488e-004
,,,5.05000000e-009,-3.82500488e-004
,,,5.07500000e-009,-3.60000487e-004
,,,5.10000000e-009,-3.40312987e-004
,,,5.12500000e-009,-3.22500487e-004
,,,5.15000000e-009,-3.06094237e-004
,,,5.17500000e-009,-2.91094237e-004
,,,5.20000000e-009,-2.77031737e-004
,,,5.22500000e-009,-2.64375487e-004
,,,5.25000000e-009,-2.52187986e-004
,,,5.27500000e-009,-2.40000486e-004
,,,5.30000000e-009,-2.29219236e-004
,,,5.32500000e-009,-2.17031736e-004
,,,5.35000000e-009,-2.03906736e-004
,,,5.37500000e-009,-1.89375486e-004
,,,5.40000000e-009,-1.73906736e-004
,,,5.42500000e-009,-1.57031736e-004
,,,5.45000000e-009,-1.38750485e-004
,,,5.47500000e-009,-1.20000485e-004
,,,5.50000000e-009,-1.03125485e-004
,,,5.52500000e-009,-8.53129850e-005
,,,5.55000000e-009,-6.75004849e-005
,,,5.57500000e-009,-5.01567347e-005
,,,5.60000000e-009,-3.42192346e-005
,,,5.62500000e-009,-2.01567345e-005
,,,5.65000000e-009,-8.90673437e-006
,,,5.67500000e-009,-4.84287738e-010
,,,5.70000000e-009,1.87451573e-006
,,,5.72500000e-009,2.34326573e-006
,,,5.75000000e-009,1.87451573e-006
,,,5.77500000e-009,9.37015720e-007
,,,5.80000000e-009,-4.69234292e-007
,,,5.82500000e-009,-9.37984296e-007
,,,5.85000000e-009,-9.37984296e-007
