RawData/DifferentLengths/R3/R3_12pt5_5mV/wave018_Ch3.csv

"Record Length",1000,"Points",-7.72500000e-009,-1.46719236e-004
"Sample Interval",2.50000000e-011,s,-7.70000000e-009,-1.65469236e-004
"Trigger Point",309,"Samples",-7.67500000e-009,-1.84687986e-004
"Trigger Time",1.91557466e-011,s,-7.65000000e-009,-2.03906736e-004
"",,,-7.62500000e-009,-2.20312986e-004
"Horizontal Offset",-7.72500000e-009,s,-7.60000000e-009,-2.32969236e-004
,,,-7.57500000e-009,-2.40000486e-004
,,,-7.55000000e-009,-2.40937986e-004
,,,-7.52500000e-009,-2.34844236e-004
,,,-7.50000000e-009,-2.23125486e-004
,,,-7.47500000e-009,-2.06250486e-004
,,,-7.45000000e-009,-1.86094236e-004
,,,-7.42500000e-009,-1.64062986e-004
,,,-7.40000000e-009,-1.41562986e-004
,,,-7.37500000e-009,-1.20000485e-004
,,,-7.35000000e-009,-1.00781735e-004
,,,-7.32500000e-009,-8.39067350e-005
,,,-7.30000000e-009,-6.84379849e-005
,,,-7.27500000e-009,-5.43754848e-005
,,,-7.25000000e-009,-4.17192347e-005
,,,-7.22500000e-009,-2.85942345e-005
,,,-7.20000000e-009,-1.50004844e-005
,,,-7.17500000e-009,-4.84287738e-010
,,,-7.15000000e-009,1.45307658e-005
,,,-7.12500000e-009,3.04682660e-005
,,,-7.10000000e-009,4.73432661e-005
,,,-7.07500000e-009,6.46870163e-005
,,,-7.05000000e-009,8.15620164e-005
,,,-7.02500000e-009,9.70307666e-005
,,,-7.00000000e-009,1.09687017e-004
,,,-6.97500000e-009,1.19999517e-004
,,,-6.95000000e-009,1.23749517e-004
,,,-6.92500000e-009,1.25155767e-004
,,,-6.90000000e-009,1.24218267e-004
,,,-6.87500000e-009,1.22343267e-004
,,,-6.85000000e-009,1.19999517e-004
,,,-6.82500000e-009,1.18124517e-004
,,,-6.80000000e-009,1.18124517e-004
,,,-6.77500000e-009,1.19999517e-004
,,,-6.75000000e-009,1.20468267e-004
,,,-6.72500000e-009,1.22343267e-004
,,,-6.70000000e-009,1.25155767e-004
,,,-6.67500000e-009,1.27968267e-004
,,,-6.65000000e-009,1.29374517e-004
,,,-6.62500000e-009,1.29374517e-004
,,,-6.60000000e-009,1.26093267e-004
,,,-6.57500000e-009,1.19999517e-004
,,,-6.55000000e-009,1.06405767e-004
,,,-6.52500000e-009,8.99995165e-005
,,,-6.50000000e-009,7.21870163e-005
,,,-6.47500000e-009,5.34370162e-005
,,,-6.45000000e-009,3.60932660e-005
,,,-6.42500000e-009,2.06245159e-005
,,,-6.40000000e-009,8.43701579e-006
,,,-6.37500000e-009,-4.84287738e-010
,,,-6.35000000e-009,-6.09423434e-006
,,,-6.32500000e-009,-8.43798436e-006
,,,-6.30000000e-009,-7.50048435e-006
,,,-6.27500000e-009,-4.68798433e-006
,,,-6.25000000e-009,-1.40673430e-006
,,,-6.22500000e-009,1.40576572e-006
,,,-6.20000000e-009,1.87451573e-006
,,,-6.17500000e-009,-4.84287738e-010
,,,-6.15000000e-009,-7.03173435e-006
,,,-6.12500000e-009,-1.78129844e-005
,,,-6.10000000e-009,-3.18754846e-005
,,,-6.07500000e-009,-4.82817347e-005
,,,-6.05000000e-009,-6.65629849e-005
,,,-6.02500000e-009,-8.53129850e-005
,,,-6.00000000e-009,-1.03125485e-004
,,,-5.97500000e-009,-1.20000485e-004
,,,-5.95000000e-009,-1.35469235e-004
,,,-5.92500000e-009,-1.49062986e-004
,,,-5.90000000e-009,-1.62656736e-004
,,,-5.87500000e-009,-1.75781736e-004
,,,-5.85000000e-009,-1.89375486e-004
,,,-5.82500000e-009,-2.04375486e-004
,,,-5.80000000e-009,-2.21250486e-004
,,,-5.77500000e-009,-2.40000486e-004
,,,-5.75000000e-009,-2.59687987e-004
,,,-5.72500000e-009,-2.80781737e-004
,,,-5.70000000e-009,-3.01875487e-004
,,,-5.67500000e-009,-3.21562987e-004
,,,-5.65000000e-009,-3.38906737e-004
,,,-5.62500000e-009,-3.51562987e-004
,,,-5.60000000e-009,-3.59062987e-004
,,,-5.57500000e-009,-3.60000487e-004
,,,-5.55000000e-009,-3.53437987e-004
,,,-5.52500000e-009,-3.41250487e-004
,,,-5.50000000e-009,-3.25781737e-004
,,,-5.47500000e-009,-3.07500487e-004
,,,-5.45000000e-009,-2.88281737e-004
,,,-5.42500000e-009,-2.69531737e-004
,,,-5.40000000e-009,-2.53594236e-004
,,,-5.37500000e-009,-2.40000486e-004
,,,-5.35000000e-009,-2.30156736e-004
,,,-5.32500000e-009,-2.24531736e-004
,,,-5.30000000e-009,-2.22656736e-004
,,,-5.27500000e-009,-2.24531736e-004
,,,-5.25000000e-009,-2.28281736e-004
,,,-5.22500000e-009,-2.32500486e-004
,,,-5.20000000e-009,-2.37187986e-004
,,,-5.17500000e-009,-2.40000486e-004
,,,-5.15000000e-009,-2.40937986e-004
,,,-5.12500000e-009,-2.40000486e-004
,,,-5.10000000e-009,-2.38594236e-004
,,,-5.07500000e-009,-2.36250486e-004
,,,-5.05000000e-009,-2.34375486e-004
,,,-5.02500000e-009,-2.33906736e-004
,,,-5.00000000e-009,-2.35781736e-004
,,,-4.97500000e-009,-2.40000486e-004
,,,-4.95000000e-009,-2.47500486e-004
,,,-4.92500000e-009,-2.58281737e-004
,,,-4.90000000e-009,-2.72344237e-004
,,,-4.87500000e-009,-2.88281737e-004
,,,-4.85000000e-009,-3.06562987e-004
,,,-4.82500000e-009,-3.25312987e-004
,,,-4.80000000e-009,-3.43594237e-004
,,,-4.77500000e-009,-3.60000487e-004
,,,-4.75000000e-009,-3.73594238e-004
,,,-4.72500000e-009,-3.82969238e-004
,,,-4.70000000e-009,-3.89062988e-004
,,,-4.67500000e-009,-3.90937988e-004
,,,-4.65000000e-009,-3.88594238e-004
,,,-4.62500000e-009,-3.82500488e-004
,,,-4.60000000e-009,-3.73125488e-004
,,,-4.57500000e-009,-3.60000487e-004
,,,-4.55000000e-009,-3.45469237e-004
,,,-4.52500000e-009,-3.29062987e-004
,,,-4.50000000e-009,-3.12187987e-004
,,,-4.47500000e-009,-2.94844237e-004
,,,-4.45000000e-009,-2.78906737e-004
,,,-4.42500000e-009,-2.63906737e-004
,,,-4.40000000e-009,-2.50781736e-004
,,,-4.37500000e-009,-2.40000486e-004
,,,-4.35000000e-009,-2.32031736e-004
,,,-4.32500000e-009,-2.26875486e-004
,,,-4.30000000e-009,-2.24062986e-004
,,,-4.27500000e-009,-2.24062986e-004
,,,-4.25000000e-009,-2.25937986e-004
,,,-4.22500000e-009,-2.29687986e-004
,,,-4.20000000e-009,-2.34844236e-004
,,,-4.17500000e-009,-2.40000486e-004
,,,-4.15000000e-009,-2.45156736e-004
,,,-4.12500000e-009,-2.49375486e-004
,,,-4.10000000e-009,-2.52187986e-004
,,,-4.07500000e-009,-2.53125486e-004
,,,-4.05000000e-009,-2.52656736e-004
,,,-4.02500000e-009,-2.49844236e-004
,,,-4.00000000e-009,-2.45625486e-004
,,,-3.97500000e-009,-2.40000486e-004
,,,-3.95000000e-009,-2.33437986e-004
,,,-3.92500000e-009,-2.27344236e-004
,,,-3.90000000e-009,-2.21719236e-004
,,,-3.87500000e-009,-2.18906736e-004
,,,-3.85000000e-009,-2.18437986e-004
,,,-3.82500000e-009,-2.21719236e-004
,,,-3.80000000e-009,-2.28750486e-004
,,,-3.77500000e-009,-2.40000486e-004
,,,-3.75000000e-009,-2.55469237e-004
,,,-3.72500000e-009,-2.73281737e-004
,,,-3.70000000e-009,-2.92500487e-004
,,,-3.67500000e-009,-3.11250487e-004
,,,-3.65000000e-009,-3.29062987e-004
,,,-3.62500000e-009,-3.43594237e-004
,,,-3.60000000e-009,-3.54375487e-004
,,,-3.57500000e-009,-3.60000487e-004
,,,-3.55000000e-009,-3.59062987e-004
,,,-3.52500000e-009,-3.52500487e-004
,,,-3.50000000e-009,-3.40312987e-004
,,,-3.47500000e-009,-3.24375487e-004
,,,-3.45000000e-009,-3.05156737e-004
,,,-3.42500000e-009,-2.83594237e-004
,,,-3.40000000e-009,-2.61562987e-004
,,,-3.37500000e-009,-2.40000486e-004
,,,-3.35000000e-009,-2.19375486e-004
,,,-3.32500000e-009,-2.00625486e-004
,,,-3.30000000e-009,-1.83750486e-004
,,,-3.27500000e-009,-1.68281736e-004
,,,-3.25000000e-009,-1.54687986e-004
,,,-3.22500000e-009,-1.42500486e-004
,,,-3.20000000e-009,-1.30781735e-004
,,,-3.17500000e-009,-1.20000485e-004
,,,-3.15000000e-009,-1.11562985e-004
,,,-3.12500000e-009,-1.04531735e-004
,,,-3.10000000e-009,-9.89067351e-005
,,,-3.07500000e-009,-9.60942351e-005
,,,-3.05000000e-009,-9.65629851e-005
,,,-3.02500000e-009,-1.00312985e-004
,,,-3.00000000e-009,-1.08281735e-004
,,,-2.97500000e-009,-1.20000485e-004
,,,-2.95000000e-009,-1.36406735e-004
,,,-2.92500000e-009,-1.55156736e-004
,,,-2.90000000e-009,-1.75312986e-004
,,,-2.87500000e-009,-1.94531736e-004
,,,-2.85000000e-009,-2.12344236e-004
,,,-2.82500000e-009,-2.26406736e-004
,,,-2.80000000e-009,-2.36250486e-004
,,,-2.77500000e-009,-2.40000486e-004
,,,-2.75000000e-009,-2.38594236e-004
,,,-2.72500000e-009,-2.31094236e-004
,,,-2.70000000e-009,-2.17969236e-004
,,,-2.67500000e-009,-2.01094236e-004
,,,-2.65000000e-009,-1.81406736e-004
,,,-2.62500000e-009,-1.60312986e-004
,,,-2.60000000e-009,-1.39687986e-004
,,,-2.57500000e-009,-1.20000485e-004
,,,-2.55000000e-009,-1.05469235e-004
,,,-2.52500000e-009,-9.46879851e-005
,,,-2.50000000e-009,-8.81254851e-005
,,,-2.47500000e-009,-8.62504850e-005
,,,-2.45000000e-009,-8.90629851e-005
,,,-2.42500000e-009,-9.60942351e-005
,,,-2.40000000e-009,-1.06406735e-004
,,,-2.37500000e-009,-1.20000485e-004
,,,-2.35000000e-009,-1.37812985e-004
,,,-2.32500000e-009,-1.56094236e-004
,,,-2.30000000e-009,-1.74375486e-004
,,,-2.27500000e-009,-1.92187986e-004
,,,-2.25000000e-009,-2.08125486e-004
,,,-2.22500000e-009,-2.21719236e-004
,,,-2.20000000e-009,-2.32500486e-004
,,,-2.17500000e-009,-2.40000486e-004
,,,-2.15000000e-009,-2.46562986e-004
,,,-2.12500000e-009,-2.50312986e-004
,,,-2.10000000e-009,-2.51719236e-004
,,,-2.07500000e-009,-2.51719236e-004
,,,-2.05000000e-009,-2.49844236e-004
,,,-2.02500000e-009,-2.47031736e-004
,,,-2.00000000e-009,-2.43750486e-004
,,,-1.97500000e-009,-2.40000486e-004
,,,-1.95000000e-009,-2.40000486e-004
,,,-1.92500000e-009,-2.40469236e-004
,,,-1.90000000e-009,-2.41875486e-004
,,,-1.87500000e-009,-2.43281736e-004
,,,-1.85000000e-009,-2.44219236e-004
,,,-1.82500000e-009,-2.44219236e-004
,,,-1.80000000e-009,-2.43281736e-004
,,,-1.77500000e-009,-2.40000486e-004
,,,-1.75000000e-009,-2.41875486e-004
,,,-1.72500000e-009,-2.42812986e-004
,,,-1.70000000e-009,-2.43281736e-004
,,,-1.67500000e-009,-2.43281736e-004
,,,-1.65000000e-009,-2.42812986e-004
,,,-1.62500000e-009,-2.41875486e-004
,,,-1.60000000e-009,-2.40937986e-004
,,,-1.57500000e-009,-2.40000486e-004
,,,-1.55000000e-009,-2.49844236e-004
,,,-1.52500000e-009,-2.62031737e-004
,,,-1.50000000e-009,-2.77031737e-004
,,,-1.47500000e-009,-2.93437987e-004
,,,-1.45000000e-009,-3.10312987e-004
,,,-1.42500000e-009,-3.27656737e-004
,,,-1.40000000e-009,-3.44062987e-004
,,,-1.37500000e-009,-3.60000487e-004
,,,-1.35000000e-009,-3.87656738e-004
,,,-1.32500000e-009,-4.17187988e-004
,,,-1.30000000e-009,-4.48125488e-004
,,,-1.27500000e-009,-4.79531738e-004
,,,-1.25000000e-009,-5.10469239e-004
,,,-1.22500000e-009,-5.40937989e-004
,,,-1.20000000e-009,-5.70937989e-004
,,,-1.17500000e-009,-6.00000490e-004
,,,-1.15000000e-009,-6.45000490e-004
,,,-1.12500000e-009,-6.92812990e-004
,,,-1.10000000e-009,-7.41562991e-004
,,,-1.07500000e-009,-7.90312991e-004
,,,-1.05000000e-009,-8.37187992e-004
,,,-1.02500000e-009,-8.81250492e-004
,,,-1.00000000e-009,-9.22500492e-004
,,,-9.75000000e-010,-9.60000493e-004
,,,-9.50000000e-010,-1.01343799e-003
,,,-9.25000000e-010,-1.06921924e-003
,,,-9.00000000e-010,-1.12687549e-003
,,,-8.75000000e-010,-1.18687549e-003
,,,-8.50000000e-010,-1.24828175e-003
,,,-8.25000000e-010,-1.31062550e-003
,,,-8.00000000e-010,-1.37437550e-003
,,,-7.75000000e-010,-1.44000050e-003
,,,-7.50000000e-010,-1.52390675e-003
,,,-7.25000000e-010,-1.61296925e-003
,,,-7.00000000e-010,-1.70578175e-003
,,,-6.75000000e-010,-1.80046925e-003
,,,-6.50000000e-010,-1.89515675e-003
,,,-6.25000000e-010,-1.98703175e-003
,,,-6.00000000e-010,-2.07562550e-003
,,,-5.75000000e-010,-2.16000050e-003
,,,-5.50000000e-010,-2.25375050e-003
,,,-5.25000000e-010,-2.34984425e-003
,,,-5.00000000e-010,-2.44875051e-003
,,,-4.75000000e-010,-2.55093801e-003
,,,-4.50000000e-010,-2.65640676e-003
,,,-4.25000000e-010,-2.76656301e-003
,,,-4.00000000e-010,-2.88046926e-003
,,,-3.75000000e-010,-3.00000051e-003
,,,-3.50000000e-010,-3.13218801e-003
,,,-3.25000000e-010,-3.27328176e-003
,,,-3.00000000e-010,-3.42328176e-003
,,,-2.75000000e-010,-3.57890677e-003
,,,-2.50000000e-010,-3.73734427e-003
,,,-2.25000000e-010,-3.89531302e-003
,,,-2.00000000e-010,-4.05046927e-003
,,,-1.75000000e-010,-4.20000052e-003
,,,-1.50000000e-010,-4.33921927e-003
,,,-1.25000000e-010,-4.47468802e-003
,,,-1.00000000e-010,-4.60500052e-003
,,,-7.50000000e-011,-4.72968803e-003
,,,-5.00000000e-011,-4.84828178e-003
,,,-2.50000000e-011,-4.95984428e-003
,,,0.00000000e+000,-5.06343803e-003
,,,2.50000000e-011,-5.16000053e-003
,,,5.00000000e-011,-5.23828178e-003
,,,7.50000000e-011,-5.31468803e-003
,,,1.00000000e-010,-5.39062553e-003
,,,1.25000000e-010,-5.46656303e-003
,,,1.50000000e-010,-5.54203178e-003
,,,1.75000000e-010,-5.61656303e-003
,,,2.00000000e-010,-5.68921928e-003
,,,2.25000000e-010,-5.76000053e-003
,,,2.50000000e-010,-5.81109428e-003
,,,2.75000000e-010,-5.86406304e-003
,,,3.00000000e-010,-5.92031304e-003
,,,3.25000000e-010,-5.97984429e-003
,,,3.50000000e-010,-6.04265679e-003
,,,3.75000000e-010,-6.10734429e-003
,,,4.00000000e-010,-6.17390679e-003
,,,4.25000000e-010,-6.24000054e-003
,,,4.50000000e-010,-6.28265679e-003
,,,4.75000000e-010,-6.32625054e-003
,,,5.00000000e-010,-6.37125054e-003
,,,5.25000000e-010,-6.41812554e-003
,,,5.50000000e-010,-6.46593804e-003
,,,5.75000000e-010,-6.51281304e-003
,,,6.00000000e-010,-6.55828179e-003
,,,6.25000000e-010,-6.60000054e-003
,,,6.50000000e-010,-6.61125054e-003
,,,6.75000000e-010,-6.61921929e-003
,,,7.00000000e-010,-6.62343804e-003
,,,7.25000000e-010,-6.62531304e-003
,,,7.50000000e-010,-6.62437554e-003
,,,7.75000000e-010,-6.62015679e-003
,,,8.00000000e-010,-6.61218804e-003
,,,8.25000000e-010,-6.60000054e-003
,,,8.50000000e-010,-6.56015679e-003
,,,8.75000000e-010,-6.51656304e-003
,,,9.00000000e-010,-6.47062554e-003
,,,9.25000000e-010,-6.42421929e-003
,,,9.50000000e-010,-6.37781304e-003
,,,9.75000000e-010,-6.33187554e-003
,,,1.00000000e-009,-6.28640679e-003
,,,1.02500000e-009,-6.24000054e-003
,,,1.05000000e-009,-6.17437554e-003
,,,1.07500000e-009,-6.10640679e-003
,,,1.10000000e-009,-6.03609429e-003
,,,1.12500000e-009,-5.96296929e-003
,,,1.15000000e-009,-5.88750054e-003
,,,1.17500000e-009,-5.80875053e-003
,,,1.20000000e-009,-5.72625053e-003
,,,1.22500000e-009,-5.64000053e-003
,,,1.25000000e-009,-5.53593803e-003
,,,1.27500000e-009,-5.42765678e-003
,,,1.30000000e-009,-5.31609428e-003
,,,1.32500000e-009,-5.20500053e-003
,,,1.35000000e-009,-5.09578178e-003
,,,1.37500000e-009,-4.99078178e-003
,,,1.40000000e-009,-4.89187553e-003
,,,1.42500000e-009,-4.80000053e-003
,,,1.45000000e-009,-4.70953178e-003
,,,1.47500000e-009,-4.62375052e-003
,,,1.50000000e-009,-4.54265677e-003
,,,1.52500000e-009,-4.46625052e-003
,,,1.55000000e-009,-4.39406302e-003
,,,1.57500000e-009,-4.32609427e-003
,,,1.60000000e-009,-4.26187552e-003
,,,1.62500000e-009,-4.20000052e-003
,,,1.65000000e-009,-4.13859427e-003
,,,1.67500000e-009,-4.07531302e-003
,,,1.70000000e-009,-4.01062552e-003
,,,1.72500000e-009,-3.94593802e-003
,,,1.75000000e-009,-3.88359427e-003
,,,1.77500000e-009,-3.82453177e-003
,,,1.80000000e-009,-3.76968802e-003
,,,1.82500000e-009,-3.72000052e-003
,,,1.85000000e-009,-3.67500052e-003
,,,1.87500000e-009,-3.62765677e-003
,,,1.90000000e-009,-3.57703177e-003
,,,1.92500000e-009,-3.52171926e-003
,,,1.95000000e-009,-3.46078176e-003
,,,1.97500000e-009,-3.39375051e-003
,,,2.00000000e-009,-3.32015676e-003
,,,2.02500000e-009,-3.24000051e-003
,,,2.05000000e-009,-3.15703176e-003
,,,2.07500000e-009,-3.06515676e-003
,,,2.10000000e-009,-2.96812551e-003
,,,2.12500000e-009,-2.86828176e-003
,,,2.15000000e-009,-2.77031301e-003
,,,2.17500000e-009,-2.67750051e-003
,,,2.20000000e-009,-2.59359426e-003
,,,2.22500000e-009,-2.52000051e-003
,,,2.25000000e-009,-2.46328176e-003
,,,2.27500000e-009,-2.41312551e-003
,,,2.30000000e-009,-2.36859425e-003
,,,2.32500000e-009,-2.32687550e-003
,,,2.35000000e-009,-2.28750050e-003
,,,2.37500000e-009,-2.24718800e-003
,,,2.40000000e-009,-2.20546925e-003
,,,2.42500000e-009,-2.16000050e-003
,,,2.45000000e-009,-2.11500050e-003
,,,2.47500000e-009,-2.06156300e-003
,,,2.50000000e-009,-2.00109425e-003
,,,2.52500000e-009,-1.93593800e-003
,,,2.55000000e-009,-1.86796925e-003
,,,2.57500000e-009,-1.80093800e-003
,,,2.60000000e-009,-1.73765675e-003
,,,2.62500000e-009,-1.68000050e-003
,,,2.65000000e-009,-1.63640675e-003
,,,2.67500000e-009,-1.59796925e-003
,,,2.70000000e-009,-1.56375050e-003
,,,2.72500000e-009,-1.53421925e-003
,,,2.75000000e-009,-1.50796925e-003
,,,2.77500000e-009,-1.48406300e-003
,,,2.80000000e-009,-1.46203175e-003
,,,2.82500000e-009,-1.44000050e-003
,,,2.85000000e-009,-1.42265675e-003
,,,2.87500000e-009,-1.40062550e-003
,,,2.90000000e-009,-1.37343800e-003
,,,2.92500000e-009,-1.34250050e-003
,,,2.95000000e-009,-1.30828175e-003
,,,2.97500000e-009,-1.27218800e-003
,,,3.00000000e-009,-1.23562550e-003
,,,3.02500000e-009,-1.20000049e-003
,,,3.05000000e-009,-1.17046924e-003
,,,3.07500000e-009,-1.13953174e-003
,,,3.10000000e-009,-1.10859424e-003
,,,3.12500000e-009,-1.07718799e-003
,,,3.15000000e-009,-1.04625049e-003
,,,3.17500000e-009,-1.01625049e-003
,,,3.20000000e-009,-9.87187993e-004
,,,3.22500000e-009,-9.60000493e-004
,,,3.25000000e-009,-9.38437992e-004
,,,3.27500000e-009,-9.17812992e-004
,,,3.30000000e-009,-8.97656742e-004
,,,3.32500000e-009,-8.79844242e-004
,,,3.35000000e-009,-8.64375492e-004
,,,3.37500000e-009,-8.52187992e-004
,,,3.40000000e-009,-8.44219242e-004
,,,3.42500000e-009,-8.40000492e-004
,,,3.45000000e-009,-8.43281742e-004
,,,3.47500000e-009,-8.47969242e-004
,,,3.50000000e-009,-8.52187992e-004
,,,3.52500000e-009,-8.55469242e-004
,,,3.55000000e-009,-8.56875492e-004
,,,3.57500000e-009,-8.55469242e-004
,,,3.60000000e-009,-8.49844242e-004
,,,3.62500000e-009,-8.40000492e-004
,,,3.65000000e-009,-8.27344241e-004
,,,3.67500000e-009,-8.08125491e-004
,,,3.70000000e-009,-7.82812991e-004
,,,3.72500000e-009,-7.52344241e-004
,,,3.75000000e-009,-7.18125491e-004
,,,3.77500000e-009,-6.80156740e-004
,,,3.80000000e-009,-6.40312990e-004
,,,3.82500000e-009,-6.00000490e-004
,,,3.85000000e-009,-5.63906739e-004
,,,3.87500000e-009,-5.28281739e-004
,,,3.90000000e-009,-4.94531739e-004
,,,3.92500000e-009,-4.62187988e-004
,,,3.95000000e-009,-4.32656738e-004
,,,3.97500000e-009,-4.05469238e-004
,,,4.00000000e-009,-3.81094238e-004
,,,4.02500000e-009,-3.60000487e-004
,,,4.05000000e-009,-3.47344237e-004
,,,4.07500000e-009,-3.37500487e-004
,,,4.10000000e-009,-3.31406737e-004
,,,4.12500000e-009,-3.29062987e-004
,,,4.15000000e-009,-3.30937987e-004
,,,4.17500000e-009,-3.36562987e-004
,,,4.20000000e-009,-3.46406737e-004
,,,4.22500000e-009,-3.60000487e-004
,,,4.25000000e-009,-3.79687988e-004
,,,4.27500000e-009,-4.00312988e-004
,,,4.30000000e-009,-4.20469238e-004
,,,4.32500000e-009,-4.39219238e-004
,,,4.35000000e-009,-4.55156738e-004
,,,4.37500000e-009,-4.67812988e-004
,,,4.40000000e-009,-4.76250488e-004
,,,4.42500000e-009,-4.80000488e-004
,,,4.45000000e-009,-4.82344238e-004
,,,4.47500000e-009,-4.81406738e-004
,,,4.50000000e-009,-4.78125488e-004
,,,4.52500000e-009,-4.73906738e-004
,,,4.55000000e-009,-4.71094238e-004
,,,4.57500000e-009,-4.70156738e-004
,,,4.60000000e-009,-4.72969238e-004
,,,4.62500000e-009,-4.80000488e-004
,,,4.65000000e-009,-4.93594239e-004
,,,4.67500000e-009,-5.10469239e-004
,,,4.70000000e-009,-5.29219239e-004
,,,4.72500000e-009,-5.48906739e-004
,,,4.75000000e-009,-5.67187989e-004
,,,4.77500000e-009,-5.83125489e-004
,,,4.80000000e-009,-5.94375489e-004
,,,4.82500000e-009,-6.00000490e-004
,,,4.85000000e-009,-5.99531739e-004
,,,4.87500000e-009,-5.92031739e-004
,,,4.90000000e-009,-5.79375489e-004
,,,4.92500000e-009,-5.62500489e-004
,,,4.95000000e-009,-5.41875489e-004
,,,4.97500000e-009,-5.20312989e-004
,,,5.00000000e-009,-4.99219239e-004
,,,5.02500000e-009,-4.80000488e-004
,,,5.05000000e-009,-4.64062988e-004
,,,5.07500000e-009,-4.52812988e-004
,,,5.10000000e-009,-4.46250488e-004
,,,5.12500000e-009,-4.44844238e-004
,,,5.15000000e-009,-4.48125488e-004
,,,5.17500000e-009,-4.55625488e-004
,,,5.20000000e-009,-4.66875488e-004
,,,5.22500000e-009,-4.80000488e-004
,,,5.25000000e-009,-4.94531739e-004
,,,5.27500000e-009,-5.09531739e-004
,,,5.30000000e-009,-5.25000489e-004
,,,5.32500000e-009,-5.40937989e-004
,,,5.35000000e-009,-5.56406739e-004
,,,5.37500000e-009,-5.71875489e-004
,,,5.40000000e-009,-5.86406739e-004
,,,5.42500000e-009,-6.00000490e-004
,,,5.45000000e-009,-6.10312990e-004
,,,5.47500000e-009,-6.17812990e-004
,,,5.50000000e-009,-6.22969240e-004
,,,5.52500000e-009,-6.24844240e-004
,,,5.55000000e-009,-6.23437990e-004
,,,5.57500000e-009,-6.19219240e-004
,,,5.60000000e-009,-6.11250490e-004
,,,5.62500000e-009,-6.00000490e-004
,,,5.65000000e-009,-5.84062989e-004
,,,5.67500000e-009,-5.65781739e-004
,,,5.70000000e-009,-5.46562989e-004
,,,5.72500000e-009,-5.28281739e-004
,,,5.75000000e-009,-5.11406739e-004
,,,5.77500000e-009,-4.97344239e-004
,,,5.80000000e-009,-4.87031739e-004
,,,5.82500000e-009,-4.80000488e-004
