RawData/DifferentLengths/R3/R3_12pt5_5mV/wave010_Ch3.csv

"Record Length",1000,"Points",-7.72500000e-009,-1.57500486e-004
"Sample Interval",2.50000000e-011,s,-7.70000000e-009,-1.42031736e-004
"Trigger Point",309,"Samples",-7.67500000e-009,-1.32187985e-004
"Trigger Time",9.14658228e-012,s,-7.65000000e-009,-1.26094235e-004
"",,,-7.62500000e-009,-1.22812985e-004
"Horizontal Offset",-7.72500000e-009,s,-7.60000000e-009,-1.20000485e-004
,,,-7.57500000e-009,-1.16719235e-004
,,,-7.55000000e-009,-1.11562985e-004
,,,-7.52500000e-009,-1.03125485e-004
,,,-7.50000000e-009,-9.09379851e-005
,,,-7.47500000e-009,-7.45317349e-005
,,,-7.45000000e-009,-5.39067348e-005
,,,-7.42500000e-009,-2.90629845e-005
,,,-7.40000000e-009,-4.84287738e-010
,,,-7.37500000e-009,2.95307660e-005
,,,-7.35000000e-009,6.14057662e-005
,,,-7.32500000e-009,9.42182665e-005
,,,-7.30000000e-009,1.27499517e-004
,,,-7.27500000e-009,1.59374517e-004
,,,-7.25000000e-009,1.89374517e-004
,,,-7.22500000e-009,2.16562018e-004
,,,-7.20000000e-009,2.39999518e-004
,,,-7.17500000e-009,2.54062018e-004
,,,-7.15000000e-009,2.63437018e-004
,,,-7.12500000e-009,2.68593268e-004
,,,-7.10000000e-009,2.69530768e-004
,,,-7.07500000e-009,2.66249518e-004
,,,-7.05000000e-009,2.60155768e-004
,,,-7.02500000e-009,2.50780768e-004
,,,-7.00000000e-009,2.39999518e-004
,,,-6.97500000e-009,2.22187018e-004
,,,-6.95000000e-009,2.04374517e-004
,,,-6.92500000e-009,1.87030767e-004
,,,-6.90000000e-009,1.71093267e-004
,,,-6.87500000e-009,1.56093267e-004
,,,-6.85000000e-009,1.42968267e-004
,,,-6.82500000e-009,1.30780767e-004
,,,-6.80000000e-009,1.19999517e-004
,,,-6.77500000e-009,1.05937017e-004
,,,-6.75000000e-009,9.28120165e-005
,,,-6.72500000e-009,7.92182664e-005
,,,-6.70000000e-009,6.51557663e-005
,,,-6.67500000e-009,5.06245162e-005
,,,-6.65000000e-009,3.46870160e-005
,,,-6.62500000e-009,1.78120159e-005
,,,-6.60000000e-009,-4.84287738e-010
,,,-6.57500000e-009,-2.01567345e-005
,,,-6.55000000e-009,-3.98442346e-005
,,,-6.52500000e-009,-5.90629848e-005
,,,-6.50000000e-009,-7.64067350e-005
,,,-6.47500000e-009,-9.18754851e-005
,,,-6.45000000e-009,-1.04531735e-004
,,,-6.42500000e-009,-1.13906735e-004
,,,-6.40000000e-009,-1.20000485e-004
,,,-6.37500000e-009,-1.22812985e-004
,,,-6.35000000e-009,-1.22812985e-004
,,,-6.32500000e-009,-1.20937985e-004
,,,-6.30000000e-009,-1.18125485e-004
,,,-6.27500000e-009,-1.15781735e-004
,,,-6.25000000e-009,-1.14844235e-004
,,,-6.22500000e-009,-1.16250485e-004
,,,-6.20000000e-009,-1.20000485e-004
,,,-6.17500000e-009,-1.26094235e-004
,,,-6.15000000e-009,-1.35469235e-004
,,,-6.12500000e-009,-1.48125486e-004
,,,-6.10000000e-009,-1.64062986e-004
,,,-6.07500000e-009,-1.82344236e-004
,,,-6.05000000e-009,-2.02031736e-004
,,,-6.02500000e-009,-2.21719236e-004
,,,-6.00000000e-009,-2.40000486e-004
,,,-5.97500000e-009,-2.52656736e-004
,,,-5.95000000e-009,-2.62031737e-004
,,,-5.92500000e-009,-2.68125487e-004
,,,-5.90000000e-009,-2.70000487e-004
,,,-5.87500000e-009,-2.68125487e-004
,,,-5.85000000e-009,-2.62031737e-004
,,,-5.82500000e-009,-2.52656736e-004
,,,-5.80000000e-009,-2.40000486e-004
,,,-5.77500000e-009,-2.23594236e-004
,,,-5.75000000e-009,-2.05781736e-004
,,,-5.72500000e-009,-1.87500486e-004
,,,-5.70000000e-009,-1.70156736e-004
,,,-5.67500000e-009,-1.54687986e-004
,,,-5.65000000e-009,-1.40625486e-004
,,,-5.62500000e-009,-1.28906735e-004
,,,-5.60000000e-009,-1.20000485e-004
,,,-5.57500000e-009,-1.13906735e-004
,,,-5.55000000e-009,-1.10156735e-004
,,,-5.52500000e-009,-1.09219235e-004
,,,-5.50000000e-009,-1.10625485e-004
,,,-5.47500000e-009,-1.12969235e-004
,,,-5.45000000e-009,-1.16250485e-004
,,,-5.42500000e-009,-1.19062985e-004
,,,-5.40000000e-009,-1.20000485e-004
,,,-5.37500000e-009,-1.20469235e-004
,,,-5.35000000e-009,-1.17187985e-004
,,,-5.32500000e-009,-1.10156735e-004
,,,-5.30000000e-009,-9.84379851e-005
,,,-5.27500000e-009,-8.10942350e-005
,,,-5.25000000e-009,-5.85942348e-005
,,,-5.22500000e-009,-3.14067346e-005
,,,-5.20000000e-009,-4.84287738e-010
,,,-5.17500000e-009,2.90620160e-005
,,,-5.15000000e-009,5.81245162e-005
,,,-5.12500000e-009,8.43745164e-005
,,,-5.10000000e-009,1.06405767e-004
,,,-5.07500000e-009,1.21874517e-004
,,,-5.05000000e-009,1.29843267e-004
,,,-5.02500000e-009,1.29374517e-004
,,,-5.00000000e-009,1.19999517e-004
,,,-4.97500000e-009,9.70307666e-005
,,,-4.95000000e-009,6.70307663e-005
,,,-4.92500000e-009,3.23432660e-005
,,,-4.90000000e-009,-4.68798433e-006
,,,-4.87500000e-009,-4.03129846e-005
,,,-4.85000000e-009,-7.31254849e-005
,,,-4.82500000e-009,-1.00312985e-004
,,,-4.80000000e-009,-1.20000485e-004
,,,-4.77500000e-009,-1.35000485e-004
,,,-4.75000000e-009,-1.42500486e-004
,,,-4.72500000e-009,-1.43437986e-004
,,,-4.70000000e-009,-1.39219235e-004
,,,-4.67500000e-009,-1.32656735e-004
,,,-4.65000000e-009,-1.25625485e-004
,,,-4.62500000e-009,-1.20937985e-004
,,,-4.60000000e-009,-1.20000485e-004
,,,-4.57500000e-009,-1.28437985e-004
,,,-4.55000000e-009,-1.43437986e-004
,,,-4.52500000e-009,-1.66875486e-004
,,,-4.50000000e-009,-1.96875486e-004
,,,-4.47500000e-009,-2.32500486e-004
,,,-4.45000000e-009,-2.72812987e-004
,,,-4.42500000e-009,-3.15937987e-004
,,,-4.40000000e-009,-3.60000487e-004
,,,-4.37500000e-009,-4.04062988e-004
,,,-4.35000000e-009,-4.46250488e-004
,,,-4.32500000e-009,-4.84219238e-004
,,,-4.30000000e-009,-5.17969239e-004
,,,-4.27500000e-009,-5.46562989e-004
,,,-4.25000000e-009,-5.70000489e-004
,,,-4.22500000e-009,-5.87812989e-004
,,,-4.20000000e-009,-6.00000490e-004
,,,-4.17500000e-009,-6.05625490e-004
,,,-4.15000000e-009,-6.07500490e-004
,,,-4.12500000e-009,-6.07500490e-004
,,,-4.10000000e-009,-6.05625490e-004
,,,-4.07500000e-009,-6.03750490e-004
,,,-4.05000000e-009,-6.01875490e-004
,,,-4.02500000e-009,-6.00469240e-004
,,,-4.00000000e-009,-6.00000490e-004
,,,-3.97500000e-009,-5.98125489e-004
,,,-3.95000000e-009,-5.97656739e-004
,,,-3.92500000e-009,-5.99062989e-004
,,,-3.90000000e-009,-6.00469240e-004
,,,-3.87500000e-009,-6.02344240e-004
,,,-3.85000000e-009,-6.03281740e-004
,,,-3.82500000e-009,-6.02344240e-004
,,,-3.80000000e-009,-6.00000490e-004
,,,-3.77500000e-009,-5.95312989e-004
,,,-3.75000000e-009,-5.89687989e-004
,,,-3.72500000e-009,-5.85000489e-004
,,,-3.70000000e-009,-5.81719239e-004
,,,-3.67500000e-009,-5.80781739e-004
,,,-3.65000000e-009,-5.83594239e-004
,,,-3.62500000e-009,-5.89687989e-004
,,,-3.60000000e-009,-6.00000490e-004
,,,-3.57500000e-009,-6.12656740e-004
,,,-3.55000000e-009,-6.28594240e-004
,,,-3.52500000e-009,-6.46406740e-004
,,,-3.50000000e-009,-6.66094240e-004
,,,-3.47500000e-009,-6.84375490e-004
,,,-3.45000000e-009,-7.00781740e-004
,,,-3.42500000e-009,-7.12969240e-004
,,,-3.40000000e-009,-7.20000491e-004
,,,-3.37500000e-009,-7.19531741e-004
,,,-3.35000000e-009,-7.12969240e-004
,,,-3.32500000e-009,-7.00781740e-004
,,,-3.30000000e-009,-6.84375490e-004
,,,-3.27500000e-009,-6.64687990e-004
,,,-3.25000000e-009,-6.43125490e-004
,,,-3.22500000e-009,-6.21094240e-004
,,,-3.20000000e-009,-6.00000490e-004
,,,-3.17500000e-009,-5.82187989e-004
,,,-3.15000000e-009,-5.68594239e-004
,,,-3.12500000e-009,-5.60156739e-004
,,,-3.10000000e-009,-5.57344239e-004
,,,-3.07500000e-009,-5.60156739e-004
,,,-3.05000000e-009,-5.68594239e-004
,,,-3.02500000e-009,-5.82187989e-004
,,,-3.00000000e-009,-6.00000490e-004
,,,-2.97500000e-009,-6.21094240e-004
,,,-2.95000000e-009,-6.43125490e-004
,,,-2.92500000e-009,-6.64687990e-004
,,,-2.90000000e-009,-6.84375490e-004
,,,-2.87500000e-009,-7.00781740e-004
,,,-2.85000000e-009,-7.12969240e-004
,,,-2.82500000e-009,-7.19531741e-004
,,,-2.80000000e-009,-7.20000491e-004
,,,-2.77500000e-009,-7.14375490e-004
,,,-2.75000000e-009,-7.03125490e-004
,,,-2.72500000e-009,-6.87656740e-004
,,,-2.70000000e-009,-6.69844240e-004
,,,-2.67500000e-009,-6.50625490e-004
,,,-2.65000000e-009,-6.31875490e-004
,,,-2.62500000e-009,-6.14531740e-004
,,,-2.60000000e-009,-6.00000490e-004
,,,-2.57500000e-009,-5.90156739e-004
,,,-2.55000000e-009,-5.84062989e-004
,,,-2.52500000e-009,-5.81719239e-004
,,,-2.50000000e-009,-5.82656739e-004
,,,-2.47500000e-009,-5.85937989e-004
,,,-2.45000000e-009,-5.90625489e-004
,,,-2.42500000e-009,-5.95781739e-004
,,,-2.40000000e-009,-6.00000490e-004
,,,-2.37500000e-009,-6.05156740e-004
,,,-2.35000000e-009,-6.08437990e-004
,,,-2.32500000e-009,-6.09844240e-004
,,,-2.30000000e-009,-6.09375490e-004
,,,-2.27500000e-009,-6.07969240e-004
,,,-2.25000000e-009,-6.05625490e-004
,,,-2.22500000e-009,-6.02812990e-004
,,,-2.20000000e-009,-6.00000490e-004
,,,-2.17500000e-009,-5.98594239e-004
,,,-2.15000000e-009,-5.97656739e-004
,,,-2.12500000e-009,-5.97656739e-004
,,,-2.10000000e-009,-5.98125489e-004
,,,-2.07500000e-009,-5.99062989e-004
,,,-2.05000000e-009,-6.00000490e-004
,,,-2.02500000e-009,-6.00469240e-004
,,,-2.00000000e-009,-6.00000490e-004
,,,-1.97500000e-009,-6.00937990e-004
,,,-1.95000000e-009,-6.00937990e-004
,,,-1.92500000e-009,-6.00469240e-004
,,,-1.90000000e-009,-5.99531739e-004
,,,-1.87500000e-009,-5.99062989e-004
,,,-1.85000000e-009,-5.98594239e-004
,,,-1.82500000e-009,-5.98594239e-004
,,,-1.80000000e-009,-6.00000490e-004
,,,-1.77500000e-009,-6.06562990e-004
,,,-1.75000000e-009,-6.15000490e-004
,,,-1.72500000e-009,-6.26250490e-004
,,,-1.70000000e-009,-6.40312990e-004
,,,-1.67500000e-009,-6.57187990e-004
,,,-1.65000000e-009,-6.76406740e-004
,,,-1.62500000e-009,-6.97500490e-004
,,,-1.60000000e-009,-7.20000491e-004
,,,-1.57500000e-009,-7.47187991e-004
,,,-1.55000000e-009,-7.73437991e-004
,,,-1.52500000e-009,-7.98281741e-004
,,,-1.50000000e-009,-8.18906741e-004
,,,-1.47500000e-009,-8.34844242e-004
,,,-1.45000000e-009,-8.44219242e-004
,,,-1.42500000e-009,-8.46094242e-004
,,,-1.40000000e-009,-8.40000492e-004
,,,-1.37500000e-009,-8.34375492e-004
,,,-1.35000000e-009,-8.24531741e-004
,,,-1.32500000e-009,-8.10469241e-004
,,,-1.30000000e-009,-7.93594241e-004
,,,-1.27500000e-009,-7.74844241e-004
,,,-1.25000000e-009,-7.55156741e-004
,,,-1.22500000e-009,-7.36875491e-004
,,,-1.20000000e-009,-7.20000491e-004
,,,-1.17500000e-009,-7.21406741e-004
,,,-1.15000000e-009,-7.29844241e-004
,,,-1.12500000e-009,-7.43437991e-004
,,,-1.10000000e-009,-7.61250491e-004
,,,-1.07500000e-009,-7.81875491e-004
,,,-1.05000000e-009,-8.02500491e-004
,,,-1.02500000e-009,-8.22187991e-004
,,,-1.00000000e-009,-8.40000492e-004
,,,-9.75000000e-010,-8.75625492e-004
,,,-9.50000000e-010,-9.11250492e-004
,,,-9.25000000e-010,-9.46406743e-004
,,,-9.00000000e-010,-9.79687993e-004
,,,-8.75000000e-010,-1.00968799e-003
,,,-8.50000000e-010,-1.03593799e-003
,,,-8.25000000e-010,-1.05890674e-003
,,,-8.00000000e-010,-1.08000049e-003
,,,-7.75000000e-010,-1.12312549e-003
,,,-7.50000000e-010,-1.17093799e-003
,,,-7.25000000e-010,-1.22437549e-003
,,,-7.00000000e-010,-1.28296925e-003
,,,-6.75000000e-010,-1.34578175e-003
,,,-6.50000000e-010,-1.41281300e-003
,,,-6.25000000e-010,-1.48406300e-003
,,,-6.00000000e-010,-1.56000050e-003
,,,-5.75000000e-010,-1.66265675e-003
,,,-5.50000000e-010,-1.77375050e-003
,,,-5.25000000e-010,-1.89234425e-003
,,,-5.00000000e-010,-2.01562550e-003
,,,-4.75000000e-010,-2.14171925e-003
,,,-4.50000000e-010,-2.26828175e-003
,,,-4.25000000e-010,-2.39484426e-003
,,,-4.00000000e-010,-2.52000051e-003
,,,-3.75000000e-010,-2.65828176e-003
,,,-3.50000000e-010,-2.79984426e-003
,,,-3.25000000e-010,-2.94515676e-003
,,,-3.00000000e-010,-3.09375051e-003
,,,-2.75000000e-010,-3.24609426e-003
,,,-2.50000000e-010,-3.40125051e-003
,,,-2.25000000e-010,-3.55921927e-003
,,,-2.00000000e-010,-3.72000052e-003
,,,-1.75000000e-010,-3.88453177e-003
,,,-1.50000000e-010,-4.05375052e-003
,,,-1.25000000e-010,-4.22578177e-003
,,,-1.00000000e-010,-4.39828177e-003
,,,-7.50000000e-011,-4.56890677e-003
,,,-5.00000000e-011,-4.73390678e-003
,,,-2.50000000e-011,-4.89187553e-003
,,,0.00000000e+000,-5.04000053e-003
,,,2.50000000e-011,-5.16843803e-003
,,,5.00000000e-011,-5.29171928e-003
,,,7.50000000e-011,-5.41218803e-003
,,,1.00000000e-010,-5.53031303e-003
,,,1.25000000e-010,-5.64796928e-003
,,,1.50000000e-010,-5.76515678e-003
,,,1.75000000e-010,-5.88281304e-003
,,,2.00000000e-010,-6.00000054e-003
,,,2.25000000e-010,-6.09468804e-003
,,,2.50000000e-010,-6.19171929e-003
,,,2.75000000e-010,-6.29015679e-003
,,,3.00000000e-010,-6.38812554e-003
,,,3.25000000e-010,-6.48328179e-003
,,,3.50000000e-010,-6.57281304e-003
,,,3.75000000e-010,-6.65250054e-003
,,,4.00000000e-010,-6.72000054e-003
,,,4.25000000e-010,-6.74578179e-003
,,,4.50000000e-010,-6.76125054e-003
,,,4.75000000e-010,-6.76828179e-003
,,,5.00000000e-010,-6.76781304e-003
,,,5.25000000e-010,-6.76125054e-003
,,,5.50000000e-010,-6.75046929e-003
,,,5.75000000e-010,-6.73640679e-003
,,,6.00000000e-010,-6.72000054e-003
,,,6.25000000e-010,-6.67734429e-003
,,,6.50000000e-010,-6.63984429e-003
,,,6.75000000e-010,-6.61031304e-003
,,,7.00000000e-010,-6.59062554e-003
,,,7.25000000e-010,-6.58078179e-003
,,,7.50000000e-010,-6.58031304e-003
,,,7.75000000e-010,-6.58781304e-003
,,,8.00000000e-010,-6.60000054e-003
,,,8.25000000e-010,-6.58968804e-003
,,,8.50000000e-010,-6.57796929e-003
,,,8.75000000e-010,-6.56390679e-003
,,,9.00000000e-010,-6.54421929e-003
,,,9.25000000e-010,-6.51562554e-003
,,,9.50000000e-010,-6.47718804e-003
,,,9.75000000e-010,-6.42562554e-003
,,,1.00000000e-009,-6.36000054e-003
,,,1.02500000e-009,-6.26203179e-003
,,,1.05000000e-009,-6.15234429e-003
,,,1.07500000e-009,-6.03656304e-003
,,,1.10000000e-009,-5.91843804e-003
,,,1.12500000e-009,-5.80406303e-003
,,,1.15000000e-009,-5.69718803e-003
,,,1.17500000e-009,-5.60156303e-003
,,,1.20000000e-009,-5.52000053e-003
,,,1.22500000e-009,-5.44312553e-003
,,,1.25000000e-009,-5.37890678e-003
,,,1.27500000e-009,-5.32687553e-003
,,,1.30000000e-009,-5.28468803e-003
,,,1.32500000e-009,-5.25046928e-003
,,,1.35000000e-009,-5.22046928e-003
,,,1.37500000e-009,-5.19187553e-003
,,,1.40000000e-009,-5.16000053e-003
,,,1.42500000e-009,-5.11593803e-003
,,,1.45000000e-009,-5.06109428e-003
,,,1.47500000e-009,-4.99500053e-003
,,,1.50000000e-009,-4.91859428e-003
,,,1.52500000e-009,-4.83468803e-003
,,,1.55000000e-009,-4.74515678e-003
,,,1.57500000e-009,-4.65328177e-003
,,,1.60000000e-009,-4.56000052e-003
,,,1.62500000e-009,-4.46531302e-003
,,,1.65000000e-009,-4.36968802e-003
,,,1.67500000e-009,-4.27406302e-003
,,,1.70000000e-009,-4.18078177e-003
,,,1.72500000e-009,-4.09031302e-003
,,,1.75000000e-009,-4.00312552e-003
,,,1.77500000e-009,-3.91968802e-003
,,,1.80000000e-009,-3.84000052e-003
,,,1.82500000e-009,-3.76500052e-003
,,,1.85000000e-009,-3.68859427e-003
,,,1.87500000e-009,-3.61171927e-003
,,,1.90000000e-009,-3.53437552e-003
,,,1.92500000e-009,-3.45750051e-003
,,,1.95000000e-009,-3.38203176e-003
,,,1.97500000e-009,-3.30937551e-003
,,,2.00000000e-009,-3.24000051e-003
,,,2.02500000e-009,-3.17812551e-003
,,,2.05000000e-009,-3.11578176e-003
,,,2.07500000e-009,-3.05296926e-003
,,,2.10000000e-009,-2.99015676e-003
,,,2.12500000e-009,-2.92875051e-003
,,,2.15000000e-009,-2.86921926e-003
,,,2.17500000e-009,-2.81296926e-003
,,,2.20000000e-009,-2.76000051e-003
,,,2.22500000e-009,-2.71406301e-003
,,,2.25000000e-009,-2.66765676e-003
,,,2.27500000e-009,-2.62078176e-003
,,,2.30000000e-009,-2.57437551e-003
,,,2.32500000e-009,-2.52843801e-003
,,,2.35000000e-009,-2.48390676e-003
,,,2.37500000e-009,-2.44125051e-003
,,,2.40000000e-009,-2.40000051e-003
,,,2.42500000e-009,-2.36437550e-003
,,,2.45000000e-009,-2.32546925e-003
,,,2.47500000e-009,-2.28281300e-003
,,,2.50000000e-009,-2.23781300e-003
,,,2.52500000e-009,-2.19000050e-003
,,,2.55000000e-009,-2.14031300e-003
,,,2.57500000e-009,-2.09015675e-003
,,,2.60000000e-009,-2.04000050e-003
,,,2.62500000e-009,-1.99453175e-003
,,,2.65000000e-009,-1.94671925e-003
,,,2.67500000e-009,-1.89796925e-003
,,,2.70000000e-009,-1.84875050e-003
,,,2.72500000e-009,-1.80140675e-003
,,,2.75000000e-009,-1.75687550e-003
,,,2.77500000e-009,-1.71656300e-003
,,,2.80000000e-009,-1.68000050e-003
,,,2.82500000e-009,-1.65187550e-003
,,,2.85000000e-009,-1.62421925e-003
,,,2.87500000e-009,-1.59656300e-003
,,,2.90000000e-009,-1.56843800e-003
,,,2.92500000e-009,-1.53890675e-003
,,,2.95000000e-009,-1.50796925e-003
,,,2.97500000e-009,-1.47515675e-003
,,,3.00000000e-009,-1.44000050e-003
,,,3.02500000e-009,-1.40578175e-003
,,,3.05000000e-009,-1.36640675e-003
,,,3.07500000e-009,-1.32281300e-003
,,,3.10000000e-009,-1.27546925e-003
,,,3.12500000e-009,-1.22625049e-003
,,,3.15000000e-009,-1.17656299e-003
,,,3.17500000e-009,-1.12734424e-003
,,,3.20000000e-009,-1.08000049e-003
,,,3.22500000e-009,-1.04156299e-003
,,,3.25000000e-009,-1.00500049e-003
,,,3.27500000e-009,-9.70781743e-004
,,,3.30000000e-009,-9.39375492e-004
,,,3.32500000e-009,-9.10312992e-004
,,,3.35000000e-009,-8.84531742e-004
,,,3.37500000e-009,-8.61094242e-004
,,,3.40000000e-009,-8.40000492e-004
,,,3.42500000e-009,-8.27812991e-004
,,,3.45000000e-009,-8.15156741e-004
,,,3.47500000e-009,-8.02500491e-004
,,,3.50000000e-009,-7.87969241e-004
,,,3.52500000e-009,-7.72500491e-004
,,,3.55000000e-009,-7.56094241e-004
,,,3.57500000e-009,-7.38281741e-004
,,,3.60000000e-009,-7.20000491e-004
,,,3.62500000e-009,-7.07812990e-004
,,,3.65000000e-009,-6.94219240e-004
,,,3.67500000e-009,-6.79219240e-004
,,,3.70000000e-009,-6.63281740e-004
,,,3.72500000e-009,-6.46875490e-004
,,,3.75000000e-009,-6.30469240e-004
,,,3.77500000e-009,-6.14531740e-004
,,,3.80000000e-009,-6.00000490e-004
,,,3.82500000e-009,-5.93437989e-004
,,,3.85000000e-009,-5.87812989e-004
,,,3.87500000e-009,-5.84062989e-004
,,,3.90000000e-009,-5.82656739e-004
,,,3.92500000e-009,-5.83125489e-004
,,,3.95000000e-009,-5.85937989e-004
,,,3.97500000e-009,-5.91562989e-004
,,,4.00000000e-009,-6.00000490e-004
,,,4.02500000e-009,-6.15469240e-004
,,,4.05000000e-009,-6.31875490e-004
,,,4.07500000e-009,-6.48281740e-004
,,,4.10000000e-009,-6.64219240e-004
,,,4.12500000e-009,-6.79687990e-004
,,,4.15000000e-009,-6.94219240e-004
,,,4.17500000e-009,-7.07812990e-004
,,,4.20000000e-009,-7.20000491e-004
,,,4.22500000e-009,-7.33125491e-004
,,,4.25000000e-009,-7.45781741e-004
,,,4.27500000e-009,-7.57500491e-004
,,,4.30000000e-009,-7.70625491e-004
,,,4.32500000e-009,-7.84687991e-004
,,,4.35000000e-009,-8.00625491e-004
,,,4.37500000e-009,-8.19375491e-004
,,,4.40000000e-009,-8.40000492e-004
,,,4.42500000e-009,-8.61562992e-004
,,,4.45000000e-009,-8.83594242e-004
,,,4.47500000e-009,-9.04687992e-004
,,,4.50000000e-009,-9.24375492e-004
,,,4.52500000e-009,-9.40312992e-004
,,,4.55000000e-009,-9.52500493e-004
,,,4.57500000e-009,-9.59062993e-004
,,,4.60000000e-009,-9.60000493e-004
,,,4.62500000e-009,-9.53437993e-004
,,,4.65000000e-009,-9.41250492e-004
,,,4.67500000e-009,-9.25781742e-004
,,,4.70000000e-009,-9.07031742e-004
,,,4.72500000e-009,-8.88281742e-004
,,,4.75000000e-009,-8.69531742e-004
,,,4.77500000e-009,-8.53125492e-004
,,,4.80000000e-009,-8.40000492e-004
,,,4.82500000e-009,-8.29687991e-004
,,,4.85000000e-009,-8.23594241e-004
,,,4.87500000e-009,-8.22187991e-004
,,,4.90000000e-009,-8.23594241e-004
,,,4.92500000e-009,-8.27812991e-004
,,,4.95000000e-009,-8.32969242e-004
,,,4.97500000e-009,-8.37656742e-004
,,,5.00000000e-009,-8.40000492e-004
,,,5.02500000e-009,-8.39531742e-004
,,,5.05000000e-009,-8.35312992e-004
,,,5.07500000e-009,-8.26875491e-004
,,,5.10000000e-009,-8.13750491e-004
,,,5.12500000e-009,-7.95937991e-004
,,,5.15000000e-009,-7.73906741e-004
,,,5.17500000e-009,-7.48125491e-004
,,,5.20000000e-009,-7.20000491e-004
,,,5.22500000e-009,-6.90937990e-004
,,,5.25000000e-009,-6.62344240e-004
,,,5.27500000e-009,-6.37031740e-004
,,,5.30000000e-009,-6.15937990e-004
,,,5.32500000e-009,-6.00937990e-004
,,,5.35000000e-009,-5.92969239e-004
,,,5.37500000e-009,-5.92969239e-004
,,,5.40000000e-009,-6.00000490e-004
,,,5.42500000e-009,-6.15469240e-004
,,,5.45000000e-009,-6.35625490e-004
,,,5.47500000e-009,-6.57656740e-004
,,,5.50000000e-009,-6.79219240e-004
,,,5.52500000e-009,-6.97969240e-004
,,,5.55000000e-009,-7.12031740e-004
,,,5.57500000e-009,-7.19531741e-004
,,,5.60000000e-009,-7.20000491e-004
,,,5.62500000e-009,-7.13906740e-004
,,,5.65000000e-009,-7.03125490e-004
,,,5.67500000e-009,-6.90937990e-004
,,,5.70000000e-009,-6.80156740e-004
,,,5.72500000e-009,-6.75000490e-004
,,,5.75000000e-009,-6.78750490e-004
,,,5.77500000e-009,-6.93750490e-004
,,,5.80000000e-009,-7.20000491e-004
,,,5.82500000e-009,-7.55156741e-004
