RawData/DifferentLengths/R3/R3_12pt5_5mV/wave009_Ch3.csv

"Record Length",1000,"Points",-7.72500000e-009,-2.40000486e-004
"Sample Interval",2.50000000e-011,s,-7.70000000e-009,-2.23125486e-004
"Trigger Point",309,"Samples",-7.67500000e-009,-2.02500486e-004
"Trigger Time",1.49974436e-011,s,-7.65000000e-009,-1.80469236e-004
"",,,-7.62500000e-009,-1.58437986e-004
"Horizontal Offset",-7.72500000e-009,s,-7.60000000e-009,-1.39687986e-004
,,,-7.57500000e-009,-1.25625485e-004
,,,-7.55000000e-009,-1.19062985e-004
,,,-7.52500000e-009,-1.20000485e-004
,,,-7.50000000e-009,-1.33594235e-004
,,,-7.47500000e-009,-1.52812986e-004
,,,-7.45000000e-009,-1.75312986e-004
,,,-7.42500000e-009,-1.98281736e-004
,,,-7.40000000e-009,-2.18437986e-004
,,,-7.37500000e-009,-2.32969236e-004
,,,-7.35000000e-009,-2.40469236e-004
,,,-7.32500000e-009,-2.40000486e-004
,,,-7.30000000e-009,-2.36250486e-004
,,,-7.27500000e-009,-2.26406736e-004
,,,-7.25000000e-009,-2.14219236e-004
,,,-7.22500000e-009,-2.03437986e-004
,,,-7.20000000e-009,-1.97344236e-004
,,,-7.17500000e-009,-1.99687986e-004
,,,-7.15000000e-009,-2.13750486e-004
,,,-7.12500000e-009,-2.40000486e-004
,,,-7.10000000e-009,-2.82187987e-004
,,,-7.07500000e-009,-3.33750487e-004
,,,-7.05000000e-009,-3.91875488e-004
,,,-7.02500000e-009,-4.50937988e-004
,,,-7.00000000e-009,-5.06250489e-004
,,,-6.97500000e-009,-5.52187989e-004
,,,-6.95000000e-009,-5.84531739e-004
,,,-6.92500000e-009,-6.00000490e-004
,,,-6.90000000e-009,-5.97187989e-004
,,,-6.87500000e-009,-5.77500489e-004
,,,-6.85000000e-009,-5.45156739e-004
,,,-6.82500000e-009,-5.04375489e-004
,,,-6.80000000e-009,-4.60312988e-004
,,,-6.77500000e-009,-4.18125488e-004
,,,-6.75000000e-009,-3.83437988e-004
,,,-6.72500000e-009,-3.60000487e-004
,,,-6.70000000e-009,-3.52500487e-004
,,,-6.67500000e-009,-3.60937987e-004
,,,-6.65000000e-009,-3.83437988e-004
,,,-6.62500000e-009,-4.18125488e-004
,,,-6.60000000e-009,-4.61250488e-004
,,,-6.57500000e-009,-5.08594239e-004
,,,-6.55000000e-009,-5.55937989e-004
,,,-6.52500000e-009,-6.00000490e-004
,,,-6.50000000e-009,-6.36562990e-004
,,,-6.47500000e-009,-6.65625490e-004
,,,-6.45000000e-009,-6.86719240e-004
,,,-6.42500000e-009,-7.01250490e-004
,,,-6.40000000e-009,-7.10156740e-004
,,,-6.37500000e-009,-7.14844241e-004
,,,-6.35000000e-009,-7.17656741e-004
,,,-6.32500000e-009,-7.20000491e-004
,,,-6.30000000e-009,-7.20469241e-004
,,,-6.27500000e-009,-7.22344241e-004
,,,-6.25000000e-009,-7.25156741e-004
,,,-6.22500000e-009,-7.28437991e-004
,,,-6.20000000e-009,-7.30781741e-004
,,,-6.17500000e-009,-7.30781741e-004
,,,-6.15000000e-009,-7.27500491e-004
,,,-6.12500000e-009,-7.20000491e-004
,,,-6.10000000e-009,-7.06406740e-004
,,,-6.07500000e-009,-6.89062990e-004
,,,-6.05000000e-009,-6.69844240e-004
,,,-6.02500000e-009,-6.50625490e-004
,,,-6.00000000e-009,-6.32344240e-004
,,,-5.97500000e-009,-6.16875490e-004
,,,-5.95000000e-009,-6.05625490e-004
,,,-5.92500000e-009,-6.00000490e-004
,,,-5.90000000e-009,-6.00937990e-004
,,,-5.87500000e-009,-6.07969240e-004
,,,-5.85000000e-009,-6.20156740e-004
,,,-5.82500000e-009,-6.37031740e-004
,,,-5.80000000e-009,-6.57187990e-004
,,,-5.77500000e-009,-6.78750490e-004
,,,-5.75000000e-009,-7.00312990e-004
,,,-5.72500000e-009,-7.20000491e-004
,,,-5.70000000e-009,-7.33125491e-004
,,,-5.67500000e-009,-7.42500491e-004
,,,-5.65000000e-009,-7.47187991e-004
,,,-5.62500000e-009,-7.48125491e-004
,,,-5.60000000e-009,-7.44844241e-004
,,,-5.57500000e-009,-7.39219241e-004
,,,-5.55000000e-009,-7.30781741e-004
,,,-5.52500000e-009,-7.20000491e-004
,,,-5.50000000e-009,-7.05469240e-004
,,,-5.47500000e-009,-6.90000490e-004
,,,-5.45000000e-009,-6.74062990e-004
,,,-5.42500000e-009,-6.58125490e-004
,,,-5.40000000e-009,-6.42187990e-004
,,,-5.37500000e-009,-6.27187990e-004
,,,-5.35000000e-009,-6.13125490e-004
,,,-5.32500000e-009,-6.00000490e-004
,,,-5.30000000e-009,-5.87812989e-004
,,,-5.27500000e-009,-5.77500489e-004
,,,-5.25000000e-009,-5.70000489e-004
,,,-5.22500000e-009,-5.66719239e-004
,,,-5.20000000e-009,-5.68125489e-004
,,,-5.17500000e-009,-5.74219239e-004
,,,-5.15000000e-009,-5.85469239e-004
,,,-5.12500000e-009,-6.00000490e-004
,,,-5.10000000e-009,-6.15000490e-004
,,,-5.07500000e-009,-6.29531740e-004
,,,-5.05000000e-009,-6.41250490e-004
,,,-5.02500000e-009,-6.48750490e-004
,,,-5.00000000e-009,-6.49687990e-004
,,,-4.97500000e-009,-6.42656740e-004
,,,-4.95000000e-009,-6.26250490e-004
,,,-4.92500000e-009,-6.00000490e-004
,,,-4.90000000e-009,-5.62969239e-004
,,,-4.87500000e-009,-5.17969239e-004
,,,-4.85000000e-009,-4.67812988e-004
,,,-4.82500000e-009,-4.14844238e-004
,,,-4.80000000e-009,-3.63281737e-004
,,,-4.77500000e-009,-3.15000487e-004
,,,-4.75000000e-009,-2.73281737e-004
,,,-4.72500000e-009,-2.40000486e-004
,,,-4.70000000e-009,-2.19375486e-004
,,,-4.67500000e-009,-2.07656736e-004
,,,-4.65000000e-009,-2.04375486e-004
,,,-4.62500000e-009,-2.08125486e-004
,,,-4.60000000e-009,-2.15625486e-004
,,,-4.57500000e-009,-2.25000486e-004
,,,-4.55000000e-009,-2.34375486e-004
,,,-4.52500000e-009,-2.40000486e-004
,,,-4.50000000e-009,-2.44219236e-004
,,,-4.47500000e-009,-2.41875486e-004
,,,-4.45000000e-009,-2.33437986e-004
,,,-4.42500000e-009,-2.18437986e-004
,,,-4.40000000e-009,-1.98281736e-004
,,,-4.37500000e-009,-1.73906736e-004
,,,-4.35000000e-009,-1.47656736e-004
,,,-4.32500000e-009,-1.20000485e-004
,,,-4.30000000e-009,-9.84379851e-005
,,,-4.27500000e-009,-7.82817350e-005
,,,-4.25000000e-009,-6.04692348e-005
,,,-4.22500000e-009,-4.45317347e-005
,,,-4.20000000e-009,-3.04692346e-005
,,,-4.17500000e-009,-1.87504845e-005
,,,-4.15000000e-009,-8.43798436e-006
,,,-4.12500000e-009,-4.84287738e-010
,,,-4.10000000e-009,9.37015720e-007
,,,-4.07500000e-009,-9.37984296e-007
,,,-4.05000000e-009,-6.56298434e-006
,,,-4.02500000e-009,-1.68754844e-005
,,,-4.00000000e-009,-3.32817346e-005
,,,-3.97500000e-009,-5.57817348e-005
,,,-3.95000000e-009,-8.48442350e-005
,,,-3.92500000e-009,-1.20000485e-004
,,,-3.90000000e-009,-1.62187986e-004
,,,-3.87500000e-009,-2.05781736e-004
,,,-3.85000000e-009,-2.47969236e-004
,,,-3.82500000e-009,-2.86406737e-004
,,,-3.80000000e-009,-3.18281737e-004
,,,-3.77500000e-009,-3.41719237e-004
,,,-3.75000000e-009,-3.55781737e-004
,,,-3.72500000e-009,-3.60000487e-004
,,,-3.70000000e-009,-3.54375487e-004
,,,-3.67500000e-009,-3.43125487e-004
,,,-3.65000000e-009,-3.29062987e-004
,,,-3.62500000e-009,-3.16875487e-004
,,,-3.60000000e-009,-3.10781737e-004
,,,-3.57500000e-009,-3.14531737e-004
,,,-3.55000000e-009,-3.30469237e-004
,,,-3.52500000e-009,-3.60000487e-004
,,,-3.50000000e-009,-4.01250488e-004
,,,-3.47500000e-009,-4.52344238e-004
,,,-3.45000000e-009,-5.09531739e-004
,,,-3.42500000e-009,-5.68594239e-004
,,,-3.40000000e-009,-6.23906740e-004
,,,-3.37500000e-009,-6.70781740e-004
,,,-3.35000000e-009,-7.04062990e-004
,,,-3.32500000e-009,-7.20000491e-004
,,,-3.30000000e-009,-7.12031740e-004
,,,-3.27500000e-009,-6.85781740e-004
,,,-3.25000000e-009,-6.44062990e-004
,,,-3.22500000e-009,-5.91094239e-004
,,,-3.20000000e-009,-5.31562989e-004
,,,-3.17500000e-009,-4.70156738e-004
,,,-3.15000000e-009,-4.12031738e-004
,,,-3.12500000e-009,-3.60000487e-004
,,,-3.10000000e-009,-3.16406737e-004
,,,-3.07500000e-009,-2.84531737e-004
,,,-3.05000000e-009,-2.63906737e-004
,,,-3.02500000e-009,-2.52656736e-004
,,,-3.00000000e-009,-2.47500486e-004
,,,-2.97500000e-009,-2.45625486e-004
,,,-2.95000000e-009,-2.44219236e-004
,,,-2.92500000e-009,-2.40000486e-004
,,,-2.90000000e-009,-2.31094236e-004
,,,-2.87500000e-009,-2.17500486e-004
,,,-2.85000000e-009,-2.00156736e-004
,,,-2.82500000e-009,-1.80937986e-004
,,,-2.80000000e-009,-1.61250486e-004
,,,-2.77500000e-009,-1.43437986e-004
,,,-2.75000000e-009,-1.29375485e-004
,,,-2.72500000e-009,-1.20000485e-004
,,,-2.70000000e-009,-1.17656735e-004
,,,-2.67500000e-009,-1.19531735e-004
,,,-2.65000000e-009,-1.24687985e-004
,,,-2.62500000e-009,-1.30781735e-004
,,,-2.60000000e-009,-1.35000485e-004
,,,-2.57500000e-009,-1.35937985e-004
,,,-2.55000000e-009,-1.31250485e-004
,,,-2.52500000e-009,-1.20000485e-004
,,,-2.50000000e-009,-1.03594235e-004
,,,-2.47500000e-009,-8.15629850e-005
,,,-2.45000000e-009,-5.71879848e-005
,,,-2.42500000e-009,-3.32817346e-005
,,,-2.40000000e-009,-1.26567344e-005
,,,-2.37500000e-009,1.40576572e-006
,,,-2.35000000e-009,6.09326577e-006
,,,-2.32500000e-009,-4.84287738e-010
,,,-2.30000000e-009,-2.15629845e-005
,,,-2.27500000e-009,-5.10942347e-005
,,,-2.25000000e-009,-8.71879850e-005
,,,-2.22500000e-009,-1.26562985e-004
,,,-2.20000000e-009,-1.64531736e-004
,,,-2.17500000e-009,-1.97812986e-004
,,,-2.15000000e-009,-2.24062986e-004
,,,-2.12500000e-009,-2.40000486e-004
,,,-2.10000000e-009,-2.45156736e-004
,,,-2.07500000e-009,-2.39531736e-004
,,,-2.05000000e-009,-2.25000486e-004
,,,-2.02500000e-009,-2.03906736e-004
,,,-2.00000000e-009,-1.79531736e-004
,,,-1.97500000e-009,-1.55625486e-004
,,,-1.95000000e-009,-1.35469235e-004
,,,-1.92500000e-009,-1.20000485e-004
,,,-1.90000000e-009,-1.12969235e-004
,,,-1.87500000e-009,-1.12031735e-004
,,,-1.85000000e-009,-1.15781735e-004
,,,-1.82500000e-009,-1.22344235e-004
,,,-1.80000000e-009,-1.28437985e-004
,,,-1.77500000e-009,-1.31719235e-004
,,,-1.75000000e-009,-1.29375485e-004
,,,-1.72500000e-009,-1.20000485e-004
,,,-1.70000000e-009,-1.07344235e-004
,,,-1.67500000e-009,-8.90629851e-005
,,,-1.65000000e-009,-6.70317349e-005
,,,-1.62500000e-009,-4.45317347e-005
,,,-1.60000000e-009,-2.34379845e-005
,,,-1.57500000e-009,-7.50048435e-006
,,,-1.55000000e-009,9.37015720e-007
,,,-1.52500000e-009,-4.84287738e-010
,,,-1.50000000e-009,-1.78129844e-005
,,,-1.47500000e-009,-4.50004847e-005
,,,-1.45000000e-009,-7.96879850e-005
,,,-1.42500000e-009,-1.18594235e-004
,,,-1.40000000e-009,-1.57969236e-004
,,,-1.37500000e-009,-1.93594236e-004
,,,-1.35000000e-009,-2.21719236e-004
,,,-1.32500000e-009,-2.40000486e-004
,,,-1.30000000e-009,-2.56406737e-004
,,,-1.27500000e-009,-2.62500487e-004
,,,-1.25000000e-009,-2.57812987e-004
,,,-1.22500000e-009,-2.42812986e-004
,,,-1.20000000e-009,-2.19375486e-004
,,,-1.17500000e-009,-1.88906736e-004
,,,-1.15000000e-009,-1.55156736e-004
,,,-1.12500000e-009,-1.20000485e-004
,,,-1.10000000e-009,-1.07344235e-004
,,,-1.07500000e-009,-1.03125485e-004
,,,-1.05000000e-009,-1.08281735e-004
,,,-1.02500000e-009,-1.21406735e-004
,,,-1.00000000e-009,-1.42500486e-004
,,,-9.75000000e-010,-1.70156736e-004
,,,-9.50000000e-010,-2.02969236e-004
,,,-9.25000000e-010,-2.40000486e-004
,,,-9.00000000e-010,-3.07031737e-004
,,,-8.75000000e-010,-3.79219238e-004
,,,-8.50000000e-010,-4.52812988e-004
,,,-8.25000000e-010,-5.23125489e-004
,,,-8.00000000e-010,-5.87344239e-004
,,,-7.75000000e-010,-6.42187990e-004
,,,-7.50000000e-010,-6.86250490e-004
,,,-7.25000000e-010,-7.20000491e-004
,,,-7.00000000e-010,-7.76250491e-004
,,,-6.75000000e-010,-8.31094242e-004
,,,-6.50000000e-010,-8.86406742e-004
,,,-6.25000000e-010,-9.42187992e-004
,,,-6.00000000e-010,-9.99844243e-004
,,,-5.75000000e-010,-1.06078174e-003
,,,-5.50000000e-010,-1.12640674e-003
,,,-5.25000000e-010,-1.20000049e-003
,,,-5.00000000e-010,-1.31531300e-003
,,,-4.75000000e-010,-1.44656300e-003
,,,-4.50000000e-010,-1.59187550e-003
,,,-4.25000000e-010,-1.74750050e-003
,,,-4.00000000e-010,-1.90921925e-003
,,,-3.75000000e-010,-2.07375050e-003
,,,-3.50000000e-010,-2.23781300e-003
,,,-3.25000000e-010,-2.40000051e-003
,,,-3.00000000e-010,-2.58609426e-003
,,,-2.75000000e-010,-2.77593801e-003
,,,-2.50000000e-010,-2.96859426e-003
,,,-2.25000000e-010,-3.16359426e-003
,,,-2.00000000e-010,-3.36000051e-003
,,,-1.75000000e-010,-3.55781302e-003
,,,-1.50000000e-010,-3.75750052e-003
,,,-1.25000000e-010,-3.96000052e-003
,,,-1.00000000e-010,-4.17843802e-003
,,,-7.50000000e-011,-4.40671927e-003
,,,-5.00000000e-011,-4.64484427e-003
,,,-2.50000000e-011,-4.89000053e-003
,,,0.00000000e+000,-5.13937553e-003
,,,2.50000000e-011,-5.38968803e-003
,,,5.00000000e-011,-5.63765678e-003
,,,7.50000000e-011,-5.88000054e-003
,,,1.00000000e-010,-6.10875054e-003
,,,1.25000000e-010,-6.33468804e-003
,,,1.50000000e-010,-6.55687554e-003
,,,1.75000000e-010,-6.77390679e-003
,,,2.00000000e-010,-6.98437554e-003
,,,2.25000000e-010,-7.18640680e-003
,,,2.50000000e-010,-7.37812555e-003
,,,2.75000000e-010,-7.56000055e-003
,,,3.00000000e-010,-7.71000055e-003
,,,3.25000000e-010,-7.85765680e-003
,,,3.50000000e-010,-8.00578180e-003
,,,3.75000000e-010,-8.15531306e-003
,,,4.00000000e-010,-8.30625056e-003
,,,4.25000000e-010,-8.45812556e-003
,,,4.50000000e-010,-8.61000056e-003
,,,4.75000000e-010,-8.76000056e-003
,,,5.00000000e-010,-8.87203181e-003
,,,5.25000000e-010,-8.98500056e-003
,,,5.50000000e-010,-9.09937556e-003
,,,5.75000000e-010,-9.21281306e-003
,,,6.00000000e-010,-9.32343807e-003
,,,6.25000000e-010,-9.42703182e-003
,,,6.50000000e-010,-9.52031307e-003
,,,6.75000000e-010,-9.60000057e-003
,,,7.00000000e-010,-9.62203182e-003
,,,7.25000000e-010,-9.63375057e-003
,,,7.50000000e-010,-9.63843807e-003
,,,7.75000000e-010,-9.63703182e-003
,,,8.00000000e-010,-9.63234432e-003
,,,8.25000000e-010,-9.62390682e-003
,,,8.50000000e-010,-9.61312557e-003
,,,8.75000000e-010,-9.60000057e-003
,,,9.00000000e-010,-9.54421932e-003
,,,9.25000000e-010,-9.49078182e-003
,,,9.50000000e-010,-9.44109432e-003
,,,9.75000000e-010,-9.39609432e-003
,,,1.00000000e-009,-9.35484432e-003
,,,1.02500000e-009,-9.31640682e-003
,,,1.05000000e-009,-9.27890681e-003
,,,1.07500000e-009,-9.24000056e-003
,,,1.10000000e-009,-9.16312556e-003
,,,1.12500000e-009,-9.08437556e-003
,,,1.15000000e-009,-9.00515681e-003
,,,1.17500000e-009,-8.92687556e-003
,,,1.20000000e-009,-8.85140681e-003
,,,1.22500000e-009,-8.77875056e-003
,,,1.25000000e-009,-8.70843806e-003
,,,1.27500000e-009,-8.64000056e-003
,,,1.30000000e-009,-8.54484431e-003
,,,1.32500000e-009,-8.44687556e-003
,,,1.35000000e-009,-8.34656306e-003
,,,1.37500000e-009,-8.24343806e-003
,,,1.40000000e-009,-8.13796931e-003
,,,1.42500000e-009,-8.02875055e-003
,,,1.45000000e-009,-7.91671930e-003
,,,1.47500000e-009,-7.80000055e-003
,,,1.50000000e-009,-7.66078180e-003
,,,1.52500000e-009,-7.51593805e-003
,,,1.55000000e-009,-7.36875055e-003
,,,1.57500000e-009,-7.22250055e-003
,,,1.60000000e-009,-7.08187555e-003
,,,1.62500000e-009,-6.95015679e-003
,,,1.65000000e-009,-6.82921929e-003
,,,1.67500000e-009,-6.72000054e-003
,,,1.70000000e-009,-6.61218804e-003
,,,1.72500000e-009,-6.50812554e-003
,,,1.75000000e-009,-6.40687554e-003
,,,1.77500000e-009,-6.30609429e-003
,,,1.80000000e-009,-6.20484429e-003
,,,1.82500000e-009,-6.10125054e-003
,,,1.85000000e-009,-5.99343804e-003
,,,1.87500000e-009,-5.88000054e-003
,,,1.90000000e-009,-5.75484428e-003
,,,1.92500000e-009,-5.61609428e-003
,,,1.95000000e-009,-5.46609428e-003
,,,1.97500000e-009,-5.30859428e-003
,,,2.00000000e-009,-5.14687553e-003
,,,2.02500000e-009,-4.98562553e-003
,,,2.05000000e-009,-4.82906303e-003
,,,2.07500000e-009,-4.68000052e-003
,,,2.10000000e-009,-4.54359427e-003
,,,2.12500000e-009,-4.41187552e-003
,,,2.15000000e-009,-4.28437552e-003
,,,2.17500000e-009,-4.16203177e-003
,,,2.20000000e-009,-4.04437552e-003
,,,2.22500000e-009,-3.93187552e-003
,,,2.25000000e-009,-3.82406302e-003
,,,2.27500000e-009,-3.72000052e-003
,,,2.30000000e-009,-3.62625052e-003
,,,2.32500000e-009,-3.52781301e-003
,,,2.35000000e-009,-3.42421926e-003
,,,2.37500000e-009,-3.31640676e-003
,,,2.40000000e-009,-3.20625051e-003
,,,2.42500000e-009,-3.09515676e-003
,,,2.45000000e-009,-2.98593801e-003
,,,2.47500000e-009,-2.88000051e-003
,,,2.50000000e-009,-2.78906301e-003
,,,2.52500000e-009,-2.69671926e-003
,,,2.55000000e-009,-2.60390676e-003
,,,2.57500000e-009,-2.51062551e-003
,,,2.60000000e-009,-2.41828176e-003
,,,2.62500000e-009,-2.32828175e-003
,,,2.65000000e-009,-2.24203175e-003
,,,2.67500000e-009,-2.16000050e-003
,,,2.70000000e-009,-2.09531300e-003
,,,2.72500000e-009,-2.03062550e-003
,,,2.75000000e-009,-1.96593800e-003
,,,2.77500000e-009,-1.90218800e-003
,,,2.80000000e-009,-1.84031300e-003
,,,2.82500000e-009,-1.78171925e-003
,,,2.85000000e-009,-1.72828175e-003
,,,2.87500000e-009,-1.68000050e-003
,,,2.90000000e-009,-1.65093800e-003
,,,2.92500000e-009,-1.62234425e-003
,,,2.95000000e-009,-1.59328175e-003
,,,2.97500000e-009,-1.56375050e-003
,,,3.00000000e-009,-1.53281300e-003
,,,3.02500000e-009,-1.50187550e-003
,,,3.05000000e-009,-1.47093800e-003
,,,3.07500000e-009,-1.44000050e-003
,,,3.10000000e-009,-1.42078175e-003
,,,3.12500000e-009,-1.39781300e-003
,,,3.15000000e-009,-1.37062550e-003
,,,3.17500000e-009,-1.34015675e-003
,,,3.20000000e-009,-1.30687550e-003
,,,3.22500000e-009,-1.27171925e-003
,,,3.25000000e-009,-1.23609425e-003
,,,3.27500000e-009,-1.20000049e-003
,,,3.30000000e-009,-1.17515674e-003
,,,3.32500000e-009,-1.14796924e-003
,,,3.35000000e-009,-1.11937549e-003
,,,3.37500000e-009,-1.08890674e-003
,,,3.40000000e-009,-1.05750049e-003
,,,3.42500000e-009,-1.02468799e-003
,,,3.45000000e-009,-9.91875493e-004
,,,3.47500000e-009,-9.60000493e-004
,,,3.50000000e-009,-9.38906742e-004
,,,3.52500000e-009,-9.17812992e-004
,,,3.55000000e-009,-8.97656742e-004
,,,3.57500000e-009,-8.79375492e-004
,,,3.60000000e-009,-8.63437992e-004
,,,3.62500000e-009,-8.51250492e-004
,,,3.65000000e-009,-8.43281742e-004
,,,3.67500000e-009,-8.40000492e-004
,,,3.70000000e-009,-8.47969242e-004
,,,3.72500000e-009,-8.58750492e-004
,,,3.75000000e-009,-8.72344242e-004
,,,3.77500000e-009,-8.88281742e-004
,,,3.80000000e-009,-9.05156742e-004
,,,3.82500000e-009,-9.23437992e-004
,,,3.85000000e-009,-9.41719242e-004
,,,3.87500000e-009,-9.60000493e-004
,,,3.90000000e-009,-9.79219243e-004
,,,3.92500000e-009,-9.96562993e-004
,,,3.95000000e-009,-1.01156299e-003
,,,3.97500000e-009,-1.02562549e-003
,,,4.00000000e-009,-1.03875049e-003
,,,4.02500000e-009,-1.05140674e-003
,,,4.05000000e-009,-1.06546924e-003
,,,4.07500000e-009,-1.08000049e-003
,,,4.10000000e-009,-1.09500049e-003
,,,4.12500000e-009,-1.10953174e-003
,,,4.15000000e-009,-1.12453174e-003
,,,4.17500000e-009,-1.14000049e-003
,,,4.20000000e-009,-1.15546924e-003
,,,4.22500000e-009,-1.17093799e-003
,,,4.25000000e-009,-1.18593799e-003
,,,4.27500000e-009,-1.20000049e-003
,,,4.30000000e-009,-1.20750049e-003
,,,4.32500000e-009,-1.21265674e-003
,,,4.35000000e-009,-1.21500049e-003
,,,4.37500000e-009,-1.21546924e-003
,,,4.40000000e-009,-1.21406299e-003
,,,4.42500000e-009,-1.21125049e-003
,,,4.45000000e-009,-1.20656299e-003
,,,4.47500000e-009,-1.20000049e-003
,,,4.50000000e-009,-1.18500049e-003
,,,4.52500000e-009,-1.16671924e-003
,,,4.55000000e-009,-1.14375049e-003
,,,4.57500000e-009,-1.11703174e-003
,,,4.60000000e-009,-1.08515674e-003
,,,4.62500000e-009,-1.04812549e-003
,,,4.65000000e-009,-1.00640674e-003
,,,4.67500000e-009,-9.60000493e-004
,,,4.70000000e-009,-9.07031742e-004
,,,4.72500000e-009,-8.52656742e-004
,,,4.75000000e-009,-7.98281741e-004
,,,4.77500000e-009,-7.46719241e-004
,,,4.80000000e-009,-6.99844240e-004
,,,4.82500000e-009,-6.59062990e-004
,,,4.85000000e-009,-6.25781740e-004
,,,4.87500000e-009,-6.00000490e-004
,,,4.90000000e-009,-5.83125489e-004
,,,4.92500000e-009,-5.71875489e-004
,,,4.95000000e-009,-5.63906739e-004
,,,4.97500000e-009,-5.56406739e-004
,,,5.00000000e-009,-5.46562989e-004
,,,5.02500000e-009,-5.31562989e-004
,,,5.05000000e-009,-5.10000489e-004
,,,5.07500000e-009,-4.80000488e-004
,,,5.10000000e-009,-4.46250488e-004
,,,5.12500000e-009,-4.05000488e-004
,,,5.15000000e-009,-3.57187987e-004
,,,5.17500000e-009,-3.06094237e-004
,,,5.20000000e-009,-2.54062986e-004
,,,5.22500000e-009,-2.03906736e-004
,,,5.25000000e-009,-1.58437986e-004
,,,5.27500000e-009,-1.20000485e-004
,,,5.30000000e-009,-9.79692351e-005
,,,5.32500000e-009,-8.48442350e-005
,,,5.35000000e-009,-7.96879850e-005
,,,5.37500000e-009,-8.10942350e-005
,,,5.40000000e-009,-8.76567350e-005
,,,5.42500000e-009,-9.75004851e-005
,,,5.45000000e-009,-1.08750485e-004
,,,5.47500000e-009,-1.20000485e-004
,,,5.50000000e-009,-1.37344235e-004
,,,5.52500000e-009,-1.52812986e-004
,,,5.55000000e-009,-1.65937986e-004
,,,5.57500000e-009,-1.77656736e-004
,,,5.60000000e-009,-1.88906736e-004
,,,5.62500000e-009,-2.02500486e-004
,,,5.65000000e-009,-2.18906736e-004
,,,5.67500000e-009,-2.40000486e-004
,,,5.70000000e-009,-2.70937987e-004
,,,5.72500000e-009,-3.07031737e-004
,,,5.75000000e-009,-3.48281737e-004
,,,5.77500000e-009,-3.93750488e-004
,,,5.80000000e-009,-4.42500488e-004
