RawData/DifferentLengths/R3/R3_12pt5_5mV/wave028_Ch3.csv

"Record Length",1000,"Points",-7.72500000e-009,-3.60000487e-004
"Sample Interval",2.50000000e-011,s,-7.70000000e-009,-3.45937987e-004
"Trigger Point",309,"Samples",-7.67500000e-009,-3.30469237e-004
"Trigger Time",1.92851515e-011,s,-7.65000000e-009,-3.13594237e-004
"",,,-7.62500000e-009,-2.95781737e-004
"Horizontal Offset",-7.72500000e-009,s,-7.60000000e-009,-2.78437987e-004
,,,-7.57500000e-009,-2.62969237e-004
,,,-7.55000000e-009,-2.49844236e-004
,,,-7.52500000e-009,-2.40000486e-004
,,,-7.50000000e-009,-2.39062986e-004
,,,-7.47500000e-009,-2.43281736e-004
,,,-7.45000000e-009,-2.52656736e-004
,,,-7.42500000e-009,-2.66719237e-004
,,,-7.40000000e-009,-2.85000487e-004
,,,-7.37500000e-009,-3.07031737e-004
,,,-7.35000000e-009,-3.32344237e-004
,,,-7.32500000e-009,-3.60000487e-004
,,,-7.30000000e-009,-3.92344238e-004
,,,-7.27500000e-009,-4.25156738e-004
,,,-7.25000000e-009,-4.57500488e-004
,,,-7.22500000e-009,-4.88906739e-004
,,,-7.20000000e-009,-5.19375489e-004
,,,-7.17500000e-009,-5.47969239e-004
,,,-7.15000000e-009,-5.75156739e-004
,,,-7.12500000e-009,-6.00000490e-004
,,,-7.10000000e-009,-6.22500490e-004
,,,-7.07500000e-009,-6.42656740e-004
,,,-7.05000000e-009,-6.60000490e-004
,,,-7.02500000e-009,-6.75000490e-004
,,,-7.00000000e-009,-6.88594240e-004
,,,-6.97500000e-009,-7.00312990e-004
,,,-6.95000000e-009,-7.11094240e-004
,,,-6.92500000e-009,-7.20000491e-004
,,,-6.90000000e-009,-7.25156741e-004
,,,-6.87500000e-009,-7.27969241e-004
,,,-6.85000000e-009,-7.29844241e-004
,,,-6.82500000e-009,-7.30312991e-004
,,,-6.80000000e-009,-7.29375491e-004
,,,-6.77500000e-009,-7.27031741e-004
,,,-6.75000000e-009,-7.24219241e-004
,,,-6.72500000e-009,-7.20000491e-004
,,,-6.70000000e-009,-7.12031740e-004
,,,-6.67500000e-009,-7.04062990e-004
,,,-6.65000000e-009,-6.97969240e-004
,,,-6.62500000e-009,-6.95156740e-004
,,,-6.60000000e-009,-6.95156740e-004
,,,-6.57500000e-009,-6.99844240e-004
,,,-6.55000000e-009,-7.08281740e-004
,,,-6.52500000e-009,-7.20000491e-004
,,,-6.50000000e-009,-7.29844241e-004
,,,-6.47500000e-009,-7.40625491e-004
,,,-6.45000000e-009,-7.50000491e-004
,,,-6.42500000e-009,-7.57031741e-004
,,,-6.40000000e-009,-7.58906741e-004
,,,-6.37500000e-009,-7.54219241e-004
,,,-6.35000000e-009,-7.42031741e-004
,,,-6.32500000e-009,-7.20000491e-004
,,,-6.30000000e-009,-6.85781740e-004
,,,-6.27500000e-009,-6.43594240e-004
,,,-6.25000000e-009,-5.96250489e-004
,,,-6.22500000e-009,-5.45156739e-004
,,,-6.20000000e-009,-4.94062989e-004
,,,-6.17500000e-009,-4.44375488e-004
,,,-6.15000000e-009,-3.99375488e-004
,,,-6.12500000e-009,-3.60000487e-004
,,,-6.10000000e-009,-3.29062987e-004
,,,-6.07500000e-009,-3.05156737e-004
,,,-6.05000000e-009,-2.87812987e-004
,,,-6.02500000e-009,-2.75625487e-004
,,,-6.00000000e-009,-2.66719237e-004
,,,-5.97500000e-009,-2.58750487e-004
,,,-5.95000000e-009,-2.50312986e-004
,,,-5.92500000e-009,-2.40000486e-004
,,,-5.90000000e-009,-2.30625486e-004
,,,-5.87500000e-009,-2.17500486e-004
,,,-5.85000000e-009,-2.02031736e-004
,,,-5.82500000e-009,-1.84687986e-004
,,,-5.80000000e-009,-1.66406736e-004
,,,-5.77500000e-009,-1.48594236e-004
,,,-5.75000000e-009,-1.32656735e-004
,,,-5.72500000e-009,-1.20000485e-004
,,,-5.70000000e-009,-1.14844235e-004
,,,-5.67500000e-009,-1.12969235e-004
,,,-5.65000000e-009,-1.13437985e-004
,,,-5.62500000e-009,-1.15312985e-004
,,,-5.60000000e-009,-1.18125485e-004
,,,-5.57500000e-009,-1.20469235e-004
,,,-5.55000000e-009,-1.21406735e-004
,,,-5.52500000e-009,-1.20000485e-004
,,,-5.50000000e-009,-1.20000485e-004
,,,-5.47500000e-009,-1.18125485e-004
,,,-5.45000000e-009,-1.14375485e-004
,,,-5.42500000e-009,-1.10156735e-004
,,,-5.40000000e-009,-1.07344235e-004
,,,-5.37500000e-009,-1.06875485e-004
,,,-5.35000000e-009,-1.11094235e-004
,,,-5.32500000e-009,-1.20000485e-004
,,,-5.30000000e-009,-1.38281735e-004
,,,-5.27500000e-009,-1.61250486e-004
,,,-5.25000000e-009,-1.89375486e-004
,,,-5.22500000e-009,-2.20781736e-004
,,,-5.20000000e-009,-2.55000487e-004
,,,-5.17500000e-009,-2.90156737e-004
,,,-5.15000000e-009,-3.25781737e-004
,,,-5.12500000e-009,-3.60000487e-004
,,,-5.10000000e-009,-3.90469238e-004
,,,-5.07500000e-009,-4.17187988e-004
,,,-5.05000000e-009,-4.38750488e-004
,,,-5.02500000e-009,-4.56094238e-004
,,,-5.00000000e-009,-4.68281738e-004
,,,-4.97500000e-009,-4.76250488e-004
,,,-4.95000000e-009,-4.80469238e-004
,,,-4.92500000e-009,-4.80000488e-004
,,,-4.90000000e-009,-4.74375488e-004
,,,-4.87500000e-009,-4.65469238e-004
,,,-4.85000000e-009,-4.53750488e-004
,,,-4.82500000e-009,-4.39219238e-004
,,,-4.80000000e-009,-4.22344238e-004
,,,-4.77500000e-009,-4.03125488e-004
,,,-4.75000000e-009,-3.82500488e-004
,,,-4.72500000e-009,-3.60000487e-004
,,,-4.70000000e-009,-3.36094237e-004
,,,-4.67500000e-009,-3.13125487e-004
,,,-4.65000000e-009,-2.92500487e-004
,,,-4.62500000e-009,-2.74219237e-004
,,,-4.60000000e-009,-2.59219237e-004
,,,-4.57500000e-009,-2.48906736e-004
,,,-4.55000000e-009,-2.42344236e-004
,,,-4.52500000e-009,-2.40000486e-004
,,,-4.50000000e-009,-2.40937986e-004
,,,-4.47500000e-009,-2.44219236e-004
,,,-4.45000000e-009,-2.48906736e-004
,,,-4.42500000e-009,-2.53125486e-004
,,,-4.40000000e-009,-2.55469237e-004
,,,-4.37500000e-009,-2.54531737e-004
,,,-4.35000000e-009,-2.49844236e-004
,,,-4.32500000e-009,-2.40000486e-004
,,,-4.30000000e-009,-2.26406736e-004
,,,-4.27500000e-009,-2.09062986e-004
,,,-4.25000000e-009,-1.90312986e-004
,,,-4.22500000e-009,-1.70625486e-004
,,,-4.20000000e-009,-1.52344236e-004
,,,-4.17500000e-009,-1.36875485e-004
,,,-4.15000000e-009,-1.25625485e-004
,,,-4.12500000e-009,-1.20000485e-004
,,,-4.10000000e-009,-1.22812985e-004
,,,-4.07500000e-009,-1.31719235e-004
,,,-4.05000000e-009,-1.45312986e-004
,,,-4.02500000e-009,-1.62656736e-004
,,,-4.00000000e-009,-1.82812986e-004
,,,-3.97500000e-009,-2.03437986e-004
,,,-3.95000000e-009,-2.23125486e-004
,,,-3.92500000e-009,-2.40000486e-004
,,,-3.90000000e-009,-2.55469237e-004
,,,-3.87500000e-009,-2.65312987e-004
,,,-3.85000000e-009,-2.70469237e-004
,,,-3.82500000e-009,-2.70937987e-004
,,,-3.80000000e-009,-2.67187987e-004
,,,-3.77500000e-009,-2.60156737e-004
,,,-3.75000000e-009,-2.50781736e-004
,,,-3.72500000e-009,-2.40000486e-004
,,,-3.70000000e-009,-2.32031736e-004
,,,-3.67500000e-009,-2.25000486e-004
,,,-3.65000000e-009,-2.20312986e-004
,,,-3.62500000e-009,-2.17969236e-004
,,,-3.60000000e-009,-2.19375486e-004
,,,-3.57500000e-009,-2.23125486e-004
,,,-3.55000000e-009,-2.30156736e-004
,,,-3.52500000e-009,-2.40000486e-004
,,,-3.50000000e-009,-2.53594236e-004
,,,-3.47500000e-009,-2.69062987e-004
,,,-3.45000000e-009,-2.85469237e-004
,,,-3.42500000e-009,-3.02344237e-004
,,,-3.40000000e-009,-3.18750487e-004
,,,-3.37500000e-009,-3.34687987e-004
,,,-3.35000000e-009,-3.48281737e-004
,,,-3.32500000e-009,-3.60000487e-004
,,,-3.30000000e-009,-3.68906737e-004
,,,-3.27500000e-009,-3.74531738e-004
,,,-3.25000000e-009,-3.77344238e-004
,,,-3.22500000e-009,-3.77812988e-004
,,,-3.20000000e-009,-3.75469238e-004
,,,-3.17500000e-009,-3.71719238e-004
,,,-3.15000000e-009,-3.66094237e-004
,,,-3.12500000e-009,-3.60000487e-004
,,,-3.10000000e-009,-3.53437987e-004
,,,-3.07500000e-009,-3.47344237e-004
,,,-3.05000000e-009,-3.43125487e-004
,,,-3.02500000e-009,-3.41250487e-004
,,,-3.00000000e-009,-3.41719237e-004
,,,-2.97500000e-009,-3.45000487e-004
,,,-2.95000000e-009,-3.51094237e-004
,,,-2.92500000e-009,-3.60000487e-004
,,,-2.90000000e-009,-3.69375487e-004
,,,-2.87500000e-009,-3.81094238e-004
,,,-2.85000000e-009,-3.94219238e-004
,,,-2.82500000e-009,-4.09219238e-004
,,,-2.80000000e-009,-4.26094238e-004
,,,-2.77500000e-009,-4.43906738e-004
,,,-2.75000000e-009,-4.62187988e-004
,,,-2.72500000e-009,-4.80000488e-004
,,,-2.70000000e-009,-4.94531739e-004
,,,-2.67500000e-009,-5.06250489e-004
,,,-2.65000000e-009,-5.14687989e-004
,,,-2.62500000e-009,-5.18437989e-004
,,,-2.60000000e-009,-5.17031739e-004
,,,-2.57500000e-009,-5.10469239e-004
,,,-2.55000000e-009,-4.97812989e-004
,,,-2.52500000e-009,-4.80000488e-004
,,,-2.50000000e-009,-4.57500488e-004
,,,-2.47500000e-009,-4.33125488e-004
,,,-2.45000000e-009,-4.09219238e-004
,,,-2.42500000e-009,-3.88125488e-004
,,,-2.40000000e-009,-3.71719238e-004
,,,-2.37500000e-009,-3.60937987e-004
,,,-2.35000000e-009,-3.57187987e-004
,,,-2.32500000e-009,-3.60000487e-004
,,,-2.30000000e-009,-3.69375487e-004
,,,-2.27500000e-009,-3.82031738e-004
,,,-2.25000000e-009,-3.95156738e-004
,,,-2.22500000e-009,-4.05469238e-004
,,,-2.20000000e-009,-4.09687988e-004
,,,-2.17500000e-009,-4.04531738e-004
,,,-2.15000000e-009,-3.88594238e-004
,,,-2.12500000e-009,-3.60000487e-004
,,,-2.10000000e-009,-3.22031737e-004
,,,-2.07500000e-009,-2.74687987e-004
,,,-2.05000000e-009,-2.21250486e-004
,,,-2.02500000e-009,-1.65469236e-004
,,,-2.00000000e-009,-1.11562985e-004
,,,-1.97500000e-009,-6.37504848e-005
,,,-1.95000000e-009,-2.53129845e-005
,,,-1.92500000e-009,-4.84287738e-010
,,,-1.90000000e-009,3.74951574e-006
,,,-1.87500000e-009,-7.96923436e-006
,,,-1.85000000e-009,-3.32817346e-005
,,,-1.82500000e-009,-6.84379849e-005
,,,-1.80000000e-009,-1.11094235e-004
,,,-1.77500000e-009,-1.56094236e-004
,,,-1.75000000e-009,-2.00156736e-004
,,,-1.72500000e-009,-2.40000486e-004
,,,-1.70000000e-009,-2.80312987e-004
,,,-1.67500000e-009,-3.12187987e-004
,,,-1.65000000e-009,-3.35625487e-004
,,,-1.62500000e-009,-3.51094237e-004
,,,-1.60000000e-009,-3.59531737e-004
,,,-1.57500000e-009,-3.62344237e-004
,,,-1.55000000e-009,-3.61875487e-004
,,,-1.52500000e-009,-3.60000487e-004
,,,-1.50000000e-009,-3.69844238e-004
,,,-1.47500000e-009,-3.82969238e-004
,,,-1.45000000e-009,-3.98906738e-004
,,,-1.42500000e-009,-4.16250488e-004
,,,-1.40000000e-009,-4.34062988e-004
,,,-1.37500000e-009,-4.51406738e-004
,,,-1.35000000e-009,-4.66875488e-004
,,,-1.32500000e-009,-4.80000488e-004
,,,-1.30000000e-009,-5.06250489e-004
,,,-1.27500000e-009,-5.33437989e-004
,,,-1.25000000e-009,-5.61562989e-004
,,,-1.22500000e-009,-5.90625489e-004
,,,-1.20000000e-009,-6.21094240e-004
,,,-1.17500000e-009,-6.52500490e-004
,,,-1.15000000e-009,-6.85781740e-004
,,,-1.12500000e-009,-7.20000491e-004
,,,-1.10000000e-009,-7.72500491e-004
,,,-1.07500000e-009,-8.28281741e-004
,,,-1.05000000e-009,-8.84531742e-004
,,,-1.02500000e-009,-9.37969242e-004
,,,-1.00000000e-009,-9.86250493e-004
,,,-9.75000000e-010,-1.02656299e-003
,,,-9.50000000e-010,-1.05796924e-003
,,,-9.25000000e-010,-1.08000049e-003
,,,-9.00000000e-010,-1.11234424e-003
,,,-8.75000000e-010,-1.14375049e-003
,,,-8.50000000e-010,-1.17703174e-003
,,,-8.25000000e-010,-1.21406299e-003
,,,-8.00000000e-010,-1.25671925e-003
,,,-7.75000000e-010,-1.30734425e-003
,,,-7.50000000e-010,-1.36781300e-003
,,,-7.25000000e-010,-1.44000050e-003
,,,-7.00000000e-010,-1.54171925e-003
,,,-6.75000000e-010,-1.65984425e-003
,,,-6.50000000e-010,-1.79156300e-003
,,,-6.25000000e-010,-1.93359425e-003
,,,-6.00000000e-010,-2.08171925e-003
,,,-5.75000000e-010,-2.23125050e-003
,,,-5.50000000e-010,-2.37843800e-003
,,,-5.25000000e-010,-2.52000051e-003
,,,-5.00000000e-010,-2.66156301e-003
,,,-4.75000000e-010,-2.79703176e-003
,,,-4.50000000e-010,-2.92640676e-003
,,,-4.25000000e-010,-3.04875051e-003
,,,-4.00000000e-010,-3.16406301e-003
,,,-3.75000000e-010,-3.27375051e-003
,,,-3.50000000e-010,-3.37828176e-003
,,,-3.25000000e-010,-3.48000051e-003
,,,-3.00000000e-010,-3.57984427e-003
,,,-2.75000000e-010,-3.68484427e-003
,,,-2.50000000e-010,-3.79593802e-003
,,,-2.25000000e-010,-3.91406302e-003
,,,-2.00000000e-010,-4.03875052e-003
,,,-1.75000000e-010,-4.16859427e-003
,,,-1.50000000e-010,-4.30312552e-003
,,,-1.25000000e-010,-4.44000052e-003
,,,-1.00000000e-010,-4.56796927e-003
,,,-7.50000000e-011,-4.69781303e-003
,,,-5.00000000e-011,-4.82812553e-003
,,,-2.50000000e-011,-4.95656303e-003
,,,0.00000000e+000,-5.08031303e-003
,,,2.50000000e-011,-5.19750053e-003
,,,5.00000000e-011,-5.30437553e-003
,,,7.50000000e-011,-5.40000053e-003
,,,1.00000000e-010,-5.46468803e-003
,,,1.25000000e-010,-5.52093803e-003
,,,1.50000000e-010,-5.57015678e-003
,,,1.75000000e-010,-5.61468803e-003
,,,2.00000000e-010,-5.65500053e-003
,,,2.25000000e-010,-5.69203178e-003
,,,2.50000000e-010,-5.72718803e-003
,,,2.75000000e-010,-5.76000053e-003
,,,3.00000000e-010,-5.76750053e-003
,,,3.25000000e-010,-5.77781303e-003
,,,3.50000000e-010,-5.79093803e-003
,,,3.75000000e-010,-5.80734428e-003
,,,4.00000000e-010,-5.82609428e-003
,,,4.25000000e-010,-5.84578179e-003
,,,4.50000000e-010,-5.86453179e-003
,,,4.75000000e-010,-5.88000054e-003
,,,5.00000000e-010,-5.86734429e-003
,,,5.25000000e-010,-5.85140679e-003
,,,5.50000000e-010,-5.83500054e-003
,,,5.75000000e-010,-5.81765678e-003
,,,6.00000000e-010,-5.80125053e-003
,,,6.25000000e-010,-5.78625053e-003
,,,6.50000000e-010,-5.77265678e-003
,,,6.75000000e-010,-5.76000053e-003
,,,7.00000000e-010,-5.72578178e-003
,,,7.25000000e-010,-5.69250053e-003
,,,7.50000000e-010,-5.66109428e-003
,,,7.75000000e-010,-5.63156303e-003
,,,8.00000000e-010,-5.60390678e-003
,,,8.25000000e-010,-5.57671928e-003
,,,8.50000000e-010,-5.54906303e-003
,,,8.75000000e-010,-5.52000053e-003
,,,9.00000000e-010,-5.46890678e-003
,,,9.25000000e-010,-5.41312553e-003
,,,9.50000000e-010,-5.35406303e-003
,,,9.75000000e-010,-5.29312553e-003
,,,1.00000000e-009,-5.23078178e-003
,,,1.02500000e-009,-5.16796928e-003
,,,1.05000000e-009,-5.10421928e-003
,,,1.07500000e-009,-5.04000053e-003
,,,1.10000000e-009,-4.96078178e-003
,,,1.12500000e-009,-4.87781303e-003
,,,1.15000000e-009,-4.79109428e-003
,,,1.17500000e-009,-4.70156303e-003
,,,1.20000000e-009,-4.60921927e-003
,,,1.22500000e-009,-4.51453177e-003
,,,1.25000000e-009,-4.41843802e-003
,,,1.27500000e-009,-4.32000052e-003
,,,1.30000000e-009,-4.21359427e-003
,,,1.32500000e-009,-4.10390677e-003
,,,1.35000000e-009,-3.99281302e-003
,,,1.37500000e-009,-3.88171927e-003
,,,1.40000000e-009,-3.77343802e-003
,,,1.42500000e-009,-3.66937552e-003
,,,1.45000000e-009,-3.57140677e-003
,,,1.47500000e-009,-3.48000051e-003
,,,1.50000000e-009,-3.39515676e-003
,,,1.52500000e-009,-3.31312551e-003
,,,1.55000000e-009,-3.23484426e-003
,,,1.57500000e-009,-3.15890676e-003
,,,1.60000000e-009,-3.08578176e-003
,,,1.62500000e-009,-3.01546926e-003
,,,1.65000000e-009,-2.94703176e-003
,,,1.67500000e-009,-2.88000051e-003
,,,1.70000000e-009,-2.81718801e-003
,,,1.72500000e-009,-2.75015676e-003
,,,1.75000000e-009,-2.67843801e-003
,,,1.77500000e-009,-2.60250051e-003
,,,1.80000000e-009,-2.52328176e-003
,,,1.82500000e-009,-2.44218801e-003
,,,1.85000000e-009,-2.36062550e-003
,,,1.87500000e-009,-2.28000050e-003
,,,1.90000000e-009,-2.21015675e-003
,,,1.92500000e-009,-2.14031300e-003
,,,1.95000000e-009,-2.07187550e-003
,,,1.97500000e-009,-2.00625050e-003
,,,2.00000000e-009,-1.94484425e-003
,,,2.02500000e-009,-1.88953175e-003
,,,2.05000000e-009,-1.84125050e-003
,,,2.07500000e-009,-1.80000050e-003
,,,2.10000000e-009,-1.77468800e-003
,,,2.12500000e-009,-1.75031300e-003
,,,2.15000000e-009,-1.72593800e-003
,,,2.17500000e-009,-1.69968800e-003
,,,2.20000000e-009,-1.67015675e-003
,,,2.22500000e-009,-1.63734425e-003
,,,2.25000000e-009,-1.60078175e-003
,,,2.27500000e-009,-1.56000050e-003
,,,2.30000000e-009,-1.52437550e-003
,,,2.32500000e-009,-1.48265675e-003
,,,2.35000000e-009,-1.43531300e-003
,,,2.37500000e-009,-1.38515675e-003
,,,2.40000000e-009,-1.33359425e-003
,,,2.42500000e-009,-1.28390675e-003
,,,2.45000000e-009,-1.23890675e-003
,,,2.47500000e-009,-1.20000049e-003
,,,2.50000000e-009,-1.17796924e-003
,,,2.52500000e-009,-1.16250049e-003
,,,2.55000000e-009,-1.15453174e-003
,,,2.57500000e-009,-1.15265674e-003
,,,2.60000000e-009,-1.15734424e-003
,,,2.62500000e-009,-1.16765674e-003
,,,2.65000000e-009,-1.18265674e-003
,,,2.67500000e-009,-1.20000049e-003
,,,2.70000000e-009,-1.22390674e-003
,,,2.72500000e-009,-1.24359425e-003
,,,2.75000000e-009,-1.25718800e-003
,,,2.77500000e-009,-1.26328175e-003
,,,2.80000000e-009,-1.26046925e-003
,,,2.82500000e-009,-1.24875050e-003
,,,2.85000000e-009,-1.22859424e-003
,,,2.87500000e-009,-1.20000049e-003
,,,2.90000000e-009,-1.16812549e-003
,,,2.92500000e-009,-1.13109424e-003
,,,2.95000000e-009,-1.09171924e-003
,,,2.97500000e-009,-1.05328174e-003
,,,3.00000000e-009,-1.01812549e-003
,,,3.02500000e-009,-9.89531743e-004
,,,3.05000000e-009,-9.69844243e-004
,,,3.07500000e-009,-9.60000493e-004
,,,3.10000000e-009,-9.63281743e-004
,,,3.12500000e-009,-9.74062993e-004
,,,3.15000000e-009,-9.91406743e-004
,,,3.17500000e-009,-1.01250049e-003
,,,3.20000000e-009,-1.03453174e-003
,,,3.22500000e-009,-1.05468799e-003
,,,3.25000000e-009,-1.07062549e-003
,,,3.27500000e-009,-1.08000049e-003
,,,3.30000000e-009,-1.08281299e-003
,,,3.32500000e-009,-1.07671924e-003
,,,3.35000000e-009,-1.06312549e-003
,,,3.37500000e-009,-1.04437549e-003
,,,3.40000000e-009,-1.02187549e-003
,,,3.42500000e-009,-9.98906743e-004
,,,3.45000000e-009,-9.77812993e-004
,,,3.47500000e-009,-9.60000493e-004
,,,3.50000000e-009,-9.48281743e-004
,,,3.52500000e-009,-9.41719242e-004
,,,3.55000000e-009,-9.40312992e-004
,,,3.57500000e-009,-9.42656742e-004
,,,3.60000000e-009,-9.47812993e-004
,,,3.62500000e-009,-9.53437993e-004
,,,3.65000000e-009,-9.58125493e-004
,,,3.67500000e-009,-9.60000493e-004
,,,3.70000000e-009,-9.59531743e-004
,,,3.72500000e-009,-9.53906743e-004
,,,3.75000000e-009,-9.43125492e-004
,,,3.77500000e-009,-9.27656742e-004
,,,3.80000000e-009,-9.08906742e-004
,,,3.82500000e-009,-8.87344242e-004
,,,3.85000000e-009,-8.63906742e-004
,,,3.87500000e-009,-8.40000492e-004
,,,3.90000000e-009,-8.19375491e-004
,,,3.92500000e-009,-7.99687991e-004
,,,3.95000000e-009,-7.81875491e-004
,,,3.97500000e-009,-7.65937991e-004
,,,4.00000000e-009,-7.51875491e-004
,,,4.02500000e-009,-7.39687991e-004
,,,4.05000000e-009,-7.29375491e-004
,,,4.07500000e-009,-7.20000491e-004
,,,4.10000000e-009,-7.16250491e-004
,,,4.12500000e-009,-7.13437990e-004
,,,4.15000000e-009,-7.12500490e-004
,,,4.17500000e-009,-7.12031740e-004
,,,4.20000000e-009,-7.12969240e-004
,,,4.22500000e-009,-7.14375490e-004
,,,4.25000000e-009,-7.16719241e-004
,,,4.27500000e-009,-7.20000491e-004
,,,4.30000000e-009,-7.28437991e-004
,,,4.32500000e-009,-7.38281741e-004
,,,4.35000000e-009,-7.50000491e-004
,,,4.37500000e-009,-7.63594241e-004
,,,4.40000000e-009,-7.79531741e-004
,,,4.42500000e-009,-7.97812991e-004
,,,4.45000000e-009,-8.17969241e-004
,,,4.47500000e-009,-8.40000492e-004
,,,4.50000000e-009,-8.64375492e-004
,,,4.52500000e-009,-8.87812992e-004
,,,4.55000000e-009,-9.09844242e-004
,,,4.57500000e-009,-9.29062992e-004
,,,4.60000000e-009,-9.44062992e-004
,,,4.62500000e-009,-9.54375493e-004
,,,4.65000000e-009,-9.60000493e-004
,,,4.67500000e-009,-9.60000493e-004
,,,4.70000000e-009,-9.55781743e-004
,,,4.72500000e-009,-9.48750493e-004
,,,4.75000000e-009,-9.40781742e-004
,,,4.77500000e-009,-9.34219242e-004
,,,4.80000000e-009,-9.30937992e-004
,,,4.82500000e-009,-9.33281742e-004
,,,4.85000000e-009,-9.43125492e-004
,,,4.87500000e-009,-9.60000493e-004
,,,4.90000000e-009,-9.83437993e-004
,,,4.92500000e-009,-1.01296924e-003
,,,4.95000000e-009,-1.04671924e-003
,,,4.97500000e-009,-1.08328174e-003
,,,5.00000000e-009,-1.11937549e-003
,,,5.02500000e-009,-1.15218799e-003
,,,5.05000000e-009,-1.17984424e-003
,,,5.07500000e-009,-1.20000049e-003
,,,5.10000000e-009,-1.20750049e-003
,,,5.12500000e-009,-1.20562549e-003
,,,5.15000000e-009,-1.19578174e-003
,,,5.17500000e-009,-1.17890674e-003
,,,5.20000000e-009,-1.15687549e-003
,,,5.22500000e-009,-1.13203174e-003
,,,5.25000000e-009,-1.10578174e-003
,,,5.27500000e-009,-1.08000049e-003
,,,5.30000000e-009,-1.05187549e-003
,,,5.32500000e-009,-1.02703174e-003
,,,5.35000000e-009,-1.00640674e-003
,,,5.37500000e-009,-9.90469243e-004
,,,5.40000000e-009,-9.78281743e-004
,,,5.42500000e-009,-9.70312993e-004
,,,5.45000000e-009,-9.64687993e-004
,,,5.47500000e-009,-9.60000493e-004
,,,5.50000000e-009,-9.51562993e-004
,,,5.52500000e-009,-9.41719242e-004
,,,5.55000000e-009,-9.30000492e-004
,,,5.57500000e-009,-9.15937992e-004
,,,5.60000000e-009,-9.00000492e-004
,,,5.62500000e-009,-8.81719242e-004
,,,5.65000000e-009,-8.61562992e-004
,,,5.67500000e-009,-8.40000492e-004
,,,5.70000000e-009,-8.16562991e-004
,,,5.72500000e-009,-7.93125491e-004
,,,5.75000000e-009,-7.71094241e-004
,,,5.77500000e-009,-7.51875491e-004
,,,5.80000000e-009,-7.36875491e-004
