RawData/DifferentLengths/R3/R3_12pt5_5mV/wave026_Ch3.csv

"Record Length",1000,"Points",-7.72500000e-009,-6.23906740e-004
"Sample Interval",2.50000000e-011,s,-7.70000000e-009,-6.44062990e-004
"Trigger Point",309,"Samples",-7.67500000e-009,-6.60469240e-004
"Trigger Time",1.54149275e-011,s,-7.65000000e-009,-6.74531740e-004
"",,,-7.62500000e-009,-6.86719240e-004
"Horizontal Offset",-7.72500000e-009,s,-7.60000000e-009,-6.97969240e-004
,,,-7.57500000e-009,-7.08750490e-004
,,,-7.55000000e-009,-7.20000491e-004
,,,-7.52500000e-009,-7.28906741e-004
,,,-7.50000000e-009,-7.37344241e-004
,,,-7.47500000e-009,-7.43906741e-004
,,,-7.45000000e-009,-7.48594241e-004
,,,-7.42500000e-009,-7.50000491e-004
,,,-7.40000000e-009,-7.45781741e-004
,,,-7.37500000e-009,-7.36406741e-004
,,,-7.35000000e-009,-7.20000491e-004
,,,-7.32500000e-009,-6.95156740e-004
,,,-7.30000000e-009,-6.64687990e-004
,,,-7.27500000e-009,-6.30937990e-004
,,,-7.25000000e-009,-5.96250489e-004
,,,-7.22500000e-009,-5.61562989e-004
,,,-7.20000000e-009,-5.29687989e-004
,,,-7.17500000e-009,-5.02031739e-004
,,,-7.15000000e-009,-4.80000488e-004
,,,-7.12500000e-009,-4.64062988e-004
,,,-7.10000000e-009,-4.54219238e-004
,,,-7.07500000e-009,-4.50937988e-004
,,,-7.05000000e-009,-4.52812988e-004
,,,-7.02500000e-009,-4.57969238e-004
,,,-7.00000000e-009,-4.65469238e-004
,,,-6.97500000e-009,-4.72969238e-004
,,,-6.95000000e-009,-4.80000488e-004
,,,-6.92500000e-009,-4.85625489e-004
,,,-6.90000000e-009,-4.88906739e-004
,,,-6.87500000e-009,-4.90312989e-004
,,,-6.85000000e-009,-4.89375489e-004
,,,-6.82500000e-009,-4.87500489e-004
,,,-6.80000000e-009,-4.84687989e-004
,,,-6.77500000e-009,-4.82344238e-004
,,,-6.75000000e-009,-4.80000488e-004
,,,-6.72500000e-009,-4.79531738e-004
,,,-6.70000000e-009,-4.80000488e-004
,,,-6.67500000e-009,-4.80937988e-004
,,,-6.65000000e-009,-4.82344238e-004
,,,-6.62500000e-009,-4.83750488e-004
,,,-6.60000000e-009,-4.84219238e-004
,,,-6.57500000e-009,-4.83281738e-004
,,,-6.55000000e-009,-4.80000488e-004
,,,-6.52500000e-009,-4.76250488e-004
,,,-6.50000000e-009,-4.68750488e-004
,,,-6.47500000e-009,-4.57969238e-004
,,,-6.45000000e-009,-4.43437988e-004
,,,-6.42500000e-009,-4.25625488e-004
,,,-6.40000000e-009,-4.05000488e-004
,,,-6.37500000e-009,-3.82969238e-004
,,,-6.35000000e-009,-3.60000487e-004
,,,-6.32500000e-009,-3.40781737e-004
,,,-6.30000000e-009,-3.23906737e-004
,,,-6.27500000e-009,-3.11719237e-004
,,,-6.25000000e-009,-3.05625487e-004
,,,-6.22500000e-009,-3.06562987e-004
,,,-6.20000000e-009,-3.15937987e-004
,,,-6.17500000e-009,-3.33750487e-004
,,,-6.15000000e-009,-3.60000487e-004
,,,-6.12500000e-009,-3.94687988e-004
,,,-6.10000000e-009,-4.34062988e-004
,,,-6.07500000e-009,-4.74375488e-004
,,,-6.05000000e-009,-5.13750489e-004
,,,-6.02500000e-009,-5.47969239e-004
,,,-6.00000000e-009,-5.75156739e-004
,,,-5.97500000e-009,-5.92969239e-004
,,,-5.95000000e-009,-6.00000490e-004
,,,-5.92500000e-009,-5.96250489e-004
,,,-5.90000000e-009,-5.82656739e-004
,,,-5.87500000e-009,-5.62969239e-004
,,,-5.85000000e-009,-5.40000489e-004
,,,-5.82500000e-009,-5.17500489e-004
,,,-5.80000000e-009,-4.98281739e-004
,,,-5.77500000e-009,-4.85156739e-004
,,,-5.75000000e-009,-4.80000488e-004
,,,-5.72500000e-009,-4.85156739e-004
,,,-5.70000000e-009,-4.97812989e-004
,,,-5.67500000e-009,-5.17031739e-004
,,,-5.65000000e-009,-5.39531739e-004
,,,-5.62500000e-009,-5.62500489e-004
,,,-5.60000000e-009,-5.81719239e-004
,,,-5.57500000e-009,-5.94844239e-004
,,,-5.55000000e-009,-6.00000490e-004
,,,-5.52500000e-009,-5.96250489e-004
,,,-5.50000000e-009,-5.83594239e-004
,,,-5.47500000e-009,-5.64844239e-004
,,,-5.45000000e-009,-5.42812989e-004
,,,-5.42500000e-009,-5.20312989e-004
,,,-5.40000000e-009,-5.00625489e-004
,,,-5.37500000e-009,-4.86562989e-004
,,,-5.35000000e-009,-4.80000488e-004
,,,-5.32500000e-009,-4.83750488e-004
,,,-5.30000000e-009,-4.96406739e-004
,,,-5.27500000e-009,-5.15156739e-004
,,,-5.25000000e-009,-5.37656739e-004
,,,-5.22500000e-009,-5.60625489e-004
,,,-5.20000000e-009,-5.80781739e-004
,,,-5.17500000e-009,-5.94375489e-004
,,,-5.15000000e-009,-6.00000490e-004
,,,-5.12500000e-009,-5.96719239e-004
,,,-5.10000000e-009,-5.85000489e-004
,,,-5.07500000e-009,-5.66719239e-004
,,,-5.05000000e-009,-5.44687989e-004
,,,-5.02500000e-009,-5.22187989e-004
,,,-5.00000000e-009,-5.02500489e-004
,,,-4.97500000e-009,-4.87500489e-004
,,,-4.95000000e-009,-4.80000488e-004
,,,-4.92500000e-009,-4.83281738e-004
,,,-4.90000000e-009,-4.94531739e-004
,,,-4.87500000e-009,-5.11875489e-004
,,,-4.85000000e-009,-5.32969239e-004
,,,-4.82500000e-009,-5.55469239e-004
,,,-4.80000000e-009,-5.75156739e-004
,,,-4.77500000e-009,-5.90625489e-004
,,,-4.75000000e-009,-6.00000490e-004
,,,-4.72500000e-009,-6.03281740e-004
,,,-4.70000000e-009,-6.00000490e-004
,,,-4.67500000e-009,-5.93437989e-004
,,,-4.65000000e-009,-5.85937989e-004
,,,-4.62500000e-009,-5.80312989e-004
,,,-4.60000000e-009,-5.78906739e-004
,,,-4.57500000e-009,-5.85469239e-004
,,,-4.55000000e-009,-6.00000490e-004
,,,-4.52500000e-009,-6.23906740e-004
,,,-4.50000000e-009,-6.55312990e-004
,,,-4.47500000e-009,-6.91875490e-004
,,,-4.45000000e-009,-7.30312991e-004
,,,-4.42500000e-009,-7.67812991e-004
,,,-4.40000000e-009,-8.00625491e-004
,,,-4.37500000e-009,-8.25469241e-004
,,,-4.35000000e-009,-8.40000492e-004
,,,-4.32500000e-009,-8.40469242e-004
,,,-4.30000000e-009,-8.30625492e-004
,,,-4.27500000e-009,-8.12812991e-004
,,,-4.25000000e-009,-7.90312991e-004
,,,-4.22500000e-009,-7.66406741e-004
,,,-4.20000000e-009,-7.44844241e-004
,,,-4.17500000e-009,-7.28437991e-004
,,,-4.15000000e-009,-7.20000491e-004
,,,-4.12500000e-009,-7.18594241e-004
,,,-4.10000000e-009,-7.26094241e-004
,,,-4.07500000e-009,-7.41094241e-004
,,,-4.05000000e-009,-7.61719241e-004
,,,-4.02500000e-009,-7.84687991e-004
,,,-4.00000000e-009,-8.07187991e-004
,,,-3.97500000e-009,-8.26875491e-004
,,,-3.95000000e-009,-8.40000492e-004
,,,-3.92500000e-009,-8.42812992e-004
,,,-3.90000000e-009,-8.37187992e-004
,,,-3.87500000e-009,-8.24531741e-004
,,,-3.85000000e-009,-8.06719241e-004
,,,-3.82500000e-009,-7.85156741e-004
,,,-3.80000000e-009,-7.62656741e-004
,,,-3.77500000e-009,-7.40156741e-004
,,,-3.75000000e-009,-7.20000491e-004
,,,-3.72500000e-009,-7.01250490e-004
,,,-3.70000000e-009,-6.85312990e-004
,,,-3.67500000e-009,-6.72187990e-004
,,,-3.65000000e-009,-6.60937990e-004
,,,-3.62500000e-009,-6.49219240e-004
,,,-3.60000000e-009,-6.36094240e-004
,,,-3.57500000e-009,-6.20156740e-004
,,,-3.55000000e-009,-6.00000490e-004
,,,-3.52500000e-009,-5.75156739e-004
,,,-3.50000000e-009,-5.46094239e-004
,,,-3.47500000e-009,-5.13750489e-004
,,,-3.45000000e-009,-4.79531738e-004
,,,-3.42500000e-009,-4.45781738e-004
,,,-3.40000000e-009,-4.13437988e-004
,,,-3.37500000e-009,-3.84375488e-004
,,,-3.35000000e-009,-3.60000487e-004
,,,-3.32500000e-009,-3.45000487e-004
,,,-3.30000000e-009,-3.36094237e-004
,,,-3.27500000e-009,-3.32812987e-004
,,,-3.25000000e-009,-3.33750487e-004
,,,-3.22500000e-009,-3.38437987e-004
,,,-3.20000000e-009,-3.45000487e-004
,,,-3.17500000e-009,-3.52969237e-004
,,,-3.15000000e-009,-3.60000487e-004
,,,-3.12500000e-009,-3.69844238e-004
,,,-3.10000000e-009,-3.77344238e-004
,,,-3.07500000e-009,-3.81562988e-004
,,,-3.05000000e-009,-3.82969238e-004
,,,-3.02500000e-009,-3.81094238e-004
,,,-3.00000000e-009,-3.75937988e-004
,,,-2.97500000e-009,-3.68906737e-004
,,,-2.95000000e-009,-3.60000487e-004
,,,-2.92500000e-009,-3.55312987e-004
,,,-2.90000000e-009,-3.50625487e-004
,,,-2.87500000e-009,-3.47344237e-004
,,,-2.85000000e-009,-3.45000487e-004
,,,-2.82500000e-009,-3.45000487e-004
,,,-2.80000000e-009,-3.47344237e-004
,,,-2.77500000e-009,-3.52500487e-004
,,,-2.75000000e-009,-3.60000487e-004
,,,-2.72500000e-009,-3.74531738e-004
,,,-2.70000000e-009,-3.90469238e-004
,,,-2.67500000e-009,-4.07344238e-004
,,,-2.65000000e-009,-4.24219238e-004
,,,-2.62500000e-009,-4.40625488e-004
,,,-2.60000000e-009,-4.55625488e-004
,,,-2.57500000e-009,-4.68750488e-004
,,,-2.55000000e-009,-4.80000488e-004
,,,-2.52500000e-009,-4.92656739e-004
,,,-2.50000000e-009,-5.04375489e-004
,,,-2.47500000e-009,-5.15625489e-004
,,,-2.45000000e-009,-5.27812989e-004
,,,-2.42500000e-009,-5.41875489e-004
,,,-2.40000000e-009,-5.57812989e-004
,,,-2.37500000e-009,-5.77031739e-004
,,,-2.35000000e-009,-6.00000490e-004
,,,-2.32500000e-009,-6.26250490e-004
,,,-2.30000000e-009,-6.55781740e-004
,,,-2.27500000e-009,-6.87656740e-004
,,,-2.25000000e-009,-7.20937991e-004
,,,-2.22500000e-009,-7.54219241e-004
,,,-2.20000000e-009,-7.86094241e-004
,,,-2.17500000e-009,-8.15156741e-004
,,,-2.15000000e-009,-8.40000492e-004
,,,-2.12500000e-009,-8.58281742e-004
,,,-2.10000000e-009,-8.70469242e-004
,,,-2.07500000e-009,-8.77500492e-004
,,,-2.05000000e-009,-8.78437992e-004
,,,-2.02500000e-009,-8.74687992e-004
,,,-2.00000000e-009,-8.66250492e-004
,,,-1.97500000e-009,-8.54062992e-004
,,,-1.95000000e-009,-8.40000492e-004
,,,-1.92500000e-009,-8.24062991e-004
,,,-1.90000000e-009,-8.10000491e-004
,,,-1.87500000e-009,-7.99687991e-004
,,,-1.85000000e-009,-7.95000491e-004
,,,-1.82500000e-009,-7.96406741e-004
,,,-1.80000000e-009,-8.04375491e-004
,,,-1.77500000e-009,-8.19375491e-004
,,,-1.75000000e-009,-8.40000492e-004
,,,-1.72500000e-009,-8.64844242e-004
,,,-1.70000000e-009,-8.92031742e-004
,,,-1.67500000e-009,-9.19219242e-004
,,,-1.65000000e-009,-9.43125492e-004
,,,-1.62500000e-009,-9.61406743e-004
,,,-1.60000000e-009,-9.71719243e-004
,,,-1.57500000e-009,-9.71719243e-004
,,,-1.55000000e-009,-9.60000493e-004
,,,-1.52500000e-009,-9.41719242e-004
,,,-1.50000000e-009,-9.15469242e-004
,,,-1.47500000e-009,-8.83125492e-004
,,,-1.45000000e-009,-8.47500492e-004
,,,-1.42500000e-009,-8.10469241e-004
,,,-1.40000000e-009,-7.75312991e-004
,,,-1.37500000e-009,-7.44375491e-004
,,,-1.35000000e-009,-7.20000491e-004
,,,-1.32500000e-009,-7.15312991e-004
,,,-1.30000000e-009,-7.20937991e-004
,,,-1.27500000e-009,-7.35937991e-004
,,,-1.25000000e-009,-7.56562991e-004
,,,-1.22500000e-009,-7.80937991e-004
,,,-1.20000000e-009,-8.04844241e-004
,,,-1.17500000e-009,-8.25469241e-004
,,,-1.15000000e-009,-8.40000492e-004
,,,-1.12500000e-009,-8.64375492e-004
,,,-1.10000000e-009,-8.82187992e-004
,,,-1.07500000e-009,-8.92969242e-004
,,,-1.05000000e-009,-8.96250492e-004
,,,-1.02500000e-009,-8.91094242e-004
,,,-1.00000000e-009,-8.78437992e-004
,,,-9.75000000e-010,-8.60625492e-004
,,,-9.50000000e-010,-8.40000492e-004
,,,-9.25000000e-010,-8.41875492e-004
,,,-9.00000000e-010,-8.50312992e-004
,,,-8.75000000e-010,-8.66719242e-004
,,,-8.50000000e-010,-8.91562992e-004
,,,-8.25000000e-010,-9.25312992e-004
,,,-8.00000000e-010,-9.67500493e-004
,,,-7.75000000e-010,-1.01906299e-003
,,,-7.50000000e-010,-1.08000049e-003
,,,-7.25000000e-010,-1.17234424e-003
,,,-7.00000000e-010,-1.27687550e-003
,,,-6.75000000e-010,-1.39171925e-003
,,,-6.50000000e-010,-1.51500050e-003
,,,-6.25000000e-010,-1.64343800e-003
,,,-6.00000000e-010,-1.77515675e-003
,,,-5.75000000e-010,-1.90781300e-003
,,,-5.50000000e-010,-2.04000050e-003
,,,-5.25000000e-010,-2.18531300e-003
,,,-5.00000000e-010,-2.33015675e-003
,,,-4.75000000e-010,-2.47312551e-003
,,,-4.50000000e-010,-2.61281301e-003
,,,-4.25000000e-010,-2.74781301e-003
,,,-4.00000000e-010,-2.87718801e-003
,,,-3.75000000e-010,-3.00093801e-003
,,,-3.50000000e-010,-3.12000051e-003
,,,-3.25000000e-010,-3.24046926e-003
,,,-3.00000000e-010,-3.36328176e-003
,,,-2.75000000e-010,-3.48984426e-003
,,,-2.50000000e-010,-3.62156302e-003
,,,-2.25000000e-010,-3.75890677e-003
,,,-2.00000000e-010,-3.90140677e-003
,,,-1.75000000e-010,-4.04906302e-003
,,,-1.50000000e-010,-4.20000052e-003
,,,-1.25000000e-010,-4.34718802e-003
,,,-1.00000000e-010,-4.49765677e-003
,,,-7.50000000e-011,-4.64765677e-003
,,,-5.00000000e-011,-4.79484428e-003
,,,-2.50000000e-011,-4.93546928e-003
,,,0.00000000e+000,-5.06484428e-003
,,,2.50000000e-011,-5.18062553e-003
,,,5.00000000e-011,-5.28000053e-003
,,,7.50000000e-011,-5.34562553e-003
,,,1.00000000e-010,-5.39953178e-003
,,,1.25000000e-010,-5.44500053e-003
,,,1.50000000e-010,-5.48484428e-003
,,,1.75000000e-010,-5.52187553e-003
,,,2.00000000e-010,-5.55890678e-003
,,,2.25000000e-010,-5.59781303e-003
,,,2.50000000e-010,-5.64000053e-003
,,,2.75000000e-010,-5.66390678e-003
,,,3.00000000e-010,-5.69625053e-003
,,,3.25000000e-010,-5.73750053e-003
,,,3.50000000e-010,-5.78625053e-003
,,,3.75000000e-010,-5.84062554e-003
,,,4.00000000e-010,-5.89640679e-003
,,,4.25000000e-010,-5.95078179e-003
,,,4.50000000e-010,-6.00000054e-003
,,,4.75000000e-010,-6.01546929e-003
,,,5.00000000e-010,-6.02437554e-003
,,,5.25000000e-010,-6.02765679e-003
,,,5.50000000e-010,-6.02671929e-003
,,,5.75000000e-010,-6.02296929e-003
,,,6.00000000e-010,-6.01687554e-003
,,,6.25000000e-010,-6.00890679e-003
,,,6.50000000e-010,-6.00000054e-003
,,,6.75000000e-010,-5.96531304e-003
,,,7.00000000e-010,-5.93156304e-003
,,,7.25000000e-010,-5.89921929e-003
,,,7.50000000e-010,-5.86968804e-003
,,,7.75000000e-010,-5.84156304e-003
,,,8.00000000e-010,-5.81531303e-003
,,,8.25000000e-010,-5.78859428e-003
,,,8.50000000e-010,-5.76000053e-003
,,,8.75000000e-010,-5.70750053e-003
,,,9.00000000e-010,-5.65125053e-003
,,,9.25000000e-010,-5.59218803e-003
,,,9.50000000e-010,-5.53125053e-003
,,,9.75000000e-010,-5.46890678e-003
,,,1.00000000e-009,-5.40656303e-003
,,,1.02500000e-009,-5.34375053e-003
,,,1.05000000e-009,-5.28000053e-003
,,,1.07500000e-009,-5.19937553e-003
,,,1.10000000e-009,-5.11546928e-003
,,,1.12500000e-009,-5.02781303e-003
,,,1.15000000e-009,-4.93781303e-003
,,,1.17500000e-009,-4.84593803e-003
,,,1.20000000e-009,-4.75218803e-003
,,,1.22500000e-009,-4.65703177e-003
,,,1.25000000e-009,-4.56000052e-003
,,,1.27500000e-009,-4.45265677e-003
,,,1.30000000e-009,-4.34250052e-003
,,,1.32500000e-009,-4.23093802e-003
,,,1.35000000e-009,-4.12031302e-003
,,,1.37500000e-009,-4.01203177e-003
,,,1.40000000e-009,-3.90843802e-003
,,,1.42500000e-009,-3.81093802e-003
,,,1.45000000e-009,-3.72000052e-003
,,,1.47500000e-009,-3.63375052e-003
,,,1.50000000e-009,-3.55078177e-003
,,,1.52500000e-009,-3.47062551e-003
,,,1.55000000e-009,-3.39421926e-003
,,,1.57500000e-009,-3.32109426e-003
,,,1.60000000e-009,-3.25125051e-003
,,,1.62500000e-009,-3.18468801e-003
,,,1.65000000e-009,-3.12000051e-003
,,,1.67500000e-009,-3.05859426e-003
,,,1.70000000e-009,-2.99296926e-003
,,,1.72500000e-009,-2.92265676e-003
,,,1.75000000e-009,-2.84765676e-003
,,,1.77500000e-009,-2.76890676e-003
,,,1.80000000e-009,-2.68734426e-003
,,,1.82500000e-009,-2.60390676e-003
,,,1.85000000e-009,-2.52000051e-003
,,,1.87500000e-009,-2.44265676e-003
,,,1.90000000e-009,-2.36250050e-003
,,,1.92500000e-009,-2.28140675e-003
,,,1.95000000e-009,-2.20078175e-003
,,,1.97500000e-009,-2.12296925e-003
,,,2.00000000e-009,-2.04937550e-003
,,,2.02500000e-009,-1.98140675e-003
,,,2.05000000e-009,-1.92000050e-003
,,,2.07500000e-009,-1.87453175e-003
,,,2.10000000e-009,-1.83093800e-003
,,,2.12500000e-009,-1.78781300e-003
,,,2.15000000e-009,-1.74468800e-003
,,,2.17500000e-009,-1.70062550e-003
,,,2.20000000e-009,-1.65515675e-003
,,,2.22500000e-009,-1.60828175e-003
,,,2.25000000e-009,-1.56000050e-003
,,,2.27500000e-009,-1.51968800e-003
,,,2.30000000e-009,-1.47562550e-003
,,,2.32500000e-009,-1.42781300e-003
,,,2.35000000e-009,-1.37812550e-003
,,,2.37500000e-009,-1.32843800e-003
,,,2.40000000e-009,-1.28062550e-003
,,,2.42500000e-009,-1.23750050e-003
,,,2.45000000e-009,-1.20000049e-003
,,,2.47500000e-009,-1.17750049e-003
,,,2.50000000e-009,-1.15875049e-003
,,,2.52500000e-009,-1.14281299e-003
,,,2.55000000e-009,-1.12875049e-003
,,,2.57500000e-009,-1.11609424e-003
,,,2.60000000e-009,-1.10437549e-003
,,,2.62500000e-009,-1.09265674e-003
,,,2.65000000e-009,-1.08000049e-003
,,,2.67500000e-009,-1.07250049e-003
,,,2.70000000e-009,-1.06125049e-003
,,,2.72500000e-009,-1.04625049e-003
,,,2.75000000e-009,-1.02843799e-003
,,,2.77500000e-009,-1.00968799e-003
,,,2.80000000e-009,-9.90937993e-004
,,,2.82500000e-009,-9.74062993e-004
,,,2.85000000e-009,-9.60000493e-004
,,,2.87500000e-009,-9.54375493e-004
,,,2.90000000e-009,-9.51094243e-004
,,,2.92500000e-009,-9.49219243e-004
,,,2.95000000e-009,-9.49687993e-004
,,,2.97500000e-009,-9.51094243e-004
,,,3.00000000e-009,-9.53437993e-004
,,,3.02500000e-009,-9.56719243e-004
,,,3.05000000e-009,-9.60000493e-004
,,,3.07500000e-009,-9.64687993e-004
,,,3.10000000e-009,-9.67031743e-004
,,,3.12500000e-009,-9.67500493e-004
,,,3.15000000e-009,-9.67031743e-004
,,,3.17500000e-009,-9.65156743e-004
,,,3.20000000e-009,-9.63281743e-004
,,,3.22500000e-009,-9.61875493e-004
,,,3.25000000e-009,-9.60000493e-004
,,,3.27500000e-009,-9.57187993e-004
,,,3.30000000e-009,-9.51562993e-004
,,,3.32500000e-009,-9.43594242e-004
,,,3.35000000e-009,-9.31406742e-004
,,,3.37500000e-009,-9.15469242e-004
,,,3.40000000e-009,-8.94844242e-004
,,,3.42500000e-009,-8.69531742e-004
,,,3.45000000e-009,-8.40000492e-004
,,,3.47500000e-009,-8.06719241e-004
,,,3.50000000e-009,-7.70625491e-004
,,,3.52500000e-009,-7.34062991e-004
,,,3.55000000e-009,-6.97969240e-004
,,,3.57500000e-009,-6.65156740e-004
,,,3.60000000e-009,-6.37500490e-004
,,,3.62500000e-009,-6.15469240e-004
,,,3.65000000e-009,-6.00000490e-004
,,,3.67500000e-009,-5.93437989e-004
,,,3.70000000e-009,-5.92031739e-004
,,,3.72500000e-009,-5.94844239e-004
,,,3.75000000e-009,-5.99531739e-004
,,,3.77500000e-009,-6.04687990e-004
,,,3.80000000e-009,-6.07500490e-004
,,,3.82500000e-009,-6.06562990e-004
,,,3.85000000e-009,-6.00000490e-004
,,,3.87500000e-009,-5.88750489e-004
,,,3.90000000e-009,-5.70000489e-004
,,,3.92500000e-009,-5.44687989e-004
,,,3.95000000e-009,-5.13281739e-004
,,,3.97500000e-009,-4.77187988e-004
,,,4.00000000e-009,-4.38750488e-004
,,,4.02500000e-009,-3.98906738e-004
,,,4.05000000e-009,-3.60000487e-004
,,,4.07500000e-009,-3.29062987e-004
,,,4.10000000e-009,-3.02344237e-004
,,,4.12500000e-009,-2.80312987e-004
,,,4.15000000e-009,-2.62969237e-004
,,,4.17500000e-009,-2.50781736e-004
,,,4.20000000e-009,-2.42812986e-004
,,,4.22500000e-009,-2.39531736e-004
,,,4.25000000e-009,-2.40000486e-004
,,,4.27500000e-009,-2.50312986e-004
,,,4.30000000e-009,-2.62500487e-004
,,,4.32500000e-009,-2.76562987e-004
,,,4.35000000e-009,-2.92031737e-004
,,,4.37500000e-009,-3.08437987e-004
,,,4.40000000e-009,-3.25312987e-004
,,,4.42500000e-009,-3.42656737e-004
,,,4.45000000e-009,-3.60000487e-004
,,,4.47500000e-009,-3.80156738e-004
,,,4.50000000e-009,-3.99375488e-004
,,,4.52500000e-009,-4.16719238e-004
,,,4.55000000e-009,-4.32656738e-004
,,,4.57500000e-009,-4.46719238e-004
,,,4.60000000e-009,-4.59375488e-004
,,,4.62500000e-009,-4.70156738e-004
,,,4.65000000e-009,-4.80000488e-004
,,,4.67500000e-009,-4.90312989e-004
,,,4.70000000e-009,-5.00156739e-004
,,,4.72500000e-009,-5.10937989e-004
,,,4.75000000e-009,-5.23125489e-004
,,,4.77500000e-009,-5.37656739e-004
,,,4.80000000e-009,-5.55000489e-004
,,,4.82500000e-009,-5.76094239e-004
,,,4.85000000e-009,-6.00000490e-004
,,,4.87500000e-009,-6.26719240e-004
,,,4.90000000e-009,-6.55312990e-004
,,,4.92500000e-009,-6.86250490e-004
,,,4.95000000e-009,-7.18125491e-004
,,,4.97500000e-009,-7.50469241e-004
,,,5.00000000e-009,-7.82344241e-004
,,,5.02500000e-009,-8.12812991e-004
,,,5.05000000e-009,-8.40000492e-004
,,,5.07500000e-009,-8.59687992e-004
,,,5.10000000e-009,-8.74219242e-004
,,,5.12500000e-009,-8.83125492e-004
,,,5.15000000e-009,-8.85937992e-004
,,,5.17500000e-009,-8.83125492e-004
,,,5.20000000e-009,-8.74687992e-004
,,,5.22500000e-009,-8.60156742e-004
,,,5.25000000e-009,-8.40000492e-004
,,,5.27500000e-009,-8.11875491e-004
,,,5.30000000e-009,-7.80937991e-004
,,,5.32500000e-009,-7.48125491e-004
,,,5.35000000e-009,-7.15312991e-004
,,,5.37500000e-009,-6.83437990e-004
,,,5.40000000e-009,-6.52969240e-004
,,,5.42500000e-009,-6.25312990e-004
,,,5.45000000e-009,-6.00000490e-004
,,,5.47500000e-009,-5.76562989e-004
,,,5.50000000e-009,-5.55937989e-004
,,,5.52500000e-009,-5.38594239e-004
,,,5.55000000e-009,-5.24531739e-004
,,,5.57500000e-009,-5.11875489e-004
,,,5.60000000e-009,-5.01094239e-004
,,,5.62500000e-009,-4.90781739e-004
,,,5.65000000e-009,-4.80000488e-004
,,,5.67500000e-009,-4.69687988e-004
,,,5.70000000e-009,-4.57969238e-004
,,,5.72500000e-009,-4.44844238e-004
,,,5.75000000e-009,-4.30312988e-004
,,,5.77500000e-009,-4.13906738e-004
,,,5.80000000e-009,-3.96562988e-004
