RawData/DifferentLengths/R3/R3_12pt5_5mV/wave013_Ch3.csv

"Record Length",1000,"Points",-7.72500000e-009,-2.96719237e-004
"Sample Interval",2.50000000e-011,s,-7.70000000e-009,-2.78437987e-004
"Trigger Point",309,"Samples",-7.67500000e-009,-2.62500487e-004
"Trigger Time",1.81816766e-011,s,-7.65000000e-009,-2.50312986e-004
"",,,-7.62500000e-009,-2.42812986e-004
"Horizontal Offset",-7.72500000e-009,s,-7.60000000e-009,-2.40000486e-004
,,,-7.57500000e-009,-2.45156736e-004
,,,-7.55000000e-009,-2.54062986e-004
,,,-7.52500000e-009,-2.67187987e-004
,,,-7.50000000e-009,-2.82656737e-004
,,,-7.47500000e-009,-3.00937987e-004
,,,-7.45000000e-009,-3.20625487e-004
,,,-7.42500000e-009,-3.40781737e-004
,,,-7.40000000e-009,-3.60000487e-004
,,,-7.37500000e-009,-3.79219238e-004
,,,-7.35000000e-009,-3.94219238e-004
,,,-7.32500000e-009,-4.03594238e-004
,,,-7.30000000e-009,-4.07344238e-004
,,,-7.27500000e-009,-4.04531738e-004
,,,-7.25000000e-009,-3.95625488e-004
,,,-7.22500000e-009,-3.80156738e-004
,,,-7.20000000e-009,-3.60000487e-004
,,,-7.17500000e-009,-3.37500487e-004
,,,-7.15000000e-009,-3.13594237e-004
,,,-7.12500000e-009,-2.89687987e-004
,,,-7.10000000e-009,-2.68594237e-004
,,,-7.07500000e-009,-2.51250486e-004
,,,-7.05000000e-009,-2.40469236e-004
,,,-7.02500000e-009,-2.36719236e-004
,,,-7.00000000e-009,-2.40000486e-004
,,,-6.97500000e-009,-2.52187986e-004
,,,-6.95000000e-009,-2.69531737e-004
,,,-6.92500000e-009,-2.90625487e-004
,,,-6.90000000e-009,-3.12187987e-004
,,,-6.87500000e-009,-3.31875487e-004
,,,-6.85000000e-009,-3.47812987e-004
,,,-6.82500000e-009,-3.57656737e-004
,,,-6.80000000e-009,-3.60000487e-004
,,,-6.77500000e-009,-3.55781737e-004
,,,-6.75000000e-009,-3.44531737e-004
,,,-6.72500000e-009,-3.27656737e-004
,,,-6.70000000e-009,-3.07500487e-004
,,,-6.67500000e-009,-2.86406737e-004
,,,-6.65000000e-009,-2.66250487e-004
,,,-6.62500000e-009,-2.50312986e-004
,,,-6.60000000e-009,-2.40000486e-004
,,,-6.57500000e-009,-2.37656736e-004
,,,-6.55000000e-009,-2.42344236e-004
,,,-6.52500000e-009,-2.54062986e-004
,,,-6.50000000e-009,-2.71406737e-004
,,,-6.47500000e-009,-2.92969237e-004
,,,-6.45000000e-009,-3.16406737e-004
,,,-6.42500000e-009,-3.39375487e-004
,,,-6.40000000e-009,-3.60000487e-004
,,,-6.37500000e-009,-3.77344238e-004
,,,-6.35000000e-009,-3.89062988e-004
,,,-6.32500000e-009,-3.95625488e-004
,,,-6.30000000e-009,-3.96094238e-004
,,,-6.27500000e-009,-3.91875488e-004
,,,-6.25000000e-009,-3.83437988e-004
,,,-6.22500000e-009,-3.72656738e-004
,,,-6.20000000e-009,-3.60000487e-004
,,,-6.17500000e-009,-3.48750487e-004
,,,-6.15000000e-009,-3.38906737e-004
,,,-6.12500000e-009,-3.31875487e-004
,,,-6.10000000e-009,-3.29062987e-004
,,,-6.07500000e-009,-3.30000487e-004
,,,-6.05000000e-009,-3.36094237e-004
,,,-6.02500000e-009,-3.45937987e-004
,,,-6.00000000e-009,-3.60000487e-004
,,,-5.97500000e-009,-3.78281738e-004
,,,-5.95000000e-009,-3.97969238e-004
,,,-5.92500000e-009,-4.19062988e-004
,,,-5.90000000e-009,-4.38750488e-004
,,,-5.87500000e-009,-4.56094238e-004
,,,-5.85000000e-009,-4.69219238e-004
,,,-5.82500000e-009,-4.77656738e-004
,,,-5.80000000e-009,-4.80000488e-004
,,,-5.77500000e-009,-4.77187988e-004
,,,-5.75000000e-009,-4.69219238e-004
,,,-5.72500000e-009,-4.56094238e-004
,,,-5.70000000e-009,-4.39219238e-004
,,,-5.67500000e-009,-4.20000488e-004
,,,-5.65000000e-009,-3.99375488e-004
,,,-5.62500000e-009,-3.78750488e-004
,,,-5.60000000e-009,-3.60000487e-004
,,,-5.57500000e-009,-3.44062987e-004
,,,-5.55000000e-009,-3.32344237e-004
,,,-5.52500000e-009,-3.24844237e-004
,,,-5.50000000e-009,-3.22969237e-004
,,,-5.47500000e-009,-3.25781737e-004
,,,-5.45000000e-009,-3.33750487e-004
,,,-5.42500000e-009,-3.45469237e-004
,,,-5.40000000e-009,-3.60000487e-004
,,,-5.37500000e-009,-3.77344238e-004
,,,-5.35000000e-009,-3.95625488e-004
,,,-5.32500000e-009,-4.13437988e-004
,,,-5.30000000e-009,-4.30312988e-004
,,,-5.27500000e-009,-4.45781738e-004
,,,-5.25000000e-009,-4.59375488e-004
,,,-5.22500000e-009,-4.70625488e-004
,,,-5.20000000e-009,-4.80000488e-004
,,,-5.17500000e-009,-4.87031739e-004
,,,-5.15000000e-009,-4.93594239e-004
,,,-5.12500000e-009,-5.01562989e-004
,,,-5.10000000e-009,-5.11875489e-004
,,,-5.07500000e-009,-5.26406739e-004
,,,-5.05000000e-009,-5.46094239e-004
,,,-5.02500000e-009,-5.70937989e-004
,,,-5.00000000e-009,-6.00000490e-004
,,,-4.97500000e-009,-6.30000490e-004
,,,-4.95000000e-009,-6.60937990e-004
,,,-4.92500000e-009,-6.90000490e-004
,,,-4.90000000e-009,-7.14844241e-004
,,,-4.87500000e-009,-7.32187991e-004
,,,-4.85000000e-009,-7.40156741e-004
,,,-4.82500000e-009,-7.36406741e-004
,,,-4.80000000e-009,-7.20000491e-004
,,,-4.77500000e-009,-6.87187990e-004
,,,-4.75000000e-009,-6.44062990e-004
,,,-4.72500000e-009,-5.92969239e-004
,,,-4.70000000e-009,-5.38594239e-004
,,,-4.67500000e-009,-4.84219238e-004
,,,-4.65000000e-009,-4.34531738e-004
,,,-4.62500000e-009,-3.92344238e-004
,,,-4.60000000e-009,-3.60000487e-004
,,,-4.57500000e-009,-3.38906737e-004
,,,-4.55000000e-009,-3.28594237e-004
,,,-4.52500000e-009,-3.28125487e-004
,,,-4.50000000e-009,-3.34219237e-004
,,,-4.47500000e-009,-3.43594237e-004
,,,-4.45000000e-009,-3.52969237e-004
,,,-4.42500000e-009,-3.59062987e-004
,,,-4.40000000e-009,-3.60000487e-004
,,,-4.37500000e-009,-3.52969237e-004
,,,-4.35000000e-009,-3.39375487e-004
,,,-4.32500000e-009,-3.20156737e-004
,,,-4.30000000e-009,-2.98594237e-004
,,,-4.27500000e-009,-2.77500487e-004
,,,-4.25000000e-009,-2.59219237e-004
,,,-4.22500000e-009,-2.46562986e-004
,,,-4.20000000e-009,-2.40000486e-004
,,,-4.17500000e-009,-2.41406736e-004
,,,-4.15000000e-009,-2.47969236e-004
,,,-4.12500000e-009,-2.57344237e-004
,,,-4.10000000e-009,-2.66250487e-004
,,,-4.07500000e-009,-2.71875487e-004
,,,-4.05000000e-009,-2.70937987e-004
,,,-4.02500000e-009,-2.60625487e-004
,,,-4.00000000e-009,-2.40000486e-004
,,,-3.97500000e-009,-2.11406736e-004
,,,-3.95000000e-009,-1.74375486e-004
,,,-3.92500000e-009,-1.32187985e-004
,,,-3.90000000e-009,-9.00004851e-005
,,,-3.87500000e-009,-5.15629847e-005
,,,-3.85000000e-009,-2.15629845e-005
,,,-3.82500000e-009,-3.75048432e-006
,,,-3.80000000e-009,-4.84287738e-010
,,,-3.77500000e-009,-1.54692344e-005
,,,-3.75000000e-009,-4.35942347e-005
,,,-3.72500000e-009,-8.06254850e-005
,,,-3.70000000e-009,-1.22344235e-004
,,,-3.67500000e-009,-1.64062986e-004
,,,-3.65000000e-009,-2.00156736e-004
,,,-3.62500000e-009,-2.26406736e-004
,,,-3.60000000e-009,-2.40000486e-004
,,,-3.57500000e-009,-2.39531736e-004
,,,-3.55000000e-009,-2.24062986e-004
,,,-3.52500000e-009,-1.95937986e-004
,,,-3.50000000e-009,-1.58437986e-004
,,,-3.47500000e-009,-1.15312985e-004
,,,-3.45000000e-009,-7.17192349e-005
,,,-3.42500000e-009,-3.18754846e-005
,,,-3.40000000e-009,-4.84287738e-010
,,,-3.37500000e-009,1.78120159e-005
,,,-3.35000000e-009,2.34370159e-005
,,,-3.32500000e-009,1.68745159e-005
,,,-3.30000000e-009,-4.84287738e-010
,,,-3.27500000e-009,-2.48442345e-005
,,,-3.25000000e-009,-5.48442348e-005
,,,-3.22500000e-009,-8.76567350e-005
,,,-3.20000000e-009,-1.20000485e-004
,,,-3.17500000e-009,-1.50937986e-004
,,,-3.15000000e-009,-1.77187986e-004
,,,-3.12500000e-009,-1.97812986e-004
,,,-3.10000000e-009,-2.13750486e-004
,,,-3.07500000e-009,-2.24531736e-004
,,,-3.05000000e-009,-2.32031736e-004
,,,-3.02500000e-009,-2.36719236e-004
,,,-3.00000000e-009,-2.40000486e-004
,,,-2.97500000e-009,-2.42344236e-004
,,,-2.95000000e-009,-2.43750486e-004
,,,-2.92500000e-009,-2.45156736e-004
,,,-2.90000000e-009,-2.46094236e-004
,,,-2.87500000e-009,-2.46094236e-004
,,,-2.85000000e-009,-2.45156736e-004
,,,-2.82500000e-009,-2.43281736e-004
,,,-2.80000000e-009,-2.40000486e-004
,,,-2.77500000e-009,-2.35312986e-004
,,,-2.75000000e-009,-2.30156736e-004
,,,-2.72500000e-009,-2.25469236e-004
,,,-2.70000000e-009,-2.22656736e-004
,,,-2.67500000e-009,-2.22187986e-004
,,,-2.65000000e-009,-2.24531736e-004
,,,-2.62500000e-009,-2.30625486e-004
,,,-2.60000000e-009,-2.40000486e-004
,,,-2.57500000e-009,-2.54531737e-004
,,,-2.55000000e-009,-2.71406737e-004
,,,-2.52500000e-009,-2.90156737e-004
,,,-2.50000000e-009,-3.09375487e-004
,,,-2.47500000e-009,-3.27187987e-004
,,,-2.45000000e-009,-3.42656737e-004
,,,-2.42500000e-009,-3.53906737e-004
,,,-2.40000000e-009,-3.60000487e-004
,,,-2.37500000e-009,-3.60469237e-004
,,,-2.35000000e-009,-3.55781737e-004
,,,-2.32500000e-009,-3.45937987e-004
,,,-2.30000000e-009,-3.30937987e-004
,,,-2.27500000e-009,-3.12187987e-004
,,,-2.25000000e-009,-2.90156737e-004
,,,-2.22500000e-009,-2.65781737e-004
,,,-2.20000000e-009,-2.40000486e-004
,,,-2.17500000e-009,-2.16094236e-004
,,,-2.15000000e-009,-1.93594236e-004
,,,-2.12500000e-009,-1.73437986e-004
,,,-2.10000000e-009,-1.56094236e-004
,,,-2.07500000e-009,-1.42031736e-004
,,,-2.05000000e-009,-1.31250485e-004
,,,-2.02500000e-009,-1.23750485e-004
,,,-2.00000000e-009,-1.20000485e-004
,,,-1.97500000e-009,-1.25156735e-004
,,,-1.95000000e-009,-1.34531735e-004
,,,-1.92500000e-009,-1.47187986e-004
,,,-1.90000000e-009,-1.62187986e-004
,,,-1.87500000e-009,-1.80000486e-004
,,,-1.85000000e-009,-1.98750486e-004
,,,-1.82500000e-009,-2.18906736e-004
,,,-1.80000000e-009,-2.40000486e-004
,,,-1.77500000e-009,-2.69531737e-004
,,,-1.75000000e-009,-3.00937987e-004
,,,-1.72500000e-009,-3.32812987e-004
,,,-1.70000000e-009,-3.64687987e-004
,,,-1.67500000e-009,-3.96562988e-004
,,,-1.65000000e-009,-4.26562988e-004
,,,-1.62500000e-009,-4.54687988e-004
,,,-1.60000000e-009,-4.80000488e-004
,,,-1.57500000e-009,-5.11406739e-004
,,,-1.55000000e-009,-5.40937989e-004
,,,-1.52500000e-009,-5.66250489e-004
,,,-1.50000000e-009,-5.86875489e-004
,,,-1.47500000e-009,-6.01406740e-004
,,,-1.45000000e-009,-6.08437990e-004
,,,-1.42500000e-009,-6.07969240e-004
,,,-1.40000000e-009,-6.00000490e-004
,,,-1.37500000e-009,-6.00469240e-004
,,,-1.35000000e-009,-5.99062989e-004
,,,-1.32500000e-009,-5.96719239e-004
,,,-1.30000000e-009,-5.93906739e-004
,,,-1.27500000e-009,-5.91562989e-004
,,,-1.25000000e-009,-5.90625489e-004
,,,-1.22500000e-009,-5.92969239e-004
,,,-1.20000000e-009,-6.00000490e-004
,,,-1.17500000e-009,-6.30937990e-004
,,,-1.15000000e-009,-6.72656740e-004
,,,-1.12500000e-009,-7.24219241e-004
,,,-1.10000000e-009,-7.84687991e-004
,,,-1.07500000e-009,-8.52187992e-004
,,,-1.05000000e-009,-9.24844242e-004
,,,-1.02500000e-009,-1.00125049e-003
,,,-1.00000000e-009,-1.08000049e-003
,,,-9.75000000e-010,-1.17515674e-003
,,,-9.50000000e-010,-1.27312550e-003
,,,-9.25000000e-010,-1.37109425e-003
,,,-9.00000000e-010,-1.46718800e-003
,,,-8.75000000e-010,-1.55953175e-003
,,,-8.50000000e-010,-1.64578175e-003
,,,-8.25000000e-010,-1.72593800e-003
,,,-8.00000000e-010,-1.80000050e-003
,,,-7.75000000e-010,-1.88109425e-003
,,,-7.50000000e-010,-1.96265675e-003
,,,-7.25000000e-010,-2.04609425e-003
,,,-7.00000000e-010,-2.13234425e-003
,,,-6.75000000e-010,-2.22187550e-003
,,,-6.50000000e-010,-2.31609425e-003
,,,-6.25000000e-010,-2.41500051e-003
,,,-6.00000000e-010,-2.52000051e-003
,,,-5.75000000e-010,-2.63812551e-003
,,,-5.50000000e-010,-2.76515676e-003
,,,-5.25000000e-010,-2.90015676e-003
,,,-5.00000000e-010,-3.04078176e-003
,,,-4.75000000e-010,-3.18375051e-003
,,,-4.50000000e-010,-3.32671926e-003
,,,-4.25000000e-010,-3.46593801e-003
,,,-4.00000000e-010,-3.60000052e-003
,,,-3.75000000e-010,-3.72468802e-003
,,,-3.50000000e-010,-3.84468802e-003
,,,-3.25000000e-010,-3.95906302e-003
,,,-3.00000000e-010,-4.06781302e-003
,,,-2.75000000e-010,-4.17000052e-003
,,,-2.50000000e-010,-4.26609427e-003
,,,-2.25000000e-010,-4.35609427e-003
,,,-2.00000000e-010,-4.44000052e-003
,,,-1.75000000e-010,-4.50937552e-003
,,,-1.50000000e-010,-4.57968802e-003
,,,-1.25000000e-010,-4.65187552e-003
,,,-1.00000000e-010,-4.72640678e-003
,,,-7.50000000e-011,-4.80375053e-003
,,,-5.00000000e-011,-4.88203178e-003
,,,-2.50000000e-011,-4.96171928e-003
,,,0.00000000e+000,-5.04000053e-003
,,,2.50000000e-011,-5.10140678e-003
,,,5.00000000e-011,-5.16421928e-003
,,,7.50000000e-011,-5.22796928e-003
,,,1.00000000e-010,-5.29218803e-003
,,,1.25000000e-010,-5.35500053e-003
,,,1.50000000e-010,-5.41500053e-003
,,,1.75000000e-010,-5.47031303e-003
,,,2.00000000e-010,-5.52000053e-003
,,,2.25000000e-010,-5.54203178e-003
,,,2.50000000e-010,-5.56031303e-003
,,,2.75000000e-010,-5.57578178e-003
,,,3.00000000e-010,-5.58984428e-003
,,,3.25000000e-010,-5.60250053e-003
,,,3.50000000e-010,-5.61515678e-003
,,,3.75000000e-010,-5.62781303e-003
,,,4.00000000e-010,-5.64000053e-003
,,,4.25000000e-010,-5.62921928e-003
,,,4.50000000e-010,-5.62031303e-003
,,,4.75000000e-010,-5.61468803e-003
,,,5.00000000e-010,-5.61328178e-003
,,,5.25000000e-010,-5.61562553e-003
,,,5.50000000e-010,-5.62171928e-003
,,,5.75000000e-010,-5.63015678e-003
,,,6.00000000e-010,-5.64000053e-003
,,,6.25000000e-010,-5.62781303e-003
,,,6.50000000e-010,-5.61375053e-003
,,,6.75000000e-010,-5.59968803e-003
,,,7.00000000e-010,-5.58515678e-003
,,,7.25000000e-010,-5.57062553e-003
,,,7.50000000e-010,-5.55562553e-003
,,,7.75000000e-010,-5.53921928e-003
,,,8.00000000e-010,-5.52000053e-003
,,,8.25000000e-010,-5.47640678e-003
,,,8.50000000e-010,-5.42671928e-003
,,,8.75000000e-010,-5.37187553e-003
,,,9.00000000e-010,-5.31328178e-003
,,,9.25000000e-010,-5.25046928e-003
,,,9.50000000e-010,-5.18390678e-003
,,,9.75000000e-010,-5.11406303e-003
,,,1.00000000e-009,-5.04000053e-003
,,,1.02500000e-009,-4.94625053e-003
,,,1.05000000e-009,-4.84734428e-003
,,,1.07500000e-009,-4.74328178e-003
,,,1.10000000e-009,-4.63640677e-003
,,,1.12500000e-009,-4.52718802e-003
,,,1.15000000e-009,-4.41796927e-003
,,,1.17500000e-009,-4.30875052e-003
,,,1.20000000e-009,-4.20000052e-003
,,,1.22500000e-009,-4.08515677e-003
,,,1.25000000e-009,-3.96984427e-003
,,,1.27500000e-009,-3.85640677e-003
,,,1.30000000e-009,-3.74578177e-003
,,,1.32500000e-009,-3.64031302e-003
,,,1.35000000e-009,-3.54046927e-003
,,,1.37500000e-009,-3.44718801e-003
,,,1.40000000e-009,-3.36000051e-003
,,,1.42500000e-009,-3.27562551e-003
,,,1.45000000e-009,-3.19125051e-003
,,,1.47500000e-009,-3.10546926e-003
,,,1.50000000e-009,-3.01781301e-003
,,,1.52500000e-009,-2.92781301e-003
,,,1.55000000e-009,-2.83453176e-003
,,,1.57500000e-009,-2.73843801e-003
,,,1.60000000e-009,-2.64000051e-003
,,,1.62500000e-009,-2.54296926e-003
,,,1.65000000e-009,-2.44171926e-003
,,,1.67500000e-009,-2.33906300e-003
,,,1.70000000e-009,-2.23828175e-003
,,,1.72500000e-009,-2.14312550e-003
,,,1.75000000e-009,-2.05687550e-003
,,,1.77500000e-009,-1.98187550e-003
,,,1.80000000e-009,-1.92000050e-003
,,,1.82500000e-009,-1.88062550e-003
,,,1.85000000e-009,-1.84828175e-003
,,,1.87500000e-009,-1.82109425e-003
,,,1.90000000e-009,-1.79671925e-003
,,,1.92500000e-009,-1.77281300e-003
,,,1.95000000e-009,-1.74656300e-003
,,,1.97500000e-009,-1.71609425e-003
,,,2.00000000e-009,-1.68000050e-003
,,,2.02500000e-009,-1.64671925e-003
,,,2.05000000e-009,-1.60171925e-003
,,,2.07500000e-009,-1.54593800e-003
,,,2.10000000e-009,-1.48171925e-003
,,,2.12500000e-009,-1.41187550e-003
,,,2.15000000e-009,-1.33968800e-003
,,,2.17500000e-009,-1.26843800e-003
,,,2.20000000e-009,-1.20000049e-003
,,,2.22500000e-009,-1.14843799e-003
,,,2.25000000e-009,-1.09968799e-003
,,,2.27500000e-009,-1.05375049e-003
,,,2.30000000e-009,-1.00968799e-003
,,,2.32500000e-009,-9.67031743e-004
,,,2.35000000e-009,-9.24844242e-004
,,,2.37500000e-009,-8.82656742e-004
,,,2.40000000e-009,-8.40000492e-004
,,,2.42500000e-009,-8.07656741e-004
,,,2.45000000e-009,-7.73437991e-004
,,,2.47500000e-009,-7.37344241e-004
,,,2.50000000e-009,-7.01719240e-004
,,,2.52500000e-009,-6.67969240e-004
,,,2.55000000e-009,-6.38437990e-004
,,,2.57500000e-009,-6.15469240e-004
,,,2.60000000e-009,-6.00000490e-004
,,,2.62500000e-009,-6.03281740e-004
,,,2.65000000e-009,-6.12656740e-004
,,,2.67500000e-009,-6.27187990e-004
,,,2.70000000e-009,-6.44531740e-004
,,,2.72500000e-009,-6.64219240e-004
,,,2.75000000e-009,-6.83906740e-004
,,,2.77500000e-009,-7.02656740e-004
,,,2.80000000e-009,-7.20000491e-004
,,,2.82500000e-009,-7.41094241e-004
,,,2.85000000e-009,-7.58906741e-004
,,,2.87500000e-009,-7.72969241e-004
,,,2.90000000e-009,-7.85625491e-004
,,,2.92500000e-009,-7.96875491e-004
,,,2.95000000e-009,-8.09531741e-004
,,,2.97500000e-009,-8.23594241e-004
,,,3.00000000e-009,-8.40000492e-004
,,,3.02500000e-009,-8.62969242e-004
,,,3.05000000e-009,-8.86875492e-004
,,,3.07500000e-009,-9.09375492e-004
,,,3.10000000e-009,-9.30000492e-004
,,,3.12500000e-009,-9.46406743e-004
,,,3.15000000e-009,-9.57656743e-004
,,,3.17500000e-009,-9.62344243e-004
,,,3.20000000e-009,-9.60000493e-004
,,,3.22500000e-009,-9.52500493e-004
,,,3.25000000e-009,-9.38437992e-004
,,,3.27500000e-009,-9.20156742e-004
,,,3.30000000e-009,-8.99531742e-004
,,,3.32500000e-009,-8.79375492e-004
,,,3.35000000e-009,-8.61094242e-004
,,,3.37500000e-009,-8.47500492e-004
,,,3.40000000e-009,-8.40000492e-004
,,,3.42500000e-009,-8.40000492e-004
,,,3.45000000e-009,-8.46562992e-004
,,,3.47500000e-009,-8.59219242e-004
,,,3.50000000e-009,-8.77031742e-004
,,,3.52500000e-009,-8.98125492e-004
,,,3.55000000e-009,-9.20156742e-004
,,,3.57500000e-009,-9.41250492e-004
,,,3.60000000e-009,-9.60000493e-004
,,,3.62500000e-009,-9.72656743e-004
,,,3.65000000e-009,-9.80156743e-004
,,,3.67500000e-009,-9.83437993e-004
,,,3.70000000e-009,-9.82969243e-004
,,,3.72500000e-009,-9.79219243e-004
,,,3.75000000e-009,-9.73125493e-004
,,,3.77500000e-009,-9.66562993e-004
,,,3.80000000e-009,-9.60000493e-004
,,,3.82500000e-009,-9.52969243e-004
,,,3.85000000e-009,-9.47344243e-004
,,,3.87500000e-009,-9.44531742e-004
,,,3.90000000e-009,-9.43594242e-004
,,,3.92500000e-009,-9.45469243e-004
,,,3.95000000e-009,-9.49219243e-004
,,,3.97500000e-009,-9.54375493e-004
,,,4.00000000e-009,-9.60000493e-004
,,,4.02500000e-009,-9.64687993e-004
,,,4.05000000e-009,-9.67969243e-004
,,,4.07500000e-009,-9.70781743e-004
,,,4.10000000e-009,-9.71719243e-004
,,,4.12500000e-009,-9.71719243e-004
,,,4.15000000e-009,-9.69844243e-004
,,,4.17500000e-009,-9.66094243e-004
,,,4.20000000e-009,-9.60000493e-004
,,,4.22500000e-009,-9.50625493e-004
,,,4.25000000e-009,-9.39375492e-004
,,,4.27500000e-009,-9.25781742e-004
,,,4.30000000e-009,-9.10312992e-004
,,,4.32500000e-009,-8.93906742e-004
,,,4.35000000e-009,-8.76562992e-004
,,,4.37500000e-009,-8.58281742e-004
,,,4.40000000e-009,-8.40000492e-004
,,,4.42500000e-009,-8.21250491e-004
,,,4.45000000e-009,-8.02500491e-004
,,,4.47500000e-009,-7.84687991e-004
,,,4.50000000e-009,-7.68281741e-004
,,,4.52500000e-009,-7.53750491e-004
,,,4.55000000e-009,-7.40625491e-004
,,,4.57500000e-009,-7.29375491e-004
,,,4.60000000e-009,-7.20000491e-004
,,,4.62500000e-009,-7.12500490e-004
,,,4.65000000e-009,-7.06875490e-004
,,,4.67500000e-009,-7.03125490e-004
,,,4.70000000e-009,-7.01719240e-004
,,,4.72500000e-009,-7.03125490e-004
,,,4.75000000e-009,-7.06406740e-004
,,,4.77500000e-009,-7.12500490e-004
,,,4.80000000e-009,-7.20000491e-004
,,,4.82500000e-009,-7.27500491e-004
,,,4.85000000e-009,-7.34062991e-004
,,,4.87500000e-009,-7.39219241e-004
,,,4.90000000e-009,-7.42500491e-004
,,,4.92500000e-009,-7.42031741e-004
,,,4.95000000e-009,-7.38750491e-004
,,,4.97500000e-009,-7.31250491e-004
,,,5.00000000e-009,-7.20000491e-004
,,,5.02500000e-009,-7.05000490e-004
,,,5.05000000e-009,-6.86719240e-004
,,,5.07500000e-009,-6.67031740e-004
,,,5.10000000e-009,-6.47812990e-004
,,,5.12500000e-009,-6.30469240e-004
,,,5.15000000e-009,-6.15937990e-004
,,,5.17500000e-009,-6.05625490e-004
,,,5.20000000e-009,-6.00000490e-004
,,,5.22500000e-009,-5.98594239e-004
,,,5.25000000e-009,-6.00000490e-004
,,,5.27500000e-009,-6.03281740e-004
,,,5.30000000e-009,-6.07500490e-004
,,,5.32500000e-009,-6.10312990e-004
,,,5.35000000e-009,-6.11250490e-004
,,,5.37500000e-009,-6.08437990e-004
,,,5.40000000e-009,-6.00000490e-004
,,,5.42500000e-009,-5.85469239e-004
,,,5.45000000e-009,-5.64844239e-004
,,,5.47500000e-009,-5.38125489e-004
,,,5.50000000e-009,-5.06250489e-004
,,,5.52500000e-009,-4.71094238e-004
,,,5.55000000e-009,-4.34062988e-004
,,,5.57500000e-009,-3.96562988e-004
,,,5.60000000e-009,-3.60000487e-004
,,,5.62500000e-009,-3.27656737e-004
,,,5.65000000e-009,-2.99062987e-004
,,,5.67500000e-009,-2.75156737e-004
,,,5.70000000e-009,-2.57344237e-004
,,,5.72500000e-009,-2.45156736e-004
,,,5.75000000e-009,-2.38594236e-004
,,,5.77500000e-009,-2.37187986e-004
,,,5.80000000e-009,-2.40000486e-004
