RawData/DifferentLengths/R3/R3_12pt5_5mV/wave024_Ch3.csv

"Record Length",1000,"Points",-7.72500000e-009,-1.68750486e-004
"Sample Interval",2.50000000e-011,s,-7.70000000e-009,-1.42969236e-004
"Trigger Point",309,"Samples",-7.67500000e-009,-1.20000485e-004
"Trigger Time",1.19829630e-011,s,-7.65000000e-009,-1.01250485e-004
"",,,-7.62500000e-009,-8.48442350e-005
"Horizontal Offset",-7.72500000e-009,s,-7.60000000e-009,-7.07817349e-005
,,,-7.57500000e-009,-5.76567348e-005
,,,-7.55000000e-009,-4.50004847e-005
,,,-7.52500000e-009,-3.14067346e-005
,,,-7.50000000e-009,-1.64067344e-005
,,,-7.47500000e-009,-4.84287738e-010
,,,-7.45000000e-009,1.59370159e-005
,,,-7.42500000e-009,3.37495160e-005
,,,-7.40000000e-009,5.15620162e-005
,,,-7.37500000e-009,6.93745163e-005
,,,-7.35000000e-009,8.57807665e-005
,,,-7.32500000e-009,1.00312017e-004
,,,-7.30000000e-009,1.11562017e-004
,,,-7.27500000e-009,1.19999517e-004
,,,-7.25000000e-009,1.20937017e-004
,,,-7.22500000e-009,1.19530767e-004
,,,-7.20000000e-009,1.16718267e-004
,,,-7.17500000e-009,1.13437017e-004
,,,-7.15000000e-009,1.11562017e-004
,,,-7.12500000e-009,1.11093267e-004
,,,-7.10000000e-009,1.13905767e-004
,,,-7.07500000e-009,1.19999517e-004
,,,-7.05000000e-009,1.23749517e-004
,,,-7.02500000e-009,1.29843267e-004
,,,-7.00000000e-009,1.36405767e-004
,,,-6.97500000e-009,1.42030767e-004
,,,-6.95000000e-009,1.44843267e-004
,,,-6.92500000e-009,1.42968267e-004
,,,-6.90000000e-009,1.34999517e-004
,,,-6.87500000e-009,1.19999517e-004
,,,-6.85000000e-009,9.42182665e-005
,,,-6.82500000e-009,6.32807663e-005
,,,-6.80000000e-009,2.90620160e-005
,,,-6.77500000e-009,-7.03173435e-006
,,,-6.75000000e-009,-4.17192347e-005
,,,-6.72500000e-009,-7.35942349e-005
,,,-6.70000000e-009,-1.00312985e-004
,,,-6.67500000e-009,-1.20000485e-004
,,,-6.65000000e-009,-1.33594235e-004
,,,-6.62500000e-009,-1.40156736e-004
,,,-6.60000000e-009,-1.40156736e-004
,,,-6.57500000e-009,-1.36406735e-004
,,,-6.55000000e-009,-1.30781735e-004
,,,-6.52500000e-009,-1.24687985e-004
,,,-6.50000000e-009,-1.20469235e-004
,,,-6.47500000e-009,-1.20000485e-004
,,,-6.45000000e-009,-1.24687985e-004
,,,-6.42500000e-009,-1.34062985e-004
,,,-6.40000000e-009,-1.48125486e-004
,,,-6.37500000e-009,-1.65937986e-004
,,,-6.35000000e-009,-1.85625486e-004
,,,-6.32500000e-009,-2.05312986e-004
,,,-6.30000000e-009,-2.24062986e-004
,,,-6.27500000e-009,-2.40000486e-004
,,,-6.25000000e-009,-2.50781736e-004
,,,-6.22500000e-009,-2.57344237e-004
,,,-6.20000000e-009,-2.60156737e-004
,,,-6.17500000e-009,-2.59687987e-004
,,,-6.15000000e-009,-2.56406737e-004
,,,-6.12500000e-009,-2.51250486e-004
,,,-6.10000000e-009,-2.45625486e-004
,,,-6.07500000e-009,-2.40000486e-004
,,,-6.05000000e-009,-2.33437986e-004
,,,-6.02500000e-009,-2.28281736e-004
,,,-6.00000000e-009,-2.25469236e-004
,,,-5.97500000e-009,-2.25000486e-004
,,,-5.95000000e-009,-2.26406736e-004
,,,-5.92500000e-009,-2.30156736e-004
,,,-5.90000000e-009,-2.34844236e-004
,,,-5.87500000e-009,-2.40000486e-004
,,,-5.85000000e-009,-2.43750486e-004
,,,-5.82500000e-009,-2.46562986e-004
,,,-5.80000000e-009,-2.48906736e-004
,,,-5.77500000e-009,-2.49844236e-004
,,,-5.75000000e-009,-2.49844236e-004
,,,-5.72500000e-009,-2.47969236e-004
,,,-5.70000000e-009,-2.44687986e-004
,,,-5.67500000e-009,-2.40000486e-004
,,,-5.65000000e-009,-2.32969236e-004
,,,-5.62500000e-009,-2.25937986e-004
,,,-5.60000000e-009,-2.20312986e-004
,,,-5.57500000e-009,-2.17031736e-004
,,,-5.55000000e-009,-2.17031736e-004
,,,-5.52500000e-009,-2.20781736e-004
,,,-5.50000000e-009,-2.28750486e-004
,,,-5.47500000e-009,-2.40000486e-004
,,,-5.45000000e-009,-2.51250486e-004
,,,-5.42500000e-009,-2.62500487e-004
,,,-5.40000000e-009,-2.72344237e-004
,,,-5.37500000e-009,-2.79375487e-004
,,,-5.35000000e-009,-2.80312987e-004
,,,-5.32500000e-009,-2.75156737e-004
,,,-5.30000000e-009,-2.61562987e-004
,,,-5.27500000e-009,-2.40000486e-004
,,,-5.25000000e-009,-2.08125486e-004
,,,-5.22500000e-009,-1.70156736e-004
,,,-5.20000000e-009,-1.29844235e-004
,,,-5.17500000e-009,-9.00004851e-005
,,,-5.15000000e-009,-5.43754848e-005
,,,-5.12500000e-009,-2.57817345e-005
,,,-5.10000000e-009,-7.50048435e-006
,,,-5.07500000e-009,-4.84287738e-010
,,,-5.05000000e-009,-3.28173432e-006
,,,-5.02500000e-009,-1.54692344e-005
,,,-5.00000000e-009,-3.46879846e-005
,,,-4.97500000e-009,-5.81254848e-005
,,,-4.95000000e-009,-8.15629850e-005
,,,-4.92500000e-009,-1.01719235e-004
,,,-4.90000000e-009,-1.15781735e-004
,,,-4.87500000e-009,-1.20000485e-004
,,,-4.85000000e-009,-1.12031735e-004
,,,-4.82500000e-009,-9.28129851e-005
,,,-4.80000000e-009,-6.42192348e-005
,,,-4.77500000e-009,-2.90629845e-005
,,,-4.75000000e-009,1.03120158e-005
,,,-4.72500000e-009,5.01557661e-005
,,,-4.70000000e-009,8.71870165e-005
,,,-4.67500000e-009,1.19999517e-004
,,,-4.65000000e-009,1.44843267e-004
,,,-4.62500000e-009,1.64062017e-004
,,,-4.60000000e-009,1.77655767e-004
,,,-4.57500000e-009,1.87968267e-004
,,,-4.55000000e-009,1.97343267e-004
,,,-4.52500000e-009,2.07655768e-004
,,,-4.50000000e-009,2.21249518e-004
,,,-4.47500000e-009,2.39999518e-004
,,,-4.45000000e-009,2.61562018e-004
,,,-4.42500000e-009,2.89218268e-004
,,,-4.40000000e-009,3.21093269e-004
,,,-4.37500000e-009,3.56249519e-004
,,,-4.35000000e-009,3.91874519e-004
,,,-4.32500000e-009,4.25624519e-004
,,,-4.30000000e-009,4.55624520e-004
,,,-4.27500000e-009,4.79999520e-004
,,,-4.25000000e-009,4.91249520e-004
,,,-4.22500000e-009,4.96405770e-004
,,,-4.20000000e-009,4.95937020e-004
,,,-4.17500000e-009,4.92187020e-004
,,,-4.15000000e-009,4.87030770e-004
,,,-4.12500000e-009,4.82343270e-004
,,,-4.10000000e-009,4.79530770e-004
,,,-4.07500000e-009,4.79999520e-004
,,,-4.05000000e-009,4.78124520e-004
,,,-4.02500000e-009,4.79999520e-004
,,,-4.00000000e-009,4.83749520e-004
,,,-3.97500000e-009,4.88437020e-004
,,,-3.95000000e-009,4.92187020e-004
,,,-3.92500000e-009,4.92655770e-004
,,,-3.90000000e-009,4.89374520e-004
,,,-3.87500000e-009,4.79999520e-004
,,,-3.85000000e-009,4.58437020e-004
,,,-3.82500000e-009,4.30780769e-004
,,,-3.80000000e-009,3.99374519e-004
,,,-3.77500000e-009,3.65155769e-004
,,,-3.75000000e-009,3.30468269e-004
,,,-3.72500000e-009,2.96718268e-004
,,,-3.70000000e-009,2.66249518e-004
,,,-3.67500000e-009,2.39999518e-004
,,,-3.65000000e-009,2.14687018e-004
,,,-3.62500000e-009,1.94999517e-004
,,,-3.60000000e-009,1.79062017e-004
,,,-3.57500000e-009,1.66405767e-004
,,,-3.55000000e-009,1.55624517e-004
,,,-3.52500000e-009,1.45312017e-004
,,,-3.50000000e-009,1.34062017e-004
,,,-3.47500000e-009,1.19999517e-004
,,,-3.45000000e-009,1.00312017e-004
,,,-3.42500000e-009,7.64057664e-005
,,,-3.40000000e-009,4.82807661e-005
,,,-3.37500000e-009,1.68745159e-005
,,,-3.35000000e-009,-1.73442344e-005
,,,-3.32500000e-009,-5.20317347e-005
,,,-3.30000000e-009,-8.71879850e-005
,,,-3.27500000e-009,-1.20000485e-004
,,,-3.25000000e-009,-1.50000486e-004
,,,-3.22500000e-009,-1.76250486e-004
,,,-3.20000000e-009,-1.98281736e-004
,,,-3.17500000e-009,-2.16094236e-004
,,,-3.15000000e-009,-2.28750486e-004
,,,-3.12500000e-009,-2.37187986e-004
,,,-3.10000000e-009,-2.40469236e-004
,,,-3.07500000e-009,-2.40000486e-004
,,,-3.05000000e-009,-2.35312986e-004
,,,-3.02500000e-009,-2.29687986e-004
,,,-3.00000000e-009,-2.25000486e-004
,,,-2.97500000e-009,-2.21719236e-004
,,,-2.95000000e-009,-2.21250486e-004
,,,-2.92500000e-009,-2.24062986e-004
,,,-2.90000000e-009,-2.30156736e-004
,,,-2.87500000e-009,-2.40000486e-004
,,,-2.85000000e-009,-2.51719236e-004
,,,-2.82500000e-009,-2.67187987e-004
,,,-2.80000000e-009,-2.84531737e-004
,,,-2.77500000e-009,-3.03281737e-004
,,,-2.75000000e-009,-3.21562987e-004
,,,-2.72500000e-009,-3.37969237e-004
,,,-2.70000000e-009,-3.51094237e-004
,,,-2.67500000e-009,-3.60000487e-004
,,,-2.65000000e-009,-3.62344237e-004
,,,-2.62500000e-009,-3.61406737e-004
,,,-2.60000000e-009,-3.58125487e-004
,,,-2.57500000e-009,-3.54844237e-004
,,,-2.55000000e-009,-3.51562987e-004
,,,-2.52500000e-009,-3.51094237e-004
,,,-2.50000000e-009,-3.53437987e-004
,,,-2.47500000e-009,-3.60000487e-004
,,,-2.45000000e-009,-3.69844238e-004
,,,-2.42500000e-009,-3.83906738e-004
,,,-2.40000000e-009,-4.01250488e-004
,,,-2.37500000e-009,-4.20000488e-004
,,,-2.35000000e-009,-4.39219238e-004
,,,-2.32500000e-009,-4.56562988e-004
,,,-2.30000000e-009,-4.70625488e-004
,,,-2.27500000e-009,-4.80000488e-004
,,,-2.25000000e-009,-4.84687989e-004
,,,-2.22500000e-009,-4.85156739e-004
,,,-2.20000000e-009,-4.82812988e-004
,,,-2.17500000e-009,-4.79531738e-004
,,,-2.15000000e-009,-4.76250488e-004
,,,-2.12500000e-009,-4.74844238e-004
,,,-2.10000000e-009,-4.76250488e-004
,,,-2.07500000e-009,-4.80000488e-004
,,,-2.05000000e-009,-4.87500489e-004
,,,-2.02500000e-009,-4.96406739e-004
,,,-2.00000000e-009,-5.06250489e-004
,,,-1.97500000e-009,-5.13750489e-004
,,,-1.95000000e-009,-5.16562989e-004
,,,-1.92500000e-009,-5.12812989e-004
,,,-1.90000000e-009,-5.01094239e-004
,,,-1.87500000e-009,-4.80000488e-004
,,,-1.85000000e-009,-4.53750488e-004
,,,-1.82500000e-009,-4.20937988e-004
,,,-1.80000000e-009,-3.84844238e-004
,,,-1.77500000e-009,-3.46875487e-004
,,,-1.75000000e-009,-3.10781737e-004
,,,-1.72500000e-009,-2.79375487e-004
,,,-1.70000000e-009,-2.55000487e-004
,,,-1.67500000e-009,-2.40000486e-004
,,,-1.65000000e-009,-2.44219236e-004
,,,-1.62500000e-009,-2.60625487e-004
,,,-1.60000000e-009,-2.87812987e-004
,,,-1.57500000e-009,-3.22500487e-004
,,,-1.55000000e-009,-3.62344237e-004
,,,-1.52500000e-009,-4.03594238e-004
,,,-1.50000000e-009,-4.43906738e-004
,,,-1.47500000e-009,-4.80000488e-004
,,,-1.45000000e-009,-5.21250489e-004
,,,-1.42500000e-009,-5.56875489e-004
,,,-1.40000000e-009,-5.84531739e-004
,,,-1.37500000e-009,-6.03281740e-004
,,,-1.35000000e-009,-6.13594240e-004
,,,-1.32500000e-009,-6.15937990e-004
,,,-1.30000000e-009,-6.10781740e-004
,,,-1.27500000e-009,-6.00000490e-004
,,,-1.25000000e-009,-6.02344240e-004
,,,-1.22500000e-009,-6.07031740e-004
,,,-1.20000000e-009,-6.15000490e-004
,,,-1.17500000e-009,-6.27187990e-004
,,,-1.15000000e-009,-6.43594240e-004
,,,-1.12500000e-009,-6.64219240e-004
,,,-1.10000000e-009,-6.90000490e-004
,,,-1.07500000e-009,-7.20000491e-004
,,,-1.05000000e-009,-7.73437991e-004
,,,-1.02500000e-009,-8.33437992e-004
,,,-1.00000000e-009,-8.97656742e-004
,,,-9.75000000e-010,-9.63750493e-004
,,,-9.50000000e-010,-1.02890674e-003
,,,-9.25000000e-010,-1.09031299e-003
,,,-9.00000000e-010,-1.14750049e-003
,,,-8.75000000e-010,-1.20000049e-003
,,,-8.50000000e-010,-1.26750050e-003
,,,-8.25000000e-010,-1.33546925e-003
,,,-8.00000000e-010,-1.40484425e-003
,,,-7.75000000e-010,-1.47609425e-003
,,,-7.50000000e-010,-1.55015675e-003
,,,-7.25000000e-010,-1.62796925e-003
,,,-7.00000000e-010,-1.71093800e-003
,,,-6.75000000e-010,-1.80000050e-003
,,,-6.50000000e-010,-1.91250050e-003
,,,-6.25000000e-010,-2.03671925e-003
,,,-6.00000000e-010,-2.17031300e-003
,,,-5.75000000e-010,-2.31140675e-003
,,,-5.50000000e-010,-2.45578176e-003
,,,-5.25000000e-010,-2.60062551e-003
,,,-5.00000000e-010,-2.74312551e-003
,,,-4.75000000e-010,-2.88000051e-003
,,,-4.50000000e-010,-3.02203176e-003
,,,-4.25000000e-010,-3.16031301e-003
,,,-4.00000000e-010,-3.29343801e-003
,,,-3.75000000e-010,-3.41953176e-003
,,,-3.50000000e-010,-3.53765677e-003
,,,-3.25000000e-010,-3.64687552e-003
,,,-3.00000000e-010,-3.74718802e-003
,,,-2.75000000e-010,-3.84000052e-003
,,,-2.50000000e-010,-3.93515677e-003
,,,-2.25000000e-010,-4.03218802e-003
,,,-2.00000000e-010,-4.13296927e-003
,,,-1.75000000e-010,-4.23703177e-003
,,,-1.50000000e-010,-4.34437552e-003
,,,-1.25000000e-010,-4.45453177e-003
,,,-1.00000000e-010,-4.56656302e-003
,,,-7.50000000e-011,-4.68000052e-003
,,,-5.00000000e-011,-4.79671928e-003
,,,-2.50000000e-011,-4.91906303e-003
,,,0.00000000e+000,-5.04562553e-003
,,,2.50000000e-011,-5.17359428e-003
,,,5.00000000e-011,-5.29968803e-003
,,,7.50000000e-011,-5.42109428e-003
,,,1.00000000e-010,-5.53500053e-003
,,,1.25000000e-010,-5.64000053e-003
,,,1.50000000e-010,-5.73281303e-003
,,,1.75000000e-010,-5.82375053e-003
,,,2.00000000e-010,-5.91281304e-003
,,,2.25000000e-010,-6.00140679e-003
,,,2.50000000e-010,-6.08953179e-003
,,,2.75000000e-010,-6.17812554e-003
,,,3.00000000e-010,-6.26812554e-003
,,,3.25000000e-010,-6.36000054e-003
,,,3.50000000e-010,-6.44718804e-003
,,,3.75000000e-010,-6.54468804e-003
,,,4.00000000e-010,-6.65343804e-003
,,,4.25000000e-010,-6.77296929e-003
,,,4.50000000e-010,-6.90187554e-003
,,,4.75000000e-010,-7.03828180e-003
,,,5.00000000e-010,-7.17843805e-003
,,,5.25000000e-010,-7.32000055e-003
,,,5.50000000e-010,-7.44562555e-003
,,,5.75000000e-010,-7.56984430e-003
,,,6.00000000e-010,-7.69125055e-003
,,,6.25000000e-010,-7.80703180e-003
,,,6.50000000e-010,-7.91390680e-003
,,,6.75000000e-010,-8.00953180e-003
,,,7.00000000e-010,-8.09203180e-003
,,,7.25000000e-010,-8.16000056e-003
,,,7.50000000e-010,-8.19468806e-003
,,,7.75000000e-010,-8.22093806e-003
,,,8.00000000e-010,-8.24390681e-003
,,,8.25000000e-010,-8.26640681e-003
,,,8.50000000e-010,-8.29125056e-003
,,,8.75000000e-010,-8.32125056e-003
,,,9.00000000e-010,-8.35734431e-003
,,,9.25000000e-010,-8.40000056e-003
,,,9.50000000e-010,-8.42671931e-003
,,,9.75000000e-010,-8.45953181e-003
,,,1.00000000e-009,-8.49750056e-003
,,,1.02500000e-009,-8.53734431e-003
,,,1.05000000e-009,-8.57578181e-003
,,,1.07500000e-009,-8.60812556e-003
,,,1.10000000e-009,-8.63062556e-003
,,,1.12500000e-009,-8.64000056e-003
,,,1.15000000e-009,-8.61187556e-003
,,,1.17500000e-009,-8.57156306e-003
,,,1.20000000e-009,-8.52281306e-003
,,,1.22500000e-009,-8.46890681e-003
,,,1.25000000e-009,-8.41453181e-003
,,,1.27500000e-009,-8.36296931e-003
,,,1.30000000e-009,-8.31750056e-003
,,,1.32500000e-009,-8.28000056e-003
,,,1.35000000e-009,-8.23031306e-003
,,,1.37500000e-009,-8.18953181e-003
,,,1.40000000e-009,-8.15765681e-003
,,,1.42500000e-009,-8.13234430e-003
,,,1.45000000e-009,-8.11125055e-003
,,,1.47500000e-009,-8.09109430e-003
,,,1.50000000e-009,-8.06859430e-003
,,,1.52500000e-009,-8.04000055e-003
,,,1.55000000e-009,-7.98421930e-003
,,,1.57500000e-009,-7.91859430e-003
,,,1.60000000e-009,-7.84406305e-003
,,,1.62500000e-009,-7.76343805e-003
,,,1.65000000e-009,-7.68000055e-003
,,,1.67500000e-009,-7.59703180e-003
,,,1.70000000e-009,-7.51640680e-003
,,,1.72500000e-009,-7.44000055e-003
,,,1.75000000e-009,-7.35421930e-003
,,,1.77500000e-009,-7.27078180e-003
,,,1.80000000e-009,-7.19109430e-003
,,,1.82500000e-009,-7.11562555e-003
,,,1.85000000e-009,-7.04343805e-003
,,,1.87500000e-009,-6.97406304e-003
,,,1.90000000e-009,-6.90703179e-003
,,,1.92500000e-009,-6.84000054e-003
,,,1.95000000e-009,-6.75890679e-003
,,,1.97500000e-009,-6.67171929e-003
,,,2.00000000e-009,-6.57984429e-003
,,,2.02500000e-009,-6.48515679e-003
,,,2.05000000e-009,-6.39000054e-003
,,,2.07500000e-009,-6.29625054e-003
,,,2.10000000e-009,-6.20625054e-003
,,,2.12500000e-009,-6.12000054e-003
,,,2.15000000e-009,-6.02859429e-003
,,,2.17500000e-009,-5.93671929e-003
,,,2.20000000e-009,-5.84437554e-003
,,,2.22500000e-009,-5.75250053e-003
,,,2.25000000e-009,-5.66156303e-003
,,,2.27500000e-009,-5.57296928e-003
,,,2.30000000e-009,-5.48578178e-003
,,,2.32500000e-009,-5.40000053e-003
,,,2.35000000e-009,-5.30765678e-003
,,,2.37500000e-009,-5.20921928e-003
,,,2.40000000e-009,-5.10609428e-003
,,,2.42500000e-009,-4.99921928e-003
,,,2.45000000e-009,-4.88953178e-003
,,,2.47500000e-009,-4.77937553e-003
,,,2.50000000e-009,-4.66921927e-003
,,,2.52500000e-009,-4.56000052e-003
,,,2.55000000e-009,-4.44890677e-003
,,,2.57500000e-009,-4.33359427e-003
,,,2.60000000e-009,-4.21406302e-003
,,,2.62500000e-009,-4.09171927e-003
,,,2.65000000e-009,-3.96750052e-003
,,,2.67500000e-009,-3.84375052e-003
,,,2.70000000e-009,-3.72093802e-003
,,,2.72500000e-009,-3.60000052e-003
,,,2.75000000e-009,-3.48375051e-003
,,,2.77500000e-009,-3.36421926e-003
,,,2.80000000e-009,-3.24187551e-003
,,,2.82500000e-009,-3.11812551e-003
,,,2.85000000e-009,-2.99484426e-003
,,,2.87500000e-009,-2.87296926e-003
,,,2.90000000e-009,-2.75437551e-003
,,,2.92500000e-009,-2.64000051e-003
,,,2.95000000e-009,-2.54015676e-003
,,,2.97500000e-009,-2.44078176e-003
,,,3.00000000e-009,-2.34375050e-003
,,,3.02500000e-009,-2.24859425e-003
,,,3.05000000e-009,-2.15812550e-003
,,,3.07500000e-009,-2.07234425e-003
,,,3.10000000e-009,-1.99312550e-003
,,,3.12500000e-009,-1.92000050e-003
,,,3.15000000e-009,-1.86421925e-003
,,,3.17500000e-009,-1.80796925e-003
,,,3.20000000e-009,-1.75078175e-003
,,,3.22500000e-009,-1.69171925e-003
,,,3.25000000e-009,-1.63125050e-003
,,,3.27500000e-009,-1.56890675e-003
,,,3.30000000e-009,-1.50468800e-003
,,,3.32500000e-009,-1.44000050e-003
,,,3.35000000e-009,-1.38562550e-003
,,,3.37500000e-009,-1.32609425e-003
,,,3.40000000e-009,-1.26281300e-003
,,,3.42500000e-009,-1.19765674e-003
,,,3.45000000e-009,-1.13203174e-003
,,,3.47500000e-009,-1.06921924e-003
,,,3.50000000e-009,-1.01109424e-003
,,,3.52500000e-009,-9.60000493e-004
,,,3.55000000e-009,-9.29062992e-004
,,,3.57500000e-009,-9.02344242e-004
,,,3.60000000e-009,-8.80781742e-004
,,,3.62500000e-009,-8.63437992e-004
,,,3.65000000e-009,-8.50781742e-004
,,,3.67500000e-009,-8.43281742e-004
,,,3.70000000e-009,-8.39531742e-004
,,,3.72500000e-009,-8.40000492e-004
,,,3.75000000e-009,-8.52187992e-004
,,,3.77500000e-009,-8.62031742e-004
,,,3.80000000e-009,-8.68594242e-004
,,,3.82500000e-009,-8.70937992e-004
,,,3.85000000e-009,-8.69531742e-004
,,,3.87500000e-009,-8.63437992e-004
,,,3.90000000e-009,-8.54062992e-004
,,,3.92500000e-009,-8.40000492e-004
,,,3.95000000e-009,-8.28281741e-004
,,,3.97500000e-009,-8.10000491e-004
,,,4.00000000e-009,-7.85625491e-004
,,,4.02500000e-009,-7.56094241e-004
,,,4.05000000e-009,-7.21406741e-004
,,,4.07500000e-009,-6.83437990e-004
,,,4.10000000e-009,-6.42656740e-004
,,,4.12500000e-009,-6.00000490e-004
,,,4.15000000e-009,-5.62500489e-004
,,,4.17500000e-009,-5.25000489e-004
,,,4.20000000e-009,-4.88906739e-004
,,,4.22500000e-009,-4.54687988e-004
,,,4.25000000e-009,-4.23750488e-004
,,,4.27500000e-009,-3.97500488e-004
,,,4.30000000e-009,-3.75937988e-004
,,,4.32500000e-009,-3.60000487e-004
,,,4.35000000e-009,-3.55312987e-004
,,,4.37500000e-009,-3.53906737e-004
,,,4.40000000e-009,-3.54844237e-004
,,,4.42500000e-009,-3.57187987e-004
,,,4.45000000e-009,-3.60000487e-004
,,,4.47500000e-009,-3.61406737e-004
,,,4.50000000e-009,-3.61875487e-004
,,,4.52500000e-009,-3.60000487e-004
,,,4.55000000e-009,-3.60469237e-004
,,,4.57500000e-009,-3.58594237e-004
,,,4.60000000e-009,-3.55781737e-004
,,,4.62500000e-009,-3.52500487e-004
,,,4.65000000e-009,-3.50625487e-004
,,,4.67500000e-009,-3.50625487e-004
,,,4.70000000e-009,-3.53437987e-004
,,,4.72500000e-009,-3.60000487e-004
,,,4.75000000e-009,-3.73594238e-004
,,,4.77500000e-009,-3.90000488e-004
,,,4.80000000e-009,-4.07812988e-004
,,,4.82500000e-009,-4.26562988e-004
,,,4.85000000e-009,-4.43906738e-004
,,,4.87500000e-009,-4.59375488e-004
,,,4.90000000e-009,-4.71562988e-004
,,,4.92500000e-009,-4.80000488e-004
,,,4.95000000e-009,-4.87031739e-004
,,,4.97500000e-009,-4.89844239e-004
,,,5.00000000e-009,-4.89375489e-004
,,,5.02500000e-009,-4.86562989e-004
,,,5.05000000e-009,-4.82812988e-004
,,,5.07500000e-009,-4.79531738e-004
,,,5.10000000e-009,-4.78125488e-004
,,,5.12500000e-009,-4.80000488e-004
,,,5.15000000e-009,-4.87031739e-004
,,,5.17500000e-009,-4.97812989e-004
,,,5.20000000e-009,-5.11875489e-004
,,,5.22500000e-009,-5.28281739e-004
,,,5.25000000e-009,-5.47031739e-004
,,,5.27500000e-009,-5.65781739e-004
,,,5.30000000e-009,-5.84062989e-004
,,,5.32500000e-009,-6.00000490e-004
,,,5.35000000e-009,-6.12656740e-004
,,,5.37500000e-009,-6.21094240e-004
,,,5.40000000e-009,-6.25781740e-004
,,,5.42500000e-009,-6.26719240e-004
,,,5.45000000e-009,-6.23906740e-004
,,,5.47500000e-009,-6.18281740e-004
,,,5.50000000e-009,-6.09844240e-004
,,,5.52500000e-009,-6.00000490e-004
,,,5.55000000e-009,-5.88750489e-004
,,,5.57500000e-009,-5.78906739e-004
,,,5.60000000e-009,-5.71406739e-004
,,,5.62500000e-009,-5.67187989e-004
,,,5.65000000e-009,-5.68125489e-004
,,,5.67500000e-009,-5.73750489e-004
,,,5.70000000e-009,-5.84531739e-004
,,,5.72500000e-009,-6.00000490e-004
,,,5.75000000e-009,-6.17344240e-004
,,,5.77500000e-009,-6.37031740e-004
,,,5.80000000e-009,-6.57656740e-004
,,,5.82500000e-009,-6.77812990e-004
,,,5.85000000e-009,-6.95156740e-004
