RawData/DifferentLengths/R3/R3_12pt5_5mV/wave019_Ch3.csv

"Record Length",1000,"Points",-7.72500000e-009,-4.84287738e-010
"Sample Interval",2.50000000e-011,s,-7.70000000e-009,-1.78129844e-005
"Trigger Point",309,"Samples",-7.67500000e-009,-3.75004846e-005
"Trigger Time",1.66670588e-011,s,-7.65000000e-009,-5.81254848e-005
"",,,-7.62500000e-009,-7.73442350e-005
"Horizontal Offset",-7.72500000e-009,s,-7.60000000e-009,-9.37504851e-005
,,,-7.57500000e-009,-1.07344235e-004
,,,-7.55000000e-009,-1.15781735e-004
,,,-7.52500000e-009,-1.20000485e-004
,,,-7.50000000e-009,-1.20000485e-004
,,,-7.47500000e-009,-1.17187985e-004
,,,-7.45000000e-009,-1.12500485e-004
,,,-7.42500000e-009,-1.08281735e-004
,,,-7.40000000e-009,-1.05937985e-004
,,,-7.37500000e-009,-1.06406735e-004
,,,-7.35000000e-009,-1.11094235e-004
,,,-7.32500000e-009,-1.20000485e-004
,,,-7.30000000e-009,-1.33594235e-004
,,,-7.27500000e-009,-1.50937986e-004
,,,-7.25000000e-009,-1.71094236e-004
,,,-7.22500000e-009,-1.92187986e-004
,,,-7.20000000e-009,-2.11406736e-004
,,,-7.17500000e-009,-2.26875486e-004
,,,-7.15000000e-009,-2.36719236e-004
,,,-7.12500000e-009,-2.40000486e-004
,,,-7.10000000e-009,-2.35781736e-004
,,,-7.07500000e-009,-2.25469236e-004
,,,-7.05000000e-009,-2.09531736e-004
,,,-7.02500000e-009,-1.89844236e-004
,,,-7.00000000e-009,-1.69219236e-004
,,,-6.97500000e-009,-1.49062986e-004
,,,-6.95000000e-009,-1.32187985e-004
,,,-6.92500000e-009,-1.20000485e-004
,,,-6.90000000e-009,-1.14375485e-004
,,,-6.87500000e-009,-1.16250485e-004
,,,-6.85000000e-009,-1.25156735e-004
,,,-6.82500000e-009,-1.40156736e-004
,,,-6.80000000e-009,-1.61250486e-004
,,,-6.77500000e-009,-1.85625486e-004
,,,-6.75000000e-009,-2.12812986e-004
,,,-6.72500000e-009,-2.40000486e-004
,,,-6.70000000e-009,-2.64844237e-004
,,,-6.67500000e-009,-2.86875487e-004
,,,-6.65000000e-009,-3.06562987e-004
,,,-6.62500000e-009,-3.22969237e-004
,,,-6.60000000e-009,-3.36094237e-004
,,,-6.57500000e-009,-3.46406737e-004
,,,-6.55000000e-009,-3.54375487e-004
,,,-6.52500000e-009,-3.60000487e-004
,,,-6.50000000e-009,-3.60937987e-004
,,,-6.47500000e-009,-3.60937987e-004
,,,-6.45000000e-009,-3.59531737e-004
,,,-6.42500000e-009,-3.58594237e-004
,,,-6.40000000e-009,-3.57656737e-004
,,,-6.37500000e-009,-3.57656737e-004
,,,-6.35000000e-009,-3.58594237e-004
,,,-6.32500000e-009,-3.60000487e-004
,,,-6.30000000e-009,-3.59531737e-004
,,,-6.27500000e-009,-3.59062987e-004
,,,-6.25000000e-009,-3.59531737e-004
,,,-6.22500000e-009,-3.60000487e-004
,,,-6.20000000e-009,-3.60937987e-004
,,,-6.17500000e-009,-3.61406737e-004
,,,-6.15000000e-009,-3.61406737e-004
,,,-6.12500000e-009,-3.60000487e-004
,,,-6.10000000e-009,-3.53906737e-004
,,,-6.07500000e-009,-3.45469237e-004
,,,-6.05000000e-009,-3.33750487e-004
,,,-6.02500000e-009,-3.20156737e-004
,,,-6.00000000e-009,-3.03750487e-004
,,,-5.97500000e-009,-2.85000487e-004
,,,-5.95000000e-009,-2.63906737e-004
,,,-5.92500000e-009,-2.40000486e-004
,,,-5.90000000e-009,-2.12812986e-004
,,,-5.87500000e-009,-1.83750486e-004
,,,-5.85000000e-009,-1.53750486e-004
,,,-5.82500000e-009,-1.22812985e-004
,,,-5.80000000e-009,-9.14067351e-005
,,,-5.77500000e-009,-6.04692348e-005
,,,-5.75000000e-009,-2.95317345e-005
,,,-5.72500000e-009,-4.84287738e-010
,,,-5.70000000e-009,2.76557660e-005
,,,-5.67500000e-009,5.29682662e-005
,,,-5.65000000e-009,7.49995164e-005
,,,-5.62500000e-009,9.28120165e-005
,,,-5.60000000e-009,1.06874517e-004
,,,-5.57500000e-009,1.15780767e-004
,,,-5.55000000e-009,1.19999517e-004
,,,-5.52500000e-009,1.19999517e-004
,,,-5.50000000e-009,1.14843267e-004
,,,-5.47500000e-009,1.08749517e-004
,,,-5.45000000e-009,1.02655767e-004
,,,-5.42500000e-009,9.79682666e-005
,,,-5.40000000e-009,9.65620166e-005
,,,-5.37500000e-009,9.93745166e-005
,,,-5.35000000e-009,1.07343267e-004
,,,-5.32500000e-009,1.19999517e-004
,,,-5.30000000e-009,1.35937017e-004
,,,-5.27500000e-009,1.56093267e-004
,,,-5.25000000e-009,1.77655767e-004
,,,-5.22500000e-009,1.99218267e-004
,,,-5.20000000e-009,2.17968268e-004
,,,-5.17500000e-009,2.32030768e-004
,,,-5.15000000e-009,2.39530768e-004
,,,-5.12500000e-009,2.39999518e-004
,,,-5.10000000e-009,2.30155768e-004
,,,-5.07500000e-009,2.14218268e-004
,,,-5.05000000e-009,1.94999517e-004
,,,-5.02500000e-009,1.73437017e-004
,,,-5.00000000e-009,1.53280767e-004
,,,-4.97500000e-009,1.36405767e-004
,,,-4.95000000e-009,1.24687017e-004
,,,-4.92500000e-009,1.19999517e-004
,,,-4.90000000e-009,1.21874517e-004
,,,-4.87500000e-009,1.31718267e-004
,,,-4.85000000e-009,1.48124517e-004
,,,-4.82500000e-009,1.67812017e-004
,,,-4.80000000e-009,1.89374517e-004
,,,-4.77500000e-009,2.09999518e-004
,,,-4.75000000e-009,2.27343268e-004
,,,-4.72500000e-009,2.39999518e-004
,,,-4.70000000e-009,2.46093268e-004
,,,-4.67500000e-009,2.47499518e-004
,,,-4.65000000e-009,2.44687018e-004
,,,-4.62500000e-009,2.39999518e-004
,,,-4.60000000e-009,2.34843268e-004
,,,-4.57500000e-009,2.32030768e-004
,,,-4.55000000e-009,2.33437018e-004
,,,-4.52500000e-009,2.39999518e-004
,,,-4.50000000e-009,2.51718268e-004
,,,-4.47500000e-009,2.68124518e-004
,,,-4.45000000e-009,2.88280768e-004
,,,-4.42500000e-009,3.09374518e-004
,,,-4.40000000e-009,3.29530769e-004
,,,-4.37500000e-009,3.45937019e-004
,,,-4.35000000e-009,3.56249519e-004
,,,-4.32500000e-009,3.59999519e-004
,,,-4.30000000e-009,3.54374519e-004
,,,-4.27500000e-009,3.42187019e-004
,,,-4.25000000e-009,3.24843269e-004
,,,-4.22500000e-009,3.04218268e-004
,,,-4.20000000e-009,2.83124518e-004
,,,-4.17500000e-009,2.63905768e-004
,,,-4.15000000e-009,2.48905768e-004
,,,-4.12500000e-009,2.39999518e-004
,,,-4.10000000e-009,2.38124518e-004
,,,-4.07500000e-009,2.43749518e-004
,,,-4.05000000e-009,2.56405768e-004
,,,-4.02500000e-009,2.74218268e-004
,,,-4.00000000e-009,2.95312018e-004
,,,-3.97500000e-009,3.18280768e-004
,,,-3.95000000e-009,3.40312019e-004
,,,-3.92500000e-009,3.59999519e-004
,,,-3.90000000e-009,3.73124519e-004
,,,-3.87500000e-009,3.81562019e-004
,,,-3.85000000e-009,3.84843269e-004
,,,-3.82500000e-009,3.84374519e-004
,,,-3.80000000e-009,3.80155769e-004
,,,-3.77500000e-009,3.74062019e-004
,,,-3.75000000e-009,3.66562019e-004
,,,-3.72500000e-009,3.59999519e-004
,,,-3.70000000e-009,3.51562019e-004
,,,-3.67500000e-009,3.45937019e-004
,,,-3.65000000e-009,3.42187019e-004
,,,-3.62500000e-009,3.41249519e-004
,,,-3.60000000e-009,3.43124519e-004
,,,-3.57500000e-009,3.46874519e-004
,,,-3.55000000e-009,3.52968269e-004
,,,-3.52500000e-009,3.59999519e-004
,,,-3.50000000e-009,3.63749519e-004
,,,-3.47500000e-009,3.66562019e-004
,,,-3.45000000e-009,3.68905769e-004
,,,-3.42500000e-009,3.69843269e-004
,,,-3.40000000e-009,3.69374519e-004
,,,-3.37500000e-009,3.67968269e-004
,,,-3.35000000e-009,3.64687019e-004
,,,-3.32500000e-009,3.59999519e-004
,,,-3.30000000e-009,3.49687019e-004
,,,-3.27500000e-009,3.37499519e-004
,,,-3.25000000e-009,3.23437019e-004
,,,-3.22500000e-009,3.07968268e-004
,,,-3.20000000e-009,2.91562018e-004
,,,-3.17500000e-009,2.74218268e-004
,,,-3.15000000e-009,2.56874518e-004
,,,-3.12500000e-009,2.39999518e-004
,,,-3.10000000e-009,2.19843268e-004
,,,-3.07500000e-009,2.00624517e-004
,,,-3.05000000e-009,1.82343267e-004
,,,-3.02500000e-009,1.65937017e-004
,,,-3.00000000e-009,1.51405767e-004
,,,-2.97500000e-009,1.38749517e-004
,,,-2.95000000e-009,1.28437017e-004
,,,-2.92500000e-009,1.19999517e-004
,,,-2.90000000e-009,1.09687017e-004
,,,-2.87500000e-009,9.89057666e-005
,,,-2.85000000e-009,8.76557665e-005
,,,-2.82500000e-009,7.45307664e-005
,,,-2.80000000e-009,5.95307662e-005
,,,-2.77500000e-009,4.21870161e-005
,,,-2.75000000e-009,2.24995159e-005
,,,-2.72500000e-009,-4.84287738e-010
,,,-2.70000000e-009,-2.67192345e-005
,,,-2.67500000e-009,-5.62504848e-005
,,,-2.65000000e-009,-8.76567350e-005
,,,-2.62500000e-009,-1.20000485e-004
,,,-2.60000000e-009,-1.52812986e-004
,,,-2.57500000e-009,-1.84219236e-004
,,,-2.55000000e-009,-2.13750486e-004
,,,-2.52500000e-009,-2.40000486e-004
,,,-2.50000000e-009,-2.62500487e-004
,,,-2.47500000e-009,-2.81719237e-004
,,,-2.45000000e-009,-2.98594237e-004
,,,-2.42500000e-009,-3.13125487e-004
,,,-2.40000000e-009,-3.25781737e-004
,,,-2.37500000e-009,-3.37969237e-004
,,,-2.35000000e-009,-3.49219237e-004
,,,-2.32500000e-009,-3.60000487e-004
,,,-2.30000000e-009,-3.71250488e-004
,,,-2.27500000e-009,-3.84375488e-004
,,,-2.25000000e-009,-3.98906738e-004
,,,-2.22500000e-009,-4.14844238e-004
,,,-2.20000000e-009,-4.31719238e-004
,,,-2.17500000e-009,-4.48594238e-004
,,,-2.15000000e-009,-4.65000488e-004
,,,-2.12500000e-009,-4.80000488e-004
,,,-2.10000000e-009,-4.94531739e-004
,,,-2.07500000e-009,-5.09531739e-004
,,,-2.05000000e-009,-5.24531739e-004
,,,-2.02500000e-009,-5.39531739e-004
,,,-2.00000000e-009,-5.55000489e-004
,,,-1.97500000e-009,-5.70469239e-004
,,,-1.95000000e-009,-5.85937989e-004
,,,-1.92500000e-009,-6.00000490e-004
,,,-1.90000000e-009,-6.15000490e-004
,,,-1.87500000e-009,-6.28125490e-004
,,,-1.85000000e-009,-6.38906740e-004
,,,-1.82500000e-009,-6.45000490e-004
,,,-1.80000000e-009,-6.45000490e-004
,,,-1.77500000e-009,-6.37969240e-004
,,,-1.75000000e-009,-6.22969240e-004
,,,-1.72500000e-009,-6.00000490e-004
,,,-1.70000000e-009,-5.77031739e-004
,,,-1.67500000e-009,-5.52187989e-004
,,,-1.65000000e-009,-5.27344239e-004
,,,-1.62500000e-009,-5.04844239e-004
,,,-1.60000000e-009,-4.87500489e-004
,,,-1.57500000e-009,-4.76250488e-004
,,,-1.55000000e-009,-4.73437988e-004
,,,-1.52500000e-009,-4.80000488e-004
,,,-1.50000000e-009,-5.09531739e-004
,,,-1.47500000e-009,-5.49844239e-004
,,,-1.45000000e-009,-5.98594239e-004
,,,-1.42500000e-009,-6.52031740e-004
,,,-1.40000000e-009,-7.06406740e-004
,,,-1.37500000e-009,-7.57969241e-004
,,,-1.35000000e-009,-8.02969241e-004
,,,-1.32500000e-009,-8.40000492e-004
,,,-1.30000000e-009,-8.82656742e-004
,,,-1.27500000e-009,-9.19219242e-004
,,,-1.25000000e-009,-9.51094243e-004
,,,-1.22500000e-009,-9.78750493e-004
,,,-1.20000000e-009,-1.00312549e-003
,,,-1.17500000e-009,-1.02703174e-003
,,,-1.15000000e-009,-1.05234424e-003
,,,-1.12500000e-009,-1.08000049e-003
,,,-1.10000000e-009,-1.12781299e-003
,,,-1.07500000e-009,-1.18312549e-003
,,,-1.05000000e-009,-1.24500050e-003
,,,-1.02500000e-009,-1.31062550e-003
,,,-1.00000000e-009,-1.37671925e-003
,,,-9.75000000e-010,-1.44187550e-003
,,,-9.50000000e-010,-1.50328175e-003
,,,-9.25000000e-010,-1.56000050e-003
,,,-9.00000000e-010,-1.62656300e-003
,,,-8.75000000e-010,-1.69312550e-003
,,,-8.50000000e-010,-1.76015675e-003
,,,-8.25000000e-010,-1.83000050e-003
,,,-8.00000000e-010,-1.90312550e-003
,,,-7.75000000e-010,-1.98140675e-003
,,,-7.50000000e-010,-2.06671925e-003
,,,-7.25000000e-010,-2.16000050e-003
,,,-7.00000000e-010,-2.27062550e-003
,,,-6.75000000e-010,-2.39250051e-003
,,,-6.50000000e-010,-2.52515676e-003
,,,-6.25000000e-010,-2.66578176e-003
,,,-6.00000000e-010,-2.81062551e-003
,,,-5.75000000e-010,-2.95687551e-003
,,,-5.50000000e-010,-3.10078176e-003
,,,-5.25000000e-010,-3.24000051e-003
,,,-5.00000000e-010,-3.36937551e-003
,,,-4.75000000e-010,-3.49312551e-003
,,,-4.50000000e-010,-3.60984427e-003
,,,-4.25000000e-010,-3.71906302e-003
,,,-4.00000000e-010,-3.82031302e-003
,,,-3.75000000e-010,-3.91406302e-003
,,,-3.50000000e-010,-4.00031302e-003
,,,-3.25000000e-010,-4.08000052e-003
,,,-3.00000000e-010,-4.14562552e-003
,,,-2.75000000e-010,-4.21125052e-003
,,,-2.50000000e-010,-4.27968802e-003
,,,-2.25000000e-010,-4.35140677e-003
,,,-2.00000000e-010,-4.42781302e-003
,,,-1.75000000e-010,-4.50890677e-003
,,,-1.50000000e-010,-4.59328177e-003
,,,-1.25000000e-010,-4.68000052e-003
,,,-1.00000000e-010,-4.75031303e-003
,,,-7.50000000e-011,-4.82156303e-003
,,,-5.00000000e-011,-4.89281303e-003
,,,-2.50000000e-011,-4.96125053e-003
,,,0.00000000e+000,-5.02500053e-003
,,,2.50000000e-011,-5.08078178e-003
,,,5.00000000e-011,-5.12625053e-003
,,,7.50000000e-011,-5.16000053e-003
,,,1.00000000e-010,-5.15906303e-003
,,,1.25000000e-010,-5.14875053e-003
,,,1.50000000e-010,-5.13234428e-003
,,,1.75000000e-010,-5.11171928e-003
,,,2.00000000e-010,-5.08968803e-003
,,,2.25000000e-010,-5.06953178e-003
,,,2.50000000e-010,-5.05265678e-003
,,,2.75000000e-010,-5.04000053e-003
,,,3.00000000e-010,-5.01187553e-003
,,,3.25000000e-010,-4.99218803e-003
,,,3.50000000e-010,-4.98187553e-003
,,,3.75000000e-010,-4.98140678e-003
,,,4.00000000e-010,-4.98937553e-003
,,,4.25000000e-010,-5.00343803e-003
,,,4.50000000e-010,-5.02171928e-003
,,,4.75000000e-010,-5.04000053e-003
,,,5.00000000e-010,-5.03625053e-003
,,,5.25000000e-010,-5.02687553e-003
,,,5.50000000e-010,-5.01046928e-003
,,,5.75000000e-010,-4.98656303e-003
,,,6.00000000e-010,-4.95375053e-003
,,,6.25000000e-010,-4.91203178e-003
,,,6.50000000e-010,-4.86093803e-003
,,,6.75000000e-010,-4.80000053e-003
,,,7.00000000e-010,-4.71421928e-003
,,,7.25000000e-010,-4.62140677e-003
,,,7.50000000e-010,-4.52437552e-003
,,,7.75000000e-010,-4.42640677e-003
,,,8.00000000e-010,-4.33125052e-003
,,,8.25000000e-010,-4.24078177e-003
,,,8.50000000e-010,-4.15687552e-003
,,,8.75000000e-010,-4.08000052e-003
,,,9.00000000e-010,-4.00031302e-003
,,,9.25000000e-010,-3.92390677e-003
,,,9.50000000e-010,-3.85125052e-003
,,,9.75000000e-010,-3.77953177e-003
,,,1.00000000e-009,-3.70828177e-003
,,,1.02500000e-009,-3.63562552e-003
,,,1.05000000e-009,-3.55968802e-003
,,,1.07500000e-009,-3.48000051e-003
,,,1.10000000e-009,-3.39140676e-003
,,,1.12500000e-009,-3.29625051e-003
,,,1.15000000e-009,-3.19734426e-003
,,,1.17500000e-009,-3.09796926e-003
,,,1.20000000e-009,-3.00093801e-003
,,,1.22500000e-009,-2.91093801e-003
,,,1.25000000e-009,-2.82984426e-003
,,,1.27500000e-009,-2.76000051e-003
,,,1.30000000e-009,-2.70140676e-003
,,,1.32500000e-009,-2.64984426e-003
,,,1.35000000e-009,-2.60437551e-003
,,,1.37500000e-009,-2.56359426e-003
,,,1.40000000e-009,-2.52468801e-003
,,,1.42500000e-009,-2.48625051e-003
,,,1.45000000e-009,-2.44546926e-003
,,,1.47500000e-009,-2.40000051e-003
,,,1.50000000e-009,-2.35125050e-003
,,,1.52500000e-009,-2.29125050e-003
,,,1.55000000e-009,-2.22140675e-003
,,,1.57500000e-009,-2.14312550e-003
,,,1.60000000e-009,-2.05921925e-003
,,,1.62500000e-009,-1.97203175e-003
,,,1.65000000e-009,-1.88484425e-003
,,,1.67500000e-009,-1.80000050e-003
,,,1.70000000e-009,-1.72687550e-003
,,,1.72500000e-009,-1.65656300e-003
,,,1.75000000e-009,-1.58953175e-003
,,,1.77500000e-009,-1.52671925e-003
,,,1.80000000e-009,-1.46812550e-003
,,,1.82500000e-009,-1.41468800e-003
,,,1.85000000e-009,-1.36546925e-003
,,,1.87500000e-009,-1.32000050e-003
,,,1.90000000e-009,-1.28531300e-003
,,,1.92500000e-009,-1.24921925e-003
,,,1.95000000e-009,-1.20984424e-003
,,,1.97500000e-009,-1.16671924e-003
,,,2.00000000e-009,-1.11984424e-003
,,,2.02500000e-009,-1.06921924e-003
,,,2.05000000e-009,-1.01578174e-003
,,,2.07500000e-009,-9.60000493e-004
,,,2.10000000e-009,-9.12187992e-004
,,,2.12500000e-009,-8.62031742e-004
,,,2.15000000e-009,-8.10469241e-004
,,,2.17500000e-009,-7.59375491e-004
,,,2.20000000e-009,-7.11094240e-004
,,,2.22500000e-009,-6.67500490e-004
,,,2.25000000e-009,-6.30000490e-004
,,,2.27500000e-009,-6.00000490e-004
,,,2.30000000e-009,-5.86875489e-004
,,,2.32500000e-009,-5.78906739e-004
,,,2.35000000e-009,-5.76094239e-004
,,,2.37500000e-009,-5.77031739e-004
,,,2.40000000e-009,-5.80781739e-004
,,,2.42500000e-009,-5.86406739e-004
,,,2.45000000e-009,-5.93437989e-004
,,,2.47500000e-009,-6.00000490e-004
,,,2.50000000e-009,-6.12187990e-004
,,,2.52500000e-009,-6.19687990e-004
,,,2.55000000e-009,-6.23437990e-004
,,,2.57500000e-009,-6.22969240e-004
,,,2.60000000e-009,-6.19219240e-004
,,,2.62500000e-009,-6.13594240e-004
,,,2.65000000e-009,-6.06562990e-004
,,,2.67500000e-009,-6.00000490e-004
,,,2.70000000e-009,-5.96719239e-004
,,,2.72500000e-009,-5.92969239e-004
,,,2.75000000e-009,-5.89687989e-004
,,,2.77500000e-009,-5.87812989e-004
,,,2.80000000e-009,-5.87812989e-004
,,,2.82500000e-009,-5.89687989e-004
,,,2.85000000e-009,-5.93906739e-004
,,,2.87500000e-009,-6.00000490e-004
,,,2.90000000e-009,-6.07500490e-004
,,,2.92500000e-009,-6.14062990e-004
,,,2.95000000e-009,-6.18750490e-004
,,,2.97500000e-009,-6.21094240e-004
,,,3.00000000e-009,-6.20625490e-004
,,,3.02500000e-009,-6.16875490e-004
,,,3.05000000e-009,-6.10312990e-004
,,,3.07500000e-009,-6.00000490e-004
,,,3.10000000e-009,-5.85937989e-004
,,,3.12500000e-009,-5.69531739e-004
,,,3.15000000e-009,-5.51250489e-004
,,,3.17500000e-009,-5.32969239e-004
,,,3.20000000e-009,-5.15625489e-004
,,,3.22500000e-009,-5.01094239e-004
,,,3.25000000e-009,-4.88906739e-004
,,,3.27500000e-009,-4.80000488e-004
,,,3.30000000e-009,-4.72031738e-004
,,,3.32500000e-009,-4.65469238e-004
,,,3.35000000e-009,-4.57969238e-004
,,,3.37500000e-009,-4.49062988e-004
,,,3.40000000e-009,-4.35937988e-004
,,,3.42500000e-009,-4.17187988e-004
,,,3.45000000e-009,-3.92344238e-004
,,,3.47500000e-009,-3.60000487e-004
,,,3.50000000e-009,-3.21562987e-004
,,,3.52500000e-009,-2.77031737e-004
,,,3.55000000e-009,-2.28281736e-004
,,,3.57500000e-009,-1.77187986e-004
,,,3.60000000e-009,-1.26562985e-004
,,,3.62500000e-009,-7.87504850e-005
,,,3.65000000e-009,-3.60942346e-005
,,,3.67500000e-009,-4.84287738e-010
,,,3.70000000e-009,2.20307659e-005
,,,3.72500000e-009,3.56245160e-005
,,,3.75000000e-009,4.07807661e-005
,,,3.77500000e-009,3.89057661e-005
,,,3.80000000e-009,3.23432660e-005
,,,3.82500000e-009,2.20307659e-005
,,,3.85000000e-009,1.07807658e-005
,,,3.87500000e-009,-4.84287738e-010
,,,3.90000000e-009,-1.31254844e-005
,,,3.92500000e-009,-2.29692345e-005
,,,3.95000000e-009,-2.81254845e-005
,,,3.97500000e-009,-2.85942345e-005
,,,4.00000000e-009,-2.53129845e-005
,,,4.02500000e-009,-1.87504845e-005
,,,4.05000000e-009,-1.03129844e-005
,,,4.07500000e-009,-4.84287738e-010
,,,4.10000000e-009,5.15576576e-006
,,,4.12500000e-009,9.37451579e-006
,,,4.15000000e-009,1.31245158e-005
,,,4.17500000e-009,1.49995158e-005
,,,4.20000000e-009,1.49995158e-005
,,,4.22500000e-009,1.26557658e-005
,,,4.25000000e-009,7.96826578e-006
,,,4.27500000e-009,-4.84287738e-010
,,,4.30000000e-009,-1.50004844e-005
,,,4.32500000e-009,-3.37504846e-005
,,,4.35000000e-009,-5.67192348e-005
,,,4.37500000e-009,-8.39067350e-005
,,,4.40000000e-009,-1.16250485e-004
,,,4.42500000e-009,-1.53281736e-004
,,,4.45000000e-009,-1.95000486e-004
,,,4.47500000e-009,-2.40000486e-004
,,,4.50000000e-009,-2.87812987e-004
,,,4.52500000e-009,-3.34219237e-004
,,,4.55000000e-009,-3.77344238e-004
,,,4.57500000e-009,-4.15312988e-004
,,,4.60000000e-009,-4.46250488e-004
,,,4.62500000e-009,-4.67344238e-004
,,,4.65000000e-009,-4.79062988e-004
,,,4.67500000e-009,-4.80000488e-004
,,,4.70000000e-009,-4.69687988e-004
,,,4.72500000e-009,-4.52344238e-004
,,,4.75000000e-009,-4.30312988e-004
,,,4.77500000e-009,-4.07812988e-004
,,,4.80000000e-009,-3.86719238e-004
,,,4.82500000e-009,-3.70781738e-004
,,,4.85000000e-009,-3.61406737e-004
,,,4.87500000e-009,-3.60000487e-004
,,,4.90000000e-009,-3.66094237e-004
,,,4.92500000e-009,-3.80156738e-004
,,,4.95000000e-009,-3.99844238e-004
,,,4.97500000e-009,-4.22812988e-004
,,,5.00000000e-009,-4.45312988e-004
,,,5.02500000e-009,-4.64531738e-004
,,,5.05000000e-009,-4.76719238e-004
,,,5.07500000e-009,-4.80000488e-004
,,,5.10000000e-009,-4.71094238e-004
,,,5.12500000e-009,-4.51875488e-004
,,,5.15000000e-009,-4.24219238e-004
,,,5.17500000e-009,-3.90000488e-004
,,,5.20000000e-009,-3.51562987e-004
,,,5.22500000e-009,-3.12187987e-004
,,,5.25000000e-009,-2.73750487e-004
,,,5.27500000e-009,-2.40000486e-004
,,,5.30000000e-009,-2.12812986e-004
,,,5.32500000e-009,-1.94062986e-004
,,,5.35000000e-009,-1.84687986e-004
,,,5.37500000e-009,-1.83281736e-004
,,,5.40000000e-009,-1.89844236e-004
,,,5.42500000e-009,-2.02969236e-004
,,,5.45000000e-009,-2.20312986e-004
,,,5.47500000e-009,-2.40000486e-004
,,,5.50000000e-009,-2.61094237e-004
,,,5.52500000e-009,-2.81719237e-004
,,,5.55000000e-009,-3.00469237e-004
,,,5.57500000e-009,-3.17344237e-004
,,,5.60000000e-009,-3.31406737e-004
,,,5.62500000e-009,-3.43125487e-004
,,,5.65000000e-009,-3.52969237e-004
,,,5.67500000e-009,-3.60000487e-004
,,,5.70000000e-009,-3.66094237e-004
,,,5.72500000e-009,-3.69844238e-004
,,,5.75000000e-009,-3.71719238e-004
,,,5.77500000e-009,-3.72187988e-004
,,,5.80000000e-009,-3.70781738e-004
,,,5.82500000e-009,-3.67969237e-004
,,,5.85000000e-009,-3.64687987e-004
,,,5.87500000e-009,-3.60000487e-004
,,,5.90000000e-009,-3.55312987e-004
