RawData/DifferentLengths/R3/R3_12pt5_5mV/wave017_Ch3.csv

"Record Length",1000,"Points",-7.72500000e-009,-1.92192345e-005
"Sample Interval",2.50000000e-011,s,-7.70000000e-009,-2.67192345e-005
"Trigger Point",309,"Samples",-7.67500000e-009,-3.09379846e-005
"Trigger Time",9.44345277e-012,s,-7.65000000e-009,-2.85942345e-005
"",,,-7.62500000e-009,-1.87504845e-005
"Horizontal Offset",-7.72500000e-009,s,-7.60000000e-009,-4.84287738e-010
,,,-7.57500000e-009,2.62495159e-005
,,,-7.55000000e-009,5.95307662e-005
,,,-7.52500000e-009,9.74995166e-005
,,,-7.50000000e-009,1.36405767e-004
,,,-7.47500000e-009,1.73437017e-004
,,,-7.45000000e-009,2.05312017e-004
,,,-7.42500000e-009,2.27812018e-004
,,,-7.40000000e-009,2.39999518e-004
,,,-7.37500000e-009,2.35780768e-004
,,,-7.35000000e-009,2.19843268e-004
,,,-7.32500000e-009,1.93593267e-004
,,,-7.30000000e-009,1.58905767e-004
,,,-7.27500000e-009,1.18593267e-004
,,,-7.25000000e-009,7.64057664e-005
,,,-7.22500000e-009,3.60932660e-005
,,,-7.20000000e-009,-4.84287738e-010
,,,-7.17500000e-009,-3.09379846e-005
,,,-7.15000000e-009,-5.25004847e-005
,,,-7.12500000e-009,-6.42192348e-005
,,,-7.10000000e-009,-6.65629849e-005
,,,-7.07500000e-009,-5.95317348e-005
,,,-7.05000000e-009,-4.50004847e-005
,,,-7.02500000e-009,-2.43754845e-005
,,,-7.00000000e-009,-4.84287738e-010
,,,-6.97500000e-009,2.53120159e-005
,,,-6.95000000e-009,5.06245162e-005
,,,-6.92500000e-009,7.35932664e-005
,,,-6.90000000e-009,9.28120165e-005
,,,-6.87500000e-009,1.07812017e-004
,,,-6.85000000e-009,1.17655767e-004
,,,-6.82500000e-009,1.21405767e-004
,,,-6.80000000e-009,1.19999517e-004
,,,-6.77500000e-009,1.11093267e-004
,,,-6.75000000e-009,9.84370166e-005
,,,-6.72500000e-009,8.24995164e-005
,,,-6.70000000e-009,6.46870163e-005
,,,-6.67500000e-009,4.68745161e-005
,,,-6.65000000e-009,2.95307660e-005
,,,-6.62500000e-009,1.35932658e-005
,,,-6.60000000e-009,-4.84287738e-010
,,,-6.57500000e-009,-1.26567344e-005
,,,-6.55000000e-009,-2.39067345e-005
,,,-6.52500000e-009,-3.46879846e-005
,,,-6.50000000e-009,-4.64067347e-005
,,,-6.47500000e-009,-6.00004848e-005
,,,-6.45000000e-009,-7.64067350e-005
,,,-6.42500000e-009,-9.65629851e-005
,,,-6.40000000e-009,-1.20000485e-004
,,,-6.37500000e-009,-1.45312986e-004
,,,-6.35000000e-009,-1.71562986e-004
,,,-6.32500000e-009,-1.97344236e-004
,,,-6.30000000e-009,-2.20781736e-004
,,,-6.27500000e-009,-2.38594236e-004
,,,-6.25000000e-009,-2.48437986e-004
,,,-6.22500000e-009,-2.49375486e-004
,,,-6.20000000e-009,-2.40000486e-004
,,,-6.17500000e-009,-2.20781736e-004
,,,-6.15000000e-009,-1.92656736e-004
,,,-6.12500000e-009,-1.58906736e-004
,,,-6.10000000e-009,-1.21875485e-004
,,,-6.07500000e-009,-8.43754850e-005
,,,-6.05000000e-009,-4.96879847e-005
,,,-6.02500000e-009,-2.10942345e-005
,,,-6.00000000e-009,-4.84287738e-010
,,,-5.97500000e-009,1.03120158e-005
,,,-5.95000000e-009,1.07807658e-005
,,,-5.92500000e-009,1.40576572e-006
,,,-5.90000000e-009,-1.59379844e-005
,,,-5.87500000e-009,-3.89067346e-005
,,,-5.85000000e-009,-6.60942349e-005
,,,-5.82500000e-009,-9.37504851e-005
,,,-5.80000000e-009,-1.20000485e-004
,,,-5.77500000e-009,-1.41094236e-004
,,,-5.75000000e-009,-1.56562986e-004
,,,-5.72500000e-009,-1.65000486e-004
,,,-5.70000000e-009,-1.66875486e-004
,,,-5.67500000e-009,-1.62187986e-004
,,,-5.65000000e-009,-1.52344236e-004
,,,-5.62500000e-009,-1.37344235e-004
,,,-5.60000000e-009,-1.20000485e-004
,,,-5.57500000e-009,-1.00781735e-004
,,,-5.55000000e-009,-8.34379850e-005
,,,-5.52500000e-009,-7.03129849e-005
,,,-5.50000000e-009,-6.32817348e-005
,,,-5.47500000e-009,-6.42192348e-005
,,,-5.45000000e-009,-7.35942349e-005
,,,-5.42500000e-009,-9.28129851e-005
,,,-5.40000000e-009,-1.20000485e-004
,,,-5.37500000e-009,-1.54219236e-004
,,,-5.35000000e-009,-1.93125486e-004
,,,-5.32500000e-009,-2.33437986e-004
,,,-5.30000000e-009,-2.72812987e-004
,,,-5.27500000e-009,-3.07500487e-004
,,,-5.25000000e-009,-3.35156737e-004
,,,-5.22500000e-009,-3.53437987e-004
,,,-5.20000000e-009,-3.60000487e-004
,,,-5.17500000e-009,-3.52500487e-004
,,,-5.15000000e-009,-3.33281737e-004
,,,-5.12500000e-009,-3.04687987e-004
,,,-5.10000000e-009,-2.69531737e-004
,,,-5.07500000e-009,-2.30156736e-004
,,,-5.05000000e-009,-1.90781736e-004
,,,-5.02500000e-009,-1.53281736e-004
,,,-5.00000000e-009,-1.20000485e-004
,,,-4.97500000e-009,-9.23442351e-005
,,,-4.95000000e-009,-7.07817349e-005
,,,-4.92500000e-009,-5.48442348e-005
,,,-4.90000000e-009,-4.31254847e-005
,,,-4.87500000e-009,-3.42192346e-005
,,,-4.85000000e-009,-2.48442345e-005
,,,-4.82500000e-009,-1.40629844e-005
,,,-4.80000000e-009,-4.84287738e-010
,,,-4.77500000e-009,1.64057659e-005
,,,-4.75000000e-009,3.60932660e-005
,,,-4.72500000e-009,5.76557662e-005
,,,-4.70000000e-009,7.87495164e-005
,,,-4.67500000e-009,9.74995166e-005
,,,-4.65000000e-009,1.11562017e-004
,,,-4.62500000e-009,1.19530767e-004
,,,-4.60000000e-009,1.19999517e-004
,,,-4.57500000e-009,1.10624517e-004
,,,-4.55000000e-009,9.46870165e-005
,,,-4.52500000e-009,7.45307664e-005
,,,-4.50000000e-009,5.24995162e-005
,,,-4.47500000e-009,3.14057660e-005
,,,-4.45000000e-009,1.40620158e-005
,,,-4.42500000e-009,3.28076574e-006
,,,-4.40000000e-009,-4.84287738e-010
,,,-4.37500000e-009,2.81201574e-006
,,,-4.35000000e-009,1.40620158e-005
,,,-4.32500000e-009,3.09370160e-005
,,,-4.30000000e-009,5.15620162e-005
,,,-4.27500000e-009,7.35932664e-005
,,,-4.25000000e-009,9.37495165e-005
,,,-4.22500000e-009,1.09687017e-004
,,,-4.20000000e-009,1.19999517e-004
,,,-4.17500000e-009,1.18593267e-004
,,,-4.15000000e-009,1.10624517e-004
,,,-4.12500000e-009,9.60932665e-005
,,,-4.10000000e-009,7.73432664e-005
,,,-4.07500000e-009,5.57807662e-005
,,,-4.05000000e-009,3.46870160e-005
,,,-4.02500000e-009,1.54682658e-005
,,,-4.00000000e-009,-4.84287738e-010
,,,-3.97500000e-009,-1.26567344e-005
,,,-3.95000000e-009,-1.96879845e-005
,,,-3.92500000e-009,-2.15629845e-005
,,,-3.90000000e-009,-1.92192345e-005
,,,-3.87500000e-009,-1.45317344e-005
,,,-3.85000000e-009,-8.43798436e-006
,,,-3.82500000e-009,-3.28173432e-006
,,,-3.80000000e-009,-4.84287738e-010
,,,-3.77500000e-009,-3.28173432e-006
,,,-3.75000000e-009,-1.03129844e-005
,,,-3.72500000e-009,-2.25004845e-005
,,,-3.70000000e-009,-3.79692346e-005
,,,-3.67500000e-009,-5.71879848e-005
,,,-3.65000000e-009,-7.78129850e-005
,,,-3.62500000e-009,-9.89067351e-005
,,,-3.60000000e-009,-1.20000485e-004
,,,-3.57500000e-009,-1.39687986e-004
,,,-3.55000000e-009,-1.57969236e-004
,,,-3.52500000e-009,-1.74844236e-004
,,,-3.50000000e-009,-1.89844236e-004
,,,-3.47500000e-009,-2.03906736e-004
,,,-3.45000000e-009,-2.17031736e-004
,,,-3.42500000e-009,-2.29219236e-004
,,,-3.40000000e-009,-2.40000486e-004
,,,-3.37500000e-009,-2.49844236e-004
,,,-3.35000000e-009,-2.57812987e-004
,,,-3.32500000e-009,-2.63906737e-004
,,,-3.30000000e-009,-2.66719237e-004
,,,-3.27500000e-009,-2.66250487e-004
,,,-3.25000000e-009,-2.61562987e-004
,,,-3.22500000e-009,-2.52656736e-004
,,,-3.20000000e-009,-2.40000486e-004
,,,-3.17500000e-009,-2.25937986e-004
,,,-3.15000000e-009,-2.12344236e-004
,,,-3.12500000e-009,-2.01094236e-004
,,,-3.10000000e-009,-1.94062986e-004
,,,-3.07500000e-009,-1.93594236e-004
,,,-3.05000000e-009,-2.00625486e-004
,,,-3.02500000e-009,-2.16094236e-004
,,,-3.00000000e-009,-2.40000486e-004
,,,-2.97500000e-009,-2.73750487e-004
,,,-2.95000000e-009,-3.13125487e-004
,,,-2.92500000e-009,-3.54844237e-004
,,,-2.90000000e-009,-3.95625488e-004
,,,-2.87500000e-009,-4.31719238e-004
,,,-2.85000000e-009,-4.59375488e-004
,,,-2.82500000e-009,-4.76250488e-004
,,,-2.80000000e-009,-4.80000488e-004
,,,-2.77500000e-009,-4.70156738e-004
,,,-2.75000000e-009,-4.48125488e-004
,,,-2.72500000e-009,-4.17187988e-004
,,,-2.70000000e-009,-3.79687988e-004
,,,-2.67500000e-009,-3.39844237e-004
,,,-2.65000000e-009,-3.00937987e-004
,,,-2.62500000e-009,-2.66719237e-004
,,,-2.60000000e-009,-2.40000486e-004
,,,-2.57500000e-009,-2.24531736e-004
,,,-2.55000000e-009,-2.20781736e-004
,,,-2.52500000e-009,-2.27344236e-004
,,,-2.50000000e-009,-2.43281736e-004
,,,-2.47500000e-009,-2.67187987e-004
,,,-2.45000000e-009,-2.95781737e-004
,,,-2.42500000e-009,-3.27656737e-004
,,,-2.40000000e-009,-3.60000487e-004
,,,-2.37500000e-009,-3.91875488e-004
,,,-2.35000000e-009,-4.22344238e-004
,,,-2.32500000e-009,-4.50937988e-004
,,,-2.30000000e-009,-4.78594238e-004
,,,-2.27500000e-009,-5.06719239e-004
,,,-2.25000000e-009,-5.35312989e-004
,,,-2.22500000e-009,-5.66719239e-004
,,,-2.20000000e-009,-6.00000490e-004
,,,-2.17500000e-009,-6.33750490e-004
,,,-2.15000000e-009,-6.68906740e-004
,,,-2.12500000e-009,-7.05000490e-004
,,,-2.10000000e-009,-7.40156741e-004
,,,-2.07500000e-009,-7.72969241e-004
,,,-2.05000000e-009,-8.01562991e-004
,,,-2.02500000e-009,-8.24531741e-004
,,,-2.00000000e-009,-8.40000492e-004
,,,-1.97500000e-009,-8.43750492e-004
,,,-1.95000000e-009,-8.40000492e-004
,,,-1.92500000e-009,-8.29219241e-004
,,,-1.90000000e-009,-8.12812991e-004
,,,-1.87500000e-009,-7.92187991e-004
,,,-1.85000000e-009,-7.68750491e-004
,,,-1.82500000e-009,-7.44375491e-004
,,,-1.80000000e-009,-7.20000491e-004
,,,-1.77500000e-009,-6.96562990e-004
,,,-1.75000000e-009,-6.75937990e-004
,,,-1.72500000e-009,-6.58125490e-004
,,,-1.70000000e-009,-6.43125490e-004
,,,-1.67500000e-009,-6.30937990e-004
,,,-1.65000000e-009,-6.20156740e-004
,,,-1.62500000e-009,-6.09844240e-004
,,,-1.60000000e-009,-6.00000490e-004
,,,-1.57500000e-009,-5.92031739e-004
,,,-1.55000000e-009,-5.83125489e-004
,,,-1.52500000e-009,-5.72812989e-004
,,,-1.50000000e-009,-5.60625489e-004
,,,-1.47500000e-009,-5.45625489e-004
,,,-1.45000000e-009,-5.26875489e-004
,,,-1.42500000e-009,-5.05312989e-004
,,,-1.40000000e-009,-4.80000488e-004
,,,-1.37500000e-009,-4.61719238e-004
,,,-1.35000000e-009,-4.43437988e-004
,,,-1.32500000e-009,-4.26562988e-004
,,,-1.30000000e-009,-4.10156738e-004
,,,-1.27500000e-009,-3.95156738e-004
,,,-1.25000000e-009,-3.81562988e-004
,,,-1.22500000e-009,-3.69844238e-004
,,,-1.20000000e-009,-3.60000487e-004
,,,-1.17500000e-009,-3.70781738e-004
,,,-1.15000000e-009,-3.86250488e-004
,,,-1.12500000e-009,-4.04531738e-004
,,,-1.10000000e-009,-4.24219238e-004
,,,-1.07500000e-009,-4.42969238e-004
,,,-1.05000000e-009,-4.58906738e-004
,,,-1.02500000e-009,-4.71562988e-004
,,,-1.00000000e-009,-4.80000488e-004
,,,-9.75000000e-010,-5.09531739e-004
,,,-9.50000000e-010,-5.39531739e-004
,,,-9.25000000e-010,-5.69531739e-004
,,,-9.00000000e-010,-5.99062989e-004
,,,-8.75000000e-010,-6.28594240e-004
,,,-8.50000000e-010,-6.58125490e-004
,,,-8.25000000e-010,-6.88125490e-004
,,,-8.00000000e-010,-7.20000491e-004
,,,-7.75000000e-010,-7.80937991e-004
,,,-7.50000000e-010,-8.49375492e-004
,,,-7.25000000e-010,-9.23437992e-004
,,,-7.00000000e-010,-1.00171924e-003
,,,-6.75000000e-010,-1.08140674e-003
,,,-6.50000000e-010,-1.16156299e-003
,,,-6.25000000e-010,-1.24125050e-003
,,,-6.00000000e-010,-1.32000050e-003
,,,-5.75000000e-010,-1.42265675e-003
,,,-5.50000000e-010,-1.53093800e-003
,,,-5.25000000e-010,-1.64390675e-003
,,,-5.00000000e-010,-1.76156300e-003
,,,-4.75000000e-010,-1.88390675e-003
,,,-4.50000000e-010,-2.01046925e-003
,,,-4.25000000e-010,-2.14265675e-003
,,,-4.00000000e-010,-2.28000050e-003
,,,-3.75000000e-010,-2.44078176e-003
,,,-3.50000000e-010,-2.61187551e-003
,,,-3.25000000e-010,-2.79140676e-003
,,,-3.00000000e-010,-2.97703176e-003
,,,-2.75000000e-010,-3.16500051e-003
,,,-2.50000000e-010,-3.35343801e-003
,,,-2.25000000e-010,-3.53906302e-003
,,,-2.00000000e-010,-3.72000052e-003
,,,-1.75000000e-010,-3.89953177e-003
,,,-1.50000000e-010,-4.07671927e-003
,,,-1.25000000e-010,-4.25109427e-003
,,,-1.00000000e-010,-4.42125052e-003
,,,-7.50000000e-011,-4.58578177e-003
,,,-5.00000000e-011,-4.74468803e-003
,,,-2.50000000e-011,-4.89609428e-003
,,,0.00000000e+000,-5.04000053e-003
,,,2.50000000e-011,-5.16890678e-003
,,,5.00000000e-011,-5.29593803e-003
,,,7.50000000e-011,-5.42109428e-003
,,,1.00000000e-010,-5.54484428e-003
,,,1.25000000e-010,-5.66578178e-003
,,,1.50000000e-010,-5.78250053e-003
,,,1.75000000e-010,-5.89406304e-003
,,,2.00000000e-010,-6.00000054e-003
,,,2.25000000e-010,-6.08203179e-003
,,,2.50000000e-010,-6.16500054e-003
,,,2.75000000e-010,-6.24984429e-003
,,,3.00000000e-010,-6.33796929e-003
,,,3.25000000e-010,-6.42984429e-003
,,,3.50000000e-010,-6.52500054e-003
,,,3.75000000e-010,-6.62203179e-003
,,,4.00000000e-010,-6.72000054e-003
,,,4.25000000e-010,-6.79171929e-003
,,,4.50000000e-010,-6.86671929e-003
,,,4.75000000e-010,-6.94453179e-003
,,,5.00000000e-010,-7.02421930e-003
,,,5.25000000e-010,-7.10390680e-003
,,,5.50000000e-010,-7.18171930e-003
,,,5.75000000e-010,-7.25437555e-003
,,,6.00000000e-010,-7.32000055e-003
,,,6.25000000e-010,-7.34484430e-003
,,,6.50000000e-010,-7.36406305e-003
,,,6.75000000e-010,-7.37953180e-003
,,,7.00000000e-010,-7.39312555e-003
,,,7.25000000e-010,-7.40578180e-003
,,,7.50000000e-010,-7.41796930e-003
,,,7.75000000e-010,-7.42968805e-003
,,,8.00000000e-010,-7.44000055e-003
,,,8.25000000e-010,-7.41656305e-003
,,,8.50000000e-010,-7.39171930e-003
,,,8.75000000e-010,-7.36593805e-003
,,,9.00000000e-010,-7.33875055e-003
,,,9.25000000e-010,-7.31062555e-003
,,,9.50000000e-010,-7.27875055e-003
,,,9.75000000e-010,-7.24265680e-003
,,,1.00000000e-009,-7.20000055e-003
,,,1.02500000e-009,-7.12171930e-003
,,,1.05000000e-009,-7.03593805e-003
,,,1.07500000e-009,-6.94500054e-003
,,,1.10000000e-009,-6.85078179e-003
,,,1.12500000e-009,-6.75609429e-003
,,,1.15000000e-009,-6.66187554e-003
,,,1.17500000e-009,-6.57000054e-003
,,,1.20000000e-009,-6.48000054e-003
,,,1.22500000e-009,-6.37265679e-003
,,,1.25000000e-009,-6.26531304e-003
,,,1.27500000e-009,-6.15937554e-003
,,,1.30000000e-009,-6.05484429e-003
,,,1.32500000e-009,-5.95125054e-003
,,,1.35000000e-009,-5.84812554e-003
,,,1.37500000e-009,-5.74453178e-003
,,,1.40000000e-009,-5.64000053e-003
,,,1.42500000e-009,-5.52234428e-003
,,,1.45000000e-009,-5.40000053e-003
,,,1.47500000e-009,-5.27531303e-003
,,,1.50000000e-009,-5.15015678e-003
,,,1.52500000e-009,-5.02593803e-003
,,,1.55000000e-009,-4.90546928e-003
,,,1.57500000e-009,-4.79015678e-003
,,,1.60000000e-009,-4.68000052e-003
,,,1.62500000e-009,-4.57218802e-003
,,,1.65000000e-009,-4.46531302e-003
,,,1.67500000e-009,-4.35890677e-003
,,,1.70000000e-009,-4.25390677e-003
,,,1.72500000e-009,-4.14937552e-003
,,,1.75000000e-009,-4.04578177e-003
,,,1.77500000e-009,-3.94265677e-003
,,,1.80000000e-009,-3.84000052e-003
,,,1.82500000e-009,-3.73968802e-003
,,,1.85000000e-009,-3.63468802e-003
,,,1.87500000e-009,-3.52546926e-003
,,,1.90000000e-009,-3.41437551e-003
,,,1.92500000e-009,-3.30375051e-003
,,,1.95000000e-009,-3.19640676e-003
,,,1.97500000e-009,-3.09421926e-003
,,,2.00000000e-009,-3.00000051e-003
,,,2.02500000e-009,-2.92218801e-003
,,,2.05000000e-009,-2.84812551e-003
,,,2.07500000e-009,-2.77875051e-003
,,,2.10000000e-009,-2.71500051e-003
,,,2.12500000e-009,-2.65687551e-003
,,,2.15000000e-009,-2.60484426e-003
,,,2.17500000e-009,-2.55984426e-003
,,,2.20000000e-009,-2.52000051e-003
,,,2.22500000e-009,-2.49140676e-003
,,,2.25000000e-009,-2.45953176e-003
,,,2.27500000e-009,-2.42296926e-003
,,,2.30000000e-009,-2.38078175e-003
,,,2.32500000e-009,-2.33343800e-003
,,,2.35000000e-009,-2.28046925e-003
,,,2.37500000e-009,-2.22234425e-003
,,,2.40000000e-009,-2.16000050e-003
,,,2.42500000e-009,-2.10046925e-003
,,,2.45000000e-009,-2.03250050e-003
,,,2.47500000e-009,-1.95796925e-003
,,,2.50000000e-009,-1.87875050e-003
,,,2.52500000e-009,-1.79671925e-003
,,,2.55000000e-009,-1.71468800e-003
,,,2.57500000e-009,-1.63500050e-003
,,,2.60000000e-009,-1.56000050e-003
,,,2.62500000e-009,-1.49906300e-003
,,,2.65000000e-009,-1.44140675e-003
,,,2.67500000e-009,-1.38796925e-003
,,,2.70000000e-009,-1.33921925e-003
,,,2.72500000e-009,-1.29609425e-003
,,,2.75000000e-009,-1.25859425e-003
,,,2.77500000e-009,-1.22718799e-003
,,,2.80000000e-009,-1.20000049e-003
,,,2.82500000e-009,-1.18453174e-003
,,,2.85000000e-009,-1.16765674e-003
,,,2.87500000e-009,-1.14703174e-003
,,,2.90000000e-009,-1.12125049e-003
,,,2.92500000e-009,-1.09031299e-003
,,,2.95000000e-009,-1.05281299e-003
,,,2.97500000e-009,-1.00921924e-003
,,,3.00000000e-009,-9.60000493e-004
,,,3.02500000e-009,-9.14531742e-004
,,,3.05000000e-009,-8.63906742e-004
,,,3.07500000e-009,-8.11406741e-004
,,,3.10000000e-009,-7.58906741e-004
,,,3.12500000e-009,-7.09219240e-004
,,,3.15000000e-009,-6.64687990e-004
,,,3.17500000e-009,-6.28125490e-004
,,,3.20000000e-009,-6.00000490e-004
,,,3.22500000e-009,-5.90156739e-004
,,,3.25000000e-009,-5.86875489e-004
,,,3.27500000e-009,-5.88750489e-004
,,,3.30000000e-009,-5.93437989e-004
,,,3.32500000e-009,-5.98594239e-004
,,,3.35000000e-009,-6.02812990e-004
,,,3.37500000e-009,-6.03750490e-004
,,,3.40000000e-009,-6.00000490e-004
,,,3.42500000e-009,-5.99531739e-004
,,,3.45000000e-009,-5.92031739e-004
,,,3.47500000e-009,-5.78437989e-004
,,,3.50000000e-009,-5.59687989e-004
,,,3.52500000e-009,-5.38594239e-004
,,,3.55000000e-009,-5.16562989e-004
,,,3.57500000e-009,-4.96406739e-004
,,,3.60000000e-009,-4.80000488e-004
,,,3.62500000e-009,-4.75781738e-004
,,,3.65000000e-009,-4.77187988e-004
,,,3.67500000e-009,-4.84687989e-004
,,,3.70000000e-009,-4.98750489e-004
,,,3.72500000e-009,-5.18437989e-004
,,,3.75000000e-009,-5.42812989e-004
,,,3.77500000e-009,-5.70469239e-004
,,,3.80000000e-009,-6.00000490e-004
,,,3.82500000e-009,-6.32344240e-004
,,,3.85000000e-009,-6.61406740e-004
,,,3.87500000e-009,-6.86250490e-004
,,,3.90000000e-009,-7.05469240e-004
,,,3.92500000e-009,-7.18125491e-004
,,,3.95000000e-009,-7.24687991e-004
,,,3.97500000e-009,-7.25156741e-004
,,,4.00000000e-009,-7.20000491e-004
,,,4.02500000e-009,-7.12031740e-004
,,,4.05000000e-009,-7.01719240e-004
,,,4.07500000e-009,-6.91406740e-004
,,,4.10000000e-009,-6.84375490e-004
,,,4.12500000e-009,-6.82031740e-004
,,,4.15000000e-009,-6.86250490e-004
,,,4.17500000e-009,-6.98906740e-004
,,,4.20000000e-009,-7.20000491e-004
,,,4.22500000e-009,-7.48125491e-004
,,,4.25000000e-009,-7.82344241e-004
,,,4.27500000e-009,-8.20312991e-004
,,,4.30000000e-009,-8.59219242e-004
,,,4.32500000e-009,-8.95312992e-004
,,,4.35000000e-009,-9.26250492e-004
,,,4.37500000e-009,-9.48281743e-004
,,,4.40000000e-009,-9.60000493e-004
,,,4.42500000e-009,-9.57656743e-004
,,,4.45000000e-009,-9.43594242e-004
,,,4.47500000e-009,-9.18750492e-004
,,,4.50000000e-009,-8.85937992e-004
,,,4.52500000e-009,-8.46562992e-004
,,,4.55000000e-009,-8.03906741e-004
,,,4.57500000e-009,-7.61250491e-004
,,,4.60000000e-009,-7.20000491e-004
,,,4.62500000e-009,-6.82500490e-004
,,,4.65000000e-009,-6.51094240e-004
,,,4.67500000e-009,-6.27187990e-004
,,,4.70000000e-009,-6.10312990e-004
,,,4.72500000e-009,-6.00937990e-004
,,,4.75000000e-009,-5.96719239e-004
,,,4.77500000e-009,-5.97187989e-004
,,,4.80000000e-009,-6.00000490e-004
,,,4.82500000e-009,-6.05156740e-004
,,,4.85000000e-009,-6.09844240e-004
,,,4.87500000e-009,-6.13594240e-004
,,,4.90000000e-009,-6.15000490e-004
,,,4.92500000e-009,-6.15000490e-004
,,,4.95000000e-009,-6.11719240e-004
,,,4.97500000e-009,-6.07031740e-004
,,,5.00000000e-009,-6.00000490e-004
,,,5.02500000e-009,-5.93906739e-004
,,,5.05000000e-009,-5.87344239e-004
,,,5.07500000e-009,-5.82187989e-004
,,,5.10000000e-009,-5.78906739e-004
,,,5.12500000e-009,-5.78437989e-004
,,,5.15000000e-009,-5.81719239e-004
,,,5.17500000e-009,-5.88750489e-004
,,,5.20000000e-009,-6.00000490e-004
,,,5.22500000e-009,-6.15469240e-004
,,,5.25000000e-009,-6.33281740e-004
,,,5.27500000e-009,-6.52500490e-004
,,,5.30000000e-009,-6.71719240e-004
,,,5.32500000e-009,-6.89062990e-004
,,,5.35000000e-009,-7.04062990e-004
,,,5.37500000e-009,-7.14375490e-004
,,,5.40000000e-009,-7.20000491e-004
,,,5.42500000e-009,-7.19531741e-004
,,,5.45000000e-009,-7.12031740e-004
,,,5.47500000e-009,-6.99375490e-004
,,,5.50000000e-009,-6.82500490e-004
,,,5.52500000e-009,-6.61875490e-004
,,,5.55000000e-009,-6.40781740e-004
,,,5.57500000e-009,-6.19219240e-004
,,,5.60000000e-009,-6.00000490e-004
,,,5.62500000e-009,-5.83594239e-004
,,,5.65000000e-009,-5.71875489e-004
,,,5.67500000e-009,-5.64375489e-004
,,,5.70000000e-009,-5.62031739e-004
,,,5.72500000e-009,-5.65312989e-004
,,,5.75000000e-009,-5.72812989e-004
,,,5.77500000e-009,-5.85000489e-004
,,,5.80000000e-009,-6.00000490e-004
,,,5.82500000e-009,-6.16875490e-004
,,,5.85000000e-009,-6.34687990e-004
