RawData/DifferentLengths/R3/R3_12pt5_5mV/wave027_Ch3.csv

"Record Length",1000,"Points",-7.72500000e-009,-1.10109424e-003
"Sample Interval",2.50000000e-011,s,-7.70000000e-009,-1.10015674e-003
"Trigger Point",309,"Samples",-7.67500000e-009,-1.09687549e-003
"Trigger Time",5.41534884e-012,s,-7.65000000e-009,-1.09031299e-003
"",,,-7.62500000e-009,-1.08000049e-003
"Horizontal Offset",-7.72500000e-009,s,-7.60000000e-009,-1.06500049e-003
,,,-7.57500000e-009,-1.04484424e-003
,,,-7.55000000e-009,-1.01953174e-003
,,,-7.52500000e-009,-9.90000493e-004
,,,-7.50000000e-009,-9.56719243e-004
,,,-7.47500000e-009,-9.20156742e-004
,,,-7.45000000e-009,-8.80781742e-004
,,,-7.42500000e-009,-8.40000492e-004
,,,-7.40000000e-009,-7.98281741e-004
,,,-7.37500000e-009,-7.57500491e-004
,,,-7.35000000e-009,-7.19531741e-004
,,,-7.32500000e-009,-6.84844240e-004
,,,-7.30000000e-009,-6.55312990e-004
,,,-7.27500000e-009,-6.31406740e-004
,,,-7.25000000e-009,-6.13125490e-004
,,,-7.22500000e-009,-6.00000490e-004
,,,-7.20000000e-009,-5.91094239e-004
,,,-7.17500000e-009,-5.83594239e-004
,,,-7.15000000e-009,-5.76562989e-004
,,,-7.12500000e-009,-5.67656739e-004
,,,-7.10000000e-009,-5.54531739e-004
,,,-7.07500000e-009,-5.36250489e-004
,,,-7.05000000e-009,-5.11406739e-004
,,,-7.02500000e-009,-4.80000488e-004
,,,-7.00000000e-009,-4.43437988e-004
,,,-6.97500000e-009,-4.02656738e-004
,,,-6.95000000e-009,-3.60469237e-004
,,,-6.92500000e-009,-3.19687987e-004
,,,-6.90000000e-009,-2.84531737e-004
,,,-6.87500000e-009,-2.58281737e-004
,,,-6.85000000e-009,-2.42812986e-004
,,,-6.82500000e-009,-2.40000486e-004
,,,-6.80000000e-009,-2.54062986e-004
,,,-6.77500000e-009,-2.78906737e-004
,,,-6.75000000e-009,-3.11719237e-004
,,,-6.72500000e-009,-3.49687987e-004
,,,-6.70000000e-009,-3.88594238e-004
,,,-6.67500000e-009,-4.25625488e-004
,,,-6.65000000e-009,-4.57031738e-004
,,,-6.62500000e-009,-4.80000488e-004
,,,-6.60000000e-009,-4.93125489e-004
,,,-6.57500000e-009,-4.94062989e-004
,,,-6.55000000e-009,-4.84219238e-004
,,,-6.52500000e-009,-4.65469238e-004
,,,-6.50000000e-009,-4.40625488e-004
,,,-6.47500000e-009,-4.12969238e-004
,,,-6.45000000e-009,-3.85312988e-004
,,,-6.42500000e-009,-3.60000487e-004
,,,-6.40000000e-009,-3.38437987e-004
,,,-6.37500000e-009,-3.20156737e-004
,,,-6.35000000e-009,-3.05625487e-004
,,,-6.32500000e-009,-2.92969237e-004
,,,-6.30000000e-009,-2.81719237e-004
,,,-6.27500000e-009,-2.70000487e-004
,,,-6.25000000e-009,-2.56406737e-004
,,,-6.22500000e-009,-2.40000486e-004
,,,-6.20000000e-009,-2.21719236e-004
,,,-6.17500000e-009,-2.01094236e-004
,,,-6.15000000e-009,-1.79062986e-004
,,,-6.12500000e-009,-1.57969236e-004
,,,-6.10000000e-009,-1.39687986e-004
,,,-6.07500000e-009,-1.26562985e-004
,,,-6.05000000e-009,-1.19531735e-004
,,,-6.02500000e-009,-1.20000485e-004
,,,-6.00000000e-009,-1.30312985e-004
,,,-5.97500000e-009,-1.46719236e-004
,,,-5.95000000e-009,-1.67344236e-004
,,,-5.92500000e-009,-1.89375486e-004
,,,-5.90000000e-009,-2.10469236e-004
,,,-5.87500000e-009,-2.27344236e-004
,,,-5.85000000e-009,-2.38125486e-004
,,,-5.82500000e-009,-2.40000486e-004
,,,-5.80000000e-009,-2.33906736e-004
,,,-5.77500000e-009,-2.18437986e-004
,,,-5.75000000e-009,-1.93594236e-004
,,,-5.72500000e-009,-1.61719236e-004
,,,-5.70000000e-009,-1.24219235e-004
,,,-5.67500000e-009,-8.34379850e-005
,,,-5.65000000e-009,-4.12504846e-005
,,,-5.62500000e-009,-4.84287738e-010
,,,-5.60000000e-009,3.28120160e-005
,,,-5.57500000e-009,6.14057662e-005
,,,-5.55000000e-009,8.39057664e-005
,,,-5.52500000e-009,1.01249517e-004
,,,-5.50000000e-009,1.12499517e-004
,,,-5.47500000e-009,1.19530767e-004
,,,-5.45000000e-009,1.21405767e-004
,,,-5.42500000e-009,1.19999517e-004
,,,-5.40000000e-009,1.10155767e-004
,,,-5.37500000e-009,9.79682666e-005
,,,-5.35000000e-009,8.43745164e-005
,,,-5.32500000e-009,6.93745163e-005
,,,-5.30000000e-009,5.34370162e-005
,,,-5.27500000e-009,3.65620160e-005
,,,-5.25000000e-009,1.87495159e-005
,,,-5.22500000e-009,-4.84287738e-010
,,,-5.20000000e-009,-2.48442345e-005
,,,-5.17500000e-009,-5.06254847e-005
,,,-5.15000000e-009,-7.87504850e-005
,,,-5.12500000e-009,-1.07812985e-004
,,,-5.10000000e-009,-1.39219235e-004
,,,-5.07500000e-009,-1.71562986e-004
,,,-5.05000000e-009,-2.05312986e-004
,,,-5.02500000e-009,-2.40000486e-004
,,,-5.00000000e-009,-2.76562987e-004
,,,-4.97500000e-009,-3.12656737e-004
,,,-4.95000000e-009,-3.47344237e-004
,,,-4.92500000e-009,-3.80625488e-004
,,,-4.90000000e-009,-4.11094238e-004
,,,-4.87500000e-009,-4.38281738e-004
,,,-4.85000000e-009,-4.61719238e-004
,,,-4.82500000e-009,-4.80000488e-004
,,,-4.80000000e-009,-4.93125489e-004
,,,-4.77500000e-009,-5.01094239e-004
,,,-4.75000000e-009,-5.04375489e-004
,,,-4.72500000e-009,-5.04375489e-004
,,,-4.70000000e-009,-5.00625489e-004
,,,-4.67500000e-009,-4.95000489e-004
,,,-4.65000000e-009,-4.87969239e-004
,,,-4.62500000e-009,-4.80000488e-004
,,,-4.60000000e-009,-4.71562988e-004
,,,-4.57500000e-009,-4.65000488e-004
,,,-4.55000000e-009,-4.60781738e-004
,,,-4.52500000e-009,-4.58906738e-004
,,,-4.50000000e-009,-4.60312988e-004
,,,-4.47500000e-009,-4.64531738e-004
,,,-4.45000000e-009,-4.71094238e-004
,,,-4.42500000e-009,-4.80000488e-004
,,,-4.40000000e-009,-4.90312989e-004
,,,-4.37500000e-009,-5.02500489e-004
,,,-4.35000000e-009,-5.17500489e-004
,,,-4.32500000e-009,-5.33437989e-004
,,,-4.30000000e-009,-5.50781739e-004
,,,-4.27500000e-009,-5.68125489e-004
,,,-4.25000000e-009,-5.85000489e-004
,,,-4.22500000e-009,-6.00000490e-004
,,,-4.20000000e-009,-6.11719240e-004
,,,-4.17500000e-009,-6.20625490e-004
,,,-4.15000000e-009,-6.26719240e-004
,,,-4.12500000e-009,-6.29531740e-004
,,,-4.10000000e-009,-6.28594240e-004
,,,-4.07500000e-009,-6.22969240e-004
,,,-4.05000000e-009,-6.13594240e-004
,,,-4.02500000e-009,-6.00000490e-004
,,,-4.00000000e-009,-5.82656739e-004
,,,-3.97500000e-009,-5.63906739e-004
,,,-3.95000000e-009,-5.44687989e-004
,,,-3.92500000e-009,-5.25937989e-004
,,,-3.90000000e-009,-5.09062989e-004
,,,-3.87500000e-009,-4.95469239e-004
,,,-3.85000000e-009,-4.85625489e-004
,,,-3.82500000e-009,-4.80000488e-004
,,,-3.80000000e-009,-4.81875488e-004
,,,-3.77500000e-009,-4.88437989e-004
,,,-3.75000000e-009,-5.00156739e-004
,,,-3.72500000e-009,-5.16094239e-004
,,,-3.70000000e-009,-5.35312989e-004
,,,-3.67500000e-009,-5.55937989e-004
,,,-3.65000000e-009,-5.77969239e-004
,,,-3.62500000e-009,-6.00000490e-004
,,,-3.60000000e-009,-6.22031740e-004
,,,-3.57500000e-009,-6.42187990e-004
,,,-3.55000000e-009,-6.60937990e-004
,,,-3.52500000e-009,-6.77344240e-004
,,,-3.50000000e-009,-6.91406740e-004
,,,-3.47500000e-009,-7.03125490e-004
,,,-3.45000000e-009,-7.12500490e-004
,,,-3.42500000e-009,-7.20000491e-004
,,,-3.40000000e-009,-7.26094241e-004
,,,-3.37500000e-009,-7.30312991e-004
,,,-3.35000000e-009,-7.33125491e-004
,,,-3.32500000e-009,-7.34062991e-004
,,,-3.30000000e-009,-7.33125491e-004
,,,-3.27500000e-009,-7.30781741e-004
,,,-3.25000000e-009,-7.26094241e-004
,,,-3.22500000e-009,-7.20000491e-004
,,,-3.20000000e-009,-7.14375490e-004
,,,-3.17500000e-009,-7.08281740e-004
,,,-3.15000000e-009,-7.03594240e-004
,,,-3.12500000e-009,-7.00781740e-004
,,,-3.10000000e-009,-7.00312990e-004
,,,-3.07500000e-009,-7.03594240e-004
,,,-3.05000000e-009,-7.10156740e-004
,,,-3.02500000e-009,-7.20000491e-004
,,,-3.00000000e-009,-7.34531741e-004
,,,-2.97500000e-009,-7.50937991e-004
,,,-2.95000000e-009,-7.69219241e-004
,,,-2.92500000e-009,-7.87969241e-004
,,,-2.90000000e-009,-8.05312991e-004
,,,-2.87500000e-009,-8.20312991e-004
,,,-2.85000000e-009,-8.32500492e-004
,,,-2.82500000e-009,-8.40000492e-004
,,,-2.80000000e-009,-8.42812992e-004
,,,-2.77500000e-009,-8.42344242e-004
,,,-2.75000000e-009,-8.39531742e-004
,,,-2.72500000e-009,-8.36250492e-004
,,,-2.70000000e-009,-8.33437992e-004
,,,-2.67500000e-009,-8.32500492e-004
,,,-2.65000000e-009,-8.34375492e-004
,,,-2.62500000e-009,-8.40000492e-004
,,,-2.60000000e-009,-8.47969242e-004
,,,-2.57500000e-009,-8.59219242e-004
,,,-2.55000000e-009,-8.74219242e-004
,,,-2.52500000e-009,-8.91562992e-004
,,,-2.50000000e-009,-9.09844242e-004
,,,-2.47500000e-009,-9.28125492e-004
,,,-2.45000000e-009,-9.45469243e-004
,,,-2.42500000e-009,-9.60000493e-004
,,,-2.40000000e-009,-9.69844243e-004
,,,-2.37500000e-009,-9.75469243e-004
,,,-2.35000000e-009,-9.77812993e-004
,,,-2.32500000e-009,-9.76875493e-004
,,,-2.30000000e-009,-9.74062993e-004
,,,-2.27500000e-009,-9.69844243e-004
,,,-2.25000000e-009,-9.64687993e-004
,,,-2.22500000e-009,-9.60000493e-004
,,,-2.20000000e-009,-9.54844243e-004
,,,-2.17500000e-009,-9.51562993e-004
,,,-2.15000000e-009,-9.50156743e-004
,,,-2.12500000e-009,-9.50156743e-004
,,,-2.10000000e-009,-9.52031743e-004
,,,-2.07500000e-009,-9.55312993e-004
,,,-2.05000000e-009,-9.58125493e-004
,,,-2.02500000e-009,-9.60000493e-004
,,,-2.00000000e-009,-9.59531743e-004
,,,-1.97500000e-009,-9.56250493e-004
,,,-1.95000000e-009,-9.49219243e-004
,,,-1.92500000e-009,-9.37969242e-004
,,,-1.90000000e-009,-9.21562992e-004
,,,-1.87500000e-009,-9.00000492e-004
,,,-1.85000000e-009,-8.72344242e-004
,,,-1.82500000e-009,-8.40000492e-004
,,,-1.80000000e-009,-8.07187991e-004
,,,-1.77500000e-009,-7.72031741e-004
,,,-1.75000000e-009,-7.36875491e-004
,,,-1.72500000e-009,-7.02187990e-004
,,,-1.70000000e-009,-6.70312990e-004
,,,-1.67500000e-009,-6.41719240e-004
,,,-1.65000000e-009,-6.17812990e-004
,,,-1.62500000e-009,-6.00000490e-004
,,,-1.60000000e-009,-5.98125489e-004
,,,-1.57500000e-009,-6.03750490e-004
,,,-1.55000000e-009,-6.15937990e-004
,,,-1.52500000e-009,-6.33750490e-004
,,,-1.50000000e-009,-6.54844240e-004
,,,-1.47500000e-009,-6.77344240e-004
,,,-1.45000000e-009,-6.99375490e-004
,,,-1.42500000e-009,-7.20000491e-004
,,,-1.40000000e-009,-7.51875491e-004
,,,-1.37500000e-009,-7.80937991e-004
,,,-1.35000000e-009,-8.06250491e-004
,,,-1.32500000e-009,-8.25937991e-004
,,,-1.30000000e-009,-8.39531742e-004
,,,-1.27500000e-009,-8.45625492e-004
,,,-1.25000000e-009,-8.45625492e-004
,,,-1.22500000e-009,-8.40000492e-004
,,,-1.20000000e-009,-8.47969242e-004
,,,-1.17500000e-009,-8.56875492e-004
,,,-1.15000000e-009,-8.66719242e-004
,,,-1.12500000e-009,-8.78906742e-004
,,,-1.10000000e-009,-8.93906742e-004
,,,-1.07500000e-009,-9.12187992e-004
,,,-1.05000000e-009,-9.33750492e-004
,,,-1.02500000e-009,-9.60000493e-004
,,,-1.00000000e-009,-1.01062549e-003
,,,-9.75000000e-010,-1.06781299e-003
,,,-9.50000000e-010,-1.12968799e-003
,,,-9.25000000e-010,-1.19484424e-003
,,,-9.00000000e-010,-1.25953175e-003
,,,-8.75000000e-010,-1.32234425e-003
,,,-8.50000000e-010,-1.38281300e-003
,,,-8.25000000e-010,-1.44000050e-003
,,,-8.00000000e-010,-1.51312550e-003
,,,-7.75000000e-010,-1.58906300e-003
,,,-7.50000000e-010,-1.66875050e-003
,,,-7.25000000e-010,-1.75312550e-003
,,,-7.00000000e-010,-1.84312550e-003
,,,-6.75000000e-010,-1.94062550e-003
,,,-6.50000000e-010,-2.04609425e-003
,,,-6.25000000e-010,-2.16000050e-003
,,,-6.00000000e-010,-2.29359425e-003
,,,-5.75000000e-010,-2.43843801e-003
,,,-5.50000000e-010,-2.59171926e-003
,,,-5.25000000e-010,-2.75015676e-003
,,,-5.00000000e-010,-2.91000051e-003
,,,-4.75000000e-010,-3.06703176e-003
,,,-4.50000000e-010,-3.21796926e-003
,,,-4.25000000e-010,-3.36000051e-003
,,,-4.00000000e-010,-3.49125051e-003
,,,-3.75000000e-010,-3.61359427e-003
,,,-3.50000000e-010,-3.72750052e-003
,,,-3.25000000e-010,-3.83390677e-003
,,,-3.00000000e-010,-3.93328177e-003
,,,-2.75000000e-010,-4.02609427e-003
,,,-2.50000000e-010,-4.11468802e-003
,,,-2.25000000e-010,-4.20000052e-003
,,,-2.00000000e-010,-4.27640677e-003
,,,-1.75000000e-010,-4.35656302e-003
,,,-1.50000000e-010,-4.44140677e-003
,,,-1.25000000e-010,-4.53140677e-003
,,,-1.00000000e-010,-4.62609427e-003
,,,-7.50000000e-011,-4.72312553e-003
,,,-5.00000000e-011,-4.82203178e-003
,,,-2.50000000e-011,-4.92000053e-003
,,,0.00000000e+000,-5.00062553e-003
,,,2.50000000e-011,-5.08171928e-003
,,,5.00000000e-011,-5.16234428e-003
,,,7.50000000e-011,-5.24156303e-003
,,,1.00000000e-010,-5.31890678e-003
,,,1.25000000e-010,-5.39203178e-003
,,,1.50000000e-010,-5.45953178e-003
,,,1.75000000e-010,-5.52000053e-003
,,,2.00000000e-010,-5.55187553e-003
,,,2.25000000e-010,-5.57812553e-003
,,,2.50000000e-010,-5.59968803e-003
,,,2.75000000e-010,-5.61703178e-003
,,,3.00000000e-010,-5.63015678e-003
,,,3.25000000e-010,-5.63812553e-003
,,,3.50000000e-010,-5.64187553e-003
,,,3.75000000e-010,-5.64000053e-003
,,,4.00000000e-010,-5.61281303e-003
,,,4.25000000e-010,-5.58515678e-003
,,,4.50000000e-010,-5.56031303e-003
,,,4.75000000e-010,-5.54015678e-003
,,,5.00000000e-010,-5.52609428e-003
,,,5.25000000e-010,-5.51812553e-003
,,,5.50000000e-010,-5.51671928e-003
,,,5.75000000e-010,-5.52000053e-003
,,,6.00000000e-010,-5.50734428e-003
,,,6.25000000e-010,-5.49656303e-003
,,,6.50000000e-010,-5.48765678e-003
,,,6.75000000e-010,-5.47781303e-003
,,,7.00000000e-010,-5.46609428e-003
,,,7.25000000e-010,-5.45062553e-003
,,,7.50000000e-010,-5.42906303e-003
,,,7.75000000e-010,-5.40000053e-003
,,,8.00000000e-010,-5.34515678e-003
,,,8.25000000e-010,-5.28281303e-003
,,,8.50000000e-010,-5.21625053e-003
,,,8.75000000e-010,-5.14828178e-003
,,,9.00000000e-010,-5.08218803e-003
,,,9.25000000e-010,-5.02125053e-003
,,,9.50000000e-010,-4.96687553e-003
,,,9.75000000e-010,-4.92000053e-003
,,,1.00000000e-009,-4.86796928e-003
,,,1.02500000e-009,-4.82062553e-003
,,,1.05000000e-009,-4.77750053e-003
,,,1.07500000e-009,-4.73718803e-003
,,,1.10000000e-009,-4.69781303e-003
,,,1.12500000e-009,-4.65656302e-003
,,,1.15000000e-009,-4.61156302e-003
,,,1.17500000e-009,-4.56000052e-003
,,,1.20000000e-009,-4.49109427e-003
,,,1.22500000e-009,-4.41140677e-003
,,,1.25000000e-009,-4.32281302e-003
,,,1.27500000e-009,-4.22765677e-003
,,,1.30000000e-009,-4.12921927e-003
,,,1.32500000e-009,-4.03031302e-003
,,,1.35000000e-009,-3.93328177e-003
,,,1.37500000e-009,-3.84000052e-003
,,,1.40000000e-009,-3.74671927e-003
,,,1.42500000e-009,-3.65484427e-003
,,,1.45000000e-009,-3.56484427e-003
,,,1.47500000e-009,-3.47625051e-003
,,,1.50000000e-009,-3.38765676e-003
,,,1.52500000e-009,-3.29953176e-003
,,,1.55000000e-009,-3.21046926e-003
,,,1.57500000e-009,-3.12000051e-003
,,,1.60000000e-009,-3.02812551e-003
,,,1.62500000e-009,-2.93203176e-003
,,,1.65000000e-009,-2.83406301e-003
,,,1.67500000e-009,-2.73562551e-003
,,,1.70000000e-009,-2.64046926e-003
,,,1.72500000e-009,-2.55140676e-003
,,,1.75000000e-009,-2.47078176e-003
,,,1.77500000e-009,-2.40000051e-003
,,,1.80000000e-009,-2.34468800e-003
,,,1.82500000e-009,-2.29453175e-003
,,,1.85000000e-009,-2.24953175e-003
,,,1.87500000e-009,-2.20734425e-003
,,,1.90000000e-009,-2.16656300e-003
,,,1.92500000e-009,-2.12625050e-003
,,,1.95000000e-009,-2.08453175e-003
,,,1.97500000e-009,-2.04000050e-003
,,,2.00000000e-009,-1.99687550e-003
,,,2.02500000e-009,-1.94625050e-003
,,,2.05000000e-009,-1.88812550e-003
,,,2.07500000e-009,-1.82437550e-003
,,,2.10000000e-009,-1.75734425e-003
,,,2.12500000e-009,-1.68937550e-003
,,,2.15000000e-009,-1.62281300e-003
,,,2.17500000e-009,-1.56000050e-003
,,,2.20000000e-009,-1.50843800e-003
,,,2.22500000e-009,-1.45828175e-003
,,,2.25000000e-009,-1.41046925e-003
,,,2.27500000e-009,-1.36406300e-003
,,,2.30000000e-009,-1.31953175e-003
,,,2.32500000e-009,-1.27781300e-003
,,,2.35000000e-009,-1.23796925e-003
,,,2.37500000e-009,-1.20000049e-003
,,,2.40000000e-009,-1.17093799e-003
,,,2.42500000e-009,-1.14046924e-003
,,,2.45000000e-009,-1.10859424e-003
,,,2.47500000e-009,-1.07578174e-003
,,,2.50000000e-009,-1.04343799e-003
,,,2.52500000e-009,-1.01250049e-003
,,,2.55000000e-009,-9.84844243e-004
,,,2.57500000e-009,-9.60000493e-004
,,,2.60000000e-009,-9.44531742e-004
,,,2.62500000e-009,-9.30000492e-004
,,,2.65000000e-009,-9.15469242e-004
,,,2.67500000e-009,-9.01406742e-004
,,,2.70000000e-009,-8.86875492e-004
,,,2.72500000e-009,-8.72344242e-004
,,,2.75000000e-009,-8.56875492e-004
,,,2.77500000e-009,-8.40000492e-004
,,,2.80000000e-009,-8.25000491e-004
,,,2.82500000e-009,-8.05781741e-004
,,,2.85000000e-009,-7.81406741e-004
,,,2.87500000e-009,-7.51875491e-004
,,,2.90000000e-009,-7.18594241e-004
,,,2.92500000e-009,-6.81562990e-004
,,,2.95000000e-009,-6.41719240e-004
,,,2.97500000e-009,-6.00000490e-004
,,,3.00000000e-009,-5.63437989e-004
,,,3.02500000e-009,-5.25937989e-004
,,,3.05000000e-009,-4.89375489e-004
,,,3.07500000e-009,-4.54687988e-004
,,,3.10000000e-009,-4.23281738e-004
,,,3.12500000e-009,-3.96562988e-004
,,,3.15000000e-009,-3.75469238e-004
,,,3.17500000e-009,-3.60000487e-004
,,,3.20000000e-009,-3.56250487e-004
,,,3.22500000e-009,-3.55781737e-004
,,,3.25000000e-009,-3.58125487e-004
,,,3.27500000e-009,-3.61406737e-004
,,,3.30000000e-009,-3.64219237e-004
,,,3.32500000e-009,-3.66094237e-004
,,,3.35000000e-009,-3.64687987e-004
,,,3.37500000e-009,-3.60000487e-004
,,,3.40000000e-009,-3.55312987e-004
,,,3.42500000e-009,-3.45469237e-004
,,,3.45000000e-009,-3.31406737e-004
,,,3.47500000e-009,-3.14062987e-004
,,,3.50000000e-009,-2.94844237e-004
,,,3.52500000e-009,-2.75156737e-004
,,,3.55000000e-009,-2.56875487e-004
,,,3.57500000e-009,-2.40000486e-004
,,,3.60000000e-009,-2.31094236e-004
,,,3.62500000e-009,-2.25469236e-004
,,,3.65000000e-009,-2.22656736e-004
,,,3.67500000e-009,-2.22187986e-004
,,,3.70000000e-009,-2.24531736e-004
,,,3.72500000e-009,-2.28750486e-004
,,,3.75000000e-009,-2.33906736e-004
,,,3.77500000e-009,-2.40000486e-004
,,,3.80000000e-009,-2.50312986e-004
,,,3.82500000e-009,-2.61094237e-004
,,,3.85000000e-009,-2.72812987e-004
,,,3.87500000e-009,-2.85469237e-004
,,,3.90000000e-009,-3.00000487e-004
,,,3.92500000e-009,-3.17344237e-004
,,,3.95000000e-009,-3.37500487e-004
,,,3.97500000e-009,-3.60000487e-004
,,,4.00000000e-009,-3.85781738e-004
,,,4.02500000e-009,-4.11094238e-004
,,,4.05000000e-009,-4.35469238e-004
,,,4.07500000e-009,-4.56094238e-004
,,,4.10000000e-009,-4.72031738e-004
,,,4.12500000e-009,-4.81875488e-004
,,,4.15000000e-009,-4.84687989e-004
,,,4.17500000e-009,-4.80000488e-004
,,,4.20000000e-009,-4.67344238e-004
,,,4.22500000e-009,-4.49062988e-004
,,,4.25000000e-009,-4.27500488e-004
,,,4.27500000e-009,-4.05937988e-004
,,,4.30000000e-009,-3.85781738e-004
,,,4.32500000e-009,-3.70312988e-004
,,,4.35000000e-009,-3.61406737e-004
,,,4.37500000e-009,-3.60000487e-004
,,,4.40000000e-009,-3.66094237e-004
,,,4.42500000e-009,-3.79219238e-004
,,,4.45000000e-009,-3.97031738e-004
,,,4.47500000e-009,-4.18125488e-004
,,,4.50000000e-009,-4.39219238e-004
,,,4.52500000e-009,-4.58437988e-004
,,,4.55000000e-009,-4.72500488e-004
,,,4.57500000e-009,-4.80000488e-004
,,,4.60000000e-009,-4.78594238e-004
,,,4.62500000e-009,-4.69219238e-004
,,,4.65000000e-009,-4.54219238e-004
,,,4.67500000e-009,-4.35000488e-004
,,,4.70000000e-009,-4.13906738e-004
,,,4.72500000e-009,-3.92812988e-004
,,,4.75000000e-009,-3.74531738e-004
,,,4.77500000e-009,-3.60000487e-004
,,,4.80000000e-009,-3.50625487e-004
,,,4.82500000e-009,-3.46406737e-004
,,,4.85000000e-009,-3.46875487e-004
,,,4.87500000e-009,-3.50625487e-004
,,,4.90000000e-009,-3.55312987e-004
,,,4.92500000e-009,-3.60000487e-004
,,,4.95000000e-009,-3.61875487e-004
,,,4.97500000e-009,-3.60000487e-004
,,,5.00000000e-009,-3.54844237e-004
,,,5.02500000e-009,-3.45000487e-004
,,,5.05000000e-009,-3.30937987e-004
,,,5.07500000e-009,-3.13594237e-004
,,,5.10000000e-009,-2.94375487e-004
,,,5.12500000e-009,-2.74687987e-004
,,,5.15000000e-009,-2.56406737e-004
,,,5.17500000e-009,-2.40000486e-004
,,,5.20000000e-009,-2.29687986e-004
,,,5.22500000e-009,-2.23125486e-004
,,,5.25000000e-009,-2.20781736e-004
,,,5.27500000e-009,-2.21250486e-004
,,,5.30000000e-009,-2.24531736e-004
,,,5.32500000e-009,-2.29687986e-004
,,,5.35000000e-009,-2.34844236e-004
,,,5.37500000e-009,-2.40000486e-004
,,,5.40000000e-009,-2.46094236e-004
,,,5.42500000e-009,-2.49844236e-004
,,,5.45000000e-009,-2.52187986e-004
,,,5.47500000e-009,-2.52187986e-004
,,,5.50000000e-009,-2.50312986e-004
,,,5.52500000e-009,-2.47031736e-004
,,,5.55000000e-009,-2.43281736e-004
,,,5.57500000e-009,-2.40000486e-004
,,,5.60000000e-009,-2.40469236e-004
,,,5.62500000e-009,-2.43750486e-004
,,,5.65000000e-009,-2.50781736e-004
,,,5.67500000e-009,-2.62031737e-004
,,,5.70000000e-009,-2.78437987e-004
,,,5.72500000e-009,-3.00469237e-004
,,,5.75000000e-009,-3.27656737e-004
,,,5.77500000e-009,-3.60000487e-004
,,,5.80000000e-009,-3.96562988e-004
,,,5.82500000e-009,-4.34531738e-004
