RawData/DifferentLengths/R3/R3_12pt5_5mV/wave021_Ch3.csv

"Record Length",1000,"Points",-7.72500000e-009,-2.49844236e-004
"Sample Interval",2.50000000e-011,s,-7.70000000e-009,-2.47969236e-004
"Trigger Point",309,"Samples",-7.67500000e-009,-2.40000486e-004
"Trigger Time",7.45881857e-012,s,-7.65000000e-009,-2.24062986e-004
"",,,-7.62500000e-009,-2.01562986e-004
"Horizontal Offset",-7.72500000e-009,s,-7.60000000e-009,-1.74375486e-004
,,,-7.57500000e-009,-1.42500486e-004
,,,-7.55000000e-009,-1.07344235e-004
,,,-7.52500000e-009,-7.12504849e-005
,,,-7.50000000e-009,-3.46879846e-005
,,,-7.47500000e-009,-4.84287738e-010
,,,-7.45000000e-009,2.95307660e-005
,,,-7.42500000e-009,5.43745162e-005
,,,-7.40000000e-009,7.49995164e-005
,,,-7.37500000e-009,9.09370165e-005
,,,-7.35000000e-009,1.03124517e-004
,,,-7.32500000e-009,1.11562017e-004
,,,-7.30000000e-009,1.17187017e-004
,,,-7.27500000e-009,1.19999517e-004
,,,-7.25000000e-009,1.17655767e-004
,,,-7.22500000e-009,1.12030767e-004
,,,-7.20000000e-009,1.03593267e-004
,,,-7.17500000e-009,9.09370165e-005
,,,-7.15000000e-009,7.40620164e-005
,,,-7.12500000e-009,5.29682662e-005
,,,-7.10000000e-009,2.81245160e-005
,,,-7.07500000e-009,-4.84287738e-010
,,,-7.05000000e-009,-3.14067346e-005
,,,-7.02500000e-009,-6.14067348e-005
,,,-7.00000000e-009,-8.85942351e-005
,,,-6.97500000e-009,-1.11094235e-004
,,,-6.95000000e-009,-1.26562985e-004
,,,-6.92500000e-009,-1.33594235e-004
,,,-6.90000000e-009,-1.31250485e-004
,,,-6.87500000e-009,-1.20000485e-004
,,,-6.85000000e-009,-1.01719235e-004
,,,-6.82500000e-009,-7.78129850e-005
,,,-6.80000000e-009,-5.10942347e-005
,,,-6.77500000e-009,-2.57817345e-005
,,,-6.75000000e-009,-5.15673433e-006
,,,-6.72500000e-009,7.96826578e-006
,,,-6.70000000e-009,1.03120158e-005
,,,-6.67500000e-009,-4.84287738e-010
,,,-6.65000000e-009,-2.43754845e-005
,,,-6.62500000e-009,-6.04692348e-005
,,,-6.60000000e-009,-1.06406735e-004
,,,-6.57500000e-009,-1.58437986e-004
,,,-6.55000000e-009,-2.13750486e-004
,,,-6.52500000e-009,-2.68594237e-004
,,,-6.50000000e-009,-3.18281737e-004
,,,-6.47500000e-009,-3.60000487e-004
,,,-6.45000000e-009,-3.88125488e-004
,,,-6.42500000e-009,-4.02656738e-004
,,,-6.40000000e-009,-4.03594238e-004
,,,-6.37500000e-009,-3.91406738e-004
,,,-6.35000000e-009,-3.66562987e-004
,,,-6.32500000e-009,-3.31406737e-004
,,,-6.30000000e-009,-2.88750487e-004
,,,-6.27500000e-009,-2.40000486e-004
,,,-6.25000000e-009,-1.88437986e-004
,,,-6.22500000e-009,-1.38281735e-004
,,,-6.20000000e-009,-9.32817351e-005
,,,-6.17500000e-009,-5.57817348e-005
,,,-6.15000000e-009,-2.67192345e-005
,,,-6.12500000e-009,-7.96923436e-006
,,,-6.10000000e-009,9.37015720e-007
,,,-6.07500000e-009,-4.84287738e-010
,,,-6.05000000e-009,-9.84423437e-006
,,,-6.02500000e-009,-2.62504845e-005
,,,-6.00000000e-009,-4.64067347e-005
,,,-5.97500000e-009,-6.79692349e-005
,,,-5.95000000e-009,-8.85942351e-005
,,,-5.92500000e-009,-1.05000485e-004
,,,-5.90000000e-009,-1.16250485e-004
,,,-5.87500000e-009,-1.20000485e-004
,,,-5.85000000e-009,-1.16719235e-004
,,,-5.82500000e-009,-1.06406735e-004
,,,-5.80000000e-009,-9.04692351e-005
,,,-5.77500000e-009,-7.07817349e-005
,,,-5.75000000e-009,-4.92192347e-005
,,,-5.72500000e-009,-2.90629845e-005
,,,-5.70000000e-009,-1.21879844e-005
,,,-5.67500000e-009,-4.84287738e-010
,,,-5.65000000e-009,3.74951574e-006
,,,-5.62500000e-009,-4.84287738e-010
,,,-5.60000000e-009,-1.07817344e-005
,,,-5.57500000e-009,-2.81254845e-005
,,,-5.55000000e-009,-4.92192347e-005
,,,-5.52500000e-009,-7.31254849e-005
,,,-5.50000000e-009,-9.75004851e-005
,,,-5.47500000e-009,-1.20000485e-004
,,,-5.45000000e-009,-1.41562986e-004
,,,-5.42500000e-009,-1.57031736e-004
,,,-5.40000000e-009,-1.66875486e-004
,,,-5.37500000e-009,-1.69219236e-004
,,,-5.35000000e-009,-1.65469236e-004
,,,-5.32500000e-009,-1.55156736e-004
,,,-5.30000000e-009,-1.39687986e-004
,,,-5.27500000e-009,-1.20000485e-004
,,,-5.25000000e-009,-9.98442352e-005
,,,-5.22500000e-009,-7.82817350e-005
,,,-5.20000000e-009,-5.76567348e-005
,,,-5.17500000e-009,-3.89067346e-005
,,,-5.15000000e-009,-2.29692345e-005
,,,-5.12500000e-009,-1.07817344e-005
,,,-5.10000000e-009,-2.81298431e-006
,,,-5.07500000e-009,-4.84287738e-010
,,,-5.05000000e-009,-3.75048432e-006
,,,-5.02500000e-009,-1.21879844e-005
,,,-5.00000000e-009,-2.53129845e-005
,,,-4.97500000e-009,-4.12504846e-005
,,,-4.95000000e-009,-6.00004848e-005
,,,-4.92500000e-009,-8.01567350e-005
,,,-4.90000000e-009,-1.00312985e-004
,,,-4.87500000e-009,-1.20000485e-004
,,,-4.85000000e-009,-1.38281735e-004
,,,-4.82500000e-009,-1.55156736e-004
,,,-4.80000000e-009,-1.70156736e-004
,,,-4.77500000e-009,-1.83750486e-004
,,,-4.75000000e-009,-1.97344236e-004
,,,-4.72500000e-009,-2.10937986e-004
,,,-4.70000000e-009,-2.25000486e-004
,,,-4.67500000e-009,-2.40000486e-004
,,,-4.65000000e-009,-2.55000487e-004
,,,-4.62500000e-009,-2.70937987e-004
,,,-4.60000000e-009,-2.87812987e-004
,,,-4.57500000e-009,-3.04687987e-004
,,,-4.55000000e-009,-3.21094237e-004
,,,-4.52500000e-009,-3.36094237e-004
,,,-4.50000000e-009,-3.49687987e-004
,,,-4.47500000e-009,-3.60000487e-004
,,,-4.45000000e-009,-3.65625487e-004
,,,-4.42500000e-009,-3.67969237e-004
,,,-4.40000000e-009,-3.68437987e-004
,,,-4.37500000e-009,-3.67031737e-004
,,,-4.35000000e-009,-3.65625487e-004
,,,-4.32500000e-009,-3.63281737e-004
,,,-4.30000000e-009,-3.61875487e-004
,,,-4.27500000e-009,-3.60000487e-004
,,,-4.25000000e-009,-3.55781737e-004
,,,-4.22500000e-009,-3.50156737e-004
,,,-4.20000000e-009,-3.42656737e-004
,,,-4.17500000e-009,-3.31875487e-004
,,,-4.15000000e-009,-3.16875487e-004
,,,-4.12500000e-009,-2.97187987e-004
,,,-4.10000000e-009,-2.71406737e-004
,,,-4.07500000e-009,-2.40000486e-004
,,,-4.05000000e-009,-2.02500486e-004
,,,-4.02500000e-009,-1.62656736e-004
,,,-4.00000000e-009,-1.22812985e-004
,,,-3.97500000e-009,-8.48442350e-005
,,,-3.95000000e-009,-5.20317347e-005
,,,-3.92500000e-009,-2.57817345e-005
,,,-3.90000000e-009,-7.96923436e-006
,,,-3.87500000e-009,-4.84287738e-010
,,,-3.85000000e-009,-2.81298431e-006
,,,-3.82500000e-009,-1.40629844e-005
,,,-3.80000000e-009,-3.18754846e-005
,,,-3.77500000e-009,-5.29692347e-005
,,,-3.75000000e-009,-7.54692349e-005
,,,-3.72500000e-009,-9.56254851e-005
,,,-3.70000000e-009,-1.11094235e-004
,,,-3.67500000e-009,-1.20000485e-004
,,,-3.65000000e-009,-1.21875485e-004
,,,-3.62500000e-009,-1.15781735e-004
,,,-3.60000000e-009,-1.02656735e-004
,,,-3.57500000e-009,-8.39067350e-005
,,,-3.55000000e-009,-6.18754848e-005
,,,-3.52500000e-009,-3.93754846e-005
,,,-3.50000000e-009,-1.82817344e-005
,,,-3.47500000e-009,-4.84287738e-010
,,,-3.45000000e-009,1.03120158e-005
,,,-3.42500000e-009,1.59370159e-005
,,,-3.40000000e-009,1.73432659e-005
,,,-3.37500000e-009,1.49995158e-005
,,,-3.35000000e-009,1.07807658e-005
,,,-3.32500000e-009,6.09326577e-006
,,,-3.30000000e-009,1.87451573e-006
,,,-3.27500000e-009,-4.84287738e-010
,,,-3.25000000e-009,-1.87548430e-006
,,,-3.22500000e-009,-1.40673430e-006
,,,-3.20000000e-009,1.40576572e-006
,,,-3.17500000e-009,4.68701575e-006
,,,-3.15000000e-009,7.96826578e-006
,,,-3.12500000e-009,8.43701579e-006
,,,-3.10000000e-009,6.09326577e-006
,,,-3.07500000e-009,-4.84287738e-010
,,,-3.05000000e-009,-1.35942344e-005
,,,-3.02500000e-009,-3.04692346e-005
,,,-3.00000000e-009,-4.96879847e-005
,,,-2.97500000e-009,-6.93754849e-005
,,,-2.95000000e-009,-8.76567350e-005
,,,-2.92500000e-009,-1.03125485e-004
,,,-2.90000000e-009,-1.14375485e-004
,,,-2.87500000e-009,-1.20000485e-004
,,,-2.85000000e-009,-1.21875485e-004
,,,-2.82500000e-009,-1.19531735e-004
,,,-2.80000000e-009,-1.14844235e-004
,,,-2.77500000e-009,-1.10156735e-004
,,,-2.75000000e-009,-1.06406735e-004
,,,-2.72500000e-009,-1.05937985e-004
,,,-2.70000000e-009,-1.10156735e-004
,,,-2.67500000e-009,-1.20000485e-004
,,,-2.65000000e-009,-1.36875485e-004
,,,-2.62500000e-009,-1.57969236e-004
,,,-2.60000000e-009,-1.80937986e-004
,,,-2.57500000e-009,-2.03906736e-004
,,,-2.55000000e-009,-2.23125486e-004
,,,-2.52500000e-009,-2.37187986e-004
,,,-2.50000000e-009,-2.42812986e-004
,,,-2.47500000e-009,-2.40000486e-004
,,,-2.45000000e-009,-2.29219236e-004
,,,-2.42500000e-009,-2.11406736e-004
,,,-2.40000000e-009,-1.89375486e-004
,,,-2.37500000e-009,-1.65937986e-004
,,,-2.35000000e-009,-1.44375486e-004
,,,-2.32500000e-009,-1.27969235e-004
,,,-2.30000000e-009,-1.19062985e-004
,,,-2.27500000e-009,-1.20000485e-004
,,,-2.25000000e-009,-1.33125485e-004
,,,-2.22500000e-009,-1.56094236e-004
,,,-2.20000000e-009,-1.87031736e-004
,,,-2.17500000e-009,-2.24062986e-004
,,,-2.15000000e-009,-2.62969237e-004
,,,-2.12500000e-009,-3.00469237e-004
,,,-2.10000000e-009,-3.33750487e-004
,,,-2.07500000e-009,-3.60000487e-004
,,,-2.05000000e-009,-3.78750488e-004
,,,-2.02500000e-009,-3.89062988e-004
,,,-2.00000000e-009,-3.91406738e-004
,,,-1.97500000e-009,-3.88594238e-004
,,,-1.95000000e-009,-3.81562988e-004
,,,-1.92500000e-009,-3.72656738e-004
,,,-1.90000000e-009,-3.65156737e-004
,,,-1.87500000e-009,-3.60000487e-004
,,,-1.85000000e-009,-3.61875487e-004
,,,-1.82500000e-009,-3.69375487e-004
,,,-1.80000000e-009,-3.82500488e-004
,,,-1.77500000e-009,-4.00312988e-004
,,,-1.75000000e-009,-4.20469238e-004
,,,-1.72500000e-009,-4.42031738e-004
,,,-1.70000000e-009,-4.62656738e-004
,,,-1.67500000e-009,-4.80000488e-004
,,,-1.65000000e-009,-4.96406739e-004
,,,-1.62500000e-009,-5.08125489e-004
,,,-1.60000000e-009,-5.15156739e-004
,,,-1.57500000e-009,-5.17031739e-004
,,,-1.55000000e-009,-5.13750489e-004
,,,-1.52500000e-009,-5.05781739e-004
,,,-1.50000000e-009,-4.94531739e-004
,,,-1.47500000e-009,-4.80000488e-004
,,,-1.45000000e-009,-4.73437988e-004
,,,-1.42500000e-009,-4.68750488e-004
,,,-1.40000000e-009,-4.65937988e-004
,,,-1.37500000e-009,-4.65469238e-004
,,,-1.35000000e-009,-4.66875488e-004
,,,-1.32500000e-009,-4.69687988e-004
,,,-1.30000000e-009,-4.73906738e-004
,,,-1.27500000e-009,-4.80000488e-004
,,,-1.25000000e-009,-5.02500489e-004
,,,-1.22500000e-009,-5.29219239e-004
,,,-1.20000000e-009,-5.60156739e-004
,,,-1.17500000e-009,-5.93437989e-004
,,,-1.15000000e-009,-6.27187990e-004
,,,-1.12500000e-009,-6.60000490e-004
,,,-1.10000000e-009,-6.91406740e-004
,,,-1.07500000e-009,-7.20000491e-004
,,,-1.05000000e-009,-7.63594241e-004
,,,-1.02500000e-009,-8.06250491e-004
,,,-1.00000000e-009,-8.46094242e-004
,,,-9.75000000e-010,-8.81719242e-004
,,,-9.50000000e-010,-9.11250492e-004
,,,-9.25000000e-010,-9.34219242e-004
,,,-9.00000000e-010,-9.50156743e-004
,,,-8.75000000e-010,-9.60000493e-004
,,,-8.50000000e-010,-9.86719243e-004
,,,-8.25000000e-010,-1.01625049e-003
,,,-8.00000000e-010,-1.05000049e-003
,,,-7.75000000e-010,-1.08890674e-003
,,,-7.50000000e-010,-1.13437549e-003
,,,-7.25000000e-010,-1.18734424e-003
,,,-7.00000000e-010,-1.24875050e-003
,,,-6.75000000e-010,-1.32000050e-003
,,,-6.50000000e-010,-1.42171925e-003
,,,-6.25000000e-010,-1.53843800e-003
,,,-6.00000000e-010,-1.66734425e-003
,,,-5.75000000e-010,-1.80609425e-003
,,,-5.50000000e-010,-1.95140675e-003
,,,-5.25000000e-010,-2.10046925e-003
,,,-5.00000000e-010,-2.25093800e-003
,,,-4.75000000e-010,-2.40000051e-003
,,,-4.50000000e-010,-2.55750051e-003
,,,-4.25000000e-010,-2.71453176e-003
,,,-4.00000000e-010,-2.87062551e-003
,,,-3.75000000e-010,-3.02390676e-003
,,,-3.50000000e-010,-3.17390676e-003
,,,-3.25000000e-010,-3.32015676e-003
,,,-3.00000000e-010,-3.46218801e-003
,,,-2.75000000e-010,-3.60000052e-003
,,,-2.50000000e-010,-3.73546927e-003
,,,-2.25000000e-010,-3.87187552e-003
,,,-2.00000000e-010,-4.00968802e-003
,,,-1.75000000e-010,-4.14750052e-003
,,,-1.50000000e-010,-4.28531302e-003
,,,-1.25000000e-010,-4.42078177e-003
,,,-1.00000000e-010,-4.55250052e-003
,,,-7.50000000e-011,-4.68000052e-003
,,,-5.00000000e-011,-4.79390678e-003
,,,-2.50000000e-011,-4.90640678e-003
,,,0.00000000e+000,-5.01750053e-003
,,,2.50000000e-011,-5.12625053e-003
,,,5.00000000e-011,-5.23218803e-003
,,,7.50000000e-011,-5.33390678e-003
,,,1.00000000e-010,-5.43000053e-003
,,,1.25000000e-010,-5.52000053e-003
,,,1.50000000e-010,-5.58656303e-003
,,,1.75000000e-010,-5.65078178e-003
,,,2.00000000e-010,-5.71406303e-003
,,,2.25000000e-010,-5.77546928e-003
,,,2.50000000e-010,-5.83593804e-003
,,,2.75000000e-010,-5.89406304e-003
,,,3.00000000e-010,-5.94890679e-003
,,,3.25000000e-010,-6.00000054e-003
,,,3.50000000e-010,-6.02484429e-003
,,,3.75000000e-010,-6.04968804e-003
,,,4.00000000e-010,-6.07640679e-003
,,,4.25000000e-010,-6.10593804e-003
,,,4.50000000e-010,-6.13781304e-003
,,,4.75000000e-010,-6.17109429e-003
,,,5.00000000e-010,-6.20578179e-003
,,,5.25000000e-010,-6.24000054e-003
,,,5.50000000e-010,-6.24984429e-003
,,,5.75000000e-010,-6.26109429e-003
,,,6.00000000e-010,-6.27468804e-003
,,,6.25000000e-010,-6.29015679e-003
,,,6.50000000e-010,-6.30750054e-003
,,,6.75000000e-010,-6.32578179e-003
,,,7.00000000e-010,-6.34359429e-003
,,,7.25000000e-010,-6.36000054e-003
,,,7.50000000e-010,-6.34875054e-003
,,,7.75000000e-010,-6.33515679e-003
,,,8.00000000e-010,-6.31968804e-003
,,,8.25000000e-010,-6.30421929e-003
,,,8.50000000e-010,-6.28921929e-003
,,,8.75000000e-010,-6.27375054e-003
,,,9.00000000e-010,-6.25781304e-003
,,,9.25000000e-010,-6.24000054e-003
,,,9.50000000e-010,-6.19687554e-003
,,,9.75000000e-010,-6.14859429e-003
,,,1.00000000e-009,-6.09562554e-003
,,,1.02500000e-009,-6.03796929e-003
,,,1.05000000e-009,-5.97609429e-003
,,,1.07500000e-009,-5.90859429e-003
,,,1.10000000e-009,-5.83687554e-003
,,,1.12500000e-009,-5.76000053e-003
,,,1.15000000e-009,-5.66250053e-003
,,,1.17500000e-009,-5.56078178e-003
,,,1.20000000e-009,-5.45906303e-003
,,,1.22500000e-009,-5.35968803e-003
,,,1.25000000e-009,-5.26640678e-003
,,,1.27500000e-009,-5.18156303e-003
,,,1.30000000e-009,-5.10609428e-003
,,,1.32500000e-009,-5.04000053e-003
,,,1.35000000e-009,-4.97109428e-003
,,,1.37500000e-009,-4.90500053e-003
,,,1.40000000e-009,-4.84031303e-003
,,,1.42500000e-009,-4.77328178e-003
,,,1.45000000e-009,-4.70250053e-003
,,,1.47500000e-009,-4.62468802e-003
,,,1.50000000e-009,-4.53796927e-003
,,,1.52500000e-009,-4.44000052e-003
,,,1.55000000e-009,-4.32468802e-003
,,,1.57500000e-009,-4.19578177e-003
,,,1.60000000e-009,-4.05609427e-003
,,,1.62500000e-009,-3.91078177e-003
,,,1.65000000e-009,-3.76359427e-003
,,,1.67500000e-009,-3.61968802e-003
,,,1.70000000e-009,-3.48421926e-003
,,,1.72500000e-009,-3.36000051e-003
,,,1.75000000e-009,-3.25265676e-003
,,,1.77500000e-009,-3.15609426e-003
,,,1.80000000e-009,-3.07031301e-003
,,,1.82500000e-009,-2.99437551e-003
,,,1.85000000e-009,-2.92734426e-003
,,,1.87500000e-009,-2.86687551e-003
,,,1.90000000e-009,-2.81203176e-003
,,,1.92500000e-009,-2.76000051e-003
,,,1.95000000e-009,-2.71593801e-003
,,,1.97500000e-009,-2.66625051e-003
,,,2.00000000e-009,-2.61046926e-003
,,,2.02500000e-009,-2.54906301e-003
,,,2.05000000e-009,-2.48390676e-003
,,,2.07500000e-009,-2.41593801e-003
,,,2.10000000e-009,-2.34750050e-003
,,,2.12500000e-009,-2.28000050e-003
,,,2.15000000e-009,-2.22234425e-003
,,,2.17500000e-009,-2.16281300e-003
,,,2.20000000e-009,-2.10234425e-003
,,,2.22500000e-009,-2.04046925e-003
,,,2.25000000e-009,-1.97859425e-003
,,,2.27500000e-009,-1.91765675e-003
,,,2.30000000e-009,-1.85765675e-003
,,,2.32500000e-009,-1.80000050e-003
,,,2.35000000e-009,-1.75265675e-003
,,,2.37500000e-009,-1.70390675e-003
,,,2.40000000e-009,-1.65468800e-003
,,,2.42500000e-009,-1.60546925e-003
,,,2.45000000e-009,-1.55812550e-003
,,,2.47500000e-009,-1.51406300e-003
,,,2.50000000e-009,-1.47421925e-003
,,,2.52500000e-009,-1.44000050e-003
,,,2.55000000e-009,-1.41937550e-003
,,,2.57500000e-009,-1.40015675e-003
,,,2.60000000e-009,-1.38281300e-003
,,,2.62500000e-009,-1.36687550e-003
,,,2.65000000e-009,-1.35281300e-003
,,,2.67500000e-009,-1.34015675e-003
,,,2.70000000e-009,-1.32937550e-003
,,,2.72500000e-009,-1.32000050e-003
,,,2.75000000e-009,-1.31578175e-003
,,,2.77500000e-009,-1.30875050e-003
,,,2.80000000e-009,-1.29843800e-003
,,,2.82500000e-009,-1.28484425e-003
,,,2.85000000e-009,-1.26750050e-003
,,,2.87500000e-009,-1.24781300e-003
,,,2.90000000e-009,-1.22484424e-003
,,,2.92500000e-009,-1.20000049e-003
,,,2.95000000e-009,-1.17609424e-003
,,,2.97500000e-009,-1.14843799e-003
,,,3.00000000e-009,-1.11796924e-003
,,,3.02500000e-009,-1.08562549e-003
,,,3.05000000e-009,-1.05328174e-003
,,,3.07500000e-009,-1.02093799e-003
,,,3.10000000e-009,-9.89531743e-004
,,,3.12500000e-009,-9.60000493e-004
,,,3.15000000e-009,-9.34219242e-004
,,,3.17500000e-009,-9.07500492e-004
,,,3.20000000e-009,-8.80312992e-004
,,,3.22500000e-009,-8.51719242e-004
,,,3.25000000e-009,-8.21250491e-004
,,,3.27500000e-009,-7.88906741e-004
,,,3.30000000e-009,-7.55156741e-004
,,,3.32500000e-009,-7.20000491e-004
,,,3.35000000e-009,-6.86719240e-004
,,,3.37500000e-009,-6.52031740e-004
,,,3.40000000e-009,-6.17344240e-004
,,,3.42500000e-009,-5.82656739e-004
,,,3.45000000e-009,-5.50781739e-004
,,,3.47500000e-009,-5.22187989e-004
,,,3.50000000e-009,-4.98281739e-004
,,,3.52500000e-009,-4.80000488e-004
,,,3.55000000e-009,-4.71094238e-004
,,,3.57500000e-009,-4.66406738e-004
,,,3.60000000e-009,-4.65469238e-004
,,,3.62500000e-009,-4.67344238e-004
,,,3.65000000e-009,-4.71094238e-004
,,,3.67500000e-009,-4.75312988e-004
,,,3.70000000e-009,-4.78594238e-004
,,,3.72500000e-009,-4.80000488e-004
,,,3.75000000e-009,-4.81875488e-004
,,,3.77500000e-009,-4.79062988e-004
,,,3.80000000e-009,-4.71094238e-004
,,,3.82500000e-009,-4.57031738e-004
,,,3.85000000e-009,-4.38281738e-004
,,,3.87500000e-009,-4.15312988e-004
,,,3.90000000e-009,-3.88594238e-004
,,,3.92500000e-009,-3.60000487e-004
,,,3.95000000e-009,-3.36094237e-004
,,,3.97500000e-009,-3.13125487e-004
,,,4.00000000e-009,-2.91094237e-004
,,,4.02500000e-009,-2.71875487e-004
,,,4.05000000e-009,-2.56875487e-004
,,,4.07500000e-009,-2.46094236e-004
,,,4.10000000e-009,-2.40469236e-004
,,,4.12500000e-009,-2.40000486e-004
,,,4.15000000e-009,-2.50312986e-004
,,,4.17500000e-009,-2.64375487e-004
,,,4.20000000e-009,-2.81250487e-004
,,,4.22500000e-009,-2.99531737e-004
,,,4.25000000e-009,-3.17344237e-004
,,,4.27500000e-009,-3.34219237e-004
,,,4.30000000e-009,-3.48750487e-004
,,,4.32500000e-009,-3.60000487e-004
,,,4.35000000e-009,-3.69844238e-004
,,,4.37500000e-009,-3.75469238e-004
,,,4.40000000e-009,-3.76875488e-004
,,,4.42500000e-009,-3.75469238e-004
,,,4.45000000e-009,-3.71719238e-004
,,,4.47500000e-009,-3.67031737e-004
,,,4.50000000e-009,-3.62812987e-004
,,,4.52500000e-009,-3.60000487e-004
,,,4.55000000e-009,-3.60937987e-004
,,,4.57500000e-009,-3.65625487e-004
,,,4.60000000e-009,-3.74062988e-004
,,,4.62500000e-009,-3.86719238e-004
,,,4.65000000e-009,-4.04062988e-004
,,,4.67500000e-009,-4.26094238e-004
,,,4.70000000e-009,-4.51406738e-004
,,,4.72500000e-009,-4.80000488e-004
,,,4.75000000e-009,-5.10937989e-004
,,,4.77500000e-009,-5.42812989e-004
,,,4.80000000e-009,-5.75156739e-004
,,,4.82500000e-009,-6.07031740e-004
,,,4.85000000e-009,-6.38437990e-004
,,,4.87500000e-009,-6.68437990e-004
,,,4.90000000e-009,-6.95625490e-004
,,,4.92500000e-009,-7.20000491e-004
,,,4.95000000e-009,-7.37344241e-004
,,,4.97500000e-009,-7.50469241e-004
,,,5.00000000e-009,-7.58437991e-004
,,,5.02500000e-009,-7.61250491e-004
,,,5.05000000e-009,-7.58437991e-004
,,,5.07500000e-009,-7.50937991e-004
,,,5.10000000e-009,-7.38281741e-004
,,,5.12500000e-009,-7.20000491e-004
,,,5.15000000e-009,-6.93281740e-004
,,,5.17500000e-009,-6.63281740e-004
,,,5.20000000e-009,-6.31406740e-004
,,,5.22500000e-009,-5.98594239e-004
,,,5.25000000e-009,-5.66250489e-004
,,,5.27500000e-009,-5.35312989e-004
,,,5.30000000e-009,-5.06250489e-004
,,,5.32500000e-009,-4.80000488e-004
,,,5.35000000e-009,-4.55156738e-004
,,,5.37500000e-009,-4.33594238e-004
,,,5.40000000e-009,-4.15312988e-004
,,,5.42500000e-009,-3.99844238e-004
,,,5.45000000e-009,-3.87187988e-004
,,,5.47500000e-009,-3.76406738e-004
,,,5.50000000e-009,-3.67500487e-004
,,,5.52500000e-009,-3.60000487e-004
,,,5.55000000e-009,-3.54375487e-004
,,,5.57500000e-009,-3.49687987e-004
,,,5.60000000e-009,-3.46875487e-004
,,,5.62500000e-009,-3.45937987e-004
,,,5.65000000e-009,-3.46875487e-004
,,,5.67500000e-009,-3.49219237e-004
,,,5.70000000e-009,-3.53906737e-004
,,,5.72500000e-009,-3.60000487e-004
,,,5.75000000e-009,-3.67500487e-004
,,,5.77500000e-009,-3.74062988e-004
,,,5.80000000e-009,-3.80156738e-004
,,,5.82500000e-009,-3.83906738e-004
