RawData/DifferentLengths/R3/R3_12pt5_5mV/wave030_Ch3.csv

"Record Length",1000,"Points",-7.72500000e-009,-2.13281736e-004
"Sample Interval",2.50000000e-011,s,-7.70000000e-009,-1.89375486e-004
"Trigger Point",309,"Samples",-7.67500000e-009,-1.64062986e-004
"Trigger Time",1.65063388e-011,s,-7.65000000e-009,-1.42031736e-004
"",,,-7.62500000e-009,-1.26562985e-004
"Horizontal Offset",-7.72500000e-009,s,-7.60000000e-009,-1.20000485e-004
,,,-7.57500000e-009,-1.23750485e-004
,,,-7.55000000e-009,-1.36875485e-004
,,,-7.52500000e-009,-1.57500486e-004
,,,-7.50000000e-009,-1.82344236e-004
,,,-7.47500000e-009,-2.06719236e-004
,,,-7.45000000e-009,-2.27344236e-004
,,,-7.42500000e-009,-2.39531736e-004
,,,-7.40000000e-009,-2.40000486e-004
,,,-7.37500000e-009,-2.25469236e-004
,,,-7.35000000e-009,-1.97812986e-004
,,,-7.32500000e-009,-1.57500486e-004
,,,-7.30000000e-009,-1.07812985e-004
,,,-7.27500000e-009,-5.15629847e-005
,,,-7.25000000e-009,7.49951578e-006
,,,-7.22500000e-009,6.56245163e-005
,,,-7.20000000e-009,1.19999517e-004
,,,-7.17500000e-009,1.64999517e-004
,,,-7.15000000e-009,2.01093267e-004
,,,-7.12500000e-009,2.26874518e-004
,,,-7.10000000e-009,2.43749518e-004
,,,-7.07500000e-009,2.51718268e-004
,,,-7.05000000e-009,2.52655768e-004
,,,-7.02500000e-009,2.48437018e-004
,,,-7.00000000e-009,2.39999518e-004
,,,-6.97500000e-009,2.25468268e-004
,,,-6.95000000e-009,2.09999518e-004
,,,-6.92500000e-009,1.93593267e-004
,,,-6.90000000e-009,1.78124517e-004
,,,-6.87500000e-009,1.62655767e-004
,,,-6.85000000e-009,1.48124517e-004
,,,-6.82500000e-009,1.34062017e-004
,,,-6.80000000e-009,1.19999517e-004
,,,-6.77500000e-009,1.02187017e-004
,,,-6.75000000e-009,8.43745164e-005
,,,-6.72500000e-009,6.74995163e-005
,,,-6.70000000e-009,5.10932662e-005
,,,-6.67500000e-009,3.56245160e-005
,,,-6.65000000e-009,2.20307659e-005
,,,-6.62500000e-009,9.84326580e-006
,,,-6.60000000e-009,-4.84287738e-010
,,,-6.57500000e-009,-8.90673437e-006
,,,-6.55000000e-009,-1.50004844e-005
,,,-6.52500000e-009,-1.82817344e-005
,,,-6.50000000e-009,-1.87504845e-005
,,,-6.47500000e-009,-1.68754844e-005
,,,-6.45000000e-009,-1.26567344e-005
,,,-6.42500000e-009,-7.03173435e-006
,,,-6.40000000e-009,-4.84287738e-010
,,,-6.37500000e-009,5.62451576e-006
,,,-6.35000000e-009,1.12495158e-005
,,,-6.32500000e-009,1.54682658e-005
,,,-6.30000000e-009,1.87495159e-005
,,,-6.27500000e-009,1.92182659e-005
,,,-6.25000000e-009,1.68745159e-005
,,,-6.22500000e-009,1.03120158e-005
,,,-6.20000000e-009,-4.84287738e-010
,,,-6.17500000e-009,-1.54692344e-005
,,,-6.15000000e-009,-3.51567346e-005
,,,-6.12500000e-009,-6.04692348e-005
,,,-6.10000000e-009,-9.00004851e-005
,,,-6.07500000e-009,-1.23750485e-004
,,,-6.05000000e-009,-1.60781736e-004
,,,-6.02500000e-009,-2.00156736e-004
,,,-6.00000000e-009,-2.40000486e-004
,,,-5.97500000e-009,-2.74219237e-004
,,,-5.95000000e-009,-3.05156737e-004
,,,-5.92500000e-009,-3.31406737e-004
,,,-5.90000000e-009,-3.52031737e-004
,,,-5.87500000e-009,-3.65625487e-004
,,,-5.85000000e-009,-3.72187988e-004
,,,-5.82500000e-009,-3.70312988e-004
,,,-5.80000000e-009,-3.60000487e-004
,,,-5.77500000e-009,-3.37969237e-004
,,,-5.75000000e-009,-3.09844237e-004
,,,-5.72500000e-009,-2.77500487e-004
,,,-5.70000000e-009,-2.42344236e-004
,,,-5.67500000e-009,-2.07656736e-004
,,,-5.65000000e-009,-1.74375486e-004
,,,-5.62500000e-009,-1.44844236e-004
,,,-5.60000000e-009,-1.20000485e-004
,,,-5.57500000e-009,-9.93754852e-005
,,,-5.55000000e-009,-8.48442350e-005
,,,-5.52500000e-009,-7.78129850e-005
,,,-5.50000000e-009,-7.73442350e-005
,,,-5.47500000e-009,-8.29692350e-005
,,,-5.45000000e-009,-9.32817351e-005
,,,-5.42500000e-009,-1.06406735e-004
,,,-5.40000000e-009,-1.20000485e-004
,,,-5.37500000e-009,-1.29375485e-004
,,,-5.35000000e-009,-1.34062985e-004
,,,-5.32500000e-009,-1.32656735e-004
,,,-5.30000000e-009,-1.23750485e-004
,,,-5.27500000e-009,-1.06406735e-004
,,,-5.25000000e-009,-7.96879850e-005
,,,-5.22500000e-009,-4.40629847e-005
,,,-5.20000000e-009,-4.84287738e-010
,,,-5.17500000e-009,5.15620162e-005
,,,-5.15000000e-009,1.07343267e-004
,,,-5.12500000e-009,1.63593267e-004
,,,-5.10000000e-009,2.17968268e-004
,,,-5.07500000e-009,2.67187018e-004
,,,-5.05000000e-009,3.08437018e-004
,,,-5.02500000e-009,3.39843269e-004
,,,-5.00000000e-009,3.59999519e-004
,,,-4.97500000e-009,3.64687019e-004
,,,-4.95000000e-009,3.59062019e-004
,,,-4.92500000e-009,3.44999519e-004
,,,-4.90000000e-009,3.24843269e-004
,,,-4.87500000e-009,3.01405768e-004
,,,-4.85000000e-009,2.77499518e-004
,,,-4.82500000e-009,2.55937018e-004
,,,-4.80000000e-009,2.39999518e-004
,,,-4.77500000e-009,2.27812018e-004
,,,-4.75000000e-009,2.24530768e-004
,,,-4.72500000e-009,2.30624518e-004
,,,-4.70000000e-009,2.45155768e-004
,,,-4.67500000e-009,2.67655768e-004
,,,-4.65000000e-009,2.95312018e-004
,,,-4.62500000e-009,3.26718269e-004
,,,-4.60000000e-009,3.59999519e-004
,,,-4.57500000e-009,3.88124519e-004
,,,-4.55000000e-009,4.14374519e-004
,,,-4.52500000e-009,4.36405770e-004
,,,-4.50000000e-009,4.54687020e-004
,,,-4.47500000e-009,4.67812020e-004
,,,-4.45000000e-009,4.76249520e-004
,,,-4.42500000e-009,4.80468270e-004
,,,-4.40000000e-009,4.79999520e-004
,,,-4.37500000e-009,4.71093270e-004
,,,-4.35000000e-009,4.59374520e-004
,,,-4.32500000e-009,4.45312020e-004
,,,-4.30000000e-009,4.29843269e-004
,,,-4.27500000e-009,4.12968269e-004
,,,-4.25000000e-009,3.95624519e-004
,,,-4.22500000e-009,3.77812019e-004
,,,-4.20000000e-009,3.59999519e-004
,,,-4.17500000e-009,3.40312019e-004
,,,-4.15000000e-009,3.21562019e-004
,,,-4.12500000e-009,3.04687018e-004
,,,-4.10000000e-009,2.89218268e-004
,,,-4.07500000e-009,2.75624518e-004
,,,-4.05000000e-009,2.62968268e-004
,,,-4.02500000e-009,2.50780768e-004
,,,-4.00000000e-009,2.39999518e-004
,,,-3.97500000e-009,2.28749518e-004
,,,-3.95000000e-009,2.16562018e-004
,,,-3.92500000e-009,2.03905767e-004
,,,-3.90000000e-009,1.90312017e-004
,,,-3.87500000e-009,1.74843267e-004
,,,-3.85000000e-009,1.57968267e-004
,,,-3.82500000e-009,1.39218267e-004
,,,-3.80000000e-009,1.19999517e-004
,,,-3.77500000e-009,9.98432666e-005
,,,-3.75000000e-009,8.01557664e-005
,,,-3.72500000e-009,6.14057662e-005
,,,-3.70000000e-009,4.35932661e-005
,,,-3.67500000e-009,2.76557660e-005
,,,-3.65000000e-009,1.49995158e-005
,,,-3.62500000e-009,5.15576576e-006
,,,-3.60000000e-009,-4.84287738e-010
,,,-3.57500000e-009,4.68265716e-007
,,,-3.55000000e-009,5.15576576e-006
,,,-3.52500000e-009,1.45307658e-005
,,,-3.50000000e-009,2.85932660e-005
,,,-3.47500000e-009,4.64057661e-005
,,,-3.45000000e-009,6.84370163e-005
,,,-3.42500000e-009,9.28120165e-005
,,,-3.40000000e-009,1.19999517e-004
,,,-3.37500000e-009,1.47187017e-004
,,,-3.35000000e-009,1.73437017e-004
,,,-3.32500000e-009,1.96405767e-004
,,,-3.30000000e-009,2.15624518e-004
,,,-3.27500000e-009,2.30155768e-004
,,,-3.25000000e-009,2.39062018e-004
,,,-3.22500000e-009,2.42343268e-004
,,,-3.20000000e-009,2.39999518e-004
,,,-3.17500000e-009,2.30155768e-004
,,,-3.15000000e-009,2.16093268e-004
,,,-3.12500000e-009,1.98749517e-004
,,,-3.10000000e-009,1.79530767e-004
,,,-3.07500000e-009,1.60780767e-004
,,,-3.05000000e-009,1.43905767e-004
,,,-3.02500000e-009,1.29843267e-004
,,,-3.00000000e-009,1.19999517e-004
,,,-2.97500000e-009,1.12499517e-004
,,,-2.95000000e-009,1.08749517e-004
,,,-2.92500000e-009,1.08280767e-004
,,,-2.90000000e-009,1.10624517e-004
,,,-2.87500000e-009,1.13905767e-004
,,,-2.85000000e-009,1.17187017e-004
,,,-2.82500000e-009,1.19530767e-004
,,,-2.80000000e-009,1.19999517e-004
,,,-2.77500000e-009,1.15312017e-004
,,,-2.75000000e-009,1.06874517e-004
,,,-2.72500000e-009,9.46870165e-005
,,,-2.70000000e-009,7.92182664e-005
,,,-2.67500000e-009,6.09370162e-005
,,,-2.65000000e-009,4.12495161e-005
,,,-2.62500000e-009,2.06245159e-005
,,,-2.60000000e-009,-4.84287738e-010
,,,-2.57500000e-009,-1.96879845e-005
,,,-2.55000000e-009,-3.75004846e-005
,,,-2.52500000e-009,-5.39067348e-005
,,,-2.50000000e-009,-6.84379849e-005
,,,-2.47500000e-009,-8.20317350e-005
,,,-2.45000000e-009,-9.46879851e-005
,,,-2.42500000e-009,-1.07344235e-004
,,,-2.40000000e-009,-1.20000485e-004
,,,-2.37500000e-009,-1.32187985e-004
,,,-2.35000000e-009,-1.44844236e-004
,,,-2.32500000e-009,-1.58437986e-004
,,,-2.30000000e-009,-1.73437986e-004
,,,-2.27500000e-009,-1.89375486e-004
,,,-2.25000000e-009,-2.05781736e-004
,,,-2.22500000e-009,-2.22656736e-004
,,,-2.20000000e-009,-2.40000486e-004
,,,-2.17500000e-009,-2.55937987e-004
,,,-2.15000000e-009,-2.71875487e-004
,,,-2.12500000e-009,-2.87812987e-004
,,,-2.10000000e-009,-3.04219237e-004
,,,-2.07500000e-009,-3.20156737e-004
,,,-2.05000000e-009,-3.35156737e-004
,,,-2.02500000e-009,-3.48750487e-004
,,,-2.00000000e-009,-3.60000487e-004
,,,-1.97500000e-009,-3.66562987e-004
,,,-1.95000000e-009,-3.68906737e-004
,,,-1.92500000e-009,-3.66094237e-004
,,,-1.90000000e-009,-3.57187987e-004
,,,-1.87500000e-009,-3.40312987e-004
,,,-1.85000000e-009,-3.15469237e-004
,,,-1.82500000e-009,-2.81719237e-004
,,,-1.80000000e-009,-2.40000486e-004
,,,-1.77500000e-009,-1.95469236e-004
,,,-1.75000000e-009,-1.47187986e-004
,,,-1.72500000e-009,-9.65629851e-005
,,,-1.70000000e-009,-4.64067347e-005
,,,-1.67500000e-009,2.34326573e-006
,,,-1.65000000e-009,4.73432661e-005
,,,-1.62500000e-009,8.71870165e-005
,,,-1.60000000e-009,1.19999517e-004
,,,-1.57500000e-009,1.31718267e-004
,,,-1.55000000e-009,1.32187017e-004
,,,-1.52500000e-009,1.23280767e-004
,,,-1.50000000e-009,1.05937017e-004
,,,-1.47500000e-009,8.29682664e-005
,,,-1.45000000e-009,5.62495162e-005
,,,-1.42500000e-009,2.81245160e-005
,,,-1.40000000e-009,-4.84287738e-010
,,,-1.37500000e-009,-4.40629847e-005
,,,-1.35000000e-009,-8.76567350e-005
,,,-1.32500000e-009,-1.27969235e-004
,,,-1.30000000e-009,-1.63594236e-004
,,,-1.27500000e-009,-1.93125486e-004
,,,-1.25000000e-009,-2.15625486e-004
,,,-1.22500000e-009,-2.30625486e-004
,,,-1.20000000e-009,-2.40000486e-004
,,,-1.17500000e-009,-2.64375487e-004
,,,-1.15000000e-009,-2.89219237e-004
,,,-1.12500000e-009,-3.14531737e-004
,,,-1.10000000e-009,-3.41719237e-004
,,,-1.07500000e-009,-3.71250488e-004
,,,-1.05000000e-009,-4.03125488e-004
,,,-1.02500000e-009,-4.39219238e-004
,,,-1.00000000e-009,-4.80000488e-004
,,,-9.75000000e-010,-5.48906739e-004
,,,-9.50000000e-010,-6.27187990e-004
,,,-9.25000000e-010,-7.13437990e-004
,,,-9.00000000e-010,-8.05312991e-004
,,,-8.75000000e-010,-9.01406742e-004
,,,-8.50000000e-010,-9.99844243e-004
,,,-8.25000000e-010,-1.09968799e-003
,,,-8.00000000e-010,-1.20000049e-003
,,,-7.75000000e-010,-1.31765675e-003
,,,-7.50000000e-010,-1.44046925e-003
,,,-7.25000000e-010,-1.56843800e-003
,,,-7.00000000e-010,-1.70109425e-003
,,,-6.75000000e-010,-1.83890675e-003
,,,-6.50000000e-010,-1.98187550e-003
,,,-6.25000000e-010,-2.12906300e-003
,,,-6.00000000e-010,-2.28000050e-003
,,,-5.75000000e-010,-2.43984426e-003
,,,-5.50000000e-010,-2.60343801e-003
,,,-5.25000000e-010,-2.76843801e-003
,,,-5.00000000e-010,-2.93062551e-003
,,,-4.75000000e-010,-3.08578176e-003
,,,-4.50000000e-010,-3.23062551e-003
,,,-4.25000000e-010,-3.36281301e-003
,,,-4.00000000e-010,-3.48000051e-003
,,,-3.75000000e-010,-3.57937552e-003
,,,-3.50000000e-010,-3.66984427e-003
,,,-3.25000000e-010,-3.75562552e-003
,,,-3.00000000e-010,-3.83859427e-003
,,,-2.75000000e-010,-3.92250052e-003
,,,-2.50000000e-010,-4.00968802e-003
,,,-2.25000000e-010,-4.10156302e-003
,,,-2.00000000e-010,-4.20000052e-003
,,,-1.75000000e-010,-4.29515677e-003
,,,-1.50000000e-010,-4.39968802e-003
,,,-1.25000000e-010,-4.51218802e-003
,,,-1.00000000e-010,-4.62843802e-003
,,,-7.50000000e-011,-4.74421928e-003
,,,-5.00000000e-011,-4.85437553e-003
,,,-2.50000000e-011,-4.95421928e-003
,,,0.00000000e+000,-5.04000053e-003
,,,2.50000000e-011,-5.09343803e-003
,,,5.00000000e-011,-5.13515678e-003
,,,7.50000000e-011,-5.16796928e-003
,,,1.00000000e-010,-5.19421928e-003
,,,1.25000000e-010,-5.21625053e-003
,,,1.50000000e-010,-5.23640678e-003
,,,1.75000000e-010,-5.25703178e-003
,,,2.00000000e-010,-5.28000053e-003
,,,2.25000000e-010,-5.28750053e-003
,,,2.50000000e-010,-5.30343803e-003
,,,2.75000000e-010,-5.32828178e-003
,,,3.00000000e-010,-5.36109428e-003
,,,3.25000000e-010,-5.39953178e-003
,,,3.50000000e-010,-5.44078178e-003
,,,3.75000000e-010,-5.48250053e-003
,,,4.00000000e-010,-5.52000053e-003
,,,4.25000000e-010,-5.53171928e-003
,,,4.50000000e-010,-5.53828178e-003
,,,4.75000000e-010,-5.54109428e-003
,,,5.00000000e-010,-5.54062553e-003
,,,5.25000000e-010,-5.53734428e-003
,,,5.50000000e-010,-5.53218803e-003
,,,5.75000000e-010,-5.52656303e-003
,,,6.00000000e-010,-5.52000053e-003
,,,6.25000000e-010,-5.49468803e-003
,,,6.50000000e-010,-5.47078178e-003
,,,6.75000000e-010,-5.44968803e-003
,,,7.00000000e-010,-5.43234428e-003
,,,7.25000000e-010,-5.41921928e-003
,,,7.50000000e-010,-5.41031303e-003
,,,7.75000000e-010,-5.40421928e-003
,,,8.00000000e-010,-5.40000053e-003
,,,8.25000000e-010,-5.37703178e-003
,,,8.50000000e-010,-5.35171928e-003
,,,8.75000000e-010,-5.32500053e-003
,,,9.00000000e-010,-5.29640678e-003
,,,9.25000000e-010,-5.26593803e-003
,,,9.50000000e-010,-5.23359428e-003
,,,9.75000000e-010,-5.19890678e-003
,,,1.00000000e-009,-5.16000053e-003
,,,1.02500000e-009,-5.10093803e-003
,,,1.05000000e-009,-5.03484428e-003
,,,1.07500000e-009,-4.96312553e-003
,,,1.10000000e-009,-4.88718803e-003
,,,1.12500000e-009,-4.80750053e-003
,,,1.15000000e-009,-4.72593803e-003
,,,1.17500000e-009,-4.64343802e-003
,,,1.20000000e-009,-4.56000052e-003
,,,1.22500000e-009,-4.46484427e-003
,,,1.25000000e-009,-4.36828177e-003
,,,1.27500000e-009,-4.27218802e-003
,,,1.30000000e-009,-4.17796927e-003
,,,1.32500000e-009,-4.08703177e-003
,,,1.35000000e-009,-4.00031302e-003
,,,1.37500000e-009,-3.91828177e-003
,,,1.40000000e-009,-3.84000052e-003
,,,1.42500000e-009,-3.75984427e-003
,,,1.45000000e-009,-3.67781302e-003
,,,1.47500000e-009,-3.59390677e-003
,,,1.50000000e-009,-3.50671926e-003
,,,1.52500000e-009,-3.41625051e-003
,,,1.55000000e-009,-3.32156301e-003
,,,1.57500000e-009,-3.22265676e-003
,,,1.60000000e-009,-3.12000051e-003
,,,1.62500000e-009,-3.01453176e-003
,,,1.65000000e-009,-2.90437551e-003
,,,1.67500000e-009,-2.79140676e-003
,,,1.70000000e-009,-2.67796926e-003
,,,1.72500000e-009,-2.56734426e-003
,,,1.75000000e-009,-2.46281301e-003
,,,1.77500000e-009,-2.36671925e-003
,,,1.80000000e-009,-2.28000050e-003
,,,1.82500000e-009,-2.20968800e-003
,,,1.85000000e-009,-2.14500050e-003
,,,1.87500000e-009,-2.08453175e-003
,,,1.90000000e-009,-2.02687550e-003
,,,1.92500000e-009,-1.97062550e-003
,,,1.95000000e-009,-1.91484425e-003
,,,1.97500000e-009,-1.85859425e-003
,,,2.00000000e-009,-1.80000050e-003
,,,2.02500000e-009,-1.74890675e-003
,,,2.05000000e-009,-1.69125050e-003
,,,2.07500000e-009,-1.62843800e-003
,,,2.10000000e-009,-1.56281300e-003
,,,2.12500000e-009,-1.49578175e-003
,,,2.15000000e-009,-1.43156300e-003
,,,2.17500000e-009,-1.37203175e-003
,,,2.20000000e-009,-1.32000050e-003
,,,2.22500000e-009,-1.28671925e-003
,,,2.25000000e-009,-1.25953175e-003
,,,2.27500000e-009,-1.23796925e-003
,,,2.30000000e-009,-1.22203174e-003
,,,2.32500000e-009,-1.21078174e-003
,,,2.35000000e-009,-1.20421924e-003
,,,2.37500000e-009,-1.20140674e-003
,,,2.40000000e-009,-1.20000049e-003
,,,2.42500000e-009,-1.20609424e-003
,,,2.45000000e-009,-1.20656299e-003
,,,2.47500000e-009,-1.20093799e-003
,,,2.50000000e-009,-1.18828174e-003
,,,2.52500000e-009,-1.16953174e-003
,,,2.55000000e-009,-1.14421924e-003
,,,2.57500000e-009,-1.11421924e-003
,,,2.60000000e-009,-1.08000049e-003
,,,2.62500000e-009,-1.04765674e-003
,,,2.65000000e-009,-1.01156299e-003
,,,2.67500000e-009,-9.74062993e-004
,,,2.70000000e-009,-9.37500492e-004
,,,2.72500000e-009,-9.04219242e-004
,,,2.75000000e-009,-8.75625492e-004
,,,2.77500000e-009,-8.54062992e-004
,,,2.80000000e-009,-8.40000492e-004
,,,2.82500000e-009,-8.35312992e-004
,,,2.85000000e-009,-8.34844242e-004
,,,2.87500000e-009,-8.37656742e-004
,,,2.90000000e-009,-8.41875492e-004
,,,2.92500000e-009,-8.45625492e-004
,,,2.95000000e-009,-8.47500492e-004
,,,2.97500000e-009,-8.46094242e-004
,,,3.00000000e-009,-8.40000492e-004
,,,3.02500000e-009,-8.27812991e-004
,,,3.05000000e-009,-8.08125491e-004
,,,3.07500000e-009,-7.80937991e-004
,,,3.10000000e-009,-7.49062991e-004
,,,3.12500000e-009,-7.12969240e-004
,,,3.15000000e-009,-6.75000490e-004
,,,3.17500000e-009,-6.37031740e-004
,,,3.20000000e-009,-6.00000490e-004
,,,3.22500000e-009,-5.65312989e-004
,,,3.25000000e-009,-5.32500489e-004
,,,3.27500000e-009,-5.02031739e-004
,,,3.30000000e-009,-4.72500488e-004
,,,3.32500000e-009,-4.44375488e-004
,,,3.35000000e-009,-4.16719238e-004
,,,3.37500000e-009,-3.88594238e-004
,,,3.40000000e-009,-3.60000487e-004
,,,3.42500000e-009,-3.32812987e-004
,,,3.45000000e-009,-3.03750487e-004
,,,3.47500000e-009,-2.73281737e-004
,,,3.50000000e-009,-2.41406736e-004
,,,3.52500000e-009,-2.09062986e-004
,,,3.55000000e-009,-1.77656736e-004
,,,3.57500000e-009,-1.47656736e-004
,,,3.60000000e-009,-1.20000485e-004
,,,3.62500000e-009,-9.89067351e-005
,,,3.65000000e-009,-8.01567350e-005
,,,3.67500000e-009,-6.32817348e-005
,,,3.70000000e-009,-4.82817347e-005
,,,3.72500000e-009,-3.46879846e-005
,,,3.75000000e-009,-2.25004845e-005
,,,3.77500000e-009,-1.12504844e-005
,,,3.80000000e-009,-4.84287738e-010
,,,3.82500000e-009,7.03076577e-006
,,,3.85000000e-009,1.64057659e-005
,,,3.87500000e-009,2.76557660e-005
,,,3.90000000e-009,4.17182661e-005
,,,3.92500000e-009,5.85932662e-005
,,,3.95000000e-009,7.73432664e-005
,,,3.97500000e-009,9.84370166e-005
,,,4.00000000e-009,1.19999517e-004
,,,4.02500000e-009,1.34999517e-004
,,,4.05000000e-009,1.48124517e-004
,,,4.07500000e-009,1.58437017e-004
,,,4.10000000e-009,1.64062017e-004
,,,4.12500000e-009,1.64062017e-004
,,,4.15000000e-009,1.57030767e-004
,,,4.17500000e-009,1.42030767e-004
,,,4.20000000e-009,1.19999517e-004
,,,4.22500000e-009,8.62495165e-005
,,,4.25000000e-009,4.87495161e-005
,,,4.27500000e-009,9.84326580e-006
,,,4.30000000e-009,-2.81254845e-005
,,,4.32500000e-009,-6.18754848e-005
,,,4.35000000e-009,-9.00004851e-005
,,,4.37500000e-009,-1.09687985e-004
,,,4.40000000e-009,-1.20000485e-004
,,,4.42500000e-009,-1.21875485e-004
,,,4.45000000e-009,-1.14375485e-004
,,,4.47500000e-009,-9.93754852e-005
,,,4.50000000e-009,-7.92192350e-005
,,,4.52500000e-009,-5.62504848e-005
,,,4.55000000e-009,-3.37504846e-005
,,,4.57500000e-009,-1.45317344e-005
,,,4.60000000e-009,-4.84287738e-010
,,,4.62500000e-009,5.62451576e-006
,,,4.65000000e-009,3.74951574e-006
,,,4.67500000e-009,-5.62548434e-006
,,,4.70000000e-009,-2.15629845e-005
,,,4.72500000e-009,-4.31254847e-005
,,,4.75000000e-009,-6.75004849e-005
,,,4.77500000e-009,-9.42192351e-005
,,,4.80000000e-009,-1.20000485e-004
,,,4.82500000e-009,-1.43437986e-004
,,,4.85000000e-009,-1.63594236e-004
,,,4.87500000e-009,-1.80937986e-004
,,,4.90000000e-009,-1.95469236e-004
,,,4.92500000e-009,-2.08125486e-004
,,,4.95000000e-009,-2.19375486e-004
,,,4.97500000e-009,-2.30156736e-004
,,,5.00000000e-009,-2.40000486e-004
,,,5.02500000e-009,-2.46562986e-004
,,,5.05000000e-009,-2.52656736e-004
,,,5.07500000e-009,-2.57344237e-004
,,,5.10000000e-009,-2.60156737e-004
,,,5.12500000e-009,-2.60625487e-004
,,,5.15000000e-009,-2.57812987e-004
,,,5.17500000e-009,-2.50781736e-004
,,,5.20000000e-009,-2.40000486e-004
,,,5.22500000e-009,-2.23594236e-004
,,,5.25000000e-009,-2.04375486e-004
,,,5.27500000e-009,-1.84687986e-004
,,,5.30000000e-009,-1.65000486e-004
,,,5.32500000e-009,-1.48125486e-004
,,,5.35000000e-009,-1.34062985e-004
,,,5.37500000e-009,-1.24687985e-004
,,,5.40000000e-009,-1.20000485e-004
,,,5.42500000e-009,-1.19062985e-004
,,,5.45000000e-009,-1.21406735e-004
,,,5.47500000e-009,-1.25625485e-004
,,,5.50000000e-009,-1.30312985e-004
,,,5.52500000e-009,-1.34062985e-004
,,,5.55000000e-009,-1.34531735e-004
,,,5.57500000e-009,-1.30312985e-004
,,,5.60000000e-009,-1.20000485e-004
,,,5.62500000e-009,-1.02187985e-004
,,,5.65000000e-009,-7.78129850e-005
,,,5.67500000e-009,-4.82817347e-005
,,,5.70000000e-009,-1.50004844e-005
,,,5.72500000e-009,2.01557659e-005
,,,5.75000000e-009,5.57807662e-005
,,,5.77500000e-009,8.95307665e-005
,,,5.80000000e-009,1.19999517e-004
,,,5.82500000e-009,1.42968267e-004
,,,5.85000000e-009,1.59374517e-004
,,,5.87500000e-009,1.68280767e-004
,,,5.90000000e-009,1.70624517e-004
,,,5.92500000e-009,1.65937017e-004
