RawData/DifferentLengths/R3/R3_12pt5_5mV/wave004_Ch3.csv

"Record Length",1000,"Points",-7.72500000e-009,-7.10937327e-004
"Sample Interval",2.50000000e-011,s,-7.70000000e-009,-7.35937329e-004
"Trigger Point",309,"Samples",-7.67500000e-009,-7.67187331e-004
"Trigger Time",1.63467327e-011,s,-7.65000000e-009,-7.99999833e-004
"",,,-7.62500000e-009,-8.31249835e-004
"Horizontal Offset",-7.72500000e-009,s,-7.60000000e-009,-8.56249837e-004
,,,-7.57500000e-009,-8.73437338e-004
,,,-7.55000000e-009,-8.79687339e-004
,,,-7.52500000e-009,-8.74999838e-004
,,,-7.50000000e-009,-8.59374837e-004
,,,-7.47500000e-009,-8.34374836e-004
,,,-7.45000000e-009,-7.99999833e-004
,,,-7.42500000e-009,-7.62499830e-004
,,,-7.40000000e-009,-7.18749827e-004
,,,-7.37500000e-009,-6.68749824e-004
,,,-7.35000000e-009,-6.15624820e-004
,,,-7.32500000e-009,-5.60937316e-004
,,,-7.30000000e-009,-5.06249812e-004
,,,-7.27500000e-009,-4.51562308e-004
,,,-7.25000000e-009,-3.99999805e-004
,,,-7.22500000e-009,-3.59374802e-004
,,,-7.20000000e-009,-3.26562300e-004
,,,-7.17500000e-009,-3.06249798e-004
,,,-7.15000000e-009,-2.96874797e-004
,,,-7.12500000e-009,-3.01562298e-004
,,,-7.10000000e-009,-3.20312299e-004
,,,-7.07500000e-009,-3.54687302e-004
,,,-7.05000000e-009,-3.99999805e-004
,,,-7.02500000e-009,-4.64062309e-004
,,,-7.00000000e-009,-5.31249814e-004
,,,-6.97500000e-009,-5.99999819e-004
,,,-6.95000000e-009,-6.64062323e-004
,,,-6.92500000e-009,-7.18749827e-004
,,,-6.90000000e-009,-7.60937330e-004
,,,-6.87500000e-009,-7.89062332e-004
,,,-6.85000000e-009,-7.99999833e-004
,,,-6.82500000e-009,-8.01562333e-004
,,,-6.80000000e-009,-7.90624832e-004
,,,-6.77500000e-009,-7.74999831e-004
,,,-6.75000000e-009,-7.59374830e-004
,,,-6.72500000e-009,-7.49999830e-004
,,,-6.70000000e-009,-7.51562330e-004
,,,-6.67500000e-009,-7.67187331e-004
,,,-6.65000000e-009,-7.99999833e-004
,,,-6.62500000e-009,-8.53124837e-004
,,,-6.60000000e-009,-9.18749842e-004
,,,-6.57500000e-009,-9.90624847e-004
,,,-6.55000000e-009,-1.06249985e-003
,,,-6.52500000e-009,-1.12499986e-003
,,,-6.50000000e-009,-1.17343736e-003
,,,-6.47500000e-009,-1.19999986e-003
,,,-6.45000000e-009,-1.19999986e-003
,,,-6.42500000e-009,-1.17499986e-003
,,,-6.40000000e-009,-1.12812486e-003
,,,-6.37500000e-009,-1.06562485e-003
,,,-6.35000000e-009,-9.93749847e-004
,,,-6.32500000e-009,-9.23437342e-004
,,,-6.30000000e-009,-8.64062338e-004
,,,-6.27500000e-009,-8.20312335e-004
,,,-6.25000000e-009,-7.99999833e-004
,,,-6.22500000e-009,-8.04687333e-004
,,,-6.20000000e-009,-8.32812335e-004
,,,-6.17500000e-009,-8.82812339e-004
,,,-6.15000000e-009,-9.48437344e-004
,,,-6.12500000e-009,-1.02031235e-003
,,,-6.10000000e-009,-1.09062485e-003
,,,-6.07500000e-009,-1.15312486e-003
,,,-6.05000000e-009,-1.19999986e-003
,,,-6.02500000e-009,-1.22656236e-003
,,,-6.00000000e-009,-1.23593736e-003
,,,-5.97500000e-009,-1.23124986e-003
,,,-5.95000000e-009,-1.21718736e-003
,,,-5.92500000e-009,-1.20156236e-003
,,,-5.90000000e-009,-1.19062486e-003
,,,-5.87500000e-009,-1.18906236e-003
,,,-5.85000000e-009,-1.19999986e-003
,,,-5.82500000e-009,-1.22656236e-003
,,,-5.80000000e-009,-1.26718737e-003
,,,-5.77500000e-009,-1.32187487e-003
,,,-5.75000000e-009,-1.38437487e-003
,,,-5.72500000e-009,-1.45156238e-003
,,,-5.70000000e-009,-1.51249988e-003
,,,-5.67500000e-009,-1.56406239e-003
,,,-5.65000000e-009,-1.59999989e-003
,,,-5.62500000e-009,-1.61093739e-003
,,,-5.60000000e-009,-1.60156239e-003
,,,-5.57500000e-009,-1.56874989e-003
,,,-5.55000000e-009,-1.51874988e-003
,,,-5.52500000e-009,-1.45156238e-003
,,,-5.50000000e-009,-1.37343737e-003
,,,-5.47500000e-009,-1.28906237e-003
,,,-5.45000000e-009,-1.19999986e-003
,,,-5.42500000e-009,-1.11562486e-003
,,,-5.40000000e-009,-1.03749985e-003
,,,-5.37500000e-009,-9.70312345e-004
,,,-5.35000000e-009,-9.14062341e-004
,,,-5.32500000e-009,-8.68749838e-004
,,,-5.30000000e-009,-8.35937336e-004
,,,-5.27500000e-009,-8.14062334e-004
,,,-5.25000000e-009,-7.99999833e-004
,,,-5.22500000e-009,-7.95312333e-004
,,,-5.20000000e-009,-7.95312333e-004
,,,-5.17500000e-009,-7.98437333e-004
,,,-5.15000000e-009,-8.03124833e-004
,,,-5.12500000e-009,-8.06249834e-004
,,,-5.10000000e-009,-8.07812334e-004
,,,-5.07500000e-009,-8.06249834e-004
,,,-5.05000000e-009,-7.99999833e-004
,,,-5.02500000e-009,-7.96874833e-004
,,,-5.00000000e-009,-7.90624832e-004
,,,-4.97500000e-009,-7.82812332e-004
,,,-4.95000000e-009,-7.76562331e-004
,,,-4.92500000e-009,-7.73437331e-004
,,,-4.90000000e-009,-7.74999831e-004
,,,-4.87500000e-009,-7.84374832e-004
,,,-4.85000000e-009,-7.99999833e-004
,,,-4.82500000e-009,-8.29687335e-004
,,,-4.80000000e-009,-8.67187338e-004
,,,-4.77500000e-009,-9.14062341e-004
,,,-4.75000000e-009,-9.67187345e-004
,,,-4.72500000e-009,-1.02343735e-003
,,,-4.70000000e-009,-1.08437485e-003
,,,-4.67500000e-009,-1.14374986e-003
,,,-4.65000000e-009,-1.19999986e-003
,,,-4.62500000e-009,-1.25156237e-003
,,,-4.60000000e-009,-1.29062487e-003
,,,-4.57500000e-009,-1.31718737e-003
,,,-4.55000000e-009,-1.32656237e-003
,,,-4.52500000e-009,-1.32031237e-003
,,,-4.50000000e-009,-1.29531237e-003
,,,-4.47500000e-009,-1.25468737e-003
,,,-4.45000000e-009,-1.19999986e-003
,,,-4.42500000e-009,-1.13437486e-003
,,,-4.40000000e-009,-1.06093735e-003
,,,-4.37500000e-009,-9.89062346e-004
,,,-4.35000000e-009,-9.21874842e-004
,,,-4.32500000e-009,-8.65624838e-004
,,,-4.30000000e-009,-8.24999835e-004
,,,-4.27500000e-009,-8.03124833e-004
,,,-4.25000000e-009,-7.99999833e-004
,,,-4.22500000e-009,-8.20312335e-004
,,,-4.20000000e-009,-8.57812337e-004
,,,-4.17500000e-009,-9.09374841e-004
,,,-4.15000000e-009,-9.70312345e-004
,,,-4.12500000e-009,-1.03437485e-003
,,,-4.10000000e-009,-1.09843735e-003
,,,-4.07500000e-009,-1.15468736e-003
,,,-4.05000000e-009,-1.19999986e-003
,,,-4.02500000e-009,-1.22968736e-003
,,,-4.00000000e-009,-1.24531236e-003
,,,-3.97500000e-009,-1.24843736e-003
,,,-3.95000000e-009,-1.24218736e-003
,,,-3.92500000e-009,-1.22968736e-003
,,,-3.90000000e-009,-1.21718736e-003
,,,-3.87500000e-009,-1.20624986e-003
,,,-3.85000000e-009,-1.19999986e-003
,,,-3.82500000e-009,-1.19687486e-003
,,,-3.80000000e-009,-1.19999986e-003
,,,-3.77500000e-009,-1.20781236e-003
,,,-3.75000000e-009,-1.21562486e-003
,,,-3.72500000e-009,-1.22343736e-003
,,,-3.70000000e-009,-1.22499986e-003
,,,-3.67500000e-009,-1.21874986e-003
,,,-3.65000000e-009,-1.19999986e-003
,,,-3.62500000e-009,-1.16874986e-003
,,,-3.60000000e-009,-1.12656236e-003
,,,-3.57500000e-009,-1.07499985e-003
,,,-3.55000000e-009,-1.01562485e-003
,,,-3.52500000e-009,-9.56249844e-004
,,,-3.50000000e-009,-8.96874840e-004
,,,-3.47500000e-009,-8.43749836e-004
,,,-3.45000000e-009,-7.99999833e-004
,,,-3.42500000e-009,-7.70312331e-004
,,,-3.40000000e-009,-7.51562330e-004
,,,-3.37500000e-009,-7.43749829e-004
,,,-3.35000000e-009,-7.46874829e-004
,,,-3.32500000e-009,-7.56249830e-004
,,,-3.30000000e-009,-7.70312331e-004
,,,-3.27500000e-009,-7.85937332e-004
,,,-3.25000000e-009,-7.99999833e-004
,,,-3.22500000e-009,-8.15624834e-004
,,,-3.20000000e-009,-8.24999835e-004
,,,-3.17500000e-009,-8.31249835e-004
,,,-3.15000000e-009,-8.31249835e-004
,,,-3.12500000e-009,-8.28124835e-004
,,,-3.10000000e-009,-8.20312335e-004
,,,-3.07500000e-009,-8.10937334e-004
,,,-3.05000000e-009,-7.99999833e-004
,,,-3.02500000e-009,-7.92187333e-004
,,,-3.00000000e-009,-7.84374832e-004
,,,-2.97500000e-009,-7.79687332e-004
,,,-2.95000000e-009,-7.76562331e-004
,,,-2.92500000e-009,-7.78124832e-004
,,,-2.90000000e-009,-7.82812332e-004
,,,-2.87500000e-009,-7.90624832e-004
,,,-2.85000000e-009,-7.99999833e-004
,,,-2.82500000e-009,-8.14062334e-004
,,,-2.80000000e-009,-8.26562335e-004
,,,-2.77500000e-009,-8.35937336e-004
,,,-2.75000000e-009,-8.40624836e-004
,,,-2.72500000e-009,-8.39062336e-004
,,,-2.70000000e-009,-8.32812335e-004
,,,-2.67500000e-009,-8.18749834e-004
,,,-2.65000000e-009,-7.99999833e-004
,,,-2.62500000e-009,-7.81249832e-004
,,,-2.60000000e-009,-7.59374830e-004
,,,-2.57500000e-009,-7.40624829e-004
,,,-2.55000000e-009,-7.29687328e-004
,,,-2.52500000e-009,-7.26562328e-004
,,,-2.50000000e-009,-7.35937329e-004
,,,-2.47500000e-009,-7.60937330e-004
,,,-2.45000000e-009,-7.99999833e-004
,,,-2.42500000e-009,-8.53124837e-004
,,,-2.40000000e-009,-9.15624841e-004
,,,-2.37500000e-009,-9.82812346e-004
,,,-2.35000000e-009,-1.04843735e-003
,,,-2.32500000e-009,-1.10781235e-003
,,,-2.30000000e-009,-1.15624986e-003
,,,-2.27500000e-009,-1.18906236e-003
,,,-2.25000000e-009,-1.19999986e-003
,,,-2.22500000e-009,-1.19062486e-003
,,,-2.20000000e-009,-1.16093736e-003
,,,-2.17500000e-009,-1.11406236e-003
,,,-2.15000000e-009,-1.05468735e-003
,,,-2.12500000e-009,-9.89062346e-004
,,,-2.10000000e-009,-9.21874842e-004
,,,-2.07500000e-009,-8.56249837e-004
,,,-2.05000000e-009,-7.99999833e-004
,,,-2.02500000e-009,-7.59374830e-004
,,,-2.00000000e-009,-7.31249828e-004
,,,-1.97500000e-009,-7.18749827e-004
,,,-1.95000000e-009,-7.20312327e-004
,,,-1.92500000e-009,-7.32812328e-004
,,,-1.90000000e-009,-7.53124830e-004
,,,-1.87500000e-009,-7.76562331e-004
,,,-1.85000000e-009,-7.99999833e-004
,,,-1.82500000e-009,-8.28124835e-004
,,,-1.80000000e-009,-8.49999837e-004
,,,-1.77500000e-009,-8.65624838e-004
,,,-1.75000000e-009,-8.70312338e-004
,,,-1.72500000e-009,-8.67187338e-004
,,,-1.70000000e-009,-8.53124837e-004
,,,-1.67500000e-009,-8.29687335e-004
,,,-1.65000000e-009,-7.99999833e-004
,,,-1.62500000e-009,-7.74999831e-004
,,,-1.60000000e-009,-7.49999830e-004
,,,-1.57500000e-009,-7.31249828e-004
,,,-1.55000000e-009,-7.20312327e-004
,,,-1.52500000e-009,-7.20312327e-004
,,,-1.50000000e-009,-7.34374828e-004
,,,-1.47500000e-009,-7.60937330e-004
,,,-1.45000000e-009,-7.99999833e-004
,,,-1.42500000e-009,-8.62499838e-004
,,,-1.40000000e-009,-9.34374843e-004
,,,-1.37500000e-009,-1.00781235e-003
,,,-1.35000000e-009,-1.07656235e-003
,,,-1.32500000e-009,-1.13437486e-003
,,,-1.30000000e-009,-1.17656236e-003
,,,-1.27500000e-009,-1.19843736e-003
,,,-1.25000000e-009,-1.19999986e-003
,,,-1.22500000e-009,-1.19687486e-003
,,,-1.20000000e-009,-1.18281236e-003
,,,-1.17500000e-009,-1.16093736e-003
,,,-1.15000000e-009,-1.14062486e-003
,,,-1.12500000e-009,-1.12812486e-003
,,,-1.10000000e-009,-1.13124986e-003
,,,-1.07500000e-009,-1.15468736e-003
,,,-1.05000000e-009,-1.19999986e-003
,,,-1.02500000e-009,-1.28593737e-003
,,,-1.00000000e-009,-1.39531238e-003
,,,-9.75000000e-010,-1.51874988e-003
,,,-9.50000000e-010,-1.64531239e-003
,,,-9.25000000e-010,-1.76718740e-003
,,,-9.00000000e-010,-1.87187491e-003
,,,-8.75000000e-010,-1.95156241e-003
,,,-8.50000000e-010,-1.99999992e-003
,,,-8.25000000e-010,-2.03437492e-003
,,,-8.00000000e-010,-2.04374992e-003
,,,-7.75000000e-010,-2.03437492e-003
,,,-7.50000000e-010,-2.01249992e-003
,,,-7.25000000e-010,-1.99062492e-003
,,,-7.00000000e-010,-1.97499992e-003
,,,-6.75000000e-010,-1.97499992e-003
,,,-6.50000000e-010,-1.99999992e-003
,,,-6.25000000e-010,-2.07187492e-003
,,,-6.00000000e-010,-2.17812493e-003
,,,-5.75000000e-010,-2.31718744e-003
,,,-5.50000000e-010,-2.47968745e-003
,,,-5.25000000e-010,-2.65937496e-003
,,,-5.00000000e-010,-2.84531248e-003
,,,-4.75000000e-010,-3.02812499e-003
,,,-4.50000000e-010,-3.20000000e-003
,,,-4.25000000e-010,-3.36250001e-003
,,,-4.00000000e-010,-3.50781252e-003
,,,-3.75000000e-010,-3.63125003e-003
,,,-3.50000000e-010,-3.73593754e-003
,,,-3.25000000e-010,-3.82187505e-003
,,,-3.00000000e-010,-3.89062505e-003
,,,-2.75000000e-010,-3.94843756e-003
,,,-2.50000000e-010,-4.00000006e-003
,,,-2.25000000e-010,-4.05468756e-003
,,,-2.00000000e-010,-4.11562507e-003
,,,-1.75000000e-010,-4.19218757e-003
,,,-1.50000000e-010,-4.28281258e-003
,,,-1.25000000e-010,-4.39062509e-003
,,,-1.00000000e-010,-4.51250010e-003
,,,-7.50000000e-011,-4.65156261e-003
,,,-5.00000000e-011,-4.80000012e-003
,,,-2.50000000e-011,-4.95156263e-003
,,,0.00000000e+000,-5.10937514e-003
,,,2.50000000e-011,-5.27343765e-003
,,,5.00000000e-011,-5.43593766e-003
,,,7.50000000e-011,-5.59531267e-003
,,,1.00000000e-010,-5.74531268e-003
,,,1.25000000e-010,-5.88125019e-003
,,,1.50000000e-010,-6.00000020e-003
,,,1.75000000e-010,-6.08593771e-003
,,,2.00000000e-010,-6.15625021e-003
,,,2.25000000e-010,-6.21406272e-003
,,,2.50000000e-010,-6.26093772e-003
,,,2.75000000e-010,-6.30156272e-003
,,,3.00000000e-010,-6.33593772e-003
,,,3.25000000e-010,-6.36875023e-003
,,,3.50000000e-010,-6.40000023e-003
,,,3.75000000e-010,-6.41406273e-003
,,,4.00000000e-010,-6.43593773e-003
,,,4.25000000e-010,-6.47031273e-003
,,,4.50000000e-010,-6.51875024e-003
,,,4.75000000e-010,-6.57812524e-003
,,,5.00000000e-010,-6.64687525e-003
,,,5.25000000e-010,-6.72343775e-003
,,,5.50000000e-010,-6.80000026e-003
,,,5.75000000e-010,-6.84843776e-003
,,,6.00000000e-010,-6.88906276e-003
,,,6.25000000e-010,-6.92031277e-003
,,,6.50000000e-010,-6.93593777e-003
,,,6.75000000e-010,-6.93281277e-003
,,,7.00000000e-010,-6.91093777e-003
,,,7.25000000e-010,-6.86562526e-003
,,,7.50000000e-010,-6.80000026e-003
,,,7.75000000e-010,-6.68906275e-003
,,,8.00000000e-010,-6.56406274e-003
,,,8.25000000e-010,-6.43750023e-003
,,,8.50000000e-010,-6.31406272e-003
,,,8.75000000e-010,-6.20156272e-003
,,,9.00000000e-010,-6.11093771e-003
,,,9.25000000e-010,-6.04218770e-003
,,,9.50000000e-010,-6.00000020e-003
,,,9.75000000e-010,-5.96718770e-003
,,,1.00000000e-009,-5.95625020e-003
,,,1.02500000e-009,-5.96250020e-003
,,,1.05000000e-009,-5.97968770e-003
,,,1.07500000e-009,-6.00000020e-003
,,,1.10000000e-009,-6.01406270e-003
,,,1.12500000e-009,-6.01718770e-003
,,,1.15000000e-009,-6.00000020e-003
,,,1.17500000e-009,-5.94687520e-003
,,,1.20000000e-009,-5.86875019e-003
,,,1.22500000e-009,-5.77187519e-003
,,,1.25000000e-009,-5.65781268e-003
,,,1.27500000e-009,-5.53906267e-003
,,,1.30000000e-009,-5.41875016e-003
,,,1.32500000e-009,-5.30468765e-003
,,,1.35000000e-009,-5.20000014e-003
,,,1.37500000e-009,-5.10000014e-003
,,,1.40000000e-009,-5.00781263e-003
,,,1.42500000e-009,-4.92031262e-003
,,,1.45000000e-009,-4.83281262e-003
,,,1.47500000e-009,-4.74218761e-003
,,,1.50000000e-009,-4.64218761e-003
,,,1.52500000e-009,-4.52968760e-003
,,,1.55000000e-009,-4.40000009e-003
,,,1.57500000e-009,-4.25625008e-003
,,,1.60000000e-009,-4.09531257e-003
,,,1.62500000e-009,-3.92500005e-003
,,,1.65000000e-009,-3.75156254e-003
,,,1.67500000e-009,-3.58437503e-003
,,,1.70000000e-009,-3.43125002e-003
,,,1.72500000e-009,-3.30156251e-003
,,,1.75000000e-009,-3.20000000e-003
,,,1.77500000e-009,-3.14062500e-003
,,,1.80000000e-009,-3.10625000e-003
,,,1.82500000e-009,-3.09687500e-003
,,,1.85000000e-009,-3.10625000e-003
,,,1.87500000e-009,-3.12656250e-003
,,,1.90000000e-009,-3.15468750e-003
,,,1.92500000e-009,-3.18125000e-003
,,,1.95000000e-009,-3.20000000e-003
,,,1.97500000e-009,-3.21562500e-003
,,,2.00000000e-009,-3.20937500e-003
,,,2.02500000e-009,-3.18125000e-003
,,,2.05000000e-009,-3.13281250e-003
,,,2.07500000e-009,-3.06562499e-003
,,,2.10000000e-009,-2.98437499e-003
,,,2.12500000e-009,-2.89531248e-003
,,,2.15000000e-009,-2.79999997e-003
,,,2.17500000e-009,-2.71718747e-003
,,,2.20000000e-009,-2.63749996e-003
,,,2.22500000e-009,-2.56406246e-003
,,,2.25000000e-009,-2.50156245e-003
,,,2.27500000e-009,-2.45312495e-003
,,,2.30000000e-009,-2.42031245e-003
,,,2.32500000e-009,-2.40312495e-003
,,,2.35000000e-009,-2.39999995e-003
,,,2.37500000e-009,-2.41718745e-003
,,,2.40000000e-009,-2.43749995e-003
,,,2.42500000e-009,-2.45781245e-003
,,,2.45000000e-009,-2.47031245e-003
,,,2.47500000e-009,-2.47499995e-003
,,,2.50000000e-009,-2.46406245e-003
,,,2.52500000e-009,-2.44062495e-003
,,,2.55000000e-009,-2.39999995e-003
,,,2.57500000e-009,-2.35312494e-003
,,,2.60000000e-009,-2.29374994e-003
,,,2.62500000e-009,-2.22812493e-003
,,,2.65000000e-009,-2.15937493e-003
,,,2.67500000e-009,-2.09687492e-003
,,,2.70000000e-009,-2.04687492e-003
,,,2.72500000e-009,-2.01249992e-003
,,,2.75000000e-009,-1.99999992e-003
,,,2.77500000e-009,-2.01406242e-003
,,,2.80000000e-009,-2.04843742e-003
,,,2.82500000e-009,-2.09843743e-003
,,,2.85000000e-009,-2.15937493e-003
,,,2.87500000e-009,-2.22812493e-003
,,,2.90000000e-009,-2.29531244e-003
,,,2.92500000e-009,-2.35468744e-003
,,,2.95000000e-009,-2.39999995e-003
,,,2.97500000e-009,-2.42656245e-003
,,,3.00000000e-009,-2.42968745e-003
,,,3.02500000e-009,-2.40624995e-003
,,,3.05000000e-009,-2.35937494e-003
,,,3.07500000e-009,-2.29062494e-003
,,,3.10000000e-009,-2.20468743e-003
,,,3.12500000e-009,-2.10624993e-003
,,,3.15000000e-009,-1.99999992e-003
,,,3.17500000e-009,-1.89687491e-003
,,,3.20000000e-009,-1.80156240e-003
,,,3.22500000e-009,-1.71562490e-003
,,,3.25000000e-009,-1.64843739e-003
,,,3.27500000e-009,-1.60156239e-003
,,,3.30000000e-009,-1.57812489e-003
,,,3.32500000e-009,-1.57812489e-003
,,,3.35000000e-009,-1.59999989e-003
,,,3.37500000e-009,-1.64531239e-003
,,,3.40000000e-009,-1.70156240e-003
,,,3.42500000e-009,-1.76718740e-003
,,,3.45000000e-009,-1.83281241e-003
,,,3.47500000e-009,-1.89531241e-003
,,,3.50000000e-009,-1.94687491e-003
,,,3.52500000e-009,-1.98281242e-003
,,,3.55000000e-009,-1.99999992e-003
,,,3.57500000e-009,-1.99687492e-003
,,,3.60000000e-009,-1.97343742e-003
,,,3.62500000e-009,-1.92968741e-003
,,,3.65000000e-009,-1.87187491e-003
,,,3.67500000e-009,-1.80468740e-003
,,,3.70000000e-009,-1.73437490e-003
,,,3.72500000e-009,-1.66406239e-003
,,,3.75000000e-009,-1.59999989e-003
,,,3.77500000e-009,-1.55156239e-003
,,,3.80000000e-009,-1.51562488e-003
,,,3.82500000e-009,-1.49687488e-003
,,,3.85000000e-009,-1.49531238e-003
,,,3.87500000e-009,-1.50624988e-003
,,,3.90000000e-009,-1.53124988e-003
,,,3.92500000e-009,-1.56406239e-003
,,,3.95000000e-009,-1.59999989e-003
,,,3.97500000e-009,-1.64062489e-003
,,,4.00000000e-009,-1.67656240e-003
,,,4.02500000e-009,-1.69999990e-003
,,,4.05000000e-009,-1.71249990e-003
,,,4.07500000e-009,-1.70781240e-003
,,,4.10000000e-009,-1.68749990e-003
,,,4.12500000e-009,-1.65156239e-003
,,,4.15000000e-009,-1.59999989e-003
,,,4.17500000e-009,-1.54218739e-003
,,,4.20000000e-009,-1.47656238e-003
,,,4.22500000e-009,-1.40937488e-003
,,,4.25000000e-009,-1.34531237e-003
,,,4.27500000e-009,-1.28749987e-003
,,,4.30000000e-009,-1.24218736e-003
,,,4.32500000e-009,-1.21249986e-003
,,,4.35000000e-009,-1.19999986e-003
,,,4.37500000e-009,-1.21249986e-003
,,,4.40000000e-009,-1.24218736e-003
,,,4.42500000e-009,-1.28749987e-003
,,,4.45000000e-009,-1.34531237e-003
,,,4.47500000e-009,-1.40937488e-003
,,,4.50000000e-009,-1.47656238e-003
,,,4.52500000e-009,-1.54218739e-003
,,,4.55000000e-009,-1.59999989e-003
,,,4.57500000e-009,-1.65156239e-003
,,,4.60000000e-009,-1.68749990e-003
,,,4.62500000e-009,-1.70781240e-003
,,,4.65000000e-009,-1.71249990e-003
,,,4.67500000e-009,-1.69999990e-003
,,,4.70000000e-009,-1.67656240e-003
,,,4.72500000e-009,-1.64062489e-003
,,,4.75000000e-009,-1.59999989e-003
,,,4.77500000e-009,-1.55937489e-003
,,,4.80000000e-009,-1.52343738e-003
,,,4.82500000e-009,-1.49531238e-003
,,,4.85000000e-009,-1.48124988e-003
,,,4.87500000e-009,-1.48281238e-003
,,,4.90000000e-009,-1.50468738e-003
,,,4.92500000e-009,-1.54374989e-003
,,,4.95000000e-009,-1.59999989e-003
,,,4.97500000e-009,-1.66874989e-003
,,,5.00000000e-009,-1.74374990e-003
,,,5.02500000e-009,-1.82031241e-003
,,,5.05000000e-009,-1.88906241e-003
,,,5.07500000e-009,-1.94687491e-003
,,,5.10000000e-009,-1.98749992e-003
,,,5.12500000e-009,-2.00624992e-003
,,,5.15000000e-009,-1.99999992e-003
,,,5.17500000e-009,-1.96718742e-003
,,,5.20000000e-009,-1.91406241e-003
,,,5.22500000e-009,-1.84843741e-003
,,,5.25000000e-009,-1.77812490e-003
,,,5.27500000e-009,-1.71093740e-003
,,,5.30000000e-009,-1.65468739e-003
,,,5.32500000e-009,-1.61562489e-003
,,,5.35000000e-009,-1.59999989e-003
,,,5.37500000e-009,-1.60624989e-003
,,,5.40000000e-009,-1.63749989e-003
,,,5.42500000e-009,-1.68749990e-003
,,,5.45000000e-009,-1.75312490e-003
,,,5.47500000e-009,-1.82499991e-003
,,,5.50000000e-009,-1.89531241e-003
,,,5.52500000e-009,-1.95624991e-003
,,,5.55000000e-009,-1.99999992e-003
,,,5.57500000e-009,-2.01874992e-003
,,,5.60000000e-009,-2.01093742e-003
,,,5.62500000e-009,-1.98124992e-003
,,,5.65000000e-009,-1.92812491e-003
,,,5.67500000e-009,-1.85937491e-003
,,,5.70000000e-009,-1.77812490e-003
,,,5.72500000e-009,-1.69062490e-003
,,,5.75000000e-009,-1.59999989e-003
,,,5.77500000e-009,-1.51406238e-003
,,,5.80000000e-009,-1.43593738e-003
