RawData/DifferentLengths/R3/R3_12pt5_5mV/wave012_Ch3.csv

"Record Length",1000,"Points",-7.72500000e-009,6.38437021e-004
"Sample Interval",2.50000000e-011,s,-7.70000000e-009,6.59062021e-004
"Trigger Point",309,"Samples",-7.67500000e-009,6.80155772e-004
"Trigger Time",1.03274205e-011,s,-7.65000000e-009,6.98905772e-004
"",,,-7.62500000e-009,7.12499522e-004
"Horizontal Offset",-7.72500000e-009,s,-7.60000000e-009,7.19999522e-004
,,,-7.57500000e-009,7.19999522e-004
,,,-7.55000000e-009,7.12968272e-004
,,,-7.52500000e-009,6.99374522e-004
,,,-7.50000000e-009,6.80624522e-004
,,,-7.47500000e-009,6.59530771e-004
,,,-7.45000000e-009,6.37499521e-004
,,,-7.42500000e-009,6.16874521e-004
,,,-7.40000000e-009,5.99999521e-004
,,,-7.37500000e-009,5.89687021e-004
,,,-7.35000000e-009,5.84999521e-004
,,,-7.32500000e-009,5.84530771e-004
,,,-7.30000000e-009,5.86874521e-004
,,,-7.27500000e-009,5.91093271e-004
,,,-7.25000000e-009,5.95780771e-004
,,,-7.22500000e-009,5.98593271e-004
,,,-7.20000000e-009,5.99999521e-004
,,,-7.17500000e-009,6.00468271e-004
,,,-7.15000000e-009,5.98593271e-004
,,,-7.12500000e-009,5.95780771e-004
,,,-7.10000000e-009,5.92030771e-004
,,,-7.07500000e-009,5.89687021e-004
,,,-7.05000000e-009,5.89218271e-004
,,,-7.02500000e-009,5.92499521e-004
,,,-7.00000000e-009,5.99999521e-004
,,,-6.97500000e-009,6.12655771e-004
,,,-6.95000000e-009,6.29530771e-004
,,,-6.92500000e-009,6.48280771e-004
,,,-6.90000000e-009,6.67499522e-004
,,,-6.87500000e-009,6.85780772e-004
,,,-6.85000000e-009,7.01249522e-004
,,,-6.82500000e-009,7.12968272e-004
,,,-6.80000000e-009,7.19999522e-004
,,,-6.77500000e-009,7.21874522e-004
,,,-6.75000000e-009,7.19999522e-004
,,,-6.72500000e-009,7.15312022e-004
,,,-6.70000000e-009,7.10155772e-004
,,,-6.67500000e-009,7.05937022e-004
,,,-6.65000000e-009,7.04999522e-004
,,,-6.62500000e-009,7.09218272e-004
,,,-6.60000000e-009,7.19999522e-004
,,,-6.57500000e-009,7.36405772e-004
,,,-6.55000000e-009,7.59374522e-004
,,,-6.52500000e-009,7.87968273e-004
,,,-6.50000000e-009,8.21249523e-004
,,,-6.47500000e-009,8.56874523e-004
,,,-6.45000000e-009,8.93437023e-004
,,,-6.42500000e-009,9.28124524e-004
,,,-6.40000000e-009,9.59999524e-004
,,,-6.37500000e-009,9.82968274e-004
,,,-6.35000000e-009,9.98905774e-004
,,,-6.32500000e-009,1.00828077e-003
,,,-6.30000000e-009,1.01015577e-003
,,,-6.27500000e-009,1.00546827e-003
,,,-6.25000000e-009,9.94687024e-004
,,,-6.22500000e-009,9.79218274e-004
,,,-6.20000000e-009,9.59999524e-004
,,,-6.17500000e-009,9.35624524e-004
,,,-6.15000000e-009,9.12187024e-004
,,,-6.12500000e-009,8.90155773e-004
,,,-6.10000000e-009,8.70937023e-004
,,,-6.07500000e-009,8.55937023e-004
,,,-6.05000000e-009,8.45624523e-004
,,,-6.02500000e-009,8.40468273e-004
,,,-6.00000000e-009,8.39999523e-004
,,,-5.97500000e-009,8.42343273e-004
,,,-5.95000000e-009,8.47968273e-004
,,,-5.92500000e-009,8.54999523e-004
,,,-5.90000000e-009,8.60624523e-004
,,,-5.87500000e-009,8.63905773e-004
,,,-5.85000000e-009,8.62030773e-004
,,,-5.82500000e-009,8.54530773e-004
,,,-5.80000000e-009,8.39999523e-004
,,,-5.77500000e-009,8.18905773e-004
,,,-5.75000000e-009,7.92187023e-004
,,,-5.72500000e-009,7.61249522e-004
,,,-5.70000000e-009,7.27030772e-004
,,,-5.67500000e-009,6.91874522e-004
,,,-5.65000000e-009,6.57655771e-004
,,,-5.62500000e-009,6.26718271e-004
,,,-5.60000000e-009,5.99999521e-004
,,,-5.57500000e-009,5.81249521e-004
,,,-5.55000000e-009,5.69062021e-004
,,,-5.52500000e-009,5.63905771e-004
,,,-5.50000000e-009,5.63905771e-004
,,,-5.47500000e-009,5.69062021e-004
,,,-5.45000000e-009,5.77499521e-004
,,,-5.42500000e-009,5.87812021e-004
,,,-5.40000000e-009,5.99999521e-004
,,,-5.37500000e-009,6.14999521e-004
,,,-5.35000000e-009,6.29530771e-004
,,,-5.32500000e-009,6.43593271e-004
,,,-5.30000000e-009,6.57187021e-004
,,,-5.27500000e-009,6.71249522e-004
,,,-5.25000000e-009,6.85312022e-004
,,,-5.22500000e-009,7.01249522e-004
,,,-5.20000000e-009,7.19999522e-004
,,,-5.17500000e-009,7.41562022e-004
,,,-5.15000000e-009,7.66405772e-004
,,,-5.12500000e-009,7.93593273e-004
,,,-5.10000000e-009,8.23593273e-004
,,,-5.07500000e-009,8.55468273e-004
,,,-5.05000000e-009,8.89687023e-004
,,,-5.02500000e-009,9.24843274e-004
,,,-5.00000000e-009,9.59999524e-004
,,,-4.97500000e-009,9.90937024e-004
,,,-4.95000000e-009,1.01953077e-003
,,,-4.92500000e-009,1.04343702e-003
,,,-4.90000000e-009,1.06265577e-003
,,,-4.87500000e-009,1.07624953e-003
,,,-4.85000000e-009,1.08328078e-003
,,,-4.82500000e-009,1.08468703e-003
,,,-4.80000000e-009,1.07999953e-003
,,,-4.77500000e-009,1.06593702e-003
,,,-4.75000000e-009,1.04812452e-003
,,,-4.72500000e-009,1.02843702e-003
,,,-4.70000000e-009,1.00828077e-003
,,,-4.67500000e-009,9.89999524e-004
,,,-4.65000000e-009,9.74999524e-004
,,,-4.62500000e-009,9.64687024e-004
,,,-4.60000000e-009,9.59999524e-004
,,,-4.57500000e-009,9.55312024e-004
,,,-4.55000000e-009,9.55312024e-004
,,,-4.52500000e-009,9.58593274e-004
,,,-4.50000000e-009,9.63280774e-004
,,,-4.47500000e-009,9.67499524e-004
,,,-4.45000000e-009,9.69374524e-004
,,,-4.42500000e-009,9.67499524e-004
,,,-4.40000000e-009,9.59999524e-004
,,,-4.37500000e-009,9.42655774e-004
,,,-4.35000000e-009,9.19687024e-004
,,,-4.32500000e-009,8.91562023e-004
,,,-4.30000000e-009,8.59218273e-004
,,,-4.27500000e-009,8.24062023e-004
,,,-4.25000000e-009,7.87968273e-004
,,,-4.22500000e-009,7.52812022e-004
,,,-4.20000000e-009,7.19999522e-004
,,,-4.17500000e-009,6.88593272e-004
,,,-4.15000000e-009,6.61874521e-004
,,,-4.12500000e-009,6.40780771e-004
,,,-4.10000000e-009,6.24374521e-004
,,,-4.07500000e-009,6.13124521e-004
,,,-4.05000000e-009,6.06093271e-004
,,,-4.02500000e-009,6.01874521e-004
,,,-4.00000000e-009,5.99999521e-004
,,,-3.97500000e-009,5.98124521e-004
,,,-3.95000000e-009,5.94374521e-004
,,,-3.92500000e-009,5.87343271e-004
,,,-3.90000000e-009,5.75624521e-004
,,,-3.87500000e-009,5.59218271e-004
,,,-3.85000000e-009,5.37187020e-004
,,,-3.82500000e-009,5.10468270e-004
,,,-3.80000000e-009,4.79999520e-004
,,,-3.77500000e-009,4.49530770e-004
,,,-3.75000000e-009,4.18593269e-004
,,,-3.72500000e-009,3.90468269e-004
,,,-3.70000000e-009,3.66562019e-004
,,,-3.67500000e-009,3.49687019e-004
,,,-3.65000000e-009,3.42187019e-004
,,,-3.62500000e-009,3.45468269e-004
,,,-3.60000000e-009,3.59999519e-004
,,,-3.57500000e-009,3.87187019e-004
,,,-3.55000000e-009,4.21405769e-004
,,,-3.52500000e-009,4.60312020e-004
,,,-3.50000000e-009,5.00155770e-004
,,,-3.47500000e-009,5.37187020e-004
,,,-3.45000000e-009,5.68124521e-004
,,,-3.42500000e-009,5.89687021e-004
,,,-3.40000000e-009,5.99999521e-004
,,,-3.37500000e-009,5.97655771e-004
,,,-3.35000000e-009,5.82187021e-004
,,,-3.32500000e-009,5.55468271e-004
,,,-3.30000000e-009,5.20312020e-004
,,,-3.27500000e-009,4.79530770e-004
,,,-3.25000000e-009,4.36874520e-004
,,,-3.22500000e-009,3.95624519e-004
,,,-3.20000000e-009,3.59999519e-004
,,,-3.17500000e-009,3.31874519e-004
,,,-3.15000000e-009,3.13124518e-004
,,,-3.12500000e-009,3.03280768e-004
,,,-3.10000000e-009,3.02343268e-004
,,,-3.07500000e-009,3.08905768e-004
,,,-3.05000000e-009,3.22030769e-004
,,,-3.02500000e-009,3.39374519e-004
,,,-3.00000000e-009,3.59999519e-004
,,,-2.97500000e-009,3.81093269e-004
,,,-2.95000000e-009,4.01718269e-004
,,,-2.92500000e-009,4.20468269e-004
,,,-2.90000000e-009,4.36874520e-004
,,,-2.87500000e-009,4.50468270e-004
,,,-2.85000000e-009,4.62187020e-004
,,,-2.82500000e-009,4.71562020e-004
,,,-2.80000000e-009,4.79999520e-004
,,,-2.77500000e-009,4.83749520e-004
,,,-2.75000000e-009,4.86562020e-004
,,,-2.72500000e-009,4.87499520e-004
,,,-2.70000000e-009,4.87968270e-004
,,,-2.67500000e-009,4.87499520e-004
,,,-2.65000000e-009,4.85624520e-004
,,,-2.62500000e-009,4.83280770e-004
,,,-2.60000000e-009,4.79999520e-004
,,,-2.57500000e-009,4.72030770e-004
,,,-2.55000000e-009,4.62187020e-004
,,,-2.52500000e-009,4.49999520e-004
,,,-2.50000000e-009,4.35937020e-004
,,,-2.47500000e-009,4.19999519e-004
,,,-2.45000000e-009,4.01249519e-004
,,,-2.42500000e-009,3.81093269e-004
,,,-2.40000000e-009,3.59999519e-004
,,,-2.37500000e-009,3.37499519e-004
,,,-2.35000000e-009,3.15468268e-004
,,,-2.32500000e-009,2.94374518e-004
,,,-2.30000000e-009,2.75624518e-004
,,,-2.27500000e-009,2.60155768e-004
,,,-2.25000000e-009,2.48905768e-004
,,,-2.22500000e-009,2.41874518e-004
,,,-2.20000000e-009,2.39999518e-004
,,,-2.17500000e-009,2.40468268e-004
,,,-2.15000000e-009,2.43749518e-004
,,,-2.12500000e-009,2.47968268e-004
,,,-2.10000000e-009,2.52655768e-004
,,,-2.07500000e-009,2.55468268e-004
,,,-2.05000000e-009,2.54999518e-004
,,,-2.02500000e-009,2.50312018e-004
,,,-2.00000000e-009,2.39999518e-004
,,,-1.97500000e-009,2.22655768e-004
,,,-1.95000000e-009,1.99687017e-004
,,,-1.92500000e-009,1.71562017e-004
,,,-1.90000000e-009,1.38749517e-004
,,,-1.87500000e-009,1.03593267e-004
,,,-1.85000000e-009,6.74995163e-005
,,,-1.82500000e-009,3.18745160e-005
,,,-1.80000000e-009,-4.84287738e-010
,,,-1.77500000e-009,-2.71879845e-005
,,,-1.75000000e-009,-4.82817347e-005
,,,-1.72500000e-009,-6.18754848e-005
,,,-1.70000000e-009,-6.65629849e-005
,,,-1.67500000e-009,-6.28129848e-005
,,,-1.65000000e-009,-4.96879847e-005
,,,-1.62500000e-009,-2.85942345e-005
,,,-1.60000000e-009,-4.84287738e-010
,,,-1.57500000e-009,2.76557660e-005
,,,-1.55000000e-009,5.57807662e-005
,,,-1.52500000e-009,8.15620164e-005
,,,-1.50000000e-009,1.03593267e-004
,,,-1.47500000e-009,1.19062017e-004
,,,-1.45000000e-009,1.27499517e-004
,,,-1.42500000e-009,1.27968267e-004
,,,-1.40000000e-009,1.19999517e-004
,,,-1.37500000e-009,9.18745165e-005
,,,-1.35000000e-009,5.57807662e-005
,,,-1.32500000e-009,1.45307658e-005
,,,-1.30000000e-009,-2.71879845e-005
,,,-1.27500000e-009,-6.46879849e-005
,,,-1.25000000e-009,-9.46879851e-005
,,,-1.22500000e-009,-1.13906735e-004
,,,-1.20000000e-009,-1.20000485e-004
,,,-1.17500000e-009,-1.29844235e-004
,,,-1.15000000e-009,-1.29844235e-004
,,,-1.12500000e-009,-1.20937985e-004
,,,-1.10000000e-009,-1.03594235e-004
,,,-1.07500000e-009,-8.06254850e-005
,,,-1.05000000e-009,-5.34379848e-005
,,,-1.02500000e-009,-2.53129845e-005
,,,-1.00000000e-009,-4.84287738e-010
,,,-9.75000000e-010,-5.15673433e-006
,,,-9.50000000e-010,-2.39067345e-005
,,,-9.25000000e-010,-5.53129848e-005
,,,-9.00000000e-010,-9.89067351e-005
,,,-8.75000000e-010,-1.52812986e-004
,,,-8.50000000e-010,-2.15156736e-004
,,,-8.25000000e-010,-2.84531737e-004
,,,-8.00000000e-010,-3.60000487e-004
,,,-7.75000000e-010,-4.65469238e-004
,,,-7.50000000e-010,-5.78906739e-004
,,,-7.25000000e-010,-6.97969240e-004
,,,-7.00000000e-010,-8.20312991e-004
,,,-6.75000000e-010,-9.45000493e-004
,,,-6.50000000e-010,-1.07015674e-003
,,,-6.25000000e-010,-1.19531299e-003
,,,-6.00000000e-010,-1.32000050e-003
,,,-5.75000000e-010,-1.46296925e-003
,,,-5.50000000e-010,-1.60968800e-003
,,,-5.25000000e-010,-1.75968800e-003
,,,-5.00000000e-010,-1.91203175e-003
,,,-4.75000000e-010,-2.06484425e-003
,,,-4.50000000e-010,-2.21765675e-003
,,,-4.25000000e-010,-2.36906300e-003
,,,-4.00000000e-010,-2.52000051e-003
,,,-3.75000000e-010,-2.67796926e-003
,,,-3.50000000e-010,-2.83968801e-003
,,,-3.25000000e-010,-3.00468801e-003
,,,-3.00000000e-010,-3.17203176e-003
,,,-2.75000000e-010,-3.34031301e-003
,,,-2.50000000e-010,-3.50859426e-003
,,,-2.25000000e-010,-3.67593802e-003
,,,-2.00000000e-010,-3.84000052e-003
,,,-1.75000000e-010,-3.99703177e-003
,,,-1.50000000e-010,-4.15453177e-003
,,,-1.25000000e-010,-4.31109427e-003
,,,-1.00000000e-010,-4.46625052e-003
,,,-7.50000000e-011,-4.61859427e-003
,,,-5.00000000e-011,-4.76625053e-003
,,,-2.50000000e-011,-4.90734428e-003
,,,0.00000000e+000,-5.04000053e-003
,,,2.50000000e-011,-5.14687553e-003
,,,5.00000000e-011,-5.24953178e-003
,,,7.50000000e-011,-5.34750053e-003
,,,1.00000000e-010,-5.44171928e-003
,,,1.25000000e-010,-5.53078178e-003
,,,1.50000000e-010,-5.61375053e-003
,,,1.75000000e-010,-5.69062553e-003
,,,2.00000000e-010,-5.76000053e-003
,,,2.25000000e-010,-5.79937553e-003
,,,2.50000000e-010,-5.83781304e-003
,,,2.75000000e-010,-5.87765679e-003
,,,3.00000000e-010,-5.92078179e-003
,,,3.25000000e-010,-5.96671929e-003
,,,3.50000000e-010,-6.01593804e-003
,,,3.75000000e-010,-6.06750054e-003
,,,4.00000000e-010,-6.12000054e-003
,,,4.25000000e-010,-6.14625054e-003
,,,4.50000000e-010,-6.17484429e-003
,,,4.75000000e-010,-6.20671929e-003
,,,5.00000000e-010,-6.24046929e-003
,,,5.25000000e-010,-6.27515679e-003
,,,5.50000000e-010,-6.30796929e-003
,,,5.75000000e-010,-6.33750054e-003
,,,6.00000000e-010,-6.36000054e-003
,,,6.25000000e-010,-6.34781304e-003
,,,6.50000000e-010,-6.32906304e-003
,,,6.75000000e-010,-6.30468804e-003
,,,7.00000000e-010,-6.27562554e-003
,,,7.25000000e-010,-6.24234429e-003
,,,7.50000000e-010,-6.20484429e-003
,,,7.75000000e-010,-6.16406304e-003
,,,8.00000000e-010,-6.12000054e-003
,,,8.25000000e-010,-6.05156304e-003
,,,8.50000000e-010,-5.98265679e-003
,,,8.75000000e-010,-5.91515679e-003
,,,9.00000000e-010,-5.85093804e-003
,,,9.25000000e-010,-5.79140678e-003
,,,9.50000000e-010,-5.73656303e-003
,,,9.75000000e-010,-5.68640678e-003
,,,1.00000000e-009,-5.64000053e-003
,,,1.02500000e-009,-5.58046928e-003
,,,1.05000000e-009,-5.52140678e-003
,,,1.07500000e-009,-5.46281303e-003
,,,1.10000000e-009,-5.40421928e-003
,,,1.12500000e-009,-5.34562553e-003
,,,1.15000000e-009,-5.28562553e-003
,,,1.17500000e-009,-5.22421928e-003
,,,1.20000000e-009,-5.16000053e-003
,,,1.22500000e-009,-5.08218803e-003
,,,1.25000000e-009,-4.99828178e-003
,,,1.27500000e-009,-4.90921928e-003
,,,1.30000000e-009,-4.81640678e-003
,,,1.32500000e-009,-4.72171928e-003
,,,1.35000000e-009,-4.62656302e-003
,,,1.37500000e-009,-4.53234427e-003
,,,1.40000000e-009,-4.44000052e-003
,,,1.42500000e-009,-4.34812552e-003
,,,1.45000000e-009,-4.25859427e-003
,,,1.47500000e-009,-4.17281302e-003
,,,1.50000000e-009,-4.09218802e-003
,,,1.52500000e-009,-4.01812552e-003
,,,1.55000000e-009,-3.95156302e-003
,,,1.57500000e-009,-3.89250052e-003
,,,1.60000000e-009,-3.84000052e-003
,,,1.62500000e-009,-3.79359427e-003
,,,1.65000000e-009,-3.74578177e-003
,,,1.67500000e-009,-3.69515677e-003
,,,1.70000000e-009,-3.64031302e-003
,,,1.72500000e-009,-3.57984427e-003
,,,1.75000000e-009,-3.51328176e-003
,,,1.77500000e-009,-3.44015676e-003
,,,1.80000000e-009,-3.36000051e-003
,,,1.82500000e-009,-3.27796926e-003
,,,1.85000000e-009,-3.18843801e-003
,,,1.87500000e-009,-3.09234426e-003
,,,1.90000000e-009,-2.99390676e-003
,,,1.92500000e-009,-2.89593801e-003
,,,1.95000000e-009,-2.80218801e-003
,,,1.97500000e-009,-2.71593801e-003
,,,2.00000000e-009,-2.64000051e-003
,,,2.02500000e-009,-2.58375051e-003
,,,2.05000000e-009,-2.53687551e-003
,,,2.07500000e-009,-2.49843801e-003
,,,2.10000000e-009,-2.46750051e-003
,,,2.12500000e-009,-2.44406301e-003
,,,2.15000000e-009,-2.42578176e-003
,,,2.17500000e-009,-2.41218801e-003
,,,2.20000000e-009,-2.40000051e-003
,,,2.22500000e-009,-2.39578176e-003
,,,2.25000000e-009,-2.38500051e-003
,,,2.27500000e-009,-2.36718800e-003
,,,2.30000000e-009,-2.34046925e-003
,,,2.32500000e-009,-2.30531300e-003
,,,2.35000000e-009,-2.26265675e-003
,,,2.37500000e-009,-2.21390675e-003
,,,2.40000000e-009,-2.16000050e-003
,,,2.42500000e-009,-2.11125050e-003
,,,2.45000000e-009,-2.05921925e-003
,,,2.47500000e-009,-2.00578175e-003
,,,2.50000000e-009,-1.95375050e-003
,,,2.52500000e-009,-1.90500050e-003
,,,2.55000000e-009,-1.86234425e-003
,,,2.57500000e-009,-1.82718800e-003
,,,2.60000000e-009,-1.80000050e-003
,,,2.62500000e-009,-1.78968800e-003
,,,2.65000000e-009,-1.78546925e-003
,,,2.67500000e-009,-1.78546925e-003
,,,2.70000000e-009,-1.78875050e-003
,,,2.72500000e-009,-1.79296925e-003
,,,2.75000000e-009,-1.79718800e-003
,,,2.77500000e-009,-1.80000050e-003
,,,2.80000000e-009,-1.80000050e-003
,,,2.82500000e-009,-1.80281300e-003
,,,2.85000000e-009,-1.79859425e-003
,,,2.87500000e-009,-1.78875050e-003
,,,2.90000000e-009,-1.77281300e-003
,,,2.92500000e-009,-1.75218800e-003
,,,2.95000000e-009,-1.72875050e-003
,,,2.97500000e-009,-1.70390675e-003
,,,3.00000000e-009,-1.68000050e-003
,,,3.02500000e-009,-1.66359425e-003
,,,3.05000000e-009,-1.65046925e-003
,,,3.07500000e-009,-1.64156300e-003
,,,3.10000000e-009,-1.63828175e-003
,,,3.12500000e-009,-1.64062550e-003
,,,3.15000000e-009,-1.64859425e-003
,,,3.17500000e-009,-1.66218800e-003
,,,3.20000000e-009,-1.68000050e-003
,,,3.22500000e-009,-1.70437550e-003
,,,3.25000000e-009,-1.72921925e-003
,,,3.27500000e-009,-1.75265675e-003
,,,3.30000000e-009,-1.77328175e-003
,,,3.32500000e-009,-1.78875050e-003
,,,3.35000000e-009,-1.79906300e-003
,,,3.37500000e-009,-1.80281300e-003
,,,3.40000000e-009,-1.80000050e-003
,,,3.42500000e-009,-1.79203175e-003
,,,3.45000000e-009,-1.77843800e-003
,,,3.47500000e-009,-1.76015675e-003
,,,3.50000000e-009,-1.74046925e-003
,,,3.52500000e-009,-1.72031300e-003
,,,3.55000000e-009,-1.70203175e-003
,,,3.57500000e-009,-1.68843800e-003
,,,3.60000000e-009,-1.68000050e-003
,,,3.62500000e-009,-1.67953175e-003
,,,3.65000000e-009,-1.68609425e-003
,,,3.67500000e-009,-1.69828175e-003
,,,3.70000000e-009,-1.71562550e-003
,,,3.72500000e-009,-1.73625050e-003
,,,3.75000000e-009,-1.75828175e-003
,,,3.77500000e-009,-1.78031300e-003
,,,3.80000000e-009,-1.80000050e-003
,,,3.82500000e-009,-1.81593800e-003
,,,3.85000000e-009,-1.82718800e-003
,,,3.87500000e-009,-1.83328175e-003
,,,3.90000000e-009,-1.83421925e-003
,,,3.92500000e-009,-1.83046925e-003
,,,3.95000000e-009,-1.82296925e-003
,,,3.97500000e-009,-1.81265675e-003
,,,4.00000000e-009,-1.80000050e-003
,,,4.02500000e-009,-1.78593800e-003
,,,4.05000000e-009,-1.77093800e-003
,,,4.07500000e-009,-1.75546925e-003
,,,4.10000000e-009,-1.74000050e-003
,,,4.12500000e-009,-1.72500050e-003
,,,4.15000000e-009,-1.70953175e-003
,,,4.17500000e-009,-1.69453175e-003
,,,4.20000000e-009,-1.68000050e-003
,,,4.22500000e-009,-1.66828175e-003
,,,4.25000000e-009,-1.65843800e-003
,,,4.27500000e-009,-1.65140675e-003
,,,4.30000000e-009,-1.64859425e-003
,,,4.32500000e-009,-1.64953175e-003
,,,4.35000000e-009,-1.65515675e-003
,,,4.37500000e-009,-1.66546925e-003
,,,4.40000000e-009,-1.68000050e-003
,,,4.42500000e-009,-1.70015675e-003
,,,4.45000000e-009,-1.72171925e-003
,,,4.47500000e-009,-1.74375050e-003
,,,4.50000000e-009,-1.76437550e-003
,,,4.52500000e-009,-1.78171925e-003
,,,4.55000000e-009,-1.79390675e-003
,,,4.57500000e-009,-1.80046925e-003
,,,4.60000000e-009,-1.80000050e-003
,,,4.62500000e-009,-1.79343800e-003
,,,4.65000000e-009,-1.78078175e-003
,,,4.67500000e-009,-1.76437550e-003
,,,4.70000000e-009,-1.74468800e-003
,,,4.72500000e-009,-1.72500050e-003
,,,4.75000000e-009,-1.70625050e-003
,,,4.77500000e-009,-1.69078175e-003
,,,4.80000000e-009,-1.68000050e-003
,,,4.82500000e-009,-1.67765675e-003
,,,4.85000000e-009,-1.68187550e-003
,,,4.87500000e-009,-1.69265675e-003
,,,4.90000000e-009,-1.70859425e-003
,,,4.92500000e-009,-1.72875050e-003
,,,4.95000000e-009,-1.75171925e-003
,,,4.97500000e-009,-1.77609425e-003
,,,5.00000000e-009,-1.80000050e-003
,,,5.02500000e-009,-1.82250050e-003
,,,5.05000000e-009,-1.84265675e-003
,,,5.07500000e-009,-1.86046925e-003
,,,5.10000000e-009,-1.87546925e-003
,,,5.12500000e-009,-1.88859425e-003
,,,5.15000000e-009,-1.90031300e-003
,,,5.17500000e-009,-1.91062550e-003
,,,5.20000000e-009,-1.92000050e-003
,,,5.22500000e-009,-1.92562550e-003
,,,5.25000000e-009,-1.92937550e-003
,,,5.27500000e-009,-1.93218800e-003
,,,5.30000000e-009,-1.93359425e-003
,,,5.32500000e-009,-1.93312550e-003
,,,5.35000000e-009,-1.93078175e-003
,,,5.37500000e-009,-1.92609425e-003
,,,5.40000000e-009,-1.92000050e-003
,,,5.42500000e-009,-1.90875050e-003
,,,5.45000000e-009,-1.89796925e-003
,,,5.47500000e-009,-1.88859425e-003
,,,5.50000000e-009,-1.88250050e-003
,,,5.52500000e-009,-1.88203175e-003
,,,5.55000000e-009,-1.88765675e-003
,,,5.57500000e-009,-1.90078175e-003
,,,5.60000000e-009,-1.92000050e-003
,,,5.62500000e-009,-1.94109425e-003
,,,5.65000000e-009,-1.96453175e-003
,,,5.67500000e-009,-1.98937550e-003
,,,5.70000000e-009,-2.01234425e-003
,,,5.72500000e-009,-2.03109425e-003
,,,5.75000000e-009,-2.04375050e-003
,,,5.77500000e-009,-2.04703175e-003
,,,5.80000000e-009,-2.04000050e-003
,,,5.82500000e-009,-2.01609425e-003
,,,5.85000000e-009,-1.98093800e-003
,,,5.87500000e-009,-1.93734425e-003
,,,5.90000000e-009,-1.88718800e-003
,,,5.92500000e-009,-1.83375050e-003
,,,5.95000000e-009,-1.77984425e-003
,,,5.97500000e-009,-1.72828175e-003
