RawData/DifferentLengths/R3/R3_12pt5_5mV/wave001_Ch3.csv

"Record Length",1000,"Points",-7.72500000e-009,-7.99999833e-004
"Sample Interval",2.50000000e-011,s,-7.70000000e-009,-8.42187336e-004
"Trigger Point",309,"Samples",-7.67500000e-009,-8.67187338e-004
"Trigger Time",5.97652174e-012,s,-7.65000000e-009,-8.76562339e-004
"",,,-7.62500000e-009,-8.71874838e-004
"Horizontal Offset",-7.72500000e-009,s,-7.60000000e-009,-8.59374837e-004
,,,-7.57500000e-009,-8.39062336e-004
,,,-7.55000000e-009,-8.18749834e-004
,,,-7.52500000e-009,-7.99999833e-004
,,,-7.50000000e-009,-7.84374832e-004
,,,-7.47500000e-009,-7.74999831e-004
,,,-7.45000000e-009,-7.73437331e-004
,,,-7.42500000e-009,-7.76562331e-004
,,,-7.40000000e-009,-7.84374832e-004
,,,-7.37500000e-009,-7.93749833e-004
,,,-7.35000000e-009,-7.99999833e-004
,,,-7.32500000e-009,-7.99999833e-004
,,,-7.30000000e-009,-7.89062332e-004
,,,-7.27500000e-009,-7.67187331e-004
,,,-7.25000000e-009,-7.34374828e-004
,,,-7.22500000e-009,-6.87499825e-004
,,,-7.20000000e-009,-6.29687321e-004
,,,-7.17500000e-009,-5.60937316e-004
,,,-7.15000000e-009,-4.84374811e-004
,,,-7.12500000e-009,-3.99999805e-004
,,,-7.10000000e-009,-3.17187299e-004
,,,-7.07500000e-009,-2.37499793e-004
,,,-7.05000000e-009,-1.62499788e-004
,,,-7.02500000e-009,-9.84372835e-005
,,,-7.00000000e-009,-4.84372799e-005
,,,-6.97500000e-009,-1.40622775e-005
,,,-6.95000000e-009,1.56272363e-006
,,,-6.92500000e-009,2.23517420e-010
,,,-6.90000000e-009,-2.65622784e-005
,,,-6.87500000e-009,-6.87497813e-005
,,,-6.85000000e-009,-1.23437285e-004
,,,-6.82500000e-009,-1.84374790e-004
,,,-6.80000000e-009,-2.46874794e-004
,,,-6.77500000e-009,-3.06249798e-004
,,,-6.75000000e-009,-3.59374802e-004
,,,-6.72500000e-009,-3.99999805e-004
,,,-6.70000000e-009,-4.31249807e-004
,,,-6.67500000e-009,-4.48437308e-004
,,,-6.65000000e-009,-4.53124809e-004
,,,-6.62500000e-009,-4.48437308e-004
,,,-6.60000000e-009,-4.37499807e-004
,,,-6.57500000e-009,-4.23437306e-004
,,,-6.55000000e-009,-4.10937306e-004
,,,-6.52500000e-009,-3.99999805e-004
,,,-6.50000000e-009,-3.95312304e-004
,,,-6.47500000e-009,-3.93749804e-004
,,,-6.45000000e-009,-3.96874805e-004
,,,-6.42500000e-009,-3.99999805e-004
,,,-6.40000000e-009,-4.04687305e-004
,,,-6.37500000e-009,-4.07812305e-004
,,,-6.35000000e-009,-4.06249805e-004
,,,-6.32500000e-009,-3.99999805e-004
,,,-6.30000000e-009,-3.92187304e-004
,,,-6.27500000e-009,-3.81249803e-004
,,,-6.25000000e-009,-3.70312303e-004
,,,-6.22500000e-009,-3.59374802e-004
,,,-6.20000000e-009,-3.54687302e-004
,,,-6.17500000e-009,-3.59374802e-004
,,,-6.15000000e-009,-3.73437303e-004
,,,-6.12500000e-009,-3.99999805e-004
,,,-6.10000000e-009,-4.40624808e-004
,,,-6.07500000e-009,-4.90624811e-004
,,,-6.05000000e-009,-5.48437315e-004
,,,-6.02500000e-009,-6.09374820e-004
,,,-6.00000000e-009,-6.70312324e-004
,,,-5.97500000e-009,-7.24999828e-004
,,,-5.95000000e-009,-7.70312331e-004
,,,-5.92500000e-009,-7.99999833e-004
,,,-5.90000000e-009,-8.12499834e-004
,,,-5.87500000e-009,-8.06249834e-004
,,,-5.85000000e-009,-7.79687332e-004
,,,-5.82500000e-009,-7.34374828e-004
,,,-5.80000000e-009,-6.70312324e-004
,,,-5.77500000e-009,-5.90624818e-004
,,,-5.75000000e-009,-4.99999812e-004
,,,-5.72500000e-009,-3.99999805e-004
,,,-5.70000000e-009,-3.06249798e-004
,,,-5.67500000e-009,-2.15624792e-004
,,,-5.65000000e-009,-1.35937286e-004
,,,-5.62500000e-009,-7.03122815e-005
,,,-5.60000000e-009,-2.34372781e-005
,,,-5.57500000e-009,4.68772385e-006
,,,-5.55000000e-009,1.25002244e-005
,,,-5.52500000e-009,2.23517420e-010
,,,-5.50000000e-009,-3.74997791e-005
,,,-5.47500000e-009,-8.74997827e-005
,,,-5.45000000e-009,-1.48437287e-004
,,,-5.42500000e-009,-2.10937291e-004
,,,-5.40000000e-009,-2.73437296e-004
,,,-5.37500000e-009,-3.28124800e-004
,,,-5.35000000e-009,-3.70312303e-004
,,,-5.32500000e-009,-3.99999805e-004
,,,-5.30000000e-009,-4.20312306e-004
,,,-5.27500000e-009,-4.24999807e-004
,,,-5.25000000e-009,-4.20312306e-004
,,,-5.22500000e-009,-4.09374805e-004
,,,-5.20000000e-009,-3.96874805e-004
,,,-5.17500000e-009,-3.87499804e-004
,,,-5.15000000e-009,-3.87499804e-004
,,,-5.12500000e-009,-3.99999805e-004
,,,-5.10000000e-009,-4.34374807e-004
,,,-5.07500000e-009,-4.89062311e-004
,,,-5.05000000e-009,-5.65624817e-004
,,,-5.02500000e-009,-6.64062323e-004
,,,-5.00000000e-009,-7.81249832e-004
,,,-4.97500000e-009,-9.12499841e-004
,,,-4.95000000e-009,-1.05468735e-003
,,,-4.92500000e-009,-1.19999986e-003
,,,-4.90000000e-009,-1.33593737e-003
,,,-4.87500000e-009,-1.45781238e-003
,,,-4.85000000e-009,-1.55781239e-003
,,,-4.82500000e-009,-1.63281239e-003
,,,-4.80000000e-009,-1.67656240e-003
,,,-4.77500000e-009,-1.68593740e-003
,,,-4.75000000e-009,-1.65937489e-003
,,,-4.72500000e-009,-1.59999989e-003
,,,-4.70000000e-009,-1.50468738e-003
,,,-4.67500000e-009,-1.38906237e-003
,,,-4.65000000e-009,-1.26406237e-003
,,,-4.62500000e-009,-1.13749986e-003
,,,-4.60000000e-009,-1.01874985e-003
,,,-4.57500000e-009,-9.20312342e-004
,,,-4.55000000e-009,-8.45312336e-004
,,,-4.52500000e-009,-7.99999833e-004
,,,-4.50000000e-009,-7.84374832e-004
,,,-4.47500000e-009,-7.98437333e-004
,,,-4.45000000e-009,-8.42187336e-004
,,,-4.42500000e-009,-9.06249841e-004
,,,-4.40000000e-009,-9.84374846e-004
,,,-4.37500000e-009,-1.06406235e-003
,,,-4.35000000e-009,-1.13906236e-003
,,,-4.32500000e-009,-1.19999986e-003
,,,-4.30000000e-009,-1.23437486e-003
,,,-4.27500000e-009,-1.24374986e-003
,,,-4.25000000e-009,-1.22499986e-003
,,,-4.22500000e-009,-1.17812486e-003
,,,-4.20000000e-009,-1.10781235e-003
,,,-4.17500000e-009,-1.01874985e-003
,,,-4.15000000e-009,-9.14062341e-004
,,,-4.12500000e-009,-7.99999833e-004
,,,-4.10000000e-009,-6.87499825e-004
,,,-4.07500000e-009,-5.82812318e-004
,,,-4.05000000e-009,-4.93749811e-004
,,,-4.02500000e-009,-4.24999807e-004
,,,-4.00000000e-009,-3.79687303e-004
,,,-3.97500000e-009,-3.62499802e-004
,,,-3.95000000e-009,-3.68749803e-004
,,,-3.92500000e-009,-3.99999805e-004
,,,-3.90000000e-009,-4.56249809e-004
,,,-3.87500000e-009,-5.26562314e-004
,,,-3.85000000e-009,-5.99999819e-004
,,,-3.82500000e-009,-6.70312324e-004
,,,-3.80000000e-009,-7.32812328e-004
,,,-3.77500000e-009,-7.76562331e-004
,,,-3.75000000e-009,-8.01562333e-004
,,,-3.72500000e-009,-7.99999833e-004
,,,-3.70000000e-009,-7.79687332e-004
,,,-3.67500000e-009,-7.37499829e-004
,,,-3.65000000e-009,-6.78124824e-004
,,,-3.62500000e-009,-6.09374820e-004
,,,-3.60000000e-009,-5.40624815e-004
,,,-3.57500000e-009,-4.76562310e-004
,,,-3.55000000e-009,-4.28124807e-004
,,,-3.52500000e-009,-3.99999805e-004
,,,-3.50000000e-009,-3.99999805e-004
,,,-3.47500000e-009,-4.23437306e-004
,,,-3.45000000e-009,-4.67187310e-004
,,,-3.42500000e-009,-5.26562314e-004
,,,-3.40000000e-009,-5.96874819e-004
,,,-3.37500000e-009,-6.70312324e-004
,,,-3.35000000e-009,-7.40624829e-004
,,,-3.32500000e-009,-7.99999833e-004
,,,-3.30000000e-009,-8.48437337e-004
,,,-3.27500000e-009,-8.78124839e-004
,,,-3.25000000e-009,-8.90624840e-004
,,,-3.22500000e-009,-8.87499839e-004
,,,-3.20000000e-009,-8.73437338e-004
,,,-3.17500000e-009,-8.51562337e-004
,,,-3.15000000e-009,-8.24999835e-004
,,,-3.12500000e-009,-7.99999833e-004
,,,-3.10000000e-009,-7.81249832e-004
,,,-3.07500000e-009,-7.67187331e-004
,,,-3.05000000e-009,-7.60937330e-004
,,,-3.02500000e-009,-7.60937330e-004
,,,-3.00000000e-009,-7.67187331e-004
,,,-2.97500000e-009,-7.78124832e-004
,,,-2.95000000e-009,-7.89062332e-004
,,,-2.92500000e-009,-7.99999833e-004
,,,-2.90000000e-009,-8.09374834e-004
,,,-2.87500000e-009,-8.14062334e-004
,,,-2.85000000e-009,-8.15624834e-004
,,,-2.82500000e-009,-8.15624834e-004
,,,-2.80000000e-009,-8.14062334e-004
,,,-2.77500000e-009,-8.09374834e-004
,,,-2.75000000e-009,-8.04687333e-004
,,,-2.72500000e-009,-7.99999833e-004
,,,-2.70000000e-009,-7.98437333e-004
,,,-2.67500000e-009,-7.98437333e-004
,,,-2.65000000e-009,-7.99999833e-004
,,,-2.62500000e-009,-7.99999833e-004
,,,-2.60000000e-009,-8.01562333e-004
,,,-2.57500000e-009,-8.03124833e-004
,,,-2.55000000e-009,-8.03124833e-004
,,,-2.52500000e-009,-7.99999833e-004
,,,-2.50000000e-009,-7.96874833e-004
,,,-2.47500000e-009,-7.92187333e-004
,,,-2.45000000e-009,-7.87499832e-004
,,,-2.42500000e-009,-7.85937332e-004
,,,-2.40000000e-009,-7.85937332e-004
,,,-2.37500000e-009,-7.87499832e-004
,,,-2.35000000e-009,-7.92187333e-004
,,,-2.32500000e-009,-7.99999833e-004
,,,-2.30000000e-009,-8.07812334e-004
,,,-2.27500000e-009,-8.15624834e-004
,,,-2.25000000e-009,-8.21874835e-004
,,,-2.22500000e-009,-8.26562335e-004
,,,-2.20000000e-009,-8.26562335e-004
,,,-2.17500000e-009,-8.23437335e-004
,,,-2.15000000e-009,-8.14062334e-004
,,,-2.12500000e-009,-7.99999833e-004
,,,-2.10000000e-009,-7.84374832e-004
,,,-2.07500000e-009,-7.68749831e-004
,,,-2.05000000e-009,-7.54687330e-004
,,,-2.02500000e-009,-7.43749829e-004
,,,-2.00000000e-009,-7.42187329e-004
,,,-1.97500000e-009,-7.49999830e-004
,,,-1.95000000e-009,-7.68749831e-004
,,,-1.92500000e-009,-7.99999833e-004
,,,-1.90000000e-009,-8.40624836e-004
,,,-1.87500000e-009,-8.89062339e-004
,,,-1.85000000e-009,-9.43749843e-004
,,,-1.82500000e-009,-1.00312485e-003
,,,-1.80000000e-009,-1.06093735e-003
,,,-1.77500000e-009,-1.11718736e-003
,,,-1.75000000e-009,-1.16406236e-003
,,,-1.72500000e-009,-1.19999986e-003
,,,-1.70000000e-009,-1.21406236e-003
,,,-1.67500000e-009,-1.20781236e-003
,,,-1.65000000e-009,-1.18281236e-003
,,,-1.62500000e-009,-1.13749986e-003
,,,-1.60000000e-009,-1.07343735e-003
,,,-1.57500000e-009,-9.93749847e-004
,,,-1.55000000e-009,-9.01562340e-004
,,,-1.52500000e-009,-7.99999833e-004
,,,-1.50000000e-009,-7.01562326e-004
,,,-1.47500000e-009,-6.09374820e-004
,,,-1.45000000e-009,-5.26562314e-004
,,,-1.42500000e-009,-4.60937309e-004
,,,-1.40000000e-009,-4.12499806e-004
,,,-1.37500000e-009,-3.85937304e-004
,,,-1.35000000e-009,-3.82812304e-004
,,,-1.32500000e-009,-3.99999805e-004
,,,-1.30000000e-009,-4.48437308e-004
,,,-1.27500000e-009,-5.10937313e-004
,,,-1.25000000e-009,-5.81249818e-004
,,,-1.22500000e-009,-6.53124823e-004
,,,-1.20000000e-009,-7.18749827e-004
,,,-1.17500000e-009,-7.68749831e-004
,,,-1.15000000e-009,-7.98437333e-004
,,,-1.12500000e-009,-7.99999833e-004
,,,-1.10000000e-009,-7.89062332e-004
,,,-1.07500000e-009,-7.46874829e-004
,,,-1.05000000e-009,-6.76562324e-004
,,,-1.02500000e-009,-5.79687318e-004
,,,-1.00000000e-009,-4.56249809e-004
,,,-9.75000000e-010,-3.12499799e-004
,,,-9.50000000e-010,-1.57812288e-004
,,,-9.25000000e-010,2.23517420e-010
,,,-9.00000000e-010,1.17187732e-004
,,,-8.75000000e-010,2.12500239e-004
,,,-8.50000000e-010,2.75000243e-004
,,,-8.25000000e-010,3.03125245e-004
,,,-8.00000000e-010,2.89062744e-004
,,,-7.75000000e-010,2.34375240e-004
,,,-7.50000000e-010,1.35937733e-004
,,,-7.25000000e-010,2.23517420e-010
,,,-7.00000000e-010,-2.10937291e-004
,,,-6.75000000e-010,-4.48437308e-004
,,,-6.50000000e-010,-6.95312326e-004
,,,-6.25000000e-010,-9.37499843e-004
,,,-6.00000000e-010,-1.15937486e-003
,,,-5.75000000e-010,-1.34843737e-003
,,,-5.50000000e-010,-1.49687488e-003
,,,-5.25000000e-010,-1.59999989e-003
,,,-5.00000000e-010,-1.68906240e-003
,,,-4.75000000e-010,-1.74531240e-003
,,,-4.50000000e-010,-1.77656240e-003
,,,-4.25000000e-010,-1.79687490e-003
,,,-4.00000000e-010,-1.81562490e-003
,,,-3.75000000e-010,-1.84999991e-003
,,,-3.50000000e-010,-1.90781241e-003
,,,-3.25000000e-010,-1.99999992e-003
,,,-3.00000000e-010,-2.16093743e-003
,,,-2.75000000e-010,-2.36718744e-003
,,,-2.50000000e-010,-2.61093746e-003
,,,-2.25000000e-010,-2.88437498e-003
,,,-2.00000000e-010,-3.17343750e-003
,,,-1.75000000e-010,-3.46250002e-003
,,,-1.50000000e-010,-3.74218754e-003
,,,-1.25000000e-010,-4.00000006e-003
,,,-1.00000000e-010,-4.24843758e-003
,,,-7.50000000e-011,-4.47500009e-003
,,,-5.00000000e-011,-4.68125011e-003
,,,-2.50000000e-011,-4.87031262e-003
,,,0.00000000e+000,-5.05000013e-003
,,,2.50000000e-011,-5.22812515e-003
,,,5.00000000e-011,-5.40937516e-003
,,,7.50000000e-011,-5.60000017e-003
,,,1.00000000e-010,-5.80312519e-003
,,,1.25000000e-010,-6.02812520e-003
,,,1.50000000e-010,-6.27656272e-003
,,,1.75000000e-010,-6.54218774e-003
,,,2.00000000e-010,-6.81718776e-003
,,,2.25000000e-010,-7.09062528e-003
,,,2.50000000e-010,-7.35625030e-003
,,,2.75000000e-010,-7.60000031e-003
,,,3.00000000e-010,-7.79218783e-003
,,,3.25000000e-010,-7.95781284e-003
,,,3.50000000e-010,-8.09687535e-003
,,,3.75000000e-010,-8.20625036e-003
,,,4.00000000e-010,-8.28906286e-003
,,,4.25000000e-010,-8.34687537e-003
,,,4.50000000e-010,-8.38281287e-003
,,,4.75000000e-010,-8.40000037e-003
,,,5.00000000e-010,-8.37968787e-003
,,,5.25000000e-010,-8.36406287e-003
,,,5.50000000e-010,-8.36406287e-003
,,,5.75000000e-010,-8.38750037e-003
,,,6.00000000e-010,-8.44218787e-003
,,,6.25000000e-010,-8.52812538e-003
,,,6.50000000e-010,-8.64843789e-003
,,,6.75000000e-010,-8.80000040e-003
,,,7.00000000e-010,-8.94062541e-003
,,,7.25000000e-010,-9.10156292e-003
,,,7.50000000e-010,-9.27812543e-003
,,,7.75000000e-010,-9.45937545e-003
,,,8.00000000e-010,-9.63437546e-003
,,,8.25000000e-010,-9.78906297e-003
,,,8.50000000e-010,-9.91406298e-003
,,,8.75000000e-010,-1.00000005e-002
,,,9.00000000e-010,-9.99843798e-003
,,,9.25000000e-010,-9.95312548e-003
,,,9.50000000e-010,-9.87187548e-003
,,,9.75000000e-010,-9.76250047e-003
,,,1.00000000e-009,-9.63125046e-003
,,,1.02500000e-009,-9.48906295e-003
,,,1.05000000e-009,-9.34218794e-003
,,,1.07500000e-009,-9.20000043e-003
,,,1.10000000e-009,-9.03437542e-003
,,,1.12500000e-009,-8.88593791e-003
,,,1.15000000e-009,-8.75937540e-003
,,,1.17500000e-009,-8.65468789e-003
,,,1.20000000e-009,-8.57031288e-003
,,,1.22500000e-009,-8.50312538e-003
,,,1.25000000e-009,-8.44843787e-003
,,,1.27500000e-009,-8.40000037e-003
,,,1.30000000e-009,-8.32968787e-003
,,,1.32500000e-009,-8.25156286e-003
,,,1.35000000e-009,-8.16562535e-003
,,,1.37500000e-009,-8.07031285e-003
,,,1.40000000e-009,-7.96562534e-003
,,,1.42500000e-009,-7.85156283e-003
,,,1.45000000e-009,-7.72968782e-003
,,,1.47500000e-009,-7.60000031e-003
,,,1.50000000e-009,-7.45000030e-003
,,,1.52500000e-009,-7.29218779e-003
,,,1.55000000e-009,-7.13281278e-003
,,,1.57500000e-009,-6.97343777e-003
,,,1.60000000e-009,-6.81875026e-003
,,,1.62500000e-009,-6.66875025e-003
,,,1.65000000e-009,-6.52968774e-003
,,,1.67500000e-009,-6.40000023e-003
,,,1.70000000e-009,-6.27812522e-003
,,,1.72500000e-009,-6.16093771e-003
,,,1.75000000e-009,-6.05312520e-003
,,,1.77500000e-009,-5.95156270e-003
,,,1.80000000e-009,-5.85625019e-003
,,,1.82500000e-009,-5.76718768e-003
,,,1.85000000e-009,-5.68281268e-003
,,,1.87500000e-009,-5.60000017e-003
,,,1.90000000e-009,-5.52187517e-003
,,,1.92500000e-009,-5.43593766e-003
,,,1.95000000e-009,-5.34218765e-003
,,,1.97500000e-009,-5.24062515e-003
,,,2.00000000e-009,-5.13281264e-003
,,,2.02500000e-009,-5.02343763e-003
,,,2.05000000e-009,-4.91093762e-003
,,,2.07500000e-009,-4.80000012e-003
,,,2.10000000e-009,-4.69687511e-003
,,,2.12500000e-009,-4.59062510e-003
,,,2.15000000e-009,-4.48281259e-003
,,,2.17500000e-009,-4.37500009e-003
,,,2.20000000e-009,-4.27187508e-003
,,,2.22500000e-009,-4.17343757e-003
,,,2.25000000e-009,-4.08281257e-003
,,,2.27500000e-009,-4.00000006e-003
,,,2.30000000e-009,-3.93437505e-003
,,,2.32500000e-009,-3.87187505e-003
,,,2.35000000e-009,-3.81250005e-003
,,,2.37500000e-009,-3.75781254e-003
,,,2.40000000e-009,-3.70937504e-003
,,,2.42500000e-009,-3.66718754e-003
,,,2.45000000e-009,-3.63125003e-003
,,,2.47500000e-009,-3.60000003e-003
,,,2.50000000e-009,-3.58125003e-003
,,,2.52500000e-009,-3.55781253e-003
,,,2.55000000e-009,-3.52656253e-003
,,,2.57500000e-009,-3.48437502e-003
,,,2.60000000e-009,-3.43125002e-003
,,,2.62500000e-009,-3.36562501e-003
,,,2.65000000e-009,-3.28906251e-003
,,,2.67500000e-009,-3.20000000e-003
,,,2.70000000e-009,-3.10781250e-003
,,,2.72500000e-009,-3.00468749e-003
,,,2.75000000e-009,-2.89374998e-003
,,,2.77500000e-009,-2.78281247e-003
,,,2.80000000e-009,-2.67187497e-003
,,,2.82500000e-009,-2.57031246e-003
,,,2.85000000e-009,-2.47812495e-003
,,,2.87500000e-009,-2.39999995e-003
,,,2.90000000e-009,-2.34374994e-003
,,,2.92500000e-009,-2.29374994e-003
,,,2.95000000e-009,-2.24999994e-003
,,,2.97500000e-009,-2.20781243e-003
,,,3.00000000e-009,-2.16406243e-003
,,,3.02500000e-009,-2.11562493e-003
,,,3.05000000e-009,-2.06249992e-003
,,,3.07500000e-009,-1.99999992e-003
,,,3.10000000e-009,-1.94218741e-003
,,,3.12500000e-009,-1.87812491e-003
,,,3.15000000e-009,-1.80937490e-003
,,,3.17500000e-009,-1.74374990e-003
,,,3.20000000e-009,-1.68437490e-003
,,,3.22500000e-009,-1.63749989e-003
,,,3.25000000e-009,-1.60781239e-003
,,,3.27500000e-009,-1.59999989e-003
,,,3.30000000e-009,-1.62499989e-003
,,,3.32500000e-009,-1.66562489e-003
,,,3.35000000e-009,-1.71874990e-003
,,,3.37500000e-009,-1.78281240e-003
,,,3.40000000e-009,-1.84687491e-003
,,,3.42500000e-009,-1.90937491e-003
,,,3.45000000e-009,-1.96249992e-003
,,,3.47500000e-009,-1.99999992e-003
,,,3.50000000e-009,-2.02343742e-003
,,,3.52500000e-009,-2.02343742e-003
,,,3.55000000e-009,-1.99843742e-003
,,,3.57500000e-009,-1.94999991e-003
,,,3.60000000e-009,-1.88124991e-003
,,,3.62500000e-009,-1.79687490e-003
,,,3.65000000e-009,-1.70156240e-003
,,,3.67500000e-009,-1.59999989e-003
,,,3.70000000e-009,-1.50781238e-003
,,,3.72500000e-009,-1.42031238e-003
,,,3.75000000e-009,-1.34374987e-003
,,,3.77500000e-009,-1.27968737e-003
,,,3.80000000e-009,-1.23124986e-003
,,,3.82500000e-009,-1.20312486e-003
,,,3.85000000e-009,-1.19218736e-003
,,,3.87500000e-009,-1.19999986e-003
,,,3.90000000e-009,-1.22968736e-003
,,,3.92500000e-009,-1.27031237e-003
,,,3.95000000e-009,-1.32187487e-003
,,,3.97500000e-009,-1.37812487e-003
,,,4.00000000e-009,-1.43906238e-003
,,,4.02500000e-009,-1.49687488e-003
,,,4.05000000e-009,-1.55312489e-003
,,,4.07500000e-009,-1.59999989e-003
,,,4.10000000e-009,-1.63906239e-003
,,,4.12500000e-009,-1.66562489e-003
,,,4.15000000e-009,-1.67968740e-003
,,,4.17500000e-009,-1.68124990e-003
,,,4.20000000e-009,-1.67187489e-003
,,,4.22500000e-009,-1.65312489e-003
,,,4.25000000e-009,-1.62812489e-003
,,,4.27500000e-009,-1.59999989e-003
,,,4.30000000e-009,-1.57187489e-003
,,,4.32500000e-009,-1.54531239e-003
,,,4.35000000e-009,-1.52656238e-003
,,,4.37500000e-009,-1.51874988e-003
,,,4.40000000e-009,-1.52187488e-003
,,,4.42500000e-009,-1.53749989e-003
,,,4.45000000e-009,-1.56406239e-003
,,,4.47500000e-009,-1.59999989e-003
,,,4.50000000e-009,-1.64062489e-003
,,,4.52500000e-009,-1.67812490e-003
,,,4.55000000e-009,-1.70937490e-003
,,,4.57500000e-009,-1.72812490e-003
,,,4.60000000e-009,-1.73124990e-003
,,,4.62500000e-009,-1.71093740e-003
,,,4.65000000e-009,-1.66874989e-003
,,,4.67500000e-009,-1.59999989e-003
,,,4.70000000e-009,-1.50937488e-003
,,,4.72500000e-009,-1.40156238e-003
,,,4.75000000e-009,-1.28281237e-003
,,,4.77500000e-009,-1.16093736e-003
,,,4.80000000e-009,-1.04531235e-003
,,,4.82500000e-009,-9.42187343e-004
,,,4.85000000e-009,-8.57812337e-004
,,,4.87500000e-009,-7.99999833e-004
,,,4.90000000e-009,-7.76562331e-004
,,,4.92500000e-009,-7.82812332e-004
,,,4.95000000e-009,-8.15624834e-004
,,,4.97500000e-009,-8.73437338e-004
,,,5.00000000e-009,-9.46874844e-004
,,,5.02500000e-009,-1.03124985e-003
,,,5.05000000e-009,-1.11874986e-003
,,,5.07500000e-009,-1.19999986e-003
,,,5.10000000e-009,-1.27343737e-003
,,,5.12500000e-009,-1.32656237e-003
,,,5.15000000e-009,-1.35937487e-003
,,,5.17500000e-009,-1.36874987e-003
,,,5.20000000e-009,-1.35468737e-003
,,,5.22500000e-009,-1.32031237e-003
,,,5.25000000e-009,-1.26718737e-003
,,,5.27500000e-009,-1.19999986e-003
,,,5.30000000e-009,-1.12343736e-003
,,,5.32500000e-009,-1.04374985e-003
,,,5.35000000e-009,-9.67187345e-004
,,,5.37500000e-009,-8.98437340e-004
,,,5.40000000e-009,-8.43749836e-004
,,,5.42500000e-009,-8.09374834e-004
,,,5.45000000e-009,-7.93749833e-004
,,,5.47500000e-009,-7.99999833e-004
,,,5.50000000e-009,-8.29687335e-004
,,,5.52500000e-009,-8.73437338e-004
,,,5.55000000e-009,-9.29687342e-004
,,,5.57500000e-009,-9.92187347e-004
,,,5.60000000e-009,-1.05468735e-003
,,,5.62500000e-009,-1.11406236e-003
,,,5.65000000e-009,-1.16249986e-003
,,,5.67500000e-009,-1.19999986e-003
,,,5.70000000e-009,-1.22499986e-003
,,,5.72500000e-009,-1.23437486e-003
,,,5.75000000e-009,-1.23281236e-003
,,,5.77500000e-009,-1.22499986e-003
,,,5.80000000e-009,-1.21249986e-003
,,,5.82500000e-009,-1.20312486e-003
