RawData/DifferentLengths/R3/R3_12pt5_5mV/wave020_Ch3.csv

"Record Length",1000,"Points",-7.72500000e-009,1.07812017e-004
"Sample Interval",2.50000000e-011,s,-7.70000000e-009,1.19999517e-004
"Trigger Point",309,"Samples",-7.67500000e-009,1.34062017e-004
"Trigger Time",1.89924518e-011,s,-7.65000000e-009,1.50468267e-004
"",,,-7.62500000e-009,1.68280767e-004
"Horizontal Offset",-7.72500000e-009,s,-7.60000000e-009,1.86562017e-004
,,,-7.57500000e-009,2.04374517e-004
,,,-7.55000000e-009,2.19374518e-004
,,,-7.52500000e-009,2.31562018e-004
,,,-7.50000000e-009,2.39999518e-004
,,,-7.47500000e-009,2.40937018e-004
,,,-7.45000000e-009,2.36249518e-004
,,,-7.42500000e-009,2.26874518e-004
,,,-7.40000000e-009,2.12812018e-004
,,,-7.37500000e-009,1.94530767e-004
,,,-7.35000000e-009,1.72499517e-004
,,,-7.32500000e-009,1.47187017e-004
,,,-7.30000000e-009,1.19999517e-004
,,,-7.27500000e-009,8.95307665e-005
,,,-7.25000000e-009,5.90620162e-005
,,,-7.22500000e-009,2.81245160e-005
,,,-7.20000000e-009,-2.81298431e-006
,,,-7.17500000e-009,-3.32817346e-005
,,,-7.15000000e-009,-6.32817348e-005
,,,-7.12500000e-009,-9.23442351e-005
,,,-7.10000000e-009,-1.20000485e-004
,,,-7.07500000e-009,-1.45312986e-004
,,,-7.05000000e-009,-1.68281736e-004
,,,-7.02500000e-009,-1.88437986e-004
,,,-7.00000000e-009,-2.06250486e-004
,,,-6.97500000e-009,-2.20781736e-004
,,,-6.95000000e-009,-2.31562986e-004
,,,-6.92500000e-009,-2.38125486e-004
,,,-6.90000000e-009,-2.40000486e-004
,,,-6.87500000e-009,-2.35312986e-004
,,,-6.85000000e-009,-2.26875486e-004
,,,-6.82500000e-009,-2.14219236e-004
,,,-6.80000000e-009,-1.99219236e-004
,,,-6.77500000e-009,-1.81406736e-004
,,,-6.75000000e-009,-1.61719236e-004
,,,-6.72500000e-009,-1.41094236e-004
,,,-6.70000000e-009,-1.20000485e-004
,,,-6.67500000e-009,-9.75004851e-005
,,,-6.65000000e-009,-7.59379849e-005
,,,-6.62500000e-009,-5.67192348e-005
,,,-6.60000000e-009,-3.98442346e-005
,,,-6.57500000e-009,-2.53129845e-005
,,,-6.55000000e-009,-1.40629844e-005
,,,-6.52500000e-009,-5.62548434e-006
,,,-6.50000000e-009,-4.84287738e-010
,,,-6.47500000e-009,3.74951574e-006
,,,-6.45000000e-009,5.15576576e-006
,,,-6.42500000e-009,5.15576576e-006
,,,-6.40000000e-009,3.74951574e-006
,,,-6.37500000e-009,1.87451573e-006
,,,-6.35000000e-009,4.68265716e-007
,,,-6.32500000e-009,-4.69234292e-007
,,,-6.30000000e-009,-4.84287738e-010
,,,-6.27500000e-009,4.68265716e-007
,,,-6.25000000e-009,1.87451573e-006
,,,-6.22500000e-009,3.74951574e-006
,,,-6.20000000e-009,4.68701575e-006
,,,-6.17500000e-009,5.15576576e-006
,,,-6.15000000e-009,4.68701575e-006
,,,-6.12500000e-009,2.81201574e-006
,,,-6.10000000e-009,-4.84287738e-010
,,,-6.07500000e-009,-6.09423434e-006
,,,-6.05000000e-009,-1.17192344e-005
,,,-6.02500000e-009,-1.73442344e-005
,,,-6.00000000e-009,-2.06254845e-005
,,,-5.97500000e-009,-2.15629845e-005
,,,-5.95000000e-009,-1.87504845e-005
,,,-5.92500000e-009,-1.17192344e-005
,,,-5.90000000e-009,-4.84287738e-010
,,,-5.87500000e-009,1.31245158e-005
,,,-5.85000000e-009,2.95307660e-005
,,,-5.82500000e-009,4.82807661e-005
,,,-5.80000000e-009,6.74995163e-005
,,,-5.77500000e-009,8.57807665e-005
,,,-5.75000000e-009,1.01249517e-004
,,,-5.72500000e-009,1.12968267e-004
,,,-5.70000000e-009,1.19999517e-004
,,,-5.67500000e-009,1.18593267e-004
,,,-5.65000000e-009,1.11562017e-004
,,,-5.62500000e-009,9.93745166e-005
,,,-5.60000000e-009,8.34370164e-005
,,,-5.57500000e-009,6.37495163e-005
,,,-5.55000000e-009,4.26557661e-005
,,,-5.52500000e-009,2.10932659e-005
,,,-5.50000000e-009,-4.84287738e-010
,,,-5.47500000e-009,-2.10942345e-005
,,,-5.45000000e-009,-4.03129846e-005
,,,-5.42500000e-009,-5.71879848e-005
,,,-5.40000000e-009,-7.21879849e-005
,,,-5.37500000e-009,-8.53129850e-005
,,,-5.35000000e-009,-9.75004851e-005
,,,-5.32500000e-009,-1.08750485e-004
,,,-5.30000000e-009,-1.20000485e-004
,,,-5.27500000e-009,-1.31719235e-004
,,,-5.25000000e-009,-1.44375486e-004
,,,-5.22500000e-009,-1.57969236e-004
,,,-5.20000000e-009,-1.72969236e-004
,,,-5.17500000e-009,-1.89375486e-004
,,,-5.15000000e-009,-2.06250486e-004
,,,-5.12500000e-009,-2.23594236e-004
,,,-5.10000000e-009,-2.40000486e-004
,,,-5.07500000e-009,-2.53594236e-004
,,,-5.05000000e-009,-2.64844237e-004
,,,-5.02500000e-009,-2.72344237e-004
,,,-5.00000000e-009,-2.76094237e-004
,,,-4.97500000e-009,-2.74687987e-004
,,,-4.95000000e-009,-2.68125487e-004
,,,-4.92500000e-009,-2.56406737e-004
,,,-4.90000000e-009,-2.40000486e-004
,,,-4.87500000e-009,-2.18906736e-004
,,,-4.85000000e-009,-1.95937986e-004
,,,-4.82500000e-009,-1.72969236e-004
,,,-4.80000000e-009,-1.51875486e-004
,,,-4.77500000e-009,-1.35000485e-004
,,,-4.75000000e-009,-1.23281735e-004
,,,-4.72500000e-009,-1.18125485e-004
,,,-4.70000000e-009,-1.20000485e-004
,,,-4.67500000e-009,-1.27969235e-004
,,,-4.65000000e-009,-1.42031736e-004
,,,-4.62500000e-009,-1.60312986e-004
,,,-4.60000000e-009,-1.80937986e-004
,,,-4.57500000e-009,-2.01094236e-004
,,,-4.55000000e-009,-2.19375486e-004
,,,-4.52500000e-009,-2.32969236e-004
,,,-4.50000000e-009,-2.40000486e-004
,,,-4.47500000e-009,-2.39062986e-004
,,,-4.45000000e-009,-2.31562986e-004
,,,-4.42500000e-009,-2.17969236e-004
,,,-4.40000000e-009,-1.99687986e-004
,,,-4.37500000e-009,-1.79062986e-004
,,,-4.35000000e-009,-1.57500486e-004
,,,-4.32500000e-009,-1.37344235e-004
,,,-4.30000000e-009,-1.20000485e-004
,,,-4.27500000e-009,-1.07344235e-004
,,,-4.25000000e-009,-9.89067351e-005
,,,-4.22500000e-009,-9.51567351e-005
,,,-4.20000000e-009,-9.60942351e-005
,,,-4.17500000e-009,-1.00312985e-004
,,,-4.15000000e-009,-1.06406735e-004
,,,-4.12500000e-009,-1.13437985e-004
,,,-4.10000000e-009,-1.20000485e-004
,,,-4.07500000e-009,-1.27031735e-004
,,,-4.05000000e-009,-1.31719235e-004
,,,-4.02500000e-009,-1.34062985e-004
,,,-4.00000000e-009,-1.34062985e-004
,,,-3.97500000e-009,-1.32187985e-004
,,,-3.95000000e-009,-1.28906735e-004
,,,-3.92500000e-009,-1.24687985e-004
,,,-3.90000000e-009,-1.20000485e-004
,,,-3.87500000e-009,-1.18125485e-004
,,,-3.85000000e-009,-1.17187985e-004
,,,-3.82500000e-009,-1.16719235e-004
,,,-3.80000000e-009,-1.17187985e-004
,,,-3.77500000e-009,-1.18125485e-004
,,,-3.75000000e-009,-1.19062985e-004
,,,-3.72500000e-009,-1.20000485e-004
,,,-3.70000000e-009,-1.20000485e-004
,,,-3.67500000e-009,-1.22812985e-004
,,,-3.65000000e-009,-1.25625485e-004
,,,-3.62500000e-009,-1.27500485e-004
,,,-3.60000000e-009,-1.28437985e-004
,,,-3.57500000e-009,-1.28437985e-004
,,,-3.55000000e-009,-1.27031735e-004
,,,-3.52500000e-009,-1.24219235e-004
,,,-3.50000000e-009,-1.20000485e-004
,,,-3.47500000e-009,-1.19062985e-004
,,,-3.45000000e-009,-1.17656735e-004
,,,-3.42500000e-009,-1.16250485e-004
,,,-3.40000000e-009,-1.15312985e-004
,,,-3.37500000e-009,-1.14844235e-004
,,,-3.35000000e-009,-1.15312985e-004
,,,-3.32500000e-009,-1.17187985e-004
,,,-3.30000000e-009,-1.20000485e-004
,,,-3.27500000e-009,-1.28437985e-004
,,,-3.25000000e-009,-1.38750485e-004
,,,-3.22500000e-009,-1.51406736e-004
,,,-3.20000000e-009,-1.65937986e-004
,,,-3.17500000e-009,-1.82344236e-004
,,,-3.15000000e-009,-2.00156736e-004
,,,-3.12500000e-009,-2.19844236e-004
,,,-3.10000000e-009,-2.40000486e-004
,,,-3.07500000e-009,-2.63906737e-004
,,,-3.05000000e-009,-2.89687987e-004
,,,-3.02500000e-009,-3.16875487e-004
,,,-3.00000000e-009,-3.45937987e-004
,,,-2.97500000e-009,-3.76875488e-004
,,,-2.95000000e-009,-4.09687988e-004
,,,-2.92500000e-009,-4.44375488e-004
,,,-2.90000000e-009,-4.80000488e-004
,,,-2.87500000e-009,-5.14687989e-004
,,,-2.85000000e-009,-5.48906739e-004
,,,-2.82500000e-009,-5.83125489e-004
,,,-2.80000000e-009,-6.15469240e-004
,,,-2.77500000e-009,-6.46406740e-004
,,,-2.75000000e-009,-6.74531740e-004
,,,-2.72500000e-009,-6.99375490e-004
,,,-2.70000000e-009,-7.20000491e-004
,,,-2.67500000e-009,-7.32187991e-004
,,,-2.65000000e-009,-7.39219241e-004
,,,-2.62500000e-009,-7.42969241e-004
,,,-2.60000000e-009,-7.42500491e-004
,,,-2.57500000e-009,-7.39687991e-004
,,,-2.55000000e-009,-7.34062991e-004
,,,-2.52500000e-009,-7.27500491e-004
,,,-2.50000000e-009,-7.20000491e-004
,,,-2.47500000e-009,-7.08281740e-004
,,,-2.45000000e-009,-6.97969240e-004
,,,-2.42500000e-009,-6.90937990e-004
,,,-2.40000000e-009,-6.87656740e-004
,,,-2.37500000e-009,-6.89062990e-004
,,,-2.35000000e-009,-6.95156740e-004
,,,-2.32500000e-009,-7.05937990e-004
,,,-2.30000000e-009,-7.20000491e-004
,,,-2.27500000e-009,-7.31719241e-004
,,,-2.25000000e-009,-7.43906741e-004
,,,-2.22500000e-009,-7.54219241e-004
,,,-2.20000000e-009,-7.61719241e-004
,,,-2.17500000e-009,-7.63125491e-004
,,,-2.15000000e-009,-7.57500491e-004
,,,-2.12500000e-009,-7.43437991e-004
,,,-2.10000000e-009,-7.20000491e-004
,,,-2.07500000e-009,-6.84844240e-004
,,,-2.05000000e-009,-6.42656740e-004
,,,-2.02500000e-009,-5.95312989e-004
,,,-2.00000000e-009,-5.44687989e-004
,,,-1.97500000e-009,-4.94062989e-004
,,,-1.95000000e-009,-4.44844238e-004
,,,-1.92500000e-009,-3.99844238e-004
,,,-1.90000000e-009,-3.60000487e-004
,,,-1.87500000e-009,-3.30000487e-004
,,,-1.85000000e-009,-3.06562987e-004
,,,-1.82500000e-009,-2.89687987e-004
,,,-1.80000000e-009,-2.77969237e-004
,,,-1.77500000e-009,-2.68594237e-004
,,,-1.75000000e-009,-2.60625487e-004
,,,-1.72500000e-009,-2.51719236e-004
,,,-1.70000000e-009,-2.40000486e-004
,,,-1.67500000e-009,-2.32500486e-004
,,,-1.65000000e-009,-2.21719236e-004
,,,-1.62500000e-009,-2.07656736e-004
,,,-1.60000000e-009,-1.90781736e-004
,,,-1.57500000e-009,-1.72031736e-004
,,,-1.55000000e-009,-1.53281736e-004
,,,-1.52500000e-009,-1.35469235e-004
,,,-1.50000000e-009,-1.20000485e-004
,,,-1.47500000e-009,-1.20937985e-004
,,,-1.45000000e-009,-1.27500485e-004
,,,-1.42500000e-009,-1.39219235e-004
,,,-1.40000000e-009,-1.55156736e-004
,,,-1.37500000e-009,-1.74375486e-004
,,,-1.35000000e-009,-1.95937986e-004
,,,-1.32500000e-009,-2.17969236e-004
,,,-1.30000000e-009,-2.40000486e-004
,,,-1.27500000e-009,-2.77969237e-004
,,,-1.25000000e-009,-3.15937987e-004
,,,-1.22500000e-009,-3.52031737e-004
,,,-1.20000000e-009,-3.86250488e-004
,,,-1.17500000e-009,-4.16250488e-004
,,,-1.15000000e-009,-4.42031738e-004
,,,-1.12500000e-009,-4.63125488e-004
,,,-1.10000000e-009,-4.80000488e-004
,,,-1.07500000e-009,-5.14219239e-004
,,,-1.05000000e-009,-5.48437989e-004
,,,-1.02500000e-009,-5.81719239e-004
,,,-1.00000000e-009,-6.14062990e-004
,,,-9.75000000e-010,-6.43594240e-004
,,,-9.50000000e-010,-6.70781740e-004
,,,-9.25000000e-010,-6.96094240e-004
,,,-9.00000000e-010,-7.20000491e-004
,,,-8.75000000e-010,-7.67344241e-004
,,,-8.50000000e-010,-8.20312991e-004
,,,-8.25000000e-010,-8.77500492e-004
,,,-8.00000000e-010,-9.37969242e-004
,,,-7.75000000e-010,-1.00125049e-003
,,,-7.50000000e-010,-1.06640674e-003
,,,-7.25000000e-010,-1.13250049e-003
,,,-7.00000000e-010,-1.20000049e-003
,,,-6.75000000e-010,-1.29281300e-003
,,,-6.50000000e-010,-1.39218800e-003
,,,-6.25000000e-010,-1.49671925e-003
,,,-6.00000000e-010,-1.60500050e-003
,,,-5.75000000e-010,-1.71468800e-003
,,,-5.50000000e-010,-1.82390675e-003
,,,-5.25000000e-010,-1.93265675e-003
,,,-5.00000000e-010,-2.04000050e-003
,,,-4.75000000e-010,-2.16468800e-003
,,,-4.50000000e-010,-2.29453175e-003
,,,-4.25000000e-010,-2.42765676e-003
,,,-4.00000000e-010,-2.56453176e-003
,,,-3.75000000e-010,-2.70234426e-003
,,,-3.50000000e-010,-2.84156301e-003
,,,-3.25000000e-010,-2.98078176e-003
,,,-3.00000000e-010,-3.12000051e-003
,,,-2.75000000e-010,-3.26906301e-003
,,,-2.50000000e-010,-3.42468801e-003
,,,-2.25000000e-010,-3.58593802e-003
,,,-2.00000000e-010,-3.75234427e-003
,,,-1.75000000e-010,-3.92203177e-003
,,,-1.50000000e-010,-4.09453177e-003
,,,-1.25000000e-010,-4.26750052e-003
,,,-1.00000000e-010,-4.44000052e-003
,,,-7.50000000e-011,-4.60687552e-003
,,,-5.00000000e-011,-4.77562553e-003
,,,-2.50000000e-011,-4.94578178e-003
,,,0.00000000e+000,-5.11593803e-003
,,,2.50000000e-011,-5.28421928e-003
,,,5.00000000e-011,-5.44875053e-003
,,,7.50000000e-011,-5.60765678e-003
,,,1.00000000e-010,-5.76000053e-003
,,,1.25000000e-010,-5.88796929e-003
,,,1.50000000e-010,-6.01265679e-003
,,,1.75000000e-010,-6.13593804e-003
,,,2.00000000e-010,-6.25734429e-003
,,,2.25000000e-010,-6.37734429e-003
,,,2.50000000e-010,-6.49500054e-003
,,,2.75000000e-010,-6.60984429e-003
,,,3.00000000e-010,-6.72000054e-003
,,,3.25000000e-010,-6.79921929e-003
,,,3.50000000e-010,-6.87703179e-003
,,,3.75000000e-010,-6.95578179e-003
,,,4.00000000e-010,-7.03406305e-003
,,,4.25000000e-010,-7.11187555e-003
,,,4.50000000e-010,-7.18687555e-003
,,,4.75000000e-010,-7.25718805e-003
,,,5.00000000e-010,-7.32000055e-003
,,,5.25000000e-010,-7.34203180e-003
,,,5.50000000e-010,-7.35750055e-003
,,,5.75000000e-010,-7.36734430e-003
,,,6.00000000e-010,-7.37109430e-003
,,,6.25000000e-010,-7.36921930e-003
,,,6.50000000e-010,-7.36031305e-003
,,,6.75000000e-010,-7.34437555e-003
,,,7.00000000e-010,-7.32000055e-003
,,,7.25000000e-010,-7.25671930e-003
,,,7.50000000e-010,-7.19015680e-003
,,,7.75000000e-010,-7.12265680e-003
,,,8.00000000e-010,-7.05703180e-003
,,,8.25000000e-010,-6.99562555e-003
,,,8.50000000e-010,-6.93843804e-003
,,,8.75000000e-010,-6.88687554e-003
,,,9.00000000e-010,-6.84000054e-003
,,,9.25000000e-010,-6.77203179e-003
,,,9.50000000e-010,-6.70781304e-003
,,,9.75000000e-010,-6.64734429e-003
,,,1.00000000e-009,-6.58968804e-003
,,,1.02500000e-009,-6.53390679e-003
,,,1.05000000e-009,-6.47812554e-003
,,,1.07500000e-009,-6.42093804e-003
,,,1.10000000e-009,-6.36000054e-003
,,,1.12500000e-009,-6.27609429e-003
,,,1.15000000e-009,-6.18609429e-003
,,,1.17500000e-009,-6.09281304e-003
,,,1.20000000e-009,-5.99765679e-003
,,,1.22500000e-009,-5.90296929e-003
,,,1.25000000e-009,-5.81109428e-003
,,,1.27500000e-009,-5.72343803e-003
,,,1.30000000e-009,-5.64000053e-003
,,,1.32500000e-009,-5.54953178e-003
,,,1.35000000e-009,-5.46000053e-003
,,,1.37500000e-009,-5.37093803e-003
,,,1.40000000e-009,-5.28234428e-003
,,,1.42500000e-009,-5.19328178e-003
,,,1.45000000e-009,-5.10375053e-003
,,,1.47500000e-009,-5.01328178e-003
,,,1.50000000e-009,-4.92000053e-003
,,,1.52500000e-009,-4.81875053e-003
,,,1.55000000e-009,-4.71093803e-003
,,,1.57500000e-009,-4.59937552e-003
,,,1.60000000e-009,-4.48640677e-003
,,,1.62500000e-009,-4.37531302e-003
,,,1.65000000e-009,-4.26890677e-003
,,,1.67500000e-009,-4.17000052e-003
,,,1.70000000e-009,-4.08000052e-003
,,,1.72500000e-009,-3.99890677e-003
,,,1.75000000e-009,-3.92109427e-003
,,,1.77500000e-009,-3.84609427e-003
,,,1.80000000e-009,-3.77250052e-003
,,,1.82500000e-009,-3.70031302e-003
,,,1.85000000e-009,-3.62812552e-003
,,,1.87500000e-009,-3.55500052e-003
,,,1.90000000e-009,-3.48000051e-003
,,,1.92500000e-009,-3.40453176e-003
,,,1.95000000e-009,-3.32156301e-003
,,,1.97500000e-009,-3.23203176e-003
,,,2.00000000e-009,-3.13734426e-003
,,,2.02500000e-009,-3.04031301e-003
,,,2.05000000e-009,-2.94328176e-003
,,,2.07500000e-009,-2.84953176e-003
,,,2.10000000e-009,-2.76000051e-003
,,,2.12500000e-009,-2.68359426e-003
,,,2.15000000e-009,-2.60812551e-003
,,,2.17500000e-009,-2.53359426e-003
,,,2.20000000e-009,-2.45953176e-003
,,,2.22500000e-009,-2.38500051e-003
,,,2.25000000e-009,-2.31046925e-003
,,,2.27500000e-009,-2.23593800e-003
,,,2.30000000e-009,-2.16000050e-003
,,,2.32500000e-009,-2.09250050e-003
,,,2.35000000e-009,-2.02031300e-003
,,,2.37500000e-009,-1.94390675e-003
,,,2.40000000e-009,-1.86468800e-003
,,,2.42500000e-009,-1.78453175e-003
,,,2.45000000e-009,-1.70578175e-003
,,,2.47500000e-009,-1.63031300e-003
,,,2.50000000e-009,-1.56000050e-003
,,,2.52500000e-009,-1.50750050e-003
,,,2.55000000e-009,-1.45734425e-003
,,,2.57500000e-009,-1.40953175e-003
,,,2.60000000e-009,-1.36359425e-003
,,,2.62500000e-009,-1.31953175e-003
,,,2.65000000e-009,-1.27781300e-003
,,,2.67500000e-009,-1.23750050e-003
,,,2.70000000e-009,-1.20000049e-003
,,,2.72500000e-009,-1.17703174e-003
,,,2.75000000e-009,-1.15453174e-003
,,,2.77500000e-009,-1.13296924e-003
,,,2.80000000e-009,-1.11328174e-003
,,,2.82500000e-009,-1.09687549e-003
,,,2.85000000e-009,-1.08515674e-003
,,,2.87500000e-009,-1.07953174e-003
,,,2.90000000e-009,-1.08000049e-003
,,,2.92500000e-009,-1.09734424e-003
,,,2.95000000e-009,-1.11703174e-003
,,,2.97500000e-009,-1.13718799e-003
,,,3.00000000e-009,-1.15687549e-003
,,,3.02500000e-009,-1.17421924e-003
,,,3.05000000e-009,-1.18781299e-003
,,,3.07500000e-009,-1.19671924e-003
,,,3.10000000e-009,-1.20000049e-003
,,,3.12500000e-009,-1.20328174e-003
,,,3.15000000e-009,-1.19859424e-003
,,,3.17500000e-009,-1.18687549e-003
,,,3.20000000e-009,-1.16953174e-003
,,,3.22500000e-009,-1.14796924e-003
,,,3.25000000e-009,-1.12453174e-003
,,,3.27500000e-009,-1.10109424e-003
,,,3.30000000e-009,-1.08000049e-003
,,,3.32500000e-009,-1.06593799e-003
,,,3.35000000e-009,-1.05515674e-003
,,,3.37500000e-009,-1.04859424e-003
,,,3.40000000e-009,-1.04625049e-003
,,,3.42500000e-009,-1.04859424e-003
,,,3.45000000e-009,-1.05562549e-003
,,,3.47500000e-009,-1.06593799e-003
,,,3.50000000e-009,-1.08000049e-003
,,,3.52500000e-009,-1.09734424e-003
,,,3.55000000e-009,-1.11562549e-003
,,,3.57500000e-009,-1.13296924e-003
,,,3.60000000e-009,-1.14984424e-003
,,,3.62500000e-009,-1.16531299e-003
,,,3.65000000e-009,-1.17890674e-003
,,,3.67500000e-009,-1.19062549e-003
,,,3.70000000e-009,-1.20000049e-003
,,,3.72500000e-009,-1.20468799e-003
,,,3.75000000e-009,-1.20656299e-003
,,,3.77500000e-009,-1.20656299e-003
,,,3.80000000e-009,-1.20562549e-003
,,,3.82500000e-009,-1.20421924e-003
,,,3.85000000e-009,-1.20281299e-003
,,,3.87500000e-009,-1.20140674e-003
,,,3.90000000e-009,-1.20000049e-003
,,,3.92500000e-009,-1.19578174e-003
,,,3.95000000e-009,-1.19015674e-003
,,,3.97500000e-009,-1.18218799e-003
,,,4.00000000e-009,-1.17093799e-003
,,,4.02500000e-009,-1.15546924e-003
,,,4.05000000e-009,-1.13531299e-003
,,,4.07500000e-009,-1.11046924e-003
,,,4.10000000e-009,-1.08000049e-003
,,,4.12500000e-009,-1.04484424e-003
,,,4.15000000e-009,-1.00687549e-003
,,,4.17500000e-009,-9.68437993e-004
,,,4.20000000e-009,-9.31406742e-004
,,,4.22500000e-009,-8.98594242e-004
,,,4.25000000e-009,-8.71406742e-004
,,,4.27500000e-009,-8.51719242e-004
,,,4.30000000e-009,-8.40000492e-004
,,,4.32500000e-009,-8.36719242e-004
,,,4.35000000e-009,-8.39062992e-004
,,,4.37500000e-009,-8.45156742e-004
,,,4.40000000e-009,-8.52656742e-004
,,,4.42500000e-009,-8.58281742e-004
,,,4.45000000e-009,-8.59219242e-004
,,,4.47500000e-009,-8.53594242e-004
,,,4.50000000e-009,-8.40000492e-004
,,,4.52500000e-009,-8.19375491e-004
,,,4.55000000e-009,-7.91250491e-004
,,,4.57500000e-009,-7.57031741e-004
,,,4.60000000e-009,-7.20000491e-004
,,,4.62500000e-009,-6.82500490e-004
,,,4.65000000e-009,-6.48281740e-004
,,,4.67500000e-009,-6.20156740e-004
,,,4.70000000e-009,-6.00000490e-004
,,,4.72500000e-009,-5.93906739e-004
,,,4.75000000e-009,-5.97656739e-004
,,,4.77500000e-009,-6.09375490e-004
,,,4.80000000e-009,-6.28125490e-004
,,,4.82500000e-009,-6.51094240e-004
,,,4.85000000e-009,-6.75469240e-004
,,,4.87500000e-009,-6.99375490e-004
,,,4.90000000e-009,-7.20000491e-004
,,,4.92500000e-009,-7.38750491e-004
,,,4.95000000e-009,-7.50937991e-004
,,,4.97500000e-009,-7.56094241e-004
,,,5.00000000e-009,-7.55625491e-004
,,,5.02500000e-009,-7.50469241e-004
,,,5.05000000e-009,-7.41562991e-004
,,,5.07500000e-009,-7.30781741e-004
,,,5.10000000e-009,-7.20000491e-004
,,,5.12500000e-009,-7.12969240e-004
,,,5.15000000e-009,-7.07344240e-004
,,,5.17500000e-009,-7.04062990e-004
,,,5.20000000e-009,-7.03594240e-004
,,,5.22500000e-009,-7.05000490e-004
,,,5.25000000e-009,-7.08281740e-004
,,,5.27500000e-009,-7.13437990e-004
,,,5.30000000e-009,-7.20000491e-004
,,,5.32500000e-009,-7.29375491e-004
,,,5.35000000e-009,-7.39687991e-004
,,,5.37500000e-009,-7.51875491e-004
,,,5.40000000e-009,-7.65469241e-004
,,,5.42500000e-009,-7.80937991e-004
,,,5.45000000e-009,-7.98750491e-004
,,,5.47500000e-009,-8.18437991e-004
,,,5.50000000e-009,-8.40000492e-004
,,,5.52500000e-009,-8.62969242e-004
,,,5.55000000e-009,-8.85937992e-004
,,,5.57500000e-009,-9.07500492e-004
,,,5.60000000e-009,-9.26719242e-004
,,,5.62500000e-009,-9.42656742e-004
,,,5.65000000e-009,-9.53906743e-004
,,,5.67500000e-009,-9.60000493e-004
,,,5.70000000e-009,-9.60000493e-004
,,,5.72500000e-009,-9.51562993e-004
,,,5.75000000e-009,-9.38437992e-004
,,,5.77500000e-009,-9.22031742e-004
,,,5.80000000e-009,-9.03281742e-004
,,,5.82500000e-009,-8.84531742e-004
,,,5.85000000e-009,-8.66719242e-004
