RawData/DifferentLengths/R3/R3_12pt5_5mV/wave003_Ch3.csv

"Record Length",1000,"Points",-7.72500000e-009,-1.19999986e-003
"Sample Interval",2.50000000e-011,s,-7.70000000e-009,-1.14218736e-003
"Trigger Point",309,"Samples",-7.67500000e-009,-1.10156235e-003
"Trigger Time",1.16936111e-011,s,-7.65000000e-009,-1.08124985e-003
"",,,-7.62500000e-009,-1.08124985e-003
"Horizontal Offset",-7.72500000e-009,s,-7.60000000e-009,-1.09687485e-003
,,,-7.57500000e-009,-1.12499986e-003
,,,-7.55000000e-009,-1.16093736e-003
,,,-7.52500000e-009,-1.19999986e-003
,,,-7.50000000e-009,-1.23437486e-003
,,,-7.47500000e-009,-1.26249987e-003
,,,-7.45000000e-009,-1.28124987e-003
,,,-7.42500000e-009,-1.28906237e-003
,,,-7.40000000e-009,-1.28437487e-003
,,,-7.37500000e-009,-1.26874987e-003
,,,-7.35000000e-009,-1.23906236e-003
,,,-7.32500000e-009,-1.19999986e-003
,,,-7.30000000e-009,-1.14843736e-003
,,,-7.27500000e-009,-1.09062485e-003
,,,-7.25000000e-009,-1.03124985e-003
,,,-7.22500000e-009,-9.71874845e-004
,,,-7.20000000e-009,-9.17187341e-004
,,,-7.17500000e-009,-8.68749838e-004
,,,-7.15000000e-009,-8.29687335e-004
,,,-7.12500000e-009,-7.99999833e-004
,,,-7.10000000e-009,-7.81249832e-004
,,,-7.07500000e-009,-7.71874831e-004
,,,-7.05000000e-009,-7.70312331e-004
,,,-7.02500000e-009,-7.74999831e-004
,,,-7.00000000e-009,-7.82812332e-004
,,,-6.97500000e-009,-7.90624832e-004
,,,-6.95000000e-009,-7.96874833e-004
,,,-6.92500000e-009,-7.99999833e-004
,,,-6.90000000e-009,-8.03124833e-004
,,,-6.87500000e-009,-8.01562333e-004
,,,-6.85000000e-009,-7.98437333e-004
,,,-6.82500000e-009,-7.92187333e-004
,,,-6.80000000e-009,-7.87499832e-004
,,,-6.77500000e-009,-7.87499832e-004
,,,-6.75000000e-009,-7.90624832e-004
,,,-6.72500000e-009,-7.99999833e-004
,,,-6.70000000e-009,-8.18749834e-004
,,,-6.67500000e-009,-8.39062336e-004
,,,-6.65000000e-009,-8.57812337e-004
,,,-6.62500000e-009,-8.70312338e-004
,,,-6.60000000e-009,-8.74999838e-004
,,,-6.57500000e-009,-8.65624838e-004
,,,-6.55000000e-009,-8.40624836e-004
,,,-6.52500000e-009,-7.99999833e-004
,,,-6.50000000e-009,-7.46874829e-004
,,,-6.47500000e-009,-6.82812325e-004
,,,-6.45000000e-009,-6.14062320e-004
,,,-6.42500000e-009,-5.45312315e-004
,,,-6.40000000e-009,-4.82812311e-004
,,,-6.37500000e-009,-4.35937307e-004
,,,-6.35000000e-009,-4.07812305e-004
,,,-6.32500000e-009,-3.99999805e-004
,,,-6.30000000e-009,-4.24999807e-004
,,,-6.27500000e-009,-4.67187310e-004
,,,-6.25000000e-009,-5.26562314e-004
,,,-6.22500000e-009,-5.92187318e-004
,,,-6.20000000e-009,-6.59374823e-004
,,,-6.17500000e-009,-7.20312327e-004
,,,-6.15000000e-009,-7.68749831e-004
,,,-6.12500000e-009,-7.99999833e-004
,,,-6.10000000e-009,-8.15624834e-004
,,,-6.07500000e-009,-8.14062334e-004
,,,-6.05000000e-009,-8.03124833e-004
,,,-6.02500000e-009,-7.85937332e-004
,,,-6.00000000e-009,-7.70312331e-004
,,,-5.97500000e-009,-7.64062331e-004
,,,-5.95000000e-009,-7.73437331e-004
,,,-5.92500000e-009,-7.99999833e-004
,,,-5.90000000e-009,-8.46874836e-004
,,,-5.87500000e-009,-9.06249841e-004
,,,-5.85000000e-009,-9.76562346e-004
,,,-5.82500000e-009,-1.04843735e-003
,,,-5.80000000e-009,-1.11406236e-003
,,,-5.77500000e-009,-1.16562486e-003
,,,-5.75000000e-009,-1.19531236e-003
,,,-5.72500000e-009,-1.19999986e-003
,,,-5.70000000e-009,-1.17656236e-003
,,,-5.67500000e-009,-1.12812486e-003
,,,-5.65000000e-009,-1.06406235e-003
,,,-5.62500000e-009,-9.92187347e-004
,,,-5.60000000e-009,-9.20312342e-004
,,,-5.57500000e-009,-8.60937337e-004
,,,-5.55000000e-009,-8.18749834e-004
,,,-5.52500000e-009,-7.99999833e-004
,,,-5.50000000e-009,-8.10937334e-004
,,,-5.47500000e-009,-8.45312336e-004
,,,-5.45000000e-009,-9.01562340e-004
,,,-5.42500000e-009,-9.70312345e-004
,,,-5.40000000e-009,-1.04374985e-003
,,,-5.37500000e-009,-1.11093736e-003
,,,-5.35000000e-009,-1.16718736e-003
,,,-5.32500000e-009,-1.19999986e-003
,,,-5.30000000e-009,-1.20312486e-003
,,,-5.27500000e-009,-1.18124986e-003
,,,-5.25000000e-009,-1.13593736e-003
,,,-5.22500000e-009,-1.07499985e-003
,,,-5.20000000e-009,-1.00312485e-003
,,,-5.17500000e-009,-9.28124842e-004
,,,-5.15000000e-009,-8.59374837e-004
,,,-5.12500000e-009,-7.99999833e-004
,,,-5.10000000e-009,-7.59374830e-004
,,,-5.07500000e-009,-7.35937329e-004
,,,-5.05000000e-009,-7.29687328e-004
,,,-5.02500000e-009,-7.35937329e-004
,,,-5.00000000e-009,-7.51562330e-004
,,,-4.97500000e-009,-7.70312331e-004
,,,-4.95000000e-009,-7.87499832e-004
,,,-4.92500000e-009,-7.99999833e-004
,,,-4.90000000e-009,-8.09374834e-004
,,,-4.87500000e-009,-8.10937334e-004
,,,-4.85000000e-009,-8.06249834e-004
,,,-4.82500000e-009,-7.98437333e-004
,,,-4.80000000e-009,-7.92187333e-004
,,,-4.77500000e-009,-7.89062332e-004
,,,-4.75000000e-009,-7.90624832e-004
,,,-4.72500000e-009,-7.99999833e-004
,,,-4.70000000e-009,-8.20312335e-004
,,,-4.67500000e-009,-8.43749836e-004
,,,-4.65000000e-009,-8.65624838e-004
,,,-4.62500000e-009,-8.81249839e-004
,,,-4.60000000e-009,-8.85937339e-004
,,,-4.57500000e-009,-8.76562339e-004
,,,-4.55000000e-009,-8.48437337e-004
,,,-4.52500000e-009,-7.99999833e-004
,,,-4.50000000e-009,-7.35937329e-004
,,,-4.47500000e-009,-6.60937323e-004
,,,-4.45000000e-009,-5.81249818e-004
,,,-4.42500000e-009,-5.04687312e-004
,,,-4.40000000e-009,-4.42187308e-004
,,,-4.37500000e-009,-3.99999805e-004
,,,-4.35000000e-009,-3.84374804e-004
,,,-4.32500000e-009,-3.99999805e-004
,,,-4.30000000e-009,-4.54687309e-004
,,,-4.27500000e-009,-5.37499815e-004
,,,-4.25000000e-009,-6.42187322e-004
,,,-4.22500000e-009,-7.60937330e-004
,,,-4.20000000e-009,-8.85937339e-004
,,,-4.17500000e-009,-1.00624985e-003
,,,-4.15000000e-009,-1.11249986e-003
,,,-4.12500000e-009,-1.19999986e-003
,,,-4.10000000e-009,-1.26093737e-003
,,,-4.07500000e-009,-1.29374987e-003
,,,-4.05000000e-009,-1.30468737e-003
,,,-4.02500000e-009,-1.29687487e-003
,,,-4.00000000e-009,-1.27499987e-003
,,,-3.97500000e-009,-1.24843736e-003
,,,-3.95000000e-009,-1.22187486e-003
,,,-3.92500000e-009,-1.19999986e-003
,,,-3.90000000e-009,-1.18437486e-003
,,,-3.87500000e-009,-1.17968736e-003
,,,-3.85000000e-009,-1.18281236e-003
,,,-3.82500000e-009,-1.19218736e-003
,,,-3.80000000e-009,-1.20312486e-003
,,,-3.77500000e-009,-1.21093736e-003
,,,-3.75000000e-009,-1.21093736e-003
,,,-3.72500000e-009,-1.19999986e-003
,,,-3.70000000e-009,-1.17343736e-003
,,,-3.67500000e-009,-1.13437486e-003
,,,-3.65000000e-009,-1.08281235e-003
,,,-3.62500000e-009,-1.02499985e-003
,,,-3.60000000e-009,-9.62499845e-004
,,,-3.57500000e-009,-9.01562340e-004
,,,-3.55000000e-009,-8.46874836e-004
,,,-3.52500000e-009,-7.99999833e-004
,,,-3.50000000e-009,-7.68749831e-004
,,,-3.47500000e-009,-7.49999830e-004
,,,-3.45000000e-009,-7.42187329e-004
,,,-3.42500000e-009,-7.46874829e-004
,,,-3.40000000e-009,-7.57812330e-004
,,,-3.37500000e-009,-7.71874831e-004
,,,-3.35000000e-009,-7.87499832e-004
,,,-3.32500000e-009,-7.99999833e-004
,,,-3.30000000e-009,-8.09374834e-004
,,,-3.27500000e-009,-8.12499834e-004
,,,-3.25000000e-009,-8.12499834e-004
,,,-3.22500000e-009,-8.09374834e-004
,,,-3.20000000e-009,-8.04687333e-004
,,,-3.17500000e-009,-8.01562333e-004
,,,-3.15000000e-009,-7.99999833e-004
,,,-3.12500000e-009,-7.99999833e-004
,,,-3.10000000e-009,-8.06249834e-004
,,,-3.07500000e-009,-8.12499834e-004
,,,-3.05000000e-009,-8.20312335e-004
,,,-3.02500000e-009,-8.24999835e-004
,,,-3.00000000e-009,-8.26562335e-004
,,,-2.97500000e-009,-8.23437335e-004
,,,-2.95000000e-009,-8.15624834e-004
,,,-2.92500000e-009,-7.99999833e-004
,,,-2.90000000e-009,-7.84374832e-004
,,,-2.87500000e-009,-7.65624831e-004
,,,-2.85000000e-009,-7.48437329e-004
,,,-2.82500000e-009,-7.35937329e-004
,,,-2.80000000e-009,-7.32812328e-004
,,,-2.77500000e-009,-7.40624829e-004
,,,-2.75000000e-009,-7.62499830e-004
,,,-2.72500000e-009,-7.99999833e-004
,,,-2.70000000e-009,-8.53124837e-004
,,,-2.67500000e-009,-9.15624841e-004
,,,-2.65000000e-009,-9.82812346e-004
,,,-2.62500000e-009,-1.04843735e-003
,,,-2.60000000e-009,-1.10781235e-003
,,,-2.57500000e-009,-1.15624986e-003
,,,-2.55000000e-009,-1.18906236e-003
,,,-2.52500000e-009,-1.19999986e-003
,,,-2.50000000e-009,-1.18906236e-003
,,,-2.47500000e-009,-1.15624986e-003
,,,-2.45000000e-009,-1.10781235e-003
,,,-2.42500000e-009,-1.04843735e-003
,,,-2.40000000e-009,-9.82812346e-004
,,,-2.37500000e-009,-9.15624841e-004
,,,-2.35000000e-009,-8.53124837e-004
,,,-2.32500000e-009,-7.99999833e-004
,,,-2.30000000e-009,-7.62499830e-004
,,,-2.27500000e-009,-7.40624829e-004
,,,-2.25000000e-009,-7.32812328e-004
,,,-2.22500000e-009,-7.35937329e-004
,,,-2.20000000e-009,-7.48437329e-004
,,,-2.17500000e-009,-7.65624831e-004
,,,-2.15000000e-009,-7.84374832e-004
,,,-2.12500000e-009,-7.99999833e-004
,,,-2.10000000e-009,-8.12499834e-004
,,,-2.07500000e-009,-8.20312335e-004
,,,-2.05000000e-009,-8.20312335e-004
,,,-2.02500000e-009,-8.18749834e-004
,,,-2.00000000e-009,-8.12499834e-004
,,,-1.97500000e-009,-8.06249834e-004
,,,-1.95000000e-009,-8.03124833e-004
,,,-1.92500000e-009,-7.99999833e-004
,,,-1.90000000e-009,-8.04687333e-004
,,,-1.87500000e-009,-8.10937334e-004
,,,-1.85000000e-009,-8.18749834e-004
,,,-1.82500000e-009,-8.24999835e-004
,,,-1.80000000e-009,-8.28124835e-004
,,,-1.77500000e-009,-8.24999835e-004
,,,-1.75000000e-009,-8.17187334e-004
,,,-1.72500000e-009,-7.99999833e-004
,,,-1.70000000e-009,-7.81249832e-004
,,,-1.67500000e-009,-7.60937330e-004
,,,-1.65000000e-009,-7.40624829e-004
,,,-1.62500000e-009,-7.26562328e-004
,,,-1.60000000e-009,-7.23437328e-004
,,,-1.57500000e-009,-7.32812328e-004
,,,-1.55000000e-009,-7.59374830e-004
,,,-1.52500000e-009,-7.99999833e-004
,,,-1.50000000e-009,-8.64062338e-004
,,,-1.47500000e-009,-9.37499843e-004
,,,-1.45000000e-009,-1.01406235e-003
,,,-1.42500000e-009,-1.08593735e-003
,,,-1.40000000e-009,-1.14687486e-003
,,,-1.37500000e-009,-1.18906236e-003
,,,-1.35000000e-009,-1.20781236e-003
,,,-1.32500000e-009,-1.19999986e-003
,,,-1.30000000e-009,-1.17656236e-003
,,,-1.27500000e-009,-1.13124986e-003
,,,-1.25000000e-009,-1.07187485e-003
,,,-1.22500000e-009,-1.00468735e-003
,,,-1.20000000e-009,-9.35937343e-004
,,,-1.17500000e-009,-8.74999838e-004
,,,-1.15000000e-009,-8.28124835e-004
,,,-1.12500000e-009,-7.99999833e-004
,,,-1.10000000e-009,-8.10937334e-004
,,,-1.07500000e-009,-8.45312336e-004
,,,-1.05000000e-009,-8.98437340e-004
,,,-1.02500000e-009,-9.65624845e-004
,,,-1.00000000e-009,-1.03593735e-003
,,,-9.75000000e-010,-1.10312485e-003
,,,-9.50000000e-010,-1.16093736e-003
,,,-9.25000000e-010,-1.19999986e-003
,,,-9.00000000e-010,-1.24218736e-003
,,,-8.75000000e-010,-1.26562487e-003
,,,-8.50000000e-010,-1.27343737e-003
,,,-8.25000000e-010,-1.26718737e-003
,,,-8.00000000e-010,-1.25156237e-003
,,,-7.75000000e-010,-1.23124986e-003
,,,-7.50000000e-010,-1.21249986e-003
,,,-7.25000000e-010,-1.19999986e-003
,,,-7.00000000e-010,-1.22343736e-003
,,,-6.75000000e-010,-1.26874987e-003
,,,-6.50000000e-010,-1.33906237e-003
,,,-6.25000000e-010,-1.43281238e-003
,,,-6.00000000e-010,-1.54843739e-003
,,,-5.75000000e-010,-1.68593740e-003
,,,-5.50000000e-010,-1.83749991e-003
,,,-5.25000000e-010,-1.99999992e-003
,,,-5.00000000e-010,-2.18593743e-003
,,,-4.75000000e-010,-2.37343744e-003
,,,-4.50000000e-010,-2.55468746e-003
,,,-4.25000000e-010,-2.72656247e-003
,,,-4.00000000e-010,-2.87812498e-003
,,,-3.75000000e-010,-3.00937499e-003
,,,-3.50000000e-010,-3.11562500e-003
,,,-3.25000000e-010,-3.20000000e-003
,,,-3.00000000e-010,-3.27500001e-003
,,,-2.75000000e-010,-3.34062501e-003
,,,-2.50000000e-010,-3.40625002e-003
,,,-2.25000000e-010,-3.48125002e-003
,,,-2.00000000e-010,-3.57187503e-003
,,,-1.75000000e-010,-3.68750004e-003
,,,-1.50000000e-010,-3.82968755e-003
,,,-1.25000000e-010,-4.00000006e-003
,,,-1.00000000e-010,-4.19687507e-003
,,,-7.50000000e-011,-4.41875009e-003
,,,-5.00000000e-011,-4.65312511e-003
,,,-2.50000000e-011,-4.88906262e-003
,,,0.00000000e+000,-5.11406264e-003
,,,2.50000000e-011,-5.31406265e-003
,,,5.00000000e-011,-5.47968766e-003
,,,7.50000000e-011,-5.60000017e-003
,,,1.00000000e-010,-5.66093768e-003
,,,1.25000000e-010,-5.68437518e-003
,,,1.50000000e-010,-5.67812518e-003
,,,1.75000000e-010,-5.65312518e-003
,,,2.00000000e-010,-5.62187517e-003
,,,2.25000000e-010,-5.59531267e-003
,,,2.50000000e-010,-5.58593767e-003
,,,2.75000000e-010,-5.60000017e-003
,,,3.00000000e-010,-5.62656267e-003
,,,3.25000000e-010,-5.68750018e-003
,,,3.50000000e-010,-5.77968769e-003
,,,3.75000000e-010,-5.89531269e-003
,,,4.00000000e-010,-6.02812520e-003
,,,4.25000000e-010,-6.16250021e-003
,,,4.50000000e-010,-6.29062522e-003
,,,4.75000000e-010,-6.40000023e-003
,,,5.00000000e-010,-6.45937523e-003
,,,5.25000000e-010,-6.49218774e-003
,,,5.50000000e-010,-6.50312524e-003
,,,5.75000000e-010,-6.49531274e-003
,,,6.00000000e-010,-6.47500023e-003
,,,6.25000000e-010,-6.44843773e-003
,,,6.50000000e-010,-6.42187523e-003
,,,6.75000000e-010,-6.40000023e-003
,,,7.00000000e-010,-6.36406273e-003
,,,7.25000000e-010,-6.34062523e-003
,,,7.50000000e-010,-6.33125022e-003
,,,7.75000000e-010,-6.33593772e-003
,,,8.00000000e-010,-6.34843773e-003
,,,8.25000000e-010,-6.36718773e-003
,,,8.50000000e-010,-6.38593773e-003
,,,8.75000000e-010,-6.40000023e-003
,,,9.00000000e-010,-6.37968773e-003
,,,9.25000000e-010,-6.34687523e-003
,,,9.50000000e-010,-6.30468772e-003
,,,9.75000000e-010,-6.25312522e-003
,,,1.00000000e-009,-6.19531271e-003
,,,1.02500000e-009,-6.13281271e-003
,,,1.05000000e-009,-6.06875021e-003
,,,1.07500000e-009,-6.00000020e-003
,,,1.10000000e-009,-5.91562520e-003
,,,1.12500000e-009,-5.82500019e-003
,,,1.15000000e-009,-5.73281268e-003
,,,1.17500000e-009,-5.63593768e-003
,,,1.20000000e-009,-5.53437517e-003
,,,1.22500000e-009,-5.42812516e-003
,,,1.25000000e-009,-5.31718765e-003
,,,1.27500000e-009,-5.20000014e-003
,,,1.30000000e-009,-5.06875014e-003
,,,1.32500000e-009,-4.93593763e-003
,,,1.35000000e-009,-4.80937512e-003
,,,1.37500000e-009,-4.69062511e-003
,,,1.40000000e-009,-4.58906260e-003
,,,1.42500000e-009,-4.50468760e-003
,,,1.45000000e-009,-4.44218759e-003
,,,1.47500000e-009,-4.40000009e-003
,,,1.50000000e-009,-4.37031259e-003
,,,1.52500000e-009,-4.34843758e-003
,,,1.55000000e-009,-4.32656258e-003
,,,1.57500000e-009,-4.29843758e-003
,,,1.60000000e-009,-4.25625008e-003
,,,1.62500000e-009,-4.19531257e-003
,,,1.65000000e-009,-4.11093757e-003
,,,1.67500000e-009,-4.00000006e-003
,,,1.70000000e-009,-3.86406255e-003
,,,1.72500000e-009,-3.70468754e-003
,,,1.75000000e-009,-3.52968753e-003
,,,1.77500000e-009,-3.35156251e-003
,,,1.80000000e-009,-3.17812500e-003
,,,1.82500000e-009,-3.02343749e-003
,,,1.85000000e-009,-2.89531248e-003
,,,1.87500000e-009,-2.79999997e-003
,,,1.90000000e-009,-2.74843747e-003
,,,1.92500000e-009,-2.72499997e-003
,,,1.95000000e-009,-2.72499997e-003
,,,1.97500000e-009,-2.74218747e-003
,,,2.00000000e-009,-2.76718747e-003
,,,2.02500000e-009,-2.79218747e-003
,,,2.05000000e-009,-2.80468747e-003
,,,2.07500000e-009,-2.79999997e-003
,,,2.10000000e-009,-2.77968747e-003
,,,2.12500000e-009,-2.72812497e-003
,,,2.15000000e-009,-2.64843746e-003
,,,2.17500000e-009,-2.54062496e-003
,,,2.20000000e-009,-2.41562495e-003
,,,2.22500000e-009,-2.27656244e-003
,,,2.25000000e-009,-2.13593743e-003
,,,2.27500000e-009,-1.99999992e-003
,,,2.30000000e-009,-1.88906241e-003
,,,2.32500000e-009,-1.79218740e-003
,,,2.35000000e-009,-1.71249990e-003
,,,2.37500000e-009,-1.65468739e-003
,,,2.40000000e-009,-1.61562489e-003
,,,2.42500000e-009,-1.59531239e-003
,,,2.45000000e-009,-1.59062489e-003
,,,2.47500000e-009,-1.59999989e-003
,,,2.50000000e-009,-1.63124989e-003
,,,2.52500000e-009,-1.66093739e-003
,,,2.55000000e-009,-1.68593740e-003
,,,2.57500000e-009,-1.69999990e-003
,,,2.60000000e-009,-1.69999990e-003
,,,2.62500000e-009,-1.68281240e-003
,,,2.65000000e-009,-1.64999989e-003
,,,2.67500000e-009,-1.59999989e-003
,,,2.70000000e-009,-1.54843739e-003
,,,2.72500000e-009,-1.48437488e-003
,,,2.75000000e-009,-1.41406238e-003
,,,2.77500000e-009,-1.34531237e-003
,,,2.80000000e-009,-1.28281237e-003
,,,2.82500000e-009,-1.23593736e-003
,,,2.85000000e-009,-1.20781236e-003
,,,2.87500000e-009,-1.19999986e-003
,,,2.90000000e-009,-1.22343736e-003
,,,2.92500000e-009,-1.26406237e-003
,,,2.95000000e-009,-1.32031237e-003
,,,2.97500000e-009,-1.38437487e-003
,,,3.00000000e-009,-1.44999988e-003
,,,3.02500000e-009,-1.51093738e-003
,,,3.05000000e-009,-1.56249989e-003
,,,3.07500000e-009,-1.59999989e-003
,,,3.10000000e-009,-1.62656239e-003
,,,3.12500000e-009,-1.63437489e-003
,,,3.15000000e-009,-1.62968739e-003
,,,3.17500000e-009,-1.61562489e-003
,,,3.20000000e-009,-1.59999989e-003
,,,3.22500000e-009,-1.58906239e-003
,,,3.25000000e-009,-1.58749989e-003
,,,3.27500000e-009,-1.59999989e-003
,,,3.30000000e-009,-1.62812489e-003
,,,3.32500000e-009,-1.66874989e-003
,,,3.35000000e-009,-1.72343740e-003
,,,3.37500000e-009,-1.78437490e-003
,,,3.40000000e-009,-1.84999991e-003
,,,3.42500000e-009,-1.91093741e-003
,,,3.45000000e-009,-1.96249992e-003
,,,3.47500000e-009,-1.99999992e-003
,,,3.50000000e-009,-2.01093742e-003
,,,3.52500000e-009,-1.99843742e-003
,,,3.55000000e-009,-1.96562492e-003
,,,3.57500000e-009,-1.91249991e-003
,,,3.60000000e-009,-1.84687491e-003
,,,3.62500000e-009,-1.76874990e-003
,,,3.65000000e-009,-1.68593740e-003
,,,3.67500000e-009,-1.59999989e-003
,,,3.70000000e-009,-1.51562488e-003
,,,3.72500000e-009,-1.43749988e-003
,,,3.75000000e-009,-1.37031237e-003
,,,3.77500000e-009,-1.31406237e-003
,,,3.80000000e-009,-1.26874987e-003
,,,3.82500000e-009,-1.23593736e-003
,,,3.85000000e-009,-1.21406236e-003
,,,3.87500000e-009,-1.19999986e-003
,,,3.90000000e-009,-1.19374986e-003
,,,3.92500000e-009,-1.19374986e-003
,,,3.95000000e-009,-1.19531236e-003
,,,3.97500000e-009,-1.19999986e-003
,,,4.00000000e-009,-1.20624986e-003
,,,4.02500000e-009,-1.20781236e-003
,,,4.05000000e-009,-1.20781236e-003
,,,4.07500000e-009,-1.19999986e-003
,,,4.10000000e-009,-1.18749986e-003
,,,4.12500000e-009,-1.16562486e-003
,,,4.15000000e-009,-1.13281236e-003
,,,4.17500000e-009,-1.08749985e-003
,,,4.20000000e-009,-1.03124985e-003
,,,4.22500000e-009,-9.64062345e-004
,,,4.25000000e-009,-8.85937339e-004
,,,4.27500000e-009,-7.99999833e-004
,,,4.30000000e-009,-7.17187327e-004
,,,4.32500000e-009,-6.35937321e-004
,,,4.35000000e-009,-5.60937316e-004
,,,4.37500000e-009,-4.95312312e-004
,,,4.40000000e-009,-4.43749808e-004
,,,4.42500000e-009,-4.09374805e-004
,,,4.45000000e-009,-3.95312304e-004
,,,4.47500000e-009,-3.99999805e-004
,,,4.50000000e-009,-4.37499807e-004
,,,4.52500000e-009,-4.89062311e-004
,,,4.55000000e-009,-5.49999815e-004
,,,4.57500000e-009,-6.14062320e-004
,,,4.60000000e-009,-6.76562324e-004
,,,4.62500000e-009,-7.31249828e-004
,,,4.65000000e-009,-7.73437331e-004
,,,4.67500000e-009,-7.99999833e-004
,,,4.70000000e-009,-8.18749834e-004
,,,4.72500000e-009,-8.21874835e-004
,,,4.75000000e-009,-8.14062334e-004
,,,4.77500000e-009,-8.01562333e-004
,,,4.80000000e-009,-7.87499832e-004
,,,4.82500000e-009,-7.79687332e-004
,,,4.85000000e-009,-7.82812332e-004
,,,4.87500000e-009,-7.99999833e-004
,,,4.90000000e-009,-8.39062336e-004
,,,4.92500000e-009,-8.89062339e-004
,,,4.95000000e-009,-9.49999844e-004
,,,4.97500000e-009,-1.01406235e-003
,,,5.00000000e-009,-1.07656235e-003
,,,5.02500000e-009,-1.13124986e-003
,,,5.05000000e-009,-1.17343736e-003
,,,5.07500000e-009,-1.19999986e-003
,,,5.10000000e-009,-1.20937486e-003
,,,5.12500000e-009,-1.20312486e-003
,,,5.15000000e-009,-1.18749986e-003
,,,5.17500000e-009,-1.17031236e-003
,,,5.20000000e-009,-1.15624986e-003
,,,5.22500000e-009,-1.15312486e-003
,,,5.25000000e-009,-1.16718736e-003
,,,5.27500000e-009,-1.19999986e-003
,,,5.30000000e-009,-1.25156237e-003
,,,5.32500000e-009,-1.31718737e-003
,,,5.35000000e-009,-1.39062487e-003
,,,5.37500000e-009,-1.46562488e-003
,,,5.40000000e-009,-1.53124988e-003
,,,5.42500000e-009,-1.57968739e-003
,,,5.45000000e-009,-1.60468739e-003
,,,5.47500000e-009,-1.59999989e-003
,,,5.50000000e-009,-1.56249989e-003
,,,5.52500000e-009,-1.50312488e-003
,,,5.55000000e-009,-1.42968738e-003
,,,5.57500000e-009,-1.35312487e-003
,,,5.60000000e-009,-1.28281237e-003
,,,5.62500000e-009,-1.22812486e-003
,,,5.65000000e-009,-1.19999986e-003
,,,5.67500000e-009,-1.19999986e-003
,,,5.70000000e-009,-1.22812486e-003
,,,5.72500000e-009,-1.28281237e-003
,,,5.75000000e-009,-1.35468737e-003
,,,5.77500000e-009,-1.43437488e-003
,,,5.80000000e-009,-1.51093738e-003
