RawData/DifferentLengths/R3/R3_12pt5_5mV/wave002_Ch3.csv

"Record Length",1000,"Points",-7.72500000e-009,-6.84374825e-004
"Sample Interval",2.50000000e-011,s,-7.70000000e-009,-6.49999822e-004
"Trigger Point",309,"Samples",-7.67500000e-009,-6.34374821e-004
"Trigger Time",3.93071429e-012,s,-7.65000000e-009,-6.43749822e-004
"",,,-7.62500000e-009,-6.74999824e-004
"Horizontal Offset",-7.72500000e-009,s,-7.60000000e-009,-7.28124828e-004
,,,-7.57500000e-009,-7.99999833e-004
,,,-7.55000000e-009,-8.85937339e-004
,,,-7.52500000e-009,-9.76562346e-004
,,,-7.50000000e-009,-1.06249985e-003
,,,-7.47500000e-009,-1.13749986e-003
,,,-7.45000000e-009,-1.19374986e-003
,,,-7.42500000e-009,-1.22343736e-003
,,,-7.40000000e-009,-1.22656236e-003
,,,-7.37500000e-009,-1.19999986e-003
,,,-7.35000000e-009,-1.14531236e-003
,,,-7.32500000e-009,-1.07343735e-003
,,,-7.30000000e-009,-9.90624847e-004
,,,-7.27500000e-009,-9.10937341e-004
,,,-7.25000000e-009,-8.45312336e-004
,,,-7.22500000e-009,-7.99999833e-004
,,,-7.20000000e-009,-7.84374832e-004
,,,-7.17500000e-009,-7.99999833e-004
,,,-7.15000000e-009,-8.46874836e-004
,,,-7.12500000e-009,-9.17187341e-004
,,,-7.10000000e-009,-1.00156235e-003
,,,-7.07500000e-009,-1.08749985e-003
,,,-7.05000000e-009,-1.16249986e-003
,,,-7.02500000e-009,-1.21406236e-003
,,,-7.00000000e-009,-1.22968736e-003
,,,-6.97500000e-009,-1.19999986e-003
,,,-6.95000000e-009,-1.12499986e-003
,,,-6.92500000e-009,-1.00624985e-003
,,,-6.90000000e-009,-8.51562337e-004
,,,-6.87500000e-009,-6.73437324e-004
,,,-6.85000000e-009,-4.84374811e-004
,,,-6.82500000e-009,-2.99999798e-004
,,,-6.80000000e-009,-1.34374786e-004
,,,-6.77500000e-009,2.23517420e-010
,,,-6.75000000e-009,8.43752295e-005
,,,-6.72500000e-009,1.21875232e-004
,,,-6.70000000e-009,1.14062732e-004
,,,-6.67500000e-009,6.25002279e-005
,,,-6.65000000e-009,-2.49997783e-005
,,,-6.62500000e-009,-1.37499786e-004
,,,-6.60000000e-009,-2.67187295e-004
,,,-6.57500000e-009,-3.99999805e-004
,,,-6.55000000e-009,-5.31249814e-004
,,,-6.52500000e-009,-6.43749822e-004
,,,-6.50000000e-009,-7.35937329e-004
,,,-6.47500000e-009,-8.01562333e-004
,,,-6.45000000e-009,-8.39062336e-004
,,,-6.42500000e-009,-8.49999837e-004
,,,-6.40000000e-009,-8.35937336e-004
,,,-6.37500000e-009,-7.99999833e-004
,,,-6.35000000e-009,-7.51562330e-004
,,,-6.32500000e-009,-6.90624825e-004
,,,-6.30000000e-009,-6.24999821e-004
,,,-6.27500000e-009,-5.59374816e-004
,,,-6.25000000e-009,-4.99999812e-004
,,,-6.22500000e-009,-4.51562308e-004
,,,-6.20000000e-009,-4.17187306e-004
,,,-6.17500000e-009,-3.99999805e-004
,,,-6.15000000e-009,-4.07812305e-004
,,,-6.12500000e-009,-4.34374807e-004
,,,-6.10000000e-009,-4.76562310e-004
,,,-6.07500000e-009,-5.32812314e-004
,,,-6.05000000e-009,-5.96874819e-004
,,,-6.02500000e-009,-6.67187324e-004
,,,-6.00000000e-009,-7.35937329e-004
,,,-5.97500000e-009,-7.99999833e-004
,,,-5.95000000e-009,-8.59374837e-004
,,,-5.92500000e-009,-9.01562340e-004
,,,-5.90000000e-009,-9.29687342e-004
,,,-5.87500000e-009,-9.37499843e-004
,,,-5.85000000e-009,-9.28124842e-004
,,,-5.82500000e-009,-8.99999840e-004
,,,-5.80000000e-009,-8.56249837e-004
,,,-5.77500000e-009,-7.99999833e-004
,,,-5.75000000e-009,-7.32812328e-004
,,,-5.72500000e-009,-6.62499823e-004
,,,-5.70000000e-009,-5.93749819e-004
,,,-5.67500000e-009,-5.31249814e-004
,,,-5.65000000e-009,-4.78124810e-004
,,,-5.62500000e-009,-4.35937307e-004
,,,-5.60000000e-009,-4.10937306e-004
,,,-5.57500000e-009,-3.99999805e-004
,,,-5.55000000e-009,-4.07812305e-004
,,,-5.52500000e-009,-4.31249807e-004
,,,-5.50000000e-009,-4.70312310e-004
,,,-5.47500000e-009,-5.21874813e-004
,,,-5.45000000e-009,-5.84374818e-004
,,,-5.42500000e-009,-6.53124823e-004
,,,-5.40000000e-009,-7.26562328e-004
,,,-5.37500000e-009,-7.99999833e-004
,,,-5.35000000e-009,-8.73437338e-004
,,,-5.32500000e-009,-9.40624843e-004
,,,-5.30000000e-009,-1.00312485e-003
,,,-5.27500000e-009,-1.05624985e-003
,,,-5.25000000e-009,-1.10312485e-003
,,,-5.22500000e-009,-1.14374986e-003
,,,-5.20000000e-009,-1.17499986e-003
,,,-5.17500000e-009,-1.19999986e-003
,,,-5.15000000e-009,-1.21562486e-003
,,,-5.12500000e-009,-1.22499986e-003
,,,-5.10000000e-009,-1.22968736e-003
,,,-5.07500000e-009,-1.23124986e-003
,,,-5.05000000e-009,-1.22968736e-003
,,,-5.02500000e-009,-1.22499986e-003
,,,-5.00000000e-009,-1.21562486e-003
,,,-4.97500000e-009,-1.19999986e-003
,,,-4.95000000e-009,-1.17499986e-003
,,,-4.92500000e-009,-1.14374986e-003
,,,-4.90000000e-009,-1.10312485e-003
,,,-4.87500000e-009,-1.05624985e-003
,,,-4.85000000e-009,-1.00312485e-003
,,,-4.82500000e-009,-9.40624843e-004
,,,-4.80000000e-009,-8.73437338e-004
,,,-4.77500000e-009,-7.99999833e-004
,,,-4.75000000e-009,-7.24999828e-004
,,,-4.72500000e-009,-6.48437322e-004
,,,-4.70000000e-009,-5.78124817e-004
,,,-4.67500000e-009,-5.15624813e-004
,,,-4.65000000e-009,-4.64062309e-004
,,,-4.62500000e-009,-4.26562307e-004
,,,-4.60000000e-009,-4.04687305e-004
,,,-4.57500000e-009,-3.99999805e-004
,,,-4.55000000e-009,-4.14062306e-004
,,,-4.52500000e-009,-4.45312308e-004
,,,-4.50000000e-009,-4.90624811e-004
,,,-4.47500000e-009,-5.46874815e-004
,,,-4.45000000e-009,-6.09374820e-004
,,,-4.42500000e-009,-6.74999824e-004
,,,-4.40000000e-009,-7.40624829e-004
,,,-4.37500000e-009,-7.99999833e-004
,,,-4.35000000e-009,-8.51562337e-004
,,,-4.32500000e-009,-8.89062339e-004
,,,-4.30000000e-009,-9.10937341e-004
,,,-4.27500000e-009,-9.18749842e-004
,,,-4.25000000e-009,-9.09374841e-004
,,,-4.22500000e-009,-8.85937339e-004
,,,-4.20000000e-009,-8.48437337e-004
,,,-4.17500000e-009,-7.99999833e-004
,,,-4.15000000e-009,-7.45312329e-004
,,,-4.12500000e-009,-6.85937325e-004
,,,-4.10000000e-009,-6.24999821e-004
,,,-4.07500000e-009,-5.67187317e-004
,,,-4.05000000e-009,-5.12499813e-004
,,,-4.02500000e-009,-4.65624809e-004
,,,-4.00000000e-009,-4.28124807e-004
,,,-3.97500000e-009,-3.99999805e-004
,,,-3.95000000e-009,-3.89062304e-004
,,,-3.92500000e-009,-3.84374804e-004
,,,-3.90000000e-009,-3.87499804e-004
,,,-3.87500000e-009,-3.92187304e-004
,,,-3.85000000e-009,-3.98437305e-004
,,,-3.82500000e-009,-4.03124805e-004
,,,-3.80000000e-009,-4.04687305e-004
,,,-3.77500000e-009,-3.99999805e-004
,,,-3.75000000e-009,-3.96874805e-004
,,,-3.72500000e-009,-3.89062304e-004
,,,-3.70000000e-009,-3.78124803e-004
,,,-3.67500000e-009,-3.70312303e-004
,,,-3.65000000e-009,-3.65624802e-004
,,,-3.62500000e-009,-3.67187302e-004
,,,-3.60000000e-009,-3.78124803e-004
,,,-3.57500000e-009,-3.99999805e-004
,,,-3.55000000e-009,-4.37499807e-004
,,,-3.52500000e-009,-4.84374811e-004
,,,-3.50000000e-009,-5.40624815e-004
,,,-3.47500000e-009,-5.98437319e-004
,,,-3.45000000e-009,-6.57812323e-004
,,,-3.42500000e-009,-7.14062327e-004
,,,-3.40000000e-009,-7.62499830e-004
,,,-3.37500000e-009,-7.99999833e-004
,,,-3.35000000e-009,-8.24999835e-004
,,,-3.32500000e-009,-8.37499836e-004
,,,-3.30000000e-009,-8.39062336e-004
,,,-3.27500000e-009,-8.32812335e-004
,,,-3.25000000e-009,-8.23437335e-004
,,,-3.22500000e-009,-8.12499834e-004
,,,-3.20000000e-009,-8.04687333e-004
,,,-3.17500000e-009,-7.99999833e-004
,,,-3.15000000e-009,-8.04687333e-004
,,,-3.12500000e-009,-8.12499834e-004
,,,-3.10000000e-009,-8.21874835e-004
,,,-3.07500000e-009,-8.31249835e-004
,,,-3.05000000e-009,-8.35937336e-004
,,,-3.02500000e-009,-8.34374836e-004
,,,-3.00000000e-009,-8.21874835e-004
,,,-2.97500000e-009,-7.99999833e-004
,,,-2.95000000e-009,-7.73437331e-004
,,,-2.92500000e-009,-7.42187329e-004
,,,-2.90000000e-009,-7.15624827e-004
,,,-2.87500000e-009,-6.96874826e-004
,,,-2.85000000e-009,-6.92187325e-004
,,,-2.82500000e-009,-7.06249826e-004
,,,-2.80000000e-009,-7.42187329e-004
,,,-2.77500000e-009,-7.99999833e-004
,,,-2.75000000e-009,-8.71874838e-004
,,,-2.72500000e-009,-9.53124844e-004
,,,-2.70000000e-009,-1.03749985e-003
,,,-2.67500000e-009,-1.11718736e-003
,,,-2.65000000e-009,-1.18124986e-003
,,,-2.62500000e-009,-1.22031236e-003
,,,-2.60000000e-009,-1.22812486e-003
,,,-2.57500000e-009,-1.19999986e-003
,,,-2.55000000e-009,-1.13437486e-003
,,,-2.52500000e-009,-1.03749985e-003
,,,-2.50000000e-009,-9.20312342e-004
,,,-2.47500000e-009,-7.92187333e-004
,,,-2.45000000e-009,-6.64062323e-004
,,,-2.42500000e-009,-5.49999815e-004
,,,-2.40000000e-009,-4.57812309e-004
,,,-2.37500000e-009,-3.99999805e-004
,,,-2.35000000e-009,-3.84374804e-004
,,,-2.32500000e-009,-4.12499806e-004
,,,-2.30000000e-009,-4.79687310e-004
,,,-2.27500000e-009,-5.85937318e-004
,,,-2.25000000e-009,-7.20312327e-004
,,,-2.22500000e-009,-8.74999838e-004
,,,-2.20000000e-009,-1.03906235e-003
,,,-2.17500000e-009,-1.19999986e-003
,,,-2.15000000e-009,-1.34218737e-003
,,,-2.12500000e-009,-1.45468738e-003
,,,-2.10000000e-009,-1.52968738e-003
,,,-2.07500000e-009,-1.55937489e-003
,,,-2.05000000e-009,-1.54062489e-003
,,,-2.02500000e-009,-1.47343738e-003
,,,-2.00000000e-009,-1.35781237e-003
,,,-1.97500000e-009,-1.19999986e-003
,,,-1.95000000e-009,-1.01249985e-003
,,,-1.92500000e-009,-8.07812334e-004
,,,-1.90000000e-009,-6.01562319e-004
,,,-1.87500000e-009,-4.07812305e-004
,,,-1.85000000e-009,-2.40624794e-004
,,,-1.82500000e-009,-1.12499784e-004
,,,-1.80000000e-009,-3.12497787e-005
,,,-1.77500000e-009,2.23517420e-010
,,,-1.75000000e-009,-3.12497787e-005
,,,-1.72500000e-009,-1.07812284e-004
,,,-1.70000000e-009,-2.18749792e-004
,,,-1.67500000e-009,-3.51562301e-004
,,,-1.65000000e-009,-4.89062311e-004
,,,-1.62500000e-009,-6.18749820e-004
,,,-1.60000000e-009,-7.26562328e-004
,,,-1.57500000e-009,-7.99999833e-004
,,,-1.55000000e-009,-8.43749836e-004
,,,-1.52500000e-009,-8.45312336e-004
,,,-1.50000000e-009,-8.09374834e-004
,,,-1.47500000e-009,-7.45312329e-004
,,,-1.45000000e-009,-6.59374823e-004
,,,-1.42500000e-009,-5.65624817e-004
,,,-1.40000000e-009,-4.76562310e-004
,,,-1.37500000e-009,-3.99999805e-004
,,,-1.35000000e-009,-3.64062302e-004
,,,-1.32500000e-009,-3.60937302e-004
,,,-1.30000000e-009,-3.87499804e-004
,,,-1.27500000e-009,-4.42187308e-004
,,,-1.25000000e-009,-5.18749813e-004
,,,-1.22500000e-009,-6.09374820e-004
,,,-1.20000000e-009,-7.06249826e-004
,,,-1.17500000e-009,-7.99999833e-004
,,,-1.15000000e-009,-9.04687341e-004
,,,-1.12500000e-009,-9.96874847e-004
,,,-1.10000000e-009,-1.07187485e-003
,,,-1.07500000e-009,-1.13124986e-003
,,,-1.05000000e-009,-1.17187486e-003
,,,-1.02500000e-009,-1.19531236e-003
,,,-1.00000000e-009,-1.20312486e-003
,,,-9.75000000e-010,-1.19999986e-003
,,,-9.50000000e-010,-1.20937486e-003
,,,-9.25000000e-010,-1.21406236e-003
,,,-9.00000000e-010,-1.21562486e-003
,,,-8.75000000e-010,-1.21562486e-003
,,,-8.50000000e-010,-1.21249986e-003
,,,-8.25000000e-010,-1.20781236e-003
,,,-8.00000000e-010,-1.20312486e-003
,,,-7.75000000e-010,-1.19999986e-003
,,,-7.50000000e-010,-1.22499986e-003
,,,-7.25000000e-010,-1.26718737e-003
,,,-7.00000000e-010,-1.32812487e-003
,,,-6.75000000e-010,-1.41249988e-003
,,,-6.50000000e-010,-1.52343738e-003
,,,-6.25000000e-010,-1.65781239e-003
,,,-6.00000000e-010,-1.81718741e-003
,,,-5.75000000e-010,-1.99999992e-003
,,,-5.50000000e-010,-2.21718743e-003
,,,-5.25000000e-010,-2.44843745e-003
,,,-5.00000000e-010,-2.68281247e-003
,,,-4.75000000e-010,-2.91249998e-003
,,,-4.50000000e-010,-3.12656250e-003
,,,-4.25000000e-010,-3.31718751e-003
,,,-4.00000000e-010,-3.47656252e-003
,,,-3.75000000e-010,-3.60000003e-003
,,,-3.50000000e-010,-3.69218754e-003
,,,-3.25000000e-010,-3.75625004e-003
,,,-3.00000000e-010,-3.80156255e-003
,,,-2.75000000e-010,-3.83281255e-003
,,,-2.50000000e-010,-3.86093755e-003
,,,-2.25000000e-010,-3.89375005e-003
,,,-2.00000000e-010,-3.93750006e-003
,,,-1.75000000e-010,-4.00000006e-003
,,,-1.50000000e-010,-4.08750007e-003
,,,-1.25000000e-010,-4.20156257e-003
,,,-1.00000000e-010,-4.34375008e-003
,,,-7.50000000e-011,-4.50468760e-003
,,,-5.00000000e-011,-4.67968761e-003
,,,-2.50000000e-011,-4.85937512e-003
,,,0.00000000e+000,-5.03437513e-003
,,,2.50000000e-011,-5.20000014e-003
,,,5.00000000e-011,-5.33906265e-003
,,,7.50000000e-011,-5.46250016e-003
,,,1.00000000e-010,-5.57187517e-003
,,,1.25000000e-010,-5.67031268e-003
,,,1.50000000e-010,-5.75937518e-003
,,,1.75000000e-010,-5.84218769e-003
,,,2.00000000e-010,-5.92343770e-003
,,,2.25000000e-010,-6.00000020e-003
,,,2.50000000e-010,-6.05468771e-003
,,,2.75000000e-010,-6.11250021e-003
,,,3.00000000e-010,-6.17343771e-003
,,,3.25000000e-010,-6.23281272e-003
,,,3.50000000e-010,-6.28906272e-003
,,,3.75000000e-010,-6.33750023e-003
,,,4.00000000e-010,-6.37656273e-003
,,,4.25000000e-010,-6.40000023e-003
,,,4.50000000e-010,-6.38593773e-003
,,,4.75000000e-010,-6.36562523e-003
,,,5.00000000e-010,-6.34375023e-003
,,,5.25000000e-010,-6.32656272e-003
,,,5.50000000e-010,-6.32031272e-003
,,,5.75000000e-010,-6.32812522e-003
,,,6.00000000e-010,-6.35468773e-003
,,,6.25000000e-010,-6.40000023e-003
,,,6.50000000e-010,-6.43906273e-003
,,,6.75000000e-010,-6.49218774e-003
,,,7.00000000e-010,-6.55625024e-003
,,,7.25000000e-010,-6.62343775e-003
,,,7.50000000e-010,-6.68906275e-003
,,,7.75000000e-010,-6.74531275e-003
,,,8.00000000e-010,-6.78437526e-003
,,,8.25000000e-010,-6.80000026e-003
,,,8.50000000e-010,-6.76093776e-003
,,,8.75000000e-010,-6.69218775e-003
,,,9.00000000e-010,-6.60312524e-003
,,,9.25000000e-010,-6.49375024e-003
,,,9.50000000e-010,-6.37343773e-003
,,,9.75000000e-010,-6.24843772e-003
,,,1.00000000e-009,-6.12187521e-003
,,,1.02500000e-009,-6.00000020e-003
,,,1.05000000e-009,-5.86562519e-003
,,,1.07500000e-009,-5.74062518e-003
,,,1.10000000e-009,-5.62656267e-003
,,,1.12500000e-009,-5.52500017e-003
,,,1.15000000e-009,-5.43437516e-003
,,,1.17500000e-009,-5.35156266e-003
,,,1.20000000e-009,-5.27500015e-003
,,,1.22500000e-009,-5.20000014e-003
,,,1.25000000e-009,-5.11718764e-003
,,,1.27500000e-009,-5.02812513e-003
,,,1.30000000e-009,-4.93281263e-003
,,,1.32500000e-009,-4.83281262e-003
,,,1.35000000e-009,-4.72812511e-003
,,,1.37500000e-009,-4.62031260e-003
,,,1.40000000e-009,-4.51093760e-003
,,,1.42500000e-009,-4.40000009e-003
,,,1.45000000e-009,-4.28906258e-003
,,,1.47500000e-009,-4.17656257e-003
,,,1.50000000e-009,-4.06718756e-003
,,,1.52500000e-009,-3.96250006e-003
,,,1.55000000e-009,-3.86093755e-003
,,,1.57500000e-009,-3.76875004e-003
,,,1.60000000e-009,-3.68125004e-003
,,,1.62500000e-009,-3.60000003e-003
,,,1.65000000e-009,-3.52500003e-003
,,,1.67500000e-009,-3.44687502e-003
,,,1.70000000e-009,-3.36406251e-003
,,,1.72500000e-009,-3.27187501e-003
,,,1.75000000e-009,-3.16875000e-003
,,,1.77500000e-009,-3.05624999e-003
,,,1.80000000e-009,-2.93281248e-003
,,,1.82500000e-009,-2.79999997e-003
,,,1.85000000e-009,-2.67187497e-003
,,,1.87500000e-009,-2.53749996e-003
,,,1.90000000e-009,-2.40468745e-003
,,,1.92500000e-009,-2.27968744e-003
,,,1.95000000e-009,-2.17031243e-003
,,,1.97500000e-009,-2.08437492e-003
,,,2.00000000e-009,-2.02656242e-003
,,,2.02500000e-009,-1.99999992e-003
,,,2.05000000e-009,-2.01874992e-003
,,,2.07500000e-009,-2.05781242e-003
,,,2.10000000e-009,-2.11562493e-003
,,,2.12500000e-009,-2.18281243e-003
,,,2.15000000e-009,-2.25156244e-003
,,,2.17500000e-009,-2.31562494e-003
,,,2.20000000e-009,-2.36718744e-003
,,,2.22500000e-009,-2.39999995e-003
,,,2.25000000e-009,-2.41874995e-003
,,,2.27500000e-009,-2.40781245e-003
,,,2.30000000e-009,-2.37343744e-003
,,,2.32500000e-009,-2.31718744e-003
,,,2.35000000e-009,-2.24531244e-003
,,,2.37500000e-009,-2.16406243e-003
,,,2.40000000e-009,-2.08124992e-003
,,,2.42500000e-009,-1.99999992e-003
,,,2.45000000e-009,-1.93437491e-003
,,,2.47500000e-009,-1.87343741e-003
,,,2.50000000e-009,-1.82031241e-003
,,,2.52500000e-009,-1.77343740e-003
,,,2.55000000e-009,-1.72968740e-003
,,,2.57500000e-009,-1.68749990e-003
,,,2.60000000e-009,-1.64531239e-003
,,,2.62500000e-009,-1.59999989e-003
,,,2.65000000e-009,-1.56249989e-003
,,,2.67500000e-009,-1.51718738e-003
,,,2.70000000e-009,-1.46718738e-003
,,,2.72500000e-009,-1.41249988e-003
,,,2.75000000e-009,-1.35624987e-003
,,,2.77500000e-009,-1.29999987e-003
,,,2.80000000e-009,-1.24687486e-003
,,,2.82500000e-009,-1.19999986e-003
,,,2.85000000e-009,-1.16874986e-003
,,,2.87500000e-009,-1.14687486e-003
,,,2.90000000e-009,-1.13437486e-003
,,,2.92500000e-009,-1.13124986e-003
,,,2.95000000e-009,-1.13749986e-003
,,,2.97500000e-009,-1.15312486e-003
,,,3.00000000e-009,-1.17499986e-003
,,,3.02500000e-009,-1.19999986e-003
,,,3.05000000e-009,-1.23593736e-003
,,,3.07500000e-009,-1.26562487e-003
,,,3.10000000e-009,-1.28906237e-003
,,,3.12500000e-009,-1.30156237e-003
,,,3.15000000e-009,-1.29999987e-003
,,,3.17500000e-009,-1.28124987e-003
,,,3.20000000e-009,-1.24687486e-003
,,,3.22500000e-009,-1.19999986e-003
,,,3.25000000e-009,-1.15468736e-003
,,,3.27500000e-009,-1.10781235e-003
,,,3.30000000e-009,-1.06562485e-003
,,,3.32500000e-009,-1.03906235e-003
,,,3.35000000e-009,-1.03281235e-003
,,,3.37500000e-009,-1.05781235e-003
,,,3.40000000e-009,-1.11249986e-003
,,,3.42500000e-009,-1.19999986e-003
,,,3.45000000e-009,-1.32187487e-003
,,,3.47500000e-009,-1.46093738e-003
,,,3.50000000e-009,-1.60468739e-003
,,,3.52500000e-009,-1.74374990e-003
,,,3.55000000e-009,-1.86406241e-003
,,,3.57500000e-009,-1.95156241e-003
,,,3.60000000e-009,-1.99999992e-003
,,,3.62500000e-009,-1.99999992e-003
,,,3.65000000e-009,-1.95468741e-003
,,,3.67500000e-009,-1.86718741e-003
,,,3.70000000e-009,-1.74999990e-003
,,,3.72500000e-009,-1.61562489e-003
,,,3.75000000e-009,-1.47968738e-003
,,,3.77500000e-009,-1.35624987e-003
,,,3.80000000e-009,-1.25937487e-003
,,,3.82500000e-009,-1.19999986e-003
,,,3.85000000e-009,-1.18749986e-003
,,,3.87500000e-009,-1.22031236e-003
,,,3.90000000e-009,-1.29843737e-003
,,,3.92500000e-009,-1.41093738e-003
,,,3.95000000e-009,-1.54999989e-003
,,,3.97500000e-009,-1.70312490e-003
,,,4.00000000e-009,-1.85781241e-003
,,,4.02500000e-009,-1.99999992e-003
,,,4.05000000e-009,-2.11406243e-003
,,,4.07500000e-009,-2.19531243e-003
,,,4.10000000e-009,-2.24062494e-003
,,,4.12500000e-009,-2.24999994e-003
,,,4.15000000e-009,-2.22499993e-003
,,,4.17500000e-009,-2.17187493e-003
,,,4.20000000e-009,-2.09374992e-003
,,,4.22500000e-009,-1.99999992e-003
,,,4.25000000e-009,-1.89531241e-003
,,,4.27500000e-009,-1.79374990e-003
,,,4.30000000e-009,-1.70468740e-003
,,,4.32500000e-009,-1.63281239e-003
,,,4.35000000e-009,-1.58437489e-003
,,,4.37500000e-009,-1.56406239e-003
,,,4.40000000e-009,-1.56874989e-003
,,,4.42500000e-009,-1.59999989e-003
,,,4.45000000e-009,-1.65312489e-003
,,,4.47500000e-009,-1.72031240e-003
,,,4.50000000e-009,-1.79531240e-003
,,,4.52500000e-009,-1.87031241e-003
,,,4.55000000e-009,-1.93593741e-003
,,,4.57500000e-009,-1.98437492e-003
,,,4.60000000e-009,-2.00624992e-003
,,,4.62500000e-009,-1.99999992e-003
,,,4.65000000e-009,-1.95937492e-003
,,,4.67500000e-009,-1.88906241e-003
,,,4.70000000e-009,-1.79218740e-003
,,,4.72500000e-009,-1.67656240e-003
,,,4.75000000e-009,-1.54999989e-003
,,,4.77500000e-009,-1.42343738e-003
,,,4.80000000e-009,-1.30468737e-003
,,,4.82500000e-009,-1.19999986e-003
,,,4.85000000e-009,-1.11874986e-003
,,,4.87500000e-009,-1.06406235e-003
,,,4.90000000e-009,-1.03593735e-003
,,,4.92500000e-009,-1.03281235e-003
,,,4.95000000e-009,-1.05312485e-003
,,,4.97500000e-009,-1.09062485e-003
,,,5.00000000e-009,-1.14218736e-003
,,,5.02500000e-009,-1.19999986e-003
,,,5.05000000e-009,-1.26406237e-003
,,,5.07500000e-009,-1.32499987e-003
,,,5.10000000e-009,-1.38124987e-003
,,,5.12500000e-009,-1.43281238e-003
,,,5.15000000e-009,-1.48124988e-003
,,,5.17500000e-009,-1.52343738e-003
,,,5.20000000e-009,-1.56406239e-003
,,,5.22500000e-009,-1.59999989e-003
,,,5.25000000e-009,-1.63124989e-003
,,,5.27500000e-009,-1.65624989e-003
,,,5.30000000e-009,-1.67343739e-003
,,,5.32500000e-009,-1.68124990e-003
,,,5.35000000e-009,-1.67812490e-003
,,,5.37500000e-009,-1.66406239e-003
,,,5.40000000e-009,-1.63906239e-003
,,,5.42500000e-009,-1.59999989e-003
,,,5.45000000e-009,-1.54531239e-003
,,,5.47500000e-009,-1.48281238e-003
,,,5.50000000e-009,-1.41718738e-003
,,,5.52500000e-009,-1.35312487e-003
,,,5.55000000e-009,-1.29531237e-003
,,,5.57500000e-009,-1.24999986e-003
,,,5.60000000e-009,-1.21718736e-003
,,,5.62500000e-009,-1.19999986e-003
,,,5.65000000e-009,-1.19999986e-003
,,,5.67500000e-009,-1.20937486e-003
,,,5.70000000e-009,-1.22499986e-003
,,,5.72500000e-009,-1.23906236e-003
,,,5.75000000e-009,-1.24999986e-003
,,,5.77500000e-009,-1.24843736e-003
,,,5.80000000e-009,-1.23281236e-003
