RawData/DifferentLengths/R3/R3_12pt5_5mV/wave005_Ch3.csv

"Record Length",1000,"Points",-7.72500000e-009,-3.56249802e-004
"Sample Interval",2.50000000e-011,s,-7.70000000e-009,-2.93749797e-004
"Trigger Point",309,"Samples",-7.67500000e-009,-2.20312292e-004
"Trigger Time",9.11036145e-012,s,-7.65000000e-009,-1.45312287e-004
"",,,-7.62500000e-009,-7.65622819e-005
"Horizontal Offset",-7.72500000e-009,s,-7.60000000e-009,-2.49997783e-005
,,,-7.57500000e-009,1.56272363e-006
,,,-7.55000000e-009,2.23517420e-010
,,,-7.52500000e-009,-4.06247794e-005
,,,-7.50000000e-009,-1.09374784e-004
,,,-7.47500000e-009,-2.04687291e-004
,,,-7.45000000e-009,-3.18749799e-004
,,,-7.42500000e-009,-4.43749808e-004
,,,-7.40000000e-009,-5.71874817e-004
,,,-7.37500000e-009,-6.93749826e-004
,,,-7.35000000e-009,-7.99999833e-004
,,,-7.32500000e-009,-8.84374839e-004
,,,-7.30000000e-009,-9.42187343e-004
,,,-7.27500000e-009,-9.73437345e-004
,,,-7.25000000e-009,-9.76562346e-004
,,,-7.22500000e-009,-9.56249844e-004
,,,-7.20000000e-009,-9.17187341e-004
,,,-7.17500000e-009,-8.64062338e-004
,,,-7.15000000e-009,-7.99999833e-004
,,,-7.12500000e-009,-7.31249828e-004
,,,-7.10000000e-009,-6.62499823e-004
,,,-7.07500000e-009,-5.99999819e-004
,,,-7.05000000e-009,-5.43749815e-004
,,,-7.02500000e-009,-4.96874812e-004
,,,-7.00000000e-009,-4.57812309e-004
,,,-6.97500000e-009,-4.24999807e-004
,,,-6.95000000e-009,-3.99999805e-004
,,,-6.92500000e-009,-3.81249803e-004
,,,-6.90000000e-009,-3.68749803e-004
,,,-6.87500000e-009,-3.62499802e-004
,,,-6.85000000e-009,-3.60937302e-004
,,,-6.82500000e-009,-3.65624802e-004
,,,-6.80000000e-009,-3.74999803e-004
,,,-6.77500000e-009,-3.85937304e-004
,,,-6.75000000e-009,-3.99999805e-004
,,,-6.72500000e-009,-4.15624806e-004
,,,-6.70000000e-009,-4.28124807e-004
,,,-6.67500000e-009,-4.39062308e-004
,,,-6.65000000e-009,-4.43749808e-004
,,,-6.62500000e-009,-4.42187308e-004
,,,-6.60000000e-009,-4.34374807e-004
,,,-6.57500000e-009,-4.20312306e-004
,,,-6.55000000e-009,-3.99999805e-004
,,,-6.52500000e-009,-3.76562303e-004
,,,-6.50000000e-009,-3.53124801e-004
,,,-6.47500000e-009,-3.32812300e-004
,,,-6.45000000e-009,-3.20312299e-004
,,,-6.42500000e-009,-3.18749799e-004
,,,-6.40000000e-009,-3.31249800e-004
,,,-6.37500000e-009,-3.59374802e-004
,,,-6.35000000e-009,-3.99999805e-004
,,,-6.32500000e-009,-4.56249809e-004
,,,-6.30000000e-009,-5.21874813e-004
,,,-6.27500000e-009,-5.89062318e-004
,,,-6.25000000e-009,-6.54687323e-004
,,,-6.22500000e-009,-7.14062327e-004
,,,-6.20000000e-009,-7.60937330e-004
,,,-6.17500000e-009,-7.90624832e-004
,,,-6.15000000e-009,-7.99999833e-004
,,,-6.12500000e-009,-7.89062332e-004
,,,-6.10000000e-009,-7.56249830e-004
,,,-6.07500000e-009,-7.07812327e-004
,,,-6.05000000e-009,-6.48437322e-004
,,,-6.02500000e-009,-5.82812318e-004
,,,-6.00000000e-009,-5.15624813e-004
,,,-5.97500000e-009,-4.53124809e-004
,,,-5.95000000e-009,-3.99999805e-004
,,,-5.92500000e-009,-3.62499802e-004
,,,-5.90000000e-009,-3.40624801e-004
,,,-5.87500000e-009,-3.32812300e-004
,,,-5.85000000e-009,-3.35937300e-004
,,,-5.82500000e-009,-3.48437301e-004
,,,-5.80000000e-009,-3.65624802e-004
,,,-5.77500000e-009,-3.84374804e-004
,,,-5.75000000e-009,-3.99999805e-004
,,,-5.72500000e-009,-4.17187306e-004
,,,-5.70000000e-009,-4.28124807e-004
,,,-5.67500000e-009,-4.32812307e-004
,,,-5.65000000e-009,-4.31249807e-004
,,,-5.62500000e-009,-4.26562307e-004
,,,-5.60000000e-009,-4.18749806e-004
,,,-5.57500000e-009,-4.09374805e-004
,,,-5.55000000e-009,-3.99999805e-004
,,,-5.52500000e-009,-3.95312304e-004
,,,-5.50000000e-009,-3.92187304e-004
,,,-5.47500000e-009,-3.92187304e-004
,,,-5.45000000e-009,-3.93749804e-004
,,,-5.42500000e-009,-3.96874805e-004
,,,-5.40000000e-009,-3.99999805e-004
,,,-5.37500000e-009,-4.01562305e-004
,,,-5.35000000e-009,-3.99999805e-004
,,,-5.32500000e-009,-3.99999805e-004
,,,-5.30000000e-009,-3.98437305e-004
,,,-5.27500000e-009,-3.95312304e-004
,,,-5.25000000e-009,-3.92187304e-004
,,,-5.22500000e-009,-3.89062304e-004
,,,-5.20000000e-009,-3.89062304e-004
,,,-5.17500000e-009,-3.92187304e-004
,,,-5.15000000e-009,-3.99999805e-004
,,,-5.12500000e-009,-4.20312306e-004
,,,-5.10000000e-009,-4.46874808e-004
,,,-5.07500000e-009,-4.82812311e-004
,,,-5.05000000e-009,-5.29687314e-004
,,,-5.02500000e-009,-5.84374818e-004
,,,-5.00000000e-009,-6.49999822e-004
,,,-4.97500000e-009,-7.21874828e-004
,,,-4.95000000e-009,-7.99999833e-004
,,,-4.92500000e-009,-8.79687339e-004
,,,-4.90000000e-009,-9.59374844e-004
,,,-4.87500000e-009,-1.03124985e-003
,,,-4.85000000e-009,-1.09687485e-003
,,,-4.82500000e-009,-1.14843736e-003
,,,-4.80000000e-009,-1.18437486e-003
,,,-4.77500000e-009,-1.20156236e-003
,,,-4.75000000e-009,-1.19999986e-003
,,,-4.72500000e-009,-1.17499986e-003
,,,-4.70000000e-009,-1.13281236e-003
,,,-4.67500000e-009,-1.07812485e-003
,,,-4.65000000e-009,-1.01718735e-003
,,,-4.62500000e-009,-9.54687344e-004
,,,-4.60000000e-009,-8.95312340e-004
,,,-4.57500000e-009,-8.42187336e-004
,,,-4.55000000e-009,-7.99999833e-004
,,,-4.52500000e-009,-7.70312331e-004
,,,-4.50000000e-009,-7.53124830e-004
,,,-4.47500000e-009,-7.48437329e-004
,,,-4.45000000e-009,-7.53124830e-004
,,,-4.42500000e-009,-7.64062331e-004
,,,-4.40000000e-009,-7.78124832e-004
,,,-4.37500000e-009,-7.90624832e-004
,,,-4.35000000e-009,-7.99999833e-004
,,,-4.32500000e-009,-8.03124833e-004
,,,-4.30000000e-009,-7.99999833e-004
,,,-4.27500000e-009,-7.93749833e-004
,,,-4.25000000e-009,-7.87499832e-004
,,,-4.22500000e-009,-7.82812332e-004
,,,-4.20000000e-009,-7.82812332e-004
,,,-4.17500000e-009,-7.87499832e-004
,,,-4.15000000e-009,-7.99999833e-004
,,,-4.12500000e-009,-8.17187334e-004
,,,-4.10000000e-009,-8.37499836e-004
,,,-4.07500000e-009,-8.57812337e-004
,,,-4.05000000e-009,-8.71874838e-004
,,,-4.02500000e-009,-8.78124839e-004
,,,-4.00000000e-009,-8.68749838e-004
,,,-3.97500000e-009,-8.43749836e-004
,,,-3.95000000e-009,-7.99999833e-004
,,,-3.92500000e-009,-7.40624829e-004
,,,-3.90000000e-009,-6.68749824e-004
,,,-3.87500000e-009,-5.93749819e-004
,,,-3.85000000e-009,-5.20312313e-004
,,,-3.82500000e-009,-4.59374809e-004
,,,-3.80000000e-009,-4.15624806e-004
,,,-3.77500000e-009,-3.95312304e-004
,,,-3.75000000e-009,-3.99999805e-004
,,,-3.72500000e-009,-4.39062308e-004
,,,-3.70000000e-009,-4.98437312e-004
,,,-3.67500000e-009,-5.71874817e-004
,,,-3.65000000e-009,-6.46874822e-004
,,,-3.62500000e-009,-7.15624827e-004
,,,-3.60000000e-009,-7.68749831e-004
,,,-3.57500000e-009,-7.98437333e-004
,,,-3.55000000e-009,-7.99999833e-004
,,,-3.52500000e-009,-7.71874831e-004
,,,-3.50000000e-009,-7.18749827e-004
,,,-3.47500000e-009,-6.48437322e-004
,,,-3.45000000e-009,-5.70312317e-004
,,,-3.42500000e-009,-4.96874812e-004
,,,-3.40000000e-009,-4.39062308e-004
,,,-3.37500000e-009,-4.04687305e-004
,,,-3.35000000e-009,-3.99999805e-004
,,,-3.32500000e-009,-4.29687307e-004
,,,-3.30000000e-009,-4.85937311e-004
,,,-3.27500000e-009,-5.59374816e-004
,,,-3.25000000e-009,-6.40624822e-004
,,,-3.22500000e-009,-7.14062327e-004
,,,-3.20000000e-009,-7.71874831e-004
,,,-3.17500000e-009,-8.03124833e-004
,,,-3.15000000e-009,-7.99999833e-004
,,,-3.12500000e-009,-7.64062331e-004
,,,-3.10000000e-009,-6.98437326e-004
,,,-3.07500000e-009,-6.17187320e-004
,,,-3.05000000e-009,-5.29687314e-004
,,,-3.02500000e-009,-4.51562308e-004
,,,-3.00000000e-009,-3.96874805e-004
,,,-2.97500000e-009,-3.78124803e-004
,,,-2.95000000e-009,-3.99999805e-004
,,,-2.92500000e-009,-4.70312310e-004
,,,-2.90000000e-009,-5.74999817e-004
,,,-2.87500000e-009,-7.06249826e-004
,,,-2.85000000e-009,-8.48437337e-004
,,,-2.82500000e-009,-9.84374846e-004
,,,-2.80000000e-009,-1.09687485e-003
,,,-2.77500000e-009,-1.17187486e-003
,,,-2.75000000e-009,-1.19999986e-003
,,,-2.72500000e-009,-1.17031236e-003
,,,-2.70000000e-009,-1.09218735e-003
,,,-2.67500000e-009,-9.78124846e-004
,,,-2.65000000e-009,-8.42187336e-004
,,,-2.62500000e-009,-6.99999826e-004
,,,-2.60000000e-009,-5.70312317e-004
,,,-2.57500000e-009,-4.65624809e-004
,,,-2.55000000e-009,-3.99999805e-004
,,,-2.52500000e-009,-3.82812304e-004
,,,-2.50000000e-009,-4.06249805e-004
,,,-2.47500000e-009,-4.64062309e-004
,,,-2.45000000e-009,-5.43749815e-004
,,,-2.42500000e-009,-6.32812321e-004
,,,-2.40000000e-009,-7.12499827e-004
,,,-2.37500000e-009,-7.71874831e-004
,,,-2.35000000e-009,-7.99999833e-004
,,,-2.32500000e-009,-7.95312333e-004
,,,-2.30000000e-009,-7.56249830e-004
,,,-2.27500000e-009,-6.93749826e-004
,,,-2.25000000e-009,-6.14062320e-004
,,,-2.22500000e-009,-5.34374814e-004
,,,-2.20000000e-009,-4.64062309e-004
,,,-2.17500000e-009,-4.17187306e-004
,,,-2.15000000e-009,-3.99999805e-004
,,,-2.12500000e-009,-4.18749806e-004
,,,-2.10000000e-009,-4.67187310e-004
,,,-2.07500000e-009,-5.37499815e-004
,,,-2.05000000e-009,-6.20312320e-004
,,,-2.02500000e-009,-6.99999826e-004
,,,-2.00000000e-009,-7.64062331e-004
,,,-1.97500000e-009,-7.99999833e-004
,,,-1.95000000e-009,-7.99999833e-004
,,,-1.92500000e-009,-7.60937330e-004
,,,-1.90000000e-009,-6.82812325e-004
,,,-1.87500000e-009,-5.74999817e-004
,,,-1.85000000e-009,-4.46874808e-004
,,,-1.82500000e-009,-3.12499799e-004
,,,-1.80000000e-009,-1.84374790e-004
,,,-1.77500000e-009,-7.65622819e-005
,,,-1.75000000e-009,2.23517420e-010
,,,-1.72500000e-009,2.50002253e-005
,,,-1.70000000e-009,4.68772385e-006
,,,-1.67500000e-009,-5.78122806e-005
,,,-1.65000000e-009,-1.60937288e-004
,,,-1.62500000e-009,-2.96874797e-004
,,,-1.60000000e-009,-4.56249809e-004
,,,-1.57500000e-009,-6.28124821e-004
,,,-1.55000000e-009,-7.99999833e-004
,,,-1.52500000e-009,-9.64062345e-004
,,,-1.50000000e-009,-1.10624985e-003
,,,-1.47500000e-009,-1.21718736e-003
,,,-1.45000000e-009,-1.29218737e-003
,,,-1.42500000e-009,-1.32812487e-003
,,,-1.40000000e-009,-1.32343737e-003
,,,-1.37500000e-009,-1.27968737e-003
,,,-1.35000000e-009,-1.19999986e-003
,,,-1.32500000e-009,-1.09843735e-003
,,,-1.30000000e-009,-9.78124846e-004
,,,-1.27500000e-009,-8.51562337e-004
,,,-1.25000000e-009,-7.24999828e-004
,,,-1.22500000e-009,-6.10937320e-004
,,,-1.20000000e-009,-5.14062313e-004
,,,-1.17500000e-009,-4.43749808e-004
,,,-1.15000000e-009,-3.99999805e-004
,,,-1.12500000e-009,-4.03124805e-004
,,,-1.10000000e-009,-4.37499807e-004
,,,-1.07500000e-009,-4.92187311e-004
,,,-1.05000000e-009,-5.64062316e-004
,,,-1.02500000e-009,-6.37499822e-004
,,,-1.00000000e-009,-7.07812327e-004
,,,-9.75000000e-010,-7.64062331e-004
,,,-9.50000000e-010,-7.99999833e-004
,,,-9.25000000e-010,-8.39062336e-004
,,,-9.00000000e-010,-8.59374837e-004
,,,-8.75000000e-010,-8.62499838e-004
,,,-8.50000000e-010,-8.53124837e-004
,,,-8.25000000e-010,-8.34374836e-004
,,,-8.00000000e-010,-8.15624834e-004
,,,-7.75000000e-010,-8.03124833e-004
,,,-7.50000000e-010,-7.99999833e-004
,,,-7.25000000e-010,-8.46874836e-004
,,,-7.00000000e-010,-9.17187341e-004
,,,-6.75000000e-010,-1.01093735e-003
,,,-6.50000000e-010,-1.12187486e-003
,,,-6.25000000e-010,-1.24218736e-003
,,,-6.00000000e-010,-1.36718737e-003
,,,-5.75000000e-010,-1.48749988e-003
,,,-5.50000000e-010,-1.59999989e-003
,,,-5.25000000e-010,-1.73749990e-003
,,,-5.00000000e-010,-1.86562491e-003
,,,-4.75000000e-010,-1.98281242e-003
,,,-4.50000000e-010,-2.08749992e-003
,,,-4.25000000e-010,-2.17968743e-003
,,,-4.00000000e-010,-2.25937494e-003
,,,-3.75000000e-010,-2.33281244e-003
,,,-3.50000000e-010,-2.39999995e-003
,,,-3.25000000e-010,-2.50468745e-003
,,,-3.00000000e-010,-2.62031246e-003
,,,-2.75000000e-010,-2.74999997e-003
,,,-2.50000000e-010,-2.89374998e-003
,,,-2.25000000e-010,-3.05156249e-003
,,,-2.00000000e-010,-3.22343750e-003
,,,-1.75000000e-010,-3.40625002e-003
,,,-1.50000000e-010,-3.60000003e-003
,,,-1.25000000e-010,-3.82812505e-003
,,,-1.00000000e-010,-4.07031256e-003
,,,-7.50000000e-011,-4.32343758e-003
,,,-5.00000000e-011,-4.58437510e-003
,,,-2.50000000e-011,-4.84531262e-003
,,,0.00000000e+000,-5.10468764e-003
,,,2.50000000e-011,-5.35625016e-003
,,,5.00000000e-011,-5.60000017e-003
,,,7.50000000e-011,-5.84375019e-003
,,,1.00000000e-010,-6.08750021e-003
,,,1.25000000e-010,-6.33125022e-003
,,,1.50000000e-010,-6.57812524e-003
,,,1.75000000e-010,-6.82812526e-003
,,,2.00000000e-010,-7.08125028e-003
,,,2.25000000e-010,-7.33906280e-003
,,,2.50000000e-010,-7.60000031e-003
,,,2.75000000e-010,-7.85312533e-003
,,,3.00000000e-010,-8.11250035e-003
,,,3.25000000e-010,-8.37812537e-003
,,,3.50000000e-010,-8.64375039e-003
,,,3.75000000e-010,-8.90625041e-003
,,,4.00000000e-010,-9.15625042e-003
,,,4.25000000e-010,-9.38906294e-003
,,,4.50000000e-010,-9.60000046e-003
,,,4.75000000e-010,-9.75468797e-003
,,,5.00000000e-010,-9.88750048e-003
,,,5.25000000e-010,-1.00046880e-002
,,,5.50000000e-010,-1.01062505e-002
,,,5.75000000e-010,-1.01937505e-002
,,,6.00000000e-010,-1.02703130e-002
,,,6.25000000e-010,-1.03390630e-002
,,,6.50000000e-010,-1.04000005e-002
,,,6.75000000e-010,-1.04187505e-002
,,,7.00000000e-010,-1.04437505e-002
,,,7.25000000e-010,-1.04781255e-002
,,,7.50000000e-010,-1.05250005e-002
,,,7.75000000e-010,-1.05812505e-002
,,,8.00000000e-010,-1.06484380e-002
,,,8.25000000e-010,-1.07218755e-002
,,,8.50000000e-010,-1.08000005e-002
,,,8.75000000e-010,-1.08375005e-002
,,,9.00000000e-010,-1.08796880e-002
,,,9.25000000e-010,-1.09281255e-002
,,,9.50000000e-010,-1.09812506e-002
,,,9.75000000e-010,-1.10375006e-002
,,,1.00000000e-009,-1.10953131e-002
,,,1.02500000e-009,-1.11515631e-002
,,,1.05000000e-009,-1.12000006e-002
,,,1.07500000e-009,-1.11937506e-002
,,,1.10000000e-009,-1.11765631e-002
,,,1.12500000e-009,-1.11484381e-002
,,,1.15000000e-009,-1.11078131e-002
,,,1.17500000e-009,-1.10531256e-002
,,,1.20000000e-009,-1.09843756e-002
,,,1.22500000e-009,-1.09000005e-002
,,,1.25000000e-009,-1.08000005e-002
,,,1.27500000e-009,-1.06484380e-002
,,,1.30000000e-009,-1.04843755e-002
,,,1.32500000e-009,-1.03171880e-002
,,,1.35000000e-009,-1.01515630e-002
,,,1.37500000e-009,-9.99375048e-003
,,,1.40000000e-009,-9.84843797e-003
,,,1.42500000e-009,-9.71562546e-003
,,,1.45000000e-009,-9.60000046e-003
,,,1.47500000e-009,-9.47500045e-003
,,,1.50000000e-009,-9.35937544e-003
,,,1.52500000e-009,-9.25625043e-003
,,,1.55000000e-009,-9.15937542e-003
,,,1.57500000e-009,-9.06875042e-003
,,,1.60000000e-009,-8.98125041e-003
,,,1.62500000e-009,-8.89375041e-003
,,,1.65000000e-009,-8.80000040e-003
,,,1.67500000e-009,-8.68281289e-003
,,,1.70000000e-009,-8.55000038e-003
,,,1.72500000e-009,-8.40625037e-003
,,,1.75000000e-009,-8.25156286e-003
,,,1.77500000e-009,-8.09062535e-003
,,,1.80000000e-009,-7.92656284e-003
,,,1.82500000e-009,-7.76250033e-003
,,,1.85000000e-009,-7.60000031e-003
,,,1.87500000e-009,-7.43281280e-003
,,,1.90000000e-009,-7.26562529e-003
,,,1.92500000e-009,-7.10312528e-003
,,,1.95000000e-009,-6.94687527e-003
,,,1.97500000e-009,-6.79687526e-003
,,,2.00000000e-009,-6.65625025e-003
,,,2.02500000e-009,-6.52500024e-003
,,,2.05000000e-009,-6.40000023e-003
,,,2.07500000e-009,-6.27500022e-003
,,,2.10000000e-009,-6.14375021e-003
,,,2.12500000e-009,-6.00468770e-003
,,,2.15000000e-009,-5.85781269e-003
,,,2.17500000e-009,-5.70156268e-003
,,,2.20000000e-009,-5.53906267e-003
,,,2.22500000e-009,-5.37187516e-003
,,,2.25000000e-009,-5.20000014e-003
,,,2.27500000e-009,-5.03437513e-003
,,,2.30000000e-009,-4.86406262e-003
,,,2.32500000e-009,-4.69218761e-003
,,,2.35000000e-009,-4.52500010e-003
,,,2.37500000e-009,-4.36875009e-003
,,,2.40000000e-009,-4.22500008e-003
,,,2.42500000e-009,-4.10312507e-003
,,,2.45000000e-009,-4.00000006e-003
,,,2.47500000e-009,-3.92968755e-003
,,,2.50000000e-009,-3.87187505e-003
,,,2.52500000e-009,-3.82343755e-003
,,,2.55000000e-009,-3.77968754e-003
,,,2.57500000e-009,-3.74062504e-003
,,,2.60000000e-009,-3.70156254e-003
,,,2.62500000e-009,-3.65625004e-003
,,,2.65000000e-009,-3.60000003e-003
,,,2.67500000e-009,-3.54218753e-003
,,,2.70000000e-009,-3.45781252e-003
,,,2.72500000e-009,-3.34531251e-003
,,,2.75000000e-009,-3.20312500e-003
,,,2.77500000e-009,-3.03281249e-003
,,,2.80000000e-009,-2.83906248e-003
,,,2.82500000e-009,-2.62656246e-003
,,,2.85000000e-009,-2.39999995e-003
,,,2.87500000e-009,-2.18749993e-003
,,,2.90000000e-009,-1.97499992e-003
,,,2.92500000e-009,-1.77187490e-003
,,,2.95000000e-009,-1.58906239e-003
,,,2.97500000e-009,-1.43437488e-003
,,,3.00000000e-009,-1.31562487e-003
,,,3.02500000e-009,-1.23749986e-003
,,,3.05000000e-009,-1.19999986e-003
,,,3.07500000e-009,-1.22499986e-003
,,,3.10000000e-009,-1.27656237e-003
,,,3.12500000e-009,-1.34687487e-003
,,,3.15000000e-009,-1.42187488e-003
,,,3.17500000e-009,-1.49374988e-003
,,,3.20000000e-009,-1.55156239e-003
,,,3.22500000e-009,-1.58906239e-003
,,,3.25000000e-009,-1.59999989e-003
,,,3.27500000e-009,-1.59999989e-003
,,,3.30000000e-009,-1.57031239e-003
,,,3.32500000e-009,-1.51406238e-003
,,,3.35000000e-009,-1.44374988e-003
,,,3.37500000e-009,-1.36718737e-003
,,,3.40000000e-009,-1.29374987e-003
,,,3.42500000e-009,-1.23593736e-003
,,,3.45000000e-009,-1.19999986e-003
,,,3.47500000e-009,-1.20468736e-003
,,,3.50000000e-009,-1.23281236e-003
,,,3.52500000e-009,-1.28281237e-003
,,,3.55000000e-009,-1.34843737e-003
,,,3.57500000e-009,-1.42031238e-003
,,,3.60000000e-009,-1.49218738e-003
,,,3.62500000e-009,-1.55468739e-003
,,,3.65000000e-009,-1.59999989e-003
,,,3.67500000e-009,-1.63281239e-003
,,,3.70000000e-009,-1.63593739e-003
,,,3.72500000e-009,-1.60937489e-003
,,,3.75000000e-009,-1.55781239e-003
,,,3.77500000e-009,-1.48437488e-003
,,,3.80000000e-009,-1.39531238e-003
,,,3.82500000e-009,-1.29687487e-003
,,,3.85000000e-009,-1.19999986e-003
,,,3.87500000e-009,-1.12187486e-003
,,,3.90000000e-009,-1.05937485e-003
,,,3.92500000e-009,-1.01718735e-003
,,,3.95000000e-009,-1.00156235e-003
,,,3.97500000e-009,-1.01093735e-003
,,,4.00000000e-009,-1.04843735e-003
,,,4.02500000e-009,-1.11249986e-003
,,,4.05000000e-009,-1.19999986e-003
,,,4.07500000e-009,-1.31093737e-003
,,,4.10000000e-009,-1.43124988e-003
,,,4.12500000e-009,-1.55781239e-003
,,,4.15000000e-009,-1.67968740e-003
,,,4.17500000e-009,-1.79062490e-003
,,,4.20000000e-009,-1.88437491e-003
,,,4.22500000e-009,-1.95624991e-003
,,,4.25000000e-009,-1.99999992e-003
,,,4.27500000e-009,-2.01249992e-003
,,,4.30000000e-009,-1.99687492e-003
,,,4.32500000e-009,-1.95781242e-003
,,,4.35000000e-009,-1.89843741e-003
,,,4.37500000e-009,-1.82656241e-003
,,,4.40000000e-009,-1.74843740e-003
,,,4.42500000e-009,-1.67031239e-003
,,,4.45000000e-009,-1.59999989e-003
,,,4.47500000e-009,-1.54218739e-003
,,,4.50000000e-009,-1.49999988e-003
,,,4.52500000e-009,-1.47656238e-003
,,,4.55000000e-009,-1.47187488e-003
,,,4.57500000e-009,-1.48593738e-003
,,,4.60000000e-009,-1.51249988e-003
,,,4.62500000e-009,-1.55312489e-003
,,,4.65000000e-009,-1.59999989e-003
,,,4.67500000e-009,-1.65156239e-003
,,,4.70000000e-009,-1.70468740e-003
,,,4.72500000e-009,-1.75937490e-003
,,,4.75000000e-009,-1.81093740e-003
,,,4.77500000e-009,-1.86249991e-003
,,,4.80000000e-009,-1.91093741e-003
,,,4.82500000e-009,-1.95781242e-003
,,,4.85000000e-009,-1.99999992e-003
,,,4.87500000e-009,-2.02968742e-003
,,,4.90000000e-009,-2.05312492e-003
,,,4.92500000e-009,-2.06874992e-003
,,,4.95000000e-009,-2.07656242e-003
,,,4.97500000e-009,-2.07343742e-003
,,,5.00000000e-009,-2.05937492e-003
,,,5.02500000e-009,-2.03593742e-003
,,,5.05000000e-009,-1.99999992e-003
,,,5.07500000e-009,-1.94999991e-003
,,,5.10000000e-009,-1.89374991e-003
,,,5.12500000e-009,-1.83437491e-003
,,,5.15000000e-009,-1.77499990e-003
,,,5.17500000e-009,-1.71874990e-003
,,,5.20000000e-009,-1.67031239e-003
,,,5.22500000e-009,-1.62968739e-003
,,,5.25000000e-009,-1.59999989e-003
,,,5.27500000e-009,-1.58124989e-003
,,,5.30000000e-009,-1.57187489e-003
,,,5.32500000e-009,-1.57187489e-003
,,,5.35000000e-009,-1.57656239e-003
,,,5.37500000e-009,-1.58593739e-003
,,,5.40000000e-009,-1.59374989e-003
,,,5.42500000e-009,-1.59999989e-003
,,,5.45000000e-009,-1.59999989e-003
,,,5.47500000e-009,-1.59062489e-003
,,,5.50000000e-009,-1.56874989e-003
,,,5.52500000e-009,-1.53593739e-003
,,,5.55000000e-009,-1.48906238e-003
,,,5.57500000e-009,-1.43124988e-003
,,,5.60000000e-009,-1.36249987e-003
,,,5.62500000e-009,-1.28437487e-003
,,,5.65000000e-009,-1.19999986e-003
,,,5.67500000e-009,-1.11562486e-003
,,,5.70000000e-009,-1.03124985e-003
,,,5.72500000e-009,-9.54687344e-004
,,,5.75000000e-009,-8.90624840e-004
,,,5.77500000e-009,-8.39062336e-004
,,,5.80000000e-009,-8.06249834e-004
