RawData/DifferentLengths/R3/R3_12pt5_5mV/wave022_Ch3.csv

"Record Length",1000,"Points",-7.72500000e-009,-3.09379846e-005
"Sample Interval",2.50000000e-011,s,-7.70000000e-009,-7.96923436e-006
"Trigger Point",309,"Samples",-7.67500000e-009,7.96826578e-006
"Trigger Time",1.10500752e-011,s,-7.65000000e-009,1.49995158e-005
"",,,-7.62500000e-009,1.26557658e-005
"Horizontal Offset",-7.72500000e-009,s,-7.60000000e-009,-4.84287738e-010
,,,-7.57500000e-009,-2.29692345e-005
,,,-7.55000000e-009,-5.29692347e-005
,,,-7.52500000e-009,-8.76567350e-005
,,,-7.50000000e-009,-1.24687985e-004
,,,-7.47500000e-009,-1.61250486e-004
,,,-7.45000000e-009,-1.94062986e-004
,,,-7.42500000e-009,-2.21250486e-004
,,,-7.40000000e-009,-2.40000486e-004
,,,-7.37500000e-009,-2.48437986e-004
,,,-7.35000000e-009,-2.47031736e-004
,,,-7.32500000e-009,-2.36250486e-004
,,,-7.30000000e-009,-2.18437986e-004
,,,-7.27500000e-009,-1.95937986e-004
,,,-7.25000000e-009,-1.70625486e-004
,,,-7.22500000e-009,-1.44844236e-004
,,,-7.20000000e-009,-1.20000485e-004
,,,-7.17500000e-009,-9.79692351e-005
,,,-7.15000000e-009,-7.92192350e-005
,,,-7.12500000e-009,-6.32817348e-005
,,,-7.10000000e-009,-4.96879847e-005
,,,-7.07500000e-009,-3.79692346e-005
,,,-7.05000000e-009,-2.67192345e-005
,,,-7.02500000e-009,-1.40629844e-005
,,,-7.00000000e-009,-4.84287738e-010
,,,-6.97500000e-009,1.45307658e-005
,,,-6.95000000e-009,3.14057660e-005
,,,-6.92500000e-009,4.92182661e-005
,,,-6.90000000e-009,6.74995163e-005
,,,-6.87500000e-009,8.48432664e-005
,,,-6.85000000e-009,9.98432666e-005
,,,-6.82500000e-009,1.11562017e-004
,,,-6.80000000e-009,1.19999517e-004
,,,-6.77500000e-009,1.21874517e-004
,,,-6.75000000e-009,1.20468267e-004
,,,-6.72500000e-009,1.16718267e-004
,,,-6.70000000e-009,1.12499517e-004
,,,-6.67500000e-009,1.09218267e-004
,,,-6.65000000e-009,1.08749517e-004
,,,-6.62500000e-009,1.12030767e-004
,,,-6.60000000e-009,1.19999517e-004
,,,-6.57500000e-009,1.30312017e-004
,,,-6.55000000e-009,1.44374517e-004
,,,-6.52500000e-009,1.61718267e-004
,,,-6.50000000e-009,1.80468267e-004
,,,-6.47500000e-009,1.99687017e-004
,,,-6.45000000e-009,2.17030768e-004
,,,-6.42500000e-009,2.30624518e-004
,,,-6.40000000e-009,2.39999518e-004
,,,-6.37500000e-009,2.39062018e-004
,,,-6.35000000e-009,2.32499518e-004
,,,-6.32500000e-009,2.20312018e-004
,,,-6.30000000e-009,2.04374517e-004
,,,-6.27500000e-009,1.84687017e-004
,,,-6.25000000e-009,1.63593267e-004
,,,-6.22500000e-009,1.41562017e-004
,,,-6.20000000e-009,1.19999517e-004
,,,-6.17500000e-009,9.70307666e-005
,,,-6.15000000e-009,7.64057664e-005
,,,-6.12500000e-009,5.85932662e-005
,,,-6.10000000e-009,4.31245161e-005
,,,-6.07500000e-009,3.04682660e-005
,,,-6.05000000e-009,1.92182659e-005
,,,-6.02500000e-009,9.37451579e-006
,,,-6.00000000e-009,-4.84287738e-010
,,,-5.97500000e-009,-1.12504844e-005
,,,-5.95000000e-009,-2.29692345e-005
,,,-5.92500000e-009,-3.60942346e-005
,,,-5.90000000e-009,-5.06254847e-005
,,,-5.87500000e-009,-6.60942349e-005
,,,-5.85000000e-009,-8.34379850e-005
,,,-5.82500000e-009,-1.01250485e-004
,,,-5.80000000e-009,-1.20000485e-004
,,,-5.77500000e-009,-1.38750485e-004
,,,-5.75000000e-009,-1.57031736e-004
,,,-5.72500000e-009,-1.75312986e-004
,,,-5.70000000e-009,-1.91719236e-004
,,,-5.67500000e-009,-2.07187986e-004
,,,-5.65000000e-009,-2.20781736e-004
,,,-5.62500000e-009,-2.31562986e-004
,,,-5.60000000e-009,-2.40000486e-004
,,,-5.57500000e-009,-2.44687986e-004
,,,-5.55000000e-009,-2.47500486e-004
,,,-5.52500000e-009,-2.48437986e-004
,,,-5.50000000e-009,-2.47969236e-004
,,,-5.47500000e-009,-2.46562986e-004
,,,-5.45000000e-009,-2.44687986e-004
,,,-5.42500000e-009,-2.42344236e-004
,,,-5.40000000e-009,-2.40000486e-004
,,,-5.37500000e-009,-2.35781736e-004
,,,-5.35000000e-009,-2.32031736e-004
,,,-5.32500000e-009,-2.30156736e-004
,,,-5.30000000e-009,-2.29219236e-004
,,,-5.27500000e-009,-2.30625486e-004
,,,-5.25000000e-009,-2.32969236e-004
,,,-5.22500000e-009,-2.36250486e-004
,,,-5.20000000e-009,-2.40000486e-004
,,,-5.17500000e-009,-2.40937986e-004
,,,-5.15000000e-009,-2.41406736e-004
,,,-5.12500000e-009,-2.41406736e-004
,,,-5.10000000e-009,-2.41875486e-004
,,,-5.07500000e-009,-2.41875486e-004
,,,-5.05000000e-009,-2.41406736e-004
,,,-5.02500000e-009,-2.40937986e-004
,,,-5.00000000e-009,-2.40000486e-004
,,,-4.97500000e-009,-2.37187986e-004
,,,-4.95000000e-009,-2.34375486e-004
,,,-4.92500000e-009,-2.32031736e-004
,,,-4.90000000e-009,-2.31094236e-004
,,,-4.87500000e-009,-2.31094236e-004
,,,-4.85000000e-009,-2.32969236e-004
,,,-4.82500000e-009,-2.35781736e-004
,,,-4.80000000e-009,-2.40000486e-004
,,,-4.77500000e-009,-2.42344236e-004
,,,-4.75000000e-009,-2.44219236e-004
,,,-4.72500000e-009,-2.46094236e-004
,,,-4.70000000e-009,-2.47969236e-004
,,,-4.67500000e-009,-2.48437986e-004
,,,-4.65000000e-009,-2.47969236e-004
,,,-4.62500000e-009,-2.45625486e-004
,,,-4.60000000e-009,-2.40000486e-004
,,,-4.57500000e-009,-2.29219236e-004
,,,-4.55000000e-009,-2.13750486e-004
,,,-4.52500000e-009,-1.92187986e-004
,,,-4.50000000e-009,-1.65469236e-004
,,,-4.47500000e-009,-1.32187985e-004
,,,-4.45000000e-009,-9.28129851e-005
,,,-4.42500000e-009,-4.82817347e-005
,,,-4.40000000e-009,-4.84287738e-010
,,,-4.37500000e-009,4.87495161e-005
,,,-4.35000000e-009,9.65620166e-005
,,,-4.32500000e-009,1.41562017e-004
,,,-4.30000000e-009,1.79999517e-004
,,,-4.27500000e-009,2.10937018e-004
,,,-4.25000000e-009,2.31562018e-004
,,,-4.22500000e-009,2.41405768e-004
,,,-4.20000000e-009,2.39999518e-004
,,,-4.17500000e-009,2.24999518e-004
,,,-4.15000000e-009,2.02968267e-004
,,,-4.12500000e-009,1.77187017e-004
,,,-4.10000000e-009,1.51405767e-004
,,,-4.07500000e-009,1.29843267e-004
,,,-4.05000000e-009,1.15780767e-004
,,,-4.02500000e-009,1.12030767e-004
,,,-4.00000000e-009,1.19999517e-004
,,,-3.97500000e-009,1.37343267e-004
,,,-3.95000000e-009,1.65937017e-004
,,,-3.92500000e-009,2.02030767e-004
,,,-3.90000000e-009,2.41874518e-004
,,,-3.87500000e-009,2.82187018e-004
,,,-3.85000000e-009,3.17343268e-004
,,,-3.82500000e-009,3.44530769e-004
,,,-3.80000000e-009,3.59999519e-004
,,,-3.77500000e-009,3.57187019e-004
,,,-3.75000000e-009,3.41718269e-004
,,,-3.72500000e-009,3.14530768e-004
,,,-3.70000000e-009,2.79374518e-004
,,,-3.67500000e-009,2.38593268e-004
,,,-3.65000000e-009,1.96405767e-004
,,,-3.62500000e-009,1.55624517e-004
,,,-3.60000000e-009,1.19999517e-004
,,,-3.57500000e-009,8.71870165e-005
,,,-3.55000000e-009,6.18745163e-005
,,,-3.52500000e-009,4.40620161e-005
,,,-3.50000000e-009,3.23432660e-005
,,,-3.47500000e-009,2.39057659e-005
,,,-3.45000000e-009,1.68745159e-005
,,,-3.42500000e-009,9.37451579e-006
,,,-3.40000000e-009,-4.84287738e-010
,,,-3.37500000e-009,-1.40629844e-005
,,,-3.35000000e-009,-3.04692346e-005
,,,-3.32500000e-009,-4.96879847e-005
,,,-3.30000000e-009,-6.98442349e-005
,,,-3.27500000e-009,-8.90629851e-005
,,,-3.25000000e-009,-1.05000485e-004
,,,-3.22500000e-009,-1.15781735e-004
,,,-3.20000000e-009,-1.20000485e-004
,,,-3.17500000e-009,-1.15781735e-004
,,,-3.15000000e-009,-1.05000485e-004
,,,-3.12500000e-009,-8.90629851e-005
,,,-3.10000000e-009,-6.98442349e-005
,,,-3.07500000e-009,-4.92192347e-005
,,,-3.05000000e-009,-2.90629845e-005
,,,-3.02500000e-009,-1.21879844e-005
,,,-3.00000000e-009,-4.84287738e-010
,,,-2.97500000e-009,6.56201577e-006
,,,-2.95000000e-009,6.09326577e-006
,,,-2.92500000e-009,-1.40673430e-006
,,,-2.90000000e-009,-1.59379844e-005
,,,-2.87500000e-009,-3.65629846e-005
,,,-2.85000000e-009,-6.18754848e-005
,,,-2.82500000e-009,-9.04692351e-005
,,,-2.80000000e-009,-1.20000485e-004
,,,-2.77500000e-009,-1.47187986e-004
,,,-2.75000000e-009,-1.72500486e-004
,,,-2.72500000e-009,-1.95000486e-004
,,,-2.70000000e-009,-2.13750486e-004
,,,-2.67500000e-009,-2.28281736e-004
,,,-2.65000000e-009,-2.37656736e-004
,,,-2.62500000e-009,-2.41406736e-004
,,,-2.60000000e-009,-2.40000486e-004
,,,-2.57500000e-009,-2.31562986e-004
,,,-2.55000000e-009,-2.19375486e-004
,,,-2.52500000e-009,-2.03906736e-004
,,,-2.50000000e-009,-1.87500486e-004
,,,-2.47500000e-009,-1.69687986e-004
,,,-2.45000000e-009,-1.52344236e-004
,,,-2.42500000e-009,-1.35937985e-004
,,,-2.40000000e-009,-1.20000485e-004
,,,-2.37500000e-009,-1.05000485e-004
,,,-2.35000000e-009,-9.09379851e-005
,,,-2.32500000e-009,-7.78129850e-005
,,,-2.30000000e-009,-6.46879849e-005
,,,-2.27500000e-009,-5.10942347e-005
,,,-2.25000000e-009,-3.60942346e-005
,,,-2.22500000e-009,-1.92192345e-005
,,,-2.20000000e-009,-4.84287738e-010
,,,-2.17500000e-009,1.92182659e-005
,,,-2.15000000e-009,3.93745161e-005
,,,-2.12500000e-009,5.95307662e-005
,,,-2.10000000e-009,7.87495164e-005
,,,-2.07500000e-009,9.51557665e-005
,,,-2.05000000e-009,1.08280767e-004
,,,-2.02500000e-009,1.16718267e-004
,,,-2.00000000e-009,1.19999517e-004
,,,-1.97500000e-009,1.15312017e-004
,,,-1.95000000e-009,1.05937017e-004
,,,-1.92500000e-009,9.14057665e-005
,,,-1.90000000e-009,7.40620164e-005
,,,-1.87500000e-009,5.43745162e-005
,,,-1.85000000e-009,3.46870160e-005
,,,-1.82500000e-009,1.59370159e-005
,,,-1.80000000e-009,-4.84287738e-010
,,,-1.77500000e-009,-1.54692344e-005
,,,-1.75000000e-009,-2.67192345e-005
,,,-1.72500000e-009,-3.32817346e-005
,,,-1.70000000e-009,-3.46879846e-005
,,,-1.67500000e-009,-3.14067346e-005
,,,-1.65000000e-009,-2.39067345e-005
,,,-1.62500000e-009,-1.31254844e-005
,,,-1.60000000e-009,-4.84287738e-010
,,,-1.57500000e-009,6.56201577e-006
,,,-1.55000000e-009,1.21870158e-005
,,,-1.52500000e-009,1.59370159e-005
,,,-1.50000000e-009,1.73432659e-005
,,,-1.47500000e-009,1.64057659e-005
,,,-1.45000000e-009,1.31245158e-005
,,,-1.42500000e-009,7.49951578e-006
,,,-1.40000000e-009,-4.84287738e-010
,,,-1.37500000e-009,-2.10942345e-005
,,,-1.35000000e-009,-4.45317347e-005
,,,-1.32500000e-009,-6.79692349e-005
,,,-1.30000000e-009,-8.95317351e-005
,,,-1.27500000e-009,-1.06875485e-004
,,,-1.25000000e-009,-1.18594235e-004
,,,-1.22500000e-009,-1.22812985e-004
,,,-1.20000000e-009,-1.20000485e-004
,,,-1.17500000e-009,-1.28906735e-004
,,,-1.15000000e-009,-1.35000485e-004
,,,-1.12500000e-009,-1.38281735e-004
,,,-1.10000000e-009,-1.38281735e-004
,,,-1.07500000e-009,-1.35937985e-004
,,,-1.05000000e-009,-1.30781735e-004
,,,-1.02500000e-009,-1.25156735e-004
,,,-1.00000000e-009,-1.20000485e-004
,,,-9.75000000e-010,-1.41562986e-004
,,,-9.50000000e-010,-1.71562986e-004
,,,-9.25000000e-010,-2.09531736e-004
,,,-9.00000000e-010,-2.54531737e-004
,,,-8.75000000e-010,-3.05625487e-004
,,,-8.50000000e-010,-3.60937987e-004
,,,-8.25000000e-010,-4.19062988e-004
,,,-8.00000000e-010,-4.80000488e-004
,,,-7.75000000e-010,-5.68125489e-004
,,,-7.50000000e-010,-6.60937990e-004
,,,-7.25000000e-010,-7.56094241e-004
,,,-7.00000000e-010,-8.51250492e-004
,,,-6.75000000e-010,-9.44062992e-004
,,,-6.50000000e-010,-1.03312549e-003
,,,-6.25000000e-010,-1.11796924e-003
,,,-6.00000000e-010,-1.20000049e-003
,,,-5.75000000e-010,-1.30171925e-003
,,,-5.50000000e-010,-1.41000050e-003
,,,-5.25000000e-010,-1.52625050e-003
,,,-5.00000000e-010,-1.65281300e-003
,,,-4.75000000e-010,-1.79062550e-003
,,,-4.50000000e-010,-1.94062550e-003
,,,-4.25000000e-010,-2.10375050e-003
,,,-4.00000000e-010,-2.28000050e-003
,,,-3.75000000e-010,-2.47921926e-003
,,,-3.50000000e-010,-2.69156301e-003
,,,-3.25000000e-010,-2.91234426e-003
,,,-3.00000000e-010,-3.13687551e-003
,,,-2.75000000e-010,-3.35859426e-003
,,,-2.50000000e-010,-3.57281302e-003
,,,-2.25000000e-010,-3.77437552e-003
,,,-2.00000000e-010,-3.96000052e-003
,,,-1.75000000e-010,-4.12312552e-003
,,,-1.50000000e-010,-4.27312552e-003
,,,-1.25000000e-010,-4.41234427e-003
,,,-1.00000000e-010,-4.54312552e-003
,,,-7.50000000e-011,-4.66921927e-003
,,,-5.00000000e-011,-4.79250053e-003
,,,-2.50000000e-011,-4.91531303e-003
,,,0.00000000e+000,-5.04000053e-003
,,,2.50000000e-011,-5.15156303e-003
,,,5.00000000e-011,-5.27015678e-003
,,,7.50000000e-011,-5.39531303e-003
,,,1.00000000e-010,-5.52468803e-003
,,,1.25000000e-010,-5.65406303e-003
,,,1.50000000e-010,-5.77921928e-003
,,,1.75000000e-010,-5.89593804e-003
,,,2.00000000e-010,-6.00000054e-003
,,,2.25000000e-010,-6.06468804e-003
,,,2.50000000e-010,-6.11953179e-003
,,,2.75000000e-010,-6.16640679e-003
,,,3.00000000e-010,-6.20859429e-003
,,,3.25000000e-010,-6.24750054e-003
,,,3.50000000e-010,-6.28500054e-003
,,,3.75000000e-010,-6.32250054e-003
,,,4.00000000e-010,-6.36000054e-003
,,,4.25000000e-010,-6.36937554e-003
,,,4.50000000e-010,-6.38250054e-003
,,,4.75000000e-010,-6.40078179e-003
,,,5.00000000e-010,-6.42187554e-003
,,,5.25000000e-010,-6.44343804e-003
,,,5.50000000e-010,-6.46218804e-003
,,,5.75000000e-010,-6.47578179e-003
,,,6.00000000e-010,-6.48000054e-003
,,,6.25000000e-010,-6.44484429e-003
,,,6.50000000e-010,-6.40265679e-003
,,,6.75000000e-010,-6.35484429e-003
,,,7.00000000e-010,-6.30468804e-003
,,,7.25000000e-010,-6.25453179e-003
,,,7.50000000e-010,-6.20625054e-003
,,,7.75000000e-010,-6.16125054e-003
,,,8.00000000e-010,-6.12000054e-003
,,,8.25000000e-010,-6.06046929e-003
,,,8.50000000e-010,-6.00562554e-003
,,,8.75000000e-010,-5.95687554e-003
,,,9.00000000e-010,-5.91281304e-003
,,,9.25000000e-010,-5.87296929e-003
,,,9.50000000e-010,-5.83546929e-003
,,,9.75000000e-010,-5.79890678e-003
,,,1.00000000e-009,-5.76000053e-003
,,,1.02500000e-009,-5.69859428e-003
,,,1.05000000e-009,-5.63062553e-003
,,,1.07500000e-009,-5.55796928e-003
,,,1.10000000e-009,-5.48109428e-003
,,,1.12500000e-009,-5.40140678e-003
,,,1.15000000e-009,-5.32078178e-003
,,,1.17500000e-009,-5.24015678e-003
,,,1.20000000e-009,-5.16000053e-003
,,,1.22500000e-009,-5.06765678e-003
,,,1.25000000e-009,-4.97343803e-003
,,,1.27500000e-009,-4.87921928e-003
,,,1.30000000e-009,-4.78640678e-003
,,,1.32500000e-009,-4.69546928e-003
,,,1.35000000e-009,-4.60734427e-003
,,,1.37500000e-009,-4.52250052e-003
,,,1.40000000e-009,-4.44000052e-003
,,,1.42500000e-009,-4.35281302e-003
,,,1.45000000e-009,-4.26328177e-003
,,,1.47500000e-009,-4.17234427e-003
,,,1.50000000e-009,-4.08046927e-003
,,,1.52500000e-009,-3.98859427e-003
,,,1.55000000e-009,-3.89765677e-003
,,,1.57500000e-009,-3.80812552e-003
,,,1.60000000e-009,-3.72000052e-003
,,,1.62500000e-009,-3.63281302e-003
,,,1.65000000e-009,-3.54328177e-003
,,,1.67500000e-009,-3.45187551e-003
,,,1.70000000e-009,-3.35906301e-003
,,,1.72500000e-009,-3.26671926e-003
,,,1.75000000e-009,-3.17578176e-003
,,,1.77500000e-009,-3.08671926e-003
,,,1.80000000e-009,-3.00000051e-003
,,,1.82500000e-009,-2.91796926e-003
,,,1.85000000e-009,-2.83312551e-003
,,,1.87500000e-009,-2.74546926e-003
,,,1.90000000e-009,-2.65546926e-003
,,,1.92500000e-009,-2.56312551e-003
,,,1.95000000e-009,-2.46937551e-003
,,,1.97500000e-009,-2.37468800e-003
,,,2.00000000e-009,-2.28000050e-003
,,,2.02500000e-009,-2.19328175e-003
,,,2.05000000e-009,-2.10281300e-003
,,,2.07500000e-009,-2.01000050e-003
,,,2.10000000e-009,-1.91531300e-003
,,,2.12500000e-009,-1.82109425e-003
,,,2.15000000e-009,-1.72921925e-003
,,,2.17500000e-009,-1.64156300e-003
,,,2.20000000e-009,-1.56000050e-003
,,,2.22500000e-009,-1.49765675e-003
,,,2.25000000e-009,-1.43906300e-003
,,,2.27500000e-009,-1.38515675e-003
,,,2.30000000e-009,-1.33640675e-003
,,,2.32500000e-009,-1.29328175e-003
,,,2.35000000e-009,-1.25578175e-003
,,,2.37500000e-009,-1.22484424e-003
,,,2.40000000e-009,-1.20000049e-003
,,,2.42500000e-009,-1.19296924e-003
,,,2.45000000e-009,-1.18593799e-003
,,,2.47500000e-009,-1.17703174e-003
,,,2.50000000e-009,-1.16578174e-003
,,,2.52500000e-009,-1.15031299e-003
,,,2.55000000e-009,-1.13109424e-003
,,,2.57500000e-009,-1.10765674e-003
,,,2.60000000e-009,-1.08000049e-003
,,,2.62500000e-009,-1.05984424e-003
,,,2.65000000e-009,-1.03359424e-003
,,,2.67500000e-009,-1.00312549e-003
,,,2.70000000e-009,-9.69375493e-004
,,,2.72500000e-009,-9.33750492e-004
,,,2.75000000e-009,-8.99062992e-004
,,,2.77500000e-009,-8.67656742e-004
,,,2.80000000e-009,-8.40000492e-004
,,,2.82500000e-009,-8.28281741e-004
,,,2.85000000e-009,-8.20781741e-004
,,,2.87500000e-009,-8.17031741e-004
,,,2.90000000e-009,-8.16094241e-004
,,,2.92500000e-009,-8.18906741e-004
,,,2.95000000e-009,-8.24062991e-004
,,,2.97500000e-009,-8.31094242e-004
,,,3.00000000e-009,-8.40000492e-004
,,,3.02500000e-009,-8.56875492e-004
,,,3.05000000e-009,-8.72812992e-004
,,,3.07500000e-009,-8.87812992e-004
,,,3.10000000e-009,-9.01875492e-004
,,,3.12500000e-009,-9.15469242e-004
,,,3.15000000e-009,-9.29531742e-004
,,,3.17500000e-009,-9.44531742e-004
,,,3.20000000e-009,-9.60000493e-004
,,,3.22500000e-009,-9.78750493e-004
,,,3.25000000e-009,-9.97500493e-004
,,,3.27500000e-009,-1.01531299e-003
,,,3.30000000e-009,-1.03218799e-003
,,,3.32500000e-009,-1.04718799e-003
,,,3.35000000e-009,-1.06078174e-003
,,,3.37500000e-009,-1.07156299e-003
,,,3.40000000e-009,-1.08000049e-003
,,,3.42500000e-009,-1.08609424e-003
,,,3.45000000e-009,-1.08890674e-003
,,,3.47500000e-009,-1.08984424e-003
,,,3.50000000e-009,-1.08890674e-003
,,,3.52500000e-009,-1.08656299e-003
,,,3.55000000e-009,-1.08421924e-003
,,,3.57500000e-009,-1.08187549e-003
,,,3.60000000e-009,-1.08000049e-003
,,,3.62500000e-009,-1.07859424e-003
,,,3.65000000e-009,-1.07718799e-003
,,,3.67500000e-009,-1.07718799e-003
,,,3.70000000e-009,-1.07812549e-003
,,,3.72500000e-009,-1.07906299e-003
,,,3.75000000e-009,-1.08046924e-003
,,,3.77500000e-009,-1.08093799e-003
,,,3.80000000e-009,-1.08000049e-003
,,,3.82500000e-009,-1.07625049e-003
,,,3.85000000e-009,-1.06921924e-003
,,,3.87500000e-009,-1.05984424e-003
,,,3.90000000e-009,-1.04671924e-003
,,,3.92500000e-009,-1.03031299e-003
,,,3.95000000e-009,-1.01015674e-003
,,,3.97500000e-009,-9.86250493e-004
,,,4.00000000e-009,-9.60000493e-004
,,,4.02500000e-009,-9.31875492e-004
,,,4.05000000e-009,-9.04219242e-004
,,,4.07500000e-009,-8.78906742e-004
,,,4.10000000e-009,-8.57812992e-004
,,,4.12500000e-009,-8.42344242e-004
,,,4.15000000e-009,-8.33906742e-004
,,,4.17500000e-009,-8.33437992e-004
,,,4.20000000e-009,-8.40000492e-004
,,,4.22500000e-009,-8.54062992e-004
,,,4.25000000e-009,-8.72344242e-004
,,,4.27500000e-009,-8.93437992e-004
,,,4.30000000e-009,-9.15000492e-004
,,,4.32500000e-009,-9.34687992e-004
,,,4.35000000e-009,-9.49687993e-004
,,,4.37500000e-009,-9.58594243e-004
,,,4.40000000e-009,-9.60000493e-004
,,,4.42500000e-009,-9.53906743e-004
,,,4.45000000e-009,-9.40312992e-004
,,,4.47500000e-009,-9.21562992e-004
,,,4.50000000e-009,-9.00000492e-004
,,,4.52500000e-009,-8.78906742e-004
,,,4.55000000e-009,-8.60156742e-004
,,,4.57500000e-009,-8.46562992e-004
,,,4.60000000e-009,-8.40000492e-004
,,,4.62500000e-009,-8.40937992e-004
,,,4.65000000e-009,-8.48437992e-004
,,,4.67500000e-009,-8.62500492e-004
,,,4.70000000e-009,-8.81250492e-004
,,,4.72500000e-009,-9.02812992e-004
,,,4.75000000e-009,-9.24375492e-004
,,,4.77500000e-009,-9.44531742e-004
,,,4.80000000e-009,-9.60000493e-004
,,,4.82500000e-009,-9.67500493e-004
,,,4.85000000e-009,-9.67031743e-004
,,,4.87500000e-009,-9.59062993e-004
,,,4.90000000e-009,-9.43594242e-004
,,,4.92500000e-009,-9.22500492e-004
,,,4.95000000e-009,-8.97187992e-004
,,,4.97500000e-009,-8.69062992e-004
,,,5.00000000e-009,-8.40000492e-004
,,,5.02500000e-009,-8.10469241e-004
,,,5.05000000e-009,-7.82812991e-004
,,,5.07500000e-009,-7.58906741e-004
,,,5.10000000e-009,-7.40156741e-004
,,,5.12500000e-009,-7.27031741e-004
,,,5.15000000e-009,-7.19531741e-004
,,,5.17500000e-009,-7.17187991e-004
,,,5.20000000e-009,-7.20000491e-004
,,,5.22500000e-009,-7.24219241e-004
,,,5.25000000e-009,-7.29844241e-004
,,,5.27500000e-009,-7.35469241e-004
,,,5.30000000e-009,-7.39687991e-004
,,,5.32500000e-009,-7.41562991e-004
,,,5.35000000e-009,-7.39219241e-004
,,,5.37500000e-009,-7.32187991e-004
,,,5.40000000e-009,-7.20000491e-004
,,,5.42500000e-009,-7.00312990e-004
,,,5.45000000e-009,-6.74062990e-004
,,,5.47500000e-009,-6.44062990e-004
,,,5.50000000e-009,-6.10312990e-004
,,,5.52500000e-009,-5.75625489e-004
,,,5.55000000e-009,-5.41406739e-004
,,,5.57500000e-009,-5.09062989e-004
,,,5.60000000e-009,-4.80000488e-004
,,,5.62500000e-009,-4.54687988e-004
,,,5.65000000e-009,-4.33125488e-004
,,,5.67500000e-009,-4.15312988e-004
,,,5.70000000e-009,-4.00781738e-004
,,,5.72500000e-009,-3.89062988e-004
,,,5.75000000e-009,-3.78750488e-004
,,,5.77500000e-009,-3.69375487e-004
,,,5.80000000e-009,-3.60000487e-004
,,,5.82500000e-009,-3.50625487e-004
,,,5.85000000e-009,-3.38906737e-004
,,,5.87500000e-009,-3.25312987e-004
