RawData/WithScintilator/L7_2pt2A_15mV/wave000_Ch1.csv

"Record Length",1000,"Points",-7.72500000e-009,-2.35937479e-004
"Sample Interval",2.50000000e-011,s,-7.70000000e-009,-3.17187485e-004
"Trigger Point",309,"Samples",-7.67500000e-009,-3.99999991e-004
"Trigger Time",2.94376682e-012,s,-7.65000000e-009,-4.81249997e-004
"",,,-7.62500000e-009,-5.56250002e-004
"Horizontal Offset",-7.72500000e-009,s,-7.60000000e-009,-6.23437507e-004
,,,-7.57500000e-009,-6.81250011e-004
,,,-7.55000000e-009,-7.28125014e-004
,,,-7.52500000e-009,-7.64062517e-004
,,,-7.50000000e-009,-7.89062519e-004
,,,-7.47500000e-009,-8.00000019e-004
,,,-7.45000000e-009,-7.96875019e-004
,,,-7.42500000e-009,-7.79687518e-004
,,,-7.40000000e-009,-7.48437516e-004
,,,-7.37500000e-009,-7.03125013e-004
,,,-7.35000000e-009,-6.45312508e-004
,,,-7.32500000e-009,-5.73437503e-004
,,,-7.30000000e-009,-4.90624997e-004
,,,-7.27500000e-009,-3.99999991e-004
,,,-7.25000000e-009,-3.07812485e-004
,,,-7.22500000e-009,-2.15624978e-004
,,,-7.20000000e-009,-1.32812472e-004
,,,-7.17500000e-009,-6.40624673e-005
,,,-7.15000000e-009,-1.24999636e-005
,,,-7.12500000e-009,1.56250384e-005
,,,-7.10000000e-009,1.87500386e-005
,,,-7.07500000e-009,3.72529022e-011
,,,-7.05000000e-009,-4.68749661e-005
,,,-7.02500000e-009,-1.07812470e-004
,,,-7.00000000e-009,-1.78124975e-004
,,,-6.97500000e-009,-2.49999980e-004
,,,-6.95000000e-009,-3.15624985e-004
,,,-6.92500000e-009,-3.65624989e-004
,,,-6.90000000e-009,-3.95312491e-004
,,,-6.87500000e-009,-3.99999991e-004
,,,-6.85000000e-009,-3.79687490e-004
,,,-6.82500000e-009,-3.37499987e-004
,,,-6.80000000e-009,-2.78124982e-004
,,,-6.77500000e-009,-2.09374978e-004
,,,-6.75000000e-009,-1.40624973e-004
,,,-6.72500000e-009,-7.65624682e-005
,,,-6.70000000e-009,-2.81249647e-005
,,,-6.67500000e-009,3.72529022e-011
,,,-6.65000000e-009,1.56253736e-006
,,,-6.62500000e-009,-1.87499641e-005
,,,-6.60000000e-009,-6.09374671e-005
,,,-6.57500000e-009,-1.20312471e-004
,,,-6.55000000e-009,-1.90624976e-004
,,,-6.52500000e-009,-2.65624982e-004
,,,-6.50000000e-009,-3.37499987e-004
,,,-6.47500000e-009,-3.99999991e-004
,,,-6.45000000e-009,-4.49999995e-004
,,,-6.42500000e-009,-4.82812497e-004
,,,-6.40000000e-009,-4.98437498e-004
,,,-6.37500000e-009,-4.96874998e-004
,,,-6.35000000e-009,-4.81249997e-004
,,,-6.32500000e-009,-4.57812495e-004
,,,-6.30000000e-009,-4.29687493e-004
,,,-6.27500000e-009,-3.99999991e-004
,,,-6.25000000e-009,-3.73437489e-004
,,,-6.22500000e-009,-3.53124988e-004
,,,-6.20000000e-009,-3.40624987e-004
,,,-6.17500000e-009,-3.37499987e-004
,,,-6.15000000e-009,-3.43749987e-004
,,,-6.12500000e-009,-3.57812488e-004
,,,-6.10000000e-009,-3.76562489e-004
,,,-6.07500000e-009,-3.99999991e-004
,,,-6.05000000e-009,-4.21874993e-004
,,,-6.02500000e-009,-4.40624994e-004
,,,-6.00000000e-009,-4.56249995e-004
,,,-5.97500000e-009,-4.64062496e-004
,,,-5.95000000e-009,-4.64062496e-004
,,,-5.92500000e-009,-4.53124995e-004
,,,-5.90000000e-009,-4.32812493e-004
,,,-5.87500000e-009,-3.99999991e-004
,,,-5.85000000e-009,-3.59374988e-004
,,,-5.82500000e-009,-3.10937485e-004
,,,-5.80000000e-009,-2.57812481e-004
,,,-5.77500000e-009,-2.01562477e-004
,,,-5.75000000e-009,-1.43749973e-004
,,,-5.72500000e-009,-9.06249692e-005
,,,-5.70000000e-009,-4.21874657e-005
,,,-5.67500000e-009,3.72529022e-011
,,,-5.65000000e-009,3.12500395e-005
,,,-5.62500000e-009,5.15625409e-005
,,,-5.60000000e-009,6.25000417e-005
,,,-5.57500000e-009,6.25000417e-005
,,,-5.55000000e-009,5.46875411e-005
,,,-5.52500000e-009,3.90625400e-005
,,,-5.50000000e-009,2.03125387e-005
,,,-5.47500000e-009,3.72529022e-011
,,,-5.45000000e-009,-2.18749643e-005
,,,-5.42500000e-009,-4.06249656e-005
,,,-5.40000000e-009,-5.31249665e-005
,,,-5.37500000e-009,-5.78124668e-005
,,,-5.35000000e-009,-5.46874666e-005
,,,-5.32500000e-009,-4.21874657e-005
,,,-5.30000000e-009,-2.49999645e-005
,,,-5.27500000e-009,3.72529022e-011
,,,-5.25000000e-009,2.18750388e-005
,,,-5.22500000e-009,4.37500403e-005
,,,-5.20000000e-009,6.25000417e-005
,,,-5.17500000e-009,7.34375425e-005
,,,-5.15000000e-009,7.34375425e-005
,,,-5.12500000e-009,6.25000417e-005
,,,-5.10000000e-009,3.75000399e-005
,,,-5.07500000e-009,3.72529022e-011
,,,-5.05000000e-009,-5.46874666e-005
,,,-5.02500000e-009,-1.15624971e-004
,,,-5.00000000e-009,-1.81249976e-004
,,,-4.97500000e-009,-2.46874980e-004
,,,-4.95000000e-009,-3.06249984e-004
,,,-4.92500000e-009,-3.53124988e-004
,,,-4.90000000e-009,-3.85937490e-004
,,,-4.87500000e-009,-3.99999991e-004
,,,-4.85000000e-009,-3.93749991e-004
,,,-4.82500000e-009,-3.67187489e-004
,,,-4.80000000e-009,-3.23437486e-004
,,,-4.77500000e-009,-2.65624982e-004
,,,-4.75000000e-009,-1.99999977e-004
,,,-4.72500000e-009,-1.29687472e-004
,,,-4.70000000e-009,-6.24999672e-005
,,,-4.67500000e-009,3.72529022e-011
,,,-4.65000000e-009,4.68750406e-005
,,,-4.62500000e-009,8.12500430e-005
,,,-4.60000000e-009,1.00000044e-004
,,,-4.57500000e-009,1.03125045e-004
,,,-4.55000000e-009,9.37500439e-005
,,,-4.52500000e-009,7.03125422e-005
,,,-4.50000000e-009,3.90625400e-005
,,,-4.47500000e-009,3.72529022e-011
,,,-4.45000000e-009,-4.68749661e-005
,,,-4.42500000e-009,-9.68749696e-005
,,,-4.40000000e-009,-1.48437473e-004
,,,-4.37500000e-009,-1.99999977e-004
,,,-4.35000000e-009,-2.53124981e-004
,,,-4.32500000e-009,-3.04687484e-004
,,,-4.30000000e-009,-3.54687488e-004
,,,-4.27500000e-009,-3.99999991e-004
,,,-4.25000000e-009,-4.40624994e-004
,,,-4.22500000e-009,-4.71874996e-004
,,,-4.20000000e-009,-4.95312498e-004
,,,-4.17500000e-009,-5.04687498e-004
,,,-4.15000000e-009,-5.01562498e-004
,,,-4.12500000e-009,-4.82812497e-004
,,,-4.10000000e-009,-4.48437494e-004
,,,-4.07500000e-009,-3.99999991e-004
,,,-4.05000000e-009,-3.39062487e-004
,,,-4.02500000e-009,-2.71874982e-004
,,,-4.00000000e-009,-2.01562477e-004
,,,-3.97500000e-009,-1.35937472e-004
,,,-3.95000000e-009,-7.81249683e-005
,,,-3.92500000e-009,-3.43749652e-005
,,,-3.90000000e-009,-7.81246330e-006
,,,-3.87500000e-009,3.72529022e-011
,,,-3.85000000e-009,-1.87499641e-005
,,,-3.82500000e-009,-5.62499667e-005
,,,-3.80000000e-009,-1.07812470e-004
,,,-3.77500000e-009,-1.68749975e-004
,,,-3.75000000e-009,-2.32812479e-004
,,,-3.72500000e-009,-2.96874984e-004
,,,-3.70000000e-009,-3.54687488e-004
,,,-3.67500000e-009,-3.99999991e-004
,,,-3.65000000e-009,-4.32812493e-004
,,,-3.62500000e-009,-4.49999995e-004
,,,-3.60000000e-009,-4.54687495e-004
,,,-3.57500000e-009,-4.49999995e-004
,,,-3.55000000e-009,-4.39062494e-004
,,,-3.52500000e-009,-4.24999993e-004
,,,-3.50000000e-009,-4.10937492e-004
,,,-3.47500000e-009,-3.99999991e-004
,,,-3.45000000e-009,-3.95312491e-004
,,,-3.42500000e-009,-3.95312491e-004
,,,-3.40000000e-009,-3.99999991e-004
,,,-3.37500000e-009,-4.07812492e-004
,,,-3.35000000e-009,-4.14062492e-004
,,,-3.32500000e-009,-4.15624992e-004
,,,-3.30000000e-009,-4.10937492e-004
,,,-3.27500000e-009,-3.99999991e-004
,,,-3.25000000e-009,-3.82812490e-004
,,,-3.22500000e-009,-3.59374988e-004
,,,-3.20000000e-009,-3.37499987e-004
,,,-3.17500000e-009,-3.21874986e-004
,,,-3.15000000e-009,-3.17187485e-004
,,,-3.12500000e-009,-3.26562486e-004
,,,-3.10000000e-009,-3.54687488e-004
,,,-3.07500000e-009,-3.99999991e-004
,,,-3.05000000e-009,-4.62499995e-004
,,,-3.02500000e-009,-5.32812500e-004
,,,-3.00000000e-009,-6.09375006e-004
,,,-2.97500000e-009,-6.82812511e-004
,,,-2.95000000e-009,-7.43750015e-004
,,,-2.92500000e-009,-7.87500018e-004
,,,-2.90000000e-009,-8.07812520e-004
,,,-2.87500000e-009,-8.00000019e-004
,,,-2.85000000e-009,-7.62500017e-004
,,,-2.82500000e-009,-7.04687513e-004
,,,-2.80000000e-009,-6.34375008e-004
,,,-2.77500000e-009,-5.59375002e-004
,,,-2.75000000e-009,-4.90624997e-004
,,,-2.72500000e-009,-4.35937494e-004
,,,-2.70000000e-009,-4.04687491e-004
,,,-2.67500000e-009,-3.99999991e-004
,,,-2.65000000e-009,-4.24999993e-004
,,,-2.62500000e-009,-4.73437496e-004
,,,-2.60000000e-009,-5.40625001e-004
,,,-2.57500000e-009,-6.15625006e-004
,,,-2.55000000e-009,-6.90625012e-004
,,,-2.52500000e-009,-7.51562516e-004
,,,-2.50000000e-009,-7.90625019e-004
,,,-2.47500000e-009,-8.00000019e-004
,,,-2.45000000e-009,-7.75000018e-004
,,,-2.42500000e-009,-7.15625013e-004
,,,-2.40000000e-009,-6.25000007e-004
,,,-2.37500000e-009,-5.12499999e-004
,,,-2.35000000e-009,-3.82812490e-004
,,,-2.32500000e-009,-2.48437480e-004
,,,-2.30000000e-009,-1.18749971e-004
,,,-2.27500000e-009,3.72529022e-011
,,,-2.25000000e-009,8.90625436e-005
,,,-2.22500000e-009,1.51562548e-004
,,,-2.20000000e-009,1.85937550e-004
,,,-2.17500000e-009,1.90625051e-004
,,,-2.15000000e-009,1.68750049e-004
,,,-2.12500000e-009,1.26562546e-004
,,,-2.10000000e-009,6.87500421e-005
,,,-2.07500000e-009,3.72529022e-011
,,,-2.05000000e-009,-8.28124686e-005
,,,-2.02500000e-009,-1.64062474e-004
,,,-2.00000000e-009,-2.39062480e-004
,,,-1.97500000e-009,-3.01562484e-004
,,,-1.95000000e-009,-3.49999988e-004
,,,-1.92500000e-009,-3.82812490e-004
,,,-1.90000000e-009,-3.99999991e-004
,,,-1.87500000e-009,-3.99999991e-004
,,,-1.85000000e-009,-4.01562491e-004
,,,-1.82500000e-009,-3.93749991e-004
,,,-1.80000000e-009,-3.84374990e-004
,,,-1.77500000e-009,-3.73437489e-004
,,,-1.75000000e-009,-3.67187489e-004
,,,-1.72500000e-009,-3.68749989e-004
,,,-1.70000000e-009,-3.78124990e-004
,,,-1.67500000e-009,-3.99999991e-004
,,,-1.65000000e-009,-4.51562495e-004
,,,-1.62500000e-009,-5.12499999e-004
,,,-1.60000000e-009,-5.81250004e-004
,,,-1.57500000e-009,-6.48437509e-004
,,,-1.55000000e-009,-7.09375013e-004
,,,-1.52500000e-009,-7.57812516e-004
,,,-1.50000000e-009,-7.89062519e-004
,,,-1.47500000e-009,-8.00000019e-004
,,,-1.45000000e-009,-8.23437521e-004
,,,-1.42500000e-009,-8.32812522e-004
,,,-1.40000000e-009,-8.31250022e-004
,,,-1.37500000e-009,-8.23437521e-004
,,,-1.35000000e-009,-8.10937520e-004
,,,-1.32500000e-009,-8.00000019e-004
,,,-1.30000000e-009,-7.95312519e-004
,,,-1.27500000e-009,-8.00000019e-004
,,,-1.25000000e-009,-8.64062524e-004
,,,-1.22500000e-009,-9.51562530e-004
,,,-1.20000000e-009,-1.05625004e-003
,,,-1.17500000e-009,-1.17187505e-003
,,,-1.15000000e-009,-1.29218755e-003
,,,-1.12500000e-009,-1.40625006e-003
,,,-1.10000000e-009,-1.51093757e-003
,,,-1.07500000e-009,-1.60000008e-003
,,,-1.05000000e-009,-1.72812509e-003
,,,-1.02500000e-009,-1.85000009e-003
,,,-1.00000000e-009,-1.96250010e-003
,,,-9.75000000e-010,-2.06718761e-003
,,,-9.50000000e-010,-2.16093762e-003
,,,-9.25000000e-010,-2.24531262e-003
,,,-9.00000000e-010,-2.32343763e-003
,,,-8.75000000e-010,-2.40000013e-003
,,,-8.50000000e-010,-2.54375014e-003
,,,-8.25000000e-010,-2.70937515e-003
,,,-8.00000000e-010,-2.89375017e-003
,,,-7.75000000e-010,-3.09531268e-003
,,,-7.50000000e-010,-3.30937520e-003
,,,-7.25000000e-010,-3.53281271e-003
,,,-7.00000000e-010,-3.76250023e-003
,,,-6.75000000e-010,-4.00000025e-003
,,,-6.50000000e-010,-4.30156277e-003
,,,-6.25000000e-010,-4.62343779e-003
,,,-6.00000000e-010,-4.96250031e-003
,,,-5.75000000e-010,-5.31562534e-003
,,,-5.50000000e-010,-5.67812536e-003
,,,-5.25000000e-010,-6.04687539e-003
,,,-5.00000000e-010,-6.42187542e-003
,,,-4.75000000e-010,-6.80000044e-003
,,,-4.50000000e-010,-7.21093797e-003
,,,-4.25000000e-010,-7.63906300e-003
,,,-4.00000000e-010,-8.07968803e-003
,,,-3.75000000e-010,-8.53281307e-003
,,,-3.50000000e-010,-8.99531310e-003
,,,-3.25000000e-010,-9.46250063e-003
,,,-3.00000000e-010,-9.93125067e-003
,,,-2.75000000e-010,-1.04000007e-002
,,,-2.50000000e-010,-1.08500007e-002
,,,-2.25000000e-010,-1.13046883e-002
,,,-2.00000000e-010,-1.17625008e-002
,,,-1.75000000e-010,-1.22203133e-002
,,,-1.50000000e-010,-1.26781259e-002
,,,-1.25000000e-010,-1.31281259e-002
,,,-1.00000000e-010,-1.35703134e-002
,,,-7.50000000e-011,-1.40000010e-002
,,,-5.00000000e-011,-1.43562510e-002
,,,-2.50000000e-011,-1.47062510e-002
,,,0.00000000e+000,-1.50546885e-002
,,,2.50000000e-011,-1.54031261e-002
,,,5.00000000e-011,-1.57546886e-002
,,,7.50000000e-011,-1.61062511e-002
,,,1.00000000e-010,-1.64562511e-002
,,,1.25000000e-010,-1.68000012e-002
,,,1.50000000e-010,-1.70421887e-002
,,,1.75000000e-010,-1.72781262e-002
,,,2.00000000e-010,-1.75062512e-002
,,,2.25000000e-010,-1.77250012e-002
,,,2.50000000e-010,-1.79312512e-002
,,,2.75000000e-010,-1.81156262e-002
,,,3.00000000e-010,-1.82750013e-002
,,,3.25000000e-010,-1.84000013e-002
,,,3.50000000e-010,-1.83781263e-002
,,,3.75000000e-010,-1.83218763e-002
,,,4.00000000e-010,-1.82421888e-002
,,,4.25000000e-010,-1.81421887e-002
,,,4.50000000e-010,-1.80265637e-002
,,,4.75000000e-010,-1.78984387e-002
,,,5.00000000e-010,-1.77562512e-002
,,,5.25000000e-010,-1.76000012e-002
,,,5.50000000e-010,-1.73312512e-002
,,,5.75000000e-010,-1.70500012e-002
,,,6.00000000e-010,-1.67625011e-002
,,,6.25000000e-010,-1.64687511e-002
,,,6.50000000e-010,-1.61671886e-002
,,,6.75000000e-010,-1.58578136e-002
,,,7.00000000e-010,-1.55359386e-002
,,,7.25000000e-010,-1.52000010e-002
,,,7.50000000e-010,-1.47843760e-002
,,,7.75000000e-010,-1.43593760e-002
,,,8.00000000e-010,-1.39328134e-002
,,,8.25000000e-010,-1.35109384e-002
,,,8.50000000e-010,-1.31031259e-002
,,,8.75000000e-010,-1.27125009e-002
,,,9.00000000e-010,-1.23437508e-002
,,,9.25000000e-010,-1.20000008e-002
,,,9.50000000e-010,-1.16531258e-002
,,,9.75000000e-010,-1.13234383e-002
,,,1.00000000e-009,-1.10109382e-002
,,,1.02500000e-009,-1.07125007e-002
,,,1.05000000e-009,-1.04265632e-002
,,,1.07500000e-009,-1.01484382e-002
,,,1.10000000e-009,-9.87343816e-003
,,,1.12500000e-009,-9.60000064e-003
,,,1.15000000e-009,-9.32343812e-003
,,,1.17500000e-009,-9.03281310e-003
,,,1.20000000e-009,-8.72812558e-003
,,,1.22500000e-009,-8.41562556e-003
,,,1.25000000e-009,-8.10000054e-003
,,,1.27500000e-009,-7.78750051e-003
,,,1.30000000e-009,-7.48593799e-003
,,,1.32500000e-009,-7.20000047e-003
,,,1.35000000e-009,-6.96093796e-003
,,,1.37500000e-009,-6.72812544e-003
,,,1.40000000e-009,-6.50625042e-003
,,,1.42500000e-009,-6.29531291e-003
,,,1.45000000e-009,-6.09843789e-003
,,,1.47500000e-009,-5.91562538e-003
,,,1.50000000e-009,-5.75000037e-003
,,,1.52500000e-009,-5.60000036e-003
,,,1.55000000e-009,-5.50781285e-003
,,,1.57500000e-009,-5.41406285e-003
,,,1.60000000e-009,-5.31875034e-003
,,,1.62500000e-009,-5.21875033e-003
,,,1.65000000e-009,-5.11562532e-003
,,,1.67500000e-009,-5.01093782e-003
,,,1.70000000e-009,-4.90468781e-003
,,,1.72500000e-009,-4.80000030e-003
,,,1.75000000e-009,-4.73281280e-003
,,,1.77500000e-009,-4.65468779e-003
,,,1.80000000e-009,-4.56406279e-003
,,,1.82500000e-009,-4.46250028e-003
,,,1.85000000e-009,-4.35312527e-003
,,,1.87500000e-009,-4.23750026e-003
,,,1.90000000e-009,-4.11875025e-003
,,,1.92500000e-009,-4.00000025e-003
,,,1.95000000e-009,-3.91406274e-003
,,,1.97500000e-009,-3.82031273e-003
,,,2.00000000e-009,-3.72187523e-003
,,,2.02500000e-009,-3.61718772e-003
,,,2.05000000e-009,-3.50937521e-003
,,,2.07500000e-009,-3.40156270e-003
,,,2.10000000e-009,-3.29687520e-003
,,,2.12500000e-009,-3.20000019e-003
,,,2.15000000e-009,-3.14531269e-003
,,,2.17500000e-009,-3.10000018e-003
,,,2.20000000e-009,-3.06718768e-003
,,,2.22500000e-009,-3.05156268e-003
,,,2.25000000e-009,-3.05312518e-003
,,,2.27500000e-009,-3.07812518e-003
,,,2.30000000e-009,-3.12812518e-003
,,,2.32500000e-009,-3.20000019e-003
,,,2.35000000e-009,-3.30937520e-003
,,,2.37500000e-009,-3.42812521e-003
,,,2.40000000e-009,-3.55156271e-003
,,,2.42500000e-009,-3.67187522e-003
,,,2.45000000e-009,-3.78125023e-003
,,,2.47500000e-009,-3.87656274e-003
,,,2.50000000e-009,-3.95000024e-003
,,,2.52500000e-009,-4.00000025e-003
,,,2.55000000e-009,-4.02656275e-003
,,,2.57500000e-009,-4.02187525e-003
,,,2.60000000e-009,-3.98906275e-003
,,,2.62500000e-009,-3.93437524e-003
,,,2.65000000e-009,-3.85937524e-003
,,,2.67500000e-009,-3.77500023e-003
,,,2.70000000e-009,-3.68593772e-003
,,,2.72500000e-009,-3.60000022e-003
,,,2.75000000e-009,-3.52656271e-003
,,,2.77500000e-009,-3.46875021e-003
,,,2.80000000e-009,-3.43125021e-003
,,,2.82500000e-009,-3.41562520e-003
,,,2.85000000e-009,-3.42656271e-003
,,,2.87500000e-009,-3.46250021e-003
,,,2.90000000e-009,-3.52187521e-003
,,,2.92500000e-009,-3.60000022e-003
,,,2.95000000e-009,-3.68750022e-003
,,,2.97500000e-009,-3.77812523e-003
,,,3.00000000e-009,-3.86406274e-003
,,,3.02500000e-009,-3.93906274e-003
,,,3.05000000e-009,-3.99375025e-003
,,,3.07500000e-009,-4.02500025e-003
,,,3.10000000e-009,-4.02812525e-003
,,,3.12500000e-009,-4.00000025e-003
,,,3.15000000e-009,-3.92812524e-003
,,,3.17500000e-009,-3.82968773e-003
,,,3.20000000e-009,-3.71406273e-003
,,,3.22500000e-009,-3.59062522e-003
,,,3.25000000e-009,-3.46875021e-003
,,,3.27500000e-009,-3.35937520e-003
,,,3.30000000e-009,-3.26718769e-003
,,,3.32500000e-009,-3.20000019e-003
,,,3.35000000e-009,-3.15312519e-003
,,,3.37500000e-009,-3.13125018e-003
,,,3.40000000e-009,-3.12968768e-003
,,,3.42500000e-009,-3.14375019e-003
,,,3.45000000e-009,-3.16562519e-003
,,,3.47500000e-009,-3.18593769e-003
,,,3.50000000e-009,-3.20000019e-003
,,,3.52500000e-009,-3.20000019e-003
,,,3.55000000e-009,-3.17812519e-003
,,,3.57500000e-009,-3.13750018e-003
,,,3.60000000e-009,-3.08281268e-003
,,,3.62500000e-009,-3.01718768e-003
,,,3.65000000e-009,-2.95156267e-003
,,,3.67500000e-009,-2.88906267e-003
,,,3.70000000e-009,-2.83906266e-003
,,,3.72500000e-009,-2.80000016e-003
,,,3.75000000e-009,-2.77187516e-003
,,,3.77500000e-009,-2.75000016e-003
,,,3.80000000e-009,-2.72968766e-003
,,,3.82500000e-009,-2.70468765e-003
,,,3.85000000e-009,-2.66562515e-003
,,,3.87500000e-009,-2.60468765e-003
,,,3.90000000e-009,-2.51718764e-003
,,,3.92500000e-009,-2.40000013e-003
,,,3.95000000e-009,-2.25312512e-003
,,,3.97500000e-009,-2.08281261e-003
,,,4.00000000e-009,-1.89843760e-003
,,,4.02500000e-009,-1.71250008e-003
,,,4.05000000e-009,-1.53750007e-003
,,,4.07500000e-009,-1.38750006e-003
,,,4.10000000e-009,-1.27343755e-003
,,,4.12500000e-009,-1.20000005e-003
,,,4.15000000e-009,-1.18437505e-003
,,,4.17500000e-009,-1.20781255e-003
,,,4.20000000e-009,-1.26093755e-003
,,,4.22500000e-009,-1.33593756e-003
,,,4.25000000e-009,-1.41875006e-003
,,,4.27500000e-009,-1.49687507e-003
,,,4.30000000e-009,-1.56093757e-003
,,,4.32500000e-009,-1.60000008e-003
,,,4.35000000e-009,-1.61250008e-003
,,,4.37500000e-009,-1.59062508e-003
,,,4.40000000e-009,-1.54218757e-003
,,,4.42500000e-009,-1.47343757e-003
,,,4.45000000e-009,-1.39375006e-003
,,,4.47500000e-009,-1.31718756e-003
,,,4.50000000e-009,-1.25000005e-003
,,,4.52500000e-009,-1.20000005e-003
,,,4.55000000e-009,-1.17968755e-003
,,,4.57500000e-009,-1.17656255e-003
,,,4.60000000e-009,-1.18750005e-003
,,,4.62500000e-009,-1.20625005e-003
,,,4.65000000e-009,-1.22343755e-003
,,,4.67500000e-009,-1.23281255e-003
,,,4.70000000e-009,-1.22656255e-003
,,,4.72500000e-009,-1.20000005e-003
,,,4.75000000e-009,-1.15937504e-003
,,,4.77500000e-009,-1.09843754e-003
,,,4.80000000e-009,-1.02500004e-003
,,,4.82500000e-009,-9.50000030e-004
,,,4.85000000e-009,-8.79687525e-004
,,,4.87500000e-009,-8.26562521e-004
,,,4.90000000e-009,-7.98437519e-004
,,,4.92500000e-009,-8.00000019e-004
,,,4.95000000e-009,-8.39062522e-004
,,,4.97500000e-009,-9.00000026e-004
,,,5.00000000e-009,-9.76562532e-004
,,,5.02500000e-009,-1.05781254e-003
,,,5.05000000e-009,-1.13125004e-003
,,,5.07500000e-009,-1.18437505e-003
,,,5.10000000e-009,-1.21093755e-003
,,,5.12500000e-009,-1.20000005e-003
,,,5.15000000e-009,-1.15000004e-003
,,,5.17500000e-009,-1.06562504e-003
,,,5.20000000e-009,-9.53125030e-004
,,,5.22500000e-009,-8.25000021e-004
,,,5.25000000e-009,-6.93750012e-004
,,,5.27500000e-009,-5.71875003e-004
,,,5.30000000e-009,-4.70312496e-004
,,,5.32500000e-009,-3.99999991e-004
,,,5.35000000e-009,-3.73437489e-004
,,,5.37500000e-009,-3.82812490e-004
,,,5.40000000e-009,-4.23437493e-004
,,,5.42500000e-009,-4.87499997e-004
,,,5.45000000e-009,-5.68750003e-004
,,,5.47500000e-009,-6.53125009e-004
,,,5.50000000e-009,-7.32812515e-004
,,,5.52500000e-009,-8.00000019e-004
,,,5.55000000e-009,-8.51562523e-004
,,,5.57500000e-009,-8.79687525e-004
,,,5.60000000e-009,-8.87500026e-004
,,,5.62500000e-009,-8.79687525e-004
,,,5.65000000e-009,-8.60937524e-004
,,,5.67500000e-009,-8.37500022e-004
,,,5.70000000e-009,-8.15625020e-004
,,,5.72500000e-009,-8.00000019e-004
,,,5.75000000e-009,-7.98437519e-004
,,,5.77500000e-009,-8.04687520e-004
,,,5.80000000e-009,-8.17187521e-004
,,,5.82500000e-009,-8.31250022e-004
