RawData/WithScintilator/L7_2pt2A_15mV/wave028_Ch1.csv

"Record Length",1000,"Points",-7.72500000e-009,-1.92187476e-004
"Sample Interval",2.50000000e-011,s,-7.70000000e-009,-3.12499985e-004
"Trigger Point",309,"Samples",-7.67500000e-009,-4.39062494e-004
"Trigger Time",1.97478481e-011,s,-7.65000000e-009,-5.57812502e-004
"",,,-7.62500000e-009,-6.64062510e-004
"Horizontal Offset",-7.72500000e-009,s,-7.60000000e-009,-7.46875016e-004
,,,-7.57500000e-009,-8.00000019e-004
,,,-7.55000000e-009,-8.18750021e-004
,,,-7.52500000e-009,-8.04687520e-004
,,,-7.50000000e-009,-7.64062517e-004
,,,-7.47500000e-009,-7.00000012e-004
,,,-7.45000000e-009,-6.23437507e-004
,,,-7.42500000e-009,-5.43750001e-004
,,,-7.40000000e-009,-4.67187496e-004
,,,-7.37500000e-009,-3.99999991e-004
,,,-7.35000000e-009,-3.51562488e-004
,,,-7.32500000e-009,-3.20312485e-004
,,,-7.30000000e-009,-3.07812485e-004
,,,-7.27500000e-009,-3.12499985e-004
,,,-7.25000000e-009,-3.26562486e-004
,,,-7.22500000e-009,-3.48437487e-004
,,,-7.20000000e-009,-3.74999989e-004
,,,-7.17500000e-009,-3.99999991e-004
,,,-7.15000000e-009,-4.26562493e-004
,,,-7.12500000e-009,-4.51562495e-004
,,,-7.10000000e-009,-4.78124997e-004
,,,-7.07500000e-009,-5.14062499e-004
,,,-7.05000000e-009,-5.60937502e-004
,,,-7.02500000e-009,-6.23437507e-004
,,,-7.00000000e-009,-7.03125013e-004
,,,-6.97500000e-009,-8.00000019e-004
,,,-6.95000000e-009,-9.03125027e-004
,,,-6.92500000e-009,-1.00937503e-003
,,,-6.90000000e-009,-1.10937504e-003
,,,-6.87500000e-009,-1.19531255e-003
,,,-6.85000000e-009,-1.25468755e-003
,,,-6.82500000e-009,-1.27968755e-003
,,,-6.80000000e-009,-1.26250005e-003
,,,-6.77500000e-009,-1.20000005e-003
,,,-6.75000000e-009,-1.08593754e-003
,,,-6.72500000e-009,-9.34375029e-004
,,,-6.70000000e-009,-7.59375016e-004
,,,-6.67500000e-009,-5.75000003e-004
,,,-6.65000000e-009,-3.93749991e-004
,,,-6.62500000e-009,-2.29687479e-004
,,,-6.60000000e-009,-9.53124695e-005
,,,-6.57500000e-009,3.72529022e-011
,,,-6.55000000e-009,4.53125405e-005
,,,-6.52500000e-009,4.68750406e-005
,,,-6.50000000e-009,1.09375380e-005
,,,-6.47500000e-009,-5.78124668e-005
,,,-6.45000000e-009,-1.43749973e-004
,,,-6.42500000e-009,-2.39062480e-004
,,,-6.40000000e-009,-3.28124986e-004
,,,-6.37500000e-009,-3.99999991e-004
,,,-6.35000000e-009,-4.48437494e-004
,,,-6.32500000e-009,-4.65624996e-004
,,,-6.30000000e-009,-4.48437494e-004
,,,-6.27500000e-009,-4.01562491e-004
,,,-6.25000000e-009,-3.24999986e-004
,,,-6.22500000e-009,-2.28124979e-004
,,,-6.20000000e-009,-1.17187471e-004
,,,-6.17500000e-009,3.72529022e-011
,,,-6.15000000e-009,1.09375045e-004
,,,-6.12500000e-009,2.10937552e-004
,,,-6.10000000e-009,2.95312558e-004
,,,-6.07500000e-009,3.59375063e-004
,,,-6.05000000e-009,4.01562566e-004
,,,-6.02500000e-009,4.21875067e-004
,,,-6.00000000e-009,4.20312567e-004
,,,-5.97500000e-009,4.00000066e-004
,,,-5.95000000e-009,3.53125062e-004
,,,-5.92500000e-009,2.95312558e-004
,,,-5.90000000e-009,2.32812554e-004
,,,-5.87500000e-009,1.70312549e-004
,,,-5.85000000e-009,1.12500045e-004
,,,-5.82500000e-009,6.25000417e-005
,,,-5.80000000e-009,2.50000390e-005
,,,-5.77500000e-009,3.72529022e-011
,,,-5.75000000e-009,-1.87499641e-005
,,,-5.72500000e-009,-2.49999645e-005
,,,-5.70000000e-009,-2.03124642e-005
,,,-5.67500000e-009,-9.37496341e-006
,,,-5.65000000e-009,1.56253736e-006
,,,-5.62500000e-009,1.09375380e-005
,,,-5.60000000e-009,1.09375380e-005
,,,-5.57500000e-009,3.72529022e-011
,,,-5.55000000e-009,-2.65624646e-005
,,,-5.52500000e-009,-6.56249674e-005
,,,-5.50000000e-009,-1.17187471e-004
,,,-5.47500000e-009,-1.74999975e-004
,,,-5.45000000e-009,-2.37499980e-004
,,,-5.42500000e-009,-2.98437484e-004
,,,-5.40000000e-009,-3.53124988e-004
,,,-5.37500000e-009,-3.99999991e-004
,,,-5.35000000e-009,-4.37499994e-004
,,,-5.32500000e-009,-4.60937495e-004
,,,-5.30000000e-009,-4.71874996e-004
,,,-5.27500000e-009,-4.70312496e-004
,,,-5.25000000e-009,-4.59374995e-004
,,,-5.22500000e-009,-4.42187494e-004
,,,-5.20000000e-009,-4.21874993e-004
,,,-5.17500000e-009,-3.99999991e-004
,,,-5.15000000e-009,-3.79687490e-004
,,,-5.12500000e-009,-3.65624989e-004
,,,-5.10000000e-009,-3.56249988e-004
,,,-5.07500000e-009,-3.54687488e-004
,,,-5.05000000e-009,-3.59374988e-004
,,,-5.02500000e-009,-3.70312489e-004
,,,-5.00000000e-009,-3.84374990e-004
,,,-4.97500000e-009,-3.99999991e-004
,,,-4.95000000e-009,-4.14062492e-004
,,,-4.92500000e-009,-4.26562493e-004
,,,-4.90000000e-009,-4.37499994e-004
,,,-4.87500000e-009,-4.42187494e-004
,,,-4.85000000e-009,-4.40624994e-004
,,,-4.82500000e-009,-4.34374993e-004
,,,-4.80000000e-009,-4.20312492e-004
,,,-4.77500000e-009,-3.99999991e-004
,,,-4.75000000e-009,-3.74999989e-004
,,,-4.72500000e-009,-3.49999988e-004
,,,-4.70000000e-009,-3.28124986e-004
,,,-4.67500000e-009,-3.15624985e-004
,,,-4.65000000e-009,-3.14062485e-004
,,,-4.62500000e-009,-3.26562486e-004
,,,-4.60000000e-009,-3.56249988e-004
,,,-4.57500000e-009,-3.99999991e-004
,,,-4.55000000e-009,-4.56249995e-004
,,,-4.52500000e-009,-5.20312500e-004
,,,-4.50000000e-009,-5.89062504e-004
,,,-4.47500000e-009,-6.56250009e-004
,,,-4.45000000e-009,-7.17187514e-004
,,,-4.42500000e-009,-7.64062517e-004
,,,-4.40000000e-009,-7.92187519e-004
,,,-4.37500000e-009,-8.00000019e-004
,,,-4.35000000e-009,-7.82812518e-004
,,,-4.32500000e-009,-7.46875016e-004
,,,-4.30000000e-009,-6.93750012e-004
,,,-4.27500000e-009,-6.31250007e-004
,,,-4.25000000e-009,-5.64062503e-004
,,,-4.22500000e-009,-4.99999998e-004
,,,-4.20000000e-009,-4.45312494e-004
,,,-4.17500000e-009,-3.99999991e-004
,,,-4.15000000e-009,-3.73437489e-004
,,,-4.12500000e-009,-3.62499988e-004
,,,-4.10000000e-009,-3.64062489e-004
,,,-4.07500000e-009,-3.74999989e-004
,,,-4.05000000e-009,-3.89062490e-004
,,,-4.02500000e-009,-4.01562491e-004
,,,-4.00000000e-009,-4.06249992e-004
,,,-3.97500000e-009,-3.99999991e-004
,,,-3.95000000e-009,-3.81249990e-004
,,,-3.92500000e-009,-3.46874987e-004
,,,-3.90000000e-009,-2.98437484e-004
,,,-3.87500000e-009,-2.42187480e-004
,,,-3.85000000e-009,-1.79687475e-004
,,,-3.82500000e-009,-1.15624971e-004
,,,-3.80000000e-009,-5.46874666e-005
,,,-3.77500000e-009,3.72529022e-011
,,,-3.75000000e-009,3.75000399e-005
,,,-3.72500000e-009,6.40625418e-005
,,,-3.70000000e-009,7.65625427e-005
,,,-3.67500000e-009,7.81250428e-005
,,,-3.65000000e-009,6.87500421e-005
,,,-3.62500000e-009,5.00000408e-005
,,,-3.60000000e-009,2.65625391e-005
,,,-3.57500000e-009,3.72529022e-011
,,,-3.55000000e-009,-3.59374653e-005
,,,-3.52500000e-009,-7.34374679e-005
,,,-3.50000000e-009,-1.14062471e-004
,,,-3.47500000e-009,-1.59374974e-004
,,,-3.45000000e-009,-2.10937478e-004
,,,-3.42500000e-009,-2.67187482e-004
,,,-3.40000000e-009,-3.31249986e-004
,,,-3.37500000e-009,-3.99999991e-004
,,,-3.35000000e-009,-4.78124997e-004
,,,-3.32500000e-009,-5.54687502e-004
,,,-3.30000000e-009,-6.29687507e-004
,,,-3.27500000e-009,-6.93750012e-004
,,,-3.25000000e-009,-7.48437516e-004
,,,-3.22500000e-009,-7.84375018e-004
,,,-3.20000000e-009,-8.03125020e-004
,,,-3.17500000e-009,-8.00000019e-004
,,,-3.15000000e-009,-7.75000018e-004
,,,-3.12500000e-009,-7.32812515e-004
,,,-3.10000000e-009,-6.78125011e-004
,,,-3.07500000e-009,-6.15625006e-004
,,,-3.05000000e-009,-5.51562502e-004
,,,-3.02500000e-009,-4.92187498e-004
,,,-3.00000000e-009,-4.40624994e-004
,,,-2.97500000e-009,-3.99999991e-004
,,,-2.95000000e-009,-3.76562489e-004
,,,-2.92500000e-009,-3.67187489e-004
,,,-2.90000000e-009,-3.68749989e-004
,,,-2.87500000e-009,-3.76562489e-004
,,,-2.85000000e-009,-3.89062490e-004
,,,-2.82500000e-009,-3.98437491e-004
,,,-2.80000000e-009,-4.03124991e-004
,,,-2.77500000e-009,-3.99999991e-004
,,,-2.75000000e-009,-3.89062490e-004
,,,-2.72500000e-009,-3.71874989e-004
,,,-2.70000000e-009,-3.54687488e-004
,,,-2.67500000e-009,-3.39062487e-004
,,,-2.65000000e-009,-3.32812486e-004
,,,-2.62500000e-009,-3.39062487e-004
,,,-2.60000000e-009,-3.60937488e-004
,,,-2.57500000e-009,-3.99999991e-004
,,,-2.55000000e-009,-4.54687495e-004
,,,-2.52500000e-009,-5.21875000e-004
,,,-2.50000000e-009,-5.93750005e-004
,,,-2.47500000e-009,-6.65625010e-004
,,,-2.45000000e-009,-7.28125014e-004
,,,-2.42500000e-009,-7.75000018e-004
,,,-2.40000000e-009,-8.01562519e-004
,,,-2.37500000e-009,-8.00000019e-004
,,,-2.35000000e-009,-7.71875017e-004
,,,-2.32500000e-009,-7.21875014e-004
,,,-2.30000000e-009,-6.56250009e-004
,,,-2.27500000e-009,-5.82812504e-004
,,,-2.25000000e-009,-5.14062499e-004
,,,-2.22500000e-009,-4.54687495e-004
,,,-2.20000000e-009,-4.15624992e-004
,,,-2.17500000e-009,-3.99999991e-004
,,,-2.15000000e-009,-4.14062492e-004
,,,-2.12500000e-009,-4.51562495e-004
,,,-2.10000000e-009,-5.07812499e-004
,,,-2.07500000e-009,-5.76562504e-004
,,,-2.05000000e-009,-6.48437509e-004
,,,-2.02500000e-009,-7.15625013e-004
,,,-2.00000000e-009,-7.68750017e-004
,,,-1.97500000e-009,-8.00000019e-004
,,,-1.95000000e-009,-8.07812520e-004
,,,-1.92500000e-009,-7.89062519e-004
,,,-1.90000000e-009,-7.46875016e-004
,,,-1.87500000e-009,-6.87500011e-004
,,,-1.85000000e-009,-6.17187506e-004
,,,-1.82500000e-009,-5.40625001e-004
,,,-1.80000000e-009,-4.65624996e-004
,,,-1.77500000e-009,-3.99999991e-004
,,,-1.75000000e-009,-3.51562488e-004
,,,-1.72500000e-009,-3.18749985e-004
,,,-1.70000000e-009,-3.03124984e-004
,,,-1.67500000e-009,-3.04687484e-004
,,,-1.65000000e-009,-3.20312485e-004
,,,-1.62500000e-009,-3.43749987e-004
,,,-1.60000000e-009,-3.71874989e-004
,,,-1.57500000e-009,-3.99999991e-004
,,,-1.55000000e-009,-4.34374993e-004
,,,-1.52500000e-009,-4.60937495e-004
,,,-1.50000000e-009,-4.78124997e-004
,,,-1.47500000e-009,-4.84374997e-004
,,,-1.45000000e-009,-4.79687497e-004
,,,-1.42500000e-009,-4.62499995e-004
,,,-1.40000000e-009,-4.35937494e-004
,,,-1.37500000e-009,-3.99999991e-004
,,,-1.35000000e-009,-3.89062490e-004
,,,-1.32500000e-009,-3.79687490e-004
,,,-1.30000000e-009,-3.74999989e-004
,,,-1.27500000e-009,-3.73437489e-004
,,,-1.25000000e-009,-3.74999989e-004
,,,-1.22500000e-009,-3.79687490e-004
,,,-1.20000000e-009,-3.89062490e-004
,,,-1.17500000e-009,-3.99999991e-004
,,,-1.15000000e-009,-4.60937495e-004
,,,-1.12500000e-009,-5.29687500e-004
,,,-1.10000000e-009,-6.01562505e-004
,,,-1.07500000e-009,-6.71875010e-004
,,,-1.05000000e-009,-7.29687514e-004
,,,-1.02500000e-009,-7.73437517e-004
,,,-1.00000000e-009,-7.98437519e-004
,,,-9.75000000e-010,-8.00000019e-004
,,,-9.50000000e-010,-8.59375024e-004
,,,-9.25000000e-010,-9.09375027e-004
,,,-9.00000000e-010,-9.43750030e-004
,,,-8.75000000e-010,-9.59375031e-004
,,,-8.50000000e-010,-9.51562530e-004
,,,-8.25000000e-010,-9.18750028e-004
,,,-8.00000000e-010,-8.65625024e-004
,,,-7.75000000e-010,-8.00000019e-004
,,,-7.50000000e-010,-8.45312523e-004
,,,-7.25000000e-010,-9.18750028e-004
,,,-7.00000000e-010,-1.02187504e-003
,,,-6.75000000e-010,-1.15781254e-003
,,,-6.50000000e-010,-1.32187506e-003
,,,-6.25000000e-010,-1.51718757e-003
,,,-6.00000000e-010,-1.74375009e-003
,,,-5.75000000e-010,-2.00000010e-003
,,,-5.50000000e-010,-2.41250013e-003
,,,-5.25000000e-010,-2.86875017e-003
,,,-5.00000000e-010,-3.35156270e-003
,,,-4.75000000e-010,-3.84375023e-003
,,,-4.50000000e-010,-4.32656277e-003
,,,-4.25000000e-010,-4.78593780e-003
,,,-4.00000000e-010,-5.21093783e-003
,,,-3.75000000e-010,-5.60000036e-003
,,,-3.50000000e-010,-6.06093789e-003
,,,-3.25000000e-010,-6.51875042e-003
,,,-3.00000000e-010,-6.97812546e-003
,,,-2.75000000e-010,-7.44843799e-003
,,,-2.50000000e-010,-7.93593802e-003
,,,-2.25000000e-010,-8.45156306e-003
,,,-2.00000000e-010,-9.00156310e-003
,,,-1.75000000e-010,-9.60000064e-003
,,,-1.50000000e-010,-1.03187507e-002
,,,-1.25000000e-010,-1.11109382e-002
,,,-1.00000000e-010,-1.19734383e-002
,,,-7.50000000e-011,-1.28921884e-002
,,,-5.00000000e-011,-1.38500009e-002
,,,-2.50000000e-011,-1.48312510e-002
,,,0.00000000e+000,-1.58187511e-002
,,,2.50000000e-011,-1.68000012e-002
,,,5.00000000e-011,-1.77546887e-002
,,,7.50000000e-011,-1.87000013e-002
,,,1.00000000e-010,-1.96328139e-002
,,,1.25000000e-010,-2.05500014e-002
,,,1.50000000e-010,-2.14468765e-002
,,,1.75000000e-010,-2.23234390e-002
,,,2.00000000e-010,-2.31750016e-002
,,,2.25000000e-010,-2.40000017e-002
,,,2.50000000e-010,-2.47125017e-002
,,,2.75000000e-010,-2.54140643e-002
,,,3.00000000e-010,-2.61046893e-002
,,,3.25000000e-010,-2.67828144e-002
,,,3.50000000e-010,-2.74406269e-002
,,,3.75000000e-010,-2.80703144e-002
,,,4.00000000e-010,-2.86593770e-002
,,,4.25000000e-010,-2.92000020e-002
,,,4.50000000e-010,-2.95500021e-002
,,,4.75000000e-010,-2.98656271e-002
,,,5.00000000e-010,-3.01515646e-002
,,,5.25000000e-010,-3.04125021e-002
,,,5.50000000e-010,-3.06500021e-002
,,,5.75000000e-010,-3.08625021e-002
,,,6.00000000e-010,-3.10468772e-002
,,,6.25000000e-010,-3.12000022e-002
,,,6.50000000e-010,-3.11718772e-002
,,,6.75000000e-010,-3.11328147e-002
,,,7.00000000e-010,-3.10906272e-002
,,,7.25000000e-010,-3.10468772e-002
,,,7.50000000e-010,-3.10000022e-002
,,,7.75000000e-010,-3.09484397e-002
,,,8.00000000e-010,-3.08843771e-002
,,,8.25000000e-010,-3.08000021e-002
,,,8.50000000e-010,-3.05500021e-002
,,,8.75000000e-010,-3.02937521e-002
,,,9.00000000e-010,-3.00359396e-002
,,,9.25000000e-010,-2.97828146e-002
,,,9.50000000e-010,-2.95343771e-002
,,,9.75000000e-010,-2.92906270e-002
,,,1.00000000e-009,-2.90468770e-002
,,,1.02500000e-009,-2.88000020e-002
,,,1.05000000e-009,-2.84359395e-002
,,,1.07500000e-009,-2.80687519e-002
,,,1.10000000e-009,-2.77062519e-002
,,,1.12500000e-009,-2.73500019e-002
,,,1.15000000e-009,-2.70015644e-002
,,,1.17500000e-009,-2.66625018e-002
,,,1.20000000e-009,-2.63296893e-002
,,,1.22500000e-009,-2.60000018e-002
,,,1.25000000e-009,-2.56031268e-002
,,,1.27500000e-009,-2.52093767e-002
,,,1.30000000e-009,-2.48218767e-002
,,,1.32500000e-009,-2.44500017e-002
,,,1.35000000e-009,-2.40984392e-002
,,,1.37500000e-009,-2.37734391e-002
,,,1.40000000e-009,-2.34750016e-002
,,,1.42500000e-009,-2.32000016e-002
,,,1.45000000e-009,-2.29109391e-002
,,,1.47500000e-009,-2.26250016e-002
,,,1.50000000e-009,-2.23359390e-002
,,,1.52500000e-009,-2.20453140e-002
,,,1.55000000e-009,-2.17484390e-002
,,,1.57500000e-009,-2.14421890e-002
,,,1.60000000e-009,-2.11281265e-002
,,,1.62500000e-009,-2.08000014e-002
,,,1.65000000e-009,-2.04468764e-002
,,,1.67500000e-009,-2.00640639e-002
,,,1.70000000e-009,-1.96578139e-002
,,,1.72500000e-009,-1.92359388e-002
,,,1.75000000e-009,-1.88109388e-002
,,,1.77500000e-009,-1.83906263e-002
,,,1.80000000e-009,-1.79859387e-002
,,,1.82500000e-009,-1.76000012e-002
,,,1.85000000e-009,-1.72468762e-002
,,,1.87500000e-009,-1.68968762e-002
,,,1.90000000e-009,-1.65484386e-002
,,,1.92500000e-009,-1.62015636e-002
,,,1.95000000e-009,-1.58531261e-002
,,,1.97500000e-009,-1.55031261e-002
,,,2.00000000e-009,-1.51531260e-002
,,,2.02500000e-009,-1.48000010e-002
,,,2.05000000e-009,-1.44671885e-002
,,,2.07500000e-009,-1.41171885e-002
,,,2.10000000e-009,-1.37515634e-002
,,,2.12500000e-009,-1.33781259e-002
,,,2.15000000e-009,-1.30062509e-002
,,,2.17500000e-009,-1.26468759e-002
,,,2.20000000e-009,-1.23093758e-002
,,,2.22500000e-009,-1.20000008e-002
,,,2.25000000e-009,-1.17546883e-002
,,,2.27500000e-009,-1.15250008e-002
,,,2.30000000e-009,-1.13093758e-002
,,,2.32500000e-009,-1.11062507e-002
,,,2.35000000e-009,-1.09156257e-002
,,,2.37500000e-009,-1.07343757e-002
,,,2.40000000e-009,-1.05625007e-002
,,,2.42500000e-009,-1.04000007e-002
,,,2.45000000e-009,-1.02750007e-002
,,,2.47500000e-009,-1.01390632e-002
,,,2.50000000e-009,-9.98906317e-003
,,,2.52500000e-009,-9.83125066e-003
,,,2.55000000e-009,-9.66718815e-003
,,,2.57500000e-009,-9.50312564e-003
,,,2.60000000e-009,-9.34687562e-003
,,,2.62500000e-009,-9.20000061e-003
,,,2.65000000e-009,-9.09843811e-003
,,,2.67500000e-009,-8.99687560e-003
,,,2.70000000e-009,-8.89375059e-003
,,,2.72500000e-009,-8.79062558e-003
,,,2.75000000e-009,-8.68906308e-003
,,,2.77500000e-009,-8.58906307e-003
,,,2.80000000e-009,-8.49375056e-003
,,,2.82500000e-009,-8.40000056e-003
,,,2.85000000e-009,-8.33281305e-003
,,,2.87500000e-009,-8.25468805e-003
,,,2.90000000e-009,-8.16562554e-003
,,,2.92500000e-009,-8.06406303e-003
,,,2.95000000e-009,-7.95468803e-003
,,,2.97500000e-009,-7.83750052e-003
,,,3.00000000e-009,-7.71875051e-003
,,,3.02500000e-009,-7.60000050e-003
,,,3.05000000e-009,-7.50000049e-003
,,,3.07500000e-009,-7.39218799e-003
,,,3.10000000e-009,-7.28281298e-003
,,,3.12500000e-009,-7.17343797e-003
,,,3.15000000e-009,-7.06718796e-003
,,,3.17500000e-009,-6.96875046e-003
,,,3.20000000e-009,-6.87812545e-003
,,,3.22500000e-009,-6.80000044e-003
,,,3.25000000e-009,-6.74218794e-003
,,,3.27500000e-009,-6.68593794e-003
,,,3.30000000e-009,-6.63437543e-003
,,,3.32500000e-009,-6.58437543e-003
,,,3.35000000e-009,-6.53593793e-003
,,,3.37500000e-009,-6.48906292e-003
,,,3.40000000e-009,-6.44375042e-003
,,,3.42500000e-009,-6.40000042e-003
,,,3.45000000e-009,-6.35781291e-003
,,,3.47500000e-009,-6.30937541e-003
,,,3.50000000e-009,-6.25625041e-003
,,,3.52500000e-009,-6.20000040e-003
,,,3.55000000e-009,-6.14531290e-003
,,,3.57500000e-009,-6.09218789e-003
,,,3.60000000e-009,-6.04375039e-003
,,,3.62500000e-009,-6.00000039e-003
,,,3.65000000e-009,-5.95937538e-003
,,,3.67500000e-009,-5.91562538e-003
,,,3.70000000e-009,-5.87187538e-003
,,,3.72500000e-009,-5.82500038e-003
,,,3.75000000e-009,-5.77500037e-003
,,,3.77500000e-009,-5.72031287e-003
,,,3.80000000e-009,-5.66406286e-003
,,,3.82500000e-009,-5.60000036e-003
,,,3.85000000e-009,-5.52812535e-003
,,,3.87500000e-009,-5.44375035e-003
,,,3.90000000e-009,-5.35000034e-003
,,,3.92500000e-009,-5.24687533e-003
,,,3.95000000e-009,-5.13750033e-003
,,,3.97500000e-009,-5.02500032e-003
,,,4.00000000e-009,-4.91250031e-003
,,,4.02500000e-009,-4.80000030e-003
,,,4.05000000e-009,-4.69062529e-003
,,,4.07500000e-009,-4.58125029e-003
,,,4.10000000e-009,-4.47343778e-003
,,,4.12500000e-009,-4.36875027e-003
,,,4.15000000e-009,-4.26875026e-003
,,,4.17500000e-009,-4.17343776e-003
,,,4.20000000e-009,-4.08437525e-003
,,,4.22500000e-009,-4.00000025e-003
,,,4.25000000e-009,-3.91718774e-003
,,,4.27500000e-009,-3.83125023e-003
,,,4.30000000e-009,-3.73906273e-003
,,,4.32500000e-009,-3.64218772e-003
,,,4.35000000e-009,-3.53906271e-003
,,,4.37500000e-009,-3.43125021e-003
,,,4.40000000e-009,-3.31718770e-003
,,,4.42500000e-009,-3.20000019e-003
,,,4.45000000e-009,-3.08437518e-003
,,,4.47500000e-009,-2.96406267e-003
,,,4.50000000e-009,-2.84375016e-003
,,,4.52500000e-009,-2.72968766e-003
,,,4.55000000e-009,-2.62343765e-003
,,,4.57500000e-009,-2.53125014e-003
,,,4.60000000e-009,-2.45625014e-003
,,,4.62500000e-009,-2.40000013e-003
,,,4.65000000e-009,-2.37812513e-003
,,,4.67500000e-009,-2.36875013e-003
,,,4.70000000e-009,-2.37031263e-003
,,,4.72500000e-009,-2.37812513e-003
,,,4.75000000e-009,-2.38906263e-003
,,,4.77500000e-009,-2.40000013e-003
,,,4.80000000e-009,-2.40468763e-003
,,,4.82500000e-009,-2.40000013e-003
,,,4.85000000e-009,-2.39531263e-003
,,,4.87500000e-009,-2.37343763e-003
,,,4.90000000e-009,-2.33593763e-003
,,,4.92500000e-009,-2.28437512e-003
,,,4.95000000e-009,-2.22187512e-003
,,,4.97500000e-009,-2.15312512e-003
,,,5.00000000e-009,-2.07812511e-003
,,,5.02500000e-009,-2.00000010e-003
,,,5.05000000e-009,-1.92812510e-003
,,,5.07500000e-009,-1.85000009e-003
,,,5.10000000e-009,-1.76562509e-003
,,,5.12500000e-009,-1.67187508e-003
,,,5.15000000e-009,-1.56718757e-003
,,,5.17500000e-009,-1.45312507e-003
,,,5.20000000e-009,-1.32968756e-003
,,,5.22500000e-009,-1.20000005e-003
,,,5.25000000e-009,-1.08281254e-003
,,,5.27500000e-009,-9.68750031e-004
,,,5.30000000e-009,-8.67187524e-004
,,,5.32500000e-009,-7.84375018e-004
,,,5.35000000e-009,-7.29687514e-004
,,,5.37500000e-009,-7.12500013e-004
,,,5.40000000e-009,-7.34375015e-004
,,,5.42500000e-009,-8.00000019e-004
,,,5.45000000e-009,-9.18750028e-004
,,,5.47500000e-009,-1.06718754e-003
,,,5.50000000e-009,-1.23593755e-003
,,,5.52500000e-009,-1.41562506e-003
,,,5.55000000e-009,-1.59375008e-003
,,,5.57500000e-009,-1.75781259e-003
,,,5.60000000e-009,-1.89531260e-003
,,,5.62500000e-009,-2.00000010e-003
,,,5.65000000e-009,-2.06093761e-003
,,,5.67500000e-009,-2.07968761e-003
,,,5.70000000e-009,-2.05625011e-003
,,,5.72500000e-009,-1.99843760e-003
,,,5.75000000e-009,-1.91562510e-003
,,,5.77500000e-009,-1.81562509e-003
,,,5.80000000e-009,-1.70781258e-003
,,,5.82500000e-009,-1.60000008e-003
