RawData/DifferentLengths/R3/R3_50foot_5mV/wave017_Ch2.csv

"Record Length",1000,"Points",-7.72500000e-009,-7.96875056e-005
"Sample Interval",2.50000000e-011,s,-7.70000000e-009,-1.11718758e-004
"Trigger Point",309,"Samples",-7.67500000e-009,-1.42968760e-004
"Trigger Time",2.40200000e-011,s,-7.65000000e-009,-1.73437512e-004
"",,,-7.62500000e-009,-2.00000014e-004
"Horizontal Offset",-7.72500000e-009,s,-7.60000000e-009,-2.17968765e-004
,,,-7.57500000e-009,-2.30468766e-004
,,,-7.55000000e-009,-2.35937517e-004
,,,-7.52500000e-009,-2.35156267e-004
,,,-7.50000000e-009,-2.29687516e-004
,,,-7.47500000e-009,-2.21093766e-004
,,,-7.45000000e-009,-2.10937515e-004
,,,-7.42500000e-009,-2.00000014e-004
,,,-7.40000000e-009,-1.88281263e-004
,,,-7.37500000e-009,-1.78906263e-004
,,,-7.35000000e-009,-1.73437512e-004
,,,-7.32500000e-009,-1.71875012e-004
,,,-7.30000000e-009,-1.74218762e-004
,,,-7.27500000e-009,-1.80468763e-004
,,,-7.25000000e-009,-1.89062513e-004
,,,-7.22500000e-009,-2.00000014e-004
,,,-7.20000000e-009,-2.08593765e-004
,,,-7.17500000e-009,-2.16406265e-004
,,,-7.15000000e-009,-2.23437516e-004
,,,-7.12500000e-009,-2.27343766e-004
,,,-7.10000000e-009,-2.28125016e-004
,,,-7.07500000e-009,-2.24218766e-004
,,,-7.05000000e-009,-2.14062515e-004
,,,-7.02500000e-009,-2.00000014e-004
,,,-7.00000000e-009,-1.78125013e-004
,,,-6.97500000e-009,-1.53125011e-004
,,,-6.95000000e-009,-1.25000009e-004
,,,-6.92500000e-009,-9.60937568e-005
,,,-6.90000000e-009,-6.79687548e-005
,,,-6.87500000e-009,-4.14062529e-005
,,,-6.85000000e-009,-1.79687513e-005
,,,-6.82500000e-009,0.00000000e+000
,,,-6.80000000e-009,1.32812509e-005
,,,-6.77500000e-009,2.10937515e-005
,,,-6.75000000e-009,2.42187517e-005
,,,-6.72500000e-009,2.34375017e-005
,,,-6.70000000e-009,1.95312514e-005
,,,-6.67500000e-009,1.32812509e-005
,,,-6.65000000e-009,6.25000044e-006
,,,-6.62500000e-009,0.00000000e+000
,,,-6.60000000e-009,-7.03125050e-006
,,,-6.57500000e-009,-1.17187508e-005
,,,-6.55000000e-009,-1.48437511e-005
,,,-6.52500000e-009,-1.48437511e-005
,,,-6.50000000e-009,-1.32812509e-005
,,,-6.47500000e-009,-9.37500066e-006
,,,-6.45000000e-009,-4.68750033e-006
,,,-6.42500000e-009,0.00000000e+000
,,,-6.40000000e-009,3.90625028e-006
,,,-6.37500000e-009,7.81250055e-006
,,,-6.35000000e-009,1.01562507e-005
,,,-6.32500000e-009,1.17187508e-005
,,,-6.30000000e-009,1.09375008e-005
,,,-6.27500000e-009,8.59375061e-006
,,,-6.25000000e-009,4.68750033e-006
,,,-6.22500000e-009,0.00000000e+000
,,,-6.20000000e-009,-7.03125050e-006
,,,-6.17500000e-009,-1.40625010e-005
,,,-6.15000000e-009,-1.95312514e-005
,,,-6.12500000e-009,-2.26562516e-005
,,,-6.10000000e-009,-2.26562516e-005
,,,-6.07500000e-009,-1.87500013e-005
,,,-6.05000000e-009,-1.09375008e-005
,,,-6.02500000e-009,0.00000000e+000
,,,-6.00000000e-009,1.17187508e-005
,,,-5.97500000e-009,2.50000018e-005
,,,-5.95000000e-009,3.59375025e-005
,,,-5.92500000e-009,4.29687530e-005
,,,-5.90000000e-009,4.45312532e-005
,,,-5.87500000e-009,3.82812527e-005
,,,-5.85000000e-009,2.34375017e-005
,,,-5.82500000e-009,0.00000000e+000
,,,-5.80000000e-009,-3.04687522e-005
,,,-5.77500000e-009,-6.64062547e-005
,,,-5.75000000e-009,-1.03906257e-004
,,,-5.72500000e-009,-1.39843760e-004
,,,-5.70000000e-009,-1.70312512e-004
,,,-5.67500000e-009,-1.91406264e-004
,,,-5.65000000e-009,-2.01562514e-004
,,,-5.62500000e-009,-2.00000014e-004
,,,-5.60000000e-009,-1.84375013e-004
,,,-5.57500000e-009,-1.58593761e-004
,,,-5.55000000e-009,-1.26562509e-004
,,,-5.52500000e-009,-9.06250064e-005
,,,-5.50000000e-009,-5.70312540e-005
,,,-5.47500000e-009,-2.81250020e-005
,,,-5.45000000e-009,-7.81250055e-006
,,,-5.42500000e-009,0.00000000e+000
,,,-5.40000000e-009,-4.68750033e-006
,,,-5.37500000e-009,-2.26562516e-005
,,,-5.35000000e-009,-5.00000035e-005
,,,-5.32500000e-009,-8.35937559e-005
,,,-5.30000000e-009,-1.19531258e-004
,,,-5.27500000e-009,-1.53125011e-004
,,,-5.25000000e-009,-1.81250013e-004
,,,-5.22500000e-009,-2.00000014e-004
,,,-5.20000000e-009,-2.05468765e-004
,,,-5.17500000e-009,-1.98437514e-004
,,,-5.15000000e-009,-1.80468763e-004
,,,-5.12500000e-009,-1.51562511e-004
,,,-5.10000000e-009,-1.16406258e-004
,,,-5.07500000e-009,-7.65625054e-005
,,,-5.05000000e-009,-3.67187526e-005
,,,-5.02500000e-009,0.00000000e+000
,,,-5.00000000e-009,3.04687522e-005
,,,-4.97500000e-009,5.39062538e-005
,,,-4.95000000e-009,6.71875048e-005
,,,-4.92500000e-009,7.03125050e-005
,,,-4.90000000e-009,6.40625045e-005
,,,-4.87500000e-009,4.92187535e-005
,,,-4.85000000e-009,2.73437519e-005
,,,-4.82500000e-009,0.00000000e+000
,,,-4.80000000e-009,-3.04687522e-005
,,,-4.77500000e-009,-6.25000044e-005
,,,-4.75000000e-009,-9.45312567e-005
,,,-4.72500000e-009,-1.23437509e-004
,,,-4.70000000e-009,-1.49218761e-004
,,,-4.67500000e-009,-1.71093762e-004
,,,-4.65000000e-009,-1.87500013e-004
,,,-4.62500000e-009,-2.00000014e-004
,,,-4.60000000e-009,-2.05468765e-004
,,,-4.57500000e-009,-2.07812515e-004
,,,-4.55000000e-009,-2.06250015e-004
,,,-4.52500000e-009,-2.03906264e-004
,,,-4.50000000e-009,-2.00781264e-004
,,,-4.47500000e-009,-1.98437514e-004
,,,-4.45000000e-009,-1.97656264e-004
,,,-4.42500000e-009,-2.00000014e-004
,,,-4.40000000e-009,-2.01562514e-004
,,,-4.37500000e-009,-2.05468765e-004
,,,-4.35000000e-009,-2.10937515e-004
,,,-4.32500000e-009,-2.14843765e-004
,,,-4.30000000e-009,-2.17187515e-004
,,,-4.27500000e-009,-2.16406265e-004
,,,-4.25000000e-009,-2.10937515e-004
,,,-4.22500000e-009,-2.00000014e-004
,,,-4.20000000e-009,-1.82031263e-004
,,,-4.17500000e-009,-1.59375011e-004
,,,-4.15000000e-009,-1.32812509e-004
,,,-4.12500000e-009,-1.03906257e-004
,,,-4.10000000e-009,-7.42187553e-005
,,,-4.07500000e-009,-4.60937533e-005
,,,-4.05000000e-009,-2.03125014e-005
,,,-4.02500000e-009,0.00000000e+000
,,,-4.00000000e-009,1.48437511e-005
,,,-3.97500000e-009,2.42187517e-005
,,,-3.95000000e-009,2.81250020e-005
,,,-3.92500000e-009,2.65625019e-005
,,,-3.90000000e-009,2.18750015e-005
,,,-3.87500000e-009,1.48437511e-005
,,,-3.85000000e-009,7.03125050e-006
,,,-3.82500000e-009,0.00000000e+000
,,,-3.80000000e-009,-7.03125050e-006
,,,-3.77500000e-009,-1.17187508e-005
,,,-3.75000000e-009,-1.48437511e-005
,,,-3.72500000e-009,-1.48437511e-005
,,,-3.70000000e-009,-1.32812509e-005
,,,-3.67500000e-009,-9.37500066e-006
,,,-3.65000000e-009,-4.68750033e-006
,,,-3.62500000e-009,0.00000000e+000
,,,-3.60000000e-009,3.12500022e-006
,,,-3.57500000e-009,5.46875039e-006
,,,-3.55000000e-009,7.81250055e-006
,,,-3.52500000e-009,7.81250055e-006
,,,-3.50000000e-009,7.81250055e-006
,,,-3.47500000e-009,5.46875039e-006
,,,-3.45000000e-009,3.12500022e-006
,,,-3.42500000e-009,0.00000000e+000
,,,-3.40000000e-009,-3.90625028e-006
,,,-3.37500000e-009,-7.81250055e-006
,,,-3.35000000e-009,-1.01562507e-005
,,,-3.32500000e-009,-1.17187508e-005
,,,-3.30000000e-009,-1.09375008e-005
,,,-3.27500000e-009,-8.59375061e-006
,,,-3.25000000e-009,-4.68750033e-006
,,,-3.22500000e-009,0.00000000e+000
,,,-3.20000000e-009,3.90625028e-006
,,,-3.17500000e-009,8.59375061e-006
,,,-3.15000000e-009,1.32812509e-005
,,,-3.12500000e-009,1.56250011e-005
,,,-3.10000000e-009,1.64062512e-005
,,,-3.07500000e-009,1.48437511e-005
,,,-3.05000000e-009,9.37500066e-006
,,,-3.02500000e-009,0.00000000e+000
,,,-3.00000000e-009,-1.56250011e-005
,,,-2.97500000e-009,-3.59375025e-005
,,,-2.95000000e-009,-5.93750042e-005
,,,-2.92500000e-009,-8.67187561e-005
,,,-2.90000000e-009,-1.15625008e-004
,,,-2.87500000e-009,-1.44531260e-004
,,,-2.85000000e-009,-1.73437512e-004
,,,-2.82500000e-009,-2.00000014e-004
,,,-2.80000000e-009,-2.21875016e-004
,,,-2.77500000e-009,-2.39062517e-004
,,,-2.75000000e-009,-2.50781268e-004
,,,-2.72500000e-009,-2.55468768e-004
,,,-2.70000000e-009,-2.52343768e-004
,,,-2.67500000e-009,-2.41406267e-004
,,,-2.65000000e-009,-2.24218766e-004
,,,-2.62500000e-009,-2.00000014e-004
,,,-2.60000000e-009,-1.69531262e-004
,,,-2.57500000e-009,-1.36718760e-004
,,,-2.55000000e-009,-1.03906257e-004
,,,-2.52500000e-009,-7.26562551e-005
,,,-2.50000000e-009,-4.45312532e-005
,,,-2.47500000e-009,-2.18750015e-005
,,,-2.45000000e-009,-6.25000044e-006
,,,-2.42500000e-009,0.00000000e+000
,,,-2.40000000e-009,-2.34375017e-006
,,,-2.37500000e-009,-1.40625010e-005
,,,-2.35000000e-009,-3.35937524e-005
,,,-2.32500000e-009,-6.01562543e-005
,,,-2.30000000e-009,-9.21875065e-005
,,,-2.27500000e-009,-1.26562509e-004
,,,-2.25000000e-009,-1.63281262e-004
,,,-2.22500000e-009,-2.00000014e-004
,,,-2.20000000e-009,-2.35937517e-004
,,,-2.17500000e-009,-2.69531269e-004
,,,-2.15000000e-009,-3.00000021e-004
,,,-2.12500000e-009,-3.26562523e-004
,,,-2.10000000e-009,-3.50000025e-004
,,,-2.07500000e-009,-3.70312526e-004
,,,-2.05000000e-009,-3.86718777e-004
,,,-2.02500000e-009,-4.00000028e-004
,,,-2.00000000e-009,-4.10156279e-004
,,,-1.97500000e-009,-4.17968780e-004
,,,-1.95000000e-009,-4.23437530e-004
,,,-1.92500000e-009,-4.25781280e-004
,,,-1.90000000e-009,-4.25000030e-004
,,,-1.87500000e-009,-4.21093780e-004
,,,-1.85000000e-009,-4.12500029e-004
,,,-1.82500000e-009,-4.00000028e-004
,,,-1.80000000e-009,-3.87500027e-004
,,,-1.77500000e-009,-3.71093776e-004
,,,-1.75000000e-009,-3.52343775e-004
,,,-1.72500000e-009,-3.28906273e-004
,,,-1.70000000e-009,-3.00781271e-004
,,,-1.67500000e-009,-2.69531269e-004
,,,-1.65000000e-009,-2.35156267e-004
,,,-1.62500000e-009,-2.00000014e-004
,,,-1.60000000e-009,-1.76562512e-004
,,,-1.57500000e-009,-1.57812511e-004
,,,-1.55000000e-009,-1.46093760e-004
,,,-1.52500000e-009,-1.40625010e-004
,,,-1.50000000e-009,-1.43750010e-004
,,,-1.47500000e-009,-1.53906261e-004
,,,-1.45000000e-009,-1.72656262e-004
,,,-1.42500000e-009,-2.00000014e-004
,,,-1.40000000e-009,-2.50000018e-004
,,,-1.37500000e-009,-3.07812522e-004
,,,-1.35000000e-009,-3.70312526e-004
,,,-1.32500000e-009,-4.32031281e-004
,,,-1.30000000e-009,-4.88281285e-004
,,,-1.27500000e-009,-5.36718788e-004
,,,-1.25000000e-009,-5.74218791e-004
,,,-1.22500000e-009,-6.00000042e-004
,,,-1.20000000e-009,-6.31250045e-004
,,,-1.17500000e-009,-6.57031297e-004
,,,-1.15000000e-009,-6.77343798e-004
,,,-1.12500000e-009,-6.96093799e-004
,,,-1.10000000e-009,-7.14062551e-004
,,,-1.07500000e-009,-7.35937552e-004
,,,-1.05000000e-009,-7.63281304e-004
,,,-1.02500000e-009,-8.00000057e-004
,,,-1.00000000e-009,-8.65625061e-004
,,,-9.75000000e-010,-9.46875067e-004
,,,-9.50000000e-010,-1.04140632e-003
,,,-9.25000000e-010,-1.14531258e-003
,,,-9.00000000e-010,-1.25625009e-003
,,,-8.75000000e-010,-1.37109385e-003
,,,-8.50000000e-010,-1.48593761e-003
,,,-8.25000000e-010,-1.60000011e-003
,,,-8.00000000e-010,-1.72187512e-003
,,,-7.75000000e-010,-1.84375013e-003
,,,-7.50000000e-010,-1.96562514e-003
,,,-7.25000000e-010,-2.08828140e-003
,,,-7.00000000e-010,-2.21171891e-003
,,,-6.75000000e-010,-2.33671892e-003
,,,-6.50000000e-010,-2.46640642e-003
,,,-6.25000000e-010,-2.60000018e-003
,,,-6.00000000e-010,-2.74140644e-003
,,,-5.75000000e-010,-2.89062520e-003
,,,-5.50000000e-010,-3.04531272e-003
,,,-5.25000000e-010,-3.20390648e-003
,,,-5.00000000e-010,-3.36171899e-003
,,,-4.75000000e-010,-3.51484400e-003
,,,-4.50000000e-010,-3.66171901e-003
,,,-4.25000000e-010,-3.80000027e-003
,,,-4.00000000e-010,-3.91953153e-003
,,,-3.75000000e-010,-4.03203154e-003
,,,-3.50000000e-010,-4.13906279e-003
,,,-3.25000000e-010,-4.23984405e-003
,,,-3.00000000e-010,-4.33593781e-003
,,,-2.75000000e-010,-4.42812531e-003
,,,-2.50000000e-010,-4.51640657e-003
,,,-2.25000000e-010,-4.60000033e-003
,,,-2.00000000e-010,-4.66328158e-003
,,,-1.75000000e-010,-4.72656283e-003
,,,-1.50000000e-010,-4.78671909e-003
,,,-1.25000000e-010,-4.84453159e-003
,,,-1.00000000e-010,-4.89609410e-003
,,,-7.50000000e-011,-4.94062535e-003
,,,-5.00000000e-011,-4.97578160e-003
,,,-2.50000000e-011,-5.00000035e-003
,,,0.00000000e+000,-4.99453160e-003
,,,2.50000000e-011,-4.98515660e-003
,,,5.00000000e-011,-4.97421910e-003
,,,7.50000000e-011,-4.96562535e-003
,,,1.00000000e-010,-4.96171910e-003
,,,1.25000000e-010,-4.96562535e-003
,,,1.50000000e-010,-4.97734410e-003
,,,1.75000000e-010,-5.00000035e-003
,,,2.00000000e-010,-5.01484410e-003
,,,2.25000000e-010,-5.04296911e-003
,,,2.50000000e-010,-5.08437536e-003
,,,2.75000000e-010,-5.13750036e-003
,,,3.00000000e-010,-5.20000037e-003
,,,3.25000000e-010,-5.26640662e-003
,,,3.50000000e-010,-5.33515663e-003
,,,3.75000000e-010,-5.40000038e-003
,,,4.00000000e-010,-5.43515663e-003
,,,4.25000000e-010,-5.46250039e-003
,,,4.50000000e-010,-5.47890664e-003
,,,4.75000000e-010,-5.48437539e-003
,,,5.00000000e-010,-5.47968789e-003
,,,5.25000000e-010,-5.46406289e-003
,,,5.50000000e-010,-5.43671913e-003
,,,5.75000000e-010,-5.40000038e-003
,,,6.00000000e-010,-5.33515663e-003
,,,6.25000000e-010,-5.26328162e-003
,,,6.50000000e-010,-5.18593787e-003
,,,6.75000000e-010,-5.10625036e-003
,,,7.00000000e-010,-5.02578161e-003
,,,7.25000000e-010,-4.94687535e-003
,,,7.50000000e-010,-4.87109409e-003
,,,7.75000000e-010,-4.80000034e-003
,,,8.00000000e-010,-4.72343783e-003
,,,8.25000000e-010,-4.65390658e-003
,,,8.50000000e-010,-4.59140657e-003
,,,8.75000000e-010,-4.53671907e-003
,,,9.00000000e-010,-4.49140657e-003
,,,9.25000000e-010,-4.45390657e-003
,,,9.50000000e-010,-4.42421906e-003
,,,9.75000000e-010,-4.40000031e-003
,,,1.00000000e-009,-4.37031281e-003
,,,1.02500000e-009,-4.33984406e-003
,,,1.05000000e-009,-4.30390655e-003
,,,1.07500000e-009,-4.26171905e-003
,,,1.10000000e-009,-4.21171905e-003
,,,1.12500000e-009,-4.15156279e-003
,,,1.15000000e-009,-4.08046904e-003
,,,1.17500000e-009,-4.00000028e-003
,,,1.20000000e-009,-3.90390653e-003
,,,1.22500000e-009,-3.79843777e-003
,,,1.25000000e-009,-3.68828151e-003
,,,1.27500000e-009,-3.57656275e-003
,,,1.30000000e-009,-3.46796900e-003
,,,1.32500000e-009,-3.36640649e-003
,,,1.35000000e-009,-3.27656273e-003
,,,1.37500000e-009,-3.20000023e-003
,,,1.40000000e-009,-3.13984397e-003
,,,1.42500000e-009,-3.09218772e-003
,,,1.45000000e-009,-3.05625022e-003
,,,1.47500000e-009,-3.03125021e-003
,,,1.50000000e-009,-3.01562521e-003
,,,1.52500000e-009,-3.00625021e-003
,,,1.55000000e-009,-3.00156271e-003
,,,1.57500000e-009,-3.00000021e-003
,,,1.60000000e-009,-2.99765646e-003
,,,1.62500000e-009,-2.98828146e-003
,,,1.65000000e-009,-2.97187521e-003
,,,1.67500000e-009,-2.94765646e-003
,,,1.70000000e-009,-2.91640646e-003
,,,1.72500000e-009,-2.88046895e-003
,,,1.75000000e-009,-2.84140645e-003
,,,1.77500000e-009,-2.80000020e-003
,,,1.80000000e-009,-2.75546895e-003
,,,1.82500000e-009,-2.70859394e-003
,,,1.85000000e-009,-2.65859394e-003
,,,1.87500000e-009,-2.60625018e-003
,,,1.90000000e-009,-2.55390643e-003
,,,1.92500000e-009,-2.50156268e-003
,,,1.95000000e-009,-2.45000017e-003
,,,1.97500000e-009,-2.40000017e-003
,,,2.00000000e-009,-2.35078142e-003
,,,2.02500000e-009,-2.30078141e-003
,,,2.05000000e-009,-2.25000016e-003
,,,2.07500000e-009,-2.19765641e-003
,,,2.10000000e-009,-2.14609390e-003
,,,2.12500000e-009,-2.09531265e-003
,,,2.15000000e-009,-2.04687514e-003
,,,2.17500000e-009,-2.00000014e-003
,,,2.20000000e-009,-1.95625014e-003
,,,2.22500000e-009,-1.91171889e-003
,,,2.25000000e-009,-1.86406263e-003
,,,2.27500000e-009,-1.81484388e-003
,,,2.30000000e-009,-1.76328137e-003
,,,2.32500000e-009,-1.71015637e-003
,,,2.35000000e-009,-1.65546887e-003
,,,2.37500000e-009,-1.60000011e-003
,,,2.40000000e-009,-1.54687511e-003
,,,2.42500000e-009,-1.49375011e-003
,,,2.45000000e-009,-1.43984385e-003
,,,2.47500000e-009,-1.38593760e-003
,,,2.50000000e-009,-1.33437509e-003
,,,2.52500000e-009,-1.28515634e-003
,,,2.55000000e-009,-1.23984384e-003
,,,2.57500000e-009,-1.20000008e-003
,,,2.60000000e-009,-1.16875008e-003
,,,2.62500000e-009,-1.14062508e-003
,,,2.65000000e-009,-1.11484383e-003
,,,2.67500000e-009,-1.09062508e-003
,,,2.70000000e-009,-1.06718758e-003
,,,2.72500000e-009,-1.04453132e-003
,,,2.75000000e-009,-1.02187507e-003
,,,2.77500000e-009,-1.00000007e-003
,,,2.80000000e-009,-9.82812570e-004
,,,2.82500000e-009,-9.63281318e-004
,,,2.85000000e-009,-9.40625067e-004
,,,2.87500000e-009,-9.14062565e-004
,,,2.90000000e-009,-8.85937563e-004
,,,2.92500000e-009,-8.57031311e-004
,,,2.95000000e-009,-8.27343809e-004
,,,2.97500000e-009,-8.00000057e-004
,,,3.00000000e-009,-7.80468805e-004
,,,3.02500000e-009,-7.64062554e-004
,,,3.05000000e-009,-7.53125053e-004
,,,3.07500000e-009,-7.46875053e-004
,,,3.10000000e-009,-7.47656303e-004
,,,3.12500000e-009,-7.57031304e-004
,,,3.15000000e-009,-7.74218805e-004
,,,3.17500000e-009,-8.00000057e-004
,,,3.20000000e-009,-8.33593809e-004
,,,3.22500000e-009,-8.70312562e-004
,,,3.25000000e-009,-9.06250064e-004
,,,3.27500000e-009,-9.39062566e-004
,,,3.30000000e-009,-9.66406318e-004
,,,3.32500000e-009,-9.86718820e-004
,,,3.35000000e-009,-9.97656321e-004
,,,3.37500000e-009,-1.00000007e-003
,,,3.40000000e-009,-9.90625070e-004
,,,3.42500000e-009,-9.72656319e-004
,,,3.45000000e-009,-9.46093817e-004
,,,3.47500000e-009,-9.14843815e-004
,,,3.50000000e-009,-8.81250062e-004
,,,3.52500000e-009,-8.49218810e-004
,,,3.55000000e-009,-8.21875058e-004
,,,3.57500000e-009,-8.00000057e-004
,,,3.60000000e-009,-7.85156306e-004
,,,3.62500000e-009,-7.77343805e-004
,,,3.65000000e-009,-7.75781305e-004
,,,3.67500000e-009,-7.78906305e-004
,,,3.70000000e-009,-7.85156306e-004
,,,3.72500000e-009,-7.92187556e-004
,,,3.75000000e-009,-7.97656306e-004
,,,3.77500000e-009,-8.00000057e-004
,,,3.80000000e-009,-7.94531306e-004
,,,3.82500000e-009,-7.83593805e-004
,,,3.85000000e-009,-7.64843804e-004
,,,3.87500000e-009,-7.39843802e-004
,,,3.90000000e-009,-7.09375050e-004
,,,3.92500000e-009,-6.75000048e-004
,,,3.95000000e-009,-6.37500045e-004
,,,3.97500000e-009,-6.00000042e-004
,,,4.00000000e-009,-5.63281290e-004
,,,4.02500000e-009,-5.29687537e-004
,,,4.05000000e-009,-4.98437535e-004
,,,4.07500000e-009,-4.71875033e-004
,,,4.10000000e-009,-4.47656282e-004
,,,4.12500000e-009,-4.28125030e-004
,,,4.15000000e-009,-4.12500029e-004
,,,4.17500000e-009,-4.00000028e-004
,,,4.20000000e-009,-3.90625028e-004
,,,4.22500000e-009,-3.85156277e-004
,,,4.25000000e-009,-3.81250027e-004
,,,4.27500000e-009,-3.80468777e-004
,,,4.30000000e-009,-3.81250027e-004
,,,4.32500000e-009,-3.85156277e-004
,,,4.35000000e-009,-3.91406278e-004
,,,4.37500000e-009,-4.00000028e-004
,,,4.40000000e-009,-4.09375029e-004
,,,4.42500000e-009,-4.18750030e-004
,,,4.45000000e-009,-4.25000030e-004
,,,4.47500000e-009,-4.28125030e-004
,,,4.50000000e-009,-4.27343780e-004
,,,4.52500000e-009,-4.21875030e-004
,,,4.55000000e-009,-4.12500029e-004
,,,4.57500000e-009,-4.00000028e-004
,,,4.60000000e-009,-3.84375027e-004
,,,4.62500000e-009,-3.69531276e-004
,,,4.65000000e-009,-3.56250025e-004
,,,4.67500000e-009,-3.47656275e-004
,,,4.70000000e-009,-3.46093774e-004
,,,4.72500000e-009,-3.53906275e-004
,,,4.75000000e-009,-3.71875026e-004
,,,4.77500000e-009,-4.00000028e-004
,,,4.80000000e-009,-4.36718781e-004
,,,4.82500000e-009,-4.78125034e-004
,,,4.85000000e-009,-5.19531287e-004
,,,4.87500000e-009,-5.58593790e-004
,,,4.90000000e-009,-5.89062542e-004
,,,4.92500000e-009,-6.07812543e-004
,,,4.95000000e-009,-6.11718793e-004
,,,4.97500000e-009,-6.00000042e-004
,,,5.00000000e-009,-5.70312540e-004
,,,5.02500000e-009,-5.26562537e-004
,,,5.05000000e-009,-4.71875033e-004
,,,5.07500000e-009,-4.10937529e-004
,,,5.10000000e-009,-3.48437525e-004
,,,5.12500000e-009,-2.89843771e-004
,,,5.15000000e-009,-2.39062517e-004
,,,5.17500000e-009,-2.00000014e-004
,,,5.20000000e-009,-1.75000012e-004
,,,5.22500000e-009,-1.64062512e-004
,,,5.25000000e-009,-1.64062512e-004
,,,5.27500000e-009,-1.71875012e-004
,,,5.30000000e-009,-1.82812513e-004
,,,5.32500000e-009,-1.93750014e-004
,,,5.35000000e-009,-2.00781264e-004
,,,5.37500000e-009,-2.00000014e-004
,,,5.40000000e-009,-1.92187514e-004
,,,5.42500000e-009,-1.75781262e-004
,,,5.45000000e-009,-1.50781261e-004
,,,5.47500000e-009,-1.19531258e-004
,,,5.50000000e-009,-8.51562560e-005
,,,5.52500000e-009,-5.15625036e-005
,,,5.55000000e-009,-2.18750015e-005
,,,5.57500000e-009,0.00000000e+000
,,,5.60000000e-009,7.81250055e-006
,,,5.62500000e-009,3.90625028e-006
,,,5.65000000e-009,-1.01562507e-005
,,,5.67500000e-009,-3.59375025e-005
,,,5.70000000e-009,-6.95312549e-005
,,,5.72500000e-009,-1.10156258e-004
,,,5.75000000e-009,-1.53906261e-004
,,,5.77500000e-009,-2.00000014e-004
,,,5.80000000e-009,-2.45312517e-004
,,,5.82500000e-009,-2.86718770e-004
,,,5.85000000e-009,-3.21875023e-004
