RawData/DifferentLengths/R3/R3_50foot_5mV/wave021_Ch2.csv

"Record Length",1000,"Points",-7.72500000e-009,-1.64062512e-005
"Sample Interval",2.50000000e-011,s,-7.70000000e-009,-1.09375008e-005
"Trigger Point",309,"Samples",-7.67500000e-009,-5.46875039e-006
"Trigger Time",1.62000000e-012,s,-7.65000000e-009,0.00000000e+000
"",,,-7.62500000e-009,3.90625028e-006
"Horizontal Offset",-7.72500000e-009,s,-7.60000000e-009,6.25000044e-006
,,,-7.57500000e-009,7.03125050e-006
,,,-7.55000000e-009,7.03125050e-006
,,,-7.52500000e-009,6.25000044e-006
,,,-7.50000000e-009,3.90625028e-006
,,,-7.47500000e-009,1.56250011e-006
,,,-7.45000000e-009,0.00000000e+000
,,,-7.42500000e-009,0.00000000e+000
,,,-7.40000000e-009,7.81250055e-007
,,,-7.37500000e-009,1.56250011e-006
,,,-7.35000000e-009,3.12500022e-006
,,,-7.32500000e-009,3.90625028e-006
,,,-7.30000000e-009,3.90625028e-006
,,,-7.27500000e-009,2.34375017e-006
,,,-7.25000000e-009,0.00000000e+000
,,,-7.22500000e-009,-3.12500022e-006
,,,-7.20000000e-009,-6.25000044e-006
,,,-7.17500000e-009,-9.37500066e-006
,,,-7.15000000e-009,-1.17187508e-005
,,,-7.12500000e-009,-1.17187508e-005
,,,-7.10000000e-009,-1.01562507e-005
,,,-7.07500000e-009,-5.46875039e-006
,,,-7.05000000e-009,0.00000000e+000
,,,-7.02500000e-009,7.81250055e-006
,,,-7.00000000e-009,1.64062512e-005
,,,-6.97500000e-009,2.34375017e-005
,,,-6.95000000e-009,2.81250020e-005
,,,-6.92500000e-009,2.81250020e-005
,,,-6.90000000e-009,2.42187517e-005
,,,-6.87500000e-009,1.40625010e-005
,,,-6.85000000e-009,0.00000000e+000
,,,-6.82500000e-009,-1.56250011e-005
,,,-6.80000000e-009,-3.20312523e-005
,,,-6.77500000e-009,-4.60937533e-005
,,,-6.75000000e-009,-5.62500040e-005
,,,-6.72500000e-009,-5.78125041e-005
,,,-6.70000000e-009,-5.07812536e-005
,,,-6.67500000e-009,-3.12500022e-005
,,,-6.65000000e-009,0.00000000e+000
,,,-6.62500000e-009,4.29687530e-005
,,,-6.60000000e-009,9.60937568e-005
,,,-6.57500000e-009,1.54687511e-004
,,,-6.55000000e-009,2.15625015e-004
,,,-6.52500000e-009,2.75000019e-004
,,,-6.50000000e-009,3.27343773e-004
,,,-6.47500000e-009,3.70312526e-004
,,,-6.45000000e-009,4.00000028e-004
,,,-6.42500000e-009,4.10937529e-004
,,,-6.40000000e-009,4.07031279e-004
,,,-6.37500000e-009,3.89062528e-004
,,,-6.35000000e-009,3.60156275e-004
,,,-6.32500000e-009,3.23437523e-004
,,,-6.30000000e-009,2.81250020e-004
,,,-6.27500000e-009,2.39062517e-004
,,,-6.25000000e-009,2.00000014e-004
,,,-6.22500000e-009,1.66406262e-004
,,,-6.20000000e-009,1.42968760e-004
,,,-6.17500000e-009,1.29687509e-004
,,,-6.15000000e-009,1.26562509e-004
,,,-6.12500000e-009,1.33593759e-004
,,,-6.10000000e-009,1.49218761e-004
,,,-6.07500000e-009,1.71875012e-004
,,,-6.05000000e-009,2.00000014e-004
,,,-6.02500000e-009,2.29687516e-004
,,,-6.00000000e-009,2.60156268e-004
,,,-5.97500000e-009,2.91406271e-004
,,,-5.95000000e-009,3.20312523e-004
,,,-5.92500000e-009,3.46093774e-004
,,,-5.90000000e-009,3.69531276e-004
,,,-5.87500000e-009,3.87500027e-004
,,,-5.85000000e-009,4.00000028e-004
,,,-5.82500000e-009,4.02343778e-004
,,,-5.80000000e-009,3.98437528e-004
,,,-5.77500000e-009,3.85937527e-004
,,,-5.75000000e-009,3.64843776e-004
,,,-5.72500000e-009,3.34375024e-004
,,,-5.70000000e-009,2.96093771e-004
,,,-5.67500000e-009,2.50781268e-004
,,,-5.65000000e-009,2.00000014e-004
,,,-5.62500000e-009,1.44531260e-004
,,,-5.60000000e-009,9.06250064e-005
,,,-5.57500000e-009,4.29687530e-005
,,,-5.55000000e-009,3.90625028e-006
,,,-5.52500000e-009,-2.10937515e-005
,,,-5.50000000e-009,-3.12500022e-005
,,,-5.47500000e-009,-2.42187517e-005
,,,-5.45000000e-009,0.00000000e+000
,,,-5.42500000e-009,4.21875030e-005
,,,-5.40000000e-009,9.76562569e-005
,,,-5.37500000e-009,1.59375011e-004
,,,-5.35000000e-009,2.23437516e-004
,,,-5.32500000e-009,2.84375020e-004
,,,-5.30000000e-009,3.36718774e-004
,,,-5.27500000e-009,3.75781277e-004
,,,-5.25000000e-009,4.00000028e-004
,,,-5.22500000e-009,4.03906279e-004
,,,-5.20000000e-009,3.91406278e-004
,,,-5.17500000e-009,3.66406276e-004
,,,-5.15000000e-009,3.32031274e-004
,,,-5.12500000e-009,2.93750021e-004
,,,-5.10000000e-009,2.56250018e-004
,,,-5.07500000e-009,2.23437516e-004
,,,-5.05000000e-009,2.00000014e-004
,,,-5.02500000e-009,1.85937513e-004
,,,-5.00000000e-009,1.82031263e-004
,,,-4.97500000e-009,1.85937513e-004
,,,-4.95000000e-009,1.94531264e-004
,,,-4.92500000e-009,2.03906264e-004
,,,-4.90000000e-009,2.10156265e-004
,,,-4.87500000e-009,2.09375015e-004
,,,-4.85000000e-009,2.00000014e-004
,,,-4.82500000e-009,1.79687513e-004
,,,-4.80000000e-009,1.51562511e-004
,,,-4.77500000e-009,1.16406258e-004
,,,-4.75000000e-009,7.96875056e-005
,,,-4.72500000e-009,4.60937533e-005
,,,-4.70000000e-009,1.87500013e-005
,,,-4.67500000e-009,2.34375017e-006
,,,-4.65000000e-009,0.00000000e+000
,,,-4.62500000e-009,1.17187508e-005
,,,-4.60000000e-009,3.51562525e-005
,,,-4.57500000e-009,6.79687548e-005
,,,-4.55000000e-009,1.04687507e-004
,,,-4.52500000e-009,1.41406260e-004
,,,-4.50000000e-009,1.71875012e-004
,,,-4.47500000e-009,1.92187514e-004
,,,-4.45000000e-009,2.00000014e-004
,,,-4.42500000e-009,1.91406264e-004
,,,-4.40000000e-009,1.70312512e-004
,,,-4.37500000e-009,1.39062510e-004
,,,-4.35000000e-009,1.03125007e-004
,,,-4.32500000e-009,6.64062547e-005
,,,-4.30000000e-009,3.35937524e-005
,,,-4.27500000e-009,1.09375008e-005
,,,-4.25000000e-009,0.00000000e+000
,,,-4.22500000e-009,3.90625028e-006
,,,-4.20000000e-009,2.10937515e-005
,,,-4.17500000e-009,4.92187535e-005
,,,-4.15000000e-009,8.35937559e-005
,,,-4.12500000e-009,1.20312509e-004
,,,-4.10000000e-009,1.54687511e-004
,,,-4.07500000e-009,1.82031263e-004
,,,-4.05000000e-009,2.00000014e-004
,,,-4.02500000e-009,2.03906264e-004
,,,-4.00000000e-009,1.94531264e-004
,,,-3.97500000e-009,1.73437512e-004
,,,-3.95000000e-009,1.42968760e-004
,,,-3.92500000e-009,1.07031258e-004
,,,-3.90000000e-009,6.87500049e-005
,,,-3.87500000e-009,3.12500022e-005
,,,-3.85000000e-009,0.00000000e+000
,,,-3.82500000e-009,-2.34375017e-005
,,,-3.80000000e-009,-3.82812527e-005
,,,-3.77500000e-009,-4.45312532e-005
,,,-3.75000000e-009,-4.29687530e-005
,,,-3.72500000e-009,-3.59375025e-005
,,,-3.70000000e-009,-2.50000018e-005
,,,-3.67500000e-009,-1.17187508e-005
,,,-3.65000000e-009,0.00000000e+000
,,,-3.62500000e-009,1.09375008e-005
,,,-3.60000000e-009,1.87500013e-005
,,,-3.57500000e-009,2.26562516e-005
,,,-3.55000000e-009,2.26562516e-005
,,,-3.52500000e-009,1.95312514e-005
,,,-3.50000000e-009,1.40625010e-005
,,,-3.47500000e-009,7.03125050e-006
,,,-3.45000000e-009,0.00000000e+000
,,,-3.42500000e-009,-5.46875039e-006
,,,-3.40000000e-009,-1.09375008e-005
,,,-3.37500000e-009,-1.40625010e-005
,,,-3.35000000e-009,-1.48437511e-005
,,,-3.32500000e-009,-1.40625010e-005
,,,-3.30000000e-009,-1.09375008e-005
,,,-3.27500000e-009,-5.46875039e-006
,,,-3.25000000e-009,0.00000000e+000
,,,-3.22500000e-009,7.03125050e-006
,,,-3.20000000e-009,1.40625010e-005
,,,-3.17500000e-009,1.95312514e-005
,,,-3.15000000e-009,2.26562516e-005
,,,-3.12500000e-009,2.26562516e-005
,,,-3.10000000e-009,1.87500013e-005
,,,-3.07500000e-009,1.09375008e-005
,,,-3.05000000e-009,0.00000000e+000
,,,-3.02500000e-009,-1.09375008e-005
,,,-3.00000000e-009,-2.26562516e-005
,,,-2.97500000e-009,-3.28125023e-005
,,,-2.95000000e-009,-3.98437528e-005
,,,-2.92500000e-009,-4.14062529e-005
,,,-2.90000000e-009,-3.51562525e-005
,,,-2.87500000e-009,-2.10937515e-005
,,,-2.85000000e-009,0.00000000e+000
,,,-2.82500000e-009,2.96875021e-005
,,,-2.80000000e-009,6.40625045e-005
,,,-2.77500000e-009,1.00781257e-004
,,,-2.75000000e-009,1.35156260e-004
,,,-2.72500000e-009,1.65625012e-004
,,,-2.70000000e-009,1.88281263e-004
,,,-2.67500000e-009,2.00000014e-004
,,,-2.65000000e-009,2.00000014e-004
,,,-2.62500000e-009,1.86718763e-004
,,,-2.60000000e-009,1.64062512e-004
,,,-2.57500000e-009,1.33593759e-004
,,,-2.55000000e-009,1.00000007e-004
,,,-2.52500000e-009,6.56250046e-005
,,,-2.50000000e-009,3.51562525e-005
,,,-2.47500000e-009,1.25000009e-005
,,,-2.45000000e-009,0.00000000e+000
,,,-2.42500000e-009,-7.81250055e-007
,,,-2.40000000e-009,9.37500066e-006
,,,-2.37500000e-009,3.04687522e-005
,,,-2.35000000e-009,6.01562543e-005
,,,-2.32500000e-009,9.53125067e-005
,,,-2.30000000e-009,1.32031259e-004
,,,-2.27500000e-009,1.67968762e-004
,,,-2.25000000e-009,2.00000014e-004
,,,-2.22500000e-009,2.22656266e-004
,,,-2.20000000e-009,2.37500017e-004
,,,-2.17500000e-009,2.44531267e-004
,,,-2.15000000e-009,2.43750017e-004
,,,-2.12500000e-009,2.37500017e-004
,,,-2.10000000e-009,2.26562516e-004
,,,-2.07500000e-009,2.13281265e-004
,,,-2.05000000e-009,2.00000014e-004
,,,-2.02500000e-009,1.82812513e-004
,,,-2.00000000e-009,1.69531262e-004
,,,-1.97500000e-009,1.60937511e-004
,,,-1.95000000e-009,1.57812511e-004
,,,-1.92500000e-009,1.60156261e-004
,,,-1.90000000e-009,1.68750012e-004
,,,-1.87500000e-009,1.82031263e-004
,,,-1.85000000e-009,2.00000014e-004
,,,-1.82500000e-009,2.11718765e-004
,,,-1.80000000e-009,2.23437516e-004
,,,-1.77500000e-009,2.32031266e-004
,,,-1.75000000e-009,2.36718767e-004
,,,-1.72500000e-009,2.36718767e-004
,,,-1.70000000e-009,2.30468766e-004
,,,-1.67500000e-009,2.17968765e-004
,,,-1.65000000e-009,2.00000014e-004
,,,-1.62500000e-009,1.67968762e-004
,,,-1.60000000e-009,1.32812509e-004
,,,-1.57500000e-009,9.60937568e-005
,,,-1.55000000e-009,6.17187544e-005
,,,-1.52500000e-009,3.28125023e-005
,,,-1.50000000e-009,1.17187508e-005
,,,-1.47500000e-009,7.81250055e-007
,,,-1.45000000e-009,0.00000000e+000
,,,-1.42500000e-009,-4.68750033e-006
,,,-1.40000000e-009,-3.12500022e-006
,,,-1.37500000e-009,7.81250055e-007
,,,-1.35000000e-009,7.81250055e-006
,,,-1.32500000e-009,1.40625010e-005
,,,-1.30000000e-009,1.71875012e-005
,,,-1.27500000e-009,1.32812509e-005
,,,-1.25000000e-009,0.00000000e+000
,,,-1.22500000e-009,-4.14062529e-005
,,,-1.20000000e-009,-9.76562569e-005
,,,-1.17500000e-009,-1.67187512e-004
,,,-1.15000000e-009,-2.47656268e-004
,,,-1.12500000e-009,-3.35156274e-004
,,,-1.10000000e-009,-4.25000030e-004
,,,-1.07500000e-009,-5.14843786e-004
,,,-1.05000000e-009,-6.00000042e-004
,,,-1.02500000e-009,-6.93750049e-004
,,,-1.00000000e-009,-7.79687555e-004
,,,-9.75000000e-010,-8.54687560e-004
,,,-9.50000000e-010,-9.15625065e-004
,,,-9.25000000e-010,-9.60156318e-004
,,,-9.00000000e-010,-9.87500070e-004
,,,-8.75000000e-010,-1.00000007e-003
,,,-8.50000000e-010,-1.00000007e-003
,,,-8.25000000e-010,-1.00859382e-003
,,,-8.00000000e-010,-1.02031257e-003
,,,-7.75000000e-010,-1.04062507e-003
,,,-7.50000000e-010,-1.07343758e-003
,,,-7.25000000e-010,-1.12343758e-003
,,,-7.00000000e-010,-1.19296883e-003
,,,-6.75000000e-010,-1.28437509e-003
,,,-6.50000000e-010,-1.40000010e-003
,,,-6.25000000e-010,-1.55078136e-003
,,,-6.00000000e-010,-1.72343762e-003
,,,-5.75000000e-010,-1.91171889e-003
,,,-5.50000000e-010,-2.10703140e-003
,,,-5.25000000e-010,-2.30000016e-003
,,,-5.00000000e-010,-2.48437518e-003
,,,-4.75000000e-010,-2.65234394e-003
,,,-4.50000000e-010,-2.80000020e-003
,,,-4.25000000e-010,-2.92812521e-003
,,,-4.00000000e-010,-3.03906272e-003
,,,-3.75000000e-010,-3.13671897e-003
,,,-3.50000000e-010,-3.22500023e-003
,,,-3.25000000e-010,-3.31093773e-003
,,,-3.00000000e-010,-3.39843774e-003
,,,-2.75000000e-010,-3.49296900e-003
,,,-2.50000000e-010,-3.60000025e-003
,,,-2.25000000e-010,-3.71640651e-003
,,,-2.00000000e-010,-3.85078152e-003
,,,-1.75000000e-010,-4.00234403e-003
,,,-1.50000000e-010,-4.16484404e-003
,,,-1.25000000e-010,-4.33281281e-003
,,,-1.00000000e-010,-4.49843782e-003
,,,-7.50000000e-011,-4.65625033e-003
,,,-5.00000000e-011,-4.80000034e-003
,,,-2.50000000e-011,-4.91250035e-003
,,,0.00000000e+000,-5.01015660e-003
,,,2.50000000e-011,-5.09375036e-003
,,,5.00000000e-011,-5.16640662e-003
,,,7.50000000e-011,-5.23046912e-003
,,,1.00000000e-010,-5.28906287e-003
,,,1.25000000e-010,-5.34453163e-003
,,,1.50000000e-010,-5.40000038e-003
,,,1.75000000e-010,-5.43750038e-003
,,,2.00000000e-010,-5.48203164e-003
,,,2.25000000e-010,-5.53359414e-003
,,,2.50000000e-010,-5.58984415e-003
,,,2.75000000e-010,-5.64765665e-003
,,,3.00000000e-010,-5.70468790e-003
,,,3.25000000e-010,-5.75625041e-003
,,,3.50000000e-010,-5.80000041e-003
,,,3.75000000e-010,-5.80937541e-003
,,,4.00000000e-010,-5.81171916e-003
,,,4.25000000e-010,-5.81015666e-003
,,,4.50000000e-010,-5.80625041e-003
,,,4.75000000e-010,-5.80156291e-003
,,,5.00000000e-010,-5.79765666e-003
,,,5.25000000e-010,-5.79687541e-003
,,,5.50000000e-010,-5.80000041e-003
,,,5.75000000e-010,-5.78437541e-003
,,,6.00000000e-010,-5.77578166e-003
,,,6.25000000e-010,-5.77265666e-003
,,,6.50000000e-010,-5.77421916e-003
,,,6.75000000e-010,-5.78046916e-003
,,,7.00000000e-010,-5.78828166e-003
,,,7.25000000e-010,-5.79531291e-003
,,,7.50000000e-010,-5.80000041e-003
,,,7.75000000e-010,-5.77812541e-003
,,,8.00000000e-010,-5.75312541e-003
,,,8.25000000e-010,-5.72500041e-003
,,,8.50000000e-010,-5.69687540e-003
,,,8.75000000e-010,-5.66875040e-003
,,,9.00000000e-010,-5.64375040e-003
,,,9.25000000e-010,-5.62031290e-003
,,,9.50000000e-010,-5.60000040e-003
,,,9.75000000e-010,-5.56250039e-003
,,,1.00000000e-009,-5.52343789e-003
,,,1.02500000e-009,-5.48281289e-003
,,,1.05000000e-009,-5.43828163e-003
,,,1.07500000e-009,-5.38906288e-003
,,,1.10000000e-009,-5.33359413e-003
,,,1.12500000e-009,-5.27109412e-003
,,,1.15000000e-009,-5.20000037e-003
,,,1.17500000e-009,-5.10703161e-003
,,,1.20000000e-009,-5.00546910e-003
,,,1.22500000e-009,-4.89843785e-003
,,,1.25000000e-009,-4.78906284e-003
,,,1.27500000e-009,-4.68203158e-003
,,,1.30000000e-009,-4.57968782e-003
,,,1.32500000e-009,-4.48515657e-003
,,,1.35000000e-009,-4.40000031e-003
,,,1.37500000e-009,-4.31796906e-003
,,,1.40000000e-009,-4.24218780e-003
,,,1.42500000e-009,-4.17031280e-003
,,,1.45000000e-009,-4.10078154e-003
,,,1.47500000e-009,-4.03046904e-003
,,,1.50000000e-009,-3.95859403e-003
,,,1.52500000e-009,-3.88203152e-003
,,,1.55000000e-009,-3.80000027e-003
,,,1.57500000e-009,-3.70859401e-003
,,,1.60000000e-009,-3.60859401e-003
,,,1.62500000e-009,-3.50156275e-003
,,,1.65000000e-009,-3.39218774e-003
,,,1.67500000e-009,-3.28359398e-003
,,,1.70000000e-009,-3.17968773e-003
,,,1.72500000e-009,-3.08359397e-003
,,,1.75000000e-009,-3.00000021e-003
,,,1.77500000e-009,-2.93203146e-003
,,,1.80000000e-009,-2.87265645e-003
,,,1.82500000e-009,-2.82109395e-003
,,,1.85000000e-009,-2.77421895e-003
,,,1.87500000e-009,-2.73046894e-003
,,,1.90000000e-009,-2.68828144e-003
,,,1.92500000e-009,-2.64453144e-003
,,,1.95000000e-009,-2.60000018e-003
,,,1.97500000e-009,-2.55546893e-003
,,,2.00000000e-009,-2.50468768e-003
,,,2.02500000e-009,-2.44921892e-003
,,,2.05000000e-009,-2.39062517e-003
,,,2.07500000e-009,-2.33281267e-003
,,,2.10000000e-009,-2.28046891e-003
,,,2.12500000e-009,-2.23515641e-003
,,,2.15000000e-009,-2.20000016e-003
,,,2.17500000e-009,-2.17968765e-003
,,,2.20000000e-009,-2.16406265e-003
,,,2.22500000e-009,-2.14921890e-003
,,,2.25000000e-009,-2.13281265e-003
,,,2.27500000e-009,-2.11171890e-003
,,,2.30000000e-009,-2.08359390e-003
,,,2.32500000e-009,-2.04609389e-003
,,,2.35000000e-009,-2.00000014e-003
,,,2.37500000e-009,-1.95000014e-003
,,,2.40000000e-009,-1.89218763e-003
,,,2.42500000e-009,-1.82890638e-003
,,,2.45000000e-009,-1.76484387e-003
,,,2.47500000e-009,-1.70546887e-003
,,,2.50000000e-009,-1.65546887e-003
,,,2.52500000e-009,-1.61953136e-003
,,,2.55000000e-009,-1.60000011e-003
,,,2.57500000e-009,-1.60078136e-003
,,,2.60000000e-009,-1.61093761e-003
,,,2.62500000e-009,-1.62656262e-003
,,,2.65000000e-009,-1.64218762e-003
,,,2.67500000e-009,-1.65234387e-003
,,,2.70000000e-009,-1.65078137e-003
,,,2.72500000e-009,-1.63437512e-003
,,,2.75000000e-009,-1.60000011e-003
,,,2.77500000e-009,-1.55000011e-003
,,,2.80000000e-009,-1.48203135e-003
,,,2.82500000e-009,-1.40078135e-003
,,,2.85000000e-009,-1.31015634e-003
,,,2.87500000e-009,-1.21796884e-003
,,,2.90000000e-009,-1.13125008e-003
,,,2.92500000e-009,-1.05625007e-003
,,,2.95000000e-009,-1.00000007e-003
,,,2.97500000e-009,-9.70312569e-004
,,,3.00000000e-009,-9.62500068e-004
,,,3.02500000e-009,-9.74218819e-004
,,,3.05000000e-009,-1.00312507e-003
,,,3.07500000e-009,-1.04531257e-003
,,,3.10000000e-009,-1.09531258e-003
,,,3.12500000e-009,-1.14843758e-003
,,,3.15000000e-009,-1.20000008e-003
,,,3.17500000e-009,-1.24687509e-003
,,,3.20000000e-009,-1.28125009e-003
,,,3.22500000e-009,-1.30156259e-003
,,,3.25000000e-009,-1.30625009e-003
,,,3.27500000e-009,-1.29687509e-003
,,,3.30000000e-009,-1.27421884e-003
,,,3.32500000e-009,-1.24062509e-003
,,,3.35000000e-009,-1.20000008e-003
,,,3.37500000e-009,-1.15703133e-003
,,,3.40000000e-009,-1.11406258e-003
,,,3.42500000e-009,-1.07343758e-003
,,,3.45000000e-009,-1.03906257e-003
,,,3.47500000e-009,-1.01250007e-003
,,,3.50000000e-009,-9.96875071e-004
,,,3.52500000e-009,-9.92187570e-004
,,,3.55000000e-009,-1.00000007e-003
,,,3.57500000e-009,-1.01875007e-003
,,,3.60000000e-009,-1.04609382e-003
,,,3.62500000e-009,-1.07734383e-003
,,,3.65000000e-009,-1.11093758e-003
,,,3.67500000e-009,-1.14218758e-003
,,,3.70000000e-009,-1.16953133e-003
,,,3.72500000e-009,-1.18906258e-003
,,,3.75000000e-009,-1.20000008e-003
,,,3.77500000e-009,-1.19921883e-003
,,,3.80000000e-009,-1.18750008e-003
,,,3.82500000e-009,-1.16562508e-003
,,,3.85000000e-009,-1.13671883e-003
,,,3.87500000e-009,-1.10156258e-003
,,,3.90000000e-009,-1.06562508e-003
,,,3.92500000e-009,-1.03046882e-003
,,,3.95000000e-009,-1.00000007e-003
,,,3.97500000e-009,-9.75000069e-004
,,,4.00000000e-009,-9.58593818e-004
,,,4.02500000e-009,-9.50781317e-004
,,,4.05000000e-009,-9.50781317e-004
,,,4.07500000e-009,-9.57812568e-004
,,,4.10000000e-009,-9.68750069e-004
,,,4.12500000e-009,-9.83593820e-004
,,,4.15000000e-009,-1.00000007e-003
,,,4.17500000e-009,-1.01640632e-003
,,,4.20000000e-009,-1.02968757e-003
,,,4.22500000e-009,-1.03828132e-003
,,,4.25000000e-009,-1.04218757e-003
,,,4.27500000e-009,-1.03984382e-003
,,,4.30000000e-009,-1.03203132e-003
,,,4.32500000e-009,-1.01875007e-003
,,,4.35000000e-009,-1.00000007e-003
,,,4.37500000e-009,-9.77343819e-004
,,,4.40000000e-009,-9.51562567e-004
,,,4.42500000e-009,-9.24218815e-004
,,,4.45000000e-009,-8.96093813e-004
,,,4.47500000e-009,-8.68750061e-004
,,,4.50000000e-009,-8.42968810e-004
,,,4.52500000e-009,-8.19531308e-004
,,,4.55000000e-009,-8.00000057e-004
,,,4.57500000e-009,-7.85156306e-004
,,,4.60000000e-009,-7.75000055e-004
,,,4.62500000e-009,-7.69531304e-004
,,,4.65000000e-009,-7.67968804e-004
,,,4.67500000e-009,-7.71093805e-004
,,,4.70000000e-009,-7.77343805e-004
,,,4.72500000e-009,-7.86718806e-004
,,,4.75000000e-009,-8.00000057e-004
,,,4.77500000e-009,-8.17187558e-004
,,,4.80000000e-009,-8.37500059e-004
,,,4.82500000e-009,-8.59375061e-004
,,,4.85000000e-009,-8.83593813e-004
,,,4.87500000e-009,-9.09375064e-004
,,,4.90000000e-009,-9.37500066e-004
,,,4.92500000e-009,-9.67968819e-004
,,,4.95000000e-009,-1.00000007e-003
,,,4.97500000e-009,-1.03125007e-003
,,,5.00000000e-009,-1.06328133e-003
,,,5.02500000e-009,-1.09453133e-003
,,,5.05000000e-009,-1.12343758e-003
,,,5.07500000e-009,-1.14921883e-003
,,,5.10000000e-009,-1.17187508e-003
,,,5.12500000e-009,-1.18906258e-003
,,,5.15000000e-009,-1.20000008e-003
,,,5.17500000e-009,-1.19921883e-003
,,,5.20000000e-009,-1.19140633e-003
,,,5.22500000e-009,-1.17500008e-003
,,,5.25000000e-009,-1.15156258e-003
,,,5.27500000e-009,-1.12109383e-003
,,,5.30000000e-009,-1.08437508e-003
,,,5.32500000e-009,-1.04375007e-003
,,,5.35000000e-009,-1.00000007e-003
,,,5.37500000e-009,-9.52343817e-004
,,,5.40000000e-009,-9.07031314e-004
,,,5.42500000e-009,-8.66406311e-004
,,,5.45000000e-009,-8.32812559e-004
,,,5.47500000e-009,-8.07812557e-004
,,,5.50000000e-009,-7.93750056e-004
,,,5.52500000e-009,-7.90625056e-004
,,,5.55000000e-009,-8.00000057e-004
,,,5.57500000e-009,-8.15625058e-004
,,,5.60000000e-009,-8.39843809e-004
,,,5.62500000e-009,-8.68750061e-004
,,,5.65000000e-009,-9.01562564e-004
,,,5.67500000e-009,-9.33593816e-004
,,,5.70000000e-009,-9.61718818e-004
,,,5.72500000e-009,-9.85156320e-004
,,,5.75000000e-009,-1.00000007e-003
,,,5.77500000e-009,-1.00078132e-003
,,,5.80000000e-009,-9.92187570e-004
,,,5.82500000e-009,-9.74218819e-004
,,,5.85000000e-009,-9.47656317e-004
,,,5.87500000e-009,-9.14843815e-004
,,,5.90000000e-009,-8.77343812e-004
,,,5.92500000e-009,-8.38281309e-004
,,,5.95000000e-009,-8.00000057e-004
