RawData/DifferentLengths/R3/R3_50foot_5mV/wave000_Ch2.csv

"Record Length",1000,"Points",-7.72500000e-009,1.56250011e-005
"Sample Interval",2.50000000e-011,s,-7.70000000e-009,1.64062512e-005
"Trigger Point",309,"Samples",-7.67500000e-009,1.32812509e-005
"Trigger Time",2.40200000e-011,s,-7.65000000e-009,7.81250055e-006
"",,,-7.62500000e-009,0.00000000e+000
"Horizontal Offset",-7.72500000e-009,s,-7.60000000e-009,-9.37500066e-006
,,,-7.57500000e-009,-2.03125014e-005
,,,-7.55000000e-009,-2.96875021e-005
,,,-7.52500000e-009,-3.51562525e-005
,,,-7.50000000e-009,-3.67187526e-005
,,,-7.47500000e-009,-3.20312523e-005
,,,-7.45000000e-009,-1.95312514e-005
,,,-7.42500000e-009,0.00000000e+000
,,,-7.40000000e-009,2.57812518e-005
,,,-7.37500000e-009,5.70312540e-005
,,,-7.35000000e-009,9.06250064e-005
,,,-7.32500000e-009,1.23437509e-004
,,,-7.30000000e-009,1.53125011e-004
,,,-7.27500000e-009,1.77343763e-004
,,,-7.25000000e-009,1.93750014e-004
,,,-7.22500000e-009,2.00000014e-004
,,,-7.20000000e-009,1.93750014e-004
,,,-7.17500000e-009,1.77343763e-004
,,,-7.15000000e-009,1.53125011e-004
,,,-7.12500000e-009,1.23437509e-004
,,,-7.10000000e-009,9.06250064e-005
,,,-7.07500000e-009,5.70312540e-005
,,,-7.05000000e-009,2.57812518e-005
,,,-7.02500000e-009,0.00000000e+000
,,,-7.00000000e-009,-1.95312514e-005
,,,-6.97500000e-009,-3.20312523e-005
,,,-6.95000000e-009,-3.67187526e-005
,,,-6.92500000e-009,-3.51562525e-005
,,,-6.90000000e-009,-2.96875021e-005
,,,-6.87500000e-009,-2.03125014e-005
,,,-6.85000000e-009,-9.37500066e-006
,,,-6.82500000e-009,0.00000000e+000
,,,-6.80000000e-009,7.81250055e-006
,,,-6.77500000e-009,1.32812509e-005
,,,-6.75000000e-009,1.64062512e-005
,,,-6.72500000e-009,1.56250011e-005
,,,-6.70000000e-009,1.32812509e-005
,,,-6.67500000e-009,9.37500066e-006
,,,-6.65000000e-009,4.68750033e-006
,,,-6.62500000e-009,0.00000000e+000
,,,-6.60000000e-009,-3.90625028e-006
,,,-6.57500000e-009,-6.25000044e-006
,,,-6.55000000e-009,-7.03125050e-006
,,,-6.52500000e-009,-7.03125050e-006
,,,-6.50000000e-009,-6.25000044e-006
,,,-6.47500000e-009,-3.90625028e-006
,,,-6.45000000e-009,-1.56250011e-006
,,,-6.42500000e-009,0.00000000e+000
,,,-6.40000000e-009,7.81250055e-007
,,,-6.37500000e-009,7.81250055e-007
,,,-6.35000000e-009,0.00000000e+000
,,,-6.32500000e-009,0.00000000e+000
,,,-6.30000000e-009,0.00000000e+000
,,,-6.27500000e-009,-7.81250055e-007
,,,-6.25000000e-009,-7.81250055e-007
,,,-6.22500000e-009,0.00000000e+000
,,,-6.20000000e-009,1.56250011e-006
,,,-6.17500000e-009,3.90625028e-006
,,,-6.15000000e-009,6.25000044e-006
,,,-6.12500000e-009,7.03125050e-006
,,,-6.10000000e-009,7.03125050e-006
,,,-6.07500000e-009,6.25000044e-006
,,,-6.05000000e-009,3.90625028e-006
,,,-6.02500000e-009,0.00000000e+000
,,,-6.00000000e-009,-4.68750033e-006
,,,-5.97500000e-009,-9.37500066e-006
,,,-5.95000000e-009,-1.32812509e-005
,,,-5.92500000e-009,-1.56250011e-005
,,,-5.90000000e-009,-1.64062512e-005
,,,-5.87500000e-009,-1.32812509e-005
,,,-5.85000000e-009,-7.81250055e-006
,,,-5.82500000e-009,0.00000000e+000
,,,-5.80000000e-009,9.37500066e-006
,,,-5.77500000e-009,2.03125014e-005
,,,-5.75000000e-009,2.96875021e-005
,,,-5.72500000e-009,3.51562525e-005
,,,-5.70000000e-009,3.67187526e-005
,,,-5.67500000e-009,3.20312523e-005
,,,-5.65000000e-009,1.95312514e-005
,,,-5.62500000e-009,0.00000000e+000
,,,-5.60000000e-009,-2.65625019e-005
,,,-5.57500000e-009,-5.85937541e-005
,,,-5.55000000e-009,-9.29687566e-005
,,,-5.52500000e-009,-1.26562509e-004
,,,-5.50000000e-009,-1.57031261e-004
,,,-5.47500000e-009,-1.80468763e-004
,,,-5.45000000e-009,-1.95312514e-004
,,,-5.42500000e-009,-2.00000014e-004
,,,-5.40000000e-009,-1.92187514e-004
,,,-5.37500000e-009,-1.75000012e-004
,,,-5.35000000e-009,-1.50000011e-004
,,,-5.32500000e-009,-1.19531258e-004
,,,-5.30000000e-009,-8.59375061e-005
,,,-5.27500000e-009,-5.31250038e-005
,,,-5.25000000e-009,-2.34375017e-005
,,,-5.22500000e-009,0.00000000e+000
,,,-5.20000000e-009,1.56250011e-005
,,,-5.17500000e-009,2.42187517e-005
,,,-5.15000000e-009,2.65625019e-005
,,,-5.12500000e-009,2.34375017e-005
,,,-5.10000000e-009,1.71875012e-005
,,,-5.07500000e-009,1.01562507e-005
,,,-5.05000000e-009,3.90625028e-006
,,,-5.02500000e-009,0.00000000e+000
,,,-5.00000000e-009,0.00000000e+000
,,,-4.97500000e-009,7.81250055e-007
,,,-4.95000000e-009,5.46875039e-006
,,,-4.92500000e-009,1.09375008e-005
,,,-4.90000000e-009,1.40625010e-005
,,,-4.87500000e-009,1.48437511e-005
,,,-4.85000000e-009,1.01562507e-005
,,,-4.82500000e-009,0.00000000e+000
,,,-4.80000000e-009,-1.64062512e-005
,,,-4.77500000e-009,-3.90625028e-005
,,,-4.75000000e-009,-6.64062547e-005
,,,-4.72500000e-009,-9.60937568e-005
,,,-4.70000000e-009,-1.26562509e-004
,,,-4.67500000e-009,-1.54687511e-004
,,,-4.65000000e-009,-1.79687513e-004
,,,-4.62500000e-009,-2.00000014e-004
,,,-4.60000000e-009,-2.11718765e-004
,,,-4.57500000e-009,-2.17187515e-004
,,,-4.55000000e-009,-2.17968765e-004
,,,-4.52500000e-009,-2.14843765e-004
,,,-4.50000000e-009,-2.10156265e-004
,,,-4.47500000e-009,-2.04687514e-004
,,,-4.45000000e-009,-2.00781264e-004
,,,-4.42500000e-009,-2.00000014e-004
,,,-4.40000000e-009,-2.00000014e-004
,,,-4.37500000e-009,-2.03125014e-004
,,,-4.35000000e-009,-2.07031265e-004
,,,-4.32500000e-009,-2.11718765e-004
,,,-4.30000000e-009,-2.14062515e-004
,,,-4.27500000e-009,-2.14062515e-004
,,,-4.25000000e-009,-2.09375015e-004
,,,-4.22500000e-009,-2.00000014e-004
,,,-4.20000000e-009,-1.82031263e-004
,,,-4.17500000e-009,-1.59375011e-004
,,,-4.15000000e-009,-1.32812509e-004
,,,-4.12500000e-009,-1.03906257e-004
,,,-4.10000000e-009,-7.42187553e-005
,,,-4.07500000e-009,-4.60937533e-005
,,,-4.05000000e-009,-2.03125014e-005
,,,-4.02500000e-009,0.00000000e+000
,,,-4.00000000e-009,1.48437511e-005
,,,-3.97500000e-009,2.42187517e-005
,,,-3.95000000e-009,2.81250020e-005
,,,-3.92500000e-009,2.65625019e-005
,,,-3.90000000e-009,2.18750015e-005
,,,-3.87500000e-009,1.48437511e-005
,,,-3.85000000e-009,7.03125050e-006
,,,-3.82500000e-009,0.00000000e+000
,,,-3.80000000e-009,-5.46875039e-006
,,,-3.77500000e-009,-1.01562507e-005
,,,-3.75000000e-009,-1.17187508e-005
,,,-3.72500000e-009,-1.17187508e-005
,,,-3.70000000e-009,-9.37500066e-006
,,,-3.67500000e-009,-7.03125050e-006
,,,-3.65000000e-009,-3.12500022e-006
,,,-3.62500000e-009,0.00000000e+000
,,,-3.60000000e-009,2.34375017e-006
,,,-3.57500000e-009,5.46875039e-006
,,,-3.55000000e-009,7.03125050e-006
,,,-3.52500000e-009,7.03125050e-006
,,,-3.50000000e-009,7.03125050e-006
,,,-3.47500000e-009,5.46875039e-006
,,,-3.45000000e-009,2.34375017e-006
,,,-3.42500000e-009,0.00000000e+000
,,,-3.40000000e-009,-1.56250011e-006
,,,-3.37500000e-009,-3.12500022e-006
,,,-3.35000000e-009,-3.90625028e-006
,,,-3.32500000e-009,-3.90625028e-006
,,,-3.30000000e-009,-3.12500022e-006
,,,-3.27500000e-009,-2.34375017e-006
,,,-3.25000000e-009,-7.81250055e-007
,,,-3.22500000e-009,0.00000000e+000
,,,-3.20000000e-009,1.56250011e-006
,,,-3.17500000e-009,3.90625028e-006
,,,-3.15000000e-009,6.25000044e-006
,,,-3.12500000e-009,7.03125050e-006
,,,-3.10000000e-009,7.81250055e-006
,,,-3.07500000e-009,6.25000044e-006
,,,-3.05000000e-009,3.90625028e-006
,,,-3.02500000e-009,0.00000000e+000
,,,-3.00000000e-009,-3.90625028e-006
,,,-2.97500000e-009,-7.81250055e-006
,,,-2.95000000e-009,-1.17187508e-005
,,,-2.92500000e-009,-1.48437511e-005
,,,-2.90000000e-009,-1.56250011e-005
,,,-2.87500000e-009,-1.40625010e-005
,,,-2.85000000e-009,-8.59375061e-006
,,,-2.82500000e-009,0.00000000e+000
,,,-2.80000000e-009,1.32812509e-005
,,,-2.77500000e-009,3.04687522e-005
,,,-2.75000000e-009,5.15625036e-005
,,,-2.72500000e-009,7.65625054e-005
,,,-2.70000000e-009,1.04687507e-004
,,,-2.67500000e-009,1.35156260e-004
,,,-2.65000000e-009,1.66406262e-004
,,,-2.62500000e-009,2.00000014e-004
,,,-2.60000000e-009,2.31250016e-004
,,,-2.57500000e-009,2.62500019e-004
,,,-2.55000000e-009,2.92187521e-004
,,,-2.52500000e-009,3.18750023e-004
,,,-2.50000000e-009,3.43750024e-004
,,,-2.47500000e-009,3.65625026e-004
,,,-2.45000000e-009,3.84375027e-004
,,,-2.42500000e-009,4.00000028e-004
,,,-2.40000000e-009,4.10156279e-004
,,,-2.37500000e-009,4.17187530e-004
,,,-2.35000000e-009,4.21093780e-004
,,,-2.32500000e-009,4.22656280e-004
,,,-2.30000000e-009,4.21093780e-004
,,,-2.27500000e-009,4.17187530e-004
,,,-2.25000000e-009,4.10156279e-004
,,,-2.22500000e-009,4.00000028e-004
,,,-2.20000000e-009,3.85156277e-004
,,,-2.17500000e-009,3.67187526e-004
,,,-2.15000000e-009,3.46875025e-004
,,,-2.12500000e-009,3.23437523e-004
,,,-2.10000000e-009,2.96875021e-004
,,,-2.07500000e-009,2.67187519e-004
,,,-2.05000000e-009,2.34375017e-004
,,,-2.02500000e-009,2.00000014e-004
,,,-2.00000000e-009,1.63281262e-004
,,,-1.97500000e-009,1.28125009e-004
,,,-1.95000000e-009,9.53125067e-005
,,,-1.92500000e-009,6.48437546e-005
,,,-1.90000000e-009,3.90625028e-005
,,,-1.87500000e-009,1.87500013e-005
,,,-1.85000000e-009,5.46875039e-006
,,,-1.82500000e-009,0.00000000e+000
,,,-1.80000000e-009,7.81250055e-007
,,,-1.77500000e-009,9.37500066e-006
,,,-1.75000000e-009,2.65625019e-005
,,,-1.72500000e-009,5.00000035e-005
,,,-1.70000000e-009,8.04687557e-005
,,,-1.67500000e-009,1.17187508e-004
,,,-1.65000000e-009,1.57031261e-004
,,,-1.62500000e-009,2.00000014e-004
,,,-1.60000000e-009,2.37500017e-004
,,,-1.57500000e-009,2.73437519e-004
,,,-1.55000000e-009,3.05468772e-004
,,,-1.52500000e-009,3.33593774e-004
,,,-1.50000000e-009,3.57031275e-004
,,,-1.47500000e-009,3.75781277e-004
,,,-1.45000000e-009,3.89843778e-004
,,,-1.42500000e-009,4.00000028e-004
,,,-1.40000000e-009,3.92968778e-004
,,,-1.37500000e-009,3.82812527e-004
,,,-1.35000000e-009,3.71875026e-004
,,,-1.32500000e-009,3.63281276e-004
,,,-1.30000000e-009,3.60156275e-004
,,,-1.27500000e-009,3.64843776e-004
,,,-1.25000000e-009,3.78125027e-004
,,,-1.22500000e-009,4.00000028e-004
,,,-1.20000000e-009,4.08593779e-004
,,,-1.17500000e-009,4.19531280e-004
,,,-1.15000000e-009,4.28906280e-004
,,,-1.12500000e-009,4.36718781e-004
,,,-1.10000000e-009,4.39062531e-004
,,,-1.07500000e-009,4.35156281e-004
,,,-1.05000000e-009,4.22656280e-004
,,,-1.02500000e-009,4.00000028e-004
,,,-1.00000000e-009,3.38281274e-004
,,,-9.75000000e-010,2.64062519e-004
,,,-9.50000000e-010,1.81250013e-004
,,,-9.25000000e-010,9.37500066e-005
,,,-9.00000000e-010,7.81250055e-006
,,,-8.75000000e-010,-7.10937550e-005
,,,-8.50000000e-010,-1.40625010e-004
,,,-8.25000000e-010,-2.00000014e-004
,,,-8.00000000e-010,-2.78125020e-004
,,,-7.75000000e-010,-3.51562525e-004
,,,-7.50000000e-010,-4.21093780e-004
,,,-7.25000000e-010,-4.89062535e-004
,,,-7.00000000e-010,-5.57812539e-004
,,,-6.75000000e-010,-6.29687545e-004
,,,-6.50000000e-010,-7.09375050e-004
,,,-6.25000000e-010,-8.00000057e-004
,,,-6.00000000e-010,-9.30468816e-004
,,,-5.75000000e-010,-1.07968758e-003
,,,-5.50000000e-010,-1.24765634e-003
,,,-5.25000000e-010,-1.42812510e-003
,,,-5.00000000e-010,-1.61875011e-003
,,,-4.75000000e-010,-1.81328138e-003
,,,-4.50000000e-010,-2.00859389e-003
,,,-4.25000000e-010,-2.20000016e-003
,,,-4.00000000e-010,-2.40000017e-003
,,,-3.75000000e-010,-2.59765643e-003
,,,-3.50000000e-010,-2.78750020e-003
,,,-3.25000000e-010,-2.97031271e-003
,,,-3.00000000e-010,-3.14218772e-003
,,,-2.75000000e-010,-3.30390648e-003
,,,-2.50000000e-010,-3.45546899e-003
,,,-2.25000000e-010,-3.60000025e-003
,,,-2.00000000e-010,-3.74218776e-003
,,,-1.75000000e-010,-3.89062528e-003
,,,-1.50000000e-010,-4.04687529e-003
,,,-1.25000000e-010,-4.21406280e-003
,,,-1.00000000e-010,-4.39296906e-003
,,,-7.50000000e-011,-4.58437532e-003
,,,-5.00000000e-011,-4.78671909e-003
,,,-2.50000000e-011,-5.00000035e-003
,,,0.00000000e+000,-5.20781287e-003
,,,2.50000000e-011,-5.42421913e-003
,,,5.00000000e-011,-5.64531290e-003
,,,7.50000000e-011,-5.86406292e-003
,,,1.00000000e-010,-6.07421918e-003
,,,1.25000000e-010,-6.27031294e-003
,,,1.50000000e-010,-6.44687546e-003
,,,1.75000000e-010,-6.60000047e-003
,,,2.00000000e-010,-6.70156297e-003
,,,2.25000000e-010,-6.78593798e-003
,,,2.50000000e-010,-6.85859424e-003
,,,2.75000000e-010,-6.92343799e-003
,,,3.00000000e-010,-6.98671924e-003
,,,3.25000000e-010,-7.05156300e-003
,,,3.50000000e-010,-7.12187550e-003
,,,3.75000000e-010,-7.20000051e-003
,,,4.00000000e-010,-7.25468801e-003
,,,4.25000000e-010,-7.32343802e-003
,,,4.50000000e-010,-7.40312552e-003
,,,4.75000000e-010,-7.49062553e-003
,,,5.00000000e-010,-7.58046929e-003
,,,5.25000000e-010,-7.66640679e-003
,,,5.50000000e-010,-7.74062555e-003
,,,5.75000000e-010,-7.80000055e-003
,,,6.00000000e-010,-7.80468805e-003
,,,6.25000000e-010,-7.79375055e-003
,,,6.50000000e-010,-7.77109430e-003
,,,6.75000000e-010,-7.73984430e-003
,,,7.00000000e-010,-7.70390680e-003
,,,7.25000000e-010,-7.66640679e-003
,,,7.50000000e-010,-7.63125054e-003
,,,7.75000000e-010,-7.60000054e-003
,,,8.00000000e-010,-7.54218803e-003
,,,8.25000000e-010,-7.49062553e-003
,,,8.50000000e-010,-7.44531303e-003
,,,8.75000000e-010,-7.40312552e-003
,,,9.00000000e-010,-7.36171927e-003
,,,9.25000000e-010,-7.31562552e-003
,,,9.50000000e-010,-7.26328176e-003
,,,9.75000000e-010,-7.20000051e-003
,,,1.00000000e-009,-7.10156300e-003
,,,1.02500000e-009,-6.99375050e-003
,,,1.05000000e-009,-6.88125049e-003
,,,1.07500000e-009,-6.76875048e-003
,,,1.10000000e-009,-6.66015672e-003
,,,1.12500000e-009,-6.56015671e-003
,,,1.15000000e-009,-6.47265671e-003
,,,1.17500000e-009,-6.40000045e-003
,,,1.20000000e-009,-6.33046920e-003
,,,1.22500000e-009,-6.27421919e-003
,,,1.25000000e-009,-6.22656294e-003
,,,1.27500000e-009,-6.18593794e-003
,,,1.30000000e-009,-6.14687544e-003
,,,1.32500000e-009,-6.10546918e-003
,,,1.35000000e-009,-6.05703168e-003
,,,1.37500000e-009,-6.00000042e-003
,,,1.40000000e-009,-5.92343792e-003
,,,1.42500000e-009,-5.83437541e-003
,,,1.45000000e-009,-5.73281291e-003
,,,1.47500000e-009,-5.62343790e-003
,,,1.50000000e-009,-5.51171914e-003
,,,1.52500000e-009,-5.40078163e-003
,,,1.55000000e-009,-5.29609412e-003
,,,1.57500000e-009,-5.20000037e-003
,,,1.60000000e-009,-5.11406286e-003
,,,1.62500000e-009,-5.03593786e-003
,,,1.65000000e-009,-4.96171910e-003
,,,1.67500000e-009,-4.89140660e-003
,,,1.70000000e-009,-4.82187534e-003
,,,1.72500000e-009,-4.75078159e-003
,,,1.75000000e-009,-4.67734408e-003
,,,1.77500000e-009,-4.60000033e-003
,,,1.80000000e-009,-4.52031282e-003
,,,1.82500000e-009,-4.43437531e-003
,,,1.85000000e-009,-4.34453156e-003
,,,1.87500000e-009,-4.25546905e-003
,,,1.90000000e-009,-4.17187530e-003
,,,1.92500000e-009,-4.09843779e-003
,,,1.95000000e-009,-4.04062529e-003
,,,1.97500000e-009,-4.00000028e-003
,,,2.00000000e-009,-3.98281278e-003
,,,2.02500000e-009,-3.97734403e-003
,,,2.05000000e-009,-3.98125028e-003
,,,2.07500000e-009,-3.99062528e-003
,,,2.10000000e-009,-4.00000028e-003
,,,2.12500000e-009,-4.00781278e-003
,,,2.15000000e-009,-4.00781278e-003
,,,2.17500000e-009,-4.00000028e-003
,,,2.20000000e-009,-3.98046903e-003
,,,2.22500000e-009,-3.94609403e-003
,,,2.25000000e-009,-3.89843778e-003
,,,2.27500000e-009,-3.84140652e-003
,,,2.30000000e-009,-3.77890652e-003
,,,2.32500000e-009,-3.71484401e-003
,,,2.35000000e-009,-3.65468776e-003
,,,2.37500000e-009,-3.60000025e-003
,,,2.40000000e-009,-3.55234400e-003
,,,2.42500000e-009,-3.50859400e-003
,,,2.45000000e-009,-3.46562525e-003
,,,2.47500000e-009,-3.42265649e-003
,,,2.50000000e-009,-3.37656274e-003
,,,2.52500000e-009,-3.32500024e-003
,,,2.55000000e-009,-3.26640648e-003
,,,2.57500000e-009,-3.20000023e-003
,,,2.60000000e-009,-3.12500022e-003
,,,2.62500000e-009,-3.04140647e-003
,,,2.65000000e-009,-2.95312521e-003
,,,2.67500000e-009,-2.86406270e-003
,,,2.70000000e-009,-2.77890645e-003
,,,2.72500000e-009,-2.70390644e-003
,,,2.75000000e-009,-2.64375019e-003
,,,2.77500000e-009,-2.60000018e-003
,,,2.80000000e-009,-2.57500018e-003
,,,2.82500000e-009,-2.56406268e-003
,,,2.85000000e-009,-2.56406268e-003
,,,2.87500000e-009,-2.57265643e-003
,,,2.90000000e-009,-2.58359393e-003
,,,2.92500000e-009,-2.59531268e-003
,,,2.95000000e-009,-2.60156268e-003
,,,2.97500000e-009,-2.60000018e-003
,,,3.00000000e-009,-2.58515643e-003
,,,3.02500000e-009,-2.55546893e-003
,,,3.05000000e-009,-2.51250018e-003
,,,3.07500000e-009,-2.45859392e-003
,,,3.10000000e-009,-2.39687517e-003
,,,3.12500000e-009,-2.33046891e-003
,,,3.15000000e-009,-2.26406266e-003
,,,3.17500000e-009,-2.20000016e-003
,,,3.20000000e-009,-2.14140640e-003
,,,3.22500000e-009,-2.08671890e-003
,,,3.25000000e-009,-2.03437514e-003
,,,3.27500000e-009,-1.98593764e-003
,,,3.30000000e-009,-1.93906264e-003
,,,3.32500000e-009,-1.89296888e-003
,,,3.35000000e-009,-1.84687513e-003
,,,3.37500000e-009,-1.80000013e-003
,,,3.40000000e-009,-1.75390637e-003
,,,3.42500000e-009,-1.70468762e-003
,,,3.45000000e-009,-1.65234387e-003
,,,3.47500000e-009,-1.59765636e-003
,,,3.50000000e-009,-1.54375011e-003
,,,3.52500000e-009,-1.49140636e-003
,,,3.55000000e-009,-1.44296885e-003
,,,3.57500000e-009,-1.40000010e-003
,,,3.60000000e-009,-1.36796885e-003
,,,3.62500000e-009,-1.33984384e-003
,,,3.65000000e-009,-1.31406259e-003
,,,3.67500000e-009,-1.29140634e-003
,,,3.70000000e-009,-1.26953134e-003
,,,3.72500000e-009,-1.24687509e-003
,,,3.75000000e-009,-1.22421884e-003
,,,3.77500000e-009,-1.20000008e-003
,,,3.80000000e-009,-1.17890633e-003
,,,3.82500000e-009,-1.15546883e-003
,,,3.85000000e-009,-1.12968758e-003
,,,3.87500000e-009,-1.10156258e-003
,,,3.90000000e-009,-1.07343758e-003
,,,3.92500000e-009,-1.04609382e-003
,,,3.95000000e-009,-1.02109382e-003
,,,3.97500000e-009,-1.00000007e-003
,,,4.00000000e-009,-9.89062570e-004
,,,4.02500000e-009,-9.82812570e-004
,,,4.05000000e-009,-9.78906319e-004
,,,4.07500000e-009,-9.78125069e-004
,,,4.10000000e-009,-9.80468819e-004
,,,4.12500000e-009,-9.85156320e-004
,,,4.15000000e-009,-9.92187570e-004
,,,4.17500000e-009,-1.00000007e-003
,,,4.20000000e-009,-1.01171882e-003
,,,4.22500000e-009,-1.02187507e-003
,,,4.25000000e-009,-1.02812507e-003
,,,4.27500000e-009,-1.03046882e-003
,,,4.30000000e-009,-1.02812507e-003
,,,4.32500000e-009,-1.02187507e-003
,,,4.35000000e-009,-1.01171882e-003
,,,4.37500000e-009,-1.00000007e-003
,,,4.40000000e-009,-9.89062570e-004
,,,4.42500000e-009,-9.78125069e-004
,,,4.45000000e-009,-9.68750069e-004
,,,4.47500000e-009,-9.62500068e-004
,,,4.50000000e-009,-9.61718818e-004
,,,4.52500000e-009,-9.67187568e-004
,,,4.55000000e-009,-9.79687569e-004
,,,4.57500000e-009,-1.00000007e-003
,,,4.60000000e-009,-1.02968757e-003
,,,4.62500000e-009,-1.06406258e-003
,,,4.65000000e-009,-1.09921883e-003
,,,4.67500000e-009,-1.13359383e-003
,,,4.70000000e-009,-1.16328133e-003
,,,4.72500000e-009,-1.18515633e-003
,,,4.75000000e-009,-1.19765633e-003
,,,4.77500000e-009,-1.20000008e-003
,,,4.80000000e-009,-1.18984383e-003
,,,4.82500000e-009,-1.17031258e-003
,,,4.85000000e-009,-1.14375008e-003
,,,4.87500000e-009,-1.11171883e-003
,,,4.90000000e-009,-1.07812508e-003
,,,4.92500000e-009,-1.04687507e-003
,,,4.95000000e-009,-1.01953132e-003
,,,4.97500000e-009,-1.00000007e-003
,,,5.00000000e-009,-9.85937570e-004
,,,5.02500000e-009,-9.80468819e-004
,,,5.05000000e-009,-9.80468819e-004
,,,5.07500000e-009,-9.85156320e-004
,,,5.10000000e-009,-9.91406320e-004
,,,5.12500000e-009,-9.97656321e-004
,,,5.15000000e-009,-1.00078132e-003
,,,5.17500000e-009,-1.00000007e-003
,,,5.20000000e-009,-9.93750070e-004
,,,5.22500000e-009,-9.84375070e-004
,,,5.25000000e-009,-9.73437569e-004
,,,5.27500000e-009,-9.64843818e-004
,,,5.30000000e-009,-9.60156318e-004
,,,5.32500000e-009,-9.62500068e-004
,,,5.35000000e-009,-9.75000069e-004
,,,5.37500000e-009,-1.00000007e-003
,,,5.40000000e-009,-1.03359382e-003
,,,5.42500000e-009,-1.07812508e-003
,,,5.45000000e-009,-1.13046883e-003
,,,5.47500000e-009,-1.18828133e-003
,,,5.50000000e-009,-1.24843759e-003
,,,5.52500000e-009,-1.30546884e-003
,,,5.55000000e-009,-1.35781260e-003
,,,5.57500000e-009,-1.40000010e-003
,,,5.60000000e-009,-1.42343760e-003
,,,5.62500000e-009,-1.43203135e-003
,,,5.65000000e-009,-1.42500010e-003
,,,5.67500000e-009,-1.40234385e-003
,,,5.70000000e-009,-1.36718760e-003
,,,5.72500000e-009,-1.31953134e-003
,,,5.75000000e-009,-1.26250009e-003
,,,5.77500000e-009,-1.20000008e-003
,,,5.80000000e-009,-1.13125008e-003
,,,5.82500000e-009,-1.06250008e-003
,,,5.85000000e-009,-9.98437571e-004
,,,5.87500000e-009,-9.39843817e-004
,,,5.90000000e-009,-8.89843813e-004
,,,5.92500000e-009,-8.49218810e-004
