RawData/DifferentLengths/R3/R3_50foot_5mV/wave027_Ch2.csv

"Record Length",1000,"Points",-7.72500000e-009,-2.40625017e-004
"Sample Interval",2.50000000e-011,s,-7.70000000e-009,-2.81250020e-004
"Trigger Point",309,"Samples",-7.67500000e-009,-3.18750023e-004
"Trigger Time",3.26107143e-012,s,-7.65000000e-009,-3.51562525e-004
"",,,-7.62500000e-009,-3.77343777e-004
"Horizontal Offset",-7.72500000e-009,s,-7.60000000e-009,-3.94531278e-004
,,,-7.57500000e-009,-4.02343778e-004
,,,-7.55000000e-009,-4.00000028e-004
,,,-7.52500000e-009,-3.83593777e-004
,,,-7.50000000e-009,-3.60156275e-004
,,,-7.47500000e-009,-3.31250023e-004
,,,-7.45000000e-009,-2.99218771e-004
,,,-7.42500000e-009,-2.67968769e-004
,,,-7.40000000e-009,-2.39843767e-004
,,,-7.37500000e-009,-2.16406265e-004
,,,-7.35000000e-009,-2.00000014e-004
,,,-7.32500000e-009,-1.89843763e-004
,,,-7.30000000e-009,-1.86718763e-004
,,,-7.27500000e-009,-1.89062513e-004
,,,-7.25000000e-009,-1.95312514e-004
,,,-7.22500000e-009,-2.01562514e-004
,,,-7.20000000e-009,-2.06250015e-004
,,,-7.17500000e-009,-2.06250015e-004
,,,-7.15000000e-009,-2.00000014e-004
,,,-7.12500000e-009,-1.85156263e-004
,,,-7.10000000e-009,-1.64062512e-004
,,,-7.07500000e-009,-1.38281260e-004
,,,-7.05000000e-009,-1.08593758e-004
,,,-7.02500000e-009,-7.73437555e-005
,,,-7.00000000e-009,-4.76562534e-005
,,,-6.97500000e-009,-2.10937515e-005
,,,-6.95000000e-009,0.00000000e+000
,,,-6.92500000e-009,1.32812509e-005
,,,-6.90000000e-009,2.10937515e-005
,,,-6.87500000e-009,2.18750015e-005
,,,-6.85000000e-009,1.87500013e-005
,,,-6.82500000e-009,1.32812509e-005
,,,-6.80000000e-009,7.03125050e-006
,,,-6.77500000e-009,2.34375017e-006
,,,-6.75000000e-009,0.00000000e+000
,,,-6.72500000e-009,0.00000000e+000
,,,-6.70000000e-009,1.56250011e-006
,,,-6.67500000e-009,6.25000044e-006
,,,-6.65000000e-009,1.17187508e-005
,,,-6.62500000e-009,1.48437511e-005
,,,-6.60000000e-009,1.56250011e-005
,,,-6.57500000e-009,1.01562507e-005
,,,-6.55000000e-009,0.00000000e+000
,,,-6.52500000e-009,-1.95312514e-005
,,,-6.50000000e-009,-4.45312532e-005
,,,-6.47500000e-009,-7.26562551e-005
,,,-6.45000000e-009,-1.03125007e-004
,,,-6.42500000e-009,-1.32812509e-004
,,,-6.40000000e-009,-1.60156261e-004
,,,-6.37500000e-009,-1.82812513e-004
,,,-6.35000000e-009,-2.00000014e-004
,,,-6.32500000e-009,-2.09375015e-004
,,,-6.30000000e-009,-2.12500015e-004
,,,-6.27500000e-009,-2.11718765e-004
,,,-6.25000000e-009,-2.07031265e-004
,,,-6.22500000e-009,-2.02343764e-004
,,,-6.20000000e-009,-1.98437514e-004
,,,-6.17500000e-009,-1.96875014e-004
,,,-6.15000000e-009,-2.00000014e-004
,,,-6.12500000e-009,-2.04687514e-004
,,,-6.10000000e-009,-2.12500015e-004
,,,-6.07500000e-009,-2.21093766e-004
,,,-6.05000000e-009,-2.27343766e-004
,,,-6.02500000e-009,-2.31250016e-004
,,,-6.00000000e-009,-2.28125016e-004
,,,-5.97500000e-009,-2.17968765e-004
,,,-5.95000000e-009,-2.00000014e-004
,,,-5.92500000e-009,-1.71875012e-004
,,,-5.90000000e-009,-1.39062510e-004
,,,-5.87500000e-009,-1.03125007e-004
,,,-5.85000000e-009,-6.79687548e-005
,,,-5.82500000e-009,-3.67187526e-005
,,,-5.80000000e-009,-1.40625010e-005
,,,-5.77500000e-009,-7.81250055e-007
,,,-5.75000000e-009,0.00000000e+000
,,,-5.72500000e-009,-1.09375008e-005
,,,-5.70000000e-009,-3.20312523e-005
,,,-5.67500000e-009,-6.17187544e-005
,,,-5.65000000e-009,-9.60937568e-005
,,,-5.62500000e-009,-1.31250009e-004
,,,-5.60000000e-009,-1.61718761e-004
,,,-5.57500000e-009,-1.85937513e-004
,,,-5.55000000e-009,-2.00000014e-004
,,,-5.52500000e-009,-2.00781264e-004
,,,-5.50000000e-009,-1.89843763e-004
,,,-5.47500000e-009,-1.68750012e-004
,,,-5.45000000e-009,-1.39062510e-004
,,,-5.42500000e-009,-1.03906257e-004
,,,-5.40000000e-009,-6.71875048e-005
,,,-5.37500000e-009,-3.12500022e-005
,,,-5.35000000e-009,0.00000000e+000
,,,-5.32500000e-009,2.50000018e-005
,,,-5.30000000e-009,4.14062529e-005
,,,-5.27500000e-009,5.00000035e-005
,,,-5.25000000e-009,5.07812536e-005
,,,-5.22500000e-009,4.45312532e-005
,,,-5.20000000e-009,3.20312523e-005
,,,-5.17500000e-009,1.64062512e-005
,,,-5.15000000e-009,0.00000000e+000
,,,-5.12500000e-009,-1.64062512e-005
,,,-5.10000000e-009,-3.04687522e-005
,,,-5.07500000e-009,-3.98437528e-005
,,,-5.05000000e-009,-4.29687530e-005
,,,-5.02500000e-009,-4.06250029e-005
,,,-5.00000000e-009,-3.12500022e-005
,,,-4.97500000e-009,-1.71875012e-005
,,,-4.95000000e-009,0.00000000e+000
,,,-4.92500000e-009,1.87500013e-005
,,,-4.90000000e-009,3.67187526e-005
,,,-4.87500000e-009,5.07812536e-005
,,,-4.85000000e-009,5.93750042e-005
,,,-4.82500000e-009,5.93750042e-005
,,,-4.80000000e-009,5.00000035e-005
,,,-4.77500000e-009,2.96875021e-005
,,,-4.75000000e-009,0.00000000e+000
,,,-4.72500000e-009,-3.67187526e-005
,,,-4.70000000e-009,-7.89062556e-005
,,,-4.67500000e-009,-1.21093759e-004
,,,-4.65000000e-009,-1.59375011e-004
,,,-4.62500000e-009,-1.89843763e-004
,,,-4.60000000e-009,-2.08593765e-004
,,,-4.57500000e-009,-2.12500015e-004
,,,-4.55000000e-009,-2.00000014e-004
,,,-4.52500000e-009,-1.68750012e-004
,,,-4.50000000e-009,-1.22656259e-004
,,,-4.47500000e-009,-6.64062547e-005
,,,-4.45000000e-009,-3.90625028e-006
,,,-4.42500000e-009,5.85937541e-005
,,,-4.40000000e-009,1.16406258e-004
,,,-4.37500000e-009,1.64843762e-004
,,,-4.35000000e-009,2.00000014e-004
,,,-4.32500000e-009,2.16406265e-004
,,,-4.30000000e-009,2.16406265e-004
,,,-4.27500000e-009,2.00781264e-004
,,,-4.25000000e-009,1.71093762e-004
,,,-4.22500000e-009,1.32031259e-004
,,,-4.20000000e-009,8.75000062e-005
,,,-4.17500000e-009,4.21875030e-005
,,,-4.15000000e-009,0.00000000e+000
,,,-4.12500000e-009,-3.35937524e-005
,,,-4.10000000e-009,-5.70312540e-005
,,,-4.07500000e-009,-7.03125050e-005
,,,-4.05000000e-009,-7.18750051e-005
,,,-4.02500000e-009,-6.48437546e-005
,,,-4.00000000e-009,-4.84375034e-005
,,,-3.97500000e-009,-2.65625019e-005
,,,-3.95000000e-009,0.00000000e+000
,,,-3.92500000e-009,2.81250020e-005
,,,-3.90000000e-009,5.78125041e-005
,,,-3.87500000e-009,8.59375061e-005
,,,-3.85000000e-009,1.12500008e-004
,,,-3.82500000e-009,1.37500010e-004
,,,-3.80000000e-009,1.60156261e-004
,,,-3.77500000e-009,1.81250013e-004
,,,-3.75000000e-009,2.00000014e-004
,,,-3.72500000e-009,2.14062515e-004
,,,-3.70000000e-009,2.25781266e-004
,,,-3.67500000e-009,2.33593767e-004
,,,-3.65000000e-009,2.36718767e-004
,,,-3.62500000e-009,2.34375017e-004
,,,-3.60000000e-009,2.27343766e-004
,,,-3.57500000e-009,2.15625015e-004
,,,-3.55000000e-009,2.00000014e-004
,,,-3.52500000e-009,1.79687513e-004
,,,-3.50000000e-009,1.60156261e-004
,,,-3.47500000e-009,1.44531260e-004
,,,-3.45000000e-009,1.35156260e-004
,,,-3.42500000e-009,1.35156260e-004
,,,-3.40000000e-009,1.45312510e-004
,,,-3.37500000e-009,1.67187512e-004
,,,-3.35000000e-009,2.00000014e-004
,,,-3.32500000e-009,2.40625017e-004
,,,-3.30000000e-009,2.85937520e-004
,,,-3.27500000e-009,3.30468773e-004
,,,-3.25000000e-009,3.71093776e-004
,,,-3.22500000e-009,4.02343778e-004
,,,-3.20000000e-009,4.18750030e-004
,,,-3.17500000e-009,4.18750030e-004
,,,-3.15000000e-009,4.00000028e-004
,,,-3.12500000e-009,3.60937526e-004
,,,-3.10000000e-009,3.07812522e-004
,,,-3.07500000e-009,2.45312517e-004
,,,-3.05000000e-009,1.79687513e-004
,,,-3.02500000e-009,1.17187508e-004
,,,-3.00000000e-009,6.32812545e-005
,,,-2.97500000e-009,2.26562516e-005
,,,-2.95000000e-009,0.00000000e+000
,,,-2.92500000e-009,-4.68750033e-006
,,,-2.90000000e-009,6.25000044e-006
,,,-2.87500000e-009,3.28125023e-005
,,,-2.85000000e-009,6.87500049e-005
,,,-2.82500000e-009,1.09375008e-004
,,,-2.80000000e-009,1.47656260e-004
,,,-2.77500000e-009,1.79687513e-004
,,,-2.75000000e-009,2.00000014e-004
,,,-2.72500000e-009,2.04687514e-004
,,,-2.70000000e-009,1.95312514e-004
,,,-2.67500000e-009,1.72656262e-004
,,,-2.65000000e-009,1.39843760e-004
,,,-2.62500000e-009,1.01562507e-004
,,,-2.60000000e-009,6.17187544e-005
,,,-2.57500000e-009,2.65625019e-005
,,,-2.55000000e-009,0.00000000e+000
,,,-2.52500000e-009,-1.40625010e-005
,,,-2.50000000e-009,-1.48437511e-005
,,,-2.47500000e-009,-1.56250011e-006
,,,-2.45000000e-009,2.34375017e-005
,,,-2.42500000e-009,6.01562543e-005
,,,-2.40000000e-009,1.03906257e-004
,,,-2.37500000e-009,1.51562511e-004
,,,-2.35000000e-009,2.00000014e-004
,,,-2.32500000e-009,2.42187517e-004
,,,-2.30000000e-009,2.75000019e-004
,,,-2.27500000e-009,2.97656271e-004
,,,-2.25000000e-009,3.06250022e-004
,,,-2.22500000e-009,3.00781271e-004
,,,-2.20000000e-009,2.80468770e-004
,,,-2.17500000e-009,2.46093767e-004
,,,-2.15000000e-009,2.00000014e-004
,,,-2.12500000e-009,1.43750010e-004
,,,-2.10000000e-009,8.20312558e-005
,,,-2.07500000e-009,1.79687513e-005
,,,-2.05000000e-009,-4.29687530e-005
,,,-2.02500000e-009,-9.92187570e-005
,,,-2.00000000e-009,-1.45312510e-004
,,,-1.97500000e-009,-1.79687513e-004
,,,-1.95000000e-009,-2.00000014e-004
,,,-1.92500000e-009,-2.03906264e-004
,,,-1.90000000e-009,-1.94531264e-004
,,,-1.87500000e-009,-1.73437512e-004
,,,-1.85000000e-009,-1.42968760e-004
,,,-1.82500000e-009,-1.07031258e-004
,,,-1.80000000e-009,-6.87500049e-005
,,,-1.77500000e-009,-3.20312523e-005
,,,-1.75000000e-009,0.00000000e+000
,,,-1.72500000e-009,2.42187517e-005
,,,-1.70000000e-009,3.98437528e-005
,,,-1.67500000e-009,4.60937533e-005
,,,-1.65000000e-009,4.53125032e-005
,,,-1.62500000e-009,3.75000027e-005
,,,-1.60000000e-009,2.57812518e-005
,,,-1.57500000e-009,1.25000009e-005
,,,-1.55000000e-009,0.00000000e+000
,,,-1.52500000e-009,-1.48437511e-005
,,,-1.50000000e-009,-2.73437519e-005
,,,-1.47500000e-009,-3.51562525e-005
,,,-1.45000000e-009,-3.82812527e-005
,,,-1.42500000e-009,-3.51562525e-005
,,,-1.40000000e-009,-2.73437519e-005
,,,-1.37500000e-009,-1.48437511e-005
,,,-1.35000000e-009,0.00000000e+000
,,,-1.32500000e-009,7.81250055e-006
,,,-1.30000000e-009,1.32812509e-005
,,,-1.27500000e-009,1.71875012e-005
,,,-1.25000000e-009,1.79687513e-005
,,,-1.22500000e-009,1.71875012e-005
,,,-1.20000000e-009,1.32812509e-005
,,,-1.17500000e-009,7.81250055e-006
,,,-1.15000000e-009,0.00000000e+000
,,,-1.12500000e-009,-2.65625019e-005
,,,-1.10000000e-009,-5.70312540e-005
,,,-1.07500000e-009,-8.90625063e-005
,,,-1.05000000e-009,-1.21093759e-004
,,,-1.02500000e-009,-1.50000011e-004
,,,-1.00000000e-009,-1.72656262e-004
,,,-9.75000000e-010,-1.89843763e-004
,,,-9.50000000e-010,-2.00000014e-004
,,,-9.25000000e-010,-2.29687516e-004
,,,-9.00000000e-010,-2.58593768e-004
,,,-8.75000000e-010,-2.86718770e-004
,,,-8.50000000e-010,-3.11718772e-004
,,,-8.25000000e-010,-3.35156274e-004
,,,-8.00000000e-010,-3.57031275e-004
,,,-7.75000000e-010,-3.77343777e-004
,,,-7.50000000e-010,-4.00000028e-004
,,,-7.25000000e-010,-4.60156283e-004
,,,-7.00000000e-010,-5.31250038e-004
,,,-6.75000000e-010,-6.08593793e-004
,,,-6.50000000e-010,-6.89843799e-004
,,,-6.25000000e-010,-7.71875055e-004
,,,-6.00000000e-010,-8.51562560e-004
,,,-5.75000000e-010,-9.27343816e-004
,,,-5.50000000e-010,-1.00000007e-003
,,,-5.25000000e-010,-1.10937508e-003
,,,-5.00000000e-010,-1.22578134e-003
,,,-4.75000000e-010,-1.34687510e-003
,,,-4.50000000e-010,-1.47187510e-003
,,,-4.25000000e-010,-1.59921886e-003
,,,-4.00000000e-010,-1.72968762e-003
,,,-3.75000000e-010,-1.86250013e-003
,,,-3.50000000e-010,-2.00000014e-003
,,,-3.25000000e-010,-2.18125015e-003
,,,-3.00000000e-010,-2.37578142e-003
,,,-2.75000000e-010,-2.58046893e-003
,,,-2.50000000e-010,-2.78984395e-003
,,,-2.25000000e-010,-2.99921896e-003
,,,-2.00000000e-010,-3.20468773e-003
,,,-1.75000000e-010,-3.40546899e-003
,,,-1.50000000e-010,-3.60000025e-003
,,,-1.25000000e-010,-3.82031277e-003
,,,-1.00000000e-010,-4.04843779e-003
,,,-7.50000000e-011,-4.28437530e-003
,,,-5.00000000e-011,-4.52890657e-003
,,,-2.50000000e-011,-4.78203159e-003
,,,0.00000000e+000,-5.04453161e-003
,,,2.50000000e-011,-5.31718788e-003
,,,5.00000000e-011,-5.60000040e-003
,,,7.50000000e-011,-5.90703167e-003
,,,1.00000000e-010,-6.23046919e-003
,,,1.25000000e-010,-6.56640671e-003
,,,1.50000000e-010,-6.90859424e-003
,,,1.75000000e-010,-7.24843801e-003
,,,2.00000000e-010,-7.58125054e-003
,,,2.25000000e-010,-7.89921931e-003
,,,2.50000000e-010,-8.20000058e-003
,,,2.75000000e-010,-8.47578185e-003
,,,3.00000000e-010,-8.74218812e-003
,,,3.25000000e-010,-9.00000064e-003
,,,3.50000000e-010,-9.25000065e-003
,,,3.75000000e-010,-9.49453192e-003
,,,4.00000000e-010,-9.73359444e-003
,,,4.25000000e-010,-9.96796946e-003
,,,4.50000000e-010,-1.02000007e-002
,,,4.75000000e-010,-1.04078132e-002
,,,5.00000000e-010,-1.06257820e-002
,,,5.25000000e-010,-1.08523445e-002
,,,5.50000000e-010,-1.10867195e-002
,,,5.75000000e-010,-1.13234383e-002
,,,6.00000000e-010,-1.15585946e-002
,,,6.25000000e-010,-1.17851571e-002
,,,6.50000000e-010,-1.20000008e-002
,,,6.75000000e-010,-1.21601571e-002
,,,7.00000000e-010,-1.23117196e-002
,,,7.25000000e-010,-1.24539071e-002
,,,7.50000000e-010,-1.25867196e-002
,,,7.75000000e-010,-1.27085946e-002
,,,8.00000000e-010,-1.28179697e-002
,,,8.25000000e-010,-1.29156259e-002
,,,8.50000000e-010,-1.30000009e-002
,,,8.75000000e-010,-1.30281259e-002
,,,9.00000000e-010,-1.30570322e-002
,,,9.25000000e-010,-1.30914072e-002
,,,9.50000000e-010,-1.31335947e-002
,,,9.75000000e-010,-1.31859384e-002
,,,1.00000000e-009,-1.32484384e-002
,,,1.02500000e-009,-1.33203134e-002
,,,1.05000000e-009,-1.34000009e-002
,,,1.07500000e-009,-1.34359385e-002
,,,1.10000000e-009,-1.34796885e-002
,,,1.12500000e-009,-1.35320322e-002
,,,1.15000000e-009,-1.35890635e-002
,,,1.17500000e-009,-1.36492197e-002
,,,1.20000000e-009,-1.37070322e-002
,,,1.22500000e-009,-1.37585947e-002
,,,1.25000000e-009,-1.38000010e-002
,,,1.27500000e-009,-1.37820322e-002
,,,1.30000000e-009,-1.37523447e-002
,,,1.32500000e-009,-1.37109385e-002
,,,1.35000000e-009,-1.36609385e-002
,,,1.37500000e-009,-1.36031260e-002
,,,1.40000000e-009,-1.35398447e-002
,,,1.42500000e-009,-1.34718760e-002
,,,1.45000000e-009,-1.34000009e-002
,,,1.47500000e-009,-1.32859384e-002
,,,1.50000000e-009,-1.31718759e-002
,,,1.52500000e-009,-1.30609384e-002
,,,1.55000000e-009,-1.29554697e-002
,,,1.57500000e-009,-1.28570322e-002
,,,1.60000000e-009,-1.27664072e-002
,,,1.62500000e-009,-1.26812509e-002
,,,1.65000000e-009,-1.26000009e-002
,,,1.67500000e-009,-1.24851571e-002
,,,1.70000000e-009,-1.23632821e-002
,,,1.72500000e-009,-1.22328134e-002
,,,1.75000000e-009,-1.20906259e-002
,,,1.77500000e-009,-1.19367196e-002
,,,1.80000000e-009,-1.17703133e-002
,,,1.82500000e-009,-1.15906258e-002
,,,1.85000000e-009,-1.14000008e-002
,,,1.87500000e-009,-1.11781258e-002
,,,1.90000000e-009,-1.09492195e-002
,,,1.92500000e-009,-1.07179695e-002
,,,1.95000000e-009,-1.04929695e-002
,,,1.97500000e-009,-1.02820320e-002
,,,2.00000000e-009,-1.00937507e-002
,,,2.02500000e-009,-9.93203195e-003
,,,2.05000000e-009,-9.80000069e-003
,,,2.07500000e-009,-9.68671944e-003
,,,2.10000000e-009,-9.59453193e-003
,,,2.12500000e-009,-9.51796942e-003
,,,2.15000000e-009,-9.45390692e-003
,,,2.17500000e-009,-9.39531317e-003
,,,2.20000000e-009,-9.33750066e-003
,,,2.22500000e-009,-9.27421941e-003
,,,2.25000000e-009,-9.20000065e-003
,,,2.27500000e-009,-9.10312564e-003
,,,2.30000000e-009,-8.97890689e-003
,,,2.32500000e-009,-8.82656312e-003
,,,2.35000000e-009,-8.64921936e-003
,,,2.37500000e-009,-8.45156310e-003
,,,2.40000000e-009,-8.23984433e-003
,,,2.42500000e-009,-8.02031307e-003
,,,2.45000000e-009,-7.80000055e-003
,,,2.47500000e-009,-7.58828179e-003
,,,2.50000000e-009,-7.37890677e-003
,,,2.52500000e-009,-7.17734426e-003
,,,2.55000000e-009,-6.98750049e-003
,,,2.57500000e-009,-6.81328173e-003
,,,2.60000000e-009,-6.65625047e-003
,,,2.62500000e-009,-6.51875046e-003
,,,2.65000000e-009,-6.40000045e-003
,,,2.67500000e-009,-6.30859420e-003
,,,2.70000000e-009,-6.22187544e-003
,,,2.72500000e-009,-6.13437543e-003
,,,2.75000000e-009,-6.04375043e-003
,,,2.77500000e-009,-5.94609417e-003
,,,2.80000000e-009,-5.83984416e-003
,,,2.82500000e-009,-5.72421916e-003
,,,2.85000000e-009,-5.60000040e-003
,,,2.87500000e-009,-5.47890664e-003
,,,2.90000000e-009,-5.34609413e-003
,,,2.92500000e-009,-5.20546912e-003
,,,2.95000000e-009,-5.06250036e-003
,,,2.97500000e-009,-4.92421910e-003
,,,3.00000000e-009,-4.79765659e-003
,,,3.02500000e-009,-4.68750033e-003
,,,3.05000000e-009,-4.60000033e-003
,,,3.07500000e-009,-4.54687532e-003
,,,3.10000000e-009,-4.51015657e-003
,,,3.12500000e-009,-4.48437532e-003
,,,3.15000000e-009,-4.46718782e-003
,,,3.17500000e-009,-4.45390657e-003
,,,3.20000000e-009,-4.44062531e-003
,,,3.22500000e-009,-4.42343781e-003
,,,3.25000000e-009,-4.40000031e-003
,,,3.27500000e-009,-4.37812531e-003
,,,3.30000000e-009,-4.34140656e-003
,,,3.32500000e-009,-4.29140655e-003
,,,3.35000000e-009,-4.23125030e-003
,,,3.37500000e-009,-4.16718779e-003
,,,3.40000000e-009,-4.10390654e-003
,,,3.42500000e-009,-4.04687529e-003
,,,3.45000000e-009,-4.00000028e-003
,,,3.47500000e-009,-3.97187528e-003
,,,3.50000000e-009,-3.95078153e-003
,,,3.52500000e-009,-3.93359403e-003
,,,3.55000000e-009,-3.91640653e-003
,,,3.57500000e-009,-3.89765653e-003
,,,3.60000000e-009,-3.87421902e-003
,,,3.62500000e-009,-3.84218777e-003
,,,3.65000000e-009,-3.80000027e-003
,,,3.67500000e-009,-3.75000027e-003
,,,3.70000000e-009,-3.68593776e-003
,,,3.72500000e-009,-3.60937526e-003
,,,3.75000000e-009,-3.52500025e-003
,,,3.77500000e-009,-3.43750024e-003
,,,3.80000000e-009,-3.35078149e-003
,,,3.82500000e-009,-3.27031273e-003
,,,3.85000000e-009,-3.20000023e-003
,,,3.87500000e-009,-3.14765647e-003
,,,3.90000000e-009,-3.10625022e-003
,,,3.92500000e-009,-3.07421897e-003
,,,3.95000000e-009,-3.05078147e-003
,,,3.97500000e-009,-3.03437521e-003
,,,4.00000000e-009,-3.02187521e-003
,,,4.02500000e-009,-3.01093771e-003
,,,4.05000000e-009,-3.00000021e-003
,,,4.07500000e-009,-2.98828146e-003
,,,4.10000000e-009,-2.97187521e-003
,,,4.12500000e-009,-2.95000021e-003
,,,4.15000000e-009,-2.92265646e-003
,,,4.17500000e-009,-2.89218770e-003
,,,4.20000000e-009,-2.86093770e-003
,,,4.22500000e-009,-2.82890645e-003
,,,4.25000000e-009,-2.80000020e-003
,,,4.27500000e-009,-2.77656270e-003
,,,4.30000000e-009,-2.75468769e-003
,,,4.32500000e-009,-2.73281269e-003
,,,4.35000000e-009,-2.71015644e-003
,,,4.37500000e-009,-2.68593769e-003
,,,4.40000000e-009,-2.65937519e-003
,,,4.42500000e-009,-2.63046894e-003
,,,4.45000000e-009,-2.60000018e-003
,,,4.47500000e-009,-2.57031268e-003
,,,4.50000000e-009,-2.53828143e-003
,,,4.52500000e-009,-2.50546893e-003
,,,4.55000000e-009,-2.47421893e-003
,,,4.57500000e-009,-2.44609392e-003
,,,4.60000000e-009,-2.42343767e-003
,,,4.62500000e-009,-2.40781267e-003
,,,4.65000000e-009,-2.40000017e-003
,,,4.67500000e-009,-2.40156267e-003
,,,4.70000000e-009,-2.40703142e-003
,,,4.72500000e-009,-2.41406267e-003
,,,4.75000000e-009,-2.42031267e-003
,,,4.77500000e-009,-2.42343767e-003
,,,4.80000000e-009,-2.42187517e-003
,,,4.82500000e-009,-2.41484392e-003
,,,4.85000000e-009,-2.40000017e-003
,,,4.87500000e-009,-2.37734392e-003
,,,4.90000000e-009,-2.34843767e-003
,,,4.92500000e-009,-2.31484391e-003
,,,4.95000000e-009,-2.27968766e-003
,,,4.97500000e-009,-2.24765641e-003
,,,5.00000000e-009,-2.22187516e-003
,,,5.02500000e-009,-2.20546891e-003
,,,5.05000000e-009,-2.20000016e-003
,,,5.07500000e-009,-2.20546891e-003
,,,5.10000000e-009,-2.22109391e-003
,,,5.12500000e-009,-2.24531266e-003
,,,5.15000000e-009,-2.27578141e-003
,,,5.17500000e-009,-2.30937516e-003
,,,5.20000000e-009,-2.34375017e-003
,,,5.22500000e-009,-2.37421892e-003
,,,5.25000000e-009,-2.40000017e-003
,,,5.27500000e-009,-2.41093767e-003
,,,5.30000000e-009,-2.40937517e-003
,,,5.32500000e-009,-2.39609392e-003
,,,5.35000000e-009,-2.37187517e-003
,,,5.37500000e-009,-2.33828142e-003
,,,5.40000000e-009,-2.29687516e-003
,,,5.42500000e-009,-2.25000016e-003
,,,5.45000000e-009,-2.20000016e-003
,,,5.47500000e-009,-2.14531265e-003
,,,5.50000000e-009,-2.08984390e-003
,,,5.52500000e-009,-2.03593764e-003
,,,5.55000000e-009,-1.98281264e-003
,,,5.57500000e-009,-1.93281264e-003
,,,5.60000000e-009,-1.88515638e-003
,,,5.62500000e-009,-1.84062513e-003
,,,5.65000000e-009,-1.80000013e-003
,,,5.67500000e-009,-1.75937512e-003
,,,5.70000000e-009,-1.72265637e-003
,,,5.72500000e-009,-1.68906262e-003
,,,5.75000000e-009,-1.66015637e-003
,,,5.77500000e-009,-1.63671887e-003
,,,5.80000000e-009,-1.61953136e-003
,,,5.82500000e-009,-1.60703136e-003
,,,5.85000000e-009,-1.60000011e-003
,,,5.87500000e-009,-1.59375011e-003
,,,5.90000000e-009,-1.58750011e-003
