RawData/DifferentLengths/R3/R3_50foot_5mV/wave019_Ch2.csv

"Record Length",1000,"Points",-7.72500000e-009,2.15625015e-004
"Sample Interval",2.50000000e-011,s,-7.70000000e-009,1.53906261e-004
"Trigger Point",309,"Samples",-7.67500000e-009,9.37500066e-005
"Trigger Time",2.40200000e-011,s,-7.65000000e-009,4.14062529e-005
"",,,-7.62500000e-009,0.00000000e+000
"Horizontal Offset",-7.72500000e-009,s,-7.60000000e-009,-2.81250020e-005
,,,-7.57500000e-009,-4.37500031e-005
,,,-7.55000000e-009,-4.76562534e-005
,,,-7.52500000e-009,-4.29687530e-005
,,,-7.50000000e-009,-3.28125023e-005
,,,-7.47500000e-009,-1.95312514e-005
,,,-7.45000000e-009,-7.81250055e-006
,,,-7.42500000e-009,0.00000000e+000
,,,-7.40000000e-009,4.68750033e-006
,,,-7.37500000e-009,5.46875039e-006
,,,-7.35000000e-009,1.56250011e-006
,,,-7.32500000e-009,-3.90625028e-006
,,,-7.30000000e-009,-9.37500066e-006
,,,-7.27500000e-009,-1.17187508e-005
,,,-7.25000000e-009,-9.37500066e-006
,,,-7.22500000e-009,0.00000000e+000
,,,-7.20000000e-009,1.87500013e-005
,,,-7.17500000e-009,4.45312532e-005
,,,-7.15000000e-009,7.50000053e-005
,,,-7.12500000e-009,1.07031258e-004
,,,-7.10000000e-009,1.39062510e-004
,,,-7.07500000e-009,1.67187512e-004
,,,-7.05000000e-009,1.88281263e-004
,,,-7.02500000e-009,2.00000014e-004
,,,-7.00000000e-009,2.01562514e-004
,,,-6.97500000e-009,1.92187514e-004
,,,-6.95000000e-009,1.73437512e-004
,,,-6.92500000e-009,1.45312510e-004
,,,-6.90000000e-009,1.11718758e-004
,,,-6.87500000e-009,7.42187553e-005
,,,-6.85000000e-009,3.59375025e-005
,,,-6.82500000e-009,0.00000000e+000
,,,-6.80000000e-009,-2.81250020e-005
,,,-6.77500000e-009,-5.00000035e-005
,,,-6.75000000e-009,-6.25000044e-005
,,,-6.72500000e-009,-6.71875048e-005
,,,-6.70000000e-009,-6.17187544e-005
,,,-6.67500000e-009,-4.84375034e-005
,,,-6.65000000e-009,-2.73437519e-005
,,,-6.62500000e-009,0.00000000e+000
,,,-6.60000000e-009,3.35937524e-005
,,,-6.57500000e-009,6.87500049e-005
,,,-6.55000000e-009,1.03906257e-004
,,,-6.52500000e-009,1.35937510e-004
,,,-6.50000000e-009,1.62500012e-004
,,,-6.47500000e-009,1.82031263e-004
,,,-6.45000000e-009,1.94531264e-004
,,,-6.42500000e-009,2.00000014e-004
,,,-6.40000000e-009,1.96875014e-004
,,,-6.37500000e-009,1.89843763e-004
,,,-6.35000000e-009,1.80468763e-004
,,,-6.32500000e-009,1.72656262e-004
,,,-6.30000000e-009,1.67968762e-004
,,,-6.27500000e-009,1.70312512e-004
,,,-6.25000000e-009,1.80468763e-004
,,,-6.22500000e-009,2.00000014e-004
,,,-6.20000000e-009,2.27343766e-004
,,,-6.17500000e-009,2.60937518e-004
,,,-6.15000000e-009,2.98437521e-004
,,,-6.12500000e-009,3.34375024e-004
,,,-6.10000000e-009,3.66406276e-004
,,,-6.07500000e-009,3.89062528e-004
,,,-6.05000000e-009,4.00781278e-004
,,,-6.02500000e-009,4.00000028e-004
,,,-6.00000000e-009,3.82031277e-004
,,,-5.97500000e-009,3.53906275e-004
,,,-5.95000000e-009,3.18750023e-004
,,,-5.92500000e-009,2.80468770e-004
,,,-5.90000000e-009,2.45312517e-004
,,,-5.87500000e-009,2.17968765e-004
,,,-5.85000000e-009,2.01562514e-004
,,,-5.82500000e-009,2.00000014e-004
,,,-5.80000000e-009,2.09375015e-004
,,,-5.77500000e-009,2.32031266e-004
,,,-5.75000000e-009,2.64062519e-004
,,,-5.72500000e-009,3.01562521e-004
,,,-5.70000000e-009,3.38281274e-004
,,,-5.67500000e-009,3.69531276e-004
,,,-5.65000000e-009,3.91406278e-004
,,,-5.62500000e-009,4.00000028e-004
,,,-5.60000000e-009,3.89843778e-004
,,,-5.57500000e-009,3.66406276e-004
,,,-5.55000000e-009,3.33593774e-004
,,,-5.52500000e-009,2.96093771e-004
,,,-5.50000000e-009,2.58593768e-004
,,,-5.47500000e-009,2.27343766e-004
,,,-5.45000000e-009,2.07031265e-004
,,,-5.42500000e-009,2.00000014e-004
,,,-5.40000000e-009,2.05468765e-004
,,,-5.37500000e-009,2.25000016e-004
,,,-5.35000000e-009,2.54687518e-004
,,,-5.32500000e-009,2.91406271e-004
,,,-5.30000000e-009,3.29687523e-004
,,,-5.27500000e-009,3.64062526e-004
,,,-5.25000000e-009,3.88281277e-004
,,,-5.22500000e-009,4.00000028e-004
,,,-5.20000000e-009,3.90625028e-004
,,,-5.17500000e-009,3.64062526e-004
,,,-5.15000000e-009,3.21875023e-004
,,,-5.12500000e-009,2.67187519e-004
,,,-5.10000000e-009,2.03125014e-004
,,,-5.07500000e-009,1.33593759e-004
,,,-5.05000000e-009,6.48437546e-005
,,,-5.02500000e-009,0.00000000e+000
,,,-5.00000000e-009,-5.54687539e-005
,,,-4.97500000e-009,-1.01562507e-004
,,,-4.95000000e-009,-1.37500010e-004
,,,-4.92500000e-009,-1.63281262e-004
,,,-4.90000000e-009,-1.81250013e-004
,,,-4.87500000e-009,-1.91406264e-004
,,,-4.85000000e-009,-1.96875014e-004
,,,-4.82500000e-009,-2.00000014e-004
,,,-4.80000000e-009,-1.96875014e-004
,,,-4.77500000e-009,-1.94531264e-004
,,,-4.75000000e-009,-1.92968764e-004
,,,-4.72500000e-009,-1.92968764e-004
,,,-4.70000000e-009,-1.93750014e-004
,,,-4.67500000e-009,-1.95312514e-004
,,,-4.65000000e-009,-1.97656264e-004
,,,-4.62500000e-009,-2.00000014e-004
,,,-4.60000000e-009,-1.98437514e-004
,,,-4.57500000e-009,-1.96875014e-004
,,,-4.55000000e-009,-1.96093764e-004
,,,-4.52500000e-009,-1.95312514e-004
,,,-4.50000000e-009,-1.95312514e-004
,,,-4.47500000e-009,-1.96093764e-004
,,,-4.45000000e-009,-1.97656264e-004
,,,-4.42500000e-009,-2.00000014e-004
,,,-4.40000000e-009,-1.98437514e-004
,,,-4.37500000e-009,-1.97656264e-004
,,,-4.35000000e-009,-1.97656264e-004
,,,-4.32500000e-009,-1.97656264e-004
,,,-4.30000000e-009,-1.99218764e-004
,,,-4.27500000e-009,-2.00000014e-004
,,,-4.25000000e-009,-2.00781264e-004
,,,-4.22500000e-009,-2.00000014e-004
,,,-4.20000000e-009,-1.91406264e-004
,,,-4.17500000e-009,-1.80468763e-004
,,,-4.15000000e-009,-1.64843762e-004
,,,-4.12500000e-009,-1.43750010e-004
,,,-4.10000000e-009,-1.17187508e-004
,,,-4.07500000e-009,-8.35937559e-005
,,,-4.05000000e-009,-4.37500031e-005
,,,-4.02500000e-009,0.00000000e+000
,,,-4.00000000e-009,4.76562534e-005
,,,-3.97500000e-009,9.53125067e-005
,,,-3.95000000e-009,1.39062510e-004
,,,-3.92500000e-009,1.75781262e-004
,,,-3.90000000e-009,2.01562514e-004
,,,-3.87500000e-009,2.15625015e-004
,,,-3.85000000e-009,2.14843765e-004
,,,-3.82500000e-009,2.00000014e-004
,,,-3.80000000e-009,1.69531262e-004
,,,-3.77500000e-009,1.31250009e-004
,,,-3.75000000e-009,8.90625063e-005
,,,-3.72500000e-009,4.84375034e-005
,,,-3.70000000e-009,1.48437511e-005
,,,-3.67500000e-009,-6.25000044e-006
,,,-3.65000000e-009,-1.17187508e-005
,,,-3.62500000e-009,0.00000000e+000
,,,-3.60000000e-009,3.04687522e-005
,,,-3.57500000e-009,7.65625054e-005
,,,-3.55000000e-009,1.35156260e-004
,,,-3.52500000e-009,1.99218764e-004
,,,-3.50000000e-009,2.64062519e-004
,,,-3.47500000e-009,3.22656273e-004
,,,-3.45000000e-009,3.68750026e-004
,,,-3.42500000e-009,4.00000028e-004
,,,-3.40000000e-009,4.08593779e-004
,,,-3.37500000e-009,4.00781278e-004
,,,-3.35000000e-009,3.77343777e-004
,,,-3.32500000e-009,3.43750024e-004
,,,-3.30000000e-009,3.04687522e-004
,,,-3.27500000e-009,2.64062519e-004
,,,-3.25000000e-009,2.28125016e-004
,,,-3.22500000e-009,2.00000014e-004
,,,-3.20000000e-009,1.80468763e-004
,,,-3.17500000e-009,1.73437512e-004
,,,-3.15000000e-009,1.75000012e-004
,,,-3.12500000e-009,1.83593763e-004
,,,-3.10000000e-009,1.93750014e-004
,,,-3.07500000e-009,2.02343764e-004
,,,-3.05000000e-009,2.05468765e-004
,,,-3.02500000e-009,2.00000014e-004
,,,-3.00000000e-009,1.83593763e-004
,,,-2.97500000e-009,1.58593761e-004
,,,-2.95000000e-009,1.26562509e-004
,,,-2.92500000e-009,9.21875065e-005
,,,-2.90000000e-009,5.78125041e-005
,,,-2.87500000e-009,2.89062520e-005
,,,-2.85000000e-009,8.59375061e-006
,,,-2.82500000e-009,0.00000000e+000
,,,-2.80000000e-009,4.68750033e-006
,,,-2.77500000e-009,2.18750015e-005
,,,-2.75000000e-009,4.84375034e-005
,,,-2.72500000e-009,8.12500058e-005
,,,-2.70000000e-009,1.16406258e-004
,,,-2.67500000e-009,1.50000011e-004
,,,-2.65000000e-009,1.78906263e-004
,,,-2.62500000e-009,2.00000014e-004
,,,-2.60000000e-009,2.10937515e-004
,,,-2.57500000e-009,2.14062515e-004
,,,-2.55000000e-009,2.10156265e-004
,,,-2.52500000e-009,2.03125014e-004
,,,-2.50000000e-009,1.95312514e-004
,,,-2.47500000e-009,1.89843763e-004
,,,-2.45000000e-009,1.90625013e-004
,,,-2.42500000e-009,2.00000014e-004
,,,-2.40000000e-009,2.16406265e-004
,,,-2.37500000e-009,2.41406267e-004
,,,-2.35000000e-009,2.71093769e-004
,,,-2.32500000e-009,3.03906272e-004
,,,-2.30000000e-009,3.35937524e-004
,,,-2.27500000e-009,3.64843776e-004
,,,-2.25000000e-009,3.86718777e-004
,,,-2.22500000e-009,4.00000028e-004
,,,-2.20000000e-009,3.98437528e-004
,,,-2.17500000e-009,3.86718777e-004
,,,-2.15000000e-009,3.64843776e-004
,,,-2.12500000e-009,3.35156274e-004
,,,-2.10000000e-009,3.00781271e-004
,,,-2.07500000e-009,2.64843769e-004
,,,-2.05000000e-009,2.30468766e-004
,,,-2.02500000e-009,2.00000014e-004
,,,-2.00000000e-009,1.74218762e-004
,,,-1.97500000e-009,1.57812511e-004
,,,-1.95000000e-009,1.49218761e-004
,,,-1.92500000e-009,1.48437511e-004
,,,-1.90000000e-009,1.54687511e-004
,,,-1.87500000e-009,1.66406262e-004
,,,-1.85000000e-009,1.82031263e-004
,,,-1.82500000e-009,2.00000014e-004
,,,-1.80000000e-009,2.12500015e-004
,,,-1.77500000e-009,2.23437516e-004
,,,-1.75000000e-009,2.30468766e-004
,,,-1.72500000e-009,2.32812516e-004
,,,-1.70000000e-009,2.31250016e-004
,,,-1.67500000e-009,2.25000016e-004
,,,-1.65000000e-009,2.14062515e-004
,,,-1.62500000e-009,2.00000014e-004
,,,-1.60000000e-009,1.75000012e-004
,,,-1.57500000e-009,1.46875010e-004
,,,-1.55000000e-009,1.16406258e-004
,,,-1.52500000e-009,8.67187561e-005
,,,-1.50000000e-009,5.85937541e-005
,,,-1.47500000e-009,3.43750024e-005
,,,-1.45000000e-009,1.40625010e-005
,,,-1.42500000e-009,0.00000000e+000
,,,-1.40000000e-009,-1.87500013e-005
,,,-1.37500000e-009,-3.43750024e-005
,,,-1.35000000e-009,-4.37500031e-005
,,,-1.32500000e-009,-4.76562534e-005
,,,-1.30000000e-009,-4.45312532e-005
,,,-1.27500000e-009,-3.51562525e-005
,,,-1.25000000e-009,-1.95312514e-005
,,,-1.22500000e-009,0.00000000e+000
,,,-1.20000000e-009,4.68750033e-006
,,,-1.17500000e-009,8.59375061e-006
,,,-1.15000000e-009,9.37500066e-006
,,,-1.12500000e-009,9.37500066e-006
,,,-1.10000000e-009,8.59375061e-006
,,,-1.07500000e-009,6.25000044e-006
,,,-1.05000000e-009,3.90625028e-006
,,,-1.02500000e-009,0.00000000e+000
,,,-1.00000000e-009,-3.04687522e-005
,,,-9.75000000e-010,-6.87500049e-005
,,,-9.50000000e-010,-1.13281258e-004
,,,-9.25000000e-010,-1.63281262e-004
,,,-9.00000000e-010,-2.17968765e-004
,,,-8.75000000e-010,-2.75781270e-004
,,,-8.50000000e-010,-3.36718774e-004
,,,-8.25000000e-010,-4.00000028e-004
,,,-8.00000000e-010,-4.92187535e-004
,,,-7.75000000e-010,-5.91406292e-004
,,,-7.50000000e-010,-6.94531299e-004
,,,-7.25000000e-010,-7.99218807e-004
,,,-7.00000000e-010,-9.03906314e-004
,,,-6.75000000e-010,-1.00546882e-003
,,,-6.50000000e-010,-1.10312508e-003
,,,-6.25000000e-010,-1.20000008e-003
,,,-6.00000000e-010,-1.31875009e-003
,,,-5.75000000e-010,-1.44531260e-003
,,,-5.50000000e-010,-1.57968761e-003
,,,-5.25000000e-010,-1.72421887e-003
,,,-5.00000000e-010,-1.87812513e-003
,,,-4.75000000e-010,-2.04218764e-003
,,,-4.50000000e-010,-2.21640641e-003
,,,-4.25000000e-010,-2.40000017e-003
,,,-4.00000000e-010,-2.60546893e-003
,,,-3.75000000e-010,-2.82109395e-003
,,,-3.50000000e-010,-3.04062522e-003
,,,-3.25000000e-010,-3.25781273e-003
,,,-3.00000000e-010,-3.46718775e-003
,,,-2.75000000e-010,-3.66328151e-003
,,,-2.50000000e-010,-3.84140652e-003
,,,-2.25000000e-010,-4.00000028e-003
,,,-2.00000000e-010,-4.13906279e-003
,,,-1.75000000e-010,-4.26640655e-003
,,,-1.50000000e-010,-4.38593781e-003
,,,-1.25000000e-010,-4.50078157e-003
,,,-1.00000000e-010,-4.61640658e-003
,,,-7.50000000e-011,-4.73515659e-003
,,,-5.00000000e-011,-4.86250034e-003
,,,-2.50000000e-011,-5.00000035e-003
,,,0.00000000e+000,-5.14218786e-003
,,,2.50000000e-011,-5.30312538e-003
,,,5.00000000e-011,-5.47968789e-003
,,,7.50000000e-011,-5.66640665e-003
,,,1.00000000e-010,-5.85859416e-003
,,,1.25000000e-010,-6.04921918e-003
,,,1.50000000e-010,-6.23125044e-003
,,,1.75000000e-010,-6.40000045e-003
,,,2.00000000e-010,-6.53125046e-003
,,,2.25000000e-010,-6.65000047e-003
,,,2.50000000e-010,-6.75859423e-003
,,,2.75000000e-010,-6.85781299e-003
,,,3.00000000e-010,-6.95000049e-003
,,,3.25000000e-010,-7.03671925e-003
,,,3.50000000e-010,-7.11953175e-003
,,,3.75000000e-010,-7.20000051e-003
,,,4.00000000e-010,-7.25078176e-003
,,,4.25000000e-010,-7.30468802e-003
,,,4.50000000e-010,-7.36171927e-003
,,,4.75000000e-010,-7.41953178e-003
,,,5.00000000e-010,-7.47578178e-003
,,,5.25000000e-010,-7.52656303e-003
,,,5.50000000e-010,-7.56796929e-003
,,,5.75000000e-010,-7.60000054e-003
,,,6.00000000e-010,-7.59296929e-003
,,,6.25000000e-010,-7.58125054e-003
,,,6.50000000e-010,-7.56796929e-003
,,,6.75000000e-010,-7.55781303e-003
,,,7.00000000e-010,-7.55390678e-003
,,,7.25000000e-010,-7.55859429e-003
,,,7.50000000e-010,-7.57343804e-003
,,,7.75000000e-010,-7.60000054e-003
,,,8.00000000e-010,-7.61093804e-003
,,,8.25000000e-010,-7.63281304e-003
,,,8.50000000e-010,-7.66328179e-003
,,,8.75000000e-010,-7.69921929e-003
,,,9.00000000e-010,-7.73515680e-003
,,,9.25000000e-010,-7.76796930e-003
,,,9.50000000e-010,-7.79062555e-003
,,,9.75000000e-010,-7.80000055e-003
,,,1.00000000e-009,-7.76562555e-003
,,,1.02500000e-009,-7.71406305e-003
,,,1.05000000e-009,-7.64765679e-003
,,,1.07500000e-009,-7.56953179e-003
,,,1.10000000e-009,-7.48203178e-003
,,,1.12500000e-009,-7.38828177e-003
,,,1.15000000e-009,-7.29375052e-003
,,,1.17500000e-009,-7.20000051e-003
,,,1.20000000e-009,-7.09140675e-003
,,,1.22500000e-009,-6.98984424e-003
,,,1.25000000e-009,-6.89765674e-003
,,,1.27500000e-009,-6.81562548e-003
,,,1.30000000e-009,-6.74531298e-003
,,,1.32500000e-009,-6.68671922e-003
,,,1.35000000e-009,-6.63906297e-003
,,,1.37500000e-009,-6.60000047e-003
,,,1.40000000e-009,-6.55390671e-003
,,,1.42500000e-009,-6.50937546e-003
,,,1.45000000e-009,-6.46484421e-003
,,,1.47500000e-009,-6.41796920e-003
,,,1.50000000e-009,-6.36953170e-003
,,,1.52500000e-009,-6.31718795e-003
,,,1.55000000e-009,-6.26093794e-003
,,,1.57500000e-009,-6.20000044e-003
,,,1.60000000e-009,-6.12031293e-003
,,,1.62500000e-009,-6.03125043e-003
,,,1.65000000e-009,-5.93437542e-003
,,,1.67500000e-009,-5.83046916e-003
,,,1.70000000e-009,-5.72265666e-003
,,,1.72500000e-009,-5.61406290e-003
,,,1.75000000e-009,-5.50546914e-003
,,,1.77500000e-009,-5.40000038e-003
,,,1.80000000e-009,-5.29296912e-003
,,,1.82500000e-009,-5.18593787e-003
,,,1.85000000e-009,-5.08125036e-003
,,,1.87500000e-009,-4.97812535e-003
,,,1.90000000e-009,-4.87812535e-003
,,,1.92500000e-009,-4.78125034e-003
,,,1.95000000e-009,-4.68828158e-003
,,,1.97500000e-009,-4.60000033e-003
,,,2.00000000e-009,-4.51718782e-003
,,,2.02500000e-009,-4.43515656e-003
,,,2.05000000e-009,-4.35390656e-003
,,,2.07500000e-009,-4.27421905e-003
,,,2.10000000e-009,-4.19765655e-003
,,,2.12500000e-009,-4.12656279e-003
,,,2.15000000e-009,-4.06015654e-003
,,,2.17500000e-009,-4.00000028e-003
,,,2.20000000e-009,-3.94453153e-003
,,,2.22500000e-009,-3.88750028e-003
,,,2.25000000e-009,-3.82421902e-003
,,,2.27500000e-009,-3.75546902e-003
,,,2.30000000e-009,-3.67890651e-003
,,,2.32500000e-009,-3.59375025e-003
,,,2.35000000e-009,-3.50078150e-003
,,,2.37500000e-009,-3.40000024e-003
,,,2.40000000e-009,-3.29687523e-003
,,,2.42500000e-009,-3.18671898e-003
,,,2.45000000e-009,-3.07187522e-003
,,,2.47500000e-009,-2.95781271e-003
,,,2.50000000e-009,-2.84921895e-003
,,,2.52500000e-009,-2.75000019e-003
,,,2.55000000e-009,-2.66562519e-003
,,,2.57500000e-009,-2.60000018e-003
,,,2.60000000e-009,-2.56093768e-003
,,,2.62500000e-009,-2.53750018e-003
,,,2.65000000e-009,-2.52812518e-003
,,,2.67500000e-009,-2.52968768e-003
,,,2.70000000e-009,-2.54062518e-003
,,,2.72500000e-009,-2.55781268e-003
,,,2.75000000e-009,-2.57890643e-003
,,,2.77500000e-009,-2.60000018e-003
,,,2.80000000e-009,-2.62031269e-003
,,,2.82500000e-009,-2.62968769e-003
,,,2.85000000e-009,-2.62500019e-003
,,,2.87500000e-009,-2.60546893e-003
,,,2.90000000e-009,-2.57187518e-003
,,,2.92500000e-009,-2.52500018e-003
,,,2.95000000e-009,-2.46718767e-003
,,,2.97500000e-009,-2.40000017e-003
,,,3.00000000e-009,-2.32734391e-003
,,,3.02500000e-009,-2.24843766e-003
,,,3.05000000e-009,-2.16562515e-003
,,,3.07500000e-009,-2.08125015e-003
,,,3.10000000e-009,-2.00078139e-003
,,,3.12500000e-009,-1.92500014e-003
,,,3.15000000e-009,-1.85781263e-003
,,,3.17500000e-009,-1.80000013e-003
,,,3.20000000e-009,-1.75625012e-003
,,,3.22500000e-009,-1.72031262e-003
,,,3.25000000e-009,-1.69062512e-003
,,,3.27500000e-009,-1.66640637e-003
,,,3.30000000e-009,-1.64609387e-003
,,,3.32500000e-009,-1.62968762e-003
,,,3.35000000e-009,-1.61406261e-003
,,,3.37500000e-009,-1.60000011e-003
,,,3.40000000e-009,-1.58828136e-003
,,,3.42500000e-009,-1.57265636e-003
,,,3.45000000e-009,-1.55234386e-003
,,,3.47500000e-009,-1.52734386e-003
,,,3.50000000e-009,-1.49843761e-003
,,,3.52500000e-009,-1.46640635e-003
,,,3.55000000e-009,-1.43281260e-003
,,,3.57500000e-009,-1.40000010e-003
,,,3.60000000e-009,-1.36875010e-003
,,,3.62500000e-009,-1.33906259e-003
,,,3.65000000e-009,-1.30937509e-003
,,,3.67500000e-009,-1.28281259e-003
,,,3.70000000e-009,-1.25781259e-003
,,,3.72500000e-009,-1.23593759e-003
,,,3.75000000e-009,-1.21640634e-003
,,,3.77500000e-009,-1.20000008e-003
,,,3.80000000e-009,-1.18750008e-003
,,,3.82500000e-009,-1.17265633e-003
,,,3.85000000e-009,-1.15546883e-003
,,,3.87500000e-009,-1.13359383e-003
,,,3.90000000e-009,-1.10703133e-003
,,,3.92500000e-009,-1.07578133e-003
,,,3.95000000e-009,-1.03984382e-003
,,,3.97500000e-009,-1.00000007e-003
,,,4.00000000e-009,-9.62500068e-004
,,,4.02500000e-009,-9.23437565e-004
,,,4.05000000e-009,-8.85156313e-004
,,,4.07500000e-009,-8.50781310e-004
,,,4.10000000e-009,-8.23437558e-004
,,,4.12500000e-009,-8.03906307e-004
,,,4.15000000e-009,-7.96093806e-004
,,,4.17500000e-009,-8.00000057e-004
,,,4.20000000e-009,-8.17968808e-004
,,,4.22500000e-009,-8.44531310e-004
,,,4.25000000e-009,-8.76562562e-004
,,,4.27500000e-009,-9.10937564e-004
,,,4.30000000e-009,-9.42968817e-004
,,,4.32500000e-009,-9.70312569e-004
,,,4.35000000e-009,-9.89843820e-004
,,,4.37500000e-009,-1.00000007e-003
,,,4.40000000e-009,-9.99218821e-004
,,,4.42500000e-009,-9.87500070e-004
,,,4.45000000e-009,-9.64843818e-004
,,,4.47500000e-009,-9.34375066e-004
,,,4.50000000e-009,-9.00000064e-004
,,,4.52500000e-009,-8.63281311e-004
,,,4.55000000e-009,-8.28906309e-004
,,,4.57500000e-009,-8.00000057e-004
,,,4.60000000e-009,-7.79687555e-004
,,,4.62500000e-009,-7.67187554e-004
,,,4.65000000e-009,-7.61718804e-004
,,,4.67500000e-009,-7.62500054e-004
,,,4.70000000e-009,-7.68750054e-004
,,,4.72500000e-009,-7.78125055e-004
,,,4.75000000e-009,-7.89062556e-004
,,,4.77500000e-009,-8.00000057e-004
,,,4.80000000e-009,-8.09375057e-004
,,,4.82500000e-009,-8.16406308e-004
,,,4.85000000e-009,-8.19531308e-004
,,,4.87500000e-009,-8.19531308e-004
,,,4.90000000e-009,-8.16406308e-004
,,,4.92500000e-009,-8.10937557e-004
,,,4.95000000e-009,-8.05468807e-004
,,,4.97500000e-009,-8.00000057e-004
,,,5.00000000e-009,-7.94531306e-004
,,,5.02500000e-009,-7.91406306e-004
,,,5.05000000e-009,-7.89062556e-004
,,,5.07500000e-009,-7.88281306e-004
,,,5.10000000e-009,-7.89843806e-004
,,,5.12500000e-009,-7.92187556e-004
,,,5.15000000e-009,-7.95312556e-004
,,,5.17500000e-009,-8.00000057e-004
,,,5.20000000e-009,-8.01562557e-004
,,,5.22500000e-009,-8.03125057e-004
,,,5.25000000e-009,-8.03906307e-004
,,,5.27500000e-009,-8.03906307e-004
,,,5.30000000e-009,-8.03125057e-004
,,,5.32500000e-009,-8.02343807e-004
,,,5.35000000e-009,-8.00781307e-004
,,,5.37500000e-009,-8.00000057e-004
,,,5.40000000e-009,-7.98437557e-004
,,,5.42500000e-009,-7.96875056e-004
,,,5.45000000e-009,-7.96093806e-004
,,,5.47500000e-009,-7.95312556e-004
,,,5.50000000e-009,-7.95312556e-004
,,,5.52500000e-009,-7.96093806e-004
,,,5.55000000e-009,-7.97656306e-004
,,,5.57500000e-009,-8.00000057e-004
,,,5.60000000e-009,-8.02343807e-004
,,,5.62500000e-009,-8.05468807e-004
,,,5.65000000e-009,-8.08593807e-004
,,,5.67500000e-009,-8.10937557e-004
,,,5.70000000e-009,-8.11718807e-004
,,,5.72500000e-009,-8.10156307e-004
,,,5.75000000e-009,-8.06250057e-004
,,,5.77500000e-009,-8.00000057e-004
,,,5.80000000e-009,-7.89062556e-004
,,,5.82500000e-009,-7.74218805e-004
,,,5.85000000e-009,-7.54687553e-004
,,,5.87500000e-009,-7.31250052e-004
,,,5.90000000e-009,-7.03125050e-004
,,,5.92500000e-009,-6.71875048e-004
,,,5.95000000e-009,-6.36718795e-004
