RawData/DifferentLengths/R3/R3_50foot_5mV/wave012_Ch2.csv

"Record Length",1000,"Points",-7.72500000e-009,-3.68750026e-004
"Sample Interval",2.50000000e-011,s,-7.70000000e-009,-4.00000028e-004
"Trigger Point",309,"Samples",-7.67500000e-009,-4.32031281e-004
"Trigger Time",1.18224194e-011,s,-7.65000000e-009,-4.67187533e-004
"",,,-7.62500000e-009,-5.02343786e-004
"Horizontal Offset",-7.72500000e-009,s,-7.60000000e-009,-5.35156288e-004
,,,-7.57500000e-009,-5.64062540e-004
,,,-7.55000000e-009,-5.85156291e-004
,,,-7.52500000e-009,-5.97656292e-004
,,,-7.50000000e-009,-6.00000042e-004
,,,-7.47500000e-009,-5.85937541e-004
,,,-7.45000000e-009,-5.64062540e-004
,,,-7.42500000e-009,-5.35937538e-004
,,,-7.40000000e-009,-5.04687536e-004
,,,-7.37500000e-009,-4.72656283e-004
,,,-7.35000000e-009,-4.42968781e-004
,,,-7.32500000e-009,-4.17968780e-004
,,,-7.30000000e-009,-4.00000028e-004
,,,-7.27500000e-009,-3.87500027e-004
,,,-7.25000000e-009,-3.82031277e-004
,,,-7.22500000e-009,-3.83593777e-004
,,,-7.20000000e-009,-3.88281277e-004
,,,-7.17500000e-009,-3.94531278e-004
,,,-7.15000000e-009,-4.00000028e-004
,,,-7.12500000e-009,-4.02343778e-004
,,,-7.10000000e-009,-4.00000028e-004
,,,-7.07500000e-009,-3.90625028e-004
,,,-7.05000000e-009,-3.78125027e-004
,,,-7.02500000e-009,-3.66406276e-004
,,,-7.00000000e-009,-3.57031275e-004
,,,-6.97500000e-009,-3.53125025e-004
,,,-6.95000000e-009,-3.58593775e-004
,,,-6.92500000e-009,-3.73437526e-004
,,,-6.90000000e-009,-4.00000028e-004
,,,-6.87500000e-009,-4.32031281e-004
,,,-6.85000000e-009,-4.71875033e-004
,,,-6.82500000e-009,-5.13281286e-004
,,,-6.80000000e-009,-5.52343789e-004
,,,-6.77500000e-009,-5.85156291e-004
,,,-6.75000000e-009,-6.05468793e-004
,,,-6.72500000e-009,-6.11718793e-004
,,,-6.70000000e-009,-6.00000042e-004
,,,-6.67500000e-009,-5.66406290e-004
,,,-6.65000000e-009,-5.18750037e-004
,,,-6.62500000e-009,-4.59375033e-004
,,,-6.60000000e-009,-3.95312528e-004
,,,-6.57500000e-009,-3.31250023e-004
,,,-6.55000000e-009,-2.74218769e-004
,,,-6.52500000e-009,-2.28906266e-004
,,,-6.50000000e-009,-2.00000014e-004
,,,-6.47500000e-009,-1.89843763e-004
,,,-6.45000000e-009,-1.97656264e-004
,,,-6.42500000e-009,-2.21093766e-004
,,,-6.40000000e-009,-2.55468768e-004
,,,-6.37500000e-009,-2.95312521e-004
,,,-6.35000000e-009,-3.35937524e-004
,,,-6.32500000e-009,-3.72656276e-004
,,,-6.30000000e-009,-4.00000028e-004
,,,-6.27500000e-009,-4.13281279e-004
,,,-6.25000000e-009,-4.13281279e-004
,,,-6.22500000e-009,-3.98437528e-004
,,,-6.20000000e-009,-3.71093776e-004
,,,-6.17500000e-009,-3.34375024e-004
,,,-6.15000000e-009,-2.91406271e-004
,,,-6.12500000e-009,-2.45312517e-004
,,,-6.10000000e-009,-2.00000014e-004
,,,-6.07500000e-009,-1.57812511e-004
,,,-6.05000000e-009,-1.21093759e-004
,,,-6.02500000e-009,-8.98437564e-005
,,,-6.00000000e-009,-6.40625045e-005
,,,-5.97500000e-009,-4.29687530e-005
,,,-5.95000000e-009,-2.57812518e-005
,,,-5.92500000e-009,-1.17187508e-005
,,,-5.90000000e-009,0.00000000e+000
,,,-5.87500000e-009,7.81250055e-006
,,,-5.85000000e-009,1.48437511e-005
,,,-5.82500000e-009,2.03125014e-005
,,,-5.80000000e-009,2.42187517e-005
,,,-5.77500000e-009,2.50000018e-005
,,,-5.75000000e-009,2.10937515e-005
,,,-5.72500000e-009,1.32812509e-005
,,,-5.70000000e-009,0.00000000e+000
,,,-5.67500000e-009,-2.18750015e-005
,,,-5.65000000e-009,-4.68750033e-005
,,,-5.62500000e-009,-7.50000053e-005
,,,-5.60000000e-009,-1.03906257e-004
,,,-5.57500000e-009,-1.32031259e-004
,,,-5.55000000e-009,-1.58593761e-004
,,,-5.52500000e-009,-1.81250013e-004
,,,-5.50000000e-009,-2.00000014e-004
,,,-5.47500000e-009,-2.14062515e-004
,,,-5.45000000e-009,-2.22656266e-004
,,,-5.42500000e-009,-2.26562516e-004
,,,-5.40000000e-009,-2.25781266e-004
,,,-5.37500000e-009,-2.21875016e-004
,,,-5.35000000e-009,-2.15625015e-004
,,,-5.32500000e-009,-2.07812515e-004
,,,-5.30000000e-009,-2.00000014e-004
,,,-5.27500000e-009,-1.93750014e-004
,,,-5.25000000e-009,-1.89843763e-004
,,,-5.22500000e-009,-1.87500013e-004
,,,-5.20000000e-009,-1.86718763e-004
,,,-5.17500000e-009,-1.88281263e-004
,,,-5.15000000e-009,-1.90625013e-004
,,,-5.12500000e-009,-1.95312514e-004
,,,-5.10000000e-009,-2.00000014e-004
,,,-5.07500000e-009,-2.05468765e-004
,,,-5.05000000e-009,-2.10156265e-004
,,,-5.02500000e-009,-2.14062515e-004
,,,-5.00000000e-009,-2.15625015e-004
,,,-4.97500000e-009,-2.15625015e-004
,,,-4.95000000e-009,-2.12500015e-004
,,,-4.92500000e-009,-2.07031265e-004
,,,-4.90000000e-009,-2.00000014e-004
,,,-4.87500000e-009,-1.90625013e-004
,,,-4.85000000e-009,-1.81250013e-004
,,,-4.82500000e-009,-1.73437512e-004
,,,-4.80000000e-009,-1.68750012e-004
,,,-4.77500000e-009,-1.68750012e-004
,,,-4.75000000e-009,-1.72656262e-004
,,,-4.72500000e-009,-1.83593763e-004
,,,-4.70000000e-009,-2.00000014e-004
,,,-4.67500000e-009,-2.18750015e-004
,,,-4.65000000e-009,-2.42187517e-004
,,,-4.62500000e-009,-2.68750019e-004
,,,-4.60000000e-009,-2.96875021e-004
,,,-4.57500000e-009,-3.25781273e-004
,,,-4.55000000e-009,-3.53906275e-004
,,,-4.52500000e-009,-3.78125027e-004
,,,-4.50000000e-009,-4.00000028e-004
,,,-4.47500000e-009,-4.13281279e-004
,,,-4.45000000e-009,-4.21093780e-004
,,,-4.42500000e-009,-4.24218780e-004
,,,-4.40000000e-009,-4.23437530e-004
,,,-4.37500000e-009,-4.18750030e-004
,,,-4.35000000e-009,-4.13281279e-004
,,,-4.32500000e-009,-4.06250029e-004
,,,-4.30000000e-009,-4.00000028e-004
,,,-4.27500000e-009,-3.92187528e-004
,,,-4.25000000e-009,-3.85937527e-004
,,,-4.22500000e-009,-3.83593777e-004
,,,-4.20000000e-009,-3.82812527e-004
,,,-4.17500000e-009,-3.85937527e-004
,,,-4.15000000e-009,-3.89843778e-004
,,,-4.12500000e-009,-3.95312528e-004
,,,-4.10000000e-009,-4.00000028e-004
,,,-4.07500000e-009,-3.99218778e-004
,,,-4.05000000e-009,-3.93750028e-004
,,,-4.02500000e-009,-3.82031277e-004
,,,-4.00000000e-009,-3.63281276e-004
,,,-3.97500000e-009,-3.35937524e-004
,,,-3.95000000e-009,-3.00000021e-004
,,,-3.92500000e-009,-2.53906268e-004
,,,-3.90000000e-009,-2.00000014e-004
,,,-3.87500000e-009,-1.39062510e-004
,,,-3.85000000e-009,-7.57812554e-005
,,,-3.82500000e-009,-1.25000009e-005
,,,-3.80000000e-009,4.76562534e-005
,,,-3.77500000e-009,1.01562507e-004
,,,-3.75000000e-009,1.46093760e-004
,,,-3.72500000e-009,1.79687513e-004
,,,-3.70000000e-009,2.00000014e-004
,,,-3.67500000e-009,2.02343764e-004
,,,-3.65000000e-009,1.91406264e-004
,,,-3.62500000e-009,1.69531262e-004
,,,-3.60000000e-009,1.39843760e-004
,,,-3.57500000e-009,1.03906257e-004
,,,-3.55000000e-009,6.71875048e-005
,,,-3.52500000e-009,3.12500022e-005
,,,-3.50000000e-009,0.00000000e+000
,,,-3.47500000e-009,-2.65625019e-005
,,,-3.45000000e-009,-4.53125032e-005
,,,-3.42500000e-009,-5.46875039e-005
,,,-3.40000000e-009,-5.54687539e-005
,,,-3.37500000e-009,-4.84375034e-005
,,,-3.35000000e-009,-3.51562525e-005
,,,-3.32500000e-009,-1.79687513e-005
,,,-3.30000000e-009,0.00000000e+000
,,,-3.27500000e-009,1.32812509e-005
,,,-3.25000000e-009,2.42187517e-005
,,,-3.22500000e-009,3.12500022e-005
,,,-3.20000000e-009,3.35937524e-005
,,,-3.17500000e-009,3.20312523e-005
,,,-3.15000000e-009,2.57812518e-005
,,,-3.12500000e-009,1.48437511e-005
,,,-3.10000000e-009,0.00000000e+000
,,,-3.07500000e-009,-2.26562516e-005
,,,-3.05000000e-009,-4.76562534e-005
,,,-3.02500000e-009,-7.50000053e-005
,,,-3.00000000e-009,-1.02343757e-004
,,,-2.97500000e-009,-1.28906259e-004
,,,-2.95000000e-009,-1.55468761e-004
,,,-2.92500000e-009,-1.78906263e-004
,,,-2.90000000e-009,-2.00000014e-004
,,,-2.87500000e-009,-2.17187515e-004
,,,-2.85000000e-009,-2.30468766e-004
,,,-2.82500000e-009,-2.38281267e-004
,,,-2.80000000e-009,-2.40625017e-004
,,,-2.77500000e-009,-2.37500017e-004
,,,-2.75000000e-009,-2.28906266e-004
,,,-2.72500000e-009,-2.15625015e-004
,,,-2.70000000e-009,-2.00000014e-004
,,,-2.67500000e-009,-1.80468763e-004
,,,-2.65000000e-009,-1.62500012e-004
,,,-2.62500000e-009,-1.48437511e-004
,,,-2.60000000e-009,-1.40625010e-004
,,,-2.57500000e-009,-1.40625010e-004
,,,-2.55000000e-009,-1.50000011e-004
,,,-2.52500000e-009,-1.69531262e-004
,,,-2.50000000e-009,-2.00000014e-004
,,,-2.47500000e-009,-2.39062517e-004
,,,-2.45000000e-009,-2.85937520e-004
,,,-2.42500000e-009,-3.39062524e-004
,,,-2.40000000e-009,-3.96093778e-004
,,,-2.37500000e-009,-4.53125032e-004
,,,-2.35000000e-009,-5.07812536e-004
,,,-2.32500000e-009,-5.57812539e-004
,,,-2.30000000e-009,-6.00000042e-004
,,,-2.27500000e-009,-6.28906295e-004
,,,-2.25000000e-009,-6.48437546e-004
,,,-2.22500000e-009,-6.58593797e-004
,,,-2.20000000e-009,-6.59375047e-004
,,,-2.17500000e-009,-6.52343796e-004
,,,-2.15000000e-009,-6.39062545e-004
,,,-2.12500000e-009,-6.21093794e-004
,,,-2.10000000e-009,-6.00000042e-004
,,,-2.07500000e-009,-5.71875040e-004
,,,-2.05000000e-009,-5.44531289e-004
,,,-2.02500000e-009,-5.17187537e-004
,,,-2.00000000e-009,-4.91406285e-004
,,,-1.97500000e-009,-4.67187533e-004
,,,-1.95000000e-009,-4.44531281e-004
,,,-1.92500000e-009,-4.21875030e-004
,,,-1.90000000e-009,-4.00000028e-004
,,,-1.87500000e-009,-3.76562527e-004
,,,-1.85000000e-009,-3.53125025e-004
,,,-1.82500000e-009,-3.28906273e-004
,,,-1.80000000e-009,-3.03906272e-004
,,,-1.77500000e-009,-2.78125020e-004
,,,-1.75000000e-009,-2.51562518e-004
,,,-1.72500000e-009,-2.25000016e-004
,,,-1.70000000e-009,-2.00000014e-004
,,,-1.67500000e-009,-1.82031263e-004
,,,-1.65000000e-009,-1.68750012e-004
,,,-1.62500000e-009,-1.60937511e-004
,,,-1.60000000e-009,-1.57812511e-004
,,,-1.57500000e-009,-1.60156261e-004
,,,-1.55000000e-009,-1.68750012e-004
,,,-1.52500000e-009,-1.82031263e-004
,,,-1.50000000e-009,-2.00000014e-004
,,,-1.47500000e-009,-2.29687516e-004
,,,-1.45000000e-009,-2.64062519e-004
,,,-1.42500000e-009,-2.99218771e-004
,,,-1.40000000e-009,-3.32031274e-004
,,,-1.37500000e-009,-3.60937526e-004
,,,-1.35000000e-009,-3.83593777e-004
,,,-1.32500000e-009,-3.96875028e-004
,,,-1.30000000e-009,-4.00000028e-004
,,,-1.27500000e-009,-4.07031279e-004
,,,-1.25000000e-009,-4.04687529e-004
,,,-1.22500000e-009,-3.92187528e-004
,,,-1.20000000e-009,-3.70312526e-004
,,,-1.17500000e-009,-3.37500024e-004
,,,-1.15000000e-009,-2.96093771e-004
,,,-1.12500000e-009,-2.49218768e-004
,,,-1.10000000e-009,-2.00000014e-004
,,,-1.07500000e-009,-1.74218762e-004
,,,-1.05000000e-009,-1.60156261e-004
,,,-1.02500000e-009,-1.57812511e-004
,,,-1.00000000e-009,-1.71093762e-004
,,,-9.75000000e-010,-2.01562514e-004
,,,-9.50000000e-010,-2.49218768e-004
,,,-9.25000000e-010,-3.15625022e-004
,,,-9.00000000e-010,-4.00000028e-004
,,,-8.75000000e-010,-5.25000037e-004
,,,-8.50000000e-010,-6.63281297e-004
,,,-8.25000000e-010,-8.09375057e-004
,,,-8.00000000e-010,-9.54687568e-004
,,,-7.75000000e-010,-1.09218758e-003
,,,-7.50000000e-010,-1.21406259e-003
,,,-7.25000000e-010,-1.31718759e-003
,,,-7.00000000e-010,-1.40000010e-003
,,,-6.75000000e-010,-1.48046885e-003
,,,-6.50000000e-010,-1.54921886e-003
,,,-6.25000000e-010,-1.61015636e-003
,,,-6.00000000e-010,-1.66953137e-003
,,,-5.75000000e-010,-1.73281262e-003
,,,-5.50000000e-010,-1.80546888e-003
,,,-5.25000000e-010,-1.89296888e-003
,,,-5.00000000e-010,-2.00000014e-003
,,,-4.75000000e-010,-2.14140640e-003
,,,-4.50000000e-010,-2.30625016e-003
,,,-4.25000000e-010,-2.48906268e-003
,,,-4.00000000e-010,-2.68203144e-003
,,,-3.75000000e-010,-2.87734395e-003
,,,-3.50000000e-010,-3.06562522e-003
,,,-3.25000000e-010,-3.24140648e-003
,,,-3.00000000e-010,-3.40000024e-003
,,,-2.75000000e-010,-3.54218775e-003
,,,-2.50000000e-010,-3.67031276e-003
,,,-2.25000000e-010,-3.78828152e-003
,,,-2.00000000e-010,-3.90000028e-003
,,,-1.75000000e-010,-4.01250028e-003
,,,-1.50000000e-010,-4.12968779e-003
,,,-1.25000000e-010,-4.25781280e-003
,,,-1.00000000e-010,-4.40000031e-003
,,,-7.50000000e-011,-4.55078157e-003
,,,-5.00000000e-011,-4.72031283e-003
,,,-2.50000000e-011,-4.90546910e-003
,,,0.00000000e+000,-5.09921911e-003
,,,2.50000000e-011,-5.29375037e-003
,,,5.00000000e-011,-5.48046914e-003
,,,7.50000000e-011,-5.65156290e-003
,,,1.00000000e-010,-5.80000041e-003
,,,1.25000000e-010,-5.90390667e-003
,,,1.50000000e-010,-5.98593792e-003
,,,1.75000000e-010,-6.04843793e-003
,,,2.00000000e-010,-6.09453168e-003
,,,2.25000000e-010,-6.12812543e-003
,,,2.50000000e-010,-6.15390669e-003
,,,2.75000000e-010,-6.17656294e-003
,,,3.00000000e-010,-6.20000044e-003
,,,3.25000000e-010,-6.20937544e-003
,,,3.50000000e-010,-6.23281294e-003
,,,3.75000000e-010,-6.27031294e-003
,,,4.00000000e-010,-6.32109420e-003
,,,4.25000000e-010,-6.38359420e-003
,,,4.50000000e-010,-6.45390671e-003
,,,4.75000000e-010,-6.52734421e-003
,,,5.00000000e-010,-6.60000047e-003
,,,5.25000000e-010,-6.64609422e-003
,,,5.50000000e-010,-6.68828172e-003
,,,5.75000000e-010,-6.72578173e-003
,,,6.00000000e-010,-6.75703173e-003
,,,6.25000000e-010,-6.78125048e-003
,,,6.50000000e-010,-6.79609423e-003
,,,6.75000000e-010,-6.80234423e-003
,,,7.00000000e-010,-6.80000048e-003
,,,7.25000000e-010,-6.76875048e-003
,,,7.50000000e-010,-6.73515673e-003
,,,7.75000000e-010,-6.70156297e-003
,,,8.00000000e-010,-6.67031297e-003
,,,8.25000000e-010,-6.64375047e-003
,,,8.50000000e-010,-6.62187547e-003
,,,8.75000000e-010,-6.60781297e-003
,,,9.00000000e-010,-6.60000047e-003
,,,9.25000000e-010,-6.58203172e-003
,,,9.50000000e-010,-6.57187547e-003
,,,9.75000000e-010,-6.56875046e-003
,,,1.00000000e-009,-6.57109422e-003
,,,1.02500000e-009,-6.57734422e-003
,,,1.05000000e-009,-6.58593797e-003
,,,1.07500000e-009,-6.59375047e-003
,,,1.10000000e-009,-6.60000047e-003
,,,1.12500000e-009,-6.58828172e-003
,,,1.15000000e-009,-6.57109422e-003
,,,1.17500000e-009,-6.54843796e-003
,,,1.20000000e-009,-6.52265671e-003
,,,1.22500000e-009,-6.49296921e-003
,,,1.25000000e-009,-6.46250046e-003
,,,1.27500000e-009,-6.43125046e-003
,,,1.30000000e-009,-6.40000045e-003
,,,1.32500000e-009,-6.35625045e-003
,,,1.35000000e-009,-6.31171920e-003
,,,1.37500000e-009,-6.26562544e-003
,,,1.40000000e-009,-6.21718794e-003
,,,1.42500000e-009,-6.16718794e-003
,,,1.45000000e-009,-6.11484418e-003
,,,1.47500000e-009,-6.05937543e-003
,,,1.50000000e-009,-6.00000042e-003
,,,1.52500000e-009,-5.92812542e-003
,,,1.55000000e-009,-5.85234416e-003
,,,1.57500000e-009,-5.77343791e-003
,,,1.60000000e-009,-5.69296915e-003
,,,1.62500000e-009,-5.61328165e-003
,,,1.65000000e-009,-5.53671914e-003
,,,1.67500000e-009,-5.46484414e-003
,,,1.70000000e-009,-5.40000038e-003
,,,1.72500000e-009,-5.33671913e-003
,,,1.75000000e-009,-5.27812537e-003
,,,1.77500000e-009,-5.22343787e-003
,,,1.80000000e-009,-5.17343787e-003
,,,1.82500000e-009,-5.12578161e-003
,,,1.85000000e-009,-5.08203161e-003
,,,1.87500000e-009,-5.03984411e-003
,,,1.90000000e-009,-5.00000035e-003
,,,1.92500000e-009,-4.95625035e-003
,,,1.95000000e-009,-4.90937535e-003
,,,1.97500000e-009,-4.86015659e-003
,,,2.00000000e-009,-4.80859409e-003
,,,2.02500000e-009,-4.75546909e-003
,,,2.05000000e-009,-4.70234408e-003
,,,2.07500000e-009,-4.65000033e-003
,,,2.10000000e-009,-4.60000033e-003
,,,2.12500000e-009,-4.55000032e-003
,,,2.15000000e-009,-4.49843782e-003
,,,2.17500000e-009,-4.44687531e-003
,,,2.20000000e-009,-4.39531281e-003
,,,2.22500000e-009,-4.34453156e-003
,,,2.25000000e-009,-4.29453155e-003
,,,2.27500000e-009,-4.24609405e-003
,,,2.30000000e-009,-4.20000030e-003
,,,2.32500000e-009,-4.15546904e-003
,,,2.35000000e-009,-4.10937529e-003
,,,2.37500000e-009,-4.06015654e-003
,,,2.40000000e-009,-4.01015653e-003
,,,2.42500000e-009,-3.95781278e-003
,,,2.45000000e-009,-3.90468778e-003
,,,2.47500000e-009,-3.85156277e-003
,,,2.50000000e-009,-3.80000027e-003
,,,2.52500000e-009,-3.75000027e-003
,,,2.55000000e-009,-3.69921901e-003
,,,2.57500000e-009,-3.64687526e-003
,,,2.60000000e-009,-3.59453150e-003
,,,2.62500000e-009,-3.54296900e-003
,,,2.65000000e-009,-3.49296900e-003
,,,2.67500000e-009,-3.44531274e-003
,,,2.70000000e-009,-3.40000024e-003
,,,2.72500000e-009,-3.35781274e-003
,,,2.75000000e-009,-3.31406273e-003
,,,2.77500000e-009,-3.26796898e-003
,,,2.80000000e-009,-3.21953148e-003
,,,2.82500000e-009,-3.16796897e-003
,,,2.85000000e-009,-3.11406272e-003
,,,2.87500000e-009,-3.05781272e-003
,,,2.90000000e-009,-3.00000021e-003
,,,2.92500000e-009,-2.94453146e-003
,,,2.95000000e-009,-2.88828145e-003
,,,2.97500000e-009,-2.83046895e-003
,,,3.00000000e-009,-2.77421895e-003
,,,3.02500000e-009,-2.72109394e-003
,,,3.05000000e-009,-2.67265644e-003
,,,3.07500000e-009,-2.63203144e-003
,,,3.10000000e-009,-2.60000018e-003
,,,3.12500000e-009,-2.58203143e-003
,,,3.15000000e-009,-2.57031268e-003
,,,3.17500000e-009,-2.56562518e-003
,,,3.20000000e-009,-2.56640643e-003
,,,3.22500000e-009,-2.57187518e-003
,,,3.25000000e-009,-2.57968768e-003
,,,3.27500000e-009,-2.58984393e-003
,,,3.30000000e-009,-2.60000018e-003
,,,3.32500000e-009,-2.60859393e-003
,,,3.35000000e-009,-2.61015643e-003
,,,3.37500000e-009,-2.60156268e-003
,,,3.40000000e-009,-2.58281268e-003
,,,3.42500000e-009,-2.55234393e-003
,,,3.45000000e-009,-2.51093768e-003
,,,3.47500000e-009,-2.45937517e-003
,,,3.50000000e-009,-2.40000017e-003
,,,3.52500000e-009,-2.33593767e-003
,,,3.55000000e-009,-2.26953141e-003
,,,3.57500000e-009,-2.20234391e-003
,,,3.60000000e-009,-2.13906265e-003
,,,3.62500000e-009,-2.08437515e-003
,,,3.65000000e-009,-2.04062514e-003
,,,3.67500000e-009,-2.01250014e-003
,,,3.70000000e-009,-2.00000014e-003
,,,3.72500000e-009,-2.00546889e-003
,,,3.75000000e-009,-2.02343764e-003
,,,3.77500000e-009,-2.05078140e-003
,,,3.80000000e-009,-2.08359390e-003
,,,3.82500000e-009,-2.11875015e-003
,,,3.85000000e-009,-2.15156265e-003
,,,3.87500000e-009,-2.17968765e-003
,,,3.90000000e-009,-2.20000016e-003
,,,3.92500000e-009,-2.20625016e-003
,,,3.95000000e-009,-2.20000016e-003
,,,3.97500000e-009,-2.18125015e-003
,,,4.00000000e-009,-2.15234390e-003
,,,4.02500000e-009,-2.11718765e-003
,,,4.05000000e-009,-2.07734390e-003
,,,4.07500000e-009,-2.03750014e-003
,,,4.10000000e-009,-2.00000014e-003
,,,4.12500000e-009,-1.96250014e-003
,,,4.15000000e-009,-1.92890639e-003
,,,4.17500000e-009,-1.90000013e-003
,,,4.20000000e-009,-1.87578138e-003
,,,4.22500000e-009,-1.85390638e-003
,,,4.25000000e-009,-1.83515638e-003
,,,4.27500000e-009,-1.81718763e-003
,,,4.30000000e-009,-1.80000013e-003
,,,4.32500000e-009,-1.77890638e-003
,,,4.35000000e-009,-1.75625012e-003
,,,4.37500000e-009,-1.73046887e-003
,,,4.40000000e-009,-1.70312512e-003
,,,4.42500000e-009,-1.67500012e-003
,,,4.45000000e-009,-1.64765637e-003
,,,4.47500000e-009,-1.62265636e-003
,,,4.50000000e-009,-1.60000011e-003
,,,4.52500000e-009,-1.57734386e-003
,,,4.55000000e-009,-1.55625011e-003
,,,4.57500000e-009,-1.53437511e-003
,,,4.60000000e-009,-1.51250011e-003
,,,4.62500000e-009,-1.48906261e-003
,,,4.65000000e-009,-1.46250010e-003
,,,4.67500000e-009,-1.43281260e-003
,,,4.70000000e-009,-1.40000010e-003
,,,4.72500000e-009,-1.36171885e-003
,,,4.75000000e-009,-1.31796884e-003
,,,4.77500000e-009,-1.27031259e-003
,,,4.80000000e-009,-1.21875009e-003
,,,4.82500000e-009,-1.16406258e-003
,,,4.85000000e-009,-1.10859383e-003
,,,4.87500000e-009,-1.05312507e-003
,,,4.90000000e-009,-1.00000007e-003
,,,4.92500000e-009,-9.53906318e-004
,,,4.95000000e-009,-9.12500065e-004
,,,4.97500000e-009,-8.76562562e-004
,,,5.00000000e-009,-8.46875060e-004
,,,5.02500000e-009,-8.24218808e-004
,,,5.05000000e-009,-8.08593807e-004
,,,5.07500000e-009,-8.00781307e-004
,,,5.10000000e-009,-8.00000057e-004
,,,5.12500000e-009,-8.09375057e-004
,,,5.15000000e-009,-8.20312558e-004
,,,5.17500000e-009,-8.31250059e-004
,,,5.20000000e-009,-8.38281309e-004
,,,5.22500000e-009,-8.39843809e-004
,,,5.25000000e-009,-8.34375059e-004
,,,5.27500000e-009,-8.21093808e-004
,,,5.30000000e-009,-8.00000057e-004
,,,5.32500000e-009,-7.75781305e-004
,,,5.35000000e-009,-7.46093803e-004
,,,5.37500000e-009,-7.12500050e-004
,,,5.40000000e-009,-6.78125048e-004
,,,5.42500000e-009,-6.46875046e-004
,,,5.45000000e-009,-6.21875044e-004
,,,5.47500000e-009,-6.05468793e-004
,,,5.50000000e-009,-6.00000042e-004
,,,5.52500000e-009,-6.08593793e-004
,,,5.55000000e-009,-6.27343794e-004
,,,5.57500000e-009,-6.53125046e-004
,,,5.60000000e-009,-6.83593798e-004
,,,5.62500000e-009,-7.16406301e-004
,,,5.65000000e-009,-7.48437553e-004
,,,5.67500000e-009,-7.76562555e-004
,,,5.70000000e-009,-8.00000057e-004
,,,5.72500000e-009,-8.17187558e-004
,,,5.75000000e-009,-8.25781308e-004
,,,5.77500000e-009,-8.27343809e-004
,,,5.80000000e-009,-8.23437558e-004
,,,5.82500000e-009,-8.15625058e-004
