RawData/DifferentLengths/R3/R3_50foot_5mV/wave029_Ch2.csv

"Record Length",1000,"Points",-7.72500000e-009,-2.16406265e-004
"Sample Interval",2.50000000e-011,s,-7.70000000e-009,-2.17968765e-004
"Trigger Point",309,"Samples",-7.67500000e-009,-2.12500015e-004
"Trigger Time",7.21876468e-012,s,-7.65000000e-009,-2.00000014e-004
"",,,-7.62500000e-009,-1.76562512e-004
"Horizontal Offset",-7.72500000e-009,s,-7.60000000e-009,-1.46875010e-004
,,,-7.57500000e-009,-1.13281258e-004
,,,-7.55000000e-009,-7.89062556e-005
,,,-7.52500000e-009,-4.76562534e-005
,,,-7.50000000e-009,-2.26562516e-005
,,,-7.47500000e-009,-6.25000044e-006
,,,-7.45000000e-009,0.00000000e+000
,,,-7.42500000e-009,-2.34375017e-006
,,,-7.40000000e-009,-1.32812509e-005
,,,-7.37500000e-009,-2.73437519e-005
,,,-7.35000000e-009,-4.06250029e-005
,,,-7.32500000e-009,-4.84375034e-005
,,,-7.30000000e-009,-4.60937533e-005
,,,-7.27500000e-009,-3.04687522e-005
,,,-7.25000000e-009,0.00000000e+000
,,,-7.22500000e-009,4.60937533e-005
,,,-7.20000000e-009,1.03906257e-004
,,,-7.17500000e-009,1.68750012e-004
,,,-7.15000000e-009,2.35156267e-004
,,,-7.12500000e-009,2.96875021e-004
,,,-7.10000000e-009,3.48437525e-004
,,,-7.07500000e-009,3.83593777e-004
,,,-7.05000000e-009,4.00000028e-004
,,,-7.02500000e-009,3.88281277e-004
,,,-7.00000000e-009,3.57031275e-004
,,,-6.97500000e-009,3.08593772e-004
,,,-6.95000000e-009,2.48437518e-004
,,,-6.92500000e-009,1.81250013e-004
,,,-6.90000000e-009,1.14062508e-004
,,,-6.87500000e-009,5.15625036e-005
,,,-6.85000000e-009,0.00000000e+000
,,,-6.82500000e-009,-3.90625028e-005
,,,-6.80000000e-009,-6.25000044e-005
,,,-6.77500000e-009,-7.10937550e-005
,,,-6.75000000e-009,-6.71875048e-005
,,,-6.72500000e-009,-5.39062538e-005
,,,-6.70000000e-009,-3.59375025e-005
,,,-6.67500000e-009,-1.71875012e-005
,,,-6.65000000e-009,0.00000000e+000
,,,-6.62500000e-009,1.17187508e-005
,,,-6.60000000e-009,1.79687513e-005
,,,-6.57500000e-009,1.87500013e-005
,,,-6.55000000e-009,1.56250011e-005
,,,-6.52500000e-009,1.01562507e-005
,,,-6.50000000e-009,4.68750033e-006
,,,-6.47500000e-009,7.81250055e-007
,,,-6.45000000e-009,0.00000000e+000
,,,-6.42500000e-009,1.56250011e-006
,,,-6.40000000e-009,7.03125050e-006
,,,-6.37500000e-009,1.40625010e-005
,,,-6.35000000e-009,2.03125014e-005
,,,-6.32500000e-009,2.42187517e-005
,,,-6.30000000e-009,2.26562516e-005
,,,-6.27500000e-009,1.48437511e-005
,,,-6.25000000e-009,0.00000000e+000
,,,-6.22500000e-009,-2.26562516e-005
,,,-6.20000000e-009,-5.07812536e-005
,,,-6.17500000e-009,-8.35937559e-005
,,,-6.15000000e-009,-1.16406258e-004
,,,-6.12500000e-009,-1.47656260e-004
,,,-6.10000000e-009,-1.73437512e-004
,,,-6.07500000e-009,-1.91406264e-004
,,,-6.05000000e-009,-2.00000014e-004
,,,-6.02500000e-009,-1.93750014e-004
,,,-6.00000000e-009,-1.77343763e-004
,,,-5.97500000e-009,-1.53125011e-004
,,,-5.95000000e-009,-1.23437509e-004
,,,-5.92500000e-009,-9.06250064e-005
,,,-5.90000000e-009,-5.70312540e-005
,,,-5.87500000e-009,-2.57812518e-005
,,,-5.85000000e-009,0.00000000e+000
,,,-5.82500000e-009,1.95312514e-005
,,,-5.80000000e-009,3.20312523e-005
,,,-5.77500000e-009,3.67187526e-005
,,,-5.75000000e-009,3.51562525e-005
,,,-5.72500000e-009,2.96875021e-005
,,,-5.70000000e-009,2.03125014e-005
,,,-5.67500000e-009,9.37500066e-006
,,,-5.65000000e-009,0.00000000e+000
,,,-5.62500000e-009,-7.81250055e-006
,,,-5.60000000e-009,-1.32812509e-005
,,,-5.57500000e-009,-1.64062512e-005
,,,-5.55000000e-009,-1.56250011e-005
,,,-5.52500000e-009,-1.32812509e-005
,,,-5.50000000e-009,-9.37500066e-006
,,,-5.47500000e-009,-4.68750033e-006
,,,-5.45000000e-009,0.00000000e+000
,,,-5.42500000e-009,3.90625028e-006
,,,-5.40000000e-009,6.25000044e-006
,,,-5.37500000e-009,7.03125050e-006
,,,-5.35000000e-009,7.03125050e-006
,,,-5.32500000e-009,6.25000044e-006
,,,-5.30000000e-009,3.90625028e-006
,,,-5.27500000e-009,1.56250011e-006
,,,-5.25000000e-009,0.00000000e+000
,,,-5.22500000e-009,-1.56250011e-006
,,,-5.20000000e-009,-2.34375017e-006
,,,-5.17500000e-009,-3.12500022e-006
,,,-5.15000000e-009,-3.12500022e-006
,,,-5.12500000e-009,-2.34375017e-006
,,,-5.10000000e-009,-1.56250011e-006
,,,-5.07500000e-009,-7.81250055e-007
,,,-5.05000000e-009,0.00000000e+000
,,,-5.02500000e-009,0.00000000e+000
,,,-5.00000000e-009,0.00000000e+000
,,,-4.97500000e-009,0.00000000e+000
,,,-4.95000000e-009,0.00000000e+000
,,,-4.92500000e-009,0.00000000e+000
,,,-4.90000000e-009,0.00000000e+000
,,,-4.87500000e-009,0.00000000e+000
,,,-4.85000000e-009,0.00000000e+000
,,,-4.82500000e-009,7.81250055e-007
,,,-4.80000000e-009,1.56250011e-006
,,,-4.77500000e-009,2.34375017e-006
,,,-4.75000000e-009,3.12500022e-006
,,,-4.72500000e-009,3.12500022e-006
,,,-4.70000000e-009,2.34375017e-006
,,,-4.67500000e-009,1.56250011e-006
,,,-4.65000000e-009,0.00000000e+000
,,,-4.62500000e-009,-1.56250011e-006
,,,-4.60000000e-009,-3.90625028e-006
,,,-4.57500000e-009,-6.25000044e-006
,,,-4.55000000e-009,-7.03125050e-006
,,,-4.52500000e-009,-7.03125050e-006
,,,-4.50000000e-009,-6.25000044e-006
,,,-4.47500000e-009,-3.90625028e-006
,,,-4.45000000e-009,0.00000000e+000
,,,-4.42500000e-009,3.12500022e-006
,,,-4.40000000e-009,7.03125050e-006
,,,-4.37500000e-009,1.01562507e-005
,,,-4.35000000e-009,1.25000009e-005
,,,-4.32500000e-009,1.25000009e-005
,,,-4.30000000e-009,1.09375008e-005
,,,-4.27500000e-009,6.25000044e-006
,,,-4.25000000e-009,0.00000000e+000
,,,-4.22500000e-009,-7.81250055e-006
,,,-4.20000000e-009,-1.56250011e-005
,,,-4.17500000e-009,-2.26562516e-005
,,,-4.15000000e-009,-2.81250020e-005
,,,-4.12500000e-009,-2.89062520e-005
,,,-4.10000000e-009,-2.50000018e-005
,,,-4.07500000e-009,-1.56250011e-005
,,,-4.05000000e-009,0.00000000e+000
,,,-4.02500000e-009,2.10937515e-005
,,,-4.00000000e-009,4.76562534e-005
,,,-3.97500000e-009,7.65625054e-005
,,,-3.95000000e-009,1.07031258e-004
,,,-3.92500000e-009,1.36718760e-004
,,,-3.90000000e-009,1.63281262e-004
,,,-3.87500000e-009,1.85156263e-004
,,,-3.85000000e-009,2.00000014e-004
,,,-3.82500000e-009,2.05468765e-004
,,,-3.80000000e-009,2.02343764e-004
,,,-3.77500000e-009,1.89062513e-004
,,,-3.75000000e-009,1.66406262e-004
,,,-3.72500000e-009,1.34375010e-004
,,,-3.70000000e-009,9.45312567e-005
,,,-3.67500000e-009,4.92187535e-005
,,,-3.65000000e-009,0.00000000e+000
,,,-3.62500000e-009,-4.92187535e-005
,,,-3.60000000e-009,-9.60937568e-005
,,,-3.57500000e-009,-1.37500010e-004
,,,-3.55000000e-009,-1.71093762e-004
,,,-3.52500000e-009,-1.95312514e-004
,,,-3.50000000e-009,-2.08593765e-004
,,,-3.47500000e-009,-2.09375015e-004
,,,-3.45000000e-009,-2.00000014e-004
,,,-3.42500000e-009,-1.78125013e-004
,,,-3.40000000e-009,-1.49218761e-004
,,,-3.37500000e-009,-1.15625008e-004
,,,-3.35000000e-009,-8.20312558e-005
,,,-3.32500000e-009,-5.15625036e-005
,,,-3.30000000e-009,-2.57812518e-005
,,,-3.27500000e-009,-8.59375061e-006
,,,-3.25000000e-009,0.00000000e+000
,,,-3.22500000e-009,0.00000000e+000
,,,-3.20000000e-009,-5.46875039e-006
,,,-3.17500000e-009,-1.64062512e-005
,,,-3.15000000e-009,-2.65625019e-005
,,,-3.12500000e-009,-3.35937524e-005
,,,-3.10000000e-009,-3.35937524e-005
,,,-3.07500000e-009,-2.26562516e-005
,,,-3.05000000e-009,0.00000000e+000
,,,-3.02500000e-009,3.35937524e-005
,,,-3.00000000e-009,7.89062556e-005
,,,-2.97500000e-009,1.32812509e-004
,,,-2.95000000e-009,1.91406264e-004
,,,-2.92500000e-009,2.52343768e-004
,,,-2.90000000e-009,3.10156272e-004
,,,-2.87500000e-009,3.60156275e-004
,,,-2.85000000e-009,4.00000028e-004
,,,-2.82500000e-009,4.17968780e-004
,,,-2.80000000e-009,4.20312530e-004
,,,-2.77500000e-009,4.07031279e-004
,,,-2.75000000e-009,3.80468777e-004
,,,-2.72500000e-009,3.42968774e-004
,,,-2.70000000e-009,2.97656271e-004
,,,-2.67500000e-009,2.49218768e-004
,,,-2.65000000e-009,2.00000014e-004
,,,-2.62500000e-009,1.45312510e-004
,,,-2.60000000e-009,9.53125067e-005
,,,-2.57500000e-009,5.39062538e-005
,,,-2.55000000e-009,2.26562516e-005
,,,-2.52500000e-009,1.56250011e-006
,,,-2.50000000e-009,-7.81250055e-006
,,,-2.47500000e-009,-7.81250055e-006
,,,-2.45000000e-009,0.00000000e+000
,,,-2.42500000e-009,3.12500022e-006
,,,-2.40000000e-009,8.59375061e-006
,,,-2.37500000e-009,1.40625010e-005
,,,-2.35000000e-009,1.87500013e-005
,,,-2.32500000e-009,2.10937515e-005
,,,-2.30000000e-009,1.95312514e-005
,,,-2.27500000e-009,1.32812509e-005
,,,-2.25000000e-009,0.00000000e+000
,,,-2.22500000e-009,-3.51562525e-005
,,,-2.20000000e-009,-7.96875056e-005
,,,-2.17500000e-009,-1.31250009e-004
,,,-2.15000000e-009,-1.86718763e-004
,,,-2.12500000e-009,-2.43750017e-004
,,,-2.10000000e-009,-2.99218771e-004
,,,-2.07500000e-009,-3.51562525e-004
,,,-2.05000000e-009,-4.00000028e-004
,,,-2.02500000e-009,-4.57812532e-004
,,,-2.00000000e-009,-5.14062536e-004
,,,-1.97500000e-009,-5.67187540e-004
,,,-1.95000000e-009,-6.17187544e-004
,,,-1.92500000e-009,-6.64843797e-004
,,,-1.90000000e-009,-7.10156300e-004
,,,-1.87500000e-009,-7.54687553e-004
,,,-1.85000000e-009,-8.00000057e-004
,,,-1.82500000e-009,-8.59375061e-004
,,,-1.80000000e-009,-9.25781316e-004
,,,-1.77500000e-009,-9.97656321e-004
,,,-1.75000000e-009,-1.07421883e-003
,,,-1.72500000e-009,-1.15468758e-003
,,,-1.70000000e-009,-1.23593759e-003
,,,-1.67500000e-009,-1.31796884e-003
,,,-1.65000000e-009,-1.40000010e-003
,,,-1.62500000e-009,-1.49062511e-003
,,,-1.60000000e-009,-1.58515636e-003
,,,-1.57500000e-009,-1.68281262e-003
,,,-1.55000000e-009,-1.78281263e-003
,,,-1.52500000e-009,-1.88437513e-003
,,,-1.50000000e-009,-1.98750014e-003
,,,-1.47500000e-009,-2.09296890e-003
,,,-1.45000000e-009,-2.20000016e-003
,,,-1.42500000e-009,-2.31250016e-003
,,,-1.40000000e-009,-2.43046892e-003
,,,-1.37500000e-009,-2.55312518e-003
,,,-1.35000000e-009,-2.68046894e-003
,,,-1.32500000e-009,-2.81093770e-003
,,,-1.30000000e-009,-2.94218771e-003
,,,-1.27500000e-009,-3.07187522e-003
,,,-1.25000000e-009,-3.20000023e-003
,,,-1.22500000e-009,-3.31796898e-003
,,,-1.20000000e-009,-3.43359399e-003
,,,-1.17500000e-009,-3.54609400e-003
,,,-1.15000000e-009,-3.65312526e-003
,,,-1.12500000e-009,-3.75312527e-003
,,,-1.10000000e-009,-3.84531277e-003
,,,-1.07500000e-009,-3.92734403e-003
,,,-1.05000000e-009,-4.00000028e-003
,,,-1.02500000e-009,-4.05000029e-003
,,,-1.00000000e-009,-4.09687529e-003
,,,-9.75000000e-010,-4.14140654e-003
,,,-9.50000000e-010,-4.18750030e-003
,,,-9.25000000e-010,-4.23515655e-003
,,,-9.00000000e-010,-4.28593780e-003
,,,-8.75000000e-010,-4.34062531e-003
,,,-8.50000000e-010,-4.40000031e-003
,,,-8.25000000e-010,-4.44531281e-003
,,,-8.00000000e-010,-4.49609407e-003
,,,-7.75000000e-010,-4.55156282e-003
,,,-7.50000000e-010,-4.60859408e-003
,,,-7.25000000e-010,-4.66484408e-003
,,,-7.00000000e-010,-4.71718783e-003
,,,-6.75000000e-010,-4.76250034e-003
,,,-6.50000000e-010,-4.80000034e-003
,,,-6.25000000e-010,-4.80781284e-003
,,,-6.00000000e-010,-4.80859409e-003
,,,-5.75000000e-010,-4.80625034e-003
,,,-5.50000000e-010,-4.80078159e-003
,,,-5.25000000e-010,-4.79609409e-003
,,,-5.00000000e-010,-4.79375034e-003
,,,-4.75000000e-010,-4.79453159e-003
,,,-4.50000000e-010,-4.80000034e-003
,,,-4.25000000e-010,-4.79218784e-003
,,,-4.00000000e-010,-4.79062534e-003
,,,-3.75000000e-010,-4.79296909e-003
,,,-3.50000000e-010,-4.79921909e-003
,,,-3.25000000e-010,-4.80546909e-003
,,,-3.00000000e-010,-4.80937534e-003
,,,-2.75000000e-010,-4.80859409e-003
,,,-2.50000000e-010,-4.80000034e-003
,,,-2.25000000e-010,-4.76640659e-003
,,,-2.00000000e-010,-4.72500033e-003
,,,-1.75000000e-010,-4.67656283e-003
,,,-1.50000000e-010,-4.62265658e-003
,,,-1.25000000e-010,-4.56562532e-003
,,,-1.00000000e-010,-4.50859407e-003
,,,-7.50000000e-011,-4.45312532e-003
,,,-5.00000000e-011,-4.40000031e-003
,,,-2.50000000e-011,-4.33984406e-003
,,,0.00000000e+000,-4.28437530e-003
,,,2.50000000e-011,-4.23125030e-003
,,,5.00000000e-011,-4.18281280e-003
,,,7.50000000e-011,-4.13593779e-003
,,,1.00000000e-010,-4.09062529e-003
,,,1.25000000e-010,-4.04531279e-003
,,,1.50000000e-010,-4.00000028e-003
,,,1.75000000e-010,-3.94609403e-003
,,,2.00000000e-010,-3.88984403e-003
,,,2.25000000e-010,-3.83359402e-003
,,,2.50000000e-010,-3.77734402e-003
,,,2.75000000e-010,-3.72421901e-003
,,,3.00000000e-010,-3.67656276e-003
,,,3.25000000e-010,-3.63437526e-003
,,,3.50000000e-010,-3.60000025e-003
,,,3.75000000e-010,-3.56718775e-003
,,,4.00000000e-010,-3.53828150e-003
,,,4.25000000e-010,-3.51250025e-003
,,,4.50000000e-010,-3.48906275e-003
,,,4.75000000e-010,-3.46796900e-003
,,,5.00000000e-010,-3.44609399e-003
,,,5.25000000e-010,-3.42421899e-003
,,,5.50000000e-010,-3.40000024e-003
,,,5.75000000e-010,-3.36640649e-003
,,,6.00000000e-010,-3.32656274e-003
,,,6.25000000e-010,-3.27968773e-003
,,,6.50000000e-010,-3.22734398e-003
,,,6.75000000e-010,-3.17187522e-003
,,,7.00000000e-010,-3.11406272e-003
,,,7.25000000e-010,-3.05625022e-003
,,,7.50000000e-010,-3.00000021e-003
,,,7.75000000e-010,-2.94375021e-003
,,,8.00000000e-010,-2.88906270e-003
,,,8.25000000e-010,-2.83437520e-003
,,,8.50000000e-010,-2.78203145e-003
,,,8.75000000e-010,-2.73281269e-003
,,,9.00000000e-010,-2.68515644e-003
,,,9.25000000e-010,-2.64140644e-003
,,,9.50000000e-010,-2.60000018e-003
,,,9.75000000e-010,-2.55937518e-003
,,,1.00000000e-009,-2.51640643e-003
,,,1.02500000e-009,-2.47109392e-003
,,,1.05000000e-009,-2.42265642e-003
,,,1.07500000e-009,-2.37109392e-003
,,,1.10000000e-009,-2.31718766e-003
,,,1.12500000e-009,-2.25937516e-003
,,,1.15000000e-009,-2.20000016e-003
,,,1.17500000e-009,-2.13906265e-003
,,,1.20000000e-009,-2.07265640e-003
,,,1.22500000e-009,-2.00156264e-003
,,,1.25000000e-009,-1.92656264e-003
,,,1.27500000e-009,-1.84687513e-003
,,,1.30000000e-009,-1.76484387e-003
,,,1.32500000e-009,-1.68203137e-003
,,,1.35000000e-009,-1.60000011e-003
,,,1.37500000e-009,-1.52500011e-003
,,,1.40000000e-009,-1.45312510e-003
,,,1.42500000e-009,-1.38671885e-003
,,,1.45000000e-009,-1.32734384e-003
,,,1.47500000e-009,-1.27812509e-003
,,,1.50000000e-009,-1.23984384e-003
,,,1.52500000e-009,-1.21328134e-003
,,,1.55000000e-009,-1.20000008e-003
,,,1.57500000e-009,-1.20390634e-003
,,,1.60000000e-009,-1.21328134e-003
,,,1.62500000e-009,-1.22500009e-003
,,,1.65000000e-009,-1.23437509e-003
,,,1.67500000e-009,-1.23828134e-003
,,,1.70000000e-009,-1.23437509e-003
,,,1.72500000e-009,-1.22187509e-003
,,,1.75000000e-009,-1.20000008e-003
,,,1.77500000e-009,-1.17343758e-003
,,,1.80000000e-009,-1.13984383e-003
,,,1.82500000e-009,-1.10078133e-003
,,,1.85000000e-009,-1.06250008e-003
,,,1.87500000e-009,-1.02890632e-003
,,,1.90000000e-009,-1.00468757e-003
,,,1.92500000e-009,-9.94531320e-004
,,,1.95000000e-009,-1.00000007e-003
,,,1.97500000e-009,-1.02500007e-003
,,,2.00000000e-009,-1.06015633e-003
,,,2.02500000e-009,-1.10078133e-003
,,,2.05000000e-009,-1.14140633e-003
,,,2.07500000e-009,-1.17656258e-003
,,,2.10000000e-009,-1.20078133e-003
,,,2.12500000e-009,-1.20937509e-003
,,,2.15000000e-009,-1.20000008e-003
,,,2.17500000e-009,-1.17343758e-003
,,,2.20000000e-009,-1.12968758e-003
,,,2.22500000e-009,-1.07187508e-003
,,,2.25000000e-009,-1.00625007e-003
,,,2.27500000e-009,-9.39843817e-004
,,,2.30000000e-009,-8.79687562e-004
,,,2.32500000e-009,-8.31250059e-004
,,,2.35000000e-009,-8.00000057e-004
,,,2.37500000e-009,-7.88281306e-004
,,,2.40000000e-009,-7.95312556e-004
,,,2.42500000e-009,-8.18750058e-004
,,,2.45000000e-009,-8.52343810e-004
,,,2.47500000e-009,-8.93750063e-004
,,,2.50000000e-009,-9.35156316e-004
,,,2.52500000e-009,-9.71875069e-004
,,,2.55000000e-009,-1.00000007e-003
,,,2.57500000e-009,-1.01328132e-003
,,,2.60000000e-009,-1.01171882e-003
,,,2.62500000e-009,-9.96093821e-004
,,,2.65000000e-009,-9.67187568e-004
,,,2.67500000e-009,-9.28906316e-004
,,,2.70000000e-009,-8.85937563e-004
,,,2.72500000e-009,-8.41406310e-004
,,,2.75000000e-009,-8.00000057e-004
,,,2.77500000e-009,-7.65625054e-004
,,,2.80000000e-009,-7.40625052e-004
,,,2.82500000e-009,-7.26562551e-004
,,,2.85000000e-009,-7.23437551e-004
,,,2.87500000e-009,-7.31250052e-004
,,,2.90000000e-009,-7.47656303e-004
,,,2.92500000e-009,-7.71875055e-004
,,,2.95000000e-009,-8.00000057e-004
,,,2.97500000e-009,-8.27343809e-004
,,,3.00000000e-009,-8.51562560e-004
,,,3.02500000e-009,-8.69531312e-004
,,,3.05000000e-009,-8.78906312e-004
,,,3.07500000e-009,-8.77343812e-004
,,,3.10000000e-009,-8.64062561e-004
,,,3.12500000e-009,-8.37500059e-004
,,,3.15000000e-009,-8.00000057e-004
,,,3.17500000e-009,-7.51562553e-004
,,,3.20000000e-009,-6.96093799e-004
,,,3.22500000e-009,-6.36718795e-004
,,,3.25000000e-009,-5.75781291e-004
,,,3.27500000e-009,-5.17968787e-004
,,,3.30000000e-009,-4.67187533e-004
,,,3.32500000e-009,-4.27343780e-004
,,,3.35000000e-009,-4.00000028e-004
,,,3.37500000e-009,-3.89062528e-004
,,,3.40000000e-009,-3.92968778e-004
,,,3.42500000e-009,-4.10937529e-004
,,,3.45000000e-009,-4.39062531e-004
,,,3.47500000e-009,-4.75781284e-004
,,,3.50000000e-009,-5.16406287e-004
,,,3.52500000e-009,-5.59375040e-004
,,,3.55000000e-009,-6.00000042e-004
,,,3.57500000e-009,-6.35937545e-004
,,,3.60000000e-009,-6.62500047e-004
,,,3.62500000e-009,-6.78906298e-004
,,,3.65000000e-009,-6.83593798e-004
,,,3.67500000e-009,-6.76562548e-004
,,,3.70000000e-009,-6.59375047e-004
,,,3.72500000e-009,-6.32812545e-004
,,,3.75000000e-009,-6.00000042e-004
,,,3.77500000e-009,-5.62500040e-004
,,,3.80000000e-009,-5.25000037e-004
,,,3.82500000e-009,-4.88281285e-004
,,,3.85000000e-009,-4.55468782e-004
,,,3.87500000e-009,-4.28125030e-004
,,,3.90000000e-009,-4.09375029e-004
,,,3.92500000e-009,-4.00000028e-004
,,,3.95000000e-009,-4.00000028e-004
,,,3.97500000e-009,-4.11718779e-004
,,,4.00000000e-009,-4.31250031e-004
,,,4.02500000e-009,-4.57031282e-004
,,,4.05000000e-009,-4.86718784e-004
,,,4.07500000e-009,-5.17968787e-004
,,,4.10000000e-009,-5.48437539e-004
,,,4.12500000e-009,-5.76562541e-004
,,,4.15000000e-009,-6.00000042e-004
,,,4.17500000e-009,-6.16406294e-004
,,,4.20000000e-009,-6.26562544e-004
,,,4.22500000e-009,-6.30468795e-004
,,,4.25000000e-009,-6.28906295e-004
,,,4.27500000e-009,-6.23437544e-004
,,,4.30000000e-009,-6.15625044e-004
,,,4.32500000e-009,-6.07031293e-004
,,,4.35000000e-009,-6.00000042e-004
,,,4.37500000e-009,-5.90625042e-004
,,,4.40000000e-009,-5.84375041e-004
,,,4.42500000e-009,-5.81250041e-004
,,,4.45000000e-009,-5.80468791e-004
,,,4.47500000e-009,-5.83593791e-004
,,,4.50000000e-009,-5.87500042e-004
,,,4.52500000e-009,-5.93750042e-004
,,,4.55000000e-009,-6.00000042e-004
,,,4.57500000e-009,-6.03125043e-004
,,,4.60000000e-009,-6.06250043e-004
,,,4.62500000e-009,-6.07031293e-004
,,,4.65000000e-009,-6.07031293e-004
,,,4.67500000e-009,-6.05468793e-004
,,,4.70000000e-009,-6.03906293e-004
,,,4.72500000e-009,-6.01562543e-004
,,,4.75000000e-009,-6.00000042e-004
,,,4.77500000e-009,-5.96093792e-004
,,,4.80000000e-009,-5.93750042e-004
,,,4.82500000e-009,-5.92187542e-004
,,,4.85000000e-009,-5.91406292e-004
,,,4.87500000e-009,-5.92968792e-004
,,,4.90000000e-009,-5.95312542e-004
,,,4.92500000e-009,-5.97656292e-004
,,,4.95000000e-009,-6.00000042e-004
,,,4.97500000e-009,-5.97656292e-004
,,,5.00000000e-009,-5.92187542e-004
,,,5.02500000e-009,-5.81250041e-004
,,,5.05000000e-009,-5.62500040e-004
,,,5.07500000e-009,-5.35937538e-004
,,,5.10000000e-009,-5.00000035e-004
,,,5.12500000e-009,-4.54687532e-004
,,,5.15000000e-009,-4.00000028e-004
,,,5.17500000e-009,-3.38281274e-004
,,,5.20000000e-009,-2.72656269e-004
,,,5.22500000e-009,-2.06250015e-004
,,,5.25000000e-009,-1.44531260e-004
,,,5.27500000e-009,-8.90625063e-005
,,,5.30000000e-009,-4.53125032e-005
,,,5.32500000e-009,-1.48437511e-005
,,,5.35000000e-009,0.00000000e+000
,,,5.37500000e-009,-3.90625028e-006
,,,5.40000000e-009,-2.18750015e-005
,,,5.42500000e-009,-5.00000035e-005
,,,5.45000000e-009,-8.35937559e-005
,,,5.47500000e-009,-1.19531258e-004
,,,5.50000000e-009,-1.53125011e-004
,,,5.52500000e-009,-1.80468763e-004
,,,5.55000000e-009,-2.00000014e-004
,,,5.57500000e-009,-2.10937515e-004
,,,5.60000000e-009,-2.13281265e-004
,,,5.62500000e-009,-2.08593765e-004
,,,5.65000000e-009,-2.00000014e-004
,,,5.67500000e-009,-1.91406264e-004
,,,5.70000000e-009,-1.85937513e-004
,,,5.72500000e-009,-1.88281263e-004
,,,5.75000000e-009,-2.00000014e-004
,,,5.77500000e-009,-2.21875016e-004
,,,5.80000000e-009,-2.51562518e-004
,,,5.82500000e-009,-2.86718770e-004
,,,5.85000000e-009,-3.22656273e-004
,,,5.87500000e-009,-3.55468775e-004
,,,5.90000000e-009,-3.81250027e-004
