RawData/DifferentLengths/R3/R3_50foot_5mV/wave030_Ch2.csv

"Record Length",1000,"Points",-7.72500000e-009,-1.56250011e-005
"Sample Interval",2.50000000e-011,s,-7.70000000e-009,-1.32812509e-005
"Trigger Point",309,"Samples",-7.67500000e-009,-8.59375061e-006
"Trigger Time",2.40200000e-011,s,-7.65000000e-009,-3.90625028e-006
"",,,-7.62500000e-009,0.00000000e+000
"Horizontal Offset",-7.72500000e-009,s,-7.60000000e-009,3.12500022e-006
,,,-7.57500000e-009,4.68750033e-006
,,,-7.55000000e-009,5.46875039e-006
,,,-7.52500000e-009,4.68750033e-006
,,,-7.50000000e-009,3.12500022e-006
,,,-7.47500000e-009,1.56250011e-006
,,,-7.45000000e-009,0.00000000e+000
,,,-7.42500000e-009,0.00000000e+000
,,,-7.40000000e-009,-7.81250055e-007
,,,-7.37500000e-009,-7.81250055e-007
,,,-7.35000000e-009,0.00000000e+000
,,,-7.32500000e-009,0.00000000e+000
,,,-7.30000000e-009,0.00000000e+000
,,,-7.27500000e-009,7.81250055e-007
,,,-7.25000000e-009,7.81250055e-007
,,,-7.22500000e-009,0.00000000e+000
,,,-7.20000000e-009,-1.56250011e-006
,,,-7.17500000e-009,-3.90625028e-006
,,,-7.15000000e-009,-6.25000044e-006
,,,-7.12500000e-009,-8.59375061e-006
,,,-7.10000000e-009,-9.37500066e-006
,,,-7.07500000e-009,-7.81250055e-006
,,,-7.05000000e-009,-4.68750033e-006
,,,-7.02500000e-009,0.00000000e+000
,,,-7.00000000e-009,7.03125050e-006
,,,-6.97500000e-009,1.48437511e-005
,,,-6.95000000e-009,2.18750015e-005
,,,-6.92500000e-009,2.65625019e-005
,,,-6.90000000e-009,2.81250020e-005
,,,-6.87500000e-009,2.42187517e-005
,,,-6.85000000e-009,1.48437511e-005
,,,-6.82500000e-009,0.00000000e+000
,,,-6.80000000e-009,-2.03125014e-005
,,,-6.77500000e-009,-4.60937533e-005
,,,-6.75000000e-009,-7.42187553e-005
,,,-6.72500000e-009,-1.03906257e-004
,,,-6.70000000e-009,-1.32812509e-004
,,,-6.67500000e-009,-1.59375011e-004
,,,-6.65000000e-009,-1.82031263e-004
,,,-6.62500000e-009,-2.00000014e-004
,,,-6.60000000e-009,-2.07812515e-004
,,,-6.57500000e-009,-2.10156265e-004
,,,-6.55000000e-009,-2.08593765e-004
,,,-6.52500000e-009,-2.04687514e-004
,,,-6.50000000e-009,-2.00000014e-004
,,,-6.47500000e-009,-1.96875014e-004
,,,-6.45000000e-009,-1.96093764e-004
,,,-6.42500000e-009,-2.00000014e-004
,,,-6.40000000e-009,-2.03125014e-004
,,,-6.37500000e-009,-2.10156265e-004
,,,-6.35000000e-009,-2.17187515e-004
,,,-6.32500000e-009,-2.23437516e-004
,,,-6.30000000e-009,-2.26562516e-004
,,,-6.27500000e-009,-2.24218766e-004
,,,-6.25000000e-009,-2.15625015e-004
,,,-6.22500000e-009,-2.00000014e-004
,,,-6.20000000e-009,-1.74218762e-004
,,,-6.17500000e-009,-1.42968760e-004
,,,-6.15000000e-009,-1.09375008e-004
,,,-6.12500000e-009,-7.57812554e-005
,,,-6.10000000e-009,-4.53125032e-005
,,,-6.07500000e-009,-2.18750015e-005
,,,-6.05000000e-009,-6.25000044e-006
,,,-6.02500000e-009,0.00000000e+000
,,,-6.00000000e-009,-2.34375017e-006
,,,-5.97500000e-009,-1.09375008e-005
,,,-5.95000000e-009,-2.34375017e-005
,,,-5.92500000e-009,-3.51562525e-005
,,,-5.90000000e-009,-4.29687530e-005
,,,-5.87500000e-009,-4.06250029e-005
,,,-5.85000000e-009,-2.73437519e-005
,,,-5.82500000e-009,0.00000000e+000
,,,-5.80000000e-009,4.06250029e-005
,,,-5.77500000e-009,9.29687566e-005
,,,-5.75000000e-009,1.52343761e-004
,,,-5.72500000e-009,2.15625015e-004
,,,-5.70000000e-009,2.76562520e-004
,,,-5.67500000e-009,3.30468773e-004
,,,-5.65000000e-009,3.72656276e-004
,,,-5.62500000e-009,4.00000028e-004
,,,-5.60000000e-009,4.07031279e-004
,,,-5.57500000e-009,3.97656278e-004
,,,-5.55000000e-009,3.75000027e-004
,,,-5.52500000e-009,3.42968774e-004
,,,-5.50000000e-009,3.04687522e-004
,,,-5.47500000e-009,2.65625019e-004
,,,-5.45000000e-009,2.29687516e-004
,,,-5.42500000e-009,2.00000014e-004
,,,-5.40000000e-009,1.78125013e-004
,,,-5.37500000e-009,1.67187512e-004
,,,-5.35000000e-009,1.65625012e-004
,,,-5.32500000e-009,1.71093762e-004
,,,-5.30000000e-009,1.81250013e-004
,,,-5.27500000e-009,1.91406264e-004
,,,-5.25000000e-009,1.98437514e-004
,,,-5.22500000e-009,2.00000014e-004
,,,-5.20000000e-009,1.90625013e-004
,,,-5.17500000e-009,1.74218762e-004
,,,-5.15000000e-009,1.50000011e-004
,,,-5.12500000e-009,1.21093759e-004
,,,-5.10000000e-009,8.90625063e-005
,,,-5.07500000e-009,5.62500040e-005
,,,-5.05000000e-009,2.57812518e-005
,,,-5.02500000e-009,0.00000000e+000
,,,-5.00000000e-009,-1.87500013e-005
,,,-4.97500000e-009,-3.04687522e-005
,,,-4.95000000e-009,-3.51562525e-005
,,,-4.92500000e-009,-3.43750024e-005
,,,-4.90000000e-009,-2.89062520e-005
,,,-4.87500000e-009,-2.10937515e-005
,,,-4.85000000e-009,-1.09375008e-005
,,,-4.82500000e-009,0.00000000e+000
,,,-4.80000000e-009,1.17187508e-005
,,,-4.77500000e-009,2.42187517e-005
,,,-4.75000000e-009,3.98437528e-005
,,,-4.72500000e-009,5.93750042e-005
,,,-4.70000000e-009,8.43750060e-005
,,,-4.67500000e-009,1.15625008e-004
,,,-4.65000000e-009,1.54687511e-004
,,,-4.62500000e-009,2.00000014e-004
,,,-4.60000000e-009,2.48437518e-004
,,,-4.57500000e-009,2.98437521e-004
,,,-4.55000000e-009,3.44531274e-004
,,,-4.52500000e-009,3.83593777e-004
,,,-4.50000000e-009,4.10937529e-004
,,,-4.47500000e-009,4.24218780e-004
,,,-4.45000000e-009,4.21093780e-004
,,,-4.42500000e-009,4.00000028e-004
,,,-4.40000000e-009,3.59375025e-004
,,,-4.37500000e-009,3.06250022e-004
,,,-4.35000000e-009,2.43750017e-004
,,,-4.32500000e-009,1.78906263e-004
,,,-4.30000000e-009,1.17187508e-004
,,,-4.27500000e-009,6.32812545e-005
,,,-4.25000000e-009,2.34375017e-005
,,,-4.22500000e-009,0.00000000e+000
,,,-4.20000000e-009,-4.68750033e-006
,,,-4.17500000e-009,7.03125050e-006
,,,-4.15000000e-009,3.28125023e-005
,,,-4.12500000e-009,6.79687548e-005
,,,-4.10000000e-009,1.07812508e-004
,,,-4.07500000e-009,1.46093760e-004
,,,-4.05000000e-009,1.78125013e-004
,,,-4.02500000e-009,2.00000014e-004
,,,-4.00000000e-009,2.06250015e-004
,,,-3.97500000e-009,1.99218764e-004
,,,-3.95000000e-009,1.78906263e-004
,,,-3.92500000e-009,1.48437511e-004
,,,-3.90000000e-009,1.10937508e-004
,,,-3.87500000e-009,7.18750051e-005
,,,-3.85000000e-009,3.28125023e-005
,,,-3.82500000e-009,0.00000000e+000
,,,-3.80000000e-009,-2.57812518e-005
,,,-3.77500000e-009,-4.21875030e-005
,,,-3.75000000e-009,-4.84375034e-005
,,,-3.72500000e-009,-4.76562534e-005
,,,-3.70000000e-009,-3.90625028e-005
,,,-3.67500000e-009,-2.73437519e-005
,,,-3.65000000e-009,-1.32812509e-005
,,,-3.62500000e-009,0.00000000e+000
,,,-3.60000000e-009,1.17187508e-005
,,,-3.57500000e-009,1.95312514e-005
,,,-3.55000000e-009,2.34375017e-005
,,,-3.52500000e-009,2.26562516e-005
,,,-3.50000000e-009,1.87500013e-005
,,,-3.47500000e-009,1.32812509e-005
,,,-3.45000000e-009,6.25000044e-006
,,,-3.42500000e-009,0.00000000e+000
,,,-3.40000000e-009,-3.90625028e-006
,,,-3.37500000e-009,-6.25000044e-006
,,,-3.35000000e-009,-7.03125050e-006
,,,-3.32500000e-009,-7.03125050e-006
,,,-3.30000000e-009,-6.25000044e-006
,,,-3.27500000e-009,-3.90625028e-006
,,,-3.25000000e-009,-1.56250011e-006
,,,-3.22500000e-009,0.00000000e+000
,,,-3.20000000e-009,1.56250011e-006
,,,-3.17500000e-009,2.34375017e-006
,,,-3.15000000e-009,3.12500022e-006
,,,-3.12500000e-009,3.12500022e-006
,,,-3.10000000e-009,2.34375017e-006
,,,-3.07500000e-009,1.56250011e-006
,,,-3.05000000e-009,7.81250055e-007
,,,-3.02500000e-009,0.00000000e+000
,,,-3.00000000e-009,0.00000000e+000
,,,-2.97500000e-009,0.00000000e+000
,,,-2.95000000e-009,0.00000000e+000
,,,-2.92500000e-009,0.00000000e+000
,,,-2.90000000e-009,0.00000000e+000
,,,-2.87500000e-009,0.00000000e+000
,,,-2.85000000e-009,0.00000000e+000
,,,-2.82500000e-009,0.00000000e+000
,,,-2.80000000e-009,0.00000000e+000
,,,-2.77500000e-009,0.00000000e+000
,,,-2.75000000e-009,0.00000000e+000
,,,-2.72500000e-009,0.00000000e+000
,,,-2.70000000e-009,0.00000000e+000
,,,-2.67500000e-009,0.00000000e+000
,,,-2.65000000e-009,0.00000000e+000
,,,-2.62500000e-009,0.00000000e+000
,,,-2.60000000e-009,0.00000000e+000
,,,-2.57500000e-009,0.00000000e+000
,,,-2.55000000e-009,0.00000000e+000
,,,-2.52500000e-009,0.00000000e+000
,,,-2.50000000e-009,0.00000000e+000
,,,-2.47500000e-009,0.00000000e+000
,,,-2.45000000e-009,0.00000000e+000
,,,-2.42500000e-009,0.00000000e+000
,,,-2.40000000e-009,0.00000000e+000
,,,-2.37500000e-009,0.00000000e+000
,,,-2.35000000e-009,0.00000000e+000
,,,-2.32500000e-009,0.00000000e+000
,,,-2.30000000e-009,0.00000000e+000
,,,-2.27500000e-009,0.00000000e+000
,,,-2.25000000e-009,0.00000000e+000
,,,-2.22500000e-009,0.00000000e+000
,,,-2.20000000e-009,-7.81250055e-007
,,,-2.17500000e-009,-1.56250011e-006
,,,-2.15000000e-009,-2.34375017e-006
,,,-2.12500000e-009,-3.12500022e-006
,,,-2.10000000e-009,-3.12500022e-006
,,,-2.07500000e-009,-2.34375017e-006
,,,-2.05000000e-009,-1.56250011e-006
,,,-2.02500000e-009,0.00000000e+000
,,,-2.00000000e-009,-1.56250011e-006
,,,-1.97500000e-009,-3.12500022e-006
,,,-1.95000000e-009,-4.68750033e-006
,,,-1.92500000e-009,-5.46875039e-006
,,,-1.90000000e-009,-5.46875039e-006
,,,-1.87500000e-009,-4.68750033e-006
,,,-1.85000000e-009,-3.12500022e-006
,,,-1.82500000e-009,0.00000000e+000
,,,-1.80000000e-009,-3.12500022e-006
,,,-1.77500000e-009,-7.03125050e-006
,,,-1.75000000e-009,-1.01562507e-005
,,,-1.72500000e-009,-1.25000009e-005
,,,-1.70000000e-009,-1.32812509e-005
,,,-1.67500000e-009,-1.09375008e-005
,,,-1.65000000e-009,-6.25000044e-006
,,,-1.62500000e-009,0.00000000e+000
,,,-1.60000000e-009,-3.12500022e-006
,,,-1.57500000e-009,-7.03125050e-006
,,,-1.55000000e-009,-1.01562507e-005
,,,-1.52500000e-009,-1.17187508e-005
,,,-1.50000000e-009,-1.17187508e-005
,,,-1.47500000e-009,-9.37500066e-006
,,,-1.45000000e-009,-4.68750033e-006
,,,-1.42500000e-009,0.00000000e+000
,,,-1.40000000e-009,-1.01562507e-005
,,,-1.37500000e-009,-2.42187517e-005
,,,-1.35000000e-009,-4.21875030e-005
,,,-1.32500000e-009,-6.48437546e-005
,,,-1.30000000e-009,-9.21875065e-005
,,,-1.27500000e-009,-1.23437509e-004
,,,-1.25000000e-009,-1.58593761e-004
,,,-1.22500000e-009,-2.00000014e-004
,,,-1.20000000e-009,-2.64062519e-004
,,,-1.17500000e-009,-3.35937524e-004
,,,-1.15000000e-009,-4.12500029e-004
,,,-1.12500000e-009,-4.92187535e-004
,,,-1.10000000e-009,-5.72656291e-004
,,,-1.07500000e-009,-6.50781296e-004
,,,-1.05000000e-009,-7.26562551e-004
,,,-1.02500000e-009,-8.00000057e-004
,,,-1.00000000e-009,-8.87500063e-004
,,,-9.75000000e-010,-9.78125069e-004
,,,-9.50000000e-010,-1.07109383e-003
,,,-9.25000000e-010,-1.16796883e-003
,,,-9.00000000e-010,-1.26953134e-003
,,,-8.75000000e-010,-1.37500010e-003
,,,-8.50000000e-010,-1.48437511e-003
,,,-8.25000000e-010,-1.60000011e-003
,,,-8.00000000e-010,-1.73125012e-003
,,,-7.75000000e-010,-1.86796888e-003
,,,-7.50000000e-010,-2.00781264e-003
,,,-7.25000000e-010,-2.14531265e-003
,,,-7.00000000e-010,-2.27656266e-003
,,,-6.75000000e-010,-2.39765642e-003
,,,-6.50000000e-010,-2.50546893e-003
,,,-6.25000000e-010,-2.60000018e-003
,,,-6.00000000e-010,-2.68437519e-003
,,,-5.75000000e-010,-2.76093770e-003
,,,-5.50000000e-010,-2.83125020e-003
,,,-5.25000000e-010,-2.90000021e-003
,,,-5.00000000e-010,-2.96796896e-003
,,,-4.75000000e-010,-3.03828147e-003
,,,-4.50000000e-010,-3.11484397e-003
,,,-4.25000000e-010,-3.20000023e-003
,,,-4.00000000e-010,-3.29453148e-003
,,,-3.75000000e-010,-3.40390649e-003
,,,-3.50000000e-010,-3.52578150e-003
,,,-3.25000000e-010,-3.65781276e-003
,,,-3.00000000e-010,-3.79531277e-003
,,,-2.75000000e-010,-3.93437528e-003
,,,-2.50000000e-010,-4.07031279e-003
,,,-2.25000000e-010,-4.20000030e-003
,,,-2.00000000e-010,-4.31171906e-003
,,,-1.75000000e-010,-4.41796906e-003
,,,-1.50000000e-010,-4.52109407e-003
,,,-1.25000000e-010,-4.61953158e-003
,,,-1.00000000e-010,-4.71640658e-003
,,,-7.50000000e-011,-4.81171909e-003
,,,-5.00000000e-011,-4.90625035e-003
,,,-2.50000000e-011,-5.00000035e-003
,,,0.00000000e+000,-5.07578161e-003
,,,2.50000000e-011,-5.15468786e-003
,,,5.00000000e-011,-5.23593787e-003
,,,7.50000000e-011,-5.31718788e-003
,,,1.00000000e-010,-5.39687538e-003
,,,1.25000000e-010,-5.47187539e-003
,,,1.50000000e-010,-5.54062539e-003
,,,1.75000000e-010,-5.60000040e-003
,,,2.00000000e-010,-5.62968790e-003
,,,2.25000000e-010,-5.65390665e-003
,,,2.50000000e-010,-5.67500040e-003
,,,2.75000000e-010,-5.69531290e-003
,,,3.00000000e-010,-5.71640665e-003
,,,3.25000000e-010,-5.74062541e-003
,,,3.50000000e-010,-5.76796916e-003
,,,3.75000000e-010,-5.80000041e-003
,,,4.00000000e-010,-5.81484416e-003
,,,4.25000000e-010,-5.83593791e-003
,,,4.50000000e-010,-5.86250041e-003
,,,4.75000000e-010,-5.89296917e-003
,,,5.00000000e-010,-5.92500042e-003
,,,5.25000000e-010,-5.95546917e-003
,,,5.50000000e-010,-5.98203167e-003
,,,5.75000000e-010,-6.00000042e-003
,,,6.00000000e-010,-5.98437542e-003
,,,6.25000000e-010,-5.95781292e-003
,,,6.50000000e-010,-5.92031292e-003
,,,6.75000000e-010,-5.87265667e-003
,,,7.00000000e-010,-5.81562541e-003
,,,7.25000000e-010,-5.75000041e-003
,,,7.50000000e-010,-5.67734415e-003
,,,7.75000000e-010,-5.60000040e-003
,,,8.00000000e-010,-5.50234414e-003
,,,8.25000000e-010,-5.40546913e-003
,,,8.50000000e-010,-5.31250038e-003
,,,8.75000000e-010,-5.22734412e-003
,,,9.00000000e-010,-5.15234411e-003
,,,9.25000000e-010,-5.08906286e-003
,,,9.50000000e-010,-5.03828161e-003
,,,9.75000000e-010,-5.00000035e-003
,,,1.00000000e-009,-4.96171910e-003
,,,1.02500000e-009,-4.93281285e-003
,,,1.05000000e-009,-4.90937535e-003
,,,1.07500000e-009,-4.88984410e-003
,,,1.10000000e-009,-4.87187534e-003
,,,1.12500000e-009,-4.85234409e-003
,,,1.15000000e-009,-4.82968784e-003
,,,1.17500000e-009,-4.80000034e-003
,,,1.20000000e-009,-4.75468784e-003
,,,1.22500000e-009,-4.69921908e-003
,,,1.25000000e-009,-4.63203158e-003
,,,1.27500000e-009,-4.55625032e-003
,,,1.30000000e-009,-4.47187532e-003
,,,1.32500000e-009,-4.38281281e-003
,,,1.35000000e-009,-4.29140655e-003
,,,1.37500000e-009,-4.20000030e-003
,,,1.40000000e-009,-4.10859404e-003
,,,1.42500000e-009,-4.01953153e-003
,,,1.45000000e-009,-3.93437528e-003
,,,1.47500000e-009,-3.85468777e-003
,,,1.50000000e-009,-3.78046902e-003
,,,1.52500000e-009,-3.71328151e-003
,,,1.55000000e-009,-3.65312526e-003
,,,1.57500000e-009,-3.60000025e-003
,,,1.60000000e-009,-3.55312525e-003
,,,1.62500000e-009,-3.50703150e-003
,,,1.65000000e-009,-3.46015649e-003
,,,1.67500000e-009,-3.41171899e-003
,,,1.70000000e-009,-3.36171899e-003
,,,1.72500000e-009,-3.30937523e-003
,,,1.75000000e-009,-3.25468773e-003
,,,1.77500000e-009,-3.20000023e-003
,,,1.80000000e-009,-3.14687522e-003
,,,1.82500000e-009,-3.09062522e-003
,,,1.85000000e-009,-3.03281271e-003
,,,1.87500000e-009,-2.97578146e-003
,,,1.90000000e-009,-2.92187521e-003
,,,1.92500000e-009,-2.87265645e-003
,,,1.95000000e-009,-2.83203145e-003
,,,1.97500000e-009,-2.80000020e-003
,,,2.00000000e-009,-2.77968770e-003
,,,2.02500000e-009,-2.76640645e-003
,,,2.05000000e-009,-2.75937520e-003
,,,2.07500000e-009,-2.75859395e-003
,,,2.10000000e-009,-2.76328145e-003
,,,2.12500000e-009,-2.77343770e-003
,,,2.15000000e-009,-2.78593770e-003
,,,2.17500000e-009,-2.80000020e-003
,,,2.20000000e-009,-2.81250020e-003
,,,2.22500000e-009,-2.81718770e-003
,,,2.25000000e-009,-2.81093770e-003
,,,2.27500000e-009,-2.79375020e-003
,,,2.30000000e-009,-2.76328145e-003
,,,2.32500000e-009,-2.72031269e-003
,,,2.35000000e-009,-2.66562519e-003
,,,2.37500000e-009,-2.60000018e-003
,,,2.40000000e-009,-2.52500018e-003
,,,2.42500000e-009,-2.44296892e-003
,,,2.45000000e-009,-2.35703142e-003
,,,2.47500000e-009,-2.27031266e-003
,,,2.50000000e-009,-2.18828140e-003
,,,2.52500000e-009,-2.11406265e-003
,,,2.55000000e-009,-2.05078140e-003
,,,2.57500000e-009,-2.00000014e-003
,,,2.60000000e-009,-1.96171889e-003
,,,2.62500000e-009,-1.93281264e-003
,,,2.65000000e-009,-1.91015639e-003
,,,2.67500000e-009,-1.89218763e-003
,,,2.70000000e-009,-1.87421888e-003
,,,2.72500000e-009,-1.85468763e-003
,,,2.75000000e-009,-1.83046888e-003
,,,2.77500000e-009,-1.80000013e-003
,,,2.80000000e-009,-1.76328137e-003
,,,2.82500000e-009,-1.71796887e-003
,,,2.85000000e-009,-1.66484387e-003
,,,2.87500000e-009,-1.60781261e-003
,,,2.90000000e-009,-1.54843761e-003
,,,2.92500000e-009,-1.49218761e-003
,,,2.95000000e-009,-1.44140635e-003
,,,2.97500000e-009,-1.40000010e-003
,,,3.00000000e-009,-1.37187510e-003
,,,3.02500000e-009,-1.35390635e-003
,,,3.05000000e-009,-1.34609385e-003
,,,3.07500000e-009,-1.34687510e-003
,,,3.10000000e-009,-1.35468760e-003
,,,3.12500000e-009,-1.36875010e-003
,,,3.15000000e-009,-1.38437510e-003
,,,3.17500000e-009,-1.40000010e-003
,,,3.20000000e-009,-1.41484385e-003
,,,3.22500000e-009,-1.42031260e-003
,,,3.25000000e-009,-1.41484385e-003
,,,3.27500000e-009,-1.39687510e-003
,,,3.30000000e-009,-1.36562510e-003
,,,3.32500000e-009,-1.32109384e-003
,,,3.35000000e-009,-1.26484384e-003
,,,3.37500000e-009,-1.20000008e-003
,,,3.40000000e-009,-1.13281258e-003
,,,3.42500000e-009,-1.06328133e-003
,,,3.45000000e-009,-9.94531320e-004
,,,3.47500000e-009,-9.30468816e-004
,,,3.50000000e-009,-8.76562562e-004
,,,3.52500000e-009,-8.35156309e-004
,,,3.55000000e-009,-8.08593807e-004
,,,3.57500000e-009,-8.00000057e-004
,,,3.60000000e-009,-8.10937557e-004
,,,3.62500000e-009,-8.35156309e-004
,,,3.65000000e-009,-8.67187561e-004
,,,3.67500000e-009,-9.03125064e-004
,,,3.70000000e-009,-9.38281316e-004
,,,3.72500000e-009,-9.68750069e-004
,,,3.75000000e-009,-9.89843820e-004
,,,3.77500000e-009,-1.00000007e-003
,,,3.80000000e-009,-9.98437571e-004
,,,3.82500000e-009,-9.83593820e-004
,,,3.85000000e-009,-9.57812568e-004
,,,3.87500000e-009,-9.23437565e-004
,,,3.90000000e-009,-8.86718813e-004
,,,3.92500000e-009,-8.50000060e-004
,,,3.95000000e-009,-8.20312558e-004
,,,3.97500000e-009,-8.00000057e-004
,,,4.00000000e-009,-7.92968806e-004
,,,4.02500000e-009,-7.98437557e-004
,,,4.05000000e-009,-8.15625058e-004
,,,4.07500000e-009,-8.42968810e-004
,,,4.10000000e-009,-8.78906312e-004
,,,4.12500000e-009,-9.18750065e-004
,,,4.15000000e-009,-9.60156318e-004
,,,4.17500000e-009,-1.00000007e-003
,,,4.20000000e-009,-1.03359382e-003
,,,4.22500000e-009,-1.05937507e-003
,,,4.25000000e-009,-1.07421883e-003
,,,4.27500000e-009,-1.07812508e-003
,,,4.30000000e-009,-1.07109383e-003
,,,4.32500000e-009,-1.05468757e-003
,,,4.35000000e-009,-1.03046882e-003
,,,4.37500000e-009,-1.00000007e-003
,,,4.40000000e-009,-9.64062568e-004
,,,4.42500000e-009,-9.27343816e-004
,,,4.45000000e-009,-8.92187563e-004
,,,4.47500000e-009,-8.60156311e-004
,,,4.50000000e-009,-8.34375059e-004
,,,4.52500000e-009,-8.14843808e-004
,,,4.55000000e-009,-8.03125057e-004
,,,4.57500000e-009,-8.00000057e-004
,,,4.60000000e-009,-8.01562557e-004
,,,4.62500000e-009,-8.07812557e-004
,,,4.65000000e-009,-8.15625058e-004
,,,4.67500000e-009,-8.23437558e-004
,,,4.70000000e-009,-8.28125059e-004
,,,4.72500000e-009,-8.25781308e-004
,,,4.75000000e-009,-8.17187558e-004
,,,4.77500000e-009,-8.00000057e-004
,,,4.80000000e-009,-7.74218805e-004
,,,4.82500000e-009,-7.42968803e-004
,,,4.85000000e-009,-7.07812550e-004
,,,4.87500000e-009,-6.72656298e-004
,,,4.90000000e-009,-6.40625045e-004
,,,4.92500000e-009,-6.16406294e-004
,,,4.95000000e-009,-6.02343793e-004
,,,4.97500000e-009,-6.00000042e-004
,,,5.00000000e-009,-6.08593793e-004
,,,5.02500000e-009,-6.27343794e-004
,,,5.05000000e-009,-6.55468796e-004
,,,5.07500000e-009,-6.88281299e-004
,,,5.10000000e-009,-7.23437551e-004
,,,5.12500000e-009,-7.55468803e-004
,,,5.15000000e-009,-7.82031305e-004
,,,5.17500000e-009,-8.00000057e-004
,,,5.20000000e-009,-8.06250057e-004
,,,5.22500000e-009,-8.00000057e-004
,,,5.25000000e-009,-7.82031305e-004
,,,5.27500000e-009,-7.53906303e-004
,,,5.30000000e-009,-7.18750051e-004
,,,5.32500000e-009,-6.78906298e-004
,,,5.35000000e-009,-6.38281295e-004
,,,5.37500000e-009,-6.00000042e-004
,,,5.40000000e-009,-5.67187540e-004
,,,5.42500000e-009,-5.42968788e-004
,,,5.45000000e-009,-5.28125037e-004
,,,5.47500000e-009,-5.23437537e-004
,,,5.50000000e-009,-5.29687537e-004
,,,5.52500000e-009,-5.45312539e-004
,,,5.55000000e-009,-5.69531290e-004
,,,5.57500000e-009,-6.00000042e-004
,,,5.60000000e-009,-6.31250045e-004
,,,5.62500000e-009,-6.60156297e-004
,,,5.65000000e-009,-6.82812548e-004
,,,5.67500000e-009,-6.95312549e-004
,,,5.70000000e-009,-6.94531299e-004
,,,5.72500000e-009,-6.78906298e-004
,,,5.75000000e-009,-6.46875046e-004
,,,5.77500000e-009,-6.00000042e-004
,,,5.80000000e-009,-5.40625038e-004
,,,5.82500000e-009,-4.73437534e-004
,,,5.85000000e-009,-4.03125029e-004
,,,5.87500000e-009,-3.35937524e-004
,,,5.90000000e-009,-2.76562520e-004
