RawData/DifferentLengths/L4/L4_12pt5foot_5mV/wave003_Ch3.csv

"Record Length",1000,"Points",-7.72500000e-009,-9.14063962e-005
"Sample Interval",2.50000000e-011,s,-7.70000000e-009,-9.76563966e-005
"Trigger Point",309,"Samples",-7.67500000e-009,-1.00000147e-004
"Trigger Time",1.55740541e-011,s,-7.65000000e-009,-9.84376467e-005
"",,,-7.62500000e-009,-9.53126464e-005
"Horizontal Offset",-7.72500000e-009,s,-7.60000000e-009,-9.29688963e-005
,,,-7.57500000e-009,-9.06251461e-005
,,,-7.55000000e-009,-9.06251461e-005
,,,-7.52500000e-009,-9.14063962e-005
,,,-7.50000000e-009,-9.45313964e-005
,,,-7.47500000e-009,-1.00000147e-004
,,,-7.45000000e-009,-1.05468897e-004
,,,-7.42500000e-009,-1.11718898e-004
,,,-7.40000000e-009,-1.17187648e-004
,,,-7.37500000e-009,-1.21875148e-004
,,,-7.35000000e-009,-1.22656398e-004
,,,-7.32500000e-009,-1.20312648e-004
,,,-7.30000000e-009,-1.12500148e-004
,,,-7.27500000e-009,-1.00000147e-004
,,,-7.25000000e-009,-8.28126456e-005
,,,-7.22500000e-009,-6.09376440e-005
,,,-7.20000000e-009,-3.59376422e-005
,,,-7.17500000e-009,-8.59389031e-006
,,,-7.15000000e-009,2.03123617e-005
,,,-7.12500000e-009,4.92186138e-005
,,,-7.10000000e-009,7.65623657e-005
,,,-7.07500000e-009,9.99998674e-005
,,,-7.05000000e-009,1.17968619e-004
,,,-7.02500000e-009,1.29687369e-004
,,,-7.00000000e-009,1.35156120e-004
,,,-6.97500000e-009,1.35937370e-004
,,,-6.95000000e-009,1.32031120e-004
,,,-6.92500000e-009,1.24218619e-004
,,,-6.90000000e-009,1.13281118e-004
,,,-6.87500000e-009,9.99998674e-005
,,,-6.85000000e-009,8.28123662e-005
,,,-6.82500000e-009,6.24998647e-005
,,,-6.80000000e-009,4.06248632e-005
,,,-6.77500000e-009,1.64061115e-005
,,,-6.75000000e-009,-9.37514036e-006
,,,-6.72500000e-009,-3.75001424e-005
,,,-6.70000000e-009,-6.79688945e-005
,,,-6.67500000e-009,-1.00000147e-004
,,,-6.65000000e-009,-1.33593899e-004
,,,-6.62500000e-009,-1.66406401e-004
,,,-6.60000000e-009,-1.98437654e-004
,,,-6.57500000e-009,-2.28125156e-004
,,,-6.55000000e-009,-2.53125158e-004
,,,-6.52500000e-009,-2.74218909e-004
,,,-6.50000000e-009,-2.89843910e-004
,,,-6.47500000e-009,-3.00000161e-004
,,,-6.45000000e-009,-3.04687661e-004
,,,-6.42500000e-009,-3.04687661e-004
,,,-6.40000000e-009,-3.02343911e-004
,,,-6.37500000e-009,-2.98437661e-004
,,,-6.35000000e-009,-2.94531411e-004
,,,-6.32500000e-009,-2.92968910e-004
,,,-6.30000000e-009,-2.93750160e-004
,,,-6.27500000e-009,-3.00000161e-004
,,,-6.25000000e-009,-3.11718912e-004
,,,-6.22500000e-009,-3.28906413e-004
,,,-6.20000000e-009,-3.51562665e-004
,,,-6.17500000e-009,-3.78906417e-004
,,,-6.15000000e-009,-4.09375169e-004
,,,-6.12500000e-009,-4.40625171e-004
,,,-6.10000000e-009,-4.71093923e-004
,,,-6.07500000e-009,-5.00000175e-004
,,,-6.05000000e-009,-5.21093927e-004
,,,-6.02500000e-009,-5.38281428e-004
,,,-6.00000000e-009,-5.48437679e-004
,,,-5.97500000e-009,-5.52343929e-004
,,,-5.95000000e-009,-5.49218929e-004
,,,-5.92500000e-009,-5.39062678e-004
,,,-5.90000000e-009,-5.22656427e-004
,,,-5.87500000e-009,-5.00000175e-004
,,,-5.85000000e-009,-4.68750173e-004
,,,-5.82500000e-009,-4.36718921e-004
,,,-5.80000000e-009,-4.03906418e-004
,,,-5.77500000e-009,-3.73437666e-004
,,,-5.75000000e-009,-3.46093914e-004
,,,-5.72500000e-009,-3.23437663e-004
,,,-5.70000000e-009,-3.07812661e-004
,,,-5.67500000e-009,-3.00000161e-004
,,,-5.65000000e-009,-2.99218911e-004
,,,-5.62500000e-009,-3.07031411e-004
,,,-5.60000000e-009,-3.23437663e-004
,,,-5.57500000e-009,-3.48437664e-004
,,,-5.55000000e-009,-3.79687667e-004
,,,-5.52500000e-009,-4.16406419e-004
,,,-5.50000000e-009,-4.57031422e-004
,,,-5.47500000e-009,-5.00000175e-004
,,,-5.45000000e-009,-5.39062678e-004
,,,-5.42500000e-009,-5.77343931e-004
,,,-5.40000000e-009,-6.10937683e-004
,,,-5.37500000e-009,-6.40625185e-004
,,,-5.35000000e-009,-6.64843937e-004
,,,-5.32500000e-009,-6.82812688e-004
,,,-5.30000000e-009,-6.94531439e-004
,,,-5.27500000e-009,-7.00000189e-004
,,,-5.25000000e-009,-6.92187689e-004
,,,-5.22500000e-009,-6.78125188e-004
,,,-5.20000000e-009,-6.57031436e-004
,,,-5.17500000e-009,-6.32031434e-004
,,,-5.15000000e-009,-6.02343932e-004
,,,-5.12500000e-009,-5.69531430e-004
,,,-5.10000000e-009,-5.35156428e-004
,,,-5.07500000e-009,-5.00000175e-004
,,,-5.05000000e-009,-4.61718922e-004
,,,-5.02500000e-009,-4.25781420e-004
,,,-5.00000000e-009,-3.92968918e-004
,,,-4.97500000e-009,-3.63281415e-004
,,,-4.95000000e-009,-3.39062664e-004
,,,-4.92500000e-009,-3.20312662e-004
,,,-4.90000000e-009,-3.07031411e-004
,,,-4.87500000e-009,-3.00000161e-004
,,,-4.85000000e-009,-2.96875161e-004
,,,-4.82500000e-009,-2.97656411e-004
,,,-4.80000000e-009,-3.00000161e-004
,,,-4.77500000e-009,-3.03906411e-004
,,,-4.75000000e-009,-3.07031411e-004
,,,-4.72500000e-009,-3.07812661e-004
,,,-4.70000000e-009,-3.06250161e-004
,,,-4.67500000e-009,-3.00000161e-004
,,,-4.65000000e-009,-2.86718910e-004
,,,-4.62500000e-009,-2.68750159e-004
,,,-4.60000000e-009,-2.46093907e-004
,,,-4.57500000e-009,-2.20312655e-004
,,,-4.55000000e-009,-1.91406403e-004
,,,-4.52500000e-009,-1.60937651e-004
,,,-4.50000000e-009,-1.30468899e-004
,,,-4.47500000e-009,-1.00000147e-004
,,,-4.45000000e-009,-7.26563948e-005
,,,-4.42500000e-009,-4.68751430e-005
,,,-4.40000000e-009,-2.18751412e-005
,,,-4.37500000e-009,2.34361047e-006
,,,-4.35000000e-009,2.65623622e-005
,,,-4.32500000e-009,5.07811139e-005
,,,-4.30000000e-009,7.57811157e-005
,,,-4.27500000e-009,9.99998674e-005
,,,-4.25000000e-009,1.17968619e-004
,,,-4.22500000e-009,1.32812370e-004
,,,-4.20000000e-009,1.43749870e-004
,,,-4.17500000e-009,1.49999871e-004
,,,-4.15000000e-009,1.49218621e-004
,,,-4.12500000e-009,1.41406120e-004
,,,-4.10000000e-009,1.24999869e-004
,,,-4.07500000e-009,9.99998674e-005
,,,-4.05000000e-009,6.32811148e-005
,,,-4.02500000e-009,2.26561119e-005
,,,-4.00000000e-009,-1.79688910e-005
,,,-3.97500000e-009,-5.46876436e-005
,,,-3.95000000e-009,-8.35938956e-005
,,,-3.92500000e-009,-1.02343897e-004
,,,-3.90000000e-009,-1.07812647e-004
,,,-3.87500000e-009,-1.00000147e-004
,,,-3.85000000e-009,-8.12501454e-005
,,,-3.82500000e-009,-5.23438934e-005
,,,-3.80000000e-009,-1.71876409e-005
,,,-3.77500000e-009,2.10936118e-005
,,,-3.75000000e-009,5.54686142e-005
,,,-3.72500000e-009,8.35936162e-005
,,,-3.70000000e-009,9.92186173e-005
,,,-3.67500000e-009,9.99998674e-005
,,,-3.65000000e-009,7.96873659e-005
,,,-3.62500000e-009,4.37498634e-005
,,,-3.60000000e-009,-4.68764003e-006
,,,-3.57500000e-009,-6.32813942e-005
,,,-3.55000000e-009,-1.25781399e-004
,,,-3.52500000e-009,-1.89062653e-004
,,,-3.50000000e-009,-2.47656407e-004
,,,-3.47500000e-009,-3.00000161e-004
,,,-3.45000000e-009,-3.41406414e-004
,,,-3.42500000e-009,-3.73437666e-004
,,,-3.40000000e-009,-3.97656418e-004
,,,-3.37500000e-009,-4.16406419e-004
,,,-3.35000000e-009,-4.33593920e-004
,,,-3.32500000e-009,-4.50781422e-004
,,,-3.30000000e-009,-4.72656423e-004
,,,-3.27500000e-009,-5.00000175e-004
,,,-3.25000000e-009,-5.29687677e-004
,,,-3.22500000e-009,-5.65625180e-004
,,,-3.20000000e-009,-6.03125182e-004
,,,-3.17500000e-009,-6.39843935e-004
,,,-3.15000000e-009,-6.71093937e-004
,,,-3.12500000e-009,-6.92968939e-004
,,,-3.10000000e-009,-7.03125189e-004
,,,-3.07500000e-009,-7.00000189e-004
,,,-3.05000000e-009,-6.77343938e-004
,,,-3.02500000e-009,-6.45312685e-004
,,,-3.00000000e-009,-6.07031433e-004
,,,-2.97500000e-009,-5.67968930e-004
,,,-2.95000000e-009,-5.32812677e-004
,,,-2.92500000e-009,-5.07812676e-004
,,,-2.90000000e-009,-4.96093925e-004
,,,-2.87500000e-009,-5.00000175e-004
,,,-2.85000000e-009,-5.17187676e-004
,,,-2.82500000e-009,-5.47656428e-004
,,,-2.80000000e-009,-5.86718931e-004
,,,-2.77500000e-009,-6.28906434e-004
,,,-2.75000000e-009,-6.66406437e-004
,,,-2.72500000e-009,-6.94531439e-004
,,,-2.70000000e-009,-7.06250190e-004
,,,-2.67500000e-009,-7.00000189e-004
,,,-2.65000000e-009,-6.68750187e-004
,,,-2.62500000e-009,-6.21875184e-004
,,,-2.60000000e-009,-5.61718929e-004
,,,-2.57500000e-009,-4.96093925e-004
,,,-2.55000000e-009,-4.30468920e-004
,,,-2.52500000e-009,-3.72656416e-004
,,,-2.50000000e-009,-3.27343913e-004
,,,-2.47500000e-009,-3.00000161e-004
,,,-2.45000000e-009,-2.90625160e-004
,,,-2.42500000e-009,-3.00000161e-004
,,,-2.40000000e-009,-3.25000163e-004
,,,-2.37500000e-009,-3.60937665e-004
,,,-2.35000000e-009,-4.03125168e-004
,,,-2.32500000e-009,-4.43750171e-004
,,,-2.30000000e-009,-4.77343923e-004
,,,-2.27500000e-009,-5.00000175e-004
,,,-2.25000000e-009,-5.06250176e-004
,,,-2.22500000e-009,-4.98437675e-004
,,,-2.20000000e-009,-4.75781423e-004
,,,-2.17500000e-009,-4.42968921e-004
,,,-2.15000000e-009,-4.03906418e-004
,,,-2.12500000e-009,-3.64062665e-004
,,,-2.10000000e-009,-3.27343913e-004
,,,-2.07500000e-009,-3.00000161e-004
,,,-2.05000000e-009,-2.84375160e-004
,,,-2.02500000e-009,-2.82812660e-004
,,,-2.00000000e-009,-2.94531411e-004
,,,-1.97500000e-009,-3.20312662e-004
,,,-1.95000000e-009,-3.56250165e-004
,,,-1.92500000e-009,-4.00781418e-004
,,,-1.90000000e-009,-4.50000172e-004
,,,-1.87500000e-009,-5.00000175e-004
,,,-1.85000000e-009,-5.43750178e-004
,,,-1.82500000e-009,-5.79687681e-004
,,,-1.80000000e-009,-6.03906432e-004
,,,-1.77500000e-009,-6.14062683e-004
,,,-1.75000000e-009,-6.08593933e-004
,,,-1.72500000e-009,-5.86718931e-004
,,,-1.70000000e-009,-5.50000179e-004
,,,-1.67500000e-009,-5.00000175e-004
,,,-1.65000000e-009,-4.41406421e-004
,,,-1.62500000e-009,-3.78125166e-004
,,,-1.60000000e-009,-3.12500162e-004
,,,-1.57500000e-009,-2.50000157e-004
,,,-1.55000000e-009,-1.94531403e-004
,,,-1.52500000e-009,-1.49218900e-004
,,,-1.50000000e-009,-1.16406398e-004
,,,-1.47500000e-009,-1.00000147e-004
,,,-1.45000000e-009,-1.07812647e-004
,,,-1.42500000e-009,-1.31250149e-004
,,,-1.40000000e-009,-1.64843901e-004
,,,-1.37500000e-009,-2.03125154e-004
,,,-1.35000000e-009,-2.40625157e-004
,,,-1.32500000e-009,-2.72656409e-004
,,,-1.30000000e-009,-2.92968910e-004
,,,-1.27500000e-009,-3.00000161e-004
,,,-1.25000000e-009,-3.06250161e-004
,,,-1.22500000e-009,-2.99218911e-004
,,,-1.20000000e-009,-2.80468910e-004
,,,-1.17500000e-009,-2.51562658e-004
,,,-1.15000000e-009,-2.14843905e-004
,,,-1.12500000e-009,-1.75000152e-004
,,,-1.10000000e-009,-1.35156399e-004
,,,-1.07500000e-009,-1.00000147e-004
,,,-1.05000000e-009,-9.53126464e-005
,,,-1.02500000e-009,-1.03906397e-004
,,,-1.00000000e-009,-1.25000149e-004
,,,-9.75000000e-010,-1.53906401e-004
,,,-9.50000000e-010,-1.89062653e-004
,,,-9.25000000e-010,-2.26562656e-004
,,,-9.00000000e-010,-2.63281408e-004
,,,-8.75000000e-010,-3.00000161e-004
,,,-8.50000000e-010,-3.60156415e-004
,,,-8.25000000e-010,-4.23437670e-004
,,,-8.00000000e-010,-4.89843924e-004
,,,-7.75000000e-010,-5.59375179e-004
,,,-7.50000000e-010,-6.33593935e-004
,,,-7.25000000e-010,-7.14062690e-004
,,,-7.00000000e-010,-8.02343946e-004
,,,-6.75000000e-010,-9.00000203e-004
,,,-6.50000000e-010,-1.02734396e-003
,,,-6.25000000e-010,-1.16796897e-003
,,,-6.00000000e-010,-1.31875023e-003
,,,-5.75000000e-010,-1.47578149e-003
,,,-5.50000000e-010,-1.63515651e-003
,,,-5.25000000e-010,-1.79375027e-003
,,,-5.00000000e-010,-1.94921903e-003
,,,-4.75000000e-010,-2.10000029e-003
,,,-4.50000000e-010,-2.24921905e-003
,,,-4.25000000e-010,-2.39531281e-003
,,,-4.00000000e-010,-2.54062532e-003
,,,-3.75000000e-010,-2.68515658e-003
,,,-3.50000000e-010,-2.83203159e-003
,,,-3.25000000e-010,-2.98203160e-003
,,,-3.00000000e-010,-3.13750036e-003
,,,-2.75000000e-010,-3.30000037e-003
,,,-2.50000000e-010,-3.45781288e-003
,,,-2.25000000e-010,-3.62343790e-003
,,,-2.00000000e-010,-3.79687541e-003
,,,-1.75000000e-010,-3.97656292e-003
,,,-1.50000000e-010,-4.16015668e-003
,,,-1.25000000e-010,-4.34453170e-003
,,,-1.00000000e-010,-4.52500046e-003
,,,-7.50000000e-011,-4.70000047e-003
,,,-5.00000000e-011,-4.83593798e-003
,,,-2.50000000e-011,-4.96093799e-003
,,,0.00000000e+000,-5.07656300e-003
,,,2.50000000e-011,-5.18203176e-003
,,,5.00000000e-011,-5.27734426e-003
,,,7.50000000e-011,-5.36250052e-003
,,,1.00000000e-010,-5.43671927e-003
,,,1.25000000e-010,-5.50000053e-003
,,,1.50000000e-010,-5.51406303e-003
,,,1.75000000e-010,-5.52109428e-003
,,,2.00000000e-010,-5.52343803e-003
,,,2.25000000e-010,-5.52265678e-003
,,,2.50000000e-010,-5.52109428e-003
,,,2.75000000e-010,-5.51718803e-003
,,,3.00000000e-010,-5.51093803e-003
,,,3.25000000e-010,-5.50000053e-003
,,,3.50000000e-010,-5.44453178e-003
,,,3.75000000e-010,-5.38437552e-003
,,,4.00000000e-010,-5.32031302e-003
,,,4.25000000e-010,-5.25078176e-003
,,,4.50000000e-010,-5.17500051e-003
,,,4.75000000e-010,-5.09218800e-003
,,,5.00000000e-010,-5.00156299e-003
,,,5.25000000e-010,-4.90000049e-003
,,,5.50000000e-010,-4.75703173e-003
,,,5.75000000e-010,-4.60703172e-003
,,,6.00000000e-010,-4.45156295e-003
,,,6.25000000e-010,-4.29531294e-003
,,,6.50000000e-010,-4.13906293e-003
,,,6.75000000e-010,-3.98671917e-003
,,,7.00000000e-010,-3.83984416e-003
,,,7.25000000e-010,-3.70000040e-003
,,,7.50000000e-010,-3.55234414e-003
,,,7.75000000e-010,-3.41250038e-003
,,,8.00000000e-010,-3.27968787e-003
,,,8.25000000e-010,-3.15468786e-003
,,,8.50000000e-010,-3.03515660e-003
,,,8.75000000e-010,-2.92031285e-003
,,,9.00000000e-010,-2.80859409e-003
,,,9.25000000e-010,-2.70000033e-003
,,,9.50000000e-010,-2.59296907e-003
,,,9.75000000e-010,-2.48593782e-003
,,,1.00000000e-009,-2.37968781e-003
,,,1.02500000e-009,-2.27421905e-003
,,,1.05000000e-009,-2.17265654e-003
,,,1.07500000e-009,-2.07500029e-003
,,,1.10000000e-009,-1.98359403e-003
,,,1.12500000e-009,-1.90000027e-003
,,,1.15000000e-009,-1.83203152e-003
,,,1.17500000e-009,-1.76562526e-003
,,,1.20000000e-009,-1.69843776e-003
,,,1.22500000e-009,-1.62812525e-003
,,,1.25000000e-009,-1.55390650e-003
,,,1.27500000e-009,-1.47421899e-003
,,,1.30000000e-009,-1.38984399e-003
,,,1.32500000e-009,-1.30000023e-003
,,,1.35000000e-009,-1.22187523e-003
,,,1.37500000e-009,-1.13828147e-003
,,,1.40000000e-009,-1.05078146e-003
,,,1.42500000e-009,-9.63281458e-004
,,,1.45000000e-009,-8.80468952e-004
,,,1.47500000e-009,-8.06250197e-004
,,,1.50000000e-009,-7.44531442e-004
,,,1.52500000e-009,-7.00000189e-004
,,,1.55000000e-009,-6.89843939e-004
,,,1.57500000e-009,-6.94531439e-004
,,,1.60000000e-009,-7.10156440e-004
,,,1.62500000e-009,-7.36718942e-004
,,,1.65000000e-009,-7.71093944e-004
,,,1.67500000e-009,-8.11718947e-004
,,,1.70000000e-009,-8.54687700e-004
,,,1.72500000e-009,-9.00000203e-004
,,,1.75000000e-009,-9.53125207e-004
,,,1.77500000e-009,-1.00000021e-003
,,,1.80000000e-009,-1.03671896e-003
,,,1.82500000e-009,-1.06484397e-003
,,,1.85000000e-009,-1.08359397e-003
,,,1.87500000e-009,-1.09453147e-003
,,,1.90000000e-009,-1.09921897e-003
,,,1.92500000e-009,-1.10000022e-003
,,,1.95000000e-009,-1.10078147e-003
,,,1.97500000e-009,-1.09843772e-003
,,,2.00000000e-009,-1.09375022e-003
,,,2.02500000e-009,-1.08984397e-003
,,,2.05000000e-009,-1.08750022e-003
,,,2.07500000e-009,-1.08828147e-003
,,,2.10000000e-009,-1.09218772e-003
,,,2.12500000e-009,-1.10000022e-003
,,,2.15000000e-009,-1.11015647e-003
,,,2.17500000e-009,-1.12031272e-003
,,,2.20000000e-009,-1.12890647e-003
,,,2.22500000e-009,-1.13437522e-003
,,,2.25000000e-009,-1.13515647e-003
,,,2.27500000e-009,-1.12968772e-003
,,,2.30000000e-009,-1.11796897e-003
,,,2.32500000e-009,-1.10000022e-003
,,,2.35000000e-009,-1.07265647e-003
,,,2.37500000e-009,-1.04062521e-003
,,,2.40000000e-009,-1.00625021e-003
,,,2.42500000e-009,-9.72656459e-004
,,,2.45000000e-009,-9.43750206e-004
,,,2.47500000e-009,-9.20312705e-004
,,,2.50000000e-009,-9.05468954e-004
,,,2.52500000e-009,-9.00000203e-004
,,,2.55000000e-009,-8.98437703e-004
,,,2.57500000e-009,-9.04687704e-004
,,,2.60000000e-009,-9.14062704e-004
,,,2.62500000e-009,-9.24218955e-004
,,,2.65000000e-009,-9.31250206e-004
,,,2.67500000e-009,-9.31250206e-004
,,,2.70000000e-009,-9.21093955e-004
,,,2.72500000e-009,-9.00000203e-004
,,,2.75000000e-009,-8.64062701e-004
,,,2.77500000e-009,-8.17187698e-004
,,,2.80000000e-009,-7.62500194e-004
,,,2.82500000e-009,-7.03125189e-004
,,,2.85000000e-009,-6.42968935e-004
,,,2.87500000e-009,-5.86718931e-004
,,,2.90000000e-009,-5.38281428e-004
,,,2.92500000e-009,-5.00000175e-004
,,,2.95000000e-009,-4.75000173e-004
,,,2.97500000e-009,-4.61718922e-004
,,,3.00000000e-009,-4.58593922e-004
,,,3.02500000e-009,-4.64062673e-004
,,,3.05000000e-009,-4.73437673e-004
,,,3.07500000e-009,-4.85156424e-004
,,,3.10000000e-009,-4.94531425e-004
,,,3.12500000e-009,-5.00000175e-004
,,,3.15000000e-009,-4.99218925e-004
,,,3.17500000e-009,-4.89062674e-004
,,,3.20000000e-009,-4.70312673e-004
,,,3.22500000e-009,-4.42968921e-004
,,,3.25000000e-009,-4.10156419e-004
,,,3.27500000e-009,-3.73437666e-004
,,,3.30000000e-009,-3.35156413e-004
,,,3.32500000e-009,-3.00000161e-004
,,,3.35000000e-009,-2.69531409e-004
,,,3.37500000e-009,-2.46093907e-004
,,,3.40000000e-009,-2.30468906e-004
,,,3.42500000e-009,-2.24218906e-004
,,,3.45000000e-009,-2.28906406e-004
,,,3.47500000e-009,-2.42968907e-004
,,,3.50000000e-009,-2.67187659e-004
,,,3.52500000e-009,-3.00000161e-004
,,,3.55000000e-009,-3.38281414e-004
,,,3.57500000e-009,-3.78125166e-004
,,,3.60000000e-009,-4.16406419e-004
,,,3.62500000e-009,-4.50781422e-004
,,,3.65000000e-009,-4.78125174e-004
,,,3.67500000e-009,-4.96093925e-004
,,,3.70000000e-009,-5.03125175e-004
,,,3.72500000e-009,-5.00000175e-004
,,,3.75000000e-009,-4.84375174e-004
,,,3.77500000e-009,-4.60156422e-004
,,,3.80000000e-009,-4.28906420e-004
,,,3.82500000e-009,-3.95312668e-004
,,,3.85000000e-009,-3.62500165e-004
,,,3.87500000e-009,-3.33593913e-004
,,,3.90000000e-009,-3.12500162e-004
,,,3.92500000e-009,-3.00000161e-004
,,,3.95000000e-009,-2.96875161e-004
,,,3.97500000e-009,-3.01562661e-004
,,,4.00000000e-009,-3.10937662e-004
,,,4.02500000e-009,-3.21875162e-004
,,,4.05000000e-009,-3.29687663e-004
,,,4.07500000e-009,-3.30468913e-004
,,,4.10000000e-009,-3.21093912e-004
,,,4.12500000e-009,-3.00000161e-004
,,,4.15000000e-009,-2.64843908e-004
,,,4.17500000e-009,-2.18750155e-004
,,,4.20000000e-009,-1.64062651e-004
,,,4.22500000e-009,-1.03906397e-004
,,,4.25000000e-009,-4.29688927e-005
,,,4.27500000e-009,1.32811112e-005
,,,4.30000000e-009,6.24998647e-005
,,,4.32500000e-009,9.99998674e-005
,,,4.35000000e-009,1.23437369e-004
,,,4.37500000e-009,1.33593620e-004
,,,4.40000000e-009,1.34374870e-004
,,,4.42500000e-009,1.27343619e-004
,,,4.45000000e-009,1.17187369e-004
,,,4.47500000e-009,1.07812368e-004
,,,4.50000000e-009,1.01562367e-004
,,,4.52500000e-009,9.99998674e-005
,,,4.55000000e-009,1.03124868e-004
,,,4.57500000e-009,1.10937368e-004
,,,4.60000000e-009,1.21874869e-004
,,,4.62500000e-009,1.32812370e-004
,,,4.65000000e-009,1.39062370e-004
,,,4.67500000e-009,1.38281120e-004
,,,4.70000000e-009,1.25781119e-004
,,,4.72500000e-009,9.99998674e-005
,,,4.75000000e-009,5.93748645e-005
,,,4.77500000e-009,8.59361091e-006
,,,4.80000000e-009,-5.00001432e-005
,,,4.82500000e-009,-1.11718898e-004
,,,4.85000000e-009,-1.71875152e-004
,,,4.87500000e-009,-2.25781406e-004
,,,4.90000000e-009,-2.69531409e-004
,,,4.92500000e-009,-3.00000161e-004
,,,4.95000000e-009,-3.11718912e-004
,,,4.97500000e-009,-3.07812661e-004
,,,5.00000000e-009,-2.89062660e-004
,,,5.02500000e-009,-2.58593908e-004
,,,5.05000000e-009,-2.20312655e-004
,,,5.07500000e-009,-1.78125152e-004
,,,5.10000000e-009,-1.36718899e-004
,,,5.12500000e-009,-1.00000147e-004
,,,5.15000000e-009,-7.10938947e-005
,,,5.17500000e-009,-5.23438934e-005
,,,5.20000000e-009,-4.29688927e-005
,,,5.22500000e-009,-4.29688927e-005
,,,5.25000000e-009,-5.07813933e-005
,,,5.27500000e-009,-6.48438943e-005
,,,5.30000000e-009,-8.12501454e-005
,,,5.32500000e-009,-1.00000147e-004
,,,5.35000000e-009,-1.15625148e-004
,,,5.37500000e-009,-1.28125149e-004
,,,5.40000000e-009,-1.36718899e-004
,,,5.42500000e-009,-1.39843900e-004
,,,5.45000000e-009,-1.37500149e-004
,,,5.47500000e-009,-1.29687649e-004
,,,5.50000000e-009,-1.17187648e-004
,,,5.52500000e-009,-1.00000147e-004
,,,5.55000000e-009,-7.81251452e-005
,,,5.57500000e-009,-5.31251435e-005
,,,5.60000000e-009,-2.73438916e-005
,,,5.62500000e-009,-7.81389754e-007
,,,5.65000000e-009,2.65623622e-005
,,,5.67500000e-009,5.23436140e-005
,,,5.70000000e-009,7.73436158e-005
,,,5.72500000e-009,9.99998674e-005
,,,5.75000000e-009,1.17968619e-004
,,,5.77500000e-009,1.30468620e-004
,,,5.80000000e-009,1.38281120e-004
,,,5.82500000e-009,1.41406120e-004
,,,5.85000000e-009,1.38281120e-004
