RawData/WithScintilator/R7_2pt2B_15mV/wave002_Ch2.csv

"Record Length",1000,"Points",-7.72500000e-009,-4.92186604e-004
"Sample Interval",2.50000000e-011,s,-7.70000000e-009,-4.51561601e-004
"Trigger Point",309,"Samples",-7.67500000e-009,-3.99999097e-004
"Trigger Time",1.87643182e-011,s,-7.65000000e-009,-3.40624093e-004
"",,,-7.62500000e-009,-2.81249089e-004
"Horizontal Offset",-7.72500000e-009,s,-7.60000000e-009,-2.21874084e-004
,,,-7.57500000e-009,-1.67186581e-004
,,,-7.55000000e-009,-1.17186577e-004
,,,-7.52500000e-009,-7.34365739e-005
,,,-7.50000000e-009,-3.43740711e-005
,,,-7.47500000e-009,9.31322575e-010
,,,-7.45000000e-009,2.65634332e-005
,,,-7.42500000e-009,4.68759346e-005
,,,-7.40000000e-009,5.93759355e-005
,,,-7.37500000e-009,6.25009357e-005
,,,-7.35000000e-009,5.78134354e-005
,,,-7.32500000e-009,4.37509344e-005
,,,-7.30000000e-009,2.34384330e-005
,,,-7.27500000e-009,9.31322575e-010
,,,-7.25000000e-009,-2.49990704e-005
,,,-7.22500000e-009,-4.68740720e-005
,,,-7.20000000e-009,-6.56240733e-005
,,,-7.17500000e-009,-7.65615741e-005
,,,-7.15000000e-009,-7.65615741e-005
,,,-7.12500000e-009,-6.56240733e-005
,,,-7.10000000e-009,-4.06240716e-005
,,,-7.07500000e-009,9.31322575e-010
,,,-7.05000000e-009,5.31259351e-005
,,,-7.02500000e-009,1.15625940e-004
,,,-7.00000000e-009,1.82813444e-004
,,,-6.97500000e-009,2.46875949e-004
,,,-6.95000000e-009,3.06250953e-004
,,,-6.92500000e-009,3.53125956e-004
,,,-6.90000000e-009,3.85938459e-004
,,,-6.87500000e-009,4.00000960e-004
,,,-6.85000000e-009,3.89063459e-004
,,,-6.82500000e-009,3.59375957e-004
,,,-6.80000000e-009,3.14063454e-004
,,,-6.77500000e-009,2.57813450e-004
,,,-6.75000000e-009,1.92188445e-004
,,,-6.72500000e-009,1.25000940e-004
,,,-6.70000000e-009,5.93759355e-005
,,,-6.67500000e-009,9.31322575e-010
,,,-6.65000000e-009,-5.15615723e-005
,,,-6.62500000e-009,-8.74990749e-005
,,,-6.60000000e-009,-1.07811576e-004
,,,-6.57500000e-009,-1.12499077e-004
,,,-6.55000000e-009,-1.01561576e-004
,,,-6.52500000e-009,-7.81240742e-005
,,,-6.50000000e-009,-4.37490718e-005
,,,-6.47500000e-009,9.31322575e-010
,,,-6.45000000e-009,4.84384348e-005
,,,-6.42500000e-009,1.00000938e-004
,,,-6.40000000e-009,1.54688442e-004
,,,-6.37500000e-009,2.07813446e-004
,,,-6.35000000e-009,2.59375950e-004
,,,-6.32500000e-009,3.10938453e-004
,,,-6.30000000e-009,3.56250957e-004
,,,-6.27500000e-009,4.00000960e-004
,,,-6.25000000e-009,4.29688462e-004
,,,-6.22500000e-009,4.53125963e-004
,,,-6.20000000e-009,4.67188464e-004
,,,-6.17500000e-009,4.71875965e-004
,,,-6.15000000e-009,4.68750965e-004
,,,-6.12500000e-009,4.54688464e-004
,,,-6.10000000e-009,4.31250962e-004
,,,-6.07500000e-009,4.00000960e-004
,,,-6.05000000e-009,3.53125956e-004
,,,-6.02500000e-009,3.01563453e-004
,,,-6.00000000e-009,2.46875949e-004
,,,-5.97500000e-009,1.90625945e-004
,,,-5.95000000e-009,1.35938441e-004
,,,-5.92500000e-009,8.43759373e-005
,,,-5.90000000e-009,3.75009340e-005
,,,-5.87500000e-009,9.31322575e-010
,,,-5.85000000e-009,-3.12490709e-005
,,,-5.82500000e-009,-5.15615723e-005
,,,-5.80000000e-009,-6.24990731e-005
,,,-5.77500000e-009,-6.40615732e-005
,,,-5.75000000e-009,-5.78115728e-005
,,,-5.72500000e-009,-4.37490718e-005
,,,-5.70000000e-009,-2.34365703e-005
,,,-5.67500000e-009,9.31322575e-010
,,,-5.65000000e-009,2.18759329e-005
,,,-5.62500000e-009,4.06259342e-005
,,,-5.60000000e-009,5.62509353e-005
,,,-5.57500000e-009,6.40634359e-005
,,,-5.55000000e-009,6.40634359e-005
,,,-5.52500000e-009,5.31259351e-005
,,,-5.50000000e-009,3.12509335e-005
,,,-5.47500000e-009,9.31322575e-010
,,,-5.45000000e-009,-4.37490718e-005
,,,-5.42500000e-009,-9.53115754e-005
,,,-5.40000000e-009,-1.51561579e-004
,,,-5.37500000e-009,-2.09374083e-004
,,,-5.35000000e-009,-2.65624087e-004
,,,-5.32500000e-009,-3.18749091e-004
,,,-5.30000000e-009,-3.64061594e-004
,,,-5.27500000e-009,-3.99999097e-004
,,,-5.25000000e-009,-4.21874099e-004
,,,-5.22500000e-009,-4.34374099e-004
,,,-5.20000000e-009,-4.37499100e-004
,,,-5.17500000e-009,-4.34374099e-004
,,,-5.15000000e-009,-4.28124099e-004
,,,-5.12500000e-009,-4.18749098e-004
,,,-5.10000000e-009,-4.07811598e-004
,,,-5.07500000e-009,-3.99999097e-004
,,,-5.05000000e-009,-3.90624096e-004
,,,-5.02500000e-009,-3.84374096e-004
,,,-5.00000000e-009,-3.82811596e-004
,,,-4.97500000e-009,-3.85936596e-004
,,,-4.95000000e-009,-3.89061596e-004
,,,-4.92500000e-009,-3.93749097e-004
,,,-4.90000000e-009,-3.98436597e-004
,,,-4.87500000e-009,-3.99999097e-004
,,,-4.85000000e-009,-3.98436597e-004
,,,-4.82500000e-009,-3.93749097e-004
,,,-4.80000000e-009,-3.89061596e-004
,,,-4.77500000e-009,-3.85936596e-004
,,,-4.75000000e-009,-3.82811596e-004
,,,-4.72500000e-009,-3.84374096e-004
,,,-4.70000000e-009,-3.90624096e-004
,,,-4.67500000e-009,-3.99999097e-004
,,,-4.65000000e-009,-4.12499098e-004
,,,-4.62500000e-009,-4.26561599e-004
,,,-4.60000000e-009,-4.39061600e-004
,,,-4.57500000e-009,-4.48436600e-004
,,,-4.55000000e-009,-4.51561601e-004
,,,-4.52500000e-009,-4.46874100e-004
,,,-4.50000000e-009,-4.29686599e-004
,,,-4.47500000e-009,-3.99999097e-004
,,,-4.45000000e-009,-3.59374094e-004
,,,-4.42500000e-009,-3.07811590e-004
,,,-4.40000000e-009,-2.51561586e-004
,,,-4.37500000e-009,-1.92186582e-004
,,,-4.35000000e-009,-1.34374078e-004
,,,-4.32500000e-009,-8.12490744e-005
,,,-4.30000000e-009,-3.59365712e-005
,,,-4.27500000e-009,9.31322575e-010
,,,-4.25000000e-009,1.71884325e-005
,,,-4.22500000e-009,2.50009331e-005
,,,-4.20000000e-009,2.34384330e-005
,,,-4.17500000e-009,1.56259324e-005
,,,-4.15000000e-009,7.81343188e-006
,,,-4.12500000e-009,9.31322575e-010
,,,-4.10000000e-009,-3.12406890e-006
,,,-4.07500000e-009,9.31322575e-010
,,,-4.05000000e-009,4.68843165e-006
,,,-4.02500000e-009,1.40634323e-005
,,,-4.00000000e-009,2.65634332e-005
,,,-3.97500000e-009,3.75009340e-005
,,,-3.95000000e-009,4.37509344e-005
,,,-3.92500000e-009,4.21884343e-005
,,,-3.90000000e-009,2.65634332e-005
,,,-3.87500000e-009,9.31322575e-010
,,,-3.85000000e-009,-4.53115719e-005
,,,-3.82500000e-009,-9.99990758e-005
,,,-3.80000000e-009,-1.60936580e-004
,,,-3.77500000e-009,-2.24999085e-004
,,,-3.75000000e-009,-2.84374089e-004
,,,-3.72500000e-009,-3.35936592e-004
,,,-3.70000000e-009,-3.74999095e-004
,,,-3.67500000e-009,-3.99999097e-004
,,,-3.65000000e-009,-4.10936598e-004
,,,-3.62500000e-009,-4.09374098e-004
,,,-3.60000000e-009,-3.98436597e-004
,,,-3.57500000e-009,-3.82811596e-004
,,,-3.55000000e-009,-3.71874095e-004
,,,-3.52500000e-009,-3.67186595e-004
,,,-3.50000000e-009,-3.76561595e-004
,,,-3.47500000e-009,-3.99999097e-004
,,,-3.45000000e-009,-4.40624100e-004
,,,-3.42500000e-009,-4.95311604e-004
,,,-3.40000000e-009,-5.57811608e-004
,,,-3.37500000e-009,-6.24999113e-004
,,,-3.35000000e-009,-6.87499117e-004
,,,-3.32500000e-009,-7.42186621e-004
,,,-3.30000000e-009,-7.81249124e-004
,,,-3.27500000e-009,-7.99999125e-004
,,,-3.25000000e-009,-7.92186625e-004
,,,-3.22500000e-009,-7.64061623e-004
,,,-3.20000000e-009,-7.17186619e-004
,,,-3.17500000e-009,-6.56249115e-004
,,,-3.15000000e-009,-5.89061610e-004
,,,-3.12500000e-009,-5.20311606e-004
,,,-3.10000000e-009,-4.56249101e-004
,,,-3.07500000e-009,-3.99999097e-004
,,,-3.05000000e-009,-3.54686594e-004
,,,-3.02500000e-009,-3.23436592e-004
,,,-3.00000000e-009,-3.07811590e-004
,,,-2.97500000e-009,-3.09374091e-004
,,,-2.95000000e-009,-3.21874091e-004
,,,-2.92500000e-009,-3.43749093e-004
,,,-2.90000000e-009,-3.71874095e-004
,,,-2.87500000e-009,-3.99999097e-004
,,,-2.85000000e-009,-4.24999099e-004
,,,-2.82500000e-009,-4.42186600e-004
,,,-2.80000000e-009,-4.53124101e-004
,,,-2.77500000e-009,-4.57811601e-004
,,,-2.75000000e-009,-4.51561601e-004
,,,-2.72500000e-009,-4.40624100e-004
,,,-2.70000000e-009,-4.21874099e-004
,,,-2.67500000e-009,-3.99999097e-004
,,,-2.65000000e-009,-3.76561595e-004
,,,-2.62500000e-009,-3.54686594e-004
,,,-2.60000000e-009,-3.37499093e-004
,,,-2.57500000e-009,-3.28124092e-004
,,,-2.55000000e-009,-3.29686592e-004
,,,-2.52500000e-009,-3.43749093e-004
,,,-2.50000000e-009,-3.67186595e-004
,,,-2.47500000e-009,-3.99999097e-004
,,,-2.45000000e-009,-4.39061600e-004
,,,-2.42500000e-009,-4.79686603e-004
,,,-2.40000000e-009,-5.12499105e-004
,,,-2.37500000e-009,-5.34374107e-004
,,,-2.35000000e-009,-5.37499107e-004
,,,-2.32500000e-009,-5.18749105e-004
,,,-2.30000000e-009,-4.73436602e-004
,,,-2.27500000e-009,-3.99999097e-004
,,,-2.25000000e-009,-3.04686590e-004
,,,-2.22500000e-009,-1.90624082e-004
,,,-2.20000000e-009,-6.40615732e-005
,,,-2.17500000e-009,6.25009357e-005
,,,-2.15000000e-009,1.79688444e-004
,,,-2.12500000e-009,2.81250951e-004
,,,-2.10000000e-009,3.56250957e-004
,,,-2.07500000e-009,4.00000960e-004
,,,-2.05000000e-009,4.03125960e-004
,,,-2.02500000e-009,3.75000958e-004
,,,-2.00000000e-009,3.23438454e-004
,,,-1.97500000e-009,2.54688449e-004
,,,-1.95000000e-009,1.79688444e-004
,,,-1.92500000e-009,1.07813439e-004
,,,-1.90000000e-009,4.53134345e-005
,,,-1.87500000e-009,9.31322575e-010
,,,-1.85000000e-009,-4.06240716e-005
,,,-1.82500000e-009,-6.24990731e-005
,,,-1.80000000e-009,-6.71865734e-005
,,,-1.77500000e-009,-5.78115728e-005
,,,-1.75000000e-009,-3.90615714e-005
,,,-1.72500000e-009,-2.03115701e-005
,,,-1.70000000e-009,-6.24906912e-006
,,,-1.67500000e-009,9.31322575e-010
,,,-1.65000000e-009,-3.43740711e-005
,,,-1.62500000e-009,-8.43740746e-005
,,,-1.60000000e-009,-1.45311579e-004
,,,-1.57500000e-009,-2.14061584e-004
,,,-1.55000000e-009,-2.81249089e-004
,,,-1.52500000e-009,-3.39061593e-004
,,,-1.50000000e-009,-3.81249096e-004
,,,-1.47500000e-009,-3.99999097e-004
,,,-1.45000000e-009,-4.34374099e-004
,,,-1.42500000e-009,-4.46874100e-004
,,,-1.40000000e-009,-4.32811599e-004
,,,-1.37500000e-009,-3.92186596e-004
,,,-1.35000000e-009,-3.24999092e-004
,,,-1.32500000e-009,-2.32811585e-004
,,,-1.30000000e-009,-1.21874077e-004
,,,-1.27500000e-009,9.31322575e-010
,,,-1.25000000e-009,5.78134354e-005
,,,-1.22500000e-009,9.37509380e-005
,,,-1.20000000e-009,1.00000938e-004
,,,-1.17500000e-009,7.50009366e-005
,,,-1.15000000e-009,1.25009322e-005
,,,-1.12500000e-009,-8.74990749e-005
,,,-1.10000000e-009,-2.24999085e-004
,,,-1.07500000e-009,-3.99999097e-004
,,,-1.05000000e-009,-6.74999116e-004
,,,-1.02500000e-009,-9.85936638e-004
,,,-1.00000000e-009,-1.31718666e-003
,,,-9.75000000e-010,-1.65624919e-003
,,,-9.50000000e-010,-1.98437421e-003
,,,-9.25000000e-010,-2.29062423e-003
,,,-9.00000000e-010,-2.56406175e-003
,,,-8.75000000e-010,-2.79999927e-003
,,,-8.50000000e-010,-3.05781179e-003
,,,-8.25000000e-010,-3.29531180e-003
,,,-8.00000000e-010,-3.52343682e-003
,,,-7.75000000e-010,-3.74531183e-003
,,,-7.50000000e-010,-3.97499935e-003
,,,-7.25000000e-010,-4.22031187e-003
,,,-7.00000000e-010,-4.49218689e-003
,,,-6.75000000e-010,-4.79999941e-003
,,,-6.50000000e-010,-5.18749944e-003
,,,-6.25000000e-010,-5.62812447e-003
,,,-6.00000000e-010,-6.11406200e-003
,,,-5.75000000e-010,-6.63749954e-003
,,,-5.50000000e-010,-7.18124958e-003
,,,-5.25000000e-010,-7.73281212e-003
,,,-5.00000000e-010,-8.27656215e-003
,,,-4.75000000e-010,-8.79999969e-003
,,,-4.50000000e-010,-9.29843723e-003
,,,-4.25000000e-010,-9.77187476e-003
,,,-4.00000000e-010,-1.02140623e-002
,,,-3.75000000e-010,-1.06265623e-002
,,,-3.50000000e-010,-1.10093748e-002
,,,-3.25000000e-010,-1.13640624e-002
,,,-3.00000000e-010,-1.16921874e-002
,,,-2.75000000e-010,-1.19999999e-002
,,,-2.50000000e-010,-1.22656249e-002
,,,-2.25000000e-010,-1.25375000e-002
,,,-2.00000000e-010,-1.28187500e-002
,,,-1.75000000e-010,-1.31156250e-002
,,,-1.50000000e-010,-1.34250000e-002
,,,-1.25000000e-010,-1.37453125e-002
,,,-1.00000000e-010,-1.40718751e-002
,,,-7.50000000e-011,-1.44000001e-002
,,,-5.00000000e-011,-1.46703126e-002
,,,-2.50000000e-011,-1.49421876e-002
,,,0.00000000e+000,-1.52171876e-002
,,,2.50000000e-011,-1.54875002e-002
,,,5.00000000e-011,-1.57484377e-002
,,,7.50000000e-011,-1.59906252e-002
,,,1.00000000e-010,-1.62109377e-002
,,,1.25000000e-010,-1.64000002e-002
,,,1.50000000e-010,-1.64843752e-002
,,,1.75000000e-010,-1.65484377e-002
,,,2.00000000e-010,-1.65984377e-002
,,,2.25000000e-010,-1.66406252e-002
,,,2.50000000e-010,-1.66781252e-002
,,,2.75000000e-010,-1.67171878e-002
,,,3.00000000e-010,-1.67578128e-002
,,,3.25000000e-010,-1.68000003e-002
,,,3.50000000e-010,-1.67640628e-002
,,,3.75000000e-010,-1.67375003e-002
,,,4.00000000e-010,-1.67250003e-002
,,,4.25000000e-010,-1.67281253e-002
,,,4.50000000e-010,-1.67406253e-002
,,,4.75000000e-010,-1.67625003e-002
,,,5.00000000e-010,-1.67843753e-002
,,,5.25000000e-010,-1.68000003e-002
,,,5.50000000e-010,-1.67281253e-002
,,,5.75000000e-010,-1.66453127e-002
,,,6.00000000e-010,-1.65515627e-002
,,,6.25000000e-010,-1.64500002e-002
,,,6.50000000e-010,-1.63437502e-002
,,,6.75000000e-010,-1.62343752e-002
,,,7.00000000e-010,-1.61203127e-002
,,,7.25000000e-010,-1.60000002e-002
,,,7.50000000e-010,-1.58093752e-002
,,,7.75000000e-010,-1.56109377e-002
,,,8.00000000e-010,-1.54093752e-002
,,,8.25000000e-010,-1.52062501e-002
,,,8.50000000e-010,-1.50046876e-002
,,,8.75000000e-010,-1.48046876e-002
,,,9.00000000e-010,-1.46031251e-002
,,,9.25000000e-010,-1.44000001e-002
,,,9.50000000e-010,-1.41437501e-002
,,,9.75000000e-010,-1.38750001e-002
,,,1.00000000e-009,-1.35906250e-002
,,,1.02500000e-009,-1.32937500e-002
,,,1.05000000e-009,-1.29859375e-002
,,,1.07500000e-009,-1.26656250e-002
,,,1.10000000e-009,-1.23374999e-002
,,,1.12500000e-009,-1.19999999e-002
,,,1.15000000e-009,-1.16343749e-002
,,,1.17500000e-009,-1.12593749e-002
,,,1.20000000e-009,-1.08812498e-002
,,,1.22500000e-009,-1.05093748e-002
,,,1.25000000e-009,-1.01484373e-002
,,,1.27500000e-009,-9.80781226e-003
,,,1.30000000e-009,-9.49062474e-003
,,,1.32500000e-009,-9.19999972e-003
,,,1.35000000e-009,-8.93437470e-003
,,,1.37500000e-009,-8.68124968e-003
,,,1.40000000e-009,-8.43593717e-003
,,,1.42500000e-009,-8.19374965e-003
,,,1.45000000e-009,-7.95156213e-003
,,,1.47500000e-009,-7.70624961e-003
,,,1.50000000e-009,-7.45624960e-003
,,,1.52500000e-009,-7.19999958e-003
,,,1.55000000e-009,-6.95156206e-003
,,,1.57500000e-009,-6.68593704e-003
,,,1.60000000e-009,-6.41093702e-003
,,,1.62500000e-009,-6.13281200e-003
,,,1.65000000e-009,-5.86406198e-003
,,,1.67500000e-009,-5.61406197e-003
,,,1.70000000e-009,-5.39062445e-003
,,,1.72500000e-009,-5.19999944e-003
,,,1.75000000e-009,-5.07031193e-003
,,,1.77500000e-009,-4.96093692e-003
,,,1.80000000e-009,-4.86406191e-003
,,,1.82500000e-009,-4.77656191e-003
,,,1.85000000e-009,-4.69062440e-003
,,,1.87500000e-009,-4.60156189e-003
,,,1.90000000e-009,-4.50624939e-003
,,,1.92500000e-009,-4.39999938e-003
,,,1.95000000e-009,-4.30468687e-003
,,,1.97500000e-009,-4.18281186e-003
,,,2.00000000e-009,-4.03593685e-003
,,,2.02500000e-009,-3.87187434e-003
,,,2.05000000e-009,-3.69687433e-003
,,,2.07500000e-009,-3.52031182e-003
,,,2.10000000e-009,-3.35312431e-003
,,,2.12500000e-009,-3.19999930e-003
,,,2.15000000e-009,-3.09374929e-003
,,,2.17500000e-009,-2.99374928e-003
,,,2.20000000e-009,-2.89999927e-003
,,,2.22500000e-009,-2.80781177e-003
,,,2.25000000e-009,-2.71406176e-003
,,,2.27500000e-009,-2.61718675e-003
,,,2.30000000e-009,-2.51249925e-003
,,,2.32500000e-009,-2.39999924e-003
,,,2.35000000e-009,-2.30312423e-003
,,,2.37500000e-009,-2.19374922e-003
,,,2.40000000e-009,-2.07499922e-003
,,,2.42500000e-009,-1.95468671e-003
,,,2.45000000e-009,-1.84062420e-003
,,,2.47500000e-009,-1.73906169e-003
,,,2.50000000e-009,-1.65781169e-003
,,,2.52500000e-009,-1.59999918e-003
,,,2.55000000e-009,-1.58906168e-003
,,,2.57500000e-009,-1.59218668e-003
,,,2.60000000e-009,-1.60468668e-003
,,,2.62500000e-009,-1.62187418e-003
,,,2.65000000e-009,-1.63437418e-003
,,,2.67500000e-009,-1.63906168e-003
,,,2.70000000e-009,-1.62812418e-003
,,,2.72500000e-009,-1.59999918e-003
,,,2.75000000e-009,-1.57031168e-003
,,,2.77500000e-009,-1.52031168e-003
,,,2.80000000e-009,-1.45781167e-003
,,,2.82500000e-009,-1.38749917e-003
,,,2.85000000e-009,-1.31874916e-003
,,,2.87500000e-009,-1.25937416e-003
,,,2.90000000e-009,-1.21874915e-003
,,,2.92500000e-009,-1.19999915e-003
,,,2.95000000e-009,-1.21874915e-003
,,,2.97500000e-009,-1.25624916e-003
,,,3.00000000e-009,-1.31093666e-003
,,,3.02500000e-009,-1.37499917e-003
,,,3.05000000e-009,-1.44374917e-003
,,,3.07500000e-009,-1.50781168e-003
,,,3.10000000e-009,-1.56249918e-003
,,,3.12500000e-009,-1.59999918e-003
,,,3.15000000e-009,-1.62187418e-003
,,,3.17500000e-009,-1.61718668e-003
,,,3.20000000e-009,-1.58749918e-003
,,,3.22500000e-009,-1.53437418e-003
,,,3.25000000e-009,-1.46249917e-003
,,,3.27500000e-009,-1.37812417e-003
,,,3.30000000e-009,-1.28906166e-003
,,,3.32500000e-009,-1.19999915e-003
,,,3.35000000e-009,-1.12499915e-003
,,,3.37500000e-009,-1.06562414e-003
,,,3.40000000e-009,-1.02499914e-003
,,,3.42500000e-009,-1.00937414e-003
,,,3.45000000e-009,-1.02031164e-003
,,,3.47500000e-009,-1.05624914e-003
,,,3.50000000e-009,-1.11874915e-003
,,,3.52500000e-009,-1.19999915e-003
,,,3.55000000e-009,-1.29374916e-003
,,,3.57500000e-009,-1.39218667e-003
,,,3.60000000e-009,-1.48281167e-003
,,,3.62500000e-009,-1.56093668e-003
,,,3.65000000e-009,-1.61718668e-003
,,,3.67500000e-009,-1.64531169e-003
,,,3.70000000e-009,-1.64062418e-003
,,,3.72500000e-009,-1.59999918e-003
,,,3.75000000e-009,-1.52343668e-003
,,,3.77500000e-009,-1.42031167e-003
,,,3.80000000e-009,-1.29843666e-003
,,,3.82500000e-009,-1.17031165e-003
,,,3.85000000e-009,-1.04531164e-003
,,,3.87500000e-009,-9.37499135e-004
,,,3.90000000e-009,-8.53124129e-004
,,,3.92500000e-009,-7.99999125e-004
,,,3.95000000e-009,-7.82811624e-004
,,,3.97500000e-009,-7.99999125e-004
,,,4.00000000e-009,-8.45311629e-004
,,,4.02500000e-009,-9.10936633e-004
,,,4.05000000e-009,-9.90624139e-004
,,,4.07500000e-009,-1.07187414e-003
,,,4.10000000e-009,-1.14531165e-003
,,,4.12500000e-009,-1.19999915e-003
,,,4.15000000e-009,-1.23124916e-003
,,,4.17500000e-009,-1.23281166e-003
,,,4.20000000e-009,-1.20468665e-003
,,,4.22500000e-009,-1.15312415e-003
,,,4.25000000e-009,-1.07968665e-003
,,,4.27500000e-009,-9.92186639e-004
,,,4.30000000e-009,-8.96874132e-004
,,,4.32500000e-009,-7.99999125e-004
,,,4.35000000e-009,-7.09374119e-004
,,,4.37500000e-009,-6.28124113e-004
,,,4.40000000e-009,-5.60936608e-004
,,,4.42500000e-009,-5.04686604e-004
,,,4.45000000e-009,-4.62499101e-004
,,,4.47500000e-009,-4.32811599e-004
,,,4.50000000e-009,-4.12499098e-004
,,,4.52500000e-009,-3.99999097e-004
,,,4.55000000e-009,-3.96874097e-004
,,,4.57500000e-009,-3.96874097e-004
,,,4.60000000e-009,-3.98436597e-004
,,,4.62500000e-009,-3.98436597e-004
,,,4.65000000e-009,-3.99999097e-004
,,,4.67500000e-009,-3.99999097e-004
,,,4.70000000e-009,-3.99999097e-004
,,,4.72500000e-009,-3.99999097e-004
,,,4.75000000e-009,-4.04686597e-004
,,,4.77500000e-009,-4.07811598e-004
,,,4.80000000e-009,-4.09374098e-004
,,,4.82500000e-009,-4.09374098e-004
,,,4.85000000e-009,-4.07811598e-004
,,,4.87500000e-009,-4.06249097e-004
,,,4.90000000e-009,-4.03124097e-004
,,,4.92500000e-009,-3.99999097e-004
,,,4.95000000e-009,-4.03124097e-004
,,,4.97500000e-009,-4.07811598e-004
,,,5.00000000e-009,-4.10936598e-004
,,,5.02500000e-009,-4.12499098e-004
,,,5.05000000e-009,-4.12499098e-004
,,,5.07500000e-009,-4.10936598e-004
,,,5.10000000e-009,-4.07811598e-004
,,,5.12500000e-009,-3.99999097e-004
,,,5.15000000e-009,-3.96874097e-004
,,,5.17500000e-009,-3.92186596e-004
,,,5.20000000e-009,-3.87499096e-004
,,,5.22500000e-009,-3.84374096e-004
,,,5.25000000e-009,-3.82811596e-004
,,,5.27500000e-009,-3.84374096e-004
,,,5.30000000e-009,-3.90624096e-004
,,,5.32500000e-009,-3.99999097e-004
,,,5.35000000e-009,-4.15624098e-004
,,,5.37500000e-009,-4.29686599e-004
,,,5.40000000e-009,-4.42186600e-004
,,,5.42500000e-009,-4.49999101e-004
,,,5.45000000e-009,-4.51561601e-004
,,,5.47500000e-009,-4.43749100e-004
,,,5.50000000e-009,-4.26561599e-004
,,,5.52500000e-009,-3.99999097e-004
,,,5.55000000e-009,-3.71874095e-004
,,,5.57500000e-009,-3.40624093e-004
,,,5.60000000e-009,-3.14061591e-004
,,,5.62500000e-009,-2.96874090e-004
,,,5.65000000e-009,-2.92186589e-004
,,,5.67500000e-009,-3.06249090e-004
,,,5.70000000e-009,-3.42186593e-004
,,,5.72500000e-009,-3.99999097e-004
,,,5.75000000e-009,-4.82811603e-004
,,,5.77500000e-009,-5.84374110e-004
,,,5.80000000e-009,-6.96874118e-004
,,,5.82500000e-009,-8.15624126e-004
,,,5.85000000e-009,-9.32811635e-004
,,,5.87500000e-009,-1.04062414e-003
