RawData/WithScintilator/R7_2pt2B_15mV/wave022_Ch2.csv

"Record Length",1000,"Points",-7.72500000e-009,-8.99999132e-004
"Sample Interval",2.50000000e-011,s,-7.70000000e-009,-8.48436629e-004
"Trigger Point",309,"Samples",-7.67500000e-009,-7.99999125e-004
"Trigger Time",1.41062069e-011,s,-7.65000000e-009,-7.57811622e-004
"",,,-7.62500000e-009,-7.29686620e-004
"Horizontal Offset",-7.72500000e-009,s,-7.60000000e-009,-7.17186619e-004
,,,-7.57500000e-009,-7.20311620e-004
,,,-7.55000000e-009,-7.34374121e-004
,,,-7.52500000e-009,-7.56249122e-004
,,,-7.50000000e-009,-7.79686624e-004
,,,-7.47500000e-009,-7.99999125e-004
,,,-7.45000000e-009,-8.14061626e-004
,,,-7.42500000e-009,-8.20311627e-004
,,,-7.40000000e-009,-8.20311627e-004
,,,-7.37500000e-009,-8.15624126e-004
,,,-7.35000000e-009,-8.09374126e-004
,,,-7.32500000e-009,-8.03124126e-004
,,,-7.30000000e-009,-7.99999125e-004
,,,-7.27500000e-009,-7.99999125e-004
,,,-7.25000000e-009,-8.04686626e-004
,,,-7.22500000e-009,-8.14061626e-004
,,,-7.20000000e-009,-8.24999127e-004
,,,-7.17500000e-009,-8.34374128e-004
,,,-7.15000000e-009,-8.40624128e-004
,,,-7.12500000e-009,-8.39061628e-004
,,,-7.10000000e-009,-8.26561627e-004
,,,-7.07500000e-009,-7.99999125e-004
,,,-7.05000000e-009,-7.57811622e-004
,,,-7.02500000e-009,-7.04686619e-004
,,,-7.00000000e-009,-6.45311614e-004
,,,-6.97500000e-009,-5.85936610e-004
,,,-6.95000000e-009,-5.26561606e-004
,,,-6.92500000e-009,-4.74999102e-004
,,,-6.90000000e-009,-4.32811599e-004
,,,-6.87500000e-009,-3.99999097e-004
,,,-6.85000000e-009,-3.82811596e-004
,,,-6.82500000e-009,-3.76561595e-004
,,,-6.80000000e-009,-3.78124095e-004
,,,-6.77500000e-009,-3.85936596e-004
,,,-6.75000000e-009,-3.93749097e-004
,,,-6.72500000e-009,-4.01561597e-004
,,,-6.70000000e-009,-4.04686597e-004
,,,-6.67500000e-009,-3.99999097e-004
,,,-6.65000000e-009,-3.90624096e-004
,,,-6.62500000e-009,-3.76561595e-004
,,,-6.60000000e-009,-3.59374094e-004
,,,-6.57500000e-009,-3.46874093e-004
,,,-6.55000000e-009,-3.39061593e-004
,,,-6.52500000e-009,-3.45311593e-004
,,,-6.50000000e-009,-3.64061594e-004
,,,-6.47500000e-009,-3.99999097e-004
,,,-6.45000000e-009,-4.53124101e-004
,,,-6.42500000e-009,-5.17186605e-004
,,,-6.40000000e-009,-5.85936610e-004
,,,-6.37500000e-009,-6.54686615e-004
,,,-6.35000000e-009,-7.17186619e-004
,,,-6.32500000e-009,-7.64061623e-004
,,,-6.30000000e-009,-7.93749125e-004
,,,-6.27500000e-009,-7.99999125e-004
,,,-6.25000000e-009,-7.81249124e-004
,,,-6.22500000e-009,-7.39061621e-004
,,,-6.20000000e-009,-6.82811617e-004
,,,-6.17500000e-009,-6.15624112e-004
,,,-6.15000000e-009,-5.48436607e-004
,,,-6.12500000e-009,-4.85936603e-004
,,,-6.10000000e-009,-4.34374099e-004
,,,-6.07500000e-009,-3.99999097e-004
,,,-6.05000000e-009,-3.85936596e-004
,,,-6.02500000e-009,-3.87499096e-004
,,,-6.00000000e-009,-3.98436597e-004
,,,-5.97500000e-009,-4.15624098e-004
,,,-5.95000000e-009,-4.31249099e-004
,,,-5.92500000e-009,-4.37499100e-004
,,,-5.90000000e-009,-4.28124099e-004
,,,-5.87500000e-009,-3.99999097e-004
,,,-5.85000000e-009,-3.53124094e-004
,,,-5.82500000e-009,-2.90624089e-004
,,,-5.80000000e-009,-2.18749084e-004
,,,-5.77500000e-009,-1.46874079e-004
,,,-5.75000000e-009,-7.96865743e-005
,,,-5.72500000e-009,-2.96865708e-005
,,,-5.70000000e-009,-1.56156879e-006
,,,-5.67500000e-009,9.31322575e-010
,,,-5.65000000e-009,-3.12490709e-005
,,,-5.62500000e-009,-8.59365748e-005
,,,-5.60000000e-009,-1.56249080e-004
,,,-5.57500000e-009,-2.31249085e-004
,,,-5.55000000e-009,-3.03124090e-004
,,,-5.52500000e-009,-3.60936594e-004
,,,-5.50000000e-009,-3.95311597e-004
,,,-5.47500000e-009,-3.99999097e-004
,,,-5.45000000e-009,-3.74999095e-004
,,,-5.42500000e-009,-3.24999092e-004
,,,-5.40000000e-009,-2.54686587e-004
,,,-5.37500000e-009,-1.76561581e-004
,,,-5.35000000e-009,-1.03124076e-004
,,,-5.32500000e-009,-4.37490718e-005
,,,-5.30000000e-009,-7.81156923e-006
,,,-5.27500000e-009,9.31322575e-010
,,,-5.25000000e-009,-2.96865708e-005
,,,-5.22500000e-009,-8.59365748e-005
,,,-5.20000000e-009,-1.59374080e-004
,,,-5.17500000e-009,-2.40624086e-004
,,,-5.15000000e-009,-3.14061591e-004
,,,-5.12500000e-009,-3.71874095e-004
,,,-5.10000000e-009,-4.03124097e-004
,,,-5.07500000e-009,-3.99999097e-004
,,,-5.05000000e-009,-3.65624095e-004
,,,-5.02500000e-009,-3.03124090e-004
,,,-5.00000000e-009,-2.21874084e-004
,,,-4.97500000e-009,-1.35936578e-004
,,,-4.95000000e-009,-5.78115728e-005
,,,-4.92500000e-009,-3.12406890e-006
,,,-4.90000000e-009,1.87509326e-005
,,,-4.87500000e-009,9.31322575e-010
,,,-4.85000000e-009,-6.40615732e-005
,,,-4.82500000e-009,-1.62499080e-004
,,,-4.80000000e-009,-2.89061589e-004
,,,-4.77500000e-009,-4.26561599e-004
,,,-4.75000000e-009,-5.60936608e-004
,,,-4.72500000e-009,-6.76561617e-004
,,,-4.70000000e-009,-7.60936623e-004
,,,-4.67500000e-009,-7.99999125e-004
,,,-4.65000000e-009,-7.85936624e-004
,,,-4.62500000e-009,-7.24999120e-004
,,,-4.60000000e-009,-6.23436613e-004
,,,-4.57500000e-009,-4.96874104e-004
,,,-4.55000000e-009,-3.56249094e-004
,,,-4.52500000e-009,-2.17186584e-004
,,,-4.50000000e-009,-9.37490753e-005
,,,-4.47500000e-009,9.31322575e-010
,,,-4.45000000e-009,5.31259351e-005
,,,-4.42500000e-009,6.71884361e-005
,,,-4.40000000e-009,4.21884343e-005
,,,-4.37500000e-009,-1.71865699e-005
,,,-4.35000000e-009,-1.01561576e-004
,,,-4.32500000e-009,-2.01561583e-004
,,,-4.30000000e-009,-3.04686590e-004
,,,-4.27500000e-009,-3.99999097e-004
,,,-4.25000000e-009,-4.79686603e-004
,,,-4.22500000e-009,-5.37499107e-004
,,,-4.20000000e-009,-5.68749109e-004
,,,-4.17500000e-009,-5.74999109e-004
,,,-4.15000000e-009,-5.57811608e-004
,,,-4.12500000e-009,-5.18749105e-004
,,,-4.10000000e-009,-4.65624102e-004
,,,-4.07500000e-009,-3.99999097e-004
,,,-4.05000000e-009,-3.31249092e-004
,,,-4.02500000e-009,-2.60936587e-004
,,,-4.00000000e-009,-1.95311583e-004
,,,-3.97500000e-009,-1.37499078e-004
,,,-3.95000000e-009,-8.90615750e-005
,,,-3.92500000e-009,-4.84365721e-005
,,,-3.90000000e-009,-2.03115701e-005
,,,-3.87500000e-009,9.31322575e-010
,,,-3.85000000e-009,9.37593199e-006
,,,-3.82500000e-009,1.40634323e-005
,,,-3.80000000e-009,1.25009322e-005
,,,-3.77500000e-009,7.81343188e-006
,,,-3.75000000e-009,3.12593154e-006
,,,-3.72500000e-009,-1.56156879e-006
,,,-3.70000000e-009,-3.12406890e-006
,,,-3.67500000e-009,9.31322575e-010
,,,-3.65000000e-009,9.31322575e-010
,,,-3.62500000e-009,3.12593154e-006
,,,-3.60000000e-009,7.81343188e-006
,,,-3.57500000e-009,1.40634323e-005
,,,-3.55000000e-009,1.87509326e-005
,,,-3.52500000e-009,1.87509326e-005
,,,-3.50000000e-009,1.40634323e-005
,,,-3.47500000e-009,9.31322575e-010
,,,-3.45000000e-009,-2.65615706e-005
,,,-3.42500000e-009,-6.24990731e-005
,,,-3.40000000e-009,-1.06249076e-004
,,,-3.37500000e-009,-1.59374080e-004
,,,-3.35000000e-009,-2.18749084e-004
,,,-3.32500000e-009,-2.79686588e-004
,,,-3.30000000e-009,-3.42186593e-004
,,,-3.27500000e-009,-3.99999097e-004
,,,-3.25000000e-009,-4.48436600e-004
,,,-3.22500000e-009,-4.84374103e-004
,,,-3.20000000e-009,-5.06249105e-004
,,,-3.17500000e-009,-5.14061605e-004
,,,-3.15000000e-009,-5.06249105e-004
,,,-3.12500000e-009,-4.84374103e-004
,,,-3.10000000e-009,-4.48436600e-004
,,,-3.07500000e-009,-3.99999097e-004
,,,-3.05000000e-009,-3.42186593e-004
,,,-3.02500000e-009,-2.79686588e-004
,,,-3.00000000e-009,-2.15624084e-004
,,,-2.97500000e-009,-1.53124080e-004
,,,-2.95000000e-009,-9.68740755e-005
,,,-2.92500000e-009,-5.15615723e-005
,,,-2.90000000e-009,-1.87490700e-005
,,,-2.87500000e-009,9.31322575e-010
,,,-2.85000000e-009,-1.56156879e-006
,,,-2.82500000e-009,-1.87490700e-005
,,,-2.80000000e-009,-5.46865725e-005
,,,-2.77500000e-009,-1.04686576e-004
,,,-2.75000000e-009,-1.68749081e-004
,,,-2.72500000e-009,-2.42186586e-004
,,,-2.70000000e-009,-3.21874091e-004
,,,-2.67500000e-009,-3.99999097e-004
,,,-2.65000000e-009,-4.71874102e-004
,,,-2.62500000e-009,-5.31249106e-004
,,,-2.60000000e-009,-5.73436609e-004
,,,-2.57500000e-009,-5.92186611e-004
,,,-2.55000000e-009,-5.85936610e-004
,,,-2.52500000e-009,-5.51561608e-004
,,,-2.50000000e-009,-4.89061603e-004
,,,-2.47500000e-009,-3.99999097e-004
,,,-2.45000000e-009,-2.89061589e-004
,,,-2.42500000e-009,-1.65624080e-004
,,,-2.40000000e-009,-3.74990713e-005
,,,-2.37500000e-009,8.75009375e-005
,,,-2.35000000e-009,2.01563446e-004
,,,-2.32500000e-009,2.93750952e-004
,,,-2.30000000e-009,3.60938457e-004
,,,-2.27500000e-009,4.00000960e-004
,,,-2.25000000e-009,3.93750959e-004
,,,-2.22500000e-009,3.59375957e-004
,,,-2.20000000e-009,3.04688453e-004
,,,-2.17500000e-009,2.34375948e-004
,,,-2.15000000e-009,1.62500943e-004
,,,-2.12500000e-009,9.37509380e-005
,,,-2.10000000e-009,3.75009340e-005
,,,-2.07500000e-009,9.31322575e-010
,,,-2.05000000e-009,-3.43740711e-005
,,,-2.02500000e-009,-4.84365721e-005
,,,-2.00000000e-009,-4.84365721e-005
,,,-1.97500000e-009,-3.74990713e-005
,,,-1.95000000e-009,-2.03115701e-005
,,,-1.92500000e-009,-4.68656901e-006
,,,-1.90000000e-009,3.12593154e-006
,,,-1.87500000e-009,9.31322575e-010
,,,-1.85000000e-009,-4.21865717e-005
,,,-1.82500000e-009,-9.99990758e-005
,,,-1.80000000e-009,-1.68749081e-004
,,,-1.77500000e-009,-2.40624086e-004
,,,-1.75000000e-009,-3.06249090e-004
,,,-1.72500000e-009,-3.59374094e-004
,,,-1.70000000e-009,-3.92186596e-004
,,,-1.67500000e-009,-3.99999097e-004
,,,-1.65000000e-009,-4.23436599e-004
,,,-1.62500000e-009,-4.29686599e-004
,,,-1.60000000e-009,-4.24999099e-004
,,,-1.57500000e-009,-4.10936598e-004
,,,-1.55000000e-009,-3.95311597e-004
,,,-1.52500000e-009,-3.84374096e-004
,,,-1.50000000e-009,-3.82811596e-004
,,,-1.47500000e-009,-3.99999097e-004
,,,-1.45000000e-009,-4.90624103e-004
,,,-1.42500000e-009,-6.12499112e-004
,,,-1.40000000e-009,-7.60936623e-004
,,,-1.37500000e-009,-9.26561634e-004
,,,-1.35000000e-009,-1.10156165e-003
,,,-1.32500000e-009,-1.27812416e-003
,,,-1.30000000e-009,-1.44531167e-003
,,,-1.27500000e-009,-1.59999918e-003
,,,-1.25000000e-009,-1.78593670e-003
,,,-1.22500000e-009,-1.96249921e-003
,,,-1.20000000e-009,-2.12812422e-003
,,,-1.17500000e-009,-2.28124923e-003
,,,-1.15000000e-009,-2.42187424e-003
,,,-1.12500000e-009,-2.55312425e-003
,,,-1.10000000e-009,-2.67656176e-003
,,,-1.07500000e-009,-2.79999927e-003
,,,-1.05000000e-009,-2.97499928e-003
,,,-1.02500000e-009,-3.17343679e-003
,,,-1.00000000e-009,-3.39374931e-003
,,,-9.75000000e-010,-3.63593683e-003
,,,-9.50000000e-010,-3.89999934e-003
,,,-9.25000000e-010,-4.18437436e-003
,,,-9.00000000e-010,-4.48437439e-003
,,,-8.75000000e-010,-4.79999941e-003
,,,-8.50000000e-010,-5.16718693e-003
,,,-8.25000000e-010,-5.55781196e-003
,,,-8.00000000e-010,-5.96249949e-003
,,,-7.75000000e-010,-6.37968702e-003
,,,-7.50000000e-010,-6.79687455e-003
,,,-7.25000000e-010,-7.20937458e-003
,,,-7.00000000e-010,-7.61249961e-003
,,,-6.75000000e-010,-7.99999963e-003
,,,-6.50000000e-010,-8.38437466e-003
,,,-6.25000000e-010,-8.76093719e-003
,,,-6.00000000e-010,-9.12968721e-003
,,,-5.75000000e-010,-9.48906224e-003
,,,-5.50000000e-010,-9.83749976e-003
,,,-5.25000000e-010,-1.01734373e-002
,,,-5.00000000e-010,-1.04953123e-002
,,,-4.75000000e-010,-1.07999998e-002
,,,-4.50000000e-010,-1.10796874e-002
,,,-4.25000000e-010,-1.13562499e-002
,,,-4.00000000e-010,-1.16281249e-002
,,,-3.75000000e-010,-1.18921874e-002
,,,-3.50000000e-010,-1.21453124e-002
,,,-3.25000000e-010,-1.23828124e-002
,,,-3.00000000e-010,-1.26015625e-002
,,,-2.75000000e-010,-1.28000000e-002
,,,-2.50000000e-010,-1.29578125e-002
,,,-2.25000000e-010,-1.31171875e-002
,,,-2.00000000e-010,-1.32843750e-002
,,,-1.75000000e-010,-1.34687500e-002
,,,-1.50000000e-010,-1.36703125e-002
,,,-1.25000000e-010,-1.38937501e-002
,,,-1.00000000e-010,-1.41375001e-002
,,,-7.50000000e-011,-1.44000001e-002
,,,-5.00000000e-011,-1.46359376e-002
,,,-2.50000000e-011,-1.48921876e-002
,,,0.00000000e+000,-1.51640626e-002
,,,2.50000000e-011,-1.54421877e-002
,,,5.00000000e-011,-1.57156252e-002
,,,7.50000000e-011,-1.59734377e-002
,,,1.00000000e-010,-1.62046877e-002
,,,1.25000000e-010,-1.64000002e-002
,,,1.50000000e-010,-1.64953127e-002
,,,1.75000000e-010,-1.65625002e-002
,,,2.00000000e-010,-1.66078127e-002
,,,2.25000000e-010,-1.66421877e-002
,,,2.50000000e-010,-1.66718752e-002
,,,2.75000000e-010,-1.67046878e-002
,,,3.00000000e-010,-1.67468753e-002
,,,3.25000000e-010,-1.68000003e-002
,,,3.50000000e-010,-1.68093753e-002
,,,3.75000000e-010,-1.68390628e-002
,,,4.00000000e-010,-1.68859378e-002
,,,4.25000000e-010,-1.69500003e-002
,,,4.50000000e-010,-1.70203128e-002
,,,4.75000000e-010,-1.70921878e-002
,,,5.00000000e-010,-1.71562503e-002
,,,5.25000000e-010,-1.72000003e-002
,,,5.50000000e-010,-1.71625003e-002
,,,5.75000000e-010,-1.70984378e-002
,,,6.00000000e-010,-1.70125003e-002
,,,6.25000000e-010,-1.69093753e-002
,,,6.50000000e-010,-1.67921878e-002
,,,6.75000000e-010,-1.66656252e-002
,,,7.00000000e-010,-1.65359377e-002
,,,7.25000000e-010,-1.64000002e-002
,,,7.50000000e-010,-1.62093752e-002
,,,7.75000000e-010,-1.60140627e-002
,,,8.00000000e-010,-1.58187502e-002
,,,8.25000000e-010,-1.56218752e-002
,,,8.50000000e-010,-1.54234377e-002
,,,8.75000000e-010,-1.52218751e-002
,,,9.00000000e-010,-1.50156251e-002
,,,9.25000000e-010,-1.48000001e-002
,,,9.50000000e-010,-1.45359376e-002
,,,9.75000000e-010,-1.42625001e-002
,,,1.00000000e-009,-1.39875001e-002
,,,1.02500000e-009,-1.37156250e-002
,,,1.05000000e-009,-1.34546875e-002
,,,1.07500000e-009,-1.32125000e-002
,,,1.10000000e-009,-1.29937500e-002
,,,1.12500000e-009,-1.28000000e-002
,,,1.15000000e-009,-1.26093750e-002
,,,1.17500000e-009,-1.24343749e-002
,,,1.20000000e-009,-1.22749999e-002
,,,1.22500000e-009,-1.21265624e-002
,,,1.25000000e-009,-1.19890624e-002
,,,1.27500000e-009,-1.18578124e-002
,,,1.30000000e-009,-1.17296874e-002
,,,1.32500000e-009,-1.15999999e-002
,,,1.35000000e-009,-1.14499999e-002
,,,1.37500000e-009,-1.12796874e-002
,,,1.40000000e-009,-1.10906249e-002
,,,1.42500000e-009,-1.08874998e-002
,,,1.45000000e-009,-1.06734373e-002
,,,1.47500000e-009,-1.04515623e-002
,,,1.50000000e-009,-1.02265623e-002
,,,1.52500000e-009,-9.99999978e-003
,,,1.55000000e-009,-9.77187476e-003
,,,1.57500000e-009,-9.53437474e-003
,,,1.60000000e-009,-9.28906223e-003
,,,1.62500000e-009,-9.03593721e-003
,,,1.65000000e-009,-8.77968719e-003
,,,1.67500000e-009,-8.52031217e-003
,,,1.70000000e-009,-8.25937465e-003
,,,1.72500000e-009,-7.99999963e-003
,,,1.75000000e-009,-7.75312462e-003
,,,1.77500000e-009,-7.49687460e-003
,,,1.80000000e-009,-7.23593708e-003
,,,1.82500000e-009,-6.97187456e-003
,,,1.85000000e-009,-6.71249954e-003
,,,1.87500000e-009,-6.46093703e-003
,,,1.90000000e-009,-6.22187451e-003
,,,1.92500000e-009,-5.99999949e-003
,,,1.95000000e-009,-5.81874948e-003
,,,1.97500000e-009,-5.64531197e-003
,,,2.00000000e-009,-5.47968696e-003
,,,2.02500000e-009,-5.32499945e-003
,,,2.05000000e-009,-5.17812444e-003
,,,2.07500000e-009,-5.04218693e-003
,,,2.10000000e-009,-4.91718692e-003
,,,2.12500000e-009,-4.79999941e-003
,,,2.15000000e-009,-4.71406190e-003
,,,2.17500000e-009,-4.62343690e-003
,,,2.20000000e-009,-4.52812439e-003
,,,2.22500000e-009,-4.42656188e-003
,,,2.25000000e-009,-4.32187437e-003
,,,2.27500000e-009,-4.21562437e-003
,,,2.30000000e-009,-4.10781186e-003
,,,2.32500000e-009,-3.99999935e-003
,,,2.35000000e-009,-3.91874935e-003
,,,2.37500000e-009,-3.83124934e-003
,,,2.40000000e-009,-3.73437433e-003
,,,2.42500000e-009,-3.63124933e-003
,,,2.45000000e-009,-3.52499932e-003
,,,2.47500000e-009,-3.41406181e-003
,,,2.50000000e-009,-3.30624930e-003
,,,2.52500000e-009,-3.19999930e-003
,,,2.55000000e-009,-3.12656179e-003
,,,2.57500000e-009,-3.05312428e-003
,,,2.60000000e-009,-2.98437428e-003
,,,2.62500000e-009,-2.92187428e-003
,,,2.65000000e-009,-2.87187427e-003
,,,2.67500000e-009,-2.83281177e-003
,,,2.70000000e-009,-2.80937427e-003
,,,2.72500000e-009,-2.79999927e-003
,,,2.75000000e-009,-2.82499927e-003
,,,2.77500000e-009,-2.85156177e-003
,,,2.80000000e-009,-2.87656177e-003
,,,2.82500000e-009,-2.89218677e-003
,,,2.85000000e-009,-2.89374927e-003
,,,2.87500000e-009,-2.88124927e-003
,,,2.90000000e-009,-2.84999927e-003
,,,2.92500000e-009,-2.79999927e-003
,,,2.95000000e-009,-2.75312426e-003
,,,2.97500000e-009,-2.69374926e-003
,,,3.00000000e-009,-2.62499925e-003
,,,3.02500000e-009,-2.55468675e-003
,,,3.05000000e-009,-2.49062424e-003
,,,3.07500000e-009,-2.44062424e-003
,,,3.10000000e-009,-2.40937424e-003
,,,3.12500000e-009,-2.39999924e-003
,,,3.15000000e-009,-2.43437424e-003
,,,3.17500000e-009,-2.48906174e-003
,,,3.20000000e-009,-2.55468675e-003
,,,3.22500000e-009,-2.62656175e-003
,,,3.25000000e-009,-2.69374926e-003
,,,3.27500000e-009,-2.74999926e-003
,,,3.30000000e-009,-2.78749927e-003
,,,3.32500000e-009,-2.79999927e-003
,,,3.35000000e-009,-2.80156177e-003
,,,3.37500000e-009,-2.77812427e-003
,,,3.40000000e-009,-2.73281176e-003
,,,3.42500000e-009,-2.67031176e-003
,,,3.45000000e-009,-2.59687425e-003
,,,3.47500000e-009,-2.52343675e-003
,,,3.50000000e-009,-2.45468674e-003
,,,3.52500000e-009,-2.39999924e-003
,,,3.55000000e-009,-2.37968674e-003
,,,3.57500000e-009,-2.38281174e-003
,,,3.60000000e-009,-2.40937424e-003
,,,3.62500000e-009,-2.45781174e-003
,,,3.65000000e-009,-2.52656175e-003
,,,3.67500000e-009,-2.60781175e-003
,,,3.70000000e-009,-2.70156176e-003
,,,3.72500000e-009,-2.79999927e-003
,,,3.75000000e-009,-2.91093677e-003
,,,3.77500000e-009,-3.02187428e-003
,,,3.80000000e-009,-3.12968679e-003
,,,3.82500000e-009,-3.23124930e-003
,,,3.85000000e-009,-3.32968680e-003
,,,3.87500000e-009,-3.42343681e-003
,,,3.90000000e-009,-3.51249932e-003
,,,3.92500000e-009,-3.59999932e-003
,,,3.95000000e-009,-3.68906183e-003
,,,3.97500000e-009,-3.77812434e-003
,,,4.00000000e-009,-3.87187434e-003
,,,4.02500000e-009,-3.97031185e-003
,,,4.05000000e-009,-4.07187436e-003
,,,4.07500000e-009,-4.17968686e-003
,,,4.10000000e-009,-4.29062437e-003
,,,4.12500000e-009,-4.39999938e-003
,,,4.15000000e-009,-4.49999939e-003
,,,4.17500000e-009,-4.59374939e-003
,,,4.20000000e-009,-4.67499940e-003
,,,4.22500000e-009,-4.74374940e-003
,,,4.25000000e-009,-4.79218691e-003
,,,4.27500000e-009,-4.81874941e-003
,,,4.30000000e-009,-4.82187441e-003
,,,4.32500000e-009,-4.79999941e-003
,,,4.35000000e-009,-4.74687440e-003
,,,4.37500000e-009,-4.67812440e-003
,,,4.40000000e-009,-4.60468689e-003
,,,4.42500000e-009,-4.53124939e-003
,,,4.45000000e-009,-4.46874938e-003
,,,4.47500000e-009,-4.42343688e-003
,,,4.50000000e-009,-4.39999938e-003
,,,4.52500000e-009,-4.39999938e-003
,,,4.55000000e-009,-4.41562438e-003
,,,4.57500000e-009,-4.45468688e-003
,,,4.60000000e-009,-4.51249939e-003
,,,4.62500000e-009,-4.58124939e-003
,,,4.65000000e-009,-4.65312440e-003
,,,4.67500000e-009,-4.71874940e-003
,,,4.70000000e-009,-4.77031191e-003
,,,4.72500000e-009,-4.79999941e-003
,,,4.75000000e-009,-4.78906191e-003
,,,4.77500000e-009,-4.75624941e-003
,,,4.80000000e-009,-4.70312440e-003
,,,4.82500000e-009,-4.63906190e-003
,,,4.85000000e-009,-4.56874939e-003
,,,4.87500000e-009,-4.50156189e-003
,,,4.90000000e-009,-4.44374938e-003
,,,4.92500000e-009,-4.39999938e-003
,,,4.95000000e-009,-4.36249938e-003
,,,4.97500000e-009,-4.34218688e-003
,,,5.00000000e-009,-4.33906188e-003
,,,5.02500000e-009,-4.34687438e-003
,,,5.05000000e-009,-4.36406188e-003
,,,5.07500000e-009,-4.38124938e-003
,,,5.10000000e-009,-4.39531188e-003
,,,5.12500000e-009,-4.39999938e-003
,,,5.15000000e-009,-4.38281188e-003
,,,5.17500000e-009,-4.35156188e-003
,,,5.20000000e-009,-4.30468687e-003
,,,5.22500000e-009,-4.24843687e-003
,,,5.25000000e-009,-4.18593686e-003
,,,5.27500000e-009,-4.12031186e-003
,,,5.30000000e-009,-4.05781186e-003
,,,5.32500000e-009,-3.99999935e-003
,,,5.35000000e-009,-3.94218685e-003
,,,5.37500000e-009,-3.88906184e-003
,,,5.40000000e-009,-3.84062434e-003
,,,5.42500000e-009,-3.79531184e-003
,,,5.45000000e-009,-3.75156183e-003
,,,5.47500000e-009,-3.70624933e-003
,,,5.50000000e-009,-3.65781183e-003
,,,5.52500000e-009,-3.59999932e-003
,,,5.55000000e-009,-3.53281182e-003
,,,5.57500000e-009,-3.45468681e-003
,,,5.60000000e-009,-3.36406181e-003
,,,5.62500000e-009,-3.26249930e-003
,,,5.65000000e-009,-3.15156179e-003
,,,5.67500000e-009,-3.03593678e-003
,,,5.70000000e-009,-2.91718678e-003
,,,5.72500000e-009,-2.79999927e-003
,,,5.75000000e-009,-2.69218676e-003
,,,5.77500000e-009,-2.59374925e-003
,,,5.80000000e-009,-2.50937425e-003
,,,5.82500000e-009,-2.44218674e-003
