RawData/WithScintilator/R7_2pt2B_15mV/wave012_Ch2.csv

"Record Length",1000,"Points",-7.72500000e-009,-3.99999097e-004
"Sample Interval",2.50000000e-011,s,-7.70000000e-009,-4.28124099e-004
"Trigger Point",309,"Samples",-7.67500000e-009,-4.53124101e-004
"Trigger Time",2.17388656e-011,s,-7.65000000e-009,-4.74999102e-004
"",,,-7.62500000e-009,-4.87499103e-004
"Horizontal Offset",-7.72500000e-009,s,-7.60000000e-009,-4.89061603e-004
,,,-7.57500000e-009,-4.76561602e-004
,,,-7.55000000e-009,-4.46874100e-004
,,,-7.52500000e-009,-3.99999097e-004
,,,-7.50000000e-009,-3.35936592e-004
,,,-7.47500000e-009,-2.60936587e-004
,,,-7.45000000e-009,-1.84374082e-004
,,,-7.42500000e-009,-1.12499077e-004
,,,-7.40000000e-009,-5.15615723e-005
,,,-7.37500000e-009,-9.37406934e-006
,,,-7.35000000e-009,7.81343188e-006
,,,-7.32500000e-009,9.31322575e-010
,,,-7.30000000e-009,-3.90615714e-005
,,,-7.27500000e-009,-9.68740755e-005
,,,-7.25000000e-009,-1.67186581e-004
,,,-7.22500000e-009,-2.42186586e-004
,,,-7.20000000e-009,-3.10936591e-004
,,,-7.17500000e-009,-3.64061594e-004
,,,-7.15000000e-009,-3.96874097e-004
,,,-7.12500000e-009,-3.99999097e-004
,,,-7.10000000e-009,-3.74999095e-004
,,,-7.07500000e-009,-3.24999092e-004
,,,-7.05000000e-009,-2.59374087e-004
,,,-7.02500000e-009,-1.85936582e-004
,,,-7.00000000e-009,-1.14061577e-004
,,,-6.97500000e-009,-5.46865725e-005
,,,-6.95000000e-009,-1.40615697e-005
,,,-6.92500000e-009,9.31322575e-010
,,,-6.90000000e-009,-1.40615697e-005
,,,-6.87500000e-009,-5.46865725e-005
,,,-6.85000000e-009,-1.14061577e-004
,,,-6.82500000e-009,-1.85936582e-004
,,,-6.80000000e-009,-2.59374087e-004
,,,-6.77500000e-009,-3.24999092e-004
,,,-6.75000000e-009,-3.74999095e-004
,,,-6.72500000e-009,-3.99999097e-004
,,,-6.70000000e-009,-3.98436597e-004
,,,-6.67500000e-009,-3.68749095e-004
,,,-6.65000000e-009,-3.15624091e-004
,,,-6.62500000e-009,-2.48436586e-004
,,,-6.60000000e-009,-1.73436581e-004
,,,-6.57500000e-009,-1.01561576e-004
,,,-6.55000000e-009,-4.21865717e-005
,,,-6.52500000e-009,9.31322575e-010
,,,-6.50000000e-009,1.40634323e-005
,,,-6.47500000e-009,3.12593154e-006
,,,-6.45000000e-009,-3.28115710e-005
,,,-6.42500000e-009,-8.90615750e-005
,,,-6.40000000e-009,-1.62499080e-004
,,,-6.37500000e-009,-2.42186586e-004
,,,-6.35000000e-009,-3.24999092e-004
,,,-6.32500000e-009,-3.99999097e-004
,,,-6.30000000e-009,-4.60936601e-004
,,,-6.27500000e-009,-5.04686604e-004
,,,-6.25000000e-009,-5.29686606e-004
,,,-6.22500000e-009,-5.35936607e-004
,,,-6.20000000e-009,-5.23436606e-004
,,,-6.17500000e-009,-4.93749104e-004
,,,-6.15000000e-009,-4.53124101e-004
,,,-6.12500000e-009,-3.99999097e-004
,,,-6.10000000e-009,-3.40624093e-004
,,,-6.07500000e-009,-2.79686588e-004
,,,-6.05000000e-009,-2.18749084e-004
,,,-6.02500000e-009,-1.60936580e-004
,,,-6.00000000e-009,-1.09374076e-004
,,,-5.97500000e-009,-6.56240733e-005
,,,-5.95000000e-009,-2.81240707e-005
,,,-5.92500000e-009,9.31322575e-010
,,,-5.90000000e-009,1.87509326e-005
,,,-5.87500000e-009,2.96884334e-005
,,,-5.85000000e-009,3.28134336e-005
,,,-5.82500000e-009,3.12509335e-005
,,,-5.80000000e-009,2.65634332e-005
,,,-5.77500000e-009,1.71884325e-005
,,,-5.75000000e-009,7.81343188e-006
,,,-5.72500000e-009,9.31322575e-010
,,,-5.70000000e-009,-1.09365695e-005
,,,-5.67500000e-009,-1.87490700e-005
,,,-5.65000000e-009,-2.34365703e-005
,,,-5.62500000e-009,-2.49990704e-005
,,,-5.60000000e-009,-2.18740702e-005
,,,-5.57500000e-009,-1.71865699e-005
,,,-5.55000000e-009,-9.37406934e-006
,,,-5.52500000e-009,9.31322575e-010
,,,-5.50000000e-009,6.25093176e-006
,,,-5.47500000e-009,1.09384321e-005
,,,-5.45000000e-009,1.56259324e-005
,,,-5.42500000e-009,1.56259324e-005
,,,-5.40000000e-009,1.56259324e-005
,,,-5.37500000e-009,1.09384321e-005
,,,-5.35000000e-009,6.25093176e-006
,,,-5.32500000e-009,9.31322575e-010
,,,-5.30000000e-009,-1.09365695e-005
,,,-5.27500000e-009,-2.03115701e-005
,,,-5.25000000e-009,-2.81240707e-005
,,,-5.22500000e-009,-3.12490709e-005
,,,-5.20000000e-009,-3.12490709e-005
,,,-5.17500000e-009,-2.49990704e-005
,,,-5.15000000e-009,-1.56240698e-005
,,,-5.12500000e-009,9.31322575e-010
,,,-5.10000000e-009,1.25009322e-005
,,,-5.07500000e-009,2.65634332e-005
,,,-5.05000000e-009,3.90634341e-005
,,,-5.02500000e-009,4.68759346e-005
,,,-5.00000000e-009,4.84384348e-005
,,,-4.97500000e-009,4.21884343e-005
,,,-4.95000000e-009,2.65634332e-005
,,,-4.92500000e-009,9.31322575e-010
,,,-4.90000000e-009,-4.21865717e-005
,,,-4.87500000e-009,-9.21865752e-005
,,,-4.85000000e-009,-1.48436579e-004
,,,-4.82500000e-009,-2.07811583e-004
,,,-4.80000000e-009,-2.65624087e-004
,,,-4.77500000e-009,-3.18749091e-004
,,,-4.75000000e-009,-3.65624095e-004
,,,-4.72500000e-009,-3.99999097e-004
,,,-4.70000000e-009,-4.24999099e-004
,,,-4.67500000e-009,-4.39061600e-004
,,,-4.65000000e-009,-4.43749100e-004
,,,-4.62500000e-009,-4.40624100e-004
,,,-4.60000000e-009,-4.31249099e-004
,,,-4.57500000e-009,-4.20311598e-004
,,,-4.55000000e-009,-4.09374098e-004
,,,-4.52500000e-009,-3.99999097e-004
,,,-4.50000000e-009,-3.93749097e-004
,,,-4.47500000e-009,-3.90624096e-004
,,,-4.45000000e-009,-3.90624096e-004
,,,-4.42500000e-009,-3.93749097e-004
,,,-4.40000000e-009,-3.98436597e-004
,,,-4.37500000e-009,-4.01561597e-004
,,,-4.35000000e-009,-4.03124097e-004
,,,-4.32500000e-009,-3.99999097e-004
,,,-4.30000000e-009,-3.93749097e-004
,,,-4.27500000e-009,-3.85936596e-004
,,,-4.25000000e-009,-3.76561595e-004
,,,-4.22500000e-009,-3.70311595e-004
,,,-4.20000000e-009,-3.67186595e-004
,,,-4.17500000e-009,-3.70311595e-004
,,,-4.15000000e-009,-3.79686596e-004
,,,-4.12500000e-009,-3.99999097e-004
,,,-4.10000000e-009,-4.29686599e-004
,,,-4.07500000e-009,-4.68749102e-004
,,,-4.05000000e-009,-5.15624105e-004
,,,-4.02500000e-009,-5.70311609e-004
,,,-4.00000000e-009,-6.28124113e-004
,,,-3.97500000e-009,-6.89061617e-004
,,,-3.95000000e-009,-7.46874122e-004
,,,-3.92500000e-009,-7.99999125e-004
,,,-3.90000000e-009,-8.39061628e-004
,,,-3.87500000e-009,-8.67186630e-004
,,,-3.85000000e-009,-8.84374131e-004
,,,-3.82500000e-009,-8.89061632e-004
,,,-3.80000000e-009,-8.82811631e-004
,,,-3.77500000e-009,-8.65624130e-004
,,,-3.75000000e-009,-8.37499128e-004
,,,-3.72500000e-009,-7.99999125e-004
,,,-3.70000000e-009,-7.51561622e-004
,,,-3.67500000e-009,-6.98436618e-004
,,,-3.65000000e-009,-6.42186614e-004
,,,-3.62500000e-009,-5.85936610e-004
,,,-3.60000000e-009,-5.31249106e-004
,,,-3.57500000e-009,-4.81249103e-004
,,,-3.55000000e-009,-4.37499100e-004
,,,-3.52500000e-009,-3.99999097e-004
,,,-3.50000000e-009,-3.70311595e-004
,,,-3.47500000e-009,-3.49999093e-004
,,,-3.45000000e-009,-3.39061593e-004
,,,-3.42500000e-009,-3.37499093e-004
,,,-3.40000000e-009,-3.43749093e-004
,,,-3.37500000e-009,-3.57811594e-004
,,,-3.35000000e-009,-3.78124095e-004
,,,-3.32500000e-009,-3.99999097e-004
,,,-3.30000000e-009,-4.23436599e-004
,,,-3.27500000e-009,-4.42186600e-004
,,,-3.25000000e-009,-4.57811601e-004
,,,-3.22500000e-009,-4.65624102e-004
,,,-3.20000000e-009,-4.65624102e-004
,,,-3.17500000e-009,-4.54686601e-004
,,,-3.15000000e-009,-4.32811599e-004
,,,-3.12500000e-009,-3.99999097e-004
,,,-3.10000000e-009,-3.59374094e-004
,,,-3.07500000e-009,-3.09374091e-004
,,,-3.05000000e-009,-2.56249087e-004
,,,-3.02500000e-009,-1.98436583e-004
,,,-3.00000000e-009,-1.42186579e-004
,,,-2.97500000e-009,-8.90615750e-005
,,,-2.95000000e-009,-4.06240716e-005
,,,-2.92500000e-009,9.31322575e-010
,,,-2.90000000e-009,2.50009331e-005
,,,-2.87500000e-009,4.21884343e-005
,,,-2.85000000e-009,4.84384348e-005
,,,-2.82500000e-009,4.84384348e-005
,,,-2.80000000e-009,4.21884343e-005
,,,-2.77500000e-009,2.96884334e-005
,,,-2.75000000e-009,1.56259324e-005
,,,-2.72500000e-009,9.31322575e-010
,,,-2.70000000e-009,-2.03115701e-005
,,,-2.67500000e-009,-3.59365712e-005
,,,-2.65000000e-009,-4.53115719e-005
,,,-2.62500000e-009,-4.84365721e-005
,,,-2.60000000e-009,-4.53115719e-005
,,,-2.57500000e-009,-3.59365712e-005
,,,-2.55000000e-009,-2.03115701e-005
,,,-2.52500000e-009,9.31322575e-010
,,,-2.50000000e-009,1.87509326e-005
,,,-2.47500000e-009,3.75009340e-005
,,,-2.45000000e-009,5.31259351e-005
,,,-2.42500000e-009,6.25009357e-005
,,,-2.40000000e-009,6.25009357e-005
,,,-2.37500000e-009,5.31259351e-005
,,,-2.35000000e-009,3.28134336e-005
,,,-2.32500000e-009,9.31322575e-010
,,,-2.30000000e-009,-4.68740720e-005
,,,-2.27500000e-009,-9.84365756e-005
,,,-2.25000000e-009,-1.56249080e-004
,,,-2.22500000e-009,-2.15624084e-004
,,,-2.20000000e-009,-2.73436588e-004
,,,-2.17500000e-009,-3.24999092e-004
,,,-2.15000000e-009,-3.67186595e-004
,,,-2.12500000e-009,-3.99999097e-004
,,,-2.10000000e-009,-4.23436599e-004
,,,-2.07500000e-009,-4.34374099e-004
,,,-2.05000000e-009,-4.35936600e-004
,,,-2.02500000e-009,-4.31249099e-004
,,,-2.00000000e-009,-4.21874099e-004
,,,-1.97500000e-009,-4.12499098e-004
,,,-1.95000000e-009,-4.04686597e-004
,,,-1.92500000e-009,-3.99999097e-004
,,,-1.90000000e-009,-3.96874097e-004
,,,-1.87500000e-009,-3.98436597e-004
,,,-1.85000000e-009,-4.03124097e-004
,,,-1.82500000e-009,-4.09374098e-004
,,,-1.80000000e-009,-4.14061598e-004
,,,-1.77500000e-009,-4.17186598e-004
,,,-1.75000000e-009,-4.12499098e-004
,,,-1.72500000e-009,-3.99999097e-004
,,,-1.70000000e-009,-3.76561595e-004
,,,-1.67500000e-009,-3.43749093e-004
,,,-1.65000000e-009,-2.99999090e-004
,,,-1.62500000e-009,-2.48436586e-004
,,,-1.60000000e-009,-1.90624082e-004
,,,-1.57500000e-009,-1.26561578e-004
,,,-1.55000000e-009,-6.24990731e-005
,,,-1.52500000e-009,9.31322575e-010
,,,-1.50000000e-009,4.53134345e-005
,,,-1.47500000e-009,7.96884370e-005
,,,-1.45000000e-009,1.00000938e-004
,,,-1.42500000e-009,1.06250939e-004
,,,-1.40000000e-009,9.84384383e-005
,,,-1.37500000e-009,7.81259369e-005
,,,-1.35000000e-009,4.37509344e-005
,,,-1.32500000e-009,9.31322575e-010
,,,-1.30000000e-009,-7.81240742e-005
,,,-1.27500000e-009,-1.60936580e-004
,,,-1.25000000e-009,-2.43749086e-004
,,,-1.22500000e-009,-3.17186591e-004
,,,-1.20000000e-009,-3.74999095e-004
,,,-1.17500000e-009,-4.10936598e-004
,,,-1.15000000e-009,-4.18749098e-004
,,,-1.12500000e-009,-3.99999097e-004
,,,-1.10000000e-009,-4.03124097e-004
,,,-1.07500000e-009,-3.89061596e-004
,,,-1.05000000e-009,-3.57811594e-004
,,,-1.02500000e-009,-3.09374091e-004
,,,-1.00000000e-009,-2.45311586e-004
,,,-9.75000000e-010,-1.68749081e-004
,,,-9.50000000e-010,-8.59365748e-005
,,,-9.25000000e-010,9.31322575e-010
,,,-9.00000000e-010,-2.03115701e-005
,,,-8.75000000e-010,-6.24990731e-005
,,,-8.50000000e-010,-1.21874077e-004
,,,-8.25000000e-010,-1.90624082e-004
,,,-8.00000000e-010,-2.57811587e-004
,,,-7.75000000e-010,-3.17186591e-004
,,,-7.50000000e-010,-3.64061594e-004
,,,-7.25000000e-010,-3.99999097e-004
,,,-7.00000000e-010,-5.71874109e-004
,,,-6.75000000e-010,-7.60936623e-004
,,,-6.50000000e-010,-9.62499137e-004
,,,-6.25000000e-010,-1.17187415e-003
,,,-6.00000000e-010,-1.38124917e-003
,,,-5.75000000e-010,-1.58906168e-003
,,,-5.50000000e-010,-1.79374920e-003
,,,-5.25000000e-010,-1.99999921e-003
,,,-5.00000000e-010,-2.37499924e-003
,,,-4.75000000e-010,-2.77968677e-003
,,,-4.50000000e-010,-3.20468680e-003
,,,-4.25000000e-010,-3.63437433e-003
,,,-4.00000000e-010,-4.05624936e-003
,,,-3.75000000e-010,-4.45937438e-003
,,,-3.50000000e-010,-4.83906191e-003
,,,-3.25000000e-010,-5.19999944e-003
,,,-3.00000000e-010,-5.71249947e-003
,,,-2.75000000e-010,-6.25937451e-003
,,,-2.50000000e-010,-6.84062455e-003
,,,-2.25000000e-010,-7.46093710e-003
,,,-2.00000000e-010,-8.12187464e-003
,,,-1.75000000e-010,-8.82812469e-003
,,,-1.50000000e-010,-9.58437475e-003
,,,-1.25000000e-010,-1.03999998e-002
,,,-1.00000000e-010,-1.13999999e-002
,,,-7.50000000e-011,-1.24890625e-002
,,,-5.00000000e-011,-1.36562500e-002
,,,-2.50000000e-011,-1.48843751e-002
,,,0.00000000e+000,-1.61515627e-002
,,,2.50000000e-011,-1.74390628e-002
,,,5.00000000e-011,-1.87265629e-002
,,,7.50000000e-011,-2.00000005e-002
,,,1.00000000e-010,-2.12796881e-002
,,,1.25000000e-010,-2.25515632e-002
,,,1.50000000e-010,-2.38078133e-002
,,,1.75000000e-010,-2.50390633e-002
,,,2.00000000e-010,-2.62406259e-002
,,,2.25000000e-010,-2.74031260e-002
,,,2.50000000e-010,-2.85234386e-002
,,,2.75000000e-010,-2.96000012e-002
,,,3.00000000e-010,-3.05765637e-002
,,,3.25000000e-010,-3.15468763e-002
,,,3.50000000e-010,-3.25140639e-002
,,,3.75000000e-010,-3.34796889e-002
,,,4.00000000e-010,-3.44390640e-002
,,,4.25000000e-010,-3.53859391e-002
,,,4.50000000e-010,-3.63078141e-002
,,,4.75000000e-010,-3.72000017e-002
,,,5.00000000e-010,-3.79203143e-002
,,,5.25000000e-010,-3.86312518e-002
,,,5.50000000e-010,-3.93312519e-002
,,,5.75000000e-010,-4.00156269e-002
,,,6.00000000e-010,-4.06765644e-002
,,,6.25000000e-010,-4.13015645e-002
,,,6.50000000e-010,-4.18796895e-002
,,,6.75000000e-010,-4.24000021e-002
,,,7.00000000e-010,-4.26734396e-002
,,,7.25000000e-010,-4.29171896e-002
,,,7.50000000e-010,-4.31406271e-002
,,,7.75000000e-010,-4.33468771e-002
,,,8.00000000e-010,-4.35375022e-002
,,,8.25000000e-010,-4.37125022e-002
,,,8.50000000e-010,-4.38687522e-002
,,,8.75000000e-010,-4.40000022e-002
,,,9.00000000e-010,-4.39046897e-002
,,,9.25000000e-010,-4.38156272e-002
,,,9.50000000e-010,-4.37421897e-002
,,,9.75000000e-010,-4.36875022e-002
,,,1.00000000e-009,-4.36531272e-002
,,,1.02500000e-009,-4.36312522e-002
,,,1.05000000e-009,-4.36171897e-002
,,,1.07500000e-009,-4.36000022e-002
,,,1.10000000e-009,-4.33828146e-002
,,,1.12500000e-009,-4.31640646e-002
,,,1.15000000e-009,-4.29515646e-002
,,,1.17500000e-009,-4.27468771e-002
,,,1.20000000e-009,-4.25515646e-002
,,,1.22500000e-009,-4.23656271e-002
,,,1.25000000e-009,-4.21843771e-002
,,,1.27500000e-009,-4.20000020e-002
,,,1.30000000e-009,-4.16468770e-002
,,,1.32500000e-009,-4.12843770e-002
,,,1.35000000e-009,-4.09187520e-002
,,,1.37500000e-009,-4.05578144e-002
,,,1.40000000e-009,-4.02046894e-002
,,,1.42500000e-009,-3.98625019e-002
,,,1.45000000e-009,-3.95281269e-002
,,,1.47500000e-009,-3.92000018e-002
,,,1.50000000e-009,-3.87421893e-002
,,,1.52500000e-009,-3.82671893e-002
,,,1.55000000e-009,-3.77765642e-002
,,,1.57500000e-009,-3.72750017e-002
,,,1.60000000e-009,-3.67671892e-002
,,,1.62500000e-009,-3.62515641e-002
,,,1.65000000e-009,-3.57312516e-002
,,,1.67500000e-009,-3.52000016e-002
,,,1.70000000e-009,-3.45656265e-002
,,,1.72500000e-009,-3.38968765e-002
,,,1.75000000e-009,-3.32000014e-002
,,,1.77500000e-009,-3.24828139e-002
,,,1.80000000e-009,-3.17562513e-002
,,,1.82500000e-009,-3.10296888e-002
,,,1.85000000e-009,-3.03093762e-002
,,,1.87500000e-009,-2.96000012e-002
,,,1.90000000e-009,-2.88546886e-002
,,,1.92500000e-009,-2.80953136e-002
,,,1.95000000e-009,-2.73281260e-002
,,,1.97500000e-009,-2.65578134e-002
,,,2.00000000e-009,-2.57937509e-002
,,,2.02500000e-009,-2.50421883e-002
,,,2.05000000e-009,-2.43109383e-002
,,,2.07500000e-009,-2.36000007e-002
,,,2.10000000e-009,-2.29062507e-002
,,,2.12500000e-009,-2.22093756e-002
,,,2.15000000e-009,-2.15156256e-002
,,,2.17500000e-009,-2.08328130e-002
,,,2.20000000e-009,-2.01718755e-002
,,,2.22500000e-009,-1.95421880e-002
,,,2.25000000e-009,-1.89500004e-002
,,,2.27500000e-009,-1.84000004e-002
,,,2.30000000e-009,-1.79171878e-002
,,,2.32500000e-009,-1.74343753e-002
,,,2.35000000e-009,-1.69468753e-002
,,,2.37500000e-009,-1.64515627e-002
,,,2.40000000e-009,-1.59484377e-002
,,,2.42500000e-009,-1.54375002e-002
,,,2.45000000e-009,-1.49203126e-002
,,,2.47500000e-009,-1.44000001e-002
,,,2.50000000e-009,-1.39281251e-002
,,,2.52500000e-009,-1.34281250e-002
,,,2.55000000e-009,-1.29046875e-002
,,,2.57500000e-009,-1.23718749e-002
,,,2.60000000e-009,-1.18406249e-002
,,,2.62500000e-009,-1.13265624e-002
,,,2.65000000e-009,-1.08437498e-002
,,,2.67500000e-009,-1.03999998e-002
,,,2.70000000e-009,-1.00624998e-002
,,,2.72500000e-009,-9.73281226e-003
,,,2.75000000e-009,-9.40312473e-003
,,,2.77500000e-009,-9.06718721e-003
,,,2.80000000e-009,-8.72031219e-003
,,,2.82500000e-009,-8.36093716e-003
,,,2.85000000e-009,-7.98749963e-003
,,,2.87500000e-009,-7.59999961e-003
,,,2.90000000e-009,-7.27187458e-003
,,,2.92500000e-009,-6.91406206e-003
,,,2.95000000e-009,-6.53437453e-003
,,,2.97500000e-009,-6.14218700e-003
,,,3.00000000e-009,-5.75781198e-003
,,,3.02500000e-009,-5.39374945e-003
,,,3.05000000e-009,-5.07187443e-003
,,,3.07500000e-009,-4.79999941e-003
,,,3.10000000e-009,-4.65624940e-003
,,,3.12500000e-009,-4.55156189e-003
,,,3.15000000e-009,-4.47968689e-003
,,,3.17500000e-009,-4.43437438e-003
,,,3.20000000e-009,-4.41093688e-003
,,,3.22500000e-009,-4.40312438e-003
,,,3.25000000e-009,-4.40156188e-003
,,,3.27500000e-009,-4.39999938e-003
,,,3.30000000e-009,-4.44062438e-003
,,,3.32500000e-009,-4.45156188e-003
,,,3.35000000e-009,-4.43124938e-003
,,,3.37500000e-009,-4.37968688e-003
,,,3.40000000e-009,-4.30312437e-003
,,,3.42500000e-009,-4.20781187e-003
,,,3.45000000e-009,-4.10468686e-003
,,,3.47500000e-009,-3.99999935e-003
,,,3.50000000e-009,-3.93749935e-003
,,,3.52500000e-009,-3.87343684e-003
,,,3.55000000e-009,-3.80937434e-003
,,,3.57500000e-009,-3.74999933e-003
,,,3.60000000e-009,-3.69687433e-003
,,,3.62500000e-009,-3.65312433e-003
,,,3.65000000e-009,-3.62187433e-003
,,,3.67500000e-009,-3.59999932e-003
,,,3.70000000e-009,-3.61093682e-003
,,,3.72500000e-009,-3.62187433e-003
,,,3.75000000e-009,-3.62968683e-003
,,,3.77500000e-009,-3.63281183e-003
,,,3.80000000e-009,-3.63281183e-003
,,,3.82500000e-009,-3.62656183e-003
,,,3.85000000e-009,-3.61562432e-003
,,,3.87500000e-009,-3.59999932e-003
,,,3.90000000e-009,-3.58906182e-003
,,,3.92500000e-009,-3.56562432e-003
,,,3.95000000e-009,-3.52812432e-003
,,,3.97500000e-009,-3.47968681e-003
,,,4.00000000e-009,-3.42031181e-003
,,,4.02500000e-009,-3.35156181e-003
,,,4.05000000e-009,-3.27812430e-003
,,,4.07500000e-009,-3.19999930e-003
,,,4.10000000e-009,-3.12343679e-003
,,,4.12500000e-009,-3.04687428e-003
,,,4.15000000e-009,-2.97656178e-003
,,,4.17500000e-009,-2.91406177e-003
,,,4.20000000e-009,-2.86406177e-003
,,,4.22500000e-009,-2.82812427e-003
,,,4.25000000e-009,-2.80624927e-003
,,,4.27500000e-009,-2.79999927e-003
,,,4.30000000e-009,-2.80624927e-003
,,,4.32500000e-009,-2.81718677e-003
,,,4.35000000e-009,-2.83124927e-003
,,,4.37500000e-009,-2.84218677e-003
,,,4.40000000e-009,-2.84687427e-003
,,,4.42500000e-009,-2.84374927e-003
,,,4.45000000e-009,-2.82812427e-003
,,,4.47500000e-009,-2.79999927e-003
,,,4.50000000e-009,-2.75781176e-003
,,,4.52500000e-009,-2.70312426e-003
,,,4.55000000e-009,-2.64062426e-003
,,,4.57500000e-009,-2.57656175e-003
,,,4.60000000e-009,-2.51562425e-003
,,,4.62500000e-009,-2.46249924e-003
,,,4.65000000e-009,-2.42343674e-003
,,,4.67500000e-009,-2.39999924e-003
,,,4.70000000e-009,-2.39218674e-003
,,,4.72500000e-009,-2.39687424e-003
,,,4.75000000e-009,-2.40781174e-003
,,,4.77500000e-009,-2.42343674e-003
,,,4.80000000e-009,-2.43437424e-003
,,,4.82500000e-009,-2.43906174e-003
,,,4.85000000e-009,-2.42812424e-003
,,,4.87500000e-009,-2.39999924e-003
,,,4.90000000e-009,-2.35156174e-003
,,,4.92500000e-009,-2.27968673e-003
,,,4.95000000e-009,-2.18749922e-003
,,,4.97500000e-009,-2.07968672e-003
,,,5.00000000e-009,-1.96093671e-003
,,,5.02500000e-009,-1.83749920e-003
,,,5.05000000e-009,-1.71562419e-003
,,,5.07500000e-009,-1.59999918e-003
,,,5.10000000e-009,-1.50312418e-003
,,,5.12500000e-009,-1.41874917e-003
,,,5.15000000e-009,-1.34999916e-003
,,,5.17500000e-009,-1.29687416e-003
,,,5.20000000e-009,-1.25624916e-003
,,,5.22500000e-009,-1.22968666e-003
,,,5.25000000e-009,-1.21093665e-003
,,,5.27500000e-009,-1.19999915e-003
,,,5.30000000e-009,-1.20156165e-003
,,,5.32500000e-009,-1.20468665e-003
,,,5.35000000e-009,-1.20624915e-003
,,,5.37500000e-009,-1.20781165e-003
,,,5.40000000e-009,-1.20781165e-003
,,,5.42500000e-009,-1.20624915e-003
,,,5.45000000e-009,-1.20312415e-003
,,,5.47500000e-009,-1.19999915e-003
,,,5.50000000e-009,-1.20156165e-003
,,,5.52500000e-009,-1.19999915e-003
,,,5.55000000e-009,-1.19687415e-003
,,,5.57500000e-009,-1.19374915e-003
,,,5.60000000e-009,-1.19218665e-003
,,,5.62500000e-009,-1.19218665e-003
,,,5.65000000e-009,-1.19531165e-003
,,,5.67500000e-009,-1.19999915e-003
,,,5.70000000e-009,-1.21093665e-003
,,,5.72500000e-009,-1.21874915e-003
,,,5.75000000e-009,-1.22656166e-003
,,,5.77500000e-009,-1.22968666e-003
,,,5.80000000e-009,-1.22968666e-003
,,,5.82500000e-009,-1.22343666e-003
,,,5.85000000e-009,-1.21406165e-003
