RawData/WithScintilator/R7_2pt2B_15mV/wave007_Ch2.csv

"Record Length",1000,"Points",-7.72500000e-009,8.00000988e-004
"Sample Interval",2.50000000e-011,s,-7.70000000e-009,7.53125985e-004
"Trigger Point",309,"Samples",-7.67500000e-009,6.96875981e-004
"Trigger Time",1.18386969e-011,s,-7.65000000e-009,6.32813476e-004
"",,,-7.62500000e-009,5.68750972e-004
"Horizontal Offset",-7.72500000e-009,s,-7.60000000e-009,5.07813467e-004
,,,-7.57500000e-009,4.56250964e-004
,,,-7.55000000e-009,4.18750961e-004
,,,-7.52500000e-009,4.00000960e-004
,,,-7.50000000e-009,4.01563460e-004
,,,-7.47500000e-009,4.23438461e-004
,,,-7.45000000e-009,4.64063464e-004
,,,-7.42500000e-009,5.20313468e-004
,,,-7.40000000e-009,5.87500973e-004
,,,-7.37500000e-009,6.59375978e-004
,,,-7.35000000e-009,7.32813483e-004
,,,-7.32500000e-009,8.00000988e-004
,,,-7.30000000e-009,8.51563492e-004
,,,-7.27500000e-009,8.90625994e-004
,,,-7.25000000e-009,9.12500996e-004
,,,-7.22500000e-009,9.18750996e-004
,,,-7.20000000e-009,9.09375996e-004
,,,-7.17500000e-009,8.84375994e-004
,,,-7.15000000e-009,8.46875991e-004
,,,-7.12500000e-009,8.00000988e-004
,,,-7.10000000e-009,7.43750984e-004
,,,-7.07500000e-009,6.84375980e-004
,,,-7.05000000e-009,6.23438475e-004
,,,-7.02500000e-009,5.67188471e-004
,,,-7.00000000e-009,5.14063468e-004
,,,-6.97500000e-009,4.67188464e-004
,,,-6.95000000e-009,4.29688462e-004
,,,-6.92500000e-009,4.00000960e-004
,,,-6.90000000e-009,3.81250958e-004
,,,-6.87500000e-009,3.73438458e-004
,,,-6.85000000e-009,3.70313458e-004
,,,-6.82500000e-009,3.73438458e-004
,,,-6.80000000e-009,3.79688458e-004
,,,-6.77500000e-009,3.87500959e-004
,,,-6.75000000e-009,3.93750959e-004
,,,-6.72500000e-009,4.00000960e-004
,,,-6.70000000e-009,4.03125960e-004
,,,-6.67500000e-009,4.04688460e-004
,,,-6.65000000e-009,4.04688460e-004
,,,-6.62500000e-009,4.01563460e-004
,,,-6.60000000e-009,3.98438460e-004
,,,-6.57500000e-009,3.96875959e-004
,,,-6.55000000e-009,3.96875959e-004
,,,-6.52500000e-009,4.00000960e-004
,,,-6.50000000e-009,4.04688460e-004
,,,-6.47500000e-009,4.10938460e-004
,,,-6.45000000e-009,4.18750961e-004
,,,-6.42500000e-009,4.23438461e-004
,,,-6.40000000e-009,4.25000961e-004
,,,-6.37500000e-009,4.21875961e-004
,,,-6.35000000e-009,4.14063461e-004
,,,-6.32500000e-009,4.00000960e-004
,,,-6.30000000e-009,3.82813458e-004
,,,-6.27500000e-009,3.64063457e-004
,,,-6.25000000e-009,3.46875956e-004
,,,-6.22500000e-009,3.34375955e-004
,,,-6.20000000e-009,3.31250955e-004
,,,-6.17500000e-009,3.39063455e-004
,,,-6.15000000e-009,3.60938457e-004
,,,-6.12500000e-009,4.00000960e-004
,,,-6.10000000e-009,4.51563463e-004
,,,-6.07500000e-009,5.14063468e-004
,,,-6.05000000e-009,5.81250972e-004
,,,-6.02500000e-009,6.46875977e-004
,,,-6.00000000e-009,7.06250981e-004
,,,-5.97500000e-009,7.54688485e-004
,,,-5.95000000e-009,7.87500987e-004
,,,-5.92500000e-009,8.00000988e-004
,,,-5.90000000e-009,7.87500987e-004
,,,-5.87500000e-009,7.54688485e-004
,,,-5.85000000e-009,7.06250981e-004
,,,-5.82500000e-009,6.46875977e-004
,,,-5.80000000e-009,5.81250972e-004
,,,-5.77500000e-009,5.14063468e-004
,,,-5.75000000e-009,4.51563463e-004
,,,-5.72500000e-009,4.00000960e-004
,,,-5.70000000e-009,3.57813457e-004
,,,-5.67500000e-009,3.31250955e-004
,,,-5.65000000e-009,3.18750954e-004
,,,-5.62500000e-009,3.20313454e-004
,,,-5.60000000e-009,3.32813455e-004
,,,-5.57500000e-009,3.51563456e-004
,,,-5.55000000e-009,3.75000958e-004
,,,-5.52500000e-009,4.00000960e-004
,,,-5.50000000e-009,4.18750961e-004
,,,-5.47500000e-009,4.32813462e-004
,,,-5.45000000e-009,4.39063462e-004
,,,-5.42500000e-009,4.40625963e-004
,,,-5.40000000e-009,4.35938462e-004
,,,-5.37500000e-009,4.25000961e-004
,,,-5.35000000e-009,4.12500961e-004
,,,-5.32500000e-009,4.00000960e-004
,,,-5.30000000e-009,3.84375959e-004
,,,-5.27500000e-009,3.71875958e-004
,,,-5.25000000e-009,3.64063457e-004
,,,-5.22500000e-009,3.59375957e-004
,,,-5.20000000e-009,3.62500957e-004
,,,-5.17500000e-009,3.70313458e-004
,,,-5.15000000e-009,3.82813458e-004
,,,-5.12500000e-009,4.00000960e-004
,,,-5.10000000e-009,4.15625961e-004
,,,-5.07500000e-009,4.32813462e-004
,,,-5.05000000e-009,4.45313463e-004
,,,-5.02500000e-009,4.53125963e-004
,,,-5.00000000e-009,4.54688464e-004
,,,-4.97500000e-009,4.46875963e-004
,,,-4.95000000e-009,4.28125962e-004
,,,-4.92500000e-009,4.00000960e-004
,,,-4.90000000e-009,3.57813457e-004
,,,-4.87500000e-009,3.07813453e-004
,,,-4.85000000e-009,2.51563449e-004
,,,-4.82500000e-009,1.92188445e-004
,,,-4.80000000e-009,1.34375941e-004
,,,-4.77500000e-009,8.12509371e-005
,,,-4.75000000e-009,3.43759338e-005
,,,-4.72500000e-009,9.31322575e-010
,,,-4.70000000e-009,-2.34365703e-005
,,,-4.67500000e-009,-3.59365712e-005
,,,-4.65000000e-009,-3.74990713e-005
,,,-4.62500000e-009,-3.28115710e-005
,,,-4.60000000e-009,-2.49990704e-005
,,,-4.57500000e-009,-1.40615697e-005
,,,-4.55000000e-009,-6.24906912e-006
,,,-4.52500000e-009,9.31322575e-010
,,,-4.50000000e-009,1.56343143e-006
,,,-4.47500000e-009,9.31322575e-010
,,,-4.45000000e-009,-3.12406890e-006
,,,-4.42500000e-009,-9.37406934e-006
,,,-4.40000000e-009,-1.40615697e-005
,,,-4.37500000e-009,-1.40615697e-005
,,,-4.35000000e-009,-1.09365695e-005
,,,-4.32500000e-009,9.31322575e-010
,,,-4.30000000e-009,1.56259324e-005
,,,-4.27500000e-009,3.28134336e-005
,,,-4.25000000e-009,5.00009349e-005
,,,-4.22500000e-009,6.25009357e-005
,,,-4.20000000e-009,6.56259360e-005
,,,-4.17500000e-009,5.78134354e-005
,,,-4.15000000e-009,3.59384339e-005
,,,-4.12500000e-009,9.31322575e-010
,,,-4.10000000e-009,-4.99990722e-005
,,,-4.07500000e-009,-1.09374076e-004
,,,-4.05000000e-009,-1.74999081e-004
,,,-4.02500000e-009,-2.42186586e-004
,,,-4.00000000e-009,-3.03124090e-004
,,,-3.97500000e-009,-3.53124094e-004
,,,-3.95000000e-009,-3.85936596e-004
,,,-3.92500000e-009,-3.99999097e-004
,,,-3.90000000e-009,-3.85936596e-004
,,,-3.87500000e-009,-3.53124094e-004
,,,-3.85000000e-009,-3.03124090e-004
,,,-3.82500000e-009,-2.42186586e-004
,,,-3.80000000e-009,-1.74999081e-004
,,,-3.77500000e-009,-1.09374076e-004
,,,-3.75000000e-009,-4.99990722e-005
,,,-3.72500000e-009,9.31322575e-010
,,,-3.70000000e-009,3.43759338e-005
,,,-3.67500000e-009,5.46884352e-005
,,,-3.65000000e-009,6.09384356e-005
,,,-3.62500000e-009,5.62509353e-005
,,,-3.60000000e-009,4.37509344e-005
,,,-3.57500000e-009,2.65634332e-005
,,,-3.55000000e-009,1.09384321e-005
,,,-3.52500000e-009,9.31322575e-010
,,,-3.50000000e-009,-6.24906912e-006
,,,-3.47500000e-009,-6.24906912e-006
,,,-3.45000000e-009,-1.56156879e-006
,,,-3.42500000e-009,6.25093176e-006
,,,-3.40000000e-009,1.25009322e-005
,,,-3.37500000e-009,1.40634323e-005
,,,-3.35000000e-009,9.37593199e-006
,,,-3.32500000e-009,9.31322575e-010
,,,-3.30000000e-009,-1.56240698e-005
,,,-3.27500000e-009,-3.43740711e-005
,,,-3.25000000e-009,-5.15615723e-005
,,,-3.22500000e-009,-6.56240733e-005
,,,-3.20000000e-009,-7.03115737e-005
,,,-3.17500000e-009,-6.24990731e-005
,,,-3.15000000e-009,-4.06240716e-005
,,,-3.12500000e-009,9.31322575e-010
,,,-3.10000000e-009,5.46884352e-005
,,,-3.07500000e-009,1.21875940e-004
,,,-3.05000000e-009,1.93750945e-004
,,,-3.02500000e-009,2.64063450e-004
,,,-3.00000000e-009,3.26563454e-004
,,,-2.97500000e-009,3.71875958e-004
,,,-2.95000000e-009,3.96875959e-004
,,,-2.92500000e-009,4.00000960e-004
,,,-2.90000000e-009,3.71875958e-004
,,,-2.87500000e-009,3.23438454e-004
,,,-2.85000000e-009,2.62500950e-004
,,,-2.82500000e-009,1.92188445e-004
,,,-2.80000000e-009,1.23438440e-004
,,,-2.77500000e-009,6.40634359e-005
,,,-2.75000000e-009,2.18759329e-005
,,,-2.72500000e-009,9.31322575e-010
,,,-2.70000000e-009,9.31322575e-010
,,,-2.67500000e-009,2.34384330e-005
,,,-2.65000000e-009,6.87509362e-005
,,,-2.62500000e-009,1.29688441e-004
,,,-2.60000000e-009,1.98438445e-004
,,,-2.57500000e-009,2.71875951e-004
,,,-2.55000000e-009,3.40625955e-004
,,,-2.52500000e-009,4.00000960e-004
,,,-2.50000000e-009,4.42188463e-004
,,,-2.47500000e-009,4.68750965e-004
,,,-2.45000000e-009,4.79688465e-004
,,,-2.42500000e-009,4.78125965e-004
,,,-2.40000000e-009,4.64063464e-004
,,,-2.37500000e-009,4.43750963e-004
,,,-2.35000000e-009,4.20313461e-004
,,,-2.32500000e-009,4.00000960e-004
,,,-2.30000000e-009,3.79688458e-004
,,,-2.27500000e-009,3.68750957e-004
,,,-2.25000000e-009,3.64063457e-004
,,,-2.22500000e-009,3.67188457e-004
,,,-2.20000000e-009,3.75000958e-004
,,,-2.17500000e-009,3.84375959e-004
,,,-2.15000000e-009,3.93750959e-004
,,,-2.12500000e-009,4.00000960e-004
,,,-2.10000000e-009,3.90625959e-004
,,,-2.07500000e-009,3.71875958e-004
,,,-2.05000000e-009,3.40625955e-004
,,,-2.02500000e-009,2.96875952e-004
,,,-2.00000000e-009,2.39063448e-004
,,,-1.97500000e-009,1.68750943e-004
,,,-1.95000000e-009,8.75009375e-005
,,,-1.92500000e-009,9.31322575e-010
,,,-1.90000000e-009,-9.21865752e-005
,,,-1.87500000e-009,-1.81249082e-004
,,,-1.85000000e-009,-2.64061587e-004
,,,-1.82500000e-009,-3.34374092e-004
,,,-1.80000000e-009,-3.85936596e-004
,,,-1.77500000e-009,-4.17186598e-004
,,,-1.75000000e-009,-4.21874099e-004
,,,-1.72500000e-009,-3.99999097e-004
,,,-1.70000000e-009,-3.57811594e-004
,,,-1.67500000e-009,-2.92186589e-004
,,,-1.65000000e-009,-2.04686583e-004
,,,-1.62500000e-009,-9.99990758e-005
,,,-1.60000000e-009,1.87509326e-005
,,,-1.57500000e-009,1.46875942e-004
,,,-1.55000000e-009,2.75000951e-004
,,,-1.52500000e-009,4.00000960e-004
,,,-1.50000000e-009,4.85938466e-004
,,,-1.47500000e-009,5.50000970e-004
,,,-1.45000000e-009,5.89063473e-004
,,,-1.42500000e-009,5.98438474e-004
,,,-1.40000000e-009,5.82813473e-004
,,,-1.37500000e-009,5.42188470e-004
,,,-1.35000000e-009,4.79688465e-004
,,,-1.32500000e-009,4.00000960e-004
,,,-1.30000000e-009,2.67188450e-004
,,,-1.27500000e-009,1.25000940e-004
,,,-1.25000000e-009,-1.87490700e-005
,,,-1.22500000e-009,-1.49999079e-004
,,,-1.20000000e-009,-2.60936587e-004
,,,-1.17500000e-009,-3.42186593e-004
,,,-1.15000000e-009,-3.89061596e-004
,,,-1.12500000e-009,-3.99999097e-004
,,,-1.10000000e-009,-4.34374099e-004
,,,-1.07500000e-009,-4.49999101e-004
,,,-1.05000000e-009,-4.49999101e-004
,,,-1.02500000e-009,-4.39061600e-004
,,,-1.00000000e-009,-4.21874099e-004
,,,-9.75000000e-010,-4.04686597e-004
,,,-9.50000000e-010,-3.95311597e-004
,,,-9.25000000e-010,-3.99999097e-004
,,,-9.00000000e-010,-5.07811605e-004
,,,-8.75000000e-010,-6.53124115e-004
,,,-8.50000000e-010,-8.35936628e-004
,,,-8.25000000e-010,-1.04531164e-003
,,,-8.00000000e-010,-1.27499916e-003
,,,-7.75000000e-010,-1.51406168e-003
,,,-7.50000000e-010,-1.75781169e-003
,,,-7.25000000e-010,-1.99999921e-003
,,,-7.00000000e-010,-2.31562423e-003
,,,-6.75000000e-010,-2.63437426e-003
,,,-6.50000000e-010,-2.95156178e-003
,,,-6.25000000e-010,-3.26249930e-003
,,,-6.00000000e-010,-3.56406182e-003
,,,-5.75000000e-010,-3.85156184e-003
,,,-5.50000000e-010,-4.12968686e-003
,,,-5.25000000e-010,-4.39999938e-003
,,,-5.00000000e-010,-4.72812440e-003
,,,-4.75000000e-010,-5.07343693e-003
,,,-4.50000000e-010,-5.44218695e-003
,,,-4.25000000e-010,-5.83124948e-003
,,,-4.00000000e-010,-6.24374951e-003
,,,-3.75000000e-010,-6.67499954e-003
,,,-3.50000000e-010,-7.12656207e-003
,,,-3.25000000e-010,-7.59999961e-003
,,,-3.00000000e-010,-8.12499964e-003
,,,-2.75000000e-010,-8.68281218e-003
,,,-2.50000000e-010,-9.27031222e-003
,,,-2.25000000e-010,-9.88124977e-003
,,,-2.00000000e-010,-1.05078123e-002
,,,-1.75000000e-010,-1.11421874e-002
,,,-1.50000000e-010,-1.17749999e-002
,,,-1.25000000e-010,-1.23999999e-002
,,,-1.00000000e-010,-1.29953125e-002
,,,-7.50000000e-011,-1.35828125e-002
,,,-5.00000000e-011,-1.41625001e-002
,,,-2.50000000e-011,-1.47312501e-002
,,,0.00000000e+000,-1.52828127e-002
,,,2.50000000e-011,-1.58156252e-002
,,,5.00000000e-011,-1.63234377e-002
,,,7.50000000e-011,-1.68000003e-002
,,,1.00000000e-010,-1.71812503e-002
,,,1.25000000e-010,-1.75406253e-002
,,,1.50000000e-010,-1.78812503e-002
,,,1.75000000e-010,-1.82000004e-002
,,,2.00000000e-010,-1.84937504e-002
,,,2.25000000e-010,-1.87609379e-002
,,,2.50000000e-010,-1.89968754e-002
,,,2.75000000e-010,-1.92000004e-002
,,,3.00000000e-010,-1.92921879e-002
,,,3.25000000e-010,-1.93718754e-002
,,,3.50000000e-010,-1.94531254e-002
,,,3.75000000e-010,-1.95390630e-002
,,,4.00000000e-010,-1.96375005e-002
,,,4.25000000e-010,-1.97468755e-002
,,,4.50000000e-010,-1.98703130e-002
,,,4.75000000e-010,-2.00000005e-002
,,,5.00000000e-010,-2.00453130e-002
,,,5.25000000e-010,-2.01031255e-002
,,,5.50000000e-010,-2.01703130e-002
,,,5.75000000e-010,-2.02437505e-002
,,,6.00000000e-010,-2.03125005e-002
,,,6.25000000e-010,-2.03687505e-002
,,,6.50000000e-010,-2.04015630e-002
,,,6.75000000e-010,-2.04000005e-002
,,,7.00000000e-010,-2.02671880e-002
,,,7.25000000e-010,-2.01031255e-002
,,,7.50000000e-010,-1.99140630e-002
,,,7.75000000e-010,-1.97062505e-002
,,,8.00000000e-010,-1.94843754e-002
,,,8.25000000e-010,-1.92562504e-002
,,,8.50000000e-010,-1.90265629e-002
,,,8.75000000e-010,-1.88000004e-002
,,,9.00000000e-010,-1.85093754e-002
,,,9.25000000e-010,-1.82343754e-002
,,,9.50000000e-010,-1.79843753e-002
,,,9.75000000e-010,-1.77640628e-002
,,,1.00000000e-009,-1.75765628e-002
,,,1.02500000e-009,-1.74218753e-002
,,,1.05000000e-009,-1.72984378e-002
,,,1.07500000e-009,-1.72000003e-002
,,,1.10000000e-009,-1.70687503e-002
,,,1.12500000e-009,-1.69406253e-002
,,,1.15000000e-009,-1.68109378e-002
,,,1.17500000e-009,-1.66750002e-002
,,,1.20000000e-009,-1.65296877e-002
,,,1.22500000e-009,-1.63718752e-002
,,,1.25000000e-009,-1.61953127e-002
,,,1.27500000e-009,-1.60000002e-002
,,,1.30000000e-009,-1.57437502e-002
,,,1.32500000e-009,-1.54578127e-002
,,,1.35000000e-009,-1.51515626e-002
,,,1.37500000e-009,-1.48312501e-002
,,,1.40000000e-009,-1.45078126e-002
,,,1.42500000e-009,-1.41921876e-002
,,,1.45000000e-009,-1.38875001e-002
,,,1.47500000e-009,-1.36000000e-002
,,,1.50000000e-009,-1.33109375e-002
,,,1.52500000e-009,-1.30234375e-002
,,,1.55000000e-009,-1.27359375e-002
,,,1.57500000e-009,-1.24468749e-002
,,,1.60000000e-009,-1.21499999e-002
,,,1.62500000e-009,-1.18453124e-002
,,,1.65000000e-009,-1.15296874e-002
,,,1.67500000e-009,-1.11999999e-002
,,,1.70000000e-009,-1.08609373e-002
,,,1.72500000e-009,-1.04984373e-002
,,,1.75000000e-009,-1.01218748e-002
,,,1.77500000e-009,-9.74062476e-003
,,,1.80000000e-009,-9.36874973e-003
,,,1.82500000e-009,-9.01406221e-003
,,,1.85000000e-009,-8.68906218e-003
,,,1.87500000e-009,-8.39999966e-003
,,,1.90000000e-009,-8.16562465e-003
,,,1.92500000e-009,-7.95468713e-003
,,,1.95000000e-009,-7.75781212e-003
,,,1.97500000e-009,-7.57343710e-003
,,,2.00000000e-009,-7.39062459e-003
,,,2.02500000e-009,-7.20468708e-003
,,,2.05000000e-009,-7.00937456e-003
,,,2.07500000e-009,-6.79999955e-003
,,,2.10000000e-009,-6.59999954e-003
,,,2.12500000e-009,-6.37187452e-003
,,,2.15000000e-009,-6.11874950e-003
,,,2.17500000e-009,-5.84843698e-003
,,,2.20000000e-009,-5.56874946e-003
,,,2.22500000e-009,-5.29531194e-003
,,,2.25000000e-009,-5.03593693e-003
,,,2.27500000e-009,-4.79999941e-003
,,,2.30000000e-009,-4.63437440e-003
,,,2.32500000e-009,-4.48906189e-003
,,,2.35000000e-009,-4.36718688e-003
,,,2.37500000e-009,-4.26406187e-003
,,,2.40000000e-009,-4.17812436e-003
,,,2.42500000e-009,-4.10781186e-003
,,,2.45000000e-009,-4.04999936e-003
,,,2.47500000e-009,-3.99999935e-003
,,,2.50000000e-009,-3.98906185e-003
,,,2.52500000e-009,-3.96562435e-003
,,,2.55000000e-009,-3.92968685e-003
,,,2.57500000e-009,-3.87968684e-003
,,,2.60000000e-009,-3.81874934e-003
,,,2.62500000e-009,-3.74843683e-003
,,,2.65000000e-009,-3.67499933e-003
,,,2.67500000e-009,-3.59999932e-003
,,,2.70000000e-009,-3.55468682e-003
,,,2.72500000e-009,-3.50468682e-003
,,,2.75000000e-009,-3.44999931e-003
,,,2.77500000e-009,-3.39374931e-003
,,,2.80000000e-009,-3.33906181e-003
,,,2.82500000e-009,-3.28749930e-003
,,,2.85000000e-009,-3.24062430e-003
,,,2.87500000e-009,-3.19999930e-003
,,,2.90000000e-009,-3.18906179e-003
,,,2.92500000e-009,-3.17968679e-003
,,,2.95000000e-009,-3.17343679e-003
,,,2.97500000e-009,-3.17031179e-003
,,,3.00000000e-009,-3.17031179e-003
,,,3.02500000e-009,-3.17656179e-003
,,,3.05000000e-009,-3.18593679e-003
,,,3.07500000e-009,-3.19999930e-003
,,,3.10000000e-009,-3.22812430e-003
,,,3.12500000e-009,-3.24999930e-003
,,,3.15000000e-009,-3.26406180e-003
,,,3.17500000e-009,-3.27031180e-003
,,,3.20000000e-009,-3.26718680e-003
,,,3.22500000e-009,-3.25468680e-003
,,,3.25000000e-009,-3.23281180e-003
,,,3.27500000e-009,-3.19999930e-003
,,,3.30000000e-009,-3.16249929e-003
,,,3.32500000e-009,-3.11718679e-003
,,,3.35000000e-009,-3.06406179e-003
,,,3.37500000e-009,-3.00781178e-003
,,,3.40000000e-009,-2.94999928e-003
,,,3.42500000e-009,-2.89374927e-003
,,,3.45000000e-009,-2.84374927e-003
,,,3.47500000e-009,-2.79999927e-003
,,,3.50000000e-009,-2.76718676e-003
,,,3.52500000e-009,-2.74218676e-003
,,,3.55000000e-009,-2.72656176e-003
,,,3.57500000e-009,-2.72187426e-003
,,,3.60000000e-009,-2.72812426e-003
,,,3.62500000e-009,-2.74531176e-003
,,,3.65000000e-009,-2.77031176e-003
,,,3.67500000e-009,-2.79999927e-003
,,,3.70000000e-009,-2.83124927e-003
,,,3.72500000e-009,-2.85937427e-003
,,,3.75000000e-009,-2.87968677e-003
,,,3.77500000e-009,-2.88906177e-003
,,,3.80000000e-009,-2.88749927e-003
,,,3.82500000e-009,-2.87343677e-003
,,,3.85000000e-009,-2.84374927e-003
,,,3.87500000e-009,-2.79999927e-003
,,,3.90000000e-009,-2.73906176e-003
,,,3.92500000e-009,-2.67031176e-003
,,,3.95000000e-009,-2.59843675e-003
,,,3.97500000e-009,-2.53124925e-003
,,,4.00000000e-009,-2.47343674e-003
,,,4.02500000e-009,-2.42968674e-003
,,,4.05000000e-009,-2.40624924e-003
,,,4.07500000e-009,-2.39999924e-003
,,,4.10000000e-009,-2.40937424e-003
,,,4.12500000e-009,-2.42812424e-003
,,,4.15000000e-009,-2.45156174e-003
,,,4.17500000e-009,-2.47187424e-003
,,,4.20000000e-009,-2.48437424e-003
,,,4.22500000e-009,-2.47812424e-003
,,,4.25000000e-009,-2.45156174e-003
,,,4.27500000e-009,-2.39999924e-003
,,,4.30000000e-009,-2.32187423e-003
,,,4.32500000e-009,-2.22187423e-003
,,,4.35000000e-009,-2.10624922e-003
,,,4.37500000e-009,-1.98281171e-003
,,,4.40000000e-009,-1.86249920e-003
,,,4.42500000e-009,-1.75468669e-003
,,,4.45000000e-009,-1.66562419e-003
,,,4.47500000e-009,-1.59999918e-003
,,,4.50000000e-009,-1.56406168e-003
,,,4.52500000e-009,-1.55156168e-003
,,,4.55000000e-009,-1.55937418e-003
,,,4.57500000e-009,-1.57656168e-003
,,,4.60000000e-009,-1.59843668e-003
,,,4.62500000e-009,-1.61562418e-003
,,,4.65000000e-009,-1.61874918e-003
,,,4.67500000e-009,-1.59999918e-003
,,,4.70000000e-009,-1.56249918e-003
,,,4.72500000e-009,-1.49687417e-003
,,,4.75000000e-009,-1.40624917e-003
,,,4.77500000e-009,-1.29531166e-003
,,,4.80000000e-009,-1.17031165e-003
,,,4.82500000e-009,-1.04218664e-003
,,,4.85000000e-009,-9.15624133e-004
,,,4.87500000e-009,-7.99999125e-004
,,,4.90000000e-009,-7.15624119e-004
,,,4.92500000e-009,-6.53124115e-004
,,,4.95000000e-009,-6.17186612e-004
,,,4.97500000e-009,-6.07811612e-004
,,,5.00000000e-009,-6.24999113e-004
,,,5.02500000e-009,-6.65624116e-004
,,,5.05000000e-009,-7.24999120e-004
,,,5.07500000e-009,-7.99999125e-004
,,,5.10000000e-009,-8.92186632e-004
,,,5.12500000e-009,-9.82811638e-004
,,,5.15000000e-009,-1.06562414e-003
,,,5.17500000e-009,-1.13437415e-003
,,,5.20000000e-009,-1.18437415e-003
,,,5.22500000e-009,-1.21406165e-003
,,,5.25000000e-009,-1.21874915e-003
,,,5.27500000e-009,-1.19999915e-003
,,,5.30000000e-009,-1.16718665e-003
,,,5.32500000e-009,-1.11562415e-003
,,,5.35000000e-009,-1.05156164e-003
,,,5.37500000e-009,-9.84374138e-004
,,,5.40000000e-009,-9.18749134e-004
,,,5.42500000e-009,-8.62499130e-004
,,,5.45000000e-009,-8.21874127e-004
,,,5.47500000e-009,-7.99999125e-004
,,,5.50000000e-009,-8.04686626e-004
,,,5.52500000e-009,-8.28124127e-004
,,,5.55000000e-009,-8.71874130e-004
,,,5.57500000e-009,-9.29686634e-004
,,,5.60000000e-009,-9.96874139e-004
,,,5.62500000e-009,-1.06874914e-003
,,,5.65000000e-009,-1.13749915e-003
,,,5.67500000e-009,-1.19999915e-003
,,,5.70000000e-009,-1.25156166e-003
,,,5.72500000e-009,-1.28593666e-003
,,,5.75000000e-009,-1.30312416e-003
,,,5.77500000e-009,-1.30468666e-003
,,,5.80000000e-009,-1.29218666e-003
,,,5.82500000e-009,-1.26718666e-003
,,,5.85000000e-009,-1.23593666e-003
,,,5.87500000e-009,-1.19999915e-003
,,,5.90000000e-009,-1.16406165e-003
,,,5.92500000e-009,-1.13437415e-003
,,,5.95000000e-009,-1.11249915e-003
