RawData/WithScintilator/R7_2pt2B_15mV/wave017_Ch2.csv

"Record Length",1000,"Points",-7.72500000e-009,-7.43749121e-004
"Sample Interval",2.50000000e-011,s,-7.70000000e-009,-6.82811617e-004
"Trigger Point",309,"Samples",-7.67500000e-009,-6.21874113e-004
"Trigger Time",2.30658015e-011,s,-7.65000000e-009,-5.62499108e-004
"",,,-7.62500000e-009,-5.09374105e-004
"Horizontal Offset",-7.72500000e-009,s,-7.60000000e-009,-4.64061602e-004
,,,-7.57500000e-009,-4.28124099e-004
,,,-7.55000000e-009,-3.99999097e-004
,,,-7.52500000e-009,-3.82811596e-004
,,,-7.50000000e-009,-3.73436595e-004
,,,-7.47500000e-009,-3.71874095e-004
,,,-7.45000000e-009,-3.76561595e-004
,,,-7.42500000e-009,-3.84374096e-004
,,,-7.40000000e-009,-3.92186596e-004
,,,-7.37500000e-009,-3.98436597e-004
,,,-7.35000000e-009,-3.99999097e-004
,,,-7.32500000e-009,-3.96874097e-004
,,,-7.30000000e-009,-3.89061596e-004
,,,-7.27500000e-009,-3.79686596e-004
,,,-7.25000000e-009,-3.71874095e-004
,,,-7.22500000e-009,-3.68749095e-004
,,,-7.20000000e-009,-3.71874095e-004
,,,-7.17500000e-009,-3.82811596e-004
,,,-7.15000000e-009,-3.99999097e-004
,,,-7.12500000e-009,-4.23436599e-004
,,,-7.10000000e-009,-4.48436600e-004
,,,-7.07500000e-009,-4.71874102e-004
,,,-7.05000000e-009,-4.87499103e-004
,,,-7.02500000e-009,-4.92186604e-004
,,,-7.00000000e-009,-4.79686603e-004
,,,-6.97500000e-009,-4.49999101e-004
,,,-6.95000000e-009,-3.99999097e-004
,,,-6.92500000e-009,-3.32811592e-004
,,,-6.90000000e-009,-2.54686587e-004
,,,-6.87500000e-009,-1.73436581e-004
,,,-6.85000000e-009,-9.68740755e-005
,,,-6.82500000e-009,-3.43740711e-005
,,,-6.80000000e-009,6.25093176e-006
,,,-6.77500000e-009,1.71884325e-005
,,,-6.75000000e-009,9.31322575e-010
,,,-6.72500000e-009,-5.15615723e-005
,,,-6.70000000e-009,-1.21874077e-004
,,,-6.67500000e-009,-2.04686583e-004
,,,-6.65000000e-009,-2.87499089e-004
,,,-6.62500000e-009,-3.59374094e-004
,,,-6.60000000e-009,-4.06249097e-004
,,,-6.57500000e-009,-4.21874099e-004
,,,-6.55000000e-009,-3.99999097e-004
,,,-6.52500000e-009,-3.40624093e-004
,,,-6.50000000e-009,-2.46874086e-004
,,,-6.47500000e-009,-1.29686578e-004
,,,-6.45000000e-009,1.56343143e-006
,,,-6.42500000e-009,1.31250941e-004
,,,-6.40000000e-009,2.48438449e-004
,,,-6.37500000e-009,3.40625955e-004
,,,-6.35000000e-009,4.00000960e-004
,,,-6.32500000e-009,4.12500961e-004
,,,-6.30000000e-009,3.90625959e-004
,,,-6.27500000e-009,3.37500955e-004
,,,-6.25000000e-009,2.64063450e-004
,,,-6.22500000e-009,1.81250944e-004
,,,-6.20000000e-009,1.03125939e-004
,,,-6.17500000e-009,3.90634341e-005
,,,-6.15000000e-009,9.31322575e-010
,,,-6.12500000e-009,-1.24990696e-005
,,,-6.10000000e-009,6.25093176e-006
,,,-6.07500000e-009,5.15634350e-005
,,,-6.05000000e-009,1.18750940e-004
,,,-6.02500000e-009,1.96875945e-004
,,,-6.00000000e-009,2.76563451e-004
,,,-5.97500000e-009,3.46875956e-004
,,,-5.95000000e-009,4.00000960e-004
,,,-5.92500000e-009,4.23438461e-004
,,,-5.90000000e-009,4.21875961e-004
,,,-5.87500000e-009,3.93750959e-004
,,,-5.85000000e-009,3.40625955e-004
,,,-5.82500000e-009,2.68750950e-004
,,,-5.80000000e-009,1.84375944e-004
,,,-5.77500000e-009,9.21884378e-005
,,,-5.75000000e-009,9.31322575e-010
,,,-5.72500000e-009,-8.59365748e-005
,,,-5.70000000e-009,-1.62499080e-004
,,,-5.67500000e-009,-2.26561585e-004
,,,-5.65000000e-009,-2.79686588e-004
,,,-5.62500000e-009,-3.20311591e-004
,,,-5.60000000e-009,-3.53124094e-004
,,,-5.57500000e-009,-3.79686596e-004
,,,-5.55000000e-009,-3.99999097e-004
,,,-5.52500000e-009,-4.14061598e-004
,,,-5.50000000e-009,-4.23436599e-004
,,,-5.47500000e-009,-4.29686599e-004
,,,-5.45000000e-009,-4.32811599e-004
,,,-5.42500000e-009,-4.32811599e-004
,,,-5.40000000e-009,-4.28124099e-004
,,,-5.37500000e-009,-4.17186598e-004
,,,-5.35000000e-009,-3.99999097e-004
,,,-5.32500000e-009,-3.70311595e-004
,,,-5.30000000e-009,-3.32811592e-004
,,,-5.27500000e-009,-2.89061589e-004
,,,-5.25000000e-009,-2.39061586e-004
,,,-5.22500000e-009,-1.85936582e-004
,,,-5.20000000e-009,-1.26561578e-004
,,,-5.17500000e-009,-6.40615732e-005
,,,-5.15000000e-009,9.31322575e-010
,,,-5.12500000e-009,6.56259360e-005
,,,-5.10000000e-009,1.28125940e-004
,,,-5.07500000e-009,1.89063445e-004
,,,-5.05000000e-009,2.45313449e-004
,,,-5.02500000e-009,2.95313452e-004
,,,-5.00000000e-009,3.37500955e-004
,,,-4.97500000e-009,3.71875958e-004
,,,-4.95000000e-009,4.00000960e-004
,,,-4.92500000e-009,4.17188461e-004
,,,-4.90000000e-009,4.28125962e-004
,,,-4.87500000e-009,4.31250962e-004
,,,-4.85000000e-009,4.29688462e-004
,,,-4.82500000e-009,4.23438461e-004
,,,-4.80000000e-009,4.15625961e-004
,,,-4.77500000e-009,4.07813460e-004
,,,-4.75000000e-009,4.00000960e-004
,,,-4.72500000e-009,3.90625959e-004
,,,-4.70000000e-009,3.85938459e-004
,,,-4.67500000e-009,3.82813458e-004
,,,-4.65000000e-009,3.84375959e-004
,,,-4.62500000e-009,3.85938459e-004
,,,-4.60000000e-009,3.90625959e-004
,,,-4.57500000e-009,3.95313459e-004
,,,-4.55000000e-009,4.00000960e-004
,,,-4.52500000e-009,4.00000960e-004
,,,-4.50000000e-009,4.00000960e-004
,,,-4.47500000e-009,4.01563460e-004
,,,-4.45000000e-009,4.01563460e-004
,,,-4.42500000e-009,4.00000960e-004
,,,-4.40000000e-009,4.00000960e-004
,,,-4.37500000e-009,4.00000960e-004
,,,-4.35000000e-009,4.00000960e-004
,,,-4.32500000e-009,3.95313459e-004
,,,-4.30000000e-009,3.93750959e-004
,,,-4.27500000e-009,3.92188459e-004
,,,-4.25000000e-009,3.92188459e-004
,,,-4.22500000e-009,3.93750959e-004
,,,-4.20000000e-009,3.95313459e-004
,,,-4.17500000e-009,3.96875959e-004
,,,-4.15000000e-009,4.00000960e-004
,,,-4.12500000e-009,3.95313459e-004
,,,-4.10000000e-009,3.92188459e-004
,,,-4.07500000e-009,3.87500959e-004
,,,-4.05000000e-009,3.85938459e-004
,,,-4.02500000e-009,3.85938459e-004
,,,-4.00000000e-009,3.87500959e-004
,,,-3.97500000e-009,3.92188459e-004
,,,-3.95000000e-009,4.00000960e-004
,,,-3.92500000e-009,4.06250960e-004
,,,-3.90000000e-009,4.12500961e-004
,,,-3.87500000e-009,4.18750961e-004
,,,-3.85000000e-009,4.23438461e-004
,,,-3.82500000e-009,4.23438461e-004
,,,-3.80000000e-009,4.20313461e-004
,,,-3.77500000e-009,4.10938460e-004
,,,-3.75000000e-009,4.00000960e-004
,,,-3.72500000e-009,3.81250958e-004
,,,-3.70000000e-009,3.62500957e-004
,,,-3.67500000e-009,3.45313456e-004
,,,-3.65000000e-009,3.35938455e-004
,,,-3.62500000e-009,3.34375955e-004
,,,-3.60000000e-009,3.45313456e-004
,,,-3.57500000e-009,3.67188457e-004
,,,-3.55000000e-009,4.00000960e-004
,,,-3.52500000e-009,4.39063462e-004
,,,-3.50000000e-009,4.79688465e-004
,,,-3.47500000e-009,5.17188468e-004
,,,-3.45000000e-009,5.40625970e-004
,,,-3.42500000e-009,5.45313470e-004
,,,-3.40000000e-009,5.26563469e-004
,,,-3.37500000e-009,4.76563465e-004
,,,-3.35000000e-009,4.00000960e-004
,,,-3.32500000e-009,2.95313452e-004
,,,-3.30000000e-009,1.73438444e-004
,,,-3.27500000e-009,4.06259342e-005
,,,-3.25000000e-009,-8.90615750e-005
,,,-3.22500000e-009,-2.07811583e-004
,,,-3.20000000e-009,-3.04686590e-004
,,,-3.17500000e-009,-3.70311595e-004
,,,-3.15000000e-009,-3.99999097e-004
,,,-3.12500000e-009,-3.89061596e-004
,,,-3.10000000e-009,-3.45311593e-004
,,,-3.07500000e-009,-2.78124088e-004
,,,-3.05000000e-009,-1.99999083e-004
,,,-3.02500000e-009,-1.23436577e-004
,,,-3.00000000e-009,-5.78115728e-005
,,,-2.97500000e-009,-1.40615697e-005
,,,-2.95000000e-009,9.31322575e-010
,,,-2.92500000e-009,-1.40615697e-005
,,,-2.90000000e-009,-5.78115728e-005
,,,-2.87500000e-009,-1.23436577e-004
,,,-2.85000000e-009,-1.99999083e-004
,,,-2.82500000e-009,-2.78124088e-004
,,,-2.80000000e-009,-3.45311593e-004
,,,-2.77500000e-009,-3.89061596e-004
,,,-2.75000000e-009,-3.99999097e-004
,,,-2.72500000e-009,-3.70311595e-004
,,,-2.70000000e-009,-3.04686590e-004
,,,-2.67500000e-009,-2.07811583e-004
,,,-2.65000000e-009,-8.90615750e-005
,,,-2.62500000e-009,4.06259342e-005
,,,-2.60000000e-009,1.73438444e-004
,,,-2.57500000e-009,2.95313452e-004
,,,-2.55000000e-009,4.00000960e-004
,,,-2.52500000e-009,4.76563465e-004
,,,-2.50000000e-009,5.26563469e-004
,,,-2.47500000e-009,5.45313470e-004
,,,-2.45000000e-009,5.40625970e-004
,,,-2.42500000e-009,5.17188468e-004
,,,-2.40000000e-009,4.79688465e-004
,,,-2.37500000e-009,4.39063462e-004
,,,-2.35000000e-009,4.00000960e-004
,,,-2.32500000e-009,3.67188457e-004
,,,-2.30000000e-009,3.45313456e-004
,,,-2.27500000e-009,3.34375955e-004
,,,-2.25000000e-009,3.35938455e-004
,,,-2.22500000e-009,3.45313456e-004
,,,-2.20000000e-009,3.62500957e-004
,,,-2.17500000e-009,3.81250958e-004
,,,-2.15000000e-009,4.00000960e-004
,,,-2.12500000e-009,4.09375960e-004
,,,-2.10000000e-009,4.15625961e-004
,,,-2.07500000e-009,4.17188461e-004
,,,-2.05000000e-009,4.15625961e-004
,,,-2.02500000e-009,4.12500961e-004
,,,-2.00000000e-009,4.07813460e-004
,,,-1.97500000e-009,4.03125960e-004
,,,-1.95000000e-009,4.00000960e-004
,,,-1.92500000e-009,3.89063459e-004
,,,-1.90000000e-009,3.81250958e-004
,,,-1.87500000e-009,3.75000958e-004
,,,-1.85000000e-009,3.73438458e-004
,,,-1.82500000e-009,3.75000958e-004
,,,-1.80000000e-009,3.81250958e-004
,,,-1.77500000e-009,3.89063459e-004
,,,-1.75000000e-009,4.00000960e-004
,,,-1.72500000e-009,3.85938459e-004
,,,-1.70000000e-009,3.73438458e-004
,,,-1.67500000e-009,3.60938457e-004
,,,-1.65000000e-009,3.53125956e-004
,,,-1.62500000e-009,3.51563456e-004
,,,-1.60000000e-009,3.57813457e-004
,,,-1.57500000e-009,3.75000958e-004
,,,-1.55000000e-009,4.00000960e-004
,,,-1.52500000e-009,3.98438460e-004
,,,-1.50000000e-009,3.95313459e-004
,,,-1.47500000e-009,3.93750959e-004
,,,-1.45000000e-009,3.93750959e-004
,,,-1.42500000e-009,3.93750959e-004
,,,-1.40000000e-009,3.95313459e-004
,,,-1.37500000e-009,3.96875959e-004
,,,-1.35000000e-009,4.00000960e-004
,,,-1.32500000e-009,3.45313456e-004
,,,-1.30000000e-009,2.81250951e-004
,,,-1.27500000e-009,2.14063446e-004
,,,-1.25000000e-009,1.50000942e-004
,,,-1.22500000e-009,9.37509380e-005
,,,-1.20000000e-009,5.00009349e-005
,,,-1.17500000e-009,1.87509326e-005
,,,-1.15000000e-009,9.31322575e-010
,,,-1.12500000e-009,-8.28115745e-005
,,,-1.10000000e-009,-1.76561581e-004
,,,-1.07500000e-009,-2.89061589e-004
,,,-1.05000000e-009,-4.20311598e-004
,,,-1.02500000e-009,-5.73436609e-004
,,,-1.00000000e-009,-7.54686622e-004
,,,-9.75000000e-010,-9.62499137e-004
,,,-9.50000000e-010,-1.19999915e-003
,,,-9.25000000e-010,-1.52968668e-003
,,,-9.00000000e-010,-1.89062420e-003
,,,-8.75000000e-010,-2.27187423e-003
,,,-8.50000000e-010,-2.65781176e-003
,,,-8.25000000e-010,-3.03437428e-003
,,,-8.00000000e-010,-3.38906181e-003
,,,-7.75000000e-010,-3.71249933e-003
,,,-7.50000000e-010,-3.99999935e-003
,,,-7.25000000e-010,-4.29687437e-003
,,,-7.00000000e-010,-4.57656189e-003
,,,-6.75000000e-010,-4.84843691e-003
,,,-6.50000000e-010,-5.11874943e-003
,,,-6.25000000e-010,-5.39843695e-003
,,,-6.00000000e-010,-5.69999947e-003
,,,-5.75000000e-010,-6.03124950e-003
,,,-5.50000000e-010,-6.39999952e-003
,,,-5.25000000e-010,-6.83281205e-003
,,,-5.00000000e-010,-7.32031209e-003
,,,-4.75000000e-010,-7.85468712e-003
,,,-4.50000000e-010,-8.42812467e-003
,,,-4.25000000e-010,-9.02499971e-003
,,,-4.00000000e-010,-9.62812475e-003
,,,-3.75000000e-010,-1.02249998e-002
,,,-3.50000000e-010,-1.07999998e-002
,,,-3.25000000e-010,-1.13203124e-002
,,,-3.00000000e-010,-1.18078124e-002
,,,-2.75000000e-010,-1.22609374e-002
,,,-2.50000000e-010,-1.26796875e-002
,,,-2.25000000e-010,-1.30609375e-002
,,,-2.00000000e-010,-1.34078125e-002
,,,-1.75000000e-010,-1.37187500e-002
,,,-1.50000000e-010,-1.40000001e-002
,,,-1.25000000e-010,-1.42031251e-002
,,,-1.00000000e-010,-1.43968751e-002
,,,-7.50000000e-011,-1.45921876e-002
,,,-5.00000000e-011,-1.47906251e-002
,,,-2.50000000e-011,-1.49921876e-002
,,,0.00000000e+000,-1.51968751e-002
,,,2.50000000e-011,-1.54015627e-002
,,,5.00000000e-011,-1.56000002e-002
,,,7.50000000e-011,-1.57203127e-002
,,,1.00000000e-010,-1.58406252e-002
,,,1.25000000e-010,-1.59593752e-002
,,,1.50000000e-010,-1.60734377e-002
,,,1.75000000e-010,-1.61812502e-002
,,,2.00000000e-010,-1.62734377e-002
,,,2.25000000e-010,-1.63484377e-002
,,,2.50000000e-010,-1.64000002e-002
,,,2.75000000e-010,-1.63500002e-002
,,,3.00000000e-010,-1.62875002e-002
,,,3.25000000e-010,-1.62203127e-002
,,,3.50000000e-010,-1.61546877e-002
,,,3.75000000e-010,-1.60984377e-002
,,,4.00000000e-010,-1.60515627e-002
,,,4.25000000e-010,-1.60203127e-002
,,,4.50000000e-010,-1.60000002e-002
,,,4.75000000e-010,-1.59187502e-002
,,,5.00000000e-010,-1.58500002e-002
,,,5.25000000e-010,-1.57984377e-002
,,,5.50000000e-010,-1.57562502e-002
,,,5.75000000e-010,-1.57234377e-002
,,,6.00000000e-010,-1.56906252e-002
,,,6.25000000e-010,-1.56515627e-002
,,,6.50000000e-010,-1.56000002e-002
,,,6.75000000e-010,-1.54703127e-002
,,,7.00000000e-010,-1.53218752e-002
,,,7.25000000e-010,-1.51625001e-002
,,,7.50000000e-010,-1.49984376e-002
,,,7.75000000e-010,-1.48359376e-002
,,,8.00000000e-010,-1.46796876e-002
,,,8.25000000e-010,-1.45343751e-002
,,,8.50000000e-010,-1.44000001e-002
,,,8.75000000e-010,-1.42265626e-002
,,,9.00000000e-010,-1.40515626e-002
,,,9.25000000e-010,-1.38734376e-002
,,,9.50000000e-010,-1.36890625e-002
,,,9.75000000e-010,-1.34937500e-002
,,,1.00000000e-009,-1.32828125e-002
,,,1.02500000e-009,-1.30531250e-002
,,,1.05000000e-009,-1.28000000e-002
,,,1.07500000e-009,-1.24890625e-002
,,,1.10000000e-009,-1.21484374e-002
,,,1.12500000e-009,-1.17874999e-002
,,,1.15000000e-009,-1.14124999e-002
,,,1.17500000e-009,-1.10359373e-002
,,,1.20000000e-009,-1.06703123e-002
,,,1.22500000e-009,-1.03234373e-002
,,,1.25000000e-009,-9.99999978e-003
,,,1.27500000e-009,-9.69531225e-003
,,,1.30000000e-009,-9.40937473e-003
,,,1.32500000e-009,-9.14218722e-003
,,,1.35000000e-009,-8.89218720e-003
,,,1.37500000e-009,-8.65624968e-003
,,,1.40000000e-009,-8.43124967e-003
,,,1.42500000e-009,-8.21406215e-003
,,,1.45000000e-009,-7.99999963e-003
,,,1.47500000e-009,-7.78749962e-003
,,,1.50000000e-009,-7.55781210e-003
,,,1.52500000e-009,-7.31249959e-003
,,,1.55000000e-009,-7.05468707e-003
,,,1.57500000e-009,-6.78906205e-003
,,,1.60000000e-009,-6.52031203e-003
,,,1.62500000e-009,-6.25624951e-003
,,,1.65000000e-009,-5.99999949e-003
,,,1.67500000e-009,-5.77187448e-003
,,,1.70000000e-009,-5.54687446e-003
,,,1.72500000e-009,-5.32812445e-003
,,,1.75000000e-009,-5.11562443e-003
,,,1.77500000e-009,-4.91562442e-003
,,,1.80000000e-009,-4.72968690e-003
,,,1.82500000e-009,-4.55781189e-003
,,,1.85000000e-009,-4.39999938e-003
,,,1.87500000e-009,-4.27812437e-003
,,,1.90000000e-009,-4.15156186e-003
,,,1.92500000e-009,-4.01562435e-003
,,,1.95000000e-009,-3.87187434e-003
,,,1.97500000e-009,-3.71562433e-003
,,,2.00000000e-009,-3.55156182e-003
,,,2.02500000e-009,-3.37812431e-003
,,,2.05000000e-009,-3.19999930e-003
,,,2.07500000e-009,-3.04843678e-003
,,,2.10000000e-009,-2.88749927e-003
,,,2.12500000e-009,-2.72031176e-003
,,,2.15000000e-009,-2.55156175e-003
,,,2.17500000e-009,-2.38906174e-003
,,,2.20000000e-009,-2.24062423e-003
,,,2.22500000e-009,-2.10937422e-003
,,,2.25000000e-009,-1.99999921e-003
,,,2.27500000e-009,-1.94218671e-003
,,,2.30000000e-009,-1.89531170e-003
,,,2.32500000e-009,-1.85468670e-003
,,,2.35000000e-009,-1.81718670e-003
,,,2.37500000e-009,-1.77656169e-003
,,,2.40000000e-009,-1.72812419e-003
,,,2.42500000e-009,-1.67031169e-003
,,,2.45000000e-009,-1.59999918e-003
,,,2.47500000e-009,-1.53906168e-003
,,,2.50000000e-009,-1.45624917e-003
,,,2.52500000e-009,-1.35781166e-003
,,,2.55000000e-009,-1.24374916e-003
,,,2.57500000e-009,-1.12499915e-003
,,,2.60000000e-009,-1.00624914e-003
,,,2.62500000e-009,-8.95311632e-004
,,,2.65000000e-009,-7.99999125e-004
,,,2.67500000e-009,-7.46874122e-004
,,,2.70000000e-009,-7.09374119e-004
,,,2.72500000e-009,-6.89061617e-004
,,,2.75000000e-009,-6.84374117e-004
,,,2.77500000e-009,-6.96874118e-004
,,,2.80000000e-009,-7.20311620e-004
,,,2.82500000e-009,-7.56249122e-004
,,,2.85000000e-009,-7.99999125e-004
,,,2.87500000e-009,-8.64061630e-004
,,,2.90000000e-009,-9.26561634e-004
,,,2.92500000e-009,-9.84374138e-004
,,,2.95000000e-009,-1.03593664e-003
,,,2.97500000e-009,-1.08437415e-003
,,,3.00000000e-009,-1.12812415e-003
,,,3.02500000e-009,-1.16562415e-003
,,,3.05000000e-009,-1.19999915e-003
,,,3.07500000e-009,-1.23593666e-003
,,,3.10000000e-009,-1.26249916e-003
,,,3.12500000e-009,-1.27968666e-003
,,,3.15000000e-009,-1.28593666e-003
,,,3.17500000e-009,-1.28124916e-003
,,,3.20000000e-009,-1.26562416e-003
,,,3.22500000e-009,-1.23749916e-003
,,,3.25000000e-009,-1.19999915e-003
,,,3.27500000e-009,-1.15781165e-003
,,,3.30000000e-009,-1.10781165e-003
,,,3.32500000e-009,-1.05312414e-003
,,,3.35000000e-009,-9.96874139e-004
,,,3.37500000e-009,-9.40624135e-004
,,,3.40000000e-009,-8.87499131e-004
,,,3.42500000e-009,-8.40624128e-004
,,,3.45000000e-009,-7.99999125e-004
,,,3.47500000e-009,-7.73436623e-004
,,,3.50000000e-009,-7.56249122e-004
,,,3.52500000e-009,-7.46874122e-004
,,,3.55000000e-009,-7.46874122e-004
,,,3.57500000e-009,-7.53124122e-004
,,,3.60000000e-009,-7.65624123e-004
,,,3.62500000e-009,-7.82811624e-004
,,,3.65000000e-009,-7.99999125e-004
,,,3.67500000e-009,-8.18749127e-004
,,,3.70000000e-009,-8.34374128e-004
,,,3.72500000e-009,-8.45311629e-004
,,,3.75000000e-009,-8.49999129e-004
,,,3.77500000e-009,-8.48436629e-004
,,,3.80000000e-009,-8.39061628e-004
,,,3.82500000e-009,-8.21874127e-004
,,,3.85000000e-009,-7.99999125e-004
,,,3.87500000e-009,-7.76561624e-004
,,,3.90000000e-009,-7.53124122e-004
,,,3.92500000e-009,-7.32811621e-004
,,,3.95000000e-009,-7.20311620e-004
,,,3.97500000e-009,-7.18749120e-004
,,,4.00000000e-009,-7.31249120e-004
,,,4.02500000e-009,-7.59374122e-004
,,,4.05000000e-009,-7.99999125e-004
,,,4.07500000e-009,-8.56249129e-004
,,,4.10000000e-009,-9.21874134e-004
,,,4.12500000e-009,-9.89061639e-004
,,,4.15000000e-009,-1.05468664e-003
,,,4.17500000e-009,-1.11406165e-003
,,,4.20000000e-009,-1.16093665e-003
,,,4.22500000e-009,-1.19062415e-003
,,,4.25000000e-009,-1.19999915e-003
,,,4.27500000e-009,-1.18593665e-003
,,,4.30000000e-009,-1.15312415e-003
,,,4.32500000e-009,-1.10312415e-003
,,,4.35000000e-009,-1.04218664e-003
,,,4.37500000e-009,-9.74999138e-004
,,,4.40000000e-009,-9.09374133e-004
,,,4.42500000e-009,-8.49999129e-004
,,,4.45000000e-009,-7.99999125e-004
,,,4.47500000e-009,-7.65624123e-004
,,,4.50000000e-009,-7.45311621e-004
,,,4.52500000e-009,-7.39061621e-004
,,,4.55000000e-009,-7.43749121e-004
,,,4.57500000e-009,-7.56249122e-004
,,,4.60000000e-009,-7.73436623e-004
,,,4.62500000e-009,-7.89061625e-004
,,,4.65000000e-009,-7.99999125e-004
,,,4.67500000e-009,-8.06249126e-004
,,,4.70000000e-009,-8.06249126e-004
,,,4.72500000e-009,-8.01561625e-004
,,,4.75000000e-009,-7.93749125e-004
,,,4.77500000e-009,-7.87499124e-004
,,,4.80000000e-009,-7.85936624e-004
,,,4.82500000e-009,-7.90624125e-004
,,,4.85000000e-009,-7.99999125e-004
,,,4.87500000e-009,-8.15624126e-004
,,,4.90000000e-009,-8.34374128e-004
,,,4.92500000e-009,-8.51561629e-004
,,,4.95000000e-009,-8.65624130e-004
,,,4.97500000e-009,-8.70311630e-004
,,,5.00000000e-009,-8.62499130e-004
,,,5.02500000e-009,-8.40624128e-004
,,,5.05000000e-009,-7.99999125e-004
,,,5.07500000e-009,-7.42186621e-004
,,,5.10000000e-009,-6.73436616e-004
,,,5.12500000e-009,-5.99999111e-004
,,,5.15000000e-009,-5.29686606e-004
,,,5.17500000e-009,-4.67186602e-004
,,,5.20000000e-009,-4.21874099e-004
,,,5.22500000e-009,-3.98436597e-004
,,,5.25000000e-009,-3.99999097e-004
,,,5.27500000e-009,-4.31249099e-004
,,,5.30000000e-009,-4.81249103e-004
,,,5.32500000e-009,-5.45311607e-004
,,,5.35000000e-009,-6.15624112e-004
,,,5.37500000e-009,-6.84374117e-004
,,,5.40000000e-009,-7.42186621e-004
,,,5.42500000e-009,-7.82811624e-004
,,,5.45000000e-009,-7.99999125e-004
,,,5.47500000e-009,-7.93749125e-004
,,,5.50000000e-009,-7.62499123e-004
,,,5.52500000e-009,-7.10936619e-004
,,,5.55000000e-009,-6.46874114e-004
,,,5.57500000e-009,-5.76561609e-004
,,,5.60000000e-009,-5.07811605e-004
,,,5.62500000e-009,-4.46874100e-004
,,,5.65000000e-009,-3.99999097e-004
,,,5.67500000e-009,-3.74999095e-004
,,,5.70000000e-009,-3.65624095e-004
,,,5.72500000e-009,-3.70311595e-004
,,,5.75000000e-009,-3.84374096e-004
,,,5.77500000e-009,-3.99999097e-004
,,,5.80000000e-009,-4.10936598e-004
,,,5.82500000e-009,-4.12499098e-004
,,,5.85000000e-009,-3.99999097e-004
,,,5.87500000e-009,-3.74999095e-004
,,,5.90000000e-009,-3.34374092e-004
,,,5.92500000e-009,-2.79686588e-004
