RawData/WithScintilator/R7_2pt2B_15mV/wave019_Ch2.csv

"Record Length",1000,"Points",-7.72500000e-009,2.78125951e-004
"Sample Interval",2.50000000e-011,s,-7.70000000e-009,2.71875951e-004
"Trigger Point",309,"Samples",-7.67500000e-009,2.84375951e-004
"Trigger Time",1.70990960e-011,s,-7.65000000e-009,3.12500953e-004
"",,,-7.62500000e-009,3.51563456e-004
"Horizontal Offset",-7.72500000e-009,s,-7.60000000e-009,4.00000960e-004
,,,-7.57500000e-009,4.42188463e-004
,,,-7.55000000e-009,4.81250965e-004
,,,-7.52500000e-009,5.10938467e-004
,,,-7.50000000e-009,5.26563469e-004
,,,-7.47500000e-009,5.26563469e-004
,,,-7.45000000e-009,5.04688467e-004
,,,-7.42500000e-009,4.62500964e-004
,,,-7.40000000e-009,4.00000960e-004
,,,-7.37500000e-009,3.14063454e-004
,,,-7.35000000e-009,2.15625947e-004
,,,-7.32500000e-009,1.04688439e-004
,,,-7.30000000e-009,-9.37406934e-006
,,,-7.27500000e-009,-1.21874077e-004
,,,-7.25000000e-009,-2.28124085e-004
,,,-7.22500000e-009,-3.23436592e-004
,,,-7.20000000e-009,-3.99999097e-004
,,,-7.17500000e-009,-4.51561601e-004
,,,-7.15000000e-009,-4.82811603e-004
,,,-7.12500000e-009,-4.95311604e-004
,,,-7.10000000e-009,-4.90624103e-004
,,,-7.07500000e-009,-4.74999102e-004
,,,-7.05000000e-009,-4.53124101e-004
,,,-7.02500000e-009,-4.26561599e-004
,,,-7.00000000e-009,-3.99999097e-004
,,,-6.97500000e-009,-3.70311595e-004
,,,-6.95000000e-009,-3.46874093e-004
,,,-6.92500000e-009,-3.32811592e-004
,,,-6.90000000e-009,-3.29686592e-004
,,,-6.87500000e-009,-3.37499093e-004
,,,-6.85000000e-009,-3.53124094e-004
,,,-6.82500000e-009,-3.74999095e-004
,,,-6.80000000e-009,-3.99999097e-004
,,,-6.77500000e-009,-4.20311598e-004
,,,-6.75000000e-009,-4.37499100e-004
,,,-6.72500000e-009,-4.49999101e-004
,,,-6.70000000e-009,-4.56249101e-004
,,,-6.67500000e-009,-4.56249101e-004
,,,-6.65000000e-009,-4.46874100e-004
,,,-6.62500000e-009,-4.28124099e-004
,,,-6.60000000e-009,-3.99999097e-004
,,,-6.57500000e-009,-3.59374094e-004
,,,-6.55000000e-009,-3.14061591e-004
,,,-6.52500000e-009,-2.62499087e-004
,,,-6.50000000e-009,-2.09374083e-004
,,,-6.47500000e-009,-1.54686580e-004
,,,-6.45000000e-009,-1.01561576e-004
,,,-6.42500000e-009,-4.99990722e-005
,,,-6.40000000e-009,9.31322575e-010
,,,-6.37500000e-009,4.53134345e-005
,,,-6.35000000e-009,9.06259377e-005
,,,-6.32500000e-009,1.32813441e-004
,,,-6.30000000e-009,1.76563444e-004
,,,-6.27500000e-009,2.23438447e-004
,,,-6.25000000e-009,2.76563451e-004
,,,-6.22500000e-009,3.34375955e-004
,,,-6.20000000e-009,4.00000960e-004
,,,-6.17500000e-009,4.62500964e-004
,,,-6.15000000e-009,5.28125969e-004
,,,-6.12500000e-009,5.92188473e-004
,,,-6.10000000e-009,6.54688478e-004
,,,-6.07500000e-009,7.10938482e-004
,,,-6.05000000e-009,7.54688485e-004
,,,-6.02500000e-009,7.85938487e-004
,,,-6.00000000e-009,8.00000988e-004
,,,-5.97500000e-009,7.85938487e-004
,,,-5.95000000e-009,7.54688485e-004
,,,-5.92500000e-009,7.10938482e-004
,,,-5.90000000e-009,6.54688478e-004
,,,-5.87500000e-009,5.92188473e-004
,,,-5.85000000e-009,5.28125969e-004
,,,-5.82500000e-009,4.62500964e-004
,,,-5.80000000e-009,4.00000960e-004
,,,-5.77500000e-009,3.34375955e-004
,,,-5.75000000e-009,2.76563451e-004
,,,-5.72500000e-009,2.23438447e-004
,,,-5.70000000e-009,1.76563444e-004
,,,-5.67500000e-009,1.32813441e-004
,,,-5.65000000e-009,9.06259377e-005
,,,-5.62500000e-009,4.53134345e-005
,,,-5.60000000e-009,9.31322575e-010
,,,-5.57500000e-009,-5.62490727e-005
,,,-5.55000000e-009,-1.14061577e-004
,,,-5.52500000e-009,-1.71874081e-004
,,,-5.50000000e-009,-2.29686585e-004
,,,-5.47500000e-009,-2.82811589e-004
,,,-5.45000000e-009,-3.31249092e-004
,,,-5.42500000e-009,-3.70311595e-004
,,,-5.40000000e-009,-3.99999097e-004
,,,-5.37500000e-009,-4.20311598e-004
,,,-5.35000000e-009,-4.31249099e-004
,,,-5.32500000e-009,-4.34374099e-004
,,,-5.30000000e-009,-4.31249099e-004
,,,-5.27500000e-009,-4.23436599e-004
,,,-5.25000000e-009,-4.15624098e-004
,,,-5.22500000e-009,-4.07811598e-004
,,,-5.20000000e-009,-3.99999097e-004
,,,-5.17500000e-009,-3.93749097e-004
,,,-5.15000000e-009,-3.92186596e-004
,,,-5.12500000e-009,-3.92186596e-004
,,,-5.10000000e-009,-3.95311597e-004
,,,-5.07500000e-009,-3.99999097e-004
,,,-5.05000000e-009,-4.03124097e-004
,,,-5.02500000e-009,-4.03124097e-004
,,,-5.00000000e-009,-3.99999097e-004
,,,-4.97500000e-009,-3.90624096e-004
,,,-4.95000000e-009,-3.79686596e-004
,,,-4.92500000e-009,-3.70311595e-004
,,,-4.90000000e-009,-3.62499094e-004
,,,-4.87500000e-009,-3.60936594e-004
,,,-4.85000000e-009,-3.65624095e-004
,,,-4.82500000e-009,-3.78124095e-004
,,,-4.80000000e-009,-3.99999097e-004
,,,-4.77500000e-009,-4.29686599e-004
,,,-4.75000000e-009,-4.68749102e-004
,,,-4.72500000e-009,-5.15624105e-004
,,,-4.70000000e-009,-5.70311609e-004
,,,-4.67500000e-009,-6.28124113e-004
,,,-4.65000000e-009,-6.89061617e-004
,,,-4.62500000e-009,-7.46874122e-004
,,,-4.60000000e-009,-7.99999125e-004
,,,-4.57500000e-009,-8.39061628e-004
,,,-4.55000000e-009,-8.67186630e-004
,,,-4.52500000e-009,-8.84374131e-004
,,,-4.50000000e-009,-8.89061632e-004
,,,-4.47500000e-009,-8.82811631e-004
,,,-4.45000000e-009,-8.65624130e-004
,,,-4.42500000e-009,-8.37499128e-004
,,,-4.40000000e-009,-7.99999125e-004
,,,-4.37500000e-009,-7.51561622e-004
,,,-4.35000000e-009,-6.98436618e-004
,,,-4.32500000e-009,-6.42186614e-004
,,,-4.30000000e-009,-5.85936610e-004
,,,-4.27500000e-009,-5.31249106e-004
,,,-4.25000000e-009,-4.81249103e-004
,,,-4.22500000e-009,-4.37499100e-004
,,,-4.20000000e-009,-3.99999097e-004
,,,-4.17500000e-009,-3.73436595e-004
,,,-4.15000000e-009,-3.54686594e-004
,,,-4.12500000e-009,-3.45311593e-004
,,,-4.10000000e-009,-3.43749093e-004
,,,-4.07500000e-009,-3.51561594e-004
,,,-4.05000000e-009,-3.64061594e-004
,,,-4.02500000e-009,-3.81249096e-004
,,,-4.00000000e-009,-3.99999097e-004
,,,-3.97500000e-009,-4.18749098e-004
,,,-3.95000000e-009,-4.34374099e-004
,,,-3.92500000e-009,-4.45311600e-004
,,,-3.90000000e-009,-4.49999101e-004
,,,-3.87500000e-009,-4.49999101e-004
,,,-3.85000000e-009,-4.40624100e-004
,,,-3.82500000e-009,-4.24999099e-004
,,,-3.80000000e-009,-3.99999097e-004
,,,-3.77500000e-009,-3.68749095e-004
,,,-3.75000000e-009,-3.29686592e-004
,,,-3.72500000e-009,-2.82811589e-004
,,,-3.70000000e-009,-2.31249085e-004
,,,-3.67500000e-009,-1.74999081e-004
,,,-3.65000000e-009,-1.17186577e-004
,,,-3.62500000e-009,-5.78115728e-005
,,,-3.60000000e-009,9.31322575e-010
,,,-3.57500000e-009,4.68759346e-005
,,,-3.55000000e-009,8.75009375e-005
,,,-3.52500000e-009,1.14063439e-004
,,,-3.50000000e-009,1.26563440e-004
,,,-3.47500000e-009,1.23438440e-004
,,,-3.45000000e-009,1.00000938e-004
,,,-3.42500000e-009,5.78134354e-005
,,,-3.40000000e-009,9.31322575e-010
,,,-3.37500000e-009,-7.49990740e-005
,,,-3.35000000e-009,-1.54686580e-004
,,,-3.32500000e-009,-2.34374085e-004
,,,-3.30000000e-009,-3.04686590e-004
,,,-3.27500000e-009,-3.62499094e-004
,,,-3.25000000e-009,-3.98436597e-004
,,,-3.22500000e-009,-4.12499098e-004
,,,-3.20000000e-009,-3.99999097e-004
,,,-3.17500000e-009,-3.65624095e-004
,,,-3.15000000e-009,-3.12499091e-004
,,,-3.12500000e-009,-2.45311586e-004
,,,-3.10000000e-009,-1.74999081e-004
,,,-3.07500000e-009,-1.07811576e-004
,,,-3.05000000e-009,-5.15615723e-005
,,,-3.02500000e-009,-1.56240698e-005
,,,-3.00000000e-009,9.31322575e-010
,,,-2.97500000e-009,-1.09365695e-005
,,,-2.95000000e-009,-4.37490718e-005
,,,-2.92500000e-009,-9.68740755e-005
,,,-2.90000000e-009,-1.60936580e-004
,,,-2.87500000e-009,-2.31249085e-004
,,,-2.85000000e-009,-2.99999090e-004
,,,-2.82500000e-009,-3.59374094e-004
,,,-2.80000000e-009,-3.99999097e-004
,,,-2.77500000e-009,-4.18749098e-004
,,,-2.75000000e-009,-4.12499098e-004
,,,-2.72500000e-009,-3.81249096e-004
,,,-2.70000000e-009,-3.28124092e-004
,,,-2.67500000e-009,-2.57811587e-004
,,,-2.65000000e-009,-1.74999081e-004
,,,-2.62500000e-009,-8.74990749e-005
,,,-2.60000000e-009,9.31322575e-010
,,,-2.57500000e-009,7.81259369e-005
,,,-2.55000000e-009,1.40625941e-004
,,,-2.52500000e-009,1.81250944e-004
,,,-2.50000000e-009,1.96875945e-004
,,,-2.47500000e-009,1.85938444e-004
,,,-2.45000000e-009,1.46875942e-004
,,,-2.42500000e-009,8.28134372e-005
,,,-2.40000000e-009,9.31322575e-010
,,,-2.37500000e-009,-9.84365756e-005
,,,-2.35000000e-009,-1.99999083e-004
,,,-2.32500000e-009,-2.95311590e-004
,,,-2.30000000e-009,-3.74999095e-004
,,,-2.27500000e-009,-4.31249099e-004
,,,-2.25000000e-009,-4.56249101e-004
,,,-2.22500000e-009,-4.46874100e-004
,,,-2.20000000e-009,-3.99999097e-004
,,,-2.17500000e-009,-3.20311591e-004
,,,-2.15000000e-009,-2.14061584e-004
,,,-2.12500000e-009,-8.90615750e-005
,,,-2.10000000e-009,4.06259342e-005
,,,-2.07500000e-009,1.64063443e-004
,,,-2.05000000e-009,2.71875951e-004
,,,-2.02500000e-009,3.51563456e-004
,,,-2.00000000e-009,4.00000960e-004
,,,-1.97500000e-009,4.04688460e-004
,,,-1.95000000e-009,3.76563458e-004
,,,-1.92500000e-009,3.21875954e-004
,,,-1.90000000e-009,2.48438449e-004
,,,-1.87500000e-009,1.68750943e-004
,,,-1.85000000e-009,9.37509380e-005
,,,-1.82500000e-009,3.43759338e-005
,,,-1.80000000e-009,9.31322575e-010
,,,-1.77500000e-009,-2.03115701e-005
,,,-1.75000000e-009,-1.09365695e-005
,,,-1.72500000e-009,2.50009331e-005
,,,-1.70000000e-009,8.43759373e-005
,,,-1.67500000e-009,1.60938443e-004
,,,-1.65000000e-009,2.43750949e-004
,,,-1.62500000e-009,3.26563454e-004
,,,-1.60000000e-009,4.00000960e-004
,,,-1.57500000e-009,4.23438461e-004
,,,-1.55000000e-009,4.21875961e-004
,,,-1.52500000e-009,3.90625959e-004
,,,-1.50000000e-009,3.37500955e-004
,,,-1.47500000e-009,2.64063450e-004
,,,-1.45000000e-009,1.79688444e-004
,,,-1.42500000e-009,8.90634376e-005
,,,-1.40000000e-009,9.31322575e-010
,,,-1.37500000e-009,-1.24999078e-004
,,,-1.35000000e-009,-2.42186586e-004
,,,-1.32500000e-009,-3.40624093e-004
,,,-1.30000000e-009,-4.17186598e-004
,,,-1.27500000e-009,-4.62499101e-004
,,,-1.25000000e-009,-4.73436602e-004
,,,-1.22500000e-009,-4.51561601e-004
,,,-1.20000000e-009,-3.99999097e-004
,,,-1.17500000e-009,-3.85936596e-004
,,,-1.15000000e-009,-3.67186595e-004
,,,-1.12500000e-009,-3.46874093e-004
,,,-1.10000000e-009,-3.29686592e-004
,,,-1.07500000e-009,-3.21874091e-004
,,,-1.05000000e-009,-3.26561592e-004
,,,-1.02500000e-009,-3.51561594e-004
,,,-1.00000000e-009,-3.99999097e-004
,,,-9.75000000e-010,-5.48436607e-004
,,,-9.50000000e-010,-7.40624121e-004
,,,-9.25000000e-010,-9.70311637e-004
,,,-9.00000000e-010,-1.22968666e-003
,,,-8.75000000e-010,-1.51093668e-003
,,,-8.50000000e-010,-1.80468670e-003
,,,-8.25000000e-010,-2.10156172e-003
,,,-8.00000000e-010,-2.39999924e-003
,,,-7.75000000e-010,-2.75468676e-003
,,,-7.50000000e-010,-3.11406179e-003
,,,-7.25000000e-010,-3.47343681e-003
,,,-7.00000000e-010,-3.82812434e-003
,,,-6.75000000e-010,-4.17812436e-003
,,,-6.50000000e-010,-4.52187439e-003
,,,-6.25000000e-010,-4.86093691e-003
,,,-6.00000000e-010,-5.19999944e-003
,,,-5.75000000e-010,-5.57812446e-003
,,,-5.50000000e-010,-5.97656199e-003
,,,-5.25000000e-010,-6.39687452e-003
,,,-5.00000000e-010,-6.84062455e-003
,,,-4.75000000e-010,-7.30624959e-003
,,,-4.50000000e-010,-7.79062462e-003
,,,-4.25000000e-010,-8.28906216e-003
,,,-4.00000000e-010,-8.79999969e-003
,,,-3.75000000e-010,-9.32031223e-003
,,,-3.50000000e-010,-9.85156227e-003
,,,-3.25000000e-010,-1.03859373e-002
,,,-3.00000000e-010,-1.09140623e-002
,,,-2.75000000e-010,-1.14281249e-002
,,,-2.50000000e-010,-1.19187499e-002
,,,-2.25000000e-010,-1.23781249e-002
,,,-2.00000000e-010,-1.28000000e-002
,,,-1.75000000e-010,-1.31500000e-002
,,,-1.50000000e-010,-1.34734375e-002
,,,-1.25000000e-010,-1.37812500e-002
,,,-1.00000000e-010,-1.40750001e-002
,,,-7.50000000e-011,-1.43625001e-002
,,,-5.00000000e-011,-1.46437501e-002
,,,-2.50000000e-011,-1.49234376e-002
,,,0.00000000e+000,-1.52000001e-002
,,,2.50000000e-011,-1.54125002e-002
,,,5.00000000e-011,-1.56312502e-002
,,,7.50000000e-011,-1.58562502e-002
,,,1.00000000e-010,-1.60812502e-002
,,,1.25000000e-010,-1.62968752e-002
,,,1.50000000e-010,-1.64937502e-002
,,,1.75000000e-010,-1.66640627e-002
,,,2.00000000e-010,-1.68000003e-002
,,,2.25000000e-010,-1.68218753e-002
,,,2.50000000e-010,-1.68218753e-002
,,,2.75000000e-010,-1.68093753e-002
,,,3.00000000e-010,-1.67906253e-002
,,,3.25000000e-010,-1.67750003e-002
,,,3.50000000e-010,-1.67703128e-002
,,,3.75000000e-010,-1.67781253e-002
,,,4.00000000e-010,-1.68000003e-002
,,,4.25000000e-010,-1.67625003e-002
,,,4.50000000e-010,-1.67468753e-002
,,,4.75000000e-010,-1.67500003e-002
,,,5.00000000e-010,-1.67671878e-002
,,,5.25000000e-010,-1.67906253e-002
,,,5.50000000e-010,-1.68109378e-002
,,,5.75000000e-010,-1.68171878e-002
,,,6.00000000e-010,-1.68000003e-002
,,,6.25000000e-010,-1.66843752e-002
,,,6.50000000e-010,-1.65437502e-002
,,,6.75000000e-010,-1.63859377e-002
,,,7.00000000e-010,-1.62187502e-002
,,,7.25000000e-010,-1.60500002e-002
,,,7.50000000e-010,-1.58875002e-002
,,,7.75000000e-010,-1.57359377e-002
,,,8.00000000e-010,-1.56000002e-002
,,,8.25000000e-010,-1.54218752e-002
,,,8.50000000e-010,-1.52562501e-002
,,,8.75000000e-010,-1.51031251e-002
,,,9.00000000e-010,-1.49593751e-002
,,,9.25000000e-010,-1.48218751e-002
,,,9.50000000e-010,-1.46875001e-002
,,,9.75000000e-010,-1.45484376e-002
,,,1.00000000e-009,-1.44000001e-002
,,,1.02500000e-009,-1.41937501e-002
,,,1.05000000e-009,-1.39640626e-002
,,,1.07500000e-009,-1.37156250e-002
,,,1.10000000e-009,-1.34546875e-002
,,,1.12500000e-009,-1.31859375e-002
,,,1.15000000e-009,-1.29171875e-002
,,,1.17500000e-009,-1.26546875e-002
,,,1.20000000e-009,-1.23999999e-002
,,,1.22500000e-009,-1.21328124e-002
,,,1.25000000e-009,-1.18687499e-002
,,,1.27500000e-009,-1.16093749e-002
,,,1.30000000e-009,-1.13562499e-002
,,,1.32500000e-009,-1.11093749e-002
,,,1.35000000e-009,-1.08703123e-002
,,,1.37500000e-009,-1.06343748e-002
,,,1.40000000e-009,-1.03999998e-002
,,,1.42500000e-009,-1.01499998e-002
,,,1.45000000e-009,-9.88281227e-003
,,,1.47500000e-009,-9.59687475e-003
,,,1.50000000e-009,-9.29687473e-003
,,,1.52500000e-009,-8.98281220e-003
,,,1.55000000e-009,-8.65937468e-003
,,,1.57500000e-009,-8.33124966e-003
,,,1.60000000e-009,-7.99999963e-003
,,,1.62500000e-009,-7.67499961e-003
,,,1.65000000e-009,-7.34374959e-003
,,,1.67500000e-009,-7.01249957e-003
,,,1.70000000e-009,-6.68906204e-003
,,,1.72500000e-009,-6.37968702e-003
,,,1.75000000e-009,-6.09218700e-003
,,,1.77500000e-009,-5.83124948e-003
,,,1.80000000e-009,-5.59999947e-003
,,,1.82500000e-009,-5.41718695e-003
,,,1.85000000e-009,-5.24999944e-003
,,,1.87500000e-009,-5.09374943e-003
,,,1.90000000e-009,-4.94687442e-003
,,,1.92500000e-009,-4.80624941e-003
,,,1.95000000e-009,-4.66874940e-003
,,,1.97500000e-009,-4.53437439e-003
,,,2.00000000e-009,-4.39999938e-003
,,,2.02500000e-009,-4.28906187e-003
,,,2.05000000e-009,-4.16093686e-003
,,,2.07500000e-009,-4.01874935e-003
,,,2.10000000e-009,-3.86249934e-003
,,,2.12500000e-009,-3.69843683e-003
,,,2.15000000e-009,-3.52968682e-003
,,,2.17500000e-009,-3.36249931e-003
,,,2.20000000e-009,-3.19999930e-003
,,,2.22500000e-009,-3.07343679e-003
,,,2.25000000e-009,-2.94218678e-003
,,,2.27500000e-009,-2.80624927e-003
,,,2.30000000e-009,-2.66093676e-003
,,,2.32500000e-009,-2.50781175e-003
,,,2.35000000e-009,-2.34687423e-003
,,,2.37500000e-009,-2.17656172e-003
,,,2.40000000e-009,-1.99999921e-003
,,,2.42500000e-009,-1.85156170e-003
,,,2.45000000e-009,-1.69374919e-003
,,,2.47500000e-009,-1.52812418e-003
,,,2.50000000e-009,-1.36093667e-003
,,,2.52500000e-009,-1.19843665e-003
,,,2.55000000e-009,-1.04531164e-003
,,,2.57500000e-009,-9.12499133e-004
,,,2.60000000e-009,-7.99999125e-004
,,,2.62500000e-009,-7.48436622e-004
,,,2.65000000e-009,-7.15624119e-004
,,,2.67500000e-009,-7.01561618e-004
,,,2.70000000e-009,-7.01561618e-004
,,,2.72500000e-009,-7.14061619e-004
,,,2.75000000e-009,-7.35936621e-004
,,,2.77500000e-009,-7.65624123e-004
,,,2.80000000e-009,-7.99999125e-004
,,,2.82500000e-009,-8.59374130e-004
,,,2.85000000e-009,-9.15624133e-004
,,,2.87500000e-009,-9.67186637e-004
,,,2.90000000e-009,-1.01406164e-003
,,,2.92500000e-009,-1.05781164e-003
,,,2.95000000e-009,-1.10312415e-003
,,,2.97500000e-009,-1.14999915e-003
,,,3.00000000e-009,-1.19999915e-003
,,,3.02500000e-009,-1.26874916e-003
,,,3.05000000e-009,-1.33749916e-003
,,,3.07500000e-009,-1.39999917e-003
,,,3.10000000e-009,-1.45937417e-003
,,,3.12500000e-009,-1.50937418e-003
,,,3.15000000e-009,-1.54999918e-003
,,,3.17500000e-009,-1.58124918e-003
,,,3.20000000e-009,-1.59999918e-003
,,,3.22500000e-009,-1.61562418e-003
,,,3.25000000e-009,-1.61874918e-003
,,,3.27500000e-009,-1.61406168e-003
,,,3.30000000e-009,-1.60468668e-003
,,,3.32500000e-009,-1.59687418e-003
,,,3.35000000e-009,-1.59218668e-003
,,,3.37500000e-009,-1.59218668e-003
,,,3.40000000e-009,-1.59999918e-003
,,,3.42500000e-009,-1.61718668e-003
,,,3.45000000e-009,-1.63749918e-003
,,,3.47500000e-009,-1.65781169e-003
,,,3.50000000e-009,-1.67187419e-003
,,,3.52500000e-009,-1.67812419e-003
,,,3.55000000e-009,-1.66874919e-003
,,,3.57500000e-009,-1.64374919e-003
,,,3.60000000e-009,-1.59999918e-003
,,,3.62500000e-009,-1.53593668e-003
,,,3.65000000e-009,-1.46093667e-003
,,,3.67500000e-009,-1.38281167e-003
,,,3.70000000e-009,-1.30937416e-003
,,,3.72500000e-009,-1.24687416e-003
,,,3.75000000e-009,-1.20624915e-003
,,,3.77500000e-009,-1.18906165e-003
,,,3.80000000e-009,-1.19999915e-003
,,,3.82500000e-009,-1.23281166e-003
,,,3.85000000e-009,-1.28593666e-003
,,,3.87500000e-009,-1.35468666e-003
,,,3.90000000e-009,-1.42812417e-003
,,,3.92500000e-009,-1.49843667e-003
,,,3.95000000e-009,-1.55468668e-003
,,,3.97500000e-009,-1.59062418e-003
,,,4.00000000e-009,-1.59999918e-003
,,,4.02500000e-009,-1.57656168e-003
,,,4.05000000e-009,-1.52656168e-003
,,,4.07500000e-009,-1.46093667e-003
,,,4.10000000e-009,-1.38593667e-003
,,,4.12500000e-009,-1.31249916e-003
,,,4.15000000e-009,-1.25156166e-003
,,,4.17500000e-009,-1.21249915e-003
,,,4.20000000e-009,-1.19999915e-003
,,,4.22500000e-009,-1.22031166e-003
,,,4.25000000e-009,-1.26406166e-003
,,,4.27500000e-009,-1.32968666e-003
,,,4.30000000e-009,-1.40468667e-003
,,,4.32500000e-009,-1.48124917e-003
,,,4.35000000e-009,-1.54531168e-003
,,,4.37500000e-009,-1.58749918e-003
,,,4.40000000e-009,-1.59999918e-003
,,,4.42500000e-009,-1.57656168e-003
,,,4.45000000e-009,-1.51562418e-003
,,,4.47500000e-009,-1.42656167e-003
,,,4.50000000e-009,-1.31249916e-003
,,,4.52500000e-009,-1.18281165e-003
,,,4.55000000e-009,-1.04843664e-003
,,,4.57500000e-009,-9.18749134e-004
,,,4.60000000e-009,-7.99999125e-004
,,,4.62500000e-009,-7.04686619e-004
,,,4.65000000e-009,-6.29686613e-004
,,,4.67500000e-009,-5.71874109e-004
,,,4.70000000e-009,-5.29686606e-004
,,,4.72500000e-009,-4.95311604e-004
,,,4.75000000e-009,-4.65624102e-004
,,,4.77500000e-009,-4.34374099e-004
,,,4.80000000e-009,-3.99999097e-004
,,,4.82500000e-009,-3.68749095e-004
,,,4.85000000e-009,-3.34374092e-004
,,,4.87500000e-009,-3.03124090e-004
,,,4.90000000e-009,-2.81249089e-004
,,,4.92500000e-009,-2.74999088e-004
,,,4.95000000e-009,-2.90624089e-004
,,,4.97500000e-009,-3.31249092e-004
,,,5.00000000e-009,-3.99999097e-004
,,,5.02500000e-009,-4.99999104e-004
,,,5.05000000e-009,-6.18749112e-004
,,,5.07500000e-009,-7.46874122e-004
,,,5.10000000e-009,-8.74999131e-004
,,,5.12500000e-009,-9.92186639e-004
,,,5.15000000e-009,-1.09062415e-003
,,,5.17500000e-009,-1.16249915e-003
,,,5.20000000e-009,-1.19999915e-003
,,,5.22500000e-009,-1.20156165e-003
,,,5.25000000e-009,-1.16874915e-003
,,,5.27500000e-009,-1.11093665e-003
,,,5.30000000e-009,-1.03749914e-003
,,,5.32500000e-009,-9.59374137e-004
,,,5.35000000e-009,-8.87499131e-004
,,,5.37500000e-009,-8.32811628e-004
,,,5.40000000e-009,-7.99999125e-004
,,,5.42500000e-009,-7.98436625e-004
,,,5.45000000e-009,-8.21874127e-004
,,,5.47500000e-009,-8.70311630e-004
,,,5.50000000e-009,-9.35936635e-004
,,,5.52500000e-009,-1.00937414e-003
,,,5.55000000e-009,-1.08437415e-003
,,,5.57500000e-009,-1.15156165e-003
,,,5.60000000e-009,-1.19999915e-003
,,,5.62500000e-009,-1.22656166e-003
,,,5.65000000e-009,-1.22656166e-003
,,,5.67500000e-009,-1.20156165e-003
,,,5.70000000e-009,-1.15156165e-003
,,,5.72500000e-009,-1.08124915e-003
,,,5.75000000e-009,-9.95311639e-004
,,,5.77500000e-009,-8.99999132e-004
,,,5.80000000e-009,-7.99999125e-004
,,,5.82500000e-009,-7.01561618e-004
,,,5.85000000e-009,-6.12499112e-004
,,,5.87500000e-009,-5.35936607e-004
