RawData/WithScintilator/R7_2pt2B_15mV/wave025_Ch2.csv

"Record Length",1000,"Points",-7.72500000e-009,-7.99999125e-004
"Sample Interval",2.50000000e-011,s,-7.70000000e-009,-8.10936626e-004
"Trigger Point",309,"Samples",-7.67500000e-009,-8.09374126e-004
"Trigger Time",2.55370611e-013,s,-7.65000000e-009,-7.98436625e-004
"",,,-7.62500000e-009,-7.84374124e-004
"Horizontal Offset",-7.72500000e-009,s,-7.60000000e-009,-7.71874123e-004
,,,-7.57500000e-009,-7.67186623e-004
,,,-7.55000000e-009,-7.76561624e-004
,,,-7.52500000e-009,-7.99999125e-004
,,,-7.50000000e-009,-8.42186628e-004
,,,-7.47500000e-009,-8.98436632e-004
,,,-7.45000000e-009,-9.64061637e-004
,,,-7.42500000e-009,-1.03124914e-003
,,,-7.40000000e-009,-1.09531165e-003
,,,-7.37500000e-009,-1.14843665e-003
,,,-7.35000000e-009,-1.18593665e-003
,,,-7.32500000e-009,-1.19999915e-003
,,,-7.30000000e-009,-1.19062415e-003
,,,-7.27500000e-009,-1.15781165e-003
,,,-7.25000000e-009,-1.10624915e-003
,,,-7.22500000e-009,-1.04218664e-003
,,,-7.20000000e-009,-9.71874137e-004
,,,-7.17500000e-009,-9.03124133e-004
,,,-7.15000000e-009,-8.43749128e-004
,,,-7.12500000e-009,-7.99999125e-004
,,,-7.10000000e-009,-7.79686624e-004
,,,-7.07500000e-009,-7.81249124e-004
,,,-7.05000000e-009,-8.09374126e-004
,,,-7.02500000e-009,-8.59374130e-004
,,,-7.00000000e-009,-9.28124134e-004
,,,-6.97500000e-009,-1.01093664e-003
,,,-6.95000000e-009,-1.10468665e-003
,,,-6.92500000e-009,-1.19999915e-003
,,,-6.90000000e-009,-1.28749916e-003
,,,-6.87500000e-009,-1.36874917e-003
,,,-6.85000000e-009,-1.43906167e-003
,,,-6.82500000e-009,-1.49843667e-003
,,,-6.80000000e-009,-1.54374918e-003
,,,-6.77500000e-009,-1.57656168e-003
,,,-6.75000000e-009,-1.59531168e-003
,,,-6.72500000e-009,-1.59999918e-003
,,,-6.70000000e-009,-1.58437418e-003
,,,-6.67500000e-009,-1.55468668e-003
,,,-6.65000000e-009,-1.51562418e-003
,,,-6.62500000e-009,-1.46562417e-003
,,,-6.60000000e-009,-1.40781167e-003
,,,-6.57500000e-009,-1.34218666e-003
,,,-6.55000000e-009,-1.27343666e-003
,,,-6.52500000e-009,-1.19999915e-003
,,,-6.50000000e-009,-1.12343665e-003
,,,-6.47500000e-009,-1.04843664e-003
,,,-6.45000000e-009,-9.79686638e-004
,,,-6.42500000e-009,-9.20311634e-004
,,,-6.40000000e-009,-8.71874130e-004
,,,-6.37500000e-009,-8.35936628e-004
,,,-6.35000000e-009,-8.12499126e-004
,,,-6.32500000e-009,-7.99999125e-004
,,,-6.30000000e-009,-7.99999125e-004
,,,-6.27500000e-009,-8.06249126e-004
,,,-6.25000000e-009,-8.17186627e-004
,,,-6.22500000e-009,-8.26561627e-004
,,,-6.20000000e-009,-8.32811628e-004
,,,-6.17500000e-009,-8.32811628e-004
,,,-6.15000000e-009,-8.21874127e-004
,,,-6.12500000e-009,-7.99999125e-004
,,,-6.10000000e-009,-7.67186623e-004
,,,-6.07500000e-009,-7.24999120e-004
,,,-6.05000000e-009,-6.73436616e-004
,,,-6.02500000e-009,-6.15624112e-004
,,,-6.00000000e-009,-5.57811608e-004
,,,-5.97500000e-009,-4.99999104e-004
,,,-5.95000000e-009,-4.46874100e-004
,,,-5.92500000e-009,-3.99999097e-004
,,,-5.90000000e-009,-3.68749095e-004
,,,-5.87500000e-009,-3.46874093e-004
,,,-5.85000000e-009,-3.35936592e-004
,,,-5.82500000e-009,-3.35936592e-004
,,,-5.80000000e-009,-3.43749093e-004
,,,-5.77500000e-009,-3.59374094e-004
,,,-5.75000000e-009,-3.79686596e-004
,,,-5.72500000e-009,-3.99999097e-004
,,,-5.70000000e-009,-4.29686599e-004
,,,-5.67500000e-009,-4.54686601e-004
,,,-5.65000000e-009,-4.70311602e-004
,,,-5.62500000e-009,-4.78124103e-004
,,,-5.60000000e-009,-4.73436602e-004
,,,-5.57500000e-009,-4.57811601e-004
,,,-5.55000000e-009,-4.32811599e-004
,,,-5.52500000e-009,-3.99999097e-004
,,,-5.50000000e-009,-3.68749095e-004
,,,-5.47500000e-009,-3.39061593e-004
,,,-5.45000000e-009,-3.12499091e-004
,,,-5.42500000e-009,-2.96874090e-004
,,,-5.40000000e-009,-2.95311590e-004
,,,-5.37500000e-009,-3.10936591e-004
,,,-5.35000000e-009,-3.46874093e-004
,,,-5.32500000e-009,-3.99999097e-004
,,,-5.30000000e-009,-4.73436602e-004
,,,-5.27500000e-009,-5.54686608e-004
,,,-5.25000000e-009,-6.37499114e-004
,,,-5.22500000e-009,-7.12499119e-004
,,,-5.20000000e-009,-7.71874123e-004
,,,-5.17500000e-009,-8.09374126e-004
,,,-5.15000000e-009,-8.18749127e-004
,,,-5.12500000e-009,-7.99999125e-004
,,,-5.10000000e-009,-7.56249122e-004
,,,-5.07500000e-009,-6.92186618e-004
,,,-5.05000000e-009,-6.15624112e-004
,,,-5.02500000e-009,-5.35936607e-004
,,,-5.00000000e-009,-4.65624102e-004
,,,-4.97500000e-009,-4.14061598e-004
,,,-4.95000000e-009,-3.90624096e-004
,,,-4.92500000e-009,-3.99999097e-004
,,,-4.90000000e-009,-4.49999101e-004
,,,-4.87500000e-009,-5.34374107e-004
,,,-4.85000000e-009,-6.42186614e-004
,,,-4.82500000e-009,-7.68749123e-004
,,,-4.80000000e-009,-8.98436632e-004
,,,-4.77500000e-009,-1.02031164e-003
,,,-4.75000000e-009,-1.12499915e-003
,,,-4.72500000e-009,-1.19999915e-003
,,,-4.70000000e-009,-1.23749916e-003
,,,-4.67500000e-009,-1.23749916e-003
,,,-4.65000000e-009,-1.20624915e-003
,,,-4.62500000e-009,-1.14531165e-003
,,,-4.60000000e-009,-1.06718664e-003
,,,-4.57500000e-009,-9.76561638e-004
,,,-4.55000000e-009,-8.84374131e-004
,,,-4.52500000e-009,-7.99999125e-004
,,,-4.50000000e-009,-7.29686620e-004
,,,-4.47500000e-009,-6.81249117e-004
,,,-4.45000000e-009,-6.54686615e-004
,,,-4.42500000e-009,-6.49999115e-004
,,,-4.40000000e-009,-6.67186616e-004
,,,-4.37500000e-009,-6.99999118e-004
,,,-4.35000000e-009,-7.46874122e-004
,,,-4.32500000e-009,-7.99999125e-004
,,,-4.30000000e-009,-8.56249129e-004
,,,-4.27500000e-009,-9.10936633e-004
,,,-4.25000000e-009,-9.65624137e-004
,,,-4.22500000e-009,-1.01718664e-003
,,,-4.20000000e-009,-1.06718664e-003
,,,-4.17500000e-009,-1.11406165e-003
,,,-4.15000000e-009,-1.15937415e-003
,,,-4.12500000e-009,-1.19999915e-003
,,,-4.10000000e-009,-1.23281166e-003
,,,-4.07500000e-009,-1.25781166e-003
,,,-4.05000000e-009,-1.27499916e-003
,,,-4.02500000e-009,-1.28281166e-003
,,,-4.00000000e-009,-1.27968666e-003
,,,-3.97500000e-009,-1.26562416e-003
,,,-3.95000000e-009,-1.23906166e-003
,,,-3.92500000e-009,-1.19999915e-003
,,,-3.90000000e-009,-1.14374915e-003
,,,-3.87500000e-009,-1.08124915e-003
,,,-3.85000000e-009,-1.01562414e-003
,,,-3.82500000e-009,-9.53124136e-004
,,,-3.80000000e-009,-8.96874132e-004
,,,-3.77500000e-009,-8.51561629e-004
,,,-3.75000000e-009,-8.18749127e-004
,,,-3.72500000e-009,-7.99999125e-004
,,,-3.70000000e-009,-7.95311625e-004
,,,-3.67500000e-009,-7.99999125e-004
,,,-3.65000000e-009,-8.12499126e-004
,,,-3.62500000e-009,-8.24999127e-004
,,,-3.60000000e-009,-8.34374128e-004
,,,-3.57500000e-009,-8.35936628e-004
,,,-3.55000000e-009,-8.24999127e-004
,,,-3.52500000e-009,-7.99999125e-004
,,,-3.50000000e-009,-7.62499123e-004
,,,-3.47500000e-009,-7.12499119e-004
,,,-3.45000000e-009,-6.54686615e-004
,,,-3.42500000e-009,-5.92186611e-004
,,,-3.40000000e-009,-5.31249106e-004
,,,-3.37500000e-009,-4.76561602e-004
,,,-3.35000000e-009,-4.32811599e-004
,,,-3.32500000e-009,-3.99999097e-004
,,,-3.30000000e-009,-3.85936596e-004
,,,-3.27500000e-009,-3.82811596e-004
,,,-3.25000000e-009,-3.89061596e-004
,,,-3.22500000e-009,-4.01561597e-004
,,,-3.20000000e-009,-4.12499098e-004
,,,-3.17500000e-009,-4.20311598e-004
,,,-3.15000000e-009,-4.17186598e-004
,,,-3.12500000e-009,-3.99999097e-004
,,,-3.10000000e-009,-3.74999095e-004
,,,-3.07500000e-009,-3.35936592e-004
,,,-3.05000000e-009,-2.84374089e-004
,,,-3.02500000e-009,-2.23436584e-004
,,,-3.00000000e-009,-1.59374080e-004
,,,-2.97500000e-009,-9.68740755e-005
,,,-2.95000000e-009,-4.21865717e-005
,,,-2.92500000e-009,9.31322575e-010
,,,-2.90000000e-009,1.25009322e-005
,,,-2.87500000e-009,4.68843165e-006
,,,-2.85000000e-009,-2.34365703e-005
,,,-2.82500000e-009,-7.03115737e-005
,,,-2.80000000e-009,-1.35936578e-004
,,,-2.77500000e-009,-2.15624084e-004
,,,-2.75000000e-009,-3.06249090e-004
,,,-2.72500000e-009,-3.99999097e-004
,,,-2.70000000e-009,-4.96874104e-004
,,,-2.67500000e-009,-5.85936610e-004
,,,-2.65000000e-009,-6.65624116e-004
,,,-2.62500000e-009,-7.29686620e-004
,,,-2.60000000e-009,-7.74999124e-004
,,,-2.57500000e-009,-8.03124126e-004
,,,-2.55000000e-009,-8.10936626e-004
,,,-2.52500000e-009,-7.99999125e-004
,,,-2.50000000e-009,-7.71874123e-004
,,,-2.47500000e-009,-7.29686620e-004
,,,-2.45000000e-009,-6.76561617e-004
,,,-2.42500000e-009,-6.15624112e-004
,,,-2.40000000e-009,-5.53124108e-004
,,,-2.37500000e-009,-4.93749104e-004
,,,-2.35000000e-009,-4.40624100e-004
,,,-2.32500000e-009,-3.99999097e-004
,,,-2.30000000e-009,-3.76561595e-004
,,,-2.27500000e-009,-3.73436595e-004
,,,-2.25000000e-009,-3.92186596e-004
,,,-2.22500000e-009,-4.32811599e-004
,,,-2.20000000e-009,-4.96874104e-004
,,,-2.17500000e-009,-5.82811610e-004
,,,-2.15000000e-009,-6.85936617e-004
,,,-2.12500000e-009,-7.99999125e-004
,,,-2.10000000e-009,-9.20311634e-004
,,,-2.07500000e-009,-1.03437414e-003
,,,-2.05000000e-009,-1.13593665e-003
,,,-2.02500000e-009,-1.21562415e-003
,,,-2.00000000e-009,-1.26718666e-003
,,,-1.97500000e-009,-1.28281166e-003
,,,-1.95000000e-009,-1.26093666e-003
,,,-1.92500000e-009,-1.19999915e-003
,,,-1.90000000e-009,-1.09999915e-003
,,,-1.87500000e-009,-9.76561638e-004
,,,-1.85000000e-009,-8.40624128e-004
,,,-1.82500000e-009,-7.06249119e-004
,,,-1.80000000e-009,-5.85936610e-004
,,,-1.77500000e-009,-4.89061603e-004
,,,-1.75000000e-009,-4.26561599e-004
,,,-1.72500000e-009,-3.99999097e-004
,,,-1.70000000e-009,-4.15624098e-004
,,,-1.67500000e-009,-4.62499101e-004
,,,-1.65000000e-009,-5.34374107e-004
,,,-1.62500000e-009,-6.15624112e-004
,,,-1.60000000e-009,-6.95311618e-004
,,,-1.57500000e-009,-7.59374122e-004
,,,-1.55000000e-009,-7.96874125e-004
,,,-1.52500000e-009,-7.99999125e-004
,,,-1.50000000e-009,-7.74999124e-004
,,,-1.47500000e-009,-7.20311620e-004
,,,-1.45000000e-009,-6.43749114e-004
,,,-1.42500000e-009,-5.59374108e-004
,,,-1.40000000e-009,-4.81249103e-004
,,,-1.37500000e-009,-4.21874099e-004
,,,-1.35000000e-009,-3.92186596e-004
,,,-1.32500000e-009,-3.99999097e-004
,,,-1.30000000e-009,-4.68749102e-004
,,,-1.27500000e-009,-5.76561609e-004
,,,-1.25000000e-009,-7.10936619e-004
,,,-1.22500000e-009,-8.54686629e-004
,,,-1.20000000e-009,-9.92186639e-004
,,,-1.17500000e-009,-1.10468665e-003
,,,-1.15000000e-009,-1.17812415e-003
,,,-1.12500000e-009,-1.19999915e-003
,,,-1.10000000e-009,-1.20781165e-003
,,,-1.07500000e-009,-1.16874915e-003
,,,-1.05000000e-009,-1.08749915e-003
,,,-1.02500000e-009,-9.71874137e-004
,,,-1.00000000e-009,-8.32811628e-004
,,,-9.75000000e-010,-6.81249117e-004
,,,-9.50000000e-010,-5.32811606e-004
,,,-9.25000000e-010,-3.99999097e-004
,,,-9.00000000e-010,-3.85936596e-004
,,,-8.75000000e-010,-4.15624098e-004
,,,-8.50000000e-010,-4.78124103e-004
,,,-8.25000000e-010,-5.60936608e-004
,,,-8.00000000e-010,-6.46874114e-004
,,,-7.75000000e-010,-7.23436620e-004
,,,-7.50000000e-010,-7.76561624e-004
,,,-7.25000000e-010,-7.99999125e-004
,,,-7.00000000e-010,-9.39061635e-004
,,,-6.75000000e-010,-1.07187414e-003
,,,-6.50000000e-010,-1.19374915e-003
,,,-6.25000000e-010,-1.29999916e-003
,,,-6.00000000e-010,-1.39062417e-003
,,,-5.75000000e-010,-1.46718667e-003
,,,-5.50000000e-010,-1.53281168e-003
,,,-5.25000000e-010,-1.59999918e-003
,,,-5.00000000e-010,-1.87031170e-003
,,,-4.75000000e-010,-2.18749922e-003
,,,-4.50000000e-010,-2.54218675e-003
,,,-4.25000000e-010,-2.91874928e-003
,,,-4.00000000e-010,-3.30156180e-003
,,,-3.75000000e-010,-3.67968683e-003
,,,-3.50000000e-010,-4.04531186e-003
,,,-3.25000000e-010,-4.39999938e-003
,,,-3.00000000e-010,-4.95312442e-003
,,,-2.75000000e-010,-5.54218696e-003
,,,-2.50000000e-010,-6.16249950e-003
,,,-2.25000000e-010,-6.80624955e-003
,,,-2.00000000e-010,-7.47187460e-003
,,,-1.75000000e-010,-8.15624965e-003
,,,-1.50000000e-010,-8.86249970e-003
,,,-1.25000000e-010,-9.59999975e-003
,,,-1.00000000e-010,-1.05562498e-002
,,,-7.50000000e-011,-1.15921874e-002
,,,-5.00000000e-011,-1.26968750e-002
,,,-2.50000000e-011,-1.38578125e-002
,,,0.00000000e+000,-1.50593751e-002
,,,2.50000000e-011,-1.62906252e-002
,,,5.00000000e-011,-1.75390628e-002
,,,7.50000000e-011,-1.88000004e-002
,,,1.00000000e-010,-2.01718755e-002
,,,1.25000000e-010,-2.15843756e-002
,,,1.50000000e-010,-2.30328132e-002
,,,1.75000000e-010,-2.45031258e-002
,,,2.00000000e-010,-2.59859384e-002
,,,2.25000000e-010,-2.74687510e-002
,,,2.50000000e-010,-2.89421886e-002
,,,2.75000000e-010,-3.04000012e-002
,,,3.00000000e-010,-3.18281263e-002
,,,3.25000000e-010,-3.32656264e-002
,,,3.50000000e-010,-3.47109390e-002
,,,3.75000000e-010,-3.61500016e-002
,,,4.00000000e-010,-3.75734392e-002
,,,4.25000000e-010,-3.89640643e-002
,,,4.50000000e-010,-4.03093769e-002
,,,4.75000000e-010,-4.16000020e-002
,,,5.00000000e-010,-4.27125021e-002
,,,5.25000000e-010,-4.37968772e-002
,,,5.50000000e-010,-4.48578147e-002
,,,5.75000000e-010,-4.58921898e-002
,,,6.00000000e-010,-4.68921899e-002
,,,6.25000000e-010,-4.78484400e-002
,,,6.50000000e-010,-4.87531275e-002
,,,6.75000000e-010,-4.96000026e-002
,,,7.00000000e-010,-5.01890651e-002
,,,7.25000000e-010,-5.07593777e-002
,,,7.50000000e-010,-5.13234402e-002
,,,7.75000000e-010,-5.18843777e-002
,,,8.00000000e-010,-5.24406278e-002
,,,8.25000000e-010,-5.29859403e-002
,,,8.50000000e-010,-5.35093779e-002
,,,8.75000000e-010,-5.40000029e-002
,,,9.00000000e-010,-5.42015654e-002
,,,9.25000000e-010,-5.43921904e-002
,,,9.50000000e-010,-5.45750029e-002
,,,9.75000000e-010,-5.47500029e-002
,,,1.00000000e-009,-5.49093780e-002
,,,1.02500000e-009,-5.50437530e-002
,,,1.05000000e-009,-5.51437530e-002
,,,1.07500000e-009,-5.52000030e-002
,,,1.10000000e-009,-5.49593780e-002
,,,1.12500000e-009,-5.47046904e-002
,,,1.15000000e-009,-5.44531279e-002
,,,1.17500000e-009,-5.42187529e-002
,,,1.20000000e-009,-5.40140654e-002
,,,1.22500000e-009,-5.38421904e-002
,,,1.25000000e-009,-5.37062529e-002
,,,1.27500000e-009,-5.36000029e-002
,,,1.30000000e-009,-5.32937528e-002
,,,1.32500000e-009,-5.30140653e-002
,,,1.35000000e-009,-5.27578153e-002
,,,1.37500000e-009,-5.25250028e-002
,,,1.40000000e-009,-5.23062528e-002
,,,1.42500000e-009,-5.20906278e-002
,,,1.45000000e-009,-5.18609402e-002
,,,1.47500000e-009,-5.16000027e-002
,,,1.50000000e-009,-5.11078152e-002
,,,1.52500000e-009,-5.05546901e-002
,,,1.55000000e-009,-4.99453151e-002
,,,1.57500000e-009,-4.92906276e-002
,,,1.60000000e-009,-4.85984400e-002
,,,1.62500000e-009,-4.78812525e-002
,,,1.65000000e-009,-4.71468774e-002
,,,1.67500000e-009,-4.64000024e-002
,,,1.70000000e-009,-4.55218773e-002
,,,1.72500000e-009,-4.46296897e-002
,,,1.75000000e-009,-4.37328147e-002
,,,1.77500000e-009,-4.28484396e-002
,,,1.80000000e-009,-4.19859395e-002
,,,1.82500000e-009,-4.11562520e-002
,,,1.85000000e-009,-4.03609394e-002
,,,1.87500000e-009,-3.96000019e-002
,,,1.90000000e-009,-3.88078143e-002
,,,1.92500000e-009,-3.80140643e-002
,,,1.95000000e-009,-3.72156267e-002
,,,1.97500000e-009,-3.64125016e-002
,,,2.00000000e-009,-3.56078141e-002
,,,2.02500000e-009,-3.48046890e-002
,,,2.05000000e-009,-3.40015640e-002
,,,2.07500000e-009,-3.32000014e-002
,,,2.10000000e-009,-3.23906264e-002
,,,2.12500000e-009,-3.15500013e-002
,,,2.15000000e-009,-3.06859387e-002
,,,2.17500000e-009,-2.98062512e-002
,,,2.20000000e-009,-2.89234386e-002
,,,2.22500000e-009,-2.80531261e-002
,,,2.25000000e-009,-2.72093760e-002
,,,2.27500000e-009,-2.64000009e-002
,,,2.30000000e-009,-2.56765634e-002
,,,2.32500000e-009,-2.49656258e-002
,,,2.35000000e-009,-2.42687508e-002
,,,2.37500000e-009,-2.35937507e-002
,,,2.40000000e-009,-2.29421882e-002
,,,2.42500000e-009,-2.23250006e-002
,,,2.45000000e-009,-2.17437506e-002
,,,2.47500000e-009,-2.12000006e-002
,,,2.50000000e-009,-2.07703130e-002
,,,2.52500000e-009,-2.03343755e-002
,,,2.55000000e-009,-1.98890630e-002
,,,2.57500000e-009,-1.94328129e-002
,,,2.60000000e-009,-1.89687504e-002
,,,2.62500000e-009,-1.85031254e-002
,,,2.65000000e-009,-1.80453128e-002
,,,2.67500000e-009,-1.76000003e-002
,,,2.70000000e-009,-1.72609378e-002
,,,2.72500000e-009,-1.69093753e-002
,,,2.75000000e-009,-1.65453127e-002
,,,2.77500000e-009,-1.61734377e-002
,,,2.80000000e-009,-1.58046877e-002
,,,2.82500000e-009,-1.54468752e-002
,,,2.85000000e-009,-1.51093751e-002
,,,2.87500000e-009,-1.48000001e-002
,,,2.90000000e-009,-1.46062501e-002
,,,2.92500000e-009,-1.44125001e-002
,,,2.95000000e-009,-1.42171876e-002
,,,2.97500000e-009,-1.40156251e-002
,,,3.00000000e-009,-1.38109375e-002
,,,3.02500000e-009,-1.36062500e-002
,,,3.05000000e-009,-1.34015625e-002
,,,3.07500000e-009,-1.32000000e-002
,,,3.10000000e-009,-1.30750000e-002
,,,3.12500000e-009,-1.29328125e-002
,,,3.15000000e-009,-1.27765625e-002
,,,3.17500000e-009,-1.26093750e-002
,,,3.20000000e-009,-1.24390624e-002
,,,3.22500000e-009,-1.22749999e-002
,,,3.25000000e-009,-1.21265624e-002
,,,3.27500000e-009,-1.19999999e-002
,,,3.30000000e-009,-1.19515624e-002
,,,3.32500000e-009,-1.19171874e-002
,,,3.35000000e-009,-1.18953124e-002
,,,3.37500000e-009,-1.18874999e-002
,,,3.40000000e-009,-1.18937499e-002
,,,3.42500000e-009,-1.19140624e-002
,,,3.45000000e-009,-1.19499999e-002
,,,3.47500000e-009,-1.19999999e-002
,,,3.50000000e-009,-1.20812499e-002
,,,3.52500000e-009,-1.21562499e-002
,,,3.55000000e-009,-1.22218749e-002
,,,3.57500000e-009,-1.22765624e-002
,,,3.60000000e-009,-1.23203124e-002
,,,3.62500000e-009,-1.23546874e-002
,,,3.65000000e-009,-1.23828124e-002
,,,3.67500000e-009,-1.23999999e-002
,,,3.70000000e-009,-1.24062499e-002
,,,3.72500000e-009,-1.23937499e-002
,,,3.75000000e-009,-1.23609374e-002
,,,3.77500000e-009,-1.23109374e-002
,,,3.80000000e-009,-1.22468749e-002
,,,3.82500000e-009,-1.21718749e-002
,,,3.85000000e-009,-1.20890624e-002
,,,3.87500000e-009,-1.19999999e-002
,,,3.90000000e-009,-1.18921874e-002
,,,3.92500000e-009,-1.17765624e-002
,,,3.95000000e-009,-1.16609374e-002
,,,3.97500000e-009,-1.15468749e-002
,,,4.00000000e-009,-1.14421874e-002
,,,4.02500000e-009,-1.13484374e-002
,,,4.05000000e-009,-1.12671874e-002
,,,4.07500000e-009,-1.11999999e-002
,,,4.10000000e-009,-1.11234374e-002
,,,4.12500000e-009,-1.10453124e-002
,,,4.15000000e-009,-1.09640623e-002
,,,4.17500000e-009,-1.08765623e-002
,,,4.20000000e-009,-1.07796873e-002
,,,4.22500000e-009,-1.06687498e-002
,,,4.25000000e-009,-1.05437498e-002
,,,4.27500000e-009,-1.03999998e-002
,,,4.30000000e-009,-1.02171873e-002
,,,4.32500000e-009,-1.00156248e-002
,,,4.35000000e-009,-9.80156226e-003
,,,4.37500000e-009,-9.58124975e-003
,,,4.40000000e-009,-9.36562473e-003
,,,4.42500000e-009,-9.15937472e-003
,,,4.45000000e-009,-8.97031220e-003
,,,4.47500000e-009,-8.79999969e-003
,,,4.50000000e-009,-8.63749968e-003
,,,4.52500000e-009,-8.48593717e-003
,,,4.55000000e-009,-8.34218716e-003
,,,4.57500000e-009,-8.20312465e-003
,,,4.60000000e-009,-8.06249964e-003
,,,4.62500000e-009,-7.91874963e-003
,,,4.65000000e-009,-7.76562462e-003
,,,4.67500000e-009,-7.59999961e-003
,,,4.70000000e-009,-7.42031209e-003
,,,4.72500000e-009,-7.22343708e-003
,,,4.75000000e-009,-7.01093706e-003
,,,4.77500000e-009,-6.79062455e-003
,,,4.80000000e-009,-6.57187453e-003
,,,4.82500000e-009,-6.36249952e-003
,,,4.85000000e-009,-6.17031201e-003
,,,4.87500000e-009,-5.99999949e-003
,,,4.90000000e-009,-5.86249948e-003
,,,4.92500000e-009,-5.74218698e-003
,,,4.95000000e-009,-5.63749947e-003
,,,4.97500000e-009,-5.54374946e-003
,,,5.00000000e-009,-5.45624945e-003
,,,5.02500000e-009,-5.37499945e-003
,,,5.05000000e-009,-5.29062444e-003
,,,5.07500000e-009,-5.19999944e-003
,,,5.10000000e-009,-5.10937443e-003
,,,5.12500000e-009,-4.99687442e-003
,,,5.15000000e-009,-4.86249941e-003
,,,5.17500000e-009,-4.70937440e-003
,,,5.20000000e-009,-4.53906189e-003
,,,5.22500000e-009,-4.36093688e-003
,,,5.25000000e-009,-4.17968686e-003
,,,5.27500000e-009,-3.99999935e-003
,,,5.30000000e-009,-3.84999934e-003
,,,5.32500000e-009,-3.70624933e-003
,,,5.35000000e-009,-3.57499932e-003
,,,5.37500000e-009,-3.45937431e-003
,,,5.40000000e-009,-3.36249931e-003
,,,5.42500000e-009,-3.28593680e-003
,,,5.45000000e-009,-3.23281180e-003
,,,5.47500000e-009,-3.19999930e-003
,,,5.50000000e-009,-3.20312430e-003
,,,5.52500000e-009,-3.21249930e-003
,,,5.55000000e-009,-3.22499930e-003
,,,5.57500000e-009,-3.23749930e-003
,,,5.60000000e-009,-3.24374930e-003
,,,5.62500000e-009,-3.24218680e-003
,,,5.65000000e-009,-3.22812430e-003
,,,5.67500000e-009,-3.19999930e-003
,,,5.70000000e-009,-3.16718679e-003
,,,5.72500000e-009,-3.10937429e-003
,,,5.75000000e-009,-3.02812428e-003
,,,5.77500000e-009,-2.92499928e-003
,,,5.80000000e-009,-2.80624927e-003
