RawData/WithScintilator/R7_2pt2B_15mV/wave011_Ch2.csv

"Record Length",1000,"Points",-7.72500000e-009,5.62509353e-005
"Sample Interval",2.50000000e-011,s,-7.70000000e-009,9.31322575e-010
"Trigger Point",309,"Samples",-7.67500000e-009,-5.15615723e-005
"Trigger Time",2.90349515e-012,s,-7.65000000e-009,-8.59365748e-005
"",,,-7.62500000e-009,-1.06249076e-004
"Horizontal Offset",-7.72500000e-009,s,-7.60000000e-009,-1.10936577e-004
,,,-7.57500000e-009,-9.84365756e-005
,,,-7.55000000e-009,-7.49990740e-005
,,,-7.52500000e-009,-4.06240716e-005
,,,-7.50000000e-009,9.31322575e-010
,,,-7.47500000e-009,3.75009340e-005
,,,-7.45000000e-009,7.18759364e-005
,,,-7.42500000e-009,9.84384383e-005
,,,-7.40000000e-009,1.12500939e-004
,,,-7.37500000e-009,1.10938439e-004
,,,-7.35000000e-009,9.21884378e-005
,,,-7.32500000e-009,5.46884352e-005
,,,-7.30000000e-009,9.31322575e-010
,,,-7.27500000e-009,-7.03115737e-005
,,,-7.25000000e-009,-1.46874079e-004
,,,-7.22500000e-009,-2.24999085e-004
,,,-7.20000000e-009,-2.96874090e-004
,,,-7.17500000e-009,-3.54686594e-004
,,,-7.15000000e-009,-3.93749097e-004
,,,-7.12500000e-009,-4.09374098e-004
,,,-7.10000000e-009,-3.99999097e-004
,,,-7.07500000e-009,-3.60936594e-004
,,,-7.05000000e-009,-3.01561590e-004
,,,-7.02500000e-009,-2.31249085e-004
,,,-7.00000000e-009,-1.56249080e-004
,,,-6.97500000e-009,-8.90615750e-005
,,,-6.95000000e-009,-3.59365712e-005
,,,-6.92500000e-009,-4.68656901e-006
,,,-6.90000000e-009,9.31322575e-010
,,,-6.87500000e-009,-2.03115701e-005
,,,-6.85000000e-009,-6.56240733e-005
,,,-6.82500000e-009,-1.28124078e-004
,,,-6.80000000e-009,-1.99999083e-004
,,,-6.77500000e-009,-2.73436588e-004
,,,-6.75000000e-009,-3.35936592e-004
,,,-6.72500000e-009,-3.79686596e-004
,,,-6.70000000e-009,-3.99999097e-004
,,,-6.67500000e-009,-3.90624096e-004
,,,-6.65000000e-009,-3.54686594e-004
,,,-6.62500000e-009,-2.99999090e-004
,,,-6.60000000e-009,-2.31249085e-004
,,,-6.57500000e-009,-1.59374080e-004
,,,-6.55000000e-009,-9.21865752e-005
,,,-6.52500000e-009,-3.74990713e-005
,,,-6.50000000e-009,9.31322575e-010
,,,-6.47500000e-009,1.56259324e-005
,,,-6.45000000e-009,1.25009322e-005
,,,-6.42500000e-009,-3.12406890e-006
,,,-6.40000000e-009,-2.49990704e-005
,,,-6.37500000e-009,-4.37490718e-005
,,,-6.35000000e-009,-5.15615723e-005
,,,-6.32500000e-009,-3.90615714e-005
,,,-6.30000000e-009,9.31322575e-010
,,,-6.27500000e-009,6.56259360e-005
,,,-6.25000000e-009,1.57813442e-004
,,,-6.22500000e-009,2.68750950e-004
,,,-6.20000000e-009,3.90625959e-004
,,,-6.17500000e-009,5.14063468e-004
,,,-6.15000000e-009,6.29688476e-004
,,,-6.12500000e-009,7.28125983e-004
,,,-6.10000000e-009,8.00000988e-004
,,,-6.07500000e-009,8.32813490e-004
,,,-6.05000000e-009,8.34375990e-004
,,,-6.02500000e-009,8.04688488e-004
,,,-6.00000000e-009,7.48438484e-004
,,,-5.97500000e-009,6.73438479e-004
,,,-5.95000000e-009,5.85938473e-004
,,,-5.92500000e-009,4.92188466e-004
,,,-5.90000000e-009,4.00000960e-004
,,,-5.87500000e-009,3.10938453e-004
,,,-5.85000000e-009,2.34375948e-004
,,,-5.82500000e-009,1.71875943e-004
,,,-5.80000000e-009,1.20313440e-004
,,,-5.77500000e-009,7.96884370e-005
,,,-5.75000000e-009,4.84384348e-005
,,,-5.72500000e-009,2.18759329e-005
,,,-5.70000000e-009,9.31322575e-010
,,,-5.67500000e-009,-2.03115701e-005
,,,-5.65000000e-009,-3.59365712e-005
,,,-5.62500000e-009,-4.84365721e-005
,,,-5.60000000e-009,-5.46865725e-005
,,,-5.57500000e-009,-5.46865725e-005
,,,-5.55000000e-009,-4.68740720e-005
,,,-5.52500000e-009,-2.96865708e-005
,,,-5.50000000e-009,9.31322575e-010
,,,-5.47500000e-009,3.90634341e-005
,,,-5.45000000e-009,8.90634376e-005
,,,-5.42500000e-009,1.43750941e-004
,,,-5.40000000e-009,2.01563446e-004
,,,-5.37500000e-009,2.59375950e-004
,,,-5.35000000e-009,3.12500953e-004
,,,-5.32500000e-009,3.60938457e-004
,,,-5.30000000e-009,4.00000960e-004
,,,-5.27500000e-009,4.23438461e-004
,,,-5.25000000e-009,4.37500962e-004
,,,-5.22500000e-009,4.42188463e-004
,,,-5.20000000e-009,4.39063462e-004
,,,-5.17500000e-009,4.29688462e-004
,,,-5.15000000e-009,4.18750961e-004
,,,-5.12500000e-009,4.07813460e-004
,,,-5.10000000e-009,4.00000960e-004
,,,-5.07500000e-009,3.96875959e-004
,,,-5.05000000e-009,3.96875959e-004
,,,-5.02500000e-009,4.00000960e-004
,,,-5.00000000e-009,4.04688460e-004
,,,-4.97500000e-009,4.07813460e-004
,,,-4.95000000e-009,4.07813460e-004
,,,-4.92500000e-009,4.06250960e-004
,,,-4.90000000e-009,4.00000960e-004
,,,-4.87500000e-009,3.87500959e-004
,,,-4.85000000e-009,3.75000958e-004
,,,-4.82500000e-009,3.62500957e-004
,,,-4.80000000e-009,3.53125956e-004
,,,-4.77500000e-009,3.51563456e-004
,,,-4.75000000e-009,3.57813457e-004
,,,-4.72500000e-009,3.73438458e-004
,,,-4.70000000e-009,4.00000960e-004
,,,-4.67500000e-009,4.28125962e-004
,,,-4.65000000e-009,4.59375964e-004
,,,-4.62500000e-009,4.85938466e-004
,,,-4.60000000e-009,5.04688467e-004
,,,-4.57500000e-009,5.09375967e-004
,,,-4.55000000e-009,4.93750966e-004
,,,-4.52500000e-009,4.57813464e-004
,,,-4.50000000e-009,4.00000960e-004
,,,-4.47500000e-009,3.21875954e-004
,,,-4.45000000e-009,2.32813448e-004
,,,-4.42500000e-009,1.43750941e-004
,,,-4.40000000e-009,6.25009357e-005
,,,-4.37500000e-009,9.31322575e-010
,,,-4.35000000e-009,-3.59365712e-005
,,,-4.32500000e-009,-3.74990713e-005
,,,-4.30000000e-009,9.31322575e-010
,,,-4.27500000e-009,7.50009366e-005
,,,-4.25000000e-009,1.79688444e-004
,,,-4.22500000e-009,3.04688453e-004
,,,-4.20000000e-009,4.39063462e-004
,,,-4.17500000e-009,5.67188471e-004
,,,-4.15000000e-009,6.76563479e-004
,,,-4.12500000e-009,7.57813485e-004
,,,-4.10000000e-009,8.00000988e-004
,,,-4.07500000e-009,7.93750988e-004
,,,-4.05000000e-009,7.45313484e-004
,,,-4.02500000e-009,6.59375978e-004
,,,-4.00000000e-009,5.42188470e-004
,,,-3.97500000e-009,4.06250960e-004
,,,-3.95000000e-009,2.62500950e-004
,,,-3.92500000e-009,1.23438440e-004
,,,-3.90000000e-009,9.31322575e-010
,,,-3.87500000e-009,-9.84365756e-005
,,,-3.85000000e-009,-1.67186581e-004
,,,-3.82500000e-009,-2.03124083e-004
,,,-3.80000000e-009,-2.07811583e-004
,,,-3.77500000e-009,-1.84374082e-004
,,,-3.75000000e-009,-1.37499078e-004
,,,-3.72500000e-009,-7.49990740e-005
,,,-3.70000000e-009,9.31322575e-010
,,,-3.67500000e-009,7.81259369e-005
,,,-3.65000000e-009,1.53125942e-004
,,,-3.62500000e-009,2.21875947e-004
,,,-3.60000000e-009,2.79688451e-004
,,,-3.57500000e-009,3.26563454e-004
,,,-3.55000000e-009,3.60938457e-004
,,,-3.52500000e-009,3.84375959e-004
,,,-3.50000000e-009,4.00000960e-004
,,,-3.47500000e-009,4.03125960e-004
,,,-3.45000000e-009,4.01563460e-004
,,,-3.42500000e-009,3.96875959e-004
,,,-3.40000000e-009,3.92188459e-004
,,,-3.37500000e-009,3.89063459e-004
,,,-3.35000000e-009,3.87500959e-004
,,,-3.32500000e-009,3.90625959e-004
,,,-3.30000000e-009,4.00000960e-004
,,,-3.27500000e-009,4.07813460e-004
,,,-3.25000000e-009,4.17188461e-004
,,,-3.22500000e-009,4.28125962e-004
,,,-3.20000000e-009,4.35938462e-004
,,,-3.17500000e-009,4.40625963e-004
,,,-3.15000000e-009,4.35938462e-004
,,,-3.12500000e-009,4.23438461e-004
,,,-3.10000000e-009,4.00000960e-004
,,,-3.07500000e-009,3.65625957e-004
,,,-3.05000000e-009,3.23438454e-004
,,,-3.02500000e-009,2.71875951e-004
,,,-3.00000000e-009,2.14063446e-004
,,,-2.97500000e-009,1.54688442e-004
,,,-2.95000000e-009,9.68759382e-005
,,,-2.92500000e-009,4.53134345e-005
,,,-2.90000000e-009,9.31322575e-010
,,,-2.87500000e-009,-3.59365712e-005
,,,-2.85000000e-009,-5.93740729e-005
,,,-2.82500000e-009,-7.03115737e-005
,,,-2.80000000e-009,-7.03115737e-005
,,,-2.77500000e-009,-6.09365730e-005
,,,-2.75000000e-009,-4.53115719e-005
,,,-2.72500000e-009,-2.34365703e-005
,,,-2.70000000e-009,9.31322575e-010
,,,-2.67500000e-009,1.87509326e-005
,,,-2.65000000e-009,3.59384339e-005
,,,-2.62500000e-009,4.53134345e-005
,,,-2.60000000e-009,4.84384348e-005
,,,-2.57500000e-009,4.53134345e-005
,,,-2.55000000e-009,3.59384339e-005
,,,-2.52500000e-009,1.87509326e-005
,,,-2.50000000e-009,9.31322575e-010
,,,-2.47500000e-009,-2.49990704e-005
,,,-2.45000000e-009,-4.84365721e-005
,,,-2.42500000e-009,-6.71865734e-005
,,,-2.40000000e-009,-7.96865743e-005
,,,-2.37500000e-009,-8.12490744e-005
,,,-2.35000000e-009,-6.87490735e-005
,,,-2.32500000e-009,-4.21865717e-005
,,,-2.30000000e-009,9.31322575e-010
,,,-2.27500000e-009,4.84384348e-005
,,,-2.25000000e-009,1.06250939e-004
,,,-2.22500000e-009,1.68750943e-004
,,,-2.20000000e-009,2.31250948e-004
,,,-2.17500000e-009,2.89063452e-004
,,,-2.15000000e-009,3.39063455e-004
,,,-2.12500000e-009,3.76563458e-004
,,,-2.10000000e-009,4.00000960e-004
,,,-2.07500000e-009,3.90625959e-004
,,,-2.05000000e-009,3.60938457e-004
,,,-2.02500000e-009,3.15625954e-004
,,,-2.00000000e-009,2.59375950e-004
,,,-1.97500000e-009,1.93750945e-004
,,,-1.95000000e-009,1.26563440e-004
,,,-1.92500000e-009,5.93759355e-005
,,,-1.90000000e-009,9.31322575e-010
,,,-1.87500000e-009,-7.65615741e-005
,,,-1.85000000e-009,-1.46874079e-004
,,,-1.82500000e-009,-2.10936584e-004
,,,-1.80000000e-009,-2.64061587e-004
,,,-1.77500000e-009,-3.09374091e-004
,,,-1.75000000e-009,-3.45311593e-004
,,,-1.72500000e-009,-3.74999095e-004
,,,-1.70000000e-009,-3.99999097e-004
,,,-1.67500000e-009,-4.54686601e-004
,,,-1.65000000e-009,-5.12499105e-004
,,,-1.62500000e-009,-5.71874109e-004
,,,-1.60000000e-009,-6.29686613e-004
,,,-1.57500000e-009,-6.84374117e-004
,,,-1.55000000e-009,-7.32811621e-004
,,,-1.52500000e-009,-7.71874123e-004
,,,-1.50000000e-009,-7.99999125e-004
,,,-1.47500000e-009,-8.64061630e-004
,,,-1.45000000e-009,-9.28124134e-004
,,,-1.42500000e-009,-9.89061639e-004
,,,-1.40000000e-009,-1.04374914e-003
,,,-1.37500000e-009,-1.09218665e-003
,,,-1.35000000e-009,-1.13281165e-003
,,,-1.32500000e-009,-1.16874915e-003
,,,-1.30000000e-009,-1.19999915e-003
,,,-1.27500000e-009,-1.28749916e-003
,,,-1.25000000e-009,-1.39218667e-003
,,,-1.22500000e-009,-1.51562418e-003
,,,-1.20000000e-009,-1.65624919e-003
,,,-1.17500000e-009,-1.81718670e-003
,,,-1.15000000e-009,-1.99374921e-003
,,,-1.12500000e-009,-2.18906172e-003
,,,-1.10000000e-009,-2.39999924e-003
,,,-1.07500000e-009,-2.67499926e-003
,,,-1.05000000e-009,-2.97187428e-003
,,,-1.02500000e-009,-3.28437430e-003
,,,-1.00000000e-009,-3.60468682e-003
,,,-9.75000000e-010,-3.92187435e-003
,,,-9.50000000e-010,-4.22968687e-003
,,,-9.25000000e-010,-4.52343689e-003
,,,-9.00000000e-010,-4.79999941e-003
,,,-8.75000000e-010,-5.09374943e-003
,,,-8.50000000e-010,-5.38437445e-003
,,,-8.25000000e-010,-5.67499947e-003
,,,-8.00000000e-010,-5.96562449e-003
,,,-7.75000000e-010,-6.26093701e-003
,,,-7.50000000e-010,-6.56249953e-003
,,,-7.25000000e-010,-6.87499956e-003
,,,-7.00000000e-010,-7.19999958e-003
,,,-6.75000000e-010,-7.55312460e-003
,,,-6.50000000e-010,-7.93124963e-003
,,,-6.25000000e-010,-8.33124966e-003
,,,-6.00000000e-010,-8.74531219e-003
,,,-5.75000000e-010,-9.16874972e-003
,,,-5.50000000e-010,-9.59062475e-003
,,,-5.25000000e-010,-1.00031248e-002
,,,-5.00000000e-010,-1.03999998e-002
,,,-4.75000000e-010,-1.07578123e-002
,,,-4.50000000e-010,-1.10999999e-002
,,,-4.25000000e-010,-1.14265624e-002
,,,-4.00000000e-010,-1.17359374e-002
,,,-3.75000000e-010,-1.20281249e-002
,,,-3.50000000e-010,-1.23031249e-002
,,,-3.25000000e-010,-1.25593750e-002
,,,-3.00000000e-010,-1.28000000e-002
,,,-2.75000000e-010,-1.29859375e-002
,,,-2.50000000e-010,-1.31703125e-002
,,,-2.25000000e-010,-1.33609375e-002
,,,-2.00000000e-010,-1.35578125e-002
,,,-1.75000000e-010,-1.37625000e-002
,,,-1.50000000e-010,-1.39734376e-002
,,,-1.25000000e-010,-1.41875001e-002
,,,-1.00000000e-010,-1.44000001e-002
,,,-7.50000000e-011,-1.45515626e-002
,,,-5.00000000e-011,-1.47062501e-002
,,,-2.50000000e-011,-1.48640626e-002
,,,0.00000000e+000,-1.50250001e-002
,,,2.50000000e-011,-1.51828126e-002
,,,5.00000000e-011,-1.53359377e-002
,,,7.50000000e-011,-1.54765627e-002
,,,1.00000000e-010,-1.56000002e-002
,,,1.25000000e-010,-1.56359377e-002
,,,1.50000000e-010,-1.56562502e-002
,,,1.75000000e-010,-1.56671877e-002
,,,2.00000000e-010,-1.56671877e-002
,,,2.25000000e-010,-1.56609377e-002
,,,2.50000000e-010,-1.56484377e-002
,,,2.75000000e-010,-1.56281252e-002
,,,3.00000000e-010,-1.56000002e-002
,,,3.25000000e-010,-1.54953127e-002
,,,3.50000000e-010,-1.53875002e-002
,,,3.75000000e-010,-1.52812502e-002
,,,4.00000000e-010,-1.51765626e-002
,,,4.25000000e-010,-1.50781251e-002
,,,4.50000000e-010,-1.49843751e-002
,,,4.75000000e-010,-1.48921876e-002
,,,5.00000000e-010,-1.48000001e-002
,,,5.25000000e-010,-1.46500001e-002
,,,5.50000000e-010,-1.44968751e-002
,,,5.75000000e-010,-1.43421876e-002
,,,6.00000000e-010,-1.41890626e-002
,,,6.25000000e-010,-1.40390626e-002
,,,6.50000000e-010,-1.38906251e-002
,,,6.75000000e-010,-1.37453125e-002
,,,7.00000000e-010,-1.36000000e-002
,,,7.25000000e-010,-1.34078125e-002
,,,7.50000000e-010,-1.32093750e-002
,,,7.75000000e-010,-1.30078125e-002
,,,8.00000000e-010,-1.28031250e-002
,,,8.25000000e-010,-1.26000000e-002
,,,8.50000000e-010,-1.23984374e-002
,,,8.75000000e-010,-1.21999999e-002
,,,9.00000000e-010,-1.19999999e-002
,,,9.25000000e-010,-1.17671874e-002
,,,9.50000000e-010,-1.15265624e-002
,,,9.75000000e-010,-1.12765624e-002
,,,1.00000000e-009,-1.10234373e-002
,,,1.02500000e-009,-1.07656248e-002
,,,1.05000000e-009,-1.05078123e-002
,,,1.07500000e-009,-1.02531248e-002
,,,1.10000000e-009,-9.99999978e-003
,,,1.12500000e-009,-9.73749976e-003
,,,1.15000000e-009,-9.47031224e-003
,,,1.17500000e-009,-9.20156222e-003
,,,1.20000000e-009,-8.93749970e-003
,,,1.22500000e-009,-8.68124968e-003
,,,1.25000000e-009,-8.43906217e-003
,,,1.27500000e-009,-8.21093715e-003
,,,1.30000000e-009,-7.99999963e-003
,,,1.32500000e-009,-7.80312462e-003
,,,1.35000000e-009,-7.60781211e-003
,,,1.37500000e-009,-7.41249959e-003
,,,1.40000000e-009,-7.21406208e-003
,,,1.42500000e-009,-7.01562457e-003
,,,1.45000000e-009,-6.81406205e-003
,,,1.47500000e-009,-6.60937454e-003
,,,1.50000000e-009,-6.39999952e-003
,,,1.52500000e-009,-6.19531201e-003
,,,1.55000000e-009,-5.97187449e-003
,,,1.57500000e-009,-5.72968697e-003
,,,1.60000000e-009,-5.47499946e-003
,,,1.62500000e-009,-5.20781194e-003
,,,1.65000000e-009,-4.93749942e-003
,,,1.67500000e-009,-4.66562440e-003
,,,1.70000000e-009,-4.39999938e-003
,,,1.72500000e-009,-4.16562436e-003
,,,1.75000000e-009,-3.93281185e-003
,,,1.77500000e-009,-3.70624933e-003
,,,1.80000000e-009,-3.49062432e-003
,,,1.82500000e-009,-3.28906180e-003
,,,1.85000000e-009,-3.10468679e-003
,,,1.87500000e-009,-2.94218678e-003
,,,1.90000000e-009,-2.79999927e-003
,,,1.92500000e-009,-2.70312426e-003
,,,1.95000000e-009,-2.61249925e-003
,,,1.97500000e-009,-2.52031175e-003
,,,2.00000000e-009,-2.42656174e-003
,,,2.02500000e-009,-2.32968673e-003
,,,2.05000000e-009,-2.22499923e-003
,,,2.07500000e-009,-2.11562422e-003
,,,2.10000000e-009,-1.99999921e-003
,,,2.12500000e-009,-1.90781170e-003
,,,2.15000000e-009,-1.80468670e-003
,,,2.17500000e-009,-1.69218669e-003
,,,2.20000000e-009,-1.57812418e-003
,,,2.22500000e-009,-1.46406167e-003
,,,2.25000000e-009,-1.36093667e-003
,,,2.27500000e-009,-1.27187416e-003
,,,2.30000000e-009,-1.19999915e-003
,,,2.32500000e-009,-1.17656165e-003
,,,2.35000000e-009,-1.16406165e-003
,,,2.37500000e-009,-1.16249915e-003
,,,2.40000000e-009,-1.16874915e-003
,,,2.42500000e-009,-1.17812415e-003
,,,2.45000000e-009,-1.18906165e-003
,,,2.47500000e-009,-1.19843665e-003
,,,2.50000000e-009,-1.19999915e-003
,,,2.52500000e-009,-1.21093665e-003
,,,2.55000000e-009,-1.20156165e-003
,,,2.57500000e-009,-1.17187415e-003
,,,2.60000000e-009,-1.12343665e-003
,,,2.62500000e-009,-1.05937414e-003
,,,2.65000000e-009,-9.79686638e-004
,,,2.67500000e-009,-8.92186632e-004
,,,2.70000000e-009,-7.99999125e-004
,,,2.72500000e-009,-7.23436620e-004
,,,2.75000000e-009,-6.48436615e-004
,,,2.77500000e-009,-5.79686610e-004
,,,2.80000000e-009,-5.17186605e-004
,,,2.82500000e-009,-4.65624102e-004
,,,2.85000000e-009,-4.28124099e-004
,,,2.87500000e-009,-4.06249097e-004
,,,2.90000000e-009,-3.99999097e-004
,,,2.92500000e-009,-4.21874099e-004
,,,2.95000000e-009,-4.54686601e-004
,,,2.97500000e-009,-4.98436604e-004
,,,3.00000000e-009,-5.51561608e-004
,,,3.02500000e-009,-6.10936612e-004
,,,3.05000000e-009,-6.74999116e-004
,,,3.07500000e-009,-7.39061621e-004
,,,3.10000000e-009,-7.99999125e-004
,,,3.12500000e-009,-8.59374130e-004
,,,3.15000000e-009,-9.04686633e-004
,,,3.17500000e-009,-9.32811635e-004
,,,3.20000000e-009,-9.43749135e-004
,,,3.22500000e-009,-9.35936635e-004
,,,3.25000000e-009,-9.07811633e-004
,,,3.27500000e-009,-8.62499130e-004
,,,3.30000000e-009,-7.99999125e-004
,,,3.32500000e-009,-7.28124120e-004
,,,3.35000000e-009,-6.49999115e-004
,,,3.37500000e-009,-5.73436609e-004
,,,3.40000000e-009,-5.03124104e-004
,,,3.42500000e-009,-4.46874100e-004
,,,3.45000000e-009,-4.09374098e-004
,,,3.47500000e-009,-3.93749097e-004
,,,3.50000000e-009,-3.99999097e-004
,,,3.52500000e-009,-4.32811599e-004
,,,3.55000000e-009,-4.81249103e-004
,,,3.57500000e-009,-5.42186607e-004
,,,3.60000000e-009,-6.09374112e-004
,,,3.62500000e-009,-6.74999116e-004
,,,3.65000000e-009,-7.32811621e-004
,,,3.67500000e-009,-7.76561624e-004
,,,3.70000000e-009,-7.99999125e-004
,,,3.72500000e-009,-8.01561625e-004
,,,3.75000000e-009,-7.79686624e-004
,,,3.77500000e-009,-7.39061621e-004
,,,3.80000000e-009,-6.81249117e-004
,,,3.82500000e-009,-6.12499112e-004
,,,3.85000000e-009,-5.39061607e-004
,,,3.87500000e-009,-4.65624102e-004
,,,3.90000000e-009,-3.99999097e-004
,,,3.92500000e-009,-3.46874093e-004
,,,3.95000000e-009,-3.10936591e-004
,,,3.97500000e-009,-2.90624089e-004
,,,4.00000000e-009,-2.87499089e-004
,,,4.02500000e-009,-3.01561590e-004
,,,4.05000000e-009,-3.26561592e-004
,,,4.07500000e-009,-3.60936594e-004
,,,4.10000000e-009,-3.99999097e-004
,,,4.12500000e-009,-4.39061600e-004
,,,4.15000000e-009,-4.71874102e-004
,,,4.17500000e-009,-4.95311604e-004
,,,4.20000000e-009,-5.04686604e-004
,,,4.22500000e-009,-5.01561604e-004
,,,4.25000000e-009,-4.81249103e-004
,,,4.27500000e-009,-4.48436600e-004
,,,4.30000000e-009,-3.99999097e-004
,,,4.32500000e-009,-3.45311593e-004
,,,4.35000000e-009,-2.81249089e-004
,,,4.37500000e-009,-2.17186584e-004
,,,4.40000000e-009,-1.53124080e-004
,,,4.42500000e-009,-9.53115754e-005
,,,4.45000000e-009,-4.84365721e-005
,,,4.47500000e-009,-1.71865699e-005
,,,4.50000000e-009,9.31322575e-010
,,,4.52500000e-009,-9.37406934e-006
,,,4.55000000e-009,-3.59365712e-005
,,,4.57500000e-009,-7.81240742e-005
,,,4.60000000e-009,-1.34374078e-004
,,,4.62500000e-009,-1.98436583e-004
,,,4.65000000e-009,-2.68749088e-004
,,,4.67500000e-009,-3.37499093e-004
,,,4.70000000e-009,-3.99999097e-004
,,,4.72500000e-009,-4.57811601e-004
,,,4.75000000e-009,-5.01561604e-004
,,,4.77500000e-009,-5.28124106e-004
,,,4.80000000e-009,-5.35936607e-004
,,,4.82500000e-009,-5.26561606e-004
,,,4.85000000e-009,-4.98436604e-004
,,,4.87500000e-009,-4.56249101e-004
,,,4.90000000e-009,-3.99999097e-004
,,,4.92500000e-009,-3.40624093e-004
,,,4.95000000e-009,-2.76561588e-004
,,,4.97500000e-009,-2.12499084e-004
,,,5.00000000e-009,-1.51561579e-004
,,,5.02500000e-009,-9.68740755e-005
,,,5.05000000e-009,-5.15615723e-005
,,,5.07500000e-009,-1.87490700e-005
,,,5.10000000e-009,9.31322575e-010
,,,5.12500000e-009,-1.56156879e-006
,,,5.15000000e-009,-1.87490700e-005
,,,5.17500000e-009,-4.99990722e-005
,,,5.20000000e-009,-9.84365756e-005
,,,5.22500000e-009,-1.59374080e-004
,,,5.25000000e-009,-2.32811585e-004
,,,5.27500000e-009,-3.14061591e-004
,,,5.30000000e-009,-3.99999097e-004
,,,5.32500000e-009,-4.87499103e-004
,,,5.35000000e-009,-5.70311609e-004
,,,5.37500000e-009,-6.45311614e-004
,,,5.40000000e-009,-7.06249119e-004
,,,5.42500000e-009,-7.54686622e-004
,,,5.45000000e-009,-7.85936624e-004
,,,5.47500000e-009,-7.99999125e-004
,,,5.50000000e-009,-7.99999125e-004
,,,5.52500000e-009,-7.84374124e-004
,,,5.55000000e-009,-7.60936623e-004
,,,5.57500000e-009,-7.37499121e-004
,,,5.60000000e-009,-7.20311620e-004
,,,5.62500000e-009,-7.14061619e-004
,,,5.65000000e-009,-7.23436620e-004
,,,5.67500000e-009,-7.53124122e-004
,,,5.70000000e-009,-7.99999125e-004
,,,5.72500000e-009,-8.64061630e-004
,,,5.75000000e-009,-9.39061635e-004
,,,5.77500000e-009,-1.01874914e-003
,,,5.80000000e-009,-1.09374915e-003
,,,5.82500000e-009,-1.15781165e-003
,,,5.85000000e-009,-1.20156165e-003
,,,5.87500000e-009,-1.21718665e-003
,,,5.90000000e-009,-1.19999915e-003
,,,5.92500000e-009,-1.14687415e-003
