RawData/WithScintilator/R7_2pt2B_15mV/wave010_Ch2.csv

"Record Length",1000,"Points",-7.72500000e-009,-7.68749123e-004
"Sample Interval",2.50000000e-011,s,-7.70000000e-009,-7.56249122e-004
"Trigger Point",309,"Samples",-7.67500000e-009,-7.68749123e-004
"Trigger Time",7.02524934e-012,s,-7.65000000e-009,-7.99999125e-004
"",,,-7.62500000e-009,-8.59374130e-004
"Horizontal Offset",-7.72500000e-009,s,-7.60000000e-009,-9.24999134e-004
,,,-7.57500000e-009,-9.93749139e-004
,,,-7.55000000e-009,-1.05781164e-003
,,,-7.52500000e-009,-1.11406165e-003
,,,-7.50000000e-009,-1.15937415e-003
,,,-7.47500000e-009,-1.18906165e-003
,,,-7.45000000e-009,-1.19999915e-003
,,,-7.42500000e-009,-1.19687415e-003
,,,-7.40000000e-009,-1.17499915e-003
,,,-7.37500000e-009,-1.13437415e-003
,,,-7.35000000e-009,-1.07968665e-003
,,,-7.32500000e-009,-1.01406164e-003
,,,-7.30000000e-009,-9.42186635e-004
,,,-7.27500000e-009,-8.68749130e-004
,,,-7.25000000e-009,-7.99999125e-004
,,,-7.22500000e-009,-7.46874122e-004
,,,-7.20000000e-009,-7.06249119e-004
,,,-7.17500000e-009,-6.79686617e-004
,,,-7.15000000e-009,-6.68749116e-004
,,,-7.12500000e-009,-6.76561617e-004
,,,-7.10000000e-009,-7.01561618e-004
,,,-7.07500000e-009,-7.43749121e-004
,,,-7.05000000e-009,-7.99999125e-004
,,,-7.02500000e-009,-8.73436630e-004
,,,-7.00000000e-009,-9.48436636e-004
,,,-6.97500000e-009,-1.02187414e-003
,,,-6.95000000e-009,-1.08749915e-003
,,,-6.92500000e-009,-1.14218665e-003
,,,-6.90000000e-009,-1.17968665e-003
,,,-6.87500000e-009,-1.19999915e-003
,,,-6.85000000e-009,-1.19999915e-003
,,,-6.82500000e-009,-1.18124915e-003
,,,-6.80000000e-009,-1.14374915e-003
,,,-6.77500000e-009,-1.09218665e-003
,,,-6.75000000e-009,-1.03281164e-003
,,,-6.72500000e-009,-9.68749137e-004
,,,-6.70000000e-009,-9.06249133e-004
,,,-6.67500000e-009,-8.48436629e-004
,,,-6.65000000e-009,-7.99999125e-004
,,,-6.62500000e-009,-7.65624123e-004
,,,-6.60000000e-009,-7.42186621e-004
,,,-6.57500000e-009,-7.32811621e-004
,,,-6.55000000e-009,-7.35936621e-004
,,,-6.52500000e-009,-7.46874122e-004
,,,-6.50000000e-009,-7.64061623e-004
,,,-6.47500000e-009,-7.82811624e-004
,,,-6.45000000e-009,-7.99999125e-004
,,,-6.42500000e-009,-8.15624126e-004
,,,-6.40000000e-009,-8.24999127e-004
,,,-6.37500000e-009,-8.28124127e-004
,,,-6.35000000e-009,-8.26561627e-004
,,,-6.32500000e-009,-8.21874127e-004
,,,-6.30000000e-009,-8.14061626e-004
,,,-6.27500000e-009,-8.06249126e-004
,,,-6.25000000e-009,-7.99999125e-004
,,,-6.22500000e-009,-7.96874125e-004
,,,-6.20000000e-009,-7.96874125e-004
,,,-6.17500000e-009,-7.98436625e-004
,,,-6.15000000e-009,-7.99999125e-004
,,,-6.12500000e-009,-8.03124126e-004
,,,-6.10000000e-009,-8.04686626e-004
,,,-6.07500000e-009,-8.04686626e-004
,,,-6.05000000e-009,-7.99999125e-004
,,,-6.02500000e-009,-7.93749125e-004
,,,-6.00000000e-009,-7.84374124e-004
,,,-5.97500000e-009,-7.74999124e-004
,,,-5.95000000e-009,-7.68749123e-004
,,,-5.92500000e-009,-7.65624123e-004
,,,-5.90000000e-009,-7.70311623e-004
,,,-5.87500000e-009,-7.82811624e-004
,,,-5.85000000e-009,-7.99999125e-004
,,,-5.82500000e-009,-8.24999127e-004
,,,-5.80000000e-009,-8.51561629e-004
,,,-5.77500000e-009,-8.73436630e-004
,,,-5.75000000e-009,-8.87499131e-004
,,,-5.72500000e-009,-8.90624132e-004
,,,-5.70000000e-009,-8.78124131e-004
,,,-5.67500000e-009,-8.48436629e-004
,,,-5.65000000e-009,-7.99999125e-004
,,,-5.62500000e-009,-7.37499121e-004
,,,-5.60000000e-009,-6.62499116e-004
,,,-5.57500000e-009,-5.85936610e-004
,,,-5.55000000e-009,-5.14061605e-004
,,,-5.52500000e-009,-4.53124101e-004
,,,-5.50000000e-009,-4.10936598e-004
,,,-5.47500000e-009,-3.92186596e-004
,,,-5.45000000e-009,-3.99999097e-004
,,,-5.42500000e-009,-4.35936600e-004
,,,-5.40000000e-009,-4.90624103e-004
,,,-5.37500000e-009,-5.59374108e-004
,,,-5.35000000e-009,-6.32811613e-004
,,,-5.32500000e-009,-7.01561618e-004
,,,-5.30000000e-009,-7.57811622e-004
,,,-5.27500000e-009,-7.92186625e-004
,,,-5.25000000e-009,-7.99999125e-004
,,,-5.22500000e-009,-7.76561624e-004
,,,-5.20000000e-009,-7.28124120e-004
,,,-5.17500000e-009,-6.62499116e-004
,,,-5.15000000e-009,-5.87499110e-004
,,,-5.12500000e-009,-5.14061605e-004
,,,-5.10000000e-009,-4.53124101e-004
,,,-5.07500000e-009,-4.14061598e-004
,,,-5.05000000e-009,-3.99999097e-004
,,,-5.02500000e-009,-4.17186598e-004
,,,-5.00000000e-009,-4.57811601e-004
,,,-4.97500000e-009,-5.18749105e-004
,,,-4.95000000e-009,-5.92186611e-004
,,,-4.92500000e-009,-6.65624116e-004
,,,-4.90000000e-009,-7.31249120e-004
,,,-4.87500000e-009,-7.78124124e-004
,,,-4.85000000e-009,-7.99999125e-004
,,,-4.82500000e-009,-7.93749125e-004
,,,-4.80000000e-009,-7.60936623e-004
,,,-4.77500000e-009,-7.06249119e-004
,,,-4.75000000e-009,-6.37499114e-004
,,,-4.72500000e-009,-5.64061609e-004
,,,-4.70000000e-009,-4.95311604e-004
,,,-4.67500000e-009,-4.39061600e-004
,,,-4.65000000e-009,-3.99999097e-004
,,,-4.62500000e-009,-3.85936596e-004
,,,-4.60000000e-009,-3.90624096e-004
,,,-4.57500000e-009,-4.07811598e-004
,,,-4.55000000e-009,-4.31249099e-004
,,,-4.52500000e-009,-4.49999101e-004
,,,-4.50000000e-009,-4.56249101e-004
,,,-4.47500000e-009,-4.42186600e-004
,,,-4.45000000e-009,-3.99999097e-004
,,,-4.42500000e-009,-3.34374092e-004
,,,-4.40000000e-009,-2.42186586e-004
,,,-4.37500000e-009,-1.29686578e-004
,,,-4.35000000e-009,-7.81156923e-006
,,,-4.32500000e-009,1.15625940e-004
,,,-4.30000000e-009,2.31250948e-004
,,,-4.27500000e-009,3.28125955e-004
,,,-4.25000000e-009,4.00000960e-004
,,,-4.22500000e-009,4.26563462e-004
,,,-4.20000000e-009,4.20313461e-004
,,,-4.17500000e-009,3.85938459e-004
,,,-4.15000000e-009,3.26563454e-004
,,,-4.12500000e-009,2.51563449e-004
,,,-4.10000000e-009,1.67188443e-004
,,,-4.07500000e-009,8.12509371e-005
,,,-4.05000000e-009,9.31322575e-010
,,,-4.02500000e-009,-7.96865743e-005
,,,-4.00000000e-009,-1.46874079e-004
,,,-3.97500000e-009,-2.01561583e-004
,,,-3.95000000e-009,-2.46874086e-004
,,,-3.92500000e-009,-2.85936589e-004
,,,-3.90000000e-009,-3.21874091e-004
,,,-3.87500000e-009,-3.59374094e-004
,,,-3.85000000e-009,-3.99999097e-004
,,,-3.82500000e-009,-4.53124101e-004
,,,-3.80000000e-009,-5.10936605e-004
,,,-3.77500000e-009,-5.71874109e-004
,,,-3.75000000e-009,-6.31249113e-004
,,,-3.72500000e-009,-6.87499117e-004
,,,-3.70000000e-009,-7.37499121e-004
,,,-3.67500000e-009,-7.74999124e-004
,,,-3.65000000e-009,-7.99999125e-004
,,,-3.62500000e-009,-8.17186627e-004
,,,-3.60000000e-009,-8.23436627e-004
,,,-3.57500000e-009,-8.20311627e-004
,,,-3.55000000e-009,-8.12499126e-004
,,,-3.52500000e-009,-8.03124126e-004
,,,-3.50000000e-009,-7.95311625e-004
,,,-3.47500000e-009,-7.93749125e-004
,,,-3.45000000e-009,-7.99999125e-004
,,,-3.42500000e-009,-8.31249128e-004
,,,-3.40000000e-009,-8.74999131e-004
,,,-3.37500000e-009,-9.28124134e-004
,,,-3.35000000e-009,-9.89061639e-004
,,,-3.32500000e-009,-1.05156164e-003
,,,-3.30000000e-009,-1.10937415e-003
,,,-3.27500000e-009,-1.16093665e-003
,,,-3.25000000e-009,-1.19999915e-003
,,,-3.22500000e-009,-1.23593666e-003
,,,-3.20000000e-009,-1.26093666e-003
,,,-3.17500000e-009,-1.27499916e-003
,,,-3.15000000e-009,-1.27812416e-003
,,,-3.12500000e-009,-1.27031166e-003
,,,-3.10000000e-009,-1.25312416e-003
,,,-3.07500000e-009,-1.22968666e-003
,,,-3.05000000e-009,-1.19999915e-003
,,,-3.02500000e-009,-1.18281165e-003
,,,-3.00000000e-009,-1.17031165e-003
,,,-2.97500000e-009,-1.16249915e-003
,,,-2.95000000e-009,-1.16093665e-003
,,,-2.92500000e-009,-1.16249915e-003
,,,-2.90000000e-009,-1.17031165e-003
,,,-2.87500000e-009,-1.18281165e-003
,,,-2.85000000e-009,-1.19999915e-003
,,,-2.82500000e-009,-1.24062416e-003
,,,-2.80000000e-009,-1.29374916e-003
,,,-2.77500000e-009,-1.36406167e-003
,,,-2.75000000e-009,-1.45156167e-003
,,,-2.72500000e-009,-1.55781168e-003
,,,-2.70000000e-009,-1.68593669e-003
,,,-2.67500000e-009,-1.83281170e-003
,,,-2.65000000e-009,-1.99999921e-003
,,,-2.62500000e-009,-2.19531172e-003
,,,-2.60000000e-009,-2.40468674e-003
,,,-2.57500000e-009,-2.62187425e-003
,,,-2.55000000e-009,-2.84062427e-003
,,,-2.52500000e-009,-3.05312428e-003
,,,-2.50000000e-009,-3.25468680e-003
,,,-2.47500000e-009,-3.43749931e-003
,,,-2.45000000e-009,-3.59999932e-003
,,,-2.42500000e-009,-3.73437433e-003
,,,-2.40000000e-009,-3.84843684e-003
,,,-2.37500000e-009,-3.94999935e-003
,,,-2.35000000e-009,-4.04062435e-003
,,,-2.32500000e-009,-4.12812436e-003
,,,-2.30000000e-009,-4.21562437e-003
,,,-2.27500000e-009,-4.30624937e-003
,,,-2.25000000e-009,-4.39999938e-003
,,,-2.22500000e-009,-4.48593689e-003
,,,-2.20000000e-009,-4.57187439e-003
,,,-2.17500000e-009,-4.65624940e-003
,,,-2.15000000e-009,-4.72968690e-003
,,,-2.12500000e-009,-4.78749941e-003
,,,-2.10000000e-009,-4.82031191e-003
,,,-2.07500000e-009,-4.82499941e-003
,,,-2.05000000e-009,-4.79999941e-003
,,,-2.02500000e-009,-4.73281190e-003
,,,-2.00000000e-009,-4.64999940e-003
,,,-1.97500000e-009,-4.56093689e-003
,,,-1.95000000e-009,-4.47656189e-003
,,,-1.92500000e-009,-4.41093688e-003
,,,-1.90000000e-009,-4.37187438e-003
,,,-1.87500000e-009,-4.36718688e-003
,,,-1.85000000e-009,-4.39999938e-003
,,,-1.82500000e-009,-4.45937438e-003
,,,-1.80000000e-009,-4.55312439e-003
,,,-1.77500000e-009,-4.67343690e-003
,,,-1.75000000e-009,-4.80781191e-003
,,,-1.72500000e-009,-4.94218692e-003
,,,-1.70000000e-009,-5.05937443e-003
,,,-1.67500000e-009,-5.14999943e-003
,,,-1.65000000e-009,-5.19999944e-003
,,,-1.62500000e-009,-5.19218694e-003
,,,-1.60000000e-009,-5.14218693e-003
,,,-1.57500000e-009,-5.05312443e-003
,,,-1.55000000e-009,-4.93749942e-003
,,,-1.52500000e-009,-4.80156191e-003
,,,-1.50000000e-009,-4.66093690e-003
,,,-1.47500000e-009,-4.52343689e-003
,,,-1.45000000e-009,-4.39999938e-003
,,,-1.42500000e-009,-4.31093687e-003
,,,-1.40000000e-009,-4.25468687e-003
,,,-1.37500000e-009,-4.22968687e-003
,,,-1.35000000e-009,-4.23437437e-003
,,,-1.32500000e-009,-4.26249937e-003
,,,-1.30000000e-009,-4.30468687e-003
,,,-1.27500000e-009,-4.35312438e-003
,,,-1.25000000e-009,-4.39999938e-003
,,,-1.22500000e-009,-4.46562438e-003
,,,-1.20000000e-009,-4.52031189e-003
,,,-1.17500000e-009,-4.55781189e-003
,,,-1.15000000e-009,-4.57343689e-003
,,,-1.12500000e-009,-4.56562439e-003
,,,-1.10000000e-009,-4.53281189e-003
,,,-1.07500000e-009,-4.47656189e-003
,,,-1.05000000e-009,-4.39999938e-003
,,,-1.02500000e-009,-4.35781188e-003
,,,-1.00000000e-009,-4.31093687e-003
,,,-9.75000000e-010,-4.26249937e-003
,,,-9.50000000e-010,-4.21093687e-003
,,,-9.25000000e-010,-4.15624936e-003
,,,-9.00000000e-010,-4.10156186e-003
,,,-8.75000000e-010,-4.04843686e-003
,,,-8.50000000e-010,-3.99999935e-003
,,,-8.25000000e-010,-4.03593685e-003
,,,-8.00000000e-010,-4.09531186e-003
,,,-7.75000000e-010,-4.17656186e-003
,,,-7.50000000e-010,-4.27812437e-003
,,,-7.25000000e-010,-4.39374938e-003
,,,-7.00000000e-010,-4.52031189e-003
,,,-6.75000000e-010,-4.65624940e-003
,,,-6.50000000e-010,-4.79999941e-003
,,,-6.25000000e-010,-5.02968692e-003
,,,-6.00000000e-010,-5.27499944e-003
,,,-5.75000000e-010,-5.53124946e-003
,,,-5.50000000e-010,-5.79218698e-003
,,,-5.25000000e-010,-6.05156200e-003
,,,-5.00000000e-010,-6.30624952e-003
,,,-4.75000000e-010,-6.55468703e-003
,,,-4.50000000e-010,-6.79999955e-003
,,,-4.25000000e-010,-7.10312457e-003
,,,-4.00000000e-010,-7.41718709e-003
,,,-3.75000000e-010,-7.74531212e-003
,,,-3.50000000e-010,-8.08749964e-003
,,,-3.25000000e-010,-8.44218717e-003
,,,-3.00000000e-010,-8.81093719e-003
,,,-2.75000000e-010,-9.19531222e-003
,,,-2.50000000e-010,-9.59999975e-003
,,,-2.25000000e-010,-1.00593748e-002
,,,-2.00000000e-010,-1.05515623e-002
,,,-1.75000000e-010,-1.10734374e-002
,,,-1.50000000e-010,-1.16249999e-002
,,,-1.25000000e-010,-1.21984374e-002
,,,-1.00000000e-010,-1.27906250e-002
,,,-7.50000000e-011,-1.33921875e-002
,,,-5.00000000e-011,-1.40000001e-002
,,,-2.50000000e-011,-1.45953126e-002
,,,0.00000000e+000,-1.51906251e-002
,,,2.50000000e-011,-1.57796877e-002
,,,5.00000000e-011,-1.63578127e-002
,,,7.50000000e-011,-1.69156253e-002
,,,1.00000000e-010,-1.74468753e-002
,,,1.25000000e-010,-1.79437503e-002
,,,1.50000000e-010,-1.84000004e-002
,,,1.75000000e-010,-1.87546879e-002
,,,2.00000000e-010,-1.90765629e-002
,,,2.25000000e-010,-1.93671879e-002
,,,2.50000000e-010,-1.96281255e-002
,,,2.75000000e-010,-1.98625005e-002
,,,3.00000000e-010,-2.00687505e-002
,,,3.25000000e-010,-2.02484380e-002
,,,3.50000000e-010,-2.04000005e-002
,,,3.75000000e-010,-2.04484380e-002
,,,4.00000000e-010,-2.04875005e-002
,,,4.25000000e-010,-2.05281255e-002
,,,4.50000000e-010,-2.05718755e-002
,,,4.75000000e-010,-2.06234380e-002
,,,5.00000000e-010,-2.06796880e-002
,,,5.25000000e-010,-2.07390630e-002
,,,5.50000000e-010,-2.08000005e-002
,,,5.75000000e-010,-2.07718755e-002
,,,6.00000000e-010,-2.07500005e-002
,,,6.25000000e-010,-2.07406255e-002
,,,6.50000000e-010,-2.07406255e-002
,,,6.75000000e-010,-2.07515630e-002
,,,7.00000000e-010,-2.07687505e-002
,,,7.25000000e-010,-2.07875005e-002
,,,7.50000000e-010,-2.08000005e-002
,,,7.75000000e-010,-2.07187505e-002
,,,8.00000000e-010,-2.06296880e-002
,,,8.25000000e-010,-2.05375005e-002
,,,8.50000000e-010,-2.04406255e-002
,,,8.75000000e-010,-2.03406255e-002
,,,9.00000000e-010,-2.02343755e-002
,,,9.25000000e-010,-2.01218755e-002
,,,9.50000000e-010,-2.00000005e-002
,,,9.75000000e-010,-1.97937505e-002
,,,1.00000000e-009,-1.95796880e-002
,,,1.02500000e-009,-1.93640629e-002
,,,1.05000000e-009,-1.91515629e-002
,,,1.07500000e-009,-1.89484379e-002
,,,1.10000000e-009,-1.87546879e-002
,,,1.12500000e-009,-1.85734379e-002
,,,1.15000000e-009,-1.84000004e-002
,,,1.17500000e-009,-1.81781254e-002
,,,1.20000000e-009,-1.79515628e-002
,,,1.22500000e-009,-1.77171878e-002
,,,1.25000000e-009,-1.74750003e-002
,,,1.27500000e-009,-1.72234378e-002
,,,1.30000000e-009,-1.69625003e-002
,,,1.32500000e-009,-1.66875002e-002
,,,1.35000000e-009,-1.64000002e-002
,,,1.37500000e-009,-1.60609377e-002
,,,1.40000000e-009,-1.57015627e-002
,,,1.42500000e-009,-1.53281252e-002
,,,1.45000000e-009,-1.49531251e-002
,,,1.47500000e-009,-1.45828126e-002
,,,1.50000000e-009,-1.42296876e-002
,,,1.52500000e-009,-1.39015626e-002
,,,1.55000000e-009,-1.36000000e-002
,,,1.57500000e-009,-1.33125000e-002
,,,1.60000000e-009,-1.30406250e-002
,,,1.62500000e-009,-1.27843750e-002
,,,1.65000000e-009,-1.25375000e-002
,,,1.67500000e-009,-1.22999999e-002
,,,1.70000000e-009,-1.20671874e-002
,,,1.72500000e-009,-1.18359374e-002
,,,1.75000000e-009,-1.15999999e-002
,,,1.77500000e-009,-1.13546874e-002
,,,1.80000000e-009,-1.10859374e-002
,,,1.82500000e-009,-1.07937498e-002
,,,1.85000000e-009,-1.04843748e-002
,,,1.87500000e-009,-1.01640623e-002
,,,1.90000000e-009,-9.83906227e-003
,,,1.92500000e-009,-9.51562474e-003
,,,1.95000000e-009,-9.19999972e-003
,,,1.97500000e-009,-8.90624970e-003
,,,2.00000000e-009,-8.60781218e-003
,,,2.02500000e-009,-8.30624966e-003
,,,2.05000000e-009,-8.00312464e-003
,,,2.07500000e-009,-7.69843711e-003
,,,2.10000000e-009,-7.39531209e-003
,,,2.12500000e-009,-7.09531207e-003
,,,2.15000000e-009,-6.79999955e-003
,,,2.17500000e-009,-6.53749953e-003
,,,2.20000000e-009,-6.26874951e-003
,,,2.22500000e-009,-5.99687449e-003
,,,2.25000000e-009,-5.72812447e-003
,,,2.27500000e-009,-5.46718696e-003
,,,2.30000000e-009,-5.22187444e-003
,,,2.32500000e-009,-4.99843692e-003
,,,2.35000000e-009,-4.79999941e-003
,,,2.37500000e-009,-4.66406190e-003
,,,2.40000000e-009,-4.54218689e-003
,,,2.42500000e-009,-4.43124938e-003
,,,2.45000000e-009,-4.32968688e-003
,,,2.47500000e-009,-4.23749937e-003
,,,2.50000000e-009,-4.15312436e-003
,,,2.52500000e-009,-4.07499936e-003
,,,2.55000000e-009,-3.99999935e-003
,,,2.57500000e-009,-3.95624935e-003
,,,2.60000000e-009,-3.89843684e-003
,,,2.62500000e-009,-3.82187434e-003
,,,2.65000000e-009,-3.72656183e-003
,,,2.67500000e-009,-3.61249932e-003
,,,2.70000000e-009,-3.48437432e-003
,,,2.72500000e-009,-3.34687431e-003
,,,2.75000000e-009,-3.19999930e-003
,,,2.77500000e-009,-3.08281179e-003
,,,2.80000000e-009,-2.96093678e-003
,,,2.82500000e-009,-2.83749927e-003
,,,2.85000000e-009,-2.71874926e-003
,,,2.87500000e-009,-2.61093675e-003
,,,2.90000000e-009,-2.52031175e-003
,,,2.92500000e-009,-2.44843674e-003
,,,2.95000000e-009,-2.39999924e-003
,,,2.97500000e-009,-2.39843674e-003
,,,3.00000000e-009,-2.40781174e-003
,,,3.02500000e-009,-2.42187424e-003
,,,3.05000000e-009,-2.43593674e-003
,,,3.07500000e-009,-2.44374924e-003
,,,3.10000000e-009,-2.44218674e-003
,,,3.12500000e-009,-2.42812424e-003
,,,3.15000000e-009,-2.39999924e-003
,,,3.17500000e-009,-2.37187424e-003
,,,3.20000000e-009,-2.32656173e-003
,,,3.22500000e-009,-2.26718673e-003
,,,3.25000000e-009,-2.19999922e-003
,,,3.27500000e-009,-2.13281172e-003
,,,3.30000000e-009,-2.07187422e-003
,,,3.32500000e-009,-2.02656171e-003
,,,3.35000000e-009,-1.99999921e-003
,,,3.37500000e-009,-2.00781171e-003
,,,3.40000000e-009,-2.03281171e-003
,,,3.42500000e-009,-2.07656172e-003
,,,3.45000000e-009,-2.13437422e-003
,,,3.47500000e-009,-2.19999922e-003
,,,3.50000000e-009,-2.27031173e-003
,,,3.52500000e-009,-2.33906173e-003
,,,3.55000000e-009,-2.39999924e-003
,,,3.57500000e-009,-2.45156174e-003
,,,3.60000000e-009,-2.48593674e-003
,,,3.62500000e-009,-2.50312425e-003
,,,3.65000000e-009,-2.50312425e-003
,,,3.67500000e-009,-2.49062424e-003
,,,3.70000000e-009,-2.46718674e-003
,,,3.72500000e-009,-2.43593674e-003
,,,3.75000000e-009,-2.39999924e-003
,,,3.77500000e-009,-2.36093674e-003
,,,3.80000000e-009,-2.31718673e-003
,,,3.82500000e-009,-2.27187423e-003
,,,3.85000000e-009,-2.22499923e-003
,,,3.87500000e-009,-2.17343672e-003
,,,3.90000000e-009,-2.12031172e-003
,,,3.92500000e-009,-2.06249921e-003
,,,3.95000000e-009,-1.99999921e-003
,,,3.97500000e-009,-1.93593671e-003
,,,4.00000000e-009,-1.86874920e-003
,,,4.02500000e-009,-1.80468670e-003
,,,4.05000000e-009,-1.74374919e-003
,,,4.07500000e-009,-1.69218669e-003
,,,4.10000000e-009,-1.64999919e-003
,,,4.12500000e-009,-1.61874918e-003
,,,4.15000000e-009,-1.59999918e-003
,,,4.17500000e-009,-1.59374918e-003
,,,4.20000000e-009,-1.59531168e-003
,,,4.22500000e-009,-1.60156168e-003
,,,4.25000000e-009,-1.61093668e-003
,,,4.27500000e-009,-1.61874918e-003
,,,4.30000000e-009,-1.62187418e-003
,,,4.32500000e-009,-1.61562418e-003
,,,4.35000000e-009,-1.59999918e-003
,,,4.37500000e-009,-1.57187418e-003
,,,4.40000000e-009,-1.53124918e-003
,,,4.42500000e-009,-1.48124917e-003
,,,4.45000000e-009,-1.42499917e-003
,,,4.47500000e-009,-1.36406167e-003
,,,4.50000000e-009,-1.30468666e-003
,,,4.52500000e-009,-1.24843666e-003
,,,4.55000000e-009,-1.19999915e-003
,,,4.57500000e-009,-1.16406165e-003
,,,4.60000000e-009,-1.13749915e-003
,,,4.62500000e-009,-1.12343665e-003
,,,4.65000000e-009,-1.12031165e-003
,,,4.67500000e-009,-1.12812415e-003
,,,4.70000000e-009,-1.14531165e-003
,,,4.72500000e-009,-1.17031165e-003
,,,4.75000000e-009,-1.19999915e-003
,,,4.77500000e-009,-1.23281166e-003
,,,4.80000000e-009,-1.25937416e-003
,,,4.82500000e-009,-1.27812416e-003
,,,4.85000000e-009,-1.28749916e-003
,,,4.87500000e-009,-1.28437416e-003
,,,4.90000000e-009,-1.26874916e-003
,,,4.92500000e-009,-1.24062416e-003
,,,4.95000000e-009,-1.19999915e-003
,,,4.97500000e-009,-1.14843665e-003
,,,5.00000000e-009,-1.08749915e-003
,,,5.02500000e-009,-1.02499914e-003
,,,5.05000000e-009,-9.60936637e-004
,,,5.07500000e-009,-9.04686633e-004
,,,5.10000000e-009,-8.56249129e-004
,,,5.12500000e-009,-8.21874127e-004
,,,5.15000000e-009,-7.99999125e-004
,,,5.17500000e-009,-7.90624125e-004
,,,5.20000000e-009,-7.92186625e-004
,,,5.22500000e-009,-7.98436625e-004
,,,5.25000000e-009,-8.09374126e-004
,,,5.27500000e-009,-8.18749127e-004
,,,5.30000000e-009,-8.21874127e-004
,,,5.32500000e-009,-8.17186627e-004
,,,5.35000000e-009,-7.99999125e-004
,,,5.37500000e-009,-7.73436623e-004
,,,5.40000000e-009,-7.32811621e-004
,,,5.42500000e-009,-6.81249117e-004
,,,5.45000000e-009,-6.23436613e-004
,,,5.47500000e-009,-5.60936608e-004
,,,5.50000000e-009,-4.99999104e-004
,,,5.52500000e-009,-4.45311600e-004
,,,5.55000000e-009,-3.99999097e-004
,,,5.57500000e-009,-3.70311595e-004
,,,5.60000000e-009,-3.53124094e-004
,,,5.62500000e-009,-3.46874093e-004
,,,5.65000000e-009,-3.51561594e-004
,,,5.67500000e-009,-3.62499094e-004
,,,5.70000000e-009,-3.76561595e-004
,,,5.72500000e-009,-3.90624096e-004
,,,5.75000000e-009,-3.99999097e-004
,,,5.77500000e-009,-4.06249097e-004
,,,5.80000000e-009,-3.98436597e-004
,,,5.82500000e-009,-3.74999095e-004
