RawData/WithScintilator/R7_2pt2B_15mV/wave015_Ch2.csv

"Record Length",1000,"Points",-7.72500000e-009,-2.67186588e-004
"Sample Interval",2.50000000e-011,s,-7.70000000e-009,-3.54686594e-004
"Trigger Point",309,"Samples",-7.67500000e-009,-3.99999097e-004
"Trigger Time",1.68533333e-011,s,-7.65000000e-009,-3.93749097e-004
"",,,-7.62500000e-009,-3.40624093e-004
"Horizontal Offset",-7.72500000e-009,s,-7.60000000e-009,-2.45311586e-004
,,,-7.57500000e-009,-1.20311577e-004
,,,-7.55000000e-009,2.03134328e-005
,,,-7.52500000e-009,1.62500943e-004
,,,-7.50000000e-009,2.92188452e-004
,,,-7.47500000e-009,4.00000960e-004
,,,-7.45000000e-009,4.70313465e-004
,,,-7.42500000e-009,5.07813467e-004
,,,-7.40000000e-009,5.17188468e-004
,,,-7.37500000e-009,5.03125967e-004
,,,-7.35000000e-009,4.75000965e-004
,,,-7.32500000e-009,4.43750963e-004
,,,-7.30000000e-009,4.15625961e-004
,,,-7.27500000e-009,4.00000960e-004
,,,-7.25000000e-009,3.92188459e-004
,,,-7.22500000e-009,4.00000960e-004
,,,-7.20000000e-009,4.18750961e-004
,,,-7.17500000e-009,4.40625963e-004
,,,-7.15000000e-009,4.57813464e-004
,,,-7.12500000e-009,4.60938464e-004
,,,-7.10000000e-009,4.43750963e-004
,,,-7.07500000e-009,4.00000960e-004
,,,-7.05000000e-009,3.23438454e-004
,,,-7.02500000e-009,2.23438447e-004
,,,-7.00000000e-009,1.06250939e-004
,,,-6.97500000e-009,-1.71865699e-005
,,,-6.95000000e-009,-1.40624079e-004
,,,-6.92500000e-009,-2.51561586e-004
,,,-6.90000000e-009,-3.40624093e-004
,,,-6.87500000e-009,-3.99999097e-004
,,,-6.85000000e-009,-4.23436599e-004
,,,-6.82500000e-009,-4.12499098e-004
,,,-6.80000000e-009,-3.71874095e-004
,,,-6.77500000e-009,-3.09374091e-004
,,,-6.75000000e-009,-2.32811585e-004
,,,-6.72500000e-009,-1.49999079e-004
,,,-6.70000000e-009,-7.03115737e-005
,,,-6.67500000e-009,9.31322575e-010
,,,-6.65000000e-009,4.84384348e-005
,,,-6.62500000e-009,7.96884370e-005
,,,-6.60000000e-009,9.21884378e-005
,,,-6.57500000e-009,8.90634376e-005
,,,-6.55000000e-009,7.18759364e-005
,,,-6.52500000e-009,4.84384348e-005
,,,-6.50000000e-009,2.34384330e-005
,,,-6.47500000e-009,9.31322575e-010
,,,-6.45000000e-009,-1.87490700e-005
,,,-6.42500000e-009,-3.12490709e-005
,,,-6.40000000e-009,-3.59365712e-005
,,,-6.37500000e-009,-3.28115710e-005
,,,-6.35000000e-009,-2.65615706e-005
,,,-6.32500000e-009,-1.71865699e-005
,,,-6.30000000e-009,-7.81156923e-006
,,,-6.27500000e-009,9.31322575e-010
,,,-6.25000000e-009,1.56343143e-006
,,,-6.22500000e-009,9.31322575e-010
,,,-6.20000000e-009,-4.68656901e-006
,,,-6.17500000e-009,-9.37406934e-006
,,,-6.15000000e-009,-1.40615697e-005
,,,-6.12500000e-009,-1.40615697e-005
,,,-6.10000000e-009,-1.09365695e-005
,,,-6.07500000e-009,9.31322575e-010
,,,-6.05000000e-009,1.09384321e-005
,,,-6.02500000e-009,2.50009331e-005
,,,-6.00000000e-009,3.90634341e-005
,,,-5.97500000e-009,4.84384348e-005
,,,-5.95000000e-009,5.15634350e-005
,,,-5.92500000e-009,4.53134345e-005
,,,-5.90000000e-009,2.81259333e-005
,,,-5.87500000e-009,9.31322575e-010
,,,-5.85000000e-009,-4.53115719e-005
,,,-5.82500000e-009,-9.84365756e-005
,,,-5.80000000e-009,-1.57811580e-004
,,,-5.77500000e-009,-2.18749084e-004
,,,-5.75000000e-009,-2.76561588e-004
,,,-5.72500000e-009,-3.28124092e-004
,,,-5.70000000e-009,-3.70311595e-004
,,,-5.67500000e-009,-3.99999097e-004
,,,-5.65000000e-009,-4.15624098e-004
,,,-5.62500000e-009,-4.18749098e-004
,,,-5.60000000e-009,-4.12499098e-004
,,,-5.57500000e-009,-4.03124097e-004
,,,-5.55000000e-009,-3.92186596e-004
,,,-5.52500000e-009,-3.85936596e-004
,,,-5.50000000e-009,-3.87499096e-004
,,,-5.47500000e-009,-3.99999097e-004
,,,-5.45000000e-009,-4.23436599e-004
,,,-5.42500000e-009,-4.57811601e-004
,,,-5.40000000e-009,-5.04686604e-004
,,,-5.37500000e-009,-5.60936608e-004
,,,-5.35000000e-009,-6.21874113e-004
,,,-5.32500000e-009,-6.85936617e-004
,,,-5.30000000e-009,-7.46874122e-004
,,,-5.27500000e-009,-7.99999125e-004
,,,-5.25000000e-009,-8.39061628e-004
,,,-5.22500000e-009,-8.64061630e-004
,,,-5.20000000e-009,-8.78124131e-004
,,,-5.17500000e-009,-8.81249131e-004
,,,-5.15000000e-009,-8.71874130e-004
,,,-5.12500000e-009,-8.56249129e-004
,,,-5.10000000e-009,-8.31249128e-004
,,,-5.07500000e-009,-7.99999125e-004
,,,-5.05000000e-009,-7.59374122e-004
,,,-5.02500000e-009,-7.14061619e-004
,,,-5.00000000e-009,-6.67186616e-004
,,,-4.97500000e-009,-6.17186612e-004
,,,-4.95000000e-009,-5.67186609e-004
,,,-4.92500000e-009,-5.14061605e-004
,,,-4.90000000e-009,-4.57811601e-004
,,,-4.87500000e-009,-3.99999097e-004
,,,-4.85000000e-009,-3.37499093e-004
,,,-4.82500000e-009,-2.73436588e-004
,,,-4.80000000e-009,-2.12499084e-004
,,,-4.77500000e-009,-1.54686580e-004
,,,-4.75000000e-009,-1.03124076e-004
,,,-4.72500000e-009,-6.09365730e-005
,,,-4.70000000e-009,-2.49990704e-005
,,,-4.67500000e-009,9.31322575e-010
,,,-4.65000000e-009,1.56259324e-005
,,,-4.62500000e-009,2.34384330e-005
,,,-4.60000000e-009,2.50009331e-005
,,,-4.57500000e-009,2.18759329e-005
,,,-4.55000000e-009,1.56259324e-005
,,,-4.52500000e-009,9.37593199e-006
,,,-4.50000000e-009,3.12593154e-006
,,,-4.47500000e-009,9.31322575e-010
,,,-4.45000000e-009,-1.56156879e-006
,,,-4.42500000e-009,9.31322575e-010
,,,-4.40000000e-009,3.12593154e-006
,,,-4.37500000e-009,7.81343188e-006
,,,-4.35000000e-009,1.09384321e-005
,,,-4.32500000e-009,1.09384321e-005
,,,-4.30000000e-009,7.81343188e-006
,,,-4.27500000e-009,9.31322575e-010
,,,-4.25000000e-009,-1.56240698e-005
,,,-4.22500000e-009,-3.12490709e-005
,,,-4.20000000e-009,-4.37490718e-005
,,,-4.17500000e-009,-5.31240724e-005
,,,-4.15000000e-009,-5.62490727e-005
,,,-4.12500000e-009,-4.84365721e-005
,,,-4.10000000e-009,-3.12490709e-005
,,,-4.07500000e-009,9.31322575e-010
,,,-4.05000000e-009,3.75009340e-005
,,,-4.02500000e-009,8.59384374e-005
,,,-4.00000000e-009,1.42188441e-004
,,,-3.97500000e-009,2.01563446e-004
,,,-3.95000000e-009,2.59375950e-004
,,,-3.92500000e-009,3.15625954e-004
,,,-3.90000000e-009,3.62500957e-004
,,,-3.87500000e-009,4.00000960e-004
,,,-3.85000000e-009,4.18750961e-004
,,,-3.82500000e-009,4.28125962e-004
,,,-3.80000000e-009,4.28125962e-004
,,,-3.77500000e-009,4.23438461e-004
,,,-3.75000000e-009,4.14063461e-004
,,,-3.72500000e-009,4.06250960e-004
,,,-3.70000000e-009,4.00000960e-004
,,,-3.67500000e-009,4.00000960e-004
,,,-3.65000000e-009,4.00000960e-004
,,,-3.62500000e-009,4.06250960e-004
,,,-3.60000000e-009,4.14063461e-004
,,,-3.57500000e-009,4.23438461e-004
,,,-3.55000000e-009,4.28125962e-004
,,,-3.52500000e-009,4.28125962e-004
,,,-3.50000000e-009,4.18750961e-004
,,,-3.47500000e-009,4.00000960e-004
,,,-3.45000000e-009,3.62500957e-004
,,,-3.42500000e-009,3.15625954e-004
,,,-3.40000000e-009,2.59375950e-004
,,,-3.37500000e-009,2.01563446e-004
,,,-3.35000000e-009,1.42188441e-004
,,,-3.32500000e-009,8.59384374e-005
,,,-3.30000000e-009,3.75009340e-005
,,,-3.27500000e-009,9.31322575e-010
,,,-3.25000000e-009,-2.96865708e-005
,,,-3.22500000e-009,-4.53115719e-005
,,,-3.20000000e-009,-4.99990722e-005
,,,-3.17500000e-009,-4.68740720e-005
,,,-3.15000000e-009,-3.74990713e-005
,,,-3.12500000e-009,-2.49990704e-005
,,,-3.10000000e-009,-1.09365695e-005
,,,-3.07500000e-009,9.31322575e-010
,,,-3.05000000e-009,6.25093176e-006
,,,-3.02500000e-009,9.37593199e-006
,,,-3.00000000e-009,9.37593199e-006
,,,-2.97500000e-009,6.25093176e-006
,,,-2.95000000e-009,1.56343143e-006
,,,-2.92500000e-009,-1.56156879e-006
,,,-2.90000000e-009,-3.12406890e-006
,,,-2.87500000e-009,9.31322575e-010
,,,-2.85000000e-009,3.12593154e-006
,,,-2.82500000e-009,1.09384321e-005
,,,-2.80000000e-009,1.71884325e-005
,,,-2.77500000e-009,2.34384330e-005
,,,-2.75000000e-009,2.65634332e-005
,,,-2.72500000e-009,2.50009331e-005
,,,-2.70000000e-009,1.56259324e-005
,,,-2.67500000e-009,9.31322575e-010
,,,-2.65000000e-009,-2.65615706e-005
,,,-2.62500000e-009,-6.24990731e-005
,,,-2.60000000e-009,-1.07811576e-004
,,,-2.57500000e-009,-1.60936580e-004
,,,-2.55000000e-009,-2.20311584e-004
,,,-2.52500000e-009,-2.81249089e-004
,,,-2.50000000e-009,-3.42186593e-004
,,,-2.47500000e-009,-3.99999097e-004
,,,-2.45000000e-009,-4.46874100e-004
,,,-2.42500000e-009,-4.81249103e-004
,,,-2.40000000e-009,-5.04686604e-004
,,,-2.37500000e-009,-5.14061605e-004
,,,-2.35000000e-009,-5.07811605e-004
,,,-2.32500000e-009,-4.85936603e-004
,,,-2.30000000e-009,-4.49999101e-004
,,,-2.27500000e-009,-3.99999097e-004
,,,-2.25000000e-009,-3.39061593e-004
,,,-2.22500000e-009,-2.70311588e-004
,,,-2.20000000e-009,-2.01561583e-004
,,,-2.17500000e-009,-1.37499078e-004
,,,-2.15000000e-009,-8.12490744e-005
,,,-2.12500000e-009,-3.74990713e-005
,,,-2.10000000e-009,-1.09365695e-005
,,,-2.07500000e-009,9.31322575e-010
,,,-2.05000000e-009,-1.24990696e-005
,,,-2.02500000e-009,-4.21865717e-005
,,,-2.00000000e-009,-8.74990749e-005
,,,-1.97500000e-009,-1.43749079e-004
,,,-1.95000000e-009,-2.09374083e-004
,,,-1.92500000e-009,-2.76561588e-004
,,,-1.90000000e-009,-3.42186593e-004
,,,-1.87500000e-009,-3.99999097e-004
,,,-1.85000000e-009,-4.54686601e-004
,,,-1.82500000e-009,-4.96874104e-004
,,,-1.80000000e-009,-5.23436606e-004
,,,-1.77500000e-009,-5.32811606e-004
,,,-1.75000000e-009,-5.23436606e-004
,,,-1.72500000e-009,-4.98436604e-004
,,,-1.70000000e-009,-4.56249101e-004
,,,-1.67500000e-009,-3.99999097e-004
,,,-1.65000000e-009,-3.51561594e-004
,,,-1.62500000e-009,-2.98436590e-004
,,,-1.60000000e-009,-2.45311586e-004
,,,-1.57500000e-009,-1.92186582e-004
,,,-1.55000000e-009,-1.40624079e-004
,,,-1.52500000e-009,-9.06240751e-005
,,,-1.50000000e-009,-4.37490718e-005
,,,-1.47500000e-009,9.31322575e-010
,,,-1.45000000e-009,9.31322575e-010
,,,-1.42500000e-009,-9.37406934e-006
,,,-1.40000000e-009,-2.34365703e-005
,,,-1.37500000e-009,-3.59365712e-005
,,,-1.35000000e-009,-4.21865717e-005
,,,-1.32500000e-009,-3.90615714e-005
,,,-1.30000000e-009,-2.49990704e-005
,,,-1.27500000e-009,9.31322575e-010
,,,-1.25000000e-009,-2.49990704e-005
,,,-1.22500000e-009,-5.46865725e-005
,,,-1.20000000e-009,-9.06240751e-005
,,,-1.17500000e-009,-1.32811578e-004
,,,-1.15000000e-009,-1.82811582e-004
,,,-1.12500000e-009,-2.42186586e-004
,,,-1.10000000e-009,-3.14061591e-004
,,,-1.07500000e-009,-3.99999097e-004
,,,-1.05000000e-009,-5.70311609e-004
,,,-1.02500000e-009,-7.64061623e-004
,,,-1.00000000e-009,-9.76561638e-004
,,,-9.75000000e-010,-1.19531165e-003
,,,-9.50000000e-010,-1.41562417e-003
,,,-9.25000000e-010,-1.62499918e-003
,,,-9.00000000e-010,-1.82031170e-003
,,,-8.75000000e-010,-1.99999921e-003
,,,-8.50000000e-010,-2.22812423e-003
,,,-8.25000000e-010,-2.45468674e-003
,,,-8.00000000e-010,-2.68593676e-003
,,,-7.75000000e-010,-2.92031178e-003
,,,-7.50000000e-010,-3.16562429e-003
,,,-7.25000000e-010,-3.42343681e-003
,,,-7.00000000e-010,-3.69999933e-003
,,,-6.75000000e-010,-3.99999935e-003
,,,-6.50000000e-010,-4.37343688e-003
,,,-6.25000000e-010,-4.78281191e-003
,,,-6.00000000e-010,-5.22343694e-003
,,,-5.75000000e-010,-5.68749947e-003
,,,-5.50000000e-010,-6.16562451e-003
,,,-5.25000000e-010,-6.64999954e-003
,,,-5.00000000e-010,-7.12968707e-003
,,,-4.75000000e-010,-7.59999961e-003
,,,-4.50000000e-010,-8.07187464e-003
,,,-4.25000000e-010,-8.53593717e-003
,,,-4.00000000e-010,-8.99687471e-003
,,,-3.75000000e-010,-9.44999974e-003
,,,-3.50000000e-010,-9.89687477e-003
,,,-3.25000000e-010,-1.03374998e-002
,,,-3.00000000e-010,-1.07718748e-002
,,,-2.75000000e-010,-1.11999999e-002
,,,-2.50000000e-010,-1.16015624e-002
,,,-2.25000000e-010,-1.20109374e-002
,,,-2.00000000e-010,-1.24234374e-002
,,,-1.75000000e-010,-1.28406250e-002
,,,-1.50000000e-010,-1.32531250e-002
,,,-1.25000000e-010,-1.36562500e-002
,,,-1.00000000e-010,-1.40406251e-002
,,,-7.50000000e-011,-1.44000001e-002
,,,-5.00000000e-011,-1.46765626e-002
,,,-2.50000000e-011,-1.49328126e-002
,,,0.00000000e+000,-1.51671876e-002
,,,2.50000000e-011,-1.53812502e-002
,,,5.00000000e-011,-1.55734377e-002
,,,7.50000000e-011,-1.57406252e-002
,,,1.00000000e-010,-1.58828127e-002
,,,1.25000000e-010,-1.60000002e-002
,,,1.50000000e-010,-1.60281252e-002
,,,1.75000000e-010,-1.60515627e-002
,,,2.00000000e-010,-1.60796877e-002
,,,2.25000000e-010,-1.61171877e-002
,,,2.50000000e-010,-1.61671877e-002
,,,2.75000000e-010,-1.62328127e-002
,,,3.00000000e-010,-1.63109377e-002
,,,3.25000000e-010,-1.64000002e-002
,,,3.50000000e-010,-1.64234377e-002
,,,3.75000000e-010,-1.64609377e-002
,,,4.00000000e-010,-1.65140627e-002
,,,4.25000000e-010,-1.65750002e-002
,,,4.50000000e-010,-1.66421877e-002
,,,4.75000000e-010,-1.67078128e-002
,,,5.00000000e-010,-1.67625003e-002
,,,5.25000000e-010,-1.68000003e-002
,,,5.50000000e-010,-1.67406253e-002
,,,5.75000000e-010,-1.66609377e-002
,,,6.00000000e-010,-1.65671877e-002
,,,6.25000000e-010,-1.64609377e-002
,,,6.50000000e-010,-1.63484377e-002
,,,6.75000000e-010,-1.62328127e-002
,,,7.00000000e-010,-1.61171877e-002
,,,7.25000000e-010,-1.60000002e-002
,,,7.50000000e-010,-1.58234377e-002
,,,7.75000000e-010,-1.56484377e-002
,,,8.00000000e-010,-1.54828127e-002
,,,8.25000000e-010,-1.53265627e-002
,,,8.50000000e-010,-1.51812501e-002
,,,8.75000000e-010,-1.50468751e-002
,,,9.00000000e-010,-1.49218751e-002
,,,9.25000000e-010,-1.48000001e-002
,,,9.50000000e-010,-1.46281251e-002
,,,9.75000000e-010,-1.44468751e-002
,,,1.00000000e-009,-1.42562501e-002
,,,1.02500000e-009,-1.40578126e-002
,,,1.05000000e-009,-1.38531250e-002
,,,1.07500000e-009,-1.36406250e-002
,,,1.10000000e-009,-1.34250000e-002
,,,1.12500000e-009,-1.32000000e-002
,,,1.15000000e-009,-1.29328125e-002
,,,1.17500000e-009,-1.26500000e-002
,,,1.20000000e-009,-1.23531249e-002
,,,1.22500000e-009,-1.20468749e-002
,,,1.25000000e-009,-1.17343749e-002
,,,1.27500000e-009,-1.14203124e-002
,,,1.30000000e-009,-1.11093749e-002
,,,1.32500000e-009,-1.07999998e-002
,,,1.35000000e-009,-1.04812498e-002
,,,1.37500000e-009,-1.01609373e-002
,,,1.40000000e-009,-9.84218727e-003
,,,1.42500000e-009,-9.52968724e-003
,,,1.45000000e-009,-9.22499972e-003
,,,1.47500000e-009,-8.93593720e-003
,,,1.50000000e-009,-8.66093718e-003
,,,1.52500000e-009,-8.39999966e-003
,,,1.55000000e-009,-8.15781215e-003
,,,1.57500000e-009,-7.91562463e-003
,,,1.60000000e-009,-7.67031211e-003
,,,1.62500000e-009,-7.42187459e-003
,,,1.65000000e-009,-7.17031208e-003
,,,1.67500000e-009,-6.91562456e-003
,,,1.70000000e-009,-6.65781204e-003
,,,1.72500000e-009,-6.39999952e-003
,,,1.75000000e-009,-6.15781200e-003
,,,1.77500000e-009,-5.90468699e-003
,,,1.80000000e-009,-5.64374947e-003
,,,1.82500000e-009,-5.37968695e-003
,,,1.85000000e-009,-5.11718693e-003
,,,1.87500000e-009,-4.86249941e-003
,,,1.90000000e-009,-4.62187440e-003
,,,1.92500000e-009,-4.39999938e-003
,,,1.95000000e-009,-4.22499937e-003
,,,1.97500000e-009,-4.05781186e-003
,,,2.00000000e-009,-3.89843684e-003
,,,2.02500000e-009,-3.74531183e-003
,,,2.05000000e-009,-3.59843682e-003
,,,2.07500000e-009,-3.45937431e-003
,,,2.10000000e-009,-3.32656180e-003
,,,2.12500000e-009,-3.19999930e-003
,,,2.15000000e-009,-3.10937429e-003
,,,2.17500000e-009,-3.01249928e-003
,,,2.20000000e-009,-2.90937427e-003
,,,2.22500000e-009,-2.80156177e-003
,,,2.25000000e-009,-2.69218676e-003
,,,2.27500000e-009,-2.58749925e-003
,,,2.30000000e-009,-2.48906174e-003
,,,2.32500000e-009,-2.39999924e-003
,,,2.35000000e-009,-2.35156174e-003
,,,2.37500000e-009,-2.30468673e-003
,,,2.40000000e-009,-2.25624923e-003
,,,2.42500000e-009,-2.20781172e-003
,,,2.45000000e-009,-2.15781172e-003
,,,2.47500000e-009,-2.10624922e-003
,,,2.50000000e-009,-2.05468671e-003
,,,2.52500000e-009,-1.99999921e-003
,,,2.55000000e-009,-1.96406171e-003
,,,2.57500000e-009,-1.92031170e-003
,,,2.60000000e-009,-1.86718670e-003
,,,2.62500000e-009,-1.81093670e-003
,,,2.65000000e-009,-1.75312419e-003
,,,2.67500000e-009,-1.69687419e-003
,,,2.70000000e-009,-1.64531169e-003
,,,2.72500000e-009,-1.59999918e-003
,,,2.75000000e-009,-1.57812418e-003
,,,2.77500000e-009,-1.55312418e-003
,,,2.80000000e-009,-1.52187418e-003
,,,2.82500000e-009,-1.48281167e-003
,,,2.85000000e-009,-1.43124917e-003
,,,2.87500000e-009,-1.36718667e-003
,,,2.90000000e-009,-1.28906166e-003
,,,2.92500000e-009,-1.19999915e-003
,,,2.95000000e-009,-1.11718665e-003
,,,2.97500000e-009,-1.02968664e-003
,,,3.00000000e-009,-9.45311636e-004
,,,3.02500000e-009,-8.68749130e-004
,,,3.05000000e-009,-8.12499126e-004
,,,3.07500000e-009,-7.78124124e-004
,,,3.10000000e-009,-7.74999124e-004
,,,3.12500000e-009,-7.99999125e-004
,,,3.15000000e-009,-8.65624130e-004
,,,3.17500000e-009,-9.46874136e-004
,,,3.20000000e-009,-1.03437414e-003
,,,3.22500000e-009,-1.11874915e-003
,,,3.25000000e-009,-1.18593665e-003
,,,3.27500000e-009,-1.22812416e-003
,,,3.30000000e-009,-1.23281166e-003
,,,3.32500000e-009,-1.19999915e-003
,,,3.35000000e-009,-1.13593665e-003
,,,3.37500000e-009,-1.03906164e-003
,,,3.40000000e-009,-9.15624133e-004
,,,3.42500000e-009,-7.82811624e-004
,,,3.45000000e-009,-6.49999115e-004
,,,3.47500000e-009,-5.34374107e-004
,,,3.50000000e-009,-4.48436600e-004
,,,3.52500000e-009,-3.99999097e-004
,,,3.55000000e-009,-4.07811598e-004
,,,3.57500000e-009,-4.57811601e-004
,,,3.60000000e-009,-5.46874107e-004
,,,3.62500000e-009,-6.64061616e-004
,,,3.65000000e-009,-7.99999125e-004
,,,3.67500000e-009,-9.43749135e-004
,,,3.70000000e-009,-1.07968665e-003
,,,3.72500000e-009,-1.19999915e-003
,,,3.75000000e-009,-1.29531166e-003
,,,3.77500000e-009,-1.35781166e-003
,,,3.80000000e-009,-1.38593667e-003
,,,3.82500000e-009,-1.38593667e-003
,,,3.85000000e-009,-1.35937416e-003
,,,3.87500000e-009,-1.31406166e-003
,,,3.90000000e-009,-1.25937416e-003
,,,3.92500000e-009,-1.19999915e-003
,,,3.95000000e-009,-1.14687415e-003
,,,3.97500000e-009,-1.10312415e-003
,,,4.00000000e-009,-1.07499914e-003
,,,4.02500000e-009,-1.06562414e-003
,,,4.05000000e-009,-1.07499914e-003
,,,4.07500000e-009,-1.10156165e-003
,,,4.10000000e-009,-1.14531165e-003
,,,4.12500000e-009,-1.19999915e-003
,,,4.15000000e-009,-1.26093666e-003
,,,4.17500000e-009,-1.32343666e-003
,,,4.20000000e-009,-1.38749917e-003
,,,4.22500000e-009,-1.44843667e-003
,,,4.25000000e-009,-1.50312418e-003
,,,4.27500000e-009,-1.54843668e-003
,,,4.30000000e-009,-1.58124918e-003
,,,4.32500000e-009,-1.59999918e-003
,,,4.35000000e-009,-1.59687418e-003
,,,4.37500000e-009,-1.57656168e-003
,,,4.40000000e-009,-1.54062418e-003
,,,4.42500000e-009,-1.49062417e-003
,,,4.45000000e-009,-1.42968667e-003
,,,4.47500000e-009,-1.35781166e-003
,,,4.50000000e-009,-1.28124916e-003
,,,4.52500000e-009,-1.19999915e-003
,,,4.55000000e-009,-1.11562415e-003
,,,4.57500000e-009,-1.03437414e-003
,,,4.60000000e-009,-9.64061637e-004
,,,4.62500000e-009,-9.04686633e-004
,,,4.65000000e-009,-8.59374130e-004
,,,4.67500000e-009,-8.26561627e-004
,,,4.70000000e-009,-8.07811626e-004
,,,4.72500000e-009,-7.99999125e-004
,,,4.75000000e-009,-7.99999125e-004
,,,4.77500000e-009,-8.04686626e-004
,,,4.80000000e-009,-8.12499126e-004
,,,4.82500000e-009,-8.20311627e-004
,,,4.85000000e-009,-8.24999127e-004
,,,4.87500000e-009,-8.24999127e-004
,,,4.90000000e-009,-8.17186627e-004
,,,4.92500000e-009,-7.99999125e-004
,,,4.95000000e-009,-7.73436623e-004
,,,4.97500000e-009,-7.34374121e-004
,,,5.00000000e-009,-6.87499117e-004
,,,5.02500000e-009,-6.32811613e-004
,,,5.05000000e-009,-5.74999109e-004
,,,5.07500000e-009,-5.14061605e-004
,,,5.10000000e-009,-4.54686601e-004
,,,5.12500000e-009,-3.99999097e-004
,,,5.15000000e-009,-3.54686594e-004
,,,5.17500000e-009,-3.18749091e-004
,,,5.20000000e-009,-2.96874090e-004
,,,5.22500000e-009,-2.87499089e-004
,,,5.25000000e-009,-2.95311590e-004
,,,5.27500000e-009,-3.18749091e-004
,,,5.30000000e-009,-3.54686594e-004
,,,5.32500000e-009,-3.99999097e-004
,,,5.35000000e-009,-4.53124101e-004
,,,5.37500000e-009,-4.99999104e-004
,,,5.40000000e-009,-5.39061607e-004
,,,5.42500000e-009,-5.59374108e-004
,,,5.45000000e-009,-5.59374108e-004
,,,5.47500000e-009,-5.32811606e-004
,,,5.50000000e-009,-4.81249103e-004
,,,5.52500000e-009,-3.99999097e-004
,,,5.55000000e-009,-3.01561590e-004
,,,5.57500000e-009,-1.85936582e-004
,,,5.60000000e-009,-5.93740729e-005
,,,5.62500000e-009,6.56259360e-005
,,,5.65000000e-009,1.82813444e-004
,,,5.67500000e-009,2.81250951e-004
,,,5.70000000e-009,3.54688456e-004
,,,5.72500000e-009,4.00000960e-004
,,,5.75000000e-009,4.01563460e-004
,,,5.77500000e-009,3.75000958e-004
,,,5.80000000e-009,3.25000954e-004
,,,5.82500000e-009,2.57813450e-004
,,,5.85000000e-009,1.81250944e-004
,,,5.87500000e-009,1.07813439e-004
,,,5.90000000e-009,4.53134345e-005
