RawData/WithScintilator/R7_2pt2B_15mV/wave000_Ch2.csv

"Record Length",1000,"Points",-7.72500000e-009,-1.80937036e-004
"Sample Interval",2.50000000e-011,s,-7.70000000e-009,-1.52343286e-004
"Trigger Point",309,"Samples",-7.67500000e-009,-1.19999535e-004
"Trigger Time",1.18487002e-011,s,-7.65000000e-009,-8.90620351e-005
"",,,-7.62500000e-009,-5.90620349e-005
"Horizontal Offset",-7.72500000e-009,s,-7.60000000e-009,-3.18745346e-005
,,,-7.57500000e-009,-9.84328442e-006
,,,-7.55000000e-009,5.62546571e-006
,,,-7.52500000e-009,1.26567158e-005
,,,-7.50000000e-009,1.07817158e-005
,,,-7.47500000e-009,4.65661287e-010
,,,-7.45000000e-009,-2.34370345e-005
,,,-7.42500000e-009,-5.39057848e-005
,,,-7.40000000e-009,-8.81245351e-005
,,,-7.37500000e-009,-1.24218285e-004
,,,-7.35000000e-009,-1.59843286e-004
,,,-7.32500000e-009,-1.92187036e-004
,,,-7.30000000e-009,-2.19843286e-004
,,,-7.27500000e-009,-2.39999536e-004
,,,-7.25000000e-009,-2.54999537e-004
,,,-7.22500000e-009,-2.62030787e-004
,,,-7.20000000e-009,-2.62968287e-004
,,,-7.17500000e-009,-2.59218287e-004
,,,-7.15000000e-009,-2.52655787e-004
,,,-7.12500000e-009,-2.46093286e-004
,,,-7.10000000e-009,-2.41405786e-004
,,,-7.07500000e-009,-2.39999536e-004
,,,-7.05000000e-009,-2.44218286e-004
,,,-7.02500000e-009,-2.53593287e-004
,,,-7.00000000e-009,-2.67655787e-004
,,,-6.97500000e-009,-2.85468287e-004
,,,-6.95000000e-009,-3.05155787e-004
,,,-6.92500000e-009,-3.25312037e-004
,,,-6.90000000e-009,-3.44062037e-004
,,,-6.87500000e-009,-3.59999537e-004
,,,-6.85000000e-009,-3.72187038e-004
,,,-6.82500000e-009,-3.79218288e-004
,,,-6.80000000e-009,-3.82499538e-004
,,,-6.77500000e-009,-3.81562038e-004
,,,-6.75000000e-009,-3.77812038e-004
,,,-6.72500000e-009,-3.72655788e-004
,,,-6.70000000e-009,-3.66093288e-004
,,,-6.67500000e-009,-3.59999537e-004
,,,-6.65000000e-009,-3.53905787e-004
,,,-6.62500000e-009,-3.49218287e-004
,,,-6.60000000e-009,-3.46874537e-004
,,,-6.57500000e-009,-3.46874537e-004
,,,-6.55000000e-009,-3.48749537e-004
,,,-6.52500000e-009,-3.52030787e-004
,,,-6.50000000e-009,-3.55780787e-004
,,,-6.47500000e-009,-3.59999537e-004
,,,-6.45000000e-009,-3.62812037e-004
,,,-6.42500000e-009,-3.65155788e-004
,,,-6.40000000e-009,-3.66562038e-004
,,,-6.37500000e-009,-3.67499538e-004
,,,-6.35000000e-009,-3.67030788e-004
,,,-6.32500000e-009,-3.65624538e-004
,,,-6.30000000e-009,-3.63280787e-004
,,,-6.27500000e-009,-3.59999537e-004
,,,-6.25000000e-009,-3.55780787e-004
,,,-6.22500000e-009,-3.51562037e-004
,,,-6.20000000e-009,-3.48280787e-004
,,,-6.17500000e-009,-3.46405787e-004
,,,-6.15000000e-009,-3.46405787e-004
,,,-6.12500000e-009,-3.48749537e-004
,,,-6.10000000e-009,-3.53437037e-004
,,,-6.07500000e-009,-3.59999537e-004
,,,-6.05000000e-009,-3.67030788e-004
,,,-6.02500000e-009,-3.74062038e-004
,,,-6.00000000e-009,-3.80155788e-004
,,,-5.97500000e-009,-3.84374538e-004
,,,-5.95000000e-009,-3.85312038e-004
,,,-5.92500000e-009,-3.81562038e-004
,,,-5.90000000e-009,-3.73124538e-004
,,,-5.87500000e-009,-3.59999537e-004
,,,-5.85000000e-009,-3.42187037e-004
,,,-5.82500000e-009,-3.21562037e-004
,,,-5.80000000e-009,-2.99530787e-004
,,,-5.77500000e-009,-2.78905787e-004
,,,-5.75000000e-009,-2.60624537e-004
,,,-5.72500000e-009,-2.47030786e-004
,,,-5.70000000e-009,-2.39999536e-004
,,,-5.67500000e-009,-2.39999536e-004
,,,-5.65000000e-009,-2.46562036e-004
,,,-5.62500000e-009,-2.59218287e-004
,,,-5.60000000e-009,-2.76562037e-004
,,,-5.57500000e-009,-2.96249537e-004
,,,-5.55000000e-009,-3.16405787e-004
,,,-5.52500000e-009,-3.35155787e-004
,,,-5.50000000e-009,-3.50624537e-004
,,,-5.47500000e-009,-3.59999537e-004
,,,-5.45000000e-009,-3.61874537e-004
,,,-5.42500000e-009,-3.56249537e-004
,,,-5.40000000e-009,-3.44062037e-004
,,,-5.37500000e-009,-3.26718287e-004
,,,-5.35000000e-009,-3.06093287e-004
,,,-5.32500000e-009,-2.83124537e-004
,,,-5.30000000e-009,-2.60624537e-004
,,,-5.27500000e-009,-2.39999536e-004
,,,-5.25000000e-009,-2.22187036e-004
,,,-5.22500000e-009,-2.09062036e-004
,,,-5.20000000e-009,-2.01562036e-004
,,,-5.17500000e-009,-1.99687036e-004
,,,-5.15000000e-009,-2.03437036e-004
,,,-5.12500000e-009,-2.12343286e-004
,,,-5.10000000e-009,-2.24999536e-004
,,,-5.07500000e-009,-2.39999536e-004
,,,-5.05000000e-009,-2.55937037e-004
,,,-5.02500000e-009,-2.70468287e-004
,,,-5.00000000e-009,-2.81249537e-004
,,,-4.97500000e-009,-2.87343287e-004
,,,-4.95000000e-009,-2.86874537e-004
,,,-4.92500000e-009,-2.78905787e-004
,,,-4.90000000e-009,-2.63437037e-004
,,,-4.87500000e-009,-2.39999536e-004
,,,-4.85000000e-009,-2.10937036e-004
,,,-4.82500000e-009,-1.76718286e-004
,,,-4.80000000e-009,-1.40155786e-004
,,,-4.77500000e-009,-1.03124535e-004
,,,-4.75000000e-009,-6.89057849e-005
,,,-4.72500000e-009,-3.93745347e-005
,,,-4.70000000e-009,-1.64057845e-005
,,,-4.67500000e-009,4.65661287e-010
,,,-4.65000000e-009,7.50046573e-006
,,,-4.62500000e-009,8.43796573e-006
,,,-4.60000000e-009,5.15671571e-006
,,,-4.57500000e-009,-4.68284343e-007
,,,-4.55000000e-009,-5.62453439e-006
,,,-4.52500000e-009,-8.90578442e-006
,,,-4.50000000e-009,-7.49953440e-006
,,,-4.47500000e-009,4.65661287e-010
,,,-4.45000000e-009,1.17192158e-005
,,,-4.42500000e-009,2.95317159e-005
,,,-4.40000000e-009,5.06254661e-005
,,,-4.37500000e-009,7.35942163e-005
,,,-4.35000000e-009,9.42192165e-005
,,,-4.32500000e-009,1.10625467e-004
,,,-4.30000000e-009,1.20000467e-004
,,,-4.27500000e-009,1.20000467e-004
,,,-4.25000000e-009,1.08281717e-004
,,,-4.22500000e-009,8.71879664e-005
,,,-4.20000000e-009,5.85942162e-005
,,,-4.17500000e-009,2.39067159e-005
,,,-4.15000000e-009,-1.40620345e-005
,,,-4.12500000e-009,-5.24995348e-005
,,,-4.10000000e-009,-8.85932851e-005
,,,-4.07500000e-009,-1.19999535e-004
,,,-4.05000000e-009,-1.44374536e-004
,,,-4.02500000e-009,-1.59843286e-004
,,,-4.00000000e-009,-1.67343286e-004
,,,-3.97500000e-009,-1.67343286e-004
,,,-3.95000000e-009,-1.60780786e-004
,,,-3.92500000e-009,-1.49999536e-004
,,,-3.90000000e-009,-1.35937036e-004
,,,-3.87500000e-009,-1.19999535e-004
,,,-3.85000000e-009,-1.03593285e-004
,,,-3.82500000e-009,-8.76557851e-005
,,,-3.80000000e-009,-7.21870350e-005
,,,-3.77500000e-009,-5.76557848e-005
,,,-3.75000000e-009,-4.35932847e-005
,,,-3.72500000e-009,-2.95307846e-005
,,,-3.70000000e-009,-1.49995345e-005
,,,-3.67500000e-009,4.65661287e-010
,,,-3.65000000e-009,1.64067158e-005
,,,-3.62500000e-009,3.42192160e-005
,,,-3.60000000e-009,5.15629661e-005
,,,-3.57500000e-009,6.89067163e-005
,,,-3.55000000e-009,8.48442164e-005
,,,-3.52500000e-009,9.93754665e-005
,,,-3.50000000e-009,1.11094217e-004
,,,-3.47500000e-009,1.20000467e-004
,,,-3.45000000e-009,1.25156717e-004
,,,-3.42500000e-009,1.27500467e-004
,,,-3.40000000e-009,1.27500467e-004
,,,-3.37500000e-009,1.26562967e-004
,,,-3.35000000e-009,1.24219217e-004
,,,-3.32500000e-009,1.21875467e-004
,,,-3.30000000e-009,1.20469217e-004
,,,-3.27500000e-009,1.20000467e-004
,,,-3.25000000e-009,1.20937967e-004
,,,-3.22500000e-009,1.22812967e-004
,,,-3.20000000e-009,1.24687967e-004
,,,-3.17500000e-009,1.27031717e-004
,,,-3.15000000e-009,1.27969217e-004
,,,-3.12500000e-009,1.27031717e-004
,,,-3.10000000e-009,1.24687967e-004
,,,-3.07500000e-009,1.20000467e-004
,,,-3.05000000e-009,1.12500467e-004
,,,-3.02500000e-009,1.05000467e-004
,,,-3.00000000e-009,9.84379665e-005
,,,-2.97500000e-009,9.42192165e-005
,,,-2.95000000e-009,9.32817165e-005
,,,-2.92500000e-009,9.70317165e-005
,,,-2.90000000e-009,1.05937967e-004
,,,-2.87500000e-009,1.20000467e-004
,,,-2.85000000e-009,1.36875467e-004
,,,-2.82500000e-009,1.57031717e-004
,,,-2.80000000e-009,1.78594217e-004
,,,-2.77500000e-009,1.99687967e-004
,,,-2.75000000e-009,2.18437968e-004
,,,-2.72500000e-009,2.32031718e-004
,,,-2.70000000e-009,2.39531718e-004
,,,-2.67500000e-009,2.40000468e-004
,,,-2.65000000e-009,2.30625468e-004
,,,-2.62500000e-009,2.15625468e-004
,,,-2.60000000e-009,1.96406717e-004
,,,-2.57500000e-009,1.75312967e-004
,,,-2.55000000e-009,1.54687967e-004
,,,-2.52500000e-009,1.36875467e-004
,,,-2.50000000e-009,1.25156717e-004
,,,-2.47500000e-009,1.20000467e-004
,,,-2.45000000e-009,1.20937967e-004
,,,-2.42500000e-009,1.29375467e-004
,,,-2.40000000e-009,1.44375467e-004
,,,-2.37500000e-009,1.63125467e-004
,,,-2.35000000e-009,1.84687967e-004
,,,-2.32500000e-009,2.06250467e-004
,,,-2.30000000e-009,2.25469218e-004
,,,-2.27500000e-009,2.40000468e-004
,,,-2.25000000e-009,2.45156718e-004
,,,-2.22500000e-009,2.43281718e-004
,,,-2.20000000e-009,2.34375468e-004
,,,-2.17500000e-009,2.18906718e-004
,,,-2.15000000e-009,1.97812967e-004
,,,-2.12500000e-009,1.73437967e-004
,,,-2.10000000e-009,1.46719217e-004
,,,-2.07500000e-009,1.20000467e-004
,,,-2.05000000e-009,9.23442165e-005
,,,-2.02500000e-009,6.75004662e-005
,,,-2.00000000e-009,4.64067161e-005
,,,-1.97500000e-009,2.90629659e-005
,,,-1.95000000e-009,1.59379658e-005
,,,-1.92500000e-009,7.03171572e-006
,,,-1.90000000e-009,1.87546568e-006
,,,-1.87500000e-009,4.65661287e-010
,,,-1.85000000e-009,-3.28078437e-006
,,,-1.82500000e-009,-5.15578438e-006
,,,-1.80000000e-009,-6.09328439e-006
,,,-1.77500000e-009,-5.62453439e-006
,,,-1.75000000e-009,-5.15578438e-006
,,,-1.72500000e-009,-3.74953437e-006
,,,-1.70000000e-009,-1.87453436e-006
,,,-1.67500000e-009,4.65661287e-010
,,,-1.65000000e-009,-7.96828441e-006
,,,-1.62500000e-009,-1.92182845e-005
,,,-1.60000000e-009,-3.28120346e-005
,,,-1.57500000e-009,-4.87495348e-005
,,,-1.55000000e-009,-6.65620349e-005
,,,-1.52500000e-009,-8.48432851e-005
,,,-1.50000000e-009,-1.02655785e-004
,,,-1.47500000e-009,-1.19999535e-004
,,,-1.45000000e-009,-1.57030786e-004
,,,-1.42500000e-009,-1.94062036e-004
,,,-1.40000000e-009,-2.28280786e-004
,,,-1.37500000e-009,-2.54999537e-004
,,,-1.35000000e-009,-2.71405787e-004
,,,-1.32500000e-009,-2.75155787e-004
,,,-1.30000000e-009,-2.64374537e-004
,,,-1.27500000e-009,-2.39999536e-004
,,,-1.25000000e-009,-2.43280786e-004
,,,-1.22500000e-009,-2.45155786e-004
,,,-1.20000000e-009,-2.46093286e-004
,,,-1.17500000e-009,-2.45155786e-004
,,,-1.15000000e-009,-2.43280786e-004
,,,-1.12500000e-009,-2.40937036e-004
,,,-1.10000000e-009,-2.39062036e-004
,,,-1.07500000e-009,-2.39999536e-004
,,,-1.05000000e-009,-3.08437037e-004
,,,-1.02500000e-009,-3.90937038e-004
,,,-1.00000000e-009,-4.82343289e-004
,,,-9.75000000e-010,-5.74687039e-004
,,,-9.50000000e-010,-6.61405790e-004
,,,-9.25000000e-010,-7.35937041e-004
,,,-9.00000000e-010,-7.95468291e-004
,,,-8.75000000e-010,-8.39999542e-004
,,,-8.50000000e-010,-9.53905793e-004
,,,-8.25000000e-010,-1.07390579e-003
,,,-8.00000000e-010,-1.19906204e-003
,,,-7.75000000e-010,-1.32890580e-003
,,,-7.50000000e-010,-1.46390580e-003
,,,-7.25000000e-010,-1.60499955e-003
,,,-7.00000000e-010,-1.75546830e-003
,,,-6.75000000e-010,-1.91999955e-003
,,,-6.50000000e-010,-2.18718705e-003
,,,-6.25000000e-010,-2.48953081e-003
,,,-6.00000000e-010,-2.82140581e-003
,,,-5.75000000e-010,-3.17624956e-003
,,,-5.50000000e-010,-3.54562457e-003
,,,-5.25000000e-010,-3.92203082e-003
,,,-5.00000000e-010,-4.30078082e-003
,,,-4.75000000e-010,-4.67999958e-003
,,,-4.50000000e-010,-5.12624958e-003
,,,-4.25000000e-010,-5.58656208e-003
,,,-4.00000000e-010,-6.05859334e-003
,,,-3.75000000e-010,-6.53953084e-003
,,,-3.50000000e-010,-7.02656210e-003
,,,-3.25000000e-010,-7.51874960e-003
,,,-3.00000000e-010,-8.01562460e-003
,,,-2.75000000e-010,-8.51999961e-003
,,,-2.50000000e-010,-9.06421836e-003
,,,-2.25000000e-010,-9.63515587e-003
,,,-2.00000000e-010,-1.02309371e-002
,,,-1.75000000e-010,-1.08492184e-002
,,,-1.50000000e-010,-1.14848434e-002
,,,-1.25000000e-010,-1.21321871e-002
,,,-1.00000000e-010,-1.27860934e-002
,,,-7.50000000e-011,-1.34399997e-002
,,,-5.00000000e-011,-1.40676559e-002
,,,-2.50000000e-011,-1.46962497e-002
,,,0.00000000e+000,-1.53201559e-002
,,,2.50000000e-011,-1.59328122e-002
,,,5.00000000e-011,-1.65262497e-002
,,,7.50000000e-011,-1.70924997e-002
,,,1.00000000e-010,-1.76254684e-002
,,,1.25000000e-010,-1.81199997e-002
,,,1.50000000e-010,-1.85085934e-002
,,,1.75000000e-010,-1.88756247e-002
,,,2.00000000e-010,-1.92276560e-002
,,,2.25000000e-010,-1.95693747e-002
,,,2.50000000e-010,-1.99049997e-002
,,,2.75000000e-010,-2.02359372e-002
,,,3.00000000e-010,-2.05612497e-002
,,,3.25000000e-010,-2.08799997e-002
,,,3.50000000e-010,-2.10951560e-002
,,,3.75000000e-010,-2.13135935e-002
,,,4.00000000e-010,-2.15343747e-002
,,,4.25000000e-010,-2.17537497e-002
,,,4.50000000e-010,-2.19632810e-002
,,,4.75000000e-010,-2.21540622e-002
,,,5.00000000e-010,-2.23157810e-002
,,,5.25000000e-010,-2.24399997e-002
,,,5.50000000e-010,-2.24151560e-002
,,,5.75000000e-010,-2.23635935e-002
,,,6.00000000e-010,-2.22918747e-002
,,,6.25000000e-010,-2.22079685e-002
,,,6.50000000e-010,-2.21174997e-002
,,,6.75000000e-010,-2.20242185e-002
,,,7.00000000e-010,-2.19314060e-002
,,,7.25000000e-010,-2.18399997e-002
,,,7.50000000e-010,-2.16524997e-002
,,,7.75000000e-010,-2.14771872e-002
,,,8.00000000e-010,-2.13164060e-002
,,,8.25000000e-010,-2.11701560e-002
,,,8.50000000e-010,-2.10346872e-002
,,,8.75000000e-010,-2.09057810e-002
,,,9.00000000e-010,-2.07759372e-002
,,,9.25000000e-010,-2.06399997e-002
,,,9.50000000e-010,-2.04135935e-002
,,,9.75000000e-010,-2.01782810e-002
,,,1.00000000e-009,-1.99382810e-002
,,,1.02500000e-009,-1.96996872e-002
,,,1.05000000e-009,-1.94671872e-002
,,,1.07500000e-009,-1.92449997e-002
,,,1.10000000e-009,-1.90359372e-002
,,,1.12500000e-009,-1.88399997e-002
,,,1.15000000e-009,-1.86018747e-002
,,,1.17500000e-009,-1.83693747e-002
,,,1.20000000e-009,-1.81424997e-002
,,,1.22500000e-009,-1.79203122e-002
,,,1.25000000e-009,-1.77014059e-002
,,,1.27500000e-009,-1.74839059e-002
,,,1.30000000e-009,-1.72645309e-002
,,,1.32500000e-009,-1.70399997e-002
,,,1.35000000e-009,-1.67723434e-002
,,,1.37500000e-009,-1.64864059e-002
,,,1.40000000e-009,-1.61854684e-002
,,,1.42500000e-009,-1.58737497e-002
,,,1.45000000e-009,-1.55578122e-002
,,,1.47500000e-009,-1.52442184e-002
,,,1.50000000e-009,-1.49371872e-002
,,,1.52500000e-009,-1.46399997e-002
,,,1.55000000e-009,-1.43399997e-002
,,,1.57500000e-009,-1.40385934e-002
,,,1.60000000e-009,-1.37353122e-002
,,,1.62500000e-009,-1.34320309e-002
,,,1.65000000e-009,-1.31296871e-002
,,,1.67500000e-009,-1.28301559e-002
,,,1.70000000e-009,-1.25334371e-002
,,,1.72500000e-009,-1.22399996e-002
,,,1.75000000e-009,-1.19503121e-002
,,,1.77500000e-009,-1.16498434e-002
,,,1.80000000e-009,-1.13409371e-002
,,,1.82500000e-009,-1.10273434e-002
,,,1.85000000e-009,-1.07151559e-002
,,,1.87500000e-009,-1.04095309e-002
,,,1.90000000e-009,-1.01165621e-002
,,,1.92500000e-009,-9.83999962e-003
,,,1.95000000e-009,-9.59437462e-003
,,,1.97500000e-009,-9.35390587e-003
,,,2.00000000e-009,-9.11671836e-003
,,,2.02500000e-009,-8.88562461e-003
,,,2.05000000e-009,-8.66062461e-003
,,,2.07500000e-009,-8.44406211e-003
,,,2.10000000e-009,-8.23687461e-003
,,,2.12500000e-009,-8.03999960e-003
,,,2.15000000e-009,-7.87171835e-003
,,,2.17500000e-009,-7.69734335e-003
,,,2.20000000e-009,-7.51640585e-003
,,,2.22500000e-009,-7.33031210e-003
,,,2.25000000e-009,-7.14187460e-003
,,,2.27500000e-009,-6.95578084e-003
,,,2.30000000e-009,-6.77390584e-003
,,,2.32500000e-009,-6.59999959e-003
,,,2.35000000e-009,-6.45843709e-003
,,,2.37500000e-009,-6.31218709e-003
,,,2.40000000e-009,-6.16078084e-003
,,,2.42500000e-009,-6.00656209e-003
,,,2.45000000e-009,-5.85046834e-003
,,,2.47500000e-009,-5.69578083e-003
,,,2.50000000e-009,-5.54531208e-003
,,,2.52500000e-009,-5.39999958e-003
,,,2.55000000e-009,-5.28515583e-003
,,,2.57500000e-009,-5.16609333e-003
,,,2.60000000e-009,-5.04281208e-003
,,,2.62500000e-009,-4.91718708e-003
,,,2.65000000e-009,-4.79109333e-003
,,,2.67500000e-009,-4.66828082e-003
,,,2.70000000e-009,-4.55062457e-003
,,,2.72500000e-009,-4.43999957e-003
,,,2.75000000e-009,-4.35749957e-003
,,,2.77500000e-009,-4.27218707e-003
,,,2.80000000e-009,-4.18359332e-003
,,,2.82500000e-009,-4.09218707e-003
,,,2.85000000e-009,-3.99843707e-003
,,,2.87500000e-009,-3.90421832e-003
,,,2.90000000e-009,-3.81093707e-003
,,,2.92500000e-009,-3.71999957e-003
,,,2.95000000e-009,-3.64687457e-003
,,,2.97500000e-009,-3.56953082e-003
,,,3.00000000e-009,-3.48890581e-003
,,,3.02500000e-009,-3.40734331e-003
,,,3.05000000e-009,-3.32671831e-003
,,,3.07500000e-009,-3.25031206e-003
,,,3.10000000e-009,-3.18093706e-003
,,,3.12500000e-009,-3.11999956e-003
,,,3.15000000e-009,-3.08062456e-003
,,,3.17500000e-009,-3.04453081e-003
,,,3.20000000e-009,-3.01124956e-003
,,,3.22500000e-009,-2.97984331e-003
,,,3.25000000e-009,-2.95124956e-003
,,,3.27500000e-009,-2.92499956e-003
,,,3.30000000e-009,-2.90156206e-003
,,,3.32500000e-009,-2.87999956e-003
,,,3.35000000e-009,-2.86687456e-003
,,,3.37500000e-009,-2.84859331e-003
,,,3.40000000e-009,-2.82468706e-003
,,,3.42500000e-009,-2.79562456e-003
,,,3.45000000e-009,-2.76140581e-003
,,,3.47500000e-009,-2.72390581e-003
,,,3.50000000e-009,-2.68312456e-003
,,,3.52500000e-009,-2.63999956e-003
,,,3.55000000e-009,-2.59968706e-003
,,,3.57500000e-009,-2.55281206e-003
,,,3.60000000e-009,-2.49984331e-003
,,,3.62500000e-009,-2.44078081e-003
,,,3.65000000e-009,-2.37609330e-003
,,,3.67500000e-009,-2.30718705e-003
,,,3.70000000e-009,-2.23453080e-003
,,,3.72500000e-009,-2.15999955e-003
,,,3.75000000e-009,-2.08968705e-003
,,,3.77500000e-009,-2.01749955e-003
,,,3.80000000e-009,-1.94624955e-003
,,,3.82500000e-009,-1.87828080e-003
,,,3.85000000e-009,-1.81593705e-003
,,,3.87500000e-009,-1.76109330e-003
,,,3.90000000e-009,-1.71562455e-003
,,,3.92500000e-009,-1.67999955e-003
,,,3.95000000e-009,-1.65937455e-003
,,,3.97500000e-009,-1.64390580e-003
,,,4.00000000e-009,-1.63265580e-003
,,,4.02500000e-009,-1.62234330e-003
,,,4.05000000e-009,-1.61203080e-003
,,,4.07500000e-009,-1.59890580e-003
,,,4.10000000e-009,-1.58203080e-003
,,,4.12500000e-009,-1.55999955e-003
,,,4.15000000e-009,-1.53515580e-003
,,,4.17500000e-009,-1.50421830e-003
,,,4.20000000e-009,-1.46812455e-003
,,,4.22500000e-009,-1.43062455e-003
,,,4.25000000e-009,-1.39453080e-003
,,,4.27500000e-009,-1.36218705e-003
,,,4.30000000e-009,-1.33687455e-003
,,,4.32500000e-009,-1.31999955e-003
,,,4.35000000e-009,-1.31437455e-003
,,,4.37500000e-009,-1.31437455e-003
,,,4.40000000e-009,-1.31812455e-003
,,,4.42500000e-009,-1.32374955e-003
,,,4.45000000e-009,-1.32890580e-003
,,,4.47500000e-009,-1.33124955e-003
,,,4.50000000e-009,-1.32890580e-003
,,,4.52500000e-009,-1.31999955e-003
,,,4.55000000e-009,-1.30546830e-003
,,,4.57500000e-009,-1.28203080e-003
,,,4.60000000e-009,-1.25109330e-003
,,,4.62500000e-009,-1.21546829e-003
,,,4.65000000e-009,-1.17749954e-003
,,,4.67500000e-009,-1.14093704e-003
,,,4.70000000e-009,-1.10765579e-003
,,,4.72500000e-009,-1.07999954e-003
,,,4.75000000e-009,-1.05984329e-003
,,,4.77500000e-009,-1.04437454e-003
,,,4.80000000e-009,-1.03218704e-003
,,,4.82500000e-009,-1.02234329e-003
,,,4.85000000e-009,-1.01203079e-003
,,,4.87500000e-009,-9.99374543e-004
,,,4.90000000e-009,-9.82968293e-004
,,,4.92500000e-009,-9.59999543e-004
,,,4.95000000e-009,-9.30937042e-004
,,,4.97500000e-009,-8.93905792e-004
,,,5.00000000e-009,-8.50312042e-004
,,,5.02500000e-009,-8.01093291e-004
,,,5.05000000e-009,-7.49062041e-004
,,,5.07500000e-009,-6.97030790e-004
,,,5.10000000e-009,-6.46405790e-004
,,,5.12500000e-009,-5.99999540e-004
,,,5.15000000e-009,-5.62499539e-004
,,,5.17500000e-009,-5.31562039e-004
,,,5.20000000e-009,-5.07187039e-004
,,,5.22500000e-009,-4.90312039e-004
,,,5.25000000e-009,-4.79530789e-004
,,,5.27500000e-009,-4.75312038e-004
,,,5.30000000e-009,-4.75780788e-004
,,,5.32500000e-009,-4.79999539e-004
,,,5.35000000e-009,-4.89374539e-004
,,,5.37500000e-009,-4.97812039e-004
,,,5.40000000e-009,-5.04374539e-004
,,,5.42500000e-009,-5.08124539e-004
,,,5.45000000e-009,-5.07655789e-004
,,,5.47500000e-009,-5.02499539e-004
,,,5.50000000e-009,-4.93593289e-004
,,,5.52500000e-009,-4.79999539e-004
,,,5.55000000e-009,-4.67343288e-004
,,,5.57500000e-009,-4.50937038e-004
,,,5.60000000e-009,-4.32655788e-004
,,,5.62500000e-009,-4.13905788e-004
,,,5.65000000e-009,-3.96093288e-004
,,,5.67500000e-009,-3.80624538e-004
,,,5.70000000e-009,-3.68437038e-004
,,,5.72500000e-009,-3.59999537e-004
,,,5.75000000e-009,-3.60468287e-004
,,,5.77500000e-009,-3.63749538e-004
,,,5.80000000e-009,-3.67968288e-004
,,,5.82500000e-009,-3.72655788e-004
,,,5.85000000e-009,-3.74999538e-004
,,,5.87500000e-009,-3.74530788e-004
