RawData/WithScintilator/R7_2pt2B_15mV/wave018_Ch2.csv

"Record Length",1000,"Points",-7.72500000e-009,2.96884334e-005
"Sample Interval",2.50000000e-011,s,-7.70000000e-009,1.60938443e-004
"Trigger Point",309,"Samples",-7.67500000e-009,2.85938452e-004
"Trigger Time",3.67708895e-013,s,-7.65000000e-009,4.00000960e-004
"",,,-7.62500000e-009,4.89063466e-004
"Horizontal Offset",-7.72500000e-009,s,-7.60000000e-009,5.53125970e-004
,,,-7.57500000e-009,5.89063473e-004
,,,-7.55000000e-009,5.96875974e-004
,,,-7.52500000e-009,5.78125972e-004
,,,-7.50000000e-009,5.35938469e-004
,,,-7.47500000e-009,4.73438465e-004
,,,-7.45000000e-009,4.00000960e-004
,,,-7.42500000e-009,3.17188454e-004
,,,-7.40000000e-009,2.35938448e-004
,,,-7.37500000e-009,1.60938443e-004
,,,-7.35000000e-009,9.53134381e-005
,,,-7.32500000e-009,4.37509344e-005
,,,-7.30000000e-009,9.37593199e-006
,,,-7.27500000e-009,-4.68656901e-006
,,,-7.25000000e-009,9.31322575e-010
,,,-7.22500000e-009,2.34384330e-005
,,,-7.20000000e-009,6.40634359e-005
,,,-7.17500000e-009,1.15625940e-004
,,,-7.15000000e-009,1.75000944e-004
,,,-7.12500000e-009,2.37500948e-004
,,,-7.10000000e-009,2.98438452e-004
,,,-7.07500000e-009,3.53125956e-004
,,,-7.05000000e-009,4.00000960e-004
,,,-7.02500000e-009,4.29688462e-004
,,,-7.00000000e-009,4.46875963e-004
,,,-6.97500000e-009,4.53125963e-004
,,,-6.95000000e-009,4.50000963e-004
,,,-6.92500000e-009,4.40625963e-004
,,,-6.90000000e-009,4.26563462e-004
,,,-6.87500000e-009,4.12500961e-004
,,,-6.85000000e-009,4.00000960e-004
,,,-6.82500000e-009,3.87500959e-004
,,,-6.80000000e-009,3.79688458e-004
,,,-6.77500000e-009,3.79688458e-004
,,,-6.75000000e-009,3.81250958e-004
,,,-6.72500000e-009,3.87500959e-004
,,,-6.70000000e-009,3.93750959e-004
,,,-6.67500000e-009,3.96875959e-004
,,,-6.65000000e-009,4.00000960e-004
,,,-6.62500000e-009,3.95313459e-004
,,,-6.60000000e-009,3.89063459e-004
,,,-6.57500000e-009,3.81250958e-004
,,,-6.55000000e-009,3.75000958e-004
,,,-6.52500000e-009,3.71875958e-004
,,,-6.50000000e-009,3.75000958e-004
,,,-6.47500000e-009,3.82813458e-004
,,,-6.45000000e-009,4.00000960e-004
,,,-6.42500000e-009,4.20313461e-004
,,,-6.40000000e-009,4.43750963e-004
,,,-6.37500000e-009,4.64063464e-004
,,,-6.35000000e-009,4.79688465e-004
,,,-6.32500000e-009,4.82813465e-004
,,,-6.30000000e-009,4.71875965e-004
,,,-6.27500000e-009,4.45313463e-004
,,,-6.25000000e-009,4.00000960e-004
,,,-6.22500000e-009,3.35938455e-004
,,,-6.20000000e-009,2.60938450e-004
,,,-6.17500000e-009,1.84375944e-004
,,,-6.15000000e-009,1.12500939e-004
,,,-6.12500000e-009,5.15634350e-005
,,,-6.10000000e-009,9.37593199e-006
,,,-6.07500000e-009,-9.37406934e-006
,,,-6.05000000e-009,9.31322575e-010
,,,-6.02500000e-009,3.59384339e-005
,,,-6.00000000e-009,9.37509380e-005
,,,-5.97500000e-009,1.64063443e-004
,,,-5.95000000e-009,2.39063448e-004
,,,-5.92500000e-009,3.07813453e-004
,,,-5.90000000e-009,3.62500957e-004
,,,-5.87500000e-009,3.93750959e-004
,,,-5.85000000e-009,4.00000960e-004
,,,-5.82500000e-009,3.75000958e-004
,,,-5.80000000e-009,3.25000954e-004
,,,-5.77500000e-009,2.59375950e-004
,,,-5.75000000e-009,1.84375944e-004
,,,-5.72500000e-009,1.10938439e-004
,,,-5.70000000e-009,5.00009349e-005
,,,-5.67500000e-009,1.09384321e-005
,,,-5.65000000e-009,9.31322575e-010
,,,-5.62500000e-009,1.87509326e-005
,,,-5.60000000e-009,6.56259360e-005
,,,-5.57500000e-009,1.31250941e-004
,,,-5.55000000e-009,2.06250946e-004
,,,-5.52500000e-009,2.79688451e-004
,,,-5.50000000e-009,3.42188456e-004
,,,-5.47500000e-009,3.84375959e-004
,,,-5.45000000e-009,4.00000960e-004
,,,-5.42500000e-009,3.82813458e-004
,,,-5.40000000e-009,3.39063455e-004
,,,-5.37500000e-009,2.75000951e-004
,,,-5.35000000e-009,2.00000945e-004
,,,-5.32500000e-009,1.23438440e-004
,,,-5.30000000e-009,5.93759355e-005
,,,-5.27500000e-009,1.56259324e-005
,,,-5.25000000e-009,9.31322575e-010
,,,-5.22500000e-009,1.40634323e-005
,,,-5.20000000e-009,5.62509353e-005
,,,-5.17500000e-009,1.18750940e-004
,,,-5.15000000e-009,1.92188445e-004
,,,-5.12500000e-009,2.67188450e-004
,,,-5.10000000e-009,3.32813455e-004
,,,-5.07500000e-009,3.79688458e-004
,,,-5.05000000e-009,4.00000960e-004
,,,-5.02500000e-009,3.87500959e-004
,,,-5.00000000e-009,3.48438456e-004
,,,-4.97500000e-009,2.87500952e-004
,,,-4.95000000e-009,2.14063446e-004
,,,-4.92500000e-009,1.39063441e-004
,,,-4.90000000e-009,7.34384365e-005
,,,-4.87500000e-009,2.34384330e-005
,,,-4.85000000e-009,9.31322575e-010
,,,-4.82500000e-009,3.12593154e-006
,,,-4.80000000e-009,3.28134336e-005
,,,-4.77500000e-009,8.59384374e-005
,,,-4.75000000e-009,1.53125942e-004
,,,-4.72500000e-009,2.28125947e-004
,,,-4.70000000e-009,2.98438452e-004
,,,-4.67500000e-009,3.59375957e-004
,,,-4.65000000e-009,4.00000960e-004
,,,-4.62500000e-009,4.14063461e-004
,,,-4.60000000e-009,4.01563460e-004
,,,-4.57500000e-009,3.65625957e-004
,,,-4.55000000e-009,3.07813453e-004
,,,-4.52500000e-009,2.35938448e-004
,,,-4.50000000e-009,1.56250942e-004
,,,-4.47500000e-009,7.50009366e-005
,,,-4.45000000e-009,9.31322575e-010
,,,-4.42500000e-009,-5.93740729e-005
,,,-4.40000000e-009,-1.01561576e-004
,,,-4.37500000e-009,-1.24999078e-004
,,,-4.35000000e-009,-1.28124078e-004
,,,-4.32500000e-009,-1.15624077e-004
,,,-4.30000000e-009,-8.59365748e-005
,,,-4.27500000e-009,-4.68740720e-005
,,,-4.25000000e-009,9.31322575e-010
,,,-4.22500000e-009,4.53134345e-005
,,,-4.20000000e-009,8.43759373e-005
,,,-4.17500000e-009,1.14063439e-004
,,,-4.15000000e-009,1.28125940e-004
,,,-4.12500000e-009,1.23438440e-004
,,,-4.10000000e-009,1.01563439e-004
,,,-4.07500000e-009,5.93759355e-005
,,,-4.05000000e-009,9.31322575e-010
,,,-4.02500000e-009,-7.34365739e-005
,,,-4.00000000e-009,-1.54686580e-004
,,,-3.97500000e-009,-2.35936585e-004
,,,-3.95000000e-009,-3.09374091e-004
,,,-3.92500000e-009,-3.68749095e-004
,,,-3.90000000e-009,-4.07811598e-004
,,,-3.87500000e-009,-4.18749098e-004
,,,-3.85000000e-009,-3.99999097e-004
,,,-3.82500000e-009,-3.48436593e-004
,,,-3.80000000e-009,-2.68749088e-004
,,,-3.77500000e-009,-1.67186581e-004
,,,-3.75000000e-009,-4.99990722e-005
,,,-3.72500000e-009,7.18759364e-005
,,,-3.70000000e-009,1.93750945e-004
,,,-3.67500000e-009,3.04688453e-004
,,,-3.65000000e-009,4.00000960e-004
,,,-3.62500000e-009,4.67188464e-004
,,,-3.60000000e-009,5.10938467e-004
,,,-3.57500000e-009,5.29688469e-004
,,,-3.55000000e-009,5.26563469e-004
,,,-3.52500000e-009,5.07813467e-004
,,,-3.50000000e-009,4.76563465e-004
,,,-3.47500000e-009,4.39063462e-004
,,,-3.45000000e-009,4.00000960e-004
,,,-3.42500000e-009,3.56250957e-004
,,,-3.40000000e-009,3.14063454e-004
,,,-3.37500000e-009,2.71875951e-004
,,,-3.35000000e-009,2.29688448e-004
,,,-3.32500000e-009,1.82813444e-004
,,,-3.30000000e-009,1.31250941e-004
,,,-3.27500000e-009,6.87509362e-005
,,,-3.25000000e-009,9.31322575e-010
,,,-3.22500000e-009,-7.65615741e-005
,,,-3.20000000e-009,-1.53124080e-004
,,,-3.17500000e-009,-2.29686585e-004
,,,-3.15000000e-009,-2.98436590e-004
,,,-3.12500000e-009,-3.54686594e-004
,,,-3.10000000e-009,-3.92186596e-004
,,,-3.07500000e-009,-4.07811598e-004
,,,-3.05000000e-009,-3.99999097e-004
,,,-3.02500000e-009,-3.67186595e-004
,,,-3.00000000e-009,-3.15624091e-004
,,,-2.97500000e-009,-2.51561586e-004
,,,-2.95000000e-009,-1.81249082e-004
,,,-2.92500000e-009,-1.14061577e-004
,,,-2.90000000e-009,-5.78115728e-005
,,,-2.87500000e-009,-1.87490700e-005
,,,-2.85000000e-009,9.31322575e-010
,,,-2.82500000e-009,-6.24906912e-006
,,,-2.80000000e-009,-3.59365712e-005
,,,-2.77500000e-009,-8.28115745e-005
,,,-2.75000000e-009,-1.45311579e-004
,,,-2.72500000e-009,-2.15624084e-004
,,,-2.70000000e-009,-2.87499089e-004
,,,-2.67500000e-009,-3.49999093e-004
,,,-2.65000000e-009,-3.99999097e-004
,,,-2.62500000e-009,-4.26561599e-004
,,,-2.60000000e-009,-4.28124099e-004
,,,-2.57500000e-009,-4.06249097e-004
,,,-2.55000000e-009,-3.60936594e-004
,,,-2.52500000e-009,-2.93749089e-004
,,,-2.50000000e-009,-2.07811583e-004
,,,-2.47500000e-009,-1.07811576e-004
,,,-2.45000000e-009,9.31322575e-010
,,,-2.42500000e-009,1.10938439e-004
,,,-2.40000000e-009,2.14063446e-004
,,,-2.37500000e-009,3.03125953e-004
,,,-2.35000000e-009,3.73438458e-004
,,,-2.32500000e-009,4.18750961e-004
,,,-2.30000000e-009,4.39063462e-004
,,,-2.27500000e-009,4.31250962e-004
,,,-2.25000000e-009,4.00000960e-004
,,,-2.22500000e-009,3.43750956e-004
,,,-2.20000000e-009,2.75000951e-004
,,,-2.17500000e-009,2.00000945e-004
,,,-2.15000000e-009,1.26563440e-004
,,,-2.12500000e-009,6.40634359e-005
,,,-2.10000000e-009,1.87509326e-005
,,,-2.07500000e-009,-3.12406890e-006
,,,-2.05000000e-009,9.31322575e-010
,,,-2.02500000e-009,2.50009331e-005
,,,-2.00000000e-009,7.34384365e-005
,,,-1.97500000e-009,1.35938441e-004
,,,-1.95000000e-009,2.07813446e-004
,,,-1.92500000e-009,2.78125951e-004
,,,-1.90000000e-009,3.37500955e-004
,,,-1.87500000e-009,3.79688458e-004
,,,-1.85000000e-009,4.00000960e-004
,,,-1.82500000e-009,3.89063459e-004
,,,-1.80000000e-009,3.54688456e-004
,,,-1.77500000e-009,3.01563453e-004
,,,-1.75000000e-009,2.32813448e-004
,,,-1.72500000e-009,1.60938443e-004
,,,-1.70000000e-009,9.21884378e-005
,,,-1.67500000e-009,3.59384339e-005
,,,-1.65000000e-009,9.31322575e-010
,,,-1.62500000e-009,-1.71865699e-005
,,,-1.60000000e-009,-7.81156923e-006
,,,-1.57500000e-009,2.50009331e-005
,,,-1.55000000e-009,8.12509371e-005
,,,-1.52500000e-009,1.53125942e-004
,,,-1.50000000e-009,2.34375948e-004
,,,-1.47500000e-009,3.18750954e-004
,,,-1.45000000e-009,4.00000960e-004
,,,-1.42500000e-009,4.54688464e-004
,,,-1.40000000e-009,4.93750966e-004
,,,-1.37500000e-009,5.12500968e-004
,,,-1.35000000e-009,5.15625968e-004
,,,-1.32500000e-009,5.01563467e-004
,,,-1.30000000e-009,4.76563465e-004
,,,-1.27500000e-009,4.40625963e-004
,,,-1.25000000e-009,4.00000960e-004
,,,-1.22500000e-009,3.23438454e-004
,,,-1.20000000e-009,2.45313449e-004
,,,-1.17500000e-009,1.68750943e-004
,,,-1.15000000e-009,1.01563439e-004
,,,-1.12500000e-009,4.84384348e-005
,,,-1.10000000e-009,1.25009322e-005
,,,-1.07500000e-009,-3.12406890e-006
,,,-1.05000000e-009,9.31322575e-010
,,,-1.02500000e-009,-4.21865717e-005
,,,-1.00000000e-009,-7.65615741e-005
,,,-9.75000000e-010,-9.99990758e-005
,,,-9.50000000e-010,-1.12499077e-004
,,,-9.25000000e-010,-1.07811576e-004
,,,-9.00000000e-010,-8.74990749e-005
,,,-8.75000000e-010,-4.99990722e-005
,,,-8.50000000e-010,9.31322575e-010
,,,-8.25000000e-010,-5.15615723e-005
,,,-8.00000000e-010,-1.14061577e-004
,,,-7.75000000e-010,-1.82811582e-004
,,,-7.50000000e-010,-2.51561586e-004
,,,-7.25000000e-010,-3.10936591e-004
,,,-7.00000000e-010,-3.56249094e-004
,,,-6.75000000e-010,-3.85936596e-004
,,,-6.50000000e-010,-3.99999097e-004
,,,-6.25000000e-010,-5.59374108e-004
,,,-6.00000000e-010,-7.39061621e-004
,,,-5.75000000e-010,-9.34374135e-004
,,,-5.50000000e-010,-1.14062415e-003
,,,-5.25000000e-010,-1.35156166e-003
,,,-5.00000000e-010,-1.56406168e-003
,,,-4.75000000e-010,-1.77812419e-003
,,,-4.50000000e-010,-1.99999921e-003
,,,-4.25000000e-010,-2.40624924e-003
,,,-4.00000000e-010,-2.85781177e-003
,,,-3.75000000e-010,-3.34687431e-003
,,,-3.50000000e-010,-3.86093684e-003
,,,-3.25000000e-010,-4.38906188e-003
,,,-3.00000000e-010,-4.92187442e-003
,,,-2.75000000e-010,-5.45781195e-003
,,,-2.50000000e-010,-5.99999949e-003
,,,-2.25000000e-010,-6.70937454e-003
,,,-2.00000000e-010,-7.46718710e-003
,,,-1.75000000e-010,-8.27031215e-003
,,,-1.50000000e-010,-9.11093721e-003
,,,-1.25000000e-010,-9.98906228e-003
,,,-1.00000000e-010,-1.08953123e-002
,,,-7.50000000e-011,-1.18328124e-002
,,,-5.00000000e-011,-1.28000000e-002
,,,-2.50000000e-011,-1.39031251e-002
,,,0.00000000e+000,-1.50625001e-002
,,,2.50000000e-011,-1.62656252e-002
,,,5.00000000e-011,-1.74984378e-002
,,,7.50000000e-011,-1.87421879e-002
,,,1.00000000e-010,-1.99828130e-002
,,,1.25000000e-010,-2.12046881e-002
,,,1.50000000e-010,-2.24000007e-002
,,,1.75000000e-010,-2.35843757e-002
,,,2.00000000e-010,-2.47656258e-002
,,,2.25000000e-010,-2.59421884e-002
,,,2.50000000e-010,-2.71109385e-002
,,,2.75000000e-010,-2.82656261e-002
,,,3.00000000e-010,-2.94015636e-002
,,,3.25000000e-010,-3.05125012e-002
,,,3.50000000e-010,-3.16000013e-002
,,,3.75000000e-010,-3.25906264e-002
,,,4.00000000e-010,-3.35828139e-002
,,,4.25000000e-010,-3.45765640e-002
,,,4.50000000e-010,-3.55640641e-002
,,,4.75000000e-010,-3.65328142e-002
,,,5.00000000e-010,-3.74703142e-002
,,,5.25000000e-010,-3.83625018e-002
,,,5.50000000e-010,-3.92000018e-002
,,,5.75000000e-010,-3.98281269e-002
,,,6.00000000e-010,-4.04281269e-002
,,,6.25000000e-010,-4.10062520e-002
,,,6.50000000e-010,-4.15687520e-002
,,,6.75000000e-010,-4.21125020e-002
,,,7.00000000e-010,-4.26343771e-002
,,,7.25000000e-010,-4.31328146e-002
,,,7.50000000e-010,-4.36000022e-002
,,,7.75000000e-010,-4.38406272e-002
,,,8.00000000e-010,-4.40828147e-002
,,,8.25000000e-010,-4.43343772e-002
,,,8.50000000e-010,-4.45937522e-002
,,,8.75000000e-010,-4.48578147e-002
,,,9.00000000e-010,-4.51203148e-002
,,,9.25000000e-010,-4.53718773e-002
,,,9.50000000e-010,-4.56000023e-002
,,,9.75000000e-010,-4.55875023e-002
,,,1.00000000e-009,-4.55687523e-002
,,,1.02500000e-009,-4.55531273e-002
,,,1.05000000e-009,-4.55453148e-002
,,,1.07500000e-009,-4.55500023e-002
,,,1.10000000e-009,-4.55640648e-002
,,,1.12500000e-009,-4.55828148e-002
,,,1.15000000e-009,-4.56000023e-002
,,,1.17500000e-009,-4.54015648e-002
,,,1.20000000e-009,-4.51984398e-002
,,,1.22500000e-009,-4.49984398e-002
,,,1.25000000e-009,-4.48031272e-002
,,,1.27500000e-009,-4.46093772e-002
,,,1.30000000e-009,-4.44171897e-002
,,,1.32500000e-009,-4.42171897e-002
,,,1.35000000e-009,-4.40000022e-002
,,,1.37500000e-009,-4.35718772e-002
,,,1.40000000e-009,-4.31109396e-002
,,,1.42500000e-009,-4.26234396e-002
,,,1.45000000e-009,-4.21171895e-002
,,,1.47500000e-009,-4.15984395e-002
,,,1.50000000e-009,-4.10718770e-002
,,,1.52500000e-009,-4.05390644e-002
,,,1.55000000e-009,-4.00000019e-002
,,,1.57500000e-009,-3.93156269e-002
,,,1.60000000e-009,-3.86109393e-002
,,,1.62500000e-009,-3.78937518e-002
,,,1.65000000e-009,-3.71750017e-002
,,,1.67500000e-009,-3.64609391e-002
,,,1.70000000e-009,-3.57578141e-002
,,,1.72500000e-009,-3.50718766e-002
,,,1.75000000e-009,-3.44000015e-002
,,,1.77500000e-009,-3.36515640e-002
,,,1.80000000e-009,-3.28906264e-002
,,,1.82500000e-009,-3.21250013e-002
,,,1.85000000e-009,-3.13578138e-002
,,,1.87500000e-009,-3.05968762e-002
,,,1.90000000e-009,-2.98515637e-002
,,,1.92500000e-009,-2.91187511e-002
,,,1.95000000e-009,-2.84000011e-002
,,,1.97500000e-009,-2.76515635e-002
,,,2.00000000e-009,-2.68796885e-002
,,,2.02500000e-009,-2.60875009e-002
,,,2.05000000e-009,-2.52765634e-002
,,,2.07500000e-009,-2.44562508e-002
,,,2.10000000e-009,-2.36312507e-002
,,,2.12500000e-009,-2.28109382e-002
,,,2.15000000e-009,-2.20000006e-002
,,,2.17500000e-009,-2.12125006e-002
,,,2.20000000e-009,-2.04125005e-002
,,,2.22500000e-009,-1.96093755e-002
,,,2.25000000e-009,-1.88156254e-002
,,,2.27500000e-009,-1.80453128e-002
,,,2.30000000e-009,-1.73125003e-002
,,,2.32500000e-009,-1.66296877e-002
,,,2.35000000e-009,-1.60000002e-002
,,,2.37500000e-009,-1.54750002e-002
,,,2.40000000e-009,-1.49656251e-002
,,,2.42500000e-009,-1.44640626e-002
,,,2.45000000e-009,-1.39671876e-002
,,,2.47500000e-009,-1.34718750e-002
,,,2.50000000e-009,-1.29796875e-002
,,,2.52500000e-009,-1.24890625e-002
,,,2.55000000e-009,-1.19999999e-002
,,,2.57500000e-009,-1.15812499e-002
,,,2.60000000e-009,-1.11265624e-002
,,,2.62500000e-009,-1.06374998e-002
,,,2.65000000e-009,-1.01187498e-002
,,,2.67500000e-009,-9.58281225e-003
,,,2.70000000e-009,-9.04062471e-003
,,,2.72500000e-009,-8.50937467e-003
,,,2.75000000e-009,-7.99999963e-003
,,,2.77500000e-009,-7.60468711e-003
,,,2.80000000e-009,-7.21406208e-003
,,,2.82500000e-009,-6.83281205e-003
,,,2.85000000e-009,-6.46406203e-003
,,,2.87500000e-009,-6.11249950e-003
,,,2.90000000e-009,-5.78124948e-003
,,,2.92500000e-009,-5.47656196e-003
,,,2.95000000e-009,-5.19999944e-003
,,,2.97500000e-009,-5.02968692e-003
,,,3.00000000e-009,-4.85468691e-003
,,,3.02500000e-009,-4.66874940e-003
,,,3.05000000e-009,-4.46874938e-003
,,,3.07500000e-009,-4.25781187e-003
,,,3.10000000e-009,-4.03906185e-003
,,,3.12500000e-009,-3.81718684e-003
,,,3.15000000e-009,-3.59999932e-003
,,,3.17500000e-009,-3.46249931e-003
,,,3.20000000e-009,-3.32187430e-003
,,,3.22500000e-009,-3.18124929e-003
,,,3.25000000e-009,-3.04999928e-003
,,,3.27500000e-009,-2.93749928e-003
,,,3.30000000e-009,-2.85468677e-003
,,,3.32500000e-009,-2.80624927e-003
,,,3.35000000e-009,-2.79999927e-003
,,,3.37500000e-009,-2.88437427e-003
,,,3.40000000e-009,-2.98906178e-003
,,,3.42500000e-009,-3.10624929e-003
,,,3.45000000e-009,-3.22656180e-003
,,,3.47500000e-009,-3.34374931e-003
,,,3.50000000e-009,-3.44843681e-003
,,,3.52500000e-009,-3.53593682e-003
,,,3.55000000e-009,-3.59999932e-003
,,,3.57500000e-009,-3.66406183e-003
,,,3.60000000e-009,-3.68593683e-003
,,,3.62500000e-009,-3.66874933e-003
,,,3.65000000e-009,-3.61406182e-003
,,,3.67500000e-009,-3.53124932e-003
,,,3.70000000e-009,-3.42812431e-003
,,,3.72500000e-009,-3.31562430e-003
,,,3.75000000e-009,-3.19999930e-003
,,,3.77500000e-009,-3.10781179e-003
,,,3.80000000e-009,-3.02343678e-003
,,,3.82500000e-009,-2.94999928e-003
,,,3.85000000e-009,-2.89062427e-003
,,,3.87500000e-009,-2.84687427e-003
,,,3.90000000e-009,-2.81718677e-003
,,,3.92500000e-009,-2.80312427e-003
,,,3.95000000e-009,-2.79999927e-003
,,,3.97500000e-009,-2.81562427e-003
,,,4.00000000e-009,-2.83124927e-003
,,,4.02500000e-009,-2.84531177e-003
,,,4.05000000e-009,-2.85468677e-003
,,,4.07500000e-009,-2.85624927e-003
,,,4.10000000e-009,-2.84843677e-003
,,,4.12500000e-009,-2.82968677e-003
,,,4.15000000e-009,-2.79999927e-003
,,,4.17500000e-009,-2.75624926e-003
,,,4.20000000e-009,-2.70312426e-003
,,,4.22500000e-009,-2.64374926e-003
,,,4.25000000e-009,-2.58281175e-003
,,,4.27500000e-009,-2.52343675e-003
,,,4.30000000e-009,-2.47187424e-003
,,,4.32500000e-009,-2.42968674e-003
,,,4.35000000e-009,-2.39999924e-003
,,,4.37500000e-009,-2.38281174e-003
,,,4.40000000e-009,-2.37499924e-003
,,,4.42500000e-009,-2.37656174e-003
,,,4.45000000e-009,-2.38437424e-003
,,,4.47500000e-009,-2.39218674e-003
,,,4.50000000e-009,-2.39999924e-003
,,,4.52500000e-009,-2.40312424e-003
,,,4.55000000e-009,-2.39999924e-003
,,,4.57500000e-009,-2.39218674e-003
,,,4.60000000e-009,-2.37656174e-003
,,,4.62500000e-009,-2.35937424e-003
,,,4.65000000e-009,-2.34374923e-003
,,,4.67500000e-009,-2.33749923e-003
,,,4.70000000e-009,-2.34374923e-003
,,,4.72500000e-009,-2.36406174e-003
,,,4.75000000e-009,-2.39999924e-003
,,,4.77500000e-009,-2.44531174e-003
,,,4.80000000e-009,-2.49374925e-003
,,,4.82500000e-009,-2.53749925e-003
,,,4.85000000e-009,-2.56874925e-003
,,,4.87500000e-009,-2.57656175e-003
,,,4.90000000e-009,-2.55312425e-003
,,,4.92500000e-009,-2.49687425e-003
,,,4.95000000e-009,-2.39999924e-003
,,,4.97500000e-009,-2.26562423e-003
,,,5.00000000e-009,-2.10312422e-003
,,,5.02500000e-009,-1.92187420e-003
,,,5.05000000e-009,-1.73593669e-003
,,,5.07500000e-009,-1.55781168e-003
,,,5.10000000e-009,-1.40312417e-003
,,,5.12500000e-009,-1.28124916e-003
,,,5.15000000e-009,-1.19999915e-003
,,,5.17500000e-009,-1.16874915e-003
,,,5.20000000e-009,-1.17812415e-003
,,,5.22500000e-009,-1.22187416e-003
,,,5.25000000e-009,-1.29218666e-003
,,,5.27500000e-009,-1.37656167e-003
,,,5.30000000e-009,-1.46406167e-003
,,,5.32500000e-009,-1.54218668e-003
,,,5.35000000e-009,-1.59999918e-003
,,,5.37500000e-009,-1.63124918e-003
,,,5.40000000e-009,-1.62812418e-003
,,,5.42500000e-009,-1.59687418e-003
,,,5.45000000e-009,-1.53749918e-003
,,,5.47500000e-009,-1.45937417e-003
,,,5.50000000e-009,-1.37187417e-003
,,,5.52500000e-009,-1.28281166e-003
,,,5.55000000e-009,-1.19999915e-003
,,,5.57500000e-009,-1.13593665e-003
,,,5.60000000e-009,-1.09062415e-003
,,,5.62500000e-009,-1.06562414e-003
,,,5.65000000e-009,-1.06249914e-003
,,,5.67500000e-009,-1.07812414e-003
,,,5.70000000e-009,-1.10937415e-003
,,,5.72500000e-009,-1.15156165e-003
,,,5.75000000e-009,-1.19999915e-003
,,,5.77500000e-009,-1.24999916e-003
,,,5.80000000e-009,-1.29218666e-003
,,,5.82500000e-009,-1.32031166e-003
,,,5.85000000e-009,-1.33437416e-003
,,,5.87500000e-009,-1.32968666e-003
,,,5.90000000e-009,-1.30468666e-003
,,,5.92500000e-009,-1.26249916e-003
,,,5.95000000e-009,-1.19999915e-003
