RawData/WithScintilator/R7_2pt2B_15mV/wave016_Ch2.csv

"Record Length",1000,"Points",-7.72500000e-009,-1.53124080e-004
"Sample Interval",2.50000000e-011,s,-7.70000000e-009,-2.21874084e-004
"Trigger Point",309,"Samples",-7.67500000e-009,-2.90624089e-004
"Trigger Time",6.24222222e-012,s,-7.65000000e-009,-3.51561594e-004
"",,,-7.62500000e-009,-3.99999097e-004
"Horizontal Offset",-7.72500000e-009,s,-7.60000000e-009,-4.32811599e-004
,,,-7.57500000e-009,-4.48436600e-004
,,,-7.55000000e-009,-4.48436600e-004
,,,-7.52500000e-009,-4.40624100e-004
,,,-7.50000000e-009,-4.26561599e-004
,,,-7.47500000e-009,-4.12499098e-004
,,,-7.45000000e-009,-4.03124097e-004
,,,-7.42500000e-009,-3.99999097e-004
,,,-7.40000000e-009,-4.09374098e-004
,,,-7.37500000e-009,-4.23436599e-004
,,,-7.35000000e-009,-4.40624100e-004
,,,-7.32500000e-009,-4.54686601e-004
,,,-7.30000000e-009,-4.62499101e-004
,,,-7.27500000e-009,-4.59374101e-004
,,,-7.25000000e-009,-4.39061600e-004
,,,-7.22500000e-009,-3.99999097e-004
,,,-7.20000000e-009,-3.45311593e-004
,,,-7.17500000e-009,-2.76561588e-004
,,,-7.15000000e-009,-2.01561583e-004
,,,-7.12500000e-009,-1.29686578e-004
,,,-7.10000000e-009,-6.56240733e-005
,,,-7.07500000e-009,-2.03115701e-005
,,,-7.05000000e-009,3.12593154e-006
,,,-7.02500000e-009,9.31322575e-010
,,,-7.00000000e-009,-3.43740711e-005
,,,-6.97500000e-009,-8.90615750e-005
,,,-6.95000000e-009,-1.57811580e-004
,,,-6.92500000e-009,-2.32811585e-004
,,,-6.90000000e-009,-3.03124090e-004
,,,-6.87500000e-009,-3.59374094e-004
,,,-6.85000000e-009,-3.93749097e-004
,,,-6.82500000e-009,-3.99999097e-004
,,,-6.80000000e-009,-3.78124095e-004
,,,-6.77500000e-009,-3.31249092e-004
,,,-6.75000000e-009,-2.65624087e-004
,,,-6.72500000e-009,-1.92186582e-004
,,,-6.70000000e-009,-1.20311577e-004
,,,-6.67500000e-009,-5.78115728e-005
,,,-6.65000000e-009,-1.71865699e-005
,,,-6.62500000e-009,9.31322575e-010
,,,-6.60000000e-009,-1.87490700e-005
,,,-6.57500000e-009,-6.24990731e-005
,,,-6.55000000e-009,-1.24999078e-004
,,,-6.52500000e-009,-1.98436583e-004
,,,-6.50000000e-009,-2.73436588e-004
,,,-6.47500000e-009,-3.37499093e-004
,,,-6.45000000e-009,-3.81249096e-004
,,,-6.42500000e-009,-3.99999097e-004
,,,-6.40000000e-009,-3.90624096e-004
,,,-6.37500000e-009,-3.54686594e-004
,,,-6.35000000e-009,-2.96874090e-004
,,,-6.32500000e-009,-2.24999085e-004
,,,-6.30000000e-009,-1.49999079e-004
,,,-6.27500000e-009,-8.12490744e-005
,,,-6.25000000e-009,-2.96865708e-005
,,,-6.22500000e-009,9.31322575e-010
,,,-6.20000000e-009,-6.24906912e-006
,,,-6.17500000e-009,-3.74990713e-005
,,,-6.15000000e-009,-9.21865752e-005
,,,-6.12500000e-009,-1.59374080e-004
,,,-6.10000000e-009,-2.32811585e-004
,,,-6.07500000e-009,-3.03124090e-004
,,,-6.05000000e-009,-3.60936594e-004
,,,-6.02500000e-009,-3.99999097e-004
,,,-6.00000000e-009,-4.20311598e-004
,,,-5.97500000e-009,-4.23436599e-004
,,,-5.95000000e-009,-4.10936598e-004
,,,-5.92500000e-009,-3.92186596e-004
,,,-5.90000000e-009,-3.74999095e-004
,,,-5.87500000e-009,-3.67186595e-004
,,,-5.85000000e-009,-3.73436595e-004
,,,-5.82500000e-009,-3.99999097e-004
,,,-5.80000000e-009,-4.49999101e-004
,,,-5.77500000e-009,-5.14061605e-004
,,,-5.75000000e-009,-5.89061610e-004
,,,-5.72500000e-009,-6.65624116e-004
,,,-5.70000000e-009,-7.32811621e-004
,,,-5.67500000e-009,-7.82811624e-004
,,,-5.65000000e-009,-8.06249126e-004
,,,-5.62500000e-009,-7.99999125e-004
,,,-5.60000000e-009,-7.60936623e-004
,,,-5.57500000e-009,-6.98436618e-004
,,,-5.55000000e-009,-6.18749112e-004
,,,-5.52500000e-009,-5.37499107e-004
,,,-5.50000000e-009,-4.64061602e-004
,,,-5.47500000e-009,-4.10936598e-004
,,,-5.45000000e-009,-3.87499096e-004
,,,-5.42500000e-009,-3.99999097e-004
,,,-5.40000000e-009,-4.51561601e-004
,,,-5.37500000e-009,-5.37499107e-004
,,,-5.35000000e-009,-6.49999115e-004
,,,-5.32500000e-009,-7.78124124e-004
,,,-5.30000000e-009,-9.09374133e-004
,,,-5.27500000e-009,-1.03124914e-003
,,,-5.25000000e-009,-1.13124915e-003
,,,-5.22500000e-009,-1.19999915e-003
,,,-5.20000000e-009,-1.22656166e-003
,,,-5.17500000e-009,-1.21718665e-003
,,,-5.15000000e-009,-1.17656165e-003
,,,-5.12500000e-009,-1.11093665e-003
,,,-5.10000000e-009,-1.03124914e-003
,,,-5.07500000e-009,-9.46874136e-004
,,,-5.05000000e-009,-8.67186630e-004
,,,-5.02500000e-009,-7.99999125e-004
,,,-5.00000000e-009,-7.49999122e-004
,,,-4.97500000e-009,-7.20311620e-004
,,,-4.95000000e-009,-7.12499119e-004
,,,-4.92500000e-009,-7.21874120e-004
,,,-4.90000000e-009,-7.42186621e-004
,,,-4.87500000e-009,-7.67186623e-004
,,,-4.85000000e-009,-7.89061625e-004
,,,-4.82500000e-009,-7.99999125e-004
,,,-4.80000000e-009,-7.93749125e-004
,,,-4.77500000e-009,-7.70311623e-004
,,,-4.75000000e-009,-7.29686620e-004
,,,-4.72500000e-009,-6.74999116e-004
,,,-4.70000000e-009,-6.09374112e-004
,,,-4.67500000e-009,-5.37499107e-004
,,,-4.65000000e-009,-4.67186602e-004
,,,-4.62500000e-009,-3.99999097e-004
,,,-4.60000000e-009,-3.46874093e-004
,,,-4.57500000e-009,-3.06249090e-004
,,,-4.55000000e-009,-2.81249089e-004
,,,-4.52500000e-009,-2.74999088e-004
,,,-4.50000000e-009,-2.84374089e-004
,,,-4.47500000e-009,-3.09374091e-004
,,,-4.45000000e-009,-3.49999093e-004
,,,-4.42500000e-009,-3.99999097e-004
,,,-4.40000000e-009,-4.59374101e-004
,,,-4.37500000e-009,-5.23436606e-004
,,,-4.35000000e-009,-5.85936610e-004
,,,-4.32500000e-009,-6.46874114e-004
,,,-4.30000000e-009,-7.01561618e-004
,,,-4.27500000e-009,-7.46874122e-004
,,,-4.25000000e-009,-7.81249124e-004
,,,-4.22500000e-009,-7.99999125e-004
,,,-4.20000000e-009,-8.03124126e-004
,,,-4.17500000e-009,-7.87499124e-004
,,,-4.15000000e-009,-7.53124122e-004
,,,-4.12500000e-009,-7.04686619e-004
,,,-4.10000000e-009,-6.42186614e-004
,,,-4.07500000e-009,-5.68749109e-004
,,,-4.05000000e-009,-4.87499103e-004
,,,-4.02500000e-009,-3.99999097e-004
,,,-4.00000000e-009,-3.18749091e-004
,,,-3.97500000e-009,-2.40624086e-004
,,,-3.95000000e-009,-1.70311581e-004
,,,-3.92500000e-009,-1.09374076e-004
,,,-3.90000000e-009,-6.09365730e-005
,,,-3.87500000e-009,-2.65615706e-005
,,,-3.85000000e-009,-6.24906912e-006
,,,-3.82500000e-009,9.31322575e-010
,,,-3.80000000e-009,-1.71865699e-005
,,,-3.77500000e-009,-4.84365721e-005
,,,-3.75000000e-009,-9.21865752e-005
,,,-3.72500000e-009,-1.45311579e-004
,,,-3.70000000e-009,-2.04686583e-004
,,,-3.67500000e-009,-2.70311588e-004
,,,-3.65000000e-009,-3.37499093e-004
,,,-3.62500000e-009,-3.99999097e-004
,,,-3.60000000e-009,-4.57811601e-004
,,,-3.57500000e-009,-5.03124104e-004
,,,-3.55000000e-009,-5.34374107e-004
,,,-3.52500000e-009,-5.46874107e-004
,,,-3.50000000e-009,-5.39061607e-004
,,,-3.47500000e-009,-5.12499105e-004
,,,-3.45000000e-009,-4.65624102e-004
,,,-3.42500000e-009,-3.99999097e-004
,,,-3.40000000e-009,-3.26561592e-004
,,,-3.37500000e-009,-2.45311586e-004
,,,-3.35000000e-009,-1.67186581e-004
,,,-3.32500000e-009,-9.53115754e-005
,,,-3.30000000e-009,-3.74990713e-005
,,,-3.27500000e-009,9.31322575e-010
,,,-3.25000000e-009,1.40634323e-005
,,,-3.22500000e-009,9.31322575e-010
,,,-3.20000000e-009,-4.84365721e-005
,,,-3.17500000e-009,-1.21874077e-004
,,,-3.15000000e-009,-2.17186584e-004
,,,-3.12500000e-009,-3.29686592e-004
,,,-3.10000000e-009,-4.49999101e-004
,,,-3.07500000e-009,-5.73436609e-004
,,,-3.05000000e-009,-6.93749118e-004
,,,-3.02500000e-009,-7.99999125e-004
,,,-3.00000000e-009,-8.85936631e-004
,,,-2.97500000e-009,-9.48436636e-004
,,,-2.95000000e-009,-9.84374138e-004
,,,-2.92500000e-009,-9.93749139e-004
,,,-2.90000000e-009,-9.76561638e-004
,,,-2.87500000e-009,-9.35936635e-004
,,,-2.85000000e-009,-8.76561631e-004
,,,-2.82500000e-009,-7.99999125e-004
,,,-2.80000000e-009,-7.10936619e-004
,,,-2.77500000e-009,-6.20311613e-004
,,,-2.75000000e-009,-5.35936607e-004
,,,-2.72500000e-009,-4.65624102e-004
,,,-2.70000000e-009,-4.14061598e-004
,,,-2.67500000e-009,-3.84374096e-004
,,,-2.65000000e-009,-3.81249096e-004
,,,-2.62500000e-009,-3.99999097e-004
,,,-2.60000000e-009,-4.42186600e-004
,,,-2.57500000e-009,-5.01561604e-004
,,,-2.55000000e-009,-5.68749109e-004
,,,-2.52500000e-009,-6.39061614e-004
,,,-2.50000000e-009,-7.04686619e-004
,,,-2.47500000e-009,-7.56249122e-004
,,,-2.45000000e-009,-7.90624125e-004
,,,-2.42500000e-009,-7.99999125e-004
,,,-2.40000000e-009,-7.82811624e-004
,,,-2.37500000e-009,-7.42186621e-004
,,,-2.35000000e-009,-6.85936617e-004
,,,-2.32500000e-009,-6.20311613e-004
,,,-2.30000000e-009,-5.51561608e-004
,,,-2.27500000e-009,-4.87499103e-004
,,,-2.25000000e-009,-4.35936600e-004
,,,-2.22500000e-009,-3.99999097e-004
,,,-2.20000000e-009,-3.81249096e-004
,,,-2.17500000e-009,-3.79686596e-004
,,,-2.15000000e-009,-3.90624096e-004
,,,-2.12500000e-009,-4.07811598e-004
,,,-2.10000000e-009,-4.23436599e-004
,,,-2.07500000e-009,-4.31249099e-004
,,,-2.05000000e-009,-4.24999099e-004
,,,-2.02500000e-009,-3.99999097e-004
,,,-2.00000000e-009,-3.62499094e-004
,,,-1.97500000e-009,-3.09374091e-004
,,,-1.95000000e-009,-2.43749086e-004
,,,-1.92500000e-009,-1.73436581e-004
,,,-1.90000000e-009,-1.06249076e-004
,,,-1.87500000e-009,-5.15615723e-005
,,,-1.85000000e-009,-1.40615697e-005
,,,-1.82500000e-009,9.31322575e-010
,,,-1.80000000e-009,-2.65615706e-005
,,,-1.77500000e-009,-7.49990740e-005
,,,-1.75000000e-009,-1.39061579e-004
,,,-1.72500000e-009,-2.12499084e-004
,,,-1.70000000e-009,-2.84374089e-004
,,,-1.67500000e-009,-3.45311593e-004
,,,-1.65000000e-009,-3.85936596e-004
,,,-1.62500000e-009,-3.99999097e-004
,,,-1.60000000e-009,-4.07811598e-004
,,,-1.57500000e-009,-3.89061596e-004
,,,-1.55000000e-009,-3.48436593e-004
,,,-1.52500000e-009,-2.87499089e-004
,,,-1.50000000e-009,-2.15624084e-004
,,,-1.47500000e-009,-1.39061579e-004
,,,-1.45000000e-009,-6.56240733e-005
,,,-1.42500000e-009,9.31322575e-010
,,,-1.40000000e-009,6.25093176e-006
,,,-1.37500000e-009,-1.09365695e-005
,,,-1.35000000e-009,-5.15615723e-005
,,,-1.32500000e-009,-1.09374076e-004
,,,-1.30000000e-009,-1.78124081e-004
,,,-1.27500000e-009,-2.53124087e-004
,,,-1.25000000e-009,-3.29686592e-004
,,,-1.22500000e-009,-3.99999097e-004
,,,-1.20000000e-009,-5.18749105e-004
,,,-1.17500000e-009,-6.37499114e-004
,,,-1.15000000e-009,-7.51561622e-004
,,,-1.12500000e-009,-8.57811629e-004
,,,-1.10000000e-009,-9.56249136e-004
,,,-1.07500000e-009,-1.04531164e-003
,,,-1.05000000e-009,-1.12499915e-003
,,,-1.02500000e-009,-1.19999915e-003
,,,-1.00000000e-009,-1.33593666e-003
,,,-9.75000000e-010,-1.48281167e-003
,,,-9.50000000e-010,-1.63749918e-003
,,,-9.25000000e-010,-1.79531170e-003
,,,-9.00000000e-010,-1.95312421e-003
,,,-8.75000000e-010,-2.10624922e-003
,,,-8.50000000e-010,-2.25468673e-003
,,,-8.25000000e-010,-2.39999924e-003
,,,-8.00000000e-010,-2.60312425e-003
,,,-7.75000000e-010,-2.82031177e-003
,,,-7.50000000e-010,-3.05156178e-003
,,,-7.25000000e-010,-3.29687430e-003
,,,-7.00000000e-010,-3.55468682e-003
,,,-6.75000000e-010,-3.82343684e-003
,,,-6.50000000e-010,-4.10468686e-003
,,,-6.25000000e-010,-4.39999938e-003
,,,-6.00000000e-010,-4.75312441e-003
,,,-5.75000000e-010,-5.13124943e-003
,,,-5.50000000e-010,-5.52656196e-003
,,,-5.25000000e-010,-5.93749949e-003
,,,-5.00000000e-010,-6.35468702e-003
,,,-4.75000000e-010,-6.77343705e-003
,,,-4.50000000e-010,-7.18906208e-003
,,,-4.25000000e-010,-7.59999961e-003
,,,-4.00000000e-010,-8.01718714e-003
,,,-3.75000000e-010,-8.44062467e-003
,,,-3.50000000e-010,-8.87499970e-003
,,,-3.25000000e-010,-9.31874973e-003
,,,-3.00000000e-010,-9.77343726e-003
,,,-2.75000000e-010,-1.02406248e-002
,,,-2.50000000e-010,-1.07156248e-002
,,,-2.25000000e-010,-1.11999999e-002
,,,-2.00000000e-010,-1.16624999e-002
,,,-1.75000000e-010,-1.21359374e-002
,,,-1.50000000e-010,-1.26140625e-002
,,,-1.25000000e-010,-1.30890625e-002
,,,-1.00000000e-010,-1.35562500e-002
,,,-7.50000000e-011,-1.40015626e-002
,,,-5.00000000e-011,-1.44187501e-002
,,,-2.50000000e-011,-1.48000001e-002
,,,0.00000000e+000,-1.50812501e-002
,,,2.50000000e-011,-1.53312502e-002
,,,5.00000000e-011,-1.55546877e-002
,,,7.50000000e-011,-1.57562502e-002
,,,1.00000000e-010,-1.59406252e-002
,,,1.25000000e-010,-1.61078127e-002
,,,1.50000000e-010,-1.62609377e-002
,,,1.75000000e-010,-1.64000002e-002
,,,2.00000000e-010,-1.64500002e-002
,,,2.25000000e-010,-1.65000002e-002
,,,2.50000000e-010,-1.65546877e-002
,,,2.75000000e-010,-1.66125002e-002
,,,3.00000000e-010,-1.66703127e-002
,,,3.25000000e-010,-1.67250003e-002
,,,3.50000000e-010,-1.67703128e-002
,,,3.75000000e-010,-1.68000003e-002
,,,4.00000000e-010,-1.67265628e-002
,,,4.25000000e-010,-1.66390627e-002
,,,4.50000000e-010,-1.65421877e-002
,,,4.75000000e-010,-1.64406252e-002
,,,5.00000000e-010,-1.63343752e-002
,,,5.25000000e-010,-1.62250002e-002
,,,5.50000000e-010,-1.61140627e-002
,,,5.75000000e-010,-1.60000002e-002
,,,6.00000000e-010,-1.58109377e-002
,,,6.25000000e-010,-1.56281252e-002
,,,6.50000000e-010,-1.54546877e-002
,,,6.75000000e-010,-1.52937502e-002
,,,7.00000000e-010,-1.51500001e-002
,,,7.25000000e-010,-1.50203126e-002
,,,7.50000000e-010,-1.49046876e-002
,,,7.75000000e-010,-1.48000001e-002
,,,8.00000000e-010,-1.46453126e-002
,,,8.25000000e-010,-1.44937501e-002
,,,8.50000000e-010,-1.43437501e-002
,,,8.75000000e-010,-1.41968751e-002
,,,9.00000000e-010,-1.40515626e-002
,,,9.25000000e-010,-1.39046876e-002
,,,9.50000000e-010,-1.37562500e-002
,,,9.75000000e-010,-1.36000000e-002
,,,1.00000000e-009,-1.33984375e-002
,,,1.02500000e-009,-1.31796875e-002
,,,1.05000000e-009,-1.29437500e-002
,,,1.07500000e-009,-1.26921875e-002
,,,1.10000000e-009,-1.24296874e-002
,,,1.12500000e-009,-1.21593749e-002
,,,1.15000000e-009,-1.18828124e-002
,,,1.17500000e-009,-1.15999999e-002
,,,1.20000000e-009,-1.12984374e-002
,,,1.22500000e-009,-1.09890623e-002
,,,1.25000000e-009,-1.06749998e-002
,,,1.27500000e-009,-1.03609373e-002
,,,1.30000000e-009,-1.00531248e-002
,,,1.32500000e-009,-9.75624976e-003
,,,1.35000000e-009,-9.47187474e-003
,,,1.37500000e-009,-9.19999972e-003
,,,1.40000000e-009,-8.94374970e-003
,,,1.42500000e-009,-8.69062468e-003
,,,1.45000000e-009,-8.43749967e-003
,,,1.47500000e-009,-8.18437465e-003
,,,1.50000000e-009,-7.93281213e-003
,,,1.52500000e-009,-7.68437461e-003
,,,1.55000000e-009,-7.44062460e-003
,,,1.57500000e-009,-7.19999958e-003
,,,1.60000000e-009,-6.98281206e-003
,,,1.62500000e-009,-6.76249955e-003
,,,1.65000000e-009,-6.54062453e-003
,,,1.67500000e-009,-6.32499952e-003
,,,1.70000000e-009,-6.11718700e-003
,,,1.72500000e-009,-5.92499949e-003
,,,1.75000000e-009,-5.75156198e-003
,,,1.77500000e-009,-5.59999947e-003
,,,1.80000000e-009,-5.49218696e-003
,,,1.82500000e-009,-5.39062445e-003
,,,1.85000000e-009,-5.29531194e-003
,,,1.87500000e-009,-5.20156194e-003
,,,1.90000000e-009,-5.10624943e-003
,,,1.92500000e-009,-5.00937442e-003
,,,1.95000000e-009,-4.90937442e-003
,,,1.97500000e-009,-4.79999941e-003
,,,2.00000000e-009,-4.70781190e-003
,,,2.02500000e-009,-4.59374939e-003
,,,2.05000000e-009,-4.45781188e-003
,,,2.07500000e-009,-4.30312437e-003
,,,2.10000000e-009,-4.13437436e-003
,,,2.12500000e-009,-3.95781185e-003
,,,2.15000000e-009,-3.77812434e-003
,,,2.17500000e-009,-3.59999932e-003
,,,2.20000000e-009,-3.45781181e-003
,,,2.22500000e-009,-3.32031180e-003
,,,2.25000000e-009,-3.19062429e-003
,,,2.27500000e-009,-3.07499929e-003
,,,2.30000000e-009,-2.97499928e-003
,,,2.32500000e-009,-2.89531177e-003
,,,2.35000000e-009,-2.83749927e-003
,,,2.37500000e-009,-2.79999927e-003
,,,2.40000000e-009,-2.80312427e-003
,,,2.42500000e-009,-2.81406177e-003
,,,2.45000000e-009,-2.82656177e-003
,,,2.47500000e-009,-2.83749927e-003
,,,2.50000000e-009,-2.84218677e-003
,,,2.52500000e-009,-2.83906177e-003
,,,2.55000000e-009,-2.82499927e-003
,,,2.57500000e-009,-2.79999927e-003
,,,2.60000000e-009,-2.77187426e-003
,,,2.62500000e-009,-2.72812426e-003
,,,2.65000000e-009,-2.67187426e-003
,,,2.67500000e-009,-2.60781175e-003
,,,2.70000000e-009,-2.54374925e-003
,,,2.72500000e-009,-2.48437424e-003
,,,2.75000000e-009,-2.43437424e-003
,,,2.77500000e-009,-2.39999924e-003
,,,2.80000000e-009,-2.38749924e-003
,,,2.82500000e-009,-2.38437424e-003
,,,2.85000000e-009,-2.38906174e-003
,,,2.87500000e-009,-2.39687424e-003
,,,2.90000000e-009,-2.40624924e-003
,,,2.92500000e-009,-2.41249924e-003
,,,2.95000000e-009,-2.41093674e-003
,,,2.97500000e-009,-2.39999924e-003
,,,3.00000000e-009,-2.38281174e-003
,,,3.02500000e-009,-2.34843673e-003
,,,3.05000000e-009,-2.30156173e-003
,,,3.07500000e-009,-2.24531173e-003
,,,3.10000000e-009,-2.18281172e-003
,,,3.12500000e-009,-2.11874922e-003
,,,3.15000000e-009,-2.05624921e-003
,,,3.17500000e-009,-1.99999921e-003
,,,3.20000000e-009,-1.95156171e-003
,,,3.22500000e-009,-1.90781170e-003
,,,3.25000000e-009,-1.86562420e-003
,,,3.27500000e-009,-1.82499920e-003
,,,3.30000000e-009,-1.77968669e-003
,,,3.32500000e-009,-1.72968669e-003
,,,3.35000000e-009,-1.67031169e-003
,,,3.37500000e-009,-1.59999918e-003
,,,3.40000000e-009,-1.52031168e-003
,,,3.42500000e-009,-1.42812417e-003
,,,3.45000000e-009,-1.32499916e-003
,,,3.47500000e-009,-1.21718665e-003
,,,3.50000000e-009,-1.10468665e-003
,,,3.52500000e-009,-9.93749139e-004
,,,3.55000000e-009,-8.92186632e-004
,,,3.57500000e-009,-7.99999125e-004
,,,3.60000000e-009,-7.34374121e-004
,,,3.62500000e-009,-6.85936617e-004
,,,3.65000000e-009,-6.57811615e-004
,,,3.67500000e-009,-6.48436615e-004
,,,3.70000000e-009,-6.60936615e-004
,,,3.72500000e-009,-6.92186618e-004
,,,3.75000000e-009,-7.39061621e-004
,,,3.77500000e-009,-7.99999125e-004
,,,3.80000000e-009,-8.74999131e-004
,,,3.82500000e-009,-9.51561636e-004
,,,3.85000000e-009,-1.02343664e-003
,,,3.87500000e-009,-1.08749915e-003
,,,3.90000000e-009,-1.14062415e-003
,,,3.92500000e-009,-1.17812415e-003
,,,3.95000000e-009,-1.19843665e-003
,,,3.97500000e-009,-1.19999915e-003
,,,4.00000000e-009,-1.18437415e-003
,,,4.02500000e-009,-1.14999915e-003
,,,4.05000000e-009,-1.09999915e-003
,,,4.07500000e-009,-1.04062414e-003
,,,4.10000000e-009,-9.74999138e-004
,,,4.12500000e-009,-9.10936633e-004
,,,4.15000000e-009,-8.51561629e-004
,,,4.17500000e-009,-7.99999125e-004
,,,4.20000000e-009,-7.65624123e-004
,,,4.22500000e-009,-7.43749121e-004
,,,4.25000000e-009,-7.32811621e-004
,,,4.27500000e-009,-7.34374121e-004
,,,4.30000000e-009,-7.43749121e-004
,,,4.32500000e-009,-7.59374122e-004
,,,4.35000000e-009,-7.79686624e-004
,,,4.37500000e-009,-7.99999125e-004
,,,4.40000000e-009,-8.21874127e-004
,,,4.42500000e-009,-8.35936628e-004
,,,4.45000000e-009,-8.45311629e-004
,,,4.47500000e-009,-8.48436629e-004
,,,4.50000000e-009,-8.45311629e-004
,,,4.52500000e-009,-8.35936628e-004
,,,4.55000000e-009,-8.20311627e-004
,,,4.57500000e-009,-7.99999125e-004
,,,4.60000000e-009,-7.73436623e-004
,,,4.62500000e-009,-7.40624121e-004
,,,4.65000000e-009,-7.03124118e-004
,,,4.67500000e-009,-6.57811615e-004
,,,4.70000000e-009,-6.04686611e-004
,,,4.72500000e-009,-5.43749107e-004
,,,4.75000000e-009,-4.74999102e-004
,,,4.77500000e-009,-3.99999097e-004
,,,4.80000000e-009,-3.23436592e-004
,,,4.82500000e-009,-2.45311586e-004
,,,4.85000000e-009,-1.70311581e-004
,,,4.87500000e-009,-1.04686576e-004
,,,4.90000000e-009,-5.15615723e-005
,,,4.92500000e-009,-1.56240698e-005
,,,4.95000000e-009,1.56343143e-006
,,,4.97500000e-009,9.31322575e-010
,,,5.00000000e-009,-2.81240707e-005
,,,5.02500000e-009,-7.03115737e-005
,,,5.05000000e-009,-1.24999078e-004
,,,5.07500000e-009,-1.85936582e-004
,,,5.10000000e-009,-2.48436586e-004
,,,5.12500000e-009,-3.07811590e-004
,,,5.15000000e-009,-3.59374094e-004
,,,5.17500000e-009,-3.99999097e-004
,,,5.20000000e-009,-4.31249099e-004
,,,5.22500000e-009,-4.46874100e-004
,,,5.25000000e-009,-4.51561601e-004
,,,5.27500000e-009,-4.46874100e-004
,,,5.30000000e-009,-4.35936600e-004
,,,5.32500000e-009,-4.21874099e-004
,,,5.35000000e-009,-4.09374098e-004
,,,5.37500000e-009,-3.99999097e-004
,,,5.40000000e-009,-3.98436597e-004
,,,5.42500000e-009,-4.01561597e-004
,,,5.45000000e-009,-4.06249097e-004
,,,5.47500000e-009,-4.14061598e-004
,,,5.50000000e-009,-4.20311598e-004
,,,5.52500000e-009,-4.21874099e-004
,,,5.55000000e-009,-4.15624098e-004
,,,5.57500000e-009,-3.99999097e-004
,,,5.60000000e-009,-3.76561595e-004
,,,5.62500000e-009,-3.40624093e-004
,,,5.65000000e-009,-2.93749089e-004
,,,5.67500000e-009,-2.40624086e-004
,,,5.70000000e-009,-1.79686581e-004
,,,5.72500000e-009,-1.17186577e-004
,,,5.75000000e-009,-5.62490727e-005
,,,5.77500000e-009,9.31322575e-010
,,,5.80000000e-009,3.90634341e-005
,,,5.82500000e-009,6.71884361e-005
