RawData/WithScintilator/R7_2pt2B_15mV/wave005_Ch2.csv

"Record Length",1000,"Points",-7.72500000e-009,8.75009375e-005
"Sample Interval",2.50000000e-011,s,-7.70000000e-009,3.90634341e-005
"Trigger Point",309,"Samples",-7.67500000e-009,9.31322575e-010
"Trigger Time",1.16549892e-011,s,-7.65000000e-009,-2.81240707e-005
"",,,-7.62500000e-009,-4.68740720e-005
"Horizontal Offset",-7.72500000e-009,s,-7.60000000e-009,-5.62490727e-005
,,,-7.57500000e-009,-5.62490727e-005
,,,-7.55000000e-009,-4.99990722e-005
,,,-7.52500000e-009,-3.74990713e-005
,,,-7.50000000e-009,-2.03115701e-005
,,,-7.47500000e-009,9.31322575e-010
,,,-7.45000000e-009,2.34384330e-005
,,,-7.42500000e-009,4.21884343e-005
,,,-7.40000000e-009,5.62509353e-005
,,,-7.37500000e-009,6.25009357e-005
,,,-7.35000000e-009,5.93759355e-005
,,,-7.32500000e-009,4.68759346e-005
,,,-7.30000000e-009,2.65634332e-005
,,,-7.27500000e-009,9.31322575e-010
,,,-7.25000000e-009,-2.96865708e-005
,,,-7.22500000e-009,-5.78115728e-005
,,,-7.20000000e-009,-8.12490744e-005
,,,-7.17500000e-009,-9.68740755e-005
,,,-7.15000000e-009,-9.84365756e-005
,,,-7.12500000e-009,-8.28115745e-005
,,,-7.10000000e-009,-4.99990722e-005
,,,-7.07500000e-009,9.31322575e-010
,,,-7.05000000e-009,6.25009357e-005
,,,-7.02500000e-009,1.34375941e-004
,,,-7.00000000e-009,2.09375946e-004
,,,-6.97500000e-009,2.79688451e-004
,,,-6.95000000e-009,3.39063455e-004
,,,-6.92500000e-009,3.81250958e-004
,,,-6.90000000e-009,4.01563460e-004
,,,-6.87500000e-009,4.00000960e-004
,,,-6.85000000e-009,3.71875958e-004
,,,-6.82500000e-009,3.23438454e-004
,,,-6.80000000e-009,2.59375950e-004
,,,-6.77500000e-009,1.90625945e-004
,,,-6.75000000e-009,1.21875940e-004
,,,-6.72500000e-009,6.25009357e-005
,,,-6.70000000e-009,2.03134328e-005
,,,-6.67500000e-009,9.31322575e-010
,,,-6.65000000e-009,3.12593154e-006
,,,-6.62500000e-009,3.12509335e-005
,,,-6.60000000e-009,7.96884370e-005
,,,-6.57500000e-009,1.42188441e-004
,,,-6.55000000e-009,2.14063446e-004
,,,-6.52500000e-009,2.85938452e-004
,,,-6.50000000e-009,3.50000956e-004
,,,-6.47500000e-009,4.00000960e-004
,,,-6.45000000e-009,4.23438461e-004
,,,-6.42500000e-009,4.25000961e-004
,,,-6.40000000e-009,4.00000960e-004
,,,-6.37500000e-009,3.51563456e-004
,,,-6.35000000e-009,2.82813451e-004
,,,-6.32500000e-009,1.96875945e-004
,,,-6.30000000e-009,1.00000938e-004
,,,-6.27500000e-009,9.31322575e-010
,,,-6.25000000e-009,-1.03124076e-004
,,,-6.22500000e-009,-1.96874083e-004
,,,-6.20000000e-009,-2.78124088e-004
,,,-6.17500000e-009,-3.42186593e-004
,,,-6.15000000e-009,-3.87499096e-004
,,,-6.12500000e-009,-4.12499098e-004
,,,-6.10000000e-009,-4.17186598e-004
,,,-6.07500000e-009,-3.99999097e-004
,,,-6.05000000e-009,-3.64061594e-004
,,,-6.02500000e-009,-3.14061591e-004
,,,-6.00000000e-009,-2.56249087e-004
,,,-5.97500000e-009,-1.93749082e-004
,,,-5.95000000e-009,-1.34374078e-004
,,,-5.92500000e-009,-7.96865743e-005
,,,-5.90000000e-009,-3.43740711e-005
,,,-5.87500000e-009,9.31322575e-010
,,,-5.85000000e-009,2.18759329e-005
,,,-5.82500000e-009,3.12509335e-005
,,,-5.80000000e-009,3.12509335e-005
,,,-5.77500000e-009,2.34384330e-005
,,,-5.75000000e-009,1.25009322e-005
,,,-5.72500000e-009,3.12593154e-006
,,,-5.70000000e-009,-1.56156879e-006
,,,-5.67500000e-009,9.31322575e-010
,,,-5.65000000e-009,6.25093176e-006
,,,-5.62500000e-009,1.87509326e-005
,,,-5.60000000e-009,3.28134336e-005
,,,-5.57500000e-009,4.53134345e-005
,,,-5.55000000e-009,5.15634350e-005
,,,-5.52500000e-009,4.84384348e-005
,,,-5.50000000e-009,3.12509335e-005
,,,-5.47500000e-009,9.31322575e-010
,,,-5.45000000e-009,-4.68740720e-005
,,,-5.42500000e-009,-1.06249076e-004
,,,-5.40000000e-009,-1.71874081e-004
,,,-5.37500000e-009,-2.40624086e-004
,,,-5.35000000e-009,-3.03124090e-004
,,,-5.32500000e-009,-3.53124094e-004
,,,-5.30000000e-009,-3.87499096e-004
,,,-5.27500000e-009,-3.99999097e-004
,,,-5.25000000e-009,-3.92186596e-004
,,,-5.22500000e-009,-3.60936594e-004
,,,-5.20000000e-009,-3.14061591e-004
,,,-5.17500000e-009,-2.53124087e-004
,,,-5.15000000e-009,-1.85936582e-004
,,,-5.12500000e-009,-1.18749077e-004
,,,-5.10000000e-009,-5.46865725e-005
,,,-5.07500000e-009,9.31322575e-010
,,,-5.05000000e-009,3.59384339e-005
,,,-5.02500000e-009,5.78134354e-005
,,,-5.00000000e-009,6.56259360e-005
,,,-4.97500000e-009,6.25009357e-005
,,,-4.95000000e-009,5.00009349e-005
,,,-4.92500000e-009,3.28134336e-005
,,,-4.90000000e-009,1.56259324e-005
,,,-4.87500000e-009,9.31322575e-010
,,,-4.85000000e-009,-1.24990696e-005
,,,-4.82500000e-009,-1.71865699e-005
,,,-4.80000000e-009,-1.56240698e-005
,,,-4.77500000e-009,-1.09365695e-005
,,,-4.75000000e-009,-4.68656901e-006
,,,-4.72500000e-009,1.56343143e-006
,,,-4.70000000e-009,3.12593154e-006
,,,-4.67500000e-009,9.31322575e-010
,,,-4.65000000e-009,-1.56240698e-005
,,,-4.62500000e-009,-4.21865717e-005
,,,-4.60000000e-009,-7.96865743e-005
,,,-4.57500000e-009,-1.29686578e-004
,,,-4.55000000e-009,-1.87499082e-004
,,,-4.52500000e-009,-2.53124087e-004
,,,-4.50000000e-009,-3.24999092e-004
,,,-4.47500000e-009,-3.99999097e-004
,,,-4.45000000e-009,-4.73436602e-004
,,,-4.42500000e-009,-5.42186607e-004
,,,-4.40000000e-009,-6.06249112e-004
,,,-4.37500000e-009,-6.64061616e-004
,,,-4.35000000e-009,-7.14061619e-004
,,,-4.32500000e-009,-7.53124122e-004
,,,-4.30000000e-009,-7.82811624e-004
,,,-4.27500000e-009,-7.99999125e-004
,,,-4.25000000e-009,-8.01561625e-004
,,,-4.22500000e-009,-7.85936624e-004
,,,-4.20000000e-009,-7.56249122e-004
,,,-4.17500000e-009,-7.10936619e-004
,,,-4.15000000e-009,-6.51561615e-004
,,,-4.12500000e-009,-5.78124110e-004
,,,-4.10000000e-009,-4.93749104e-004
,,,-4.07500000e-009,-3.99999097e-004
,,,-4.05000000e-009,-3.03124090e-004
,,,-4.02500000e-009,-2.10936584e-004
,,,-4.00000000e-009,-1.26561578e-004
,,,-3.97500000e-009,-5.78115728e-005
,,,-3.95000000e-009,-7.81156923e-006
,,,-3.92500000e-009,1.87509326e-005
,,,-3.90000000e-009,2.18759329e-005
,,,-3.87500000e-009,9.31322575e-010
,,,-3.85000000e-009,-4.37490718e-005
,,,-3.82500000e-009,-1.04686576e-004
,,,-3.80000000e-009,-1.73436581e-004
,,,-3.77500000e-009,-2.43749086e-004
,,,-3.75000000e-009,-3.07811590e-004
,,,-3.72500000e-009,-3.59374094e-004
,,,-3.70000000e-009,-3.92186596e-004
,,,-3.67500000e-009,-3.99999097e-004
,,,-3.65000000e-009,-3.82811596e-004
,,,-3.62500000e-009,-3.42186593e-004
,,,-3.60000000e-009,-2.85936589e-004
,,,-3.57500000e-009,-2.18749084e-004
,,,-3.55000000e-009,-1.48436579e-004
,,,-3.52500000e-009,-8.43740746e-005
,,,-3.50000000e-009,-3.28115710e-005
,,,-3.47500000e-009,9.31322575e-010
,,,-3.45000000e-009,9.37593199e-006
,,,-3.42500000e-009,-4.68656901e-006
,,,-3.40000000e-009,-4.06240716e-005
,,,-3.37500000e-009,-9.68740755e-005
,,,-3.35000000e-009,-1.65624080e-004
,,,-3.32500000e-009,-2.43749086e-004
,,,-3.30000000e-009,-3.24999092e-004
,,,-3.27500000e-009,-3.99999097e-004
,,,-3.25000000e-009,-4.64061602e-004
,,,-3.22500000e-009,-5.09374105e-004
,,,-3.20000000e-009,-5.37499107e-004
,,,-3.17500000e-009,-5.43749107e-004
,,,-3.15000000e-009,-5.31249106e-004
,,,-3.12500000e-009,-5.01561604e-004
,,,-3.10000000e-009,-4.56249101e-004
,,,-3.07500000e-009,-3.99999097e-004
,,,-3.05000000e-009,-3.35936592e-004
,,,-3.02500000e-009,-2.68749088e-004
,,,-3.00000000e-009,-2.04686583e-004
,,,-2.97500000e-009,-1.43749079e-004
,,,-2.95000000e-009,-9.21865752e-005
,,,-2.92500000e-009,-4.99990722e-005
,,,-2.90000000e-009,-2.03115701e-005
,,,-2.87500000e-009,9.31322575e-010
,,,-2.85000000e-009,6.25093176e-006
,,,-2.82500000e-009,3.12593154e-006
,,,-2.80000000e-009,-4.68656901e-006
,,,-2.77500000e-009,-1.40615697e-005
,,,-2.75000000e-009,-2.18740702e-005
,,,-2.72500000e-009,-2.49990704e-005
,,,-2.70000000e-009,-1.87490700e-005
,,,-2.67500000e-009,9.31322575e-010
,,,-2.65000000e-009,2.50009331e-005
,,,-2.62500000e-009,6.25009357e-005
,,,-2.60000000e-009,1.10938439e-004
,,,-2.57500000e-009,1.65625943e-004
,,,-2.55000000e-009,2.26563447e-004
,,,-2.52500000e-009,2.87500952e-004
,,,-2.50000000e-009,3.46875956e-004
,,,-2.47500000e-009,4.00000960e-004
,,,-2.45000000e-009,4.37500962e-004
,,,-2.42500000e-009,4.62500964e-004
,,,-2.40000000e-009,4.76563465e-004
,,,-2.37500000e-009,4.79688465e-004
,,,-2.35000000e-009,4.70313465e-004
,,,-2.32500000e-009,4.54688464e-004
,,,-2.30000000e-009,4.29688462e-004
,,,-2.27500000e-009,4.00000960e-004
,,,-2.25000000e-009,3.57813457e-004
,,,-2.22500000e-009,3.12500953e-004
,,,-2.20000000e-009,2.65625950e-004
,,,-2.17500000e-009,2.15625947e-004
,,,-2.15000000e-009,1.65625943e-004
,,,-2.12500000e-009,1.12500939e-004
,,,-2.10000000e-009,5.62509353e-005
,,,-2.07500000e-009,9.31322575e-010
,,,-2.05000000e-009,-6.24990731e-005
,,,-2.02500000e-009,-1.24999078e-004
,,,-2.00000000e-009,-1.84374082e-004
,,,-1.97500000e-009,-2.40624086e-004
,,,-1.95000000e-009,-2.90624089e-004
,,,-1.92500000e-009,-3.35936592e-004
,,,-1.90000000e-009,-3.71874095e-004
,,,-1.87500000e-009,-3.99999097e-004
,,,-1.85000000e-009,-4.20311598e-004
,,,-1.82500000e-009,-4.32811599e-004
,,,-1.80000000e-009,-4.39061600e-004
,,,-1.77500000e-009,-4.37499100e-004
,,,-1.75000000e-009,-4.32811599e-004
,,,-1.72500000e-009,-4.23436599e-004
,,,-1.70000000e-009,-4.12499098e-004
,,,-1.67500000e-009,-3.99999097e-004
,,,-1.65000000e-009,-3.98436597e-004
,,,-1.62500000e-009,-3.98436597e-004
,,,-1.60000000e-009,-3.99999097e-004
,,,-1.57500000e-009,-4.03124097e-004
,,,-1.55000000e-009,-4.07811598e-004
,,,-1.52500000e-009,-4.07811598e-004
,,,-1.50000000e-009,-4.06249097e-004
,,,-1.47500000e-009,-3.99999097e-004
,,,-1.45000000e-009,-4.06249097e-004
,,,-1.42500000e-009,-4.10936598e-004
,,,-1.40000000e-009,-4.17186598e-004
,,,-1.37500000e-009,-4.20311598e-004
,,,-1.35000000e-009,-4.20311598e-004
,,,-1.32500000e-009,-4.17186598e-004
,,,-1.30000000e-009,-4.10936598e-004
,,,-1.27500000e-009,-3.99999097e-004
,,,-1.25000000e-009,-4.18749098e-004
,,,-1.22500000e-009,-4.39061600e-004
,,,-1.20000000e-009,-4.57811601e-004
,,,-1.17500000e-009,-4.70311602e-004
,,,-1.15000000e-009,-4.71874102e-004
,,,-1.12500000e-009,-4.60936601e-004
,,,-1.10000000e-009,-4.35936600e-004
,,,-1.07500000e-009,-3.99999097e-004
,,,-1.05000000e-009,-4.18749098e-004
,,,-1.02500000e-009,-4.45311600e-004
,,,-1.00000000e-009,-4.81249103e-004
,,,-9.75000000e-010,-5.24999106e-004
,,,-9.50000000e-010,-5.78124110e-004
,,,-9.25000000e-010,-6.40624114e-004
,,,-9.00000000e-010,-7.14061619e-004
,,,-8.75000000e-010,-7.99999125e-004
,,,-8.50000000e-010,-9.85936638e-004
,,,-8.25000000e-010,-1.19687415e-003
,,,-8.00000000e-010,-1.42187417e-003
,,,-7.75000000e-010,-1.64999919e-003
,,,-7.50000000e-010,-1.87031170e-003
,,,-7.25000000e-010,-2.07343672e-003
,,,-7.00000000e-010,-2.24999923e-003
,,,-6.75000000e-010,-2.39999924e-003
,,,-6.50000000e-010,-2.62187425e-003
,,,-6.25000000e-010,-2.83749927e-003
,,,-6.00000000e-010,-3.04531178e-003
,,,-5.75000000e-010,-3.24374930e-003
,,,-5.50000000e-010,-3.43593681e-003
,,,-5.25000000e-010,-3.62031182e-003
,,,-5.00000000e-010,-3.80624934e-003
,,,-4.75000000e-010,-3.99999935e-003
,,,-4.50000000e-010,-4.32031187e-003
,,,-4.25000000e-010,-4.68593690e-003
,,,-4.00000000e-010,-5.09531193e-003
,,,-3.75000000e-010,-5.54374946e-003
,,,-3.50000000e-010,-6.02499950e-003
,,,-3.25000000e-010,-6.52968703e-003
,,,-3.00000000e-010,-7.05624957e-003
,,,-2.75000000e-010,-7.59999961e-003
,,,-2.50000000e-010,-8.24531215e-003
,,,-2.25000000e-010,-8.92343720e-003
,,,-2.00000000e-010,-9.62656225e-003
,,,-1.75000000e-010,-1.03453123e-002
,,,-1.50000000e-010,-1.10687499e-002
,,,-1.25000000e-010,-1.17906249e-002
,,,-1.00000000e-010,-1.25015625e-002
,,,-7.50000000e-011,-1.32000000e-002
,,,-5.00000000e-011,-1.39203126e-002
,,,-2.50000000e-011,-1.46421876e-002
,,,0.00000000e+000,-1.53656252e-002
,,,2.50000000e-011,-1.60828127e-002
,,,5.00000000e-011,-1.67890628e-002
,,,7.50000000e-011,-1.74796878e-002
,,,1.00000000e-010,-1.81500004e-002
,,,1.25000000e-010,-1.88000004e-002
,,,1.50000000e-010,-1.94218754e-002
,,,1.75000000e-010,-2.00515630e-002
,,,2.00000000e-010,-2.06921880e-002
,,,2.25000000e-010,-2.13437506e-002
,,,2.50000000e-010,-2.20046881e-002
,,,2.75000000e-010,-2.26718757e-002
,,,3.00000000e-010,-2.33375007e-002
,,,3.25000000e-010,-2.40000008e-002
,,,3.50000000e-010,-2.45984383e-002
,,,3.75000000e-010,-2.52078134e-002
,,,4.00000000e-010,-2.58281259e-002
,,,4.25000000e-010,-2.64531259e-002
,,,4.50000000e-010,-2.70734385e-002
,,,4.75000000e-010,-2.76781260e-002
,,,5.00000000e-010,-2.82578136e-002
,,,5.25000000e-010,-2.88000011e-002
,,,5.50000000e-010,-2.91937511e-002
,,,5.75000000e-010,-2.95609387e-002
,,,6.00000000e-010,-2.99046887e-002
,,,6.25000000e-010,-3.02218762e-002
,,,6.50000000e-010,-3.05140637e-002
,,,6.75000000e-010,-3.07765637e-002
,,,7.00000000e-010,-3.10046888e-002
,,,7.25000000e-010,-3.12000013e-002
,,,7.50000000e-010,-3.12296888e-002
,,,7.75000000e-010,-3.12531263e-002
,,,8.00000000e-010,-3.12781263e-002
,,,8.25000000e-010,-3.13140638e-002
,,,8.50000000e-010,-3.13640638e-002
,,,8.75000000e-010,-3.14296888e-002
,,,9.00000000e-010,-3.15093763e-002
,,,9.25000000e-010,-3.16000013e-002
,,,9.50000000e-010,-3.15625013e-002
,,,9.75000000e-010,-3.15390638e-002
,,,1.00000000e-009,-3.15328138e-002
,,,1.02500000e-009,-3.15406263e-002
,,,1.05000000e-009,-3.15578138e-002
,,,1.07500000e-009,-3.15796888e-002
,,,1.10000000e-009,-3.15968763e-002
,,,1.12500000e-009,-3.16000013e-002
,,,1.15000000e-009,-3.14515638e-002
,,,1.17500000e-009,-3.12796888e-002
,,,1.20000000e-009,-3.10906263e-002
,,,1.22500000e-009,-3.08875013e-002
,,,1.25000000e-009,-3.06750012e-002
,,,1.27500000e-009,-3.04562512e-002
,,,1.30000000e-009,-3.02312512e-002
,,,1.32500000e-009,-3.00000012e-002
,,,1.35000000e-009,-2.96500012e-002
,,,1.37500000e-009,-2.92906261e-002
,,,1.40000000e-009,-2.89265636e-002
,,,1.42500000e-009,-2.85656261e-002
,,,1.45000000e-009,-2.82125011e-002
,,,1.47500000e-009,-2.78687510e-002
,,,1.50000000e-009,-2.75328135e-002
,,,1.52500000e-009,-2.72000010e-002
,,,1.55000000e-009,-2.67875010e-002
,,,1.57500000e-009,-2.63578134e-002
,,,1.60000000e-009,-2.59156259e-002
,,,1.62500000e-009,-2.54625009e-002
,,,1.65000000e-009,-2.50031258e-002
,,,1.67500000e-009,-2.45390633e-002
,,,1.70000000e-009,-2.40718758e-002
,,,1.72500000e-009,-2.36000007e-002
,,,1.75000000e-009,-2.30734382e-002
,,,1.77500000e-009,-2.25250007e-002
,,,1.80000000e-009,-2.19625006e-002
,,,1.82500000e-009,-2.13937506e-002
,,,1.85000000e-009,-2.08265630e-002
,,,1.87500000e-009,-2.02671880e-002
,,,1.90000000e-009,-1.97250005e-002
,,,1.92500000e-009,-1.92000004e-002
,,,1.95000000e-009,-1.86765629e-002
,,,1.97500000e-009,-1.81531254e-002
,,,2.00000000e-009,-1.76343753e-002
,,,2.02500000e-009,-1.71203128e-002
,,,2.05000000e-009,-1.66187502e-002
,,,2.07500000e-009,-1.61296877e-002
,,,2.10000000e-009,-1.56562502e-002
,,,2.12500000e-009,-1.52000001e-002
,,,2.15000000e-009,-1.47671876e-002
,,,2.17500000e-009,-1.43250001e-002
,,,2.20000000e-009,-1.38703126e-002
,,,2.22500000e-009,-1.34109375e-002
,,,2.25000000e-009,-1.29468750e-002
,,,2.27500000e-009,-1.24875000e-002
,,,2.30000000e-009,-1.20374999e-002
,,,2.32500000e-009,-1.15999999e-002
,,,2.35000000e-009,-1.12062499e-002
,,,2.37500000e-009,-1.08046873e-002
,,,2.40000000e-009,-1.03953123e-002
,,,2.42500000e-009,-9.98124978e-003
,,,2.45000000e-009,-9.56874975e-003
,,,2.47500000e-009,-9.16406222e-003
,,,2.50000000e-009,-8.77343719e-003
,,,2.52500000e-009,-8.39999966e-003
,,,2.55000000e-009,-8.09374964e-003
,,,2.57500000e-009,-7.78437462e-003
,,,2.60000000e-009,-7.47343710e-003
,,,2.62500000e-009,-7.16093708e-003
,,,2.65000000e-009,-6.85312455e-003
,,,2.67500000e-009,-6.55468703e-003
,,,2.70000000e-009,-6.26874951e-003
,,,2.72500000e-009,-5.99999949e-003
,,,2.75000000e-009,-5.80156198e-003
,,,2.77500000e-009,-5.59999947e-003
,,,2.80000000e-009,-5.39374945e-003
,,,2.82500000e-009,-5.18593694e-003
,,,2.85000000e-009,-4.97968692e-003
,,,2.87500000e-009,-4.77812441e-003
,,,2.90000000e-009,-4.58281189e-003
,,,2.92500000e-009,-4.39999938e-003
,,,2.95000000e-009,-4.27656187e-003
,,,2.97500000e-009,-4.14374936e-003
,,,3.00000000e-009,-4.00312435e-003
,,,3.02500000e-009,-3.85156184e-003
,,,3.05000000e-009,-3.69218683e-003
,,,3.07500000e-009,-3.52812432e-003
,,,3.10000000e-009,-3.36249931e-003
,,,3.12500000e-009,-3.19999930e-003
,,,3.15000000e-009,-3.08906179e-003
,,,3.17500000e-009,-2.97187428e-003
,,,3.20000000e-009,-2.85468677e-003
,,,3.22500000e-009,-2.74062426e-003
,,,3.25000000e-009,-2.63281176e-003
,,,3.27500000e-009,-2.53749925e-003
,,,3.30000000e-009,-2.45937424e-003
,,,3.32500000e-009,-2.39999924e-003
,,,3.35000000e-009,-2.39687424e-003
,,,3.37500000e-009,-2.40156174e-003
,,,3.40000000e-009,-2.40937424e-003
,,,3.42500000e-009,-2.41718674e-003
,,,3.45000000e-009,-2.42187424e-003
,,,3.47500000e-009,-2.42187424e-003
,,,3.50000000e-009,-2.41562424e-003
,,,3.52500000e-009,-2.39999924e-003
,,,3.55000000e-009,-2.39687424e-003
,,,3.57500000e-009,-2.37656174e-003
,,,3.60000000e-009,-2.33749923e-003
,,,3.62500000e-009,-2.28281173e-003
,,,3.65000000e-009,-2.21718673e-003
,,,3.67500000e-009,-2.14531172e-003
,,,3.70000000e-009,-2.07031172e-003
,,,3.72500000e-009,-1.99999921e-003
,,,3.75000000e-009,-1.95624921e-003
,,,3.77500000e-009,-1.92031170e-003
,,,3.80000000e-009,-1.89531170e-003
,,,3.82500000e-009,-1.88437420e-003
,,,3.85000000e-009,-1.88906170e-003
,,,3.87500000e-009,-1.91093670e-003
,,,3.90000000e-009,-1.94843671e-003
,,,3.92500000e-009,-1.99999921e-003
,,,3.95000000e-009,-2.07343672e-003
,,,3.97500000e-009,-2.14843672e-003
,,,4.00000000e-009,-2.22031173e-003
,,,4.02500000e-009,-2.28593673e-003
,,,4.05000000e-009,-2.34062423e-003
,,,4.07500000e-009,-2.37812424e-003
,,,4.10000000e-009,-2.39999924e-003
,,,4.12500000e-009,-2.39999924e-003
,,,4.15000000e-009,-2.38281174e-003
,,,4.17500000e-009,-2.34531173e-003
,,,4.20000000e-009,-2.29374923e-003
,,,4.22500000e-009,-2.23281173e-003
,,,4.25000000e-009,-2.16874922e-003
,,,4.27500000e-009,-2.10468672e-003
,,,4.30000000e-009,-2.04687421e-003
,,,4.32500000e-009,-1.99999921e-003
,,,4.35000000e-009,-1.96406171e-003
,,,4.37500000e-009,-1.94062421e-003
,,,4.40000000e-009,-1.92968671e-003
,,,4.42500000e-009,-1.93124921e-003
,,,4.45000000e-009,-1.94218671e-003
,,,4.47500000e-009,-1.95937421e-003
,,,4.50000000e-009,-1.97968671e-003
,,,4.52500000e-009,-1.99999921e-003
,,,4.55000000e-009,-2.01718671e-003
,,,4.57500000e-009,-2.02812421e-003
,,,4.60000000e-009,-2.03437421e-003
,,,4.62500000e-009,-2.03281171e-003
,,,4.65000000e-009,-2.02812421e-003
,,,4.67500000e-009,-2.02031171e-003
,,,4.70000000e-009,-2.00937421e-003
,,,4.72500000e-009,-1.99999921e-003
,,,4.75000000e-009,-1.98749921e-003
,,,4.77500000e-009,-1.97812421e-003
,,,4.80000000e-009,-1.97187421e-003
,,,4.82500000e-009,-1.97031171e-003
,,,4.85000000e-009,-1.97343671e-003
,,,4.87500000e-009,-1.98124921e-003
,,,4.90000000e-009,-1.99062421e-003
,,,4.92500000e-009,-1.99999921e-003
,,,4.95000000e-009,-1.99843671e-003
,,,4.97500000e-009,-1.98906171e-003
,,,5.00000000e-009,-1.96562421e-003
,,,5.02500000e-009,-1.92812421e-003
,,,5.05000000e-009,-1.87343670e-003
,,,5.07500000e-009,-1.80156170e-003
,,,5.10000000e-009,-1.70937419e-003
,,,5.12500000e-009,-1.59999918e-003
,,,5.15000000e-009,-1.47499917e-003
,,,5.17500000e-009,-1.34218666e-003
,,,5.20000000e-009,-1.20937415e-003
,,,5.22500000e-009,-1.08281165e-003
,,,5.25000000e-009,-9.73436638e-004
,,,5.27500000e-009,-8.85936631e-004
,,,5.30000000e-009,-8.26561627e-004
,,,5.32500000e-009,-7.99999125e-004
,,,5.35000000e-009,-8.09374126e-004
,,,5.37500000e-009,-8.43749128e-004
,,,5.40000000e-009,-8.99999132e-004
,,,5.42500000e-009,-9.68749137e-004
,,,5.45000000e-009,-1.04062414e-003
,,,5.47500000e-009,-1.10937415e-003
,,,5.50000000e-009,-1.16406165e-003
,,,5.52500000e-009,-1.19999915e-003
,,,5.55000000e-009,-1.21406165e-003
,,,5.57500000e-009,-1.20312415e-003
,,,5.60000000e-009,-1.16718665e-003
,,,5.62500000e-009,-1.10937415e-003
,,,5.65000000e-009,-1.03906164e-003
,,,5.67500000e-009,-9.59374137e-004
,,,5.70000000e-009,-8.78124131e-004
,,,5.72500000e-009,-7.99999125e-004
,,,5.75000000e-009,-7.34374121e-004
,,,5.77500000e-009,-6.76561617e-004
,,,5.80000000e-009,-6.26561613e-004
,,,5.82500000e-009,-5.82811610e-004
,,,5.85000000e-009,-5.40624107e-004
,,,5.87500000e-009,-4.98436604e-004
