RawData/WithScintilator/R7_2pt2B_15mV/wave023_Ch2.csv

"Record Length",1000,"Points",-7.72500000e-009,1.56259324e-005
"Sample Interval",2.50000000e-011,s,-7.70000000e-009,9.37593199e-006
"Trigger Point",309,"Samples",-7.67500000e-009,1.56343143e-006
"Trigger Time",2.47951938e-011,s,-7.65000000e-009,-4.68656901e-006
"",,,-7.62500000e-009,-4.68656901e-006
"Horizontal Offset",-7.72500000e-009,s,-7.60000000e-009,9.31322575e-010
,,,-7.57500000e-009,6.25093176e-006
,,,-7.55000000e-009,1.87509326e-005
,,,-7.52500000e-009,3.28134336e-005
,,,-7.50000000e-009,4.53134345e-005
,,,-7.47500000e-009,5.15634350e-005
,,,-7.45000000e-009,4.68759346e-005
,,,-7.42500000e-009,3.12509335e-005
,,,-7.40000000e-009,9.31322575e-010
,,,-7.37500000e-009,-4.99990722e-005
,,,-7.35000000e-009,-1.09374076e-004
,,,-7.32500000e-009,-1.74999081e-004
,,,-7.30000000e-009,-2.40624086e-004
,,,-7.27500000e-009,-2.99999090e-004
,,,-7.25000000e-009,-3.49999093e-004
,,,-7.22500000e-009,-3.82811596e-004
,,,-7.20000000e-009,-3.99999097e-004
,,,-7.17500000e-009,-3.99999097e-004
,,,-7.15000000e-009,-3.85936596e-004
,,,-7.12500000e-009,-3.65624095e-004
,,,-7.10000000e-009,-3.43749093e-004
,,,-7.07500000e-009,-3.31249092e-004
,,,-7.05000000e-009,-3.34374092e-004
,,,-7.02500000e-009,-3.56249094e-004
,,,-7.00000000e-009,-3.99999097e-004
,,,-6.97500000e-009,-4.64061602e-004
,,,-6.95000000e-009,-5.40624107e-004
,,,-6.92500000e-009,-6.24999113e-004
,,,-6.90000000e-009,-7.04686619e-004
,,,-6.87500000e-009,-7.71874123e-004
,,,-6.85000000e-009,-8.14061626e-004
,,,-6.82500000e-009,-8.24999127e-004
,,,-6.80000000e-009,-7.99999125e-004
,,,-6.77500000e-009,-7.35936621e-004
,,,-6.75000000e-009,-6.39061614e-004
,,,-6.72500000e-009,-5.20311606e-004
,,,-6.70000000e-009,-3.92186596e-004
,,,-6.67500000e-009,-2.64061587e-004
,,,-6.65000000e-009,-1.49999079e-004
,,,-6.62500000e-009,-5.93740729e-005
,,,-6.60000000e-009,9.31322575e-010
,,,-6.57500000e-009,2.18759329e-005
,,,-6.55000000e-009,6.25093176e-006
,,,-6.52500000e-009,-3.90615714e-005
,,,-6.50000000e-009,-1.06249076e-004
,,,-6.47500000e-009,-1.89061582e-004
,,,-6.45000000e-009,-2.71874088e-004
,,,-6.42500000e-009,-3.45311593e-004
,,,-6.40000000e-009,-3.99999097e-004
,,,-6.37500000e-009,-4.29686599e-004
,,,-6.35000000e-009,-4.28124099e-004
,,,-6.32500000e-009,-3.98436597e-004
,,,-6.30000000e-009,-3.43749093e-004
,,,-6.27500000e-009,-2.70311588e-004
,,,-6.25000000e-009,-1.82811582e-004
,,,-6.22500000e-009,-9.06240751e-005
,,,-6.20000000e-009,9.31322575e-010
,,,-6.17500000e-009,7.34384365e-005
,,,-6.15000000e-009,1.29688441e-004
,,,-6.12500000e-009,1.64063443e-004
,,,-6.10000000e-009,1.75000944e-004
,,,-6.07500000e-009,1.60938443e-004
,,,-6.05000000e-009,1.25000940e-004
,,,-6.02500000e-009,7.03134363e-005
,,,-6.00000000e-009,9.31322575e-010
,,,-5.97500000e-009,-8.28115745e-005
,,,-5.95000000e-009,-1.65624080e-004
,,,-5.92500000e-009,-2.43749086e-004
,,,-5.90000000e-009,-3.12499091e-004
,,,-5.87500000e-009,-3.64061594e-004
,,,-5.85000000e-009,-3.98436597e-004
,,,-5.82500000e-009,-4.10936598e-004
,,,-5.80000000e-009,-3.99999097e-004
,,,-5.77500000e-009,-3.70311595e-004
,,,-5.75000000e-009,-3.21874091e-004
,,,-5.72500000e-009,-2.60936587e-004
,,,-5.70000000e-009,-1.93749082e-004
,,,-5.67500000e-009,-1.28124078e-004
,,,-5.65000000e-009,-7.03115737e-005
,,,-5.62500000e-009,-2.65615706e-005
,,,-5.60000000e-009,9.31322575e-010
,,,-5.57500000e-009,3.12593154e-006
,,,-5.55000000e-009,-1.56240698e-005
,,,-5.52500000e-009,-5.46865725e-005
,,,-5.50000000e-009,-1.12499077e-004
,,,-5.47500000e-009,-1.79686581e-004
,,,-5.45000000e-009,-2.54686587e-004
,,,-5.42500000e-009,-3.31249092e-004
,,,-5.40000000e-009,-3.99999097e-004
,,,-5.37500000e-009,-4.57811601e-004
,,,-5.35000000e-009,-4.98436604e-004
,,,-5.32500000e-009,-5.23436606e-004
,,,-5.30000000e-009,-5.28124106e-004
,,,-5.27500000e-009,-5.17186605e-004
,,,-5.25000000e-009,-4.90624103e-004
,,,-5.22500000e-009,-4.49999101e-004
,,,-5.20000000e-009,-3.99999097e-004
,,,-5.17500000e-009,-3.40624093e-004
,,,-5.15000000e-009,-2.79686588e-004
,,,-5.12500000e-009,-2.18749084e-004
,,,-5.10000000e-009,-1.60936580e-004
,,,-5.07500000e-009,-1.09374076e-004
,,,-5.05000000e-009,-6.56240733e-005
,,,-5.02500000e-009,-2.81240707e-005
,,,-5.00000000e-009,9.31322575e-010
,,,-4.97500000e-009,2.03134328e-005
,,,-4.95000000e-009,3.28134336e-005
,,,-4.92500000e-009,3.90634341e-005
,,,-4.90000000e-009,3.90634341e-005
,,,-4.87500000e-009,3.28134336e-005
,,,-4.85000000e-009,2.34384330e-005
,,,-4.82500000e-009,1.09384321e-005
,,,-4.80000000e-009,9.31322575e-010
,,,-4.77500000e-009,-1.40615697e-005
,,,-4.75000000e-009,-2.49990704e-005
,,,-4.72500000e-009,-3.12490709e-005
,,,-4.70000000e-009,-3.28115710e-005
,,,-4.67500000e-009,-3.12490709e-005
,,,-4.65000000e-009,-2.34365703e-005
,,,-4.62500000e-009,-1.40615697e-005
,,,-4.60000000e-009,9.31322575e-010
,,,-4.57500000e-009,1.25009322e-005
,,,-4.55000000e-009,2.50009331e-005
,,,-4.52500000e-009,3.59384339e-005
,,,-4.50000000e-009,4.06259342e-005
,,,-4.47500000e-009,3.90634341e-005
,,,-4.45000000e-009,3.28134336e-005
,,,-4.42500000e-009,1.87509326e-005
,,,-4.40000000e-009,9.31322575e-010
,,,-4.37500000e-009,-2.49990704e-005
,,,-4.35000000e-009,-4.84365721e-005
,,,-4.32500000e-009,-6.71865734e-005
,,,-4.30000000e-009,-7.96865743e-005
,,,-4.27500000e-009,-8.12490744e-005
,,,-4.25000000e-009,-6.87490735e-005
,,,-4.22500000e-009,-4.21865717e-005
,,,-4.20000000e-009,9.31322575e-010
,,,-4.17500000e-009,5.00009349e-005
,,,-4.15000000e-009,1.09375939e-004
,,,-4.12500000e-009,1.75000944e-004
,,,-4.10000000e-009,2.40625948e-004
,,,-4.07500000e-009,3.00000953e-004
,,,-4.05000000e-009,3.50000956e-004
,,,-4.02500000e-009,3.82813458e-004
,,,-4.00000000e-009,4.00000960e-004
,,,-3.97500000e-009,3.90625959e-004
,,,-3.95000000e-009,3.64063457e-004
,,,-3.92500000e-009,3.20313454e-004
,,,-3.90000000e-009,2.62500950e-004
,,,-3.87500000e-009,1.96875945e-004
,,,-3.85000000e-009,1.26563440e-004
,,,-3.82500000e-009,5.93759355e-005
,,,-3.80000000e-009,9.31322575e-010
,,,-3.77500000e-009,-4.99990722e-005
,,,-3.75000000e-009,-8.43740746e-005
,,,-3.72500000e-009,-1.03124076e-004
,,,-3.70000000e-009,-1.04686576e-004
,,,-3.67500000e-009,-9.37490753e-005
,,,-3.65000000e-009,-7.03115737e-005
,,,-3.62500000e-009,-3.74990713e-005
,,,-3.60000000e-009,9.31322575e-010
,,,-3.57500000e-009,3.59384339e-005
,,,-3.55000000e-009,6.87509362e-005
,,,-3.52500000e-009,9.21884378e-005
,,,-3.50000000e-009,1.03125939e-004
,,,-3.47500000e-009,1.01563439e-004
,,,-3.45000000e-009,8.28134372e-005
,,,-3.42500000e-009,4.84384348e-005
,,,-3.40000000e-009,9.31322575e-010
,,,-3.37500000e-009,-6.09365730e-005
,,,-3.35000000e-009,-1.28124078e-004
,,,-3.32500000e-009,-1.98436583e-004
,,,-3.30000000e-009,-2.64061587e-004
,,,-3.27500000e-009,-3.21874091e-004
,,,-3.25000000e-009,-3.65624095e-004
,,,-3.22500000e-009,-3.92186596e-004
,,,-3.20000000e-009,-3.99999097e-004
,,,-3.17500000e-009,-3.87499096e-004
,,,-3.15000000e-009,-3.54686594e-004
,,,-3.12500000e-009,-3.07811590e-004
,,,-3.10000000e-009,-2.48436586e-004
,,,-3.07500000e-009,-1.82811582e-004
,,,-3.05000000e-009,-1.17186577e-004
,,,-3.02500000e-009,-5.46865725e-005
,,,-3.00000000e-009,9.31322575e-010
,,,-2.97500000e-009,4.06259342e-005
,,,-2.95000000e-009,6.87509362e-005
,,,-2.92500000e-009,8.12509371e-005
,,,-2.90000000e-009,7.96884370e-005
,,,-2.87500000e-009,6.71884361e-005
,,,-2.85000000e-009,4.68759346e-005
,,,-2.82500000e-009,2.34384330e-005
,,,-2.80000000e-009,9.31322575e-010
,,,-2.77500000e-009,-2.49990704e-005
,,,-2.75000000e-009,-4.21865717e-005
,,,-2.72500000e-009,-5.46865725e-005
,,,-2.70000000e-009,-5.78115728e-005
,,,-2.67500000e-009,-5.31240724e-005
,,,-2.65000000e-009,-4.06240716e-005
,,,-2.62500000e-009,-2.18740702e-005
,,,-2.60000000e-009,9.31322575e-010
,,,-2.57500000e-009,1.87509326e-005
,,,-2.55000000e-009,3.59384339e-005
,,,-2.52500000e-009,4.84384348e-005
,,,-2.50000000e-009,5.46884352e-005
,,,-2.47500000e-009,5.46884352e-005
,,,-2.45000000e-009,4.53134345e-005
,,,-2.42500000e-009,2.65634332e-005
,,,-2.40000000e-009,9.31322575e-010
,,,-2.37500000e-009,-4.06240716e-005
,,,-2.35000000e-009,-8.90615750e-005
,,,-2.32500000e-009,-1.42186579e-004
,,,-2.30000000e-009,-1.98436583e-004
,,,-2.27500000e-009,-2.56249087e-004
,,,-2.25000000e-009,-3.09374091e-004
,,,-2.22500000e-009,-3.59374094e-004
,,,-2.20000000e-009,-3.99999097e-004
,,,-2.17500000e-009,-4.39061600e-004
,,,-2.15000000e-009,-4.65624102e-004
,,,-2.12500000e-009,-4.82811603e-004
,,,-2.10000000e-009,-4.85936603e-004
,,,-2.07500000e-009,-4.78124103e-004
,,,-2.05000000e-009,-4.60936601e-004
,,,-2.02500000e-009,-4.32811599e-004
,,,-2.00000000e-009,-3.99999097e-004
,,,-1.97500000e-009,-3.78124095e-004
,,,-1.95000000e-009,-3.57811594e-004
,,,-1.92500000e-009,-3.45311593e-004
,,,-1.90000000e-009,-3.39061593e-004
,,,-1.87500000e-009,-3.42186593e-004
,,,-1.85000000e-009,-3.53124094e-004
,,,-1.82500000e-009,-3.71874095e-004
,,,-1.80000000e-009,-3.99999097e-004
,,,-1.77500000e-009,-4.57811601e-004
,,,-1.75000000e-009,-5.23436606e-004
,,,-1.72500000e-009,-5.90624110e-004
,,,-1.70000000e-009,-6.57811615e-004
,,,-1.67500000e-009,-7.15624119e-004
,,,-1.65000000e-009,-7.60936623e-004
,,,-1.62500000e-009,-7.89061625e-004
,,,-1.60000000e-009,-7.99999125e-004
,,,-1.57500000e-009,-8.26561627e-004
,,,-1.55000000e-009,-8.42186628e-004
,,,-1.52500000e-009,-8.49999129e-004
,,,-1.50000000e-009,-8.46874129e-004
,,,-1.47500000e-009,-8.39061628e-004
,,,-1.45000000e-009,-8.24999127e-004
,,,-1.42500000e-009,-8.10936626e-004
,,,-1.40000000e-009,-7.99999125e-004
,,,-1.37500000e-009,-8.46874129e-004
,,,-1.35000000e-009,-9.12499133e-004
,,,-1.32500000e-009,-9.98436639e-004
,,,-1.30000000e-009,-1.10156165e-003
,,,-1.27500000e-009,-1.21562415e-003
,,,-1.25000000e-009,-1.33906166e-003
,,,-1.22500000e-009,-1.46718667e-003
,,,-1.20000000e-009,-1.59999918e-003
,,,-1.17500000e-009,-1.79062420e-003
,,,-1.15000000e-009,-1.99062421e-003
,,,-1.12500000e-009,-2.19843672e-003
,,,-1.10000000e-009,-2.40781174e-003
,,,-1.07500000e-009,-2.61406175e-003
,,,-1.05000000e-009,-2.81562427e-003
,,,-1.02500000e-009,-3.01093678e-003
,,,-1.00000000e-009,-3.19999930e-003
,,,-9.75000000e-010,-3.43281181e-003
,,,-9.50000000e-010,-3.67343683e-003
,,,-9.25000000e-010,-3.92031185e-003
,,,-9.00000000e-010,-4.17187436e-003
,,,-8.75000000e-010,-4.42656188e-003
,,,-8.50000000e-010,-4.68124940e-003
,,,-8.25000000e-010,-4.93906192e-003
,,,-8.00000000e-010,-5.19999944e-003
,,,-7.75000000e-010,-5.49999946e-003
,,,-7.50000000e-010,-5.81718698e-003
,,,-7.25000000e-010,-6.15156200e-003
,,,-7.00000000e-010,-6.50156203e-003
,,,-6.75000000e-010,-6.86562455e-003
,,,-6.50000000e-010,-7.23749958e-003
,,,-6.25000000e-010,-7.61718711e-003
,,,-6.00000000e-010,-7.99999963e-003
,,,-5.75000000e-010,-8.39374966e-003
,,,-5.50000000e-010,-8.79843719e-003
,,,-5.25000000e-010,-9.20781222e-003
,,,-5.00000000e-010,-9.62031225e-003
,,,-4.75000000e-010,-1.00312498e-002
,,,-4.50000000e-010,-1.04343748e-002
,,,-4.25000000e-010,-1.08249998e-002
,,,-4.00000000e-010,-1.11999999e-002
,,,-3.75000000e-010,-1.15359374e-002
,,,-3.50000000e-010,-1.18609374e-002
,,,-3.25000000e-010,-1.21796874e-002
,,,-3.00000000e-010,-1.24890625e-002
,,,-2.75000000e-010,-1.27875000e-002
,,,-2.50000000e-010,-1.30718750e-002
,,,-2.25000000e-010,-1.33437500e-002
,,,-2.00000000e-010,-1.36000000e-002
,,,-1.75000000e-010,-1.37984375e-002
,,,-1.50000000e-010,-1.39953126e-002
,,,-1.25000000e-010,-1.41937501e-002
,,,-1.00000000e-010,-1.43953126e-002
,,,-7.50000000e-011,-1.46000001e-002
,,,-5.00000000e-011,-1.48046876e-002
,,,-2.50000000e-011,-1.50062501e-002
,,,0.00000000e+000,-1.52000001e-002
,,,2.50000000e-011,-1.53296877e-002
,,,5.00000000e-011,-1.54562502e-002
,,,7.50000000e-011,-1.55796877e-002
,,,1.00000000e-010,-1.56953127e-002
,,,1.25000000e-010,-1.58000002e-002
,,,1.50000000e-010,-1.58875002e-002
,,,1.75000000e-010,-1.59562502e-002
,,,2.00000000e-010,-1.60000002e-002
,,,2.25000000e-010,-1.59640627e-002
,,,2.50000000e-010,-1.59140627e-002
,,,2.75000000e-010,-1.58578127e-002
,,,3.00000000e-010,-1.58000002e-002
,,,3.25000000e-010,-1.57421877e-002
,,,3.50000000e-010,-1.56890627e-002
,,,3.75000000e-010,-1.56421877e-002
,,,4.00000000e-010,-1.56000002e-002
,,,4.25000000e-010,-1.55140627e-002
,,,4.50000000e-010,-1.54390627e-002
,,,4.75000000e-010,-1.53765627e-002
,,,5.00000000e-010,-1.53281252e-002
,,,5.25000000e-010,-1.52906252e-002
,,,5.50000000e-010,-1.52593751e-002
,,,5.75000000e-010,-1.52312501e-002
,,,6.00000000e-010,-1.52000001e-002
,,,6.25000000e-010,-1.51203126e-002
,,,6.50000000e-010,-1.50328126e-002
,,,6.75000000e-010,-1.49375001e-002
,,,7.00000000e-010,-1.48359376e-002
,,,7.25000000e-010,-1.47296876e-002
,,,7.50000000e-010,-1.46203126e-002
,,,7.75000000e-010,-1.45109376e-002
,,,8.00000000e-010,-1.44000001e-002
,,,8.25000000e-010,-1.42609376e-002
,,,8.50000000e-010,-1.41234376e-002
,,,8.75000000e-010,-1.39953126e-002
,,,9.00000000e-010,-1.38812501e-002
,,,9.25000000e-010,-1.37828125e-002
,,,9.50000000e-010,-1.37046875e-002
,,,9.75000000e-010,-1.36437500e-002
,,,1.00000000e-009,-1.36000000e-002
,,,1.02500000e-009,-1.35406250e-002
,,,1.05000000e-009,-1.34765625e-002
,,,1.07500000e-009,-1.34062500e-002
,,,1.10000000e-009,-1.33250000e-002
,,,1.12500000e-009,-1.32265625e-002
,,,1.15000000e-009,-1.31093750e-002
,,,1.17500000e-009,-1.29671875e-002
,,,1.20000000e-009,-1.28000000e-002
,,,1.22500000e-009,-1.25875000e-002
,,,1.25000000e-009,-1.23468749e-002
,,,1.27500000e-009,-1.20843749e-002
,,,1.30000000e-009,-1.18109374e-002
,,,1.32500000e-009,-1.15359374e-002
,,,1.35000000e-009,-1.12703124e-002
,,,1.37500000e-009,-1.10234373e-002
,,,1.40000000e-009,-1.07999998e-002
,,,1.42500000e-009,-1.05953123e-002
,,,1.45000000e-009,-1.04109373e-002
,,,1.47500000e-009,-1.02453123e-002
,,,1.50000000e-009,-1.00984373e-002
,,,1.52500000e-009,-9.96406227e-003
,,,1.55000000e-009,-9.84062477e-003
,,,1.57500000e-009,-9.72187476e-003
,,,1.60000000e-009,-9.59999975e-003
,,,1.62500000e-009,-9.46562474e-003
,,,1.65000000e-009,-9.30937473e-003
,,,1.67500000e-009,-9.12968721e-003
,,,1.70000000e-009,-8.92968720e-003
,,,1.72500000e-009,-8.71093719e-003
,,,1.75000000e-009,-8.47968717e-003
,,,1.77500000e-009,-8.24062465e-003
,,,1.80000000e-009,-7.99999963e-003
,,,1.82500000e-009,-7.76874962e-003
,,,1.85000000e-009,-7.53749960e-003
,,,1.87500000e-009,-7.31093709e-003
,,,1.90000000e-009,-7.09374957e-003
,,,1.92500000e-009,-6.89062456e-003
,,,1.95000000e-009,-6.70624954e-003
,,,1.97500000e-009,-6.54218703e-003
,,,2.00000000e-009,-6.39999952e-003
,,,2.02500000e-009,-6.29062451e-003
,,,2.05000000e-009,-6.18906201e-003
,,,2.07500000e-009,-6.09062450e-003
,,,2.10000000e-009,-5.99531199e-003
,,,2.12500000e-009,-5.90156199e-003
,,,2.15000000e-009,-5.80468698e-003
,,,2.17500000e-009,-5.70624947e-003
,,,2.20000000e-009,-5.59999947e-003
,,,2.22500000e-009,-5.50156196e-003
,,,2.25000000e-009,-5.38437445e-003
,,,2.27500000e-009,-5.24687444e-003
,,,2.30000000e-009,-5.09374943e-003
,,,2.32500000e-009,-4.92656192e-003
,,,2.35000000e-009,-4.75156190e-003
,,,2.37500000e-009,-4.57499939e-003
,,,2.40000000e-009,-4.39999938e-003
,,,2.42500000e-009,-4.25156187e-003
,,,2.45000000e-009,-4.10937436e-003
,,,2.47500000e-009,-3.97656185e-003
,,,2.50000000e-009,-3.85937434e-003
,,,2.52500000e-009,-3.76093683e-003
,,,2.55000000e-009,-3.68437433e-003
,,,2.57500000e-009,-3.63124933e-003
,,,2.60000000e-009,-3.59999932e-003
,,,2.62500000e-009,-3.60937432e-003
,,,2.65000000e-009,-3.62499933e-003
,,,2.67500000e-009,-3.64374933e-003
,,,2.70000000e-009,-3.65937433e-003
,,,2.72500000e-009,-3.66562433e-003
,,,2.75000000e-009,-3.66093683e-003
,,,2.77500000e-009,-3.63906183e-003
,,,2.80000000e-009,-3.59999932e-003
,,,2.82500000e-009,-3.55156182e-003
,,,2.85000000e-009,-3.47656181e-003
,,,2.87500000e-009,-3.38124931e-003
,,,2.90000000e-009,-3.27187430e-003
,,,2.92500000e-009,-3.15156179e-003
,,,2.95000000e-009,-3.02812428e-003
,,,2.97500000e-009,-2.90937427e-003
,,,3.00000000e-009,-2.79999927e-003
,,,3.02500000e-009,-2.71406176e-003
,,,3.05000000e-009,-2.64062426e-003
,,,3.07500000e-009,-2.57656175e-003
,,,3.10000000e-009,-2.52499925e-003
,,,3.12500000e-009,-2.48437424e-003
,,,3.15000000e-009,-2.44999924e-003
,,,3.17500000e-009,-2.42343674e-003
,,,3.20000000e-009,-2.39999924e-003
,,,3.22500000e-009,-2.39218674e-003
,,,3.25000000e-009,-2.38281174e-003
,,,3.27500000e-009,-2.37343674e-003
,,,3.30000000e-009,-2.36718674e-003
,,,3.32500000e-009,-2.36406174e-003
,,,3.35000000e-009,-2.36874924e-003
,,,3.37500000e-009,-2.37968674e-003
,,,3.40000000e-009,-2.39999924e-003
,,,3.42500000e-009,-2.42968674e-003
,,,3.45000000e-009,-2.45781174e-003
,,,3.47500000e-009,-2.48124924e-003
,,,3.50000000e-009,-2.49687425e-003
,,,3.52500000e-009,-2.49843675e-003
,,,3.55000000e-009,-2.48593674e-003
,,,3.57500000e-009,-2.45312424e-003
,,,3.60000000e-009,-2.39999924e-003
,,,3.62500000e-009,-2.32812423e-003
,,,3.65000000e-009,-2.23593673e-003
,,,3.67500000e-009,-2.12968672e-003
,,,3.70000000e-009,-2.01406171e-003
,,,3.72500000e-009,-1.89687420e-003
,,,3.75000000e-009,-1.78593670e-003
,,,3.77500000e-009,-1.68437419e-003
,,,3.80000000e-009,-1.59999918e-003
,,,3.82500000e-009,-1.54062418e-003
,,,3.85000000e-009,-1.50156167e-003
,,,3.87500000e-009,-1.48281167e-003
,,,3.90000000e-009,-1.48124917e-003
,,,3.92500000e-009,-1.49687417e-003
,,,3.95000000e-009,-1.52343668e-003
,,,3.97500000e-009,-1.56093668e-003
,,,4.00000000e-009,-1.59999918e-003
,,,4.02500000e-009,-1.64062418e-003
,,,4.05000000e-009,-1.67499919e-003
,,,4.07500000e-009,-1.69687419e-003
,,,4.10000000e-009,-1.70468669e-003
,,,4.12500000e-009,-1.69999919e-003
,,,4.15000000e-009,-1.67968669e-003
,,,4.17500000e-009,-1.64531169e-003
,,,4.20000000e-009,-1.59999918e-003
,,,4.22500000e-009,-1.54374918e-003
,,,4.25000000e-009,-1.48124917e-003
,,,4.27500000e-009,-1.41562417e-003
,,,4.30000000e-009,-1.35312416e-003
,,,4.32500000e-009,-1.29687416e-003
,,,4.35000000e-009,-1.25156166e-003
,,,4.37500000e-009,-1.21874915e-003
,,,4.40000000e-009,-1.19999915e-003
,,,4.42500000e-009,-1.19687415e-003
,,,4.45000000e-009,-1.20156165e-003
,,,4.47500000e-009,-1.21093665e-003
,,,4.50000000e-009,-1.22343666e-003
,,,4.52500000e-009,-1.23124916e-003
,,,4.55000000e-009,-1.23281166e-003
,,,4.57500000e-009,-1.22187416e-003
,,,4.60000000e-009,-1.19999915e-003
,,,4.62500000e-009,-1.16562415e-003
,,,4.65000000e-009,-1.11562415e-003
,,,4.67500000e-009,-1.05781164e-003
,,,4.70000000e-009,-9.93749139e-004
,,,4.72500000e-009,-9.31249135e-004
,,,4.75000000e-009,-8.74999131e-004
,,,4.77500000e-009,-8.31249128e-004
,,,4.80000000e-009,-7.99999125e-004
,,,4.82500000e-009,-7.87499124e-004
,,,4.85000000e-009,-7.85936624e-004
,,,4.87500000e-009,-7.95311625e-004
,,,4.90000000e-009,-8.07811626e-004
,,,4.92500000e-009,-8.20311627e-004
,,,4.95000000e-009,-8.24999127e-004
,,,4.97500000e-009,-8.20311627e-004
,,,5.00000000e-009,-7.99999125e-004
,,,5.02500000e-009,-7.70311623e-004
,,,5.05000000e-009,-7.24999120e-004
,,,5.07500000e-009,-6.68749116e-004
,,,5.10000000e-009,-6.06249112e-004
,,,5.12500000e-009,-5.42186607e-004
,,,5.15000000e-009,-4.84374103e-004
,,,5.17500000e-009,-4.35936600e-004
,,,5.20000000e-009,-3.99999097e-004
,,,5.22500000e-009,-3.85936596e-004
,,,5.25000000e-009,-3.82811596e-004
,,,5.27500000e-009,-3.89061596e-004
,,,5.30000000e-009,-4.01561597e-004
,,,5.32500000e-009,-4.12499098e-004
,,,5.35000000e-009,-4.20311598e-004
,,,5.37500000e-009,-4.17186598e-004
,,,5.40000000e-009,-3.99999097e-004
,,,5.42500000e-009,-3.74999095e-004
,,,5.45000000e-009,-3.35936592e-004
,,,5.47500000e-009,-2.84374089e-004
,,,5.50000000e-009,-2.23436584e-004
,,,5.52500000e-009,-1.59374080e-004
,,,5.55000000e-009,-9.68740755e-005
,,,5.57500000e-009,-4.21865717e-005
,,,5.60000000e-009,9.31322575e-010
,,,5.62500000e-009,1.40634323e-005
,,,5.65000000e-009,9.37593199e-006
,,,5.67500000e-009,-1.71865699e-005
,,,5.70000000e-009,-6.40615732e-005
,,,5.72500000e-009,-1.29686578e-004
,,,5.75000000e-009,-2.09374083e-004
,,,5.77500000e-009,-3.01561590e-004
,,,5.80000000e-009,-3.99999097e-004
,,,5.82500000e-009,-5.04686604e-004
,,,5.85000000e-009,-6.03124111e-004
,,,5.87500000e-009,-6.89061617e-004
