RawData/WithScintilator/R7_2pt2B_15mV/wave014_Ch2.csv

"Record Length",1000,"Points",-7.72500000e-009,4.00000960e-004
"Sample Interval",2.50000000e-011,s,-7.70000000e-009,3.09375953e-004
"Trigger Point",309,"Samples",-7.67500000e-009,2.09375946e-004
"Trigger Time",5.80294574e-012,s,-7.65000000e-009,1.01563439e-004
"",,,-7.62500000e-009,-7.81156923e-006
"Horizontal Offset",-7.72500000e-009,s,-7.60000000e-009,-1.15624077e-004
,,,-7.57500000e-009,-2.18749084e-004
,,,-7.55000000e-009,-3.14061591e-004
,,,-7.52500000e-009,-3.99999097e-004
,,,-7.50000000e-009,-4.76561602e-004
,,,-7.47500000e-009,-5.42186607e-004
,,,-7.45000000e-009,-5.99999111e-004
,,,-7.42500000e-009,-6.48436615e-004
,,,-7.40000000e-009,-6.92186618e-004
,,,-7.37500000e-009,-7.31249120e-004
,,,-7.35000000e-009,-7.67186623e-004
,,,-7.32500000e-009,-7.99999125e-004
,,,-7.30000000e-009,-8.24999127e-004
,,,-7.27500000e-009,-8.46874129e-004
,,,-7.25000000e-009,-8.62499130e-004
,,,-7.22500000e-009,-8.71874130e-004
,,,-7.20000000e-009,-8.71874130e-004
,,,-7.17500000e-009,-8.60936630e-004
,,,-7.15000000e-009,-8.37499128e-004
,,,-7.12500000e-009,-7.99999125e-004
,,,-7.10000000e-009,-7.48436622e-004
,,,-7.07500000e-009,-6.89061617e-004
,,,-7.05000000e-009,-6.24999113e-004
,,,-7.02500000e-009,-5.60936608e-004
,,,-7.00000000e-009,-5.03124104e-004
,,,-6.97500000e-009,-4.54686601e-004
,,,-6.95000000e-009,-4.18749098e-004
,,,-6.92500000e-009,-3.99999097e-004
,,,-6.90000000e-009,-3.99999097e-004
,,,-6.87500000e-009,-4.20311598e-004
,,,-6.85000000e-009,-4.60936601e-004
,,,-6.82500000e-009,-5.15624105e-004
,,,-6.80000000e-009,-5.82811610e-004
,,,-6.77500000e-009,-6.56249115e-004
,,,-6.75000000e-009,-7.29686620e-004
,,,-6.72500000e-009,-7.99999125e-004
,,,-6.70000000e-009,-8.56249129e-004
,,,-6.67500000e-009,-8.99999132e-004
,,,-6.65000000e-009,-9.28124134e-004
,,,-6.62500000e-009,-9.37499135e-004
,,,-6.60000000e-009,-9.29686634e-004
,,,-6.57500000e-009,-9.01561632e-004
,,,-6.55000000e-009,-8.59374130e-004
,,,-6.52500000e-009,-7.99999125e-004
,,,-6.50000000e-009,-7.31249120e-004
,,,-6.47500000e-009,-6.57811615e-004
,,,-6.45000000e-009,-5.85936610e-004
,,,-6.42500000e-009,-5.20311606e-004
,,,-6.40000000e-009,-4.65624102e-004
,,,-6.37500000e-009,-4.24999099e-004
,,,-6.35000000e-009,-4.03124097e-004
,,,-6.32500000e-009,-3.99999097e-004
,,,-6.30000000e-009,-4.17186598e-004
,,,-6.27500000e-009,-4.49999101e-004
,,,-6.25000000e-009,-4.96874104e-004
,,,-6.22500000e-009,-5.54686608e-004
,,,-6.20000000e-009,-6.18749112e-004
,,,-6.17500000e-009,-6.82811617e-004
,,,-6.15000000e-009,-7.45311621e-004
,,,-6.12500000e-009,-7.99999125e-004
,,,-6.10000000e-009,-8.43749128e-004
,,,-6.07500000e-009,-8.73436630e-004
,,,-6.05000000e-009,-8.87499131e-004
,,,-6.02500000e-009,-8.89061632e-004
,,,-6.00000000e-009,-8.78124131e-004
,,,-5.97500000e-009,-8.57811629e-004
,,,-5.95000000e-009,-8.31249128e-004
,,,-5.92500000e-009,-7.99999125e-004
,,,-5.90000000e-009,-7.65624123e-004
,,,-5.87500000e-009,-7.35936621e-004
,,,-5.85000000e-009,-7.14061619e-004
,,,-5.82500000e-009,-7.04686619e-004
,,,-5.80000000e-009,-7.09374119e-004
,,,-5.77500000e-009,-7.26561620e-004
,,,-5.75000000e-009,-7.59374122e-004
,,,-5.72500000e-009,-7.99999125e-004
,,,-5.70000000e-009,-8.42186628e-004
,,,-5.67500000e-009,-8.82811631e-004
,,,-5.65000000e-009,-9.17186634e-004
,,,-5.62500000e-009,-9.37499135e-004
,,,-5.60000000e-009,-9.39061635e-004
,,,-5.57500000e-009,-9.18749134e-004
,,,-5.55000000e-009,-8.71874130e-004
,,,-5.52500000e-009,-7.99999125e-004
,,,-5.50000000e-009,-7.03124118e-004
,,,-5.47500000e-009,-5.87499110e-004
,,,-5.45000000e-009,-4.62499101e-004
,,,-5.42500000e-009,-3.37499093e-004
,,,-5.40000000e-009,-2.20311584e-004
,,,-5.37500000e-009,-1.20311577e-004
,,,-5.35000000e-009,-4.53115719e-005
,,,-5.32500000e-009,9.31322575e-010
,,,-5.30000000e-009,1.25009322e-005
,,,-5.27500000e-009,-6.24906912e-006
,,,-5.25000000e-009,-4.99990722e-005
,,,-5.22500000e-009,-1.14061577e-004
,,,-5.20000000e-009,-1.89061582e-004
,,,-5.17500000e-009,-2.68749088e-004
,,,-5.15000000e-009,-3.42186593e-004
,,,-5.12500000e-009,-3.99999097e-004
,,,-5.10000000e-009,-4.35936600e-004
,,,-5.07500000e-009,-4.43749100e-004
,,,-5.05000000e-009,-4.24999099e-004
,,,-5.02500000e-009,-3.76561595e-004
,,,-5.00000000e-009,-3.06249090e-004
,,,-4.97500000e-009,-2.15624084e-004
,,,-4.95000000e-009,-1.10936577e-004
,,,-4.92500000e-009,9.31322575e-010
,,,-4.90000000e-009,1.03125939e-004
,,,-4.87500000e-009,1.98438445e-004
,,,-4.85000000e-009,2.81250951e-004
,,,-4.82500000e-009,3.46875956e-004
,,,-4.80000000e-009,3.92188459e-004
,,,-4.77500000e-009,4.15625961e-004
,,,-4.75000000e-009,4.17188461e-004
,,,-4.72500000e-009,4.00000960e-004
,,,-4.70000000e-009,3.59375957e-004
,,,-4.67500000e-009,3.06250953e-004
,,,-4.65000000e-009,2.46875949e-004
,,,-4.62500000e-009,1.84375944e-004
,,,-4.60000000e-009,1.23438440e-004
,,,-4.57500000e-009,7.03134363e-005
,,,-4.55000000e-009,2.65634332e-005
,,,-4.52500000e-009,9.31322575e-010
,,,-4.50000000e-009,-1.24990696e-005
,,,-4.47500000e-009,-3.12406890e-006
,,,-4.45000000e-009,2.81259333e-005
,,,-4.42500000e-009,7.81259369e-005
,,,-4.40000000e-009,1.43750941e-004
,,,-4.37500000e-009,2.23438447e-004
,,,-4.35000000e-009,3.10938453e-004
,,,-4.32500000e-009,4.00000960e-004
,,,-4.30000000e-009,4.78125965e-004
,,,-4.27500000e-009,5.43750970e-004
,,,-4.25000000e-009,5.89063473e-004
,,,-4.22500000e-009,6.09375974e-004
,,,-4.20000000e-009,6.01563474e-004
,,,-4.17500000e-009,5.64063471e-004
,,,-4.15000000e-009,4.95313466e-004
,,,-4.12500000e-009,4.00000960e-004
,,,-4.10000000e-009,2.75000951e-004
,,,-4.07500000e-009,1.37500941e-004
,,,-4.05000000e-009,-1.56156879e-006
,,,-4.02500000e-009,-1.34374078e-004
,,,-4.00000000e-009,-2.46874086e-004
,,,-3.97500000e-009,-3.34374092e-004
,,,-3.95000000e-009,-3.87499096e-004
,,,-3.92500000e-009,-3.99999097e-004
,,,-3.90000000e-009,-3.73436595e-004
,,,-3.87500000e-009,-3.09374091e-004
,,,-3.85000000e-009,-2.14061584e-004
,,,-3.82500000e-009,-9.68740755e-005
,,,-3.80000000e-009,3.28134336e-005
,,,-3.77500000e-009,1.65625943e-004
,,,-3.75000000e-009,2.90625952e-004
,,,-3.72500000e-009,4.00000960e-004
,,,-3.70000000e-009,4.79688465e-004
,,,-3.67500000e-009,5.31250969e-004
,,,-3.65000000e-009,5.54688471e-004
,,,-3.62500000e-009,5.53125970e-004
,,,-3.60000000e-009,5.31250969e-004
,,,-3.57500000e-009,4.95313466e-004
,,,-3.55000000e-009,4.48438463e-004
,,,-3.52500000e-009,4.00000960e-004
,,,-3.50000000e-009,3.42188456e-004
,,,-3.47500000e-009,2.87500952e-004
,,,-3.45000000e-009,2.37500948e-004
,,,-3.42500000e-009,1.90625945e-004
,,,-3.40000000e-009,1.45313442e-004
,,,-3.37500000e-009,9.84384383e-005
,,,-3.35000000e-009,5.15634350e-005
,,,-3.32500000e-009,9.31322575e-010
,,,-3.30000000e-009,-5.78115728e-005
,,,-3.27500000e-009,-1.18749077e-004
,,,-3.25000000e-009,-1.81249082e-004
,,,-3.22500000e-009,-2.42186586e-004
,,,-3.20000000e-009,-2.96874090e-004
,,,-3.17500000e-009,-3.43749093e-004
,,,-3.15000000e-009,-3.78124095e-004
,,,-3.12500000e-009,-3.99999097e-004
,,,-3.10000000e-009,-4.06249097e-004
,,,-3.07500000e-009,-3.99999097e-004
,,,-3.05000000e-009,-3.89061596e-004
,,,-3.02500000e-009,-3.76561595e-004
,,,-3.00000000e-009,-3.67186595e-004
,,,-2.97500000e-009,-3.65624095e-004
,,,-2.95000000e-009,-3.76561595e-004
,,,-2.92500000e-009,-3.99999097e-004
,,,-2.90000000e-009,-4.37499100e-004
,,,-2.87500000e-009,-4.84374103e-004
,,,-2.85000000e-009,-5.40624107e-004
,,,-2.82500000e-009,-6.01561611e-004
,,,-2.80000000e-009,-6.62499116e-004
,,,-2.77500000e-009,-7.18749120e-004
,,,-2.75000000e-009,-7.65624123e-004
,,,-2.72500000e-009,-7.99999125e-004
,,,-2.70000000e-009,-8.14061626e-004
,,,-2.67500000e-009,-8.17186627e-004
,,,-2.65000000e-009,-8.10936626e-004
,,,-2.62500000e-009,-8.01561625e-004
,,,-2.60000000e-009,-7.92186625e-004
,,,-2.57500000e-009,-7.87499124e-004
,,,-2.55000000e-009,-7.90624125e-004
,,,-2.52500000e-009,-7.99999125e-004
,,,-2.50000000e-009,-8.12499126e-004
,,,-2.47500000e-009,-8.32811628e-004
,,,-2.45000000e-009,-8.53124129e-004
,,,-2.42500000e-009,-8.71874130e-004
,,,-2.40000000e-009,-8.81249131e-004
,,,-2.37500000e-009,-8.74999131e-004
,,,-2.35000000e-009,-8.49999129e-004
,,,-2.32500000e-009,-7.99999125e-004
,,,-2.30000000e-009,-7.26561620e-004
,,,-2.27500000e-009,-6.31249113e-004
,,,-2.25000000e-009,-5.23436606e-004
,,,-2.22500000e-009,-4.07811598e-004
,,,-2.20000000e-009,-2.90624089e-004
,,,-2.17500000e-009,-1.79686581e-004
,,,-2.15000000e-009,-8.12490744e-005
,,,-2.12500000e-009,9.31322575e-010
,,,-2.10000000e-009,5.31259351e-005
,,,-2.07500000e-009,8.28134372e-005
,,,-2.05000000e-009,9.21884378e-005
,,,-2.02500000e-009,8.59384374e-005
,,,-2.00000000e-009,6.71884361e-005
,,,-1.97500000e-009,4.37509344e-005
,,,-1.95000000e-009,1.87509326e-005
,,,-1.92500000e-009,9.31322575e-010
,,,-1.90000000e-009,-2.18740702e-005
,,,-1.87500000e-009,-3.28115710e-005
,,,-1.85000000e-009,-3.59365712e-005
,,,-1.82500000e-009,-3.12490709e-005
,,,-1.80000000e-009,-2.34365703e-005
,,,-1.77500000e-009,-1.24990696e-005
,,,-1.75000000e-009,-3.12406890e-006
,,,-1.72500000e-009,9.31322575e-010
,,,-1.70000000e-009,-2.49990704e-005
,,,-1.67500000e-009,-6.09365730e-005
,,,-1.65000000e-009,-1.07811576e-004
,,,-1.62500000e-009,-1.60936580e-004
,,,-1.60000000e-009,-2.20311584e-004
,,,-1.57500000e-009,-2.82811589e-004
,,,-1.55000000e-009,-3.43749093e-004
,,,-1.52500000e-009,-3.99999097e-004
,,,-1.50000000e-009,-4.82811603e-004
,,,-1.47500000e-009,-5.59374108e-004
,,,-1.45000000e-009,-6.29686613e-004
,,,-1.42500000e-009,-6.90624118e-004
,,,-1.40000000e-009,-7.39061621e-004
,,,-1.37500000e-009,-7.74999124e-004
,,,-1.35000000e-009,-7.95311625e-004
,,,-1.32500000e-009,-7.99999125e-004
,,,-1.30000000e-009,-8.35936628e-004
,,,-1.27500000e-009,-8.67186630e-004
,,,-1.25000000e-009,-8.89061632e-004
,,,-1.22500000e-009,-8.98436632e-004
,,,-1.20000000e-009,-8.95311632e-004
,,,-1.17500000e-009,-8.76561631e-004
,,,-1.15000000e-009,-8.43749128e-004
,,,-1.12500000e-009,-7.99999125e-004
,,,-1.10000000e-009,-8.09374126e-004
,,,-1.07500000e-009,-8.28124127e-004
,,,-1.05000000e-009,-8.57811629e-004
,,,-1.02500000e-009,-8.99999132e-004
,,,-1.00000000e-009,-9.53124136e-004
,,,-9.75000000e-010,-1.02031164e-003
,,,-9.50000000e-010,-1.10156165e-003
,,,-9.25000000e-010,-1.19999915e-003
,,,-9.00000000e-010,-1.38749917e-003
,,,-8.75000000e-010,-1.60624918e-003
,,,-8.50000000e-010,-1.84999920e-003
,,,-8.25000000e-010,-2.11093672e-003
,,,-8.00000000e-010,-2.38124924e-003
,,,-7.75000000e-010,-2.65624926e-003
,,,-7.50000000e-010,-2.92968678e-003
,,,-7.25000000e-010,-3.19999930e-003
,,,-7.00000000e-010,-3.53437432e-003
,,,-6.75000000e-010,-3.87812434e-003
,,,-6.50000000e-010,-4.22812437e-003
,,,-6.25000000e-010,-4.58124939e-003
,,,-6.00000000e-010,-4.93749942e-003
,,,-5.75000000e-010,-5.29218694e-003
,,,-5.50000000e-010,-5.64531197e-003
,,,-5.25000000e-010,-5.99999949e-003
,,,-5.00000000e-010,-6.40937452e-003
,,,-4.75000000e-010,-6.83593705e-003
,,,-4.50000000e-010,-7.28124958e-003
,,,-4.25000000e-010,-7.73906212e-003
,,,-4.00000000e-010,-8.20468715e-003
,,,-3.75000000e-010,-8.67343718e-003
,,,-3.50000000e-010,-9.13906222e-003
,,,-3.25000000e-010,-9.59999975e-003
,,,-3.00000000e-010,-1.00749998e-002
,,,-2.75000000e-010,-1.05531248e-002
,,,-2.50000000e-010,-1.10281248e-002
,,,-2.25000000e-010,-1.14968749e-002
,,,-2.00000000e-010,-1.19515624e-002
,,,-1.75000000e-010,-1.23890624e-002
,,,-1.50000000e-010,-1.28046875e-002
,,,-1.25000000e-010,-1.32000000e-002
,,,-1.00000000e-010,-1.35671875e-002
,,,-7.50000000e-011,-1.39375001e-002
,,,-5.00000000e-011,-1.43156251e-002
,,,-2.50000000e-011,-1.47062501e-002
,,,0.00000000e+000,-1.51093751e-002
,,,2.50000000e-011,-1.55281252e-002
,,,5.00000000e-011,-1.59593752e-002
,,,7.50000000e-011,-1.64000002e-002
,,,1.00000000e-010,-1.68031253e-002
,,,1.25000000e-010,-1.72218753e-002
,,,1.50000000e-010,-1.76500003e-002
,,,1.75000000e-010,-1.80812503e-002
,,,2.00000000e-010,-1.85031254e-002
,,,2.25000000e-010,-1.89031254e-002
,,,2.50000000e-010,-1.92718754e-002
,,,2.75000000e-010,-1.96000005e-002
,,,3.00000000e-010,-1.98109380e-002
,,,3.25000000e-010,-1.99921880e-002
,,,3.50000000e-010,-2.01515630e-002
,,,3.75000000e-010,-2.02921880e-002
,,,4.00000000e-010,-2.04234380e-002
,,,4.25000000e-010,-2.05500005e-002
,,,4.50000000e-010,-2.06750005e-002
,,,4.75000000e-010,-2.08000005e-002
,,,5.00000000e-010,-2.08468755e-002
,,,5.25000000e-010,-2.09125005e-002
,,,5.50000000e-010,-2.09968756e-002
,,,5.75000000e-010,-2.11031256e-002
,,,6.00000000e-010,-2.12234381e-002
,,,6.25000000e-010,-2.13531256e-002
,,,6.50000000e-010,-2.14828131e-002
,,,6.75000000e-010,-2.16000006e-002
,,,7.00000000e-010,-2.16093756e-002
,,,7.25000000e-010,-2.15984381e-002
,,,7.50000000e-010,-2.15718756e-002
,,,7.75000000e-010,-2.15296881e-002
,,,8.00000000e-010,-2.14703131e-002
,,,8.25000000e-010,-2.13953131e-002
,,,8.50000000e-010,-2.13062506e-002
,,,8.75000000e-010,-2.12000006e-002
,,,9.00000000e-010,-2.09937506e-002
,,,9.25000000e-010,-2.07765630e-002
,,,9.50000000e-010,-2.05578130e-002
,,,9.75000000e-010,-2.03437505e-002
,,,1.00000000e-009,-2.01375005e-002
,,,1.02500000e-009,-1.99453130e-002
,,,1.05000000e-009,-1.97656255e-002
,,,1.07500000e-009,-1.96000005e-002
,,,1.10000000e-009,-1.93765629e-002
,,,1.12500000e-009,-1.91593754e-002
,,,1.15000000e-009,-1.89500004e-002
,,,1.17500000e-009,-1.87500004e-002
,,,1.20000000e-009,-1.85578129e-002
,,,1.22500000e-009,-1.83703129e-002
,,,1.25000000e-009,-1.81859379e-002
,,,1.27500000e-009,-1.80000003e-002
,,,1.30000000e-009,-1.77546878e-002
,,,1.32500000e-009,-1.74890628e-002
,,,1.35000000e-009,-1.72062503e-002
,,,1.37500000e-009,-1.69062503e-002
,,,1.40000000e-009,-1.65921877e-002
,,,1.42500000e-009,-1.62703127e-002
,,,1.45000000e-009,-1.59390627e-002
,,,1.47500000e-009,-1.56000002e-002
,,,1.50000000e-009,-1.52234376e-002
,,,1.52500000e-009,-1.48296876e-002
,,,1.55000000e-009,-1.44250001e-002
,,,1.57500000e-009,-1.40125001e-002
,,,1.60000000e-009,-1.36000000e-002
,,,1.62500000e-009,-1.31906250e-002
,,,1.65000000e-009,-1.27906250e-002
,,,1.67500000e-009,-1.23999999e-002
,,,1.70000000e-009,-1.20187499e-002
,,,1.72500000e-009,-1.16374999e-002
,,,1.75000000e-009,-1.12624999e-002
,,,1.77500000e-009,-1.08953123e-002
,,,1.80000000e-009,-1.05421873e-002
,,,1.82500000e-009,-1.02062498e-002
,,,1.85000000e-009,-9.89218727e-003
,,,1.87500000e-009,-9.59999975e-003
,,,1.90000000e-009,-9.34218723e-003
,,,1.92500000e-009,-9.08749971e-003
,,,1.95000000e-009,-8.83281219e-003
,,,1.97500000e-009,-8.58124968e-003
,,,2.00000000e-009,-8.33124966e-003
,,,2.02500000e-009,-8.08281214e-003
,,,2.05000000e-009,-7.84062462e-003
,,,2.07500000e-009,-7.59999961e-003
,,,2.10000000e-009,-7.38437459e-003
,,,2.12500000e-009,-7.15624958e-003
,,,2.15000000e-009,-6.91249956e-003
,,,2.17500000e-009,-6.65624954e-003
,,,2.20000000e-009,-6.39218702e-003
,,,2.22500000e-009,-6.12499950e-003
,,,2.25000000e-009,-5.85937448e-003
,,,2.27500000e-009,-5.59999947e-003
,,,2.30000000e-009,-5.38593695e-003
,,,2.32500000e-009,-5.16874943e-003
,,,2.35000000e-009,-4.95312442e-003
,,,2.37500000e-009,-4.74062440e-003
,,,2.40000000e-009,-4.53437439e-003
,,,2.42500000e-009,-4.34062438e-003
,,,2.45000000e-009,-4.16093686e-003
,,,2.47500000e-009,-3.99999935e-003
,,,2.50000000e-009,-3.89531184e-003
,,,2.52500000e-009,-3.79218684e-003
,,,2.55000000e-009,-3.69218683e-003
,,,2.57500000e-009,-3.59062432e-003
,,,2.60000000e-009,-3.49218682e-003
,,,2.62500000e-009,-3.39218681e-003
,,,2.65000000e-009,-3.29531180e-003
,,,2.67500000e-009,-3.19999930e-003
,,,2.70000000e-009,-3.13281179e-003
,,,2.72500000e-009,-3.05468678e-003
,,,2.75000000e-009,-2.96249928e-003
,,,2.77500000e-009,-2.85937427e-003
,,,2.80000000e-009,-2.74843676e-003
,,,2.82500000e-009,-2.63124925e-003
,,,2.85000000e-009,-2.51406175e-003
,,,2.87500000e-009,-2.39999924e-003
,,,2.90000000e-009,-2.32187423e-003
,,,2.92500000e-009,-2.24531173e-003
,,,2.95000000e-009,-2.17499922e-003
,,,2.97500000e-009,-2.11249922e-003
,,,3.00000000e-009,-2.06093671e-003
,,,3.02500000e-009,-2.02343671e-003
,,,3.05000000e-009,-2.00312421e-003
,,,3.07500000e-009,-1.99999921e-003
,,,3.10000000e-009,-2.03593671e-003
,,,3.12500000e-009,-2.08124922e-003
,,,3.15000000e-009,-2.13124922e-003
,,,3.17500000e-009,-2.18749922e-003
,,,3.20000000e-009,-2.24531173e-003
,,,3.22500000e-009,-2.30156173e-003
,,,3.25000000e-009,-2.35468674e-003
,,,3.27500000e-009,-2.39999924e-003
,,,3.30000000e-009,-2.44374924e-003
,,,3.32500000e-009,-2.46562424e-003
,,,3.35000000e-009,-2.46249924e-003
,,,3.37500000e-009,-2.42812424e-003
,,,3.40000000e-009,-2.36406174e-003
,,,3.42500000e-009,-2.26874923e-003
,,,3.45000000e-009,-2.14531172e-003
,,,3.47500000e-009,-1.99999921e-003
,,,3.50000000e-009,-1.84531170e-003
,,,3.52500000e-009,-1.68593669e-003
,,,3.55000000e-009,-1.52968668e-003
,,,3.57500000e-009,-1.39218667e-003
,,,3.60000000e-009,-1.28281166e-003
,,,3.62500000e-009,-1.21093665e-003
,,,3.65000000e-009,-1.18281165e-003
,,,3.67500000e-009,-1.19999915e-003
,,,3.70000000e-009,-1.27031166e-003
,,,3.72500000e-009,-1.37343667e-003
,,,3.75000000e-009,-1.49999917e-003
,,,3.77500000e-009,-1.63281168e-003
,,,3.80000000e-009,-1.76249919e-003
,,,3.82500000e-009,-1.87343670e-003
,,,3.85000000e-009,-1.95468671e-003
,,,3.87500000e-009,-1.99999921e-003
,,,3.90000000e-009,-2.00781171e-003
,,,3.92500000e-009,-1.97656171e-003
,,,3.95000000e-009,-1.91718670e-003
,,,3.97500000e-009,-1.84062420e-003
,,,4.00000000e-009,-1.75781169e-003
,,,4.02500000e-009,-1.68281169e-003
,,,4.05000000e-009,-1.62812418e-003
,,,4.07500000e-009,-1.59999918e-003
,,,4.10000000e-009,-1.60468668e-003
,,,4.12500000e-009,-1.64062418e-003
,,,4.15000000e-009,-1.69999919e-003
,,,4.17500000e-009,-1.77499919e-003
,,,4.20000000e-009,-1.85468670e-003
,,,4.22500000e-009,-1.92499920e-003
,,,4.25000000e-009,-1.97812421e-003
,,,4.27500000e-009,-1.99999921e-003
,,,4.30000000e-009,-1.98749921e-003
,,,4.32500000e-009,-1.93593671e-003
,,,4.35000000e-009,-1.84999920e-003
,,,4.37500000e-009,-1.73593669e-003
,,,4.40000000e-009,-1.60312418e-003
,,,4.42500000e-009,-1.46249917e-003
,,,4.45000000e-009,-1.32499916e-003
,,,4.47500000e-009,-1.19999915e-003
,,,4.50000000e-009,-1.09999915e-003
,,,4.52500000e-009,-1.02968664e-003
,,,4.55000000e-009,-9.89061639e-004
,,,4.57500000e-009,-9.81249138e-004
,,,4.60000000e-009,-1.00156164e-003
,,,4.62500000e-009,-1.04999914e-003
,,,4.65000000e-009,-1.11718665e-003
,,,4.67500000e-009,-1.19999915e-003
,,,4.70000000e-009,-1.29062416e-003
,,,4.72500000e-009,-1.37812417e-003
,,,4.75000000e-009,-1.45937417e-003
,,,4.77500000e-009,-1.52656168e-003
,,,4.80000000e-009,-1.57656168e-003
,,,4.82500000e-009,-1.60624918e-003
,,,4.85000000e-009,-1.61406168e-003
,,,4.87500000e-009,-1.59999918e-003
,,,4.90000000e-009,-1.56562418e-003
,,,4.92500000e-009,-1.51406168e-003
,,,4.95000000e-009,-1.45156167e-003
,,,4.97500000e-009,-1.38593667e-003
,,,5.00000000e-009,-1.32187416e-003
,,,5.02500000e-009,-1.26718666e-003
,,,5.05000000e-009,-1.22656166e-003
,,,5.07500000e-009,-1.19999915e-003
,,,5.10000000e-009,-1.19062415e-003
,,,5.12500000e-009,-1.19531165e-003
,,,5.15000000e-009,-1.20781165e-003
,,,5.17500000e-009,-1.22343666e-003
,,,5.20000000e-009,-1.23593666e-003
,,,5.22500000e-009,-1.23906166e-003
,,,5.25000000e-009,-1.22812416e-003
,,,5.27500000e-009,-1.19999915e-003
,,,5.30000000e-009,-1.15781165e-003
,,,5.32500000e-009,-1.09999915e-003
,,,5.35000000e-009,-1.03281164e-003
,,,5.37500000e-009,-9.60936637e-004
,,,5.40000000e-009,-8.95311632e-004
,,,5.42500000e-009,-8.43749128e-004
,,,5.45000000e-009,-8.09374126e-004
,,,5.47500000e-009,-7.99999125e-004
,,,5.50000000e-009,-8.18749127e-004
,,,5.52500000e-009,-8.59374130e-004
,,,5.55000000e-009,-9.17186634e-004
,,,5.57500000e-009,-9.85936638e-004
,,,5.60000000e-009,-1.05624914e-003
,,,5.62500000e-009,-1.12031165e-003
,,,5.65000000e-009,-1.17031165e-003
,,,5.67500000e-009,-1.19999915e-003
,,,5.70000000e-009,-1.20624915e-003
,,,5.72500000e-009,-1.18749915e-003
,,,5.75000000e-009,-1.14531165e-003
,,,5.77500000e-009,-1.08593665e-003
,,,5.80000000e-009,-1.01562414e-003
,,,5.82500000e-009,-9.39061635e-004
,,,5.85000000e-009,-8.65624130e-004
