RawData/WithScintilator/R7_2pt2B_15mV/wave021_Ch2.csv

"Record Length",1000,"Points",-7.72500000e-009,-2.09374083e-004
"Sample Interval",2.50000000e-011,s,-7.70000000e-009,-1.32811578e-004
"Trigger Point",309,"Samples",-7.67500000e-009,-6.24990731e-005
"Trigger Time",1.98663950e-011,s,-7.65000000e-009,9.31322575e-010
"",,,-7.62500000e-009,4.68759346e-005
"Horizontal Offset",-7.72500000e-009,s,-7.60000000e-009,7.81259369e-005
,,,-7.57500000e-009,9.06259377e-005
,,,-7.55000000e-009,8.90634376e-005
,,,-7.52500000e-009,7.34384365e-005
,,,-7.50000000e-009,5.00009349e-005
,,,-7.47500000e-009,2.50009331e-005
,,,-7.45000000e-009,9.31322575e-010
,,,-7.42500000e-009,-2.18740702e-005
,,,-7.40000000e-009,-3.59365712e-005
,,,-7.37500000e-009,-4.21865717e-005
,,,-7.35000000e-009,-4.21865717e-005
,,,-7.32500000e-009,-3.59365712e-005
,,,-7.30000000e-009,-2.49990704e-005
,,,-7.27500000e-009,-1.24990696e-005
,,,-7.25000000e-009,9.31322575e-010
,,,-7.22500000e-009,9.37593199e-006
,,,-7.20000000e-009,1.40634323e-005
,,,-7.17500000e-009,1.56259324e-005
,,,-7.15000000e-009,1.40634323e-005
,,,-7.12500000e-009,1.09384321e-005
,,,-7.10000000e-009,6.25093176e-006
,,,-7.07500000e-009,1.56343143e-006
,,,-7.05000000e-009,9.31322575e-010
,,,-7.02500000e-009,-1.56156879e-006
,,,-7.00000000e-009,-1.56156879e-006
,,,-6.97500000e-009,9.31322575e-010
,,,-6.95000000e-009,1.56343143e-006
,,,-6.92500000e-009,1.56343143e-006
,,,-6.90000000e-009,3.12593154e-006
,,,-6.87500000e-009,1.56343143e-006
,,,-6.85000000e-009,9.31322575e-010
,,,-6.82500000e-009,-6.24906912e-006
,,,-6.80000000e-009,-1.09365695e-005
,,,-6.77500000e-009,-1.56240698e-005
,,,-6.75000000e-009,-1.87490700e-005
,,,-6.72500000e-009,-1.87490700e-005
,,,-6.70000000e-009,-1.56240698e-005
,,,-6.67500000e-009,-9.37406934e-006
,,,-6.65000000e-009,9.31322575e-010
,,,-6.62500000e-009,9.37593199e-006
,,,-6.60000000e-009,2.18759329e-005
,,,-6.57500000e-009,3.12509335e-005
,,,-6.55000000e-009,3.90634341e-005
,,,-6.52500000e-009,4.06259342e-005
,,,-6.50000000e-009,3.59384339e-005
,,,-6.47500000e-009,2.18759329e-005
,,,-6.45000000e-009,9.31322575e-010
,,,-6.42500000e-009,-3.43740711e-005
,,,-6.40000000e-009,-7.81240742e-005
,,,-6.37500000e-009,-1.28124078e-004
,,,-6.35000000e-009,-1.82811582e-004
,,,-6.32500000e-009,-2.40624086e-004
,,,-6.30000000e-009,-2.98436590e-004
,,,-6.27500000e-009,-3.53124094e-004
,,,-6.25000000e-009,-3.99999097e-004
,,,-6.22500000e-009,-4.37499100e-004
,,,-6.20000000e-009,-4.62499101e-004
,,,-6.17500000e-009,-4.76561602e-004
,,,-6.15000000e-009,-4.81249103e-004
,,,-6.12500000e-009,-4.74999102e-004
,,,-6.10000000e-009,-4.57811601e-004
,,,-6.07500000e-009,-4.32811599e-004
,,,-6.05000000e-009,-3.99999097e-004
,,,-6.02500000e-009,-3.62499094e-004
,,,-6.00000000e-009,-3.20311591e-004
,,,-5.97500000e-009,-2.73436588e-004
,,,-5.95000000e-009,-2.23436584e-004
,,,-5.92500000e-009,-1.70311581e-004
,,,-5.90000000e-009,-1.14061577e-004
,,,-5.87500000e-009,-5.62490727e-005
,,,-5.85000000e-009,9.31322575e-010
,,,-5.82500000e-009,4.84384348e-005
,,,-5.80000000e-009,9.06259377e-005
,,,-5.77500000e-009,1.20313440e-004
,,,-5.75000000e-009,1.34375941e-004
,,,-5.72500000e-009,1.29688441e-004
,,,-5.70000000e-009,1.06250939e-004
,,,-5.67500000e-009,6.09384356e-005
,,,-5.65000000e-009,9.31322575e-010
,,,-5.62500000e-009,-7.81240742e-005
,,,-5.60000000e-009,-1.64061580e-004
,,,-5.57500000e-009,-2.46874086e-004
,,,-5.55000000e-009,-3.21874091e-004
,,,-5.52500000e-009,-3.81249096e-004
,,,-5.50000000e-009,-4.15624098e-004
,,,-5.47500000e-009,-4.23436599e-004
,,,-5.45000000e-009,-3.99999097e-004
,,,-5.42500000e-009,-3.48436593e-004
,,,-5.40000000e-009,-2.76561588e-004
,,,-5.37500000e-009,-1.95311583e-004
,,,-5.35000000e-009,-1.14061577e-004
,,,-5.32500000e-009,-4.37490718e-005
,,,-5.30000000e-009,3.12593154e-006
,,,-5.27500000e-009,1.87509326e-005
,,,-5.25000000e-009,9.31322575e-010
,,,-5.22500000e-009,-6.09365730e-005
,,,-5.20000000e-009,-1.53124080e-004
,,,-5.17500000e-009,-2.70311588e-004
,,,-5.15000000e-009,-3.98436597e-004
,,,-5.12500000e-009,-5.28124106e-004
,,,-5.10000000e-009,-6.45311614e-004
,,,-5.07500000e-009,-7.39061621e-004
,,,-5.05000000e-009,-7.99999125e-004
,,,-5.02500000e-009,-8.23436627e-004
,,,-5.00000000e-009,-8.09374126e-004
,,,-4.97500000e-009,-7.64061623e-004
,,,-4.95000000e-009,-6.96874118e-004
,,,-4.92500000e-009,-6.15624112e-004
,,,-4.90000000e-009,-5.34374107e-004
,,,-4.87500000e-009,-4.59374101e-004
,,,-4.85000000e-009,-3.99999097e-004
,,,-4.82500000e-009,-3.60936594e-004
,,,-4.80000000e-009,-3.43749093e-004
,,,-4.77500000e-009,-3.46874093e-004
,,,-4.75000000e-009,-3.60936594e-004
,,,-4.72500000e-009,-3.82811596e-004
,,,-4.70000000e-009,-3.99999097e-004
,,,-4.67500000e-009,-4.09374098e-004
,,,-4.65000000e-009,-3.99999097e-004
,,,-4.62500000e-009,-3.73436595e-004
,,,-4.60000000e-009,-3.26561592e-004
,,,-4.57500000e-009,-2.67186588e-004
,,,-4.55000000e-009,-2.01561583e-004
,,,-4.52500000e-009,-1.32811578e-004
,,,-4.50000000e-009,-7.34365739e-005
,,,-4.47500000e-009,-2.65615706e-005
,,,-4.45000000e-009,9.31322575e-010
,,,-4.42500000e-009,-3.12406890e-006
,,,-4.40000000e-009,-2.96865708e-005
,,,-4.37500000e-009,-7.65615741e-005
,,,-4.35000000e-009,-1.37499078e-004
,,,-4.32500000e-009,-2.07811583e-004
,,,-4.30000000e-009,-2.79686588e-004
,,,-4.27500000e-009,-3.45311593e-004
,,,-4.25000000e-009,-3.99999097e-004
,,,-4.22500000e-009,-4.40624100e-004
,,,-4.20000000e-009,-4.65624102e-004
,,,-4.17500000e-009,-4.74999102e-004
,,,-4.15000000e-009,-4.70311602e-004
,,,-4.12500000e-009,-4.57811601e-004
,,,-4.10000000e-009,-4.39061600e-004
,,,-4.07500000e-009,-4.18749098e-004
,,,-4.05000000e-009,-3.99999097e-004
,,,-4.02500000e-009,-3.89061596e-004
,,,-4.00000000e-009,-3.82811596e-004
,,,-3.97500000e-009,-3.82811596e-004
,,,-3.95000000e-009,-3.85936596e-004
,,,-3.92500000e-009,-3.90624096e-004
,,,-3.90000000e-009,-3.96874097e-004
,,,-3.87500000e-009,-3.99999097e-004
,,,-3.85000000e-009,-3.99999097e-004
,,,-3.82500000e-009,-3.98436597e-004
,,,-3.80000000e-009,-3.92186596e-004
,,,-3.77500000e-009,-3.84374096e-004
,,,-3.75000000e-009,-3.76561595e-004
,,,-3.72500000e-009,-3.71874095e-004
,,,-3.70000000e-009,-3.73436595e-004
,,,-3.67500000e-009,-3.82811596e-004
,,,-3.65000000e-009,-3.99999097e-004
,,,-3.62500000e-009,-4.29686599e-004
,,,-3.60000000e-009,-4.68749102e-004
,,,-3.57500000e-009,-5.15624105e-004
,,,-3.55000000e-009,-5.70311609e-004
,,,-3.52500000e-009,-6.28124113e-004
,,,-3.50000000e-009,-6.89061617e-004
,,,-3.47500000e-009,-7.46874122e-004
,,,-3.45000000e-009,-7.99999125e-004
,,,-3.42500000e-009,-8.39061628e-004
,,,-3.40000000e-009,-8.67186630e-004
,,,-3.37500000e-009,-8.84374131e-004
,,,-3.35000000e-009,-8.89061632e-004
,,,-3.32500000e-009,-8.82811631e-004
,,,-3.30000000e-009,-8.65624130e-004
,,,-3.27500000e-009,-8.37499128e-004
,,,-3.25000000e-009,-7.99999125e-004
,,,-3.22500000e-009,-7.51561622e-004
,,,-3.20000000e-009,-6.98436618e-004
,,,-3.17500000e-009,-6.42186614e-004
,,,-3.15000000e-009,-5.85936610e-004
,,,-3.12500000e-009,-5.31249106e-004
,,,-3.10000000e-009,-4.81249103e-004
,,,-3.07500000e-009,-4.37499100e-004
,,,-3.05000000e-009,-3.99999097e-004
,,,-3.02500000e-009,-3.70311595e-004
,,,-3.00000000e-009,-3.49999093e-004
,,,-2.97500000e-009,-3.39061593e-004
,,,-2.95000000e-009,-3.37499093e-004
,,,-2.92500000e-009,-3.43749093e-004
,,,-2.90000000e-009,-3.57811594e-004
,,,-2.87500000e-009,-3.78124095e-004
,,,-2.85000000e-009,-3.99999097e-004
,,,-2.82500000e-009,-4.24999099e-004
,,,-2.80000000e-009,-4.46874100e-004
,,,-2.77500000e-009,-4.64061602e-004
,,,-2.75000000e-009,-4.71874102e-004
,,,-2.72500000e-009,-4.71874102e-004
,,,-2.70000000e-009,-4.60936601e-004
,,,-2.67500000e-009,-4.35936600e-004
,,,-2.65000000e-009,-3.99999097e-004
,,,-2.62500000e-009,-3.54686594e-004
,,,-2.60000000e-009,-3.01561590e-004
,,,-2.57500000e-009,-2.43749086e-004
,,,-2.55000000e-009,-1.84374082e-004
,,,-2.52500000e-009,-1.26561578e-004
,,,-2.50000000e-009,-7.65615741e-005
,,,-2.47500000e-009,-3.28115710e-005
,,,-2.45000000e-009,9.31322575e-010
,,,-2.42500000e-009,1.56259324e-005
,,,-2.40000000e-009,2.18759329e-005
,,,-2.37500000e-009,2.18759329e-005
,,,-2.35000000e-009,1.56259324e-005
,,,-2.32500000e-009,7.81343188e-006
,,,-2.30000000e-009,1.56343143e-006
,,,-2.27500000e-009,-1.56156879e-006
,,,-2.25000000e-009,9.31322575e-010
,,,-2.22500000e-009,9.31322575e-010
,,,-2.20000000e-009,6.25093176e-006
,,,-2.17500000e-009,1.40634323e-005
,,,-2.15000000e-009,2.34384330e-005
,,,-2.12500000e-009,2.81259333e-005
,,,-2.10000000e-009,2.81259333e-005
,,,-2.07500000e-009,1.87509326e-005
,,,-2.05000000e-009,9.31322575e-010
,,,-2.02500000e-009,-3.59365712e-005
,,,-2.00000000e-009,-8.12490744e-005
,,,-1.97500000e-009,-1.34374078e-004
,,,-1.95000000e-009,-1.92186582e-004
,,,-1.92500000e-009,-2.51561586e-004
,,,-1.90000000e-009,-3.07811590e-004
,,,-1.87500000e-009,-3.59374094e-004
,,,-1.85000000e-009,-3.99999097e-004
,,,-1.82500000e-009,-4.37499100e-004
,,,-1.80000000e-009,-4.62499101e-004
,,,-1.77500000e-009,-4.74999102e-004
,,,-1.75000000e-009,-4.74999102e-004
,,,-1.72500000e-009,-4.67186602e-004
,,,-1.70000000e-009,-4.49999101e-004
,,,-1.67500000e-009,-4.26561599e-004
,,,-1.65000000e-009,-3.99999097e-004
,,,-1.62500000e-009,-3.85936596e-004
,,,-1.60000000e-009,-3.76561595e-004
,,,-1.57500000e-009,-3.71874095e-004
,,,-1.55000000e-009,-3.71874095e-004
,,,-1.52500000e-009,-3.74999095e-004
,,,-1.50000000e-009,-3.82811596e-004
,,,-1.47500000e-009,-3.92186596e-004
,,,-1.45000000e-009,-3.99999097e-004
,,,-1.42500000e-009,-4.31249099e-004
,,,-1.40000000e-009,-4.62499101e-004
,,,-1.37500000e-009,-4.87499103e-004
,,,-1.35000000e-009,-5.03124104e-004
,,,-1.32500000e-009,-5.04686604e-004
,,,-1.30000000e-009,-4.87499103e-004
,,,-1.27500000e-009,-4.53124101e-004
,,,-1.25000000e-009,-3.99999097e-004
,,,-1.22500000e-009,-3.79686596e-004
,,,-1.20000000e-009,-3.59374094e-004
,,,-1.17500000e-009,-3.42186593e-004
,,,-1.15000000e-009,-3.31249092e-004
,,,-1.12500000e-009,-3.29686592e-004
,,,-1.10000000e-009,-3.37499093e-004
,,,-1.07500000e-009,-3.60936594e-004
,,,-1.05000000e-009,-3.99999097e-004
,,,-1.02500000e-009,-5.24999106e-004
,,,-1.00000000e-009,-6.76561617e-004
,,,-9.75000000e-010,-8.46874129e-004
,,,-9.50000000e-010,-1.02187414e-003
,,,-9.25000000e-010,-1.19531165e-003
,,,-9.00000000e-010,-1.35156166e-003
,,,-8.75000000e-010,-1.48906167e-003
,,,-8.50000000e-010,-1.59999918e-003
,,,-8.25000000e-010,-1.76406169e-003
,,,-8.00000000e-010,-1.91874920e-003
,,,-7.75000000e-010,-2.06718671e-003
,,,-7.50000000e-010,-2.20937423e-003
,,,-7.25000000e-010,-2.34843673e-003
,,,-7.00000000e-010,-2.48906174e-003
,,,-6.75000000e-010,-2.63749926e-003
,,,-6.50000000e-010,-2.79999927e-003
,,,-6.25000000e-010,-3.05781179e-003
,,,-6.00000000e-010,-3.35312431e-003
,,,-5.75000000e-010,-3.68281183e-003
,,,-5.50000000e-010,-4.04062435e-003
,,,-5.25000000e-010,-4.41718688e-003
,,,-5.00000000e-010,-4.80624941e-003
,,,-4.75000000e-010,-5.20156194e-003
,,,-4.50000000e-010,-5.59999947e-003
,,,-4.25000000e-010,-6.05156200e-003
,,,-4.00000000e-010,-6.51874953e-003
,,,-3.75000000e-010,-7.00156206e-003
,,,-3.50000000e-010,-7.49687460e-003
,,,-3.25000000e-010,-8.00468714e-003
,,,-3.00000000e-010,-8.52343717e-003
,,,-2.75000000e-010,-9.05624971e-003
,,,-2.50000000e-010,-9.59999975e-003
,,,-2.25000000e-010,-1.01671873e-002
,,,-2.00000000e-010,-1.07578123e-002
,,,-1.75000000e-010,-1.13640624e-002
,,,-1.50000000e-010,-1.19828124e-002
,,,-1.25000000e-010,-1.26046875e-002
,,,-1.00000000e-010,-1.32203125e-002
,,,-7.50000000e-011,-1.38218750e-002
,,,-5.00000000e-011,-1.44000001e-002
,,,-2.50000000e-011,-1.49171876e-002
,,,0.00000000e+000,-1.54156252e-002
,,,2.50000000e-011,-1.58968752e-002
,,,5.00000000e-011,-1.63609377e-002
,,,7.50000000e-011,-1.68046878e-002
,,,1.00000000e-010,-1.72281253e-002
,,,1.25000000e-010,-1.76265628e-002
,,,1.50000000e-010,-1.80000003e-002
,,,1.75000000e-010,-1.82828129e-002
,,,2.00000000e-010,-1.85546879e-002
,,,2.25000000e-010,-1.88203129e-002
,,,2.50000000e-010,-1.90796879e-002
,,,2.75000000e-010,-1.93312504e-002
,,,3.00000000e-010,-1.95734380e-002
,,,3.25000000e-010,-1.97968755e-002
,,,3.50000000e-010,-2.00000005e-002
,,,3.75000000e-010,-2.00875005e-002
,,,4.00000000e-010,-2.01640630e-002
,,,4.25000000e-010,-2.02312505e-002
,,,4.50000000e-010,-2.02890630e-002
,,,4.75000000e-010,-2.03375005e-002
,,,5.00000000e-010,-2.03750005e-002
,,,5.25000000e-010,-2.03968755e-002
,,,5.50000000e-010,-2.04000005e-002
,,,5.75000000e-010,-2.02921880e-002
,,,6.00000000e-010,-2.01781255e-002
,,,6.25000000e-010,-2.00656255e-002
,,,6.50000000e-010,-1.99562505e-002
,,,6.75000000e-010,-1.98562505e-002
,,,7.00000000e-010,-1.97625005e-002
,,,7.25000000e-010,-1.96781255e-002
,,,7.50000000e-010,-1.96000005e-002
,,,7.75000000e-010,-1.94484379e-002
,,,8.00000000e-010,-1.93078129e-002
,,,8.25000000e-010,-1.91843754e-002
,,,8.50000000e-010,-1.90781254e-002
,,,8.75000000e-010,-1.89906254e-002
,,,9.00000000e-010,-1.89171879e-002
,,,9.25000000e-010,-1.88562504e-002
,,,9.50000000e-010,-1.88000004e-002
,,,9.75000000e-010,-1.86765629e-002
,,,1.00000000e-009,-1.85468754e-002
,,,1.02500000e-009,-1.84093754e-002
,,,1.05000000e-009,-1.82656254e-002
,,,1.07500000e-009,-1.81140629e-002
,,,1.10000000e-009,-1.79531253e-002
,,,1.12500000e-009,-1.77843753e-002
,,,1.15000000e-009,-1.76000003e-002
,,,1.17500000e-009,-1.73484378e-002
,,,1.20000000e-009,-1.70750003e-002
,,,1.22500000e-009,-1.67812503e-002
,,,1.25000000e-009,-1.64734377e-002
,,,1.27500000e-009,-1.61562502e-002
,,,1.30000000e-009,-1.58359377e-002
,,,1.32500000e-009,-1.55171877e-002
,,,1.35000000e-009,-1.52000001e-002
,,,1.37500000e-009,-1.48609376e-002
,,,1.40000000e-009,-1.45218751e-002
,,,1.42500000e-009,-1.41890626e-002
,,,1.45000000e-009,-1.38687501e-002
,,,1.47500000e-009,-1.35671875e-002
,,,1.50000000e-009,-1.32875000e-002
,,,1.52500000e-009,-1.30328125e-002
,,,1.55000000e-009,-1.28000000e-002
,,,1.57500000e-009,-1.25750000e-002
,,,1.60000000e-009,-1.23484374e-002
,,,1.62500000e-009,-1.21187499e-002
,,,1.65000000e-009,-1.18812499e-002
,,,1.67500000e-009,-1.16328124e-002
,,,1.70000000e-009,-1.13703124e-002
,,,1.72500000e-009,-1.10937499e-002
,,,1.75000000e-009,-1.07999998e-002
,,,1.77500000e-009,-1.04906248e-002
,,,1.80000000e-009,-1.01546873e-002
,,,1.82500000e-009,-9.79843726e-003
,,,1.85000000e-009,-9.42812474e-003
,,,1.87500000e-009,-9.05468721e-003
,,,1.90000000e-009,-8.68593718e-003
,,,1.92500000e-009,-8.33281216e-003
,,,1.95000000e-009,-7.99999963e-003
,,,1.97500000e-009,-7.71249961e-003
,,,2.00000000e-009,-7.43749960e-003
,,,2.02500000e-009,-7.17343708e-003
,,,2.05000000e-009,-6.92187456e-003
,,,2.07500000e-009,-6.67968704e-003
,,,2.10000000e-009,-6.44531202e-003
,,,2.12500000e-009,-6.22031201e-003
,,,2.15000000e-009,-5.99999949e-003
,,,2.17500000e-009,-5.81249948e-003
,,,2.20000000e-009,-5.61562447e-003
,,,2.22500000e-009,-5.40781195e-003
,,,2.25000000e-009,-5.19531194e-003
,,,2.27500000e-009,-4.98124942e-003
,,,2.30000000e-009,-4.77343691e-003
,,,2.32500000e-009,-4.57812439e-003
,,,2.35000000e-009,-4.39999938e-003
,,,2.37500000e-009,-4.27656187e-003
,,,2.40000000e-009,-4.16249936e-003
,,,2.42500000e-009,-4.05468686e-003
,,,2.45000000e-009,-3.95156185e-003
,,,2.47500000e-009,-3.85624934e-003
,,,2.50000000e-009,-3.76562434e-003
,,,2.52500000e-009,-3.67968683e-003
,,,2.55000000e-009,-3.59999932e-003
,,,2.57500000e-009,-3.55781182e-003
,,,2.60000000e-009,-3.50937432e-003
,,,2.62500000e-009,-3.45468681e-003
,,,2.65000000e-009,-3.39843681e-003
,,,2.67500000e-009,-3.34062431e-003
,,,2.70000000e-009,-3.28749930e-003
,,,2.72500000e-009,-3.24062430e-003
,,,2.75000000e-009,-3.19999930e-003
,,,2.77500000e-009,-3.19374929e-003
,,,2.80000000e-009,-3.18124929e-003
,,,2.82500000e-009,-3.15781179e-003
,,,2.85000000e-009,-3.12031179e-003
,,,2.87500000e-009,-3.06718679e-003
,,,2.90000000e-009,-2.99687428e-003
,,,2.92500000e-009,-2.90624927e-003
,,,2.95000000e-009,-2.79999927e-003
,,,2.97500000e-009,-2.69843676e-003
,,,3.00000000e-009,-2.58124925e-003
,,,3.02500000e-009,-2.45781174e-003
,,,3.05000000e-009,-2.33281173e-003
,,,3.07500000e-009,-2.21718673e-003
,,,3.10000000e-009,-2.11874922e-003
,,,3.12500000e-009,-2.04531171e-003
,,,3.15000000e-009,-1.99999921e-003
,,,3.17500000e-009,-2.00312421e-003
,,,3.20000000e-009,-2.03124921e-003
,,,3.22500000e-009,-2.07968672e-003
,,,3.25000000e-009,-2.14374922e-003
,,,3.27500000e-009,-2.21249923e-003
,,,3.30000000e-009,-2.28281173e-003
,,,3.32500000e-009,-2.34687423e-003
,,,3.35000000e-009,-2.39999924e-003
,,,3.37500000e-009,-2.44062424e-003
,,,3.40000000e-009,-2.46249924e-003
,,,3.42500000e-009,-2.46562424e-003
,,,3.45000000e-009,-2.45781174e-003
,,,3.47500000e-009,-2.44062424e-003
,,,3.50000000e-009,-2.42187424e-003
,,,3.52500000e-009,-2.40781174e-003
,,,3.55000000e-009,-2.39999924e-003
,,,3.57500000e-009,-2.40156174e-003
,,,3.60000000e-009,-2.40937424e-003
,,,3.62500000e-009,-2.42031174e-003
,,,3.65000000e-009,-2.43124924e-003
,,,3.67500000e-009,-2.43906174e-003
,,,3.70000000e-009,-2.43906174e-003
,,,3.72500000e-009,-2.42656174e-003
,,,3.75000000e-009,-2.39999924e-003
,,,3.77500000e-009,-2.35468674e-003
,,,3.80000000e-009,-2.29687423e-003
,,,3.82500000e-009,-2.22968673e-003
,,,3.85000000e-009,-2.16093672e-003
,,,3.87500000e-009,-2.09843672e-003
,,,3.90000000e-009,-2.04843671e-003
,,,3.92500000e-009,-2.01406171e-003
,,,3.95000000e-009,-1.99999921e-003
,,,3.97500000e-009,-2.00156171e-003
,,,4.00000000e-009,-2.01562421e-003
,,,4.02500000e-009,-2.03749921e-003
,,,4.05000000e-009,-2.05937421e-003
,,,4.07500000e-009,-2.07187422e-003
,,,4.10000000e-009,-2.07031172e-003
,,,4.12500000e-009,-2.04843671e-003
,,,4.15000000e-009,-1.99999921e-003
,,,4.17500000e-009,-1.92031170e-003
,,,4.20000000e-009,-1.81874920e-003
,,,4.22500000e-009,-1.69999919e-003
,,,4.25000000e-009,-1.57656168e-003
,,,4.27500000e-009,-1.45624917e-003
,,,4.30000000e-009,-1.34843666e-003
,,,4.32500000e-009,-1.26093666e-003
,,,4.35000000e-009,-1.19999915e-003
,,,4.37500000e-009,-1.16718665e-003
,,,4.40000000e-009,-1.15781165e-003
,,,4.42500000e-009,-1.16562415e-003
,,,4.45000000e-009,-1.18593665e-003
,,,4.47500000e-009,-1.20781165e-003
,,,4.50000000e-009,-1.22187416e-003
,,,4.52500000e-009,-1.22187416e-003
,,,4.55000000e-009,-1.19999915e-003
,,,4.57500000e-009,-1.15468665e-003
,,,4.60000000e-009,-1.08281165e-003
,,,4.62500000e-009,-9.85936638e-004
,,,4.65000000e-009,-8.70311630e-004
,,,4.67500000e-009,-7.46874122e-004
,,,4.70000000e-009,-6.20311613e-004
,,,4.72500000e-009,-5.03124104e-004
,,,4.75000000e-009,-3.99999097e-004
,,,4.77500000e-009,-3.26561592e-004
,,,4.80000000e-009,-2.76561588e-004
,,,4.82500000e-009,-2.51561586e-004
,,,4.85000000e-009,-2.48436586e-004
,,,4.87500000e-009,-2.67186588e-004
,,,4.90000000e-009,-3.03124090e-004
,,,4.92500000e-009,-3.48436593e-004
,,,4.95000000e-009,-3.99999097e-004
,,,4.97500000e-009,-4.57811601e-004
,,,5.00000000e-009,-5.04686604e-004
,,,5.02500000e-009,-5.35936607e-004
,,,5.05000000e-009,-5.49999108e-004
,,,5.07500000e-009,-5.42186607e-004
,,,5.10000000e-009,-5.14061605e-004
,,,5.12500000e-009,-4.65624102e-004
,,,5.15000000e-009,-3.99999097e-004
,,,5.17500000e-009,-3.29686592e-004
,,,5.20000000e-009,-2.53124087e-004
,,,5.22500000e-009,-1.74999081e-004
,,,5.25000000e-009,-1.03124076e-004
,,,5.27500000e-009,-4.53115719e-005
,,,5.30000000e-009,-6.24906912e-006
,,,5.32500000e-009,9.37593199e-006
,,,5.35000000e-009,9.31322575e-010
,,,5.37500000e-009,-4.06240716e-005
,,,5.40000000e-009,-9.84365756e-005
,,,5.42500000e-009,-1.67186581e-004
,,,5.45000000e-009,-2.39061586e-004
,,,5.47500000e-009,-3.04686590e-004
,,,5.50000000e-009,-3.57811594e-004
,,,5.52500000e-009,-3.92186596e-004
,,,5.55000000e-009,-3.99999097e-004
,,,5.57500000e-009,-3.89061596e-004
,,,5.60000000e-009,-3.54686594e-004
,,,5.62500000e-009,-2.99999090e-004
,,,5.65000000e-009,-2.31249085e-004
,,,5.67500000e-009,-1.59374080e-004
,,,5.70000000e-009,-9.21865752e-005
,,,5.72500000e-009,-3.74990713e-005
,,,5.75000000e-009,9.31322575e-010
,,,5.77500000e-009,6.25093176e-006
,,,5.80000000e-009,-1.24990696e-005
,,,5.82500000e-009,-5.31240724e-005
,,,5.85000000e-009,-1.12499077e-004
