RawData/WithScintilator/R7_2pt2B_15mV/wave013_Ch2.csv

"Record Length",1000,"Points",-7.72500000e-009,2.17188447e-004
"Sample Interval",2.50000000e-011,s,-7.70000000e-009,1.43750941e-004
"Trigger Point",309,"Samples",-7.67500000e-009,7.81259369e-005
"Trigger Time",2.68666667e-012,s,-7.65000000e-009,2.81259333e-005
"",,,-7.62500000e-009,9.31322575e-010
"Horizontal Offset",-7.72500000e-009,s,-7.60000000e-009,-1.56156879e-006
,,,-7.57500000e-009,2.50009331e-005
,,,-7.55000000e-009,7.18759364e-005
,,,-7.52500000e-009,1.34375941e-004
,,,-7.50000000e-009,2.06250946e-004
,,,-7.47500000e-009,2.78125951e-004
,,,-7.45000000e-009,3.45313456e-004
,,,-7.42500000e-009,4.00000960e-004
,,,-7.40000000e-009,4.37500962e-004
,,,-7.37500000e-009,4.57813464e-004
,,,-7.35000000e-009,4.60938464e-004
,,,-7.32500000e-009,4.53125963e-004
,,,-7.30000000e-009,4.39063462e-004
,,,-7.27500000e-009,4.21875961e-004
,,,-7.25000000e-009,4.07813460e-004
,,,-7.22500000e-009,4.00000960e-004
,,,-7.20000000e-009,4.00000960e-004
,,,-7.17500000e-009,4.06250960e-004
,,,-7.15000000e-009,4.18750961e-004
,,,-7.12500000e-009,4.31250962e-004
,,,-7.10000000e-009,4.40625963e-004
,,,-7.07500000e-009,4.40625963e-004
,,,-7.05000000e-009,4.28125962e-004
,,,-7.02500000e-009,4.00000960e-004
,,,-7.00000000e-009,3.56250957e-004
,,,-6.97500000e-009,3.01563453e-004
,,,-6.95000000e-009,2.39063448e-004
,,,-6.92500000e-009,1.73438444e-004
,,,-6.90000000e-009,1.10938439e-004
,,,-6.87500000e-009,5.78134354e-005
,,,-6.85000000e-009,1.87509326e-005
,,,-6.82500000e-009,9.31322575e-010
,,,-6.80000000e-009,3.12593154e-006
,,,-6.77500000e-009,2.81259333e-005
,,,-6.75000000e-009,7.18759364e-005
,,,-6.72500000e-009,1.29688441e-004
,,,-6.70000000e-009,1.96875945e-004
,,,-6.67500000e-009,2.67188450e-004
,,,-6.65000000e-009,3.37500955e-004
,,,-6.62500000e-009,4.00000960e-004
,,,-6.60000000e-009,4.48438463e-004
,,,-6.57500000e-009,4.82813465e-004
,,,-6.55000000e-009,5.01563467e-004
,,,-6.52500000e-009,5.03125967e-004
,,,-6.50000000e-009,4.92188466e-004
,,,-6.47500000e-009,4.68750965e-004
,,,-6.45000000e-009,4.35938462e-004
,,,-6.42500000e-009,4.00000960e-004
,,,-6.40000000e-009,3.62500957e-004
,,,-6.37500000e-009,3.29688455e-004
,,,-6.35000000e-009,3.06250953e-004
,,,-6.32500000e-009,2.95313452e-004
,,,-6.30000000e-009,2.96875952e-004
,,,-6.27500000e-009,3.15625954e-004
,,,-6.25000000e-009,3.50000956e-004
,,,-6.22500000e-009,4.00000960e-004
,,,-6.20000000e-009,4.57813464e-004
,,,-6.17500000e-009,5.23438468e-004
,,,-6.15000000e-009,5.90625973e-004
,,,-6.12500000e-009,6.54688478e-004
,,,-6.10000000e-009,7.12500982e-004
,,,-6.07500000e-009,7.57813485e-004
,,,-6.05000000e-009,7.87500987e-004
,,,-6.02500000e-009,8.00000988e-004
,,,-6.00000000e-009,7.84375987e-004
,,,-5.97500000e-009,7.50000984e-004
,,,-5.95000000e-009,7.01563481e-004
,,,-5.92500000e-009,6.42188477e-004
,,,-5.90000000e-009,5.76563472e-004
,,,-5.87500000e-009,5.10938467e-004
,,,-5.85000000e-009,4.50000963e-004
,,,-5.82500000e-009,4.00000960e-004
,,,-5.80000000e-009,3.54688456e-004
,,,-5.77500000e-009,3.26563454e-004
,,,-5.75000000e-009,3.12500953e-004
,,,-5.72500000e-009,3.12500953e-004
,,,-5.70000000e-009,3.23438454e-004
,,,-5.67500000e-009,3.43750956e-004
,,,-5.65000000e-009,3.70313458e-004
,,,-5.62500000e-009,4.00000960e-004
,,,-5.60000000e-009,4.21875961e-004
,,,-5.57500000e-009,4.40625963e-004
,,,-5.55000000e-009,4.51563463e-004
,,,-5.52500000e-009,4.54688464e-004
,,,-5.50000000e-009,4.51563463e-004
,,,-5.47500000e-009,4.40625963e-004
,,,-5.45000000e-009,4.23438461e-004
,,,-5.42500000e-009,4.00000960e-004
,,,-5.40000000e-009,3.65625957e-004
,,,-5.37500000e-009,3.25000954e-004
,,,-5.35000000e-009,2.81250951e-004
,,,-5.32500000e-009,2.31250948e-004
,,,-5.30000000e-009,1.78125944e-004
,,,-5.27500000e-009,1.21875940e-004
,,,-5.25000000e-009,6.09384356e-005
,,,-5.22500000e-009,9.31322575e-010
,,,-5.20000000e-009,-5.93740729e-005
,,,-5.17500000e-009,-1.17186577e-004
,,,-5.15000000e-009,-1.74999081e-004
,,,-5.12500000e-009,-2.28124085e-004
,,,-5.10000000e-009,-2.78124088e-004
,,,-5.07500000e-009,-3.24999092e-004
,,,-5.05000000e-009,-3.65624095e-004
,,,-5.02500000e-009,-3.99999097e-004
,,,-5.00000000e-009,-4.21874099e-004
,,,-4.97500000e-009,-4.37499100e-004
,,,-4.95000000e-009,-4.45311600e-004
,,,-4.92500000e-009,-4.48436600e-004
,,,-4.90000000e-009,-4.43749100e-004
,,,-4.87500000e-009,-4.34374099e-004
,,,-4.85000000e-009,-4.18749098e-004
,,,-4.82500000e-009,-3.99999097e-004
,,,-4.80000000e-009,-3.76561595e-004
,,,-4.77500000e-009,-3.54686594e-004
,,,-4.75000000e-009,-3.37499093e-004
,,,-4.72500000e-009,-3.28124092e-004
,,,-4.70000000e-009,-3.29686592e-004
,,,-4.67500000e-009,-3.43749093e-004
,,,-4.65000000e-009,-3.67186595e-004
,,,-4.62500000e-009,-3.99999097e-004
,,,-4.60000000e-009,-4.31249099e-004
,,,-4.57500000e-009,-4.62499101e-004
,,,-4.55000000e-009,-4.90624103e-004
,,,-4.52500000e-009,-5.07811605e-004
,,,-4.50000000e-009,-5.12499105e-004
,,,-4.47500000e-009,-4.96874104e-004
,,,-4.45000000e-009,-4.60936601e-004
,,,-4.42500000e-009,-3.99999097e-004
,,,-4.40000000e-009,-3.12499091e-004
,,,-4.37500000e-009,-2.06249083e-004
,,,-4.35000000e-009,-9.06240751e-005
,,,-4.32500000e-009,2.96884334e-005
,,,-4.30000000e-009,1.46875942e-004
,,,-4.27500000e-009,2.51563449e-004
,,,-4.25000000e-009,3.37500955e-004
,,,-4.22500000e-009,4.00000960e-004
,,,-4.20000000e-009,4.28125962e-004
,,,-4.17500000e-009,4.28125962e-004
,,,-4.15000000e-009,3.98438460e-004
,,,-4.12500000e-009,3.43750956e-004
,,,-4.10000000e-009,2.70313450e-004
,,,-4.07500000e-009,1.82813444e-004
,,,-4.05000000e-009,9.06259377e-005
,,,-4.02500000e-009,9.31322575e-010
,,,-4.00000000e-009,-8.43740746e-005
,,,-3.97500000e-009,-1.48436579e-004
,,,-3.95000000e-009,-1.90624082e-004
,,,-3.92500000e-009,-2.07811583e-004
,,,-3.90000000e-009,-1.95311583e-004
,,,-3.87500000e-009,-1.56249080e-004
,,,-3.85000000e-009,-9.06240751e-005
,,,-3.82500000e-009,9.31322575e-010
,,,-3.80000000e-009,1.03125939e-004
,,,-3.77500000e-009,2.18750947e-004
,,,-3.75000000e-009,3.39063455e-004
,,,-3.72500000e-009,4.57813464e-004
,,,-3.70000000e-009,5.68750972e-004
,,,-3.67500000e-009,6.65625978e-004
,,,-3.65000000e-009,7.43750984e-004
,,,-3.62500000e-009,8.00000988e-004
,,,-3.60000000e-009,8.18750989e-004
,,,-3.57500000e-009,8.10938489e-004
,,,-3.55000000e-009,7.81250987e-004
,,,-3.52500000e-009,7.28125983e-004
,,,-3.50000000e-009,6.59375978e-004
,,,-3.47500000e-009,5.78125972e-004
,,,-3.45000000e-009,4.90625966e-004
,,,-3.42500000e-009,4.00000960e-004
,,,-3.40000000e-009,3.07813453e-004
,,,-3.37500000e-009,2.26563447e-004
,,,-3.35000000e-009,1.56250942e-004
,,,-3.32500000e-009,1.00000938e-004
,,,-3.30000000e-009,5.62509353e-005
,,,-3.27500000e-009,2.65634332e-005
,,,-3.25000000e-009,7.81343188e-006
,,,-3.22500000e-009,9.31322575e-010
,,,-3.20000000e-009,-3.12406890e-006
,,,-3.17500000e-009,9.31322575e-010
,,,-3.15000000e-009,4.68843165e-006
,,,-3.12500000e-009,9.37593199e-006
,,,-3.10000000e-009,1.25009322e-005
,,,-3.07500000e-009,1.40634323e-005
,,,-3.05000000e-009,9.37593199e-006
,,,-3.02500000e-009,9.31322575e-010
,,,-3.00000000e-009,-1.87490700e-005
,,,-2.97500000e-009,-4.37490718e-005
,,,-2.95000000e-009,-7.96865743e-005
,,,-2.92500000e-009,-1.26561578e-004
,,,-2.90000000e-009,-1.84374082e-004
,,,-2.87500000e-009,-2.49999086e-004
,,,-2.85000000e-009,-3.23436592e-004
,,,-2.82500000e-009,-3.99999097e-004
,,,-2.80000000e-009,-4.70311602e-004
,,,-2.77500000e-009,-5.29686606e-004
,,,-2.75000000e-009,-5.73436609e-004
,,,-2.72500000e-009,-5.95311611e-004
,,,-2.70000000e-009,-5.92186611e-004
,,,-2.67500000e-009,-5.57811608e-004
,,,-2.65000000e-009,-4.93749104e-004
,,,-2.62500000e-009,-3.99999097e-004
,,,-2.60000000e-009,-2.76561588e-004
,,,-2.57500000e-009,-1.39061579e-004
,,,-2.55000000e-009,1.56343143e-006
,,,-2.52500000e-009,1.34375941e-004
,,,-2.50000000e-009,2.50000949e-004
,,,-2.47500000e-009,3.35938455e-004
,,,-2.45000000e-009,3.87500959e-004
,,,-2.42500000e-009,4.00000960e-004
,,,-2.40000000e-009,3.67188457e-004
,,,-2.37500000e-009,2.95313452e-004
,,,-2.35000000e-009,1.93750945e-004
,,,-2.32500000e-009,7.03134363e-005
,,,-2.30000000e-009,-6.24990731e-005
,,,-2.27500000e-009,-1.92186582e-004
,,,-2.25000000e-009,-3.07811590e-004
,,,-2.22500000e-009,-3.99999097e-004
,,,-2.20000000e-009,-4.57811601e-004
,,,-2.17500000e-009,-4.76561602e-004
,,,-2.15000000e-009,-4.59374101e-004
,,,-2.12500000e-009,-4.09374098e-004
,,,-2.10000000e-009,-3.31249092e-004
,,,-2.07500000e-009,-2.31249085e-004
,,,-2.05000000e-009,-1.18749077e-004
,,,-2.02500000e-009,9.31322575e-010
,,,-2.00000000e-009,1.07813439e-004
,,,-1.97500000e-009,2.04688446e-004
,,,-1.95000000e-009,2.85938452e-004
,,,-1.92500000e-009,3.46875956e-004
,,,-1.90000000e-009,3.87500959e-004
,,,-1.87500000e-009,4.09375960e-004
,,,-1.85000000e-009,4.12500961e-004
,,,-1.82500000e-009,4.00000960e-004
,,,-1.80000000e-009,3.60938457e-004
,,,-1.77500000e-009,3.10938453e-004
,,,-1.75000000e-009,2.54688449e-004
,,,-1.72500000e-009,1.95313445e-004
,,,-1.70000000e-009,1.37500941e-004
,,,-1.67500000e-009,8.43759373e-005
,,,-1.65000000e-009,3.75009340e-005
,,,-1.62500000e-009,9.31322575e-010
,,,-1.60000000e-009,-5.15615723e-005
,,,-1.57500000e-009,-9.06240751e-005
,,,-1.55000000e-009,-1.18749077e-004
,,,-1.52500000e-009,-1.29686578e-004
,,,-1.50000000e-009,-1.21874077e-004
,,,-1.47500000e-009,-9.84365756e-005
,,,-1.45000000e-009,-5.62490727e-005
,,,-1.42500000e-009,9.31322575e-010
,,,-1.40000000e-009,2.34384330e-005
,,,-1.37500000e-009,4.37509344e-005
,,,-1.35000000e-009,5.78134354e-005
,,,-1.32500000e-009,6.40634359e-005
,,,-1.30000000e-009,6.25009357e-005
,,,-1.27500000e-009,5.15634350e-005
,,,-1.25000000e-009,2.96884334e-005
,,,-1.22500000e-009,9.31322575e-010
,,,-1.20000000e-009,-1.01561576e-004
,,,-1.17500000e-009,-2.18749084e-004
,,,-1.15000000e-009,-3.42186593e-004
,,,-1.12500000e-009,-4.65624102e-004
,,,-1.10000000e-009,-5.78124110e-004
,,,-1.07500000e-009,-6.74999116e-004
,,,-1.05000000e-009,-7.48436622e-004
,,,-1.02500000e-009,-7.99999125e-004
,,,-1.00000000e-009,-8.98436632e-004
,,,-9.75000000e-010,-9.90624139e-004
,,,-9.50000000e-010,-1.07968665e-003
,,,-9.25000000e-010,-1.16718665e-003
,,,-9.00000000e-010,-1.25781166e-003
,,,-8.75000000e-010,-1.35624916e-003
,,,-8.50000000e-010,-1.46718667e-003
,,,-8.25000000e-010,-1.59999918e-003
,,,-8.00000000e-010,-1.82499920e-003
,,,-7.75000000e-010,-2.09531172e-003
,,,-7.50000000e-010,-2.40624924e-003
,,,-7.25000000e-010,-2.75468676e-003
,,,-7.00000000e-010,-3.13593679e-003
,,,-6.75000000e-010,-3.54062432e-003
,,,-6.50000000e-010,-3.96249935e-003
,,,-6.25000000e-010,-4.39999938e-003
,,,-6.00000000e-010,-4.88906191e-003
,,,-5.75000000e-010,-5.39062445e-003
,,,-5.50000000e-010,-5.90156199e-003
,,,-5.25000000e-010,-6.41562452e-003
,,,-5.00000000e-010,-6.92656206e-003
,,,-4.75000000e-010,-7.42968709e-003
,,,-4.50000000e-010,-7.92031213e-003
,,,-4.25000000e-010,-8.39999966e-003
,,,-4.00000000e-010,-8.87031220e-003
,,,-3.75000000e-010,-9.33749973e-003
,,,-3.50000000e-010,-9.80156226e-003
,,,-3.25000000e-010,-1.02593748e-002
,,,-3.00000000e-010,-1.07109373e-002
,,,-2.75000000e-010,-1.11531249e-002
,,,-2.50000000e-010,-1.15843749e-002
,,,-2.25000000e-010,-1.19999999e-002
,,,-2.00000000e-010,-1.23718749e-002
,,,-1.75000000e-010,-1.27390625e-002
,,,-1.50000000e-010,-1.31031250e-002
,,,-1.25000000e-010,-1.34640625e-002
,,,-1.00000000e-010,-1.38171875e-002
,,,-7.50000000e-011,-1.41609376e-002
,,,-5.00000000e-011,-1.44906251e-002
,,,-2.50000000e-011,-1.48000001e-002
,,,0.00000000e+000,-1.50343751e-002
,,,2.50000000e-011,-1.52593751e-002
,,,5.00000000e-011,-1.54781252e-002
,,,7.50000000e-011,-1.56875002e-002
,,,1.00000000e-010,-1.58875002e-002
,,,1.25000000e-010,-1.60750002e-002
,,,1.50000000e-010,-1.62468752e-002
,,,1.75000000e-010,-1.64000002e-002
,,,2.00000000e-010,-1.64593752e-002
,,,2.25000000e-010,-1.65125002e-002
,,,2.50000000e-010,-1.65625002e-002
,,,2.75000000e-010,-1.66140627e-002
,,,3.00000000e-010,-1.66656252e-002
,,,3.25000000e-010,-1.67156253e-002
,,,3.50000000e-010,-1.67625003e-002
,,,3.75000000e-010,-1.68000003e-002
,,,4.00000000e-010,-1.67484378e-002
,,,4.25000000e-010,-1.66953128e-002
,,,4.50000000e-010,-1.66421877e-002
,,,4.75000000e-010,-1.65921877e-002
,,,5.00000000e-010,-1.65453127e-002
,,,5.25000000e-010,-1.64984377e-002
,,,5.50000000e-010,-1.64515627e-002
,,,5.75000000e-010,-1.64000002e-002
,,,6.00000000e-010,-1.62703127e-002
,,,6.25000000e-010,-1.61406252e-002
,,,6.50000000e-010,-1.60156252e-002
,,,6.75000000e-010,-1.59031252e-002
,,,7.00000000e-010,-1.58031252e-002
,,,7.25000000e-010,-1.57203127e-002
,,,7.50000000e-010,-1.56531252e-002
,,,7.75000000e-010,-1.56000002e-002
,,,8.00000000e-010,-1.55000002e-002
,,,8.25000000e-010,-1.54031252e-002
,,,8.50000000e-010,-1.53109377e-002
,,,8.75000000e-010,-1.52203126e-002
,,,9.00000000e-010,-1.51281251e-002
,,,9.25000000e-010,-1.50296876e-002
,,,9.50000000e-010,-1.49234376e-002
,,,9.75000000e-010,-1.48000001e-002
,,,1.00000000e-009,-1.46093751e-002
,,,1.02500000e-009,-1.43921876e-002
,,,1.05000000e-009,-1.41515626e-002
,,,1.07500000e-009,-1.38953126e-002
,,,1.10000000e-009,-1.36281250e-002
,,,1.12500000e-009,-1.33546875e-002
,,,1.15000000e-009,-1.30781250e-002
,,,1.17500000e-009,-1.28000000e-002
,,,1.20000000e-009,-1.24875000e-002
,,,1.22500000e-009,-1.21609374e-002
,,,1.25000000e-009,-1.18249999e-002
,,,1.27500000e-009,-1.14765624e-002
,,,1.30000000e-009,-1.11203124e-002
,,,1.32500000e-009,-1.07531248e-002
,,,1.35000000e-009,-1.03796873e-002
,,,1.37500000e-009,-9.99999978e-003
,,,1.40000000e-009,-9.60624975e-003
,,,1.42500000e-009,-9.20468722e-003
,,,1.45000000e-009,-8.80624969e-003
,,,1.47500000e-009,-8.42031216e-003
,,,1.50000000e-009,-8.05781214e-003
,,,1.52500000e-009,-7.72968712e-003
,,,1.55000000e-009,-7.44218710e-003
,,,1.57500000e-009,-7.19999958e-003
,,,1.60000000e-009,-7.01093706e-003
,,,1.62500000e-009,-6.84999955e-003
,,,1.65000000e-009,-6.70624954e-003
,,,1.67500000e-009,-6.57343703e-003
,,,1.70000000e-009,-6.44531202e-003
,,,1.72500000e-009,-6.31093702e-003
,,,1.75000000e-009,-6.16406200e-003
,,,1.77500000e-009,-5.99999949e-003
,,,1.80000000e-009,-5.82812448e-003
,,,1.82500000e-009,-5.62031197e-003
,,,1.85000000e-009,-5.37812445e-003
,,,1.87500000e-009,-5.11249943e-003
,,,1.90000000e-009,-4.83124941e-003
,,,1.92500000e-009,-4.54531189e-003
,,,1.95000000e-009,-4.26562437e-003
,,,1.97500000e-009,-3.99999935e-003
,,,2.00000000e-009,-3.78437434e-003
,,,2.02500000e-009,-3.57812432e-003
,,,2.05000000e-009,-3.37656181e-003
,,,2.07500000e-009,-3.18124929e-003
,,,2.10000000e-009,-2.98749928e-003
,,,2.12500000e-009,-2.79218677e-003
,,,2.15000000e-009,-2.59687425e-003
,,,2.17500000e-009,-2.39999924e-003
,,,2.20000000e-009,-2.23749923e-003
,,,2.22500000e-009,-2.06562421e-003
,,,2.25000000e-009,-1.88749920e-003
,,,2.27500000e-009,-1.71249919e-003
,,,2.30000000e-009,-1.54843668e-003
,,,2.32500000e-009,-1.40312417e-003
,,,2.35000000e-009,-1.28593666e-003
,,,2.37500000e-009,-1.19999915e-003
,,,2.40000000e-009,-1.18437415e-003
,,,2.42500000e-009,-1.18906165e-003
,,,2.45000000e-009,-1.20624915e-003
,,,2.47500000e-009,-1.22499916e-003
,,,2.50000000e-009,-1.24062416e-003
,,,2.52500000e-009,-1.24531166e-003
,,,2.55000000e-009,-1.23281166e-003
,,,2.57500000e-009,-1.19999915e-003
,,,2.60000000e-009,-1.17187415e-003
,,,2.62500000e-009,-1.12187415e-003
,,,2.65000000e-009,-1.05312414e-003
,,,2.67500000e-009,-9.78124138e-004
,,,2.70000000e-009,-9.04686633e-004
,,,2.72500000e-009,-8.45311629e-004
,,,2.75000000e-009,-8.09374126e-004
,,,2.77500000e-009,-7.99999125e-004
,,,2.80000000e-009,-8.42186628e-004
,,,2.82500000e-009,-9.03124133e-004
,,,2.85000000e-009,-9.76561638e-004
,,,2.87500000e-009,-1.05156164e-003
,,,2.90000000e-009,-1.12031165e-003
,,,2.92500000e-009,-1.17343665e-003
,,,2.95000000e-009,-1.20156165e-003
,,,2.97500000e-009,-1.19999915e-003
,,,3.00000000e-009,-1.18281165e-003
,,,3.02500000e-009,-1.13593665e-003
,,,3.05000000e-009,-1.06718664e-003
,,,3.07500000e-009,-9.89061639e-004
,,,3.10000000e-009,-9.10936633e-004
,,,3.12500000e-009,-8.46874129e-004
,,,3.15000000e-009,-8.07811626e-004
,,,3.17500000e-009,-7.99999125e-004
,,,3.20000000e-009,-8.37499128e-004
,,,3.22500000e-009,-9.07811633e-004
,,,3.25000000e-009,-1.00781164e-003
,,,3.27500000e-009,-1.12812415e-003
,,,3.30000000e-009,-1.25937416e-003
,,,3.32500000e-009,-1.38906167e-003
,,,3.35000000e-009,-1.50624918e-003
,,,3.37500000e-009,-1.59999918e-003
,,,3.40000000e-009,-1.65624919e-003
,,,3.42500000e-009,-1.67656169e-003
,,,3.45000000e-009,-1.65937419e-003
,,,3.47500000e-009,-1.60937418e-003
,,,3.50000000e-009,-1.53124918e-003
,,,3.52500000e-009,-1.43124917e-003
,,,3.55000000e-009,-1.31874916e-003
,,,3.57500000e-009,-1.19999915e-003
,,,3.60000000e-009,-1.08281165e-003
,,,3.62500000e-009,-9.74999138e-004
,,,3.65000000e-009,-8.85936631e-004
,,,3.67500000e-009,-8.20311627e-004
,,,3.70000000e-009,-7.78124124e-004
,,,3.72500000e-009,-7.60936623e-004
,,,3.75000000e-009,-7.70311623e-004
,,,3.77500000e-009,-7.99999125e-004
,,,3.80000000e-009,-8.46874129e-004
,,,3.82500000e-009,-9.03124133e-004
,,,3.85000000e-009,-9.68749137e-004
,,,3.87500000e-009,-1.03281164e-003
,,,3.90000000e-009,-1.09374915e-003
,,,3.92500000e-009,-1.14374915e-003
,,,3.95000000e-009,-1.18124915e-003
,,,3.97500000e-009,-1.19999915e-003
,,,4.00000000e-009,-1.19531165e-003
,,,4.02500000e-009,-1.17187415e-003
,,,4.05000000e-009,-1.12968665e-003
,,,4.07500000e-009,-1.07343664e-003
,,,4.10000000e-009,-1.00937414e-003
,,,4.12500000e-009,-9.39061635e-004
,,,4.15000000e-009,-8.68749130e-004
,,,4.17500000e-009,-7.99999125e-004
,,,4.20000000e-009,-7.35936621e-004
,,,4.22500000e-009,-6.79686617e-004
,,,4.25000000e-009,-6.28124113e-004
,,,4.27500000e-009,-5.81249110e-004
,,,4.30000000e-009,-5.39061607e-004
,,,4.32500000e-009,-4.95311604e-004
,,,4.35000000e-009,-4.49999101e-004
,,,4.37500000e-009,-3.99999097e-004
,,,4.40000000e-009,-3.51561594e-004
,,,4.42500000e-009,-2.98436590e-004
,,,4.45000000e-009,-2.42186586e-004
,,,4.47500000e-009,-1.84374082e-004
,,,4.50000000e-009,-1.28124078e-004
,,,4.52500000e-009,-7.65615741e-005
,,,4.55000000e-009,-3.43740711e-005
,,,4.57500000e-009,9.31322575e-010
,,,4.60000000e-009,1.40634323e-005
,,,4.62500000e-009,2.03134328e-005
,,,4.65000000e-009,2.03134328e-005
,,,4.67500000e-009,1.40634323e-005
,,,4.70000000e-009,6.25093176e-006
,,,4.72500000e-009,9.31322575e-010
,,,4.75000000e-009,-3.12406890e-006
,,,4.77500000e-009,9.31322575e-010
,,,4.80000000e-009,3.12593154e-006
,,,4.82500000e-009,1.09384321e-005
,,,4.85000000e-009,2.18759329e-005
,,,4.87500000e-009,3.12509335e-005
,,,4.90000000e-009,3.75009340e-005
,,,4.92500000e-009,3.59384339e-005
,,,4.95000000e-009,2.34384330e-005
,,,4.97500000e-009,9.31322575e-010
,,,5.00000000e-009,-4.21865717e-005
,,,5.02500000e-009,-9.21865752e-005
,,,5.05000000e-009,-1.48436579e-004
,,,5.07500000e-009,-2.07811583e-004
,,,5.10000000e-009,-2.65624087e-004
,,,5.12500000e-009,-3.18749091e-004
,,,5.15000000e-009,-3.65624095e-004
,,,5.17500000e-009,-3.99999097e-004
,,,5.20000000e-009,-4.24999099e-004
,,,5.22500000e-009,-4.35936600e-004
,,,5.25000000e-009,-4.37499100e-004
,,,5.27500000e-009,-4.31249099e-004
,,,5.30000000e-009,-4.21874099e-004
,,,5.32500000e-009,-4.10936598e-004
,,,5.35000000e-009,-4.03124097e-004
,,,5.37500000e-009,-3.99999097e-004
,,,5.40000000e-009,-4.03124097e-004
,,,5.42500000e-009,-4.10936598e-004
,,,5.45000000e-009,-4.21874099e-004
,,,5.47500000e-009,-4.31249099e-004
,,,5.50000000e-009,-4.37499100e-004
,,,5.52500000e-009,-4.35936600e-004
,,,5.55000000e-009,-4.24999099e-004
,,,5.57500000e-009,-3.99999097e-004
,,,5.60000000e-009,-3.62499094e-004
,,,5.62500000e-009,-3.15624091e-004
,,,5.65000000e-009,-2.59374087e-004
,,,5.67500000e-009,-1.99999083e-004
,,,5.70000000e-009,-1.42186579e-004
,,,5.72500000e-009,-8.59365748e-005
,,,5.75000000e-009,-3.90615714e-005
,,,5.77500000e-009,9.31322575e-010
,,,5.80000000e-009,2.03134328e-005
,,,5.82500000e-009,3.12509335e-005
,,,5.85000000e-009,2.96884334e-005
,,,5.87500000e-009,2.34384330e-005
,,,5.90000000e-009,1.25009322e-005
,,,5.92500000e-009,3.12593154e-006
,,,5.95000000e-009,-1.56156879e-006
