RawData/WithScintilator/R7_2pt2B_15mV/wave008_Ch2.csv

"Record Length",1000,"Points",-7.72500000e-009,9.31322575e-010
"Sample Interval",2.50000000e-011,s,-7.70000000e-009,4.06259342e-005
"Trigger Point",309,"Samples",-7.67500000e-009,6.56259360e-005
"Trigger Time",2.20328205e-011,s,-7.65000000e-009,7.50009366e-005
"",,,-7.62500000e-009,7.03134363e-005
"Horizontal Offset",-7.72500000e-009,s,-7.60000000e-009,5.78134354e-005
,,,-7.57500000e-009,3.90634341e-005
,,,-7.55000000e-009,1.71884325e-005
,,,-7.52500000e-009,9.31322575e-010
,,,-7.50000000e-009,-1.56240698e-005
,,,-7.47500000e-009,-2.34365703e-005
,,,-7.45000000e-009,-2.65615706e-005
,,,-7.42500000e-009,-2.49990704e-005
,,,-7.40000000e-009,-2.03115701e-005
,,,-7.37500000e-009,-1.24990696e-005
,,,-7.35000000e-009,-6.24906912e-006
,,,-7.32500000e-009,9.31322575e-010
,,,-7.30000000e-009,3.12593154e-006
,,,-7.27500000e-009,6.25093176e-006
,,,-7.25000000e-009,6.25093176e-006
,,,-7.22500000e-009,4.68843165e-006
,,,-7.20000000e-009,1.56343143e-006
,,,-7.17500000e-009,9.31322575e-010
,,,-7.15000000e-009,-1.56156879e-006
,,,-7.12500000e-009,9.31322575e-010
,,,-7.10000000e-009,1.56343143e-006
,,,-7.07500000e-009,6.25093176e-006
,,,-7.05000000e-009,1.09384321e-005
,,,-7.02500000e-009,1.56259324e-005
,,,-7.00000000e-009,1.87509326e-005
,,,-6.97500000e-009,1.87509326e-005
,,,-6.95000000e-009,1.25009322e-005
,,,-6.92500000e-009,9.31322575e-010
,,,-6.90000000e-009,-2.18740702e-005
,,,-6.87500000e-009,-5.15615723e-005
,,,-6.85000000e-009,-8.90615750e-005
,,,-6.82500000e-009,-1.37499078e-004
,,,-6.80000000e-009,-1.93749082e-004
,,,-6.77500000e-009,-2.59374087e-004
,,,-6.75000000e-009,-3.28124092e-004
,,,-6.72500000e-009,-3.99999097e-004
,,,-6.70000000e-009,-4.65624102e-004
,,,-6.67500000e-009,-5.21874106e-004
,,,-6.65000000e-009,-5.62499108e-004
,,,-6.62500000e-009,-5.82811610e-004
,,,-6.60000000e-009,-5.79686610e-004
,,,-6.57500000e-009,-5.48436607e-004
,,,-6.55000000e-009,-4.89061603e-004
,,,-6.52500000e-009,-3.99999097e-004
,,,-6.50000000e-009,-2.85936589e-004
,,,-6.47500000e-009,-1.54686580e-004
,,,-6.45000000e-009,-2.03115701e-005
,,,-6.42500000e-009,1.10938439e-004
,,,-6.40000000e-009,2.25000947e-004
,,,-6.37500000e-009,3.15625954e-004
,,,-6.35000000e-009,3.75000958e-004
,,,-6.32500000e-009,4.00000960e-004
,,,-6.30000000e-009,3.87500959e-004
,,,-6.27500000e-009,3.45313456e-004
,,,-6.25000000e-009,2.81250951e-004
,,,-6.22500000e-009,2.06250946e-004
,,,-6.20000000e-009,1.29688441e-004
,,,-6.17500000e-009,6.40634359e-005
,,,-6.15000000e-009,1.87509326e-005
,,,-6.12500000e-009,9.31322575e-010
,,,-6.10000000e-009,1.09384321e-005
,,,-6.07500000e-009,4.84384348e-005
,,,-6.05000000e-009,1.09375939e-004
,,,-6.02500000e-009,1.81250944e-004
,,,-6.00000000e-009,2.57813450e-004
,,,-5.97500000e-009,3.25000954e-004
,,,-5.95000000e-009,3.73438458e-004
,,,-5.92500000e-009,4.00000960e-004
,,,-5.90000000e-009,3.95313459e-004
,,,-5.87500000e-009,3.62500957e-004
,,,-5.85000000e-009,3.09375953e-004
,,,-5.82500000e-009,2.40625948e-004
,,,-5.80000000e-009,1.65625943e-004
,,,-5.77500000e-009,9.53134381e-005
,,,-5.75000000e-009,3.59384339e-005
,,,-5.72500000e-009,9.31322575e-010
,,,-5.70000000e-009,-1.24990696e-005
,,,-5.67500000e-009,3.12593154e-006
,,,-5.65000000e-009,4.37509344e-005
,,,-5.62500000e-009,1.04688439e-004
,,,-5.60000000e-009,1.79688444e-004
,,,-5.57500000e-009,2.57813450e-004
,,,-5.55000000e-009,3.32813455e-004
,,,-5.52500000e-009,4.00000960e-004
,,,-5.50000000e-009,4.45313463e-004
,,,-5.47500000e-009,4.71875965e-004
,,,-5.45000000e-009,4.82813465e-004
,,,-5.42500000e-009,4.79688465e-004
,,,-5.40000000e-009,4.64063464e-004
,,,-5.37500000e-009,4.43750963e-004
,,,-5.35000000e-009,4.20313461e-004
,,,-5.32500000e-009,4.00000960e-004
,,,-5.30000000e-009,3.79688458e-004
,,,-5.27500000e-009,3.67188457e-004
,,,-5.25000000e-009,3.60938457e-004
,,,-5.22500000e-009,3.60938457e-004
,,,-5.20000000e-009,3.67188457e-004
,,,-5.17500000e-009,3.78125958e-004
,,,-5.15000000e-009,3.89063459e-004
,,,-5.12500000e-009,4.00000960e-004
,,,-5.10000000e-009,4.03125960e-004
,,,-5.07500000e-009,4.03125960e-004
,,,-5.05000000e-009,4.01563460e-004
,,,-5.02500000e-009,3.98438460e-004
,,,-5.00000000e-009,3.96875959e-004
,,,-4.97500000e-009,3.95313459e-004
,,,-4.95000000e-009,3.95313459e-004
,,,-4.92500000e-009,4.00000960e-004
,,,-4.90000000e-009,4.01563460e-004
,,,-4.87500000e-009,4.06250960e-004
,,,-4.85000000e-009,4.10938460e-004
,,,-4.82500000e-009,4.15625961e-004
,,,-4.80000000e-009,4.18750961e-004
,,,-4.77500000e-009,4.18750961e-004
,,,-4.75000000e-009,4.12500961e-004
,,,-4.72500000e-009,4.00000960e-004
,,,-4.70000000e-009,3.75000958e-004
,,,-4.67500000e-009,3.42188456e-004
,,,-4.65000000e-009,3.01563453e-004
,,,-4.62500000e-009,2.53125949e-004
,,,-4.60000000e-009,1.98438445e-004
,,,-4.57500000e-009,1.35938441e-004
,,,-4.55000000e-009,6.87509362e-005
,,,-4.52500000e-009,9.31322575e-010
,,,-4.50000000e-009,-6.71865734e-005
,,,-4.47500000e-009,-1.32811578e-004
,,,-4.45000000e-009,-1.93749082e-004
,,,-4.42500000e-009,-2.49999086e-004
,,,-4.40000000e-009,-2.99999090e-004
,,,-4.37500000e-009,-3.42186593e-004
,,,-4.35000000e-009,-3.74999095e-004
,,,-4.32500000e-009,-3.99999097e-004
,,,-4.30000000e-009,-4.12499098e-004
,,,-4.27500000e-009,-4.18749098e-004
,,,-4.25000000e-009,-4.18749098e-004
,,,-4.22500000e-009,-4.15624098e-004
,,,-4.20000000e-009,-4.10936598e-004
,,,-4.17500000e-009,-4.06249097e-004
,,,-4.15000000e-009,-4.03124097e-004
,,,-4.12500000e-009,-3.99999097e-004
,,,-4.10000000e-009,-3.96874097e-004
,,,-4.07500000e-009,-3.95311597e-004
,,,-4.05000000e-009,-3.96874097e-004
,,,-4.02500000e-009,-3.99999097e-004
,,,-4.00000000e-009,-4.04686597e-004
,,,-3.97500000e-009,-4.07811598e-004
,,,-3.95000000e-009,-4.06249097e-004
,,,-3.92500000e-009,-3.99999097e-004
,,,-3.90000000e-009,-3.84374096e-004
,,,-3.87500000e-009,-3.59374094e-004
,,,-3.85000000e-009,-3.24999092e-004
,,,-3.82500000e-009,-2.81249089e-004
,,,-3.80000000e-009,-2.24999085e-004
,,,-3.77500000e-009,-1.59374080e-004
,,,-3.75000000e-009,-8.43740746e-005
,,,-3.72500000e-009,9.31322575e-010
,,,-3.70000000e-009,8.43759373e-005
,,,-3.67500000e-009,1.68750943e-004
,,,-3.65000000e-009,2.45313449e-004
,,,-3.62500000e-009,3.09375953e-004
,,,-3.60000000e-009,3.60938457e-004
,,,-3.57500000e-009,3.93750959e-004
,,,-3.55000000e-009,4.06250960e-004
,,,-3.52500000e-009,4.00000960e-004
,,,-3.50000000e-009,3.64063457e-004
,,,-3.47500000e-009,3.12500953e-004
,,,-3.45000000e-009,2.51563449e-004
,,,-3.42500000e-009,1.85938444e-004
,,,-3.40000000e-009,1.21875940e-004
,,,-3.37500000e-009,6.71884361e-005
,,,-3.35000000e-009,2.50009331e-005
,,,-3.32500000e-009,9.31322575e-010
,,,-3.30000000e-009,-1.56240698e-005
,,,-3.27500000e-009,-1.71865699e-005
,,,-3.25000000e-009,-7.81156923e-006
,,,-3.22500000e-009,7.81343188e-006
,,,-3.20000000e-009,2.03134328e-005
,,,-3.17500000e-009,2.65634332e-005
,,,-3.15000000e-009,2.03134328e-005
,,,-3.12500000e-009,9.31322575e-010
,,,-3.10000000e-009,-4.37490718e-005
,,,-3.07500000e-009,-9.99990758e-005
,,,-3.05000000e-009,-1.64061580e-004
,,,-3.02500000e-009,-2.31249085e-004
,,,-3.00000000e-009,-2.93749089e-004
,,,-2.97500000e-009,-3.46874093e-004
,,,-2.95000000e-009,-3.82811596e-004
,,,-2.92500000e-009,-3.99999097e-004
,,,-2.90000000e-009,-4.01561597e-004
,,,-2.87500000e-009,-3.89061596e-004
,,,-2.85000000e-009,-3.67186595e-004
,,,-2.82500000e-009,-3.43749093e-004
,,,-2.80000000e-009,-3.29686592e-004
,,,-2.77500000e-009,-3.29686592e-004
,,,-2.75000000e-009,-3.51561594e-004
,,,-2.72500000e-009,-3.99999097e-004
,,,-2.70000000e-009,-4.74999102e-004
,,,-2.67500000e-009,-5.71874109e-004
,,,-2.65000000e-009,-6.87499117e-004
,,,-2.62500000e-009,-8.10936626e-004
,,,-2.60000000e-009,-9.34374135e-004
,,,-2.57500000e-009,-1.04531164e-003
,,,-2.55000000e-009,-1.13749915e-003
,,,-2.52500000e-009,-1.19999915e-003
,,,-2.50000000e-009,-1.22187416e-003
,,,-2.47500000e-009,-1.21249915e-003
,,,-2.45000000e-009,-1.17343665e-003
,,,-2.42500000e-009,-1.11249915e-003
,,,-2.40000000e-009,-1.03749914e-003
,,,-2.37500000e-009,-9.54686636e-004
,,,-2.35000000e-009,-8.73436630e-004
,,,-2.32500000e-009,-7.99999125e-004
,,,-2.30000000e-009,-7.35936621e-004
,,,-2.27500000e-009,-6.92186618e-004
,,,-2.25000000e-009,-6.68749116e-004
,,,-2.22500000e-009,-6.67186616e-004
,,,-2.20000000e-009,-6.84374117e-004
,,,-2.17500000e-009,-7.15624119e-004
,,,-2.15000000e-009,-7.56249122e-004
,,,-2.12500000e-009,-7.99999125e-004
,,,-2.10000000e-009,-8.37499128e-004
,,,-2.07500000e-009,-8.68749130e-004
,,,-2.05000000e-009,-8.89061632e-004
,,,-2.02500000e-009,-8.98436632e-004
,,,-2.00000000e-009,-8.93749132e-004
,,,-1.97500000e-009,-8.74999131e-004
,,,-1.95000000e-009,-8.43749128e-004
,,,-1.92500000e-009,-7.99999125e-004
,,,-1.90000000e-009,-7.45311621e-004
,,,-1.87500000e-009,-6.84374117e-004
,,,-1.85000000e-009,-6.21874113e-004
,,,-1.82500000e-009,-5.60936608e-004
,,,-1.80000000e-009,-5.06249105e-004
,,,-1.77500000e-009,-4.60936601e-004
,,,-1.75000000e-009,-4.24999099e-004
,,,-1.72500000e-009,-3.99999097e-004
,,,-1.70000000e-009,-3.92186596e-004
,,,-1.67500000e-009,-3.93749097e-004
,,,-1.65000000e-009,-4.01561597e-004
,,,-1.62500000e-009,-4.12499098e-004
,,,-1.60000000e-009,-4.21874099e-004
,,,-1.57500000e-009,-4.24999099e-004
,,,-1.55000000e-009,-4.18749098e-004
,,,-1.52500000e-009,-3.99999097e-004
,,,-1.50000000e-009,-3.89061596e-004
,,,-1.47500000e-009,-3.65624095e-004
,,,-1.45000000e-009,-3.28124092e-004
,,,-1.42500000e-009,-2.79686588e-004
,,,-1.40000000e-009,-2.18749084e-004
,,,-1.37500000e-009,-1.49999079e-004
,,,-1.35000000e-009,-7.65615741e-005
,,,-1.32500000e-009,9.31322575e-010
,,,-1.30000000e-009,2.96884334e-005
,,,-1.27500000e-009,4.84384348e-005
,,,-1.25000000e-009,5.62509353e-005
,,,-1.22500000e-009,5.31259351e-005
,,,-1.20000000e-009,4.37509344e-005
,,,-1.17500000e-009,2.96884334e-005
,,,-1.15000000e-009,1.56259324e-005
,,,-1.12500000e-009,9.31322575e-010
,,,-1.10000000e-009,-7.81240742e-005
,,,-1.07500000e-009,-1.60936580e-004
,,,-1.05000000e-009,-2.40624086e-004
,,,-1.02500000e-009,-3.09374091e-004
,,,-1.00000000e-009,-3.62499094e-004
,,,-9.75000000e-010,-3.95311597e-004
,,,-9.50000000e-010,-4.07811598e-004
,,,-9.25000000e-010,-3.99999097e-004
,,,-9.00000000e-010,-4.65624102e-004
,,,-8.75000000e-010,-5.35936607e-004
,,,-8.50000000e-010,-6.14061612e-004
,,,-8.25000000e-010,-7.01561618e-004
,,,-8.00000000e-010,-8.01561625e-004
,,,-7.75000000e-010,-9.15624133e-004
,,,-7.50000000e-010,-1.04687414e-003
,,,-7.25000000e-010,-1.19999915e-003
,,,-7.00000000e-010,-1.46874917e-003
,,,-6.75000000e-010,-1.77812419e-003
,,,-6.50000000e-010,-2.11874922e-003
,,,-6.25000000e-010,-2.48437424e-003
,,,-6.00000000e-010,-2.86249927e-003
,,,-5.75000000e-010,-3.24531180e-003
,,,-5.50000000e-010,-3.62499933e-003
,,,-5.25000000e-010,-3.99999935e-003
,,,-5.00000000e-010,-4.43749938e-003
,,,-4.75000000e-010,-4.88281191e-003
,,,-4.50000000e-010,-5.32968695e-003
,,,-4.25000000e-010,-5.77968698e-003
,,,-4.00000000e-010,-6.22968701e-003
,,,-3.75000000e-010,-6.68124954e-003
,,,-3.50000000e-010,-7.13593707e-003
,,,-3.25000000e-010,-7.59999961e-003
,,,-3.00000000e-010,-8.11406214e-003
,,,-2.75000000e-010,-8.65781218e-003
,,,-2.50000000e-010,-9.23281222e-003
,,,-2.25000000e-010,-9.83437476e-003
,,,-2.00000000e-010,-1.04578123e-002
,,,-1.75000000e-010,-1.10968749e-002
,,,-1.50000000e-010,-1.17468749e-002
,,,-1.25000000e-010,-1.23999999e-002
,,,-1.00000000e-010,-1.30406250e-002
,,,-7.50000000e-011,-1.36828125e-002
,,,-5.00000000e-011,-1.43218751e-002
,,,-2.50000000e-011,-1.49515626e-002
,,,0.00000000e+000,-1.55609377e-002
,,,2.50000000e-011,-1.61437502e-002
,,,5.00000000e-011,-1.66921878e-002
,,,7.50000000e-011,-1.72000003e-002
,,,1.00000000e-010,-1.76109378e-002
,,,1.25000000e-010,-1.79953128e-002
,,,1.50000000e-010,-1.83609379e-002
,,,1.75000000e-010,-1.87125004e-002
,,,2.00000000e-010,-1.90515629e-002
,,,2.25000000e-010,-1.93796879e-002
,,,2.50000000e-010,-1.96968755e-002
,,,2.75000000e-010,-2.00000005e-002
,,,3.00000000e-010,-2.02046880e-002
,,,3.25000000e-010,-2.04109380e-002
,,,3.50000000e-010,-2.06234380e-002
,,,3.75000000e-010,-2.08390630e-002
,,,4.00000000e-010,-2.10515631e-002
,,,4.25000000e-010,-2.12546881e-002
,,,4.50000000e-010,-2.14406256e-002
,,,4.75000000e-010,-2.16000006e-002
,,,5.00000000e-010,-2.16312506e-002
,,,5.25000000e-010,-2.16437506e-002
,,,5.50000000e-010,-2.16468756e-002
,,,5.75000000e-010,-2.16453131e-002
,,,6.00000000e-010,-2.16375006e-002
,,,6.25000000e-010,-2.16281256e-002
,,,6.50000000e-010,-2.16171881e-002
,,,6.75000000e-010,-2.16000006e-002
,,,7.00000000e-010,-2.14812506e-002
,,,7.25000000e-010,-2.13671881e-002
,,,7.50000000e-010,-2.12609381e-002
,,,7.75000000e-010,-2.11640631e-002
,,,8.00000000e-010,-2.10734381e-002
,,,8.25000000e-010,-2.09859381e-002
,,,8.50000000e-010,-2.08968755e-002
,,,8.75000000e-010,-2.08000005e-002
,,,9.00000000e-010,-2.06078130e-002
,,,9.25000000e-010,-2.04046880e-002
,,,9.50000000e-010,-2.01984380e-002
,,,9.75000000e-010,-1.99890630e-002
,,,1.00000000e-009,-1.97843755e-002
,,,1.02500000e-009,-1.95843755e-002
,,,1.05000000e-009,-1.93906254e-002
,,,1.07500000e-009,-1.92000004e-002
,,,1.10000000e-009,-1.89546879e-002
,,,1.12500000e-009,-1.87046879e-002
,,,1.15000000e-009,-1.84546879e-002
,,,1.17500000e-009,-1.82046879e-002
,,,1.20000000e-009,-1.79546878e-002
,,,1.22500000e-009,-1.77046878e-002
,,,1.25000000e-009,-1.74546878e-002
,,,1.27500000e-009,-1.72000003e-002
,,,1.30000000e-009,-1.69031253e-002
,,,1.32500000e-009,-1.65953127e-002
,,,1.35000000e-009,-1.62812502e-002
,,,1.37500000e-009,-1.59656252e-002
,,,1.40000000e-009,-1.56562502e-002
,,,1.42500000e-009,-1.53578127e-002
,,,1.45000000e-009,-1.50718751e-002
,,,1.47500000e-009,-1.48000001e-002
,,,1.50000000e-009,-1.45203126e-002
,,,1.52500000e-009,-1.42359376e-002
,,,1.55000000e-009,-1.39468751e-002
,,,1.57500000e-009,-1.36515625e-002
,,,1.60000000e-009,-1.33500000e-002
,,,1.62500000e-009,-1.30406250e-002
,,,1.65000000e-009,-1.27250000e-002
,,,1.67500000e-009,-1.23999999e-002
,,,1.70000000e-009,-1.20640624e-002
,,,1.72500000e-009,-1.17093749e-002
,,,1.75000000e-009,-1.13406249e-002
,,,1.77500000e-009,-1.09671873e-002
,,,1.80000000e-009,-1.05968748e-002
,,,1.82500000e-009,-1.02406248e-002
,,,1.85000000e-009,-9.90624977e-003
,,,1.87500000e-009,-9.59999975e-003
,,,1.90000000e-009,-9.33749973e-003
,,,1.92500000e-009,-9.09374971e-003
,,,1.95000000e-009,-8.86874970e-003
,,,1.97500000e-009,-8.66093718e-003
,,,2.00000000e-009,-8.47343717e-003
,,,2.02500000e-009,-8.30156216e-003
,,,2.05000000e-009,-8.14531215e-003
,,,2.07500000e-009,-7.99999963e-003
,,,2.10000000e-009,-7.87812463e-003
,,,2.12500000e-009,-7.73749962e-003
,,,2.15000000e-009,-7.57343710e-003
,,,2.17500000e-009,-7.38437459e-003
,,,2.20000000e-009,-7.16874958e-003
,,,2.22500000e-009,-6.93124956e-003
,,,2.25000000e-009,-6.67343704e-003
,,,2.27500000e-009,-6.39999952e-003
,,,2.30000000e-009,-6.14374950e-003
,,,2.32500000e-009,-5.87343698e-003
,,,2.35000000e-009,-5.59531196e-003
,,,2.37500000e-009,-5.31718695e-003
,,,2.40000000e-009,-5.05156193e-003
,,,2.42500000e-009,-4.80468691e-003
,,,2.45000000e-009,-4.58593689e-003
,,,2.47500000e-009,-4.39999938e-003
,,,2.50000000e-009,-4.28124937e-003
,,,2.52500000e-009,-4.18124936e-003
,,,2.55000000e-009,-4.09062436e-003
,,,2.57500000e-009,-4.00624935e-003
,,,2.60000000e-009,-3.92031185e-003
,,,2.62500000e-009,-3.82656184e-003
,,,2.65000000e-009,-3.72187433e-003
,,,2.67500000e-009,-3.59999932e-003
,,,2.70000000e-009,-3.49218682e-003
,,,2.72500000e-009,-3.36093681e-003
,,,2.75000000e-009,-3.20624930e-003
,,,2.77500000e-009,-3.03593678e-003
,,,2.80000000e-009,-2.86093677e-003
,,,2.82500000e-009,-2.68906176e-003
,,,2.85000000e-009,-2.53281175e-003
,,,2.87500000e-009,-2.39999924e-003
,,,2.90000000e-009,-2.32499923e-003
,,,2.92500000e-009,-2.27343673e-003
,,,2.95000000e-009,-2.24687423e-003
,,,2.97500000e-009,-2.24374923e-003
,,,3.00000000e-009,-2.26093673e-003
,,,3.02500000e-009,-2.29531173e-003
,,,3.05000000e-009,-2.34374923e-003
,,,3.07500000e-009,-2.39999924e-003
,,,3.10000000e-009,-2.48437424e-003
,,,3.12500000e-009,-2.56093675e-003
,,,3.15000000e-009,-2.62656175e-003
,,,3.17500000e-009,-2.68124926e-003
,,,3.20000000e-009,-2.72499926e-003
,,,3.22500000e-009,-2.75781176e-003
,,,3.25000000e-009,-2.78281177e-003
,,,3.27500000e-009,-2.79999927e-003
,,,3.30000000e-009,-2.82031177e-003
,,,3.32500000e-009,-2.83124927e-003
,,,3.35000000e-009,-2.83437427e-003
,,,3.37500000e-009,-2.83124927e-003
,,,3.40000000e-009,-2.82499927e-003
,,,3.42500000e-009,-2.81874927e-003
,,,3.45000000e-009,-2.80937427e-003
,,,3.47500000e-009,-2.79999927e-003
,,,3.50000000e-009,-2.78749927e-003
,,,3.52500000e-009,-2.76718676e-003
,,,3.55000000e-009,-2.73593676e-003
,,,3.57500000e-009,-2.69374926e-003
,,,3.60000000e-009,-2.63906176e-003
,,,3.62500000e-009,-2.57187425e-003
,,,3.65000000e-009,-2.49062424e-003
,,,3.67500000e-009,-2.39999924e-003
,,,3.70000000e-009,-2.30312423e-003
,,,3.72500000e-009,-2.20312422e-003
,,,3.75000000e-009,-2.11249922e-003
,,,3.77500000e-009,-2.03437421e-003
,,,3.80000000e-009,-1.97968671e-003
,,,3.82500000e-009,-1.95468671e-003
,,,3.85000000e-009,-1.96093671e-003
,,,3.87500000e-009,-1.99999921e-003
,,,3.90000000e-009,-2.06093671e-003
,,,3.92500000e-009,-2.13749922e-003
,,,3.95000000e-009,-2.22499923e-003
,,,3.97500000e-009,-2.30781173e-003
,,,4.00000000e-009,-2.37812424e-003
,,,4.02500000e-009,-2.42187424e-003
,,,4.05000000e-009,-2.43124924e-003
,,,4.07500000e-009,-2.39999924e-003
,,,4.10000000e-009,-2.31874923e-003
,,,4.12500000e-009,-2.19531172e-003
,,,4.15000000e-009,-2.04062421e-003
,,,4.17500000e-009,-1.86406170e-003
,,,4.20000000e-009,-1.67968669e-003
,,,4.22500000e-009,-1.49843667e-003
,,,4.25000000e-009,-1.33593666e-003
,,,4.27500000e-009,-1.19999915e-003
,,,4.30000000e-009,-1.10156165e-003
,,,4.32500000e-009,-1.03906164e-003
,,,4.35000000e-009,-1.01093664e-003
,,,4.37500000e-009,-1.01562414e-003
,,,4.40000000e-009,-1.04687414e-003
,,,4.42500000e-009,-1.09374915e-003
,,,4.45000000e-009,-1.14843665e-003
,,,4.47500000e-009,-1.19999915e-003
,,,4.50000000e-009,-1.24374916e-003
,,,4.52500000e-009,-1.26562416e-003
,,,4.55000000e-009,-1.25937416e-003
,,,4.57500000e-009,-1.22343666e-003
,,,4.60000000e-009,-1.15624915e-003
,,,4.62500000e-009,-1.05937414e-003
,,,4.65000000e-009,-9.39061635e-004
,,,4.67500000e-009,-7.99999125e-004
,,,4.70000000e-009,-6.56249115e-004
,,,4.72500000e-009,-5.09374105e-004
,,,4.75000000e-009,-3.67186595e-004
,,,4.77500000e-009,-2.40624086e-004
,,,4.80000000e-009,-1.35936578e-004
,,,4.82500000e-009,-5.78115728e-005
,,,4.85000000e-009,-1.24990696e-005
,,,4.87500000e-009,9.31322575e-010
,,,4.90000000e-009,-2.96865708e-005
,,,4.92500000e-009,-8.12490744e-005
,,,4.95000000e-009,-1.48436579e-004
,,,4.97500000e-009,-2.21874084e-004
,,,5.00000000e-009,-2.90624089e-004
,,,5.02500000e-009,-3.48436593e-004
,,,5.05000000e-009,-3.87499096e-004
,,,5.07500000e-009,-3.99999097e-004
,,,5.10000000e-009,-3.95311597e-004
,,,5.12500000e-009,-3.64061594e-004
,,,5.15000000e-009,-3.09374091e-004
,,,5.17500000e-009,-2.40624086e-004
,,,5.20000000e-009,-1.65624080e-004
,,,5.22500000e-009,-9.53115754e-005
,,,5.25000000e-009,-3.74990713e-005
,,,5.27500000e-009,9.31322575e-010
,,,5.30000000e-009,4.68843165e-006
,,,5.32500000e-009,-1.56240698e-005
,,,5.35000000e-009,-5.78115728e-005
,,,5.37500000e-009,-1.18749077e-004
,,,5.40000000e-009,-1.90624082e-004
,,,5.42500000e-009,-2.65624087e-004
,,,5.45000000e-009,-3.37499093e-004
,,,5.47500000e-009,-3.99999097e-004
,,,5.50000000e-009,-4.49999101e-004
,,,5.52500000e-009,-4.79686603e-004
,,,5.55000000e-009,-4.92186604e-004
,,,5.57500000e-009,-4.87499103e-004
,,,5.60000000e-009,-4.71874102e-004
,,,5.62500000e-009,-4.48436600e-004
,,,5.65000000e-009,-4.23436599e-004
,,,5.67500000e-009,-3.99999097e-004
,,,5.70000000e-009,-3.87499096e-004
,,,5.72500000e-009,-3.79686596e-004
,,,5.75000000e-009,-3.79686596e-004
,,,5.77500000e-009,-3.82811596e-004
,,,5.80000000e-009,-3.90624096e-004
,,,5.82500000e-009,-3.96874097e-004
,,,5.85000000e-009,-4.01561597e-004
,,,5.87500000e-009,-3.99999097e-004
,,,5.90000000e-009,-3.96874097e-004
