RawData/WithScintilator/R7_2pt2B_15mV/wave026_Ch2.csv

"Record Length",1000,"Points",-7.72500000e-009,-4.89061603e-004
"Sample Interval",2.50000000e-011,s,-7.70000000e-009,-4.48436600e-004
"Trigger Point",309,"Samples",-7.67500000e-009,-3.99999097e-004
"Trigger Time",7.17450644e-012,s,-7.65000000e-009,-3.56249094e-004
"",,,-7.62500000e-009,-3.18749091e-004
"Horizontal Offset",-7.72500000e-009,s,-7.60000000e-009,-2.92186589e-004
,,,-7.57500000e-009,-2.81249089e-004
,,,-7.55000000e-009,-2.85936589e-004
,,,-7.52500000e-009,-3.07811590e-004
,,,-7.50000000e-009,-3.46874093e-004
,,,-7.47500000e-009,-3.99999097e-004
,,,-7.45000000e-009,-4.64061602e-004
,,,-7.42500000e-009,-5.34374107e-004
,,,-7.40000000e-009,-6.04686611e-004
,,,-7.37500000e-009,-6.71874116e-004
,,,-7.35000000e-009,-7.29686620e-004
,,,-7.32500000e-009,-7.73436623e-004
,,,-7.30000000e-009,-7.96874125e-004
,,,-7.27500000e-009,-7.99999125e-004
,,,-7.25000000e-009,-7.81249124e-004
,,,-7.22500000e-009,-7.42186621e-004
,,,-7.20000000e-009,-6.89061617e-004
,,,-7.17500000e-009,-6.26561613e-004
,,,-7.15000000e-009,-5.59374108e-004
,,,-7.12500000e-009,-4.95311604e-004
,,,-7.10000000e-009,-4.40624100e-004
,,,-7.07500000e-009,-3.99999097e-004
,,,-7.05000000e-009,-3.79686596e-004
,,,-7.02500000e-009,-3.82811596e-004
,,,-7.00000000e-009,-4.09374098e-004
,,,-6.97500000e-009,-4.57811601e-004
,,,-6.95000000e-009,-5.24999106e-004
,,,-6.92500000e-009,-6.07811612e-004
,,,-6.90000000e-009,-7.01561618e-004
,,,-6.87500000e-009,-7.99999125e-004
,,,-6.85000000e-009,-8.98436632e-004
,,,-6.82500000e-009,-9.90624139e-004
,,,-6.80000000e-009,-1.07031164e-003
,,,-6.77500000e-009,-1.13593665e-003
,,,-6.75000000e-009,-1.18281165e-003
,,,-6.72500000e-009,-1.20937415e-003
,,,-6.70000000e-009,-1.21562415e-003
,,,-6.67500000e-009,-1.19999915e-003
,,,-6.65000000e-009,-1.16406165e-003
,,,-6.62500000e-009,-1.11406165e-003
,,,-6.60000000e-009,-1.05624914e-003
,,,-6.57500000e-009,-9.93749139e-004
,,,-6.55000000e-009,-9.34374135e-004
,,,-6.52500000e-009,-8.79686631e-004
,,,-6.50000000e-009,-8.34374128e-004
,,,-6.47500000e-009,-7.99999125e-004
,,,-6.45000000e-009,-7.81249124e-004
,,,-6.42500000e-009,-7.73436623e-004
,,,-6.40000000e-009,-7.74999124e-004
,,,-6.37500000e-009,-7.84374124e-004
,,,-6.35000000e-009,-7.93749125e-004
,,,-6.32500000e-009,-8.01561625e-004
,,,-6.30000000e-009,-8.04686626e-004
,,,-6.27500000e-009,-7.99999125e-004
,,,-6.25000000e-009,-7.87499124e-004
,,,-6.22500000e-009,-7.68749123e-004
,,,-6.20000000e-009,-7.48436622e-004
,,,-6.17500000e-009,-7.32811621e-004
,,,-6.15000000e-009,-7.24999120e-004
,,,-6.12500000e-009,-7.32811621e-004
,,,-6.10000000e-009,-7.57811622e-004
,,,-6.07500000e-009,-7.99999125e-004
,,,-6.05000000e-009,-8.59374130e-004
,,,-6.02500000e-009,-9.29686634e-004
,,,-6.00000000e-009,-1.00624914e-003
,,,-5.97500000e-009,-1.08124915e-003
,,,-5.95000000e-009,-1.14374915e-003
,,,-5.92500000e-009,-1.18906165e-003
,,,-5.90000000e-009,-1.20937415e-003
,,,-5.87500000e-009,-1.19999915e-003
,,,-5.85000000e-009,-1.16249915e-003
,,,-5.82500000e-009,-1.10156165e-003
,,,-5.80000000e-009,-1.02812414e-003
,,,-5.77500000e-009,-9.51561636e-004
,,,-5.75000000e-009,-8.81249131e-004
,,,-5.72500000e-009,-8.26561627e-004
,,,-5.70000000e-009,-7.98436625e-004
,,,-5.67500000e-009,-7.99999125e-004
,,,-5.65000000e-009,-8.29686627e-004
,,,-5.62500000e-009,-8.84374131e-004
,,,-5.60000000e-009,-9.56249136e-004
,,,-5.57500000e-009,-1.03437414e-003
,,,-5.55000000e-009,-1.10937415e-003
,,,-5.52500000e-009,-1.16718665e-003
,,,-5.50000000e-009,-1.19999915e-003
,,,-5.47500000e-009,-1.19999915e-003
,,,-5.45000000e-009,-1.15781165e-003
,,,-5.42500000e-009,-1.07968665e-003
,,,-5.40000000e-009,-9.74999138e-004
,,,-5.37500000e-009,-8.49999129e-004
,,,-5.35000000e-009,-7.18749120e-004
,,,-5.32500000e-009,-5.92186611e-004
,,,-5.30000000e-009,-4.82811603e-004
,,,-5.27500000e-009,-3.99999097e-004
,,,-5.25000000e-009,-3.53124094e-004
,,,-5.22500000e-009,-3.43749093e-004
,,,-5.20000000e-009,-3.68749095e-004
,,,-5.17500000e-009,-4.24999099e-004
,,,-5.15000000e-009,-5.04686604e-004
,,,-5.12500000e-009,-5.99999111e-004
,,,-5.10000000e-009,-7.03124118e-004
,,,-5.07500000e-009,-7.99999125e-004
,,,-5.05000000e-009,-8.84374131e-004
,,,-5.02500000e-009,-9.48436636e-004
,,,-5.00000000e-009,-9.85936638e-004
,,,-4.97500000e-009,-9.98436639e-004
,,,-4.95000000e-009,-9.84374138e-004
,,,-4.92500000e-009,-9.45311636e-004
,,,-4.90000000e-009,-8.82811631e-004
,,,-4.87500000e-009,-7.99999125e-004
,,,-4.85000000e-009,-7.04686619e-004
,,,-4.82500000e-009,-5.98436611e-004
,,,-4.80000000e-009,-4.89061603e-004
,,,-4.77500000e-009,-3.76561595e-004
,,,-4.75000000e-009,-2.68749088e-004
,,,-4.72500000e-009,-1.68749081e-004
,,,-4.70000000e-009,-7.81240742e-005
,,,-4.67500000e-009,9.31322575e-010
,,,-4.65000000e-009,5.78134354e-005
,,,-4.62500000e-009,9.84384383e-005
,,,-4.60000000e-009,1.21875940e-004
,,,-4.57500000e-009,1.26563440e-004
,,,-4.55000000e-009,1.15625940e-004
,,,-4.52500000e-009,9.06259377e-005
,,,-4.50000000e-009,5.00009349e-005
,,,-4.47500000e-009,9.31322575e-010
,,,-4.45000000e-009,-6.40615732e-005
,,,-4.42500000e-009,-1.28124078e-004
,,,-4.40000000e-009,-1.92186582e-004
,,,-4.37500000e-009,-2.49999086e-004
,,,-4.35000000e-009,-3.01561590e-004
,,,-4.32500000e-009,-3.45311593e-004
,,,-4.30000000e-009,-3.78124095e-004
,,,-4.27500000e-009,-3.99999097e-004
,,,-4.25000000e-009,-4.14061598e-004
,,,-4.22500000e-009,-4.20311598e-004
,,,-4.20000000e-009,-4.18749098e-004
,,,-4.17500000e-009,-4.14061598e-004
,,,-4.15000000e-009,-4.07811598e-004
,,,-4.12500000e-009,-4.03124097e-004
,,,-4.10000000e-009,-3.99999097e-004
,,,-4.07500000e-009,-3.99999097e-004
,,,-4.05000000e-009,-4.09374098e-004
,,,-4.02500000e-009,-4.21874099e-004
,,,-4.00000000e-009,-4.34374099e-004
,,,-3.97500000e-009,-4.43749100e-004
,,,-3.95000000e-009,-4.46874100e-004
,,,-3.92500000e-009,-4.42186600e-004
,,,-3.90000000e-009,-4.28124099e-004
,,,-3.87500000e-009,-3.99999097e-004
,,,-3.85000000e-009,-3.65624095e-004
,,,-3.82500000e-009,-3.20311591e-004
,,,-3.80000000e-009,-2.67186588e-004
,,,-3.77500000e-009,-2.09374083e-004
,,,-3.75000000e-009,-1.49999079e-004
,,,-3.72500000e-009,-9.37490753e-005
,,,-3.70000000e-009,-4.21865717e-005
,,,-3.67500000e-009,9.31322575e-010
,,,-3.65000000e-009,2.65634332e-005
,,,-3.62500000e-009,4.21884343e-005
,,,-3.60000000e-009,4.84384348e-005
,,,-3.57500000e-009,4.53134345e-005
,,,-3.55000000e-009,3.59384339e-005
,,,-3.52500000e-009,2.50009331e-005
,,,-3.50000000e-009,1.25009322e-005
,,,-3.47500000e-009,9.31322575e-010
,,,-3.45000000e-009,-1.87490700e-005
,,,-3.42500000e-009,-4.06240716e-005
,,,-3.40000000e-009,-6.87490735e-005
,,,-3.37500000e-009,-1.04686576e-004
,,,-3.35000000e-009,-1.54686580e-004
,,,-3.32500000e-009,-2.20311584e-004
,,,-3.30000000e-009,-3.01561590e-004
,,,-3.27500000e-009,-3.99999097e-004
,,,-3.25000000e-009,-5.17186605e-004
,,,-3.22500000e-009,-6.42186614e-004
,,,-3.20000000e-009,-7.70311623e-004
,,,-3.17500000e-009,-8.93749132e-004
,,,-3.15000000e-009,-1.00624914e-003
,,,-3.12500000e-009,-1.09687415e-003
,,,-3.10000000e-009,-1.16406165e-003
,,,-3.07500000e-009,-1.19999915e-003
,,,-3.05000000e-009,-1.19999915e-003
,,,-3.02500000e-009,-1.17187415e-003
,,,-3.00000000e-009,-1.12187415e-003
,,,-2.97500000e-009,-1.05624914e-003
,,,-2.95000000e-009,-9.84374138e-004
,,,-2.92500000e-009,-9.12499133e-004
,,,-2.90000000e-009,-8.49999129e-004
,,,-2.87500000e-009,-7.99999125e-004
,,,-2.85000000e-009,-7.62499123e-004
,,,-2.82500000e-009,-7.43749121e-004
,,,-2.80000000e-009,-7.39061621e-004
,,,-2.77500000e-009,-7.48436622e-004
,,,-2.75000000e-009,-7.62499123e-004
,,,-2.72500000e-009,-7.79686624e-004
,,,-2.70000000e-009,-7.93749125e-004
,,,-2.67500000e-009,-7.99999125e-004
,,,-2.65000000e-009,-7.96874125e-004
,,,-2.62500000e-009,-7.87499124e-004
,,,-2.60000000e-009,-7.73436623e-004
,,,-2.57500000e-009,-7.60936623e-004
,,,-2.55000000e-009,-7.53124122e-004
,,,-2.52500000e-009,-7.54686622e-004
,,,-2.50000000e-009,-7.70311623e-004
,,,-2.47500000e-009,-7.99999125e-004
,,,-2.45000000e-009,-8.43749128e-004
,,,-2.42500000e-009,-8.98436632e-004
,,,-2.40000000e-009,-9.64061637e-004
,,,-2.37500000e-009,-1.03281164e-003
,,,-2.35000000e-009,-1.09843665e-003
,,,-2.32500000e-009,-1.15156165e-003
,,,-2.30000000e-009,-1.18906165e-003
,,,-2.27500000e-009,-1.19999915e-003
,,,-2.25000000e-009,-1.18124915e-003
,,,-2.22500000e-009,-1.13437415e-003
,,,-2.20000000e-009,-1.05937414e-003
,,,-2.17500000e-009,-9.57811636e-004
,,,-2.15000000e-009,-8.35936628e-004
,,,-2.12500000e-009,-6.96874118e-004
,,,-2.10000000e-009,-5.49999108e-004
,,,-2.07500000e-009,-3.99999097e-004
,,,-2.05000000e-009,-2.65624087e-004
,,,-2.02500000e-009,-1.46874079e-004
,,,-2.00000000e-009,-4.84365721e-005
,,,-1.97500000e-009,2.34384330e-005
,,,-1.95000000e-009,6.40634359e-005
,,,-1.92500000e-009,7.34384365e-005
,,,-1.90000000e-009,5.15634350e-005
,,,-1.87500000e-009,9.31322575e-010
,,,-1.85000000e-009,-9.21865752e-005
,,,-1.82500000e-009,-2.03124083e-004
,,,-1.80000000e-009,-3.23436592e-004
,,,-1.77500000e-009,-4.46874100e-004
,,,-1.75000000e-009,-5.64061609e-004
,,,-1.72500000e-009,-6.64061616e-004
,,,-1.70000000e-009,-7.45311621e-004
,,,-1.67500000e-009,-7.99999125e-004
,,,-1.65000000e-009,-8.45311629e-004
,,,-1.62500000e-009,-8.65624130e-004
,,,-1.60000000e-009,-8.68749130e-004
,,,-1.57500000e-009,-8.59374130e-004
,,,-1.55000000e-009,-8.40624128e-004
,,,-1.52500000e-009,-8.21874127e-004
,,,-1.50000000e-009,-8.06249126e-004
,,,-1.47500000e-009,-7.99999125e-004
,,,-1.45000000e-009,-8.32811628e-004
,,,-1.42500000e-009,-8.82811631e-004
,,,-1.40000000e-009,-9.45311636e-004
,,,-1.37500000e-009,-1.01249914e-003
,,,-1.35000000e-009,-1.07812414e-003
,,,-1.32500000e-009,-1.13593665e-003
,,,-1.30000000e-009,-1.17812415e-003
,,,-1.27500000e-009,-1.19999915e-003
,,,-1.25000000e-009,-1.24531166e-003
,,,-1.22500000e-009,-1.27499916e-003
,,,-1.20000000e-009,-1.29062416e-003
,,,-1.17500000e-009,-1.29062416e-003
,,,-1.15000000e-009,-1.27656166e-003
,,,-1.12500000e-009,-1.25468666e-003
,,,-1.10000000e-009,-1.22656166e-003
,,,-1.07500000e-009,-1.19999915e-003
,,,-1.05000000e-009,-1.24218666e-003
,,,-1.02500000e-009,-1.30781166e-003
,,,-1.00000000e-009,-1.39531167e-003
,,,-9.75000000e-010,-1.49999917e-003
,,,-9.50000000e-010,-1.61718668e-003
,,,-9.25000000e-010,-1.74218669e-003
,,,-9.00000000e-010,-1.87031170e-003
,,,-8.75000000e-010,-1.99999921e-003
,,,-8.50000000e-010,-2.19531172e-003
,,,-8.25000000e-010,-2.39999924e-003
,,,-8.00000000e-010,-2.61093675e-003
,,,-7.75000000e-010,-2.82187427e-003
,,,-7.50000000e-010,-3.02812428e-003
,,,-7.25000000e-010,-3.22656180e-003
,,,-7.00000000e-010,-3.41562431e-003
,,,-6.75000000e-010,-3.59999932e-003
,,,-6.50000000e-010,-3.84374934e-003
,,,-6.25000000e-010,-4.10156186e-003
,,,-6.00000000e-010,-4.37656188e-003
,,,-5.75000000e-010,-4.66718690e-003
,,,-5.50000000e-010,-4.97499942e-003
,,,-5.25000000e-010,-5.29843694e-003
,,,-5.00000000e-010,-5.63906197e-003
,,,-4.75000000e-010,-5.99999949e-003
,,,-4.50000000e-010,-6.42187452e-003
,,,-4.25000000e-010,-6.87499956e-003
,,,-4.00000000e-010,-7.35781209e-003
,,,-3.75000000e-010,-7.86562463e-003
,,,-3.50000000e-010,-8.38906216e-003
,,,-3.25000000e-010,-8.92499970e-003
,,,-3.00000000e-010,-9.46249974e-003
,,,-2.75000000e-010,-9.99999978e-003
,,,-2.50000000e-010,-1.05296873e-002
,,,-2.25000000e-010,-1.10578124e-002
,,,-2.00000000e-010,-1.15812499e-002
,,,-1.75000000e-010,-1.20953124e-002
,,,-1.50000000e-010,-1.25984375e-002
,,,-1.25000000e-010,-1.30859375e-002
,,,-1.00000000e-010,-1.35531250e-002
,,,-7.50000000e-011,-1.40000001e-002
,,,-5.00000000e-011,-1.43828126e-002
,,,-2.50000000e-011,-1.47546876e-002
,,,0.00000000e+000,-1.51187501e-002
,,,2.50000000e-011,-1.54750002e-002
,,,5.00000000e-011,-1.58250002e-002
,,,7.50000000e-011,-1.61625002e-002
,,,1.00000000e-010,-1.64890627e-002
,,,1.25000000e-010,-1.68000003e-002
,,,1.50000000e-010,-1.70234378e-002
,,,1.75000000e-010,-1.72406253e-002
,,,2.00000000e-010,-1.74546878e-002
,,,2.25000000e-010,-1.76640628e-002
,,,2.50000000e-010,-1.78687503e-002
,,,2.75000000e-010,-1.80625003e-002
,,,3.00000000e-010,-1.82421879e-002
,,,3.25000000e-010,-1.84000004e-002
,,,3.50000000e-010,-1.84468754e-002
,,,3.75000000e-010,-1.84781254e-002
,,,4.00000000e-010,-1.84968754e-002
,,,4.25000000e-010,-1.85046879e-002
,,,4.50000000e-010,-1.85000004e-002
,,,4.75000000e-010,-1.84828129e-002
,,,5.00000000e-010,-1.84515629e-002
,,,5.25000000e-010,-1.84000004e-002
,,,5.50000000e-010,-1.82437504e-002
,,,5.75000000e-010,-1.80781253e-002
,,,6.00000000e-010,-1.79140628e-002
,,,6.25000000e-010,-1.77531253e-002
,,,6.50000000e-010,-1.76015628e-002
,,,6.75000000e-010,-1.74578128e-002
,,,7.00000000e-010,-1.73250003e-002
,,,7.25000000e-010,-1.72000003e-002
,,,7.50000000e-010,-1.70125003e-002
,,,7.75000000e-010,-1.68343753e-002
,,,8.00000000e-010,-1.66671877e-002
,,,8.25000000e-010,-1.65140627e-002
,,,8.50000000e-010,-1.63734377e-002
,,,8.75000000e-010,-1.62437502e-002
,,,9.00000000e-010,-1.61203127e-002
,,,9.25000000e-010,-1.60000002e-002
,,,9.50000000e-010,-1.58234377e-002
,,,9.75000000e-010,-1.56375002e-002
,,,1.00000000e-009,-1.54437502e-002
,,,1.02500000e-009,-1.52453126e-002
,,,1.05000000e-009,-1.50406251e-002
,,,1.07500000e-009,-1.48312501e-002
,,,1.10000000e-009,-1.46187501e-002
,,,1.12500000e-009,-1.44000001e-002
,,,1.15000000e-009,-1.41406251e-002
,,,1.17500000e-009,-1.38656251e-002
,,,1.20000000e-009,-1.35765625e-002
,,,1.22500000e-009,-1.32750000e-002
,,,1.25000000e-009,-1.29640625e-002
,,,1.27500000e-009,-1.26468750e-002
,,,1.30000000e-009,-1.23234374e-002
,,,1.32500000e-009,-1.19999999e-002
,,,1.35000000e-009,-1.16671874e-002
,,,1.37500000e-009,-1.13312499e-002
,,,1.40000000e-009,-1.09968748e-002
,,,1.42500000e-009,-1.06734373e-002
,,,1.45000000e-009,-1.03656248e-002
,,,1.47500000e-009,-1.00828123e-002
,,,1.50000000e-009,-9.82812476e-003
,,,1.52500000e-009,-9.59999975e-003
,,,1.55000000e-009,-9.40624973e-003
,,,1.57500000e-009,-9.22187472e-003
,,,1.60000000e-009,-9.03906221e-003
,,,1.62500000e-009,-8.85468720e-003
,,,1.65000000e-009,-8.66093718e-003
,,,1.67500000e-009,-8.45624967e-003
,,,1.70000000e-009,-8.23593715e-003
,,,1.72500000e-009,-7.99999963e-003
,,,1.75000000e-009,-7.76562462e-003
,,,1.77500000e-009,-7.50781210e-003
,,,1.80000000e-009,-7.23437458e-003
,,,1.82500000e-009,-6.95468706e-003
,,,1.85000000e-009,-6.68281204e-003
,,,1.87500000e-009,-6.42499952e-003
,,,1.90000000e-009,-6.19687451e-003
,,,1.92500000e-009,-5.99999949e-003
,,,1.95000000e-009,-5.86249948e-003
,,,1.97500000e-009,-5.74531198e-003
,,,2.00000000e-009,-5.64374947e-003
,,,2.02500000e-009,-5.55468696e-003
,,,2.05000000e-009,-5.47187446e-003
,,,2.07500000e-009,-5.38906195e-003
,,,2.10000000e-009,-5.29999944e-003
,,,2.12500000e-009,-5.19999944e-003
,,,2.15000000e-009,-5.10468693e-003
,,,2.17500000e-009,-4.98281192e-003
,,,2.20000000e-009,-4.83437441e-003
,,,2.22500000e-009,-4.66874940e-003
,,,2.25000000e-009,-4.49218689e-003
,,,2.27500000e-009,-4.31562437e-003
,,,2.30000000e-009,-4.14843686e-003
,,,2.32500000e-009,-3.99999935e-003
,,,2.35000000e-009,-3.89843684e-003
,,,2.37500000e-009,-3.81406184e-003
,,,2.40000000e-009,-3.74843683e-003
,,,2.42500000e-009,-3.69687433e-003
,,,2.45000000e-009,-3.65937433e-003
,,,2.47500000e-009,-3.63281183e-003
,,,2.50000000e-009,-3.61562432e-003
,,,2.52500000e-009,-3.59999932e-003
,,,2.55000000e-009,-3.59999932e-003
,,,2.57500000e-009,-3.58593682e-003
,,,2.60000000e-009,-3.55781182e-003
,,,2.62500000e-009,-3.51406182e-003
,,,2.65000000e-009,-3.45468681e-003
,,,2.67500000e-009,-3.38124931e-003
,,,2.70000000e-009,-3.29687430e-003
,,,2.72500000e-009,-3.19999930e-003
,,,2.75000000e-009,-3.10624929e-003
,,,2.77500000e-009,-2.99374928e-003
,,,2.80000000e-009,-2.86406177e-003
,,,2.82500000e-009,-2.71718676e-003
,,,2.85000000e-009,-2.55468675e-003
,,,2.87500000e-009,-2.37812424e-003
,,,2.90000000e-009,-2.19218672e-003
,,,2.92500000e-009,-1.99999921e-003
,,,2.95000000e-009,-1.82656170e-003
,,,2.97500000e-009,-1.65937419e-003
,,,3.00000000e-009,-1.50468668e-003
,,,3.02500000e-009,-1.37343667e-003
,,,3.05000000e-009,-1.27343666e-003
,,,3.07500000e-009,-1.20781165e-003
,,,3.10000000e-009,-1.18281165e-003
,,,3.12500000e-009,-1.19999915e-003
,,,3.15000000e-009,-1.27499916e-003
,,,3.17500000e-009,-1.37656167e-003
,,,3.20000000e-009,-1.49687417e-003
,,,3.22500000e-009,-1.62343668e-003
,,,3.25000000e-009,-1.74687419e-003
,,,3.27500000e-009,-1.85624920e-003
,,,3.30000000e-009,-1.94374921e-003
,,,3.32500000e-009,-1.99999921e-003
,,,3.35000000e-009,-2.03124921e-003
,,,3.37500000e-009,-2.02656171e-003
,,,3.40000000e-009,-1.98906171e-003
,,,3.42500000e-009,-1.92499920e-003
,,,3.45000000e-009,-1.84687420e-003
,,,3.47500000e-009,-1.75937419e-003
,,,3.50000000e-009,-1.67499919e-003
,,,3.52500000e-009,-1.59999918e-003
,,,3.55000000e-009,-1.55156168e-003
,,,3.57500000e-009,-1.51874918e-003
,,,3.60000000e-009,-1.50624918e-003
,,,3.62500000e-009,-1.50781168e-003
,,,3.65000000e-009,-1.52343668e-003
,,,3.67500000e-009,-1.54687418e-003
,,,3.70000000e-009,-1.57499918e-003
,,,3.72500000e-009,-1.59999918e-003
,,,3.75000000e-009,-1.62656168e-003
,,,3.77500000e-009,-1.64374919e-003
,,,3.80000000e-009,-1.64999919e-003
,,,3.82500000e-009,-1.64843669e-003
,,,3.85000000e-009,-1.63906168e-003
,,,3.87500000e-009,-1.62656168e-003
,,,3.90000000e-009,-1.61249918e-003
,,,3.92500000e-009,-1.59999918e-003
,,,3.95000000e-009,-1.58749918e-003
,,,3.97500000e-009,-1.57968668e-003
,,,4.00000000e-009,-1.57343668e-003
,,,4.02500000e-009,-1.57343668e-003
,,,4.05000000e-009,-1.57656168e-003
,,,4.07500000e-009,-1.58281168e-003
,,,4.10000000e-009,-1.59218668e-003
,,,4.12500000e-009,-1.59999918e-003
,,,4.15000000e-009,-1.59999918e-003
,,,4.17500000e-009,-1.59843668e-003
,,,4.20000000e-009,-1.59687418e-003
,,,4.22500000e-009,-1.59374918e-003
,,,4.25000000e-009,-1.59218668e-003
,,,4.27500000e-009,-1.59218668e-003
,,,4.30000000e-009,-1.59531168e-003
,,,4.32500000e-009,-1.59999918e-003
,,,4.35000000e-009,-1.60468668e-003
,,,4.37500000e-009,-1.60781168e-003
,,,4.40000000e-009,-1.61249918e-003
,,,4.42500000e-009,-1.61562418e-003
,,,4.45000000e-009,-1.61718668e-003
,,,4.47500000e-009,-1.61562418e-003
,,,4.50000000e-009,-1.61093668e-003
,,,4.52500000e-009,-1.59999918e-003
,,,4.55000000e-009,-1.57656168e-003
,,,4.57500000e-009,-1.54374918e-003
,,,4.60000000e-009,-1.50468668e-003
,,,4.62500000e-009,-1.45624917e-003
,,,4.65000000e-009,-1.40156167e-003
,,,4.67500000e-009,-1.34062416e-003
,,,4.70000000e-009,-1.27343666e-003
,,,4.72500000e-009,-1.19999915e-003
,,,4.75000000e-009,-1.12031165e-003
,,,4.77500000e-009,-1.03281164e-003
,,,4.80000000e-009,-9.39061635e-004
,,,4.82500000e-009,-8.40624128e-004
,,,4.85000000e-009,-7.35936621e-004
,,,4.87500000e-009,-6.26561613e-004
,,,4.90000000e-009,-5.14061605e-004
,,,4.92500000e-009,-3.99999097e-004
,,,4.95000000e-009,-2.95311590e-004
,,,4.97500000e-009,-1.96874083e-004
,,,5.00000000e-009,-1.10936577e-004
,,,5.02500000e-009,-4.21865717e-005
,,,5.05000000e-009,6.25093176e-006
,,,5.07500000e-009,2.96884334e-005
,,,5.10000000e-009,2.65634332e-005
,,,5.12500000e-009,9.31322575e-010
,,,5.15000000e-009,-5.78115728e-005
,,,5.17500000e-009,-1.29686578e-004
,,,5.20000000e-009,-2.06249083e-004
,,,5.22500000e-009,-2.79686588e-004
,,,5.25000000e-009,-3.42186593e-004
,,,5.27500000e-009,-3.85936596e-004
,,,5.30000000e-009,-4.06249097e-004
,,,5.32500000e-009,-3.99999097e-004
,,,5.35000000e-009,-3.73436595e-004
,,,5.37500000e-009,-3.23436592e-004
,,,5.40000000e-009,-2.56249087e-004
,,,5.42500000e-009,-1.82811582e-004
,,,5.45000000e-009,-1.10936577e-004
,,,5.47500000e-009,-5.15615723e-005
,,,5.50000000e-009,-1.40615697e-005
,,,5.52500000e-009,9.31322575e-010
,,,5.55000000e-009,-2.49990704e-005
,,,5.57500000e-009,-7.34365739e-005
,,,5.60000000e-009,-1.39061579e-004
,,,5.62500000e-009,-2.12499084e-004
,,,5.65000000e-009,-2.84374089e-004
,,,5.67500000e-009,-3.45311593e-004
,,,5.70000000e-009,-3.85936596e-004
,,,5.72500000e-009,-3.99999097e-004
,,,5.75000000e-009,-3.95311597e-004
,,,5.77500000e-009,-3.62499094e-004
,,,5.80000000e-009,-3.07811590e-004
,,,5.82500000e-009,-2.39061586e-004
