RawData/WithScintilator/R7_2pt2B_15mV/wave001_Ch2.csv

"Record Length",1000,"Points",-7.72500000e-009,-7.99999125e-004
"Sample Interval",2.50000000e-011,s,-7.70000000e-009,-7.40624121e-004
"Trigger Point",309,"Samples",-7.67500000e-009,-6.57811615e-004
"Trigger Time",6.12034014e-012,s,-7.65000000e-009,-5.59374108e-004
"",,,-7.62500000e-009,-4.48436600e-004
"Horizontal Offset",-7.72500000e-009,s,-7.60000000e-009,-3.31249092e-004
,,,-7.57500000e-009,-2.14061584e-004
,,,-7.55000000e-009,-1.01561576e-004
,,,-7.52500000e-009,9.31322575e-010
,,,-7.50000000e-009,8.12509371e-005
,,,-7.47500000e-009,1.40625941e-004
,,,-7.45000000e-009,1.75000944e-004
,,,-7.42500000e-009,1.84375944e-004
,,,-7.40000000e-009,1.68750943e-004
,,,-7.37500000e-009,1.29688441e-004
,,,-7.35000000e-009,7.18759364e-005
,,,-7.32500000e-009,9.31322575e-010
,,,-7.30000000e-009,-8.59365748e-005
,,,-7.27500000e-009,-1.71874081e-004
,,,-7.25000000e-009,-2.53124087e-004
,,,-7.22500000e-009,-3.21874091e-004
,,,-7.20000000e-009,-3.74999095e-004
,,,-7.17500000e-009,-4.06249097e-004
,,,-7.15000000e-009,-4.15624098e-004
,,,-7.12500000e-009,-3.99999097e-004
,,,-7.10000000e-009,-3.60936594e-004
,,,-7.07500000e-009,-3.04686590e-004
,,,-7.05000000e-009,-2.39061586e-004
,,,-7.02500000e-009,-1.70311581e-004
,,,-7.00000000e-009,-1.06249076e-004
,,,-6.97500000e-009,-5.15615723e-005
,,,-6.95000000e-009,-1.56240698e-005
,,,-6.92500000e-009,9.31322575e-010
,,,-6.90000000e-009,-1.09365695e-005
,,,-6.87500000e-009,-4.06240716e-005
,,,-6.85000000e-009,-8.90615750e-005
,,,-6.82500000e-009,-1.51561579e-004
,,,-6.80000000e-009,-2.18749084e-004
,,,-6.77500000e-009,-2.87499089e-004
,,,-6.75000000e-009,-3.49999093e-004
,,,-6.72500000e-009,-3.99999097e-004
,,,-6.70000000e-009,-4.39061600e-004
,,,-6.67500000e-009,-4.62499101e-004
,,,-6.65000000e-009,-4.68749102e-004
,,,-6.62500000e-009,-4.64061602e-004
,,,-6.60000000e-009,-4.49999101e-004
,,,-6.57500000e-009,-4.32811599e-004
,,,-6.55000000e-009,-4.14061598e-004
,,,-6.52500000e-009,-3.99999097e-004
,,,-6.50000000e-009,-3.89061596e-004
,,,-6.47500000e-009,-3.85936596e-004
,,,-6.45000000e-009,-3.87499096e-004
,,,-6.42500000e-009,-3.93749097e-004
,,,-6.40000000e-009,-4.01561597e-004
,,,-6.37500000e-009,-4.07811598e-004
,,,-6.35000000e-009,-4.09374098e-004
,,,-6.32500000e-009,-3.99999097e-004
,,,-6.30000000e-009,-3.78124095e-004
,,,-6.27500000e-009,-3.45311593e-004
,,,-6.25000000e-009,-3.01561590e-004
,,,-6.22500000e-009,-2.48436586e-004
,,,-6.20000000e-009,-1.89061582e-004
,,,-6.17500000e-009,-1.24999078e-004
,,,-6.15000000e-009,-6.09365730e-005
,,,-6.12500000e-009,9.31322575e-010
,,,-6.10000000e-009,5.15634350e-005
,,,-6.07500000e-009,9.37509380e-005
,,,-6.05000000e-009,1.21875940e-004
,,,-6.02500000e-009,1.32813441e-004
,,,-6.00000000e-009,1.25000940e-004
,,,-5.97500000e-009,1.00000938e-004
,,,-5.95000000e-009,5.78134354e-005
,,,-5.92500000e-009,9.31322575e-010
,,,-5.90000000e-009,-7.03115737e-005
,,,-5.87500000e-009,-1.45311579e-004
,,,-5.85000000e-009,-2.18749084e-004
,,,-5.82500000e-009,-2.87499089e-004
,,,-5.80000000e-009,-3.43749093e-004
,,,-5.77500000e-009,-3.84374096e-004
,,,-5.75000000e-009,-4.03124097e-004
,,,-5.72500000e-009,-3.99999097e-004
,,,-5.70000000e-009,-3.73436595e-004
,,,-5.67500000e-009,-3.26561592e-004
,,,-5.65000000e-009,-2.67186588e-004
,,,-5.62500000e-009,-1.99999083e-004
,,,-5.60000000e-009,-1.34374078e-004
,,,-5.57500000e-009,-7.65615741e-005
,,,-5.55000000e-009,-3.12490709e-005
,,,-5.52500000e-009,9.31322575e-010
,,,-5.50000000e-009,1.09384321e-005
,,,-5.47500000e-009,7.81343188e-006
,,,-5.45000000e-009,-6.24906912e-006
,,,-5.42500000e-009,-2.34365703e-005
,,,-5.40000000e-009,-3.59365712e-005
,,,-5.37500000e-009,-4.06240716e-005
,,,-5.35000000e-009,-2.96865708e-005
,,,-5.32500000e-009,9.31322575e-010
,,,-5.30000000e-009,4.68759346e-005
,,,-5.27500000e-009,1.09375939e-004
,,,-5.25000000e-009,1.81250944e-004
,,,-5.22500000e-009,2.53125949e-004
,,,-5.20000000e-009,3.20313454e-004
,,,-5.17500000e-009,3.70313458e-004
,,,-5.15000000e-009,3.98438460e-004
,,,-5.12500000e-009,4.00000960e-004
,,,-5.10000000e-009,3.68750957e-004
,,,-5.07500000e-009,3.14063454e-004
,,,-5.05000000e-009,2.43750949e-004
,,,-5.02500000e-009,1.68750943e-004
,,,-5.00000000e-009,9.68759382e-005
,,,-4.97500000e-009,3.90634341e-005
,,,-4.95000000e-009,4.68843165e-006
,,,-4.92500000e-009,9.31322575e-010
,,,-4.90000000e-009,2.03134328e-005
,,,-4.87500000e-009,6.71884361e-005
,,,-4.85000000e-009,1.34375941e-004
,,,-4.82500000e-009,2.09375946e-004
,,,-4.80000000e-009,2.82813451e-004
,,,-4.77500000e-009,3.45313456e-004
,,,-4.75000000e-009,3.85938459e-004
,,,-4.72500000e-009,4.00000960e-004
,,,-4.70000000e-009,3.76563458e-004
,,,-4.67500000e-009,3.28125955e-004
,,,-4.65000000e-009,2.60938450e-004
,,,-4.62500000e-009,1.84375944e-004
,,,-4.60000000e-009,1.09375939e-004
,,,-4.57500000e-009,4.84384348e-005
,,,-4.55000000e-009,9.37593199e-006
,,,-4.52500000e-009,9.31322575e-010
,,,-4.50000000e-009,1.71884325e-005
,,,-4.47500000e-009,6.40634359e-005
,,,-4.45000000e-009,1.29688441e-004
,,,-4.42500000e-009,2.07813446e-004
,,,-4.40000000e-009,2.84375951e-004
,,,-4.37500000e-009,3.48438456e-004
,,,-4.35000000e-009,3.89063459e-004
,,,-4.32500000e-009,4.00000960e-004
,,,-4.30000000e-009,3.70313458e-004
,,,-4.27500000e-009,3.04688453e-004
,,,-4.25000000e-009,2.10938446e-004
,,,-4.22500000e-009,9.37509380e-005
,,,-4.20000000e-009,-3.74990713e-005
,,,-4.17500000e-009,-1.70311581e-004
,,,-4.15000000e-009,-2.93749089e-004
,,,-4.12500000e-009,-3.99999097e-004
,,,-4.10000000e-009,-4.78124103e-004
,,,-4.07500000e-009,-5.26561606e-004
,,,-4.05000000e-009,-5.46874107e-004
,,,-4.02500000e-009,-5.43749107e-004
,,,-4.00000000e-009,-5.21874106e-004
,,,-3.97500000e-009,-4.85936603e-004
,,,-3.95000000e-009,-4.42186600e-004
,,,-3.92500000e-009,-3.99999097e-004
,,,-3.90000000e-009,-3.57811594e-004
,,,-3.87500000e-009,-3.24999092e-004
,,,-3.85000000e-009,-3.04686590e-004
,,,-3.82500000e-009,-2.99999090e-004
,,,-3.80000000e-009,-3.09374091e-004
,,,-3.77500000e-009,-3.31249092e-004
,,,-3.75000000e-009,-3.62499094e-004
,,,-3.72500000e-009,-3.99999097e-004
,,,-3.70000000e-009,-4.31249099e-004
,,,-3.67500000e-009,-4.57811601e-004
,,,-3.65000000e-009,-4.78124103e-004
,,,-3.62500000e-009,-4.89061603e-004
,,,-3.60000000e-009,-4.87499103e-004
,,,-3.57500000e-009,-4.71874102e-004
,,,-3.55000000e-009,-4.43749100e-004
,,,-3.52500000e-009,-3.99999097e-004
,,,-3.50000000e-009,-3.43749093e-004
,,,-3.47500000e-009,-2.81249089e-004
,,,-3.45000000e-009,-2.15624084e-004
,,,-3.42500000e-009,-1.53124080e-004
,,,-3.40000000e-009,-9.68740755e-005
,,,-3.37500000e-009,-5.15615723e-005
,,,-3.35000000e-009,-1.87490700e-005
,,,-3.32500000e-009,9.31322575e-010
,,,-3.30000000e-009,6.25093176e-006
,,,-3.27500000e-009,3.12593154e-006
,,,-3.25000000e-009,-9.37406934e-006
,,,-3.22500000e-009,-2.49990704e-005
,,,-3.20000000e-009,-3.74990713e-005
,,,-3.17500000e-009,-4.06240716e-005
,,,-3.15000000e-009,-2.96865708e-005
,,,-3.12500000e-009,9.31322575e-010
,,,-3.10000000e-009,4.68759346e-005
,,,-3.07500000e-009,1.15625940e-004
,,,-3.05000000e-009,2.06250946e-004
,,,-3.02500000e-009,3.12500953e-004
,,,-3.00000000e-009,4.29688462e-004
,,,-2.97500000e-009,5.56250971e-004
,,,-2.95000000e-009,6.81250980e-004
,,,-2.92500000e-009,8.00000988e-004
,,,-2.90000000e-009,8.95313495e-004
,,,-2.87500000e-009,9.70313500e-004
,,,-2.85000000e-009,1.01875100e-003
,,,-2.82500000e-009,1.03750100e-003
,,,-2.80000000e-009,1.02500100e-003
,,,-2.77500000e-009,9.79688501e-004
,,,-2.75000000e-009,9.03125995e-004
,,,-2.72500000e-009,8.00000988e-004
,,,-2.70000000e-009,6.67188479e-004
,,,-2.67500000e-009,5.26563469e-004
,,,-2.65000000e-009,3.87500959e-004
,,,-2.62500000e-009,2.57813450e-004
,,,-2.60000000e-009,1.46875942e-004
,,,-2.57500000e-009,6.40634359e-005
,,,-2.55000000e-009,1.40634323e-005
,,,-2.52500000e-009,9.31322575e-010
,,,-2.50000000e-009,1.56259324e-005
,,,-2.47500000e-009,6.09384356e-005
,,,-2.45000000e-009,1.25000940e-004
,,,-2.42500000e-009,2.01563446e-004
,,,-2.40000000e-009,2.75000951e-004
,,,-2.37500000e-009,3.39063455e-004
,,,-2.35000000e-009,3.82813458e-004
,,,-2.32500000e-009,4.00000960e-004
,,,-2.30000000e-009,3.84375959e-004
,,,-2.27500000e-009,3.43750956e-004
,,,-2.25000000e-009,2.82813451e-004
,,,-2.22500000e-009,2.09375946e-004
,,,-2.20000000e-009,1.35938441e-004
,,,-2.17500000e-009,7.03134363e-005
,,,-2.15000000e-009,2.18759329e-005
,,,-2.12500000e-009,9.31322575e-010
,,,-2.10000000e-009,1.56343143e-006
,,,-2.07500000e-009,3.12509335e-005
,,,-2.05000000e-009,8.43759373e-005
,,,-2.02500000e-009,1.51563442e-004
,,,-2.00000000e-009,2.26563447e-004
,,,-1.97500000e-009,2.98438452e-004
,,,-1.95000000e-009,3.57813457e-004
,,,-1.92500000e-009,4.00000960e-004
,,,-1.90000000e-009,4.14063461e-004
,,,-1.87500000e-009,4.00000960e-004
,,,-1.85000000e-009,3.60938457e-004
,,,-1.82500000e-009,3.01563453e-004
,,,-1.80000000e-009,2.28125947e-004
,,,-1.77500000e-009,1.48438442e-004
,,,-1.75000000e-009,6.87509362e-005
,,,-1.72500000e-009,9.31322575e-010
,,,-1.70000000e-009,-5.62490727e-005
,,,-1.67500000e-009,-9.53115754e-005
,,,-1.65000000e-009,-1.17186577e-004
,,,-1.62500000e-009,-1.18749077e-004
,,,-1.60000000e-009,-1.04686576e-004
,,,-1.57500000e-009,-7.81240742e-005
,,,-1.55000000e-009,-4.06240716e-005
,,,-1.52500000e-009,9.31322575e-010
,,,-1.50000000e-009,2.81259333e-005
,,,-1.47500000e-009,5.00009349e-005
,,,-1.45000000e-009,6.25009357e-005
,,,-1.42500000e-009,6.71884361e-005
,,,-1.40000000e-009,6.25009357e-005
,,,-1.37500000e-009,4.84384348e-005
,,,-1.35000000e-009,2.81259333e-005
,,,-1.32500000e-009,9.31322575e-010
,,,-1.30000000e-009,-5.78115728e-005
,,,-1.27500000e-009,-1.21874077e-004
,,,-1.25000000e-009,-1.89061582e-004
,,,-1.22500000e-009,-2.53124087e-004
,,,-1.20000000e-009,-3.10936591e-004
,,,-1.17500000e-009,-3.56249094e-004
,,,-1.15000000e-009,-3.85936596e-004
,,,-1.12500000e-009,-3.99999097e-004
,,,-1.10000000e-009,-4.48436600e-004
,,,-1.07500000e-009,-4.85936603e-004
,,,-1.05000000e-009,-5.14061605e-004
,,,-1.02500000e-009,-5.26561606e-004
,,,-1.00000000e-009,-5.20311606e-004
,,,-9.75000000e-010,-4.96874104e-004
,,,-9.50000000e-010,-4.54686601e-004
,,,-9.25000000e-010,-3.99999097e-004
,,,-9.00000000e-010,-4.21874099e-004
,,,-8.75000000e-010,-4.57811601e-004
,,,-8.50000000e-010,-5.03124104e-004
,,,-8.25000000e-010,-5.57811608e-004
,,,-8.00000000e-010,-6.15624112e-004
,,,-7.75000000e-010,-6.76561617e-004
,,,-7.50000000e-010,-7.37499121e-004
,,,-7.25000000e-010,-7.99999125e-004
,,,-7.00000000e-010,-9.79686638e-004
,,,-6.75000000e-010,-1.18124915e-003
,,,-6.50000000e-010,-1.39531167e-003
,,,-6.25000000e-010,-1.61562418e-003
,,,-6.00000000e-010,-1.83124920e-003
,,,-5.75000000e-010,-2.03437421e-003
,,,-5.50000000e-010,-2.22343673e-003
,,,-5.25000000e-010,-2.39999924e-003
,,,-5.00000000e-010,-2.68749926e-003
,,,-4.75000000e-010,-2.99374928e-003
,,,-4.50000000e-010,-3.31718680e-003
,,,-4.25000000e-010,-3.65781183e-003
,,,-4.00000000e-010,-4.01406185e-003
,,,-3.75000000e-010,-4.38749938e-003
,,,-3.50000000e-010,-4.78124941e-003
,,,-3.25000000e-010,-5.19999944e-003
,,,-3.00000000e-010,-5.75312448e-003
,,,-2.75000000e-010,-6.36093702e-003
,,,-2.50000000e-010,-7.02031207e-003
,,,-2.25000000e-010,-7.72187462e-003
,,,-2.00000000e-010,-8.45937467e-003
,,,-1.75000000e-010,-9.22187472e-003
,,,-1.50000000e-010,-1.00031248e-002
,,,-1.25000000e-010,-1.07999998e-002
,,,-1.00000000e-010,-1.16531249e-002
,,,-7.50000000e-011,-1.25312500e-002
,,,-5.00000000e-011,-1.34296875e-002
,,,-2.50000000e-011,-1.43421876e-002
,,,0.00000000e+000,-1.52609376e-002
,,,2.50000000e-011,-1.61812502e-002
,,,5.00000000e-011,-1.70968753e-002
,,,7.50000000e-011,-1.80000003e-002
,,,1.00000000e-010,-1.88640629e-002
,,,1.25000000e-010,-1.97218755e-002
,,,1.50000000e-010,-2.05703130e-002
,,,1.75000000e-010,-2.14031256e-002
,,,2.00000000e-010,-2.22109381e-002
,,,2.25000000e-010,-2.29843757e-002
,,,2.50000000e-010,-2.37156257e-002
,,,2.75000000e-010,-2.44000008e-002
,,,3.00000000e-010,-2.49515633e-002
,,,3.25000000e-010,-2.54781259e-002
,,,3.50000000e-010,-2.59890634e-002
,,,3.75000000e-010,-2.64906259e-002
,,,4.00000000e-010,-2.69828135e-002
,,,4.25000000e-010,-2.74671885e-002
,,,4.50000000e-010,-2.79421885e-002
,,,4.75000000e-010,-2.84000011e-002
,,,5.00000000e-010,-2.87140636e-002
,,,5.25000000e-010,-2.90234386e-002
,,,5.50000000e-010,-2.93265636e-002
,,,5.75000000e-010,-2.96156262e-002
,,,6.00000000e-010,-2.98796887e-002
,,,6.25000000e-010,-3.01046887e-002
,,,6.50000000e-010,-3.02812512e-002
,,,6.75000000e-010,-3.04000012e-002
,,,7.00000000e-010,-3.03062512e-002
,,,7.25000000e-010,-3.01750012e-002
,,,7.50000000e-010,-3.00187512e-002
,,,7.75000000e-010,-2.98484387e-002
,,,8.00000000e-010,-2.96750012e-002
,,,8.25000000e-010,-2.95046887e-002
,,,8.50000000e-010,-2.93468761e-002
,,,8.75000000e-010,-2.92000011e-002
,,,9.00000000e-010,-2.89406261e-002
,,,9.25000000e-010,-2.87125011e-002
,,,9.50000000e-010,-2.85218761e-002
,,,9.75000000e-010,-2.83687511e-002
,,,1.00000000e-009,-2.82484386e-002
,,,1.02500000e-009,-2.81546886e-002
,,,1.05000000e-009,-2.80750011e-002
,,,1.07500000e-009,-2.80000011e-002
,,,1.10000000e-009,-2.78078135e-002
,,,1.12500000e-009,-2.76062510e-002
,,,1.15000000e-009,-2.74000010e-002
,,,1.17500000e-009,-2.71906260e-002
,,,1.20000000e-009,-2.69859385e-002
,,,1.22500000e-009,-2.67843760e-002
,,,1.25000000e-009,-2.65906260e-002
,,,1.27500000e-009,-2.64000009e-002
,,,1.30000000e-009,-2.61203134e-002
,,,1.32500000e-009,-2.58312509e-002
,,,1.35000000e-009,-2.55359384e-002
,,,1.37500000e-009,-2.52359384e-002
,,,1.40000000e-009,-2.49328133e-002
,,,1.42500000e-009,-2.46281258e-002
,,,1.45000000e-009,-2.43187508e-002
,,,1.47500000e-009,-2.40000008e-002
,,,1.50000000e-009,-2.36062507e-002
,,,1.52500000e-009,-2.31843757e-002
,,,1.55000000e-009,-2.27390632e-002
,,,1.57500000e-009,-2.22781256e-002
,,,1.60000000e-009,-2.18078131e-002
,,,1.62500000e-009,-2.13343756e-002
,,,1.65000000e-009,-2.08656255e-002
,,,1.67500000e-009,-2.04000005e-002
,,,1.70000000e-009,-1.99093755e-002
,,,1.72500000e-009,-1.94078129e-002
,,,1.75000000e-009,-1.88984379e-002
,,,1.77500000e-009,-1.83859379e-002
,,,1.80000000e-009,-1.78765628e-002
,,,1.82500000e-009,-1.73750003e-002
,,,1.85000000e-009,-1.68828128e-002
,,,1.87500000e-009,-1.64000002e-002
,,,1.90000000e-009,-1.59171877e-002
,,,1.92500000e-009,-1.54218752e-002
,,,1.95000000e-009,-1.49187501e-002
,,,1.97500000e-009,-1.44078126e-002
,,,2.00000000e-009,-1.38968751e-002
,,,2.02500000e-009,-1.33890625e-002
,,,2.05000000e-009,-1.28890625e-002
,,,2.07500000e-009,-1.23999999e-002
,,,2.10000000e-009,-1.19453124e-002
,,,2.12500000e-009,-1.14828124e-002
,,,2.15000000e-009,-1.10187498e-002
,,,2.17500000e-009,-1.05531248e-002
,,,2.20000000e-009,-1.00921873e-002
,,,2.22500000e-009,-9.64218725e-003
,,,2.25000000e-009,-9.21093722e-003
,,,2.27500000e-009,-8.79999969e-003
,,,2.30000000e-009,-8.45937467e-003
,,,2.32500000e-009,-8.12499964e-003
,,,2.35000000e-009,-7.79843712e-003
,,,2.37500000e-009,-7.48281210e-003
,,,2.40000000e-009,-7.18124958e-003
,,,2.42500000e-009,-6.89843706e-003
,,,2.45000000e-009,-6.63749954e-003
,,,2.47500000e-009,-6.39999952e-003
,,,2.50000000e-009,-6.23906201e-003
,,,2.52500000e-009,-6.07187450e-003
,,,2.55000000e-009,-5.89531199e-003
,,,2.57500000e-009,-5.70468697e-003
,,,2.60000000e-009,-5.49843696e-003
,,,2.62500000e-009,-5.27656194e-003
,,,2.65000000e-009,-5.04374943e-003
,,,2.67500000e-009,-4.79999941e-003
,,,2.70000000e-009,-4.60624939e-003
,,,2.72500000e-009,-4.39531188e-003
,,,2.75000000e-009,-4.17343686e-003
,,,2.77500000e-009,-3.94531185e-003
,,,2.80000000e-009,-3.72499933e-003
,,,2.82500000e-009,-3.52031182e-003
,,,2.85000000e-009,-3.34374931e-003
,,,2.87500000e-009,-3.19999930e-003
,,,2.90000000e-009,-3.14687429e-003
,,,2.92500000e-009,-3.11562429e-003
,,,2.95000000e-009,-3.10468679e-003
,,,2.97500000e-009,-3.10937429e-003
,,,3.00000000e-009,-3.12499929e-003
,,,3.02500000e-009,-3.14687429e-003
,,,3.05000000e-009,-3.17343679e-003
,,,3.07500000e-009,-3.19999930e-003
,,,3.10000000e-009,-3.25468680e-003
,,,3.12500000e-009,-3.29218680e-003
,,,3.15000000e-009,-3.30781180e-003
,,,3.17500000e-009,-3.30624930e-003
,,,3.20000000e-009,-3.28906180e-003
,,,3.22500000e-009,-3.26093680e-003
,,,3.25000000e-009,-3.23124930e-003
,,,3.27500000e-009,-3.19999930e-003
,,,3.30000000e-009,-3.19218679e-003
,,,3.32500000e-009,-3.18281179e-003
,,,3.35000000e-009,-3.17499929e-003
,,,3.37500000e-009,-3.17187429e-003
,,,3.40000000e-009,-3.17187429e-003
,,,3.42500000e-009,-3.17656179e-003
,,,3.45000000e-009,-3.18593679e-003
,,,3.47500000e-009,-3.19999930e-003
,,,3.50000000e-009,-3.22187430e-003
,,,3.52500000e-009,-3.23906180e-003
,,,3.55000000e-009,-3.24999930e-003
,,,3.57500000e-009,-3.25312430e-003
,,,3.60000000e-009,-3.24999930e-003
,,,3.62500000e-009,-3.24062430e-003
,,,3.65000000e-009,-3.22343680e-003
,,,3.67500000e-009,-3.19999930e-003
,,,3.70000000e-009,-3.17031179e-003
,,,3.72500000e-009,-3.13124929e-003
,,,3.75000000e-009,-3.08437429e-003
,,,3.77500000e-009,-3.03281178e-003
,,,3.80000000e-009,-2.97656178e-003
,,,3.82500000e-009,-2.91874928e-003
,,,3.85000000e-009,-2.85937427e-003
,,,3.87500000e-009,-2.79999927e-003
,,,3.90000000e-009,-2.74062426e-003
,,,3.92500000e-009,-2.68281176e-003
,,,3.95000000e-009,-2.62812425e-003
,,,3.97500000e-009,-2.57656175e-003
,,,4.00000000e-009,-2.52812425e-003
,,,4.02500000e-009,-2.48437424e-003
,,,4.05000000e-009,-2.44218674e-003
,,,4.07500000e-009,-2.39999924e-003
,,,4.10000000e-009,-2.35624924e-003
,,,4.12500000e-009,-2.30937423e-003
,,,4.15000000e-009,-2.26093673e-003
,,,4.17500000e-009,-2.21093673e-003
,,,4.20000000e-009,-2.15937422e-003
,,,4.22500000e-009,-2.10624922e-003
,,,4.25000000e-009,-2.05312421e-003
,,,4.27500000e-009,-1.99999921e-003
,,,4.30000000e-009,-1.94531171e-003
,,,4.32500000e-009,-1.88906170e-003
,,,4.35000000e-009,-1.83281170e-003
,,,4.37500000e-009,-1.77812419e-003
,,,4.40000000e-009,-1.72656169e-003
,,,4.42500000e-009,-1.67812419e-003
,,,4.45000000e-009,-1.63593668e-003
,,,4.47500000e-009,-1.59999918e-003
,,,4.50000000e-009,-1.57343668e-003
,,,4.52500000e-009,-1.55312418e-003
,,,4.55000000e-009,-1.54062418e-003
,,,4.57500000e-009,-1.53593668e-003
,,,4.60000000e-009,-1.53906168e-003
,,,4.62500000e-009,-1.55312418e-003
,,,4.65000000e-009,-1.57343668e-003
,,,4.67500000e-009,-1.59999918e-003
,,,4.70000000e-009,-1.63593668e-003
,,,4.72500000e-009,-1.66874919e-003
,,,4.75000000e-009,-1.69374919e-003
,,,4.77500000e-009,-1.70781169e-003
,,,4.80000000e-009,-1.70781169e-003
,,,4.82500000e-009,-1.69218669e-003
,,,4.85000000e-009,-1.65624919e-003
,,,4.87500000e-009,-1.59999918e-003
,,,4.90000000e-009,-1.52812418e-003
,,,4.92500000e-009,-1.43749917e-003
,,,4.95000000e-009,-1.33437416e-003
,,,4.97500000e-009,-1.22343666e-003
,,,5.00000000e-009,-1.10937415e-003
,,,5.02500000e-009,-9.98436639e-004
,,,5.05000000e-009,-8.93749132e-004
,,,5.07500000e-009,-7.99999125e-004
,,,5.10000000e-009,-7.26561620e-004
,,,5.12500000e-009,-6.65624116e-004
,,,5.15000000e-009,-6.14061612e-004
,,,5.17500000e-009,-5.68749109e-004
,,,5.20000000e-009,-5.26561606e-004
,,,5.22500000e-009,-4.85936603e-004
,,,5.25000000e-009,-4.43749100e-004
,,,5.27500000e-009,-3.99999097e-004
,,,5.30000000e-009,-3.62499094e-004
,,,5.32500000e-009,-3.26561592e-004
,,,5.35000000e-009,-2.95311590e-004
,,,5.37500000e-009,-2.74999088e-004
,,,5.40000000e-009,-2.70311588e-004
,,,5.42500000e-009,-2.89061589e-004
,,,5.45000000e-009,-3.31249092e-004
,,,5.47500000e-009,-3.99999097e-004
,,,5.50000000e-009,-4.96874104e-004
,,,5.52500000e-009,-6.10936612e-004
,,,5.55000000e-009,-7.32811621e-004
,,,5.57500000e-009,-8.57811629e-004
,,,5.60000000e-009,-9.73436638e-004
,,,5.62500000e-009,-1.07499914e-003
,,,5.65000000e-009,-1.15156165e-003
,,,5.67500000e-009,-1.19999915e-003
,,,5.70000000e-009,-1.21406165e-003
,,,5.72500000e-009,-1.19531165e-003
,,,5.75000000e-009,-1.14999915e-003
,,,5.77500000e-009,-1.08593665e-003
,,,5.80000000e-009,-1.00937414e-003
,,,5.82500000e-009,-9.31249135e-004
,,,5.85000000e-009,-8.59374130e-004
,,,5.87500000e-009,-7.99999125e-004
,,,5.90000000e-009,-7.64061623e-004
