RawData/WithScintilator/R7_2pt2B_15mV/wave004_Ch2.csv

"Record Length",1000,"Points",-7.72500000e-009,-3.99999097e-004
"Sample Interval",2.50000000e-011,s,-7.70000000e-009,-3.98436597e-004
"Trigger Point",309,"Samples",-7.67500000e-009,-3.99999097e-004
"Trigger Time",2.06001887e-011,s,-7.65000000e-009,-4.03124097e-004
"",,,-7.62500000e-009,-4.09374098e-004
"Horizontal Offset",-7.72500000e-009,s,-7.60000000e-009,-4.14061598e-004
,,,-7.57500000e-009,-4.14061598e-004
,,,-7.55000000e-009,-4.10936598e-004
,,,-7.52500000e-009,-3.99999097e-004
,,,-7.50000000e-009,-3.84374096e-004
,,,-7.47500000e-009,-3.67186595e-004
,,,-7.45000000e-009,-3.49999093e-004
,,,-7.42500000e-009,-3.37499093e-004
,,,-7.40000000e-009,-3.34374092e-004
,,,-7.37500000e-009,-3.42186593e-004
,,,-7.35000000e-009,-3.64061594e-004
,,,-7.32500000e-009,-3.99999097e-004
,,,-7.30000000e-009,-4.49999101e-004
,,,-7.27500000e-009,-5.09374105e-004
,,,-7.25000000e-009,-5.74999109e-004
,,,-7.22500000e-009,-6.42186614e-004
,,,-7.20000000e-009,-7.03124118e-004
,,,-7.17500000e-009,-7.53124122e-004
,,,-7.15000000e-009,-7.85936624e-004
,,,-7.12500000e-009,-7.99999125e-004
,,,-7.10000000e-009,-7.89061625e-004
,,,-7.07500000e-009,-7.56249122e-004
,,,-7.05000000e-009,-7.07811619e-004
,,,-7.02500000e-009,-6.48436615e-004
,,,-7.00000000e-009,-5.82811610e-004
,,,-6.97500000e-009,-5.15624105e-004
,,,-6.95000000e-009,-4.53124101e-004
,,,-6.92500000e-009,-3.99999097e-004
,,,-6.90000000e-009,-3.60936594e-004
,,,-6.87500000e-009,-3.35936592e-004
,,,-6.85000000e-009,-3.26561592e-004
,,,-6.82500000e-009,-3.29686592e-004
,,,-6.80000000e-009,-3.40624093e-004
,,,-6.77500000e-009,-3.59374094e-004
,,,-6.75000000e-009,-3.81249096e-004
,,,-6.72500000e-009,-3.99999097e-004
,,,-6.70000000e-009,-4.15624098e-004
,,,-6.67500000e-009,-4.24999099e-004
,,,-6.65000000e-009,-4.28124099e-004
,,,-6.62500000e-009,-4.26561599e-004
,,,-6.60000000e-009,-4.21874099e-004
,,,-6.57500000e-009,-4.14061598e-004
,,,-6.55000000e-009,-4.06249097e-004
,,,-6.52500000e-009,-3.99999097e-004
,,,-6.50000000e-009,-3.95311597e-004
,,,-6.47500000e-009,-3.92186596e-004
,,,-6.45000000e-009,-3.92186596e-004
,,,-6.42500000e-009,-3.93749097e-004
,,,-6.40000000e-009,-3.96874097e-004
,,,-6.37500000e-009,-3.98436597e-004
,,,-6.35000000e-009,-3.99999097e-004
,,,-6.32500000e-009,-3.99999097e-004
,,,-6.30000000e-009,-3.99999097e-004
,,,-6.27500000e-009,-3.96874097e-004
,,,-6.25000000e-009,-3.93749097e-004
,,,-6.22500000e-009,-3.90624096e-004
,,,-6.20000000e-009,-3.89061596e-004
,,,-6.17500000e-009,-3.90624096e-004
,,,-6.15000000e-009,-3.93749097e-004
,,,-6.12500000e-009,-3.99999097e-004
,,,-6.10000000e-009,-4.10936598e-004
,,,-6.07500000e-009,-4.23436599e-004
,,,-6.05000000e-009,-4.32811599e-004
,,,-6.02500000e-009,-4.40624100e-004
,,,-6.00000000e-009,-4.42186600e-004
,,,-5.97500000e-009,-4.37499100e-004
,,,-5.95000000e-009,-4.23436599e-004
,,,-5.92500000e-009,-3.99999097e-004
,,,-5.90000000e-009,-3.68749095e-004
,,,-5.87500000e-009,-3.28124092e-004
,,,-5.85000000e-009,-2.79686588e-004
,,,-5.82500000e-009,-2.24999085e-004
,,,-5.80000000e-009,-1.67186581e-004
,,,-5.77500000e-009,-1.09374076e-004
,,,-5.75000000e-009,-5.31240724e-005
,,,-5.72500000e-009,9.31322575e-010
,,,-5.70000000e-009,3.90634341e-005
,,,-5.67500000e-009,7.03134363e-005
,,,-5.65000000e-009,8.90634376e-005
,,,-5.62500000e-009,9.53134381e-005
,,,-5.60000000e-009,8.90634376e-005
,,,-5.57500000e-009,7.03134363e-005
,,,-5.55000000e-009,3.90634341e-005
,,,-5.52500000e-009,9.31322575e-010
,,,-5.50000000e-009,-5.31240724e-005
,,,-5.47500000e-009,-1.09374076e-004
,,,-5.45000000e-009,-1.67186581e-004
,,,-5.42500000e-009,-2.24999085e-004
,,,-5.40000000e-009,-2.79686588e-004
,,,-5.37500000e-009,-3.28124092e-004
,,,-5.35000000e-009,-3.68749095e-004
,,,-5.32500000e-009,-3.99999097e-004
,,,-5.30000000e-009,-4.21874099e-004
,,,-5.27500000e-009,-4.32811599e-004
,,,-5.25000000e-009,-4.35936600e-004
,,,-5.22500000e-009,-4.32811599e-004
,,,-5.20000000e-009,-4.26561599e-004
,,,-5.17500000e-009,-4.17186598e-004
,,,-5.15000000e-009,-4.07811598e-004
,,,-5.12500000e-009,-3.99999097e-004
,,,-5.10000000e-009,-3.90624096e-004
,,,-5.07500000e-009,-3.82811596e-004
,,,-5.05000000e-009,-3.79686596e-004
,,,-5.02500000e-009,-3.78124095e-004
,,,-5.00000000e-009,-3.81249096e-004
,,,-4.97500000e-009,-3.85936596e-004
,,,-4.95000000e-009,-3.92186596e-004
,,,-4.92500000e-009,-3.99999097e-004
,,,-4.90000000e-009,-4.09374098e-004
,,,-4.87500000e-009,-4.15624098e-004
,,,-4.85000000e-009,-4.20311598e-004
,,,-4.82500000e-009,-4.21874099e-004
,,,-4.80000000e-009,-4.21874099e-004
,,,-4.77500000e-009,-4.17186598e-004
,,,-4.75000000e-009,-4.09374098e-004
,,,-4.72500000e-009,-3.99999097e-004
,,,-4.70000000e-009,-3.87499096e-004
,,,-4.67500000e-009,-3.74999095e-004
,,,-4.65000000e-009,-3.65624095e-004
,,,-4.62500000e-009,-3.60936594e-004
,,,-4.60000000e-009,-3.62499094e-004
,,,-4.57500000e-009,-3.71874095e-004
,,,-4.55000000e-009,-3.84374096e-004
,,,-4.52500000e-009,-3.99999097e-004
,,,-4.50000000e-009,-4.10936598e-004
,,,-4.47500000e-009,-4.15624098e-004
,,,-4.45000000e-009,-4.04686597e-004
,,,-4.42500000e-009,-3.76561595e-004
,,,-4.40000000e-009,-3.24999092e-004
,,,-4.37500000e-009,-2.43749086e-004
,,,-4.35000000e-009,-1.35936578e-004
,,,-4.32500000e-009,9.31322575e-010
,,,-4.30000000e-009,1.51563442e-004
,,,-4.27500000e-009,3.12500953e-004
,,,-4.25000000e-009,4.71875965e-004
,,,-4.22500000e-009,6.14063475e-004
,,,-4.20000000e-009,7.28125983e-004
,,,-4.17500000e-009,8.01563488e-004
,,,-4.15000000e-009,8.28125990e-004
,,,-4.12500000e-009,8.00000988e-004
,,,-4.10000000e-009,7.07813481e-004
,,,-4.07500000e-009,5.71875972e-004
,,,-4.05000000e-009,4.03125960e-004
,,,-4.02500000e-009,2.15625947e-004
,,,-4.00000000e-009,2.65634332e-005
,,,-3.97500000e-009,-1.46874079e-004
,,,-3.95000000e-009,-2.93749089e-004
,,,-3.92500000e-009,-3.99999097e-004
,,,-3.90000000e-009,-4.59374101e-004
,,,-3.87500000e-009,-4.68749102e-004
,,,-3.85000000e-009,-4.35936600e-004
,,,-3.82500000e-009,-3.68749095e-004
,,,-3.80000000e-009,-2.78124088e-004
,,,-3.77500000e-009,-1.79686581e-004
,,,-3.75000000e-009,-8.28115745e-005
,,,-3.72500000e-009,9.31322575e-010
,,,-3.70000000e-009,5.78134354e-005
,,,-3.67500000e-009,9.06259377e-005
,,,-3.65000000e-009,1.00000938e-004
,,,-3.62500000e-009,9.06259377e-005
,,,-3.60000000e-009,6.87509362e-005
,,,-3.57500000e-009,4.06259342e-005
,,,-3.55000000e-009,1.56259324e-005
,,,-3.52500000e-009,9.31322575e-010
,,,-3.50000000e-009,-1.09365695e-005
,,,-3.47500000e-009,-9.37406934e-006
,,,-3.45000000e-009,1.56343143e-006
,,,-3.42500000e-009,1.56259324e-005
,,,-3.40000000e-009,2.96884334e-005
,,,-3.37500000e-009,3.28134336e-005
,,,-3.35000000e-009,2.50009331e-005
,,,-3.32500000e-009,9.31322575e-010
,,,-3.30000000e-009,-4.53115719e-005
,,,-3.27500000e-009,-1.04686576e-004
,,,-3.25000000e-009,-1.73436581e-004
,,,-3.22500000e-009,-2.43749086e-004
,,,-3.20000000e-009,-3.09374091e-004
,,,-3.17500000e-009,-3.60936594e-004
,,,-3.15000000e-009,-3.92186596e-004
,,,-3.12500000e-009,-3.99999097e-004
,,,-3.10000000e-009,-3.76561595e-004
,,,-3.07500000e-009,-3.31249092e-004
,,,-3.05000000e-009,-2.70311588e-004
,,,-3.02500000e-009,-1.99999083e-004
,,,-3.00000000e-009,-1.31249078e-004
,,,-2.97500000e-009,-7.03115737e-005
,,,-2.95000000e-009,-2.49990704e-005
,,,-2.92500000e-009,9.31322575e-010
,,,-2.90000000e-009,-4.68656901e-006
,,,-2.87500000e-009,-3.28115710e-005
,,,-2.85000000e-009,-8.12490744e-005
,,,-2.82500000e-009,-1.43749079e-004
,,,-2.80000000e-009,-2.14061584e-004
,,,-2.77500000e-009,-2.85936589e-004
,,,-2.75000000e-009,-3.48436593e-004
,,,-2.72500000e-009,-3.99999097e-004
,,,-2.70000000e-009,-4.32811599e-004
,,,-2.67500000e-009,-4.48436600e-004
,,,-2.65000000e-009,-4.49999101e-004
,,,-2.62500000e-009,-4.42186600e-004
,,,-2.60000000e-009,-4.28124099e-004
,,,-2.57500000e-009,-4.12499098e-004
,,,-2.55000000e-009,-4.03124097e-004
,,,-2.52500000e-009,-3.99999097e-004
,,,-2.50000000e-009,-4.07811598e-004
,,,-2.47500000e-009,-4.20311598e-004
,,,-2.45000000e-009,-4.39061600e-004
,,,-2.42500000e-009,-4.54686601e-004
,,,-2.40000000e-009,-4.64061602e-004
,,,-2.37500000e-009,-4.60936601e-004
,,,-2.35000000e-009,-4.40624100e-004
,,,-2.32500000e-009,-3.99999097e-004
,,,-2.30000000e-009,-3.43749093e-004
,,,-2.27500000e-009,-2.74999088e-004
,,,-2.25000000e-009,-1.99999083e-004
,,,-2.22500000e-009,-1.26561578e-004
,,,-2.20000000e-009,-6.40615732e-005
,,,-2.17500000e-009,-1.87490700e-005
,,,-2.15000000e-009,3.12593154e-006
,,,-2.12500000e-009,9.31322575e-010
,,,-2.10000000e-009,-3.59365712e-005
,,,-2.07500000e-009,-9.37490753e-005
,,,-2.05000000e-009,-1.65624080e-004
,,,-2.02500000e-009,-2.42186586e-004
,,,-2.00000000e-009,-3.12499091e-004
,,,-1.97500000e-009,-3.67186595e-004
,,,-1.95000000e-009,-3.98436597e-004
,,,-1.92500000e-009,-3.99999097e-004
,,,-1.90000000e-009,-3.74999095e-004
,,,-1.87500000e-009,-3.23436592e-004
,,,-1.85000000e-009,-2.54686587e-004
,,,-1.82500000e-009,-1.76561581e-004
,,,-1.80000000e-009,-1.03124076e-004
,,,-1.77500000e-009,-4.21865717e-005
,,,-1.75000000e-009,-6.24906912e-006
,,,-1.72500000e-009,9.31322575e-010
,,,-1.70000000e-009,-4.06240716e-005
,,,-1.67500000e-009,-1.15624077e-004
,,,-1.65000000e-009,-2.18749084e-004
,,,-1.62500000e-009,-3.40624093e-004
,,,-1.60000000e-009,-4.70311602e-004
,,,-1.57500000e-009,-5.96874111e-004
,,,-1.55000000e-009,-7.10936619e-004
,,,-1.52500000e-009,-7.99999125e-004
,,,-1.50000000e-009,-8.76561631e-004
,,,-1.47500000e-009,-9.24999134e-004
,,,-1.45000000e-009,-9.46874136e-004
,,,-1.42500000e-009,-9.43749135e-004
,,,-1.40000000e-009,-9.21874134e-004
,,,-1.37500000e-009,-8.85936631e-004
,,,-1.35000000e-009,-8.43749128e-004
,,,-1.32500000e-009,-7.99999125e-004
,,,-1.30000000e-009,-7.93749125e-004
,,,-1.27500000e-009,-7.98436625e-004
,,,-1.25000000e-009,-8.12499126e-004
,,,-1.22500000e-009,-8.28124127e-004
,,,-1.20000000e-009,-8.40624128e-004
,,,-1.17500000e-009,-8.43749128e-004
,,,-1.15000000e-009,-8.29686627e-004
,,,-1.12500000e-009,-7.99999125e-004
,,,-1.10000000e-009,-8.07811626e-004
,,,-1.07500000e-009,-8.10936626e-004
,,,-1.05000000e-009,-8.10936626e-004
,,,-1.02500000e-009,-8.06249126e-004
,,,-1.00000000e-009,-7.99999125e-004
,,,-9.75000000e-010,-7.93749125e-004
,,,-9.50000000e-010,-7.92186625e-004
,,,-9.25000000e-010,-7.99999125e-004
,,,-9.00000000e-010,-9.03124133e-004
,,,-8.75000000e-010,-1.03281164e-003
,,,-8.50000000e-010,-1.18593665e-003
,,,-8.25000000e-010,-1.35156166e-003
,,,-8.00000000e-010,-1.52187418e-003
,,,-7.75000000e-010,-1.69062419e-003
,,,-7.50000000e-010,-1.84999920e-003
,,,-7.25000000e-010,-1.99999921e-003
,,,-7.00000000e-010,-2.23124923e-003
,,,-6.75000000e-010,-2.47031174e-003
,,,-6.50000000e-010,-2.71718676e-003
,,,-6.25000000e-010,-2.96718678e-003
,,,-6.00000000e-010,-3.22031180e-003
,,,-5.75000000e-010,-3.47343681e-003
,,,-5.50000000e-010,-3.73281183e-003
,,,-5.25000000e-010,-3.99999935e-003
,,,-5.00000000e-010,-4.36249938e-003
,,,-4.75000000e-010,-4.75781191e-003
,,,-4.50000000e-010,-5.18281194e-003
,,,-4.25000000e-010,-5.63437447e-003
,,,-4.00000000e-010,-6.10624950e-003
,,,-3.75000000e-010,-6.59374954e-003
,,,-3.50000000e-010,-7.09218707e-003
,,,-3.25000000e-010,-7.59999961e-003
,,,-3.00000000e-010,-8.16093715e-003
,,,-2.75000000e-010,-8.73906219e-003
,,,-2.50000000e-010,-9.33437473e-003
,,,-2.25000000e-010,-9.94062477e-003
,,,-2.00000000e-010,-1.05531248e-002
,,,-1.75000000e-010,-1.11687499e-002
,,,-1.50000000e-010,-1.17859374e-002
,,,-1.25000000e-010,-1.23999999e-002
,,,-1.00000000e-010,-1.30062500e-002
,,,-7.50000000e-011,-1.36250000e-002
,,,-5.00000000e-011,-1.42593751e-002
,,,-2.50000000e-011,-1.49093751e-002
,,,0.00000000e+000,-1.55718752e-002
,,,2.50000000e-011,-1.62453127e-002
,,,5.00000000e-011,-1.69234378e-002
,,,7.50000000e-011,-1.76000003e-002
,,,1.00000000e-010,-1.82109379e-002
,,,1.25000000e-010,-1.88187504e-002
,,,1.50000000e-010,-1.94187504e-002
,,,1.75000000e-010,-2.00062505e-002
,,,2.00000000e-010,-2.05671880e-002
,,,2.25000000e-010,-2.10937506e-002
,,,2.50000000e-010,-2.15750006e-002
,,,2.75000000e-010,-2.20000006e-002
,,,3.00000000e-010,-2.22609381e-002
,,,3.25000000e-010,-2.24765632e-002
,,,3.50000000e-010,-2.26562507e-002
,,,3.75000000e-010,-2.28062507e-002
,,,4.00000000e-010,-2.29343757e-002
,,,4.25000000e-010,-2.30421882e-002
,,,4.50000000e-010,-2.31312507e-002
,,,4.75000000e-010,-2.32000007e-002
,,,5.00000000e-010,-2.31343757e-002
,,,5.25000000e-010,-2.30640632e-002
,,,5.50000000e-010,-2.29890632e-002
,,,5.75000000e-010,-2.29062507e-002
,,,6.00000000e-010,-2.28140632e-002
,,,6.25000000e-010,-2.27015632e-002
,,,6.50000000e-010,-2.25656257e-002
,,,6.75000000e-010,-2.24000007e-002
,,,7.00000000e-010,-2.21015631e-002
,,,7.25000000e-010,-2.17921881e-002
,,,7.50000000e-010,-2.14875006e-002
,,,7.75000000e-010,-2.12000006e-002
,,,8.00000000e-010,-2.09406256e-002
,,,8.25000000e-010,-2.07187505e-002
,,,8.50000000e-010,-2.05390630e-002
,,,8.75000000e-010,-2.04000005e-002
,,,9.00000000e-010,-2.02171880e-002
,,,9.25000000e-010,-2.00640630e-002
,,,9.50000000e-010,-1.99343755e-002
,,,9.75000000e-010,-1.98171880e-002
,,,1.00000000e-009,-1.96984380e-002
,,,1.02500000e-009,-1.95640630e-002
,,,1.05000000e-009,-1.94015629e-002
,,,1.07500000e-009,-1.92000004e-002
,,,1.10000000e-009,-1.88968754e-002
,,,1.12500000e-009,-1.85500004e-002
,,,1.15000000e-009,-1.81718754e-002
,,,1.17500000e-009,-1.77796878e-002
,,,1.20000000e-009,-1.73906253e-002
,,,1.22500000e-009,-1.70234378e-002
,,,1.25000000e-009,-1.66890627e-002
,,,1.27500000e-009,-1.64000002e-002
,,,1.30000000e-009,-1.61343752e-002
,,,1.32500000e-009,-1.59031252e-002
,,,1.35000000e-009,-1.57015627e-002
,,,1.37500000e-009,-1.55218752e-002
,,,1.40000000e-009,-1.53531252e-002
,,,1.42500000e-009,-1.51843751e-002
,,,1.45000000e-009,-1.50031251e-002
,,,1.47500000e-009,-1.48000001e-002
,,,1.50000000e-009,-1.45578126e-002
,,,1.52500000e-009,-1.42671876e-002
,,,1.55000000e-009,-1.39328126e-002
,,,1.57500000e-009,-1.35640625e-002
,,,1.60000000e-009,-1.31734375e-002
,,,1.62500000e-009,-1.27750000e-002
,,,1.65000000e-009,-1.23796874e-002
,,,1.67500000e-009,-1.19999999e-002
,,,1.70000000e-009,-1.16484374e-002
,,,1.72500000e-009,-1.13093749e-002
,,,1.75000000e-009,-1.09874998e-002
,,,1.77500000e-009,-1.06796873e-002
,,,1.80000000e-009,-1.03890623e-002
,,,1.82500000e-009,-1.01140623e-002
,,,1.85000000e-009,-9.85312477e-003
,,,1.87500000e-009,-9.59999975e-003
,,,1.90000000e-009,-9.36874973e-003
,,,1.92500000e-009,-9.12656221e-003
,,,1.95000000e-009,-8.87343720e-003
,,,1.97500000e-009,-8.61249968e-003
,,,2.00000000e-009,-8.34843716e-003
,,,2.02500000e-009,-8.08749964e-003
,,,2.05000000e-009,-7.83593712e-003
,,,2.07500000e-009,-7.59999961e-003
,,,2.10000000e-009,-7.40781209e-003
,,,2.12500000e-009,-7.22343708e-003
,,,2.15000000e-009,-7.04687457e-003
,,,2.17500000e-009,-6.88437456e-003
,,,2.20000000e-009,-6.73593705e-003
,,,2.22500000e-009,-6.60468704e-003
,,,2.25000000e-009,-6.49374953e-003
,,,2.27500000e-009,-6.39999952e-003
,,,2.30000000e-009,-6.34374952e-003
,,,2.32500000e-009,-6.28281201e-003
,,,2.35000000e-009,-6.21093701e-003
,,,2.37500000e-009,-6.12499950e-003
,,,2.40000000e-009,-6.02343700e-003
,,,2.42500000e-009,-5.90156199e-003
,,,2.45000000e-009,-5.76093698e-003
,,,2.47500000e-009,-5.59999947e-003
,,,2.50000000e-009,-5.44218695e-003
,,,2.52500000e-009,-5.25781194e-003
,,,2.55000000e-009,-5.05312443e-003
,,,2.57500000e-009,-4.83437441e-003
,,,2.60000000e-009,-4.60937439e-003
,,,2.62500000e-009,-4.39062438e-003
,,,2.65000000e-009,-4.18593686e-003
,,,2.67500000e-009,-3.99999935e-003
,,,2.70000000e-009,-3.86249934e-003
,,,2.72500000e-009,-3.73906183e-003
,,,2.75000000e-009,-3.62968683e-003
,,,2.77500000e-009,-3.53124932e-003
,,,2.80000000e-009,-3.44062431e-003
,,,2.82500000e-009,-3.35781181e-003
,,,2.85000000e-009,-3.27812430e-003
,,,2.87500000e-009,-3.19999930e-003
,,,2.90000000e-009,-3.14531179e-003
,,,2.92500000e-009,-3.08437429e-003
,,,2.95000000e-009,-3.02031178e-003
,,,2.97500000e-009,-2.95624928e-003
,,,3.00000000e-009,-2.89843677e-003
,,,3.02500000e-009,-2.84999927e-003
,,,3.05000000e-009,-2.81718677e-003
,,,3.07500000e-009,-2.79999927e-003
,,,3.10000000e-009,-2.80937427e-003
,,,3.12500000e-009,-2.82499927e-003
,,,3.15000000e-009,-2.84218677e-003
,,,3.17500000e-009,-2.85624927e-003
,,,3.20000000e-009,-2.86249927e-003
,,,3.22500000e-009,-2.85781177e-003
,,,3.25000000e-009,-2.83906177e-003
,,,3.27500000e-009,-2.79999927e-003
,,,3.30000000e-009,-2.74999926e-003
,,,3.32500000e-009,-2.67499926e-003
,,,3.35000000e-009,-2.57968675e-003
,,,3.37500000e-009,-2.46718674e-003
,,,3.40000000e-009,-2.34531173e-003
,,,3.42500000e-009,-2.22343673e-003
,,,3.45000000e-009,-2.10468672e-003
,,,3.47500000e-009,-1.99999921e-003
,,,3.50000000e-009,-1.92656171e-003
,,,3.52500000e-009,-1.87187420e-003
,,,3.55000000e-009,-1.83906170e-003
,,,3.57500000e-009,-1.82968670e-003
,,,3.60000000e-009,-1.84374920e-003
,,,3.62500000e-009,-1.87968670e-003
,,,3.65000000e-009,-1.93437421e-003
,,,3.67500000e-009,-1.99999921e-003
,,,3.70000000e-009,-2.07656172e-003
,,,3.72500000e-009,-2.14374922e-003
,,,3.75000000e-009,-2.19531172e-003
,,,3.77500000e-009,-2.22343673e-003
,,,3.80000000e-009,-2.22031173e-003
,,,3.82500000e-009,-2.18437422e-003
,,,3.85000000e-009,-2.11093672e-003
,,,3.87500000e-009,-1.99999921e-003
,,,3.90000000e-009,-1.85781170e-003
,,,3.92500000e-009,-1.68906169e-003
,,,3.95000000e-009,-1.50624918e-003
,,,3.97500000e-009,-1.32187416e-003
,,,4.00000000e-009,-1.14843665e-003
,,,4.02500000e-009,-9.98436639e-004
,,,4.05000000e-009,-8.79686631e-004
,,,4.07500000e-009,-7.99999125e-004
,,,4.10000000e-009,-7.70311623e-004
,,,4.12500000e-009,-7.79686624e-004
,,,4.15000000e-009,-8.21874127e-004
,,,4.17500000e-009,-8.87499131e-004
,,,4.20000000e-009,-9.68749137e-004
,,,4.22500000e-009,-1.05468664e-003
,,,4.25000000e-009,-1.13437415e-003
,,,4.27500000e-009,-1.19999915e-003
,,,4.30000000e-009,-1.25156166e-003
,,,4.32500000e-009,-1.27812416e-003
,,,4.35000000e-009,-1.28281166e-003
,,,4.37500000e-009,-1.27187416e-003
,,,4.40000000e-009,-1.25156166e-003
,,,4.42500000e-009,-1.22812416e-003
,,,4.45000000e-009,-1.21093665e-003
,,,4.47500000e-009,-1.19999915e-003
,,,4.50000000e-009,-1.20156165e-003
,,,4.52500000e-009,-1.21249915e-003
,,,4.55000000e-009,-1.22968666e-003
,,,4.57500000e-009,-1.24687416e-003
,,,4.60000000e-009,-1.25781166e-003
,,,4.62500000e-009,-1.25781166e-003
,,,4.65000000e-009,-1.24062416e-003
,,,4.67500000e-009,-1.19999915e-003
,,,4.70000000e-009,-1.13906165e-003
,,,4.72500000e-009,-1.05468664e-003
,,,4.75000000e-009,-9.51561636e-004
,,,4.77500000e-009,-8.35936628e-004
,,,4.80000000e-009,-7.15624119e-004
,,,4.82500000e-009,-5.98436611e-004
,,,4.85000000e-009,-4.90624103e-004
,,,4.87500000e-009,-3.99999097e-004
,,,4.90000000e-009,-3.39061593e-004
,,,4.92500000e-009,-2.98436590e-004
,,,4.95000000e-009,-2.81249089e-004
,,,4.97500000e-009,-2.82811589e-004
,,,5.00000000e-009,-3.01561590e-004
,,,5.02500000e-009,-3.29686592e-004
,,,5.05000000e-009,-3.64061594e-004
,,,5.07500000e-009,-3.99999097e-004
,,,5.10000000e-009,-4.34374099e-004
,,,5.12500000e-009,-4.60936601e-004
,,,5.15000000e-009,-4.76561602e-004
,,,5.17500000e-009,-4.81249103e-004
,,,5.20000000e-009,-4.74999102e-004
,,,5.22500000e-009,-4.56249101e-004
,,,5.25000000e-009,-4.31249099e-004
,,,5.27500000e-009,-3.99999097e-004
,,,5.30000000e-009,-3.70311595e-004
,,,5.32500000e-009,-3.40624093e-004
,,,5.35000000e-009,-3.18749091e-004
,,,5.37500000e-009,-3.04686590e-004
,,,5.40000000e-009,-3.04686590e-004
,,,5.42500000e-009,-3.20311591e-004
,,,5.45000000e-009,-3.53124094e-004
,,,5.47500000e-009,-3.99999097e-004
,,,5.50000000e-009,-4.65624102e-004
,,,5.52500000e-009,-5.35936607e-004
,,,5.55000000e-009,-6.09374112e-004
,,,5.57500000e-009,-6.78124117e-004
,,,5.60000000e-009,-7.35936621e-004
,,,5.62500000e-009,-7.78124124e-004
,,,5.65000000e-009,-7.99999125e-004
,,,5.67500000e-009,-7.99999125e-004
,,,5.70000000e-009,-7.81249124e-004
,,,5.72500000e-009,-7.42186621e-004
,,,5.75000000e-009,-6.87499117e-004
,,,5.77500000e-009,-6.23436613e-004
,,,5.80000000e-009,-5.56249108e-004
,,,5.82500000e-009,-4.93749104e-004
