RawData/WithScintilator/R7_2pt2B_15mV/wave006_Ch2.csv

"Record Length",1000,"Points",-7.72500000e-009,-5.89061610e-004
"Sample Interval",2.50000000e-011,s,-7.70000000e-009,-5.32811606e-004
"Trigger Point",309,"Samples",-7.67500000e-009,-4.81249103e-004
"Trigger Time",2.59142857e-012,s,-7.65000000e-009,-4.37499100e-004
"",,,-7.62500000e-009,-3.99999097e-004
"Horizontal Offset",-7.72500000e-009,s,-7.60000000e-009,-3.70311595e-004
,,,-7.57500000e-009,-3.51561594e-004
,,,-7.55000000e-009,-3.43749093e-004
,,,-7.52500000e-009,-3.43749093e-004
,,,-7.50000000e-009,-3.53124094e-004
,,,-7.47500000e-009,-3.65624095e-004
,,,-7.45000000e-009,-3.82811596e-004
,,,-7.42500000e-009,-3.99999097e-004
,,,-7.40000000e-009,-4.15624098e-004
,,,-7.37500000e-009,-4.24999099e-004
,,,-7.35000000e-009,-4.31249099e-004
,,,-7.32500000e-009,-4.32811599e-004
,,,-7.30000000e-009,-4.31249099e-004
,,,-7.27500000e-009,-4.24999099e-004
,,,-7.25000000e-009,-4.14061598e-004
,,,-7.22500000e-009,-3.99999097e-004
,,,-7.20000000e-009,-3.81249096e-004
,,,-7.17500000e-009,-3.56249094e-004
,,,-7.15000000e-009,-3.21874091e-004
,,,-7.12500000e-009,-2.79686588e-004
,,,-7.10000000e-009,-2.24999085e-004
,,,-7.07500000e-009,-1.60936580e-004
,,,-7.05000000e-009,-8.43740746e-005
,,,-7.02500000e-009,9.31322575e-010
,,,-7.00000000e-009,8.43759373e-005
,,,-6.97500000e-009,1.70313443e-004
,,,-6.95000000e-009,2.51563449e-004
,,,-6.92500000e-009,3.20313454e-004
,,,-6.90000000e-009,3.73438458e-004
,,,-6.87500000e-009,4.06250960e-004
,,,-6.85000000e-009,4.15625961e-004
,,,-6.82500000e-009,4.00000960e-004
,,,-6.80000000e-009,3.53125956e-004
,,,-6.77500000e-009,2.89063452e-004
,,,-6.75000000e-009,2.17188447e-004
,,,-6.72500000e-009,1.43750941e-004
,,,-6.70000000e-009,7.96884370e-005
,,,-6.67500000e-009,2.96884334e-005
,,,-6.65000000e-009,1.56343143e-006
,,,-6.62500000e-009,9.31322575e-010
,,,-6.60000000e-009,1.71884325e-005
,,,-6.57500000e-009,5.78134354e-005
,,,-6.55000000e-009,1.17188440e-004
,,,-6.52500000e-009,1.85938444e-004
,,,-6.50000000e-009,2.56250949e-004
,,,-6.47500000e-009,3.20313454e-004
,,,-6.45000000e-009,3.70313458e-004
,,,-6.42500000e-009,4.00000960e-004
,,,-6.40000000e-009,3.95313459e-004
,,,-6.37500000e-009,3.68750957e-004
,,,-6.35000000e-009,3.20313454e-004
,,,-6.32500000e-009,2.57813450e-004
,,,-6.30000000e-009,1.85938444e-004
,,,-6.27500000e-009,1.15625940e-004
,,,-6.25000000e-009,5.15634350e-005
,,,-6.22500000e-009,9.31322575e-010
,,,-6.20000000e-009,-4.21865717e-005
,,,-6.17500000e-009,-6.56240733e-005
,,,-6.15000000e-009,-7.18740738e-005
,,,-6.12500000e-009,-6.40615732e-005
,,,-6.10000000e-009,-4.84365721e-005
,,,-6.07500000e-009,-2.81240707e-005
,,,-6.05000000e-009,-1.09365695e-005
,,,-6.02500000e-009,9.31322575e-010
,,,-6.00000000e-009,-4.68656901e-006
,,,-5.97500000e-009,-2.34365703e-005
,,,-5.95000000e-009,-5.78115728e-005
,,,-5.92500000e-009,-1.06249076e-004
,,,-5.90000000e-009,-1.68749081e-004
,,,-5.87500000e-009,-2.40624086e-004
,,,-5.85000000e-009,-3.18749091e-004
,,,-5.82500000e-009,-3.99999097e-004
,,,-5.80000000e-009,-4.79686603e-004
,,,-5.77500000e-009,-5.53124108e-004
,,,-5.75000000e-009,-6.20311613e-004
,,,-5.72500000e-009,-6.79686617e-004
,,,-5.70000000e-009,-7.26561620e-004
,,,-5.67500000e-009,-7.62499123e-004
,,,-5.65000000e-009,-7.87499124e-004
,,,-5.62500000e-009,-7.99999125e-004
,,,-5.60000000e-009,-8.03124126e-004
,,,-5.57500000e-009,-7.98436625e-004
,,,-5.55000000e-009,-7.92186625e-004
,,,-5.52500000e-009,-7.84374124e-004
,,,-5.50000000e-009,-7.81249124e-004
,,,-5.47500000e-009,-7.81249124e-004
,,,-5.45000000e-009,-7.89061625e-004
,,,-5.42500000e-009,-7.99999125e-004
,,,-5.40000000e-009,-8.10936626e-004
,,,-5.37500000e-009,-8.24999127e-004
,,,-5.35000000e-009,-8.39061628e-004
,,,-5.32500000e-009,-8.49999129e-004
,,,-5.30000000e-009,-8.54686629e-004
,,,-5.27500000e-009,-8.49999129e-004
,,,-5.25000000e-009,-8.32811628e-004
,,,-5.22500000e-009,-7.99999125e-004
,,,-5.20000000e-009,-7.53124122e-004
,,,-5.17500000e-009,-6.96874118e-004
,,,-5.15000000e-009,-6.34374114e-004
,,,-5.12500000e-009,-5.70311609e-004
,,,-5.10000000e-009,-5.09374105e-004
,,,-5.07500000e-009,-4.59374101e-004
,,,-5.05000000e-009,-4.21874099e-004
,,,-5.02500000e-009,-3.99999097e-004
,,,-5.00000000e-009,-3.98436597e-004
,,,-4.97500000e-009,-4.15624098e-004
,,,-4.95000000e-009,-4.53124101e-004
,,,-4.92500000e-009,-5.06249105e-004
,,,-4.90000000e-009,-5.73436609e-004
,,,-4.87500000e-009,-6.48436615e-004
,,,-4.85000000e-009,-7.26561620e-004
,,,-4.82500000e-009,-7.99999125e-004
,,,-4.80000000e-009,-8.62499130e-004
,,,-4.77500000e-009,-9.10936633e-004
,,,-4.75000000e-009,-9.42186635e-004
,,,-4.72500000e-009,-9.53124136e-004
,,,-4.70000000e-009,-9.43749135e-004
,,,-4.67500000e-009,-9.14061633e-004
,,,-4.65000000e-009,-8.64061630e-004
,,,-4.62500000e-009,-7.99999125e-004
,,,-4.60000000e-009,-7.24999120e-004
,,,-4.57500000e-009,-6.43749114e-004
,,,-4.55000000e-009,-5.65624109e-004
,,,-4.52500000e-009,-4.96874104e-004
,,,-4.50000000e-009,-4.40624100e-004
,,,-4.47500000e-009,-4.04686597e-004
,,,-4.45000000e-009,-3.90624096e-004
,,,-4.42500000e-009,-3.99999097e-004
,,,-4.40000000e-009,-4.32811599e-004
,,,-4.37500000e-009,-4.81249103e-004
,,,-4.35000000e-009,-5.42186607e-004
,,,-4.32500000e-009,-6.09374112e-004
,,,-4.30000000e-009,-6.74999116e-004
,,,-4.27500000e-009,-7.32811621e-004
,,,-4.25000000e-009,-7.76561624e-004
,,,-4.22500000e-009,-7.99999125e-004
,,,-4.20000000e-009,-8.01561625e-004
,,,-4.17500000e-009,-7.79686624e-004
,,,-4.15000000e-009,-7.39061621e-004
,,,-4.12500000e-009,-6.81249117e-004
,,,-4.10000000e-009,-6.12499112e-004
,,,-4.07500000e-009,-5.39061607e-004
,,,-4.05000000e-009,-4.65624102e-004
,,,-4.02500000e-009,-3.99999097e-004
,,,-4.00000000e-009,-3.46874093e-004
,,,-3.97500000e-009,-3.10936591e-004
,,,-3.95000000e-009,-2.90624089e-004
,,,-3.92500000e-009,-2.87499089e-004
,,,-3.90000000e-009,-3.01561590e-004
,,,-3.87500000e-009,-3.26561592e-004
,,,-3.85000000e-009,-3.60936594e-004
,,,-3.82500000e-009,-3.99999097e-004
,,,-3.80000000e-009,-4.40624100e-004
,,,-3.77500000e-009,-4.76561602e-004
,,,-3.75000000e-009,-4.99999104e-004
,,,-3.72500000e-009,-5.12499105e-004
,,,-3.70000000e-009,-5.07811605e-004
,,,-3.67500000e-009,-4.87499103e-004
,,,-3.65000000e-009,-4.51561601e-004
,,,-3.62500000e-009,-3.99999097e-004
,,,-3.60000000e-009,-3.40624093e-004
,,,-3.57500000e-009,-2.73436588e-004
,,,-3.55000000e-009,-2.03124083e-004
,,,-3.52500000e-009,-1.37499078e-004
,,,-3.50000000e-009,-7.96865743e-005
,,,-3.47500000e-009,-3.59365712e-005
,,,-3.45000000e-009,-9.37406934e-006
,,,-3.42500000e-009,9.31322575e-010
,,,-3.40000000e-009,-1.71865699e-005
,,,-3.37500000e-009,-4.99990722e-005
,,,-3.35000000e-009,-9.99990758e-005
,,,-3.32500000e-009,-1.59374080e-004
,,,-3.30000000e-009,-2.24999085e-004
,,,-3.27500000e-009,-2.90624089e-004
,,,-3.25000000e-009,-3.49999093e-004
,,,-3.22500000e-009,-3.99999097e-004
,,,-3.20000000e-009,-4.40624100e-004
,,,-3.17500000e-009,-4.65624102e-004
,,,-3.15000000e-009,-4.74999102e-004
,,,-3.12500000e-009,-4.71874102e-004
,,,-3.10000000e-009,-4.60936601e-004
,,,-3.07500000e-009,-4.42186600e-004
,,,-3.05000000e-009,-4.20311598e-004
,,,-3.02500000e-009,-3.99999097e-004
,,,-3.00000000e-009,-3.84374096e-004
,,,-2.97500000e-009,-3.73436595e-004
,,,-2.95000000e-009,-3.67186595e-004
,,,-2.92500000e-009,-3.68749095e-004
,,,-2.90000000e-009,-3.73436595e-004
,,,-2.87500000e-009,-3.81249096e-004
,,,-2.85000000e-009,-3.90624096e-004
,,,-2.82500000e-009,-3.99999097e-004
,,,-2.80000000e-009,-4.09374098e-004
,,,-2.77500000e-009,-4.14061598e-004
,,,-2.75000000e-009,-4.15624098e-004
,,,-2.72500000e-009,-4.15624098e-004
,,,-2.70000000e-009,-4.14061598e-004
,,,-2.67500000e-009,-4.09374098e-004
,,,-2.65000000e-009,-4.04686597e-004
,,,-2.62500000e-009,-3.99999097e-004
,,,-2.60000000e-009,-3.95311597e-004
,,,-2.57500000e-009,-3.90624096e-004
,,,-2.55000000e-009,-3.87499096e-004
,,,-2.52500000e-009,-3.87499096e-004
,,,-2.50000000e-009,-3.87499096e-004
,,,-2.47500000e-009,-3.90624096e-004
,,,-2.45000000e-009,-3.95311597e-004
,,,-2.42500000e-009,-3.99999097e-004
,,,-2.40000000e-009,-4.01561597e-004
,,,-2.37500000e-009,-4.01561597e-004
,,,-2.35000000e-009,-4.01561597e-004
,,,-2.32500000e-009,-4.03124097e-004
,,,-2.30000000e-009,-4.03124097e-004
,,,-2.27500000e-009,-4.01561597e-004
,,,-2.25000000e-009,-4.01561597e-004
,,,-2.22500000e-009,-3.99999097e-004
,,,-2.20000000e-009,-3.99999097e-004
,,,-2.17500000e-009,-3.99999097e-004
,,,-2.15000000e-009,-3.98436597e-004
,,,-2.12500000e-009,-3.98436597e-004
,,,-2.10000000e-009,-3.98436597e-004
,,,-2.07500000e-009,-3.98436597e-004
,,,-2.05000000e-009,-3.99999097e-004
,,,-2.02500000e-009,-3.99999097e-004
,,,-2.00000000e-009,-3.99999097e-004
,,,-1.97500000e-009,-3.99999097e-004
,,,-1.95000000e-009,-3.99999097e-004
,,,-1.92500000e-009,-3.99999097e-004
,,,-1.90000000e-009,-4.01561597e-004
,,,-1.87500000e-009,-4.03124097e-004
,,,-1.85000000e-009,-4.03124097e-004
,,,-1.82500000e-009,-3.99999097e-004
,,,-1.80000000e-009,-3.93749097e-004
,,,-1.77500000e-009,-3.78124095e-004
,,,-1.75000000e-009,-3.51561594e-004
,,,-1.72500000e-009,-3.12499091e-004
,,,-1.70000000e-009,-2.57811587e-004
,,,-1.67500000e-009,-1.85936582e-004
,,,-1.65000000e-009,-9.99990758e-005
,,,-1.62500000e-009,9.31322575e-010
,,,-1.60000000e-009,9.37509380e-005
,,,-1.57500000e-009,1.87500945e-004
,,,-1.55000000e-009,2.75000951e-004
,,,-1.52500000e-009,3.48438456e-004
,,,-1.50000000e-009,4.01563460e-004
,,,-1.47500000e-009,4.29688462e-004
,,,-1.45000000e-009,4.29688462e-004
,,,-1.42500000e-009,4.00000960e-004
,,,-1.40000000e-009,3.14063454e-004
,,,-1.37500000e-009,2.03125946e-004
,,,-1.35000000e-009,7.50009366e-005
,,,-1.32500000e-009,-5.62490727e-005
,,,-1.30000000e-009,-1.79686581e-004
,,,-1.27500000e-009,-2.84374089e-004
,,,-1.25000000e-009,-3.59374094e-004
,,,-1.22500000e-009,-3.99999097e-004
,,,-1.20000000e-009,-4.43749100e-004
,,,-1.17500000e-009,-4.56249101e-004
,,,-1.15000000e-009,-4.34374099e-004
,,,-1.12500000e-009,-3.84374096e-004
,,,-1.10000000e-009,-3.07811590e-004
,,,-1.07500000e-009,-2.12499084e-004
,,,-1.05000000e-009,-1.07811576e-004
,,,-1.02500000e-009,9.31322575e-010
,,,-1.00000000e-009,2.50009331e-005
,,,-9.75000000e-010,2.18759329e-005
,,,-9.50000000e-010,-6.24906912e-006
,,,-9.25000000e-010,-5.78115728e-005
,,,-9.00000000e-010,-1.28124078e-004
,,,-8.75000000e-010,-2.10936584e-004
,,,-8.50000000e-010,-3.03124090e-004
,,,-8.25000000e-010,-3.99999097e-004
,,,-8.00000000e-010,-5.96874111e-004
,,,-7.75000000e-010,-8.07811626e-004
,,,-7.50000000e-010,-1.02656164e-003
,,,-7.25000000e-010,-1.24374916e-003
,,,-7.00000000e-010,-1.45312417e-003
,,,-6.75000000e-010,-1.64999919e-003
,,,-6.50000000e-010,-1.83124920e-003
,,,-6.25000000e-010,-1.99999921e-003
,,,-6.00000000e-010,-2.25624923e-003
,,,-5.75000000e-010,-2.52499925e-003
,,,-5.50000000e-010,-2.80624927e-003
,,,-5.25000000e-010,-3.10156179e-003
,,,-5.00000000e-010,-3.40624931e-003
,,,-4.75000000e-010,-3.72343683e-003
,,,-4.50000000e-010,-4.05312436e-003
,,,-4.25000000e-010,-4.39999938e-003
,,,-4.00000000e-010,-4.84999941e-003
,,,-3.75000000e-010,-5.34062445e-003
,,,-3.50000000e-010,-5.86718698e-003
,,,-3.25000000e-010,-6.42343702e-003
,,,-3.00000000e-010,-7.00156206e-003
,,,-2.75000000e-010,-7.59218711e-003
,,,-2.50000000e-010,-8.19374965e-003
,,,-2.25000000e-010,-8.79999969e-003
,,,-2.00000000e-010,-9.45624974e-003
,,,-1.75000000e-010,-1.01312498e-002
,,,-1.50000000e-010,-1.08234373e-002
,,,-1.25000000e-010,-1.15296874e-002
,,,-1.00000000e-010,-1.22437499e-002
,,,-7.50000000e-011,-1.29640625e-002
,,,-5.00000000e-011,-1.36843750e-002
,,,-2.50000000e-011,-1.44000001e-002
,,,0.00000000e+000,-1.51000001e-002
,,,2.50000000e-011,-1.58015627e-002
,,,5.00000000e-011,-1.64984377e-002
,,,7.50000000e-011,-1.71843753e-002
,,,1.00000000e-010,-1.78453128e-002
,,,1.25000000e-010,-1.84734379e-002
,,,1.50000000e-010,-1.90609379e-002
,,,1.75000000e-010,-1.96000005e-002
,,,2.00000000e-010,-2.00375005e-002
,,,2.25000000e-010,-2.04500005e-002
,,,2.50000000e-010,-2.08484380e-002
,,,2.75000000e-010,-2.12390631e-002
,,,3.00000000e-010,-2.16265631e-002
,,,3.25000000e-010,-2.20171881e-002
,,,3.50000000e-010,-2.24078132e-002
,,,3.75000000e-010,-2.28000007e-002
,,,4.00000000e-010,-2.31000007e-002
,,,4.25000000e-010,-2.34125007e-002
,,,4.50000000e-010,-2.37375007e-002
,,,4.75000000e-010,-2.40671883e-002
,,,5.00000000e-010,-2.43921883e-002
,,,5.25000000e-010,-2.46968758e-002
,,,5.50000000e-010,-2.49703133e-002
,,,5.75000000e-010,-2.52000009e-002
,,,6.00000000e-010,-2.52640634e-002
,,,6.25000000e-010,-2.52953134e-002
,,,6.50000000e-010,-2.53015634e-002
,,,6.75000000e-010,-2.52906259e-002
,,,7.00000000e-010,-2.52703134e-002
,,,7.25000000e-010,-2.52453134e-002
,,,7.50000000e-010,-2.52218759e-002
,,,7.75000000e-010,-2.52000009e-002
,,,8.00000000e-010,-2.50687508e-002
,,,8.25000000e-010,-2.49578133e-002
,,,8.50000000e-010,-2.48734383e-002
,,,8.75000000e-010,-2.48171883e-002
,,,9.00000000e-010,-2.47890633e-002
,,,9.25000000e-010,-2.47828133e-002
,,,9.50000000e-010,-2.47906258e-002
,,,9.75000000e-010,-2.48000008e-002
,,,1.00000000e-009,-2.46968758e-002
,,,1.02500000e-009,-2.45812508e-002
,,,1.05000000e-009,-2.44531258e-002
,,,1.07500000e-009,-2.43140633e-002
,,,1.10000000e-009,-2.41593758e-002
,,,1.12500000e-009,-2.39906258e-002
,,,1.15000000e-009,-2.38062508e-002
,,,1.17500000e-009,-2.36000007e-002
,,,1.20000000e-009,-2.32859382e-002
,,,1.22500000e-009,-2.29468757e-002
,,,1.25000000e-009,-2.25906257e-002
,,,1.27500000e-009,-2.22265631e-002
,,,1.30000000e-009,-2.18609381e-002
,,,1.32500000e-009,-2.15000006e-002
,,,1.35000000e-009,-2.11468756e-002
,,,1.37500000e-009,-2.08000005e-002
,,,1.40000000e-009,-2.04015630e-002
,,,1.42500000e-009,-1.99984380e-002
,,,1.45000000e-009,-1.95953130e-002
,,,1.47500000e-009,-1.91921879e-002
,,,1.50000000e-009,-1.87921879e-002
,,,1.52500000e-009,-1.83937504e-002
,,,1.55000000e-009,-1.79968753e-002
,,,1.57500000e-009,-1.76000003e-002
,,,1.60000000e-009,-1.71703128e-002
,,,1.62500000e-009,-1.67234378e-002
,,,1.65000000e-009,-1.62640627e-002
,,,1.67500000e-009,-1.57968752e-002
,,,1.70000000e-009,-1.53312502e-002
,,,1.72500000e-009,-1.48734376e-002
,,,1.75000000e-009,-1.44281251e-002
,,,1.77500000e-009,-1.40000001e-002
,,,1.80000000e-009,-1.35843750e-002
,,,1.82500000e-009,-1.31703125e-002
,,,1.85000000e-009,-1.27593750e-002
,,,1.87500000e-009,-1.23515624e-002
,,,1.90000000e-009,-1.19499999e-002
,,,1.92500000e-009,-1.15578124e-002
,,,1.95000000e-009,-1.11734374e-002
,,,1.97500000e-009,-1.07999998e-002
,,,2.00000000e-009,-1.04531248e-002
,,,2.02500000e-009,-1.00984373e-002
,,,2.05000000e-009,-9.73437476e-003
,,,2.07500000e-009,-9.36874973e-003
,,,2.10000000e-009,-9.00624971e-003
,,,2.12500000e-009,-8.65468718e-003
,,,2.15000000e-009,-8.31718716e-003
,,,2.17500000e-009,-7.99999963e-003
,,,2.20000000e-009,-7.73906212e-003
,,,2.22500000e-009,-7.47968710e-003
,,,2.25000000e-009,-7.22187458e-003
,,,2.27500000e-009,-6.96562456e-003
,,,2.30000000e-009,-6.71406204e-003
,,,2.32500000e-009,-6.46718703e-003
,,,2.35000000e-009,-6.22968701e-003
,,,2.37500000e-009,-5.99999949e-003
,,,2.40000000e-009,-5.81718698e-003
,,,2.42500000e-009,-5.62499947e-003
,,,2.45000000e-009,-5.42343695e-003
,,,2.47500000e-009,-5.21406194e-003
,,,2.50000000e-009,-5.00156192e-003
,,,2.52500000e-009,-4.79218691e-003
,,,2.55000000e-009,-4.59062439e-003
,,,2.57500000e-009,-4.39999938e-003
,,,2.60000000e-009,-4.25937437e-003
,,,2.62500000e-009,-4.11562436e-003
,,,2.65000000e-009,-3.96718685e-003
,,,2.67500000e-009,-3.81406184e-003
,,,2.70000000e-009,-3.65781183e-003
,,,2.72500000e-009,-3.50156182e-003
,,,2.75000000e-009,-3.34843681e-003
,,,2.77500000e-009,-3.19999930e-003
,,,2.80000000e-009,-3.09374929e-003
,,,2.82500000e-009,-2.98281178e-003
,,,2.85000000e-009,-2.87031177e-003
,,,2.87500000e-009,-2.75781176e-003
,,,2.90000000e-009,-2.65156176e-003
,,,2.92500000e-009,-2.55468675e-003
,,,2.95000000e-009,-2.47031174e-003
,,,2.97500000e-009,-2.39999924e-003
,,,3.00000000e-009,-2.37187424e-003
,,,3.02500000e-009,-2.34374923e-003
,,,3.05000000e-009,-2.31249923e-003
,,,3.07500000e-009,-2.27343673e-003
,,,3.10000000e-009,-2.22343673e-003
,,,3.12500000e-009,-2.16249922e-003
,,,3.15000000e-009,-2.08749922e-003
,,,3.17500000e-009,-1.99999921e-003
,,,3.20000000e-009,-1.92343670e-003
,,,3.22500000e-009,-1.82968670e-003
,,,3.25000000e-009,-1.72343669e-003
,,,3.27500000e-009,-1.60937418e-003
,,,3.30000000e-009,-1.49374917e-003
,,,3.32500000e-009,-1.38281167e-003
,,,3.35000000e-009,-1.28437416e-003
,,,3.37500000e-009,-1.19999915e-003
,,,3.40000000e-009,-1.16093665e-003
,,,3.42500000e-009,-1.13749915e-003
,,,3.45000000e-009,-1.12812415e-003
,,,3.47500000e-009,-1.13124915e-003
,,,3.50000000e-009,-1.14374915e-003
,,,3.52500000e-009,-1.16093665e-003
,,,3.55000000e-009,-1.18124915e-003
,,,3.57500000e-009,-1.19999915e-003
,,,3.60000000e-009,-1.23124916e-003
,,,3.62500000e-009,-1.25156166e-003
,,,3.65000000e-009,-1.26249916e-003
,,,3.67500000e-009,-1.26249916e-003
,,,3.70000000e-009,-1.25468666e-003
,,,3.72500000e-009,-1.23906166e-003
,,,3.75000000e-009,-1.22031166e-003
,,,3.77500000e-009,-1.19999915e-003
,,,3.80000000e-009,-1.19218665e-003
,,,3.82500000e-009,-1.18437415e-003
,,,3.85000000e-009,-1.17812415e-003
,,,3.87500000e-009,-1.17499915e-003
,,,3.90000000e-009,-1.17499915e-003
,,,3.92500000e-009,-1.17968665e-003
,,,3.95000000e-009,-1.18749915e-003
,,,3.97500000e-009,-1.19999915e-003
,,,4.00000000e-009,-1.22656166e-003
,,,4.02500000e-009,-1.25937416e-003
,,,4.05000000e-009,-1.29687416e-003
,,,4.07500000e-009,-1.34218666e-003
,,,4.10000000e-009,-1.39531167e-003
,,,4.12500000e-009,-1.45624917e-003
,,,4.15000000e-009,-1.52499918e-003
,,,4.17500000e-009,-1.59999918e-003
,,,4.20000000e-009,-1.67812419e-003
,,,4.22500000e-009,-1.75468669e-003
,,,4.25000000e-009,-1.82656170e-003
,,,4.27500000e-009,-1.88906170e-003
,,,4.30000000e-009,-1.94062421e-003
,,,4.32500000e-009,-1.97812421e-003
,,,4.35000000e-009,-1.99843671e-003
,,,4.37500000e-009,-1.99999921e-003
,,,4.40000000e-009,-1.97656171e-003
,,,4.42500000e-009,-1.93749921e-003
,,,4.45000000e-009,-1.88593670e-003
,,,4.47500000e-009,-1.82656170e-003
,,,4.50000000e-009,-1.76406169e-003
,,,4.52500000e-009,-1.70312419e-003
,,,4.55000000e-009,-1.64687419e-003
,,,4.57500000e-009,-1.59999918e-003
,,,4.60000000e-009,-1.56249918e-003
,,,4.62500000e-009,-1.53906168e-003
,,,4.65000000e-009,-1.52812418e-003
,,,4.67500000e-009,-1.52812418e-003
,,,4.70000000e-009,-1.53906168e-003
,,,4.72500000e-009,-1.55781168e-003
,,,4.75000000e-009,-1.57812418e-003
,,,4.77500000e-009,-1.59999918e-003
,,,4.80000000e-009,-1.61562418e-003
,,,4.82500000e-009,-1.62656168e-003
,,,4.85000000e-009,-1.63281168e-003
,,,4.87500000e-009,-1.63437418e-003
,,,4.90000000e-009,-1.63281168e-003
,,,4.92500000e-009,-1.62499918e-003
,,,4.95000000e-009,-1.61562418e-003
,,,4.97500000e-009,-1.59999918e-003
,,,5.00000000e-009,-1.57499918e-003
,,,5.02500000e-009,-1.54218668e-003
,,,5.05000000e-009,-1.50468668e-003
,,,5.07500000e-009,-1.45937417e-003
,,,5.10000000e-009,-1.40624917e-003
,,,5.12500000e-009,-1.34531166e-003
,,,5.15000000e-009,-1.27656166e-003
,,,5.17500000e-009,-1.19999915e-003
,,,5.20000000e-009,-1.12031165e-003
,,,5.22500000e-009,-1.03906164e-003
,,,5.25000000e-009,-9.64061637e-004
,,,5.27500000e-009,-8.96874132e-004
,,,5.30000000e-009,-8.43749128e-004
,,,5.32500000e-009,-8.07811626e-004
,,,5.35000000e-009,-7.93749125e-004
,,,5.37500000e-009,-7.99999125e-004
,,,5.40000000e-009,-8.31249128e-004
,,,5.42500000e-009,-8.78124131e-004
,,,5.45000000e-009,-9.35936635e-004
,,,5.47500000e-009,-9.99999139e-004
,,,5.50000000e-009,-1.06562414e-003
,,,5.52500000e-009,-1.12343665e-003
,,,5.55000000e-009,-1.17031165e-003
,,,5.57500000e-009,-1.19999915e-003
,,,5.60000000e-009,-1.21249915e-003
,,,5.62500000e-009,-1.20156165e-003
,,,5.65000000e-009,-1.16874915e-003
,,,5.67500000e-009,-1.11874915e-003
,,,5.70000000e-009,-1.05156164e-003
,,,5.72500000e-009,-9.73436638e-004
,,,5.75000000e-009,-8.89061632e-004
,,,5.77500000e-009,-7.99999125e-004
,,,5.80000000e-009,-7.18749120e-004
,,,5.82500000e-009,-6.42186614e-004
,,,5.85000000e-009,-5.74999109e-004
