RawData/WithScintilator/R7_2pt2B_15mV/wave029_Ch2.csv

"Record Length",1000,"Points",-7.72500000e-009,2.50009331e-005
"Sample Interval",2.50000000e-011,s,-7.70000000e-009,3.90634341e-005
"Trigger Point",309,"Samples",-7.67500000e-009,4.37509344e-005
"Trigger Time",6.05125000e-012,s,-7.65000000e-009,4.06259342e-005
"",,,-7.62500000e-009,3.12509335e-005
"Horizontal Offset",-7.72500000e-009,s,-7.60000000e-009,2.03134328e-005
,,,-7.57500000e-009,9.37593199e-006
,,,-7.55000000e-009,9.31322575e-010
,,,-7.52500000e-009,-1.09365695e-005
,,,-7.50000000e-009,-1.71865699e-005
,,,-7.47500000e-009,-1.87490700e-005
,,,-7.45000000e-009,-1.56240698e-005
,,,-7.42500000e-009,-1.24990696e-005
,,,-7.40000000e-009,-7.81156923e-006
,,,-7.37500000e-009,-3.12406890e-006
,,,-7.35000000e-009,9.31322575e-010
,,,-7.32500000e-009,-3.12406890e-006
,,,-7.30000000e-009,-7.81156923e-006
,,,-7.27500000e-009,-1.24990696e-005
,,,-7.25000000e-009,-1.56240698e-005
,,,-7.22500000e-009,-1.87490700e-005
,,,-7.20000000e-009,-1.71865699e-005
,,,-7.17500000e-009,-1.09365695e-005
,,,-7.15000000e-009,9.31322575e-010
,,,-7.12500000e-009,1.09384321e-005
,,,-7.10000000e-009,2.50009331e-005
,,,-7.07500000e-009,3.75009340e-005
,,,-7.05000000e-009,4.68759346e-005
,,,-7.02500000e-009,5.00009349e-005
,,,-7.00000000e-009,4.53134345e-005
,,,-6.97500000e-009,2.81259333e-005
,,,-6.95000000e-009,9.31322575e-010
,,,-6.92500000e-009,-4.21865717e-005
,,,-6.90000000e-009,-9.37490753e-005
,,,-6.87500000e-009,-1.49999079e-004
,,,-6.85000000e-009,-2.09374083e-004
,,,-6.82500000e-009,-2.67186588e-004
,,,-6.80000000e-009,-3.20311591e-004
,,,-6.77500000e-009,-3.65624095e-004
,,,-6.75000000e-009,-3.99999097e-004
,,,-6.72500000e-009,-4.20311598e-004
,,,-6.70000000e-009,-4.29686599e-004
,,,-6.67500000e-009,-4.29686599e-004
,,,-6.65000000e-009,-4.24999099e-004
,,,-6.62500000e-009,-4.15624098e-004
,,,-6.60000000e-009,-4.07811598e-004
,,,-6.57500000e-009,-4.01561597e-004
,,,-6.55000000e-009,-3.99999097e-004
,,,-6.52500000e-009,-4.01561597e-004
,,,-6.50000000e-009,-4.07811598e-004
,,,-6.47500000e-009,-4.15624098e-004
,,,-6.45000000e-009,-4.24999099e-004
,,,-6.42500000e-009,-4.29686599e-004
,,,-6.40000000e-009,-4.29686599e-004
,,,-6.37500000e-009,-4.20311598e-004
,,,-6.35000000e-009,-3.99999097e-004
,,,-6.32500000e-009,-3.65624095e-004
,,,-6.30000000e-009,-3.20311591e-004
,,,-6.27500000e-009,-2.67186588e-004
,,,-6.25000000e-009,-2.09374083e-004
,,,-6.22500000e-009,-1.49999079e-004
,,,-6.20000000e-009,-9.37490753e-005
,,,-6.17500000e-009,-4.21865717e-005
,,,-6.15000000e-009,9.31322575e-010
,,,-6.12500000e-009,2.96884334e-005
,,,-6.10000000e-009,4.84384348e-005
,,,-6.07500000e-009,5.62509353e-005
,,,-6.05000000e-009,5.31259351e-005
,,,-6.02500000e-009,4.37509344e-005
,,,-6.00000000e-009,2.96884334e-005
,,,-5.97500000e-009,1.40634323e-005
,,,-5.95000000e-009,9.31322575e-010
,,,-5.92500000e-009,-1.24990696e-005
,,,-5.90000000e-009,-2.18740702e-005
,,,-5.87500000e-009,-2.49990704e-005
,,,-5.85000000e-009,-2.49990704e-005
,,,-5.82500000e-009,-2.03115701e-005
,,,-5.80000000e-009,-1.56240698e-005
,,,-5.77500000e-009,-7.81156923e-006
,,,-5.75000000e-009,9.31322575e-010
,,,-5.72500000e-009,1.56343143e-006
,,,-5.70000000e-009,3.12593154e-006
,,,-5.67500000e-009,1.56343143e-006
,,,-5.65000000e-009,1.56343143e-006
,,,-5.62500000e-009,9.31322575e-010
,,,-5.60000000e-009,-1.56156879e-006
,,,-5.57500000e-009,-1.56156879e-006
,,,-5.55000000e-009,9.31322575e-010
,,,-5.52500000e-009,9.31322575e-010
,,,-5.50000000e-009,1.56343143e-006
,,,-5.47500000e-009,4.68843165e-006
,,,-5.45000000e-009,7.81343188e-006
,,,-5.42500000e-009,9.37593199e-006
,,,-5.40000000e-009,7.81343188e-006
,,,-5.37500000e-009,4.68843165e-006
,,,-5.35000000e-009,9.31322575e-010
,,,-5.32500000e-009,-1.09365695e-005
,,,-5.30000000e-009,-2.03115701e-005
,,,-5.27500000e-009,-2.81240707e-005
,,,-5.25000000e-009,-3.28115710e-005
,,,-5.22500000e-009,-3.43740711e-005
,,,-5.20000000e-009,-2.81240707e-005
,,,-5.17500000e-009,-1.71865699e-005
,,,-5.15000000e-009,9.31322575e-010
,,,-5.12500000e-009,2.18759329e-005
,,,-5.10000000e-009,4.37509344e-005
,,,-5.07500000e-009,6.40634359e-005
,,,-5.05000000e-009,7.81259369e-005
,,,-5.02500000e-009,7.96884370e-005
,,,-5.00000000e-009,6.87509362e-005
,,,-4.97500000e-009,4.21884343e-005
,,,-4.95000000e-009,9.31322575e-010
,,,-4.92500000e-009,-5.62490727e-005
,,,-4.90000000e-009,-1.20311577e-004
,,,-4.87500000e-009,-1.89061582e-004
,,,-4.85000000e-009,-2.56249087e-004
,,,-4.82500000e-009,-3.17186591e-004
,,,-4.80000000e-009,-3.64061594e-004
,,,-4.77500000e-009,-3.92186596e-004
,,,-4.75000000e-009,-3.99999097e-004
,,,-4.72500000e-009,-3.85936596e-004
,,,-4.70000000e-009,-3.49999093e-004
,,,-4.67500000e-009,-2.99999090e-004
,,,-4.65000000e-009,-2.37499085e-004
,,,-4.62500000e-009,-1.71874081e-004
,,,-4.60000000e-009,-1.06249076e-004
,,,-4.57500000e-009,-4.84365721e-005
,,,-4.55000000e-009,9.31322575e-010
,,,-4.52500000e-009,2.96884334e-005
,,,-4.50000000e-009,4.68759346e-005
,,,-4.47500000e-009,4.84384348e-005
,,,-4.45000000e-009,4.06259342e-005
,,,-4.42500000e-009,2.65634332e-005
,,,-4.40000000e-009,1.09384321e-005
,,,-4.37500000e-009,1.56343143e-006
,,,-4.35000000e-009,9.31322575e-010
,,,-4.32500000e-009,9.37593199e-006
,,,-4.30000000e-009,3.43759338e-005
,,,-4.27500000e-009,7.34384365e-005
,,,-4.25000000e-009,1.25000940e-004
,,,-4.22500000e-009,1.87500945e-004
,,,-4.20000000e-009,2.57813450e-004
,,,-4.17500000e-009,3.29688455e-004
,,,-4.15000000e-009,4.00000960e-004
,,,-4.12500000e-009,4.57813464e-004
,,,-4.10000000e-009,5.04688467e-004
,,,-4.07500000e-009,5.35938469e-004
,,,-4.05000000e-009,5.48438470e-004
,,,-4.02500000e-009,5.42188470e-004
,,,-4.00000000e-009,5.15625968e-004
,,,-3.97500000e-009,4.67188464e-004
,,,-3.95000000e-009,4.00000960e-004
,,,-3.92500000e-009,3.10938453e-004
,,,-3.90000000e-009,2.12500946e-004
,,,-3.87500000e-009,1.03125939e-004
,,,-3.85000000e-009,-7.81156923e-006
,,,-3.82500000e-009,-1.18749077e-004
,,,-3.80000000e-009,-2.23436584e-004
,,,-3.77500000e-009,-3.18749091e-004
,,,-3.75000000e-009,-3.99999097e-004
,,,-3.72500000e-009,-4.65624102e-004
,,,-3.70000000e-009,-5.10936605e-004
,,,-3.67500000e-009,-5.37499107e-004
,,,-3.65000000e-009,-5.42186607e-004
,,,-3.62500000e-009,-5.29686606e-004
,,,-3.60000000e-009,-4.99999104e-004
,,,-3.57500000e-009,-4.56249101e-004
,,,-3.55000000e-009,-3.99999097e-004
,,,-3.52500000e-009,-3.37499093e-004
,,,-3.50000000e-009,-2.73436588e-004
,,,-3.47500000e-009,-2.09374083e-004
,,,-3.45000000e-009,-1.51561579e-004
,,,-3.42500000e-009,-9.99990758e-005
,,,-3.40000000e-009,-5.62490727e-005
,,,-3.37500000e-009,-2.34365703e-005
,,,-3.35000000e-009,9.31322575e-010
,,,-3.32500000e-009,1.09384321e-005
,,,-3.30000000e-009,1.40634323e-005
,,,-3.27500000e-009,1.09384321e-005
,,,-3.25000000e-009,6.25093176e-006
,,,-3.22500000e-009,9.31322575e-010
,,,-3.20000000e-009,-4.68656901e-006
,,,-3.17500000e-009,-4.68656901e-006
,,,-3.15000000e-009,9.31322575e-010
,,,-3.12500000e-009,1.09384321e-005
,,,-3.10000000e-009,2.50009331e-005
,,,-3.07500000e-009,3.90634341e-005
,,,-3.05000000e-009,5.00009349e-005
,,,-3.02500000e-009,5.46884352e-005
,,,-3.00000000e-009,4.84384348e-005
,,,-2.97500000e-009,2.96884334e-005
,,,-2.95000000e-009,9.31322575e-010
,,,-2.92500000e-009,-4.06240716e-005
,,,-2.90000000e-009,-9.06240751e-005
,,,-2.87500000e-009,-1.48436579e-004
,,,-2.85000000e-009,-2.09374083e-004
,,,-2.82500000e-009,-2.68749088e-004
,,,-2.80000000e-009,-3.23436592e-004
,,,-2.77500000e-009,-3.67186595e-004
,,,-2.75000000e-009,-3.99999097e-004
,,,-2.72500000e-009,-4.17186598e-004
,,,-2.70000000e-009,-4.21874099e-004
,,,-2.67500000e-009,-4.17186598e-004
,,,-2.65000000e-009,-4.07811598e-004
,,,-2.62500000e-009,-3.96874097e-004
,,,-2.60000000e-009,-3.90624096e-004
,,,-2.57500000e-009,-3.90624096e-004
,,,-2.55000000e-009,-3.99999097e-004
,,,-2.52500000e-009,-4.17186598e-004
,,,-2.50000000e-009,-4.37499100e-004
,,,-2.47500000e-009,-4.60936601e-004
,,,-2.45000000e-009,-4.79686603e-004
,,,-2.42500000e-009,-4.87499103e-004
,,,-2.40000000e-009,-4.79686603e-004
,,,-2.37500000e-009,-4.51561601e-004
,,,-2.35000000e-009,-3.99999097e-004
,,,-2.32500000e-009,-3.23436592e-004
,,,-2.30000000e-009,-2.28124085e-004
,,,-2.27500000e-009,-1.18749077e-004
,,,-2.25000000e-009,9.31322575e-010
,,,-2.22500000e-009,1.17188440e-004
,,,-2.20000000e-009,2.26563447e-004
,,,-2.17500000e-009,3.21875954e-004
,,,-2.15000000e-009,4.00000960e-004
,,,-2.12500000e-009,4.50000963e-004
,,,-2.10000000e-009,4.78125965e-004
,,,-2.07500000e-009,4.85938466e-004
,,,-2.05000000e-009,4.78125965e-004
,,,-2.02500000e-009,4.59375964e-004
,,,-2.00000000e-009,4.35938462e-004
,,,-1.97500000e-009,4.15625961e-004
,,,-1.95000000e-009,4.00000960e-004
,,,-1.92500000e-009,3.85938459e-004
,,,-1.90000000e-009,3.81250958e-004
,,,-1.87500000e-009,3.84375959e-004
,,,-1.85000000e-009,3.92188459e-004
,,,-1.82500000e-009,4.01563460e-004
,,,-1.80000000e-009,4.07813460e-004
,,,-1.77500000e-009,4.09375960e-004
,,,-1.75000000e-009,4.00000960e-004
,,,-1.72500000e-009,3.67188457e-004
,,,-1.70000000e-009,3.23438454e-004
,,,-1.67500000e-009,2.70313450e-004
,,,-1.65000000e-009,2.10938446e-004
,,,-1.62500000e-009,1.50000942e-004
,,,-1.60000000e-009,9.21884378e-005
,,,-1.57500000e-009,4.06259342e-005
,,,-1.55000000e-009,9.31322575e-010
,,,-1.52500000e-009,-4.53115719e-005
,,,-1.50000000e-009,-7.49990740e-005
,,,-1.47500000e-009,-9.21865752e-005
,,,-1.45000000e-009,-9.68740755e-005
,,,-1.42500000e-009,-8.59365748e-005
,,,-1.40000000e-009,-6.56240733e-005
,,,-1.37500000e-009,-3.59365712e-005
,,,-1.35000000e-009,9.31322575e-010
,,,-1.32500000e-009,4.68843165e-006
,,,-1.30000000e-009,4.68843165e-006
,,,-1.27500000e-009,9.31322575e-010
,,,-1.25000000e-009,-4.68656901e-006
,,,-1.22500000e-009,-7.81156923e-006
,,,-1.20000000e-009,-9.37406934e-006
,,,-1.17500000e-009,-6.24906912e-006
,,,-1.15000000e-009,9.31322575e-010
,,,-1.12500000e-009,-4.53115719e-005
,,,-1.10000000e-009,-9.84365756e-005
,,,-1.07500000e-009,-1.56249080e-004
,,,-1.05000000e-009,-2.15624084e-004
,,,-1.02500000e-009,-2.70311588e-004
,,,-1.00000000e-009,-3.20311591e-004
,,,-9.75000000e-010,-3.64061594e-004
,,,-9.50000000e-010,-3.99999097e-004
,,,-9.25000000e-010,-5.07811605e-004
,,,-9.00000000e-010,-6.21874113e-004
,,,-8.75000000e-010,-7.39061621e-004
,,,-8.50000000e-010,-8.53124129e-004
,,,-8.25000000e-010,-9.59374137e-004
,,,-8.00000000e-010,-1.05312414e-003
,,,-7.75000000e-010,-1.13124915e-003
,,,-7.50000000e-010,-1.19999915e-003
,,,-7.25000000e-010,-1.34843666e-003
,,,-7.00000000e-010,-1.51249918e-003
,,,-6.75000000e-010,-1.68906169e-003
,,,-6.50000000e-010,-1.88281170e-003
,,,-6.25000000e-010,-2.08749922e-003
,,,-6.00000000e-010,-2.30781173e-003
,,,-5.75000000e-010,-2.54531175e-003
,,,-5.50000000e-010,-2.79999927e-003
,,,-5.25000000e-010,-3.16093679e-003
,,,-5.00000000e-010,-3.55937432e-003
,,,-4.75000000e-010,-3.99218685e-003
,,,-4.50000000e-010,-4.44999938e-003
,,,-4.25000000e-010,-4.92499942e-003
,,,-4.00000000e-010,-5.41093695e-003
,,,-3.75000000e-010,-5.90468699e-003
,,,-3.50000000e-010,-6.39999952e-003
,,,-3.25000000e-010,-6.94531206e-003
,,,-3.00000000e-010,-7.50781210e-003
,,,-2.75000000e-010,-8.08906214e-003
,,,-2.50000000e-010,-8.68437468e-003
,,,-2.25000000e-010,-9.29531223e-003
,,,-2.00000000e-010,-9.91874977e-003
,,,-1.75000000e-010,-1.05546873e-002
,,,-1.50000000e-010,-1.11999999e-002
,,,-1.25000000e-010,-1.18499999e-002
,,,-1.00000000e-010,-1.25140625e-002
,,,-7.50000000e-011,-1.31890625e-002
,,,-5.00000000e-011,-1.38640625e-002
,,,-2.50000000e-011,-1.45328126e-002
,,,0.00000000e+000,-1.51828126e-002
,,,2.50000000e-011,-1.58078127e-002
,,,5.00000000e-011,-1.64000002e-002
,,,7.50000000e-011,-1.69015628e-002
,,,1.00000000e-010,-1.73812503e-002
,,,1.25000000e-010,-1.78437503e-002
,,,1.50000000e-010,-1.82937504e-002
,,,1.75000000e-010,-1.87343754e-002
,,,2.00000000e-010,-1.91656254e-002
,,,2.25000000e-010,-1.95890630e-002
,,,2.50000000e-010,-2.00000005e-002
,,,2.75000000e-010,-2.03078130e-002
,,,3.00000000e-010,-2.06093755e-002
,,,3.25000000e-010,-2.09046880e-002
,,,3.50000000e-010,-2.11890631e-002
,,,3.75000000e-010,-2.14500006e-002
,,,4.00000000e-010,-2.16796881e-002
,,,4.25000000e-010,-2.18656256e-002
,,,4.50000000e-010,-2.20000006e-002
,,,4.75000000e-010,-2.19687506e-002
,,,5.00000000e-010,-2.19000006e-002
,,,5.25000000e-010,-2.18046881e-002
,,,5.50000000e-010,-2.16921881e-002
,,,5.75000000e-010,-2.15687506e-002
,,,6.00000000e-010,-2.14437506e-002
,,,6.25000000e-010,-2.13203131e-002
,,,6.50000000e-010,-2.12000006e-002
,,,6.75000000e-010,-2.09859381e-002
,,,7.00000000e-010,-2.07906255e-002
,,,7.25000000e-010,-2.06187505e-002
,,,7.50000000e-010,-2.04718755e-002
,,,7.75000000e-010,-2.03421880e-002
,,,8.00000000e-010,-2.02250005e-002
,,,8.25000000e-010,-2.01140630e-002
,,,8.50000000e-010,-2.00000005e-002
,,,8.75000000e-010,-1.97921880e-002
,,,9.00000000e-010,-1.95765630e-002
,,,9.25000000e-010,-1.93593754e-002
,,,9.50000000e-010,-1.91453129e-002
,,,9.75000000e-010,-1.89406254e-002
,,,1.00000000e-009,-1.87468754e-002
,,,1.02500000e-009,-1.85671879e-002
,,,1.05000000e-009,-1.84000004e-002
,,,1.07500000e-009,-1.81859379e-002
,,,1.10000000e-009,-1.79781253e-002
,,,1.12500000e-009,-1.77765628e-002
,,,1.15000000e-009,-1.75812503e-002
,,,1.17500000e-009,-1.73890628e-002
,,,1.20000000e-009,-1.71968753e-002
,,,1.22500000e-009,-1.70031253e-002
,,,1.25000000e-009,-1.68000003e-002
,,,1.27500000e-009,-1.65468752e-002
,,,1.30000000e-009,-1.62703127e-002
,,,1.32500000e-009,-1.59765627e-002
,,,1.35000000e-009,-1.56671877e-002
,,,1.37500000e-009,-1.53500002e-002
,,,1.40000000e-009,-1.50296876e-002
,,,1.42500000e-009,-1.47140626e-002
,,,1.45000000e-009,-1.44000001e-002
,,,1.47500000e-009,-1.40781251e-002
,,,1.50000000e-009,-1.37453125e-002
,,,1.52500000e-009,-1.34046875e-002
,,,1.55000000e-009,-1.30546875e-002
,,,1.57500000e-009,-1.26984375e-002
,,,1.60000000e-009,-1.23359374e-002
,,,1.62500000e-009,-1.19703124e-002
,,,1.65000000e-009,-1.15999999e-002
,,,1.67500000e-009,-1.12296874e-002
,,,1.70000000e-009,-1.08499998e-002
,,,1.72500000e-009,-1.04671873e-002
,,,1.75000000e-009,-1.00890623e-002
,,,1.77500000e-009,-9.72499976e-003
,,,1.80000000e-009,-9.38437473e-003
,,,1.82500000e-009,-9.07499971e-003
,,,1.85000000e-009,-8.79999969e-003
,,,1.87500000e-009,-8.57499968e-003
,,,1.90000000e-009,-8.36562466e-003
,,,1.92500000e-009,-8.16718715e-003
,,,1.95000000e-009,-7.97499963e-003
,,,1.97500000e-009,-7.78437462e-003
,,,2.00000000e-009,-7.59374961e-003
,,,2.02500000e-009,-7.39999959e-003
,,,2.05000000e-009,-7.19999958e-003
,,,2.07500000e-009,-7.01562457e-003
,,,2.10000000e-009,-6.81093705e-003
,,,2.12500000e-009,-6.59374954e-003
,,,2.15000000e-009,-6.36874952e-003
,,,2.17500000e-009,-6.14843700e-003
,,,2.20000000e-009,-5.94218699e-003
,,,2.22500000e-009,-5.75781198e-003
,,,2.25000000e-009,-5.59999947e-003
,,,2.27500000e-009,-5.50156196e-003
,,,2.30000000e-009,-5.41562445e-003
,,,2.32500000e-009,-5.33437445e-003
,,,2.35000000e-009,-5.25156194e-003
,,,2.37500000e-009,-5.16249943e-003
,,,2.40000000e-009,-5.06093693e-003
,,,2.42500000e-009,-4.94218692e-003
,,,2.45000000e-009,-4.79999941e-003
,,,2.47500000e-009,-4.66406190e-003
,,,2.50000000e-009,-4.49531189e-003
,,,2.52500000e-009,-4.29687437e-003
,,,2.55000000e-009,-4.07812436e-003
,,,2.57500000e-009,-3.84843684e-003
,,,2.60000000e-009,-3.61874932e-003
,,,2.62500000e-009,-3.39999931e-003
,,,2.65000000e-009,-3.19999930e-003
,,,2.67500000e-009,-3.05624929e-003
,,,2.70000000e-009,-2.92968678e-003
,,,2.72500000e-009,-2.82031177e-003
,,,2.75000000e-009,-2.72343676e-003
,,,2.77500000e-009,-2.63593676e-003
,,,2.80000000e-009,-2.55468675e-003
,,,2.82500000e-009,-2.47656174e-003
,,,2.85000000e-009,-2.39999924e-003
,,,2.87500000e-009,-2.34687423e-003
,,,2.90000000e-009,-2.28749923e-003
,,,2.92500000e-009,-2.22343673e-003
,,,2.95000000e-009,-2.15781172e-003
,,,2.97500000e-009,-2.09687422e-003
,,,3.00000000e-009,-2.04687421e-003
,,,3.02500000e-009,-2.01406171e-003
,,,3.05000000e-009,-1.99999921e-003
,,,3.07500000e-009,-2.02812421e-003
,,,3.10000000e-009,-2.07031172e-003
,,,3.12500000e-009,-2.12343672e-003
,,,3.15000000e-009,-2.18281172e-003
,,,3.17500000e-009,-2.24374923e-003
,,,3.20000000e-009,-2.30312423e-003
,,,3.22500000e-009,-2.35624924e-003
,,,3.25000000e-009,-2.39999924e-003
,,,3.27500000e-009,-2.44218674e-003
,,,3.30000000e-009,-2.46562424e-003
,,,3.32500000e-009,-2.47343674e-003
,,,3.35000000e-009,-2.46718674e-003
,,,3.37500000e-009,-2.45312424e-003
,,,3.40000000e-009,-2.43437424e-003
,,,3.42500000e-009,-2.41562424e-003
,,,3.45000000e-009,-2.39999924e-003
,,,3.47500000e-009,-2.39531174e-003
,,,3.50000000e-009,-2.39374924e-003
,,,3.52500000e-009,-2.39531174e-003
,,,3.55000000e-009,-2.39843674e-003
,,,3.57500000e-009,-2.40312424e-003
,,,3.60000000e-009,-2.40624924e-003
,,,3.62500000e-009,-2.40624924e-003
,,,3.65000000e-009,-2.39999924e-003
,,,3.67500000e-009,-2.38281174e-003
,,,3.70000000e-009,-2.35468674e-003
,,,3.72500000e-009,-2.31562423e-003
,,,3.75000000e-009,-2.26562423e-003
,,,3.77500000e-009,-2.20624922e-003
,,,3.80000000e-009,-2.14218672e-003
,,,3.82500000e-009,-2.07187422e-003
,,,3.85000000e-009,-1.99999921e-003
,,,3.87500000e-009,-1.92656171e-003
,,,3.90000000e-009,-1.85468670e-003
,,,3.92500000e-009,-1.78906170e-003
,,,3.95000000e-009,-1.73124919e-003
,,,3.97500000e-009,-1.68124919e-003
,,,4.00000000e-009,-1.64374919e-003
,,,4.02500000e-009,-1.61718668e-003
,,,4.05000000e-009,-1.59999918e-003
,,,4.07500000e-009,-1.59218668e-003
,,,4.10000000e-009,-1.59062418e-003
,,,4.12500000e-009,-1.59531168e-003
,,,4.15000000e-009,-1.59999918e-003
,,,4.17500000e-009,-1.60624918e-003
,,,4.20000000e-009,-1.61093668e-003
,,,4.22500000e-009,-1.60937418e-003
,,,4.25000000e-009,-1.59999918e-003
,,,4.27500000e-009,-1.58281168e-003
,,,4.30000000e-009,-1.55468668e-003
,,,4.32500000e-009,-1.51406168e-003
,,,4.35000000e-009,-1.46406167e-003
,,,4.37500000e-009,-1.40624917e-003
,,,4.40000000e-009,-1.34062416e-003
,,,4.42500000e-009,-1.27187416e-003
,,,4.45000000e-009,-1.19999915e-003
,,,4.47500000e-009,-1.13124915e-003
,,,4.50000000e-009,-1.06406164e-003
,,,4.52500000e-009,-1.00156164e-003
,,,4.55000000e-009,-9.45311636e-004
,,,4.57500000e-009,-8.95311632e-004
,,,4.60000000e-009,-8.54686629e-004
,,,4.62500000e-009,-8.21874127e-004
,,,4.65000000e-009,-7.99999125e-004
,,,4.67500000e-009,-7.92186625e-004
,,,4.70000000e-009,-7.89061625e-004
,,,4.72500000e-009,-7.89061625e-004
,,,4.75000000e-009,-7.92186625e-004
,,,4.77500000e-009,-7.95311625e-004
,,,4.80000000e-009,-7.98436625e-004
,,,4.82500000e-009,-7.99999125e-004
,,,4.85000000e-009,-7.99999125e-004
,,,4.87500000e-009,-8.03124126e-004
,,,4.90000000e-009,-8.04686626e-004
,,,4.92500000e-009,-8.01561625e-004
,,,4.95000000e-009,-7.98436625e-004
,,,4.97500000e-009,-7.96874125e-004
,,,5.00000000e-009,-7.95311625e-004
,,,5.02500000e-009,-7.96874125e-004
,,,5.05000000e-009,-7.99999125e-004
,,,5.07500000e-009,-8.09374126e-004
,,,5.10000000e-009,-8.17186627e-004
,,,5.12500000e-009,-8.24999127e-004
,,,5.15000000e-009,-8.31249128e-004
,,,5.17500000e-009,-8.32811628e-004
,,,5.20000000e-009,-8.29686627e-004
,,,5.22500000e-009,-8.18749127e-004
,,,5.25000000e-009,-7.99999125e-004
,,,5.27500000e-009,-7.74999124e-004
,,,5.30000000e-009,-7.39061621e-004
,,,5.32500000e-009,-6.93749118e-004
,,,5.35000000e-009,-6.40624114e-004
,,,5.37500000e-009,-5.81249110e-004
,,,5.40000000e-009,-5.20311606e-004
,,,5.42500000e-009,-4.59374101e-004
,,,5.45000000e-009,-3.99999097e-004
,,,5.47500000e-009,-3.53124094e-004
,,,5.50000000e-009,-3.15624091e-004
,,,5.52500000e-009,-2.90624089e-004
,,,5.55000000e-009,-2.81249089e-004
,,,5.57500000e-009,-2.87499089e-004
,,,5.60000000e-009,-3.09374091e-004
,,,5.62500000e-009,-3.48436593e-004
,,,5.65000000e-009,-3.99999097e-004
,,,5.67500000e-009,-4.68749102e-004
,,,5.70000000e-009,-5.43749107e-004
,,,5.72500000e-009,-6.17186612e-004
,,,5.75000000e-009,-6.85936617e-004
,,,5.77500000e-009,-7.42186621e-004
,,,5.80000000e-009,-7.82811624e-004
,,,5.82500000e-009,-8.03124126e-004
,,,5.85000000e-009,-7.99999125e-004
,,,5.87500000e-009,-7.78124124e-004
,,,5.90000000e-009,-7.35936621e-004
