RawData/WithScintilator/R7_2pt2B_15mV/wave003_Ch2.csv

"Record Length",1000,"Points",-7.72500000e-009,-1.31249078e-004
"Sample Interval",2.50000000e-011,s,-7.70000000e-009,-1.92186582e-004
"Trigger Point",309,"Samples",-7.67500000e-009,-2.57811587e-004
"Trigger Time",1.78779655e-011,s,-7.65000000e-009,-3.28124092e-004
"",,,-7.62500000e-009,-3.99999097e-004
"Horizontal Offset",-7.72500000e-009,s,-7.60000000e-009,-4.70311602e-004
,,,-7.57500000e-009,-5.35936607e-004
,,,-7.55000000e-009,-5.95311611e-004
,,,-7.52500000e-009,-6.48436615e-004
,,,-7.50000000e-009,-6.95311618e-004
,,,-7.47500000e-009,-7.35936621e-004
,,,-7.45000000e-009,-7.71874123e-004
,,,-7.42500000e-009,-7.99999125e-004
,,,-7.40000000e-009,-8.23436627e-004
,,,-7.37500000e-009,-8.39061628e-004
,,,-7.35000000e-009,-8.49999129e-004
,,,-7.32500000e-009,-8.53124129e-004
,,,-7.30000000e-009,-8.49999129e-004
,,,-7.27500000e-009,-8.40624128e-004
,,,-7.25000000e-009,-8.24999127e-004
,,,-7.22500000e-009,-7.99999125e-004
,,,-7.20000000e-009,-7.67186623e-004
,,,-7.17500000e-009,-7.28124120e-004
,,,-7.15000000e-009,-6.81249117e-004
,,,-7.12500000e-009,-6.31249113e-004
,,,-7.10000000e-009,-5.76561609e-004
,,,-7.07500000e-009,-5.18749105e-004
,,,-7.05000000e-009,-4.60936601e-004
,,,-7.02500000e-009,-3.99999097e-004
,,,-7.00000000e-009,-3.40624093e-004
,,,-6.97500000e-009,-2.81249089e-004
,,,-6.95000000e-009,-2.24999085e-004
,,,-6.92500000e-009,-1.71874081e-004
,,,-6.90000000e-009,-1.21874077e-004
,,,-6.87500000e-009,-7.65615741e-005
,,,-6.85000000e-009,-3.59365712e-005
,,,-6.82500000e-009,9.31322575e-010
,,,-6.80000000e-009,2.81259333e-005
,,,-6.77500000e-009,5.00009349e-005
,,,-6.75000000e-009,6.40634359e-005
,,,-6.72500000e-009,6.87509362e-005
,,,-6.70000000e-009,6.56259360e-005
,,,-6.67500000e-009,5.15634350e-005
,,,-6.65000000e-009,2.96884334e-005
,,,-6.62500000e-009,9.31322575e-010
,,,-6.60000000e-009,-4.06240716e-005
,,,-6.57500000e-009,-8.74990749e-005
,,,-6.55000000e-009,-1.39061579e-004
,,,-6.52500000e-009,-1.92186582e-004
,,,-6.50000000e-009,-2.46874086e-004
,,,-6.47500000e-009,-3.01561590e-004
,,,-6.45000000e-009,-3.53124094e-004
,,,-6.42500000e-009,-3.99999097e-004
,,,-6.40000000e-009,-4.42186600e-004
,,,-6.37500000e-009,-4.73436602e-004
,,,-6.35000000e-009,-4.93749104e-004
,,,-6.32500000e-009,-5.01561604e-004
,,,-6.30000000e-009,-4.95311604e-004
,,,-6.27500000e-009,-4.76561602e-004
,,,-6.25000000e-009,-4.43749100e-004
,,,-6.22500000e-009,-3.99999097e-004
,,,-6.20000000e-009,-3.49999093e-004
,,,-6.17500000e-009,-2.93749089e-004
,,,-6.15000000e-009,-2.34374085e-004
,,,-6.12500000e-009,-1.74999081e-004
,,,-6.10000000e-009,-1.20311577e-004
,,,-6.07500000e-009,-7.03115737e-005
,,,-6.05000000e-009,-3.12490709e-005
,,,-6.02500000e-009,9.31322575e-010
,,,-6.00000000e-009,1.56259324e-005
,,,-5.97500000e-009,2.18759329e-005
,,,-5.95000000e-009,2.03134328e-005
,,,-5.92500000e-009,1.40634323e-005
,,,-5.90000000e-009,6.25093176e-006
,,,-5.87500000e-009,9.31322575e-010
,,,-5.85000000e-009,-3.12406890e-006
,,,-5.82500000e-009,9.31322575e-010
,,,-5.80000000e-009,3.12593154e-006
,,,-5.77500000e-009,1.09384321e-005
,,,-5.75000000e-009,2.18759329e-005
,,,-5.72500000e-009,2.96884334e-005
,,,-5.70000000e-009,3.43759338e-005
,,,-5.67500000e-009,3.28134336e-005
,,,-5.65000000e-009,2.18759329e-005
,,,-5.62500000e-009,9.31322575e-010
,,,-5.60000000e-009,-3.59365712e-005
,,,-5.57500000e-009,-8.12490744e-005
,,,-5.55000000e-009,-1.34374078e-004
,,,-5.52500000e-009,-1.92186582e-004
,,,-5.50000000e-009,-2.51561586e-004
,,,-5.47500000e-009,-3.07811590e-004
,,,-5.45000000e-009,-3.59374094e-004
,,,-5.42500000e-009,-3.99999097e-004
,,,-5.40000000e-009,-4.32811599e-004
,,,-5.37500000e-009,-4.54686601e-004
,,,-5.35000000e-009,-4.62499101e-004
,,,-5.32500000e-009,-4.62499101e-004
,,,-5.30000000e-009,-4.53124101e-004
,,,-5.27500000e-009,-4.37499100e-004
,,,-5.25000000e-009,-4.18749098e-004
,,,-5.22500000e-009,-3.99999097e-004
,,,-5.20000000e-009,-3.84374096e-004
,,,-5.17500000e-009,-3.71874095e-004
,,,-5.15000000e-009,-3.64061594e-004
,,,-5.12500000e-009,-3.60936594e-004
,,,-5.10000000e-009,-3.65624095e-004
,,,-5.07500000e-009,-3.73436595e-004
,,,-5.05000000e-009,-3.85936596e-004
,,,-5.02500000e-009,-3.99999097e-004
,,,-5.00000000e-009,-4.14061598e-004
,,,-4.97500000e-009,-4.26561599e-004
,,,-4.95000000e-009,-4.37499100e-004
,,,-4.92500000e-009,-4.42186600e-004
,,,-4.90000000e-009,-4.40624100e-004
,,,-4.87500000e-009,-4.34374099e-004
,,,-4.85000000e-009,-4.20311598e-004
,,,-4.82500000e-009,-3.99999097e-004
,,,-4.80000000e-009,-3.76561595e-004
,,,-4.77500000e-009,-3.53124094e-004
,,,-4.75000000e-009,-3.34374092e-004
,,,-4.72500000e-009,-3.21874091e-004
,,,-4.70000000e-009,-3.20311591e-004
,,,-4.67500000e-009,-3.32811592e-004
,,,-4.65000000e-009,-3.59374094e-004
,,,-4.62500000e-009,-3.99999097e-004
,,,-4.60000000e-009,-4.51561601e-004
,,,-4.57500000e-009,-5.10936605e-004
,,,-4.55000000e-009,-5.76561609e-004
,,,-4.52500000e-009,-6.42186614e-004
,,,-4.50000000e-009,-7.01561618e-004
,,,-4.47500000e-009,-7.51561622e-004
,,,-4.45000000e-009,-7.84374124e-004
,,,-4.42500000e-009,-7.99999125e-004
,,,-4.40000000e-009,-7.92186625e-004
,,,-4.37500000e-009,-7.65624123e-004
,,,-4.35000000e-009,-7.21874120e-004
,,,-4.32500000e-009,-6.64061616e-004
,,,-4.30000000e-009,-5.98436611e-004
,,,-4.27500000e-009,-5.28124106e-004
,,,-4.25000000e-009,-4.60936601e-004
,,,-4.22500000e-009,-3.99999097e-004
,,,-4.20000000e-009,-3.51561594e-004
,,,-4.17500000e-009,-3.17186591e-004
,,,-4.15000000e-009,-2.98436590e-004
,,,-4.12500000e-009,-2.96874090e-004
,,,-4.10000000e-009,-3.07811590e-004
,,,-4.07500000e-009,-3.31249092e-004
,,,-4.05000000e-009,-3.64061594e-004
,,,-4.02500000e-009,-3.99999097e-004
,,,-4.00000000e-009,-4.37499100e-004
,,,-3.97500000e-009,-4.70311602e-004
,,,-3.95000000e-009,-4.93749104e-004
,,,-3.92500000e-009,-5.04686604e-004
,,,-3.90000000e-009,-5.03124104e-004
,,,-3.87500000e-009,-4.84374103e-004
,,,-3.85000000e-009,-4.49999101e-004
,,,-3.82500000e-009,-3.99999097e-004
,,,-3.80000000e-009,-3.42186593e-004
,,,-3.77500000e-009,-2.76561588e-004
,,,-3.75000000e-009,-2.09374083e-004
,,,-3.72500000e-009,-1.45311579e-004
,,,-3.70000000e-009,-8.74990749e-005
,,,-3.67500000e-009,-4.21865717e-005
,,,-3.65000000e-009,-1.24990696e-005
,,,-3.62500000e-009,9.31322575e-010
,,,-3.60000000e-009,-1.40615697e-005
,,,-3.57500000e-009,-4.53115719e-005
,,,-3.55000000e-009,-9.21865752e-005
,,,-3.52500000e-009,-1.51561579e-004
,,,-3.50000000e-009,-2.15624084e-004
,,,-3.47500000e-009,-2.82811589e-004
,,,-3.45000000e-009,-3.45311593e-004
,,,-3.42500000e-009,-3.99999097e-004
,,,-3.40000000e-009,-4.46874100e-004
,,,-3.37500000e-009,-4.79686603e-004
,,,-3.35000000e-009,-4.95311604e-004
,,,-3.32500000e-009,-4.96874104e-004
,,,-3.30000000e-009,-4.84374103e-004
,,,-3.27500000e-009,-4.62499101e-004
,,,-3.25000000e-009,-4.32811599e-004
,,,-3.22500000e-009,-3.99999097e-004
,,,-3.20000000e-009,-3.70311595e-004
,,,-3.17500000e-009,-3.45311593e-004
,,,-3.15000000e-009,-3.28124092e-004
,,,-3.12500000e-009,-3.20311591e-004
,,,-3.10000000e-009,-3.23436592e-004
,,,-3.07500000e-009,-3.37499093e-004
,,,-3.05000000e-009,-3.64061594e-004
,,,-3.02500000e-009,-3.99999097e-004
,,,-3.00000000e-009,-4.45311600e-004
,,,-2.97500000e-009,-4.96874104e-004
,,,-2.95000000e-009,-5.53124108e-004
,,,-2.92500000e-009,-6.09374112e-004
,,,-2.90000000e-009,-6.64061616e-004
,,,-2.87500000e-009,-7.15624119e-004
,,,-2.85000000e-009,-7.62499123e-004
,,,-2.82500000e-009,-7.99999125e-004
,,,-2.80000000e-009,-8.24999127e-004
,,,-2.77500000e-009,-8.39061628e-004
,,,-2.75000000e-009,-8.45311629e-004
,,,-2.72500000e-009,-8.43749128e-004
,,,-2.70000000e-009,-8.35936628e-004
,,,-2.67500000e-009,-8.24999127e-004
,,,-2.65000000e-009,-8.12499126e-004
,,,-2.62500000e-009,-7.99999125e-004
,,,-2.60000000e-009,-7.84374124e-004
,,,-2.57500000e-009,-7.70311623e-004
,,,-2.55000000e-009,-7.62499123e-004
,,,-2.52500000e-009,-7.60936623e-004
,,,-2.50000000e-009,-7.64061623e-004
,,,-2.47500000e-009,-7.73436623e-004
,,,-2.45000000e-009,-7.85936624e-004
,,,-2.42500000e-009,-7.99999125e-004
,,,-2.40000000e-009,-8.12499126e-004
,,,-2.37500000e-009,-8.24999127e-004
,,,-2.35000000e-009,-8.34374128e-004
,,,-2.32500000e-009,-8.39061628e-004
,,,-2.30000000e-009,-8.40624128e-004
,,,-2.27500000e-009,-8.34374128e-004
,,,-2.25000000e-009,-8.21874127e-004
,,,-2.22500000e-009,-7.99999125e-004
,,,-2.20000000e-009,-7.68749123e-004
,,,-2.17500000e-009,-7.29686620e-004
,,,-2.15000000e-009,-6.84374117e-004
,,,-2.12500000e-009,-6.32811613e-004
,,,-2.10000000e-009,-5.78124110e-004
,,,-2.07500000e-009,-5.20311606e-004
,,,-2.05000000e-009,-4.60936601e-004
,,,-2.02500000e-009,-3.99999097e-004
,,,-2.00000000e-009,-3.40624093e-004
,,,-1.97500000e-009,-2.84374089e-004
,,,-1.95000000e-009,-2.29686585e-004
,,,-1.92500000e-009,-1.76561581e-004
,,,-1.90000000e-009,-1.28124078e-004
,,,-1.87500000e-009,-8.12490744e-005
,,,-1.85000000e-009,-3.90615714e-005
,,,-1.82500000e-009,9.31322575e-010
,,,-1.80000000e-009,2.34384330e-005
,,,-1.77500000e-009,4.06259342e-005
,,,-1.75000000e-009,5.31259351e-005
,,,-1.72500000e-009,5.62509353e-005
,,,-1.70000000e-009,5.46884352e-005
,,,-1.67500000e-009,4.37509344e-005
,,,-1.65000000e-009,2.50009331e-005
,,,-1.62500000e-009,9.31322575e-010
,,,-1.60000000e-009,-4.53115719e-005
,,,-1.57500000e-009,-9.53115754e-005
,,,-1.55000000e-009,-1.49999079e-004
,,,-1.52500000e-009,-2.06249083e-004
,,,-1.50000000e-009,-2.60936587e-004
,,,-1.47500000e-009,-3.14061591e-004
,,,-1.45000000e-009,-3.60936594e-004
,,,-1.42500000e-009,-3.99999097e-004
,,,-1.40000000e-009,-4.49999101e-004
,,,-1.37500000e-009,-4.89061603e-004
,,,-1.35000000e-009,-5.15624105e-004
,,,-1.32500000e-009,-5.26561606e-004
,,,-1.30000000e-009,-5.20311606e-004
,,,-1.27500000e-009,-4.96874104e-004
,,,-1.25000000e-009,-4.54686601e-004
,,,-1.22500000e-009,-3.99999097e-004
,,,-1.20000000e-009,-3.78124095e-004
,,,-1.17500000e-009,-3.57811594e-004
,,,-1.15000000e-009,-3.43749093e-004
,,,-1.12500000e-009,-3.35936592e-004
,,,-1.10000000e-009,-3.35936592e-004
,,,-1.07500000e-009,-3.46874093e-004
,,,-1.05000000e-009,-3.67186595e-004
,,,-1.02500000e-009,-3.99999097e-004
,,,-1.00000000e-009,-5.15624105e-004
,,,-9.75000000e-010,-6.46874114e-004
,,,-9.50000000e-010,-7.85936624e-004
,,,-9.25000000e-010,-9.21874134e-004
,,,-9.00000000e-010,-1.03749914e-003
,,,-8.75000000e-010,-1.12812415e-003
,,,-8.50000000e-010,-1.18281165e-003
,,,-8.25000000e-010,-1.19999915e-003
,,,-8.00000000e-010,-1.27812416e-003
,,,-7.75000000e-010,-1.34374916e-003
,,,-7.50000000e-010,-1.39687417e-003
,,,-7.25000000e-010,-1.44062417e-003
,,,-7.00000000e-010,-1.47656167e-003
,,,-6.75000000e-010,-1.51093668e-003
,,,-6.50000000e-010,-1.54843668e-003
,,,-6.25000000e-010,-1.59999918e-003
,,,-6.00000000e-010,-1.79374920e-003
,,,-5.75000000e-010,-2.03281171e-003
,,,-5.50000000e-010,-2.31406173e-003
,,,-5.25000000e-010,-2.62656175e-003
,,,-5.00000000e-010,-2.95937428e-003
,,,-4.75000000e-010,-3.30156180e-003
,,,-4.50000000e-010,-3.64999933e-003
,,,-4.25000000e-010,-3.99999935e-003
,,,-4.00000000e-010,-4.47187439e-003
,,,-3.75000000e-010,-4.97187442e-003
,,,-3.50000000e-010,-5.49687446e-003
,,,-3.25000000e-010,-6.04218700e-003
,,,-3.00000000e-010,-6.60468704e-003
,,,-2.75000000e-010,-7.18437458e-003
,,,-2.50000000e-010,-7.78281212e-003
,,,-2.25000000e-010,-8.39999966e-003
,,,-2.00000000e-010,-9.12343721e-003
,,,-1.75000000e-010,-9.88906227e-003
,,,-1.50000000e-010,-1.06874998e-002
,,,-1.25000000e-010,-1.15093749e-002
,,,-1.00000000e-010,-1.23421874e-002
,,,-7.50000000e-011,-1.31734375e-002
,,,-5.00000000e-011,-1.39953126e-002
,,,-2.50000000e-011,-1.48000001e-002
,,,0.00000000e+000,-1.56140627e-002
,,,2.50000000e-011,-1.64281252e-002
,,,5.00000000e-011,-1.72406253e-002
,,,7.50000000e-011,-1.80500003e-002
,,,1.00000000e-010,-1.88531254e-002
,,,1.25000000e-010,-1.96453130e-002
,,,1.50000000e-010,-2.04281255e-002
,,,1.75000000e-010,-2.12000006e-002
,,,2.00000000e-010,-2.19312506e-002
,,,2.25000000e-010,-2.26750007e-002
,,,2.50000000e-010,-2.34312507e-002
,,,2.75000000e-010,-2.41984383e-002
,,,3.00000000e-010,-2.49671883e-002
,,,3.25000000e-010,-2.57312509e-002
,,,3.50000000e-010,-2.64796884e-002
,,,3.75000000e-010,-2.72000010e-002
,,,4.00000000e-010,-2.77968760e-002
,,,4.25000000e-010,-2.83734386e-002
,,,4.50000000e-010,-2.89328136e-002
,,,4.75000000e-010,-2.94656262e-002
,,,5.00000000e-010,-2.99656262e-002
,,,5.25000000e-010,-3.04250012e-002
,,,5.50000000e-010,-3.08390638e-002
,,,5.75000000e-010,-3.12000013e-002
,,,6.00000000e-010,-3.13734388e-002
,,,6.25000000e-010,-3.15218763e-002
,,,6.50000000e-010,-3.16609388e-002
,,,6.75000000e-010,-3.17968763e-002
,,,7.00000000e-010,-3.19375013e-002
,,,7.25000000e-010,-3.20859388e-002
,,,7.50000000e-010,-3.22406264e-002
,,,7.75000000e-010,-3.24000014e-002
,,,8.00000000e-010,-3.24140639e-002
,,,8.25000000e-010,-3.24453139e-002
,,,8.50000000e-010,-3.24953139e-002
,,,8.75000000e-010,-3.25609389e-002
,,,9.00000000e-010,-3.26328139e-002
,,,9.25000000e-010,-3.27046889e-002
,,,9.50000000e-010,-3.27640639e-002
,,,9.75000000e-010,-3.28000014e-002
,,,1.00000000e-009,-3.26609389e-002
,,,1.02500000e-009,-3.25031264e-002
,,,1.05000000e-009,-3.23343764e-002
,,,1.07500000e-009,-3.21656263e-002
,,,1.10000000e-009,-3.20046888e-002
,,,1.12500000e-009,-3.18546888e-002
,,,1.15000000e-009,-3.17203138e-002
,,,1.17500000e-009,-3.16000013e-002
,,,1.20000000e-009,-3.13578138e-002
,,,1.22500000e-009,-3.11203138e-002
,,,1.25000000e-009,-3.08859388e-002
,,,1.27500000e-009,-3.06515637e-002
,,,1.30000000e-009,-3.04140637e-002
,,,1.32500000e-009,-3.01640637e-002
,,,1.35000000e-009,-2.98968762e-002
,,,1.37500000e-009,-2.96000012e-002
,,,1.40000000e-009,-2.91687511e-002
,,,1.42500000e-009,-2.86953136e-002
,,,1.45000000e-009,-2.81906261e-002
,,,1.47500000e-009,-2.76656260e-002
,,,1.50000000e-009,-2.71343760e-002
,,,1.52500000e-009,-2.66062510e-002
,,,1.55000000e-009,-2.60937509e-002
,,,1.57500000e-009,-2.56000009e-002
,,,1.60000000e-009,-2.50640633e-002
,,,1.62500000e-009,-2.45343758e-002
,,,1.65000000e-009,-2.40156258e-002
,,,1.67500000e-009,-2.35093757e-002
,,,1.70000000e-009,-2.30171882e-002
,,,1.72500000e-009,-2.25375007e-002
,,,1.75000000e-009,-2.20656256e-002
,,,1.77500000e-009,-2.16000006e-002
,,,1.80000000e-009,-2.10984381e-002
,,,1.82500000e-009,-2.05718755e-002
,,,1.85000000e-009,-2.00250005e-002
,,,1.87500000e-009,-1.94609379e-002
,,,1.90000000e-009,-1.88890629e-002
,,,1.92500000e-009,-1.83156254e-002
,,,1.95000000e-009,-1.77515628e-002
,,,1.97500000e-009,-1.72000003e-002
,,,2.00000000e-009,-1.66656252e-002
,,,2.02500000e-009,-1.61312502e-002
,,,2.05000000e-009,-1.55984377e-002
,,,2.07500000e-009,-1.50765626e-002
,,,2.10000000e-009,-1.45703126e-002
,,,2.12500000e-009,-1.40875001e-002
,,,2.15000000e-009,-1.36296875e-002
,,,2.17500000e-009,-1.32000000e-002
,,,2.20000000e-009,-1.28203125e-002
,,,2.22500000e-009,-1.24359374e-002
,,,2.25000000e-009,-1.20437499e-002
,,,2.27500000e-009,-1.16453124e-002
,,,2.30000000e-009,-1.12374999e-002
,,,2.32500000e-009,-1.08265623e-002
,,,2.35000000e-009,-1.04140623e-002
,,,2.37500000e-009,-9.99999978e-003
,,,2.40000000e-009,-9.63437475e-003
,,,2.42500000e-009,-9.24843722e-003
,,,2.45000000e-009,-8.84218719e-003
,,,2.47500000e-009,-8.42499967e-003
,,,2.50000000e-009,-8.00156214e-003
,,,2.52500000e-009,-7.58437461e-003
,,,2.55000000e-009,-7.18124958e-003
,,,2.57500000e-009,-6.79999955e-003
,,,2.60000000e-009,-6.50468703e-003
,,,2.62500000e-009,-6.21874951e-003
,,,2.65000000e-009,-5.94374949e-003
,,,2.67500000e-009,-5.68124947e-003
,,,2.70000000e-009,-5.43281195e-003
,,,2.72500000e-009,-5.20156194e-003
,,,2.75000000e-009,-4.99218692e-003
,,,2.77500000e-009,-4.79999941e-003
,,,2.80000000e-009,-4.68593690e-003
,,,2.82500000e-009,-4.56562439e-003
,,,2.85000000e-009,-4.43437438e-003
,,,2.87500000e-009,-4.28906187e-003
,,,2.90000000e-009,-4.12968686e-003
,,,2.92500000e-009,-3.95937435e-003
,,,2.95000000e-009,-3.78124934e-003
,,,2.97500000e-009,-3.59999932e-003
,,,3.00000000e-009,-3.47031181e-003
,,,3.02500000e-009,-3.33437430e-003
,,,3.05000000e-009,-3.19843680e-003
,,,3.07500000e-009,-3.07031179e-003
,,,3.10000000e-009,-2.95937428e-003
,,,3.12500000e-009,-2.87187427e-003
,,,3.15000000e-009,-2.81874927e-003
,,,3.17500000e-009,-2.79999927e-003
,,,3.20000000e-009,-2.85312427e-003
,,,3.22500000e-009,-2.92187428e-003
,,,3.25000000e-009,-2.99843678e-003
,,,3.27500000e-009,-3.07187429e-003
,,,3.30000000e-009,-3.13437429e-003
,,,3.32500000e-009,-3.17968679e-003
,,,3.35000000e-009,-3.20312430e-003
,,,3.37500000e-009,-3.19999930e-003
,,,3.40000000e-009,-3.19374929e-003
,,,3.42500000e-009,-3.15624929e-003
,,,3.45000000e-009,-3.09374929e-003
,,,3.47500000e-009,-3.01718678e-003
,,,3.50000000e-009,-2.93906178e-003
,,,3.52500000e-009,-2.87031177e-003
,,,3.55000000e-009,-2.82187427e-003
,,,3.57500000e-009,-2.79999927e-003
,,,3.60000000e-009,-2.82187427e-003
,,,3.62500000e-009,-2.86718677e-003
,,,3.65000000e-009,-2.93124928e-003
,,,3.67500000e-009,-3.00312428e-003
,,,3.70000000e-009,-3.07656179e-003
,,,3.72500000e-009,-3.13906179e-003
,,,3.75000000e-009,-3.18437429e-003
,,,3.77500000e-009,-3.19999930e-003
,,,3.80000000e-009,-3.18437429e-003
,,,3.82500000e-009,-3.13281179e-003
,,,3.85000000e-009,-3.04687428e-003
,,,3.87500000e-009,-2.93593678e-003
,,,3.90000000e-009,-2.80624927e-003
,,,3.92500000e-009,-2.66718676e-003
,,,3.95000000e-009,-2.52968675e-003
,,,3.97500000e-009,-2.39999924e-003
,,,4.00000000e-009,-2.28749923e-003
,,,4.02500000e-009,-2.19374922e-003
,,,4.05000000e-009,-2.12031172e-003
,,,4.07500000e-009,-2.06718671e-003
,,,4.10000000e-009,-2.03281171e-003
,,,4.12500000e-009,-2.01249921e-003
,,,4.15000000e-009,-2.00312421e-003
,,,4.17500000e-009,-1.99999921e-003
,,,4.20000000e-009,-2.00156171e-003
,,,4.22500000e-009,-2.00312421e-003
,,,4.25000000e-009,-2.00312421e-003
,,,4.27500000e-009,-2.00156171e-003
,,,4.30000000e-009,-1.99843671e-003
,,,4.32500000e-009,-1.99687421e-003
,,,4.35000000e-009,-1.99843671e-003
,,,4.37500000e-009,-1.99999921e-003
,,,4.40000000e-009,-2.00781171e-003
,,,4.42500000e-009,-2.01406171e-003
,,,4.45000000e-009,-2.02031171e-003
,,,4.47500000e-009,-2.02499921e-003
,,,4.50000000e-009,-2.02656171e-003
,,,4.52500000e-009,-2.02343671e-003
,,,4.55000000e-009,-2.01562421e-003
,,,4.57500000e-009,-1.99999921e-003
,,,4.60000000e-009,-1.97499921e-003
,,,4.62500000e-009,-1.94062421e-003
,,,4.65000000e-009,-1.89843670e-003
,,,4.67500000e-009,-1.84687420e-003
,,,4.70000000e-009,-1.78906170e-003
,,,4.72500000e-009,-1.72812419e-003
,,,4.75000000e-009,-1.66562419e-003
,,,4.77500000e-009,-1.59999918e-003
,,,4.80000000e-009,-1.54062418e-003
,,,4.82500000e-009,-1.48124917e-003
,,,4.85000000e-009,-1.42343667e-003
,,,4.87500000e-009,-1.36874917e-003
,,,4.90000000e-009,-1.31718666e-003
,,,4.92500000e-009,-1.27187416e-003
,,,4.95000000e-009,-1.23281166e-003
,,,4.97500000e-009,-1.19999915e-003
,,,5.00000000e-009,-1.17968665e-003
,,,5.02500000e-009,-1.16406165e-003
,,,5.05000000e-009,-1.15468665e-003
,,,5.07500000e-009,-1.15312415e-003
,,,5.10000000e-009,-1.15781165e-003
,,,5.12500000e-009,-1.16718665e-003
,,,5.15000000e-009,-1.18281165e-003
,,,5.17500000e-009,-1.19999915e-003
,,,5.20000000e-009,-1.22031166e-003
,,,5.22500000e-009,-1.23749916e-003
,,,5.25000000e-009,-1.24999916e-003
,,,5.27500000e-009,-1.25781166e-003
,,,5.30000000e-009,-1.25624916e-003
,,,5.32500000e-009,-1.24687416e-003
,,,5.35000000e-009,-1.22812416e-003
,,,5.37500000e-009,-1.19999915e-003
,,,5.40000000e-009,-1.16249915e-003
,,,5.42500000e-009,-1.11718665e-003
,,,5.45000000e-009,-1.06406164e-003
,,,5.47500000e-009,-1.00781164e-003
,,,5.50000000e-009,-9.49999136e-004
,,,5.52500000e-009,-8.93749132e-004
,,,5.55000000e-009,-8.43749128e-004
,,,5.57500000e-009,-7.99999125e-004
,,,5.60000000e-009,-7.70311623e-004
,,,5.62500000e-009,-7.48436622e-004
,,,5.65000000e-009,-7.37499121e-004
,,,5.67500000e-009,-7.35936621e-004
,,,5.70000000e-009,-7.42186621e-004
,,,5.72500000e-009,-7.56249122e-004
,,,5.75000000e-009,-7.76561624e-004
,,,5.77500000e-009,-7.99999125e-004
,,,5.80000000e-009,-8.28124127e-004
,,,5.82500000e-009,-8.53124129e-004
