RawData/WithScintilator/R7_2pt2B_15mV/wave020_Ch2.csv

"Record Length",1000,"Points",-7.72500000e-009,2.50009331e-005
"Sample Interval",2.50000000e-011,s,-7.70000000e-009,5.62509353e-005
"Trigger Point",309,"Samples",-7.67500000e-009,8.43759373e-005
"Trigger Time",1.85392308e-011,s,-7.65000000e-009,1.04688439e-004
"",,,-7.62500000e-009,1.12500939e-004
"Horizontal Offset",-7.72500000e-009,s,-7.60000000e-009,9.84384383e-005
,,,-7.57500000e-009,6.25009357e-005
,,,-7.55000000e-009,9.31322575e-010
,,,-7.52500000e-009,-9.21865752e-005
,,,-7.50000000e-009,-2.03124083e-004
,,,-7.47500000e-009,-3.24999092e-004
,,,-7.45000000e-009,-4.48436600e-004
,,,-7.42500000e-009,-5.67186609e-004
,,,-7.40000000e-009,-6.68749116e-004
,,,-7.37500000e-009,-7.49999122e-004
,,,-7.35000000e-009,-7.99999125e-004
,,,-7.32500000e-009,-8.15624126e-004
,,,-7.30000000e-009,-7.99999125e-004
,,,-7.27500000e-009,-7.57811622e-004
,,,-7.25000000e-009,-6.96874118e-004
,,,-7.22500000e-009,-6.21874113e-004
,,,-7.20000000e-009,-5.42186607e-004
,,,-7.17500000e-009,-4.67186602e-004
,,,-7.15000000e-009,-3.99999097e-004
,,,-7.12500000e-009,-3.45311593e-004
,,,-7.10000000e-009,-3.07811590e-004
,,,-7.07500000e-009,-2.90624089e-004
,,,-7.05000000e-009,-2.90624089e-004
,,,-7.02500000e-009,-3.06249090e-004
,,,-7.00000000e-009,-3.32811592e-004
,,,-6.97500000e-009,-3.67186595e-004
,,,-6.95000000e-009,-3.99999097e-004
,,,-6.92500000e-009,-4.28124099e-004
,,,-6.90000000e-009,-4.49999101e-004
,,,-6.87500000e-009,-4.62499101e-004
,,,-6.85000000e-009,-4.65624102e-004
,,,-6.82500000e-009,-4.59374101e-004
,,,-6.80000000e-009,-4.45311600e-004
,,,-6.77500000e-009,-4.24999099e-004
,,,-6.75000000e-009,-3.99999097e-004
,,,-6.72500000e-009,-3.73436595e-004
,,,-6.70000000e-009,-3.48436593e-004
,,,-6.67500000e-009,-3.31249092e-004
,,,-6.65000000e-009,-3.21874091e-004
,,,-6.62500000e-009,-3.24999092e-004
,,,-6.60000000e-009,-3.39061593e-004
,,,-6.57500000e-009,-3.65624095e-004
,,,-6.55000000e-009,-3.99999097e-004
,,,-6.52500000e-009,-4.37499100e-004
,,,-6.50000000e-009,-4.74999102e-004
,,,-6.47500000e-009,-5.06249105e-004
,,,-6.45000000e-009,-5.26561606e-004
,,,-6.42500000e-009,-5.29686606e-004
,,,-6.40000000e-009,-5.12499105e-004
,,,-6.37500000e-009,-4.68749102e-004
,,,-6.35000000e-009,-3.99999097e-004
,,,-6.32500000e-009,-3.10936591e-004
,,,-6.30000000e-009,-2.03124083e-004
,,,-6.27500000e-009,-8.28115745e-005
,,,-6.25000000e-009,4.06259342e-005
,,,-6.22500000e-009,1.57813442e-004
,,,-6.20000000e-009,2.62500950e-004
,,,-6.17500000e-009,3.43750956e-004
,,,-6.15000000e-009,4.00000960e-004
,,,-6.12500000e-009,4.17188461e-004
,,,-6.10000000e-009,4.03125960e-004
,,,-6.07500000e-009,3.64063457e-004
,,,-6.05000000e-009,3.03125953e-004
,,,-6.02500000e-009,2.28125947e-004
,,,-6.00000000e-009,1.48438442e-004
,,,-5.97500000e-009,6.87509362e-005
,,,-5.95000000e-009,9.31322575e-010
,,,-5.92500000e-009,-5.93740729e-005
,,,-5.90000000e-009,-9.99990758e-005
,,,-5.87500000e-009,-1.20311577e-004
,,,-5.85000000e-009,-1.20311577e-004
,,,-5.82500000e-009,-1.04686576e-004
,,,-5.80000000e-009,-7.65615741e-005
,,,-5.77500000e-009,-4.06240716e-005
,,,-5.75000000e-009,9.31322575e-010
,,,-5.72500000e-009,3.59384339e-005
,,,-5.70000000e-009,6.56259360e-005
,,,-5.67500000e-009,8.59384374e-005
,,,-5.65000000e-009,9.53134381e-005
,,,-5.62500000e-009,9.06259377e-005
,,,-5.60000000e-009,7.34384365e-005
,,,-5.57500000e-009,4.21884343e-005
,,,-5.55000000e-009,9.31322575e-010
,,,-5.52500000e-009,-5.78115728e-005
,,,-5.50000000e-009,-1.20311577e-004
,,,-5.47500000e-009,-1.84374082e-004
,,,-5.45000000e-009,-2.45311586e-004
,,,-5.42500000e-009,-2.99999090e-004
,,,-5.40000000e-009,-3.45311593e-004
,,,-5.37500000e-009,-3.79686596e-004
,,,-5.35000000e-009,-3.99999097e-004
,,,-5.32500000e-009,-4.07811598e-004
,,,-5.30000000e-009,-4.06249097e-004
,,,-5.27500000e-009,-3.98436597e-004
,,,-5.25000000e-009,-3.87499096e-004
,,,-5.22500000e-009,-3.79686596e-004
,,,-5.20000000e-009,-3.76561595e-004
,,,-5.17500000e-009,-3.84374096e-004
,,,-5.15000000e-009,-3.99999097e-004
,,,-5.12500000e-009,-4.20311598e-004
,,,-5.10000000e-009,-4.45311600e-004
,,,-5.07500000e-009,-4.70311602e-004
,,,-5.05000000e-009,-4.89061603e-004
,,,-5.02500000e-009,-4.96874104e-004
,,,-5.00000000e-009,-4.85936603e-004
,,,-4.97500000e-009,-4.54686601e-004
,,,-4.95000000e-009,-3.99999097e-004
,,,-4.92500000e-009,-3.24999092e-004
,,,-4.90000000e-009,-2.37499085e-004
,,,-4.87500000e-009,-1.48436579e-004
,,,-4.85000000e-009,-6.56240733e-005
,,,-4.82500000e-009,-1.56156879e-006
,,,-4.80000000e-009,3.43759338e-005
,,,-4.77500000e-009,3.59384339e-005
,,,-4.75000000e-009,9.31322575e-010
,,,-4.72500000e-009,-7.49990740e-005
,,,-4.70000000e-009,-1.81249082e-004
,,,-4.67500000e-009,-3.06249090e-004
,,,-4.65000000e-009,-4.42186600e-004
,,,-4.62500000e-009,-5.71874109e-004
,,,-4.60000000e-009,-6.81249117e-004
,,,-4.57500000e-009,-7.60936623e-004
,,,-4.55000000e-009,-7.99999125e-004
,,,-4.52500000e-009,-7.89061625e-004
,,,-4.50000000e-009,-7.32811621e-004
,,,-4.47500000e-009,-6.40624114e-004
,,,-4.45000000e-009,-5.20311606e-004
,,,-4.42500000e-009,-3.84374096e-004
,,,-4.40000000e-009,-2.43749086e-004
,,,-4.37500000e-009,-1.12499077e-004
,,,-4.35000000e-009,9.31322575e-010
,,,-4.32500000e-009,8.28134372e-005
,,,-4.30000000e-009,1.34375941e-004
,,,-4.27500000e-009,1.56250942e-004
,,,-4.25000000e-009,1.51563442e-004
,,,-4.22500000e-009,1.25000940e-004
,,,-4.20000000e-009,8.59384374e-005
,,,-4.17500000e-009,4.21884343e-005
,,,-4.15000000e-009,9.31322575e-010
,,,-4.12500000e-009,-3.74990713e-005
,,,-4.10000000e-009,-6.24990731e-005
,,,-4.07500000e-009,-7.34365739e-005
,,,-4.05000000e-009,-7.34365739e-005
,,,-4.02500000e-009,-6.09365730e-005
,,,-4.00000000e-009,-4.21865717e-005
,,,-3.97500000e-009,-2.18740702e-005
,,,-3.95000000e-009,9.31322575e-010
,,,-3.92500000e-009,1.87509326e-005
,,,-3.90000000e-009,3.28134336e-005
,,,-3.87500000e-009,4.21884343e-005
,,,-3.85000000e-009,4.37509344e-005
,,,-3.82500000e-009,3.90634341e-005
,,,-3.80000000e-009,2.96884334e-005
,,,-3.77500000e-009,1.56259324e-005
,,,-3.75000000e-009,9.31322575e-010
,,,-3.72500000e-009,-1.40615697e-005
,,,-3.70000000e-009,-2.65615706e-005
,,,-3.67500000e-009,-3.43740711e-005
,,,-3.65000000e-009,-3.74990713e-005
,,,-3.62500000e-009,-3.59365712e-005
,,,-3.60000000e-009,-2.81240707e-005
,,,-3.57500000e-009,-1.71865699e-005
,,,-3.55000000e-009,9.31322575e-010
,,,-3.52500000e-009,1.56259324e-005
,,,-3.50000000e-009,3.28134336e-005
,,,-3.47500000e-009,4.68759346e-005
,,,-3.45000000e-009,5.62509353e-005
,,,-3.42500000e-009,5.62509353e-005
,,,-3.40000000e-009,4.84384348e-005
,,,-3.37500000e-009,2.81259333e-005
,,,-3.35000000e-009,9.31322575e-010
,,,-3.32500000e-009,-3.28115710e-005
,,,-3.30000000e-009,-6.56240733e-005
,,,-3.27500000e-009,-9.37490753e-005
,,,-3.25000000e-009,-1.14061577e-004
,,,-3.22500000e-009,-1.17186577e-004
,,,-3.20000000e-009,-1.03124076e-004
,,,-3.17500000e-009,-6.40615732e-005
,,,-3.15000000e-009,9.31322575e-010
,,,-3.12500000e-009,8.90634376e-005
,,,-3.10000000e-009,1.96875945e-004
,,,-3.07500000e-009,3.15625954e-004
,,,-3.05000000e-009,4.39063462e-004
,,,-3.02500000e-009,5.56250971e-004
,,,-3.00000000e-009,6.60938478e-004
,,,-2.97500000e-009,7.43750984e-004
,,,-2.95000000e-009,8.00000988e-004
,,,-2.92500000e-009,8.18750989e-004
,,,-2.90000000e-009,8.09375989e-004
,,,-2.87500000e-009,7.71875986e-004
,,,-2.85000000e-009,7.12500982e-004
,,,-2.82500000e-009,6.37500976e-004
,,,-2.80000000e-009,5.56250971e-004
,,,-2.77500000e-009,4.73438465e-004
,,,-2.75000000e-009,4.00000960e-004
,,,-2.72500000e-009,3.35938455e-004
,,,-2.70000000e-009,2.92188452e-004
,,,-2.67500000e-009,2.68750950e-004
,,,-2.65000000e-009,2.64063450e-004
,,,-2.62500000e-009,2.78125951e-004
,,,-2.60000000e-009,3.07813453e-004
,,,-2.57500000e-009,3.48438456e-004
,,,-2.55000000e-009,4.00000960e-004
,,,-2.52500000e-009,4.50000963e-004
,,,-2.50000000e-009,5.03125967e-004
,,,-2.47500000e-009,5.57813471e-004
,,,-2.45000000e-009,6.09375974e-004
,,,-2.42500000e-009,6.60938478e-004
,,,-2.40000000e-009,7.09375982e-004
,,,-2.37500000e-009,7.56250985e-004
,,,-2.35000000e-009,8.00000988e-004
,,,-2.32500000e-009,8.31250990e-004
,,,-2.30000000e-009,8.56250992e-004
,,,-2.27500000e-009,8.73438493e-004
,,,-2.25000000e-009,8.81250994e-004
,,,-2.22500000e-009,8.78125993e-004
,,,-2.20000000e-009,8.64063492e-004
,,,-2.17500000e-009,8.37500991e-004
,,,-2.15000000e-009,8.00000988e-004
,,,-2.12500000e-009,7.43750984e-004
,,,-2.10000000e-009,6.82813480e-004
,,,-2.07500000e-009,6.18750975e-004
,,,-2.05000000e-009,5.57813471e-004
,,,-2.02500000e-009,5.01563467e-004
,,,-2.00000000e-009,4.56250964e-004
,,,-1.97500000e-009,4.20313461e-004
,,,-1.95000000e-009,4.00000960e-004
,,,-1.92500000e-009,3.87500959e-004
,,,-1.90000000e-009,3.85938459e-004
,,,-1.87500000e-009,3.92188459e-004
,,,-1.85000000e-009,4.01563460e-004
,,,-1.82500000e-009,4.09375960e-004
,,,-1.80000000e-009,4.14063461e-004
,,,-1.77500000e-009,4.12500961e-004
,,,-1.75000000e-009,4.00000960e-004
,,,-1.72500000e-009,3.68750957e-004
,,,-1.70000000e-009,3.28125955e-004
,,,-1.67500000e-009,2.76563451e-004
,,,-1.65000000e-009,2.18750947e-004
,,,-1.62500000e-009,1.57813442e-004
,,,-1.60000000e-009,9.84384383e-005
,,,-1.57500000e-009,4.37509344e-005
,,,-1.55000000e-009,9.31322575e-010
,,,-1.52500000e-009,-4.06240716e-005
,,,-1.50000000e-009,-6.87490735e-005
,,,-1.47500000e-009,-8.28115745e-005
,,,-1.45000000e-009,-8.59365748e-005
,,,-1.42500000e-009,-7.65615741e-005
,,,-1.40000000e-009,-5.78115728e-005
,,,-1.37500000e-009,-3.12490709e-005
,,,-1.35000000e-009,9.31322575e-010
,,,-1.32500000e-009,1.56259324e-005
,,,-1.30000000e-009,2.50009331e-005
,,,-1.27500000e-009,2.96884334e-005
,,,-1.25000000e-009,2.96884334e-005
,,,-1.22500000e-009,2.50009331e-005
,,,-1.20000000e-009,1.87509326e-005
,,,-1.17500000e-009,9.37593199e-006
,,,-1.15000000e-009,9.31322575e-010
,,,-1.12500000e-009,-5.46865725e-005
,,,-1.10000000e-009,-1.17186577e-004
,,,-1.07500000e-009,-1.82811582e-004
,,,-1.05000000e-009,-2.46874086e-004
,,,-1.02500000e-009,-3.04686590e-004
,,,-1.00000000e-009,-3.49999093e-004
,,,-9.75000000e-010,-3.82811596e-004
,,,-9.50000000e-010,-3.99999097e-004
,,,-9.25000000e-010,-4.90624103e-004
,,,-9.00000000e-010,-5.79686610e-004
,,,-8.75000000e-010,-6.64061616e-004
,,,-8.50000000e-010,-7.35936621e-004
,,,-8.25000000e-010,-7.89061625e-004
,,,-8.00000000e-010,-8.17186627e-004
,,,-7.75000000e-010,-8.20311627e-004
,,,-7.50000000e-010,-7.99999125e-004
,,,-7.25000000e-010,-8.98436632e-004
,,,-7.00000000e-010,-1.00781164e-003
,,,-6.75000000e-010,-1.12343665e-003
,,,-6.50000000e-010,-1.23906166e-003
,,,-6.25000000e-010,-1.34687416e-003
,,,-6.00000000e-010,-1.44218667e-003
,,,-5.75000000e-010,-1.52499918e-003
,,,-5.50000000e-010,-1.59999918e-003
,,,-5.25000000e-010,-1.85312420e-003
,,,-5.00000000e-010,-2.13593672e-003
,,,-4.75000000e-010,-2.44218674e-003
,,,-4.50000000e-010,-2.76093676e-003
,,,-4.25000000e-010,-3.07968679e-003
,,,-4.00000000e-010,-3.39218681e-003
,,,-3.75000000e-010,-3.69687433e-003
,,,-3.50000000e-010,-3.99999935e-003
,,,-3.25000000e-010,-4.50468689e-003
,,,-3.00000000e-010,-5.05937443e-003
,,,-2.75000000e-010,-5.65937447e-003
,,,-2.50000000e-010,-6.30156201e-003
,,,-2.25000000e-010,-6.97656206e-003
,,,-2.00000000e-010,-7.68437461e-003
,,,-1.75000000e-010,-8.42499967e-003
,,,-1.50000000e-010,-9.19999972e-003
,,,-1.25000000e-010,-1.01828123e-002
,,,-1.00000000e-010,-1.12390624e-002
,,,-7.50000000e-011,-1.23609374e-002
,,,-5.00000000e-011,-1.35312500e-002
,,,-2.50000000e-011,-1.47328126e-002
,,,0.00000000e+000,-1.59515627e-002
,,,2.50000000e-011,-1.71750003e-002
,,,5.00000000e-011,-1.84000004e-002
,,,7.50000000e-011,-1.97093755e-002
,,,1.00000000e-010,-2.10437506e-002
,,,1.25000000e-010,-2.24000007e-002
,,,1.50000000e-010,-2.37687508e-002
,,,1.75000000e-010,-2.51390633e-002
,,,2.00000000e-010,-2.65062509e-002
,,,2.25000000e-010,-2.78609385e-002
,,,2.50000000e-010,-2.92000011e-002
,,,2.75000000e-010,-3.05093762e-002
,,,3.00000000e-010,-3.18328138e-002
,,,3.25000000e-010,-3.31656264e-002
,,,3.50000000e-010,-3.45000015e-002
,,,3.75000000e-010,-3.58250016e-002
,,,4.00000000e-010,-3.71234392e-002
,,,4.25000000e-010,-3.83859393e-002
,,,4.50000000e-010,-3.96000019e-002
,,,4.75000000e-010,-4.06453144e-002
,,,5.00000000e-010,-4.16687520e-002
,,,5.25000000e-010,-4.26718771e-002
,,,5.50000000e-010,-4.36531272e-002
,,,5.75000000e-010,-4.46046897e-002
,,,6.00000000e-010,-4.55187523e-002
,,,6.25000000e-010,-4.63875024e-002
,,,6.50000000e-010,-4.72000024e-002
,,,6.75000000e-010,-4.77640649e-002
,,,7.00000000e-010,-4.83093775e-002
,,,7.25000000e-010,-4.88421900e-002
,,,7.50000000e-010,-4.93625026e-002
,,,7.75000000e-010,-4.98671901e-002
,,,8.00000000e-010,-5.03484401e-002
,,,8.25000000e-010,-5.07953152e-002
,,,8.50000000e-010,-5.12000027e-002
,,,8.75000000e-010,-5.13250027e-002
,,,9.00000000e-010,-5.14359402e-002
,,,9.25000000e-010,-5.15421902e-002
,,,9.50000000e-010,-5.16468777e-002
,,,9.75000000e-010,-5.17515652e-002
,,,1.00000000e-009,-5.18500027e-002
,,,1.02500000e-009,-5.19343777e-002
,,,1.05000000e-009,-5.20000027e-002
,,,1.07500000e-009,-5.18078152e-002
,,,1.10000000e-009,-5.16156277e-002
,,,1.12500000e-009,-5.14343777e-002
,,,1.15000000e-009,-5.12718777e-002
,,,1.17500000e-009,-5.11312527e-002
,,,1.20000000e-009,-5.10093777e-002
,,,1.22500000e-009,-5.09015652e-002
,,,1.25000000e-009,-5.08000027e-002
,,,1.27500000e-009,-5.04843776e-002
,,,1.30000000e-009,-5.01671901e-002
,,,1.32500000e-009,-4.98578151e-002
,,,1.35000000e-009,-4.95562526e-002
,,,1.37500000e-009,-4.92656276e-002
,,,1.40000000e-009,-4.89796900e-002
,,,1.42500000e-009,-4.86937525e-002
,,,1.45000000e-009,-4.84000025e-002
,,,1.47500000e-009,-4.79125025e-002
,,,1.50000000e-009,-4.73953149e-002
,,,1.52500000e-009,-4.68546899e-002
,,,1.55000000e-009,-4.62968773e-002
,,,1.57500000e-009,-4.57296898e-002
,,,1.60000000e-009,-4.51562523e-002
,,,1.62500000e-009,-4.45812522e-002
,,,1.65000000e-009,-4.40000022e-002
,,,1.67500000e-009,-4.32828146e-002
,,,1.70000000e-009,-4.25406271e-002
,,,1.72500000e-009,-4.17796895e-002
,,,1.75000000e-009,-4.10109395e-002
,,,1.77500000e-009,-4.02437519e-002
,,,1.80000000e-009,-3.94828144e-002
,,,1.82500000e-009,-3.87359393e-002
,,,1.85000000e-009,-3.80000018e-002
,,,1.87500000e-009,-3.71921892e-002
,,,1.90000000e-009,-3.63625016e-002
,,,1.92500000e-009,-3.55125016e-002
,,,1.95000000e-009,-3.46500015e-002
,,,1.97500000e-009,-3.37812515e-002
,,,2.00000000e-009,-3.29125014e-002
,,,2.02500000e-009,-3.20515638e-002
,,,2.05000000e-009,-3.12000013e-002
,,,2.07500000e-009,-3.03312512e-002
,,,2.10000000e-009,-2.94484387e-002
,,,2.12500000e-009,-2.85562511e-002
,,,2.15000000e-009,-2.76671885e-002
,,,2.17500000e-009,-2.67953135e-002
,,,2.20000000e-009,-2.59531259e-002
,,,2.22500000e-009,-2.51531258e-002
,,,2.25000000e-009,-2.44000008e-002
,,,2.27500000e-009,-2.37125007e-002
,,,2.30000000e-009,-2.30343757e-002
,,,2.32500000e-009,-2.23640632e-002
,,,2.35000000e-009,-2.17031256e-002
,,,2.37500000e-009,-2.10531256e-002
,,,2.40000000e-009,-2.04187505e-002
,,,2.42500000e-009,-1.98015630e-002
,,,2.45000000e-009,-1.92000004e-002
,,,2.47500000e-009,-1.86593754e-002
,,,2.50000000e-009,-1.80906253e-002
,,,2.52500000e-009,-1.74953128e-002
,,,2.55000000e-009,-1.68781253e-002
,,,2.57500000e-009,-1.62484377e-002
,,,2.60000000e-009,-1.56187502e-002
,,,2.62500000e-009,-1.50000001e-002
,,,2.65000000e-009,-1.44000001e-002
,,,2.67500000e-009,-1.38953126e-002
,,,2.70000000e-009,-1.33828125e-002
,,,2.72500000e-009,-1.28640625e-002
,,,2.75000000e-009,-1.23437499e-002
,,,2.77500000e-009,-1.18296874e-002
,,,2.80000000e-009,-1.13296874e-002
,,,2.82500000e-009,-1.08515623e-002
,,,2.85000000e-009,-1.03999998e-002
,,,2.87500000e-009,-1.00562498e-002
,,,2.90000000e-009,-9.70781226e-003
,,,2.92500000e-009,-9.35312473e-003
,,,2.95000000e-009,-8.99218721e-003
,,,2.97500000e-009,-8.63124968e-003
,,,3.00000000e-009,-8.27343715e-003
,,,3.02500000e-009,-7.92968713e-003
,,,3.05000000e-009,-7.59999961e-003
,,,3.07500000e-009,-7.36249959e-003
,,,3.10000000e-009,-7.11718707e-003
,,,3.12500000e-009,-6.86093705e-003
,,,3.15000000e-009,-6.59999954e-003
,,,3.17500000e-009,-6.33593702e-003
,,,3.20000000e-009,-6.07656200e-003
,,,3.22500000e-009,-5.83124948e-003
,,,3.25000000e-009,-5.59999947e-003
,,,3.27500000e-009,-5.45312445e-003
,,,3.30000000e-009,-5.30312444e-003
,,,3.32500000e-009,-5.14843693e-003
,,,3.35000000e-009,-4.99218692e-003
,,,3.37500000e-009,-4.83437441e-003
,,,3.40000000e-009,-4.68124940e-003
,,,3.42500000e-009,-4.53437439e-003
,,,3.45000000e-009,-4.39999938e-003
,,,3.47500000e-009,-4.33437438e-003
,,,3.50000000e-009,-4.26718687e-003
,,,3.52500000e-009,-4.20156187e-003
,,,3.55000000e-009,-4.13749936e-003
,,,3.57500000e-009,-4.08281186e-003
,,,3.60000000e-009,-4.03906185e-003
,,,3.62500000e-009,-4.01249935e-003
,,,3.65000000e-009,-3.99999935e-003
,,,3.67500000e-009,-4.03906185e-003
,,,3.70000000e-009,-4.07499936e-003
,,,3.72500000e-009,-4.10312436e-003
,,,3.75000000e-009,-4.11874936e-003
,,,3.77500000e-009,-4.11874936e-003
,,,3.80000000e-009,-4.09843686e-003
,,,3.82500000e-009,-4.05937436e-003
,,,3.85000000e-009,-3.99999935e-003
,,,3.87500000e-009,-3.94062435e-003
,,,3.90000000e-009,-3.85624934e-003
,,,3.92500000e-009,-3.75156183e-003
,,,3.95000000e-009,-3.63437433e-003
,,,3.97500000e-009,-3.51406182e-003
,,,4.00000000e-009,-3.39531181e-003
,,,4.02500000e-009,-3.28906180e-003
,,,4.05000000e-009,-3.19999930e-003
,,,4.07500000e-009,-3.14687429e-003
,,,4.10000000e-009,-3.11093679e-003
,,,4.12500000e-009,-3.09531179e-003
,,,4.15000000e-009,-3.09531179e-003
,,,4.17500000e-009,-3.10937429e-003
,,,4.20000000e-009,-3.13437429e-003
,,,4.22500000e-009,-3.16562429e-003
,,,4.25000000e-009,-3.19999930e-003
,,,4.27500000e-009,-3.23749930e-003
,,,4.30000000e-009,-3.26562430e-003
,,,4.32500000e-009,-3.28281180e-003
,,,4.35000000e-009,-3.28749930e-003
,,,4.37500000e-009,-3.28124930e-003
,,,4.40000000e-009,-3.26249930e-003
,,,4.42500000e-009,-3.23593680e-003
,,,4.45000000e-009,-3.19999930e-003
,,,4.47500000e-009,-3.15624929e-003
,,,4.50000000e-009,-3.10468679e-003
,,,4.52500000e-009,-3.04999928e-003
,,,4.55000000e-009,-2.99374928e-003
,,,4.57500000e-009,-2.93906178e-003
,,,4.60000000e-009,-2.88906177e-003
,,,4.62500000e-009,-2.84218677e-003
,,,4.65000000e-009,-2.79999927e-003
,,,4.67500000e-009,-2.75781176e-003
,,,4.70000000e-009,-2.71562426e-003
,,,4.72500000e-009,-2.67031176e-003
,,,4.75000000e-009,-2.62499925e-003
,,,4.77500000e-009,-2.57499925e-003
,,,4.80000000e-009,-2.52031175e-003
,,,4.82500000e-009,-2.46249924e-003
,,,4.85000000e-009,-2.39999924e-003
,,,4.87500000e-009,-2.33749923e-003
,,,4.90000000e-009,-2.27187423e-003
,,,4.92500000e-009,-2.20624922e-003
,,,4.95000000e-009,-2.14374922e-003
,,,4.97500000e-009,-2.09062422e-003
,,,5.00000000e-009,-2.04687421e-003
,,,5.02500000e-009,-2.01718671e-003
,,,5.05000000e-009,-1.99999921e-003
,,,5.07500000e-009,-1.99687421e-003
,,,5.10000000e-009,-2.00156171e-003
,,,5.12500000e-009,-2.01249921e-003
,,,5.15000000e-009,-2.02499921e-003
,,,5.17500000e-009,-2.03437421e-003
,,,5.20000000e-009,-2.03593671e-003
,,,5.22500000e-009,-2.02656171e-003
,,,5.25000000e-009,-1.99999921e-003
,,,5.27500000e-009,-1.95468671e-003
,,,5.30000000e-009,-1.88749920e-003
,,,5.32500000e-009,-1.79999920e-003
,,,5.35000000e-009,-1.69687419e-003
,,,5.37500000e-009,-1.57968668e-003
,,,5.40000000e-009,-1.45468667e-003
,,,5.42500000e-009,-1.32656166e-003
,,,5.45000000e-009,-1.19999915e-003
,,,5.47500000e-009,-1.08906165e-003
,,,5.50000000e-009,-9.89061639e-004
,,,5.52500000e-009,-9.04686633e-004
,,,5.55000000e-009,-8.40624128e-004
,,,5.57500000e-009,-7.96874125e-004
,,,5.60000000e-009,-7.76561624e-004
,,,5.62500000e-009,-7.78124124e-004
,,,5.65000000e-009,-7.99999125e-004
,,,5.67500000e-009,-8.46874129e-004
,,,5.70000000e-009,-9.04686633e-004
,,,5.72500000e-009,-9.68749137e-004
,,,5.75000000e-009,-1.03124914e-003
,,,5.77500000e-009,-1.09062415e-003
,,,5.80000000e-009,-1.14062415e-003
,,,5.82500000e-009,-1.17812415e-003
,,,5.85000000e-009,-1.19999915e-003
,,,5.87500000e-009,-1.20781165e-003
,,,5.90000000e-009,-1.19374915e-003
