RawData/WithScintilator/R7_2pt2B_15mV/wave027_Ch2.csv

"Record Length",1000,"Points",-7.72500000e-009,4.29688462e-004
"Sample Interval",2.50000000e-011,s,-7.70000000e-009,4.01563460e-004
"Trigger Point",309,"Samples",-7.67500000e-009,4.00000960e-004
"Trigger Time",8.14863071e-012,s,-7.65000000e-009,4.18750961e-004
"",,,-7.62500000e-009,4.64063464e-004
"Horizontal Offset",-7.72500000e-009,s,-7.60000000e-009,5.26563469e-004
,,,-7.57500000e-009,5.98438474e-004
,,,-7.55000000e-009,6.71875979e-004
,,,-7.52500000e-009,7.34375983e-004
,,,-7.50000000e-009,7.78125986e-004
,,,-7.47500000e-009,8.00000988e-004
,,,-7.45000000e-009,7.89063487e-004
,,,-7.42500000e-009,7.53125985e-004
,,,-7.40000000e-009,6.98438481e-004
,,,-7.37500000e-009,6.29688476e-004
,,,-7.35000000e-009,5.57813471e-004
,,,-7.32500000e-009,4.90625966e-004
,,,-7.30000000e-009,4.35938462e-004
,,,-7.27500000e-009,4.00000960e-004
,,,-7.25000000e-009,3.82813458e-004
,,,-7.22500000e-009,3.85938459e-004
,,,-7.20000000e-009,4.01563460e-004
,,,-7.17500000e-009,4.23438461e-004
,,,-7.15000000e-009,4.42188463e-004
,,,-7.12500000e-009,4.50000963e-004
,,,-7.10000000e-009,4.37500962e-004
,,,-7.07500000e-009,4.00000960e-004
,,,-7.05000000e-009,3.34375955e-004
,,,-7.02500000e-009,2.45313449e-004
,,,-7.00000000e-009,1.35938441e-004
,,,-6.97500000e-009,1.56259324e-005
,,,-6.95000000e-009,-1.09374076e-004
,,,-6.92500000e-009,-2.24999085e-004
,,,-6.90000000e-009,-3.24999092e-004
,,,-6.87500000e-009,-3.99999097e-004
,,,-6.85000000e-009,-4.39061600e-004
,,,-6.82500000e-009,-4.43749100e-004
,,,-6.80000000e-009,-4.18749098e-004
,,,-6.77500000e-009,-3.65624095e-004
,,,-6.75000000e-009,-2.90624089e-004
,,,-6.72500000e-009,-1.99999083e-004
,,,-6.70000000e-009,-1.01561576e-004
,,,-6.67500000e-009,9.31322575e-010
,,,-6.65000000e-009,9.84384383e-005
,,,-6.62500000e-009,1.85938444e-004
,,,-6.60000000e-009,2.59375950e-004
,,,-6.57500000e-009,3.17188454e-004
,,,-6.55000000e-009,3.57813457e-004
,,,-6.52500000e-009,3.84375959e-004
,,,-6.50000000e-009,3.96875959e-004
,,,-6.47500000e-009,4.00000960e-004
,,,-6.45000000e-009,3.95313459e-004
,,,-6.42500000e-009,3.89063459e-004
,,,-6.40000000e-009,3.79688458e-004
,,,-6.37500000e-009,3.73438458e-004
,,,-6.35000000e-009,3.70313458e-004
,,,-6.32500000e-009,3.75000958e-004
,,,-6.30000000e-009,3.84375959e-004
,,,-6.27500000e-009,4.00000960e-004
,,,-6.25000000e-009,4.17188461e-004
,,,-6.22500000e-009,4.34375962e-004
,,,-6.20000000e-009,4.51563463e-004
,,,-6.17500000e-009,4.62500964e-004
,,,-6.15000000e-009,4.64063464e-004
,,,-6.12500000e-009,4.56250964e-004
,,,-6.10000000e-009,4.34375962e-004
,,,-6.07500000e-009,4.00000960e-004
,,,-6.05000000e-009,3.50000956e-004
,,,-6.02500000e-009,2.90625952e-004
,,,-6.00000000e-009,2.26563447e-004
,,,-5.97500000e-009,1.60938443e-004
,,,-5.95000000e-009,1.01563439e-004
,,,-5.92500000e-009,5.15634350e-005
,,,-5.90000000e-009,1.56259324e-005
,,,-5.87500000e-009,9.31322575e-010
,,,-5.85000000e-009,1.56343143e-006
,,,-5.82500000e-009,2.34384330e-005
,,,-5.80000000e-009,6.40634359e-005
,,,-5.77500000e-009,1.20313440e-004
,,,-5.75000000e-009,1.87500945e-004
,,,-5.72500000e-009,2.59375950e-004
,,,-5.70000000e-009,3.32813455e-004
,,,-5.67500000e-009,4.00000960e-004
,,,-5.65000000e-009,4.51563463e-004
,,,-5.62500000e-009,4.90625966e-004
,,,-5.60000000e-009,5.12500968e-004
,,,-5.57500000e-009,5.18750968e-004
,,,-5.55000000e-009,5.09375967e-004
,,,-5.52500000e-009,4.84375966e-004
,,,-5.50000000e-009,4.46875963e-004
,,,-5.47500000e-009,4.00000960e-004
,,,-5.45000000e-009,3.40625955e-004
,,,-5.42500000e-009,2.79688451e-004
,,,-5.40000000e-009,2.18750947e-004
,,,-5.37500000e-009,1.59375943e-004
,,,-5.35000000e-009,1.06250939e-004
,,,-5.32500000e-009,6.09384356e-005
,,,-5.30000000e-009,2.50009331e-005
,,,-5.27500000e-009,9.31322575e-010
,,,-5.25000000e-009,-1.71865699e-005
,,,-5.22500000e-009,-2.65615706e-005
,,,-5.20000000e-009,-2.81240707e-005
,,,-5.17500000e-009,-2.49990704e-005
,,,-5.15000000e-009,-1.87490700e-005
,,,-5.12500000e-009,-1.24990696e-005
,,,-5.10000000e-009,-4.68656901e-006
,,,-5.07500000e-009,9.31322575e-010
,,,-5.05000000e-009,1.56343143e-006
,,,-5.02500000e-009,9.31322575e-010
,,,-5.00000000e-009,-3.12406890e-006
,,,-4.97500000e-009,-7.81156923e-006
,,,-4.95000000e-009,-1.09365695e-005
,,,-4.92500000e-009,-1.09365695e-005
,,,-4.90000000e-009,-7.81156923e-006
,,,-4.87500000e-009,9.31322575e-010
,,,-4.85000000e-009,7.81343188e-006
,,,-4.82500000e-009,1.87509326e-005
,,,-4.80000000e-009,2.96884334e-005
,,,-4.77500000e-009,3.90634341e-005
,,,-4.75000000e-009,4.21884343e-005
,,,-4.72500000e-009,3.75009340e-005
,,,-4.70000000e-009,2.34384330e-005
,,,-4.67500000e-009,9.31322575e-010
,,,-4.65000000e-009,-3.43740711e-005
,,,-4.62500000e-009,-7.81240742e-005
,,,-4.60000000e-009,-1.29686578e-004
,,,-4.57500000e-009,-1.87499082e-004
,,,-4.55000000e-009,-2.46874086e-004
,,,-4.52500000e-009,-3.03124090e-004
,,,-4.50000000e-009,-3.56249094e-004
,,,-4.47500000e-009,-3.99999097e-004
,,,-4.45000000e-009,-4.29686599e-004
,,,-4.42500000e-009,-4.49999101e-004
,,,-4.40000000e-009,-4.57811601e-004
,,,-4.37500000e-009,-4.56249101e-004
,,,-4.35000000e-009,-4.48436600e-004
,,,-4.32500000e-009,-4.34374099e-004
,,,-4.30000000e-009,-4.18749098e-004
,,,-4.27500000e-009,-3.99999097e-004
,,,-4.25000000e-009,-3.81249096e-004
,,,-4.22500000e-009,-3.65624095e-004
,,,-4.20000000e-009,-3.56249094e-004
,,,-4.17500000e-009,-3.53124094e-004
,,,-4.15000000e-009,-3.56249094e-004
,,,-4.12500000e-009,-3.65624095e-004
,,,-4.10000000e-009,-3.81249096e-004
,,,-4.07500000e-009,-3.99999097e-004
,,,-4.05000000e-009,-4.20311598e-004
,,,-4.02500000e-009,-4.39061600e-004
,,,-4.00000000e-009,-4.54686601e-004
,,,-3.97500000e-009,-4.64061602e-004
,,,-3.95000000e-009,-4.64061602e-004
,,,-3.92500000e-009,-4.54686601e-004
,,,-3.90000000e-009,-4.34374099e-004
,,,-3.87500000e-009,-3.99999097e-004
,,,-3.85000000e-009,-3.53124094e-004
,,,-3.82500000e-009,-2.98436590e-004
,,,-3.80000000e-009,-2.39061586e-004
,,,-3.77500000e-009,-1.78124081e-004
,,,-3.75000000e-009,-1.21874077e-004
,,,-3.72500000e-009,-7.18740738e-005
,,,-3.70000000e-009,-2.96865708e-005
,,,-3.67500000e-009,9.31322575e-010
,,,-3.65000000e-009,1.71884325e-005
,,,-3.62500000e-009,2.34384330e-005
,,,-3.60000000e-009,2.18759329e-005
,,,-3.57500000e-009,1.40634323e-005
,,,-3.55000000e-009,6.25093176e-006
,,,-3.52500000e-009,-1.56156879e-006
,,,-3.50000000e-009,-4.68656901e-006
,,,-3.47500000e-009,9.31322575e-010
,,,-3.45000000e-009,4.68843165e-006
,,,-3.42500000e-009,1.56259324e-005
,,,-3.40000000e-009,2.81259333e-005
,,,-3.37500000e-009,4.06259342e-005
,,,-3.35000000e-009,4.68759346e-005
,,,-3.32500000e-009,4.37509344e-005
,,,-3.30000000e-009,2.81259333e-005
,,,-3.27500000e-009,9.31322575e-010
,,,-3.25000000e-009,-4.68740720e-005
,,,-3.22500000e-009,-1.03124076e-004
,,,-3.20000000e-009,-1.67186581e-004
,,,-3.17500000e-009,-2.31249085e-004
,,,-3.15000000e-009,-2.92186589e-004
,,,-3.12500000e-009,-3.43749093e-004
,,,-3.10000000e-009,-3.81249096e-004
,,,-3.07500000e-009,-3.99999097e-004
,,,-3.05000000e-009,-3.96874097e-004
,,,-3.02500000e-009,-3.73436595e-004
,,,-3.00000000e-009,-3.29686592e-004
,,,-2.97500000e-009,-2.71874088e-004
,,,-2.95000000e-009,-2.04686583e-004
,,,-2.92500000e-009,-1.34374078e-004
,,,-2.90000000e-009,-6.40615732e-005
,,,-2.87500000e-009,9.31322575e-010
,,,-2.85000000e-009,4.53134345e-005
,,,-2.82500000e-009,7.81259369e-005
,,,-2.80000000e-009,9.37509380e-005
,,,-2.77500000e-009,9.68759382e-005
,,,-2.75000000e-009,8.59384374e-005
,,,-2.72500000e-009,6.40634359e-005
,,,-2.70000000e-009,3.43759338e-005
,,,-2.67500000e-009,9.31322575e-010
,,,-2.65000000e-009,-4.21865717e-005
,,,-2.62500000e-009,-8.74990749e-005
,,,-2.60000000e-009,-1.35936578e-004
,,,-2.57500000e-009,-1.85936582e-004
,,,-2.55000000e-009,-2.37499085e-004
,,,-2.52500000e-009,-2.92186589e-004
,,,-2.50000000e-009,-3.46874093e-004
,,,-2.47500000e-009,-3.99999097e-004
,,,-2.45000000e-009,-4.48436600e-004
,,,-2.42500000e-009,-4.87499103e-004
,,,-2.40000000e-009,-5.15624105e-004
,,,-2.37500000e-009,-5.31249106e-004
,,,-2.35000000e-009,-5.28124106e-004
,,,-2.32500000e-009,-5.04686604e-004
,,,-2.30000000e-009,-4.62499101e-004
,,,-2.27500000e-009,-3.99999097e-004
,,,-2.25000000e-009,-3.23436592e-004
,,,-2.22500000e-009,-2.39061586e-004
,,,-2.20000000e-009,-1.54686580e-004
,,,-2.17500000e-009,-7.96865743e-005
,,,-2.15000000e-009,-2.03115701e-005
,,,-2.12500000e-009,1.56259324e-005
,,,-2.10000000e-009,2.34384330e-005
,,,-2.07500000e-009,9.31322575e-010
,,,-2.05000000e-009,-6.40615732e-005
,,,-2.02500000e-009,-1.54686580e-004
,,,-2.00000000e-009,-2.67186588e-004
,,,-1.97500000e-009,-3.90624096e-004
,,,-1.95000000e-009,-5.15624105e-004
,,,-1.92500000e-009,-6.31249113e-004
,,,-1.90000000e-009,-7.29686620e-004
,,,-1.87500000e-009,-7.99999125e-004
,,,-1.85000000e-009,-8.42186628e-004
,,,-1.82500000e-009,-8.49999129e-004
,,,-1.80000000e-009,-8.26561627e-004
,,,-1.77500000e-009,-7.74999124e-004
,,,-1.75000000e-009,-6.99999118e-004
,,,-1.72500000e-009,-6.07811612e-004
,,,-1.70000000e-009,-5.06249105e-004
,,,-1.67500000e-009,-3.99999097e-004
,,,-1.65000000e-009,-3.10936591e-004
,,,-1.62500000e-009,-2.32811585e-004
,,,-1.60000000e-009,-1.67186581e-004
,,,-1.57500000e-009,-1.15624077e-004
,,,-1.55000000e-009,-7.49990740e-005
,,,-1.52500000e-009,-4.21865717e-005
,,,-1.50000000e-009,-1.87490700e-005
,,,-1.47500000e-009,9.31322575e-010
,,,-1.45000000e-009,-2.34365703e-005
,,,-1.42500000e-009,-5.62490727e-005
,,,-1.40000000e-009,-9.99990758e-005
,,,-1.37500000e-009,-1.49999079e-004
,,,-1.35000000e-009,-2.06249083e-004
,,,-1.32500000e-009,-2.67186588e-004
,,,-1.30000000e-009,-3.31249092e-004
,,,-1.27500000e-009,-3.99999097e-004
,,,-1.25000000e-009,-5.20311606e-004
,,,-1.22500000e-009,-6.48436615e-004
,,,-1.20000000e-009,-7.76561624e-004
,,,-1.17500000e-009,-8.98436632e-004
,,,-1.15000000e-009,-1.00781164e-003
,,,-1.12500000e-009,-1.09531165e-003
,,,-1.10000000e-009,-1.16093665e-003
,,,-1.07500000e-009,-1.19999915e-003
,,,-1.05000000e-009,-1.27656166e-003
,,,-1.02500000e-009,-1.34218666e-003
,,,-1.00000000e-009,-1.39999917e-003
,,,-9.75000000e-010,-1.44843667e-003
,,,-9.50000000e-010,-1.48906167e-003
,,,-9.25000000e-010,-1.52499918e-003
,,,-9.00000000e-010,-1.56093668e-003
,,,-8.75000000e-010,-1.59999918e-003
,,,-8.50000000e-010,-1.72187419e-003
,,,-8.25000000e-010,-1.87187420e-003
,,,-8.00000000e-010,-2.04687421e-003
,,,-7.75000000e-010,-2.24531173e-003
,,,-7.50000000e-010,-2.46249924e-003
,,,-7.25000000e-010,-2.69531176e-003
,,,-7.00000000e-010,-2.94062428e-003
,,,-6.75000000e-010,-3.19999930e-003
,,,-6.50000000e-010,-3.53281182e-003
,,,-6.25000000e-010,-3.89062434e-003
,,,-6.00000000e-010,-4.27187437e-003
,,,-5.75000000e-010,-4.67187440e-003
,,,-5.50000000e-010,-5.08749943e-003
,,,-5.25000000e-010,-5.51562446e-003
,,,-5.00000000e-010,-5.95312449e-003
,,,-4.75000000e-010,-6.39999952e-003
,,,-4.50000000e-010,-6.88124956e-003
,,,-4.25000000e-010,-7.37656209e-003
,,,-4.00000000e-010,-7.88281213e-003
,,,-3.75000000e-010,-8.39687466e-003
,,,-3.50000000e-010,-8.90937470e-003
,,,-3.25000000e-010,-9.41718724e-003
,,,-3.00000000e-010,-9.91562477e-003
,,,-2.75000000e-010,-1.03999998e-002
,,,-2.50000000e-010,-1.08593748e-002
,,,-2.25000000e-010,-1.13156249e-002
,,,-2.00000000e-010,-1.17687499e-002
,,,-1.75000000e-010,-1.22218749e-002
,,,-1.50000000e-010,-1.26718750e-002
,,,-1.25000000e-010,-1.31203125e-002
,,,-1.00000000e-010,-1.35640625e-002
,,,-7.50000000e-011,-1.40000001e-002
,,,-5.00000000e-011,-1.43812501e-002
,,,-2.50000000e-011,-1.47609376e-002
,,,0.00000000e+000,-1.51375001e-002
,,,2.50000000e-011,-1.55078127e-002
,,,5.00000000e-011,-1.58656252e-002
,,,7.50000000e-011,-1.62046877e-002
,,,1.00000000e-010,-1.65187502e-002
,,,1.25000000e-010,-1.68000003e-002
,,,1.50000000e-010,-1.69734378e-002
,,,1.75000000e-010,-1.71203128e-002
,,,2.00000000e-010,-1.72468753e-002
,,,2.25000000e-010,-1.73531253e-002
,,,2.50000000e-010,-1.74421878e-002
,,,2.75000000e-010,-1.75140628e-002
,,,3.00000000e-010,-1.75671878e-002
,,,3.25000000e-010,-1.76000003e-002
,,,3.50000000e-010,-1.75359378e-002
,,,3.75000000e-010,-1.74687503e-002
,,,4.00000000e-010,-1.74062503e-002
,,,4.25000000e-010,-1.73515628e-002
,,,4.50000000e-010,-1.73046878e-002
,,,4.75000000e-010,-1.72671878e-002
,,,5.00000000e-010,-1.72328128e-002
,,,5.25000000e-010,-1.72000003e-002
,,,5.50000000e-010,-1.70875003e-002
,,,5.75000000e-010,-1.69781253e-002
,,,6.00000000e-010,-1.68750003e-002
,,,6.25000000e-010,-1.67765628e-002
,,,6.50000000e-010,-1.66812502e-002
,,,6.75000000e-010,-1.65890627e-002
,,,7.00000000e-010,-1.64968752e-002
,,,7.25000000e-010,-1.64000002e-002
,,,7.50000000e-010,-1.62312502e-002
,,,7.75000000e-010,-1.60593752e-002
,,,8.00000000e-010,-1.58890627e-002
,,,8.25000000e-010,-1.57250002e-002
,,,8.50000000e-010,-1.55734377e-002
,,,8.75000000e-010,-1.54343752e-002
,,,9.00000000e-010,-1.53109377e-002
,,,9.25000000e-010,-1.52000001e-002
,,,9.50000000e-010,-1.50515626e-002
,,,9.75000000e-010,-1.49046876e-002
,,,1.00000000e-009,-1.47609376e-002
,,,1.02500000e-009,-1.46171876e-002
,,,1.05000000e-009,-1.44718751e-002
,,,1.07500000e-009,-1.43234376e-002
,,,1.10000000e-009,-1.41671876e-002
,,,1.12500000e-009,-1.40000001e-002
,,,1.15000000e-009,-1.37921875e-002
,,,1.17500000e-009,-1.35625000e-002
,,,1.20000000e-009,-1.33156250e-002
,,,1.22500000e-009,-1.30562500e-002
,,,1.25000000e-009,-1.27906250e-002
,,,1.27500000e-009,-1.25250000e-002
,,,1.30000000e-009,-1.22609374e-002
,,,1.32500000e-009,-1.19999999e-002
,,,1.35000000e-009,-1.17281249e-002
,,,1.37500000e-009,-1.14484374e-002
,,,1.40000000e-009,-1.11609374e-002
,,,1.42500000e-009,-1.08656248e-002
,,,1.45000000e-009,-1.05624998e-002
,,,1.47500000e-009,-1.02499998e-002
,,,1.50000000e-009,-9.92968727e-003
,,,1.52500000e-009,-9.59999975e-003
,,,1.55000000e-009,-9.26406222e-003
,,,1.57500000e-009,-8.91093720e-003
,,,1.60000000e-009,-8.54687467e-003
,,,1.62500000e-009,-8.17656215e-003
,,,1.65000000e-009,-7.80781212e-003
,,,1.67500000e-009,-7.44999960e-003
,,,1.70000000e-009,-7.11249957e-003
,,,1.72500000e-009,-6.79999955e-003
,,,1.75000000e-009,-6.54062453e-003
,,,1.77500000e-009,-6.30781202e-003
,,,1.80000000e-009,-6.10624950e-003
,,,1.82500000e-009,-5.93593699e-003
,,,1.85000000e-009,-5.79999948e-003
,,,1.87500000e-009,-5.69999947e-003
,,,1.90000000e-009,-5.63593697e-003
,,,1.92500000e-009,-5.59999947e-003
,,,1.95000000e-009,-5.61093697e-003
,,,1.97500000e-009,-5.61874947e-003
,,,2.00000000e-009,-5.61562447e-003
,,,2.02500000e-009,-5.59218696e-003
,,,2.05000000e-009,-5.54374946e-003
,,,2.07500000e-009,-5.46249946e-003
,,,2.10000000e-009,-5.34843695e-003
,,,2.12500000e-009,-5.19999944e-003
,,,2.15000000e-009,-5.04687443e-003
,,,2.17500000e-009,-4.85781191e-003
,,,2.20000000e-009,-4.64218690e-003
,,,2.22500000e-009,-4.41249938e-003
,,,2.25000000e-009,-4.18124936e-003
,,,2.27500000e-009,-3.96249935e-003
,,,2.30000000e-009,-3.76562434e-003
,,,2.32500000e-009,-3.59999932e-003
,,,2.35000000e-009,-3.49999932e-003
,,,2.37500000e-009,-3.42499931e-003
,,,2.40000000e-009,-3.37343681e-003
,,,2.42500000e-009,-3.33593680e-003
,,,2.45000000e-009,-3.30781180e-003
,,,2.47500000e-009,-3.27968680e-003
,,,2.50000000e-009,-3.24531180e-003
,,,2.52500000e-009,-3.19999930e-003
,,,2.55000000e-009,-3.15937429e-003
,,,2.57500000e-009,-3.09062429e-003
,,,2.60000000e-009,-2.99843678e-003
,,,2.62500000e-009,-2.88749927e-003
,,,2.65000000e-009,-2.76249926e-003
,,,2.67500000e-009,-2.63437426e-003
,,,2.70000000e-009,-2.51093675e-003
,,,2.72500000e-009,-2.39999924e-003
,,,2.75000000e-009,-2.32968673e-003
,,,2.77500000e-009,-2.27968673e-003
,,,2.80000000e-009,-2.25156173e-003
,,,2.82500000e-009,-2.24531173e-003
,,,2.85000000e-009,-2.26093673e-003
,,,2.87500000e-009,-2.29374923e-003
,,,2.90000000e-009,-2.34218673e-003
,,,2.92500000e-009,-2.39999924e-003
,,,2.95000000e-009,-2.47499924e-003
,,,2.97500000e-009,-2.54687425e-003
,,,3.00000000e-009,-2.61249925e-003
,,,3.02500000e-009,-2.66874926e-003
,,,3.05000000e-009,-2.71718676e-003
,,,3.07500000e-009,-2.75624926e-003
,,,3.10000000e-009,-2.78437427e-003
,,,3.12500000e-009,-2.79999927e-003
,,,3.15000000e-009,-2.81093677e-003
,,,3.17500000e-009,-2.80312427e-003
,,,3.20000000e-009,-2.77812427e-003
,,,3.22500000e-009,-2.73437426e-003
,,,3.25000000e-009,-2.67187426e-003
,,,3.27500000e-009,-2.59374925e-003
,,,3.30000000e-009,-2.50156175e-003
,,,3.32500000e-009,-2.39999924e-003
,,,3.35000000e-009,-2.29687423e-003
,,,3.37500000e-009,-2.19687422e-003
,,,3.40000000e-009,-2.10624922e-003
,,,3.42500000e-009,-2.03124921e-003
,,,3.45000000e-009,-1.97968671e-003
,,,3.47500000e-009,-1.95624921e-003
,,,3.50000000e-009,-1.96406171e-003
,,,3.52500000e-009,-1.99999921e-003
,,,3.55000000e-009,-2.06718671e-003
,,,3.57500000e-009,-2.14999922e-003
,,,3.60000000e-009,-2.23749923e-003
,,,3.62500000e-009,-2.32031173e-003
,,,3.65000000e-009,-2.38593674e-003
,,,3.67500000e-009,-2.42656174e-003
,,,3.70000000e-009,-2.43281174e-003
,,,3.72500000e-009,-2.39999924e-003
,,,3.75000000e-009,-2.32968673e-003
,,,3.77500000e-009,-2.22656173e-003
,,,3.80000000e-009,-2.10312422e-003
,,,3.82500000e-009,-1.97031171e-003
,,,3.85000000e-009,-1.84218670e-003
,,,3.87500000e-009,-1.73124919e-003
,,,3.90000000e-009,-1.64843669e-003
,,,3.92500000e-009,-1.59999918e-003
,,,3.95000000e-009,-1.59218668e-003
,,,3.97500000e-009,-1.61874918e-003
,,,4.00000000e-009,-1.67343669e-003
,,,4.02500000e-009,-1.74687419e-003
,,,4.05000000e-009,-1.82656170e-003
,,,4.07500000e-009,-1.90312420e-003
,,,4.10000000e-009,-1.96406171e-003
,,,4.12500000e-009,-1.99999921e-003
,,,4.15000000e-009,-2.00937421e-003
,,,4.17500000e-009,-1.98749921e-003
,,,4.20000000e-009,-1.93906171e-003
,,,4.22500000e-009,-1.87031170e-003
,,,4.25000000e-009,-1.79218670e-003
,,,4.27500000e-009,-1.71406169e-003
,,,4.30000000e-009,-1.64843669e-003
,,,4.32500000e-009,-1.59999918e-003
,,,4.35000000e-009,-1.58124918e-003
,,,4.37500000e-009,-1.58906168e-003
,,,4.40000000e-009,-1.62343668e-003
,,,4.42500000e-009,-1.68124919e-003
,,,4.45000000e-009,-1.75624919e-003
,,,4.47500000e-009,-1.84062420e-003
,,,4.50000000e-009,-1.92499920e-003
,,,4.52500000e-009,-1.99999921e-003
,,,4.55000000e-009,-2.05468671e-003
,,,4.57500000e-009,-2.08437422e-003
,,,4.60000000e-009,-2.08124922e-003
,,,4.62500000e-009,-2.04687421e-003
,,,4.65000000e-009,-1.97812421e-003
,,,4.67500000e-009,-1.87812420e-003
,,,4.70000000e-009,-1.74999919e-003
,,,4.72500000e-009,-1.59999918e-003
,,,4.75000000e-009,-1.44374917e-003
,,,4.77500000e-009,-1.28437416e-003
,,,4.80000000e-009,-1.13281165e-003
,,,4.82500000e-009,-1.00156164e-003
,,,4.85000000e-009,-8.95311632e-004
,,,4.87500000e-009,-8.23436627e-004
,,,4.90000000e-009,-7.92186625e-004
,,,4.92500000e-009,-7.99999125e-004
,,,4.95000000e-009,-8.54686629e-004
,,,4.97500000e-009,-9.40624135e-004
,,,5.00000000e-009,-1.05156164e-003
,,,5.02500000e-009,-1.17656165e-003
,,,5.05000000e-009,-1.30468666e-003
,,,5.07500000e-009,-1.42499917e-003
,,,5.10000000e-009,-1.52656168e-003
,,,5.12500000e-009,-1.59999918e-003
,,,5.15000000e-009,-1.64218668e-003
,,,5.17500000e-009,-1.64687419e-003
,,,5.20000000e-009,-1.61874918e-003
,,,5.22500000e-009,-1.56093668e-003
,,,5.25000000e-009,-1.48281167e-003
,,,5.27500000e-009,-1.38906167e-003
,,,5.30000000e-009,-1.29218666e-003
,,,5.32500000e-009,-1.19999915e-003
,,,5.35000000e-009,-1.12343665e-003
,,,5.37500000e-009,-1.06562414e-003
,,,5.40000000e-009,-1.03281164e-003
,,,5.42500000e-009,-1.02343664e-003
,,,5.45000000e-009,-1.03749914e-003
,,,5.47500000e-009,-1.07499914e-003
,,,5.50000000e-009,-1.13124915e-003
,,,5.52500000e-009,-1.19999915e-003
,,,5.55000000e-009,-1.28124916e-003
,,,5.57500000e-009,-1.36249917e-003
,,,5.60000000e-009,-1.43749917e-003
,,,5.62500000e-009,-1.50312418e-003
,,,5.65000000e-009,-1.55468668e-003
,,,5.67500000e-009,-1.58906168e-003
,,,5.70000000e-009,-1.60468668e-003
,,,5.72500000e-009,-1.59999918e-003
,,,5.75000000e-009,-1.57656168e-003
,,,5.77500000e-009,-1.53749918e-003
,,,5.80000000e-009,-1.48593667e-003
,,,5.82500000e-009,-1.42656167e-003
,,,5.85000000e-009,-1.36406167e-003
,,,5.87500000e-009,-1.30312416e-003
,,,5.90000000e-009,-1.24687416e-003
